{
  "luaDataPath": "",
  "entityBan": "",
  "disableNpcLod": true,
  "isAutoBanNpc": true,
  "isBanWidgetPet": true,
  "protectNpcMobileLod": true,
  "startFade": {
    "startFadeOutDuration": 0.0
  },
  "endFade": {
    "startFadeOutDuration": 0.0
  },
  "actors": [
    {
      "alias": "Avatar",
      "visible": true,
      "bornPointName": "",
      "relativePosNpcAlias": "",
      "_bindMovingTargetKey": ""
    },
    {
      "configID": 3020,
      "alias": "3020",
      "visible": true,
      "bornPointName": "",
      "forceCreateDaily": true,
      "relativePosNpcAlias": "",
      "_bindMovingTargetKey": ""
    }
  ],
  "group": [
    [
      {
        "$type": "MoleMole.Config.ConfigTimeProtectAction",
        "type": "TIME_PROTECT",
        "duration": 0.10000000149011612
      }
    ],
    [
      {
        "$type": "PKKMAMONGEO",
        "type": "DIALOG",
        "aliasList": [
          "3020"
        ],
        "dialogID": 190603001,
        "protectTime": 0.5
      },
      {
        "$type": "HDGKHDNFMIM",
        "type": "DIALOG_SELECT",
        "delayTime": 0.4000000059604645,
        "aliasList": [
          "Avatar"
        ],
        "dialogIDList": [
          190603002
        ],
        "grpIDList": [
          1922390693
        ],
        "useGrpId": true
      }
    ],
    [
      {
        "$type": "PKKMAMONGEO",
        "type": "DIALOG",
        "aliasList": [
          "3020"
        ],
        "dialogID": 190603003,
        "protectTime": 0.5
      }
    ],
    [
      {
        "$type": "PKKMAMONGEO",
        "type": "DIALOG",
        "aliasList": [
          "3020"
        ],
        "dialogID": 190603004,
        "protectTime": 0.5
      }
    ],
    [
      {
        "$type": "PKKMAMONGEO",
        "type": "DIALOG",
        "aliasList": [
          "3020"
        ],
        "dialogID": 190603005,
        "protectTime": 0.5
      }
    ],
    [
      {
        "$type": "PKKMAMONGEO",
        "type": "DIALOG",
        "aliasList": [
          "3020"
        ],
        "dialogID": 190603006,
        "protectTime": 0.5
      },
      {
        "$type": "HDGKHDNFMIM",
        "type": "DIALOG_SELECT",
        "delayTime": 0.4000000059604645,
        "aliasList": [
          "Avatar"
        ],
        "dialogIDList": [
          190603007
        ],
        "grpIDList": [
          1922390697
        ],
        "useGrpId": true
      }
    ],
    [
      {
        "$type": "PKKMAMONGEO",
        "type": "DIALOG",
        "aliasList": [
          "3020"
        ],
        "dialogID": 190603008,
        "protectTime": 0.5
      }
    ],
    [
      {
        "$type": "PKKMAMONGEO",
        "type": "DIALOG",
        "aliasList": [
          "3020"
        ],
        "dialogID": 190603009,
        "protectTime": 0.5
      }
    ],
    [
      {
        "$type": "PKKMAMONGEO",
        "type": "DIALOG",
        "aliasList": [
          "3020"
        ],
        "dialogID": 190603010,
        "protectTime": 0.5
      }
    ],
    [
      {
        "$type": "MoleMole.Config.ConfigTimeProtectAction",
        "type": "TIME_PROTECT",
        "duration": 0.10000000149011612
      }
    ]
  ],
  "groupId": [
    {
      "grpId": 1922390691,
      "nextGrpId": 1922390692
    },
    {
      "index": 1,
      "grpId": 1922390692,
      "nextGrpId": 1922390693
    },
    {
      "index": 2,
      "grpId": 1922390693,
      "nextGrpId": 1922390694
    },
    {
      "index": 3,
      "grpId": 1922390694,
      "nextGrpId": 1922390695
    },
    {
      "index": 4,
      "grpId": 1922390695,
      "nextGrpId": 1922390696
    },
    {
      "index": 5,
      "grpId": 1922390696,
      "nextGrpId": 1922390697
    },
    {
      "index": 6,
      "grpId": 1922390697,
      "nextGrpId": 1922390698
    },
    {
      "index": 7,
      "grpId": 1922390698,
      "nextGrpId": 1922390699
    },
    {
      "index": 8,
      "grpId": 1922390699,
      "nextGrpId": 3759536621
    },
    {
      "index": 9,
      "grpId": 3759536621,
      "nextGrpId": 3759536622
    }
  ],
  "freeStyleDic": {
    "3020": []
  }
}