{
  "luaDataPath": "",
  "entityBan": "",
  "disableNpcLod": true,
  "protectNpcMobileLod": true,
  "startFade": {
    "startFadeOutDuration": 0.0
  },
  "endFade": {
    "startFadeOutDuration": 0.0
  },
  "actors": [
    {
      "alias": "Avatar",
      "visible": true,
      "bornPointName": "",
      "relativePosType": "AVATAR_NEW",
      "relativePosNpcAlias": "",
      "_bindMovingTargetKey": ""
    },
    {
      "configID": 3101,
      "alias": "3101",
      "visible": true,
      "bornPointName": "",
      "forceCreateDaily": true,
      "relativePosType": "AVATAR_NEW",
      "relativePosNpcAlias": "",
      "_bindMovingTargetKey": ""
    }
  ],
  "group": [
    [
      {
        "$type": "FJKIHHKJLMJ",
        "type": "CAMERA_FOCUS",
        "duration": 0.10000000149011612,
        "actionId": 110,
        "targetNpcAlias": "",
        "KJOEFBPOIIH": "",
        "IICFKKEBIEC": "",
        "EGEHEJEBLBJ": ""
      },
      {
        "$type": "LLGANGLOEEO",
        "type": "STEER_TO",
        "duration": 1.0,
        "aliasList": [
          "Avatar"
        ],
        "actionId": 112,
        "steerType": "TO_TARGET_ADVANCED",
        "useSteerAnim": true,
        "interruptFreestyle": true,
        "forceSteer": true,
        "targetNpcAlias": "3101",
        "fixInterNull": true,
        "OAFJBHJHLJG": ""
      },
      {
        "$type": "LJLMDHDCAMK",
        "type": "LOOK_AT",
        "aliasList": [
          "Avatar"
        ],
        "actionId": 115,
        "enableHead": true,
        "headTurnTime": 0.5,
        "targetNpcAlias": "3101",
        "openBackProtect": true,
        "targetNpcLookAtPoint": "",
        "OAFJBHJHLJG": ""
      },
      {
        "$type": "PKKMAMONGEO",
        "type": "DIALOG",
        "aliasList": [
          "3101"
        ],
        "actionId": 107,
        "dialogID": 30301601,
        "protectTime": 0.5
      },
      {
        "$type": "LLGANGLOEEO",
        "type": "STEER_TO",
        "duration": 1.0,
        "aliasList": [
          "3101"
        ],
        "actionId": 113,
        "steerType": "TO_LOCAL_AVATAR_ADVANCED",
        "useSteerAnim": true,
        "interruptFreestyle": true,
        "forceSteer": true,
        "targetNpcAlias": "Avatar",
        "fixInterNull": true,
        "OAFJBHJHLJG": ""
      },
      {
        "$type": "LJLMDHDCAMK",
        "type": "LOOK_AT",
        "aliasList": [
          "3101"
        ],
        "actionId": 117,
        "enableHead": true,
        "headTurnTime": 0.5,
        "targetNpcAlias": "Avatar",
        "openBackProtect": true,
        "targetNpcLookAtPoint": "",
        "OAFJBHJHLJG": ""
      },
      {
        "$type": "CPJKOIHIPBE",
        "type": "EMO_SYNC",
        "aliasList": [
          "3101"
        ],
        "actionId": 121,
        "dataPath": "Cs_Emo_Avatar_Simple_Common_Set/Cs_Emo_Avatar_Talk/Cs_Emo_Avatar_MainLine/Cs_Emo_Avatar_Sumeru4/Cs_Emo_30301601",
        "phonemePath": "",
        "emotionPath": "",
        "mateDataPath": "",
        "matePhonemePath": "",
        "mateEmotionPath": "",
        "dataPathHashList": [
          4396556440975630902,
          15678265383676465774,
          7399005014193705323,
          8678507874709898067
        ],
        "FMDPBECPELH": "",
        "ADKBLPOKGIK": ""
      },
      {
        "$type": "LJLMDHDCAMK",
        "type": "LOOK_AT",
        "delayTime": 1.0,
        "aliasList": [
          "Avatar"
        ],
        "actionId": 114,
        "enableHead": true,
        "headTurnTime": 0.30000001192092896,
        "targetNpcAlias": "3101",
        "openBackProtect": true,
        "targetNpcLookAtPoint": "",
        "OAFJBHJHLJG": ""
      },
      {
        "$type": "LJLMDHDCAMK",
        "type": "LOOK_AT",
        "delayTime": 1.0,
        "aliasList": [
          "3101"
        ],
        "actionId": 116,
        "enableHead": true,
        "headTurnTime": 0.30000001192092896,
        "targetNpcAlias": "Avatar",
        "openBackProtect": true,
        "targetNpcLookAtPoint": "",
        "OAFJBHJHLJG": ""
      },
      {
        "$type": "FABLGECDBCH",
        "type": "BODY_LANG",
        "delayTime": 1.7380000352859497,
        "aliasList": [
          "3101"
        ],
        "actionId": 120,
        "bodyLangParam": 1171,
        "forceDoFreeStyle": true,
        "canDoRepeatFreeStyle": false,
        "cantBackToIdleWhenSitLoop": true,
        "eventPatternSuiteKey": "",
        "FOHHKFAIAAJ": ""
      }
    ],
    [
      {
        "$type": "MoleMole.Config.ConfigTimeProtectAction",
        "type": "TIME_PROTECT",
        "duration": 0.10000000149011612,
        "actionId": 105
      },
      {
        "$type": "LLGANGLOEEO",
        "type": "STEER_TO",
        "duration": 1.0,
        "aliasList": [
          "3101"
        ],
        "actionId": 118,
        "steerType": "RETURN",
        "steerDir": {
          "x": -2583.261962890625,
          "y": 274.0159912109375,
          "z": -4624.65283203125
        },
        "useSteerAnim": true,
        "targetNpcAlias": "",
        "ignoreY": true,
        "fixInterNull": true,
        "OAFJBHJHLJG": ""
      },
      {
        "$type": "LJLMDHDCAMK",
        "type": "LOOK_AT",
        "aliasList": [
          "3101"
        ],
        "actionId": 119,
        "headTurnTime": 0.5,
        "targetNpcAlias": "",
        "openBackProtect": true,
        "targetNpcLookAtPoint": "",
        "OAFJBHJHLJG": ""
      }
    ]
  ],
  "groupId": [
    {
      "grpId": 3334016972,
      "nextGrpId": 3334016973
    },
    {
      "index": 1,
      "grpId": 3334016973,
      "nextGrpId": 3334016974
    }
  ],
  "freeStyleDic": {
    "3101": [
      1171
    ]
  }
}