{
  "luaDataPath": "",
  "startBlackKeepTime": 0.5,
  "entityBan": "",
  "disableNpcLod": true,
  "startFade": {
    "startFadeInDuration": 0.5,
    "startFadeOutDuration": 0.0
  },
  "endFade": {
    "startFadeOutDuration": 0.0
  },
  "actors": [
    {
      "alias": "Avatar",
      "visible": true,
      "bornPointName": "Q4141114Player",
      "relativePosNpcAlias": "",
      "_bindMovingTargetKey": ""
    },
    {
      "configID": 146101,
      "alias": "146101",
      "visible": true,
      "bornPointName": "Q4141114Ninglu",
      "relativePosNpcAlias": "",
      "_bindMovingTargetKey": ""
    },
    {
      "configID": 1005,
      "alias": "1005",
      "visible": true,
      "bornPointName": "Q4141114Paimon",
      "relativePosNpcAlias": "",
      "_bindMovingTargetKey": ""
    },
    {
      "configID": 1001,
      "alias": "1001",
      "visible": true,
      "bornPointName": "Q4141114Venti",
      "relativePosNpcAlias": "",
      "_bindMovingTargetKey": ""
    }
  ],
  "group": [
    [
      {
        "$type": "FJKIHHKJLMJ",
        "type": "CAMERA_MOVE",
        "delayTime": 0.10000000149011612,
        "duration": 15.0,
        "camPosOffset": {
          "x": 2302.59130859375,
          "y": 215.34027099609375,
          "z": -912.50732421875
        },
        "camForwardTargetOffset": {
          "x": 2303.297119140625,
          "y": 215.2916717529297,
          "z": -913.2140502929688
        },
        "camFov": 20.0,
        "cameraBlendType": "EaseOutQuad",
        "NJBNNOMLKCK": {},
        "openCameraDither": false,
        "targetNpcAlias": "",
        "KJOEFBPOIIH": "",
        "IICFKKEBIEC": "",
        "EGEHEJEBLBJ": ""
      },
      {
        "$type": "MoleMole.Config.ConfigBlackScreenAction",
        "type": "BLACK_SCREEN",
        "blackScreenType": "KEEP_BLACK",
        "durationKeepBlack": 0.5,
        "inteePos": "",
        "textMapID": ""
      },
      {
        "$type": "MoleMole.Config.ConfigBlackScreenAction",
        "type": "BLACK_SCREEN",
        "delayTime": 0.5,
        "blackScreenType": "FROM_BLACK",
        "durationFromBlack": 0.5,
        "inteePos": "",
        "textMapID": ""
      },
      {
        "$type": "MoleMole.Config.ConfigTimeProtectAction",
        "type": "TIME_PROTECT",
        "duration": 1.0
      },
      {
        "$type": "FJKIHHKJLMJ",
        "type": "CAMERA_MOVE",
        "duration": 1.0,
        "camPosOffset": {
          "x": 2302.081298828125,
          "y": 215.30055236816406,
          "z": -911.9954223632812
        },
        "camForwardTargetOffset": {
          "x": 2302.787109375,
          "y": 215.251953125,
          "z": -912.7021484375
        },
        "camFov": 20.0,
        "lerpPattern": 6,
        "cameraBlendType": "EaseInOutCubic",
        "NJBNNOMLKCK": {},
        "openCameraDither": false,
        "targetNpcAlias": "",
        "KJOEFBPOIIH": "",
        "IICFKKEBIEC": "",
        "EGEHEJEBLBJ": ""
      },
      {
        "$type": "MoleMole.Config.ConfigTeleportToAction",
        "type": "TELEPORT_TO",
        "aliasList": [
          "Avatar"
        ],
        "position": {
          "x": 2304.80029296875,
          "y": 214.0911865234375,
          "z": -915.4888916015625
        },
        "forward": {
          "x": 1.94189453125,
          "z": -0.77392578125
        },
        "_posBindMovingTargetKey": "",
        "_forwardBindMovingTargetKey": ""
      },
      {
        "$type": "LJLMDHDCAMK",
        "type": "LOOK_AT",
        "aliasList": [
          "Avatar"
        ],
        "enableHead": true,
        "headTurnTime": 0.5,
        "targetNpcAlias": "146101",
        "targetNpcLookAtPoint": "",
        "OAFJBHJHLJG": ""
      },
      {
        "$type": "PKKMAMONGEO",
        "type": "DIALOG",
        "delayTime": 0.5,
        "aliasList": [
          "146101"
        ],
        "dialogID": 414110301,
        "protectTime": 0.5
      },
      {
        "$type": "FABLGECDBCH",
        "type": "BODY_LANG",
        "delayTime": 0.5,
        "aliasList": [
          "146101"
        ],
        "bodyLangParam": 1130,
        "forceDoFreeStyle": true,
        "eventPatternSuiteKey": "",
        "FOHHKFAIAAJ": ""
      },
      {
        "$type": "LJLMDHDCAMK",
        "type": "LOOK_AT",
        "delayTime": 1.5598894357681274,
        "aliasList": [
          "146101"
        ],
        "enableHead": true,
        "headTurnTime": 0.6000000238418579,
        "targetNpcAlias": "Avatar",
        "targetNpcLookAtPoint": "",
        "OAFJBHJHLJG": ""
      },
      {
        "$type": "LJLMDHDCAMK",
        "type": "LOOK_AT",
        "aliasList": [
          "146101"
        ],
        "enableHead": true,
        "headTurnTime": 0.5,
        "targetNpcAlias": "1001",
        "targetNpcLookAtPoint": "",
        "OAFJBHJHLJG": ""
      },
      {
        "$type": "FABLGECDBCH",
        "type": "BODY_LANG",
        "delayTime": 1.3561943769454956,
        "aliasList": [
          "146101"
        ],
        "bodyLangParam": 4030,
        "forceDoFreeStyle": true,
        "eventPatternSuiteKey": "",
        "FOHHKFAIAAJ": ""
      },
      {
        "$type": "FABLGECDBCH",
        "type": "BODY_LANG",
        "delayTime": 3.5640249252319336,
        "aliasList": [
          "146101"
        ],
        "isContinue": true,
        "forceDoFreeStyle": true,
        "eventPatternSuiteKey": "",
        "FOHHKFAIAAJ": ""
      },
      {
        "$type": "CPJKOIHIPBE",
        "type": "EMO_SYNC",
        "delayTime": 0.5,
        "aliasList": [
          "146101"
        ],
        "dataPath": "Cs_Emo_Avatar_Simple_Common_Set/Cs_Emo_Avatar_Talk/Cs_Emo_Avatar_Event/Cs_Emo_FleurFair/Cs_Emo_414110301",
        "phonemePath": "",
        "emotionPath": "",
        "mateDataPath": "",
        "matePhonemePath": "",
        "mateEmotionPath": "",
        "dataPathHashList": [
          12585788441790856970,
          10075368522150150601,
          7136685516724750237,
          7033490244191260692
        ],
        "FMDPBECPELH": "",
        "ADKBLPOKGIK": ""
      },
      {
        "$type": "MoleMole.Config.ConfigTeleportToAction",
        "type": "TELEPORT_TO",
        "aliasList": [
          "1005"
        ],
        "position": {
          "x": 2304.634765625,
          "y": 214.0911865234375,
          "z": -916.2474365234375
        },
        "forward": {
          "x": 2.107421875,
          "z": -0.015380859375
        },
        "_posBindMovingTargetKey": "",
        "_forwardBindMovingTargetKey": ""
      },
      {
        "$type": "LJLMDHDCAMK",
        "type": "LOOK_AT",
        "aliasList": [
          "1005"
        ],
        "enableHead": true,
        "headTurnTime": 0.5,
        "targetNpcAlias": "146101",
        "targetNpcLookAtPoint": "",
        "OAFJBHJHLJG": ""
      },
      {
        "$type": "MoleMole.Config.ConfigTeleportToAction",
        "type": "TELEPORT_TO",
        "aliasList": [
          "1001"
        ],
        "position": {
          "x": 2305.646484375,
          "y": 214.0911865234375,
          "z": -914.5449829101562
        },
        "forward": {
          "x": 1.095703125,
          "z": -1.71783447265625
        },
        "_posBindMovingTargetKey": "",
        "_forwardBindMovingTargetKey": ""
      },
      {
        "$type": "LJLMDHDCAMK",
        "type": "LOOK_AT",
        "aliasList": [
          "1001"
        ],
        "enableHead": true,
        "headTurnTime": 0.5,
        "targetNpcAlias": "146101",
        "targetNpcLookAtPoint": "",
        "OAFJBHJHLJG": ""
      }
    ],
    [
      {
        "$type": "FJKIHHKJLMJ",
        "type": "CAMERA_MOVE",
        "delayTime": 0.10000000149011612,
        "duration": 35.0,
        "camPosOffset": {
          "x": 2309.344482421875,
          "y": 215.5765380859375,
          "z": -913.0540771484375
        },
        "camForwardTargetOffset": {
          "x": 2308.566650390625,
          "y": 215.49501037597656,
          "z": -913.6773681640625
        },
        "camFov": 20.0,
        "cameraBlendType": "EaseOutQuad",
        "NJBNNOMLKCK": {},
        "openCameraDither": false,
        "targetNpcAlias": "",
        "KJOEFBPOIIH": "",
        "IICFKKEBIEC": "",
        "EGEHEJEBLBJ": ""
      },
      {
        "$type": "FJKIHHKJLMJ",
        "type": "CAMERA_MOVE",
        "duration": 1.0,
        "camPosOffset": {
          "x": 2309.531982421875,
          "y": 215.5955352783203,
          "z": -913.29052734375
        },
        "camForwardTargetOffset": {
          "x": 2308.754150390625,
          "y": 215.51400756835938,
          "z": -913.913818359375
        },
        "camFov": 20.0,
        "lerpPattern": 6,
        "cameraBlendType": "EaseInOutCubic",
        "NJBNNOMLKCK": {},
        "openCameraDither": false,
        "targetNpcAlias": "",
        "KJOEFBPOIIH": "",
        "IICFKKEBIEC": "",
        "EGEHEJEBLBJ": ""
      },
      {
        "$type": "CPJKOIHIPBE",
        "type": "EMO_SYNC",
        "aliasList": [
          "Avatar"
        ],
        "dataPath": "",
        "phonemePath": "Cs_Emo_Avatar_Common/Cs_Emo_Avatar_Smile02",
        "emotionPath": "Cs_Emo_Avatar_Common/Cs_Emo_Avatar_Gentle01",
        "mateDataPath": "",
        "matePhonemePath": "",
        "mateEmotionPath": "",
        "phonemePathHashList": [
          15274239198195246957,
          9768209525821909755,
          14483744751478460935,
          3571615719802784112
        ],
        "emotionPathHashList": [
          16936364625734641526,
          12723692093682084560,
          7584763146597514602,
          9115589832287442173
        ],
        "FMDPBECPELH": "",
        "ADKBLPOKGIK": ""
      },
      {
        "$type": "LJLMDHDCAMK",
        "type": "LOOK_AT",
        "delayTime": 0.3426474332809448,
        "aliasList": [
          "146101"
        ],
        "enableHead": true,
        "headTurnTime": 0.5,
        "targetNpcAlias": "1005",
        "targetNpcLookAtPoint": "",
        "OAFJBHJHLJG": ""
      },
      {
        "$type": "FABLGECDBCH",
        "type": "BODY_LANG",
        "aliasList": [
          "146101"
        ],
        "isContinue": true,
        "forceDoFreeStyle": true,
        "eventPatternSuiteKey": "",
        "FOHHKFAIAAJ": ""
      },
      {
        "$type": "PKKMAMONGEO",
        "type": "DIALOG",
        "aliasList": [
          "1005"
        ],
        "dialogID": 414110302,
        "protectTime": 0.5
      },
      {
        "$type": "FABLGECDBCH",
        "type": "BODY_LANG",
        "aliasList": [
          "1005"
        ],
        "bodyLangParam": 1300,
        "forceDoFreeStyle": true,
        "eventPatternSuiteKey": "",
        "FOHHKFAIAAJ": ""
      },
      {
        "$type": "FABLGECDBCH",
        "type": "BODY_LANG",
        "delayTime": 3.1520659923553467,
        "aliasList": [
          "1005"
        ],
        "isContinue": true,
        "forceDoFreeStyle": true,
        "eventPatternSuiteKey": "",
        "FOHHKFAIAAJ": ""
      },
      {
        "$type": "CPJKOIHIPBE",
        "type": "EMO_SYNC",
        "aliasList": [
          "1005"
        ],
        "dataPath": "Cs_Emo_Avatar_Simple_Common_Set/Cs_Emo_Avatar_Talk/Cs_Emo_Avatar_Event/Cs_Emo_FleurFair/Cs_Emo_414110302",
        "phonemePath": "",
        "emotionPath": "",
        "mateDataPath": "",
        "matePhonemePath": "",
        "mateEmotionPath": "",
        "dataPathHashList": [
          149910756097441789,
          3022356656750448684,
          12361496263332600362,
          6044412274980776042
        ],
        "FMDPBECPELH": "",
        "ADKBLPOKGIK": ""
      }
    ],
    [
      {
        "$type": "PKKMAMONGEO",
        "type": "DIALOG",
        "aliasList": [
          "146101"
        ],
        "dialogID": 414110303,
        "protectTime": 0.5
      },
      {
        "$type": "FABLGECDBCH",
        "type": "BODY_LANG",
        "aliasList": [
          "146101"
        ],
        "bodyLangParam": 4030,
        "forceDoFreeStyle": true,
        "eventPatternSuiteKey": "",
        "FOHHKFAIAAJ": ""
      },
      {
        "$type": "CPJKOIHIPBE",
        "type": "EMO_SYNC",
        "aliasList": [
          "146101"
        ],
        "dataPath": "Cs_Emo_Avatar_Simple_Common_Set/Cs_Emo_Avatar_Talk/Cs_Emo_Avatar_Event/Cs_Emo_FleurFair/Cs_Emo_414110303",
        "phonemePath": "",
        "emotionPath": "",
        "mateDataPath": "",
        "matePhonemePath": "",
        "mateEmotionPath": "",
        "dataPathHashList": [
          9863125665440105956,
          8400630103878829354,
          9298041496392051870,
          12336476837570723668
        ],
        "FMDPBECPELH": "",
        "ADKBLPOKGIK": ""
      },
      {
        "$type": "FABLGECDBCH",
        "type": "BODY_LANG",
        "aliasList": [
          "1005"
        ],
        "isContinue": true,
        "forceDoFreeStyle": true,
        "eventPatternSuiteKey": "",
        "FOHHKFAIAAJ": ""
      }
    ],
    [
      {
        "$type": "PKKMAMONGEO",
        "type": "DIALOG",
        "aliasList": [
          "146101"
        ],
        "dialogID": 414110304,
        "protectTime": 0.5
      },
      {
        "$type": "FABLGECDBCH",
        "type": "BODY_LANG",
        "delayTime": 1.9936258792877197,
        "aliasList": [
          "146101"
        ],
        "bodyLangParam": 1130,
        "forceDoFreeStyle": true,
        "eventPatternSuiteKey": "",
        "FOHHKFAIAAJ": ""
      },
      {
        "$type": "LJLMDHDCAMK",
        "type": "LOOK_AT",
        "delayTime": 3.8048171997070312,
        "aliasList": [
          "146101"
        ],
        "enableHead": true,
        "headRotateVec": {
          "y": -20.0
        },
        "headTurnTime": 0.5,
        "targetNpcAlias": "",
        "targetNpcLookAtPoint": "",
        "OAFJBHJHLJG": ""
      },
      {
        "$type": "LJLMDHDCAMK",
        "type": "LOOK_AT",
        "aliasList": [
          "146101"
        ],
        "enableHead": true,
        "headRotateVec": {
          "y": 20.0
        },
        "headTurnTime": 0.5,
        "targetNpcAlias": "",
        "targetNpcLookAtPoint": "",
        "OAFJBHJHLJG": ""
      },
      {
        "$type": "CPJKOIHIPBE",
        "type": "EMO_SYNC",
        "aliasList": [
          "146101"
        ],
        "dataPath": "Cs_Emo_Avatar_Simple_Common_Set/Cs_Emo_Avatar_Talk/Cs_Emo_Avatar_Event/Cs_Emo_FleurFair/Cs_Emo_414110304",
        "phonemePath": "",
        "emotionPath": "",
        "mateDataPath": "",
        "matePhonemePath": "",
        "mateEmotionPath": "",
        "dataPathHashList": [
          4505017565204309576,
          15081822649698432481,
          16753776419428843950,
          2104996403005239742
        ],
        "FMDPBECPELH": "",
        "ADKBLPOKGIK": ""
      }
    ],
    [
      {
        "$type": "FJKIHHKJLMJ",
        "type": "CAMERA_MOVE",
        "duration": 1.0,
        "camPosOffset": {
          "x": 2306.28125,
          "y": 216.1156005859375,
          "z": -918.0567626953125
        },
        "camForwardTargetOffset": {
          "x": 2306.242431640625,
          "y": 215.85116577148438,
          "z": -917.0931396484375
        },
        "camFov": 20.0,
        "lerpPattern": 6,
        "cameraBlendType": "EaseInOutCubic",
        "NJBNNOMLKCK": {},
        "openCameraDither": false,
        "targetNpcAlias": "",
        "KJOEFBPOIIH": "",
        "IICFKKEBIEC": "",
        "EGEHEJEBLBJ": ""
      },
      {
        "$type": "FABLGECDBCH",
        "type": "BODY_LANG",
        "delayTime": 0.4000000059604645,
        "aliasList": [
          "146101"
        ],
        "isContinue": true,
        "forceDoFreeStyle": true,
        "eventPatternSuiteKey": "",
        "FOHHKFAIAAJ": ""
      },
      {
        "$type": "LJLMDHDCAMK",
        "type": "LOOK_AT",
        "delayTime": 0.20000000298023224,
        "aliasList": [
          "146101"
        ],
        "enableHead": true,
        "headTurnTime": 0.5,
        "targetNpcAlias": "1001",
        "targetNpcLookAtPoint": "",
        "OAFJBHJHLJG": ""
      },
      {
        "$type": "PKKMAMONGEO",
        "type": "DIALOG",
        "aliasList": [
          "1001"
        ],
        "dialogID": 414110305,
        "protectTime": 0.5
      },
      {
        "$type": "FABLGECDBCH",
        "type": "BODY_LANG",
        "aliasList": [
          "1001"
        ],
        "bodyLangParam": 1172,
        "forceDoFreeStyle": true,
        "eventPatternSuiteKey": "",
        "FOHHKFAIAAJ": ""
      },
      {
        "$type": "CPJKOIHIPBE",
        "type": "EMO_SYNC",
        "aliasList": [
          "1001"
        ],
        "dataPath": "Cs_Emo_Avatar_Simple_Common_Set/Cs_Emo_Avatar_Talk/Cs_Emo_Avatar_Event/Cs_Emo_FleurFair/Cs_Emo_414110305",
        "phonemePath": "",
        "emotionPath": "",
        "mateDataPath": "",
        "matePhonemePath": "",
        "mateEmotionPath": "",
        "dataPathHashList": [
          13429415162569140934,
          5596392868116659182,
          637192200029105604,
          9445456488047148899
        ],
        "FMDPBECPELH": "",
        "ADKBLPOKGIK": ""
      }
    ],
    [
      {
        "$type": "FJKIHHKJLMJ",
        "type": "CAMERA_MOVE",
        "duration": 1.0,
        "camPosOffset": {
          "x": 2307.162109375,
          "y": 215.72894287109375,
          "z": -916.954833984375
        },
        "camForwardTargetOffset": {
          "x": 2306.2548828125,
          "y": 215.55520629882812,
          "z": -916.5717163085938
        },
        "camFov": 20.0,
        "lerpPattern": 6,
        "cameraBlendType": "EaseInOutCubic",
        "NJBNNOMLKCK": {},
        "openCameraDither": false,
        "targetNpcAlias": "",
        "KJOEFBPOIIH": "",
        "IICFKKEBIEC": "",
        "EGEHEJEBLBJ": ""
      },
      {
        "$type": "LJLMDHDCAMK",
        "type": "LOOK_AT",
        "aliasList": [
          "146101"
        ],
        "enableHead": true,
        "headTurnTime": 0.5,
        "targetNpcAlias": "1005",
        "targetNpcLookAtPoint": "",
        "OAFJBHJHLJG": ""
      },
      {
        "$type": "PKKMAMONGEO",
        "type": "DIALOG",
        "aliasList": [
          "1005"
        ],
        "dialogID": 414110306,
        "protectTime": 0.5
      },
      {
        "$type": "FABLGECDBCH",
        "type": "BODY_LANG",
        "aliasList": [
          "1005"
        ],
        "bodyLangParam": 1300,
        "forceDoFreeStyle": true,
        "eventPatternSuiteKey": "",
        "FOHHKFAIAAJ": ""
      },
      {
        "$type": "FABLGECDBCH",
        "type": "BODY_LANG",
        "delayTime": 3.6206514835357666,
        "aliasList": [
          "1005"
        ],
        "isContinue": true,
        "forceDoFreeStyle": true,
        "eventPatternSuiteKey": "",
        "FOHHKFAIAAJ": ""
      },
      {
        "$type": "CPJKOIHIPBE",
        "type": "EMO_SYNC",
        "aliasList": [
          "1005"
        ],
        "dataPath": "Cs_Emo_Avatar_Simple_Common_Set/Cs_Emo_Avatar_Talk/Cs_Emo_Avatar_Event/Cs_Emo_FleurFair/Cs_Emo_414110306",
        "phonemePath": "",
        "emotionPath": "",
        "mateDataPath": "",
        "matePhonemePath": "",
        "mateEmotionPath": "",
        "dataPathHashList": [
          10752969796109118251,
          7349134605340903853,
          3489885128844129296,
          278133416856840577
        ],
        "FMDPBECPELH": "",
        "ADKBLPOKGIK": ""
      }
    ],
    [
      {
        "$type": "MoleMole.Config.ConfigSimpleBlackScreenAction",
        "type": "SIMPLE_BLACK_SCREEN",
        "durationToBlack": 0.5,
        "durationKeepBlack": 1.0,
        "durationFromBlack": 0.5,
        "textMapID": ""
      },
      {
        "$type": "MoleMole.Config.ConfigTimeProtectAction",
        "type": "TIME_PROTECT",
        "duration": 0.699999988079071
      },
      {
        "$type": "FJKIHHKJLMJ",
        "type": "CAMERA_MOVE",
        "delayTime": 0.6000000238418579,
        "duration": 0.10000000149011612,
        "cameraPosType": "EXIT",
        "camTargetType": "Other",
        "lerpPattern": 6,
        "cameraBlendType": "EaseInOutCubic",
        "NJBNNOMLKCK": {},
        "targetNpcAlias": "",
        "KJOEFBPOIIH": "",
        "IICFKKEBIEC": "",
        "EGEHEJEBLBJ": ""
      },
      {
        "$type": "MoleMole.Config.ConfigVisibleInterAction",
        "type": "VISIBLE",
        "delayTime": 0.6000000238418579,
        "aliasList": [
          "146101"
        ],
        "_extraParam": ""
      },
      {
        "$type": "MoleMole.Config.ConfigVisibleInterAction",
        "type": "VISIBLE",
        "delayTime": 0.6000000238418579,
        "aliasList": [
          "1001"
        ],
        "_extraParam": ""
      }
    ]
  ],
  "groupId": [
    {
      "grpId": 1816454370,
      "nextGrpId": 1816454371
    },
    {
      "index": 1,
      "grpId": 1816454371,
      "nextGrpId": 1816454372
    },
    {
      "index": 2,
      "grpId": 1816454372,
      "nextGrpId": 1816454373
    },
    {
      "index": 3,
      "grpId": 1816454373,
      "nextGrpId": 1816454374
    },
    {
      "index": 4,
      "grpId": 1816454374,
      "nextGrpId": 1816454375
    },
    {
      "index": 5,
      "grpId": 1816454375,
      "nextGrpId": 1816454376
    },
    {
      "index": 6,
      "grpId": 1816454376,
      "nextGrpId": 1816454377
    }
  ],
  "freeStyleDic": {
    "146101": [
      1130,
      4030
    ],
    "1001": [
      1172
    ]
  }
}