[
  {
    "Default": {
      "$type": "CBPBEHLOHKI",
      "abilityName": "SceneObj_Resident_DungeonEntry_MengDe01",
      "abilityMixins": [
        {
          "$type": "EKMHJKDLBJH",
          "stateIDs": [
            "UnderLevel",
            "ReachLevel",
            "Inactive"
          ],
          "modifierName": "RedTrigger",
          "DGFCLAIDIFI": ""
        },
        {
          "$type": "EKMHJKDLBJH",
          "stateIDs": [
            "Lock"
          ],
          "modifierName": "BlueTrigger",
          "DGFCLAIDIFI": ""
        },
        {
          "$type": "EKMHJKDLBJH",
          "stateIDs": [
            "ReachLevel",
            "Inactive"
          ],
          "modifierName": "ReachLevel",
          "DGFCLAIDIFI": ""
        },
        {
          "$type": "EKMHJKDLBJH",
          "stateIDs": [
            "UnderLevel"
          ],
          "modifierName": "UnderLevel",
          "DGFCLAIDIFI": ""
        },
        {
          "$type": "EKMHJKDLBJH",
          "stateIDs": [
            "Open",
            "Opening"
          ],
          "modifierName": "Entrance",
          "DGFCLAIDIFI": ""
        },
        {
          "$type": "EKMHJKDLBJH",
          "stateIDs": [
            "Active"
          ],
          "modifierName": "Active",
          "DGFCLAIDIFI": ""
        },
        {
          "$type": "EKMHJKDLBJH",
          "stateIDs": [
            "Opening"
          ],
          "modifierName": "Opening",
          "DGFCLAIDIFI": ""
        }
      ],
      "modifiers": {
        "RedTrigger": {
          "modifierName": "",
          "IPFJJJGABPL": 100.0,
          "onAdded": [
            {
              "$type": "GFOOGEIKGBI",
              "parameter": "RedTrigger",
              "attachPoint": "",
              "damageRatio": "Bool",
              "value": 1,
              "rotationDampTime": "Eff_DungeonEntry_MengDe_Hint03"
            },
            {
              "$type": "ANLOBBMKNIJ",
              "rotationDampTime": "Eff_SceneObj_DungeonEntry_01_Locked",
              "PPPDJGDDOGD": 1.0,
              "AJDILHJFNKE": -1.0
            }
          ]
        },
        "BlueTrigger": {
          "modifierName": "",
          "IPFJJJGABPL": 100.0,
          "onAdded": [
            {
              "$type": "GFOOGEIKGBI",
              "parameter": "BlueTrigger",
              "attachPoint": "",
              "damageRatio": "Bool",
              "value": 1,
              "rotationDampTime": "Eff_DungeonEntry_MengDe_Hint03"
            }
          ]
        },
        "ReachLevel": {
          "modifierName": "",
          "IPFJJJGABPL": 100.0,
          "onAdded": [
            {
              "$type": "GFOOGEIKGBI",
              "parameter": "gadgetState",
              "attachPoint": "",
              "damageRatio": "Int",
              "value": 201,
              "rotationDampTime": "Eff_SceneObj_DungeonEntry_01_Locked"
            }
          ]
        },
        "UnderLevel": {
          "modifierName": "",
          "IPFJJJGABPL": 100.0,
          "onAdded": [
            {
              "$type": "GFOOGEIKGBI",
              "parameter": "gadgetState",
              "attachPoint": "",
              "damageRatio": "Int",
              "rotationDampTime": "Eff_SceneObj_DungeonEntry_01_Locked"
            }
          ]
        },
        "Active": {
          "modifierName": "",
          "IPFJJJGABPL": 100.0,
          "onAdded": [
            {
              "$type": "KBFEIHEAMBM",
              "rotationDampTime": "Eff_SceneObj_DungeonEntry_03_Active",
              "PPPDJGDDOGD": 1.0,
              "AJDILHJFNKE": -1.0
            }
          ]
        },
        "Entrance": {
          "modifierName": "",
          "IPFJJJGABPL": 100.0,
          "onAdded": [
            {
              "$type": "ANLOBBMKNIJ",
              "rotationDampTime": "Eff_SceneObj_DungeonEntry_01_Entrance",
              "PPPDJGDDOGD": 1.0,
              "AJDILHJFNKE": -1.0
            }
          ]
        },
        "Opening": {
          "modifierName": "",
          "IPFJJJGABPL": 100.0,
          "onAdded": [
            {
              "$type": "KBFEIHEAMBM",
              "rotationDampTime": "Eff_SceneObj_DungeonEntry_03_Open",
              "PPPDJGDDOGD": 1.0,
              "AJDILHJFNKE": -1.0
            }
          ]
        }
      }
    }
  },
  {
    "Default": {
      "$type": "CBPBEHLOHKI",
      "abilityName": "SceneObj_Resident_DungeonEntry_MengDe01_UW",
      "abilityMixins": [
        {
          "$type": "EKMHJKDLBJH",
          "stateIDs": [
            "UnderLevel",
            "ReachLevel",
            "Inactive"
          ],
          "modifierName": "RedTrigger",
          "DGFCLAIDIFI": ""
        },
        {
          "$type": "EKMHJKDLBJH",
          "stateIDs": [
            "Lock"
          ],
          "modifierName": "BlueTrigger",
          "DGFCLAIDIFI": ""
        },
        {
          "$type": "EKMHJKDLBJH",
          "stateIDs": [
            "ReachLevel",
            "Inactive"
          ],
          "modifierName": "ReachLevel",
          "DGFCLAIDIFI": ""
        },
        {
          "$type": "EKMHJKDLBJH",
          "stateIDs": [
            "UnderLevel"
          ],
          "modifierName": "UnderLevel",
          "DGFCLAIDIFI": ""
        },
        {
          "$type": "EKMHJKDLBJH",
          "stateIDs": [
            "Open",
            "Opening"
          ],
          "modifierName": "Entrance",
          "DGFCLAIDIFI": ""
        },
        {
          "$type": "EKMHJKDLBJH",
          "stateIDs": [
            "Active"
          ],
          "modifierName": "Active",
          "DGFCLAIDIFI": ""
        },
        {
          "$type": "EKMHJKDLBJH",
          "stateIDs": [
            "Opening"
          ],
          "modifierName": "Opening",
          "DGFCLAIDIFI": ""
        }
      ],
      "modifiers": {
        "RedTrigger": {
          "modifierName": "",
          "IPFJJJGABPL": 100.0,
          "onAdded": [
            {
              "$type": "GFOOGEIKGBI",
              "parameter": "RedTrigger",
              "attachPoint": "",
              "damageRatio": "Bool",
              "value": 1,
              "rotationDampTime": "Eff_DungeonEntry_MengDe_Hint03_UW"
            },
            {
              "$type": "ANLOBBMKNIJ",
              "rotationDampTime": "Eff_SceneObj_DungeonEntry_01_Locked_UW",
              "PPPDJGDDOGD": 1.0,
              "AJDILHJFNKE": -1.0
            }
          ]
        },
        "BlueTrigger": {
          "modifierName": "",
          "IPFJJJGABPL": 100.0,
          "onAdded": [
            {
              "$type": "GFOOGEIKGBI",
              "parameter": "BlueTrigger",
              "attachPoint": "",
              "damageRatio": "Bool",
              "value": 1,
              "rotationDampTime": "Eff_DungeonEntry_MengDe_Hint03_UW"
            }
          ]
        },
        "ReachLevel": {
          "modifierName": "",
          "IPFJJJGABPL": 100.0,
          "onAdded": [
            {
              "$type": "GFOOGEIKGBI",
              "parameter": "gadgetState",
              "attachPoint": "",
              "damageRatio": "Int",
              "value": 201,
              "rotationDampTime": "Eff_SceneObj_DungeonEntry_01_Locked_UW"
            }
          ]
        },
        "UnderLevel": {
          "modifierName": "",
          "IPFJJJGABPL": 100.0,
          "onAdded": [
            {
              "$type": "GFOOGEIKGBI",
              "parameter": "gadgetState",
              "attachPoint": "",
              "damageRatio": "Int",
              "rotationDampTime": "Eff_SceneObj_DungeonEntry_01_Locked_UW"
            }
          ]
        },
        "Active": {
          "modifierName": "",
          "IPFJJJGABPL": 100.0,
          "onAdded": [
            {
              "$type": "KBFEIHEAMBM",
              "rotationDampTime": "Eff_SceneObj_DungeonEntry_03_Active_UW",
              "PPPDJGDDOGD": 1.0,
              "AJDILHJFNKE": -1.0
            }
          ]
        },
        "Entrance": {
          "modifierName": "",
          "IPFJJJGABPL": 100.0,
          "onAdded": [
            {
              "$type": "ANLOBBMKNIJ",
              "rotationDampTime": "Eff_SceneObj_DungeonEntry_01_Entrance_UW",
              "PPPDJGDDOGD": 1.0,
              "AJDILHJFNKE": -1.0
            }
          ]
        },
        "Opening": {
          "modifierName": "",
          "IPFJJJGABPL": 100.0,
          "onAdded": [
            {
              "$type": "KBFEIHEAMBM",
              "rotationDampTime": "Eff_SceneObj_DungeonEntry_03_Open_UW",
              "PPPDJGDDOGD": 1.0,
              "AJDILHJFNKE": -1.0
            }
          ]
        }
      }
    }
  },
  {
    "Default": {
      "$type": "CBPBEHLOHKI",
      "abilityName": "SceneObj_Gear_Gate_DungeonGate02",
      "abilityMixins": [
        {
          "$type": "EKMHJKDLBJH",
          "stateIDs": [
            "Gate_Open"
          ],
          "modifierName": "Gate_Open",
          "DGFCLAIDIFI": ""
        }
      ],
      "modifiers": {
        "Gate_Open": {
          "modifierName": "",
          "IPFJJJGABPL": 100.0,
          "onAdded": [
            {
              "$type": "ANLOBBMKNIJ",
              "rotationDampTime": "Eff_Gear_Gate02_Centre_01a",
              "PPPDJGDDOGD": 1.0,
              "AJDILHJFNKE": -1.0
            },
            {
              "$type": "ANLOBBMKNIJ",
              "rotationDampTime": "Eff_Gear_Gate02_Centre_02",
              "PPPDJGDDOGD": 1.0,
              "AJDILHJFNKE": -1.0
            },
            {
              "$type": "ANLOBBMKNIJ",
              "rotationDampTime": "Eff_Gear_Gate02_Left_01",
              "PPPDJGDDOGD": 1.0,
              "AJDILHJFNKE": -1.0
            },
            {
              "$type": "ANLOBBMKNIJ",
              "rotationDampTime": "Eff_Gear_Gate02_Right_01",
              "PPPDJGDDOGD": 1.0,
              "AJDILHJFNKE": -1.0
            },
            {
              "$type": "ANLOBBMKNIJ",
              "rotationDampTime": "Eff_Gear_Gate02_Up_01",
              "PPPDJGDDOGD": 1.0,
              "AJDILHJFNKE": -1.0
            },
            {
              "$type": "ANLOBBMKNIJ",
              "rotationDampTime": "Eff_Gear_Gate02_Down_01",
              "PPPDJGDDOGD": 1.0,
              "AJDILHJFNKE": -1.0
            },
            {
              "$type": "ANLOBBMKNIJ",
              "rotationDampTime": "Eff_Gear_Gate02_Centre_Open",
              "PPPDJGDDOGD": 1.0,
              "AJDILHJFNKE": -1.0
            }
          ]
        }
      }
    }
  },
  {
    "Default": {
      "$type": "CBPBEHLOHKI",
      "abilityName": "SceneObj_Resident_DungeonEntry_MengDe02",
      "abilityMixins": [
        {
          "$type": "EKMHJKDLBJH",
          "stateIDs": [
            "Rise",
            "UnderLevel",
            "OnGround",
            "ReachLevel",
            "Lock",
            "Other",
            "Opening"
          ],
          "modifierName": "Pillar",
          "DGFCLAIDIFI": ""
        },
        {
          "$type": "EKMHJKDLBJH",
          "stateIDs": [
            "Rise"
          ],
          "modifierName": "Rise",
          "DGFCLAIDIFI": ""
        },
        {
          "$type": "EKMHJKDLBJH",
          "stateIDs": [
            "Rise",
            "UnderLevel",
            "OnGround",
            "ReachLevel"
          ],
          "modifierName": "RedBoard",
          "DGFCLAIDIFI": ""
        },
        {
          "$type": "EKMHJKDLBJH",
          "stateIDs": [
            "Rise",
            "OnGround",
            "UnderLevel"
          ],
          "modifierName": "RedTrigger",
          "DGFCLAIDIFI": ""
        },
        {
          "$type": "EKMHJKDLBJH",
          "stateIDs": [
            "ReachLevel"
          ],
          "modifierName": "BlueBoard",
          "DGFCLAIDIFI": ""
        },
        {
          "$type": "EKMHJKDLBJH",
          "stateIDs": [
            "Lock"
          ],
          "modifierName": "BlueTrigger",
          "DGFCLAIDIFI": ""
        },
        {
          "$type": "EKMHJKDLBJH",
          "stateIDs": [
            "Other",
            "Opening"
          ],
          "modifierName": "Entrance",
          "DGFCLAIDIFI": ""
        },
        {
          "$type": "EKMHJKDLBJH",
          "stateIDs": [
            "Opening"
          ],
          "modifierName": "Opening",
          "DGFCLAIDIFI": ""
        },
        {
          "$type": "EKMHJKDLBJH",
          "stateIDs": [
            "Gate_Broken"
          ],
          "modifierName": "Broken",
          "DGFCLAIDIFI": ""
        }
      ],
      "modifiers": {
        "Broken": {
          "modifierName": "",
          "IPFJJJGABPL": 100.0,
          "onAdded": [
            {
              "$type": "ANLOBBMKNIJ",
              "rotationDampTime": "Eff_DungeonEntry_MengDe_Broken",
              "PPPDJGDDOGD": 1.0,
              "AJDILHJFNKE": -1.0
            }
          ]
        },
        "Opening": {
          "modifierName": "",
          "IPFJJJGABPL": 100.0,
          "onAdded": [
            {
              "$type": "KBFEIHEAMBM",
              "rotationDampTime": "Eff_SceneObj_DungeonEntry_03_Open",
              "born": {
                "$type": "KLPANPDGHHA",
                "attachPointName": "OpenEffectPoint"
              },
              "PPPDJGDDOGD": 1.0,
              "AJDILHJFNKE": -1.0
            }
          ]
        },
        "Entrance": {
          "modifierName": "",
          "IPFJJJGABPL": 100.0,
          "onAdded": [
            {
              "$type": "ANLOBBMKNIJ",
              "rotationDampTime": "Eff_SceneObj_DungeonEntry_01_Entrance",
              "PPPDJGDDOGD": 1.0,
              "AJDILHJFNKE": -1.0
            }
          ]
        },
        "BlueTrigger": {
          "modifierName": "",
          "IPFJJJGABPL": 100.0,
          "onAdded": [
            {
              "$type": "GFOOGEIKGBI",
              "parameter": "BlueTrigger",
              "attachPoint": "",
              "damageRatio": "Bool",
              "value": 1,
              "rotationDampTime": "Eff_SceneObj_DungeonEntry_01_Hint"
            }
          ]
        },
        "Pillar": {
          "modifierName": "",
          "IPFJJJGABPL": 100.0,
          "onAdded": [
            {
              "$type": "ANLOBBMKNIJ",
              "rotationDampTime": "Eff_SceneObj_DungeonEntry_01_Hint",
              "PPPDJGDDOGD": 1.0,
              "AJDILHJFNKE": -1.0
            }
          ]
        },
        "Rise": {
          "modifierName": "",
          "IPFJJJGABPL": 100.0,
          "onAdded": [
            {
              "$type": "KBFEIHEAMBM",
              "rotationDampTime": "Eff_SceneObj_DungeonEntry_01_Rise",
              "PPPDJGDDOGD": 1.0,
              "AJDILHJFNKE": -1.0
            },
            {
              "$type": "KBFEIHEAMBM",
              "rotationDampTime": "Eff_SceneObj_DungeonEntry_01_Rise_Ground",
              "PPPDJGDDOGD": 1.0,
              "AJDILHJFNKE": -1.0
            }
          ]
        },
        "RedBoard": {
          "modifierName": "",
          "IPFJJJGABPL": 100.0,
          "onAdded": [
            {
              "$type": "ANLOBBMKNIJ",
              "rotationDampTime": "Eff_SceneObj_DungeonEntry_01_Locked",
              "PPPDJGDDOGD": 1.0,
              "AJDILHJFNKE": -1.0
            },
            {
              "$type": "GFOOGEIKGBI",
              "parameter": "RedTrigger",
              "attachPoint": "",
              "damageRatio": "Bool",
              "value": 1,
              "rotationDampTime": "Eff_SceneObj_DungeonEntry_01_Hint"
            }
          ]
        },
        "RedTrigger": {
          "modifierName": "",
          "IPFJJJGABPL": 100.0,
          "onAdded": [
            {
              "$type": "GFOOGEIKGBI",
              "parameter": "gadgetState",
              "attachPoint": "",
              "damageRatio": "Int",
              "rotationDampTime": "Eff_SceneObj_DungeonEntry_01_Locked"
            }
          ]
        },
        "BlueBoard": {
          "modifierName": "",
          "IPFJJJGABPL": 100.0,
          "onAdded": [
            {
              "$type": "GFOOGEIKGBI",
              "parameter": "gadgetState",
              "attachPoint": "",
              "damageRatio": "Int",
              "value": 201,
              "rotationDampTime": "Eff_SceneObj_DungeonEntry_01_Locked"
            }
          ],
          "onRemoved": [
            {
              "$type": "KBFEIHEAMBM",
              "rotationDampTime": "Eff_SceneObj_DungeonEntry_03_Active",
              "born": {
                "$type": "KLPANPDGHHA",
                "attachPointName": "ActiveEffectPoint"
              },
              "PPPDJGDDOGD": 1.0,
              "AJDILHJFNKE": -1.0
            }
          ]
        }
      }
    }
  },
  {
    "Default": {
      "$type": "CBPBEHLOHKI",
      "abilityName": "SceneObj_Resident_DungeonEntry_MengDe02_UW",
      "abilityMixins": [
        {
          "$type": "EKMHJKDLBJH",
          "stateIDs": [
            "Rise",
            "UnderLevel",
            "OnGround",
            "ReachLevel",
            "Lock",
            "Other",
            "Opening"
          ],
          "modifierName": "Pillar",
          "DGFCLAIDIFI": ""
        },
        {
          "$type": "EKMHJKDLBJH",
          "stateIDs": [
            "Rise"
          ],
          "modifierName": "Rise",
          "DGFCLAIDIFI": ""
        },
        {
          "$type": "EKMHJKDLBJH",
          "stateIDs": [
            "Rise",
            "UnderLevel",
            "OnGround",
            "ReachLevel"
          ],
          "modifierName": "RedBoard",
          "DGFCLAIDIFI": ""
        },
        {
          "$type": "EKMHJKDLBJH",
          "stateIDs": [
            "Rise",
            "OnGround",
            "UnderLevel"
          ],
          "modifierName": "RedTrigger",
          "DGFCLAIDIFI": ""
        },
        {
          "$type": "EKMHJKDLBJH",
          "stateIDs": [
            "ReachLevel"
          ],
          "modifierName": "BlueBoard",
          "DGFCLAIDIFI": ""
        },
        {
          "$type": "EKMHJKDLBJH",
          "stateIDs": [
            "Lock"
          ],
          "modifierName": "BlueTrigger",
          "DGFCLAIDIFI": ""
        },
        {
          "$type": "EKMHJKDLBJH",
          "stateIDs": [
            "Other",
            "Opening"
          ],
          "modifierName": "Entrance",
          "DGFCLAIDIFI": ""
        },
        {
          "$type": "EKMHJKDLBJH",
          "stateIDs": [
            "Opening"
          ],
          "modifierName": "Opening",
          "DGFCLAIDIFI": ""
        },
        {
          "$type": "EKMHJKDLBJH",
          "stateIDs": [
            "Gate_Broken"
          ],
          "modifierName": "Broken",
          "DGFCLAIDIFI": ""
        }
      ],
      "modifiers": {
        "Broken": {
          "modifierName": "",
          "IPFJJJGABPL": 100.0,
          "onAdded": [
            {
              "$type": "ANLOBBMKNIJ",
              "rotationDampTime": "Eff_DungeonEntry_MengDe_Broken_UW",
              "PPPDJGDDOGD": 1.0,
              "AJDILHJFNKE": -1.0
            }
          ]
        },
        "Opening": {
          "modifierName": "",
          "IPFJJJGABPL": 100.0,
          "onAdded": [
            {
              "$type": "KBFEIHEAMBM",
              "rotationDampTime": "Eff_SceneObj_DungeonEntry_03_Open_UW",
              "born": {
                "$type": "KLPANPDGHHA",
                "useRotation": true,
                "attachPointName": "OpenEffectPoint"
              },
              "PPPDJGDDOGD": 1.0,
              "AJDILHJFNKE": -1.0
            }
          ]
        },
        "Entrance": {
          "modifierName": "",
          "IPFJJJGABPL": 100.0,
          "onAdded": [
            {
              "$type": "ANLOBBMKNIJ",
              "rotationDampTime": "Eff_SceneObj_DungeonEntry_01_Entrance_UW",
              "PPPDJGDDOGD": 1.0,
              "AJDILHJFNKE": -1.0
            }
          ]
        },
        "BlueTrigger": {
          "modifierName": "",
          "IPFJJJGABPL": 100.0,
          "onAdded": [
            {
              "$type": "GFOOGEIKGBI",
              "parameter": "BlueTrigger",
              "attachPoint": "",
              "damageRatio": "Bool",
              "value": 1,
              "rotationDampTime": "Eff_SceneObj_DungeonEntry_01_Hint_UW"
            }
          ]
        },
        "Pillar": {
          "modifierName": "",
          "IPFJJJGABPL": 100.0,
          "onAdded": [
            {
              "$type": "ANLOBBMKNIJ",
              "rotationDampTime": "Eff_SceneObj_DungeonEntry_01_Hint_UW",
              "PPPDJGDDOGD": 1.0,
              "AJDILHJFNKE": -1.0
            }
          ]
        },
        "Rise": {
          "modifierName": "",
          "IPFJJJGABPL": 100.0,
          "onAdded": [
            {
              "$type": "KBFEIHEAMBM",
              "rotationDampTime": "Eff_SceneObj_DungeonEntry_01_Rise_UW",
              "PPPDJGDDOGD": 1.0,
              "AJDILHJFNKE": -1.0
            },
            {
              "$type": "KBFEIHEAMBM",
              "rotationDampTime": "Eff_SceneObj_DungeonEntry_01_Rise_Ground_UW",
              "PPPDJGDDOGD": 1.0,
              "AJDILHJFNKE": -1.0
            }
          ]
        },
        "RedBoard": {
          "modifierName": "",
          "IPFJJJGABPL": 100.0,
          "onAdded": [
            {
              "$type": "ANLOBBMKNIJ",
              "rotationDampTime": "Eff_SceneObj_DungeonEntry_01_Locked_UW",
              "PPPDJGDDOGD": 1.0,
              "AJDILHJFNKE": -1.0
            },
            {
              "$type": "GFOOGEIKGBI",
              "parameter": "RedTrigger",
              "attachPoint": "",
              "damageRatio": "Bool",
              "value": 1,
              "rotationDampTime": "Eff_SceneObj_DungeonEntry_01_Hint_UW"
            }
          ]
        },
        "RedTrigger": {
          "modifierName": "",
          "IPFJJJGABPL": 100.0,
          "onAdded": [
            {
              "$type": "GFOOGEIKGBI",
              "parameter": "gadgetState",
              "attachPoint": "",
              "damageRatio": "Int",
              "rotationDampTime": "Eff_SceneObj_DungeonEntry_01_Locked_UW"
            }
          ]
        },
        "BlueBoard": {
          "modifierName": "",
          "IPFJJJGABPL": 100.0,
          "onAdded": [
            {
              "$type": "GFOOGEIKGBI",
              "parameter": "gadgetState",
              "attachPoint": "",
              "damageRatio": "Int",
              "value": 201,
              "rotationDampTime": "Eff_SceneObj_DungeonEntry_01_Locked_UW"
            }
          ],
          "onRemoved": [
            {
              "$type": "KBFEIHEAMBM",
              "rotationDampTime": "Eff_SceneObj_DungeonEntry_03_Active_UW",
              "born": {
                "$type": "KLPANPDGHHA",
                "useRotation": true,
                "attachPointName": "ActiveEffectPoint"
              },
              "PPPDJGDDOGD": 1.0,
              "AJDILHJFNKE": -1.0
            }
          ]
        }
      }
    }
  },
  {
    "Default": {
      "$type": "CBPBEHLOHKI",
      "abilityName": "SceneObj_Resident_DungeonEntry_MengDe03",
      "abilityMixins": [
        {
          "$type": "EKMHJKDLBJH",
          "stateIDs": [
            "UnderLevel",
            "ReachLevel",
            "Inactive"
          ],
          "modifierName": "RedTrigger",
          "DGFCLAIDIFI": ""
        },
        {
          "$type": "EKMHJKDLBJH",
          "stateIDs": [
            "Lock"
          ],
          "modifierName": "BlueTrigger",
          "DGFCLAIDIFI": ""
        },
        {
          "$type": "EKMHJKDLBJH",
          "stateIDs": [
            "ReachLevel",
            "Inactive"
          ],
          "modifierName": "ReachLevel",
          "DGFCLAIDIFI": ""
        },
        {
          "$type": "EKMHJKDLBJH",
          "stateIDs": [
            "UnderLevel"
          ],
          "modifierName": "UnderLevel",
          "DGFCLAIDIFI": ""
        },
        {
          "$type": "EKMHJKDLBJH",
          "stateIDs": [
            "Open"
          ],
          "modifierName": "Entrance",
          "DGFCLAIDIFI": ""
        },
        {
          "$type": "EKMHJKDLBJH",
          "stateIDs": [
            "Active"
          ],
          "modifierName": "Active",
          "DGFCLAIDIFI": ""
        }
      ],
      "modifiers": {
        "RedTrigger": {
          "modifierName": "",
          "IPFJJJGABPL": 100.0,
          "onAdded": [
            {
              "$type": "GFOOGEIKGBI",
              "parameter": "RedTrigger",
              "attachPoint": "",
              "damageRatio": "Bool",
              "value": 1,
              "rotationDampTime": "Eff_SceneObj_DungeonEntry_04_Hint01"
            },
            {
              "$type": "ANLOBBMKNIJ",
              "rotationDampTime": "Eff_SceneObj_DungeonEntry_04_Locked",
              "born": {
                "$type": "KLPANPDGHHA",
                "attachPointName": "EffectPoint"
              },
              "PPPDJGDDOGD": 1.0,
              "AJDILHJFNKE": -1.0
            }
          ]
        },
        "BlueTrigger": {
          "modifierName": "",
          "IPFJJJGABPL": 100.0,
          "onAdded": [
            {
              "$type": "INBCDALOHMP",
              "targetPredicates": [
                {
                  "$type": "CNGGLKHONAA",
                  "key": "Opened",
                  "param3": 1.0,
                  "compareType": "MoreThanAndEqual"
                }
              ],
              "successActions": [
                {
                  "$type": "ANLOBBMKNIJ",
                  "rotationDampTime": "Eff_SceneObj_DungeonEntry_04_MainDisappear",
                  "born": {
                    "$type": "KLPANPDGHHA",
                    "attachPointName": "EffectPoint"
                  },
                  "PPPDJGDDOGD": 1.0,
                  "AJDILHJFNKE": -1.0
                },
                {
                  "$type": "LCOEFEMOHLP",
                  "param3": -1.0,
                  "key": "Opened",
                  "useLimitRange": true,
                  "param2": 1.0,
                  "repeatTimes": 0.0
                }
              ]
            },
            {
              "$type": "GFOOGEIKGBI",
              "parameter": "BlueTrigger",
              "attachPoint": "",
              "damageRatio": "Bool",
              "value": 1,
              "rotationDampTime": "Eff_SceneObj_DungeonEntry_04_Hint01"
            }
          ]
        },
        "ReachLevel": {
          "modifierName": "",
          "IPFJJJGABPL": 100.0,
          "onAdded": [
            {
              "$type": "GFOOGEIKGBI",
              "parameter": "gadgetState",
              "attachPoint": "",
              "damageRatio": "Int",
              "value": 201,
              "rotationDampTime": "Eff_SceneObj_DungeonEntry_04_Locked"
            }
          ]
        },
        "UnderLevel": {
          "modifierName": "",
          "IPFJJJGABPL": 100.0,
          "onAdded": [
            {
              "$type": "GFOOGEIKGBI",
              "parameter": "gadgetState",
              "attachPoint": "",
              "damageRatio": "Int",
              "rotationDampTime": "Eff_SceneObj_DungeonEntry_04_Locked"
            }
          ]
        },
        "Active": {
          "modifierName": "",
          "IPFJJJGABPL": 100.0
        },
        "Entrance": {
          "modifierName": "",
          "IPFJJJGABPL": 100.0,
          "onAdded": [
            {
              "$type": "ANLOBBMKNIJ",
              "rotationDampTime": "Eff_SceneObj_DungeonEntry_04_Main",
              "born": {
                "$type": "KLPANPDGHHA",
                "attachPointName": "EffectPoint"
              },
              "PPPDJGDDOGD": 1.0,
              "AJDILHJFNKE": -1.0
            },
            {
              "$type": "LCOEFEMOHLP",
              "param3": 1.0,
              "key": "Opened",
              "useLimitRange": true,
              "param2": 1.0,
              "repeatTimes": 0.0
            }
          ]
        }
      },
      "onAdded": [
        {
          "$type": "ANLOBBMKNIJ",
          "rotationDampTime": "Eff_SceneObj_DungeonEntry_04_Hint01",
          "born": {
            "$type": "KLPANPDGHHA",
            "attachPointName": "EffectPoint"
          },
          "PPPDJGDDOGD": 1.0,
          "AJDILHJFNKE": -1.0
        }
      ]
    }
  },
  {
    "Default": {
      "$type": "CBPBEHLOHKI",
      "abilityName": "SceneObj_Resident_DungeonEntry_Temp",
      "abilityMixins": [
        {
          "$type": "EKMHJKDLBJH",
          "stateIDs": [
            "Appear"
          ],
          "modifierName": "Dungeon_Appear",
          "DGFCLAIDIFI": ""
        }
      ],
      "modifiers": {
        "Dungeon_Appear": {
          "modifierName": "",
          "IPFJJJGABPL": 100.0,
          "onAdded": [
            {
              "$type": "ANLOBBMKNIJ",
              "rotationDampTime": "Eff_Door_Magic_Decal",
              "PPPDJGDDOGD": 1.0,
              "AJDILHJFNKE": -1.0
            }
          ]
        }
      }
    }
  },
  {
    "Default": {
      "$type": "CBPBEHLOHKI",
      "abilityName": "SceneObj_Resident_DungeonEntry_Temp_3d",
      "abilityMixins": [
        {
          "$type": "EKMHJKDLBJH",
          "stateIDs": [
            "Appear"
          ],
          "modifierName": "Dungeon_Appear",
          "DGFCLAIDIFI": ""
        }
      ],
      "modifiers": {
        "Dungeon_Appear": {
          "modifierName": "",
          "IPFJJJGABPL": 100.0,
          "onAdded": [
            {
              "$type": "ANLOBBMKNIJ",
              "rotationDampTime": "Eff_Door_Magic_01",
              "PPPDJGDDOGD": 1.0,
              "AJDILHJFNKE": -1.0
            }
          ]
        }
      }
    }
  },
  {
    "Default": {
      "$type": "CBPBEHLOHKI",
      "abilityName": "SceneObj_Resident_Goddess",
      "abilityMixins": [
        {
          "$type": "EKMHJKDLBJH",
          "stateIDs": [
            "Red"
          ],
          "modifierName": "Red_LightCross",
          "DGFCLAIDIFI": ""
        },
        {
          "$type": "EKMHJKDLBJH",
          "stateIDs": [
            "White"
          ],
          "modifierName": "White_LightCross",
          "DGFCLAIDIFI": ""
        },
        {
          "$type": "EKMHJKDLBJH",
          "stateIDs": [
            "Blue"
          ],
          "modifierName": "Blue_LightCross",
          "DGFCLAIDIFI": ""
        }
      ],
      "modifiers": {
        "Red_LightCross": {
          "modifierName": "",
          "IPFJJJGABPL": 100.0,
          "onAdded": [
            {
              "$type": "GFOOGEIKGBI",
              "parameter": "TriggerType",
              "attachPoint": "",
              "damageRatio": "Int",
              "rotationDampTime": "Eff_Goddess_Level"
            }
          ]
        },
        "White_LightCross": {
          "modifierName": "",
          "IPFJJJGABPL": 100.0,
          "onAdded": [
            {
              "$type": "GFOOGEIKGBI",
              "parameter": "TriggerType",
              "attachPoint": "",
              "damageRatio": "Int",
              "value": 1,
              "rotationDampTime": "Eff_Goddess_Level"
            }
          ]
        },
        "Blue_LightCross": {
          "modifierName": "",
          "IPFJJJGABPL": 100.0,
          "onAdded": [
            {
              "$type": "ELNHKGAPIBJ",
              "content": "#### blue ####"
            },
            {
              "$type": "GFOOGEIKGBI",
              "parameter": "TriggerType",
              "attachPoint": "",
              "damageRatio": "Int",
              "value": 2,
              "rotationDampTime": "Eff_Goddess_Level"
            }
          ]
        }
      }
    }
  },
  {
    "Default": {
      "$type": "CBPBEHLOHKI",
      "abilityName": "FireEffect_ElementResonance_Wind",
      "modifiers": {
        "Delay": {
          "modifierName": "",
          "elementDurability": 0.17499999701976776,
          "IPFJJJGABPL": 100.0,
          "onRemoved": [
            {
              "$type": "PELJALPANCA",
              "modifierName": "Fire_Effect"
            }
          ]
        },
        "Fire_Effect": {
          "modifierName": "",
          "elementDurability": 5.0,
          "IPFJJJGABPL": 100.0,
          "onAdded": [
            {
              "$type": "KBFEIHEAMBM",
              "rotationDampTime": "Eff_Goddess_Chord_Wind",
              "PPPDJGDDOGD": 1.0,
              "AJDILHJFNKE": -1.0
            }
          ]
        }
      },
      "onAbilityStart": [
        {
          "$type": "PELJALPANCA",
          "modifierName": "Delay"
        }
      ]
    }
  },
  {
    "Default": {
      "$type": "CBPBEHLOHKI",
      "abilityName": "SceneObj_Resident_Goddess_LY",
      "abilityMixins": [
        {
          "$type": "EKMHJKDLBJH",
          "stateIDs": [
            "Red"
          ],
          "modifierName": "Red_LightCross",
          "DGFCLAIDIFI": ""
        },
        {
          "$type": "EKMHJKDLBJH",
          "stateIDs": [
            "White"
          ],
          "modifierName": "White_LightCross",
          "DGFCLAIDIFI": ""
        },
        {
          "$type": "EKMHJKDLBJH",
          "stateIDs": [
            "Blue"
          ],
          "modifierName": "Blue_LightCross",
          "DGFCLAIDIFI": ""
        }
      ],
      "modifiers": {
        "Red_LightCross": {
          "modifierName": "",
          "IPFJJJGABPL": 100.0,
          "onAdded": [
            {
              "$type": "GFOOGEIKGBI",
              "parameter": "TriggerType",
              "attachPoint": "",
              "damageRatio": "Int",
              "rotationDampTime": "Eff_Goddess_Level_LY"
            }
          ]
        },
        "White_LightCross": {
          "modifierName": "",
          "IPFJJJGABPL": 100.0,
          "onAdded": [
            {
              "$type": "GFOOGEIKGBI",
              "parameter": "TriggerType",
              "attachPoint": "",
              "damageRatio": "Int",
              "value": 1,
              "rotationDampTime": "Eff_Goddess_Level_LY"
            }
          ]
        },
        "Blue_LightCross": {
          "modifierName": "",
          "IPFJJJGABPL": 100.0,
          "onAdded": [
            {
              "$type": "GFOOGEIKGBI",
              "parameter": "TriggerType",
              "attachPoint": "",
              "damageRatio": "Int",
              "value": 2,
              "rotationDampTime": "Eff_Goddess_Level_LY"
            }
          ]
        }
      }
    }
  },
  {
    "Default": {
      "$type": "CBPBEHLOHKI",
      "abilityName": "FireEffect_ElementResonance_Rock",
      "modifiers": {
        "Delay": {
          "modifierName": "",
          "elementDurability": 0.1850000023841858,
          "IPFJJJGABPL": 100.0,
          "onRemoved": [
            {
              "$type": "PELJALPANCA",
              "modifierName": "Fire_Effect"
            }
          ]
        },
        "Fire_Effect": {
          "modifierName": "",
          "elementDurability": 5.0,
          "IPFJJJGABPL": 100.0,
          "onAdded": [
            {
              "$type": "KBFEIHEAMBM",
              "rotationDampTime": "Eff_Goddess_Chord_Rock",
              "PPPDJGDDOGD": 1.0,
              "AJDILHJFNKE": -1.0
            }
          ]
        }
      },
      "onAbilityStart": [
        {
          "$type": "PELJALPANCA",
          "modifierName": "Delay"
        }
      ]
    }
  },
  {
    "Default": {
      "$type": "CBPBEHLOHKI",
      "abilityName": "SceneObj_Area_Fd_Property_Ani_Build_FDGoddess_01",
      "abilityMixins": [
        {
          "$type": "EKMHJKDLBJH",
          "stateIDs": [
            "Red"
          ],
          "modifierName": "Red_LightCross",
          "DGFCLAIDIFI": ""
        },
        {
          "$type": "EKMHJKDLBJH",
          "stateIDs": [
            "White"
          ],
          "modifierName": "White_LightCross",
          "DGFCLAIDIFI": ""
        },
        {
          "$type": "EKMHJKDLBJH",
          "stateIDs": [
            "Blue"
          ],
          "modifierName": "Blue_LightCross",
          "DGFCLAIDIFI": ""
        }
      ],
      "modifiers": {
        "Red_LightCross": {
          "modifierName": "",
          "IPFJJJGABPL": 100.0,
          "onAdded": [
            {
              "$type": "GFOOGEIKGBI",
              "parameter": "TriggerType",
              "attachPoint": "",
              "damageRatio": "Int",
              "rotationDampTime": "Eff_Goddess_Level_FD"
            }
          ]
        },
        "White_LightCross": {
          "modifierName": "",
          "IPFJJJGABPL": 100.0,
          "onAdded": [
            {
              "$type": "GFOOGEIKGBI",
              "parameter": "TriggerType",
              "attachPoint": "",
              "damageRatio": "Int",
              "value": 1,
              "rotationDampTime": "Eff_Goddess_Level_FD"
            }
          ]
        },
        "Blue_LightCross": {
          "modifierName": "",
          "IPFJJJGABPL": 100.0,
          "onAdded": [
            {
              "$type": "GFOOGEIKGBI",
              "parameter": "TriggerType",
              "attachPoint": "",
              "damageRatio": "Int",
              "value": 2,
              "rotationDampTime": "Eff_Goddess_Level_FD"
            }
          ]
        }
      }
    }
  },
  {
    "Default": {
      "$type": "CBPBEHLOHKI",
      "abilityName": "FireEffect_ElementResonance_Water",
      "modifiers": {
        "Delay": {
          "modifierName": "",
          "elementDurability": 0.1850000023841858,
          "IPFJJJGABPL": 100.0,
          "onRemoved": [
            {
              "$type": "PELJALPANCA",
              "modifierName": "Fire_Effect"
            }
          ]
        },
        "Fire_Effect": {
          "modifierName": "",
          "elementDurability": 5.0,
          "IPFJJJGABPL": 100.0,
          "onAdded": [
            {
              "$type": "KBFEIHEAMBM",
              "rotationDampTime": "Eff_Goddess_Chord_Water",
              "PPPDJGDDOGD": 1.0,
              "AJDILHJFNKE": -1.0
            }
          ]
        }
      },
      "onAbilityStart": [
        {
          "$type": "PELJALPANCA",
          "modifierName": "Delay"
        }
      ]
    }
  },
  {
    "Default": {
      "$type": "CBPBEHLOHKI",
      "abilityName": "SceneObj_Area_Nt_Property_Ani_Build_NTGoddess_01",
      "abilityMixins": [
        {
          "$type": "EKMHJKDLBJH",
          "stateIDs": [
            "Red"
          ],
          "modifierName": "Red_LightCross",
          "DGFCLAIDIFI": ""
        },
        {
          "$type": "EKMHJKDLBJH",
          "stateIDs": [
            "White"
          ],
          "modifierName": "White_LightCross",
          "DGFCLAIDIFI": ""
        },
        {
          "$type": "EKMHJKDLBJH",
          "stateIDs": [
            "Blue"
          ],
          "modifierName": "Blue_LightCross",
          "DGFCLAIDIFI": ""
        }
      ],
      "modifiers": {
        "Red_LightCross": {
          "modifierName": "",
          "IPFJJJGABPL": 100.0,
          "onAdded": [
            {
              "$type": "GFOOGEIKGBI",
              "parameter": "TriggerType",
              "attachPoint": "",
              "damageRatio": "Int",
              "rotationDampTime": "Eff_Goddess_Level_NT"
            }
          ]
        },
        "White_LightCross": {
          "modifierName": "",
          "IPFJJJGABPL": 100.0,
          "onAdded": [
            {
              "$type": "GFOOGEIKGBI",
              "parameter": "TriggerType",
              "attachPoint": "",
              "damageRatio": "Int",
              "value": 1,
              "rotationDampTime": "Eff_Goddess_Level_NT"
            }
          ]
        },
        "Blue_LightCross": {
          "modifierName": "",
          "IPFJJJGABPL": 100.0,
          "onAdded": [
            {
              "$type": "GFOOGEIKGBI",
              "parameter": "TriggerType",
              "attachPoint": "",
              "damageRatio": "Int",
              "value": 2,
              "rotationDampTime": "Eff_Goddess_Level_NT"
            }
          ]
        }
      }
    }
  },
  {
    "Default": {
      "$type": "CBPBEHLOHKI",
      "abilityName": "FireEffect_ElementResonance_Fire",
      "modifiers": {
        "Delay": {
          "modifierName": "",
          "elementDurability": 0.1850000023841858,
          "IPFJJJGABPL": 100.0,
          "onRemoved": [
            {
              "$type": "PELJALPANCA",
              "modifierName": "Fire_Effect"
            }
          ]
        },
        "Fire_Effect": {
          "modifierName": "",
          "elementDurability": 5.0,
          "IPFJJJGABPL": 100.0,
          "onAdded": [
            {
              "$type": "KBFEIHEAMBM",
              "rotationDampTime": "Eff_Goddess_Chord_Fire",
              "PPPDJGDDOGD": 1.0,
              "AJDILHJFNKE": -1.0
            }
          ]
        }
      },
      "onAbilityStart": [
        {
          "$type": "PELJALPANCA",
          "modifierName": "Delay"
        }
      ]
    }
  },
  {
    "Default": {
      "$type": "CBPBEHLOHKI",
      "abilityName": "Test_Rotation_Interact",
      "abilityMixins": [
        {
          "$type": "BPKALFNJLIG",
          "gadgetState": 201,
          "modifierName": "Rotation_201"
        },
        {
          "$type": "BPKALFNJLIG",
          "gadgetState": 202,
          "modifierName": "Rotation_202"
        }
      ],
      "modifiers": {
        "Rotation_201": {
          "modifierName": "",
          "IPFJJJGABPL": 100.0,
          "onAdded": [
            {
              "$type": "KJCHPDPBJHL",
              "boolID": "Rotate",
              "param3": true
            }
          ]
        },
        "Rotation_202": {
          "modifierName": "",
          "IPFJJJGABPL": 100.0,
          "onAdded": [
            {
              "$type": "KJCHPDPBJHL",
              "boolID": "Glow",
              "param3": true
            },
            {
              "$type": "ANLOBBMKNIJ",
              "rotationDampTime": "Eff_KanriahMech_ElectricBall_Shoot",
              "born": {
                "$type": "KLPANPDGHHA",
                "attachPointName": "attachPoint"
              },
              "PPPDJGDDOGD": 1.0,
              "AJDILHJFNKE": -1.0
            }
          ],
          "onRemoved": [
            {
              "$type": "KJCHPDPBJHL",
              "boolID": "Reset",
              "param3": true
            },
            {
              "$type": "KJCHPDPBJHL",
              "boolID": "Glow"
            },
            {
              "$type": "KJCHPDPBJHL",
              "boolID": "Rotate"
            }
          ]
        },
        "DoubleAttack": {
          "modifierName": "",
          "elementDurability": 1.0,
          "IPFJJJGABPL": 100.0,
          "thinkInterval": 0.75,
          "onThinkInterval": [
            {
              "$type": "AIFPLABJNMA",
              "shieldHP": true,
              "attackEvent": {
                "attackPattern": {
                  "$type": "JHKEHNJBMOF",
                  "triggerType": "TriggerNoRepeat",
                  "born": {
                    "$type": "JHEBKCMEMLN",
                    "offset": {
                      "KGEPIMHBMOL": 0.0,
                      "JEBHCGDPFEJ": -1.5,
                      "LPCHALMFFOD": -2.5
                    }
                  },
                  "size": {
                    "KGEPIMHBMOL": 5.0,
                    "JEBHCGDPFEJ": 1.0,
                    "LPCHALMFFOD": 5.0
                  }
                },
                "attackInfo": {
                  "attackTag": "",
                  "attenuationTag": "",
                  "attenuationGroup": "default",
                  "attackProperty": {
                    "actorGrassSubHurtDelta": 1.0,
                    "actorWindSubHurtDelta": 0.0,
                    "elementType": "Grass",
                    "IPFJJJGABPL": 10.0,
                    "strikeType": "Pierce",
                    "enBreak": 9999999.0,
                    "GLKMCMDJBIK": 0.0
                  },
                  "hitPattern": {
                    "onHitEffectName": "default",
                    "hitImpulseY": "",
                    "hitImpulseType": "LV3",
                    "hitHaltTimeScale": 0.05000000074505806
                  }
                }
              },
              "targetType": "Enemy"
            }
          ]
        }
      }
    }
  },
  {
    "Default": {
      "$type": "CBPBEHLOHKI",
      "abilityName": "Test_Rotation_Attack",
      "onAbilityStart": [
        {
          "$type": "AIFPLABJNMA",
          "shieldHP": true,
          "attackEvent": {
            "attackPattern": {
              "$type": "JHKEHNJBMOF",
              "triggerType": "TriggerNoRepeat",
              "born": {
                "$type": "JHEBKCMEMLN",
                "offset": {
                  "KGEPIMHBMOL": 0.0,
                  "JEBHCGDPFEJ": -1.5,
                  "LPCHALMFFOD": -2.5
                }
              },
              "size": {
                "KGEPIMHBMOL": 5.0,
                "JEBHCGDPFEJ": 1.0,
                "LPCHALMFFOD": 5.0
              }
            },
            "attackInfo": {
              "attackTag": "",
              "attenuationTag": "",
              "attenuationGroup": "default",
              "attackProperty": {
                "actorGrassSubHurtDelta": 1.0,
                "actorWindSubHurtDelta": 0.0,
                "elementType": "Grass",
                "IPFJJJGABPL": 10.0,
                "strikeType": "Pierce",
                "enBreak": 9999999.0,
                "GLKMCMDJBIK": 0.0
              },
              "hitPattern": {
                "onHitEffectName": "default",
                "hitImpulseY": "",
                "hitImpulseType": "LV3",
                "hitHaltTimeScale": 0.05000000074505806
              }
            }
          },
          "targetType": "Enemy"
        }
      ]
    }
  },
  {
    "Default": {
      "$type": "CBPBEHLOHKI",
      "abilityName": "Test_Rotation02_Interact",
      "abilityMixins": [
        {
          "$type": "BPKALFNJLIG",
          "modifierName": "Rotation_0"
        },
        {
          "$type": "BPKALFNJLIG",
          "gadgetState": 201,
          "modifierName": "Rotation_201"
        }
      ],
      "modifiers": {
        "Rotation_0": {
          "modifierName": "",
          "IPFJJJGABPL": 100.0,
          "onAdded": [
            {
              "$type": "AKEEDILMOJF",
              "intID": "GadgetState",
              "param3": 0.0
            }
          ]
        },
        "Rotation_201": {
          "modifierName": "",
          "IPFJJJGABPL": 100.0,
          "onAdded": [
            {
              "$type": "AKEEDILMOJF",
              "intID": "GadgetState",
              "param3": 201.0
            }
          ]
        }
      }
    }
  },
  {
    "Default": {
      "$type": "CBPBEHLOHKI",
      "abilityName": "WindDevice01_Interact",
      "abilityMixins": [
        {
          "$type": "BPKALFNJLIG",
          "modifierName": "Device_Inactive"
        }
      ],
      "modifiers": {
        "Device_Inactive": {
          "modifierName": "",
          "IPFJJJGABPL": 100.0,
          "onAdded": [
            {
              "$type": "KJCHPDPBJHL",
              "boolID": "AirFlow_Start"
            }
          ],
          "onRemoved": [
            {
              "$type": "JLDEMMJAMLC",
              "modifierName": "CutScene_Delay"
            }
          ]
        },
        "CutScene_Delay": {
          "modifierName": "",
          "elementDurability": 3.799999952316284,
          "IPFJJJGABPL": 100.0,
          "onRemoved": [
            {
              "$type": "KJCHPDPBJHL",
              "boolID": "AirFlow_Start",
              "param3": true
            }
          ]
        }
      }
    }
  },
  {
    "Default": {
      "$type": "CBPBEHLOHKI",
      "abilityName": "SceneObj_Gear_Gate_DungeonGate03_Ability",
      "abilityMixins": [
        {
          "$type": "EKMHJKDLBJH",
          "stateIDs": [
            "Gate_Open"
          ],
          "modifierName": "Gate_Open",
          "DGFCLAIDIFI": ""
        }
      ],
      "modifiers": {
        "Gate_Open": {
          "modifierName": "",
          "IPFJJJGABPL": 100.0,
          "onAdded": [
            {
              "$type": "ANLOBBMKNIJ",
              "rotationDampTime": "Eff_Gear_Gate03_Centre_01",
              "PPPDJGDDOGD": 1.0,
              "AJDILHJFNKE": -1.0
            },
            {
              "$type": "ANLOBBMKNIJ",
              "rotationDampTime": "Eff_Gear_Gate03_Centre_02",
              "PPPDJGDDOGD": 1.0,
              "AJDILHJFNKE": -1.0
            },
            {
              "$type": "ANLOBBMKNIJ",
              "rotationDampTime": "Eff_Gear_Gate03_Left_01",
              "PPPDJGDDOGD": 1.0,
              "AJDILHJFNKE": -1.0
            },
            {
              "$type": "ANLOBBMKNIJ",
              "rotationDampTime": "Eff_Gear_Gate03_Right_01",
              "PPPDJGDDOGD": 1.0,
              "AJDILHJFNKE": -1.0
            }
          ]
        }
      }
    }
  },
  {
    "Default": {
      "$type": "CBPBEHLOHKI",
      "abilityName": "SceneObj_Level_Common_Property_Ani_Prop_HiddenDoor_01",
      "abilityMixins": [
        {
          "$type": "BPKALFNJLIG",
          "modifierName": "Phase1"
        },
        {
          "$type": "BPKALFNJLIG",
          "gadgetState": 201,
          "modifierName": "Phase2"
        }
      ],
      "modifiers": {
        "Phase1": {
          "modifierName": "",
          "IPFJJJGABPL": 100.0,
          "onAdded": [
            {
              "$type": "ANLOBBMKNIJ",
              "rotationDampTime": "Eff_SceneObj_HiddenDoor_01_Close",
              "PPPDJGDDOGD": 1.0,
              "AJDILHJFNKE": -1.0
            }
          ]
        },
        "Phase2": {
          "modifierName": "",
          "IPFJJJGABPL": 100.0,
          "onAdded": [
            {
              "$type": "ANLOBBMKNIJ",
              "rotationDampTime": "Eff_SceneObj_HiddenDoor_01_Open",
              "PPPDJGDDOGD": 1.0,
              "AJDILHJFNKE": -1.0
            }
          ]
        }
      }
    }
  },
  {
    "Default": {
      "$type": "CBPBEHLOHKI",
      "abilityName": "SceneObj_Area_Common_Property_Ani_Build_ChallengeEntry_01",
      "abilityMixins": [
        {
          "$type": "EKMHJKDLBJH",
          "stateIDs": [
            "LadderNone"
          ],
          "modifierName": "LadderNone",
          "DGFCLAIDIFI": ""
        },
        {
          "$type": "EKMHJKDLBJH",
          "stateIDs": [
            "LadderAppear"
          ],
          "modifierName": "LadderAppear",
          "DGFCLAIDIFI": ""
        },
        {
          "$type": "EKMHJKDLBJH",
          "stateIDs": [
            "LadderDisapper"
          ],
          "modifierName": "LadderDisapper",
          "DGFCLAIDIFI": ""
        },
        {
          "$type": "EKMHJKDLBJH",
          "stateIDs": [
            "ChallengeEntry_Disappear"
          ],
          "modifierName": "ChallengeEntry_Disappear",
          "DGFCLAIDIFI": ""
        },
        {
          "$type": "EKMHJKDLBJH",
          "stateIDs": [
            "ChallengeEntry_Appear"
          ],
          "modifierName": "ChallengeEntry_Appear",
          "DGFCLAIDIFI": ""
        },
        {
          "$type": "EKMHJKDLBJH",
          "stateIDs": [
            "ChallengeEntry_Open"
          ],
          "modifierName": "ChallengeEntry_Open",
          "DGFCLAIDIFI": ""
        },
        {
          "$type": "EKMHJKDLBJH",
          "stateIDs": [
            "ChallengeEntry_Close"
          ],
          "modifierName": "ChallengeEntry_Close",
          "DGFCLAIDIFI": ""
        },
        {
          "$type": "BPKALFNJLIG",
          "gadgetState": 201,
          "modifierName": "TestState"
        }
      ],
      "modifiers": {
        "TestState": {
          "modifierName": "",
          "IPFJJJGABPL": 100.0,
          "onAdded": [
            {
              "$type": "ELNHKGAPIBJ",
              "content": "Modifiers On Added : TestState"
            }
          ]
        },
        "LadderNone": {
          "modifierName": "",
          "IPFJJJGABPL": 100.0,
          "onAdded": [
            {
              "$type": "ELNHKGAPIBJ",
              "content": "Modifiers On Added : LadderNone"
            }
          ]
        },
        "LadderAppear": {
          "modifierName": "",
          "IPFJJJGABPL": 100.0,
          "onAdded": [
            {
              "$type": "ELNHKGAPIBJ",
              "content": "Modifiers On Added : LadderAppear"
            }
          ]
        },
        "LadderDisapper": {
          "modifierName": "",
          "IPFJJJGABPL": 100.0,
          "onAdded": [
            {
              "$type": "ELNHKGAPIBJ",
              "content": "Modifiers On Added : LadderDisapper"
            }
          ]
        },
        "ChallengeEntry_Disappear": {
          "modifierName": "",
          "IPFJJJGABPL": 100.0,
          "onAdded": [
            {
              "$type": "AKEEDILMOJF",
              "intID": "PlayerClose",
              "param3": 0.0
            },
            {
              "$type": "ELNHKGAPIBJ",
              "content": "Modifiers On Added : ChallengeEntry_Disappear"
            }
          ]
        },
        "ChallengeEntry_Appear": {
          "modifierName": "",
          "IPFJJJGABPL": 100.0,
          "onAdded": [
            {
              "$type": "ELNHKGAPIBJ",
              "content": "Modifiers On Added : ChallengeEntry_Appear"
            }
          ]
        },
        "ChallengeEntry_Open": {
          "modifierName": "",
          "IPFJJJGABPL": 100.0,
          "onAdded": [
            {
              "$type": "ELNHKGAPIBJ",
              "content": "Modifiers On Added : ChallengeEntry_Open"
            }
          ]
        },
        "ChallengeEntry_Close": {
          "modifierName": "",
          "IPFJJJGABPL": 100.0,
          "onAdded": [
            {
              "$type": "ELNHKGAPIBJ",
              "content": "Modifiers On Added : ChallengeEntry_Close"
            }
          ]
        }
      },
      "onFieldEnter": [
        {
          "$type": "AKEEDILMOJF",
          "intID": "PlayerClose",
          "param3": 1.0
        }
      ],
      "onFieldExit": [
        {
          "$type": "AKEEDILMOJF",
          "intID": "PlayerClose",
          "param3": 0.0
        }
      ]
    }
  },
  {
    "Default": {
      "$type": "CBPBEHLOHKI",
      "abilityName": "SceneObj_Resident_Goddess_DQ",
      "abilityMixins": [
        {
          "$type": "EKMHJKDLBJH",
          "stateIDs": [
            "Red"
          ],
          "modifierName": "Red_LightCross",
          "DGFCLAIDIFI": ""
        },
        {
          "$type": "EKMHJKDLBJH",
          "stateIDs": [
            "White"
          ],
          "modifierName": "White_LightCross",
          "DGFCLAIDIFI": ""
        },
        {
          "$type": "EKMHJKDLBJH",
          "stateIDs": [
            "Blue"
          ],
          "modifierName": "Blue_LightCross",
          "DGFCLAIDIFI": ""
        }
      ],
      "modifiers": {
        "Red_LightCross": {
          "modifierName": "",
          "IPFJJJGABPL": 100.0,
          "onAdded": [
            {
              "$type": "GFOOGEIKGBI",
              "parameter": "TriggerType",
              "attachPoint": "",
              "damageRatio": "Int",
              "rotationDampTime": "Eff_Goddess_Level_DQ"
            }
          ]
        },
        "White_LightCross": {
          "modifierName": "",
          "IPFJJJGABPL": 100.0,
          "onAdded": [
            {
              "$type": "GFOOGEIKGBI",
              "parameter": "TriggerType",
              "attachPoint": "",
              "damageRatio": "Int",
              "value": 1,
              "rotationDampTime": "Eff_Goddess_Level_DQ"
            }
          ]
        },
        "Blue_LightCross": {
          "modifierName": "",
          "IPFJJJGABPL": 100.0,
          "onAdded": [
            {
              "$type": "GFOOGEIKGBI",
              "parameter": "TriggerType",
              "attachPoint": "",
              "damageRatio": "Int",
              "value": 2,
              "rotationDampTime": "Eff_Goddess_Level_DQ"
            }
          ]
        }
      }
    }
  },
  {
    "Default": {
      "$type": "CBPBEHLOHKI",
      "abilityName": "FireEffect_ElementResonance_Electric",
      "modifiers": {
        "Delay": {
          "modifierName": "",
          "elementDurability": 0.1850000023841858,
          "IPFJJJGABPL": 100.0,
          "onRemoved": [
            {
              "$type": "PELJALPANCA",
              "modifierName": "Fire_Effect"
            }
          ]
        },
        "Fire_Effect": {
          "modifierName": "",
          "elementDurability": 5.0,
          "IPFJJJGABPL": 100.0,
          "onAdded": [
            {
              "$type": "KBFEIHEAMBM",
              "rotationDampTime": "Eff_Goddess_Chord_Electric",
              "PPPDJGDDOGD": 1.0,
              "AJDILHJFNKE": -1.0
            }
          ]
        }
      },
      "onAbilityStart": [
        {
          "$type": "PELJALPANCA",
          "modifierName": "Delay"
        }
      ]
    }
  },
  {
    "Default": {
      "$type": "CBPBEHLOHKI",
      "abilityName": "SceneObj_Resident_Goddess_XM",
      "abilityMixins": [
        {
          "$type": "EKMHJKDLBJH",
          "stateIDs": [
            "Red"
          ],
          "modifierName": "Red_LightCross",
          "DGFCLAIDIFI": ""
        },
        {
          "$type": "EKMHJKDLBJH",
          "stateIDs": [
            "White"
          ],
          "modifierName": "White_LightCross",
          "DGFCLAIDIFI": ""
        },
        {
          "$type": "EKMHJKDLBJH",
          "stateIDs": [
            "Blue"
          ],
          "modifierName": "Blue_LightCross",
          "DGFCLAIDIFI": ""
        }
      ],
      "modifiers": {
        "Red_LightCross": {
          "modifierName": "",
          "IPFJJJGABPL": 100.0,
          "onAdded": [
            {
              "$type": "GFOOGEIKGBI",
              "parameter": "TriggerType",
              "attachPoint": "",
              "damageRatio": "Int",
              "rotationDampTime": "Eff_Goddess_Level_XM"
            }
          ]
        },
        "White_LightCross": {
          "modifierName": "",
          "IPFJJJGABPL": 100.0,
          "onAdded": [
            {
              "$type": "GFOOGEIKGBI",
              "parameter": "TriggerType",
              "attachPoint": "",
              "damageRatio": "Int",
              "value": 1,
              "rotationDampTime": "Eff_Goddess_Level_XM"
            }
          ]
        },
        "Blue_LightCross": {
          "modifierName": "",
          "IPFJJJGABPL": 100.0,
          "onAdded": [
            {
              "$type": "GFOOGEIKGBI",
              "parameter": "TriggerType",
              "attachPoint": "",
              "damageRatio": "Int",
              "value": 2,
              "rotationDampTime": "Eff_Goddess_Level_XM"
            }
          ]
        }
      }
    }
  },
  {
    "Default": {
      "$type": "CBPBEHLOHKI",
      "abilityName": "FireEffect_ElementResonance_Grass",
      "modifiers": {
        "Delay": {
          "modifierName": "",
          "elementDurability": 0.1850000023841858,
          "IPFJJJGABPL": 100.0,
          "onRemoved": [
            {
              "$type": "PELJALPANCA",
              "modifierName": "Fire_Effect"
            }
          ]
        },
        "Fire_Effect": {
          "modifierName": "",
          "elementDurability": 5.0,
          "IPFJJJGABPL": 100.0,
          "onAdded": [
            {
              "$type": "KBFEIHEAMBM",
              "rotationDampTime": "Eff_Goddess_Chord_Grass",
              "PPPDJGDDOGD": 1.0,
              "AJDILHJFNKE": -1.0
            }
          ]
        }
      },
      "onAbilityStart": [
        {
          "$type": "PELJALPANCA",
          "modifierName": "Delay"
        }
      ]
    }
  },
  {
    "Default": {
      "$type": "CBPBEHLOHKI",
      "abilityName": "SceneObj_Resident_DungeonEntry_MakotoTorii",
      "onAdded": [
        {
          "$type": "ANLOBBMKNIJ",
          "rotationDampTime": "Eff_SceneObj_MakotoTorii_01_Main",
          "PPPDJGDDOGD": 1.0,
          "AJDILHJFNKE": -1.0
        },
        {
          "$type": "ANLOBBMKNIJ",
          "rotationDampTime": "Eff_SceneObj_POI_Dq_MS_BaalEntrance_01",
          "born": {
            "$type": "IAENDIPDFKD",
            "direction": {
              "$type": "LEIHCELGBNN",
              "angleOffsetCorrect": {
                "KGEPIMHBMOL": 0.0,
                "JEBHCGDPFEJ": -67.0,
                "LPCHALMFFOD": 0.0
              }
            }
          },
          "PPPDJGDDOGD": 1.0,
          "AJDILHJFNKE": -1.0
        }
      ]
    }
  }
]