[
  {
    "Default": {
      "$type": "CBPBEHLOHKI",
      "abilityName": "Raining",
      "modifiers": {
        "Raining": {
          "modifierName": "",
          "elementDurability": 8.0,
          "IPFJJJGABPL": 100.0,
          "thinkInterval": 0.10000000149011612,
          "onThinkInterval": [
            {
              "$type": "PELJALPANCA",
              "otherTargets": {
                "$type": "IJOFJOGLDHE",
                "shapeName": "CircleR5",
                "campTargetType": "All",
                "doOffStage": 1.0
              },
              "modifierName": "WetModifier"
            }
          ]
        },
        "WetModifier": {
          "modifierName": "",
          "elementDurability": 8.0,
          "elementType": "Water",
          "IPFJJJGABPL": 40.0,
          "overrideWeaponElement": true,
          "onAdded": [
            {
              "$type": "ANLOBBMKNIJ",
              "rotationDampTime": "Eff_Element_Wet",
              "PPPDJGDDOGD": 1.0,
              "AJDILHJFNKE": -1.0
            }
          ]
        }
      },
      "onAdded": [
        {
          "$type": "PELJALPANCA",
          "modifierName": "Raining"
        }
      ]
    }
  },
  {
    "Default": {
      "$type": "CBPBEHLOHKI",
      "abilityName": "Test_KapokFlower_Interact",
      "modifiers": {
        "ElementWaterModifier": {
          "modifierName": "",
          "IPFJJJGABPL": 100.0,
          "onRemoved": [
            {
              "$type": "JLDEMMJAMLC",
              "modifierName": "Grow"
            }
          ],
          "onBeingHit": [
            {
              "$type": "KJCHPDPBJHL",
              "predicates": [
                {
                  "$type": "PNLEEOAGKLD",
                  "element": "Water"
                }
              ],
              "boolID": "BeHitWater",
              "param3": true
            },
            {
              "$type": "PFKNEFGOHIH",
              "predicates": [
                {
                  "$type": "PNLEEOAGKLD",
                  "element": "Water"
                }
              ],
              "modifierName": "ElementWaterModifier"
            }
          ]
        },
        "Grow": {
          "modifierName": "",
          "elementDurability": 1.100000023841858,
          "IPFJJJGABPL": 100.0,
          "onAdded": [
            {
              "$type": "ANLOBBMKNIJ",
              "rotationDampTime": "Eff_ItemFlower_Bloom",
              "PPPDJGDDOGD": 1.0,
              "AJDILHJFNKE": -1.0
            }
          ],
          "onRemoved": [
            {
              "$type": "HKLFHODKNLP"
            }
          ]
        }
      },
      "onAdded": [
        {
          "$type": "JLDEMMJAMLC",
          "modifierName": "ElementWaterModifier"
        }
      ]
    }
  }
]