[
  {
    "Default": {
      "$type": "CBPBEHLOHKI",
      "abilityName": "Avatar_DiveSkill_Octopus",
      "abilityMixins": [
        {
          "$type": "GODEMHMODCN",
          "skillID": 20063,
          "chargeTime": 0.20000000298023224,
          "EKKJNADOEMB": 999999.0,
          "onBeginUncharged": [
            {
              "$type": "PFKNEFGOHIH",
              "modifierName": "Focus_Update"
            },
            {
              "$type": "INBCDALOHMP",
              "targetPredicates": [
                {
                  "$type": "CNGGLKHONAA",
                  "target": "Self",
                  "key": "_ABILITY_Diving_Skill_In_Focus_Skill_Mark",
                  "param3": 0.0,
                  "compareType": "NoneOrEqual"
                }
              ],
              "successActions": [
                {
                  "$type": "BLCCGIPAOIP",
                  "PLLJBINMGJK": "StartDiveChannelTrigger"
                },
                {
                  "$type": "BLCCGIPAOIP",
                  "PLLJBINMGJK": "StartDiveChannelTrigger2"
                },
                {
                  "$type": "JLDEMMJAMLC",
                  "modifierName": "Focus_Update"
                },
                {
                  "$type": "JLDEMMJAMLC",
                  "modifierName": "Delay_Exit"
                }
              ]
            }
          ],
          "onBeginCharged": [
            {
              "$type": "PFKNEFGOHIH",
              "modifierName": "Delay_Exit"
            }
          ],
          "onReleaseCharged": [
            {
              "$type": "BLCCGIPAOIP",
              "PLLJBINMGJK": "EndDiveChannelTrigger"
            },
            {
              "$type": "BLCCGIPAOIP",
              "PLLJBINMGJK": "EndDiveChannelTrigger2"
            },
            {
              "$type": "PFKNEFGOHIH",
              "modifierName": "Focus_Update"
            },
            {
              "$type": "PFKNEFGOHIH",
              "modifierName": "Delay_Exit"
            }
          ],
          "onCancelCharged": [
            {
              "$type": "BLCCGIPAOIP",
              "PLLJBINMGJK": "EndDiveChannelTrigger"
            },
            {
              "$type": "BLCCGIPAOIP",
              "PLLJBINMGJK": "EndDiveChannelTrigger2"
            },
            {
              "$type": "PFKNEFGOHIH",
              "predicates": [
                {
                  "$type": "CNGGLKHONAA",
                  "target": "Self",
                  "key": "_ABILITY_Diving_Skill_In_Focus_Skill_Mark",
                  "param3": 6.0
                }
              ],
              "modifierName": "Focus_Update"
            },
            {
              "$type": "PFKNEFGOHIH",
              "modifierName": "Delay_Exit"
            }
          ],
          "chargeStateIDs": [
            "DiveChannel_BS",
            "DiveChannel_Loop"
          ]
        }
      ],
      "abilitySpecials": {
        "DamageSystemValue": 0.0,
        "DamageRatio": 0.0
      },
      "modifiers": {
        "Delay_Exit": {
          "modifierName": "",
          "elementDurability": 1.2000000476837158,
          "IPFJJJGABPL": 100.0,
          "thinkInterval": 0.800000011920929,
          "onThinkInterval": [
            {
              "$type": "BLCCGIPAOIP",
              "PLLJBINMGJK": "EndDiveChannelTrigger"
            },
            {
              "$type": "BLCCGIPAOIP",
              "PLLJBINMGJK": "EndDiveChannelTrigger2"
            },
            {
              "$type": "PFKNEFGOHIH",
              "modifierName": "Focus_Update"
            },
            {
              "$type": "PFKNEFGOHIH",
              "modifierName": "Delay_Exit"
            }
          ],
          "onThinkIntervalIsFixedUpdate": true
        },
        "Avatar_DiveChannel_LoopFx": {
          "modifierName": "",
          "IPFJJJGABPL": 100.0,
          "onAdded": [
            {
              "$type": "ANLOBBMKNIJ",
              "rotationDampTime": "Eff_Avatar_Diving_Octopus_HandLoop",
              "PPPDJGDDOGD": 1.0,
              "AJDILHJFNKE": -1.0
            }
          ],
          "onRemoved": [
            {
              "$type": "INBCDALOHMP",
              "target": "CurLocalAvatar",
              "targetPredicates": [
                {
                  "$type": "CNGGLKHONAA",
                  "key": "_ABILITY_Diving_SkillCDReduction",
                  "param3": 1.0
                }
              ],
              "successActions": [
                {
                  "$type": "PPMAOBKEOHI",
                  "skillID": 20063,
                  "shareCDType": 1
                }
              ],
              "failActions": [
                {
                  "$type": "PPMAOBKEOHI",
                  "skillID": 20063
                }
              ]
            },
            {
              "$type": "AGCKFODECAB",
              "skillID": 20063,
              "damageRatio": "Skill"
            },
            {
              "$type": "BOBCOJHOKKD",
              "shieldHP": true,
              "param3": 0.0,
              "key": "_ABILITY_Monster_JellyFish_03_MagicBall_Charged_",
              "param2": 0.0,
              "repeatTimes": 0.0
            }
          ]
        },
        "Avatar_Absorb_Absorb_Loop": {
          "modifierName": "",
          "IPFJJJGABPL": 100.0,
          "onAdded": [
            {
              "$type": "BLCCGIPAOIP",
              "otherTargets": {
                "$type": "MEOIGEJCJLB",
                "configID": 40034001
              },
              "PLLJBINMGJK": "Loop"
            }
          ]
        },
        "Focus_Update": {
          "modifierName": "",
          "elementDurability": 25.0,
          "IPFJJJGABPL": 100.0,
          "modifierMixins": [
            {
              "$type": "EKMHJKDLBJH",
              "stateIDs": [
                "DiveChannel_BS",
                "DiveChannel_Loop"
              ],
              "modifierName": "Focus",
              "DGFCLAIDIFI": ""
            }
          ],
          "onAdded": [
            {
              "$type": "BOBCOJHOKKD",
              "param3": 6.0,
              "key": "_ABILITY_Diving_Skill_In_Focus_Skill_Mark",
              "param2": 0.0,
              "repeatTimes": 0.0
            }
          ],
          "onRemoved": [
            {
              "$type": "BOBCOJHOKKD",
              "shieldHP": true,
              "param3": 0.0,
              "key": "_ABILITY_Diving_Skill_In_Focus_Skill_Mark",
              "param2": 0.0,
              "repeatTimes": 0.0
            }
          ]
        },
        "Focus": {
          "modifierName": "",
          "IPFJJJGABPL": 100.0,
          "modifierMixins": [
            {
              "$type": "FMOKCPPLHDO"
            }
          ],
          "onAdded": [
            {
              "$type": "INBCDALOHMP",
              "targetPredicates": [
                {
                  "$type": "BGMAGODJEMF",
                  "featureTagIDs": [
                    1044
                  ]
                }
              ],
              "successActions": [
                {
                  "$type": "BAGMOLODOME",
                  "cameraFollowLower": {
                    "x": 0.3499999940395355,
                    "y": 0.9599999785423279,
                    "z": -5.0
                  },
                  "cameraFollowUpper": {
                    "x": 0.3499999940395355,
                    "y": 0.9599999785423279,
                    "z": -4.599999904632568
                  },
                  "cameraFastFocusMode": true,
                  "dragButtonName": "Skill2",
                  "assistance": {
                    "ps4": {},
                    "ps5": {},
                    "other": {
                      "useGyro": true
                    }
                  },
                  "canMove": false,
                  "showCrosshair": false,
                  "OMHGAKJIEFB": ""
                }
              ]
            },
            {
              "$type": "INBCDALOHMP",
              "targetPredicates": [
                {
                  "$type": "BGMAGODJEMF",
                  "featureTagIDs": [
                    1043
                  ]
                }
              ],
              "successActions": [
                {
                  "$type": "BAGMOLODOME",
                  "cameraFollowLower": {
                    "x": 0.3499999940395355,
                    "y": 0.9599999785423279,
                    "z": -5.0
                  },
                  "cameraFollowUpper": {
                    "x": 0.3499999940395355,
                    "y": 0.9599999785423279,
                    "z": -4.599999904632568
                  },
                  "cameraFastFocusMode": true,
                  "dragButtonName": "Skill2",
                  "assistance": {
                    "ps4": {},
                    "ps5": {},
                    "other": {
                      "useGyro": true
                    }
                  },
                  "canMove": false,
                  "showCrosshair": false,
                  "OMHGAKJIEFB": ""
                }
              ]
            },
            {
              "$type": "INBCDALOHMP",
              "targetPredicates": [
                {
                  "$type": "BGMAGODJEMF",
                  "featureTagIDs": [
                    1042
                  ]
                }
              ],
              "successActions": [
                {
                  "$type": "BAGMOLODOME",
                  "cameraFollowLower": {
                    "x": 0.3499999940395355,
                    "y": 1.059999942779541,
                    "z": -5.0
                  },
                  "cameraFollowUpper": {
                    "x": 0.3499999940395355,
                    "y": 1.059999942779541,
                    "z": -4.599999904632568
                  },
                  "cameraFastFocusMode": true,
                  "dragButtonName": "Skill2",
                  "assistance": {
                    "ps4": {},
                    "ps5": {},
                    "other": {
                      "useGyro": true
                    }
                  },
                  "canMove": false,
                  "showCrosshair": false,
                  "OMHGAKJIEFB": ""
                }
              ]
            },
            {
              "$type": "INBCDALOHMP",
              "targetPredicates": [
                {
                  "$type": "BGMAGODJEMF",
                  "featureTagIDs": [
                    1041
                  ]
                }
              ],
              "successActions": [
                {
                  "$type": "BAGMOLODOME",
                  "cameraFollowLower": {
                    "x": 0.3499999940395355,
                    "y": 1.159999966621399,
                    "z": -5.0
                  },
                  "cameraFollowUpper": {
                    "x": 0.3499999940395355,
                    "y": 1.159999966621399,
                    "z": -4.599999904632568
                  },
                  "cameraFastFocusMode": true,
                  "dragButtonName": "Skill2",
                  "assistance": {
                    "ps4": {},
                    "ps5": {},
                    "other": {
                      "useGyro": true
                    }
                  },
                  "canMove": false,
                  "showCrosshair": false,
                  "OMHGAKJIEFB": ""
                }
              ]
            },
            {
              "$type": "INBCDALOHMP",
              "targetPredicates": [
                {
                  "$type": "BGMAGODJEMF",
                  "featureTagIDs": [
                    1045
                  ]
                }
              ],
              "successActions": [
                {
                  "$type": "BAGMOLODOME",
                  "cameraFollowLower": {
                    "x": 0.3499999940395355,
                    "y": 0.6600000262260437,
                    "z": -5.0
                  },
                  "cameraFollowUpper": {
                    "x": 0.3499999940395355,
                    "y": 0.6600000262260437,
                    "z": -4.599999904632568
                  },
                  "cameraFastFocusMode": true,
                  "dragButtonName": "Skill2",
                  "assistance": {
                    "ps4": {},
                    "ps5": {},
                    "other": {
                      "useGyro": true
                    }
                  },
                  "canMove": false,
                  "showCrosshair": false,
                  "OMHGAKJIEFB": ""
                }
              ]
            },
            {
              "$type": "KJCHPDPBJHL",
              "boolID": "LockMotionFlagExitChannel",
              "param3": true
            },
            {
              "$type": "BOBCOJHOKKD",
              "param3": 0.0,
              "key": "_ABILITY_Diving_Aim_Success_Mark",
              "param2": 0.0,
              "repeatTimes": 0.0
            },
            {
              "$type": "EGJDFNHCFAA",
              "targetKey": "_ABILITY_Diving_Aim_Target_Cache_Avatar"
            },
            {
              "$type": "JLDEMMJAMLC",
              "target": "Team",
              "modifierName": "Octopus_Aim_Camera_Eff"
            },
            {
              "$type": "JLDEMMJAMLC",
              "modifierName": "Octopus_Aim_Handler"
            },
            {
              "$type": "JLDEMMJAMLC",
              "modifierName": "Avatar_DiveChannel_LoopFx"
            },
            {
              "$type": "BOBCOJHOKKD",
              "target": "Team",
              "param3": 2.0,
              "key": "_ABILITY_WhiteBox_Dive_Team_Trigger",
              "param2": 0.0,
              "repeatTimes": 0.0
            },
            {
              "$type": "KFCDMIMBBLD",
              "born": {
                "$type": "IAENDIPDFKD",
                "offset": {
                  "KGEPIMHBMOL": 0.0,
                  "JEBHCGDPFEJ": 0.0,
                  "LPCHALMFFOD": 0.0
                },
                "useRotation": true
              },
              "gadgetID": 40034114,
              "campID": 1001,
              "campTargetType": "Enemy"
            },
            {
              "$type": "HCLAKBJKPLE",
              "watcherId": 81418,
              "authorityOnly": true
            }
          ],
          "onRemoved": [
            {
              "$type": "JKFLDIKGJEF",
              "shieldHP": true,
              "gadgetInfo": {
                "configID": 40034114
              }
            },
            {
              "$type": "LJEDLFDLLDP"
            },
            {
              "$type": "BLCCGIPAOIP",
              "PLLJBINMGJK": "EndDiveChannelTrigger"
            },
            {
              "$type": "BLCCGIPAOIP",
              "PLLJBINMGJK": "EndDiveChannelTrigger2"
            },
            {
              "$type": "BOBCOJHOKKD",
              "target": "Team",
              "param3": 3.0,
              "key": "_ABILITY_WhiteBox_Dive_Team_Trigger",
              "param2": 0.0,
              "repeatTimes": 0.0
            },
            {
              "$type": "KJCHPDPBJHL",
              "shieldHP": true,
              "boolID": "LockMotionFlagExitChannel"
            }
          ],
          "onKill": [
            {
              "$type": "JKFLDIKGJEF",
              "shieldHP": true,
              "gadgetInfo": {
                "configID": 40034114
              }
            },
            {
              "$type": "LJEDLFDLLDP"
            }
          ]
        },
        "Octopus_Aim_Camera_Eff": {
          "modifierName": "",
          "IPFJJJGABPL": 100.0,
          "modifierMixins": [
            {
              "$type": "CIGJDPCDOEB",
              "onAdded": [
                {
                  "$type": "AKCJLBDMNDE",
                  "canBeHandledOnRecover": true,
                  "muteRemoteAction": true,
                  "enable": true,
                  "cameraFogEffectName": "Eff_SkillObj_Absorb_Avatar_Octopus_Aim",
                  "playerFogEffectName": ""
                },
                {
                  "$type": "CNHCMGMMDCB",
                  "muteRemoteAction": true,
                  "parameter": "StartCircle",
                  "cameraFogEffectName": "Eff_SkillObj_Absorb_Avatar_Octopus_Aim"
                }
              ],
              "onRemoved": [
                {
                  "$type": "AKCJLBDMNDE",
                  "shieldHP": true,
                  "canBeHandledOnRecover": true,
                  "muteRemoteAction": true,
                  "cameraFogEffectName": "Eff_SkillObj_Absorb_Avatar_Octopus_Aim",
                  "playerFogEffectName": ""
                }
              ]
            }
          ]
        },
        "Octopus_Aim_Handler": {
          "modifierName": "",
          "IPFJJJGABPL": 100.0,
          "modifierMixins": [
            {
              "$type": "NDFFAEHJMAL",
              "globalValueKey": "_ABILITY_Diving_Aim_Success_Mark",
              "actions": [
                {
                  "$type": "INBCDALOHMP",
                  "targetPredicates": [
                    {
                      "$type": "CNGGLKHONAA",
                      "target": "Self",
                      "key": "_ABILITY_Diving_Aim_Success_Mark",
                      "param3": 1.0
                    }
                  ],
                  "successActions": [
                    {
                      "$type": "MDIAKCCDEAL",
                      "target": "TempTarget",
                      "shieldHP": true,
                      "fishtankMap": {
                        "ALBJEAMOFLG": "_ABILITY_Diving_Aim_Target_Cache_Avatar"
                      }
                    },
                    {
                      "$type": "JLDEMMJAMLC",
                      "modifierName": "Octopus_Aim_TriggerAttack"
                    }
                  ],
                  "failActions": [
                    {
                      "$type": "KEEOEKPABPN",
                      "onlyAvatar": false
                    },
                    {
                      "$type": "PFKNEFGOHIH",
                      "modifierName": "Octopus_Aim_TriggerAttack"
                    }
                  ]
                }
              ]
            }
          ]
        },
        "Octopus_Aim_TriggerAttack": {
          "modifierName": "",
          "IPFJJJGABPL": 100.0,
          "onAdded": [
            {
              "$type": "JLDEMMJAMLC",
              "target": "TempTarget",
              "predicates": [
                {
                  "$type": "NIMAPECDNKD",
                  "entityTypes": [
                    "Gadget",
                    "Platform"
                  ]
                }
              ],
              "fishtankMap": {
                "ALBJEAMOFLG": "_ABILITY_Diving_Aim_Target_Cache_Avatar"
              },
              "modifierName": "Octopus_Aim_TriggerAttack_OnGadget"
            },
            {
              "$type": "JLDEMMJAMLC",
              "target": "TempTarget",
              "predicates": [
                {
                  "$type": "NIMAPECDNKD",
                  "entityTypes": [
                    "Monster"
                  ]
                }
              ],
              "fishtankMap": {
                "ALBJEAMOFLG": "_ABILITY_Diving_Aim_Target_Cache_Avatar"
              },
              "modifierName": "Octopus_Aim_TriggerAttack_OnMonster"
            },
            {
              "$type": "JLDEMMJAMLC",
              "target": "TempTarget",
              "predicates": [
                {
                  "$type": "NIMAPECDNKD",
                  "entityTypes": [
                    "Bullet"
                  ]
                }
              ],
              "fishtankMap": {
                "ALBJEAMOFLG": "_ABILITY_Diving_Aim_Target_Cache_Avatar"
              },
              "modifierName": "Octopus_Aim_TriggerAttack_OnBullet"
            }
          ]
        },
        "Octopus_Aim_TriggerAttack_OnGadget": {
          "modifierName": "",
          "IPFJJJGABPL": 100.0,
          "modifierMixins": [
            {
              "$type": "MLJAPFBGEEH",
              "globalValueKey": "gv_ConnectType",
              "gvInTalk": 0.0,
              "valueSteps": [
                2.5,
                3.5,
                4.5
              ],
              "modifierNameSteps": [
                "Octopus_Aim_TriggerAttack_OnGadget_Fx_01",
                "Octopus_Aim_TriggerAttack_OnGadget_Fx_02"
              ]
            }
          ],
          "onAdded": [
            {
              "$type": "EGJDFNHCFAA",
              "target": "Caster",
              "targetKey": "_TempAvatarTarget"
            }
          ]
        },
        "Octopus_Aim_TriggerAttack_OnGadget_Fx_01": {
          "modifierName": "",
          "IPFJJJGABPL": 100.0,
          "onAdded": [
            {
              "$type": "ANLOBBMKNIJ",
              "target": "Caster",
              "rotationDampTime": "Eff_Avatar_Diving_Octopus_Line_01",
              "PPPDJGDDOGD": 1.0,
              "AJDILHJFNKE": -1.0,
              "setSelfAsEffectPluginTarget": true
            },
            {
              "$type": "ANLOBBMKNIJ",
              "target": "Caster",
              "rotationDampTime": "Eff_Avatar_Diving_Octopus_Line_01",
              "PPPDJGDDOGD": 1.0,
              "AJDILHJFNKE": -1.0,
              "setSelfAsEffectPluginTarget": true
            },
            {
              "$type": "ANLOBBMKNIJ",
              "rotationDampTime": "Eff_SkillObj_Absorb_Avatar_Lock_Gadget_Octopus_01",
              "PPPDJGDDOGD": 1.0,
              "AJDILHJFNKE": -1.0
            }
          ]
        },
        "Octopus_Aim_TriggerAttack_OnGadget_Fx_02": {
          "modifierName": "",
          "IPFJJJGABPL": 100.0,
          "onAdded": [
            {
              "$type": "ANLOBBMKNIJ",
              "target": "Caster",
              "rotationDampTime": "Eff_Avatar_Diving_Octopus_Line_02",
              "PPPDJGDDOGD": 1.0,
              "AJDILHJFNKE": -1.0,
              "setSelfAsEffectPluginTarget": true
            },
            {
              "$type": "ANLOBBMKNIJ",
              "target": "Caster",
              "rotationDampTime": "Eff_Avatar_Diving_Octopus_Line_02",
              "PPPDJGDDOGD": 1.0,
              "AJDILHJFNKE": -1.0,
              "setSelfAsEffectPluginTarget": true
            },
            {
              "$type": "ANLOBBMKNIJ",
              "rotationDampTime": "Eff_SkillObj_Absorb_Avatar_Lock_Gadget_Octopus_02",
              "PPPDJGDDOGD": 1.0,
              "AJDILHJFNKE": -1.0
            }
          ]
        },
        "Octopus_Aim_TriggerAttack_OnMonster": {
          "modifierName": "",
          "IPFJJJGABPL": 100.0,
          "thinkInterval": 0.4000000059604645,
          "onAdded": [
            {
              "$type": "ANLOBBMKNIJ",
              "target": "Caster",
              "rotationDampTime": "Eff_Avatar_Diving_Octopus_Line_Monster",
              "PPPDJGDDOGD": 1.0,
              "AJDILHJFNKE": -1.0,
              "setSelfAsEffectPluginTarget": true
            },
            {
              "$type": "ANLOBBMKNIJ",
              "target": "Caster",
              "rotationDampTime": "Eff_Avatar_Diving_Octopus_Line_Monster",
              "PPPDJGDDOGD": 1.0,
              "AJDILHJFNKE": -1.0,
              "setSelfAsEffectPluginTarget": true
            },
            {
              "$type": "ANLOBBMKNIJ",
              "rotationDampTime": "Eff_SkillObj_Absorb_Avatar_Lock_Octopus",
              "PPPDJGDDOGD": 1.0,
              "AJDILHJFNKE": -1.0
            },
            {
              "$type": "GDHGMAPPGHD",
              "shieldHP": true,
              "key": "DamageSystemValue",
              "damageRatio": "ElementLevelCo"
            }
          ],
          "onThinkInterval": [
            {
              "$type": "CCNPNMMONDO",
              "born": {
                "$type": "JHEBKCMEMLN",
                "offset": {
                  "KGEPIMHBMOL": 0.0,
                  "JEBHCGDPFEJ": 1.0,
                  "LPCHALMFFOD": 0.0
                }
              },
              "attackInfo": {
                "attackTag": "WaterGun",
                "attenuationTag": "",
                "attenuationGroup": "default",
                "attackProperty": {
                  "actorWindSubHurtDelta": 0.0,
                  "IPFJJJGABPL": 0.0,
                  "strikeType": "Default",
                  "enBreak": 10.0,
                  "HMBONGBFIAP": [
                    "DamageRatio",
                    "DamageSystemValue",
                    "MUL"
                  ],
                  "trueDamage": true,
                  "GLKMCMDJBIK": 0.0
                },
                "hitPattern": {
                  "onHitEffectName": "none",
                  "hitImpulseY": "",
                  "hitImpulseType": "LV1",
                  "hitHaltTimeScale": 0.05000000074505806
                }
              }
            },
            {
              "$type": "KBFEIHEAMBM",
              "rotationDampTime": "Eff_Avatar_Diving_Octopus_Monster_Hit",
              "born": {
                "$type": "KLPANPDGHHA",
                "useRotation": true,
                "attachPointName": "RootNode"
              },
              "PPPDJGDDOGD": 1.0,
              "AJDILHJFNKE": -1.0
            }
          ]
        },
        "Octopus_Aim_TriggerAttack_OnBullet": {
          "modifierName": "",
          "IPFJJJGABPL": 100.0,
          "thinkInterval": 0.20000000298023224,
          "onAdded": [
            {
              "$type": "ENBLCDCKLMK",
              "key": "_CONTROLLEDMAGICBALLDIR_",
              "born": {
                "$type": "KLPANPDGHHA",
                "offset": {
                  "KGEPIMHBMOL": 0.0,
                  "JEBHCGDPFEJ": 0.0,
                  "LPCHALMFFOD": 0.0
                },
                "direction": {
                  "$type": "LHBLDEOLGKF",
                  "attachPointName": "FocusAnchor",
                  "attachPointTargetType": "Caster"
                },
                "useRotation": true,
                "attachPointName": "FocusAnchor",
                "attachPointTargetType": "Caster"
              }
            },
            {
              "$type": "ANLOBBMKNIJ",
              "target": "Caster",
              "rotationDampTime": "Eff_Avatar_Diving_Octopus_Line_Monster",
              "PPPDJGDDOGD": 1.0,
              "AJDILHJFNKE": -1.0,
              "setSelfAsEffectPluginTarget": true
            },
            {
              "$type": "ANLOBBMKNIJ",
              "target": "Caster",
              "rotationDampTime": "Eff_Avatar_Diving_Octopus_Line_Monster",
              "PPPDJGDDOGD": 1.0,
              "AJDILHJFNKE": -1.0,
              "setSelfAsEffectPluginTarget": true
            },
            {
              "$type": "ANLOBBMKNIJ",
              "rotationDampTime": "Eff_SkillObj_Absorb_Avatar_Lock_Octopus",
              "PPPDJGDDOGD": 1.0,
              "AJDILHJFNKE": -1.0
            },
            {
              "$type": "BOBCOJHOKKD",
              "param3": 1.0,
              "key": "_ABILITY_Monster_JellyFish_03_MagicBall_BeCharged_",
              "param2": 0.0,
              "repeatTimes": 0.0
            }
          ],
          "onRemoved": [
            {
              "$type": "BOBCOJHOKKD",
              "param3": 0.0,
              "key": "_ABILITY_Monster_JellyFish_03_MagicBall_BeCharged_",
              "param2": 0.0,
              "repeatTimes": 0.0
            }
          ],
          "onThinkInterval": [
            {
              "$type": "ENBLCDCKLMK",
              "key": "_CONTROLLEDMAGICBALLDIR_",
              "born": {
                "$type": "KLPANPDGHHA",
                "offset": {
                  "KGEPIMHBMOL": 0.0,
                  "JEBHCGDPFEJ": 0.0,
                  "LPCHALMFFOD": 0.0
                },
                "direction": {
                  "$type": "LHBLDEOLGKF",
                  "attachPointName": "FocusAnchor",
                  "attachPointTargetType": "Caster"
                },
                "useRotation": true,
                "attachPointName": "FocusAnchor",
                "attachPointTargetType": "Caster"
              }
            }
          ]
        }
      },
      "isDynamicAbility": true,
      "KPEGFLKLCLE": true
    }
  },
  {
    "Default": {
      "$type": "CBPBEHLOHKI",
      "abilityName": "Avatar_DiveSkill_Octopus_AimGadget",
      "modifiers": {
        "Dive_Lock_Collider_Driver": {
          "modifierName": "",
          "IPFJJJGABPL": 100.0,
          "modifierMixins": [
            {
              "$type": "HEBIBFLDAMG",
              "entityTypes": [
                "Gadget",
                "Platform",
                "Monster",
                "Bullet"
              ],
              "colliderNodeName": "PRIVATE_RayCast",
              "FKECHNGFOEG": -1.0,
              "actionQueue": [
                {
                  "$type": "INBCDALOHMP",
                  "target": "Target",
                  "predicates": [
                    {
                      "$type": "AHEDBPEIDHJ",
                      "target": "CasterOriginOwner"
                    }
                  ],
                  "targetPredicates": [
                    {
                      "$type": "NIMAPECDNKD",
                      "entityTypes": [
                        "Gadget",
                        "Platform"
                      ]
                    },
                    {
                      "$type": "JHAJOBAACDP",
                      "tag": "WaterGunTarget"
                    },
                    {
                      "$type": "BCFNGJHILAG",
                      "predicates": [
                        {
                          "$type": "PBNMMCGHGHK"
                        }
                      ]
                    }
                  ],
                  "successActions": [
                    {
                      "$type": "PELJALPANCA",
                      "target": "Target",
                      "predicates": [
                        {
                          "$type": "BFLHPEICOEP",
                          "namedTransform": "ConnectPoint1"
                        }
                      ],
                      "modifierName": "SetGV_03"
                    },
                    {
                      "$type": "PELJALPANCA",
                      "target": "Target",
                      "predicates": [
                        {
                          "$type": "BFLHPEICOEP",
                          "namedTransform": "ConnectPoint2"
                        }
                      ],
                      "modifierName": "SetGV_04"
                    },
                    {
                      "$type": "EGJDFNHCFAA",
                      "target": "Target",
                      "targetKey": "_ABILITY_Diving_Aim_Target_Cache"
                    },
                    {
                      "$type": "BEMPFJGAPHG",
                      "srcTarget": "Self",
                      "dstTarget": "OriginOwner",
                      "srcKey": "_ABILITY_Diving_Aim_Target_Cache_0",
                      "dstKey": "_ABILITY_Diving_Aim_Target_Cache_Avatar_0"
                    },
                    {
                      "$type": "BEMPFJGAPHG",
                      "srcTarget": "Self",
                      "dstTarget": "OriginOwner",
                      "srcKey": "_ABILITY_Diving_Aim_Target_Cache_1",
                      "dstKey": "_ABILITY_Diving_Aim_Target_Cache_Avatar_1"
                    },
                    {
                      "$type": "BOBCOJHOKKD",
                      "target": "OriginOwner",
                      "param3": 1.0,
                      "key": "_ABILITY_Diving_Aim_Success_Mark",
                      "param2": 0.0,
                      "repeatTimes": 0.0
                    }
                  ]
                },
                {
                  "$type": "INBCDALOHMP",
                  "target": "Target",
                  "targetPredicates": [
                    {
                      "$type": "NIMAPECDNKD",
                      "entityTypes": [
                        "Monster"
                      ]
                    },
                    {
                      "$type": "CNGGLKHONAA",
                      "key": "_ANIMAL_ENTITY_TYPE",
                      "param3": 0.0,
                      "compareType": "NoneOrEqual"
                    },
                    {
                      "$type": "CNGGLKHONAA",
                      "target": "Team",
                      "key": "_ABILITY_Dive_isInFondanieWater",
                      "param3": 1.0
                    },
                    {
                      "$type": "BCFNGJHILAG",
                      "predicates": [
                        {
                          "$type": "DIADGMMLIDG"
                        }
                      ]
                    },
                    {
                      "$type": "BCFNGJHILAG",
                      "predicates": [
                        {
                          "$type": "PBNMMCGHGHK"
                        }
                      ]
                    }
                  ],
                  "successActions": [
                    {
                      "$type": "EGJDFNHCFAA",
                      "target": "Target",
                      "targetKey": "_ABILITY_Diving_Aim_Target_Cache"
                    },
                    {
                      "$type": "BEMPFJGAPHG",
                      "srcTarget": "Self",
                      "dstTarget": "OriginOwner",
                      "srcKey": "_ABILITY_Diving_Aim_Target_Cache_0",
                      "dstKey": "_ABILITY_Diving_Aim_Target_Cache_Avatar_0"
                    },
                    {
                      "$type": "BEMPFJGAPHG",
                      "srcTarget": "Self",
                      "dstTarget": "OriginOwner",
                      "srcKey": "_ABILITY_Diving_Aim_Target_Cache_1",
                      "dstKey": "_ABILITY_Diving_Aim_Target_Cache_Avatar_1"
                    },
                    {
                      "$type": "BOBCOJHOKKD",
                      "target": "OriginOwner",
                      "param3": 1.0,
                      "key": "_ABILITY_Diving_Aim_Success_Mark",
                      "param2": 0.0,
                      "repeatTimes": 0.0
                    }
                  ]
                },
                {
                  "$type": "INBCDALOHMP",
                  "target": "Target",
                  "targetPredicates": [
                    {
                      "$type": "NIMAPECDNKD",
                      "entityTypes": [
                        "Bullet"
                      ]
                    },
                    {
                      "$type": "CNGGLKHONAA",
                      "key": "_ABILITY_Monster_JellyFish_03_MagicBall_CanBeAimed_",
                      "param3": 1.0
                    }
                  ],
                  "successActions": [
                    {
                      "$type": "EGJDFNHCFAA",
                      "target": "Target",
                      "targetKey": "_ABILITY_Diving_Aim_Target_Cache"
                    },
                    {
                      "$type": "BEMPFJGAPHG",
                      "srcTarget": "Self",
                      "dstTarget": "OriginOwner",
                      "srcKey": "_ABILITY_Diving_Aim_Target_Cache_0",
                      "dstKey": "_ABILITY_Diving_Aim_Target_Cache_Avatar_0"
                    },
                    {
                      "$type": "BEMPFJGAPHG",
                      "srcTarget": "Self",
                      "dstTarget": "OriginOwner",
                      "srcKey": "_ABILITY_Diving_Aim_Target_Cache_1",
                      "dstKey": "_ABILITY_Diving_Aim_Target_Cache_Avatar_1"
                    },
                    {
                      "$type": "BOBCOJHOKKD",
                      "target": "OriginOwner",
                      "param3": 1.0,
                      "key": "_ABILITY_Diving_Aim_Success_Mark",
                      "param2": 0.0,
                      "repeatTimes": 0.0
                    }
                  ]
                }
              ],
              "onLeaveScopeActionQueue": [
                {
                  "$type": "BOBCOJHOKKD",
                  "target": "OriginOwner",
                  "param3": 0.0,
                  "key": "_ABILITY_Diving_Aim_Success_Mark",
                  "param2": 0.0,
                  "repeatTimes": 0.0
                },
                {
                  "$type": "PELJALPANCA",
                  "target": "Target",
                  "predicates": [
                    {
                      "$type": "AHEDBPEIDHJ",
                      "target": "CasterOriginOwner"
                    },
                    {
                      "$type": "NIMAPECDNKD",
                      "entityTypes": [
                        "Gadget",
                        "Platform"
                      ]
                    }
                  ],
                  "modifierName": "SetGV_00"
                }
              ],
              "onRemoveActionQueue": [
                {
                  "$type": "BOBCOJHOKKD",
                  "target": "OriginOwner",
                  "param3": 0.0,
                  "key": "_ABILITY_Diving_Aim_Success_Mark",
                  "param2": 0.0,
                  "repeatTimes": 0.0
                },
                {
                  "$type": "PELJALPANCA",
                  "target": "Target",
                  "predicates": [
                    {
                      "$type": "AHEDBPEIDHJ",
                      "target": "CasterOriginOwner"
                    },
                    {
                      "$type": "NIMAPECDNKD",
                      "entityTypes": [
                        "Gadget",
                        "Platform"
                      ]
                    }
                  ],
                  "modifierName": "SetGV_00"
                },
                {
                  "$type": "NCFFNDHGCMH"
                }
              ],
              "aimType": "OneInScope",
              "cd": [
                "ConnectPoint1",
                "ConnectPoint2"
              ],
              "KFGJAHCMAAE": [
                "Gadget",
                "Platform"
              ],
              "GOPFKHJJEAL": true,
              "MCIEEDEFKFK": true
            }
          ],
          "onRemoved": [
            {
              "$type": "PELJALPANCA",
              "modifierName": "KillSelfDelay"
            }
          ]
        },
        "SetGV_00": {
          "modifierName": "",
          "elementDurability": 0.20000000298023224,
          "IPFJJJGABPL": 100.0,
          "onAdded": [
            {
              "$type": "BOBCOJHOKKD",
              "param3": 0.0,
              "key": "gv_ConnectType",
              "param2": 0.0,
              "repeatTimes": 0.0
            }
          ]
        },
        "SetGV_03": {
          "modifierName": "",
          "elementDurability": 0.20000000298023224,
          "IPFJJJGABPL": 100.0,
          "onAdded": [
            {
              "$type": "BOBCOJHOKKD",
              "param3": 3.0,
              "key": "gv_ConnectType",
              "param2": 0.0,
              "repeatTimes": 0.0
            }
          ]
        },
        "SetGV_04": {
          "modifierName": "",
          "elementDurability": 0.20000000298023224,
          "IPFJJJGABPL": 100.0,
          "onAdded": [
            {
              "$type": "BOBCOJHOKKD",
              "param3": 4.0,
              "key": "gv_ConnectType",
              "param2": 0.0,
              "repeatTimes": 0.0
            }
          ]
        },
        "Dive_Lock_Collider_Driver_ExtraMode": {
          "modifierName": "",
          "IPFJJJGABPL": 100.0,
          "modifierMixins": [
            {
              "$type": "HEBIBFLDAMG",
              "entityTypes": [
                "Gadget",
                "Platform"
              ],
              "colliderNodeName": "PRIVATE_RayCast",
              "FKECHNGFOEG": -1.0,
              "actionQueue": [
                {
                  "$type": "ELNHKGAPIBJ",
                  "content": "执行扫描"
                },
                {
                  "$type": "INBCDALOHMP",
                  "target": "Target",
                  "targetPredicates": [
                    {
                      "$type": "NIMAPECDNKD",
                      "entityTypes": [
                        "Gadget",
                        "Platform"
                      ]
                    },
                    {
                      "$type": "JHAJOBAACDP",
                      "tag": "WaterGunTarget"
                    },
                    {
                      "$type": "BCFNGJHILAG",
                      "predicates": [
                        {
                          "$type": "PBNMMCGHGHK"
                        }
                      ]
                    }
                  ],
                  "successActions": [
                    {
                      "$type": "BOBCOJHOKKD",
                      "target": "Target",
                      "param3": 1.0,
                      "key": "_ABILITY_Diving_Aim_IsAct",
                      "param2": 0.0,
                      "repeatTimes": 0.0
                    },
                    {
                      "$type": "BOBCOJHOKKD",
                      "target": "Target",
                      "param3": 3.0,
                      "key": "gv_ConnectType",
                      "param2": 0.0,
                      "repeatTimes": 0.0
                    },
                    {
                      "$type": "LCOEFEMOHLP",
                      "target": "OriginOwner",
                      "param3": 1.0,
                      "key": "_ABILITY_Diving_Aim_Count",
                      "useLimitRange": true,
                      "param2": 10.0,
                      "repeatTimes": 0.0
                    }
                  ]
                }
              ],
              "onLeaveScopeActionQueue": [
                {
                  "$type": "BOBCOJHOKKD",
                  "target": "Target",
                  "param3": 0.0,
                  "key": "_ABILITY_Diving_Aim_IsAct",
                  "param2": 0.0,
                  "repeatTimes": 0.0
                },
                {
                  "$type": "BOBCOJHOKKD",
                  "target": "Target",
                  "param3": 0.0,
                  "key": "gv_ConnectType",
                  "param2": 0.0,
                  "repeatTimes": 0.0
                },
                {
                  "$type": "LCOEFEMOHLP",
                  "target": "OriginOwner",
                  "param3": -1.0,
                  "key": "_ABILITY_Diving_Aim_Count",
                  "useLimitRange": true,
                  "param2": 10.0,
                  "repeatTimes": 0.0
                }
              ],
              "onRemoveActionQueue": [
                {
                  "$type": "BOBCOJHOKKD",
                  "target": "Target",
                  "param3": 0.0,
                  "key": "gv_ConnectType",
                  "param2": 0.0,
                  "repeatTimes": 0.0
                },
                {
                  "$type": "BOBCOJHOKKD",
                  "target": "OriginOwner",
                  "param3": 0.0,
                  "key": "_ABILITY_Diving_Aim_Count",
                  "param2": 0.0,
                  "repeatTimes": 0.0
                },
                {
                  "$type": "BOBCOJHOKKD",
                  "target": "Target",
                  "param3": 0.0,
                  "key": "_ABILITY_Diving_Aim_IsAct",
                  "param2": 0.0,
                  "repeatTimes": 0.0
                },
                {
                  "$type": "NCFFNDHGCMH"
                }
              ],
              "aimType": "AllInScope",
              "GOPFKHJJEAL": true,
              "MCIEEDEFKFK": true
            }
          ],
          "onAdded": [
            {
              "$type": "BOBCOJHOKKD",
              "target": "OriginOwner",
              "param3": 0.0,
              "key": "_ABILITY_Diving_Aim_Count",
              "param2": 0.0,
              "repeatTimes": 0.0
            }
          ],
          "onRemoved": [
            {
              "$type": "PELJALPANCA",
              "modifierName": "KillSelfDelay"
            }
          ]
        },
        "KillSelfDelay": {
          "modifierName": "",
          "elementDurability": 0.30000001192092896,
          "IPFJJJGABPL": 100.0,
          "onRemoved": [
            {
              "$type": "NCFFNDHGCMH"
            }
          ]
        }
      },
      "onAdded": [
        {
          "$type": "INBCDALOHMP",
          "targetPredicates": [
            {
              "$type": "CNGGLKHONAA",
              "target": "Team",
              "key": "_ABILITY_MagicWave_IsExtraMode",
              "param3": 1.0
            }
          ],
          "successActions": [
            {
              "$type": "JLDEMMJAMLC",
              "modifierName": "Dive_Lock_Collider_Driver_ExtraMode"
            }
          ],
          "failActions": [
            {
              "$type": "JLDEMMJAMLC",
              "modifierName": "Dive_Lock_Collider_Driver"
            }
          ]
        }
      ]
    }
  },
  {
    "Default": {
      "$type": "CBPBEHLOHKI",
      "abilityName": "Avatar_DiveSkill_Octopus_OnGround_AbandonSkill",
      "modifiers": {
        "Combat_Detect": {
          "modifierName": "",
          "IPFJJJGABPL": 100.0,
          "modifierMixins": [
            {
              "$type": "ENGNAJCEOHN",
              "onEnterCombat": [
                {
                  "$type": "BOBCOJHOKKD",
                  "target": "Team",
                  "param3": 0.0,
                  "key": "_ABILITY_MagicWave_IsSwitchSkill",
                  "param2": 0.0,
                  "repeatTimes": 0.0
                }
              ]
            },
            {
              "$type": "CCNIOPJEHOE",
              "globalValueTarget": "Team",
              "globalValueKey": "_ABILITY_Dive_isInFondanieWater",
              "valueSteps": [
                0.5,
                1.5
              ],
              "modifierNameSteps": [
                "Reset_GV"
              ]
            }
          ]
        },
        "Reset_GV": {
          "modifierName": "",
          "IPFJJJGABPL": 100.0,
          "onAdded": [
            {
              "$type": "BOBCOJHOKKD",
              "target": "Team",
              "param3": 0.0,
              "key": "_ABILITY_MagicWave_State",
              "param2": 0.0,
              "repeatTimes": 0.0
            },
            {
              "$type": "BOBCOJHOKKD",
              "target": "Team",
              "param3": 0.0,
              "key": "_ABILITY_MagicWave_IsSwitchSkill",
              "param2": 0.0,
              "repeatTimes": 0.0
            }
          ]
        }
      },
      "onAdded": [
        {
          "$type": "BOBCOJHOKKD",
          "target": "Team",
          "param3": 0.0,
          "key": "_ABILITY_MagicWave_State",
          "param2": 0.0,
          "repeatTimes": 0.0
        },
        {
          "$type": "BOBCOJHOKKD",
          "target": "Team",
          "param3": 1.0,
          "key": "_ABILITY_MagicWave_IsSwitchSkill",
          "param2": 0.0,
          "repeatTimes": 0.0
        },
        {
          "$type": "MMEOBGGBNLK",
          "shieldHP": true
        },
        {
          "$type": "JLDEMMJAMLC",
          "modifierName": "Combat_Detect"
        }
      ],
      "onAbilityStart": [
        {
          "$type": "INBCDALOHMP",
          "targetPredicates": [
            {
              "$type": "CNGGLKHONAA",
              "target": "Team",
              "key": "_ABILITY_MagicWave_IsSwitchSkill",
              "param3": 1.0
            }
          ],
          "successActions": [
            {
              "$type": "BOBCOJHOKKD",
              "target": "Team",
              "param3": 0.0,
              "key": "_ABILITY_MagicWave_IsSwitchSkill",
              "param2": 0.0,
              "repeatTimes": 0.0
            }
          ],
          "failActions": [
            {
              "$type": "BOBCOJHOKKD",
              "target": "Team",
              "param3": 1.0,
              "key": "_ABILITY_MagicWave_IsSwitchSkill",
              "param2": 0.0,
              "repeatTimes": 0.0
            }
          ]
        },
        {
          "$type": "LIAKJHCLFLK"
        }
      ],
      "onAvatarIn": [
        {
          "$type": "BOBCOJHOKKD",
          "target": "Team",
          "param3": 0.0,
          "key": "_ABILITY_MagicWave_IsSwitchSkill",
          "param2": 0.0,
          "repeatTimes": 0.0
        }
      ],
      "isDynamicAbility": true
    }
  },
  {
    "Default": {
      "$type": "CBPBEHLOHKI",
      "abilityName": "Avatar_DiveSkill_Octopus_OnGround",
      "abilityMixins": [
        {
          "$type": "GODEMHMODCN",
          "skillID": 20067,
          "chargeTime": 0.20000000298023224,
          "EKKJNADOEMB": 999999.0,
          "onBeginUncharged": [
            {
              "$type": "GNAEJNBIFAC",
              "PLLJBINMGJK": "StartChannelTrigger"
            },
            {
              "$type": "PFKNEFGOHIH",
              "modifierName": "Focus_Update"
            },
            {
              "$type": "BLCCGIPAOIP",
              "PLLJBINMGJK": "StartChannelTrigger"
            },
            {
              "$type": "JLDEMMJAMLC",
              "modifierName": "Focus_Update"
            },
            {
              "$type": "JLDEMMJAMLC",
              "modifierName": "Delay_Exit"
            }
          ],
          "onBeginCharged": [
            {
              "$type": "PFKNEFGOHIH",
              "modifierName": "Delay_Exit"
            }
          ],
          "onReleaseCharged": [
            {
              "$type": "BLCCGIPAOIP",
              "PLLJBINMGJK": "EndChannelTrigger"
            },
            {
              "$type": "PFKNEFGOHIH",
              "modifierName": "Focus_Update"
            },
            {
              "$type": "PFKNEFGOHIH",
              "modifierName": "Delay_Exit"
            }
          ],
          "onCancelCharged": [
            {
              "$type": "BLCCGIPAOIP",
              "PLLJBINMGJK": "EndChannelTrigger"
            },
            {
              "$type": "PFKNEFGOHIH",
              "modifierName": "Focus_Update"
            },
            {
              "$type": "PFKNEFGOHIH",
              "modifierName": "Delay_Exit"
            }
          ],
          "chargeStateIDs": [
            "Channel_BS",
            "Channel_Loop"
          ]
        },
        {
          "$type": "JHHNCFECBGP",
          "JAMBGKHPBJM": 20067.0
        }
      ],
      "modifiers": {
        "Delay_Exit": {
          "modifierName": "",
          "elementDurability": 1.2000000476837158,
          "IPFJJJGABPL": 100.0,
          "thinkInterval": 0.800000011920929,
          "onThinkInterval": [
            {
              "$type": "BLCCGIPAOIP",
              "PLLJBINMGJK": "EndChannelTrigger"
            },
            {
              "$type": "PFKNEFGOHIH",
              "modifierName": "Focus_Update"
            },
            {
              "$type": "PFKNEFGOHIH",
              "modifierName": "Delay_Exit"
            }
          ],
          "onThinkIntervalIsFixedUpdate": true
        },
        "Avatar_DiveSkill_Octopus_AddSkillInfo": {
          "modifierName": "",
          "IPFJJJGABPL": 100.0,
          "onAdded": [
            {
              "$type": "PDFENCBHHAI",
              "shieldHP": true,
              "skillID": 20067
            }
          ],
          "onRemoved": [
            {
              "$type": "KFOBADMAFJF",
              "shieldHP": true,
              "skillID": 20067,
              "refreshAfterRemove": true
            }
          ]
        },
        "Avatar_DiveSkill_Octopus_TickSkill": {
          "modifierName": "",
          "IPFJJJGABPL": 100.0,
          "modifierMixins": [
            {
              "$type": "JPPFBGJICKI",
              "key": "_ABILITY_MagicWave_State",
              "param2": 0.0,
              "repeatTimes": 0.0
            },
            {
              "$type": "JPPFBGJICKI",
              "key": "_ABILITY_MagicWave_IsSwitchSkill",
              "param2": 0.0,
              "repeatTimes": 0.0
            },
            {
              "$type": "JPPFBGJICKI",
              "key": "_ABILITY_MagicWave_IsExtraMode",
              "param2": 0.0,
              "repeatTimes": 0.0
            }
          ]
        },
        "Avatar_DiveSkill_Octopus_State_Handler": {
          "modifierName": "",
          "IPFJJJGABPL": 100.0,
          "modifierMixins": [
            {
              "$type": "CCNIOPJEHOE",
              "globalValueTarget": "Team",
              "globalValueKey": "_ABILITY_MagicWave_State",
              "valueSteps": [
                0.5,
                1.5
              ],
              "modifierNameSteps": [
                "Avatar_DiveSkill_Octopus_State"
              ]
            }
          ]
        },
        "Avatar_DiveSkill_Octopus_State": {
          "modifierName": "",
          "IPFJJJGABPL": 100.0,
          "thinkInterval": 2.0,
          "modifierMixins": [
            {
              "$type": "CCNIOPJEHOE",
              "globalValueTarget": "Team",
              "globalValueKey": "_ABILITY_MagicWave_IsSwitchSkill",
              "valueSteps": [
                0.5,
                1.5
              ],
              "modifierNameSteps": [
                "Avatar_DiveSkill_Octopus_SwitchSkill"
              ]
            }
          ],
          "onAdded": [
            {
              "$type": "MMEOBGGBNLK",
              "skillID": 20062
            },
            {
              "$type": "JLDEMMJAMLC",
              "target": "Team",
              "modifierName": "UNIQUE_Avatar_DiveSkill_Octopus_Fx"
            },
            {
              "$type": "GFOOGEIKGBI",
              "target": "Team",
              "parameter": "Octopus_IsTrigger",
              "attachPoint": "",
              "damageRatio": "Bool",
              "value": 1,
              "rotationDampTime": "Eff_Avatar_Diving_Octopus_Gadget"
            }
          ],
          "onRemoved": [
            {
              "$type": "MMEOBGGBNLK",
              "shieldHP": true
            }
          ],
          "onThinkInterval": [
            {
              "$type": "MMEOBGGBNLK",
              "skillID": 20062
            },
            {
              "$type": "JLDEMMJAMLC",
              "target": "Team",
              "modifierName": "UNIQUE_Avatar_DiveSkill_Octopus_Fx"
            }
          ]
        },
        "Avatar_DiveSkill_Octopus_SwitchSkill": {
          "modifierName": "",
          "IPFJJJGABPL": 100.0,
          "modifierMixins": [
            {
              "$type": "BBDLKGEJDOJ",
              "priority": "AvatarSpecial",
              "skillIndex": 1,
              "skillID": 20067
            }
          ],
          "onAdded": [
            {
              "$type": "GFOOGEIKGBI",
              "target": "Team",
              "parameter": "Octopus_IsTrigger",
              "attachPoint": "",
              "damageRatio": "Bool",
              "value": 1,
              "rotationDampTime": "Eff_Avatar_Diving_Octopus_Gadget"
            },
            {
              "$type": "HCLAKBJKPLE",
              "watcherId": 1046,
              "authorityOnly": true
            }
          ],
          "onRemoved": [
            {
              "$type": "GFOOGEIKGBI",
              "target": "Team",
              "shieldHP": true,
              "parameter": "Octopus_IsTrigger",
              "attachPoint": "",
              "damageRatio": "Bool",
              "rotationDampTime": "Eff_Avatar_Diving_Octopus_Gadget"
            }
          ]
        },
        "UNIQUE_Avatar_DiveSkill_Octopus_Fx": {
          "modifierName": "",
          "forceTriggerWhenChangeAuthority": true,
          "IPFJJJGABPL": 100.0,
          "onAdded": [
            {
              "$type": "ANLOBBMKNIJ",
              "rotationDampTime": "Eff_Avatar_Diving_Octopus_Gadget",
              "PPPDJGDDOGD": 1.0,
              "AJDILHJFNKE": -1.0
            }
          ]
        },
        "Avatar_Channel_LoopFx": {
          "modifierName": "",
          "IPFJJJGABPL": 100.0,
          "onAdded": [
            {
              "$type": "ANLOBBMKNIJ",
              "rotationDampTime": "Eff_Avatar_Diving_Octopus_HandLoop",
              "PPPDJGDDOGD": 1.0,
              "AJDILHJFNKE": -1.0
            }
          ],
          "onRemoved": [
            {
              "$type": "OCLNBBMMIOK",
              "skillID": 20067,
              "amountByTargetCurrentHPRatio": 1.0,
              "costStaminaRatio": 1.0
            }
          ]
        },
        "Focus_Update": {
          "modifierName": "",
          "elementDurability": 25.0,
          "IPFJJJGABPL": 100.0,
          "modifierMixins": [
            {
              "$type": "EKMHJKDLBJH",
              "stateIDs": [
                "Channel_BS",
                "Channel_Loop"
              ],
              "modifierName": "Focus",
              "DGFCLAIDIFI": ""
            }
          ]
        },
        "Focus": {
          "modifierName": "",
          "IPFJJJGABPL": 100.0,
          "modifierMixins": [
            {
              "$type": "FMOKCPPLHDO"
            }
          ],
          "onAdded": [
            {
              "$type": "INBCDALOHMP",
              "targetPredicates": [
                {
                  "$type": "CNGGLKHONAA",
                  "target": "Self",
                  "key": "gv_SealedTower_WaterGunCamera",
                  "param3": 1.0
                }
              ],
              "successActions": [
                {
                  "$type": "INBCDALOHMP",
                  "targetPredicates": [
                    {
                      "$type": "BGMAGODJEMF",
                      "featureTagIDs": [
                        1044
                      ]
                    }
                  ],
                  "successActions": [
                    {
                      "$type": "BAGMOLODOME",
                      "cameraFollowLower": {
                        "x": 2.4000000953674316,
                        "y": 2.799999952316284,
                        "z": -8.5
                      },
                      "cameraFollowUpper": {
                        "x": 2.4000000953674316,
                        "y": 2.799999952316284,
                        "z": -8.5
                      },
                      "cameraFastFocusMode": true,
                      "dragButtonName": "Skill2",
                      "assistance": {
                        "ps4": {},
                        "ps5": {},
                        "other": {
                          "useGyro": true
                        }
                      },
                      "canMove": false,
                      "showCrosshair": false,
                      "disableAnim": true,
                      "OMHGAKJIEFB": ""
                    }
                  ]
                },
                {
                  "$type": "INBCDALOHMP",
                  "targetPredicates": [
                    {
                      "$type": "BGMAGODJEMF",
                      "featureTagIDs": [
                        1043
                      ]
                    }
                  ],
                  "successActions": [
                    {
                      "$type": "BAGMOLODOME",
                      "cameraFollowLower": {
                        "x": 0.3499999940395355,
                        "y": 0.9599999785423279,
                        "z": -5.0
                      },
                      "cameraFollowUpper": {
                        "x": 0.3499999940395355,
                        "y": 0.9599999785423279,
                        "z": -4.599999904632568
                      },
                      "cameraFastFocusMode": true,
                      "dragButtonName": "Skill2",
                      "assistance": {
                        "ps4": {},
                        "ps5": {},
                        "other": {
                          "useGyro": true
                        }
                      },
                      "canMove": false,
                      "showCrosshair": false,
                      "disableAnim": true,
                      "OMHGAKJIEFB": ""
                    }
                  ]
                },
                {
                  "$type": "INBCDALOHMP",
                  "targetPredicates": [
                    {
                      "$type": "BGMAGODJEMF",
                      "featureTagIDs": [
                        1042
                      ]
                    }
                  ],
                  "successActions": [
                    {
                      "$type": "BAGMOLODOME",
                      "cameraFollowLower": {
                        "x": 2.4000000953674316,
                        "y": 3.0,
                        "z": -8.5
                      },
                      "cameraFollowUpper": {
                        "x": 2.4000000953674316,
                        "y": 3.0,
                        "z": -8.5
                      },
                      "cameraFastFocusMode": true,
                      "dragButtonName": "Skill2",
                      "assistance": {
                        "ps4": {},
                        "ps5": {},
                        "other": {
                          "useGyro": true
                        }
                      },
                      "canMove": false,
                      "showCrosshair": false,
                      "disableAnim": true,
                      "OMHGAKJIEFB": ""
                    }
                  ]
                },
                {
                  "$type": "INBCDALOHMP",
                  "targetPredicates": [
                    {
                      "$type": "BGMAGODJEMF",
                      "featureTagIDs": [
                        1041
                      ]
                    }
                  ],
                  "successActions": [
                    {
                      "$type": "BAGMOLODOME",
                      "cameraFollowLower": {
                        "x": 2.4000000953674316,
                        "y": 3.200000047683716,
                        "z": -8.5
                      },
                      "cameraFollowUpper": {
                        "x": 2.4000000953674316,
                        "y": 3.200000047683716,
                        "z": -8.5
                      },
                      "cameraFastFocusMode": true,
                      "dragButtonName": "Skill2",
                      "assistance": {
                        "ps4": {},
                        "ps5": {},
                        "other": {
                          "useGyro": true
                        }
                      },
                      "canMove": false,
                      "showCrosshair": false,
                      "disableAnim": true,
                      "OMHGAKJIEFB": ""
                    }
                  ]
                },
                {
                  "$type": "INBCDALOHMP",
                  "targetPredicates": [
                    {
                      "$type": "BGMAGODJEMF",
                      "featureTagIDs": [
                        1045
                      ]
                    }
                  ],
                  "successActions": [
                    {
                      "$type": "BAGMOLODOME",
                      "cameraFollowLower": {
                        "x": 2.4000000953674316,
                        "y": 2.4000000953674316,
                        "z": -8.5
                      },
                      "cameraFollowUpper": {
                        "x": 2.4000000953674316,
                        "y": 2.4000000953674316,
                        "z": -8.5
                      },
                      "cameraFastFocusMode": true,
                      "dragButtonName": "Skill2",
                      "assistance": {
                        "ps4": {},
                        "ps5": {},
                        "other": {
                          "useGyro": true
                        }
                      },
                      "canMove": false,
                      "showCrosshair": false,
                      "disableAnim": true,
                      "OMHGAKJIEFB": ""
                    }
                  ]
                }
              ],
              "failActions": [
                {
                  "$type": "INBCDALOHMP",
                  "targetPredicates": [
                    {
                      "$type": "BGMAGODJEMF",
                      "featureTagIDs": [
                        1044
                      ]
                    }
                  ],
                  "successActions": [
                    {
                      "$type": "BAGMOLODOME",
                      "cameraFollowLower": {
                        "x": 0.3499999940395355,
                        "y": 0.9599999785423279,
                        "z": -5.0
                      },
                      "cameraFollowUpper": {
                        "x": 0.3499999940395355,
                        "y": 0.9599999785423279,
                        "z": -4.599999904632568
                      },
                      "cameraFastFocusMode": true,
                      "dragButtonName": "Skill2",
                      "assistance": {
                        "ps4": {},
                        "ps5": {},
                        "other": {
                          "useGyro": true
                        }
                      },
                      "canMove": false,
                      "showCrosshair": false,
                      "disableAnim": true,
                      "OMHGAKJIEFB": ""
                    }
                  ]
                },
                {
                  "$type": "INBCDALOHMP",
                  "targetPredicates": [
                    {
                      "$type": "BGMAGODJEMF",
                      "featureTagIDs": [
                        1043
                      ]
                    }
                  ],
                  "successActions": [
                    {
                      "$type": "BAGMOLODOME",
                      "cameraFollowLower": {
                        "x": 0.3499999940395355,
                        "y": 0.9599999785423279,
                        "z": -5.0
                      },
                      "cameraFollowUpper": {
                        "x": 0.3499999940395355,
                        "y": 0.9599999785423279,
                        "z": -4.599999904632568
                      },
                      "cameraFastFocusMode": true,
                      "dragButtonName": "Skill2",
                      "assistance": {
                        "ps4": {},
                        "ps5": {},
                        "other": {
                          "useGyro": true
                        }
                      },
                      "canMove": false,
                      "showCrosshair": false,
                      "disableAnim": true,
                      "OMHGAKJIEFB": ""
                    }
                  ]
                },
                {
                  "$type": "INBCDALOHMP",
                  "targetPredicates": [
                    {
                      "$type": "BGMAGODJEMF",
                      "featureTagIDs": [
                        1042
                      ]
                    }
                  ],
                  "successActions": [
                    {
                      "$type": "BAGMOLODOME",
                      "cameraFollowLower": {
                        "x": 0.3499999940395355,
                        "y": 1.059999942779541,
                        "z": -5.0
                      },
                      "cameraFollowUpper": {
                        "x": 0.3499999940395355,
                        "y": 1.059999942779541,
                        "z": -4.599999904632568
                      },
                      "cameraFastFocusMode": true,
                      "dragButtonName": "Skill2",
                      "assistance": {
                        "ps4": {},
                        "ps5": {},
                        "other": {
                          "useGyro": true
                        }
                      },
                      "canMove": false,
                      "showCrosshair": false,
                      "disableAnim": true,
                      "OMHGAKJIEFB": ""
                    }
                  ]
                },
                {
                  "$type": "INBCDALOHMP",
                  "targetPredicates": [
                    {
                      "$type": "BGMAGODJEMF",
                      "featureTagIDs": [
                        1041
                      ]
                    }
                  ],
                  "successActions": [
                    {
                      "$type": "BAGMOLODOME",
                      "cameraFollowLower": {
                        "x": 0.3499999940395355,
                        "y": 1.159999966621399,
                        "z": -5.0
                      },
                      "cameraFollowUpper": {
                        "x": 0.3499999940395355,
                        "y": 1.159999966621399,
                        "z": -4.599999904632568
                      },
                      "cameraFastFocusMode": true,
                      "dragButtonName": "Skill2",
                      "assistance": {
                        "ps4": {},
                        "ps5": {},
                        "other": {
                          "useGyro": true
                        }
                      },
                      "canMove": false,
                      "showCrosshair": false,
                      "disableAnim": true,
                      "OMHGAKJIEFB": ""
                    }
                  ]
                },
                {
                  "$type": "INBCDALOHMP",
                  "targetPredicates": [
                    {
                      "$type": "BGMAGODJEMF",
                      "featureTagIDs": [
                        1045
                      ]
                    }
                  ],
                  "successActions": [
                    {
                      "$type": "BAGMOLODOME",
                      "cameraFollowLower": {
                        "x": 0.3499999940395355,
                        "y": 0.6600000262260437,
                        "z": -5.0
                      },
                      "cameraFollowUpper": {
                        "x": 0.3499999940395355,
                        "y": 0.6600000262260437,
                        "z": -4.599999904632568
                      },
                      "cameraFastFocusMode": true,
                      "dragButtonName": "Skill2",
                      "assistance": {
                        "ps4": {},
                        "ps5": {},
                        "other": {
                          "useGyro": true
                        }
                      },
                      "canMove": false,
                      "showCrosshair": false,
                      "disableAnim": true,
                      "OMHGAKJIEFB": ""
                    }
                  ]
                }
              ]
            },
            {
              "$type": "KJCHPDPBJHL",
              "boolID": "LockMotionFlagExitChannel",
              "param3": true
            },
            {
              "$type": "BOBCOJHOKKD",
              "param3": 0.0,
              "key": "_ABILITY_Diving_Aim_Success_Mark",
              "param2": 0.0,
              "repeatTimes": 0.0
            },
            {
              "$type": "EGJDFNHCFAA",
              "targetKey": "_ABILITY_Diving_Aim_Target_Cache_Avatar"
            },
            {
              "$type": "JLDEMMJAMLC",
              "target": "Team",
              "modifierName": "Octopus_Aim_Camera_Eff"
            },
            {
              "$type": "INBCDALOHMP",
              "target": "Team",
              "targetPredicates": [
                {
                  "$type": "CNGGLKHONAA",
                  "key": "_ABILITY_MagicWave_IsExtraMode",
                  "param3": 0.0,
                  "compareType": "NoneOrEqual"
                }
              ],
              "successActions": [
                {
                  "$type": "JLDEMMJAMLC",
                  "modifierName": "Octopus_Aim_Handler"
                }
              ],
              "failActions": [
                {
                  "$type": "JLDEMMJAMLC",
                  "modifierName": "Octopus_Aim_Handler_ExtraMode"
                }
              ]
            },
            {
              "$type": "JLDEMMJAMLC",
              "modifierName": "Avatar_Channel_LoopFx"
            },
            {
              "$type": "KFCDMIMBBLD",
              "born": {
                "$type": "IAENDIPDFKD",
                "offset": {
                  "KGEPIMHBMOL": 0.0,
                  "JEBHCGDPFEJ": 0.0,
                  "LPCHALMFFOD": 0.0
                },
                "useRotation": true
              },
              "gadgetID": 40034114,
              "campID": 1001,
              "campTargetType": "Enemy"
            },
            {
              "$type": "HCLAKBJKPLE",
              "watcherId": 81418,
              "authorityOnly": true
            },
            {
              "$type": "PPDJHLBHCIK",
              "shieldHP": true,
              "canBeHandledOnRecover": true,
              "muteRemoteAction": true,
              "toPlayMode": "ActivityAimState"
            }
          ],
          "onRemoved": [
            {
              "$type": "JKFLDIKGJEF",
              "shieldHP": true,
              "gadgetInfo": {
                "configID": 40034114
              }
            },
            {
              "$type": "LJEDLFDLLDP"
            },
            {
              "$type": "BLCCGIPAOIP",
              "PLLJBINMGJK": "EndChannelTrigger"
            },
            {
              "$type": "KJCHPDPBJHL",
              "shieldHP": true,
              "boolID": "LockMotionFlagExitChannel"
            },
            {
              "$type": "PPDJHLBHCIK",
              "shieldHP": true,
              "muteRemoteAction": true,
              "JFDCCIECAJB": "ActivityAimState"
            }
          ],
          "onKill": [
            {
              "$type": "JKFLDIKGJEF",
              "shieldHP": true,
              "gadgetInfo": {
                "configID": 40034114
              }
            },
            {
              "$type": "LJEDLFDLLDP"
            }
          ]
        },
        "Octopus_Aim_Camera_Eff": {
          "modifierName": "",
          "IPFJJJGABPL": 100.0,
          "modifierMixins": [
            {
              "$type": "CIGJDPCDOEB",
              "onAdded": [
                {
                  "$type": "AKCJLBDMNDE",
                  "canBeHandledOnRecover": true,
                  "muteRemoteAction": true,
                  "enable": true,
                  "cameraFogEffectName": "Eff_SkillObj_Absorb_Avatar_Octopus_Aim",
                  "playerFogEffectName": ""
                },
                {
                  "$type": "CNHCMGMMDCB",
                  "muteRemoteAction": true,
                  "parameter": "StartCircle",
                  "cameraFogEffectName": "Eff_SkillObj_Absorb_Avatar_Octopus_Aim"
                }
              ],
              "onRemoved": [
                {
                  "$type": "AKCJLBDMNDE",
                  "shieldHP": true,
                  "canBeHandledOnRecover": true,
                  "muteRemoteAction": true,
                  "cameraFogEffectName": "Eff_SkillObj_Absorb_Avatar_Octopus_Aim",
                  "playerFogEffectName": ""
                }
              ]
            }
          ]
        },
        "Octopus_Aim_Handler": {
          "modifierName": "",
          "IPFJJJGABPL": 100.0,
          "modifierMixins": [
            {
              "$type": "NDFFAEHJMAL",
              "globalValueKey": "_ABILITY_Diving_Aim_Success_Mark",
              "actions": [
                {
                  "$type": "INBCDALOHMP",
                  "targetPredicates": [
                    {
                      "$type": "CNGGLKHONAA",
                      "target": "Self",
                      "key": "_ABILITY_Diving_Aim_Success_Mark",
                      "param3": 1.0
                    }
                  ],
                  "successActions": [
                    {
                      "$type": "MDIAKCCDEAL",
                      "target": "TempTarget",
                      "shieldHP": true,
                      "fishtankMap": {
                        "ALBJEAMOFLG": "_ABILITY_Diving_Aim_Target_Cache_Avatar"
                      }
                    },
                    {
                      "$type": "JLDEMMJAMLC",
                      "modifierName": "Octopus_Aim_TriggerAttack"
                    }
                  ],
                  "failActions": [
                    {
                      "$type": "KEEOEKPABPN",
                      "onlyAvatar": false
                    },
                    {
                      "$type": "PFKNEFGOHIH",
                      "modifierName": "Octopus_Aim_TriggerAttack"
                    }
                  ]
                }
              ]
            }
          ]
        },
        "Octopus_Aim_Handler_ExtraMode": {
          "modifierName": "",
          "IPFJJJGABPL": 100.0,
          "modifierMixins": [
            {
              "$type": "NDFFAEHJMAL",
              "globalValueKey": "_ABILITY_Diving_Aim_Count",
              "actions": [
                {
                  "$type": "PFKNEFGOHIH",
                  "otherTargets": {
                    "$type": "IJOFJOGLDHE",
                    "topLimit": 10,
                    "entityTypePriority": [
                      "Gadget",
                      "Platform"
                    ],
                    "sortType": "Nearest",
                    "shapeName": "CircleR30",
                    "campTargetType": "Enemy",
                    "doOffStage": 1.0
                  },
                  "predicates": [
                    {
                      "$type": "CNGGLKHONAA",
                      "key": "_ABILITY_Diving_Aim_IsAct",
                      "param3": 0.0,
                      "compareType": "NoneOrEqual"
                    }
                  ],
                  "modifierName": "Octopus_Aim_TriggerAttack_ExtraMode_OnGadget"
                },
                {
                  "$type": "JLDEMMJAMLC",
                  "otherTargets": {
                    "$type": "IJOFJOGLDHE",
                    "topLimit": 10,
                    "entityTypePriority": [
                      "Gadget",
                      "Platform"
                    ],
                    "sortType": "Nearest",
                    "shapeName": "CircleR30",
                    "campTargetType": "Enemy",
                    "doOffStage": 1.0
                  },
                  "predicates": [
                    {
                      "$type": "CNGGLKHONAA",
                      "key": "_ABILITY_Diving_Aim_IsAct",
                      "param3": 1.0
                    }
                  ],
                  "modifierName": "Octopus_Aim_TriggerAttack_ExtraMode_OnGadget"
                }
              ]
            }
          ]
        },
        "Octopus_Aim_TriggerAttack_ExtraMode_OnGadget": {
          "modifierName": "",
          "IPFJJJGABPL": 100.0,
          "onAdded": [
            {
              "$type": "EGJDFNHCFAA",
              "target": "Caster",
              "targetKey": "_TempAvatarTarget"
            },
            {
              "$type": "ANLOBBMKNIJ",
              "target": "Caster",
              "rotationDampTime": "Eff_Avatar_Diving_Octopus_Line_01",
              "PPPDJGDDOGD": 1.0,
              "AJDILHJFNKE": -1.0,
              "setSelfAsEffectPluginTarget": true
            },
            {
              "$type": "ANLOBBMKNIJ",
              "target": "Caster",
              "rotationDampTime": "Eff_Avatar_Diving_Octopus_Line_01",
              "PPPDJGDDOGD": 1.0,
              "AJDILHJFNKE": -1.0,
              "setSelfAsEffectPluginTarget": true
            },
            {
              "$type": "ANLOBBMKNIJ",
              "rotationDampTime": "Eff_SkillObj_Absorb_Avatar_Lock_Gadget_Octopus_01",
              "PPPDJGDDOGD": 1.0,
              "AJDILHJFNKE": -1.0
            }
          ]
        },
        "Octopus_Aim_TriggerAttack": {
          "modifierName": "",
          "IPFJJJGABPL": 100.0,
          "onAdded": [
            {
              "$type": "JLDEMMJAMLC",
              "target": "TempTarget",
              "predicates": [
                {
                  "$type": "NIMAPECDNKD",
                  "entityTypes": [
                    "Gadget",
                    "Platform"
                  ]
                }
              ],
              "fishtankMap": {
                "ALBJEAMOFLG": "_ABILITY_Diving_Aim_Target_Cache_Avatar"
              },
              "modifierName": "Octopus_Aim_TriggerAttack_OnGadget"
            },
            {
              "$type": "JLDEMMJAMLC",
              "target": "TempTarget",
              "predicates": [
                {
                  "$type": "NIMAPECDNKD",
                  "entityTypes": [
                    "Monster"
                  ]
                }
              ],
              "fishtankMap": {
                "ALBJEAMOFLG": "_ABILITY_Diving_Aim_Target_Cache_Avatar"
              },
              "modifierName": "Octopus_Aim_TriggerAttack_OnMonster"
            }
          ]
        },
        "Octopus_Aim_TriggerAttack_OnGadget": {
          "modifierName": "",
          "IPFJJJGABPL": 100.0,
          "modifierMixins": [
            {
              "$type": "MLJAPFBGEEH",
              "globalValueKey": "gv_ConnectType",
              "gvInTalk": 0.0,
              "valueSteps": [
                2.5,
                3.5,
                4.5
              ],
              "modifierNameSteps": [
                "Octopus_Aim_TriggerAttack_OnGadget_Fx_01",
                "Octopus_Aim_TriggerAttack_OnGadget_Fx_02"
              ]
            }
          ],
          "onAdded": [
            {
              "$type": "EGJDFNHCFAA",
              "target": "Caster",
              "targetKey": "_TempAvatarTarget"
            }
          ]
        },
        "Octopus_Aim_TriggerAttack_OnGadget_Fx_01": {
          "modifierName": "",
          "IPFJJJGABPL": 100.0,
          "onAdded": [
            {
              "$type": "ANLOBBMKNIJ",
              "target": "Caster",
              "rotationDampTime": "Eff_Avatar_Diving_Octopus_Line_01",
              "PPPDJGDDOGD": 1.0,
              "AJDILHJFNKE": -1.0,
              "setSelfAsEffectPluginTarget": true
            },
            {
              "$type": "ANLOBBMKNIJ",
              "target": "Caster",
              "rotationDampTime": "Eff_Avatar_Diving_Octopus_Line_01",
              "PPPDJGDDOGD": 1.0,
              "AJDILHJFNKE": -1.0,
              "setSelfAsEffectPluginTarget": true
            },
            {
              "$type": "ANLOBBMKNIJ",
              "rotationDampTime": "Eff_SkillObj_Absorb_Avatar_Lock_Gadget_Octopus_01",
              "PPPDJGDDOGD": 1.0,
              "AJDILHJFNKE": -1.0
            }
          ]
        },
        "Octopus_Aim_TriggerAttack_OnGadget_Fx_02": {
          "modifierName": "",
          "IPFJJJGABPL": 100.0,
          "onAdded": [
            {
              "$type": "ANLOBBMKNIJ",
              "target": "Caster",
              "rotationDampTime": "Eff_Avatar_Diving_Octopus_Line_02",
              "PPPDJGDDOGD": 1.0,
              "AJDILHJFNKE": -1.0,
              "setSelfAsEffectPluginTarget": true
            },
            {
              "$type": "ANLOBBMKNIJ",
              "target": "Caster",
              "rotationDampTime": "Eff_Avatar_Diving_Octopus_Line_02",
              "PPPDJGDDOGD": 1.0,
              "AJDILHJFNKE": -1.0,
              "setSelfAsEffectPluginTarget": true
            },
            {
              "$type": "ANLOBBMKNIJ",
              "rotationDampTime": "Eff_SkillObj_Absorb_Avatar_Lock_Gadget_Octopus_02",
              "PPPDJGDDOGD": 1.0,
              "AJDILHJFNKE": -1.0
            }
          ]
        },
        "Octopus_Aim_TriggerAttack_OnMonster": {
          "modifierName": "",
          "IPFJJJGABPL": 100.0
        }
      },
      "onAdded": [
        {
          "$type": "JLDEMMJAMLC",
          "modifierName": "Avatar_DiveSkill_Octopus_AddSkillInfo"
        },
        {
          "$type": "JLDEMMJAMLC",
          "target": "Team",
          "modifierName": "Avatar_DiveSkill_Octopus_TickSkill"
        },
        {
          "$type": "JLDEMMJAMLC",
          "modifierName": "Avatar_DiveSkill_Octopus_State_Handler"
        }
      ],
      "isDynamicAbility": true
    }
  }
]