[
  {
    "Default": {
      "$type": "CBPBEHLOHKI",
      "abilityName": "Gadget_Gear_Spray_Fire_Test",
      "abilityMixins": [
        {
          "$type": "EKMHJKDLBJH",
          "stateIDs": [
            "Start"
          ],
          "modifierName": "FireSpray",
          "DGFCLAIDIFI": ""
        },
        {
          "$type": "EKMHJKDLBJH",
          "stateIDs": [
            "Stop"
          ],
          "modifierName": "FireStop",
          "DGFCLAIDIFI": ""
        }
      ],
      "modifiers": {
        "FireStop": {
          "modifierName": "",
          "IPFJJJGABPL": 100.0,
          "onAdded": [
            {
              "$type": "PFKNEFGOHIH",
              "modifierName": "FireSpray"
            }
          ]
        },
        "FireSpray": {
          "modifierName": "",
          "IPFJJJGABPL": 100.0,
          "thinkInterval": 0.20000000298023224,
          "onAdded": [
            {
              "$type": "PFKNEFGOHIH",
              "modifierName": "FireStop"
            },
            {
              "$type": "ANLOBBMKNIJ",
              "rotationDampTime": "Eff_Gear_Fire_Spray",
              "PPPDJGDDOGD": 1.0,
              "AJDILHJFNKE": -1.0
            },
            {
              "$type": "ANLOBBMKNIJ",
              "rotationDampTime": "Eff_Gear_Fire_Spray2",
              "PPPDJGDDOGD": 1.0,
              "AJDILHJFNKE": -1.0
            },
            {
              "$type": "ANLOBBMKNIJ",
              "rotationDampTime": "Eff_Gear_Fire_Spray3",
              "PPPDJGDDOGD": 1.0,
              "AJDILHJFNKE": -1.0
            },
            {
              "$type": "ANLOBBMKNIJ",
              "rotationDampTime": "Eff_Gear_Fire_Spray4",
              "PPPDJGDDOGD": 1.0,
              "AJDILHJFNKE": -1.0
            }
          ],
          "onThinkInterval": [
            {
              "$type": "AIFPLABJNMA",
              "shieldHP": true,
              "attackEvent": {
                "attackPattern": {
                  "$type": "JHKEHNJBMOF",
                  "triggerType": "TriggerNoRepeat",
                  "checkHitLayerType": "Both",
                  "born": {
                    "$type": "KLPANPDGHHA",
                    "attachPointName": "WeaponR"
                  },
                  "size": {
                    "KGEPIMHBMOL": 1.399999976158142,
                    "JEBHCGDPFEJ": 1.399999976158142,
                    "LPCHALMFFOD": 8.0
                  },
                  "muteHitBehindScene": true
                },
                "attackInfo": {
                  "attackTag": "",
                  "attenuationTag": "",
                  "attenuationGroup": "default",
                  "attackProperty": {
                    "actorGrassSubHurtDelta": 0.20000000298023224,
                    "actorWindSubHurtDelta": 0.0,
                    "elementType": "Fire",
                    "IPFJJJGABPL": 30.0,
                    "strikeType": "Default",
                    "GLKMCMDJBIK": 0.0
                  },
                  "hitPattern": {
                    "onHitEffectName": "none",
                    "hitImpulseY": "",
                    "hitImpulseType": "LV1",
                    "hitHaltTimeScale": 0.2199999988079071
                  }
                }
              },
              "targetType": "Enemy"
            }
          ]
        }
      }
    }
  },
  {
    "Default": {
      "$type": "CBPBEHLOHKI",
      "abilityName": "Gadget_Gear_Spray_Fire_Single_Test",
      "modifiers": {
        "FireSpray_Single": {
          "modifierName": "",
          "elementDurability": 10.0,
          "IPFJJJGABPL": 100.0,
          "thinkInterval": 0.20000000298023224,
          "onAdded": [
            {
              "$type": "ANLOBBMKNIJ",
              "rotationDampTime": "Eff_Gear_Fire_Spray",
              "PPPDJGDDOGD": 1.0,
              "AJDILHJFNKE": -1.0
            },
            {
              "$type": "ANLOBBMKNIJ",
              "rotationDampTime": "Eff_Gear_Fire_Spray2",
              "PPPDJGDDOGD": 1.0,
              "AJDILHJFNKE": -1.0
            },
            {
              "$type": "ANLOBBMKNIJ",
              "rotationDampTime": "Eff_Gear_Fire_Spray3",
              "PPPDJGDDOGD": 1.0,
              "AJDILHJFNKE": -1.0
            },
            {
              "$type": "ANLOBBMKNIJ",
              "rotationDampTime": "Eff_Gear_Fire_Spray4",
              "PPPDJGDDOGD": 1.0,
              "AJDILHJFNKE": -1.0
            }
          ],
          "onThinkInterval": [
            {
              "$type": "AIFPLABJNMA",
              "shieldHP": true,
              "attackEvent": {
                "attackPattern": {
                  "$type": "JHKEHNJBMOF",
                  "triggerType": "TriggerNoRepeat",
                  "checkHitLayerType": "Both",
                  "born": {
                    "$type": "IAENDIPDFKD",
                    "offset": {
                      "KGEPIMHBMOL": 0.0,
                      "JEBHCGDPFEJ": 1.0,
                      "LPCHALMFFOD": 0.0
                    }
                  },
                  "size": {
                    "KGEPIMHBMOL": 1.399999976158142,
                    "JEBHCGDPFEJ": 1.399999976158142,
                    "LPCHALMFFOD": 8.0
                  },
                  "muteHitBehindScene": true
                },
                "attackInfo": {
                  "attackTag": "",
                  "attenuationTag": "",
                  "attenuationGroup": "default",
                  "attackProperty": {
                    "actorGrassSubHurtDelta": 0.25,
                    "actorWindSubHurtDelta": 0.0,
                    "elementType": "Fire",
                    "IPFJJJGABPL": 30.0,
                    "strikeType": "Default",
                    "GLKMCMDJBIK": 0.0
                  },
                  "hitPattern": {
                    "onHitEffectName": "default",
                    "hitImpulseY": "",
                    "hitImpulseType": "LV1",
                    "hitHaltTimeScale": 0.05000000074505806
                  }
                }
              },
              "targetType": "Enemy"
            }
          ]
        }
      },
      "onAbilityStart": [
        {
          "$type": "ELNHKGAPIBJ",
          "content": "Gadget_Gear_Spray_Fire_Single_Test"
        },
        {
          "$type": "JLDEMMJAMLC",
          "modifierName": "FireSpray_Single"
        }
      ]
    }
  },
  {
    "Default": {
      "$type": "CBPBEHLOHKI",
      "abilityName": "Gadget_Gear_Spray_Ice_Single_Test",
      "modifiers": {
        "FireSpray_Single": {
          "modifierName": "",
          "elementDurability": 10.0,
          "IPFJJJGABPL": 100.0,
          "thinkInterval": 0.20000000298023224,
          "onThinkInterval": [
            {
              "$type": "AIFPLABJNMA",
              "shieldHP": true,
              "attackEvent": {
                "attackPattern": {
                  "$type": "JHKEHNJBMOF",
                  "triggerType": "TriggerNoRepeat",
                  "checkHitLayerType": "Both",
                  "born": {
                    "$type": "IAENDIPDFKD",
                    "offset": {
                      "KGEPIMHBMOL": 0.0,
                      "JEBHCGDPFEJ": 1.0,
                      "LPCHALMFFOD": 0.0
                    }
                  },
                  "size": {
                    "KGEPIMHBMOL": 1.399999976158142,
                    "JEBHCGDPFEJ": 1.399999976158142,
                    "LPCHALMFFOD": 8.0
                  },
                  "muteHitBehindScene": true
                },
                "attackInfo": {
                  "attackTag": "",
                  "attenuationTag": "",
                  "attenuationGroup": "default",
                  "attackProperty": {
                    "actorGrassSubHurtDelta": 0.25,
                    "actorWindSubHurtDelta": 0.0,
                    "elementType": "Ice",
                    "IPFJJJGABPL": 30.0,
                    "strikeType": "Default",
                    "GLKMCMDJBIK": 0.0
                  },
                  "hitPattern": {
                    "onHitEffectName": "default",
                    "hitImpulseY": "",
                    "hitImpulseType": "LV1",
                    "hitHaltTimeScale": 0.05000000074505806
                  }
                }
              },
              "targetType": "Enemy"
            }
          ]
        }
      },
      "onAbilityStart": [
        {
          "$type": "JLDEMMJAMLC",
          "modifierName": "FireSpray_Single"
        }
      ]
    }
  },
  {
    "Default": {
      "$type": "CBPBEHLOHKI",
      "abilityName": "Gear_Electric_ElectricBall_Loop",
      "modifiers": {
        "Gear_ElectricBall_Loop": {
          "modifierName": "",
          "elementType": "Electric",
          "IPFJJJGABPL": 50.0,
          "onAdded": [
            {
              "$type": "ANLOBBMKNIJ",
              "rotationDampTime": "Eff_KanriahMech_ElectricBall_Shoot",
              "PPPDJGDDOGD": 1.0,
              "AJDILHJFNKE": -1.0
            }
          ],
          "onRemoved": [
            {
              "$type": "NCFFNDHGCMH"
            }
          ]
        }
      },
      "onAdded": [
        {
          "$type": "JLDEMMJAMLC",
          "modifierName": "Gear_ElectricBall_Loop"
        }
      ]
    }
  }
]