{
  "luaDataPath": "",
  "entityBan": "",
  "disableNpcLod": true,
  "protectNpcMobileLod": true,
  "talkFlag": 7,
  "startFade": {
    "startFadeOutDuration": 0.0
  },
  "endFade": {
    "startFadeOutDuration": 0.0
  },
  "actors": [
    {
      "alias": "LocalAvatar",
      "visible": true,
      "bornPointName": "",
      "relativePosType": "AVATAR_NEW",
      "relativePosNpcAlias": "",
      "_notDestroyInTalk": true,
      "_bindMovingTargetKey": ""
    },
    {
      "configID": 30586,
      "alias": "30586",
      "visible": true,
      "bornPointName": "",
      "relativePosType": "AVATAR_NEW",
      "relativePosNpcAlias": "",
      "_notDestroyInTalk": true,
      "_bindMovingTargetKey": ""
    },
    {
      "configID": 30563,
      "alias": "30563",
      "visible": true,
      "bornPointName": "",
      "removeActorType": "NEW_REMOVE",
      "relativePosType": "AVATAR_NEW",
      "relativePosNpcAlias": "",
      "_notDestroyInTalk": true,
      "_bindMovingTargetKey": ""
    },
    {
      "configID": 30587,
      "alias": "30587",
      "visible": true,
      "bornPointName": "",
      "removeActorType": "NEW_REMOVE",
      "relativePosType": "AVATAR_NEW",
      "relativePosNpcAlias": "",
      "_notDestroyInTalk": true,
      "_bindMovingTargetKey": ""
    },
    {
      "configID": 1065,
      "alias": "1065",
      "visible": true,
      "bornPointName": "",
      "removeActorType": "NEW_REMOVE",
      "relativePosType": "AVATAR_NEW",
      "relativePosNpcAlias": "",
      "_notDestroyInTalk": true,
      "_bindMovingTargetKey": ""
    }
  ],
  "group": [
    [
      {
        "$type": "MoleMole.Config.ConfigTimeProtectAction",
        "type": "TIME_PROTECT",
        "duration": 1.8489999771118164,
        "actionId": 104
      },
      {
        "$type": "FJKIHHKJLMJ",
        "type": "CAMERA_MOVE",
        "duration": 2.0,
        "actionId": 139,
        "camPosOffset": {
          "x": 13.817000389099121,
          "y": 8.324000358581543,
          "z": 409.0469970703125
        },
        "camForwardTargetOffset": {
          "x": 14.74899959564209,
          "y": 7.968999862670898,
          "z": 408.968994140625
        },
        "cameraBlendType": "EaseInOutQuad",
        "needZAxisRotate": true,
        "rotateAngle": 0.0010000000474974513,
        "openCameraDither": false,
        "targetNpcAlias": "",
        "closeTreeLeafDither": true,
        "KJOEFBPOIIH": "",
        "IICFKKEBIEC": "",
        "EGEHEJEBLBJ": "",
        "cutFrameTrans": {
          "_elevMinValue": -50.0,
          "_elevMaxValue": 50.0,
          "_poleMinValue": -50.0,
          "_poleMaxValue": 50.0
        }
      },
      {
        "$type": "MoleMole.Config.ConfigTeleportToAction",
        "type": "TELEPORT_TO",
        "aliasList": [
          "30586"
        ],
        "actionId": 140,
        "position": {
          "x": 15.604000091552734,
          "y": 7.485000133514404,
          "z": 408.97198486328125
        },
        "forward": {
          "x": -5.039000034332275,
          "y": 0.1850000023841858,
          "z": 0.3370000123977661
        },
        "openLongDisTeleport": true,
        "syncForward": true,
        "_posBindMovingTargetKey": "",
        "_forwardBindMovingTargetKey": ""
      },
      {
        "$type": "MoleMole.Config.ConfigVisibleInterAction",
        "type": "VISIBLE",
        "aliasList": [
          "1065"
        ],
        "actionId": 141,
        "delayFrame": 1,
        "_extraParam": ""
      },
      {
        "$type": "LJLMDHDCAMK",
        "type": "LOOK_AT",
        "aliasList": [
          "30586"
        ],
        "actionId": 151,
        "_flag": 64,
        "enableHead": true,
        "headRotateVec": {
          "y": 314.2040100097656
        },
        "headTurnTime": 0.5,
        "targetNpcAlias": "",
        "lookAtTargetType": "NONE",
        "openBackProtect": true,
        "backProtectAngle": 10.0,
        "targetNpcLookAtPoint": "",
        "OAFJBHJHLJG": ""
      },
      {
        "$type": "MoleMole.Config.ConfigVisibleInterAction",
        "type": "VISIBLE",
        "duration": 1.0,
        "aliasList": [
          "LocalAvatar"
        ],
        "actionId": 198,
        "delayFrame": 1,
        "useDither": true,
        "_extraParam": ""
      },
      {
        "$type": "KKKMGOEHLDH",
        "type": "SOUND",
        "actionId": 209,
        "stateGroup": "StateGroup_musicChapter",
        "state": "State_Silence",
        "defaultState": "None"
      },
      {
        "$type": "KKKMGOEHLDH",
        "type": "SOUND",
        "delayTime": 0.10000000149011612,
        "actionId": 210,
        "stateGroup": "StateGroup_gameState",
        "state": "State_Chapter",
        "defaultState": "State_Chapter"
      }
    ],
    [
      {
        "$type": "PKKMAMONGEO",
        "type": "DIALOG",
        "aliasList": [
          "30586"
        ],
        "actionId": 107,
        "dialogID": 401643001,
        "protectTime": 0.5
      },
      {
        "$type": "FJKIHHKJLMJ",
        "type": "CAMERA_MOVE",
        "duration": 0.5,
        "actionId": 142,
        "camPosOffset": {
          "x": 14.194000244140625,
          "y": 7.7170000076293945,
          "z": 409.0379943847656
        },
        "camForwardTargetOffset": {
          "x": 15.192999839782715,
          "y": 7.729000091552734,
          "z": 408.9840087890625
        },
        "camFov": 20.0,
        "lerpPattern": 6,
        "cameraBlendType": "EaseInOutCubic",
        "needZAxisRotate": true,
        "rotateAngle": 0.0010000000474974513,
        "openCameraDither": false,
        "targetNpcAlias": "",
        "closeTreeLeafDither": true,
        "KJOEFBPOIIH": "",
        "IICFKKEBIEC": "",
        "EGEHEJEBLBJ": "",
        "cutFrameTrans": {
          "_elevMinValue": -50.0,
          "_elevMaxValue": 50.0,
          "_poleMinValue": -50.0,
          "_poleMaxValue": 50.0
        }
      },
      {
        "$type": "FABLGECDBCH",
        "type": "BODY_LANG",
        "aliasList": [
          "30587"
        ],
        "actionId": 161,
        "_flag": 131072,
        "bodyLangParam": 1,
        "forceDoFreeStyle": true,
        "canDoRepeatFreeStyle": false,
        "cantBackToIdleWhenSitLoop": true,
        "eventPatternSuiteKey": "",
        "FOHHKFAIAAJ": ""
      },
      {
        "$type": "FABLGECDBCH",
        "type": "BODY_LANG",
        "aliasList": [
          "30586"
        ],
        "actionId": 177,
        "_flag": 131072,
        "bodyLangParam": 1,
        "forceDoFreeStyle": true,
        "canDoRepeatFreeStyle": false,
        "cantBackToIdleWhenSitLoop": true,
        "eventPatternSuiteKey": "",
        "FOHHKFAIAAJ": ""
      }
    ],
    [
      {
        "$type": "PKKMAMONGEO",
        "type": "DIALOG",
        "aliasList": [
          "30563"
        ],
        "actionId": 109,
        "dialogID": 401643002,
        "protectTime": 0.5
      },
      {
        "$type": "FJKIHHKJLMJ",
        "type": "CAMERA_MOVE",
        "duration": 0.5,
        "actionId": 143,
        "camPosOffset": {
          "x": 9.154000282287598,
          "y": 11.751999855041504,
          "z": 409.11700439453125
        },
        "camForwardTargetOffset": {
          "x": 9.942000389099121,
          "y": 11.138999938964844,
          "z": 409.06298828125
        },
        "camFov": 35.0,
        "lerpPattern": 6,
        "cameraBlendType": "EaseInOutCubic",
        "needZAxisRotate": true,
        "rotateAngle": 0.0010000000474974513,
        "openCameraDither": false,
        "targetNpcAlias": "",
        "closeTreeLeafDither": true,
        "KJOEFBPOIIH": "",
        "IICFKKEBIEC": "",
        "EGEHEJEBLBJ": "",
        "cutFrameTrans": {
          "_elevMinValue": -50.0,
          "_elevMaxValue": 50.0,
          "_poleMinValue": -50.0,
          "_poleMaxValue": 50.0
        }
      },
      {
        "$type": "MoleMole.Config.ConfigNewCameraShakeAction",
        "type": "NEW_CAMERA_SHAKE",
        "duration": 5.0,
        "actionId": 144,
        "_shakeType": "INFINITE_ROTATION",
        "seed": 0.257999986410141,
        "amplitudeBase": {
          "x": 1.399999976158142,
          "y": 1.2000000476837158,
          "z": 1.7999999523162842
        },
        "frequencyBase": {
          "x": 0.5,
          "y": 0.5,
          "z": 0.4000000059604645
        },
        "amplitudeCurve": {
          "keyframes": [
            {
              "value": 1.0
            },
            {
              "time": 1.0,
              "value": 1.0
            }
          ]
        },
        "frequencyCurve": {
          "keyframes": [
            {
              "value": 1.0
            },
            {
              "time": 1.0,
              "value": 1.0
            }
          ]
        }
      }
    ],
    [
      {
        "$type": "PKKMAMONGEO",
        "type": "DIALOG",
        "aliasList": [
          "30586"
        ],
        "actionId": 111,
        "dialogID": 401643003,
        "protectTime": 0.5
      },
      {
        "$type": "MoleMole.Config.ConfigNewCameraShakeAction",
        "type": "NEW_CAMERA_SHAKE",
        "actionId": 145,
        "_shakeType": "CLOSE"
      },
      {
        "$type": "FJKIHHKJLMJ",
        "type": "CAMERA_MOVE",
        "duration": 0.5,
        "actionId": 146,
        "camPosOffset": {
          "x": 13.713000297546387,
          "y": 7.480999946594238,
          "z": 408.4880065917969
        },
        "camForwardTargetOffset": {
          "x": 14.673999786376953,
          "y": 7.60699987411499,
          "z": 408.7359924316406
        },
        "camFov": 20.0,
        "lerpPattern": 6,
        "cameraBlendType": "EaseInOutCubic",
        "needZAxisRotate": true,
        "rotateAngle": 0.0010000000474974513,
        "openCameraDither": false,
        "targetNpcAlias": "",
        "closeTreeLeafDither": true,
        "KJOEFBPOIIH": "",
        "IICFKKEBIEC": "",
        "EGEHEJEBLBJ": "",
        "cutFrameTrans": {
          "_elevMinValue": -50.0,
          "_elevMaxValue": 50.0,
          "_poleMinValue": -50.0,
          "_poleMaxValue": 50.0
        }
      },
      {
        "$type": "FJKIHHKJLMJ",
        "type": "CAMERA_MOVE",
        "delayTime": 0.10000000149011612,
        "duration": 1.2000000476837158,
        "actionId": 152,
        "camPosOffset": {
          "x": 14.222000122070312,
          "y": 7.547999858856201,
          "z": 408.6189880371094
        },
        "camForwardTargetOffset": {
          "x": 15.182000160217285,
          "y": 7.672999858856201,
          "z": 408.86700439453125
        },
        "camFov": 20.0,
        "cameraBlendType": "EaseOutQuart",
        "needZAxisRotate": true,
        "rotateAngle": 0.0010000000474974513,
        "openCameraDither": false,
        "targetNpcAlias": "",
        "closeTreeLeafDither": true,
        "KJOEFBPOIIH": "",
        "IICFKKEBIEC": "",
        "EGEHEJEBLBJ": "",
        "cutFrameTrans": {
          "_elevMinValue": -50.0,
          "_elevMaxValue": 50.0,
          "_poleMinValue": -50.0,
          "_poleMaxValue": 50.0
        }
      },
      {
        "$type": "FABLGECDBCH",
        "type": "BODY_LANG",
        "aliasList": [
          "30587"
        ],
        "actionId": 159,
        "_flag": 131072,
        "bodyLangParam": 1,
        "forceDoFreeStyle": true,
        "canDoRepeatFreeStyle": false,
        "cantBackToIdleWhenSitLoop": true,
        "eventPatternSuiteKey": "",
        "FOHHKFAIAAJ": ""
      },
      {
        "$type": "FABLGECDBCH",
        "type": "BODY_LANG",
        "aliasList": [
          "30586"
        ],
        "actionId": 176,
        "_flag": 131072,
        "bodyLangParam": 9030,
        "forceDoFreeStyle": true,
        "canDoRepeatFreeStyle": false,
        "cantBackToIdleWhenSitLoop": true,
        "eventPatternSuiteKey": "",
        "FOHHKFAIAAJ": ""
      }
    ],
    [
      {
        "$type": "PKKMAMONGEO",
        "type": "DIALOG",
        "aliasList": [
          "30563"
        ],
        "actionId": 113,
        "dialogID": 401643004,
        "protectTime": 0.5
      },
      {
        "$type": "FJKIHHKJLMJ",
        "type": "CAMERA_MOVE",
        "duration": 0.5,
        "actionId": 147,
        "camPosOffset": {
          "x": 9.154000282287598,
          "y": 11.751999855041504,
          "z": 409.11700439453125
        },
        "camForwardTargetOffset": {
          "x": 9.942000389099121,
          "y": 11.138999938964844,
          "z": 409.06298828125
        },
        "camFov": 35.0,
        "lerpPattern": 6,
        "cameraBlendType": "EaseInOutCubic",
        "needZAxisRotate": true,
        "rotateAngle": 0.0010000000474974513,
        "openCameraDither": false,
        "targetNpcAlias": "",
        "closeTreeLeafDither": true,
        "KJOEFBPOIIH": "",
        "IICFKKEBIEC": "",
        "EGEHEJEBLBJ": "",
        "cutFrameTrans": {
          "_elevMinValue": -50.0,
          "_elevMaxValue": 50.0,
          "_poleMinValue": -50.0,
          "_poleMaxValue": 50.0
        }
      },
      {
        "$type": "MoleMole.Config.ConfigNewCameraShakeAction",
        "type": "NEW_CAMERA_SHAKE",
        "duration": 5.0,
        "actionId": 148,
        "_shakeType": "INFINITE_ROTATION",
        "seed": 0.257999986410141,
        "amplitudeBase": {
          "x": 1.399999976158142,
          "y": 1.2000000476837158,
          "z": 1.7999999523162842
        },
        "frequencyBase": {
          "x": 0.5,
          "y": 0.5,
          "z": 0.4000000059604645
        },
        "amplitudeCurve": {
          "keyframes": [
            {
              "value": 1.0
            },
            {
              "time": 1.0,
              "value": 1.0
            }
          ]
        },
        "frequencyCurve": {
          "keyframes": [
            {
              "value": 1.0
            },
            {
              "time": 1.0,
              "value": 1.0
            }
          ]
        }
      }
    ],
    [
      {
        "$type": "PKKMAMONGEO",
        "type": "DIALOG",
        "aliasList": [
          "30586"
        ],
        "actionId": 115,
        "dialogID": 401643005,
        "protectTime": 0.5
      },
      {
        "$type": "FJKIHHKJLMJ",
        "type": "CAMERA_MOVE",
        "duration": 0.5,
        "actionId": 149,
        "camPosOffset": {
          "x": 14.57800006866455,
          "y": 8.71399974822998,
          "z": 409.02301025390625
        },
        "camForwardTargetOffset": {
          "x": 15.28600025177002,
          "y": 8.008000373840332,
          "z": 408.98199462890625
        },
        "camFov": 20.0,
        "lerpPattern": 6,
        "cameraBlendType": "EaseInOutCubic",
        "needZAxisRotate": true,
        "rotateAngle": 0.0010000000474974513,
        "openCameraDither": false,
        "targetNpcAlias": "",
        "closeTreeLeafDither": true,
        "KJOEFBPOIIH": "",
        "IICFKKEBIEC": "",
        "EGEHEJEBLBJ": "",
        "cutFrameTrans": {
          "_elevMinValue": -50.0,
          "_elevMaxValue": 50.0,
          "_poleMinValue": -50.0,
          "_poleMaxValue": 50.0
        }
      },
      {
        "$type": "LJLMDHDCAMK",
        "type": "LOOK_AT",
        "aliasList": [
          "30586"
        ],
        "actionId": 150,
        "_flag": 64,
        "enableHead": true,
        "headRotateVec": {
          "y": 314.2040100097656
        },
        "headTurnTime": 0.5,
        "targetNpcAlias": "",
        "lookAtTargetType": "NONE",
        "openBackProtect": true,
        "backProtectAngle": 10.0,
        "targetNpcLookAtPoint": "",
        "OAFJBHJHLJG": ""
      },
      {
        "$type": "MoleMole.Config.ConfigNewCameraShakeAction",
        "type": "NEW_CAMERA_SHAKE",
        "actionId": 153,
        "_shakeType": "CLOSE"
      },
      {
        "$type": "FABLGECDBCH",
        "type": "BODY_LANG",
        "aliasList": [
          "30587"
        ],
        "actionId": 160,
        "_flag": 131072,
        "bodyLangParam": 1,
        "forceDoFreeStyle": true,
        "canDoRepeatFreeStyle": false,
        "cantBackToIdleWhenSitLoop": true,
        "eventPatternSuiteKey": "",
        "FOHHKFAIAAJ": ""
      },
      {
        "$type": "FABLGECDBCH",
        "type": "BODY_LANG",
        "aliasList": [
          "30586"
        ],
        "actionId": 175,
        "_flag": 131072,
        "bodyLangParam": 1,
        "forceDoFreeStyle": true,
        "canDoRepeatFreeStyle": false,
        "cantBackToIdleWhenSitLoop": true,
        "eventPatternSuiteKey": "",
        "FOHHKFAIAAJ": ""
      }
    ],
    [
      {
        "$type": "PKKMAMONGEO",
        "type": "DIALOG",
        "aliasList": [
          "30587"
        ],
        "actionId": 117,
        "dialogID": 401643006,
        "protectTime": 0.5
      },
      {
        "$type": "FJKIHHKJLMJ",
        "type": "CAMERA_MOVE",
        "duration": 0.5,
        "actionId": 154,
        "camPosOffset": {
          "x": 14.333999633789062,
          "y": 7.790999889373779,
          "z": 409.27899169921875
        },
        "camForwardTargetOffset": {
          "x": 15.255999565124512,
          "y": 7.724999904632568,
          "z": 408.8970031738281
        },
        "camFov": 20.0,
        "lerpPattern": 6,
        "cameraBlendType": "EaseInOutCubic",
        "needZAxisRotate": true,
        "rotateAngle": 0.0010000000474974513,
        "openCameraDither": false,
        "targetNpcAlias": "",
        "closeTreeLeafDither": true,
        "KJOEFBPOIIH": "",
        "IICFKKEBIEC": "",
        "EGEHEJEBLBJ": "",
        "cutFrameTrans": {
          "_elevMinValue": -50.0,
          "_elevMaxValue": 50.0,
          "_poleMinValue": -50.0,
          "_poleMaxValue": 50.0
        }
      },
      {
        "$type": "MoleMole.Config.ConfigTeleportToAction",
        "type": "TELEPORT_TO",
        "aliasList": [
          "30587"
        ],
        "actionId": 156,
        "position": {
          "x": 17.531999588012695,
          "y": 7.3979997634887695,
          "z": 407.59100341796875
        },
        "forward": {
          "x": -5.252999782562256,
          "y": 0.2720000147819519,
          "z": 3.757999897003174
        },
        "openLongDisTeleport": true,
        "syncForward": true,
        "_posBindMovingTargetKey": "",
        "_forwardBindMovingTargetKey": ""
      },
      {
        "$type": "FABLGECDBCH",
        "type": "BODY_LANG",
        "aliasList": [
          "30587"
        ],
        "actionId": 158,
        "_flag": 131072,
        "bodyLangParam": 9040,
        "forceDoFreeStyle": true,
        "canDoRepeatFreeStyle": false,
        "cantBackToIdleWhenSitLoop": true,
        "eventPatternSuiteKey": "",
        "FOHHKFAIAAJ": ""
      },
      {
        "$type": "LJLMDHDCAMK",
        "type": "LOOK_AT",
        "aliasList": [
          "30586"
        ],
        "actionId": 162,
        "_flag": 64,
        "enableHead": true,
        "headRotateVec": {
          "x": 297.95001220703125,
          "y": 355.52099609375
        },
        "headTurnTime": 0.5,
        "targetNpcAlias": "",
        "lookAtTargetType": "NONE",
        "openBackProtect": true,
        "backProtectAngle": 10.0,
        "targetNpcLookAtPoint": "",
        "OAFJBHJHLJG": ""
      }
    ],
    [
      {
        "$type": "PKKMAMONGEO",
        "type": "DIALOG",
        "aliasList": [
          "30587"
        ],
        "actionId": 119,
        "dialogID": 401643007,
        "protectTime": 0.5
      },
      {
        "$type": "FJKIHHKJLMJ",
        "type": "CAMERA_MOVE",
        "duration": 0.5,
        "actionId": 163,
        "camPosOffset": {
          "x": 9.154000282287598,
          "y": 11.751999855041504,
          "z": 409.11700439453125
        },
        "camForwardTargetOffset": {
          "x": 9.942000389099121,
          "y": 11.138999938964844,
          "z": 409.06298828125
        },
        "camFov": 35.0,
        "lerpPattern": 6,
        "cameraBlendType": "EaseInOutCubic",
        "needZAxisRotate": true,
        "rotateAngle": 0.0010000000474974513,
        "openCameraDither": false,
        "targetNpcAlias": "",
        "closeTreeLeafDither": true,
        "KJOEFBPOIIH": "",
        "IICFKKEBIEC": "",
        "EGEHEJEBLBJ": "",
        "cutFrameTrans": {
          "_elevMinValue": -50.0,
          "_elevMaxValue": 50.0,
          "_poleMinValue": -50.0,
          "_poleMaxValue": 50.0
        }
      },
      {
        "$type": "MoleMole.Config.ConfigNewCameraShakeAction",
        "type": "NEW_CAMERA_SHAKE",
        "duration": 5.0,
        "actionId": 164,
        "_shakeType": "INFINITE_ROTATION",
        "seed": 0.257999986410141,
        "amplitudeBase": {
          "x": 1.399999976158142,
          "y": 1.2000000476837158,
          "z": 1.7999999523162842
        },
        "frequencyBase": {
          "x": 0.5,
          "y": 0.5,
          "z": 0.4000000059604645
        },
        "amplitudeCurve": {
          "keyframes": [
            {
              "value": 1.0
            },
            {
              "time": 1.0,
              "value": 1.0
            }
          ]
        },
        "frequencyCurve": {
          "keyframes": [
            {
              "value": 1.0
            },
            {
              "time": 1.0,
              "value": 1.0
            }
          ]
        }
      },
      {
        "$type": "FJKIHHKJLMJ",
        "type": "CAMERA_MOVE",
        "delayTime": 0.10000000149011612,
        "duration": 0.5,
        "actionId": 165,
        "camPosOffset": {
          "x": 9.154000282287598,
          "y": 11.751999855041504,
          "z": 409.11700439453125
        },
        "camForwardTargetOffset": {
          "x": 10.00100040435791,
          "y": 11.230999946594238,
          "z": 409.0119934082031
        },
        "camFov": 35.0,
        "cameraBlendType": "EaseInOutCubic",
        "needZAxisRotate": true,
        "rotateAngle": 358.48699951171875,
        "openCameraDither": false,
        "targetNpcAlias": "",
        "closeTreeLeafDither": true,
        "KJOEFBPOIIH": "",
        "IICFKKEBIEC": "",
        "EGEHEJEBLBJ": "",
        "cutFrameTrans": {
          "_elevMinValue": -50.0,
          "_elevMaxValue": 50.0,
          "_poleMinValue": -50.0,
          "_poleMaxValue": 50.0
        }
      },
      {
        "$type": "FJKIHHKJLMJ",
        "type": "CAMERA_MOVE",
        "delayTime": 1.3370000123977661,
        "duration": 0.5,
        "actionId": 166,
        "camPosOffset": {
          "x": 9.154000282287598,
          "y": 11.751999855041504,
          "z": 409.11700439453125
        },
        "camForwardTargetOffset": {
          "x": 9.984000205993652,
          "y": 11.196000099182129,
          "z": 409.0820007324219
        },
        "camFov": 35.0,
        "cameraBlendType": "EaseInOutCubic",
        "needZAxisRotate": true,
        "rotateAngle": 359.8500061035156,
        "openCameraDither": false,
        "targetNpcAlias": "",
        "closeTreeLeafDither": true,
        "KJOEFBPOIIH": "",
        "IICFKKEBIEC": "",
        "EGEHEJEBLBJ": "",
        "cutFrameTrans": {
          "_elevMinValue": -50.0,
          "_elevMaxValue": 50.0,
          "_poleMinValue": -50.0,
          "_poleMaxValue": 50.0
        }
      },
      {
        "$type": "FJKIHHKJLMJ",
        "type": "CAMERA_MOVE",
        "delayTime": 2.2750000953674316,
        "duration": 0.5,
        "actionId": 167,
        "camPosOffset": {
          "x": 9.154000282287598,
          "y": 11.751999855041504,
          "z": 409.11700439453125
        },
        "camForwardTargetOffset": {
          "x": 9.99899959564209,
          "y": 11.229000091552734,
          "z": 409.0069885253906
        },
        "camFov": 35.0,
        "cameraBlendType": "EaseInOutCubic",
        "needZAxisRotate": true,
        "rotateAngle": 358.9649963378906,
        "openCameraDither": false,
        "targetNpcAlias": "",
        "closeTreeLeafDither": true,
        "KJOEFBPOIIH": "",
        "IICFKKEBIEC": "",
        "EGEHEJEBLBJ": "",
        "cutFrameTrans": {
          "_elevMinValue": -50.0,
          "_elevMaxValue": 50.0,
          "_poleMinValue": -50.0,
          "_poleMaxValue": 50.0
        }
      },
      {
        "$type": "FABLGECDBCH",
        "type": "BODY_LANG",
        "aliasList": [
          "30587"
        ],
        "actionId": 169,
        "_flag": 131072,
        "bodyLangParam": 9030,
        "forceDoFreeStyle": true,
        "canDoRepeatFreeStyle": false,
        "cantBackToIdleWhenSitLoop": true,
        "eventPatternSuiteKey": "",
        "FOHHKFAIAAJ": ""
      },
      {
        "$type": "FABLGECDBCH",
        "type": "BODY_LANG",
        "delayTime": 0.8100000023841858,
        "aliasList": [
          "30587"
        ],
        "actionId": 170,
        "_flag": 131072,
        "bodyLangParam": 9040,
        "forceDoFreeStyle": true,
        "canDoRepeatFreeStyle": false,
        "cantBackToIdleWhenSitLoop": true,
        "eventPatternSuiteKey": "",
        "FOHHKFAIAAJ": ""
      },
      {
        "$type": "FABLGECDBCH",
        "type": "BODY_LANG",
        "delayTime": 1.8980000019073486,
        "aliasList": [
          "30587"
        ],
        "actionId": 171,
        "_flag": 131072,
        "bodyLangParam": 9030,
        "forceDoFreeStyle": true,
        "canDoRepeatFreeStyle": false,
        "cantBackToIdleWhenSitLoop": true,
        "eventPatternSuiteKey": "",
        "FOHHKFAIAAJ": ""
      },
      {
        "$type": "FABLGECDBCH",
        "type": "BODY_LANG",
        "delayTime": 2.878999948501587,
        "aliasList": [
          "30587"
        ],
        "actionId": 172,
        "_flag": 131072,
        "bodyLangParam": 9040,
        "forceDoFreeStyle": true,
        "canDoRepeatFreeStyle": false,
        "cantBackToIdleWhenSitLoop": true,
        "eventPatternSuiteKey": "",
        "FOHHKFAIAAJ": ""
      }
    ],
    [
      {
        "$type": "PKKMAMONGEO",
        "type": "DIALOG",
        "aliasList": [
          "30586"
        ],
        "actionId": 121,
        "dialogID": 401643008,
        "protectTime": 1.2589999437332153
      },
      {
        "$type": "FJKIHHKJLMJ",
        "type": "CAMERA_MOVE",
        "duration": 0.5,
        "actionId": 168,
        "camPosOffset": {
          "x": 17.878000259399414,
          "y": 7.63100004196167,
          "z": 406.0199890136719
        },
        "camForwardTargetOffset": {
          "x": 17.41200065612793,
          "y": 7.633999824523926,
          "z": 406.9049987792969
        },
        "camFov": 20.0,
        "lerpPattern": 6,
        "cameraBlendType": "EaseInOutCubic",
        "needZAxisRotate": true,
        "rotateAngle": 0.0010000000474974513,
        "openCameraDither": false,
        "targetNpcAlias": "",
        "closeTreeLeafDither": true,
        "KJOEFBPOIIH": "",
        "IICFKKEBIEC": "",
        "EGEHEJEBLBJ": "",
        "cutFrameTrans": {
          "_elevMinValue": -50.0,
          "_elevMaxValue": 50.0,
          "_poleMinValue": -50.0,
          "_poleMaxValue": 50.0
        }
      },
      {
        "$type": "MoleMole.Config.ConfigNewCameraShakeAction",
        "type": "NEW_CAMERA_SHAKE",
        "actionId": 173,
        "_shakeType": "CLOSE"
      },
      {
        "$type": "LLGANGLOEEO",
        "type": "STEER_TO",
        "duration": 1.0,
        "aliasList": [
          "30586"
        ],
        "actionId": 179,
        "_flag": 32,
        "steerType": "ABSOLUTE",
        "steerDir": {
          "x": 15.9350004196167,
          "y": 7.375,
          "z": 408.72100830078125
        },
        "useSteerAnim": true,
        "interruptFreestyle": true,
        "forceSteer": true,
        "targetNpcAlias": "",
        "ignoreY": true,
        "fixInterNull": true,
        "advancedMaxSteerAngle": 150.0,
        "advancedMinSteerAngle": 40.0,
        "OAFJBHJHLJG": ""
      },
      {
        "$type": "LJLMDHDCAMK",
        "type": "LOOK_AT",
        "aliasList": [
          "30586"
        ],
        "actionId": 180,
        "_flag": 64,
        "headTurnTime": 0.5,
        "targetNpcAlias": "",
        "openBackProtect": true,
        "backProtectAngle": 10.0,
        "targetNpcLookAtPoint": "",
        "OAFJBHJHLJG": ""
      },
      {
        "$type": "FJKIHHKJLMJ",
        "type": "CAMERA_MOVE",
        "delayTime": 0.10000000149011612,
        "duration": 1.0,
        "actionId": 181,
        "camPosOffset": {
          "x": 16.242000579833984,
          "y": 7.749000072479248,
          "z": 407.9849853515625
        },
        "camForwardTargetOffset": {
          "x": 15.777000427246094,
          "y": 7.751999855041504,
          "z": 408.8699951171875
        },
        "camFov": 20.0,
        "cameraBlendType": "EaseOutQuart",
        "needZAxisRotate": true,
        "rotateAngle": 7.77400016784668,
        "openCameraDither": false,
        "targetNpcAlias": "",
        "closeTreeLeafDither": true,
        "KJOEFBPOIIH": "",
        "IICFKKEBIEC": "",
        "EGEHEJEBLBJ": "",
        "cutFrameTrans": {
          "_elevMinValue": -50.0,
          "_elevMaxValue": 50.0,
          "_poleMinValue": -50.0,
          "_poleMaxValue": 50.0
        }
      }
    ],
    [
      {
        "$type": "PKKMAMONGEO",
        "type": "DIALOG",
        "aliasList": [
          "30563"
        ],
        "actionId": 123,
        "dialogID": 401643009,
        "protectTime": 0.5
      },
      {
        "$type": "FJKIHHKJLMJ",
        "type": "CAMERA_MOVE",
        "duration": 0.5,
        "actionId": 182,
        "camPosOffset": {
          "x": 11.168999671936035,
          "y": 10.795000076293945,
          "z": 408.9800109863281
        },
        "camForwardTargetOffset": {
          "x": 11.956999778747559,
          "y": 10.182000160217285,
          "z": 408.9259948730469
        },
        "camFov": 55.0,
        "lerpPattern": 6,
        "cameraBlendType": "EaseInOutCubic",
        "needZAxisRotate": true,
        "rotateAngle": 0.0010000000474974513,
        "openCameraDither": false,
        "targetNpcAlias": "",
        "closeTreeLeafDither": true,
        "KJOEFBPOIIH": "",
        "IICFKKEBIEC": "",
        "EGEHEJEBLBJ": "",
        "cutFrameTrans": {
          "_elevMinValue": -50.0,
          "_elevMaxValue": 50.0,
          "_poleMinValue": -50.0,
          "_poleMaxValue": 50.0
        }
      },
      {
        "$type": "MoleMole.Config.ConfigNewCameraShakeAction",
        "type": "NEW_CAMERA_SHAKE",
        "duration": 5.0,
        "actionId": 183,
        "_shakeType": "INFINITE_ROTATION",
        "seed": 0.257999986410141,
        "amplitudeBase": {
          "x": 1.399999976158142,
          "y": 1.2000000476837158,
          "z": 1.7999999523162842
        },
        "frequencyBase": {
          "x": 0.5,
          "y": 0.5,
          "z": 0.4000000059604645
        },
        "amplitudeCurve": {
          "keyframes": [
            {
              "value": 1.0
            },
            {
              "time": 1.0,
              "value": 1.0
            }
          ]
        },
        "frequencyCurve": {
          "keyframes": [
            {
              "value": 1.0
            },
            {
              "time": 1.0,
              "value": 1.0
            }
          ]
        }
      },
      {
        "$type": "FJKIHHKJLMJ",
        "type": "CAMERA_MOVE",
        "delayTime": 0.10000000149011612,
        "duration": 5.361999988555908,
        "actionId": 185,
        "camPosOffset": {
          "x": 5.869999885559082,
          "y": 13.529000282287598,
          "z": 409.6579895019531
        },
        "camForwardTargetOffset": {
          "x": 6.703000068664551,
          "y": 12.982000350952148,
          "z": 409.5780029296875
        },
        "camFov": 55.0,
        "cameraBlendType": "EaseInQuad",
        "needZAxisRotate": true,
        "rotateAngle": 0.0010000000474974513,
        "openCameraDither": false,
        "targetNpcAlias": "",
        "closeTreeLeafDither": true,
        "KJOEFBPOIIH": "",
        "IICFKKEBIEC": "",
        "EGEHEJEBLBJ": "",
        "cutFrameTrans": {
          "_elevMinValue": -50.0,
          "_elevMaxValue": 50.0,
          "_poleMinValue": -50.0,
          "_poleMaxValue": 50.0
        }
      },
      {
        "$type": "FJKIHHKJLMJ",
        "type": "CAMERA_MOVE",
        "delayTime": 5.435999870300293,
        "duration": 0.5,
        "actionId": 187,
        "camPosOffset": {
          "x": 9.281999588012695,
          "y": 9.02400016784668,
          "z": 409.0069885253906
        },
        "camForwardTargetOffset": {
          "x": 8.288000106811523,
          "y": 8.92199993133545,
          "z": 409.0639953613281
        },
        "camFov": 20.0,
        "lerpPattern": 6,
        "cameraBlendType": "EaseInOutCubic",
        "needZAxisRotate": true,
        "rotateAngle": 0.0010000000474974513,
        "openCameraDither": false,
        "targetNpcAlias": "",
        "closeTreeLeafDither": true,
        "useDissolve": true,
        "dissolveTime": 0.5,
        "KJOEFBPOIIH": "",
        "IICFKKEBIEC": "",
        "EGEHEJEBLBJ": "",
        "cutFrameTrans": {
          "_elevMinValue": -50.0,
          "_elevMaxValue": 50.0,
          "_poleMinValue": -50.0,
          "_poleMaxValue": 50.0
        }
      },
      {
        "$type": "MoleMole.Config.ConfigNewCameraShakeAction",
        "type": "NEW_CAMERA_SHAKE",
        "delayTime": 5.435999870300293,
        "actionId": 188,
        "_shakeType": "CLOSE"
      },
      {
        "$type": "FJKIHHKJLMJ",
        "type": "CAMERA_MOVE",
        "delayTime": 5.636000156402588,
        "duration": 1.4500000476837158,
        "actionId": 191,
        "camPosOffset": {
          "x": 9.093000411987305,
          "y": 9.005000114440918,
          "z": 409.01800537109375
        },
        "camForwardTargetOffset": {
          "x": 8.100000381469727,
          "y": 8.902999877929688,
          "z": 409.07501220703125
        },
        "camFov": 20.0,
        "cameraBlendType": "EaseOutQuad",
        "needZAxisRotate": true,
        "rotateAngle": 0.0010000000474974513,
        "openCameraDither": false,
        "targetNpcAlias": "",
        "closeTreeLeafDither": true,
        "KJOEFBPOIIH": "",
        "IICFKKEBIEC": "",
        "EGEHEJEBLBJ": "",
        "cutFrameTrans": {
          "_elevMinValue": -50.0,
          "_elevMaxValue": 50.0,
          "_poleMinValue": -50.0,
          "_poleMaxValue": 50.0
        }
      },
      {
        "$type": "MoleMole.Config.ConfigTeleportToAction",
        "type": "TELEPORT_TO",
        "aliasList": [
          "LocalAvatar"
        ],
        "actionId": 203,
        "position": {
          "x": 7.473999977111816,
          "y": 7.468999862670898,
          "z": 409.125
        },
        "forward": {
          "x": 6.264999866485596,
          "y": 0.20100000500679016,
          "z": -0.27000001072883606
        },
        "openLongDisTeleport": true,
        "syncForward": true,
        "_posBindMovingTargetKey": "",
        "_forwardBindMovingTargetKey": ""
      },
      {
        "$type": "MoleMole.Config.ConfigVisibleInterAction",
        "type": "VISIBLE",
        "aliasList": [
          "LocalAvatar"
        ],
        "actionId": 204,
        "isVisible": true,
        "_extraParam": ""
      },
      {
        "$type": "CPJKOIHIPBE",
        "type": "EMO_SYNC",
        "aliasList": [
          "LocalAvatar"
        ],
        "actionId": 208,
        "_flag": 256,
        "dataPath": "",
        "phonemePath": "Cs_Emo_Avatar_Common/Cs_Emo_Avatar_Angry01",
        "emotionPath": "Cs_Emo_Avatar_Common/Cs_Emo_Avatar_Doubt01_B",
        "mateDataPath": "",
        "matePhonemePath": "",
        "mateEmotionPath": "",
        "phonemePathHashList": [
          14296606849723709100,
          5508348580450379567,
          7627497203169383327,
          8979581647593659876
        ],
        "emotionPathHashList": [
          2728448682492692904,
          1898638695637929735,
          6744657920390554177,
          3457791262489437525
        ],
        "FMDPBECPELH": "",
        "ADKBLPOKGIK": ""
      }
    ],
    [
      {
        "$type": "PKKMAMONGEO",
        "type": "DIALOG",
        "aliasList": [
          "1065"
        ],
        "actionId": 125,
        "dialogID": 401643010,
        "protectTime": 0.5
      },
      {
        "$type": "FJKIHHKJLMJ",
        "type": "CAMERA_MOVE",
        "duration": 0.5,
        "actionId": 193,
        "camPosOffset": {
          "x": 8.277000427246094,
          "y": 8.961999893188477,
          "z": 409.0539855957031
        },
        "camForwardTargetOffset": {
          "x": 7.283999919891357,
          "y": 8.859999656677246,
          "z": 409.11199951171875
        },
        "camFov": 20.0,
        "lerpPattern": 6,
        "cameraBlendType": "EaseOutQuad",
        "needZAxisRotate": true,
        "rotateAngle": 0.0010000000474974513,
        "openCameraDither": false,
        "targetNpcAlias": "",
        "closeTreeLeafDither": true,
        "KJOEFBPOIIH": "",
        "IICFKKEBIEC": "",
        "EGEHEJEBLBJ": "",
        "cutFrameTrans": {
          "_elevMinValue": -50.0,
          "_elevMaxValue": 50.0,
          "_poleMinValue": -50.0,
          "_poleMaxValue": 50.0
        }
      },
      {
        "$type": "CPJKOIHIPBE",
        "type": "EMO_SYNC",
        "aliasList": [
          "LocalAvatar"
        ],
        "actionId": 201,
        "_flag": 256,
        "dataPath": "Cs_Emo_Avatar_Simple_Common_Set/Cs_Emo_Avatar_Talk/Cs_Emo_Avatar_Event/Cs_Emo_Avatar_Fairy/Cs_Emo_401643010",
        "phonemePath": "",
        "emotionPath": "",
        "mateDataPath": "",
        "matePhonemePath": "",
        "mateEmotionPath": "",
        "enableBlink": false,
        "dataPathHashList": [
          1014725875781108154,
          6045743981207682210,
          6557622756769354403,
          14068113775162139470
        ],
        "FMDPBECPELH": "",
        "ADKBLPOKGIK": ""
      },
      {
        "$type": "LJLMDHDCAMK",
        "type": "LOOK_AT",
        "aliasList": [
          "LocalAvatar"
        ],
        "actionId": 202,
        "_flag": 64,
        "enableHead": true,
        "headRotateVec": {
          "x": 25.506999969482422,
          "y": 11.902000427246094
        },
        "headTurnTime": 0.5,
        "targetNpcAlias": "",
        "lookAtTargetType": "NONE",
        "openBackProtect": true,
        "backProtectAngle": 10.0,
        "targetNpcLookAtPoint": "",
        "OAFJBHJHLJG": ""
      },
      {
        "$type": "MoleMole.Config.ConfigNewCameraShakeAction",
        "type": "NEW_CAMERA_SHAKE",
        "actionId": 206,
        "_shakeType": "CLOSE"
      }
    ],
    [
      {
        "$type": "PKKMAMONGEO",
        "type": "DIALOG",
        "aliasList": [
          "1065"
        ],
        "actionId": 127,
        "dialogID": 401643011,
        "protectTime": 0.5
      },
      {
        "$type": "FJKIHHKJLMJ",
        "type": "CAMERA_MOVE",
        "duration": 0.5,
        "actionId": 196,
        "camPosOffset": {
          "x": 6.491000175476074,
          "y": 8.899999618530273,
          "z": 409.23699951171875
        },
        "camForwardTargetOffset": {
          "x": 7.4720001220703125,
          "y": 8.793000221252441,
          "z": 409.072998046875
        },
        "lerpPattern": 6,
        "cameraBlendType": "EaseInOutCubic",
        "needZAxisRotate": true,
        "rotateAngle": 0.0010000000474974513,
        "openCameraDither": false,
        "targetNpcAlias": "",
        "closeTreeLeafDither": true,
        "KJOEFBPOIIH": "",
        "IICFKKEBIEC": "",
        "EGEHEJEBLBJ": "",
        "cutFrameTrans": {
          "_elevMinValue": -50.0,
          "_elevMaxValue": 50.0,
          "_poleMinValue": -50.0,
          "_poleMaxValue": 50.0
        }
      },
      {
        "$type": "CPJKOIHIPBE",
        "type": "EMO_SYNC",
        "aliasList": [
          "LocalAvatar"
        ],
        "actionId": 199,
        "_flag": 320,
        "dataPath": "Cs_Emo_Avatar_Simple_Common_Set/Cs_Emo_Avatar_Talk/Cs_Emo_Avatar_Event/Cs_Emo_Avatar_Fairy/Cs_Emo_401643011",
        "phonemePath": "",
        "emotionPath": "",
        "mateDataPath": "",
        "matePhonemePath": "",
        "mateEmotionPath": "",
        "dataPathHashList": [
          2242082120033812215,
          3170032603822683072,
          13554594622495694112,
          18193649020078869439
        ],
        "FMDPBECPELH": "",
        "ADKBLPOKGIK": ""
      },
      {
        "$type": "LJLMDHDCAMK",
        "type": "LOOK_AT",
        "delayTime": 0.3619999885559082,
        "aliasList": [
          "LocalAvatar"
        ],
        "actionId": 200,
        "_flag": 64,
        "enableHead": true,
        "headRotateVec": {
          "x": 9.456999778747559,
          "y": 358.6730041503906
        },
        "headTurnTime": 1.5,
        "targetNpcAlias": "",
        "lookAtTargetType": "NONE",
        "openBackProtect": true,
        "backProtectAngle": 10.0,
        "targetNpcLookAtPoint": "",
        "OAFJBHJHLJG": ""
      }
    ],
    [
      {
        "$type": "MoleMole.Config.ConfigTimeProtectAction",
        "type": "TIME_PROTECT",
        "duration": 0.10000000149011612,
        "actionId": 105
      },
      {
        "$type": "FJKIHHKJLMJ",
        "type": "CAMERA_MOVE",
        "duration": 1.0,
        "actionId": 197,
        "cameraPosType": "EXIT",
        "camPosOffset": {
          "x": 6.491000175476074,
          "y": 8.899999618530273,
          "z": 409.23699951171875
        },
        "camTargetType": "Other",
        "camForwardTargetOffset": {
          "x": 6.188000202178955,
          "y": 99.51899719238281,
          "z": 0.0010000000474974513
        },
        "cameraBlendType": "EaseInOutQuad",
        "needZAxisRotate": true,
        "rotateAngle": 0.0010000000474974513,
        "openCameraDither": false,
        "targetNpcAlias": "",
        "closeTreeLeafDither": true,
        "KJOEFBPOIIH": "",
        "IICFKKEBIEC": "",
        "EGEHEJEBLBJ": "",
        "cutFrameTrans": {
          "_elevMinValue": -50.0,
          "_elevMaxValue": 50.0,
          "_poleMinValue": -50.0,
          "_poleMaxValue": 50.0
        }
      },
      {
        "$type": "MoleMole.Config.ConfigSimpleBlackScreenAction",
        "type": "SIMPLE_BLACK_SCREEN",
        "actionId": 207,
        "durationToBlack": 0.5,
        "durationKeepBlack": 2.5,
        "durationFromBlack": 0.5,
        "textMapID": "",
        "useTextFade": true,
        "_changeAudioState": true
      }
    ]
  ],
  "groupId": [
    {
      "grpId": 2221803354,
      "nextGrpId": 2221803355,
      "_noCircleNextGrpId": 2221803355
    },
    {
      "index": 1,
      "grpId": 2221803355,
      "nextGrpId": 2221803356,
      "_noCircleNextGrpId": 2221803356
    },
    {
      "index": 2,
      "grpId": 2221803356,
      "nextGrpId": 2221803357,
      "_noCircleNextGrpId": 2221803357
    },
    {
      "index": 3,
      "grpId": 2221803357,
      "nextGrpId": 2221803358,
      "_noCircleNextGrpId": 2221803358
    },
    {
      "index": 4,
      "grpId": 2221803358,
      "nextGrpId": 2221803359,
      "_noCircleNextGrpId": 2221803359
    },
    {
      "index": 5,
      "grpId": 2221803359,
      "nextGrpId": 2221803360,
      "_noCircleNextGrpId": 2221803360
    },
    {
      "index": 6,
      "grpId": 2221803360,
      "nextGrpId": 2221803361,
      "_noCircleNextGrpId": 2221803361
    },
    {
      "index": 7,
      "grpId": 2221803361,
      "nextGrpId": 2221803362,
      "_noCircleNextGrpId": 2221803362
    },
    {
      "index": 8,
      "grpId": 2221803362,
      "nextGrpId": 156427286,
      "_noCircleNextGrpId": 156427286
    },
    {
      "index": 9,
      "grpId": 156427286,
      "nextGrpId": 156427287,
      "_noCircleNextGrpId": 156427287
    },
    {
      "index": 10,
      "grpId": 156427287,
      "nextGrpId": 156427288,
      "_noCircleNextGrpId": 156427288
    },
    {
      "index": 11,
      "grpId": 156427288,
      "nextGrpId": 156427289,
      "_noCircleNextGrpId": 156427289
    },
    {
      "index": 12,
      "grpId": 156427289,
      "nextGrpId": 156427290,
      "_noCircleNextGrpId": 156427290
    }
  ],
  "freeStyleDic": {
    "1065": []
  },
  "NPFDEBDMHJP": 156427289
}