{
  "luaDataPath": "",
  "dontUseDefaultFinish": true,
  "startBlackKeepTime": 0.5,
  "entityBan": "",
  "disableNpcLod": true,
  "isAutoBanNpc": true,
  "isBanWidgetPet": true,
  "protectNpcMobileLod": true,
  "entityBanSetting": [
    {
      "isBlack": true,
      "entityType": "Monster",
      "entityIds": [
        21010201
      ]
    },
    {
      "isBlack": true,
      "entityType": "Gadget",
      "entityIds": [
        70293322,
        70293379,
        70293287,
        70293252,
        70293411,
        70293320
      ]
    }
  ],
  "talkFlag": 103,
  "startFade": {
    "startFadeInDuration": 0.5,
    "startFadeOutDuration": 0.5
  },
  "endFade": {
    "startFadeOutDuration": 0.0
  },
  "actors": [
    {
      "alias": "Avatar",
      "visible": true,
      "bornPointName": "[100_910001146:342.907,514.630,269.943]",
      "relativePosType": "AVATAR_NEW",
      "relativePosNpcAlias": "",
      "_notDestroyInTalk": true,
      "_bindMovingTargetKey": ""
    },
    {
      "alias": "AvatarNpc",
      "visible": true,
      "bornPointName": "[100_910001146:342.907,514.630,269.943]",
      "removeActorType": "NEW_REMOVE",
      "relativePosType": "AVATAR_NEW",
      "relativePosNpcAlias": "",
      "_notDestroyInTalk": true,
      "_bindMovingTargetKey": ""
    },
    {
      "configID": 1005,
      "alias": "1005",
      "visible": true,
      "bornPointName": "[100_910001147:343.048,514.630,271.346,0.000,197.117,0.000]",
      "removeActorType": "NEW_REMOVE",
      "relativePosType": "AVATAR_NEW",
      "relativePosNpcAlias": "",
      "_notDestroyInTalk": true,
      "_bindMovingTargetKey": ""
    },
    {
      "configID": 30576,
      "alias": "30576",
      "visible": true,
      "bornPointName": "[100_910001146:342.907,514.630,269.943]",
      "removeActorType": "NEW_REMOVE",
      "relativePosType": "AVATAR_NEW",
      "relativePosNpcAlias": "",
      "_notDestroyInTalk": true,
      "_bindMovingTargetKey": ""
    },
    {
      "configID": 30577,
      "alias": "30577",
      "visible": true,
      "bornPointName": "[100_910001146:342.907,514.630,269.943]",
      "removeActorType": "NEW_REMOVE",
      "relativePosType": "AVATAR_NEW",
      "relativePosNpcAlias": "",
      "_notDestroyInTalk": true,
      "_bindMovingTargetKey": ""
    },
    {
      "configID": 30563,
      "alias": "30563",
      "visible": true,
      "bornPointName": "[100_910001146:342.907,514.630,269.943]",
      "removeActorType": "NEW_REMOVE",
      "relativePosType": "AVATAR_NEW",
      "relativePosNpcAlias": "",
      "_notDestroyInTalk": true,
      "_bindMovingTargetKey": ""
    },
    {
      "configID": 30580,
      "alias": "30580",
      "visible": true,
      "bornPointName": "[100_910001146:342.907,514.630,269.943]",
      "removeActorType": "NEW_REMOVE",
      "relativePosType": "AVATAR_NEW",
      "relativePosNpcAlias": "",
      "_notDestroyInTalk": true,
      "_bindMovingTargetKey": ""
    },
    {
      "configID": 30581,
      "alias": "30581",
      "visible": true,
      "bornPointName": "[100_910001146:342.907,514.630,269.943]",
      "removeActorType": "NEW_REMOVE",
      "relativePosType": "AVATAR_NEW",
      "relativePosNpcAlias": "",
      "_notDestroyInTalk": true,
      "_bindMovingTargetKey": ""
    },
    {
      "configID": 30582,
      "alias": "30582",
      "visible": true,
      "bornPointName": "[100_910001146:342.907,514.630,269.943]",
      "removeActorType": "NEW_REMOVE",
      "relativePosType": "AVATAR_NEW",
      "relativePosNpcAlias": "",
      "_notDestroyInTalk": true,
      "_bindMovingTargetKey": ""
    },
    {
      "configID": 30558,
      "alias": "30558",
      "visible": true,
      "bornPointName": "",
      "removeActorType": "NEW_REMOVE",
      "relativePosType": "AVATAR_NEW",
      "relativePosNpcAlias": "",
      "_notDestroyInTalk": true,
      "_bindMovingTargetKey": ""
    },
    {
      "configID": 30559,
      "alias": "30559",
      "visible": true,
      "bornPointName": "",
      "removeActorType": "NEW_REMOVE",
      "relativePosType": "AVATAR_NEW",
      "relativePosNpcAlias": "",
      "_notDestroyInTalk": true,
      "_bindMovingTargetKey": ""
    },
    {
      "configID": 30578,
      "alias": "30578",
      "visible": true,
      "bornPointName": "",
      "removeActorType": "NEW_REMOVE",
      "relativePosType": "AVATAR_NEW",
      "relativePosNpcAlias": "",
      "_notDestroyInTalk": true,
      "_bindMovingTargetKey": ""
    },
    {
      "configID": 30579,
      "alias": "30579",
      "visible": true,
      "bornPointName": "",
      "removeActorType": "NEW_REMOVE",
      "relativePosType": "AVATAR_NEW",
      "relativePosNpcAlias": "",
      "_notDestroyInTalk": true,
      "_bindMovingTargetKey": ""
    },
    {
      "configID": 30584,
      "alias": "30584",
      "visible": true,
      "bornPointName": "",
      "removeActorType": "NEW_REMOVE",
      "relativePosType": "AVATAR_NEW",
      "relativePosNpcAlias": "",
      "_notDestroyInTalk": true,
      "_bindMovingTargetKey": ""
    },
    {
      "configID": 30585,
      "alias": "30585",
      "visible": true,
      "bornPointName": "",
      "removeActorType": "NEW_REMOVE",
      "relativePosType": "AVATAR_NEW",
      "relativePosNpcAlias": "",
      "_notDestroyInTalk": true,
      "_bindMovingTargetKey": ""
    },
    {
      "configID": 1730,
      "alias": "1730",
      "visible": true,
      "bornPointName": "",
      "removeActorType": "NEW_REMOVE",
      "forceCreateDaily": true,
      "relativePosType": "AVATAR_NEW",
      "relativePosNpcAlias": "",
      "_notDestroyInTalk": true,
      "_bindMovingTargetKey": ""
    }
  ],
  "group": [
    [
      {
        "$type": "MoleMole.Config.ConfigTimeProtectAction",
        "type": "TIME_PROTECT",
        "duration": 1.0,
        "actionId": 104
      },
      {
        "$type": "FABLGECDBCH",
        "type": "BODY_LANG",
        "aliasList": [
          "1005"
        ],
        "actionId": 143,
        "_flag": 131072,
        "isContinue": true,
        "forceDoFreeStyle": true,
        "canDoRepeatFreeStyle": false,
        "cantBackToIdleWhenSitLoop": true,
        "eventPatternSuiteKey": "",
        "FOHHKFAIAAJ": ""
      },
      {
        "$type": "MoleMole.Config.ConfigSitOrStandAction",
        "type": "SIT_OR_STAND",
        "aliasList": [
          "Avatar"
        ],
        "actionId": 151,
        "_flag": 40960,
        "banResetFreestyle": true
      },
      {
        "$type": "MoleMole.Config.ConfigPlayerNPCEnergyTypeAction",
        "type": "SET_PLAYER_NPC_ENERGY_TYPE",
        "aliasList": [
          "AvatarNpc"
        ],
        "actionId": 152,
        "setHeroEngergyType": true
      },
      {
        "$type": "FABLGECDBCH",
        "type": "BODY_LANG",
        "aliasList": [
          "AvatarNpc"
        ],
        "actionId": 155,
        "_flag": 131072,
        "isContinue": true,
        "forceDoFreeStyle": true,
        "canDoRepeatFreeStyle": false,
        "cantBackToIdleWhenSitLoop": true,
        "eventPatternSuiteKey": "",
        "FOHHKFAIAAJ": ""
      },
      {
        "$type": "MoleMole.Config.ConfigVisibleInterAction",
        "type": "VISIBLE",
        "aliasList": [
          "Avatar"
        ],
        "actionId": 157,
        "_extraParam": ""
      },
      {
        "$type": "MoleMole.Config.ConfigVisibleInterAction",
        "type": "VISIBLE",
        "aliasList": [
          "30576"
        ],
        "actionId": 158,
        "_extraParam": ""
      },
      {
        "$type": "MoleMole.Config.ConfigVisibleInterAction",
        "type": "VISIBLE",
        "aliasList": [
          "30577"
        ],
        "actionId": 159,
        "_extraParam": ""
      },
      {
        "$type": "MoleMole.Config.ConfigLocalGadgetOP",
        "type": "LOCAL_GADGET_OP",
        "actionId": 162,
        "gadgetId": 71700491,
        "oprCode": 1,
        "slotName": "",
        "position": {
          "x": 327.5899963378906,
          "y": 538.0960083007812,
          "z": 232.9600067138672
        },
        "gvKey": "",
        "_stateOnCreate": 0
      },
      {
        "$type": "MoleMole.Config.ConfigLocalGadgetOP",
        "type": "LOCAL_GADGET_OP",
        "delayTime": 0.2639999985694885,
        "actionId": 164,
        "gadgetId": 70711318,
        "oprCode": 1,
        "slotName": "",
        "canReCreate": true,
        "position": {
          "x": 327.947998046875,
          "y": 538.8560180664062,
          "z": 233.28799438476562
        },
        "gvKey": "",
        "_stateOnCreate": 0
      },
      {
        "$type": "MoleMole.Config.ConfigLocalGadgetOP",
        "type": "LOCAL_GADGET_OP",
        "delayTime": 0.8479999899864197,
        "actionId": 165,
        "gadgetId": 70711639,
        "oprCode": 1,
        "slotName": "",
        "position": {
          "x": 327.5889892578125,
          "y": 538.8670043945312,
          "z": 232.93899536132812
        },
        "euler": {
          "y": 107.04000091552734
        },
        "gvKey": "",
        "_stateOnCreate": 0
      },
      {
        "$type": "MoleMole.Config.ConfigLocalGadgetOP",
        "type": "LOCAL_GADGET_OP",
        "delayTime": 0.5400000214576721,
        "actionId": 166,
        "gadgetId": 70711318,
        "subKey": 1,
        "oprCode": 1,
        "slotName": "",
        "canReCreate": true,
        "position": {
          "x": 327.23699951171875,
          "y": 538.8560180664062,
          "z": 232.66000366210938
        },
        "euler": {
          "y": 107.25599670410156
        },
        "gvKey": "",
        "_stateOnCreate": 0
      },
      {
        "$type": "MoleMole.Config.ConfigBlackScreenAction",
        "type": "BLACK_SCREEN",
        "duration": 1.0,
        "actionId": 177,
        "_flag": 2048,
        "blackScreenType": "KEEP_BLACK",
        "durationToBlack": 0.5,
        "durationKeepBlack": 1.0,
        "durationFromBlack": 0.5,
        "inteePos": "",
        "textMapID": "",
        "useTextFade": true,
        "showClickBtnDelayTime": 0.5,
        "waitClickBtnTipTime": 0.5,
        "_changeAudioState": true
      },
      {
        "$type": "MoleMole.Config.ConfigPlayPostEffectAction",
        "type": "PLAY_POST_EFFECT",
        "actionId": 184,
        "assetName": "PostEffect_Scene_MemoryEffect02"
      },
      {
        "$type": "MoleMole.Config.ConfigSpecialElementViewAction",
        "type": "SPECIAL_ELEMENT_VIEW",
        "actionId": 185,
        "_isOpen": true,
        "effectColor": {
          "r": 0.4560000002384186,
          "g": 0.4560000002384186,
          "b": 0.4560000002384186
        },
        "noEffectAliasList": [
          "518"
        ]
      },
      {
        "$type": "MoleMole.Config.ConfigChangeTimeInterAction",
        "type": "CHANGE_TIME",
        "actionId": 355,
        "toTime": 18.0,
        "force": true
      }
    ],
    [
      {
        "$type": "PKKMAMONGEO",
        "type": "DIALOG",
        "aliasList": [
          "30576"
        ],
        "actionId": 107,
        "dialogID": 401641801,
        "protectTime": 0.5
      },
      {
        "$type": "MoleMole.Config.ConfigBlackScreenAction",
        "type": "BLACK_SCREEN",
        "duration": 0.5,
        "actionId": 146,
        "_flag": 2048,
        "blackScreenType": "FROM_BLACK",
        "durationToBlack": 0.5,
        "durationKeepBlack": 0.5,
        "durationFromBlack": 0.5,
        "inteePos": "",
        "textMapID": "",
        "useTextFade": true,
        "showClickBtnDelayTime": 0.5,
        "waitClickBtnTipTime": 0.5,
        "_changeAudioState": true
      },
      {
        "$type": "FJKIHHKJLMJ",
        "type": "CAMERA_MOVE",
        "duration": 0.5,
        "actionId": 163,
        "camPosOffset": {
          "x": 328.96600341796875,
          "y": 539.77099609375,
          "z": 231.48199462890625
        },
        "camForwardTargetOffset": {
          "x": 328.32598876953125,
          "y": 539.3829956054688,
          "z": 232.14500427246094
        },
        "camFov": 20.0,
        "lerpPattern": 6,
        "cameraBlendType": "EaseInOutCubic",
        "needZAxisRotate": true,
        "openCameraDither": false,
        "targetNpcAlias": "",
        "closeTreeLeafDither": true,
        "KJOEFBPOIIH": "",
        "IICFKKEBIEC": "",
        "EGEHEJEBLBJ": "",
        "cutFrameTrans": {
          "_elevMinValue": -50.0,
          "_elevMaxValue": 50.0,
          "_poleMinValue": -50.0,
          "_poleMaxValue": 50.0
        }
      },
      {
        "$type": "KKKMGOEHLDH",
        "type": "SOUND",
        "actionId": 331,
        "stateGroup": "StateGroup_musicChapter",
        "state": "State_Music_Chapter_Emo_GR11",
        "defaultState": "None"
      },
      {
        "$type": "KKKMGOEHLDH",
        "type": "SOUND",
        "delayTime": 0.10000000149011612,
        "actionId": 332,
        "stateGroup": "StateGroup_gameState",
        "state": "State_Chapter",
        "defaultState": "State_NonCombat"
      },
      {
        "$type": "MoleMole.Config.ConfigAudioPlayAction",
        "type": "AUDIO_PLAY",
        "actionId": 340,
        "audioEventStr": "Play_sfx_quest_Fairy_40164_memory_loop"
      }
    ],
    [
      {
        "$type": "PKKMAMONGEO",
        "type": "DIALOG",
        "aliasList": [
          "30577"
        ],
        "actionId": 109,
        "dialogID": 401641802,
        "protectTime": 0.5
      },
      {
        "$type": "FJKIHHKJLMJ",
        "type": "CAMERA_MOVE",
        "duration": 0.5,
        "actionId": 169,
        "camPosOffset": {
          "x": 328.2869873046875,
          "y": 539.1079711914062,
          "z": 232.83200073242188
        },
        "camForwardTargetOffset": {
          "x": 327.302001953125,
          "y": 538.93798828125,
          "z": 232.80099487304688
        },
        "camFov": 20.0,
        "lerpPattern": 6,
        "cameraBlendType": "EaseInOutCubic",
        "needZAxisRotate": true,
        "openCameraDither": false,
        "targetNpcAlias": "",
        "closeTreeLeafDither": true,
        "KJOEFBPOIIH": "",
        "IICFKKEBIEC": "",
        "EGEHEJEBLBJ": "",
        "cutFrameTrans": {
          "_elevMinValue": -50.0,
          "_elevMaxValue": 50.0,
          "_poleMinValue": -50.0,
          "_poleMaxValue": 50.0
        }
      },
      {
        "$type": "FJKIHHKJLMJ",
        "type": "CAMERA_MOVE",
        "delayTime": 0.10000000149011612,
        "duration": 15.232000350952148,
        "actionId": 170,
        "camPosOffset": {
          "x": 328.2900085449219,
          "y": 539.1069946289062,
          "z": 232.75799560546875
        },
        "camForwardTargetOffset": {
          "x": 327.30499267578125,
          "y": 538.9359741210938,
          "z": 232.7270050048828
        },
        "camFov": 20.0,
        "cameraBlendType": "EaseOutQuad",
        "needZAxisRotate": true,
        "openCameraDither": false,
        "targetNpcAlias": "",
        "closeTreeLeafDither": true,
        "KJOEFBPOIIH": "",
        "IICFKKEBIEC": "",
        "EGEHEJEBLBJ": "",
        "cutFrameTrans": {
          "_elevMinValue": -50.0,
          "_elevMaxValue": 50.0,
          "_poleMinValue": -50.0,
          "_poleMaxValue": 50.0
        }
      }
    ],
    [
      {
        "$type": "PKKMAMONGEO",
        "type": "DIALOG",
        "aliasList": [
          "30576"
        ],
        "actionId": 111,
        "dialogID": 401641803,
        "protectTime": 0.5
      },
      {
        "$type": "FJKIHHKJLMJ",
        "type": "CAMERA_MOVE",
        "duration": 0.5,
        "actionId": 186,
        "camPosOffset": {
          "x": 327.5299987792969,
          "y": 538.9660034179688,
          "z": 232.3509979248047
        },
        "camForwardTargetOffset": {
          "x": 327.8479919433594,
          "y": 538.906005859375,
          "z": 233.29800415039062
        },
        "camFov": 20.0,
        "lerpPattern": 6,
        "cameraBlendType": "EaseInOutCubic",
        "needZAxisRotate": true,
        "openCameraDither": false,
        "targetNpcAlias": "",
        "closeTreeLeafDither": true,
        "KJOEFBPOIIH": "",
        "IICFKKEBIEC": "",
        "EGEHEJEBLBJ": "",
        "cutFrameTrans": {
          "_elevMinValue": -50.0,
          "_elevMaxValue": 50.0,
          "_poleMinValue": -50.0,
          "_poleMaxValue": 50.0
        }
      },
      {
        "$type": "FJKIHHKJLMJ",
        "type": "CAMERA_MOVE",
        "delayTime": 0.10000000149011612,
        "duration": 13.89900016784668,
        "actionId": 187,
        "camPosOffset": {
          "x": 327.52899169921875,
          "y": 539.0139770507812,
          "z": 232.35499572753906
        },
        "camForwardTargetOffset": {
          "x": 327.84698486328125,
          "y": 538.9539794921875,
          "z": 233.30099487304688
        },
        "camFov": 20.0,
        "cameraBlendType": "EaseOutQuad",
        "needZAxisRotate": true,
        "openCameraDither": false,
        "targetNpcAlias": "",
        "closeTreeLeafDither": true,
        "KJOEFBPOIIH": "",
        "IICFKKEBIEC": "",
        "EGEHEJEBLBJ": "",
        "cutFrameTrans": {
          "_elevMinValue": -50.0,
          "_elevMaxValue": 50.0,
          "_poleMinValue": -50.0,
          "_poleMaxValue": 50.0
        }
      },
      {
        "$type": "MoleMole.Config.ConfigLocalGadgetOP",
        "type": "LOCAL_GADGET_OP",
        "actionId": 190,
        "gadgetId": 70711639,
        "oprCode": 1,
        "slotName": "",
        "position": {
          "x": 327.5360107421875,
          "y": 538.8670043945312,
          "z": 232.9969940185547
        },
        "euler": {
          "y": 78.56700134277344
        },
        "gvKey": "",
        "_stateOnCreate": 0
      }
    ],
    [
      {
        "$type": "PKKMAMONGEO",
        "type": "DIALOG",
        "aliasList": [
          "30577"
        ],
        "actionId": 113,
        "dialogID": 401641804,
        "protectTime": 0.5
      },
      {
        "$type": "FJKIHHKJLMJ",
        "type": "CAMERA_MOVE",
        "duration": 0.5,
        "actionId": 188,
        "camPosOffset": {
          "x": 328.70098876953125,
          "y": 538.93798828125,
          "z": 233.322998046875
        },
        "camForwardTargetOffset": {
          "x": 327.7349853515625,
          "y": 538.9559936523438,
          "z": 233.06399536132812
        },
        "camFov": 20.0,
        "lerpPattern": 6,
        "cameraBlendType": "EaseInOutCubic",
        "needZAxisRotate": true,
        "openCameraDither": false,
        "targetNpcAlias": "",
        "closeTreeLeafDither": true,
        "KJOEFBPOIIH": "",
        "IICFKKEBIEC": "",
        "EGEHEJEBLBJ": "",
        "cutFrameTrans": {
          "_elevMinValue": -50.0,
          "_elevMaxValue": 50.0,
          "_poleMinValue": -50.0,
          "_poleMaxValue": 50.0
        }
      },
      {
        "$type": "FJKIHHKJLMJ",
        "type": "CAMERA_MOVE",
        "delayTime": 0.10000000149011612,
        "duration": 8.300999641418457,
        "actionId": 189,
        "camPosOffset": {
          "x": 328.71099853515625,
          "y": 538.93701171875,
          "z": 233.28500366210938
        },
        "camForwardTargetOffset": {
          "x": 327.7460021972656,
          "y": 538.9550170898438,
          "z": 233.0260009765625
        },
        "camFov": 20.0,
        "cameraBlendType": "EaseOutQuad",
        "needZAxisRotate": true,
        "openCameraDither": false,
        "targetNpcAlias": "",
        "closeTreeLeafDither": true,
        "KJOEFBPOIIH": "",
        "IICFKKEBIEC": "",
        "EGEHEJEBLBJ": "",
        "cutFrameTrans": {
          "_elevMinValue": -50.0,
          "_elevMaxValue": 50.0,
          "_poleMinValue": -50.0,
          "_poleMaxValue": 50.0
        }
      }
    ],
    [
      {
        "$type": "PKKMAMONGEO",
        "type": "DIALOG",
        "aliasList": [
          "30576"
        ],
        "actionId": 115,
        "dialogID": 401641805,
        "protectTime": 0.5
      },
      {
        "$type": "FJKIHHKJLMJ",
        "type": "CAMERA_MOVE",
        "duration": 0.5,
        "actionId": 191,
        "camPosOffset": {
          "x": 328.1449890136719,
          "y": 539.3480224609375,
          "z": 232.75599670410156
        },
        "camForwardTargetOffset": {
          "x": 327.8429870605469,
          "y": 538.7470092773438,
          "z": 233.49600219726562
        },
        "camFov": 20.0,
        "lerpPattern": 6,
        "cameraBlendType": "EaseInOutCubic",
        "needZAxisRotate": true,
        "openCameraDither": false,
        "targetNpcAlias": "",
        "closeTreeLeafDither": true,
        "KJOEFBPOIIH": "",
        "IICFKKEBIEC": "",
        "EGEHEJEBLBJ": "",
        "cutFrameTrans": {
          "_elevMinValue": -50.0,
          "_elevMaxValue": 50.0,
          "_poleMinValue": -50.0,
          "_poleMaxValue": 50.0
        }
      },
      {
        "$type": "FJKIHHKJLMJ",
        "type": "CAMERA_MOVE",
        "delayTime": 0.10000000149011612,
        "duration": 5.7779998779296875,
        "actionId": 192,
        "camPosOffset": {
          "x": 328.1199951171875,
          "y": 539.302978515625,
          "z": 232.82400512695312
        },
        "camForwardTargetOffset": {
          "x": 327.8190002441406,
          "y": 538.7009887695312,
          "z": 233.56399536132812
        },
        "camFov": 20.0,
        "cameraBlendType": "EaseOutQuad",
        "needZAxisRotate": true,
        "openCameraDither": false,
        "targetNpcAlias": "",
        "closeTreeLeafDither": true,
        "KJOEFBPOIIH": "",
        "IICFKKEBIEC": "",
        "EGEHEJEBLBJ": "",
        "cutFrameTrans": {
          "_elevMinValue": -50.0,
          "_elevMaxValue": 50.0,
          "_poleMinValue": -50.0,
          "_poleMaxValue": 50.0
        }
      }
    ],
    [
      {
        "$type": "PKKMAMONGEO",
        "type": "DIALOG",
        "aliasList": [
          "30577"
        ],
        "actionId": 117,
        "dialogID": 401641806,
        "protectTime": 0.5
      },
      {
        "$type": "FJKIHHKJLMJ",
        "type": "CAMERA_MOVE",
        "duration": 0.5,
        "actionId": 193,
        "camPosOffset": {
          "x": 327.97900390625,
          "y": 538.9400024414062,
          "z": 233.06500244140625
        },
        "camForwardTargetOffset": {
          "x": 327.0530090332031,
          "y": 538.9340209960938,
          "z": 232.68600463867188
        },
        "camFov": 20.0,
        "lerpPattern": 6,
        "cameraBlendType": "EaseInOutCubic",
        "needZAxisRotate": true,
        "openCameraDither": false,
        "targetNpcAlias": "",
        "closeTreeLeafDither": true,
        "KJOEFBPOIIH": "",
        "IICFKKEBIEC": "",
        "EGEHEJEBLBJ": "",
        "cutFrameTrans": {
          "_elevMinValue": -50.0,
          "_elevMaxValue": 50.0,
          "_poleMinValue": -50.0,
          "_poleMaxValue": 50.0
        }
      },
      {
        "$type": "FJKIHHKJLMJ",
        "type": "CAMERA_MOVE",
        "delayTime": 0.10000000149011612,
        "duration": 7.321000099182129,
        "actionId": 194,
        "camPosOffset": {
          "x": 327.9939880371094,
          "y": 538.9349975585938,
          "z": 233.0260009765625
        },
        "camForwardTargetOffset": {
          "x": 327.0690002441406,
          "y": 538.9290161132812,
          "z": 232.64700317382812
        },
        "camFov": 20.0,
        "cameraBlendType": "EaseOutQuad",
        "needZAxisRotate": true,
        "openCameraDither": false,
        "targetNpcAlias": "",
        "closeTreeLeafDither": true,
        "KJOEFBPOIIH": "",
        "IICFKKEBIEC": "",
        "EGEHEJEBLBJ": "",
        "cutFrameTrans": {
          "_elevMinValue": -50.0,
          "_elevMaxValue": 50.0,
          "_poleMinValue": -50.0,
          "_poleMaxValue": 50.0
        }
      }
    ],
    [
      {
        "$type": "PKKMAMONGEO",
        "type": "DIALOG",
        "aliasList": [
          "30576"
        ],
        "actionId": 119,
        "dialogID": 401641807,
        "protectTime": 0.5
      },
      {
        "$type": "FJKIHHKJLMJ",
        "type": "CAMERA_MOVE",
        "duration": 0.5,
        "actionId": 195,
        "camPosOffset": {
          "x": 327.56298828125,
          "y": 541.2440185546875,
          "z": 232.9739990234375
        },
        "camForwardTargetOffset": {
          "x": 327.5559997558594,
          "y": 540.2440185546875,
          "z": 232.98199462890625
        },
        "camFov": 20.0,
        "lerpPattern": 6,
        "cameraBlendType": "EaseInOutCubic",
        "needZAxisRotate": true,
        "rotateAngle": 0.013000000268220901,
        "openCameraDither": false,
        "targetNpcAlias": "",
        "closeTreeLeafDither": true,
        "KJOEFBPOIIH": "",
        "IICFKKEBIEC": "",
        "EGEHEJEBLBJ": "",
        "cutFrameTrans": {
          "_elevMinValue": -50.0,
          "_elevMaxValue": 50.0,
          "_poleMinValue": -50.0,
          "_poleMaxValue": 50.0
        }
      },
      {
        "$type": "FJKIHHKJLMJ",
        "type": "CAMERA_MOVE",
        "delayTime": 0.10000000149011612,
        "duration": 10.041999816894531,
        "actionId": 196,
        "camPosOffset": {
          "x": 327.552001953125,
          "y": 542.176025390625,
          "z": 232.98899841308594
        },
        "camForwardTargetOffset": {
          "x": 327.5509948730469,
          "y": 541.176025390625,
          "z": 232.99000549316406
        },
        "camFov": 20.0,
        "cameraBlendType": "EaseOutQuad",
        "needZAxisRotate": true,
        "openCameraDither": false,
        "targetNpcAlias": "",
        "closeTreeLeafDither": true,
        "KJOEFBPOIIH": "",
        "IICFKKEBIEC": "",
        "EGEHEJEBLBJ": "",
        "cutFrameTrans": {
          "_elevMinValue": -50.0,
          "_elevMaxValue": 50.0,
          "_poleMinValue": -50.0,
          "_poleMaxValue": 50.0
        }
      }
    ],
    [
      {
        "$type": "PKKMAMONGEO",
        "type": "DIALOG",
        "delayTime": 1.0,
        "aliasList": [
          "30563"
        ],
        "actionId": 121,
        "dialogID": 401641808,
        "protectTime": 5.980000019073486
      },
      {
        "$type": "HDGKHDNFMIM",
        "type": "DIALOG_SELECT",
        "delayTime": 3.7300000190734863,
        "aliasList": [
          "AvatarNpc"
        ],
        "actionId": 148,
        "dialogIDList": [
          401641809
        ],
        "grpIDList": [
          154818572
        ],
        "useGrpId": true,
        "countDownGrpId": 2221751459
      },
      {
        "$type": "MoleMole.Config.ConfigSpecialElementViewAction",
        "type": "SPECIAL_ELEMENT_VIEW",
        "actionId": 198,
        "effectColor": {
          "r": 0.4560000002384186,
          "g": 0.4560000002384186,
          "b": 0.4560000002384186
        },
        "noEffectAliasList": [
          "518"
        ]
      },
      {
        "$type": "FJKIHHKJLMJ",
        "type": "CAMERA_MOVE",
        "delayTime": 0.5109999775886536,
        "duration": 0.5,
        "actionId": 199,
        "camPosOffset": {
          "x": 332.2030029296875,
          "y": 503.44500732421875,
          "z": 252.2480010986328
        },
        "camForwardTargetOffset": {
          "x": 331.2650146484375,
          "y": 503.0979919433594,
          "z": 252.26100158691406
        },
        "camFov": 50.0,
        "lerpPattern": 6,
        "cameraBlendType": "EaseInOutCubic",
        "needZAxisRotate": true,
        "openCameraDither": false,
        "targetNpcAlias": "",
        "closeTreeLeafDither": true,
        "KJOEFBPOIIH": "",
        "IICFKKEBIEC": "",
        "EGEHEJEBLBJ": "",
        "cutFrameTrans": {
          "_elevMinValue": -50.0,
          "_elevMaxValue": 50.0,
          "_poleMinValue": -50.0,
          "_poleMaxValue": 50.0
        }
      },
      {
        "$type": "MoleMole.Config.ConfigSimpleBlackScreenAction",
        "type": "SIMPLE_BLACK_SCREEN",
        "actionId": 200,
        "durationToBlack": 0.5,
        "durationKeepBlack": 1.0,
        "durationFromBlack": 0.5,
        "textMapID": "",
        "useTextFade": true,
        "_changeAudioState": true
      },
      {
        "$type": "MoleMole.Config.ConfigNewCameraShakeAction",
        "type": "NEW_CAMERA_SHAKE",
        "delayTime": 0.5220000147819519,
        "duration": 5.0,
        "actionId": 201,
        "_shakeType": "INFINITE_ROTATION",
        "seed": 0.257999986410141,
        "amplitudeBase": {
          "x": 1.399999976158142,
          "y": 1.2000000476837158,
          "z": 1.7999999523162842
        },
        "frequencyBase": {
          "x": 0.5,
          "y": 0.5,
          "z": 0.4000000059604645
        },
        "amplitudeCurve": {
          "keyframes": [
            {
              "value": 1.0
            },
            {
              "time": 1.0,
              "value": 1.0
            }
          ]
        },
        "frequencyCurve": {
          "keyframes": [
            {
              "value": 1.0
            },
            {
              "time": 1.0,
              "value": 1.0
            }
          ]
        }
      },
      {
        "$type": "FJKIHHKJLMJ",
        "type": "CAMERA_MOVE",
        "delayTime": 0.6110000014305115,
        "duration": 3.2109999656677246,
        "actionId": 202,
        "camPosOffset": {
          "x": 332.2030029296875,
          "y": 503.44500732421875,
          "z": 252.2480010986328
        },
        "camForwardTargetOffset": {
          "x": 331.22198486328125,
          "y": 503.3580017089844,
          "z": 252.07400512695312
        },
        "camFov": 50.0,
        "cameraBlendType": "EaseInOutQuad",
        "needZAxisRotate": true,
        "rotateAngle": 357.0140075683594,
        "openCameraDither": false,
        "targetNpcAlias": "",
        "closeTreeLeafDither": true,
        "KJOEFBPOIIH": "",
        "IICFKKEBIEC": "",
        "EGEHEJEBLBJ": "",
        "cutFrameTrans": {
          "_elevMinValue": -50.0,
          "_elevMaxValue": 50.0,
          "_poleMinValue": -50.0,
          "_poleMaxValue": 50.0
        }
      },
      {
        "$type": "FJKIHHKJLMJ",
        "type": "CAMERA_MOVE",
        "delayTime": 3.7179999351501465,
        "duration": 3.2109999656677246,
        "actionId": 203,
        "camPosOffset": {
          "x": 334.8280029296875,
          "y": 504.4200134277344,
          "z": 252.93299865722656
        },
        "camForwardTargetOffset": {
          "x": 334.00299072265625,
          "y": 503.87799072265625,
          "z": 253.08999633789062
        },
        "camFov": 50.0,
        "cameraBlendType": "EaseInOutQuad",
        "needZAxisRotate": true,
        "openCameraDither": false,
        "targetNpcAlias": "",
        "closeTreeLeafDither": true,
        "KJOEFBPOIIH": "",
        "IICFKKEBIEC": "",
        "EGEHEJEBLBJ": "",
        "cutFrameTrans": {
          "_elevMinValue": -50.0,
          "_elevMaxValue": 50.0,
          "_poleMinValue": -50.0,
          "_poleMaxValue": 50.0
        }
      },
      {
        "$type": "PKKMAMONGEO",
        "type": "DIALOG_CLEAR",
        "actionId": 329
      },
      {
        "$type": "MoleMole.Config.ConfigLocalGadgetOP",
        "type": "LOCAL_GADGET_OP",
        "actionId": 330,
        "gadgetId": 70711629,
        "oprCode": 1,
        "slotName": "",
        "position": {
          "x": 313.66400146484375,
          "y": 492.1709899902344,
          "z": 274.40899658203125
        },
        "gvKey": "",
        "cmdList": [
          {
            "$type": "IENAKLKIHAB",
            "PPPDJGDDOGD": {
              "x": 5.0,
              "y": 5.0,
              "z": 5.0
            }
          }
        ],
        "_stateOnCreate": 0
      }
    ],
    [
      {
        "$type": "PKKMAMONGEO",
        "type": "DIALOG",
        "aliasList": [
          "30563"
        ],
        "actionId": 124,
        "dialogID": 401641810,
        "protectTime": 0.5
      },
      {
        "$type": "HDGKHDNFMIM",
        "type": "DIALOG_SELECT",
        "delayTime": 0.4000000059604645,
        "aliasList": [
          "AvatarNpc"
        ],
        "actionId": 149,
        "dialogIDList": [
          401641811
        ],
        "grpIDList": [
          154818573
        ],
        "useGrpId": true,
        "countDownGrpId": 2221751459
      },
      {
        "$type": "FJKIHHKJLMJ",
        "type": "CAMERA_MOVE",
        "duration": 2.0,
        "actionId": 204,
        "camPosOffset": {
          "x": 334.7099914550781,
          "y": 504.4200134277344,
          "z": 252.30999755859375
        },
        "camForwardTargetOffset": {
          "x": 334.0870056152344,
          "y": 503.9729919433594,
          "z": 252.9510040283203
        },
        "camFov": 50.0,
        "cameraBlendType": "EaseInOutQuad",
        "needZAxisRotate": true,
        "rotateAngle": 0.7099999785423279,
        "openCameraDither": false,
        "targetNpcAlias": "",
        "closeTreeLeafDither": true,
        "KJOEFBPOIIH": "",
        "IICFKKEBIEC": "",
        "EGEHEJEBLBJ": "",
        "cutFrameTrans": {
          "_elevMinValue": -50.0,
          "_elevMaxValue": 50.0,
          "_poleMinValue": -50.0,
          "_poleMaxValue": 50.0
        }
      }
    ],
    [
      {
        "$type": "PKKMAMONGEO",
        "type": "DIALOG",
        "aliasList": [
          "30563"
        ],
        "actionId": 127,
        "dialogID": 401641812,
        "protectTime": 9.0
      },
      {
        "$type": "FJKIHHKJLMJ",
        "type": "CAMERA_MOVE",
        "duration": 1.5,
        "actionId": 205,
        "camPosOffset": {
          "x": 333.44000244140625,
          "y": 504.489990234375,
          "z": 253.61000061035156
        },
        "camForwardTargetOffset": {
          "x": 332.7980041503906,
          "y": 504.0979919433594,
          "z": 254.2689971923828
        },
        "camFov": 50.0,
        "cameraBlendType": "EaseInQuad",
        "needZAxisRotate": true,
        "rotateAngle": 0.6899999976158142,
        "openCameraDither": false,
        "targetNpcAlias": "",
        "closeTreeLeafDither": true,
        "KJOEFBPOIIH": "",
        "IICFKKEBIEC": "",
        "EGEHEJEBLBJ": "",
        "cutFrameTrans": {
          "_elevMinValue": -50.0,
          "_elevMaxValue": 50.0,
          "_poleMinValue": -50.0,
          "_poleMaxValue": 50.0
        }
      },
      {
        "$type": "FJKIHHKJLMJ",
        "type": "CAMERA_MOVE",
        "delayTime": 1.4759999513626099,
        "duration": 1.0,
        "actionId": 206,
        "camPosOffset": {
          "x": 332.5899963378906,
          "y": 503.7799987792969,
          "z": 254.4600067138672
        },
        "camForwardTargetOffset": {
          "x": 331.968994140625,
          "y": 503.32501220703125,
          "z": 255.0989990234375
        },
        "camFov": 50.0,
        "cameraBlendType": "EaseOutQuad",
        "needZAxisRotate": true,
        "rotateAngle": 0.7129999995231628,
        "openCameraDither": false,
        "targetNpcAlias": "",
        "closeTreeLeafDither": true,
        "KJOEFBPOIIH": "",
        "IICFKKEBIEC": "",
        "EGEHEJEBLBJ": "",
        "cutFrameTrans": {
          "_elevMinValue": -50.0,
          "_elevMaxValue": 50.0,
          "_poleMinValue": -50.0,
          "_poleMaxValue": 50.0
        }
      },
      {
        "$type": "FJKIHHKJLMJ",
        "type": "CAMERA_MOVE",
        "delayTime": 2.436000108718872,
        "duration": 1.5,
        "actionId": 207,
        "camPosOffset": {
          "x": 330.9200134277344,
          "y": 504.1199951171875,
          "z": 256.1600036621094
        },
        "camForwardTargetOffset": {
          "x": 330.27398681640625,
          "y": 503.74200439453125,
          "z": 256.822998046875
        },
        "camFov": 50.0,
        "cameraBlendType": "EaseInQuad",
        "needZAxisRotate": true,
        "rotateAngle": 0.6850000023841858,
        "openCameraDither": false,
        "targetNpcAlias": "",
        "closeTreeLeafDither": true,
        "KJOEFBPOIIH": "",
        "IICFKKEBIEC": "",
        "EGEHEJEBLBJ": "",
        "cutFrameTrans": {
          "_elevMinValue": -50.0,
          "_elevMaxValue": 50.0,
          "_poleMinValue": -50.0,
          "_poleMaxValue": 50.0
        }
      },
      {
        "$type": "FJKIHHKJLMJ",
        "type": "CAMERA_MOVE",
        "delayTime": 3.875,
        "duration": 1.0,
        "actionId": 208,
        "camPosOffset": {
          "x": 329.6199951171875,
          "y": 502.7300109863281,
          "z": 257.510009765625
        },
        "camForwardTargetOffset": {
          "x": 329.00201416015625,
          "y": 502.2669982910156,
          "z": 258.14599609375
        },
        "camFov": 50.0,
        "cameraBlendType": "EaseOutQuad",
        "needZAxisRotate": true,
        "rotateAngle": 0.7160000205039978,
        "openCameraDither": false,
        "targetNpcAlias": "",
        "closeTreeLeafDither": true,
        "KJOEFBPOIIH": "",
        "IICFKKEBIEC": "",
        "EGEHEJEBLBJ": "",
        "cutFrameTrans": {
          "_elevMinValue": -50.0,
          "_elevMaxValue": 50.0,
          "_poleMinValue": -50.0,
          "_poleMaxValue": 50.0
        }
      },
      {
        "$type": "FJKIHHKJLMJ",
        "type": "CAMERA_MOVE",
        "delayTime": 4.807000160217285,
        "duration": 1.5,
        "actionId": 209,
        "camPosOffset": {
          "x": 327.7699890136719,
          "y": 502.4700012207031,
          "z": 259.3900146484375
        },
        "camForwardTargetOffset": {
          "x": 327.12701416015625,
          "y": 502.08099365234375,
          "z": 260.04998779296875
        },
        "camFov": 50.0,
        "cameraBlendType": "EaseInQuad",
        "needZAxisRotate": true,
        "rotateAngle": 0.6890000104904175,
        "openCameraDither": false,
        "targetNpcAlias": "",
        "closeTreeLeafDither": true,
        "KJOEFBPOIIH": "",
        "IICFKKEBIEC": "",
        "EGEHEJEBLBJ": "",
        "cutFrameTrans": {
          "_elevMinValue": -50.0,
          "_elevMaxValue": 50.0,
          "_poleMinValue": -50.0,
          "_poleMaxValue": 50.0
        }
      },
      {
        "$type": "FJKIHHKJLMJ",
        "type": "CAMERA_MOVE",
        "delayTime": 6.228000164031982,
        "duration": 1.0,
        "actionId": 210,
        "camPosOffset": {
          "x": 326.7799987792969,
          "y": 501.2300109863281,
          "z": 260.4100036621094
        },
        "camForwardTargetOffset": {
          "x": 326.16400146484375,
          "y": 500.76300048828125,
          "z": 261.04400634765625
        },
        "camFov": 50.0,
        "cameraBlendType": "EaseOutQuad",
        "needZAxisRotate": true,
        "rotateAngle": 0.7179999947547913,
        "openCameraDither": false,
        "targetNpcAlias": "",
        "closeTreeLeafDither": true,
        "KJOEFBPOIIH": "",
        "IICFKKEBIEC": "",
        "EGEHEJEBLBJ": "",
        "cutFrameTrans": {
          "_elevMinValue": -50.0,
          "_elevMaxValue": 50.0,
          "_poleMinValue": -50.0,
          "_poleMaxValue": 50.0
        }
      },
      {
        "$type": "FJKIHHKJLMJ",
        "type": "CAMERA_MOVE",
        "delayTime": 7.169000148773193,
        "duration": 1.5,
        "actionId": 213,
        "camPosOffset": {
          "x": 325.1199951171875,
          "y": 500.9100036621094,
          "z": 262.1000061035156
        },
        "camForwardTargetOffset": {
          "x": 324.4750061035156,
          "y": 500.52801513671875,
          "z": 262.7619934082031
        },
        "camFov": 50.0,
        "cameraBlendType": "EaseInQuad",
        "needZAxisRotate": true,
        "rotateAngle": 0.6869999766349792,
        "openCameraDither": false,
        "targetNpcAlias": "",
        "closeTreeLeafDither": true,
        "KJOEFBPOIIH": "",
        "IICFKKEBIEC": "",
        "EGEHEJEBLBJ": "",
        "cutFrameTrans": {
          "_elevMinValue": -50.0,
          "_elevMaxValue": 50.0,
          "_poleMinValue": -50.0,
          "_poleMaxValue": 50.0
        }
      },
      {
        "$type": "FJKIHHKJLMJ",
        "type": "CAMERA_MOVE",
        "delayTime": 8.562000274658203,
        "duration": 1.0,
        "actionId": 214,
        "camPosOffset": {
          "x": 324.260009765625,
          "y": 499.8699951171875,
          "z": 263.0
        },
        "camForwardTargetOffset": {
          "x": 323.6809997558594,
          "y": 499.31500244140625,
          "z": 263.5979919433594
        },
        "camFov": 50.0,
        "cameraBlendType": "EaseOutQuad",
        "needZAxisRotate": true,
        "rotateAngle": 0.7630000114440918,
        "openCameraDither": false,
        "targetNpcAlias": "",
        "closeTreeLeafDither": true,
        "KJOEFBPOIIH": "",
        "IICFKKEBIEC": "",
        "EGEHEJEBLBJ": "",
        "cutFrameTrans": {
          "_elevMinValue": -50.0,
          "_elevMaxValue": 50.0,
          "_poleMinValue": -50.0,
          "_poleMaxValue": 50.0
        }
      },
      {
        "$type": "MoleMole.Config.ConfigAudioPlayAction",
        "type": "AUDIO_PLAY",
        "delayTime": 1.093999981880188,
        "actionId": 345,
        "audioEventStr": "Play_amb_sceneObj_gear_ToyBrickDragonClaw_Swing_Hit_01"
      },
      {
        "$type": "MoleMole.Config.ConfigAudioPlayAction",
        "type": "AUDIO_PLAY",
        "delayTime": 3.559999942779541,
        "actionId": 346,
        "audioEventStr": "Play_amb_sceneObj_gear_ToyBrickDragonClaw_Swing_Hit_01"
      },
      {
        "$type": "MoleMole.Config.ConfigAudioPlayAction",
        "type": "AUDIO_PLAY",
        "delayTime": 5.919000148773193,
        "actionId": 347,
        "audioEventStr": "Play_amb_sceneObj_gear_ToyBrickDragonClaw_Swing_Hit_01"
      },
      {
        "$type": "MoleMole.Config.ConfigAudioPlayAction",
        "type": "AUDIO_PLAY",
        "delayTime": 8.4350004196167,
        "actionId": 348,
        "audioEventStr": "Play_amb_sceneObj_gear_ToyBrickDragonClaw_Swing_Hit_01"
      }
    ],
    [
      {
        "$type": "PKKMAMONGEO",
        "type": "DIALOG",
        "delayTime": 2.4730000495910645,
        "aliasList": [
          "30563"
        ],
        "actionId": 129,
        "dialogID": 401641813,
        "protectTime": 6.214000225067139
      },
      {
        "$type": "FJKIHHKJLMJ",
        "type": "CAMERA_MOVE",
        "duration": 2.5,
        "actionId": 212,
        "camPosOffset": {
          "x": 315.6199951171875,
          "y": 504.75,
          "z": 274.6400146484375
        },
        "camForwardTargetOffset": {
          "x": 315.52398681640625,
          "y": 503.7569885253906,
          "z": 274.70599365234375
        },
        "camFov": 20.0,
        "cameraBlendType": "EaseInOutQuad",
        "needZAxisRotate": true,
        "rotateAngle": 346.3659973144531,
        "openCameraDither": false,
        "targetNpcAlias": "",
        "closeTreeLeafDither": true,
        "KJOEFBPOIIH": "",
        "IICFKKEBIEC": "",
        "EGEHEJEBLBJ": "",
        "OLNGDMOPCBO": 0.20000000298023224,
        "cutFrameTrans": {
          "_elevMinValue": -50.0,
          "_elevMaxValue": 50.0,
          "_poleMinValue": -50.0,
          "_poleMaxValue": 50.0
        }
      },
      {
        "$type": "MoleMole.Config.ConfigLocalGadgetOP",
        "type": "LOCAL_GADGET_OP",
        "delayTime": 0.024000000208616257,
        "actionId": 216,
        "gadgetId": 70380362,
        "oprCode": 1,
        "slotName": "",
        "position": {
          "x": 319.65301513671875,
          "y": 518.2780151367188,
          "z": 268.39300537109375
        },
        "euler": {
          "x": 69.12000274658203,
          "y": 314.2120056152344,
          "z": 356.05499267578125
        },
        "gvKey": "",
        "_stateOnCreate": 0
      },
      {
        "$type": "MoleMole.Config.ConfigLocalGadgetOP",
        "type": "LOCAL_GADGET_OP",
        "delayTime": 0.23199999332427979,
        "actionId": 217,
        "gadgetId": 70380362,
        "oprCode": 6,
        "slotName": "",
        "position": {
          "x": 323.0050048828125,
          "y": 513.7659912109375,
          "z": 262.90301513671875
        },
        "euler": {
          "x": 88.78099822998047,
          "y": 169.302001953125,
          "z": 207.0019989013672
        },
        "gvKey": "",
        "gadgetState": 201,
        "_stateOnCreate": 0
      },
      {
        "$type": "PKKMAMONGEO",
        "type": "DIALOG_CLEAR",
        "actionId": 218
      },
      {
        "$type": "FJKIHHKJLMJ",
        "type": "CAMERA_MOVE",
        "delayTime": 2.569999933242798,
        "duration": 1.5,
        "actionId": 242,
        "camPosOffset": {
          "x": 315.57000732421875,
          "y": 502.07000732421875,
          "z": 274.5899963378906
        },
        "camForwardTargetOffset": {
          "x": 315.47601318359375,
          "y": 501.0769958496094,
          "z": 274.65399169921875
        },
        "camFov": 20.0,
        "cameraBlendType": "EaseOutQuint",
        "needZAxisRotate": true,
        "rotateAngle": 346.1099853515625,
        "openCameraDither": false,
        "targetNpcAlias": "",
        "closeTreeLeafDither": true,
        "KJOEFBPOIIH": "",
        "IICFKKEBIEC": "",
        "EGEHEJEBLBJ": "",
        "OLNGDMOPCBO": 0.20000000298023224,
        "cutFrameTrans": {
          "_elevMinValue": -50.0,
          "_elevMaxValue": 50.0,
          "_poleMinValue": -50.0,
          "_poleMaxValue": 50.0
        }
      },
      {
        "$type": "FJKIHHKJLMJ",
        "type": "CAMERA_MOVE",
        "delayTime": 4.013000011444092,
        "duration": 2.5299999713897705,
        "actionId": 243,
        "camPosOffset": {
          "x": 318.2200012207031,
          "y": 502.739990234375,
          "z": 271.69000244140625
        },
        "camForwardTargetOffset": {
          "x": 317.93798828125,
          "y": 501.8210144042969,
          "z": 271.96600341796875
        },
        "camFov": 20.0,
        "cameraBlendType": "EaseOutQuint",
        "needZAxisRotate": true,
        "rotateAngle": 356.02099609375,
        "openCameraDither": false,
        "targetNpcAlias": "",
        "closeTreeLeafDither": true,
        "KJOEFBPOIIH": "",
        "IICFKKEBIEC": "",
        "EGEHEJEBLBJ": "",
        "OLNGDMOPCBO": 0.20000000298023224,
        "cutFrameTrans": {
          "_elevMinValue": -50.0,
          "_elevMaxValue": 50.0,
          "_poleMinValue": -50.0,
          "_poleMaxValue": 50.0
        }
      },
      {
        "$type": "FJKIHHKJLMJ",
        "type": "CAMERA_MOVE",
        "delayTime": 6.552000045776367,
        "duration": 2.315999984741211,
        "actionId": 244,
        "camPosOffset": {
          "x": 314.67999267578125,
          "y": 500.54998779296875,
          "z": 275.6099853515625
        },
        "camForwardTargetOffset": {
          "x": 314.05999755859375,
          "y": 500.8900146484375,
          "z": 276.3169860839844
        },
        "camFov": 50.0,
        "cameraBlendType": "EaseInOutCubic",
        "needZAxisRotate": true,
        "rotateAngle": 359.05499267578125,
        "openCameraDither": false,
        "targetNpcAlias": "",
        "closeTreeLeafDither": true,
        "KJOEFBPOIIH": "",
        "IICFKKEBIEC": "",
        "EGEHEJEBLBJ": "",
        "OLNGDMOPCBO": 0.20000000298023224,
        "cutFrameTrans": {
          "_elevMinValue": -50.0,
          "_elevMaxValue": 50.0,
          "_poleMinValue": -50.0,
          "_poleMaxValue": 50.0
        }
      },
      {
        "$type": "MoleMole.Config.ConfigSkipGroupAction",
        "type": "SKIP_GROUP",
        "delayTime": 10.678000450134277,
        "actionId": 322
      },
      {
        "$type": "MoleMole.Config.ConfigLocalGadgetOP",
        "type": "LOCAL_GADGET_OP",
        "delayTime": 8.255000114440918,
        "actionId": 327,
        "gadgetId": 70380362,
        "oprCode": 2,
        "slotName": "",
        "position": {
          "x": 323.0050048828125,
          "y": 513.7659912109375,
          "z": 262.90301513671875
        },
        "euler": {
          "x": 88.78099822998047,
          "y": 169.302001953125,
          "z": 207.0019989013672
        },
        "gvKey": "",
        "gadgetState": 201,
        "_stateOnCreate": 0
      },
      {
        "$type": "MoleMole.Config.ConfigLocalGadgetOP",
        "type": "LOCAL_GADGET_OP",
        "delayTime": 2.5969998836517334,
        "actionId": 328,
        "gadgetId": 70380362,
        "oprCode": 6,
        "slotName": "",
        "position": {
          "x": 323.0050048828125,
          "y": 513.7659912109375,
          "z": 262.90301513671875
        },
        "euler": {
          "x": 88.78099822998047,
          "y": 169.302001953125,
          "z": 207.0019989013672
        },
        "gvKey": "",
        "gadgetState": 901,
        "_stateOnCreate": 0
      },
      {
        "$type": "MoleMole.Config.ConfigAudioPlayAction",
        "type": "AUDIO_PLAY",
        "delayTime": 6.666999816894531,
        "actionId": 349,
        "audioEventStr": "Play_sfx_MDAQ063_C02_dvalin_wing"
      },
      {
        "$type": "MoleMole.Config.ConfigAudioPlayAction",
        "type": "AUDIO_PLAY",
        "delayTime": 10.178000450134277,
        "actionId": 352,
        "audioEventStr": "Play_sfx_quest_Fairy_40164_impact"
      },
      {
        "$type": "MoleMole.Config.ConfigLocalGadgetOP",
        "type": "LOCAL_GADGET_OP",
        "delayTime": 0.5569999814033508,
        "actionId": 354,
        "gadgetId": 70380362,
        "oprCode": 3,
        "slotName": "",
        "position": {
          "x": 320.2760009765625,
          "y": 511.35101318359375,
          "z": 267.45001220703125
        },
        "euler": {
          "x": 69.12000274658203,
          "y": 314.2120056152344,
          "z": 356.05499267578125
        },
        "gvKey": "",
        "gvKeyList": [
          "GV_DragonShowHorn"
        ],
        "gvValueList": [
          1.0
        ],
        "_stateOnCreate": 0
      }
    ],
    [
      {
        "$type": "MoleMole.Config.ConfigTimeProtectAction",
        "type": "TIME_PROTECT",
        "duration": 2.200000047683716,
        "actionId": 253
      },
      {
        "$type": "MoleMole.Config.ConfigBlackScreenAction",
        "type": "BLACK_SCREEN",
        "delayTime": 1.7999999523162842,
        "actionId": 256,
        "_flag": 2048,
        "blackScreenType": "TO_BLACK",
        "durationToBlack": 0.5,
        "durationKeepBlack": 0.5,
        "durationFromBlack": 0.5,
        "inteePos": "",
        "textMapID": "",
        "useTextFade": true,
        "showClickBtnDelayTime": 0.5,
        "waitClickBtnTipTime": 0.5,
        "_changeAudioState": true
      },
      {
        "$type": "PKKMAMONGEO",
        "type": "DIALOG_CLEAR",
        "actionId": 265
      },
      {
        "$type": "MoleMole.Config.ConfigPlayUIEffectAction",
        "type": "PLAY_UI_EFFECT",
        "actionId": 320,
        "uiCameraEffectPath": "",
        "mainCameraEffectPath": "ART/Effect/SceneInteractive/Eff_SceneObj_GlassFragmentation_01",
        "mainCameraEffectCreateOption": {
          "_useCameraRelativeTrans": true,
          "_cameraRelativePosition": {
            "z": -0.20999999344348907
          }
        },
        "uiCameraEffectCreateOption": {}
      },
      {
        "$type": "MoleMole.Config.ConfigAudioPlayAction",
        "type": "AUDIO_PLAY",
        "actionId": 342,
        "audioEventStr": "Play_sfx_quest_Twins4_8021_break03"
      },
      {
        "$type": "MoleMole.Config.ConfigAudioPlayAction",
        "type": "AUDIO_PLAY",
        "delayTime": 1.8329999446868896,
        "actionId": 343,
        "audioEventStr": "Play_sfx_quest_Fairy_40164_break"
      },
      {
        "$type": "MoleMole.Config.ConfigAudioPlayAction",
        "type": "AUDIO_PLAY",
        "delayTime": 0.9079999923706055,
        "actionId": 344,
        "audioEventStr": "Play_sfx_quest_Twins4_8021_break02"
      },
      {
        "$type": "MoleMole.Config.ConfigAudioPlayAction",
        "type": "AUDIO_PLAY",
        "delayTime": 0.15700000524520874,
        "actionId": 353,
        "audioEventStr": "Play_sfx_quest_Fairy_40164_cruch"
      }
    ],
    [
      {
        "$type": "PKKMAMONGEO",
        "type": "DIALOG",
        "delayTime": 0.5740000009536743,
        "aliasList": [
          "30563"
        ],
        "actionId": 131,
        "dialogID": 401641814,
        "protectTime": 1.4930000305175781
      },
      {
        "$type": "HDGKHDNFMIM",
        "type": "DIALOG_SELECT",
        "delayTime": 1.4930000305175781,
        "aliasList": [
          "AvatarNpc"
        ],
        "actionId": 150,
        "dialogIDList": [
          401641815
        ],
        "grpIDList": [
          154818577
        ],
        "useGrpId": true,
        "countDownGrpId": 2221751459
      },
      {
        "$type": "FJKIHHKJLMJ",
        "type": "CAMERA_MOVE",
        "delayTime": 0.5740000009536743,
        "duration": 0.5,
        "actionId": 219,
        "camPosOffset": {
          "x": 398.7200012207031,
          "y": 626.969970703125,
          "z": 211.63999938964844
        },
        "camForwardTargetOffset": {
          "x": 398.53900146484375,
          "y": 626.0,
          "z": 211.47900390625
        },
        "camFov": 50.0,
        "lerpPattern": 6,
        "cameraBlendType": "EaseInOutCubic",
        "needZAxisRotate": true,
        "rotateAngle": 329.0090026855469,
        "openCameraDither": false,
        "targetNpcAlias": "",
        "closeTreeLeafDither": true,
        "KJOEFBPOIIH": "",
        "IICFKKEBIEC": "",
        "EGEHEJEBLBJ": "",
        "cutFrameTrans": {
          "_elevMinValue": -50.0,
          "_elevMaxValue": 50.0,
          "_poleMinValue": -50.0,
          "_poleMaxValue": 50.0
        }
      },
      {
        "$type": "FJKIHHKJLMJ",
        "type": "CAMERA_MOVE",
        "delayTime": 0.6740000247955322,
        "duration": 6.714000225067139,
        "actionId": 221,
        "camPosOffset": {
          "x": 386.8940124511719,
          "y": 630.7360229492188,
          "z": 202.2570037841797
        },
        "camForwardTargetOffset": {
          "x": 386.7130126953125,
          "y": 629.7650146484375,
          "z": 202.0959930419922
        },
        "camFov": 50.0,
        "cameraBlendType": "EaseOutQuad",
        "needZAxisRotate": true,
        "rotateAngle": 329.0090026855469,
        "openCameraDither": false,
        "targetNpcAlias": "",
        "closeTreeLeafDither": true,
        "KJOEFBPOIIH": "",
        "IICFKKEBIEC": "",
        "EGEHEJEBLBJ": "",
        "cutFrameTrans": {
          "_elevMinValue": -50.0,
          "_elevMaxValue": 50.0,
          "_poleMinValue": -50.0,
          "_poleMaxValue": 50.0
        }
      },
      {
        "$type": "MoleMole.Config.ConfigBlackScreenAction",
        "type": "BLACK_SCREEN",
        "delayTime": 0.5450000166893005,
        "actionId": 257,
        "_flag": 2048,
        "blackScreenType": "FROM_BLACK",
        "durationToBlack": 0.5,
        "durationKeepBlack": 0.5,
        "durationFromBlack": 0.5,
        "inteePos": "",
        "textMapID": "",
        "useTextFade": true,
        "showClickBtnDelayTime": 0.5,
        "waitClickBtnTipTime": 0.5,
        "_changeAudioState": true
      },
      {
        "$type": "MoleMole.Config.ConfigPlayUIEffectAction",
        "type": "PLAY_UI_EFFECT",
        "actionId": 325,
        "uiCameraEffectPath": "",
        "mainCameraEffectPath": "ART/Effect/SceneInteractive/Eff_SceneObj_GlassFragmentation_01",
        "isRemove": true,
        "mainCameraEffectCreateOption": {},
        "uiCameraEffectCreateOption": {}
      },
      {
        "$type": "MoleMole.Config.ConfigTeleportToAction",
        "type": "TELEPORT_TO",
        "aliasList": [
          "30580"
        ],
        "actionId": 336,
        "position": {
          "x": 350.17401123046875,
          "y": 538.2260131835938,
          "z": 197.8159942626953
        },
        "forward": {
          "x": 2.302000045776367,
          "y": -0.014000000432133675,
          "z": 9.140999794006348
        },
        "openLongDisTeleport": true,
        "syncForward": true,
        "_posBindMovingTargetKey": "",
        "_forwardBindMovingTargetKey": ""
      },
      {
        "$type": "MoleMole.Config.ConfigTeleportToAction",
        "type": "TELEPORT_TO",
        "delayTime": 0.02199999988079071,
        "aliasList": [
          "30581"
        ],
        "actionId": 337,
        "position": {
          "x": 343.8940124511719,
          "y": 538.0999755859375,
          "z": 207.0760040283203
        },
        "forward": {
          "x": 9.079000473022461,
          "y": 0.11100000143051147,
          "z": 0.3540000021457672
        },
        "openLongDisTeleport": true,
        "syncForward": true,
        "_posBindMovingTargetKey": "",
        "_forwardBindMovingTargetKey": ""
      },
      {
        "$type": "MoleMole.Config.ConfigTeleportToAction",
        "type": "TELEPORT_TO",
        "aliasList": [
          "30558"
        ],
        "actionId": 338,
        "position": {
          "x": 353.9830017089844,
          "y": 538.2260131835938,
          "z": 210.43299865722656
        },
        "forward": {
          "x": -8.918999671936035,
          "y": -0.014000000432133675,
          "z": -0.27900001406669617
        },
        "openLongDisTeleport": true,
        "syncForward": true,
        "_posBindMovingTargetKey": "",
        "_forwardBindMovingTargetKey": ""
      },
      {
        "$type": "MoleMole.Config.ConfigTeleportToAction",
        "type": "TELEPORT_TO",
        "aliasList": [
          "30559"
        ],
        "actionId": 339,
        "position": {
          "x": 342.60699462890625,
          "y": 538.2260131835938,
          "z": 214.10400390625
        },
        "forward": {
          "x": 8.704000473022461,
          "y": -0.014000000432133675,
          "z": -10.88599967956543
        },
        "openLongDisTeleport": true,
        "syncForward": true,
        "_posBindMovingTargetKey": "",
        "_forwardBindMovingTargetKey": ""
      }
    ],
    [
      {
        "$type": "PKKMAMONGEO",
        "type": "DIALOG",
        "aliasList": [
          "30580"
        ],
        "actionId": 134,
        "dialogID": 401641816,
        "protectTime": 2.0409998893737793
      },
      {
        "$type": "FJKIHHKJLMJ",
        "type": "CAMERA_MOVE",
        "duration": 1.5,
        "actionId": 222,
        "camPosOffset": {
          "x": 350.6499938964844,
          "y": 548.239990234375,
          "z": 208.25999450683594
        },
        "camForwardTargetOffset": {
          "x": 350.468994140625,
          "y": 547.27001953125,
          "z": 208.10000610351562
        },
        "camFov": 50.0,
        "cameraBlendType": "EaseInOutCubic",
        "needZAxisRotate": true,
        "rotateAngle": 0.6370000243186951,
        "openCameraDither": false,
        "targetNpcAlias": "",
        "closeTreeLeafDither": true,
        "KJOEFBPOIIH": "",
        "IICFKKEBIEC": "",
        "EGEHEJEBLBJ": "",
        "cutFrameTrans": {
          "_elevMinValue": -50.0,
          "_elevMaxValue": 50.0,
          "_poleMinValue": -50.0,
          "_poleMaxValue": 50.0
        }
      },
      {
        "$type": "MoleMole.Config.ConfigTeleportToAction",
        "type": "TELEPORT_TO",
        "delayTime": 0.02199999988079071,
        "aliasList": [
          "30581"
        ],
        "actionId": 223,
        "position": {
          "x": 343.8940124511719,
          "y": 538.0999755859375,
          "z": 207.0760040283203
        },
        "forward": {
          "x": 9.079000473022461,
          "y": 0.11100000143051147,
          "z": 0.3540000021457672
        },
        "openLongDisTeleport": true,
        "syncForward": true,
        "_posBindMovingTargetKey": "",
        "_forwardBindMovingTargetKey": ""
      },
      {
        "$type": "LJLMDHDCAMK",
        "type": "LOOK_AT",
        "aliasList": [
          "30581"
        ],
        "actionId": 224,
        "_flag": 64,
        "useTargetPos": true,
        "enableAbsolute": true,
        "targetPosition": {
          "x": 348.4670104980469,
          "y": 545.4110107421875,
          "z": 207.58200073242188
        },
        "headRotateVec": {
          "x": 9.192000389099121,
          "y": 329.052001953125
        },
        "headTurnTime": 0.5,
        "targetNpcAlias": "",
        "lookAtTargetType": "NONE",
        "openBackProtect": true,
        "backProtectAngle": 10.0,
        "targetNpcLookAtPoint": "",
        "OAFJBHJHLJG": ""
      },
      {
        "$type": "MoleMole.Config.ConfigMoveToAction",
        "type": "MOVE_TO",
        "delayTime": 0.10999999940395355,
        "aliasList": [
          "30581"
        ],
        "actionId": 226,
        "moveType": "RUN",
        "routeList": [
          {
            "x": 358.9809875488281,
            "y": 538.0999755859375,
            "z": 206.87899780273438
          }
        ],
        "exactlyMove": true,
        "closeNavMesh": true,
        "openSetPos": true,
        "_bindMovingTargetKey": "",
        "_delayTriggerNextTime": 0.30000001192092896
      },
      {
        "$type": "MoleMole.Config.ConfigMoveToAction",
        "type": "MOVE_TO",
        "delayTime": 0.10000000149011612,
        "aliasList": [
          "30580"
        ],
        "actionId": 227,
        "moveType": "RUN",
        "routeList": [
          {
            "x": 355.19500732421875,
            "y": 538.0999755859375,
            "z": 223.61199951171875
          }
        ],
        "exactlyMove": true,
        "closeNavMesh": true,
        "openSetPos": true,
        "_bindMovingTargetKey": "",
        "_delayTriggerNextTime": 0.30000001192092896
      },
      {
        "$type": "MoleMole.Config.ConfigTeleportToAction",
        "type": "TELEPORT_TO",
        "aliasList": [
          "30580"
        ],
        "actionId": 228,
        "position": {
          "x": 350.17401123046875,
          "y": 538.2260131835938,
          "z": 197.8159942626953
        },
        "forward": {
          "x": 2.302000045776367,
          "y": -0.014000000432133675,
          "z": 9.140999794006348
        },
        "openLongDisTeleport": true,
        "syncForward": true,
        "_posBindMovingTargetKey": "",
        "_forwardBindMovingTargetKey": ""
      },
      {
        "$type": "MoleMole.Config.ConfigTeleportToAction",
        "type": "TELEPORT_TO",
        "aliasList": [
          "30559"
        ],
        "actionId": 264,
        "position": {
          "x": 342.60699462890625,
          "y": 538.2260131835938,
          "z": 214.10400390625
        },
        "forward": {
          "x": 8.704000473022461,
          "y": -0.014000000432133675,
          "z": -10.88599967956543
        },
        "openLongDisTeleport": true,
        "syncForward": true,
        "_posBindMovingTargetKey": "",
        "_forwardBindMovingTargetKey": ""
      },
      {
        "$type": "MoleMole.Config.ConfigMoveToAction",
        "type": "MOVE_TO",
        "delayTime": 0.10000000149011612,
        "aliasList": [
          "30559"
        ],
        "actionId": 266,
        "moveType": "RUN",
        "routeList": [
          {
            "x": 367.9750061035156,
            "y": 538.0999755859375,
            "z": 184.04299926757812
          },
          {
            "x": 360.66400146484375,
            "y": 538.0999755859375,
            "z": 172.04800415039062
          }
        ],
        "exactlyMove": true,
        "closeNavMesh": true,
        "openSetPos": true,
        "_bindMovingTargetKey": "",
        "_delayTriggerNextTime": 0.30000001192092896
      },
      {
        "$type": "MoleMole.Config.ConfigTeleportToAction",
        "type": "TELEPORT_TO",
        "aliasList": [
          "30558"
        ],
        "actionId": 269,
        "position": {
          "x": 353.9830017089844,
          "y": 538.2260131835938,
          "z": 210.43299865722656
        },
        "forward": {
          "x": -8.918999671936035,
          "y": -0.014000000432133675,
          "z": -0.27900001406669617
        },
        "openLongDisTeleport": true,
        "syncForward": true,
        "_posBindMovingTargetKey": "",
        "_forwardBindMovingTargetKey": ""
      },
      {
        "$type": "MoleMole.Config.ConfigMoveToAction",
        "type": "MOVE_TO",
        "delayTime": 0.10000000149011612,
        "aliasList": [
          "30558"
        ],
        "actionId": 270,
        "moveType": "RUN",
        "routeList": [
          {
            "x": 336.4360046386719,
            "y": 538.0999755859375,
            "z": 210.02099609375
          }
        ],
        "exactlyMove": true,
        "closeNavMesh": true,
        "openSetPos": true,
        "_bindMovingTargetKey": "",
        "_delayTriggerNextTime": 0.30000001192092896
      },
      {
        "$type": "FJKIHHKJLMJ",
        "type": "CAMERA_MOVE",
        "delayTime": 1.4630000591278076,
        "duration": 0.5,
        "actionId": 276,
        "camPosOffset": {
          "x": 350.6499938964844,
          "y": 548.239990234375,
          "z": 208.25999450683594
        },
        "camForwardTargetOffset": {
          "x": 350.5740051269531,
          "y": 547.2670288085938,
          "z": 208.04299926757812
        },
        "camFov": 50.0,
        "cameraBlendType": "EaseInOutCubic",
        "needZAxisRotate": true,
        "rotateAngle": 332.4129943847656,
        "openCameraDither": false,
        "targetNpcAlias": "",
        "closeTreeLeafDither": true,
        "KJOEFBPOIIH": "",
        "IICFKKEBIEC": "",
        "EGEHEJEBLBJ": "",
        "cutFrameTrans": {
          "_elevMinValue": -50.0,
          "_elevMaxValue": 50.0,
          "_poleMinValue": -50.0,
          "_poleMaxValue": 50.0
        }
      },
      {
        "$type": "FJKIHHKJLMJ",
        "type": "CAMERA_MOVE",
        "delayTime": 2.122999906539917,
        "duration": 0.5,
        "actionId": 277,
        "camPosOffset": {
          "x": 350.6499938964844,
          "y": 548.239990234375,
          "z": 208.25999450683594
        },
        "camForwardTargetOffset": {
          "x": 350.4779968261719,
          "y": 547.2659912109375,
          "z": 208.11099243164062
        },
        "camFov": 50.0,
        "cameraBlendType": "EaseInOutCubic",
        "needZAxisRotate": true,
        "rotateAngle": 0.8870000243186951,
        "openCameraDither": false,
        "targetNpcAlias": "",
        "closeTreeLeafDither": true,
        "KJOEFBPOIIH": "",
        "IICFKKEBIEC": "",
        "EGEHEJEBLBJ": "",
        "cutFrameTrans": {
          "_elevMinValue": -50.0,
          "_elevMaxValue": 50.0,
          "_poleMinValue": -50.0,
          "_poleMaxValue": 50.0
        }
      },
      {
        "$type": "FJKIHHKJLMJ",
        "type": "CAMERA_MOVE",
        "delayTime": 3.0309998989105225,
        "duration": 0.6150000095367432,
        "actionId": 278,
        "camPosOffset": {
          "x": 350.6499938964844,
          "y": 548.239990234375,
          "z": 208.25999450683594
        },
        "camForwardTargetOffset": {
          "x": 350.5679931640625,
          "y": 547.2520141601562,
          "z": 208.1280059814453
        },
        "camFov": 50.0,
        "cameraBlendType": "EaseInOutCubic",
        "needZAxisRotate": true,
        "rotateAngle": 344.0400085449219,
        "openCameraDither": false,
        "targetNpcAlias": "",
        "closeTreeLeafDither": true,
        "KJOEFBPOIIH": "",
        "IICFKKEBIEC": "",
        "EGEHEJEBLBJ": "",
        "cutFrameTrans": {
          "_elevMinValue": -50.0,
          "_elevMaxValue": 50.0,
          "_poleMinValue": -50.0,
          "_poleMaxValue": 50.0
        }
      }
    ],
    [
      {
        "$type": "PKKMAMONGEO",
        "type": "DIALOG",
        "aliasList": [
          "30581"
        ],
        "actionId": 136,
        "dialogID": 401641817,
        "protectTime": 1.343999981880188
      },
      {
        "$type": "FJKIHHKJLMJ",
        "type": "CAMERA_MOVE",
        "duration": 1.0,
        "actionId": 231,
        "camPosOffset": {
          "x": 354.70001220703125,
          "y": 550.030029296875,
          "z": 204.4499969482422
        },
        "camForwardTargetOffset": {
          "x": 354.69000244140625,
          "y": 549.0889892578125,
          "z": 204.11199951171875
        },
        "camFov": 50.0,
        "cameraBlendType": "EaseInOutCubic",
        "needZAxisRotate": true,
        "rotateAngle": 315.7070007324219,
        "openCameraDither": false,
        "targetNpcAlias": "",
        "closeTreeLeafDither": true,
        "KJOEFBPOIIH": "",
        "IICFKKEBIEC": "",
        "EGEHEJEBLBJ": "",
        "cutFrameTrans": {
          "_elevMinValue": -50.0,
          "_elevMaxValue": 50.0,
          "_poleMinValue": -50.0,
          "_poleMaxValue": 50.0
        }
      },
      {
        "$type": "MoleMole.Config.ConfigMoveToAction",
        "type": "MOVE_TO",
        "delayTime": 0.10000000149011612,
        "aliasList": [
          "30582"
        ],
        "actionId": 263,
        "moveType": "RUN",
        "routeList": [
          {
            "x": 344.7099914550781,
            "y": 538.0999755859375,
            "z": 218.59300231933594
          }
        ],
        "exactlyMove": true,
        "closeNavMesh": true,
        "openSetPos": true,
        "_bindMovingTargetKey": "",
        "_delayTriggerNextTime": 0.30000001192092896
      },
      {
        "$type": "MoleMole.Config.ConfigTeleportToAction",
        "type": "TELEPORT_TO",
        "aliasList": [
          "30582"
        ],
        "actionId": 335,
        "_flag": 4,
        "position": {
          "x": 362.8630065917969,
          "y": 538.39697265625,
          "z": 193.32200622558594
        },
        "forward": {
          "x": -19.639999389648438,
          "y": -2.046999931335449,
          "z": 15.307000160217285
        },
        "openLongDisTeleport": true,
        "syncForward": true,
        "_posBindMovingTargetKey": "",
        "_forwardBindMovingTargetKey": ""
      }
    ],
    [
      {
        "$type": "PKKMAMONGEO",
        "type": "DIALOG",
        "aliasList": [
          "30582"
        ],
        "actionId": 138,
        "dialogID": 401641818,
        "protectTime": 1.7109999656677246
      },
      {
        "$type": "FJKIHHKJLMJ",
        "type": "CAMERA_MOVE",
        "duration": 1.5,
        "actionId": 232,
        "camPosOffset": {
          "x": 353.010009765625,
          "y": 550.8599853515625,
          "z": 202.16000366210938
        },
        "camForwardTargetOffset": {
          "x": 352.5379943847656,
          "y": 550.3099975585938,
          "z": 201.4709930419922
        },
        "camFov": 50.0,
        "cameraBlendType": "EaseInOutCubic",
        "needZAxisRotate": true,
        "rotateAngle": 344.0199890136719,
        "openCameraDither": false,
        "targetNpcAlias": "",
        "closeTreeLeafDither": true,
        "KJOEFBPOIIH": "",
        "IICFKKEBIEC": "",
        "EGEHEJEBLBJ": "",
        "cutFrameTrans": {
          "_elevMinValue": -50.0,
          "_elevMaxValue": 50.0,
          "_poleMinValue": -50.0,
          "_poleMaxValue": 50.0
        }
      },
      {
        "$type": "MoleMole.Config.ConfigTeleportToAction",
        "type": "TELEPORT_TO",
        "aliasList": [
          "30578"
        ],
        "actionId": 279,
        "_flag": 4,
        "position": {
          "x": 340.58599853515625,
          "y": 544.781005859375,
          "z": 190.94700622558594
        },
        "forward": {
          "x": 6.764999866485596,
          "y": -1.7599999904632568,
          "z": 4.809000015258789
        },
        "openLongDisTeleport": true,
        "syncForward": true,
        "_posBindMovingTargetKey": "",
        "_forwardBindMovingTargetKey": ""
      },
      {
        "$type": "LJLMDHDCAMK",
        "type": "LOOK_AT",
        "aliasList": [
          "30578"
        ],
        "actionId": 280,
        "_flag": 64,
        "enableHead": true,
        "useTargetPos": true,
        "enableAbsolute": true,
        "targetPosition": {
          "x": 350.5050048828125,
          "y": 551.3309936523438,
          "z": 200.4709930419922
        },
        "headRotateVec": {
          "x": 353.5220031738281,
          "y": 321.531005859375
        },
        "headTurnTime": 0.5,
        "targetNpcAlias": "",
        "lookAtTargetType": "NONE",
        "openBackProtect": true,
        "backProtectAngle": 10.0,
        "targetNpcLookAtPoint": "",
        "OAFJBHJHLJG": ""
      },
      {
        "$type": "FABLGECDBCH",
        "type": "BODY_LANG",
        "delayTime": 2.640000104904175,
        "aliasList": [
          "30578"
        ],
        "actionId": 281,
        "_flag": 131072,
        "bodyLangParam": 2,
        "forceDoFreeStyle": true,
        "canDoRepeatFreeStyle": false,
        "cantBackToIdleWhenSitLoop": true,
        "eventPatternSuiteKey": "",
        "FOHHKFAIAAJ": ""
      },
      {
        "$type": "MoleMole.Config.ConfigTeleportToAction",
        "type": "TELEPORT_TO",
        "aliasList": [
          "30579"
        ],
        "actionId": 283,
        "_flag": 4,
        "position": {
          "x": 344.6969909667969,
          "y": 544.781005859375,
          "z": 186.37399291992188
        },
        "forward": {
          "x": 4.448999881744385,
          "y": -1.7599999904632568,
          "z": 9.017999649047852
        },
        "openLongDisTeleport": true,
        "syncForward": true,
        "_posBindMovingTargetKey": "",
        "_forwardBindMovingTargetKey": ""
      },
      {
        "$type": "FABLGECDBCH",
        "type": "BODY_LANG",
        "delayTime": 3.0989999771118164,
        "aliasList": [
          "30579"
        ],
        "actionId": 285,
        "_flag": 131072,
        "bodyLangParam": 2,
        "forceDoFreeStyle": true,
        "cantBackToIdleWhenSitLoop": true,
        "eventPatternSuiteKey": "",
        "FOHHKFAIAAJ": ""
      },
      {
        "$type": "MoleMole.Config.ConfigTeleportToAction",
        "type": "TELEPORT_TO",
        "aliasList": [
          "30584"
        ],
        "actionId": 287,
        "_flag": 4,
        "position": {
          "x": 347.40899658203125,
          "y": 542.416015625,
          "z": 189.2429962158203
        },
        "forward": {
          "x": 3.4030001163482666,
          "y": 0.6039999723434448,
          "z": 6.890999794006348
        },
        "openLongDisTeleport": true,
        "syncForward": true,
        "_posBindMovingTargetKey": "",
        "_forwardBindMovingTargetKey": ""
      },
      {
        "$type": "FABLGECDBCH",
        "type": "BODY_LANG",
        "delayTime": 2.7829999923706055,
        "aliasList": [
          "30584"
        ],
        "actionId": 289,
        "_flag": 131072,
        "bodyLangParam": 2,
        "forceDoFreeStyle": true,
        "cantBackToIdleWhenSitLoop": true,
        "eventPatternSuiteKey": "",
        "FOHHKFAIAAJ": ""
      },
      {
        "$type": "MoleMole.Config.ConfigTeleportToAction",
        "type": "TELEPORT_TO",
        "aliasList": [
          "1730"
        ],
        "actionId": 291,
        "_flag": 4,
        "position": {
          "x": 345.1520080566406,
          "y": 542.4929809570312,
          "z": 192.0760040283203
        },
        "forward": {
          "x": 3.178999900817871,
          "y": 0.527999997138977,
          "z": 3.5899999141693115
        },
        "openLongDisTeleport": true,
        "syncForward": true,
        "_posBindMovingTargetKey": "",
        "_forwardBindMovingTargetKey": ""
      },
      {
        "$type": "FABLGECDBCH",
        "type": "BODY_LANG",
        "aliasList": [
          "1730"
        ],
        "actionId": 293,
        "_flag": 131072,
        "bodyLangParam": 2,
        "forceDoFreeStyle": true,
        "canDoRepeatFreeStyle": false,
        "cantBackToIdleWhenSitLoop": true,
        "eventPatternSuiteKey": "",
        "FOHHKFAIAAJ": ""
      },
      {
        "$type": "MoleMole.Config.ConfigTeleportToAction",
        "type": "TELEPORT_TO",
        "aliasList": [
          "30585"
        ],
        "actionId": 295,
        "_flag": 4,
        "position": {
          "x": 342.7669982910156,
          "y": 543.0919799804688,
          "z": 192.64199829101562
        },
        "forward": {
          "x": 8.232999801635742,
          "y": -0.07100000232458115,
          "z": 7.710999965667725
        },
        "openLongDisTeleport": true,
        "syncForward": true,
        "_posBindMovingTargetKey": "",
        "_forwardBindMovingTargetKey": ""
      },
      {
        "$type": "FABLGECDBCH",
        "type": "BODY_LANG",
        "delayTime": 2.7829999923706055,
        "aliasList": [
          "30585"
        ],
        "actionId": 297,
        "_flag": 131072,
        "bodyLangParam": 2,
        "forceDoFreeStyle": true,
        "cantBackToIdleWhenSitLoop": true,
        "eventPatternSuiteKey": "",
        "FOHHKFAIAAJ": ""
      },
      {
        "$type": "FABLGECDBCH",
        "type": "BODY_LANG",
        "delayTime": 1.2050000429153442,
        "aliasList": [
          "1730"
        ],
        "actionId": 299,
        "_flag": 131072,
        "bodyLangParam": 1,
        "forceDoFreeStyle": true,
        "canDoRepeatFreeStyle": false,
        "cantBackToIdleWhenSitLoop": true,
        "eventPatternSuiteKey": "",
        "FOHHKFAIAAJ": ""
      },
      {
        "$type": "FABLGECDBCH",
        "type": "BODY_LANG",
        "delayTime": 3.5869998931884766,
        "aliasList": [
          "30578"
        ],
        "actionId": 300,
        "_flag": 131072,
        "bodyLangParam": 2,
        "forceDoFreeStyle": true,
        "dontClearPreFreeStyle": true,
        "cantBackToIdleWhenSitLoop": true,
        "eventPatternSuiteKey": "",
        "FOHHKFAIAAJ": ""
      },
      {
        "$type": "FABLGECDBCH",
        "type": "BODY_LANG",
        "delayTime": 4.074999809265137,
        "aliasList": [
          "30579"
        ],
        "actionId": 301,
        "_flag": 131072,
        "bodyLangParam": 2,
        "forceDoFreeStyle": true,
        "cantBackToIdleWhenSitLoop": true,
        "eventPatternSuiteKey": "",
        "FOHHKFAIAAJ": ""
      },
      {
        "$type": "FABLGECDBCH",
        "type": "BODY_LANG",
        "delayTime": 3.7300000190734863,
        "aliasList": [
          "30584"
        ],
        "actionId": 302,
        "_flag": 131072,
        "bodyLangParam": 2,
        "forceDoFreeStyle": true,
        "cantBackToIdleWhenSitLoop": true,
        "eventPatternSuiteKey": "",
        "FOHHKFAIAAJ": ""
      },
      {
        "$type": "FABLGECDBCH",
        "type": "BODY_LANG",
        "delayTime": 3.7300000190734863,
        "aliasList": [
          "30585"
        ],
        "actionId": 303,
        "_flag": 131072,
        "bodyLangParam": 2,
        "forceDoFreeStyle": true,
        "cantBackToIdleWhenSitLoop": true,
        "eventPatternSuiteKey": "",
        "FOHHKFAIAAJ": ""
      },
      {
        "$type": "FABLGECDBCH",
        "type": "BODY_LANG",
        "delayTime": 4.9070000648498535,
        "aliasList": [
          "30585"
        ],
        "actionId": 304,
        "_flag": 131072,
        "bodyLangParam": 2,
        "forceDoFreeStyle": true,
        "cantBackToIdleWhenSitLoop": true,
        "eventPatternSuiteKey": "",
        "FOHHKFAIAAJ": ""
      },
      {
        "$type": "FABLGECDBCH",
        "type": "BODY_LANG",
        "delayTime": 6.053999900817871,
        "aliasList": [
          "30585"
        ],
        "actionId": 305,
        "_flag": 131072,
        "bodyLangParam": 2,
        "forceDoFreeStyle": true,
        "cantBackToIdleWhenSitLoop": true,
        "eventPatternSuiteKey": "",
        "FOHHKFAIAAJ": ""
      },
      {
        "$type": "FABLGECDBCH",
        "type": "BODY_LANG",
        "delayTime": 4.877999782562256,
        "aliasList": [
          "30584"
        ],
        "actionId": 306,
        "_flag": 131072,
        "bodyLangParam": 2,
        "forceDoFreeStyle": true,
        "cantBackToIdleWhenSitLoop": true,
        "eventPatternSuiteKey": "",
        "FOHHKFAIAAJ": ""
      },
      {
        "$type": "FABLGECDBCH",
        "type": "BODY_LANG",
        "delayTime": 6.026000022888184,
        "aliasList": [
          "30584"
        ],
        "actionId": 307,
        "_flag": 131072,
        "bodyLangParam": 2,
        "forceDoFreeStyle": true,
        "cantBackToIdleWhenSitLoop": true,
        "eventPatternSuiteKey": "",
        "FOHHKFAIAAJ": ""
      },
      {
        "$type": "FABLGECDBCH",
        "type": "BODY_LANG",
        "delayTime": 5.2220001220703125,
        "aliasList": [
          "30579"
        ],
        "actionId": 308,
        "_flag": 131072,
        "bodyLangParam": 2,
        "forceDoFreeStyle": true,
        "cantBackToIdleWhenSitLoop": true,
        "eventPatternSuiteKey": "",
        "FOHHKFAIAAJ": ""
      },
      {
        "$type": "FABLGECDBCH",
        "type": "BODY_LANG",
        "delayTime": 6.39900016784668,
        "aliasList": [
          "30579"
        ],
        "actionId": 309,
        "_flag": 131072,
        "bodyLangParam": 2,
        "forceDoFreeStyle": true,
        "cantBackToIdleWhenSitLoop": true,
        "eventPatternSuiteKey": "",
        "FOHHKFAIAAJ": ""
      },
      {
        "$type": "FABLGECDBCH",
        "type": "BODY_LANG",
        "delayTime": 4.6479997634887695,
        "aliasList": [
          "30578"
        ],
        "actionId": 310,
        "_flag": 131072,
        "bodyLangParam": 2,
        "forceDoFreeStyle": true,
        "cantBackToIdleWhenSitLoop": true,
        "eventPatternSuiteKey": "",
        "FOHHKFAIAAJ": ""
      },
      {
        "$type": "FABLGECDBCH",
        "type": "BODY_LANG",
        "delayTime": 5.796000003814697,
        "aliasList": [
          "30578"
        ],
        "actionId": 311,
        "_flag": 131072,
        "bodyLangParam": 2,
        "forceDoFreeStyle": true,
        "cantBackToIdleWhenSitLoop": true,
        "eventPatternSuiteKey": "",
        "FOHHKFAIAAJ": ""
      },
      {
        "$type": "LJLMDHDCAMK",
        "type": "LOOK_AT",
        "aliasList": [
          "30579"
        ],
        "actionId": 312,
        "_flag": 64,
        "enableHead": true,
        "useTargetPos": true,
        "enableAbsolute": true,
        "targetPosition": {
          "x": 350.5050048828125,
          "y": 551.3309936523438,
          "z": 200.4709930419922
        },
        "headRotateVec": {
          "x": 353.5220031738281,
          "y": 321.531005859375
        },
        "headTurnTime": 0.5,
        "targetNpcAlias": "",
        "lookAtTargetType": "NONE",
        "openBackProtect": true,
        "backProtectAngle": 10.0,
        "targetNpcLookAtPoint": "",
        "OAFJBHJHLJG": ""
      },
      {
        "$type": "LJLMDHDCAMK",
        "type": "LOOK_AT",
        "aliasList": [
          "30584"
        ],
        "actionId": 313,
        "_flag": 64,
        "enableHead": true,
        "useTargetPos": true,
        "enableAbsolute": true,
        "targetPosition": {
          "x": 350.5050048828125,
          "y": 551.3309936523438,
          "z": 200.4709930419922
        },
        "headRotateVec": {
          "x": 353.5220031738281,
          "y": 321.531005859375
        },
        "headTurnTime": 0.5,
        "targetNpcAlias": "",
        "lookAtTargetType": "NONE",
        "openBackProtect": true,
        "backProtectAngle": 10.0,
        "targetNpcLookAtPoint": "",
        "OAFJBHJHLJG": ""
      },
      {
        "$type": "LJLMDHDCAMK",
        "type": "LOOK_AT",
        "aliasList": [
          "30585"
        ],
        "actionId": 314,
        "_flag": 64,
        "enableHead": true,
        "useTargetPos": true,
        "enableAbsolute": true,
        "targetPosition": {
          "x": 350.5050048828125,
          "y": 551.3309936523438,
          "z": 200.4709930419922
        },
        "headRotateVec": {
          "x": 353.5220031738281,
          "y": 321.531005859375
        },
        "headTurnTime": 0.5,
        "targetNpcAlias": "",
        "lookAtTargetType": "NONE",
        "openBackProtect": true,
        "backProtectAngle": 10.0,
        "targetNpcLookAtPoint": "",
        "OAFJBHJHLJG": ""
      },
      {
        "$type": "LJLMDHDCAMK",
        "type": "LOOK_AT",
        "aliasList": [
          "1730"
        ],
        "actionId": 315,
        "_flag": 64,
        "enableHead": true,
        "useTargetPos": true,
        "enableAbsolute": true,
        "targetPosition": {
          "x": 350.5050048828125,
          "y": 551.3309936523438,
          "z": 200.4709930419922
        },
        "headRotateVec": {
          "x": 353.5220031738281,
          "y": 321.531005859375
        },
        "headTurnTime": 0.5,
        "targetNpcAlias": "",
        "lookAtTargetType": "NONE",
        "openBackProtect": true,
        "backProtectAngle": 10.0,
        "targetNpcLookAtPoint": "",
        "OAFJBHJHLJG": ""
      }
    ],
    [
      {
        "$type": "PKKMAMONGEO",
        "type": "DIALOG",
        "aliasList": [
          "30563"
        ],
        "actionId": 140,
        "dialogID": 401641819,
        "protectTime": 8.26200008392334
      },
      {
        "$type": "FJKIHHKJLMJ",
        "type": "CAMERA_MOVE",
        "duration": 8.928000450134277,
        "actionId": 233,
        "camPosOffset": {
          "x": 391.760009765625,
          "y": 595.9600219726562,
          "z": 258.6700134277344
        },
        "camForwardTargetOffset": {
          "x": 391.2879943847656,
          "y": 595.4099731445312,
          "z": 257.9809875488281
        },
        "camFov": 50.0,
        "cameraBlendType": "EaseInQuad",
        "needZAxisRotate": true,
        "rotateAngle": 355.88299560546875,
        "openCameraDither": false,
        "targetNpcAlias": "",
        "closeTreeLeafDither": true,
        "KJOEFBPOIIH": "",
        "IICFKKEBIEC": "",
        "EGEHEJEBLBJ": "",
        "cutFrameTrans": {
          "_elevMinValue": -50.0,
          "_elevMaxValue": 50.0,
          "_poleMinValue": -50.0,
          "_poleMaxValue": 50.0
        }
      },
      {
        "$type": "MoleMole.Config.ConfigBlackScreenAction",
        "type": "BLACK_SCREEN",
        "delayTime": 3.0920000076293945,
        "duration": 5.0,
        "actionId": 234,
        "_flag": 2048,
        "blackScreenType": "TO_BLACK",
        "durationToBlack": 5.0,
        "durationKeepBlack": 0.5,
        "durationFromBlack": 0.5,
        "inteePos": "",
        "textMapID": "",
        "useTextFade": true,
        "showClickBtnDelayTime": 0.5,
        "waitClickBtnTipTime": 0.5,
        "_changeAudioState": true
      },
      {
        "$type": "MoleMole.Config.ConfigBlackScreenAction",
        "type": "BLACK_SCREEN",
        "delayTime": 8.069999694824219,
        "actionId": 235,
        "_flag": 2048,
        "blackScreenType": "KEEP_BLACK",
        "durationToBlack": 0.5,
        "durationKeepBlack": 0.5,
        "durationFromBlack": 0.5,
        "inteePos": "",
        "textMapID": "",
        "useTextFade": true,
        "showClickBtnDelayTime": 0.5,
        "waitClickBtnTipTime": 0.5,
        "_changeAudioState": true
      },
      {
        "$type": "MoleMole.Config.ConfigSkipGroupAction",
        "type": "SKIP_GROUP",
        "delayTime": 8.515000343322754,
        "actionId": 248
      },
      {
        "$type": "MoleMole.Config.ConfigCameraDOFAction",
        "type": "CAMERA_DOF",
        "actionId": 323,
        "enabled": true,
        "focusDistance": 18.391000747680664,
        "focusRange": 0.2070000022649765,
        "nearFocalDistance": -0.6690000295639038,
        "nearFocalTransDistance": 1.0,
        "dofBlurAmount": 1.0,
        "quality": 3
      },
      {
        "$type": "MoleMole.Config.ConfigCameraDOFAction",
        "type": "CAMERA_DOF",
        "delayTime": 0.10000000149011612,
        "duration": 4.0,
        "actionId": 324,
        "enabled": true,
        "focusDistance": 7.8480000495910645,
        "focusRange": 0.2070000022649765,
        "nearFocalDistance": -0.6690000295639038,
        "nearFocalTransDistance": 1.0,
        "dofBlurAmount": 3.0,
        "quality": 3
      }
    ],
    [
      {
        "$type": "MoleMole.Config.ConfigTimeProtectAction",
        "type": "TIME_PROTECT",
        "duration": 0.10000000149011612,
        "actionId": 105
      },
      {
        "$type": "MoleMole.Config.ConfigSimpleBlackScreenAction",
        "type": "SIMPLE_BLACK_SCREEN",
        "actionId": 141,
        "durationToBlack": 0.5,
        "durationKeepBlack": 1.5,
        "durationFromBlack": 0.5,
        "textMapID": ""
      },
      {
        "$type": "MoleMole.Config.ConfigTimeProtectAction",
        "type": "TIME_PROTECT",
        "duration": 0.699999988079071,
        "actionId": 142
      },
      {
        "$type": "FABLGECDBCH",
        "type": "BODY_LANG",
        "delayTime": 0.6000000238418579,
        "aliasList": [
          "1005"
        ],
        "actionId": 144,
        "_flag": 131072,
        "isContinue": true,
        "forceDoFreeStyle": true,
        "canDoRepeatFreeStyle": false,
        "cantBackToIdleWhenSitLoop": true,
        "eventPatternSuiteKey": "",
        "FOHHKFAIAAJ": ""
      },
      {
        "$type": "FJKIHHKJLMJ",
        "type": "CAMERA_MOVE",
        "delayTime": 0.699999988079071,
        "duration": 0.10000000149011612,
        "actionId": 147,
        "cameraPosType": "EXIT",
        "camForwardTargetOffset": {
          "z": 1.0
        },
        "camFov": 30.0,
        "lerpPattern": 5,
        "cameraBlendType": "EaseInOutCubic",
        "openCameraDither": false,
        "targetNpcAlias": "",
        "closeTreeLeafDither": true,
        "KJOEFBPOIIH": "",
        "IICFKKEBIEC": "",
        "EGEHEJEBLBJ": "",
        "cutFrameTrans": {
          "_elevMinValue": -50.0,
          "_elevMaxValue": 50.0,
          "_poleMinValue": -50.0,
          "_poleMaxValue": 50.0
        }
      },
      {
        "$type": "MoleMole.Config.ConfigVisibleInterAction",
        "type": "VISIBLE",
        "delayTime": 0.6000000238418579,
        "aliasList": [
          "AvatarNpc"
        ],
        "actionId": 153,
        "_extraParam": ""
      },
      {
        "$type": "MoleMole.Config.ConfigVisibleInterAction",
        "type": "VISIBLE",
        "delayTime": 0.6000000238418579,
        "aliasList": [
          "Avatar"
        ],
        "actionId": 154,
        "isVisible": true,
        "_extraParam": ""
      },
      {
        "$type": "FABLGECDBCH",
        "type": "BODY_LANG",
        "delayTime": 0.6000000238418579,
        "aliasList": [
          "AvatarNpc"
        ],
        "actionId": 156,
        "_flag": 131072,
        "isContinue": true,
        "forceDoFreeStyle": true,
        "canDoRepeatFreeStyle": false,
        "cantBackToIdleWhenSitLoop": true,
        "eventPatternSuiteKey": "",
        "FOHHKFAIAAJ": ""
      },
      {
        "$type": "KKKMGOEHLDH",
        "type": "SOUND",
        "actionId": 333,
        "stateGroup": "StateGroup_gameState",
        "state": "State_NonCombat",
        "defaultState": "State_NonCombat"
      },
      {
        "$type": "MoleMole.Config.ConfigAudioPlayAction",
        "type": "AUDIO_PLAY",
        "actionId": 341,
        "audioEventStr": "Stop_sfx_quest_Fairy_40164_memory_loop"
      }
    ]
  ],
  "groupId": [
    {
      "grpId": 2221751460,
      "nextGrpId": 2221751461,
      "_noCircleNextGrpId": 2221751461
    },
    {
      "index": 1,
      "grpId": 2221751461,
      "nextGrpId": 2221751462,
      "_noCircleNextGrpId": 2221751462
    },
    {
      "index": 2,
      "grpId": 2221751462,
      "nextGrpId": 2221751463,
      "_noCircleNextGrpId": 2221751463
    },
    {
      "index": 3,
      "grpId": 2221751463,
      "nextGrpId": 2221751464,
      "_noCircleNextGrpId": 2221751464
    },
    {
      "index": 4,
      "grpId": 2221751464,
      "nextGrpId": 2221751465,
      "_noCircleNextGrpId": 2221751465
    },
    {
      "index": 5,
      "grpId": 2221751465,
      "nextGrpId": 2221751466,
      "_noCircleNextGrpId": 2221751466
    },
    {
      "index": 6,
      "grpId": 2221751466,
      "nextGrpId": 2221751467,
      "_noCircleNextGrpId": 2221751467
    },
    {
      "index": 7,
      "grpId": 2221751467,
      "nextGrpId": 2221751468,
      "_noCircleNextGrpId": 2221751468
    },
    {
      "index": 8,
      "grpId": 2221751468,
      "nextGrpId": 154818572,
      "_noCircleNextGrpId": 154818572
    },
    {
      "index": 9,
      "grpId": 154818572,
      "nextGrpId": 154818573,
      "_noCircleNextGrpId": 154818573
    },
    {
      "index": 10,
      "grpId": 154818573,
      "nextGrpId": 154818574,
      "_noCircleNextGrpId": 154818574
    },
    {
      "index": 11,
      "grpId": 154818574,
      "nextGrpId": 154818575,
      "_noCircleNextGrpId": 154818575
    },
    {
      "index": 12,
      "grpId": 154818575,
      "nextGrpId": 154818576,
      "_noCircleNextGrpId": 154818576
    },
    {
      "index": 13,
      "grpId": 154818576,
      "nextGrpId": 154818577,
      "_noCircleNextGrpId": 154818577
    },
    {
      "index": 14,
      "grpId": 154818577,
      "nextGrpId": 154818578,
      "_noCircleNextGrpId": 154818578
    },
    {
      "index": 15,
      "grpId": 154818578,
      "nextGrpId": 154818579,
      "_noCircleNextGrpId": 154818579
    },
    {
      "index": 16,
      "grpId": 154818579,
      "nextGrpId": 154818580,
      "_noCircleNextGrpId": 154818580
    },
    {
      "index": 17,
      "grpId": 154818580,
      "nextGrpId": 154818581,
      "_noCircleNextGrpId": 154818581
    },
    {
      "index": 18,
      "grpId": 154818581,
      "nextGrpId": 154818603,
      "_noCircleNextGrpId": 154818603
    }
  ],
  "freeStyleDic": {
    "1025": [],
    "1026": []
  },
  "EKFBDAIDEEF": {
    "AvatarNpc": [
      "SitChat01AS",
      "SitHoldArm01AS",
      "SitShrug01AS",
      "SitThink01AS"
    ]
  },
  "NPFDEBDMHJP": 154818581
}