{
  "luaDataPath": "",
  "entityBan": "",
  "startFade": {
    "startFadeOutDuration": 0.0
  },
  "endFade": {
    "startFadeOutDuration": 0.0
  },
  "actors": [
    {
      "alias": "Avatar",
      "visible": true,
      "bornPointName": "",
      "relativePosNpcAlias": "",
      "_bindMovingTargetKey": ""
    },
    {
      "configID": 1587,
      "alias": "1587",
      "visible": true,
      "bornPointName": "",
      "relativePosNpcAlias": "",
      "_bindMovingTargetKey": ""
    }
  ],
  "group": [
    [
      {
        "$type": "PKKMAMONGEO",
        "type": "DIALOG",
        "aliasList": [
          "1587"
        ],
        "dialogID": 409110401
      },
      {
        "$type": "FABLGECDBCH",
        "type": "BODY_LANG",
        "aliasList": [
          "1587"
        ],
        "bodyLangParam": 1190,
        "eventPatternSuiteKey": "",
        "FOHHKFAIAAJ": ""
      }
    ],
    [
      {
        "$type": "PKKMAMONGEO",
        "type": "DIALOG",
        "aliasList": [
          "1587"
        ],
        "dialogID": 409110402,
        "protectTime": 1.0
      },
      {
        "$type": "LLGANGLOEEO",
        "type": "STEER_TO",
        "duration": 1.0,
        "aliasList": [
          "1587"
        ],
        "steerType": "TO_LOCAL_AVATAR_ADVANCED",
        "useSteerAnim": true,
        "targetNpcAlias": "",
        "OAFJBHJHLJG": ""
      },
      {
        "$type": "FABLGECDBCH",
        "type": "BODY_LANG",
        "delayTime": 0.9999998807907104,
        "aliasList": [
          "1587"
        ],
        "bodyLangParam": 1200,
        "eventPatternSuiteKey": "",
        "FOHHKFAIAAJ": ""
      }
    ],
    [
      {
        "$type": "PKKMAMONGEO",
        "type": "DIALOG",
        "aliasList": [
          "1587"
        ],
        "dialogID": 409110403
      }
    ],
    [
      {
        "$type": "PKKMAMONGEO",
        "type": "DIALOG",
        "aliasList": [
          "1587"
        ],
        "dialogID": 409110404
      },
      {
        "$type": "FABLGECDBCH",
        "type": "BODY_LANG",
        "aliasList": [
          "1587"
        ],
        "bodyLangParam": 1230,
        "eventPatternSuiteKey": "",
        "FOHHKFAIAAJ": ""
      }
    ],
    [
      {
        "$type": "PKKMAMONGEO",
        "type": "DIALOG",
        "aliasList": [
          "1587"
        ],
        "dialogID": 409110405
      }
    ],
    [
      {
        "$type": "HDGKHDNFMIM",
        "type": "DIALOG_SELECT",
        "delayTime": 0.4000000059604645,
        "aliasList": [
          "Avatar"
        ],
        "dialogIDList": [
          409110407,
          409110409
        ],
        "grpIDList": [
          3905626161,
          3905626162
        ],
        "useGrpId": true
      },
      {
        "$type": "PKKMAMONGEO",
        "type": "DIALOG",
        "aliasList": [
          "1587"
        ],
        "dialogID": 409110406
      },
      {
        "$type": "FABLGECDBCH",
        "type": "BODY_LANG",
        "aliasList": [
          "1587"
        ],
        "randomParamList": [
          1171,
          1172,
          1173
        ],
        "eventPatternSuiteKey": "",
        "FOHHKFAIAAJ": ""
      }
    ],
    [
      {
        "$type": "PKKMAMONGEO",
        "type": "DIALOG",
        "aliasList": [
          "1587"
        ],
        "dialogID": 409110408
      }
    ],
    [
      {
        "$type": "PKKMAMONGEO",
        "type": "DIALOG",
        "aliasList": [
          "1587"
        ],
        "dialogID": 409110410
      }
    ],
    [
      {
        "$type": "PKKMAMONGEO",
        "type": "DIALOG",
        "aliasList": [
          "1587"
        ],
        "dialogID": 409110411
      }
    ],
    [
      {
        "$type": "MoleMole.Config.ConfigTimeProtectAction",
        "type": "TIME_PROTECT",
        "duration": 0.10000000149011612
      },
      {
        "$type": "LLGANGLOEEO",
        "type": "STEER_TO",
        "duration": 1.0,
        "aliasList": [
          "1587"
        ],
        "steerType": "TO_LOCAL_AVATAR_ADVANCED",
        "useSteerAnim": true,
        "targetNpcAlias": "",
        "OAFJBHJHLJG": ""
      }
    ]
  ],
  "groupId": [
    {
      "grpId": 3905626155,
      "nextGrpId": 3905626156
    },
    {
      "index": 1,
      "grpId": 3905626156,
      "nextGrpId": 3905626157
    },
    {
      "index": 2,
      "grpId": 3905626157,
      "nextGrpId": 3905626158
    },
    {
      "index": 3,
      "grpId": 3905626158,
      "nextGrpId": 3905626159
    },
    {
      "index": 4,
      "grpId": 3905626159,
      "nextGrpId": 3905626160
    },
    {
      "index": 5,
      "grpId": 3905626160,
      "nextGrpId": 3905626161
    },
    {
      "index": 6,
      "grpId": 3905626161,
      "nextGrpId": 815326565
    },
    {
      "index": 7,
      "grpId": 3905626162,
      "nextGrpId": 3905626163
    },
    {
      "index": 8,
      "grpId": 3905626163,
      "nextGrpId": 815326565
    },
    {
      "index": 9,
      "grpId": 815326565,
      "nextGrpId": 815326566
    }
  ],
  "freeStyleDic": {
    "1587": [
      1190,
      1200,
      1230,
      1171,
      1172,
      1173
    ]
  }
}