{
  "luaDataPath": "",
  "isSimpleTalk": true,
  "entityBan": "",
  "disableNpcLod": true,
  "isBanWidgetPet": true,
  "protectNpcMobileLod": true,
  "talkFlag": 5,
  "startFade": {
    "startFadeOutDuration": 0.0
  },
  "endFade": {
    "startFadeOutDuration": 0.0
  },
  "actors": [
    {
      "alias": "Avatar",
      "visible": true,
      "bornPointName": "[3_4021:882.391,154.090,6322.403,0.000,270.000,0.000]",
      "relativePosType": "AVATAR_NEW",
      "relativePosNpcAlias": "",
      "_bindMovingTargetKey": ""
    },
    {
      "configID": 20987,
      "alias": "20987",
      "visible": true,
      "bornPointName": "",
      "removeActorType": "NEW_REMOVE_WITH_DISAPPEAR",
      "relativePosType": "AVATAR_NEW",
      "relativePosNpcAlias": "",
      "_bindMovingTargetKey": ""
    },
    {
      "configID": 1005,
      "alias": "1005",
      "visible": true,
      "bornPointName": "",
      "useRelativePos": true,
      "relativePos": {
        "x": -0.6000000238418579,
        "z": -0.30000001192092896
      },
      "removeActorType": "NEW_REMOVE_WITH_DISAPPEAR",
      "relativePosType": "AVATAR_NEW",
      "relativePosNpcAlias": "",
      "_bindMovingTargetKey": ""
    }
  ],
  "group": [
    [
      {
        "$type": "FJKIHHKJLMJ",
        "type": "CAMERA_FOCUS",
        "duration": 0.10000000149011612,
        "actionId": 103,
        "targetNpcAlias": "",
        "KJOEFBPOIIH": "",
        "IICFKKEBIEC": "",
        "EGEHEJEBLBJ": ""
      },
      {
        "$type": "MoleMole.Config.ConfigTimeProtectAction",
        "type": "TIME_PROTECT",
        "duration": 0.10000000149011612,
        "actionId": 104
      },
      {
        "$type": "LLGANGLOEEO",
        "type": "STEER_TO",
        "delayTime": 0.30000001192092896,
        "duration": 0.800000011920929,
        "aliasList": [
          "Avatar"
        ],
        "actionId": 152,
        "steerType": "TO_TARGET_ADVANCED",
        "useSteerAnim": true,
        "interruptFreestyle": true,
        "forceSteer": true,
        "targetNpcAlias": "20987",
        "fixInterNull": true,
        "OAFJBHJHLJG": ""
      }
    ],
    [
      {
        "$type": "PKKMAMONGEO",
        "type": "DIALOG",
        "aliasList": [
          "20987"
        ],
        "actionId": 107,
        "dialogID": 733150201,
        "protectTime": 0.5
      }
    ],
    [
      {
        "$type": "PKKMAMONGEO",
        "type": "DIALOG",
        "aliasList": [
          "1005"
        ],
        "actionId": 109,
        "dialogID": 733150202,
        "protectTime": 0.5
      }
    ],
    [
      {
        "$type": "PKKMAMONGEO",
        "type": "DIALOG",
        "aliasList": [
          "20987"
        ],
        "actionId": 111,
        "dialogID": 733150203,
        "protectTime": 0.5
      }
    ],
    [
      {
        "$type": "PKKMAMONGEO",
        "type": "DIALOG",
        "aliasList": [
          "1005"
        ],
        "actionId": 113,
        "dialogID": 733150204,
        "protectTime": 0.5
      }
    ],
    [
      {
        "$type": "PKKMAMONGEO",
        "type": "DIALOG",
        "aliasList": [
          "1005"
        ],
        "actionId": 115,
        "dialogID": 733150205,
        "protectTime": 0.5
      },
      {
        "$type": "HDGKHDNFMIM",
        "type": "DIALOG_SELECT",
        "delayTime": 0.4000000059604645,
        "aliasList": [
          "Avatar"
        ],
        "actionId": 116,
        "dialogIDList": [
          733150206,
          733150207
        ],
        "grpIDList": [
          8279117,
          8279117
        ],
        "useGrpId": true,
        "countDownGrpId": 8279110
      }
    ],
    [
      {
        "$type": "PKKMAMONGEO",
        "type": "DIALOG",
        "aliasList": [
          "1005"
        ],
        "actionId": 118,
        "dialogID": 733150208,
        "protectTime": 0.5
      }
    ],
    [
      {
        "$type": "PKKMAMONGEO",
        "type": "DIALOG",
        "aliasList": [
          "20987"
        ],
        "actionId": 120,
        "dialogID": 733150209,
        "protectTime": 0.5
      }
    ],
    [
      {
        "$type": "PKKMAMONGEO",
        "type": "DIALOG",
        "aliasList": [
          "1005"
        ],
        "actionId": 122,
        "dialogID": 733150210,
        "protectTime": 0.5
      }
    ],
    [
      {
        "$type": "PKKMAMONGEO",
        "type": "DIALOG",
        "aliasList": [
          "20987"
        ],
        "actionId": 124,
        "dialogID": 733150211,
        "protectTime": 0.5
      }
    ],
    [
      {
        "$type": "PKKMAMONGEO",
        "type": "DIALOG",
        "aliasList": [
          "20987"
        ],
        "actionId": 126,
        "dialogID": 733150212,
        "protectTime": 0.5
      }
    ],
    [
      {
        "$type": "PKKMAMONGEO",
        "type": "DIALOG",
        "aliasList": [
          "1005"
        ],
        "actionId": 128,
        "dialogID": 733150213,
        "protectTime": 0.5
      }
    ],
    [
      {
        "$type": "PKKMAMONGEO",
        "type": "DIALOG",
        "aliasList": [
          "20987"
        ],
        "actionId": 130,
        "dialogID": 733150214,
        "protectTime": 0.5
      }
    ],
    [
      {
        "$type": "PKKMAMONGEO",
        "type": "DIALOG",
        "aliasList": [
          "20987"
        ],
        "actionId": 132,
        "dialogID": 733150215,
        "protectTime": 0.5
      }
    ],
    [
      {
        "$type": "PKKMAMONGEO",
        "type": "DIALOG",
        "aliasList": [
          "20987"
        ],
        "actionId": 134,
        "dialogID": 733150216,
        "protectTime": 0.5
      }
    ],
    [
      {
        "$type": "PKKMAMONGEO",
        "type": "DIALOG",
        "aliasList": [
          "20987"
        ],
        "actionId": 136,
        "dialogID": 733150217,
        "protectTime": 0.5
      }
    ],
    [
      {
        "$type": "PKKMAMONGEO",
        "type": "DIALOG",
        "aliasList": [
          "20987"
        ],
        "actionId": 138,
        "dialogID": 733150218,
        "protectTime": 0.5
      },
      {
        "$type": "HDGKHDNFMIM",
        "type": "DIALOG_SELECT",
        "delayTime": 0.4000000059604645,
        "aliasList": [
          "Avatar"
        ],
        "actionId": 139,
        "dialogIDList": [
          733150219,
          733150220
        ],
        "grpIDList": [
          256652497,
          256652497
        ],
        "useGrpId": true,
        "countDownGrpId": 8279110
      }
    ],
    [
      {
        "$type": "PKKMAMONGEO",
        "type": "DIALOG",
        "aliasList": [
          "1005"
        ],
        "actionId": 141,
        "dialogID": 733150221,
        "protectTime": 0.5
      }
    ],
    [
      {
        "$type": "PKKMAMONGEO",
        "type": "DIALOG",
        "aliasList": [
          "20987"
        ],
        "actionId": 143,
        "dialogID": 733150222,
        "protectTime": 0.5
      }
    ],
    [
      {
        "$type": "PKKMAMONGEO",
        "type": "DIALOG",
        "aliasList": [
          "1005"
        ],
        "actionId": 145,
        "dialogID": 733150223,
        "protectTime": 0.5
      }
    ],
    [
      {
        "$type": "PKKMAMONGEO",
        "type": "DIALOG",
        "aliasList": [
          "1005"
        ],
        "actionId": 147,
        "dialogID": 733150224,
        "protectTime": 0.5
      }
    ],
    [
      {
        "$type": "PKKMAMONGEO",
        "type": "DIALOG",
        "aliasList": [
          "20987"
        ],
        "actionId": 149,
        "dialogID": 733150225,
        "protectTime": 0.5
      }
    ],
    [
      {
        "$type": "PKKMAMONGEO",
        "type": "DIALOG",
        "aliasList": [
          "20987"
        ],
        "actionId": 151,
        "dialogID": 733150226,
        "protectTime": 0.5
      }
    ],
    [
      {
        "$type": "MoleMole.Config.ConfigTimeProtectAction",
        "type": "TIME_PROTECT",
        "duration": 0.10000000149011612,
        "actionId": 105
      }
    ]
  ],
  "groupId": [
    {
      "grpId": 8279111,
      "nextGrpId": 8279112
    },
    {
      "index": 1,
      "grpId": 8279112,
      "nextGrpId": 8279113
    },
    {
      "index": 2,
      "grpId": 8279113,
      "nextGrpId": 8279114
    },
    {
      "index": 3,
      "grpId": 8279114,
      "nextGrpId": 8279115
    },
    {
      "index": 4,
      "grpId": 8279115,
      "nextGrpId": 8279116
    },
    {
      "index": 5,
      "grpId": 8279116,
      "nextGrpId": 8279117
    },
    {
      "index": 6,
      "grpId": 8279117,
      "nextGrpId": 8279118
    },
    {
      "index": 7,
      "grpId": 8279118,
      "nextGrpId": 8279119
    },
    {
      "index": 8,
      "grpId": 8279119,
      "nextGrpId": 256652489
    },
    {
      "index": 9,
      "grpId": 256652489,
      "nextGrpId": 256652490
    },
    {
      "index": 10,
      "grpId": 256652490,
      "nextGrpId": 256652491
    },
    {
      "index": 11,
      "grpId": 256652491,
      "nextGrpId": 256652492
    },
    {
      "index": 12,
      "grpId": 256652492,
      "nextGrpId": 256652493
    },
    {
      "index": 13,
      "grpId": 256652493,
      "nextGrpId": 256652494
    },
    {
      "index": 14,
      "grpId": 256652494,
      "nextGrpId": 256652495
    },
    {
      "index": 15,
      "grpId": 256652495,
      "nextGrpId": 256652496
    },
    {
      "index": 16,
      "grpId": 256652496,
      "nextGrpId": 256652497
    },
    {
      "index": 17,
      "grpId": 256652497,
      "nextGrpId": 256652498
    },
    {
      "index": 18,
      "grpId": 256652498,
      "nextGrpId": 256652520
    },
    {
      "index": 19,
      "grpId": 256652520,
      "nextGrpId": 256652521
    },
    {
      "index": 20,
      "grpId": 256652521,
      "nextGrpId": 256652522
    },
    {
      "index": 21,
      "grpId": 256652522,
      "nextGrpId": 256652523
    },
    {
      "index": 22,
      "grpId": 256652523,
      "nextGrpId": 256652524
    },
    {
      "index": 23,
      "grpId": 256652524,
      "nextGrpId": 256652525
    }
  ],
  "freeStyleDic": {
    "20987": []
  }
}