{
  "talkId": 1403308,
  "damageRatio": "NARRATOR",
  "dialogList": [
    {
      "id": 140339911,
      "talkRole": {
        "type": "TALK_ROLE_NPC",
        "_id": "1073"
      },
      "talkContentTextMapHash": 373870842,
      "talkAssetPath": "",
      "talkAssetPathAlter": "",
      "talkAudioName": "",
      "actionBefore": "",
      "actionWhile": "",
      "actionAfter": "",
      "optionIcon": "",
      "LOEKJHEPHPG": 704982228,
      "iconPath": "ART/UI/Atlas/CutSceneUI/UI_TRPGPic/UI_TRPG_Furina",
      "uiType": "DIALOG_UI_TRPGSP"
    }
  ]
}