{
  "talkId": 4016205,
  "damageRatio": "NARRATOR",
  "dialogList": [
    {
      "id": 401629907,
      "talkRole": {
        "type": "TALK_ROLE_NPC",
        "_id": "2670"
      },
      "talkContentTextMapHash": 3950554690,
      "talkAssetPath": "",
      "talkAssetPathAlter": "",
      "talkAudioName": "",
      "actionBefore": "",
      "actionWhile": "",
      "actionAfter": "",
      "optionIcon": "",
      "PEMKNDAABBE": 3079991036,
      "iconPath": ""
    }
  ]
}