{
  "luaDataPath": "",
  "startBlackKeepTime": 0.5,
  "entityBan": "",
  "disableNpcLod": true,
  "isAutoBanNpc": true,
  "isBanWidgetPet": true,
  "protectNpcMobileLod": true,
  "startFade": {
    "startFadeInDuration": 0.5,
    "startFadeOutDuration": 0.5
  },
  "endFade": {
    "startFadeOutDuration": 0.0
  },
  "actors": [
    {
      "alias": "Avatar",
      "visible": true,
      "bornPointName": "N10000005_T7322511",
      "relativePosType": "AVATAR_NEW",
      "relativePosNpcAlias": "",
      "_bindMovingTargetKey": ""
    },
    {
      "configID": 4296,
      "alias": "4296",
      "visible": true,
      "bornPointName": "N20723_T7322511",
      "removeActorType": "NEW_REMOVE",
      "relativePosType": "AVATAR_NEW",
      "relativePosNpcAlias": "",
      "_bindMovingTargetKey": ""
    },
    {
      "configID": 1005,
      "alias": "1005",
      "visible": true,
      "bornPointName": "",
      "useRelativePos": true,
      "relativePos": {
        "x": 0.5,
        "z": 0.5
      },
      "removeActorType": "REMOVE_WITH_DISAPPEAR",
      "relativePosType": "AVATAR_NEW",
      "relativePosNpcAlias": "",
      "_bindMovingTargetKey": ""
    }
  ],
  "group": [
    [
      {
        "$type": "MoleMole.Config.ConfigTimeProtectAction",
        "type": "TIME_PROTECT",
        "duration": 1.0,
        "actionId": 104
      },
      {
        "$type": "MoleMole.Config.ConfigBlackScreenAction",
        "type": "BLACK_SCREEN",
        "duration": 1.0,
        "actionId": 154,
        "blackScreenType": "KEEP_BLACK",
        "durationToBlack": 0.5,
        "durationKeepBlack": 1.0,
        "durationFromBlack": 0.5,
        "inteePos": "",
        "textMapID": "",
        "useTextFade": true
      },
      {
        "$type": "MoleMole.Config.ConfigChangeTimeInterAction",
        "type": "CHANGE_TIME",
        "actionId": 179,
        "toTime": 3.5
      },
      {
        "$type": "MoleMole.Config.ConfigTeleportToAction",
        "type": "TELEPORT_TO",
        "aliasList": [
          "Avatar"
        ],
        "actionId": 164,
        "position": {
          "x": -1476.4580078125,
          "y": -50.21500015258789,
          "z": 5399.783203125
        },
        "forward": {
          "x": 4.538000106811523,
          "y": -1.0360000133514404,
          "z": 11.579999923706055
        },
        "openLongDisTeleport": true,
        "_posBindMovingTargetKey": "",
        "_forwardBindMovingTargetKey": ""
      },
      {
        "$type": "LJLMDHDCAMK",
        "type": "LOOK_AT",
        "aliasList": [
          "Avatar"
        ],
        "actionId": 167,
        "headTurnTime": 0.5,
        "targetNpcAlias": "",
        "openBackProtect": true,
        "targetNpcLookAtPoint": "",
        "OAFJBHJHLJG": ""
      },
      {
        "$type": "MoleMole.Config.ConfigSetAnimatorSpeedAction",
        "type": "SET_ANIMATOR_SPEED",
        "aliasList": [
          "Avatar"
        ],
        "actionId": 175,
        "speedRatio": 0.800000011920929,
        "blendType": "EaseInOutQuad"
      },
      {
        "$type": "CPJKOIHIPBE",
        "type": "EMO_SYNC",
        "aliasList": [
          "Avatar"
        ],
        "actionId": 245,
        "dataPath": "",
        "phonemePath": "Cs_Emo_Avatar_Common/Cs_Emo_Avatar_Normal01",
        "emotionPath": "Cs_Emo_Avatar_Common/Cs_Emo_Avatar_Default01",
        "mateDataPath": "",
        "matePhonemePath": "",
        "mateEmotionPath": "",
        "phonemePathHashList": [
          9445916536337636767,
          14128686126614747219,
          10779105391569104182,
          11659242061757756269
        ],
        "emotionPathHashList": [
          17551147554270584215,
          11567349927864383394,
          11535483659151300012,
          3124390413002392171
        ],
        "FMDPBECPELH": "",
        "ADKBLPOKGIK": ""
      },
      {
        "$type": "MoleMole.Config.ConfigTeleportToAction",
        "type": "TELEPORT_TO",
        "aliasList": [
          "4296"
        ],
        "actionId": 166,
        "position": {
          "x": -1475.2530517578125,
          "y": -50.16699981689453,
          "z": 5399.619140625
        },
        "forward": {
          "x": 4.11299991607666,
          "y": -1.0880000591278076,
          "z": 11.630999565124512
        },
        "openLongDisTeleport": true,
        "_posBindMovingTargetKey": "",
        "_forwardBindMovingTargetKey": ""
      },
      {
        "$type": "LJLMDHDCAMK",
        "type": "LOOK_AT",
        "aliasList": [
          "4296"
        ],
        "actionId": 168,
        "headTurnTime": 0.5,
        "targetNpcAlias": "",
        "openBackProtect": true,
        "targetNpcLookAtPoint": "",
        "OAFJBHJHLJG": ""
      },
      {
        "$type": "MoleMole.Config.ConfigSetAnimatorSpeedAction",
        "type": "SET_ANIMATOR_SPEED",
        "aliasList": [
          "4296"
        ],
        "actionId": 177,
        "speedRatio": 1.100000023841858,
        "blendType": "EaseInOutQuad"
      },
      {
        "$type": "MoleMole.Config.ConfigTeleportToAction",
        "type": "TELEPORT_TO",
        "aliasList": [
          "1005"
        ],
        "actionId": 165,
        "position": {
          "x": -1477.0419921875,
          "y": -50.194000244140625,
          "z": 5400.16796875
        },
        "forward": {
          "x": 4.5320000648498535,
          "y": -1.031000018119812,
          "z": 11.531000137329102
        },
        "openLongDisTeleport": true,
        "_posBindMovingTargetKey": "",
        "_forwardBindMovingTargetKey": ""
      },
      {
        "$type": "LJLMDHDCAMK",
        "type": "LOOK_AT",
        "aliasList": [
          "1005"
        ],
        "actionId": 169,
        "headTurnTime": 0.5,
        "targetNpcAlias": "",
        "openBackProtect": true,
        "targetNpcLookAtPoint": "",
        "OAFJBHJHLJG": ""
      },
      {
        "$type": "MoleMole.Config.ConfigSetAnimatorSpeedAction",
        "type": "SET_ANIMATOR_SPEED",
        "aliasList": [
          "1005"
        ],
        "actionId": 176,
        "speedRatio": 0.800000011920929,
        "blendType": "EaseInOutQuad"
      }
    ],
    [
      {
        "$type": "MoleMole.Config.ConfigBlackScreenAction",
        "type": "BLACK_SCREEN",
        "duration": 0.5,
        "actionId": 155,
        "blackScreenType": "FROM_BLACK",
        "durationToBlack": 0.5,
        "durationKeepBlack": 0.5,
        "durationFromBlack": 0.5,
        "inteePos": "",
        "textMapID": "",
        "useTextFade": true
      },
      {
        "$type": "FJKIHHKJLMJ",
        "type": "CAMERA_MOVE",
        "duration": 0.5,
        "actionId": 174,
        "camPosOffset": {
          "x": -1481.9580078125,
          "y": -45.11600112915039,
          "z": 5416.76513671875
        },
        "camForwardTargetOffset": {
          "x": -1481.6209716796875,
          "y": -45.32600021362305,
          "z": 5415.84716796875
        },
        "lerpPattern": 6,
        "cameraBlendType": "EaseInOutCubic",
        "NJBNNOMLKCK": {},
        "needZAxisRotate": true,
        "openCameraDither": false,
        "targetNpcAlias": "",
        "closeTreeLeafDither": true,
        "KJOEFBPOIIH": "",
        "IICFKKEBIEC": "",
        "EGEHEJEBLBJ": ""
      },
      {
        "$type": "MoleMole.Config.ConfigMoveToAction",
        "type": "MOVE_TO",
        "aliasList": [
          "Avatar"
        ],
        "actionId": 171,
        "moveType": "WALK",
        "routeList": [
          {
            "x": -1463.114013671875,
            "y": -53.34000015258789,
            "z": 5424.041015625
          }
        ],
        "exactlyMove": true,
        "closeNavMesh": true,
        "closeAvatarNavMesh": true,
        "openSetPos": true,
        "_bindMovingTargetKey": ""
      },
      {
        "$type": "MoleMole.Config.ConfigMoveToAction",
        "type": "MOVE_TO",
        "aliasList": [
          "4296"
        ],
        "actionId": 172,
        "moveType": "WALK",
        "routeList": [
          {
            "x": -1462.208984375,
            "y": -53.400001525878906,
            "z": 5422.9951171875
          }
        ],
        "exactlyMove": true,
        "closeNavMesh": true,
        "openSetPos": true,
        "_bindMovingTargetKey": ""
      },
      {
        "$type": "PKKMAMONGEO",
        "type": "DIALOG",
        "aliasList": [
          "1005"
        ],
        "actionId": 107,
        "dialogID": 732251101,
        "protectTime": 0.5
      },
      {
        "$type": "MoleMole.Config.ConfigMoveToAction",
        "type": "MOVE_TO",
        "aliasList": [
          "1005"
        ],
        "actionId": 173,
        "moveType": "WALK",
        "routeList": [
          {
            "x": -1463.7939453125,
            "y": -53.19599914550781,
            "z": 5424.94287109375
          }
        ],
        "exactlyMove": true,
        "closeNavMesh": true,
        "openSetPos": true,
        "_bindMovingTargetKey": ""
      },
      {
        "$type": "FJKIHHKJLMJ",
        "type": "CAMERA_MOVE",
        "delayTime": 0.10000000149011612,
        "duration": 6.458000183105469,
        "actionId": 162,
        "camPosOffset": {
          "x": -1480.637939453125,
          "y": -46.1510009765625,
          "z": 5416.9580078125
        },
        "camForwardTargetOffset": {
          "x": -1480.301025390625,
          "y": -46.361000061035156,
          "z": 5416.0400390625
        },
        "lerpPattern": 2,
        "cameraBlendType": "EaseOutQuad",
        "NJBNNOMLKCK": {},
        "needZAxisRotate": true,
        "openCameraDither": false,
        "targetNpcAlias": "",
        "closeTreeLeafDither": true,
        "KJOEFBPOIIH": "",
        "IICFKKEBIEC": "",
        "EGEHEJEBLBJ": ""
      }
    ],
    [
      {
        "$type": "FJKIHHKJLMJ",
        "type": "CAMERA_MOVE",
        "duration": 0.5,
        "actionId": 180,
        "camPosOffset": {
          "x": -1454.322021484375,
          "y": -51.0890007019043,
          "z": 5425.31396484375
        },
        "camForwardTargetOffset": {
          "x": -1454.3740234375,
          "y": -50.62900161743164,
          "z": 5426.2001953125
        },
        "camFov": 50.0,
        "lerpPattern": 6,
        "cameraBlendType": "EaseInOutCubic",
        "NJBNNOMLKCK": {},
        "needZAxisRotate": true,
        "openCameraDither": false,
        "targetNpcAlias": "",
        "closeTreeLeafDither": true,
        "KJOEFBPOIIH": "",
        "IICFKKEBIEC": "",
        "EGEHEJEBLBJ": ""
      },
      {
        "$type": "MoleMole.Config.ConfigTeleportToAction",
        "type": "TELEPORT_TO",
        "aliasList": [
          "Avatar"
        ],
        "actionId": 181,
        "position": {
          "x": -1456.8900146484375,
          "y": -53.481998443603516,
          "z": 5422.837890625
        },
        "forward": {
          "x": 2.555000066757202,
          "y": -0.7739999890327454,
          "z": 4.550000190734863
        },
        "openLongDisTeleport": true,
        "_posBindMovingTargetKey": "",
        "_forwardBindMovingTargetKey": ""
      },
      {
        "$type": "LJLMDHDCAMK",
        "type": "LOOK_AT",
        "aliasList": [
          "Avatar"
        ],
        "actionId": 187,
        "enableHead": true,
        "useTargetPos": true,
        "enableAbsolute": true,
        "targetPosition": {
          "x": -1452.35302734375,
          "y": -50.619998931884766,
          "z": 5430.98779296875
        },
        "headTurnTime": 0.5,
        "targetNpcAlias": "",
        "lookAtTargetType": "NONE",
        "openBackProtect": true,
        "targetNpcLookAtPoint": "",
        "OAFJBHJHLJG": ""
      },
      {
        "$type": "PKKMAMONGEO",
        "type": "DIALOG",
        "aliasList": [
          "4296"
        ],
        "actionId": 109,
        "dialogID": 732251102,
        "protectTime": 3.6579999923706055
      },
      {
        "$type": "MoleMole.Config.ConfigTeleportToAction",
        "type": "TELEPORT_TO",
        "aliasList": [
          "4296"
        ],
        "actionId": 182,
        "position": {
          "x": -1452.8389892578125,
          "y": -52.87300109863281,
          "z": 5421.8818359375
        },
        "forward": {
          "x": -1.1890000104904175,
          "y": -1.371000051498413,
          "z": 5.2170000076293945
        },
        "openLongDisTeleport": true,
        "_posBindMovingTargetKey": "",
        "_forwardBindMovingTargetKey": ""
      },
      {
        "$type": "LJLMDHDCAMK",
        "type": "LOOK_AT",
        "aliasList": [
          "4296"
        ],
        "actionId": 189,
        "enableHead": true,
        "useTargetPos": true,
        "enableAbsolute": true,
        "targetPosition": {
          "x": -1451.1390380859375,
          "y": -49.82500076293945,
          "z": 5430.9140625
        },
        "headTurnTime": 0.5,
        "targetNpcAlias": "",
        "lookAtTargetType": "NONE",
        "openBackProtect": true,
        "targetNpcLookAtPoint": "",
        "OAFJBHJHLJG": ""
      },
      {
        "$type": "LJLMDHDCAMK",
        "type": "LOOK_AT",
        "aliasList": [
          "1005"
        ],
        "actionId": 188,
        "enableHead": true,
        "useTargetPos": true,
        "enableAbsolute": true,
        "targetPosition": {
          "x": -1452.1639404296875,
          "y": -51.20000076293945,
          "z": 5432.2919921875
        },
        "headTurnTime": 0.5,
        "targetNpcAlias": "",
        "lookAtTargetType": "NONE",
        "openBackProtect": true,
        "targetNpcLookAtPoint": "",
        "OAFJBHJHLJG": ""
      },
      {
        "$type": "MoleMole.Config.ConfigTeleportToAction",
        "type": "TELEPORT_TO",
        "delayTime": 0.00800000037997961,
        "aliasList": [
          "1005"
        ],
        "actionId": 183,
        "position": {
          "x": -1457.802001953125,
          "y": -53.494998931884766,
          "z": 5422.73095703125
        },
        "forward": {
          "x": 2.7200000286102295,
          "y": -0.8209999799728394,
          "z": 5.111000061035156
        },
        "openLongDisTeleport": true,
        "_posBindMovingTargetKey": "",
        "_forwardBindMovingTargetKey": ""
      },
      {
        "$type": "FJKIHHKJLMJ",
        "type": "CAMERA_MOVE",
        "delayTime": 0.10000000149011612,
        "duration": 6.099999904632568,
        "actionId": 178,
        "camPosOffset": {
          "x": -1454.177001953125,
          "y": -53.310001373291016,
          "z": 5425.24609375
        },
        "camForwardTargetOffset": {
          "x": -1454.2149658203125,
          "y": -52.8390007019043,
          "z": 5426.126953125
        },
        "camFov": 50.0,
        "lerpPattern": 2,
        "cameraBlendType": "EaseOutQuad",
        "NJBNNOMLKCK": {},
        "needZAxisRotate": true,
        "openCameraDither": false,
        "targetNpcAlias": "",
        "closeTreeLeafDither": true,
        "KJOEFBPOIIH": "",
        "IICFKKEBIEC": "",
        "EGEHEJEBLBJ": ""
      },
      {
        "$type": "MoleMole.Config.ConfigMoveToAction",
        "type": "MOVE_TO",
        "delayTime": 0.10000000149011612,
        "aliasList": [
          "Avatar"
        ],
        "actionId": 184,
        "moveType": "WALK",
        "routeList": [
          {
            "x": -1454.8189697265625,
            "y": -54.255001068115234,
            "z": 5426.51318359375
          }
        ],
        "exactlyMove": true,
        "closeNavMesh": true,
        "closeAvatarNavMesh": true,
        "openSetPos": true,
        "_bindMovingTargetKey": ""
      },
      {
        "$type": "MoleMole.Config.ConfigMoveToAction",
        "type": "MOVE_TO",
        "delayTime": 0.10000000149011612,
        "aliasList": [
          "4296"
        ],
        "actionId": 185,
        "moveType": "WALK",
        "routeList": [
          {
            "x": -1453.5550537109375,
            "y": -54.25899887084961,
            "z": 5426.39599609375
          }
        ],
        "exactlyMove": true,
        "closeNavMesh": true,
        "openSetPos": true,
        "_bindMovingTargetKey": ""
      },
      {
        "$type": "MoleMole.Config.ConfigMoveToAction",
        "type": "MOVE_TO",
        "delayTime": 0.10000000149011612,
        "aliasList": [
          "1005"
        ],
        "actionId": 186,
        "moveType": "WALK",
        "routeList": [
          {
            "x": -1455.43798828125,
            "y": -54.316001892089844,
            "z": 5426.9072265625
          }
        ],
        "exactlyMove": true,
        "closeNavMesh": true,
        "openSetPos": true,
        "_bindMovingTargetKey": ""
      },
      {
        "$type": "HDGKHDNFMIM",
        "type": "DIALOG_SELECT",
        "delayTime": 3.6579999923706055,
        "aliasList": [
          "Avatar"
        ],
        "actionId": 191,
        "dialogIDList": [
          732251103
        ],
        "grpIDList": [
          3656556328
        ],
        "useGrpId": true,
        "countDownGrpId": 3656556324
      }
    ],
    [
      {
        "$type": "MoleMole.Config.ConfigSetAnimatorSpeedAction",
        "type": "SET_ANIMATOR_SPEED",
        "duration": 0.5,
        "aliasList": [
          "Avatar"
        ],
        "actionId": 200,
        "speedRatio": 1.0,
        "blendType": "EaseInOutQuad"
      },
      {
        "$type": "PKKMAMONGEO",
        "type": "DIALOG",
        "aliasList": [
          "4296"
        ],
        "actionId": 112,
        "dialogID": 732251104,
        "protectTime": 1.5
      },
      {
        "$type": "LJLMDHDCAMK",
        "type": "LOOK_AT",
        "aliasList": [
          "4296"
        ],
        "actionId": 197,
        "enableHead": true,
        "useTargetPos": true,
        "enableAbsolute": true,
        "targetPosition": {
          "x": -1454.322021484375,
          "y": -52.757999420166016,
          "z": 5426.9130859375
        },
        "headTurnTime": 0.5,
        "targetNpcAlias": "",
        "lookAtTargetType": "NONE",
        "openBackProtect": true,
        "targetNpcLookAtPoint": "",
        "OAFJBHJHLJG": ""
      },
      {
        "$type": "MoleMole.Config.ConfigSetAnimatorSpeedAction",
        "type": "SET_ANIMATOR_SPEED",
        "duration": 0.5,
        "aliasList": [
          "4296"
        ],
        "actionId": 201,
        "speedRatio": 1.0,
        "blendType": "EaseInOutQuad"
      },
      {
        "$type": "LLGANGLOEEO",
        "type": "STEER_TO",
        "duration": 1.0,
        "aliasList": [
          "1005"
        ],
        "actionId": 196,
        "steerType": "ABSOLUTE",
        "steerDir": {
          "x": -1454.1650390625,
          "y": -54.41400146484375,
          "z": 5427.2490234375
        },
        "useSteerAnim": true,
        "interruptFreestyle": true,
        "forceSteer": true,
        "targetNpcAlias": "",
        "ignoreY": true,
        "fixInterNull": true,
        "OAFJBHJHLJG": ""
      },
      {
        "$type": "MoleMole.Config.ConfigSetAnimatorSpeedAction",
        "type": "SET_ANIMATOR_SPEED",
        "duration": 0.5,
        "aliasList": [
          "1005"
        ],
        "actionId": 202,
        "speedRatio": 1.0,
        "blendType": "EaseInOutQuad"
      },
      {
        "$type": "LJLMDHDCAMK",
        "type": "LOOK_AT",
        "delayTime": 0.28299999237060547,
        "aliasList": [
          "1005"
        ],
        "actionId": 195,
        "enableHead": true,
        "useTargetPos": true,
        "enableAbsolute": true,
        "targetPosition": {
          "x": -1453.8399658203125,
          "y": -53.042999267578125,
          "z": 5426.41796875
        },
        "headTurnTime": 0.5,
        "targetNpcAlias": "",
        "lookAtTargetType": "NONE",
        "openBackProtect": true,
        "targetNpcLookAtPoint": "",
        "OAFJBHJHLJG": ""
      },
      {
        "$type": "LJLMDHDCAMK",
        "type": "LOOK_AT",
        "delayTime": 0.44999998807907104,
        "aliasList": [
          "Avatar"
        ],
        "actionId": 194,
        "enableHead": true,
        "useTargetPos": true,
        "enableAbsolute": true,
        "targetPosition": {
          "x": -1453.56298828125,
          "y": -52.87099838256836,
          "z": 5426.455078125
        },
        "headTurnTime": 0.5,
        "targetNpcAlias": "",
        "lookAtTargetType": "NONE",
        "openBackProtect": true,
        "targetNpcLookAtPoint": "",
        "OAFJBHJHLJG": ""
      }
    ],
    [
      {
        "$type": "FJKIHHKJLMJ",
        "type": "CAMERA_MOVE",
        "duration": 0.5,
        "actionId": 206,
        "camPosOffset": {
          "x": -1455.8280029296875,
          "y": -52.983001708984375,
          "z": 5427.27783203125
        },
        "camForwardTargetOffset": {
          "x": -1454.89404296875,
          "y": -52.981998443603516,
          "z": 5426.921875
        },
        "camFov": 40.0,
        "lerpPattern": 6,
        "cameraBlendType": "EaseInOutCubic",
        "NJBNNOMLKCK": {},
        "needZAxisRotate": true,
        "openCameraDither": false,
        "targetNpcAlias": "",
        "closeTreeLeafDither": true,
        "KJOEFBPOIIH": "",
        "IICFKKEBIEC": "",
        "EGEHEJEBLBJ": ""
      },
      {
        "$type": "MoleMole.Config.ConfigTeleportToAction",
        "type": "TELEPORT_TO",
        "aliasList": [
          "Avatar"
        ],
        "actionId": 199,
        "position": {
          "x": -1455.02001953125,
          "y": -54.2869987487793,
          "z": 5426.712890625
        },
        "forward": {
          "x": 1.1649999618530273,
          "y": 0.03099999949336052,
          "z": 0.30399999022483826
        },
        "openLongDisTeleport": true,
        "_posBindMovingTargetKey": "",
        "_forwardBindMovingTargetKey": ""
      },
      {
        "$type": "LJLMDHDCAMK",
        "type": "LOOK_AT",
        "aliasList": [
          "Avatar"
        ],
        "actionId": 203,
        "enableHead": true,
        "useTargetPos": true,
        "enableAbsolute": true,
        "targetPosition": {
          "x": -1453.595947265625,
          "y": -52.87099838256836,
          "z": 5426.37890625
        },
        "headTurnTime": -1.0,
        "targetNpcAlias": "",
        "lookAtTargetType": "NONE",
        "openBackProtect": true,
        "targetNpcLookAtPoint": "",
        "OAFJBHJHLJG": ""
      },
      {
        "$type": "PKKMAMONGEO",
        "type": "DIALOG",
        "aliasList": [
          "4296"
        ],
        "actionId": 114,
        "dialogID": 732251105,
        "protectTime": 0.5
      },
      {
        "$type": "FABLGECDBCH",
        "type": "BODY_LANG",
        "aliasList": [
          "4296"
        ],
        "actionId": 207,
        "bodyLangParam": 1180,
        "forceDoFreeStyle": true,
        "canDoRepeatFreeStyle": false,
        "cantBackToIdleWhenSitLoop": true,
        "eventPatternSuiteKey": "",
        "FOHHKFAIAAJ": ""
      },
      {
        "$type": "MoleMole.Config.ConfigTeleportToAction",
        "type": "TELEPORT_TO",
        "aliasList": [
          "1005"
        ],
        "actionId": 204,
        "position": {
          "x": -1454.85595703125,
          "y": -54.39099884033203,
          "z": 5427.23388671875
        },
        "forward": {
          "x": 0.8690000176429749,
          "z": -0.4950000047683716
        },
        "openLongDisTeleport": true,
        "_posBindMovingTargetKey": "",
        "_forwardBindMovingTargetKey": ""
      },
      {
        "$type": "LJLMDHDCAMK",
        "type": "LOOK_AT",
        "aliasList": [
          "1005"
        ],
        "actionId": 205,
        "enableHead": true,
        "useTargetPos": true,
        "enableAbsolute": true,
        "targetPosition": {
          "x": -1453.7130126953125,
          "y": -52.8489990234375,
          "z": 5426.5390625
        },
        "headTurnTime": -1.0,
        "targetNpcAlias": "",
        "lookAtTargetType": "NONE",
        "openBackProtect": true,
        "targetNpcLookAtPoint": "",
        "OAFJBHJHLJG": ""
      },
      {
        "$type": "FJKIHHKJLMJ",
        "type": "CAMERA_MOVE",
        "delayTime": 0.10000000149011612,
        "duration": 7.558000087738037,
        "actionId": 198,
        "camPosOffset": {
          "x": -1455.64501953125,
          "y": -52.92499923706055,
          "z": 5427.240234375
        },
        "camForwardTargetOffset": {
          "x": -1454.7110595703125,
          "y": -52.92399978637695,
          "z": 5426.8837890625
        },
        "camFov": 40.0,
        "lerpPattern": 2,
        "cameraBlendType": "EaseOutQuad",
        "NJBNNOMLKCK": {},
        "needZAxisRotate": true,
        "openCameraDither": false,
        "targetNpcAlias": "",
        "closeTreeLeafDither": true,
        "KJOEFBPOIIH": "",
        "IICFKKEBIEC": "",
        "EGEHEJEBLBJ": ""
      },
      {
        "$type": "FABLGECDBCH",
        "type": "BODY_LANG",
        "delayTime": 2.7339999675750732,
        "aliasList": [
          "4296"
        ],
        "actionId": 215,
        "isContinue": true,
        "forceDoFreeStyle": true,
        "canDoRepeatFreeStyle": false,
        "cantBackToIdleWhenSitLoop": true,
        "eventPatternSuiteKey": "",
        "FOHHKFAIAAJ": ""
      },
      {
        "$type": "FABLGECDBCH",
        "type": "BODY_LANG",
        "delayTime": 5.008999824523926,
        "aliasList": [
          "4296"
        ],
        "actionId": 208,
        "bodyLangParam": 4040,
        "forceDoFreeStyle": true,
        "canDoRepeatFreeStyle": false,
        "cantBackToIdleWhenSitLoop": true,
        "eventPatternSuiteKey": "",
        "FOHHKFAIAAJ": ""
      }
    ],
    [
      {
        "$type": "PKKMAMONGEO",
        "type": "DIALOG",
        "aliasList": [
          "4296"
        ],
        "actionId": 116,
        "dialogID": 732251106,
        "protectTime": 0.5
      },
      {
        "$type": "LJLMDHDCAMK",
        "type": "LOOK_AT",
        "aliasList": [
          "4296"
        ],
        "actionId": 210,
        "enableHead": true,
        "useTargetPos": true,
        "enableAbsolute": true,
        "targetPosition": {
          "x": -1452.7120361328125,
          "y": -50.849998474121094,
          "z": 5430.30419921875
        },
        "headTurnTime": 0.5,
        "targetNpcAlias": "",
        "lookAtTargetType": "NONE",
        "openBackProtect": true,
        "targetNpcLookAtPoint": "",
        "OAFJBHJHLJG": ""
      },
      {
        "$type": "FABLGECDBCH",
        "type": "BODY_LANG",
        "aliasList": [
          "4296"
        ],
        "actionId": 216,
        "isContinue": true,
        "forceDoFreeStyle": true,
        "canDoRepeatFreeStyle": false,
        "cantBackToIdleWhenSitLoop": true,
        "eventPatternSuiteKey": "",
        "FOHHKFAIAAJ": ""
      },
      {
        "$type": "FJKIHHKJLMJ",
        "type": "CAMERA_MOVE",
        "delayTime": 0.30000001192092896,
        "duration": 0.5,
        "actionId": 213,
        "camPosOffset": {
          "x": -1452.906982421875,
          "y": -53.3380012512207,
          "z": 5427.85107421875
        },
        "camForwardTargetOffset": {
          "x": -1453.2879638671875,
          "y": -53.090999603271484,
          "z": 5426.9599609375
        },
        "camFov": 30.0,
        "lerpPattern": 6,
        "cameraBlendType": "EaseInOutCubic",
        "NJBNNOMLKCK": {},
        "needZAxisRotate": true,
        "openCameraDither": false,
        "targetNpcAlias": "",
        "closeTreeLeafDither": true,
        "KJOEFBPOIIH": "",
        "IICFKKEBIEC": "",
        "EGEHEJEBLBJ": ""
      },
      {
        "$type": "FABLGECDBCH",
        "type": "BODY_LANG",
        "delayTime": 0.375,
        "aliasList": [
          "4296"
        ],
        "actionId": 214,
        "bodyLangParam": 1230,
        "forceDoFreeStyle": true,
        "canDoRepeatFreeStyle": false,
        "cantBackToIdleWhenSitLoop": true,
        "eventPatternSuiteKey": "",
        "FOHHKFAIAAJ": ""
      },
      {
        "$type": "FJKIHHKJLMJ",
        "type": "CAMERA_MOVE",
        "delayTime": 0.4000000059604645,
        "duration": 7.558000087738037,
        "actionId": 212,
        "camPosOffset": {
          "x": -1452.8280029296875,
          "y": -53.34700012207031,
          "z": 5427.81494140625
        },
        "camForwardTargetOffset": {
          "x": -1453.208984375,
          "y": -53.099998474121094,
          "z": 5426.923828125
        },
        "camFov": 30.0,
        "lerpPattern": 2,
        "cameraBlendType": "EaseOutQuad",
        "NJBNNOMLKCK": {},
        "needZAxisRotate": true,
        "openCameraDither": false,
        "targetNpcAlias": "",
        "closeTreeLeafDither": true,
        "KJOEFBPOIIH": "",
        "IICFKKEBIEC": "",
        "EGEHEJEBLBJ": ""
      }
    ],
    [
      {
        "$type": "FJKIHHKJLMJ",
        "type": "CAMERA_MOVE",
        "duration": 0.5,
        "actionId": 219,
        "camPosOffset": {
          "x": -1451.2569580078125,
          "y": -51.37200164794922,
          "z": 5430.55517578125
        },
        "camForwardTargetOffset": {
          "x": -1451.7969970703125,
          "y": -51.7400016784668,
          "z": 5429.7978515625
        },
        "camFov": 30.0,
        "lerpPattern": 6,
        "cameraBlendType": "EaseInOutCubic",
        "NJBNNOMLKCK": {},
        "needZAxisRotate": true,
        "openCameraDither": false,
        "targetNpcAlias": "",
        "closeTreeLeafDither": true,
        "KJOEFBPOIIH": "",
        "IICFKKEBIEC": "",
        "EGEHEJEBLBJ": ""
      },
      {
        "$type": "PKKMAMONGEO",
        "type": "DIALOG",
        "aliasList": [
          "4296"
        ],
        "actionId": 118,
        "dialogID": 732251107,
        "protectTime": 0.5
      },
      {
        "$type": "MoleMole.Config.ConfigTeleportToAction",
        "type": "TELEPORT_TO",
        "aliasList": [
          "4296"
        ],
        "actionId": 217,
        "position": {
          "x": -1453.5550537109375,
          "y": -54.25899887084961,
          "z": 5426.39599609375
        },
        "forward": {
          "x": 0.5740000009536743,
          "z": 1.375
        },
        "openLongDisTeleport": true,
        "_posBindMovingTargetKey": "",
        "_forwardBindMovingTargetKey": ""
      },
      {
        "$type": "LJLMDHDCAMK",
        "type": "LOOK_AT",
        "aliasList": [
          "4296"
        ],
        "actionId": 218,
        "enableHead": true,
        "useTargetPos": true,
        "enableAbsolute": true,
        "targetPosition": {
          "x": -1451.1009521484375,
          "y": -50.06100082397461,
          "z": 5430.64794921875
        },
        "headTurnTime": -1.0,
        "targetNpcAlias": "",
        "lookAtTargetType": "NONE",
        "openBackProtect": true,
        "targetNpcLookAtPoint": "",
        "OAFJBHJHLJG": ""
      },
      {
        "$type": "FJKIHHKJLMJ",
        "type": "CAMERA_MOVE",
        "delayTime": 0.10000000149011612,
        "duration": 10.600000381469727,
        "actionId": 211,
        "camPosOffset": {
          "x": -1449.9940185546875,
          "y": -50.51100158691406,
          "z": 5432.32421875
        },
        "camForwardTargetOffset": {
          "x": -1450.5340576171875,
          "y": -50.87900161743164,
          "z": 5431.56689453125
        },
        "camFov": 30.0,
        "lerpPattern": 2,
        "cameraBlendType": "EaseOutQuad",
        "NJBNNOMLKCK": {},
        "needZAxisRotate": true,
        "openCameraDither": false,
        "targetNpcAlias": "",
        "closeTreeLeafDither": true,
        "KJOEFBPOIIH": "",
        "IICFKKEBIEC": "",
        "EGEHEJEBLBJ": ""
      }
    ],
    [
      {
        "$type": "PKKMAMONGEO",
        "type": "DIALOG",
        "aliasList": [
          "1005"
        ],
        "actionId": 120,
        "dialogID": 732251108,
        "protectTime": 0.5
      }
    ],
    [
      {
        "$type": "FJKIHHKJLMJ",
        "type": "CAMERA_MOVE",
        "duration": 0.5,
        "actionId": 221,
        "camPosOffset": {
          "x": -1466.791015625,
          "y": -42.32099914550781,
          "z": 5456.43017578125
        },
        "camForwardTargetOffset": {
          "x": -1466.751953125,
          "y": -41.65800094604492,
          "z": 5457.17822265625
        },
        "camFov": 20.0,
        "lerpPattern": 6,
        "cameraBlendType": "EaseInOutCubic",
        "NJBNNOMLKCK": {},
        "needZAxisRotate": true,
        "rotateAngle": 356.02099609375,
        "openCameraDither": false,
        "targetNpcAlias": "",
        "closeTreeLeafDither": true,
        "KJOEFBPOIIH": "",
        "IICFKKEBIEC": "",
        "EGEHEJEBLBJ": ""
      },
      {
        "$type": "PKKMAMONGEO",
        "type": "DIALOG",
        "aliasList": [
          "4296"
        ],
        "actionId": 122,
        "dialogID": 732251109,
        "protectTime": 0.5
      },
      {
        "$type": "FJKIHHKJLMJ",
        "type": "CAMERA_MOVE",
        "delayTime": 0.10000000149011612,
        "duration": 8.75,
        "actionId": 222,
        "camPosOffset": {
          "x": -1465.4129638671875,
          "y": -42.32899856567383,
          "z": 5456.365234375
        },
        "camForwardTargetOffset": {
          "x": -1465.3740234375,
          "y": -41.66600036621094,
          "z": 5457.11279296875
        },
        "camFov": 20.0,
        "cameraBlendType": "EaseOutQuad",
        "NJBNNOMLKCK": {},
        "needZAxisRotate": true,
        "rotateAngle": 356.02099609375,
        "openCameraDither": false,
        "targetNpcAlias": "",
        "closeTreeLeafDither": true,
        "KJOEFBPOIIH": "",
        "IICFKKEBIEC": "",
        "EGEHEJEBLBJ": ""
      }
    ],
    [
      {
        "$type": "FJKIHHKJLMJ",
        "type": "CAMERA_MOVE",
        "duration": 0.5,
        "actionId": 224,
        "camPosOffset": {
          "x": -1435.885009765625,
          "y": -52.04499816894531,
          "z": 5438.68115234375
        },
        "camForwardTargetOffset": {
          "x": -1436.635986328125,
          "y": -52.145999908447266,
          "z": 5438.02783203125
        },
        "camFov": 20.0,
        "lerpPattern": 6,
        "cameraBlendType": "EaseInOutCubic",
        "NJBNNOMLKCK": {},
        "needZAxisRotate": true,
        "rotateAngle": 357.00799560546875,
        "openCameraDither": false,
        "targetNpcAlias": "",
        "closeTreeLeafDither": true,
        "KJOEFBPOIIH": "",
        "IICFKKEBIEC": "",
        "EGEHEJEBLBJ": ""
      },
      {
        "$type": "PKKMAMONGEO",
        "type": "DIALOG",
        "aliasList": [
          "4296"
        ],
        "actionId": 124,
        "dialogID": 732251110,
        "protectTime": 0.5
      },
      {
        "$type": "FJKIHHKJLMJ",
        "type": "CAMERA_MOVE",
        "delayTime": 0.10000000149011612,
        "duration": 8.274999618530273,
        "actionId": 223,
        "camPosOffset": {
          "x": -1436.552978515625,
          "y": -52.145999908447266,
          "z": 5439.4599609375
        },
        "camForwardTargetOffset": {
          "x": -1437.303955078125,
          "y": -52.229000091552734,
          "z": 5438.80517578125
        },
        "camFov": 20.0,
        "lerpPattern": 2,
        "cameraBlendType": "EaseOutQuad",
        "NJBNNOMLKCK": {},
        "needZAxisRotate": true,
        "rotateAngle": 357.01300048828125,
        "openCameraDither": false,
        "targetNpcAlias": "",
        "closeTreeLeafDither": true,
        "KJOEFBPOIIH": "",
        "IICFKKEBIEC": "",
        "EGEHEJEBLBJ": ""
      },
      {
        "$type": "HDGKHDNFMIM",
        "type": "DIALOG_SELECT",
        "delayTime": 0.4000000059604645,
        "aliasList": [
          "Avatar"
        ],
        "actionId": 163,
        "dialogIDList": [
          732251111
        ],
        "grpIDList": [
          1684096428
        ],
        "useGrpId": true,
        "countDownGrpId": 3656556324
      }
    ],
    [
      {
        "$type": "FJKIHHKJLMJ",
        "type": "CAMERA_MOVE",
        "duration": 0.5,
        "actionId": 226,
        "camPosOffset": {
          "x": -1455.9749755859375,
          "y": -53.08100128173828,
          "z": 5429.6630859375
        },
        "camForwardTargetOffset": {
          "x": -1455.5169677734375,
          "y": -53.05400085449219,
          "z": 5428.77490234375
        },
        "camFov": 20.0,
        "lerpPattern": 6,
        "cameraBlendType": "EaseInOutCubic",
        "NJBNNOMLKCK": {},
        "needZAxisRotate": true,
        "rotateAngle": 357.0220031738281,
        "openCameraDither": false,
        "targetNpcAlias": "",
        "closeTreeLeafDither": true,
        "KJOEFBPOIIH": "",
        "IICFKKEBIEC": "",
        "EGEHEJEBLBJ": ""
      },
      {
        "$type": "PKKMAMONGEO",
        "type": "DIALOG",
        "aliasList": [
          "4296"
        ],
        "actionId": 127,
        "dialogID": 732251112,
        "protectTime": 1.5
      },
      {
        "$type": "FABLGECDBCH",
        "type": "BODY_LANG",
        "aliasList": [
          "4296"
        ],
        "actionId": 227,
        "isContinue": true,
        "forceDoFreeStyle": true,
        "canDoRepeatFreeStyle": false,
        "cantBackToIdleWhenSitLoop": true,
        "eventPatternSuiteKey": "",
        "FOHHKFAIAAJ": ""
      },
      {
        "$type": "FJKIHHKJLMJ",
        "type": "CAMERA_MOVE",
        "delayTime": 0.10000000149011612,
        "duration": 7.441999912261963,
        "actionId": 225,
        "camPosOffset": {
          "x": -1455.800048828125,
          "y": -53.08300018310547,
          "z": 5429.7529296875
        },
        "camForwardTargetOffset": {
          "x": -1455.342041015625,
          "y": -53.055999755859375,
          "z": 5428.865234375
        },
        "camFov": 20.0,
        "lerpPattern": 2,
        "cameraBlendType": "EaseOutQuad",
        "NJBNNOMLKCK": {},
        "needZAxisRotate": true,
        "rotateAngle": 357.0220031738281,
        "openCameraDither": false,
        "targetNpcAlias": "",
        "closeTreeLeafDither": true,
        "KJOEFBPOIIH": "",
        "IICFKKEBIEC": "",
        "EGEHEJEBLBJ": ""
      },
      {
        "$type": "LLGANGLOEEO",
        "type": "STEER_TO",
        "delayTime": 0.5419999957084656,
        "duration": 1.0,
        "aliasList": [
          "4296"
        ],
        "actionId": 230,
        "steerType": "ABSOLUTE",
        "steerDir": {
          "x": -1454.64794921875,
          "y": -54.34600067138672,
          "z": 5426.966796875
        },
        "useSteerAnim": true,
        "interruptFreestyle": true,
        "forceSteer": true,
        "targetNpcAlias": "",
        "ignoreY": true,
        "fixInterNull": true,
        "OAFJBHJHLJG": ""
      },
      {
        "$type": "LJLMDHDCAMK",
        "type": "LOOK_AT",
        "delayTime": 0.5830000042915344,
        "aliasList": [
          "4296"
        ],
        "actionId": 228,
        "enableHead": true,
        "useTargetPos": true,
        "enableAbsolute": true,
        "targetPosition": {
          "x": -1455.2449951171875,
          "y": -52.779998779296875,
          "z": 5426.89697265625
        },
        "headTurnTime": 0.5,
        "targetNpcAlias": "",
        "lookAtTargetType": "NONE",
        "openBackProtect": true,
        "targetNpcLookAtPoint": "",
        "OAFJBHJHLJG": ""
      }
    ],
    [
      {
        "$type": "PKKMAMONGEO",
        "type": "DIALOG",
        "aliasList": [
          "4296"
        ],
        "actionId": 129,
        "dialogID": 732251113,
        "protectTime": 0.5
      },
      {
        "$type": "FABLGECDBCH",
        "type": "BODY_LANG",
        "aliasList": [
          "4296"
        ],
        "actionId": 231,
        "bodyLangParam": 1180,
        "forceDoFreeStyle": true,
        "canDoRepeatFreeStyle": false,
        "cantBackToIdleWhenSitLoop": true,
        "eventPatternSuiteKey": "",
        "FOHHKFAIAAJ": ""
      },
      {
        "$type": "FABLGECDBCH",
        "type": "BODY_LANG",
        "delayTime": 3.5,
        "aliasList": [
          "4296"
        ],
        "actionId": 232,
        "isContinue": true,
        "forceDoFreeStyle": true,
        "canDoRepeatFreeStyle": false,
        "cantBackToIdleWhenSitLoop": true,
        "eventPatternSuiteKey": "",
        "FOHHKFAIAAJ": ""
      }
    ],
    [
      {
        "$type": "FJKIHHKJLMJ",
        "type": "CAMERA_MOVE",
        "duration": 0.5,
        "actionId": 234,
        "camPosOffset": {
          "x": -1451.948974609375,
          "y": -52.685001373291016,
          "z": 5426.72509765625
        },
        "camForwardTargetOffset": {
          "x": -1452.9320068359375,
          "y": -52.816001892089844,
          "z": 5426.59423828125
        },
        "camFov": 30.0,
        "lerpPattern": 6,
        "cameraBlendType": "EaseInOutCubic",
        "NJBNNOMLKCK": {},
        "needZAxisRotate": true,
        "rotateAngle": 356.99798583984375,
        "openCameraDither": false,
        "targetNpcAlias": "",
        "closeTreeLeafDither": true,
        "KJOEFBPOIIH": "",
        "IICFKKEBIEC": "",
        "EGEHEJEBLBJ": ""
      },
      {
        "$type": "PKKMAMONGEO",
        "type": "DIALOG",
        "aliasList": [
          "4296"
        ],
        "actionId": 131,
        "dialogID": 732251114,
        "protectTime": 0.5
      },
      {
        "$type": "FABLGECDBCH",
        "type": "BODY_LANG",
        "aliasList": [
          "4296"
        ],
        "actionId": 235,
        "isContinue": true,
        "forceDoFreeStyle": true,
        "canDoRepeatFreeStyle": false,
        "cantBackToIdleWhenSitLoop": true,
        "eventPatternSuiteKey": "",
        "FOHHKFAIAAJ": ""
      },
      {
        "$type": "FJKIHHKJLMJ",
        "type": "CAMERA_MOVE",
        "delayTime": 0.10000000149011612,
        "duration": 8.857999801635742,
        "actionId": 233,
        "camPosOffset": {
          "x": -1451.97705078125,
          "y": -52.70000076293945,
          "z": 5426.94677734375
        },
        "camForwardTargetOffset": {
          "x": -1452.9599609375,
          "y": -52.83100128173828,
          "z": 5426.81591796875
        },
        "camFov": 30.0,
        "lerpPattern": 2,
        "cameraBlendType": "EaseOutQuad",
        "NJBNNOMLKCK": {},
        "needZAxisRotate": true,
        "rotateAngle": 356.99798583984375,
        "openCameraDither": false,
        "targetNpcAlias": "",
        "closeTreeLeafDither": true,
        "KJOEFBPOIIH": "",
        "IICFKKEBIEC": "",
        "EGEHEJEBLBJ": ""
      },
      {
        "$type": "FABLGECDBCH",
        "type": "BODY_LANG",
        "delayTime": 0.8169999718666077,
        "aliasList": [
          "4296"
        ],
        "actionId": 236,
        "bodyLangParam": 4030,
        "forceDoFreeStyle": true,
        "canDoRepeatFreeStyle": false,
        "cantBackToIdleWhenSitLoop": true,
        "eventPatternSuiteKey": "",
        "FOHHKFAIAAJ": ""
      }
    ],
    [
      {
        "$type": "FJKIHHKJLMJ",
        "type": "CAMERA_MOVE",
        "duration": 0.5,
        "actionId": 244,
        "camPosOffset": {
          "x": -1456.2860107421875,
          "y": -53.154998779296875,
          "z": 5431.248046875
        },
        "camForwardTargetOffset": {
          "x": -1455.8759765625,
          "y": -53.191001892089844,
          "z": 5430.3359375
        },
        "camFov": 30.0,
        "lerpPattern": 6,
        "cameraBlendType": "EaseInOutCubic",
        "NJBNNOMLKCK": {},
        "needZAxisRotate": true,
        "rotateAngle": 357.0220031738281,
        "openCameraDither": false,
        "targetNpcAlias": "",
        "closeTreeLeafDither": true,
        "KJOEFBPOIIH": "",
        "IICFKKEBIEC": "",
        "EGEHEJEBLBJ": ""
      },
      {
        "$type": "PKKMAMONGEO",
        "type": "DIALOG",
        "aliasList": [
          "4296"
        ],
        "actionId": 133,
        "dialogID": 732251115,
        "protectTime": 0.5
      },
      {
        "$type": "FABLGECDBCH",
        "type": "BODY_LANG",
        "aliasList": [
          "4296"
        ],
        "actionId": 237,
        "bodyLangParam": 1180,
        "forceDoFreeStyle": true,
        "canDoRepeatFreeStyle": false,
        "cantBackToIdleWhenSitLoop": true,
        "eventPatternSuiteKey": "",
        "FOHHKFAIAAJ": ""
      },
      {
        "$type": "FJKIHHKJLMJ",
        "type": "CAMERA_MOVE",
        "delayTime": 0.10000000149011612,
        "duration": 19.5,
        "actionId": 243,
        "camPosOffset": {
          "x": -1457.656005859375,
          "y": -53.0359992980957,
          "z": 5434.2939453125
        },
        "camForwardTargetOffset": {
          "x": -1457.2459716796875,
          "y": -53.071998596191406,
          "z": 5433.3818359375
        },
        "camFov": 30.0,
        "lerpPattern": 2,
        "cameraBlendType": "EaseOutQuad",
        "NJBNNOMLKCK": {},
        "needZAxisRotate": true,
        "rotateAngle": 357.0220031738281,
        "openCameraDither": false,
        "targetNpcAlias": "",
        "closeTreeLeafDither": true,
        "KJOEFBPOIIH": "",
        "IICFKKEBIEC": "",
        "EGEHEJEBLBJ": ""
      },
      {
        "$type": "FABLGECDBCH",
        "type": "BODY_LANG",
        "delayTime": 2.433000087738037,
        "aliasList": [
          "4296"
        ],
        "actionId": 238,
        "isContinue": true,
        "forceDoFreeStyle": true,
        "canDoRepeatFreeStyle": false,
        "cantBackToIdleWhenSitLoop": true,
        "eventPatternSuiteKey": "",
        "FOHHKFAIAAJ": ""
      },
      {
        "$type": "FABLGECDBCH",
        "type": "BODY_LANG",
        "delayTime": 4.074999809265137,
        "aliasList": [
          "4296"
        ],
        "actionId": 239,
        "bodyLangParam": 4040,
        "forceDoFreeStyle": true,
        "canDoRepeatFreeStyle": false,
        "cantBackToIdleWhenSitLoop": true,
        "eventPatternSuiteKey": "",
        "FOHHKFAIAAJ": ""
      }
    ],
    [
      {
        "$type": "FABLGECDBCH",
        "type": "BODY_LANG",
        "aliasList": [
          "4296"
        ],
        "actionId": 240,
        "isContinue": true,
        "forceDoFreeStyle": true,
        "canDoRepeatFreeStyle": false,
        "cantBackToIdleWhenSitLoop": true,
        "eventPatternSuiteKey": "",
        "FOHHKFAIAAJ": ""
      },
      {
        "$type": "LJLMDHDCAMK",
        "type": "LOOK_AT",
        "aliasList": [
          "4296"
        ],
        "actionId": 248,
        "enableHead": true,
        "useTargetPos": true,
        "enableAbsolute": true,
        "targetPosition": {
          "x": -1455.0059814453125,
          "y": -52.75699996948242,
          "z": 5427.56396484375
        },
        "headTurnTime": 0.5,
        "targetNpcAlias": "",
        "lookAtTargetType": "NONE",
        "openBackProtect": true,
        "targetNpcLookAtPoint": "",
        "OAFJBHJHLJG": ""
      },
      {
        "$type": "PKKMAMONGEO",
        "type": "DIALOG",
        "aliasList": [
          "1005"
        ],
        "actionId": 135,
        "dialogID": 732251116,
        "protectTime": 0.5
      },
      {
        "$type": "FABLGECDBCH",
        "type": "BODY_LANG",
        "aliasList": [
          "1005"
        ],
        "actionId": 247,
        "bodyLangParam": 1300,
        "forceDoFreeStyle": true,
        "canDoRepeatFreeStyle": false,
        "cantBackToIdleWhenSitLoop": true,
        "eventPatternSuiteKey": "",
        "FOHHKFAIAAJ": ""
      }
    ],
    [
      {
        "$type": "FJKIHHKJLMJ",
        "type": "CAMERA_MOVE",
        "duration": 0.5,
        "actionId": 242,
        "camPosOffset": {
          "x": -1465.291015625,
          "y": -30.70199966430664,
          "z": 5472.2841796875
        },
        "camForwardTargetOffset": {
          "x": -1465.218017578125,
          "y": -31.209999084472656,
          "z": 5471.42578125
        },
        "camFov": 30.0,
        "lerpPattern": 6,
        "cameraBlendType": "EaseInOutCubic",
        "NJBNNOMLKCK": {},
        "needZAxisRotate": true,
        "rotateAngle": 356.54400634765625,
        "openCameraDither": false,
        "targetNpcAlias": "",
        "closeTreeLeafDither": true,
        "KJOEFBPOIIH": "",
        "IICFKKEBIEC": "",
        "EGEHEJEBLBJ": ""
      },
      {
        "$type": "PKKMAMONGEO",
        "type": "DIALOG",
        "aliasList": [
          "4296"
        ],
        "actionId": 137,
        "dialogID": 732251117,
        "protectTime": 0.5
      },
      {
        "$type": "FABLGECDBCH",
        "type": "BODY_LANG",
        "aliasList": [
          "4296"
        ],
        "actionId": 249,
        "bodyLangParam": 1180,
        "forceDoFreeStyle": true,
        "canDoRepeatFreeStyle": false,
        "cantBackToIdleWhenSitLoop": true,
        "eventPatternSuiteKey": "",
        "FOHHKFAIAAJ": ""
      },
      {
        "$type": "FJKIHHKJLMJ",
        "type": "CAMERA_MOVE",
        "delayTime": 0.10000000149011612,
        "duration": 16.316999435424805,
        "actionId": 241,
        "camPosOffset": {
          "x": -1464.2550048828125,
          "y": -29.724000930786133,
          "z": 5471.7880859375
        },
        "camForwardTargetOffset": {
          "x": -1464.198974609375,
          "y": -30.2450008392334,
          "z": 5470.93603515625
        },
        "camFov": 30.0,
        "lerpPattern": 2,
        "cameraBlendType": "EaseOutQuad",
        "NJBNNOMLKCK": {},
        "needZAxisRotate": true,
        "rotateAngle": 356.51300048828125,
        "openCameraDither": false,
        "targetNpcAlias": "",
        "closeTreeLeafDither": true,
        "KJOEFBPOIIH": "",
        "IICFKKEBIEC": "",
        "EGEHEJEBLBJ": ""
      },
      {
        "$type": "FABLGECDBCH",
        "type": "BODY_LANG",
        "delayTime": 3.2249999046325684,
        "aliasList": [
          "4296"
        ],
        "actionId": 250,
        "isContinue": true,
        "forceDoFreeStyle": true,
        "canDoRepeatFreeStyle": false,
        "cantBackToIdleWhenSitLoop": true,
        "eventPatternSuiteKey": "",
        "FOHHKFAIAAJ": ""
      }
    ],
    [
      {
        "$type": "FJKIHHKJLMJ",
        "type": "CAMERA_MOVE",
        "duration": 0.5,
        "actionId": 253,
        "camPosOffset": {
          "x": -1438.0169677734375,
          "y": -50.13800048828125,
          "z": 5431.51220703125
        },
        "camForwardTargetOffset": {
          "x": -1438.887939453125,
          "y": -50.40399932861328,
          "z": 5431.09912109375
        },
        "camFov": 30.0,
        "lerpPattern": 6,
        "cameraBlendType": "EaseInOutCubic",
        "NJBNNOMLKCK": {},
        "needZAxisRotate": true,
        "rotateAngle": 356.9119873046875,
        "openCameraDither": false,
        "targetNpcAlias": "",
        "closeTreeLeafDither": true,
        "KJOEFBPOIIH": "",
        "IICFKKEBIEC": "",
        "EGEHEJEBLBJ": ""
      },
      {
        "$type": "PKKMAMONGEO",
        "type": "DIALOG",
        "aliasList": [
          "4296"
        ],
        "actionId": 139,
        "dialogID": 732251118,
        "protectTime": 0.5
      },
      {
        "$type": "FABLGECDBCH",
        "type": "BODY_LANG",
        "aliasList": [
          "4296"
        ],
        "actionId": 251,
        "isContinue": true,
        "forceDoFreeStyle": true,
        "canDoRepeatFreeStyle": false,
        "cantBackToIdleWhenSitLoop": true,
        "eventPatternSuiteKey": "",
        "FOHHKFAIAAJ": ""
      },
      {
        "$type": "FJKIHHKJLMJ",
        "type": "CAMERA_MOVE",
        "delayTime": 0.10000000149011612,
        "duration": 18.08300018310547,
        "actionId": 252,
        "camPosOffset": {
          "x": -1438.39697265625,
          "y": -49.816001892089844,
          "z": 5432.10595703125
        },
        "camForwardTargetOffset": {
          "x": -1439.2679443359375,
          "y": -50.082000732421875,
          "z": 5431.69287109375
        },
        "camFov": 30.0,
        "lerpPattern": 2,
        "cameraBlendType": "EaseOutQuad",
        "NJBNNOMLKCK": {},
        "needZAxisRotate": true,
        "rotateAngle": 356.9119873046875,
        "openCameraDither": false,
        "targetNpcAlias": "",
        "closeTreeLeafDither": true,
        "KJOEFBPOIIH": "",
        "IICFKKEBIEC": "",
        "EGEHEJEBLBJ": ""
      },
      {
        "$type": "FABLGECDBCH",
        "type": "BODY_LANG",
        "delayTime": 0.42500001192092896,
        "aliasList": [
          "4296"
        ],
        "actionId": 254,
        "bodyLangParam": 1230,
        "forceDoFreeStyle": true,
        "canDoRepeatFreeStyle": false,
        "cantBackToIdleWhenSitLoop": true,
        "eventPatternSuiteKey": "",
        "FOHHKFAIAAJ": ""
      }
    ],
    [
      {
        "$type": "FJKIHHKJLMJ",
        "type": "CAMERA_MOVE",
        "duration": 0.5,
        "actionId": 256,
        "camPosOffset": {
          "x": -1455.81298828125,
          "y": -52.077999114990234,
          "z": 5429.0849609375
        },
        "camForwardTargetOffset": {
          "x": -1455.3060302734375,
          "y": -52.35599899291992,
          "z": 5428.26904296875
        },
        "camFov": 30.0,
        "lerpPattern": 6,
        "cameraBlendType": "EaseInOutCubic",
        "NJBNNOMLKCK": {},
        "needZAxisRotate": true,
        "rotateAngle": 356.9020080566406,
        "openCameraDither": false,
        "targetNpcAlias": "",
        "closeTreeLeafDither": true,
        "KJOEFBPOIIH": "",
        "IICFKKEBIEC": "",
        "EGEHEJEBLBJ": ""
      },
      {
        "$type": "PKKMAMONGEO",
        "type": "DIALOG",
        "aliasList": [
          "4296"
        ],
        "actionId": 141,
        "dialogID": 732251119,
        "protectTime": 0.5
      },
      {
        "$type": "LJLMDHDCAMK",
        "type": "LOOK_AT",
        "aliasList": [
          "4296"
        ],
        "actionId": 257,
        "enableHead": true,
        "useTargetPos": true,
        "enableAbsolute": true,
        "targetPosition": {
          "x": -1455.1319580078125,
          "y": -52.88399887084961,
          "z": 5426.7841796875
        },
        "headTurnTime": 0.5,
        "targetNpcAlias": "",
        "lookAtTargetType": "NONE",
        "openBackProtect": true,
        "targetNpcLookAtPoint": "",
        "OAFJBHJHLJG": ""
      },
      {
        "$type": "FJKIHHKJLMJ",
        "type": "CAMERA_MOVE",
        "delayTime": 0.09200000017881393,
        "duration": 13.690999984741211,
        "actionId": 255,
        "camPosOffset": {
          "x": -1456.0379638671875,
          "y": -52.441001892089844,
          "z": 5429.52294921875
        },
        "camForwardTargetOffset": {
          "x": -1455.5340576171875,
          "y": -52.66600036621094,
          "z": 5428.68896484375
        },
        "camFov": 30.0,
        "lerpPattern": 2,
        "cameraBlendType": "EaseOutQuad",
        "NJBNNOMLKCK": {},
        "needZAxisRotate": true,
        "rotateAngle": 356.94500732421875,
        "openCameraDither": false,
        "targetNpcAlias": "",
        "closeTreeLeafDither": true,
        "KJOEFBPOIIH": "",
        "IICFKKEBIEC": "",
        "EGEHEJEBLBJ": ""
      },
      {
        "$type": "FABLGECDBCH",
        "type": "BODY_LANG",
        "delayTime": 0.42500001192092896,
        "aliasList": [
          "4296"
        ],
        "actionId": 258,
        "bodyLangParam": 4030,
        "forceDoFreeStyle": true,
        "canDoRepeatFreeStyle": false,
        "cantBackToIdleWhenSitLoop": true,
        "eventPatternSuiteKey": "",
        "FOHHKFAIAAJ": ""
      },
      {
        "$type": "LJLMDHDCAMK",
        "type": "LOOK_AT",
        "delayTime": 3.299999952316284,
        "aliasList": [
          "4296"
        ],
        "actionId": 259,
        "enableHead": true,
        "useTargetPos": true,
        "enableAbsolute": true,
        "targetPosition": {
          "x": -1454.8709716796875,
          "y": -52.96699905395508,
          "z": 5427.34423828125
        },
        "headTurnTime": 0.5,
        "targetNpcAlias": "",
        "lookAtTargetType": "NONE",
        "openBackProtect": true,
        "targetNpcLookAtPoint": "",
        "OAFJBHJHLJG": ""
      }
    ],
    [
      {
        "$type": "PKKMAMONGEO",
        "type": "DIALOG_CLEAR",
        "actionId": 144
      },
      {
        "$type": "MoleMole.Config.ConfigTimeProtectAction",
        "type": "TIME_PROTECT",
        "duration": 3.5,
        "actionId": 262
      },
      {
        "$type": "MoleMole.Config.ConfigBlackScreenAction",
        "type": "BLACK_SCREEN",
        "actionId": 268,
        "blackScreenType": "TO_BLACK",
        "durationToBlack": 0.5,
        "durationKeepBlack": 0.5,
        "durationFromBlack": 0.5,
        "inteePos": "",
        "textMapID": "",
        "useTextFade": true
      },
      {
        "$type": "MoleMole.Config.ConfigBlackScreenAction",
        "type": "BLACK_SCREEN",
        "delayTime": 0.5,
        "actionId": 143,
        "blackScreenType": "KEEP_BLACK",
        "durationToBlack": 0.5,
        "durationKeepBlack": 3.0,
        "inteePos": "",
        "textMapID": "",
        "useTextFade": true,
        "_dialogID": 732251120,
        "needWaitClick": true
      },
      {
        "$type": "MoleMole.Config.ConfigTeleportToAction",
        "type": "TELEPORT_TO",
        "delayTime": 1.0579999685287476,
        "aliasList": [
          "Avatar"
        ],
        "actionId": 261,
        "position": {
          "x": -1454.97705078125,
          "y": -54.28099822998047,
          "z": 5426.67578125
        },
        "forward": {
          "x": 0.4259999990463257,
          "z": 0.9049999713897705
        },
        "openLongDisTeleport": true,
        "_posBindMovingTargetKey": "",
        "_forwardBindMovingTargetKey": ""
      },
      {
        "$type": "LJLMDHDCAMK",
        "type": "LOOK_AT",
        "delayTime": 1.0920000076293945,
        "aliasList": [
          "Avatar"
        ],
        "actionId": 265,
        "headTurnTime": 0.5,
        "targetNpcAlias": "",
        "openBackProtect": true,
        "targetNpcLookAtPoint": "",
        "OAFJBHJHLJG": ""
      },
      {
        "$type": "MoleMole.Config.ConfigTeleportToAction",
        "type": "TELEPORT_TO",
        "delayTime": 1.0920000076293945,
        "aliasList": [
          "1005"
        ],
        "actionId": 266,
        "position": {
          "x": -1455.6190185546875,
          "y": -54.3650016784668,
          "z": 5427.1630859375
        },
        "forward": {
          "x": 0.5929999947547913,
          "z": 0.8050000071525574
        },
        "openLongDisTeleport": true,
        "_posBindMovingTargetKey": "",
        "_forwardBindMovingTargetKey": ""
      },
      {
        "$type": "LJLMDHDCAMK",
        "type": "LOOK_AT",
        "delayTime": 1.100000023841858,
        "aliasList": [
          "1005"
        ],
        "actionId": 267,
        "headTurnTime": 0.5,
        "targetNpcAlias": "",
        "openBackProtect": true,
        "targetNpcLookAtPoint": "",
        "OAFJBHJHLJG": ""
      }
    ],
    [
      {
        "$type": "MoleMole.Config.ConfigBlackScreenAction",
        "type": "BLACK_SCREEN",
        "actionId": 146,
        "blackScreenType": "KEEP_BLACK",
        "durationToBlack": 0.5,
        "durationKeepBlack": 3.0,
        "durationFromBlack": 0.5,
        "inteePos": "",
        "textMapID": "",
        "useTextFade": true,
        "_dialogID": 732251121,
        "needWaitClick": true
      },
      {
        "$type": "PKKMAMONGEO",
        "type": "DIALOG_CLEAR",
        "actionId": 147
      },
      {
        "$type": "MoleMole.Config.ConfigTimeProtectAction",
        "type": "TIME_PROTECT",
        "duration": 3.0,
        "actionId": 263
      }
    ],
    [
      {
        "$type": "MoleMole.Config.ConfigBlackScreenAction",
        "type": "BLACK_SCREEN",
        "actionId": 149,
        "blackScreenType": "KEEP_BLACK",
        "durationToBlack": 0.5,
        "durationKeepBlack": 3.0,
        "durationFromBlack": 0.5,
        "inteePos": "",
        "textMapID": "",
        "useTextFade": true,
        "_dialogID": 732251122,
        "needWaitClick": true
      },
      {
        "$type": "PKKMAMONGEO",
        "type": "DIALOG_CLEAR",
        "actionId": 150
      },
      {
        "$type": "MoleMole.Config.ConfigTimeProtectAction",
        "type": "TIME_PROTECT",
        "duration": 3.0,
        "actionId": 264
      }
    ],
    [
      {
        "$type": "MoleMole.Config.ConfigSimpleBlackScreenAction",
        "type": "SIMPLE_BLACK_SCREEN",
        "actionId": 151,
        "durationToBlack": 0.5,
        "durationKeepBlack": 1.0,
        "durationFromBlack": 0.5,
        "textMapID": ""
      },
      {
        "$type": "MoleMole.Config.ConfigTimeProtectAction",
        "type": "TIME_PROTECT",
        "duration": 0.699999988079071,
        "actionId": 152
      },
      {
        "$type": "FJKIHHKJLMJ",
        "type": "CAMERA_MOVE",
        "delayTime": 0.6000000238418579,
        "duration": 0.10000000149011612,
        "actionId": 260,
        "camPosOffset": {
          "x": -1456.7750244140625,
          "y": -52.35100173950195,
          "z": 5423.81884765625
        },
        "camForwardTargetOffset": {
          "x": -1456.27197265625,
          "y": -52.59400177001953,
          "z": 5424.64794921875
        },
        "lerpPattern": 6,
        "cameraBlendType": "EaseInOutCubic",
        "NJBNNOMLKCK": {},
        "needZAxisRotate": true,
        "rotateAngle": 356.9320068359375,
        "openCameraDither": false,
        "targetNpcAlias": "",
        "closeTreeLeafDither": true,
        "KJOEFBPOIIH": "",
        "IICFKKEBIEC": "",
        "EGEHEJEBLBJ": ""
      },
      {
        "$type": "MoleMole.Config.ConfigVisibleInterAction",
        "type": "VISIBLE",
        "delayTime": 0.6000000238418579,
        "aliasList": [
          "4296"
        ],
        "actionId": 153,
        "_extraParam": ""
      }
    ]
  ],
  "groupId": [
    {
      "grpId": 3656556325,
      "nextGrpId": 3656556326
    },
    {
      "index": 1,
      "grpId": 3656556326,
      "nextGrpId": 3656556327
    },
    {
      "index": 2,
      "grpId": 3656556327,
      "nextGrpId": 3656556328
    },
    {
      "index": 3,
      "grpId": 3656556328,
      "nextGrpId": 3656556329
    },
    {
      "index": 4,
      "grpId": 3656556329,
      "nextGrpId": 3656556330
    },
    {
      "index": 5,
      "grpId": 3656556330,
      "nextGrpId": 3656556331
    },
    {
      "index": 6,
      "grpId": 3656556331,
      "nextGrpId": 3656556332
    },
    {
      "index": 7,
      "grpId": 3656556332,
      "nextGrpId": 3656556333
    },
    {
      "index": 8,
      "grpId": 3656556333,
      "nextGrpId": 1684096427
    },
    {
      "index": 9,
      "grpId": 1684096427,
      "nextGrpId": 1684096428
    },
    {
      "index": 10,
      "grpId": 1684096428,
      "nextGrpId": 1684096429
    },
    {
      "index": 11,
      "grpId": 1684096429,
      "nextGrpId": 1684096430
    },
    {
      "index": 12,
      "grpId": 1684096430,
      "nextGrpId": 1684096431
    },
    {
      "index": 13,
      "grpId": 1684096431,
      "nextGrpId": 1684096432
    },
    {
      "index": 14,
      "grpId": 1684096432,
      "nextGrpId": 1684096433
    },
    {
      "index": 15,
      "grpId": 1684096433,
      "nextGrpId": 1684096434
    },
    {
      "index": 16,
      "grpId": 1684096434,
      "nextGrpId": 1684096435
    },
    {
      "index": 17,
      "grpId": 1684096435,
      "nextGrpId": 1684096436
    },
    {
      "index": 18,
      "grpId": 1684096436,
      "nextGrpId": 1684096458
    },
    {
      "index": 19,
      "grpId": 1684096458,
      "nextGrpId": 1684096459
    },
    {
      "index": 20,
      "grpId": 1684096459,
      "nextGrpId": 1684096460
    },
    {
      "index": 21,
      "grpId": 1684096460,
      "nextGrpId": 1684096461
    }
  ]
}