{
  "luaDataPath": "",
  "dontUseDefaultFinish": true,
  "startBlackKeepTime": 0.5,
  "entityBan": "",
  "disableNpcLod": true,
  "isAutoBanNpc": true,
  "isBanWidgetPet": true,
  "protectNpcMobileLod": true,
  "talkFlag": 5,
  "startFade": {
    "startFadeInDuration": 0.5,
    "startFadeOutDuration": 0.5
  },
  "endFade": {
    "startFadeOutDuration": 0.0
  },
  "actors": [
    {
      "alias": "Avatar",
      "visible": true,
      "bornPointName": "[3_5321:2225.441,-283.141,4247.814,0.000,193.525,0.000]",
      "relativePosType": "AVATAR_NEW",
      "relativePosNpcAlias": "",
      "_bindMovingTargetKey": ""
    },
    {
      "alias": "AvatarNpc",
      "visible": true,
      "bornPointName": "[3_5321:2225.441,-283.141,4247.814,0.000,193.525,0.000]",
      "removeActorType": "NEW_REMOVE",
      "relativePosType": "AVATAR_NEW",
      "relativePosNpcAlias": "",
      "_bindMovingTargetKey": ""
    },
    {
      "configID": 5302,
      "alias": "5302",
      "visible": true,
      "bornPointName": "[3_5322:2224.870,-282.444,4242.150]",
      "relativePosType": "AVATAR_NEW",
      "relativePosNpcAlias": "",
      "_bindMovingTargetKey": ""
    }
  ],
  "group": [
    [
      {
        "$type": "MoleMole.Config.ConfigTimeProtectAction",
        "type": "TIME_PROTECT",
        "duration": 2.5739998817443848,
        "actionId": 104
      },
      {
        "$type": "MoleMole.Config.ConfigBlackScreenAction",
        "type": "BLACK_SCREEN",
        "duration": 1.0,
        "actionId": 189,
        "blackScreenType": "KEEP_BLACK",
        "durationToBlack": 0.5,
        "durationKeepBlack": 1.0,
        "durationFromBlack": 0.5,
        "inteePos": "",
        "textMapID": "",
        "useTextFade": true
      },
      {
        "$type": "MoleMole.Config.ConfigLocalGadgetOP",
        "type": "LOCAL_GADGET_OP",
        "actionId": 334,
        "gadgetId": 70300048,
        "oprCode": 1,
        "slotName": "",
        "position": {
          "x": 2225.008056640625,
          "y": -282.9960021972656,
          "z": 4244.2080078125
        },
        "euler": {
          "y": 186.2469940185547
        },
        "gvKey": ""
      },
      {
        "$type": "MoleMole.Config.ConfigVisibleInterAction",
        "type": "VISIBLE",
        "aliasList": [
          "Avatar"
        ],
        "actionId": 207,
        "_extraParam": ""
      },
      {
        "$type": "MoleMole.Config.ConfigTeleportToAction",
        "type": "TELEPORT_TO",
        "aliasList": [
          "Avatar"
        ],
        "actionId": 223,
        "position": {
          "x": 2225.123046875,
          "y": -282.4490051269531,
          "z": 4244.47021484375
        },
        "forward": {
          "x": -0.09600000083446503,
          "y": -0.009999999776482582,
          "z": -0.8759999871253967
        },
        "openLongDisTeleport": true,
        "_posBindMovingTargetKey": "",
        "_forwardBindMovingTargetKey": ""
      },
      {
        "$type": "MoleMole.Config.ConfigPlayerNPCEnergyTypeAction",
        "type": "SET_PLAYER_NPC_ENERGY_TYPE",
        "aliasList": [
          "AvatarNpc"
        ],
        "actionId": 204,
        "setHeroEngergyType": true
      },
      {
        "$type": "FABLGECDBCH",
        "type": "BODY_LANG",
        "aliasList": [
          "AvatarNpc"
        ],
        "actionId": 205,
        "isContinue": true,
        "forceDoFreeStyle": true,
        "canDoRepeatFreeStyle": false,
        "eventPatternSuiteKey": "",
        "FOHHKFAIAAJ": ""
      },
      {
        "$type": "MoleMole.Config.ConfigTeleportToAction",
        "type": "TELEPORT_TO",
        "aliasList": [
          "AvatarNpc"
        ],
        "actionId": 210,
        "position": {
          "x": 2225.123046875,
          "y": -282.4490051269531,
          "z": 4244.47021484375
        },
        "forward": {
          "x": -0.09600000083446503,
          "y": -0.009999999776482582,
          "z": -0.8759999871253967
        },
        "openLongDisTeleport": true,
        "_posBindMovingTargetKey": "",
        "_forwardBindMovingTargetKey": ""
      },
      {
        "$type": "MoleMole.Config.ConfigColliderOpInterAction",
        "type": "COLLIDER_OP",
        "aliasList": [
          "AvatarNpc"
        ],
        "actionId": 338,
        "isClose": true
      },
      {
        "$type": "FABLGECDBCH",
        "type": "BODY_LANG",
        "aliasList": [
          "5302"
        ],
        "actionId": 187,
        "isContinue": true,
        "forceDoFreeStyle": true,
        "canDoRepeatFreeStyle": false,
        "eventPatternSuiteKey": "",
        "FOHHKFAIAAJ": ""
      },
      {
        "$type": "MoleMole.Config.ConfigVisibleInterAction",
        "type": "VISIBLE",
        "aliasList": [
          "5302"
        ],
        "actionId": 215,
        "_extraParam": ""
      },
      {
        "$type": "MoleMole.Config.ConfigTeleportToAction",
        "type": "TELEPORT_TO",
        "aliasList": [
          "5302"
        ],
        "actionId": 216,
        "position": {
          "x": 2224.8701171875,
          "y": -282.4440002441406,
          "z": 4240.0869140625
        },
        "forward": {
          "z": 3.062999963760376
        },
        "openLongDisTeleport": true,
        "_posBindMovingTargetKey": "",
        "_forwardBindMovingTargetKey": ""
      }
    ],
    [
      {
        "$type": "MoleMole.Config.ConfigBlackScreenAction",
        "type": "BLACK_SCREEN",
        "duration": 0.5,
        "actionId": 190,
        "blackScreenType": "FROM_BLACK",
        "durationToBlack": 0.5,
        "durationKeepBlack": 0.5,
        "durationFromBlack": 0.5,
        "inteePos": "",
        "textMapID": "",
        "useTextFade": true
      },
      {
        "$type": "FJKIHHKJLMJ",
        "type": "CAMERA_MOVE",
        "duration": 0.5,
        "actionId": 214,
        "camPosOffset": {
          "x": 2228.071044921875,
          "y": -282.99200439453125,
          "z": 4240.10693359375
        },
        "camForwardTargetOffset": {
          "x": 2227.31298828125,
          "y": -282.8320007324219,
          "z": 4240.740234375
        },
        "lerpPattern": 6,
        "cameraBlendType": "EaseInOutCubic",
        "NJBNNOMLKCK": {},
        "needZAxisRotate": true,
        "openCameraDither": false,
        "targetNpcAlias": "",
        "closeTreeLeafDither": true,
        "KJOEFBPOIIH": "",
        "IICFKKEBIEC": "",
        "EGEHEJEBLBJ": ""
      },
      {
        "$type": "LJLMDHDCAMK",
        "type": "LOOK_AT",
        "aliasList": [
          "Avatar"
        ],
        "actionId": 229,
        "_flag": 64,
        "enableHead": true,
        "headTurnTime": 0.5,
        "targetNpcAlias": "5302",
        "openBackProtect": true,
        "backProtectAngle": 60.0,
        "targetNpcLookAtPoint": "",
        "OAFJBHJHLJG": ""
      },
      {
        "$type": "LJLMDHDCAMK",
        "type": "LOOK_AT",
        "aliasList": [
          "AvatarNpc"
        ],
        "actionId": 230,
        "_flag": 64,
        "enableHead": true,
        "headTurnTime": 0.5,
        "targetNpcAlias": "5302",
        "openBackProtect": true,
        "backProtectAngle": 60.0,
        "targetNpcLookAtPoint": "",
        "OAFJBHJHLJG": ""
      },
      {
        "$type": "PKKMAMONGEO",
        "type": "DIALOG",
        "aliasList": [
          "5302"
        ],
        "actionId": 107,
        "dialogID": 740071501,
        "protectTime": 0.5
      },
      {
        "$type": "MoleMole.Config.ConfigMoveToAction",
        "type": "MOVE_TO",
        "aliasList": [
          "5302"
        ],
        "actionId": 225,
        "moveType": "WALK",
        "routeList": [
          {
            "x": 2224.8701171875,
            "y": -282.4440002441406,
            "z": 4242.14990234375
          }
        ],
        "exactlyMove": true,
        "closeNavMesh": true,
        "openSetPos": true,
        "_bindMovingTargetKey": ""
      },
      {
        "$type": "MoleMole.Config.ConfigVisibleInterAction",
        "type": "VISIBLE",
        "duration": 1.0,
        "aliasList": [
          "5302"
        ],
        "actionId": 227,
        "isVisible": true,
        "useDither": true,
        "_extraParam": ""
      },
      {
        "$type": "FJKIHHKJLMJ",
        "type": "CAMERA_MOVE",
        "delayTime": 0.10000000149011612,
        "duration": 7.711999893188477,
        "actionId": 228,
        "camPosOffset": {
          "x": 2230.4560546875,
          "y": -284.322998046875,
          "z": 4240.55712890625
        },
        "camForwardTargetOffset": {
          "x": 2229.5830078125,
          "y": -284.0419921875,
          "z": 4240.9560546875
        },
        "cameraBlendType": "EaseOutQuad",
        "NJBNNOMLKCK": {},
        "needZAxisRotate": true,
        "openCameraDither": false,
        "targetNpcAlias": "",
        "closeTreeLeafDither": true,
        "KJOEFBPOIIH": "",
        "IICFKKEBIEC": "",
        "EGEHEJEBLBJ": ""
      },
      {
        "$type": "HDGKHDNFMIM",
        "type": "DIALOG_SELECT",
        "delayTime": 0.4000000059604645,
        "aliasList": [
          "AvatarNpc"
        ],
        "actionId": 191,
        "dialogIDList": [
          740071502
        ],
        "grpIDList": [
          3175431418
        ],
        "useGrpId": true,
        "countDownGrpId": 3175431415
      }
    ],
    [
      {
        "$type": "FJKIHHKJLMJ",
        "type": "CAMERA_MOVE",
        "duration": 1.0,
        "actionId": 236,
        "camPosOffset": {
          "x": 2225.926025390625,
          "y": -281.7560119628906,
          "z": 4243.2978515625
        },
        "camForwardTargetOffset": {
          "x": 2225.18310546875,
          "y": -281.7560119628906,
          "z": 4242.62890625
        },
        "camFov": 22.007999420166016,
        "lerpPattern": 6,
        "cameraBlendType": "EaseInOutCubic",
        "NJBNNOMLKCK": {},
        "openCameraDither": false,
        "targetNpcAlias": "",
        "closeTreeLeafDither": true,
        "KJOEFBPOIIH": "",
        "IICFKKEBIEC": "",
        "EGEHEJEBLBJ": ""
      },
      {
        "$type": "PKKMAMONGEO",
        "type": "DIALOG",
        "aliasList": [
          "5302"
        ],
        "actionId": 110,
        "dialogID": 740071503,
        "protectTime": 0.5
      },
      {
        "$type": "MoleMole.Config.ConfigSetModelTransform",
        "type": "SET_MODEL_TRANSFORM",
        "aliasList": [
          "5302"
        ],
        "actionId": 345,
        "groudHight": -0.20000000298023224
      },
      {
        "$type": "FJKIHHKJLMJ",
        "type": "CAMERA_MOVE",
        "delayTime": 0.10000000149011612,
        "duration": 9.524999618530273,
        "actionId": 270,
        "camPosOffset": {
          "x": 2225.9560546875,
          "y": -281.7539978027344,
          "z": 4243.26416015625
        },
        "camForwardTargetOffset": {
          "x": 2225.2119140625,
          "y": -281.7539978027344,
          "z": 4242.59521484375
        },
        "camFov": 22.007999420166016,
        "NJBNNOMLKCK": {},
        "openCameraDither": false,
        "targetNpcAlias": "",
        "closeTreeLeafDither": true,
        "KJOEFBPOIIH": "",
        "IICFKKEBIEC": "",
        "EGEHEJEBLBJ": ""
      }
    ],
    [
      {
        "$type": "FJKIHHKJLMJ",
        "type": "CAMERA_MOVE",
        "duration": 1.0,
        "actionId": 237,
        "camPosOffset": {
          "x": 2225.277099609375,
          "y": -281.9670104980469,
          "z": 4241.0029296875
        },
        "camForwardTargetOffset": {
          "x": 2225.072998046875,
          "y": -281.7770080566406,
          "z": 4241.962890625
        },
        "camFov": 24.961999893188477,
        "lerpPattern": 6,
        "cameraBlendType": "EaseInOutCubic",
        "NJBNNOMLKCK": {},
        "needZAxisRotate": true,
        "openCameraDither": false,
        "targetNpcAlias": "",
        "closeTreeLeafDither": true,
        "KJOEFBPOIIH": "",
        "IICFKKEBIEC": "",
        "EGEHEJEBLBJ": ""
      },
      {
        "$type": "PKKMAMONGEO",
        "type": "DIALOG",
        "aliasList": [
          "5302"
        ],
        "actionId": 112,
        "dialogID": 740071504,
        "protectTime": 0.5
      },
      {
        "$type": "FJKIHHKJLMJ",
        "type": "CAMERA_MOVE",
        "delayTime": 0.10000000149011612,
        "duration": 15.522000312805176,
        "actionId": 271,
        "camPosOffset": {
          "x": 2225.31005859375,
          "y": -281.9670104980469,
          "z": 4241.01123046875
        },
        "camForwardTargetOffset": {
          "x": 2225.076904296875,
          "y": -281.7770080566406,
          "z": 4241.9638671875
        },
        "camFov": 24.961999893188477,
        "NJBNNOMLKCK": {},
        "needZAxisRotate": true,
        "openCameraDither": false,
        "targetNpcAlias": "",
        "closeTreeLeafDither": true,
        "KJOEFBPOIIH": "",
        "IICFKKEBIEC": "",
        "EGEHEJEBLBJ": ""
      },
      {
        "$type": "HDGKHDNFMIM",
        "type": "DIALOG_SELECT",
        "delayTime": 0.4000000059604645,
        "aliasList": [
          "AvatarNpc"
        ],
        "actionId": 192,
        "dialogIDList": [
          740071505
        ],
        "grpIDList": [
          3175431420
        ],
        "useGrpId": true,
        "countDownGrpId": 3175431415
      }
    ],
    [
      {
        "$type": "FJKIHHKJLMJ",
        "type": "CAMERA_MOVE",
        "duration": 1.0,
        "actionId": 238,
        "camPosOffset": {
          "x": 2228.623046875,
          "y": -279.08099365234375,
          "z": 4245.29296875
        },
        "camForwardTargetOffset": {
          "x": 2227.924072265625,
          "y": -279.6789855957031,
          "z": 4244.89990234375
        },
        "camFov": 40.0,
        "lerpPattern": 6,
        "cameraBlendType": "EaseInOutCubic",
        "NJBNNOMLKCK": {},
        "needZAxisRotate": true,
        "openCameraDither": false,
        "targetNpcAlias": "",
        "closeTreeLeafDither": true,
        "KJOEFBPOIIH": "",
        "IICFKKEBIEC": "",
        "EGEHEJEBLBJ": ""
      },
      {
        "$type": "PKKMAMONGEO",
        "type": "DIALOG",
        "aliasList": [
          "5302"
        ],
        "actionId": 115,
        "dialogID": 740071506,
        "protectTime": 0.5
      },
      {
        "$type": "FABLGECDBCH",
        "type": "BODY_LANG",
        "aliasList": [
          "5302"
        ],
        "actionId": 304,
        "bodyLangParam": 1030,
        "forceDoFreeStyle": true,
        "canDoRepeatFreeStyle": false,
        "cantBackToIdleWhenSitLoop": true,
        "eventPatternSuiteKey": "",
        "FOHHKFAIAAJ": ""
      },
      {
        "$type": "FJKIHHKJLMJ",
        "type": "CAMERA_MOVE",
        "delayTime": 0.10000000149011612,
        "duration": 5.775000095367432,
        "actionId": 272,
        "camPosOffset": {
          "x": 2228.837890625,
          "y": -278.8479919433594,
          "z": 4245.462890625
        },
        "camForwardTargetOffset": {
          "x": 2228.152099609375,
          "y": -279.4490051269531,
          "z": 4245.0517578125
        },
        "camFov": 40.0,
        "NJBNNOMLKCK": {},
        "needZAxisRotate": true,
        "openCameraDither": false,
        "targetNpcAlias": "",
        "closeTreeLeafDither": true,
        "KJOEFBPOIIH": "",
        "IICFKKEBIEC": "",
        "EGEHEJEBLBJ": ""
      },
      {
        "$type": "HDGKHDNFMIM",
        "type": "DIALOG_SELECT",
        "delayTime": 0.4000000059604645,
        "aliasList": [
          "AvatarNpc"
        ],
        "actionId": 193,
        "dialogIDList": [
          740071507
        ],
        "grpIDList": [
          3175431421
        ],
        "useGrpId": true,
        "countDownGrpId": 3175431415
      }
    ],
    [
      {
        "$type": "FJKIHHKJLMJ",
        "type": "CAMERA_MOVE",
        "duration": 1.0,
        "actionId": 239,
        "camPosOffset": {
          "x": 2224.907958984375,
          "y": -281.7969970703125,
          "z": 4243.80078125
        },
        "camForwardTargetOffset": {
          "x": 2224.89404296875,
          "y": -281.7969970703125,
          "z": 4242.80078125
        },
        "camFov": 21.152000427246094,
        "lerpPattern": 6,
        "cameraBlendType": "EaseInOutCubic",
        "NJBNNOMLKCK": {},
        "openCameraDither": false,
        "targetNpcAlias": "",
        "closeTreeLeafDither": true,
        "KJOEFBPOIIH": "",
        "IICFKKEBIEC": "",
        "EGEHEJEBLBJ": ""
      },
      {
        "$type": "PKKMAMONGEO",
        "type": "DIALOG",
        "aliasList": [
          "5302"
        ],
        "actionId": 118,
        "dialogID": 740071508,
        "protectTime": 0.5
      },
      {
        "$type": "FABLGECDBCH",
        "type": "BODY_LANG",
        "aliasList": [
          "5302"
        ],
        "actionId": 305,
        "isContinue": true,
        "forceDoFreeStyle": true,
        "canDoRepeatFreeStyle": false,
        "cantBackToIdleWhenSitLoop": true,
        "eventPatternSuiteKey": "",
        "FOHHKFAIAAJ": ""
      },
      {
        "$type": "FJKIHHKJLMJ",
        "type": "CAMERA_MOVE",
        "delayTime": 0.10000000149011612,
        "duration": 7.900000095367432,
        "actionId": 273,
        "camPosOffset": {
          "x": 2224.902099609375,
          "y": -281.7550048828125,
          "z": 4243.65478515625
        },
        "camForwardTargetOffset": {
          "x": 2224.886962890625,
          "y": -281.7550048828125,
          "z": 4242.65478515625
        },
        "camFov": 21.152000427246094,
        "NJBNNOMLKCK": {},
        "openCameraDither": false,
        "targetNpcAlias": "",
        "closeTreeLeafDither": true,
        "KJOEFBPOIIH": "",
        "IICFKKEBIEC": "",
        "EGEHEJEBLBJ": ""
      }
    ],
    [
      {
        "$type": "FJKIHHKJLMJ",
        "type": "CAMERA_MOVE",
        "duration": 1.0,
        "actionId": 240,
        "camPosOffset": {
          "x": 2256.31396484375,
          "y": -284.1820068359375,
          "z": 4245.9189453125
        },
        "camForwardTargetOffset": {
          "x": 2255.330078125,
          "y": -284.1210021972656,
          "z": 4245.7529296875
        },
        "camFov": 21.49799919128418,
        "lerpPattern": 6,
        "cameraBlendType": "EaseInOutCubic",
        "NJBNNOMLKCK": {},
        "needZAxisRotate": true,
        "openCameraDither": false,
        "targetNpcAlias": "",
        "closeTreeLeafDither": true,
        "KJOEFBPOIIH": "",
        "IICFKKEBIEC": "",
        "EGEHEJEBLBJ": ""
      },
      {
        "$type": "PKKMAMONGEO",
        "type": "DIALOG",
        "aliasList": [
          "5302"
        ],
        "actionId": 120,
        "dialogID": 740071509,
        "protectTime": 0.5
      },
      {
        "$type": "FJKIHHKJLMJ",
        "type": "CAMERA_MOVE",
        "delayTime": 0.10000000149011612,
        "duration": 9.524999618530273,
        "actionId": 274,
        "camPosOffset": {
          "x": 2256.18896484375,
          "y": -284.18798828125,
          "z": 4246.6572265625
        },
        "camForwardTargetOffset": {
          "x": 2255.205078125,
          "y": -284.12701416015625,
          "z": 4246.4912109375
        },
        "camFov": 21.49799919128418,
        "NJBNNOMLKCK": {},
        "needZAxisRotate": true,
        "openCameraDither": false,
        "targetNpcAlias": "",
        "closeTreeLeafDither": true,
        "KJOEFBPOIIH": "",
        "IICFKKEBIEC": "",
        "EGEHEJEBLBJ": ""
      },
      {
        "$type": "HDGKHDNFMIM",
        "type": "DIALOG_SELECT",
        "delayTime": 0.4000000059604645,
        "aliasList": [
          "AvatarNpc"
        ],
        "actionId": 194,
        "dialogIDList": [
          740071510
        ],
        "grpIDList": [
          3175431423
        ],
        "useGrpId": true,
        "countDownGrpId": 3175431415
      }
    ],
    [
      {
        "$type": "FJKIHHKJLMJ",
        "type": "CAMERA_MOVE",
        "duration": 1.0,
        "actionId": 241,
        "camPosOffset": {
          "x": 2226.222900390625,
          "y": -281.8609924316406,
          "z": 4239.673828125
        },
        "camForwardTargetOffset": {
          "x": 2225.867919921875,
          "y": -281.8599853515625,
          "z": 4240.60888671875
        },
        "camFov": 40.0,
        "lerpPattern": 6,
        "cameraBlendType": "EaseInOutCubic",
        "NJBNNOMLKCK": {},
        "needZAxisRotate": true,
        "openCameraDither": false,
        "targetNpcAlias": "",
        "closeTreeLeafDither": true,
        "KJOEFBPOIIH": "",
        "IICFKKEBIEC": "",
        "EGEHEJEBLBJ": ""
      },
      {
        "$type": "PKKMAMONGEO",
        "type": "DIALOG",
        "aliasList": [
          "5302"
        ],
        "actionId": 123,
        "dialogID": 740071511,
        "protectTime": 0.5
      },
      {
        "$type": "FABLGECDBCH",
        "type": "BODY_LANG",
        "aliasList": [
          "5302"
        ],
        "actionId": 303,
        "bodyLangParam": 1171,
        "forceDoFreeStyle": true,
        "canDoRepeatFreeStyle": false,
        "cantBackToIdleWhenSitLoop": true,
        "eventPatternSuiteKey": "",
        "FOHHKFAIAAJ": ""
      },
      {
        "$type": "FJKIHHKJLMJ",
        "type": "CAMERA_MOVE",
        "delayTime": 0.10000000149011612,
        "duration": 11.895999908447266,
        "actionId": 275,
        "camPosOffset": {
          "x": 2226.447998046875,
          "y": -281.8580017089844,
          "z": 4239.77197265625
        },
        "camForwardTargetOffset": {
          "x": 2226.01806640625,
          "y": -281.85699462890625,
          "z": 4240.6748046875
        },
        "camFov": 40.0,
        "NJBNNOMLKCK": {},
        "needZAxisRotate": true,
        "openCameraDither": false,
        "targetNpcAlias": "",
        "closeTreeLeafDither": true,
        "KJOEFBPOIIH": "",
        "IICFKKEBIEC": "",
        "EGEHEJEBLBJ": ""
      }
    ],
    [
      {
        "$type": "FJKIHHKJLMJ",
        "type": "CAMERA_MOVE",
        "duration": 1.0,
        "actionId": 242,
        "camPosOffset": {
          "x": 2231.27587890625,
          "y": -280.4540100097656,
          "z": 4248.94189453125
        },
        "camForwardTargetOffset": {
          "x": 2230.551025390625,
          "y": -280.68499755859375,
          "z": 4248.29296875
        },
        "camFov": 40.0,
        "lerpPattern": 6,
        "cameraBlendType": "EaseInOutCubic",
        "NJBNNOMLKCK": {},
        "needZAxisRotate": true,
        "openCameraDither": false,
        "targetNpcAlias": "",
        "closeTreeLeafDither": true,
        "KJOEFBPOIIH": "",
        "IICFKKEBIEC": "",
        "EGEHEJEBLBJ": ""
      },
      {
        "$type": "PKKMAMONGEO",
        "type": "DIALOG",
        "aliasList": [
          "5302"
        ],
        "actionId": 125,
        "dialogID": 740071512,
        "protectTime": 0.5
      },
      {
        "$type": "FABLGECDBCH",
        "type": "BODY_LANG",
        "aliasList": [
          "5302"
        ],
        "actionId": 306,
        "isContinue": true,
        "forceDoFreeStyle": true,
        "canDoRepeatFreeStyle": false,
        "cantBackToIdleWhenSitLoop": true,
        "eventPatternSuiteKey": "",
        "FOHHKFAIAAJ": ""
      },
      {
        "$type": "FJKIHHKJLMJ",
        "type": "CAMERA_MOVE",
        "delayTime": 0.10000000149011612,
        "duration": 7.775000095367432,
        "actionId": 276,
        "camPosOffset": {
          "x": 2231.658935546875,
          "y": -280.4280090332031,
          "z": 4248.47314453125
        },
        "camForwardTargetOffset": {
          "x": 2230.889892578125,
          "y": -280.6619873046875,
          "z": 4247.8779296875
        },
        "camFov": 40.0,
        "NJBNNOMLKCK": {},
        "needZAxisRotate": true,
        "openCameraDither": false,
        "targetNpcAlias": "",
        "closeTreeLeafDither": true,
        "KJOEFBPOIIH": "",
        "IICFKKEBIEC": "",
        "EGEHEJEBLBJ": ""
      }
    ],
    [
      {
        "$type": "FJKIHHKJLMJ",
        "type": "CAMERA_MOVE",
        "duration": 1.0,
        "actionId": 243,
        "camPosOffset": {
          "x": 2224.906005859375,
          "y": -281.6300048828125,
          "z": 4242.9521484375
        },
        "camForwardTargetOffset": {
          "x": 2224.7900390625,
          "y": -281.78399658203125,
          "z": 4241.97119140625
        },
        "camFov": 40.0,
        "lerpPattern": 6,
        "cameraBlendType": "EaseInOutCubic",
        "NJBNNOMLKCK": {},
        "needZAxisRotate": true,
        "openCameraDither": false,
        "targetNpcAlias": "",
        "closeTreeLeafDither": true,
        "KJOEFBPOIIH": "",
        "IICFKKEBIEC": "",
        "EGEHEJEBLBJ": ""
      },
      {
        "$type": "PKKMAMONGEO",
        "type": "DIALOG",
        "aliasList": [
          "5302"
        ],
        "actionId": 127,
        "dialogID": 740071513,
        "protectTime": 0.5
      },
      {
        "$type": "FABLGECDBCH",
        "type": "BODY_LANG",
        "aliasList": [
          "5302"
        ],
        "actionId": 307,
        "bodyLangParam": 1190,
        "forceDoFreeStyle": true,
        "canDoRepeatFreeStyle": false,
        "cantBackToIdleWhenSitLoop": true,
        "eventPatternSuiteKey": "",
        "FOHHKFAIAAJ": ""
      },
      {
        "$type": "FJKIHHKJLMJ",
        "type": "CAMERA_MOVE",
        "delayTime": 0.10000000149011612,
        "duration": 9.899999618530273,
        "actionId": 277,
        "camPosOffset": {
          "x": 2224.969970703125,
          "y": -281.6289978027344,
          "z": 4242.94482421875
        },
        "camForwardTargetOffset": {
          "x": 2224.85400390625,
          "y": -281.78399658203125,
          "z": 4241.9638671875
        },
        "camFov": 40.0,
        "NJBNNOMLKCK": {},
        "needZAxisRotate": true,
        "openCameraDither": false,
        "targetNpcAlias": "",
        "closeTreeLeafDither": true,
        "KJOEFBPOIIH": "",
        "IICFKKEBIEC": "",
        "EGEHEJEBLBJ": ""
      }
    ],
    [
      {
        "$type": "FJKIHHKJLMJ",
        "type": "CAMERA_MOVE",
        "duration": 1.0,
        "actionId": 244,
        "camPosOffset": {
          "x": 2272.2900390625,
          "y": -273.4599914550781,
          "z": 4268.76806640625
        },
        "camForwardTargetOffset": {
          "x": 2271.447998046875,
          "y": -273.65399169921875,
          "z": 4268.26416015625
        },
        "camFov": 21.650999069213867,
        "lerpPattern": 6,
        "cameraBlendType": "EaseInOutCubic",
        "NJBNNOMLKCK": {},
        "needZAxisRotate": true,
        "openCameraDither": false,
        "targetNpcAlias": "",
        "closeTreeLeafDither": true,
        "KJOEFBPOIIH": "",
        "IICFKKEBIEC": "",
        "EGEHEJEBLBJ": ""
      },
      {
        "$type": "PKKMAMONGEO",
        "type": "DIALOG",
        "aliasList": [
          "5302"
        ],
        "actionId": 129,
        "dialogID": 740071514,
        "protectTime": 0.5
      },
      {
        "$type": "FABLGECDBCH",
        "type": "BODY_LANG",
        "aliasList": [
          "5302"
        ],
        "actionId": 308,
        "isContinue": true,
        "forceDoFreeStyle": true,
        "canDoRepeatFreeStyle": false,
        "cantBackToIdleWhenSitLoop": true,
        "eventPatternSuiteKey": "",
        "FOHHKFAIAAJ": ""
      },
      {
        "$type": "FJKIHHKJLMJ",
        "type": "CAMERA_MOVE",
        "delayTime": 0.10000000149011612,
        "duration": 10.149999618530273,
        "actionId": 278,
        "camPosOffset": {
          "x": 2274.27392578125,
          "y": -274.0,
          "z": 4265.462890625
        },
        "camForwardTargetOffset": {
          "x": 2273.39697265625,
          "y": -274.1820068359375,
          "z": 4265.01806640625
        },
        "camFov": 21.650999069213867,
        "NJBNNOMLKCK": {},
        "needZAxisRotate": true,
        "openCameraDither": false,
        "targetNpcAlias": "",
        "closeTreeLeafDither": true,
        "KJOEFBPOIIH": "",
        "IICFKKEBIEC": "",
        "EGEHEJEBLBJ": ""
      }
    ],
    [
      {
        "$type": "FJKIHHKJLMJ",
        "type": "CAMERA_MOVE",
        "duration": 1.0,
        "actionId": 245,
        "camPosOffset": {
          "x": 2225.52587890625,
          "y": -281.968994140625,
          "z": 4243.22998046875
        },
        "camForwardTargetOffset": {
          "x": 2224.9560546875,
          "y": -281.7900085449219,
          "z": 4242.42919921875
        },
        "camFov": 23.68400001525879,
        "lerpPattern": 6,
        "cameraBlendType": "EaseInOutCubic",
        "NJBNNOMLKCK": {},
        "openCameraDither": false,
        "targetNpcAlias": "",
        "closeTreeLeafDither": true,
        "KJOEFBPOIIH": "",
        "IICFKKEBIEC": "",
        "EGEHEJEBLBJ": ""
      },
      {
        "$type": "PKKMAMONGEO",
        "type": "DIALOG",
        "aliasList": [
          "5302"
        ],
        "actionId": 131,
        "dialogID": 740071515,
        "protectTime": 0.5
      },
      {
        "$type": "FABLGECDBCH",
        "type": "BODY_LANG",
        "aliasList": [
          "5302"
        ],
        "actionId": 309,
        "bodyLangParam": 1030,
        "forceDoFreeStyle": true,
        "canDoRepeatFreeStyle": false,
        "cantBackToIdleWhenSitLoop": true,
        "eventPatternSuiteKey": "",
        "FOHHKFAIAAJ": ""
      },
      {
        "$type": "FJKIHHKJLMJ",
        "type": "CAMERA_MOVE",
        "delayTime": 0.10000000149011612,
        "duration": 10.149999618530273,
        "actionId": 279,
        "camPosOffset": {
          "x": 2225.556884765625,
          "y": -281.9679870605469,
          "z": 4243.208984375
        },
        "camForwardTargetOffset": {
          "x": 2224.987060546875,
          "y": -281.78900146484375,
          "z": 4242.4072265625
        },
        "camFov": 23.68400001525879,
        "NJBNNOMLKCK": {},
        "openCameraDither": false,
        "targetNpcAlias": "",
        "closeTreeLeafDither": true,
        "KJOEFBPOIIH": "",
        "IICFKKEBIEC": "",
        "EGEHEJEBLBJ": ""
      }
    ],
    [
      {
        "$type": "FJKIHHKJLMJ",
        "type": "CAMERA_MOVE",
        "duration": 1.0,
        "actionId": 246,
        "camPosOffset": {
          "x": 2228.06396484375,
          "y": -277.572998046875,
          "z": 4247.64599609375
        },
        "camForwardTargetOffset": {
          "x": 2227.6220703125,
          "y": -278.260986328125,
          "z": 4247.06982421875
        },
        "camFov": 40.0,
        "lerpPattern": 6,
        "cameraBlendType": "EaseInOutCubic",
        "NJBNNOMLKCK": {},
        "needZAxisRotate": true,
        "openCameraDither": false,
        "targetNpcAlias": "",
        "closeTreeLeafDither": true,
        "KJOEFBPOIIH": "",
        "IICFKKEBIEC": "",
        "EGEHEJEBLBJ": ""
      },
      {
        "$type": "PKKMAMONGEO",
        "type": "DIALOG",
        "aliasList": [
          "5302"
        ],
        "actionId": 133,
        "dialogID": 740071516,
        "protectTime": 0.5
      },
      {
        "$type": "FABLGECDBCH",
        "type": "BODY_LANG",
        "aliasList": [
          "5302"
        ],
        "actionId": 310,
        "isContinue": true,
        "forceDoFreeStyle": true,
        "canDoRepeatFreeStyle": false,
        "cantBackToIdleWhenSitLoop": true,
        "eventPatternSuiteKey": "",
        "FOHHKFAIAAJ": ""
      },
      {
        "$type": "FJKIHHKJLMJ",
        "type": "CAMERA_MOVE",
        "delayTime": 0.10000000149011612,
        "duration": 10.149999618530273,
        "actionId": 280,
        "camPosOffset": {
          "x": 2228.739990234375,
          "y": -277.3089904785156,
          "z": 4247.44384765625
        },
        "camForwardTargetOffset": {
          "x": 2228.239013671875,
          "y": -277.9989929199219,
          "z": 4246.9208984375
        },
        "camFov": 40.0,
        "NJBNNOMLKCK": {},
        "needZAxisRotate": true,
        "openCameraDither": false,
        "targetNpcAlias": "",
        "closeTreeLeafDither": true,
        "KJOEFBPOIIH": "",
        "IICFKKEBIEC": "",
        "EGEHEJEBLBJ": ""
      }
    ],
    [
      {
        "$type": "FJKIHHKJLMJ",
        "type": "CAMERA_MOVE",
        "duration": 1.0,
        "actionId": 247,
        "camPosOffset": {
          "x": 2314.31298828125,
          "y": -276.1709899902344,
          "z": 4136.59423828125
        },
        "camForwardTargetOffset": {
          "x": 2313.58203125,
          "y": -276.30499267578125,
          "z": 4137.26416015625
        },
        "camFov": 40.0,
        "lerpPattern": 6,
        "cameraBlendType": "EaseInOutCubic",
        "NJBNNOMLKCK": {},
        "needZAxisRotate": true,
        "openCameraDither": false,
        "targetNpcAlias": "",
        "closeTreeLeafDither": true,
        "KJOEFBPOIIH": "",
        "IICFKKEBIEC": "",
        "EGEHEJEBLBJ": ""
      },
      {
        "$type": "PKKMAMONGEO",
        "type": "DIALOG",
        "delayTime": 0.02800000086426735,
        "aliasList": [
          "5302"
        ],
        "actionId": 135,
        "dialogID": 740071517,
        "protectTime": 0.5
      },
      {
        "$type": "FJKIHHKJLMJ",
        "type": "CAMERA_MOVE",
        "delayTime": 0.10000000149011612,
        "duration": 10.399999618530273,
        "actionId": 281,
        "camPosOffset": {
          "x": 2321.97998046875,
          "y": -276.55499267578125,
          "z": 4145.69580078125
        },
        "camForwardTargetOffset": {
          "x": 2321.18994140625,
          "y": -276.6860046386719,
          "z": 4146.294921875
        },
        "camFov": 40.0,
        "NJBNNOMLKCK": {},
        "needZAxisRotate": true,
        "openCameraDither": false,
        "targetNpcAlias": "",
        "closeTreeLeafDither": true,
        "KJOEFBPOIIH": "",
        "IICFKKEBIEC": "",
        "EGEHEJEBLBJ": ""
      }
    ],
    [
      {
        "$type": "FJKIHHKJLMJ",
        "type": "CAMERA_MOVE",
        "duration": 1.0,
        "actionId": 248,
        "camPosOffset": {
          "x": 2227.48095703125,
          "y": -280.40899658203125,
          "z": 4246.44677734375
        },
        "camForwardTargetOffset": {
          "x": 2226.85888671875,
          "y": -280.7619934082031,
          "z": 4245.7490234375
        },
        "camFov": 40.0,
        "lerpPattern": 6,
        "cameraBlendType": "EaseInOutCubic",
        "NJBNNOMLKCK": {},
        "needZAxisRotate": true,
        "openCameraDither": false,
        "targetNpcAlias": "",
        "closeTreeLeafDither": true,
        "KJOEFBPOIIH": "",
        "IICFKKEBIEC": "",
        "EGEHEJEBLBJ": ""
      },
      {
        "$type": "PKKMAMONGEO",
        "type": "DIALOG",
        "aliasList": [
          "5302"
        ],
        "actionId": 137,
        "dialogID": 740071518,
        "protectTime": 0.5
      },
      {
        "$type": "FJKIHHKJLMJ",
        "type": "CAMERA_MOVE",
        "delayTime": 0.10000000149011612,
        "duration": 10.399999618530273,
        "actionId": 282,
        "camPosOffset": {
          "x": 2227.659912109375,
          "y": -280.4179992675781,
          "z": 4246.27880859375
        },
        "camForwardTargetOffset": {
          "x": 2226.98291015625,
          "y": -280.76800537109375,
          "z": 4245.6318359375
        },
        "camFov": 40.0,
        "NJBNNOMLKCK": {},
        "needZAxisRotate": true,
        "openCameraDither": false,
        "targetNpcAlias": "",
        "closeTreeLeafDither": true,
        "KJOEFBPOIIH": "",
        "IICFKKEBIEC": "",
        "EGEHEJEBLBJ": ""
      }
    ],
    [
      {
        "$type": "FJKIHHKJLMJ",
        "type": "CAMERA_MOVE",
        "duration": 1.0,
        "actionId": 249,
        "camPosOffset": {
          "x": 2226.1259765625,
          "y": -281.7799987792969,
          "z": 4242.51318359375
        },
        "camForwardTargetOffset": {
          "x": 2225.139892578125,
          "y": -281.74700927734375,
          "z": 4242.35107421875
        },
        "camFov": 24.371999740600586,
        "lerpPattern": 6,
        "cameraBlendType": "EaseInOutCubic",
        "NJBNNOMLKCK": {},
        "needZAxisRotate": true,
        "openCameraDither": false,
        "targetNpcAlias": "",
        "closeTreeLeafDither": true,
        "KJOEFBPOIIH": "",
        "IICFKKEBIEC": "",
        "EGEHEJEBLBJ": ""
      },
      {
        "$type": "PKKMAMONGEO",
        "type": "DIALOG",
        "aliasList": [
          "5302"
        ],
        "actionId": 139,
        "dialogID": 740071519,
        "protectTime": 0.5
      },
      {
        "$type": "FJKIHHKJLMJ",
        "type": "CAMERA_MOVE",
        "delayTime": 0.10000000149011612,
        "duration": 9.774999618530273,
        "actionId": 283,
        "camPosOffset": {
          "x": 2226.136962890625,
          "y": -281.7799987792969,
          "z": 4242.44677734375
        },
        "camForwardTargetOffset": {
          "x": 2225.15087890625,
          "y": -281.74700927734375,
          "z": 4242.28515625
        },
        "camFov": 24.371999740600586,
        "NJBNNOMLKCK": {},
        "needZAxisRotate": true,
        "openCameraDither": false,
        "targetNpcAlias": "",
        "closeTreeLeafDither": true,
        "KJOEFBPOIIH": "",
        "IICFKKEBIEC": "",
        "EGEHEJEBLBJ": ""
      }
    ],
    [
      {
        "$type": "FJKIHHKJLMJ",
        "type": "CAMERA_MOVE",
        "duration": 1.0,
        "actionId": 250,
        "camPosOffset": {
          "x": 2225.340087890625,
          "y": -281.1189880371094,
          "z": 4243.34619140625
        },
        "camForwardTargetOffset": {
          "x": 2225.0419921875,
          "y": -281.10400390625,
          "z": 4244.30078125
        },
        "camFov": 25.0,
        "lerpPattern": 6,
        "cameraBlendType": "EaseInOutCubic",
        "NJBNNOMLKCK": {},
        "needZAxisRotate": true,
        "openCameraDither": false,
        "targetNpcAlias": "",
        "closeTreeLeafDither": true,
        "KJOEFBPOIIH": "",
        "IICFKKEBIEC": "",
        "EGEHEJEBLBJ": ""
      },
      {
        "$type": "PKKMAMONGEO",
        "type": "DIALOG",
        "aliasList": [
          "5302"
        ],
        "actionId": 141,
        "dialogID": 740071520,
        "protectTime": 1.3530000448226929
      },
      {
        "$type": "FJKIHHKJLMJ",
        "type": "CAMERA_MOVE",
        "delayTime": 0.10000000149011612,
        "duration": 10.901000022888184,
        "actionId": 284,
        "camPosOffset": {
          "x": 2225.345947265625,
          "y": -281.1210021972656,
          "z": 4243.44921875
        },
        "camForwardTargetOffset": {
          "x": 2225.031005859375,
          "y": -281.1029968261719,
          "z": 4244.39697265625
        },
        "camFov": 25.0,
        "NJBNNOMLKCK": {},
        "needZAxisRotate": true,
        "openCameraDither": false,
        "targetNpcAlias": "",
        "closeTreeLeafDither": true,
        "KJOEFBPOIIH": "",
        "IICFKKEBIEC": "",
        "EGEHEJEBLBJ": ""
      },
      {
        "$type": "HDGKHDNFMIM",
        "type": "DIALOG_SELECT",
        "delayTime": 1.184999942779541,
        "aliasList": [
          "AvatarNpc"
        ],
        "actionId": 195,
        "dialogIDList": [
          740071521
        ],
        "grpIDList": [
          3949093440
        ],
        "useGrpId": true,
        "countDownGrpId": 3175431415
      }
    ],
    [
      {
        "$type": "FJKIHHKJLMJ",
        "type": "CAMERA_MOVE",
        "duration": 1.0,
        "actionId": 251,
        "camPosOffset": {
          "x": 2225.044921875,
          "y": -281.6969909667969,
          "z": 4243.0390625
        },
        "camForwardTargetOffset": {
          "x": 2224.69189453125,
          "y": -281.81201171875,
          "z": 4242.10986328125
        },
        "camFov": 40.0,
        "lerpPattern": 6,
        "cameraBlendType": "EaseInOutCubic",
        "NJBNNOMLKCK": {},
        "needZAxisRotate": true,
        "openCameraDither": false,
        "targetNpcAlias": "",
        "closeTreeLeafDither": true,
        "KJOEFBPOIIH": "",
        "IICFKKEBIEC": "",
        "EGEHEJEBLBJ": ""
      },
      {
        "$type": "MoleMole.Config.ConfigLocalGadgetOP",
        "type": "LOCAL_GADGET_OP",
        "actionId": 350,
        "gadgetId": 70300048,
        "oprCode": 1,
        "slotName": "",
        "position": {
          "x": 2225.008056640625,
          "y": -282.9960021972656,
          "z": 4244.2080078125
        },
        "euler": {
          "y": 186.2469940185547
        },
        "gvKey": ""
      },
      {
        "$type": "MoleMole.Config.ConfigColliderOpInterAction",
        "type": "COLLIDER_OP",
        "aliasList": [
          "AvatarNpc"
        ],
        "actionId": 349,
        "isClose": true
      },
      {
        "$type": "MoleMole.Config.ConfigSitOrStandAction",
        "type": "SIT_OR_STAND",
        "aliasList": [
          "AvatarNpc"
        ],
        "actionId": 351,
        "isSit": true,
        "banResetFreestyle": true
      },
      {
        "$type": "PKKMAMONGEO",
        "type": "DIALOG",
        "aliasList": [
          "5302"
        ],
        "actionId": 144,
        "dialogID": 740071522,
        "protectTime": 1.5740000009536743
      },
      {
        "$type": "FJKIHHKJLMJ",
        "type": "CAMERA_MOVE",
        "delayTime": 0.10000000149011612,
        "duration": 8.024999618530273,
        "actionId": 285,
        "camPosOffset": {
          "x": 2225.096923828125,
          "y": -281.6929931640625,
          "z": 4243.02001953125
        },
        "camForwardTargetOffset": {
          "x": 2224.743896484375,
          "y": -281.8080139160156,
          "z": 4242.0908203125
        },
        "camFov": 40.0,
        "NJBNNOMLKCK": {},
        "needZAxisRotate": true,
        "openCameraDither": false,
        "targetNpcAlias": "",
        "closeTreeLeafDither": true,
        "KJOEFBPOIIH": "",
        "IICFKKEBIEC": "",
        "EGEHEJEBLBJ": ""
      }
    ],
    [
      {
        "$type": "FJKIHHKJLMJ",
        "type": "CAMERA_MOVE",
        "duration": 1.0,
        "actionId": 253,
        "camPosOffset": {
          "x": 2225.907958984375,
          "y": -281.9320068359375,
          "z": 4246.63720703125
        },
        "camForwardTargetOffset": {
          "x": 2225.60400390625,
          "y": -281.9410095214844,
          "z": 4245.68505859375
        },
        "camFov": 24.80699920654297,
        "lerpPattern": 6,
        "cameraBlendType": "EaseInOutCubic",
        "NJBNNOMLKCK": {},
        "needZAxisRotate": true,
        "openCameraDither": false,
        "targetNpcAlias": "",
        "closeTreeLeafDither": true,
        "KJOEFBPOIIH": "",
        "IICFKKEBIEC": "",
        "EGEHEJEBLBJ": ""
      },
      {
        "$type": "MoleMole.Config.ConfigLocalGadgetOP",
        "type": "LOCAL_GADGET_OP",
        "actionId": 326,
        "gadgetId": 70300048,
        "oprCode": 1,
        "slotName": "",
        "position": {
          "x": 2225.008056640625,
          "y": -282.9960021972656,
          "z": 4244.2080078125
        },
        "euler": {
          "y": 186.2469940185547
        },
        "gvKey": ""
      },
      {
        "$type": "PKKMAMONGEO",
        "type": "DIALOG",
        "aliasList": [
          "5302"
        ],
        "actionId": 150,
        "dialogID": 740071527,
        "protectTime": 2.2009999752044678
      },
      {
        "$type": "FJKIHHKJLMJ",
        "type": "CAMERA_MOVE",
        "delayTime": 0.10000000149011612,
        "duration": 15.418999671936035,
        "actionId": 287,
        "camPosOffset": {
          "x": 2226.492919921875,
          "y": -281.90899658203125,
          "z": 4246.89794921875
        },
        "camForwardTargetOffset": {
          "x": 2226.052978515625,
          "y": -281.92401123046875,
          "z": 4246.0
        },
        "camFov": 24.80699920654297,
        "NJBNNOMLKCK": {},
        "needZAxisRotate": true,
        "openCameraDither": false,
        "targetNpcAlias": "",
        "closeTreeLeafDither": true,
        "KJOEFBPOIIH": "",
        "IICFKKEBIEC": "",
        "EGEHEJEBLBJ": ""
      }
    ],
    [
      {
        "$type": "FJKIHHKJLMJ",
        "type": "CAMERA_MOVE",
        "duration": 1.0,
        "actionId": 254,
        "camPosOffset": {
          "x": 2225.839111328125,
          "y": -281.7640075683594,
          "z": 4243.18896484375
        },
        "camForwardTargetOffset": {
          "x": 2225.0791015625,
          "y": -281.7640075683594,
          "z": 4242.5390625
        },
        "camFov": 23.825000762939453,
        "lerpPattern": 6,
        "cameraBlendType": "EaseInOutCubic",
        "NJBNNOMLKCK": {},
        "openCameraDither": false,
        "targetNpcAlias": "",
        "closeTreeLeafDither": true,
        "KJOEFBPOIIH": "",
        "IICFKKEBIEC": "",
        "EGEHEJEBLBJ": ""
      },
      {
        "$type": "PKKMAMONGEO",
        "type": "DIALOG",
        "aliasList": [
          "5302"
        ],
        "actionId": 152,
        "dialogID": 740071528,
        "protectTime": 0.5
      },
      {
        "$type": "FJKIHHKJLMJ",
        "type": "CAMERA_MOVE",
        "delayTime": 0.10000000149011612,
        "duration": 10.274999618530273,
        "actionId": 288,
        "camPosOffset": {
          "x": 2225.867919921875,
          "y": -281.7650146484375,
          "z": 4243.15576171875
        },
        "camForwardTargetOffset": {
          "x": 2225.10791015625,
          "y": -281.7650146484375,
          "z": 4242.505859375
        },
        "camFov": 23.825000762939453,
        "NJBNNOMLKCK": {},
        "openCameraDither": false,
        "targetNpcAlias": "",
        "closeTreeLeafDither": true,
        "KJOEFBPOIIH": "",
        "IICFKKEBIEC": "",
        "EGEHEJEBLBJ": ""
      }
    ],
    [
      {
        "$type": "FJKIHHKJLMJ",
        "type": "CAMERA_MOVE",
        "duration": 1.0,
        "actionId": 255,
        "camPosOffset": {
          "x": 2226.527099609375,
          "y": -280.7080078125,
          "z": 4240.251953125
        },
        "camForwardTargetOffset": {
          "x": 2226.052978515625,
          "y": -281.09100341796875,
          "z": 4241.0458984375
        },
        "camFov": 40.0,
        "lerpPattern": 6,
        "cameraBlendType": "EaseInOutCubic",
        "NJBNNOMLKCK": {},
        "needZAxisRotate": true,
        "openCameraDither": false,
        "targetNpcAlias": "",
        "closeTreeLeafDither": true,
        "KJOEFBPOIIH": "",
        "IICFKKEBIEC": "",
        "EGEHEJEBLBJ": ""
      },
      {
        "$type": "PKKMAMONGEO",
        "type": "DIALOG",
        "aliasList": [
          "5302"
        ],
        "actionId": 154,
        "dialogID": 740071529,
        "protectTime": 0.5
      },
      {
        "$type": "FABLGECDBCH",
        "type": "BODY_LANG",
        "aliasList": [
          "5302"
        ],
        "actionId": 311,
        "bodyLangParam": 1172,
        "forceDoFreeStyle": true,
        "canDoRepeatFreeStyle": false,
        "cantBackToIdleWhenSitLoop": true,
        "eventPatternSuiteKey": "",
        "FOHHKFAIAAJ": ""
      },
      {
        "$type": "FJKIHHKJLMJ",
        "type": "CAMERA_MOVE",
        "delayTime": 0.10000000149011612,
        "duration": 8.274999618530273,
        "actionId": 289,
        "camPosOffset": {
          "x": 2226.73388671875,
          "y": -280.7359924316406,
          "z": 4240.3701171875
        },
        "camForwardTargetOffset": {
          "x": 2226.218994140625,
          "y": -281.1130065917969,
          "z": 4241.14013671875
        },
        "camFov": 40.0,
        "NJBNNOMLKCK": {},
        "needZAxisRotate": true,
        "openCameraDither": false,
        "targetNpcAlias": "",
        "closeTreeLeafDither": true,
        "KJOEFBPOIIH": "",
        "IICFKKEBIEC": "",
        "EGEHEJEBLBJ": ""
      },
      {
        "$type": "HDGKHDNFMIM",
        "type": "DIALOG_SELECT",
        "delayTime": 0.4000000059604645,
        "aliasList": [
          "AvatarNpc"
        ],
        "actionId": 198,
        "dialogIDList": [
          740071530
        ],
        "grpIDList": [
          3949093465
        ],
        "useGrpId": true,
        "countDownGrpId": 3175431415
      }
    ],
    [
      {
        "$type": "FJKIHHKJLMJ",
        "type": "CAMERA_MOVE",
        "duration": 1.0,
        "actionId": 256,
        "camPosOffset": {
          "x": 2225.06298828125,
          "y": -281.7690124511719,
          "z": 4243.56005859375
        },
        "camForwardTargetOffset": {
          "x": 2224.843017578125,
          "y": -281.76300048828125,
          "z": 4242.583984375
        },
        "camFov": 24.847000122070312,
        "lerpPattern": 6,
        "cameraBlendType": "EaseInOutCubic",
        "NJBNNOMLKCK": {},
        "needZAxisRotate": true,
        "openCameraDither": false,
        "targetNpcAlias": "",
        "closeTreeLeafDither": true,
        "KJOEFBPOIIH": "",
        "IICFKKEBIEC": "",
        "EGEHEJEBLBJ": ""
      },
      {
        "$type": "PKKMAMONGEO",
        "type": "DIALOG",
        "aliasList": [
          "5302"
        ],
        "actionId": 157,
        "dialogID": 740071531,
        "protectTime": 0.5
      },
      {
        "$type": "FABLGECDBCH",
        "type": "BODY_LANG",
        "aliasList": [
          "5302"
        ],
        "actionId": 312,
        "isContinue": true,
        "forceDoFreeStyle": true,
        "canDoRepeatFreeStyle": false,
        "cantBackToIdleWhenSitLoop": true,
        "eventPatternSuiteKey": "",
        "FOHHKFAIAAJ": ""
      },
      {
        "$type": "FJKIHHKJLMJ",
        "type": "CAMERA_MOVE",
        "delayTime": 0.10000000149011612,
        "duration": 8.274999618530273,
        "actionId": 290,
        "camPosOffset": {
          "x": 2225.10693359375,
          "y": -281.76800537109375,
          "z": 4243.5498046875
        },
        "camForwardTargetOffset": {
          "x": 2224.885986328125,
          "y": -281.7619934082031,
          "z": 4242.5751953125
        },
        "camFov": 24.847000122070312,
        "NJBNNOMLKCK": {},
        "needZAxisRotate": true,
        "openCameraDither": false,
        "targetNpcAlias": "",
        "closeTreeLeafDither": true,
        "KJOEFBPOIIH": "",
        "IICFKKEBIEC": "",
        "EGEHEJEBLBJ": ""
      },
      {
        "$type": "HDGKHDNFMIM",
        "type": "DIALOG_SELECT",
        "delayTime": 0.4000000059604645,
        "aliasList": [
          "AvatarNpc"
        ],
        "actionId": 199,
        "dialogIDList": [
          740071532
        ],
        "grpIDList": [
          3949093466
        ],
        "useGrpId": true,
        "countDownGrpId": 3175431415
      }
    ],
    [
      {
        "$type": "FJKIHHKJLMJ",
        "type": "CAMERA_MOVE",
        "duration": 1.0,
        "actionId": 257,
        "camPosOffset": {
          "x": 2253.56103515625,
          "y": -277.6700134277344,
          "z": 4198.9580078125
        },
        "camForwardTargetOffset": {
          "x": 2252.971923828125,
          "y": -277.7720031738281,
          "z": 4199.7587890625
        },
        "camFov": 20.410999298095703,
        "lerpPattern": 6,
        "cameraBlendType": "EaseInOutCubic",
        "NJBNNOMLKCK": {},
        "needZAxisRotate": true,
        "openCameraDither": false,
        "targetNpcAlias": "",
        "closeTreeLeafDither": true,
        "KJOEFBPOIIH": "",
        "IICFKKEBIEC": "",
        "EGEHEJEBLBJ": ""
      },
      {
        "$type": "PKKMAMONGEO",
        "type": "DIALOG",
        "aliasList": [
          "5302"
        ],
        "actionId": 160,
        "dialogID": 740071533,
        "protectTime": 0.5
      },
      {
        "$type": "FJKIHHKJLMJ",
        "type": "CAMERA_MOVE",
        "delayTime": 0.10000000149011612,
        "duration": 10.149999618530273,
        "actionId": 291,
        "camPosOffset": {
          "x": 2249.614990234375,
          "y": -277.7130126953125,
          "z": 4199.2890625
        },
        "camForwardTargetOffset": {
          "x": 2249.071044921875,
          "y": -277.8240051269531,
          "z": 4200.1201171875
        },
        "camFov": 20.410999298095703,
        "NJBNNOMLKCK": {},
        "needZAxisRotate": true,
        "openCameraDither": false,
        "targetNpcAlias": "",
        "closeTreeLeafDither": true,
        "KJOEFBPOIIH": "",
        "IICFKKEBIEC": "",
        "EGEHEJEBLBJ": ""
      }
    ],
    [
      {
        "$type": "FJKIHHKJLMJ",
        "type": "CAMERA_MOVE",
        "duration": 1.0,
        "actionId": 258,
        "camPosOffset": {
          "x": 2228.655029296875,
          "y": -279.88299560546875,
          "z": 4246.8779296875
        },
        "camForwardTargetOffset": {
          "x": 2228.030029296875,
          "y": -280.29998779296875,
          "z": 4246.2177734375
        },
        "camFov": 40.0,
        "lerpPattern": 6,
        "cameraBlendType": "EaseInOutCubic",
        "NJBNNOMLKCK": {},
        "openCameraDither": false,
        "targetNpcAlias": "",
        "closeTreeLeafDither": true,
        "KJOEFBPOIIH": "",
        "IICFKKEBIEC": "",
        "EGEHEJEBLBJ": ""
      },
      {
        "$type": "PKKMAMONGEO",
        "type": "DIALOG",
        "aliasList": [
          "5302"
        ],
        "actionId": 162,
        "dialogID": 740071534,
        "protectTime": 0.5
      },
      {
        "$type": "FABLGECDBCH",
        "type": "BODY_LANG",
        "aliasList": [
          "5302"
        ],
        "actionId": 319,
        "isContinue": true,
        "forceDoFreeStyle": true,
        "canDoRepeatFreeStyle": false,
        "cantBackToIdleWhenSitLoop": true,
        "eventPatternSuiteKey": "",
        "FOHHKFAIAAJ": ""
      },
      {
        "$type": "FJKIHHKJLMJ",
        "type": "CAMERA_MOVE",
        "delayTime": 0.10000000149011612,
        "duration": 10.399999618530273,
        "actionId": 292,
        "camPosOffset": {
          "x": 2228.738037109375,
          "y": -280.3819885253906,
          "z": 4247.07177734375
        },
        "camForwardTargetOffset": {
          "x": 2228.10009765625,
          "y": -280.71600341796875,
          "z": 4246.3779296875
        },
        "camFov": 40.0,
        "NJBNNOMLKCK": {},
        "needZAxisRotate": true,
        "openCameraDither": false,
        "targetNpcAlias": "",
        "closeTreeLeafDither": true,
        "KJOEFBPOIIH": "",
        "IICFKKEBIEC": "",
        "EGEHEJEBLBJ": ""
      }
    ],
    [
      {
        "$type": "FJKIHHKJLMJ",
        "type": "CAMERA_MOVE",
        "duration": 1.0,
        "actionId": 259,
        "camPosOffset": {
          "x": 2225.85205078125,
          "y": -281.5299987792969,
          "z": 4243.15380859375
        },
        "camForwardTargetOffset": {
          "x": 2225.093017578125,
          "y": -281.68798828125,
          "z": 4242.52197265625
        },
        "camFov": 24.920000076293945,
        "lerpPattern": 6,
        "cameraBlendType": "EaseInOutCubic",
        "NJBNNOMLKCK": {},
        "needZAxisRotate": true,
        "openCameraDither": false,
        "targetNpcAlias": "",
        "closeTreeLeafDither": true,
        "KJOEFBPOIIH": "",
        "IICFKKEBIEC": "",
        "EGEHEJEBLBJ": ""
      },
      {
        "$type": "PKKMAMONGEO",
        "type": "DIALOG",
        "aliasList": [
          "5302"
        ],
        "actionId": 164,
        "dialogID": 740071535,
        "protectTime": 0.5
      },
      {
        "$type": "FABLGECDBCH",
        "type": "BODY_LANG",
        "aliasList": [
          "5302"
        ],
        "actionId": 313,
        "bodyLangParam": 1190,
        "forceDoFreeStyle": true,
        "canDoRepeatFreeStyle": false,
        "cantBackToIdleWhenSitLoop": true,
        "eventPatternSuiteKey": "",
        "FOHHKFAIAAJ": ""
      },
      {
        "$type": "FJKIHHKJLMJ",
        "type": "CAMERA_MOVE",
        "delayTime": 0.10000000149011612,
        "duration": 8.274999618530273,
        "actionId": 293,
        "camPosOffset": {
          "x": 2225.873046875,
          "y": -281.5270080566406,
          "z": 4243.1279296875
        },
        "camForwardTargetOffset": {
          "x": 2225.114013671875,
          "y": -281.6860046386719,
          "z": 4242.4970703125
        },
        "camFov": 24.920000076293945,
        "NJBNNOMLKCK": {},
        "needZAxisRotate": true,
        "openCameraDither": false,
        "targetNpcAlias": "",
        "closeTreeLeafDither": true,
        "KJOEFBPOIIH": "",
        "IICFKKEBIEC": "",
        "EGEHEJEBLBJ": ""
      }
    ],
    [
      {
        "$type": "PKKMAMONGEO",
        "type": "DIALOG",
        "aliasList": [
          "5302"
        ],
        "actionId": 166,
        "dialogID": 740071536,
        "protectTime": 0.5
      },
      {
        "$type": "FABLGECDBCH",
        "type": "BODY_LANG",
        "aliasList": [
          "5302"
        ],
        "actionId": 314,
        "isContinue": true,
        "forceDoFreeStyle": true,
        "canDoRepeatFreeStyle": false,
        "cantBackToIdleWhenSitLoop": true,
        "eventPatternSuiteKey": "",
        "FOHHKFAIAAJ": ""
      },
      {
        "$type": "HDGKHDNFMIM",
        "type": "DIALOG_SELECT",
        "delayTime": 0.4000000059604645,
        "aliasList": [
          "AvatarNpc"
        ],
        "actionId": 200,
        "dialogIDList": [
          740071537
        ],
        "grpIDList": [
          3949093470
        ],
        "useGrpId": true,
        "countDownGrpId": 3175431415
      }
    ],
    [
      {
        "$type": "FJKIHHKJLMJ",
        "type": "CAMERA_MOVE",
        "duration": 1.0,
        "actionId": 261,
        "camPosOffset": {
          "x": 2250.443115234375,
          "y": -284.9100036621094,
          "z": 4218.76416015625
        },
        "camForwardTargetOffset": {
          "x": 2249.681884765625,
          "y": -284.87799072265625,
          "z": 4219.412109375
        },
        "camFov": 24.920000076293945,
        "lerpPattern": 6,
        "cameraBlendType": "EaseInOutCubic",
        "NJBNNOMLKCK": {},
        "needZAxisRotate": true,
        "openCameraDither": false,
        "targetNpcAlias": "",
        "closeTreeLeafDither": true,
        "KJOEFBPOIIH": "",
        "IICFKKEBIEC": "",
        "EGEHEJEBLBJ": ""
      },
      {
        "$type": "PKKMAMONGEO",
        "type": "DIALOG",
        "aliasList": [
          "5302"
        ],
        "actionId": 169,
        "dialogID": 740071538,
        "protectTime": 0.5
      },
      {
        "$type": "FJKIHHKJLMJ",
        "type": "CAMERA_MOVE",
        "delayTime": 0.10000000149011612,
        "duration": 15.286999702453613,
        "actionId": 295,
        "camPosOffset": {
          "x": 2251.02392578125,
          "y": -284.8940124511719,
          "z": 4219.44580078125
        },
        "camForwardTargetOffset": {
          "x": 2250.262939453125,
          "y": -284.86199951171875,
          "z": 4220.09423828125
        },
        "camFov": 24.920000076293945,
        "NJBNNOMLKCK": {},
        "needZAxisRotate": true,
        "openCameraDither": false,
        "targetNpcAlias": "",
        "closeTreeLeafDither": true,
        "KJOEFBPOIIH": "",
        "IICFKKEBIEC": "",
        "EGEHEJEBLBJ": ""
      }
    ],
    [
      {
        "$type": "FJKIHHKJLMJ",
        "type": "CAMERA_MOVE",
        "duration": 1.0,
        "actionId": 262,
        "camPosOffset": {
          "x": 2226.987060546875,
          "y": -280.4259948730469,
          "z": 4246.01513671875
        },
        "camForwardTargetOffset": {
          "x": 2226.498046875,
          "y": -280.864013671875,
          "z": 4245.26123046875
        },
        "camFov": 40.0,
        "lerpPattern": 6,
        "cameraBlendType": "EaseInOutCubic",
        "NJBNNOMLKCK": {},
        "openCameraDither": false,
        "targetNpcAlias": "",
        "closeTreeLeafDither": true,
        "KJOEFBPOIIH": "",
        "IICFKKEBIEC": "",
        "EGEHEJEBLBJ": ""
      },
      {
        "$type": "PKKMAMONGEO",
        "type": "DIALOG",
        "aliasList": [
          "5302"
        ],
        "actionId": 171,
        "dialogID": 740071539,
        "protectTime": 0.5
      },
      {
        "$type": "FJKIHHKJLMJ",
        "type": "CAMERA_MOVE",
        "delayTime": 0.10000000149011612,
        "duration": 9.399999618530273,
        "actionId": 296,
        "camPosOffset": {
          "x": 2226.8330078125,
          "y": -280.4259948730469,
          "z": 4246.123046875
        },
        "camForwardTargetOffset": {
          "x": 2226.389892578125,
          "y": -280.864013671875,
          "z": 4245.33984375
        },
        "camFov": 40.0,
        "NJBNNOMLKCK": {},
        "needZAxisRotate": true,
        "rotateAngle": 358.4729919433594,
        "openCameraDither": false,
        "targetNpcAlias": "",
        "closeTreeLeafDither": true,
        "KJOEFBPOIIH": "",
        "IICFKKEBIEC": "",
        "EGEHEJEBLBJ": ""
      }
    ],
    [
      {
        "$type": "FJKIHHKJLMJ",
        "type": "CAMERA_MOVE",
        "duration": 1.0,
        "actionId": 263,
        "camPosOffset": {
          "x": 2225.10107421875,
          "y": -281.5769958496094,
          "z": 4243.240234375
        },
        "camForwardTargetOffset": {
          "x": 2224.777099609375,
          "y": -281.739990234375,
          "z": 4242.30908203125
        },
        "camFov": 25.0,
        "lerpPattern": 6,
        "cameraBlendType": "EaseInOutCubic",
        "NJBNNOMLKCK": {},
        "needZAxisRotate": true,
        "openCameraDither": false,
        "targetNpcAlias": "",
        "closeTreeLeafDither": true,
        "KJOEFBPOIIH": "",
        "IICFKKEBIEC": "",
        "EGEHEJEBLBJ": ""
      },
      {
        "$type": "PKKMAMONGEO",
        "type": "DIALOG",
        "aliasList": [
          "5302"
        ],
        "actionId": 173,
        "dialogID": 740071540,
        "protectTime": 0.5
      },
      {
        "$type": "FJKIHHKJLMJ",
        "type": "CAMERA_MOVE",
        "delayTime": 0.10000000149011612,
        "duration": 6.650000095367432,
        "actionId": 297,
        "camPosOffset": {
          "x": 2225.14990234375,
          "y": -281.57598876953125,
          "z": 4243.22314453125
        },
        "camForwardTargetOffset": {
          "x": 2224.825927734375,
          "y": -281.739013671875,
          "z": 4242.291015625
        },
        "camFov": 25.0,
        "NJBNNOMLKCK": {},
        "needZAxisRotate": true,
        "openCameraDither": false,
        "targetNpcAlias": "",
        "closeTreeLeafDither": true,
        "KJOEFBPOIIH": "",
        "IICFKKEBIEC": "",
        "EGEHEJEBLBJ": ""
      }
    ],
    [
      {
        "$type": "FJKIHHKJLMJ",
        "type": "CAMERA_MOVE",
        "duration": 1.0,
        "actionId": 264,
        "camPosOffset": {
          "x": 2225.531982421875,
          "y": -281.302001953125,
          "z": 4240.22998046875
        },
        "camForwardTargetOffset": {
          "x": 2225.31689453125,
          "y": -281.5069885253906,
          "z": 4241.18505859375
        },
        "camFov": 20.010000228881836,
        "lerpPattern": 6,
        "cameraBlendType": "EaseInOutCubic",
        "NJBNNOMLKCK": {},
        "needZAxisRotate": true,
        "openCameraDither": false,
        "targetNpcAlias": "",
        "closeTreeLeafDither": true,
        "KJOEFBPOIIH": "",
        "IICFKKEBIEC": "",
        "EGEHEJEBLBJ": ""
      },
      {
        "$type": "PKKMAMONGEO",
        "type": "DIALOG",
        "aliasList": [
          "5302"
        ],
        "actionId": 175,
        "dialogID": 740071541,
        "protectTime": 0.5
      },
      {
        "$type": "FABLGECDBCH",
        "type": "BODY_LANG",
        "aliasList": [
          "5302"
        ],
        "actionId": 346,
        "isContinue": true,
        "forceDoFreeStyle": true,
        "canDoRepeatFreeStyle": false,
        "cantBackToIdleWhenSitLoop": true,
        "eventPatternSuiteKey": "",
        "FOHHKFAIAAJ": ""
      },
      {
        "$type": "FJKIHHKJLMJ",
        "type": "CAMERA_MOVE",
        "delayTime": 0.10000000149011612,
        "duration": 6.150000095367432,
        "actionId": 298,
        "camPosOffset": {
          "x": 2225.636962890625,
          "y": -281.3160095214844,
          "z": 4240.2529296875
        },
        "camForwardTargetOffset": {
          "x": 2225.3759765625,
          "y": -281.5150146484375,
          "z": 4241.1982421875
        },
        "camFov": 20.010000228881836,
        "NJBNNOMLKCK": {},
        "needZAxisRotate": true,
        "openCameraDither": false,
        "targetNpcAlias": "",
        "closeTreeLeafDither": true,
        "KJOEFBPOIIH": "",
        "IICFKKEBIEC": "",
        "EGEHEJEBLBJ": ""
      }
    ],
    [
      {
        "$type": "FJKIHHKJLMJ",
        "type": "CAMERA_MOVE",
        "duration": 1.0,
        "actionId": 265,
        "camPosOffset": {
          "x": 2225.508056640625,
          "y": -280.34600830078125,
          "z": 4243.44677734375
        },
        "camForwardTargetOffset": {
          "x": 2225.14892578125,
          "y": -281.08099365234375,
          "z": 4242.87109375
        },
        "camFov": 21.17799949645996,
        "lerpPattern": 6,
        "cameraBlendType": "EaseInOutCubic",
        "NJBNNOMLKCK": {},
        "needZAxisRotate": true,
        "openCameraDither": false,
        "targetNpcAlias": "",
        "closeTreeLeafDither": true,
        "KJOEFBPOIIH": "",
        "IICFKKEBIEC": "",
        "EGEHEJEBLBJ": ""
      },
      {
        "$type": "PKKMAMONGEO",
        "type": "DIALOG",
        "aliasList": [
          "5302"
        ],
        "actionId": 177,
        "dialogID": 740071542,
        "protectTime": 0.5
      },
      {
        "$type": "FABLGECDBCH",
        "type": "BODY_LANG",
        "aliasList": [
          "5302"
        ],
        "actionId": 315,
        "bodyLangParam": 1160,
        "forceDoFreeStyle": true,
        "canDoRepeatFreeStyle": false,
        "cantBackToIdleWhenSitLoop": true,
        "eventPatternSuiteKey": "",
        "FOHHKFAIAAJ": ""
      },
      {
        "$type": "FJKIHHKJLMJ",
        "type": "CAMERA_MOVE",
        "delayTime": 0.10000000149011612,
        "duration": 10.399999618530273,
        "actionId": 299,
        "camPosOffset": {
          "x": 2225.43896484375,
          "y": -280.5320129394531,
          "z": 4243.451171875
        },
        "camForwardTargetOffset": {
          "x": 2225.0810546875,
          "y": -281.2669982910156,
          "z": 4242.875
        },
        "camFov": 21.17799949645996,
        "NJBNNOMLKCK": {},
        "needZAxisRotate": true,
        "openCameraDither": false,
        "targetNpcAlias": "",
        "closeTreeLeafDither": true,
        "KJOEFBPOIIH": "",
        "IICFKKEBIEC": "",
        "EGEHEJEBLBJ": ""
      }
    ],
    [
      {
        "$type": "FJKIHHKJLMJ",
        "type": "CAMERA_MOVE",
        "duration": 1.0,
        "actionId": 266,
        "camPosOffset": {
          "x": 2232.764892578125,
          "y": -282.6300048828125,
          "z": 4249.958984375
        },
        "camForwardTargetOffset": {
          "x": 2232.010986328125,
          "y": -282.61199951171875,
          "z": 4249.3017578125
        },
        "camFov": 40.0,
        "lerpPattern": 6,
        "cameraBlendType": "EaseInOutCubic",
        "NJBNNOMLKCK": {},
        "needZAxisRotate": true,
        "openCameraDither": false,
        "targetNpcAlias": "",
        "closeTreeLeafDither": true,
        "KJOEFBPOIIH": "",
        "IICFKKEBIEC": "",
        "EGEHEJEBLBJ": ""
      },
      {
        "$type": "PKKMAMONGEO",
        "type": "DIALOG",
        "aliasList": [
          "5302"
        ],
        "actionId": 179,
        "dialogID": 740071543,
        "protectTime": 0.5
      },
      {
        "$type": "FABLGECDBCH",
        "type": "BODY_LANG",
        "aliasList": [
          "5302"
        ],
        "actionId": 316,
        "isContinue": true,
        "forceDoFreeStyle": true,
        "canDoRepeatFreeStyle": false,
        "cantBackToIdleWhenSitLoop": true,
        "eventPatternSuiteKey": "",
        "FOHHKFAIAAJ": ""
      },
      {
        "$type": "FJKIHHKJLMJ",
        "type": "CAMERA_MOVE",
        "delayTime": 0.10000000149011612,
        "duration": 8.024999618530273,
        "actionId": 300,
        "camPosOffset": {
          "x": 2233.181884765625,
          "y": -282.66400146484375,
          "z": 4249.451171875
        },
        "camForwardTargetOffset": {
          "x": 2232.39208984375,
          "y": -282.64300537109375,
          "z": 4248.837890625
        },
        "camFov": 40.0,
        "NJBNNOMLKCK": {},
        "needZAxisRotate": true,
        "openCameraDither": false,
        "targetNpcAlias": "",
        "closeTreeLeafDither": true,
        "KJOEFBPOIIH": "",
        "IICFKKEBIEC": "",
        "EGEHEJEBLBJ": ""
      }
    ],
    [
      {
        "$type": "FJKIHHKJLMJ",
        "type": "CAMERA_MOVE",
        "duration": 1.0,
        "actionId": 267,
        "camPosOffset": {
          "x": 2225.97607421875,
          "y": -281.7460021972656,
          "z": 4243.30810546875
        },
        "camForwardTargetOffset": {
          "x": 2225.22412109375,
          "y": -281.7460021972656,
          "z": 4242.64794921875
        },
        "camFov": 21.979000091552734,
        "lerpPattern": 6,
        "cameraBlendType": "EaseInOutCubic",
        "NJBNNOMLKCK": {},
        "openCameraDither": false,
        "targetNpcAlias": "",
        "closeTreeLeafDither": true,
        "KJOEFBPOIIH": "",
        "IICFKKEBIEC": "",
        "EGEHEJEBLBJ": ""
      },
      {
        "$type": "PKKMAMONGEO",
        "type": "DIALOG",
        "aliasList": [
          "5302"
        ],
        "actionId": 181,
        "dialogID": 740071544,
        "protectTime": 0.5
      },
      {
        "$type": "FABLGECDBCH",
        "type": "BODY_LANG",
        "aliasList": [
          "5302"
        ],
        "actionId": 317,
        "bodyLangParam": 1171,
        "forceDoFreeStyle": true,
        "canDoRepeatFreeStyle": false,
        "cantBackToIdleWhenSitLoop": true,
        "eventPatternSuiteKey": "",
        "FOHHKFAIAAJ": ""
      },
      {
        "$type": "FJKIHHKJLMJ",
        "type": "CAMERA_MOVE",
        "delayTime": 0.10000000149011612,
        "duration": 10.774999618530273,
        "actionId": 301,
        "camPosOffset": {
          "x": 2226.0029296875,
          "y": -281.7430114746094,
          "z": 4243.27490234375
        },
        "camForwardTargetOffset": {
          "x": 2225.2509765625,
          "y": -281.7430114746094,
          "z": 4242.6162109375
        },
        "camFov": 21.979000091552734,
        "NJBNNOMLKCK": {},
        "openCameraDither": false,
        "targetNpcAlias": "",
        "closeTreeLeafDither": true,
        "KJOEFBPOIIH": "",
        "IICFKKEBIEC": "",
        "EGEHEJEBLBJ": ""
      },
      {
        "$type": "HDGKHDNFMIM",
        "type": "DIALOG_SELECT",
        "delayTime": 0.4000000059604645,
        "aliasList": [
          "AvatarNpc"
        ],
        "actionId": 201,
        "dialogIDList": [
          740071545
        ],
        "grpIDList": [
          3949093498
        ],
        "useGrpId": true,
        "countDownGrpId": 3175431415
      }
    ],
    [
      {
        "$type": "LJLMDHDCAMK",
        "type": "LOOK_AT",
        "aliasList": [
          "Avatar"
        ],
        "actionId": 231,
        "_flag": 64,
        "enableHead": true,
        "headTurnTime": 0.5,
        "targetNpcAlias": "AvatarNpc",
        "openBackProtect": true,
        "backProtectAngle": 60.0,
        "targetNpcLookAtPoint": "",
        "OAFJBHJHLJG": ""
      },
      {
        "$type": "MoleMole.Config.ConfigTimeProtectAction",
        "type": "TIME_PROTECT",
        "duration": 0.5,
        "aliasList": [
          "AvatarNpc"
        ],
        "actionId": 352
      },
      {
        "$type": "LJLMDHDCAMK",
        "type": "LOOK_AT",
        "aliasList": [
          "5302"
        ],
        "actionId": 232,
        "_flag": 64,
        "enableHead": true,
        "headTurnTime": 0.5,
        "targetNpcAlias": "AvatarNpc",
        "openBackProtect": true,
        "backProtectAngle": 60.0,
        "targetNpcLookAtPoint": "",
        "OAFJBHJHLJG": ""
      },
      {
        "$type": "FABLGECDBCH",
        "type": "BODY_LANG",
        "aliasList": [
          "5302"
        ],
        "actionId": 318,
        "isContinue": true,
        "forceDoFreeStyle": true,
        "canDoRepeatFreeStyle": false,
        "cantBackToIdleWhenSitLoop": true,
        "eventPatternSuiteKey": "",
        "FOHHKFAIAAJ": ""
      },
      {
        "$type": "HDGKHDNFMIM",
        "type": "DIALOG_SELECT",
        "delayTime": 0.4000000059604645,
        "aliasList": [
          "AvatarNpc"
        ],
        "actionId": 202,
        "dialogIDList": [
          740071546,
          740071547
        ],
        "grpIDList": [
          3949093499,
          3949093499
        ],
        "useGrpId": true,
        "countDownGrpId": 3175431415
      }
    ],
    [
      {
        "$type": "FJKIHHKJLMJ",
        "type": "CAMERA_MOVE",
        "duration": 1.0,
        "actionId": 268,
        "camPosOffset": {
          "x": 2228.048095703125,
          "y": -280.4519958496094,
          "z": 4246.06298828125
        },
        "camForwardTargetOffset": {
          "x": 2227.3349609375,
          "y": -280.8280029296875,
          "z": 4245.47119140625
        },
        "camFov": 40.0,
        "lerpPattern": 6,
        "cameraBlendType": "EaseInOutCubic",
        "NJBNNOMLKCK": {},
        "needZAxisRotate": true,
        "openCameraDither": false,
        "targetNpcAlias": "",
        "closeTreeLeafDither": true,
        "KJOEFBPOIIH": "",
        "IICFKKEBIEC": "",
        "EGEHEJEBLBJ": ""
      },
      {
        "$type": "LJLMDHDCAMK",
        "type": "LOOK_AT",
        "aliasList": [
          "Avatar"
        ],
        "actionId": 233,
        "_flag": 64,
        "enableHead": true,
        "headTurnTime": 0.5,
        "targetNpcAlias": "5302",
        "openBackProtect": true,
        "backProtectAngle": 60.0,
        "targetNpcLookAtPoint": "",
        "OAFJBHJHLJG": ""
      },
      {
        "$type": "LJLMDHDCAMK",
        "type": "LOOK_AT",
        "aliasList": [
          "AvatarNpc"
        ],
        "actionId": 234,
        "_flag": 64,
        "enableHead": true,
        "headTurnTime": 0.5,
        "targetNpcAlias": "5302",
        "openBackProtect": true,
        "backProtectAngle": 60.0,
        "targetNpcLookAtPoint": "",
        "OAFJBHJHLJG": ""
      },
      {
        "$type": "PKKMAMONGEO",
        "type": "DIALOG",
        "aliasList": [
          "5302"
        ],
        "actionId": 186,
        "dialogID": 740071548,
        "protectTime": 0.5
      },
      {
        "$type": "FJKIHHKJLMJ",
        "type": "CAMERA_MOVE",
        "delayTime": 0.10000000149011612,
        "duration": 11.609000205993652,
        "actionId": 302,
        "camPosOffset": {
          "x": 2228.300048828125,
          "y": -280.32501220703125,
          "z": 4246.4638671875
        },
        "camForwardTargetOffset": {
          "x": 2227.60693359375,
          "y": -280.70001220703125,
          "z": 4245.84814453125
        },
        "camFov": 40.0,
        "NJBNNOMLKCK": {},
        "needZAxisRotate": true,
        "openCameraDither": false,
        "targetNpcAlias": "",
        "closeTreeLeafDither": true,
        "KJOEFBPOIIH": "",
        "IICFKKEBIEC": "",
        "EGEHEJEBLBJ": ""
      }
    ],
    [
      {
        "$type": "MoleMole.Config.ConfigTimeProtectAction",
        "type": "TIME_PROTECT",
        "duration": 0.10000000149011612,
        "actionId": 105
      },
      {
        "$type": "FABLGECDBCH",
        "type": "BODY_LANG",
        "delayTime": 0.6000000238418579,
        "aliasList": [
          "5302"
        ],
        "actionId": 188,
        "isContinue": true,
        "forceDoFreeStyle": true,
        "canDoRepeatFreeStyle": false,
        "eventPatternSuiteKey": "",
        "FOHHKFAIAAJ": ""
      }
    ]
  ],
  "groupId": [
    {
      "grpId": 3175431416,
      "nextGrpId": 3175431417
    },
    {
      "index": 1,
      "grpId": 3175431417,
      "nextGrpId": 3175431418
    },
    {
      "index": 2,
      "grpId": 3175431418,
      "nextGrpId": 3175431419
    },
    {
      "index": 3,
      "grpId": 3175431419,
      "nextGrpId": 3175431420
    },
    {
      "index": 4,
      "grpId": 3175431420,
      "nextGrpId": 3175431421
    },
    {
      "index": 5,
      "grpId": 3175431421,
      "nextGrpId": 3175431422
    },
    {
      "index": 6,
      "grpId": 3175431422,
      "nextGrpId": 3175431423
    },
    {
      "index": 7,
      "grpId": 3175431423,
      "nextGrpId": 3175431424
    },
    {
      "index": 8,
      "grpId": 3175431424,
      "nextGrpId": 3949093432
    },
    {
      "index": 9,
      "grpId": 3949093432,
      "nextGrpId": 3949093433
    },
    {
      "index": 10,
      "grpId": 3949093433,
      "nextGrpId": 3949093434
    },
    {
      "index": 11,
      "grpId": 3949093434,
      "nextGrpId": 3949093435
    },
    {
      "index": 12,
      "grpId": 3949093435,
      "nextGrpId": 3949093436
    },
    {
      "index": 13,
      "grpId": 3949093436,
      "nextGrpId": 3949093437
    },
    {
      "index": 14,
      "grpId": 3949093437,
      "nextGrpId": 3949093438
    },
    {
      "index": 15,
      "grpId": 3949093438,
      "nextGrpId": 3949093439
    },
    {
      "index": 16,
      "grpId": 3949093439,
      "nextGrpId": 3949093440
    },
    {
      "index": 17,
      "grpId": 3949093440,
      "nextGrpId": 3949093441
    },
    {
      "index": 18,
      "grpId": 3949093441,
      "nextGrpId": 3949093463
    },
    {
      "index": 19,
      "grpId": 3949093463,
      "nextGrpId": 3949093464
    },
    {
      "index": 20,
      "grpId": 3949093464,
      "nextGrpId": 3949093465
    },
    {
      "index": 21,
      "grpId": 3949093465,
      "nextGrpId": 3949093466
    },
    {
      "index": 22,
      "grpId": 3949093466,
      "nextGrpId": 3949093467
    },
    {
      "index": 23,
      "grpId": 3949093467,
      "nextGrpId": 3949093468
    },
    {
      "index": 24,
      "grpId": 3949093468,
      "nextGrpId": 3949093469
    },
    {
      "index": 25,
      "grpId": 3949093469,
      "nextGrpId": 3949093470
    },
    {
      "index": 26,
      "grpId": 3949093470,
      "nextGrpId": 3949093471
    },
    {
      "index": 27,
      "grpId": 3949093471,
      "nextGrpId": 3949093472
    },
    {
      "index": 28,
      "grpId": 3949093472,
      "nextGrpId": 3949093494
    },
    {
      "index": 29,
      "grpId": 3949093494,
      "nextGrpId": 3949093495
    },
    {
      "index": 30,
      "grpId": 3949093495,
      "nextGrpId": 3949093496
    },
    {
      "index": 31,
      "grpId": 3949093496,
      "nextGrpId": 3949093497
    },
    {
      "index": 32,
      "grpId": 3949093497,
      "nextGrpId": 3949093498
    },
    {
      "index": 33,
      "grpId": 3949093498,
      "nextGrpId": 3949093499
    },
    {
      "index": 34,
      "grpId": 3949093499,
      "nextGrpId": 3949093500
    },
    {
      "index": 35,
      "grpId": 3949093500,
      "nextGrpId": 3949093501
    }
  ],
  "freeStyleDic": {
    "1025": [],
    "1026": [],
    "5302": [
      1030,
      1171,
      1190,
      1172,
      1160
    ]
  }
}