{
  "luaDataPath": "",
  "entityBan": "",
  "group": [
    [
      {
        "$type": "MoleMole.Config.ConfigBlackScreenAction",
        "type": "BLACK_SCREEN",
        "duration": 0.5,
        "checkNextImmediately": true,
        "blackScreenType": "TO_BLACK",
        "durationToBlack": 0.10000000149011612,
        "inteePos": "",
        "textMapID": ""
      }
    ],
    [
      {
        "$type": "AFKFCCGJEAO",
        "type": "CUTSCENE",
        "cutsceneCfg": {
          "$type": "IPDHCHPBOFB",
          "damageRatio": "TIME_LINE_PREFAB",
          "forceCanSkip": true,
          "skipGeneralDialog": true,
          "clearBlackScreen": true,
          "luaDataPath": "",
          "resPath": "ART/Cutscene/Cs_201901_NvShiZhuan_Convert",
          "castListPath": "",
          "entityBan": "",
          "needYEuler": true,
          "clearAvatarLocalGadget": true,
          "fadeInDuration": 0.5,
          "fadeOutDuration": 0.5
        }
      }
    ]
  ]
}