{
  "luaDataPath": "",
  "entityBan": "",
  "group": [
    [
      {
        "$type": "NMLNIEIDNAK",
        "type": "CUTSCENE",
        "cutsceneCfg": {
          "$type": "DNFJOALKGNO",
          "damageRatio": "TIME_LINE_PREFAB",
          "forceCanSkip": true,
          "skipGeneralDialog": true,
          "clearBlackScreen": true,
          "directTransmit": true,
          "luaDataPath": "",
          "resPath": "ART/Cutscene/Cs_Fontaine_LQ140260401_Ar_Convert",
          "castListPath": "",
          "entityBan": "",
          "needYEuler": true,
          "clearAvatarLocalGadget": true,
          "disableGPUCulling": true,
          "clearMonsterLocalGadget": true,
          "closeFinishSpeedCheck": true,
          "fadeInDuration": 0.5,
          "fadeOutDuration": 0.5
        }
      }
    ]
  ]
}