{
  "luaDataPath": "",
  "entityBan": "",
  "group": [
    [
      {
        "$type": "AFKFCCGJEAO",
        "type": "CUTSCENE",
        "cutsceneCfg": {
          "$type": "IPDHCHPBOFB",
          "luaDataPath": "",
          "resPath": "",
          "castListPath": "",
          "entityBan": "",
          "needYEuler": true,
          "fadeInDuration": 1.0
        }
      }
    ]
  ]
}