{
  "luaDataPath": "",
  "entityBan": "",
  "group": [
    [
      {
        "$type": "AFKFCCGJEAO",
        "type": "CUTSCENE",
        "cutsceneCfg": {
          "$type": "IPDHCHPBOFB",
          "damageRatio": "TIME_LINE_PREFAB",
          "luaDataPath": "",
          "resPath": "ART/Cutscene/Cs_Sumeru_DeathArea",
          "castListPath": "",
          "entityBan": "",
          "startOffset": {
            "x": 6.400000095367432,
            "y": 13.649999618530273,
            "z": 4.78000020980835
          },
          "needYEuler": true,
          "fadeInDuration": 0.0
        }
      }
    ]
  ]
}