{
  "luaDataPath": "",
  "entityBan": "",
  "group": [
    [
      {
        "$type": "AFKFCCGJEAO",
        "type": "CUTSCENE",
        "cutsceneCfg": {
          "$type": "IPDHCHPBOFB",
          "damageRatio": "TIME_LINE_PREFAB",
          "luaDataPath": "",
          "resPath": "ART/Cutscene/Cs_Scene_Sumeru_GardenActiveFinished_10",
          "castListPath": "",
          "entityBan": "",
          "needYEuler": true,
          "fadeOutDuration": 1.5,
          "forceGC": false
        }
      }
    ]
  ]
}