{
  "luaDataPath": "",
  "entityBan": "",
  "group": [
    [
      {
        "$type": "AFKFCCGJEAO",
        "type": "CUTSCENE",
        "cutsceneCfg": {
          "$type": "IPDHCHPBOFB",
          "damageRatio": "TIME_LINE_PREFAB",
          "luaDataPath": "",
          "resPath": "ART/Cutscene/Cs_Scene_DungeonGate_01",
          "castListPath": "",
          "entityBan": "",
          "startPosType": "RELATIVE_TO_INTEE",
          "needYEuler": true,
          "fadeInDuration": 0.0,
          "forceGC": false
        }
      }
    ]
  ]
}