{
  "luaDataPath": "",
  "entityBan": "",
  "group": [
    [
      {
        "$type": "AFKFCCGJEAO",
        "type": "CUTSCENE",
        "cutsceneCfg": {
          "$type": "IPDHCHPBOFB",
          "damageRatio": "TIME_LINE_PREFAB",
          "luaDataPath": "",
          "resPath": "ART/Cutscene/Cs_Sumeru_WitherForest_WQ7303707_Die_Convert",
          "castListPath": "Cs_CastList_Q001xm",
          "entityBan": "",
          "needYEuler": true,
          "fadeInDuration": 0.0
        }
      }
    ]
  ]
}