{
  "luaDataPath": "",
  "entityBan": "",
  "group": [
    [
      {
        "$type": "AFKFCCGJEAO",
        "type": "CUTSCENE",
        "cutsceneCfg": {
          "$type": "IPDHCHPBOFB",
          "damageRatio": "TIME_LINE_PREFAB",
          "forceCanSkip": true,
          "skipGeneralDialog": true,
          "clearBlackScreen": true,
          "directTransmit": true,
          "luaDataPath": "",
          "resPath": "ART/Cutscene/Cs_Stage_Boss_Convert",
          "castListPath": "",
          "entityBan": "",
          "needYEuler": true,
          "disableGPUCulling": true,
          "closeFinishSpeedCheck": true,
          "fadeInDuration": 0.5
        }
      }
    ]
  ]
}