{
  "luaDataPath": "",
  "entityBan": "",
  "group": [
    [
      {
        "$type": "NMLNIEIDNAK",
        "type": "CUTSCENE",
        "cutsceneCfg": {
          "$type": "DNFJOALKGNO",
          "damageRatio": "TIME_LINE_PREFAB",
          "forceCanSkip": true,
          "skipGeneralDialog": true,
          "luaDataPath": "",
          "resPath": "ART/Cutscene/Cs_TowerV2_Stands_Down_Convert",
          "castListPath": "",
          "entityBan": "",
          "disableGPUCulling": true,
          "fadeInDuration": 0.5,
          "fadeOutDuration": 0.5
        }
      }
    ]
  ]
}