{
  "dataTHash": {
    "ART/Char/NPC/NPC_Crowd/NPC_Crowd_AniAsset/NPC_Crowd_Asset_BakedAni_262": "269027116",
    "ART/Char/NPC/NPC_Crowd/NPC_Crowd_AniAsset/NPC_Crowd_Asset_BakedAni_2029": "4227193724",
    "ART/Char/NPC/NPC_Crowd/NPC_Crowd_AniAsset/NPC_Crowd_Asset_BakedAni_2342": "3773802510",
    "ART/Char/NPC/NPC_Crowd/NPC_Crowd_AniAsset/NPC_Crowd_Asset_BakedAni_3851": "3532435668",
    "ART/Char/NPC/NPC_Crowd/NPC_Crowd_AniAsset/NPC_Crowd_Asset_BakedAni_5290": "406717897",
    "ART/Char/NPC/NPC_Crowd/NPC_Crowd_AniAsset/NPC_Crowd_Asset_BakedAni_5361": "3168300588",
    "ART/Char/NPC/NPC_Crowd/NPC_Crowd_AniAsset/NPC_Crowd_Asset_BakedAni_7285": "2252482891",
    "ART/Char/NPC/NPC_Crowd/NPC_Crowd_AniAsset/NPC_Crowd_Asset_BakedAni_10359": "1256640442",
    "ART/Char/NPC/NPC_Crowd/NPC_Crowd_AniAsset/NPC_Crowd_Asset_BakedAni_11356": "1654865526",
    "ART/Char/NPC/NPC_Crowd/NPC_Crowd_AniAsset/NPC_Crowd_Asset_BakedAni_14657": "116629848",
    "ART/Char/NPC/NPC_Crowd/NPC_Crowd_AniAsset/NPC_Crowd_Asset_BakedAni_15556": "771258353",
    "ART/Char/NPC/NPC_Crowd/NPC_Crowd_AniAsset/NPC_Crowd_Asset_BakedAni_16911": "1057446109",
    "ART/Char/NPC/NPC_Crowd/NPC_Crowd_AniAsset/NPC_Crowd_Asset_BakedAni_17346": "2221165101",
    "ART/Char/NPC/NPC_Crowd/NPC_Crowd_AniAsset/NPC_Crowd_Asset_BakedAni_19198": "3845304620",
    "ART/Char/NPC/NPC_Crowd/NPC_Crowd_AniAsset/NPC_Crowd_Asset_BakedAni_22212": "2633914364",
    "ART/Char/NPC/NPC_Crowd/NPC_Crowd_AniAsset/NPC_Crowd_Asset_BakedAni_22782": "4184785388",
    "ART/Char/NPC/NPC_Crowd/NPC_Crowd_AniAsset/NPC_Crowd_Asset_BakedAni_23107": "2218087376",
    "ART/Char/NPC/NPC_Crowd/NPC_Crowd_AniAsset/NPC_Crowd_Asset_BakedAni_23178": "3168300588",
    "ART/Char/NPC/NPC_Crowd/NPC_Crowd_AniAsset/NPC_Crowd_Asset_BakedAni_23979": "1834381044",
    "ART/Char/NPC/NPC_Crowd/NPC_Crowd_AniAsset/NPC_Crowd_Asset_BakedAni_26361": "1240091281",
    "ART/Char/NPC/NPC_Crowd/NPC_Crowd_AniAsset/NPC_Crowd_Asset_BakedAni_28010": "3175852489",
    "ART/Char/NPC/NPC_Crowd/NPC_Crowd_AniAsset/NPC_Crowd_Asset_BakedAni_30692": "993619037",
    "ART/Char/NPC/NPC_Crowd/NPC_Crowd_AniAsset/NPC_Crowd_Asset_BakedAni_33632": "3731453262",
    "ART/Char/NPC/NPC_Crowd/NPC_Crowd_AniAsset/NPC_Crowd_Asset_BakedAni_36038": "1979030699",
    "ART/Char/NPC/NPC_Crowd/NPC_Crowd_AniAsset/NPC_Crowd_Asset_BakedAni_36790": "2246703531",
    "ART/Char/NPC/NPC_Crowd/NPC_Crowd_AniAsset/NPC_Crowd_Asset_BakedAni_37093": "227951112",
    "ART/Char/NPC/NPC_Crowd/NPC_Crowd_AniAsset/NPC_Crowd_Asset_BakedAni_37396": "3571621117",
    "ART/Char/NPC/NPC_Crowd/NPC_Crowd_AniAsset/NPC_Crowd_Asset_BakedAni_41892": "1057446109",
    "ART/Char/NPC/NPC_Crowd/NPC_Crowd_AniAsset/NPC_Crowd_Asset_BakedAni_43814": "2376917036",
    "ART/Char/NPC/NPC_Crowd/NPC_Crowd_AniAsset/NPC_Crowd_Asset_BakedAni_44187": "301217826",
    "ART/Char/NPC/NPC_Crowd/NPC_Crowd_AniAsset/NPC_Crowd_Asset_BakedAni_44831": "1698364041",
    "ART/Char/NPC/NPC_Crowd/NPC_Crowd_AniAsset/NPC_Crowd_Asset_BakedAni_45654": "1173076350",
    "ART/Char/NPC/NPC_Crowd/NPC_Crowd_AniAsset/NPC_Crowd_Asset_BakedAni_46250": "406717897",
    "ART/Char/NPC/NPC_Crowd/NPC_Crowd_AniAsset/NPC_Crowd_Asset_BakedAni_46662": "2246703531",
    "ART/Char/NPC/NPC_Crowd/NPC_Crowd_AniAsset/NPC_Crowd_Asset_BakedAni_48621": "2712975832",
    "ART/Char/NPC/NPC_Crowd/NPC_Crowd_AniAsset/NPC_Crowd_Asset_BakedAni_48865": "1846683527",
    "ART/Char/NPC/NPC_Crowd/NPC_Crowd_AniAsset/NPC_Crowd_Asset_BakedAni_49253": "2246703531",
    "ART/Char/NPC/NPC_Crowd/NPC_Crowd_AniAsset/NPC_Crowd_Asset_BakedAni_49359": "2888079724",
    "ART/Char/NPC/NPC_Crowd/NPC_Crowd_AniAsset/NPC_Crowd_Asset_BakedAni_50901": "75729053",
    "ART/Char/NPC/NPC_Crowd/NPC_Crowd_AniAsset/NPC_Crowd_Asset_BakedAni_51354": "653502692",
    "ART/Char/NPC/NPC_Crowd/NPC_Crowd_AniAsset/NPC_Crowd_Asset_BakedAni_52321": "1256640442",
    "ART/Char/NPC/NPC_Crowd/NPC_Crowd_AniAsset/NPC_Crowd_Asset_BakedAni_52503": "140007130",
    "ART/Char/NPC/NPC_Crowd/NPC_Crowd_AniAsset/NPC_Crowd_Asset_BakedAni_52820": "2829030063",
    "ART/Char/NPC/NPC_Crowd/NPC_Crowd_AniAsset/NPC_Crowd_Asset_BakedAni_53378": "140007130",
    "ART/Char/NPC/NPC_Crowd/NPC_Crowd_AniAsset/NPC_Crowd_Asset_BakedAni_56288": "2379336571",
    "ART/Char/NPC/NPC_Crowd/NPC_Crowd_AniAsset/NPC_Crowd_Asset_BakedAni_57093": "3953483872",
    "ART/Char/NPC/NPC_Crowd/NPC_Crowd_AniAsset/NPC_Crowd_Asset_BakedAni_57597": "2468848341",
    "ART/Char/NPC/NPC_Crowd/NPC_Crowd_AniAsset/NPC_Crowd_Asset_BakedAni_57623": "3963581534",
    "ART/Char/NPC/NPC_Crowd/NPC_Crowd_AniAsset/NPC_Crowd_Asset_BakedAni_58043": "4041336862",
    "ART/Char/NPC/NPC_Crowd/NPC_Crowd_AniAsset/NPC_Crowd_Asset_BakedAni_62173": "2456033763",
    "ART/Char/NPC/NPC_Crowd/NPC_Crowd_AniAsset/NPC_Crowd_Asset_BakedAni_63824": "2995140925",
    "ART/Char/NPC/NPC_Crowd/NPC_Crowd_AniAsset/NPC_Crowd_Asset_BakedAni_64676": "420376114",
    "ART/Char/NPC/NPC_AranaraCrowd/NPC_AranaraCrowd_AniAsset/NPC_AranaraCrowd_Asset_BakedAni_2726": "81840029",
    "ART/Char/NPC/NPC_AranaraCrowd/NPC_AranaraCrowd_AniAsset/NPC_AranaraCrowd_Asset_BakedAni_3439": "4156525764",
    "ART/Char/NPC/NPC_AranaraCrowd/NPC_AranaraCrowd_AniAsset/NPC_AranaraCrowd_Asset_BakedAni_3682": "3726020151",
    "ART/Char/NPC/NPC_AranaraCrowd/NPC_AranaraCrowd_AniAsset/NPC_AranaraCrowd_Asset_BakedAni_5989": "29864152",
    "ART/Char/NPC/NPC_AranaraCrowd/NPC_AranaraCrowd_AniAsset/NPC_AranaraCrowd_Asset_BakedAni_8284": "4028609981",
    "ART/Char/NPC/NPC_AranaraCrowd/NPC_AranaraCrowd_AniAsset/NPC_AranaraCrowd_Asset_BakedAni_8343": "3891988002",
    "ART/Char/NPC/NPC_AranaraCrowd/NPC_AranaraCrowd_AniAsset/NPC_AranaraCrowd_Asset_BakedAni_8895": "1513135361",
    "ART/Char/NPC/NPC_AranaraCrowd/NPC_AranaraCrowd_AniAsset/NPC_AranaraCrowd_Asset_BakedAni_17660": "3070447687",
    "ART/Char/NPC/NPC_AranaraCrowd/NPC_AranaraCrowd_AniAsset/NPC_AranaraCrowd_Asset_BakedAni_17871": "2792448570",
    "ART/Char/NPC/NPC_AranaraCrowd/NPC_AranaraCrowd_AniAsset/NPC_AranaraCrowd_Asset_BakedAni_19911": "2258549527",
    "ART/Char/NPC/NPC_AranaraCrowd/NPC_AranaraCrowd_AniAsset/NPC_AranaraCrowd_Asset_BakedAni_19976": "1980511457",
    "ART/Char/NPC/NPC_AranaraCrowd/NPC_AranaraCrowd_AniAsset/NPC_AranaraCrowd_Asset_BakedAni_20489": "3070874922",
    "ART/Char/NPC/NPC_AranaraCrowd/NPC_AranaraCrowd_AniAsset/NPC_AranaraCrowd_Asset_BakedAni_23518": "635478778",
    "ART/Char/NPC/NPC_AranaraCrowd/NPC_AranaraCrowd_AniAsset/NPC_AranaraCrowd_Asset_BakedAni_26089": "122908897",
    "ART/Char/NPC/NPC_AranaraCrowd/NPC_AranaraCrowd_AniAsset/NPC_AranaraCrowd_Asset_BakedAni_27818": "3085534504",
    "ART/Char/NPC/NPC_AranaraCrowd/NPC_AranaraCrowd_AniAsset/NPC_AranaraCrowd_Asset_BakedAni_28289": "2792448570",
    "ART/Char/NPC/NPC_AranaraCrowd/NPC_AranaraCrowd_AniAsset/NPC_AranaraCrowd_Asset_BakedAni_29834": "1513135361",
    "ART/Char/NPC/NPC_AranaraCrowd/NPC_AranaraCrowd_AniAsset/NPC_AranaraCrowd_Asset_BakedAni_30675": "1848694704",
    "ART/Char/NPC/NPC_AranaraCrowd/NPC_AranaraCrowd_AniAsset/NPC_AranaraCrowd_Asset_BakedAni_31603": "2258549527",
    "ART/Char/NPC/NPC_AranaraCrowd/NPC_AranaraCrowd_AniAsset/NPC_AranaraCrowd_Asset_BakedAni_32162": "2192821625",
    "ART/Char/NPC/NPC_AranaraCrowd/NPC_AranaraCrowd_AniAsset/NPC_AranaraCrowd_Asset_BakedAni_34863": "1229309234",
    "ART/Char/NPC/NPC_AranaraCrowd/NPC_AranaraCrowd_AniAsset/NPC_AranaraCrowd_Asset_BakedAni_37171": "3670838923",
    "ART/Char/NPC/NPC_AranaraCrowd/NPC_AranaraCrowd_AniAsset/NPC_AranaraCrowd_Asset_BakedAni_38248": "4280685606",
    "ART/Char/NPC/NPC_AranaraCrowd/NPC_AranaraCrowd_AniAsset/NPC_AranaraCrowd_Asset_BakedAni_43269": "391521858",
    "ART/Char/NPC/NPC_AranaraCrowd/NPC_AranaraCrowd_AniAsset/NPC_AranaraCrowd_Asset_BakedAni_46406": "4028609981",
    "ART/Char/NPC/NPC_AranaraCrowd/NPC_AranaraCrowd_AniAsset/NPC_AranaraCrowd_Asset_BakedAni_47533": "2798158016",
    "ART/Char/NPC/NPC_AranaraCrowd/NPC_AranaraCrowd_AniAsset/NPC_AranaraCrowd_Asset_BakedAni_48994": "2596427981",
    "ART/Char/NPC/NPC_AranaraCrowd/NPC_AranaraCrowd_AniAsset/NPC_AranaraCrowd_Asset_BakedAni_55943": "1695257800",
    "ART/Char/NPC/NPC_AranaraCrowd/NPC_AranaraCrowd_AniAsset/NPC_AranaraCrowd_Asset_BakedAni_56136": "2596427981",
    "ART/Char/NPC/NPC_AranaraCrowd/NPC_AranaraCrowd_AniAsset/NPC_AranaraCrowd_Asset_BakedAni_56242": "4160713084",
    "ART/Char/NPC/NPC_AranaraCrowd/NPC_AranaraCrowd_AniAsset/NPC_AranaraCrowd_Asset_BakedAni_57598": "2192821625",
    "ART/Char/NPC/NPC_AranaraCrowd/NPC_AranaraCrowd_AniAsset/NPC_AranaraCrowd_Asset_BakedAni_58628": "2798158016",
    "ART/Char/NPC/NPC_AranaraCrowd/NPC_AranaraCrowd_AniAsset/NPC_AranaraCrowd_Asset_BakedAni_58677": "122908897",
    "ART/Char/NPC/NPC_AranaraCrowd/NPC_AranaraCrowd_AniAsset/NPC_AranaraCrowd_Asset_BakedAni_60268": "1820363021",
    "ART/Char/NPC/NPC_AranaraCrowd/NPC_AranaraCrowd_AniAsset/NPC_AranaraCrowd_Asset_BakedAni_64655": "3723043197",
    "ART/Char/NPC/NPC_AranaraCrowd/NPC_AranaraCrowd_AniAsset/NPC_AranaraCrowd_Asset_BakedAni_65271": "81840029"
  },
  "dataQHash": {
    "ART/Char/NPC/NPC_Crowd/NPC_Crowd_AniAsset/NPC_Crowd_Asset_BakedAni_262": "1776149080",
    "ART/Char/NPC/NPC_Crowd/NPC_Crowd_AniAsset/NPC_Crowd_Asset_BakedAni_2029": "3892297948",
    "ART/Char/NPC/NPC_Crowd/NPC_Crowd_AniAsset/NPC_Crowd_Asset_BakedAni_2342": "328347099",
    "ART/Char/NPC/NPC_Crowd/NPC_Crowd_AniAsset/NPC_Crowd_Asset_BakedAni_3851": "559606054",
    "ART/Char/NPC/NPC_Crowd/NPC_Crowd_AniAsset/NPC_Crowd_Asset_BakedAni_5290": "1447753991",
    "ART/Char/NPC/NPC_Crowd/NPC_Crowd_AniAsset/NPC_Crowd_Asset_BakedAni_5361": "3559554157",
    "ART/Char/NPC/NPC_Crowd/NPC_Crowd_AniAsset/NPC_Crowd_Asset_BakedAni_7285": "3215683903",
    "ART/Char/NPC/NPC_Crowd/NPC_Crowd_AniAsset/NPC_Crowd_Asset_BakedAni_10359": "2199429579",
    "ART/Char/NPC/NPC_Crowd/NPC_Crowd_AniAsset/NPC_Crowd_Asset_BakedAni_11356": "1616941726",
    "ART/Char/NPC/NPC_Crowd/NPC_Crowd_AniAsset/NPC_Crowd_Asset_BakedAni_14657": "3959080980",
    "ART/Char/NPC/NPC_Crowd/NPC_Crowd_AniAsset/NPC_Crowd_Asset_BakedAni_15556": "861702608",
    "ART/Char/NPC/NPC_Crowd/NPC_Crowd_AniAsset/NPC_Crowd_Asset_BakedAni_16911": "2637060714",
    "ART/Char/NPC/NPC_Crowd/NPC_Crowd_AniAsset/NPC_Crowd_Asset_BakedAni_17346": "4048287905",
    "ART/Char/NPC/NPC_Crowd/NPC_Crowd_AniAsset/NPC_Crowd_Asset_BakedAni_19198": "2552204008",
    "ART/Char/NPC/NPC_Crowd/NPC_Crowd_AniAsset/NPC_Crowd_Asset_BakedAni_22212": "3450214517",
    "ART/Char/NPC/NPC_Crowd/NPC_Crowd_AniAsset/NPC_Crowd_Asset_BakedAni_22782": "2547449102",
    "ART/Char/NPC/NPC_Crowd/NPC_Crowd_AniAsset/NPC_Crowd_Asset_BakedAni_23107": "2713847051",
    "ART/Char/NPC/NPC_Crowd/NPC_Crowd_AniAsset/NPC_Crowd_Asset_BakedAni_23178": "3559554157",
    "ART/Char/NPC/NPC_Crowd/NPC_Crowd_AniAsset/NPC_Crowd_Asset_BakedAni_23979": "919823689",
    "ART/Char/NPC/NPC_Crowd/NPC_Crowd_AniAsset/NPC_Crowd_Asset_BakedAni_26361": "2391365524",
    "ART/Char/NPC/NPC_Crowd/NPC_Crowd_AniAsset/NPC_Crowd_Asset_BakedAni_28010": "222673901",
    "ART/Char/NPC/NPC_Crowd/NPC_Crowd_AniAsset/NPC_Crowd_Asset_BakedAni_30692": "453810848",
    "ART/Char/NPC/NPC_Crowd/NPC_Crowd_AniAsset/NPC_Crowd_Asset_BakedAni_33632": "1794202256",
    "ART/Char/NPC/NPC_Crowd/NPC_Crowd_AniAsset/NPC_Crowd_Asset_BakedAni_36038": "2558462386",
    "ART/Char/NPC/NPC_Crowd/NPC_Crowd_AniAsset/NPC_Crowd_Asset_BakedAni_36790": "1395929812",
    "ART/Char/NPC/NPC_Crowd/NPC_Crowd_AniAsset/NPC_Crowd_Asset_BakedAni_37093": "3203683792",
    "ART/Char/NPC/NPC_Crowd/NPC_Crowd_AniAsset/NPC_Crowd_Asset_BakedAni_37396": "2239766122",
    "ART/Char/NPC/NPC_Crowd/NPC_Crowd_AniAsset/NPC_Crowd_Asset_BakedAni_41892": "2637060714",
    "ART/Char/NPC/NPC_Crowd/NPC_Crowd_AniAsset/NPC_Crowd_Asset_BakedAni_43814": "3912338007",
    "ART/Char/NPC/NPC_Crowd/NPC_Crowd_AniAsset/NPC_Crowd_Asset_BakedAni_44187": "3520831664",
    "ART/Char/NPC/NPC_Crowd/NPC_Crowd_AniAsset/NPC_Crowd_Asset_BakedAni_44831": "128070898",
    "ART/Char/NPC/NPC_Crowd/NPC_Crowd_AniAsset/NPC_Crowd_Asset_BakedAni_45654": "1796990821",
    "ART/Char/NPC/NPC_Crowd/NPC_Crowd_AniAsset/NPC_Crowd_Asset_BakedAni_46250": "1447753991",
    "ART/Char/NPC/NPC_Crowd/NPC_Crowd_AniAsset/NPC_Crowd_Asset_BakedAni_46662": "1395929812",
    "ART/Char/NPC/NPC_Crowd/NPC_Crowd_AniAsset/NPC_Crowd_Asset_BakedAni_48621": "2360056608",
    "ART/Char/NPC/NPC_Crowd/NPC_Crowd_AniAsset/NPC_Crowd_Asset_BakedAni_48865": "1917861609",
    "ART/Char/NPC/NPC_Crowd/NPC_Crowd_AniAsset/NPC_Crowd_Asset_BakedAni_49253": "1395929812",
    "ART/Char/NPC/NPC_Crowd/NPC_Crowd_AniAsset/NPC_Crowd_Asset_BakedAni_49359": "1532411253",
    "ART/Char/NPC/NPC_Crowd/NPC_Crowd_AniAsset/NPC_Crowd_Asset_BakedAni_50901": "1218340811",
    "ART/Char/NPC/NPC_Crowd/NPC_Crowd_AniAsset/NPC_Crowd_Asset_BakedAni_51354": "3551880970",
    "ART/Char/NPC/NPC_Crowd/NPC_Crowd_AniAsset/NPC_Crowd_Asset_BakedAni_52321": "2199429579",
    "ART/Char/NPC/NPC_Crowd/NPC_Crowd_AniAsset/NPC_Crowd_Asset_BakedAni_52503": "420009297",
    "ART/Char/NPC/NPC_Crowd/NPC_Crowd_AniAsset/NPC_Crowd_Asset_BakedAni_52820": "1362474001",
    "ART/Char/NPC/NPC_Crowd/NPC_Crowd_AniAsset/NPC_Crowd_Asset_BakedAni_53378": "420009297",
    "ART/Char/NPC/NPC_Crowd/NPC_Crowd_AniAsset/NPC_Crowd_Asset_BakedAni_56288": "841596130",
    "ART/Char/NPC/NPC_Crowd/NPC_Crowd_AniAsset/NPC_Crowd_Asset_BakedAni_57093": "1403335029",
    "ART/Char/NPC/NPC_Crowd/NPC_Crowd_AniAsset/NPC_Crowd_Asset_BakedAni_57597": "2602810449",
    "ART/Char/NPC/NPC_Crowd/NPC_Crowd_AniAsset/NPC_Crowd_Asset_BakedAni_57623": "2192266297",
    "ART/Char/NPC/NPC_Crowd/NPC_Crowd_AniAsset/NPC_Crowd_Asset_BakedAni_58043": "2771083691",
    "ART/Char/NPC/NPC_Crowd/NPC_Crowd_AniAsset/NPC_Crowd_Asset_BakedAni_62173": "2176191683",
    "ART/Char/NPC/NPC_Crowd/NPC_Crowd_AniAsset/NPC_Crowd_Asset_BakedAni_63824": "2072412019",
    "ART/Char/NPC/NPC_Crowd/NPC_Crowd_AniAsset/NPC_Crowd_Asset_BakedAni_64676": "3144745151",
    "ART/Char/NPC/NPC_AranaraCrowd/NPC_AranaraCrowd_AniAsset/NPC_AranaraCrowd_Asset_BakedAni_2726": "4283993003",
    "ART/Char/NPC/NPC_AranaraCrowd/NPC_AranaraCrowd_AniAsset/NPC_AranaraCrowd_Asset_BakedAni_3439": "2300133935",
    "ART/Char/NPC/NPC_AranaraCrowd/NPC_AranaraCrowd_AniAsset/NPC_AranaraCrowd_Asset_BakedAni_3682": "122521555",
    "ART/Char/NPC/NPC_AranaraCrowd/NPC_AranaraCrowd_AniAsset/NPC_AranaraCrowd_Asset_BakedAni_5989": "3343965805",
    "ART/Char/NPC/NPC_AranaraCrowd/NPC_AranaraCrowd_AniAsset/NPC_AranaraCrowd_Asset_BakedAni_8284": "1952118844",
    "ART/Char/NPC/NPC_AranaraCrowd/NPC_AranaraCrowd_AniAsset/NPC_AranaraCrowd_Asset_BakedAni_8343": "3925593912",
    "ART/Char/NPC/NPC_AranaraCrowd/NPC_AranaraCrowd_AniAsset/NPC_AranaraCrowd_Asset_BakedAni_8895": "3141298396",
    "ART/Char/NPC/NPC_AranaraCrowd/NPC_AranaraCrowd_AniAsset/NPC_AranaraCrowd_Asset_BakedAni_17660": "1889759946",
    "ART/Char/NPC/NPC_AranaraCrowd/NPC_AranaraCrowd_AniAsset/NPC_AranaraCrowd_Asset_BakedAni_17871": "3498107231",
    "ART/Char/NPC/NPC_AranaraCrowd/NPC_AranaraCrowd_AniAsset/NPC_AranaraCrowd_Asset_BakedAni_19911": "656481921",
    "ART/Char/NPC/NPC_AranaraCrowd/NPC_AranaraCrowd_AniAsset/NPC_AranaraCrowd_Asset_BakedAni_19976": "3554947826",
    "ART/Char/NPC/NPC_AranaraCrowd/NPC_AranaraCrowd_AniAsset/NPC_AranaraCrowd_Asset_BakedAni_20489": "1462990490",
    "ART/Char/NPC/NPC_AranaraCrowd/NPC_AranaraCrowd_AniAsset/NPC_AranaraCrowd_Asset_BakedAni_23518": "2732066061",
    "ART/Char/NPC/NPC_AranaraCrowd/NPC_AranaraCrowd_AniAsset/NPC_AranaraCrowd_Asset_BakedAni_26089": "2227977509",
    "ART/Char/NPC/NPC_AranaraCrowd/NPC_AranaraCrowd_AniAsset/NPC_AranaraCrowd_Asset_BakedAni_27818": "2803034303",
    "ART/Char/NPC/NPC_AranaraCrowd/NPC_AranaraCrowd_AniAsset/NPC_AranaraCrowd_Asset_BakedAni_28289": "2151021960",
    "ART/Char/NPC/NPC_AranaraCrowd/NPC_AranaraCrowd_AniAsset/NPC_AranaraCrowd_Asset_BakedAni_29834": "4021111581",
    "ART/Char/NPC/NPC_AranaraCrowd/NPC_AranaraCrowd_AniAsset/NPC_AranaraCrowd_Asset_BakedAni_30675": "1376460445",
    "ART/Char/NPC/NPC_AranaraCrowd/NPC_AranaraCrowd_AniAsset/NPC_AranaraCrowd_Asset_BakedAni_31603": "1489012480",
    "ART/Char/NPC/NPC_AranaraCrowd/NPC_AranaraCrowd_AniAsset/NPC_AranaraCrowd_Asset_BakedAni_32162": "3820062938",
    "ART/Char/NPC/NPC_AranaraCrowd/NPC_AranaraCrowd_AniAsset/NPC_AranaraCrowd_Asset_BakedAni_34863": "3228087981",
    "ART/Char/NPC/NPC_AranaraCrowd/NPC_AranaraCrowd_AniAsset/NPC_AranaraCrowd_Asset_BakedAni_37171": "1205200043",
    "ART/Char/NPC/NPC_AranaraCrowd/NPC_AranaraCrowd_AniAsset/NPC_AranaraCrowd_Asset_BakedAni_38248": "2093508451",
    "ART/Char/NPC/NPC_AranaraCrowd/NPC_AranaraCrowd_AniAsset/NPC_AranaraCrowd_Asset_BakedAni_43269": "3595168149",
    "ART/Char/NPC/NPC_AranaraCrowd/NPC_AranaraCrowd_AniAsset/NPC_AranaraCrowd_Asset_BakedAni_46406": "775240833",
    "ART/Char/NPC/NPC_AranaraCrowd/NPC_AranaraCrowd_AniAsset/NPC_AranaraCrowd_Asset_BakedAni_47533": "1307492610",
    "ART/Char/NPC/NPC_AranaraCrowd/NPC_AranaraCrowd_AniAsset/NPC_AranaraCrowd_Asset_BakedAni_48994": "2747425754",
    "ART/Char/NPC/NPC_AranaraCrowd/NPC_AranaraCrowd_AniAsset/NPC_AranaraCrowd_Asset_BakedAni_55943": "1096639194",
    "ART/Char/NPC/NPC_AranaraCrowd/NPC_AranaraCrowd_AniAsset/NPC_AranaraCrowd_Asset_BakedAni_56136": "2118087371",
    "ART/Char/NPC/NPC_AranaraCrowd/NPC_AranaraCrowd_AniAsset/NPC_AranaraCrowd_Asset_BakedAni_56242": "727961752",
    "ART/Char/NPC/NPC_AranaraCrowd/NPC_AranaraCrowd_AniAsset/NPC_AranaraCrowd_Asset_BakedAni_57598": "1359673602",
    "ART/Char/NPC/NPC_AranaraCrowd/NPC_AranaraCrowd_AniAsset/NPC_AranaraCrowd_Asset_BakedAni_58628": "2187887076",
    "ART/Char/NPC/NPC_AranaraCrowd/NPC_AranaraCrowd_AniAsset/NPC_AranaraCrowd_Asset_BakedAni_58677": "1406390298",
    "ART/Char/NPC/NPC_AranaraCrowd/NPC_AranaraCrowd_AniAsset/NPC_AranaraCrowd_Asset_BakedAni_60268": "2370217872",
    "ART/Char/NPC/NPC_AranaraCrowd/NPC_AranaraCrowd_AniAsset/NPC_AranaraCrowd_Asset_BakedAni_64655": "2801149200",
    "ART/Char/NPC/NPC_AranaraCrowd/NPC_AranaraCrowd_AniAsset/NPC_AranaraCrowd_Asset_BakedAni_65271": "1319819730"
  }
}