{
  "common": {
    "effectAttachShape": {
      "$type": "FJNPJANPGGC",
      "mesh": "EffectMesh"
    },
    "mass": 150.0,
    "height": 1.7999999523162842,
    "modelHeight": 1.7999999523162842,
    "viewSize": 1.25,
    "affectedByWorld": true,
    "checkInSurface": true,
    "scale": 1.2000000476837158,
    "shouldPauseAnimatorBeforeReady": true,
    "useGrassDisplacement": true,
    "reconnectSupport": true,
    "recoverByInitPose": true
  },
  "model": {
    "bornEffect": "Eff_Monster_Common_Born",
    "attachEffect": "",
    "canBakeMesh": false,
    "BKPFGNPLDNJ": ""
  },
  "dither": {
    "showDitherDuration": 2.0
  },
  "combat": {
    "property": {
      "endureType": "Monster_Minion",
      "weight": 150.0
    },
    "beHit": {
      "hitBloodEffect": ""
    },
    "combatLock": {
      "lockShape": "CircleLockEnemy",
      "lockType": "Avatar&Monster_Lv4"
    },
    "die": {
      "hasAnimatorDie": true,
      "dieEndTime": 2.0,
      "dieForceDisappearTime": 2.0,
      "dieDisappearEffect": "Eff_Death_Common",
      "dieShaderData": "MonsterDie",
      "ragDollDieEndTimeDelay": 0.800000011920929,
      "muteHitBox": true,
      "dieDenyLockOn": true,
      "dieIsGhostToEnemy": true,
      "dieIgnoreTriggerBullet": true,
      "muteBillboard": true,
      "mutePushCollider": true
    }
  },
  "abilities": [
    {
      "abilityID": "Monster_MachinaIustitia_Probe_HitSpecial",
      "abilityName": "Monster_MachinaIustitia_Probe_HitSpecial",
      "abilityOverride": ""
    },
    {
      "abilityID": "Monster_MachinaIustitia_CoilHanler",
      "abilityName": "Monster_MachinaIustitia_CoilHanler",
      "abilityOverride": ""
    },
    {
      "abilityID": "Monster_MachinaIustitia_Probe_RepairPose",
      "abilityName": "Monster_MachinaIustitia_Probe_RepairPose",
      "abilityOverride": ""
    },
    {
      "abilityID": "Monster_MachinaIustitia_Probe_CoilEffect",
      "abilityName": "Monster_MachinaIustitia_Probe_CoilEffect",
      "abilityOverride": ""
    },
    {
      "abilityID": "Monster_MachinaIustitia_Recover_Effect_Pneuma",
      "abilityName": "Monster_MachinaIustitia_Recover_Effect_Pneuma",
      "abilityOverride": ""
    },
    {
      "abilityID": "Monster_MachinaIustitia_Recover_Effect_Ousia",
      "abilityName": "Monster_MachinaIustitia_Recover_Effect_Ousia",
      "abilityOverride": ""
    },
    {
      "abilityID": "Monster_MachinaIustitia_Probe_Pose",
      "abilityName": "Monster_MachinaIustitia_Probe_Pose",
      "abilityOverride": ""
    },
    {
      "abilityID": "Monster_MachinaIustitia_Probe_ReturnToBorn",
      "abilityName": "Monster_MachinaIustitia_Probe_ReturnToBorn",
      "abilityOverride": ""
    },
    {
      "abilityID": "Monster_MachinaIustitia_Probe_Alert",
      "abilityName": "Monster_MachinaIustitia_Probe_Alert",
      "abilityOverride": ""
    },
    {
      "abilityID": "Monster_MachinaIustitia_Probe_Recover_Ousia",
      "abilityName": "Monster_MachinaIustitia_Probe_Recover_Ousia",
      "abilityOverride": ""
    },
    {
      "abilityID": "Monster_MachinaIustitia_Probe_RecoverEffect_Pneuma",
      "abilityName": "Monster_MachinaIustitia_Probe_RecoverEffect_Pneuma",
      "abilityOverride": ""
    },
    {
      "abilityID": "Monster_MachinaIustitia_Probe_Recover_Pneuma",
      "abilityName": "Monster_MachinaIustitia_Probe_Recover_Pneuma",
      "abilityOverride": ""
    },
    {
      "abilityID": "Monster_MachinaIustitia_Probe_RecoverEffect_Ousia",
      "abilityName": "Monster_MachinaIustitia_Probe_RecoverEffect_Ousia",
      "abilityOverride": ""
    },
    {
      "abilityID": "Monster_MachinaIustitia_Assimilator_Steer_Handle",
      "abilityName": "Monster_MachinaIustitia_Assimilator_Steer_Handle",
      "abilityOverride": ""
    },
    {
      "abilityID": "Monster_MachinaIustitia_Assimilator_NormalAttack01",
      "abilityName": "Monster_MachinaIustitia_Assimilator_NormalAttack01",
      "abilityOverride": ""
    },
    {
      "abilityID": "Monster_MachinaIustitia_Assimilator_MeleeAttack01",
      "abilityName": "Monster_MachinaIustitia_Assimilator_MeleeAttack01",
      "abilityOverride": ""
    },
    {
      "abilityID": "Monster_MachinaIustitia_Assimilator_LifeSkillEffect",
      "abilityName": "Monster_MachinaIustitia_Assimilator_LifeSkillEffect",
      "abilityOverride": ""
    },
    {
      "abilityID": "Monster_MachinaIustitia_Assimilator_Alert",
      "abilityName": "Monster_MachinaIustitia_Assimilator_Alert",
      "abilityOverride": ""
    }
  ],
  "stateLayers": {
    "defaultLayer": {
      "$type": "GBGJJIIEMBD",
      "layerIndexName": "",
      "CPAANEIJCGD": "",
      "stateIDs": {
        "NormalIdle": {
          "$type": "NEDIFAKEGCO",
          "animatorStates": {
            "Standby": [],
            "PneumaStandby": [],
            "Born": []
          },
          "canDoSkill": true,
          "canSyncMove": true,
          "cullingModelAlwaysAnimate": true,
          "resetAnimatorTriggerOnExit": [
            "DoSkill"
          ]
        },
        "NormalMove": {
          "$type": "NEDIFAKEGCO",
          "animatorStates": {
            "WalkForward": [],
            "WalkBack": [],
            "Run": []
          },
          "canDoSkill": true,
          "canSyncMove": true,
          "cullingModelAlwaysAnimate": true,
          "resetAnimatorTriggerOnExit": [
            "DoSkill"
          ],
          "canSteer": true
        },
        "Turn": {
          "$type": "NEDIFAKEGCO",
          "animatorStates": {
            "TurnLeft": [],
            "TurnRight": [],
            "NoTurn": []
          },
          "canDoSkill": true,
          "canSyncMove": true,
          "cullingModelAlwaysAnimate": true,
          "resetAnimatorTriggerOnExit": [
            "DoSkill"
          ],
          "canSteer": true
        },
        "BeHit": {
          "$type": "NEDIFAKEGCO",
          "animatorStates": {
            "Hit_H": [
              "Audio_Monster_MachinaIustitia_Assimilator_Hit_H"
            ]
          },
          "resetAnimatorTriggerOnEnter": [
            "BeHit"
          ],
          "resetAnimatorTriggerOnExit": [
            "DoSkill"
          ]
        },
        "Overload": {
          "$type": "NEDIFAKEGCO",
          "animatorStates": {
            "PneumaOverload": [
              "Audio_Monster_MachinaIustitia_Assimilator_Overload"
            ],
            "OusiaOverload": [
              "Audio_Monster_MachinaIustitia_Assimilator_Overload"
            ]
          },
          "resetAnimatorTriggerOnEnter": [
            "BeHit"
          ],
          "resetAnimatorTriggerOnExit": [
            "DoSkill"
          ]
        },
        "Die": {
          "$type": "NEDIFAKEGCO",
          "animatorStates": {
            "Die": [
              "Audio_Monster_MachinaIustitia_Assimilator_Die"
            ]
          },
          "resetAnimatorTriggerOnEnter": [
            "DoSkill"
          ]
        },
        "Die_RagDoll": {
          "$type": "NEDIFAKEGCO",
          "animatorStates": {
            "Die_RagDoll": []
          },
          "resetAnimatorTriggerOnEnter": [
            "DoSkill"
          ]
        },
        "OusiaActivate": {
          "$type": "NEDIFAKEGCO",
          "animatorStates": {
            "OusiaActivate": [
              "Monster_MachinaIustitia_Assimilator_Recover_Ousia",
              "Audio_Monster_MachinaIustitia_Assimilator_OusiaActivate"
            ]
          },
          "addEndure": 0.0,
          "resetAnimatorTriggerOnExit": [
            "BeHit",
            "DoSkill"
          ]
        },
        "ReturnToBorn": {
          "$type": "NEDIFAKEGCO",
          "animatorStates": {
            "ReturnToBorn": [
              "Audio_Monster_MachinaIustitia_Assimilator_ReturnToBorn"
            ]
          },
          "cullingModelAlwaysAnimate": true,
          "addEndure": 0.0,
          "resetAnimatorTriggerOnExit": [
            "BeHit",
            "DoSkill"
          ]
        },
        "PneumaActivate": {
          "$type": "NEDIFAKEGCO",
          "animatorStates": {
            "PneumaActivate": [
              "Monster_MachinaIustitia_Assimilator_Recover_Pneuma",
              "Audio_Monster_MachinaIustitia_Assimilator_PneumaActivate"
            ]
          },
          "cullingModelAlwaysAnimate": true,
          "addEndure": 0.0,
          "resetAnimatorTriggerOnExit": [
            "BeHit",
            "DoSkill"
          ]
        },
        "Dig": {
          "$type": "NEDIFAKEGCO",
          "animatorStates": {
            "Dig": [
              "Monster_MachinaIustitia_Assimilator_Dig"
            ]
          },
          "canDoSkill": true,
          "cullingModelAlwaysAnimate": true,
          "addEndure": 0.0,
          "resetAnimatorTriggerOnExit": [
            "BeHit",
            "DoSkill"
          ]
        },
        "Unload": {
          "$type": "NEDIFAKEGCO",
          "animatorStates": {
            "Unload": [
              "Audio_Monster_MachinaIustitia_Assimilator_Unload"
            ]
          },
          "canDoSkill": true,
          "cullingModelAlwaysAnimate": true,
          "addEndure": 0.0,
          "resetAnimatorTriggerOnExit": [
            "BeHit",
            "DoSkill"
          ],
          "canSteer": true
        },
        "PneumaAlert": {
          "$type": "NEDIFAKEGCO",
          "animatorStates": {
            "PneumaAlert": [
              "Monster_MachinaIustitia_Assimilator_Alert"
            ]
          },
          "canDoSkill": true,
          "cullingModelAlwaysAnimate": true,
          "resetAnimatorTriggerOnExit": [
            "BeHit",
            "DoSkill"
          ],
          "canSteer": true
        },
        "Alert": {
          "$type": "NEDIFAKEGCO",
          "animatorStates": {
            "Alert": [
              "Monster_MachinaIustitia_Assimilator_Alert"
            ]
          },
          "canDoSkill": true,
          "cullingModelAlwaysAnimate": true,
          "resetAnimatorTriggerOnExit": [
            "BeHit",
            "DoSkill"
          ],
          "canSteer": true
        },
        "NormalAttack01": {
          "$type": "NEDIFAKEGCO",
          "animatorStates": {
            "NormalAttack01": [
              "Audio_Monster_MachinaIustitia_Assimilator_NormalAttack"
            ]
          },
          "resetAnimatorTriggerOnExit": [
            "BeHit",
            "DoSkill"
          ],
          "handleAnimatorStateImmediately": true,
          "canSteer": true,
          "followAnimRotation": true
        },
        "MeleeAttack01_BS": {
          "$type": "NEDIFAKEGCO",
          "animatorStates": {
            "MeleeAttack01_BS": [
              "Audio_Monster_MachinaIustitia_Assimilator_MeleeAttack01_BS"
            ]
          },
          "cullingModelAlwaysAnimate": true,
          "resetAnimatorTriggerOnExit": [
            "BeHit",
            "DoSkill"
          ]
        },
        "MeleeAttack01_Loop": {
          "$type": "NEDIFAKEGCO",
          "animatorStates": {
            "MeleeAttack01_Loop": [
              "Monster_MachinaIustitia_Assimilator_MeleeAttack01"
            ]
          },
          "cullingModelAlwaysAnimate": true,
          "resetAnimatorTriggerOnExit": [
            "BeHit",
            "DoSkill"
          ],
          "canSteer": true
        },
        "MeleeAttack01_AS": {
          "$type": "NEDIFAKEGCO",
          "animatorStates": {
            "MeleeAttack01_AS": [
              "Audio_Monster_MachinaIustitia_Assimilator_MeleeAttack01_AS"
            ]
          },
          "cullingModelAlwaysAnimate": true,
          "resetAnimatorTriggerOnExit": [
            "BeHit",
            "DoSkill"
          ],
          "canSteer": true
        }
      }
    }
  },
  "billboard": {
    "$type": "DNGNMAJBCNP",
    "attachPoint": "BillboardAttach",
    "offsetType": "Character",
    "radiusOffset": 1.0,
    "showHPBar": true,
    "size": "Big"
  },
  "initialPoses": {
    "Default": {
      "initialPoseID": 1
    },
    "Pneuma": {
      "initialPoseID": 21
    },
    "Ousia": {
      "initialPoseID": 11
    },
    "Dig": {
      "initialPoseID": 9002,
      "initialPoseParams": {
        "intParams": {
          "FreePoseMark": "9002"
        }
      }
    }
  },
  "aibeta": {
    "enable": true,
    "buddySetting": {
      "enable": true,
      "buddyFeatureTagIDs": [
        4025
      ]
    },
    "sensing": {
      "settings": {
        "DefaultSetting": {
          "viewRange": 6.0,
          "feelRange": 3.0
        },
        "Work": {
          "enableVision": false,
          "viewRange": 0.0,
          "feelRange": 0.0
        }
      },
      "templates": {
        "DefaultTemplate": {
          "DefaultPoses": "DefaultSetting"
        },
        "WorkTemplate": {
          "DefaultPoses": "Work"
        }
      }
    },
    "neurons": {
      "DefaultSetting": [
        "HIT"
      ]
    },
    "threat": {
      "GHIJMOKOLMB": "",
      "clearThreatByLostPath": true,
      "viewAttenuation": [
        {
          "x": 10.0,
          "y": 2.0
        },
        {
          "x": 15.0,
          "y": 0.800000011920929
        },
        {
          "x": 20.0,
          "y": 0.5
        },
        {
          "x": 25.0,
          "y": 0.30000001192092896
        },
        {
          "x": 30.0,
          "y": 0.20000000298023224
        }
      ],
      "resistTauntLevel": "Monster_TauntLevel_2"
    },
    "defendArea": {
      "defendRange": 50.0
    },
    "profiling": {},
    "skillGroupCDConfigs": [
      {
        "skillGroupCDID": 0,
        "skillGroupCDTime": 3.0
      }
    ],
    "skillSetting": {},
    "skills": {
      "101": {
        "name": "Alert",
        "skillType": "OnAlert",
        "castCondition": {
          "pose": [
            1,
            11
          ]
        },
        "publicCDGroup": "",
        "ignoreGCD": true,
        "triggerGCD": false,
        "HHAGODJIAPE": "",
        "stateIDs": [
          "Alert"
        ],
        "skillQueryingTime": 3.0,
        "flagTargetReachable": "10",
        "flagSelfOnTemplateCollider": "01",
        "flagSelfInZone": "10",
        "flagTargetInZone": "11"
      },
      "111": {
        "name": "PneumaAlert",
        "skillType": "OnAlert",
        "castCondition": {
          "pose": [
            21,
            9002
          ]
        },
        "publicCDGroup": "",
        "ignoreGCD": true,
        "triggerGCD": false,
        "HHAGODJIAPE": "",
        "stateIDs": [
          "PneumaAlert"
        ],
        "flagTargetReachable": "10",
        "flagSelfOnTemplateCollider": "01",
        "flagSelfInZone": "10",
        "flagTargetInZone": "11"
      },
      "201": {
        "name": "NormalAttack01",
        "combatSkillType": "MeleeAttack",
        "priority": 3,
        "castCondition": {
          "pose": [
            101,
            102
          ],
          "pickRangeMax": 3.0
        },
        "cd": 5.0,
        "publicCDGroup": "",
        "HHAGODJIAPE": "",
        "stateIDs": [
          "NormalAttack01"
        ],
        "skillQueryingTime": 3.0,
        "flagTargetReachable": "10",
        "flagSelfOnTemplateCollider": "01",
        "flagSelfInZone": "11",
        "flagTargetInZone": "11"
      },
      "401": {
        "name": "MeleeAttack01",
        "combatSkillType": "MeleeAttack",
        "priority": 3,
        "castCondition": {
          "pose": [
            201
          ],
          "pickRangeMax": 12.0
        },
        "cd": 2.0,
        "initialCD": 2.0,
        "publicCDGroup": "MachinaIustitia_Assimilator_MeleeAttack01",
        "HHAGODJIAPE": "",
        "stateIDs": [
          "MeleeAttack01_BS",
          "MeleeAttack01_Loop",
          "MeleeAttack01_AS"
        ],
        "skillQueryingTime": 3.0,
        "flagTargetReachable": "10",
        "flagSelfOnTemplateCollider": "01",
        "flagSelfInZone": "11",
        "flagTargetInZone": "11"
      },
      "501": {
        "name": "Passive_Activate",
        "priority": 1,
        "castCondition": {
          "pose": [
            102
          ]
        },
        "cd": 1.0,
        "initialCD": 1.0,
        "publicCDGroup": "",
        "ignoreGCD": true,
        "HHAGODJIAPE": "",
        "stateIDs": [
          "OusiaActivate"
        ],
        "skillQueryingTime": 3.0,
        "flagTargetReachable": "11",
        "flagSelfOnTemplateCollider": "01",
        "flagSelfInZone": "11",
        "flagTargetInZone": "11"
      },
      "511": {
        "name": "Active_Activate",
        "priority": 1,
        "castCondition": {
          "pose": [
            101
          ],
          "globalValues": [
            "_MACHINAIUSTITIA_SELFRECOVER_"
          ],
          "globalValuesTargetType": "SELF"
        },
        "cd": 5.0,
        "initialCD": 1.0,
        "publicCDGroup": "",
        "HHAGODJIAPE": "",
        "stateIDs": [
          "OusiaActivate"
        ],
        "skillQueryingTime": 3.0,
        "flagTargetReachable": "11",
        "flagSelfOnTemplateCollider": "01",
        "flagSelfInZone": "11",
        "flagTargetInZone": "11"
      },
      "9001": {
        "name": "Unload",
        "skillType": "Free",
        "castCondition": {
          "pose": [
            11
          ]
        },
        "cd": 20.0,
        "initialCD": 5.0,
        "publicCDGroup": "",
        "HHAGODJIAPE": "",
        "stateIDs": [
          "Unload"
        ],
        "skillQueryingTime": 3.0,
        "flagTargetReachable": "10",
        "flagSelfOnTemplateCollider": "01",
        "flagSelfInZone": "11",
        "flagTargetInZone": "11"
      }
    },
    "skillGCD": 4.0,
    "birdCirclingTactic": [
      {
        "$type": "EPHBMLFODKF",
        "enable": true,
        "condition": {
          "pose": [
            101,
            201,
            301
          ]
        },
        "JMCOBEPDIGM": {
          "rangeMin": 0.0,
          "rangeMax": 10.0,
          "JOJBOHEDBHC": 0.800000011920929,
          "AFILKAGDAHN": 1.2000000476837158,
          "BFJBDDIIFOI": {
            "AEBLMKFNCDG": 0.0,
            "IGLIBIOEGBB": 0.0
          },
          "NAOBMNGDKHL": "1111",
          "JCNIJOAIGII": "1111",
          "MNPDDAKDHGK": ""
        },
        "PIOCBHLFLJP": {
          "201": {
            "rangeMin": 0.0,
            "rangeMax": 25.0,
            "AFILKAGDAHN": 1.5,
            "ALIBHHJHHMN": 1.5,
            "OMHBOLPFEPM": 1.0,
            "BFJBDDIIFOI": {
              "AEBLMKFNCDG": 0.0,
              "IGLIBIOEGBB": 0.0
            },
            "NAOBMNGDKHL": "1111",
            "JCNIJOAIGII": "1111",
            "MNPDDAKDHGK": ""
          },
          "301": {
            "ANLAAGAMIKF": 0,
            "NAOBMNGDKHL": "1111",
            "JCNIJOAIGII": "1111",
            "MNPDDAKDHGK": ""
          }
        }
      },
      {
        "$type": "KACCHOLJDNK",
        "enable": true,
        "condition": {
          "pose": [
            101,
            201,
            301
          ]
        },
        "JMCOBEPDIGM": {
          "KHDFDAAAPEI": 8.0,
          "HKJODDGJPHA": 50.0,
          "MNPDDAKDHGK": ""
        },
        "PIOCBHLFLJP": {
          "301": {
            "ANLAAGAMIKF": 0,
            "MNPDDAKDHGK": ""
          },
          "201": {
            "HKJODDGJPHA": 50.0,
            "GGEBMFHFBPO": 4.0,
            "MNPDDAKDHGK": ""
          }
        }
      },
      {
        "$type": "NNJKLGNPMNN",
        "enable": true,
        "JMCOBEPDIGM": {
          "OJGLKPBCLGB": 1.6699999570846558,
          "MNPDDAKDHGK": "",
          "GJDMDHIBCME": ""
        }
      },
      {
        "$type": "FPELBIJFGCE",
        "enable": true,
        "condition": {
          "pose": [
            1,
            11
          ]
        },
        "JMCOBEPDIGM": {
          "NBENNEKDIIA": 0.5,
          "KPNDPKIOPJM": 7.0,
          "PINAFKEDDLL": 5.0,
          "ANMPOPEBDIA": 10.0,
          "GMJFIMFFOEL": 3.0,
          "CHCPFDMADEI": 5.0,
          "MNPDDAKDHGK": ""
        }
      }
    ]
  },
  "inputKeys": [
    {
      "keyID": 201,
      "inputKeyCode": 257,
      "abilityName": ""
    },
    {
      "keyID": 301,
      "inputKeyCode": 258,
      "abilityName": ""
    },
    {
      "keyID": 401,
      "inputKeyCode": 259,
      "abilityName": ""
    },
    {
      "keyID": 501,
      "inputKeyCode": 260,
      "abilityName": ""
    },
    {
      "keyID": 511,
      "inputKeyCode": 261,
      "abilityName": ""
    }
  ],
  "move": {
    "$type": "IPNMJMHDMPF",
    "velocityForce": {
      "excludeForces": [
        "RetreatAirType"
      ]
    },
    "handleCombatTaskImmediately": true,
    "facingMove": "ForwardBackward",
    "yawSpeedRatio": 0.800000011920929,
    "PKHOMJHFAEE": "RootNode"
  },
  "audio": {
    "overrideEmitterName": "",
    "animAudio": {
      "onTransitionIn": [
        {
          "currentStateName": "Dig",
          "audioEvent": {
            "text": "Play_Sfx_Monster_MachinaIustitia_Assimilator_Dig_LP"
          },
          "otherStateNames": [
            "Dig"
          ],
          "usage": "Except"
        },
        {
          "currentStateName": "WalkForward",
          "audioEvent": {
            "text": "Play_Sfx_Monster_MachinaIustitia_Assimilator_Roll_LP"
          },
          "otherStateNames": [
            "WalkForward"
          ],
          "usage": "Except"
        },
        {
          "currentStateName": "WalkBack",
          "audioEvent": {
            "text": "Play_Sfx_Monster_MachinaIustitia_Assimilator_Roll_LP"
          },
          "otherStateNames": [
            "WalkBack"
          ],
          "usage": "Except"
        },
        {
          "currentStateName": "Run",
          "audioEvent": {
            "text": "Play_Sfx_Monster_MachinaIustitia_Assimilator_Roll_LP"
          },
          "otherStateNames": [
            "Run"
          ],
          "usage": "Except"
        },
        {
          "currentStateName": "TurnLeft",
          "audioEvent": {
            "text": "Play_Sfx_Monster_MachinaIustitia_Assimilator_Roll_LP"
          },
          "otherStateNames": [
            "TurnLeft",
            "TurnRight"
          ],
          "usage": "Except"
        },
        {
          "currentStateName": "TurnRight",
          "audioEvent": {
            "text": "Play_Sfx_Monster_MachinaIustitia_Assimilator_Roll_LP"
          },
          "otherStateNames": [
            "TurnRight",
            "TurnLeft"
          ],
          "usage": "Except"
        },
        {
          "currentStateName": "MeleeAttack01_Loop",
          "audioEvent": {
            "text": "Play_Sfx_Monster_MachinaIustitia_Assimilator_MeleeAttack01_Loop_LP"
          },
          "otherStateNames": [
            "MeleeAttack01_Loop"
          ],
          "usage": "Except"
        }
      ],
      "onTransitionOut": [
        {
          "currentStateName": "Dig",
          "audioEvent": {
            "text": "Stop_Sfx_Monster_MachinaIustitia_Assimilator_Dig_LP"
          },
          "otherStateNames": [
            "Dig"
          ],
          "usage": "Except"
        },
        {
          "currentStateName": "WalkForward",
          "audioEvent": {
            "text": "Stop_Sfx_Monster_MachinaIustitia_Assimilator_Roll_LP"
          },
          "otherStateNames": [
            "WalkForward"
          ],
          "usage": "Except"
        },
        {
          "currentStateName": "WalkBack",
          "audioEvent": {
            "text": "Stop_Sfx_Monster_MachinaIustitia_Assimilator_Roll_LP"
          },
          "otherStateNames": [
            "WalkBack"
          ],
          "usage": "Except"
        },
        {
          "currentStateName": "Run",
          "audioEvent": {
            "text": "Stop_Sfx_Monster_MachinaIustitia_Assimilator_Roll_LP"
          },
          "otherStateNames": [
            "Run"
          ],
          "usage": "Except"
        },
        {
          "currentStateName": "TurnLeft",
          "audioEvent": {
            "text": "Stop_Sfx_Monster_MachinaIustitia_Assimilator_Roll_LP"
          },
          "otherStateNames": [
            "TurnLeft",
            "TurnRight"
          ],
          "usage": "Except"
        },
        {
          "currentStateName": "TurnRight",
          "audioEvent": {
            "text": "Stop_Sfx_Monster_MachinaIustitia_Assimilator_Roll_LP"
          },
          "otherStateNames": [
            "TurnLeft",
            "TurnRight"
          ],
          "usage": "Except"
        },
        {
          "currentStateName": "MeleeAttack01_Loop",
          "audioEvent": {
            "text": "Stop_Sfx_Monster_MachinaIustitia_Assimilator_MeleeAttack01_Loop_LP"
          },
          "otherStateNames": [
            "MeleeAttack01_Loop"
          ],
          "usage": "Except"
        }
      ]
    }
  }
}