{
  "common": {
    "effectAttachShape": {
      "$type": "FJNPJANPGGC",
      "mesh": "EffectMesh"
    },
    "mass": 500.0,
    "height": 1.600000023841858,
    "affectedByWorld": true,
    "checkInSurface": true,
    "scale": 1.149999976158142,
    "useGrassDisplacement": true
  },
  "headControl": {
    "$type": "KPIPDEBDPIH",
    "useHeadControl": true,
    "maxYawDegree": 80.0,
    "maxPitchDegree": 30.0,
    "animStates": [
      "NormalIdle/Standby",
      "NormalMove/WalkForward",
      "NormalMove/WalkBack",
      "NormalMove/WalkRight",
      "NormalMove/WalkLeft",
      "NormalMove/Run",
      "Turn/TurnLeft",
      "Turn/TurnRight"
    ]
  },
  "model": {
    "bornEffect": "Eff_Monster_Common_Born",
    "attachEffect": "",
    "BKPFGNPLDNJ": ""
  },
  "dither": {
    "showDitherDuration": 1.0
  },
  "combat": {
    "property": {
      "endureType": "Monster_Minion",
      "weight": 75.0
    },
    "beHit": {
      "hitBloodEffect": ""
    },
    "combatLock": {
      "lockShape": "CircleLockEnemy",
      "lockType": "Avatar&Monster_Lv4"
    },
    "die": {
      "hasAnimatorDie": true,
      "dieEndTime": 2.5,
      "dieForceDisappearTime": 1.5,
      "dieDisappearEffect": "Eff_Death_Avatar_Common",
      "dieShaderData": "AvatarDie",
      "useRagDoll": true,
      "ragDollDieEndTimeDelay": 1.25,
      "muteHitBox": true,
      "dieDenyLockOn": true,
      "dieIsGhostToEnemy": true,
      "dieIgnoreTriggerBullet": true,
      "muteBillboard": true,
      "mutePushCollider": true
    },
    "animEvents": {
      "Atk01": {
        "attackPattern": {
          "$type": "JHKEHNJBMOF",
          "triggerType": "TriggerNoRepeat",
          "born": {
            "$type": "IAENDIPDFKD",
            "offset": {
              "KGEPIMHBMOL": 0.20000000298023224,
              "JEBHCGDPFEJ": 1.0,
              "LPCHALMFFOD": 0.5
            }
          },
          "size": {
            "KGEPIMHBMOL": 0.5,
            "JEBHCGDPFEJ": 0.5,
            "LPCHALMFFOD": 4.0
          }
        },
        "attackInfo": {
          "attackTag": "",
          "attenuationTag": "",
          "attenuationGroup": "default",
          "attackProperty": {
            "actorGrassSubHurtDelta": 1.0,
            "actorWindSubHurtDelta": 0.0,
            "IPFJJJGABPL": 100.0,
            "strikeType": "Pierce",
            "enBreak": 50.0,
            "attackType": "Melee",
            "GLKMCMDJBIK": 0.0
          },
          "hitPattern": {
            "onHitEffectName": "default",
            "hitImpulseY": "",
            "hitImpulseType": "LV3",
            "hitHaltTimeScale": 0.009999999776482582
          }
        }
      },
      "GroupAtk01": {
        "attackPattern": {
          "$type": "JHKEHNJBMOF",
          "triggerType": "TriggerNoRepeat",
          "born": {
            "$type": "IAENDIPDFKD",
            "offset": {
              "KGEPIMHBMOL": 0.20000000298023224,
              "JEBHCGDPFEJ": 1.0,
              "LPCHALMFFOD": 0.5
            }
          },
          "size": {
            "KGEPIMHBMOL": 0.5,
            "JEBHCGDPFEJ": 0.5,
            "LPCHALMFFOD": 4.0
          }
        },
        "attackInfo": {
          "attackTag": "",
          "attenuationTag": "",
          "attenuationGroup": "default",
          "attackProperty": {
            "actorGrassSubHurtDelta": 1.0,
            "actorWindSubHurtDelta": 0.0,
            "IPFJJJGABPL": 100.0,
            "strikeType": "Pierce",
            "enBreak": 50.0,
            "attackType": "Melee",
            "GLKMCMDJBIK": 0.0
          },
          "hitPattern": {
            "onHitEffectName": "default",
            "hitImpulseY": "",
            "hitImpulseType": "LV4",
            "hitHaltTimeScale": 0.009999999776482582
          }
        }
      },
      "Atk02": {
        "attackPattern": {
          "$type": "GMDIMKKHACA",
          "triggerType": "TriggerNoRepeat",
          "born": {
            "$type": "IAENDIPDFKD",
            "offset": {
              "KGEPIMHBMOL": 0.0,
              "JEBHCGDPFEJ": 0.0,
              "LPCHALMFFOD": 0.5
            }
          },
          "fanAngle": 120.0,
          "OAHPDLJIADP": 3.0
        },
        "attackInfo": {
          "attackTag": "",
          "attenuationTag": "",
          "attenuationGroup": "default",
          "attackProperty": {
            "actorGrassSubHurtDelta": 1.0,
            "actorWindSubHurtDelta": 0.0,
            "IPFJJJGABPL": 100.0,
            "strikeType": "Slash",
            "enBreak": 50.0,
            "attackType": "Melee",
            "GLKMCMDJBIK": 0.0
          },
          "hitPattern": {
            "onHitEffectName": "default",
            "hitImpulseY": "",
            "hitImpulseType": "LV3",
            "hitHaltTimeScale": 0.009999999776482582
          }
        }
      },
      "WildSlam01": {
        "attackPattern": {
          "$type": "GMDIMKKHACA",
          "triggerType": "TriggerNoRepeat",
          "born": {
            "$type": "IAENDIPDFKD",
            "offset": {
              "KGEPIMHBMOL": 0.0,
              "JEBHCGDPFEJ": 0.0,
              "LPCHALMFFOD": 0.5
            }
          },
          "fanAngle": 150.0,
          "OAHPDLJIADP": 3.0
        },
        "attackInfo": {
          "attackTag": "",
          "attenuationTag": "",
          "attenuationGroup": "default",
          "attackProperty": {
            "actorGrassSubHurtDelta": 1.0,
            "actorWindSubHurtDelta": 0.0,
            "IPFJJJGABPL": 100.0,
            "strikeType": "Slash",
            "enBreak": 100.0,
            "GLKMCMDJBIK": 0.0
          },
          "hitPattern": {
            "onHitEffectName": "default",
            "hitImpulseY": "",
            "hitImpulseType": "LV4",
            "hitHaltTime": 0.05999999865889549,
            "hitHaltTimeScale": 0.009999999776482582
          },
          "cameraShake": {
            "shakeType": "HitVector",
            "shakeRange": 0.11999999731779099,
            "shakeTime": 0.11999999731779099,
            "shakeDistance": 25.0,
            "shakeDir": {
              "z": 1.0
            }
          }
        }
      },
      "WildSlam02": {
        "attackPattern": {
          "$type": "GMDIMKKHACA",
          "triggerType": "TriggerNoRepeat",
          "born": {
            "$type": "IAENDIPDFKD",
            "offset": {
              "KGEPIMHBMOL": 0.0,
              "JEBHCGDPFEJ": 0.0,
              "LPCHALMFFOD": 0.5
            }
          },
          "fanAngle": 150.0,
          "OAHPDLJIADP": 3.0
        },
        "attackInfo": {
          "attackTag": "",
          "attenuationTag": "",
          "attenuationGroup": "default",
          "attackProperty": {
            "actorGrassSubHurtDelta": 1.0,
            "actorWindSubHurtDelta": 0.0,
            "IPFJJJGABPL": 100.0,
            "strikeType": "Slash",
            "enBreak": 100.0,
            "attackType": "Melee",
            "GLKMCMDJBIK": 0.0
          },
          "hitPattern": {
            "onHitEffectName": "default",
            "hitImpulseY": "",
            "hitImpulseType": "LV2"
          }
        }
      },
      "WildSlam03": {
        "attackPattern": {
          "$type": "GMDIMKKHACA",
          "triggerType": "TriggerNoRepeat",
          "born": {
            "$type": "IAENDIPDFKD",
            "offset": {
              "KGEPIMHBMOL": 0.0,
              "JEBHCGDPFEJ": 0.0,
              "LPCHALMFFOD": 0.5
            }
          },
          "fanAngle": 150.0,
          "OAHPDLJIADP": 3.0
        },
        "attackInfo": {
          "attackTag": "",
          "attenuationTag": "",
          "attenuationGroup": "default",
          "attackProperty": {
            "actorGrassSubHurtDelta": 1.25,
            "actorWindSubHurtDelta": 0.0,
            "IPFJJJGABPL": 100.0,
            "strikeType": "Slash",
            "enBreak": 100.0,
            "attackType": "Melee",
            "GLKMCMDJBIK": 0.0
          },
          "hitPattern": {
            "onHitEffectName": "default",
            "hitImpulseY": "",
            "hitImpulseType": "LV5"
          },
          "cameraShake": {
            "shakeType": "HitVector",
            "shakeRange": 0.11999999731779099,
            "shakeTime": 0.11999999731779099,
            "shakeDistance": 25.0,
            "shakeDir": {
              "z": 1.0
            }
          }
        }
      }
    }
  },
  "equipController": {
    "sheathPoint": "",
    "attachPoints": {
      "equip01": "WeaponR",
      "equip02": "WeaponL"
    }
  },
  "abilities": [
    {
      "abilityID": "SteerAttack",
      "abilityName": "Human_Male_Pole_SteerAttack",
      "abilityOverride": ""
    },
    {
      "abilityID": "SteerMove",
      "abilityName": "Millelith_SteerMove",
      "abilityOverride": ""
    },
    {
      "abilityID": "Attack01_RushMove01",
      "abilityName": "Human_Male_Pole_Attack01_RushMove01",
      "abilityOverride": ""
    },
    {
      "abilityID": "Attack02_RushMove01",
      "abilityName": "Human_Male_Pole_Attack02_RushMove01",
      "abilityOverride": ""
    },
    {
      "abilityID": "WildSlam_RushMove01",
      "abilityName": "Human_Male_Pole_WildSlam_RushMove01",
      "abilityOverride": ""
    },
    {
      "abilityID": "WildSlam_RushMove02",
      "abilityName": "Human_Male_Pole_WildSlam_RushMove02",
      "abilityOverride": ""
    },
    {
      "abilityID": "WildSlam_RushMove03",
      "abilityName": "Human_Male_Pole_WildSlam_RushMove03",
      "abilityOverride": ""
    },
    {
      "abilityID": "TurnToOrdered",
      "abilityName": "Monster_Millelith_TurnToOrdered",
      "abilityOverride": ""
    },
    {
      "abilityID": "OutOfOrdered",
      "abilityName": "Monster_Millelith_OutOfOrdered",
      "abilityOverride": ""
    },
    {
      "abilityID": "ResetBackSprintCD",
      "abilityName": "Human_Male_Pole_ResetBackSprintCD",
      "abilityOverride": ""
    },
    {
      "abilityID": "AuxWeaponTrans",
      "abilityName": "Monster_Millelith_Pole_Male_AuxWeaponTrans",
      "abilityOverride": ""
    }
  ],
  "stateLayers": {
    "defaultLayer": {
      "$type": "GBGJJIIEMBD",
      "layerIndexName": "",
      "CPAANEIJCGD": "",
      "stateIDs": {
        "NormalIdle": {
          "$type": "NEDIFAKEGCO",
          "animatorStates": {
            "Standby": [],
            "Born": []
          },
          "canDoSkill": true,
          "canSyncMove": true,
          "resetAnimatorTriggerOnExit": [
            "DoSkill"
          ]
        },
        "NormalMove": {
          "$type": "NEDIFAKEGCO",
          "animatorStates": {
            "WalkForward": [
              "Audio_Monster_LiYue_Sergeant_Male_01_Walk"
            ],
            "WalkBack": [
              "Audio_Monster_LiYue_Sergeant_Male_01_Walk"
            ],
            "WalkRight": [
              "Audio_Monster_LiYue_Sergeant_Male_01_Walk"
            ],
            "WalkLeft": [
              "Audio_Monster_LiYue_Sergeant_Male_01_Walk"
            ],
            "Run": [
              "Audio_Monster_LiYue_Sergeant_Male_01_Run"
            ]
          },
          "canDoSkill": true,
          "canSyncMove": true,
          "resetAnimatorTriggerOnExit": [
            "DoSkill"
          ],
          "canSteer": true
        },
        "Turn": {
          "$type": "NEDIFAKEGCO",
          "animatorStates": {
            "TurnLeft": [
              "Audio_Monster_LiYue_Sergeant_Male_01_Walk"
            ],
            "TurnRight": [
              "Audio_Monster_LiYue_Sergeant_Male_01_Walk"
            ]
          },
          "canDoSkill": true,
          "canSyncMove": true,
          "resetAnimatorTriggerOnExit": [
            "DoSkill"
          ],
          "canSteer": true
        },
        "BeHit": {
          "$type": "NEDIFAKEGCO",
          "animatorStates": {
            "Hit_L": [
              "Audio_Monster_LiYue_Sergeant_Male_01_Hit_L"
            ],
            "Hit_H": [
              "Audio_Monster_LiYue_Sergeant_Male_01_Hit_H"
            ],
            "DHit": []
          },
          "resetAnimatorTriggerOnEnter": [
            "BeHit"
          ],
          "resetAnimatorTriggerOnExit": [
            "DoSkill"
          ]
        },
        "BeHitThrow": {
          "$type": "NEDIFAKEGCO",
          "animatorStates": {
            "HitThrow": [
              "Audio_Monster_LiYue_Sergeant_Male_01_HitThrow"
            ],
            "HitThrowDrop": [
              "Audio_Monster_LiYue_Sergeant_Male_01_HitThrow"
            ],
            "HitThrowToGround": [
              "Audio_Monster_LiYue_Sergeant_Male_01_HitThrowToGround"
            ]
          },
          "resetAnimatorTriggerOnEnter": [
            "BeHit",
            "HitAir2HitDrop"
          ],
          "resetAnimatorTriggerOnExit": [
            "DoSkill"
          ]
        },
        "Struggle": {
          "$type": "NEDIFAKEGCO",
          "animatorStates": {
            "Struggle": []
          },
          "resetAnimatorTriggerOnEnter": [
            "BeHit",
            "HitAir2HitDrop"
          ],
          "resetAnimatorTriggerOnExit": [
            "DoSkill"
          ]
        },
        "Die": {
          "$type": "NEDIFAKEGCO",
          "animatorStates": {
            "Die1": [
              "Audio_Monster_LiYue_Sergeant_Male_01_Die"
            ],
            "Die2": [
              "Audio_Monster_LiYue_Sergeant_Male_01_Die"
            ],
            "SwimDie": [],
            "SwimDie_AS": [
              "Audio_Monster_LiYue_Sergeant_Male_01_Die"
            ]
          }
        },
        "Die_RagDoll": {
          "$type": "NEDIFAKEGCO",
          "animatorStates": {
            "AirDie": [
              "Audio_Monster_LiYue_Sergeant_Male_01_HitThrowToGround"
            ]
          },
          "enableRagDoll": true
        },
        "Life_Alert": {
          "$type": "NEDIFAKEGCO",
          "animatorStates": {
            "Alert": [
              "Audio_Monster_LiYue_Sergeant_Male_01_Alert"
            ]
          },
          "resetAnimatorTriggerOnExit": [
            "BeHit",
            "DoSkill"
          ]
        },
        "Life_Warning": {
          "$type": "NEDIFAKEGCO",
          "animatorStates": {
            "Warning": [
              "Monster_Undead01_Warning"
            ]
          },
          "resetAnimatorTriggerOnExit": [
            "BeHit",
            "DoSkill"
          ]
        },
        "Attack01": {
          "$type": "NEDIFAKEGCO",
          "animatorStates": {
            "Attack01": [
              "Monster_Human_Male_Pole_Attack01",
              "Audio_Monster_LiYue_Sergeant_Male_01_Attack01"
            ]
          },
          "resetAnimatorTriggerOnExit": [
            "BeHit",
            "DoSkill"
          ]
        },
        "Attack02": {
          "$type": "NEDIFAKEGCO",
          "animatorStates": {
            "Attack02": [
              "Monster_Human_Male_Pole_Attack02",
              "Audio_Monster_LiYue_Sergeant_Male_01_Attack02"
            ]
          },
          "massRatio": 20.0,
          "resetAnimatorTriggerOnExit": [
            "BeHit",
            "DoSkill"
          ]
        },
        "WildSlam": {
          "$type": "NEDIFAKEGCO",
          "animatorStates": {
            "WildSlam": [
              "Monster_Human_Male_Pole_WildSlam"
            ]
          },
          "addEndure": 0.6000000238418579,
          "resetAnimatorTriggerOnExit": [
            "BeHit",
            "DoSkill"
          ]
        },
        "GroupAttack01": {
          "$type": "NEDIFAKEGCO",
          "animatorStates": {
            "GroupAttack01_01": [
              "Monster_Human_Male_Pole_GroupAttack01",
              "Audio_Monster_LiYue_Sergeant_Male_01_GroupAtk01_01"
            ],
            "GroupAttack01_02": [
              "Monster_Human_Male_Pole_GroupAttack01",
              "Audio_Monster_LiYue_Sergeant_Male_01_GroupAtk01_02"
            ],
            "GroupAttack01_03": [
              "Monster_Human_Male_Pole_GroupAttack01",
              "Monster_Millelith_OutOfOrdered",
              "Audio_Monster_LiYue_Sergeant_Male_01_GroupAtk01_03"
            ]
          },
          "resetAnimatorTriggerOnExit": [
            "BeHit",
            "DoSkill"
          ]
        },
        "GroupAttack02": {
          "$type": "NEDIFAKEGCO",
          "animatorStates": {
            "GroupAttack02": [
              "Monster_Human_Male_Pole_Attack02",
              "Audio_Monster_LiYue_Sergeant_Male_01_Attack02"
            ]
          },
          "resetAnimatorTriggerOnExit": [
            "BeHit",
            "DoSkill"
          ]
        },
        "TurnToSurround": {
          "$type": "NEDIFAKEGCO",
          "animatorStates": {
            "TurnToSurround": [
              "Audio_Monster_LiYue_Sergeant_Male_01_TurnToOrdered"
            ]
          },
          "resetAnimatorTriggerOnExit": [
            "BeHit",
            "DoSkill"
          ]
        },
        "Wait": {
          "$type": "NEDIFAKEGCO",
          "animatorStates": {
            "TurnToWait": [],
            "Waiting": []
          },
          "resetAnimatorTriggerOnExit": [
            "BeHit",
            "DoSkill"
          ]
        },
        "Taunt": {
          "$type": "NEDIFAKEGCO",
          "animatorStates": {
            "Taunt_1": [
              "Audio_Monster_LiYue_Sergeant_Male_01_Taunt1"
            ],
            "Taunt_2": [
              "Audio_Monster_LiYue_Sergeant_Male_01_Taunt2"
            ]
          },
          "canDoSkill": true,
          "resetAnimatorTriggerOnExit": [
            "BeHit",
            "DoSkill"
          ]
        },
        "BackSprint": {
          "$type": "NEDIFAKEGCO",
          "animatorStates": {
            "BackSprint": [
              "Monster_Human_Male_Pole_BackSprint",
              "Audio_Monster_LiYue_Sergeant_Male_01_BackSprint"
            ]
          },
          "resetAnimatorTriggerOnExit": [
            "BeHit",
            "DoSkill"
          ]
        },
        "TurnToOrdered": {
          "$type": "NEDIFAKEGCO",
          "animatorStates": {
            "TurnToOrdered": []
          },
          "canDoSkill": true,
          "resetAnimatorTriggerOnExit": [
            "BeHit",
            "DoSkill"
          ]
        }
      }
    }
  },
  "billboard": {
    "$type": "DNGNMAJBCNP",
    "attachPoint": "BillboardAttach",
    "offset": {
      "x": -0.05000000074505806
    },
    "offsetType": "Character",
    "radiusOffset": 0.25,
    "showHPBar": true
  },
  "initialPoses": {
    "Default": {}
  },
  "aibeta": {
    "enable": true,
    "moveSetting": {
      "navMeshAgentName": "Undead01",
      "almostReachedDistanceRun": 1.5
    },
    "sensing": {
      "settings": {
        "DefaultSetting": {
          "feelRange": 8.0
        },
        "HighAlert": {
          "viewRange": 40.0,
          "feelRange": 10.0
        }
      },
      "templates": {
        "DefaultTemplate": {
          "DefaultPoses": "DefaultSetting"
        },
        "HighAlertTemplate": {
          "DefaultPoses": "HighAlert"
        }
      }
    },
    "neurons": {
      "DefaultSetting": [
        "HIT"
      ]
    },
    "threat": {
      "GHIJMOKOLMB": "",
      "clearThreatByLostPath": true,
      "clearThreatTimerByDistance": 3.0,
      "viewAttenuation": [
        {
          "x": 10.0,
          "y": 2.0
        },
        {
          "x": 15.0,
          "y": 0.800000011920929
        },
        {
          "x": 20.0,
          "y": 0.5
        },
        {
          "x": 25.0,
          "y": 0.30000001192092896
        },
        {
          "x": 30.0,
          "y": 0.20000000298023224
        }
      ]
    },
    "order": {
      "commandSetting": {
        "acceptCommandIDs": [
          50501,
          50502,
          50503,
          50504,
          50505
        ]
      }
    },
    "defendArea": {},
    "profiling": {},
    "skillGroupCDConfigs": [
      {
        "skillGroupCDID": 1,
        "skillGroupCDTime": 7.0
      }
    ],
    "skills": {
      "101": {
        "name": "OnAlert",
        "skillType": "OnAlert",
        "faceTarget": true,
        "publicCDGroup": "",
        "ignoreGCD": true,
        "triggerGCD": false,
        "HHAGODJIAPE": "",
        "stateIDs": [
          "Life_Warning"
        ],
        "skillQueryingTime": 3.0,
        "flagTargetReachable": "10",
        "flagSelfOnTemplateCollider": "01",
        "flagSelfInZone": "10",
        "flagTargetInZone": "11"
      },
      "201": {
        "name": "Attack01",
        "combatSkillType": "MeleeAttack",
        "enableSkillPrepare": true,
        "castCondition": {
          "pose": [
            1001
          ],
          "maxTargetAngleXZ": 60.0,
          "pickRangeMax": 15.0,
          "castRangeMax": 3.5
        },
        "cd": 8.0,
        "cdUpperRange": 6.0,
        "initialCD": 5.0,
        "initialCDUpperRange": 4.0,
        "publicCDGroup": "",
        "skillGroupCDID": 1,
        "HHAGODJIAPE": "",
        "stateIDs": [
          "Attack01"
        ],
        "flagTargetReachable": "10",
        "flagSelfOnTemplateCollider": "01",
        "flagSelfInZone": "10",
        "flagTargetInZone": "11"
      },
      "202": {
        "name": "Attack02",
        "combatSkillType": "MeleeAttack",
        "priority": 2,
        "enableSkillPrepare": true,
        "castCondition": {
          "pose": [
            1001
          ],
          "maxTargetAngleXZ": 60.0,
          "pickRangeMax": 3.5,
          "castRangeMax": 2.5
        },
        "cd": 8.0,
        "cdUpperRange": 3.0,
        "initialCD": 5.0,
        "initialCDUpperRange": 4.0,
        "publicCDGroup": "",
        "skillGroupCDID": 1,
        "HHAGODJIAPE": "",
        "stateIDs": [
          "Attack02"
        ],
        "flagTargetReachable": "10",
        "flagSelfOnTemplateCollider": "01",
        "flagSelfInZone": "10",
        "flagTargetInZone": "11"
      },
      "211": {
        "name": "GroupAttack01",
        "enableSkillPrepare": true,
        "castCondition": {
          "pose": [
            1004
          ],
          "pickRangeMax": 20.0,
          "castRangeMin": 1.0,
          "castRangeMax": 4.5
        },
        "cd": 1.0,
        "publicCDGroup": "",
        "ignoreGCD": true,
        "HHAGODJIAPE": "",
        "stateIDs": [
          "GroupAttack01"
        ],
        "flagTargetReachable": "10",
        "flagSelfOnTemplateCollider": "01",
        "flagSelfInZone": "10",
        "flagTargetInZone": "11"
      },
      "411": {
        "name": "GroupBackSprint",
        "faceTarget": true,
        "castCondition": {
          "pose": [
            1001
          ],
          "maxTargetAngleXZ": 60.0,
          "pickRangeMax": 15.0
        },
        "cd": 1.0,
        "publicCDGroup": "RandomAction",
        "ignoreGCD": true,
        "triggerGCD": false,
        "HHAGODJIAPE": "",
        "stateIDs": [
          "BackSprint"
        ],
        "commandID": 50503,
        "flagTargetReachable": "10",
        "flagSelfOnTemplateCollider": "01",
        "flagSelfInZone": "10",
        "flagTargetInZone": "11"
      },
      "611": {
        "name": "TurnToOrdered",
        "priority": 3,
        "faceTarget": true,
        "castCondition": {
          "pose": [
            1001
          ]
        },
        "publicCDGroup": "",
        "ignoreGCD": true,
        "triggerGCD": false,
        "HHAGODJIAPE": "",
        "stateIDs": [
          "TurnToOrdered"
        ],
        "commandID": 50501,
        "flagTargetReachable": "10",
        "flagSelfOnTemplateCollider": "01",
        "flagSelfInZone": "10",
        "flagTargetInZone": "11"
      }
    },
    "skillGCD": 5.0,
    "birdCirclingTactic": [
      {
        "$type": "HGAKDOIOHCG",
        "enable": true,
        "condition": {
          "pose": [
            1002
          ]
        },
        "JMCOBEPDIGM": {
          "pointType": "SurroundPoint",
          "ANLAAGAMIKF": 2,
          "detectDistance": 30.0,
          "CJNOBGEGKFL": 5.0,
          "skillID": 602
        }
      },
      {
        "$type": "EPHBMLFODKF",
        "enable": true,
        "condition": {
          "pose": [
            1001
          ]
        },
        "JMCOBEPDIGM": {
          "rangeMin": 3.0,
          "rangeMax": 7.0,
          "BFJBDDIIFOI": {
            "LLICGJHIGME": 2.0,
            "IDEFILBHNAP": 0.0,
            "IBLIPJPNOGC": 0.0
          },
          "NAOBMNGDKHL": "1111",
          "JCNIJOAIGII": "1111",
          "MNPDDAKDHGK": ""
        }
      },
      {
        "$type": "JAFNBBGAPPO",
        "condition": {
          "pose": [
            1002
          ]
        },
        "JMCOBEPDIGM": {
          "NBENNEKDIIA": 3.0,
          "cd": 2.5,
          "CJNOBGEGKFL": 2.5,
          "KEIFBBGKGPN": 4.5,
          "EPMAMGJCELL": 4.0
        }
      },
      {
        "$type": "OJOBEDCMGKM",
        "enable": true,
        "condition": {
          "pose": [
            1
          ]
        }
      },
      {
        "$type": "KACCHOLJDNK",
        "enable": true,
        "condition": {
          "pose": [
            1001
          ]
        },
        "JMCOBEPDIGM": {
          "KHDFDAAAPEI": 10.0,
          "HKJODDGJPHA": 50.0,
          "GGEBMFHFBPO": 8.0,
          "KFFGCIMPNMJ": 7.0,
          "MNPDDAKDHGK": ""
        }
      },
      {
        "$type": "HGJGHLOFFHM",
        "enable": true,
        "JMCOBEPDIGM": {}
      },
      {
        "$type": "NNJKLGNPMNN",
        "enable": true,
        "JMCOBEPDIGM": {
          "MNPDDAKDHGK": "",
          "GJDMDHIBCME": ""
        }
      },
      {
        "$type": "FPELBIJFGCE",
        "enable": true,
        "condition": {
          "pose": [
            1
          ]
        },
        "JMCOBEPDIGM": {
          "KPNDPKIOPJM": 3.0,
          "PINAFKEDDLL": 1.5,
          "ANMPOPEBDIA": 15.0,
          "GMJFIMFFOEL": 3.75,
          "CHCPFDMADEI": 7.5,
          "MNPDDAKDHGK": ""
        }
      }
    ]
  },
  "inputKeys": [
    {
      "keyID": 201,
      "inputKeyCode": 257,
      "abilityName": ""
    },
    {
      "keyID": 202,
      "inputKeyCode": 258,
      "abilityName": ""
    },
    {
      "keyID": 203,
      "inputKeyCode": 259,
      "abilityName": ""
    },
    {
      "keyID": 401,
      "inputKeyCode": 260,
      "abilityName": ""
    },
    {
      "keyID": 211,
      "inputKeyCode": 262,
      "abilityName": ""
    },
    {
      "keyID": 212,
      "inputKeyCode": 263,
      "abilityName": ""
    }
  ],
  "move": {
    "$type": "IPNMJMHDMPF",
    "facingMove": "FourDirection",
    "PKHOMJHFAEE": "RootNode"
  },
  "audio": {
    "overrideEmitterName": "",
    "animAudio": {},
    "disableEvent": {
      "text": ""
    },
    "destroyEvent": {
      "text": ""
    },
    "randomVariantSwitchGroup": {
      "text": ""
    },
    "randomVariantSwitchValues": [
      {
        "text": ""
      }
    ]
  }
}