{
  "common": {
    "effectAttachShape": {
      "$type": "FJNPJANPGGC",
      "mesh": "EffectMesh"
    },
    "mass": 1000000.0,
    "viewSize": 3.0,
    "affectedByWorld": true,
    "checkInSurface": true,
    "scale": 3.5,
    "useGrassDisplacement": true,
    "reconnectSupport": true
  },
  "dither": {
    "showDitherDuration": 1.0
  },
  "combat": {
    "property": {
      "endureType": "Monster_Demiboss_Other",
      "weight": 10000.0
    },
    "beHit": {
      "hitBloodEffect": ""
    },
    "combatLock": {
      "lockShape": "CircleLockEnemy",
      "lockType": "Avatar&Monster_Lv4"
    },
    "die": {
      "dieEndTime": 2.0,
      "dieForceDisappearTime": 10.0,
      "dieDisappearEffect": ""
    },
    "animEvents": {
      "RushAtk": {
        "attackPattern": {
          "$type": "BELNOFAKNBA",
          "triggerType": "TriggerNoRepeat",
          "born": {
            "$type": "IAENDIPDFKD",
            "offset": {
              "KGEPIMHBMOL": 0.0,
              "JEBHCGDPFEJ": 0.5,
              "LPCHALMFFOD": 0.25
            }
          },
          "OAHPDLJIADP": 0.6000000238418579
        },
        "attackInfo": {
          "attackTag": "",
          "attenuationTag": "",
          "attenuationGroup": "default",
          "attackProperty": {
            "actorGrassSubHurtDelta": 1.0,
            "actorWindSubHurtDelta": 0.0,
            "IPFJJJGABPL": 100.0,
            "strikeType": "Blunt",
            "attackType": "Melee",
            "GLKMCMDJBIK": 0.0
          },
          "hitPattern": {
            "onHitEffectName": "default",
            "hitImpulseY": "",
            "hitImpulseType": "LV4",
            "retreatType": "ByTangent",
            "canBeDefenceHalt": true
          }
        }
      },
      "MeleeAttack": {
        "attackPattern": {
          "$type": "JHKEHNJBMOF",
          "triggerType": "TriggerNoRepeat",
          "born": {
            "$type": "IAENDIPDFKD",
            "offset": {
              "KGEPIMHBMOL": 0.0,
              "JEBHCGDPFEJ": 1.5,
              "LPCHALMFFOD": 0.0
            }
          },
          "size": {
            "KGEPIMHBMOL": 4.0,
            "JEBHCGDPFEJ": 4.0,
            "LPCHALMFFOD": 7.0
          }
        },
        "attackInfo": {
          "attackTag": "",
          "attenuationTag": "",
          "attenuationGroup": "default",
          "attackProperty": {
            "actorGrassSubHurtDelta": 0.4000000059604645,
            "actorWindSubHurtDelta": 0.0,
            "IPFJJJGABPL": 100.0,
            "strikeType": "Blunt",
            "enBreak": 101.0,
            "attackType": "Melee",
            "GLKMCMDJBIK": 0.0
          },
          "hitPattern": {
            "onHitEffectName": "default",
            "hitImpulseY": "",
            "hitImpulseType": "LV5",
            "retreatType": "ByHitDirection",
            "canBeDefenceHalt": true
          }
        }
      },
      "JumpAttack": {
        "attackPattern": {
          "$type": "GMDIMKKHACA",
          "triggerType": "TriggerNoRepeat",
          "born": {
            "$type": "IAENDIPDFKD",
            "offset": {
              "KGEPIMHBMOL": 0.0,
              "JEBHCGDPFEJ": 0.0,
              "LPCHALMFFOD": 0.0
            }
          },
          "height": 4.0,
          "OAHPDLJIADP": 3.0
        },
        "attackInfo": {
          "attackTag": "",
          "attenuationTag": "",
          "attenuationGroup": "default",
          "attackProperty": {
            "actorGrassSubHurtDelta": 1.0,
            "actorWindSubHurtDelta": 0.0,
            "IPFJJJGABPL": 100.0,
            "strikeType": "Blunt",
            "enBreak": 101.0,
            "attackType": "Melee",
            "GLKMCMDJBIK": 0.0
          },
          "hitPattern": {
            "onHitEffectName": "default",
            "hitImpulseY": "",
            "hitImpulseType": "LV5",
            "retreatType": "ByHitDirection",
            "canBeDefenceHalt": true
          }
        }
      },
      "RushAtk_HitScene": {
        "attackPattern": {
          "$type": "JHKEHNJBMOF",
          "triggerType": "TriggerNoRepeat",
          "checkHitLayerType": "OnlyHitScene",
          "born": {
            "$type": "IAENDIPDFKD",
            "offset": {
              "KGEPIMHBMOL": 0.0,
              "JEBHCGDPFEJ": 2.0,
              "LPCHALMFFOD": 1.0
            }
          },
          "size": {
            "KGEPIMHBMOL": 5.0,
            "JEBHCGDPFEJ": 4.0,
            "LPCHALMFFOD": 6.0
          }
        }
      }
    },
    "summon": {
      "summonTags": [
        {
          "summonTag": 28020319,
          "name": "Boar_FunFight_SmallBoar"
        }
      ]
    }
  },
  "abilities": [
    {
      "abilityID": "RushTimer",
      "abilityName": "Animal_Boar_03_RushTimer",
      "abilityOverride": ""
    },
    {
      "abilityID": "RushAttackDamage",
      "abilityName": "Animal_Boar_03_RushAttackDamage_FunFightV3",
      "abilityOverride": ""
    },
    {
      "abilityID": "ThrowSnowBigBall",
      "abilityName": "Animal_Boar_03_ThrowSnowBigBall",
      "abilityOverride": ""
    },
    {
      "abilityID": "AngrySnowDrop",
      "abilityName": "Animal_Boar_03_CreateSnowDrop_FunFightV3",
      "abilityOverride": ""
    },
    {
      "abilityID": "JumpAttack",
      "abilityName": "Animal_Boar_03_JumpAttack",
      "abilityOverride": ""
    },
    {
      "abilityID": "BrotherThrow",
      "abilityName": "Animal_Boar_03_SummonBrotherThrow",
      "abilityOverride": ""
    },
    {
      "abilityID": "Animal_Boar_03_RushTimeBeSafe",
      "abilityName": "Animal_Boar_03_RushTimeBeSafe",
      "abilityOverride": ""
    },
    {
      "abilityID": "",
      "abilityName": "Animal_Boar_03_FunFightV3_Summon",
      "abilityOverride": ""
    },
    {
      "abilityID": "",
      "abilityName": "Animal_Boar_FunFightV3_RushStun",
      "abilityOverride": ""
    },
    {
      "abilityID": "",
      "abilityName": "Animal_Boar_03_FunFight_Angry",
      "abilityOverride": ""
    }
  ],
  "stateLayers": {
    "defaultLayer": {
      "$type": "GBGJJIIEMBD",
      "layerIndexName": "",
      "CPAANEIJCGD": "",
      "stateIDs": {
        "Born": {
          "$type": "NEDIFAKEGCO",
          "animatorStates": {
            "Born": []
          },
          "canDoSkill": true,
          "addEndure": 0.0,
          "resetAnimatorTriggerOnExit": [
            "DoSkill"
          ]
        },
        "NormalIdle": {
          "$type": "NEDIFAKEGCO",
          "animatorStates": {
            "Standby": []
          },
          "canDoSkill": true,
          "canSyncMove": true,
          "addEndure": 0.0,
          "resetAnimatorTriggerOnExit": [
            "DoSkill"
          ]
        },
        "NormalMove": {
          "$type": "NEDIFAKEGCO",
          "animatorStates": {
            "Walk": [
              "Audio_Boar_03_Walk"
            ],
            "Run": [
              "Audio_Boar_03_Run"
            ],
            "Disappear": []
          },
          "canDoSkill": true,
          "canSyncMove": true,
          "addEndure": 0.0,
          "resetAnimatorTriggerOnExit": [
            "DoSkill"
          ],
          "canSteer": true
        },
        "Turn": {
          "$type": "NEDIFAKEGCO",
          "animatorStates": {
            "TurnLeft": [
              "Audio_Boar_03_Walk"
            ],
            "TurnRight": [
              "Audio_Boar_03_Walk"
            ]
          },
          "canDoSkill": true,
          "canSyncMove": true,
          "addEndure": 0.0,
          "resetAnimatorTriggerOnExit": [
            "DoSkill"
          ],
          "canSteer": true,
          "autoSteer": true
        },
        "BeHit": {
          "$type": "NEDIFAKEGCO",
          "animatorStates": {
            "Hit_L": []
          },
          "resetAnimatorTriggerOnEnter": [
            "BeHit"
          ],
          "resetAnimatorTriggerOnExit": [
            "DoSkill"
          ]
        },
        "Die": {
          "$type": "NEDIFAKEGCO",
          "animatorStates": {
            "Die_Loop": [],
            "Die_BS": [
              "Audio_Boar_03_Die"
            ],
            "Die_AS": [
              "Animal_Boar_03_DieEffect",
              "Animal_Boar_03_Die"
            ],
            "Die_Disappear": [
              "Animal_Boar_Disappear",
              "Audio_Boar_03_Run"
            ]
          },
          "resetAnimatorTriggerOnEnter": [
            "DoSkill"
          ]
        },
        "Alert": {
          "$type": "NEDIFAKEGCO",
          "animatorStates": {
            "Alert": [
              "Animal_Boar_03_Alert",
              "Audio_Boar_03_Alert"
            ]
          },
          "canDoSkill": true,
          "addEndure": 0.0,
          "resetAnimatorTriggerOnExit": [
            "BeHit",
            "DoSkill"
          ]
        },
        "RushAtk_BS": {
          "$type": "NEDIFAKEGCO",
          "animatorStates": {
            "RushAtk1_BS": [
              "Animal_Boar_03_RushTimer",
              "Audio_Boar_03_RushAtk1_BS"
            ],
            "RushAtk2_BS": [
              "Animal_Boar_03_RushTimer",
              "Audio_Boar_03_RushAtk1_BS"
            ],
            "RushAtk3_BS": [
              "Animal_Boar_03_RushTimer",
              "Audio_Boar_03_RushAtk1_BS"
            ]
          },
          "addEndure": 0.0,
          "resetAnimatorTriggerOnExit": [
            "BeHit",
            "CrashTrigger",
            "ReachTarget"
          ],
          "canSteer": true
        },
        "RushAtk_Loop": {
          "$type": "NEDIFAKEGCO",
          "animatorStates": {
            "RushAtk1": [
              "Audio_Boar_03_RushAtk1"
            ],
            "RushAtk2": [
              "Audio_Boar_03_RushAtk1"
            ],
            "RushAtk3": [
              "Audio_Boar_03_RushAtk1"
            ]
          },
          "addEndure": 0.0,
          "resetAnimatorTriggerOnExit": [
            "BeHit",
            "DoSkill"
          ],
          "canSteer": true
        },
        "Crash": {
          "$type": "NEDIFAKEGCO",
          "animatorStates": {
            "Crash_BS": [
              "Audio_Boar_03_Crash_BS"
            ],
            "Crash_Loop": [],
            "Crash_AS": [
              "Audio_Boar_03_Crash_AS"
            ]
          },
          "addEndure": 0.0,
          "resetAnimatorTriggerOnExit": [
            "BeHit",
            "DoSkill",
            "CrashTrigger",
            "ReachTarget"
          ],
          "canSteer": true
        },
        "RushAtk_AS": {
          "$type": "NEDIFAKEGCO",
          "animatorStates": {
            "RushAtk1_AS": [
              "Animal_Boar_03_RushAS",
              "Audio_Boar_03_RushAtk1_AS"
            ],
            "RushAtk2_AS": [
              "Animal_Boar_03_RushAS",
              "Audio_Boar_03_RushAtk1_AS"
            ],
            "RushAtk3_AS": [
              "Animal_Boar_03_RushAS",
              "Audio_Boar_03_RushAtk1_AS"
            ]
          },
          "addEndure": 0.0,
          "resetAnimatorTriggerOnExit": [
            "BeHit",
            "DoSkill",
            "CrashTrigger",
            "ReachTarget"
          ],
          "canSteer": true
        },
        "MeleeAttackTurn": {
          "$type": "NEDIFAKEGCO",
          "animatorStates": {
            "MeleeAttackTurn": []
          },
          "addEndure": 0.0,
          "resetAnimatorTriggerOnExit": [
            "BeHit",
            "DoSkill"
          ],
          "canSteer": true
        },
        "MeleeAttack": {
          "$type": "NEDIFAKEGCO",
          "animatorStates": {
            "MeleeAttack": [
              "Animal_Boar_03_MeleeAttack",
              "Audio_Boar_03_MelwwAttack"
            ]
          },
          "addEndure": 0.0,
          "resetAnimatorTriggerOnExit": [
            "BeHit",
            "DoSkill"
          ],
          "canSteer": true
        },
        "True_Summon": {
          "$type": "NEDIFAKEGCO",
          "animatorStates": {
            "True_Summon": [
              "Animal_Oceanid_Boar_SummonFunFightV3",
              "Audio_Boar_03_Summon"
            ]
          },
          "addEndure": 0.0,
          "resetAnimatorTriggerOnExit": [
            "BeHit",
            "DoSkill"
          ],
          "canSteer": true
        },
        "ThrowSnowBall": {
          "$type": "NEDIFAKEGCO",
          "animatorStates": {
            "ThrowSnowBall": [
              "Animal_Boar_03_ThrowBigSnowBall",
              "Audio_Boar_03_ThrowSnowBall"
            ]
          },
          "addEndure": 0.0,
          "resetAnimatorTriggerOnExit": [
            "BeHit",
            "DoSkill"
          ],
          "canSteer": true
        },
        "AngrySnowDrop": {
          "$type": "NEDIFAKEGCO",
          "animatorStates": {
            "AngrySnowDrop": [
              "Animal_Boar_03_CreateSnowDrop_FunFightV3",
              "Audio_Boar_03_AngrySnowDrop"
            ]
          },
          "addEndure": 0.0,
          "resetAnimatorTriggerOnExit": [
            "BeHit",
            "DoSkill"
          ],
          "canSteer": true
        },
        "AngryState": {
          "$type": "NEDIFAKEGCO",
          "animatorStates": {
            "AngryState": [
              "Audio_Boar_03_AngryState"
            ]
          },
          "addEndure": 0.0,
          "resetAnimatorTriggerOnExit": [
            "BeHit",
            "DoSkill",
            "AngryTrigger"
          ]
        }
      }
    }
  },
  "billboard": {
    "$type": "DNGNMAJBCNP",
    "attachPoint": "BillboardAttach",
    "offset": {
      "y": 1.100000023841858
    },
    "showDistance": 1000.0,
    "elementStickUseShowDistanceInDungeon": true,
    "showHPBar": true,
    "size": "Grand"
  },
  "initialPoses": {
    "Default": {}
  },
  "aibeta": {
    "enable": true,
    "sensing": {
      "settings": {
        "DefaultSetting": {
          "viewRange": 25.0,
          "horizontalFov": 90.0,
          "verticalFov": 45.0,
          "feelRange": 10.0
        }
      }
    },
    "threat": {
      "GHIJMOKOLMB": "",
      "feelThreatGrow": 1000.0,
      "threatDecreaseSpeed": 500.0,
      "viewAttenuation": [
        {
          "x": 10.0,
          "y": 2.0
        },
        {
          "x": 15.0,
          "y": 1.25
        },
        {
          "x": 20.0,
          "y": 0.5
        }
      ],
      "abilityGlobalValueScoreSystem": {
        "weight": 100,
        "max": 1.0,
        "compareOperation": "Greater",
        "enable": true,
        "caredGlobalValueName": "_MONSTER_LOCK_FUNFIGHTV3"
      }
    },
    "defendArea": {
      "defendRange": 100.0
    },
    "skills": {
      "3": {
        "name": "OnAlert",
        "skillType": "OnAlert",
        "publicCDGroup": "",
        "ignoreGCD": true,
        "triggerGCD": false,
        "HHAGODJIAPE": "",
        "stateIDs": [
          "Alert"
        ],
        "flagTargetReachable": "10",
        "flagSelfOnTemplateCollider": "01",
        "flagSelfInZone": "10",
        "flagTargetInZone": "11"
      },
      "201": {
        "name": "RushAtk",
        "priority": 1,
        "castCondition": {
          "pose": [
            202
          ],
          "needReInitCD": true
        },
        "cd": 5.0,
        "initialCD": 10.0,
        "publicCDGroup": "",
        "ignoreGCD": true,
        "triggerGCD": false,
        "HHAGODJIAPE": "",
        "stateIDs": [
          "RushAtk_BS",
          "RushAtk_Loop",
          "RushAtk_AS",
          "Crash"
        ],
        "flagTargetReachable": "11",
        "flagSelfOnTemplateCollider": "01",
        "flagSelfInZone": "10",
        "flagTargetInZone": "11"
      },
      "202": {
        "name": "MeleeAttack",
        "priority": 3,
        "castCondition": {
          "pose": [
            201,
            202
          ],
          "pickRangeMax": 5.0,
          "skillAnchorRangeMax": 6.0
        },
        "cd": 2.0,
        "publicCDGroup": "",
        "ignoreGCD": true,
        "triggerGCD": false,
        "HHAGODJIAPE": "",
        "stateIDs": [
          "MeleeAttackTurn",
          "MeleeAttack"
        ],
        "flagTargetReachable": "11",
        "flagSelfOnTemplateCollider": "01",
        "flagSelfInZone": "10",
        "flagTargetInZone": "11"
      },
      "205": {
        "name": "AngrySnowDrop",
        "priority": 2,
        "castCondition": {
          "pose": [
            201
          ],
          "pickRangeMax": 50.0,
          "skillAnchorRangeMin": 6.0
        },
        "cd": 4.0,
        "initialCD": 5.0,
        "publicCDGroup": "",
        "HHAGODJIAPE": "",
        "stateIDs": [
          "AngrySnowDrop"
        ],
        "flagTargetReachable": "11",
        "flagSelfOnTemplateCollider": "01",
        "flagSelfInZone": "10",
        "flagTargetInZone": "11"
      },
      "206": {
        "name": "AngrySnowDrop",
        "priority": 2,
        "castCondition": {
          "pose": [
            201
          ],
          "pickRangeMax": 50.0,
          "skillAnchorRangeMax": 6.0
        },
        "cd": 20.0,
        "initialCD": 5.0,
        "publicCDGroup": "",
        "HHAGODJIAPE": "",
        "stateIDs": [
          "AngrySnowDrop"
        ],
        "flagTargetReachable": "11",
        "flagSelfOnTemplateCollider": "01",
        "flagSelfInZone": "10",
        "flagTargetInZone": "11"
      },
      "2003": {
        "name": "Summon",
        "priority": 1,
        "castCondition": {
          "pose": [
            201
          ],
          "needReInitCD": true
        },
        "cd": 15.0,
        "initialCD": 15.0,
        "publicCDGroup": "",
        "ignoreGCD": true,
        "triggerGCD": false,
        "HHAGODJIAPE": "",
        "stateIDs": [
          "True_Summon"
        ],
        "flagTargetReachable": "11",
        "flagSelfOnTemplateCollider": "01",
        "flagSelfInZone": "11",
        "flagTargetInZone": "11"
      },
      "1001": {
        "name": "Angry",
        "priority": 1,
        "castCondition": {
          "pose": [
            301
          ],
          "needReInitCD": true
        },
        "cd": 1.0,
        "publicCDGroup": "",
        "ignoreGCD": true,
        "triggerGCD": false,
        "HHAGODJIAPE": "",
        "stateIDs": [
          "AngryState"
        ],
        "flagTargetReachable": "11",
        "flagSelfOnTemplateCollider": "01",
        "flagSelfInZone": "11",
        "flagTargetInZone": "11"
      }
    },
    "skillGCD": 2.0,
    "birdCirclingTactic": [
      {
        "$type": "KACCHOLJDNK",
        "enable": true,
        "condition": {
          "pose": [
            201,
            202
          ]
        },
        "JMCOBEPDIGM": {
          "ANLAAGAMIKF": 1,
          "KHDFDAAAPEI": 5.0,
          "HKJODDGJPHA": 50.0,
          "GGEBMFHFBPO": 3.0,
          "KFFGCIMPNMJ": 0.0,
          "PKNJDNAGLNM": 0,
          "MNPDDAKDHGK": ""
        }
      },
      {
        "$type": "NNJKLGNPMNN",
        "enable": true
      },
      {
        "$type": "FPELBIJFGCE",
        "enable": true,
        "condition": {
          "pose": [
            1
          ]
        },
        "JMCOBEPDIGM": {
          "NBENNEKDIIA": 0.25,
          "KPNDPKIOPJM": 17.5,
          "PINAFKEDDLL": 12.5,
          "ANMPOPEBDIA": 10.0,
          "GMJFIMFFOEL": 3.0,
          "CHCPFDMADEI": 5.0,
          "MNPDDAKDHGK": ""
        }
      }
    ]
  },
  "inputKeys": [
    {
      "keyID": 202,
      "inputKeyCode": 257,
      "abilityName": ""
    },
    {
      "keyID": 201,
      "inputKeyCode": 258,
      "abilityName": ""
    },
    {
      "keyID": 2003,
      "inputKeyCode": 259,
      "abilityName": ""
    },
    {
      "keyID": 205,
      "inputKeyCode": 260,
      "abilityName": ""
    },
    {
      "keyID": 1001,
      "inputKeyCode": 261,
      "abilityName": ""
    }
  ]
}