{
  "common": {
    "effectAttachShape": {
      "$type": "FJNPJANPGGC",
      "mesh": "EffectMesh1"
    },
    "mass": 10000.0,
    "height": 2.0,
    "modelHeight": 2.700000047683716,
    "viewSize": 2.0,
    "affectedByWorld": true,
    "checkInSurface": true,
    "shouldPauseAnimatorBeforeReady": true,
    "useGrassDisplacement": true,
    "reconnectSupport": true,
    "recoverByInitPose": true
  },
  "specialPoint": {
    "elementAbsorb": "RootNode",
    "elementPendant": "",
    "elementDrop": "RootNode",
    "bulletAim": "BulletAim1"
  },
  "model": {
    "bornEffect": "",
    "attachEffect": "",
    "canBakeMesh": false,
    "BKPFGNPLDNJ": ""
  },
  "dither": {
    "showDitherDuration": 2.0
  },
  "combat": {
    "property": {
      "endureType": "Monster_Demiboss_Other",
      "weight": 101.0
    },
    "beHit": {
      "hitBloodEffect": ""
    },
    "combatLock": {
      "lockShape": "CircleLockEnemy",
      "lockType": "Avatar&Monster_Lv4"
    },
    "die": {
      "dieEndTime": 0.05000000074505806,
      "dieForceDisappearTime": 0.05000000074505806,
      "dieDisappearEffect": "",
      "muteHitBox": true,
      "dieDenyLockOn": true,
      "dieIsGhostToEnemy": true,
      "dieIgnoreTriggerBullet": true,
      "muteBillboard": true,
      "mutePushCollider": true
    },
    "animEvents": {
      "PushAttack": {
        "attackPattern": {
          "$type": "GMDIMKKHACA",
          "triggerType": "TriggerNoRepeat",
          "born": {
            "$type": "IAENDIPDFKD",
            "useRotation": true
          },
          "height": 3.0,
          "OAHPDLJIADP": 3.0
        },
        "attackInfo": {
          "attackTag": "",
          "attenuationTag": "PushAtk",
          "attenuationGroup": "Oceanid_Crab_WaterStream",
          "attackProperty": {
            "actorGrassSubHurtDelta": 1.0,
            "actorWindSubHurtDelta": 0.0,
            "elementType": "Water",
            "IPFJJJGABPL": 50.0,
            "strikeType": "Blunt",
            "enBreak": 101.0,
            "attackType": "Melee",
            "GLKMCMDJBIK": 0.0
          },
          "hitPattern": {
            "onHitEffectName": "default",
            "hitImpulseY": "",
            "hitImpulseType": "LV4"
          }
        }
      }
    }
  },
  "abilities": [
    {
      "abilityID": "",
      "abilityName": "Monster_Necalevia_SmallTransformToBig",
      "abilityOverride": ""
    },
    {
      "abilityID": "",
      "abilityName": "Monster_Necalevia_SmallBreakToBig",
      "abilityOverride": ""
    },
    {
      "abilityID": "",
      "abilityName": "Monster_Necalevia_AngrySystem",
      "abilityOverride": ""
    },
    {
      "abilityID": "",
      "abilityName": "Monster_Necalevia_ElementInitial",
      "abilityOverride": ""
    },
    {
      "abilityID": "",
      "abilityName": "Monster_Necalevia_Steer",
      "abilityOverride": ""
    },
    {
      "abilityID": "",
      "abilityName": "Monster_Necalevia_ReleaseRangeBullet",
      "abilityOverride": ""
    },
    {
      "abilityID": "",
      "abilityName": "Necalevia_ReleaseAOERangeAtk",
      "abilityOverride": ""
    },
    {
      "abilityID": "",
      "abilityName": "Monster_Necalevia_Big_PushSkin",
      "abilityOverride": ""
    },
    {
      "abilityID": "",
      "abilityName": "Monster_Necalevia_Small_ReleaseRangeBullet",
      "abilityOverride": ""
    },
    {
      "abilityID": "",
      "abilityName": "Monster_Necalevia_BeforeBattleShow",
      "abilityOverride": ""
    },
    {
      "abilityID": "",
      "abilityName": "Monster_Common_WaterMuteHurt",
      "abilityOverride": ""
    },
    {
      "abilityID": "",
      "abilityName": "Monster_Necalevia_ReleaseRangeBullet_SP",
      "abilityOverride": ""
    },
    {
      "abilityID": "",
      "abilityName": "Necalevia_AOERangeMulti_CheckTargetNear",
      "abilityOverride": ""
    },
    {
      "abilityID": "",
      "abilityName": "Monster_Necalevia_BigSP_Steer",
      "abilityOverride": ""
    },
    {
      "abilityID": "",
      "abilityName": "Monster_Necalevia_PushAtk_SP",
      "abilityOverride": ""
    },
    {
      "abilityID": "",
      "abilityName": "Monster_Necalevia_Big_InitialTransform",
      "abilityOverride": ""
    }
  ],
  "stateLayers": {
    "defaultLayer": {
      "$type": "GBGJJIIEMBD",
      "layerIndexName": "",
      "CPAANEIJCGD": "",
      "stateIDs": {
        "Born": {
          "$type": "NEDIFAKEGCO",
          "animatorStates": {
            "Born": []
          },
          "canSyncMove": true,
          "resetAnimatorTriggerOnEnter": [
            "ShakeTrigger"
          ],
          "resetAnimatorTriggerOnExit": [
            "DoSkill"
          ]
        },
        "NormalIdle": {
          "$type": "NEDIFAKEGCO",
          "animatorStates": {
            "Standby": [],
            "Standby_Big": []
          },
          "canDoSkill": true,
          "canSyncMove": true,
          "resetAnimatorTriggerOnExit": [
            "DoSkill"
          ],
          "canSteer": true,
          "autoSteer": true
        },
        "StandbyFree": {
          "$type": "NEDIFAKEGCO",
          "animatorStates": {
            "StandbyFree": []
          },
          "canDoSkill": true,
          "canSyncMove": true,
          "resetAnimatorTriggerOnExit": [
            "DoSkill"
          ]
        },
        "WalkFree": {
          "$type": "NEDIFAKEGCO",
          "animatorStates": {
            "WalkFree": []
          },
          "canDoSkill": true,
          "canSyncMove": true,
          "resetAnimatorTriggerOnExit": [
            "DoSkill"
          ],
          "canSteer": true
        },
        "NormalMove": {
          "$type": "NEDIFAKEGCO",
          "animatorStates": {
            "WalkF": [],
            "WalkF_Big": []
          },
          "canDoSkill": true,
          "canSyncMove": true,
          "resetAnimatorTriggerOnExit": [
            "DoSkill"
          ],
          "canSteer": true
        },
        "Die": {
          "$type": "NEDIFAKEGCO",
          "animatorStates": {
            "Die": [
              "Audio_Monster_Necalevia_Normal_01_Die_Stop"
            ]
          },
          "resetAnimatorTriggerOnEnter": [
            "DoSkill"
          ]
        },
        "Alert": {
          "$type": "NEDIFAKEGCO",
          "animatorStates": {
            "Alert": [
              "Audio_Monster_Necalevia_Normal_01_Alert"
            ]
          },
          "resetAnimatorTriggerOnExit": [
            "BeHit",
            "DoSkill"
          ],
          "canSteer": true
        },
        "Personality1_BS": {
          "$type": "NEDIFAKEGCO",
          "animatorStates": {
            "Personality1_BS": [
              "Audio_Monster_Necalevia_Big_01_Personality1_BS"
            ]
          },
          "canDoSkill": true,
          "resetAnimatorTriggerOnExit": [
            "DoSkill"
          ]
        },
        "Personality1_Loop": {
          "$type": "NEDIFAKEGCO",
          "animatorStates": {
            "Personality1_Loop": [
              "Audio_Monster_Necalevia_Big_01_Personality1_Loop"
            ]
          },
          "canDoSkill": true,
          "resetAnimatorTriggerOnExit": [
            "DoSkill"
          ]
        },
        "Personality1_AS": {
          "$type": "NEDIFAKEGCO",
          "animatorStates": {
            "Personality1_AS": [
              "Audio_Monster_Necalevia_Big_01_Personality1_AS"
            ]
          },
          "canDoSkill": true,
          "resetAnimatorTriggerOnExit": [
            "DoSkill"
          ]
        },
        "Personality2": {
          "$type": "NEDIFAKEGCO",
          "animatorStates": {
            "Personality2": []
          },
          "canDoSkill": true,
          "resetAnimatorTriggerOnExit": [
            "DoSkill"
          ]
        },
        "Personality3": {
          "$type": "NEDIFAKEGCO",
          "animatorStates": {
            "Personality3": [
              "Audio_Monster_Necalevia_Normal_01_Personality3"
            ]
          },
          "canDoSkill": true,
          "resetAnimatorTriggerOnExit": [
            "DoSkill"
          ]
        },
        "TransformToBig_BS": {
          "$type": "NEDIFAKEGCO",
          "animatorStates": {
            "TransformToBig_BS": [
              "Monster_Necalevia_Big_TransformEff",
              "Audio_Monster_Necalevia_Big_01_TransformToBig_BS"
            ]
          },
          "cullingModelAlwaysAnimate": true,
          "resetAnimatorTriggerOnExit": [
            "DoSkill"
          ]
        },
        "TransformToBig_AS": {
          "$type": "NEDIFAKEGCO",
          "animatorStates": {
            "TransformToBig_AS": [
              "Audio_Monster_Necalevia_Big_01_TransformToBig_AS"
            ]
          },
          "cullingModelAlwaysAnimate": true,
          "resetAnimatorTriggerOnExit": [
            "DoSkill"
          ]
        },
        "BreakToBig_BS": {
          "$type": "NEDIFAKEGCO",
          "animatorStates": {
            "BreakToBig_BS": [
              "Monster_Necalevia_Big_BreakFreeze",
              "Audio_Monster_Necalevia_Big_01_BreakToBig_AS"
            ]
          },
          "cullingModelAlwaysAnimate": true,
          "resetAnimatorTriggerOnExit": [
            "DoSkill"
          ]
        },
        "BreakToBig_AS": {
          "$type": "NEDIFAKEGCO",
          "animatorStates": {
            "BreakToBig_AS": [
              "Audio_Monster_Necalevia_Big_01_BreakToBig_AS"
            ]
          },
          "cullingModelAlwaysAnimate": true,
          "resetAnimatorTriggerOnExit": [
            "DoSkill"
          ]
        },
        "BigChangeToSmall_BS": {
          "$type": "NEDIFAKEGCO",
          "animatorStates": {
            "BigChangeToSmall_BS": [
              "Audio_Monster_Necalevia_Big_01_BigChangeToSmall_BS"
            ]
          },
          "cullingModelAlwaysAnimate": true,
          "resetAnimatorTriggerOnExit": [
            "DoSkill"
          ]
        },
        "BigChangeToSmall_AS": {
          "$type": "NEDIFAKEGCO",
          "animatorStates": {
            "BigChangeToSmall_AS": [
              "Audio_Monster_Necalevia_Big_01_BigChangeToSmall_AS"
            ]
          },
          "cullingModelAlwaysAnimate": true,
          "resetAnimatorTriggerOnExit": [
            "DoSkill"
          ]
        },
        "SmallAttack": {
          "$type": "NEDIFAKEGCO",
          "animatorStates": {
            "SmallAttack": [
              "Monster_Necalevia_SmallAttack",
              "Audio_Monster_Necalevia_Normal_01_SmallAttack"
            ]
          },
          "resetAnimatorTriggerOnExit": [
            "DoSkill"
          ]
        },
        "NormalRangeAttack": {
          "$type": "NEDIFAKEGCO",
          "animatorStates": {
            "NormalRangeAttack": [
              "Monster_Necalevia_Big_RangeAtk_SP",
              "Audio_Monster_Necalevia_Big_01_NormalRangeAttack"
            ]
          },
          "resetAnimatorTriggerOnExit": [
            "DoSkill",
            "ShakeTrigger"
          ]
        },
        "PushAttack": {
          "$type": "NEDIFAKEGCO",
          "animatorStates": {
            "PushAttack": [
              "Monster_Necalevia_Big_PushAttack",
              "Monster_Necalevia_PushAtk_SP",
              "Audio_Monster_Necalevia_Big_01_PushAttack"
            ]
          },
          "resetAnimatorTriggerOnExit": [
            "DoSkill",
            "GoIceFake"
          ]
        },
        "AOENear_PushAttack": {
          "$type": "NEDIFAKEGCO",
          "animatorStates": {
            "AOENear_PushAttack": [
              "Monster_Necalevia_Big_PushAttack",
              "Monster_Necalevia_PushAtk_SP",
              "Audio_Monster_Necalevia_Big_01_PushAttack"
            ]
          },
          "resetAnimatorTriggerOnExit": [
            "DoSkill",
            "GoIceFake"
          ]
        },
        "RangeAOEAttack_BS": {
          "$type": "NEDIFAKEGCO",
          "animatorStates": {
            "RangeAOEAttack_BS": [
              "Monster_Necalevia_Big_RangeAOE",
              "Audio_Monster_Necalevia_Big_01_RangeAOEAttack_BS"
            ]
          },
          "cullingModelAlwaysAnimate": true,
          "resetAnimatorTriggerOnEnter": [
            "TargetNear"
          ],
          "resetAnimatorTriggerOnExit": [
            "DoSkill"
          ]
        },
        "RangeAOEAttack_Loop": {
          "$type": "NEDIFAKEGCO",
          "animatorStates": {
            "RangeAOEAttack_Loop": []
          },
          "cullingModelAlwaysAnimate": true,
          "resetAnimatorTriggerOnExit": [
            "DoSkill"
          ]
        },
        "RangeAOEAttack_AS": {
          "$type": "NEDIFAKEGCO",
          "animatorStates": {
            "RangeAOEAttack_AS": [
              "Audio_Monster_Necalevia_Big_01_RangeAOEAttack_AS"
            ]
          },
          "cullingModelAlwaysAnimate": true,
          "resetAnimatorTriggerOnExit": [
            "DoSkill"
          ]
        },
        "OutOfBattle": {
          "$type": "NEDIFAKEGCO",
          "animatorStates": {
            "OutOfBattle": [
              "Audio_Monster_Necalevia_Normal_01_OutOfBattle"
            ]
          },
          "resetAnimatorTriggerOnExit": [
            "DoSkill"
          ]
        }
      }
    }
  },
  "billboard": {
    "$type": "DNGNMAJBCNP",
    "attachPoint": "BillboardAttach",
    "offsetType": "Character",
    "showHPBar": true,
    "forceShowDistance": 50.0,
    "size": "Big"
  },
  "initialPoses": {
    "Default": {
      "initialPoseID": 1
    },
    "Happy": {
      "initialPoseID": 2,
      "initialPoseParams": {
        "boolParams": {
          "Happy": "true"
        }
      }
    },
    "Communicate": {
      "initialPoseID": 3,
      "initialPoseParams": {
        "boolParams": {
          "Communicate": "true"
        }
      }
    },
    "Warning": {
      "initialPoseID": 4,
      "initialPoseParams": {
        "boolParams": {
          "Warning": "true"
        }
      }
    }
  },
  "aibeta": {
    "enable": true,
    "sensing": {
      "settings": {
        "DefaultSetting": {
          "feelRange": 30.0
        },
        "NeverCombat": {
          "enableVision": false,
          "hearAttractionRange": 0.0,
          "feelRange": 0.0,
          "sourcelessHitAttractionRange": 50.0
        },
        "LowAlert": {
          "viewRange": 15.0,
          "feelRange": 10.0
        }
      },
      "templates": {
        "DefaultTemplate": {
          "DefaultPoses": "DefaultSetting",
          "2": "DefaultSetting",
          "3": "DefaultSetting",
          "4": "DefaultSetting"
        },
        "NeverCombatTemplate": {
          "DefaultPoses": "DefaultSetting"
        },
        "LowAlert": {
          "DefaultPoses": "LowAlert"
        }
      }
    },
    "neurons": {
      "DefaultSetting": [
        "HIT"
      ],
      "NeverCombat": []
    },
    "threat": {
      "GHIJMOKOLMB": "",
      "clearThreatByLostPath": true,
      "clearThreatByTargetOutOfZone": true,
      "clearThreatTimerByLostPath": 11.0,
      "clearThreatTimerByTargetOutOfZone": 4.0,
      "viewAttenuation": [
        {
          "x": 10.0,
          "y": 2.0
        },
        {
          "x": 15.0,
          "y": 0.800000011920929
        },
        {
          "x": 20.0,
          "y": 0.5
        },
        {
          "x": 25.0,
          "y": 0.30000001192092896
        },
        {
          "x": 30.0,
          "y": 0.20000000298023224
        }
      ],
      "resistTauntLevel": "Monster_TauntLevel_4"
    },
    "defendArea": {
      "defendRange": 50.0
    },
    "network": {
      "syncSkill": true
    },
    "skills": {
      "101": {
        "name": "NormalRangeAttack",
        "priority": 2,
        "castCondition": {
          "pose": [
            102
          ],
          "pickRangeMin": 3.0,
          "pickRangeMax": 20.0
        },
        "cd": 1.0,
        "initialCD": 2.0,
        "publicCDGroup": "",
        "HHAGODJIAPE": "",
        "stateIDs": [
          "NormalRangeAttack"
        ],
        "skillQueryingTime": 3.0,
        "flagTargetReachable": "11",
        "flagSelfOnTemplateCollider": "01",
        "flagSelfInZone": "11",
        "flagTargetInZone": "11"
      },
      "102": {
        "name": "PushAttack",
        "priority": 2,
        "castCondition": {
          "pose": [
            102
          ],
          "pickRangeMax": 3.0
        },
        "cd": 1.0,
        "cdUpperRange": 2.0,
        "initialCD": 1.0,
        "publicCDGroup": "",
        "HHAGODJIAPE": "",
        "stateIDs": [
          "PushAttack"
        ],
        "skillQueryingTime": 3.0,
        "flagTargetReachable": "10",
        "flagSelfOnTemplateCollider": "01",
        "flagSelfInZone": "10",
        "flagTargetInZone": "11"
      },
      "103": {
        "name": "RangeAOEAttack",
        "priority": 3,
        "castCondition": {
          "pose": [
            102
          ],
          "pickRangeMin": 5.0,
          "pickRangeMax": 20.0
        },
        "cd": 3.0,
        "cdUpperRange": 3.0,
        "initialCD": 1.0,
        "publicCDGroup": "",
        "HHAGODJIAPE": "",
        "stateIDs": [
          "RangeAOEAttack_BS",
          "RangeAOEAttack_Loop",
          "RangeAOEAttack_AS"
        ],
        "skillQueryingTime": 3.0,
        "flagTargetReachable": "10",
        "flagSelfOnTemplateCollider": "01",
        "flagSelfInZone": "10",
        "flagTargetInZone": "11"
      },
      "9000": {
        "name": "TransformToBig",
        "priority": 1,
        "castCondition": {
          "pose": [
            101
          ],
          "needReInitCD": true
        },
        "publicCDGroup": "",
        "ignoreGCD": true,
        "triggerGCD": false,
        "HHAGODJIAPE": "",
        "stateIDs": [
          "TransformToBig_BS",
          "TransformToBig_AS"
        ],
        "skillQueryingTime": 3.0,
        "flagTargetReachable": "11",
        "flagSelfOnTemplateCollider": "01",
        "flagSelfInZone": "11",
        "flagTargetInZone": "11"
      },
      "9001": {
        "name": "BreakToBig",
        "faceTarget": true,
        "castCondition": {
          "pose": [
            999
          ]
        },
        "cd": 10.0,
        "cdUpperRange": 5.0,
        "initialCD": 5.0,
        "publicCDGroup": "",
        "ignoreGCD": true,
        "triggerGCD": false,
        "HHAGODJIAPE": "",
        "stateIDs": [
          "BreakToBig_BS",
          "BreakToBig_AS"
        ],
        "skillQueryingTime": 3.0,
        "flagTargetReachable": "10",
        "flagSelfOnTemplateCollider": "01",
        "flagSelfInZone": "10",
        "flagTargetInZone": "11"
      }
    },
    "skillGCD": 3.0,
    "birdCirclingTactic": [
      {
        "$type": "KACCHOLJDNK",
        "enable": true,
        "condition": {
          "pose": [
            101,
            102
          ]
        },
        "JMCOBEPDIGM": {
          "ANLAAGAMIKF": 1,
          "HKJODDGJPHA": 99.0,
          "GGEBMFHFBPO": 10.0,
          "KFFGCIMPNMJ": 0.0,
          "MNPDDAKDHGK": ""
        }
      },
      {
        "$type": "NNJKLGNPMNN",
        "enable": true,
        "JMCOBEPDIGM": {
          "ANLAAGAMIKF": 1,
          "OJGLKPBCLGB": 4.0,
          "MNPDDAKDHGK": "",
          "GJDMDHIBCME": ""
        }
      },
      {
        "$type": "FPELBIJFGCE",
        "enable": true,
        "condition": {
          "pose": [
            4
          ]
        },
        "JMCOBEPDIGM": {
          "NBENNEKDIIA": 1.0,
          "KPNDPKIOPJM": 5.0,
          "PINAFKEDDLL": 2.5,
          "ANMPOPEBDIA": 15.0,
          "GMJFIMFFOEL": 5.0,
          "CHCPFDMADEI": 7.5,
          "MNPDDAKDHGK": ""
        }
      }
    ]
  },
  "inputKeys": [
    {
      "keyID": 101,
      "inputKeyCode": 257,
      "abilityName": ""
    },
    {
      "keyID": 102,
      "inputKeyCode": 258,
      "abilityName": ""
    },
    {
      "keyID": 103,
      "inputKeyCode": 259,
      "abilityName": ""
    },
    {
      "keyID": 9000,
      "inputKeyCode": 260,
      "abilityName": ""
    },
    {
      "keyID": 9001,
      "inputKeyCode": 261,
      "abilityName": ""
    },
    {
      "keyID": 9002,
      "inputKeyCode": 262,
      "abilityName": ""
    },
    {
      "keyID": 2,
      "inputKeyCode": 263,
      "abilityName": ""
    },
    {
      "keyID": 3,
      "inputKeyCode": 264,
      "abilityName": ""
    },
    {
      "keyID": 4,
      "inputKeyCode": 265,
      "abilityName": ""
    },
    {
      "keyID": 100,
      "inputKeyCode": 266,
      "abilityName": ""
    },
    {
      "keyID": 10002,
      "inputKeyCode": 267,
      "abilityName": ""
    },
    {
      "keyID": 302,
      "inputKeyCode": 268,
      "abilityName": ""
    },
    {
      "keyID": 402,
      "inputKeyCode": 269,
      "abilityName": ""
    },
    {
      "keyID": 502,
      "inputKeyCode": 270,
      "abilityName": ""
    },
    {
      "keyID": 1004,
      "inputKeyCode": 271,
      "abilityName": ""
    }
  ],
  "move": {
    "$type": "IPNMJMHDMPF",
    "velocityForce": {
      "excludeForces": [
        "RetreatAirType"
      ]
    },
    "moveOnWater": true,
    "facingMove": "FourDirection",
    "yawSpeedRatio": 1.0,
    "PKHOMJHFAEE": "RootNode"
  },
  "audio": {
    "overrideEmitterName": "",
    "animAudio": {
      "onTransitionIn": [
        {
          "currentStateName": "RangeAOEAttack_Loop",
          "audioEvent": {
            "text": "Play_Sfx_Monster_Necalevia_Big_01_RangeAOEAttack_Loop_LP"
          },
          "otherStateNames": [
            "RangeAOEAttack_Loop"
          ],
          "usage": "Except"
        }
      ],
      "onTransitionOut": [
        {
          "currentStateName": "RangeAOEAttack_Loop",
          "audioEvent": {
            "text": "Stop_Sfx_Monster_Necalevia_Big_01_RangeAOEAttack_Loop_LP"
          },
          "otherStateNames": [
            "RangeAOEAttack_Loop"
          ],
          "usage": "Except"
        }
      ]
    },
    "disableEvent": {
      "text": ""
    },
    "destroyEvent": {
      "text": ""
    }
  }
}