{
  "common": {
    "effectAttachShape": {
      "$type": "FJNPJANPGGC",
      "mesh": "EffectMesh"
    },
    "mass": 30.0,
    "affectedByWorld": true,
    "checkInSurface": true,
    "shouldPauseAnimatorBeforeReady": true,
    "clearAnimatorOnSetLightDeactive": true,
    "clearAIOnSetLightDeactive": true
  },
  "dither": {
    "normalBetweenCamera": {
      "detectDitherRange": 5.0
    }
  },
  "combat": {
    "property": {
      "endureType": "Monster_Grunt_Humanoid",
      "weight": 75.0
    },
    "beHit": {
      "hitBloodEffect": ""
    },
    "combatLock": {
      "lockShape": "CircleLockEnemy",
      "lockType": "Avatar&Monster_Lv4"
    },
    "die": {
      "hasAnimatorDie": true,
      "dieEndTime": 2.0,
      "dieForceDisappearTime": 4.0,
      "dieDisappearEffect": "Eff_Death_Common",
      "dieShaderData": "MonsterDie",
      "muteHitBox": true,
      "dieDenyLockOn": true,
      "dieIsGhostToEnemy": true,
      "dieIgnoreTriggerBullet": true,
      "muteBillboard": true,
      "mutePushCollider": true
    }
  },
  "equipController": {
    "sheathPoint": "",
    "attachPoints": {
      "equip01": "WeaponR",
      "equip02": "WeaponL"
    }
  },
  "abilities": [
    {
      "abilityID": "Alert",
      "abilityName": "Monster_Abyss_Alert",
      "abilityOverride": ""
    },
    {
      "abilityID": "SacrificeAlert",
      "abilityName": "Abyss_Fire_SacrificeAlert",
      "abilityOverride": ""
    },
    {
      "abilityID": "Cyclone",
      "abilityName": "Abyss_Fire_Cyclone",
      "abilityOverride": ""
    },
    {
      "abilityID": "FireEnergy",
      "abilityName": "Abyss_Fire_FireEnergy",
      "abilityOverride": ""
    },
    {
      "abilityID": "BlinkEffect",
      "abilityName": "Abyss_Fire_BlinkEffect",
      "abilityOverride": ""
    },
    {
      "abilityID": "BlinkPoint",
      "abilityName": "Abyss_Fire_BlinkPoint",
      "abilityOverride": ""
    },
    {
      "abilityID": "DoBlink",
      "abilityName": "Abyss_Fire_DoBlink",
      "abilityOverride": ""
    },
    {
      "abilityID": "DoBlink_Visible",
      "abilityName": "Abyss_Fire_DoBlink_Visible",
      "abilityOverride": ""
    },
    {
      "abilityID": "DoBlink_Damage",
      "abilityName": "Abyss_Fire_DoBlink_Damage",
      "abilityOverride": ""
    },
    {
      "abilityID": "Blink_AS",
      "abilityName": "Abyss_Fire_Blink_AS",
      "abilityOverride": ""
    },
    {
      "abilityID": "ForceDefend",
      "abilityName": "Abyss_Fire_ForceDefend",
      "abilityOverride": ""
    },
    {
      "abilityID": "ForceBlink",
      "abilityName": "Abyss_Fire_ForceBlink",
      "abilityOverride": ""
    },
    {
      "abilityID": "ForceBlink_DoBlink",
      "abilityName": "Abyss_Fire_ForceBlink_DoBlink",
      "abilityOverride": ""
    },
    {
      "abilityID": "ForceBlink_Visible",
      "abilityName": "Abyss_Fire_ForceBlink_Visible",
      "abilityOverride": ""
    },
    {
      "abilityID": "ForceBlink_AS",
      "abilityName": "Abyss_Fire_ForceBlink_AS",
      "abilityOverride": ""
    },
    {
      "abilityID": "ElementShield",
      "abilityName": "Abyss_Fire_ElementShield",
      "abilityOverride": ""
    },
    {
      "abilityID": "ElementShield_Effect",
      "abilityName": "Abyss_Fire_ElementShield_Effect",
      "abilityOverride": ""
    },
    {
      "abilityID": "ElementShield_Remove",
      "abilityName": "Abyss_Fire_ElementShield_Remove",
      "abilityOverride": ""
    },
    {
      "abilityID": "DizzyTimer",
      "abilityName": "Abyss_Fire_DizzyTimer",
      "abilityOverride": ""
    },
    {
      "abilityID": "GatherStart",
      "abilityName": "Abyss_Fire_GatherStart",
      "abilityOverride": ""
    },
    {
      "abilityID": "GatherLoop",
      "abilityName": "Abyss_Fire_GatherLoop",
      "abilityOverride": ""
    },
    {
      "abilityID": "GatherAlert",
      "abilityName": "Abyss_Fire_GatherAlert",
      "abilityOverride": ""
    },
    {
      "abilityID": "GatherSuccess",
      "abilityName": "Abyss_Fire_GatherSuccess",
      "abilityOverride": ""
    },
    {
      "abilityID": "AnimationSteer",
      "abilityName": "Abyss_Fire_AnimationSteer",
      "abilityOverride": ""
    },
    {
      "abilityID": "ReturnToBorn",
      "abilityName": "Abyss_Fire_ReturnToBorn",
      "abilityOverride": ""
    },
    {
      "abilityID": "ReturnToBorn_AS",
      "abilityName": "Abyss_Fire_ReturnToBorn_AS",
      "abilityOverride": ""
    },
    {
      "abilityID": "ReturnToBorn_Visible",
      "abilityName": "Abyss_Fire_ReturnToBorn_Visible",
      "abilityOverride": ""
    },
    {
      "abilityID": "ReturnToBorn_ElementShield",
      "abilityName": "Abyss_Fire_ReturnToBorn_ElementShield",
      "abilityOverride": ""
    },
    {
      "abilityID": "ElementShield_Remove_NoBroken",
      "abilityName": "Abyss_Fire_ElementShield_Remove_NoBroken",
      "abilityOverride": ""
    },
    {
      "abilityID": "Monster_Abyss_SpecialsState",
      "abilityName": "Monster_Abyss_SpecialsState",
      "abilityOverride": ""
    },
    {
      "abilityID": "Monster_Abyss_Fire_SpecialsState",
      "abilityName": "Monster_Abyss_Fire_SpecialsState",
      "abilityOverride": ""
    },
    {
      "abilityID": "Monster_Abyss_ActionPointRegister",
      "abilityName": "Monster_Abyss_ActionPointRegister",
      "abilityOverride": ""
    },
    {
      "abilityID": "Monster_Abyss_Sacrifice_NeuronBroadcaster",
      "abilityName": "Monster_Abyss_Sacrifice_NeuronBroadcaster",
      "abilityOverride": ""
    },
    {
      "abilityID": "Monster_Abyss_Disappear",
      "abilityName": "Abyss_Fire_Disappear",
      "abilityOverride": ""
    },
    {
      "abilityID": "Monster_Abyss_TurnToSacrifice",
      "abilityName": "Monster_Abyss_TurnToSacrifice",
      "abilityOverride": ""
    },
    {
      "abilityID": "Monster_Abyss_OutOfSacrifice",
      "abilityName": "Monster_Abyss_OutOfSacrifice",
      "abilityOverride": ""
    },
    {
      "abilityID": "Monster_Abyss_Sacrifice_Effect",
      "abilityName": "Monster_Abyss_Sacrifice_Effect",
      "abilityOverride": ""
    },
    {
      "abilityID": "",
      "abilityName": "Monster_Natsaurus_Mosasaurus_PhilstonManager",
      "abilityOverride": ""
    }
  ],
  "stateLayers": {
    "defaultLayer": {
      "$type": "GBGJJIIEMBD",
      "layerIndexName": "",
      "CPAANEIJCGD": "",
      "stateIDs": {
        "Born": {
          "$type": "NEDIFAKEGCO",
          "animatorStates": {
            "Born": [
              "Monster_Abyss_Fire_Born"
            ]
          },
          "canDoSkill": true,
          "canSyncMove": true,
          "resetAnimatorTriggerOnExit": [
            "DoSkill"
          ]
        },
        "NormalIdle": {
          "$type": "NEDIFAKEGCO",
          "animatorStates": {
            "Standby": []
          },
          "canDoSkill": true,
          "canSyncMove": true,
          "resetAnimatorTriggerOnExit": [
            "DoSkill"
          ],
          "canSteer": true,
          "autoSteer": true
        },
        "Standby_Dizzy": {
          "$type": "NEDIFAKEGCO",
          "animatorStates": {
            "Standby_Dizzy": []
          },
          "canDoSkill": true,
          "canSyncMove": true,
          "resetAnimatorTriggerOnExit": [
            "DoSkill"
          ]
        },
        "NormalMove": {
          "$type": "NEDIFAKEGCO",
          "animatorStates": {
            "Walk": [
              "Audio_Abyss_Walk"
            ]
          },
          "canDoSkill": true,
          "canSyncMove": true,
          "resetAnimatorTriggerOnExit": [
            "DoSkill"
          ],
          "canSteer": true
        },
        "BeHit": {
          "$type": "NEDIFAKEGCO",
          "animatorStates": {
            "Hit_L": [
              "Audio_Abyss_Hit_L"
            ],
            "Hit_H": [
              "Audio_Abyss_Hit_H"
            ]
          },
          "resetAnimatorTriggerOnEnter": [
            "BeHit"
          ],
          "resetAnimatorTriggerOnExit": [
            "DoSkill"
          ]
        },
        "BeHitThrow": {
          "$type": "NEDIFAKEGCO",
          "animatorStates": {
            "HitThrow": [
              "Audio_Abyss_HitThrow"
            ],
            "HitThrowDrop": [],
            "HitThrowToGround": [
              "Audio_Abyss_HitThrowToGround"
            ]
          },
          "resetAnimatorTriggerOnEnter": [
            "BeHit",
            "HitAir2HitDrop"
          ],
          "resetAnimatorTriggerOnExit": [
            "DoSkill"
          ]
        },
        "Struggle": {
          "$type": "NEDIFAKEGCO",
          "animatorStates": {
            "Struggle": []
          },
          "resetAnimatorTriggerOnEnter": [
            "BeHit",
            "HitAir2HitDrop"
          ],
          "resetAnimatorTriggerOnExit": [
            "DoSkill"
          ]
        },
        "Die": {
          "$type": "NEDIFAKEGCO",
          "animatorStates": {
            "Die": [
              "Monster_Abyss_Die",
              "Audio_Abyss_Die"
            ],
            "FallingDie": [
              "Monster_Abyss_Die",
              "Audio_Abyss_FallingDie"
            ],
            "SwimDie": [
              "Monster_Abyss_SwimDie"
            ],
            "AirDie": [
              "Monster_Abyss_AirDie",
              "Audio_Abyss_Die"
            ],
            "Disappear": [
              "Monster_Abyss_Fire_Disappear",
              "Audio_Abyss_Fire_Blink_BS"
            ]
          }
        },
        "Alert": {
          "$type": "NEDIFAKEGCO",
          "animatorStates": {
            "Alert": [
              "Monster_Abyss_Alert",
              "Audio_Abyss_Alert"
            ]
          },
          "addEndure": 0.0,
          "resetAnimatorTriggerOnExit": [
            "BeHit",
            "DoSkill"
          ]
        },
        "SacrificeAlert": {
          "$type": "NEDIFAKEGCO",
          "animatorStates": {
            "Aware": [
              "Monster_Abyss_Alert",
              "Monster_Abyss_Fire_SacrificeAlert",
              "Audio_Abyss_Alert"
            ]
          },
          "addEndure": 0.0,
          "resetAnimatorTriggerOnExit": [
            "BeHit",
            "DoSkill"
          ]
        },
        "NormalAtk": {
          "$type": "NEDIFAKEGCO",
          "animatorStates": {
            "NormalAtk": [
              "Monster_Abyss_Fire_NormalAtk",
              "Audio_Abyss_Fire_NormalAtk"
            ]
          },
          "resetAnimatorTriggerOnExit": [
            "BeHit",
            "DoSkill"
          ]
        },
        "SpecialAtk": {
          "$type": "NEDIFAKEGCO",
          "animatorStates": {
            "SpecialAtk": [
              "Monster_Abyss_Fire_SpecialAtk",
              "Audio_Abyss_Fire_SpecialAtk"
            ]
          },
          "resetAnimatorTriggerOnExit": [
            "BeHit",
            "DoSkill"
          ]
        },
        "RandomAction": {
          "$type": "NEDIFAKEGCO",
          "animatorStates": {
            "RandomAction_1": [
              "Audio_Abyss_RandomAction_1"
            ],
            "RandomAction_2": [
              "Audio_Abyss_RandomAction_2"
            ],
            "RandomAction_3": [
              "Audio_Abyss_RandomAction_3"
            ]
          },
          "resetAnimatorTriggerOnExit": [
            "BeHit",
            "DoSkill"
          ]
        },
        "GatherStart": {
          "$type": "NEDIFAKEGCO",
          "animatorStates": {
            "GatherStart": [
              "Monster_Abyss_Fire_GatherStart",
              "Audio_Abyss_Fire_GatherStart"
            ]
          },
          "canSyncMove": true,
          "massRatio": 100.0,
          "resetAnimatorTriggerOnExit": [
            "BeHit",
            "DoSkill"
          ]
        },
        "GatherLoop": {
          "$type": "NEDIFAKEGCO",
          "animatorStates": {
            "GatherLoop": [
              "Audio_Abyss_Fire_GatherLoop"
            ],
            "GatherLoop_End": [
              "Audio_Abyss_Fire_GatherSuccess"
            ]
          },
          "canSyncMove": true,
          "massRatio": 100.0,
          "resetAnimatorTriggerOnExit": [
            "BeHit",
            "DoSkill"
          ]
        },
        "GatherSuccess_Alert": {
          "$type": "NEDIFAKEGCO",
          "animatorStates": {
            "GatherSuccess_Alert": [
              "Monster_Abyss_Fire_GatherSuccess_Alert"
            ]
          },
          "canSyncMove": true,
          "massRatio": 100.0,
          "resetAnimatorTriggerOnExit": [
            "BeHit",
            "DoSkill"
          ]
        },
        "GatherSuccess": {
          "$type": "NEDIFAKEGCO",
          "animatorStates": {
            "GatherSuccess": [
              "Monster_Abyss_Fire_GatherSuccess"
            ]
          },
          "canSyncMove": true,
          "massRatio": 100.0,
          "resetAnimatorTriggerOnExit": [
            "BeHit",
            "DoSkill"
          ]
        },
        "Blink": {
          "$type": "NEDIFAKEGCO",
          "animatorStates": {
            "Blink_BS": [
              "Monster_Abyss_Fire_Blink_BS",
              "Audio_Abyss_Fire_Blink_BS"
            ],
            "Blink_AS": [
              "Monster_Abyss_Fire_Blink_AS",
              "Audio_Abyss_Fire_Blink_AS"
            ]
          },
          "cullingModelAlwaysAnimate": true,
          "resetAnimatorTriggerOnExit": [
            "BeHit",
            "DoSkill"
          ]
        },
        "ForceBlink": {
          "$type": "NEDIFAKEGCO",
          "animatorStates": {
            "ForceBlink": [
              "Monster_Abyss_Fire_ForceBlink"
            ]
          },
          "cullingModelAlwaysAnimate": true,
          "addEndure": 0.4000000059604645,
          "resetAnimatorTriggerOnExit": [
            "BeHit",
            "DoSkill"
          ]
        },
        "ElementShield_Broken": {
          "$type": "NEDIFAKEGCO",
          "animatorStates": {
            "ElementShield_Broken": [
              "Monster_Abyss_Fire_ElementShield_Broken"
            ]
          },
          "resetAnimatorTriggerOnExit": [
            "BeHit",
            "DoSkill"
          ]
        },
        "ElementShield_Remove": {
          "$type": "NEDIFAKEGCO",
          "animatorStates": {
            "ElementShield_Remove": [
              "Monster_Abyss_Fire_ElementShield_Remove"
            ]
          },
          "resetAnimatorTriggerOnExit": [
            "BeHit",
            "DoSkill"
          ]
        },
        "ReturnToBorn": {
          "$type": "NEDIFAKEGCO",
          "animatorStates": {
            "ReturnToBorn": [],
            "ReturnToBorn_AS": [
              "Monster_Abyss_Fire_ReturnToBorn_AS"
            ]
          },
          "cullingModelAlwaysAnimate": true,
          "resetAnimatorTriggerOnExit": [
            "BeHit",
            "DoSkill"
          ]
        },
        "TurnToSacrifice": {
          "$type": "NEDIFAKEGCO",
          "animatorStates": {
            "TurnToSacrifice": [
              "Monster_Abyss_TurnToSacrifice"
            ]
          },
          "canDoSkill": true,
          "resetAnimatorTriggerOnExit": [
            "BeHit",
            "DoSkill"
          ]
        },
        "OutOfSacrifice": {
          "$type": "NEDIFAKEGCO",
          "animatorStates": {
            "OutOfSacrifice": [
              "Monster_Abyss_OutOfSacrifice"
            ]
          },
          "canDoSkill": true,
          "resetAnimatorTriggerOnExit": [
            "BeHit",
            "DoSkill"
          ]
        },
        "Sacrifice": {
          "$type": "NEDIFAKEGCO",
          "animatorStates": {
            "Sacrifice": []
          },
          "canDoSkill": true,
          "resetAnimatorTriggerOnExit": [
            "BeHit",
            "DoSkill"
          ]
        }
      }
    }
  },
  "billboard": {
    "$type": "DNGNMAJBCNP",
    "attachPoint": "BillboardAttach",
    "offset": {
      "x": -0.019999999552965164
    },
    "offsetType": "Character",
    "radiusOffset": 0.20000000298023224,
    "showHPBar": true
  },
  "initialPoses": {
    "Default": {},
    "Sacrifice": {
      "initialPoseID": 9013,
      "initialPoseParams": {
        "boolParams": {
          "Sacrifice": "true"
        }
      }
    }
  },
  "aibeta": {
    "enable": true,
    "sensing": {
      "settings": {
        "DefaultSetting": {
          "viewRange": 45.0,
          "feelRange": 25.0
        },
        "Sacrifice": {
          "viewRange": 10.0
        },
        "NeverCombat": {
          "enableVision": false,
          "hearAttractionRange": 0.0,
          "feelRange": 0.0
        }
      },
      "templates": {
        "DefaultTemplate": {
          "DefaultPoses": "DefaultSetting",
          "9013": "Sacrifice"
        },
        "NeverCombatTemplate": {
          "DefaultPoses": "NeverCombat",
          "9013": "NeverCombat"
        }
      }
    },
    "neurons": {
      "DefaultSetting": [
        "HIT"
      ],
      "RainEscape": [
        "HIT",
        "WEATHER_BAD"
      ],
      "Preach": [
        "HIT",
        "PREACH"
      ],
      "NeverCombat": []
    },
    "threat": {
      "GHIJMOKOLMB": "",
      "clearThreatEdgeDistance": 7.5,
      "clearThreatTimerByDistance": 1.75,
      "viewThreatGrow": 35.0,
      "feelThreatGrow": 100.0,
      "threatDecreaseSpeed": 10.0,
      "resistTauntLevel": "Monster_TauntLevel_2"
    },
    "defendArea": {
      "defendRange": 50.0
    },
    "skillSetting": {
      "skillEliteSet": {
        "1": [
          301,
          302,
          401
        ],
        "2": [
          301,
          302,
          401,
          402
        ],
        "3": [
          301,
          302,
          401
        ],
        "4": [
          302,
          303,
          304,
          305,
          403,
          502
        ]
      }
    },
    "skills": {
      "102": {
        "name": "OnAlert",
        "skillType": "OnAlert",
        "faceTarget": true,
        "publicCDGroup": "",
        "ignoreGCD": true,
        "triggerGCD": false,
        "HHAGODJIAPE": "",
        "stateIDs": [
          "Alert"
        ],
        "skillQueryingTime": 3.0,
        "flagTargetReachable": "10",
        "flagSelfOnTemplateCollider": "01",
        "flagSelfInZone": "10",
        "flagTargetInZone": "11"
      },
      "103": {
        "name": "OnSacrificeAlert",
        "skillType": "OnAlert",
        "faceTarget": true,
        "castCondition": {
          "pose": [
            9013
          ]
        },
        "publicCDGroup": "",
        "triggerGCD": false,
        "HHAGODJIAPE": "",
        "stateIDs": [
          "SacrificeAlert"
        ],
        "skillQueryingTime": 3.0,
        "flagTargetReachable": "10",
        "flagSelfOnTemplateCollider": "01",
        "flagSelfInZone": "10",
        "flagTargetInZone": "11"
      },
      "104": {
        "name": "OnSacrificeAlert",
        "skillType": "OnNerve",
        "faceTarget": true,
        "castCondition": {
          "pose": [
            9013
          ]
        },
        "publicCDGroup": "",
        "triggerGCD": false,
        "HHAGODJIAPE": "",
        "stateIDs": [
          "SacrificeAlert"
        ],
        "skillQueryingTime": 3.0,
        "flagTargetReachable": "10",
        "flagSelfOnTemplateCollider": "01",
        "flagSelfInZone": "10",
        "flagTargetInZone": "11",
        "nerveTrigger": [
          "HIT"
        ]
      },
      "201": {
        "name": "Gather",
        "castCondition": {
          "pose": [
            201
          ]
        },
        "cd": 0.5,
        "publicCDGroup": "",
        "HHAGODJIAPE": "",
        "stateIDs": [
          "GatherStart",
          "GatherLoop",
          "GatherSuccess_Alert",
          "GatherSuccess"
        ],
        "flagTargetReachable": "11",
        "flagSelfOnTemplateCollider": "01",
        "flagSelfInZone": "11",
        "flagTargetInZone": "11"
      },
      "301": {
        "name": "Blink",
        "faceTarget": true,
        "castCondition": {
          "pose": [
            301
          ],
          "maxTargetAngleY": 30.0,
          "pickRangeMax": 20.0
        },
        "cd": 10.0,
        "cdUpperRange": 10.0,
        "initialCD": 10.0,
        "initialCDUpperRange": 10.0,
        "publicCDGroup": "",
        "HHAGODJIAPE": "",
        "stateIDs": [
          "Blink"
        ],
        "flagTargetReachable": "10",
        "flagSelfOnTemplateCollider": "01",
        "flagSelfInZone": "10",
        "flagTargetInZone": "11"
      },
      "302": {
        "name": "Blink_Charge",
        "priority": 1,
        "faceTarget": true,
        "castCondition": {
          "pose": [
            301
          ],
          "maxTargetAngleY": 30.0,
          "pickRangeMin": 20.0,
          "pickRangeMax": 50.0
        },
        "cd": 0.5,
        "publicCDGroup": "",
        "HHAGODJIAPE": "",
        "stateIDs": [
          "Blink"
        ],
        "flagTargetReachable": "11",
        "flagSelfOnTemplateCollider": "01",
        "flagSelfInZone": "11",
        "flagTargetInZone": "11"
      },
      "303": {
        "name": "Blink",
        "faceTarget": true,
        "castCondition": {
          "pose": [
            302
          ],
          "maxTargetAngleY": 30.0,
          "pickRangeMax": 20.0
        },
        "cd": 0.5,
        "initialCD": 5.0,
        "publicCDGroup": "",
        "HHAGODJIAPE": "",
        "stateIDs": [
          "Blink"
        ],
        "flagTargetReachable": "10",
        "flagSelfOnTemplateCollider": "01",
        "flagSelfInZone": "10",
        "flagTargetInZone": "11"
      },
      "304": {
        "name": "Blink_Charge",
        "priority": 1,
        "faceTarget": true,
        "castCondition": {
          "pose": [
            302
          ],
          "maxTargetAngleY": 30.0,
          "pickRangeMin": 20.0,
          "pickRangeMax": 50.0
        },
        "cd": 0.5,
        "initialCD": 5.0,
        "publicCDGroup": "",
        "HHAGODJIAPE": "",
        "stateIDs": [
          "Blink"
        ],
        "flagTargetReachable": "11",
        "flagSelfOnTemplateCollider": "01",
        "flagSelfInZone": "11",
        "flagTargetInZone": "11"
      },
      "305": {
        "name": "Blink",
        "faceTarget": true,
        "castCondition": {
          "pose": [
            301
          ],
          "maxTargetAngleY": 30.0,
          "pickRangeMax": 20.0
        },
        "cd": 999999.0,
        "initialCD": 5.0,
        "publicCDGroup": "",
        "HHAGODJIAPE": "",
        "stateIDs": [
          "Blink"
        ],
        "flagTargetReachable": "10",
        "flagSelfOnTemplateCollider": "01",
        "flagSelfInZone": "10",
        "flagTargetInZone": "11"
      },
      "401": {
        "name": "NormalAtk",
        "faceTarget": true,
        "castCondition": {
          "pose": [
            301
          ],
          "pickRangeMax": 30.0
        },
        "cd": 3.0,
        "cdUpperRange": 2.0,
        "publicCDGroup": "",
        "HHAGODJIAPE": "",
        "stateIDs": [
          "NormalAtk"
        ],
        "flagTargetReachable": "11",
        "flagSelfOnTemplateCollider": "01",
        "flagSelfInZone": "11",
        "flagTargetInZone": "11"
      },
      "402": {
        "name": "NormalAtk",
        "faceTarget": true,
        "castCondition": {
          "pose": [
            302
          ],
          "pickRangeMax": 30.0
        },
        "cd": 3.0,
        "cdUpperRange": 2.0,
        "publicCDGroup": "",
        "HHAGODJIAPE": "",
        "stateIDs": [
          "NormalAtk"
        ],
        "flagTargetReachable": "11",
        "flagSelfOnTemplateCollider": "01",
        "flagSelfInZone": "11",
        "flagTargetInZone": "11"
      },
      "403": {
        "name": "NormalAtk",
        "faceTarget": true,
        "castCondition": {
          "pose": [
            302
          ],
          "pickRangeMax": 30.0
        },
        "cd": 0.5,
        "initialCD": 5.0,
        "publicCDGroup": "",
        "HHAGODJIAPE": "",
        "stateIDs": [
          "NormalAtk"
        ],
        "flagTargetReachable": "11",
        "flagSelfOnTemplateCollider": "01",
        "flagSelfInZone": "11",
        "flagTargetInZone": "11"
      },
      "501": {
        "name": "SpecialAtk",
        "priority": 1,
        "faceTarget": true,
        "castCondition": {
          "pose": [
            301
          ],
          "pickRangeMax": 20.0
        },
        "cd": 15.0,
        "cdUpperRange": 10.0,
        "initialCD": 15.0,
        "initialCDUpperRange": 10.0,
        "publicCDGroup": "",
        "HHAGODJIAPE": "",
        "stateIDs": [
          "SpecialAtk"
        ],
        "flagTargetReachable": "11",
        "flagSelfOnTemplateCollider": "01",
        "flagSelfInZone": "11",
        "flagTargetInZone": "11"
      },
      "502": {
        "name": "SpecialAtk",
        "priority": 1,
        "faceTarget": true,
        "castCondition": {
          "pose": [
            302
          ],
          "pickRangeMax": 20.0
        },
        "cd": 0.5,
        "initialCD": 5.0,
        "publicCDGroup": "",
        "HHAGODJIAPE": "",
        "stateIDs": [
          "SpecialAtk"
        ],
        "flagTargetReachable": "11",
        "flagSelfOnTemplateCollider": "01",
        "flagSelfInZone": "11",
        "flagTargetInZone": "11"
      },
      "601": {
        "name": "Disappear",
        "skillType": "OnNerve",
        "castCondition": {
          "pose": [
            100,
            300
          ]
        },
        "publicCDGroup": "",
        "triggerGCD": false,
        "HHAGODJIAPE": "",
        "stateIDs": [
          "Disappear"
        ],
        "skillQueryingTime": 3.0,
        "flagTargetReachable": "10",
        "flagSelfOnTemplateCollider": "01",
        "flagSelfInZone": "10",
        "flagTargetInZone": "11",
        "nerveTrigger": [
          "WEATHER_BAD"
        ]
      },
      "1301": {
        "name": "TurnToSacrifice",
        "skillType": "ActionPoint",
        "castCondition": {
          "pose": [
            100,
            300
          ]
        },
        "publicCDGroup": "",
        "triggerGCD": false,
        "HHAGODJIAPE": "",
        "stateIDs": [
          "TurnToSacrifice"
        ],
        "skillQueryingTime": 3.0,
        "flagTargetReachable": "10",
        "flagSelfOnTemplateCollider": "01",
        "flagSelfInZone": "10",
        "flagTargetInZone": "11"
      },
      "1302": {
        "name": "OutOfSacrifice",
        "skillType": "OnNerve",
        "castCondition": {
          "pose": [
            9013
          ]
        },
        "publicCDGroup": "",
        "triggerGCD": false,
        "HHAGODJIAPE": "",
        "stateIDs": [
          "OutOfSacrifice"
        ],
        "skillQueryingTime": 3.0,
        "flagTargetReachable": "10",
        "flagSelfOnTemplateCollider": "01",
        "flagSelfInZone": "10",
        "flagTargetInZone": "11",
        "nerveTrigger": [
          "AWAKE"
        ]
      }
    },
    "skillGCD": 0.5,
    "birdCirclingTactic": [
      {
        "$type": "MCDGOJLCMBM",
        "enable": true,
        "JMCOBEPDIGM": {
          "DMGAHPPFMPK": 0.5,
          "FLENLLDBFGP": 0.5,
          "MNPDDAKDHGK": "",
          "GJDMDHIBCME": ""
        }
      },
      {
        "$type": "HGJGHLOFFHM",
        "enable": true,
        "JMCOBEPDIGM": {
          "INNFLICONNE": [
            {
              "pointType": "PreachPoint",
              "pose": [
                100,
                300
              ],
              "nerveTrigger": [
                "PREACH"
              ],
              "skillID": 1301
            }
          ]
        }
      },
      {
        "$type": "NNJKLGNPMNN",
        "enable": true,
        "JMCOBEPDIGM": {
          "ANLAAGAMIKF": 0,
          "JFMIFLNBKMJ": 1.0,
          "DHGJDIPNDHH": 1.5,
          "MNPDDAKDHGK": "",
          "GJDMDHIBCME": ""
        },
        "PIOCBHLFLJP": {
          "301": {
            "ANLAAGAMIKF": 1,
            "JFMIFLNBKMJ": 3.0,
            "DHGJDIPNDHH": 3.5,
            "MNPDDAKDHGK": "",
            "GJDMDHIBCME": ""
          }
        }
      },
      {
        "$type": "FPELBIJFGCE",
        "enable": true,
        "condition": {
          "pose": [
            100,
            300
          ]
        },
        "JMCOBEPDIGM": {
          "NBENNEKDIIA": 0.20000000298023224,
          "ANMPOPEBDIA": 25.0,
          "GMJFIMFFOEL": 7.5,
          "MNPDDAKDHGK": ""
        }
      }
    ]
  },
  "inputKeys": [
    {
      "keyID": 1,
      "inputKeyCode": 257,
      "abilityName": ""
    },
    {
      "keyID": 201,
      "inputKeyCode": 258,
      "abilityName": ""
    },
    {
      "keyID": 301,
      "inputKeyCode": 259,
      "abilityName": ""
    },
    {
      "keyID": 401,
      "inputKeyCode": 260,
      "abilityName": ""
    },
    {
      "keyID": 501,
      "inputKeyCode": 261,
      "abilityName": ""
    }
  ],
  "move": {
    "$type": "IPNMJMHDMPF",
    "moveOnWater": true,
    "monsterSizeType": "StrongHumanoidType",
    "positionModifyStateMap": {
      "101": "None"
    },
    "PKHOMJHFAEE": "RootNode"
  },
  "audio": {
    "overrideEmitterName": "",
    "animAudio": {
      "onTransitionIn": [
        {
          "currentStateName": "Sacrifice",
          "audioEvent": {
            "text": "Play_sfx_monster_abyss_sacrifice"
          }
        },
        {
          "currentStateName": "OutOfSacrifice",
          "audioEvent": {
            "text": "Play_sfx_monster_abyss_sacrifice"
          }
        },
        {
          "currentStateName": "Alert",
          "audioEvent": {
            "text": "Stop_sfx_monster_abyss_sacrifice"
          }
        },
        {
          "currentStateName": "BeHit",
          "audioEvent": {
            "text": "Stop_sfx_monster_abyss_sacrifice"
          }
        },
        {
          "currentStateName": "Die",
          "audioEvent": {
            "text": "Stop_sfx_monster_abyss_sacrifice"
          }
        }
      ],
      "onTransitionOut": [
        {
          "currentStateName": "Blink_BS",
          "audioEvent": {
            "text": "Stop_vo_monster_abyss_skill_blink"
          },
          "otherStateNames": [
            "Blink"
          ],
          "usage": "Except"
        },
        {
          "currentStateName": "Blink",
          "audioEvent": {
            "text": "Stop_vo_monster_abyss_skill_blink"
          },
          "otherStateNames": [
            "Blink_AS"
          ],
          "usage": "Except"
        },
        {
          "currentStateName": "SpecialAtk",
          "audioEvent": {
            "text": "Stop_vo_monster_abyss_specialAtk"
          },
          "otherStateNames": [
            "RandomAction_1",
            "RandomAction_2",
            "RandomAction_3"
          ],
          "usage": "Except"
        },
        {
          "currentStateName": "Walk",
          "audioEvent": {
            "text": "Stop_sfx_monster_abyss_walk"
          }
        },
        {
          "currentStateName": "RandomAction_3",
          "audioEvent": {
            "text": "Stop_vo_monster_abyss_randomAction03"
          }
        },
        {
          "currentStateName": "RandomAction_2",
          "audioEvent": {
            "text": "Stop_vo_monster_abyss_randomAction02"
          }
        },
        {
          "currentStateName": "RandomAction_1",
          "audioEvent": {
            "text": "Stop_vo_monster_abyss_randomAction01"
          }
        },
        {
          "currentStateName": "GatherLoop",
          "audioEvent": {
            "text": "Stop_sfx_monster_abyss_Fire_gather"
          },
          "otherStateNames": [
            "GatherLoop_End"
          ],
          "usage": "Except"
        },
        {
          "currentStateName": "GatherStart",
          "audioEvent": {
            "text": "Stop_vo_monster_abyss_superAtk_BS"
          },
          "otherStateNames": [
            "GatherLoop"
          ],
          "usage": "Except"
        },
        {
          "currentStateName": "GatherSuccess_Alert",
          "audioEvent": {
            "text": "Stop_vo_monster_abyss_superAtk_AS"
          },
          "otherStateNames": [
            "GatherLoop_End"
          ],
          "usage": "Except"
        },
        {
          "currentStateName": "Sacrifice",
          "audioEvent": {
            "text": "Stop_sfx_monster_abyss_sacrifice"
          }
        }
      ]
    },
    "disableEvent": {
      "text": "Stop_sfx_monster_abyss_sacrifice"
    },
    "destroyEvent": {
      "text": "Stop_sfx_monster_abyss_sacrifice"
    }
  }
}