{
  "common": {
    "effectAttachShape": {
      "$type": "FJNPJANPGGC",
      "mesh": "EffectMesh"
    },
    "mass": 30.0,
    "height": 0.6000000238418579,
    "checkInSurface": true,
    "reconnectSupport": true,
    "recoverByInitPose": true
  },
  "model": {
    "bornEffect": "",
    "attachEffect": "",
    "BKPFGNPLDNJ": ""
  },
  "dither": {
    "showDitherDuration": 2.0
  },
  "combat": {
    "property": {
      "endureType": "Monster_Grunt_Humanoid",
      "weight": 75.0,
      "isLockHP": true
    },
    "beHit": {
      "hitBloodEffect": "",
      "IEKJNLDFOCL": true
    },
    "combatLock": {
      "lockShape": "CircleLockEnemy",
      "lockType": "Avatar&Monster_Lv4"
    },
    "die": {
      "hasAnimatorDie": true,
      "dieEndTime": 0.5,
      "dieForceDisappearTime": 4.0,
      "dieDisappearEffect": "Eff_Death_Common",
      "dieShaderData": "MonsterDie",
      "dieShaderEnableDurationTime": 0.10000000149011612,
      "dieModelFadeDelay": 0.5,
      "muteHitBox": true,
      "dieDenyLockOn": true,
      "dieIsGhostToEnemy": true,
      "dieIgnoreTriggerBullet": true,
      "muteBillboard": true,
      "mutePushCollider": true
    }
  },
  "abilities": [
    {
      "abilityID": "",
      "abilityName": "FauneAbyssale_HermitCrab_Larva_Born",
      "abilityOverride": ""
    },
    {
      "abilityID": "",
      "abilityName": "FauneAbyssale_Universal_AbilityAnimal",
      "abilityOverride": ""
    },
    {
      "abilityID": "",
      "abilityName": "FauneAbyssale_Universal_AbilityAnimal_HermitCrab",
      "abilityOverride": ""
    },
    {
      "abilityID": "",
      "abilityName": "FauneAbyssale_Universal_UnderwaterSettings",
      "abilityOverride": ""
    },
    {
      "abilityID": "",
      "abilityName": "FauneAbyssale_Universal_Special_Endure",
      "abilityOverride": ""
    }
  ],
  "HDKNBLJIGCF": [
    "Ability_Avatar_Dive_CrabShield"
  ],
  "stateLayers": {
    "defaultLayer": {
      "$type": "GBGJJIIEMBD",
      "layerIndexName": "",
      "CPAANEIJCGD": "",
      "stateIDs": {
        "Born": {
          "$type": "NEDIFAKEGCO",
          "animatorStates": {
            "Born": []
          }
        },
        "NormalIdle": {
          "$type": "NEDIFAKEGCO",
          "animatorStates": {
            "Standby": []
          },
          "canDoSkill": true,
          "canSyncMove": true,
          "resetAnimatorTriggerOnExit": [
            "DoSkill"
          ],
          "canSteer": true
        },
        "NormalMove": {
          "$type": "NEDIFAKEGCO",
          "animatorStates": {
            "WalkForward": [],
            "WalkBack": [],
            "WalkLeft": [],
            "WalkRight": [],
            "WalkForwardInWater": [],
            "WalkBackInWater": [],
            "WalkLeftInWater": [],
            "WalkRightInWater": []
          },
          "canDoSkill": true,
          "canSyncMove": true,
          "resetAnimatorTriggerOnExit": [
            "DoSkill"
          ],
          "canSteer": true
        },
        "FlyInWater": {
          "$type": "NEDIFAKEGCO",
          "animatorStates": {
            "FlyInWater": []
          },
          "canDoSkill": true,
          "canSyncMove": true,
          "resetAnimatorTriggerOnExit": [
            "DoSkill"
          ],
          "canSteer": true,
          "blendMove": "BlendMove",
          "GGODGEGHPJD": true
        },
        "BeHit": {
          "$type": "NEDIFAKEGCO",
          "animatorStates": {
            "Hit_H": []
          },
          "resetAnimatorTriggerOnEnter": [
            "BeHit"
          ],
          "resetAnimatorTriggerOnExit": [
            "DoSkill"
          ],
          "airMoveFollowAnimation": true
        },
        "BeHitThrow": {
          "$type": "NEDIFAKEGCO",
          "animatorStates": {
            "HitThrow": [],
            "HitThrowToGround": [
              "Monster_FauneAbyssale_HermitCrab_Larva_HitThrowToGround"
            ],
            "Hit_Throw_From_Struggle": []
          },
          "resetAnimatorTriggerOnEnter": [
            "BeHit",
            "HitAir2HitDrop"
          ],
          "resetAnimatorTriggerOnExit": [
            "DoSkill",
            "BeHit"
          ],
          "remoteForceCloseAirMove": true
        },
        "Struggle": {
          "$type": "NEDIFAKEGCO",
          "animatorStates": {
            "Struggle": []
          },
          "resetAnimatorTriggerOnEnter": [
            "BeHit",
            "HitAir2HitDrop"
          ],
          "resetAnimatorTriggerOnExit": [
            "DoSkill"
          ]
        },
        "Struggle_Absorbed": {
          "$type": "NEDIFAKEGCO",
          "animatorStates": {
            "Struggle_Absorbed": [
              "Audio_HermitCrab_Special_01_Struggle_Absorbed"
            ]
          },
          "resetAnimatorTriggerOnEnter": [
            "BeHit",
            "HitAir2HitDrop"
          ],
          "resetAnimatorTriggerOnExit": [
            "DoSkill"
          ],
          "airMoveFollowAnimation": true
        },
        "Die": {
          "$type": "NEDIFAKEGCO",
          "animatorStates": {
            "Die": [
              "Monster_FauneAbyssale_HermitCrab_Die"
            ]
          },
          "resetAnimatorTriggerOnEnter": [
            "BeHit",
            "DoSkill",
            "BeHit",
            "WeakTrigger"
          ]
        },
        "DieInWater": {
          "$type": "NEDIFAKEGCO",
          "animatorStates": {
            "DieInWater": [
              "Monster_FauneAbyssale_HermitCrab_DieInWater"
            ]
          },
          "resetAnimatorTriggerOnEnter": [
            "BeHit",
            "DoSkill",
            "BeHit",
            "WeakTrigger"
          ]
        },
        "Land": {
          "$type": "NEDIFAKEGCO",
          "animatorStates": {
            "Land": []
          },
          "canSyncMove": true,
          "resetAnimatorTriggerOnExit": [
            "BeHit",
            "DoSkill"
          ],
          "canSteer": true,
          "forceSetAirMove": true,
          "airMoveFollowAnimation": true
        },
        "Launch": {
          "$type": "NEDIFAKEGCO",
          "animatorStates": {
            "Launch": []
          },
          "canSyncMove": true,
          "resetAnimatorTriggerOnExit": [
            "BeHit",
            "DoSkill"
          ],
          "canSteer": true,
          "forceSetAirMove": true,
          "airMoveFollowAnimation": true
        },
        "Personality1InWater": {
          "$type": "NEDIFAKEGCO",
          "animatorStates": {
            "Personality1InWater": [
              "Monster_FauneAbyssale_HermitCrab_Larva_Personality01_Water",
              "Audio_Monster_FauneAbyssale_HermitCrab_Larva_Personality1InWater"
            ]
          },
          "canDoSkill": true,
          "resetAnimatorTriggerOnExit": [
            "BeHit",
            "DoSkill"
          ],
          "canSteer": true
        },
        "Personality1": {
          "$type": "NEDIFAKEGCO",
          "animatorStates": {
            "Personality1": [
              "Monster_FauneAbyssale_HermitCrab_Larva_Personality01"
            ]
          },
          "canDoSkill": true,
          "resetAnimatorTriggerOnExit": [
            "BeHit",
            "DoSkill"
          ],
          "canSteer": true
        },
        "Personality2": {
          "$type": "NEDIFAKEGCO",
          "animatorStates": {
            "Personality2": [
              "Monster_FauneAbyssale_HermitCrab_Larva_Personality02",
              "Audio_Monster_FauneAbyssale_HermitCrab_Larva_Personality2"
            ]
          },
          "canDoSkill": true,
          "resetAnimatorTriggerOnExit": [
            "BeHit",
            "DoSkill"
          ],
          "canSteer": true
        },
        "Personality3": {
          "$type": "NEDIFAKEGCO",
          "animatorStates": {
            "Personality3": []
          },
          "canDoSkill": true,
          "resetAnimatorTriggerOnExit": [
            "BeHit",
            "DoSkill"
          ],
          "canSteer": true
        },
        "Personality4_BS": {
          "$type": "NEDIFAKEGCO",
          "animatorStates": {
            "Personality4_BS": [
              "Monster_FauneAbyssale_HermitCrab_Larva_Personality01_Water"
            ]
          },
          "canDoSkill": true,
          "resetAnimatorTriggerOnExit": [
            "BeHit",
            "DoSkill"
          ],
          "canSteer": true
        },
        "Personality4_Loop": {
          "$type": "NEDIFAKEGCO",
          "animatorStates": {
            "Personality4_Loop": []
          },
          "canDoSkill": true,
          "resetAnimatorTriggerOnExit": [
            "BeHit",
            "DoSkill"
          ]
        },
        "Personality4_AS": {
          "$type": "NEDIFAKEGCO",
          "animatorStates": {
            "Personality4_AS": []
          },
          "canDoSkill": true,
          "resetAnimatorTriggerOnExit": [
            "BeHit",
            "DoSkill"
          ],
          "canSteer": true
        },
        "Personality5_BS": {
          "$type": "NEDIFAKEGCO",
          "animatorStates": {
            "Personality5_BS": [
              "Monster_FauneAbyssale_HermitCrab_Larva_Personality01"
            ]
          },
          "canDoSkill": true,
          "resetAnimatorTriggerOnExit": [
            "BeHit",
            "DoSkill"
          ],
          "canSteer": true
        },
        "Personality5_Loop": {
          "$type": "NEDIFAKEGCO",
          "animatorStates": {
            "Personality5_Loop": []
          },
          "canDoSkill": true,
          "resetAnimatorTriggerOnExit": [
            "BeHit",
            "DoSkill"
          ]
        },
        "Personality5_AS": {
          "$type": "NEDIFAKEGCO",
          "animatorStates": {
            "Personality5_AS": []
          },
          "canDoSkill": true,
          "resetAnimatorTriggerOnExit": [
            "BeHit",
            "DoSkill"
          ],
          "canSteer": true
        }
      }
    }
  },
  "billboard": {
    "$type": "DNGNMAJBCNP",
    "attachPoint": "BillboardAttach",
    "offset": {
      "y": 0.5
    },
    "radiusOffset": 1.0,
    "forceHideAllBars": true
  },
  "initialPoses": {
    "Default": {
      "initialPoseID": 11,
      "initialPoseParams": {
        "intParams": {
          "SpacialState": "1",
          "FreeState": "1"
        }
      }
    },
    "LandInWater": {
      "initialPoseID": 1,
      "initialPoseParams": {
        "intParams": {
          "SpacialState": "0",
          "FreeState": "1"
        }
      }
    },
    "MuteOnFloorInWater": {
      "initialPoseID": 2,
      "initialPoseParams": {
        "intParams": {
          "SpacialState": "0",
          "FreeState": "2"
        }
      }
    },
    "MuteInWater": {
      "initialPoseID": 12,
      "initialPoseParams": {
        "intParams": {
          "SpacialState": "1",
          "FreeState": "2"
        }
      }
    },
    "MuteShellOnFloorLandInWater": {
      "initialPoseID": 3,
      "initialPoseParams": {
        "intParams": {
          "SpacialState": "0",
          "FreeState": "3"
        }
      }
    },
    "MuteShellOnFloorInWater": {
      "initialPoseID": 13,
      "initialPoseParams": {
        "intParams": {
          "SpacialState": "1",
          "FreeState": "3"
        }
      }
    },
    "LandInWaterInShell": {
      "initialPoseID": 31,
      "initialPoseParams": {
        "intParams": {
          "SpacialState": "0",
          "FreeState": "4"
        }
      }
    },
    "InWaterInShell": {
      "initialPoseID": 51,
      "initialPoseParams": {
        "intParams": {
          "SpacialState": "1",
          "FreeState": "4"
        }
      }
    }
  },
  "aibeta": {
    "enable": true,
    "moveSetting": {
      "moveCategory": "DiveSeafloorLandAmphibious",
      "useToTheMoon": true,
      "navMeshAgentName": "Undead01",
      "almostReachedDistanceWalk": 2.0,
      "almostReachedDistanceRun": 2.0
    },
    "sensing": {
      "settings": {
        "DefaultSetting": {
          "viewRange": 0.0,
          "hearAttractionRange": 0.0,
          "feelRange": 0.0
        }
      },
      "templates": {
        "DefaultTemplate": {
          "DefaultPoses": "DefaultSetting"
        }
      }
    },
    "neurons": {
      "DefaultSetting": []
    },
    "threat": {
      "GHIJMOKOLMB": "",
      "clearThreatByLostPath": true,
      "clearThreatTimerByDistance": 0.0,
      "clearThreatTimerByLostPath": 0.0,
      "threatBroadcastRange": 0.0,
      "resistTauntLevel": "Monster_TauntLevel_6"
    },
    "defendArea": {
      "defendRange": 20.0
    },
    "fly": {
      "enable": true,
      "IPJLPEHKCJA": [
        11,
        12,
        13,
        51,
        301,
        303,
        901,
        902,
        903
      ]
    },
    "skills": {
      "302": {
        "name": "Launch2",
        "skillType": "Free",
        "priority": 3,
        "canUseCombatSkillCondition": true,
        "castCondition": {
          "pose": [
            1,
            3
          ],
          "skillAnchorRangeMin": -1.0,
          "targetSkillAnchorRangeMin": -1.0,
          "EELFCDOLLPM": 2.0
        },
        "cd": 15.0,
        "cdUpperRange": 2.0,
        "initialCD": 10.0,
        "publicCDGroup": "",
        "HHAGODJIAPE": "",
        "stateIDs": [
          "Launch"
        ],
        "flagTargetReachable": "10",
        "flagSelfOnTemplateCollider": "01",
        "flagSelfInZone": "10",
        "flagTargetInZone": "11"
      },
      "312": {
        "name": "Land2",
        "skillType": "Free",
        "priority": 2,
        "canUseCombatSkillCondition": true,
        "castCondition": {
          "pose": [
            11,
            13
          ],
          "skillAnchorRangeMin": -1.0,
          "targetSkillAnchorRangeMin": -1.0,
          "pickRangeByRaycast": [
            {
              "min": 0.25,
              "max": 1.2699999809265137,
              "raycastType": "DownToGroundOnlyInWater"
            }
          ]
        },
        "cd": 10.0,
        "cdUpperRange": 2.0,
        "initialCD": 10.0,
        "publicCDGroup": "",
        "HHAGODJIAPE": "",
        "stateIDs": [
          "Land"
        ],
        "flagTargetReachable": "11",
        "flagSelfOnTemplateCollider": "11",
        "flagSelfInZone": "11",
        "flagTargetInZone": "11"
      },
      "101": {
        "name": "Personality1InWater",
        "skillType": "Free",
        "priority": 2,
        "castCondition": {
          "pose": [
            1
          ]
        },
        "cd": 15.0,
        "cdUpperRange": 2.0,
        "initialCD": 5.0,
        "publicCDGroup": "",
        "HHAGODJIAPE": "",
        "stateIDs": [
          "Personality1InWater"
        ],
        "flagTargetReachable": "10",
        "flagSelfOnTemplateCollider": "01",
        "flagSelfInZone": "10",
        "flagTargetInZone": "11"
      },
      "102": {
        "name": "Personality1",
        "skillType": "Free",
        "priority": 2,
        "castCondition": {
          "pose": [
            21
          ]
        },
        "cd": 15.0,
        "cdUpperRange": 2.0,
        "initialCD": 5.0,
        "publicCDGroup": "",
        "HHAGODJIAPE": "",
        "stateIDs": [
          "Personality1"
        ],
        "flagTargetReachable": "10",
        "flagSelfOnTemplateCollider": "01",
        "flagSelfInZone": "10",
        "flagTargetInZone": "11"
      },
      "111": {
        "name": "Personality2",
        "skillType": "Free",
        "priority": 2,
        "canUseCombatSkillCondition": true,
        "castCondition": {
          "pose": [
            11,
            13
          ],
          "skillAnchorRangeMin": -1.0,
          "targetSkillAnchorRangeMin": -1.0,
          "EELFCDOLLPM": 2.0,
          "pickRangeByRaycast": [
            {
              "min": 0.25,
              "max": -1.0,
              "raycastType": "DownToGroundOnlyInWater"
            }
          ]
        },
        "cd": 10.0,
        "cdUpperRange": 2.0,
        "initialCD": 5.0,
        "publicCDGroup": "",
        "HHAGODJIAPE": "",
        "stateIDs": [
          "Personality2"
        ],
        "flagTargetReachable": "11",
        "flagSelfOnTemplateCollider": "11",
        "flagSelfInZone": "11",
        "flagTargetInZone": "11"
      },
      "121": {
        "name": "Personality3",
        "skillType": "Free",
        "priority": 2,
        "castCondition": {
          "pose": [
            1,
            21,
            3,
            23
          ]
        },
        "cd": 15.0,
        "cdUpperRange": 2.0,
        "initialCD": 5.0,
        "publicCDGroup": "",
        "HHAGODJIAPE": "",
        "stateIDs": [
          "Personality3"
        ],
        "flagTargetReachable": "10",
        "flagSelfOnTemplateCollider": "01",
        "flagSelfInZone": "10",
        "flagTargetInZone": "11"
      },
      "131": {
        "name": "Personality4",
        "skillType": "Free",
        "priority": 2,
        "castCondition": {
          "pose": [
            31
          ]
        },
        "cd": 10.0,
        "cdUpperRange": 2.0,
        "publicCDGroup": "",
        "HHAGODJIAPE": "",
        "stateIDs": [
          "Personality4_BS",
          "Personality4_Loop",
          "Personality4_AS"
        ],
        "flagTargetReachable": "10",
        "flagSelfOnTemplateCollider": "01",
        "flagSelfInZone": "10",
        "flagTargetInZone": "11"
      },
      "132": {
        "name": "Personality5",
        "skillType": "Free",
        "priority": 2,
        "castCondition": {
          "pose": [
            41
          ]
        },
        "cd": 10.0,
        "cdUpperRange": 2.0,
        "publicCDGroup": "",
        "HHAGODJIAPE": "",
        "stateIDs": [
          "Personality5_BS",
          "Personality5_Loop",
          "Personality5_AS"
        ],
        "flagTargetReachable": "10",
        "flagSelfOnTemplateCollider": "01",
        "flagSelfInZone": "10",
        "flagTargetInZone": "11"
      }
    },
    "skillGCD": 3.5,
    "groupSurroundTactic": {
      "Temp1": {
        "MFNHGOKLGMO": 1.5,
        "PPLFPCCFFNC": 5.0,
        "FAMIMLKMEDP": 5.0,
        "FODOJABAOOA": 5.0
      },
      "Temp2": {
        "MFNHGOKLGMO": 3.0,
        "PPLFPCCFFNC": 5.0,
        "FAMIMLKMEDP": 5.0,
        "FODOJABAOOA": 5.0
      }
    },
    "birdCirclingTactic": [
      {
        "$type": "MCDGOJLCMBM",
        "JMCOBEPDIGM": {
          "DMGAHPPFMPK": 2.0,
          "FLENLLDBFGP": 2.0,
          "ACOBCFCMBOC": "Auto",
          "MNPDDAKDHGK": "Temp1",
          "GJDMDHIBCME": ""
        }
      },
      {
        "$type": "COLLJLNKMLC",
        "JMCOBEPDIGM": {
          "ANLAAGAMIKF": 1,
          "MNPDDAKDHGK": "Temp1",
          "GJDMDHIBCME": "",
          "ACOBCFCMBOC": "Auto",
          "PLLHMGHOAPB": "",
          "KPIJNGFNAEF": "",
          "GDPHPLKJGAJ": "",
          "KKKOAABEHEP": ""
        }
      },
      {
        "$type": "GPEMIAJPPJG",
        "enable": true,
        "condition": {
          "pose": [
            2,
            12,
            22
          ]
        },
        "JMCOBEPDIGM": {
          "ANLAAGAMIKF": 1,
          "ACOBCFCMBOC": "Auto",
          "MNPDDAKDHGK": "Temp1",
          "GJDMDHIBCME": ""
        }
      },
      {
        "$type": "NNJKLGNPMNN",
        "enable": true,
        "JMCOBEPDIGM": {
          "NBENNEKDIIA": 5.0,
          "ACOBCFCMBOC": "Auto",
          "MNPDDAKDHGK": "Temp2",
          "GJDMDHIBCME": ""
        }
      },
      {
        "$type": "MJJFBALNDCH",
        "JMCOBEPDIGM": {
          "ANLAAGAMIKF": 1,
          "DDFIKIJKKOE": true,
          "MNPDDAKDHGK": "Temp1",
          "GJDMDHIBCME": ""
        }
      },
      {
        "$type": "AFPKJOCDEIF",
        "enable": true,
        "condition": {
          "pose": [
            11,
            13,
            51
          ]
        },
        "JMCOBEPDIGM": {
          "ANLAAGAMIKF": 1,
          "OODBIGLAFGG": {
            "FKIEIIJAPEH": 0.10000000149011612,
            "OJLPFPNFMDJ": 3.5,
            "JFBDDDBIHDE": 7.5,
            "EHLPOCLAEFO": 2.0,
            "APHHENPJNLO": 5.0,
            "AKMJKEIJEHM": 3.0,
            "PELOBMPBAJF": 7.0,
            "BLOIJOGPILM": 3.0,
            "GNFCHLHAPNI": 7.0,
            "DFHLPPNLGIE": 0.0,
            "CLDDLKFCODO": 1.0
          },
          "NBENNEKDIIA": 2.0,
          "NNMEJAFDPEJ": 10.0,
          "KPNDPKIOPJM": 0.20000000298023224,
          "PINAFKEDDLL": 0.10000000149011612,
          "MNPDDAKDHGK": "Temp1",
          "GJDMDHIBCME": "",
          "KHJGKBJCNLM": 1.5,
          "BMDNOGNPICH": 3.0,
          "EIGFLPCINME": 1.0,
          "LGEJMHHKDHD": 1.5,
          "LDOEAHKEMMH": 0.5,
          "FJELCNEOPLE": 0.33000001311302185,
          "BKPKJEDPJCK": -0.5,
          "CMCKJBFDDDM": 0.5,
          "JJGCFCNPKAD": 0.6600000262260437
        }
      },
      {
        "$type": "FPELBIJFGCE",
        "enable": true,
        "condition": {
          "pose": [
            1,
            21,
            3,
            23
          ]
        },
        "JMCOBEPDIGM": {
          "NBENNEKDIIA": 2.0,
          "KPNDPKIOPJM": 3.0,
          "PINAFKEDDLL": 1.5,
          "ANMPOPEBDIA": 10.0,
          "GMJFIMFFOEL": 2.75,
          "CHCPFDMADEI": 4.5,
          "MNPDDAKDHGK": ""
        }
      }
    ]
  },
  "inputKeys": [
    {
      "keyID": 101,
      "inputKeyCode": 257,
      "abilityName": ""
    },
    {
      "keyID": 111,
      "inputKeyCode": 258,
      "abilityName": ""
    },
    {
      "keyID": 121,
      "inputKeyCode": 259,
      "abilityName": ""
    },
    {
      "keyID": 201,
      "inputKeyCode": 260,
      "abilityName": ""
    },
    {
      "keyID": 301,
      "inputKeyCode": 261,
      "abilityName": ""
    },
    {
      "keyID": 311,
      "inputKeyCode": 262,
      "abilityName": ""
    },
    {
      "keyID": 1,
      "inputKeyCode": 263,
      "abilityName": ""
    }
  ],
  "move": {
    "$type": "IPNMJMHDMPF",
    "raycasts": [
      {
        "raycastLength": 5.0,
        "raycastType": "DownToGroundOnlyInWater",
        "startPoint": ""
      }
    ],
    "OGBEFBMLJJI": true,
    "facingMove": "FourDirection",
    "airFacingMove": "AirBlend",
    "yawSpeedRatio": 2.0,
    "positionModifyExtra": true,
    "PKHOMJHFAEE": "RootNode",
    "NIDFEFPEKAI": 30.0,
    "JNAPCJLHJDO": true
  },
  "audio": {
    "overrideEmitterName": "",
    "animAudio": {
      "onTransitionIn": [
        {
          "currentStateName": "WalkForwardInWater",
          "audioEvent": {
            "text": "Play_Sfx_Monster_FauneAbyssale_HermitCrab_Mature_WalkForwardSeaBed_LP"
          },
          "otherStateNames": [
            "WalkForwardInWater"
          ],
          "usage": "Except"
        },
        {
          "currentStateName": "WalkBackInWater",
          "audioEvent": {
            "text": "Play_Sfx_Monster_FauneAbyssale_HermitCrab_Mature_WalkForwardSeaBed_LP"
          },
          "otherStateNames": [
            "WalkBackInWater"
          ],
          "usage": "Except"
        },
        {
          "currentStateName": "WalkLeftInWater",
          "audioEvent": {
            "text": "Play_Sfx_Monster_FauneAbyssale_HermitCrab_Mature_WalkForwardSeaBed_LP"
          },
          "otherStateNames": [
            "WalkLeftInWater"
          ],
          "usage": "Except"
        },
        {
          "currentStateName": "WalkRightInWater",
          "audioEvent": {
            "text": "Play_Sfx_Monster_FauneAbyssale_HermitCrab_Mature_WalkForwardSeaBed_LP"
          },
          "otherStateNames": [
            "WalkRightInWater"
          ],
          "usage": "Except"
        },
        {
          "currentStateName": "FlyInWater",
          "audioEvent": {
            "text": "Play_Sfx_HermitCrab_Special_FlyInWater_LP"
          },
          "otherStateNames": [
            "FlyInWater"
          ],
          "usage": "Except"
        }
      ],
      "onTransitionOut": [
        {
          "currentStateName": "WalkForwardInWater",
          "audioEvent": {
            "text": "Stop_Sfx_Monster_FauneAbyssale_HermitCrab_Mature_WalkForwardSeaBed_LP"
          },
          "otherStateNames": [
            "WalkForwardInWater"
          ],
          "usage": "Except"
        },
        {
          "currentStateName": "WalkBackInWater",
          "audioEvent": {
            "text": "Stop_Sfx_Monster_FauneAbyssale_HermitCrab_Mature_WalkForwardSeaBed_LP"
          },
          "otherStateNames": [
            "WalkBackInWater"
          ],
          "usage": "Except"
        },
        {
          "currentStateName": "WalkLeftInWater",
          "audioEvent": {
            "text": "Stop_Sfx_Monster_FauneAbyssale_HermitCrab_Mature_WalkForwardSeaBed_LP"
          },
          "otherStateNames": [
            "WalkLeftInWater"
          ],
          "usage": "Except"
        },
        {
          "currentStateName": "WalkRightInWater",
          "audioEvent": {
            "text": "Stop_Sfx_Monster_FauneAbyssale_HermitCrab_Mature_WalkForwardSeaBed_LP"
          },
          "otherStateNames": [
            "WalkRightInWater"
          ],
          "usage": "Except"
        },
        {
          "currentStateName": "FlyInWater",
          "audioEvent": {
            "text": "Stop_Sfx_HermitCrab_Special_FlyInWater_LP_01"
          },
          "otherStateNames": [
            "FlyInWater"
          ],
          "usage": "Except"
        }
      ]
    }
  }
}