{
  "common": {
    "effectAttachShape": {
      "$type": "FJNPJANPGGC",
      "mesh": "EffectMesh"
    },
    "mass": 350.0,
    "height": 1.0,
    "viewSize": 0.800000011920929,
    "affectedByWorld": true,
    "checkInSurface": true,
    "scale": 1.75,
    "canTriggerElementReactionText": false,
    "reconnectSupport": true,
    "recoverByInitPose": true
  },
  "model": {
    "bornEffect": "",
    "attachEffect": "Eff_Animal_Boltbug_Firebug_Idle",
    "canBakeMesh": false,
    "BKPFGNPLDNJ": ""
  },
  "combat": {
    "property": {
      "endureType": "Monster_Slime",
      "weight": 60.0
    },
    "beHit": {
      "hitBloodEffect": "",
      "muteAllHit": true,
      "muteAllHitText": true
    },
    "combatLock": {
      "lockShape": "CircleLockEnemy",
      "denyLockOn": true,
      "lockType": "Default"
    },
    "die": {
      "hasAnimatorDie": true,
      "dieEndTime": 0.10000000149011612,
      "dieForceDisappearTime": 0.7200000286102295,
      "dieDisappearEffect": "Eff_Animal_Boltbug_Firebug_Die"
    }
  },
  "abilities": [
    {
      "abilityID": "",
      "abilityName": "Animal_PhlogistonTag",
      "abilityOverride": ""
    }
  ],
  "stateLayers": {
    "defaultLayer": {
      "$type": "GBGJJIIEMBD",
      "layerIndexName": "",
      "CPAANEIJCGD": "",
      "stateIDs": {
        "Born": {
          "$type": "NEDIFAKEGCO",
          "animatorStates": {
            "Born": []
          }
        },
        "NormalIdle": {
          "$type": "NEDIFAKEGCO",
          "animatorStates": {
            "Standby": []
          },
          "canDoSkill": true,
          "canSyncMove": true
        },
        "NormalMove": {
          "$type": "NEDIFAKEGCO",
          "animatorStates": {
            "Walk": [],
            "WalkBack": []
          },
          "canDoSkill": true,
          "canSyncMove": true,
          "canSteer": true
        },
        "BeHit": {
          "$type": "NEDIFAKEGCO",
          "animatorStates": {
            "Hit_L": []
          },
          "resetAnimatorTriggerOnEnter": [
            "BeHit"
          ]
        },
        "Die": {
          "$type": "NEDIFAKEGCO",
          "animatorStates": {
            "Die": [
              "Animal_Boltbug_Firebug_Die"
            ]
          },
          "resetAnimatorTriggerOnEnter": [
            "DoSkill"
          ]
        },
        "RandomAction": {
          "$type": "NEDIFAKEGCO",
          "animatorStates": {
            "RandomAction01": [],
            "RandomAction02": [],
            "RandomAction03": []
          }
        }
      }
    }
  },
  "uiSetting": {
    "radarHint": true
  },
  "initialPoses": {
    "Default": {
      "initialPoseID": 101
    }
  },
  "aibeta": {
    "enable": true,
    "friendliness": 1,
    "moveSetting": {
      "navMeshAgentName": "Undead01"
    },
    "sensing": {
      "settings": {
        "DefaultSetting": {
          "enableVision": false,
          "feelRange": 4.0
        }
      }
    },
    "neurons": {
      "DefaultSetting": [
        "HIT"
      ]
    },
    "threat": {
      "GHIJMOKOLMB": "",
      "clearThreatTargetDistance": 10.0,
      "clearThreatTimerByDistance": 3.0,
      "viewThreatGrow": 50.0,
      "feelThreatGrow": 1000.0,
      "threatBroadcastRange": 3.0
    },
    "defendArea": {
      "defendRange": 100.0
    },
    "ui": {
      "hasDirectionIndicator": false,
      "HMNNBFDEHLG": ""
    },
    "profiling": {
      "lodStrategy": "MinorAnimal"
    },
    "skills": {
      "1": {
        "name": "RandomAction",
        "skillType": "Free",
        "castCondition": {
          "pose": [
            101
          ]
        },
        "cd": 5.0,
        "cdUpperRange": 12.0,
        "initialCD": 4.0,
        "initialCDUpperRange": 8.0,
        "publicCDGroup": "",
        "triggerGCD": false,
        "HHAGODJIAPE": "",
        "stateIDs": [
          "RandomAction"
        ],
        "flagTargetReachable": "10",
        "flagSelfOnTemplateCollider": "01",
        "flagSelfInZone": "10",
        "flagTargetInZone": "11"
      }
    },
    "mixin": {
      "setControllerParameterOnBeHitByEntityType": [
        {
          "poseIDs": [
            101
          ],
          "settings": [
            {
              "entityTypes": [
                "Avatar",
                "Monster",
                "Gadget",
                "Bullet"
              ],
              "onSuccess": {
                "setAnimatorTrigger": [
                  {
                    "PLLJBINMGJK": "BeHit"
                  }
                ]
              },
              "onFail": {
                "setAnimatorTrigger": [
                  {
                    "PLLJBINMGJK": "BeHit"
                  }
                ]
              }
            }
          ]
        }
      ]
    },
    "birdCirclingTactic": [
      {
        "$type": "NNJKLGNPMNN",
        "enable": true
      },
      {
        "$type": "EPHBMLFODKF",
        "enable": true,
        "condition": {
          "pose": [
            101
          ]
        },
        "JMCOBEPDIGM": {
          "rangeMin": 4.0,
          "rangeMax": 9.0,
          "BFJBDDIIFOI": {
            "IDEFILBHNAP": 0.5,
            "IBLIPJPNOGC": 2.0,
            "AEBLMKFNCDG": 0.0,
            "IGLIBIOEGBB": 0.0
          },
          "NAOBMNGDKHL": "1111",
          "JCNIJOAIGII": "1111",
          "MNPDDAKDHGK": ""
        }
      },
      {
        "$type": "FPELBIJFGCE",
        "enable": true,
        "condition": {
          "pose": [
            101
          ]
        },
        "JMCOBEPDIGM": {
          "NBENNEKDIIA": 0.5,
          "KPNDPKIOPJM": 9.0,
          "PINAFKEDDLL": 3.0,
          "ANMPOPEBDIA": 10.0,
          "GMJFIMFFOEL": 1.5,
          "CHCPFDMADEI": 3.0,
          "MNPDDAKDHGK": ""
        }
      }
    ]
  },
  "inputKeys": [
    {
      "keyID": 1,
      "inputKeyCode": 257,
      "abilityName": ""
    }
  ],
  "move": {
    "$type": "IPNMJMHDMPF",
    "velocityForce": {
      "excludeForces": [
        "RetreatAirType",
        "WindZoneType",
        "AirflowType"
      ]
    },
    "facingMove": "ForwardBackward",
    "yawSpeedRatio": 0.800000011920929,
    "PKHOMJHFAEE": "RootNode"
  },
  "animal": {
    "tickAbilityElement": false,
    "hasCharacterRenderering": false,
    "canEnvAnimalChangeAnimator": true
  },
  "captureGroup": {
    "defaultConfig": {
      "captureEffect": "Eff_SceneObj_CatchAnimal_CaughtSuccess"
    }
  }
}