{
  "common": {
    "effectAttachShape": {
      "$type": "FJNPJANPGGC",
      "mesh": "EffectMesh"
    },
    "mass": 10000.0,
    "height": 6.0,
    "viewSize": 2.5,
    "affectedByWorld": true,
    "checkInSurface": true,
    "scale": 1.5,
    "useGrassDisplacement": true,
    "clearAnimatorOnSetLightDeactive": true,
    "clearAIOnSetLightDeactive": true,
    "reconnectSupport": true,
    "recoverByInitPose": true
  },
  "model": {
    "bornEffect": "",
    "attachEffect": "",
    "canBakeMesh": false,
    "BKPFGNPLDNJ": ""
  },
  "dither": {
    "showDitherDuration": 0.10000000149011612
  },
  "globalValue": {
    "serverGlobalValues": [
      "SGV_EffigyChallenge_V5_AssistOptionSelected_1",
      "SGV_EffigyChallenge_V5_AssistOptionSelected_2",
      "SGV_EffigyChallenge_V5_AssistOptionSelected_3",
      "SGV_EffigyChallenge_V5_AssistOptionSelected_4",
      "SGV_EffigyChallenge_V5_AssistOptionSelectedCount",
      "SGV_EffigyChallenge_V5_AssistSkillUsed"
    ]
  },
  "combat": {
    "property": {
      "endureType": "Monster_Boss_Other",
      "weight": 250.0
    },
    "beHit": {
      "hitBloodEffect": ""
    },
    "combatLock": {
      "lockShape": "CircleLockEnemy",
      "lockType": "Avatar&Monster_Lv4"
    },
    "die": {
      "hasAnimatorDie": true,
      "dieEndTime": 1.0,
      "dieForceDisappearTime": 4.5,
      "dieDisappearEffect": "Eff_Monster_Fungus_Raptor_Die_Smoke",
      "muteHitBox": true,
      "dieDenyLockOn": true,
      "dieIsGhostToEnemy": true,
      "dieIgnoreTriggerBullet": true,
      "muteBillboard": true,
      "mutePushCollider": true
    },
    "animEvents": {
      "MeleeAttack01_Boost": {
        "attackPattern": {
          "$type": "GMDIMKKHACA",
          "triggerType": "TriggerNoRepeat",
          "born": {
            "$type": "IAENDIPDFKD",
            "offset": {
              "LPCHALMFFOD": 1.0
            }
          },
          "height": 2.0,
          "fanAngle": 180.0,
          "OAHPDLJIADP": 3.75
        },
        "attackInfo": {
          "attackTag": "",
          "attenuationTag": "",
          "attenuationGroup": "default",
          "attackProperty": {
            "actorGrassSubHurtDelta": 0.75,
            "actorWindSubHurtDelta": 0.0,
            "elementType": "Grass",
            "IPFJJJGABPL": 25.0,
            "strikeType": "Blunt",
            "enBreak": 200.0,
            "attackType": "Melee",
            "GLKMCMDJBIK": 0.0
          },
          "hitPattern": {
            "onHitEffectName": "default",
            "hitImpulseY": "",
            "hitImpulseType": "LV5"
          }
        }
      },
      "MeleeAttack02_Boost": {
        "attackPattern": {
          "$type": "GMDIMKKHACA",
          "triggerType": "TriggerNoRepeat",
          "born": {
            "$type": "IAENDIPDFKD",
            "offset": {
              "LPCHALMFFOD": 1.0
            }
          },
          "height": 1.0,
          "fanAngle": 60.0,
          "OAHPDLJIADP": 7.349999904632568
        },
        "attackInfo": {
          "attackTag": "",
          "attenuationTag": "",
          "attenuationGroup": "default",
          "attackProperty": {
            "actorGrassSubHurtDelta": 0.8500000238418579,
            "actorWindSubHurtDelta": 0.0,
            "elementType": "Grass",
            "IPFJJJGABPL": 25.0,
            "strikeType": "Blunt",
            "enBreak": 200.0,
            "attackType": "Melee",
            "GLKMCMDJBIK": 0.0
          },
          "hitPattern": {
            "onHitEffectName": "default",
            "hitImpulseY": "",
            "hitImpulseType": "LV5"
          },
          "forceCameraShake": true,
          "cameraShake": {
            "shakeRange": 1.0,
            "shakeTime": 0.30000001192092896,
            "shakeDistance": 15.0
          }
        }
      },
      "MeleeAttack03_Boost": {
        "attackPattern": {
          "$type": "GMDIMKKHACA",
          "triggerType": "TriggerNoRepeat",
          "born": {
            "$type": "IAENDIPDFKD",
            "offset": {
              "LPCHALMFFOD": 0.20000000298023224
            }
          },
          "height": 2.0,
          "OAHPDLJIADP": 7.800000190734863
        },
        "attackInfo": {
          "attackTag": "",
          "attenuationTag": "",
          "attenuationGroup": "default",
          "attackProperty": {
            "actorGrassSubHurtDelta": 1.0,
            "actorWindSubHurtDelta": 0.0,
            "elementType": "Grass",
            "IPFJJJGABPL": 25.0,
            "strikeType": "Blunt",
            "enBreak": 200.0,
            "attackType": "Melee",
            "GLKMCMDJBIK": 0.0
          },
          "hitPattern": {
            "onHitEffectName": "default",
            "hitImpulseY": "",
            "hitImpulseType": "LV5"
          },
          "forceCameraShake": true,
          "cameraShake": {
            "shakeType": "CustomVector",
            "shakeRange": 1.2000000476837158,
            "shakeTime": 0.36000001430511475,
            "shakeDir": {
              "y": 1.0
            }
          }
        }
      },
      "ConfusedMeleeAttack01": {
        "attackPattern": {
          "$type": "GMDIMKKHACA",
          "triggerType": "TriggerNoRepeat",
          "born": {
            "$type": "IAENDIPDFKD"
          },
          "height": 3.4000000953674316,
          "fanAngle": 200.0,
          "OAHPDLJIADP": 4.300000190734863
        },
        "attackInfo": {
          "attackTag": "Fungus_Raptor_OverdoseAttack",
          "attenuationTag": "Monster_Fungus_Raptor_01_ConfuseMeleeAttack",
          "attenuationGroup": "Monster_Fungus_Raptor_ConfuseMeleeAttack",
          "attackProperty": {
            "actorGrassSubHurtDelta": 0.8999999761581421,
            "actorWindSubHurtDelta": 0.0,
            "elementType": "Grass",
            "IPFJJJGABPL": 25.0,
            "strikeType": "Blunt",
            "enBreak": 200.0,
            "attackType": "Melee",
            "GLKMCMDJBIK": 0.0
          },
          "hitPattern": {
            "onHitEffectName": "default",
            "hitImpulseY": "",
            "hitImpulseType": "LV5"
          },
          "forceCameraShake": true,
          "cameraShake": {
            "shakeRange": 1.0,
            "shakeTime": 0.11999999731779099,
            "shakeDistance": 30.0
          }
        }
      },
      "ConfusedMeleeAttack02": {
        "attackPattern": {
          "$type": "GMDIMKKHACA",
          "triggerType": "TriggerNoRepeat",
          "born": {
            "$type": "IAENDIPDFKD"
          },
          "height": 3.4000000953674316,
          "fanAngle": 200.0,
          "OAHPDLJIADP": 4.300000190734863
        },
        "attackInfo": {
          "attackTag": "Fungus_Raptor_OverdoseAttack",
          "attenuationTag": "Monster_Fungus_Raptor_01_ConfuseMeleeAttack",
          "attenuationGroup": "Monster_Fungus_Raptor_ConfuseMeleeAttack",
          "attackProperty": {
            "actorGrassSubHurtDelta": 0.8999999761581421,
            "actorWindSubHurtDelta": 0.0,
            "elementType": "Grass",
            "IPFJJJGABPL": 25.0,
            "strikeType": "Blunt",
            "enBreak": 200.0,
            "attackType": "Melee",
            "GLKMCMDJBIK": 0.0
          },
          "hitPattern": {
            "onHitEffectName": "default",
            "hitImpulseY": "",
            "hitImpulseType": "LV5"
          },
          "forceCameraShake": true,
          "cameraShake": {
            "shakeRange": 1.0,
            "shakeTime": 0.11999999731779099,
            "shakeDistance": 30.0
          }
        }
      },
      "ConfusedMeleeAttack03": {
        "attackPattern": {
          "$type": "GMDIMKKHACA",
          "triggerType": "TriggerNoRepeat",
          "height": 3.4000000953674316,
          "fanAngle": 220.0,
          "OAHPDLJIADP": 4.300000190734863
        },
        "attackInfo": {
          "attackTag": "Fungus_Raptor_OverdoseAttack",
          "attenuationTag": "Monster_Fungus_Raptor_01_ConfuseMeleeAttack",
          "attenuationGroup": "Monster_Fungus_Raptor_ConfuseMeleeAttack",
          "attackProperty": {
            "actorGrassSubHurtDelta": 0.8999999761581421,
            "actorWindSubHurtDelta": 0.0,
            "elementType": "Grass",
            "IPFJJJGABPL": 25.0,
            "strikeType": "Blunt",
            "enBreak": 200.0,
            "attackType": "Melee",
            "GLKMCMDJBIK": 0.0
          },
          "hitPattern": {
            "onHitEffectName": "default",
            "hitImpulseY": "",
            "hitImpulseType": "LV5"
          },
          "forceCameraShake": true,
          "cameraShake": {
            "shakeRange": 1.0,
            "shakeTime": 0.11999999731779099,
            "shakeDistance": 30.0
          }
        }
      },
      "ChargeAttack": {
        "attackPattern": {
          "$type": "GMDIMKKHACA",
          "triggerType": "TriggerNoRepeat",
          "born": {
            "$type": "IAENDIPDFKD"
          },
          "height": 2.0,
          "OAHPDLJIADP": 3.5999999046325684
        },
        "attackInfo": {
          "attackTag": "Fungus_Raptor_OverdoseAttack",
          "attenuationTag": "Monster_Fungus_Raptor_01_ChargeAttack",
          "attenuationGroup": "SeaHorse_Primo_HitProtection_Multi",
          "attackProperty": {
            "actorGrassSubHurtDelta": 1.0,
            "actorWindSubHurtDelta": 0.0,
            "elementType": "Grass",
            "IPFJJJGABPL": 25.0,
            "strikeType": "Blunt",
            "enBreak": 200.0,
            "attackType": "Melee",
            "GLKMCMDJBIK": 0.0
          },
          "hitPattern": {
            "onHitEffectName": "default",
            "hitImpulseY": "",
            "hitImpulseType": "LV5"
          },
          "forceCameraShake": true,
          "cameraShake": {
            "shakeType": "CustomVector",
            "shakeRange": 0.699999988079071,
            "shakeTime": 0.23999999463558197,
            "shakeDistance": 15.0,
            "shakeDir": {
              "y": 1.0
            },
            "extension": {
              "cycleDamping": 0.30000001192092896,
              "rangeAttenuation": 0.10000000149011612
            }
          }
        }
      }
    }
  },
  "abilities": [
    {
      "abilityID": "",
      "abilityName": "Monster_Fungus_Raptor_01_EnterCharged",
      "abilityOverride": ""
    },
    {
      "abilityID": "",
      "abilityName": "Monster_Fungus_Raptor_01_ExitCharged",
      "abilityOverride": ""
    },
    {
      "abilityID": "",
      "abilityName": "Monster_Fungus_Raptor_01_ComboHandler",
      "abilityOverride": ""
    },
    {
      "abilityID": "",
      "abilityName": "Monster_Fungus_Raptor_01_MeleeAttack",
      "abilityOverride": ""
    },
    {
      "abilityID": "",
      "abilityName": "Monster_Fungus_Raptor_01_ShootAttack01_Boost",
      "abilityOverride": ""
    },
    {
      "abilityID": "",
      "abilityName": "Monster_Fungus_Raptor_01_ShootAttack02_Boost",
      "abilityOverride": ""
    },
    {
      "abilityID": "",
      "abilityName": "Monster_Fungus_Raptor_01_ShootAttack03_Boost",
      "abilityOverride": ""
    },
    {
      "abilityID": "",
      "abilityName": "Monster_Fungus_Raptor_01_PowerAttack",
      "abilityOverride": ""
    },
    {
      "abilityID": "",
      "abilityName": "Monster_Fungus_Raptor_BossEvent_StateManager",
      "abilityOverride": ""
    },
    {
      "abilityID": "",
      "abilityName": "Monster_Fungus_Raptor_BossEvent_ColliderManager",
      "abilityOverride": ""
    },
    {
      "abilityID": "",
      "abilityName": "Monster_Fungus_Raptor_BossEvent_SteerAttack",
      "abilityOverride": ""
    },
    {
      "abilityID": "",
      "abilityName": "Monster_BossEvent_CommonProcess",
      "abilityOverride": ""
    },
    {
      "abilityID": "",
      "abilityName": "Monster_Fungus_Raptor_BossEvent_RopeBoundLogic",
      "abilityOverride": ""
    },
    {
      "abilityID": "",
      "abilityName": "Monster_Fungus_Raptor_BossEvent_ChargeAttack",
      "abilityOverride": ""
    },
    {
      "abilityID": "",
      "abilityName": "Monster_Fungus_Raptor_BossEvent_CastPumpkinBullet",
      "abilityOverride": ""
    },
    {
      "abilityID": "",
      "abilityName": "Monster_Fungus_Raptor_BossEvent_DecayExplode",
      "abilityOverride": ""
    },
    {
      "abilityID": "",
      "abilityName": "Monster_Fungus_Raptor_BossEvent_CameraManager",
      "abilityOverride": ""
    },
    {
      "abilityID": "",
      "abilityName": "Monster_Fungus_Raptor_BossEvent_Camera_JumpView",
      "abilityOverride": ""
    },
    {
      "abilityID": "",
      "abilityName": "Monster_Fungus_Raptor_BossEvent_Camera_UltView",
      "abilityOverride": ""
    },
    {
      "abilityID": "",
      "abilityName": "Monster_Fungus_Raptor_BossEvent_JumpWarning",
      "abilityOverride": ""
    },
    {
      "abilityID": "",
      "abilityName": "Monster_Fungus_Raptor_BossEvent_ToNormalState",
      "abilityOverride": ""
    }
  ],
  "stateLayers": {
    "defaultLayer": {
      "$type": "GBGJJIIEMBD",
      "layerIndexName": "",
      "CPAANEIJCGD": "",
      "stateIDs": {
        "NormalIdle": {
          "$type": "NEDIFAKEGCO",
          "animatorStates": {
            "Standby": []
          },
          "canDoSkill": true,
          "canSyncMove": true,
          "resetAnimatorTriggerOnExit": [
            "DoSkill"
          ],
          "canSteer": true
        },
        "FreeMove": {
          "$type": "NEDIFAKEGCO",
          "animatorStates": {
            "WalkFree": [
              "Audio_Monster_Fungus_Raptor_WalkFree"
            ]
          },
          "canSyncMove": true,
          "resetAnimatorTriggerOnExit": [
            "DoSkill"
          ],
          "canSteer": true
        },
        "NormalMove": {
          "$type": "NEDIFAKEGCO",
          "animatorStates": {
            "WalkForward_BS": [
              "Audio_Monster_Fungus_Raptor_Walk"
            ],
            "WalkForward": [
              "Audio_Monster_Fungus_Raptor_Walk"
            ],
            "WalkBack_BS": [
              "Audio_Monster_Fungus_Raptor_Walk"
            ],
            "WalkBack": [
              "Audio_Monster_Fungus_Raptor_Walk"
            ],
            "Run_BS": [
              "Audio_Monster_Fungus_Raptor_Run"
            ],
            "Run": [
              "Audio_Monster_Fungus_Raptor_Run"
            ]
          },
          "canDoSkill": true,
          "canSyncMove": true,
          "resetAnimatorTriggerOnExit": [
            "DoSkill"
          ],
          "canSteer": true
        },
        "TurnLeft": {
          "$type": "NEDIFAKEGCO",
          "animatorStates": {
            "TurnLeft": [
              "Audio_Monster_Fungus_Raptor_Turn"
            ]
          },
          "canSyncMove": true,
          "resetAnimatorTriggerOnExit": [
            "DoSkill"
          ],
          "canSteer": true
        },
        "TurnRight": {
          "$type": "NEDIFAKEGCO",
          "animatorStates": {
            "TurnRight": [
              "Audio_Monster_Fungus_Raptor_Turn"
            ]
          },
          "canSyncMove": true,
          "resetAnimatorTriggerOnExit": [
            "DoSkill"
          ],
          "canSteer": true
        },
        "Die": {
          "$type": "NEDIFAKEGCO",
          "animatorStates": {
            "Die": [
              "Monster_Fungus_Raptor_Die",
              "Audio_Monster_Fungus_Raptor_Die"
            ]
          },
          "resetAnimatorTriggerOnEnter": [
            "DoSkill"
          ]
        },
        "Born": {
          "$type": "NEDIFAKEGCO",
          "animatorStates": {
            "Born": []
          },
          "canSyncMove": true,
          "resetAnimatorTriggerOnExit": [
            "DoSkill"
          ]
        },
        "Warning": {
          "$type": "NEDIFAKEGCO",
          "animatorStates": {
            "Alert": [
              "Audio_Monster_Fungus_Raptor_Alert"
            ]
          },
          "resetAnimatorTriggerOnExit": [
            "BeHit",
            "DoSkill"
          ],
          "canSteer": true
        },
        "ChangeState": {
          "$type": "NEDIFAKEGCO",
          "animatorStates": {
            "EnterOverdose": [
              "Audio_Monster_Fungus_Raptor_EnterOverdose"
            ]
          },
          "resetAnimatorTriggerOnEnter": [
            "BeHit"
          ],
          "resetAnimatorTriggerOnExit": [
            "DoSkill"
          ],
          "setAnimatorBoolean": [
            {
              "name": "InOverdose"
            }
          ]
        },
        "Stun": {
          "$type": "NEDIFAKEGCO",
          "animatorStates": {
            "Stun": [
              "Audio_Monster_Fungus_Raptor_Faint_Loop"
            ]
          },
          "canDoSkill": true,
          "resetAnimatorTriggerOnEnter": [
            "DoSkill"
          ]
        },
        "Stun_RopeBound": {
          "$type": "NEDIFAKEGCO",
          "animatorStates": {
            "Stun_RopeBound": [
              "Audio_Monster_Fungus_Raptor_Faint_Loop"
            ]
          },
          "canDoSkill": true,
          "resetAnimatorTriggerOnEnter": [
            "DoSkill"
          ],
          "setAnimatorBoolean": [
            {
              "name": "StunRopeBound"
            }
          ]
        },
        "BackStep": {
          "$type": "NEDIFAKEGCO",
          "animatorStates": {
            "BackStep": [
              "Monster_Fungus_Raptor_BackStep",
              "Audio_Monster_Fungus_Raptor_BackStep"
            ]
          },
          "resetAnimatorTriggerOnExit": [
            "BeHit",
            "DoSkill"
          ],
          "canSteer": true
        },
        "ShootAttackBackStep": {
          "$type": "NEDIFAKEGCO",
          "animatorStates": {
            "ShootAttackBackStep": [
              "Monster_Fungus_Raptor_BackStep",
              "Audio_Monster_Fungus_Raptor_BackStep"
            ]
          },
          "resetAnimatorTriggerOnExit": [
            "BeHit",
            "DoSkill"
          ],
          "canSteer": true
        },
        "MeleeAttackLeftStep": {
          "$type": "NEDIFAKEGCO",
          "animatorStates": {
            "MeleeAttackLeftStep": [
              "Monster_Fungus_Raptor_BackStep",
              "Audio_Monster_Fungus_Raptor_BackStep"
            ]
          },
          "resetAnimatorTriggerOnExit": [
            "BeHit",
            "DoSkill"
          ],
          "canSteer": true
        },
        "MeleeAttackRightStep": {
          "$type": "NEDIFAKEGCO",
          "animatorStates": {
            "MeleeAttackRightStep": [
              "Monster_Fungus_Raptor_BackStep",
              "Audio_Monster_Fungus_Raptor_BackStep"
            ]
          },
          "resetAnimatorTriggerOnExit": [
            "BeHit",
            "DoSkill"
          ],
          "canSteer": true
        },
        "ShootAttackLeftStep": {
          "$type": "NEDIFAKEGCO",
          "animatorStates": {
            "ShootAttackLeftStep": [
              "Monster_Fungus_Raptor_BackStep",
              "Audio_Monster_Fungus_Raptor_BackStep"
            ]
          },
          "resetAnimatorTriggerOnExit": [
            "BeHit",
            "DoSkill"
          ],
          "canSteer": true
        },
        "ShootAttackRightStep": {
          "$type": "NEDIFAKEGCO",
          "animatorStates": {
            "ShootAttackRightStep": [
              "Monster_Fungus_Raptor_BackStep",
              "Audio_Monster_Fungus_Raptor_BackStep"
            ]
          },
          "resetAnimatorTriggerOnExit": [
            "BeHit",
            "DoSkill"
          ],
          "canSteer": true
        },
        "MeleeAttack_BS": {
          "$type": "NEDIFAKEGCO",
          "animatorStates": {
            "MeleeAttack01_BS": [
              "Audio_Monster_Fungus_Raptor_MeleeAttack01_BS"
            ]
          },
          "resetAnimatorTriggerOnExit": [
            "BeHit",
            "DoSkill"
          ],
          "canSteer": true
        },
        "MeleeAttack02_BS": {
          "$type": "NEDIFAKEGCO",
          "animatorStates": {
            "MeleeAttack02_BS": [
              "Audio_Monster_Fungus_Raptor_MeleeAttack02_BS"
            ]
          },
          "resetAnimatorTriggerOnExit": [
            "BeHit",
            "DoSkill"
          ],
          "canSteer": true
        },
        "MeleeAttack01_Attack": {
          "$type": "NEDIFAKEGCO",
          "animatorStates": {
            "MeleeAttack01_Attack": [
              "Monster_Fungus_Raptor_MeleeAttack01_Boost_Attack",
              "Audio_Monster_Fungus_Raptor_MeleeAttack01_Attack"
            ]
          },
          "resetAnimatorTriggerOnExit": [
            "BeHit",
            "DoSkill"
          ]
        },
        "MeleeAttack02_Attack": {
          "$type": "NEDIFAKEGCO",
          "animatorStates": {
            "MeleeAttack02_Attack": [
              "Monster_Fungus_Raptor_MeleeAttack02_Boost_Attack",
              "Audio_Monster_Fungus_Raptor_MeleeAttack02_Attack"
            ]
          },
          "resetAnimatorTriggerOnExit": [
            "BeHit",
            "DoSkill"
          ]
        },
        "MeleeAttack01_AS": {
          "$type": "NEDIFAKEGCO",
          "animatorStates": {
            "MeleeAttack01_AS": [
              "Audio_Monster_Fungus_Raptor_MeleeAttack01_AS"
            ]
          },
          "resetAnimatorTriggerOnExit": [
            "BeHit",
            "DoSkill"
          ]
        },
        "MeleeAttack02_AS": {
          "$type": "NEDIFAKEGCO",
          "animatorStates": {
            "MeleeAttack02_AS": [
              "Audio_Monster_Fungus_Raptor_MeleeAttack02_AS"
            ]
          },
          "resetAnimatorTriggerOnExit": [
            "BeHit",
            "DoSkill"
          ]
        },
        "MeleeAttack03": {
          "$type": "NEDIFAKEGCO",
          "animatorStates": {
            "MeleeAttack03": [
              "Monster_Fungus_Raptor_MeleeAttack03_BossEvent",
              "Monster_Fungus_Raptor_BossEvent_MeleeAttack03_Camera"
            ]
          }
        },
        "SporeAttack_BS": {
          "$type": "NEDIFAKEGCO",
          "animatorStates": {
            "SporeAttack_BS": [
              "Audio_Monster_Fungus_Raptor_SporeAttack_BS"
            ]
          },
          "resetAnimatorTriggerOnExit": [
            "BeHit",
            "DoSkill"
          ],
          "canSteer": true
        },
        "SporeAttack": {
          "$type": "NEDIFAKEGCO",
          "animatorStates": {
            "SporeAttack_Attack": [
              "Monster_Fungus_Raptor_SporeAttack_BossEvent",
              "Audio_Monster_Fungus_Raptor_02_SporeAttack_Attack"
            ],
            "SporeAttack_AS": [
              "Monster_Fungus_Raptor_SporeAttack_AS_BossEvent",
              "Audio_Monster_Fungus_Raptor_02_SporeAttack_AS"
            ]
          },
          "resetAnimatorTriggerOnExit": [
            "BeHit",
            "DoSkill"
          ],
          "canSteer": true
        },
        "ShootAttack_BS": {
          "$type": "NEDIFAKEGCO",
          "animatorStates": {
            "ShootAttack01_BS": [
              "Monster_Fungus_Raptor_ShootAttack01_BS",
              "Audio_Monster_Fungus_Raptor_ShootAttack01_BS"
            ],
            "ShootAttack01_Ready": [],
            "ShootAttack02_BS": [
              "Monster_Fungus_Raptor_ShootAttack02_BS",
              "Audio_Monster_Fungus_Raptor_ShootAttack02_BS"
            ],
            "ShootAttack02_Ready": [],
            "ShootAttack03_BS": [
              "Monster_Fungus_Raptor_ShootAttack03_BS",
              "Audio_Monster_Fungus_Raptor_ShootAttack03_BS"
            ],
            "ShootAttack03_Ready": []
          },
          "resetAnimatorTriggerOnExit": [
            "BeHit",
            "DoSkill",
            "ToMeleeAttackTrigger"
          ],
          "canSteer": true
        },
        "ShootAttack": {
          "$type": "NEDIFAKEGCO",
          "animatorStates": {
            "ShootAttack01_Attack": [
              "Monster_Fungus_Raptor_ShootAttack01_Boost_Attack",
              "Audio_Monster_Fungus_Raptor_ShootAttack01_Attack"
            ],
            "ShootAttack01_AS": [
              "Audio_Monster_Fungus_Raptor_ShootAttack02_AS"
            ],
            "ShootAttack02_Attack": [
              "Monster_Fungus_Raptor_ShootAttack02_Boost_Attack",
              "Audio_Monster_Fungus_Raptor_ShootAttack01_Attack"
            ],
            "ShootAttack02_AS": [
              "Audio_Monster_Fungus_Raptor_ShootAttack02_AS"
            ],
            "ShootAttack03_Attack": [
              "Monster_Fungus_Raptor_ShootAttack03_Boost_Attack",
              "Audio_Monster_Fungus_Raptor_ShootAttack03_Attack"
            ],
            "ShootAttack03_AS": [
              "Monster_Fungus_Raptor_ShootAttack03_AS",
              "Audio_Monster_Fungus_Raptor_ShootAttack03_AS"
            ]
          },
          "resetAnimatorTriggerOnExit": [
            "BeHit",
            "DoSkill",
            "ToMeleeAttackTrigger"
          ],
          "canSteer": true
        },
        "StartMeleeAttack": {
          "$type": "NEDIFAKEGCO",
          "animatorStates": {
            "StartMeleeAttack": [
              "Monster_Fungus_Raptor_BossEvent_OverdoseSkill_EnterCharged",
              "Audio_Monster_Fungus_Raptor_Taunt"
            ]
          }
        },
        "ConfusedMeleeAttack": {
          "$type": "NEDIFAKEGCO",
          "animatorStates": {
            "ConfusedMeleeAttack_1": [
              "Monster_Fungus_Raptor_ConfusedMeleeAttack_BossEvent",
              "Audio_Monster_Fungus_Raptor_ConfusedMeleeAttack"
            ],
            "ConfusedMeleeAttack_2": [
              "Monster_Fungus_Raptor_ConfusedMeleeAttack_BossEvent",
              "Audio_Monster_Fungus_Raptor_ConfusedMeleeAttack"
            ]
          },
          "canSteer": true
        },
        "ToJump": {
          "$type": "NEDIFAKEGCO",
          "animatorStates": {
            "ToJump_1": [
              "Monster_Fungus_Raptor_ToJump_BossEvent"
            ],
            "ToJump_2": [
              "Monster_Fungus_Raptor_ToJump_BossEvent"
            ]
          }
        },
        "ConfusedJumpAttack": {
          "$type": "NEDIFAKEGCO",
          "animatorStates": {
            "ConfusedJumpAttack_1": [
              "Monster_Fungus_Raptor_MeleeAttack03_BossEvent",
              "Monster_Fungus_Raptor_BossEvent_ConfuseAttack_Camera"
            ],
            "ConfusedJumpAttack_2": [
              "Monster_Fungus_Raptor_MeleeAttack03_BossEvent",
              "Monster_Fungus_Raptor_BossEvent_ConfuseAttack_Camera",
              "Monster_Fungus_Raptor_BossEvent_UltExit"
            ]
          }
        },
        "ToMelee": {
          "$type": "NEDIFAKEGCO",
          "animatorStates": {
            "ToMelee_1": []
          }
        },
        "StartChargeAttack": {
          "$type": "NEDIFAKEGCO",
          "animatorStates": {
            "StartChargeAttack": [
              "Monster_Fungus_Raptor_BossEvent_OverdoseSkill_EnterCharged"
            ]
          }
        },
        "ChargeAttack_BS": {
          "$type": "NEDIFAKEGCO",
          "animatorStates": {
            "ChargeAttack_BS": [
              "Monster_Fungus_Raptor_ChargeAttack_BS",
              "Audio_Monster_Fungus_Raptor_ChargeAttack_BS"
            ]
          },
          "canSteer": true
        },
        "ChargeAttack_RushLoop": {
          "$type": "NEDIFAKEGCO",
          "animatorStates": {
            "ChargeAttack_BS02": [
              "Audio_Monster_Fungus_Raptor_ChargeAttack_BS_02"
            ],
            "ChargeAttack_RushLoop01": [
              "Monster_Fungus_Raptor_ChargeAttack_RushLoop",
              "Audio_Monster_Fungus_Raptor_Run"
            ],
            "ChargeAttack_RushLoop02": [
              "Monster_Fungus_Raptor_ChargeAttack_RushLoop",
              "Audio_Monster_Fungus_Raptor_Run"
            ]
          }
        },
        "ChargeAttack_TurnLeft": {
          "$type": "NEDIFAKEGCO",
          "animatorStates": {
            "ChargeAttack_TurnLeft": [
              "Monster_Fungus_Raptor_ChargeAttack_TurnLeft",
              "Audio_Monster_Fungus_Raptor_ChargeAttack_Turn"
            ]
          }
        },
        "ChargeAttack_TurnRight": {
          "$type": "NEDIFAKEGCO",
          "animatorStates": {
            "ChargeAttack_TurnRight": [
              "Monster_Fungus_Raptor_ChargeAttack_TurnRight",
              "Audio_Monster_Fungus_Raptor_ChargeAttack_Turn"
            ]
          }
        },
        "ChargeAttack_AS": {
          "$type": "NEDIFAKEGCO",
          "animatorStates": {
            "ChargeAttack_AS": [
              "Monster_Fungus_Raptor_BossEvent_OverdoseSkill_ExitCharged",
              "Monster_Fungus_Raptor_BossEvent_UltExit2"
            ]
          }
        },
        "PowerAttack_BS": {
          "$type": "NEDIFAKEGCO",
          "animatorStates": {
            "PowerAttack_BS": [
              "Monster_Fungus_Raptor_PowerAttack_BS",
              "Audio_Monster_Fungus_Raptor_PowerAttack_BS"
            ]
          },
          "resetAnimatorTriggerOnExit": [
            "BeHit",
            "DoSkill"
          ],
          "setAnimatorBoolean": [
            {
              "name": "InOverdose"
            }
          ],
          "canSteer": true
        },
        "PowerJump": {
          "$type": "NEDIFAKEGCO",
          "animatorStates": {
            "PowerJump01": [
              "Monster_Fungus_Raptor_MeleeAttack03_BossEvent",
              "Monster_Fungus_Raptor_BossEvent_MeleeAttack03_Camera"
            ],
            "PowerJump02": [
              "Monster_Fungus_Raptor_MeleeAttack03_BossEvent",
              "Monster_Fungus_Raptor_BossEvent_MeleeAttack03_Camera"
            ]
          },
          "setAnimatorBoolean": [
            {
              "name": "InOverdose"
            }
          ]
        },
        "PowerAttack": {
          "$type": "NEDIFAKEGCO",
          "animatorStates": {
            "PowerAttack_BS02": [
              "Monster_Fungus_Raptor_PowerAttack_BS02",
              "Audio_Monster_Fungus_Raptor_PowerAttack_BS_02"
            ],
            "PowerAttack_AttackLoop": []
          },
          "resetAnimatorTriggerOnExit": [
            "BeHit",
            "DoSkill"
          ],
          "setAnimatorBoolean": [
            {
              "name": "InOverdose"
            }
          ],
          "canSteer": true
        },
        "PowerAttack_AS": {
          "$type": "NEDIFAKEGCO",
          "animatorStates": {
            "PowerAttack_AS": [
              "Monster_Fungus_Raptor_PowerAttack_AS",
              "Audio_Monster_Fungus_Raptor_PowerAttack_AS"
            ]
          },
          "resetAnimatorTriggerOnExit": [
            "BeHit",
            "DoSkill"
          ],
          "setAnimatorBoolean": [
            {
              "name": "InOverdose"
            }
          ],
          "canSteer": true
        },
        "Recovery": {
          "$type": "NEDIFAKEGCO",
          "animatorStates": {
            "Recovery": [
              "Monster_Fungus_Raptor_BossEvent_Recovery",
              "Audio_Monster_Fungus_Raptor_Faint_AS"
            ],
            "Recovery_RopeBound": [
              "Monster_Fungus_Raptor_BossEvent_Recovery"
            ]
          },
          "resetAnimatorTriggerOnExit": [
            "BeHit",
            "DoSkill",
            "EnterOverdoseTrigger"
          ]
        },
        "RopeBound": {
          "$type": "NEDIFAKEGCO",
          "animatorStates": {
            "RopeBound_AS": [
              "Audio_Monster_Fungus_Raptor_02_RopeBound_AS"
            ],
            "RopeBound_Loop": [],
            "RopeBound_BS": [
              "Audio_Monster_Fungus_Raptor_02_RopeBound_BS"
            ]
          },
          "resetAnimatorTriggerOnEnter": [
            "RopeBound"
          ],
          "resetAnimatorTriggerOnExit": [
            "RopeBound"
          ]
        },
        "RopeBound_Overdose_BS": {
          "$type": "NEDIFAKEGCO",
          "animatorStates": {
            "RopeBound_Overdose_BS": []
          },
          "resetAnimatorTriggerOnEnter": [
            "RopeBound"
          ],
          "resetAnimatorTriggerOnExit": [
            "RopeBound"
          ],
          "setAnimatorBoolean": [
            {
              "name": "InOverdose"
            }
          ]
        },
        "PumpkinSummon": {
          "$type": "NEDIFAKEGCO",
          "animatorStates": {
            "PumpkinSummon": [
              "Monster_Fungus_Raptor_SummonPumpkin_BossEvent",
              "Audio_Monster_Fungus_Raptor_02_PumpkinSummon"
            ],
            "PumpkinSummon_AS": [
              "Audio_Monster_Fungus_Raptor_02_PumpkinSummon_AS"
            ]
          }
        },
        "ShieldRecover": {
          "$type": "NEDIFAKEGCO",
          "animatorStates": {
            "ShieldRecover": [
              "Monster_Fungus_Raptor_BossEvent_ShieldRecover",
              "Audio_Monster_Fungus_Raptor_Alert"
            ]
          }
        },
        "ReturnToBorn": {
          "$type": "NEDIFAKEGCO",
          "animatorStates": {
            "ReturnToBorn": [
              "Monster_Fungus_Raptor_ReturnToBorn",
              "Audio_Monster_Fungus_Raptor_ReturnToBorn"
            ]
          },
          "cullingModelAlwaysAnimate": true,
          "resetAnimatorTriggerOnExit": [
            "BeHit",
            "DoSkill"
          ]
        }
      }
    }
  },
  "billboard": {
    "$type": "DNGNMAJBCNP",
    "attachPoint": "BillboardAttach",
    "offset": {
      "y": 0.5
    },
    "radiusOffset": 1.0,
    "enableSelfAdapt": true,
    "showHPBar": true,
    "size": "Grand"
  },
  "initialPoses": {
    "Default": {
      "initialPoseID": 101
    }
  },
  "aibeta": {
    "enable": true,
    "moveSetting": {
      "useNavMesh": false,
      "navMeshAgentName": "Undead01"
    },
    "sensing": {
      "settings": {
        "DefaultSetting": {
          "viewRange": 25.0,
          "feelRange": 25.0
        },
        "NeverCombat": {
          "enableVision": false,
          "hearAttractionRange": 0.0,
          "feelRange": 0.0
        }
      },
      "templates": {
        "DefaultTemplate": {
          "DefaultPoses": "DefaultSetting"
        },
        "NeverCombatTemplate": {
          "DefaultPoses": "NeverCombat"
        }
      }
    },
    "neurons": {
      "DefaultSetting": [
        "HIT"
      ],
      "NeverCombat": []
    },
    "threat": {
      "GHIJMOKOLMB": "",
      "clearThreatTargetDistance": 70.0,
      "clearThreatEdgeDistance": 2.0,
      "clearThreatByTargetOutOfZone": true,
      "viewThreatGrow": 35.0,
      "threatDecreaseSpeed": 100.0,
      "resistTauntLevel": "Monster_TauntLevel_4",
      "forceAlertByDefendArea": true
    },
    "defendArea": {
      "defendRange": 50.0
    },
    "skillGroupCDConfigs": [
      {
        "skillGroupCDID": 1,
        "skillGroupCDTime": 13.0
      },
      {
        "skillGroupCDID": 2,
        "skillGroupCDTime": 8.0
      }
    ],
    "skills": {
      "1": {
        "name": "OnAlert",
        "skillType": "OnAlert",
        "faceTarget": true,
        "publicCDGroup": "",
        "triggerGCD": false,
        "HHAGODJIAPE": "",
        "stateIDs": [
          "Warning"
        ],
        "skillQueryingTime": 3.0,
        "flagTargetReachable": "10",
        "flagSelfOnTemplateCollider": "01",
        "flagSelfInZone": "10",
        "flagTargetInZone": "11"
      },
      "50": {
        "name": "ShieldRecover",
        "priority": 1,
        "castCondition": {
          "pose": [
            301
          ],
          "globalValues": [
            "_NOT_IN_DENDRO_SKIN",
            "_ENABLE_SHIELD"
          ],
          "globalValuesTargetType": "SELF"
        },
        "publicCDGroup": "",
        "ignoreGCD": true,
        "triggerGCD": false,
        "HHAGODJIAPE": "",
        "stateIDs": [
          "ShieldRecover"
        ],
        "skillQueryingTime": 3.0,
        "flagTargetReachable": "11",
        "flagSelfOnTemplateCollider": "11",
        "flagSelfInZone": "11",
        "flagTargetInZone": "11"
      },
      "101": {
        "name": "MeleeAttack_Active",
        "enableSkillPrepare": true,
        "skillPrepareTimeout": 2.0,
        "castCondition": {
          "pose": [
            301
          ],
          "needReInitCD": true,
          "pickRangeMin": 6.0,
          "pickRangeMax": 16.0,
          "castRangeMax": 8.0
        },
        "cd": 4.0,
        "initialCD": 4.0,
        "publicCDGroup": "",
        "triggerGCD": false,
        "HHAGODJIAPE": "",
        "stateIDs": [
          "MeleeAttack01_Attack",
          "MeleeAttack01_AS",
          "MeleeAttack02_BS",
          "MeleeAttack02_Attack",
          "MeleeAttack02_AS",
          "MeleeAttack03",
          "ShootAttack_BS",
          "ShootAttack",
          "MeleeAttackLeftStep",
          "MeleeAttackRightStep",
          "ShootAttackLeftStep",
          "ShootAttackRightStep"
        ],
        "flagTargetReachable": "10",
        "flagSelfOnTemplateCollider": "01",
        "flagSelfInZone": "10",
        "flagTargetInZone": "11"
      },
      "102": {
        "name": "MeleeAttack_Passive",
        "skillPrepareTimeout": 2.0,
        "castCondition": {
          "pose": [
            301
          ],
          "needReInitCD": true,
          "pickRangeMax": 6.0
        },
        "cd": 4.0,
        "initialCD": 4.0,
        "publicCDGroup": "",
        "triggerGCD": false,
        "HHAGODJIAPE": "",
        "stateIDs": [
          "MeleeAttack01_Attack",
          "MeleeAttack01_AS",
          "MeleeAttack02_BS",
          "MeleeAttack02_Attack",
          "MeleeAttack02_AS",
          "MeleeAttack03",
          "ShootAttack_BS",
          "ShootAttack",
          "MeleeAttackLeftStep",
          "MeleeAttackRightStep",
          "ShootAttackLeftStep",
          "ShootAttackRightStep"
        ],
        "flagTargetReachable": "10",
        "flagSelfOnTemplateCollider": "01",
        "flagSelfInZone": "10",
        "flagTargetInZone": "11"
      },
      "201": {
        "name": "ShootAttack_Far",
        "castCondition": {
          "pose": [
            301
          ],
          "needReInitCD": true,
          "pickRangeMin": 11.0,
          "pickRangeMax": 99.0
        },
        "cd": 6.0,
        "initialCD": 6.0,
        "publicCDGroup": "",
        "triggerGCD": false,
        "skillGroupCDID": 2,
        "HHAGODJIAPE": "",
        "stateIDs": [
          "MeleeAttack01_Attack",
          "MeleeAttack01_AS",
          "MeleeAttack02_BS",
          "MeleeAttack02_Attack",
          "MeleeAttack02_AS",
          "MeleeAttack03",
          "ShootAttack_BS",
          "ShootAttack",
          "MeleeAttackLeftStep",
          "MeleeAttackRightStep",
          "ShootAttackLeftStep",
          "ShootAttackRightStep"
        ],
        "flagTargetReachable": "10",
        "flagSelfOnTemplateCollider": "01",
        "flagSelfInZone": "10",
        "flagTargetInZone": "11"
      },
      "202": {
        "name": "ShootAttack_Near",
        "castCondition": {
          "pose": [
            301
          ],
          "needReInitCD": true,
          "pickRangeMin": 6.0,
          "pickRangeMax": 12.0
        },
        "cd": 15.0,
        "initialCD": 15.0,
        "publicCDGroup": "",
        "triggerGCD": false,
        "skillGroupCDID": 2,
        "HHAGODJIAPE": "",
        "stateIDs": [
          "ShootAttackBackStep",
          "MeleeAttack01_Attack",
          "MeleeAttack01_AS",
          "MeleeAttack02_BS",
          "MeleeAttack02_Attack",
          "MeleeAttack02_AS",
          "MeleeAttack03",
          "ShootAttack_BS",
          "ShootAttack",
          "MeleeAttackLeftStep",
          "MeleeAttackRightStep",
          "ShootAttackLeftStep",
          "ShootAttackRightStep"
        ],
        "flagTargetReachable": "10",
        "flagSelfOnTemplateCollider": "01",
        "flagSelfInZone": "10",
        "flagTargetInZone": "11"
      },
      "301": {
        "name": "ConfusedMeleeAttack",
        "priority": 2,
        "castCondition": {
          "pose": [
            301
          ],
          "pickRangeMin": 6.0,
          "pickRangeMax": 15.0
        },
        "cd": 32.0,
        "initialCD": 7.0,
        "publicCDGroup": "",
        "skillGroupCDID": 1,
        "HHAGODJIAPE": "",
        "stateIDs": [
          "StartMeleeAttack",
          "ConfusedMeleeAttack",
          "ToJump",
          "ConfusedJumpAttack",
          "ToMelee"
        ],
        "skillQueryingTime": 2.0,
        "flagTargetReachable": "10",
        "flagSelfOnTemplateCollider": "01",
        "flagSelfInZone": "10",
        "flagTargetInZone": "11"
      },
      "401": {
        "name": "ChargeAttack",
        "priority": 2,
        "castCondition": {
          "pose": [
            301
          ],
          "pickRangeMax": 8.5
        },
        "cd": 16.0,
        "initialCD": 7.0,
        "publicCDGroup": "",
        "skillGroupCDID": 1,
        "HHAGODJIAPE": "",
        "stateIDs": [
          "StartChargeAttack",
          "ChargeAttack_BS",
          "ChargeAttack_RushLoop",
          "ChargeAttack_AS",
          "ChargeAttack_TurnLeft",
          "ChargeAttack_TurnRight"
        ],
        "skillQueryingTime": 2.0,
        "flagTargetReachable": "10",
        "flagSelfOnTemplateCollider": "01",
        "flagSelfInZone": "10",
        "flagTargetInZone": "11"
      },
      "501": {
        "name": "BackStep",
        "castCondition": {
          "pose": [
            301
          ],
          "pickRangeMax": 6.0
        },
        "cd": 15.0,
        "publicCDGroup": "",
        "triggerGCD": false,
        "HHAGODJIAPE": "",
        "stateIDs": [
          "BackStep"
        ],
        "flagTargetReachable": "10",
        "flagSelfOnTemplateCollider": "01",
        "flagSelfInZone": "10",
        "flagTargetInZone": "11"
      },
      "701": {
        "name": "Recovery",
        "priority": 1,
        "castCondition": {
          "pose": [
            312
          ]
        },
        "publicCDGroup": "",
        "ignoreGCD": true,
        "triggerGCD": false,
        "HHAGODJIAPE": "",
        "stateIDs": [
          "Recovery"
        ],
        "skillQueryingTime": 3.0,
        "flagTargetReachable": "11",
        "flagSelfOnTemplateCollider": "11",
        "flagSelfInZone": "11",
        "flagTargetInZone": "11"
      },
      "801": {
        "name": "SporeAttack",
        "priority": 1,
        "castCondition": {
          "pose": [
            321
          ]
        },
        "publicCDGroup": "",
        "ignoreGCD": true,
        "triggerGCD": false,
        "HHAGODJIAPE": "",
        "stateIDs": [
          "SporeAttack_BS",
          "SporeAttack"
        ],
        "skillQueryingTime": 3.0,
        "flagTargetReachable": "11",
        "flagSelfOnTemplateCollider": "11",
        "flagSelfInZone": "11",
        "flagTargetInZone": "11"
      },
      "901": {
        "name": "SummonPumpkin",
        "priority": 2,
        "castCondition": {
          "pose": [
            301
          ]
        },
        "cd": 35.0,
        "publicCDGroup": "",
        "ignoreGCD": true,
        "triggerGCD": false,
        "HHAGODJIAPE": "",
        "stateIDs": [
          "PumpkinSummon"
        ],
        "flagTargetReachable": "10",
        "flagSelfOnTemplateCollider": "01",
        "flagSelfInZone": "10",
        "flagTargetInZone": "11"
      }
    },
    "skillGCD": 3.200000047683716,
    "birdCirclingTactic": [
      {
        "$type": "EPHBMLFODKF",
        "enable": true,
        "condition": {
          "pose": [
            301,
            302
          ]
        },
        "JMCOBEPDIGM": {
          "rangeMin": 4.0,
          "rangeMax": 9.0,
          "JOJBOHEDBHC": 2.0,
          "AFILKAGDAHN": 4.0,
          "ALIBHHJHHMN": 3.0,
          "BFJBDDIIFOI": {
            "LLICGJHIGME": 0.0,
            "IBLIPJPNOGC": 0.4000000059604645,
            "AEBLMKFNCDG": 0.0,
            "IGLIBIOEGBB": 0.0
          },
          "NAOBMNGDKHL": "1111",
          "JCNIJOAIGII": "1111",
          "MNPDDAKDHGK": ""
        }
      },
      {
        "$type": "KACCHOLJDNK",
        "enable": true,
        "condition": {
          "pose": [
            301,
            302
          ]
        },
        "JMCOBEPDIGM": {
          "KHDFDAAAPEI": 9.0,
          "HKJODDGJPHA": 50.0,
          "GGEBMFHFBPO": 8.0,
          "KFFGCIMPNMJ": 8.0,
          "MNPDDAKDHGK": ""
        }
      },
      {
        "$type": "NNJKLGNPMNN",
        "enable": true,
        "JMCOBEPDIGM": {
          "OJGLKPBCLGB": 5.5,
          "MNPDDAKDHGK": "",
          "GJDMDHIBCME": ""
        }
      }
    ]
  },
  "inputKeys": [
    {
      "keyID": 101,
      "inputKeyCode": 257,
      "abilityName": ""
    },
    {
      "keyID": 201,
      "inputKeyCode": 258,
      "abilityName": ""
    },
    {
      "keyID": 301,
      "inputKeyCode": 259,
      "abilityName": ""
    },
    {
      "keyID": 401,
      "inputKeyCode": 260,
      "abilityName": ""
    },
    {
      "keyID": 501,
      "inputKeyCode": 261,
      "abilityName": ""
    },
    {
      "inputKeyCode": 263,
      "abilityName": "Monster_Fungus_Raptor_BossEvent_RopeBoundLogic"
    },
    {
      "keyID": 801,
      "inputKeyCode": 264,
      "abilityName": ""
    },
    {
      "keyID": 901,
      "inputKeyCode": 265,
      "abilityName": ""
    },
    {
      "keyID": 1902,
      "inputKeyCode": 266,
      "abilityName": ""
    },
    {
      "keyID": 9998,
      "inputKeyCode": 267,
      "abilityName": ""
    },
    {
      "keyID": 9997,
      "inputKeyCode": 268,
      "abilityName": ""
    },
    {
      "keyID": 9999,
      "inputKeyCode": 269,
      "abilityName": ""
    },
    {
      "keyID": 1901,
      "inputKeyCode": 270,
      "abilityName": ""
    }
  ],
  "move": {
    "$type": "IPNMJMHDMPF",
    "facingMove": "ForwardBackward",
    "destroyRockWhenInit": true,
    "yawSpeedRatio": 2.0,
    "PKHOMJHFAEE": "RootNode"
  },
  "audio": {
    "overrideEmitterName": "",
    "animAudio": {
      "onTransitionIn": [
        {
          "currentStateName": "RopeBound_Loop",
          "audioEvent": {
            "text": "Play_Sfx_Monster_Fungus_Raptor_02_RopeBound_Loop_LP"
          },
          "otherStateNames": [
            "RopeBound_Loop"
          ]
        }
      ],
      "onTransitionOut": [
        {
          "currentStateName": "RopeBound_Loop",
          "audioEvent": {
            "text": "Stop_Sfx_Monster_Fungus_Raptor_02_RopeBound_Loop_LP"
          }
        }
      ]
    }
  },
  "cameraAdjustMap": {
    "default": {
      "$type": "NJCCPGFPIHI",
      "priority": 2.0,
      "enterRadius": 0.05999999865889549,
      "exitRadius": 0.05000000074505806,
      "heightAdjust": 0.6000000238418579,
      "fov": 44.20000076293945,
      "zoom": 7.800000190734863,
      "sphericalY": 5.0,
      "lockSphericalY": false,
      "sphericalYUp": 75.0,
      "sphericalYDown": 85.0,
      "autoTurnStartMin": 150.0,
      "autoTurnStartMax": 150.0,
      "autoTurnEndMin": 180.0,
      "autoTurnEndMax": 180.0,
      "enterShape": "",
      "exitShape": "",
      "shapeCenterOffset": {
        "y": -2.0
      },
      "enableHandleResetBackward": true,
      "blendDuration": 2.0,
      "CIJLABMEGDC": 13
    },
    "BasicView": {
      "$type": "NJCCPGFPIHI",
      "priority": 2.0,
      "heightAdjust": 0.4000000059604645,
      "fov": 44.20000076293945,
      "zoom": 7.800000190734863,
      "sphericalY": 5.0,
      "lockSphericalY": false,
      "sphericalYUp": 75.0,
      "sphericalYDown": 85.0,
      "autoTurnStartMin": 150.0,
      "autoTurnStartMax": 150.0,
      "autoTurnEndMin": 180.0,
      "autoTurnEndMax": 180.0,
      "enterShape": "CircleLockEnemyR50H30HC",
      "exitShape": "CircleLockEnemyR55H30HC",
      "enableHandleResetBackward": true,
      "blendDuration": 1.0,
      "CIJLABMEGDC": 7
    },
    "StunView": {
      "$type": "NJCCPGFPIHI",
      "priority": 2.0,
      "heightAdjust": 0.23999999463558197,
      "fov": 41.0,
      "zoom": 5.75,
      "sphericalY": 5.0,
      "lockSphericalY": false,
      "sphericalYUp": 75.0,
      "sphericalYDown": 85.0,
      "autoTurnStartMin": 150.0,
      "autoTurnStartMax": 150.0,
      "autoTurnEndMin": 180.0,
      "autoTurnEndMax": 180.0,
      "enterShape": "CircleLockEnemyR50H30HC",
      "exitShape": "CircleLockEnemyR55H30HC",
      "enableHandleResetBackward": true,
      "blendDuration": 1.2000000476837158,
      "CIJLABMEGDC": 7
    },
    "UltView": {
      "$type": "NJCCPGFPIHI",
      "priority": 2.0,
      "heightAdjust": 0.6000000238418579,
      "fov": 44.20000076293945,
      "zoom": 9.0,
      "sphericalY": 5.0,
      "lockSphericalY": false,
      "sphericalYUp": 75.0,
      "sphericalYDown": 85.0,
      "autoTurnStartMin": 150.0,
      "autoTurnStartMax": 150.0,
      "autoTurnEndMin": 180.0,
      "autoTurnEndMax": 180.0,
      "enterShape": "CircleLockEnemyR50H30HC",
      "exitShape": "CircleLockEnemyR55H30HC",
      "enableHandleResetBackward": true,
      "blendDuration": 0.6000000238418579,
      "CIJLABMEGDC": 13
    },
    "JumpView": {
      "$type": "NJCCPGFPIHI",
      "priority": 2.0,
      "heightAdjust": 0.699999988079071,
      "fov": 45.5,
      "zoom": 10.0,
      "sphericalY": 5.0,
      "lockSphericalY": false,
      "sphericalYUp": 75.0,
      "sphericalYDown": 85.0,
      "autoTurnStartMin": 150.0,
      "autoTurnStartMax": 150.0,
      "autoTurnEndMin": 180.0,
      "autoTurnEndMax": 180.0,
      "enterShape": "CircleLockEnemyR50H30HC",
      "exitShape": "CircleLockEnemyR55H30HC",
      "enableHandleResetBackward": true,
      "blendDuration": 0.4000000059604645,
      "CIJLABMEGDC": 13
    }
  }
}