{
  "common": {
    "effectAttachShape": {
      "$type": "FJNPJANPGGC",
      "mesh": "EffectMesh"
    },
    "mass": 30.0,
    "height": 0.6000000238418579,
    "affectedByWorld": true,
    "checkInSurface": true,
    "scale": 0.6000000238418579,
    "reconnectSupport": true,
    "recoverByInitPose": true
  },
  "model": {
    "bornEffect": "",
    "attachEffect": "",
    "BKPFGNPLDNJ": ""
  },
  "dither": {
    "showDitherDuration": 2.0
  },
  "combat": {
    "property": {
      "endureType": "Monster_Slime",
      "weight": 300.0
    },
    "beHit": {
      "hitBloodEffect": "",
      "IEKJNLDFOCL": true
    },
    "combatLock": {
      "lockShape": "CircleLockEnemy",
      "lockType": "Avatar&Monster_Lv4"
    },
    "die": {
      "hasAnimatorDie": true,
      "fallWhenAirDie": false,
      "dieEndTime": 1.0,
      "dieForceDisappearTime": 4.0,
      "dieDisappearEffect": "Eff_Death_InWater_Common",
      "dieShaderData": "MonsterDieInWater",
      "dieShaderEnableDurationTime": 0.5,
      "dieModelFadeDelay": 0.5,
      "muteHitBox": true,
      "dieDenyLockOn": true,
      "dieIsGhostToEnemy": true,
      "dieIgnoreTriggerBullet": true,
      "muteBillboard": true,
      "mutePushCollider": true
    },
    "animEvents": {
      "HitOnFloorAtk": {
        "attackPattern": {
          "$type": "GMDIMKKHACA",
          "triggerType": "TriggerNoRepeat",
          "born": {
            "$type": "IAENDIPDFKD",
            "offset": {
              "KGEPIMHBMOL": 0.0,
              "JEBHCGDPFEJ": 0.0,
              "LPCHALMFFOD": -1.25
            }
          },
          "height": 1.0,
          "OAHPDLJIADP": 0.75
        },
        "attackInfo": {
          "attackTag": "",
          "attenuationTag": "",
          "attenuationGroup": "default",
          "attackProperty": {
            "actorGrassSubHurtDelta": 0.5,
            "actorWindSubHurtDelta": 0.0,
            "IPFJJJGABPL": 100.0,
            "strikeType": "Blunt",
            "GLKMCMDJBIK": 0.0
          },
          "hitPattern": {
            "onHitEffectName": "default",
            "hitImpulseY": "",
            "hitImpulseType": "LV3"
          },
          "cameraShake": {
            "shakeRange": 0.4000000059604645,
            "shakeTime": 0.15000000596046448,
            "shakeDistance": 30.0
          }
        }
      }
    }
  },
  "abilities": [
    {
      "abilityID": "",
      "abilityName": "FauneAbyssale_Seal_Larva_Born",
      "abilityOverride": ""
    },
    {
      "abilityID": "",
      "abilityName": "Monster_FauneAbyssale_Seal_TriggerBullet",
      "abilityOverride": ""
    },
    {
      "abilityID": "",
      "abilityName": "FauneAbyssale_Seal_Larva_FreeSkillsBinding",
      "abilityOverride": ""
    },
    {
      "abilityID": "",
      "abilityName": "FauneAbyssale_Seal_HideUIBillBoard",
      "abilityOverride": ""
    },
    {
      "abilityID": "",
      "abilityName": "FauneAbyssale_Seal_Larva_FreeSkillsBindingForPose14",
      "abilityOverride": ""
    },
    {
      "abilityID": "",
      "abilityName": "FauneAbyssale_Seal_Larva_FreeSkillsBindingForPose16",
      "abilityOverride": ""
    },
    {
      "abilityID": "",
      "abilityName": "FauneAbyssale_Seal_Larva_FreeSkillsBindingForPose20",
      "abilityOverride": ""
    },
    {
      "abilityID": "",
      "abilityName": "FauneAbyssale_Seal_Larva_FreeSkillsBindingForPose22",
      "abilityOverride": ""
    },
    {
      "abilityID": "",
      "abilityName": "FauneAbyssale_Seal_BeHitAttackCD",
      "abilityOverride": ""
    }
  ],
  "stateLayers": {
    "defaultLayer": {
      "$type": "GBGJJIIEMBD",
      "layerIndexName": "",
      "CPAANEIJCGD": "",
      "stateIDs": {
        "Born": {
          "$type": "NEDIFAKEGCO",
          "animatorStates": {
            "Born": []
          }
        },
        "NormalIdle": {
          "$type": "NEDIFAKEGCO",
          "animatorStates": {
            "Standby": [],
            "StandbyFree": []
          },
          "canDoSkill": true,
          "canSyncMove": true,
          "resetAnimatorTriggerOnExit": [
            "DoSkill"
          ],
          "canSteer": true
        },
        "SpacialIdle": {
          "$type": "NEDIFAKEGCO",
          "animatorStates": {
            "StandbyLieDown": [],
            "StandbyLieDownInWater": []
          },
          "canDoSkill": true,
          "canSyncMove": true,
          "massRatio": 1000.0,
          "resetAnimatorTriggerOnExit": [
            "DoSkill"
          ]
        },
        "NormalMove": {
          "$type": "NEDIFAKEGCO",
          "animatorStates": {
            "Walk": [],
            "Walk_BS": [],
            "WalkFree": [],
            "WalkFree_BS": [],
            "WalkFreeForLarge": [],
            "WalkFreeForLarge_BS": [],
            "WalkFreeForEnormous": [],
            "WalkFreeForEnormous_BS": [],
            "RunForLarge": [],
            "RunForLarge_BS": [],
            "RunForEnormous": [],
            "RunForEnormous_BS": []
          },
          "canDoSkill": true,
          "canSyncMove": true,
          "resetAnimatorTriggerOnExit": [
            "DoSkill"
          ],
          "canSteer": true,
          "blendMove": "BlendMove"
        },
        "BeHit": {
          "$type": "NEDIFAKEGCO",
          "animatorStates": {
            "Hit_H": [
              "Audio_Monster_FauneAbyssale_Seal_Larva_Hit_H"
            ]
          },
          "resetAnimatorTriggerOnEnter": [
            "BeHit"
          ],
          "resetAnimatorTriggerOnExit": [
            "DoSkill"
          ],
          "airMoveFollowAnimation": true
        },
        "BeHitOnFloor": {
          "$type": "NEDIFAKEGCO",
          "animatorStates": {
            "Hit_HOnFloor": [
              "Audio_Monster_FauneAbyssale_Seal_Larva_Hit_HOnFloor"
            ],
            "Hit_HOnFloorInWater": [
              "Audio_Monster_FauneAbyssale_Seal_Larva_Hit_HOnFloor"
            ],
            "Hit_HOnFloorAttack": [
              "Monster_FauneAbyssale_Seal_HitOnFloorAttack",
              "Audio_Monster_FauneAbyssale_Seal_Larva_Hit_HOnFloorAttack"
            ],
            "Hit_HOnFloorAttackInWater": [
              "Monster_FauneAbyssale_Seal_HitOnFloorAttack",
              "Audio_Monster_FauneAbyssale_Seal_Larva_Hit_HOnFloorAttack"
            ]
          },
          "massRatio": 1000.0,
          "resetAnimatorTriggerOnEnter": [
            "BeHit"
          ],
          "resetAnimatorTriggerOnExit": [
            "DoSkill",
            "BeHit"
          ],
          "airMoveFollowAnimation": true
        },
        "Struggle": {
          "$type": "NEDIFAKEGCO",
          "animatorStates": {
            "Struggle": []
          },
          "resetAnimatorTriggerOnEnter": [
            "BeHit",
            "HitAir2HitDrop"
          ],
          "resetAnimatorTriggerOnExit": [
            "DoSkill"
          ],
          "airMoveFollowAnimation": true
        },
        "Die": {
          "$type": "NEDIFAKEGCO",
          "animatorStates": {
            "Die": [
              "Monster_FauneAbyssale_Seal_Die",
              "Audio_Monster_FauneAbyssale_Seal_Larva_Die"
            ]
          },
          "resetAnimatorTriggerOnEnter": [
            "BeHit",
            "DoSkill",
            "BeHit"
          ]
        },
        "NormalAttack1_BS": {
          "$type": "NEDIFAKEGCO",
          "animatorStates": {
            "NormalAttack1_BS": [
              "Audio_Monster_FauneAbyssale_Seal_Larva_NormalAttack1_BS"
            ]
          },
          "canSyncMove": true,
          "cullingModelAlwaysAnimate": true,
          "resetAnimatorTriggerOnExit": [
            "BeHit",
            "DoSkill"
          ],
          "canSteer": true
        },
        "NormalAttack1_Loop": {
          "$type": "NEDIFAKEGCO",
          "animatorStates": {
            "NormalAttack1_Loop1": [
              "Monster_FauneAbyssale_Seal_TriggerBullet",
              "Audio_Monster_FauneAbyssale_Seal_Larva_NormalAttack1_Loop1"
            ],
            "NormalAttack1_Loop2": [
              "Monster_FauneAbyssale_Seal_TriggerBullet",
              "Audio_Monster_FauneAbyssale_Seal_Larva_NormalAttack1_Loop1"
            ],
            "NormalAttack1_Loop3": [
              "Monster_FauneAbyssale_Seal_TriggerBullet",
              "Audio_Monster_FauneAbyssale_Seal_Larva_NormalAttack1_Loop1"
            ]
          },
          "canSyncMove": true,
          "cullingModelAlwaysAnimate": true,
          "resetAnimatorTriggerOnExit": [
            "BeHit",
            "DoSkill"
          ],
          "canSteer": true
        },
        "NormalAttack1_AS": {
          "$type": "NEDIFAKEGCO",
          "animatorStates": {
            "NormalAttack1_AS": [
              "Audio_Monster_FauneAbyssale_Seal_Larva_NormalAttack1_AS"
            ]
          },
          "resetAnimatorTriggerOnExit": [
            "BeHit",
            "DoSkill"
          ],
          "canSteer": true
        },
        "Alert": {
          "$type": "NEDIFAKEGCO",
          "animatorStates": {
            "Alert": [
              "Eff_Monster_FauneAbyssale_Seal_Alert",
              "Audio_Monster_FauneAbyssale_Seal_Larva_Alert"
            ]
          },
          "resetAnimatorTriggerOnExit": [
            "BeHit",
            "DoSkill"
          ],
          "canSteer": true
        },
        "Personality1_BS": {
          "$type": "NEDIFAKEGCO",
          "animatorStates": {
            "Personality1_BS": [
              "Audio_Monster_FauneAbyssale_Seal_Larva_Personality1_BS"
            ]
          },
          "canDoSkill": true,
          "resetAnimatorTriggerOnExit": [
            "BeHit",
            "DoSkill"
          ],
          "canSteer": true
        },
        "Personality1": {
          "$type": "NEDIFAKEGCO",
          "animatorStates": {
            "Personality1_Loop": [
              "Monster_FauneAbyssale_Seal_Larva_Small_SingleSing"
            ]
          },
          "canDoSkill": true,
          "resetAnimatorTriggerOnExit": [
            "BeHit",
            "DoSkill"
          ],
          "canSteer": true
        },
        "Personality1_AS": {
          "$type": "NEDIFAKEGCO",
          "animatorStates": {
            "Personality1_AS": [
              "Audio_Monster_FauneAbyssale_Seal_Larva_Personality1_AS"
            ]
          },
          "canDoSkill": true,
          "resetAnimatorTriggerOnExit": [
            "BeHit",
            "DoSkill"
          ],
          "canSteer": true
        },
        "Personality3": {
          "$type": "NEDIFAKEGCO",
          "animatorStates": {
            "Personality3": [
              "Audio_Monster_FauneAbyssale_Seal_Larva_Personality3"
            ]
          },
          "massRatio": 1000.0,
          "resetAnimatorTriggerOnExit": [
            "BeHit",
            "DoSkill"
          ]
        },
        "Personality3InWater": {
          "$type": "NEDIFAKEGCO",
          "animatorStates": {
            "Personality3InWater": [
              "Audio_Monster_FauneAbyssale_Seal_Larva_Personality3InWater"
            ]
          },
          "massRatio": 1000.0,
          "resetAnimatorTriggerOnExit": [
            "BeHit",
            "DoSkill"
          ]
        },
        "Personality4": {
          "$type": "NEDIFAKEGCO",
          "animatorStates": {
            "Personality4": []
          },
          "canDoSkill": true,
          "resetAnimatorTriggerOnExit": [
            "BeHit",
            "DoSkill"
          ],
          "canSteer": true,
          "BNFBKHPGMMB": true
        },
        "Personality5_BS": {
          "$type": "NEDIFAKEGCO",
          "animatorStates": {
            "Personality5_BS": [
              "Audio_Monster_FauneAbyssale_Seal_Larva_Personality1_BS"
            ]
          },
          "canDoSkill": true,
          "resetAnimatorTriggerOnExit": [
            "BeHit",
            "DoSkill"
          ],
          "canSteer": true
        },
        "Personality5_Loop": {
          "$type": "NEDIFAKEGCO",
          "animatorStates": {
            "Personality5_Loop": [
              "Monster_FauneAbyssale_Seal_Larva_Small_AsyncSing"
            ]
          },
          "canDoSkill": true,
          "resetAnimatorTriggerOnExit": [
            "BeHit",
            "DoSkill"
          ],
          "canSteer": true
        },
        "Personality5_AS": {
          "$type": "NEDIFAKEGCO",
          "animatorStates": {
            "Personality5_AS": [
              "Audio_Monster_FauneAbyssale_Seal_Larva_Personality1_AS"
            ]
          },
          "canDoSkill": true,
          "resetAnimatorTriggerOnExit": [
            "BeHit",
            "DoSkill"
          ],
          "canSteer": true
        },
        "Personality6_BS": {
          "$type": "NEDIFAKEGCO",
          "animatorStates": {
            "Personality6_BS": [
              "Audio_Monster_FauneAbyssale_Seal_Larva_Personality1_BS"
            ]
          },
          "canDoSkill": true,
          "resetAnimatorTriggerOnExit": [
            "BeHit",
            "DoSkill"
          ],
          "canSteer": true
        },
        "Personality6": {
          "$type": "NEDIFAKEGCO",
          "animatorStates": {
            "Personality6_Loop": [
              "Monster_FauneAbyssale_Seal_Larva_Small_SingleSing"
            ]
          },
          "canDoSkill": true,
          "resetAnimatorTriggerOnExit": [
            "BeHit",
            "DoSkill"
          ],
          "canSteer": true
        },
        "Personality6_AS": {
          "$type": "NEDIFAKEGCO",
          "animatorStates": {
            "Personality6_AS": [
              "Audio_Monster_FauneAbyssale_Seal_Larva_Personality1_AS"
            ]
          },
          "canDoSkill": true,
          "resetAnimatorTriggerOnExit": [
            "BeHit",
            "DoSkill"
          ],
          "canSteer": true
        },
        "Personality7_BS": {
          "$type": "NEDIFAKEGCO",
          "animatorStates": {
            "Personality7_BS": [
              "Audio_Monster_FauneAbyssale_Seal_Larva_Personality1_BS"
            ]
          },
          "canDoSkill": true,
          "resetAnimatorTriggerOnExit": [
            "BeHit",
            "DoSkill"
          ],
          "canSteer": true
        },
        "Personality7": {
          "$type": "NEDIFAKEGCO",
          "animatorStates": {
            "Personality7_Loop": [
              "Monster_FauneAbyssale_Seal_Larva_Small_AsyncSing"
            ]
          },
          "canDoSkill": true,
          "resetAnimatorTriggerOnExit": [
            "BeHit",
            "DoSkill"
          ],
          "canSteer": true
        },
        "Personality7_AS": {
          "$type": "NEDIFAKEGCO",
          "animatorStates": {
            "Personality7_AS": [
              "Audio_Monster_FauneAbyssale_Seal_Larva_Personality1_AS"
            ]
          },
          "canDoSkill": true,
          "resetAnimatorTriggerOnExit": [
            "BeHit",
            "DoSkill"
          ],
          "canSteer": true
        },
        "Personality8_BS": {
          "$type": "NEDIFAKEGCO",
          "animatorStates": {
            "Personality8_BS": [
              "Audio_Monster_FauneAbyssale_Seal_Larva_Personality1_BS"
            ]
          },
          "canDoSkill": true,
          "resetAnimatorTriggerOnExit": [
            "BeHit",
            "DoSkill"
          ],
          "canSteer": true
        },
        "Personality8": {
          "$type": "NEDIFAKEGCO",
          "animatorStates": {
            "Personality8_Loop": [
              "Monster_FauneAbyssale_Seal_Larva_Small_SyncSingIdle"
            ]
          },
          "canDoSkill": true,
          "resetAnimatorTriggerOnExit": [
            "BeHit",
            "DoSkill"
          ],
          "canSteer": true
        },
        "Personality8_AS": {
          "$type": "NEDIFAKEGCO",
          "animatorStates": {
            "Personality8_AS": [
              "Audio_Monster_FauneAbyssale_Seal_Larva_Personality1_AS"
            ]
          },
          "canDoSkill": true,
          "resetAnimatorTriggerOnExit": [
            "BeHit",
            "DoSkill"
          ],
          "canSteer": true
        },
        "Personality9_BS": {
          "$type": "NEDIFAKEGCO",
          "animatorStates": {
            "Personality9_BS": [
              "Audio_Monster_FauneAbyssale_Seal_Larva_Personality1_BS"
            ]
          },
          "canDoSkill": true,
          "resetAnimatorTriggerOnExit": [
            "BeHit",
            "DoSkill"
          ],
          "canSteer": true
        },
        "Personality9": {
          "$type": "NEDIFAKEGCO",
          "animatorStates": {
            "Personality9_Loop": [
              "Monster_FauneAbyssale_Seal_Larva_Small_AsyncSingIdle"
            ]
          },
          "canDoSkill": true,
          "resetAnimatorTriggerOnExit": [
            "BeHit",
            "DoSkill"
          ],
          "canSteer": true
        },
        "Personality9_AS": {
          "$type": "NEDIFAKEGCO",
          "animatorStates": {
            "Personality9_AS": [
              "Audio_Monster_FauneAbyssale_Seal_Larva_Personality1_AS"
            ]
          },
          "canDoSkill": true,
          "resetAnimatorTriggerOnExit": [
            "BeHit",
            "DoSkill"
          ],
          "canSteer": true
        },
        "Personality10_BS": {
          "$type": "NEDIFAKEGCO",
          "animatorStates": {
            "Personality10_BS": [
              "Audio_Monster_FauneAbyssale_Seal_Larva_Personality1_BS"
            ]
          },
          "canDoSkill": true,
          "resetAnimatorTriggerOnExit": [
            "BeHit",
            "DoSkill"
          ],
          "canSteer": true
        },
        "Personality10": {
          "$type": "NEDIFAKEGCO",
          "animatorStates": {
            "Personality10_Loop": [
              "Monster_FauneAbyssale_Seal_Larva_Small_SingleSing"
            ]
          },
          "canDoSkill": true,
          "resetAnimatorTriggerOnExit": [
            "BeHit",
            "DoSkill"
          ],
          "canSteer": true
        },
        "Personality10_AS": {
          "$type": "NEDIFAKEGCO",
          "animatorStates": {
            "Personality10_AS": [
              "Audio_Monster_FauneAbyssale_Seal_Larva_Personality1_AS"
            ]
          },
          "canDoSkill": true,
          "resetAnimatorTriggerOnExit": [
            "BeHit",
            "DoSkill"
          ],
          "canSteer": true
        },
        "Personality11_BS": {
          "$type": "NEDIFAKEGCO",
          "animatorStates": {
            "Personality11_BS": [
              "Audio_Monster_FauneAbyssale_Seal_Larva_Personality1_BS"
            ]
          },
          "canDoSkill": true,
          "resetAnimatorTriggerOnExit": [
            "BeHit",
            "DoSkill"
          ],
          "canSteer": true
        },
        "Personality11": {
          "$type": "NEDIFAKEGCO",
          "animatorStates": {
            "Personality11_Loop": [
              "Monster_FauneAbyssale_Seal_Larva_Small_AsyncSingIdle"
            ]
          },
          "canDoSkill": true,
          "resetAnimatorTriggerOnExit": [
            "BeHit",
            "DoSkill"
          ],
          "canSteer": true
        },
        "Personality11_AS": {
          "$type": "NEDIFAKEGCO",
          "animatorStates": {
            "Personality11_AS": [
              "Audio_Monster_FauneAbyssale_Seal_Larva_Personality1_AS"
            ]
          },
          "canDoSkill": true,
          "resetAnimatorTriggerOnExit": [
            "BeHit",
            "DoSkill"
          ],
          "canSteer": true
        }
      }
    }
  },
  "billboard": {
    "$type": "DNGNMAJBCNP",
    "attachPoint": "BillboardAttach",
    "offset": {
      "y": 0.5
    },
    "radiusOffset": 1.0,
    "enableSelfAdapt": true,
    "showHPBar": true,
    "forceShowDistance": 15.0
  },
  "initialPoses": {
    "Mute": {
      "initialPoseID": 99,
      "initialPoseParams": {
        "intParams": {
          "FreeState": "99"
        }
      }
    },
    "Default": {
      "initialPoseID": 11,
      "initialPoseParams": {
        "intParams": {
          "FreeState": "0"
        }
      }
    },
    "LieDown": {
      "initialPoseID": 12,
      "initialPoseParams": {
        "intParams": {
          "FreeState": "1"
        }
      }
    },
    "SyncSingSource": {
      "initialPoseID": 13,
      "initialPoseParams": {
        "intParams": {
          "FreeState": "2"
        }
      }
    },
    "SyncSingTarget": {
      "initialPoseID": 14,
      "initialPoseParams": {
        "intParams": {
          "FreeState": "3"
        }
      }
    },
    "AsyncSingSource": {
      "initialPoseID": 15,
      "initialPoseParams": {
        "intParams": {
          "FreeState": "2"
        }
      }
    },
    "AsyncSingTarget": {
      "initialPoseID": 16,
      "initialPoseParams": {
        "intParams": {
          "FreeState": "3"
        }
      }
    },
    "Circling": {
      "initialPoseID": 17,
      "initialPoseParams": {
        "intParams": {
          "FreeState": "6"
        }
      }
    },
    "LieDownInWater": {
      "initialPoseID": 18,
      "initialPoseParams": {
        "intParams": {
          "FreeState": "7"
        }
      }
    },
    "SyncSingSourceIdle": {
      "initialPoseID": 19,
      "initialPoseParams": {
        "intParams": {
          "FreeState": "19"
        }
      }
    },
    "SyncSingTargetIdle": {
      "initialPoseID": 20,
      "initialPoseParams": {
        "intParams": {
          "FreeState": "20"
        }
      }
    },
    "AsyncSingSourceIdle": {
      "initialPoseID": 21,
      "initialPoseParams": {
        "intParams": {
          "FreeState": "19"
        }
      }
    },
    "AsyncSingTargetIdle": {
      "initialPoseID": 22,
      "initialPoseParams": {
        "intParams": {
          "FreeState": "20"
        }
      }
    }
  },
  "aibeta": {
    "enable": true,
    "decisionArchetype": "EnableCastSkillWhenCircling",
    "moveSetting": {
      "moveCategory": "DiveSeafloorLandAmphibious",
      "useNavMesh": false,
      "useToTheMoon": true,
      "navMeshAgentName": "Undead01"
    },
    "sensing": {
      "settings": {
        "DefaultSetting": {
          "viewRange": 25.0,
          "horizontalFov": 150.0,
          "verticalFov": 100.0,
          "hearAttractionRange": 5.0,
          "feelRange": 0.0
        },
        "NeverCombat": {
          "enableVision": false,
          "hearAttractionRange": 0.0,
          "feelRange": 0.0
        },
        "NormalAlert": {
          "viewPanoramic": true,
          "hearAttractionRange": 5.0,
          "feelRange": 17.5
        }
      },
      "templates": {
        "DefaultTemplate": {
          "DefaultPoses": "DefaultSetting",
          "201": "NormalAlert",
          "12": "NeverCombat",
          "18": "NeverCombat"
        },
        "NeverCombatTemplate": {
          "DefaultPoses": "NeverCombat",
          "201": "NormalAlert"
        },
        "NormalAlertTemplate": {
          "DefaultPoses": "NormalAlert",
          "12": "NeverCombat",
          "18": "NeverCombat"
        }
      }
    },
    "neurons": {
      "DefaultSetting": [
        "HIT",
        "FEAR"
      ],
      "NeverCombat": []
    },
    "threat": {
      "GHIJMOKOLMB": "",
      "clearThreatTargetDistance": 25.0,
      "viewThreatGrow": 25.0,
      "feelThreatGrow": 150.0,
      "threatDecreaseSpeed": 45.0,
      "threatBroadcastRange": 8.0,
      "viewAttenuation": [
        {
          "x": 4.5,
          "y": 1.0
        },
        {
          "x": 8.0,
          "y": 0.5
        },
        {
          "x": 15.0,
          "y": 0.20000000298023224
        },
        {
          "x": 22.5,
          "y": 0.10000000149011612
        }
      ]
    },
    "defendArea": {
      "defendRange": 120.0
    },
    "fly": {
      "enable": true,
      "IPJLPEHKCJA": [
        11,
        13,
        14,
        15,
        16,
        17,
        19,
        20,
        21,
        22,
        99,
        201,
        901
      ]
    },
    "skills": {
      "201": {
        "name": "NormalAttack1",
        "combatSkillType": "RangedAttack",
        "priority": 2,
        "castCondition": {
          "pose": [
            201
          ],
          "BNLDGHLANLI": [
            2
          ],
          "maxTargetAngleY": 45.0,
          "minTargetAngleY": -45.0,
          "pickRangeMax": 25.0
        },
        "cd": 7.5,
        "cdUpperRange": 2.0,
        "publicCDGroup": "",
        "HHAGODJIAPE": "",
        "stateIDs": [
          "NormalAttack1_BS",
          "NormalAttack1_Loop",
          "NormalAttack1_AS"
        ],
        "flagTargetReachable": "11",
        "flagSelfOnTemplateCollider": "11",
        "flagSelfInZone": "11",
        "flagTargetInZone": "11"
      },
      "100": {
        "name": "OnAlert",
        "skillType": "OnAlert",
        "faceTarget": true,
        "castCondition": {
          "pose": [
            11,
            13,
            14,
            15,
            16,
            17,
            19,
            20,
            21,
            22,
            99
          ]
        },
        "publicCDGroup": "",
        "ignoreGCD": true,
        "triggerGCD": false,
        "HHAGODJIAPE": "",
        "stateIDs": [
          "Alert"
        ],
        "skillQueryingTime": 3.0,
        "flagTargetReachable": "10",
        "flagSelfOnTemplateCollider": "01",
        "flagSelfInZone": "10",
        "flagTargetInZone": "11",
        "nerveTrigger": [
          "HIT"
        ]
      },
      "101": {
        "name": "Personality1",
        "skillType": "Free",
        "priority": 2,
        "castCondition": {
          "pose": [
            13
          ]
        },
        "cd": 5.0,
        "cdUpperRange": 2.0,
        "initialCD": 5.0,
        "publicCDGroup": "",
        "HHAGODJIAPE": "",
        "stateIDs": [
          "Personality1_BS",
          "Personality1",
          "Personality1_AS"
        ],
        "flagTargetReachable": "10",
        "flagSelfOnTemplateCollider": "01",
        "flagSelfInZone": "10",
        "flagTargetInZone": "11"
      },
      "103": {
        "name": "Personality3",
        "skillType": "Free",
        "priority": 2,
        "castCondition": {
          "pose": [
            12
          ]
        },
        "cd": 2.0,
        "cdUpperRange": 5.0,
        "publicCDGroup": "",
        "HHAGODJIAPE": "",
        "stateIDs": [
          "Personality3"
        ],
        "flagTargetReachable": "10",
        "flagSelfOnTemplateCollider": "01",
        "flagSelfInZone": "10",
        "flagTargetInZone": "11"
      },
      "106": {
        "name": "Personality3InWater",
        "skillType": "Free",
        "priority": 2,
        "castCondition": {
          "pose": [
            18
          ]
        },
        "cd": 2.0,
        "cdUpperRange": 5.0,
        "publicCDGroup": "",
        "HHAGODJIAPE": "",
        "stateIDs": [
          "Personality3InWater"
        ],
        "flagTargetReachable": "10",
        "flagSelfOnTemplateCollider": "01",
        "flagSelfInZone": "10",
        "flagTargetInZone": "11"
      },
      "104": {
        "name": "Personality4",
        "skillType": "Free",
        "priority": 2,
        "canUseCombatSkillCondition": true,
        "castCondition": {
          "pose": [
            11
          ],
          "skillAnchorRangeMin": -1.0,
          "targetSkillAnchorRangeMin": -1.0,
          "EELFCDOLLPM": 7.5,
          "pickRangeByRaycast": [
            {
              "min": 5.0,
              "max": -1.0,
              "raycastType": "DownToGroundOnlyInWater"
            }
          ]
        },
        "cd": 10.0,
        "cdUpperRange": 2.0,
        "initialCD": 5.0,
        "publicCDGroup": "",
        "HHAGODJIAPE": "",
        "stateIDs": [
          "Personality4"
        ],
        "flagTargetReachable": "11",
        "flagSelfOnTemplateCollider": "11",
        "flagSelfInZone": "11",
        "flagTargetInZone": "11"
      },
      "105": {
        "name": "Personality5",
        "skillType": "Free",
        "priority": 2,
        "castCondition": {
          "pose": [
            15
          ]
        },
        "cd": 10.0,
        "cdUpperRange": 2.0,
        "initialCD": 5.0,
        "publicCDGroup": "",
        "HHAGODJIAPE": "",
        "stateIDs": [
          "Personality5_BS",
          "Personality5_Loop",
          "Personality5_AS"
        ],
        "flagTargetReachable": "10",
        "flagSelfOnTemplateCollider": "01",
        "flagSelfInZone": "10",
        "flagTargetInZone": "11"
      },
      "108": {
        "name": "Personality8",
        "skillType": "Free",
        "priority": 2,
        "castCondition": {
          "pose": [
            19
          ]
        },
        "cd": 5.0,
        "cdUpperRange": 2.0,
        "initialCD": 5.0,
        "publicCDGroup": "",
        "HHAGODJIAPE": "",
        "stateIDs": [
          "Personality8_BS",
          "Personality8",
          "Personality8_AS"
        ],
        "flagTargetReachable": "10",
        "flagSelfOnTemplateCollider": "01",
        "flagSelfInZone": "10",
        "flagTargetInZone": "11"
      },
      "109": {
        "name": "Personality9",
        "skillType": "Free",
        "priority": 2,
        "castCondition": {
          "pose": [
            21
          ]
        },
        "cd": 10.0,
        "cdUpperRange": 2.0,
        "initialCD": 5.0,
        "publicCDGroup": "",
        "HHAGODJIAPE": "",
        "stateIDs": [
          "Personality9_BS",
          "Personality9",
          "Personality9_AS"
        ],
        "flagTargetReachable": "10",
        "flagSelfOnTemplateCollider": "01",
        "flagSelfInZone": "10",
        "flagTargetInZone": "11"
      }
    },
    "skillGCD": 3.5,
    "aidingTactic": {
      "Temp1": {
        "KBHAIMODNGL": 0.30000001192092896,
        "IKCMKBHPKMA": 0.699999988079071,
        "GINJMMLNHIA": 30.0,
        "HIFACMDKHHK": -30.0
      },
      "Temp2": {
        "DFOBCOJHJHD": false,
        "DMIEPEEDPDJ": 30.0,
        "GINJMMLNHIA": 90.0,
        "HIFACMDKHHK": -90.0
      },
      "Temp3": {
        "DFOBCOJHJHD": false,
        "DMIEPEEDPDJ": 30.0,
        "GINJMMLNHIA": 30.0,
        "HIFACMDKHHK": -30.0
      }
    },
    "birdCirclingTactic": [
      {
        "$type": "ALAPAEDAFML",
        "enable": true,
        "condition": {
          "pose": [
            13,
            14,
            15,
            16,
            17
          ]
        },
        "JMCOBEPDIGM": {
          "GILNINLDIAJ": false
        },
        "PIOCBHLFLJP": {
          "13": {
            "radius": 1.0,
            "GILNINLDIAJ": false
          },
          "14": {
            "radius": 1.0,
            "GILNINLDIAJ": false
          },
          "15": {
            "radius": 1.0,
            "GILNINLDIAJ": false
          },
          "16": {
            "radius": 1.0,
            "GILNINLDIAJ": false
          }
        }
      },
      {
        "$type": "MCDGOJLCMBM",
        "JMCOBEPDIGM": {
          "DMGAHPPFMPK": 2.0,
          "FLENLLDBFGP": 2.0,
          "ACOBCFCMBOC": "Auto",
          "MNPDDAKDHGK": "",
          "GJDMDHIBCME": "Temp1"
        }
      },
      {
        "$type": "COLLJLNKMLC",
        "JMCOBEPDIGM": {
          "ANLAAGAMIKF": 1,
          "MNPDDAKDHGK": "",
          "GJDMDHIBCME": "Temp1",
          "ACOBCFCMBOC": "Auto",
          "PLLHMGHOAPB": "",
          "KPIJNGFNAEF": "",
          "GDPHPLKJGAJ": "",
          "KKKOAABEHEP": ""
        }
      },
      {
        "$type": "GPEMIAJPPJG",
        "enable": true,
        "condition": {
          "pose": [
            99
          ]
        },
        "JMCOBEPDIGM": {
          "ACOBCFCMBOC": "Auto",
          "MNPDDAKDHGK": "",
          "GJDMDHIBCME": "Temp2"
        }
      },
      {
        "$type": "NNJKLGNPMNN",
        "enable": true,
        "JMCOBEPDIGM": {
          "NBENNEKDIIA": 5.0,
          "ACOBCFCMBOC": "Auto",
          "MNPDDAKDHGK": "",
          "GJDMDHIBCME": "Temp1"
        }
      },
      {
        "$type": "MJJFBALNDCH",
        "JMCOBEPDIGM": {
          "ANLAAGAMIKF": 1,
          "DDFIKIJKKOE": true,
          "MNPDDAKDHGK": "",
          "GJDMDHIBCME": "Temp1"
        }
      },
      {
        "$type": "ALHOEAMCGGO",
        "enable": true,
        "condition": {
          "pose": [
            11,
            13,
            14,
            15,
            16,
            17,
            19,
            20,
            21,
            22,
            99,
            201
          ]
        },
        "nerveTrigger": [
          "HIT",
          "FEAR"
        ],
        "JMCOBEPDIGM": {
          "NBENNEKDIIA": 1.0,
          "cd": 2.0,
          "triggerDistance": 4.0,
          "MMGOBGGLBJO": 60.0,
          "EMNPEHPCDLB": 2,
          "CMDFDIPMGKI": 3,
          "KAIGBDPLNMO": 2.5,
          "BMIEPFCPFGN": 3.0,
          "JIHEPOLDBPI": 30.0,
          "JEJKCNCHFLA": -30.0,
          "GLABEAKINML": 30.0,
          "DHHPBOKJCOH": -30.0,
          "ACJJECEFDPM": 0.5,
          "FFHFGBHGEIM": 0.5,
          "FEJMHENNBFA": true,
          "JFFDCCENNHE": 1.0,
          "MNPDDAKDHGK": "",
          "GJDMDHIBCME": "Temp3"
        }
      },
      {
        "$type": "AFPKJOCDEIF",
        "enable": true,
        "condition": {
          "pose": [
            11,
            201
          ]
        },
        "JMCOBEPDIGM": {
          "ANLAAGAMIKF": 1,
          "OODBIGLAFGG": {
            "OJLPFPNFMDJ": 3.5,
            "JFBDDDBIHDE": 7.5,
            "EHLPOCLAEFO": 2.0,
            "APHHENPJNLO": 5.0,
            "AKMJKEIJEHM": 3.0,
            "PELOBMPBAJF": 7.0,
            "BLOIJOGPILM": 3.0,
            "GNFCHLHAPNI": 7.0,
            "DFHLPPNLGIE": 2.0,
            "CLDDLKFCODO": 6.0,
            "GNJEAKAKLHD": 2.0,
            "EHAGCHIFFHA": 6.0
          },
          "NBENNEKDIIA": 2.0,
          "NNMEJAFDPEJ": 10.0,
          "KPNDPKIOPJM": 0.20000000298023224,
          "PINAFKEDDLL": 0.10000000149011612,
          "MNPDDAKDHGK": "",
          "GJDMDHIBCME": "",
          "KHJGKBJCNLM": 1.5,
          "DNEGGCDNMKL": 120.0,
          "OPPALPGLBJI": 60.0,
          "BHEHHOJOGEI": 0.20000000298023224,
          "OIGAJIFCDMI": 3.0,
          "BMDNOGNPICH": 3.0,
          "EIGFLPCINME": 3.0,
          "IGPFOHBHOCM": true,
          "LGEJMHHKDHD": 1.5,
          "LDOEAHKEMMH": 0.5,
          "FJELCNEOPLE": 0.33000001311302185,
          "BKPKJEDPJCK": -0.5,
          "CMCKJBFDDDM": 0.5,
          "JJGCFCNPKAD": 0.6600000262260437
        },
        "PIOCBHLFLJP": {
          "201": {
            "OODBIGLAFGG": {
              "OJLPFPNFMDJ": 4.5,
              "JFBDDDBIHDE": 7.5,
              "EHLPOCLAEFO": 0.0,
              "APHHENPJNLO": 0.0,
              "AKMJKEIJEHM": 4.5,
              "PELOBMPBAJF": 7.0,
              "BLOIJOGPILM": 4.5,
              "GNFCHLHAPNI": 7.0,
              "DFHLPPNLGIE": 2.5,
              "CLDDLKFCODO": 4.5,
              "GNJEAKAKLHD": 2.5,
              "EHAGCHIFFHA": 4.5
            },
            "NBENNEKDIIA": 2.0,
            "NNMEJAFDPEJ": 5.0,
            "KPNDPKIOPJM": 0.0,
            "PINAFKEDDLL": 0.0,
            "MNPDDAKDHGK": "",
            "GJDMDHIBCME": "Temp2",
            "KHJGKBJCNLM": 3.0,
            "OIGAJIFCDMI": 3.0,
            "BMDNOGNPICH": 3.0,
            "EIGFLPCINME": 3.0
          }
        }
      }
    ]
  },
  "inputKeys": [
    {
      "keyID": 101,
      "inputKeyCode": 257,
      "abilityName": ""
    },
    {
      "keyID": 102,
      "inputKeyCode": 258,
      "abilityName": ""
    },
    {
      "keyID": 103,
      "inputKeyCode": 259,
      "abilityName": ""
    },
    {
      "keyID": 201,
      "inputKeyCode": 260,
      "abilityName": ""
    },
    {
      "keyID": 100,
      "inputKeyCode": 261,
      "abilityName": ""
    },
    {
      "keyID": 104,
      "inputKeyCode": 262,
      "abilityName": ""
    },
    {
      "keyID": 202,
      "inputKeyCode": 263,
      "abilityName": ""
    },
    {
      "keyID": 203,
      "inputKeyCode": 264,
      "abilityName": ""
    }
  ],
  "move": {
    "$type": "IPNMJMHDMPF",
    "velocityForce": {
      "excludeForces": [
        "RetreatType",
        "RetreatAirType"
      ]
    },
    "handleCombatTaskImmediately": true,
    "raycasts": [
      {
        "raycastLength": 5.0,
        "raycastType": "DownToGroundOnlyInWater",
        "startPoint": ""
      }
    ],
    "OGBEFBMLJJI": true,
    "positionModifyState": "None",
    "yawSpeedRatio": 0.75,
    "positionModifyExtra": true,
    "PKHOMJHFAEE": "RootNode",
    "NIDFEFPEKAI": 30.0,
    "JNAPCJLHJDO": true
  },
  "audio": {
    "overrideEmitterName": "",
    "animAudio": {
      "onTransitionIn": [
        {
          "currentStateName": "Personality1_Loop",
          "audioEvent": {
            "text": "Play_Sfx_Monster_FauneAbyssale_Seal_Larva_Personality1_Loop_LP"
          },
          "otherStateNames": [
            "Personality1_Loop"
          ],
          "usage": "Except"
        },
        {
          "currentStateName": "Personality5_Loop",
          "audioEvent": {
            "text": "Play_Sfx_Monster_FauneAbyssale_Seal_Larva_Personality1_Loop_LP"
          },
          "otherStateNames": [
            "Personality5_Loop"
          ],
          "usage": "Except"
        },
        {
          "currentStateName": "Personality6_Loop",
          "audioEvent": {
            "text": "Play_Sfx_Monster_FauneAbyssale_Seal_Larva_Personality1_Loop_LP"
          },
          "otherStateNames": [
            "Personality6_Loop"
          ],
          "usage": "Except"
        },
        {
          "currentStateName": "Personality7_Loop",
          "audioEvent": {
            "text": "Play_Sfx_Monster_FauneAbyssale_Seal_Larva_Personality1_Loop_LP"
          },
          "otherStateNames": [
            "Personality7_Loop"
          ],
          "usage": "Except"
        },
        {
          "currentStateName": "Personality8_Loop",
          "audioEvent": {
            "text": "Play_Sfx_Monster_FauneAbyssale_Seal_Larva_Personality1_Loop_LP"
          },
          "otherStateNames": [
            "Personality8_Loop"
          ],
          "usage": "Except"
        },
        {
          "currentStateName": "Personality9_Loop",
          "audioEvent": {
            "text": "Play_Sfx_Monster_FauneAbyssale_Seal_Larva_Personality1_Loop_LP"
          },
          "otherStateNames": [
            "Personality9_Loop"
          ],
          "usage": "Except"
        },
        {
          "currentStateName": "Personality10_Loop",
          "audioEvent": {
            "text": "Play_Sfx_Monster_FauneAbyssale_Seal_Larva_Personality1_Loop_LP"
          },
          "otherStateNames": [
            "Personality10_Loop"
          ],
          "usage": "Except"
        },
        {
          "currentStateName": "Personality11_Loop",
          "audioEvent": {
            "text": "Play_Sfx_Monster_FauneAbyssale_Seal_Larva_Personality1_Loop_LP"
          },
          "otherStateNames": [
            "Personality11_Loop"
          ],
          "usage": "Except"
        }
      ],
      "onTransitionOut": [
        {
          "currentStateName": "Personality1_Loop",
          "audioEvent": {
            "text": "Stop_Sfx_Monster_FauneAbyssale_Seal_Larva_Personality1_Loop_LP"
          },
          "otherStateNames": [
            "Personality1_Loop"
          ],
          "usage": "Except"
        },
        {
          "currentStateName": "Personality5_Loop",
          "audioEvent": {
            "text": "Stop_Sfx_Monster_FauneAbyssale_Seal_Larva_Personality1_Loop_LP"
          },
          "otherStateNames": [
            "Personality5_Loop"
          ],
          "usage": "Except"
        },
        {
          "currentStateName": "Personality6_Loop",
          "audioEvent": {
            "text": "Stop_Sfx_Monster_FauneAbyssale_Seal_Larva_Personality1_Loop_LP"
          },
          "otherStateNames": [
            "Personality6_Loop"
          ],
          "usage": "Except"
        },
        {
          "currentStateName": "Personality7_Loop",
          "audioEvent": {
            "text": "Stop_Sfx_Monster_FauneAbyssale_Seal_Larva_Personality1_Loop_LP"
          },
          "otherStateNames": [
            "Personality7_Loop"
          ],
          "usage": "Except"
        },
        {
          "currentStateName": "Personality8_Loop",
          "audioEvent": {
            "text": "Stop_Sfx_Monster_FauneAbyssale_Seal_Larva_Personality1_Loop_LP"
          },
          "otherStateNames": [
            "Personality8_Loop"
          ],
          "usage": "Except"
        },
        {
          "currentStateName": "Personality9_Loop",
          "audioEvent": {
            "text": "Stop_Sfx_Monster_FauneAbyssale_Seal_Larva_Personality1_Loop_LP"
          },
          "otherStateNames": [
            "Personality9_Loop"
          ],
          "usage": "Except"
        },
        {
          "currentStateName": "Personality10_Loop",
          "audioEvent": {
            "text": "Stop_Sfx_Monster_FauneAbyssale_Seal_Larva_Personality1_Loop_LP"
          },
          "otherStateNames": [
            "Personality10_Loop"
          ],
          "usage": "Except"
        },
        {
          "currentStateName": "Personality11_Loop",
          "audioEvent": {
            "text": "Stop_Sfx_Monster_FauneAbyssale_Seal_Larva_Personality1_Loop_LP"
          },
          "otherStateNames": [
            "Personality11_Loop"
          ],
          "usage": "Except"
        }
      ]
    }
  }
}