{
  "common": {
    "effectAttachShape": {
      "$type": "FJNPJANPGGC",
      "mesh": "EffectMesh"
    },
    "mass": 30.0,
    "height": 0.8999999761581421,
    "affectedByWorld": true,
    "checkInSurface": true,
    "scale": 2.5,
    "canTriggerElementReactionText": false,
    "useGrassDisplacement": true,
    "reconnectSupport": true,
    "recoverByInitPose": true
  },
  "model": {
    "bornEffect": "",
    "attachEffect": "",
    "canBakeMesh": false,
    "BKPFGNPLDNJ": ""
  },
  "dither": {
    "showDitherDuration": 2.0
  },
  "combat": {
    "property": {
      "endureType": "Monster_Minion",
      "weight": 40.0
    },
    "beHit": {
      "hitBloodEffect": "",
      "muteAllHitText": true
    },
    "combatLock": {
      "lockShape": "CircleLockEnemy",
      "lockType": "Animal_Lv2"
    },
    "die": {
      "fallWhenAirDie": false,
      "dieEndTime": 2.0,
      "dieForceDisappearTime": 10.0,
      "dieDisappearEffect": ""
    }
  },
  "abilities": [
    {
      "abilityID": "CommonInitial",
      "abilityName": "Animal_Common_Initial",
      "abilityOverride": ""
    },
    {
      "abilityID": "Random",
      "abilityName": "Animal_Bird_Small_Random",
      "abilityOverride": ""
    },
    {
      "abilityID": "FlyDown",
      "abilityName": "Animal_Bird_Small_FlyDown",
      "abilityOverride": ""
    },
    {
      "abilityID": "FlyUp",
      "abilityName": "Animal_Bird_Small_FlyUp",
      "abilityOverride": ""
    },
    {
      "abilityID": "ToWander",
      "abilityName": "Animal_Bird_Small_ToWander",
      "abilityOverride": ""
    },
    {
      "abilityID": "ToIdle",
      "abilityName": "Animal_Bird_Small_ToIdle",
      "abilityOverride": ""
    },
    {
      "abilityID": "Disappear",
      "abilityName": "Animal_Bird_Small_Disappear",
      "abilityOverride": ""
    },
    {
      "abilityID": "Bird_Feather",
      "abilityName": "Animal_Bird_Small_FlyEffect",
      "abilityOverride": ""
    }
  ],
  "stateLayers": {
    "defaultLayer": {
      "$type": "GBGJJIIEMBD",
      "layerIndexName": "",
      "CPAANEIJCGD": "",
      "stateIDs": {
        "Born": {
          "$type": "NEDIFAKEGCO",
          "animatorStates": {
            "Born": [
              "Audio_Animal_Eggplant_WingFlap"
            ]
          },
          "resetAnimatorTriggerOnExit": [
            "DoSkill"
          ]
        },
        "NormalIdle": {
          "$type": "NEDIFAKEGCO",
          "animatorStates": {
            "Standby": [],
            "Standby_Roof": []
          },
          "canDoSkill": true,
          "canSyncMove": true,
          "resetAnimatorTriggerOnExit": [
            "DoSkill"
          ]
        },
        "NormalMove": {
          "$type": "NEDIFAKEGCO",
          "animatorStates": {
            "Walk": [
              "Audio_Animal_Eggplant_Walk"
            ]
          },
          "canDoSkill": true,
          "canSyncMove": true,
          "resetAnimatorTriggerOnExit": [
            "DoSkill"
          ],
          "canSteer": true
        },
        "FlyDown": {
          "$type": "NEDIFAKEGCO",
          "animatorStates": {
            "FlyDown": [
              "Audio_Animal_Eggplant_WingFlap"
            ],
            "Land": [
              "Audio_Animal_Eggplant_WingFlap_Twice"
            ],
            "LandToGround": [
              "Animal_Bird_Small_LandToGround",
              "Audio_Animal_Eggplant_LandToGround"
            ]
          },
          "canSyncMove": true,
          "resetAnimatorTriggerOnEnter": [
            "HitAir2HitDrop"
          ],
          "resetAnimatorTriggerOnExit": [
            "DoSkill"
          ],
          "canSteer": true
        },
        "FlyUp": {
          "$type": "NEDIFAKEGCO",
          "animatorStates": {
            "TakeOff": [
              "Animal_Bird_Small_TakeOff",
              "Audio_Animal_Eggplant_TakeOff"
            ],
            "FlyUp": [
              "Audio_Animal_Eggplant_WingFlap"
            ],
            "Disappear": [
              "Audio_Animal_Eggplant_WingFlap"
            ]
          },
          "canSyncMove": true,
          "resetAnimatorTriggerOnExit": [
            "DoSkill"
          ],
          "canSteer": true
        },
        "BeHit": {
          "$type": "NEDIFAKEGCO",
          "animatorStates": {
            "Hit_L": [
              "Audio_Animal_Eggplant_Alert_Scared"
            ]
          },
          "resetAnimatorTriggerOnEnter": [
            "BeHit"
          ],
          "resetAnimatorTriggerOnExit": [
            "DoSkill"
          ]
        },
        "Die": {
          "$type": "NEDIFAKEGCO",
          "animatorStates": {
            "Die": [
              "Animal_Bird_Small_Die"
            ],
            "Die_Disappear": [
              "Animal_Bird_Small_Disappear"
            ]
          },
          "resetAnimatorTriggerOnEnter": [
            "DoSkill"
          ]
        },
        "Aware": {
          "$type": "NEDIFAKEGCO",
          "animatorStates": {
            "Aware": []
          },
          "canDoSkill": true,
          "resetAnimatorTriggerOnExit": [
            "BeHit",
            "DoSkill"
          ]
        },
        "Alert": {
          "$type": "NEDIFAKEGCO",
          "animatorStates": {
            "Alert": [],
            "Alert_Scared": [
              "Audio_Animal_Eggplant_Alert_Scared"
            ]
          },
          "canDoSkill": true,
          "resetAnimatorTriggerOnExit": [
            "BeHit",
            "DoSkill"
          ]
        },
        "ToWander": {
          "$type": "NEDIFAKEGCO",
          "animatorStates": {
            "ToWander": [
              "Animal_Bird_Small_ToWander"
            ]
          },
          "canDoSkill": true,
          "resetAnimatorTriggerOnExit": [
            "BeHit",
            "DoSkill"
          ]
        },
        "ToIdle": {
          "$type": "NEDIFAKEGCO",
          "animatorStates": {
            "ToIdle": [
              "Animal_Bird_Small_ToIdle"
            ]
          },
          "canDoSkill": true,
          "resetAnimatorTriggerOnExit": [
            "BeHit",
            "DoSkill"
          ]
        },
        "Personality_90": {
          "$type": "NEDIFAKEGCO",
          "animatorStates": {
            "Personality_90": []
          },
          "canDoSkill": true,
          "resetAnimatorTriggerOnExit": [
            "BeHit",
            "DoSkill"
          ]
        },
        "Personality_101": {
          "$type": "NEDIFAKEGCO",
          "animatorStates": {
            "Personality_101": []
          },
          "canDoSkill": true,
          "resetAnimatorTriggerOnExit": [
            "BeHit",
            "DoSkill"
          ]
        },
        "Personality_102": {
          "$type": "NEDIFAKEGCO",
          "animatorStates": {
            "Personality_102": []
          },
          "canDoSkill": true,
          "resetAnimatorTriggerOnExit": [
            "BeHit",
            "DoSkill"
          ]
        },
        "Personality_103": {
          "$type": "NEDIFAKEGCO",
          "animatorStates": {
            "Personality_103": [
              "Audio_Animal_Eggplant_Personality_103"
            ]
          },
          "canDoSkill": true,
          "resetAnimatorTriggerOnExit": [
            "BeHit",
            "DoSkill"
          ]
        },
        "Personality_104": {
          "$type": "NEDIFAKEGCO",
          "animatorStates": {
            "Personality_104": [
              "Audio_Animal_Eggplant_Personality_104"
            ]
          },
          "canDoSkill": true,
          "resetAnimatorTriggerOnExit": [
            "BeHit",
            "DoSkill"
          ]
        },
        "Personality_105": {
          "$type": "NEDIFAKEGCO",
          "animatorStates": {
            "Personality_105": [
              "Audio_Animal_Eggplant_Alert_Scared"
            ]
          },
          "canDoSkill": true,
          "resetAnimatorTriggerOnExit": [
            "BeHit",
            "DoSkill"
          ]
        }
      }
    }
  },
  "initialPoses": {
    "Default": {},
    "FlyDown": {
      "initialPoseID": 901,
      "initialPoseParams": {
        "boolParams": {
          "FlyState": "true"
        }
      }
    },
    "Idle": {
      "initialPoseID": 2,
      "initialPoseParams": {
        "boolParams": {
          "FlyState": "false",
          "WanderState": "false"
        }
      }
    },
    "OnRoof": {
      "initialPoseID": 3,
      "initialPoseParams": {
        "boolParams": {
          "FlyState": "false",
          "RoofState": "true"
        }
      }
    },
    "SmallJump": {
      "initialPoseID": 4,
      "initialPoseParams": {
        "boolParams": {
          "FlyState": "false",
          "SmallJump": "true"
        }
      }
    },
    "ContinuousSmallJump": {
      "initialPoseID": 9,
      "initialPoseParams": {
        "boolParams": {
          "FlyState": "false",
          "ContinuousSmallJump": "true"
        }
      }
    },
    "BigJump": {
      "initialPoseID": 5,
      "initialPoseParams": {
        "boolParams": {
          "FlyState": "false",
          "BigJump": "true"
        }
      }
    },
    "ContinuousBigJump": {
      "initialPoseID": 10,
      "initialPoseParams": {
        "boolParams": {
          "FlyState": "false",
          "ContinuousBigJump": "true"
        }
      }
    },
    "Shake": {
      "initialPoseID": 6,
      "initialPoseParams": {
        "boolParams": {
          "FlyState": "false",
          "Shake": "true"
        }
      }
    },
    "Silent": {
      "initialPoseID": 7,
      "initialPoseParams": {
        "boolParams": {
          "FlyState": "false",
          "Silent": "true"
        }
      }
    }
  },
  "aibeta": {
    "enable": true,
    "friendliness": 1,
    "moveSetting": {
      "useNavMesh": false,
      "navMeshAgentName": "Undead01",
      "FAEBKAPNDKH": true
    },
    "sensing": {
      "settings": {
        "DefaultSetting": {
          "enableVision": false,
          "feelRange": 7.5
        },
        "SuperHighSensing": {
          "enableVision": false,
          "feelRange": 20.0
        },
        "HighSensing": {
          "enableVision": false,
          "feelRange": 12.0
        },
        "NoSensing": {
          "enableVision": false,
          "feelRange": 0.0
        }
      },
      "templates": {
        "DefaultTemplate": {
          "DefaultPoses": "DefaultSetting"
        },
        "NoSensing": {
          "DefaultPoses": "NoSensing"
        },
        "HighSensing": {
          "DefaultPoses": "HighSensing"
        },
        "SuperHighSensing": {
          "DefaultPoses": "SuperHighSensing"
        }
      }
    },
    "neurons": {
      "DefaultSetting": [
        "HIT",
        "WEATHER_BAD",
        "FEAR"
      ],
      "NoWeatherBad": [
        "HIT"
      ]
    },
    "threat": {
      "GHIJMOKOLMB": "",
      "viewThreatGrow": 75.0,
      "feelThreatGrow": 1000.0,
      "viewAttenuation": [
        {
          "x": 10.0,
          "y": 1.0
        },
        {
          "x": 20.0,
          "y": 0.10000000149011612
        }
      ]
    },
    "defendArea": {
      "defendRange": 100.0
    },
    "fly": {
      "enable": true,
      "floatingPoses": [
        901,
        903
      ]
    },
    "ui": {
      "hasDirectionIndicator": false,
      "HMNNBFDEHLG": ""
    },
    "profiling": {
      "lodStrategy": "MinorAnimal"
    },
    "skills": {
      "2": {
        "name": "OnAlert",
        "skillType": "OnAlert",
        "publicCDGroup": "",
        "triggerGCD": false,
        "HHAGODJIAPE": "",
        "stateIDs": [
          "Alert_Scared"
        ],
        "skillQueryingTime": 3.0,
        "flagTargetReachable": "10",
        "flagSelfOnTemplateCollider": "01",
        "flagSelfInZone": "10",
        "flagTargetInZone": "11"
      },
      "90": {
        "name": "Personality_90",
        "skillType": "Free",
        "priority": 6,
        "castCondition": {
          "pose": [
            2,
            3
          ],
          "needReInitCD": true
        },
        "cd": 5.0,
        "cdUpperRange": 5.0,
        "initialCD": 2.5,
        "initialCDUpperRange": 5.0,
        "publicCDGroup": "",
        "HHAGODJIAPE": "",
        "stateIDs": [
          "Personality_90"
        ],
        "flagTargetReachable": "10",
        "flagSelfOnTemplateCollider": "01",
        "flagSelfInZone": "10",
        "flagTargetInZone": "11"
      },
      "101": {
        "name": "Personality_101",
        "skillType": "Free",
        "castCondition": {
          "pose": [
            2
          ],
          "needReInitCD": true
        },
        "cd": 15.0,
        "cdUpperRange": 25.0,
        "initialCD": 2.5,
        "initialCDUpperRange": 5.0,
        "publicCDGroup": "",
        "HHAGODJIAPE": "",
        "stateIDs": [
          "Personality_101"
        ],
        "flagTargetReachable": "10",
        "flagSelfOnTemplateCollider": "01",
        "flagSelfInZone": "10",
        "flagTargetInZone": "11"
      },
      "102": {
        "name": "Personality_102",
        "skillType": "Free",
        "castCondition": {
          "pose": [
            2
          ],
          "needReInitCD": true
        },
        "cd": 15.0,
        "cdUpperRange": 25.0,
        "initialCD": 2.5,
        "initialCDUpperRange": 5.0,
        "publicCDGroup": "",
        "HHAGODJIAPE": "",
        "stateIDs": [
          "Personality_102"
        ],
        "flagTargetReachable": "10",
        "flagSelfOnTemplateCollider": "01",
        "flagSelfInZone": "10",
        "flagTargetInZone": "11"
      },
      "103": {
        "name": "Personality_103",
        "skillType": "Free",
        "castCondition": {
          "pose": [
            6
          ],
          "needReInitCD": true
        },
        "cd": 0.10000000149011612,
        "initialCD": 0.10000000149011612,
        "publicCDGroup": "",
        "HHAGODJIAPE": "",
        "stateIDs": [
          "Personality_103"
        ],
        "flagTargetReachable": "10",
        "flagSelfOnTemplateCollider": "01",
        "flagSelfInZone": "10",
        "flagTargetInZone": "11"
      },
      "104": {
        "name": "Personality_104",
        "skillType": "Free",
        "castCondition": {
          "pose": [
            4
          ],
          "needReInitCD": true
        },
        "cd": 2.5,
        "cdUpperRange": 2.5,
        "initialCD": 0.10000000149011612,
        "publicCDGroup": "",
        "HHAGODJIAPE": "",
        "stateIDs": [
          "Personality_104"
        ],
        "flagTargetReachable": "10",
        "flagSelfOnTemplateCollider": "01",
        "flagSelfInZone": "10",
        "flagTargetInZone": "11"
      },
      "105": {
        "name": "Personality_105",
        "skillType": "Free",
        "castCondition": {
          "pose": [
            5
          ],
          "needReInitCD": true
        },
        "cd": 4.0,
        "cdUpperRange": 4.0,
        "initialCD": 0.10000000149011612,
        "publicCDGroup": "",
        "HHAGODJIAPE": "",
        "stateIDs": [
          "Personality_105"
        ],
        "flagTargetReachable": "10",
        "flagSelfOnTemplateCollider": "01",
        "flagSelfInZone": "10",
        "flagTargetInZone": "11"
      },
      "106": {
        "name": "Personality_104",
        "skillType": "Free",
        "castCondition": {
          "pose": [
            9
          ],
          "needReInitCD": true
        },
        "cd": 0.10000000149011612,
        "cdUpperRange": 0.5,
        "initialCD": 0.10000000149011612,
        "publicCDGroup": "",
        "HHAGODJIAPE": "",
        "stateIDs": [
          "Personality_104"
        ],
        "flagTargetReachable": "10",
        "flagSelfOnTemplateCollider": "01",
        "flagSelfInZone": "10",
        "flagTargetInZone": "11"
      },
      "107": {
        "name": "Personality_105",
        "skillType": "Free",
        "castCondition": {
          "pose": [
            10
          ],
          "needReInitCD": true
        },
        "cd": 0.10000000149011612,
        "cdUpperRange": 0.5,
        "initialCD": 0.10000000149011612,
        "publicCDGroup": "",
        "HHAGODJIAPE": "",
        "stateIDs": [
          "Personality_105"
        ],
        "flagTargetReachable": "10",
        "flagSelfOnTemplateCollider": "01",
        "flagSelfInZone": "10",
        "flagTargetInZone": "11"
      },
      "201": {
        "name": "ToWander",
        "skillType": "Free",
        "priority": 1,
        "castCondition": {
          "pose": [
            2
          ],
          "needReInitCD": true
        },
        "cd": 7.5,
        "cdUpperRange": 7.5,
        "initialCD": 7.5,
        "initialCDUpperRange": 12.5,
        "publicCDGroup": "",
        "HHAGODJIAPE": "",
        "stateIDs": [
          "ToWander"
        ],
        "flagTargetReachable": "10",
        "flagSelfOnTemplateCollider": "01",
        "flagSelfInZone": "10",
        "flagTargetInZone": "11"
      },
      "202": {
        "name": "ToIdle",
        "skillType": "Free",
        "priority": 1,
        "castCondition": {
          "pose": [
            1
          ],
          "needReInitCD": true
        },
        "cd": 2.0,
        "cdUpperRange": 4.0,
        "initialCD": 2.0,
        "initialCDUpperRange": 4.0,
        "publicCDGroup": "",
        "HHAGODJIAPE": "",
        "stateIDs": [
          "ToIdle"
        ],
        "flagTargetReachable": "10",
        "flagSelfOnTemplateCollider": "01",
        "flagSelfInZone": "10",
        "flagTargetInZone": "11"
      }
    },
    "skillGCD": 2.0,
    "birdCirclingTactic": [
      {
        "$type": "HBNEBJIHBEG",
        "enable": true,
        "condition": {
          "pose": [
            1,
            2,
            3,
            4,
            5,
            6,
            9,
            10,
            903
          ]
        },
        "nerveTrigger": [
          "HIT",
          "WEATHER_BAD",
          "FEAR"
        ],
        "JMCOBEPDIGM": {
          "IBMJMMNEMAG": 45.0,
          "FEOGFBAEEEE": 30.0,
          "AABFGDLGLPG": ""
        }
      },
      {
        "$type": "DFDPBGOAMPF",
        "enable": true,
        "condition": {
          "pose": [
            901
          ]
        },
        "JMCOBEPDIGM": {
          "ANLAAGAMIKF": 2,
          "CELKDKBKALL": 40.0,
          "NEICCFBCBDG": 40.0,
          "OBJCDOLIFJE": 4.75
        }
      },
      {
        "$type": "FPELBIJFGCE",
        "enable": true,
        "condition": {
          "pose": [
            1
          ]
        },
        "JMCOBEPDIGM": {
          "NBENNEKDIIA": 0.25,
          "KPNDPKIOPJM": 10.0,
          "PINAFKEDDLL": 4.0,
          "ANMPOPEBDIA": 5.0,
          "CHCPFDMADEI": 3.0,
          "MNPDDAKDHGK": ""
        }
      }
    ]
  },
  "animal": {
    "tickAbilityElement": false,
    "hasCharacterRenderering": false
  },
  "captureGroup": {
    "defaultConfig": {
      "captureEffect": "Eff_SceneObj_CatchAnimal_CaughtSuccess"
    }
  }
}