{
  "common": {
    "effectAttachShape": {
      "$type": "FJNPJANPGGC",
      "mesh": "EffectMesh"
    },
    "mass": 20.0,
    "height": 0.800000011920929,
    "modelHeight": 0.4000000059604645,
    "affectedByWorld": true,
    "checkInSurface": true,
    "scale": 2.0,
    "disableTickDistance": 200.0,
    "useGrassDisplacement": true,
    "reconnectSupport": true,
    "recoverByInitPose": true
  },
  "model": {
    "bornEffect": "",
    "attachEffect": "",
    "canBakeMesh": false,
    "BKPFGNPLDNJ": ""
  },
  "combat": {
    "property": {
      "endureType": "Monster_Slime",
      "weight": 60.0
    },
    "beHit": {
      "hitBloodEffect": ""
    },
    "combatLock": {
      "lockShape": "CircleLockEnemy",
      "lockType": "Avatar&Monster_Lv4"
    },
    "die": {
      "dieEndTime": 2.0,
      "dieForceDisappearTime": 8.0,
      "dieDisappearEffect": "",
      "muteHitBox": true,
      "dieDenyLockOn": true,
      "dieIsGhostToEnemy": true,
      "dieIgnoreTriggerBullet": true,
      "muteBillboard": true,
      "mutePushCollider": true
    },
    "animEvents": {
      "NormalAtk": {
        "attackPattern": {
          "$type": "GMDIMKKHACA",
          "triggerType": "TriggerNoRepeat",
          "born": {
            "$type": "IAENDIPDFKD",
            "offset": {
              "KGEPIMHBMOL": 0.0,
              "JEBHCGDPFEJ": 0.5,
              "LPCHALMFFOD": 0.5
            }
          },
          "fanAngle": 150.0,
          "OAHPDLJIADP": 0.75
        },
        "attackInfo": {
          "attackTag": "",
          "attenuationTag": "Monster_MvM",
          "attenuationGroup": "Monster_MvM",
          "attackProperty": {
            "actorGrassSubHurtDelta": 1.0,
            "actorWindSubHurtDelta": 0.0,
            "elementType": "Electric",
            "IPFJJJGABPL": 50.0,
            "strikeType": "Blunt",
            "enBreak": 60.0,
            "attackType": "Melee",
            "GLKMCMDJBIK": 0.0
          },
          "hitPattern": {
            "onHitEffectName": "default",
            "hitImpulseY": "",
            "hitImpulseType": "LV2"
          }
        }
      }
    }
  },
  "equipController": {
    "sheathPoint": "",
    "attachPoints": {
      "equip01": "WeaponR",
      "equip02": "WeaponL"
    }
  },
  "abilities": [
    {
      "abilityID": "ResistShock",
      "abilityName": "Slime_Electric_ResistShock",
      "abilityOverride": ""
    },
    {
      "abilityID": "ElementState",
      "abilityName": "MvM_Slime_Electric_02_ElementState",
      "abilityOverride": ""
    },
    {
      "abilityID": "AnimationSteer",
      "abilityName": "Slime_Electric_AnimationSteer",
      "abilityOverride": ""
    },
    {
      "abilityID": "TestTool_Discharge",
      "abilityName": "Slime_Electric_TestTool_Discharge",
      "abilityOverride": "",
      "lightWeightRemove": true
    },
    {
      "abilityID": "Monster_Slime_SpecialsState",
      "abilityName": "Monster_Slime_SpecialsState",
      "abilityOverride": "",
      "lightWeightRemove": true
    },
    {
      "abilityID": "Monster_Slime_Alert",
      "abilityName": "Monster_Slime_Alert",
      "abilityOverride": "",
      "lightWeightRemove": true
    },
    {
      "abilityID": "ElecMuteHurt",
      "abilityName": "Monster_Common_ElecMuteHurt",
      "abilityOverride": ""
    },
    {
      "abilityID": "",
      "abilityName": "Activity_V4_7_MvM_CommonThreat",
      "abilityOverride": ""
    },
    {
      "abilityID": "",
      "abilityName": "Activity_V4_7_MvM_CommonThreatObject",
      "abilityOverride": ""
    },
    {
      "abilityID": "",
      "abilityName": "MvM_Monster_Electric_Element_Monster",
      "abilityOverride": ""
    }
  ],
  "stateLayers": {
    "defaultLayer": {
      "$type": "GBGJJIIEMBD",
      "layerIndexName": "",
      "CPAANEIJCGD": "",
      "stateIDs": {
        "Born": {
          "$type": "NEDIFAKEGCO",
          "animatorStates": {
            "Born": [
              "Monster_Slime_Born_02",
              "Audio_Slime_02_Born_H"
            ]
          },
          "canSyncMove": true,
          "resetAnimatorTriggerOnExit": [
            "DoSkill"
          ]
        },
        "NormalIdle": {
          "$type": "NEDIFAKEGCO",
          "animatorStates": {
            "Standby": []
          },
          "canDoSkill": true,
          "canSyncMove": true,
          "resetAnimatorTriggerOnExit": [
            "DoSkill"
          ]
        },
        "Turn": {
          "$type": "NEDIFAKEGCO",
          "animatorStates": {
            "Turn": [
              "Audio_Slime_02_Run_H"
            ]
          },
          "canDoSkill": true,
          "canSyncMove": true,
          "resetAnimatorTriggerOnExit": [
            "DoSkill"
          ],
          "canSteer": true,
          "autoSteer": true
        },
        "NormalMove": {
          "$type": "NEDIFAKEGCO",
          "animatorStates": {
            "Run": [
              "Audio_Slime_02_Run_H"
            ]
          },
          "canDoSkill": true,
          "canSyncMove": true,
          "resetAnimatorTriggerOnExit": [
            "DoSkill"
          ],
          "canSteer": true
        },
        "BeHit": {
          "$type": "NEDIFAKEGCO",
          "animatorStates": {
            "Hit_L": [
              "Monster_Slime_BeHit",
              "Audio_Slime_02_Hit_L"
            ],
            "Hit_H": [
              "Monster_Slime_BeHit",
              "Audio_Slime_02_Hit_H"
            ]
          },
          "resetAnimatorTriggerOnEnter": [
            "BeHit"
          ],
          "resetAnimatorTriggerOnExit": [
            "DoSkill"
          ]
        },
        "BeHitThrow": {
          "$type": "NEDIFAKEGCO",
          "animatorStates": {
            "HitThrow": [
              "Monster_Slime_BeHit",
              "Audio_Slime_02_HitThrow_H"
            ],
            "HitThrowDrop": [],
            "HitThrowToGround": [
              "Monster_Slime_ThrowToGround_02",
              "Audio_Slime_02_HitThrowToGround_H"
            ]
          },
          "resetAnimatorTriggerOnEnter": [
            "BeHit",
            "HitAir2HitDrop"
          ],
          "resetAnimatorTriggerOnExit": [
            "DoSkill"
          ]
        },
        "Struggle": {
          "$type": "NEDIFAKEGCO",
          "animatorStates": {
            "Struggle": []
          },
          "resetAnimatorTriggerOnEnter": [
            "BeHit",
            "HitAir2HitDrop"
          ],
          "resetAnimatorTriggerOnExit": [
            "DoSkill"
          ]
        },
        "Die": {
          "$type": "NEDIFAKEGCO",
          "animatorStates": {
            "Die": [
              "Monster_Slime_Die",
              "Monster_Slime_Electric_02_Die",
              "Audio_Slime_Fire_02_Die"
            ],
            "SwimDie": [
              "Monster_Slime_Die",
              "Monster_Slime_Electric_02_Die"
            ]
          },
          "resetAnimatorTriggerOnEnter": [
            "DoSkill"
          ]
        },
        "Warning": {
          "$type": "NEDIFAKEGCO",
          "animatorStates": {
            "Warning": [
              "Monster_Slime_Warning"
            ]
          },
          "resetAnimatorTriggerOnExit": [
            "BeHit",
            "DoSkill"
          ]
        },
        "Charge": {
          "$type": "NEDIFAKEGCO",
          "animatorStates": {
            "Charge": [
              "MvM_Monster_Slime_Electric_02_Charge"
            ]
          },
          "addEndure": 0.0,
          "resetAnimatorTriggerOnExit": [
            "BeHit",
            "DoSkill"
          ]
        },
        "TestTool_Discharge": {
          "$type": "NEDIFAKEGCO",
          "animatorStates": {
            "TestTool_Discharge": [
              "Monster_Slime_Electric_TestTool_Discharge"
            ]
          },
          "addEndure": 0.0,
          "resetAnimatorTriggerOnExit": [
            "BeHit",
            "DoSkill"
          ]
        },
        "NormalAttack": {
          "$type": "NEDIFAKEGCO",
          "animatorStates": {
            "NormalAttack": [
              "Monster_Slime_NormalAttack_02",
              "Monster_Slime_Electric_02_NormalAttack",
              "Audio_Slime_02_NormalAtk_H",
              "Activity_V4_7_MvM_CommonThreat"
            ]
          },
          "addEndure": 0.0,
          "resetAnimatorTriggerOnExit": [
            "BeHit",
            "DoSkill"
          ],
          "enableCCD": true
        }
      }
    }
  },
  "face": {
    "characterName": "Slime_02",
    "baseFaceAnimation": "Default",
    "intervalFaceAnimation": "Blink",
    "minInterval": 1.5,
    "maxInterval": 5.5
  },
  "partControl": {
    "parts": [
      {
        "$type": "INCPGKCDCIO",
        "angularSpeed": 180.0,
        "partRootName": "AntennaControl",
        "doOnUnEabled": "RotateToForward",
        "forwardByTransName": "",
        "limitHorizontal": 360.0,
        "limitVertical": 0.0
      }
    ]
  },
  "billboard": {
    "$type": "DNGNMAJBCNP",
    "attachPoint": "BillboardAttach",
    "offsetType": "Character",
    "radiusOffset": 0.5,
    "showHPBar": true
  },
  "initialPoses": {
    "Default": {},
    "Defend": {
      "initialPoseID": 999,
      "initialPoseParams": {
        "intParams": {
          "LevelType": "1"
        }
      }
    }
  },
  "aibeta": {
    "enable": true,
    "moveSetting": {
      "navMeshAgentName": "Undead01",
      "almostReachedDistanceWalk": 0.5,
      "almostReachedDistanceRun": 0.5
    },
    "sensing": {
      "settings": {
        "DefaultSetting": {
          "viewRange": 15.0,
          "viewPanoramic": true,
          "feelRange": 15.0
        }
      },
      "templates": {
        "DefaultTemplate": {
          "DefaultPoses": "DefaultSetting"
        }
      }
    },
    "neurons": {
      "DefaultSetting": [
        "HIT",
        "FEAR"
      ],
      "NeverCombat": []
    },
    "threat": {
      "GHIJMOKOLMB": "",
      "clearThreatTargetDistance": 100.0,
      "clearThreatEdgeDistance": 3.5,
      "clearThreatTimerByDistance": 1.75,
      "LHDJAIFLCOE": true,
      "viewThreatGrow": 35.0,
      "feelThreatGrow": 1000.0,
      "threatDecreaseSpeed": 5.0,
      "threatBroadcastRange": 0.0,
      "viewAttenuation": [
        {
          "x": 15.0,
          "y": 10.0
        },
        {
          "x": 200.0
        }
      ],
      "IIOLFCGEIHN": true,
      "KKKGOEEOHLL": [
        "_MVM_ELECTRIC_ELEMENT_MONSTER",
        "_MVM_ATTACK_FLYTARGET"
      ],
      "auxScoreChangeTargetCD": 0.5,
      "targetDistanceScoreSystem": {
        "weight": 100,
        "value": 100.0,
        "max": 100.0,
        "enable": true
      }
    },
    "defendArea": {
      "defendRange": 100.0
    },
    "command": {
      "enable": true,
      "HDFMIBIKJCO": true
    },
    "skills": {
      "209": {
        "name": "Reborn_Free",
        "skillType": "Free",
        "castCondition": {
          "pose": [
            1
          ]
        },
        "cd": 20.0,
        "publicCDGroup": "",
        "HHAGODJIAPE": "",
        "stateIDs": [
          "Charge"
        ],
        "flagTargetReachable": "10",
        "flagSelfOnTemplateCollider": "01",
        "flagSelfInZone": "10",
        "flagTargetInZone": "11"
      },
      "201": {
        "name": "Reborn",
        "castCondition": {
          "pose": [
            2
          ]
        },
        "cd": 20.0,
        "publicCDGroup": "",
        "HHAGODJIAPE": "",
        "stateIDs": [
          "Charge"
        ],
        "flagTargetReachable": "11",
        "flagSelfOnTemplateCollider": "11",
        "flagSelfInZone": "11",
        "flagTargetInZone": "11"
      },
      "202": {
        "name": "Reborn",
        "castCondition": {
          "pose": [
            2
          ]
        },
        "cd": 20.0,
        "publicCDGroup": "",
        "HHAGODJIAPE": "",
        "stateIDs": [
          "Charge"
        ],
        "flagTargetReachable": "11",
        "flagSelfOnTemplateCollider": "11",
        "flagSelfInZone": "11",
        "flagTargetInZone": "11"
      },
      "203": {
        "name": "Reborn",
        "castCondition": {
          "pose": [
            2
          ]
        },
        "cd": 20.0,
        "publicCDGroup": "",
        "HHAGODJIAPE": "",
        "stateIDs": [
          "Charge"
        ],
        "flagTargetReachable": "11",
        "flagSelfOnTemplateCollider": "11",
        "flagSelfInZone": "11",
        "flagTargetInZone": "11"
      },
      "204": {
        "name": "Reborn",
        "castCondition": {
          "pose": [
            2
          ]
        },
        "cd": 20.0,
        "publicCDGroup": "",
        "HHAGODJIAPE": "",
        "stateIDs": [
          "Charge"
        ],
        "flagTargetReachable": "11",
        "flagSelfOnTemplateCollider": "11",
        "flagSelfInZone": "11",
        "flagTargetInZone": "11"
      },
      "301": {
        "name": "NormalAttack",
        "combatSkillType": "MeleeAttack",
        "castCondition": {
          "pose": [
            102,
            103
          ],
          "pickRangeMax": 2.5
        },
        "cd": 2.5,
        "publicCDGroup": "",
        "triggerCDOnStart": true,
        "HHAGODJIAPE": "",
        "stateIDs": [
          "NormalAttack"
        ],
        "flagTargetReachable": "11",
        "flagSelfOnTemplateCollider": "11",
        "flagSelfInZone": "11",
        "flagTargetInZone": "11"
      }
    },
    "skillGCD": 0.0,
    "target": {
      "defaultTargetPrioritys": [
        "COMMAND",
        "THREAT"
      ]
    },
    "birdCirclingTactic": [
      {
        "$type": "KACCHOLJDNK",
        "enable": true,
        "condition": {
          "pose": [
            2,
            3,
            102,
            103
          ]
        },
        "JMCOBEPDIGM": {
          "KHDFDAAAPEI": 2.5,
          "HKJODDGJPHA": 99.0,
          "MNPDDAKDHGK": ""
        }
      },
      {
        "$type": "MCDGOJLCMBM",
        "JMCOBEPDIGM": {
          "MNPDDAKDHGK": "",
          "GJDMDHIBCME": ""
        }
      },
      {
        "$type": "COLLJLNKMLC",
        "JMCOBEPDIGM": {
          "MNPDDAKDHGK": "",
          "GJDMDHIBCME": "",
          "BBPDJAFOGPF": true,
          "PLLHMGHOAPB": "",
          "KPIJNGFNAEF": "",
          "GDPHPLKJGAJ": "",
          "KKKOAABEHEP": ""
        }
      },
      {
        "$type": "NNJKLGNPMNN",
        "enable": true,
        "condition": {
          "pose": [
            221,
            231,
            222,
            232
          ]
        },
        "JMCOBEPDIGM": {
          "MNPDDAKDHGK": "",
          "GJDMDHIBCME": "",
          "IAJDAHDAEFP": true,
          "OILAIKJEIGB": false
        }
      }
    ]
  },
  "inputKeys": [
    {
      "keyID": 1,
      "inputKeyCode": 257,
      "abilityName": ""
    },
    {
      "keyID": 201,
      "inputKeyCode": 258,
      "abilityName": ""
    },
    {
      "keyID": 301,
      "inputKeyCode": 259,
      "abilityName": ""
    }
  ],
  "move": {
    "$type": "IPNMJMHDMPF",
    "monsterSizeType": "SlimeType",
    "PKHOMJHFAEE": "RootNode"
  },
  "field": {
    "concernType": "CombatExcludeGWGO",
    "shape": "CircleR15",
    "ignoreScale": true,
    "fromShape": "",
    "triggerInfinite": true,
    "lifeInfinite": true,
    "checkInterval": 0.5,
    "overwriteCampType": true,
    "campType": "SelfCamp",
    "colliderName": "",
    "fromColliderName": ""
  }
}