{
  "common": {
    "effectAttachShape": {
      "$type": "FJNPJANPGGC",
      "mesh": "EffectMesh"
    },
    "mass": 10000.0,
    "height": 2.0,
    "affectedByWorld": true,
    "checkInSurface": true,
    "useGrassDisplacement": true,
    "clearAnimatorOnSetLightDeactive": true,
    "clearAIOnSetLightDeactive": true,
    "recoverByInitPose": true
  },
  "specialPoint": {
    "elementAbsorb": "RootNode",
    "elementPendant": "",
    "elementDrop": "RootNode",
    "bulletAim": "Waist"
  },
  "model": {
    "bornEffect": "Eff_Monster_Common_Born",
    "attachEffect": "",
    "BKPFGNPLDNJ": ""
  },
  "dither": {
    "showDitherDuration": 2.0
  },
  "combat": {
    "property": {
      "endureType": "Monster_Boss_Other",
      "weight": 300.0
    },
    "beHit": {
      "hitBloodEffect": "",
      "hitAutoRedirect": false
    },
    "combatLock": {
      "lockShape": "CircleLockEnemy",
      "lockType": "Avatar&Monster_Lv4"
    },
    "die": {
      "hasAnimatorDie": true,
      "dieForceDisappearTime": 2.0,
      "dieDisappearEffect": "Eff_Death_Common_Animal",
      "muteHitBox": true,
      "dieDenyLockOn": true,
      "dieIsGhostToEnemy": true,
      "dieIgnoreTriggerBullet": true,
      "muteBillboard": true,
      "mutePushCollider": true
    },
    "animEvents": {
      "AtkNo": {
        "attackPattern": {
          "$type": "GMDIMKKHACA",
          "triggerType": "TriggerNoRepeat",
          "born": {
            "$type": "IAENDIPDFKD",
            "offset": {
              "KGEPIMHBMOL": 0.0,
              "JEBHCGDPFEJ": 0.0,
              "LPCHALMFFOD": -0.5
            }
          },
          "fanAngle": 60.0,
          "OAHPDLJIADP": 1.5
        },
        "attackInfo": {
          "attackTag": "",
          "attenuationTag": "",
          "attenuationGroup": "default",
          "attackProperty": {
            "actorGrassSubHurtDelta": 0.5,
            "actorWindSubHurtDelta": 0.0,
            "IPFJJJGABPL": 100.0,
            "strikeType": "Blunt",
            "attackType": "Melee",
            "GLKMCMDJBIK": 0.0
          },
          "hitPattern": {
            "onHitEffectName": "default",
            "hitImpulseY": "",
            "hitImpulseType": "LV2",
            "hitHaltTimeScale": 0.009999999776482582
          }
        }
      },
      "Megamoth_HitScene": {
        "attackPattern": {
          "$type": "GMDIMKKHACA",
          "triggerType": "TriggerNoRepeat",
          "checkHitLayerType": "OnlyHitScene",
          "born": {
            "$type": "IAENDIPDFKD",
            "offset": {
              "KGEPIMHBMOL": 0.0,
              "JEBHCGDPFEJ": 1.0,
              "LPCHALMFFOD": 1.0
            }
          },
          "fanAngle": 45.0,
          "OAHPDLJIADP": 3.5
        },
        "attackInfo": {
          "attackTag": "",
          "attenuationTag": "",
          "attenuationGroup": "default",
          "cameraShake": {
            "shakeRange": 0.1599999964237213,
            "shakeTime": 0.15000000596046448,
            "shakeDistance": 25.0
          }
        }
      }
    }
  },
  "abilities": [
    {
      "abilityID": "Steer",
      "abilityName": "Monster_Megamoth_None_Steer",
      "abilityOverride": ""
    },
    {
      "abilityID": "Attack01",
      "abilityName": "Monster_Megamoth_None_Attack01",
      "abilityOverride": ""
    },
    {
      "abilityID": "Attack02",
      "abilityName": "Monster_Megamoth_None_Attack02",
      "abilityOverride": ""
    },
    {
      "abilityID": "EffAdapter",
      "abilityName": "Monster_Megamoth_None_EffAdapter",
      "abilityOverride": ""
    },
    {
      "abilityID": "EffAdapter",
      "abilityName": "Monster_Megamoth_None_LeftBack_Foot_Eff",
      "abilityOverride": ""
    },
    {
      "abilityID": "EffAdapter",
      "abilityName": "Monster_Megamoth_None_LeftFront_Foot_Eff",
      "abilityOverride": ""
    },
    {
      "abilityID": "EffAdapter",
      "abilityName": "Monster_Megamoth_None_RightBack_Foot_Eff",
      "abilityOverride": ""
    },
    {
      "abilityID": "EffAdapter",
      "abilityName": "Monster_Megamoth_None_RightFront_Foot_Eff",
      "abilityOverride": ""
    },
    {
      "abilityID": "ChewControl",
      "abilityName": "Monster_Megamoth_None_ChewControl",
      "abilityOverride": ""
    },
    {
      "abilityID": "Personality03",
      "abilityName": "Monster_Megamoth_None_Personality03",
      "abilityOverride": ""
    },
    {
      "abilityID": "Personality04",
      "abilityName": "Monster_Megamoth_None_Personality04",
      "abilityOverride": ""
    },
    {
      "abilityID": "RCMethod",
      "abilityName": "Monster_Megamoth_None_RCMethod",
      "abilityOverride": ""
    }
  ],
  "stateLayers": {
    "defaultLayer": {
      "$type": "GBGJJIIEMBD",
      "layerIndexName": "",
      "CPAANEIJCGD": "",
      "stateIDs": {
        "NormalIdle": {
          "$type": "NEDIFAKEGCO",
          "animatorStates": {
            "Standby": [],
            "Born": []
          },
          "canDoSkill": true,
          "canSyncMove": true,
          "resetAnimatorTriggerOnExit": [
            "DoSkill"
          ]
        },
        "Sit": {
          "$type": "NEDIFAKEGCO",
          "animatorStates": {
            "Sit": []
          },
          "canDoSkill": true,
          "canSyncMove": true,
          "resetAnimatorTriggerOnExit": [
            "DoSkill"
          ]
        },
        "Lying": {
          "$type": "NEDIFAKEGCO",
          "animatorStates": {
            "Lying": []
          },
          "canDoSkill": true,
          "canSyncMove": true,
          "resetAnimatorTriggerOnExit": [
            "DoSkill"
          ]
        },
        "Walk": {
          "$type": "NEDIFAKEGCO",
          "animatorStates": {
            "Walk": [
              "Audio_Monster_Megamoth_Walk_S",
              "Monster_Megamoth_None_Megamoth_WalkEffect"
            ]
          },
          "canDoSkill": true,
          "canSyncMove": true,
          "resetAnimatorTriggerOnExit": [
            "DoSkill"
          ],
          "canSteer": true
        },
        "Run": {
          "$type": "NEDIFAKEGCO",
          "animatorStates": {
            "Run": [
              "Audio_Monster_Megamoth_Run_S"
            ]
          },
          "canDoSkill": true,
          "canSyncMove": true,
          "resetAnimatorTriggerOnExit": [
            "DoSkill"
          ],
          "canSteer": true
        },
        "Turn": {
          "$type": "NEDIFAKEGCO",
          "animatorStates": {
            "TurnLeft": [
              "Audio_Monster_Megamoth_Walk_S"
            ],
            "TurnRight": [
              "Audio_Monster_Megamoth_Walk_S"
            ],
            "TurnBack": [
              "Audio_Monster_Megamoth_Walk_S"
            ]
          },
          "canDoSkill": true,
          "canSyncMove": true,
          "resetAnimatorTriggerOnExit": [
            "DoSkill"
          ],
          "canSteer": true,
          "followAnimRotation": true
        },
        "SurroundTurn": {
          "$type": "NEDIFAKEGCO",
          "animatorStates": {
            "SurroundTurn": []
          },
          "resetAnimatorTriggerOnEnter": [
            "SurroundBigTurn"
          ],
          "resetAnimatorTriggerOnExit": [
            "DoSkill",
            "SurroundBigTurn"
          ],
          "canSteer": true,
          "followAnimRotation": true
        },
        "BeHit": {
          "$type": "NEDIFAKEGCO",
          "animatorStates": {
            "Hit_L": []
          },
          "resetAnimatorTriggerOnEnter": [
            "BeHit"
          ],
          "resetAnimatorTriggerOnExit": [
            "DoSkill"
          ]
        },
        "Chew": {
          "$type": "NEDIFAKEGCO",
          "animatorStates": {
            "Chew": []
          }
        },
        "Die": {
          "$type": "NEDIFAKEGCO",
          "animatorStates": {
            "Die": [
              "Monster_Megamoth_None_Megamoth_Die",
              "Audio_Monster_Megamoth_Die_S"
            ]
          }
        },
        "Personality1": {
          "$type": "NEDIFAKEGCO",
          "animatorStates": {
            "Personality1": [
              "Audio_Monster_Megamoth_Personality1_S"
            ]
          },
          "canDoSkill": true,
          "resetAnimatorTriggerOnExit": [
            "BeHit",
            "DoSkill"
          ]
        },
        "Personality2": {
          "$type": "NEDIFAKEGCO",
          "animatorStates": {
            "Personality2": [
              "Audio_Monster_Megamoth_Personality2_S"
            ]
          },
          "canDoSkill": true,
          "resetAnimatorTriggerOnExit": [
            "BeHit",
            "DoSkill"
          ]
        },
        "Personality3_BS": {
          "$type": "NEDIFAKEGCO",
          "animatorStates": {
            "Personality3_BS": [
              "Audio_Monster_Megamoth_Personality3_BS_S"
            ]
          },
          "canDoSkill": true,
          "resetAnimatorTriggerOnExit": [
            "BeHit",
            "DoSkill"
          ]
        },
        "Personality3_Loop": {
          "$type": "NEDIFAKEGCO",
          "animatorStates": {
            "Personality3_Loop": []
          },
          "canDoSkill": true,
          "resetAnimatorTriggerOnExit": [
            "BeHit",
            "DoSkill"
          ]
        },
        "Personality3_AS": {
          "$type": "NEDIFAKEGCO",
          "animatorStates": {
            "Personality3_AS": [
              "Audio_Monster_Megamoth_Alert_Sit_S"
            ]
          },
          "resetAnimatorTriggerOnExit": [
            "BeHit",
            "DoSkill"
          ]
        },
        "Personality4_BS": {
          "$type": "NEDIFAKEGCO",
          "animatorStates": {
            "Personality4_BS": [
              "Audio_Monster_Megamoth_Personality4_BS_S"
            ]
          },
          "canDoSkill": true,
          "resetAnimatorTriggerOnExit": [
            "BeHit",
            "DoSkill"
          ]
        },
        "Personality4_Loop": {
          "$type": "NEDIFAKEGCO",
          "animatorStates": {
            "Personality4_Loop": []
          },
          "canDoSkill": true,
          "resetAnimatorTriggerOnExit": [
            "BeHit",
            "DoSkill"
          ]
        },
        "Personality4_Play": {
          "$type": "NEDIFAKEGCO",
          "animatorStates": {
            "Personality4_Play": [
              "Audio_Monster_Megamoth_Personality4_Play_S"
            ]
          },
          "canDoSkill": true,
          "resetAnimatorTriggerOnExit": [
            "BeHit",
            "DoSkill"
          ]
        },
        "Personality4_AS": {
          "$type": "NEDIFAKEGCO",
          "animatorStates": {
            "Personality4_AS": [
              "Audio_Monster_Megamoth_Alert_Sleep_S"
            ]
          },
          "resetAnimatorTriggerOnExit": [
            "BeHit",
            "DoSkill"
          ]
        },
        "Personality5": {
          "$type": "NEDIFAKEGCO",
          "animatorStates": {
            "Personality5": [
              "Audio_Monster_Megamoth_Personality4_Play_S"
            ]
          },
          "canDoSkill": true,
          "resetAnimatorTriggerOnExit": [
            "BeHit",
            "DoSkill"
          ]
        },
        "Alert": {
          "$type": "NEDIFAKEGCO",
          "animatorStates": {
            "Alert": [
              "Audio_Monster_Megamoth_Alert_S"
            ]
          },
          "resetAnimatorTriggerOnExit": [
            "BeHit",
            "DoSkill"
          ]
        },
        "Alert_Sit": {
          "$type": "NEDIFAKEGCO",
          "animatorStates": {
            "Alert_Sit": [
              "Audio_Monster_Megamoth_Alert_Sit_S"
            ]
          },
          "resetAnimatorTriggerOnExit": [
            "BeHit",
            "DoSkill"
          ]
        },
        "Alert_Sleep": {
          "$type": "NEDIFAKEGCO",
          "animatorStates": {
            "Alert_Sleep": [
              "Audio_Monster_Megamoth_Alert_Sleep_S"
            ]
          },
          "resetAnimatorTriggerOnExit": [
            "BeHit",
            "DoSkill"
          ]
        },
        "Attack01_BS": {
          "$type": "NEDIFAKEGCO",
          "animatorStates": {
            "Attack01_BS": [
              "Audio_Monster_Megamoth_Attack01_BS_S"
            ]
          },
          "resetAnimatorTriggerOnExit": [
            "BeHit",
            "DoSkill"
          ]
        },
        "Attack01_Turn_L": {
          "$type": "NEDIFAKEGCO",
          "animatorStates": {
            "Attack01_Turn_L": [
              "Audio_Monster_Megamoth_Attack_TurnRun_S"
            ]
          },
          "resetAnimatorTriggerOnExit": [
            "BeHit",
            "DoSkill"
          ],
          "canSteer": true
        },
        "Attack01_Turn_R": {
          "$type": "NEDIFAKEGCO",
          "animatorStates": {
            "Attack01_Turn_R": [
              "Audio_Monster_Megamoth_Attack_TurnRun_S"
            ]
          },
          "resetAnimatorTriggerOnExit": [
            "BeHit",
            "DoSkill"
          ],
          "canSteer": true
        },
        "Attack01_Turn_L_HitScence": {
          "$type": "NEDIFAKEGCO",
          "animatorStates": {
            "Attack01_Turn_L_HitScence": [
              "Audio_Monster_Megamoth_Attack_TurnRun_S"
            ]
          },
          "canSyncMove": true,
          "resetAnimatorTriggerOnExit": [
            "BeHit",
            "DoSkill"
          ]
        },
        "Attack01_Turn_R_HitScence": {
          "$type": "NEDIFAKEGCO",
          "animatorStates": {
            "Attack01_Turn_R_HitScence": [
              "Audio_Monster_Megamoth_Attack_TurnRun_S"
            ]
          },
          "canSyncMove": true,
          "resetAnimatorTriggerOnExit": [
            "BeHit",
            "DoSkill"
          ]
        },
        "Attack01_Run": {
          "$type": "NEDIFAKEGCO",
          "animatorStates": {
            "Attack01_Run": [
              "Monster_Megamoth_None_Megamoth_HitScene",
              "Audio_Monster_Megamoth_Run_S"
            ]
          },
          "resetAnimatorTriggerOnExit": [
            "BeHit",
            "DoSkill"
          ]
        },
        "Attack01_Run_Extra": {
          "$type": "NEDIFAKEGCO",
          "animatorStates": {
            "Attack01_Run_Extra": [
              "Audio_Monster_Megamoth_Run_S"
            ]
          },
          "resetAnimatorTriggerOnExit": [
            "BeHit",
            "DoSkill"
          ]
        },
        "Attack01_Loop": {
          "$type": "NEDIFAKEGCO",
          "animatorStates": {
            "Attack01_Loop": [
              "Monster_Megamoth_None_Megamoth_HitScene",
              "Audio_Monster_Megamoth_Run_S"
            ]
          },
          "resetAnimatorTriggerOnExit": [
            "BeHit",
            "DoSkill"
          ]
        },
        "Attack01_Loop_Extra": {
          "$type": "NEDIFAKEGCO",
          "animatorStates": {
            "Attack01_Loop_Extra": [
              "Audio_Monster_Megamoth_Run_S"
            ]
          },
          "resetAnimatorTriggerOnExit": [
            "BeHit",
            "DoSkill"
          ]
        },
        "Attack01_AS": {
          "$type": "NEDIFAKEGCO",
          "animatorStates": {
            "Attack01_AS": [
              "Audio_Monster_Megamoth_Attack01_AS_S"
            ]
          },
          "resetAnimatorTriggerOnExit": [
            "BeHit",
            "DoSkill"
          ],
          "canSteer": true,
          "followAnimRotation": true
        },
        "Attack01_AS_HitScence": {
          "$type": "NEDIFAKEGCO",
          "animatorStates": {
            "Attack01_AS_HitScence": [
              "Audio_Monster_Megamoth_Attack01_AS_S"
            ]
          },
          "resetAnimatorTriggerOnExit": [
            "BeHit",
            "DoSkill"
          ]
        },
        "Attack02_BS": {
          "$type": "NEDIFAKEGCO",
          "animatorStates": {
            "Attack02_BS": [
              "Audio_Monster_Megamoth_Attack02_BS_S"
            ]
          },
          "resetAnimatorTriggerOnExit": [
            "BeHit",
            "DoSkill"
          ],
          "followAnimRotation": true
        },
        "Attack02_Turn_L": {
          "$type": "NEDIFAKEGCO",
          "animatorStates": {
            "Attack02_Turn_L": [
              "Audio_Monster_Megamoth_Attack_TurnRun_S"
            ]
          },
          "resetAnimatorTriggerOnExit": [
            "BeHit",
            "DoSkill"
          ],
          "canSteer": true
        },
        "Attack02_Turn_R": {
          "$type": "NEDIFAKEGCO",
          "animatorStates": {
            "Attack02_Turn_R": [
              "Audio_Monster_Megamoth_Attack_TurnRun_S"
            ]
          },
          "resetAnimatorTriggerOnExit": [
            "BeHit",
            "DoSkill"
          ],
          "canSteer": true
        },
        "Attack02_Turn_L_HitScence": {
          "$type": "NEDIFAKEGCO",
          "animatorStates": {
            "Attack02_Turn_L_HitScence": [
              "Audio_Monster_Megamoth_Attack_TurnRun_S"
            ]
          },
          "canSyncMove": true,
          "resetAnimatorTriggerOnExit": [
            "BeHit",
            "DoSkill"
          ]
        },
        "Attack02_Turn_R_HitScence": {
          "$type": "NEDIFAKEGCO",
          "animatorStates": {
            "Attack02_Turn_R_HitScence": [
              "Audio_Monster_Megamoth_Attack_TurnRun_S"
            ]
          },
          "canSyncMove": true,
          "resetAnimatorTriggerOnExit": [
            "BeHit",
            "DoSkill"
          ]
        },
        "Attack02_Run": {
          "$type": "NEDIFAKEGCO",
          "animatorStates": {
            "Attack02_Run": [
              "Monster_Megamoth_None_Megamoth_HitScene",
              "Audio_Monster_Megamoth_Run_S"
            ]
          },
          "resetAnimatorTriggerOnExit": [
            "BeHit",
            "DoSkill"
          ]
        },
        "Attack02_Run_Extra": {
          "$type": "NEDIFAKEGCO",
          "animatorStates": {
            "Attack02_Run_Extra": [
              "Audio_Monster_Megamoth_Run_S"
            ]
          },
          "resetAnimatorTriggerOnExit": [
            "BeHit",
            "DoSkill"
          ]
        },
        "Attack02_Loop": {
          "$type": "NEDIFAKEGCO",
          "animatorStates": {
            "Attack02_Loop": [
              "Monster_Megamoth_None_Megamoth_HitScene",
              "Audio_Monster_Megamoth_Attack02_Loop_S"
            ]
          },
          "resetAnimatorTriggerOnExit": [
            "BeHit",
            "DoSkill"
          ]
        },
        "Attack02_Loop_Extra": {
          "$type": "NEDIFAKEGCO",
          "animatorStates": {
            "Attack02_Loop_Extra": [
              "Audio_Monster_Megamoth_Attack02_Loop_S"
            ]
          },
          "resetAnimatorTriggerOnExit": [
            "BeHit",
            "DoSkill"
          ]
        },
        "Attack02_AS": {
          "$type": "NEDIFAKEGCO",
          "animatorStates": {
            "Attack02_AS": [
              "Audio_Monster_Megamoth_Attack02_AS_S"
            ]
          },
          "resetAnimatorTriggerOnExit": [
            "BeHit",
            "DoSkill"
          ]
        },
        "Attack02_AS_HitScence": {
          "$type": "NEDIFAKEGCO",
          "animatorStates": {
            "Attack02_AS_HitScence": [
              "Audio_Monster_Megamoth_Attack02_AS_S"
            ]
          },
          "resetAnimatorTriggerOnExit": [
            "BeHit",
            "DoSkill"
          ]
        }
      }
    }
  },
  "billboard": {
    "$type": "DNGNMAJBCNP",
    "attachPoint": "BillboardAttach",
    "offset": {
      "y": 0.30000001192092896,
      "z": 0.6000000238418579
    },
    "offsetType": "Character",
    "radiusOffset": 0.25,
    "showHPBar": true
  },
  "initialPoses": {
    "Default": {
      "initialPoseID": 1
    },
    "Sit": {
      "initialPoseID": 2,
      "initialPoseParams": {
        "boolParams": {
          "Sit": "true"
        }
      }
    },
    "Sleep": {
      "initialPoseID": 3,
      "initialPoseParams": {
        "boolParams": {
          "Sleep": "true"
        }
      }
    },
    "DefaultNoSkill": {
      "initialPoseID": 4,
      "initialPoseParams": {
        "boolParams": {
          "DefaultNoSkill": "true"
        }
      }
    }
  },
  "aibeta": {
    "enable": true,
    "moveSetting": {
      "navMeshAgentName": "Undead01"
    },
    "sensing": {
      "settings": {
        "DefaultSetting": {
          "viewRange": 0.0,
          "feelRange": 0.0,
          "sourcelessHitAttractionRange": 20.0
        },
        "HighSensing": {
          "viewRange": 12.0,
          "hearAttractionRange": 0.0,
          "feelRange": 4.0,
          "sourcelessHitAttractionRange": 20.0
        },
        "LowSensing": {
          "viewRange": 6.0,
          "hearAttractionRange": 0.0,
          "feelRange": 2.0,
          "sourcelessHitAttractionRange": 20.0
        },
        "NoSensing": {
          "viewRange": 0.0,
          "hearAttractionRange": 0.0,
          "feelRange": 0.0,
          "sourcelessHitAttractionRange": 20.0
        }
      },
      "templates": {
        "DefaultTemplate": {
          "DefaultPoses": "NoSensing"
        },
        "NoSensing": {
          "DefaultPoses": "NoSensing"
        },
        "LowSensing": {
          "DefaultPoses": "LowSensing"
        },
        "HighSensing": {
          "DefaultPoses": "HighSensing"
        }
      }
    },
    "threat": {
      "GHIJMOKOLMB": "",
      "clearThreatTargetDistance": 60.0,
      "clearThreatEdgeDistance": 60.0,
      "clearThreatByLostPath": true,
      "clearThreatByTargetOutOfZone": true,
      "clearThreatTimerByDistance": 2.0,
      "viewAttenuation": [
        {
          "x": 10.0,
          "y": 2.0
        },
        {
          "x": 20.0,
          "y": 1.0
        },
        {
          "x": 30.0,
          "y": 0.5
        },
        {
          "x": 50.0,
          "y": 0.10000000149011612
        }
      ]
    },
    "defendArea": {},
    "skillGroupCDConfigs": [
      {
        "skillGroupCDID": 2,
        "skillGroupCDTime": 20.0
      }
    ],
    "skillSetting": {
      "skillEliteSet": {
        "0": [
          601,
          231,
          241
        ],
        "1": [
          601,
          211
        ],
        "2": [
          611
        ],
        "3": [
          611,
          211
        ]
      }
    },
    "skills": {
      "101": {
        "name": "OnAlert",
        "skillType": "OnAlert",
        "faceTarget": true,
        "castCondition": {
          "pose": [
            1,
            4
          ]
        },
        "publicCDGroup": "",
        "ignoreGCD": true,
        "triggerGCD": false,
        "HHAGODJIAPE": "",
        "stateIDs": [
          "Alert"
        ],
        "skillQueryingTime": 3.0,
        "flagTargetReachable": "10",
        "flagSelfOnTemplateCollider": "01",
        "flagSelfInZone": "10",
        "flagTargetInZone": "11"
      },
      "111": {
        "name": "OnAlert_Sit",
        "skillType": "OnAlert",
        "castCondition": {
          "pose": [
            2
          ]
        },
        "publicCDGroup": "",
        "ignoreGCD": true,
        "triggerGCD": false,
        "HHAGODJIAPE": "",
        "stateIDs": [
          "Alert_Sit"
        ],
        "skillQueryingTime": 3.0,
        "flagTargetReachable": "10",
        "flagSelfOnTemplateCollider": "01",
        "flagSelfInZone": "10",
        "flagTargetInZone": "11"
      },
      "121": {
        "name": "OnAlert_Sleep",
        "skillType": "OnAlert",
        "castCondition": {
          "pose": [
            3
          ]
        },
        "publicCDGroup": "",
        "ignoreGCD": true,
        "triggerGCD": false,
        "HHAGODJIAPE": "",
        "stateIDs": [
          "Alert_Sleep"
        ],
        "skillQueryingTime": 3.0,
        "flagTargetReachable": "10",
        "flagSelfOnTemplateCollider": "01",
        "flagSelfInZone": "10",
        "flagTargetInZone": "11"
      },
      "201": {
        "name": "Personality1",
        "skillType": "Free",
        "priority": 6,
        "castCondition": {
          "pose": [
            1
          ]
        },
        "cd": 15.0,
        "cdUpperRange": 10.0,
        "initialCD": 2.5,
        "initialCDUpperRange": 5.0,
        "publicCDGroup": "",
        "skillGroupCDID": 2,
        "HHAGODJIAPE": "",
        "stateIDs": [
          "Personality1"
        ],
        "flagTargetReachable": "10",
        "flagSelfOnTemplateCollider": "01",
        "flagSelfInZone": "10",
        "flagTargetInZone": "11"
      },
      "211": {
        "name": "Personality2",
        "skillType": "Free",
        "priority": 6,
        "castCondition": {
          "pose": [
            1
          ]
        },
        "cd": 20.0,
        "cdUpperRange": 10.0,
        "initialCD": 2.5,
        "initialCDUpperRange": 5.0,
        "publicCDGroup": "",
        "skillGroupCDID": 2,
        "HHAGODJIAPE": "",
        "stateIDs": [
          "Personality2"
        ],
        "flagTargetReachable": "10",
        "flagSelfOnTemplateCollider": "01",
        "flagSelfInZone": "10",
        "flagTargetInZone": "11"
      },
      "221": {
        "name": "Personality3",
        "skillType": "Free",
        "castCondition": {
          "pose": [
            1
          ]
        },
        "cd": 40.0,
        "cdUpperRange": 15.0,
        "initialCD": 10.5,
        "initialCDUpperRange": 5.0,
        "publicCDGroup": "",
        "skillGroupCDID": 2,
        "HHAGODJIAPE": "",
        "stateIDs": [
          "Personality3_BS",
          "Personality3_Loop",
          "Personality3_AS"
        ],
        "flagTargetReachable": "10",
        "flagSelfOnTemplateCollider": "01",
        "flagSelfInZone": "10",
        "flagTargetInZone": "11"
      },
      "231": {
        "name": "Personality4",
        "skillType": "Free",
        "castCondition": {
          "pose": [
            1
          ]
        },
        "cd": 60.0,
        "cdUpperRange": 25.0,
        "initialCD": 15.5,
        "initialCDUpperRange": 5.0,
        "publicCDGroup": "",
        "skillGroupCDID": 2,
        "HHAGODJIAPE": "",
        "stateIDs": [
          "Personality4_BS",
          "Personality4_Loop",
          "Personality4_AS",
          "Personality4_Play"
        ],
        "flagTargetReachable": "10",
        "flagSelfOnTemplateCollider": "01",
        "flagSelfInZone": "10",
        "flagTargetInZone": "11"
      },
      "241": {
        "name": "Personality5",
        "skillType": "Free",
        "castCondition": {
          "pose": [
            3
          ]
        },
        "cd": 15.0,
        "cdUpperRange": 15.0,
        "initialCD": 5.5,
        "initialCDUpperRange": 5.0,
        "publicCDGroup": "",
        "HHAGODJIAPE": "",
        "stateIDs": [
          "Personality5"
        ],
        "flagTargetReachable": "10",
        "flagSelfOnTemplateCollider": "01",
        "flagSelfInZone": "10",
        "flagTargetInZone": "11"
      },
      "601": {
        "name": "RangedAttack1",
        "combatSkillType": "RangedAttack",
        "castCondition": {
          "pose": [
            101
          ],
          "pickRangeMax": 40.0
        },
        "cdUpperRange": 1.0,
        "publicCDGroup": "",
        "HHAGODJIAPE": "",
        "stateIDs": [
          "Attack01_AS_HitScence",
          "Attack01_Run_Extra",
          "Attack01_Loop_Extra",
          "Attack01_BS",
          "Attack01_Turn_L",
          "Attack01_Turn_R",
          "Attack01_Run",
          "Attack01_Loop",
          "Attack01_AS",
          "Attack01_Turn_L_HitScence",
          "Attack01_Turn_R_HitScence"
        ],
        "flagTargetReachable": "11",
        "flagSelfOnTemplateCollider": "11",
        "flagSelfInZone": "11",
        "flagTargetInZone": "11"
      },
      "611": {
        "name": "RangedAttack2",
        "combatSkillType": "RangedAttack",
        "castCondition": {
          "pose": [
            101
          ],
          "pickRangeMax": 40.0
        },
        "cdUpperRange": 1.0,
        "publicCDGroup": "",
        "HHAGODJIAPE": "",
        "stateIDs": [
          "Attack02_AS_HitScence",
          "Attack02_Run_Extra",
          "Attack02_Loop_Extra",
          "Attack02_BS",
          "Attack02_Turn_L",
          "Attack02_Turn_R",
          "Attack02_Run",
          "Attack02_Loop",
          "Attack02_AS",
          "Attack02_Turn_L_HitScence",
          "Attack02_Turn_R_HitScence"
        ],
        "flagTargetReachable": "11",
        "flagSelfOnTemplateCollider": "11",
        "flagSelfInZone": "11",
        "flagTargetInZone": "11"
      }
    },
    "skillGCD": 0.5,
    "birdCirclingTactic": [
      {
        "$type": "ODHNBPJLGHF",
        "enable": true,
        "condition": {
          "pose": [
            102
          ]
        },
        "JMCOBEPDIGM": {
          "NBENNEKDIIA": 1.0,
          "cd": 0.0,
          "triggerDistance": 100.0,
          "KAIGBDPLNMO": 30.0,
          "BMIEPFCPFGN": 50.0,
          "MNPDDAKDHGK": ""
        }
      },
      {
        "$type": "KACCHOLJDNK",
        "enable": true,
        "condition": {
          "pose": [
            101
          ]
        },
        "JMCOBEPDIGM": {
          "KHDFDAAAPEI": 25.0,
          "HKJODDGJPHA": 50.0,
          "GGEBMFHFBPO": 12.0,
          "KFFGCIMPNMJ": 10.0,
          "MNPDDAKDHGK": ""
        }
      },
      {
        "$type": "NNJKLGNPMNN",
        "enable": true,
        "JMCOBEPDIGM": {
          "NBENNEKDIIA": 0.800000011920929,
          "MNPDDAKDHGK": "",
          "GJDMDHIBCME": ""
        }
      },
      {
        "$type": "FPELBIJFGCE",
        "enable": true,
        "condition": {
          "pose": [
            1
          ]
        },
        "JMCOBEPDIGM": {
          "NBENNEKDIIA": 0.20000000298023224,
          "KPNDPKIOPJM": 12.0,
          "PINAFKEDDLL": 8.0,
          "ANMPOPEBDIA": 30.0,
          "GMJFIMFFOEL": 8.0,
          "CHCPFDMADEI": 12.0,
          "MNPDDAKDHGK": ""
        }
      }
    ]
  },
  "inputKeys": [
    {
      "keyID": 601,
      "inputKeyCode": 257,
      "abilityName": ""
    },
    {
      "keyID": 611,
      "inputKeyCode": 258,
      "abilityName": ""
    },
    {
      "keyID": 621,
      "inputKeyCode": 259,
      "abilityName": ""
    }
  ],
  "move": {
    "$type": "IPNMJMHDMPF",
    "velocityForce": {
      "excludeForces": [
        "RetreatAirType",
        "WindZoneType",
        "AirflowType"
      ]
    },
    "PKHOMJHFAEE": "RootNode"
  },
  "audio": {
    "overrideEmitterName": "",
    "animAudio": {
      "onTransitionIn": [
        {
          "currentStateName": "",
          "audioEvent": {
            "text": ""
          }
        }
      ],
      "onTransitionOut": [
        {
          "currentStateName": "Personality1",
          "audioEvent": {
            "text": "Stop_sfx_monster_Megamoth_personality1_S"
          }
        },
        {
          "currentStateName": "Personality2",
          "audioEvent": {
            "text": "Stop_sfx_monster_Megamoth_personality2_S"
          }
        },
        {
          "currentStateName": "Personality3_BS",
          "audioEvent": {
            "text": "Stop_sfx_monster_Megamoth_personality3_BS_S"
          }
        },
        {
          "currentStateName": "Personality4_BS",
          "audioEvent": {
            "text": "Stop_sfx_monster_Megamoth_personality4_BS_S"
          }
        },
        {
          "currentStateName": "Personality4_Play",
          "audioEvent": {
            "text": "Stop_sfx_monster_Megamoth_personality4_Play_S"
          }
        },
        {
          "currentStateName": "Personality5",
          "audioEvent": {
            "text": "Stop_sfx_monster_Megamoth_personality4_Play_S"
          }
        }
      ]
    }
  },
  "clothoid": {
    "curMax": 1.0,
    "curMin": 0.5,
    "speedMax": 4.5,
    "speedMin": 2.0,
    "curveLength": 6.0
  }
}