{
  "common": {
    "effectAttachShape": {
      "$type": "FJNPJANPGGC",
      "mesh": "EffectMesh"
    },
    "mass": 1000000.0,
    "height": 4.199999809265137,
    "viewSize": 2.5,
    "affectedByWorld": true,
    "checkInSurface": true,
    "scale": 2.0,
    "useGrassDisplacement": true
  },
  "specialPoint": {
    "elementAbsorb": "RootNode",
    "elementPendant": "",
    "elementDrop": "FanNode",
    "bulletAim": "FanNode",
    "selectedPoints": [
      "FanNode"
    ],
    "selectedPointRadius": 1.0
  },
  "model": {
    "bornEffect": "",
    "attachEffect": "",
    "canBakeMesh": false,
    "BKPFGNPLDNJ": ""
  },
  "dither": {
    "showDitherDuration": 2.0,
    "normalBetweenCamera": {
      "detectDitherRange": 5.0
    }
  },
  "combat": {
    "property": {
      "endureType": "Monster_Boss_Other",
      "weight": 300.0
    },
    "beHit": {
      "hitBloodEffect": "",
      "hitAutoRedirect": false
    },
    "combatLock": {
      "lockShape": "CircleLockEnemy",
      "lockType": "Avatar&Monster_Lv4"
    },
    "die": {
      "hasAnimatorDie": true,
      "dieEndTime": 2.0,
      "dieForceDisappearTime": 4.0,
      "dieDisappearEffect": "Eff_Death_Common",
      "dieShaderData": "MonsterDie",
      "useRagDoll": true,
      "muteHitBox": true,
      "dieDenyLockOn": true,
      "dieIsGhostToEnemy": true,
      "dieIgnoreTriggerBullet": true,
      "muteBillboard": true,
      "mutePushCollider": true
    },
    "animEvents": {
      "NormalAtk_1": {
        "attackPattern": {
          "$type": "GMDIMKKHACA",
          "triggerType": "TriggerNoRepeat",
          "born": {
            "$type": "IAENDIPDFKD",
            "direction": {
              "$type": "AHGNBAPONLA"
            }
          },
          "height": 6.0,
          "fanAngle": 180.0,
          "OAHPDLJIADP": 6.0
        },
        "attackInfo": {
          "attackTag": "",
          "attenuationTag": "",
          "attenuationGroup": "default",
          "attackProperty": {
            "actorGrassSubHurtDelta": 0.15000000596046448,
            "actorWindSubHurtDelta": 0.0,
            "IPFJJJGABPL": 100.0,
            "strikeType": "Slash",
            "enBreak": 200.0,
            "GLKMCMDJBIK": 0.0
          },
          "hitPattern": {
            "onHitEffectName": "default",
            "hitImpulseY": "",
            "hitImpulseType": "LV5"
          }
        }
      },
      "NormalAtk_2": {
        "attackPattern": {
          "$type": "GMDIMKKHACA",
          "triggerType": "TriggerNoRepeat",
          "born": {
            "$type": "IAENDIPDFKD",
            "offset": {
              "KGEPIMHBMOL": 0.699999988079071,
              "JEBHCGDPFEJ": 0.0,
              "LPCHALMFFOD": 0.0
            },
            "direction": {
              "$type": "AHGNBAPONLA",
              "angleOffset": {
                "KGEPIMHBMOL": 0.0,
                "JEBHCGDPFEJ": -15.0,
                "LPCHALMFFOD": 0.0
              }
            }
          },
          "height": 6.0,
          "fanAngle": 150.0,
          "OAHPDLJIADP": 6.0
        },
        "attackInfo": {
          "attackTag": "",
          "attenuationTag": "",
          "attenuationGroup": "default",
          "attackProperty": {
            "actorGrassSubHurtDelta": 0.25,
            "actorWindSubHurtDelta": 0.0,
            "IPFJJJGABPL": 100.0,
            "strikeType": "Slash",
            "enBreak": 200.0,
            "GLKMCMDJBIK": 0.0
          },
          "hitPattern": {
            "onHitEffectName": "default",
            "hitImpulseY": "",
            "hitImpulseType": "LV5"
          }
        }
      },
      "ComboAtk_1": {
        "attackPattern": {
          "$type": "GMDIMKKHACA",
          "triggerType": "TriggerNoRepeat",
          "born": {
            "$type": "IAENDIPDFKD",
            "offset": {
              "KGEPIMHBMOL": 0.800000011920929,
              "JEBHCGDPFEJ": 0.0,
              "LPCHALMFFOD": 0.75
            },
            "direction": {
              "$type": "AHGNBAPONLA"
            }
          },
          "height": 6.0,
          "fanAngle": 180.0,
          "OAHPDLJIADP": 6.75
        },
        "attackInfo": {
          "attackTag": "",
          "attenuationTag": "",
          "attenuationGroup": "default",
          "attackProperty": {
            "actorGrassSubHurtDelta": 0.15000000596046448,
            "actorWindSubHurtDelta": 0.0,
            "IPFJJJGABPL": 100.0,
            "strikeType": "Slash",
            "enBreak": 200.0,
            "GLKMCMDJBIK": 0.0
          },
          "hitPattern": {
            "onHitEffectName": "default",
            "hitImpulseY": "",
            "hitImpulseType": "LV5"
          }
        }
      },
      "ComboAtk_2": {
        "attackPattern": {
          "$type": "GMDIMKKHACA",
          "triggerType": "TriggerNoRepeat",
          "born": {
            "$type": "IAENDIPDFKD",
            "offset": {
              "KGEPIMHBMOL": -0.800000011920929,
              "JEBHCGDPFEJ": 0.0,
              "LPCHALMFFOD": 1.5
            },
            "direction": {
              "$type": "AHGNBAPONLA"
            }
          },
          "height": 6.0,
          "fanAngle": 180.0,
          "OAHPDLJIADP": 6.75
        },
        "attackInfo": {
          "attackTag": "",
          "attenuationTag": "",
          "attenuationGroup": "default",
          "attackProperty": {
            "actorGrassSubHurtDelta": 0.15000000596046448,
            "actorWindSubHurtDelta": 0.0,
            "IPFJJJGABPL": 100.0,
            "strikeType": "Slash",
            "enBreak": 200.0,
            "GLKMCMDJBIK": 0.0
          },
          "hitPattern": {
            "onHitEffectName": "default",
            "hitImpulseY": "",
            "hitImpulseType": "LV5"
          }
        }
      },
      "ComboAtk_3": {
        "attackPattern": {
          "$type": "GMDIMKKHACA",
          "triggerType": "TriggerNoRepeat",
          "born": {
            "$type": "IAENDIPDFKD",
            "direction": {
              "$type": "AHGNBAPONLA"
            }
          },
          "height": 6.0,
          "OAHPDLJIADP": 8.0
        },
        "attackInfo": {
          "attackTag": "",
          "attenuationTag": "",
          "attenuationGroup": "default",
          "attackProperty": {
            "actorGrassSubHurtDelta": 0.10000000149011612,
            "actorWindSubHurtDelta": 0.0,
            "IPFJJJGABPL": 100.0,
            "strikeType": "Slash",
            "enBreak": 200.0,
            "GLKMCMDJBIK": 0.0
          },
          "hitPattern": {
            "onHitEffectName": "default",
            "hitImpulseY": "",
            "hitImpulseType": "LV5"
          }
        }
      },
      "ComboAtk_4": {
        "attackPattern": {
          "$type": "GMDIMKKHACA",
          "triggerType": "TriggerNoRepeat",
          "born": {
            "$type": "IAENDIPDFKD",
            "offset": {
              "KGEPIMHBMOL": 0.5,
              "JEBHCGDPFEJ": 0.0,
              "LPCHALMFFOD": 0.25
            },
            "direction": {
              "$type": "AHGNBAPONLA"
            }
          },
          "height": 6.0,
          "OAHPDLJIADP": 7.25
        },
        "attackInfo": {
          "attackTag": "",
          "attenuationTag": "",
          "attenuationGroup": "default",
          "attackProperty": {
            "actorGrassSubHurtDelta": 0.20000000298023224,
            "actorWindSubHurtDelta": 0.0,
            "IPFJJJGABPL": 100.0,
            "strikeType": "Slash",
            "enBreak": 200.0,
            "GLKMCMDJBIK": 0.0
          },
          "hitPattern": {
            "onHitEffectName": "default",
            "hitImpulseY": "",
            "hitImpulseType": "LV5"
          }
        }
      },
      "ComboAtkExtra_1": {
        "attackPattern": {
          "$type": "GMDIMKKHACA",
          "triggerType": "TriggerNoRepeat",
          "born": {
            "$type": "IAENDIPDFKD"
          },
          "height": 4.0,
          "OAHPDLJIADP": 8.0
        },
        "attackInfo": {
          "attackTag": "",
          "attenuationTag": "",
          "attenuationGroup": "default",
          "attackProperty": {
            "actorGrassSubHurtDelta": 0.15000000596046448,
            "actorWindSubHurtDelta": 0.0,
            "IPFJJJGABPL": 100.0,
            "strikeType": "Slash",
            "enBreak": 200.0,
            "GLKMCMDJBIK": 0.0
          },
          "hitPattern": {
            "onHitEffectName": "default",
            "hitImpulseY": "",
            "hitImpulseType": "LV4"
          }
        }
      },
      "ComboAtkExtra_2": {
        "attackPattern": {
          "$type": "JHKEHNJBMOF",
          "triggerType": "TriggerNoRepeat",
          "born": {
            "$type": "IAENDIPDFKD",
            "offset": {
              "KGEPIMHBMOL": 0.0,
              "JEBHCGDPFEJ": 5.0,
              "LPCHALMFFOD": -7.5
            }
          },
          "size": {
            "KGEPIMHBMOL": 1.75,
            "JEBHCGDPFEJ": 15.0,
            "LPCHALMFFOD": 15.0
          }
        },
        "attackInfo": {
          "attackTag": "",
          "attenuationTag": "",
          "attenuationGroup": "default",
          "attackProperty": {
            "actorGrassSubHurtDelta": 0.15000000596046448,
            "actorWindSubHurtDelta": 0.0,
            "IPFJJJGABPL": 100.0,
            "strikeType": "Slash",
            "enBreak": 200.0,
            "GLKMCMDJBIK": 0.0
          },
          "hitPattern": {
            "onHitEffectName": "default",
            "hitImpulseY": "",
            "hitImpulseType": "LV4"
          }
        }
      }
    }
  },
  "abilities": [
    {
      "abilityID": "ResistStruggle",
      "abilityName": "AbilityResistStruggle",
      "abilityOverride": ""
    },
    {
      "abilityID": "Monster_Formathr_None_PowerOff",
      "abilityName": "Monster_Formathr_None_PowerOff",
      "abilityOverride": ""
    },
    {
      "abilityID": "Monster_Formathr_None_WakeUp",
      "abilityName": "Monster_Formathr_None_WakeUp",
      "abilityOverride": ""
    },
    {
      "abilityID": "Monster_Formathr_None_SwitchToAir",
      "abilityName": "Monster_Formathr_None_SwitchToAir",
      "abilityOverride": ""
    },
    {
      "abilityID": "Monster_Formathr_None_WindZone",
      "abilityName": "Monster_Formathr_None_WindZone",
      "abilityOverride": ""
    },
    {
      "abilityID": "Monster_Formathr_None_SwitchToLand",
      "abilityName": "Monster_Formathr_None_SwitchToLand",
      "abilityOverride": ""
    },
    {
      "abilityID": "Monster_Formathr_None_EnableWeakness",
      "abilityName": "Monster_Formathr_None_EnableWeakness",
      "abilityOverride": ""
    },
    {
      "abilityID": "Monster_Formathr_None_DisableWeakness",
      "abilityName": "Monster_Formathr_None_DisableWeakness",
      "abilityOverride": ""
    },
    {
      "abilityID": "Monster_Formathr_None_WeakState",
      "abilityName": "Monster_Formathr_None_WeakState",
      "abilityOverride": ""
    },
    {
      "abilityID": "Monster_Formathr_None_WeakEnd",
      "abilityName": "Monster_Formathr_None_WeakEnd",
      "abilityOverride": ""
    },
    {
      "abilityID": "Monster_Formathr_None_StateAttachEffect",
      "abilityName": "Monster_Formathr_None_StateAttachEffect",
      "abilityOverride": ""
    },
    {
      "abilityID": "Monster_Formathr_None_CreateFollowBullet",
      "abilityName": "Monster_Formathr_None_CreateFollowBullet",
      "abilityOverride": ""
    },
    {
      "abilityID": "Monster_Formathr_None_RemoveFollowBullet",
      "abilityName": "Monster_Formathr_None_RemoveFollowBullet",
      "abilityOverride": ""
    },
    {
      "abilityID": "Monster_Formathr_None_ComboAtk",
      "abilityName": "Monster_Formathr_None_ComboAtk",
      "abilityOverride": ""
    },
    {
      "abilityID": "Monster_Formathr_None_RightDownCannon_Effect",
      "abilityName": "Monster_Formathr_None_RightDownCannon_Effect",
      "abilityOverride": ""
    },
    {
      "abilityID": "Monster_Formathr_None_RightUpCannon_Effect",
      "abilityName": "Monster_Formathr_None_RightUpCannon_Effect",
      "abilityOverride": ""
    },
    {
      "abilityID": "Monster_Formathr_None_LeftDownCannon_Effect",
      "abilityName": "Monster_Formathr_None_LeftDownCannon_Effect",
      "abilityOverride": ""
    },
    {
      "abilityID": "Monster_Formathr_None_LeftUpCannon_Effect",
      "abilityName": "Monster_Formathr_None_LeftUpCannon_Effect",
      "abilityOverride": ""
    },
    {
      "abilityID": "Monster_Formathr_None_RightDownCannon",
      "abilityName": "Monster_Formathr_None_RightDownCannon",
      "abilityOverride": ""
    },
    {
      "abilityID": "Monster_Formathr_None_RightUpCannon",
      "abilityName": "Monster_Formathr_None_RightUpCannon",
      "abilityOverride": ""
    },
    {
      "abilityID": "Monster_Formathr_None_LeftDownCannon",
      "abilityName": "Monster_Formathr_None_LeftDownCannon",
      "abilityOverride": ""
    },
    {
      "abilityID": "Monster_Formathr_None_LeftUpCannon",
      "abilityName": "Monster_Formathr_None_LeftUpCannon",
      "abilityOverride": ""
    },
    {
      "abilityID": "Monster_Formathr_None_LaserTrigger",
      "abilityName": "Monster_Formathr_None_LaserTrigger",
      "abilityOverride": ""
    },
    {
      "abilityID": "Monster_Formathr_None_RangeAtk2_FindGroundPoint",
      "abilityName": "Monster_Formathr_None_RangeAtk2_FindGroundPoint",
      "abilityOverride": ""
    },
    {
      "abilityID": "Monster_Formathr_None_DiveAtk",
      "abilityName": "Monster_Formathr_None_DiveAtk",
      "abilityOverride": ""
    },
    {
      "abilityID": "Monster_Formathr_None_AnimationSteer",
      "abilityName": "Monster_Formathr_None_AnimationSteer",
      "abilityOverride": ""
    },
    {
      "abilityID": "Monster_Formathr_None_DieEffect",
      "abilityName": "Monster_Formathr_None_DieEffect",
      "abilityOverride": ""
    },
    {
      "abilityID": "Monster_Formathr_None_Die",
      "abilityName": "Monster_Formathr_None_Die",
      "abilityOverride": ""
    }
  ],
  "stateLayers": {
    "defaultLayer": {
      "$type": "GBGJJIIEMBD",
      "layerIndexName": "",
      "CPAANEIJCGD": "",
      "stateIDs": {
        "Born": {
          "$type": "NEDIFAKEGCO",
          "animatorStates": {
            "Born": []
          },
          "canSyncMove": true,
          "resetAnimatorTriggerOnExit": [
            "DoSkill"
          ]
        },
        "NormalIdle": {
          "$type": "NEDIFAKEGCO",
          "animatorStates": {
            "Idle": []
          },
          "canDoSkill": true,
          "canSyncMove": true,
          "resetAnimatorTriggerOnExit": [
            "DoSkill"
          ]
        },
        "NormalIdleAir": {
          "$type": "NEDIFAKEGCO",
          "animatorStates": {
            "IdleAir": [],
            "IdleAir_Machinery": []
          },
          "canDoSkill": true,
          "canSyncMove": true,
          "resetAnimatorTriggerOnExit": [
            "DoSkill"
          ]
        },
        "DisabilityIdle": {
          "$type": "NEDIFAKEGCO",
          "animatorStates": {
            "WeakState": [],
            "PowerOff": []
          },
          "canDoSkill": true,
          "canSyncMove": true,
          "resetAnimatorTriggerOnExit": [
            "DoSkill"
          ]
        },
        "Turn": {
          "$type": "NEDIFAKEGCO",
          "animatorStates": {
            "TurnLeft": [],
            "TurnRight": []
          },
          "canDoSkill": true,
          "canSyncMove": true,
          "resetAnimatorTriggerOnExit": [
            "BeHit"
          ],
          "canSteer": true,
          "followAnimRotation": true
        },
        "NormalMove": {
          "$type": "NEDIFAKEGCO",
          "animatorStates": {
            "RushMove_BS": [],
            "RushMove_Loop": [],
            "RushMove_AS": []
          },
          "canDoSkill": true,
          "canSyncMove": true,
          "resetAnimatorTriggerOnExit": [
            "DoSkill"
          ],
          "canSteer": true
        },
        "BeHit": {
          "$type": "NEDIFAKEGCO",
          "animatorStates": {
            "Hit_L": []
          },
          "resetAnimatorTriggerOnEnter": [
            "BeHit"
          ],
          "resetAnimatorTriggerOnExit": [
            "DoSkill"
          ]
        },
        "WeakStart": {
          "$type": "NEDIFAKEGCO",
          "animatorStates": {
            "WeakStart": [
              "Monster_Formathr_None_WeakStart"
            ]
          },
          "resetAnimatorTriggerOnEnter": [
            "BeHit",
            "WeakStartTrigger",
            "BreakTrigger"
          ],
          "resetAnimatorTriggerOnExit": [
            "DoSkill"
          ]
        },
        "WeakEnd": {
          "$type": "NEDIFAKEGCO",
          "animatorStates": {
            "WeakEnd": [
              "Monster_Formathr_None_WeakEnd"
            ]
          },
          "resetAnimatorTriggerOnEnter": [
            "BeHit"
          ],
          "resetAnimatorTriggerOnExit": [
            "DoSkill"
          ]
        },
        "Personality": {
          "$type": "NEDIFAKEGCO",
          "animatorStates": {
            "Personality": [
              "Monster_Formathr_None_Personality"
            ]
          },
          "resetAnimatorTriggerOnEnter": [
            "BeHit"
          ],
          "resetAnimatorTriggerOnExit": [
            "DoSkill"
          ]
        },
        "CombatReady": {
          "$type": "NEDIFAKEGCO",
          "animatorStates": {
            "WakeUp_AS": [
              "Monster_Formathr_None_Personality"
            ],
            "WeakEnd_AS": [
              "Monster_Formathr_None_Personality"
            ],
            "Land_AS": [
              "Monster_Formathr_None_Personality"
            ]
          },
          "resetAnimatorTriggerOnEnter": [
            "BeHit"
          ],
          "resetAnimatorTriggerOnExit": [
            "DoSkill"
          ]
        },
        "Die": {
          "$type": "NEDIFAKEGCO",
          "animatorStates": {
            "DieWeak_BS": [
              "Monster_Formathr_None_Die"
            ],
            "Die_BS": [
              "Monster_Formathr_None_Die"
            ],
            "DieAir_BS": [
              "Monster_Formathr_None_Die"
            ],
            "DieSwim": [
              "Monster_Formathr_None_Die"
            ]
          }
        },
        "Die_RagDoll": {
          "$type": "NEDIFAKEGCO",
          "animatorStates": {
            "DieWeak": [],
            "Die": [],
            "DieAir": []
          },
          "enableRagDoll": true
        },
        "WakeUp": {
          "$type": "NEDIFAKEGCO",
          "animatorStates": {
            "WakeUp": [
              "Audio_Formathr_WakeUp"
            ]
          },
          "cullingModelAlwaysAnimate": true,
          "addEndure": 0.0,
          "massRatio": 20.0,
          "resetAnimatorTriggerOnEnter": [
            "BeHit"
          ],
          "resetAnimatorTriggerOnExit": [
            "DoSkill",
            "LevelEnterBattle"
          ]
        },
        "ChangeState": {
          "$type": "NEDIFAKEGCO",
          "animatorStates": {
            "TakeOff": [
              "Monster_Formathr_None_TakeOff",
              "Audio_Formathr_TakeOff"
            ],
            "Land": [
              "Monster_Formathr_None_Land",
              "Audio_Formathr_Land"
            ]
          },
          "cullingModelAlwaysAnimate": true,
          "addEndure": 0.0,
          "massRatio": 20.0,
          "resetAnimatorTriggerOnEnter": [
            "BeHit"
          ],
          "resetAnimatorTriggerOnExit": [
            "DoSkill"
          ]
        },
        "NormalAtk": {
          "$type": "NEDIFAKEGCO",
          "animatorStates": {
            "NormalAtk": [
              "Monster_Formathr_None_NormalAtk",
              "Audio_Formathr_NormalAtk"
            ]
          },
          "resetAnimatorTriggerOnExit": [
            "BeHit",
            "DoSkill"
          ]
        },
        "ComboAtk": {
          "$type": "NEDIFAKEGCO",
          "animatorStates": {
            "ComboAtk": [
              "Monster_Formathr_None_ComboAtk",
              "Audio_Formathr_ComboAtk"
            ],
            "ComboAtkAS": []
          },
          "resetAnimatorTriggerOnEnter": [
            "BeHit"
          ],
          "resetAnimatorTriggerOnExit": [
            "BeHit",
            "DoSkill"
          ]
        },
        "ComboAtkExtra1": {
          "$type": "NEDIFAKEGCO",
          "animatorStates": {
            "ComboAtkExtra1": [
              "Monster_Formathr_None_ComboAtkExtra1",
              "Audio_Formathr_ComboAtk_Extra"
            ]
          },
          "resetAnimatorTriggerOnEnter": [
            "BeHit"
          ],
          "resetAnimatorTriggerOnExit": [
            "BeHit",
            "DoSkill"
          ]
        },
        "ComboAtkExtra2": {
          "$type": "NEDIFAKEGCO",
          "animatorStates": {
            "ComboAtkExtra2": [
              "Monster_Formathr_None_ComboAtkExtra2",
              "Audio_Formathr_ComboAtk_Extra"
            ]
          },
          "resetAnimatorTriggerOnEnter": [
            "BeHit"
          ],
          "resetAnimatorTriggerOnExit": [
            "BeHit",
            "DoSkill"
          ]
        },
        "HangAtkBS": {
          "$type": "NEDIFAKEGCO",
          "animatorStates": {
            "HangAtkBS": [
              "Monster_Formathr_None_HangAtkBS",
              "Audio_Formathr_HangAtkCharging"
            ],
            "HangAtkCharging": []
          },
          "resetAnimatorTriggerOnExit": [
            "BeHit",
            "DoSkill"
          ]
        },
        "HangAtk": {
          "$type": "NEDIFAKEGCO",
          "animatorStates": {
            "HangAtk": [
              "Monster_Formathr_None_HangAtk"
            ]
          },
          "resetAnimatorTriggerOnExit": [
            "BeHit",
            "DoSkill"
          ]
        },
        "RangeNormalAtk": {
          "$type": "NEDIFAKEGCO",
          "animatorStates": {
            "RangeNormalAtk": [
              "Monster_Formathr_None_RangeNormalAtk",
              "Audio_Formathr_RangeNormalAtk"
            ]
          },
          "resetAnimatorTriggerOnExit": [
            "BeHit",
            "DoSkill"
          ]
        },
        "RangeAtk1": {
          "$type": "NEDIFAKEGCO",
          "animatorStates": {
            "RangeAtk1": [
              "Monster_Formathr_None_RangeAtk1",
              "Audio_Formathr_RangeAtk1"
            ]
          },
          "resetAnimatorTriggerOnExit": [
            "BeHit",
            "DoSkill"
          ]
        },
        "RangeAtk2": {
          "$type": "NEDIFAKEGCO",
          "animatorStates": {
            "RangeAtk2": [
              "Monster_Formathr_None_RangeAtk2",
              "Audio_Formathr_RangeAtk2"
            ]
          },
          "resetAnimatorTriggerOnExit": [
            "BeHit",
            "DoSkill"
          ]
        },
        "DiveAtk": {
          "$type": "NEDIFAKEGCO",
          "animatorStates": {
            "DiveAtk": [
              "Monster_Formathr_None_DiveAtk",
              "Audio_Formathr_DiveAtk"
            ]
          },
          "resetAnimatorTriggerOnExit": [
            "BeHit",
            "DoSkill"
          ]
        },
        "Machinery": {
          "$type": "NEDIFAKEGCO",
          "animatorStates": {
            "Alert_Machinery": []
          },
          "cullingModelAlwaysAnimate": true,
          "resetAnimatorTriggerOnEnter": [
            "BeHit"
          ],
          "resetAnimatorTriggerOnExit": [
            "DoSkill"
          ]
        }
      }
    }
  },
  "billboard": {
    "$type": "DNGNMAJBCNP",
    "attachPoint": "BillboardAttach",
    "offset": {
      "y": 1.5
    },
    "radiusOffset": 1.7999999523162842,
    "enableSelfAdapt": true,
    "showDistance": 48.0,
    "showHPBar": true,
    "size": "Grand"
  },
  "initialPoses": {
    "Default": {
      "initialPoseID": 100,
      "initialPoseParams": {
        "boolParams": {
          "PowerOff": "false"
        }
      }
    },
    "PowerOff": {
      "initialPoseID": 101,
      "initialPoseParams": {
        "boolParams": {
          "PowerOff": "true"
        }
      }
    },
    "Machinery": {
      "initialPoseID": 111,
      "initialPoseParams": {
        "boolParams": {
          "Machinery": "true"
        }
      }
    }
  },
  "aibeta": {
    "enable": true,
    "moveSetting": {
      "navMeshAgentName": "Undead01",
      "almostReachedDistanceWalk": 2.0
    },
    "sensing": {
      "settings": {
        "DefaultSetting": {
          "feelRange": 15.0
        },
        "PowerOff_Active": {
          "enableVision": false,
          "feelRange": 8.0
        },
        "PowerOff_Passive": {
          "enableVision": false,
          "hearAttractionRange": 0.0,
          "feelRange": 0.0
        },
        "NeverCombat": {
          "enableVision": false,
          "hearAttractionRange": 0.0,
          "feelRange": 0.0
        },
        "Machinery": {
          "enableVision": false,
          "hearAttractionRange": 0.0,
          "feelRange": 0.0
        }
      },
      "templates": {
        "DefaultTemplate": {
          "DefaultPoses": "DefaultSetting",
          "101": "PowerOff_Active"
        },
        "PowerOff_Passive": {
          "DefaultPoses": "DefaultSetting",
          "101": "PowerOff_Passive"
        },
        "NeverCombatTemplate": {
          "DefaultPoses": "NeverCombat",
          "101": "NeverCombat"
        },
        "Machinery": {
          "DefaultPoses": "DefaultSetting",
          "111": "Machinery"
        }
      }
    },
    "neurons": {
      "DefaultSetting": [
        "HIT"
      ],
      "PowerOff_Passive": [],
      "NeverCombat": [],
      "Machinery": []
    },
    "threat": {
      "GHIJMOKOLMB": "",
      "clearThreatEdgeDistance": 25.0,
      "clearThreatTimerByDistance": 3.0,
      "viewAttenuation": [
        {
          "x": 10.0,
          "y": 2.0
        },
        {
          "x": 20.0,
          "y": 1.0
        },
        {
          "x": 30.0,
          "y": 0.5
        },
        {
          "x": 50.0,
          "y": 0.10000000149011612
        }
      ],
      "resistTauntLevel": "Monster_TauntLevel_3"
    },
    "defendArea": {
      "defendRange": 75.0
    },
    "profiling": {
      "staticPoses": [
        101
      ]
    },
    "skillGroupCDConfigs": [
      {
        "skillGroupCDID": 200,
        "skillGroupCDTime": 30.0
      },
      {
        "skillGroupCDID": 210,
        "skillGroupCDTime": 3.0
      },
      {
        "skillGroupCDID": 220,
        "skillGroupCDTime": 3.0
      },
      {
        "skillGroupCDID": 230,
        "skillGroupCDTime": 3.0
      }
    ],
    "skills": {
      "101": {
        "name": "WakeUp",
        "skillType": "OnAlert",
        "castCondition": {
          "pose": [
            101
          ]
        },
        "publicCDGroup": "",
        "triggerGCD": false,
        "HHAGODJIAPE": "",
        "stateIDs": [
          "WakeUp",
          "CombatReady"
        ],
        "skillQueryingTime": 3.0,
        "flagTargetReachable": "10",
        "flagSelfOnTemplateCollider": "01",
        "flagSelfInZone": "10",
        "flagTargetInZone": "11"
      },
      "102": {
        "name": "WakeUp_OnHit",
        "skillType": "OnNerve",
        "castCondition": {
          "pose": [
            101
          ]
        },
        "publicCDGroup": "",
        "triggerGCD": false,
        "HHAGODJIAPE": "",
        "stateIDs": [
          "WakeUp",
          "CombatReady"
        ],
        "skillQueryingTime": 3.0,
        "flagTargetReachable": "10",
        "flagSelfOnTemplateCollider": "01",
        "flagSelfInZone": "10",
        "flagTargetInZone": "11",
        "nerveTrigger": [
          "HIT"
        ]
      },
      "111": {
        "name": "WeakEnd",
        "priority": 1,
        "castCondition": {
          "pose": [
            203
          ]
        },
        "cd": 15.0,
        "initialCD": 15.0,
        "publicCDGroup": "",
        "ignoreGCD": true,
        "HHAGODJIAPE": "",
        "stateIDs": [
          "WeakEnd",
          "CombatReady"
        ],
        "flagTargetReachable": "11",
        "flagSelfOnTemplateCollider": "11",
        "flagSelfInZone": "11",
        "flagTargetInZone": "11"
      },
      "121": {
        "name": "Personality",
        "skillType": "Free",
        "castCondition": {
          "pose": [
            100
          ]
        },
        "cd": 20.0,
        "cdUpperRange": 20.0,
        "initialCD": 12.0,
        "publicCDGroup": "",
        "HHAGODJIAPE": "",
        "stateIDs": [
          "Personality"
        ],
        "skillQueryingTime": 3.0,
        "flagTargetReachable": "10",
        "flagSelfOnTemplateCollider": "01",
        "flagSelfInZone": "10",
        "flagTargetInZone": "11"
      },
      "131": {
        "name": "OnAlert",
        "skillType": "OnAlert",
        "castCondition": {
          "pose": [
            111
          ]
        },
        "publicCDGroup": "",
        "triggerGCD": false,
        "HHAGODJIAPE": "",
        "stateIDs": [
          "Machinery"
        ],
        "skillQueryingTime": 3.0,
        "flagTargetReachable": "10",
        "flagSelfOnTemplateCollider": "01",
        "flagSelfInZone": "10",
        "flagTargetInZone": "11"
      },
      "201": {
        "name": "TakeOff",
        "priority": 3,
        "castCondition": {
          "pose": [
            201
          ],
          "pickRangeMax": 30.0
        },
        "cd": 30.0,
        "initialCD": 120.0,
        "publicCDGroup": "",
        "ignoreGCD": true,
        "triggerGCD": false,
        "skillGroupCDID": 200,
        "HHAGODJIAPE": "",
        "stateIDs": [
          "ChangeState"
        ],
        "flagTargetReachable": "10",
        "flagSelfOnTemplateCollider": "11",
        "flagSelfInZone": "10",
        "flagTargetInZone": "11"
      },
      "202": {
        "name": "TakeOff",
        "priority": 2,
        "castCondition": {
          "pose": [
            201
          ],
          "pickRangeMin": 30.0,
          "pickRangeMax": 50.0
        },
        "cd": 30.0,
        "publicCDGroup": "",
        "ignoreGCD": true,
        "triggerGCD": false,
        "skillGroupCDID": 200,
        "HHAGODJIAPE": "",
        "stateIDs": [
          "ChangeState"
        ],
        "flagTargetReachable": "10",
        "flagSelfOnTemplateCollider": "11",
        "flagSelfInZone": "10",
        "flagTargetInZone": "11"
      },
      "203": {
        "name": "TakeOff",
        "priority": 1,
        "castCondition": {
          "pose": [
            201
          ],
          "pickRangeMax": 50.0
        },
        "cd": 5.0,
        "initialCD": 1.0,
        "publicCDGroup": "",
        "ignoreGCD": true,
        "triggerGCD": false,
        "HHAGODJIAPE": "",
        "stateIDs": [
          "ChangeState"
        ],
        "flagTargetReachable": "01",
        "flagSelfOnTemplateCollider": "01",
        "flagSelfInZone": "10",
        "flagTargetInZone": "11"
      },
      "204": {
        "name": "TakeOff",
        "priority": 1,
        "castCondition": {
          "pose": [
            201
          ],
          "pickRangeMax": 50.0
        },
        "cd": 5.0,
        "publicCDGroup": "",
        "ignoreGCD": true,
        "triggerGCD": false,
        "HHAGODJIAPE": "",
        "stateIDs": [
          "ChangeState"
        ],
        "flagTargetReachable": "11",
        "flagSelfOnTemplateCollider": "11",
        "flagSelfInZone": "01",
        "flagTargetInZone": "11"
      },
      "211": {
        "name": "NormalAtk",
        "castCondition": {
          "pose": [
            201
          ],
          "pickRangeMax": 4.0
        },
        "cd": 3.0,
        "publicCDGroup": "",
        "skillGroupCDID": 210,
        "HHAGODJIAPE": "",
        "stateIDs": [
          "NormalAtk"
        ],
        "flagTargetReachable": "10",
        "flagSelfOnTemplateCollider": "01",
        "flagSelfInZone": "10",
        "flagTargetInZone": "11"
      },
      "212": {
        "name": "NormalAtk",
        "castCondition": {
          "pose": [
            201
          ],
          "pickRangeMin": 4.0,
          "pickRangeMax": 7.5
        },
        "cd": 5.0,
        "publicCDGroup": "",
        "skillGroupCDID": 210,
        "HHAGODJIAPE": "",
        "stateIDs": [
          "NormalAtk"
        ],
        "flagTargetReachable": "10",
        "flagSelfOnTemplateCollider": "01",
        "flagSelfInZone": "10",
        "flagTargetInZone": "11"
      },
      "221": {
        "name": "ComboAtk",
        "castCondition": {
          "pose": [
            201
          ],
          "pickRangeMax": 7.5
        },
        "cd": 15.0,
        "initialCD": 15.0,
        "publicCDGroup": "",
        "skillGroupCDID": 220,
        "HHAGODJIAPE": "",
        "stateIDs": [
          "ComboAtk",
          "ComboAtkExtra1",
          "ComboAtkExtra2"
        ],
        "flagTargetReachable": "10",
        "flagSelfOnTemplateCollider": "01",
        "flagSelfInZone": "10",
        "flagTargetInZone": "11"
      },
      "222": {
        "name": "ComboAtk",
        "castCondition": {
          "pose": [
            201
          ],
          "pickRangeMin": 7.5,
          "pickRangeMax": 12.5
        },
        "cd": 7.5,
        "initialCD": 15.0,
        "publicCDGroup": "",
        "skillGroupCDID": 220,
        "HHAGODJIAPE": "",
        "stateIDs": [
          "ComboAtk",
          "ComboAtkExtra1",
          "ComboAtkExtra2"
        ],
        "flagTargetReachable": "10",
        "flagSelfOnTemplateCollider": "01",
        "flagSelfInZone": "10",
        "flagTargetInZone": "11"
      },
      "231": {
        "name": "HangAtk",
        "castCondition": {
          "pose": [
            201
          ],
          "pickRangeMin": 7.5,
          "pickRangeMax": 12.5
        },
        "cd": 10.0,
        "initialCD": 30.0,
        "publicCDGroup": "",
        "skillGroupCDID": 230,
        "HHAGODJIAPE": "",
        "stateIDs": [
          "HangAtkBS",
          "HangAtk"
        ],
        "flagTargetReachable": "10",
        "flagSelfOnTemplateCollider": "01",
        "flagSelfInZone": "10",
        "flagTargetInZone": "11"
      },
      "232": {
        "name": "HangAtk",
        "castCondition": {
          "pose": [
            201
          ],
          "pickRangeMin": 12.5,
          "pickRangeMax": 20.0
        },
        "cd": 5.0,
        "initialCD": 30.0,
        "publicCDGroup": "",
        "ignoreGCD": true,
        "skillGroupCDID": 230,
        "HHAGODJIAPE": "",
        "stateIDs": [
          "HangAtkBS",
          "HangAtk"
        ],
        "flagTargetReachable": "10",
        "flagSelfOnTemplateCollider": "01",
        "flagSelfInZone": "10",
        "flagTargetInZone": "11"
      },
      "301": {
        "name": "Land",
        "priority": 1,
        "castCondition": {
          "pose": [
            204
          ],
          "pickRangeMax": 99.0
        },
        "cd": 5.0,
        "publicCDGroup": "",
        "ignoreGCD": true,
        "triggerGCD": false,
        "HHAGODJIAPE": "",
        "stateIDs": [
          "ChangeState",
          "CombatReady"
        ],
        "flagTargetReachable": "11",
        "flagSelfOnTemplateCollider": "01",
        "flagSelfInZone": "11",
        "flagTargetInZone": "11"
      },
      "302": {
        "name": "Land",
        "priority": 1,
        "castCondition": {
          "pose": [
            202
          ],
          "pickRangeMax": 20.0
        },
        "cd": 5.0,
        "initialCD": 60.0,
        "publicCDGroup": "",
        "ignoreGCD": true,
        "triggerGCD": false,
        "HHAGODJIAPE": "",
        "stateIDs": [
          "ChangeState",
          "CombatReady"
        ],
        "flagTargetReachable": "10",
        "flagSelfOnTemplateCollider": "01",
        "flagSelfInZone": "11",
        "flagTargetInZone": "11"
      },
      "303": {
        "name": "Land",
        "castCondition": {
          "pose": [
            202
          ],
          "pickRangeMin": 50.0,
          "pickRangeMax": 99.0
        },
        "cd": 5.0,
        "publicCDGroup": "",
        "ignoreGCD": true,
        "triggerGCD": false,
        "HHAGODJIAPE": "",
        "stateIDs": [
          "ChangeState",
          "CombatReady"
        ],
        "flagTargetReachable": "11",
        "flagSelfOnTemplateCollider": "01",
        "flagSelfInZone": "11",
        "flagTargetInZone": "11"
      },
      "311": {
        "name": "RangeNormalAtk",
        "castCondition": {
          "pose": [
            202
          ],
          "pickRangeMin": 25.0,
          "pickRangeMax": 50.0
        },
        "publicCDGroup": "",
        "ignoreGCD": true,
        "triggerGCD": false,
        "HHAGODJIAPE": "",
        "stateIDs": [
          "RangeNormalAtk"
        ],
        "flagTargetReachable": "11",
        "flagSelfOnTemplateCollider": "11",
        "flagSelfInZone": "11",
        "flagTargetInZone": "11"
      },
      "321": {
        "name": "RangeAtk1",
        "priority": 2,
        "castCondition": {
          "pose": [
            202
          ],
          "pickRangeMin": 25.0,
          "pickRangeMax": 50.0
        },
        "cd": 5.0,
        "cdUpperRange": 10.0,
        "initialCD": 5.0,
        "publicCDGroup": "",
        "HHAGODJIAPE": "",
        "stateIDs": [
          "RangeAtk1"
        ],
        "flagTargetReachable": "11",
        "flagSelfOnTemplateCollider": "11",
        "flagSelfInZone": "11",
        "flagTargetInZone": "11"
      },
      "331": {
        "name": "RangeAtk2",
        "priority": 3,
        "castCondition": {
          "pose": [
            202
          ],
          "pickRangeMax": 25.0
        },
        "cd": 1.0,
        "cdUpperRange": 3.0,
        "publicCDGroup": "",
        "HHAGODJIAPE": "",
        "stateIDs": [
          "RangeAtk2"
        ],
        "flagTargetReachable": "11",
        "flagSelfOnTemplateCollider": "11",
        "flagSelfInZone": "11",
        "flagTargetInZone": "11"
      },
      "341": {
        "name": "DiveAtk",
        "priority": 1,
        "castCondition": {
          "pose": [
            202
          ],
          "pickRangeMax": 7.5
        },
        "cd": 5.0,
        "initialCD": 30.0,
        "publicCDGroup": "",
        "ignoreGCD": true,
        "triggerGCD": false,
        "HHAGODJIAPE": "",
        "stateIDs": [
          "DiveAtk"
        ],
        "flagTargetReachable": "11",
        "flagSelfOnTemplateCollider": "11",
        "flagSelfInZone": "11",
        "flagTargetInZone": "11"
      }
    },
    "skillGCD": 3.0,
    "birdCirclingTactic": [
      {
        "$type": "KACCHOLJDNK",
        "enable": true,
        "condition": {
          "pose": [
            201
          ]
        },
        "JMCOBEPDIGM": {
          "ANLAAGAMIKF": 1,
          "KHDFDAAAPEI": 7.5,
          "HKJODDGJPHA": 99.0,
          "GGEBMFHFBPO": 7.5,
          "FLPMDIAJDKL": false,
          "MNPDDAKDHGK": ""
        }
      },
      {
        "$type": "NNJKLGNPMNN",
        "enable": true,
        "JMCOBEPDIGM": {
          "ANLAAGAMIKF": 1,
          "MNPDDAKDHGK": "",
          "GJDMDHIBCME": ""
        },
        "PIOCBHLFLJP": {
          "203": {
            "ANLAAGAMIKF": 0,
            "JFMIFLNBKMJ": 1.0,
            "DHGJDIPNDHH": 3.0,
            "MNPDDAKDHGK": "",
            "GJDMDHIBCME": ""
          }
        }
      }
    ]
  },
  "inputKeys": [
    {
      "keyID": 201,
      "inputKeyCode": 257,
      "abilityName": ""
    },
    {
      "keyID": 229,
      "inputKeyCode": 258,
      "abilityName": ""
    },
    {
      "keyID": 211,
      "inputKeyCode": 259,
      "abilityName": ""
    },
    {
      "keyID": 221,
      "inputKeyCode": 260,
      "abilityName": ""
    },
    {
      "keyID": 231,
      "inputKeyCode": 261,
      "abilityName": ""
    },
    {
      "keyID": 311,
      "inputKeyCode": 262,
      "abilityName": ""
    },
    {
      "keyID": 321,
      "inputKeyCode": 263,
      "abilityName": ""
    },
    {
      "keyID": 331,
      "inputKeyCode": 264,
      "abilityName": ""
    },
    {
      "keyID": 341,
      "inputKeyCode": 265,
      "abilityName": ""
    }
  ],
  "audio": {
    "overrideEmitterName": "",
    "animAudio": {
      "onTransitionIn": [
        {
          "currentStateName": "WakeUp_AS",
          "audioEvent": {
            "text": "Play_sfx_monster_formathr_wakeUpAS"
          }
        },
        {
          "currentStateName": "WakeUp",
          "audioEvent": {
            "text": "Play_sfx_monster_formathr_idol_start"
          }
        },
        {
          "currentStateName": "NormalAtk",
          "audioEvent": {
            "text": "Play_sfx_monster_formathr_idol_lp"
          }
        },
        {
          "currentStateName": "WeakEnd",
          "audioEvent": {
            "text": "Play_sfx_monster_formathr_idol_end"
          }
        },
        {
          "currentStateName": "Die_BS",
          "audioEvent": {
            "text": "Play_sfx_monster_formathr_idol_end"
          }
        },
        {
          "currentStateName": "DieAir_BS",
          "audioEvent": {
            "text": "Play_sfx_monster_formathr_idol_end"
          }
        },
        {
          "currentStateName": "DieAir_BS",
          "audioEvent": {
            "text": "Play_sfx_monster_formathr_die"
          }
        },
        {
          "currentStateName": "Die_BS",
          "audioEvent": {
            "text": "Play_sfx_monster_formathr_die"
          }
        },
        {
          "currentStateName": "DieWeak_BS",
          "audioEvent": {
            "text": "Play_sfx_monster_formathr_idol_end"
          }
        },
        {
          "currentStateName": "DieSwim",
          "audioEvent": {
            "text": "Play_sfx_monster_formathr_idol_end"
          }
        }
      ],
      "onTransitionOut": [
        {
          "currentStateName": "WakeUp_AS",
          "audioEvent": {
            "text": "Stop_sfx_monster_formathr_wakeUpAS"
          },
          "otherStateNames": [
            "Idle"
          ],
          "usage": "Except"
        },
        {
          "currentStateName": "ComboAtk",
          "audioEvent": {
            "text": "Stop_sfx_monster_formathr_comboAtk"
          },
          "otherStateNames": [
            "ComboAtkAS"
          ],
          "usage": "Except"
        },
        {
          "currentStateName": "ComboAtkAS",
          "audioEvent": {
            "text": "Stop_sfx_monster_formathr_comboAtk"
          }
        },
        {
          "currentStateName": "ComboAtkExtra_1",
          "audioEvent": {
            "text": "Stop_sfx_monster_formathr_comboAtk_extra"
          }
        },
        {
          "currentStateName": "ComboAtkExtra_2",
          "audioEvent": {
            "text": "Stop_sfx_monster_formathr_comboAtk_extra"
          }
        },
        {
          "currentStateName": "DiveAtk",
          "audioEvent": {
            "text": "Stop_sfx_monster_formathr_diveAtk"
          }
        },
        {
          "currentStateName": "HangAtkBS",
          "audioEvent": {
            "text": "Stop_sfx_monster_formathr_hangAtkCharging"
          },
          "otherStateNames": [
            "HangAtkCharging",
            "HangAtk"
          ],
          "usage": "Except"
        },
        {
          "currentStateName": "HangAtkCharging",
          "audioEvent": {
            "text": "Stop_sfx_monster_formathr_hangAtkCharging"
          },
          "otherStateNames": [
            "HangAtk"
          ],
          "usage": "Except"
        },
        {
          "currentStateName": "HangAtk",
          "audioEvent": {
            "text": "Stop_sfx_monster_formathr_hangAtkCharging"
          }
        },
        {
          "currentStateName": "DiveAtk",
          "audioEvent": {
            "text": "Stop_sfx_monster_formathr_diveAtk"
          }
        },
        {
          "currentStateName": "WakeUp",
          "audioEvent": {
            "text": "Stop_sfx_monster_formathr_wakeUp"
          }
        },
        {
          "currentStateName": "TakeOff",
          "audioEvent": {
            "text": "Stop_sfx_monster_formathr_takeOff"
          },
          "otherStateNames": [
            "IdleAir"
          ],
          "usage": "Except"
        },
        {
          "currentStateName": "Land",
          "audioEvent": {
            "text": "Stop_sfx_monster_formathr_land"
          }
        },
        {
          "currentStateName": "RangeNormalAtk",
          "audioEvent": {
            "text": "Stop_sfx_monster_formathr_rangeNormalAtk"
          }
        },
        {
          "currentStateName": "RangeAtk1",
          "audioEvent": {
            "text": "Stop_sfx_monster_formathr_rangeAtk1"
          }
        },
        {
          "currentStateName": "RangeAtk2",
          "audioEvent": {
            "text": "Stop_sfx_monster_formathr_rangeAtk2"
          }
        }
      ]
    },
    "disableEvent": {
      "text": "Stop_sfx_monster_formathr_idol_lp"
    },
    "destroyEvent": {
      "text": "Stop_sfx_monster_formathr_idol_lp"
    }
  }
}