{
  "common": {
    "effectAttachShape": {
      "$type": "FJNPJANPGGC",
      "mesh": "EffectMesh"
    },
    "mass": 10000.0,
    "height": 2.0,
    "viewSize": 1.5,
    "affectedByWorld": true,
    "checkInSurface": true,
    "useGrassDisplacement": true,
    "clearAnimatorOnSetLightDeactive": true,
    "clearAIOnSetLightDeactive": true,
    "recoverByInitPose": true
  },
  "model": {
    "bornEffect": "",
    "attachEffect": "",
    "canBakeMesh": false,
    "BKPFGNPLDNJ": ""
  },
  "dither": {
    "showDitherDuration": 2.0
  },
  "combat": {
    "property": {
      "endureType": "Monster_Demiboss_Humanoid",
      "weight": 125.0
    },
    "beHit": {
      "hitBloodEffect": ""
    },
    "combatLock": {
      "lockShape": "CircleLockEnemy",
      "lockType": "Avatar&Monster_Lv4"
    },
    "die": {
      "hasAnimatorDie": true,
      "dieEndTime": 2.0,
      "dieForceDisappearTime": 4.5,
      "dieDisappearEffect": "Eff_Death_Common",
      "dieShaderData": "MonsterDie",
      "muteHitBox": true,
      "dieDenyLockOn": true,
      "dieIsGhostToEnemy": true,
      "dieIgnoreTriggerBullet": true,
      "muteBillboard": true,
      "mutePushCollider": true
    },
    "animEvents": {
      "MeleeAttack01Normal": {
        "attackPattern": {
          "$type": "JHKEHNJBMOF",
          "triggerType": "TriggerNoRepeat",
          "born": {
            "$type": "IAENDIPDFKD",
            "offset": {
              "KGEPIMHBMOL": 0.0,
              "JEBHCGDPFEJ": 1.0,
              "LPCHALMFFOD": 0.0
            }
          },
          "size": {
            "KGEPIMHBMOL": 1.7999999523162842,
            "JEBHCGDPFEJ": 1.7999999523162842,
            "LPCHALMFFOD": 2.299999952316284
          }
        },
        "attackInfo": {
          "attackTag": "",
          "attenuationTag": "",
          "attenuationGroup": "default",
          "attackProperty": {
            "actorGrassSubHurtDelta": 0.699999988079071,
            "actorWindSubHurtDelta": 0.0,
            "IPFJJJGABPL": 100.0,
            "strikeType": "Blunt",
            "enBreak": 150.0,
            "attackType": "Melee",
            "GLKMCMDJBIK": 0.0
          },
          "hitPattern": {
            "onHitEffectName": "default",
            "hitImpulseY": "",
            "hitImpulseType": "LV4"
          }
        }
      },
      "MeleeAttack01Decay": {
        "attackPattern": {
          "$type": "JHKEHNJBMOF",
          "triggerType": "TriggerNoRepeat",
          "born": {
            "$type": "IAENDIPDFKD",
            "offset": {
              "KGEPIMHBMOL": 0.0,
              "JEBHCGDPFEJ": 1.0,
              "LPCHALMFFOD": 0.0
            }
          },
          "size": {
            "KGEPIMHBMOL": 2.200000047683716,
            "JEBHCGDPFEJ": 2.200000047683716,
            "LPCHALMFFOD": 2.799999952316284
          }
        },
        "attackInfo": {
          "attackTag": "",
          "attenuationTag": "",
          "attenuationGroup": "default",
          "attackProperty": {
            "actorGrassSubHurtDelta": 0.8500000238418579,
            "actorWindSubHurtDelta": 0.0,
            "IPFJJJGABPL": 100.0,
            "strikeType": "Blunt",
            "enBreak": 150.0,
            "attackType": "Melee",
            "GLKMCMDJBIK": 0.0
          },
          "hitPattern": {
            "onHitEffectName": "default",
            "hitImpulseY": "",
            "hitImpulseType": "LV5"
          }
        }
      },
      "MeleeAttack02Normal": {
        "attackPattern": {
          "$type": "GMDIMKKHACA",
          "triggerType": "TriggerNoRepeat",
          "born": {
            "$type": "IAENDIPDFKD",
            "offset": {
              "KGEPIMHBMOL": 0.0,
              "JEBHCGDPFEJ": 0.0,
              "LPCHALMFFOD": 0.0
            }
          },
          "height": 1.7999999523162842,
          "OAHPDLJIADP": 2.5
        },
        "attackInfo": {
          "attackTag": "",
          "attenuationTag": "",
          "attenuationGroup": "default",
          "attackProperty": {
            "actorGrassSubHurtDelta": 0.8500000238418579,
            "actorWindSubHurtDelta": 0.0,
            "IPFJJJGABPL": 100.0,
            "strikeType": "Blunt",
            "enBreak": 150.0,
            "attackType": "Melee",
            "GLKMCMDJBIK": 0.0
          },
          "hitPattern": {
            "onHitEffectName": "default",
            "hitImpulseY": "",
            "hitImpulseType": "LV4"
          }
        }
      },
      "MeleeAttack02Decay": {
        "attackPattern": {
          "$type": "GMDIMKKHACA",
          "triggerType": "TriggerNoRepeat",
          "born": {
            "$type": "IAENDIPDFKD",
            "offset": {
              "KGEPIMHBMOL": 0.0,
              "JEBHCGDPFEJ": 0.0,
              "LPCHALMFFOD": 0.0
            }
          },
          "height": 2.0,
          "OAHPDLJIADP": 3.700000047683716
        },
        "attackInfo": {
          "attackTag": "",
          "attenuationTag": "",
          "attenuationGroup": "default",
          "attackProperty": {
            "actorGrassSubHurtDelta": 1.0,
            "actorWindSubHurtDelta": 0.0,
            "IPFJJJGABPL": 100.0,
            "strikeType": "Blunt",
            "enBreak": 150.0,
            "attackType": "Melee",
            "GLKMCMDJBIK": 0.0
          },
          "hitPattern": {
            "onHitEffectName": "default",
            "hitImpulseY": "",
            "hitImpulseType": "LV5"
          }
        }
      },
      "RamNormal": {
        "attackPattern": {
          "$type": "JHKEHNJBMOF",
          "triggerType": "TriggerNoRepeat",
          "born": {
            "$type": "IAENDIPDFKD",
            "offset": {
              "KGEPIMHBMOL": 0.0,
              "JEBHCGDPFEJ": 0.8999999761581421,
              "LPCHALMFFOD": 0.0
            }
          },
          "size": {
            "KGEPIMHBMOL": 1.7999999523162842,
            "JEBHCGDPFEJ": 1.7999999523162842,
            "LPCHALMFFOD": 2.0
          }
        },
        "attackInfo": {
          "attackTag": "",
          "attenuationTag": "Monster_Fungus_Amanita_Unu_Udatta_Rock_RamNormal",
          "attenuationGroup": "Effigy_Ice_Attenuation_2",
          "attackProperty": {
            "actorGrassSubHurtDelta": 0.30000001192092896,
            "actorWindSubHurtDelta": 0.0,
            "elementType": "Rock",
            "IPFJJJGABPL": 25.0,
            "strikeType": "Blunt",
            "enBreak": 80.0,
            "attackType": "Melee",
            "GLKMCMDJBIK": 0.0
          },
          "hitPattern": {
            "onHitEffectName": "default",
            "hitImpulseY": "",
            "hitImpulseType": "LV3"
          }
        }
      },
      "RamEndNormal": {
        "attackPattern": {
          "$type": "GMDIMKKHACA",
          "triggerType": "TriggerNoRepeat",
          "born": {
            "$type": "IAENDIPDFKD",
            "offset": {
              "KGEPIMHBMOL": 0.0,
              "JEBHCGDPFEJ": 0.0,
              "LPCHALMFFOD": 1.2000000476837158
            }
          },
          "height": 2.0,
          "fanAngle": 150.0,
          "OAHPDLJIADP": 2.0
        },
        "attackInfo": {
          "attackTag": "",
          "attenuationTag": "",
          "attenuationGroup": "default",
          "attackProperty": {
            "actorGrassSubHurtDelta": 0.8500000238418579,
            "actorWindSubHurtDelta": 0.0,
            "elementType": "Rock",
            "IPFJJJGABPL": 25.0,
            "strikeType": "Blunt",
            "enBreak": 200.0,
            "attackType": "Melee",
            "GLKMCMDJBIK": 0.0
          },
          "hitPattern": {
            "onHitEffectName": "default",
            "hitImpulseY": "",
            "hitImpulseType": "LV5"
          }
        }
      },
      "RamDecay": {
        "attackPattern": {
          "$type": "JHKEHNJBMOF",
          "triggerType": "TriggerNoRepeat",
          "born": {
            "$type": "IAENDIPDFKD",
            "offset": {
              "KGEPIMHBMOL": 0.0,
              "JEBHCGDPFEJ": 1.0,
              "LPCHALMFFOD": 0.0
            }
          },
          "size": {
            "KGEPIMHBMOL": 2.0,
            "JEBHCGDPFEJ": 2.0,
            "LPCHALMFFOD": 2.0
          }
        },
        "attackInfo": {
          "attackTag": "",
          "attenuationTag": "Monster_Fungus_Amanita_Unu_Udatta_Rock_RamDecay",
          "attenuationGroup": "Effigy_Ice_Attenuation_2",
          "attackProperty": {
            "actorGrassSubHurtDelta": 0.4000000059604645,
            "actorWindSubHurtDelta": 0.0,
            "elementType": "Rock",
            "IPFJJJGABPL": 25.0,
            "strikeType": "Blunt",
            "enBreak": 80.0,
            "attackType": "Melee",
            "GLKMCMDJBIK": 0.0
          },
          "hitPattern": {
            "onHitEffectName": "default",
            "hitImpulseY": "",
            "hitImpulseType": "LV3"
          }
        }
      },
      "RamEndDecay": {
        "attackPattern": {
          "$type": "GMDIMKKHACA",
          "triggerType": "TriggerNoRepeat",
          "born": {
            "$type": "IAENDIPDFKD",
            "offset": {
              "KGEPIMHBMOL": 0.0,
              "JEBHCGDPFEJ": 0.0,
              "LPCHALMFFOD": 1.2000000476837158
            }
          },
          "height": 2.5,
          "fanAngle": 150.0,
          "OAHPDLJIADP": 2.5
        },
        "attackInfo": {
          "attackTag": "",
          "attenuationTag": "",
          "attenuationGroup": "default",
          "attackProperty": {
            "actorGrassSubHurtDelta": 1.0,
            "actorWindSubHurtDelta": 0.0,
            "elementType": "Rock",
            "IPFJJJGABPL": 25.0,
            "strikeType": "Blunt",
            "enBreak": 200.0,
            "attackType": "Melee",
            "GLKMCMDJBIK": 0.0
          },
          "hitPattern": {
            "onHitEffectName": "default",
            "hitImpulseY": "",
            "hitImpulseType": "LV6"
          }
        }
      },
      "QuakeNormal01": {
        "attackPattern": {
          "$type": "GMDIMKKHACA",
          "triggerType": "TriggerNoRepeat",
          "born": {
            "$type": "IAENDIPDFKD",
            "offset": {
              "KGEPIMHBMOL": 0.0,
              "JEBHCGDPFEJ": 0.0,
              "LPCHALMFFOD": 0.5
            },
            "onGround": true
          },
          "height": 1.2000000476837158,
          "OAHPDLJIADP": 2.0
        },
        "attackInfo": {
          "attackTag": "",
          "attenuationTag": "",
          "attenuationGroup": "default",
          "attackProperty": {
            "actorGrassSubHurtDelta": 0.30000001192092896,
            "actorWindSubHurtDelta": 0.0,
            "elementType": "Rock",
            "IPFJJJGABPL": 25.0,
            "strikeType": "Blunt",
            "enBreak": 80.0,
            "attackType": "Melee",
            "GLKMCMDJBIK": 0.0
          },
          "hitPattern": {
            "onHitEffectName": "default",
            "hitImpulseY": "",
            "hitImpulseType": "LV3"
          }
        }
      },
      "QuakeNormal02": {
        "attackPattern": {
          "$type": "GMDIMKKHACA",
          "triggerType": "TriggerNoRepeat",
          "born": {
            "$type": "IAENDIPDFKD",
            "offset": {
              "KGEPIMHBMOL": 0.0,
              "JEBHCGDPFEJ": 0.0,
              "LPCHALMFFOD": 0.699999988079071
            },
            "onGround": true
          },
          "height": 1.2000000476837158,
          "OAHPDLJIADP": 3.0
        },
        "attackInfo": {
          "attackTag": "",
          "attenuationTag": "",
          "attenuationGroup": "default",
          "attackProperty": {
            "actorGrassSubHurtDelta": 0.8500000238418579,
            "actorWindSubHurtDelta": 0.0,
            "elementType": "Rock",
            "IPFJJJGABPL": 25.0,
            "strikeType": "Blunt",
            "enBreak": 200.0,
            "attackType": "Melee",
            "GLKMCMDJBIK": 0.0
          },
          "hitPattern": {
            "onHitEffectName": "default",
            "hitImpulseY": "",
            "hitImpulseType": "LV5"
          }
        }
      },
      "QuakeDecay01": {
        "attackPattern": {
          "$type": "GMDIMKKHACA",
          "triggerType": "TriggerNoRepeat",
          "born": {
            "$type": "IAENDIPDFKD",
            "offset": {
              "KGEPIMHBMOL": 0.0,
              "JEBHCGDPFEJ": 0.0,
              "LPCHALMFFOD": 0.5
            },
            "onGround": true
          },
          "height": 1.5,
          "OAHPDLJIADP": 2.0
        },
        "attackInfo": {
          "attackTag": "",
          "attenuationTag": "",
          "attenuationGroup": "default",
          "attackProperty": {
            "actorGrassSubHurtDelta": 0.4000000059604645,
            "actorWindSubHurtDelta": 0.0,
            "elementType": "Rock",
            "IPFJJJGABPL": 25.0,
            "strikeType": "Blunt",
            "enBreak": 80.0,
            "attackType": "Melee",
            "GLKMCMDJBIK": 0.0
          },
          "hitPattern": {
            "onHitEffectName": "default",
            "hitImpulseY": "",
            "hitImpulseType": "LV3"
          }
        }
      }
    }
  },
  "abilities": [
    {
      "abilityID": "",
      "abilityName": "Monster_Fungus_Amanita_FungusStateManager",
      "abilityOverride": ""
    },
    {
      "abilityID": "",
      "abilityName": "Monster_Fungus_Amanita_Du_Udatta_Rock_Steer",
      "abilityOverride": ""
    },
    {
      "abilityID": "",
      "abilityName": "Monster_Fungus_Amanita_Du_Udatta_Rock_Ram",
      "abilityOverride": ""
    },
    {
      "abilityID": "",
      "abilityName": "Monster_Fungus_Amanita_Du_Udatta_Rock_QuakeDecay_Attack",
      "abilityOverride": ""
    }
  ],
  "stateLayers": {
    "defaultLayer": {
      "$type": "GBGJJIIEMBD",
      "layerIndexName": "",
      "CPAANEIJCGD": "",
      "stateIDs": {
        "NormalIdle": {
          "$type": "NEDIFAKEGCO",
          "animatorStates": {
            "Standby": [],
            "StandbyFree": []
          },
          "canDoSkill": true,
          "canSyncMove": true,
          "resetAnimatorTriggerOnExit": [
            "DoSkill",
            "RamAttackTrigger"
          ],
          "canSteer": true
        },
        "NormalMove": {
          "$type": "NEDIFAKEGCO",
          "animatorStates": {
            "WalkForward_BS": [
              "Audio_Monster_Fungus_Amanita_Du_Anudatta_Rock_WalkForward_BS"
            ],
            "WalkForward": [
              "Audio_Monster_Fungus_Amanita_Du_Anudatta_Rock_WalkForward"
            ],
            "WalkBack_BS": [
              "Audio_Monster_Fungus_Amanita_Du_Anudatta_Rock_WalkForward_BS"
            ],
            "WalkBack": [
              "Audio_Monster_Fungus_Amanita_Du_Anudatta_Rock_WalkForward"
            ],
            "WalkFree": [],
            "Run_BS": [],
            "Run": [
              "Audio_Monster_Fungus_Amanita_Du_Run"
            ]
          },
          "canDoSkill": true,
          "canSyncMove": true,
          "resetAnimatorTriggerOnExit": [
            "DoSkill",
            "RamAttackTrigger"
          ],
          "canSteer": true
        },
        "Step": {
          "$type": "NEDIFAKEGCO",
          "animatorStates": {
            "WalkLeft": [
              "Audio_Monster_Fungus_Amanita_Du_Anudatta_Rock_WalkLR"
            ],
            "WalkRight": [
              "Audio_Monster_Fungus_Amanita_Du_Anudatta_Rock_WalkLR"
            ]
          },
          "canSyncMove": true,
          "resetAnimatorTriggerOnExit": [
            "DoSkill",
            "RamAttackTrigger"
          ],
          "canSteer": true
        },
        "Step_AS": {
          "$type": "NEDIFAKEGCO",
          "animatorStates": {
            "WalkLeft_AS": [],
            "WalkRight_AS": []
          },
          "canDoSkill": true,
          "canSyncMove": true,
          "resetAnimatorTriggerOnExit": [
            "DoSkill",
            "RamAttackTrigger"
          ],
          "canSteer": true
        },
        "BeHit": {
          "$type": "NEDIFAKEGCO",
          "animatorStates": {
            "Hit_H": [
              "Audio_Monster_Fungus_Amanita_Hit_H"
            ],
            "Hit_L": []
          },
          "canSyncMove": true,
          "resetAnimatorTriggerOnEnter": [
            "BeHit"
          ],
          "resetAnimatorTriggerOnExit": [
            "DoSkill"
          ],
          "airMoveFollowAnimation": true
        },
        "BeHitThrow": {
          "$type": "NEDIFAKEGCO",
          "animatorStates": {
            "HitThrow": [],
            "HitThrowDrop": [],
            "HitThrowToGround": [
              "Audio_Monster_Fungus_Amanita_Du_hitThrowToGround"
            ]
          },
          "resetAnimatorTriggerOnEnter": [
            "BeHit",
            "HitAir2HitDrop"
          ],
          "resetAnimatorTriggerOnExit": [
            "DoSkill"
          ],
          "remoteForceCloseAirMove": true
        },
        "Struggle": {
          "$type": "NEDIFAKEGCO",
          "animatorStates": {
            "Struggle": []
          },
          "resetAnimatorTriggerOnEnter": [
            "BeHit",
            "HitAir2HitDrop"
          ],
          "resetAnimatorTriggerOnExit": [
            "DoSkill"
          ]
        },
        "Die": {
          "$type": "NEDIFAKEGCO",
          "animatorStates": {
            "Die": [
              "Monster_Fungus_Amanita_Du_Die",
              "Audio_Monster_Fungus_Amanita_Du_Die"
            ],
            "AirDie": [
              "Monster_Fungus_Amanita_Du_Die"
            ]
          }
        },
        "Born": {
          "$type": "NEDIFAKEGCO",
          "animatorStates": {
            "Born": []
          },
          "resetAnimatorTriggerOnExit": [
            "DoSkill"
          ]
        },
        "Warning": {
          "$type": "NEDIFAKEGCO",
          "animatorStates": {
            "Warning": [
              "Monster_Fungus_Amanita_Du_Alert",
              "Audio_Monster_Fungus_Amanita_Du_Anudatta_Water_Warning"
            ]
          },
          "resetAnimatorTriggerOnExit": [
            "BeHit",
            "DoSkill"
          ],
          "canSteer": true
        },
        "MeleeAttack01Normal_BS": {
          "$type": "NEDIFAKEGCO",
          "animatorStates": {
            "MeleeAttack01Normal_BS": [
              "Audio_Monster_Fungus_Amanita_Du_Anudatta_Rock_MeleeAttack01_BS"
            ]
          },
          "resetAnimatorTriggerOnExit": [
            "BeHit",
            "DoSkill"
          ],
          "canSteer": true
        },
        "MeleeAttack01Overdose_BS": {
          "$type": "NEDIFAKEGCO",
          "animatorStates": {
            "MeleeAttack01Overdose_BS": [
              "Audio_Monster_Fungus_Amanita_Du_Anudatta_Rock_MeleeAttack01_BS"
            ]
          },
          "resetAnimatorTriggerOnExit": [
            "BeHit",
            "DoSkill"
          ],
          "canSteer": true
        },
        "MeleeAttack01Decay_BS": {
          "$type": "NEDIFAKEGCO",
          "animatorStates": {
            "MeleeAttack01Decay_BS": [
              "Audio_Monster_Fungus_Amanita_Du_Anudatta_Rock_MeleeAttack01_BS"
            ]
          },
          "resetAnimatorTriggerOnExit": [
            "BeHit",
            "DoSkill"
          ],
          "canSteer": true
        },
        "MeleeAttack01_AS": {
          "$type": "NEDIFAKEGCO",
          "animatorStates": {
            "MeleeAttack01Normal_Attack": [
              "Monster_Fungus_Amanita_Du_Udatta_Rock_MeleeAttack01Normal_Attack",
              "Audio_Monster_Fungus_Amanita_Du_Anudatta_Rock_MeleeAttack01_Attack"
            ],
            "MeleeAttack01Normal_AS": [],
            "MeleeAttack01Overdose_Attack": [
              "Monster_Fungus_Amanita_Du_Udatta_Rock_MeleeAttack01Normal_Attack",
              "Audio_Monster_Fungus_Amanita_Du_Anudatta_Rock_MeleeAttack01_Attack"
            ],
            "MeleeAttack01Overdose_AS": [],
            "MeleeAttack01Decay_Attack": [
              "Monster_Fungus_Amanita_Du_Udatta_Rock_MeleeAttack01Decay_Attack",
              "Audio_Monster_Fungus_Amanita_Du_Anudatta_Rock_MeleeAttack01Decay_Attack"
            ],
            "MeleeAttack01Decay_AS": []
          },
          "resetAnimatorTriggerOnExit": [
            "BeHit",
            "DoSkill"
          ],
          "canSteer": true
        },
        "MeleeAttack02Normal_BS": {
          "$type": "NEDIFAKEGCO",
          "animatorStates": {
            "MeleeAttack02Normal_BS": [
              "Audio_Monster_Fungus_Amanita_Du_Anudatta_Rock_MeleeAttack02_BS"
            ]
          },
          "resetAnimatorTriggerOnExit": [
            "BeHit",
            "DoSkill"
          ],
          "canSteer": true
        },
        "MeleeAttack02Overdose_BS": {
          "$type": "NEDIFAKEGCO",
          "animatorStates": {
            "MeleeAttack02Overdose_BS": [
              "Audio_Monster_Fungus_Amanita_Du_Anudatta_Rock_MeleeAttack02_BS"
            ]
          },
          "resetAnimatorTriggerOnExit": [
            "BeHit",
            "DoSkill"
          ],
          "canSteer": true
        },
        "MeleeAttack02Decay_BS": {
          "$type": "NEDIFAKEGCO",
          "animatorStates": {
            "MeleeAttack02Decay_BS": [
              "Monster_Fungus_Amanita_Du_Udatta_Rock_MeleeAttack02Decay_BS",
              "Audio_Monster_Fungus_Amanita_Du_Anudatta_Rock_MeleeAttack02Decay_BS"
            ]
          },
          "resetAnimatorTriggerOnExit": [
            "BeHit",
            "DoSkill"
          ],
          "canSteer": true
        },
        "MeleeAttack02_Attack": {
          "$type": "NEDIFAKEGCO",
          "animatorStates": {
            "MeleeAttack02Normal_Attack": [
              "Monster_Fungus_Amanita_Du_Udatta_Rock_MeleeAttack02Normal_Attack",
              "Audio_Monster_Fungus_Amanita_Du_Anudatta_Rock_MeleeAttack02_Attack"
            ],
            "MeleeAttack02Overdose_Attack": [
              "Monster_Fungus_Amanita_Du_Udatta_Rock_MeleeAttack02Normal_Attack",
              "Audio_Monster_Fungus_Amanita_Du_Anudatta_Rock_MeleeAttack02_Attack"
            ],
            "MeleeAttack02Decay_Attack": [
              "Monster_Fungus_Amanita_Du_Udatta_Rock_MeleeAttack02Decay_Attack",
              "Audio_Monster_Fungus_Amanita_Du_Anudatta_Rock_MeleeAttack02Decay_Attack"
            ]
          },
          "resetAnimatorTriggerOnExit": [
            "BeHit",
            "DoSkill"
          ],
          "canSteer": true
        },
        "MeleeAttack02_AS": {
          "$type": "NEDIFAKEGCO",
          "animatorStates": {
            "MeleeAttack02Normal_AS": [
              "Audio_Monster_Fungus_Amanita_Du_Anudatta_Rock_MeleeAttack02_AS"
            ],
            "MeleeAttack02Overdose_AS": [
              "Audio_Monster_Fungus_Amanita_Du_Anudatta_Rock_MeleeAttack02_AS"
            ],
            "MeleeAttack02Decay_AS": [
              "Audio_Monster_Fungus_Amanita_Du_Anudatta_Rock_MeleeAttack02_AS"
            ]
          },
          "resetAnimatorTriggerOnExit": [
            "BeHit",
            "DoSkill"
          ],
          "canSteer": true
        },
        "RamNormal_BS": {
          "$type": "NEDIFAKEGCO",
          "animatorStates": {
            "RamNormal_BS": [
              "Monster_Fungus_Amanita_Du_Udatta_Rock_RamNormal_BS",
              "Audio_Monster_Fungus_Amanita_Du_Anudatta_Rock_Ram_BS"
            ]
          },
          "resetAnimatorTriggerOnExit": [
            "BeHit",
            "DoSkill"
          ],
          "canSteer": true
        },
        "RamNormal_MoveLoop": {
          "$type": "NEDIFAKEGCO",
          "animatorStates": {
            "RamNormal_MoveLoop": [
              "Monster_Fungus_Amanita_Du_Udatta_Rock_RamNormal_MoveLoop",
              "Audio_Monster_Fungus_Amanita_Du_Anudatta_Rock_RamMove_Loop"
            ]
          },
          "resetAnimatorTriggerOnExit": [
            "BeHit",
            "DoSkill"
          ],
          "canSteer": true
        },
        "RamOverdose_BS": {
          "$type": "NEDIFAKEGCO",
          "animatorStates": {
            "RamOverdose_BS": [
              "Monster_Fungus_Amanita_Du_Udatta_Rock_RamNormal_BS",
              "Audio_Monster_Fungus_Amanita_Du_Anudatta_Rock_Ram_BS"
            ]
          },
          "resetAnimatorTriggerOnExit": [
            "BeHit",
            "DoSkill"
          ],
          "canSteer": true
        },
        "RamOverdose_MoveLoop": {
          "$type": "NEDIFAKEGCO",
          "animatorStates": {
            "RamOverdose_MoveLoop01": [
              "Monster_Fungus_Amanita_Du_Udatta_Rock_RamNormal_MoveLoop",
              "Audio_Monster_Fungus_Amanita_Du_Anudatta_Rock_RamMove_Loop"
            ],
            "RamOverdose_MoveLoop02": [
              "Monster_Fungus_Amanita_Du_Udatta_Rock_RamNormal_MoveLoop",
              "Audio_Monster_Fungus_Amanita_Du_Anudatta_Rock_RamMove_Loop"
            ],
            "RamOverdose_MoveLoop03": [
              "Monster_Fungus_Amanita_Du_Udatta_Rock_RamNormal_MoveLoop",
              "Audio_Monster_Fungus_Amanita_Du_Anudatta_Rock_RamMove_Loop"
            ]
          },
          "resetAnimatorTriggerOnExit": [
            "BeHit",
            "DoSkill"
          ],
          "canSteer": true
        },
        "RamOverdose_MoveLoop_Aim": {
          "$type": "NEDIFAKEGCO",
          "animatorStates": {
            "RamOverdose_MoveLoop02_Aim": [
              "Monster_Fungus_Amanita_Du_Udatta_Rock_RamNormal_MoveLoop",
              "Audio_Monster_Fungus_Amanita_Du_Anudatta_Rock_RamMove_Loop"
            ],
            "RamOverdose_MoveLoop03_Aim": [
              "Monster_Fungus_Amanita_Du_Udatta_Rock_RamNormal_MoveLoop",
              "Audio_Monster_Fungus_Amanita_Du_Anudatta_Rock_RamMove_Loop"
            ]
          },
          "resetAnimatorTriggerOnExit": [
            "BeHit",
            "DoSkill"
          ],
          "canSteer": true
        },
        "RamDecay_BS": {
          "$type": "NEDIFAKEGCO",
          "animatorStates": {
            "RamDecay_BS": [
              "Monster_Fungus_Amanita_Du_Udatta_Rock_RamDecay_BS",
              "Audio_Monster_Fungus_Amanita_Du_Anudatta_Rock_RamDecay_BS"
            ]
          },
          "resetAnimatorTriggerOnExit": [
            "BeHit",
            "DoSkill"
          ],
          "canSteer": true
        },
        "RamDecay_MoveLoop": {
          "$type": "NEDIFAKEGCO",
          "animatorStates": {
            "RamDecay_MoveLoop": [
              "Monster_Fungus_Amanita_Du_Udatta_Rock_RamDecay_MoveLoop",
              "Audio_Monster_Fungus_Amanita_Du_Anudatta_Rock_RamDecayMove_Loop"
            ]
          },
          "resetAnimatorTriggerOnExit": [
            "BeHit",
            "DoSkill"
          ],
          "canSteer": true
        },
        "Ram": {
          "$type": "NEDIFAKEGCO",
          "animatorStates": {
            "RamNormal_Attack": [
              "Monster_Fungus_Amanita_Du_Udatta_Rock_RamNormal_Attack",
              "Audio_Monster_Fungus_Amanita_Du_Anudatta_Rock_Ram_Attack"
            ],
            "RamNormal_AS": [
              "Audio_Monster_Fungus_Amanita_Du_Anudatta_Rock_Ram_AS"
            ],
            "RamOverdose_Attack": [
              "Monster_Fungus_Amanita_Du_Udatta_Rock_RamNormal_Attack",
              "Audio_Monster_Fungus_Amanita_Du_Anudatta_Rock_Ram_Attack"
            ],
            "RamOverdose_AS": [
              "Audio_Monster_Fungus_Amanita_Du_Anudatta_Rock_Ram_AS"
            ],
            "RamDecay_Attack": [
              "Monster_Fungus_Amanita_Du_Udatta_Rock_RamDecay_Attack",
              "Audio_Monster_Fungus_Amanita_Du_Anudatta_Rock_Ram_Attack"
            ],
            "RamDecay_AS": [
              "Audio_Monster_Fungus_Amanita_Du_Anudatta_Rock_Ram_AS"
            ]
          },
          "resetAnimatorTriggerOnExit": [
            "BeHit",
            "DoSkill"
          ]
        },
        "QuakeNormal_BS": {
          "$type": "NEDIFAKEGCO",
          "animatorStates": {
            "QuakeNormal_BS": [
              "Monster_Fungus_Amanita_Du_Udatta_Rock_QuakeNormal_BS",
              "Audio_Monster_Fungus_Amanita_Du_Anudatta_Rock_Quake_BS"
            ]
          },
          "resetAnimatorTriggerOnExit": [
            "BeHit",
            "DoSkill"
          ],
          "canSteer": true
        },
        "QuakeOverdose_BS": {
          "$type": "NEDIFAKEGCO",
          "animatorStates": {
            "QuakeOverdose_BS": [
              "Monster_Fungus_Amanita_Du_Udatta_Rock_QuakeNormal_BS",
              "Audio_Monster_Fungus_Amanita_Du_Anudatta_Rock_Quake_BS"
            ]
          },
          "resetAnimatorTriggerOnExit": [
            "BeHit",
            "DoSkill"
          ],
          "canSteer": true
        },
        "QuakeDecay_BS": {
          "$type": "NEDIFAKEGCO",
          "animatorStates": {
            "QuakeDecay_BS": [
              "Monster_Fungus_Amanita_Du_Udatta_Rock_QuakeDecay_BS",
              "Audio_Monster_Fungus_Amanita_Du_Anudatta_Rock_QuakeDecay_BS"
            ]
          },
          "resetAnimatorTriggerOnExit": [
            "BeHit",
            "DoSkill"
          ],
          "canSteer": true
        },
        "Quake": {
          "$type": "NEDIFAKEGCO",
          "animatorStates": {
            "QuakeNormal_Attack": [
              "Monster_Fungus_Amanita_Du_Udatta_Rock_QuakeNormal_Attack",
              "Audio_Monster_Fungus_Amanita_Du_Anudatta_Rock_Quake_Attack"
            ],
            "QuakeNormal_AS": [
              "Monster_Fungus_Amanita_Du_Udatta_Rock_QuakeNormal_AS",
              "Audio_Monster_Fungus_Amanita_Du_Anudatta_Rock_Quake_AS"
            ],
            "QuakeOverdose_Attack": [
              "Monster_Fungus_Amanita_Du_Udatta_Rock_QuakeNormal_Attack",
              "Audio_Monster_Fungus_Amanita_Du_Anudatta_Rock_Quake_Attack"
            ],
            "QuakeOverdose_AS": [
              "Monster_Fungus_Amanita_Du_Udatta_Rock_QuakeNormal_AS",
              "Audio_Monster_Fungus_Amanita_Du_Anudatta_Rock_Quake_AS"
            ],
            "QuakeDecay_Attack": [
              "Monster_Fungus_Amanita_Du_Udatta_Rock_QuakeDecay_Attack",
              "Audio_Monster_Fungus_Amanita_Du_Anudatta_Rock_QuakeDecay_Attack"
            ],
            "QuakeDecay_AS": [
              "Monster_Fungus_Amanita_Du_Udatta_Rock_QuakeDecay_AS",
              "Audio_Monster_Fungus_Amanita_Du_Anudatta_Rock_QuakeDecay_AS"
            ]
          },
          "resetAnimatorTriggerOnExit": [
            "BeHit",
            "DoSkill"
          ]
        },
        "Taunt": {
          "$type": "NEDIFAKEGCO",
          "animatorStates": {
            "Taunt01": [
              "Monster_Fungus_Amanita_Du_Taunt",
              "Audio_Monster_Fungus_Amanita_Du_Taunt01"
            ]
          },
          "resetAnimatorTriggerOnExit": [
            "BeHit",
            "DoSkill"
          ],
          "canSteer": true
        },
        "Dance": {
          "$type": "NEDIFAKEGCO",
          "animatorStates": {
            "Dance": [
              "Monster_Fungus_Amanita_Du_Dance",
              "Audio_Monster_Fungus_Amanita_Du_Dance"
            ]
          },
          "canDoSkill": true,
          "resetAnimatorTriggerOnExit": [
            "BeHit",
            "DoSkill"
          ],
          "canSteer": true
        },
        "Tease": {
          "$type": "NEDIFAKEGCO",
          "animatorStates": {
            "Tease": [
              "Monster_Fungus_Amanita_Du_Tease",
              "Audio_Monster_Fungus_Amanita_Du_Tease"
            ]
          },
          "canDoSkill": true,
          "resetAnimatorTriggerOnExit": [
            "BeHit",
            "DoSkill"
          ],
          "canSteer": true
        },
        "Absorb": {
          "$type": "NEDIFAKEGCO",
          "animatorStates": {
            "Absorb": [
              "Monster_Fungus_Amanita_Du_Absorb",
              "Audio_Monster_Fungus_Amanita_Du_Absorb"
            ]
          },
          "canDoSkill": true,
          "resetAnimatorTriggerOnExit": [
            "BeHit",
            "DoSkill"
          ],
          "canSteer": true
        }
      }
    }
  },
  "billboard": {
    "$type": "DNGNMAJBCNP",
    "attachPoint": "BillboardAttach",
    "offset": {
      "y": 0.5
    },
    "radiusOffset": 1.0,
    "enableSelfAdapt": true,
    "showHPBar": true,
    "size": "Big"
  },
  "initialPoses": {
    "Default": {
      "initialPoseID": 101
    },
    "Dance": {
      "initialPoseID": 102,
      "initialPoseParams": {
        "boolParams": {
          "Dance": "true"
        }
      }
    },
    "Tease": {
      "initialPoseID": 103,
      "initialPoseParams": {
        "boolParams": {
          "Tease": "true"
        }
      }
    },
    "Absorb": {
      "initialPoseID": 104,
      "initialPoseParams": {
        "boolParams": {
          "Absorb": "true"
        }
      }
    }
  },
  "aibeta": {
    "enable": true,
    "moveSetting": {
      "navMeshAgentName": "Undead01"
    },
    "sensing": {
      "settings": {
        "DefaultSetting": {
          "viewRange": 22.0,
          "feelRange": 8.75
        },
        "NoSensing": {
          "enableVision": false,
          "hearAttractionRange": 0.0,
          "feelRange": 0.0
        }
      },
      "templates": {
        "DefaultTemplate": {
          "DefaultPoses": "DefaultSetting"
        },
        "NoSensing": {
          "DefaultPoses": "NoSensing"
        }
      }
    },
    "threat": {
      "GHIJMOKOLMB": "",
      "clearThreatTargetDistance": 30.0,
      "clearThreatEdgeDistance": 5.0,
      "clearThreatTimerByDistance": 2.0,
      "viewAttenuation": [
        {
          "x": 12.0,
          "y": 1.0
        },
        {
          "x": 20.0,
          "y": 0.5
        }
      ]
    },
    "defendArea": {
      "defendRange": 50.0
    },
    "skills": {
      "100": {
        "name": "OnAlert",
        "skillType": "OnAlert",
        "faceTarget": true,
        "publicCDGroup": "",
        "triggerGCD": false,
        "HHAGODJIAPE": "",
        "stateIDs": [
          "Warning"
        ],
        "skillQueryingTime": 3.0,
        "flagTargetReachable": "10",
        "flagSelfOnTemplateCollider": "01",
        "flagSelfInZone": "10",
        "flagTargetInZone": "11"
      },
      "102": {
        "name": "Dance",
        "skillType": "Free",
        "castCondition": {
          "pose": [
            102
          ]
        },
        "cd": 10.0,
        "cdUpperRange": 10.0,
        "initialCD": 5.0,
        "initialCDUpperRange": 10.0,
        "publicCDGroup": "",
        "triggerGCD": false,
        "HHAGODJIAPE": "",
        "stateIDs": [
          "Dance"
        ],
        "skillQueryingTime": 3.0,
        "flagTargetReachable": "10",
        "flagSelfOnTemplateCollider": "01",
        "flagSelfInZone": "10",
        "flagTargetInZone": "11"
      },
      "103": {
        "name": "Tease",
        "skillType": "Free",
        "castCondition": {
          "pose": [
            103
          ]
        },
        "cd": 10.0,
        "cdUpperRange": 10.0,
        "initialCD": 5.0,
        "initialCDUpperRange": 10.0,
        "publicCDGroup": "",
        "triggerGCD": false,
        "HHAGODJIAPE": "",
        "stateIDs": [
          "Tease"
        ],
        "skillQueryingTime": 3.0,
        "flagTargetReachable": "10",
        "flagSelfOnTemplateCollider": "01",
        "flagSelfInZone": "10",
        "flagTargetInZone": "11"
      },
      "104": {
        "name": "Absorb",
        "skillType": "Free",
        "castCondition": {
          "pose": [
            104
          ]
        },
        "cd": 10.0,
        "cdUpperRange": 10.0,
        "initialCD": 5.0,
        "initialCDUpperRange": 10.0,
        "publicCDGroup": "",
        "triggerGCD": false,
        "HHAGODJIAPE": "",
        "stateIDs": [
          "Absorb"
        ],
        "skillQueryingTime": 3.0,
        "flagTargetReachable": "10",
        "flagSelfOnTemplateCollider": "01",
        "flagSelfInZone": "10",
        "flagTargetInZone": "11"
      },
      "301": {
        "name": "MeleeAttackNormal",
        "enableSkillPrepare": true,
        "castCondition": {
          "pose": [
            301
          ],
          "pickRangeMax": 8.0,
          "castRangeMax": 5.0
        },
        "cd": 3.0,
        "cdUpperRange": 5.0,
        "initialCD": 5.0,
        "initialCDUpperRange": 5.0,
        "publicCDGroup": "Fungus_RangedAttack",
        "HHAGODJIAPE": "",
        "stateIDs": [
          "MeleeAttack01_AS",
          "MeleeAttack01Normal_BS",
          "MeleeAttack02_Attack",
          "MeleeAttack02_AS",
          "MeleeAttack02Normal_BS"
        ],
        "flagTargetReachable": "10",
        "flagSelfOnTemplateCollider": "01",
        "flagSelfInZone": "10",
        "flagTargetInZone": "11"
      },
      "311": {
        "name": "MeleeAttackOverdose",
        "enableSkillPrepare": true,
        "castCondition": {
          "pose": [
            311
          ],
          "pickRangeMax": 8.0,
          "castRangeMax": 5.0
        },
        "cd": 3.0,
        "cdUpperRange": 5.0,
        "initialCD": 5.0,
        "initialCDUpperRange": 5.0,
        "publicCDGroup": "Fungus_RangedAttack",
        "HHAGODJIAPE": "",
        "stateIDs": [
          "MeleeAttack01_AS",
          "MeleeAttack01Overdose_BS",
          "MeleeAttack02_Attack",
          "MeleeAttack02_AS",
          "MeleeAttack02Overdose_BS"
        ],
        "flagTargetReachable": "10",
        "flagSelfOnTemplateCollider": "01",
        "flagSelfInZone": "10",
        "flagTargetInZone": "11"
      },
      "321": {
        "name": "MeleeAttackDecay",
        "enableSkillPrepare": true,
        "skillPrepareSpeedLevel": 1,
        "castCondition": {
          "pose": [
            321
          ],
          "pickRangeMax": 8.0,
          "castRangeMax": 5.0
        },
        "cd": 1.0,
        "cdUpperRange": 3.0,
        "initialCD": 2.0,
        "initialCDUpperRange": 5.0,
        "publicCDGroup": "Fungus_RangedAttack",
        "HHAGODJIAPE": "",
        "stateIDs": [
          "MeleeAttack01_AS",
          "MeleeAttack01Decay_BS",
          "MeleeAttack02_Attack",
          "MeleeAttack02_AS",
          "MeleeAttack02Decay_BS"
        ],
        "flagTargetReachable": "10",
        "flagSelfOnTemplateCollider": "01",
        "flagSelfInZone": "10",
        "flagTargetInZone": "11"
      },
      "501": {
        "name": "RamNormal",
        "castCondition": {
          "pose": [
            301
          ],
          "needReInitCD": true,
          "pickRangeMax": 16.0
        },
        "cd": 2.0,
        "cdUpperRange": 5.0,
        "initialCD": 2.0,
        "initialCDUpperRange": 5.0,
        "publicCDGroup": "Fungus_RangedAttack",
        "HHAGODJIAPE": "",
        "stateIDs": [
          "Ram",
          "RamNormal_BS",
          "RamNormal_MoveLoop"
        ],
        "flagTargetReachable": "10",
        "flagSelfOnTemplateCollider": "01",
        "flagSelfInZone": "10",
        "flagTargetInZone": "11"
      },
      "511": {
        "name": "RamOverdose",
        "castCondition": {
          "pose": [
            311
          ],
          "needReInitCD": true,
          "pickRangeMax": 16.0
        },
        "cd": 2.0,
        "cdUpperRange": 5.0,
        "publicCDGroup": "Fungus_RangedAttack",
        "HHAGODJIAPE": "",
        "stateIDs": [
          "Ram",
          "RamOverdose_BS",
          "RamOverdose_MoveLoop",
          "RamOverdose_MoveLoop_Aim"
        ],
        "flagTargetReachable": "10",
        "flagSelfOnTemplateCollider": "01",
        "flagSelfInZone": "10",
        "flagTargetInZone": "11"
      },
      "521": {
        "name": "RamDecay",
        "castCondition": {
          "pose": [
            321
          ],
          "needReInitCD": true,
          "pickRangeMax": 16.0
        },
        "cd": 1.0,
        "cdUpperRange": 2.0,
        "initialCD": 4.0,
        "initialCDUpperRange": 5.0,
        "publicCDGroup": "Fungus_RangedAttack",
        "HHAGODJIAPE": "",
        "stateIDs": [
          "Ram",
          "RamDecay_BS",
          "RamDecay_MoveLoop"
        ],
        "flagTargetReachable": "10",
        "flagSelfOnTemplateCollider": "01",
        "flagSelfInZone": "10",
        "flagTargetInZone": "11"
      },
      "502": {
        "name": "QuakeNormal",
        "castCondition": {
          "pose": [
            301
          ],
          "needReInitCD": true,
          "pickRangeMax": 10.0,
          "castRangeMax": 7.0
        },
        "cd": 5.0,
        "cdUpperRange": 5.0,
        "initialCD": 5.0,
        "initialCDUpperRange": 5.0,
        "publicCDGroup": "Fungus_RangedAttack",
        "HHAGODJIAPE": "",
        "stateIDs": [
          "Quake",
          "QuakeNormal_BS"
        ],
        "flagTargetReachable": "11",
        "flagSelfOnTemplateCollider": "01",
        "flagSelfInZone": "11",
        "flagTargetInZone": "11"
      },
      "512": {
        "name": "QuakeOverdose",
        "castCondition": {
          "pose": [
            311
          ],
          "needReInitCD": true,
          "pickRangeMax": 10.0,
          "castRangeMax": 7.0
        },
        "cd": 5.0,
        "cdUpperRange": 5.0,
        "initialCD": 5.0,
        "initialCDUpperRange": 5.0,
        "publicCDGroup": "Fungus_RangedAttack",
        "HHAGODJIAPE": "",
        "stateIDs": [
          "Quake",
          "QuakeOverdose_BS"
        ],
        "flagTargetReachable": "11",
        "flagSelfOnTemplateCollider": "01",
        "flagSelfInZone": "11",
        "flagTargetInZone": "11"
      },
      "522": {
        "name": "QuakeDecay",
        "enableSkillPrepare": true,
        "skillPrepareSpeedLevel": 1,
        "castCondition": {
          "pose": [
            321
          ],
          "needReInitCD": true,
          "pickRangeMax": 10.0,
          "castRangeMax": 7.0
        },
        "cd": 2.0,
        "cdUpperRange": 5.0,
        "initialCD": 2.0,
        "initialCDUpperRange": 5.0,
        "publicCDGroup": "Fungus_RangedAttack",
        "HHAGODJIAPE": "",
        "stateIDs": [
          "Quake",
          "QuakeDecay_BS"
        ],
        "flagTargetReachable": "11",
        "flagSelfOnTemplateCollider": "01",
        "flagSelfInZone": "11",
        "flagTargetInZone": "11"
      },
      "509": {
        "name": "Taunt01",
        "castCondition": {
          "pose": [
            301,
            311
          ],
          "needReInitCD": true,
          "pickRangeMin": 4.0,
          "pickRangeMax": 15.0
        },
        "cd": 8.0,
        "cdUpperRange": 12.0,
        "initialCD": 5.5,
        "initialCDUpperRange": 12.0,
        "publicCDGroup": "",
        "triggerGCD": false,
        "HHAGODJIAPE": "",
        "stateIDs": [
          "Taunt"
        ],
        "flagTargetReachable": "11",
        "flagSelfOnTemplateCollider": "01",
        "flagSelfInZone": "11",
        "flagTargetInZone": "11"
      }
    },
    "skillGCD": 5.0,
    "birdCirclingTactic": [
      {
        "$type": "EPHBMLFODKF",
        "enable": true,
        "condition": {
          "pose": [
            301,
            311,
            321
          ]
        },
        "JMCOBEPDIGM": {
          "rangeMin": 4.0,
          "rangeMax": 7.0,
          "JOJBOHEDBHC": 0.0,
          "AFILKAGDAHN": 1.0,
          "BFJBDDIIFOI": {
            "LLICGJHIGME": 0.0,
            "IDEFILBHNAP": 0.30000001192092896,
            "IBLIPJPNOGC": 0.30000001192092896
          },
          "NAOBMNGDKHL": "1111",
          "JCNIJOAIGII": "1111",
          "MNPDDAKDHGK": ""
        },
        "PIOCBHLFLJP": {
          "321": {
            "rangeMin": 4.0,
            "rangeMax": 7.0,
            "JOJBOHEDBHC": 3.0,
            "AFILKAGDAHN": 8.0,
            "BFJBDDIIFOI": {
              "IDEFILBHNAP": 0.30000001192092896,
              "IBLIPJPNOGC": 0.30000001192092896,
              "AEBLMKFNCDG": 0.0,
              "IGLIBIOEGBB": 0.0
            },
            "NAOBMNGDKHL": "1111",
            "JCNIJOAIGII": "1111",
            "MNPDDAKDHGK": ""
          }
        }
      },
      {
        "$type": "KACCHOLJDNK",
        "enable": true,
        "condition": {
          "pose": [
            301,
            311,
            321
          ]
        },
        "JMCOBEPDIGM": {
          "KHDFDAAAPEI": 9.0,
          "HKJODDGJPHA": 50.0,
          "GGEBMFHFBPO": 6.0,
          "KFFGCIMPNMJ": 7.0,
          "MNPDDAKDHGK": ""
        },
        "PIOCBHLFLJP": {
          "321": {
            "ANLAAGAMIKF": 1,
            "KHDFDAAAPEI": 9.0,
            "HKJODDGJPHA": 50.0,
            "GGEBMFHFBPO": 4.0,
            "KFFGCIMPNMJ": 7.0,
            "MNPDDAKDHGK": ""
          }
        }
      },
      {
        "$type": "NNJKLGNPMNN",
        "enable": true,
        "JMCOBEPDIGM": {
          "MNPDDAKDHGK": "",
          "GJDMDHIBCME": ""
        }
      },
      {
        "$type": "FPELBIJFGCE",
        "enable": true,
        "condition": {
          "pose": [
            101
          ]
        },
        "JMCOBEPDIGM": {
          "KPNDPKIOPJM": 3.0,
          "PINAFKEDDLL": 1.5,
          "ANMPOPEBDIA": 15.0,
          "GMJFIMFFOEL": 3.75,
          "CHCPFDMADEI": 7.5,
          "MNPDDAKDHGK": ""
        }
      }
    ]
  },
  "inputKeys": [
    {
      "keyID": 301,
      "inputKeyCode": 257,
      "abilityName": ""
    },
    {
      "keyID": 501,
      "inputKeyCode": 258,
      "abilityName": ""
    },
    {
      "keyID": 502,
      "inputKeyCode": 259,
      "abilityName": ""
    },
    {
      "keyID": 509,
      "inputKeyCode": 260,
      "abilityName": ""
    },
    {
      "keyID": 511,
      "inputKeyCode": 261,
      "abilityName": ""
    },
    {
      "keyID": 512,
      "inputKeyCode": 262,
      "abilityName": ""
    },
    {
      "keyID": 321,
      "inputKeyCode": 263,
      "abilityName": ""
    },
    {
      "keyID": 521,
      "inputKeyCode": 264,
      "abilityName": ""
    },
    {
      "keyID": 522,
      "inputKeyCode": 265,
      "abilityName": ""
    },
    {
      "keyID": 9997,
      "inputKeyCode": 266,
      "abilityName": ""
    },
    {
      "keyID": 9998,
      "inputKeyCode": 267,
      "abilityName": ""
    },
    {
      "keyID": 9999,
      "inputKeyCode": 268,
      "abilityName": ""
    },
    {
      "keyID": 904,
      "inputKeyCode": 269,
      "abilityName": ""
    },
    {
      "keyID": 905,
      "inputKeyCode": 270,
      "abilityName": ""
    },
    {
      "keyID": 102,
      "inputKeyCode": 271,
      "abilityName": ""
    },
    {
      "keyID": 103,
      "inputKeyCode": 272,
      "abilityName": ""
    },
    {
      "keyID": 104,
      "inputKeyCode": 273,
      "abilityName": ""
    },
    {
      "keyID": 100,
      "inputKeyCode": 274,
      "abilityName": ""
    }
  ],
  "move": {
    "$type": "IPNMJMHDMPF",
    "facingMove": "FourDirection",
    "yawSpeedRatio": 1.0,
    "PKHOMJHFAEE": "RootNode"
  },
  "audio": {
    "overrideEmitterName": "",
    "animAudio": {
      "onTransitionIn": [
        {
          "currentStateName": "RamNormal_MoveLoop",
          "audioEvent": {
            "text": "Play_sfx_monster_Fungus_Amanita_Du_Udatta_Rock_ramMove_Loop"
          },
          "otherStateNames": [
            "RamNormal_MoveLoop"
          ],
          "usage": "Except"
        },
        {
          "currentStateName": "RamOverdose_MoveLoop01",
          "audioEvent": {
            "text": "Play_sfx_monster_Fungus_Amanita_Du_Udatta_Rock_ramMove_Loop"
          },
          "otherStateNames": [
            "RamOverdose_MoveLoop01"
          ],
          "usage": "Except"
        },
        {
          "currentStateName": "RamOverdose_MoveLoop02",
          "audioEvent": {
            "text": "Play_sfx_monster_Fungus_Amanita_Du_Udatta_Rock_ramMove_Loop"
          },
          "otherStateNames": [
            "RamOverdose_MoveLoop02"
          ],
          "usage": "Except"
        },
        {
          "currentStateName": "RamOverdose_MoveLoop03",
          "audioEvent": {
            "text": "Play_sfx_monster_Fungus_Amanita_Du_Udatta_Rock_ramMove_Loop"
          },
          "otherStateNames": [
            "RamOverdose_MoveLoop03"
          ],
          "usage": "Except"
        },
        {
          "currentStateName": "RamDecay_MoveLoop",
          "audioEvent": {
            "text": "Play_sfx_monster_Fungus_Amanita_Du_Udatta_Rock_ramDecayMove_Loop"
          },
          "otherStateNames": [
            "RamDecay_MoveLoop"
          ],
          "usage": "Except"
        }
      ],
      "onTransitionOut": [
        {
          "currentStateName": "Absorb",
          "audioEvent": {
            "text": "Stop_sfx_monster_Fungus_Amanita_Du_Anudatta_Water_absorb"
          }
        },
        {
          "currentStateName": "Tease",
          "audioEvent": {
            "text": "Stop_sfx_monster_Fungus_Amanita_Du_Anudatta_Water_tease"
          }
        },
        {
          "currentStateName": "RamNormal_MoveLoop",
          "audioEvent": {
            "text": "Stop_sfx_monster_Fungus_Amanita_Du_Udatta_Rock_ramMove_Loop"
          },
          "otherStateNames": [
            "RamNormal_MoveLoop"
          ],
          "usage": "Except"
        },
        {
          "currentStateName": "RamOverdose_MoveLoop01",
          "audioEvent": {
            "text": "Stop_sfx_monster_Fungus_Amanita_Du_Udatta_Rock_ramMove_Loop"
          },
          "otherStateNames": [
            "RamOverdose_MoveLoop01"
          ],
          "usage": "Except"
        },
        {
          "currentStateName": "RamOverdose_MoveLoop02",
          "audioEvent": {
            "text": "Stop_sfx_monster_Fungus_Amanita_Du_Udatta_Rock_ramMove_Loop"
          },
          "otherStateNames": [
            "RamOverdose_MoveLoop02"
          ],
          "usage": "Except"
        },
        {
          "currentStateName": "RamOverdose_MoveLoop03",
          "audioEvent": {
            "text": "Stop_sfx_monster_Fungus_Amanita_Du_Udatta_Rock_ramMove_Loop"
          },
          "otherStateNames": [
            "RamOverdose_MoveLoop03"
          ],
          "usage": "Except"
        },
        {
          "currentStateName": "RamDecay_MoveLoop",
          "audioEvent": {
            "text": "Stop_sfx_monster_Fungus_Amanita_Du_Udatta_Rock_ramDecayMove_Loop"
          },
          "otherStateNames": [
            "RamDecay_MoveLoop"
          ],
          "usage": "Except"
        }
      ]
    }
  }
}