{
  "common": {
    "effectAttachShape": {
      "$type": "FJNPJANPGGC",
      "mesh": "EffectMesh"
    },
    "mass": 200.0,
    "viewSize": 3.0,
    "affectedByWorld": true,
    "checkInSurface": true,
    "scale": 1.600000023841858,
    "canTriggerElementReactionText": false,
    "useGrassDisplacement": true,
    "muteElementStickUI": true,
    "reconnectSupport": true,
    "recoverByInitPose": true
  },
  "headControl": {
    "$type": "KPIPDEBDPIH",
    "useHeadControl": true,
    "maxYawDegree": 10.0,
    "maxPitchDegree": 5.0,
    "animStates": [
      "NormalIdle/Standby",
      "Defend_Loop/Defend_Loop"
    ]
  },
  "model": {
    "bornEffect": "",
    "attachEffect": "",
    "BKPFGNPLDNJ": ""
  },
  "dither": {
    "showDitherDuration": 1.0
  },
  "combat": {
    "property": {
      "endureType": "Monster_Minion",
      "weight": 80.0,
      "isLockHP": true
    },
    "beHit": {
      "hitBloodEffect": "",
      "hitAutoRedirect": false,
      "muteAllHitText": true
    },
    "combatLock": {
      "lockShape": "CircleLockEnemy",
      "denyLockOn": true,
      "lockType": "Animal_Lv2"
    },
    "die": {
      "dieForceDisappearTime": 1.0,
      "dieDisappearEffect": "",
      "muteHitBox": true,
      "dieDenyLockOn": true,
      "dieIsGhostToEnemy": true,
      "muteBillboard": true,
      "mutePushCollider": true
    },
    "animEvents": {
      "Attack": {
        "attackPattern": {
          "$type": "GMDIMKKHACA",
          "triggerType": "TriggerNoRepeat",
          "born": {
            "$type": "IAENDIPDFKD",
            "useRotation": true
          },
          "height": 2.0,
          "OAHPDLJIADP": 1.7000000476837158
        },
        "attackInfo": {
          "attackTag": "",
          "attenuationTag": "Tortoise_Attack",
          "attenuationGroup": "Tortoise_Attack",
          "attackProperty": {
            "actorGrassSubHurtDelta": 1.0,
            "actorWindSubHurtDelta": 0.0,
            "IPFJJJGABPL": 100.0,
            "strikeType": "Blunt",
            "enBreak": 120.0,
            "GLKMCMDJBIK": 0.0
          },
          "hitPattern": {
            "onHitEffectName": "default",
            "hitImpulseY": "",
            "hitImpulseType": "LV4",
            "hitHaltTimeScale": 0.05000000074505806
          }
        }
      }
    }
  },
  "abilities": [
    {
      "abilityID": "",
      "abilityName": "Animal_Tortoise_02_Initial",
      "abilityOverride": ""
    }
  ],
  "stateLayers": {
    "defaultLayer": {
      "$type": "GBGJJIIEMBD",
      "layerIndexName": "",
      "CPAANEIJCGD": "",
      "stateIDs": {
        "Born": {
          "$type": "NEDIFAKEGCO",
          "animatorStates": {
            "Born": []
          },
          "canDoSkill": true,
          "resetAnimatorTriggerOnExit": [
            "DoSkill"
          ]
        },
        "NormalIdle": {
          "$type": "NEDIFAKEGCO",
          "animatorStates": {
            "Standby": []
          },
          "canDoSkill": true,
          "canSyncMove": true,
          "resetAnimatorTriggerOnEnter": [
            "AwareBeHit"
          ],
          "resetAnimatorTriggerOnExit": [
            "DoSkill"
          ]
        },
        "NormalMove": {
          "$type": "NEDIFAKEGCO",
          "animatorStates": {
            "Walk": []
          },
          "canDoSkill": true,
          "canSyncMove": true,
          "resetAnimatorTriggerOnExit": [
            "DoSkill"
          ],
          "canSteer": true
        },
        "Die": {
          "$type": "NEDIFAKEGCO",
          "animatorStates": {
            "Die": [],
            "Die_Disappear": []
          },
          "resetAnimatorTriggerOnEnter": [
            "DoSkill"
          ],
          "resetAnimatorTriggerOnExit": [
            "DoSkill"
          ]
        },
        "Personality_101_BS": {
          "$type": "NEDIFAKEGCO",
          "animatorStates": {
            "Personality_101_BS": [
              "Audio_Animal_Tortoise_02_Personality_101_BS"
            ]
          },
          "canDoSkill": true,
          "resetAnimatorTriggerOnExit": [
            "BeHit",
            "DoSkill"
          ]
        },
        "Personality_101_Loop": {
          "$type": "NEDIFAKEGCO",
          "animatorStates": {
            "Personality_101_Loop": []
          },
          "canDoSkill": true,
          "resetAnimatorTriggerOnExit": [
            "BeHit",
            "DoSkill"
          ]
        },
        "Personality_101_AS": {
          "$type": "NEDIFAKEGCO",
          "animatorStates": {
            "Personality_101_AS": [
              "Audio_Animal_Tortoise_02_Personality_101_AS"
            ]
          },
          "canDoSkill": true,
          "resetAnimatorTriggerOnExit": [
            "BeHit",
            "DoSkill"
          ]
        },
        "Personality_102_BS": {
          "$type": "NEDIFAKEGCO",
          "animatorStates": {
            "Personality_102_BS": [
              "Audio_Animal_Tortoise_02_Personality_102_BS"
            ]
          },
          "canDoSkill": true,
          "resetAnimatorTriggerOnExit": [
            "BeHit",
            "DoSkill"
          ]
        },
        "Personality_102_Loop": {
          "$type": "NEDIFAKEGCO",
          "animatorStates": {
            "Personality_102_Loop": []
          },
          "canDoSkill": true,
          "resetAnimatorTriggerOnExit": [
            "BeHit",
            "DoSkill"
          ]
        },
        "Personality_102_AS": {
          "$type": "NEDIFAKEGCO",
          "animatorStates": {
            "Personality_102_AS": [
              "Audio_Animal_Tortoise_02_Personality_102_AS"
            ]
          },
          "canDoSkill": true,
          "resetAnimatorTriggerOnExit": [
            "BeHit",
            "DoSkill"
          ]
        },
        "Standby_Defend_AS": {
          "$type": "NEDIFAKEGCO",
          "animatorStates": {
            "Standby_Defend_AS": [
              "Audio_Tortoise_01_Defend_AS"
            ]
          },
          "resetAnimatorTriggerOnExit": [
            "BeHit",
            "DoSkill"
          ]
        },
        "Standby_Defend_Loop": {
          "$type": "NEDIFAKEGCO",
          "animatorStates": {
            "Standby_Defend_Loop": []
          },
          "resetAnimatorTriggerOnExit": [
            "BeHit",
            "DoSkill"
          ]
        },
        "Standby_Defend_BS": {
          "$type": "NEDIFAKEGCO",
          "animatorStates": {
            "Standby_Defend_BS": [
              "Audio_Animal_Tortoise_02_Standby_Defend_BS"
            ]
          },
          "resetAnimatorTriggerOnExit": [
            "BeHit",
            "DoSkill"
          ]
        },
        "Defend_BS": {
          "$type": "NEDIFAKEGCO",
          "animatorStates": {
            "Defend_BS": [
              "Audio_Tortoise_01_Defend_BS"
            ]
          },
          "resetAnimatorTriggerOnExit": [
            "BeHit",
            "DoSkill"
          ]
        },
        "Defend_Loop": {
          "$type": "NEDIFAKEGCO",
          "animatorStates": {
            "Defend_Loop": []
          },
          "resetAnimatorTriggerOnEnter": [
            "AwareBeHit"
          ],
          "resetAnimatorTriggerOnExit": [
            "BeHit",
            "DoSkill"
          ],
          "handleAnimatorStateImmediately": true
        },
        "Defend_AS": {
          "$type": "NEDIFAKEGCO",
          "animatorStates": {
            "Defend_AS": [
              "Audio_Animal_Tortoise_02_Standby_Defend_AS"
            ]
          },
          "resetAnimatorTriggerOnExit": [
            "BeHit",
            "DoSkill"
          ],
          "handleAnimatorStateImmediately": true
        },
        "Attack_BS": {
          "$type": "NEDIFAKEGCO",
          "animatorStates": {
            "Attack_BS": [
              "Animal_Tortoise_Attack_BS",
              "Audio_Animal_Tortoise_02_Attack_BS"
            ]
          },
          "resetAnimatorTriggerOnExit": [
            "BeHit",
            "DoSkill"
          ]
        },
        "Attack_Loop": {
          "$type": "NEDIFAKEGCO",
          "animatorStates": {
            "Attack_Loop": [
              "Animal_Tortoise_Attack"
            ]
          },
          "resetAnimatorTriggerOnExit": [
            "BeHit",
            "DoSkill"
          ],
          "handleAnimatorStateImmediately": true
        },
        "Attack_AS": {
          "$type": "NEDIFAKEGCO",
          "animatorStates": {
            "Attack_AS": [
              "Audio_Animal_Tortoise_02_Attack_AS"
            ]
          },
          "resetAnimatorTriggerOnExit": [
            "BeHit",
            "DoSkill"
          ],
          "handleAnimatorStateImmediately": true
        }
      }
    }
  },
  "initialPoses": {
    "Default": {},
    "IdleNoMove": {
      "initialPoseID": 11,
      "initialPoseParams": {
        "boolParams": {
          "WanderState": "false"
        }
      }
    }
  },
  "aibeta": {
    "enable": true,
    "friendliness": 1,
    "sensing": {
      "settings": {
        "DefaultSetting": {
          "viewRange": 7.0,
          "horizontalFov": 90.0,
          "verticalFov": 45.0
        }
      }
    },
    "threat": {
      "GHIJMOKOLMB": "",
      "clearThreatTargetDistance": 10.0,
      "clearThreatTimerByDistance": 1.0,
      "viewThreatGrow": 30.0,
      "feelThreatGrow": 30.0,
      "threatDecreaseSpeed": 500.0
    },
    "defendArea": {
      "defendRange": 30.0
    },
    "ui": {
      "hasDirectionIndicator": false,
      "HMNNBFDEHLG": ""
    },
    "skillGroupCDConfigs": [
      {
        "skillGroupCDID": 0,
        "skillGroupCDTime": 25.0
      }
    ],
    "skills": {
      "101": {
        "name": "Personality_101",
        "skillType": "Free",
        "castCondition": {
          "pose": [
            1
          ]
        },
        "cd": 5.0,
        "cdUpperRange": 7.5,
        "initialCD": 5.0,
        "initialCDUpperRange": 7.5,
        "publicCDGroup": "",
        "skillGroupCDID": 0,
        "HHAGODJIAPE": "",
        "stateIDs": [
          "Personality_101_BS",
          "Personality_101_Loop",
          "Personality_101_AS"
        ],
        "flagTargetReachable": "10",
        "flagSelfOnTemplateCollider": "01",
        "flagSelfInZone": "10",
        "flagTargetInZone": "11"
      },
      "102": {
        "name": "Personality_102",
        "skillType": "Free",
        "castCondition": {
          "pose": [
            1
          ]
        },
        "cd": 5.0,
        "cdUpperRange": 7.5,
        "initialCD": 5.0,
        "initialCDUpperRange": 7.5,
        "publicCDGroup": "",
        "skillGroupCDID": 0,
        "HHAGODJIAPE": "",
        "stateIDs": [
          "Personality_102_BS",
          "Personality_102_Loop",
          "Personality_102_AS"
        ],
        "flagTargetReachable": "10",
        "flagSelfOnTemplateCollider": "01",
        "flagSelfInZone": "10",
        "flagTargetInZone": "11"
      }
    },
    "skillGCD": 10.0,
    "birdCirclingTactic": [
      {
        "$type": "NNJKLGNPMNN",
        "enable": true,
        "JMCOBEPDIGM": {
          "ANLAAGAMIKF": 1,
          "OJGLKPBCLGB": 9.0,
          "MNPDDAKDHGK": "",
          "GJDMDHIBCME": ""
        }
      },
      {
        "$type": "FPELBIJFGCE",
        "enable": true,
        "condition": {
          "pose": [
            1
          ]
        },
        "JMCOBEPDIGM": {
          "NBENNEKDIIA": 0.10000000149011612,
          "KPNDPKIOPJM": 17.5,
          "PINAFKEDDLL": 12.5,
          "ANMPOPEBDIA": 5.0,
          "GMJFIMFFOEL": 3.0,
          "CHCPFDMADEI": 5.0,
          "MNPDDAKDHGK": ""
        }
      }
    ]
  },
  "inputKeys": [
    {
      "keyID": 101,
      "inputKeyCode": 257,
      "abilityName": ""
    },
    {
      "keyID": 102,
      "inputKeyCode": 258,
      "abilityName": ""
    }
  ],
  "move": {
    "$type": "IPNMJMHDMPF",
    "velocityForce": {
      "excludeForces": [
        "RetreatAirType",
        "WindZoneType"
      ]
    },
    "moveOnWaterDepth": 0.5,
    "OGBEFBMLJJI": true,
    "yawSpeedRatio": 0.10000000149011612,
    "PKHOMJHFAEE": "RootNode"
  },
  "audio": {
    "overrideEmitterName": "",
    "animAudio": {
      "onTransitionIn": [
        {
          "currentStateName": "Attack_Loop",
          "audioEvent": {
            "text": "Play_Sfx_Animal_Tortoise_02_Attack_Loop_LP"
          },
          "otherStateNames": [
            "Attack_Loop"
          ],
          "usage": "Except"
        },
        {
          "currentStateName": "Walk",
          "audioEvent": {
            "text": "Play_Sfx_Animal_Tortoise_02_Walk_LP"
          },
          "otherStateNames": [
            "Walk"
          ],
          "usage": "Except"
        }
      ],
      "onTransitionOut": [
        {
          "currentStateName": "Attack_Loop",
          "audioEvent": {
            "text": "Stop_Sfx_Animal_Tortoise_02_Attack_Loop_LP"
          },
          "otherStateNames": [
            "Attack_Loop"
          ],
          "usage": "Except"
        },
        {
          "currentStateName": "Walk",
          "audioEvent": {
            "text": "Stop_Sfx_Animal_Tortoise_02_Walk_LP"
          },
          "otherStateNames": [
            "Walk"
          ],
          "usage": "Except"
        }
      ]
    }
  },
  "field": {
    "concernType": "AllAvatars",
    "shape": "CircleR10",
    "ignoreScale": true,
    "fromShape": "",
    "triggerInfinite": true,
    "lifeInfinite": true,
    "checkInterval": 0.10000000149011612,
    "colliderName": "",
    "fromColliderName": ""
  },
  "captureGroup": {
    "defaultConfig": {
      "captureEffect": "Eff_SceneObj_CatchAnimal_CaughtSuccess"
    }
  }
}