{
  "common": {
    "effectAttachShape": {
      "$type": "FJNPJANPGGC",
      "mesh": "EffectMesh"
    },
    "mass": 1000000.0,
    "height": 4.199999809265137,
    "viewSize": 3.75,
    "affectedByWorld": true,
    "checkInSurface": true,
    "scale": 1.5,
    "useGrassDisplacement": true,
    "clearAnimatorOnSetLightDeactive": true,
    "clearAIOnSetLightDeactive": true
  },
  "specialPoint": {
    "elementAbsorb": "RootNode",
    "elementPendant": "",
    "elementDrop": "Chest",
    "bulletAim": "Chest"
  },
  "model": {
    "bornEffect": "",
    "attachEffect": "",
    "canBakeMesh": false,
    "BKPFGNPLDNJ": ""
  },
  "dither": {
    "showDitherDuration": 2.0,
    "normalBetweenCamera": {
      "detectDitherRange": 5.0
    }
  },
  "combat": {
    "property": {
      "endureType": "Monster_Boss_Other",
      "weight": 300.0
    },
    "beHit": {
      "hitBloodEffect": "",
      "hitAutoRedirect": false
    },
    "combatLock": {
      "lockShape": "CircleLockEnemy",
      "lockType": "Avatar&Monster_Lv4"
    },
    "die": {
      "hasAnimatorDie": true,
      "dieEndTime": 2.0,
      "dieForceDisappearTime": 4.0,
      "dieDisappearEffect": "Eff_Death_Common",
      "dieShaderData": "MonsterDie",
      "useRagDoll": true,
      "muteHitBox": true,
      "dieDenyLockOn": true,
      "dieIsGhostToEnemy": true,
      "dieIgnoreTriggerBullet": true,
      "muteBillboard": true,
      "mutePushCollider": true
    },
    "animEvents": {
      "StampAtk": {
        "attackPattern": {
          "$type": "GMDIMKKHACA",
          "triggerType": "TriggerNoRepeat",
          "born": {
            "$type": "IAENDIPDFKD",
            "offset": {
              "KGEPIMHBMOL": 1.0,
              "JEBHCGDPFEJ": 0.0,
              "LPCHALMFFOD": 1.5
            }
          },
          "height": 2.0,
          "OAHPDLJIADP": 3.5
        },
        "attackInfo": {
          "attackTag": "",
          "attenuationTag": "",
          "attenuationGroup": "default",
          "attackProperty": {
            "actorGrassSubHurtDelta": 0.4000000059604645,
            "actorWindSubHurtDelta": 0.0,
            "IPFJJJGABPL": 100.0,
            "strikeType": "Blunt",
            "enBreak": 200.0,
            "GLKMCMDJBIK": 0.0
          },
          "hitPattern": {
            "onHitEffectName": "default",
            "hitImpulseY": "",
            "hitImpulseType": "LV4"
          },
          "forceCameraShake": true,
          "cameraShake": {
            "shakeType": "CustomVector",
            "shakeRange": 0.4000000059604645,
            "shakeTime": 0.15000000596046448,
            "shakeDistance": 30.0,
            "shakeDir": {
              "y": -1.0
            }
          }
        }
      },
      "StampAtkTwice": {
        "attackPattern": {
          "$type": "GMDIMKKHACA",
          "triggerType": "TriggerNoRepeat",
          "born": {
            "$type": "IAENDIPDFKD",
            "offset": {
              "KGEPIMHBMOL": 1.0,
              "JEBHCGDPFEJ": 0.0,
              "LPCHALMFFOD": 1.5
            }
          },
          "height": 2.0,
          "OAHPDLJIADP": 7.0
        },
        "attackInfo": {
          "attackTag": "",
          "attenuationTag": "",
          "attenuationGroup": "default",
          "attackProperty": {
            "actorGrassSubHurtDelta": 0.699999988079071,
            "actorWindSubHurtDelta": 0.0,
            "IPFJJJGABPL": 100.0,
            "strikeType": "Blunt",
            "enBreak": 200.0,
            "GLKMCMDJBIK": 0.0
          },
          "hitPattern": {
            "onHitEffectName": "default",
            "hitImpulseY": "",
            "hitImpulseType": "LV5"
          },
          "forceCameraShake": true,
          "cameraShake": {
            "shakeType": "CustomVector",
            "shakeRange": 0.4000000059604645,
            "shakeTime": 0.15000000596046448,
            "shakeDistance": 30.0,
            "shakeDir": {
              "y": -1.0
            }
          }
        }
      },
      "LegAtk": {
        "attackPattern": {
          "$type": "GMDIMKKHACA",
          "triggerType": "TriggerNoRepeat",
          "born": {
            "$type": "IAENDIPDFKD",
            "offset": {
              "KGEPIMHBMOL": 1.5,
              "JEBHCGDPFEJ": 0.0,
              "LPCHALMFFOD": 3.0
            }
          },
          "height": 2.0,
          "OAHPDLJIADP": 5.0
        },
        "attackInfo": {
          "attackTag": "",
          "attenuationTag": "",
          "attenuationGroup": "default",
          "attackProperty": {
            "actorGrassSubHurtDelta": 0.699999988079071,
            "actorWindSubHurtDelta": 0.0,
            "IPFJJJGABPL": 100.0,
            "strikeType": "Blunt",
            "enBreak": 200.0,
            "GLKMCMDJBIK": 0.0
          },
          "hitPattern": {
            "onHitEffectName": "default",
            "hitImpulseY": "",
            "hitImpulseType": "LV5"
          },
          "forceCameraShake": true,
          "cameraShake": {
            "shakeType": "CustomVector",
            "shakeRange": 0.4000000059604645,
            "shakeTime": 0.15000000596046448,
            "shakeDistance": 30.0,
            "shakeDir": {
              "y": -1.0
            }
          }
        }
      },
      "LegAtk2": {
        "attackPattern": {
          "$type": "GMDIMKKHACA",
          "triggerType": "TriggerNoRepeat",
          "born": {
            "$type": "IAENDIPDFKD",
            "offset": {
              "KGEPIMHBMOL": -1.5,
              "JEBHCGDPFEJ": 0.0,
              "LPCHALMFFOD": 3.0
            }
          },
          "height": 2.0,
          "OAHPDLJIADP": 5.0
        },
        "attackInfo": {
          "attackTag": "",
          "attenuationTag": "",
          "attenuationGroup": "default",
          "attackProperty": {
            "actorGrassSubHurtDelta": 0.699999988079071,
            "actorWindSubHurtDelta": 0.0,
            "IPFJJJGABPL": 100.0,
            "strikeType": "Blunt",
            "enBreak": 200.0,
            "GLKMCMDJBIK": 0.0
          },
          "hitPattern": {
            "onHitEffectName": "default",
            "hitImpulseY": "",
            "hitImpulseType": "LV5"
          },
          "forceCameraShake": true,
          "cameraShake": {
            "shakeType": "CustomVector",
            "shakeRange": 0.4000000059604645,
            "shakeTime": 0.15000000596046448,
            "shakeDistance": 30.0,
            "shakeDir": {
              "y": -1.0
            }
          }
        }
      },
      "Enhance": {
        "attackPattern": {
          "$type": "GMDIMKKHACA",
          "triggerType": "TriggerNoRepeat",
          "born": {
            "$type": "IAENDIPDFKD",
            "offset": {
              "KGEPIMHBMOL": 0.0,
              "JEBHCGDPFEJ": 0.0,
              "LPCHALMFFOD": 0.0
            }
          },
          "height": 10.0,
          "OAHPDLJIADP": 7.5
        },
        "attackInfo": {
          "attackTag": "",
          "attenuationTag": "",
          "attenuationGroup": "default",
          "attackProperty": {
            "actorGrassSubHurtDelta": 0.699999988079071,
            "actorWindSubHurtDelta": 0.0,
            "IPFJJJGABPL": 100.0,
            "strikeType": "Blunt",
            "enBreak": 200.0,
            "GLKMCMDJBIK": 0.0
          },
          "hitPattern": {
            "onHitEffectName": "default",
            "hitImpulseY": "",
            "hitImpulseType": "LV4"
          },
          "forceCameraShake": true,
          "cameraShake": {
            "shakeType": "CustomVector",
            "shakeRange": 0.6000000238418579,
            "shakeTime": 0.20000000298023224,
            "shakeDistance": 30.0,
            "shakeDir": {
              "y": -1.0
            }
          }
        }
      },
      "Enhance2": {
        "attackPattern": {
          "$type": "BELNOFAKNBA",
          "triggerType": "TriggerNoRepeat",
          "born": {
            "$type": "IAENDIPDFKD",
            "offset": {
              "KGEPIMHBMOL": 0.0,
              "JEBHCGDPFEJ": 0.0,
              "LPCHALMFFOD": 2.0
            }
          },
          "OAHPDLJIADP": 12.0
        },
        "attackInfo": {
          "attackTag": "",
          "attenuationTag": "",
          "attenuationGroup": "default",
          "attackProperty": {
            "actorGrassSubHurtDelta": 0.10000000149011612,
            "actorWindSubHurtDelta": 0.0,
            "IPFJJJGABPL": 100.0,
            "strikeType": "Blunt",
            "enBreak": 1000.0,
            "GLKMCMDJBIK": 0.0
          },
          "hitPattern": {
            "onHitEffectName": "",
            "hitImpulseY": "",
            "hitImpulseType": "LV9",
            "hitHaltTimeScale": 0.05000000074505806
          }
        }
      },
      "SwipeAtk": {
        "attackPattern": {
          "$type": "BELNOFAKNBA",
          "triggerType": "TriggerNoRepeat",
          "born": {
            "$type": "KLPANPDGHHA",
            "offset": {
              "KGEPIMHBMOL": 0.0,
              "JEBHCGDPFEJ": 0.0,
              "LPCHALMFFOD": 0.20000000298023224
            },
            "attachPointName": "RightHand"
          },
          "OAHPDLJIADP": 2.5
        },
        "attackInfo": {
          "attackTag": "",
          "attenuationTag": "",
          "attenuationGroup": "default",
          "attackProperty": {
            "actorGrassSubHurtDelta": 0.5,
            "actorWindSubHurtDelta": 0.0,
            "IPFJJJGABPL": 100.0,
            "strikeType": "Blunt",
            "enBreak": 200.0,
            "GLKMCMDJBIK": 0.0
          },
          "hitPattern": {
            "onHitEffectName": "default",
            "hitImpulseY": "",
            "hitImpulseType": "LV5"
          },
          "forceCameraShake": true,
          "cameraShake": {
            "shakeRange": 0.4000000059604645,
            "shakeTime": 0.18000000715255737,
            "shakeDistance": 30.0
          }
        }
      },
      "ArmAtk": {
        "attackPattern": {
          "$type": "GMDIMKKHACA",
          "triggerType": "TriggerNoRepeat",
          "born": {
            "$type": "IAENDIPDFKD",
            "offset": {
              "KGEPIMHBMOL": 0.0,
              "JEBHCGDPFEJ": 0.0,
              "LPCHALMFFOD": 5.0
            }
          },
          "height": 5.0,
          "OAHPDLJIADP": 3.5
        },
        "attackInfo": {
          "attackTag": "",
          "attenuationTag": "",
          "attenuationGroup": "default",
          "attackProperty": {
            "actorGrassSubHurtDelta": 0.30000001192092896,
            "actorWindSubHurtDelta": 0.0,
            "IPFJJJGABPL": 100.0,
            "strikeType": "Blunt",
            "enBreak": 200.0,
            "GLKMCMDJBIK": 0.0
          },
          "hitPattern": {
            "onHitEffectName": "default",
            "hitImpulseY": "",
            "hitImpulseType": "LV4",
            "overrideHitImpulse": {
              "hitLevel": "Heavy",
              "IMIJMPGJOGG": 700.0,
              "BPCDKKBKOBM": 0.0
            },
            "forceRetreat": true
          },
          "forceCameraShake": true,
          "cameraShake": {
            "shakeRange": 0.4000000059604645,
            "shakeTime": 0.18000000715255737,
            "shakeDistance": 30.0
          }
        }
      },
      "ArmAtk2": {
        "attackPattern": {
          "$type": "GMDIMKKHACA",
          "triggerType": "TriggerNoRepeat",
          "born": {
            "$type": "IAENDIPDFKD",
            "offset": {
              "KGEPIMHBMOL": 0.0,
              "JEBHCGDPFEJ": 0.0,
              "LPCHALMFFOD": 5.0
            }
          },
          "height": 5.0,
          "OAHPDLJIADP": 3.5
        },
        "attackInfo": {
          "attackTag": "",
          "attenuationTag": "",
          "attenuationGroup": "default",
          "attackProperty": {
            "actorGrassSubHurtDelta": 0.30000001192092896,
            "actorWindSubHurtDelta": 0.0,
            "IPFJJJGABPL": 100.0,
            "strikeType": "Blunt",
            "enBreak": 200.0,
            "GLKMCMDJBIK": 0.0
          },
          "hitPattern": {
            "onHitEffectName": "default",
            "hitImpulseY": "",
            "hitImpulseType": "LV5",
            "overrideHitImpulse": {
              "hitLevel": "Heavy",
              "IMIJMPGJOGG": 800.0,
              "BPCDKKBKOBM": 0.0
            },
            "forceRetreat": true
          },
          "forceCameraShake": true,
          "cameraShake": {
            "shakeRange": 0.4000000059604645,
            "shakeTime": 0.18000000715255737,
            "shakeDistance": 30.0
          }
        }
      },
      "ArmAtk3": {
        "attackPattern": {
          "$type": "GMDIMKKHACA",
          "triggerType": "TriggerNoRepeat",
          "born": {
            "$type": "IAENDIPDFKD",
            "offset": {
              "KGEPIMHBMOL": 0.0,
              "JEBHCGDPFEJ": 0.0,
              "LPCHALMFFOD": 5.0
            }
          },
          "height": 5.0,
          "OAHPDLJIADP": 4.0
        },
        "attackInfo": {
          "attackTag": "",
          "attenuationTag": "",
          "attenuationGroup": "default",
          "attackProperty": {
            "actorGrassSubHurtDelta": 0.5,
            "actorWindSubHurtDelta": 0.0,
            "IPFJJJGABPL": 100.0,
            "strikeType": "Blunt",
            "enBreak": 300.0,
            "GLKMCMDJBIK": 0.0
          },
          "hitPattern": {
            "onHitEffectName": "default",
            "hitImpulseY": "",
            "hitImpulseType": "LV6"
          },
          "forceCameraShake": true,
          "cameraShake": {
            "shakeRange": 0.4000000059604645,
            "shakeTime": 0.18000000715255737,
            "shakeDistance": 30.0
          }
        }
      },
      "ArmAtk4": {
        "attackPattern": {
          "$type": "BELNOFAKNBA",
          "triggerType": "TriggerNoRepeat",
          "born": {
            "$type": "IAENDIPDFKD",
            "offset": {
              "KGEPIMHBMOL": 0.0,
              "JEBHCGDPFEJ": 0.0,
              "LPCHALMFFOD": 8.5
            }
          },
          "OAHPDLJIADP": 5.0
        },
        "attackInfo": {
          "attackTag": "",
          "attenuationTag": "",
          "attenuationGroup": "default",
          "attackProperty": {
            "actorGrassSubHurtDelta": 0.20000000298023224,
            "actorWindSubHurtDelta": 0.0,
            "IPFJJJGABPL": 100.0,
            "strikeType": "Pierce",
            "enBreak": 200.0,
            "GLKMCMDJBIK": 0.0
          },
          "hitPattern": {
            "onHitEffectName": "",
            "hitImpulseY": "",
            "hitImpulseType": "LV5",
            "hitHaltTimeScale": 0.05000000074505806
          }
        }
      },
      "Destroy_Move_RightFoot": {
        "attackPattern": {
          "$type": "BELNOFAKNBA",
          "triggerType": "TriggerNoRepeat",
          "born": {
            "$type": "KLPANPDGHHA",
            "offset": {
              "KGEPIMHBMOL": 0.0,
              "JEBHCGDPFEJ": 0.0,
              "LPCHALMFFOD": 0.20000000298023224
            },
            "attachPointName": "RightFoot"
          },
          "OAHPDLJIADP": 2.0
        },
        "attackInfo": {
          "attackTag": "",
          "attenuationTag": "",
          "attenuationGroup": "default",
          "attackProperty": {
            "actorGrassSubHurtDelta": 0.20000000298023224,
            "actorWindSubHurtDelta": 0.0,
            "IPFJJJGABPL": 100.0,
            "strikeType": "Blunt",
            "enBreak": 50.0,
            "GLKMCMDJBIK": 0.0
          },
          "hitPattern": {
            "onHitEffectName": "default",
            "hitImpulseY": "",
            "hitImpulseType": "LV5"
          },
          "forceCameraShake": true,
          "cameraShake": {
            "shakeRange": 0.4000000059604645,
            "shakeTime": 0.18000000715255737,
            "shakeDistance": 30.0
          }
        }
      },
      "Destroy_Move_LeftFoot": {
        "attackPattern": {
          "$type": "BELNOFAKNBA",
          "triggerType": "TriggerNoRepeat",
          "born": {
            "$type": "KLPANPDGHHA",
            "offset": {
              "KGEPIMHBMOL": 0.0,
              "JEBHCGDPFEJ": 0.0,
              "LPCHALMFFOD": 0.20000000298023224
            },
            "attachPointName": "LeftFoot"
          },
          "OAHPDLJIADP": 2.0
        },
        "attackInfo": {
          "attackTag": "",
          "attenuationTag": "",
          "attenuationGroup": "default",
          "attackProperty": {
            "actorGrassSubHurtDelta": 0.20000000298023224,
            "actorWindSubHurtDelta": 0.0,
            "IPFJJJGABPL": 100.0,
            "strikeType": "Blunt",
            "enBreak": 50.0,
            "GLKMCMDJBIK": 0.0
          },
          "hitPattern": {
            "onHitEffectName": "default",
            "hitImpulseY": "",
            "hitImpulseType": "LV5"
          },
          "forceCameraShake": true,
          "cameraShake": {
            "shakeRange": 0.4000000059604645,
            "shakeTime": 0.18000000715255737,
            "shakeDistance": 30.0
          }
        }
      },
      "Destroy_Atk_RightFoot": {
        "attackPattern": {
          "$type": "BELNOFAKNBA",
          "triggerType": "TriggerNoRepeat",
          "born": {
            "$type": "KLPANPDGHHA",
            "offset": {
              "KGEPIMHBMOL": -1.2000000476837158,
              "JEBHCGDPFEJ": 0.0,
              "LPCHALMFFOD": -0.20000000298023224
            },
            "attachPointName": "RightFoot"
          },
          "OAHPDLJIADP": 3.799999952316284
        },
        "attackInfo": {
          "attackTag": "DestroyAtk",
          "attenuationTag": "",
          "attenuationGroup": "default",
          "attackProperty": {
            "actorGrassSubHurtDelta": 0.4000000059604645,
            "actorWindSubHurtDelta": 0.0,
            "IPFJJJGABPL": 100.0,
            "strikeType": "Blunt",
            "enBreak": 200.0,
            "GLKMCMDJBIK": 0.0
          },
          "hitPattern": {
            "onHitEffectName": "default",
            "hitImpulseY": "",
            "hitImpulseType": "LV5"
          },
          "forceCameraShake": true,
          "cameraShake": {
            "shakeRange": 0.4000000059604645,
            "shakeTime": 0.18000000715255737,
            "shakeDistance": 30.0
          }
        }
      },
      "Destroy_Atk_LeftFoot": {
        "attackPattern": {
          "$type": "BELNOFAKNBA",
          "triggerType": "TriggerNoRepeat",
          "born": {
            "$type": "KLPANPDGHHA",
            "offset": {
              "KGEPIMHBMOL": 0.0,
              "JEBHCGDPFEJ": 0.0,
              "LPCHALMFFOD": 1.2000000476837158
            },
            "attachPointName": "LeftFoot"
          },
          "OAHPDLJIADP": 3.799999952316284
        },
        "attackInfo": {
          "attackTag": "DestroyAtk",
          "attenuationTag": "",
          "attenuationGroup": "default",
          "attackProperty": {
            "actorGrassSubHurtDelta": 0.4000000059604645,
            "actorWindSubHurtDelta": 0.0,
            "IPFJJJGABPL": 100.0,
            "strikeType": "Blunt",
            "enBreak": 200.0,
            "GLKMCMDJBIK": 0.0
          },
          "hitPattern": {
            "onHitEffectName": "default",
            "hitImpulseY": "",
            "hitImpulseType": "LV5"
          },
          "forceCameraShake": true,
          "cameraShake": {
            "shakeRange": 0.4000000059604645,
            "shakeTime": 0.18000000715255737,
            "shakeDistance": 30.0
          }
        }
      },
      "Destroy_Atk_Arm": {
        "attackPattern": {
          "$type": "GMDIMKKHACA",
          "triggerType": "TriggerNoRepeat",
          "born": {
            "$type": "IAENDIPDFKD",
            "offset": {
              "KGEPIMHBMOL": 0.0,
              "JEBHCGDPFEJ": 0.0,
              "LPCHALMFFOD": 2.5
            }
          },
          "height": 4.0,
          "OAHPDLJIADP": 2.5
        },
        "attackInfo": {
          "attackTag": "DestroyAtk",
          "attenuationTag": "",
          "attenuationGroup": "default",
          "attackProperty": {
            "actorGrassSubHurtDelta": 0.30000001192092896,
            "actorWindSubHurtDelta": 0.0,
            "IPFJJJGABPL": 100.0,
            "strikeType": "Blunt",
            "enBreak": 1000.0,
            "GLKMCMDJBIK": 0.0
          },
          "hitPattern": {
            "onHitEffectName": "default",
            "hitImpulseY": "",
            "hitImpulseType": "LV4"
          }
        }
      },
      "SwipeLaser": {
        "attackPattern": {
          "$type": "GMDIMKKHACA",
          "triggerType": "TriggerNoRepeat",
          "born": {
            "$type": "IAENDIPDFKD",
            "offset": {
              "KGEPIMHBMOL": 0.0,
              "JEBHCGDPFEJ": 0.15000000596046448,
              "LPCHALMFFOD": 0.0
            }
          },
          "height": 1.75,
          "OAHPDLJIADP": 10.5,
          "MMBCLAEOEFB": 7.5
        },
        "attackInfo": {
          "attackTag": "",
          "attenuationTag": "",
          "attenuationGroup": "default",
          "attackProperty": {
            "actorGrassSubHurtDelta": 0.800000011920929,
            "actorWindSubHurtDelta": 0.0,
            "IPFJJJGABPL": 100.0,
            "strikeType": "Blunt",
            "enBreak": 100.0,
            "GLKMCMDJBIK": 0.0
          },
          "hitPattern": {
            "onHitEffectName": "default",
            "hitImpulseY": "",
            "hitImpulseType": "LV6",
            "hitHaltTime": 0.009999999776482582,
            "hitHaltTimeScale": 0.05000000074505806
          },
          "cameraShake": {
            "shakeRange": 0.11999999731779099,
            "shakeTime": 0.11999999731779099,
            "shakeDistance": 25.0
          }
        }
      },
      "DashAtk_BS": {
        "attackPattern": {
          "$type": "GMDIMKKHACA",
          "triggerType": "TriggerNoRepeat",
          "born": {
            "$type": "IAENDIPDFKD",
            "offset": {
              "KGEPIMHBMOL": 0.0,
              "JEBHCGDPFEJ": 0.0,
              "LPCHALMFFOD": 0.0
            }
          },
          "OAHPDLJIADP": 5.0
        },
        "attackInfo": {
          "attackTag": "",
          "attenuationTag": "",
          "attenuationGroup": "default",
          "attackProperty": {
            "actorGrassSubHurtDelta": 0.4000000059604645,
            "actorWindSubHurtDelta": 0.0,
            "IPFJJJGABPL": 100.0,
            "strikeType": "Blunt",
            "enBreak": 1000.0,
            "GLKMCMDJBIK": 0.0
          },
          "hitPattern": {
            "onHitEffectName": "default",
            "hitImpulseY": "",
            "hitImpulseType": "LV5"
          },
          "forceCameraShake": true,
          "cameraShake": {
            "shakeRange": 0.11999999731779099,
            "shakeTime": 0.11999999731779099,
            "shakeDistance": 25.0
          }
        }
      },
      "DashAtk_Loop": {
        "attackPattern": {
          "$type": "JHKEHNJBMOF",
          "triggerType": "TriggerNoRepeat",
          "born": {
            "$type": "IAENDIPDFKD",
            "offset": {
              "KGEPIMHBMOL": 0.0,
              "JEBHCGDPFEJ": 2.0,
              "LPCHALMFFOD": 0.0
            }
          },
          "size": {
            "KGEPIMHBMOL": 3.4000000953674316,
            "JEBHCGDPFEJ": 4.0,
            "LPCHALMFFOD": 4.800000190734863
          }
        },
        "attackInfo": {
          "attackTag": "",
          "attenuationTag": "",
          "attenuationGroup": "default",
          "attackProperty": {
            "actorGrassSubHurtDelta": 0.30000001192092896,
            "actorWindSubHurtDelta": 0.0,
            "IPFJJJGABPL": 100.0,
            "strikeType": "Blunt",
            "enBreak": 1000.0,
            "GLKMCMDJBIK": 0.0
          },
          "hitPattern": {
            "onHitEffectName": "default",
            "hitImpulseY": "",
            "hitImpulseType": "LV4",
            "retreatType": "ByHitDirection",
            "hitHaltTime": 0.05999999865889549,
            "hitHaltTimeScale": 0.009999999776482582
          },
          "cameraShake": {
            "shakeType": "HitVector",
            "shakeRange": 0.1599999964237213,
            "shakeTime": 0.11999999731779099,
            "shakeDistance": 25.0,
            "shakeDir": {
              "z": 1.0
            }
          }
        }
      },
      "DashAtk_AS": {
        "attackPattern": {
          "$type": "GMDIMKKHACA",
          "triggerType": "TriggerNoRepeat",
          "born": {
            "$type": "IAENDIPDFKD",
            "offset": {
              "KGEPIMHBMOL": 0.0,
              "JEBHCGDPFEJ": 0.0,
              "LPCHALMFFOD": 1.0
            }
          },
          "OAHPDLJIADP": 5.0
        },
        "attackInfo": {
          "attackTag": "",
          "attenuationTag": "",
          "attenuationGroup": "default",
          "attackProperty": {
            "actorGrassSubHurtDelta": 0.4000000059604645,
            "actorWindSubHurtDelta": 0.0,
            "IPFJJJGABPL": 100.0,
            "strikeType": "Blunt",
            "enBreak": 1000.0,
            "GLKMCMDJBIK": 0.0
          },
          "hitPattern": {
            "onHitEffectName": "default",
            "hitImpulseY": "",
            "hitImpulseType": "LV5"
          },
          "forceCameraShake": true,
          "cameraShake": {
            "shakeRange": 0.11999999731779099,
            "shakeTime": 0.11999999731779099,
            "shakeDistance": 25.0
          }
        }
      },
      "RunningAtk_BS": {
        "attackPattern": {
          "$type": "GMDIMKKHACA",
          "triggerType": "TriggerNoRepeat",
          "born": {
            "$type": "IAENDIPDFKD",
            "offset": {
              "KGEPIMHBMOL": 0.0,
              "JEBHCGDPFEJ": 0.0,
              "LPCHALMFFOD": 7.0
            }
          },
          "height": 5.0,
          "OAHPDLJIADP": 3.0
        },
        "attackInfo": {
          "attackTag": "",
          "attenuationTag": "",
          "attenuationGroup": "default",
          "attackProperty": {
            "actorGrassSubHurtDelta": 0.4000000059604645,
            "actorWindSubHurtDelta": 0.0,
            "IPFJJJGABPL": 100.0,
            "strikeType": "Blunt",
            "enBreak": 1000.0,
            "GLKMCMDJBIK": 0.0
          },
          "hitPattern": {
            "onHitEffectName": "default",
            "hitImpulseY": "",
            "hitImpulseType": "LV5"
          },
          "forceCameraShake": true,
          "cameraShake": {
            "shakeRange": 0.11999999731779099,
            "shakeTime": 0.11999999731779099,
            "shakeDistance": 25.0
          }
        }
      },
      "RunningAtk_Loop": {
        "attackPattern": {
          "$type": "JHKEHNJBMOF",
          "triggerType": "TriggerNoRepeat",
          "born": {
            "$type": "IAENDIPDFKD",
            "offset": {
              "KGEPIMHBMOL": 0.0,
              "JEBHCGDPFEJ": 2.0,
              "LPCHALMFFOD": 0.0
            }
          },
          "size": {
            "KGEPIMHBMOL": 3.4000000953674316,
            "JEBHCGDPFEJ": 4.0,
            "LPCHALMFFOD": 10.0
          }
        },
        "attackInfo": {
          "attackTag": "",
          "attenuationTag": "",
          "attenuationGroup": "default",
          "attackProperty": {
            "actorGrassSubHurtDelta": 0.30000001192092896,
            "actorWindSubHurtDelta": 0.0,
            "IPFJJJGABPL": 100.0,
            "strikeType": "Blunt",
            "enBreak": 1000.0,
            "GLKMCMDJBIK": 0.0
          },
          "hitPattern": {
            "onHitEffectName": "default",
            "hitImpulseY": "",
            "hitImpulseType": "LV4",
            "retreatType": "ByHitDirection",
            "hitHaltTime": 0.029999999329447746,
            "hitHaltTimeScale": 0.009999999776482582
          },
          "cameraShake": {
            "shakeType": "HitVector",
            "shakeRange": 0.1599999964237213,
            "shakeTime": 0.11999999731779099,
            "shakeDistance": 25.0,
            "shakeDir": {
              "z": 1.0
            }
          }
        }
      },
      "RunningAtk_AS": {
        "attackPattern": {
          "$type": "GMDIMKKHACA",
          "triggerType": "TriggerNoRepeat",
          "born": {
            "$type": "IAENDIPDFKD",
            "offset": {
              "KGEPIMHBMOL": 0.0,
              "JEBHCGDPFEJ": 0.0,
              "LPCHALMFFOD": 5.0
            }
          },
          "height": 5.0,
          "OAHPDLJIADP": 4.0
        },
        "attackInfo": {
          "attackTag": "",
          "attenuationTag": "",
          "attenuationGroup": "default",
          "attackProperty": {
            "actorGrassSubHurtDelta": 0.4000000059604645,
            "actorWindSubHurtDelta": 0.0,
            "IPFJJJGABPL": 100.0,
            "strikeType": "Blunt",
            "enBreak": 1000.0,
            "GLKMCMDJBIK": 0.0
          },
          "hitPattern": {
            "onHitEffectName": "default",
            "hitImpulseY": "",
            "hitImpulseType": "LV6",
            "overrideHitImpulse": {
              "hitLevel": "Air",
              "IMIJMPGJOGG": 700.0,
              "BPCDKKBKOBM": 1000.0
            },
            "hitHaltTime": 0.009999999776482582,
            "hitHaltTimeScale": 0.05000000074505806
          },
          "forceCameraShake": true,
          "cameraShake": {
            "shakeRange": 0.11999999731779099,
            "shakeTime": 0.11999999731779099,
            "shakeDistance": 25.0
          }
        }
      },
      "WhirlAtk": {
        "attackPattern": {
          "$type": "GMDIMKKHACA",
          "triggerType": "TriggerNoRepeat",
          "born": {
            "$type": "IAENDIPDFKD",
            "offset": {
              "KGEPIMHBMOL": 0.0,
              "JEBHCGDPFEJ": 0.15000000596046448,
              "LPCHALMFFOD": 0.0
            }
          },
          "height": 1.75,
          "OAHPDLJIADP": 6.5
        },
        "attackInfo": {
          "attackTag": "",
          "attenuationTag": "",
          "attenuationGroup": "default",
          "attackProperty": {
            "actorGrassSubHurtDelta": 0.6000000238418579,
            "actorWindSubHurtDelta": 0.0,
            "IPFJJJGABPL": 100.0,
            "strikeType": "Blunt",
            "enBreak": 100.0,
            "GLKMCMDJBIK": 0.0
          },
          "hitPattern": {
            "onHitEffectName": "default",
            "hitImpulseY": "",
            "hitImpulseType": "LV6",
            "hitHaltTime": 0.009999999776482582,
            "hitHaltTimeScale": 0.05000000074505806
          },
          "cameraShake": {
            "shakeRange": 0.11999999731779099,
            "shakeTime": 0.11999999731779099,
            "shakeDistance": 25.0
          }
        }
      },
      "Reload_Hand": {
        "attackPattern": {
          "$type": "GMDIMKKHACA",
          "triggerType": "TriggerNoRepeat",
          "born": {
            "$type": "IAENDIPDFKD",
            "offset": {
              "KGEPIMHBMOL": 0.0,
              "JEBHCGDPFEJ": 0.15000000596046448,
              "LPCHALMFFOD": 0.0
            }
          },
          "height": 1.75,
          "OAHPDLJIADP": 7.5
        },
        "attackInfo": {
          "attackTag": "WeakEnd",
          "attenuationTag": "",
          "attenuationGroup": "default",
          "attackProperty": {
            "actorGrassSubHurtDelta": 1.0,
            "actorWindSubHurtDelta": 0.0,
            "IPFJJJGABPL": 100.0,
            "strikeType": "Blunt",
            "enBreak": 100.0,
            "GLKMCMDJBIK": 0.0
          },
          "hitPattern": {
            "onHitEffectName": "default",
            "hitImpulseY": "",
            "hitImpulseType": "LV6",
            "hitHaltTime": 0.009999999776482582,
            "hitHaltTimeScale": 0.05000000074505806
          },
          "cameraShake": {
            "shakeRange": 0.11999999731779099,
            "shakeTime": 0.11999999731779099,
            "shakeDistance": 25.0
          },
          "canBeModifiedBy": "OriginOwner"
        }
      },
      "Reload_Laser": {
        "attackPattern": {
          "$type": "GMDIMKKHACA",
          "triggerType": "TriggerNoRepeat",
          "born": {
            "$type": "IAENDIPDFKD",
            "offset": {
              "KGEPIMHBMOL": 0.0,
              "JEBHCGDPFEJ": 0.15000000596046448,
              "LPCHALMFFOD": 0.0
            }
          },
          "height": 1.75,
          "OAHPDLJIADP": 11.0,
          "MMBCLAEOEFB": 8.5
        },
        "attackInfo": {
          "attackTag": "WeakEnd",
          "attenuationTag": "",
          "attenuationGroup": "default",
          "attackProperty": {
            "actorGrassSubHurtDelta": 0.800000011920929,
            "actorWindSubHurtDelta": 0.0,
            "IPFJJJGABPL": 100.0,
            "strikeType": "Blunt",
            "enBreak": 100.0,
            "GLKMCMDJBIK": 0.0
          },
          "hitPattern": {
            "onHitEffectName": "default",
            "hitImpulseY": "",
            "hitImpulseType": "LV6",
            "hitHaltTime": 0.009999999776482582,
            "hitHaltTimeScale": 0.05000000074505806
          },
          "cameraShake": {
            "shakeRange": 0.11999999731779099,
            "shakeTime": 0.11999999731779099,
            "shakeDistance": 25.0
          },
          "canBeModifiedBy": "OriginOwner"
        }
      }
    }
  },
  "abilities": [
    {
      "abilityID": "ResistStruggle",
      "abilityName": "AbilityResistStruggle",
      "abilityOverride": ""
    },
    {
      "abilityID": "Born",
      "abilityName": "Monster_Konungmathr_None_Born",
      "abilityOverride": ""
    },
    {
      "abilityID": "PowerOff",
      "abilityName": "Monster_Konungmathr_None_PowerOff",
      "abilityOverride": ""
    },
    {
      "abilityID": "PowerOff_WakeUp",
      "abilityName": "Monster_Konungmathr_None_PowerOff_WakeUp",
      "abilityOverride": ""
    },
    {
      "abilityID": "PowerOff_Remove",
      "abilityName": "Monster_Konungmathr_None_PowerOff_Remove",
      "abilityOverride": ""
    },
    {
      "abilityID": "CoreState",
      "abilityName": "Monster_Konungmathr_None_CoreState",
      "abilityOverride": ""
    },
    {
      "abilityID": "EyeActive",
      "abilityName": "Monster_Konungmathr_None_EyeActive",
      "abilityOverride": ""
    },
    {
      "abilityID": "EyeOff",
      "abilityName": "Monster_Konungmathr_None_EyeOff",
      "abilityOverride": ""
    },
    {
      "abilityID": "FootActive",
      "abilityName": "Monster_Konungmathr_None_FootActive",
      "abilityOverride": ""
    },
    {
      "abilityID": "FootOff",
      "abilityName": "Monster_Konungmathr_None_FootOff",
      "abilityOverride": ""
    },
    {
      "abilityID": "EyeDisable_CountDown",
      "abilityName": "Monster_Konungmathr_None_EyeDisable_CountDown",
      "abilityOverride": ""
    },
    {
      "abilityID": "FootDisable_CountDown",
      "abilityName": "Monster_Konungmathr_None_FootDisable_CountDown",
      "abilityOverride": ""
    },
    {
      "abilityID": "EyeCore_Protected_Long",
      "abilityName": "Monster_Konungmathr_None_EyeCore_Protected_Long",
      "abilityOverride": ""
    },
    {
      "abilityID": "EyeCore_Protected_Short",
      "abilityName": "Monster_Konungmathr_None_EyeCore_Protected_Short",
      "abilityOverride": ""
    },
    {
      "abilityID": "FootCore_Protected_Long",
      "abilityName": "Monster_Konungmathr_None_FootCore_Protected_Long",
      "abilityOverride": ""
    },
    {
      "abilityID": "FootCore_Protected_Short",
      "abilityName": "Monster_Konungmathr_None_FootCore_Protected_Short",
      "abilityOverride": ""
    },
    {
      "abilityID": "Weak_Ground",
      "abilityName": "Monster_Konungmathr_None_Weak_Ground",
      "abilityOverride": ""
    },
    {
      "abilityID": "StampTwice",
      "abilityName": "Monster_Konungmathr_None_StampTwice",
      "abilityOverride": ""
    },
    {
      "abilityID": "LegAtk",
      "abilityName": "Monster_Konungmathr_None_LegAtk",
      "abilityOverride": ""
    },
    {
      "abilityID": "DashAtk",
      "abilityName": "Monster_Konungmathr_None_DashAtk",
      "abilityOverride": ""
    },
    {
      "abilityID": "RunningAtk",
      "abilityName": "Monster_Konungmathr_None_RunningAtk",
      "abilityOverride": ""
    },
    {
      "abilityID": "Whirl",
      "abilityName": "Monster_Konungmathr_None_Whirl",
      "abilityOverride": ""
    },
    {
      "abilityID": "Swipe_Arm_01",
      "abilityName": "Monster_Konungmathr_None_Swipe_Arm_01",
      "abilityOverride": ""
    },
    {
      "abilityID": "Swipe_Arm_02",
      "abilityName": "Monster_Konungmathr_None_Swipe_Arm_02",
      "abilityOverride": ""
    },
    {
      "abilityID": "Swipe_Arm_03",
      "abilityName": "Monster_Konungmathr_None_Swipe_Arm_03",
      "abilityOverride": ""
    },
    {
      "abilityID": "Swipe_Arm_04",
      "abilityName": "Monster_Konungmathr_None_Swipe_Arm_04",
      "abilityOverride": ""
    },
    {
      "abilityID": "SwipeAndLaser",
      "abilityName": "Monster_Konungmathr_None_SwipeAndLaser",
      "abilityOverride": ""
    },
    {
      "abilityID": "ArmAtk",
      "abilityName": "Monster_Konungmathr_None_ArmAtk",
      "abilityOverride": ""
    },
    {
      "abilityID": "TracingLaser",
      "abilityName": "Monster_Konungmathr_None_TracingLaser",
      "abilityOverride": ""
    },
    {
      "abilityID": "EnergyBall",
      "abilityName": "Monster_Konungmathr_None_EnergyBall",
      "abilityOverride": ""
    },
    {
      "abilityID": "MultiEnergyBall",
      "abilityName": "Monster_Konungmathr_None_MultiEnergyBall",
      "abilityOverride": ""
    },
    {
      "abilityID": "Reload",
      "abilityName": "Monster_Konungmathr_None_Reload",
      "abilityOverride": ""
    },
    {
      "abilityID": "WeakEnd",
      "abilityName": "Monster_Konungmathr_None_WeakEnd",
      "abilityOverride": ""
    },
    {
      "abilityID": "SteerAttack",
      "abilityName": "Monster_Konungmathr_None_SteerAttack",
      "abilityOverride": ""
    },
    {
      "abilityID": "HemiTurn",
      "abilityName": "Monster_Konungmathr_None_HemiTurn",
      "abilityOverride": ""
    },
    {
      "abilityID": "HemiTurnFront",
      "abilityName": "Monster_Konungmathr_None_HemiTurnFront",
      "abilityOverride": ""
    },
    {
      "abilityID": "HemiTurnBack",
      "abilityName": "Monster_Konungmathr_None_HemiTurnBack",
      "abilityOverride": ""
    },
    {
      "abilityID": "Step_Left",
      "abilityName": "Monster_Konungmathr_None_Step_Left",
      "abilityOverride": ""
    },
    {
      "abilityID": "Step_Right",
      "abilityName": "Monster_Konungmathr_None_Step_Right",
      "abilityOverride": ""
    },
    {
      "abilityID": "Hand_Left",
      "abilityName": "Monster_Konungmathr_None_Hand_Left",
      "abilityOverride": ""
    },
    {
      "abilityID": "Hand_Right",
      "abilityName": "Monster_Konungmathr_None_Hand_Right",
      "abilityOverride": ""
    },
    {
      "abilityID": "Die",
      "abilityName": "Monster_Konungmathr_None_Die",
      "abilityOverride": ""
    },
    {
      "abilityID": "Die_Ground",
      "abilityName": "Monster_Konungmathr_None_Die_Ground",
      "abilityOverride": ""
    },
    {
      "abilityID": "WeakDie_Ground",
      "abilityName": "Monster_Konungmathr_None_WeakDie_Ground",
      "abilityOverride": ""
    },
    {
      "abilityID": "ReturnToBorn",
      "abilityName": "Monster_Konungmathr_None_ReturnToBorn",
      "abilityOverride": ""
    },
    {
      "abilityID": "GearControl",
      "abilityName": "Monster_Konungmathr_None_GearControl",
      "abilityOverride": ""
    },
    {
      "abilityID": "HeadControl",
      "abilityName": "Monster_Konungmathr_None_HeadControl",
      "abilityOverride": ""
    }
  ],
  "stateLayers": {
    "defaultLayer": {
      "$type": "GBGJJIIEMBD",
      "layerIndexName": "",
      "CPAANEIJCGD": "",
      "stateIDs": {
        "Born": {
          "$type": "NEDIFAKEGCO",
          "animatorStates": {
            "Born": []
          },
          "canSyncMove": true,
          "resetAnimatorTriggerOnExit": [
            "DoSkill"
          ]
        },
        "NormalIdle": {
          "$type": "NEDIFAKEGCO",
          "animatorStates": {
            "Standby": [],
            "Standby_Machinery": []
          },
          "canDoSkill": true,
          "canSyncMove": true,
          "resetAnimatorTriggerOnExit": [
            "DoSkill"
          ]
        },
        "NormalIdle_WeakLoop": {
          "$type": "NEDIFAKEGCO",
          "animatorStates": {
            "WeakLoop": []
          },
          "canDoSkill": true,
          "canSyncMove": true,
          "resetAnimatorTriggerOnExit": [
            "DoSkill"
          ]
        },
        "NormalIdle_PowerOff": {
          "$type": "NEDIFAKEGCO",
          "animatorStates": {
            "PowerOff": []
          },
          "canDoSkill": true,
          "canSyncMove": true,
          "resetAnimatorTriggerOnExit": [
            "DoSkill"
          ]
        },
        "Turn": {
          "$type": "NEDIFAKEGCO",
          "animatorStates": {
            "Turn": [
              "Monster_Konungmathr_None_Turn",
              "Audio_Monster_Konungmathr_Turn"
            ]
          },
          "canDoSkill": true,
          "canSyncMove": true,
          "resetAnimatorTriggerOnExit": [
            "BeHit"
          ]
        },
        "HemiTurnFront": {
          "$type": "NEDIFAKEGCO",
          "animatorStates": {
            "HemiTurnFront": [
              "Monster_Konungmathr_None_HemiTurnFront",
              "Audio_Monster_Konungmathr_HemiTurn"
            ]
          },
          "canDoSkill": true,
          "resetAnimatorTriggerOnExit": [
            "BeHit",
            "EndTurnFront"
          ],
          "canSteer": true,
          "followAnimRotation": true
        },
        "HemiTurnBack": {
          "$type": "NEDIFAKEGCO",
          "animatorStates": {
            "HemiTurnBack": [
              "Monster_Konungmathr_None_HemiTurnBack",
              "Audio_Monster_Konungmathr_HemiTurn"
            ]
          },
          "canDoSkill": true,
          "resetAnimatorTriggerOnExit": [
            "BeHit"
          ],
          "canSteer": true,
          "followAnimRotation": true
        },
        "NormalMove": {
          "$type": "NEDIFAKEGCO",
          "animatorStates": {
            "WalkForward": [
              "Monster_Konungmathr_None_WalkForward",
              "Audio_Monster_Konungmathr_Walk"
            ],
            "WalkBack": [
              "Monster_Konungmathr_None_WalkBack",
              "Audio_Monster_Konungmathr_Walk"
            ]
          },
          "canDoSkill": true,
          "canSyncMove": true,
          "resetAnimatorTriggerOnExit": [
            "DoSkill"
          ],
          "canSteer": true
        },
        "BeHit": {
          "$type": "NEDIFAKEGCO",
          "animatorStates": {
            "Hit_L": [
              "Audio_Defender_Hit_L"
            ]
          },
          "resetAnimatorTriggerOnEnter": [
            "BeHit"
          ],
          "resetAnimatorTriggerOnExit": [
            "DoSkill"
          ]
        },
        "Weak_Start": {
          "$type": "NEDIFAKEGCO",
          "animatorStates": {
            "Weak_BS": [],
            "Weak_Start": [
              "Audio_Monster_Konungmathr_Wake_Start"
            ]
          },
          "resetAnimatorTriggerOnEnter": [
            "BeHit",
            "WeakStartTrigger",
            "BreakTrigger"
          ],
          "resetAnimatorTriggerOnExit": [
            "DoSkill"
          ]
        },
        "Weak_End": {
          "$type": "NEDIFAKEGCO",
          "animatorStates": {
            "Weak_EndBS": [
              "Audio_Monster_Konungmathr_Wake_End"
            ],
            "Weak_EndAS": [
              "Audio_Monster_Konungmathr_Wake_End"
            ]
          },
          "resetAnimatorTriggerOnEnter": [
            "BeHit"
          ],
          "resetAnimatorTriggerOnExit": [
            "DoSkill"
          ]
        },
        "Break": {
          "$type": "NEDIFAKEGCO",
          "animatorStates": {
            "Break_BS": [
              "Audio_Monster_Konungmathr_Break_BS"
            ],
            "Break": [
              "Monster_Konungmathr_None_Break",
              "Audio_Monster_Konungmathr_Break"
            ]
          },
          "resetAnimatorTriggerOnEnter": [
            "BeHit",
            "BreakTrigger"
          ],
          "resetAnimatorTriggerOnExit": [
            "DoSkill"
          ]
        },
        "Die": {
          "$type": "NEDIFAKEGCO",
          "animatorStates": {
            "Die_BS": [
              "Monster_Konungmathr_None_Die",
              "Audio_Monster_Konungmathr_Die"
            ],
            "WeakDieFront_BS": [
              "Audio_Monster_Konungmathr_WakeDie"
            ],
            "WeakDieBack_BS": [
              "Audio_Monster_Konungmathr_WakeDie"
            ],
            "SwimDie": [
              "Audio_Monster_Konungmathr_Die"
            ]
          },
          "resetAnimatorTriggerOnEnter": [
            "DoSkill"
          ]
        },
        "Die_RagDoll": {
          "$type": "NEDIFAKEGCO",
          "animatorStates": {
            "Die": [
              "Audio_Monster_Konungmathr_Die"
            ],
            "WeakDieFront": [
              "Audio_Monster_Konungmathr_WakeDie"
            ],
            "WeakDieBack": [
              "Audio_Monster_Konungmathr_WakeDie"
            ]
          },
          "resetAnimatorTriggerOnEnter": [
            "DoSkill"
          ],
          "enableRagDoll": true
        },
        "PowerOff_WakeUp": {
          "$type": "NEDIFAKEGCO",
          "animatorStates": {
            "PowerOff_WakeUp": [
              "Monster_Konungmathr_None_PowerOff_WakeUp",
              "Audio_Monster_Konungmathr_PowerOff_WakeUp"
            ]
          },
          "cullingModelAlwaysAnimate": true,
          "resetAnimatorTriggerOnEnter": [
            "BeHit"
          ],
          "resetAnimatorTriggerOnExit": [
            "DoSkill",
            "LevelEnterBattle"
          ]
        },
        "PowerOff_Warning": {
          "$type": "NEDIFAKEGCO",
          "animatorStates": {
            "PowerOff_Warning": [
              "Audio_Monster_Konungmathr_PowerOff_Wrning"
            ]
          },
          "cullingModelAlwaysAnimate": true,
          "resetAnimatorTriggerOnEnter": [
            "BeHit"
          ],
          "resetAnimatorTriggerOnExit": [
            "DoSkill"
          ]
        },
        "Enhance_BS": {
          "$type": "NEDIFAKEGCO",
          "animatorStates": {
            "Enhance_BS": [
              "Audio_Monster_Konungmathr_Dig_Enhance_BS"
            ]
          },
          "resetAnimatorTriggerOnExit": [
            "BeHit",
            "DoSkill"
          ]
        },
        "Enhance_Loop": {
          "$type": "NEDIFAKEGCO",
          "animatorStates": {
            "Enhance_Loop": []
          },
          "resetAnimatorTriggerOnExit": [
            "BeHit",
            "DoSkill"
          ]
        },
        "Enhance_AS": {
          "$type": "NEDIFAKEGCO",
          "animatorStates": {
            "Enhance_AS": [
              "Monster_Konungmathr_None_Enhance_AS",
              "Audio_Monster_Konungmathr_Dig_Enhance_AS"
            ]
          },
          "resetAnimatorTriggerOnExit": [
            "BeHit",
            "DoSkill"
          ]
        },
        "StampTwice": {
          "$type": "NEDIFAKEGCO",
          "animatorStates": {
            "StampTwice": [
              "Monster_Konungmathr_None_StampTwice",
              "Audio_Monster_Konungmathr_StampTwice"
            ]
          },
          "resetAnimatorTriggerOnExit": [
            "BeHit",
            "DoSkill"
          ]
        },
        "LegAtk": {
          "$type": "NEDIFAKEGCO",
          "animatorStates": {
            "LegAtk": [
              "Monster_Konungmathr_None_LegAtk",
              "Audio_Monster_Konungmathr_Dig_LegAtk"
            ]
          },
          "resetAnimatorTriggerOnExit": [
            "BeHit",
            "DoSkill"
          ]
        },
        "DashAtk_BS": {
          "$type": "NEDIFAKEGCO",
          "animatorStates": {
            "DashAtk_BS": [
              "Monster_Konungmathr_None_DashAtk_BS",
              "Audio_Monster_Konungmathr_DashAtk_BS"
            ]
          },
          "resetAnimatorTriggerOnExit": [
            "BeHit",
            "DoSkill"
          ]
        },
        "DashAtk_Move": {
          "$type": "NEDIFAKEGCO",
          "animatorStates": {
            "DashAtk_BS_Move": [
              "Audio_Monster_Konungmathr_DashAtk_BS"
            ],
            "DashAtk_Loop": [
              "Monster_Konungmathr_None_DashAtk_Loop",
              "Audio_Monster_Konungmathr_DashAtk_Loop"
            ],
            "DashAtk_AS_Move": [
              "Audio_Monster_Konungmathr_DashAtk_Loop"
            ]
          },
          "resetAnimatorTriggerOnExit": [
            "BeHit",
            "DoSkill"
          ]
        },
        "DashAtk_AS": {
          "$type": "NEDIFAKEGCO",
          "animatorStates": {
            "DashAtk_AS": [
              "Monster_Konungmathr_None_DashAtk_AS",
              "Audio_Monster_Konungmathr_DashAtk_AS"
            ]
          },
          "resetAnimatorTriggerOnExit": [
            "BeHit",
            "DoSkill"
          ]
        },
        "RunningAtk_BS": {
          "$type": "NEDIFAKEGCO",
          "animatorStates": {
            "RunningAtk_BS": [
              "Monster_Konungmathr_None_RunningAtk_BS",
              "Audio_Monster_Konungmathr_Dig_RunningAtk_BS"
            ]
          },
          "resetAnimatorTriggerOnExit": [
            "BeHit",
            "DoSkill"
          ]
        },
        "RunningAtk_Move": {
          "$type": "NEDIFAKEGCO",
          "animatorStates": {
            "RunningAtk_BS_Move": [
              "Monster_Konungmathr_None_RunningAtk_BS_Move"
            ],
            "RunningAtk_Loop": [
              "Monster_Konungmathr_None_RunningAtk_Loop",
              "Audio_Monster_Konungmathr_Dig_RunningAtk_Loop"
            ],
            "RunningAtk_AS_Move": []
          },
          "resetAnimatorTriggerOnExit": [
            "BeHit",
            "DoSkill"
          ]
        },
        "RunningAtk_AS": {
          "$type": "NEDIFAKEGCO",
          "animatorStates": {
            "RunningAtk_AS": [
              "Monster_Konungmathr_None_RunningAtk_AS",
              "Audio_Monster_Konungmathr_Dig_RunningAtk_AS"
            ]
          },
          "resetAnimatorTriggerOnExit": [
            "BeHit",
            "DoSkill"
          ]
        },
        "SwipeAndLaser": {
          "$type": "NEDIFAKEGCO",
          "animatorStates": {
            "SwipeAndLaser": [
              "Monster_Konungmathr_None_SwipeAndLaser",
              "Audio_Monster_Konungmathr_SwipeAndLaser"
            ]
          },
          "resetAnimatorTriggerOnExit": [
            "BeHit",
            "DoSkill"
          ]
        },
        "ArmAtk": {
          "$type": "NEDIFAKEGCO",
          "animatorStates": {
            "ArmAtk": [
              "Monster_Konungmathr_None_ArmAtk",
              "Audio_Monster_Konungmathr_Dig_ArmAtk"
            ]
          },
          "resetAnimatorTriggerOnExit": [
            "BeHit",
            "DoSkill"
          ]
        },
        "Whirl_BS": {
          "$type": "NEDIFAKEGCO",
          "animatorStates": {
            "Whirl_BS": [
              "Monster_Konungmathr_None_Whirl_BS",
              "Audio_Monster_Konungmathr_Whirl_BS"
            ]
          },
          "resetAnimatorTriggerOnExit": [
            "BeHit",
            "DoSkill"
          ]
        },
        "Whirl_Loop": {
          "$type": "NEDIFAKEGCO",
          "animatorStates": {
            "Whirl_Loop": [
              "Monster_Konungmathr_None_Whirl_Loop",
              "Audio_Monster_Konungmathr_Walk"
            ]
          },
          "resetAnimatorTriggerOnExit": [
            "BeHit",
            "DoSkill"
          ]
        },
        "Whirl_AS": {
          "$type": "NEDIFAKEGCO",
          "animatorStates": {
            "Whirl_AS": [
              "Monster_Konungmathr_None_Whirl_AS",
              "Audio_Monster_Konungmathr_Whirl_AS"
            ]
          },
          "resetAnimatorTriggerOnExit": [
            "BeHit",
            "DoSkill"
          ]
        },
        "TracingLaser_BS": {
          "$type": "NEDIFAKEGCO",
          "animatorStates": {
            "TracingLaser_BS": [
              "Monster_Konungmathr_None_TracingLaser_BS",
              "Audio_Monster_Konungmathr_TracingLaser_BS"
            ]
          },
          "cullingModelAlwaysAnimate": true,
          "resetAnimatorTriggerOnExit": [
            "BeHit",
            "DoSkill"
          ]
        },
        "TracingLaser_Loop": {
          "$type": "NEDIFAKEGCO",
          "animatorStates": {
            "TracingLaser_Loop": []
          },
          "cullingModelAlwaysAnimate": true,
          "resetAnimatorTriggerOnExit": [
            "BeHit",
            "DoSkill",
            "LaserEndTrigger"
          ]
        },
        "TracingLaser_AS": {
          "$type": "NEDIFAKEGCO",
          "animatorStates": {
            "TracingLaser_AS": [
              "Audio_Monster_Konungmathr_TracingLaser_AS"
            ]
          },
          "cullingModelAlwaysAnimate": true,
          "resetAnimatorTriggerOnExit": [
            "BeHit",
            "DoSkill"
          ]
        },
        "TracingLaser_HemiFront_BS": {
          "$type": "NEDIFAKEGCO",
          "animatorStates": {
            "TracingLaser_HemiFront_BS": [
              "Monster_Konungmathr_None_TracingLaser_HemiFront_BS",
              "Audio_Monster_Konungmathr_TracingLaser_BS"
            ]
          },
          "cullingModelAlwaysAnimate": true,
          "resetAnimatorTriggerOnExit": [
            "BeHit",
            "DoSkill"
          ]
        },
        "TracingLaser_HemiFront_Loop": {
          "$type": "NEDIFAKEGCO",
          "animatorStates": {
            "TracingLaser_HemiFront_Loop": []
          },
          "cullingModelAlwaysAnimate": true,
          "resetAnimatorTriggerOnExit": [
            "BeHit",
            "DoSkill",
            "LaserEndTrigger"
          ]
        },
        "TracingLaser_HemiFront_AS": {
          "$type": "NEDIFAKEGCO",
          "animatorStates": {
            "TracingLaser_HemiFront_AS": [
              "Audio_Monster_Konungmathr_TracingLaser_AS"
            ]
          },
          "cullingModelAlwaysAnimate": true,
          "resetAnimatorTriggerOnExit": [
            "BeHit",
            "DoSkill"
          ]
        },
        "TracingLaser_HemiBack_BS": {
          "$type": "NEDIFAKEGCO",
          "animatorStates": {
            "TracingLaser_HemiBack_BS": [
              "Monster_Konungmathr_None_TracingLaser_HemiBack_BS",
              "Audio_Monster_Konungmathr_TracingLaser_BS"
            ]
          },
          "cullingModelAlwaysAnimate": true,
          "resetAnimatorTriggerOnExit": [
            "BeHit",
            "DoSkill"
          ]
        },
        "TracingLaser_HemiBack_Loop": {
          "$type": "NEDIFAKEGCO",
          "animatorStates": {
            "TracingLaser_HemiBack_Loop": []
          },
          "cullingModelAlwaysAnimate": true,
          "resetAnimatorTriggerOnExit": [
            "BeHit",
            "DoSkill",
            "LaserEndTrigger"
          ]
        },
        "TracingLaser_HemiBack_AS": {
          "$type": "NEDIFAKEGCO",
          "animatorStates": {
            "TracingLaser_HemiBack_AS": [
              "Audio_Monster_Konungmathr_TracingLaser_AS"
            ]
          },
          "cullingModelAlwaysAnimate": true,
          "resetAnimatorTriggerOnExit": [
            "BeHit",
            "DoSkill"
          ]
        },
        "EnergyBall": {
          "$type": "NEDIFAKEGCO",
          "animatorStates": {
            "EnergyBall": [
              "Monster_Konungmathr_None_EnergyBall",
              "Audio_Monster_Konungmathr_EnergyBall"
            ]
          },
          "cullingModelAlwaysAnimate": true,
          "resetAnimatorTriggerOnExit": [
            "BeHit",
            "DoSkill"
          ]
        },
        "MultiEnergyBall": {
          "$type": "NEDIFAKEGCO",
          "animatorStates": {
            "MultiEnergyBall": [
              "Monster_Konungmathr_None_MultiEnergyBall",
              "Audio_Monster_Konungmathr_EnergyBall"
            ]
          },
          "cullingModelAlwaysAnimate": true,
          "resetAnimatorTriggerOnExit": [
            "BeHit",
            "DoSkill"
          ]
        },
        "Reload": {
          "$type": "NEDIFAKEGCO",
          "animatorStates": {
            "ReloadBS": [
              "Monster_Konungmathr_None_ReloadBS",
              "Audio_Monster_Konungmathr_Reload"
            ],
            "ReloadAS": [
              "Monster_Konungmathr_None_ReloadAS"
            ]
          },
          "cullingModelAlwaysAnimate": true,
          "resetAnimatorTriggerOnExit": [
            "BeHit",
            "DoSkill"
          ]
        },
        "Revive_Stand_Start": {
          "$type": "NEDIFAKEGCO",
          "animatorStates": {
            "Revive_Stand_Start": [
              "Revive_Stand_Start",
              "Audio_Monster_Konungmathr_Dig_Revive_Stand_Start"
            ]
          },
          "resetAnimatorTriggerOnExit": [
            "BeHit",
            "DoSkill"
          ]
        },
        "Revive_Stand_Loop": {
          "$type": "NEDIFAKEGCO",
          "animatorStates": {
            "Revive_Stand_Loop": []
          },
          "resetAnimatorTriggerOnExit": [
            "BeHit",
            "DoSkill"
          ]
        },
        "Revive_Stand_End": {
          "$type": "NEDIFAKEGCO",
          "animatorStates": {
            "Revive_Stand_End": [
              "Audio_Monster_Konungmathr_Dig_Revive_Stand_End"
            ]
          },
          "resetAnimatorTriggerOnExit": [
            "BeHit",
            "DoSkill"
          ]
        },
        "Revive_Sit_Loop_Front": {
          "$type": "NEDIFAKEGCO",
          "animatorStates": {
            "Revive_Sit_Loop_Front": [
              "Revive_Sit_Loop_Front"
            ]
          },
          "resetAnimatorTriggerOnExit": [
            "BeHit",
            "DoSkill"
          ]
        },
        "Revive_Sit_End_Front": {
          "$type": "NEDIFAKEGCO",
          "animatorStates": {
            "Revive_Sit_End_Front": [
              "Audio_Monster_Konungmathr_Dig_Revive_Stand_End"
            ]
          },
          "resetAnimatorTriggerOnExit": [
            "BeHit",
            "DoSkill"
          ]
        },
        "Revive_Sit_Loop_Back": {
          "$type": "NEDIFAKEGCO",
          "animatorStates": {
            "Revive_Sit_Loop_Back": [
              "Revive_Sit_Loop_Back"
            ]
          },
          "resetAnimatorTriggerOnExit": [
            "BeHit",
            "DoSkill"
          ]
        },
        "Revive_Sit_Loop_Back_Turn": {
          "$type": "NEDIFAKEGCO",
          "animatorStates": {
            "Revive_Sit_Loop_Back_Turn": []
          },
          "resetAnimatorTriggerOnExit": [
            "BeHit",
            "DoSkill"
          ]
        },
        "Revive_Sit_End_Back": {
          "$type": "NEDIFAKEGCO",
          "animatorStates": {
            "Revive_Sit_End_Back": [
              "Audio_Monster_Konungmathr_Wake_End"
            ]
          },
          "resetAnimatorTriggerOnExit": [
            "BeHit",
            "DoSkill"
          ]
        },
        "Destroy_Move_BS": {
          "$type": "NEDIFAKEGCO",
          "animatorStates": {
            "Destroy_Move_BS": [
              "Monster_Konungmathr_None_Destroy_Move_BS",
              "Audio_Monster_Konungmathr_Dig_Destroy_Move_BS"
            ]
          },
          "resetAnimatorTriggerOnExit": [
            "BeHit",
            "DoSkill"
          ]
        },
        "Destroy_Move_Loop": {
          "$type": "NEDIFAKEGCO",
          "animatorStates": {
            "Destroy_Move_Loop": [
              "Monster_Konungmathr_None_Destroy_Move_Loop",
              "Audio_Monster_Konungmathr_Dig_Destroy_Move_Loop"
            ]
          },
          "resetAnimatorTriggerOnExit": [
            "BeHit",
            "DoSkill"
          ]
        },
        "Destroy_Move_AS": {
          "$type": "NEDIFAKEGCO",
          "animatorStates": {
            "Destroy_Move_AS": [
              "Monster_Konungmathr_None_Destroy_Move_AS",
              "Audio_Monster_Konungmathr_Dig_Destroy_Move_AS"
            ]
          },
          "resetAnimatorTriggerOnExit": [
            "BeHit",
            "DoSkill"
          ]
        },
        "Destroy_Atk_BS": {
          "$type": "NEDIFAKEGCO",
          "animatorStates": {
            "Destroy_Atk_BS": [
              "Audio_Monster_Konungmathr_Dig_Destroy_Atk_BS"
            ]
          },
          "resetAnimatorTriggerOnExit": [
            "BeHit",
            "DoSkill"
          ]
        },
        "Destroy_Atk_Loop": {
          "$type": "NEDIFAKEGCO",
          "animatorStates": {
            "Destroy_Atk_Loop": [
              "Monster_Konungmathr_None_Destroy_Atk_Loop",
              "Audio_Monster_Konungmathr_Dig_Destroy_Atk_Loop"
            ]
          },
          "resetAnimatorTriggerOnExit": [
            "BeHit",
            "DoSkill"
          ]
        },
        "Destroy_Atk_AS": {
          "$type": "NEDIFAKEGCO",
          "animatorStates": {
            "Destroy_Atk_AS": [
              "Audio_Monster_Konungmathr_Dig_Destroy_Atk_AS"
            ]
          },
          "resetAnimatorTriggerOnExit": [
            "BeHit",
            "DoSkill"
          ]
        },
        "Destroy_Laser_BS": {
          "$type": "NEDIFAKEGCO",
          "animatorStates": {
            "Destroy_Laser_BS": [
              "Audio_Monster_Konungmathr_Dig_Destroy_Laser_BS"
            ]
          },
          "cullingModelAlwaysAnimate": true,
          "resetAnimatorTriggerOnExit": [
            "BeHit",
            "DoSkill"
          ]
        },
        "Destroy_Laser_Loop": {
          "$type": "NEDIFAKEGCO",
          "animatorStates": {
            "Destroy_Laser_Loop": []
          },
          "cullingModelAlwaysAnimate": true,
          "resetAnimatorTriggerOnExit": [
            "BeHit",
            "DoSkill",
            "LaserEndTrigger"
          ]
        },
        "Destroy_Laser_AS": {
          "$type": "NEDIFAKEGCO",
          "animatorStates": {
            "Destroy_Laser_AS": [
              "Audio_Monster_Konungmathr_Dig_Destroy_Laser_AS"
            ]
          },
          "cullingModelAlwaysAnimate": true,
          "resetAnimatorTriggerOnExit": [
            "BeHit",
            "DoSkill"
          ]
        },
        "Machinery": {
          "$type": "NEDIFAKEGCO",
          "animatorStates": {
            "Alert_Machinery": [
              "Monster_Konungmathr_None_Alert_Machinery"
            ]
          },
          "cullingModelAlwaysAnimate": true,
          "resetAnimatorTriggerOnEnter": [
            "BeHit"
          ],
          "resetAnimatorTriggerOnExit": [
            "DoSkill"
          ]
        }
      }
    }
  },
  "partControl": {
    "parts": [
      {
        "$type": "INCPGKCDCIO",
        "angularSpeed": 999999.0,
        "partRootName": "LaserControl",
        "forwardByTransName": "",
        "limitHorizontal": 0.0,
        "limitVertical": 360.0
      },
      {
        "$type": "INCPGKCDCIO",
        "angularSpeed": 999999.0,
        "partRootName": "HemiLaserControl",
        "forwardByTransName": "",
        "limitHorizontal": 45.0,
        "limitVertical": 360.0
      }
    ]
  },
  "billboard": {
    "$type": "DNGNMAJBCNP",
    "attachPoint": "BillboardAttach",
    "offsetType": "Character",
    "radiusOffset": 2.5,
    "enableSelfAdapt": true,
    "showDistance": 48.0,
    "showHPBar": true,
    "size": "Grand"
  },
  "initialPoses": {
    "Default": {
      "initialPoseID": 100,
      "initialPoseParams": {
        "boolParams": {
          "PowerOff": "false"
        }
      }
    },
    "PowerOff": {
      "initialPoseID": 101,
      "initialPoseParams": {
        "boolParams": {
          "PowerOff": "true"
        }
      }
    },
    "Machinery": {
      "initialPoseID": 111,
      "initialPoseParams": {
        "boolParams": {
          "Machinery": "true"
        }
      }
    }
  },
  "aibeta": {
    "enable": true,
    "moveSetting": {
      "navMeshAgentName": "Undead01",
      "almostReachedDistanceWalk": 2.0
    },
    "sensing": {
      "settings": {
        "DefaultSetting": {
          "viewRange": 60.0,
          "verticalFov": 120.0,
          "feelRange": 12.0
        },
        "PowerOff_Active": {
          "enableVision": false,
          "feelRange": 8.0
        },
        "PowerOff_Passive": {
          "enableVision": false,
          "hearAttractionRange": 0.0,
          "feelRange": 0.0
        },
        "NeverCombat": {
          "enableVision": false,
          "hearAttractionRange": 0.0,
          "feelRange": 0.0
        },
        "Machinery": {
          "enableVision": false,
          "hearAttractionRange": 0.0,
          "feelRange": 0.0
        }
      },
      "templates": {
        "DefaultTemplate": {
          "DefaultPoses": "DefaultSetting",
          "101": "PowerOff_Active"
        },
        "PowerOff_Passive": {
          "DefaultPoses": "DefaultSetting",
          "101": "PowerOff_Passive"
        },
        "NeverCombatTemplate": {
          "DefaultPoses": "NeverCombat",
          "101": "NeverCombat"
        },
        "Machinery": {
          "DefaultPoses": "DefaultSetting",
          "111": "Machinery"
        }
      }
    },
    "neurons": {
      "DefaultSetting": [
        "HIT"
      ],
      "PowerOff_Passive": [],
      "NeverCombat": [],
      "Machinery": []
    },
    "threat": {
      "GHIJMOKOLMB": "",
      "clearThreatTargetDistance": 60.0,
      "clearThreatEdgeDistance": 25.0,
      "clearThreatByLostPath": true,
      "clearThreatTimerByDistance": 2.0,
      "viewAttenuation": [
        {
          "x": 10.0,
          "y": 2.0
        },
        {
          "x": 20.0,
          "y": 1.0
        },
        {
          "x": 30.0,
          "y": 0.5
        },
        {
          "x": 50.0,
          "y": 0.10000000149011612
        }
      ],
      "resistTauntLevel": "Monster_TauntLevel_3",
      "auxScoreChangeTargetCD": 0.10000000149011612,
      "abilityGlobalValueScoreSystem": {
        "weight": 9999,
        "max": 2.0,
        "compareOperation": "Greater",
        "enable": true,
        "caredGlobalValueName": "Monster_Konungmathr_None_Destroy_Label"
      }
    },
    "defendArea": {
      "defendRange": 75.0
    },
    "profiling": {
      "staticPoses": [
        101
      ]
    },
    "network": {
      "syncSkill": true
    },
    "skillSetting": {
      "skillEliteSet": {
        "0": [
          101,
          102,
          111,
          201,
          211,
          221,
          231,
          241,
          242,
          243,
          251,
          261
        ],
        "1": [
          101,
          102,
          111,
          201,
          231,
          241,
          242,
          243,
          251,
          261,
          291,
          321,
          331
        ],
        "2": [
          101,
          102,
          111,
          261,
          271,
          281,
          301,
          311,
          241,
          231,
          201
        ],
        "3": []
      }
    },
    "skills": {
      "101": {
        "name": "OnAlert",
        "skillType": "OnAlert",
        "castCondition": {
          "pose": [
            101
          ]
        },
        "publicCDGroup": "",
        "triggerGCD": false,
        "HHAGODJIAPE": "",
        "stateIDs": [
          "PowerOff_WakeUp",
          "PowerOff_Warning"
        ],
        "skillQueryingTime": 3.0,
        "flagTargetReachable": "10",
        "flagSelfOnTemplateCollider": "01",
        "flagSelfInZone": "10",
        "flagTargetInZone": "11"
      },
      "102": {
        "name": "OnHitAlert",
        "skillType": "OnNerve",
        "castCondition": {
          "pose": [
            101
          ]
        },
        "publicCDGroup": "",
        "triggerGCD": false,
        "HHAGODJIAPE": "",
        "stateIDs": [
          "PowerOff_WakeUp",
          "PowerOff_Warning"
        ],
        "skillQueryingTime": 3.0,
        "flagTargetReachable": "10",
        "flagSelfOnTemplateCollider": "01",
        "flagSelfInZone": "10",
        "flagTargetInZone": "11",
        "nerveTrigger": [
          "HIT"
        ]
      },
      "111": {
        "name": "WeakEnd",
        "castCondition": {
          "pose": [
            203
          ]
        },
        "cd": 999.0,
        "initialCD": 999.0,
        "publicCDGroup": "",
        "ignoreGCD": true,
        "HHAGODJIAPE": "",
        "stateIDs": [
          "Weak_End"
        ],
        "flagTargetReachable": "11",
        "flagSelfOnTemplateCollider": "11",
        "flagSelfInZone": "11",
        "flagTargetInZone": "11"
      },
      "121": {
        "name": "OnAlert",
        "skillType": "OnAlert",
        "castCondition": {
          "pose": [
            111
          ]
        },
        "publicCDGroup": "",
        "triggerGCD": false,
        "HHAGODJIAPE": "",
        "stateIDs": [
          "Machinery"
        ],
        "skillQueryingTime": 3.0,
        "flagTargetReachable": "10",
        "flagSelfOnTemplateCollider": "01",
        "flagSelfInZone": "10",
        "flagTargetInZone": "11"
      },
      "201": {
        "name": "StampTwice",
        "castCondition": {
          "pose": [
            201,
            202
          ],
          "maxTargetAngleXZ": 45.0,
          "pickRangeMax": 7.0
        },
        "cd": 6.0,
        "cdUpperRange": 6.0,
        "initialCD": 6.0,
        "publicCDGroup": "",
        "HHAGODJIAPE": "",
        "stateIDs": [
          "StampTwice"
        ],
        "flagTargetReachable": "10",
        "flagSelfOnTemplateCollider": "01",
        "flagSelfInZone": "11",
        "flagTargetInZone": "11"
      },
      "211": {
        "name": "DashAtk",
        "castCondition": {
          "pose": [
            201,
            202
          ],
          "maxTargetAngleXZ": 90.0,
          "pickRangeMin": 8.0,
          "pickRangeMax": 25.0
        },
        "cd": 15.0,
        "cdUpperRange": 15.0,
        "publicCDGroup": "",
        "triggerGCD": false,
        "HHAGODJIAPE": "",
        "stateIDs": [
          "DashAtk_BS",
          "DashAtk_Move",
          "DashAtk_AS"
        ],
        "flagTargetReachable": "10",
        "flagSelfOnTemplateCollider": "01",
        "flagSelfInZone": "10",
        "flagTargetInZone": "11"
      },
      "221": {
        "name": "Whirl",
        "castCondition": {
          "pose": [
            201,
            202
          ],
          "pickRangeMax": 15.0
        },
        "cd": 30.0,
        "cdUpperRange": 30.0,
        "initialCD": 30.0,
        "initialCDUpperRange": 30.0,
        "publicCDGroup": "",
        "HHAGODJIAPE": "",
        "stateIDs": [
          "Whirl_BS",
          "Whirl_Loop",
          "Whirl_AS"
        ],
        "flagTargetReachable": "10",
        "flagSelfOnTemplateCollider": "01",
        "flagSelfInZone": "10",
        "flagTargetInZone": "11"
      },
      "231": {
        "name": "SwipeAndLaser",
        "castCondition": {
          "pose": [
            201
          ],
          "maxTargetAngleXZ": 90.0,
          "pickRangeMax": 6.0
        },
        "cd": 5.0,
        "cdUpperRange": 5.0,
        "publicCDGroup": "",
        "HHAGODJIAPE": "",
        "stateIDs": [
          "SwipeAndLaser"
        ],
        "flagTargetReachable": "10",
        "flagSelfOnTemplateCollider": "01",
        "flagSelfInZone": "10",
        "flagTargetInZone": "11"
      },
      "241": {
        "name": "TracingLaser",
        "castCondition": {
          "pose": [
            201
          ],
          "maxTargetAngleXZ": 90.0,
          "pickRangeMin": 8.0,
          "pickRangeMax": 22.0
        },
        "cd": 10.0,
        "cdUpperRange": 10.0,
        "initialCD": 5.0,
        "initialCDUpperRange": 5.0,
        "publicCDGroup": "",
        "HHAGODJIAPE": "",
        "stateIDs": [
          "TracingLaser_BS",
          "TracingLaser_Loop",
          "TracingLaser_AS"
        ],
        "flagTargetReachable": "11",
        "flagSelfOnTemplateCollider": "01",
        "flagSelfInZone": "11",
        "flagTargetInZone": "11"
      },
      "242": {
        "name": "TracingLaser_HemiFront",
        "castCondition": {
          "pose": [
            203
          ],
          "maxTargetAngleXZ": 30.0,
          "pickRangeMax": 22.0
        },
        "cd": 5.0,
        "publicCDGroup": "",
        "HHAGODJIAPE": "",
        "stateIDs": [
          "TracingLaser_HemiFront_BS",
          "TracingLaser_HemiFront_Loop",
          "TracingLaser_HemiFront_AS"
        ],
        "flagTargetReachable": "11",
        "flagSelfOnTemplateCollider": "01",
        "flagSelfInZone": "11",
        "flagTargetInZone": "11"
      },
      "243": {
        "name": "TracingLaser_HemiBack",
        "castCondition": {
          "pose": [
            205
          ],
          "maxTargetAngleXZ": 30.0,
          "pickRangeMax": 22.0
        },
        "cd": 5.0,
        "publicCDGroup": "",
        "HHAGODJIAPE": "",
        "stateIDs": [
          "TracingLaser_HemiBack_BS",
          "TracingLaser_HemiBack_Loop",
          "TracingLaser_HemiBack_AS"
        ],
        "flagTargetReachable": "11",
        "flagSelfOnTemplateCollider": "01",
        "flagSelfInZone": "11",
        "flagTargetInZone": "11"
      },
      "251": {
        "name": "EnergyBall",
        "castCondition": {
          "pose": [
            201
          ],
          "maxTargetAngleXZ": 90.0,
          "pickRangeMin": 4.0,
          "pickRangeMax": 50.0
        },
        "cd": 10.0,
        "cdUpperRange": 10.0,
        "publicCDGroup": "",
        "HHAGODJIAPE": "",
        "stateIDs": [
          "EnergyBall"
        ],
        "flagTargetReachable": "11",
        "flagSelfOnTemplateCollider": "11",
        "flagSelfInZone": "11",
        "flagTargetInZone": "11"
      },
      "261": {
        "name": "Reload",
        "castCondition": {
          "pose": [
            204
          ],
          "pickRangeMax": 99.0
        },
        "cd": 999.0,
        "initialCD": 999.0,
        "publicCDGroup": "",
        "HHAGODJIAPE": "",
        "stateIDs": [
          "Reload"
        ],
        "flagTargetReachable": "11",
        "flagSelfOnTemplateCollider": "11",
        "flagSelfInZone": "11",
        "flagTargetInZone": "11"
      },
      "271": {
        "name": "MultiEnergyBall",
        "priority": 2,
        "castCondition": {
          "pose": [
            201
          ],
          "maxTargetAngleXZ": 90.0,
          "pickRangeMax": 50.0
        },
        "cd": 30.0,
        "cdUpperRange": 15.0,
        "publicCDGroup": "",
        "HHAGODJIAPE": "",
        "stateIDs": [
          "MultiEnergyBall"
        ],
        "flagTargetReachable": "11",
        "flagSelfOnTemplateCollider": "11",
        "flagSelfInZone": "11",
        "flagTargetInZone": "11"
      },
      "281": {
        "name": "RunningAtk",
        "priority": 2,
        "castCondition": {
          "pose": [
            201,
            202
          ],
          "maxTargetAngleXZ": 75.0,
          "pickRangeMin": 15.0,
          "pickRangeMax": 40.0
        },
        "cd": 25.0,
        "cdUpperRange": 5.0,
        "initialCD": 15.0,
        "publicCDGroup": "",
        "HHAGODJIAPE": "",
        "stateIDs": [
          "RunningAtk_BS",
          "RunningAtk_Move",
          "RunningAtk_AS"
        ],
        "flagTargetReachable": "10",
        "flagSelfOnTemplateCollider": "01",
        "flagSelfInZone": "10",
        "flagTargetInZone": "11"
      },
      "291": {
        "name": "Enhance",
        "castCondition": {
          "pose": [
            209
          ]
        },
        "cd": 9.0,
        "publicCDGroup": "",
        "ignoreGCD": true,
        "triggerGCD": false,
        "triggerCDOnStart": true,
        "HHAGODJIAPE": "",
        "stateIDs": [
          "Enhance_BS",
          "Enhance_Loop",
          "Enhance_AS"
        ],
        "flagTargetReachable": "11",
        "flagSelfOnTemplateCollider": "11",
        "flagSelfInZone": "11",
        "flagTargetInZone": "11"
      },
      "301": {
        "name": "LegAtk",
        "priority": 2,
        "castCondition": {
          "pose": [
            201,
            202
          ],
          "maxTargetAngleXZ": 90.0,
          "pickRangeMin": 6.0,
          "pickRangeMax": 16.0
        },
        "cd": 10.0,
        "cdUpperRange": 6.0,
        "initialCD": 5.0,
        "publicCDGroup": "",
        "HHAGODJIAPE": "",
        "stateIDs": [
          "LegAtk"
        ],
        "flagTargetReachable": "10",
        "flagSelfOnTemplateCollider": "01",
        "flagSelfInZone": "11",
        "flagTargetInZone": "11"
      },
      "311": {
        "name": "ArmAtk",
        "priority": 2,
        "castCondition": {
          "pose": [
            201
          ],
          "maxTargetAngleXZ": 90.0,
          "pickRangeMin": 2.0,
          "pickRangeMax": 7.0
        },
        "cd": 12.0,
        "cdUpperRange": 6.0,
        "publicCDGroup": "",
        "HHAGODJIAPE": "",
        "stateIDs": [
          "ArmAtk"
        ],
        "flagTargetReachable": "10",
        "flagSelfOnTemplateCollider": "01",
        "flagSelfInZone": "10",
        "flagTargetInZone": "11"
      },
      "321": {
        "name": "Destroy_Move",
        "priority": 1,
        "castCondition": {
          "pose": [
            201
          ],
          "pickRangeMax": 99.0,
          "globalValues": [
            "Monster_Konungmathr_None_Destroy_ActiveMachine"
          ],
          "globalValuesLogicAnd": false
        },
        "cd": 20.0,
        "cdUpperRange": 6.0,
        "initialCD": 8.0,
        "initialCDUpperRange": 5.0,
        "publicCDGroup": "",
        "HHAGODJIAPE": "",
        "stateIDs": [
          "Destroy_Move_BS",
          "Destroy_Move_Loop",
          "Destroy_Move_AS",
          "Destroy_Atk_BS",
          "Destroy_Atk_Loop",
          "Destroy_Atk_AS"
        ],
        "flagTargetReachable": "10",
        "flagSelfOnTemplateCollider": "01",
        "flagSelfInZone": "10",
        "flagTargetInZone": "11"
      },
      "331": {
        "name": "Destroy_Laser",
        "priority": 1,
        "castCondition": {
          "pose": [
            203
          ],
          "pickRangeMax": 99.0,
          "globalValues": [
            "Monster_Konungmathr_None_DestroyLaser_ActiveMachine"
          ],
          "globalValuesLogicAnd": false
        },
        "cd": 5.0,
        "publicCDGroup": "",
        "HHAGODJIAPE": "",
        "stateIDs": [
          "Destroy_Laser_BS",
          "Destroy_Laser_Loop",
          "Destroy_Laser_AS"
        ],
        "flagTargetReachable": "11",
        "flagSelfOnTemplateCollider": "01",
        "flagSelfInZone": "11",
        "flagTargetInZone": "11"
      }
    },
    "skillGCD": 3.0,
    "birdCirclingTactic": [
      {
        "$type": "KACCHOLJDNK",
        "enable": true,
        "condition": {
          "pose": [
            201,
            202
          ]
        },
        "JMCOBEPDIGM": {
          "ANLAAGAMIKF": 1,
          "KHDFDAAAPEI": 7.0,
          "HKJODDGJPHA": 99.0,
          "GGEBMFHFBPO": 4.0,
          "FLPMDIAJDKL": false,
          "MNPDDAKDHGK": ""
        }
      },
      {
        "$type": "NNJKLGNPMNN",
        "enable": true,
        "JMCOBEPDIGM": {
          "ANLAAGAMIKF": 0,
          "JFMIFLNBKMJ": 1.0,
          "DHGJDIPNDHH": 3.0,
          "MNPDDAKDHGK": "",
          "GJDMDHIBCME": ""
        },
        "PIOCBHLFLJP": {
          "201": {
            "ANLAAGAMIKF": 1,
            "JFMIFLNBKMJ": 4.0,
            "DHGJDIPNDHH": 6.0,
            "MNPDDAKDHGK": "",
            "GJDMDHIBCME": ""
          }
        }
      },
      {
        "$type": "FPELBIJFGCE",
        "enable": true,
        "condition": {
          "pose": [
            100
          ]
        },
        "JMCOBEPDIGM": {
          "NBENNEKDIIA": 0.25,
          "KPNDPKIOPJM": 5.0,
          "PINAFKEDDLL": 3.0,
          "ANMPOPEBDIA": 30.0,
          "GMJFIMFFOEL": 10.0,
          "CHCPFDMADEI": 15.0,
          "MNPDDAKDHGK": ""
        }
      }
    ]
  },
  "inputKeys": [
    {
      "keyID": 281,
      "inputKeyCode": 257,
      "abilityName": ""
    },
    {
      "keyID": 291,
      "inputKeyCode": 258,
      "abilityName": ""
    },
    {
      "keyID": 301,
      "inputKeyCode": 259,
      "abilityName": ""
    },
    {
      "keyID": 311,
      "inputKeyCode": 260,
      "abilityName": ""
    },
    {
      "keyID": 321,
      "inputKeyCode": 261,
      "abilityName": ""
    },
    {
      "keyID": 331,
      "inputKeyCode": 262,
      "abilityName": ""
    },
    {
      "keyID": 271,
      "inputKeyCode": 263,
      "abilityName": ""
    },
    {
      "keyID": 301,
      "inputKeyCode": 264,
      "abilityName": ""
    },
    {
      "keyID": 311,
      "inputKeyCode": 265,
      "abilityName": ""
    }
  ],
  "move": {
    "$type": "IPNMJMHDMPF",
    "facingMove": "ForwardBackward",
    "destroyRockWhenInit": true,
    "PKHOMJHFAEE": "RootNode"
  },
  "audio": {
    "overrideEmitterName": "",
    "animAudio": {
      "onTransitionIn": [
        {
          "currentStateName": "Whirl_Loop",
          "audioEvent": {
            "text": "Play_sfx_monster_konungmathr_Whirl_Loop"
          }
        },
        {
          "currentStateName": "TracingLaser_Loop",
          "audioEvent": {
            "text": "Play_sfx_monster_konungmathr_tracinglaser_loop"
          }
        }
      ],
      "onTransitionOut": [
        {
          "currentStateName": "Whirl_Loop",
          "audioEvent": {
            "text": "Stop_sfx_monster_konungmathr_Whirl_Loop"
          }
        },
        {
          "currentStateName": "TracingLaser_Loop",
          "audioEvent": {
            "text": "Stop_sfx_monster_konungmathr_tracinglaser_loop"
          }
        }
      ]
    },
    "enableEvent": {
      "text": ""
    },
    "disableEvent": {
      "text": ""
    },
    "destroyEvent": {
      "text": ""
    }
  }
}