{
  "common": {
    "effectAttachShape": {
      "$type": "FJNPJANPGGC",
      "mesh": "EffectMesh"
    },
    "mass": 90.0,
    "modelHeight": 1.7000000476837158,
    "viewSize": 1.5,
    "affectedByWorld": true,
    "checkInSurface": true,
    "clearAnimatorOnSetLightDeactive": true,
    "clearAIOnSetLightDeactive": true
  },
  "specialPoint": {
    "elementAbsorb": "RootNode",
    "elementPendant": "",
    "elementDrop": "Chest",
    "bulletAim": "Chest"
  },
  "model": {
    "bornEffect": "Eff_Monster_Mimik_DigOutAttack_Warning",
    "attachEffect": "",
    "BKPFGNPLDNJ": ""
  },
  "combat": {
    "property": {
      "endureType": "Monster_Minion",
      "weight": 60.0
    },
    "beHit": {
      "hitBloodEffect": "",
      "ignoreMinHitVY": true
    },
    "combatLock": {
      "lockShape": "CircleLockEnemy",
      "lockType": "Avatar&Monster_Lv4"
    },
    "die": {
      "hasAnimatorDie": true,
      "dieEndTime": 1.0,
      "dieForceDisappearTime": 1.0,
      "dieDisappearEffect": "Eff_Death_Common",
      "dieShaderData": "MonsterDie",
      "muteHitBox": true,
      "dieDenyLockOn": true,
      "dieIsGhostToEnemy": true,
      "dieIgnoreTriggerBullet": true,
      "muteBillboard": true,
      "mutePushCollider": true
    },
    "animEvents": {
      "DigOutAtk": {
        "attackPattern": {
          "$type": "GMDIMKKHACA",
          "triggerType": "TriggerNoRepeat",
          "born": {
            "$type": "IAENDIPDFKD",
            "offset": {
              "KGEPIMHBMOL": 0.0,
              "JEBHCGDPFEJ": 0.0,
              "LPCHALMFFOD": 0.0
            }
          },
          "height": 3.0,
          "OAHPDLJIADP": 2.0
        },
        "attackInfo": {
          "attackTag": "",
          "attenuationTag": "",
          "attenuationGroup": "default",
          "attackProperty": {
            "actorGrassSubHurtDelta": 3.0,
            "actorWindSubHurtDelta": 0.0,
            "elementType": "Ice",
            "IPFJJJGABPL": 50.0,
            "strikeType": "Blunt",
            "enBreak": 200.0,
            "GLKMCMDJBIK": 0.0
          },
          "hitPattern": {
            "onHitEffectName": "default",
            "hitImpulseY": "",
            "hitImpulseType": "LV5",
            "hitHaltTimeScale": 0.009999999776482582
          },
          "forceCameraShake": true,
          "cameraShake": {
            "shakeType": "CustomVector",
            "shakeRange": 0.11999999731779099,
            "shakeTime": 0.15000000596046448,
            "shakeDistance": 25.0,
            "shakeDir": {
              "y": -1.0
            }
          }
        }
      },
      "Atk01": {
        "attackPattern": {
          "$type": "JHKEHNJBMOF",
          "triggerType": "TriggerNoRepeat",
          "born": {
            "$type": "JHEBKCMEMLN",
            "offset": {
              "KGEPIMHBMOL": 0.0,
              "JEBHCGDPFEJ": 0.0,
              "LPCHALMFFOD": 2.0
            }
          },
          "size": {
            "KGEPIMHBMOL": 1.600000023841858,
            "JEBHCGDPFEJ": 2.0,
            "LPCHALMFFOD": 4.5
          }
        },
        "attackInfo": {
          "attackTag": "",
          "attenuationTag": "",
          "attenuationGroup": "default",
          "attackProperty": {
            "actorGrassSubHurtDelta": 1.0,
            "actorWindSubHurtDelta": 0.0,
            "elementType": "Ice",
            "IPFJJJGABPL": 50.0,
            "strikeType": "Default",
            "enBreak": 75.0,
            "GLKMCMDJBIK": 0.0
          },
          "hitPattern": {
            "onHitEffectName": "default",
            "hitImpulseY": "",
            "hitImpulseType": "LV3",
            "hitHaltTimeScale": 0.05000000074505806
          },
          "forceCameraShake": true,
          "cameraShake": {
            "shakeType": "CustomVector",
            "shakeRange": 0.03999999910593033,
            "shakeTime": 0.09000000357627869,
            "shakeDistance": 7.5,
            "shakeDir": {
              "y": 1.0
            }
          }
        }
      },
      "Atk02": {
        "attackPattern": {
          "$type": "GMDIMKKHACA",
          "triggerType": "TriggerNoRepeat",
          "born": {
            "$type": "IAENDIPDFKD",
            "offset": {
              "KGEPIMHBMOL": 0.0,
              "JEBHCGDPFEJ": 0.0,
              "LPCHALMFFOD": 0.0
            }
          },
          "height": 2.0,
          "OAHPDLJIADP": 5.0
        },
        "attackInfo": {
          "attackTag": "",
          "attenuationTag": "",
          "attenuationGroup": "default",
          "attackProperty": {
            "actorGrassSubHurtDelta": 0.5,
            "actorWindSubHurtDelta": 0.0,
            "elementType": "Ice",
            "IPFJJJGABPL": 50.0,
            "strikeType": "Blunt",
            "enBreak": 200.0,
            "GLKMCMDJBIK": 0.0
          },
          "hitPattern": {
            "onHitEffectName": "default",
            "hitImpulseY": "",
            "hitImpulseType": "LV4",
            "hitHaltTimeScale": 0.009999999776482582
          },
          "forceCameraShake": true,
          "cameraShake": {
            "shakeType": "CustomVector",
            "shakeRange": 0.11999999731779099,
            "shakeTime": 0.15000000596046448,
            "shakeDistance": 25.0,
            "shakeDir": {
              "y": -1.0
            }
          }
        }
      }
    }
  },
  "equipController": {
    "sheathPoint": "",
    "attachPoints": {
      "fruit01": "fruit01",
      "fruit02": "fruit02",
      "fruit03": "fruit03"
    }
  },
  "abilities": [
    {
      "abilityID": "SteerAttack",
      "abilityName": "Monster_Mimik_SteerAttack",
      "abilityOverride": ""
    },
    {
      "abilityID": "FruitPartControl",
      "abilityName": "Monster_Mimik_FruitPartControl",
      "abilityOverride": ""
    },
    {
      "abilityID": "FruitManager",
      "abilityName": "Monster_Mimik_Ice_FruitManager",
      "abilityOverride": ""
    },
    {
      "abilityID": "Add3Fruit_Common",
      "abilityName": "Monster_Mimik_Add3Fruit",
      "abilityOverride": ""
    },
    {
      "abilityID": "ReduceFruit",
      "abilityName": "Monster_Mimik_ReduceFruit",
      "abilityOverride": ""
    },
    {
      "abilityID": "ClearFruit",
      "abilityName": "Monster_Mimik_ClearFruit",
      "abilityOverride": ""
    },
    {
      "abilityID": "Ice_FruitReborn_Effect",
      "abilityName": "Monster_Mimik_Ice_FruitReborn_Effect",
      "abilityOverride": ""
    },
    {
      "abilityID": "FruitReborn_TriggerShaderEffect01_Common",
      "abilityName": "Monster_Mimik_FruitReborn_TriggerShaderEffect01",
      "abilityOverride": ""
    },
    {
      "abilityID": "Ice_AbsorbFruit_DoFruitMoveEffect",
      "abilityName": "Mimik_Ice_AbsorbFruit_DoFruitMoveEffect",
      "abilityOverride": ""
    },
    {
      "abilityID": "AbsorbFruitState",
      "abilityName": "Monster_Mimik_Ice_AbsorbFruitState",
      "abilityOverride": ""
    },
    {
      "abilityID": "Ice_AbsorbFruit",
      "abilityName": "Monster_Mimik_Ice_AbsorbFruit",
      "abilityOverride": ""
    },
    {
      "abilityID": "Ice_Fruit_Effect",
      "abilityName": "Monster_Mimik_Ice_Fruit_Effect",
      "abilityOverride": ""
    },
    {
      "abilityID": "Ice_DownManager",
      "abilityName": "Monster_Mimik_Ice_DownManager",
      "abilityOverride": ""
    },
    {
      "abilityID": "Ice_ForwardShoot01",
      "abilityName": "Monster_Mimik_Ice_ForwardShoot01",
      "abilityOverride": ""
    },
    {
      "abilityID": "Ice_ElementState_On",
      "abilityName": "Monster_Mimik_Ice_ElementState_On",
      "abilityOverride": ""
    },
    {
      "abilityID": "Ice_ElementState_Off",
      "abilityName": "Monster_Mimik_Ice_ElementState_Off",
      "abilityOverride": ""
    },
    {
      "abilityID": "Underground",
      "abilityName": "Monster_Mimik_Underground",
      "abilityOverride": ""
    },
    {
      "abilityID": "RemoveUnderground",
      "abilityName": "Monster_Mimik_RemoveUnderground",
      "abilityOverride": ""
    },
    {
      "abilityID": "DigInFarTrigger",
      "abilityName": "Monster_Mimik_DigInFarTrigger",
      "abilityOverride": ""
    },
    {
      "abilityID": "GetDigOutPosClose",
      "abilityName": "Monster_Mimik_GetDigOutPosClose",
      "abilityOverride": ""
    },
    {
      "abilityID": "GetDigOutPosFar",
      "abilityName": "Monster_Mimik_GetDigOutPosFar",
      "abilityOverride": ""
    },
    {
      "abilityID": "GetDigOutPosBack",
      "abilityName": "Monster_Mimik_GetDigOutPosBack",
      "abilityOverride": ""
    },
    {
      "abilityID": "GetDigOutPosChase",
      "abilityName": "Monster_Mimik_GetDigOutPosChase",
      "abilityOverride": ""
    },
    {
      "abilityID": "GetDigOutPosRandom",
      "abilityName": "Monster_Mimik_GetDigOutPosRandom",
      "abilityOverride": ""
    },
    {
      "abilityID": "BlinkToDigOutPos",
      "abilityName": "Monster_Mimik_BlinkToDigOutPos",
      "abilityOverride": ""
    },
    {
      "abilityID": "Retreat",
      "abilityName": "Monster_Mimik_Retreat",
      "abilityOverride": ""
    },
    {
      "abilityID": "ResetRetreatCD",
      "abilityName": "Monster_Mimik_ResetRetreatCD",
      "abilityOverride": ""
    },
    {
      "abilityID": "RevengeAttackCDManager",
      "abilityName": "Monster_Mimik_RevengeAttackCDManager",
      "abilityOverride": ""
    },
    {
      "abilityID": "RevengeAttack",
      "abilityName": "Monster_Mimik_RevengeAttack",
      "abilityOverride": ""
    },
    {
      "abilityID": "Attack01_BS",
      "abilityName": "Mimik_Attack01_BS",
      "abilityOverride": ""
    },
    {
      "abilityID": "Attack01Close_BS",
      "abilityName": "Mimik_Attack01Close_BS",
      "abilityOverride": ""
    },
    {
      "abilityID": "Attack01",
      "abilityName": "Mimik_Attack01",
      "abilityOverride": ""
    },
    {
      "abilityID": "Attack01Close",
      "abilityName": "Mimik_Attack01Close",
      "abilityOverride": ""
    },
    {
      "abilityID": "Attack01_TriggerShaderEffect",
      "abilityName": "Monster_Mimik_Attack01_TriggerShaderEffect",
      "abilityOverride": ""
    },
    {
      "abilityID": "ShaderEffect_InterruptTrigger",
      "abilityName": "Monster_Mimik_ShaderEffect_InterruptTrigger",
      "abilityOverride": ""
    },
    {
      "abilityID": "ReturnToBornManager",
      "abilityName": "Monster_Mimik_ReturnToBornManager",
      "abilityOverride": ""
    },
    {
      "abilityID": "DamageManager",
      "abilityName": "Monster_Mimik_DamageManager",
      "abilityOverride": ""
    },
    {
      "abilityID": "Ice_SkillSet",
      "abilityName": "Monster_Mimik_Ice_SkillSet",
      "abilityOverride": ""
    }
  ],
  "stateLayers": {
    "defaultLayer": {
      "$type": "GBGJJIIEMBD",
      "layerIndexName": "",
      "CPAANEIJCGD": "",
      "stateIDs": {
        "Born": {
          "$type": "NEDIFAKEGCO",
          "animatorStates": {
            "Born": []
          },
          "canDoSkill": true,
          "canSyncMove": true,
          "cullingModelAlwaysAnimate": true,
          "resetAnimatorTriggerOnExit": [
            "DoSkill"
          ]
        },
        "NormalIdle": {
          "$type": "NEDIFAKEGCO",
          "animatorStates": {
            "Standby": []
          },
          "canDoSkill": true,
          "canSyncMove": true,
          "resetAnimatorTriggerOnExit": [
            "DoSkill"
          ],
          "canSteer": true
        },
        "DigMove": {
          "$type": "NEDIFAKEGCO",
          "animatorStates": {
            "DigInClose": [
              "Monster_Mimik_DigInClose",
              "Monster_Mimik_DigInEffect",
              "Monster_Mimik_UnderGround_DigIn",
              "Audio_Monster_Mimik_Ice_DiginChase"
            ],
            "DigInFar": [
              "Monster_Mimik_DigInFar",
              "Monster_Mimik_DigInEffect",
              "Monster_Mimik_UnderGround_DigIn",
              "Audio_Monster_Mimik_Ice_DiginChase"
            ],
            "DigInBack": [
              "Monster_Mimik_DigInBack",
              "Monster_Mimik_DigInEffect",
              "Monster_Mimik_UnderGround_DigIn",
              "Audio_Monster_Mimik_Ice_DiginChase"
            ],
            "DigInChase": [
              "Monster_Mimik_DigInChase",
              "Monster_Mimik_DigInEffect",
              "Monster_Mimik_UnderGround_DigIn",
              "Audio_Monster_Mimik_Ice_DiginChase"
            ]
          },
          "canSyncMove": true,
          "cullingModelAlwaysAnimate": true,
          "addEndure": 0.05000000074505806,
          "resetAnimatorTriggerOnExit": [
            "DoSkill",
            "DigInFarTrigger"
          ],
          "canSteer": true
        },
        "DigMoveRandom": {
          "$type": "NEDIFAKEGCO",
          "animatorStates": {
            "DigInRandom_01": [
              "Monster_Mimik_DigInRandom",
              "Monster_Mimik_DigInEffect",
              "Monster_Mimik_UnderGround_DigIn",
              "Audio_Monster_Mimik_Ice_DiginChase"
            ],
            "DigInRandom_02": [
              "Monster_Mimik_DigInRandom",
              "Monster_Mimik_DigInEffect",
              "Monster_Mimik_UnderGround_DigIn",
              "Audio_Monster_Mimik_Ice_DiginChase"
            ]
          },
          "canSyncMove": true,
          "cullingModelAlwaysAnimate": true,
          "addEndure": 0.05000000074505806,
          "canSteer": true
        },
        "DigOut_BS": {
          "$type": "NEDIFAKEGCO",
          "animatorStates": {
            "DigOut_BS": []
          },
          "canSyncMove": true,
          "cullingModelAlwaysAnimate": true,
          "addEndure": 0.05000000074505806,
          "resetAnimatorTriggerOnExit": [
            "DoSkill"
          ],
          "canSteer": true
        },
        "DigOut": {
          "$type": "NEDIFAKEGCO",
          "animatorStates": {
            "DigOut_Wait": [
              "Monster_Mimik_DigOut_Wait"
            ],
            "DigOut": [
              "Monster_Mimik_DigOutEffect",
              "Monster_Mimik_UnderGround_DigOut",
              "Audio_Monster_Mimik_Ice_DigOut"
            ],
            "DigOutAttack": [
              "Monster_Mimik_DigOutAttack",
              "Monster_Mimik_UnderGround_DigOut",
              "Audio_Monster_Mimik_Ice_DigOut"
            ],
            "Born_AS": [
              "Monster_Mimik_DigOutAttack",
              "Monster_Mimik_UnderGround_DigOut",
              "Audio_Monster_Mimik_Ice_DigOut"
            ]
          },
          "canSyncMove": true,
          "cullingModelAlwaysAnimate": true,
          "addEndure": 0.05000000074505806,
          "resetAnimatorTriggerOnExit": [
            "DoSkill"
          ],
          "canSteer": true
        },
        "DigOut_EndDelay": {
          "$type": "NEDIFAKEGCO",
          "animatorStates": {
            "DigOut_EndDelay": []
          },
          "canSyncMove": true,
          "cullingModelAlwaysAnimate": true,
          "resetAnimatorTriggerOnExit": [
            "DoSkill"
          ],
          "canSteer": true
        },
        "FruitReborn": {
          "$type": "NEDIFAKEGCO",
          "animatorStates": {
            "FruitReborn_BS": [
              "Monster_Mimik_DigInEffect",
              "Monster_Mimik_UnderGround_DigIn",
              "Audio_Monster_Mimik_Ice_FruitReborn_BS"
            ],
            "FruitReborn_Act": [],
            "FruitReborn_AS": [
              "Monster_Mimik_Ice_FruitReborn_AS",
              "Monster_Mimik_UnderGround_DigOut",
              "Audio_Monster_Mimik_Ice_FruitReborn_AS"
            ]
          },
          "canSyncMove": true,
          "cullingModelAlwaysAnimate": true,
          "addEndure": 0.05000000074505806,
          "resetAnimatorTriggerOnExit": [
            "DoSkill"
          ],
          "canSteer": true
        },
        "BeHit": {
          "$type": "NEDIFAKEGCO",
          "animatorStates": {
            "Hit_H": []
          },
          "canDoSkill": true,
          "resetAnimatorTriggerOnEnter": [
            "BeHit",
            "DigInFarTrigger"
          ],
          "resetAnimatorTriggerOnExit": [
            "DoSkill",
            "InterruptTrigger"
          ]
        },
        "BeHitThrow": {
          "$type": "NEDIFAKEGCO",
          "animatorStates": {
            "HitThrow": [
              "Monster_Mimik_HitThrow"
            ],
            "HitThrowDrop": [],
            "HitThrowToGround": [
              "Monster_Mimik_HitThrowToGround",
              "Audio_Monster_Mimik_Ice_HitGround"
            ]
          },
          "addEndure": 0.05000000074505806,
          "resetAnimatorTriggerOnEnter": [
            "BeHit",
            "HitAir2HitDrop"
          ],
          "resetAnimatorTriggerOnExit": [
            "DoSkill",
            "InterruptTrigger"
          ]
        },
        "Struggle": {
          "$type": "NEDIFAKEGCO",
          "animatorStates": {
            "Struggle": []
          },
          "resetAnimatorTriggerOnEnter": [
            "BeHit",
            "HitAir2HitDrop"
          ],
          "resetAnimatorTriggerOnExit": [
            "DoSkill",
            "InterruptTrigger"
          ]
        },
        "Die": {
          "$type": "NEDIFAKEGCO",
          "animatorStates": {
            "Die1": [
              "Audio_Monster_Mimik_Ice_Die"
            ],
            "Die2": [
              "Audio_Monster_Mimik_Ice_Die"
            ],
            "FallingDie": [],
            "SwimDie": [
              "Audio_Monster_Mimik_Ice_Die"
            ],
            "AirDie": [
              "Audio_Monster_Mimik_Ice_Die"
            ]
          },
          "cullingModelAlwaysAnimate": true
        },
        "Life_Warning": {
          "$type": "NEDIFAKEGCO",
          "animatorStates": {
            "Alert": [],
            "Warning": [
              "Audio_Monster_Mimik_Ice_DigOut"
            ]
          },
          "cullingModelAlwaysAnimate": true,
          "addEndure": 0.0,
          "resetAnimatorTriggerOnExit": [
            "BeHit",
            "DoSkill"
          ],
          "canSteer": true
        },
        "Attack01Close_BS": {
          "$type": "NEDIFAKEGCO",
          "animatorStates": {
            "Attack01Close_BS": [
              "Monster_Mimik_Ice_Attack01Close_BS",
              "Audio_Monster_Mimik_Ice_MeleeAtk_01_BS"
            ]
          },
          "addEndure": 0.75,
          "resetAnimatorTriggerOnEnter": [
            "InterruptTrigger"
          ],
          "resetAnimatorTriggerOnExit": [
            "BeHit",
            "DoSkill"
          ]
        },
        "Attack01Close": {
          "$type": "NEDIFAKEGCO",
          "animatorStates": {
            "Attack01Close": [
              "Monster_Mimik_Ice_Attack01Close",
              "Audio_Monster_Mimik_Ice_MeleeAtk_01"
            ]
          },
          "addEndure": 0.75,
          "resetAnimatorTriggerOnEnter": [
            "InterruptTrigger"
          ],
          "resetAnimatorTriggerOnExit": [
            "BeHit",
            "DoSkill"
          ]
        },
        "Attack01_BS": {
          "$type": "NEDIFAKEGCO",
          "animatorStates": {
            "Attack01_01_BS": [
              "Monster_Mimik_Ice_Attack01_BS",
              "Audio_Monster_Mimik_Ice_MeleeAtk_01_BS"
            ],
            "Attack01_02_BS": [
              "Monster_Mimik_Ice_Attack01_BS",
              "Audio_Monster_Mimik_Ice_MeleeAtk_01_BS"
            ],
            "Attack01_03_BS": [
              "Monster_Mimik_Ice_Attack01_BS",
              "Audio_Monster_Mimik_Ice_MeleeAtk_01_BS"
            ]
          },
          "addEndure": 0.75,
          "resetAnimatorTriggerOnEnter": [
            "InterruptTrigger"
          ],
          "resetAnimatorTriggerOnExit": [
            "BeHit",
            "DoSkill"
          ]
        },
        "Attack01": {
          "$type": "NEDIFAKEGCO",
          "animatorStates": {
            "Attack01_01": [
              "Monster_Mimik_Ice_Attack01",
              "Audio_Monster_Mimik_Ice_MeleeAtk_01"
            ],
            "Attack01_02": [
              "Monster_Mimik_Ice_Attack01",
              "Audio_Monster_Mimik_Ice_MeleeAtk_01"
            ],
            "Attack01_03": [
              "Monster_Mimik_Ice_Attack01",
              "Audio_Monster_Mimik_Ice_MeleeAtk_01"
            ]
          },
          "addEndure": 0.75,
          "resetAnimatorTriggerOnEnter": [
            "DigInFarTrigger"
          ],
          "resetAnimatorTriggerOnExit": [
            "BeHit",
            "DoSkill"
          ]
        },
        "RevengeAttack_BS": {
          "$type": "NEDIFAKEGCO",
          "animatorStates": {
            "RevengeAttack_BS": [
              "Monster_Mimik_Ice_Attack02_BS",
              "Audio_Monster_Mimik_Ice_RevengeAtk_BS"
            ]
          },
          "addEndure": 0.75,
          "resetAnimatorTriggerOnExit": [
            "BeHit",
            "DoSkill"
          ]
        },
        "RevengeAttack": {
          "$type": "NEDIFAKEGCO",
          "animatorStates": {
            "RevengeAttack": [
              "Monster_Mimik_Ice_Attack02",
              "Audio_Monster_Mimik_Ice_RevengeAtk"
            ]
          },
          "addEndure": 0.75,
          "resetAnimatorTriggerOnExit": [
            "BeHit",
            "DoSkill"
          ]
        },
        "AbsorbFruit": {
          "$type": "NEDIFAKEGCO",
          "animatorStates": {
            "AbsorbFruit_BS": [
              "Monster_Mimik_Ice_AbsorbFruit_BS",
              "Audio_Monster_Mimik_Ice_AbsorbFruit_BS"
            ],
            "AbsorbFruit_AS": [
              "Monster_Mimik_Ice_AbsorbFruit_AS",
              "Audio_Monster_Mimik_Ice_AbsorbFruit_AS"
            ]
          },
          "addEndure": 0.05000000074505806,
          "resetAnimatorTriggerOnExit": [
            "BeHit",
            "DoSkill"
          ]
        },
        "AbsorbFruit_Loop": {
          "$type": "NEDIFAKEGCO",
          "animatorStates": {
            "AbsorbFruit_Loop": []
          },
          "addEndure": 0.05000000074505806,
          "resetAnimatorTriggerOnExit": [
            "BeHit",
            "DoSkill"
          ]
        },
        "ForwardShoot01": {
          "$type": "NEDIFAKEGCO",
          "animatorStates": {
            "ForwardShoot01_BS": [
              "Audio_Monster_Mimik_Ice_ForwardShoot_01_BS"
            ],
            "ForwardShoot01_Shoot": [
              "Monster_Mimik_Ice_ForwardShoot01"
            ],
            "ForwardShoot01_AS": [
              "Audio_Monster_Mimik_Ice_ForwardShoot_01_AS"
            ]
          },
          "addEndure": 0.05000000074505806,
          "resetAnimatorTriggerOnExit": [
            "BeHit",
            "DoSkill"
          ]
        },
        "Down": {
          "$type": "NEDIFAKEGCO",
          "animatorStates": {
            "Down_BS": [
              "Monster_Mimik_Ice_AbsorbFruit_Break",
              "Audio_Monster_Mimik_Ice_Down_BS"
            ],
            "Down_Loop": [],
            "Down_AS": [
              "Audio_Monster_Mimik_Ice_Down_AS"
            ]
          },
          "canDoSkill": true,
          "canSyncMove": true,
          "addEndure": 10.0,
          "resetAnimatorTriggerOnExit": [
            "DoSkill"
          ]
        },
        "ReturnToBorn": {
          "$type": "NEDIFAKEGCO",
          "animatorStates": {
            "ReturnToBorn": [
              "Monster_Mimik_Ice_ReturnToBorn",
              "Monster_Mimik_UnderGround_DigIn"
            ],
            "ReturnToBorn_AS_Wait": [
              "Monster_Mimik_DigOut_Wait"
            ],
            "ReturnToBorn_AS": [
              "Monster_Mimik_DigOutEffect",
              "Monster_Mimik_UnderGround_DigOut",
              "Audio_Monster_Mimik_Ice_DigOut"
            ]
          },
          "cullingModelAlwaysAnimate": true,
          "resetAnimatorTriggerOnExit": [
            "BeHit",
            "DoSkill"
          ]
        }
      }
    }
  },
  "partControl": {
    "parts": [
      {
        "$type": "INCPGKCDCIO",
        "angularSpeed": 3600.0,
        "partRootName": "Fruit01",
        "forwardByTransName": "",
        "limitHorizontal": 360.0,
        "limitVertical": 0.0
      },
      {
        "$type": "INCPGKCDCIO",
        "angularSpeed": 3600.0,
        "partRootName": "Fruit02",
        "forwardByTransName": "",
        "limitHorizontal": 360.0,
        "limitVertical": 0.0
      },
      {
        "$type": "INCPGKCDCIO",
        "angularSpeed": 3600.0,
        "partRootName": "Fruit03",
        "forwardByTransName": "",
        "limitHorizontal": 360.0,
        "limitVertical": 0.0
      }
    ]
  },
  "billboard": {
    "$type": "DNGNMAJBCNP",
    "attachPoint": "BillboardAttach",
    "offset": {
      "y": 1.5
    },
    "radiusOffset": 0.20000000298023224,
    "showHPBar": true
  },
  "DADEGCDMOBD": false,
  "initialPoses": {
    "Default": {}
  },
  "aibeta": {
    "enable": true,
    "sensing": {
      "settings": {
        "DefaultSetting": {
          "feelRange": 25.0
        },
        "Sacrifice": {
          "viewRange": 10.0
        }
      }
    },
    "neurons": {
      "DefaultSetting": [
        "HIT"
      ]
    },
    "threat": {
      "GHIJMOKOLMB": "",
      "clearThreatTargetDistance": 30.0,
      "clearThreatEdgeDistance": 7.5,
      "clearThreatTimerByDistance": 1.5,
      "viewThreatGrow": 35.0,
      "feelThreatGrow": 100.0,
      "threatDecreaseSpeed": 10.0
    },
    "defendArea": {},
    "skillGroupCDConfigs": [
      {
        "skillGroupCDID": 1,
        "skillGroupCDTime": 0.0
      },
      {
        "skillGroupCDID": 2,
        "skillGroupCDTime": 10.0
      }
    ],
    "skillSetting": {
      "skillEliteSet": {
        "1": [
          201,
          202,
          301,
          312
        ],
        "101": [
          211,
          212,
          302
        ]
      }
    },
    "skills": {
      "102": {
        "name": "OnAlert",
        "skillType": "OnAlert",
        "publicCDGroup": "",
        "ignoreGCD": true,
        "triggerGCD": false,
        "HHAGODJIAPE": "",
        "stateIDs": [
          "Life_Warning"
        ],
        "skillQueryingTime": 3.0,
        "flagTargetReachable": "10",
        "flagSelfOnTemplateCollider": "01",
        "flagSelfInZone": "10",
        "flagTargetInZone": "11"
      },
      "201": {
        "name": "Attack01",
        "combatSkillType": "RangedAttack",
        "castCondition": {
          "pose": [
            2101,
            2201,
            2301
          ],
          "pickRangeMin": 8.5,
          "pickRangeMax": 15.0,
          "castRangeMin": 8.5,
          "castRangeMax": 15.0
        },
        "cd": 2.0,
        "publicCDGroup": "",
        "ignoreGCD": true,
        "triggerGCD": false,
        "skillGroupCDID": 1,
        "HHAGODJIAPE": "",
        "stateIDs": [
          "Attack01",
          "Attack01_BS"
        ],
        "flagTargetReachable": "11",
        "flagSelfOnTemplateCollider": "01",
        "flagSelfInZone": "10",
        "flagTargetInZone": "11"
      },
      "211": {
        "name": "Attack01",
        "combatSkillType": "RangedAttack",
        "castCondition": {
          "pose": [
            2101,
            2201,
            2301
          ],
          "pickRangeMin": 8.5,
          "pickRangeMax": 15.0,
          "castRangeMin": 8.5,
          "castRangeMax": 15.0
        },
        "cd": 5.0,
        "cdUpperRange": 5.0,
        "initialCD": 5.0,
        "initialCDUpperRange": 5.0,
        "publicCDGroup": "",
        "ignoreGCD": true,
        "triggerGCD": false,
        "skillGroupCDID": 1,
        "HHAGODJIAPE": "",
        "stateIDs": [
          "Attack01",
          "Attack01_BS"
        ],
        "flagTargetReachable": "11",
        "flagSelfOnTemplateCollider": "01",
        "flagSelfInZone": "10",
        "flagTargetInZone": "11"
      },
      "202": {
        "name": "Attack01_Close",
        "combatSkillType": "MeleeAttack",
        "castCondition": {
          "pose": [
            1101,
            1201,
            1301,
            2101,
            2201,
            2301
          ],
          "pickRangeMax": 8.5,
          "castRangeMax": 8.5
        },
        "cd": 2.0,
        "publicCDGroup": "",
        "ignoreGCD": true,
        "triggerGCD": false,
        "skillGroupCDID": 1,
        "HHAGODJIAPE": "",
        "stateIDs": [
          "Attack01Close_BS",
          "Attack01Close"
        ],
        "flagTargetReachable": "11",
        "flagSelfOnTemplateCollider": "01",
        "flagSelfInZone": "11",
        "flagTargetInZone": "11"
      },
      "212": {
        "name": "Attack01_Close",
        "combatSkillType": "MeleeAttack",
        "castCondition": {
          "pose": [
            1101,
            1201,
            1301,
            2101,
            2201,
            2301
          ],
          "pickRangeMax": 8.5,
          "castRangeMax": 8.5
        },
        "cd": 5.0,
        "cdUpperRange": 5.0,
        "initialCD": 5.0,
        "initialCDUpperRange": 5.0,
        "publicCDGroup": "",
        "ignoreGCD": true,
        "triggerGCD": false,
        "skillGroupCDID": 1,
        "HHAGODJIAPE": "",
        "stateIDs": [
          "Attack01Close_BS",
          "Attack01Close"
        ],
        "flagTargetReachable": "11",
        "flagSelfOnTemplateCollider": "01",
        "flagSelfInZone": "11",
        "flagTargetInZone": "11"
      },
      "203": {
        "name": "Attack02",
        "priority": 1,
        "castCondition": {
          "pose": [
            1101,
            1201,
            1301
          ],
          "pickRangeMax": 5.0,
          "castRangeMax": 5.0
        },
        "cd": 3.0,
        "initialCD": 3.0,
        "publicCDGroup": "",
        "skillGroupCDID": 1,
        "HHAGODJIAPE": "",
        "stateIDs": [
          "RevengeAttack_BS",
          "RevengeAttack",
          "DigMove",
          "DigOut",
          "DigOut_BS",
          "DigOut_EndDelay"
        ],
        "flagTargetReachable": "11",
        "flagSelfOnTemplateCollider": "01",
        "flagSelfInZone": "11",
        "flagTargetInZone": "11"
      },
      "301": {
        "name": "FruitSkill_ForwardShoot01",
        "combatSkillType": "RangedAttack",
        "priority": 1,
        "castCondition": {
          "pose": [
            1101,
            1201,
            1301,
            2101,
            2201,
            2301,
            3101,
            3201,
            3301
          ],
          "pickRangeMin": 6.0,
          "pickRangeMax": 30.0,
          "castRangeMax": 30.0
        },
        "cd": 10.0,
        "initialCD": 10.0,
        "publicCDGroup": "Mimik_FruitSkill",
        "skillGroupCDID": 2,
        "HHAGODJIAPE": "",
        "stateIDs": [
          "RevengeAttack_BS",
          "RevengeAttack",
          "DigMove",
          "DigOut",
          "AbsorbFruit",
          "AbsorbFruit_Loop",
          "ForwardShoot01",
          "Down"
        ],
        "flagTargetReachable": "11",
        "flagSelfOnTemplateCollider": "11",
        "flagSelfInZone": "11",
        "flagTargetInZone": "11"
      },
      "302": {
        "name": "FruitSkill_ForwardShoot01",
        "combatSkillType": "RangedAttack",
        "priority": 1,
        "castCondition": {
          "pose": [
            1101,
            1201,
            1301,
            2101,
            2201,
            2301,
            3101,
            3201,
            3301
          ],
          "pickRangeMax": 3.0,
          "castRangeMax": 30.0
        },
        "cd": 10.0,
        "cdUpperRange": 10.0,
        "initialCD": 10.0,
        "publicCDGroup": "Mimik_FruitSkill",
        "skillGroupCDID": 2,
        "HHAGODJIAPE": "",
        "stateIDs": [
          "DigMove",
          "DigOut",
          "AbsorbFruit",
          "AbsorbFruit_Loop",
          "ForwardShoot01",
          "Down"
        ],
        "flagTargetReachable": "11",
        "flagSelfOnTemplateCollider": "11",
        "flagSelfInZone": "11",
        "flagTargetInZone": "11"
      },
      "312": {
        "name": "FruitSkill_ForwardShoot01",
        "combatSkillType": "RangedAttack",
        "priority": 1,
        "castCondition": {
          "pose": [
            1101,
            1201,
            1301,
            2101,
            2201,
            2301
          ],
          "pickRangeMax": 6.0,
          "castRangeMax": 30.0
        },
        "cd": 10.0,
        "initialCD": 10.0,
        "publicCDGroup": "Mimik_FruitSkill",
        "skillGroupCDID": 2,
        "HHAGODJIAPE": "",
        "stateIDs": [
          "RevengeAttack_BS",
          "RevengeAttack",
          "DigMove",
          "DigOut",
          "DigOut_BS",
          "AbsorbFruit",
          "AbsorbFruit_Loop",
          "ForwardShoot01",
          "Down"
        ],
        "flagTargetReachable": "11",
        "flagSelfOnTemplateCollider": "11",
        "flagSelfInZone": "11",
        "flagTargetInZone": "11"
      },
      "501": {
        "name": "DigMoveClose",
        "castCondition": {
          "pose": [
            3101,
            3201,
            3301
          ],
          "pickRangeMax": 50.0,
          "castRangeMax": 50.0
        },
        "publicCDGroup": "",
        "ignoreGCD": true,
        "triggerGCD": false,
        "HHAGODJIAPE": "",
        "stateIDs": [
          "DigMove",
          "DigMoveRandom",
          "DigOut",
          "DigOut_EndDelay"
        ],
        "flagTargetReachable": "11",
        "flagSelfOnTemplateCollider": "01",
        "flagSelfInZone": "10",
        "flagTargetInZone": "10"
      },
      "502": {
        "name": "DigMoveFar",
        "castCondition": {
          "pose": [
            1101,
            1201,
            1301
          ],
          "pickRangeMax": 50.0,
          "castRangeMax": 50.0
        },
        "cd": 15.0,
        "initialCD": 3.0,
        "publicCDGroup": "",
        "ignoreGCD": true,
        "triggerGCD": false,
        "HHAGODJIAPE": "",
        "stateIDs": [
          "DigMove",
          "DigOut",
          "DigOut_EndDelay",
          "DigOut_BS"
        ],
        "flagTargetReachable": "10",
        "flagSelfOnTemplateCollider": "01",
        "flagSelfInZone": "11",
        "flagTargetInZone": "11"
      },
      "601": {
        "name": "FruitReborn",
        "castCondition": {
          "pose": [
            2001
          ]
        },
        "publicCDGroup": "",
        "ignoreGCD": true,
        "triggerGCD": false,
        "HHAGODJIAPE": "",
        "stateIDs": [
          "FruitReborn"
        ],
        "flagTargetReachable": "11",
        "flagSelfOnTemplateCollider": "01",
        "flagSelfInZone": "11",
        "flagTargetInZone": "11"
      }
    },
    "skillGCD": 0.5,
    "birdCirclingTactic": [
      {
        "$type": "MCDGOJLCMBM",
        "JMCOBEPDIGM": {
          "DMGAHPPFMPK": 0.5,
          "FLENLLDBFGP": 0.5,
          "MNPDDAKDHGK": "",
          "GJDMDHIBCME": ""
        }
      },
      {
        "$type": "NNJKLGNPMNN",
        "enable": true,
        "JMCOBEPDIGM": {
          "ANLAAGAMIKF": 0,
          "JFMIFLNBKMJ": 1.0,
          "DHGJDIPNDHH": 4.5,
          "MNPDDAKDHGK": "",
          "GJDMDHIBCME": ""
        }
      },
      {
        "$type": "FPELBIJFGCE",
        "condition": {
          "pose": [
            100,
            300
          ]
        },
        "JMCOBEPDIGM": {
          "NBENNEKDIIA": 0.20000000298023224,
          "ANMPOPEBDIA": 25.0,
          "GMJFIMFFOEL": 7.5,
          "MNPDDAKDHGK": ""
        }
      }
    ]
  },
  "inputKeys": [
    {
      "keyID": 101,
      "inputKeyCode": 257,
      "abilityName": ""
    },
    {
      "keyID": 201,
      "inputKeyCode": 258,
      "abilityName": ""
    },
    {
      "keyID": 202,
      "inputKeyCode": 259,
      "abilityName": ""
    },
    {
      "keyID": 301,
      "inputKeyCode": 260,
      "abilityName": ""
    },
    {
      "keyID": 311,
      "inputKeyCode": 261,
      "abilityName": ""
    },
    {
      "keyID": 312,
      "inputKeyCode": 262,
      "abilityName": ""
    },
    {
      "keyID": 401,
      "inputKeyCode": 263,
      "abilityName": ""
    },
    {
      "keyID": 402,
      "inputKeyCode": 264,
      "abilityName": ""
    },
    {
      "keyID": 601,
      "inputKeyCode": 265,
      "abilityName": ""
    },
    {
      "keyID": 501,
      "inputKeyCode": 266,
      "abilityName": ""
    }
  ],
  "move": {
    "$type": "IPNMJMHDMPF",
    "monsterSizeType": "StrongHumanoidType",
    "PKHOMJHFAEE": "RootNode"
  },
  "audio": {
    "overrideEmitterName": "",
    "animAudio": {
      "onTransitionIn": [
        {
          "currentStateName": "ForwardShoot01_Shoot",
          "audioEvent": {
            "text": "Play_sfx_monster_mimik_ice_forwardShoot_01_shoot"
          }
        },
        {
          "currentStateName": "AbsorbFruit_Loop",
          "audioEvent": {
            "text": "Play_sfx_monster_mimik_ice_absorbFruit"
          }
        },
        {
          "currentStateName": "Down_Loop",
          "audioEvent": {
            "text": "Play_sfx_monster_mimik_ice_down_lp"
          }
        }
      ],
      "onTransitionOut": [
        {
          "currentStateName": "ForwardShoot01_Shoot",
          "audioEvent": {
            "text": "Stop_sfx_monster_mimik_ice_forwardShoot_01_shoot"
          }
        },
        {
          "currentStateName": "AbsorbFruit_Loop",
          "audioEvent": {
            "text": "Stop_sfx_monster_mimik_ice_absorbFruit"
          }
        },
        {
          "currentStateName": "Down_Loop",
          "audioEvent": {
            "text": "Stop_sfx_monster_mimik_ice_down_lp"
          }
        }
      ]
    },
    "disableEvent": {
      "text": ""
    },
    "destroyEvent": {
      "text": ""
    }
  }
}