{
  "common": {
    "effectAttachShape": {
      "$type": "FJNPJANPGGC",
      "mesh": "EffectMesh"
    },
    "mass": 1000000.0,
    "height": 8.0,
    "affectedByWorld": true,
    "checkInSurface": true
  },
  "specialPoint": {
    "elementAbsorb": "RootNode",
    "elementPendant": "",
    "elementDrop": "RootNode",
    "bulletAim": "Fruit",
    "selectedPoints": [
      "Fruit",
      "Core",
      "RootNode"
    ]
  },
  "combat": {
    "property": {
      "endureType": "Monster_Boss_Other",
      "weight": 300.0
    },
    "beHit": {
      "hitBloodEffect": "",
      "muteAllHitEffect": true,
      "blendShake": {
        "$type": "HNNFKJBHGCC",
        "shakeFlagMap": [
          {
            "hitBoxNames": [
              "HitBox_Core_Lockable"
            ]
          },
          {
            "hitBoxNames": [
              "HitBox_Core_Critical"
            ]
          },
          {
            "shakeFlag": 0.20000000298023224,
            "hitBoxNames": [
              "HitBox_Core"
            ]
          },
          {
            "shakeFlag": 0.20000000298023224,
            "hitBoxNames": [
              "HitBox_Core_Critical_Lockable"
            ]
          },
          {
            "shakeFlag": 0.4000000059604645,
            "hitBoxNames": [
              "HitBox_Base"
            ]
          },
          {
            "shakeFlag": 0.6000000238418579,
            "hitBoxNames": [
              "HitBox_Fruit"
            ]
          },
          {
            "shakeFlag": 0.800000011920929,
            "hitBoxNames": [
              "HitBox_BranchL"
            ]
          },
          {
            "shakeFlag": 1.0,
            "hitBoxNames": [
              "HitBox_BranchR"
            ]
          }
        ]
      }
    },
    "combatLock": {
      "lockShape": "CircleLockEnemy",
      "lockType": "Avatar&Monster_Lv4"
    },
    "die": {
      "hasAnimatorDie": true,
      "dieEndTime": 2.0,
      "dieForceDisappearTime": 4.0,
      "dieDisappearEffect": "Eff_Death_Common",
      "dieShaderData": "MonsterDie",
      "muteHitBox": true,
      "dieDenyLockOn": true,
      "dieIsGhostToEnemy": true,
      "dieIgnoreTriggerBullet": true,
      "muteBillboard": true,
      "mutePushCollider": true
    },
    "animEvents": {
      "MeleeAtk01": {
        "attackPattern": {
          "$type": "JHKEHNJBMOF",
          "triggerType": "TriggerNoRepeat",
          "born": {
            "$type": "JHEBKCMEMLN",
            "offset": {
              "KGEPIMHBMOL": 0.0,
              "JEBHCGDPFEJ": 1.0,
              "LPCHALMFFOD": 2.5
            }
          },
          "size": {
            "KGEPIMHBMOL": 4.0,
            "JEBHCGDPFEJ": 2.0,
            "LPCHALMFFOD": 4.0
          }
        },
        "attackInfo": {
          "attackTag": "",
          "attenuationTag": "",
          "attenuationGroup": "default",
          "attackProperty": {
            "actorGrassSubHurtDelta": 1.0,
            "actorWindSubHurtDelta": 0.0,
            "elementType": "Ice",
            "IPFJJJGABPL": 100.0,
            "strikeType": "Blunt",
            "enBreak": 200.0,
            "GLKMCMDJBIK": 0.0
          },
          "hitPattern": {
            "onHitEffectName": "default",
            "hitImpulseY": "",
            "hitImpulseType": "LV5",
            "hitHaltTimeScale": 0.009999999776482582
          },
          "forceCameraShake": true,
          "cameraShake": {
            "shakeType": "CustomVector",
            "shakeRange": 1.0,
            "shakeTime": 0.15000000596046448,
            "shakeDistance": 25.0,
            "shakeDir": {
              "y": -1.0
            }
          }
        }
      },
      "MeleeAtk02": {
        "attackPattern": {
          "$type": "GMDIMKKHACA",
          "triggerType": "TriggerNoRepeat",
          "born": {
            "$type": "IAENDIPDFKD",
            "offset": {
              "KGEPIMHBMOL": 0.0,
              "JEBHCGDPFEJ": 0.0,
              "LPCHALMFFOD": 0.0
            },
            "direction": {
              "$type": "AHGNBAPONLA",
              "angleOffset": {
                "KGEPIMHBMOL": 0.0,
                "JEBHCGDPFEJ": 270.0,
                "LPCHALMFFOD": 0.0
              }
            }
          },
          "height": 6.0,
          "fanAngle": 210.0,
          "OAHPDLJIADP": 9.0
        },
        "attackInfo": {
          "attackTag": "",
          "attenuationTag": "",
          "attenuationGroup": "default",
          "attackProperty": {
            "actorGrassSubHurtDelta": 1.0,
            "actorWindSubHurtDelta": 0.0,
            "elementType": "Ice",
            "IPFJJJGABPL": 100.0,
            "strikeType": "Default",
            "enBreak": 200.0,
            "GLKMCMDJBIK": 0.0
          },
          "hitPattern": {
            "onHitEffectName": "default",
            "hitImpulseY": "",
            "hitImpulseType": "LV5",
            "hitHaltTimeScale": 0.009999999776482582
          },
          "forceCameraShake": true,
          "cameraShake": {
            "shakeType": "CustomVector",
            "shakeRange": 3.0,
            "shakeTime": 0.15000000596046448,
            "shakeDistance": 25.0,
            "shakeDir": {
              "x": 1.0
            }
          }
        }
      },
      "MeleeAtk02_Reverse": {
        "attackPattern": {
          "$type": "GMDIMKKHACA",
          "triggerType": "TriggerNoRepeat",
          "born": {
            "$type": "IAENDIPDFKD",
            "offset": {
              "KGEPIMHBMOL": 0.0,
              "JEBHCGDPFEJ": 0.0,
              "LPCHALMFFOD": 0.0
            },
            "direction": {
              "$type": "AHGNBAPONLA",
              "angleOffset": {
                "KGEPIMHBMOL": 0.0,
                "JEBHCGDPFEJ": -270.0,
                "LPCHALMFFOD": 0.0
              }
            }
          },
          "height": 6.0,
          "fanAngle": 210.0,
          "OAHPDLJIADP": 9.0
        },
        "attackInfo": {
          "attackTag": "",
          "attenuationTag": "",
          "attenuationGroup": "default",
          "attackProperty": {
            "actorGrassSubHurtDelta": 1.0,
            "actorWindSubHurtDelta": 0.0,
            "elementType": "Ice",
            "IPFJJJGABPL": 100.0,
            "strikeType": "Default",
            "enBreak": 200.0,
            "GLKMCMDJBIK": 0.0
          },
          "hitPattern": {
            "onHitEffectName": "default",
            "hitImpulseY": "",
            "hitImpulseType": "LV5",
            "hitHaltTimeScale": 0.009999999776482582
          },
          "forceCameraShake": true,
          "cameraShake": {
            "shakeType": "CustomVector",
            "shakeRange": 1.5,
            "shakeTime": 0.30000001192092896,
            "shakeDistance": 25.0,
            "shakeDir": {
              "x": -1.0
            }
          }
        }
      },
      "MeleeAtk03": {
        "attackPattern": {
          "$type": "GMDIMKKHACA",
          "triggerType": "TriggerNoRepeat",
          "born": {
            "$type": "IAENDIPDFKD",
            "offset": {
              "KGEPIMHBMOL": 0.0,
              "JEBHCGDPFEJ": 0.0,
              "LPCHALMFFOD": 0.0
            }
          },
          "height": 6.0,
          "OAHPDLJIADP": 10.0
        },
        "attackInfo": {
          "attackTag": "",
          "attenuationTag": "Regisvine_MeleeAttack03",
          "attenuationGroup": "Regisvine_Common",
          "attackProperty": {
            "actorGrassSubHurtDelta": 1.0,
            "actorWindSubHurtDelta": 0.0,
            "elementType": "Ice",
            "IPFJJJGABPL": 100.0,
            "strikeType": "Blunt",
            "enBreak": 200.0,
            "GLKMCMDJBIK": 0.0
          },
          "hitPattern": {
            "onHitEffectName": "default",
            "hitImpulseY": "",
            "hitImpulseType": "LV5",
            "hitHaltTimeScale": 0.009999999776482582
          },
          "forceCameraShake": true,
          "cameraShake": {
            "shakeType": "CustomVector",
            "shakeRange": 1.0,
            "shakeTime": 0.15000000596046448,
            "shakeDistance": 25.0,
            "shakeDir": {
              "y": -1.0
            }
          }
        }
      },
      "RevengeAtk_Begin": {
        "attackPattern": {
          "$type": "JHKEHNJBMOF",
          "triggerType": "TriggerNoRepeat",
          "born": {
            "$type": "IAENDIPDFKD",
            "offset": {
              "KGEPIMHBMOL": 3.0,
              "JEBHCGDPFEJ": 1.0,
              "LPCHALMFFOD": -1.5
            },
            "direction": {
              "$type": "AHGNBAPONLA",
              "angleOffset": {
                "KGEPIMHBMOL": 0.0,
                "JEBHCGDPFEJ": 90.0,
                "LPCHALMFFOD": 0.0
              }
            }
          },
          "size": {
            "KGEPIMHBMOL": 6.0,
            "JEBHCGDPFEJ": 2.0,
            "LPCHALMFFOD": 8.0
          }
        },
        "attackInfo": {
          "attackTag": "",
          "attenuationTag": "",
          "attenuationGroup": "default",
          "attackProperty": {
            "actorGrassSubHurtDelta": 1.0,
            "actorWindSubHurtDelta": 0.0,
            "elementType": "Ice",
            "IPFJJJGABPL": 100.0,
            "strikeType": "Blunt",
            "enBreak": 200.0,
            "GLKMCMDJBIK": 0.0
          },
          "hitPattern": {
            "onHitEffectName": "default",
            "hitImpulseY": "",
            "hitImpulseType": "LV5",
            "hitHaltTimeScale": 0.009999999776482582
          },
          "forceCameraShake": true,
          "cameraShake": {
            "shakeType": "CustomVector",
            "shakeRange": 1.0,
            "shakeTime": 0.15000000596046448,
            "shakeDistance": 25.0,
            "shakeDir": {
              "y": -1.0
            }
          }
        }
      },
      "RevengeAtk": {
        "attackPattern": {
          "$type": "GMDIMKKHACA",
          "triggerType": "TriggerNoRepeat",
          "born": {
            "$type": "IAENDIPDFKD",
            "offset": {
              "KGEPIMHBMOL": 0.0,
              "JEBHCGDPFEJ": 0.0,
              "LPCHALMFFOD": 0.0
            },
            "direction": {
              "$type": "AHGNBAPONLA",
              "angleOffset": {
                "KGEPIMHBMOL": 0.0,
                "JEBHCGDPFEJ": 0.0,
                "LPCHALMFFOD": 0.0
              }
            }
          },
          "height": 6.0,
          "OAHPDLJIADP": 11.0
        },
        "attackInfo": {
          "attackTag": "",
          "attenuationTag": "",
          "attenuationGroup": "default",
          "attackProperty": {
            "actorGrassSubHurtDelta": 1.0,
            "actorWindSubHurtDelta": 0.0,
            "elementType": "Ice",
            "IPFJJJGABPL": 100.0,
            "strikeType": "Default",
            "enBreak": 200.0,
            "GLKMCMDJBIK": 0.0
          },
          "hitPattern": {
            "onHitEffectName": "default",
            "hitImpulseY": "",
            "hitImpulseType": "LV5",
            "hitHaltTimeScale": 0.009999999776482582
          },
          "forceCameraShake": true,
          "cameraShake": {
            "shakeType": "CustomVector",
            "shakeRange": 1.0,
            "shakeTime": 1.0,
            "shakeDistance": 25.0,
            "shakeDir": {
              "x": 1.0
            }
          }
        }
      },
      "MeleeCmbo01_Begin": {
        "attackPattern": {
          "$type": "JHKEHNJBMOF",
          "triggerType": "TriggerNoRepeat",
          "born": {
            "$type": "IAENDIPDFKD",
            "offset": {
              "KGEPIMHBMOL": -2.0,
              "JEBHCGDPFEJ": 0.0,
              "LPCHALMFFOD": 3.0
            },
            "direction": {
              "$type": "AHGNBAPONLA",
              "angleOffset": {
                "KGEPIMHBMOL": 0.0,
                "JEBHCGDPFEJ": 270.0,
                "LPCHALMFFOD": 0.0
              }
            }
          },
          "size": {
            "KGEPIMHBMOL": 4.0,
            "JEBHCGDPFEJ": 2.0,
            "LPCHALMFFOD": 6.0
          }
        },
        "attackInfo": {
          "attackTag": "",
          "attenuationTag": "",
          "attenuationGroup": "default",
          "attackProperty": {
            "actorGrassSubHurtDelta": 1.0,
            "actorWindSubHurtDelta": 0.0,
            "elementType": "Ice",
            "IPFJJJGABPL": 100.0,
            "strikeType": "Blunt",
            "enBreak": 200.0,
            "GLKMCMDJBIK": 0.0
          },
          "hitPattern": {
            "onHitEffectName": "default",
            "hitImpulseY": "",
            "hitImpulseType": "LV5",
            "hitHaltTimeScale": 0.009999999776482582
          },
          "forceCameraShake": true,
          "cameraShake": {
            "shakeType": "CustomVector",
            "shakeRange": 1.0,
            "shakeTime": 0.15000000596046448,
            "shakeDistance": 25.0,
            "shakeDir": {
              "y": -1.0
            }
          }
        }
      },
      "MeleeCmbo01": {
        "attackPattern": {
          "$type": "GMDIMKKHACA",
          "triggerType": "TriggerNoRepeat",
          "born": {
            "$type": "IAENDIPDFKD",
            "offset": {
              "KGEPIMHBMOL": 0.0,
              "JEBHCGDPFEJ": 0.0,
              "LPCHALMFFOD": 0.0
            },
            "direction": {
              "$type": "AHGNBAPONLA",
              "angleOffset": {
                "KGEPIMHBMOL": 0.0,
                "JEBHCGDPFEJ": 15.0,
                "LPCHALMFFOD": 0.0
              }
            }
          },
          "height": 6.0,
          "fanAngle": 150.0,
          "OAHPDLJIADP": 10.0
        },
        "attackInfo": {
          "attackTag": "",
          "attenuationTag": "",
          "attenuationGroup": "default",
          "attackProperty": {
            "actorGrassSubHurtDelta": 1.0,
            "actorWindSubHurtDelta": 0.0,
            "elementType": "Ice",
            "IPFJJJGABPL": 100.0,
            "strikeType": "Default",
            "enBreak": 200.0,
            "GLKMCMDJBIK": 0.0
          },
          "hitPattern": {
            "onHitEffectName": "default",
            "hitImpulseY": "",
            "hitImpulseType": "LV5",
            "hitHaltTimeScale": 0.009999999776482582
          },
          "forceCameraShake": true,
          "cameraShake": {
            "shakeType": "CustomVector",
            "shakeRange": 1.0,
            "shakeTime": 0.5,
            "shakeDistance": 25.0,
            "shakeDir": {
              "x": -1.0
            }
          }
        }
      },
      "MeleeCmbo02_Begin": {
        "attackPattern": {
          "$type": "JHKEHNJBMOF",
          "triggerType": "TriggerNoRepeat",
          "born": {
            "$type": "IAENDIPDFKD",
            "offset": {
              "KGEPIMHBMOL": 1.5,
              "JEBHCGDPFEJ": 0.0,
              "LPCHALMFFOD": 2.5
            },
            "direction": {
              "$type": "AHGNBAPONLA",
              "angleOffset": {
                "KGEPIMHBMOL": 0.0,
                "JEBHCGDPFEJ": 90.0,
                "LPCHALMFFOD": 0.0
              }
            }
          },
          "size": {
            "KGEPIMHBMOL": 4.0,
            "JEBHCGDPFEJ": 2.0,
            "LPCHALMFFOD": 6.0
          }
        },
        "attackInfo": {
          "attackTag": "",
          "attenuationTag": "",
          "attenuationGroup": "default",
          "attackProperty": {
            "actorGrassSubHurtDelta": 1.0,
            "actorWindSubHurtDelta": 0.0,
            "elementType": "Ice",
            "IPFJJJGABPL": 100.0,
            "strikeType": "Blunt",
            "enBreak": 200.0,
            "GLKMCMDJBIK": 0.0
          },
          "hitPattern": {
            "onHitEffectName": "default",
            "hitImpulseY": "",
            "hitImpulseType": "LV5",
            "hitHaltTimeScale": 0.009999999776482582
          },
          "forceCameraShake": true,
          "cameraShake": {
            "shakeType": "CustomVector",
            "shakeRange": 1.0,
            "shakeTime": 0.15000000596046448,
            "shakeDistance": 25.0,
            "shakeDir": {
              "y": -1.0
            }
          }
        }
      },
      "MeleeCmbo02": {
        "attackPattern": {
          "$type": "GMDIMKKHACA",
          "triggerType": "TriggerNoRepeat",
          "born": {
            "$type": "IAENDIPDFKD",
            "offset": {
              "KGEPIMHBMOL": 0.0,
              "JEBHCGDPFEJ": 0.0,
              "LPCHALMFFOD": 0.0
            },
            "direction": {
              "$type": "AHGNBAPONLA",
              "angleOffset": {
                "KGEPIMHBMOL": 0.0,
                "JEBHCGDPFEJ": 330.0,
                "LPCHALMFFOD": 0.0
              }
            }
          },
          "height": 6.0,
          "fanAngle": 180.0,
          "OAHPDLJIADP": 10.0
        },
        "attackInfo": {
          "attackTag": "",
          "attenuationTag": "",
          "attenuationGroup": "default",
          "attackProperty": {
            "actorGrassSubHurtDelta": 1.0,
            "actorWindSubHurtDelta": 0.0,
            "elementType": "Ice",
            "IPFJJJGABPL": 100.0,
            "strikeType": "Default",
            "enBreak": 200.0,
            "GLKMCMDJBIK": 0.0
          },
          "hitPattern": {
            "onHitEffectName": "default",
            "hitImpulseY": "",
            "hitImpulseType": "LV5",
            "hitHaltTimeScale": 0.009999999776482582
          },
          "forceCameraShake": true,
          "cameraShake": {
            "shakeType": "CustomVector",
            "shakeRange": 1.0,
            "shakeTime": 0.5,
            "shakeDistance": 25.0,
            "shakeDir": {
              "x": -1.0
            }
          }
        }
      },
      "MeleeCmbo03": {
        "attackPattern": {
          "$type": "JHKEHNJBMOF",
          "triggerType": "TriggerNoRepeat",
          "born": {
            "$type": "JHEBKCMEMLN",
            "offset": {
              "KGEPIMHBMOL": 0.0,
              "JEBHCGDPFEJ": 1.0,
              "LPCHALMFFOD": 3.0
            }
          },
          "size": {
            "KGEPIMHBMOL": 4.0,
            "JEBHCGDPFEJ": 2.0,
            "LPCHALMFFOD": 5.0
          }
        },
        "attackInfo": {
          "attackTag": "",
          "attenuationTag": "",
          "attenuationGroup": "default",
          "attackProperty": {
            "actorGrassSubHurtDelta": 1.0,
            "actorWindSubHurtDelta": 0.0,
            "elementType": "Ice",
            "IPFJJJGABPL": 100.0,
            "strikeType": "Blunt",
            "enBreak": 200.0,
            "GLKMCMDJBIK": 0.0
          },
          "hitPattern": {
            "onHitEffectName": "default",
            "hitImpulseY": "",
            "hitImpulseType": "LV5",
            "hitHaltTimeScale": 0.009999999776482582
          },
          "forceCameraShake": true,
          "cameraShake": {
            "shakeType": "CustomVector",
            "shakeRange": 1.0,
            "shakeTime": 1.0,
            "shakeDistance": 25.0,
            "shakeDir": {
              "y": -1.0
            }
          }
        }
      }
    }
  },
  "abilities": [
    {
      "abilityID": "SteerAttack",
      "abilityName": "Monster_Regisvine_SteerAttack",
      "abilityOverride": ""
    },
    {
      "abilityID": "FreeState",
      "abilityName": "Monster_Regisvine_FreeState",
      "abilityOverride": ""
    },
    {
      "abilityID": "DamageManager",
      "abilityName": "Monster_Regisvine_DamageManager",
      "abilityOverride": ""
    },
    {
      "abilityID": "FruitCoverManager",
      "abilityName": "Monster_Regisvine_FruitCoverManager",
      "abilityOverride": ""
    },
    {
      "abilityID": "ReturnToBorn",
      "abilityName": "Monster_Regisvine_ReturnToBorn",
      "abilityOverride": ""
    },
    {
      "abilityID": "Ice_BeHitEffect",
      "abilityName": "Monster_Regisvine_Ice_BeHitEffect",
      "abilityOverride": ""
    },
    {
      "abilityID": "Ice_Standy_Effect",
      "abilityName": "Monster_Regisvine_Ice_Standy_Effect",
      "abilityOverride": ""
    },
    {
      "abilityID": "UsingSkillManager",
      "abilityName": "Monster_Regisvine_UsingSkillManager",
      "abilityOverride": ""
    },
    {
      "abilityID": "TriggerUseSkill",
      "abilityName": "Monster_Regisvine_TriggerUseSkill",
      "abilityOverride": ""
    },
    {
      "abilityID": "FruitAndCore_FaintAndBreakManager",
      "abilityName": "Monster_Regisvine_FruitAndCore_FaintAndBreakManager",
      "abilityOverride": ""
    },
    {
      "abilityID": "HitboxInitialization",
      "abilityName": "Monster_Regisvine_HitboxInitialization",
      "abilityOverride": ""
    },
    {
      "abilityID": "Alert_TriggerShaderEffect",
      "abilityName": "Monster_Regisvine_Alert_TriggerShaderEffect",
      "abilityOverride": ""
    },
    {
      "abilityID": "FlowerPushColliderOn",
      "abilityName": "Monster_Regisvine_FlowerPushColliderOn",
      "abilityOverride": ""
    },
    {
      "abilityID": "FlowerPushColliderOff",
      "abilityName": "Monster_Regisvine_FlowerPushColliderOff",
      "abilityOverride": ""
    },
    {
      "abilityID": "BlizzardSpitPushColliderOn",
      "abilityName": "Monster_Regisvine_BlizzardSpitPushColliderOn",
      "abilityOverride": ""
    },
    {
      "abilityID": "BlizzardSpitPushColliderOff",
      "abilityName": "Monster_Regisvine_BlizzardSpitPushColliderOff",
      "abilityOverride": ""
    },
    {
      "abilityID": "FaintPushColliderOn",
      "abilityName": "Monster_Regisvine_FaintPushColliderOn",
      "abilityOverride": ""
    },
    {
      "abilityID": "FaintPushColliderOff",
      "abilityName": "Monster_Regisvine_FaintPushColliderOff",
      "abilityOverride": ""
    },
    {
      "abilityID": "FlowerLockableOn",
      "abilityName": "Monster_Regisvine_FlowerLockableOn",
      "abilityOverride": ""
    },
    {
      "abilityID": "FlowerLockableOff",
      "abilityName": "Monster_Regisvine_FlowerLockableOff",
      "abilityOverride": ""
    },
    {
      "abilityID": "FlowerLockableOff",
      "abilityName": "Monster_Regisvine_FlowerLockableOff",
      "abilityOverride": ""
    },
    {
      "abilityID": "MeleeAttack01_IceWave",
      "abilityName": "Monster_Regisvine_Ice_MeleeAttack01_IceWave",
      "abilityOverride": ""
    },
    {
      "abilityID": "MeleeAttack01_TriggerShaderEffect",
      "abilityName": "Monster_Regisvine_MeleeAttack01_TriggerShaderEffect",
      "abilityOverride": ""
    },
    {
      "abilityID": "MeleeAttack03_TriggerShaderEffect",
      "abilityName": "Monster_Regisvine_MeleeAttack03_TriggerShaderEffect",
      "abilityOverride": ""
    },
    {
      "abilityID": "RangedAttack02L",
      "abilityName": "Monster_Regisvine_RangedAttack02L",
      "abilityOverride": ""
    },
    {
      "abilityID": "RangedAttack02R",
      "abilityName": "Monster_Regisvine_RangedAttack02R",
      "abilityOverride": ""
    },
    {
      "abilityID": "MeeleeAttack03_CreateIceFog",
      "abilityName": "Regisvine_MeeleeAttack03_CreateIceFog",
      "abilityOverride": ""
    },
    {
      "abilityID": "RangedAttack02_TriggerShaderEffect",
      "abilityName": "Monster_Regisvine_Ice_RangedAttack02_TriggerShaderEffect",
      "abilityOverride": ""
    },
    {
      "abilityID": "RangedAttack01_GetTargetPos",
      "abilityName": "Monster_Regisvine_RangedAttack01_GetTargetPos",
      "abilityOverride": ""
    },
    {
      "abilityID": "RangedAttack01_SetGuide_LRCross",
      "abilityName": "Monster_Regisvine_RangedAttack01_SetGuide_LRCross",
      "abilityOverride": ""
    },
    {
      "abilityID": "RangedAttack01_SetGuide_NarrowCross",
      "abilityName": "Monster_Regisvine_RangedAttack01_SetGuide_NarrowCross",
      "abilityOverride": ""
    },
    {
      "abilityID": "RangedAttack01_SetGuide_NarrowCross_Reverse",
      "abilityName": "Monster_Regisvine_RangedAttack01_SetGuide_NarrowCross_Reverse",
      "abilityOverride": ""
    },
    {
      "abilityID": "RangedAttack01_KillGuide",
      "abilityName": "Monster_Regisvine_RangedAttack01_KillGuide",
      "abilityOverride": ""
    },
    {
      "abilityID": "Ice_RangedAttack01_LaserStart",
      "abilityName": "Monster_Regisvine_Ice_RangedAttack01_LaserStart",
      "abilityOverride": ""
    },
    {
      "abilityID": "Ice_RangedAttack01_LaserEnd",
      "abilityName": "Monster_Regisvine_Ice_RangedAttack01_LaserEnd",
      "abilityOverride": ""
    },
    {
      "abilityID": "Ice_PartControlBullet_Disable",
      "abilityName": "Monster_Regisvine_Ice_PartControlBullet_Disable",
      "abilityOverride": ""
    },
    {
      "abilityID": "Ice_PartControlBulletL_Enable",
      "abilityName": "Monster_Regisvine_Ice_PartControlBulletL_Enable",
      "abilityOverride": ""
    },
    {
      "abilityID": "Ice_PartControlBulletR_Enable",
      "abilityName": "Monster_Regisvine_Ice_PartControlBulletR_Enable",
      "abilityOverride": ""
    },
    {
      "abilityID": "Fruit_Open",
      "abilityName": "Regisvine_Fruit_Open",
      "abilityOverride": ""
    },
    {
      "abilityID": "Fruit_Close",
      "abilityName": "Regisvine_Fruit_Close",
      "abilityOverride": ""
    },
    {
      "abilityID": "Fruit_Begin",
      "abilityName": "Regisvine_Fruit_Begin",
      "abilityOverride": ""
    },
    {
      "abilityID": "Fruit_End",
      "abilityName": "Regisvine_Fruit_End",
      "abilityOverride": ""
    },
    {
      "abilityID": "Faint_Fruit",
      "abilityName": "Monster_Regisvine_Ice_Faint_Fruit",
      "abilityOverride": ""
    },
    {
      "abilityID": "Faint_Recover",
      "abilityName": "Monster_Regisvine_Ice_Faint_Recover",
      "abilityOverride": ""
    },
    {
      "abilityID": "FruitAndCoreReviveManager",
      "abilityName": "Regisvine_FruitAndCoreReviveManager",
      "abilityOverride": ""
    },
    {
      "abilityID": "Ice_MissileAttack_BS_TriggerShaderEffect",
      "abilityName": "Monster_Regisvine_Ice_MissileAttack_BS_TriggerShaderEffect",
      "abilityOverride": ""
    },
    {
      "abilityID": "Ice_MissileAttack_Effect",
      "abilityName": "Monster_Regisvine_Ice_MissileAttack_Effect",
      "abilityOverride": ""
    },
    {
      "abilityID": "Ice_MissileAttack",
      "abilityName": "Monster_Regisvine_Ice_MissileAttack",
      "abilityOverride": ""
    },
    {
      "abilityID": "Core_Open",
      "abilityName": "Regisvine_Core_Open",
      "abilityOverride": ""
    },
    {
      "abilityID": "Core_Close",
      "abilityName": "Regisvine_Core_Close",
      "abilityOverride": ""
    },
    {
      "abilityID": "Core_Begin",
      "abilityName": "Regisvine_Core_Begin",
      "abilityOverride": ""
    },
    {
      "abilityID": "Core_End",
      "abilityName": "Regisvine_Core_End",
      "abilityOverride": ""
    },
    {
      "abilityID": "Faint_Core",
      "abilityName": "Monster_Regisvine_Ice_Faint_Core",
      "abilityOverride": ""
    },
    {
      "abilityID": "Ice_BlizzardSpit_BlizzardBegin",
      "abilityName": "Monster_Regisvine_Ice_BlizzardSpit_BlizzardBegin",
      "abilityOverride": ""
    },
    {
      "abilityID": "Ice_BlizzardSpit_TriggerShaderEffect",
      "abilityName": "Monster_Regisvine_Ice_BlizzardSpit_TriggerShaderEffect",
      "abilityOverride": ""
    },
    {
      "abilityID": "CreateBaseControlTarget",
      "abilityName": "Monster_Regisvine_CreateBaseControlTarget",
      "abilityOverride": ""
    },
    {
      "abilityID": "PartControlTarget_Enable",
      "abilityName": "Regisvine_PartControlTarget_Enable",
      "abilityOverride": ""
    },
    {
      "abilityID": "PartControlTarget_Disable",
      "abilityName": "Regisvine_PartControlTarget_Disable",
      "abilityOverride": ""
    },
    {
      "abilityID": "Ice_Activity_CombatPhaseManager",
      "abilityName": "Monster_Regisvine_Ice_Activity_CombatPhaseManager",
      "abilityOverride": ""
    },
    {
      "abilityID": "Ice_BlizzardSpit_Activity_BlizzardBegin",
      "abilityName": "Monster_Regisvine_Ice_BlizzardSpit_Activity_BlizzardBegin",
      "abilityOverride": ""
    }
  ],
  "stateLayers": {
    "defaultLayer": {
      "$type": "GBGJJIIEMBD",
      "layerIndexName": "",
      "CPAANEIJCGD": "",
      "stateIDs": {
        "Born": {
          "$type": "NEDIFAKEGCO",
          "animatorStates": {
            "Born": []
          },
          "canDoSkill": true,
          "canSyncMove": true,
          "resetAnimatorTriggerOnExit": [
            "DoSkill"
          ]
        },
        "NormalIdle": {
          "$type": "NEDIFAKEGCO",
          "animatorStates": {
            "Standby": []
          },
          "canDoSkill": true,
          "canSyncMove": true,
          "resetAnimatorTriggerOnExit": [
            "DoSkill"
          ]
        },
        "Die": {
          "$type": "NEDIFAKEGCO",
          "animatorStates": {
            "Die1": [
              "Regisvine_Ice_Die",
              "Regisvine_Fruit_End",
              "Regisvine_Core_End",
              "Audio_Monster_Regisvine_Ice_Die"
            ],
            "FallingDie": [
              "Regisvine_Fruit_End",
              "Regisvine_Core_End",
              "Audio_Monster_Regisvine_Ice_Die"
            ],
            "SwimDie": [
              "Regisvine_Fruit_End",
              "Regisvine_Core_End",
              "Audio_Monster_Regisvine_Ice_Die"
            ],
            "AirDie": [
              "Regisvine_Fruit_End",
              "Regisvine_Core_End",
              "Audio_Monster_Regisvine_Ice_Die"
            ]
          }
        },
        "Alert": {
          "$type": "NEDIFAKEGCO",
          "animatorStates": {
            "Alert": [
              "Monster_Regisvine_Alert",
              "Audio_Monster_Regisvine_Ice_Alert"
            ],
            "Warning": [
              "Monster_Regisvine_Alert",
              "Audio_Monster_Regisvine_Ice_Alert"
            ]
          },
          "addEndure": 0.0,
          "resetAnimatorTriggerOnExit": [
            "BeHit",
            "DoSkill"
          ]
        },
        "MeleeAttack01": {
          "$type": "NEDIFAKEGCO",
          "animatorStates": {
            "MeleeAttack01": [
              "Monster_Regisvine_MeleeAttack01",
              "Audio_Monster_Regisvine_Ice_MeleeAtk_01"
            ],
            "MeleeAttack01_03": [
              "Monster_Regisvine_MeleeAttack01",
              "Audio_Monster_Regisvine_Ice_MeleeAtk_01"
            ],
            "MeleeAttack01_05": [
              "Monster_Regisvine_MeleeAttack01",
              "Audio_Monster_Regisvine_Ice_MeleeAtk_01"
            ]
          },
          "resetAnimatorTriggerOnExit": [
            "BeHit",
            "DoSkill"
          ]
        },
        "MeleeAttack01_Recover": {
          "$type": "NEDIFAKEGCO",
          "animatorStates": {
            "MeleeAttack01_02": [
              "Monster_Regisvine_MeleeAttack01_Recover",
              "Audio_Monster_Regisvine_Ice_MeleeAtk_01"
            ],
            "MeleeAttack01_04": [
              "Monster_Regisvine_MeleeAttack01_Recover",
              "Audio_Monster_Regisvine_Ice_MeleeAtk_01"
            ]
          },
          "resetAnimatorTriggerOnExit": [
            "BeHit",
            "DoSkill"
          ]
        },
        "MeleeAttack01_AS": {
          "$type": "NEDIFAKEGCO",
          "animatorStates": {
            "MeleeAttack01_Wait": [],
            "MeleeAttack01_AS": [
              "Monster_Regisvine_MeleeAttack01_Recover",
              "Audio_Monster_Regisvine_Ice_MeleeAtk_01"
            ]
          },
          "resetAnimatorTriggerOnExit": [
            "BeHit",
            "DoSkill"
          ]
        },
        "MeleeAttack02": {
          "$type": "NEDIFAKEGCO",
          "animatorStates": {
            "MeleeAttack02": [
              "Monster_Regisvine_MeleeAttack02",
              "Audio_Monster_Regisvine_Ice_MeleeAtk_02"
            ]
          },
          "resetAnimatorTriggerOnExit": [
            "BeHit",
            "DoSkill"
          ],
          "canSteer": true,
          "followAnimRotation": true
        },
        "MeleeAttack02_Recover": {
          "$type": "NEDIFAKEGCO",
          "animatorStates": {
            "MeleeAttack02_Recover01": []
          },
          "resetAnimatorTriggerOnExit": [
            "BeHit",
            "DoSkill"
          ],
          "canSteer": true,
          "followAnimRotation": true
        },
        "MeleeAttack02_Combo": {
          "$type": "NEDIFAKEGCO",
          "animatorStates": {
            "MeleeAttack02_Combo01": [
              "Monster_Regisvine_MeleeAttack02",
              "Audio_Monster_Regisvine_Ice_MeleeAtk_02"
            ]
          },
          "resetAnimatorTriggerOnExit": [
            "BeHit",
            "DoSkill"
          ],
          "canSteer": true,
          "followAnimRotation": true
        },
        "MeleeAttack02_Reverse": {
          "$type": "NEDIFAKEGCO",
          "animatorStates": {
            "MeleeAttack02_Reverse": [
              "Monster_Regisvine_MeleeAttack02_Reverse",
              "Audio_Monster_Regisvine_Ice_MeleeAtk_02"
            ]
          },
          "resetAnimatorTriggerOnExit": [
            "BeHit",
            "DoSkill"
          ],
          "canSteer": true,
          "followAnimRotation": true
        },
        "MeleeAttack02_Reverse_Recover": {
          "$type": "NEDIFAKEGCO",
          "animatorStates": {
            "MeleeAttack02_Reverse_Recover01": [],
            "MeleeAttack02_Reverse_Recover02": []
          },
          "resetAnimatorTriggerOnExit": [
            "BeHit",
            "DoSkill"
          ],
          "canSteer": true,
          "followAnimRotation": true
        },
        "MeleeAttack02_Reverse_Combo": {
          "$type": "NEDIFAKEGCO",
          "animatorStates": {
            "MeleeAttack02_Reverse_Combo01": [
              "Monster_Regisvine_MeleeAttack02_Reverse",
              "Audio_Monster_Regisvine_Ice_MeleeAtk_02"
            ]
          },
          "resetAnimatorTriggerOnExit": [
            "BeHit",
            "DoSkill"
          ],
          "canSteer": true,
          "followAnimRotation": true
        },
        "MeleeAttack03": {
          "$type": "NEDIFAKEGCO",
          "animatorStates": {
            "MeleeAttack03": [
              "Monster_Regisvine_MeleeAttack03",
              "Audio_Monster_Regisvine_Ice_MeleeAtk_03"
            ]
          },
          "resetAnimatorTriggerOnExit": [
            "BeHit",
            "DoSkill"
          ]
        },
        "MeleeAttackCombo": {
          "$type": "NEDIFAKEGCO",
          "animatorStates": {
            "MeleeAttackCombo_BS": [
              "Monster_Regisvine_Ice_MeleeAttackCombo",
              "Audio_Monster_Regisvine_Ice_MeleeAtkCombo"
            ],
            "MeleeAttackCombo_Wait": [
              "Monster_Regisvine_Ice_MeleeAttackCombo"
            ],
            "MeleeAttackCombo_AS": [
              "Monster_Regisvine_Ice_MeleeAttackCombo"
            ]
          },
          "resetAnimatorTriggerOnExit": [
            "BeHit",
            "DoSkill"
          ],
          "canSteer": true
        },
        "RangedAttack01": {
          "$type": "NEDIFAKEGCO",
          "animatorStates": {
            "RangedAttack01": [
              "Monster_Regisvine_RangedAttack01_Laser",
              "Monster_Regisvine_RangedAttack01_SetGuide_LRCross",
              "Audio_Monster_Regisvine_Ice_RangeAtk_01"
            ],
            "RangedAttack01_Combo01": [
              "Monster_Regisvine_RangedAttack01_Laser",
              "Monster_Regisvine_RangedAttack01_SetGuide_NarrowCross",
              "Audio_Monster_Regisvine_Ice_RangeAtk_01"
            ],
            "RangedAttack01_Combo02": [
              "Monster_Regisvine_RangedAttack01_Laser",
              "Monster_Regisvine_RangedAttack01_SetGuide_NarrowCross_Reverse",
              "Audio_Monster_Regisvine_Ice_RangeAtk_01"
            ],
            "RangedAttack01_Combo03": [
              "Monster_Regisvine_RangedAttack01_Laser",
              "Monster_Regisvine_RangedAttack01_SetGuide_NarrowCross",
              "Audio_Monster_Regisvine_Ice_RangeAtk_01"
            ],
            "RangedAttack01_Combo04": [
              "Monster_Regisvine_RangedAttack01_Laser",
              "Monster_Regisvine_RangedAttack01_SetGuide_NarrowCross",
              "Audio_Monster_Regisvine_Ice_RangeAtk_01"
            ],
            "RangedAttack01_Combo05": [
              "Monster_Regisvine_RangedAttack01_Laser",
              "Monster_Regisvine_RangedAttack01_SetGuide_NarrowCross",
              "Audio_Monster_Regisvine_Ice_RangeAtk_01"
            ]
          },
          "resetAnimatorTriggerOnExit": [
            "BeHit",
            "DoSkill"
          ]
        },
        "RangedAttack02_BS": {
          "$type": "NEDIFAKEGCO",
          "animatorStates": {
            "RangedAttack02_BS": [
              "Audio_Monster_Regisvine_Ice_RangeAtk_02_BS"
            ]
          },
          "resetAnimatorTriggerOnExit": [
            "BeHit",
            "DoSkill"
          ]
        },
        "RangedAttack02_Loop01": {
          "$type": "NEDIFAKEGCO",
          "animatorStates": {
            "RangedAttack02_Loop01": [
              "Monster_Regisvine_RangedAttack02",
              "Audio_Monster_Regisvine_Ice_RangeAtk_02_shoot"
            ]
          },
          "resetAnimatorTriggerOnExit": [
            "BeHit",
            "DoSkill"
          ]
        },
        "RangedAttack02_Loop02": {
          "$type": "NEDIFAKEGCO",
          "animatorStates": {
            "RangedAttack02_Loop02": [
              "Monster_Regisvine_RangedAttack02",
              "Audio_Monster_Regisvine_Ice_RangeAtk_02_shoot"
            ]
          },
          "resetAnimatorTriggerOnExit": [
            "BeHit",
            "DoSkill"
          ]
        },
        "RangedAttack02_Loop03": {
          "$type": "NEDIFAKEGCO",
          "animatorStates": {
            "RangedAttack02_Loop03": [
              "Monster_Regisvine_RangedAttack02",
              "Audio_Monster_Regisvine_Ice_RangeAtk_02_shoot"
            ]
          },
          "resetAnimatorTriggerOnExit": [
            "BeHit",
            "DoSkill"
          ]
        },
        "RangedAttack02_AS": {
          "$type": "NEDIFAKEGCO",
          "animatorStates": {
            "RangedAttack02_AS": [
              "Audio_Monster_Regisvine_Ice_RangeAtk_02_AS"
            ]
          },
          "resetAnimatorTriggerOnExit": [
            "BeHit",
            "DoSkill"
          ]
        },
        "MissileAttack_BS": {
          "$type": "NEDIFAKEGCO",
          "animatorStates": {
            "MissileAttack_BS": [
              "Monster_Regisvine_Ice_MissileAttack_BS",
              "Audio_Monster_Regisvine_Ice_MissileAtk_BS"
            ]
          },
          "resetAnimatorTriggerOnExit": [
            "BeHit",
            "DoSkill"
          ]
        },
        "MissileAttack_Loop": {
          "$type": "NEDIFAKEGCO",
          "animatorStates": {
            "MissileAttack_Loop": [
              "Audio_Monster_Regisvine_Ice_MissileAtk_Shoot"
            ]
          },
          "resetAnimatorTriggerOnExit": [
            "BeHit",
            "DoSkill"
          ]
        },
        "MissileAttack_AS": {
          "$type": "NEDIFAKEGCO",
          "animatorStates": {
            "MissileAttack_AS": [
              "Audio_Monster_Regisvine_Ice_MissileAtk_AS"
            ]
          },
          "resetAnimatorTriggerOnExit": [
            "BeHit",
            "DoSkill"
          ]
        },
        "BlizzardSpit_BS": {
          "$type": "NEDIFAKEGCO",
          "animatorStates": {
            "BlizzardSpit_BS": [
              "Monster_Regisvine_Ice_BlizzardSpit_BS",
              "Audio_Monster_Regisvine_Ice_BlizzardSpit_BS"
            ]
          },
          "resetAnimatorTriggerOnExit": [
            "BeHit",
            "DoSkill"
          ]
        },
        "BlizzardSpit_Fire": {
          "$type": "NEDIFAKEGCO",
          "animatorStates": {
            "BlizzardSpit_Fire": [],
            "BlizzardSpit_Reverse_Fire": []
          },
          "resetAnimatorTriggerOnExit": [
            "BeHit",
            "DoSkill"
          ]
        },
        "BlizzardSpit_AS": {
          "$type": "NEDIFAKEGCO",
          "animatorStates": {
            "BlizzardSpit_AS": [
              "Audio_Monster_Regisvine_Ice_BlizzardSpit_AS"
            ],
            "BlizzardSpit_Reverse_AS": [
              "Audio_Monster_Regisvine_Ice_BlizzardSpit_Reverse_AS"
            ]
          },
          "resetAnimatorTriggerOnExit": [
            "BeHit",
            "DoSkill"
          ]
        },
        "BlizzardSpit_Activity_BS": {
          "$type": "NEDIFAKEGCO",
          "animatorStates": {
            "BlizzardSpit_Activity_BS": [
              "Monster_Regisvine_Ice_BlizzardSpit_Activity_BS",
              "Audio_Monster_Regisvine_Ice_MissileAtk_BS"
            ]
          },
          "resetAnimatorTriggerOnExit": [
            "BeHit",
            "DoSkill"
          ]
        },
        "BlizzardSpit_Activity_Fire": {
          "$type": "NEDIFAKEGCO",
          "animatorStates": {
            "BlizzardSpit_Activity_Fire": [
              "Audio_Monster_Regisvine_Ice_MissileAtk_Shoot"
            ]
          },
          "resetAnimatorTriggerOnExit": [
            "BeHit",
            "DoSkill"
          ]
        },
        "BlizzardSpit_Activity_AS": {
          "$type": "NEDIFAKEGCO",
          "animatorStates": {
            "BlizzardSpit_Activity_AS": [
              "Audio_Monster_Regisvine_Ice_MissileAtk_AS"
            ]
          },
          "resetAnimatorTriggerOnExit": [
            "BeHit",
            "DoSkill"
          ]
        },
        "Faint": {
          "$type": "NEDIFAKEGCO",
          "animatorStates": {
            "Faint_BS": [
              "Monster_Regisvine_Faint_BS",
              "Audio_Monster_Regisvine_Ice_Faint_BS"
            ],
            "Faint_Loop": [],
            "Faint_AS": [
              "Monster_Regisvine_Ice_RevengeAttack",
              "Audio_Monster_Regisvine_Ice_Faint_AS"
            ]
          },
          "canSyncMove": true,
          "resetAnimatorTriggerOnExit": [
            "DoSkill"
          ]
        },
        "ReturnToBorn": {
          "$type": "NEDIFAKEGCO",
          "animatorStates": {
            "ReturnToBorn": [
              "Regisvine_Ice_EndAllGadgets",
              "Audio_Monster_Regisvine_Ice_returnToBorn"
            ]
          },
          "canDoSkill": true,
          "resetAnimatorTriggerOnExit": [
            "ReturnToBornTrigger"
          ]
        }
      }
    }
  },
  "partControl": {
    "parts": [
      {
        "$type": "INCPGKCDCIO",
        "angularSpeed": 3600.0,
        "partRootName": "BaseControl",
        "forwardByTransName": "",
        "limitHorizontal": 360.0,
        "limitVertical": 0.0
      },
      {
        "$type": "INCPGKCDCIO",
        "angularSpeed": 3600.0,
        "partRootName": "LaserPartControlL",
        "forwardByTransName": "",
        "limitHorizontal": 360.0,
        "limitVertical": 360.0
      },
      {
        "$type": "INCPGKCDCIO",
        "angularSpeed": 3600.0,
        "partRootName": "LaserPartControlR",
        "forwardByTransName": "",
        "limitHorizontal": 360.0,
        "limitVertical": 360.0
      }
    ]
  },
  "billboard": {
    "$type": "DNGNMAJBCNP",
    "attachPoint": "BillboardAttach",
    "radiusOffset": 1.0,
    "showDistance": 1.0,
    "size": "Grand"
  },
  "initialPoses": {
    "Default": {
      "initialPoseID": 1
    },
    "NoSensing": {
      "initialPoseID": 2,
      "initialPoseParams": {
        "boolParams": {
          "NoSensing": "true"
        }
      }
    },
    "AlertedFree": {
      "initialPoseID": 3,
      "initialPoseParams": {
        "boolParams": {
          "Alerted": "true"
        }
      }
    }
  },
  "aibeta": {
    "enable": true,
    "sensing": {
      "settings": {
        "DefaultSetting": {
          "viewRange": 25.0,
          "feelRange": 25.0
        },
        "NoSensing": {
          "viewRange": 0.0,
          "hearAttractionRange": 0.0,
          "feelRange": 0.0
        }
      },
      "templates": {
        "DefaultTemplate": {
          "DefaultPoses": "DefaultSetting",
          "2": "NoSensing",
          "3": "NoSensing"
        }
      }
    },
    "neurons": {
      "DefaultSetting": [
        "HIT"
      ]
    },
    "threat": {
      "GHIJMOKOLMB": "",
      "clearThreatTargetDistance": 28.0,
      "clearThreatEdgeDistance": 7.5,
      "clearThreatTimerByDistance": 1.75,
      "viewThreatGrow": 35.0,
      "feelThreatGrow": 100.0,
      "threatDecreaseSpeed": 10.0,
      "resistTauntLevel": "Monster_TauntLevel_4"
    },
    "defendArea": {
      "defendRange": 25.0
    },
    "network": {
      "syncSkill": true
    },
    "skillGroupCDConfigs": [
      {
        "skillGroupCDID": 1,
        "skillGroupCDTime": 3.0
      },
      {
        "skillGroupCDID": 2,
        "skillGroupCDTime": 0.0
      },
      {
        "skillGroupCDID": 3,
        "skillGroupCDTime": 40.0
      }
    ],
    "skills": {
      "101": {
        "name": "OnAlert",
        "skillType": "OnAlert",
        "faceTarget": true,
        "castCondition": {
          "pose": [
            1,
            2
          ]
        },
        "publicCDGroup": "",
        "ignoreGCD": true,
        "triggerGCD": false,
        "HHAGODJIAPE": "",
        "stateIDs": [
          "Alert"
        ],
        "skillQueryingTime": 3.0,
        "flagTargetReachable": "10",
        "flagSelfOnTemplateCollider": "01",
        "flagSelfInZone": "10",
        "flagTargetInZone": "11"
      },
      "201": {
        "name": "MeleeAttack01_Close",
        "castCondition": {
          "pose": [
            1002,
            1022
          ],
          "maxTargetAngleXZ": 90.0,
          "pickRangeMax": 12.5,
          "castRangeMax": 25.0
        },
        "cd": 5.0,
        "initialCD": 5.0,
        "publicCDGroup": "",
        "ignoreGCD": true,
        "triggerGCD": false,
        "skillGroupCDID": 1,
        "HHAGODJIAPE": "",
        "stateIDs": [
          "MeleeAttack01",
          "MeleeAttack01_Recover",
          "MeleeAttack01_AS"
        ],
        "flagTargetReachable": "11",
        "flagSelfOnTemplateCollider": "01",
        "flagSelfInZone": "10",
        "flagTargetInZone": "11"
      },
      "221": {
        "name": "MeleeAttack01_Far",
        "castCondition": {
          "pose": [
            1001,
            1021
          ],
          "maxTargetAngleXZ": 90.0,
          "pickRangeMin": 12.5,
          "pickRangeMax": 25.0,
          "castRangeMax": 25.0
        },
        "cd": 5.0,
        "initialCD": 20.0,
        "publicCDGroup": "",
        "skillGroupCDID": 2,
        "HHAGODJIAPE": "",
        "stateIDs": [
          "MeleeAttack01",
          "MeleeAttack01_Recover",
          "MeleeAttack01_AS"
        ],
        "flagTargetReachable": "11",
        "flagSelfOnTemplateCollider": "01",
        "flagSelfInZone": "10",
        "flagTargetInZone": "11"
      },
      "231": {
        "name": "MeleeAttack01_Core",
        "castCondition": {
          "pose": [
            1011,
            1012,
            1031,
            1032
          ],
          "maxTargetAngleXZ": 90.0,
          "pickRangeMax": 25.0,
          "castRangeMax": 25.0
        },
        "publicCDGroup": "",
        "ignoreGCD": true,
        "triggerGCD": false,
        "HHAGODJIAPE": "",
        "stateIDs": [
          "MeleeAttack01",
          "MeleeAttack01_Recover",
          "MeleeAttack01_AS"
        ],
        "flagTargetReachable": "11",
        "flagSelfOnTemplateCollider": "01",
        "flagSelfInZone": "10",
        "flagTargetInZone": "11"
      },
      "241": {
        "name": "MeleeAttack01_Core",
        "castCondition": {
          "pose": [
            1013,
            1014
          ],
          "pickRangeMin": 10.0,
          "pickRangeMax": 25.0,
          "castRangeMax": 25.0
        },
        "cd": 18.0,
        "publicCDGroup": "",
        "ignoreGCD": true,
        "triggerGCD": false,
        "HHAGODJIAPE": "",
        "stateIDs": [
          "MeleeAttack01",
          "MeleeAttack01_Recover",
          "MeleeAttack01_AS"
        ],
        "flagTargetReachable": "11",
        "flagSelfOnTemplateCollider": "01",
        "flagSelfInZone": "10",
        "flagTargetInZone": "11"
      },
      "202": {
        "name": "MeleeAttack02",
        "castCondition": {
          "pose": [
            1001,
            1002,
            1011,
            1012,
            1021,
            1022,
            1031,
            1032
          ],
          "minTargetAngleXZ": 90.0,
          "maxTargetAngleXZ": 180.0,
          "pickRangeMax": 100.0,
          "castRangeMax": 100.0
        },
        "cd": 1.0,
        "cdUpperRange": 3.0,
        "initialCD": 1.0,
        "publicCDGroup": "",
        "ignoreGCD": true,
        "triggerGCD": false,
        "HHAGODJIAPE": "",
        "stateIDs": [
          "MeleeAttack02"
        ],
        "flagTargetReachable": "11",
        "flagSelfOnTemplateCollider": "01",
        "flagSelfInZone": "10",
        "flagTargetInZone": "11"
      },
      "203": {
        "name": "MeleeAttack03",
        "castCondition": {
          "pose": [
            1001,
            1002,
            1021,
            1022
          ],
          "pickRangeMax": 12.0,
          "castRangeMax": 12.0
        },
        "cd": 50.0,
        "initialCD": 15.0,
        "publicCDGroup": "",
        "skillGroupCDID": 3,
        "HHAGODJIAPE": "",
        "stateIDs": [
          "MeleeAttack03"
        ],
        "flagTargetReachable": "11",
        "flagSelfOnTemplateCollider": "01",
        "flagSelfInZone": "10",
        "flagTargetInZone": "11"
      },
      "204": {
        "name": "WildAttack",
        "priority": 1,
        "castCondition": {
          "pose": [
            1011,
            1012,
            1031,
            1032
          ],
          "pickRangeMax": 16.0,
          "castRangeMax": 16.0
        },
        "cd": 10.0,
        "initialCD": 34.0,
        "publicCDGroup": "",
        "ignoreGCD": true,
        "triggerGCD": false,
        "HHAGODJIAPE": "",
        "stateIDs": [
          "MeleeAttackCombo"
        ],
        "flagTargetReachable": "11",
        "flagSelfOnTemplateCollider": "01",
        "flagSelfInZone": "10",
        "flagTargetInZone": "11"
      },
      "205": {
        "name": "WildAttack",
        "castCondition": {
          "pose": [
            1013,
            1014
          ],
          "pickRangeMax": 16.0,
          "castRangeMax": 16.0
        },
        "cd": 18.0,
        "publicCDGroup": "",
        "ignoreGCD": true,
        "triggerGCD": false,
        "HHAGODJIAPE": "",
        "stateIDs": [
          "MeleeAttackCombo"
        ],
        "flagTargetReachable": "11",
        "flagSelfOnTemplateCollider": "01",
        "flagSelfInZone": "10",
        "flagTargetInZone": "11"
      },
      "301": {
        "name": "RangedAttack01_Far",
        "castCondition": {
          "pose": [
            1001,
            1011,
            1021,
            1031
          ],
          "maxTargetAngleXZ": 90.0,
          "pickRangeMin": 12.5,
          "pickRangeMax": 25.0,
          "castRangeMax": 25.0
        },
        "cd": 15.0,
        "cdUpperRange": 5.0,
        "initialCD": 4.0,
        "publicCDGroup": "",
        "ignoreGCD": true,
        "triggerGCD": false,
        "skillGroupCDID": 2,
        "HHAGODJIAPE": "",
        "stateIDs": [
          "RangedAttack01"
        ],
        "flagTargetReachable": "11",
        "flagSelfOnTemplateCollider": "01",
        "flagSelfInZone": "10",
        "flagTargetInZone": "11"
      },
      "311": {
        "name": "RangedAttack01_Close",
        "castCondition": {
          "pose": [
            1002,
            1022
          ],
          "maxTargetAngleXZ": 90.0,
          "pickRangeMax": 15.0,
          "castRangeMax": 15.0
        },
        "cd": 5.0,
        "cdUpperRange": 5.0,
        "initialCD": 8.0,
        "publicCDGroup": "",
        "ignoreGCD": true,
        "triggerGCD": false,
        "skillGroupCDID": 2,
        "HHAGODJIAPE": "",
        "stateIDs": [
          "RangedAttack01"
        ],
        "flagTargetReachable": "11",
        "flagSelfOnTemplateCollider": "01",
        "flagSelfInZone": "10",
        "flagTargetInZone": "11"
      },
      "302": {
        "name": "RangedAttack02",
        "castCondition": {
          "pose": [
            1001,
            1011,
            1021,
            1031
          ],
          "maxTargetAngleXZ": 90.0,
          "pickRangeMin": 12.5,
          "pickRangeMax": 50.0,
          "castRangeMax": 50.0
        },
        "cd": 3.0,
        "cdUpperRange": 3.0,
        "publicCDGroup": "",
        "ignoreGCD": true,
        "triggerGCD": false,
        "skillGroupCDID": 2,
        "HHAGODJIAPE": "",
        "stateIDs": [
          "RangedAttack01",
          "RangedAttack02_BS",
          "RangedAttack02_Loop01",
          "RangedAttack02_Loop02",
          "RangedAttack02_Loop03",
          "RangedAttack02_AS"
        ],
        "flagTargetReachable": "11",
        "flagSelfOnTemplateCollider": "01",
        "flagSelfInZone": "10",
        "flagTargetInZone": "11"
      },
      "421": {
        "name": "MissileAttack",
        "priority": 1,
        "castCondition": {
          "pose": [
            1001,
            1002,
            1021,
            1022
          ],
          "pickRangeMax": 25.0,
          "castRangeMax": 25.0
        },
        "cd": 50.0,
        "initialCD": 50.0,
        "publicCDGroup": "",
        "skillGroupCDID": 3,
        "HHAGODJIAPE": "",
        "stateIDs": [
          "MeleeAttack03",
          "MissileAttack_BS",
          "MissileAttack_Loop",
          "MissileAttack_AS"
        ],
        "flagTargetReachable": "11",
        "flagSelfOnTemplateCollider": "01",
        "flagSelfInZone": "10",
        "flagTargetInZone": "11"
      },
      "412": {
        "name": "BlizzardSpit",
        "priority": 1,
        "castCondition": {
          "pose": [
            1013,
            1014
          ],
          "pickRangeMax": 50.0,
          "castRangeMax": 50.0
        },
        "cd": 15.0,
        "initialCD": 15.0,
        "publicCDGroup": "",
        "ignoreGCD": true,
        "triggerGCD": false,
        "skillGroupCDID": 3,
        "HHAGODJIAPE": "",
        "stateIDs": [
          "BlizzardSpit_BS",
          "BlizzardSpit_Fire",
          "BlizzardSpit_AS"
        ],
        "flagTargetReachable": "11",
        "flagSelfOnTemplateCollider": "01",
        "flagSelfInZone": "10",
        "flagTargetInZone": "11"
      },
      "501": {
        "name": "FaintRecover",
        "priority": 1,
        "castCondition": {
          "pose": [
            2001,
            2002
          ],
          "pickRangeMax": 9999.0,
          "castRangeMax": 9999.0
        },
        "cd": 15.0,
        "initialCD": 15.0,
        "publicCDGroup": "",
        "HHAGODJIAPE": "",
        "stateIDs": [
          "Faint"
        ],
        "flagTargetReachable": "11",
        "flagSelfOnTemplateCollider": "11",
        "flagSelfInZone": "10",
        "flagTargetInZone": "11"
      }
    },
    "skillGCD": 3.0,
    "birdCirclingTactic": [
      {
        "$type": "MCDGOJLCMBM",
        "enable": true,
        "JMCOBEPDIGM": {
          "DMGAHPPFMPK": 0.5,
          "FLENLLDBFGP": 0.5,
          "MNPDDAKDHGK": "",
          "GJDMDHIBCME": ""
        }
      },
      {
        "$type": "NNJKLGNPMNN",
        "enable": true,
        "JMCOBEPDIGM": {
          "ANLAAGAMIKF": 0,
          "JFMIFLNBKMJ": 1.0,
          "DHGJDIPNDHH": 1.5,
          "MNPDDAKDHGK": "",
          "GJDMDHIBCME": ""
        }
      },
      {
        "$type": "FPELBIJFGCE",
        "enable": true,
        "condition": {
          "pose": [
            100,
            300
          ]
        },
        "JMCOBEPDIGM": {
          "NBENNEKDIIA": 0.20000000298023224,
          "ANMPOPEBDIA": 25.0,
          "GMJFIMFFOEL": 7.5,
          "MNPDDAKDHGK": ""
        }
      }
    ]
  },
  "inputKeys": [
    {
      "keyID": 201,
      "inputKeyCode": 257,
      "abilityName": ""
    },
    {
      "keyID": 202,
      "inputKeyCode": 258,
      "abilityName": ""
    },
    {
      "keyID": 203,
      "inputKeyCode": 259,
      "abilityName": ""
    },
    {
      "keyID": 204,
      "inputKeyCode": 260,
      "abilityName": ""
    },
    {
      "keyID": 901,
      "inputKeyCode": 261,
      "abilityName": ""
    },
    {
      "keyID": 311,
      "inputKeyCode": 262,
      "abilityName": ""
    },
    {
      "keyID": 302,
      "inputKeyCode": 263,
      "abilityName": ""
    },
    {
      "keyID": 412,
      "inputKeyCode": 264,
      "abilityName": ""
    },
    {
      "keyID": 421,
      "inputKeyCode": 265,
      "abilityName": ""
    }
  ],
  "move": {
    "$type": "IPNMJMHDMPF",
    "velocityForce": {
      "muteAll": true
    },
    "destroyRockWhenInit": true,
    "PKHOMJHFAEE": "RootNode"
  },
  "audio": {
    "overrideEmitterName": "",
    "animAudio": {
      "onTransitionIn": [
        {
          "currentStateName": "BlizzardSpit_Fire",
          "audioEvent": {
            "text": "Play_sfx_monster_regisvine_ice_blizzardSpit_fire_lp"
          }
        },
        {
          "currentStateName": "Faint_Loop",
          "audioEvent": {
            "text": "Play_sfx_monster_regisvine_ice_faint_lp"
          }
        }
      ],
      "onTransitionOut": [
        {
          "currentStateName": "BlizzardSpit_Fire",
          "audioEvent": {
            "text": "Stop_sfx_monster_regisvine_ice_blizzardSpit_fire_lp"
          }
        },
        {
          "currentStateName": "Faint_Loop",
          "audioEvent": {
            "text": "Stop_sfx_monster_regisvine_ice_faint_lp"
          }
        }
      ]
    }
  },
  "cameraAdjustMap": {
    "default": {
      "$type": "NJCCPGFPIHI",
      "priority": 1.0,
      "enterRadius": 25.0,
      "exitRadius": 30.0,
      "heightAdjust": 0.75,
      "fov": 47.5,
      "zoom": 8.0,
      "sphericalY": 10.0,
      "lockSphericalY": false,
      "sphericalYUp": 10.0,
      "sphericalYDown": 10.0,
      "autoTurnStartMin": 50.0,
      "autoTurnStartMax": 40.0,
      "autoTurnEndMin": 100.0,
      "autoTurnEndMax": 145.0,
      "enterShape": "CircleR25H12_5B",
      "exitShape": "CircleR30H15B",
      "shapeCenterOffset": {
        "y": -1.0
      }
    }
  }
}