{
  "common": {
    "effectAttachShape": {
      "$type": "FJNPJANPGGC",
      "mesh": "EffectMesh"
    },
    "mass": 150.0,
    "height": 2.0,
    "modelHeight": 2.0,
    "viewSize": 1.25,
    "affectedByWorld": true,
    "checkInSurface": true,
    "shouldPauseAnimatorBeforeReady": true,
    "useGrassDisplacement": true,
    "reconnectSupport": true,
    "recoverByInitPose": true
  },
  "headControl": {
    "$type": "KPIPDEBDPIH",
    "useHeadControl": true,
    "maxYawDegree": 360.0,
    "maxPitchDegree": 10.0,
    "speed": 5.0,
    "animStates": [
      "RangeAttack01_BS",
      "RangeAttack01_Loop",
      "RangeAttack01_AS"
    ]
  },
  "model": {
    "bornEffect": "Eff_Monster_Common_Born",
    "attachEffect": "",
    "canBakeMesh": false,
    "BKPFGNPLDNJ": ""
  },
  "dither": {
    "showDitherDuration": 2.0
  },
  "combat": {
    "property": {
      "endureType": "Monster_Minion",
      "weight": 150.0
    },
    "beHit": {
      "hitBloodEffect": ""
    },
    "combatLock": {
      "lockShape": "CircleLockEnemy",
      "lockType": "Avatar&Monster_Lv4"
    },
    "die": {
      "hasAnimatorDie": true,
      "dieEndTime": 2.0,
      "dieForceDisappearTime": 4.0,
      "dieDisappearEffect": "Eff_Death_Common",
      "dieShaderData": "MonsterDie",
      "useRagDoll": true,
      "ragDollDieEndTimeDelay": 0.800000011920929,
      "muteHitBox": true,
      "dieDenyLockOn": true,
      "dieIsGhostToEnemy": true,
      "dieIgnoreTriggerBullet": true,
      "muteBillboard": true,
      "mutePushCollider": true
    },
    "animEvents": {
      "NormalAtk01": {
        "attackPattern": {
          "$type": "GMDIMKKHACA",
          "triggerType": "TriggerNoRepeat",
          "born": {
            "$type": "IAENDIPDFKD",
            "offset": {
              "KGEPIMHBMOL": 0.0,
              "JEBHCGDPFEJ": 0.0,
              "LPCHALMFFOD": 1.3600000143051147
            }
          },
          "height": 1.25,
          "OAHPDLJIADP": 1.5
        },
        "attackInfo": {
          "attackTag": "",
          "attenuationTag": "",
          "attenuationGroup": "default",
          "attackProperty": {
            "actorGrassSubHurtDelta": 1.0,
            "actorWindSubHurtDelta": 0.0,
            "IPFJJJGABPL": 100.0,
            "strikeType": "Slash",
            "enBreak": 100.0,
            "attackType": "Melee",
            "GLKMCMDJBIK": 0.0
          },
          "hitPattern": {
            "onHitEffectName": "",
            "hitImpulseY": "",
            "hitImpulseType": "LV3"
          }
        }
      }
    }
  },
  "abilities": [
    {
      "abilityID": "Monster_MachinaIustitia_Probe_HitSpecial",
      "abilityName": "Monster_MachinaIustitia_Probe_HitSpecial",
      "abilityOverride": ""
    },
    {
      "abilityID": "Monster_MachinaIustitia_CoilHanler",
      "abilityName": "Monster_MachinaIustitia_CoilHanler",
      "abilityOverride": ""
    },
    {
      "abilityID": "Monster_MachinaIustitia_Probe_RepairPose",
      "abilityName": "Monster_MachinaIustitia_Probe_RepairPose",
      "abilityOverride": ""
    },
    {
      "abilityID": "Monster_MachinaIustitia_Probe_CoilEffect",
      "abilityName": "Monster_MachinaIustitia_Probe_CoilEffect",
      "abilityOverride": ""
    },
    {
      "abilityID": "Monster_MachinaIustitia_Recover_Effect_Pneuma",
      "abilityName": "Monster_MachinaIustitia_Recover_Effect_Pneuma",
      "abilityOverride": ""
    },
    {
      "abilityID": "Monster_MachinaIustitia_Recover_Effect_Ousia",
      "abilityName": "Monster_MachinaIustitia_Recover_Effect_Ousia",
      "abilityOverride": ""
    },
    {
      "abilityID": "Monster_MachinaIustitia_Probe_Pose",
      "abilityName": "Monster_MachinaIustitia_Probe_Pose",
      "abilityOverride": ""
    },
    {
      "abilityID": "Monster_MachinaIustitia_Probe_ReturnToBorn",
      "abilityName": "Monster_MachinaIustitia_Probe_ReturnToBorn",
      "abilityOverride": ""
    },
    {
      "abilityID": "Monster_MachinaIustitia_Probe_Alert",
      "abilityName": "Monster_MachinaIustitia_Probe_Alert",
      "abilityOverride": ""
    },
    {
      "abilityID": "Monster_MachinaIustitia_Probe_StreeHandle",
      "abilityName": "Monster_MachinaIustitia_Probe_StreeHandle",
      "abilityOverride": ""
    },
    {
      "abilityID": "Monster_MachinaIustitia_Probe_Recover_Ousia",
      "abilityName": "Monster_MachinaIustitia_Probe_Recover_Ousia",
      "abilityOverride": ""
    },
    {
      "abilityID": "Monster_MachinaIustitia_Probe_RecoverEffect_Pneuma",
      "abilityName": "Monster_MachinaIustitia_Probe_RecoverEffect_Pneuma",
      "abilityOverride": ""
    },
    {
      "abilityID": "Monster_MachinaIustitia_Probe_Recover_Pneuma",
      "abilityName": "Monster_MachinaIustitia_Probe_Recover_Pneuma",
      "abilityOverride": ""
    },
    {
      "abilityID": "Monster_MachinaIustitia_Probe_RecoverEffect_Ousia",
      "abilityName": "Monster_MachinaIustitia_Probe_RecoverEffect_Ousia",
      "abilityOverride": ""
    },
    {
      "abilityID": "Monster_MachinaIustitia_Probe_PileAttack01",
      "abilityName": "Monster_MachinaIustitia_Probe_PileAttack01",
      "abilityOverride": ""
    },
    {
      "abilityID": "Monster_MachinaIustitia_Probe_Pile_Effect",
      "abilityName": "Monster_MachinaIustitia_Probe_Pile_Effect",
      "abilityOverride": ""
    },
    {
      "abilityID": "Monster_MachinaIustitia_Probe_Borehole_Effect",
      "abilityName": "Monster_MachinaIustitia_Probe_Borehole_Effect",
      "abilityOverride": ""
    }
  ],
  "stateLayers": {
    "defaultLayer": {
      "$type": "GBGJJIIEMBD",
      "layerIndexName": "",
      "CPAANEIJCGD": "",
      "stateIDs": {
        "NormalIdle": {
          "$type": "NEDIFAKEGCO",
          "animatorStates": {
            "Standby": [],
            "Born": []
          },
          "canDoSkill": true,
          "canSyncMove": true,
          "cullingModelAlwaysAnimate": true,
          "resetAnimatorTriggerOnExit": [
            "DoSkill"
          ]
        },
        "NormalMove": {
          "$type": "NEDIFAKEGCO",
          "animatorStates": {
            "WalkForward": [
              "Audio_Monster_MachinaIustitia_Probe_Walk"
            ],
            "WalkBack": [
              "Audio_Monster_MachinaIustitia_Probe_Walk"
            ],
            "WalkRight": [
              "Audio_Monster_MachinaIustitia_Probe_Walk"
            ],
            "WalkLeft": [
              "Audio_Monster_MachinaIustitia_Probe_Walk"
            ],
            "Run": [
              "Audio_Monster_MachinaIustitia_Probe_Walk"
            ]
          },
          "canDoSkill": true,
          "canSyncMove": true,
          "resetAnimatorTriggerOnExit": [
            "DoSkill"
          ],
          "canSteer": true
        },
        "Turn": {
          "$type": "NEDIFAKEGCO",
          "animatorStates": {
            "TurnLeft": [
              "Audio_Monster_MachinaIustitia_Probe_Walk"
            ],
            "TurnRight": [
              "Audio_Monster_MachinaIustitia_Probe_Walk"
            ]
          },
          "canDoSkill": true,
          "canSyncMove": true,
          "cullingModelAlwaysAnimate": true,
          "resetAnimatorTriggerOnExit": [
            "DoSkill"
          ],
          "canSteer": true
        },
        "BeHit": {
          "$type": "NEDIFAKEGCO",
          "animatorStates": {
            "Hit_H": [
              "Audio_Monster_MachinaIustitia_Probe_Hit_H"
            ]
          },
          "resetAnimatorTriggerOnEnter": [
            "BeHit"
          ],
          "resetAnimatorTriggerOnExit": [
            "DoSkill"
          ]
        },
        "Overload": {
          "$type": "NEDIFAKEGCO",
          "animatorStates": {
            "Overload": [
              "Audio_Monster_MachinaIustitia_Probe_Overload"
            ]
          },
          "resetAnimatorTriggerOnEnter": [
            "BeHit"
          ],
          "resetAnimatorTriggerOnExit": [
            "DoSkill"
          ]
        },
        "Die": {
          "$type": "NEDIFAKEGCO",
          "animatorStates": {
            "Die": [
              "Audio_Monster_MachinaIustitia_Probe_Die"
            ]
          },
          "resetAnimatorTriggerOnEnter": [
            "DoSkill"
          ]
        },
        "Die_RagDoll": {
          "$type": "NEDIFAKEGCO",
          "animatorStates": {
            "Die_RagDoll": []
          },
          "resetAnimatorTriggerOnEnter": [
            "DoSkill"
          ],
          "enableRagDoll": true
        },
        "OusiaActivate": {
          "$type": "NEDIFAKEGCO",
          "animatorStates": {
            "OusiaActivate": [
              "Monster_MachinaIustitia_Probe_Recover_Ousia",
              "Audio_Monster_MachinaIustitia_Probe_Activate_Ousia"
            ]
          },
          "cullingModelAlwaysAnimate": true,
          "addEndure": 0.0,
          "resetAnimatorTriggerOnExit": [
            "BeHit",
            "DoSkill"
          ]
        },
        "PneumaActivate": {
          "$type": "NEDIFAKEGCO",
          "animatorStates": {
            "PneumaActivate": [
              "Monster_MachinaIustitia_Probe_Recover_Pneuma",
              "Audio_Monster_MachinaIustitia_Probe_Activate_Pneuma"
            ]
          },
          "cullingModelAlwaysAnimate": true,
          "addEndure": 0.0,
          "resetAnimatorTriggerOnExit": [
            "BeHit",
            "DoSkill"
          ]
        },
        "Borehole_BS": {
          "$type": "NEDIFAKEGCO",
          "animatorStates": {
            "Borehole_BS": [
              "Audio_Monster_MachinaIustitia_Probe_Borehole_BS"
            ]
          },
          "canDoSkill": true,
          "cullingModelAlwaysAnimate": true,
          "resetAnimatorTriggerOnExit": [
            "BeHit",
            "DoSkill"
          ]
        },
        "Borehole_Loop": {
          "$type": "NEDIFAKEGCO",
          "animatorStates": {
            "Borehole_Loop": [
              "Monster_MachinaIustitia_Probe_BoreholeEffect",
              "Audio_Monster_MachinaIustitia_Probe_Borehole_Loop"
            ]
          },
          "canDoSkill": true,
          "addEndure": 0.0,
          "resetAnimatorTriggerOnExit": [
            "BeHit",
            "DoSkill"
          ]
        },
        "Borehole_AS": {
          "$type": "NEDIFAKEGCO",
          "animatorStates": {
            "Borehole_AS": [
              "Audio_Monster_MachinaIustitia_Probe_Borehole_AS"
            ]
          },
          "canDoSkill": true,
          "cullingModelAlwaysAnimate": true,
          "addEndure": 0.0,
          "resetAnimatorTriggerOnExit": [
            "BeHit",
            "DoSkill"
          ]
        },
        "Piling_BS": {
          "$type": "NEDIFAKEGCO",
          "animatorStates": {
            "Piling_BS": [
              "Audio_Monster_MachinaIustitia_Probe_PilingAttack_BS"
            ]
          },
          "canDoSkill": true,
          "cullingModelAlwaysAnimate": true,
          "addEndure": 0.0,
          "resetAnimatorTriggerOnExit": [
            "BeHit",
            "DoSkill"
          ]
        },
        "Piling_Loop": {
          "$type": "NEDIFAKEGCO",
          "animatorStates": {
            "Piling_Loop": [
              "Monster_MachinaIustitia_Probe_PileEffect",
              "Audio_Monster_MachinaIustitia_Probe_PilingAttack_Loop"
            ]
          },
          "canDoSkill": true,
          "cullingModelAlwaysAnimate": true,
          "addEndure": 0.0,
          "resetAnimatorTriggerOnExit": [
            "BeHit",
            "DoSkill"
          ]
        },
        "Piling_AS": {
          "$type": "NEDIFAKEGCO",
          "animatorStates": {
            "Piling_AS": [
              "Audio_Monster_MachinaIustitia_Probe_PilingAttack_AS"
            ]
          },
          "canDoSkill": true,
          "cullingModelAlwaysAnimate": true,
          "addEndure": 0.0,
          "resetAnimatorTriggerOnExit": [
            "BeHit",
            "DoSkill"
          ]
        },
        "Alert_Pile": {
          "$type": "NEDIFAKEGCO",
          "animatorStates": {
            "Alert_Pile": [
              "Monster_MachinaIustitia_Probe_Alert",
              "Audio_Monster_MachinaIustitia_Probe_Alert_Pile"
            ]
          },
          "canDoSkill": true,
          "cullingModelAlwaysAnimate": true,
          "resetAnimatorTriggerOnExit": [
            "BeHit",
            "DoSkill"
          ],
          "canSteer": true
        },
        "Alert_Borehole": {
          "$type": "NEDIFAKEGCO",
          "animatorStates": {
            "Alert_Borehole": [
              "Monster_MachinaIustitia_Probe_Alert",
              "Audio_Monster_MachinaIustitia_Probe_Alert_Borehole"
            ]
          },
          "canDoSkill": true,
          "cullingModelAlwaysAnimate": true,
          "resetAnimatorTriggerOnExit": [
            "BeHit",
            "DoSkill"
          ],
          "canSteer": true
        },
        "Alert": {
          "$type": "NEDIFAKEGCO",
          "animatorStates": {
            "Alert": [
              "Monster_MachinaIustitia_Probe_Alert",
              "Audio_Monster_MachinaIustitia_Probe_Walk"
            ]
          },
          "canDoSkill": true,
          "cullingModelAlwaysAnimate": true,
          "resetAnimatorTriggerOnExit": [
            "BeHit",
            "DoSkill"
          ],
          "canSteer": true
        },
        "NormalAttack01": {
          "$type": "NEDIFAKEGCO",
          "animatorStates": {
            "NormalAttack01": [
              "Monster_MachinaIustitia_Probe_NormalAttack01",
              "Audio_Monster_MachinaIustitia_Probe_NormalAttack"
            ]
          },
          "cullingModelAlwaysAnimate": true,
          "resetAnimatorTriggerOnExit": [
            "BeHit",
            "DoSkill"
          ],
          "handleAnimatorStateImmediately": true,
          "canSteer": true
        },
        "PileAttack01_BS": {
          "$type": "NEDIFAKEGCO",
          "animatorStates": {
            "PileAttack01_BS": [
              "Monster_MachinaIustitia_Probe_PileAttack01_BS",
              "Audio_Monster_MachinaIustitia_Probe_PileAttack_BS"
            ]
          },
          "cullingModelAlwaysAnimate": true,
          "resetAnimatorTriggerOnExit": [
            "BeHit",
            "DoSkill"
          ],
          "handleAnimatorStateImmediately": true,
          "canSteer": true
        },
        "PileAttack02_BS": {
          "$type": "NEDIFAKEGCO",
          "animatorStates": {
            "PileAttack02_BS": [
              "Monster_MachinaIustitia_Probe_PileAttack01_BS",
              "Audio_Monster_MachinaIustitia_Probe_PileAttack_BS"
            ]
          },
          "cullingModelAlwaysAnimate": true,
          "resetAnimatorTriggerOnExit": [
            "BeHit",
            "DoSkill"
          ],
          "handleAnimatorStateImmediately": true,
          "canSteer": true
        },
        "PileAttack01_Loop": {
          "$type": "NEDIFAKEGCO",
          "animatorStates": {
            "PileAttack01_Loop": [
              "Monster_MachinaIustitia_Probe_PileAttack01_Loop",
              "Audio_Monster_MachinaIustitia_Probe_PileAttack_Loop"
            ]
          },
          "cullingModelAlwaysAnimate": true,
          "resetAnimatorTriggerOnExit": [
            "BeHit",
            "DoSkill"
          ],
          "handleAnimatorStateImmediately": true
        },
        "PileAttack01_AS": {
          "$type": "NEDIFAKEGCO",
          "animatorStates": {
            "PileAttack01_AS": [
              "Audio_Monster_MachinaIustitia_Probe_PileAttack_AS"
            ]
          },
          "cullingModelAlwaysAnimate": true,
          "resetAnimatorTriggerOnExit": [
            "BeHit",
            "DoSkill"
          ],
          "handleAnimatorStateImmediately": true
        }
      }
    }
  },
  "billboard": {
    "$type": "DNGNMAJBCNP",
    "attachPoint": "BillboardAttach",
    "offsetType": "Character",
    "radiusOffset": 1.0,
    "showHPBar": true,
    "size": "Big"
  },
  "initialPoses": {
    "Default": {
      "initialPoseID": 1
    },
    "Pneuma": {
      "initialPoseID": 21
    },
    "Ousia": {
      "initialPoseID": 11
    },
    "Borehole": {
      "initialPoseID": 9001,
      "initialPoseParams": {
        "intParams": {
          "FreePoseMark": "9001"
        }
      }
    },
    "Pile": {
      "initialPoseID": 9002,
      "initialPoseParams": {
        "intParams": {
          "FreePoseMark": "9002"
        }
      }
    }
  },
  "aibeta": {
    "enable": true,
    "buddySetting": {
      "enable": true,
      "buddyFeatureTagIDs": [
        4025
      ]
    },
    "sensing": {
      "settings": {
        "DefaultSetting": {
          "viewRange": 6.0,
          "feelRange": 3.0
        },
        "Work": {
          "enableVision": false,
          "viewRange": 0.0,
          "feelRange": 0.0
        }
      },
      "templates": {
        "DefaultTemplate": {
          "DefaultPoses": "DefaultSetting"
        },
        "WorkTemplate": {
          "DefaultPoses": "Work"
        }
      }
    },
    "neurons": {
      "DefaultSetting": [
        "HIT"
      ]
    },
    "threat": {
      "GHIJMOKOLMB": "",
      "clearThreatByLostPath": true,
      "viewAttenuation": [
        {
          "x": 10.0,
          "y": 2.0
        },
        {
          "x": 15.0,
          "y": 0.800000011920929
        },
        {
          "x": 20.0,
          "y": 0.5
        },
        {
          "x": 25.0,
          "y": 0.30000001192092896
        },
        {
          "x": 30.0,
          "y": 0.20000000298023224
        }
      ],
      "resistTauntLevel": "Monster_TauntLevel_2"
    },
    "defendArea": {
      "defendRange": 50.0
    },
    "profiling": {},
    "skillGroupCDConfigs": [
      {
        "skillGroupCDID": 1,
        "skillGroupCDTime": 3.0
      }
    ],
    "skillSetting": {},
    "skills": {
      "101": {
        "name": "Alert_Borehole",
        "skillType": "OnAlert",
        "castCondition": {
          "pose": [
            9001
          ]
        },
        "publicCDGroup": "",
        "ignoreGCD": true,
        "triggerGCD": false,
        "HHAGODJIAPE": "",
        "stateIDs": [
          "Alert_Borehole"
        ],
        "skillQueryingTime": 3.0,
        "flagTargetReachable": "10",
        "flagSelfOnTemplateCollider": "01",
        "flagSelfInZone": "10",
        "flagTargetInZone": "11"
      },
      "111": {
        "name": "Alert_Pile",
        "skillType": "OnAlert",
        "castCondition": {
          "pose": [
            9002
          ]
        },
        "publicCDGroup": "",
        "ignoreGCD": true,
        "triggerGCD": false,
        "HHAGODJIAPE": "",
        "stateIDs": [
          "Alert_Pile"
        ],
        "flagTargetReachable": "10",
        "flagSelfOnTemplateCollider": "01",
        "flagSelfInZone": "10",
        "flagTargetInZone": "11"
      },
      "121": {
        "name": "Alert",
        "skillType": "OnAlert",
        "castCondition": {
          "pose": [
            1,
            11,
            21,
            101,
            201,
            301
          ]
        },
        "publicCDGroup": "",
        "ignoreGCD": true,
        "triggerGCD": false,
        "HHAGODJIAPE": "",
        "stateIDs": [
          "Alert"
        ],
        "skillQueryingTime": 3.0,
        "flagTargetReachable": "10",
        "flagSelfOnTemplateCollider": "01",
        "flagSelfInZone": "10",
        "flagTargetInZone": "11"
      },
      "201": {
        "name": "NormalAttack01",
        "combatSkillType": "MeleeAttack",
        "priority": 3,
        "castCondition": {
          "pose": [
            101,
            102
          ],
          "pickRangeMax": 3.0
        },
        "cd": 5.0,
        "publicCDGroup": "",
        "HHAGODJIAPE": "",
        "stateIDs": [
          "NormalAttack01"
        ],
        "skillQueryingTime": 3.0,
        "flagTargetReachable": "10",
        "flagSelfOnTemplateCollider": "01",
        "flagSelfInZone": "11",
        "flagTargetInZone": "11"
      },
      "301": {
        "name": "PileAttack01",
        "combatSkillType": "MeleeAttack",
        "priority": 3,
        "faceTarget": true,
        "castCondition": {
          "pose": [
            301
          ],
          "pickRangeMin": 3.0,
          "pickRangeMax": 8.0,
          "castRangeMin": 3.0,
          "castRangeMax": 8.0
        },
        "cd": 2.0,
        "initialCD": 1.0,
        "publicCDGroup": "MachinaIustitia_Probe_MeleeAttack01",
        "skillGroupCDID": 1,
        "HHAGODJIAPE": "",
        "stateIDs": [
          "PileAttack01_BS",
          "PileAttack01_Loop",
          "PileAttack01_AS"
        ],
        "flagTargetReachable": "10",
        "flagSelfOnTemplateCollider": "01",
        "flagSelfInZone": "11",
        "flagTargetInZone": "11"
      },
      "302": {
        "name": "PileAttack01",
        "combatSkillType": "MeleeAttack",
        "priority": 3,
        "faceTarget": true,
        "castCondition": {
          "pose": [
            301
          ],
          "pickRangeMin": 8.0,
          "pickRangeMax": 15.0,
          "castRangeMin": 8.0,
          "castRangeMax": 15.0
        },
        "cd": 3.0,
        "cdUpperRange": 4.0,
        "initialCD": 1.0,
        "publicCDGroup": "",
        "triggerGCD": false,
        "HHAGODJIAPE": "",
        "stateIDs": [
          "PileAttack02_BS",
          "PileAttack01_AS"
        ],
        "flagTargetReachable": "10",
        "flagSelfOnTemplateCollider": "01",
        "flagSelfInZone": "11",
        "flagTargetInZone": "11"
      },
      "303": {
        "name": "Jump",
        "combatSkillType": "MeleeAttack",
        "priority": 3,
        "faceTarget": true,
        "castCondition": {
          "pose": [
            301
          ],
          "pickRangeMax": 3.0
        },
        "cd": 3.0,
        "cdUpperRange": 4.0,
        "initialCD": 1.0,
        "publicCDGroup": "MachinaIustitia_Probe_MeleeAttack01",
        "triggerGCD": false,
        "skillGroupCDID": 1,
        "HHAGODJIAPE": "",
        "stateIDs": [
          "PileAttack01_Loop",
          "PileAttack01_AS"
        ],
        "flagTargetReachable": "11",
        "flagSelfOnTemplateCollider": "01",
        "flagSelfInZone": "11",
        "flagTargetInZone": "11"
      },
      "501": {
        "name": "Passive_Activate",
        "priority": 1,
        "castCondition": {
          "pose": [
            102
          ]
        },
        "cd": 1.0,
        "initialCD": 1.0,
        "publicCDGroup": "",
        "HHAGODJIAPE": "",
        "stateIDs": [
          "PneumaActivate"
        ],
        "skillQueryingTime": 3.0,
        "flagTargetReachable": "11",
        "flagSelfOnTemplateCollider": "01",
        "flagSelfInZone": "11",
        "flagTargetInZone": "11"
      },
      "511": {
        "name": "Active_Activate",
        "priority": 1,
        "castCondition": {
          "pose": [
            101
          ],
          "globalValues": [
            "_MACHINAIUSTITIA_SELFRECOVER_"
          ],
          "globalValuesTargetType": "SELF"
        },
        "cd": 5.0,
        "initialCD": 1.0,
        "publicCDGroup": "",
        "HHAGODJIAPE": "",
        "stateIDs": [
          "PneumaActivate"
        ],
        "skillQueryingTime": 3.0,
        "flagTargetReachable": "11",
        "flagSelfOnTemplateCollider": "01",
        "flagSelfInZone": "11",
        "flagTargetInZone": "11"
      },
      "9001": {
        "name": "Borehole",
        "skillType": "Free",
        "priority": 3,
        "castCondition": {
          "pose": [
            11
          ]
        },
        "cd": 50.0,
        "initialCD": 5.0,
        "publicCDGroup": "",
        "HHAGODJIAPE": "",
        "stateIDs": [
          "Borehole_BS",
          "Borehole_Loop",
          "Borehole_AS"
        ],
        "skillQueryingTime": 3.0,
        "flagTargetReachable": "11",
        "flagSelfOnTemplateCollider": "01",
        "flagSelfInZone": "11",
        "flagTargetInZone": "11"
      },
      "9002": {
        "name": "Piling",
        "skillType": "Free",
        "priority": 3,
        "castCondition": {
          "pose": [
            21
          ]
        },
        "cd": 30.0,
        "initialCD": 5.0,
        "publicCDGroup": "",
        "HHAGODJIAPE": "",
        "stateIDs": [
          "Piling_BS",
          "Piling_Loop",
          "Piling_AS"
        ],
        "skillQueryingTime": 3.0,
        "flagTargetReachable": "11",
        "flagSelfOnTemplateCollider": "01",
        "flagSelfInZone": "11",
        "flagTargetInZone": "11"
      }
    },
    "skillGCD": 4.0,
    "birdCirclingTactic": [
      {
        "$type": "EPHBMLFODKF",
        "enable": true,
        "condition": {
          "pose": [
            101,
            102,
            201,
            301
          ]
        },
        "JMCOBEPDIGM": {
          "rangeMin": 3.0,
          "rangeMax": 6.0,
          "AFILKAGDAHN": 1.5,
          "BFJBDDIIFOI": {
            "LLICGJHIGME": 0.5,
            "IDEFILBHNAP": 0.5,
            "IBLIPJPNOGC": 0.5
          },
          "NAOBMNGDKHL": "1111",
          "JCNIJOAIGII": "1111",
          "MNPDDAKDHGK": ""
        },
        "PIOCBHLFLJP": {
          "201": {
            "rangeMin": 5.0,
            "rangeMax": 20.0,
            "JOJBOHEDBHC": 3.0,
            "AFILKAGDAHN": 5.0,
            "ALIBHHJHHMN": 2.0,
            "BFJBDDIIFOI": {
              "IDEFILBHNAP": 0.0
            },
            "NAOBMNGDKHL": "1111",
            "JCNIJOAIGII": "1111",
            "MNPDDAKDHGK": ""
          },
          "301": {
            "rangeMin": 3.0,
            "rangeMax": 6.0,
            "AFILKAGDAHN": 1.5,
            "ALIBHHJHHMN": 1.5,
            "BFJBDDIIFOI": {
              "IBLIPJPNOGC": 0.0
            },
            "NAOBMNGDKHL": "1111",
            "JCNIJOAIGII": "1111",
            "MNPDDAKDHGK": ""
          }
        }
      },
      {
        "$type": "KACCHOLJDNK",
        "enable": true,
        "condition": {
          "pose": [
            101,
            301
          ]
        },
        "JMCOBEPDIGM": {
          "KHDFDAAAPEI": 10.0,
          "HKJODDGJPHA": 50.0,
          "MNPDDAKDHGK": ""
        },
        "PIOCBHLFLJP": {
          "301": {
            "HKJODDGJPHA": 99.0,
            "GGEBMFHFBPO": 7.0,
            "KFFGCIMPNMJ": 9.0,
            "MNPDDAKDHGK": ""
          }
        }
      },
      {
        "$type": "NNJKLGNPMNN",
        "enable": true,
        "JMCOBEPDIGM": {
          "NBENNEKDIIA": 5.0,
          "MNPDDAKDHGK": "",
          "GJDMDHIBCME": ""
        }
      },
      {
        "$type": "FPELBIJFGCE",
        "enable": true,
        "condition": {
          "pose": [
            1,
            11,
            21
          ]
        },
        "JMCOBEPDIGM": {
          "KPNDPKIOPJM": 7.0,
          "PINAFKEDDLL": 5.0,
          "ANMPOPEBDIA": 10.0,
          "GMJFIMFFOEL": 3.0,
          "CHCPFDMADEI": 5.0,
          "MNPDDAKDHGK": ""
        }
      }
    ]
  },
  "inputKeys": [
    {
      "keyID": 201,
      "inputKeyCode": 257,
      "abilityName": ""
    },
    {
      "keyID": 301,
      "inputKeyCode": 258,
      "abilityName": ""
    },
    {
      "keyID": 401,
      "inputKeyCode": 259,
      "abilityName": ""
    },
    {
      "keyID": 501,
      "inputKeyCode": 260,
      "abilityName": ""
    },
    {
      "keyID": 511,
      "inputKeyCode": 261,
      "abilityName": ""
    }
  ],
  "move": {
    "$type": "IPNMJMHDMPF",
    "velocityForce": {
      "excludeForces": [
        "RetreatAirType"
      ]
    },
    "handleCombatTaskImmediately": true,
    "facingMove": "FourDirection",
    "yawSpeedRatio": 2.0,
    "PKHOMJHFAEE": "RootNode"
  }
}