{
  "common": {
    "effectAttachShape": {
      "$type": "FJNPJANPGGC",
      "mesh": "EffectMesh"
    },
    "mass": 150.0,
    "height": 3.5,
    "modelHeight": 3.0,
    "shadowViewSizeRatio": 3.0,
    "affectedByWorld": true,
    "checkInSurface": true,
    "shouldPauseAnimatorBeforeReady": true,
    "useGrassDisplacement": true,
    "clearAnimatorOnSetLightDeactive": true,
    "clearAIOnSetLightDeactive": true,
    "reconnectSupport": true,
    "recoverByInitPose": true
  },
  "headControl": {
    "$type": "KPIPDEBDPIH",
    "useHeadControl": true,
    "animStates": [
      "NormalIdle/Standby",
      "NormalMove/WalkForward",
      "NormalMove/WalkBack",
      "NormalMove/WalkRight",
      "NormalMove/WalkLeft",
      "NormalMove/Run",
      "Turn/TurnLeft",
      "Turn/TurnRight"
    ]
  },
  "specialPoint": {
    "elementAbsorb": "RootNode",
    "elementPendant": "",
    "elementDrop": "RootNode",
    "bulletAim": "BulletAimPoint"
  },
  "model": {
    "bornEffect": "Eff_Monster_Common_Born",
    "attachEffect": "",
    "BKPFGNPLDNJ": ""
  },
  "dither": {
    "showDitherDuration": 2.0
  },
  "combat": {
    "property": {
      "endureType": "Monster_Demiboss_Humanoid",
      "weight": 150.0
    },
    "beHit": {
      "hitBloodEffect": ""
    },
    "combatLock": {
      "lockShape": "CircleLockEnemy",
      "lockType": "Avatar&Monster_Lv4"
    },
    "die": {
      "hasAnimatorDie": true,
      "dieEndTime": 2.0,
      "dieForceDisappearTime": 4.0,
      "dieDisappearEffect": "Eff_Death_Common",
      "dieShaderData": "MonsterDie",
      "useRagDoll": true,
      "ragDollDieEndTimeDelay": 0.5,
      "muteHitBox": true,
      "dieDenyLockOn": true,
      "dieIsGhostToEnemy": true,
      "dieIgnoreTriggerBullet": true,
      "muteBillboard": true,
      "mutePushCollider": true
    },
    "animEvents": {
      "NormalAtk01_1": {
        "attackPattern": {
          "$type": "GMDIMKKHACA",
          "triggerType": "TriggerNoRepeat",
          "born": {
            "$type": "IAENDIPDFKD",
            "offset": {
              "KGEPIMHBMOL": 0.3199999928474426,
              "JEBHCGDPFEJ": -0.5,
              "LPCHALMFFOD": 1.2200000286102295
            },
            "useRotation": true
          },
          "height": 2.200000047683716,
          "fanAngle": 180.0,
          "OAHPDLJIADP": 2.450000047683716
        },
        "attackInfo": {
          "attackTag": "",
          "attenuationTag": "",
          "attenuationGroup": "default",
          "attackProperty": {
            "actorGrassSubHurtDelta": 0.6000000238418579,
            "actorWindSubHurtDelta": 0.0,
            "elementType": "Wind",
            "IPFJJJGABPL": 25.0,
            "strikeType": "Slash",
            "enBreak": 50.0,
            "attackType": "Melee",
            "GLKMCMDJBIK": 0.0
          },
          "hitPattern": {
            "onHitEffectName": "default",
            "hitImpulseY": "",
            "hitImpulseType": "LV3"
          }
        }
      },
      "NormalAtk01_2": {
        "attackPattern": {
          "$type": "GMDIMKKHACA",
          "triggerType": "TriggerNoRepeat",
          "born": {
            "$type": "IAENDIPDFKD",
            "offset": {
              "KGEPIMHBMOL": -0.5400000214576721,
              "JEBHCGDPFEJ": -0.5,
              "LPCHALMFFOD": 0.0
            },
            "useRotation": true
          },
          "height": 3.0,
          "fanAngle": 180.0,
          "OAHPDLJIADP": 2.440000057220459
        },
        "attackInfo": {
          "attackTag": "",
          "attenuationTag": "",
          "attenuationGroup": "default",
          "attackProperty": {
            "actorGrassSubHurtDelta": 0.6000000238418579,
            "actorWindSubHurtDelta": 0.0,
            "elementType": "Wind",
            "IPFJJJGABPL": 25.0,
            "strikeType": "Slash",
            "enBreak": 75.0,
            "attackType": "Melee",
            "GLKMCMDJBIK": 0.0
          },
          "hitPattern": {
            "onHitEffectName": "default",
            "hitImpulseY": "",
            "hitImpulseType": "LV3"
          }
        }
      },
      "NormalAtk02": {
        "attackPattern": {
          "$type": "GMDIMKKHACA",
          "triggerType": "TriggerNoRepeat",
          "born": {
            "$type": "IAENDIPDFKD",
            "offset": {
              "KGEPIMHBMOL": -0.15000000596046448,
              "JEBHCGDPFEJ": 0.0,
              "LPCHALMFFOD": 0.0
            },
            "useRotation": true
          },
          "height": 3.0,
          "OAHPDLJIADP": 3.799999952316284
        },
        "attackInfo": {
          "attackTag": "",
          "attenuationTag": "",
          "attenuationGroup": "default",
          "attackProperty": {
            "actorGrassSubHurtDelta": 0.800000011920929,
            "actorWindSubHurtDelta": 0.0,
            "elementType": "Wind",
            "IPFJJJGABPL": 25.0,
            "strikeType": "Slash",
            "enBreak": 100.0,
            "attackType": "Melee",
            "GLKMCMDJBIK": 0.0
          },
          "hitPattern": {
            "onHitEffectName": "default",
            "hitImpulseY": "",
            "hitImpulseType": "LV4"
          },
          "forceCameraShake": true,
          "cameraShake": {
            "shakeType": "HitVector"
          }
        }
      },
      "SpecialAtk1": {
        "attackPattern": {
          "$type": "GMDIMKKHACA",
          "triggerType": "TriggerNoRepeat",
          "born": {
            "$type": "IAENDIPDFKD",
            "offset": {
              "KGEPIMHBMOL": 0.25,
              "JEBHCGDPFEJ": 0.0,
              "LPCHALMFFOD": 0.8600000143051147
            },
            "useRotation": true
          },
          "height": 3.0,
          "OAHPDLJIADP": 1.7999999523162842
        },
        "attackInfo": {
          "attackTag": "",
          "attenuationTag": "Hilistray_Wind_SpecialAtk",
          "attenuationGroup": "Hilistray_Wind_SpecialAtk",
          "attackProperty": {
            "actorGrassSubHurtDelta": 0.800000011920929,
            "actorWindSubHurtDelta": 0.0,
            "elementType": "Wind",
            "IPFJJJGABPL": 25.0,
            "strikeType": "Slash",
            "enBreak": 100.0,
            "GLKMCMDJBIK": 0.0
          },
          "hitPattern": {
            "onHitEffectName": "default",
            "hitImpulseY": "",
            "hitImpulseType": "LV4",
            "retreatType": "ByHitDirection",
            "hitHaltTimeScale": 0.05000000074505806
          },
          "canBeModifiedBy": "OriginOwner"
        }
      },
      "SpecialAtk2": {
        "attackPattern": {
          "$type": "GMDIMKKHACA",
          "triggerType": "TriggerNoRepeat",
          "born": {
            "$type": "IAENDIPDFKD",
            "offset": {
              "KGEPIMHBMOL": 0.38999998569488525,
              "JEBHCGDPFEJ": 0.0,
              "LPCHALMFFOD": 0.03999999910593033
            },
            "useRotation": true
          },
          "height": 3.0,
          "OAHPDLJIADP": 2.0
        },
        "attackInfo": {
          "attackTag": "",
          "attenuationTag": "Hilistray_Wind_SpecialAtk",
          "attenuationGroup": "Hilistray_Wind_SpecialAtk",
          "attackProperty": {
            "actorGrassSubHurtDelta": 0.800000011920929,
            "actorWindSubHurtDelta": 0.0,
            "elementType": "Wind",
            "IPFJJJGABPL": 25.0,
            "strikeType": "Slash",
            "enBreak": 100.0,
            "GLKMCMDJBIK": 0.0
          },
          "hitPattern": {
            "onHitEffectName": "default",
            "hitImpulseY": "",
            "hitImpulseType": "LV4",
            "retreatType": "ByHitDirection",
            "hitHaltTimeScale": 0.05000000074505806
          },
          "canBeModifiedBy": "OriginOwner"
        }
      },
      "SpecialAtk3": {
        "attackPattern": {
          "$type": "JHKEHNJBMOF",
          "triggerType": "TriggerNoRepeat",
          "born": {
            "$type": "IAENDIPDFKD",
            "offset": {
              "KGEPIMHBMOL": 0.5,
              "JEBHCGDPFEJ": 1.600000023841858,
              "LPCHALMFFOD": -0.20000000298023224
            },
            "useRotation": true
          },
          "size": {
            "KGEPIMHBMOL": 5.599999904632568,
            "JEBHCGDPFEJ": 3.299999952316284,
            "LPCHALMFFOD": 3.4000000953674316
          }
        },
        "attackInfo": {
          "attackTag": "",
          "attenuationTag": "Hilistray_Wind_SpecialAtk",
          "attenuationGroup": "Hilistray_Wind_SpecialAtk",
          "attackProperty": {
            "actorGrassSubHurtDelta": 1.0,
            "actorWindSubHurtDelta": 0.0,
            "elementType": "Wind",
            "IPFJJJGABPL": 25.0,
            "strikeType": "Slash",
            "enBreak": 150.0,
            "GLKMCMDJBIK": 0.0
          },
          "hitPattern": {
            "onHitEffectName": "default",
            "hitImpulseY": "",
            "hitImpulseType": "LV4",
            "retreatType": "ByHitDirection",
            "hitHaltTimeScale": 0.05000000074505806
          },
          "canBeModifiedBy": "OriginOwner"
        }
      }
    }
  },
  "equipController": {
    "sheathPoint": "",
    "attachPoints": {
      "equip01": "SlimeAttachPoint"
    }
  },
  "abilities": [
    {
      "abilityID": "",
      "abilityName": "Monster_Hilistray_Wind_Steer",
      "abilityOverride": ""
    },
    {
      "abilityID": "",
      "abilityName": "Monster_Hilistray_Wind_ExitBattle",
      "abilityOverride": ""
    },
    {
      "abilityID": "",
      "abilityName": "Monster_Hilistray_Wind_Alert",
      "abilityOverride": ""
    },
    {
      "abilityID": "",
      "abilityName": "Monster_Hilistray_Wind_NormalAtk01",
      "abilityOverride": ""
    },
    {
      "abilityID": "",
      "abilityName": "Monster_Hilistray_Wind_NormalAtk01_RushMove",
      "abilityOverride": ""
    },
    {
      "abilityID": "",
      "abilityName": "Monster_Hilistray_Wind_NormalAtk02_RushMove",
      "abilityOverride": ""
    },
    {
      "abilityID": "",
      "abilityName": "Monster_Hilistray_Wind_Syuriken01",
      "abilityOverride": ""
    },
    {
      "abilityID": "",
      "abilityName": "Monster_Hilistray_Wind_Syuriken01_Bullet",
      "abilityOverride": ""
    },
    {
      "abilityID": "",
      "abilityName": "Monster_Hilistray_Wind_Syuriken02_SmallBullet",
      "abilityOverride": ""
    },
    {
      "abilityID": "",
      "abilityName": "Monster_Hilistray_Wind_Syuriken02_BigBullet",
      "abilityOverride": ""
    },
    {
      "abilityID": "",
      "abilityName": "Monster_Hilistray_Wind_SpecialAtk_AirState",
      "abilityOverride": ""
    },
    {
      "abilityID": "",
      "abilityName": "Monster_Hilistray_Wind_SpecialAtk_AirState_End",
      "abilityOverride": ""
    },
    {
      "abilityID": "",
      "abilityName": "Monster_Hilistray_Wind_SpecialAtk_CreateSlime",
      "abilityOverride": ""
    },
    {
      "abilityID": "",
      "abilityName": "Monster_Hilistray_Wind_SpecialAtk_RemoveSlime",
      "abilityOverride": ""
    },
    {
      "abilityID": "",
      "abilityName": "Monster_Hilistray_Wind_SpecialAtk_WeaponEffectOn",
      "abilityOverride": ""
    },
    {
      "abilityID": "",
      "abilityName": "Monster_Hilistray_Wind_SpecialAtk_WeaponEffectOff",
      "abilityOverride": ""
    },
    {
      "abilityID": "",
      "abilityName": "Monster_Hilistray_Wind_SpecialAtk_Bullet_01",
      "abilityOverride": ""
    },
    {
      "abilityID": "",
      "abilityName": "Monster_Hilistray_Wind_SpecialAtk_Bullet_02",
      "abilityOverride": ""
    },
    {
      "abilityID": "",
      "abilityName": "Monster_Hilistray_Wind_SpecialAtk_Bullet_03",
      "abilityOverride": ""
    },
    {
      "abilityID": "",
      "abilityName": "Monster_Hilistray_Wind_JumpAlert",
      "abilityOverride": ""
    }
  ],
  "stateLayers": {
    "defaultLayer": {
      "$type": "GBGJJIIEMBD",
      "layerIndexName": "",
      "CPAANEIJCGD": "",
      "stateIDs": {
        "NormalIdle": {
          "$type": "NEDIFAKEGCO",
          "animatorStates": {
            "StandbyFree": [],
            "Standby": [],
            "Born": []
          },
          "canDoSkill": true,
          "canSyncMove": true,
          "resetAnimatorTriggerOnExit": [
            "DoSkill"
          ]
        },
        "NormalMove": {
          "$type": "NEDIFAKEGCO",
          "animatorStates": {
            "WalkForward": [
              "Audio_Monster_Hilistray_Wind_01_Walk"
            ],
            "WalkBack": [
              "Audio_Monster_Hilistray_Wind_01_Walk"
            ],
            "WalkRight": [
              "Audio_Monster_Hilistray_Wind_01_Walk"
            ],
            "WalkLeft": [
              "Audio_Monster_Hilistray_Wind_01_Walk"
            ],
            "Run": [
              "Audio_Monster_Hilistray_Wind_01_Run"
            ]
          },
          "canDoSkill": true,
          "canSyncMove": true,
          "resetAnimatorTriggerOnExit": [
            "DoSkill"
          ],
          "canSteer": true
        },
        "Turn": {
          "$type": "NEDIFAKEGCO",
          "animatorStates": {
            "TurnLeft": [
              "Audio_Monster_Hilistray_Wind_01_Walk"
            ],
            "TurnRight": [
              "Audio_Monster_Hilistray_Wind_01_Walk"
            ]
          },
          "canDoSkill": true,
          "canSyncMove": true,
          "resetAnimatorTriggerOnExit": [
            "DoSkill"
          ],
          "canSteer": true
        },
        "ReturnToBorn": {
          "$type": "NEDIFAKEGCO",
          "animatorStates": {
            "ReturnToBorn": [
              "Audio_Monster_Hilistray_Wind_01_ReturnToBorn"
            ]
          },
          "canSyncMove": true,
          "resetAnimatorTriggerOnExit": [
            "BeHit",
            "DoSkill"
          ]
        },
        "BeHit": {
          "$type": "NEDIFAKEGCO",
          "animatorStates": {
            "Hit_L": [],
            "Hit_H": [
              "Audio_Monster_Hilistray_Wind_01_Hit_H"
            ]
          },
          "resetAnimatorTriggerOnEnter": [
            "BeHit"
          ],
          "resetAnimatorTriggerOnExit": [
            "DoSkill"
          ]
        },
        "BeHitThrow": {
          "$type": "NEDIFAKEGCO",
          "animatorStates": {
            "HitThrow": [
              "Audio_Monster_Hilistray_Wind_01_HitThrow"
            ],
            "HitThrowDrop": [],
            "HitThrowToGround": [
              "Audio_Monster_Hilistray_Wind_01_Hit_HitThrowToGround"
            ]
          },
          "resetAnimatorTriggerOnEnter": [
            "BeHit",
            "HitAir2HitDrop"
          ],
          "resetAnimatorTriggerOnExit": [
            "DoSkill"
          ]
        },
        "Struggle": {
          "$type": "NEDIFAKEGCO",
          "animatorStates": {
            "Struggle": []
          },
          "resetAnimatorTriggerOnEnter": [
            "BeHit",
            "HitAir2HitDrop"
          ],
          "resetAnimatorTriggerOnExit": [
            "DoSkill"
          ]
        },
        "Die": {
          "$type": "NEDIFAKEGCO",
          "animatorStates": {
            "Die_01": [
              "Audio_Monster_Hilistray_Wind_01_Die"
            ],
            "Die_02": [
              "Audio_Monster_Hilistray_Wind_01_Die"
            ],
            "SwimDie": []
          },
          "resetAnimatorTriggerOnEnter": [
            "DoSkill"
          ]
        },
        "Die_RagDoll": {
          "$type": "NEDIFAKEGCO",
          "animatorStates": {
            "Die_RagDoll_01": [],
            "Die_RagDoll_02": [],
            "SwimDie_Ragdoll": [],
            "AirDie": [
              "Audio_Monster_Hilistray_Wind_01_HitThrow"
            ]
          },
          "resetAnimatorTriggerOnEnter": [
            "DoSkill"
          ],
          "enableRagDoll": true
        },
        "Alert": {
          "$type": "NEDIFAKEGCO",
          "animatorStates": {
            "Alert": [
              "Monster_Hilistray_Wind_Alert",
              "Audio_Monster_Hilistray_Wind_01_Alert"
            ]
          },
          "resetAnimatorTriggerOnExit": [
            "BeHit",
            "DoSkill"
          ]
        },
        "Alert02": {
          "$type": "NEDIFAKEGCO",
          "animatorStates": {
            "Alert02_BS": [
              "Monster_Hilistray_Wind_Alert",
              "Monster_Hilistray_Wind_JumpAlert",
              "Audio_Monster_Hilistray_Wind_01_Alert02_Forward_BS"
            ],
            "Alert02_Loop": [],
            "Alert02_AS": [
              "Audio_Monster_Hilistray_Wind_01_Alert02_Forward_AS"
            ]
          },
          "resetAnimatorTriggerOnEnter": [
            "HitAir2HitDrop"
          ],
          "resetAnimatorTriggerOnExit": [
            "BeHit",
            "DoSkill",
            "HitAir2HitDrop"
          ],
          "handleAnimatorStateImmediately": true,
          "CEIMCHAGOGM": true
        },
        "Alert02_Forward": {
          "$type": "NEDIFAKEGCO",
          "animatorStates": {
            "Alert02_Forward_BS": [
              "Monster_Hilistray_Wind_Alert",
              "Monster_Hilistray_Wind_JumpAlert",
              "Audio_Monster_Hilistray_Wind_01_Alert02_Forward_BS"
            ],
            "Alert02_Forward_Loop": [],
            "Alert02_Forward_AS": [
              "Audio_Monster_Hilistray_Wind_01_Alert02_Forward_AS"
            ]
          },
          "resetAnimatorTriggerOnEnter": [
            "HitAir2HitDrop"
          ],
          "resetAnimatorTriggerOnExit": [
            "BeHit",
            "DoSkill",
            "HitAir2HitDrop"
          ],
          "handleAnimatorStateImmediately": true,
          "CEIMCHAGOGM": true
        },
        "Life_Guard": {
          "$type": "NEDIFAKEGCO",
          "animatorStates": {
            "Guard": [
              "Audio_Monster_Hilistray_Wind_01_Guard"
            ]
          },
          "canDoSkill": true,
          "resetAnimatorTriggerOnExit": [
            "BeHit",
            "DoSkill"
          ]
        },
        "Life_Box": {
          "$type": "NEDIFAKEGCO",
          "animatorStates": {
            "Box": [
              "Audio_Monster_Hilistray_Wind_01_Box"
            ]
          },
          "canDoSkill": true,
          "resetAnimatorTriggerOnExit": [
            "BeHit",
            "DoSkill"
          ]
        },
        "Life_Sleepy": {
          "$type": "NEDIFAKEGCO",
          "animatorStates": {
            "Sleepy": [
              "Audio_Monster_Hilistray_Wind_01_Sleepy"
            ]
          },
          "canDoSkill": true,
          "resetAnimatorTriggerOnExit": [
            "BeHit",
            "DoSkill"
          ]
        },
        "Life_LookUp": {
          "$type": "NEDIFAKEGCO",
          "animatorStates": {
            "LookUp": [
              "Audio_Monster_Hilistray_Wind_01_LookUp"
            ]
          },
          "canDoSkill": true,
          "resetAnimatorTriggerOnExit": [
            "BeHit",
            "DoSkill"
          ]
        },
        "Life_Approval": {
          "$type": "NEDIFAKEGCO",
          "animatorStates": {
            "Approval": []
          },
          "canDoSkill": true,
          "resetAnimatorTriggerOnExit": [
            "BeHit",
            "DoSkill"
          ]
        },
        "NormalAtk01": {
          "$type": "NEDIFAKEGCO",
          "animatorStates": {
            "NormalAtk01": [
              "Monster_Hilistray_Wind_NormalAtk01",
              "Audio_Monster_Hilistray_Wind_01_NormalAtk01"
            ]
          },
          "canSyncMove": true,
          "resetAnimatorTriggerOnExit": [
            "BeHit",
            "DoSkill"
          ],
          "canSteer": true
        },
        "NormalAtk02": {
          "$type": "NEDIFAKEGCO",
          "animatorStates": {
            "NormalAtk02": [
              "Monster_Hilistray_Wind_NormalAtk02",
              "Audio_Monster_Hilistray_Wind_01_NormalAtk02"
            ]
          },
          "canSyncMove": true,
          "resetAnimatorTriggerOnExit": [
            "BeHit",
            "DoSkill"
          ],
          "canSteer": true
        },
        "Syuriken01": {
          "$type": "NEDIFAKEGCO",
          "animatorStates": {
            "Syuriken01": [
              "Monster_Hilistray_Wind_Syuriken01",
              "Audio_Monster_Hilistray_Wind_01_Syuriken01"
            ]
          },
          "resetAnimatorTriggerOnExit": [
            "BeHit",
            "DoSkill"
          ],
          "canSteer": true
        },
        "Syuriken02": {
          "$type": "NEDIFAKEGCO",
          "animatorStates": {
            "Syuriken02": [
              "Monster_Hilistray_Wind_Syuriken02",
              "Audio_Monster_Hilistray_Wind_01_Syuriken02"
            ]
          },
          "resetAnimatorTriggerOnExit": [
            "BeHit",
            "DoSkill"
          ],
          "canSteer": true
        },
        "SpecialAtk_JumpUp": {
          "$type": "NEDIFAKEGCO",
          "animatorStates": {
            "SpecialAtk_JumpUp": [
              "Monster_Hilistray_Wind_SpecialAtk_JumpUp",
              "Audio_Monster_Hilistray_Wind_01_SpecialAtk_JumpUp"
            ]
          },
          "canSyncMove": true,
          "resetAnimatorTriggerOnExit": [
            "BeHit",
            "DoSkill"
          ],
          "canSteer": true,
          "CEIMCHAGOGM": true
        },
        "SpecialAtk_InAir": {
          "$type": "NEDIFAKEGCO",
          "animatorStates": {
            "SpecialAtk_InAir": [
              "Monster_Hilistray_Wind_SpecialAtk_InAir",
              "Audio_Monster_Hilistray_Wind_01_SpecialAtk_Drop_InAir"
            ]
          },
          "resetAnimatorTriggerOnExit": [
            "BeHit",
            "DoSkill"
          ],
          "handleAnimatorStateImmediately": true,
          "canSteer": true,
          "CEIMCHAGOGM": true
        },
        "SpecialAtk_JumpDown": {
          "$type": "NEDIFAKEGCO",
          "animatorStates": {
            "SpecialAtk_JumpDown": [
              "Monster_Hilistray_Wind_SpecialAtk_JumpDown",
              "Audio_Monster_Hilistray_Wind_01_SpecialAtk_JumpDown"
            ]
          },
          "resetAnimatorTriggerOnEnter": [
            "HitAir2HitDrop"
          ],
          "resetAnimatorTriggerOnExit": [
            "BeHit",
            "DoSkill",
            "HitAir2HitDrop"
          ],
          "canSteer": true,
          "CEIMCHAGOGM": true
        },
        "SpecialAtk_Drop": {
          "$type": "NEDIFAKEGCO",
          "animatorStates": {
            "SpecialAtk_Drop_BS": [
              "Audio_Monster_Hilistray_Wind_01_HitThrow"
            ],
            "SpecialAtk_Drop_Loop": [],
            "SpecialAtk_Drop_AS": [
              "Monster_Hilistray_Wind_SpecialAtk_Drop_AS",
              "Audio_Monster_Hilistray_Wind_01_SpecialAtk_Drop_AS"
            ]
          },
          "canSyncMove": true,
          "resetAnimatorTriggerOnExit": [
            "BeHit",
            "DoSkill",
            "HitAir2HitDrop"
          ],
          "handleAnimatorStateImmediately": true,
          "canSteer": true,
          "remoteForceCloseAirMove": true,
          "CEIMCHAGOGM": true
        }
      }
    }
  },
  "billboard": {
    "$type": "DNGNMAJBCNP",
    "attachPoint": "BillboardAttach",
    "offset": {
      "y": 0.25
    },
    "offsetType": "Character",
    "radiusOffset": 1.0,
    "showHPBar": true,
    "size": "Big"
  },
  "initialPoses": {
    "Default": {
      "initialPoseID": 101,
      "initialPoseParams": {
        "boolParams": {
          "Box": "false",
          "Sit": "false",
          "Teach": "false",
          "JumpAlert": "false",
          "JumpForwardAlert": "false"
        }
      }
    },
    "Box": {
      "initialPoseID": 9001,
      "initialPoseParams": {
        "boolParams": {
          "Box": "true"
        }
      }
    },
    "Sit": {
      "initialPoseID": 9002,
      "initialPoseParams": {
        "boolParams": {
          "Sit": "true"
        }
      }
    },
    "Teach": {
      "initialPoseID": 9003,
      "initialPoseParams": {
        "boolParams": {
          "Teach": "true"
        }
      }
    },
    "JumpAlert": {
      "initialPoseID": 9004,
      "initialPoseParams": {
        "boolParams": {
          "JumpAlert": "true"
        }
      }
    },
    "JumpForwardAlert": {
      "initialPoseID": 9005,
      "initialPoseParams": {
        "boolParams": {
          "JumpForwardAlert": "true"
        }
      }
    }
  },
  "aibeta": {
    "enable": true,
    "sensing": {
      "settings": {
        "DefaultSetting": {
          "viewRange": 25.0,
          "feelRange": 10.0
        },
        "Sit": {
          "viewRange": 15.0,
          "feelRange": 8.0
        },
        "Teach": {
          "viewRange": 12.0,
          "feelRange": 7.0
        },
        "JumpAlert": {
          "viewRange": 20.0,
          "verticalFov": 120.0,
          "feelRange": 8.0
        }
      },
      "templates": {
        "DefaultTemplate": {
          "DefaultPoses": "DefaultSetting"
        },
        "SitTemplate": {
          "DefaultPoses": "Sit"
        },
        "TeachTemplate": {
          "DefaultPoses": "Teach"
        },
        "JumpAlertTemplate": {
          "DefaultPoses": "DefaultSetting",
          "9004": "JumpAlert",
          "9005": "JumpAlert"
        }
      }
    },
    "neurons": {
      "DefaultSetting": [
        "HIT"
      ]
    },
    "threat": {
      "GHIJMOKOLMB": "",
      "clearThreatByLostPath": true,
      "viewAttenuation": [
        {
          "x": 10.0,
          "y": 2.0
        },
        {
          "x": 15.0,
          "y": 0.800000011920929
        },
        {
          "x": 20.0,
          "y": 0.5
        },
        {
          "x": 25.0,
          "y": 0.30000001192092896
        },
        {
          "x": 30.0,
          "y": 0.20000000298023224
        }
      ],
      "resistTauntLevel": "Monster_TauntLevel_2"
    },
    "defendArea": {
      "defendRange": 50.0
    },
    "fly": {
      "enable": true,
      "floatingPoses": [
        301,
        9006
      ]
    },
    "profiling": {
      "staticPoses": [
        9002,
        9003
      ]
    },
    "network": {
      "syncSkill": true
    },
    "skillGroupCDConfigs": [
      {
        "skillGroupCDID": 0,
        "skillGroupCDTime": 5.0
      },
      {
        "skillGroupCDID": 1,
        "skillGroupCDTime": 13.0
      },
      {
        "skillGroupCDID": 2,
        "skillGroupCDTime": 7.5
      }
    ],
    "skillSetting": {
      "skillEliteSet": {
        "0": [],
        "1": [
          604
        ]
      }
    },
    "skills": {
      "101": {
        "name": "OnAlert",
        "skillType": "OnAlert",
        "faceTarget": true,
        "castCondition": {
          "pose": [
            101,
            9001,
            9002,
            9003
          ]
        },
        "publicCDGroup": "",
        "ignoreGCD": true,
        "triggerGCD": false,
        "HHAGODJIAPE": "",
        "stateIDs": [
          "Alert"
        ],
        "skillQueryingTime": 3.0,
        "flagTargetReachable": "10",
        "flagSelfOnTemplateCollider": "01",
        "flagSelfInZone": "10",
        "flagTargetInZone": "11"
      },
      "102": {
        "name": "OnAlert",
        "skillType": "AdvancedAlert",
        "canUseCombatSkillCondition": true,
        "faceTarget": true,
        "castCondition": {
          "pose": [
            9004
          ],
          "minTargetAngleXZ": 80.0
        },
        "publicCDGroup": "",
        "ignoreGCD": true,
        "triggerGCD": false,
        "HHAGODJIAPE": "",
        "stateIDs": [
          "Alert"
        ],
        "skillQueryingTime": 3.0,
        "flagTargetReachable": "10",
        "flagSelfOnTemplateCollider": "01",
        "flagSelfInZone": "10",
        "flagTargetInZone": "11"
      },
      "103": {
        "name": "OnAlert",
        "skillType": "AdvancedAlert",
        "canUseCombatSkillCondition": true,
        "faceTarget": true,
        "castCondition": {
          "pose": [
            9004
          ],
          "maxTargetAngleXZ": 80.0
        },
        "publicCDGroup": "",
        "ignoreGCD": true,
        "triggerGCD": false,
        "HHAGODJIAPE": "",
        "stateIDs": [
          "Alert02"
        ],
        "skillQueryingTime": 3.0,
        "flagTargetReachable": "10",
        "flagSelfOnTemplateCollider": "01",
        "flagSelfInZone": "10",
        "flagTargetInZone": "11"
      },
      "104": {
        "name": "OnAlert",
        "skillType": "AdvancedAlert",
        "castCondition": {
          "pose": [
            9005
          ]
        },
        "publicCDGroup": "",
        "ignoreGCD": true,
        "triggerGCD": false,
        "HHAGODJIAPE": "",
        "stateIDs": [
          "Alert02_Forward"
        ],
        "skillQueryingTime": 3.0,
        "flagTargetReachable": "11",
        "flagSelfOnTemplateCollider": "01",
        "flagSelfInZone": "10",
        "flagTargetInZone": "11"
      },
      "111": {
        "name": "Life_Guard",
        "skillType": "Free",
        "castCondition": {
          "pose": [
            101,
            9004,
            9005
          ]
        },
        "cd": 15.0,
        "cdUpperRange": 25.0,
        "initialCD": 10.0,
        "initialCDUpperRange": 25.0,
        "publicCDGroup": "",
        "HHAGODJIAPE": "",
        "stateIDs": [
          "Life_Guard"
        ],
        "flagTargetReachable": "10",
        "flagSelfOnTemplateCollider": "01",
        "flagSelfInZone": "10",
        "flagTargetInZone": "11"
      },
      "121": {
        "name": "Life_Box",
        "skillType": "Free",
        "castCondition": {
          "pose": [
            9001
          ]
        },
        "cd": 12.5,
        "cdUpperRange": 25.0,
        "initialCD": 5.0,
        "initialCDUpperRange": 5.0,
        "publicCDGroup": "",
        "HHAGODJIAPE": "",
        "stateIDs": [
          "Life_Box"
        ],
        "flagTargetReachable": "10",
        "flagSelfOnTemplateCollider": "01",
        "flagSelfInZone": "10",
        "flagTargetInZone": "11"
      },
      "131": {
        "name": "Life_Sleepy",
        "skillType": "Free",
        "castCondition": {
          "pose": [
            9002
          ]
        },
        "cd": 20.0,
        "cdUpperRange": 25.0,
        "initialCD": 10.0,
        "initialCDUpperRange": 5.0,
        "publicCDGroup": "",
        "skillGroupCDID": 1,
        "HHAGODJIAPE": "",
        "stateIDs": [
          "Life_Sleepy"
        ],
        "flagTargetReachable": "10",
        "flagSelfOnTemplateCollider": "01",
        "flagSelfInZone": "10",
        "flagTargetInZone": "11"
      },
      "141": {
        "name": "Life_LookUp",
        "skillType": "Free",
        "castCondition": {
          "pose": [
            9002
          ]
        },
        "cd": 20.0,
        "cdUpperRange": 15.0,
        "initialCD": 5.0,
        "publicCDGroup": "",
        "skillGroupCDID": 1,
        "HHAGODJIAPE": "",
        "stateIDs": [
          "Life_LookUp"
        ],
        "flagTargetReachable": "10",
        "flagSelfOnTemplateCollider": "01",
        "flagSelfInZone": "10",
        "flagTargetInZone": "11"
      },
      "151": {
        "name": "Life_Approval",
        "skillType": "Free",
        "castCondition": {
          "pose": [
            9003
          ]
        },
        "cd": 12.5,
        "cdUpperRange": 10.0,
        "initialCD": 5.0,
        "initialCDUpperRange": 5.0,
        "publicCDGroup": "",
        "HHAGODJIAPE": "",
        "stateIDs": [
          "Life_Approval"
        ],
        "flagTargetReachable": "10",
        "flagSelfOnTemplateCollider": "01",
        "flagSelfInZone": "10",
        "flagTargetInZone": "11"
      },
      "201": {
        "name": "NormalAtk01",
        "combatSkillType": "MeleeAttack",
        "priority": 3,
        "castCondition": {
          "pose": [
            201
          ],
          "pickRangeMax": 5.5,
          "pickRangeYMax": 2.0,
          "castRangeMax": 5.5
        },
        "cd": 7.5,
        "cdUpperRange": 5.0,
        "initialCD": 1.0,
        "initialCDUpperRange": 4.0,
        "publicCDGroup": "",
        "HHAGODJIAPE": "",
        "stateIDs": [
          "NormalAtk01"
        ],
        "skillQueryingTime": 3.0,
        "flagTargetReachable": "10",
        "flagSelfOnTemplateCollider": "01",
        "flagSelfInZone": "11",
        "flagTargetInZone": "11"
      },
      "202": {
        "name": "NormalAtk01",
        "combatSkillType": "MeleeAttack",
        "priority": 3,
        "castCondition": {
          "pose": [
            201
          ],
          "pickRangeMin": 5.5,
          "pickRangeMax": 10.5,
          "pickRangeYMax": 2.0,
          "castRangeMin": 5.5,
          "castRangeMax": 10.5
        },
        "cd": 5.5,
        "cdUpperRange": 5.0,
        "initialCD": 5.0,
        "initialCDUpperRange": 4.0,
        "publicCDGroup": "",
        "HHAGODJIAPE": "",
        "stateIDs": [
          "NormalAtk01"
        ],
        "skillQueryingTime": 3.0,
        "flagTargetReachable": "10",
        "flagSelfOnTemplateCollider": "01",
        "flagSelfInZone": "11",
        "flagTargetInZone": "11"
      },
      "301": {
        "name": "NormalAtk02",
        "combatSkillType": "MeleeAttack",
        "priority": 3,
        "castCondition": {
          "pose": [
            201
          ],
          "maxTargetAngleXZ": 90.0,
          "pickRangeMax": 7.5,
          "pickRangeYMax": 2.5,
          "castRangeMax": 7.5
        },
        "cd": 12.5,
        "cdUpperRange": 5.0,
        "initialCD": 1.0,
        "initialCDUpperRange": 4.0,
        "publicCDGroup": "",
        "HHAGODJIAPE": "",
        "stateIDs": [
          "NormalAtk02"
        ],
        "skillQueryingTime": 3.0,
        "flagTargetReachable": "10",
        "flagSelfOnTemplateCollider": "01",
        "flagSelfInZone": "11",
        "flagTargetInZone": "11"
      },
      "401": {
        "name": "Syuriken01",
        "combatSkillType": "MeleeAttack",
        "priority": 4,
        "castCondition": {
          "pose": [
            201
          ],
          "maxTargetAngleXZ": 90.0,
          "pickRangeMax": 4.0,
          "pickRangeYMax": 3.0,
          "castRangeMax": 4.0
        },
        "cd": 7.5,
        "cdUpperRange": 2.0,
        "initialCD": 3.0,
        "initialCDUpperRange": 4.0,
        "publicCDGroup": "",
        "HHAGODJIAPE": "",
        "stateIDs": [
          "Syuriken01"
        ],
        "skillQueryingTime": 3.0,
        "flagTargetReachable": "11",
        "flagSelfOnTemplateCollider": "01",
        "flagSelfInZone": "11",
        "flagTargetInZone": "11"
      },
      "402": {
        "name": "Syuriken01",
        "combatSkillType": "MeleeAttack",
        "priority": 3,
        "castCondition": {
          "pose": [
            201
          ],
          "maxTargetAngleXZ": 90.0,
          "pickRangeMin": 4.0,
          "pickRangeMax": 10.5,
          "pickRangeYMax": 3.0,
          "castRangeMin": 4.0,
          "castRangeMax": 10.5
        },
        "cd": 10.5,
        "cdUpperRange": 5.0,
        "initialCD": 3.0,
        "initialCDUpperRange": 4.0,
        "publicCDGroup": "",
        "HHAGODJIAPE": "",
        "stateIDs": [
          "Syuriken01"
        ],
        "skillQueryingTime": 3.0,
        "flagTargetReachable": "11",
        "flagSelfOnTemplateCollider": "01",
        "flagSelfInZone": "11",
        "flagTargetInZone": "11"
      },
      "501": {
        "name": "Syuriken02",
        "combatSkillType": "MeleeAttack",
        "priority": 3,
        "castCondition": {
          "pose": [
            201
          ],
          "pickRangeMin": 7.5,
          "pickRangeMax": 12.5,
          "castRangeMin": 7.5,
          "castRangeMax": 12.5
        },
        "cd": 5.0,
        "cdUpperRange": 5.0,
        "initialCD": 1.0,
        "initialCDUpperRange": 4.0,
        "publicCDGroup": "",
        "skillGroupCDID": 0,
        "HHAGODJIAPE": "",
        "stateIDs": [
          "Syuriken02"
        ],
        "skillQueryingTime": 3.0,
        "flagTargetReachable": "11",
        "flagSelfOnTemplateCollider": "01",
        "flagSelfInZone": "11",
        "flagTargetInZone": "11"
      },
      "502": {
        "name": "Syuriken02",
        "combatSkillType": "MeleeAttack",
        "priority": 2,
        "castCondition": {
          "pose": [
            201
          ],
          "pickRangeMin": 12.5,
          "pickRangeMax": 15.5,
          "castRangeMin": 12.5,
          "castRangeMax": 15.5
        },
        "cd": 3.0,
        "cdUpperRange": 5.0,
        "initialCD": 1.0,
        "initialCDUpperRange": 4.0,
        "publicCDGroup": "",
        "skillGroupCDID": 0,
        "HHAGODJIAPE": "",
        "stateIDs": [
          "Syuriken02"
        ],
        "skillQueryingTime": 3.0,
        "flagTargetReachable": "10",
        "flagSelfOnTemplateCollider": "01",
        "flagSelfInZone": "11",
        "flagTargetInZone": "11"
      },
      "601": {
        "name": "SpecialAtk",
        "combatSkillType": "MeleeAttack",
        "priority": 1,
        "castCondition": {
          "pose": [
            201
          ]
        },
        "cd": 15.0,
        "cdUpperRange": 5.0,
        "initialCD": 7.5,
        "initialCDUpperRange": 4.0,
        "publicCDGroup": "Hilistray_Wind_SpecialAtk",
        "triggerCDOnStart": true,
        "skillGroupCDID": 1,
        "HHAGODJIAPE": "",
        "stateIDs": [
          "SpecialAtk_JumpUp",
          "SpecialAtk_InAir",
          "SpecialAtk_JumpDown",
          "SpecialAtk_Drop"
        ],
        "skillQueryingTime": 3.0,
        "flagTargetReachable": "01",
        "flagSelfOnTemplateCollider": "01",
        "flagSelfInZone": "11",
        "flagTargetInZone": "11"
      },
      "602": {
        "name": "SpecialAtk",
        "combatSkillType": "MeleeAttack",
        "priority": 1,
        "castCondition": {
          "pose": [
            201
          ],
          "pickRangeYMin": 2.0
        },
        "cd": 22.5,
        "cdUpperRange": 5.0,
        "initialCD": 7.5,
        "publicCDGroup": "",
        "triggerCDOnStart": true,
        "skillGroupCDID": 1,
        "HHAGODJIAPE": "",
        "stateIDs": [
          "SpecialAtk_JumpUp",
          "SpecialAtk_InAir",
          "SpecialAtk_JumpDown",
          "SpecialAtk_Drop"
        ],
        "skillQueryingTime": 3.0,
        "flagTargetReachable": "10",
        "flagSelfOnTemplateCollider": "01",
        "flagSelfInZone": "11",
        "flagTargetInZone": "11"
      },
      "603": {
        "name": "SpecialAtk",
        "combatSkillType": "MeleeAttack",
        "priority": 2,
        "castCondition": {
          "pose": [
            201
          ],
          "pickRangeMin": 10.5,
          "pickRangeMax": 24.5,
          "castRangeMin": 10.5,
          "castRangeMax": 24.5
        },
        "cd": 22.5,
        "cdUpperRange": 5.0,
        "initialCD": 20.0,
        "publicCDGroup": "Hilistray_Wind_SpecialAtk",
        "triggerCDOnStart": true,
        "skillGroupCDID": 1,
        "HHAGODJIAPE": "",
        "stateIDs": [
          "SpecialAtk_JumpUp",
          "SpecialAtk_InAir",
          "SpecialAtk_JumpDown",
          "SpecialAtk_Drop"
        ],
        "skillQueryingTime": 3.0,
        "flagTargetReachable": "10",
        "flagSelfOnTemplateCollider": "01",
        "flagSelfInZone": "11",
        "flagTargetInZone": "11"
      },
      "604": {
        "name": "SpecialAtk",
        "combatSkillType": "MeleeAttack",
        "priority": 1,
        "castCondition": {
          "pose": [
            201
          ],
          "pickRangeMin": 6.5,
          "pickRangeMax": 24.5,
          "castRangeMin": 6.5,
          "castRangeMax": 24.5
        },
        "cd": 20.0,
        "cdUpperRange": 5.0,
        "initialCD": 1.0,
        "publicCDGroup": "Hilistray_Wind_SpecialAtk",
        "triggerCDOnStart": true,
        "skillGroupCDID": 1,
        "HHAGODJIAPE": "",
        "stateIDs": [
          "SpecialAtk_JumpUp",
          "SpecialAtk_InAir",
          "SpecialAtk_JumpDown",
          "SpecialAtk_Drop"
        ],
        "skillQueryingTime": 3.0,
        "flagTargetReachable": "10",
        "flagSelfOnTemplateCollider": "01",
        "flagSelfInZone": "11",
        "flagTargetInZone": "11"
      }
    },
    "skillGCD": 3.0,
    "birdCirclingTactic": [
      {
        "$type": "EPHBMLFODKF",
        "enable": true,
        "condition": {
          "pose": [
            201
          ]
        },
        "JMCOBEPDIGM": {
          "rangeMax": 15.0,
          "JOJBOHEDBHC": 3.0,
          "AFILKAGDAHN": 6.0,
          "ALIBHHJHHMN": 3.0,
          "BFJBDDIIFOI": {},
          "NAOBMNGDKHL": "1111",
          "JCNIJOAIGII": "1111",
          "MNPDDAKDHGK": ""
        }
      },
      {
        "$type": "KACCHOLJDNK",
        "enable": true,
        "condition": {
          "pose": [
            201
          ]
        },
        "JMCOBEPDIGM": {
          "KHDFDAAAPEI": 24.0,
          "HKJODDGJPHA": 50.0,
          "GGEBMFHFBPO": 12.0,
          "KFFGCIMPNMJ": 15.0,
          "MNPDDAKDHGK": ""
        }
      },
      {
        "$type": "NNJKLGNPMNN",
        "enable": true,
        "JMCOBEPDIGM": {
          "NBENNEKDIIA": 1.2000000476837158,
          "POEFAFGEMIC": 3.200000047683716,
          "MNPDDAKDHGK": "",
          "GJDMDHIBCME": ""
        }
      },
      {
        "$type": "FPELBIJFGCE",
        "enable": true,
        "condition": {
          "pose": [
            101,
            9001
          ]
        },
        "JMCOBEPDIGM": {
          "NBENNEKDIIA": 0.699999988079071,
          "KPNDPKIOPJM": 7.0,
          "PINAFKEDDLL": 5.0,
          "ANMPOPEBDIA": 10.0,
          "GMJFIMFFOEL": 3.0,
          "CHCPFDMADEI": 5.0,
          "MNPDDAKDHGK": ""
        }
      }
    ]
  },
  "inputKeys": [
    {
      "keyID": 101,
      "inputKeyCode": 257,
      "abilityName": ""
    },
    {
      "keyID": 201,
      "inputKeyCode": 258,
      "abilityName": ""
    },
    {
      "keyID": 301,
      "inputKeyCode": 259,
      "abilityName": ""
    },
    {
      "keyID": 401,
      "inputKeyCode": 260,
      "abilityName": ""
    },
    {
      "keyID": 501,
      "inputKeyCode": 261,
      "abilityName": ""
    },
    {
      "keyID": 601,
      "inputKeyCode": 262,
      "abilityName": ""
    }
  ],
  "move": {
    "$type": "IPNMJMHDMPF",
    "facingMove": "FourDirection",
    "monsterSizeType": "StoopType",
    "yawSpeedRatio": 4.0,
    "PKHOMJHFAEE": "RootNode"
  },
  "audio": {
    "overrideEmitterName": "",
    "animAudio": {},
    "disableEvent": {
      "text": ""
    },
    "destroyEvent": {
      "text": ""
    },
    "randomVariantSwitchGroup": {
      "text": ""
    },
    "randomVariantSwitchValues": [
      {
        "text": ""
      }
    ]
  }
}