{
  "common": {
    "effectAttachShape": {
      "$type": "FJNPJANPGGC",
      "mesh": "EffectMesh"
    },
    "mass": 10000.0,
    "height": 4.0,
    "modelHeight": 3.0,
    "affectedByWorld": true,
    "checkInSurface": true,
    "scale": 1.2999999523162842,
    "shouldPauseAnimatorBeforeReady": true,
    "useGrassDisplacement": true,
    "reconnectSupport": true,
    "recoverByInitPose": true
  },
  "specialPoint": {
    "elementAbsorb": "RootNode",
    "elementPendant": "",
    "elementDrop": "RootNode",
    "bulletAim": "Fx_ChestNode"
  },
  "model": {
    "bornEffect": "Eff_Monster_Common_Born",
    "attachEffect": "",
    "canBakeMesh": false,
    "JKLKJPMFNGD": true,
    "BKPFGNPLDNJ": ""
  },
  "dither": {
    "showDitherDuration": 2.0
  },
  "combat": {
    "property": {
      "endureType": "Monster_Boss_Other",
      "weight": 300.0
    },
    "beHit": {
      "hitBloodEffect": ""
    },
    "combatLock": {
      "lockShape": "CircleLockEnemy",
      "lockType": "Avatar&Monster_Lv4"
    },
    "die": {
      "hasAnimatorDie": true,
      "dieEndTime": 1.5,
      "dieForceDisappearTime": 1.7599999904632568,
      "dieDisappearEffect": "",
      "muteHitBox": true,
      "dieDenyLockOn": true,
      "dieIsGhostToEnemy": true,
      "dieIgnoreTriggerBullet": true,
      "muteBillboard": true,
      "mutePushCollider": true
    },
    "animEvents": {
      "AtkNo": {
        "attackPattern": {
          "$type": "GMDIMKKHACA",
          "triggerType": "TriggerNoRepeat",
          "born": {
            "$type": "IAENDIPDFKD",
            "offset": {
              "KGEPIMHBMOL": 0.0,
              "JEBHCGDPFEJ": 0.0,
              "LPCHALMFFOD": -0.5
            }
          },
          "fanAngle": 60.0,
          "OAHPDLJIADP": 1.5
        },
        "attackInfo": {
          "attackTag": "",
          "attenuationTag": "",
          "attenuationGroup": "default",
          "attackProperty": {
            "actorGrassSubHurtDelta": 0.5,
            "actorWindSubHurtDelta": 0.0,
            "IPFJJJGABPL": 100.0,
            "strikeType": "Blunt",
            "attackType": "Melee",
            "GLKMCMDJBIK": 0.0
          },
          "hitPattern": {
            "onHitEffectName": "default",
            "hitImpulseY": "",
            "hitImpulseType": "LV2",
            "hitHaltTimeScale": 0.009999999776482582
          }
        }
      },
      "Atk01_1": {
        "attackPattern": {
          "$type": "GMDIMKKHACA",
          "triggerType": "TriggerNoRepeat",
          "born": {
            "$type": "IAENDIPDFKD",
            "offset": {
              "KGEPIMHBMOL": 0.5,
              "JEBHCGDPFEJ": 0.0,
              "LPCHALMFFOD": 1.0
            }
          },
          "height": 2.0,
          "fanAngle": 280.0,
          "OAHPDLJIADP": 3.799999952316284
        },
        "attackInfo": {
          "attackTag": "",
          "attenuationTag": "",
          "attenuationGroup": "default",
          "attackProperty": {
            "actorGrassSubHurtDelta": 0.5,
            "actorWindSubHurtDelta": 0.0,
            "elementType": "Fire",
            "IPFJJJGABPL": 25.0,
            "strikeType": "Blunt",
            "enBreak": 200.0,
            "attackType": "Melee",
            "GLKMCMDJBIK": 0.0
          },
          "hitPattern": {
            "onHitEffectName": "default",
            "hitImpulseY": "",
            "hitImpulseType": "LV3",
            "hitHaltTimeScale": 0.009999999776482582
          }
        }
      },
      "Atk01_2": {
        "attackPattern": {
          "$type": "GMDIMKKHACA",
          "triggerType": "TriggerNoRepeat",
          "born": {
            "$type": "IAENDIPDFKD",
            "offset": {
              "KGEPIMHBMOL": -1.0,
              "JEBHCGDPFEJ": 0.0,
              "LPCHALMFFOD": 0.0
            },
            "direction": {
              "$type": "LEIHCELGBNN",
              "angleOffsetCorrect": {
                "KGEPIMHBMOL": 0.0,
                "JEBHCGDPFEJ": 30.0,
                "LPCHALMFFOD": 0.0
              }
            }
          },
          "height": 2.0,
          "fanAngle": 200.0,
          "OAHPDLJIADP": 4.0
        },
        "attackInfo": {
          "attackTag": "",
          "attenuationTag": "",
          "attenuationGroup": "default",
          "attackProperty": {
            "actorGrassSubHurtDelta": 0.800000011920929,
            "actorWindSubHurtDelta": 0.0,
            "elementType": "Fire",
            "IPFJJJGABPL": 25.0,
            "strikeType": "Blunt",
            "enBreak": 200.0,
            "attackType": "Melee",
            "GLKMCMDJBIK": 0.0
          },
          "hitPattern": {
            "onHitEffectName": "default",
            "hitImpulseY": "",
            "hitImpulseType": "LV5",
            "hitHaltTimeScale": 0.009999999776482582
          }
        }
      },
      "Atk02": {
        "attackPattern": {
          "$type": "JHKEHNJBMOF",
          "triggerType": "TriggerNoRepeat",
          "born": {
            "$type": "IAENDIPDFKD",
            "offset": {
              "KGEPIMHBMOL": -0.5,
              "JEBHCGDPFEJ": 1.0,
              "LPCHALMFFOD": 0.5
            }
          },
          "size": {
            "KGEPIMHBMOL": 2.0,
            "JEBHCGDPFEJ": 2.5,
            "LPCHALMFFOD": 5.699999809265137
          }
        },
        "attackInfo": {
          "attackTag": "",
          "attenuationTag": "",
          "attenuationGroup": "default",
          "attackProperty": {
            "actorGrassSubHurtDelta": 1.0,
            "actorWindSubHurtDelta": 0.0,
            "elementType": "Fire",
            "IPFJJJGABPL": 25.0,
            "strikeType": "Blunt",
            "enBreak": 200.0,
            "attackType": "Melee",
            "GLKMCMDJBIK": 0.0
          },
          "hitPattern": {
            "onHitEffectName": "default",
            "hitImpulseY": "",
            "hitImpulseType": "LV5",
            "hitHaltTimeScale": 0.009999999776482582
          }
        }
      },
      "Atk03_1": {
        "attackPattern": {
          "$type": "GMDIMKKHACA",
          "triggerType": "TriggerNoRepeat",
          "born": {
            "$type": "IAENDIPDFKD",
            "offset": {
              "KGEPIMHBMOL": 0.0,
              "JEBHCGDPFEJ": 0.0,
              "LPCHALMFFOD": 1.0
            }
          },
          "height": 2.0,
          "fanAngle": 180.0,
          "OAHPDLJIADP": 4.0
        },
        "attackInfo": {
          "attackTag": "",
          "attenuationTag": "",
          "attenuationGroup": "default",
          "attackProperty": {
            "actorGrassSubHurtDelta": 0.6000000238418579,
            "actorWindSubHurtDelta": 0.0,
            "elementType": "Fire",
            "IPFJJJGABPL": 25.0,
            "strikeType": "Blunt",
            "enBreak": 200.0,
            "attackType": "Melee",
            "GLKMCMDJBIK": 0.0
          },
          "hitPattern": {
            "onHitEffectName": "default",
            "hitImpulseY": "",
            "hitImpulseType": "LV4",
            "hitHaltTimeScale": 0.009999999776482582
          }
        }
      },
      "Atk03_2": {
        "attackPattern": {
          "$type": "GMDIMKKHACA",
          "triggerType": "TriggerNoRepeat",
          "born": {
            "$type": "IAENDIPDFKD",
            "offset": {
              "KGEPIMHBMOL": 0.0,
              "JEBHCGDPFEJ": 0.0,
              "LPCHALMFFOD": 1.0
            }
          },
          "height": 2.0,
          "fanAngle": 240.0,
          "OAHPDLJIADP": 3.5
        },
        "attackInfo": {
          "attackTag": "",
          "attenuationTag": "",
          "attenuationGroup": "default",
          "attackProperty": {
            "actorGrassSubHurtDelta": 0.800000011920929,
            "actorWindSubHurtDelta": 0.0,
            "elementType": "Fire",
            "IPFJJJGABPL": 25.0,
            "strikeType": "Blunt",
            "enBreak": 200.0,
            "attackType": "Melee",
            "GLKMCMDJBIK": 0.0
          },
          "hitPattern": {
            "onHitEffectName": "default",
            "hitImpulseY": "",
            "hitImpulseType": "",
            "overrideHitImpulse": {
              "hitLevel": "Heavy",
              "IMIJMPGJOGG": 500.0
            },
            "hitHaltTimeScale": 0.009999999776482582
          }
        }
      },
      "Atk03_3": {
        "attackPattern": {
          "$type": "GMDIMKKHACA",
          "triggerType": "TriggerNoRepeat",
          "born": {
            "$type": "IAENDIPDFKD",
            "offset": {
              "KGEPIMHBMOL": 0.0,
              "JEBHCGDPFEJ": 0.0,
              "LPCHALMFFOD": 1.0
            }
          },
          "height": 2.0,
          "OAHPDLJIADP": 4.5
        },
        "attackInfo": {
          "attackTag": "",
          "attenuationTag": "",
          "attenuationGroup": "default",
          "attackProperty": {
            "actorGrassSubHurtDelta": 1.0,
            "actorWindSubHurtDelta": 0.0,
            "elementType": "Fire",
            "IPFJJJGABPL": 25.0,
            "strikeType": "Blunt",
            "enBreak": 200.0,
            "attackType": "Melee",
            "GLKMCMDJBIK": 0.0
          },
          "hitPattern": {
            "onHitEffectName": "default",
            "hitImpulseY": "",
            "hitImpulseType": "LV5",
            "hitHaltTimeScale": 0.009999999776482582
          }
        }
      }
    }
  },
  "abilities": [
    {
      "abilityID": "",
      "abilityName": "Monster_Legion_KillGadget",
      "abilityOverride": ""
    },
    {
      "abilityID": "",
      "abilityName": "Monster_Legion_ShaderDie",
      "abilityOverride": ""
    },
    {
      "abilityID": "",
      "abilityName": "Monster_Legion_Die",
      "abilityOverride": ""
    },
    {
      "abilityID": "",
      "abilityName": "Monster_Legion_Alert",
      "abilityOverride": ""
    },
    {
      "abilityID": "",
      "abilityName": "Monster_Legion_ShieldManager",
      "abilityOverride": ""
    },
    {
      "abilityID": "",
      "abilityName": "Monster_Legion_Weak",
      "abilityOverride": ""
    },
    {
      "abilityID": "",
      "abilityName": "Monster_Legion_WeakAS",
      "abilityOverride": ""
    },
    {
      "abilityID": "",
      "abilityName": "Monster_Legion_ReturnToBorn",
      "abilityOverride": ""
    },
    {
      "abilityID": "",
      "abilityName": "Monster_Legion_Attack02",
      "abilityOverride": ""
    },
    {
      "abilityID": "",
      "abilityName": "Monster_Legion_Attack04",
      "abilityOverride": ""
    },
    {
      "abilityID": "",
      "abilityName": "Monster_Legion_Attack05",
      "abilityOverride": ""
    },
    {
      "abilityID": "",
      "abilityName": "Monster_Legion_SteerAttack",
      "abilityOverride": ""
    }
  ],
  "stateLayers": {
    "defaultLayer": {
      "$type": "GBGJJIIEMBD",
      "layerIndexName": "",
      "CPAANEIJCGD": "",
      "stateIDs": {
        "Born": {
          "$type": "NEDIFAKEGCO",
          "animatorStates": {
            "Born": []
          },
          "canDoSkill": true,
          "canSyncMove": true,
          "resetAnimatorTriggerOnExit": [
            "DoSkill"
          ]
        },
        "Standby": {
          "$type": "NEDIFAKEGCO",
          "animatorStates": {
            "Standby": []
          },
          "canDoSkill": true,
          "canSyncMove": true,
          "resetAnimatorTriggerOnExit": [
            "DoSkill"
          ]
        },
        "StandbyStatue": {
          "$type": "NEDIFAKEGCO",
          "animatorStates": {
            "StandbyStatue": []
          },
          "canDoSkill": true,
          "canSyncMove": true,
          "addEndure": 0.0,
          "resetAnimatorTriggerOnExit": [
            "DoSkill"
          ]
        },
        "WalkForward": {
          "$type": "NEDIFAKEGCO",
          "animatorStates": {
            "WalkForward": [
              "Audio_Monster_Golem_Legion_Walk"
            ]
          },
          "canDoSkill": true,
          "canSyncMove": true,
          "resetAnimatorTriggerOnExit": [
            "DoSkill"
          ],
          "canSteer": true
        },
        "WalkBack": {
          "$type": "NEDIFAKEGCO",
          "animatorStates": {
            "WalkBack": [
              "Audio_Monster_Golem_Legion_Walk_Back"
            ]
          },
          "canDoSkill": true,
          "canSyncMove": true,
          "resetAnimatorTriggerOnExit": [
            "DoSkill"
          ],
          "canSteer": true
        },
        "WalkLeft": {
          "$type": "NEDIFAKEGCO",
          "animatorStates": {
            "WalkLeft": [
              "Audio_Monster_Golem_Legion_Walk_Back"
            ]
          },
          "canDoSkill": true,
          "canSyncMove": true,
          "resetAnimatorTriggerOnExit": [
            "DoSkill"
          ],
          "canSteer": true
        },
        "WalkRight": {
          "$type": "NEDIFAKEGCO",
          "animatorStates": {
            "WalkRight": [
              "Audio_Monster_Golem_Legion_Walk_Back"
            ]
          },
          "canDoSkill": true,
          "canSyncMove": true,
          "resetAnimatorTriggerOnExit": [
            "DoSkill"
          ],
          "canSteer": true
        },
        "Weak_BS": {
          "$type": "NEDIFAKEGCO",
          "animatorStates": {
            "Weak_BS": [
              "Monster_Golem_Legion_WeakBS",
              "Audio_Monster_Golem_Legion_Weak_BS"
            ]
          },
          "canSyncMove": true,
          "addEndure": 9.999999747378752e-05,
          "resetAnimatorTriggerOnExit": [
            "BeHit",
            "DoSkill"
          ]
        },
        "Weak_Loop": {
          "$type": "NEDIFAKEGCO",
          "animatorStates": {
            "Weak_Loop": []
          },
          "canDoSkill": true,
          "canSyncMove": true,
          "addEndure": 9.999999747378752e-05,
          "resetAnimatorTriggerOnExit": [
            "DoSkill"
          ]
        },
        "Weak_AS": {
          "$type": "NEDIFAKEGCO",
          "animatorStates": {
            "Weak_AS": [
              "Monster_Golem_Legion_WeakAS",
              "Audio_Monster_Golem_Legion_Weak_AS"
            ]
          },
          "addEndure": 9.999999747378752e-05,
          "resetAnimatorTriggerOnExit": [
            "BeHit",
            "DoSkill"
          ]
        },
        "Die": {
          "$type": "NEDIFAKEGCO",
          "animatorStates": {
            "Die": [
              "Monster_Golem_Legion_Die",
              "Audio_Monster_Golem_Legion_Die"
            ]
          },
          "resetAnimatorTriggerOnEnter": [
            "DoSkill"
          ]
        },
        "Weak_Die": {
          "$type": "NEDIFAKEGCO",
          "animatorStates": {
            "Weak_Die": [
              "Monster_Golem_Legion_WeakDie",
              "Audio_Monster_Golem_Legion_Weak_Die"
            ]
          },
          "resetAnimatorTriggerOnEnter": [
            "DoSkill"
          ]
        },
        "Alert": {
          "$type": "NEDIFAKEGCO",
          "animatorStates": {
            "Alert": [
              "Monster_Golem_Legion_Alert",
              "Audio_Monster_Golem_Legion_Alert"
            ]
          },
          "resetAnimatorTriggerOnExit": [
            "BeHit",
            "DoSkill"
          ]
        },
        "Attack01": {
          "$type": "NEDIFAKEGCO",
          "animatorStates": {
            "Attack01": [
              "Monster_Golem_Legion_Attack01",
              "Audio_Monster_Golem_Legion_Attack01"
            ]
          },
          "cullingModelAlwaysAnimate": true,
          "resetAnimatorTriggerOnExit": [
            "BeHit",
            "DoSkill"
          ],
          "canSteer": true
        },
        "Attack011": {
          "$type": "NEDIFAKEGCO",
          "animatorStates": {
            "Attack011": [
              "Monster_Golem_Legion_Attack01",
              "Audio_Monster_Golem_Legion_Attack01"
            ]
          },
          "cullingModelAlwaysAnimate": true,
          "resetAnimatorTriggerOnExit": [
            "BeHit",
            "DoSkill"
          ],
          "canSteer": true
        },
        "Attack02_BS": {
          "$type": "NEDIFAKEGCO",
          "animatorStates": {
            "Attack02_BS": [
              "Audio_Monster_Golem_Legion_Attack02_BS"
            ]
          },
          "cullingModelAlwaysAnimate": true,
          "resetAnimatorTriggerOnExit": [
            "BeHit",
            "DoSkill"
          ],
          "canSteer": true
        },
        "Attack02_Loop": {
          "$type": "NEDIFAKEGCO",
          "animatorStates": {
            "Attack02_Loop": [
              "Monster_Golem_Legion_Attack02_Loop",
              "Audio_Monster_Golem_Legion_Walk"
            ]
          },
          "cullingModelAlwaysAnimate": true,
          "resetAnimatorTriggerOnExit": [
            "BeHit",
            "DoSkill"
          ],
          "canSteer": true
        },
        "Attack02_AS": {
          "$type": "NEDIFAKEGCO",
          "animatorStates": {
            "Attack02_AS": [
              "Monster_Golem_Legion_Attack02",
              "Audio_Monster_Golem_Legion_Attack02_AS"
            ]
          },
          "cullingModelAlwaysAnimate": true,
          "resetAnimatorTriggerOnExit": [
            "BeHit",
            "DoSkill"
          ],
          "canSteer": true
        },
        "Attack02_Stay": {
          "$type": "NEDIFAKEGCO",
          "animatorStates": {
            "Attack02_Stay": [
              "Monster_Golem_Legion_Attack021",
              "Audio_Monster_Golem_Legion_Attack02_Stay"
            ]
          },
          "cullingModelAlwaysAnimate": true,
          "resetAnimatorTriggerOnExit": [
            "BeHit",
            "DoSkill"
          ],
          "canSteer": true
        },
        "Attack02_Stay1": {
          "$type": "NEDIFAKEGCO",
          "animatorStates": {
            "Attack02_Stay1": [
              "Monster_Golem_Legion_Attack021",
              "Audio_Monster_Golem_Legion_Attack02_Stay"
            ]
          },
          "cullingModelAlwaysAnimate": true,
          "resetAnimatorTriggerOnExit": [
            "BeHit",
            "DoSkill"
          ],
          "canSteer": true
        },
        "Attack03": {
          "$type": "NEDIFAKEGCO",
          "animatorStates": {
            "Attack03": [
              "Monster_Golem_Legion_Attack03",
              "Audio_Monster_Golem_Legion_Attack03_Attack"
            ],
            "Attack01_Attack03": [
              "Monster_Golem_Legion_Attack03",
              "Audio_Monster_Golem_Legion_Attack03_Attack"
            ]
          },
          "cullingModelAlwaysAnimate": true,
          "resetAnimatorTriggerOnExit": [
            "BeHit",
            "DoSkill"
          ],
          "canSteer": true
        },
        "Attack04": {
          "$type": "NEDIFAKEGCO",
          "animatorStates": {
            "Attack04": [
              "Monster_Golem_Legion_Attack04",
              "Audio_Monster_Golem_Legion_Attack04"
            ]
          },
          "cullingModelAlwaysAnimate": true,
          "resetAnimatorTriggerOnExit": [
            "BeHit",
            "DoSkill"
          ],
          "canSteer": true
        },
        "Attack05_BS": {
          "$type": "NEDIFAKEGCO",
          "animatorStates": {
            "Attack05_BS": [
              "Monster_Golem_Legion_Attack05",
              "Audio_Monster_Golem_Legion_Attack05_BS"
            ]
          },
          "cullingModelAlwaysAnimate": true,
          "addEndure": 9.999999747378752e-05,
          "resetAnimatorTriggerOnExit": [
            "BeHit",
            "DoSkill"
          ],
          "canSteer": true
        },
        "Attack05_Loop": {
          "$type": "NEDIFAKEGCO",
          "animatorStates": {
            "Attack05_Loop": []
          },
          "cullingModelAlwaysAnimate": true,
          "addEndure": 9.999999747378752e-05,
          "resetAnimatorTriggerOnExit": [
            "BeHit",
            "DoSkill"
          ],
          "canSteer": true
        },
        "Attack05_AS": {
          "$type": "NEDIFAKEGCO",
          "animatorStates": {
            "Attack05_AS": [
              "Monster_Golem_Legion_Attack05_AS",
              "Audio_Monster_Golem_Legion_Attack05_AS"
            ]
          },
          "cullingModelAlwaysAnimate": true,
          "addEndure": 9.999999747378752e-05,
          "resetAnimatorTriggerOnExit": [
            "BeHit",
            "DoSkill"
          ],
          "canSteer": true
        }
      }
    }
  },
  "billboard": {
    "$type": "DNGNMAJBCNP",
    "attachPoint": "BillboardAttach",
    "offsetType": "Character",
    "radiusOffset": 0.4000000059604645,
    "showHPBar": true,
    "size": "Big"
  },
  "initialPoses": {
    "Default": {
      "initialPoseID": 1
    },
    "Statue": {
      "initialPoseID": 111,
      "initialPoseParams": {
        "boolParams": {
          "Statue": "true"
        }
      }
    },
    "NoSensingStatue": {
      "initialPoseID": 121,
      "initialPoseParams": {
        "boolParams": {
          "BlindStatue": "true"
        }
      }
    }
  },
  "aibeta": {
    "enable": true,
    "sensing": {
      "settings": {
        "DefaultSetting": {
          "viewRange": 12.0,
          "feelRange": 8.0
        },
        "LowSensing": {
          "enableVision": false,
          "feelRange": 8.0
        },
        "ComatSensing": {
          "viewPanoramic": true,
          "feelRange": 30.0
        },
        "NoSensing": {
          "enableVision": false,
          "hearAttractionRange": 0.0,
          "feelRange": 0.0
        }
      },
      "templates": {
        "DefaultTemplate": {
          "DefaultPoses": "DefaultSetting",
          "111": "LowSensing",
          "121": "NoSensing",
          "201": "ComatSensing",
          "202": "ComatSensing",
          "203": "ComatSensing"
        },
        "NeverCombatTemplate": {
          "DefaultPoses": "DefaultSetting",
          "111": "NoSensing",
          "121": "NoSensing",
          "201": "ComatSensing",
          "202": "ComatSensing",
          "203": "ComatSensing"
        }
      }
    },
    "neurons": {
      "DefaultSetting": [
        "HIT"
      ],
      "NeverCombat": []
    },
    "threat": {
      "GHIJMOKOLMB": "",
      "clearThreatTargetDistance": 60.0,
      "clearThreatEdgeDistance": 25.0,
      "clearThreatByLostPath": true,
      "clearThreatByTargetOutOfZone": true,
      "clearThreatTimerByDistance": 2.0,
      "viewAttenuation": [
        {
          "x": 10.0,
          "y": 2.0
        },
        {
          "x": 15.0,
          "y": 0.800000011920929
        },
        {
          "x": 20.0,
          "y": 0.5
        },
        {
          "x": 25.0,
          "y": 0.30000001192092896
        },
        {
          "x": 30.0,
          "y": 0.20000000298023224
        }
      ],
      "resistTauntLevel": "Monster_TauntLevel_3"
    },
    "defendArea": {
      "defendRange": 30.0
    },
    "network": {
      "syncSkill": true
    },
    "skillGroupCDConfigs": [
      {
        "skillGroupCDID": 1,
        "skillGroupCDTime": 10.0
      }
    ],
    "skills": {
      "101": {
        "name": "OnAlert",
        "castCondition": {
          "pose": [
            111,
            121
          ]
        },
        "publicCDGroup": "",
        "ignoreGCD": true,
        "HHAGODJIAPE": "",
        "stateIDs": [
          "Alert"
        ],
        "skillQueryingTime": 3.0,
        "flagTargetReachable": "11",
        "flagSelfOnTemplateCollider": "01",
        "flagSelfInZone": "10",
        "flagTargetInZone": "11"
      },
      "111": {
        "name": "WeakAS",
        "castCondition": {
          "pose": [
            203
          ]
        },
        "cd": 9999.0,
        "initialCD": 9999.0,
        "publicCDGroup": "",
        "ignoreGCD": true,
        "triggerGCD": false,
        "triggerCDOnFail": false,
        "HHAGODJIAPE": "",
        "stateIDs": [
          "Weak_AS"
        ],
        "flagTargetReachable": "11",
        "flagSelfOnTemplateCollider": "11",
        "flagSelfInZone": "11",
        "flagTargetInZone": "11"
      },
      "601": {
        "name": "Attack01",
        "combatSkillType": "MeleeAttack",
        "castCondition": {
          "pose": [
            201
          ],
          "maxTargetAngleXZ": 75.0,
          "pickRangeMax": 6.5
        },
        "cd": 4.0,
        "cdUpperRange": 6.0,
        "initialCD": 3.0,
        "publicCDGroup": "",
        "OHCPFFIDLGO": [
          "Golem_Legion_Common",
          "Golem_Legion_MeleeAtk"
        ],
        "HHAGODJIAPE": "",
        "stateIDs": [
          "Attack01"
        ],
        "skillQueryingTime": 3.0,
        "flagTargetReachable": "11",
        "flagSelfOnTemplateCollider": "01",
        "flagSelfInZone": "11",
        "flagTargetInZone": "11"
      },
      "602": {
        "name": "Attack01",
        "combatSkillType": "MeleeAttack",
        "castCondition": {
          "pose": [
            201
          ],
          "maxTargetAngleXZ": 75.0,
          "pickRangeMax": 6.5
        },
        "cd": 8.0,
        "cdUpperRange": 6.0,
        "initialCD": 3.0,
        "publicCDGroup": "",
        "OHCPFFIDLGO": [
          "Golem_Legion_Common",
          "Golem_Legion_MeleeAtk"
        ],
        "skillGroupCDID": 1,
        "HHAGODJIAPE": "",
        "stateIDs": [
          "Attack011",
          "Attack03"
        ],
        "skillQueryingTime": 3.0,
        "flagTargetReachable": "11",
        "flagSelfOnTemplateCollider": "01",
        "flagSelfInZone": "11",
        "flagTargetInZone": "11"
      },
      "611": {
        "name": "Attack02",
        "combatSkillType": "RangedAttack",
        "castCondition": {
          "pose": [
            201
          ],
          "maxTargetAngleXZ": 120.0,
          "pickRangeMin": 9.0,
          "pickRangeMax": 40.0
        },
        "cd": 12.0,
        "cdUpperRange": 6.0,
        "publicCDGroup": "",
        "OHCPFFIDLGO": [
          "Golem_Legion_Common",
          "Golem_Legion_MeleeAtk"
        ],
        "HHAGODJIAPE": "",
        "stateIDs": [
          "Attack02_BS",
          "Attack02_Loop",
          "Attack02_AS"
        ],
        "skillQueryingTime": 3.0,
        "flagTargetReachable": "11",
        "flagSelfOnTemplateCollider": "01",
        "flagSelfInZone": "11",
        "flagTargetInZone": "11"
      },
      "612": {
        "name": "Attack02",
        "combatSkillType": "MeleeAttack",
        "castCondition": {
          "pose": [
            201
          ],
          "maxTargetAngleXZ": 75.0,
          "pickRangeMax": 6.5
        },
        "cd": 4.0,
        "cdUpperRange": 6.0,
        "initialCD": 3.0,
        "publicCDGroup": "",
        "OHCPFFIDLGO": [
          "Golem_Legion_MeleeAtk"
        ],
        "HHAGODJIAPE": "",
        "stateIDs": [
          "Attack02_Stay",
          "Attack02_Stay1"
        ],
        "skillQueryingTime": 3.0,
        "flagTargetReachable": "11",
        "flagSelfOnTemplateCollider": "01",
        "flagSelfInZone": "11",
        "flagTargetInZone": "11"
      },
      "621": {
        "name": "Attack03",
        "combatSkillType": "MeleeAttack",
        "castCondition": {
          "pose": [
            201
          ],
          "maxTargetAngleXZ": 90.0,
          "pickRangeMax": 7.5
        },
        "cd": 8.0,
        "cdUpperRange": 6.0,
        "initialCD": 3.0,
        "publicCDGroup": "",
        "OHCPFFIDLGO": [
          "Golem_Legion_Common",
          "Golem_Legion_MeleeAtk"
        ],
        "skillGroupCDID": 1,
        "HHAGODJIAPE": "",
        "stateIDs": [
          "Attack03"
        ],
        "skillQueryingTime": 3.0,
        "flagTargetReachable": "11",
        "flagSelfOnTemplateCollider": "01",
        "flagSelfInZone": "11",
        "flagTargetInZone": "11"
      },
      "631": {
        "name": "Attack04",
        "combatSkillType": "MeleeAttack",
        "castCondition": {
          "pose": [
            201
          ],
          "maxTargetAngleXZ": 60.0,
          "pickRangeMin": 7.0,
          "pickRangeMax": 25.0
        },
        "cd": 8.0,
        "cdUpperRange": 7.0,
        "publicCDGroup": "",
        "OHCPFFIDLGO": [
          "Golem_Legion_Common",
          "Golem_Legion_RangeAtk"
        ],
        "HHAGODJIAPE": "",
        "stateIDs": [
          "Attack04"
        ],
        "skillQueryingTime": 3.0,
        "flagTargetReachable": "11",
        "flagSelfOnTemplateCollider": "01",
        "flagSelfInZone": "11",
        "flagTargetInZone": "11"
      },
      "641": {
        "name": "Attack05",
        "combatSkillType": "MeleeAttack",
        "castCondition": {
          "pose": [
            201
          ],
          "maxTargetAngleXZ": 120.0,
          "pickRangeMin": 8.5,
          "pickRangeMax": 25.0
        },
        "cd": 20.0,
        "cdUpperRange": 7.0,
        "initialCD": 5.0,
        "initialCDUpperRange": 4.0,
        "publicCDGroup": "",
        "OHCPFFIDLGO": [
          "Golem_Legion_Common",
          "Golem_Legion_MagicField",
          "Golem_Legion_RangeAtk"
        ],
        "HHAGODJIAPE": "",
        "stateIDs": [
          "Attack05_BS",
          "Attack05_Loop",
          "Attack05_AS"
        ],
        "skillQueryingTime": 3.0,
        "flagTargetReachable": "11",
        "flagSelfOnTemplateCollider": "01",
        "flagSelfInZone": "11",
        "flagTargetInZone": "11"
      }
    },
    "skillGCD": 3.700000047683716,
    "birdCirclingTactic": [
      {
        "$type": "EPHBMLFODKF",
        "enable": true,
        "condition": {
          "pose": [
            201
          ]
        },
        "JMCOBEPDIGM": {
          "rangeMin": 3.0,
          "rangeMax": 8.0,
          "AFILKAGDAHN": 3.0,
          "ALIBHHJHHMN": 2.799999952316284,
          "BPOLBACNBMN": 0.30000001192092896,
          "BFJBDDIIFOI": {
            "LLICGJHIGME": 0.20000000298023224,
            "IDEFILBHNAP": 0.0,
            "IBLIPJPNOGC": 0.0,
            "AEBLMKFNCDG": 2.0,
            "IGLIBIOEGBB": 2.0
          },
          "NAOBMNGDKHL": "1111",
          "JCNIJOAIGII": "1111",
          "MNPDDAKDHGK": ""
        }
      },
      {
        "$type": "KACCHOLJDNK",
        "enable": true,
        "condition": {
          "pose": [
            201
          ]
        },
        "JMCOBEPDIGM": {
          "ANLAAGAMIKF": 1,
          "NBENNEKDIIA": 0.5,
          "KHDFDAAAPEI": 12.0,
          "HKJODDGJPHA": 50.0,
          "GGEBMFHFBPO": 3.0,
          "MNPDDAKDHGK": ""
        }
      },
      {
        "$type": "NNJKLGNPMNN",
        "enable": true,
        "JMCOBEPDIGM": {
          "ANLAAGAMIKF": 1,
          "NBENNEKDIIA": 1.0,
          "JFMIFLNBKMJ": 5.0,
          "DHGJDIPNDHH": 6.0,
          "MNPDDAKDHGK": "",
          "GJDMDHIBCME": ""
        }
      },
      {
        "$type": "FPELBIJFGCE",
        "enable": true,
        "condition": {
          "pose": [
            101
          ]
        },
        "JMCOBEPDIGM": {
          "NBENNEKDIIA": 1.0,
          "KPNDPKIOPJM": 4.0,
          "PINAFKEDDLL": 2.0,
          "ANMPOPEBDIA": 10.0,
          "GMJFIMFFOEL": 4.0,
          "CHCPFDMADEI": 8.0,
          "MNPDDAKDHGK": ""
        }
      }
    ]
  },
  "inputKeys": [
    {
      "keyID": 601,
      "inputKeyCode": 257,
      "abilityName": ""
    },
    {
      "keyID": 611,
      "inputKeyCode": 258,
      "abilityName": ""
    },
    {
      "keyID": 612,
      "inputKeyCode": 259,
      "abilityName": ""
    },
    {
      "keyID": 621,
      "inputKeyCode": 260,
      "abilityName": ""
    },
    {
      "keyID": 631,
      "inputKeyCode": 261,
      "abilityName": ""
    },
    {
      "keyID": 641,
      "inputKeyCode": 262,
      "abilityName": ""
    },
    {
      "keyID": 101,
      "inputKeyCode": 263,
      "abilityName": ""
    }
  ],
  "move": {
    "$type": "IPNMJMHDMPF",
    "velocityForce": {
      "excludeForces": [
        "RetreatAirType"
      ]
    },
    "handleCombatTaskImmediately": true,
    "facingMove": "FourDirection",
    "yawSpeedRatio": 0.44999998807907104,
    "PKHOMJHFAEE": "RootNode"
  }
}