{
  "common": {
    "effectAttachShape": {
      "$type": "FJNPJANPGGC",
      "mesh": "EffectMesh"
    },
    "mass": 30.0,
    "height": 0.699999988079071,
    "affectedByWorld": true,
    "checkInSurface": true,
    "scale": 2.0,
    "canTriggerElementReactionText": false,
    "useGrassDisplacement": true
  },
  "model": {
    "bornEffect": "",
    "attachEffect": "",
    "canBakeMesh": false,
    "BKPFGNPLDNJ": ""
  },
  "dither": {
    "showDitherDuration": 2.0
  },
  "combat": {
    "property": {
      "endureType": "Monster_Minion",
      "weight": 40.0,
      "isInvincible": true
    },
    "beHit": {
      "hitBloodEffect": "",
      "muteAllHitText": true
    },
    "combatLock": {
      "lockShape": "CircleLockEnemy",
      "lockType": "Animal_Lv2"
    },
    "die": {
      "fallWhenAirDie": false,
      "dieEndTime": 2.0,
      "dieForceDisappearTime": 10.0,
      "dieDisappearEffect": ""
    }
  },
  "abilities": [
    {
      "abilityID": "",
      "abilityName": "Animal_Pigeon_Beak_Signal_Controller",
      "abilityOverride": ""
    },
    {
      "abilityID": "",
      "abilityName": "Animal_Common_Initial",
      "abilityOverride": ""
    }
  ],
  "stateLayers": {
    "defaultLayer": {
      "$type": "GBGJJIIEMBD",
      "layerIndexName": "",
      "CPAANEIJCGD": "",
      "stateIDs": {
        "Born": {
          "$type": "NEDIFAKEGCO",
          "animatorStates": {
            "Born": [
              "Audio_Creature_Pigeon_Beak_WingFlap"
            ]
          },
          "resetAnimatorTriggerOnExit": [
            "DoSkill"
          ]
        },
        "NormalIdle": {
          "$type": "NEDIFAKEGCO",
          "animatorStates": {
            "Standby": [],
            "Standby_Aware": [],
            "Standby_Roof": []
          },
          "canDoSkill": true,
          "canSyncMove": true,
          "resetAnimatorTriggerOnExit": [
            "DoSkill"
          ]
        },
        "NormalMove": {
          "$type": "NEDIFAKEGCO",
          "animatorStates": {
            "Walk": [
              "Audio_Creature_Pigeon_Beak_Walk"
            ]
          },
          "canDoSkill": true,
          "canSyncMove": true,
          "resetAnimatorTriggerOnExit": [
            "DoSkill"
          ],
          "canSteer": true
        },
        "FlyDown": {
          "$type": "NEDIFAKEGCO",
          "animatorStates": {
            "FlyDown": [
              "Audio_Creature_Pigeon_Beak_Walk"
            ],
            "Land": [
              "Audio_Creature_Pigeon_Beak_Walk"
            ],
            "LandToGround": [
              "Animal_Pigeon_LandToGround",
              "Audio_Creature_Pigeon_Beak_LandToGround"
            ]
          },
          "canSyncMove": true,
          "resetAnimatorTriggerOnEnter": [
            "HitAir2HitDrop"
          ],
          "resetAnimatorTriggerOnExit": [
            "DoSkill"
          ],
          "canSteer": true
        },
        "FlyUp": {
          "$type": "NEDIFAKEGCO",
          "animatorStates": {
            "TakeOff": [
              "Animal_Pigeon_Beak_TakeOff",
              "Audio_Creature_Pigeon_Beak_TakeOff"
            ],
            "FlyUp": [
              "Audio_Creature_Pigeon_Beak_WingFlap"
            ],
            "Disappear": [
              "Audio_Creature_Pigeon_Beak_WingFlap"
            ]
          },
          "canSyncMove": true,
          "resetAnimatorTriggerOnExit": [
            "DoSkill"
          ],
          "canSteer": true
        },
        "BeHit": {
          "$type": "NEDIFAKEGCO",
          "animatorStates": {
            "Hit_L": [
              "Audio_Creature_Pigeon_Beak_LandToGround"
            ]
          },
          "resetAnimatorTriggerOnEnter": [
            "BeHit"
          ],
          "resetAnimatorTriggerOnExit": [
            "DoSkill"
          ]
        },
        "Die": {
          "$type": "NEDIFAKEGCO",
          "animatorStates": {
            "Die": [
              "Animal_Pigeon_Die"
            ],
            "Die_Disappear": [
              "Animal_Pigeon_Disappear"
            ]
          }
        },
        "Aware": {
          "$type": "NEDIFAKEGCO",
          "animatorStates": {
            "Aware": []
          },
          "canDoSkill": true,
          "resetAnimatorTriggerOnExit": [
            "BeHit",
            "DoSkill"
          ]
        },
        "Alert": {
          "$type": "NEDIFAKEGCO",
          "animatorStates": {
            "Alert": [
              "Audio_Creature_Pigeon_Beak_Alert"
            ]
          },
          "canDoSkill": true,
          "resetAnimatorTriggerOnExit": [
            "BeHit",
            "DoSkill"
          ]
        },
        "Groom": {
          "$type": "NEDIFAKEGCO",
          "animatorStates": {
            "Groom": [
              "Audio_Creature_Pigeon_Beak_Groom"
            ]
          },
          "canDoSkill": true,
          "resetAnimatorTriggerOnExit": [
            "BeHit",
            "DoSkill"
          ]
        },
        "Joy": {
          "$type": "NEDIFAKEGCO",
          "animatorStates": {
            "Joy": [
              "Audio_Creature_Pigeon_Beak_Joy"
            ]
          },
          "canDoSkill": true,
          "resetAnimatorTriggerOnExit": [
            "BeHit",
            "DoSkill"
          ]
        },
        "Signal_Ayus_5s": {
          "$type": "NEDIFAKEGCO",
          "animatorStates": {
            "Signal_Ayus_5s": []
          },
          "canDoSkill": true,
          "resetAnimatorTriggerOnEnter": [
            "SignalExit"
          ],
          "resetAnimatorTriggerOnExit": [
            "BeHit",
            "DoSkill",
            "StartSignal"
          ],
          "setAnimatorFloat": [
            {
              "name": "SignalType",
              "value": 1.0
            }
          ]
        },
        "Signal_Deshret_6_25s": {
          "$type": "NEDIFAKEGCO",
          "animatorStates": {
            "Signal_Deshret_6_25s": []
          },
          "canDoSkill": true,
          "resetAnimatorTriggerOnEnter": [
            "SignalExit"
          ],
          "resetAnimatorTriggerOnExit": [
            "BeHit",
            "DoSkill",
            "StartSignal"
          ],
          "setAnimatorFloat": [
            {
              "name": "SignalType",
              "value": 2.0
            }
          ]
        },
        "Signal_Sarva_5_5s": {
          "$type": "NEDIFAKEGCO",
          "animatorStates": {
            "Signal_Sarva_5_5s": []
          },
          "canDoSkill": true,
          "resetAnimatorTriggerOnEnter": [
            "SignalExit"
          ],
          "resetAnimatorTriggerOnExit": [
            "BeHit",
            "DoSkill",
            "StartSignal"
          ],
          "setAnimatorFloat": [
            {
              "name": "SignalType",
              "value": 3.0
            }
          ]
        },
        "Signal_Dawon_6_25s": {
          "$type": "NEDIFAKEGCO",
          "animatorStates": {
            "Signal_Dawon_6_25s": []
          },
          "canDoSkill": true,
          "resetAnimatorTriggerOnEnter": [
            "SignalExit"
          ],
          "resetAnimatorTriggerOnExit": [
            "BeHit",
            "DoSkill",
            "StartSignal"
          ],
          "setAnimatorFloat": [
            {
              "name": "SignalType",
              "value": 4.0
            }
          ]
        },
        "Signal_miHoYo_8_5s": {
          "$type": "NEDIFAKEGCO",
          "animatorStates": {
            "Signal_miHoYo_8_5s": []
          },
          "canDoSkill": true,
          "resetAnimatorTriggerOnEnter": [
            "SignalExit"
          ],
          "resetAnimatorTriggerOnExit": [
            "BeHit",
            "DoSkill",
            "StartSignal"
          ],
          "setAnimatorFloat": [
            {
              "name": "SignalType",
              "value": 5.0
            }
          ]
        }
      }
    }
  },
  "initialPoses": {
    "Default": {
      "initialPoseParams": {
        "intParams": {
          "InitialMark": "0"
        }
      }
    },
    "NoMoving": {
      "initialPoseID": 3,
      "initialPoseParams": {
        "intParams": {
          "InitialMark": "3"
        }
      }
    },
    "FlyIn": {
      "initialPoseID": 901,
      "initialPoseParams": {
        "intParams": {
          "InitialMark": "901"
        }
      }
    }
  },
  "aibeta": {
    "enable": true,
    "friendliness": 1,
    "decisionArchetype": "Animal_Homeworld",
    "moveSetting": {
      "useNavMesh": false,
      "navMeshAgentName": "Undead01"
    },
    "sensing": {
      "settings": {
        "DefaultSetting": {
          "enableVision": false,
          "feelRange": 0.0
        }
      }
    },
    "neurons": {
      "DefaultSetting": [
        "HIT"
      ],
      "NoWeatherBad": [
        "HIT"
      ]
    },
    "threat": {
      "GHIJMOKOLMB": "",
      "viewThreatGrow": 50.0,
      "feelThreatGrow": 200.0,
      "threatDecreaseSpeed": 70.0,
      "threatBroadcastRange": 0.0,
      "viewAttenuation": [
        {
          "x": 10.0,
          "y": 1.0
        },
        {
          "x": 20.0,
          "y": 0.10000000149011612
        }
      ]
    },
    "defendArea": {
      "defendRange": 100.0
    },
    "fly": {
      "enable": true,
      "floatingPoses": [
        901,
        903
      ]
    },
    "poseControl": {
      "items": [
        {
          "minTime": 7.0,
          "maxTime": 14.0,
          "poseID": 2,
          "randomPose": [
            1
          ],
          "switchOnlyInCanDoSkillState": true
        },
        {
          "minTime": 4.0,
          "maxTime": 8.0,
          "poseID": 1,
          "randomPose": [
            2
          ],
          "switchOnlyInCanDoSkillState": true
        }
      ]
    },
    "ui": {
      "hasDirectionIndicator": false,
      "HMNNBFDEHLG": ""
    },
    "profiling": {},
    "skillGroupCDConfigs": [
      {
        "skillGroupCDID": 1,
        "skillGroupCDTime": 25.0
      }
    ],
    "skills": {
      "1": {
        "name": "OnAware",
        "skillType": "OnAware",
        "publicCDGroup": "",
        "triggerGCD": false,
        "HHAGODJIAPE": "",
        "stateIDs": [
          "Aware"
        ],
        "skillQueryingTime": 3.0,
        "flagTargetReachable": "10",
        "flagSelfOnTemplateCollider": "01",
        "flagSelfInZone": "10",
        "flagTargetInZone": "11"
      },
      "2": {
        "name": "OnAlert",
        "skillType": "OnAlert",
        "publicCDGroup": "",
        "triggerGCD": false,
        "HHAGODJIAPE": "",
        "stateIDs": [
          "Alert"
        ],
        "skillQueryingTime": 3.0,
        "flagTargetReachable": "10",
        "flagSelfOnTemplateCollider": "01",
        "flagSelfInZone": "10",
        "flagTargetInZone": "11"
      },
      "301": {
        "name": "Groom",
        "skillType": "Free",
        "priority": 2,
        "castCondition": {
          "pose": [
            2
          ]
        },
        "cd": 2.0,
        "cdUpperRange": 7.0,
        "initialCD": 3.0,
        "initialCDUpperRange": 4.0,
        "publicCDGroup": "",
        "HHAGODJIAPE": "",
        "stateIDs": [
          "Groom"
        ],
        "flagTargetReachable": "10",
        "flagSelfOnTemplateCollider": "01",
        "flagSelfInZone": "10",
        "flagTargetInZone": "11"
      },
      "302": {
        "name": "Joy",
        "skillType": "Free",
        "priority": 2,
        "castCondition": {
          "pose": [
            2
          ]
        },
        "cd": 2.0,
        "cdUpperRange": 7.0,
        "initialCD": 5.0,
        "initialCDUpperRange": 4.0,
        "publicCDGroup": "",
        "HHAGODJIAPE": "",
        "stateIDs": [
          "Joy"
        ],
        "flagTargetReachable": "10",
        "flagSelfOnTemplateCollider": "01",
        "flagSelfInZone": "10",
        "flagTargetInZone": "11"
      },
      "901": {
        "name": "Signal_Ayus_5s",
        "skillType": "Free",
        "priority": 1,
        "castCondition": {
          "pose": [
            2
          ]
        },
        "cd": 11.0,
        "cdUpperRange": 5.0,
        "initialCD": 7.0,
        "initialCDUpperRange": 4.0,
        "publicCDGroup": "",
        "skillGroupCDID": 1,
        "HHAGODJIAPE": "",
        "stateIDs": [
          "Signal_Ayus_5s"
        ],
        "flagTargetReachable": "10",
        "flagSelfOnTemplateCollider": "01",
        "flagSelfInZone": "10",
        "flagTargetInZone": "11"
      },
      "902": {
        "name": "Signal_Deshret_6_25s",
        "skillType": "Free",
        "priority": 1,
        "castCondition": {
          "pose": [
            2
          ]
        },
        "cd": 11.0,
        "cdUpperRange": 5.0,
        "initialCD": 7.0,
        "initialCDUpperRange": 4.0,
        "publicCDGroup": "",
        "skillGroupCDID": 1,
        "HHAGODJIAPE": "",
        "stateIDs": [
          "Signal_Deshret_6_25s"
        ],
        "flagTargetReachable": "10",
        "flagSelfOnTemplateCollider": "01",
        "flagSelfInZone": "10",
        "flagTargetInZone": "11"
      },
      "903": {
        "name": "Signal_Sarva_5_5s",
        "skillType": "Free",
        "priority": 1,
        "castCondition": {
          "pose": [
            2
          ]
        },
        "cd": 11.0,
        "cdUpperRange": 5.0,
        "initialCD": 7.0,
        "initialCDUpperRange": 4.0,
        "publicCDGroup": "",
        "skillGroupCDID": 1,
        "HHAGODJIAPE": "",
        "stateIDs": [
          "Signal_Sarva_5_5s"
        ],
        "flagTargetReachable": "10",
        "flagSelfOnTemplateCollider": "01",
        "flagSelfInZone": "10",
        "flagTargetInZone": "11"
      },
      "904": {
        "name": "Signal_Dawon_6_25s",
        "skillType": "Free",
        "priority": 1,
        "castCondition": {
          "pose": [
            2
          ]
        },
        "cd": 11.0,
        "cdUpperRange": 5.0,
        "initialCD": 7.0,
        "initialCDUpperRange": 4.0,
        "publicCDGroup": "",
        "skillGroupCDID": 1,
        "HHAGODJIAPE": "",
        "stateIDs": [
          "Signal_Dawon_6_25s"
        ],
        "flagTargetReachable": "10",
        "flagSelfOnTemplateCollider": "01",
        "flagSelfInZone": "10",
        "flagTargetInZone": "11"
      },
      "905": {
        "name": "Signal_miHoYo_8_5s",
        "skillType": "Free",
        "priority": 1,
        "castCondition": {
          "pose": [
            2
          ]
        },
        "cd": 11.0,
        "cdUpperRange": 5.0,
        "initialCD": 7.0,
        "initialCDUpperRange": 4.0,
        "publicCDGroup": "",
        "skillGroupCDID": 1,
        "HHAGODJIAPE": "",
        "stateIDs": [
          "Signal_miHoYo_8_5s"
        ],
        "flagTargetReachable": "10",
        "flagSelfOnTemplateCollider": "01",
        "flagSelfInZone": "10",
        "flagTargetInZone": "11"
      }
    },
    "skillGCD": 2.5,
    "birdCirclingTactic": [
      {
        "$type": "HBNEBJIHBEG",
        "enable": true,
        "condition": {
          "pose": [
            1,
            2,
            3,
            903
          ]
        },
        "nerveTrigger": [
          "HIT"
        ],
        "JMCOBEPDIGM": {
          "IBMJMMNEMAG": 45.0,
          "FEOGFBAEEEE": 30.0,
          "triggerDistance": 0.0,
          "IAADAJPFDJO": 3.0,
          "AABFGDLGLPG": ""
        }
      },
      {
        "$type": "DFDPBGOAMPF",
        "enable": true,
        "condition": {
          "pose": [
            901
          ]
        },
        "JMCOBEPDIGM": {
          "ANLAAGAMIKF": 2,
          "CELKDKBKALL": 40.0,
          "NEICCFBCBDG": 40.0,
          "OBJCDOLIFJE": 4.75
        }
      },
      {
        "$type": "FPELBIJFGCE",
        "enable": true,
        "condition": {
          "pose": [
            1
          ]
        },
        "JMCOBEPDIGM": {
          "NBENNEKDIIA": 0.25,
          "ANMPOPEBDIA": 5.0,
          "CHCPFDMADEI": 3.0,
          "MNPDDAKDHGK": ""
        }
      }
    ]
  },
  "audio": {
    "overrideEmitterName": "",
    "animAudio": {
      "onTransitionIn": [
        {
          "currentStateName": "",
          "audioEvent": {
            "text": ""
          }
        }
      ],
      "onTransitionOut": [
        {
          "currentStateName": "Joy",
          "audioEvent": {
            "text": "Stop_sfx_creature_Pigeon_Beak_joy"
          }
        },
        {
          "currentStateName": "Groom",
          "audioEvent": {
            "text": "Stop_sfx_creature_Pigeon_Beak_groom"
          }
        }
      ]
    }
  },
  "animal": {
    "tickAbilityElement": false,
    "hasCharacterRenderering": false
  },
  "captureGroup": {
    "defaultConfig": {
      "captureEffect": "Eff_SceneObj_CatchAnimal_CaughtSuccess"
    }
  }
}