{
  "common": {
    "effectAttachShape": {
      "$type": "FJNPJANPGGC",
      "mesh": "EffectMesh"
    },
    "mass": 10000.0,
    "height": 2.0,
    "modelHeight": 2.700000047683716,
    "viewSize": 2.0,
    "affectedByWorld": true,
    "checkInSurface": true,
    "scale": 0.699999988079071,
    "shouldPauseAnimatorBeforeReady": true,
    "useGrassDisplacement": true,
    "clearAIOnSetLightDeactive": true,
    "reconnectSupport": true,
    "recoverByInitPose": true
  },
  "model": {
    "bornEffect": "",
    "attachEffect": "",
    "canBakeMesh": false,
    "BKPFGNPLDNJ": ""
  },
  "dither": {
    "showDitherDuration": 2.0
  },
  "combat": {
    "property": {
      "endureType": "Monster_Demiboss_Other",
      "weight": 101.0
    },
    "beHit": {
      "hitBloodEffect": ""
    },
    "combatLock": {
      "lockShape": "CircleLockEnemy",
      "lockType": "Avatar&Monster_Lv4"
    },
    "die": {
      "hasAnimatorDie": true,
      "dieEndTime": 2.0,
      "dieForceDisappearTime": 2.0,
      "dieDisappearEffect": "",
      "muteHitBox": true,
      "dieDenyLockOn": true,
      "dieIsGhostToEnemy": true,
      "muteBillboard": true,
      "mutePushCollider": true
    },
    "animEvents": {
      "MeleeAtk": {
        "attackPattern": {
          "$type": "JHKEHNJBMOF",
          "triggerType": "TriggerNoRepeat",
          "ignoreMassive": true,
          "born": {
            "$type": "IAENDIPDFKD",
            "offset": {
              "KGEPIMHBMOL": 0.0,
              "JEBHCGDPFEJ": 1.5,
              "LPCHALMFFOD": 0.5
            }
          },
          "size": {
            "KGEPIMHBMOL": 2.0,
            "JEBHCGDPFEJ": 2.5,
            "LPCHALMFFOD": 3.5
          }
        },
        "attackInfo": {
          "attackTag": "",
          "attenuationTag": "",
          "attenuationGroup": "default",
          "attackProperty": {
            "actorGrassSubHurtDelta": 0.699999988079071,
            "actorWindSubHurtDelta": 0.0,
            "IPFJJJGABPL": 50.0,
            "strikeType": "Slash",
            "enBreak": 50.0,
            "attackType": "Melee",
            "GLKMCMDJBIK": 0.0
          },
          "hitPattern": {
            "onHitEffectName": "default",
            "hitImpulseY": "",
            "hitImpulseType": "LV4",
            "canBeDefenceHalt": true
          }
        }
      },
      "MeleeAtkThunder": {
        "attackPattern": {
          "$type": "JHKEHNJBMOF",
          "triggerType": "TriggerNoRepeat",
          "ignoreMassive": true,
          "born": {
            "$type": "IAENDIPDFKD",
            "offset": {
              "KGEPIMHBMOL": 0.0,
              "JEBHCGDPFEJ": 1.5,
              "LPCHALMFFOD": 0.5
            }
          },
          "size": {
            "KGEPIMHBMOL": 2.0,
            "JEBHCGDPFEJ": 2.5,
            "LPCHALMFFOD": 4.0
          }
        },
        "attackInfo": {
          "attackTag": "Monster_Samurai_Kairagi_ThunderHit",
          "attenuationTag": "",
          "attenuationGroup": "default",
          "attackProperty": {
            "actorGrassSubHurtDelta": 0.699999988079071,
            "actorWindSubHurtDelta": 0.0,
            "elementType": "Electric",
            "IPFJJJGABPL": 50.0,
            "strikeType": "Slash",
            "enBreak": 50.0,
            "attackType": "Melee",
            "GLKMCMDJBIK": 0.0
          },
          "hitPattern": {
            "onHitEffectName": "default",
            "hitImpulseY": "",
            "hitImpulseType": "LV4",
            "canBeDefenceHalt": true
          }
        }
      }
    }
  },
  "equipController": {
    "sheathPoint": "",
    "attachPoints": {
      "equip01": "",
      "equip02": ""
    }
  },
  "abilities": [
    {
      "abilityID": "",
      "abilityName": "Monster_Monolith_Ordinator_HideSelf",
      "abilityOverride": ""
    },
    {
      "abilityID": "",
      "abilityName": "Monster_Monolith_Ordinator_PartController",
      "abilityOverride": ""
    },
    {
      "abilityID": "",
      "abilityName": "Monster_Monolith_Ordinator_ReleaseDrone",
      "abilityOverride": ""
    },
    {
      "abilityID": "",
      "abilityName": "Monster_Monolith_Ordinator_ResetPart",
      "abilityOverride": ""
    },
    {
      "abilityID": "",
      "abilityName": "Monster_Monolith_Ordinator_ClearPart",
      "abilityOverride": ""
    },
    {
      "abilityID": "",
      "abilityName": "Monster_Monolith_Ordinator_Weak",
      "abilityOverride": ""
    },
    {
      "abilityID": "",
      "abilityName": "Monster_Monolith_Ordinator_Initial",
      "abilityOverride": ""
    },
    {
      "abilityID": "",
      "abilityName": "Monster_Monolith_Ordinator_PartCharge",
      "abilityOverride": ""
    },
    {
      "abilityID": "",
      "abilityName": "Monster_Monolith_Ordinator_Steer",
      "abilityOverride": ""
    },
    {
      "abilityID": "",
      "abilityName": "Monster_Monolith_Ordinator_Communicate",
      "abilityOverride": ""
    },
    {
      "abilityID": "",
      "abilityName": "Monster_Monolith_Ordinator_LaserAttack",
      "abilityOverride": ""
    }
  ],
  "stateLayers": {
    "defaultLayer": {
      "$type": "GBGJJIIEMBD",
      "layerIndexName": "",
      "CPAANEIJCGD": "",
      "stateIDs": {
        "Born": {
          "$type": "NEDIFAKEGCO",
          "animatorStates": {
            "Born": []
          },
          "canSyncMove": true,
          "resetAnimatorTriggerOnExit": [
            "DoSkill"
          ]
        },
        "NormalIdle": {
          "$type": "NEDIFAKEGCO",
          "animatorStates": {
            "Standby": []
          },
          "canDoSkill": true,
          "canSyncMove": true,
          "resetAnimatorTriggerOnExit": [
            "DoSkill"
          ]
        },
        "StandbyFree": {
          "$type": "NEDIFAKEGCO",
          "animatorStates": {
            "StandbyFree": []
          },
          "canDoSkill": true,
          "canSyncMove": true,
          "resetAnimatorTriggerOnExit": [
            "DoSkill"
          ]
        },
        "WalkFree": {
          "$type": "NEDIFAKEGCO",
          "animatorStates": {
            "WalkFree": []
          },
          "canDoSkill": true,
          "canSyncMove": true,
          "resetAnimatorTriggerOnExit": [
            "DoSkill"
          ],
          "canSteer": true
        },
        "NormalMove": {
          "$type": "NEDIFAKEGCO",
          "animatorStates": {
            "WalkForward": []
          },
          "canDoSkill": true,
          "canSyncMove": true,
          "resetAnimatorTriggerOnExit": [
            "DoSkill"
          ],
          "canSteer": true
        },
        "TurnLeft": {
          "$type": "NEDIFAKEGCO",
          "animatorStates": {
            "TurnLeft": [
              "Audio_Monster_Monolith_Ordinator_Turn"
            ]
          },
          "canDoSkill": true,
          "canSyncMove": true,
          "resetAnimatorTriggerOnExit": [
            "DoSkill"
          ],
          "canSteer": true
        },
        "TurnRight": {
          "$type": "NEDIFAKEGCO",
          "animatorStates": {
            "TurnRight": [
              "Audio_Monster_Monolith_Ordinator_Turn"
            ]
          },
          "canDoSkill": true,
          "canSyncMove": true,
          "resetAnimatorTriggerOnExit": [
            "DoSkill"
          ],
          "canSteer": true
        },
        "Die": {
          "$type": "NEDIFAKEGCO",
          "animatorStates": {
            "Die": [
              "Monster_Monolith_Ordinator_Die",
              "Audio_Monster_Monolith_Ordinator_Die"
            ]
          }
        },
        "Alert": {
          "$type": "NEDIFAKEGCO",
          "animatorStates": {
            "Alert": [
              "Audio_Monster_Monolith_Ordinator_Alert"
            ]
          },
          "resetAnimatorTriggerOnExit": [
            "BeHit",
            "DoSkill"
          ],
          "canSteer": true
        },
        "PowerOff": {
          "$type": "NEDIFAKEGCO",
          "animatorStates": {
            "PowerOff": []
          },
          "canDoSkill": true,
          "canSyncMove": true,
          "resetAnimatorTriggerOnExit": [
            "DoSkill"
          ]
        },
        "PowerOffAlert": {
          "$type": "NEDIFAKEGCO",
          "animatorStates": {
            "PowerOffAlert": [
              "Audio_Monster_Monolith_Ordinator_PowerOffAlert"
            ]
          },
          "resetAnimatorTriggerOnExit": [
            "BeHit",
            "DoSkill"
          ],
          "canSteer": true
        },
        "LaserAtk": {
          "$type": "NEDIFAKEGCO",
          "animatorStates": {
            "NormalAtk": [
              "Monster_Monolith_Ordinator_LaserAttack",
              "Audio_Monster_Monolith_Ordinator_Drone_NormalAtk"
            ]
          },
          "resetAnimatorTriggerOnExit": [
            "BeHit",
            "DoSkill"
          ],
          "canSteer": true
        },
        "Seperate": {
          "$type": "NEDIFAKEGCO",
          "animatorStates": {
            "Seperate": [
              "Monster_Monolith_Ordinator_ReleaseDrone"
            ]
          },
          "resetAnimatorTriggerOnExit": [
            "BeHit",
            "DoSkill"
          ],
          "canSteer": true
        },
        "Weak_BS": {
          "$type": "NEDIFAKEGCO",
          "animatorStates": {
            "Weak_BS": [
              "Audio_Monster_Monolith_Ordinator_Weak_BS"
            ]
          },
          "resetAnimatorTriggerOnExit": [
            "BeHit",
            "DoSkill"
          ]
        },
        "Weak_Loop": {
          "$type": "NEDIFAKEGCO",
          "animatorStates": {
            "Weak_Loop": []
          },
          "resetAnimatorTriggerOnExit": [
            "BeHit",
            "DoSkill"
          ]
        },
        "Weak_AS": {
          "$type": "NEDIFAKEGCO",
          "animatorStates": {
            "Weak_AS": [
              "Audio_Monster_Monolith_Ordinator_Weak_AS"
            ]
          },
          "resetAnimatorTriggerOnExit": [
            "BeHit",
            "DoSkill"
          ]
        },
        "RandomShow1": {
          "$type": "NEDIFAKEGCO",
          "animatorStates": {
            "RandomShow1": [
              "Audio_Monster_Monolith_Ordinator_Drone_RandomShow1"
            ]
          },
          "resetAnimatorTriggerOnExit": [
            "BeHit",
            "DoSkill"
          ],
          "canSteer": true
        },
        "RandomShow2": {
          "$type": "NEDIFAKEGCO",
          "animatorStates": {
            "RandomShow2": [
              "Audio_Monster_Monolith_Ordinator_Drone_RandomShow2"
            ]
          },
          "resetAnimatorTriggerOnExit": [
            "BeHit",
            "DoSkill"
          ],
          "canSteer": true
        },
        "Communicate": {
          "$type": "NEDIFAKEGCO",
          "animatorStates": {
            "Communicate": [
              "Audio_Monster_Monolith_Ordinator_Communicate"
            ]
          },
          "resetAnimatorTriggerOnExit": [
            "BeHit",
            "DoSkill"
          ],
          "canSteer": true
        },
        "Test1": {
          "$type": "NEDIFAKEGCO",
          "animatorStates": {
            "Test1": []
          },
          "resetAnimatorTriggerOnExit": [
            "BeHit",
            "DoSkill"
          ],
          "canSteer": true
        },
        "Test2": {
          "$type": "NEDIFAKEGCO",
          "animatorStates": {
            "Test2": []
          },
          "resetAnimatorTriggerOnExit": [
            "BeHit",
            "DoSkill"
          ],
          "canSteer": true
        },
        "Charge": {
          "$type": "NEDIFAKEGCO",
          "animatorStates": {
            "Charge_BS": [
              "Audio_Monster_Monolith_Ordinator_Charge_BS"
            ],
            "Charge_Loop": [],
            "Charge_AS": [
              "Audio_Monster_Monolith_Ordinator_Charge_AS"
            ]
          },
          "resetAnimatorTriggerOnExit": [
            "BeHit",
            "DoSkill"
          ]
        },
        "Reset": {
          "$type": "NEDIFAKEGCO",
          "animatorStates": {
            "Reset": []
          },
          "resetAnimatorTriggerOnExit": [
            "BeHit",
            "DoSkill"
          ],
          "canSteer": true
        }
      }
    }
  },
  "billboard": {
    "$type": "DNGNMAJBCNP",
    "attachPoint": "BillboardAttach",
    "offsetType": "Character",
    "showHPBar": true,
    "forceShowDistance": 50.0,
    "size": "Big"
  },
  "initialPoses": {
    "Default": {
      "initialPoseID": 1
    },
    "Communicate": {
      "initialPoseID": 1001,
      "initialPoseParams": {
        "boolParams": {
          "Communicate": "true"
        }
      }
    },
    "UseEnergy": {
      "initialPoseID": 1002,
      "initialPoseParams": {
        "boolParams": {
          "UseEnergy": "true"
        }
      }
    },
    "Scan": {
      "initialPoseID": 1003,
      "initialPoseParams": {
        "boolParams": {
          "Scan": "true"
        }
      }
    },
    "PowerOff": {
      "initialPoseID": 1004,
      "initialPoseParams": {
        "boolParams": {
          "PowerOff": "true"
        }
      }
    }
  },
  "aibeta": {
    "enable": true,
    "sensing": {
      "settings": {
        "DefaultSetting": {
          "viewRange": 25.0,
          "feelRange": 10.0
        },
        "NeverCombat": {
          "enableVision": false,
          "hearAttractionRange": 0.0,
          "feelRange": 0.0
        },
        "LowAlert": {
          "viewRange": 10.0
        },
        "SPAlert1": {
          "viewRange": 15.0,
          "verticalFov": 30.0
        }
      },
      "templates": {
        "DefaultTemplate": {
          "DefaultPoses": "DefaultSetting",
          "1001": "DefaultSetting",
          "1002": "LowAlert",
          "1003": "DefaultSetting"
        },
        "NeverCombatTemplate": {
          "DefaultPoses": "NeverCombat"
        },
        "PowerOff": {
          "DefaultPoses": "DefaultSetting",
          "1004": "NeverCombat"
        },
        "SPAlert1": {
          "DefaultPoses": "SPAlert1"
        }
      }
    },
    "neurons": {
      "DefaultSetting": [
        "HIT"
      ],
      "NeverCombat": []
    },
    "threat": {
      "GHIJMOKOLMB": "",
      "clearThreatByLostPath": true,
      "clearThreatByTargetOutOfZone": true,
      "clearThreatTimerByLostPath": 11.0,
      "clearThreatTimerByTargetOutOfZone": 4.0,
      "viewAttenuation": [
        {
          "x": 10.0,
          "y": 2.0
        },
        {
          "x": 15.0,
          "y": 0.800000011920929
        },
        {
          "x": 20.0,
          "y": 0.5
        },
        {
          "x": 25.0,
          "y": 0.30000001192092896
        },
        {
          "x": 30.0,
          "y": 0.20000000298023224
        }
      ],
      "resistTauntLevel": "Monster_TauntLevel_2"
    },
    "defendArea": {
      "defendRange": 50.0
    },
    "network": {
      "syncSkill": true
    },
    "skillGroupCDConfigs": [
      {
        "skillGroupCDID": 0,
        "skillGroupCDTime": 5.0
      },
      {
        "skillGroupCDID": 1,
        "skillGroupCDTime": 10.0
      },
      {
        "skillGroupCDID": 2,
        "skillGroupCDTime": 15.0
      }
    ],
    "skillSetting": {
      "skillEliteSet": {
        "1": [
          101,
          102
        ],
        "2": [
          101
        ],
        "3": [
          2
        ]
      }
    },
    "skills": {
      "1": {
        "name": "OnAlert",
        "skillType": "OnAlert",
        "faceTarget": true,
        "castCondition": {
          "pose": [
            0,
            1,
            1001,
            1002,
            1003
          ]
        },
        "publicCDGroup": "",
        "ignoreGCD": true,
        "triggerGCD": false,
        "HHAGODJIAPE": "",
        "stateIDs": [
          "Alert"
        ],
        "skillQueryingTime": 3.0,
        "flagTargetReachable": "10",
        "flagSelfOnTemplateCollider": "01",
        "flagSelfInZone": "10",
        "flagTargetInZone": "11"
      },
      "2": {
        "name": "OnAlert",
        "skillType": "OnAlert",
        "faceTarget": true,
        "publicCDGroup": "",
        "ignoreGCD": true,
        "triggerGCD": false,
        "HHAGODJIAPE": "",
        "stateIDs": [
          "Alert"
        ],
        "skillQueryingTime": 3.0,
        "flagTargetReachable": "10",
        "flagSelfOnTemplateCollider": "01",
        "flagSelfInZone": "10",
        "flagTargetInZone": "11"
      },
      "3": {
        "name": "OnAlert",
        "skillType": "OnAlert",
        "faceTarget": true,
        "castCondition": {
          "pose": [
            1004
          ]
        },
        "publicCDGroup": "",
        "ignoreGCD": true,
        "triggerGCD": false,
        "HHAGODJIAPE": "",
        "stateIDs": [
          "Alert"
        ],
        "skillQueryingTime": 3.0,
        "flagTargetReachable": "10",
        "flagSelfOnTemplateCollider": "01",
        "flagSelfInZone": "10",
        "flagTargetInZone": "11"
      },
      "9001": {
        "name": "UseEnergy",
        "skillType": "Free",
        "faceTarget": true,
        "castCondition": {
          "pose": [
            1002
          ]
        },
        "cd": 10.0,
        "cdUpperRange": 5.0,
        "initialCD": 5.0,
        "publicCDGroup": "",
        "ignoreGCD": true,
        "triggerGCD": false,
        "HHAGODJIAPE": "",
        "stateIDs": [
          "RandomShow1"
        ],
        "skillQueryingTime": 3.0,
        "flagTargetReachable": "10",
        "flagSelfOnTemplateCollider": "01",
        "flagSelfInZone": "10",
        "flagTargetInZone": "11"
      },
      "9002": {
        "name": "Show2",
        "skillType": "Free",
        "faceTarget": true,
        "castCondition": {
          "pose": [
            1003
          ]
        },
        "cd": 10.0,
        "cdUpperRange": 5.0,
        "initialCD": 5.0,
        "publicCDGroup": "",
        "ignoreGCD": true,
        "triggerGCD": false,
        "HHAGODJIAPE": "",
        "stateIDs": [
          "RandomShow2"
        ],
        "skillQueryingTime": 3.0,
        "flagTargetReachable": "10",
        "flagSelfOnTemplateCollider": "01",
        "flagSelfInZone": "10",
        "flagTargetInZone": "11"
      },
      "9003": {
        "name": "Communicate",
        "skillType": "Free",
        "faceTarget": true,
        "castCondition": {
          "pose": [
            1001
          ]
        },
        "cd": 10.0,
        "cdUpperRange": 5.0,
        "initialCD": 5.0,
        "publicCDGroup": "",
        "ignoreGCD": true,
        "triggerGCD": false,
        "HHAGODJIAPE": "",
        "stateIDs": [
          "Communicate"
        ],
        "skillQueryingTime": 3.0,
        "flagTargetReachable": "10",
        "flagSelfOnTemplateCollider": "01",
        "flagSelfInZone": "10",
        "flagTargetInZone": "11"
      },
      "101": {
        "name": "LaserAtk",
        "priority": 1,
        "enableSkillPrepare": true,
        "skillPrepareTimeout": 2.0,
        "skillPrepareSpeedLevel": 1,
        "castCondition": {
          "pose": [
            101
          ],
          "needReInitCD": true,
          "pickRangeMax": 20.0,
          "castRangeMax": 7.0
        },
        "cd": 2.0,
        "cdUpperRange": 3.0,
        "initialCD": 1.0,
        "initialCDUpperRange": 2.0,
        "publicCDGroup": "",
        "triggerGCD": false,
        "HHAGODJIAPE": "",
        "stateIDs": [
          "LaserAtk"
        ],
        "skillQueryingTime": 3.0,
        "flagTargetReachable": "11",
        "flagSelfOnTemplateCollider": "01",
        "flagSelfInZone": "11",
        "flagTargetInZone": "11"
      },
      "102": {
        "name": "Seperate",
        "priority": 2,
        "castCondition": {
          "pose": [
            101
          ],
          "needReInitCD": true
        },
        "cd": 10.0,
        "initialCD": 15.0,
        "initialCDUpperRange": 5.0,
        "publicCDGroup": "",
        "ignoreGCD": true,
        "HHAGODJIAPE": "",
        "stateIDs": [
          "Seperate"
        ],
        "skillQueryingTime": 3.0,
        "flagTargetReachable": "11",
        "flagSelfOnTemplateCollider": "01",
        "flagSelfInZone": "11",
        "flagTargetInZone": "11"
      },
      "10000": {
        "name": "OnAlert",
        "faceTarget": true,
        "castCondition": {
          "pose": [
            999
          ]
        },
        "cd": 10.0,
        "publicCDGroup": "",
        "ignoreGCD": true,
        "triggerGCD": false,
        "HHAGODJIAPE": "",
        "stateIDs": [
          "Weak_BS",
          "Weak_Loop",
          "Weak_AS"
        ],
        "skillQueryingTime": 3.0,
        "flagTargetReachable": "10",
        "flagSelfOnTemplateCollider": "01",
        "flagSelfInZone": "10",
        "flagTargetInZone": "11"
      },
      "10001": {
        "name": "OnAlert",
        "faceTarget": true,
        "castCondition": {
          "pose": [
            999
          ]
        },
        "cd": 10.0,
        "publicCDGroup": "",
        "ignoreGCD": true,
        "triggerGCD": false,
        "HHAGODJIAPE": "",
        "stateIDs": [
          "Test1"
        ],
        "skillQueryingTime": 3.0,
        "flagTargetReachable": "10",
        "flagSelfOnTemplateCollider": "01",
        "flagSelfInZone": "10",
        "flagTargetInZone": "11"
      },
      "10002": {
        "name": "OnAlert",
        "faceTarget": true,
        "castCondition": {
          "pose": [
            999
          ]
        },
        "cd": 10.0,
        "publicCDGroup": "",
        "ignoreGCD": true,
        "triggerGCD": false,
        "HHAGODJIAPE": "",
        "stateIDs": [
          "Test2"
        ],
        "skillQueryingTime": 3.0,
        "flagTargetReachable": "10",
        "flagSelfOnTemplateCollider": "01",
        "flagSelfInZone": "10",
        "flagTargetInZone": "11"
      },
      "10003": {
        "name": "OnAlert",
        "faceTarget": true,
        "castCondition": {
          "pose": [
            999
          ]
        },
        "cd": 10.0,
        "publicCDGroup": "",
        "ignoreGCD": true,
        "triggerGCD": false,
        "HHAGODJIAPE": "",
        "stateIDs": [
          "Charge"
        ],
        "skillQueryingTime": 3.0,
        "flagTargetReachable": "10",
        "flagSelfOnTemplateCollider": "01",
        "flagSelfInZone": "10",
        "flagTargetInZone": "11"
      },
      "9999": {
        "name": "Reset",
        "faceTarget": true,
        "castCondition": {
          "pose": [
            999
          ]
        },
        "cd": 10.0,
        "publicCDGroup": "",
        "ignoreGCD": true,
        "triggerGCD": false,
        "HHAGODJIAPE": "",
        "stateIDs": [
          "Reset"
        ],
        "skillQueryingTime": 3.0,
        "flagTargetReachable": "10",
        "flagSelfOnTemplateCollider": "01",
        "flagSelfInZone": "10",
        "flagTargetInZone": "11"
      }
    },
    "skillGCD": 3.0,
    "birdCirclingTactic": [
      {
        "$type": "JAFNBBGAPPO",
        "enable": true,
        "condition": {
          "pose": [
            102
          ]
        },
        "JMCOBEPDIGM": {
          "ANLAAGAMIKF": 1,
          "NBENNEKDIIA": 5.0,
          "cd": 5.0,
          "CJNOBGEGKFL": 3.5,
          "KEIFBBGKGPN": 7.0,
          "EPMAMGJCELL": 7.0
        }
      },
      {
        "$type": "KACCHOLJDNK",
        "enable": true,
        "condition": {
          "pose": [
            101,
            201,
            301
          ]
        },
        "JMCOBEPDIGM": {
          "ANLAAGAMIKF": 1,
          "KHDFDAAAPEI": 10.0,
          "HKJODDGJPHA": 99.0,
          "GGEBMFHFBPO": 4.0,
          "KFFGCIMPNMJ": 0.0,
          "MNPDDAKDHGK": ""
        }
      },
      {
        "$type": "NNJKLGNPMNN",
        "enable": true,
        "JMCOBEPDIGM": {
          "ANLAAGAMIKF": 1,
          "MNPDDAKDHGK": "",
          "GJDMDHIBCME": ""
        }
      },
      {
        "$type": "FPELBIJFGCE",
        "enable": true,
        "condition": {
          "pose": [
            1
          ]
        },
        "JMCOBEPDIGM": {
          "NBENNEKDIIA": 1.0,
          "KPNDPKIOPJM": 5.0,
          "PINAFKEDDLL": 2.5,
          "ANMPOPEBDIA": 15.0,
          "GMJFIMFFOEL": 5.0,
          "CHCPFDMADEI": 7.5,
          "MNPDDAKDHGK": ""
        }
      }
    ]
  },
  "inputKeys": [
    {
      "keyID": 101,
      "inputKeyCode": 257,
      "abilityName": ""
    },
    {
      "keyID": 102,
      "inputKeyCode": 258,
      "abilityName": ""
    },
    {
      "keyID": 10000,
      "inputKeyCode": 259,
      "abilityName": ""
    },
    {
      "keyID": 10003,
      "inputKeyCode": 260,
      "abilityName": ""
    },
    {
      "keyID": 9999,
      "inputKeyCode": 261,
      "abilityName": ""
    },
    {
      "keyID": 601,
      "inputKeyCode": 262,
      "abilityName": ""
    },
    {
      "keyID": 1001,
      "inputKeyCode": 263,
      "abilityName": ""
    },
    {
      "keyID": 1002,
      "inputKeyCode": 264,
      "abilityName": ""
    },
    {
      "keyID": 1003,
      "inputKeyCode": 265,
      "abilityName": ""
    },
    {
      "keyID": 10001,
      "inputKeyCode": 266,
      "abilityName": ""
    },
    {
      "keyID": 10002,
      "inputKeyCode": 267,
      "abilityName": ""
    },
    {
      "keyID": 302,
      "inputKeyCode": 268,
      "abilityName": ""
    },
    {
      "keyID": 402,
      "inputKeyCode": 269,
      "abilityName": ""
    },
    {
      "keyID": 502,
      "inputKeyCode": 270,
      "abilityName": ""
    },
    {
      "keyID": 1004,
      "inputKeyCode": 271,
      "abilityName": ""
    }
  ],
  "move": {
    "$type": "IPNMJMHDMPF",
    "velocityForce": {
      "excludeForces": [
        "RetreatAirType"
      ]
    },
    "moveOnWater": true,
    "facingMove": "FourDirection",
    "PKHOMJHFAEE": "RootNode"
  },
  "audio": {
    "overrideEmitterName": "",
    "animAudio": {
      "onTransitionIn": [
        {
          "currentStateName": "WalkForward",
          "audioEvent": {
            "text": "Play_sfx_monster_Monolith_Ordinator_walk_Loop"
          }
        },
        {
          "currentStateName": "WalkFree",
          "audioEvent": {
            "text": "Play_sfx_monster_Monolith_Ordinator_walk_Loop"
          }
        },
        {
          "currentStateName": "Charge_Loop",
          "audioEvent": {
            "text": "Play_vfx_monster_Monolith_Ordinator_charge_Loop"
          },
          "otherStateNames": [
            "Charge_Loop"
          ],
          "usage": "Except"
        }
      ],
      "onTransitionOut": [
        {
          "currentStateName": "WalkForward",
          "audioEvent": {
            "text": "Stop_sfx_monster_Monolith_Ordinator_walk_Loop"
          }
        },
        {
          "currentStateName": "WalkFree",
          "audioEvent": {
            "text": "Stop_sfx_monster_Monolith_Ordinator_walk_Loop"
          }
        },
        {
          "currentStateName": "Charge_Loop",
          "audioEvent": {
            "text": "Stop_vfx_monster_Monolith_Ordinator_charge_Loop"
          },
          "otherStateNames": [
            "Charge_Loop"
          ],
          "usage": "Except"
        }
      ]
    },
    "disableEvent": {
      "text": ""
    },
    "destroyEvent": {
      "text": ""
    }
  }
}