{
  "common": {
    "effectAttachShape": {
      "$type": "FJNPJANPGGC",
      "mesh": "EffectMesh"
    },
    "mass": 10000.0,
    "height": 2.0,
    "affectedByWorld": true,
    "checkInSurface": true,
    "scale": 1.5,
    "useGrassDisplacement": true,
    "clearAnimatorOnSetLightDeactive": true,
    "clearAIOnSetLightDeactive": true,
    "recoverByInitPose": true
  },
  "headControl": {
    "$type": "KPIPDEBDPIH",
    "useHeadControl": true,
    "maxYawDegree": 60.0,
    "maxPitchDegree": 30.0,
    "speed": 3.0,
    "animStates": [
      "NormalIdle/Standby",
      "WaterNormalIdle/Standby_Water",
      "NormalIdle/Born",
      "NormalMove/WalkForward",
      "NormalMove/WalkBack",
      "NormalMove/Run",
      "Walk_Water",
      "Run_Water",
      "TurnLeft",
      "TurnRight",
      "TurnBack",
      "TurnBack_Water",
      "TurnBack_Water_HitScence",
      "WaterToLand",
      "LandToWater"
    ]
  },
  "specialPoint": {
    "elementAbsorb": "RootNode",
    "elementPendant": "",
    "elementDrop": "RootNode",
    "bulletAim": "Knee"
  },
  "model": {
    "bornEffect": "Eff_Monster_Common_Born",
    "attachEffect": "",
    "BKPFGNPLDNJ": ""
  },
  "dither": {
    "showDitherDuration": 2.0
  },
  "combat": {
    "property": {
      "endureType": "Monster_Minion",
      "weight": 120.0
    },
    "beHit": {
      "hitBloodEffect": ""
    },
    "combatLock": {
      "lockShape": "CircleLockEnemy",
      "lockType": "Avatar&Monster_Lv4"
    },
    "die": {
      "hasAnimatorDie": true,
      "dieEndTime": 0.30000001192092896,
      "dieForceDisappearTime": 1.2999999523162842,
      "dieDisappearEffect": "Eff_Death_Common_Animal",
      "muteHitBox": true,
      "dieDenyLockOn": true,
      "dieIsGhostToEnemy": true,
      "dieIgnoreTriggerBullet": true,
      "muteBillboard": true,
      "mutePushCollider": true
    },
    "animEvents": {
      "AtkNo": {
        "attackPattern": {
          "$type": "GMDIMKKHACA",
          "triggerType": "TriggerNoRepeat",
          "born": {
            "$type": "IAENDIPDFKD",
            "offset": {
              "KGEPIMHBMOL": 0.0,
              "JEBHCGDPFEJ": 0.0,
              "LPCHALMFFOD": -0.5
            }
          },
          "fanAngle": 60.0,
          "OAHPDLJIADP": 1.5
        },
        "attackInfo": {
          "attackTag": "",
          "attenuationTag": "",
          "attenuationGroup": "default",
          "attackProperty": {
            "actorGrassSubHurtDelta": 0.5,
            "actorWindSubHurtDelta": 0.0,
            "IPFJJJGABPL": 100.0,
            "strikeType": "Blunt",
            "attackType": "Melee",
            "GLKMCMDJBIK": 0.0
          },
          "hitPattern": {
            "onHitEffectName": "default",
            "hitImpulseY": "",
            "hitImpulseType": "LV2",
            "hitHaltTimeScale": 0.009999999776482582
          }
        }
      },
      "Attack01": {
        "attackPattern": {
          "$type": "GMDIMKKHACA",
          "triggerType": "TriggerNoRepeat",
          "born": {
            "$type": "IAENDIPDFKD",
            "offset": {
              "KGEPIMHBMOL": 0.0,
              "JEBHCGDPFEJ": 0.0,
              "LPCHALMFFOD": -1.7999999523162842
            }
          },
          "fanAngle": 60.0,
          "OAHPDLJIADP": 6.0
        },
        "attackInfo": {
          "attackTag": "",
          "attenuationTag": "",
          "attenuationGroup": "default",
          "attackProperty": {
            "actorGrassSubHurtDelta": 1.0,
            "actorWindSubHurtDelta": 0.0,
            "IPFJJJGABPL": 100.0,
            "strikeType": "Blunt",
            "enBreak": 200.0,
            "attackType": "Melee",
            "GLKMCMDJBIK": 0.0
          },
          "hitPattern": {
            "onHitEffectName": "default",
            "hitImpulseY": "",
            "hitImpulseType": "LV4",
            "hitHaltTimeScale": 0.009999999776482582
          }
        }
      },
      "Attack02": {
        "attackPattern": {
          "$type": "JHKEHNJBMOF",
          "triggerType": "TriggerNoRepeat",
          "born": {
            "$type": "IAENDIPDFKD",
            "offset": {
              "KGEPIMHBMOL": 0.0,
              "JEBHCGDPFEJ": 0.0,
              "LPCHALMFFOD": 2.700000047683716
            },
            "direction": {
              "$type": "AHGNBAPONLA",
              "angleOffset": {
                "KGEPIMHBMOL": 0.0,
                "JEBHCGDPFEJ": 0.0,
                "LPCHALMFFOD": 0.0
              }
            }
          },
          "size": {
            "KGEPIMHBMOL": 1.5,
            "JEBHCGDPFEJ": 3.0,
            "LPCHALMFFOD": 5.5
          }
        },
        "attackInfo": {
          "attackTag": "",
          "attenuationTag": "",
          "attenuationGroup": "default",
          "attackProperty": {
            "actorGrassSubHurtDelta": 1.0,
            "actorWindSubHurtDelta": 0.0,
            "IPFJJJGABPL": 100.0,
            "strikeType": "Blunt",
            "enBreak": 80.0,
            "attackType": "Melee",
            "GLKMCMDJBIK": 0.0
          },
          "hitPattern": {
            "onHitEffectName": "default",
            "hitImpulseY": "",
            "hitImpulseType": "LV5",
            "hitHaltTimeScale": 0.009999999776482582
          }
        }
      },
      "WaterAttack01": {
        "attackPattern": {
          "$type": "GMDIMKKHACA",
          "triggerType": "TriggerNoRepeat",
          "born": {
            "$type": "IAENDIPDFKD",
            "offset": {
              "KGEPIMHBMOL": 0.0,
              "JEBHCGDPFEJ": -1.0,
              "LPCHALMFFOD": 0.0
            }
          },
          "height": 3.0,
          "fanAngle": 90.0,
          "OAHPDLJIADP": 5.0
        },
        "attackInfo": {
          "attackTag": "",
          "attenuationTag": "",
          "attenuationGroup": "default",
          "attackProperty": {
            "actorGrassSubHurtDelta": 0.800000011920929,
            "actorWindSubHurtDelta": 0.0,
            "IPFJJJGABPL": 100.0,
            "strikeType": "Blunt",
            "attackType": "Melee",
            "GLKMCMDJBIK": 0.0
          },
          "hitPattern": {
            "onHitEffectName": "default",
            "hitImpulseY": "",
            "hitImpulseType": "LV3",
            "hitHaltTimeScale": 0.009999999776482582
          }
        }
      }
    }
  },
  "abilities": [
    {
      "abilityID": "Steer",
      "abilityName": "Monster_Gator_SteerAttack",
      "abilityOverride": ""
    },
    {
      "abilityID": "Steer",
      "abilityName": "Monster_Gator_TargetInWaterCheck",
      "abilityOverride": ""
    },
    {
      "abilityID": "Attack01",
      "abilityName": "Monster_Gator_Attack01",
      "abilityOverride": ""
    },
    {
      "abilityID": "WaterAttack01",
      "abilityName": "Monster_Gator_WaterAttack01",
      "abilityOverride": ""
    },
    {
      "abilityID": "WaterAttack01",
      "abilityName": "Monster_Gator_PlayEffect",
      "abilityOverride": ""
    },
    {
      "abilityID": "PlayHitEffect",
      "abilityName": "Monster_Gator_PlayHitEffect",
      "abilityOverride": ""
    },
    {
      "abilityID": "HeadControlOff",
      "abilityName": "Monster_Gator_HeadControlOff",
      "abilityOverride": ""
    },
    {
      "abilityID": "HeadControlOff",
      "abilityName": "Monster_Gator_None_RCMethod",
      "abilityOverride": ""
    },
    {
      "abilityID": "EnhanceVersion",
      "abilityName": "Monster_Gator_EnhanceVersion",
      "abilityOverride": ""
    }
  ],
  "stateLayers": {
    "defaultLayer": {
      "$type": "GBGJJIIEMBD",
      "layerIndexName": "",
      "CPAANEIJCGD": "",
      "stateIDs": {
        "NormalIdle": {
          "$type": "NEDIFAKEGCO",
          "animatorStates": {
            "Standby": [],
            "Born": []
          },
          "canDoSkill": true,
          "canSyncMove": true,
          "resetAnimatorTriggerOnExit": [
            "DoSkill"
          ]
        },
        "WaterNormalIdle": {
          "$type": "NEDIFAKEGCO",
          "animatorStates": {
            "Standby_Water": []
          },
          "combatMoveOnWater": true,
          "canDoSkill": true,
          "canSyncMove": true,
          "resetAnimatorTriggerOnExit": [
            "DoSkill"
          ]
        },
        "NormalMove": {
          "$type": "NEDIFAKEGCO",
          "animatorStates": {
            "WalkForward": [
              "Audio_Monster_Gator_Walk"
            ],
            "WalkBack": [
              "Audio_Monster_Gator_Walk"
            ],
            "Run": [
              "Audio_Monster_Gator_Run"
            ]
          },
          "canDoSkill": true,
          "canSyncMove": true,
          "resetAnimatorTriggerOnExit": [
            "DoSkill"
          ],
          "canSteer": true
        },
        "LandToWater": {
          "$type": "NEDIFAKEGCO",
          "animatorStates": {
            "LandToWater": [
              "Monster_Gator_None_LandToWater",
              "Audio_Monster_Gator_LandToWater"
            ]
          },
          "canSyncMove": true,
          "resetAnimatorTriggerOnExit": [
            "DoSkill"
          ],
          "canSteer": true
        },
        "Walk_Water": {
          "$type": "NEDIFAKEGCO",
          "animatorStates": {
            "Walk_Water": []
          },
          "combatMoveOnWater": true,
          "canDoSkill": true,
          "canSyncMove": true,
          "resetAnimatorTriggerOnExit": [
            "DoSkill"
          ],
          "canSteer": true
        },
        "Run_Water": {
          "$type": "NEDIFAKEGCO",
          "animatorStates": {
            "Run_Water": []
          },
          "combatMoveOnWater": true,
          "canDoSkill": true,
          "canSyncMove": true,
          "resetAnimatorTriggerOnExit": [
            "DoSkill"
          ],
          "canSteer": true
        },
        "WaterToLand": {
          "$type": "NEDIFAKEGCO",
          "animatorStates": {
            "WaterToLand": [
              "Monster_Gator_None_WaterToLand",
              "Audio_Monster_Gator_WaterToLand"
            ]
          },
          "combatMoveOnWater": true,
          "canSyncMove": true,
          "resetAnimatorTriggerOnExit": [
            "DoSkill"
          ],
          "canSteer": true
        },
        "NoTurn": {
          "$type": "NEDIFAKEGCO",
          "animatorStates": {
            "NoTurn": []
          },
          "canSyncMove": true,
          "resetAnimatorTriggerOnExit": [
            "DoSkill"
          ],
          "canSteer": true
        },
        "TurnLeft": {
          "$type": "NEDIFAKEGCO",
          "animatorStates": {
            "TurnLeft": [
              "Audio_Monster_Gator_Turn"
            ]
          },
          "canSyncMove": true,
          "resetAnimatorTriggerOnExit": [
            "DoSkill"
          ],
          "canSteer": true
        },
        "TurnRight": {
          "$type": "NEDIFAKEGCO",
          "animatorStates": {
            "TurnRight": [
              "Audio_Monster_Gator_Turn"
            ]
          },
          "canSyncMove": true,
          "resetAnimatorTriggerOnExit": [
            "DoSkill"
          ],
          "canSteer": true
        },
        "TurnBack": {
          "$type": "NEDIFAKEGCO",
          "animatorStates": {
            "TurnBack": [
              "Audio_Monster_Gator_TurnBack"
            ]
          },
          "canSyncMove": true,
          "resetAnimatorTriggerOnExit": [
            "DoSkill"
          ],
          "canSteer": true,
          "followAnimRotation": true
        },
        "TurnBack_Water": {
          "$type": "NEDIFAKEGCO",
          "animatorStates": {
            "TurnBack_Water": [
              "Audio_Monster_Gator_TurnBack_Water"
            ]
          },
          "combatMoveOnWater": true,
          "canSyncMove": true,
          "resetAnimatorTriggerOnExit": [
            "DoSkill"
          ],
          "canSteer": true,
          "followAnimRotation": true
        },
        "TurnBack_Water_HitScence": {
          "$type": "NEDIFAKEGCO",
          "animatorStates": {
            "TurnBack_Water_HitScence": [
              "Audio_Monster_Gator_TurnBack_Water"
            ]
          },
          "combatMoveOnWater": true,
          "canSyncMove": true,
          "resetAnimatorTriggerOnExit": [
            "DoSkill"
          ],
          "canSteer": true,
          "followAnimRotation": true
        },
        "BeHit": {
          "$type": "NEDIFAKEGCO",
          "animatorStates": {
            "Hit_L": [
              "Audio_Monster_Gator_Hit_L"
            ]
          },
          "resetAnimatorTriggerOnEnter": [
            "BeHit"
          ],
          "resetAnimatorTriggerOnExit": [
            "DoSkill"
          ]
        },
        "Die": {
          "$type": "NEDIFAKEGCO",
          "animatorStates": {
            "Die": [
              "Audio_Monster_Gator_Die"
            ],
            "SwimDie": [
              "Audio_Monster_Gator_Die_Swim"
            ]
          }
        },
        "Attack_01_BS": {
          "$type": "NEDIFAKEGCO",
          "animatorStates": {
            "Attack_01_BS": [
              "Monster_Gator_None_Attack01_BS",
              "Audio_Monster_Gator_Attack_01_BS"
            ]
          },
          "resetAnimatorTriggerOnExit": [
            "BeHit",
            "DoSkill"
          ]
        },
        "Attack_01_Loop": {
          "$type": "NEDIFAKEGCO",
          "animatorStates": {
            "Attack_01_Loop": [
              "Audio_Monster_Gator_Run"
            ]
          },
          "resetAnimatorTriggerOnExit": [
            "BeHit",
            "DoSkill"
          ]
        },
        "Attack_01_Loop_Water": {
          "$type": "NEDIFAKEGCO",
          "animatorStates": {
            "Attack_01_Loop_Water": []
          },
          "resetAnimatorTriggerOnExit": [
            "BeHit",
            "DoSkill"
          ]
        },
        "Attack_01_AS": {
          "$type": "NEDIFAKEGCO",
          "animatorStates": {
            "Attack_01_AS": [
              "Monster_Gator_None_Attack01",
              "Audio_Monster_Gator_Attack_01_AS"
            ]
          },
          "resetAnimatorTriggerOnExit": [
            "BeHit",
            "DoSkill"
          ],
          "canSteer": true,
          "followAnimRotation": true
        },
        "Attack_01_AS_Water": {
          "$type": "NEDIFAKEGCO",
          "animatorStates": {
            "Attack_01_AS_Water": [
              "Monster_Gator_None_WaterAttack01_Land",
              "Audio_Monster_Gator_WaterAttack_01_AS"
            ]
          },
          "resetAnimatorTriggerOnExit": [
            "BeHit",
            "DoSkill"
          ]
        },
        "Attack_01_AS_WaterExtra": {
          "$type": "NEDIFAKEGCO",
          "animatorStates": {
            "Attack_01_AS_WaterExtra": []
          },
          "resetAnimatorTriggerOnExit": [
            "BeHit",
            "DoSkill"
          ]
        },
        "Attack_02": {
          "$type": "NEDIFAKEGCO",
          "animatorStates": {
            "Attack_02": [
              "Monster_Gator_None_Attack02",
              "Audio_Monster_Gator_Attack_02"
            ]
          },
          "canSyncMove": true,
          "resetAnimatorTriggerOnExit": [
            "BeHit",
            "DoSkill"
          ],
          "canSteer": true,
          "followAnimRotation": true
        },
        "WaterAttack_01_BS": {
          "$type": "NEDIFAKEGCO",
          "animatorStates": {
            "WaterAttack_01_BS": [
              "Audio_Monster_Gator_WaterAttack_01_BS"
            ]
          },
          "resetAnimatorTriggerOnExit": [
            "BeHit",
            "DoSkill"
          ]
        },
        "WaterAttack_01_Loop": {
          "$type": "NEDIFAKEGCO",
          "animatorStates": {
            "WaterAttack_01_Loop": []
          },
          "resetAnimatorTriggerOnExit": [
            "BeHit",
            "DoSkill"
          ]
        },
        "WaterAttack_01_Loop_Land": {
          "$type": "NEDIFAKEGCO",
          "animatorStates": {
            "WaterAttack_01_Loop_Land": [
              "Audio_Monster_Gator_Run"
            ]
          },
          "resetAnimatorTriggerOnExit": [
            "BeHit",
            "DoSkill"
          ]
        },
        "WaterAttack_01_AS": {
          "$type": "NEDIFAKEGCO",
          "animatorStates": {
            "WaterAttack_01_AS": [
              "Monster_Gator_None_WaterAttack01",
              "Audio_Monster_Gator_WaterAttack_01_AS"
            ]
          },
          "resetAnimatorTriggerOnExit": [
            "BeHit",
            "DoSkill"
          ]
        },
        "WaterAttack_01_AS_Extra": {
          "$type": "NEDIFAKEGCO",
          "animatorStates": {
            "WaterAttack_01_AS_Extra": []
          },
          "resetAnimatorTriggerOnExit": [
            "BeHit",
            "DoSkill"
          ]
        },
        "WaterAttack_01_AS_Land": {
          "$type": "NEDIFAKEGCO",
          "animatorStates": {
            "WaterAttack_01_AS_Land": [
              "Monster_Gator_None_Attack01",
              "Audio_Monster_Gator_WaterAttack_01_AS_Land"
            ]
          },
          "resetAnimatorTriggerOnExit": [
            "BeHit",
            "DoSkill"
          ],
          "canSteer": true,
          "followAnimRotation": true
        },
        "Personality1_BS": {
          "$type": "NEDIFAKEGCO",
          "animatorStates": {
            "Personality1_BS": [
              "Audio_Monster_Gator_Personality_01_BS"
            ]
          },
          "canDoSkill": true,
          "resetAnimatorTriggerOnExit": [
            "BeHit",
            "DoSkill"
          ]
        },
        "Personality1_Loop": {
          "$type": "NEDIFAKEGCO",
          "animatorStates": {
            "Personality1_Loop": []
          },
          "canDoSkill": true,
          "resetAnimatorTriggerOnExit": [
            "BeHit",
            "DoSkill"
          ]
        },
        "Personality1_AS": {
          "$type": "NEDIFAKEGCO",
          "animatorStates": {
            "Personality1_AS": [
              "Audio_Monster_Gator_Personality_01_AS"
            ]
          },
          "resetAnimatorTriggerOnExit": [
            "BeHit",
            "DoSkill"
          ]
        },
        "Personality2": {
          "$type": "NEDIFAKEGCO",
          "animatorStates": {
            "Personality2": [
              "Audio_Monster_Gator_Personality_02"
            ]
          },
          "canDoSkill": true,
          "resetAnimatorTriggerOnExit": [
            "BeHit",
            "DoSkill"
          ]
        },
        "Personality3_BS": {
          "$type": "NEDIFAKEGCO",
          "animatorStates": {
            "Personality3_BS": [
              "Audio_Monster_Gator_Personality_03_BS"
            ]
          },
          "canDoSkill": true,
          "resetAnimatorTriggerOnExit": [
            "BeHit",
            "DoSkill"
          ]
        },
        "Personality3_Loop": {
          "$type": "NEDIFAKEGCO",
          "animatorStates": {
            "Personality3_Loop": []
          },
          "canDoSkill": true,
          "resetAnimatorTriggerOnExit": [
            "BeHit",
            "DoSkill"
          ]
        },
        "Personality3_AS": {
          "$type": "NEDIFAKEGCO",
          "animatorStates": {
            "Personality3_AS": [
              "Audio_Monster_Gator_Personality_03_AS"
            ]
          },
          "resetAnimatorTriggerOnExit": [
            "BeHit",
            "DoSkill"
          ]
        },
        "Personality4": {
          "$type": "NEDIFAKEGCO",
          "animatorStates": {
            "Personality4": [
              "Audio_Monster_Gator_Personality_04"
            ]
          },
          "canDoSkill": true,
          "resetAnimatorTriggerOnExit": [
            "BeHit",
            "DoSkill"
          ]
        }
      }
    }
  },
  "billboard": {
    "$type": "DNGNMAJBCNP",
    "attachPoint": "BillboardAttach",
    "offset": {
      "x": -0.699999988079071,
      "y": 0.5
    },
    "offsetType": "Character",
    "radiusOffset": 0.25,
    "size": "Big"
  },
  "initialPoses": {
    "Default": {
      "initialPoseID": 1
    }
  },
  "aibeta": {
    "enable": true,
    "moveSetting": {
      "moveCategory": "Amphibious",
      "navMeshAgentName": "Undead01"
    },
    "sensing": {
      "settings": {
        "DefaultSetting": {
          "viewRange": 12.0,
          "feelRange": 4.0
        }
      }
    },
    "threat": {
      "GHIJMOKOLMB": "",
      "clearThreatTargetDistance": 18.0,
      "clearThreatEdgeDistance": 20.0,
      "clearThreatByTargetOutOfZone": true,
      "clearThreatTimerByDistance": 4.0,
      "clearThreatTimerByLostPath": 20.0,
      "viewAttenuation": [
        {
          "x": 10.0,
          "y": 2.0
        },
        {
          "x": 20.0,
          "y": 1.0
        },
        {
          "x": 30.0,
          "y": 0.5
        },
        {
          "x": 50.0,
          "y": 0.10000000149011612
        }
      ]
    },
    "defendArea": {},
    "skills": {
      "601": {
        "name": "Attack1",
        "combatSkillType": "RangedAttack",
        "priority": 1,
        "castCondition": {
          "pose": [
            101,
            103
          ],
          "maxTargetAngleXZ": 60.0,
          "pickRangeMin": 5.0,
          "pickRangeMax": 10.0
        },
        "cd": 4.0,
        "cdUpperRange": 2.0,
        "publicCDGroup": "",
        "skillGroupCDID": 2,
        "HHAGODJIAPE": "",
        "stateIDs": [
          "Attack_01_BS",
          "Attack_01_Loop",
          "Attack_01_AS",
          "Attack_01_Loop_Water",
          "Attack_01_AS_Water",
          "Attack_01_AS_WaterExtra"
        ],
        "flagTargetReachable": "11",
        "flagSelfOnTemplateCollider": "11",
        "flagSelfInZone": "11",
        "flagTargetInZone": "11"
      },
      "611": {
        "name": "Attack2",
        "combatSkillType": "RangedAttack",
        "castCondition": {
          "pose": [
            101
          ],
          "maxTargetAngleXZ": 30.0,
          "pickRangeMax": 5.0
        },
        "cd": 3.0,
        "cdUpperRange": 2.0,
        "publicCDGroup": "",
        "HHAGODJIAPE": "",
        "stateIDs": [
          "Attack_02"
        ],
        "flagTargetReachable": "11",
        "flagSelfOnTemplateCollider": "11",
        "flagSelfInZone": "11",
        "flagTargetInZone": "11"
      },
      "621": {
        "name": "WaterAttack1",
        "combatSkillType": "RangedAttack",
        "castCondition": {
          "pose": [
            102,
            104
          ],
          "pickRangeMin": 5.800000190734863,
          "pickRangeMax": 10.0,
          "pickRangeYMax": 1.399999976158142,
          "pickRangeByRaycast": [
            {
              "min": 1.0,
              "raycastType": "DownToGroundOnlyInWater"
            }
          ]
        },
        "cd": 5.0,
        "cdUpperRange": 2.0,
        "publicCDGroup": "",
        "skillGroupCDID": 2,
        "HHAGODJIAPE": "",
        "stateIDs": [
          "WaterAttack_01_BS",
          "WaterAttack_01_Loop",
          "WaterAttack_01_AS",
          "WaterAttack_01_Loop_Land",
          "WaterAttack_01_AS_Land",
          "WaterAttack_01_AS_Extra"
        ],
        "flagTargetReachable": "11",
        "flagSelfOnTemplateCollider": "11",
        "flagSelfInZone": "11",
        "flagTargetInZone": "11"
      }
    },
    "skillGCD": 2.0,
    "birdCirclingTactic": [
      {
        "$type": "EPHBMLFODKF",
        "enable": true,
        "condition": {
          "pose": [
            101
          ]
        },
        "JMCOBEPDIGM": {
          "rangeMin": 6.0,
          "rangeMax": 10.0,
          "AFILKAGDAHN": 3.0,
          "ALIBHHJHHMN": 1.2000000476837158,
          "BFJBDDIIFOI": {
            "IDEFILBHNAP": 2.0,
            "IBLIPJPNOGC": 2.0,
            "AEBLMKFNCDG": 0.0,
            "IGLIBIOEGBB": 0.0
          },
          "FNFGJGDBPLN": false,
          "CAMIDDMDKBH": true,
          "NAOBMNGDKHL": "1111",
          "JCNIJOAIGII": "1011",
          "MNPDDAKDHGK": ""
        }
      },
      {
        "$type": "KACCHOLJDNK",
        "enable": true,
        "condition": {
          "pose": [
            101,
            103,
            104
          ]
        },
        "JMCOBEPDIGM": {
          "NBENNEKDIIA": 2.0,
          "KHDFDAAAPEI": 16.0,
          "HKJODDGJPHA": 50.0,
          "GGEBMFHFBPO": 5.0,
          "KFFGCIMPNMJ": 8.0,
          "MNPDDAKDHGK": ""
        },
        "PIOCBHLFLJP": {
          "103": {
            "NBENNEKDIIA": 2.0,
            "KHDFDAAAPEI": 0.009999999776482582,
            "HKJODDGJPHA": 99.0,
            "GGEBMFHFBPO": 3.0,
            "KFFGCIMPNMJ": 2.0,
            "MNPDDAKDHGK": ""
          },
          "104": {
            "NBENNEKDIIA": 2.0,
            "KHDFDAAAPEI": 0.009999999776482582,
            "HKJODDGJPHA": 99.0,
            "GGEBMFHFBPO": 3.0,
            "KFFGCIMPNMJ": 2.0,
            "MNPDDAKDHGK": ""
          }
        }
      },
      {
        "$type": "NNJKLGNPMNN",
        "enable": true,
        "JMCOBEPDIGM": {
          "NBENNEKDIIA": 1.0,
          "MNPDDAKDHGK": "",
          "GJDMDHIBCME": ""
        }
      },
      {
        "$type": "KBADPEGBPKN",
        "enable": true,
        "condition": {
          "pose": [
            102
          ]
        },
        "JMCOBEPDIGM": {
          "ANLAAGAMIKF": 2,
          "NBENNEKDIIA": 0.30000001192092896,
          "LEGOOCKKGNE": 0.009999999776482582,
          "GACMJDCMLLA": 6.0,
          "OFPCELPELIG": [
            "TurnBack_Water_HitScence"
          ],
          "FPOLOLBBKEO": 4.0,
          "ANDFOELNCKK": true,
          "MNPDDAKDHGK": ""
        }
      },
      {
        "$type": "FPELBIJFGCE",
        "enable": true,
        "condition": {
          "pose": [
            1,
            2
          ]
        },
        "JMCOBEPDIGM": {
          "NBENNEKDIIA": 0.30000001192092896,
          "KPNDPKIOPJM": 20.0,
          "PINAFKEDDLL": 8.0,
          "ANMPOPEBDIA": 15.0,
          "GMJFIMFFOEL": 4.0,
          "CHCPFDMADEI": 8.0,
          "ANDFOELNCKK": true,
          "MNPDDAKDHGK": ""
        },
        "PIOCBHLFLJP": {
          "2": {
            "NBENNEKDIIA": 0.10000000149011612,
            "KPNDPKIOPJM": 15.0,
            "PINAFKEDDLL": 5.0,
            "ANMPOPEBDIA": 15.0,
            "GMJFIMFFOEL": 6.0,
            "ANDFOELNCKK": true,
            "MNPDDAKDHGK": ""
          }
        }
      }
    ]
  },
  "inputKeys": [
    {
      "keyID": 601,
      "inputKeyCode": 257,
      "abilityName": ""
    },
    {
      "keyID": 611,
      "inputKeyCode": 258,
      "abilityName": ""
    },
    {
      "keyID": 621,
      "inputKeyCode": 259,
      "abilityName": ""
    },
    {
      "keyID": 631,
      "inputKeyCode": 260,
      "abilityName": ""
    }
  ],
  "move": {
    "$type": "IPNMJMHDMPF",
    "velocityForce": {
      "excludeForces": [
        "RetreatAirType"
      ]
    },
    "moveOnWater": true,
    "moveOnWaterDepth": 0.30000001192092896,
    "raycasts": [
      {
        "raycastLength": 10.0,
        "raycastType": "DownToGroundOnlyInWater",
        "startPoint": ""
      }
    ],
    "deepWaterLevel": 0.4000000059604645,
    "facingMove": "ForwardBackward",
    "destroyRockWhenInit": true,
    "yawSpeedRatio": 0.30000001192092896,
    "PKHOMJHFAEE": "RootNode"
  },
  "audio": {
    "overrideEmitterName": "",
    "animAudio": {
      "onTransitionIn": [
        {
          "currentStateName": "Walk_Water",
          "audioEvent": {
            "text": "Play_vfx_monster_animal_gator_run_water_Loop"
          }
        },
        {
          "currentStateName": "Run_Water",
          "audioEvent": {
            "text": "Play_vfx_monster_animal_gator_run_water_fast_Loop"
          }
        },
        {
          "currentStateName": "WaterAttack_01_Loop",
          "audioEvent": {
            "text": "Play_vfx_monster_animal_gator_run_water_fast_Loop"
          }
        },
        {
          "currentStateName": "Attack_01_Loop_Water",
          "audioEvent": {
            "text": "Play_vfx_monster_animal_gator_run_water_fast_Loop"
          }
        }
      ],
      "onTransitionOut": [
        {
          "currentStateName": "Personality1_BS",
          "audioEvent": {
            "text": "Stop_sfx_monster_animal_gator_personality1_BS"
          }
        },
        {
          "currentStateName": "Personality2",
          "audioEvent": {
            "text": "Stop_sfx_monster_animal_gator_personality2"
          }
        },
        {
          "currentStateName": "Personality4",
          "audioEvent": {
            "text": "Stop_sfx_monster_animal_gator_personality4"
          }
        },
        {
          "currentStateName": "Walk_Water",
          "audioEvent": {
            "text": "Stop_vfx_monster_animal_gator_run_water_Loop"
          }
        },
        {
          "currentStateName": "Run_Water",
          "audioEvent": {
            "text": "Stop_vfx_monster_animal_gator_run_water_fast_Loop"
          }
        },
        {
          "currentStateName": "WaterAttack_01_Loop",
          "audioEvent": {
            "text": "Stop_vfx_monster_animal_gator_run_water_fast_Loop"
          }
        },
        {
          "currentStateName": "Attack_01_Loop_Water",
          "audioEvent": {
            "text": "Stop_vfx_monster_animal_gator_run_water_fast_Loop"
          }
        }
      ]
    }
  }
}