{
  "common": {
    "effectAttachShape": {
      "$type": "FJNPJANPGGC",
      "mesh": "EffectMesh"
    },
    "mass": 40.0,
    "height": 1.0,
    "affectedByWorld": true,
    "checkInSurface": true,
    "scale": 0.5,
    "canTriggerElementReactionText": false,
    "useGrassDisplacement": true
  },
  "model": {
    "bornEffect": "",
    "attachEffect": "",
    "canBakeMesh": false,
    "BKPFGNPLDNJ": ""
  },
  "dither": {
    "showDitherDuration": 1.0
  },
  "combat": {
    "property": {
      "endureType": "Monster_Minion",
      "weight": 50.0,
      "isInvincible": true
    },
    "beHit": {
      "hitBloodEffect": "",
      "muteAllHitText": true
    },
    "combatLock": {
      "lockShape": "CircleLockEnemy",
      "lockType": "Animal_Lv2"
    },
    "die": {
      "dieEndTime": 2.0,
      "dieForceDisappearTime": 10.0,
      "dieDisappearEffect": ""
    }
  },
  "abilities": [
    {
      "abilityID": "",
      "abilityName": "Animal_Boar_Small_AIStateInitial",
      "abilityOverride": ""
    },
    {
      "abilityID": "",
      "abilityName": "Animal_Homeworld_Common_Initial",
      "abilityOverride": ""
    }
  ],
  "stateLayers": {
    "defaultLayer": {
      "$type": "GBGJJIIEMBD",
      "layerIndexName": "",
      "CPAANEIJCGD": "",
      "stateIDs": {
        "Born": {
          "$type": "NEDIFAKEGCO",
          "animatorStates": {
            "Born": []
          },
          "resetAnimatorTriggerOnExit": [
            "DoSkill"
          ]
        },
        "NormalIdle": {
          "$type": "NEDIFAKEGCO",
          "animatorStates": {
            "Standby": []
          },
          "canDoSkill": true,
          "canSyncMove": true,
          "resetAnimatorTriggerOnExit": [
            "DoSkill"
          ]
        },
        "NormalMove": {
          "$type": "NEDIFAKEGCO",
          "animatorStates": {
            "Walk": [
              "Audio_Boar_Small_Walk"
            ],
            "Run": [
              "Audio_Boar_Small_Run"
            ],
            "Disappear": []
          },
          "canDoSkill": true,
          "canSyncMove": true,
          "resetAnimatorTriggerOnExit": [
            "DoSkill"
          ],
          "canSteer": true
        },
        "BeHit": {
          "$type": "NEDIFAKEGCO",
          "animatorStates": {
            "Hit_L": [
              "Audio_Boar_Small_Hit_L"
            ]
          },
          "resetAnimatorTriggerOnEnter": [
            "BeHit"
          ],
          "resetAnimatorTriggerOnExit": [
            "DoSkill"
          ]
        },
        "Die": {
          "$type": "NEDIFAKEGCO",
          "animatorStates": {
            "Die": [
              "Animal_Boar_Die",
              "Audio_Boar_Small_Die"
            ],
            "Die_Disappear": [
              "Animal_Boar_Disappear"
            ]
          }
        },
        "Aware": {
          "$type": "NEDIFAKEGCO",
          "animatorStates": {
            "Aware": [
              "Audio_Boar_Small_Aware"
            ]
          },
          "canDoSkill": true,
          "resetAnimatorTriggerOnExit": [
            "BeHit",
            "DoSkill"
          ]
        },
        "Alert": {
          "$type": "NEDIFAKEGCO",
          "animatorStates": {
            "Alert": [
              "Animal_Boar_Alert"
            ]
          },
          "canDoSkill": true,
          "resetAnimatorTriggerOnExit": [
            "BeHit",
            "DoSkill"
          ]
        },
        "Personality_101": {
          "$type": "NEDIFAKEGCO",
          "animatorStates": {
            "Personality_101": []
          },
          "resetAnimatorTriggerOnExit": [
            "BeHit",
            "DoSkill"
          ]
        },
        "Personality_102": {
          "$type": "NEDIFAKEGCO",
          "animatorStates": {
            "Personality_102": []
          },
          "resetAnimatorTriggerOnExit": [
            "BeHit",
            "DoSkill"
          ]
        },
        "ToRun": {
          "$type": "NEDIFAKEGCO",
          "animatorStates": {
            "ToRun": [
              "Animal_Boar_Small_ToRun"
            ]
          },
          "canDoSkill": true,
          "resetAnimatorTriggerOnExit": [
            "BeHit",
            "DoSkill"
          ]
        },
        "ToWander": {
          "$type": "NEDIFAKEGCO",
          "animatorStates": {
            "ToWander": [
              "Animal_Boar_Small_ToWander"
            ]
          },
          "canDoSkill": true,
          "resetAnimatorTriggerOnExit": [
            "BeHit",
            "DoSkill"
          ]
        }
      }
    }
  },
  "initialPoses": {
    "Default": {}
  },
  "aibeta": {
    "enable": true,
    "friendliness": 1,
    "decisionArchetype": "Animal_Homeworld",
    "sensing": {
      "settings": {
        "DefaultSetting": {
          "enableVision": false,
          "feelRange": 0.0
        }
      }
    },
    "neurons": {
      "DefaultSetting": [
        "HIT"
      ]
    },
    "threat": {
      "GHIJMOKOLMB": "",
      "feelThreatGrow": 1000.0,
      "threatDecreaseSpeed": 500.0,
      "viewAttenuation": [
        {
          "x": 7.5,
          "y": 2.0
        },
        {
          "x": 10.0,
          "y": 1.25
        },
        {
          "x": 12.5,
          "y": 0.5
        }
      ]
    },
    "defendArea": {
      "defendRange": 50.0
    },
    "poseControl": {
      "items": [
        {
          "minTime": 11.0,
          "maxTime": 17.0,
          "poseID": 1,
          "randomPose": [
            2
          ],
          "switchOnlyInCanDoSkillState": true
        },
        {
          "minTime": 1.0,
          "maxTime": 4.0,
          "poseID": 2,
          "randomPose": [
            1
          ],
          "switchOnlyInCanDoSkillState": true
        }
      ]
    },
    "ui": {
      "hasDirectionIndicator": false,
      "HMNNBFDEHLG": ""
    },
    "skills": {
      "101": {
        "name": "Personality_101",
        "skillType": "Free",
        "cd": 9.0,
        "cdUpperRange": 15.0,
        "initialCD": 5.0,
        "initialCDUpperRange": 15.0,
        "publicCDGroup": "",
        "HHAGODJIAPE": "",
        "stateIDs": [
          "Personality_101"
        ],
        "flagTargetReachable": "10",
        "flagSelfOnTemplateCollider": "01",
        "flagSelfInZone": "10",
        "flagTargetInZone": "11"
      },
      "102": {
        "name": "Personality_102",
        "skillType": "Free",
        "cd": 9.0,
        "cdUpperRange": 15.0,
        "initialCD": 5.0,
        "initialCDUpperRange": 15.0,
        "publicCDGroup": "",
        "HHAGODJIAPE": "",
        "stateIDs": [
          "Personality_102"
        ],
        "flagTargetReachable": "10",
        "flagSelfOnTemplateCollider": "01",
        "flagSelfInZone": "10",
        "flagTargetInZone": "11"
      }
    },
    "skillGCD": 2.5,
    "birdCirclingTactic": [
      {
        "$type": "ODHNBPJLGHF",
        "enable": true,
        "nerveTrigger": [
          "HIT"
        ],
        "JMCOBEPDIGM": {
          "NBENNEKDIIA": 2.5,
          "cd": 3.0,
          "triggerDistance": 100.0,
          "MMGOBGGLBJO": 60.0,
          "EMNPEHPCDLB": 4,
          "CMDFDIPMGKI": 6,
          "KAIGBDPLNMO": 4.0,
          "BMIEPFCPFGN": 6.0,
          "MNPDDAKDHGK": ""
        }
      },
      {
        "$type": "NNJKLGNPMNN",
        "enable": true
      },
      {
        "$type": "FPELBIJFGCE",
        "enable": true,
        "condition": {
          "pose": [
            1,
            2
          ]
        },
        "JMCOBEPDIGM": {
          "NBENNEKDIIA": 0.5,
          "KPNDPKIOPJM": 7.5,
          "PINAFKEDDLL": 4.5,
          "ANMPOPEBDIA": 10.0,
          "GMJFIMFFOEL": 3.0,
          "CHCPFDMADEI": 6.0,
          "MNPDDAKDHGK": ""
        },
        "PIOCBHLFLJP": {
          "2": {
            "ANLAAGAMIKF": 2,
            "NBENNEKDIIA": 2.5,
            "KPNDPKIOPJM": 0.5,
            "PINAFKEDDLL": 0.25,
            "ANMPOPEBDIA": 12.5,
            "GMJFIMFFOEL": 3.0,
            "CHCPFDMADEI": 6.0,
            "MNPDDAKDHGK": ""
          }
        }
      }
    ]
  }
}