{
  "common": {
    "effectAttachShape": {
      "$type": "FJNPJANPGGC",
      "mesh": "EffectMesh"
    },
    "mass": 9999999.0,
    "affectedByWorld": true,
    "checkInSurface": true,
    "scale": 1.2999999523162842,
    "canTriggerElementReactionText": false,
    "useGrassDisplacement": true,
    "reconnectSupport": true,
    "recoverByInitPose": true
  },
  "model": {
    "bornEffect": "",
    "attachEffect": "",
    "canBakeMesh": false,
    "BKPFGNPLDNJ": ""
  },
  "dither": {
    "showDitherDuration": 1.0
  },
  "combat": {
    "property": {
      "endureType": "Monster_Minion",
      "weight": 40.0,
      "isInvincible": true
    },
    "beHit": {
      "hitBloodEffect": "",
      "muteAllHitText": true
    },
    "combatLock": {
      "lockShape": "CircleLockEnemy",
      "denyLockOn": true,
      "lockType": "Animal_Lv2"
    },
    "die": {
      "dieEndTime": 2.0,
      "dieForceDisappearTime": 10.0,
      "dieDisappearEffect": ""
    }
  },
  "abilities": [
    {
      "abilityID": "Homeworld_CommonInitial",
      "abilityName": "Animal_Homeworld_Common_Initial",
      "abilityOverride": ""
    }
  ],
  "stateLayers": {
    "defaultLayer": {
      "$type": "GBGJJIIEMBD",
      "layerIndexName": "",
      "CPAANEIJCGD": "",
      "stateIDs": {
        "NormalIdle": {
          "$type": "NEDIFAKEGCO",
          "animatorStates": {
            "Standby": [],
            "Born": [
              "Audio_Animal_Meleagris_HideAlert"
            ]
          },
          "canDoSkill": true,
          "canSyncMove": true,
          "resetAnimatorTriggerOnExit": [
            "DoSkill"
          ]
        },
        "Walk": {
          "$type": "NEDIFAKEGCO",
          "animatorStates": {
            "Walk": [
              "Audio_Animal_Meleagris_Hit_Walk"
            ]
          },
          "canDoSkill": true,
          "canSyncMove": true,
          "resetAnimatorTriggerOnExit": [
            "DoSkill"
          ],
          "canSteer": true
        },
        "Run": {
          "$type": "NEDIFAKEGCO",
          "animatorStates": {
            "Run": [
              "Audio_Animal_Meleagris_Hit_Run"
            ]
          },
          "canDoSkill": true,
          "canSyncMove": true,
          "resetAnimatorTriggerOnExit": [
            "DoSkill"
          ],
          "canSteer": true
        },
        "Die": {
          "$type": "NEDIFAKEGCO",
          "animatorStates": {
            "Die": [
              "Animal_Meleagris_Die"
            ],
            "Die_Disappear": [
              "Animal_Meleagris_Disappear",
              "Audio_Animal_Meleagris_Hit_Run"
            ]
          },
          "resetAnimatorTriggerOnEnter": [
            "DoSkill"
          ]
        },
        "Personality1": {
          "$type": "NEDIFAKEGCO",
          "animatorStates": {
            "Personality1": [
              "Audio_Animal_Meleagris_Personality1"
            ]
          },
          "canDoSkill": true,
          "resetAnimatorTriggerOnExit": [
            "BeHit",
            "DoSkill"
          ]
        },
        "Alert": {
          "$type": "NEDIFAKEGCO",
          "animatorStates": {
            "Alert": [
              "Audio_Animal_Meleagris_Alert"
            ]
          },
          "resetAnimatorTriggerOnExit": [
            "BeHit",
            "DoSkill"
          ]
        },
        "Alert2": {
          "$type": "NEDIFAKEGCO",
          "animatorStates": {
            "Alert2": [
              "Audio_Animal_Meleagris_Alert"
            ]
          },
          "resetAnimatorTriggerOnExit": [
            "BeHit",
            "DoSkill"
          ]
        },
        "Alert_Loop": {
          "$type": "NEDIFAKEGCO",
          "animatorStates": {
            "Alert_Loop": []
          },
          "resetAnimatorTriggerOnExit": [
            "BeHit",
            "DoSkill"
          ]
        },
        "Recover": {
          "$type": "NEDIFAKEGCO",
          "animatorStates": {
            "Recover": [
              "Audio_Animal_Meleagris_Alert_Run"
            ]
          },
          "resetAnimatorTriggerOnExit": [
            "BeHit",
            "DoSkill"
          ]
        }
      }
    }
  },
  "initialPoses": {
    "Default": {}
  },
  "aibeta": {
    "enable": true,
    "friendliness": 1,
    "decisionArchetype": "Animal_Homeworld",
    "sensing": {
      "settings": {
        "DefaultSetting": {
          "viewRange": 0.0,
          "hearAttractionRange": 0.0,
          "feelRange": 7.5
        }
      }
    },
    "neurons": {
      "DefaultSetting": [
        "HIT"
      ]
    },
    "threat": {
      "GHIJMOKOLMB": "",
      "clearThreatTargetDistance": 10.0,
      "feelThreatGrow": 1000.0,
      "threatDecreaseSpeed": 500.0,
      "viewAttenuation": [
        {
          "x": 10.0,
          "y": 2.0
        },
        {
          "x": 15.0,
          "y": 1.25
        },
        {
          "x": 20.0,
          "y": 0.5
        }
      ]
    },
    "defendArea": {
      "defendRange": 100.0
    },
    "ui": {
      "hasDirectionIndicator": false,
      "HMNNBFDEHLG": ""
    },
    "skills": {
      "101": {
        "name": "OnAlert",
        "skillType": "OnAlert",
        "canUseCombatSkillCondition": true,
        "KOKGBBBDCAF": true,
        "castCondition": {
          "pose": [
            1
          ]
        },
        "publicCDGroup": "",
        "ignoreGCD": true,
        "triggerGCD": false,
        "HHAGODJIAPE": "",
        "stateIDs": [
          "Alert",
          "Alert_Loop",
          "Recover",
          "Alert2"
        ],
        "skillQueryingTime": 3.0,
        "flagTargetReachable": "10",
        "flagSelfOnTemplateCollider": "01",
        "flagSelfInZone": "10",
        "flagTargetInZone": "11"
      },
      "201": {
        "name": "Personality1",
        "skillType": "Free",
        "priority": 6,
        "castCondition": {
          "pose": [
            1
          ]
        },
        "cd": 15.0,
        "cdUpperRange": 10.0,
        "initialCD": 2.5,
        "initialCDUpperRange": 5.0,
        "publicCDGroup": "",
        "HHAGODJIAPE": "",
        "stateIDs": [
          "Personality1"
        ],
        "flagTargetReachable": "10",
        "flagSelfOnTemplateCollider": "01",
        "flagSelfInZone": "10",
        "flagTargetInZone": "11"
      }
    },
    "skillGCD": 10.0,
    "birdCirclingTactic": [
      {
        "$type": "ODHNBPJLGHF",
        "enable": true,
        "nerveTrigger": [
          "HIT"
        ],
        "JMCOBEPDIGM": {
          "cd": 0.0,
          "triggerDistance": 0.0,
          "EMNPEHPCDLB": 2,
          "CMDFDIPMGKI": 6,
          "BENICHJBDCH": 6.0,
          "MNPDDAKDHGK": ""
        }
      },
      {
        "$type": "FPELBIJFGCE",
        "enable": true,
        "condition": {
          "pose": [
            1
          ]
        },
        "JMCOBEPDIGM": {
          "NBENNEKDIIA": 0.5,
          "KPNDPKIOPJM": 12.0,
          "PINAFKEDDLL": 8.0,
          "ANMPOPEBDIA": 10.0,
          "CHCPFDMADEI": 9.0,
          "MNPDDAKDHGK": ""
        }
      }
    ]
  },
  "move": {
    "$type": "IPNMJMHDMPF",
    "positionModifyState": "Walk",
    "PKHOMJHFAEE": "RootNode"
  },
  "audio": {
    "overrideEmitterName": "",
    "behaviours": [
      {
        "$type": "FKDHOPDMFHG",
        "IKJGOJBCAPG": {
          "$type": "MPCIPAGHJNA",
          "interval": 5
        },
        "JDCAENIOKPB": [
          {
            "$type": "HNHPMJIAKHO",
            "OPEMPFCFHMO": "__DefaultSync__",
            "rtpcKey": {
              "text": "Param_Meleagris_PoseID"
            },
            "PKCNKIKHCDB": "PoseID"
          }
        ]
      }
    ]
  },
  "animal": {
    "tickAbilityElement": false,
    "hasCharacterRenderering": false
  }
}