{
  "common": {
    "effectAttachShape": {
      "$type": "FJNPJANPGGC",
      "mesh": "EffectMesh"
    },
    "mass": 999999.0,
    "viewSize": 1.5,
    "scale": 2.0
  },
  "model": {
    "bornEffect": "Eff_Monster_Oceanid_AnimalBorn_Small",
    "attachEffect": "",
    "canBakeMesh": false,
    "BKPFGNPLDNJ": ""
  },
  "dither": {
    "showDitherDuration": 3.0
  },
  "combat": {
    "property": {
      "endureType": "Monster_Boss_Other",
      "weight": 150.0
    },
    "beHit": {
      "hitBloodEffect": ""
    },
    "combatLock": {
      "lockShape": "CircleLockEnemy",
      "lockType": "Avatar&Monster_Lv4"
    },
    "die": {
      "hasAnimatorDie": true,
      "dieEndTime": 2.0,
      "dieForceDisappearTime": 5.0,
      "dieDisappearEffect": "",
      "muteHitBox": true,
      "dieDenyLockOn": true,
      "dieIsGhostToEnemy": true,
      "dieIgnoreTriggerBullet": true,
      "muteBillboard": true,
      "mutePushCollider": true
    }
  },
  "abilities": [
    {
      "abilityID": "Monster_Oceanid_Crane_WaterWave",
      "abilityName": "Monster_Oceanid_Crane_WaterWave",
      "abilityOverride": ""
    },
    {
      "abilityID": "Monster_Oceanid_Crane_Steer",
      "abilityName": "Monster_Oceanid_Crane_Steer",
      "abilityOverride": ""
    },
    {
      "abilityID": "Monster_Oceanid_Crane_ElementState",
      "abilityName": "Monster_Oceanid_Crane_ElementState",
      "abilityOverride": ""
    },
    {
      "abilityID": "Monster_Common_WaterMuteHurt",
      "abilityName": "Monster_Common_WaterMuteHurt",
      "abilityOverride": ""
    },
    {
      "abilityID": "Monster_Oceanid_Animal_BeingHit",
      "abilityName": "Monster_Oceanid_Animal_BeingHit",
      "abilityOverride": ""
    },
    {
      "abilityID": "Monster_Oceanid_Animal_Die",
      "abilityName": "Monster_Oceanid_Animal_Die",
      "abilityOverride": ""
    }
  ],
  "stateLayers": {
    "defaultLayer": {
      "$type": "GBGJJIIEMBD",
      "layerIndexName": "",
      "CPAANEIJCGD": "",
      "stateIDs": {
        "Born": {
          "$type": "NEDIFAKEGCO",
          "animatorStates": {
            "Born": []
          },
          "canDoSkill": true,
          "resetAnimatorTriggerOnExit": [
            "DoSkill"
          ]
        },
        "NormalIdle": {
          "$type": "NEDIFAKEGCO",
          "animatorStates": {
            "Standby": []
          },
          "canDoSkill": true,
          "canSyncMove": true,
          "resetAnimatorTriggerOnExit": [
            "DoSkill"
          ]
        },
        "Turn": {
          "$type": "NEDIFAKEGCO",
          "animatorStates": {
            "Turn": []
          },
          "canSyncMove": true,
          "resetAnimatorTriggerOnExit": [
            "DoSkill"
          ],
          "canSteer": true
        },
        "NormalMove": {
          "$type": "NEDIFAKEGCO",
          "animatorStates": {
            "Walk": []
          },
          "canDoSkill": true,
          "canSyncMove": true,
          "resetAnimatorTriggerOnExit": [
            "DoSkill"
          ],
          "canSteer": true
        },
        "Die": {
          "$type": "NEDIFAKEGCO",
          "animatorStates": {
            "Die": [
              "Monster_Oceanid_Crane_Die"
            ]
          }
        },
        "Alert": {
          "$type": "NEDIFAKEGCO",
          "animatorStates": {
            "Alert": []
          },
          "canDoSkill": true,
          "resetAnimatorTriggerOnExit": [
            "BeHit",
            "DoSkill"
          ]
        },
        "WaterWave": {
          "$type": "NEDIFAKEGCO",
          "animatorStates": {
            "WaterWave": [
              "Audio_Monster_Oceanid_Crane_WaterWave",
              "Monster_Oceanid_Crane_WaterWave"
            ]
          },
          "resetAnimatorTriggerOnExit": [
            "BeHit",
            "DoSkill",
            "CrashTrigger"
          ],
          "canSteer": true
        },
        "Dodge": {
          "$type": "NEDIFAKEGCO",
          "animatorStates": {
            "Dodge": [
              "Monster_Oceanid_Crane_Dodge",
              "Audio_Monster_Oceanid_Crane_Dodge"
            ]
          },
          "canSyncMove": true,
          "resetAnimatorTriggerOnExit": [
            "BeHit",
            "DoSkill",
            "CrashTrigger"
          ],
          "canSteer": true
        },
        "RandomAction1": {
          "$type": "NEDIFAKEGCO",
          "animatorStates": {
            "RandomAction1": []
          },
          "resetAnimatorTriggerOnExit": [
            "BeHit",
            "DoSkill"
          ],
          "canSteer": true
        }
      }
    }
  },
  "billboard": {
    "$type": "DNGNMAJBCNP",
    "attachPoint": "BillboardAttach",
    "offsetType": "Character",
    "radiusOffset": 0.25,
    "showHPBar": true,
    "forceShowDistance": 50.0
  },
  "initialPoses": {
    "Default": {},
    "Free": {
      "initialPoseID": 2,
      "initialPoseParams": {
        "boolParams": {
          "Free": "true"
        }
      }
    },
    "Stand": {
      "initialPoseID": 3,
      "initialPoseParams": {
        "boolParams": {
          "Stand": "true"
        }
      }
    }
  },
  "aibeta": {
    "enable": true,
    "moveSetting": {
      "moveCategory": "Amphibious",
      "useNavMesh": false,
      "navMeshAgentName": "Undead01"
    },
    "sensing": {
      "settings": {
        "DefaultSetting": {
          "feelRange": 50.0
        },
        "LowAlert": {
          "sensitivity": 2.0,
          "horizontalFov": 90.0,
          "verticalFov": 30.0,
          "feelRange": 15.0
        },
        "StandAlert": {
          "viewRange": 0.0,
          "feelRange": 8.0
        },
        "SpecialLowAlert": {
          "feelRange": 8.0
        },
        "OnlyHitAlert": {
          "viewRange": 0.0,
          "hearAttractionRange": 0.0,
          "feelRange": 0.0,
          "sourcelessHitAttractionRange": 30.0
        }
      },
      "templates": {
        "DefaultTemplate": {
          "DefaultPoses": "DefaultSetting",
          "2": "LowAlert",
          "3": "StandAlert"
        },
        "LowAlertTemplate": {
          "DefaultPoses": "SpecialLowAlert",
          "2": "LowAlert",
          "3": "StandAlert"
        },
        "OnlyHitTemplate": {
          "DefaultPoses": "OnlyHitAlert"
        }
      }
    },
    "threat": {
      "GHIJMOKOLMB": "",
      "clearThreatTargetDistance": 70.0,
      "feelThreatGrow": 100.0,
      "threatDecreaseSpeed": 100.0,
      "viewAttenuation": [
        {
          "x": 10.0,
          "y": 2.0
        },
        {
          "x": 15.0,
          "y": 1.25
        },
        {
          "x": 20.0,
          "y": 0.5
        }
      ]
    },
    "defendArea": {
      "defendRange": 50.0
    },
    "skills": {
      "1": {
        "name": "OnAlert",
        "skillType": "OnAlert",
        "publicCDGroup": "",
        "ignoreGCD": true,
        "triggerGCD": false,
        "HHAGODJIAPE": "",
        "stateIDs": [
          "Alert"
        ],
        "flagTargetReachable": "10",
        "flagSelfOnTemplateCollider": "01",
        "flagSelfInZone": "10",
        "flagTargetInZone": "11"
      },
      "2": {
        "name": "RandomAction1",
        "skillType": "Free",
        "castCondition": {
          "pose": [
            2,
            3
          ]
        },
        "cd": 10.0,
        "cdUpperRange": 5.0,
        "initialCD": 7.5,
        "publicCDGroup": "",
        "HHAGODJIAPE": "",
        "stateIDs": [
          "RandomAction1"
        ],
        "flagTargetReachable": "10",
        "flagSelfOnTemplateCollider": "01",
        "flagSelfInZone": "10",
        "flagTargetInZone": "11"
      },
      "201": {
        "name": "WaterWave",
        "castCondition": {
          "pose": [
            101
          ]
        },
        "cd": 4.0,
        "cdUpperRange": 3.0,
        "publicCDGroup": "Oceanid_rangedAttack",
        "HHAGODJIAPE": "",
        "stateIDs": [
          "WaterWave"
        ],
        "flagTargetReachable": "11",
        "flagSelfOnTemplateCollider": "01",
        "flagSelfInZone": "11",
        "flagTargetInZone": "11"
      },
      "211": {
        "name": "Dodge",
        "castCondition": {
          "pose": [
            101
          ],
          "pickRangeMax": 3.5
        },
        "cd": 10.0,
        "cdUpperRange": 5.0,
        "initialCD": 7.5,
        "publicCDGroup": "",
        "ignoreGCD": true,
        "triggerGCD": false,
        "HHAGODJIAPE": "",
        "stateIDs": [
          "Dodge"
        ],
        "flagTargetReachable": "10",
        "flagSelfOnTemplateCollider": "01",
        "flagSelfInZone": "10",
        "flagTargetInZone": "11"
      },
      "301": {
        "name": "RandomAction1",
        "castCondition": {
          "pose": [
            101
          ]
        },
        "cd": 15.0,
        "cdUpperRange": 15.0,
        "initialCD": 7.5,
        "initialCDUpperRange": 7.5,
        "publicCDGroup": "",
        "HHAGODJIAPE": "",
        "stateIDs": [
          "RandomAction1"
        ],
        "flagTargetReachable": "10",
        "flagSelfOnTemplateCollider": "01",
        "flagSelfInZone": "10",
        "flagTargetInZone": "11"
      }
    },
    "skillGCD": 3.0,
    "birdCirclingTactic": [
      {
        "$type": "KACCHOLJDNK",
        "enable": true,
        "condition": {
          "pose": [
            101
          ]
        },
        "JMCOBEPDIGM": {
          "ANLAAGAMIKF": 1,
          "KHDFDAAAPEI": 20.0,
          "HKJODDGJPHA": 99.0,
          "GGEBMFHFBPO": 20.0,
          "KFFGCIMPNMJ": 20.0,
          "PKNJDNAGLNM": 0,
          "MNPDDAKDHGK": ""
        }
      },
      {
        "$type": "NNJKLGNPMNN",
        "enable": true,
        "JMCOBEPDIGM": {
          "ANLAAGAMIKF": 0,
          "JFMIFLNBKMJ": 3.0,
          "DHGJDIPNDHH": 4.0,
          "MNPDDAKDHGK": "",
          "GJDMDHIBCME": ""
        }
      },
      {
        "$type": "FPELBIJFGCE",
        "enable": true,
        "condition": {
          "pose": [
            2
          ]
        },
        "JMCOBEPDIGM": {
          "NBENNEKDIIA": 0.25,
          "ANMPOPEBDIA": 10.0,
          "GMJFIMFFOEL": 3.0,
          "CHCPFDMADEI": 5.0,
          "MNPDDAKDHGK": ""
        }
      }
    ]
  },
  "inputKeys": [
    {
      "keyID": 201,
      "inputKeyCode": 257,
      "abilityName": ""
    },
    {
      "keyID": 211,
      "inputKeyCode": 258,
      "abilityName": ""
    }
  ],
  "move": {
    "$type": "IPNMJMHDMPF",
    "velocityForce": {
      "muteAll": true
    },
    "initWithGroundHitCheck": false,
    "moveOnWater": true,
    "PKHOMJHFAEE": "RootNode"
  }
}