{
  "common": {
    "effectAttachShape": {
      "$type": "FJNPJANPGGC",
      "mesh": "EffectMesh"
    },
    "mass": 20.0,
    "height": 1.0,
    "affectedByWorld": true,
    "checkInSurface": true,
    "scale": 1.350000023841858,
    "canTriggerElementReactionText": false,
    "useGrassDisplacement": true,
    "reconnectSupport": true,
    "recoverByInitPose": true
  },
  "model": {
    "bornEffect": "",
    "attachEffect": "",
    "canBakeMesh": false,
    "BKPFGNPLDNJ": ""
  },
  "dither": {
    "showDitherDuration": 1.0
  },
  "combat": {
    "property": {
      "endureType": "Monster_Minion",
      "weight": 60.0,
      "isLockHP": true
    },
    "beHit": {
      "hitBloodEffect": ""
    },
    "combatLock": {
      "lockShape": "CircleLockEnemy",
      "lockType": "Animal_Lv2"
    },
    "die": {
      "dieEndTime": 2.0,
      "dieForceDisappearTime": 10.0,
      "dieDisappearEffect": ""
    }
  },
  "abilities": [
    {
      "abilityID": "",
      "abilityName": "Animal_Common_Initial",
      "abilityOverride": ""
    },
    {
      "abilityID": "",
      "abilityName": "Penguin_PhlogistonEffectManager",
      "abilityOverride": ""
    },
    {
      "abilityID": "",
      "abilityName": "Animal_Penguin_Inflated_End",
      "abilityOverride": ""
    },
    {
      "abilityID": "",
      "abilityName": "Animal_Penguin_RollingManager",
      "abilityOverride": ""
    },
    {
      "abilityID": "",
      "abilityName": "Animal_Penguin_WaterStateManager",
      "abilityOverride": ""
    }
  ],
  "stateLayers": {
    "defaultLayer": {
      "$type": "GBGJJIIEMBD",
      "layerIndexName": "",
      "CPAANEIJCGD": "",
      "stateIDs": {
        "Born": {
          "$type": "NEDIFAKEGCO",
          "animatorStates": {
            "Born": []
          },
          "resetAnimatorTriggerOnExit": [
            "DoSkill"
          ]
        },
        "NormalIdle": {
          "$type": "NEDIFAKEGCO",
          "animatorStates": {
            "StandbyLand": [],
            "StandbyLand_Inflated": [
              "Audio_Animal_Penguin_StandbyLand_Inflated"
            ],
            "StandbyLand_Sit": [],
            "Standby_Water": [
              "Animal_Penguin_Water_Idle"
            ],
            "Standby_Water_Inflated": [
              "Animal_Penguin_Water_Idle",
              "Audio_Animal_Penguin_Standby_Water_Inflated"
            ]
          },
          "canDoSkill": true,
          "canSyncMove": true,
          "resetAnimatorTriggerOnExit": [
            "DoSkill"
          ]
        },
        "SitToStand": {
          "$type": "NEDIFAKEGCO",
          "animatorStates": {
            "SitToStand": []
          },
          "canDoSkill": true,
          "canSyncMove": true,
          "resetAnimatorTriggerOnExit": [
            "DoSkill"
          ],
          "followAnimRotation": true
        },
        "StandToSit": {
          "$type": "NEDIFAKEGCO",
          "animatorStates": {
            "StandToSit": []
          },
          "canDoSkill": true,
          "canSyncMove": true,
          "resetAnimatorTriggerOnExit": [
            "DoSkill"
          ],
          "followAnimRotation": true
        },
        "NormalMove": {
          "$type": "NEDIFAKEGCO",
          "animatorStates": {
            "Walk": [
              "Audio_Animal_Penguin_Walk"
            ],
            "Walk_Water": [
              "Animal_Penguin_Water_Moving",
              "Audio_Animal_Penguin_Walk_Water"
            ],
            "Run": [
              "Audio_Animal_Penguin_Run"
            ],
            "Run02": [
              "Audio_Animal_Penguin_Walk"
            ],
            "Run02_ToStandby": [],
            "Run_Water": [
              "Animal_Penguin_Water_Moving",
              "Audio_Animal_Penguin_Walk_Water"
            ]
          },
          "canDoSkill": true,
          "canSyncMove": true,
          "resetAnimatorTriggerOnExit": [
            "DoSkill"
          ],
          "canSteer": true
        },
        "Flee": {
          "$type": "NEDIFAKEGCO",
          "animatorStates": {
            "Flee": [
              "Audio_Animal_Penguin_Walk"
            ],
            "Flee_Water": [
              "Animal_Penguin_Water_Moving",
              "Audio_Animal_Penguin_Walk_Water"
            ]
          },
          "canDoSkill": true,
          "canSyncMove": true,
          "resetAnimatorTriggerOnExit": [
            "DoSkill"
          ],
          "canSteer": true
        },
        "Walk_GroundToWater": {
          "$type": "NEDIFAKEGCO",
          "animatorStates": {
            "Walk_GroundToWater": [
              "Animal_Penguin_Water_Moving",
              "Audio_Animal_Penguin_Walk_Water"
            ],
            "Run_GroundToWater": [
              "Animal_Penguin_Water_Moving",
              "Audio_Animal_Penguin_Walk_Water"
            ],
            "GroundToWater": [
              "Animal_Penguin_Water_Moving",
              "Audio_Animal_Penguin_Walk_Water"
            ]
          },
          "resetAnimatorTriggerOnExit": [
            "DoSkill"
          ],
          "canSteer": true,
          "followAnimRotation": true
        },
        "Walk_WaterToGround": {
          "$type": "NEDIFAKEGCO",
          "animatorStates": {
            "Walk_WaterToGround": [
              "Animal_Penguin_WaterToGround",
              "Audio_Animal_Penguin_WaterToGround"
            ],
            "Run_WaterToGround": [
              "Animal_Penguin_WaterToGround",
              "Audio_Animal_Penguin_WaterToGround"
            ],
            "WaterToGround": [
              "Animal_Penguin_WaterToGround",
              "Audio_Animal_Penguin_WaterToGround"
            ]
          },
          "resetAnimatorTriggerOnExit": [
            "DoSkill"
          ],
          "canSteer": true,
          "followAnimRotation": true
        },
        "BeHit": {
          "$type": "NEDIFAKEGCO",
          "animatorStates": {
            "HitShake": [
              "Audio_Animal_Penguin_Hit_BS",
              "Audio_Animal_Penguin_Hit_Water_BS"
            ],
            "Hit_L": [
              "Audio_Animal_Penguin_Hit_BS",
              "Audio_Animal_Penguin_Hit_Water_BS"
            ],
            "Hit_H": [
              "Audio_Animal_Penguin_Hit_Rolling_Water_BS",
              "Audio_Animal_Penguin_Hit_Rolling_BS"
            ],
            "Hit_Rolling_Loop": [
              "Audio_Animal_Penguin_Hit_Rolling_Loop"
            ],
            "Hit_Rolling_Loop02": [
              "Audio_Animal_Penguin_Hit_Rolling_Loop"
            ],
            "Hit_Rolling_AS": [
              "Audio_Animal_Penguin_Hit_Rolling_BS"
            ],
            "Hit_Rolling_Loop_Water": [
              "Animal_Penguin_Rolling_Water",
              "Audio_Animal_Penguin_Hit_Rolling_Water_Loop"
            ],
            "Hit_Rolling_Loop_Water02": [
              "Animal_Penguin_Rolling_Water",
              "Audio_Animal_Penguin_Hit_Rolling_Water_Loop"
            ],
            "Hit_Rolling_AS_Water": [
              "Animal_Penguin_Rolling_Water",
              "Audio_Animal_Penguin_Hit_Rolling_BS"
            ]
          },
          "resetAnimatorTriggerOnEnter": [
            "BeHit",
            "ShakeTrigger"
          ],
          "resetAnimatorTriggerOnExit": [
            "DoSkill",
            "RollingStopTrigger",
            "ShakeTrigger"
          ],
          "handleAnimatorStateImmediately": true
        },
        "BeHitThrow": {
          "$type": "NEDIFAKEGCO",
          "animatorStates": {
            "HitThrow": [
              "Audio_Animal_Penguin_HitThrow"
            ],
            "HitThrowDrop": []
          },
          "resetAnimatorTriggerOnEnter": [
            "BeHit",
            "HitAir2HitDrop"
          ],
          "resetAnimatorTriggerOnExit": [
            "DoSkill",
            "BeHit"
          ]
        },
        "BeHitThrowToStandby": {
          "$type": "NEDIFAKEGCO",
          "animatorStates": {
            "HitThrowToGround": [
              "Audio_Animal_Penguin_HitThrowToGround"
            ],
            "HitThrowToGround_Water": [
              "Animal_Penguin_HitThrowToGround_Water",
              "Animal_Penguin_Water_Idle",
              "Audio_Animal_Penguin_HitThrowToGround_Water"
            ]
          },
          "resetAnimatorTriggerOnEnter": [
            "BeHit",
            "HitAir2HitDrop"
          ],
          "resetAnimatorTriggerOnExit": [
            "DoSkill",
            "BeHit"
          ]
        },
        "Struggle": {
          "$type": "NEDIFAKEGCO",
          "animatorStates": {
            "Struggle": []
          },
          "resetAnimatorTriggerOnEnter": [
            "BeHit",
            "HitAir2HitDrop"
          ],
          "resetAnimatorTriggerOnExit": [
            "DoSkill"
          ]
        },
        "Die": {
          "$type": "NEDIFAKEGCO",
          "animatorStates": {
            "Die": []
          },
          "resetAnimatorTriggerOnEnter": [
            "DoSkill"
          ]
        },
        "Alert": {
          "$type": "NEDIFAKEGCO",
          "animatorStates": {
            "Alert": [
              "Audio_Animal_Penguin_Hit_BS"
            ],
            "Alert_Water": [
              "Audio_Animal_Penguin_Hit_Water_BS"
            ]
          },
          "resetAnimatorTriggerOnEnter": [
            "DoSkill"
          ],
          "resetAnimatorTriggerOnExit": [
            "DoSkill"
          ]
        },
        "Inflated_AS": {
          "$type": "NEDIFAKEGCO",
          "animatorStates": {
            "Inflated_AS": [
              "Audio_Animal_Penguin_Inflated_AS"
            ]
          },
          "resetAnimatorTriggerOnEnter": [
            "DoSkill"
          ],
          "resetAnimatorTriggerOnExit": [
            "DoSkill"
          ]
        },
        "Inflated_Water_AS": {
          "$type": "NEDIFAKEGCO",
          "animatorStates": {
            "Inflated_Water_AS": [
              "Audio_Animal_Penguin_Inflated_Water_AS"
            ]
          },
          "resetAnimatorTriggerOnEnter": [
            "DoSkill"
          ],
          "resetAnimatorTriggerOnExit": [
            "DoSkill"
          ]
        },
        "Inflated_AS02": {
          "$type": "NEDIFAKEGCO",
          "animatorStates": {
            "Inflated_AS02": [
              "Animal_Penguin_Inflated_End"
            ]
          },
          "resetAnimatorTriggerOnEnter": [
            "DoSkill"
          ],
          "resetAnimatorTriggerOnExit": [
            "DoSkill"
          ]
        },
        "Inflated_Water_AS02": {
          "$type": "NEDIFAKEGCO",
          "animatorStates": {
            "Inflated_Water_AS02": [
              "Animal_Penguin_Inflated_End",
              "Animal_Penguin_Water_Idle"
            ]
          },
          "resetAnimatorTriggerOnEnter": [
            "DoSkill"
          ],
          "resetAnimatorTriggerOnExit": [
            "DoSkill"
          ]
        },
        "ReactActionPoint_Sit": {
          "$type": "NEDIFAKEGCO",
          "animatorStates": {
            "ReactActionPoint_Sit": [
              "Audio_Animal_Penguin_Personality1"
            ]
          },
          "resetAnimatorTriggerOnEnter": [
            "DoSkill"
          ],
          "resetAnimatorTriggerOnExit": [
            "DoSkill"
          ],
          "followAnimRotation": true
        },
        "Personality1": {
          "$type": "NEDIFAKEGCO",
          "animatorStates": {
            "Personality1": [
              "Audio_Animal_Penguin_Personality1"
            ]
          },
          "resetAnimatorTriggerOnEnter": [
            "DoSkill"
          ],
          "resetAnimatorTriggerOnExit": [
            "DoSkill"
          ],
          "canSteer": true,
          "followAnimRotation": true
        },
        "Personality2": {
          "$type": "NEDIFAKEGCO",
          "animatorStates": {
            "Personality2": [
              "Audio_Animal_Penguin_Personality2_Water"
            ]
          },
          "resetAnimatorTriggerOnEnter": [
            "DoSkill"
          ],
          "resetAnimatorTriggerOnExit": [
            "DoSkill"
          ],
          "canSteer": true,
          "followAnimRotation": true
        },
        "Personality1_Water": {
          "$type": "NEDIFAKEGCO",
          "animatorStates": {
            "Personality1_Water_BS": [
              "Animal_Penguin_Water_Idle",
              "Audio_Animal_Penguin_HitThrowToGround_Water"
            ],
            "Personality1_Water_Loop": [
              "Audio_Animal_Penguin_Personality1_Water_Loop"
            ],
            "Personality1_Water_AS": [
              "Animal_Penguin_Personality1_Water_AS",
              "Animal_Penguin_Water_Idle",
              "Audio_Animal_Penguin_Personality1_Water_AS"
            ]
          },
          "resetAnimatorTriggerOnEnter": [
            "DoSkill"
          ],
          "resetAnimatorTriggerOnExit": [
            "DoSkill"
          ],
          "canSteer": true,
          "followAnimRotation": true
        },
        "Personality2_Water": {
          "$type": "NEDIFAKEGCO",
          "animatorStates": {
            "Personality2_Water": [
              "Animal_Penguin_Water_Moving",
              "Animal_Penguin_Water_Idle",
              "Audio_Animal_Penguin_Personality2_Water"
            ]
          },
          "resetAnimatorTriggerOnEnter": [
            "DoSkill"
          ],
          "resetAnimatorTriggerOnExit": [
            "DoSkill"
          ],
          "canSteer": true,
          "followAnimRotation": true
        }
      }
    }
  },
  "initialPoses": {
    "Default": {
      "initialPoseID": 1001,
      "initialPoseParams": {
        "intParams": {
          "RandomPose": "1001"
        }
      }
    },
    "Default_Temp": {
      "initialPoseID": 1,
      "released": false,
      "initialPoseParams": {
        "intParams": {
          "RandomPose": "1"
        }
      }
    },
    "Land_FollowRoute": {
      "initialPoseID": 1101,
      "initialPoseParams": {
        "intParams": {
          "RandomPose": "1101"
        }
      }
    },
    "Land_OnlySit": {
      "initialPoseID": 1202,
      "initialPoseParams": {
        "intParams": {
          "RandomPose": "1202"
        }
      }
    },
    "Water_Play": {
      "initialPoseID": 2101,
      "initialPoseParams": {
        "intParams": {
          "RandomPose": "2101"
        }
      }
    },
    "Water_DiveAmbush": {
      "initialPoseID": 2102,
      "initialPoseParams": {
        "intParams": {
          "RandomPose": "2102"
        }
      }
    },
    "Water_OnlyWalk": {
      "initialPoseID": 2103,
      "initialPoseParams": {
        "intParams": {
          "RandomPose": "2103"
        }
      }
    }
  },
  "aibeta": {
    "enable": true,
    "friendliness": 1,
    "decisionArchetype": "Animal_Penguin",
    "moveSetting": {
      "moveCategory": "Amphibious",
      "navMeshAgentName": "Undead01",
      "almostReachedDistanceWalk": 0.10000000149011612,
      "almostReachedDistanceRun": 0.20000000298023224
    },
    "sensing": {
      "settings": {
        "DefaultSetting": {
          "viewRange": 10.0
        },
        "NoSensing": {
          "viewRange": 0.0,
          "hearAttractionRange": 0.0,
          "feelRange": 0.0
        }
      },
      "templates": {
        "DefaultTemplate": {
          "DefaultPoses": "DefaultSetting"
        },
        "NoSensingTemplate": {
          "DefaultPoses": "NoSensing"
        }
      }
    },
    "neurons": {
      "DefaultSetting": [
        "HIT",
        "SURROUND"
      ]
    },
    "threat": {
      "GHIJMOKOLMB": "",
      "clearThreatTargetDistance": 15.0,
      "clearThreatTimerByDistance": 1.0,
      "threatDecreaseSpeed": 500.0
    },
    "defendArea": {
      "defendRange": 50.0
    },
    "poseControl": {
      "items": [
        {
          "minTime": 15.0,
          "maxTime": 30.0,
          "poseID": 1001,
          "randomPose": [
            1201
          ],
          "switchOnlyInCanDoSkillState": true
        },
        {
          "minTime": 15.0,
          "maxTime": 30.0,
          "poseID": 1201,
          "randomPose": [
            1001
          ],
          "switchOnlyInCanDoSkillState": true
        },
        {
          "minTime": 5.0,
          "maxTime": 15.0,
          "poseID": 1002,
          "randomPose": [
            1001
          ],
          "switchOnlyInCanDoSkillState": true
        },
        {
          "minTime": 5.0,
          "maxTime": 15.0,
          "poseID": 2002,
          "randomPose": [
            1001
          ],
          "switchOnlyInCanDoSkillState": true
        }
      ]
    },
    "ui": {
      "hasDirectionIndicator": false,
      "HMNNBFDEHLG": ""
    },
    "skills": {
      "13011": {
        "name": "Inflated_AS",
        "castCondition": {
          "pose": [
            1301
          ],
          "needReInitCD": true
        },
        "initialCD": 9.0,
        "initialCDUpperRange": 2.0,
        "publicCDGroup": "",
        "ignoreGCD": true,
        "triggerGCD": false,
        "HHAGODJIAPE": "",
        "stateIDs": [
          "Inflated_AS"
        ],
        "skillQueryingTime": 3.0,
        "flagTargetReachable": "11",
        "flagSelfOnTemplateCollider": "11",
        "flagSelfInZone": "11",
        "flagTargetInZone": "11"
      },
      "13012": {
        "name": "Inflated_AS",
        "skillType": "Free",
        "castCondition": {
          "pose": [
            1301
          ],
          "needReInitCD": true
        },
        "initialCD": 9.0,
        "initialCDUpperRange": 2.0,
        "publicCDGroup": "",
        "ignoreGCD": true,
        "triggerGCD": false,
        "HHAGODJIAPE": "",
        "stateIDs": [
          "Inflated_AS"
        ],
        "skillQueryingTime": 3.0,
        "flagTargetReachable": "11",
        "flagSelfOnTemplateCollider": "11",
        "flagSelfInZone": "11",
        "flagTargetInZone": "11"
      },
      "23011": {
        "name": "Inflated_Water_AS",
        "castCondition": {
          "pose": [
            2301
          ],
          "needReInitCD": true
        },
        "initialCD": 9.0,
        "initialCDUpperRange": 2.0,
        "publicCDGroup": "",
        "ignoreGCD": true,
        "triggerGCD": false,
        "HHAGODJIAPE": "",
        "stateIDs": [
          "Inflated_Water_AS"
        ],
        "skillQueryingTime": 3.0,
        "flagTargetReachable": "11",
        "flagSelfOnTemplateCollider": "11",
        "flagSelfInZone": "11",
        "flagTargetInZone": "11"
      },
      "23012": {
        "name": "Inflated_Water_AS",
        "skillType": "Free",
        "castCondition": {
          "pose": [
            2301
          ],
          "needReInitCD": true
        },
        "initialCDUpperRange": 3.0,
        "publicCDGroup": "",
        "ignoreGCD": true,
        "triggerGCD": false,
        "HHAGODJIAPE": "",
        "stateIDs": [
          "Inflated_Water_AS"
        ],
        "skillQueryingTime": 3.0,
        "flagTargetReachable": "11",
        "flagSelfOnTemplateCollider": "11",
        "flagSelfInZone": "11",
        "flagTargetInZone": "11"
      },
      "10011": {
        "name": "Personality1",
        "skillType": "Free",
        "castCondition": {
          "pose": [
            1001
          ],
          "needReInitCD": true
        },
        "cd": 12.0,
        "cdUpperRange": 12.0,
        "initialCD": 6.0,
        "initialCDUpperRange": 12.0,
        "publicCDGroup": "",
        "ignoreGCD": true,
        "triggerGCD": false,
        "HHAGODJIAPE": "",
        "stateIDs": [
          "Personality1"
        ],
        "skillQueryingTime": 3.0,
        "flagTargetReachable": "11",
        "flagSelfOnTemplateCollider": "11",
        "flagSelfInZone": "11",
        "flagTargetInZone": "11"
      },
      "10012": {
        "name": "Personality1",
        "castCondition": {
          "pose": [
            1001
          ],
          "needReInitCD": true
        },
        "cd": 12.0,
        "cdUpperRange": 12.0,
        "initialCD": 6.0,
        "initialCDUpperRange": 12.0,
        "publicCDGroup": "",
        "ignoreGCD": true,
        "triggerGCD": false,
        "HHAGODJIAPE": "",
        "stateIDs": [
          "Personality1"
        ],
        "skillQueryingTime": 3.0,
        "flagTargetReachable": "11",
        "flagSelfOnTemplateCollider": "11",
        "flagSelfInZone": "11",
        "flagTargetInZone": "11"
      },
      "10031": {
        "name": "ReactActionPoint_Sit",
        "skillType": "ActionPoint",
        "publicCDGroup": "",
        "ignoreGCD": true,
        "triggerGCD": false,
        "HHAGODJIAPE": "",
        "stateIDs": [
          "ReactActionPoint_Sit"
        ],
        "flagTargetReachable": "10",
        "flagSelfOnTemplateCollider": "01",
        "flagSelfInZone": "10",
        "flagTargetInZone": "11"
      },
      "12011": {
        "name": "Personality2",
        "skillType": "Free",
        "castCondition": {
          "pose": [
            1201,
            1202,
            1203
          ],
          "needReInitCD": true
        },
        "cd": 12.0,
        "cdUpperRange": 12.0,
        "initialCD": 6.0,
        "initialCDUpperRange": 12.0,
        "publicCDGroup": "",
        "ignoreGCD": true,
        "triggerGCD": false,
        "HHAGODJIAPE": "",
        "stateIDs": [
          "Personality2"
        ],
        "skillQueryingTime": 3.0,
        "flagTargetReachable": "11",
        "flagSelfOnTemplateCollider": "11",
        "flagSelfInZone": "11",
        "flagTargetInZone": "11"
      },
      "12012": {
        "name": "Personality2",
        "castCondition": {
          "pose": [
            1201,
            1202,
            1203
          ],
          "needReInitCD": true
        },
        "cd": 12.0,
        "cdUpperRange": 12.0,
        "initialCD": 6.0,
        "initialCDUpperRange": 12.0,
        "publicCDGroup": "",
        "ignoreGCD": true,
        "triggerGCD": false,
        "HHAGODJIAPE": "",
        "stateIDs": [
          "Personality2"
        ],
        "skillQueryingTime": 3.0,
        "flagTargetReachable": "11",
        "flagSelfOnTemplateCollider": "11",
        "flagSelfInZone": "11",
        "flagTargetInZone": "11"
      },
      "20011": {
        "name": "Personality1_Water",
        "skillType": "Free",
        "castCondition": {
          "pose": [
            2001,
            2102
          ],
          "needReInitCD": true
        },
        "cd": 12.0,
        "cdUpperRange": 12.0,
        "initialCD": 6.0,
        "initialCDUpperRange": 12.0,
        "publicCDGroup": "",
        "ignoreGCD": true,
        "triggerGCD": false,
        "HHAGODJIAPE": "",
        "stateIDs": [
          "Personality1_Water"
        ],
        "skillQueryingTime": 3.0,
        "flagTargetReachable": "11",
        "flagSelfOnTemplateCollider": "11",
        "flagSelfInZone": "11",
        "flagTargetInZone": "11"
      },
      "20012": {
        "name": "Personality2_Water",
        "skillType": "Free",
        "castCondition": {
          "pose": [
            2001,
            2101
          ],
          "needReInitCD": true,
          "pickRangeByRaycast": [
            {
              "min": 3.5,
              "raycastType": "DownToGroundOnlyInWater"
            }
          ]
        },
        "cd": 12.0,
        "cdUpperRange": 12.0,
        "initialCD": 6.0,
        "initialCDUpperRange": 12.0,
        "publicCDGroup": "",
        "ignoreGCD": true,
        "triggerGCD": false,
        "HHAGODJIAPE": "",
        "stateIDs": [
          "Personality2_Water"
        ],
        "skillQueryingTime": 3.0,
        "flagTargetReachable": "11",
        "flagSelfOnTemplateCollider": "11",
        "flagSelfInZone": "11",
        "flagTargetInZone": "11"
      },
      "20013": {
        "name": "Personality1_Water",
        "castCondition": {
          "pose": [
            2001,
            2102
          ],
          "needReInitCD": true,
          "pickRangeByRaycast": [
            {
              "min": 3.5,
              "raycastType": "DownToGroundOnlyInWater"
            }
          ]
        },
        "cd": 12.0,
        "cdUpperRange": 12.0,
        "initialCD": 6.0,
        "initialCDUpperRange": 12.0,
        "publicCDGroup": "",
        "ignoreGCD": true,
        "triggerGCD": false,
        "HHAGODJIAPE": "",
        "stateIDs": [
          "Personality1_Water"
        ],
        "skillQueryingTime": 3.0,
        "flagTargetReachable": "11",
        "flagSelfOnTemplateCollider": "11",
        "flagSelfInZone": "11",
        "flagTargetInZone": "11"
      },
      "20014": {
        "name": "Personality2_Water",
        "castCondition": {
          "pose": [
            2001,
            2101
          ],
          "needReInitCD": true
        },
        "cd": 12.0,
        "cdUpperRange": 12.0,
        "initialCD": 6.0,
        "initialCDUpperRange": 12.0,
        "publicCDGroup": "",
        "ignoreGCD": true,
        "triggerGCD": false,
        "HHAGODJIAPE": "",
        "stateIDs": [
          "Personality2_Water"
        ],
        "skillQueryingTime": 3.0,
        "flagTargetReachable": "11",
        "flagSelfOnTemplateCollider": "11",
        "flagSelfInZone": "11",
        "flagTargetInZone": "11"
      }
    },
    "skillGCD": 5.0,
    "mixin": {
      "setControllerParameterOnBeHitByEntityType": [
        {
          "poseIDs": [
            1001,
            1002,
            1101,
            1201,
            1202,
            1203,
            2001,
            2002,
            2101,
            2102,
            2103
          ],
          "settings": [
            {
              "entityTypes": [
                "Avatar",
                "Monster",
                "Gadget",
                "Bullet"
              ],
              "onSuccess": {
                "setPoseBool": [
                  {
                    "boolID": "Inflated",
                    "param3": true
                  }
                ],
                "setPoseInt": [
                  {
                    "intID": "RandomPose",
                    "value": 1002
                  }
                ]
              },
              "onFail": {
                "setPoseBool": [
                  {
                    "boolID": "Inflated",
                    "param3": true
                  }
                ],
                "setPoseInt": [
                  {
                    "intID": "RandomPose",
                    "value": 1002
                  }
                ]
              }
            }
          ]
        }
      ]
    },
    "birdCirclingTactic": [
      {
        "$type": "GPEMIAJPPJG",
        "enable": true,
        "condition": {
          "pose": [
            1001,
            1101,
            2103
          ]
        },
        "JMCOBEPDIGM": {
          "ANLAAGAMIKF": 1,
          "KFFGCIMPNMJ": 3.0,
          "AGMEGKALFMJ": 20.0,
          "MNPDDAKDHGK": "",
          "GJDMDHIBCME": ""
        },
        "PIOCBHLFLJP": {
          "2103": {
            "ANLAAGAMIKF": 1,
            "KFFGCIMPNMJ": 3.0,
            "AGMEGKALFMJ": 20.0,
            "MNPDDAKDHGK": "",
            "GJDMDHIBCME": "",
            "JDEBKLACPED": true
          }
        }
      },
      {
        "$type": "COLLJLNKMLC",
        "enable": true,
        "condition": {
          "pose": [
            1001,
            1101,
            2103
          ]
        },
        "JMCOBEPDIGM": {
          "DMGAHPPFMPK": 1.0,
          "FLENLLDBFGP": 1.0,
          "MNPDDAKDHGK": "",
          "GJDMDHIBCME": "",
          "PLLHMGHOAPB": "",
          "KPIJNGFNAEF": "",
          "GDPHPLKJGAJ": "",
          "KKKOAABEHEP": ""
        },
        "PIOCBHLFLJP": {
          "2103": {
            "DMGAHPPFMPK": 1.0,
            "FLENLLDBFGP": 1.0,
            "MNPDDAKDHGK": "",
            "GJDMDHIBCME": "",
            "JDEBKLACPED": true,
            "PLLHMGHOAPB": "",
            "KPIJNGFNAEF": "",
            "GDPHPLKJGAJ": "",
            "KKKOAABEHEP": ""
          }
        }
      },
      {
        "$type": "MCDGOJLCMBM",
        "enable": true,
        "condition": {
          "pose": [
            1001,
            1101,
            2103
          ]
        },
        "JMCOBEPDIGM": {
          "DMGAHPPFMPK": 1.0,
          "FLENLLDBFGP": 1.0,
          "MNPDDAKDHGK": "",
          "GJDMDHIBCME": ""
        },
        "PIOCBHLFLJP": {
          "2103": {
            "DMGAHPPFMPK": 1.0,
            "FLENLLDBFGP": 1.0,
            "MNPDDAKDHGK": "",
            "GJDMDHIBCME": "",
            "JDEBKLACPED": true
          }
        }
      },
      {
        "$type": "HGJGHLOFFHM",
        "enable": true,
        "JMCOBEPDIGM": {
          "INNFLICONNE": [
            {
              "pointType": "SleepPoint",
              "detectDistance": 20.0,
              "pose": [
                1003,
                2003
              ],
              "nerveTrigger": [
                "SURROUND"
              ],
              "skillID": 10031
            }
          ]
        }
      },
      {
        "$type": "NNJKLGNPMNN"
      },
      {
        "$type": "ODHNBPJLGHF",
        "enable": true,
        "condition": {
          "pose": [
            1002,
            1004,
            2004
          ]
        },
        "JMCOBEPDIGM": {
          "cd": 0.0,
          "triggerDistance": 8.0,
          "CMDFDIPMGKI": 3,
          "KAIGBDPLNMO": 9.0,
          "BMIEPFCPFGN": 18.0,
          "MNPDDAKDHGK": ""
        },
        "PIOCBHLFLJP": {
          "2002": {
            "cd": 0.0,
            "triggerDistance": 8.0,
            "CMDFDIPMGKI": 3,
            "KAIGBDPLNMO": 9.0,
            "BMIEPFCPFGN": 18.0,
            "MNPDDAKDHGK": "",
            "JDEBKLACPED": true
          },
          "2004": {
            "cd": 0.0,
            "triggerDistance": 8.0,
            "CMDFDIPMGKI": 3,
            "KAIGBDPLNMO": 9.0,
            "BMIEPFCPFGN": 18.0,
            "MNPDDAKDHGK": "",
            "JDEBKLACPED": true
          }
        }
      },
      {
        "$type": "FPELBIJFGCE",
        "enable": true,
        "condition": {
          "pose": [
            1001,
            2001
          ]
        },
        "GNBDAEHGLHI": [
          0,
          1,
          2
        ],
        "JMCOBEPDIGM": {
          "NBENNEKDIIA": 2.0,
          "KPNDPKIOPJM": 12.5,
          "PINAFKEDDLL": 7.5,
          "ANMPOPEBDIA": 15.0,
          "GMJFIMFFOEL": 5.0,
          "CHCPFDMADEI": 7.5,
          "MNPDDAKDHGK": ""
        },
        "PIOCBHLFLJP": {
          "2001": {
            "NBENNEKDIIA": 2.0,
            "KPNDPKIOPJM": 12.5,
            "PINAFKEDDLL": 7.5,
            "ANMPOPEBDIA": 15.0,
            "GMJFIMFFOEL": 5.0,
            "CHCPFDMADEI": 7.5,
            "MNPDDAKDHGK": "",
            "JDEBKLACPED": true
          }
        }
      }
    ]
  },
  "inputKeys": [
    {
      "keyID": 10011,
      "inputKeyCode": 257,
      "abilityName": ""
    },
    {
      "keyID": 10012,
      "inputKeyCode": 258,
      "abilityName": ""
    },
    {
      "keyID": 20011,
      "inputKeyCode": 259,
      "abilityName": ""
    },
    {
      "keyID": 20012,
      "inputKeyCode": 260,
      "abilityName": ""
    }
  ],
  "move": {
    "$type": "IPNMJMHDMPF",
    "moveOnWater": true,
    "moveOnWaterDepth": 0.7200000286102295,
    "raycasts": [
      {
        "raycastLength": 10.0,
        "raycastType": "DownToGroundOnlyInWater",
        "startPoint": ""
      }
    ],
    "deepWaterLevel": 0.20000000298023224,
    "facingMove": "FourDirection",
    "monsterSizeType": "StoopType",
    "destroyRockWhenInit": true,
    "PKHOMJHFAEE": "RootNode"
  },
  "audio": {
    "overrideEmitterName": "",
    "animAudio": {
      "onTransitionOut": [
        {
          "currentStateName": "Inflated_Water_AS",
          "audioEvent": {
            "text": "Stop_Penguin_Stop"
          }
        },
        {
          "currentStateName": "HitShake",
          "audioEvent": {
            "text": "Stop_Penguin_Stop"
          }
        },
        {
          "currentStateName": "Hit_L",
          "audioEvent": {
            "text": "Stop_Penguin_Stop"
          }
        },
        {
          "currentStateName": "Alert",
          "audioEvent": {
            "text": "Stop_Penguin_Stop"
          }
        },
        {
          "currentStateName": "HitThrowToGround",
          "audioEvent": {
            "text": "Stop_Penguin_Stop"
          }
        },
        {
          "currentStateName": "HitThrowToGround_Water",
          "audioEvent": {
            "text": "Stop_Penguin_Stop"
          }
        },
        {
          "currentStateName": "Personality1_Water_BS",
          "audioEvent": {
            "text": "Stop_Penguin_Stop"
          }
        },
        {
          "currentStateName": "Inflated_AS",
          "audioEvent": {
            "text": "Stop_Penguin_Stop"
          }
        },
        {
          "currentStateName": "Inflated_Water_AS",
          "audioEvent": {
            "text": "Stop_Penguin_Stop"
          }
        },
        {
          "currentStateName": "Standby_Water_Inflated",
          "audioEvent": {
            "text": "Stop_Penguin_Stop"
          }
        }
      ]
    },
    "behaviours": [
      {
        "$type": "FKDHOPDMFHG",
        "IKJGOJBCAPG": {
          "$type": "MPCIPAGHJNA",
          "interval": 5
        },
        "JDCAENIOKPB": [
          {
            "$type": "HNHPMJIAKHO",
            "OPEMPFCFHMO": "__DefaultSync__",
            "rtpcKey": {
              "text": "Param_Penguin_PoseID"
            },
            "PKCNKIKHCDB": "PoseID"
          }
        ]
      }
    ]
  },
  "animal": {
    "tickAbilityElement": false,
    "hasCharacterRenderering": false
  },
  "captureGroup": {
    "defaultConfig": {
      "captureEffect": "Eff_SceneObj_CatchAnimal_CaughtSuccess"
    }
  }
}