{
  "common": {
    "effectAttachShape": {
      "$type": "FJNPJANPGGC",
      "mesh": "EffectMesh"
    },
    "mass": 20.0,
    "viewSize": 0.5,
    "affectedByWorld": true,
    "checkInSurface": true,
    "scale": 1.2000000476837158,
    "canTriggerElementReactionText": false
  },
  "model": {
    "bornEffect": "",
    "attachEffect": "",
    "canBakeMesh": false,
    "BKPFGNPLDNJ": ""
  },
  "combat": {
    "property": {
      "endureType": "Monster_Minion",
      "weight": 30.0,
      "isInvincible": true
    },
    "beHit": {
      "hitBloodEffect": "",
      "muteAllHitText": true
    },
    "combatLock": {
      "lockShape": "CircleLockEnemy",
      "lockType": "Animal_Lv2"
    },
    "die": {
      "dieEndTime": 0.009999999776482582,
      "dieForceDisappearTime": 10.0,
      "dieDisappearEffect": "Eff_Animal_Common_Die"
    }
  },
  "stateLayers": {
    "defaultLayer": {
      "$type": "GBGJJIIEMBD",
      "layerIndexName": "",
      "CPAANEIJCGD": "",
      "stateIDs": {
        "Born": {
          "$type": "NEDIFAKEGCO",
          "animatorStates": {
            "Born": [
              "Audio_Frog_Standby"
            ]
          },
          "resetAnimatorTriggerOnExit": [
            "DoSkill"
          ]
        },
        "NormalIdle": {
          "$type": "NEDIFAKEGCO",
          "animatorStates": {
            "Standby": [
              "Audio_Frog_Standby"
            ]
          },
          "canDoSkill": true,
          "canSyncMove": true,
          "resetAnimatorTriggerOnExit": [
            "DoSkill"
          ]
        },
        "NormalMove": {
          "$type": "NEDIFAKEGCO",
          "animatorStates": {
            "Walk": [
              "Audio_Frog_Walk"
            ],
            "Run": [
              "Audio_Frog_Run"
            ],
            "Run_AS": [
              "Audio_Frog_Run"
            ]
          },
          "canDoSkill": true,
          "canSyncMove": true,
          "resetAnimatorTriggerOnExit": [
            "DoSkill"
          ],
          "canSteer": true
        },
        "BeHit": {
          "$type": "NEDIFAKEGCO",
          "animatorStates": {
            "Hit_L": [
              "Audio_Frog_Standby"
            ]
          },
          "resetAnimatorTriggerOnEnter": [
            "BeHit"
          ],
          "resetAnimatorTriggerOnExit": [
            "DoSkill"
          ]
        },
        "Disappear": {
          "$type": "NEDIFAKEGCO",
          "animatorStates": {
            "Disappear": [
              "Animal_Frog_Disappear",
              "Audio_Frog_Run"
            ]
          }
        },
        "Die": {
          "$type": "NEDIFAKEGCO",
          "animatorStates": {
            "Die": [
              "Animal_Frog_Die",
              "Audio_Frog_Standby"
            ]
          }
        }
      }
    }
  },
  "initialPoses": {
    "Default": {}
  },
  "aibeta": {
    "enable": true,
    "friendliness": 1,
    "decisionArchetype": "Animal_Homeworld",
    "sensing": {
      "settings": {
        "DefaultSetting": {
          "enableVision": false,
          "feelRange": 7.5
        }
      }
    },
    "neurons": {
      "DefaultSetting": [
        "HIT"
      ]
    },
    "threat": {
      "GHIJMOKOLMB": "",
      "viewThreatGrow": 75.0,
      "feelThreatGrow": 1000.0,
      "threatBroadcastRange": 5.0
    },
    "defendArea": {
      "defendRange": 100.0
    },
    "ui": {
      "hasDirectionIndicator": false,
      "HMNNBFDEHLG": ""
    },
    "mixin": {
      "setControllerParameterOnBeHitByEntityType": [
        {
          "poseIDs": [
            1,
            102
          ],
          "settings": [
            {
              "entityTypes": [
                "Avatar",
                "Monster",
                "Gadget",
                "Bullet"
              ],
              "onSuccess": {
                "setPoseBool": [
                  {
                    "boolID": "FleeState",
                    "param3": true
                  }
                ]
              },
              "onFail": {
                "setPoseBool": [
                  {
                    "boolID": "FleeState",
                    "param3": true
                  }
                ]
              }
            }
          ]
        }
      ]
    },
    "birdCirclingTactic": [
      {
        "$type": "ODHNBPJLGHF",
        "enable": true,
        "condition": {
          "pose": [
            101
          ]
        },
        "nerveTrigger": [
          "HIT"
        ],
        "JMCOBEPDIGM": {
          "NBENNEKDIIA": 1.0,
          "cd": 0.0,
          "triggerDistance": 200.0,
          "MMGOBGGLBJO": 90.0,
          "EMNPEHPCDLB": 2,
          "CMDFDIPMGKI": 3,
          "KAIGBDPLNMO": 8.0,
          "BMIEPFCPFGN": 11.0,
          "IAADAJPFDJO": 3.0,
          "MNPDDAKDHGK": ""
        }
      },
      {
        "$type": "NNJKLGNPMNN",
        "enable": true
      },
      {
        "$type": "FPELBIJFGCE",
        "enable": true,
        "GNBDAEHGLHI": [
          0,
          1,
          2
        ],
        "JMCOBEPDIGM": {
          "KPNDPKIOPJM": 20.0,
          "PINAFKEDDLL": 10.0,
          "ANMPOPEBDIA": 10.0,
          "GMJFIMFFOEL": 1.5,
          "CHCPFDMADEI": 3.0,
          "MNPDDAKDHGK": ""
        }
      }
    ]
  },
  "animal": {
    "hasAbility": false,
    "tickAbilityElement": false,
    "hasCharacterRenderering": false
  }
}