{
  "common": {
    "effectAttachShape": {
      "$type": "FJNPJANPGGC",
      "mesh": "EffectMesh"
    },
    "mass": 45.0,
    "height": 1.0,
    "affectedByWorld": true,
    "checkInSurface": true,
    "scale": 1.2000000476837158,
    "canTriggerElementReactionText": false,
    "useGrassDisplacement": true
  },
  "model": {
    "bornEffect": "",
    "attachEffect": "",
    "canBakeMesh": false,
    "BKPFGNPLDNJ": ""
  },
  "dither": {
    "showDitherDuration": 1.0
  },
  "combat": {
    "property": {
      "endureType": "Monster_Minion",
      "weight": 50.0
    },
    "beHit": {
      "hitBloodEffect": "",
      "muteAllHitText": true
    },
    "combatLock": {
      "lockShape": "CircleLockEnemy",
      "lockType": "Animal_Lv2"
    },
    "die": {
      "dieEndTime": 2.0,
      "dieForceDisappearTime": 10.0,
      "dieDisappearEffect": ""
    }
  },
  "abilities": [
    {
      "abilityID": "CommonInitial",
      "abilityName": "Animal_Common_Initial",
      "abilityOverride": ""
    },
    {
      "abilityID": "AIStateInitial",
      "abilityName": "Animal_Fox_AIStateInitial",
      "abilityOverride": ""
    },
    {
      "abilityID": "Random",
      "abilityName": "Animal_Fox_Random",
      "abilityOverride": ""
    },
    {
      "abilityID": "Disappear",
      "abilityName": "Animal_Fox_Disappear",
      "abilityOverride": ""
    },
    {
      "abilityID": "Animal_Fox_AwareTigger",
      "abilityName": "Animal_Fox_AwareTigger",
      "abilityOverride": ""
    },
    {
      "abilityID": "Alet",
      "abilityName": "Animal_Fox_02_Alert",
      "abilityOverride": ""
    }
  ],
  "stateLayers": {
    "defaultLayer": {
      "$type": "GBGJJIIEMBD",
      "layerIndexName": "",
      "CPAANEIJCGD": "",
      "stateIDs": {
        "Born": {
          "$type": "NEDIFAKEGCO",
          "animatorStates": {
            "Born": [
              "Audio_Fox_Born"
            ]
          },
          "canDoSkill": true
        },
        "NormalIdle": {
          "$type": "NEDIFAKEGCO",
          "animatorStates": {
            "Standby": [],
            "Standby_Alert": [],
            "Standby_Prone": []
          },
          "canDoSkill": true,
          "canSyncMove": true,
          "resetAnimatorTriggerOnExit": [
            "DoSkill"
          ]
        },
        "NormalMove": {
          "$type": "NEDIFAKEGCO",
          "animatorStates": {
            "Walk": [
              "Audio_Fox_Walk"
            ],
            "Run": [
              "Audio_Fox_Run"
            ]
          },
          "canSyncMove": true,
          "resetAnimatorTriggerOnExit": [
            "DoSkill"
          ],
          "canSteer": true
        },
        "BeHit": {
          "$type": "NEDIFAKEGCO",
          "animatorStates": {
            "Hit_L": [
              "Audio_Fox_Hit_L"
            ]
          },
          "resetAnimatorTriggerOnEnter": [
            "BeHit"
          ],
          "resetAnimatorTriggerOnExit": [
            "DoSkill"
          ]
        },
        "Die": {
          "$type": "NEDIFAKEGCO",
          "animatorStates": {
            "Die": [
              "Animal_Fox_Die",
              "Audio_Fox_Die"
            ],
            "Die_Disappear": [
              "Animal_Fox_Disappear",
              "Audio_Fox_Run"
            ]
          }
        },
        "GetUp": {
          "$type": "NEDIFAKEGCO",
          "animatorStates": {
            "GetUp": [
              "Animal_Fox_GetUp",
              "Audio_Fox_GetUp"
            ]
          },
          "canDoSkill": true,
          "resetAnimatorTriggerOnExit": [
            "BeHit",
            "DoSkill"
          ]
        },
        "GetDown": {
          "$type": "NEDIFAKEGCO",
          "animatorStates": {
            "GetDown": [
              "Animal_Fox_GetDown",
              "Audio_Fox_GetDown"
            ]
          },
          "canDoSkill": true,
          "resetAnimatorTriggerOnExit": [
            "BeHit",
            "DoSkill"
          ]
        },
        "Aware": {
          "$type": "NEDIFAKEGCO",
          "animatorStates": {
            "Aware_GetUp": [
              "Audio_Fox_Personality_102"
            ],
            "Aware": [
              "Audio_Fox_Aware"
            ]
          },
          "canDoSkill": true,
          "resetAnimatorTriggerOnExit": [
            "BeHit",
            "DoSkill",
            "AwareTrigger"
          ]
        },
        "Alert": {
          "$type": "NEDIFAKEGCO",
          "animatorStates": {
            "Alert": [
              "Audio_Fox_Walk",
              "Animal_Fox_02_Alert"
            ],
            "Alert_Scared": [
              "Animal_Fox_02_Alert",
              "Audio_Fox_Alert_Scared"
            ]
          },
          "resetAnimatorTriggerOnExit": [
            "BeHit",
            "DoSkill"
          ]
        },
        "Personality_101": {
          "$type": "NEDIFAKEGCO",
          "animatorStates": {
            "Personality_101": [
              "Audio_Fox_Personality_102"
            ]
          },
          "canDoSkill": true,
          "resetAnimatorTriggerOnExit": [
            "BeHit",
            "DoSkill"
          ]
        },
        "Personality_102": {
          "$type": "NEDIFAKEGCO",
          "animatorStates": {
            "Personality_102": [
              "Audio_Fox_Personality_102"
            ]
          },
          "canDoSkill": true,
          "resetAnimatorTriggerOnExit": [
            "BeHit",
            "DoSkill"
          ]
        },
        "Disappear": {
          "$type": "NEDIFAKEGCO",
          "animatorStates": {
            "Disappear": [
              "Audio_Fox_Personality_103"
            ]
          },
          "canDoSkill": true,
          "resetAnimatorTriggerOnExit": [
            "BeHit",
            "DoSkill"
          ]
        }
      }
    }
  },
  "initialPoses": {
    "Default": {}
  },
  "aibeta": {
    "enable": true,
    "friendliness": 1,
    "decisionArchetype": "Animal",
    "precombat": {
      "overrideWeatherNeuronMapping": {
        "Rain": [
          "WEATHER_BAD"
        ],
        "Storm": [
          "WEATHER_BAD"
        ]
      }
    },
    "sensing": {
      "settings": {
        "DefaultSetting": {
          "viewRange": 15.0,
          "horizontalFov": 90.0,
          "verticalFov": 30.0,
          "feelRange": 9.0
        }
      }
    },
    "neurons": {
      "DefaultSetting": [
        "HIT",
        "FEAR",
        "SURROUND"
      ]
    },
    "threat": {
      "GHIJMOKOLMB": "",
      "threatDecreaseSpeed": 500.0,
      "viewAttenuation": [
        {
          "x": 7.0,
          "y": 2.5
        },
        {
          "x": 9.0,
          "y": 2.0
        },
        {
          "x": 11.0,
          "y": 1.5
        },
        {
          "x": 11.0,
          "y": 1.0
        },
        {
          "x": 15.0,
          "y": 0.5
        }
      ]
    },
    "defendArea": {
      "defendRange": 100.0
    },
    "skills": {
      "3": {
        "name": "OnAlert",
        "skillType": "OnAlert",
        "publicCDGroup": "",
        "triggerGCD": false,
        "HHAGODJIAPE": "",
        "stateIDs": [
          "Alert"
        ],
        "skillQueryingTime": 3.0,
        "flagTargetReachable": "10",
        "flagSelfOnTemplateCollider": "01",
        "flagSelfInZone": "10",
        "flagTargetInZone": "11"
      },
      "101": {
        "name": "Personality_101",
        "skillType": "Free",
        "castCondition": {
          "pose": [
            2
          ]
        },
        "cd": 15.0,
        "cdUpperRange": 45.0,
        "initialCD": 5.0,
        "initialCDUpperRange": 10.0,
        "publicCDGroup": "",
        "HHAGODJIAPE": "",
        "stateIDs": [
          "Personality_101"
        ],
        "flagTargetReachable": "10",
        "flagSelfOnTemplateCollider": "01",
        "flagSelfInZone": "10",
        "flagTargetInZone": "11"
      },
      "102": {
        "name": "Personality_102",
        "skillType": "Free",
        "castCondition": {
          "pose": [
            2
          ]
        },
        "cd": 15.0,
        "cdUpperRange": 45.0,
        "initialCD": 5.0,
        "initialCDUpperRange": 10.0,
        "publicCDGroup": "",
        "HHAGODJIAPE": "",
        "stateIDs": [
          "Personality_102"
        ],
        "flagTargetReachable": "10",
        "flagSelfOnTemplateCollider": "01",
        "flagSelfInZone": "10",
        "flagTargetInZone": "11"
      },
      "103": {
        "name": "Personality_103",
        "skillType": "ActionPoint",
        "castCondition": {
          "pose": [
            201
          ]
        },
        "cd": 10.0,
        "publicCDGroup": "",
        "HHAGODJIAPE": "",
        "stateIDs": [
          "Disappear"
        ],
        "flagTargetReachable": "10",
        "flagSelfOnTemplateCollider": "01",
        "flagSelfInZone": "10",
        "flagTargetInZone": "11"
      }
    },
    "skillGCD": 1.5,
    "birdCirclingTactic": [
      {
        "$type": "HGJGHLOFFHM",
        "enable": true,
        "JMCOBEPDIGM": {
          "INNFLICONNE": [
            {
              "pointType": "MoleHolePoint",
              "detectDistance": 30.0,
              "ANLAAGAMIKF": 2,
              "pose": [
                2,
                201
              ],
              "nerveTrigger": [
                "SURROUND"
              ],
              "skillID": 103
            }
          ]
        }
      },
      {
        "$type": "NNJKLGNPMNN",
        "enable": true
      }
    ]
  },
  "animal": {
    "tickAbilityElement": false,
    "hasCharacterRenderering": false
  },
  "captureGroup": {
    "defaultConfig": {
      "captureEffect": "Eff_SceneObj_CatchAnimal_CaughtSuccess"
    }
  }
}