{
  "common": {
    "effectAttachShape": {
      "$type": "FJNPJANPGGC",
      "mesh": "EffectMesh"
    },
    "mass": 10000.0,
    "height": 1.7999999523162842,
    "modelHeight": 1.7999999523162842,
    "viewSize": 1.149999976158142,
    "affectedByWorld": true,
    "checkInSurface": true,
    "scale": 1.149999976158142,
    "useGrassDisplacement": true,
    "reconnectSupport": true,
    "recoverByInitPose": true
  },
  "headControl": {
    "$type": "KPIPDEBDPIH",
    "useHeadControl": true,
    "maxYawDegree": 90.0,
    "maxPitchDegree": 25.0,
    "animStates": [
      "NormalIdle/Standby",
      "NormalMove/WalkForward",
      "NormalMove/WalkBack",
      "NormalMove/WalkRight",
      "NormalMove/WalkLeft",
      "NormalMove/Run",
      "Turn/TurnLeft",
      "Turn/TurnRight",
      "Aware/Aware",
      "NormalIdle/AwareIdle",
      "TauntAware01/TauntAware01",
      "TauntAware_BS/TauntAware_BS",
      "TauntAware_AS/TauntAware_AS",
      "TauntAware02/TauntAware02",
      "TauntAware02/TauntAware03"
    ]
  },
  "model": {
    "bornEffect": "Eff_Monster_Common_Born",
    "attachEffect": "",
    "BKPFGNPLDNJ": ""
  },
  "dither": {
    "showDitherDuration": 1.0
  },
  "combat": {
    "property": {
      "endureType": "Monster_Grunt_Other",
      "weight": 100.0
    },
    "beHit": {
      "hitBloodEffect": ""
    },
    "combatLock": {
      "lockShape": "CircleLockEnemy",
      "lockType": "Avatar&Monster_Lv4"
    },
    "die": {
      "hasAnimatorDie": true,
      "dieForceDisappearTime": 8.0,
      "dieDisappearEffect": "",
      "dieShaderData": "MonsterDie",
      "dieShaderEnableDurationTime": 0.0,
      "ragDollDieEndTimeDelay": 8.0,
      "muteHitBox": true,
      "dieDenyLockOn": true,
      "dieIsGhostToEnemy": true,
      "dieIgnoreTriggerBullet": true,
      "muteBillboard": true,
      "mutePushCollider": true
    },
    "animEvents": {
      "AE_MeleeAtk01": {
        "attackPattern": {
          "$type": "GMDIMKKHACA",
          "triggerType": "TriggerNoRepeat",
          "born": {
            "$type": "IAENDIPDFKD",
            "offset": {
              "KGEPIMHBMOL": 0.30000001192092896,
              "JEBHCGDPFEJ": 0.0,
              "LPCHALMFFOD": 0.5
            }
          },
          "height": 2.0999999046325684,
          "fanAngle": 260.0,
          "OAHPDLJIADP": 1.600000023841858
        },
        "attackInfo": {
          "attackTag": "",
          "attenuationTag": "",
          "attenuationGroup": "default",
          "attackProperty": {
            "actorGrassSubHurtDelta": 0.5,
            "actorWindSubHurtDelta": 0.0,
            "IPFJJJGABPL": 100.0,
            "strikeType": "Blunt",
            "enBreak": 200.0,
            "GLKMCMDJBIK": 0.0
          },
          "hitPattern": {
            "onHitEffectName": "default",
            "hitImpulseY": "",
            "hitImpulseType": "LV4"
          }
        }
      },
      "AE_MeleeAtk02_01": {
        "attackPattern": {
          "$type": "GMDIMKKHACA",
          "triggerType": "TriggerNoRepeat",
          "born": {
            "$type": "IAENDIPDFKD",
            "offset": {
              "KGEPIMHBMOL": 0.0,
              "JEBHCGDPFEJ": 0.0,
              "LPCHALMFFOD": 1.5
            }
          },
          "height": 1.7999999523162842,
          "OAHPDLJIADP": 2.0
        },
        "attackInfo": {
          "attackTag": "",
          "attenuationTag": "",
          "attenuationGroup": "default",
          "attackProperty": {
            "actorGrassSubHurtDelta": 0.699999988079071,
            "actorWindSubHurtDelta": 0.0,
            "IPFJJJGABPL": 100.0,
            "strikeType": "Blunt",
            "enBreak": 200.0,
            "GLKMCMDJBIK": 0.0
          },
          "hitPattern": {
            "onHitEffectName": "default",
            "hitImpulseY": "",
            "hitImpulseType": "LV4"
          }
        }
      },
      "AE_TrbUlt_01": {
        "attackPattern": {
          "$type": "JHKEHNJBMOF",
          "triggerType": "TriggerNoRepeat",
          "born": {
            "$type": "IAENDIPDFKD",
            "offset": {
              "KGEPIMHBMOL": 0.0,
              "JEBHCGDPFEJ": 1.0,
              "LPCHALMFFOD": 0.5
            }
          },
          "size": {
            "KGEPIMHBMOL": 1.5,
            "JEBHCGDPFEJ": 2.0,
            "LPCHALMFFOD": 2.0
          }
        },
        "attackInfo": {
          "attackTag": "",
          "attenuationTag": "",
          "attenuationGroup": "default",
          "attackProperty": {
            "actorGrassSubHurtDelta": 0.699999988079071,
            "actorWindSubHurtDelta": 0.0,
            "IPFJJJGABPL": 100.0,
            "strikeType": "Blunt",
            "enBreak": 200.0,
            "GLKMCMDJBIK": 0.0
          },
          "hitPattern": {
            "onHitEffectName": "default",
            "hitImpulseY": "",
            "hitImpulseType": "LV4"
          }
        }
      },
      "AE_TrbUlt_02": {
        "attackPattern": {
          "$type": "JHKEHNJBMOF",
          "triggerType": "TriggerNoRepeat",
          "born": {
            "$type": "IAENDIPDFKD",
            "offset": {
              "KGEPIMHBMOL": 0.0,
              "JEBHCGDPFEJ": 1.0,
              "LPCHALMFFOD": 0.5
            }
          },
          "size": {
            "KGEPIMHBMOL": 1.5,
            "JEBHCGDPFEJ": 2.0,
            "LPCHALMFFOD": 2.0
          }
        },
        "attackInfo": {
          "attackTag": "",
          "attenuationTag": "",
          "attenuationGroup": "default",
          "attackProperty": {
            "actorGrassSubHurtDelta": 0.699999988079071,
            "actorWindSubHurtDelta": 0.0,
            "IPFJJJGABPL": 100.0,
            "strikeType": "Blunt",
            "enBreak": 200.0,
            "GLKMCMDJBIK": 0.0
          },
          "hitPattern": {
            "onHitEffectName": "default",
            "hitImpulseY": "",
            "hitImpulseType": "LV6"
          }
        }
      }
    }
  },
  "equipController": {
    "sheathPoint": "",
    "attachPoints": {
      "equip01": "WeaponR",
      "equip02": "WeaponL"
    }
  },
  "abilities": [
    {
      "abilityID": "",
      "abilityName": "Eremite_Universal_Alert",
      "abilityOverride": ""
    },
    {
      "abilityID": "",
      "abilityName": "TribalWarrior_ReturnToBorn",
      "abilityOverride": ""
    },
    {
      "abilityID": "",
      "abilityName": "Monster_TribalWarrior_FreePoseManager",
      "abilityOverride": ""
    },
    {
      "abilityID": "",
      "abilityName": "Monster_Tribalwarrior_Female_Standard_Launcher_SteerManager",
      "abilityOverride": ""
    },
    {
      "abilityID": "",
      "abilityName": "Monster_Tribalwarrior_Female_Standard_Launcher_AwareManager",
      "abilityOverride": ""
    },
    {
      "abilityID": "",
      "abilityName": "Monster_Tribalwarrior_Female_Standard_Launcher_RangedAttack02",
      "abilityOverride": ""
    },
    {
      "abilityID": "",
      "abilityName": "Monster_Tribalwarrior_Female_Standard_Launcher_RangedAttack01",
      "abilityOverride": ""
    },
    {
      "abilityID": "",
      "abilityName": "Monster_Tribalwarrior_Female_Standard_Launcher_Mosasaurus_TribalUltLoopEffect01_Start",
      "abilityOverride": ""
    },
    {
      "abilityID": "",
      "abilityName": "Monster_Tribalwarrior_Female_Standard_Launcher_Mosasaurus_TribalUltLoopEffect01_End",
      "abilityOverride": ""
    },
    {
      "abilityID": "",
      "abilityName": "Monster_Tribalwarrior_Female_Standard_Launcher_Mosasaurus_TribalUltLoopEffect02_Start",
      "abilityOverride": ""
    },
    {
      "abilityID": "",
      "abilityName": "Monster_Tribalwarrior_Female_Standard_Launcher_Mosasaurus_TribalUltLoopEffect02_End",
      "abilityOverride": ""
    },
    {
      "abilityID": "",
      "abilityName": "Monster_Tribalwarrior_Female_Standard_Launcher_Mosasaurus_TribalUltHandler",
      "abilityOverride": ""
    },
    {
      "abilityID": "",
      "abilityName": "Monster_Tribalwarrior_Female_Standard_Launcher_Mosasaurus_WeaponVisibilityManager",
      "abilityOverride": ""
    }
  ],
  "stateLayers": {
    "defaultLayer": {
      "$type": "GBGJJIIEMBD",
      "layerIndexName": "",
      "CPAANEIJCGD": "",
      "stateIDs": {
        "NormalIdle": {
          "$type": "NEDIFAKEGCO",
          "animatorStates": {
            "Standby": [],
            "AwareIdle": [],
            "BossStand_Idle": [],
            "Rest_Idle": [],
            "Dance_Idle": [
              "Audio_Monster_Tribalwarrior_Female_Standard_Launcher_Mosasaurus_DanceIdle"
            ]
          },
          "canDoSkill": true,
          "canSyncMove": true,
          "resetAnimatorTriggerOnExit": [
            "DoSkill",
            "EndSurfingNow"
          ]
        },
        "NormalBorn": {
          "$type": "NEDIFAKEGCO",
          "animatorStates": {
            "Born": []
          },
          "canDoSkill": true,
          "resetAnimatorTriggerOnExit": [
            "DoSkill"
          ]
        },
        "NormalMove": {
          "$type": "NEDIFAKEGCO",
          "animatorStates": {
            "WalkForward": [
              "Audio_Monster_Tribalwarrior_Female_Standard_Launcher_Hookwalker_WalkForward"
            ],
            "WalkBack": [
              "Audio_Monster_Tribalwarrior_Female_Standard_Launcher_Hookwalker_WalkBack"
            ],
            "WalkRight": [
              "Audio_Monster_Tribalwarrior_Female_Standard_Launcher_Mosasaurus_RangedAttack_WalkL"
            ],
            "WalkLeft": [
              "Audio_Monster_Tribalwarrior_Female_Standard_Launcher_Mosasaurus_RangedAttack_WalkL"
            ],
            "Run": [
              "Audio_Monster_Tribalwarrior_Female_Stand_Launcher_Mosasaurus_Run"
            ]
          },
          "canDoSkill": true,
          "canSyncMove": true,
          "resetAnimatorTriggerOnExit": [
            "DoSkill",
            "EndSurfingNow"
          ],
          "canSteer": true
        },
        "Turn": {
          "$type": "NEDIFAKEGCO",
          "animatorStates": {
            "TurnLeft": [
              "Audio_Monster_Tribalwarrior_Female_Standard_Launcher_Mosasaurus_RangedAttack_WalkL"
            ],
            "TurnRight": [
              "Audio_Monster_Tribalwarrior_Female_Standard_Launcher_Mosasaurus_RangedAttack_WalkL"
            ]
          },
          "canDoSkill": true,
          "canSyncMove": true,
          "resetAnimatorTriggerOnExit": [
            "DoSkill",
            "EndSurfingNow"
          ]
        },
        "BeHit": {
          "$type": "NEDIFAKEGCO",
          "animatorStates": {
            "Hit_L": [],
            "Hit_H": [
              "Audio_Monster_Tribalwarrior_Female_Standard_Launcher_Mosasaurus_Hit_H"
            ]
          },
          "resetAnimatorTriggerOnEnter": [
            "BeHit",
            "EndSurfingNow"
          ],
          "resetAnimatorTriggerOnExit": [
            "DoSkill"
          ]
        },
        "BeHitThrow": {
          "$type": "NEDIFAKEGCO",
          "animatorStates": {
            "HitThrow": [],
            "HitThrowDrop": []
          },
          "resetAnimatorTriggerOnEnter": [
            "BeHit",
            "HitAir2HitDrop",
            "EndSurfingNow"
          ],
          "resetAnimatorTriggerOnExit": [
            "DoSkill",
            "BeHit"
          ],
          "setAnimatorBoolean": [
            {
              "name": "AirDie"
            }
          ]
        },
        "BeHitThrowToStandby": {
          "$type": "NEDIFAKEGCO",
          "animatorStates": {
            "HitThrowToGround": [
              "Audio_Monster_Tribalwarrior_Female_Standard_Launcher_Mosasaurus_HitThrowToGround",
              "Audio_Monster_Natlan_TribalWarrior_Female_launcher_mosasaurus_HitThrow_VO"
            ]
          },
          "resetAnimatorTriggerOnEnter": [
            "BeHit",
            "HitAir2HitDrop",
            "EndSurfingNow"
          ],
          "resetAnimatorTriggerOnExit": [
            "DoSkill",
            "BeHit"
          ],
          "setAnimatorBoolean": [
            {
              "name": "AirDie",
              "normalizeEnd": 0.4000000059604645
            }
          ]
        },
        "Struggle": {
          "$type": "NEDIFAKEGCO",
          "animatorStates": {
            "Struggle": []
          },
          "resetAnimatorTriggerOnEnter": [
            "BeHit",
            "HitAir2HitDrop",
            "EndSurfingNow"
          ],
          "resetAnimatorTriggerOnExit": [
            "DoSkill"
          ]
        },
        "Die": {
          "$type": "NEDIFAKEGCO",
          "animatorStates": {
            "Die1": [
              "Monster_Tribalwarrior_Female_Standard_Launcher_Die",
              "Audio_Monster_Tribalwarrior_Female_Standard_Launcher_Mosasaurus_Die"
            ],
            "Die2": [
              "Monster_Tribalwarrior_Female_Standard_Launcher_Die",
              "Audio_Monster_Tribalwarrior_Female_Standard_Launcher_Mosasaurus_Die",
              "Audio_Monster_Natlan_TribalWarrior_Female_launcher_mosasaurus_die_01_VO"
            ],
            "SwimDie_BS": [],
            "SwimDie": [
              "Monster_Human_SwimDie"
            ],
            "SwimDie_AS": []
          },
          "resetAnimatorTriggerOnEnter": [
            "DoSkill"
          ]
        },
        "Die_RagDoll": {
          "$type": "NEDIFAKEGCO",
          "animatorStates": {
            "AirDie": [
              "Monster_Tribalwarrior_Female_Standard_Launcher_Die"
            ]
          }
        },
        "Tutor": {
          "$type": "NEDIFAKEGCO",
          "animatorStates": {
            "Tutor": []
          },
          "canDoSkill": true,
          "resetAnimatorTriggerOnEnter": [
            "DoSkill"
          ],
          "resetAnimatorTriggerOnExit": [
            "DoSkill"
          ]
        },
        "Practice": {
          "$type": "NEDIFAKEGCO",
          "animatorStates": {
            "Practice_BS": [
              "Audio_Monster_Tribalwarrior_Female_Standard_Launcher_Mosasaurus_Practice_BS"
            ],
            "Practice_Loop": [
              "Audio_Monster_Tribalwarrior_Female_Standard_Launcher_Mosasaurus_Practice_Loop"
            ],
            "Practice_AS": [
              "Audio_Monster_Tribalwarrior_Female_Standard_Launcher_Mosasaurus_Practice_AS"
            ]
          },
          "canDoSkill": true,
          "resetAnimatorTriggerOnEnter": [
            "DoSkill"
          ],
          "resetAnimatorTriggerOnExit": [
            "DoSkill"
          ]
        },
        "Rest_AS": {
          "$type": "NEDIFAKEGCO",
          "animatorStates": {
            "Rest_AS": []
          },
          "canDoSkill": true,
          "resetAnimatorTriggerOnEnter": [
            "DoSkill"
          ],
          "resetAnimatorTriggerOnExit": [
            "DoSkill"
          ]
        },
        "Rest_BS": {
          "$type": "NEDIFAKEGCO",
          "animatorStates": {
            "Rest_BS": []
          },
          "canDoSkill": true,
          "resetAnimatorTriggerOnEnter": [
            "DoSkill"
          ],
          "resetAnimatorTriggerOnExit": [
            "DoSkill"
          ]
        },
        "Rest_Free": {
          "$type": "NEDIFAKEGCO",
          "animatorStates": {
            "Rest_Free": []
          },
          "canDoSkill": true,
          "resetAnimatorTriggerOnEnter": [
            "DoSkill"
          ],
          "resetAnimatorTriggerOnExit": [
            "DoSkill"
          ]
        },
        "BossStand_Free": {
          "$type": "NEDIFAKEGCO",
          "animatorStates": {
            "BossStand_Free": []
          },
          "canDoSkill": true,
          "resetAnimatorTriggerOnEnter": [
            "DoSkill"
          ],
          "resetAnimatorTriggerOnExit": [
            "DoSkill"
          ]
        },
        "Aware": {
          "$type": "NEDIFAKEGCO",
          "animatorStates": {
            "Aware": [
              "Monster_Human_AwareIcon",
              "Audio_Monster_Natlan_TribalWarrior_Female_launcher_mosasaurus_aware_01_VO"
            ]
          },
          "canDoSkill": true,
          "resetAnimatorTriggerOnEnter": [
            "DoSkill"
          ],
          "resetAnimatorTriggerOnExit": [
            "DoSkill"
          ]
        },
        "TauntAware01": {
          "$type": "NEDIFAKEGCO",
          "animatorStates": {
            "TauntAware01": [
              "Audio_Monster_Natlan_TribalWarrior_Female_launcher_mosasaurus_TauntAware_VO"
            ]
          },
          "canDoSkill": true,
          "resetAnimatorTriggerOnEnter": [
            "DoSkill"
          ],
          "resetAnimatorTriggerOnExit": [
            "DoSkill"
          ]
        },
        "TauntAware02": {
          "$type": "NEDIFAKEGCO",
          "animatorStates": {
            "TauntAware02": []
          },
          "canDoSkill": true,
          "resetAnimatorTriggerOnEnter": [
            "DoSkill"
          ],
          "resetAnimatorTriggerOnExit": [
            "DoSkill"
          ]
        },
        "AwareAS": {
          "$type": "NEDIFAKEGCO",
          "animatorStates": {
            "AwareAS": []
          },
          "canDoSkill": true,
          "resetAnimatorTriggerOnEnter": [
            "DoSkill"
          ],
          "resetAnimatorTriggerOnExit": [
            "DoSkill"
          ]
        },
        "TauntAware_BS": {
          "$type": "NEDIFAKEGCO",
          "animatorStates": {
            "TauntAware_BS": []
          },
          "canDoSkill": true,
          "resetAnimatorTriggerOnEnter": [
            "DoSkill"
          ],
          "resetAnimatorTriggerOnExit": [
            "DoSkill"
          ]
        },
        "TauntAware_AS": {
          "$type": "NEDIFAKEGCO",
          "animatorStates": {
            "TauntAware_AS": []
          },
          "canDoSkill": true,
          "resetAnimatorTriggerOnEnter": [
            "DoSkill"
          ],
          "resetAnimatorTriggerOnExit": [
            "DoSkill"
          ]
        },
        "TauntAware03": {
          "$type": "NEDIFAKEGCO",
          "animatorStates": {
            "TauntAware03": []
          },
          "canDoSkill": true,
          "resetAnimatorTriggerOnEnter": [
            "DoSkill"
          ],
          "resetAnimatorTriggerOnExit": [
            "DoSkill"
          ]
        },
        "Alert": {
          "$type": "NEDIFAKEGCO",
          "animatorStates": {
            "Alert": [
              "Monster_Eremite_Clear_FreePoseMark",
              "Monster_Undead01_Warning",
              "Audio_Monster_Tribalwarrior_Female_Standard_Launcher_Mosasaurus_Alert",
              "Audio_Monster_Natlan_TribalWarrior_Female_launcher_mosasaurus_alert_01_VO"
            ]
          },
          "addEndure": 0.0,
          "resetAnimatorTriggerOnEnter": [
            "DoSkill"
          ],
          "resetAnimatorTriggerOnExit": [
            "DoSkill"
          ]
        },
        "SheathWeapon": {
          "$type": "NEDIFAKEGCO",
          "animatorStates": {
            "SheathWeapon": [
              "Audio_Monster_Tribalwarrior_Female_Standard_Launcher_Mosasaurus_SheathWeapon"
            ]
          },
          "addEndure": 0.0,
          "resetAnimatorTriggerOnEnter": [
            "DoSkill"
          ],
          "resetAnimatorTriggerOnExit": [
            "DoSkill"
          ]
        },
        "MeleeAttack01": {
          "$type": "NEDIFAKEGCO",
          "animatorStates": {
            "MeleeAttack01": [
              "Monster_Tribalwarrior_Female_Standard_Launcher_MeleeAttack01",
              "Audio_Monster_Tribalwarrior_Female_Standard_Launcher_Mosasaurus_MeleeAttack01",
              "Audio_Monster_Natlan_TribalWarrior_Female_launcher_mosasaurus_meleeAtk_01_VO"
            ]
          },
          "addEndure": 0.009999999776482582,
          "resetAnimatorTriggerOnEnter": [
            "DoSkill"
          ],
          "resetAnimatorTriggerOnExit": [
            "DoSkill"
          ]
        },
        "MeleeAttack02": {
          "$type": "NEDIFAKEGCO",
          "animatorStates": {
            "MeleeAttack02": [
              "Monster_Tribalwarrior_Female_Standard_Launcher_MeleeAttack02",
              "Audio_Monster_Tribalwarrior_Female_Standard_Launcher_Mosasaurus_MeleeAttack02"
            ]
          },
          "addEndure": 0.009999999776482582,
          "resetAnimatorTriggerOnEnter": [
            "DoSkill"
          ],
          "resetAnimatorTriggerOnExit": [
            "DoSkill"
          ]
        },
        "RangedAttack_BS": {
          "$type": "NEDIFAKEGCO",
          "animatorStates": {
            "RangedAttack_BS": [
              "Audio_Monster_Tribalwarrior_Female_Standard_Launcher_Mosasaurus_RangedAttack_BS"
            ]
          },
          "resetAnimatorTriggerOnEnter": [
            "DoSkill"
          ],
          "resetAnimatorTriggerOnExit": [
            "DoSkill"
          ],
          "canSteer": true
        },
        "RangedAttack_BS_SideStepLeft": {
          "$type": "NEDIFAKEGCO",
          "animatorStates": {
            "RangedAttack_BS_SideStepLeft": [
              "Monster_Tribalwarrior_Female_Standard_Launcher_SideStepLeft",
              "Audio_Monster_Tribalwarrior_Female_Standard_Launcher_Mosasaurus_SideStep"
            ]
          },
          "canSyncMove": true,
          "addEndure": 0.5,
          "resetAnimatorTriggerOnEnter": [
            "DoSkill"
          ],
          "resetAnimatorTriggerOnExit": [
            "DoSkill"
          ],
          "handleAnimatorStateImmediately": true,
          "canSteer": true
        },
        "RangedAttack_BS_SideStepRight": {
          "$type": "NEDIFAKEGCO",
          "animatorStates": {
            "RangedAttack_BS_SideStepRight": [
              "Monster_Tribalwarrior_Female_Standard_Launcher_SideStepRight",
              "Audio_Monster_Tribalwarrior_Female_Standard_Launcher_Mosasaurus_SideStep"
            ]
          },
          "canSyncMove": true,
          "addEndure": 0.5,
          "resetAnimatorTriggerOnEnter": [
            "DoSkill"
          ],
          "resetAnimatorTriggerOnExit": [
            "DoSkill"
          ],
          "handleAnimatorStateImmediately": true,
          "canSteer": true
        },
        "RangedAttack02": {
          "$type": "NEDIFAKEGCO",
          "animatorStates": {
            "RangedAttack02": [
              "Monster_Tribalwarrior_Female_Standard_Launcher_RangedAttack02",
              "Audio_Monster_Tribalwarrior_Female_Standard_Launcher_Mosasaurus_RangedAttack02"
            ]
          },
          "addEndure": 0.5,
          "resetAnimatorTriggerOnEnter": [
            "DoSkill"
          ],
          "resetAnimatorTriggerOnExit": [
            "DoSkill"
          ],
          "handleAnimatorStateImmediately": true,
          "canSteer": true
        },
        "RangedAttack01": {
          "$type": "NEDIFAKEGCO",
          "animatorStates": {
            "RangedAttack01": [
              "Monster_Tribalwarrior_Female_Standard_Launcher_RangedAttack01",
              "Audio_Monster_Tribalwarrior_Female_Standard_Launcher_Mosasaurus_RangedAttack01"
            ]
          },
          "addEndure": 0.5,
          "resetAnimatorTriggerOnEnter": [
            "DoSkill"
          ],
          "resetAnimatorTriggerOnExit": [
            "DoSkill"
          ],
          "handleAnimatorStateImmediately": true,
          "canSteer": true
        },
        "RangedAttack_Reload": {
          "$type": "NEDIFAKEGCO",
          "animatorStates": {
            "RangedAttack_Reload": [
              "Monster_Tribalwarrior_Female_Standard_Launcher_RangedAttack_Reload",
              "Audio_Monster_Tribalwarrior_Female_Standard_Launcher_Mosasaurus_RangedAttack_Reload"
            ]
          },
          "resetAnimatorTriggerOnEnter": [
            "DoSkill"
          ],
          "resetAnimatorTriggerOnExit": [
            "DoSkill"
          ],
          "canSteer": true
        },
        "RangedAttack_AS": {
          "$type": "NEDIFAKEGCO",
          "animatorStates": {
            "RangedAttack_AS": [
              "Audio_Monster_Tribalwarrior_Female_Standard_Launcher_Mosasaurus_RangedAttack_AS"
            ]
          },
          "resetAnimatorTriggerOnEnter": [
            "DoSkill"
          ],
          "resetAnimatorTriggerOnExit": [
            "DoSkill"
          ],
          "canSteer": true
        },
        "RangedAttack_AS_SideStepLeft": {
          "$type": "NEDIFAKEGCO",
          "animatorStates": {
            "RangedAttack_AS_SideStepLeft": [
              "Monster_Tribalwarrior_Female_Standard_Launcher_SideStepLeft",
              "Audio_Monster_Tribalwarrior_Female_Standard_Launcher_Mosasaurus_SideStep"
            ]
          },
          "canSyncMove": true,
          "addEndure": 0.5,
          "resetAnimatorTriggerOnEnter": [
            "DoSkill"
          ],
          "resetAnimatorTriggerOnExit": [
            "DoSkill"
          ],
          "handleAnimatorStateImmediately": true,
          "canSteer": true
        },
        "RangedAttack_AS_SideStepRight": {
          "$type": "NEDIFAKEGCO",
          "animatorStates": {
            "RangedAttack_AS_SideStepRight": [
              "Monster_Tribalwarrior_Female_Standard_Launcher_SideStepRight",
              "Audio_Monster_Tribalwarrior_Female_Standard_Launcher_Mosasaurus_SideStep"
            ]
          },
          "canSyncMove": true,
          "addEndure": 0.5,
          "resetAnimatorTriggerOnEnter": [
            "DoSkill"
          ],
          "resetAnimatorTriggerOnExit": [
            "DoSkill"
          ],
          "handleAnimatorStateImmediately": true,
          "canSteer": true
        },
        "SideStepLeft": {
          "$type": "NEDIFAKEGCO",
          "animatorStates": {
            "SideStepLeft": [
              "Monster_Tribalwarrior_Female_Standard_Launcher_SideStepLeft",
              "Audio_Monster_Tribalwarrior_Female_Standard_Launcher_Mosasaurus_SideStep"
            ]
          },
          "canSyncMove": true,
          "addEndure": 0.5,
          "resetAnimatorTriggerOnEnter": [
            "DoSkill"
          ],
          "resetAnimatorTriggerOnExit": [
            "DoSkill"
          ],
          "handleAnimatorStateImmediately": true,
          "canSteer": true
        },
        "SideStepRight": {
          "$type": "NEDIFAKEGCO",
          "animatorStates": {
            "SideStepRight": [
              "Monster_Tribalwarrior_Female_Standard_Launcher_SideStepRight",
              "Audio_Monster_Tribalwarrior_Female_Standard_Launcher_Mosasaurus_SideStep"
            ]
          },
          "canSyncMove": true,
          "addEndure": 0.5,
          "resetAnimatorTriggerOnEnter": [
            "DoSkill"
          ],
          "resetAnimatorTriggerOnExit": [
            "DoSkill"
          ],
          "handleAnimatorStateImmediately": true,
          "canSteer": true
        },
        "TribalUlt_BS": {
          "$type": "NEDIFAKEGCO",
          "animatorStates": {
            "TribalUlt_BS": [
              "Monster_Tribalwarrior_Female_Standard_Launcher_TribalUlt_BS",
              "Audio_Monster_Tribalwarrior_Female_Standard_Launcher_Mosasaurus_TribalUlt_BS",
              "Audio_Monster_Natlan_TribalWarrior_Female_launcher_mosasaurus_TribalUlt_01_VO"
            ]
          },
          "addEndure": 0.009999999776482582,
          "resetAnimatorTriggerOnEnter": [
            "DoSkill"
          ],
          "resetAnimatorTriggerOnExit": [
            "DoSkill"
          ],
          "handleAnimatorStateImmediately": true,
          "canSteer": true
        },
        "TribalUlt_Loop_BigTurn": {
          "$type": "NEDIFAKEGCO",
          "animatorStates": {
            "TribalUlt_Loop_BigTurn": [
              "Audio_Monster_Tribalwarrior_Female_Standard_Launcher_Mosasaurus_TribalUlt_Loop_BigTurn"
            ]
          },
          "canDoSkill": true,
          "addEndure": 0.009999999776482582,
          "resetAnimatorTriggerOnEnter": [
            "DoSkill"
          ],
          "resetAnimatorTriggerOnExit": [
            "DoSkill"
          ],
          "handleAnimatorStateImmediately": true
        },
        "TribalUlt_Loop_Turning": {
          "$type": "NEDIFAKEGCO",
          "animatorStates": {
            "TribalUlt_Loop_Turning": []
          },
          "addEndure": 0.009999999776482582,
          "resetAnimatorTriggerOnEnter": [
            "DoSkill"
          ],
          "resetAnimatorTriggerOnExit": [
            "DoSkill"
          ],
          "handleAnimatorStateImmediately": true
        },
        "TribalUlt_Loop_Charging": {
          "$type": "NEDIFAKEGCO",
          "animatorStates": {
            "TribalUlt_Loop_Charging": []
          },
          "addEndure": 0.009999999776482582,
          "resetAnimatorTriggerOnEnter": [
            "DoSkill"
          ],
          "resetAnimatorTriggerOnExit": [
            "DoSkill"
          ],
          "handleAnimatorStateImmediately": true,
          "canSteer": true
        },
        "TribalUlt_AS": {
          "$type": "NEDIFAKEGCO",
          "animatorStates": {
            "TribalUlt_AS": [
              "Monster_Tribalwarrior_Female_Standard_Launcher_TribalUlt_AS",
              "Audio_Monster_Tribalwarrior_Female_Standard_Launcher_Mosasaurus_TribalUlt_AS"
            ]
          },
          "addEndure": 0.009999999776482582,
          "resetAnimatorTriggerOnEnter": [
            "DoSkill",
            "EndSurfingNow"
          ],
          "resetAnimatorTriggerOnExit": [
            "DoSkill",
            "EndSurfingNow"
          ],
          "canSteer": true
        }
      }
    }
  },
  "billboard": {
    "$type": "DNGNMAJBCNP",
    "attachPoint": "BillboardAttach",
    "offset": {
      "x": -0.05000000074505806
    },
    "offsetType": "Character",
    "radiusOffset": 0.25,
    "showHPBar": true,
    "forceShowDistance": 15.0
  },
  "initialPoses": {
    "Default": {
      "initialPoseParams": {
        "intParams": {
          "FreePoseMark": "1001"
        }
      }
    },
    "Practice": {
      "initialPoseID": 1002,
      "initialPoseParams": {
        "intParams": {
          "FreePoseMark": "1002"
        }
      }
    },
    "Tutor": {
      "initialPoseID": 1003,
      "initialPoseParams": {
        "intParams": {
          "FreePoseMark": "1003"
        }
      }
    },
    "BossStand": {
      "initialPoseID": 9001,
      "initialPoseParams": {
        "intParams": {
          "FreePoseMark": "9001"
        }
      }
    },
    "Rest": {
      "initialPoseID": 9002,
      "initialPoseParams": {
        "intParams": {
          "FreePoseMark": "9002"
        }
      }
    },
    "Dance": {
      "initialPoseID": 9003,
      "initialPoseParams": {
        "intParams": {
          "FreePoseMark": "9003"
        }
      }
    }
  },
  "aibeta": {
    "enable": true,
    "moveSetting": {
      "navMeshAgentName": "Undead01",
      "almostReachedDistanceRun": 1.5
    },
    "sensing": {
      "settings": {
        "DefaultSetting": {
          "viewRange": 20.0
        },
        "HighAlert": {
          "feelRange": 8.0
        },
        "LowAlert": {
          "viewRange": 13.0
        },
        "UltraLowSensing": {
          "viewRange": 9.0,
          "hearAttractionRange": 0.0,
          "feelRange": 2.0
        },
        "NeverCombat": {
          "enableVision": false,
          "hearAttractionRange": 0.0,
          "feelRange": 0.0
        }
      },
      "templates": {
        "DefaultTemplate": {
          "DefaultPoses": "DefaultSetting"
        },
        "HighAlert": {
          "DefaultPoses": "HighAlert"
        },
        "LowAlert": {
          "DefaultPoses": "LowAlert"
        },
        "UltraLowSensing": {
          "DefaultPoses": "UltraLowSensing"
        },
        "NeverCombat": {
          "DefaultPoses": "NeverCombat"
        }
      }
    },
    "neurons": {
      "DefaultSetting": [
        "HIT"
      ],
      "NeverCombat": []
    },
    "threat": {
      "GHIJMOKOLMB": "DefaultTemplate"
    },
    "spacialWanderTactic": {
      "settings": {
        "Default": {
          "GHIJMOKOLMB": "",
          "clearThreatByLostPath": true,
          "clearThreatTimerByDistance": 3.0,
          "clearThreatTimerByLostPath": 16.0,
          "viewAttenuation": [
            {
              "x": 6.0,
              "y": 10.0
            },
            {
              "x": 12.0,
              "y": 0.032999999821186066
            },
            {
              "x": 50.0,
              "y": 0.009999999776482582
            }
          ],
          "OIMBHHFADNC": [
            {
              "distance": 12.0,
              "ICJJNKNKCFB": [
                11.0
              ]
            },
            {
              "distance": 50.0,
              "ICJJNKNKCFB": [
                7.0
              ]
            }
          ],
          "timeDecreaseTemper": 5.0,
          "JOHFJMNGOEG": true
        },
        "HighAlert": {
          "GHIJMOKOLMB": "",
          "clearThreatByLostPath": true,
          "clearThreatTimerByDistance": 3.0,
          "clearThreatTimerByLostPath": 16.0,
          "viewAttenuation": [
            {
              "x": 8.0,
              "y": 10.0
            },
            {
              "x": 18.0,
              "y": 0.032999999821186066
            },
            {
              "x": 50.0,
              "y": 0.009999999776482582
            }
          ],
          "OIMBHHFADNC": [
            {
              "distance": 18.0,
              "ICJJNKNKCFB": [
                11.0
              ]
            },
            {
              "distance": 50.0,
              "ICJJNKNKCFB": [
                7.0
              ]
            }
          ],
          "timeDecreaseTemper": 5.0,
          "JOHFJMNGOEG": true
        },
        "LowAlert": {
          "GHIJMOKOLMB": "",
          "clearThreatByLostPath": true,
          "clearThreatTimerByDistance": 3.0,
          "clearThreatTimerByLostPath": 16.0,
          "viewAttenuation": [
            {
              "x": 4.0,
              "y": 10.0
            },
            {
              "x": 8.0,
              "y": 0.032999999821186066
            },
            {
              "x": 50.0,
              "y": 0.009999999776482582
            }
          ],
          "OIMBHHFADNC": [
            {
              "distance": 8.0,
              "ICJJNKNKCFB": [
                11.0
              ]
            },
            {
              "distance": 50.0,
              "ICJJNKNKCFB": [
                7.0
              ]
            }
          ],
          "timeDecreaseTemper": 5.0,
          "JOHFJMNGOEG": true
        },
        "UltraLowSensing": {
          "GHIJMOKOLMB": "",
          "clearThreatByLostPath": true,
          "clearThreatTimerByDistance": 3.0,
          "clearThreatTimerByLostPath": 16.0,
          "viewAttenuation": [
            {
              "x": 2.0,
              "y": 10.0
            },
            {
              "x": 6.0,
              "y": 0.032999999821186066
            },
            {
              "x": 50.0,
              "y": 0.009999999776482582
            }
          ],
          "OIMBHHFADNC": [
            {
              "distance": 6.0,
              "ICJJNKNKCFB": [
                11.0
              ]
            },
            {
              "distance": 50.0,
              "ICJJNKNKCFB": [
                7.0
              ]
            }
          ],
          "timeDecreaseTemper": 5.0,
          "JOHFJMNGOEG": true
        },
        "BattleSensitive": {
          "GHIJMOKOLMB": "",
          "clearThreatByLostPath": true,
          "clearThreatTimerByDistance": 3.0,
          "clearThreatTimerByLostPath": 16.0,
          "viewThreatGrow": 500.0,
          "timeDecreaseTemper": 5.0,
          "JOHFJMNGOEG": true
        }
      },
      "HJHOBMICILD": {
        "DefaultTemplate": {
          "DefaultPoses": "Default"
        },
        "HighAlert": {
          "DefaultPoses": "HighAlert"
        },
        "LowAlert": {
          "DefaultPoses": "LowAlert"
        },
        "UltraLowSensing": {
          "DefaultPoses": "UltraLowSensing"
        },
        "BattleSensitive": {
          "DefaultPoses": "BattleSensitive"
        }
      }
    },
    "defendArea": {},
    "skillSetting": {
      "skillEliteSet": {
        "0": [],
        "1": [
          11,
          12
        ]
      }
    },
    "skills": {
      "10031": {
        "name": "Tutor01",
        "skillType": "Free",
        "castCondition": {
          "pose": [
            1003
          ]
        },
        "cd": 6.0,
        "cdUpperRange": 12.0,
        "initialCD": 2.0,
        "initialCDUpperRange": 4.0,
        "publicCDGroup": "",
        "ignoreGCD": true,
        "triggerGCD": false,
        "HHAGODJIAPE": "",
        "stateIDs": [
          "Tutor"
        ],
        "flagTargetReachable": "10",
        "flagSelfOnTemplateCollider": "01",
        "flagSelfInZone": "10",
        "flagTargetInZone": "11"
      },
      "10021": {
        "name": "Practice",
        "skillType": "Free",
        "castCondition": {
          "pose": [
            1002
          ]
        },
        "cd": 2.0,
        "cdUpperRange": 4.0,
        "initialCD": 2.0,
        "initialCDUpperRange": 4.0,
        "publicCDGroup": "",
        "ignoreGCD": true,
        "triggerGCD": false,
        "HHAGODJIAPE": "",
        "stateIDs": [
          "Practice"
        ],
        "flagTargetReachable": "10",
        "flagSelfOnTemplateCollider": "01",
        "flagSelfInZone": "10",
        "flagTargetInZone": "11"
      },
      "90011": {
        "name": "BossStand_Idle01",
        "skillType": "Free",
        "castCondition": {
          "pose": [
            9001
          ]
        },
        "cd": 12.0,
        "cdUpperRange": 12.0,
        "initialCD": 12.0,
        "initialCDUpperRange": 12.0,
        "publicCDGroup": "",
        "ignoreGCD": true,
        "triggerGCD": false,
        "HHAGODJIAPE": "",
        "stateIDs": [
          "BossStand_Free"
        ],
        "flagTargetReachable": "10",
        "flagSelfOnTemplateCollider": "01",
        "flagSelfInZone": "10",
        "flagTargetInZone": "11"
      },
      "90021": {
        "name": "Rest_Idle01",
        "skillType": "Free",
        "castCondition": {
          "pose": [
            9002
          ]
        },
        "cd": 12.0,
        "cdUpperRange": 12.0,
        "initialCD": 12.0,
        "initialCDUpperRange": 12.0,
        "publicCDGroup": "",
        "ignoreGCD": true,
        "triggerGCD": false,
        "HHAGODJIAPE": "",
        "stateIDs": [
          "Rest_BS",
          "Rest_AS"
        ],
        "flagTargetReachable": "10",
        "flagSelfOnTemplateCollider": "01",
        "flagSelfInZone": "10",
        "flagTargetInZone": "11"
      },
      "90022": {
        "name": "Rest_Idle02",
        "skillType": "Free",
        "castCondition": {
          "pose": [
            9002
          ]
        },
        "cd": 12.0,
        "cdUpperRange": 12.0,
        "initialCD": 12.0,
        "initialCDUpperRange": 12.0,
        "publicCDGroup": "",
        "ignoreGCD": true,
        "triggerGCD": false,
        "HHAGODJIAPE": "",
        "stateIDs": [
          "Rest_Free"
        ],
        "flagTargetReachable": "10",
        "flagSelfOnTemplateCollider": "01",
        "flagSelfInZone": "10",
        "flagTargetInZone": "11"
      },
      "1": {
        "name": "OnAlert",
        "skillType": "OnAlert",
        "faceTarget": true,
        "publicCDGroup": "",
        "ignoreGCD": true,
        "triggerGCD": false,
        "HHAGODJIAPE": "",
        "stateIDs": [
          "Alert"
        ],
        "skillQueryingTime": 3.0,
        "flagTargetReachable": "10",
        "flagSelfOnTemplateCollider": "01",
        "flagSelfInZone": "10",
        "flagTargetInZone": "11"
      },
      "11": {
        "name": "OnAware",
        "skillType": "OnAware",
        "faceTarget": true,
        "publicCDGroup": "",
        "ignoreGCD": true,
        "triggerGCD": false,
        "HHAGODJIAPE": "",
        "stateIDs": [
          "Aware"
        ],
        "skillQueryingTime": 3.0,
        "flagTargetReachable": "10",
        "flagSelfOnTemplateCollider": "01",
        "flagSelfInZone": "10",
        "flagTargetInZone": "11"
      },
      "30001": {
        "name": "TauntAware01",
        "skillType": "Aware",
        "castCondition": {
          "pose": [
            101
          ],
          "needReInitCD": true
        },
        "cd": 6.0,
        "cdUpperRange": 5.0,
        "initialCD": 6.0,
        "initialCDUpperRange": 5.0,
        "publicCDGroup": "",
        "ignoreGCD": true,
        "triggerGCD": false,
        "HHAGODJIAPE": "",
        "stateIDs": [
          "TauntAware01"
        ],
        "skillQueryingTime": 3.0,
        "flagTargetReachable": "11",
        "flagSelfOnTemplateCollider": "11",
        "flagSelfInZone": "11",
        "flagTargetInZone": "11"
      },
      "30011": {
        "name": "TauntAware02",
        "skillType": "Aware",
        "castCondition": {
          "pose": [
            101
          ],
          "needReInitCD": true
        },
        "cd": 6.0,
        "cdUpperRange": 5.0,
        "initialCD": 6.0,
        "initialCDUpperRange": 5.0,
        "publicCDGroup": "",
        "ignoreGCD": true,
        "triggerGCD": false,
        "HHAGODJIAPE": "",
        "stateIDs": [
          "TauntAware02"
        ],
        "skillQueryingTime": 3.0,
        "flagTargetReachable": "11",
        "flagSelfOnTemplateCollider": "11",
        "flagSelfInZone": "11",
        "flagTargetInZone": "11"
      },
      "30012": {
        "name": "TauntAware02",
        "skillType": "Aware",
        "castCondition": {
          "pose": [
            101
          ],
          "needReInitCD": true,
          "minTargetAngleXZ": 60.0
        },
        "initialCD": 3.0,
        "publicCDGroup": "",
        "ignoreGCD": true,
        "HHAGODJIAPE": "",
        "stateIDs": [
          "TauntAware02"
        ],
        "skillQueryingTime": 3.0,
        "flagTargetReachable": "11",
        "flagSelfOnTemplateCollider": "11",
        "flagSelfInZone": "11",
        "flagTargetInZone": "11"
      },
      "30021": {
        "name": "TauntAware03",
        "skillType": "Aware",
        "castCondition": {
          "pose": [
            101
          ],
          "needReInitCD": true
        },
        "cd": 10.0,
        "cdUpperRange": 5.0,
        "initialCD": 10.0,
        "publicCDGroup": "",
        "HHAGODJIAPE": "",
        "stateIDs": [
          "TauntAware_BS",
          "TauntAware03",
          "TauntAware_AS"
        ],
        "skillQueryingTime": 3.0,
        "flagTargetReachable": "11",
        "flagSelfOnTemplateCollider": "11",
        "flagSelfInZone": "11",
        "flagTargetInZone": "11"
      },
      "30022": {
        "name": "TauntAware03",
        "skillType": "Aware",
        "castCondition": {
          "pose": [
            101
          ],
          "needReInitCD": true,
          "minTargetAngleXZ": 60.0
        },
        "initialCD": 3.0,
        "publicCDGroup": "",
        "ignoreGCD": true,
        "HHAGODJIAPE": "",
        "stateIDs": [
          "TauntAware_BS",
          "TauntAware03",
          "TauntAware_AS"
        ],
        "skillQueryingTime": 3.0,
        "flagTargetReachable": "11",
        "flagSelfOnTemplateCollider": "11",
        "flagSelfInZone": "11",
        "flagTargetInZone": "11"
      },
      "101": {
        "name": "MeleeAttack",
        "combatSkillType": "MeleeAttack",
        "priority": 1,
        "castCondition": {
          "pose": [
            1
          ],
          "pickRangeMax": 4.0
        },
        "cd": 2.0,
        "cdUpperRange": 2.0,
        "publicCDGroup": "",
        "HHAGODJIAPE": "",
        "stateIDs": [
          "MeleeAttack01",
          "MeleeAttack02"
        ],
        "flagTargetReachable": "10",
        "flagSelfOnTemplateCollider": "11",
        "flagSelfInZone": "11",
        "flagTargetInZone": "11"
      },
      "201": {
        "name": "RangedAttack02",
        "combatSkillType": "RangedAttack",
        "priority": 2,
        "castCondition": {
          "pose": [
            1
          ],
          "pickRangeMax": 16.0
        },
        "cd": 2.0,
        "cdUpperRange": 2.0,
        "publicCDGroup": "",
        "HHAGODJIAPE": "",
        "stateIDs": [
          "RangedAttack_BS",
          "RangedAttack_BS_SideStepLeft",
          "RangedAttack_BS_SideStepRight",
          "RangedAttack_Reload",
          "RangedAttack02",
          "RangedAttack_AS",
          "RangedAttack_AS_SideStepLeft",
          "RangedAttack_AS_SideStepRight"
        ],
        "flagTargetReachable": "11",
        "flagSelfOnTemplateCollider": "11",
        "flagSelfInZone": "11",
        "flagTargetInZone": "11"
      },
      "202": {
        "name": "RangedAttack02",
        "combatSkillType": "RangedAttack",
        "priority": 2,
        "castCondition": {
          "pose": [
            1
          ],
          "pickRangeMax": 16.0
        },
        "cd": 2.0,
        "cdUpperRange": 2.0,
        "publicCDGroup": "",
        "ignoreGCD": true,
        "triggerGCD": false,
        "HHAGODJIAPE": "",
        "stateIDs": [
          "RangedAttack_BS",
          "RangedAttack_BS_SideStepLeft",
          "RangedAttack_BS_SideStepRight",
          "RangedAttack_Reload",
          "RangedAttack02",
          "RangedAttack_AS",
          "RangedAttack_AS_SideStepLeft",
          "RangedAttack_AS_SideStepRight"
        ],
        "flagTargetReachable": "11",
        "flagSelfOnTemplateCollider": "11",
        "flagSelfInZone": "11",
        "flagTargetInZone": "11"
      },
      "203": {
        "name": "RangedAttack01",
        "priority": 2,
        "castCondition": {
          "pose": [
            1
          ],
          "pickRangeMin": 12.0,
          "pickRangeMax": 50.0
        },
        "cd": 6.0,
        "cdUpperRange": 6.0,
        "publicCDGroup": "",
        "HHAGODJIAPE": "",
        "stateIDs": [
          "RangedAttack_BS",
          "RangedAttack_BS_SideStepLeft",
          "RangedAttack_BS_SideStepRight",
          "RangedAttack_Reload",
          "RangedAttack01",
          "RangedAttack_AS",
          "RangedAttack_AS_SideStepLeft",
          "RangedAttack_AS_SideStepRight"
        ],
        "flagTargetReachable": "11",
        "flagSelfOnTemplateCollider": "11",
        "flagSelfInZone": "11",
        "flagTargetInZone": "11"
      },
      "301": {
        "name": "SideStep",
        "priority": 2,
        "castCondition": {
          "pose": [
            1
          ],
          "pickRangeMax": 8.0
        },
        "cd": 2.0,
        "cdUpperRange": 2.0,
        "publicCDGroup": "",
        "ignoreGCD": true,
        "triggerGCD": false,
        "HHAGODJIAPE": "",
        "stateIDs": [
          "SideStepLeft",
          "SideStepRight"
        ],
        "flagTargetReachable": "10",
        "flagSelfOnTemplateCollider": "11",
        "flagSelfInZone": "11",
        "flagTargetInZone": "11"
      },
      "801": {
        "name": "TribalUlt",
        "combatSkillType": "MeleeAttack",
        "priority": 1,
        "castCondition": {
          "pose": [
            1
          ],
          "needReInitCD": true,
          "pickRangeMin": 1.5,
          "pickRangeMax": 15.0
        },
        "cd": 10.0,
        "cdUpperRange": 5.0,
        "initialCD": 10.0,
        "initialCDUpperRange": 5.0,
        "publicCDGroup": "",
        "HHAGODJIAPE": "",
        "stateIDs": [
          "TribalUlt_BS",
          "TribalUlt_Loop_Turning",
          "TribalUlt_Loop_BigTurn",
          "TribalUlt_Loop_Charging",
          "TribalUlt_AS"
        ],
        "flagTargetReachable": "10",
        "flagSelfOnTemplateCollider": "11",
        "flagSelfInZone": "11",
        "flagTargetInZone": "11"
      }
    },
    "skillGCD": 2.0,
    "target": {
      "defaultTargetPrioritys": [
        "THREAT",
        "AWAKE_TARGET"
      ]
    },
    "birdCirclingTactic": [
      {
        "$type": "MCDGOJLCMBM",
        "enable": true,
        "condition": {
          "pose": [
            1001
          ]
        }
      },
      {
        "$type": "COLLJLNKMLC",
        "enable": true,
        "condition": {
          "pose": [
            1001
          ]
        }
      },
      {
        "$type": "EPHBMLFODKF",
        "enable": true,
        "condition": {
          "pose": [
            1
          ]
        },
        "JMCOBEPDIGM": {
          "rangeMax": 13.0,
          "BFJBDDIIFOI": {
            "LLICGJHIGME": 1.2000000476837158,
            "IDEFILBHNAP": 0.30000001192092896,
            "IBLIPJPNOGC": 0.30000001192092896,
            "AEBLMKFNCDG": 3.0,
            "IGLIBIOEGBB": 3.0
          },
          "NAOBMNGDKHL": "1111",
          "JCNIJOAIGII": "1111",
          "MNPDDAKDHGK": ""
        }
      },
      {
        "$type": "KACCHOLJDNK",
        "enable": true,
        "condition": {
          "pose": [
            1
          ]
        },
        "JMCOBEPDIGM": {
          "HKJODDGJPHA": 50.0,
          "GGEBMFHFBPO": 13.0,
          "KFFGCIMPNMJ": 15.0,
          "MNPDDAKDHGK": ""
        }
      },
      {
        "$type": "NNJKLGNPMNN",
        "enable": true,
        "JMCOBEPDIGM": {
          "OJGLKPBCLGB": 5.0,
          "MNPDDAKDHGK": "",
          "GJDMDHIBCME": ""
        }
      },
      {
        "$type": "FPELBIJFGCE",
        "enable": true,
        "condition": {
          "pose": [
            1001
          ]
        },
        "JMCOBEPDIGM": {
          "NBENNEKDIIA": 0.5,
          "KPNDPKIOPJM": 3.0,
          "PINAFKEDDLL": 1.5,
          "ANMPOPEBDIA": 15.0,
          "GMJFIMFFOEL": 3.75,
          "CHCPFDMADEI": 7.5,
          "MNPDDAKDHGK": ""
        }
      }
    ]
  },
  "inputKeys": [
    {
      "keyID": 1,
      "inputKeyCode": 257,
      "abilityName": ""
    },
    {
      "keyID": 101,
      "inputKeyCode": 258,
      "abilityName": ""
    },
    {
      "keyID": 201,
      "inputKeyCode": 259,
      "abilityName": ""
    },
    {
      "keyID": 202,
      "inputKeyCode": 260,
      "abilityName": ""
    },
    {
      "keyID": 203,
      "inputKeyCode": 261,
      "abilityName": ""
    },
    {
      "keyID": 801,
      "inputKeyCode": 262,
      "abilityName": ""
    },
    {
      "keyID": 10021,
      "inputKeyCode": 266,
      "abilityName": ""
    },
    {
      "keyID": 10031,
      "inputKeyCode": 267,
      "abilityName": ""
    },
    {
      "keyID": 90011,
      "inputKeyCode": 268,
      "abilityName": ""
    },
    {
      "keyID": 90021,
      "inputKeyCode": 269,
      "abilityName": ""
    },
    {
      "keyID": 90022,
      "inputKeyCode": 270,
      "abilityName": ""
    }
  ],
  "move": {
    "$type": "IPNMJMHDMPF",
    "facingMove": "FourDirection",
    "monsterSizeType": "StoopType",
    "positionModifyExtra": true,
    "PKHOMJHFAEE": "RootNode"
  }
}