{
  "common": {
    "effectAttachShape": {
      "$type": "FJNPJANPGGC",
      "mesh": "EffectMesh"
    },
    "mass": 30.0,
    "height": 1.0,
    "viewSize": 1.2000000476837158,
    "affectedByWorld": true,
    "checkInSurface": true,
    "scale": 1.5,
    "canTriggerElementReactionText": false,
    "reconnectSupport": true,
    "recoverByInitPose": true
  },
  "headControl": {
    "$type": "KPIPDEBDPIH",
    "useHeadControl": true,
    "maxYawDegree": 75.0,
    "maxPitchDegree": 35.0,
    "animStates": [
      "NormalIdle/Standby",
      "NormalIdle/Sit",
      "NormalIdle/Prone"
    ]
  },
  "model": {
    "bornEffect": "",
    "attachEffect": "",
    "canBakeMesh": false,
    "BKPFGNPLDNJ": ""
  },
  "dither": {
    "showDitherDuration": 1.0
  },
  "combat": {
    "property": {
      "endureType": "Monster_Minion",
      "weight": 30.0,
      "isInvincible": true,
      "isGhostToEnemy": true
    },
    "beHit": {
      "hitBloodEffect": "",
      "muteAllHitEffect": true,
      "muteAllHitText": true
    },
    "combatLock": {
      "lockShape": "CircleLockEnemy",
      "denyLockOn": true,
      "lockType": "Animal_Lv2"
    },
    "die": {
      "dieEndTime": 2.0,
      "dieForceDisappearTime": 10.0,
      "dieDisappearEffect": ""
    }
  },
  "abilities": [
    {
      "abilityID": "",
      "abilityName": "Animal_Common_Initial",
      "abilityOverride": ""
    },
    {
      "abilityID": "",
      "abilityName": "Animal_HpmCat_EntityTouch_Cassiodo_01",
      "abilityOverride": ""
    }
  ],
  "stateLayers": {
    "defaultLayer": {
      "$type": "GBGJJIIEMBD",
      "layerIndexName": "",
      "CPAANEIJCGD": "",
      "stateIDs": {
        "Born": {
          "$type": "NEDIFAKEGCO",
          "animatorStates": {
            "Born": []
          },
          "cullingModelAlwaysAnimate": true,
          "resetAnimatorTriggerOnExit": [
            "DoSkill"
          ]
        },
        "NormalIdle": {
          "$type": "NEDIFAKEGCO",
          "animatorStates": {
            "Standby": []
          },
          "canDoSkill": true,
          "canSyncMove": true,
          "cullingModelAlwaysAnimate": true,
          "resetAnimatorTriggerOnExit": [
            "DoSkill"
          ]
        },
        "Die": {
          "$type": "NEDIFAKEGCO",
          "animatorStates": {
            "JumpOff": [
              "Audio_Animal_HpmCat_JumpOff"
            ]
          },
          "canSyncMove": true,
          "cullingModelAlwaysAnimate": true,
          "resetAnimatorTriggerOnEnter": [
            "JumpOff_Special",
            "JumpOff",
            "DoSkill"
          ],
          "resetAnimatorTriggerOnExit": [
            "DoSkill"
          ]
        },
        "PositiveFeedback_Special_01": {
          "$type": "NEDIFAKEGCO",
          "animatorStates": {
            "PositiveFeedback_Special_01": [
              "Audio_Animal_HpmCat_BulleKnight_01_PositiveFeedback_Special_01"
            ]
          },
          "resetAnimatorTriggerOnExit": [
            "PositiveFeedBack_Special"
          ]
        },
        "PositiveFeedback_Head_Strong_01": {
          "$type": "NEDIFAKEGCO",
          "animatorStates": {
            "PositiveFeedback_Head_Strong_01": [
              "Audio_Animal_HpmCat_PositiveFeedback_Head_Strong_01"
            ]
          },
          "resetAnimatorTriggerOnExit": [
            "PositiveFeedBack_Head_Strong_01"
          ]
        },
        "PositiveFeedback_Head_Strong_02": {
          "$type": "NEDIFAKEGCO",
          "animatorStates": {
            "PositiveFeedback_Head_Strong_02": [
              "Audio_Animal_HpmCat_PositiveFeedback_Head_Strong_02"
            ]
          },
          "resetAnimatorTriggerOnExit": [
            "PositiveFeedBack_Head_Strong_02"
          ]
        },
        "PositiveFeedback_Body_Strong_01": {
          "$type": "NEDIFAKEGCO",
          "animatorStates": {
            "PositiveFeedback_Body_Strong_01": [
              "Audio_Animal_HpmCat_PositiveFeedback_Body_Strong_01"
            ]
          },
          "resetAnimatorTriggerOnExit": [
            "PositiveFeedBack_Body_Strong_01"
          ]
        },
        "PositiveFeedback_Body_Strong_02": {
          "$type": "NEDIFAKEGCO",
          "animatorStates": {
            "PositiveFeedback_Body_Strong_02": [
              "Audio_Animal_HpmCat_PositiveFeedback_Body_Strong_02"
            ]
          },
          "resetAnimatorTriggerOnExit": [
            "PositiveFeedBack_Body_Strong_02"
          ]
        },
        "PositiveFeedback_Body_Strong_03": {
          "$type": "NEDIFAKEGCO",
          "animatorStates": {
            "PositiveFeedback_Body_Strong_03": [
              "Audio_Animal_HpmCat_PositiveFeedback_Body_Strong_03"
            ]
          },
          "resetAnimatorTriggerOnExit": [
            "PositiveFeedBack_Body_Strong_03"
          ]
        },
        "PositiveFeedback_Body_Strong_04": {
          "$type": "NEDIFAKEGCO",
          "animatorStates": {
            "PositiveFeedback_Body_Strong_04": [
              "Audio_Animal_HpmCat_PositiveFeedback_Body_Strong_04"
            ]
          },
          "resetAnimatorTriggerOnExit": [
            "PositiveFeedBack_Body_Strong_04"
          ]
        },
        "PositiveFeedback_LeftEar_Weak": {
          "$type": "NEDIFAKEGCO",
          "animatorStates": {
            "PositiveFeedback_LeftEar_Weak": [
              "Audio_Animal_HpmCat_PositiveFeedback_LeftEar_Weak"
            ]
          },
          "resetAnimatorTriggerOnExit": [
            "PositiveFeedBack_LeftEar_Weak"
          ]
        },
        "PositiveFeedback_RightEar_Weak": {
          "$type": "NEDIFAKEGCO",
          "animatorStates": {
            "PositiveFeedback_RightEar_Weak": [
              "Audio_Animal_HpmCat_PositiveFeedback_RightEar_Weak"
            ]
          },
          "resetAnimatorTriggerOnExit": [
            "PositiveFeedBack_RightEar_Weak"
          ]
        },
        "PositiveFeedback_Head_Weak": {
          "$type": "NEDIFAKEGCO",
          "animatorStates": {
            "PositiveFeedback_Head_Weak": [
              "Audio_Animal_HpmCat_PositiveFeedback_Head_Weak"
            ]
          },
          "resetAnimatorTriggerOnExit": [
            "PositiveFeedBack_Head_Weak"
          ]
        },
        "PositiveFeedback_UpperBody_Weak": {
          "$type": "NEDIFAKEGCO",
          "animatorStates": {
            "PositiveFeedback_UpperBody_Weak": [
              "Audio_Animal_HpmCat_PositiveFeedback_UpperBody_Weak"
            ]
          },
          "resetAnimatorTriggerOnExit": [
            "PositiveFeedBack_UpperBody_Weak"
          ]
        },
        "PositiveFeedback_LowerBody_Weak": {
          "$type": "NEDIFAKEGCO",
          "animatorStates": {
            "PositiveFeedback_LowerBody_Weak": [
              "Audio_Animal_HpmCat_PositiveFeedback_LowerBody_Weak"
            ]
          },
          "resetAnimatorTriggerOnExit": [
            "PositiveFeedBack_LowerBody_Weak"
          ]
        },
        "PositiveFeedback_LeftHand_Weak": {
          "$type": "NEDIFAKEGCO",
          "animatorStates": {
            "PositiveFeedback_LeftHand_Weak": [
              "Audio_Animal_HpmCat_PositiveFeedback_LeftHand_Weak"
            ]
          },
          "resetAnimatorTriggerOnExit": [
            "PositiveFeedBack_LeftHand_Weak"
          ]
        },
        "PositiveFeedback_RightHand_Weak": {
          "$type": "NEDIFAKEGCO",
          "animatorStates": {
            "PositiveFeedback_RightHand_Weak": [
              "Audio_Animal_HpmCat_PositiveFeedback_RightHand_Weak"
            ]
          },
          "resetAnimatorTriggerOnExit": [
            "PositiveFeedBack_RightHand_Weak"
          ]
        },
        "PositiveFeedback_Tail_Weak": {
          "$type": "NEDIFAKEGCO",
          "animatorStates": {
            "PositiveFeedback_Tail_Weak": [
              "Audio_Animal_HpmCat_PositiveFeedback_Tail_Weak"
            ]
          },
          "resetAnimatorTriggerOnExit": [
            "PositiveFeedBack_Tail_Weak"
          ]
        },
        "RandomSkill01": {
          "$type": "NEDIFAKEGCO",
          "animatorStates": {
            "RandomSkill01": [
              "Audio_Animal_HpmCat_RandomSkill01"
            ]
          },
          "canSyncMove": true,
          "resetAnimatorTriggerOnExit": [
            "DoSkill"
          ]
        },
        "RandomSkill02": {
          "$type": "NEDIFAKEGCO",
          "animatorStates": {
            "RandomSkill02": [
              "Audio_PositiveFeedback_Cassiodo_RandomSkill02"
            ]
          },
          "canSyncMove": true,
          "resetAnimatorTriggerOnExit": [
            "DoSkill"
          ]
        }
      }
    }
  },
  "initialPoses": {
    "Default": {
      "initialPoseID": 1
    }
  },
  "aibeta": {
    "enable": true,
    "friendliness": 1,
    "decisionArchetype": "Animal",
    "moveSetting": {
      "navMeshAgentName": "Undead01",
      "almostReachedDistanceWalk": 0.25,
      "almostReachedDistanceRun": 2.0
    },
    "precombat": {
      "satietyTime": 60.0
    },
    "sensing": {
      "settings": {
        "DefaultSetting": {
          "viewRange": 10.0,
          "horizontalFov": 90.0,
          "verticalFov": 45.0,
          "feelRange": 3.5
        }
      },
      "templates": {
        "DefaultTemplate": {
          "DefaultPoses": "DefaultSetting"
        }
      }
    },
    "threat": {
      "GHIJMOKOLMB": "",
      "enable": false
    },
    "defendArea": {
      "defendRange": 50.0
    },
    "ui": {
      "hasDirectionIndicator": false,
      "HMNNBFDEHLG": ""
    },
    "profiling": {
      "lodStrategy": "Best"
    },
    "skillGroupCDConfigs": [
      {
        "skillGroupCDID": 1,
        "skillGroupCDTime": 35.0
      }
    ],
    "skills": {
      "101": {
        "name": "RandomSkill01",
        "skillType": "Free",
        "castCondition": {
          "pose": [
            1
          ]
        },
        "cd": 30.0,
        "cdUpperRange": 15.0,
        "initialCD": 27.5,
        "initialCDUpperRange": 7.5,
        "publicCDGroup": "",
        "skillGroupCDID": 1,
        "HHAGODJIAPE": "",
        "stateIDs": [
          "RandomSkill01"
        ],
        "flagTargetReachable": "10",
        "flagSelfOnTemplateCollider": "01",
        "flagSelfInZone": "10",
        "flagTargetInZone": "11"
      },
      "201": {
        "name": "RandomSkill02",
        "skillType": "Free",
        "castCondition": {
          "pose": [
            1
          ]
        },
        "cd": 30.0,
        "cdUpperRange": 15.0,
        "initialCD": 27.5,
        "initialCDUpperRange": 7.5,
        "publicCDGroup": "",
        "skillGroupCDID": 1,
        "HHAGODJIAPE": "",
        "stateIDs": [
          "RandomSkill02"
        ],
        "flagTargetReachable": "10",
        "flagSelfOnTemplateCollider": "01",
        "flagSelfInZone": "10",
        "flagTargetInZone": "11"
      }
    }
  },
  "inputKeys": [
    {
      "keyID": 201,
      "inputKeyCode": 257,
      "abilityName": ""
    },
    {
      "keyID": 201,
      "inputKeyCode": 258,
      "abilityName": ""
    },
    {
      "keyID": 301,
      "inputKeyCode": 259,
      "abilityName": ""
    }
  ],
  "CNKALMEOOKH": {
    "HFCELPHEBND": {
      "EOHNHJBAFKK": {
        "LeftEar": [
          "EntityTouch_LeftEar"
        ],
        "RightEar": [
          "EntityTouch_RightEar"
        ],
        "UpperBody": [
          "EntityTouch_UpperBody"
        ],
        "LeftHand": [
          "EntityTouch_LeftHand01",
          "EntityTouch_LeftHand02"
        ],
        "RightHand": [
          "EntityTouch_RightHand01",
          "EntityTouch_RightHand02"
        ],
        "Head": [
          "EntityTouch_Head"
        ],
        "LowerBody": [
          "EntityTouch_LowerBody"
        ],
        "Tail": [
          "EntityTouch_Tail01",
          "EntityTouch_Tail02",
          "EntityTouch_Tail03"
        ]
      }
    },
    "HMJJMGFAGAM": {
      "FLIPAJEHKPJ": "_ANIMAL_HPMCAT_BULLEKNIGHT_FAVORABILITY_",
      "KBJAOIAIGEH": ""
    }
  },
  "IAPAMDKGECN": true,
  "ALOBLCKPOMA": true
}