{
  "common": {
    "effectAttachShape": {
      "$type": "FJNPJANPGGC",
      "mesh": "EffectMesh"
    },
    "mass": 100000000.0,
    "height": 2.5,
    "viewSize": 1.5,
    "affectedByWorld": true,
    "disableTickDistance": 10000.0,
    "useDynamicBone": true,
    "clearAnimatorOnSetLightDeactive": true,
    "clearAIOnSetLightDeactive": true
  },
  "model": {
    "bornEffect": "",
    "attachEffect": "",
    "canBakeMesh": false,
    "BKPFGNPLDNJ": ""
  },
  "globalValue": {
    "serverGlobalValues": [
      "SGV_DungeonDifficulty"
    ]
  },
  "combat": {
    "property": {
      "endureType": "Monster_Boss_Other",
      "weight": 20000.0
    },
    "beHit": {
      "hitBloodEffect": ""
    },
    "combatLock": {
      "lockShape": "CircleLockEnemy",
      "lockType": "Boss_Lv5"
    },
    "die": {
      "hasAnimatorDie": true,
      "fallWhenAirDie": false,
      "dieEndTime": 4.0,
      "dieForceDisappearTime": 6.0,
      "dieDisappearEffect": "",
      "muteHitBox": true,
      "dieDenyLockOn": true,
      "dieIsGhostToEnemy": true,
      "dieIgnoreTriggerBullet": true,
      "muteBillboard": true,
      "mutePushCollider": true
    },
    "animEvents": {
      "Tartaglia_Harbinger_SweepAttackL": {
        "attackPattern": {
          "$type": "GMDIMKKHACA",
          "triggerType": "TriggerNoRepeat",
          "born": {
            "$type": "IAENDIPDFKD",
            "offset": {
              "KGEPIMHBMOL": 0.0,
              "JEBHCGDPFEJ": 0.0,
              "LPCHALMFFOD": 0.0
            },
            "direction": {
              "$type": "AHGNBAPONLA",
              "angleOffset": {
                "KGEPIMHBMOL": 0.0,
                "JEBHCGDPFEJ": -22.5,
                "LPCHALMFFOD": 0.0
              }
            }
          },
          "height": 3.0,
          "fanAngle": 225.0,
          "OAHPDLJIADP": 10.0
        },
        "attackInfo": {
          "attackTag": "Tartaglia_Harbinger_ThunderClap",
          "attenuationTag": "",
          "attenuationGroup": "default",
          "attackProperty": {
            "actorGrassSubHurtDelta": 0.5,
            "actorWindSubHurtDelta": 0.0,
            "elementType": "Electric",
            "IPFJJJGABPL": 0.0,
            "strikeType": "Default",
            "enBreak": 1000.0,
            "GLKMCMDJBIK": 0.0
          },
          "hitPattern": {
            "onHitEffectName": "default",
            "hitImpulseY": "",
            "hitImpulseType": "LV5"
          }
        }
      },
      "Tartaglia_Harbinger_SweepAttackR": {
        "attackPattern": {
          "$type": "GMDIMKKHACA",
          "triggerType": "TriggerNoRepeat",
          "born": {
            "$type": "IAENDIPDFKD",
            "offset": {
              "KGEPIMHBMOL": 0.0,
              "JEBHCGDPFEJ": 0.0,
              "LPCHALMFFOD": 0.0
            },
            "direction": {
              "$type": "AHGNBAPONLA",
              "angleOffset": {
                "KGEPIMHBMOL": 0.0,
                "JEBHCGDPFEJ": 22.5,
                "LPCHALMFFOD": 0.0
              }
            }
          },
          "height": 3.0,
          "fanAngle": 225.0,
          "OAHPDLJIADP": 10.0
        },
        "attackInfo": {
          "attackTag": "Tartaglia_Harbinger_ThunderClap",
          "attenuationTag": "",
          "attenuationGroup": "default",
          "attackProperty": {
            "actorGrassSubHurtDelta": 0.5,
            "actorWindSubHurtDelta": 0.0,
            "elementType": "Electric",
            "IPFJJJGABPL": 0.0,
            "strikeType": "Default",
            "enBreak": 1000.0,
            "GLKMCMDJBIK": 0.0
          },
          "hitPattern": {
            "onHitEffectName": "default",
            "hitImpulseY": "",
            "hitImpulseType": "LV5"
          }
        }
      }
    }
  },
  "equipController": {
    "sheathPoint": "",
    "attachPoints": {
      "equip01": "WeaponL",
      "equip02": "WeaponR",
      "equip03": "WeaponL",
      "equip04": "WeaponR",
      "equip05": "WeaponL"
    }
  },
  "abilities": [
    {
      "abilityID": "CommonState",
      "abilityName": "Tartaglia_Harbinger_CommonState",
      "abilityOverride": ""
    },
    {
      "abilityID": "ReminderController",
      "abilityName": "Tartaglia_Harbinger_ReminderController",
      "abilityOverride": ""
    },
    {
      "abilityID": "EquipController",
      "abilityName": "Tartaglia_Harbinger_EquipController",
      "abilityOverride": ""
    },
    {
      "abilityID": "Riptide_Detect",
      "abilityName": "Tartaglia_Harbinger_Riptide_Detect",
      "abilityOverride": ""
    },
    {
      "abilityID": "ThunderClap_Detect",
      "abilityName": "Tartaglia_Harbinger_ThunderClap_Detect",
      "abilityOverride": ""
    },
    {
      "abilityID": "ChangePosition",
      "abilityName": "Tartaglia_Harbinger_ChangePosition",
      "abilityOverride": ""
    },
    {
      "abilityID": "RushMove",
      "abilityName": "Tartaglia_Harbinger_RushMove",
      "abilityOverride": ""
    },
    {
      "abilityID": "NormalAttack01",
      "abilityName": "Tartaglia_Harbinger_NormalAttack01",
      "abilityOverride": ""
    },
    {
      "abilityID": "NormalAttack02_01",
      "abilityName": "Tartaglia_Harbinger_NormalAttack02_01",
      "abilityOverride": ""
    },
    {
      "abilityID": "NormalAttack02_02",
      "abilityName": "Tartaglia_Harbinger_NormalAttack02_02",
      "abilityOverride": ""
    },
    {
      "abilityID": "NormalAttack03_SetPos",
      "abilityName": "Tartaglia_Harbinger_NormalAttack03_SetPos",
      "abilityOverride": ""
    },
    {
      "abilityID": "NormalAttack03",
      "abilityName": "Tartaglia_Harbinger_NormalAttack03",
      "abilityOverride": ""
    },
    {
      "abilityID": "NormalAttack04_01",
      "abilityName": "Tartaglia_Harbinger_NormalAttack04_01",
      "abilityOverride": ""
    },
    {
      "abilityID": "NormalAttack04_02",
      "abilityName": "Tartaglia_Harbinger_NormalAttack04_02",
      "abilityOverride": ""
    },
    {
      "abilityID": "NormalAttack05_01",
      "abilityName": "Tartaglia_Harbinger_NormalAttack05_01",
      "abilityOverride": ""
    },
    {
      "abilityID": "NormalAttack05_02",
      "abilityName": "Tartaglia_Harbinger_NormalAttack05_02",
      "abilityOverride": ""
    },
    {
      "abilityID": "NormalAttack05_03",
      "abilityName": "Tartaglia_Harbinger_NormalAttack05_03",
      "abilityOverride": ""
    },
    {
      "abilityID": "PowerAttack",
      "abilityName": "Tartaglia_Harbinger_PowerAttack",
      "abilityOverride": ""
    },
    {
      "abilityID": "PowerAttack_Summon",
      "abilityName": "Tartaglia_Harbinger_PowerAttack_Summon",
      "abilityOverride": ""
    },
    {
      "abilityID": "CoverAttack",
      "abilityName": "Tartaglia_Harbinger_CoverAttack",
      "abilityOverride": ""
    },
    {
      "abilityID": "RangeAttack_Alert",
      "abilityName": "Tartaglia_Harbinger_RangeAttack_Alert",
      "abilityOverride": ""
    },
    {
      "abilityID": "ExtraAttack01",
      "abilityName": "Tartaglia_Harbinger_ExtraAttack01",
      "abilityOverride": ""
    },
    {
      "abilityID": "ExtraAttack02",
      "abilityName": "Tartaglia_Harbinger_ExtraAttack02",
      "abilityOverride": ""
    },
    {
      "abilityID": "StrikeAttackBS",
      "abilityName": "Tartaglia_Harbinger_StrikeAttackBS",
      "abilityOverride": ""
    },
    {
      "abilityID": "StrikeAttack",
      "abilityName": "Tartaglia_Harbinger_StrikeAttack",
      "abilityOverride": ""
    },
    {
      "abilityID": "StrikeAttackAS",
      "abilityName": "Tartaglia_Harbinger_StrikeAttackAS",
      "abilityOverride": ""
    },
    {
      "abilityID": "CycleAttack",
      "abilityName": "Tartaglia_Harbinger_CycleAttack",
      "abilityOverride": ""
    },
    {
      "abilityID": "HiraishinBS",
      "abilityName": "Tartaglia_Harbinger_HiraishinBS",
      "abilityOverride": ""
    },
    {
      "abilityID": "Hiraishin",
      "abilityName": "Tartaglia_Harbinger_Hiraishin",
      "abilityOverride": ""
    },
    {
      "abilityID": "HiraishinAS",
      "abilityName": "Tartaglia_Harbinger_HiraishinAS",
      "abilityOverride": ""
    }
  ],
  "stateLayers": {
    "defaultLayer": {
      "$type": "GBGJJIIEMBD",
      "layerIndexName": "",
      "CPAANEIJCGD": "",
      "stateIDs": {
        "Born": {
          "$type": "NEDIFAKEGCO",
          "animatorStates": {
            "Born": []
          },
          "addEndure": 0.0,
          "resetAnimatorTriggerOnExit": [
            "DoSkill"
          ]
        },
        "NormalIdle": {
          "$type": "NEDIFAKEGCO",
          "animatorStates": {
            "Standby": []
          },
          "canDoSkill": true,
          "canSyncMove": true,
          "resetAnimatorTriggerOnExit": [
            "DoSkill"
          ]
        },
        "Turn": {
          "$type": "NEDIFAKEGCO",
          "animatorStates": {
            "TurnL": [],
            "TurnLAS": [],
            "TurnR": [],
            "TurnRAS": []
          },
          "canDoSkill": true,
          "canSyncMove": true,
          "resetAnimatorTriggerOnExit": [
            "DoSkill"
          ],
          "canSteer": true,
          "followAnimRotation": true
        },
        "NormalMove": {
          "$type": "NEDIFAKEGCO",
          "animatorStates": {
            "WalkL": [],
            "WalkR": []
          },
          "canDoSkill": true,
          "canSyncMove": true,
          "resetAnimatorTriggerOnExit": [
            "DoSkill"
          ],
          "canSteer": true
        },
        "BeHit": {
          "$type": "NEDIFAKEGCO",
          "animatorStates": {
            "HitL": [],
            "HitH": []
          },
          "resetAnimatorTriggerOnEnter": [
            "BeHit",
            "ShakeTrigger"
          ],
          "resetAnimatorTriggerOnExit": [
            "DoSkill"
          ]
        },
        "Die": {
          "$type": "NEDIFAKEGCO",
          "animatorStates": {
            "Die": [
              "Monster_Tartaglia_Harbinger_Die",
              "Audio_Monster_Tartaglia_Harbinger_Die"
            ]
          }
        },
        "Alert": {
          "$type": "NEDIFAKEGCO",
          "animatorStates": {
            "Alert": [
              "Monster_Tartaglia_Harbinger_Alert"
            ]
          },
          "resetAnimatorTriggerOnExit": [
            "BeHit",
            "ShakeTrigger",
            "DoSkill"
          ]
        },
        "ChangePosition": {
          "$type": "NEDIFAKEGCO",
          "animatorStates": {
            "ChangePosition": [
              "Monster_Tartaglia_Harbinger_ChangePosition"
            ]
          },
          "resetAnimatorTriggerOnExit": [
            "BeHit",
            "ShakeTrigger",
            "DoSkill"
          ]
        },
        "RushMove": {
          "$type": "NEDIFAKEGCO",
          "animatorStates": {
            "RushMove": [
              "Monster_Tartaglia_Harbinger_RushMove"
            ]
          },
          "resetAnimatorTriggerOnExit": [
            "BeHit",
            "ShakeTrigger",
            "DoSkill"
          ]
        },
        "NormalAttack_Bow": {
          "$type": "NEDIFAKEGCO",
          "animatorStates": {
            "NormalAttack01BS": [],
            "NormalAttack01": [
              "Monster_Tartaglia_Harbinger_NormalAttack01",
              "Audio_Monster_Tartaglia_Harbinger_NormalAtk01"
            ]
          },
          "resetAnimatorTriggerOnExit": [
            "BeHit",
            "ShakeTrigger",
            "DoSkill"
          ]
        },
        "NormalAttack_Blade": {
          "$type": "NEDIFAKEGCO",
          "animatorStates": {
            "NormalAttack02": [
              "Monster_Tartaglia_Harbinger_NormalAttack02",
              "Audio_Monster_Tartaglia_Harbinger_NormalAtk02"
            ],
            "NormalAttack05PA": [
              "Monster_Tartaglia_Harbinger_NormalAttack05_01",
              "Audio_Monster_Tartaglia_Harbinger_NormalAtk05"
            ],
            "NormalAttack04PA": [
              "Monster_Tartaglia_Harbinger_NormalAttack04",
              "Audio_Monster_Tartaglia_Harbinger_NormalAtk04"
            ]
          },
          "resetAnimatorTriggerOnExit": [
            "BeHit",
            "ShakeTrigger",
            "DoSkill"
          ]
        },
        "NormalAttack_DualBlade": {
          "$type": "NEDIFAKEGCO",
          "animatorStates": {
            "NormalAttack01AS": [],
            "NormalAttack02AS": [],
            "NormalAttack03": [
              "Monster_Tartaglia_Harbinger_NormalAttack03",
              "Audio_Monster_Tartaglia_Harbinger_NormalAtk03"
            ],
            "NormalAttack04PB": [],
            "NormalAttack05PB": [
              "Monster_Tartaglia_Harbinger_NormalAttack05_02"
            ],
            "NormalAttack05PD": []
          },
          "resetAnimatorTriggerOnExit": [
            "BeHit",
            "ShakeTrigger",
            "DoSkill"
          ]
        },
        "NormalAttack": {
          "$type": "NEDIFAKEGCO",
          "animatorStates": {
            "NormalAttack05PC": [
              "Monster_Tartaglia_Harbinger_NormalAttack05_03"
            ]
          },
          "resetAnimatorTriggerOnExit": [
            "BeHit",
            "ShakeTrigger",
            "DoSkill"
          ]
        },
        "PowerAttack_Bow": {
          "$type": "NEDIFAKEGCO",
          "animatorStates": {
            "PowerAttackPA": [
              "Monster_Tartaglia_Harbinger_PowerAttack",
              "Audio_Monster_Tartaglia_Harbinger_PowerAtk"
            ]
          },
          "resetAnimatorTriggerOnExit": [
            "BeHit",
            "ShakeTrigger",
            "DoSkill"
          ]
        },
        "PowerAttack_DualBlade": {
          "$type": "NEDIFAKEGCO",
          "animatorStates": {
            "PowerAttackPB": []
          },
          "resetAnimatorTriggerOnExit": [
            "BeHit",
            "ShakeTrigger",
            "DoSkill"
          ]
        },
        "CoverAttack_Bow": {
          "$type": "NEDIFAKEGCO",
          "animatorStates": {
            "CoverAttackPA": [
              "Monster_Tartaglia_Harbinger_CoverAttack",
              "Audio_Monster_Tartaglia_Harbinger_CoverAtk"
            ]
          },
          "resetAnimatorTriggerOnExit": [
            "BeHit",
            "ShakeTrigger",
            "DoSkill"
          ]
        },
        "CoverAttack_DualBlade": {
          "$type": "NEDIFAKEGCO",
          "animatorStates": {
            "CoverAttackPB": []
          },
          "resetAnimatorTriggerOnExit": [
            "BeHit",
            "ShakeTrigger",
            "DoSkill"
          ]
        },
        "RangeAttack": {
          "$type": "NEDIFAKEGCO",
          "animatorStates": {
            "RangeAttack": [
              "Monster_Tartaglia_Harbinger_RangeAttack",
              "Audio_Monster_Tartaglia_Harbinger_RangeAtk"
            ]
          },
          "resetAnimatorTriggerOnExit": [
            "BeHit",
            "ShakeTrigger",
            "DoSkill"
          ]
        },
        "ExtraAttack": {
          "$type": "NEDIFAKEGCO",
          "animatorStates": {
            "ExtraAttack": [
              "Monster_Tartaglia_Harbinger_ExtraAttack",
              "Audio_Monster_Tartaglia_Harbinger_ExtraAtk"
            ]
          },
          "resetAnimatorTriggerOnExit": [
            "BeHit",
            "ShakeTrigger",
            "DoSkill"
          ]
        },
        "StrikeAttack": {
          "$type": "NEDIFAKEGCO",
          "animatorStates": {
            "StrikeAttack": [
              "Monster_Tartaglia_Harbinger_StrikeAttack",
              "Audio_Monster_Tartaglia_Harbinger_StrikeAtk"
            ]
          },
          "resetAnimatorTriggerOnExit": [
            "BeHit",
            "ShakeTrigger",
            "DoSkill"
          ]
        },
        "SweepAttack_DualBladeL": {
          "$type": "NEDIFAKEGCO",
          "animatorStates": {
            "SweepAttackR": [
              "Monster_Tartaglia_Harbinger_SweepAttackR",
              "Audio_Monster_Tartaglia_Harbinger_SweepAtkR"
            ]
          },
          "resetAnimatorTriggerOnExit": [
            "BeHit",
            "ShakeTrigger",
            "DoSkill"
          ],
          "canSteer": true,
          "followAnimRotation": true
        },
        "SweepAttack_DualBladeR": {
          "$type": "NEDIFAKEGCO",
          "animatorStates": {
            "SweepAttackL": [
              "Monster_Tartaglia_Harbinger_SweepAttackL",
              "Audio_Monster_Tartaglia_Harbinger_SweepAtkL"
            ]
          },
          "resetAnimatorTriggerOnExit": [
            "BeHit",
            "ShakeTrigger",
            "DoSkill"
          ],
          "canSteer": true,
          "followAnimRotation": true
        },
        "CycleAttack_DualBlade": {
          "$type": "NEDIFAKEGCO",
          "animatorStates": {
            "CycleAttackPA": [
              "Monster_Tartaglia_Harbinger_CycleAttackBS",
              "Audio_Monster_Tartaglia_Harbinger_CycleAtk"
            ],
            "CycleAttackPC": []
          },
          "resetAnimatorTriggerOnExit": [
            "BeHit",
            "ShakeTrigger",
            "DoSkill"
          ]
        },
        "CycleAttack": {
          "$type": "NEDIFAKEGCO",
          "animatorStates": {
            "CycleAttackPB": [
              "Monster_Tartaglia_Harbinger_CycleAttack"
            ]
          },
          "resetAnimatorTriggerOnExit": [
            "BeHit",
            "ShakeTrigger",
            "DoSkill"
          ]
        },
        "Hiraishin_DualBlade": {
          "$type": "NEDIFAKEGCO",
          "animatorStates": {
            "HiraishinBS": [
              "Monster_Tartaglia_Harbinger_HiraishinBS",
              "Audio_Monster_Tartaglia_Harbinger_Hiraishin_BS"
            ],
            "HiraishinAS": [
              "Monster_Tartaglia_Harbinger_HiraishinAS",
              "Audio_Monster_Tartaglia_Harbinger_Hiraishin"
            ]
          },
          "cullingModelAlwaysAnimate": true,
          "resetAnimatorTriggerOnExit": [
            "BeHit",
            "ShakeTrigger",
            "DoSkill"
          ]
        },
        "Hiraishin": {
          "$type": "NEDIFAKEGCO",
          "animatorStates": {
            "Hiraishin": [
              "Monster_Tartaglia_Harbinger_Hiraishin"
            ]
          },
          "cullingModelAlwaysAnimate": true,
          "resetAnimatorTriggerOnExit": [
            "BeHit",
            "ShakeTrigger",
            "DoSkill"
          ]
        }
      }
    }
  },
  "billboard": {
    "$type": "DNGNMAJBCNP",
    "attachPoint": "BillboardAttach",
    "offsetType": "Character",
    "radiusOffset": 0.3499999940395355,
    "showHPBar": true
  },
  "initialPoses": {
    "Default": {}
  },
  "aibeta": {
    "enable": true,
    "moveSetting": {
      "useNavMesh": false,
      "navMeshAgentName": "Undead01"
    },
    "sensing": {
      "settings": {
        "DefaultSetting": {
          "enableVision": false,
          "feelRange": 15.0
        }
      }
    },
    "threat": {
      "GHIJMOKOLMB": "",
      "resistTauntLevel": "Monster_TauntLevel_5"
    },
    "defendArea": {
      "enable": false
    },
    "ui": {
      "HMNNBFDEHLG": ""
    },
    "profiling": {
      "lodStrategy": "Best"
    },
    "network": {
      "syncSkill": true,
      "resetHpOnSpawn": false
    },
    "skillGroupCDConfigs": [
      {
        "skillGroupCDID": 200,
        "skillGroupCDTime": 0.0
      },
      {
        "skillGroupCDID": 300,
        "skillGroupCDTime": 45.0
      },
      {
        "skillGroupCDID": 310,
        "skillGroupCDTime": 60.0
      },
      {
        "skillGroupCDID": 520,
        "skillGroupCDTime": 15.0
      },
      {
        "skillGroupCDID": 530,
        "skillGroupCDTime": 60.0
      },
      {
        "skillGroupCDID": 600,
        "skillGroupCDTime": 5.0
      }
    ],
    "skills": {
      "101": {
        "name": "OnAlert",
        "skillType": "OnAlert",
        "publicCDGroup": "",
        "ignoreGCD": true,
        "triggerGCD": false,
        "HHAGODJIAPE": "",
        "stateIDs": [
          "Alert"
        ],
        "skillQueryingTime": 3.0,
        "flagTargetReachable": "10",
        "flagSelfOnTemplateCollider": "01",
        "flagSelfInZone": "10",
        "flagTargetInZone": "11"
      },
      "201": {
        "name": "NormalAttack01",
        "priority": 4,
        "faceTarget": true,
        "castCondition": {
          "pose": [
            101,
            201,
            202,
            203,
            301,
            302,
            303,
            401,
            402,
            403
          ],
          "maxTargetAngleY": 60.0,
          "pickRangeMin": 10.0,
          "pickRangeMax": 50.0
        },
        "cd": 1.0,
        "cdUpperRange": 3.0,
        "publicCDGroup": "",
        "triggerGCD": false,
        "HHAGODJIAPE": "",
        "stateIDs": [
          "NormalAttack_Bow"
        ],
        "flagTargetReachable": "10",
        "flagSelfOnTemplateCollider": "01",
        "flagSelfInZone": "10",
        "flagTargetInZone": "11"
      },
      "211": {
        "name": "NormalAttack02",
        "priority": 4,
        "faceTarget": true,
        "castCondition": {
          "pose": [
            101,
            201,
            202,
            203,
            301,
            302,
            303,
            401,
            402,
            403
          ],
          "maxTargetAngleY": 45.0,
          "pickRangeMin": 5.0,
          "pickRangeMax": 15.0
        },
        "cd": 1.0,
        "cdUpperRange": 3.0,
        "publicCDGroup": "",
        "triggerGCD": false,
        "HHAGODJIAPE": "",
        "stateIDs": [
          "NormalAttack_Blade",
          "NormalAttack_Bow",
          "NormalAttack_DualBlade"
        ],
        "flagTargetReachable": "10",
        "flagSelfOnTemplateCollider": "01",
        "flagSelfInZone": "10",
        "flagTargetInZone": "11"
      },
      "221": {
        "name": "NormalAttack03",
        "priority": 4,
        "faceTarget": true,
        "castCondition": {
          "pose": [
            101,
            201,
            202,
            203,
            301,
            302,
            303,
            401,
            402,
            403
          ],
          "pickRangeMin": 10.0,
          "pickRangeMax": 20.0
        },
        "cd": 1.0,
        "cdUpperRange": 3.0,
        "publicCDGroup": "",
        "triggerGCD": false,
        "HHAGODJIAPE": "",
        "stateIDs": [
          "NormalAttack_DualBlade"
        ],
        "flagTargetReachable": "10",
        "flagSelfOnTemplateCollider": "01",
        "flagSelfInZone": "10",
        "flagTargetInZone": "11"
      },
      "231": {
        "name": "NormalAttack04",
        "faceTarget": true,
        "castCondition": {
          "pose": [
            101,
            201,
            202,
            203,
            301,
            302,
            303,
            401,
            402,
            403
          ],
          "pickRangeMax": 5.0
        },
        "cd": 1.0,
        "cdUpperRange": 3.0,
        "publicCDGroup": "",
        "triggerGCD": false,
        "HHAGODJIAPE": "",
        "stateIDs": [
          "NormalAttack_Blade",
          "NormalAttack_Bow",
          "NormalAttack_DualBlade"
        ],
        "flagTargetReachable": "10",
        "flagSelfOnTemplateCollider": "01",
        "flagSelfInZone": "10",
        "flagTargetInZone": "11"
      },
      "241": {
        "name": "NormalAttack05",
        "faceTarget": true,
        "castCondition": {
          "pose": [
            101,
            201,
            202,
            203,
            301,
            302,
            303,
            401,
            402,
            403
          ],
          "pickRangeMax": 7.5
        },
        "cd": 1.0,
        "cdUpperRange": 3.0,
        "publicCDGroup": "",
        "triggerGCD": false,
        "HHAGODJIAPE": "",
        "stateIDs": [
          "NormalAttack_Blade",
          "NormalAttack_Bow",
          "NormalAttack_DualBlade",
          "NormalAttack"
        ],
        "flagTargetReachable": "10",
        "flagSelfOnTemplateCollider": "01",
        "flagSelfInZone": "10",
        "flagTargetInZone": "11"
      },
      "301": {
        "name": "PowerAttack",
        "priority": 1,
        "castCondition": {
          "pose": [
            202,
            203,
            302,
            303,
            402,
            403
          ],
          "pickRangeMax": 50.0
        },
        "cd": 45.0,
        "initialCD": 45.0,
        "publicCDGroup": "",
        "skillGroupCDID": 300,
        "HHAGODJIAPE": "",
        "stateIDs": [
          "PowerAttack_Bow",
          "PowerAttack_DualBlade"
        ],
        "flagTargetReachable": "10",
        "flagSelfOnTemplateCollider": "01",
        "flagSelfInZone": "10",
        "flagTargetInZone": "11"
      },
      "302": {
        "name": "PowerAttack",
        "priority": 1,
        "castCondition": {
          "pose": [
            201,
            202,
            203,
            301,
            302,
            303,
            401,
            402,
            403
          ],
          "pickRangeMax": 50.0
        },
        "cd": 60.0,
        "initialCD": 60.0,
        "publicCDGroup": "",
        "skillGroupCDID": 300,
        "HHAGODJIAPE": "",
        "stateIDs": [
          "PowerAttack_Bow",
          "PowerAttack_DualBlade"
        ],
        "flagTargetReachable": "10",
        "flagSelfOnTemplateCollider": "01",
        "flagSelfInZone": "10",
        "flagTargetInZone": "11"
      },
      "311": {
        "name": "CoverAttack",
        "priority": 1,
        "faceTarget": true,
        "castCondition": {
          "pose": [
            203,
            303,
            401,
            402,
            403
          ],
          "pickRangeMax": 50.0
        },
        "cd": 60.0,
        "initialCD": 60.0,
        "publicCDGroup": "",
        "skillGroupCDID": 310,
        "HHAGODJIAPE": "",
        "stateIDs": [
          "CoverAttack_Bow",
          "CoverAttack_DualBlade"
        ],
        "flagTargetReachable": "10",
        "flagSelfOnTemplateCollider": "01",
        "flagSelfInZone": "10",
        "flagTargetInZone": "11"
      },
      "312": {
        "name": "CoverAttack",
        "priority": 1,
        "faceTarget": true,
        "castCondition": {
          "pose": [
            201,
            202,
            203,
            301,
            302,
            303,
            401,
            402,
            403
          ],
          "pickRangeMax": 50.0
        },
        "cd": 60.0,
        "cdUpperRange": 30.0,
        "initialCD": 90.0,
        "publicCDGroup": "",
        "skillGroupCDID": 310,
        "HHAGODJIAPE": "",
        "stateIDs": [
          "CoverAttack_Bow",
          "CoverAttack_DualBlade"
        ],
        "flagTargetReachable": "10",
        "flagSelfOnTemplateCollider": "01",
        "flagSelfInZone": "10",
        "flagTargetInZone": "11"
      },
      "401": {
        "name": "RangeAttack",
        "priority": 3,
        "faceTarget": true,
        "castCondition": {
          "pose": [
            101,
            201,
            202,
            203,
            301,
            302,
            303,
            401,
            402,
            403
          ],
          "pickRangeMin": 10.0,
          "pickRangeMax": 50.0
        },
        "cd": 15.0,
        "cdUpperRange": 15.0,
        "initialCD": 25.0,
        "publicCDGroup": "",
        "triggerGCD": false,
        "HHAGODJIAPE": "",
        "stateIDs": [
          "RangeAttack"
        ],
        "flagTargetReachable": "10",
        "flagSelfOnTemplateCollider": "01",
        "flagSelfInZone": "10",
        "flagTargetInZone": "11"
      },
      "402": {
        "name": "RangeAttack",
        "priority": 3,
        "faceTarget": true,
        "castCondition": {
          "pose": [
            202,
            203,
            302,
            303,
            402,
            403
          ],
          "pickRangeMin": 10.0,
          "pickRangeMax": 50.0
        },
        "cd": 30.0,
        "cdUpperRange": 15.0,
        "initialCD": 25.0,
        "publicCDGroup": "",
        "triggerGCD": false,
        "HHAGODJIAPE": "",
        "stateIDs": [
          "RangeAttack"
        ],
        "flagTargetReachable": "10",
        "flagSelfOnTemplateCollider": "01",
        "flagSelfInZone": "10",
        "flagTargetInZone": "11"
      },
      "411": {
        "name": "ExtraAttack",
        "priority": 3,
        "faceTarget": true,
        "castCondition": {
          "pose": [
            101,
            201,
            202,
            203,
            301,
            302,
            303,
            401,
            402,
            403
          ],
          "pickRangeMin": 10.0,
          "pickRangeMax": 30.0
        },
        "cd": 15.0,
        "cdUpperRange": 15.0,
        "initialCD": 25.0,
        "publicCDGroup": "",
        "triggerGCD": false,
        "HHAGODJIAPE": "",
        "stateIDs": [
          "ExtraAttack"
        ],
        "flagTargetReachable": "10",
        "flagSelfOnTemplateCollider": "01",
        "flagSelfInZone": "10",
        "flagTargetInZone": "11"
      },
      "412": {
        "name": "ExtraAttack",
        "priority": 3,
        "faceTarget": true,
        "castCondition": {
          "pose": [
            301,
            302,
            303,
            401,
            402,
            403
          ],
          "pickRangeMin": 20.0,
          "pickRangeMax": 40.0
        },
        "cd": 15.0,
        "cdUpperRange": 15.0,
        "initialCD": 25.0,
        "publicCDGroup": "",
        "triggerGCD": false,
        "HHAGODJIAPE": "",
        "stateIDs": [
          "ExtraAttack"
        ],
        "flagTargetReachable": "10",
        "flagSelfOnTemplateCollider": "01",
        "flagSelfInZone": "10",
        "flagTargetInZone": "11"
      },
      "413": {
        "name": "ExtraAttack",
        "priority": 3,
        "faceTarget": true,
        "castCondition": {
          "pose": [
            401,
            402,
            403
          ],
          "pickRangeMin": 10.0,
          "pickRangeMax": 40.0
        },
        "cd": 30.0,
        "cdUpperRange": 15.0,
        "initialCD": 25.0,
        "publicCDGroup": "",
        "triggerGCD": false,
        "HHAGODJIAPE": "",
        "stateIDs": [
          "ExtraAttack"
        ],
        "flagTargetReachable": "10",
        "flagSelfOnTemplateCollider": "01",
        "flagSelfInZone": "10",
        "flagTargetInZone": "11"
      },
      "501": {
        "name": "StrikeAttack",
        "priority": 3,
        "castCondition": {
          "pose": [
            201,
            202,
            203,
            301,
            302,
            303,
            401,
            402,
            403
          ],
          "pickRangeMin": 5.0,
          "pickRangeMax": 15.0
        },
        "cd": 45.0,
        "cdUpperRange": 15.0,
        "initialCD": 50.0,
        "publicCDGroup": "",
        "triggerGCD": false,
        "HHAGODJIAPE": "",
        "stateIDs": [
          "StrikeAttack"
        ],
        "flagTargetReachable": "10",
        "flagSelfOnTemplateCollider": "01",
        "flagSelfInZone": "10",
        "flagTargetInZone": "11"
      },
      "511": {
        "name": "SweepAttack",
        "priority": 2,
        "castCondition": {
          "pose": [
            101,
            201,
            202,
            203,
            301,
            302,
            303,
            401,
            402,
            403
          ],
          "minTargetAngleXZ": 90.0,
          "pickRangeMax": 10.0
        },
        "cd": 1.0,
        "cdUpperRange": 3.0,
        "publicCDGroup": "",
        "triggerGCD": false,
        "HHAGODJIAPE": "",
        "stateIDs": [
          "SweepAttack_DualBladeR",
          "SweepAttack_DualBladeL"
        ],
        "flagTargetReachable": "10",
        "flagSelfOnTemplateCollider": "01",
        "flagSelfInZone": "10",
        "flagTargetInZone": "11"
      },
      "521": {
        "name": "CycleAttack",
        "priority": 2,
        "faceTarget": true,
        "castCondition": {
          "pose": [
            202,
            203,
            302,
            303,
            402,
            403
          ],
          "pickRangeMin": 10.0,
          "pickRangeMax": 50.0
        },
        "cd": 20.0,
        "cdUpperRange": 20.0,
        "initialCD": 40.0,
        "publicCDGroup": "",
        "triggerGCD": false,
        "skillGroupCDID": 520,
        "HHAGODJIAPE": "",
        "stateIDs": [
          "CycleAttack_DualBlade",
          "CycleAttack"
        ],
        "flagTargetReachable": "10",
        "flagSelfOnTemplateCollider": "01",
        "flagSelfInZone": "10",
        "flagTargetInZone": "11"
      },
      "522": {
        "name": "CycleAttack",
        "priority": 2,
        "faceTarget": true,
        "castCondition": {
          "pose": [
            203,
            303,
            403
          ],
          "pickRangeMin": 10.0,
          "pickRangeMax": 50.0
        },
        "cd": 5.0,
        "cdUpperRange": 10.0,
        "initialCD": 30.0,
        "publicCDGroup": "",
        "triggerGCD": false,
        "skillGroupCDID": 520,
        "HHAGODJIAPE": "",
        "stateIDs": [
          "CycleAttack_DualBlade",
          "CycleAttack"
        ],
        "flagTargetReachable": "10",
        "flagSelfOnTemplateCollider": "01",
        "flagSelfInZone": "10",
        "flagTargetInZone": "11"
      },
      "523": {
        "name": "CycleAttack",
        "priority": 2,
        "faceTarget": true,
        "castCondition": {
          "pose": [
            201,
            202,
            203,
            301,
            302,
            303,
            401,
            402,
            403
          ],
          "pickRangeMin": 10.0,
          "pickRangeMax": 50.0
        },
        "cd": 40.0,
        "cdUpperRange": 10.0,
        "initialCD": 50.0,
        "publicCDGroup": "",
        "triggerGCD": false,
        "skillGroupCDID": 520,
        "HHAGODJIAPE": "",
        "stateIDs": [
          "CycleAttack_DualBlade",
          "CycleAttack"
        ],
        "flagTargetReachable": "10",
        "flagSelfOnTemplateCollider": "01",
        "flagSelfInZone": "10",
        "flagTargetInZone": "11"
      },
      "531": {
        "name": "Hiraishin",
        "priority": 1,
        "faceTarget": true,
        "castCondition": {
          "pose": [
            301,
            302,
            303,
            401,
            402,
            403
          ],
          "pickRangeMax": 50.0
        },
        "cd": 60.0,
        "initialCD": 90.0,
        "publicCDGroup": "",
        "skillGroupCDID": 530,
        "HHAGODJIAPE": "",
        "stateIDs": [
          "Hiraishin_DualBlade",
          "Hiraishin"
        ],
        "flagTargetReachable": "10",
        "flagSelfOnTemplateCollider": "01",
        "flagSelfInZone": "10",
        "flagTargetInZone": "11"
      },
      "532": {
        "name": "Hiraishin",
        "priority": 1,
        "faceTarget": true,
        "castCondition": {
          "pose": [
            201,
            202,
            203,
            301,
            302,
            303,
            401,
            402,
            403
          ],
          "pickRangeMax": 50.0
        },
        "cd": 90.0,
        "initialCD": 120.0,
        "publicCDGroup": "",
        "skillGroupCDID": 530,
        "HHAGODJIAPE": "",
        "stateIDs": [
          "Hiraishin_DualBlade",
          "Hiraishin"
        ],
        "flagTargetReachable": "10",
        "flagSelfOnTemplateCollider": "01",
        "flagSelfInZone": "10",
        "flagTargetInZone": "11"
      },
      "601": {
        "name": "ChangePosition",
        "priority": 3,
        "castCondition": {
          "pose": [
            101,
            201,
            202,
            203,
            301,
            302,
            303,
            401,
            402,
            403
          ],
          "pickRangeMax": 50.0
        },
        "cd": 20.0,
        "cdUpperRange": 20.0,
        "publicCDGroup": "",
        "triggerGCD": false,
        "skillGroupCDID": 600,
        "HHAGODJIAPE": "",
        "stateIDs": [
          "ChangePosition"
        ],
        "flagTargetReachable": "10",
        "flagSelfOnTemplateCollider": "01",
        "flagSelfInZone": "10",
        "flagTargetInZone": "11"
      },
      "602": {
        "name": "ChangePosition",
        "priority": 1,
        "castCondition": {
          "pose": [
            101,
            201,
            202,
            203,
            301,
            302,
            303,
            401,
            402,
            403
          ],
          "pickRangeMax": 99.0
        },
        "cd": 1.0,
        "publicCDGroup": "",
        "triggerGCD": false,
        "HHAGODJIAPE": "",
        "stateIDs": [
          "ChangePosition"
        ],
        "flagTargetReachable": "10",
        "flagSelfOnTemplateCollider": "10",
        "flagSelfInZone": "10",
        "flagTargetInZone": "11"
      },
      "611": {
        "name": "RushMove",
        "priority": 3,
        "castCondition": {
          "pose": [
            101,
            201,
            202,
            203,
            301,
            302,
            303,
            401,
            402,
            403
          ],
          "pickRangeMin": 10.0,
          "pickRangeMax": 20.0
        },
        "cd": 5.0,
        "cdUpperRange": 5.0,
        "publicCDGroup": "",
        "triggerGCD": false,
        "skillGroupCDID": 600,
        "HHAGODJIAPE": "",
        "stateIDs": [
          "RushMove"
        ],
        "flagTargetReachable": "10",
        "flagSelfOnTemplateCollider": "01",
        "flagSelfInZone": "10",
        "flagTargetInZone": "11"
      },
      "612": {
        "name": "RushMove",
        "priority": 3,
        "castCondition": {
          "pose": [
            101,
            201,
            202,
            203,
            301,
            302,
            303,
            401,
            402,
            403
          ],
          "pickRangeMin": 20.0,
          "pickRangeMax": 30.0
        },
        "cd": 5.0,
        "cdUpperRange": 5.0,
        "publicCDGroup": "",
        "triggerGCD": false,
        "skillGroupCDID": 600,
        "HHAGODJIAPE": "",
        "stateIDs": [
          "RushMove"
        ],
        "flagTargetReachable": "10",
        "flagSelfOnTemplateCollider": "01",
        "flagSelfInZone": "10",
        "flagTargetInZone": "11"
      },
      "613": {
        "name": "RushMove",
        "priority": 2,
        "castCondition": {
          "pose": [
            101,
            201,
            202,
            203,
            301,
            302,
            303,
            401,
            402,
            403
          ],
          "pickRangeMin": 30.0,
          "pickRangeMax": 50.0
        },
        "cd": 5.0,
        "cdUpperRange": 5.0,
        "publicCDGroup": "",
        "triggerGCD": false,
        "skillGroupCDID": 600,
        "HHAGODJIAPE": "",
        "stateIDs": [
          "RushMove"
        ],
        "flagTargetReachable": "10",
        "flagSelfOnTemplateCollider": "01",
        "flagSelfInZone": "10",
        "flagTargetInZone": "11"
      }
    },
    "skillGCD": 3.0,
    "birdCirclingTactic": [
      {
        "$type": "NNJKLGNPMNN",
        "enable": true
      }
    ]
  },
  "inputKeys": [
    {
      "keyID": 201,
      "inputKeyCode": 257,
      "abilityName": ""
    },
    {
      "keyID": 211,
      "inputKeyCode": 258,
      "abilityName": ""
    },
    {
      "keyID": 221,
      "inputKeyCode": 259,
      "abilityName": ""
    },
    {
      "keyID": 301,
      "inputKeyCode": 260,
      "abilityName": ""
    },
    {
      "keyID": 311,
      "inputKeyCode": 263,
      "abilityName": ""
    },
    {
      "keyID": 401,
      "inputKeyCode": 264,
      "abilityName": ""
    },
    {
      "keyID": 611,
      "inputKeyCode": 261,
      "abilityName": ""
    },
    {
      "keyID": 501,
      "inputKeyCode": 262,
      "abilityName": ""
    },
    {
      "keyID": 531,
      "inputKeyCode": 265,
      "abilityName": ""
    }
  ],
  "move": {
    "$type": "IPNMJMHDMPF",
    "velocityForce": {
      "excludeForces": [
        "RetreatType",
        "RetreatAirType",
        "WindZoneType",
        "AirflowType"
      ]
    },
    "positionModifyState": "None",
    "destroyRockWhenInit": true,
    "PKHOMJHFAEE": "RootNode"
  }
}