{
  "common": {
    "effectAttachShape": {
      "$type": "FJNPJANPGGC",
      "mesh": "EffectMesh"
    },
    "mass": 10000.0,
    "height": 5.5,
    "modelHeight": 5.0,
    "viewSize": 4.25,
    "shadowViewSizeRatio": 3.0,
    "affectedByWorld": true,
    "checkInSurface": true,
    "scale": 1.100000023841858,
    "useGrassDisplacement": true,
    "clearAnimatorOnSetLightDeactive": true,
    "clearAIOnSetLightDeactive": true
  },
  "headControl": {
    "$type": "KPIPDEBDPIH",
    "useHeadControl": true,
    "maxYawDegree": 45.0,
    "maxPitchDegree": 30.0,
    "animStates": [
      "NormalIdle/Standby",
      "NormalMove/Walk",
      "NormalMove/Run"
    ]
  },
  "dither": {
    "showDitherDuration": 2.0,
    "normalBetweenCamera": {
      "detectDitherRange": 10.0
    }
  },
  "combat": {
    "property": {
      "endureType": "Monster_Boss_Other",
      "weight": 300.0
    },
    "beHit": {
      "hitBloodEffect": ""
    },
    "combatLock": {
      "lockShape": "CircleLockEnemy",
      "lockType": "Boss_Lv5"
    },
    "die": {
      "hasAnimatorDie": true,
      "dieEndTime": 3.0,
      "dieForceDisappearTime": 5.0,
      "dieDisappearEffect": "Eff_Death_Common",
      "dieShaderData": "MonsterDie",
      "muteHitBox": true,
      "dieDenyLockOn": true,
      "dieIsGhostToEnemy": true,
      "dieIgnoreTriggerBullet": true,
      "muteBillboard": true,
      "mutePushCollider": true
    },
    "animEvents": {
      "NormalAtk01": {
        "attackPattern": {
          "$type": "GMDIMKKHACA",
          "triggerType": "TriggerNoRepeat",
          "born": {
            "$type": "IAENDIPDFKD",
            "offset": {
              "KGEPIMHBMOL": 0.5,
              "JEBHCGDPFEJ": 0.0,
              "LPCHALMFFOD": 2.200000047683716
            }
          },
          "height": 2.0,
          "fanAngle": 240.0,
          "OAHPDLJIADP": 5.0
        },
        "attackInfo": {
          "attackTag": "",
          "attenuationTag": "",
          "attenuationGroup": "default",
          "attackProperty": {
            "actorGrassSubHurtDelta": 0.4000000059604645,
            "actorWindSubHurtDelta": 0.0,
            "elementType": "Rock",
            "IPFJJJGABPL": 50.0,
            "strikeType": "Blunt",
            "enBreak": 200.0,
            "GLKMCMDJBIK": 0.0
          },
          "hitPattern": {
            "onHitEffectName": "default",
            "hitImpulseY": "",
            "hitImpulseType": "LV5"
          }
        }
      },
      "NormalAtk02_01": {
        "attackPattern": {
          "$type": "GMDIMKKHACA",
          "triggerType": "TriggerNoRepeat",
          "born": {
            "$type": "IAENDIPDFKD",
            "offset": {
              "KGEPIMHBMOL": -0.5,
              "JEBHCGDPFEJ": 0.0,
              "LPCHALMFFOD": 6.0
            }
          },
          "height": 2.0,
          "OAHPDLJIADP": 2.5
        },
        "attackInfo": {
          "attackTag": "",
          "attenuationTag": "",
          "attenuationGroup": "default",
          "attackProperty": {
            "actorGrassSubHurtDelta": 0.3499999940395355,
            "actorWindSubHurtDelta": 0.0,
            "elementType": "Rock",
            "IPFJJJGABPL": 50.0,
            "strikeType": "Blunt",
            "enBreak": 200.0,
            "GLKMCMDJBIK": 0.0
          },
          "hitPattern": {
            "onHitEffectName": "default",
            "hitImpulseY": "",
            "hitImpulseType": "LV5"
          }
        }
      },
      "NormalAtk02_02": {
        "attackPattern": {
          "$type": "JHKEHNJBMOF",
          "triggerType": "TriggerNoRepeat",
          "born": {
            "$type": "IAENDIPDFKD",
            "offset": {
              "KGEPIMHBMOL": -1.25,
              "JEBHCGDPFEJ": 1.0,
              "LPCHALMFFOD": 0.0
            }
          },
          "size": {
            "KGEPIMHBMOL": 2.5,
            "JEBHCGDPFEJ": 3.0,
            "LPCHALMFFOD": 8.0
          }
        },
        "attackInfo": {
          "attackTag": "",
          "attenuationTag": "",
          "attenuationGroup": "default",
          "attackProperty": {
            "actorGrassSubHurtDelta": 0.3499999940395355,
            "actorWindSubHurtDelta": 0.0,
            "elementType": "Rock",
            "IPFJJJGABPL": 50.0,
            "strikeType": "Blunt",
            "enBreak": 200.0,
            "GLKMCMDJBIK": 0.0
          },
          "hitPattern": {
            "onHitEffectName": "default",
            "hitImpulseY": "",
            "hitImpulseType": "LV5"
          }
        }
      },
      "ComboAtk01": {
        "attackPattern": {
          "$type": "GMDIMKKHACA",
          "triggerType": "TriggerNoRepeat",
          "born": {
            "$type": "IAENDIPDFKD",
            "offset": {
              "KGEPIMHBMOL": -1.5,
              "JEBHCGDPFEJ": 0.0,
              "LPCHALMFFOD": 0.0
            }
          },
          "height": 2.0,
          "fanAngle": 180.0,
          "OAHPDLJIADP": 6.0
        },
        "attackInfo": {
          "attackTag": "",
          "attenuationTag": "",
          "attenuationGroup": "default",
          "attackProperty": {
            "actorGrassSubHurtDelta": 0.4000000059604645,
            "actorWindSubHurtDelta": 0.0,
            "elementType": "Rock",
            "IPFJJJGABPL": 50.0,
            "strikeType": "Blunt",
            "enBreak": 200.0,
            "GLKMCMDJBIK": 0.0
          },
          "hitPattern": {
            "onHitEffectName": "default",
            "hitImpulseY": "",
            "hitImpulseType": "LV5"
          }
        }
      },
      "ComboAtk02": {
        "attackPattern": {
          "$type": "GMDIMKKHACA",
          "triggerType": "TriggerNoRepeat",
          "born": {
            "$type": "IAENDIPDFKD",
            "offset": {
              "KGEPIMHBMOL": 0.75,
              "JEBHCGDPFEJ": 0.0,
              "LPCHALMFFOD": 0.0
            }
          },
          "height": 2.0,
          "fanAngle": 180.0,
          "OAHPDLJIADP": 6.0
        },
        "attackInfo": {
          "attackTag": "",
          "attenuationTag": "",
          "attenuationGroup": "default",
          "attackProperty": {
            "actorGrassSubHurtDelta": 0.5,
            "actorWindSubHurtDelta": 0.0,
            "elementType": "Rock",
            "IPFJJJGABPL": 50.0,
            "strikeType": "Blunt",
            "enBreak": 200.0,
            "GLKMCMDJBIK": 0.0
          },
          "hitPattern": {
            "onHitEffectName": "default",
            "hitImpulseY": "",
            "hitImpulseType": "LV5"
          }
        }
      },
      "ComboAtk03": {
        "attackPattern": {
          "$type": "GMDIMKKHACA",
          "triggerType": "TriggerNoRepeat",
          "born": {
            "$type": "IAENDIPDFKD",
            "offset": {
              "KGEPIMHBMOL": 0.0,
              "JEBHCGDPFEJ": 0.0,
              "LPCHALMFFOD": 4.5
            }
          },
          "height": 2.0,
          "OAHPDLJIADP": 5.5
        },
        "attackInfo": {
          "attackTag": "",
          "attenuationTag": "",
          "attenuationGroup": "default",
          "attackProperty": {
            "actorGrassSubHurtDelta": 0.625,
            "actorWindSubHurtDelta": 0.0,
            "elementType": "Rock",
            "IPFJJJGABPL": 50.0,
            "strikeType": "Blunt",
            "enBreak": 500.0,
            "GLKMCMDJBIK": 0.0
          },
          "hitPattern": {
            "onHitEffectName": "default",
            "hitImpulseY": "",
            "hitImpulseType": "LV5"
          },
          "forceCameraShake": true,
          "cameraShake": {
            "shakeType": "CustomVector",
            "shakeRange": 0.36000001430511475,
            "shakeTime": 0.36000001430511475,
            "shakeDistance": 30.0,
            "shakeDir": {
              "y": -1.0
            }
          }
        }
      },
      "Glide_HitScene": {
        "attackPattern": {
          "$type": "JHKEHNJBMOF",
          "triggerType": "TriggerNoRepeat",
          "checkHitLayerType": "OnlyHitScene",
          "born": {
            "$type": "IAENDIPDFKD",
            "offset": {
              "KGEPIMHBMOL": 0.0,
              "JEBHCGDPFEJ": 1.0,
              "LPCHALMFFOD": 2.0
            }
          },
          "size": {
            "KGEPIMHBMOL": 4.0,
            "JEBHCGDPFEJ": 3.0,
            "LPCHALMFFOD": 6.0
          }
        }
      }
    }
  },
  "abilities": [
    {
      "abilityID": "StateController",
      "abilityName": "Drake_Primo_Rock_StateController",
      "abilityOverride": ""
    },
    {
      "abilityID": "SteerController",
      "abilityName": "Drake_Primo_Rock_SteerController",
      "abilityOverride": ""
    },
    {
      "abilityID": "ReturnToBorn",
      "abilityName": "Drake_Primo_Rock_ReturnToBorn",
      "abilityOverride": ""
    },
    {
      "abilityID": "NormalAtk01",
      "abilityName": "Drake_Primo_Rock_NormalAtk01",
      "abilityOverride": ""
    },
    {
      "abilityID": "TailSweep",
      "abilityName": "Drake_Primo_Rock_TailSweep",
      "abilityOverride": ""
    },
    {
      "abilityID": "Glide",
      "abilityName": "Drake_Primo_Rock_Glide",
      "abilityOverride": ""
    },
    {
      "abilityID": "GlideGadget",
      "abilityName": "Drake_Primo_Rock_GlideGadget",
      "abilityOverride": ""
    },
    {
      "abilityID": "GlideAS",
      "abilityName": "Drake_Primo_Rock_GlideAS",
      "abilityOverride": ""
    },
    {
      "abilityID": "GlideAS_Damage",
      "abilityName": "Drake_Primo_Rock_GlideAS_Damage",
      "abilityOverride": ""
    },
    {
      "abilityID": "ElementExplodeBS",
      "abilityName": "Drake_Primo_Rock_ElementExplodeBS",
      "abilityOverride": ""
    },
    {
      "abilityID": "ScaleShot",
      "abilityName": "Drake_Primo_Rock_ScaleShot",
      "abilityOverride": ""
    },
    {
      "abilityID": "ScaleShot_Bullet",
      "abilityName": "Drake_Primo_Rock_ScaleShot_Bullet",
      "abilityOverride": ""
    },
    {
      "abilityID": "BrokenL",
      "abilityName": "Drake_Primo_Rock_BrokenL",
      "abilityOverride": ""
    },
    {
      "abilityID": "BrokenH",
      "abilityName": "Drake_Primo_Rock_BrokenH",
      "abilityOverride": ""
    }
  ],
  "stateLayers": {
    "defaultLayer": {
      "$type": "GBGJJIIEMBD",
      "layerIndexName": "",
      "CPAANEIJCGD": "",
      "stateIDs": {
        "Born": {
          "$type": "NEDIFAKEGCO",
          "animatorStates": {
            "Born": []
          },
          "canSyncMove": true,
          "resetAnimatorTriggerOnExit": [
            "DoSkill"
          ]
        },
        "NormalIdle": {
          "$type": "NEDIFAKEGCO",
          "animatorStates": {
            "Standby": []
          },
          "canDoSkill": true,
          "canSyncMove": true,
          "resetAnimatorTriggerOnExit": [
            "DoSkill"
          ]
        },
        "NormalIdle_Prone": {
          "$type": "NEDIFAKEGCO",
          "animatorStates": {
            "Prone": []
          },
          "canDoSkill": true,
          "canSyncMove": true,
          "resetAnimatorTriggerOnExit": [
            "DoSkill"
          ]
        },
        "NormalMove": {
          "$type": "NEDIFAKEGCO",
          "animatorStates": {
            "Walk": [
              "Audio_Drake_Primo_Rock_Walk"
            ],
            "Run": [
              "Audio_Drake_Primo_Rock_Run"
            ]
          },
          "canDoSkill": true,
          "canSyncMove": true,
          "resetAnimatorTriggerOnExit": [
            "DoSkill"
          ],
          "canSteer": true
        },
        "Die": {
          "$type": "NEDIFAKEGCO",
          "animatorStates": {
            "Die": [
              "Monster_Drake_Primo_Rock_Die",
              "Audio_Drake_Primo_Rock_Die"
            ]
          }
        },
        "Alert": {
          "$type": "NEDIFAKEGCO",
          "animatorStates": {
            "Alert": [
              "Monster_Drake_Primo_Rock_Alert",
              "Audio_Drake_Primo_Rock_Alert"
            ]
          },
          "resetAnimatorTriggerOnExit": [
            "BeHit",
            "DoSkill"
          ]
        },
        "Broken": {
          "$type": "NEDIFAKEGCO",
          "animatorStates": {
            "BrokenL": [
              "Monster_Drake_Primo_Rock_BrokenL",
              "Audio_Drake_Primo_Rock_BrokenL"
            ],
            "BrokenH": [
              "Monster_Drake_Primo_Rock_BrokenH",
              "Audio_Drake_Primo_Rock_BrokenH"
            ]
          },
          "resetAnimatorTriggerOnExit": [
            "BeHit",
            "DoSkill"
          ]
        },
        "NormalAtk01": {
          "$type": "NEDIFAKEGCO",
          "animatorStates": {
            "NormalAtk01": [
              "Monster_Drake_Primo_Rock_NormalAtk01",
              "Audio_Drake_Primo_Rock_NormalAtk01"
            ]
          },
          "resetAnimatorTriggerOnExit": [
            "BeHit",
            "DoSkill"
          ]
        },
        "NormalAtk02": {
          "$type": "NEDIFAKEGCO",
          "animatorStates": {
            "NormalAtk02": [
              "Monster_Drake_Primo_Rock_NormalAtk02",
              "Audio_Drake_Primo_Rock_NormalAtk02"
            ]
          },
          "resetAnimatorTriggerOnExit": [
            "BeHit",
            "DoSkill"
          ]
        },
        "ComboAtk01": {
          "$type": "NEDIFAKEGCO",
          "animatorStates": {
            "ComboAtk01": [
              "Monster_Drake_Primo_Rock_ComboAtk01",
              "Audio_Drake_Primo_Rock_ComboAtk01"
            ]
          },
          "resetAnimatorTriggerOnExit": [
            "BeHit",
            "DoSkill"
          ]
        },
        "ComboAtk02": {
          "$type": "NEDIFAKEGCO",
          "animatorStates": {
            "ComboAtk02": [
              "Monster_Drake_Primo_Rock_ComboAtk02",
              "Audio_Drake_Primo_Rock_ComboAtk02"
            ]
          },
          "resetAnimatorTriggerOnExit": [
            "BeHit",
            "DoSkill"
          ]
        },
        "ComboAtk03": {
          "$type": "NEDIFAKEGCO",
          "animatorStates": {
            "ComboAtk03": [
              "Monster_Drake_Primo_Rock_ComboAtk03",
              "Audio_Drake_Primo_Rock_ComboAtk03"
            ]
          },
          "resetAnimatorTriggerOnExit": [
            "BeHit",
            "DoSkill"
          ]
        },
        "TailSweep": {
          "$type": "NEDIFAKEGCO",
          "animatorStates": {
            "TailSweepL": [
              "Monster_Drake_Primo_Rock_TailSweepL",
              "Audio_Drake_Primo_Rock_TailSweep"
            ],
            "TailSweepL_Rotate": [
              "Audio_Drake_Primo_Rock_TailSweep"
            ],
            "TailSweepLAS": [
              "Audio_Drake_Primo_Rock_TailSweep"
            ],
            "TailSweepR": [
              "Monster_Drake_Primo_Rock_TailSweepR",
              "Audio_Drake_Primo_Rock_TailSweep"
            ],
            "TailSweepR_Rotate": [
              "Audio_Drake_Primo_Rock_TailSweep"
            ],
            "TailSweepRAS": [
              "Audio_Drake_Primo_Rock_TailSweep"
            ]
          },
          "resetAnimatorTriggerOnExit": [
            "BeHit",
            "DoSkill"
          ],
          "canSteer": true,
          "followAnimRotation": true
        },
        "ScaleShot": {
          "$type": "NEDIFAKEGCO",
          "animatorStates": {
            "ScaleShot": [
              "Monster_Drake_Primo_Rock_ScaleShot",
              "Audio_Drake_Primo_Rock_ScaleShot"
            ]
          },
          "resetAnimatorTriggerOnExit": [
            "BeHit",
            "DoSkill"
          ]
        },
        "ScaleBurst": {
          "$type": "NEDIFAKEGCO",
          "animatorStates": {
            "ScaleBurstBS": [
              "Audio_Drake_Primo_Rock_ScaleBurstBS"
            ],
            "ScaleBurstAS": [
              "Audio_Drake_Primo_Rock_ScaleBurstAS"
            ]
          },
          "resetAnimatorTriggerOnExit": [
            "BeHit",
            "DoSkill",
            "RollEndTrigger"
          ]
        },
        "ScaleBurstLoop": {
          "$type": "NEDIFAKEGCO",
          "animatorStates": {
            "ScaleBurstLoop": []
          },
          "resetAnimatorTriggerOnExit": [
            "BeHit",
            "DoSkill",
            "RollEndTrigger"
          ]
        },
        "Breathe": {
          "$type": "NEDIFAKEGCO",
          "animatorStates": {
            "Breathe": [
              "Audio_Drake_Primo_Rock_Breathe"
            ]
          },
          "resetAnimatorTriggerOnExit": [
            "BeHit",
            "DoSkill"
          ]
        },
        "ElementExplode": {
          "$type": "NEDIFAKEGCO",
          "animatorStates": {
            "ElementExplode": [
              "Monster_Drake_Primo_Rock_ElementExplode",
              "Audio_Drake_Primo_Rock_ElementExplode"
            ]
          },
          "resetAnimatorTriggerOnEnter": [
            "BeHitBrokenL",
            "BeHitBrokenH"
          ],
          "resetAnimatorTriggerOnExit": [
            "BeHit",
            "DoSkill"
          ]
        },
        "GlideBS": {
          "$type": "NEDIFAKEGCO",
          "animatorStates": {
            "GlideBS": [
              "Monster_Drake_Primo_Rock_GlideBS",
              "Audio_Drake_Primo_Rock_GlideBS"
            ]
          },
          "resetAnimatorTriggerOnExit": [
            "BeHit",
            "DoSkill"
          ]
        },
        "Glide": {
          "$type": "NEDIFAKEGCO",
          "animatorStates": {
            "Glide": [],
            "GlideLoopAS": []
          },
          "resetAnimatorTriggerOnExit": [
            "BeHit",
            "DoSkill"
          ]
        },
        "GlideLoopBS": {
          "$type": "NEDIFAKEGCO",
          "animatorStates": {
            "GlideLoopBS": []
          },
          "resetAnimatorTriggerOnExit": [
            "BeHit",
            "DoSkill"
          ]
        },
        "GlideLoop": {
          "$type": "NEDIFAKEGCO",
          "animatorStates": {
            "GlideLoop": [
              "Monster_Drake_Primo_Rock_GlideLoop"
            ]
          },
          "resetAnimatorTriggerOnExit": [
            "BeHit",
            "DoSkill"
          ]
        },
        "GlideAS": {
          "$type": "NEDIFAKEGCO",
          "animatorStates": {
            "GlideAS": [
              "Monster_Drake_Primo_Rock_GlideAS",
              "Audio_Drake_Primo_Rock_GlideAS"
            ]
          },
          "resetAnimatorTriggerOnExit": [
            "BeHit",
            "DoSkill"
          ]
        }
      }
    }
  },
  "billboard": {
    "$type": "DNGNMAJBCNP",
    "attachPoint": "BillboardAttach",
    "offsetType": "Character",
    "radiusOffset": 2.0,
    "showDistance": 0.0,
    "showHPBar": true,
    "size": "Grand"
  },
  "initialPoses": {
    "Default": {
      "initialPoseID": 101,
      "initialPoseParams": {
        "boolParams": {
          "IsProne": "true"
        }
      }
    }
  },
  "aibeta": {
    "enable": true,
    "sensing": {
      "settings": {
        "DefaultSetting": {
          "enableVision": false,
          "feelRange": 20.0
        },
        "Normal": {
          "feelRange": 15.0
        }
      },
      "templates": {
        "DefaultTemplate": {
          "DefaultPoses": "DefaultSetting",
          "201": "Normal"
        }
      }
    },
    "neurons": {
      "DefaultSetting": [
        "HIT"
      ]
    },
    "threat": {
      "GHIJMOKOLMB": "",
      "clearThreatByTargetOutOfZone": true,
      "resistTauntLevel": "Monster_TauntLevel_4"
    },
    "defendArea": {
      "defendRange": 50.0
    },
    "network": {
      "syncSkill": true
    },
    "skillGroupCDConfigs": [
      {
        "skillGroupCDID": 220,
        "skillGroupCDTime": 15.0
      }
    ],
    "skills": {
      "101": {
        "name": "OnAlert",
        "skillType": "OnAlert",
        "castCondition": {
          "pose": [
            101
          ]
        },
        "publicCDGroup": "",
        "ignoreGCD": true,
        "triggerGCD": false,
        "HHAGODJIAPE": "",
        "stateIDs": [
          "Alert"
        ],
        "skillQueryingTime": 3.0,
        "flagTargetReachable": "10",
        "flagSelfOnTemplateCollider": "01",
        "flagSelfInZone": "10",
        "flagTargetInZone": "11"
      },
      "201": {
        "name": "NormalAtk01",
        "castCondition": {
          "pose": [
            301,
            401
          ],
          "maxTargetAngleXZ": 90.0,
          "maxTargetAngleY": 60.0,
          "pickRangeMax": 8.0
        },
        "cd": 3.0,
        "publicCDGroup": "",
        "triggerGCD": false,
        "HHAGODJIAPE": "",
        "stateIDs": [
          "NormalAtk01",
          "NormalAtk02"
        ],
        "flagTargetReachable": "11",
        "flagSelfOnTemplateCollider": "01",
        "flagSelfInZone": "11",
        "flagTargetInZone": "11"
      },
      "202": {
        "name": "NormalAtk01",
        "castCondition": {
          "pose": [
            301,
            401
          ],
          "maxTargetAngleXZ": 90.0,
          "maxTargetAngleY": 60.0,
          "pickRangeMax": 8.0
        },
        "cd": 20.0,
        "publicCDGroup": "",
        "triggerGCD": false,
        "HHAGODJIAPE": "",
        "stateIDs": [
          "NormalAtk01",
          "NormalAtk02"
        ],
        "flagTargetReachable": "11",
        "flagSelfOnTemplateCollider": "01",
        "flagSelfInZone": "11",
        "flagTargetInZone": "11"
      },
      "211": {
        "name": "NormalAtk02",
        "castCondition": {
          "pose": [
            301,
            401
          ],
          "maxTargetAngleXZ": 30.0,
          "maxTargetAngleY": 60.0,
          "pickRangeMax": 8.0
        },
        "cd": 10.0,
        "publicCDGroup": "",
        "triggerGCD": false,
        "HHAGODJIAPE": "",
        "stateIDs": [
          "NormalAtk01",
          "NormalAtk02"
        ],
        "flagTargetReachable": "11",
        "flagSelfOnTemplateCollider": "01",
        "flagSelfInZone": "11",
        "flagTargetInZone": "11"
      },
      "221": {
        "name": "ComboAtk",
        "castCondition": {
          "pose": [
            401
          ],
          "maxTargetAngleXZ": 75.0,
          "maxTargetAngleY": 60.0,
          "pickRangeMax": 15.0
        },
        "cd": 30.0,
        "cdUpperRange": 15.0,
        "publicCDGroup": "",
        "triggerGCD": false,
        "skillGroupCDID": 220,
        "HHAGODJIAPE": "",
        "stateIDs": [
          "ComboAtk01",
          "ComboAtk02",
          "ComboAtk03"
        ],
        "flagTargetReachable": "11",
        "flagSelfOnTemplateCollider": "01",
        "flagSelfInZone": "10",
        "flagTargetInZone": "11"
      },
      "222": {
        "name": "ComboAtk",
        "castCondition": {
          "pose": [
            301,
            401
          ],
          "maxTargetAngleXZ": 135.0,
          "maxTargetAngleY": 60.0,
          "pickRangeMax": 15.0
        },
        "cd": 15.0,
        "cdUpperRange": 15.0,
        "publicCDGroup": "",
        "triggerGCD": false,
        "skillGroupCDID": 220,
        "HHAGODJIAPE": "",
        "stateIDs": [
          "ComboAtk01",
          "ComboAtk02",
          "ComboAtk03"
        ],
        "flagTargetReachable": "11",
        "flagSelfOnTemplateCollider": "01",
        "flagSelfInZone": "10",
        "flagTargetInZone": "11"
      },
      "231": {
        "name": "TailSweep",
        "castCondition": {
          "pose": [
            301,
            401
          ],
          "minTargetAngleXZ": 120.0,
          "maxTargetAngleY": 60.0,
          "pickRangeMax": 10.0
        },
        "cd": 5.0,
        "publicCDGroup": "",
        "ignoreGCD": true,
        "triggerGCD": false,
        "HHAGODJIAPE": "",
        "stateIDs": [
          "TailSweep"
        ],
        "flagTargetReachable": "11",
        "flagSelfOnTemplateCollider": "01",
        "flagSelfInZone": "11",
        "flagTargetInZone": "11"
      },
      "232": {
        "name": "TailSweep",
        "castCondition": {
          "pose": [
            301,
            401
          ],
          "minTargetAngleXZ": 75.0,
          "maxTargetAngleY": 60.0,
          "pickRangeMax": 10.0
        },
        "cd": 20.0,
        "publicCDGroup": "",
        "ignoreGCD": true,
        "triggerGCD": false,
        "HHAGODJIAPE": "",
        "stateIDs": [
          "TailSweep"
        ],
        "flagTargetReachable": "11",
        "flagSelfOnTemplateCollider": "01",
        "flagSelfInZone": "11",
        "flagTargetInZone": "11"
      },
      "301": {
        "name": "ScaleShot",
        "castCondition": {
          "pose": [
            301,
            401
          ],
          "maxTargetAngleXZ": 30.0,
          "pickRangeMin": 15.0,
          "pickRangeMax": 25.0
        },
        "cd": 10.0,
        "cdUpperRange": 10.0,
        "publicCDGroup": "",
        "triggerGCD": false,
        "HHAGODJIAPE": "",
        "stateIDs": [
          "ScaleShot"
        ],
        "flagTargetReachable": "11",
        "flagSelfOnTemplateCollider": "01",
        "flagSelfInZone": "11",
        "flagTargetInZone": "11"
      },
      "311": {
        "name": "ScaleBurst",
        "priority": 1,
        "castCondition": {
          "pose": [
            401
          ],
          "maxTargetAngleXZ": 60.0,
          "pickRangeMax": 20.0
        },
        "cd": 20.0,
        "cdUpperRange": 20.0,
        "publicCDGroup": "",
        "HHAGODJIAPE": "",
        "stateIDs": [
          "ScaleBurst",
          "ScaleBurstLoop"
        ],
        "flagTargetReachable": "11",
        "flagSelfOnTemplateCollider": "01",
        "flagSelfInZone": "11",
        "flagTargetInZone": "11"
      },
      "401": {
        "name": "Breathe",
        "castCondition": {
          "pose": [
            301,
            401
          ],
          "maxTargetAngleXZ": 105.0,
          "maxTargetAngleY": 60.0,
          "pickRangeMax": 10.0
        },
        "cd": 15.0,
        "cdUpperRange": 15.0,
        "publicCDGroup": "",
        "triggerGCD": false,
        "HHAGODJIAPE": "",
        "stateIDs": [
          "Breathe"
        ],
        "flagTargetReachable": "11",
        "flagSelfOnTemplateCollider": "01",
        "flagSelfInZone": "11",
        "flagTargetInZone": "11"
      },
      "411": {
        "name": "ElementExplode",
        "priority": 1,
        "castCondition": {
          "pose": [
            301
          ],
          "maxTargetAngleXZ": 60.0,
          "pickRangeMax": 12.5
        },
        "cd": 20.0,
        "initialCD": 20.0,
        "publicCDGroup": "",
        "HHAGODJIAPE": "",
        "stateIDs": [
          "ElementExplode"
        ],
        "flagTargetReachable": "11",
        "flagSelfOnTemplateCollider": "01",
        "flagSelfInZone": "11",
        "flagTargetInZone": "11"
      },
      "501": {
        "name": "Glide",
        "castCondition": {
          "pose": [
            301,
            401
          ],
          "maxTargetAngleY": 60.0,
          "pickRangeMin": 12.5,
          "pickRangeMax": 20.0
        },
        "cd": 20.0,
        "publicCDGroup": "",
        "triggerGCD": false,
        "HHAGODJIAPE": "",
        "stateIDs": [
          "GlideBS",
          "Glide",
          "GlideLoopBS",
          "GlideLoop",
          "GlideAS"
        ],
        "flagTargetReachable": "10",
        "flagSelfOnTemplateCollider": "01",
        "flagSelfInZone": "10",
        "flagTargetInZone": "10"
      },
      "502": {
        "name": "Glide",
        "castCondition": {
          "pose": [
            301,
            401
          ],
          "maxTargetAngleY": 60.0,
          "pickRangeMin": 20.0,
          "pickRangeMax": 99.0
        },
        "cd": 5.0,
        "publicCDGroup": "",
        "triggerGCD": false,
        "HHAGODJIAPE": "",
        "stateIDs": [
          "GlideBS",
          "Glide",
          "GlideLoopBS",
          "GlideLoop",
          "GlideAS"
        ],
        "flagTargetReachable": "10",
        "flagSelfOnTemplateCollider": "01",
        "flagSelfInZone": "10",
        "flagTargetInZone": "10"
      }
    },
    "skillGCD": 3.0,
    "birdCirclingTactic": [
      {
        "$type": "KACCHOLJDNK",
        "enable": true,
        "condition": {
          "pose": [
            301,
            401
          ]
        },
        "JMCOBEPDIGM": {
          "ANLAAGAMIKF": 1,
          "NBENNEKDIIA": 1.0,
          "KHDFDAAAPEI": 7.0,
          "HKJODDGJPHA": 99.0,
          "GGEBMFHFBPO": 5.0,
          "MNPDDAKDHGK": ""
        }
      },
      {
        "$type": "NNJKLGNPMNN",
        "enable": true,
        "JMCOBEPDIGM": {
          "ANLAAGAMIKF": 1,
          "JFMIFLNBKMJ": 3.0,
          "DHGJDIPNDHH": 5.0,
          "MNPDDAKDHGK": "",
          "GJDMDHIBCME": ""
        }
      },
      {
        "$type": "FPELBIJFGCE",
        "enable": true,
        "condition": {
          "pose": [
            201
          ]
        },
        "JMCOBEPDIGM": {
          "NBENNEKDIIA": 1.0,
          "ANMPOPEBDIA": 25.0,
          "GMJFIMFFOEL": 7.5,
          "CHCPFDMADEI": 15.0,
          "MNPDDAKDHGK": ""
        }
      }
    ]
  },
  "inputKeys": [
    {
      "keyID": 201,
      "inputKeyCode": 257,
      "abilityName": ""
    },
    {
      "keyID": 211,
      "inputKeyCode": 258,
      "abilityName": ""
    },
    {
      "keyID": 221,
      "inputKeyCode": 259,
      "abilityName": ""
    },
    {
      "keyID": 231,
      "inputKeyCode": 260,
      "abilityName": ""
    },
    {
      "keyID": 301,
      "inputKeyCode": 261,
      "abilityName": ""
    },
    {
      "keyID": 311,
      "inputKeyCode": 262,
      "abilityName": ""
    },
    {
      "keyID": 401,
      "inputKeyCode": 263,
      "abilityName": ""
    },
    {
      "keyID": 411,
      "inputKeyCode": 264,
      "abilityName": ""
    },
    {
      "keyID": 501,
      "inputKeyCode": 265,
      "abilityName": ""
    }
  ],
  "move": {
    "$type": "IPNMJMHDMPF",
    "velocityForce": {
      "muteAll": true
    },
    "handleCombatTaskImmediately": true,
    "positionModifyState": "Walk",
    "destroyRockWhenInit": true,
    "PKHOMJHFAEE": "RootNode"
  }
}