{
  "common": {
    "effectAttachShape": {
      "$type": "FJNPJANPGGC",
      "mesh": "EffectMesh"
    },
    "mass": 850.0,
    "height": 1.5,
    "modelHeight": 1.649999976158142,
    "affectedByWorld": true,
    "checkInSurface": true,
    "useGrassDisplacement": true,
    "clearAnimatorOnSetLightDeactive": true,
    "clearAIOnSetLightDeactive": true
  },
  "headControl": {
    "$type": "KPIPDEBDPIH",
    "useHeadControl": true,
    "maxYawDegree": 75.0,
    "maxPitchDegree": 30.0,
    "animStates": [
      "NormalIdle/Standby",
      "NormalMove/WalkForward",
      "NormalMove/WalkBack",
      "NormalMove/WalkRight",
      "NormalMove/WalkLeft",
      "NormalMove/Run",
      "Turn/TurnLeft",
      "Turn/TurnRight"
    ]
  },
  "model": {
    "bornEffect": "Eff_Monster_Common_Born",
    "attachEffect": "",
    "BKPFGNPLDNJ": ""
  },
  "dither": {
    "showDitherDuration": 1.0
  },
  "combat": {
    "property": {
      "endureType": "Monster_Minion",
      "weight": 70.0
    },
    "beHit": {
      "hitBloodEffect": ""
    },
    "combatLock": {
      "lockShape": "CircleLockEnemy",
      "lockType": "Avatar&Monster_Lv4"
    },
    "die": {
      "hasAnimatorDie": true,
      "dieEndTime": 4.0,
      "dieForceDisappearTime": 15.0,
      "dieDisappearEffect": "",
      "useRagDoll": true,
      "ragDollDieEndTimeDelay": 15.0,
      "muteHitBox": true,
      "dieDenyLockOn": true,
      "dieIsGhostToEnemy": true,
      "dieIgnoreTriggerBullet": true,
      "muteBillboard": true,
      "mutePushCollider": true
    },
    "animEvents": {
      "NormalAtk": {
        "attackPattern": {
          "$type": "GMDIMKKHACA",
          "triggerType": "TriggerNoRepeat",
          "born": {
            "$type": "IAENDIPDFKD",
            "offset": {
              "KGEPIMHBMOL": 0.0,
              "JEBHCGDPFEJ": 0.0,
              "LPCHALMFFOD": 0.30000001192092896
            }
          },
          "fanAngle": 90.0,
          "OAHPDLJIADP": 1.75
        },
        "attackInfo": {
          "attackTag": "",
          "attenuationTag": "",
          "attenuationGroup": "default",
          "attackProperty": {
            "actorGrassSubHurtDelta": 1.0,
            "actorWindSubHurtDelta": 0.0,
            "IPFJJJGABPL": 100.0,
            "strikeType": "Slash",
            "enBreak": 100.0,
            "attackType": "Melee",
            "GLKMCMDJBIK": 0.0
          },
          "hitPattern": {
            "onHitEffectName": "default",
            "hitImpulseY": "",
            "hitImpulseType": "LV3",
            "hitHaltTimeScale": 0.009999999776482582
          }
        }
      },
      "TripleAtk01": {
        "attackPattern": {
          "$type": "GMDIMKKHACA",
          "triggerType": "TriggerNoRepeat",
          "born": {
            "$type": "IAENDIPDFKD",
            "offset": {
              "KGEPIMHBMOL": 0.0,
              "JEBHCGDPFEJ": 0.0,
              "LPCHALMFFOD": 0.0
            }
          },
          "fanAngle": 100.0,
          "OAHPDLJIADP": 2.0
        },
        "attackInfo": {
          "attackTag": "",
          "attenuationTag": "",
          "attenuationGroup": "default",
          "attackProperty": {
            "actorGrassSubHurtDelta": 0.5,
            "actorWindSubHurtDelta": 0.0,
            "IPFJJJGABPL": 100.0,
            "strikeType": "Slash",
            "enBreak": 100.0,
            "attackType": "Melee",
            "GLKMCMDJBIK": 0.0
          },
          "hitPattern": {
            "onHitEffectName": "default",
            "hitImpulseY": "",
            "hitImpulseType": "LV3"
          }
        }
      },
      "TripleAtk02": {
        "attackPattern": {
          "$type": "GMDIMKKHACA",
          "triggerType": "TriggerNoRepeat",
          "born": {
            "$type": "IAENDIPDFKD",
            "offset": {
              "KGEPIMHBMOL": 0.0,
              "JEBHCGDPFEJ": 0.0,
              "LPCHALMFFOD": 0.5
            }
          },
          "fanAngle": 90.0,
          "OAHPDLJIADP": 2.0
        },
        "attackInfo": {
          "attackTag": "",
          "attenuationTag": "",
          "attenuationGroup": "default",
          "attackProperty": {
            "actorGrassSubHurtDelta": 0.5,
            "actorWindSubHurtDelta": 0.0,
            "IPFJJJGABPL": 100.0,
            "strikeType": "Slash",
            "enBreak": 100.0,
            "attackType": "Melee",
            "GLKMCMDJBIK": 0.0
          },
          "hitPattern": {
            "onHitEffectName": "default",
            "hitImpulseY": "",
            "hitImpulseType": "LV3"
          }
        }
      },
      "TripleAtk03": {
        "attackPattern": {
          "$type": "GMDIMKKHACA",
          "triggerType": "TriggerNoRepeat",
          "born": {
            "$type": "IAENDIPDFKD",
            "offset": {
              "KGEPIMHBMOL": 0.0,
              "JEBHCGDPFEJ": 0.0,
              "LPCHALMFFOD": 0.5
            }
          },
          "fanAngle": 75.0,
          "OAHPDLJIADP": 2.0
        },
        "attackInfo": {
          "attackTag": "",
          "attenuationTag": "",
          "attenuationGroup": "default",
          "attackProperty": {
            "actorGrassSubHurtDelta": 0.75,
            "actorWindSubHurtDelta": 0.0,
            "IPFJJJGABPL": 100.0,
            "strikeType": "Slash",
            "enBreak": 200.0,
            "attackType": "Melee",
            "GLKMCMDJBIK": 0.0
          },
          "hitPattern": {
            "onHitEffectName": "default",
            "hitImpulseY": "",
            "hitImpulseType": "LV4"
          },
          "cameraShake": {
            "shakeType": "HitVector",
            "shakeRange": 0.03999999910593033,
            "shakeTime": 0.09000000357627869,
            "shakeDir": {
              "y": -1.0
            }
          }
        }
      },
      "JumpAtk01": {
        "attackPattern": {
          "$type": "GMDIMKKHACA",
          "triggerType": "TriggerNoRepeat",
          "born": {
            "$type": "IAENDIPDFKD",
            "offset": {
              "KGEPIMHBMOL": 0.0,
              "JEBHCGDPFEJ": 0.0,
              "LPCHALMFFOD": 0.5
            }
          },
          "fanAngle": 75.0,
          "OAHPDLJIADP": 1.75
        },
        "attackInfo": {
          "attackTag": "",
          "attenuationTag": "",
          "attenuationGroup": "default",
          "attackProperty": {
            "actorGrassSubHurtDelta": 0.75,
            "actorWindSubHurtDelta": 0.0,
            "IPFJJJGABPL": 100.0,
            "strikeType": "Slash",
            "enBreak": 200.0,
            "attackType": "Melee",
            "GLKMCMDJBIK": 0.0
          },
          "hitPattern": {
            "onHitEffectName": "default",
            "hitImpulseY": "",
            "hitImpulseType": "LV5"
          },
          "cameraShake": {
            "shakeType": "HitVector",
            "shakeRange": 0.05999999865889549,
            "shakeTime": 0.09000000357627869,
            "shakeDir": {
              "y": -1.0
            }
          }
        }
      }
    }
  },
  "equipController": {
    "sheathPoint": "",
    "attachPoints": {
      "equip01": "WeaponR",
      "equip02": "WeaponL"
    }
  },
  "abilities": [
    {
      "abilityID": "SteerAttack",
      "abilityName": "Thoarder_Female_Hatchet_Anego_SteerAttack",
      "abilityOverride": ""
    },
    {
      "abilityID": "Throw",
      "abilityName": "Thoarder_Female_Hatchet_Anego_Throw",
      "abilityOverride": ""
    },
    {
      "abilityID": "Throw_Effect",
      "abilityName": "Thoarder_Female_Hatchet_Anego_Throw_Effect",
      "abilityOverride": ""
    },
    {
      "abilityID": "JumpAttack_RushMove01",
      "abilityName": "Thoarder_Female_Hatchet_Anego_JumpAttack_RushMove01",
      "abilityOverride": ""
    },
    {
      "abilityID": "JumpAttack_RushMove02",
      "abilityName": "Thoarder_Female_Hatchet_Anego_JumpAttack_RushMove02",
      "abilityOverride": ""
    },
    {
      "abilityID": "NormalAtk_RushMove02",
      "abilityName": "Thoarder_Female_Hatchet_Anego_NormalAtk_RushMove01",
      "abilityOverride": ""
    },
    {
      "abilityID": "Order",
      "abilityName": "Thoarder_Female_Hatchet_Anego_Order",
      "abilityOverride": ""
    },
    {
      "abilityID": "ActivitySkill",
      "abilityName": "Thoarder_Female_Hatchet_Anego_ActivitySkill",
      "abilityOverride": ""
    },
    {
      "abilityID": "WeaponOnBack",
      "abilityName": "Thoarder_WeaponOnBack",
      "abilityOverride": ""
    },
    {
      "abilityID": "Axe_StateHolder",
      "abilityName": "Axe_StateHolder",
      "abilityOverride": ""
    },
    {
      "abilityID": "ReturnToBorn",
      "abilityName": "Thoarder_ReturnToBorn",
      "abilityOverride": ""
    },
    {
      "abilityID": "SmokeBombInHandR_Start",
      "abilityName": "Thoarder_Die_SmokeBombInHandR_Start",
      "abilityOverride": ""
    },
    {
      "abilityID": "SmokeBombEffect_End",
      "abilityName": "Thoarder_Die_SmokeBombEffect_End",
      "abilityOverride": ""
    },
    {
      "abilityID": "SteerMove",
      "abilityName": "Thoarder_SteerMove",
      "abilityOverride": ""
    },
    {
      "abilityID": "EndureModifier",
      "abilityName": "Thoarder_EndureModifier",
      "abilityOverride": ""
    }
  ],
  "stateLayers": {
    "defaultLayer": {
      "$type": "GBGJJIIEMBD",
      "layerIndexName": "",
      "CPAANEIJCGD": "",
      "stateIDs": {
        "NormalIdle": {
          "$type": "NEDIFAKEGCO",
          "animatorStates": {
            "Standby": [],
            "Born": []
          },
          "canDoSkill": true,
          "canSyncMove": true,
          "resetAnimatorTriggerOnExit": [
            "DoSkill"
          ]
        },
        "NormalMove": {
          "$type": "NEDIFAKEGCO",
          "animatorStates": {
            "WalkForward": [
              "Audio_Monster_Thoarder_BlackRacoon_Hatchet_02_Walk"
            ],
            "WalkBack": [
              "Audio_Monster_Thoarder_BlackRacoon_Hatchet_02_Walk"
            ],
            "WalkRight": [
              "Audio_Monster_Thoarder_BlackRacoon_Hatchet_02_Walk"
            ],
            "WalkLeft": [
              "Audio_Monster_Thoarder_BlackRacoon_Hatchet_02_Walk"
            ],
            "Run": [
              "Audio_Monster_Thoarder_BlackRacoon_Hatchet_02_Run"
            ]
          },
          "canDoSkill": true,
          "canSyncMove": true,
          "resetAnimatorTriggerOnExit": [
            "DoSkill"
          ],
          "canSteer": true
        },
        "Turn": {
          "$type": "NEDIFAKEGCO",
          "animatorStates": {
            "TurnLeft": [
              "Audio_Monster_Thoarder_BlackRacoon_Hatchet_02_Walk"
            ],
            "TurnRight": [
              "Audio_Monster_Thoarder_BlackRacoon_Hatchet_02_Walk"
            ]
          },
          "canDoSkill": true,
          "canSyncMove": true,
          "resetAnimatorTriggerOnExit": [
            "DoSkill"
          ],
          "canSteer": true
        },
        "BeHit": {
          "$type": "NEDIFAKEGCO",
          "animatorStates": {
            "Hit_L": [
              "Audio_Monster_Thoarder_BlackRacoon_Hatchet_02_Hit_L"
            ],
            "Hit_H": [
              "Audio_Monster_Thoarder_BlackRacoon_Hatchet_02_Hit_H"
            ],
            "DHit": []
          },
          "resetAnimatorTriggerOnEnter": [
            "BeHit"
          ],
          "resetAnimatorTriggerOnExit": [
            "DoSkill",
            "DodgeTrigger"
          ]
        },
        "BeHitThrow": {
          "$type": "NEDIFAKEGCO",
          "animatorStates": {
            "HitThrow": [
              "Audio_Monster_Thoarder_BlackRacoon_Hatchet_02_HitThrow"
            ],
            "HitThrowDrop": [],
            "HitThrowToGround": [
              "Audio_Monster_Thoarder_BlackRacoon_Hatchet_02_HitThrowToGround"
            ]
          },
          "resetAnimatorTriggerOnEnter": [
            "BeHit",
            "HitAir2HitDrop"
          ],
          "resetAnimatorTriggerOnExit": [
            "DoSkill"
          ]
        },
        "Struggle": {
          "$type": "NEDIFAKEGCO",
          "animatorStates": {
            "Struggle": []
          },
          "resetAnimatorTriggerOnEnter": [
            "BeHit",
            "HitAir2HitDrop"
          ],
          "resetAnimatorTriggerOnExit": [
            "DoSkill"
          ]
        },
        "Die": {
          "$type": "NEDIFAKEGCO",
          "animatorStates": {
            "Die1": [
              "Monster_Thoarder_Female_Hatchet_Die",
              "Audio_Monster_Thoarder_BlackRacoon_Hatchet_02_Die"
            ],
            "Die2": [
              "Monster_Thoarder_Female_Hatchet_Die",
              "Audio_Monster_Thoarder_BlackRacoon_Hatchet_02_Die"
            ],
            "SwimDie": [
              "Audio_Monster_Thoarder_NoWeapon_SwimDie"
            ],
            "SwimDie_AS": [
              "Monster_Thoarder_Common_SwimDie",
              "Audio_Monster_Thoarder_NoWeapon_SwimDie"
            ]
          }
        },
        "Die_RagDoll": {
          "$type": "NEDIFAKEGCO",
          "animatorStates": {
            "AirDie": [
              "Monster_Thoarder_Common_AirDie"
            ]
          },
          "enableRagDoll": true
        },
        "Life_Alert": {
          "$type": "NEDIFAKEGCO",
          "animatorStates": {
            "Alert": [
              "Audio_Monster_Thoarder_Hatchet_Alert"
            ]
          },
          "resetAnimatorTriggerOnExit": [
            "BeHit",
            "DoSkill"
          ]
        },
        "Life_Warning": {
          "$type": "NEDIFAKEGCO",
          "animatorStates": {
            "Warning": [
              "Monster_Undead01_Warning",
              "Monster_Thoarder_DrawWeapon",
              "Audio_Monster_Thoarder_BlackRacoon_Hatchet_02_Alert"
            ]
          },
          "resetAnimatorTriggerOnExit": [
            "BeHit",
            "DoSkill"
          ]
        },
        "NormalAtk": {
          "$type": "NEDIFAKEGCO",
          "animatorStates": {
            "NormalAtk": [
              "Monster_Thoarder_Female_Hatchet_Anego_NormalAtk",
              "Audio_Monster_Thoarder_BlackRacoon_Hatchet_02_NormalAtk"
            ]
          },
          "resetAnimatorTriggerOnExit": [
            "BeHit",
            "DoSkill",
            "FirecrackerHit"
          ]
        },
        "TripleAttack": {
          "$type": "NEDIFAKEGCO",
          "animatorStates": {
            "TripleAttack": [
              "Monster_Thoarder_Female_Hatchet_Anego_TripleAttack",
              "Audio_Monster_Thoarder_BlackRacoon_Hatchet_02_TripleAttack"
            ]
          },
          "addEndure": 0.6000000238418579,
          "resetAnimatorTriggerOnExit": [
            "BeHit",
            "DoSkill",
            "FirecrackerHit"
          ]
        },
        "JumpAttack": {
          "$type": "NEDIFAKEGCO",
          "animatorStates": {
            "JumpAttack_BS": [
              "Monster_Thoarder_Female_Hatchet_Anego_JumpAttack"
            ],
            "JumpAttack_Halt": [
              "Monster_Thoarder_Female_Hatchet_Anego_JumpAttack"
            ],
            "JumpAttack": [
              "Monster_Thoarder_Female_Hatchet_Anego_JumpAttack",
              "Audio_Monster_Thoarder_BlackRacoon_Hatchet_02_JumpAttack"
            ]
          },
          "addEndure": 0.6000000238418579,
          "resetAnimatorTriggerOnExit": [
            "BeHit",
            "DoSkill",
            "FirecrackerHit"
          ]
        },
        "Throw": {
          "$type": "NEDIFAKEGCO",
          "animatorStates": {
            "Throw": [
              "Monster_Thoarder_Female_Hatchet_Anego_Throw",
              "Audio_Monster_Thoarder_BlackRacoon_Hatchet_02_RangedAtk_Throw"
            ],
            "Pick": [
              "Monster_Thoarder_Female_Hatchet_Anego_Pick",
              "Audio_Monster_Thoarder_BlackRacoon_Hatchet_02_RangedAtk_Pick"
            ]
          },
          "resetAnimatorTriggerOnExit": [
            "BeHit",
            "DoSkill",
            "FirecrackerHit"
          ]
        },
        "ThrowBS": {
          "$type": "NEDIFAKEGCO",
          "animatorStates": {
            "ThrowBS": [
              "Audio_Monster_Thoarder_Hatchet_RangedAtk_Throw"
            ]
          },
          "resetAnimatorTriggerOnExit": [
            "BeHit",
            "DoSkill",
            "FirecrackerHit"
          ]
        },
        "ThrowAS": {
          "$type": "NEDIFAKEGCO",
          "animatorStates": {
            "ThrowAS": [
              "Monster_Thoarder_Female_Hatchet_Anego_Throw"
            ]
          },
          "resetAnimatorTriggerOnExit": [
            "BeHit",
            "DoSkill",
            "FirecrackerHit"
          ]
        },
        "PickBS": {
          "$type": "NEDIFAKEGCO",
          "animatorStates": {
            "PickBS": [
              "Audio_Monster_Thoarder_Hatchet_RangedAtk_Pick"
            ]
          },
          "resetAnimatorTriggerOnExit": [
            "BeHit",
            "DoSkill",
            "FirecrackerHit"
          ]
        },
        "PickAS": {
          "$type": "NEDIFAKEGCO",
          "animatorStates": {
            "PickAS": []
          },
          "resetAnimatorTriggerOnExit": [
            "BeHit",
            "DoSkill",
            "FirecrackerHit"
          ]
        },
        "ThrowPlus": {
          "$type": "NEDIFAKEGCO",
          "animatorStates": {
            "ThrowPlus": [
              "Monster_Thoarder_Female_Hatchet_Anego_ThrowPlus",
              "Audio_Monster_Thoarder_BlackRacoon_Hatchet_02_RangedAtk_Throw"
            ],
            "PickPlus": [
              "Monster_Thoarder_Female_Hatchet_Anego_Pick",
              "Audio_Monster_Thoarder_BlackRacoon_Hatchet_02_RangedAtk_Pick"
            ]
          },
          "resetAnimatorTriggerOnExit": [
            "BeHit",
            "DoSkill",
            "FirecrackerHit"
          ]
        },
        "MoveAtk": {
          "$type": "NEDIFAKEGCO",
          "animatorStates": {
            "MoveAtkBS": [
              "Monster_Thoarde_Female_Hatchet_Anego_MoveAtkBS"
            ],
            "MoveAtkAS": [
              "Monster_Thoarde_Female_Hatchet_Anego_MoveAtkAS"
            ]
          },
          "resetAnimatorTriggerOnExit": [
            "BeHit",
            "DoSkill",
            "FirecrackerHit"
          ]
        },
        "Order": {
          "$type": "NEDIFAKEGCO",
          "animatorStates": {
            "Order": [
              "Monster_Thoarde_Female_Hatchet_Anego_Order",
              "Audio_Monster_Thoarder_BlackRacoon_Hatchet_02_Order"
            ]
          },
          "resetAnimatorTriggerOnExit": [
            "BeHit",
            "DoSkill",
            "FirecrackerHit"
          ],
          "canSteer": true
        },
        "Dodge": {
          "$type": "NEDIFAKEGCO",
          "animatorStates": {
            "Dodge": [
              "Monster_Thoarde_Female_Hatchet_Anego_Dodge",
              "Audio_Monster_Thoarder_BlackRacoon_Hatchet_02_Retreat"
            ]
          },
          "resetAnimatorTriggerOnExit": [
            "BeHit",
            "DoSkill",
            "DodgeTrigger",
            "FirecrackerHit"
          ]
        },
        "ActivitySkill": {
          "$type": "NEDIFAKEGCO",
          "animatorStates": {
            "ActivitySkill": [
              "Monster_Thoarde_Female_Hatchet_Anego_ActivitySkill",
              "Audio_Monster_Thoarder_BlackRacoon_Hatchet_02_ActivitySkill"
            ]
          },
          "addEndure": 0.0,
          "resetAnimatorTriggerOnExit": [
            "BeHit",
            "DoSkill",
            "FirecrackerHit"
          ],
          "canSteer": true
        },
        "FirecrackerHit": {
          "$type": "NEDIFAKEGCO",
          "animatorStates": {
            "FirecrackerHit": [
              "Audio_Monster_Thoarder_BlackRacoon_Hatchet_02_FirecrackerHit"
            ]
          },
          "canSteer": true
        },
        "Taunt": {
          "$type": "NEDIFAKEGCO",
          "animatorStates": {
            "Taunt_1": [
              "Audio_Monster_Thoarder_BlackRacoon_Hatchet_02_Taunt1"
            ],
            "Taunt_2": [
              "Audio_Monster_Thoarder_BlackRacoon_Hatchet_02_Taunt2"
            ],
            "Taunt_3": [
              "Audio_Monster_Thoarder_BlackRacoon_Hatchet_02_Taunt3"
            ]
          },
          "resetAnimatorTriggerOnExit": [
            "BeHit",
            "DoSkill"
          ]
        },
        "SheathWeapon": {
          "$type": "NEDIFAKEGCO",
          "animatorStates": {
            "SheathWeapon": [
              "Monster_Thoarde_Female_Hatchet_Anego_SheathWeapon",
              "Audio_Monster_Thoarder_BlackRacoon_Hatchet_02_SheathWeapon"
            ]
          },
          "resetAnimatorTriggerOnExit": [
            "SheathWeaponTrigger"
          ]
        }
      }
    }
  },
  "billboard": {
    "$type": "DNGNMAJBCNP",
    "attachPoint": "BillboardAttach",
    "offset": {
      "x": -0.05000000074505806
    },
    "offsetType": "Character",
    "radiusOffset": 0.25,
    "showHPBar": true
  },
  "initialPoses": {
    "Default": {}
  },
  "aibeta": {
    "enable": true,
    "moveSetting": {
      "navMeshAgentName": "Undead01",
      "almostReachedDistanceRun": 1.5
    },
    "buddySetting": {
      "enable": true,
      "buddyFeatureTagIDs": [
        4006
      ]
    },
    "sensing": {
      "settings": {
        "DefaultSetting": {
          "feelRange": 8.0
        },
        "HighAlert": {
          "viewRange": 40.0,
          "feelRange": 10.0
        }
      },
      "templates": {
        "DefaultTemplate": {
          "DefaultPoses": "DefaultSetting"
        },
        "HighAlertTemplate": {
          "DefaultPoses": "HighAlert"
        }
      }
    },
    "neurons": {
      "DefaultSetting": [
        "HIT"
      ]
    },
    "threat": {
      "GHIJMOKOLMB": "",
      "clearThreatByLostPath": true,
      "clearThreatByTargetOutOfZone": true,
      "clearThreatTimerByDistance": 3.0,
      "clearThreatTimerByLostPath": 18.0,
      "viewAttenuation": [
        {
          "x": 10.0,
          "y": 2.0
        },
        {
          "x": 15.0,
          "y": 0.800000011920929
        },
        {
          "x": 20.0,
          "y": 0.5
        },
        {
          "x": 25.0,
          "y": 0.30000001192092896
        },
        {
          "x": 30.0,
          "y": 0.20000000298023224
        }
      ]
    },
    "defendArea": {},
    "profiling": {},
    "network": {
      "syncSkill": true
    },
    "skillGroupCDConfigs": [
      {
        "skillGroupCDID": 1,
        "skillGroupCDTime": 3.0
      },
      {
        "skillGroupCDID": 2,
        "skillGroupCDTime": 2.0
      }
    ],
    "skillSetting": {
      "skillEliteSet": {
        "1": [
          401
        ]
      }
    },
    "skills": {
      "101": {
        "name": "OnAlert",
        "skillType": "OnAlert",
        "faceTarget": true,
        "publicCDGroup": "",
        "ignoreGCD": true,
        "triggerGCD": false,
        "HHAGODJIAPE": "",
        "stateIDs": [
          "Life_Warning"
        ],
        "skillQueryingTime": 3.0,
        "flagTargetReachable": "10",
        "flagSelfOnTemplateCollider": "01",
        "flagSelfInZone": "10",
        "flagTargetInZone": "11"
      },
      "202": {
        "name": "JumpAttack",
        "combatSkillType": "MeleeAttack",
        "priority": 3,
        "castCondition": {
          "pose": [
            1001
          ],
          "pickRangeMin": 1.5,
          "pickRangeMax": 5.0
        },
        "cd": 5.0,
        "cdUpperRange": 1.0,
        "initialCD": 5.0,
        "publicCDGroup": "",
        "triggerGCD": false,
        "HHAGODJIAPE": "",
        "stateIDs": [
          "JumpAttack"
        ],
        "flagTargetReachable": "10",
        "flagSelfOnTemplateCollider": "01",
        "flagSelfInZone": "10",
        "flagTargetInZone": "11"
      },
      "203": {
        "name": "TripleAttack",
        "combatSkillType": "MeleeAttack",
        "priority": 3,
        "castCondition": {
          "pose": [
            1001
          ],
          "pickRangeMax": 3.25,
          "castRangeMax": 3.25
        },
        "cd": 3.0,
        "cdUpperRange": 1.0,
        "initialCD": 6.0,
        "initialCDUpperRange": 5.0,
        "publicCDGroup": "",
        "HHAGODJIAPE": "",
        "stateIDs": [
          "TripleAttack"
        ],
        "flagTargetReachable": "10",
        "flagSelfOnTemplateCollider": "01",
        "flagSelfInZone": "10",
        "flagTargetInZone": "11"
      },
      "301": {
        "name": "HatchetThrow",
        "combatSkillType": "RangedAttack",
        "priority": 2,
        "castCondition": {
          "pose": [
            1001
          ],
          "pickRangeMin": 5.0,
          "pickRangeMax": 15.0
        },
        "cd": 3.0,
        "publicCDGroup": "",
        "triggerGCD": false,
        "skillGroupCDID": 2,
        "HHAGODJIAPE": "",
        "stateIDs": [
          "ThrowBS",
          "ThrowAS",
          "PickAS",
          "PickBS"
        ],
        "flagTargetReachable": "10",
        "flagSelfOnTemplateCollider": "01",
        "flagSelfInZone": "10",
        "flagTargetInZone": "11"
      },
      "331": {
        "name": "Order",
        "skillType": "CombatBuddy",
        "castCondition": {
          "pose": [
            1001
          ]
        },
        "cd": 25.0,
        "cdUpperRange": 5.0,
        "initialCD": 10.0,
        "publicCDGroup": "",
        "skillGroupCDID": 2,
        "HHAGODJIAPE": "",
        "stateIDs": [
          "Order"
        ],
        "skillQueryingTime": 3.0,
        "flagTargetReachable": "10",
        "flagSelfOnTemplateCollider": "01",
        "flagSelfInZone": "10",
        "flagTargetInZone": "11",
        "buddySkillCondition": {
          "selectRange": 30.0,
          "buddyScoring": {
            "hpFactor": 1,
            "distFactor": -1.0,
            "roleScores": [
              1.0,
              1.0,
              1.0,
              1.0
            ]
          }
        }
      },
      "401": {
        "name": "ActivitySkill",
        "priority": 1,
        "castCondition": {
          "pickRangeMax": 20.0
        },
        "cd": 500.0,
        "cdUpperRange": 5.0,
        "publicCDGroup": "",
        "triggerGCD": false,
        "skillGroupCDID": 1,
        "HHAGODJIAPE": "",
        "stateIDs": [
          "ActivitySkill"
        ],
        "flagTargetReachable": "10",
        "flagSelfOnTemplateCollider": "01",
        "flagSelfInZone": "10",
        "flagTargetInZone": "11"
      }
    },
    "skillGCD": 3.0,
    "birdCirclingTactic": [
      {
        "$type": "EPHBMLFODKF",
        "enable": true,
        "condition": {
          "pose": [
            1001
          ]
        },
        "JMCOBEPDIGM": {
          "rangeMax": 10.0,
          "BFJBDDIIFOI": {
            "IDEFILBHNAP": 0.0,
            "IBLIPJPNOGC": 0.0,
            "AEBLMKFNCDG": 2.0,
            "IGLIBIOEGBB": 2.0
          },
          "NAOBMNGDKHL": "1111",
          "JCNIJOAIGII": "1111",
          "MNPDDAKDHGK": ""
        }
      },
      {
        "$type": "OJOBEDCMGKM",
        "enable": true,
        "condition": {
          "pose": [
            1
          ]
        }
      },
      {
        "$type": "KACCHOLJDNK",
        "enable": true,
        "condition": {
          "pose": [
            1001
          ]
        },
        "JMCOBEPDIGM": {
          "KHDFDAAAPEI": 12.0,
          "HKJODDGJPHA": 50.0,
          "GGEBMFHFBPO": 10.0,
          "KFFGCIMPNMJ": 12.0,
          "MNPDDAKDHGK": ""
        }
      },
      {
        "$type": "HGJGHLOFFHM",
        "enable": true,
        "JMCOBEPDIGM": {}
      },
      {
        "$type": "NNJKLGNPMNN",
        "enable": true,
        "JMCOBEPDIGM": {
          "MNPDDAKDHGK": "",
          "GJDMDHIBCME": ""
        }
      },
      {
        "$type": "FPELBIJFGCE",
        "enable": true,
        "condition": {
          "pose": [
            1
          ]
        },
        "JMCOBEPDIGM": {
          "KPNDPKIOPJM": 3.0,
          "PINAFKEDDLL": 1.5,
          "ANMPOPEBDIA": 15.0,
          "GMJFIMFFOEL": 3.75,
          "CHCPFDMADEI": 7.5,
          "MNPDDAKDHGK": ""
        }
      }
    ]
  },
  "inputKeys": [
    {
      "keyID": 201,
      "inputKeyCode": 257,
      "abilityName": ""
    },
    {
      "keyID": 202,
      "inputKeyCode": 258,
      "abilityName": ""
    },
    {
      "keyID": 203,
      "inputKeyCode": 259,
      "abilityName": ""
    },
    {
      "keyID": 301,
      "inputKeyCode": 260,
      "abilityName": ""
    },
    {
      "keyID": 321,
      "inputKeyCode": 262,
      "abilityName": ""
    },
    {
      "keyID": 331,
      "inputKeyCode": 261,
      "abilityName": ""
    }
  ],
  "move": {
    "$type": "IPNMJMHDMPF",
    "facingMove": "FourDirection",
    "monsterSizeType": "StoopType",
    "PKHOMJHFAEE": "RootNode"
  },
  "audio": {
    "overrideEmitterName": "",
    "animAudio": {},
    "disableEvent": {
      "text": ""
    },
    "destroyEvent": {
      "text": ""
    },
    "randomVariantSwitchGroup": {
      "text": ""
    },
    "randomVariantSwitchValues": [
      {
        "text": ""
      }
    ]
  }
}