{
  "common": {
    "effectAttachShape": {
      "$type": "FJNPJANPGGC",
      "mesh": "EffectMesh"
    },
    "mass": 10000.0,
    "height": 2.0,
    "modelHeight": 2.700000047683716,
    "viewSize": 1.7999999523162842,
    "affectedByWorld": true,
    "checkInSurface": true,
    "scale": 1.100000023841858,
    "disableTickDistance": 200.0,
    "shouldPauseAnimatorBeforeReady": true,
    "useGrassDisplacement": true,
    "clearAnimatorOnSetLightDeactive": true,
    "clearAIOnSetLightDeactive": true,
    "reconnectSupport": true,
    "recoverByInitPose": true
  },
  "headControl": {
    "$type": "KPIPDEBDPIH",
    "useHeadControl": true,
    "maxYawDegree": 20.0,
    "maxPitchDegree": 5.0,
    "animStates": [
      "NormalIdle/Standby"
    ]
  },
  "model": {
    "bornEffect": "Eff_Monster_Common_Born",
    "attachEffect": "",
    "BKPFGNPLDNJ": ""
  },
  "dither": {
    "showDitherDuration": 2.0
  },
  "combat": {
    "property": {
      "endureType": "Monster_Demiboss_Humanoid",
      "weight": 150.0
    },
    "beHit": {
      "hitBloodEffect": ""
    },
    "combatLock": {
      "lockShape": "CircleLockEnemy",
      "lockType": "Avatar&Monster_Lv4"
    },
    "die": {
      "hasAnimatorDie": true,
      "dieEndTime": 3.200000047683716,
      "dieForceDisappearTime": 3.200000047683716,
      "dieDisappearEffect": "Eff_Death_Avatar_Common",
      "dieShaderData": "AvatarDie",
      "muteHitBox": true,
      "dieDenyLockOn": true,
      "dieIsGhostToEnemy": true,
      "muteBillboard": true,
      "mutePushCollider": true
    },
    "animEvents": {
      "AddElementAtkFire": {
        "attackPattern": {
          "$type": "JHKEHNJBMOF",
          "triggerType": "TriggerNoRepeat",
          "ignoreMassive": true,
          "born": {
            "$type": "IAENDIPDFKD",
            "offset": {
              "KGEPIMHBMOL": 0.0,
              "JEBHCGDPFEJ": 1.5,
              "LPCHALMFFOD": 0.0
            }
          },
          "size": {
            "KGEPIMHBMOL": 0.5,
            "JEBHCGDPFEJ": 2.5,
            "LPCHALMFFOD": 5.0
          }
        },
        "attackInfo": {
          "attackTag": "Monster_Samurai_Kairagi_FireHit",
          "attenuationTag": "Monster_MvM",
          "attenuationGroup": "Monster_MvM",
          "attackProperty": {
            "actorGrassSubHurtDelta": 1.0,
            "actorWindSubHurtDelta": 0.0,
            "elementType": "Fire",
            "IPFJJJGABPL": 50.0,
            "strikeType": "Slash",
            "enBreak": 100.0,
            "attackType": "Melee",
            "GLKMCMDJBIK": 0.0
          },
          "hitPattern": {
            "onHitEffectName": "default",
            "hitImpulseY": "",
            "hitImpulseType": "LV5",
            "canBeDefenceHalt": true
          },
          "forceCameraShake": true,
          "cameraShake": {
            "shakeType": "CustomVector",
            "shakeRange": 0.30000001192092896,
            "shakeTime": 0.10000000149011612,
            "shakeDir": {
              "y": 1.0
            }
          }
        }
      }
    }
  },
  "equipController": {
    "sheathPoint": "",
    "attachPoints": {
      "equip01": "WeaponR",
      "equip02": "WeaponL"
    }
  },
  "abilities": [
    {
      "abilityID": "",
      "abilityName": "Monster_Samurai_Kairagi_02_Die",
      "abilityOverride": ""
    },
    {
      "abilityID": "",
      "abilityName": "Monster_Samurai_Kairagi_01_Steer",
      "abilityOverride": ""
    },
    {
      "abilityID": "",
      "abilityName": "Monster_Samurai_Kairagi_02_AddElement_Fire",
      "abilityOverride": ""
    },
    {
      "abilityID": "",
      "abilityName": "Monster_Samurai_EnsureVisible",
      "abilityOverride": ""
    },
    {
      "abilityID": "",
      "abilityName": "Monster_Samurai_Kairagi_Fire_AttackMark",
      "abilityOverride": ""
    },
    {
      "abilityID": "",
      "abilityName": "Activity_V4_7_MvM_CommonThreat",
      "abilityOverride": ""
    },
    {
      "abilityID": "",
      "abilityName": "Activity_V4_7_MvM_CommonThreatObject",
      "abilityOverride": ""
    }
  ],
  "stateLayers": {
    "defaultLayer": {
      "$type": "GBGJJIIEMBD",
      "layerIndexName": "",
      "CPAANEIJCGD": "",
      "stateIDs": {
        "Born": {
          "$type": "NEDIFAKEGCO",
          "animatorStates": {
            "Born": [
              "Audio_Samurai_Kairagi_Born"
            ]
          },
          "canSyncMove": true,
          "resetAnimatorTriggerOnExit": [
            "DoSkill"
          ]
        },
        "NormalIdle": {
          "$type": "NEDIFAKEGCO",
          "animatorStates": {
            "Standby": []
          },
          "canDoSkill": true,
          "canSyncMove": true,
          "resetAnimatorTriggerOnExit": [
            "DoSkill"
          ]
        },
        "NormalMove": {
          "$type": "NEDIFAKEGCO",
          "animatorStates": {
            "WalkFree": [
              "Audio_Samurai_Kairagi_Walk"
            ]
          },
          "canDoSkill": true,
          "canSyncMove": true,
          "resetAnimatorTriggerOnExit": [
            "DoSkill"
          ],
          "canSteer": true
        },
        "BeHit": {
          "$type": "NEDIFAKEGCO",
          "animatorStates": {
            "Hit_L": [
              "Audio_Samurai_Kairagi_Hit_L_VO"
            ],
            "Hit_H": [
              "Audio_Samurai_Kairagi_Hit_H_VO"
            ]
          },
          "resetAnimatorTriggerOnEnter": [
            "BeHit"
          ],
          "resetAnimatorTriggerOnExit": [
            "DoSkill"
          ]
        },
        "Run": {
          "$type": "NEDIFAKEGCO",
          "animatorStates": {
            "Run": [
              "Audio_Samurai_Kairagi_Run"
            ]
          },
          "canDoSkill": true,
          "canSyncMove": true,
          "resetAnimatorTriggerOnExit": [
            "DoSkill"
          ],
          "canSteer": true
        },
        "BeHitThrow": {
          "$type": "NEDIFAKEGCO",
          "animatorStates": {
            "HitThrow": [],
            "HitThrowDrop": [],
            "HitThrowToGround": [
              "Audio_Samurai_Kairagi_HitThrowToGround"
            ]
          },
          "resetAnimatorTriggerOnEnter": [
            "BeHit",
            "HitAir2HitDrop"
          ],
          "resetAnimatorTriggerOnExit": [
            "DoSkill"
          ]
        },
        "Struggle": {
          "$type": "NEDIFAKEGCO",
          "animatorStates": {
            "Struggle": []
          },
          "resetAnimatorTriggerOnEnter": [
            "BeHit",
            "HitAir2HitDrop"
          ],
          "resetAnimatorTriggerOnExit": [
            "DoSkill"
          ]
        },
        "Die": {
          "$type": "NEDIFAKEGCO",
          "animatorStates": {
            "Die": [
              "Audio_Samurai_Kairagi_Die"
            ],
            "SwimDie": [],
            "SwimDie_AS": []
          },
          "resetAnimatorTriggerOnEnter": [
            "DoSkill"
          ]
        },
        "Die_RagDoll": {
          "$type": "NEDIFAKEGCO",
          "animatorStates": {
            "AirDie": []
          },
          "resetAnimatorTriggerOnEnter": [
            "DoSkill"
          ],
          "enableRagDoll": true
        },
        "ElementAttack": {
          "$type": "NEDIFAKEGCO",
          "animatorStates": {
            "ElementAttack": [
              "Monster_Samurai_Kairagi_ElementAttack_Fire",
              "Audio_Samurai_Kairagi_ElementAtk_Fire",
              "Activity_V4_7_MvM_CommonThreat"
            ]
          },
          "addEndure": 0.0,
          "resetAnimatorTriggerOnExit": [
            "BeHit",
            "DoSkill"
          ],
          "canSteer": true
        }
      }
    }
  },
  "billboard": {
    "$type": "DNGNMAJBCNP",
    "attachPoint": "BillboardAttach",
    "offsetType": "Character",
    "showHPBar": true,
    "forceShowDistance": 50.0,
    "size": "Big"
  },
  "initialPoses": {
    "Default": {
      "initialPoseID": 1
    },
    "Defend": {
      "initialPoseID": 999,
      "initialPoseParams": {
        "intParams": {
          "LevelType": "1"
        }
      }
    }
  },
  "aibeta": {
    "enable": true,
    "sensing": {
      "settings": {
        "DefaultSetting": {
          "viewRange": 15.0,
          "viewPanoramic": true,
          "feelRange": 15.0
        }
      },
      "templates": {
        "DefaultTemplate": {
          "DefaultPoses": "DefaultSetting"
        }
      }
    },
    "neurons": {
      "DefaultSetting": [
        "HIT",
        "FEAR"
      ],
      "NeverCombat": []
    },
    "threat": {
      "GHIJMOKOLMB": "",
      "clearThreatTargetDistance": 100.0,
      "clearThreatEdgeDistance": 3.5,
      "clearThreatTimerByDistance": 1.75,
      "LHDJAIFLCOE": true,
      "viewThreatGrow": 35.0,
      "feelThreatGrow": 1000.0,
      "threatDecreaseSpeed": 5.0,
      "threatBroadcastRange": 0.0,
      "viewAttenuation": [
        {
          "x": 15.0,
          "y": 10.0
        },
        {
          "x": 200.0
        }
      ],
      "IIOLFCGEIHN": true,
      "APJJOOLHDAA": [
        "_MVM_ATTACK_TARGET"
      ],
      "auxScoreChangeTargetCD": 0.5,
      "targetDistanceScoreSystem": {
        "weight": 100,
        "value": 100.0,
        "max": 100.0,
        "enable": true
      }
    },
    "defendArea": {
      "defendRange": 100.0
    },
    "command": {
      "enable": true,
      "HDFMIBIKJCO": true
    },
    "skills": {
      "501": {
        "name": "ElementAttack",
        "priority": 2,
        "castCondition": {
          "pose": [
            101,
            201,
            301
          ],
          "pickRangeMax": 3.0
        },
        "cd": 6.5,
        "publicCDGroup": "",
        "triggerCDOnStart": true,
        "HHAGODJIAPE": "",
        "stateIDs": [
          "ElementAttack"
        ],
        "flagTargetReachable": "11",
        "flagSelfOnTemplateCollider": "11",
        "flagSelfInZone": "11",
        "flagTargetInZone": "11"
      }
    },
    "skillGCD": 0.0,
    "target": {
      "defaultTargetPrioritys": [
        "COMMAND",
        "THREAT"
      ]
    },
    "birdCirclingTactic": [
      {
        "$type": "KACCHOLJDNK",
        "enable": true,
        "condition": {
          "pose": [
            101,
            201,
            301
          ]
        },
        "JMCOBEPDIGM": {
          "KHDFDAAAPEI": 3.0,
          "HKJODDGJPHA": 99.0,
          "GGEBMFHFBPO": 2.9000000953674316,
          "MNPDDAKDHGK": ""
        }
      },
      {
        "$type": "MCDGOJLCMBM",
        "JMCOBEPDIGM": {
          "MNPDDAKDHGK": "",
          "GJDMDHIBCME": ""
        }
      },
      {
        "$type": "COLLJLNKMLC",
        "JMCOBEPDIGM": {
          "MNPDDAKDHGK": "",
          "GJDMDHIBCME": "",
          "BBPDJAFOGPF": true,
          "PLLHMGHOAPB": "",
          "KPIJNGFNAEF": "",
          "GDPHPLKJGAJ": "",
          "KKKOAABEHEP": ""
        }
      },
      {
        "$type": "NNJKLGNPMNN",
        "enable": true,
        "condition": {
          "pose": [
            901,
            902
          ]
        },
        "JMCOBEPDIGM": {
          "MNPDDAKDHGK": "",
          "GJDMDHIBCME": "",
          "IAJDAHDAEFP": true,
          "OILAIKJEIGB": false
        }
      }
    ]
  },
  "inputKeys": [
    {
      "keyID": 101,
      "inputKeyCode": 257,
      "abilityName": ""
    },
    {
      "keyID": 201,
      "inputKeyCode": 258,
      "abilityName": ""
    },
    {
      "keyID": 301,
      "inputKeyCode": 259,
      "abilityName": ""
    },
    {
      "keyID": 401,
      "inputKeyCode": 260,
      "abilityName": ""
    },
    {
      "keyID": 501,
      "inputKeyCode": 261,
      "abilityName": ""
    },
    {
      "keyID": 601,
      "inputKeyCode": 262,
      "abilityName": ""
    },
    {
      "keyID": 1001,
      "inputKeyCode": 263,
      "abilityName": ""
    },
    {
      "keyID": 1002,
      "inputKeyCode": 264,
      "abilityName": ""
    },
    {
      "keyID": 1003,
      "inputKeyCode": 265,
      "abilityName": ""
    },
    {
      "keyID": 102,
      "inputKeyCode": 266,
      "abilityName": ""
    },
    {
      "keyID": 202,
      "inputKeyCode": 267,
      "abilityName": ""
    },
    {
      "keyID": 302,
      "inputKeyCode": 268,
      "abilityName": ""
    },
    {
      "keyID": 402,
      "inputKeyCode": 269,
      "abilityName": ""
    },
    {
      "keyID": 502,
      "inputKeyCode": 270,
      "abilityName": ""
    },
    {
      "keyID": 1004,
      "inputKeyCode": 271,
      "abilityName": ""
    }
  ],
  "move": {
    "$type": "IPNMJMHDMPF",
    "facingMove": "FourDirection",
    "monsterSizeType": "StoopType",
    "PKHOMJHFAEE": "RootNode"
  },
  "audio": {
    "overrideEmitterName": "",
    "animAudio": {
      "onTransitionIn": [
        {
          "currentStateName": "Weak_Loop",
          "audioEvent": {
            "text": "Play_sfx_monster_gloves_wind_weak_Loop"
          }
        },
        {
          "currentStateName": "Block_Loop",
          "audioEvent": {
            "text": "Play_sfx_monster_gloves_wind_block_Loop"
          }
        }
      ],
      "onTransitionOut": [
        {
          "currentStateName": "Weak_Loop",
          "audioEvent": {
            "text": "Stop_sfx_monster_gloves_wind_weak_Loop"
          }
        },
        {
          "currentStateName": "Block_Loop",
          "audioEvent": {
            "text": "Stop_sfx_monster_gloves_wind_block_Loop"
          }
        }
      ]
    },
    "disableEvent": {
      "text": ""
    },
    "destroyEvent": {
      "text": ""
    }
  }
}