{
  "common": {
    "effectAttachShape": {
      "$type": "FJNPJANPGGC",
      "mesh": "EffectMesh"
    },
    "mass": 45.0,
    "height": 1.0,
    "affectedByWorld": true,
    "checkInSurface": true,
    "scale": 1.2000000476837158,
    "canTriggerElementReactionText": false,
    "useGrassDisplacement": true
  },
  "model": {
    "bornEffect": "",
    "attachEffect": "",
    "canBakeMesh": false,
    "BKPFGNPLDNJ": ""
  },
  "dither": {
    "showDitherDuration": 1.0
  },
  "globalValue": {
    "serverGlobalValues": [
      "SGV_STAGE"
    ],
    "initServerGlobalValues": {
      "SGV_STAGE": 1.0
    }
  },
  "combat": {
    "property": {
      "endureType": "Monster_Minion",
      "weight": 50.0
    },
    "beHit": {
      "hitBloodEffect": "",
      "muteAllHitText": true
    },
    "combatLock": {
      "lockShape": "CircleLockEnemy",
      "lockType": "Animal_Lv2"
    },
    "die": {
      "dieEndTime": 2.0,
      "dieForceDisappearTime": 10.0,
      "dieDisappearEffect": ""
    }
  },
  "abilities": [
    {
      "abilityID": "AIStateInitial",
      "abilityName": "Animal_Fox_AIStateInitial",
      "abilityOverride": ""
    },
    {
      "abilityID": "Random",
      "abilityName": "Animal_Fox_Random",
      "abilityOverride": ""
    },
    {
      "abilityID": "GetUp",
      "abilityName": "Animal_Fox_GetUp",
      "abilityOverride": ""
    },
    {
      "abilityID": "GetDown",
      "abilityName": "Animal_Fox_GetDown",
      "abilityOverride": ""
    },
    {
      "abilityID": "Disappear",
      "abilityName": "Animal_Fox_Disappear",
      "abilityOverride": ""
    },
    {
      "abilityID": "Animal_Fox_AwareTigger",
      "abilityName": "Animal_Fox_AwareTigger",
      "abilityOverride": ""
    },
    {
      "abilityID": "",
      "abilityName": "Animal_Boar_Hunt_BeCaptured_Disappear",
      "abilityOverride": ""
    },
    {
      "abilityID": "",
      "abilityName": "Animal_Hunt_Sneak_Attract_Effect",
      "abilityOverride": ""
    },
    {
      "abilityID": "",
      "abilityName": "Animal_Hunt_AlertHideBillboard",
      "abilityOverride": ""
    }
  ],
  "stateLayers": {
    "defaultLayer": {
      "$type": "GBGJJIIEMBD",
      "layerIndexName": "",
      "CPAANEIJCGD": "",
      "stateIDs": {
        "Born": {
          "$type": "NEDIFAKEGCO",
          "animatorStates": {
            "Born": [
              "Audio_Fox_Born"
            ]
          },
          "resetAnimatorTriggerOnExit": [
            "DoSkill"
          ]
        },
        "NormalIdle": {
          "$type": "NEDIFAKEGCO",
          "animatorStates": {
            "Standby": [],
            "Standby_Alert": [],
            "Standby_Prone": []
          },
          "canDoSkill": true,
          "canSyncMove": true,
          "resetAnimatorTriggerOnExit": [
            "DoSkill"
          ]
        },
        "NormalMove": {
          "$type": "NEDIFAKEGCO",
          "animatorStates": {
            "Walk": [
              "Audio_Fox_Walk"
            ],
            "Run": [
              "Audio_Fox_Run"
            ],
            "Disappear": [
              "Audio_Fox_Run"
            ]
          },
          "canSyncMove": true,
          "resetAnimatorTriggerOnExit": [
            "DoSkill"
          ],
          "canSteer": true
        },
        "BeHit": {
          "$type": "NEDIFAKEGCO",
          "animatorStates": {
            "Hit_L": [
              "Audio_Fox_Hit_L"
            ]
          },
          "resetAnimatorTriggerOnEnter": [
            "BeHit"
          ],
          "resetAnimatorTriggerOnExit": [
            "DoSkill"
          ]
        },
        "Die": {
          "$type": "NEDIFAKEGCO",
          "animatorStates": {
            "Die": [
              "Animal_Fox_Die",
              "Audio_Fox_Die"
            ],
            "Die_Disappear": [
              "Animal_Fox_Disappear",
              "Audio_Fox_Run"
            ]
          }
        },
        "GetUp": {
          "$type": "NEDIFAKEGCO",
          "animatorStates": {
            "GetUp": [
              "Animal_Fox_GetUp",
              "Audio_Fox_GetUp"
            ]
          },
          "canDoSkill": true,
          "resetAnimatorTriggerOnExit": [
            "BeHit",
            "DoSkill"
          ]
        },
        "GetDown": {
          "$type": "NEDIFAKEGCO",
          "animatorStates": {
            "GetDown": [
              "Animal_Fox_GetDown",
              "Audio_Fox_GetDown"
            ]
          },
          "canDoSkill": true,
          "resetAnimatorTriggerOnExit": [
            "BeHit",
            "DoSkill"
          ]
        },
        "Aware": {
          "$type": "NEDIFAKEGCO",
          "animatorStates": {
            "Aware_GetUp": [
              "Audio_Fox_Personality_102"
            ],
            "Aware": [
              "Audio_Fox_Aware"
            ]
          },
          "canDoSkill": true,
          "resetAnimatorTriggerOnExit": [
            "BeHit",
            "DoSkill",
            "AwareTrigger"
          ]
        },
        "Alert": {
          "$type": "NEDIFAKEGCO",
          "animatorStates": {
            "Alert": [
              "Audio_Fox_Walk"
            ],
            "Alert_Scared": [
              "Animal_Fox_Alert_Scared",
              "Audio_Fox_Alert_Scared"
            ]
          },
          "resetAnimatorTriggerOnExit": [
            "BeHit",
            "DoSkill"
          ]
        },
        "Personality_101": {
          "$type": "NEDIFAKEGCO",
          "animatorStates": {
            "Personality_101": [
              "Audio_Fox_Personality_102"
            ]
          },
          "canDoSkill": true,
          "resetAnimatorTriggerOnExit": [
            "BeHit",
            "DoSkill"
          ]
        },
        "Personality_102": {
          "$type": "NEDIFAKEGCO",
          "animatorStates": {
            "Personality_102": [
              "Audio_Fox_Personality_102"
            ]
          },
          "canDoSkill": true,
          "resetAnimatorTriggerOnExit": [
            "BeHit",
            "DoSkill"
          ]
        },
        "Personality_103": {
          "$type": "NEDIFAKEGCO",
          "animatorStates": {
            "Personality_103": [
              "Audio_Fox_Personality_103"
            ]
          },
          "canDoSkill": true,
          "resetAnimatorTriggerOnExit": [
            "BeHit",
            "DoSkill"
          ]
        },
        "Attract": {
          "$type": "NEDIFAKEGCO",
          "animatorStates": {
            "Attract": []
          },
          "canDoSkill": true,
          "resetAnimatorTriggerOnExit": [
            "BeHit",
            "DoSkill"
          ]
        },
        "Search": {
          "$type": "NEDIFAKEGCO",
          "animatorStates": {
            "Search": []
          },
          "canDoSkill": true,
          "resetAnimatorTriggerOnExit": [
            "BeHit",
            "DoSkill"
          ]
        }
      }
    }
  },
  "billboard": {
    "$type": "DNGNMAJBCNP",
    "attachPoint": "BillboardAttach",
    "offset": {
      "y": 0.6000000238418579
    },
    "offsetType": "Character",
    "showDistance": 50.0,
    "showHPBar": true,
    "size": "Small",
    "shieldBarOnly": true
  },
  "initialPoses": {
    "Default": {},
    "Hunt_Sneak": {
      "initialPoseID": 1001,
      "initialPoseParams": {
        "boolParams": {
          "HuntSneak": "true"
        }
      }
    }
  },
  "aibeta": {
    "enable": true,
    "precombat": {
      "overrideWeatherNeuronMapping": {
        "Rain": [
          "WEATHER_BAD"
        ],
        "Storm": [
          "WEATHER_BAD"
        ]
      }
    },
    "sensing": {
      "settings": {
        "DefaultSetting": {
          "viewRange": 10.0,
          "horizontalFov": 90.0,
          "verticalFov": 30.0,
          "hearAttractionRange": 8.0,
          "feelRange": 9.0
        }
      }
    },
    "neurons": {
      "DefaultSetting": [
        "HIT",
        "WEATHER_BAD",
        "FEAR"
      ]
    },
    "threat": {
      "GHIJMOKOLMB": "",
      "viewThreatGrow": 40.0,
      "feelThreatGrow": 70.0,
      "threatDecreaseSpeed": 100.0,
      "viewAttenuation": [
        {
          "x": 7.0,
          "y": 1.0
        },
        {
          "x": 9.0,
          "y": 0.75
        },
        {
          "x": 15.0,
          "y": 0.5
        }
      ]
    },
    "defendArea": {
      "defendRange": 100.0
    },
    "ui": {
      "hasDirectionIndicator": false,
      "HMNNBFDEHLG": ""
    },
    "skills": {
      "1": {
        "name": "OnAware_Prone",
        "skillType": "OnAware",
        "castCondition": {
          "pose": [
            2
          ]
        },
        "publicCDGroup": "",
        "triggerGCD": false,
        "HHAGODJIAPE": "",
        "stateIDs": [
          "Aware"
        ],
        "skillQueryingTime": 3.0,
        "flagTargetReachable": "10",
        "flagSelfOnTemplateCollider": "01",
        "flagSelfInZone": "10",
        "flagTargetInZone": "11"
      },
      "2": {
        "name": "OnAware",
        "skillType": "OnAware",
        "castCondition": {
          "pose": [
            1
          ]
        },
        "publicCDGroup": "",
        "triggerGCD": false,
        "HHAGODJIAPE": "",
        "stateIDs": [
          "Aware"
        ],
        "skillQueryingTime": 3.0,
        "flagTargetReachable": "10",
        "flagSelfOnTemplateCollider": "01",
        "flagSelfInZone": "10",
        "flagTargetInZone": "11"
      },
      "3": {
        "name": "OnAlert",
        "skillType": "OnAlert",
        "publicCDGroup": "",
        "triggerGCD": false,
        "HHAGODJIAPE": "",
        "stateIDs": [
          "Alert"
        ],
        "skillQueryingTime": 3.0,
        "flagTargetReachable": "10",
        "flagSelfOnTemplateCollider": "01",
        "flagSelfInZone": "10",
        "flagTargetInZone": "11"
      },
      "101": {
        "name": "Personality_101",
        "skillType": "Free",
        "castCondition": {
          "pose": [
            2
          ]
        },
        "cd": 15.0,
        "cdUpperRange": 45.0,
        "initialCD": 5.0,
        "initialCDUpperRange": 55.0,
        "publicCDGroup": "",
        "HHAGODJIAPE": "",
        "stateIDs": [
          "Personality_101"
        ],
        "flagTargetReachable": "10",
        "flagSelfOnTemplateCollider": "01",
        "flagSelfInZone": "10",
        "flagTargetInZone": "11"
      },
      "102": {
        "name": "Personality_102",
        "skillType": "Free",
        "castCondition": {
          "pose": [
            2
          ]
        },
        "cd": 15.0,
        "cdUpperRange": 45.0,
        "initialCD": 5.0,
        "initialCDUpperRange": 55.0,
        "publicCDGroup": "",
        "HHAGODJIAPE": "",
        "stateIDs": [
          "Personality_102"
        ],
        "flagTargetReachable": "10",
        "flagSelfOnTemplateCollider": "01",
        "flagSelfInZone": "10",
        "flagTargetInZone": "11"
      },
      "103": {
        "name": "Personality_103",
        "skillType": "Free",
        "castCondition": {
          "pose": [
            1
          ]
        },
        "cd": 15.0,
        "cdUpperRange": 45.0,
        "initialCD": 5.0,
        "initialCDUpperRange": 25.0,
        "publicCDGroup": "",
        "HHAGODJIAPE": "",
        "stateIDs": [
          "Personality_103"
        ],
        "flagTargetReachable": "10",
        "flagSelfOnTemplateCollider": "01",
        "flagSelfInZone": "10",
        "flagTargetInZone": "11"
      },
      "201": {
        "name": "GetUp",
        "skillType": "Free",
        "priority": 1,
        "castCondition": {
          "pose": [
            2
          ]
        },
        "cd": 10.0,
        "initialCD": 60.0,
        "initialCDUpperRange": 120.0,
        "publicCDGroup": "",
        "HHAGODJIAPE": "",
        "stateIDs": [
          "GetUp"
        ],
        "flagTargetReachable": "10",
        "flagSelfOnTemplateCollider": "01",
        "flagSelfInZone": "10",
        "flagTargetInZone": "11"
      },
      "202": {
        "name": "GetDown",
        "skillType": "Free",
        "priority": 1,
        "castCondition": {
          "pose": [
            1
          ]
        },
        "cd": 10.0,
        "initialCD": 10.0,
        "initialCDUpperRange": 90.0,
        "publicCDGroup": "",
        "HHAGODJIAPE": "",
        "stateIDs": [
          "GetDown"
        ],
        "flagTargetReachable": "10",
        "flagSelfOnTemplateCollider": "01",
        "flagSelfInZone": "10",
        "flagTargetInZone": "11"
      }
    },
    "skillGCD": 5.0,
    "birdCirclingTactic": [
      {
        "$type": "ODHNBPJLGHF",
        "enable": true,
        "condition": {
          "pose": [
            201
          ]
        },
        "JMCOBEPDIGM": {
          "NBENNEKDIIA": 5.0,
          "cd": 0.0,
          "triggerDistance": 200.0,
          "EMNPEHPCDLB": 10,
          "CMDFDIPMGKI": 10,
          "KAIGBDPLNMO": 4.5,
          "BMIEPFCPFGN": 5.5,
          "MNPDDAKDHGK": ""
        }
      },
      {
        "$type": "GOIIDIJFGNE",
        "enable": true,
        "condition": {
          "pose": [
            1001
          ]
        },
        "JMCOBEPDIGM": {
          "GNPNBBNPCDO": 1.5,
          "BNODFNGBJJM": true,
          "MNPDDAKDHGK": ""
        }
      },
      {
        "$type": "NNJKLGNPMNN",
        "enable": true
      },
      {
        "$type": "FPELBIJFGCE",
        "enable": true,
        "condition": {
          "pose": [
            1,
            1001
          ]
        },
        "JMCOBEPDIGM": {
          "NBENNEKDIIA": 0.25,
          "KPNDPKIOPJM": 5.0,
          "PINAFKEDDLL": 2.5,
          "ANMPOPEBDIA": 15.0,
          "GMJFIMFFOEL": 5.0,
          "CHCPFDMADEI": 7.5,
          "MNPDDAKDHGK": ""
        }
      }
    ]
  },
  "animal": {
    "tickAbilityElement": false,
    "hasCharacterRenderering": false
  },
  "captureGroup": {
    "defaultConfig": {
      "captureEffect": "Eff_SceneObj_CatchAnimal_CaughtSuccess"
    }
  }
}