{
  "behaviours": [
    {
      "name": "Character_Wriothesley_Q_Golden",
      "mainTargetDamageShowDelayTimeSelf": 2.630000114440918,
      "GIJMNEJNECL": "",
      "onStart": [
        {
          "lastTime": 0.44999998807907104,
          "actionGroups": [
            {
              "actions": [
                {
                  "$type": "NCMFAICEJPG",
                  "targetSelector": {
                    "target": "Actor"
                  }
                },
                {
                  "$type": "IAKIANGHNKN",
                  "targetSelector": {
                    "target": "Actor"
                  }
                },
                {
                  "$type": "DOANJEEJPPK",
                  "targetSelector": {
                    "target": "Actor"
                  }
                },
                {
                  "$type": "HEOJFBCFBAG",
                  "targetSelector": {
                    "target": "Actor"
                  },
                  "effectName": "Eff_Gcg_Avatar_Wriothesley_ElementalBurst_Spine",
                  "doWriteStencil": true,
                  "followSpineName": "",
                  "followSpineBoneName": "",
                  "bornRotate": {
                    "$type": "IFLHJLBOPFG"
                  }
                }
              ]
            }
          ]
        },
        {
          "lastTime": 0.3199999928474426,
          "actionGroups": [
            {
              "actions": [
                {
                  "$type": "HEOJFBCFBAG",
                  "targetSelector": {
                    "target": "Actor"
                  },
                  "effectName": "Eff_Gcg_Avatar_Wriothesley_ElementalBurst_Spine_Hand_03",
                  "doWriteStencil": true,
                  "isFollowSpineBone": true,
                  "followSpineName": "Gcg_CardFace_Char_Avatar_Wriothesley_Spine",
                  "followSpineBoneName": "EffectRoot_Weapon",
                  "bornRotate": {
                    "$type": "IFLHJLBOPFG"
                  }
                }
              ]
            }
          ]
        },
        {
          "lastTime": 0.7799999713897705,
          "actionGroups": [
            {
              "actions": [
                {
                  "$type": "HEOJFBCFBAG",
                  "targetSelector": {
                    "target": "Actor"
                  },
                  "effectName": "Eff_Gcg_Avatar_Wriothesley_ElementalBurst_Spine_Hand_01",
                  "doWriteStencil": true,
                  "isFollowSpineBone": true,
                  "followSpineName": "Gcg_CardFace_Char_Avatar_Wriothesley_Spine",
                  "followSpineBoneName": "EffectRoot_Weapon2",
                  "bornRotate": {
                    "$type": "IFLHJLBOPFG"
                  }
                },
                {
                  "$type": "HEOJFBCFBAG",
                  "targetSelector": {
                    "target": "Actor"
                  },
                  "effectName": "Eff_Gcg_Avatar_Wriothesley_ElementalBurst_Spine_Hand_02",
                  "doWriteStencil": true,
                  "isFollowSpineBone": true,
                  "followSpineName": "Gcg_CardFace_Char_Avatar_Wriothesley_Spine",
                  "followSpineBoneName": "EffectRoot_Weapon3",
                  "bornRotate": {
                    "$type": "IFLHJLBOPFG"
                  }
                }
              ]
            }
          ]
        },
        {
          "lastTime": 0.029999999329447746,
          "actionGroups": [
            {
              "actions": [
                {
                  "$type": "HEOJFBCFBAG",
                  "targetSelector": {
                    "target": "Actor"
                  },
                  "effectName": "Eff_Gcg_Avatar_Wriothesley_ElementalBurst_BS",
                  "followSpineName": "",
                  "followSpineBoneName": "",
                  "bornRotate": {
                    "$type": "IFLHJLBOPFG"
                  }
                }
              ]
            }
          ]
        },
        {
          "lastTime": 0.10000000149011612,
          "actionGroups": [
            {
              "actions": [
                {
                  "$type": "IFFOEEHIMEJ",
                  "moveScript": "GcgMotion_Hit04_03",
                  "oppoMoveScript": "",
                  "sourceSelector": {
                    "target": "ContextTarget"
                  },
                  "targetSelector": {
                    "target": "Actor"
                  },
                  "resetCharPositionWhenFinish": true
                }
              ]
            }
          ]
        },
        {
          "lastTime": 0.10000000149011612,
          "actionGroups": [
            {
              "actions": [
                {
                  "$type": "HEOJFBCFBAG",
                  "targetSelector": {
                    "target": "MainTarget"
                  },
                  "effectName": "Eff_Gcg_Avatar_Wriothesley_ElementalBurst_Hit",
                  "followSpineName": "",
                  "followSpineBoneName": "",
                  "bornRotate": {
                    "$type": "DPLNDBOHACP",
                    "targetSelector": {
                      "target": "Actor"
                    }
                  },
                  "bornOppositeGestureAdjust": "HorizontalAxisFlip"
                }
              ]
            }
          ]
        },
        {
          "lastTime": 0.949999988079071,
          "actionGroups": [
            {
              "actions": [
                {
                  "$type": "DNFIJJGGFGK",
                  "targetSelector": {
                    "target": "MainTarget",
                    "campFilter": "ActorOppoCamp"
                  },
                  "script": "Common_ShakeScreen_Test_Q"
                }
              ]
            }
          ]
        },
        {
          "lastTime": 1.340000033378601,
          "actionGroups": [
            {
              "actions": [
                {
                  "$type": "IBOACHLDPJC",
                  "targetSelector": {
                    "target": "MainTarget"
                  }
                }
              ]
            }
          ]
        },
        {
          "lastTime": 0.029999999329447746,
          "actionGroups": [
            {
              "actions": [
                {
                  "$type": "HEOJFBCFBAG",
                  "targetSelector": {
                    "target": "Actor"
                  },
                  "effectName": "Eff_Gcg_Common_Spine_ReturnToLoop",
                  "doWriteStencil": true,
                  "followSpineName": "",
                  "followSpineBoneName": "",
                  "bornRotate": {
                    "$type": "IFLHJLBOPFG"
                  }
                }
              ]
            }
          ]
        },
        {
          "lastTime": 0.25,
          "actionGroups": [
            {
              "actions": [
                {
                  "$type": "NCMFAICEJPG",
                  "targetSelector": {
                    "target": "Actor"
                  },
                  "isOpen": true
                },
                {
                  "$type": "IAKIANGHNKN",
                  "targetSelector": {
                    "target": "Actor"
                  },
                  "isOpen": true
                }
              ]
            }
          ]
        }
      ]
    }
  ]
}