{
  "behaviours": [
    {
      "name": "Character_Noel_Q_Golden",
      "GIJMNEJNECL": "",
      "onStart": [
        {
          "lastTime": 2.059999942779541,
          "actionGroups": [
            {
              "actions": [
                {
                  "$type": "NCMFAICEJPG",
                  "targetSelector": {
                    "target": "Actor"
                  }
                },
                {
                  "$type": "IAKIANGHNKN",
                  "targetSelector": {
                    "target": "Actor"
                  }
                },
                {
                  "$type": "DOANJEEJPPK",
                  "targetSelector": {
                    "target": "Actor"
                  }
                },
                {
                  "$type": "HEOJFBCFBAG",
                  "targetSelector": {
                    "target": "Actor"
                  },
                  "effectName": "Eff_Gcg_Avatar_Noel_ElementalBurst_Spine_Weapon",
                  "doWriteStencil": true,
                  "isFollowSpineBone": true,
                  "followSpineName": "Gcg_CardFace_Char_Avatar_Noel_Spine",
                  "followSpineBoneName": "EffectRoot_1",
                  "bornRotate": {
                    "$type": "IFLHJLBOPFG"
                  }
                },
                {
                  "$type": "HEOJFBCFBAG",
                  "targetSelector": {
                    "target": "Actor"
                  },
                  "effectName": "Eff_Gcg_Avatar_Noel_ElementalBurst_Spine",
                  "doWriteStencil": true,
                  "followSpineName": "",
                  "followSpineBoneName": "",
                  "bornRotate": {
                    "$type": "IFLHJLBOPFG"
                  }
                }
              ]
            }
          ]
        },
        {
          "lastTime": 0.10000000149011612,
          "actionGroups": [
            {
              "actions": [
                {
                  "$type": "HEOJFBCFBAG",
                  "targetSelector": {
                    "target": "MainTarget"
                  },
                  "effectName": "Eff_Gcg_Avatar_Noel_ElementalBurst",
                  "followSpineName": "",
                  "followSpineBoneName": "",
                  "bornRotate": {
                    "$type": "DPLNDBOHACP",
                    "targetSelector": {
                      "target": "Actor"
                    }
                  }
                }
              ]
            }
          ]
        },
        {
          "lastTime": 0.05999999865889549,
          "actionGroups": [
            {
              "actions": [
                {
                  "$type": "HEOJFBCFBAG",
                  "targetSelector": {
                    "target": "Actor"
                  },
                  "effectName": "Eff_Gcg_Avatar_Noel_ElementalBurst_BS",
                  "followSpineName": "",
                  "followSpineBoneName": "",
                  "bornRotate": {
                    "$type": "IFLHJLBOPFG"
                  }
                }
              ]
            }
          ]
        },
        {
          "lastTime": 1.5099999904632568,
          "actionGroups": [
            {
              "actions": [
                {
                  "$type": "IBOACHLDPJC",
                  "targetSelector": {
                    "target": "MainTarget"
                  }
                }
              ]
            }
          ]
        },
        {
          "lastTime": 0.029999999329447746,
          "actionGroups": [
            {
              "actions": [
                {
                  "$type": "HEOJFBCFBAG",
                  "targetSelector": {
                    "target": "Actor"
                  },
                  "effectName": "Eff_Gcg_Common_Spine_ReturnToLoop",
                  "doWriteStencil": true,
                  "followSpineName": "",
                  "followSpineBoneName": "",
                  "bornRotate": {
                    "$type": "IFLHJLBOPFG"
                  }
                }
              ]
            }
          ]
        },
        {
          "actionGroups": [
            {
              "actions": [
                {
                  "$type": "NCMFAICEJPG",
                  "targetSelector": {
                    "target": "Actor"
                  },
                  "isOpen": true
                },
                {
                  "$type": "IAKIANGHNKN",
                  "targetSelector": {
                    "target": "Actor"
                  },
                  "isOpen": true
                }
              ]
            }
          ]
        }
      ],
      "onHitLanded": [
        {
          "actionGroups": [
            {
              "actions": [
                {
                  "$type": "HEOJFBCFBAG",
                  "targetSelector": {
                    "target": "MainTarget"
                  },
                  "effectName": "Eff_Gcg_Avatar_Noel_ElementalBurst_Hit",
                  "followSpineName": "",
                  "followSpineBoneName": "",
                  "bornRotate": {
                    "$type": "DPLNDBOHACP",
                    "targetSelector": {
                      "target": "Actor"
                    }
                  }
                },
                {
                  "$type": "DNFIJJGGFGK",
                  "targetSelector": {
                    "target": "ContextTarget"
                  },
                  "script": "Common_ShakeScreen_Test_Q"
                }
              ]
            }
          ]
        }
      ]
    }
  ]
}