{
  "behaviours": [
    {
      "name": "Character_Charlotte_Q_Golden",
      "mainTargetDamageShowDelayTimeSelf": 1.899999976158142,
      "subTargetDamageShowDelayTimeSelf": 1.899999976158142,
      "GIJMNEJNECL": "",
      "onStart": [
        {
          "lastTime": 1.850000023841858,
          "actionGroups": [
            {
              "actions": [
                {
                  "$type": "NCMFAICEJPG",
                  "targetSelector": {
                    "target": "Actor"
                  }
                },
                {
                  "$type": "IAKIANGHNKN",
                  "targetSelector": {
                    "target": "Actor"
                  }
                },
                {
                  "$type": "DOANJEEJPPK",
                  "targetSelector": {
                    "target": "Actor"
                  }
                },
                {
                  "$type": "HEOJFBCFBAG",
                  "targetSelector": {
                    "target": "Actor"
                  },
                  "effectName": "Eff_Gcg_Avatar_Charlotte_ElementalBurst_Spine",
                  "doWriteStencil": true,
                  "followSpineName": "",
                  "followSpineBoneName": "",
                  "bornRotate": {
                    "$type": "IFLHJLBOPFG"
                  }
                }
              ]
            }
          ]
        },
        {
          "lastTime": 0.12999999523162842,
          "actionGroups": [
            {
              "actions": [
                {
                  "$type": "HEOJFBCFBAG",
                  "targetSelector": {
                    "target": "Actor"
                  },
                  "effectName": "Eff_Gcg_Avatar_Charlotte_ElementalBurst_BS",
                  "followSpineName": "",
                  "followSpineBoneName": "",
                  "bornRotate": {
                    "$type": "IFLHJLBOPFG"
                  }
                }
              ]
            }
          ]
        },
        {
          "lastTime": 2.190000057220459,
          "actionGroups": [
            {
              "actions": [
                {
                  "$type": "IBOACHLDPJC",
                  "targetSelector": {
                    "target": "MainTarget",
                    "campFilter": "ActorOppoCamp"
                  }
                }
              ]
            }
          ]
        },
        {
          "lastTime": 0.029999999329447746,
          "actionGroups": [
            {
              "actions": [
                {
                  "$type": "HEOJFBCFBAG",
                  "targetSelector": {
                    "target": "Actor"
                  },
                  "effectName": "Eff_Gcg_Common_Spine_ReturnToLoop",
                  "doWriteStencil": true,
                  "followSpineName": "",
                  "followSpineBoneName": "",
                  "bornRotate": {
                    "$type": "IFLHJLBOPFG"
                  }
                }
              ]
            }
          ]
        },
        {
          "actionGroups": [
            {
              "actions": [
                {
                  "$type": "NCMFAICEJPG",
                  "targetSelector": {
                    "target": "Actor"
                  },
                  "isOpen": true
                },
                {
                  "$type": "IAKIANGHNKN",
                  "targetSelector": {
                    "target": "Actor"
                  },
                  "isOpen": true
                }
              ]
            }
          ]
        }
      ],
      "onHitLanded": [
        {
          "predict": {
            "$type": "DNGHGBJLEEP",
            "targetSelector": {
              "target": "MainTarget",
              "campFilter": "ActorOppoCamp"
            }
          },
          "lastTime": 0.10000000149011612,
          "actionGroups": [
            {
              "actions": [
                {
                  "$type": "HEOJFBCFBAG",
                  "targetSelector": {
                    "target": "ContextTarget",
                    "campFilter": "ActorOppoCamp"
                  },
                  "effectName": "Eff_Gcg_Avatar_Charlotte_ElementalBurst_Hit",
                  "followSpineName": "",
                  "followSpineBoneName": "",
                  "bornRotate": {
                    "$type": "FKEAAMKHNNO"
                  }
                },
                {
                  "$type": "IBOACHLDPJC",
                  "targetSelector": {
                    "target": "AllTarget",
                    "campFilter": "ActorSameCamp"
                  }
                }
              ]
            }
          ]
        },
        {
          "predict": {
            "$type": "DNGHGBJLEEP",
            "targetSelector": {
              "target": "AllTarget",
              "campFilter": "ActorSameCamp"
            }
          },
          "actionGroups": [
            {
              "actions": [
                {
                  "$type": "HEOJFBCFBAG",
                  "targetSelector": {
                    "target": "ContextTarget",
                    "campFilter": "ActorSameCamp"
                  },
                  "effectName": "Eff_Gcg_Common_ElementalArt_Healing_Hit",
                  "followSpineName": "",
                  "followSpineBoneName": "",
                  "bornRotate": {
                    "$type": "IFLHJLBOPFG"
                  }
                }
              ]
            }
          ]
        }
      ]
    }
  ]
}