{
  "behaviours": [
    {
      "name": "Character_Noel_Q_Normal",
      "GIJMNEJNECL": "",
      "onStart": [
        {
          "lastTime": 0.44999998807907104,
          "actionGroups": [
            {
              "actions": [
                {
                  "$type": "IAKIANGHNKN",
                  "targetSelector": {
                    "target": "Actor"
                  }
                },
                {
                  "$type": "HEOJFBCFBAG",
                  "targetSelector": {
                    "target": "Actor"
                  },
                  "effectName": "Eff_Gcg_Common_ElementalBurst_NormalCharge",
                  "followSpineName": "",
                  "followSpineBoneName": "",
                  "bornRotate": {
                    "$type": "IFLHJLBOPFG"
                  }
                }
              ]
            }
          ]
        },
        {
          "lastTime": 0.10000000149011612,
          "actionGroups": [
            {
              "actions": [
                {
                  "$type": "HEOJFBCFBAG",
                  "targetSelector": {
                    "target": "MainTarget"
                  },
                  "effectName": "Eff_Gcg_Avatar_Noel_ElementalBurst",
                  "followSpineName": "",
                  "followSpineBoneName": "",
                  "bornRotate": {
                    "$type": "DPLNDBOHACP",
                    "targetSelector": {
                      "target": "Actor"
                    }
                  }
                }
              ]
            }
          ]
        },
        {
          "lastTime": 0.11999999731779099,
          "actionGroups": [
            {
              "actions": [
                {
                  "$type": "HEOJFBCFBAG",
                  "targetSelector": {
                    "target": "Actor"
                  },
                  "effectName": "Eff_Gcg_Avatar_Noel_ElementalBurst_BS",
                  "followSpineName": "",
                  "followSpineBoneName": "",
                  "bornRotate": {
                    "$type": "IFLHJLBOPFG"
                  }
                }
              ]
            }
          ]
        },
        {
          "actionGroups": [
            {
              "actions": [
                {
                  "$type": "IBOACHLDPJC",
                  "targetSelector": {
                    "target": "MainTarget"
                  }
                }
              ]
            }
          ]
        }
      ],
      "onHitLanded": [
        {
          "lastTime": 0.5,
          "actionGroups": [
            {
              "actions": [
                {
                  "$type": "HEOJFBCFBAG",
                  "targetSelector": {
                    "target": "MainTarget"
                  },
                  "effectName": "Eff_Gcg_Avatar_Noel_ElementalBurst_Hit",
                  "followSpineName": "",
                  "followSpineBoneName": "",
                  "bornRotate": {
                    "$type": "DPLNDBOHACP",
                    "targetSelector": {
                      "target": "Actor"
                    }
                  }
                },
                {
                  "$type": "DNFIJJGGFGK",
                  "targetSelector": {
                    "target": "ContextTarget"
                  },
                  "script": "Common_ShakeScreen_Test_Q"
                }
              ]
            }
          ]
        },
        {
          "actionGroups": [
            {
              "actions": [
                {
                  "$type": "IAKIANGHNKN",
                  "targetSelector": {
                    "target": "Actor"
                  },
                  "isOpen": true
                }
              ]
            }
          ]
        }
      ]
    },
    {
      "name": "Character_Noel_Daoguang",
      "GIJMNEJNECL": "",
      "onStart": [
        {
          "predict": {
            "$type": "NKGDPOBBHLJ",
            "skillIDList": [
              1160221
            ],
            "needTargetSelector": true,
            "targetSelector": {
              "target": "MainTarget"
            }
          },
          "lastTime": 0.2199999988079071,
          "actionGroups": [
            {
              "actions": [
                {
                  "$type": "HEOJFBCFBAG",
                  "targetSelector": {
                    "target": "MainTarget"
                  },
                  "effectName": "Eff_Gcg_Avatar_Noel_ElementalBurst_Buff",
                  "bornOffset": {
                    "y": 0.5
                  },
                  "followSpineName": "",
                  "followSpineBoneName": "",
                  "bornRotate": {
                    "$type": "DPLNDBOHACP",
                    "targetSelector": {
                      "target": "Actor"
                    }
                  }
                }
              ]
            }
          ]
        },
        {
          "predict": {
            "$type": "NKGDPOBBHLJ",
            "skillIDList": [
              1160221
            ],
            "needTargetSelector": true,
            "targetSelector": {
              "target": "MainTarget"
            }
          },
          "actionGroups": [
            {
              "actions": [
                {
                  "$type": "IBOACHLDPJC",
                  "targetSelector": {
                    "target": "MainTarget"
                  }
                }
              ]
            }
          ]
        },
        {
          "predict": {
            "$type": "ODNKFAIFILK",
            "predict": {
              "$type": "NKGDPOBBHLJ",
              "skillIDList": [
                1160221
              ],
              "needTargetSelector": true,
              "targetSelector": {
                "target": "MainTarget"
              }
            }
          },
          "lastTime": 0.5,
          "actionGroups": [
            {
              "actions": [
                {
                  "$type": "IFFOEEHIMEJ",
                  "moveScript": "GcgMotion_Skill_A_Test_01",
                  "oppoMoveScript": "",
                  "sourceSelector": {
                    "target": "Actor"
                  },
                  "targetSelector": {
                    "target": "MainTarget",
                    "campFilter": "ActorOppoCamp",
                    "tokenFilter": [
                      "GCG_TOKEN_HP"
                    ]
                  },
                  "isAttack": true,
                  "targetDistOffsetRatio": 0.5,
                  "resetCharPositionWhenFinish": true
                },
                {
                  "$type": "IAKIANGHNKN",
                  "targetSelector": {
                    "target": "Actor"
                  }
                },
                {
                  "$type": "KCODBGODGMA",
                  "behaviourName": "CommonBehaviour",
                  "triggerName": "OnAttack"
                },
                {
                  "$type": "ACBKBJPANAH",
                  "targetSelector": {
                    "target": "Actor"
                  },
                  "playImmediately": true,
                  "eventName": {
                    "text": "Play_sfx_GCG_common_normal_attack"
                  }
                }
              ]
            }
          ]
        }
      ],
      "onHitLanded": [
        {
          "predict": {
            "$type": "NKGDPOBBHLJ",
            "skillIDList": [
              1160221
            ]
          },
          "actionGroups": [
            {
              "predict": {
                "$type": "NKGDPOBBHLJ",
                "skillIDList": [
                  111,
                  112,
                  113,
                  114
                ]
              },
              "actions": [
                {
                  "$type": "HEOJFBCFBAG",
                  "targetSelector": {
                    "target": "ContextTarget"
                  },
                  "effectName": "Eff_Gcg_Common_Reaction_Crystal",
                  "followSpineName": "",
                  "followSpineBoneName": "",
                  "bornRotate": {
                    "$type": "IFLHJLBOPFG"
                  }
                }
              ]
            },
            {
              "actions": [
                {
                  "$type": "HEOJFBCFBAG",
                  "targetSelector": {
                    "target": "MainTarget"
                  },
                  "effectName": "Eff_Gcg_Avatar_Noel_ElementalBurst_Buff_Hit",
                  "bornOffset": {
                    "y": 0.5
                  },
                  "followSpineName": "",
                  "followSpineBoneName": "",
                  "bornRotate": {
                    "$type": "DPLNDBOHACP",
                    "targetSelector": {
                      "target": "Actor"
                    }
                  }
                },
                {
                  "$type": "DNFIJJGGFGK",
                  "targetSelector": {
                    "target": "ContextTarget"
                  },
                  "script": "Common_ShakeScreen_Test_E"
                }
              ]
            }
          ]
        },
        {
          "predict": {
            "$type": "ODNKFAIFILK",
            "predict": {
              "$type": "NKGDPOBBHLJ",
              "skillIDList": [
                1160221
              ]
            }
          },
          "actionGroups": [
            {
              "actions": [
                {
                  "$type": "DNFIJJGGFGK",
                  "targetSelector": {
                    "target": "ContextTarget"
                  },
                  "script": "Common_ShakeScreen_Test_A"
                },
                {
                  "$type": "IFFOEEHIMEJ",
                  "moveScript": "GcgMotion_Hit04_01",
                  "oppoMoveScript": "",
                  "sourceSelector": {
                    "target": "ContextTarget"
                  },
                  "targetSelector": {
                    "target": "Actor"
                  },
                  "resetCharPositionWhenFinish": true
                },
                {
                  "$type": "IAKIANGHNKN",
                  "targetSelector": {
                    "target": "Actor"
                  },
                  "isOpen": true
                },
                {
                  "$type": "KCODBGODGMA",
                  "behaviourName": "CommonBehaviour",
                  "triggerName": "OnBeingHit"
                }
              ]
            }
          ]
        }
      ]
    }
  ]
}