{
  "behaviours": [
    {
      "name": "Monster_Skimisherfatwater_Attack_Normal",
      "GIJMNEJNECL": "",
      "onStart": [
        {
          "lastTime": 0.5,
          "actionGroups": [
            {
              "actions": [
                {
                  "$type": "IFFOEEHIMEJ",
                  "moveScript": "GcgMotion_Skill_A_Test_01",
                  "oppoMoveScript": "",
                  "sourceSelector": {
                    "target": "Actor"
                  },
                  "targetSelector": {
                    "target": "MainTarget",
                    "campFilter": "ActorOppoCamp",
                    "tokenFilter": [
                      "GCG_TOKEN_HP"
                    ]
                  },
                  "isAttack": true,
                  "targetDistOffsetRatio": 0.5,
                  "resetCharPositionWhenFinish": true
                },
                {
                  "$type": "IAKIANGHNKN",
                  "targetSelector": {
                    "target": "Actor"
                  }
                },
                {
                  "$type": "KCODBGODGMA",
                  "behaviourName": "CommonBehaviour",
                  "triggerName": "OnAttack"
                }
              ]
            }
          ]
        }
      ],
      "onHitLanded": [
        {
          "predict": {
            "$type": "DNGHGBJLEEP",
            "targetSelector": {
              "target": "MainTarget",
              "campFilter": "ActorOppoCamp"
            }
          },
          "actionGroups": [
            {
              "actions": [
                {
                  "$type": "DNFIJJGGFGK",
                  "targetSelector": {
                    "target": "ContextTarget"
                  },
                  "script": "Common_ShakeScreen_Test_E"
                },
                {
                  "$type": "IFFOEEHIMEJ",
                  "moveScript": "GcgMotion_Hit04_02",
                  "oppoMoveScript": "",
                  "sourceSelector": {
                    "target": "ContextTarget"
                  },
                  "targetSelector": {
                    "target": "Actor"
                  },
                  "resetCharPositionWhenFinish": true
                },
                {
                  "$type": "IAKIANGHNKN",
                  "targetSelector": {
                    "target": "Actor"
                  },
                  "isOpen": true
                },
                {
                  "$type": "KCODBGODGMA",
                  "behaviourName": "CommonBehaviour",
                  "triggerName": "OnBeingHit"
                },
                {
                  "$type": "IBOACHLDPJC",
                  "targetSelector": {
                    "target": "AllTarget",
                    "campFilter": "ActorSameCamp"
                  }
                }
              ]
            }
          ]
        },
        {
          "predict": {
            "$type": "DNGHGBJLEEP",
            "targetSelector": {
              "target": "AllTarget",
              "campFilter": "ActorSameCamp"
            }
          },
          "actionGroups": [
            {
              "actions": [
                {
                  "$type": "HEOJFBCFBAG",
                  "targetSelector": {
                    "target": "ContextTarget"
                  },
                  "effectName": "Eff_Gcg_Common_ElementalArt_Healing_Hit",
                  "followSpineName": "",
                  "followSpineBoneName": "",
                  "bornRotate": {
                    "$type": "IFLHJLBOPFG"
                  }
                }
              ]
            }
          ]
        }
      ]
    }
  ]
}