{
  "behaviours": [
    {
      "name": "Character_Hutao_Q_Normal",
      "GIJMNEJNECL": "",
      "onStart": [
        {
          "lastTime": 0.44999998807907104,
          "actionGroups": [
            {
              "actions": [
                {
                  "$type": "IAKIANGHNKN",
                  "targetSelector": {
                    "target": "Actor"
                  }
                },
                {
                  "$type": "HEOJFBCFBAG",
                  "targetSelector": {
                    "target": "Actor"
                  },
                  "effectName": "Eff_Gcg_Common_ElementalBurst_NormalCharge",
                  "followSpineName": "",
                  "followSpineBoneName": "",
                  "bornRotate": {
                    "$type": "IFLHJLBOPFG"
                  }
                }
              ]
            }
          ]
        },
        {
          "lastTime": 0.10000000149011612,
          "actionGroups": [
            {
              "actions": [
                {
                  "$type": "HEOJFBCFBAG",
                  "targetSelector": {
                    "target": "MainTarget",
                    "campFilter": "ActorOppoCamp"
                  },
                  "effectName": "Eff_Gcg_Avatar_Hutao_ElementalBurst_Hit",
                  "followSpineName": "",
                  "followSpineBoneName": "",
                  "bornRotate": {
                    "$type": "DPLNDBOHACP",
                    "targetSelector": {
                      "target": "Actor"
                    }
                  }
                }
              ]
            }
          ]
        },
        {
          "actionGroups": [
            {
              "actions": [
                {
                  "$type": "IBOACHLDPJC",
                  "targetSelector": {
                    "target": "MainTarget"
                  }
                }
              ]
            }
          ]
        }
      ],
      "onHitLanded": [
        {
          "actionGroups": [
            {
              "actions": [
                {
                  "$type": "DNFIJJGGFGK",
                  "targetSelector": {
                    "target": "MainTarget"
                  },
                  "script": "Common_ShakeScreen_Test_Q"
                }
              ]
            }
          ]
        },
        {
          "actionGroups": [
            {
              "actions": [
                {
                  "$type": "IAKIANGHNKN",
                  "targetSelector": {
                    "target": "Actor"
                  },
                  "isOpen": true
                }
              ]
            }
          ]
        },
        {
          "actionGroups": [
            {
              "actions": [
                {
                  "$type": "HEOJFBCFBAG",
                  "targetSelector": {
                    "target": "MainTarget",
                    "campFilter": "ActorSameCamp"
                  },
                  "effectName": "Eff_Gcg_Common_ElementalArt_Healing_Hit",
                  "followSpineName": "",
                  "followSpineBoneName": "",
                  "bornRotate": {
                    "$type": "DPLNDBOHACP",
                    "targetSelector": {
                      "target": "Actor"
                    }
                  }
                }
              ]
            }
          ]
        }
      ]
    },
    {
      "name": "Character_Hutao_Xuemeixiang",
      "GIJMNEJNECL": "",
      "onStart": [
        {
          "lastTime": 0.05000000074505806
        },
        {
          "actionGroups": [
            {
              "actions": [
                {
                  "$type": "IBOACHLDPJC",
                  "targetSelector": {
                    "target": "Actor"
                  }
                }
              ]
            }
          ]
        }
      ],
      "onHitLanded": [
        {
          "actionGroups": [
            {
              "actions": [
                {
                  "$type": "HEOJFBCFBAG",
                  "targetSelector": {
                    "target": "ContextTarget"
                  },
                  "effectName": "Eff_Gcg_Avatar_Hutao_ElementArt_Buff",
                  "followSpineName": "",
                  "followSpineBoneName": "",
                  "bornRotate": {
                    "$type": "IFLHJLBOPFG"
                  }
                }
              ]
            }
          ]
        },
        {
          "predict": {
            "$type": "JBHJGNJLGIH",
            "predicts": [
              {
                "$type": "NKGDPOBBHLJ",
                "skillIDList": [
                  101,
                  102,
                  103,
                  104,
                  105,
                  106,
                  107,
                  108,
                  109,
                  110,
                  111,
                  112,
                  113,
                  114,
                  115,
                  116,
                  117
                ]
              },
              {
                "$type": "DNGHGBJLEEP",
                "targetSelector": {
                  "target": "MainTarget",
                  "campFilter": "ActorSameCamp"
                }
              }
            ]
          },
          "actionGroups": [
            {
              "predict": {
                "$type": "NKGDPOBBHLJ",
                "skillIDList": [
                  101
                ]
              },
              "actions": [
                {
                  "$type": "HEOJFBCFBAG",
                  "targetSelector": {
                    "target": "ContextTarget"
                  },
                  "effectName": "Eff_Gcg_Common_Reaction_Melt",
                  "followSpineName": "",
                  "followSpineBoneName": "",
                  "bornRotate": {
                    "$type": "IFLHJLBOPFG"
                  }
                }
              ]
            },
            {
              "predict": {
                "$type": "NKGDPOBBHLJ",
                "skillIDList": [
                  102
                ]
              },
              "actions": [
                {
                  "$type": "HEOJFBCFBAG",
                  "targetSelector": {
                    "target": "ContextTarget"
                  },
                  "effectName": "Eff_Gcg_Common_Reaction_Steam",
                  "followSpineName": "",
                  "followSpineBoneName": "",
                  "bornRotate": {
                    "$type": "IFLHJLBOPFG"
                  }
                }
              ]
            },
            {
              "predict": {
                "$type": "NKGDPOBBHLJ",
                "skillIDList": [
                  103
                ]
              },
              "actions": [
                {
                  "$type": "HEOJFBCFBAG",
                  "targetSelector": {
                    "target": "ContextTarget"
                  },
                  "effectName": "Eff_Gcg_Common_Reaction_Overload",
                  "followSpineName": "",
                  "followSpineBoneName": "",
                  "bornRotate": {
                    "$type": "IFLHJLBOPFG"
                  }
                }
              ]
            },
            {
              "predict": {
                "$type": "NKGDPOBBHLJ",
                "skillIDList": [
                  104
                ]
              },
              "actions": [
                {
                  "$type": "HEOJFBCFBAG",
                  "targetSelector": {
                    "target": "ContextTarget"
                  },
                  "effectName": "Eff_Gcg_Common_Reaction_Superconductor",
                  "followSpineName": "",
                  "followSpineBoneName": "",
                  "bornRotate": {
                    "$type": "IFLHJLBOPFG"
                  }
                }
              ]
            },
            {
              "predict": {
                "$type": "NKGDPOBBHLJ",
                "skillIDList": [
                  105
                ]
              },
              "actions": [
                {
                  "$type": "HEOJFBCFBAG",
                  "targetSelector": {
                    "target": "ContextTarget"
                  },
                  "effectName": "Eff_Gcg_Common_Reaction_StickElectric",
                  "followSpineName": "",
                  "followSpineBoneName": "",
                  "bornRotate": {
                    "$type": "IFLHJLBOPFG"
                  }
                }
              ]
            },
            {
              "predict": {
                "$type": "NKGDPOBBHLJ",
                "skillIDList": [
                  1061
                ]
              },
              "actions": [
                {
                  "$type": "HEOJFBCFBAG",
                  "targetSelector": {
                    "target": "ContextTarget"
                  },
                  "effectName": "Eff_Gcg_Common_Reaction_BreakIce",
                  "followSpineName": "",
                  "followSpineBoneName": "",
                  "bornRotate": {
                    "$type": "IFLHJLBOPFG"
                  }
                }
              ]
            },
            {
              "predict": {
                "$type": "NKGDPOBBHLJ",
                "skillIDList": [
                  108
                ]
              },
              "actions": [
                {
                  "$type": "HEOJFBCFBAG",
                  "targetSelector": {
                    "target": "ContextTarget"
                  },
                  "effectName": "Eff_Gcg_Common_Reaction_Swirl_Water",
                  "followSpineName": "",
                  "followSpineBoneName": "",
                  "bornRotate": {
                    "$type": "IFLHJLBOPFG"
                  }
                }
              ]
            },
            {
              "predict": {
                "$type": "NKGDPOBBHLJ",
                "skillIDList": [
                  107
                ]
              },
              "actions": [
                {
                  "$type": "HEOJFBCFBAG",
                  "targetSelector": {
                    "target": "ContextTarget"
                  },
                  "effectName": "Eff_Gcg_Common_Reaction_Swirl_Ice",
                  "followSpineName": "",
                  "followSpineBoneName": "",
                  "bornRotate": {
                    "$type": "IFLHJLBOPFG"
                  }
                }
              ]
            },
            {
              "predict": {
                "$type": "NKGDPOBBHLJ",
                "skillIDList": [
                  109
                ]
              },
              "actions": [
                {
                  "$type": "HEOJFBCFBAG",
                  "targetSelector": {
                    "target": "ContextTarget"
                  },
                  "effectName": "Eff_Gcg_Common_Reaction_Swirl_Fire",
                  "followSpineName": "",
                  "followSpineBoneName": "",
                  "bornRotate": {
                    "$type": "IFLHJLBOPFG"
                  }
                }
              ]
            },
            {
              "predict": {
                "$type": "NKGDPOBBHLJ",
                "skillIDList": [
                  110
                ]
              },
              "actions": [
                {
                  "$type": "HEOJFBCFBAG",
                  "targetSelector": {
                    "target": "ContextTarget"
                  },
                  "effectName": "Eff_Gcg_Common_Reaction_Swirl_Electric",
                  "followSpineName": "",
                  "followSpineBoneName": "",
                  "bornRotate": {
                    "$type": "IFLHJLBOPFG"
                  }
                }
              ]
            },
            {
              "predict": {
                "$type": "NKGDPOBBHLJ",
                "skillIDList": [
                  111,
                  112,
                  113,
                  114
                ]
              },
              "actions": [
                {
                  "$type": "HEOJFBCFBAG",
                  "targetSelector": {
                    "target": "ContextTarget"
                  },
                  "effectName": "Eff_Gcg_Common_Reaction_Crystal",
                  "followSpineName": "",
                  "followSpineBoneName": "",
                  "bornRotate": {
                    "$type": "IFLHJLBOPFG"
                  }
                }
              ]
            },
            {
              "predict": {
                "$type": "NKGDPOBBHLJ",
                "skillIDList": [
                  115
                ]
              },
              "actions": [
                {
                  "$type": "HEOJFBCFBAG",
                  "targetSelector": {
                    "target": "ContextTarget"
                  },
                  "effectName": "Eff_Gcg_Common_Reaction_Burning_Grass",
                  "followSpineName": "",
                  "followSpineBoneName": "",
                  "bornRotate": {
                    "$type": "IFLHJLBOPFG"
                  }
                }
              ]
            },
            {
              "predict": {
                "$type": "NKGDPOBBHLJ",
                "skillIDList": [
                  116
                ]
              },
              "actions": [
                {
                  "$type": "HEOJFBCFBAG",
                  "targetSelector": {
                    "target": "ContextTarget"
                  },
                  "effectName": "Eff_Gcg_Common_Reaction_Overgrow",
                  "followSpineName": "",
                  "followSpineBoneName": "",
                  "bornRotate": {
                    "$type": "IFLHJLBOPFG"
                  }
                }
              ]
            },
            {
              "predict": {
                "$type": "NKGDPOBBHLJ",
                "skillIDList": [
                  117
                ]
              },
              "actions": [
                {
                  "$type": "HEOJFBCFBAG",
                  "targetSelector": {
                    "target": "ContextTarget"
                  },
                  "effectName": "Eff_Gcg_Common_Reaction_Overdose",
                  "followSpineName": "",
                  "followSpineBoneName": "",
                  "bornRotate": {
                    "$type": "IFLHJLBOPFG"
                  }
                }
              ]
            }
          ]
        }
      ]
    }
  ]
}