{
  "behaviours": [
    {
      "name": "Character_Dehya_Q_Normal",
      "GIJMNEJNECL": "",
      "onStart": [
        {
          "lastTime": 0.44999998807907104,
          "actionGroups": [
            {
              "actions": [
                {
                  "$type": "IAKIANGHNKN",
                  "targetSelector": {
                    "target": "Actor"
                  }
                },
                {
                  "$type": "HEOJFBCFBAG",
                  "targetSelector": {
                    "target": "Actor"
                  },
                  "effectName": "Eff_Gcg_Common_ElementalBurst_NormalCharge",
                  "followSpineName": "",
                  "followSpineBoneName": "",
                  "bornRotate": {
                    "$type": "IFLHJLBOPFG"
                  }
                }
              ]
            }
          ]
        },
        {
          "lastTime": 0.20000000298023224,
          "actionGroups": [
            {
              "actions": [
                {
                  "$type": "HEOJFBCFBAG",
                  "targetSelector": {
                    "target": "MainTarget"
                  },
                  "effectName": "Eff_Gcg_Avatar_Dehya_ElementalBurst_Hit",
                  "bornOffset": {
                    "y": 0.5
                  },
                  "followSpineName": "",
                  "followSpineBoneName": "",
                  "bornRotate": {
                    "$type": "DPLNDBOHACP",
                    "targetSelector": {
                      "target": "Actor"
                    }
                  },
                  "bornOppositeGestureAdjust": "HorizontalAxisFlip"
                }
              ]
            }
          ]
        },
        {
          "actionGroups": [
            {
              "actions": [
                {
                  "$type": "IBOACHLDPJC",
                  "targetSelector": {
                    "target": "MainTarget"
                  }
                },
                {
                  "$type": "DNFIJJGGFGK",
                  "targetSelector": {
                    "target": "MainTarget"
                  },
                  "script": "Common_ShakeScreen_Test_Q"
                }
              ]
            }
          ]
        },
        {
          "actionGroups": [
            {
              "actions": [
                {
                  "$type": "IAKIANGHNKN",
                  "targetSelector": {
                    "target": "Actor"
                  },
                  "isOpen": true
                }
              ]
            }
          ]
        }
      ]
    },
    {
      "name": "Character_E_Dehya",
      "GIJMNEJNECL": "",
      "onStart": [
        {
          "lastTime": 0.5,
          "actionGroups": [
            {
              "actions": [
                {
                  "$type": "IFFOEEHIMEJ",
                  "moveScript": "GcgMotion_Skill_A_Test_01",
                  "oppoMoveScript": "",
                  "sourceSelector": {
                    "target": "Actor"
                  },
                  "targetSelector": {
                    "target": "MainTarget",
                    "campFilter": "ActorOppoCamp",
                    "tokenFilter": [
                      "GCG_TOKEN_HP"
                    ]
                  },
                  "isAttack": true,
                  "targetDistOffsetRatio": 0.5,
                  "resetCharPositionWhenFinish": true
                },
                {
                  "$type": "IAKIANGHNKN",
                  "targetSelector": {
                    "target": "Actor"
                  },
                  "noSwitchSpineEffect": true
                },
                {
                  "$type": "KCODBGODGMA",
                  "behaviourName": "CommonBehaviour",
                  "triggerName": "OnAttack"
                },
                {
                  "$type": "ACBKBJPANAH",
                  "targetSelector": {
                    "target": "Actor"
                  },
                  "playImmediately": true,
                  "eventName": {
                    "text": "Play_sfx_GCG_common_normal_attack"
                  }
                }
              ]
            }
          ]
        }
      ],
      "onHitLanded": [
        {
          "actionGroups": [
            {
              "actions": [
                {
                  "$type": "DNFIJJGGFGK",
                  "targetSelector": {
                    "target": "ContextTarget"
                  },
                  "script": "Common_ShakeScreen_Test_E"
                },
                {
                  "$type": "IFFOEEHIMEJ",
                  "moveScript": "GcgMotion_Hit04_02",
                  "oppoMoveScript": "",
                  "sourceSelector": {
                    "target": "ContextTarget"
                  },
                  "targetSelector": {
                    "target": "Actor"
                  },
                  "resetCharPositionWhenFinish": true
                },
                {
                  "$type": "IAKIANGHNKN",
                  "targetSelector": {
                    "target": "Actor"
                  },
                  "isOpen": true,
                  "noSwitchSpineEffect": true
                },
                {
                  "$type": "HEOJFBCFBAG",
                  "targetSelector": {
                    "target": "MainTarget"
                  },
                  "effectName": "Eff_Gcg_Avatar_Dehya_ElementalBurst_Hit_02",
                  "bornOffset": {
                    "y": 0.5
                  },
                  "followSpineName": "",
                  "followSpineBoneName": "",
                  "bornRotate": {
                    "$type": "FKEAAMKHNNO"
                  }
                }
              ]
            }
          ]
        }
      ]
    }
  ]
}