{
  "behaviours": [
    {
      "name": "Character_Diluc_Q_Normal",
      "GIJMNEJNECL": "",
      "onStart": [
        {
          "lastTime": 0.44999998807907104,
          "actionGroups": [
            {
              "actions": [
                {
                  "$type": "IAKIANGHNKN",
                  "targetSelector": {
                    "target": "Actor"
                  }
                },
                {
                  "$type": "HEOJFBCFBAG",
                  "targetSelector": {
                    "target": "Actor"
                  },
                  "effectName": "Eff_Gcg_Common_ElementalBurst_NormalCharge",
                  "followSpineName": "",
                  "followSpineBoneName": "",
                  "bornRotate": {
                    "$type": "IFLHJLBOPFG"
                  }
                }
              ]
            }
          ]
        },
        {
          "actionGroups": [
            {
              "actions": [
                {
                  "$type": "GLOJIIONPAE",
                  "effectName": "Eff_Gcg_Avatar_Diluc_ElementalBurst",
                  "isLoopEffect": true,
                  "isAttack": true,
                  "bornTargetSelector": {
                    "target": "Actor"
                  },
                  "moveTargetSelector": {
                    "target": "MainTarget"
                  },
                  "bornRotate": {
                    "$type": "DPLNDBOHACP",
                    "targetSelector": {
                      "target": "MainTarget"
                    }
                  },
                  "bornOffset": {
                    "y": 1.149999976158142
                  },
                  "moveScript": "Eff_Gcg_Motion_Avatar_Diluc_ElementBurst",
                  "oppoMoveScript": "",
                  "events": [
                    {
                      "$type": "JFGKFNAPNAN",
                      "triggerPoint": "OnHit",
                      "name": "Die"
                    },
                    {
                      "$type": "EDJLKMJKMKC",
                      "triggerPoint": "OnHit",
                      "triggerTime": 3.0
                    }
                  ]
                },
                {
                  "$type": "IAKIANGHNKN",
                  "targetSelector": {
                    "target": "Actor"
                  }
                }
              ]
            }
          ]
        }
      ],
      "onHitLanded": [
        {
          "lastTime": 0.5,
          "actionGroups": [
            {
              "actions": [
                {
                  "$type": "HEOJFBCFBAG",
                  "targetSelector": {
                    "target": "ContextTarget"
                  },
                  "effectName": "Eff_Gcg_Avatar_Diluc_ElementalBurst_Hit",
                  "bornOffset": {
                    "y": 0.5
                  },
                  "followSpineName": "",
                  "followSpineBoneName": "",
                  "bornRotate": {
                    "$type": "DPLNDBOHACP",
                    "targetSelector": {
                      "target": "Actor"
                    }
                  }
                },
                {
                  "$type": "DNFIJJGGFGK",
                  "targetSelector": {
                    "target": "ContextTarget"
                  },
                  "script": "Common_ShakeScreen_Test_Q"
                },
                {
                  "$type": "IFFOEEHIMEJ",
                  "moveScript": "GcgMotion_Hit04_03",
                  "oppoMoveScript": "",
                  "sourceSelector": {
                    "target": "ContextTarget"
                  },
                  "targetSelector": {
                    "target": "Actor"
                  },
                  "resetCharPositionWhenFinish": true
                },
                {
                  "$type": "IAKIANGHNKN",
                  "targetSelector": {
                    "target": "Actor"
                  },
                  "isOpen": true
                }
              ]
            }
          ]
        },
        {
          "actionGroups": [
            {
              "actions": [
                {
                  "$type": "IAKIANGHNKN",
                  "targetSelector": {
                    "target": "Actor"
                  },
                  "isOpen": true
                }
              ]
            }
          ]
        }
      ]
    }
  ]
}