{
  "behaviours": [
    {
      "name": "Monster_Lasignora_Q_Normal",
      "GIJMNEJNECL": "",
      "onStart": [
        {
          "lastTime": 0.44999998807907104,
          "actionGroups": [
            {
              "actions": [
                {
                  "$type": "IAKIANGHNKN",
                  "targetSelector": {
                    "target": "Actor"
                  }
                },
                {
                  "$type": "HEOJFBCFBAG",
                  "targetSelector": {
                    "target": "Actor"
                  },
                  "effectName": "Eff_Gcg_Common_ElementalBurst_NormalCharge",
                  "followSpineName": "",
                  "followSpineBoneName": "",
                  "bornRotate": {
                    "$type": "IFLHJLBOPFG"
                  }
                }
              ]
            }
          ]
        },
        {
          "lastTime": 0.30000001192092896,
          "actionGroups": [
            {
              "actions": [
                {
                  "$type": "HEOJFBCFBAG",
                  "targetSelector": {
                    "target": "MainTarget",
                    "campFilter": "ActorOppoCamp"
                  },
                  "effectName": "Eff_Gcg_Monster_LaSignora_ElementalBurst_Hit",
                  "followSpineName": "",
                  "followSpineBoneName": "",
                  "bornRotate": {
                    "$type": "FKEAAMKHNNO"
                  },
                  "bornOppositeGestureAdjust": "HorizontalAxisFlip"
                }
              ]
            }
          ]
        },
        {
          "actionGroups": [
            {
              "actions": [
                {
                  "$type": "IBOACHLDPJC",
                  "targetSelector": {
                    "target": "MainTarget",
                    "campFilter": "ActorOppoCamp"
                  }
                },
                {
                  "$type": "DNFIJJGGFGK",
                  "targetSelector": {
                    "target": "MainTarget"
                  },
                  "script": "Common_ShakeScreen_Test_Q"
                }
              ]
            }
          ]
        },
        {
          "actionGroups": [
            {
              "actions": [
                {
                  "$type": "IBOACHLDPJC",
                  "targetSelector": {
                    "target": "MainTarget",
                    "campFilter": "ActorSameCamp"
                  }
                }
              ]
            }
          ]
        },
        {
          "actionGroups": [
            {
              "actions": [
                {
                  "$type": "IAKIANGHNKN",
                  "targetSelector": {
                    "target": "Actor"
                  },
                  "isOpen": true
                }
              ]
            }
          ]
        }
      ],
      "onHitLanded": [
        {
          "predict": {
            "$type": "DNGHGBJLEEP",
            "targetSelector": {
              "target": "MainTarget",
              "campFilter": "ActorSameCamp"
            }
          },
          "actionGroups": [
            {
              "actions": [
                {
                  "$type": "HEOJFBCFBAG",
                  "targetSelector": {
                    "target": "MainTarget",
                    "campFilter": "ActorSameCamp"
                  },
                  "effectName": "Eff_Gcg_Common_ElementalArt_Healing_Hit",
                  "followSpineName": "",
                  "followSpineBoneName": "",
                  "bornRotate": {
                    "$type": "DPLNDBOHACP",
                    "targetSelector": {
                      "target": "Actor"
                    }
                  }
                }
              ]
            }
          ]
        }
      ]
    },
    {
      "name": "Monster_Lasignoraice_Q_Normal",
      "mainTargetDamageShowDelayTimeOppo": 0.05000000074505806,
      "GIJMNEJNECL": "",
      "onStart": [
        {
          "lastTime": 0.44999998807907104,
          "actionGroups": [
            {
              "actions": [
                {
                  "$type": "IAKIANGHNKN",
                  "targetSelector": {
                    "target": "Actor"
                  }
                },
                {
                  "$type": "HEOJFBCFBAG",
                  "targetSelector": {
                    "target": "Actor"
                  },
                  "effectName": "Eff_Gcg_Common_ElementalBurst_NormalCharge",
                  "followSpineName": "",
                  "followSpineBoneName": "",
                  "bornRotate": {
                    "$type": "IFLHJLBOPFG"
                  }
                }
              ]
            }
          ]
        },
        {
          "lastTime": 0.8199999928474426,
          "actionGroups": [
            {
              "actions": [
                {
                  "$type": "GLOJIIONPAE",
                  "effectName": "Eff_Gcg_Monster_LaSignoraHarbinger_ElementalBurst",
                  "isLoopEffect": true,
                  "isAttack": true,
                  "bornTargetSelector": {
                    "target": "Actor"
                  },
                  "moveTargetSelector": {
                    "target": "MainTarget"
                  },
                  "bornRotate": {
                    "$type": "FKEAAMKHNNO"
                  },
                  "moveScript": "Eff_Gcg_Motion_Monster_LaSignoraHarbinger_ElementBurst",
                  "oppoMoveScript": "Eff_Gcg_Motion_Monster_LaSignoraHarbinger_ElementBurst_01",
                  "events": [
                    {
                      "$type": "EDJLKMJKMKC",
                      "triggerPoint": "OnHit",
                      "triggerTime": 0.10000000149011612
                    }
                  ]
                }
              ]
            }
          ]
        },
        {
          "actionGroups": [
            {
              "actions": [
                {
                  "$type": "IAKIANGHNKN",
                  "targetSelector": {
                    "target": "Actor"
                  },
                  "isOpen": true
                }
              ]
            }
          ]
        }
      ],
      "onHitLanded": [
        {
          "lastTime": 0.05000000074505806
        },
        {
          "actionGroups": [
            {
              "actions": [
                {
                  "$type": "HEOJFBCFBAG",
                  "targetSelector": {
                    "target": "MainTarget"
                  },
                  "effectName": "Eff_Gcg_Monster_LaSignoraHarbinger_ElementalBurst_Hit",
                  "followSpineName": "",
                  "followSpineBoneName": "",
                  "bornRotate": {
                    "$type": "FKEAAMKHNNO"
                  }
                }
              ]
            }
          ]
        },
        {
          "actionGroups": [
            {
              "actions": [
                {
                  "$type": "DNFIJJGGFGK",
                  "targetSelector": {
                    "target": "MainTarget"
                  },
                  "script": "Common_ShakeScreen_Test_Q"
                }
              ]
            }
          ]
        }
      ]
    },
    {
      "name": "Monster_Lasignoraice_Q_2",
      "mainTargetDamageShowDelayTimeOppo": 0.05000000074505806,
      "GIJMNEJNECL": "",
      "onStart": [
        {
          "lastTime": 0.8199999928474426,
          "actionGroups": [
            {
              "actions": [
                {
                  "$type": "GLOJIIONPAE",
                  "effectName": "Eff_Gcg_Monster_LaSignoraHarbinger_ElementalBurst",
                  "isLoopEffect": true,
                  "isAttack": true,
                  "bornTargetSelector": {
                    "target": "Actor"
                  },
                  "moveTargetSelector": {
                    "target": "MainTarget"
                  },
                  "bornRotate": {
                    "$type": "FKEAAMKHNNO"
                  },
                  "moveScript": "Eff_Gcg_Motion_Monster_LaSignoraHarbinger_ElementBurst",
                  "oppoMoveScript": "Eff_Gcg_Motion_Monster_LaSignoraHarbinger_ElementBurst_01",
                  "events": [
                    {
                      "$type": "EDJLKMJKMKC",
                      "triggerPoint": "OnHit",
                      "triggerTime": 0.10000000149011612
                    }
                  ]
                }
              ]
            }
          ]
        }
      ],
      "onHitLanded": [
        {
          "lastTime": 0.05000000074505806
        },
        {
          "actionGroups": [
            {
              "actions": [
                {
                  "$type": "HEOJFBCFBAG",
                  "targetSelector": {
                    "target": "MainTarget"
                  },
                  "effectName": "Eff_Gcg_Monster_LaSignoraHarbinger_ElementalBurst_Hit",
                  "followSpineName": "",
                  "followSpineBoneName": "",
                  "bornRotate": {
                    "$type": "FKEAAMKHNNO"
                  }
                }
              ]
            }
          ]
        },
        {
          "actionGroups": [
            {
              "actions": [
                {
                  "$type": "DNFIJJGGFGK",
                  "targetSelector": {
                    "target": "MainTarget"
                  },
                  "script": "Common_ShakeScreen_Test_Q"
                }
              ]
            }
          ]
        }
      ]
    }
  ]
}