{
  "behaviours": [
    {
      "name": "Character_Tartaglia01_Q_Normal",
      "GIJMNEJNECL": "",
      "onStart": [
        {
          "lastTime": 0.44999998807907104,
          "actionGroups": [
            {
              "actions": [
                {
                  "$type": "IAKIANGHNKN",
                  "targetSelector": {
                    "target": "Actor"
                  }
                },
                {
                  "$type": "HEOJFBCFBAG",
                  "targetSelector": {
                    "target": "Actor"
                  },
                  "effectName": "Eff_Gcg_Common_ElementalBurst_NormalCharge",
                  "followSpineName": "",
                  "followSpineBoneName": "",
                  "bornRotate": {
                    "$type": "IFLHJLBOPFG"
                  }
                }
              ]
            }
          ]
        },
        {
          "predict": {
            "$type": "GHEFAFCDCJA",
            "targetSelector": {
              "target": "Actor"
            },
            "configId": 112041
          },
          "lastTime": 0.5,
          "actionGroups": [
            {
              "actions": [
                {
                  "$type": "HEOJFBCFBAG",
                  "targetSelector": {
                    "target": "MainTarget"
                  },
                  "effectName": "Eff_Gcg_Avatar_Tartaglia_ElementalBurst_01_Hit",
                  "followSpineName": "",
                  "followSpineBoneName": "",
                  "bornRotate": {
                    "$type": "FKEAAMKHNNO"
                  },
                  "bornOppositeGestureAdjust": "HorizontalAxisFlip"
                }
              ]
            }
          ]
        },
        {
          "predict": {
            "$type": "GHEFAFCDCJA",
            "targetSelector": {
              "target": "Actor"
            },
            "configId": 112041
          },
          "actionGroups": [
            {
              "actions": [
                {
                  "$type": "IBOACHLDPJC",
                  "targetSelector": {
                    "target": "AllTarget"
                  }
                }
              ]
            }
          ]
        },
        {
          "predict": {
            "$type": "ODNKFAIFILK",
            "predict": {
              "$type": "GHEFAFCDCJA",
              "targetSelector": {
                "target": "Actor"
              },
              "configId": 112041
            }
          },
          "lastTime": 0.05000000074505806,
          "actionGroups": [
            {
              "actions": [
                {
                  "$type": "HEOJFBCFBAG",
                  "targetSelector": {
                    "target": "MainTarget"
                  },
                  "effectName": "Eff_Gcg_Avatar_Tartaglia_ElementalBurst_02_Hit",
                  "bornOffset": {
                    "y": 0.5
                  },
                  "followSpineName": "",
                  "followSpineBoneName": "",
                  "bornRotate": {
                    "$type": "DPLNDBOHACP",
                    "targetSelector": {
                      "target": "Actor"
                    }
                  }
                }
              ]
            }
          ]
        },
        {
          "predict": {
            "$type": "ODNKFAIFILK",
            "predict": {
              "$type": "GHEFAFCDCJA",
              "targetSelector": {
                "target": "Actor"
              },
              "configId": 112041
            }
          },
          "actionGroups": [
            {
              "actions": [
                {
                  "$type": "IBOACHLDPJC",
                  "targetSelector": {
                    "target": "AllTarget"
                  }
                }
              ]
            }
          ]
        }
      ],
      "onHitLanded": [
        {
          "actionGroups": [
            {
              "actions": [
                {
                  "$type": "DNFIJJGGFGK",
                  "targetSelector": {
                    "target": "MainTarget"
                  },
                  "script": "Common_ShakeScreen_Test_Q"
                }
              ]
            }
          ]
        },
        {
          "predict": {
            "$type": "DNGHGBJLEEP",
            "targetSelector": {
              "target": "SubTarget",
              "campFilter": "ActorOppoCamp"
            }
          },
          "actionGroups": [
            {
              "actions": [
                {
                  "$type": "HEOJFBCFBAG",
                  "targetSelector": {
                    "target": "ContextTarget"
                  },
                  "effectName": "Eff_Gcg_Common_ElementalArt_Water_Hit",
                  "followSpineName": "",
                  "followSpineBoneName": "",
                  "bornRotate": {
                    "$type": "IFLHJLBOPFG"
                  }
                }
              ]
            }
          ]
        },
        {
          "predict": {
            "$type": "JBHJGNJLGIH",
            "predicts": [
              {
                "$type": "NKGDPOBBHLJ",
                "skillIDList": [
                  101,
                  102,
                  103,
                  104,
                  105,
                  106,
                  107,
                  108,
                  109,
                  110,
                  111,
                  112,
                  113,
                  114,
                  115,
                  116,
                  117
                ]
              },
              {
                "$type": "DNGHGBJLEEP",
                "targetSelector": {
                  "target": "SubTarget",
                  "campFilter": "ActorOppoCamp"
                }
              }
            ]
          },
          "actionGroups": [
            {
              "predict": {
                "$type": "NKGDPOBBHLJ",
                "skillIDList": [
                  101
                ]
              },
              "actions": [
                {
                  "$type": "HEOJFBCFBAG",
                  "targetSelector": {
                    "target": "ContextTarget"
                  },
                  "effectName": "Eff_Gcg_Common_Reaction_Melt",
                  "followSpineName": "",
                  "followSpineBoneName": "",
                  "bornRotate": {
                    "$type": "IFLHJLBOPFG"
                  }
                }
              ]
            },
            {
              "predict": {
                "$type": "NKGDPOBBHLJ",
                "skillIDList": [
                  102
                ]
              },
              "actions": [
                {
                  "$type": "HEOJFBCFBAG",
                  "targetSelector": {
                    "target": "ContextTarget"
                  },
                  "effectName": "Eff_Gcg_Common_Reaction_Steam",
                  "followSpineName": "",
                  "followSpineBoneName": "",
                  "bornRotate": {
                    "$type": "IFLHJLBOPFG"
                  }
                }
              ]
            },
            {
              "predict": {
                "$type": "NKGDPOBBHLJ",
                "skillIDList": [
                  103
                ]
              },
              "actions": [
                {
                  "$type": "HEOJFBCFBAG",
                  "targetSelector": {
                    "target": "ContextTarget"
                  },
                  "effectName": "Eff_Gcg_Common_Reaction_Overload",
                  "followSpineName": "",
                  "followSpineBoneName": "",
                  "bornRotate": {
                    "$type": "IFLHJLBOPFG"
                  }
                }
              ]
            },
            {
              "predict": {
                "$type": "NKGDPOBBHLJ",
                "skillIDList": [
                  104
                ]
              },
              "actions": [
                {
                  "$type": "HEOJFBCFBAG",
                  "targetSelector": {
                    "target": "ContextTarget"
                  },
                  "effectName": "Eff_Gcg_Common_Reaction_Superconductor",
                  "followSpineName": "",
                  "followSpineBoneName": "",
                  "bornRotate": {
                    "$type": "IFLHJLBOPFG"
                  }
                }
              ]
            },
            {
              "predict": {
                "$type": "NKGDPOBBHLJ",
                "skillIDList": [
                  105
                ]
              },
              "actions": [
                {
                  "$type": "HEOJFBCFBAG",
                  "targetSelector": {
                    "target": "ContextTarget"
                  },
                  "effectName": "Eff_Gcg_Common_Reaction_StickElectric",
                  "followSpineName": "",
                  "followSpineBoneName": "",
                  "bornRotate": {
                    "$type": "IFLHJLBOPFG"
                  }
                }
              ]
            },
            {
              "predict": {
                "$type": "NKGDPOBBHLJ",
                "skillIDList": [
                  1061
                ]
              },
              "actions": [
                {
                  "$type": "HEOJFBCFBAG",
                  "targetSelector": {
                    "target": "ContextTarget"
                  },
                  "effectName": "Eff_Gcg_Common_Reaction_BreakIce",
                  "followSpineName": "",
                  "followSpineBoneName": "",
                  "bornRotate": {
                    "$type": "IFLHJLBOPFG"
                  }
                }
              ]
            },
            {
              "predict": {
                "$type": "NKGDPOBBHLJ",
                "skillIDList": [
                  108
                ]
              },
              "actions": [
                {
                  "$type": "HEOJFBCFBAG",
                  "targetSelector": {
                    "target": "ContextTarget"
                  },
                  "effectName": "Eff_Gcg_Common_Reaction_Swirl_Water",
                  "followSpineName": "",
                  "followSpineBoneName": "",
                  "bornRotate": {
                    "$type": "IFLHJLBOPFG"
                  }
                }
              ]
            },
            {
              "predict": {
                "$type": "NKGDPOBBHLJ",
                "skillIDList": [
                  107
                ]
              },
              "actions": [
                {
                  "$type": "HEOJFBCFBAG",
                  "targetSelector": {
                    "target": "ContextTarget"
                  },
                  "effectName": "Eff_Gcg_Common_Reaction_Swirl_Ice",
                  "followSpineName": "",
                  "followSpineBoneName": "",
                  "bornRotate": {
                    "$type": "IFLHJLBOPFG"
                  }
                }
              ]
            },
            {
              "predict": {
                "$type": "NKGDPOBBHLJ",
                "skillIDList": [
                  109
                ]
              },
              "actions": [
                {
                  "$type": "HEOJFBCFBAG",
                  "targetSelector": {
                    "target": "ContextTarget"
                  },
                  "effectName": "Eff_Gcg_Common_Reaction_Swirl_Fire",
                  "followSpineName": "",
                  "followSpineBoneName": "",
                  "bornRotate": {
                    "$type": "IFLHJLBOPFG"
                  }
                }
              ]
            },
            {
              "predict": {
                "$type": "NKGDPOBBHLJ",
                "skillIDList": [
                  110
                ]
              },
              "actions": [
                {
                  "$type": "HEOJFBCFBAG",
                  "targetSelector": {
                    "target": "ContextTarget"
                  },
                  "effectName": "Eff_Gcg_Common_Reaction_Swirl_Electric",
                  "followSpineName": "",
                  "followSpineBoneName": "",
                  "bornRotate": {
                    "$type": "IFLHJLBOPFG"
                  }
                }
              ]
            },
            {
              "predict": {
                "$type": "NKGDPOBBHLJ",
                "skillIDList": [
                  111,
                  112,
                  113,
                  114
                ]
              },
              "actions": [
                {
                  "$type": "HEOJFBCFBAG",
                  "targetSelector": {
                    "target": "ContextTarget"
                  },
                  "effectName": "Eff_Gcg_Common_Reaction_Crystal",
                  "followSpineName": "",
                  "followSpineBoneName": "",
                  "bornRotate": {
                    "$type": "IFLHJLBOPFG"
                  }
                }
              ]
            },
            {
              "predict": {
                "$type": "NKGDPOBBHLJ",
                "skillIDList": [
                  115
                ]
              },
              "actions": [
                {
                  "$type": "HEOJFBCFBAG",
                  "targetSelector": {
                    "target": "ContextTarget"
                  },
                  "effectName": "Eff_Gcg_Common_Reaction_Burning_Grass",
                  "followSpineName": "",
                  "followSpineBoneName": "",
                  "bornRotate": {
                    "$type": "IFLHJLBOPFG"
                  }
                }
              ]
            },
            {
              "predict": {
                "$type": "NKGDPOBBHLJ",
                "skillIDList": [
                  116
                ]
              },
              "actions": [
                {
                  "$type": "HEOJFBCFBAG",
                  "targetSelector": {
                    "target": "ContextTarget"
                  },
                  "effectName": "Eff_Gcg_Common_Reaction_Overgrow",
                  "followSpineName": "",
                  "followSpineBoneName": "",
                  "bornRotate": {
                    "$type": "IFLHJLBOPFG"
                  }
                }
              ]
            },
            {
              "predict": {
                "$type": "NKGDPOBBHLJ",
                "skillIDList": [
                  117
                ]
              },
              "actions": [
                {
                  "$type": "HEOJFBCFBAG",
                  "targetSelector": {
                    "target": "ContextTarget"
                  },
                  "effectName": "Eff_Gcg_Common_Reaction_Overdose",
                  "followSpineName": "",
                  "followSpineBoneName": "",
                  "bornRotate": {
                    "$type": "IFLHJLBOPFG"
                  }
                }
              ]
            }
          ]
        },
        {
          "actionGroups": [
            {
              "actions": [
                {
                  "$type": "IAKIANGHNKN",
                  "targetSelector": {
                    "target": "Actor"
                  },
                  "isOpen": true
                }
              ]
            }
          ]
        }
      ]
    },
    {
      "name": "Character_Tartaglia_E",
      "GIJMNEJNECL": "",
      "onStart": [
        {
          "lastTime": 0.7400000095367432,
          "actionGroups": [
            {
              "actions": [
                {
                  "$type": "IFFOEEHIMEJ",
                  "moveScript": "GcgMotion_Skill_A_Test_01",
                  "oppoMoveScript": "",
                  "sourceSelector": {
                    "target": "Actor"
                  },
                  "targetSelector": {
                    "target": "MainTarget",
                    "campFilter": "ActorOppoCamp",
                    "tokenFilter": [
                      "GCG_TOKEN_HP"
                    ]
                  },
                  "isAttack": true,
                  "targetDistOffsetRatio": 0.5,
                  "resetCharPositionWhenFinish": true
                },
                {
                  "$type": "IAKIANGHNKN",
                  "targetSelector": {
                    "target": "Actor"
                  },
                  "noSwitchSpineEffect": true
                },
                {
                  "$type": "KCODBGODGMA",
                  "behaviourName": "CommonBehaviour",
                  "triggerName": "OnAttack"
                },
                {
                  "$type": "ACBKBJPANAH",
                  "targetSelector": {
                    "target": "Actor"
                  },
                  "playImmediately": true,
                  "eventName": {
                    "text": "Play_sfx_GCG_common_normal_attack"
                  }
                }
              ]
            }
          ]
        },
        {
          "actionGroups": [
            {
              "actions": [
                {
                  "$type": "IBOACHLDPJC",
                  "targetSelector": {
                    "target": "SubTarget"
                  }
                }
              ]
            }
          ]
        }
      ],
      "onHitLanded": [
        {
          "predict": {
            "$type": "DNGHGBJLEEP",
            "targetSelector": {
              "target": "MainTarget",
              "campFilter": "ActorOppoCamp"
            }
          },
          "actionGroups": [
            {
              "actions": [
                {
                  "$type": "DNFIJJGGFGK",
                  "targetSelector": {
                    "target": "ContextTarget"
                  },
                  "script": "Common_ShakeScreen_Test_E"
                },
                {
                  "$type": "IFFOEEHIMEJ",
                  "moveScript": "GcgMotion_Hit04_02",
                  "oppoMoveScript": "",
                  "sourceSelector": {
                    "target": "ContextTarget"
                  },
                  "targetSelector": {
                    "target": "Actor"
                  },
                  "resetCharPositionWhenFinish": true
                },
                {
                  "$type": "IAKIANGHNKN",
                  "targetSelector": {
                    "target": "Actor"
                  },
                  "isOpen": true,
                  "noSwitchSpineEffect": true
                },
                {
                  "$type": "KCODBGODGMA",
                  "behaviourName": "CommonBehaviour",
                  "triggerName": "OnBeingHit"
                }
              ]
            }
          ]
        },
        {
          "predict": {
            "$type": "DNGHGBJLEEP",
            "targetSelector": {
              "target": "SubTarget",
              "campFilter": "ActorOppoCamp"
            }
          },
          "actionGroups": [
            {
              "actions": [
                {
                  "$type": "HEOJFBCFBAG",
                  "targetSelector": {
                    "target": "ContextTarget"
                  },
                  "effectName": "Eff_Gcg_Common_ElementalArt_Water_Hit",
                  "followSpineName": "",
                  "followSpineBoneName": "",
                  "bornRotate": {
                    "$type": "IFLHJLBOPFG"
                  }
                }
              ]
            }
          ]
        },
        {
          "predict": {
            "$type": "JBHJGNJLGIH",
            "predicts": [
              {
                "$type": "NKGDPOBBHLJ",
                "skillIDList": [
                  101,
                  102,
                  103,
                  104,
                  105,
                  106,
                  107,
                  108,
                  109,
                  110,
                  111,
                  112,
                  113,
                  114,
                  115,
                  116,
                  117
                ]
              },
              {
                "$type": "DNGHGBJLEEP",
                "targetSelector": {
                  "target": "SubTarget",
                  "campFilter": "ActorOppoCamp"
                }
              }
            ]
          },
          "actionGroups": [
            {
              "predict": {
                "$type": "NKGDPOBBHLJ",
                "skillIDList": [
                  101
                ]
              },
              "actions": [
                {
                  "$type": "HEOJFBCFBAG",
                  "targetSelector": {
                    "target": "ContextTarget"
                  },
                  "effectName": "Eff_Gcg_Common_Reaction_Melt",
                  "followSpineName": "",
                  "followSpineBoneName": "",
                  "bornRotate": {
                    "$type": "IFLHJLBOPFG"
                  }
                }
              ]
            },
            {
              "predict": {
                "$type": "NKGDPOBBHLJ",
                "skillIDList": [
                  102
                ]
              },
              "actions": [
                {
                  "$type": "HEOJFBCFBAG",
                  "targetSelector": {
                    "target": "ContextTarget"
                  },
                  "effectName": "Eff_Gcg_Common_Reaction_Steam",
                  "followSpineName": "",
                  "followSpineBoneName": "",
                  "bornRotate": {
                    "$type": "IFLHJLBOPFG"
                  }
                }
              ]
            },
            {
              "predict": {
                "$type": "NKGDPOBBHLJ",
                "skillIDList": [
                  103
                ]
              },
              "actions": [
                {
                  "$type": "HEOJFBCFBAG",
                  "targetSelector": {
                    "target": "ContextTarget"
                  },
                  "effectName": "Eff_Gcg_Common_Reaction_Overload",
                  "followSpineName": "",
                  "followSpineBoneName": "",
                  "bornRotate": {
                    "$type": "IFLHJLBOPFG"
                  }
                }
              ]
            },
            {
              "predict": {
                "$type": "NKGDPOBBHLJ",
                "skillIDList": [
                  104
                ]
              },
              "actions": [
                {
                  "$type": "HEOJFBCFBAG",
                  "targetSelector": {
                    "target": "ContextTarget"
                  },
                  "effectName": "Eff_Gcg_Common_Reaction_Superconductor",
                  "followSpineName": "",
                  "followSpineBoneName": "",
                  "bornRotate": {
                    "$type": "IFLHJLBOPFG"
                  }
                }
              ]
            },
            {
              "predict": {
                "$type": "NKGDPOBBHLJ",
                "skillIDList": [
                  105
                ]
              },
              "actions": [
                {
                  "$type": "HEOJFBCFBAG",
                  "targetSelector": {
                    "target": "ContextTarget"
                  },
                  "effectName": "Eff_Gcg_Common_Reaction_StickElectric",
                  "followSpineName": "",
                  "followSpineBoneName": "",
                  "bornRotate": {
                    "$type": "IFLHJLBOPFG"
                  }
                }
              ]
            },
            {
              "predict": {
                "$type": "NKGDPOBBHLJ",
                "skillIDList": [
                  1061
                ]
              },
              "actions": [
                {
                  "$type": "HEOJFBCFBAG",
                  "targetSelector": {
                    "target": "ContextTarget"
                  },
                  "effectName": "Eff_Gcg_Common_Reaction_BreakIce",
                  "followSpineName": "",
                  "followSpineBoneName": "",
                  "bornRotate": {
                    "$type": "IFLHJLBOPFG"
                  }
                }
              ]
            },
            {
              "predict": {
                "$type": "NKGDPOBBHLJ",
                "skillIDList": [
                  108
                ]
              },
              "actions": [
                {
                  "$type": "HEOJFBCFBAG",
                  "targetSelector": {
                    "target": "ContextTarget"
                  },
                  "effectName": "Eff_Gcg_Common_Reaction_Swirl_Water",
                  "followSpineName": "",
                  "followSpineBoneName": "",
                  "bornRotate": {
                    "$type": "IFLHJLBOPFG"
                  }
                }
              ]
            },
            {
              "predict": {
                "$type": "NKGDPOBBHLJ",
                "skillIDList": [
                  107
                ]
              },
              "actions": [
                {
                  "$type": "HEOJFBCFBAG",
                  "targetSelector": {
                    "target": "ContextTarget"
                  },
                  "effectName": "Eff_Gcg_Common_Reaction_Swirl_Ice",
                  "followSpineName": "",
                  "followSpineBoneName": "",
                  "bornRotate": {
                    "$type": "IFLHJLBOPFG"
                  }
                }
              ]
            },
            {
              "predict": {
                "$type": "NKGDPOBBHLJ",
                "skillIDList": [
                  109
                ]
              },
              "actions": [
                {
                  "$type": "HEOJFBCFBAG",
                  "targetSelector": {
                    "target": "ContextTarget"
                  },
                  "effectName": "Eff_Gcg_Common_Reaction_Swirl_Fire",
                  "followSpineName": "",
                  "followSpineBoneName": "",
                  "bornRotate": {
                    "$type": "IFLHJLBOPFG"
                  }
                }
              ]
            },
            {
              "predict": {
                "$type": "NKGDPOBBHLJ",
                "skillIDList": [
                  110
                ]
              },
              "actions": [
                {
                  "$type": "HEOJFBCFBAG",
                  "targetSelector": {
                    "target": "ContextTarget"
                  },
                  "effectName": "Eff_Gcg_Common_Reaction_Swirl_Electric",
                  "followSpineName": "",
                  "followSpineBoneName": "",
                  "bornRotate": {
                    "$type": "IFLHJLBOPFG"
                  }
                }
              ]
            },
            {
              "predict": {
                "$type": "NKGDPOBBHLJ",
                "skillIDList": [
                  111,
                  112,
                  113,
                  114
                ]
              },
              "actions": [
                {
                  "$type": "HEOJFBCFBAG",
                  "targetSelector": {
                    "target": "ContextTarget"
                  },
                  "effectName": "Eff_Gcg_Common_Reaction_Crystal",
                  "followSpineName": "",
                  "followSpineBoneName": "",
                  "bornRotate": {
                    "$type": "IFLHJLBOPFG"
                  }
                }
              ]
            },
            {
              "predict": {
                "$type": "NKGDPOBBHLJ",
                "skillIDList": [
                  115
                ]
              },
              "actions": [
                {
                  "$type": "HEOJFBCFBAG",
                  "targetSelector": {
                    "target": "ContextTarget"
                  },
                  "effectName": "Eff_Gcg_Common_Reaction_Burning_Grass",
                  "followSpineName": "",
                  "followSpineBoneName": "",
                  "bornRotate": {
                    "$type": "IFLHJLBOPFG"
                  }
                }
              ]
            },
            {
              "predict": {
                "$type": "NKGDPOBBHLJ",
                "skillIDList": [
                  116
                ]
              },
              "actions": [
                {
                  "$type": "HEOJFBCFBAG",
                  "targetSelector": {
                    "target": "ContextTarget"
                  },
                  "effectName": "Eff_Gcg_Common_Reaction_Overgrow",
                  "followSpineName": "",
                  "followSpineBoneName": "",
                  "bornRotate": {
                    "$type": "IFLHJLBOPFG"
                  }
                }
              ]
            },
            {
              "predict": {
                "$type": "NKGDPOBBHLJ",
                "skillIDList": [
                  117
                ]
              },
              "actions": [
                {
                  "$type": "HEOJFBCFBAG",
                  "targetSelector": {
                    "target": "ContextTarget"
                  },
                  "effectName": "Eff_Gcg_Common_Reaction_Overdose",
                  "followSpineName": "",
                  "followSpineBoneName": "",
                  "bornRotate": {
                    "$type": "IFLHJLBOPFG"
                  }
                }
              ]
            }
          ]
        }
      ]
    },
    {
      "name": "Character_Tartaglia_A",
      "GIJMNEJNECL": "",
      "onStart": [
        {
          "lastTime": 0.5,
          "actionGroups": [
            {
              "actions": [
                {
                  "$type": "IFFOEEHIMEJ",
                  "moveScript": "GcgMotion_Skill_A_Test_01",
                  "oppoMoveScript": "",
                  "sourceSelector": {
                    "target": "Actor"
                  },
                  "targetSelector": {
                    "target": "MainTarget",
                    "campFilter": "ActorOppoCamp",
                    "tokenFilter": [
                      "GCG_TOKEN_HP"
                    ]
                  },
                  "isAttack": true,
                  "targetDistOffsetRatio": 0.5,
                  "resetCharPositionWhenFinish": true
                },
                {
                  "$type": "IAKIANGHNKN",
                  "targetSelector": {
                    "target": "Actor"
                  },
                  "noSwitchSpineEffect": true
                },
                {
                  "$type": "KCODBGODGMA",
                  "behaviourName": "CommonBehaviour",
                  "triggerName": "OnAttack"
                },
                {
                  "$type": "ACBKBJPANAH",
                  "targetSelector": {
                    "target": "Actor"
                  },
                  "playImmediately": true,
                  "eventName": {
                    "text": "Play_sfx_GCG_common_normal_attack"
                  }
                }
              ]
            }
          ]
        },
        {
          "lastTime": 0.23999999463558197,
          "actionGroups": [
            {
              "actions": [
                {
                  "$type": "KKPLFKDFGPK",
                  "voiceTriggerID": 1000000
                }
              ]
            }
          ]
        },
        {
          "actionGroups": [
            {
              "actions": [
                {
                  "$type": "IBOACHLDPJC",
                  "targetSelector": {
                    "target": "SubTarget"
                  }
                }
              ]
            }
          ]
        }
      ],
      "onHitLanded": [
        {
          "predict": {
            "$type": "DNGHGBJLEEP",
            "targetSelector": {
              "target": "MainTarget",
              "campFilter": "ActorOppoCamp"
            }
          },
          "actionGroups": [
            {
              "actions": [
                {
                  "$type": "DNFIJJGGFGK",
                  "targetSelector": {
                    "target": "ContextTarget"
                  },
                  "script": "Common_ShakeScreen_Test_A"
                },
                {
                  "$type": "IFFOEEHIMEJ",
                  "moveScript": "GcgMotion_Hit04_01",
                  "oppoMoveScript": "",
                  "sourceSelector": {
                    "target": "ContextTarget"
                  },
                  "targetSelector": {
                    "target": "Actor"
                  },
                  "resetCharPositionWhenFinish": true
                },
                {
                  "$type": "IAKIANGHNKN",
                  "targetSelector": {
                    "target": "Actor"
                  },
                  "isOpen": true,
                  "noSwitchSpineEffect": true
                },
                {
                  "$type": "KCODBGODGMA",
                  "behaviourName": "CommonBehaviour",
                  "triggerName": "OnBeingHit"
                }
              ]
            }
          ]
        },
        {
          "predict": {
            "$type": "DNGHGBJLEEP",
            "targetSelector": {
              "target": "SubTarget",
              "campFilter": "ActorOppoCamp"
            }
          },
          "actionGroups": [
            {
              "actions": [
                {
                  "$type": "HEOJFBCFBAG",
                  "targetSelector": {
                    "target": "ContextTarget"
                  },
                  "effectName": "Eff_Gcg_Common_ElementalArt_Water_Hit",
                  "followSpineName": "",
                  "followSpineBoneName": "",
                  "bornRotate": {
                    "$type": "IFLHJLBOPFG"
                  }
                }
              ]
            }
          ]
        },
        {
          "predict": {
            "$type": "JBHJGNJLGIH",
            "predicts": [
              {
                "$type": "NKGDPOBBHLJ",
                "skillIDList": [
                  101,
                  102,
                  103,
                  104,
                  105,
                  106,
                  107,
                  108,
                  109,
                  110,
                  111,
                  112,
                  113,
                  114,
                  115,
                  116,
                  117
                ]
              },
              {
                "$type": "DNGHGBJLEEP",
                "targetSelector": {
                  "target": "SubTarget",
                  "campFilter": "ActorOppoCamp"
                }
              }
            ]
          },
          "actionGroups": [
            {
              "predict": {
                "$type": "NKGDPOBBHLJ",
                "skillIDList": [
                  101
                ]
              },
              "actions": [
                {
                  "$type": "HEOJFBCFBAG",
                  "targetSelector": {
                    "target": "ContextTarget"
                  },
                  "effectName": "Eff_Gcg_Common_Reaction_Melt",
                  "followSpineName": "",
                  "followSpineBoneName": "",
                  "bornRotate": {
                    "$type": "IFLHJLBOPFG"
                  }
                }
              ]
            },
            {
              "predict": {
                "$type": "NKGDPOBBHLJ",
                "skillIDList": [
                  102
                ]
              },
              "actions": [
                {
                  "$type": "HEOJFBCFBAG",
                  "targetSelector": {
                    "target": "ContextTarget"
                  },
                  "effectName": "Eff_Gcg_Common_Reaction_Steam",
                  "followSpineName": "",
                  "followSpineBoneName": "",
                  "bornRotate": {
                    "$type": "IFLHJLBOPFG"
                  }
                }
              ]
            },
            {
              "predict": {
                "$type": "NKGDPOBBHLJ",
                "skillIDList": [
                  103
                ]
              },
              "actions": [
                {
                  "$type": "HEOJFBCFBAG",
                  "targetSelector": {
                    "target": "ContextTarget"
                  },
                  "effectName": "Eff_Gcg_Common_Reaction_Overload",
                  "followSpineName": "",
                  "followSpineBoneName": "",
                  "bornRotate": {
                    "$type": "IFLHJLBOPFG"
                  }
                }
              ]
            },
            {
              "predict": {
                "$type": "NKGDPOBBHLJ",
                "skillIDList": [
                  104
                ]
              },
              "actions": [
                {
                  "$type": "HEOJFBCFBAG",
                  "targetSelector": {
                    "target": "ContextTarget"
                  },
                  "effectName": "Eff_Gcg_Common_Reaction_Superconductor",
                  "followSpineName": "",
                  "followSpineBoneName": "",
                  "bornRotate": {
                    "$type": "IFLHJLBOPFG"
                  }
                }
              ]
            },
            {
              "predict": {
                "$type": "NKGDPOBBHLJ",
                "skillIDList": [
                  105
                ]
              },
              "actions": [
                {
                  "$type": "HEOJFBCFBAG",
                  "targetSelector": {
                    "target": "ContextTarget"
                  },
                  "effectName": "Eff_Gcg_Common_Reaction_StickElectric",
                  "followSpineName": "",
                  "followSpineBoneName": "",
                  "bornRotate": {
                    "$type": "IFLHJLBOPFG"
                  }
                }
              ]
            },
            {
              "predict": {
                "$type": "NKGDPOBBHLJ",
                "skillIDList": [
                  1061
                ]
              },
              "actions": [
                {
                  "$type": "HEOJFBCFBAG",
                  "targetSelector": {
                    "target": "ContextTarget"
                  },
                  "effectName": "Eff_Gcg_Common_Reaction_BreakIce",
                  "followSpineName": "",
                  "followSpineBoneName": "",
                  "bornRotate": {
                    "$type": "IFLHJLBOPFG"
                  }
                }
              ]
            },
            {
              "predict": {
                "$type": "NKGDPOBBHLJ",
                "skillIDList": [
                  108
                ]
              },
              "actions": [
                {
                  "$type": "HEOJFBCFBAG",
                  "targetSelector": {
                    "target": "ContextTarget"
                  },
                  "effectName": "Eff_Gcg_Common_Reaction_Swirl_Water",
                  "followSpineName": "",
                  "followSpineBoneName": "",
                  "bornRotate": {
                    "$type": "IFLHJLBOPFG"
                  }
                }
              ]
            },
            {
              "predict": {
                "$type": "NKGDPOBBHLJ",
                "skillIDList": [
                  107
                ]
              },
              "actions": [
                {
                  "$type": "HEOJFBCFBAG",
                  "targetSelector": {
                    "target": "ContextTarget"
                  },
                  "effectName": "Eff_Gcg_Common_Reaction_Swirl_Ice",
                  "followSpineName": "",
                  "followSpineBoneName": "",
                  "bornRotate": {
                    "$type": "IFLHJLBOPFG"
                  }
                }
              ]
            },
            {
              "predict": {
                "$type": "NKGDPOBBHLJ",
                "skillIDList": [
                  109
                ]
              },
              "actions": [
                {
                  "$type": "HEOJFBCFBAG",
                  "targetSelector": {
                    "target": "ContextTarget"
                  },
                  "effectName": "Eff_Gcg_Common_Reaction_Swirl_Fire",
                  "followSpineName": "",
                  "followSpineBoneName": "",
                  "bornRotate": {
                    "$type": "IFLHJLBOPFG"
                  }
                }
              ]
            },
            {
              "predict": {
                "$type": "NKGDPOBBHLJ",
                "skillIDList": [
                  110
                ]
              },
              "actions": [
                {
                  "$type": "HEOJFBCFBAG",
                  "targetSelector": {
                    "target": "ContextTarget"
                  },
                  "effectName": "Eff_Gcg_Common_Reaction_Swirl_Electric",
                  "followSpineName": "",
                  "followSpineBoneName": "",
                  "bornRotate": {
                    "$type": "IFLHJLBOPFG"
                  }
                }
              ]
            },
            {
              "predict": {
                "$type": "NKGDPOBBHLJ",
                "skillIDList": [
                  111,
                  112,
                  113,
                  114
                ]
              },
              "actions": [
                {
                  "$type": "HEOJFBCFBAG",
                  "targetSelector": {
                    "target": "ContextTarget"
                  },
                  "effectName": "Eff_Gcg_Common_Reaction_Crystal",
                  "followSpineName": "",
                  "followSpineBoneName": "",
                  "bornRotate": {
                    "$type": "IFLHJLBOPFG"
                  }
                }
              ]
            },
            {
              "predict": {
                "$type": "NKGDPOBBHLJ",
                "skillIDList": [
                  115
                ]
              },
              "actions": [
                {
                  "$type": "HEOJFBCFBAG",
                  "targetSelector": {
                    "target": "ContextTarget"
                  },
                  "effectName": "Eff_Gcg_Common_Reaction_Burning_Grass",
                  "followSpineName": "",
                  "followSpineBoneName": "",
                  "bornRotate": {
                    "$type": "IFLHJLBOPFG"
                  }
                }
              ]
            },
            {
              "predict": {
                "$type": "NKGDPOBBHLJ",
                "skillIDList": [
                  116
                ]
              },
              "actions": [
                {
                  "$type": "HEOJFBCFBAG",
                  "targetSelector": {
                    "target": "ContextTarget"
                  },
                  "effectName": "Eff_Gcg_Common_Reaction_Overgrow",
                  "followSpineName": "",
                  "followSpineBoneName": "",
                  "bornRotate": {
                    "$type": "IFLHJLBOPFG"
                  }
                }
              ]
            },
            {
              "predict": {
                "$type": "NKGDPOBBHLJ",
                "skillIDList": [
                  117
                ]
              },
              "actions": [
                {
                  "$type": "HEOJFBCFBAG",
                  "targetSelector": {
                    "target": "ContextTarget"
                  },
                  "effectName": "Eff_Gcg_Common_Reaction_Overdose",
                  "followSpineName": "",
                  "followSpineBoneName": "",
                  "bornRotate": {
                    "$type": "IFLHJLBOPFG"
                  }
                }
              ]
            }
          ]
        }
      ]
    },
    {
      "name": "Character_Tartaglia_Duanliu",
      "GIJMNEJNECL": "",
      "onStart": [
        {
          "lastTime": 0.05000000074505806
        },
        {
          "actionGroups": [
            {
              "actions": [
                {
                  "$type": "IBOACHLDPJC",
                  "targetSelector": {
                    "target": "Actor"
                  }
                }
              ]
            }
          ]
        }
      ],
      "onHitLanded": [
        {
          "actionGroups": [
            {
              "actions": [
                {
                  "$type": "HEOJFBCFBAG",
                  "targetSelector": {
                    "target": "ContextTarget"
                  },
                  "effectName": "Eff_Gcg_Common_ElementalArt_Water_Hit",
                  "bornOffset": {
                    "y": 0.5
                  },
                  "followSpineName": "",
                  "followSpineBoneName": "",
                  "bornRotate": {
                    "$type": "IFLHJLBOPFG"
                  }
                },
                {
                  "$type": "ACBKBJPANAH",
                  "targetSelector": {
                    "target": "ContextTarget"
                  },
                  "playImmediately": true,
                  "eventName": {
                    "text": "Play_vfx_GCG_common_gadget_water_hit"
                  }
                }
              ]
            }
          ]
        },
        {
          "predict": {
            "$type": "JBHJGNJLGIH",
            "predicts": [
              {
                "$type": "NKGDPOBBHLJ",
                "skillIDList": [
                  101,
                  102,
                  103,
                  104,
                  105,
                  106,
                  107,
                  108,
                  109,
                  110,
                  111,
                  112,
                  113,
                  114,
                  115,
                  116,
                  117
                ]
              },
              {
                "$type": "DNGHGBJLEEP",
                "targetSelector": {
                  "target": "MainTarget",
                  "campFilter": "ActorSameCamp"
                }
              }
            ]
          },
          "actionGroups": [
            {
              "predict": {
                "$type": "NKGDPOBBHLJ",
                "skillIDList": [
                  101
                ]
              },
              "actions": [
                {
                  "$type": "HEOJFBCFBAG",
                  "targetSelector": {
                    "target": "ContextTarget"
                  },
                  "effectName": "Eff_Gcg_Common_Reaction_Melt",
                  "followSpineName": "",
                  "followSpineBoneName": "",
                  "bornRotate": {
                    "$type": "IFLHJLBOPFG"
                  }
                }
              ]
            },
            {
              "predict": {
                "$type": "NKGDPOBBHLJ",
                "skillIDList": [
                  102
                ]
              },
              "actions": [
                {
                  "$type": "HEOJFBCFBAG",
                  "targetSelector": {
                    "target": "ContextTarget"
                  },
                  "effectName": "Eff_Gcg_Common_Reaction_Steam",
                  "followSpineName": "",
                  "followSpineBoneName": "",
                  "bornRotate": {
                    "$type": "IFLHJLBOPFG"
                  }
                }
              ]
            },
            {
              "predict": {
                "$type": "NKGDPOBBHLJ",
                "skillIDList": [
                  103
                ]
              },
              "actions": [
                {
                  "$type": "HEOJFBCFBAG",
                  "targetSelector": {
                    "target": "ContextTarget"
                  },
                  "effectName": "Eff_Gcg_Common_Reaction_Overload",
                  "followSpineName": "",
                  "followSpineBoneName": "",
                  "bornRotate": {
                    "$type": "IFLHJLBOPFG"
                  }
                }
              ]
            },
            {
              "predict": {
                "$type": "NKGDPOBBHLJ",
                "skillIDList": [
                  104
                ]
              },
              "actions": [
                {
                  "$type": "HEOJFBCFBAG",
                  "targetSelector": {
                    "target": "ContextTarget"
                  },
                  "effectName": "Eff_Gcg_Common_Reaction_Superconductor",
                  "followSpineName": "",
                  "followSpineBoneName": "",
                  "bornRotate": {
                    "$type": "IFLHJLBOPFG"
                  }
                }
              ]
            },
            {
              "predict": {
                "$type": "NKGDPOBBHLJ",
                "skillIDList": [
                  105
                ]
              },
              "actions": [
                {
                  "$type": "HEOJFBCFBAG",
                  "targetSelector": {
                    "target": "ContextTarget"
                  },
                  "effectName": "Eff_Gcg_Common_Reaction_StickElectric",
                  "followSpineName": "",
                  "followSpineBoneName": "",
                  "bornRotate": {
                    "$type": "IFLHJLBOPFG"
                  }
                }
              ]
            },
            {
              "predict": {
                "$type": "NKGDPOBBHLJ",
                "skillIDList": [
                  1061
                ]
              },
              "actions": [
                {
                  "$type": "HEOJFBCFBAG",
                  "targetSelector": {
                    "target": "ContextTarget"
                  },
                  "effectName": "Eff_Gcg_Common_Reaction_BreakIce",
                  "followSpineName": "",
                  "followSpineBoneName": "",
                  "bornRotate": {
                    "$type": "IFLHJLBOPFG"
                  }
                }
              ]
            },
            {
              "predict": {
                "$type": "NKGDPOBBHLJ",
                "skillIDList": [
                  108
                ]
              },
              "actions": [
                {
                  "$type": "HEOJFBCFBAG",
                  "targetSelector": {
                    "target": "ContextTarget"
                  },
                  "effectName": "Eff_Gcg_Common_Reaction_Swirl_Water",
                  "followSpineName": "",
                  "followSpineBoneName": "",
                  "bornRotate": {
                    "$type": "IFLHJLBOPFG"
                  }
                }
              ]
            },
            {
              "predict": {
                "$type": "NKGDPOBBHLJ",
                "skillIDList": [
                  107
                ]
              },
              "actions": [
                {
                  "$type": "HEOJFBCFBAG",
                  "targetSelector": {
                    "target": "ContextTarget"
                  },
                  "effectName": "Eff_Gcg_Common_Reaction_Swirl_Ice",
                  "followSpineName": "",
                  "followSpineBoneName": "",
                  "bornRotate": {
                    "$type": "IFLHJLBOPFG"
                  }
                }
              ]
            },
            {
              "predict": {
                "$type": "NKGDPOBBHLJ",
                "skillIDList": [
                  109
                ]
              },
              "actions": [
                {
                  "$type": "HEOJFBCFBAG",
                  "targetSelector": {
                    "target": "ContextTarget"
                  },
                  "effectName": "Eff_Gcg_Common_Reaction_Swirl_Fire",
                  "followSpineName": "",
                  "followSpineBoneName": "",
                  "bornRotate": {
                    "$type": "IFLHJLBOPFG"
                  }
                }
              ]
            },
            {
              "predict": {
                "$type": "NKGDPOBBHLJ",
                "skillIDList": [
                  110
                ]
              },
              "actions": [
                {
                  "$type": "HEOJFBCFBAG",
                  "targetSelector": {
                    "target": "ContextTarget"
                  },
                  "effectName": "Eff_Gcg_Common_Reaction_Swirl_Electric",
                  "followSpineName": "",
                  "followSpineBoneName": "",
                  "bornRotate": {
                    "$type": "IFLHJLBOPFG"
                  }
                }
              ]
            },
            {
              "predict": {
                "$type": "NKGDPOBBHLJ",
                "skillIDList": [
                  111,
                  112,
                  113,
                  114
                ]
              },
              "actions": [
                {
                  "$type": "HEOJFBCFBAG",
                  "targetSelector": {
                    "target": "ContextTarget"
                  },
                  "effectName": "Eff_Gcg_Common_Reaction_Crystal",
                  "followSpineName": "",
                  "followSpineBoneName": "",
                  "bornRotate": {
                    "$type": "IFLHJLBOPFG"
                  }
                }
              ]
            },
            {
              "predict": {
                "$type": "NKGDPOBBHLJ",
                "skillIDList": [
                  115
                ]
              },
              "actions": [
                {
                  "$type": "HEOJFBCFBAG",
                  "targetSelector": {
                    "target": "ContextTarget"
                  },
                  "effectName": "Eff_Gcg_Common_Reaction_Burning_Grass",
                  "followSpineName": "",
                  "followSpineBoneName": "",
                  "bornRotate": {
                    "$type": "IFLHJLBOPFG"
                  }
                }
              ]
            },
            {
              "predict": {
                "$type": "NKGDPOBBHLJ",
                "skillIDList": [
                  116
                ]
              },
              "actions": [
                {
                  "$type": "HEOJFBCFBAG",
                  "targetSelector": {
                    "target": "ContextTarget"
                  },
                  "effectName": "Eff_Gcg_Common_Reaction_Overgrow",
                  "followSpineName": "",
                  "followSpineBoneName": "",
                  "bornRotate": {
                    "$type": "IFLHJLBOPFG"
                  }
                }
              ]
            },
            {
              "predict": {
                "$type": "NKGDPOBBHLJ",
                "skillIDList": [
                  117
                ]
              },
              "actions": [
                {
                  "$type": "HEOJFBCFBAG",
                  "targetSelector": {
                    "target": "ContextTarget"
                  },
                  "effectName": "Eff_Gcg_Common_Reaction_Overdose",
                  "followSpineName": "",
                  "followSpineBoneName": "",
                  "bornRotate": {
                    "$type": "IFLHJLBOPFG"
                  }
                }
              ]
            }
          ]
        }
      ]
    }
  ]
}