{
  "behaviours": [
    {
      "name": "Character_Dori_Q_Normal",
      "GIJMNEJNECL": "",
      "onStart": [
        {
          "lastTime": 0.44999998807907104,
          "actionGroups": [
            {
              "actions": [
                {
                  "$type": "IAKIANGHNKN",
                  "targetSelector": {
                    "target": "Actor"
                  }
                },
                {
                  "$type": "HEOJFBCFBAG",
                  "targetSelector": {
                    "target": "Actor"
                  },
                  "effectName": "Eff_Gcg_Common_ElementalBurst_NormalCharge",
                  "followSpineName": "",
                  "followSpineBoneName": "",
                  "bornRotate": {
                    "$type": "IFLHJLBOPFG"
                  }
                }
              ]
            }
          ]
        },
        {
          "actionGroups": [
            {
              "actions": [
                {
                  "$type": "GLOJIIONPAE",
                  "effectName": "Eff_Gcg_Avatar_Dori_ElementalBurst",
                  "isLoopEffect": true,
                  "isAttack": true,
                  "bornTargetSelector": {
                    "target": "Actor"
                  },
                  "moveTargetSelector": {
                    "target": "MainTarget",
                    "campFilter": "ActorOppoCamp"
                  },
                  "bornRotate": {
                    "$type": "DPLNDBOHACP",
                    "targetSelector": {
                      "target": "MainTarget"
                    }
                  },
                  "moveScript": "Eff_Gcg_Motion_Avatar_Dori_ElementBurst",
                  "oppoMoveScript": "",
                  "events": [
                    {
                      "$type": "EDJLKMJKMKC",
                      "triggerPoint": "OnHit"
                    }
                  ]
                }
              ]
            }
          ]
        }
      ],
      "onHitLanded": [
        {
          "predict": {
            "$type": "DNGHGBJLEEP",
            "targetSelector": {
              "target": "MainTarget",
              "campFilter": "ActorOppoCamp"
            }
          },
          "actionGroups": [
            {
              "actions": [
                {
                  "$type": "HEOJFBCFBAG",
                  "targetSelector": {
                    "target": "MainTarget",
                    "campFilter": "ActorOppoCamp"
                  },
                  "effectName": "Eff_Gcg_Avatar_Dori_ElementalBurst_Hit",
                  "followSpineName": "",
                  "followSpineBoneName": "",
                  "bornRotate": {
                    "$type": "DPLNDBOHACP",
                    "targetSelector": {
                      "target": "Actor"
                    }
                  }
                },
                {
                  "$type": "DNFIJJGGFGK",
                  "targetSelector": {
                    "target": "MainTarget",
                    "campFilter": "ActorOppoCamp"
                  },
                  "script": "Common_ShakeScreen_Test_E"
                },
                {
                  "$type": "IFFOEEHIMEJ",
                  "moveScript": "GcgMotion_Hit04_05",
                  "oppoMoveScript": "",
                  "sourceSelector": {
                    "target": "ContextTarget"
                  },
                  "targetSelector": {
                    "target": "Actor"
                  },
                  "resetCharPositionWhenFinish": true
                }
              ]
            }
          ]
        },
        {
          "actionGroups": [
            {
              "actions": [
                {
                  "$type": "IAKIANGHNKN",
                  "targetSelector": {
                    "target": "Actor"
                  },
                  "isOpen": true
                }
              ]
            }
          ]
        }
      ]
    },
    {
      "name": "Character_Dori_Youjing",
      "GIJMNEJNECL": "",
      "onStart": [
        {
          "predict": {
            "$type": "ODNKFAIFILK",
            "predict": {
              "$type": "BBMPOEEIBKF",
              "targetSelector": {
                "target": "MainTarget",
                "campFilter": "ActorOppoCamp"
              }
            }
          },
          "lastTime": 0.4000000059604645,
          "actionGroups": [
            {
              "actions": [
                {
                  "$type": "HEOJFBCFBAG",
                  "targetSelector": {
                    "target": "Actor",
                    "includeNonCharacter": true
                  },
                  "effectName": "Eff_Gcg_Common_ElementalArt_Cast",
                  "followSpineName": "",
                  "followSpineBoneName": "",
                  "bornRotate": {
                    "$type": "IFLHJLBOPFG"
                  }
                },
                {
                  "$type": "IBOACHLDPJC",
                  "targetSelector": {
                    "target": "AllTarget",
                    "campFilter": "ActorSameCamp"
                  }
                }
              ]
            }
          ]
        },
        {
          "predict": {
            "$type": "BBMPOEEIBKF",
            "targetSelector": {
              "target": "MainTarget",
              "campFilter": "ActorOppoCamp"
            }
          },
          "actionGroups": [
            {
              "actions": [
                {
                  "$type": "GLOJIIONPAE",
                  "effectName": "Eff_Gcg_Common_Gadget_Electric_Bullet",
                  "isLoopEffect": true,
                  "isAttack": true,
                  "bornTargetSelector": {
                    "target": "Actor",
                    "includeNonCharacter": true
                  },
                  "moveTargetSelector": {
                    "target": "MainTarget"
                  },
                  "bornRotate": {
                    "$type": "DPLNDBOHACP",
                    "targetSelector": {
                      "target": "MainTarget"
                    }
                  },
                  "bornOffset": {
                    "y": 0.5
                  },
                  "moveScript": "Eff_Gcg_Motion_Common_Gadget_Bullet",
                  "oppoMoveScript": "",
                  "events": [
                    {
                      "$type": "EDJLKMJKMKC",
                      "triggerPoint": "OnHit"
                    }
                  ]
                }
              ]
            }
          ]
        }
      ],
      "onHitLanded": [
        {
          "predict": {
            "$type": "DNGHGBJLEEP",
            "targetSelector": {
              "target": "MainTarget",
              "campFilter": "ActorSameCamp"
            }
          },
          "actionGroups": [
            {
              "actions": [
                {
                  "$type": "HEOJFBCFBAG",
                  "targetSelector": {
                    "target": "MainTarget",
                    "campFilter": "ActorSameCamp"
                  },
                  "effectName": "Eff_Gcg_Common_ElementalArt_Healing_Hit",
                  "isFollow": true,
                  "followSpineName": "",
                  "followSpineBoneName": "",
                  "bornRotate": {
                    "$type": "IFLHJLBOPFG"
                  }
                }
              ]
            }
          ]
        },
        {
          "predict": {
            "$type": "JBHJGNJLGIH",
            "predicts": [
              {
                "$type": "DNGHGBJLEEP",
                "targetSelector": {
                  "target": "MainTarget",
                  "campFilter": "ActorOppoCamp"
                }
              }
            ]
          },
          "actionGroups": [
            {
              "actions": [
                {
                  "$type": "HEOJFBCFBAG",
                  "targetSelector": {
                    "target": "ContextTarget"
                  },
                  "effectName": "Eff_Gcg_Common_Gadget_Electric_Hit",
                  "followSpineName": "",
                  "followSpineBoneName": "",
                  "bornRotate": {
                    "$type": "DPLNDBOHACP",
                    "targetSelector": {
                      "target": "Actor",
                      "includeNonCharacter": true
                    }
                  }
                },
                {
                  "$type": "ACBKBJPANAH",
                  "targetSelector": {
                    "target": "ContextTarget"
                  },
                  "playImmediately": true,
                  "eventName": {
                    "text": "Play_vfx_GCG_common_gadget_electric_hit"
                  }
                },
                {
                  "$type": "IBOACHLDPJC",
                  "targetSelector": {
                    "target": "AllTarget",
                    "campFilter": "ActorSameCamp"
                  }
                }
              ]
            }
          ]
        },
        {
          "predict": {
            "$type": "JBHJGNJLGIH",
            "predicts": [
              {
                "$type": "NKGDPOBBHLJ",
                "skillIDList": [
                  101,
                  102,
                  103,
                  104,
                  105,
                  106,
                  107,
                  108,
                  109,
                  110,
                  111,
                  112,
                  113,
                  114,
                  115,
                  116,
                  117
                ]
              },
              {
                "$type": "DNGHGBJLEEP",
                "targetSelector": {
                  "target": "MainTarget",
                  "campFilter": "ActorOppoCamp"
                }
              }
            ]
          },
          "actionGroups": [
            {
              "predict": {
                "$type": "NKGDPOBBHLJ",
                "skillIDList": [
                  101
                ]
              },
              "actions": [
                {
                  "$type": "HEOJFBCFBAG",
                  "targetSelector": {
                    "target": "ContextTarget"
                  },
                  "effectName": "Eff_Gcg_Common_Reaction_Melt",
                  "followSpineName": "",
                  "followSpineBoneName": "",
                  "bornRotate": {
                    "$type": "IFLHJLBOPFG"
                  }
                }
              ]
            },
            {
              "predict": {
                "$type": "NKGDPOBBHLJ",
                "skillIDList": [
                  102
                ]
              },
              "actions": [
                {
                  "$type": "HEOJFBCFBAG",
                  "targetSelector": {
                    "target": "ContextTarget"
                  },
                  "effectName": "Eff_Gcg_Common_Reaction_Steam",
                  "followSpineName": "",
                  "followSpineBoneName": "",
                  "bornRotate": {
                    "$type": "IFLHJLBOPFG"
                  }
                }
              ]
            },
            {
              "predict": {
                "$type": "NKGDPOBBHLJ",
                "skillIDList": [
                  103
                ]
              },
              "actions": [
                {
                  "$type": "HEOJFBCFBAG",
                  "targetSelector": {
                    "target": "ContextTarget"
                  },
                  "effectName": "Eff_Gcg_Common_Reaction_Overload",
                  "followSpineName": "",
                  "followSpineBoneName": "",
                  "bornRotate": {
                    "$type": "IFLHJLBOPFG"
                  }
                }
              ]
            },
            {
              "predict": {
                "$type": "NKGDPOBBHLJ",
                "skillIDList": [
                  104
                ]
              },
              "actions": [
                {
                  "$type": "HEOJFBCFBAG",
                  "targetSelector": {
                    "target": "ContextTarget"
                  },
                  "effectName": "Eff_Gcg_Common_Reaction_Superconductor",
                  "followSpineName": "",
                  "followSpineBoneName": "",
                  "bornRotate": {
                    "$type": "IFLHJLBOPFG"
                  }
                }
              ]
            },
            {
              "predict": {
                "$type": "NKGDPOBBHLJ",
                "skillIDList": [
                  105
                ]
              },
              "actions": [
                {
                  "$type": "HEOJFBCFBAG",
                  "targetSelector": {
                    "target": "ContextTarget"
                  },
                  "effectName": "Eff_Gcg_Common_Reaction_StickElectric",
                  "followSpineName": "",
                  "followSpineBoneName": "",
                  "bornRotate": {
                    "$type": "IFLHJLBOPFG"
                  }
                }
              ]
            },
            {
              "predict": {
                "$type": "NKGDPOBBHLJ",
                "skillIDList": [
                  1061
                ]
              },
              "actions": [
                {
                  "$type": "HEOJFBCFBAG",
                  "targetSelector": {
                    "target": "ContextTarget"
                  },
                  "effectName": "Eff_Gcg_Common_Reaction_BreakIce",
                  "followSpineName": "",
                  "followSpineBoneName": "",
                  "bornRotate": {
                    "$type": "IFLHJLBOPFG"
                  }
                }
              ]
            },
            {
              "predict": {
                "$type": "NKGDPOBBHLJ",
                "skillIDList": [
                  108
                ]
              },
              "actions": [
                {
                  "$type": "HEOJFBCFBAG",
                  "targetSelector": {
                    "target": "ContextTarget"
                  },
                  "effectName": "Eff_Gcg_Common_Reaction_Swirl_Water",
                  "followSpineName": "",
                  "followSpineBoneName": "",
                  "bornRotate": {
                    "$type": "IFLHJLBOPFG"
                  }
                }
              ]
            },
            {
              "predict": {
                "$type": "NKGDPOBBHLJ",
                "skillIDList": [
                  107
                ]
              },
              "actions": [
                {
                  "$type": "HEOJFBCFBAG",
                  "targetSelector": {
                    "target": "ContextTarget"
                  },
                  "effectName": "Eff_Gcg_Common_Reaction_Swirl_Ice",
                  "followSpineName": "",
                  "followSpineBoneName": "",
                  "bornRotate": {
                    "$type": "IFLHJLBOPFG"
                  }
                }
              ]
            },
            {
              "predict": {
                "$type": "NKGDPOBBHLJ",
                "skillIDList": [
                  109
                ]
              },
              "actions": [
                {
                  "$type": "HEOJFBCFBAG",
                  "targetSelector": {
                    "target": "ContextTarget"
                  },
                  "effectName": "Eff_Gcg_Common_Reaction_Swirl_Fire",
                  "followSpineName": "",
                  "followSpineBoneName": "",
                  "bornRotate": {
                    "$type": "IFLHJLBOPFG"
                  }
                }
              ]
            },
            {
              "predict": {
                "$type": "NKGDPOBBHLJ",
                "skillIDList": [
                  110
                ]
              },
              "actions": [
                {
                  "$type": "HEOJFBCFBAG",
                  "targetSelector": {
                    "target": "ContextTarget"
                  },
                  "effectName": "Eff_Gcg_Common_Reaction_Swirl_Electric",
                  "followSpineName": "",
                  "followSpineBoneName": "",
                  "bornRotate": {
                    "$type": "IFLHJLBOPFG"
                  }
                }
              ]
            },
            {
              "predict": {
                "$type": "NKGDPOBBHLJ",
                "skillIDList": [
                  111,
                  112,
                  113,
                  114
                ]
              },
              "actions": [
                {
                  "$type": "HEOJFBCFBAG",
                  "targetSelector": {
                    "target": "ContextTarget"
                  },
                  "effectName": "Eff_Gcg_Common_Reaction_Crystal",
                  "followSpineName": "",
                  "followSpineBoneName": "",
                  "bornRotate": {
                    "$type": "IFLHJLBOPFG"
                  }
                }
              ]
            },
            {
              "predict": {
                "$type": "NKGDPOBBHLJ",
                "skillIDList": [
                  115
                ]
              },
              "actions": [
                {
                  "$type": "HEOJFBCFBAG",
                  "targetSelector": {
                    "target": "ContextTarget"
                  },
                  "effectName": "Eff_Gcg_Common_Reaction_Burning_Grass",
                  "followSpineName": "",
                  "followSpineBoneName": "",
                  "bornRotate": {
                    "$type": "IFLHJLBOPFG"
                  }
                }
              ]
            },
            {
              "predict": {
                "$type": "NKGDPOBBHLJ",
                "skillIDList": [
                  116
                ]
              },
              "actions": [
                {
                  "$type": "HEOJFBCFBAG",
                  "targetSelector": {
                    "target": "ContextTarget"
                  },
                  "effectName": "Eff_Gcg_Common_Reaction_Overgrow",
                  "followSpineName": "",
                  "followSpineBoneName": "",
                  "bornRotate": {
                    "$type": "IFLHJLBOPFG"
                  }
                }
              ]
            },
            {
              "predict": {
                "$type": "NKGDPOBBHLJ",
                "skillIDList": [
                  117
                ]
              },
              "actions": [
                {
                  "$type": "HEOJFBCFBAG",
                  "targetSelector": {
                    "target": "ContextTarget"
                  },
                  "effectName": "Eff_Gcg_Common_Reaction_Overdose",
                  "followSpineName": "",
                  "followSpineBoneName": "",
                  "bornRotate": {
                    "$type": "IFLHJLBOPFG"
                  }
                }
              ]
            }
          ]
        }
      ]
    }
  ]
}