{
  "behaviours": [
    {
      "name": "Character_Layla_Q_Golden",
      "GIJMNEJNECL": "",
      "onStart": [
        {
          "lastTime": 1.0299999713897705,
          "actionGroups": [
            {
              "actions": [
                {
                  "$type": "NCMFAICEJPG",
                  "targetSelector": {
                    "target": "Actor"
                  }
                },
                {
                  "$type": "IAKIANGHNKN",
                  "targetSelector": {
                    "target": "Actor"
                  }
                },
                {
                  "$type": "DOANJEEJPPK",
                  "targetSelector": {
                    "target": "Actor"
                  }
                },
                {
                  "$type": "HEOJFBCFBAG",
                  "targetSelector": {
                    "target": "Actor"
                  },
                  "effectName": "Eff_Gcg_Avatar_Layla_ElementalBurst_Spine",
                  "doWriteStencil": true,
                  "followSpineName": "",
                  "followSpineBoneName": "",
                  "bornRotate": {
                    "$type": "IFLHJLBOPFG"
                  }
                }
              ]
            }
          ]
        },
        {
          "lastTime": 1.1699999570846558,
          "actionGroups": [
            {
              "actions": [
                {
                  "$type": "HEOJFBCFBAG",
                  "targetSelector": {
                    "target": "Actor"
                  },
                  "effectName": "Eff_Gcg_Avatar_Layla_ElementalBurst_BS",
                  "bornOffset": {
                    "y": 1.0,
                    "z": -1.2400000095367432
                  },
                  "followSpineName": "",
                  "followSpineBoneName": "",
                  "bornRotate": {
                    "$type": "IFLHJLBOPFG"
                  }
                }
              ]
            }
          ]
        },
        {
          "lastTime": 2.7699999809265137,
          "actionGroups": [
            {
              "actions": [
                {
                  "$type": "GLOJIIONPAE",
                  "effectName": "Eff_Gcg_Avatar_Layla_ElementalBurst_Bullet",
                  "isLoopEffect": true,
                  "isAttack": true,
                  "bornTargetSelector": {
                    "target": "Actor"
                  },
                  "moveTargetSelector": {
                    "target": "MainTarget"
                  },
                  "bornRotate": {
                    "$type": "DPLNDBOHACP",
                    "targetSelector": {
                      "target": "MainTarget"
                    }
                  },
                  "bornOffset": {
                    "x": -0.800000011920929,
                    "y": 0.6000000238418579,
                    "z": 0.5
                  },
                  "moveScript": "Eff_Gcg_Motion_Avatar_Sucrose_ElementBurst",
                  "oppoMoveScript": "Eff_Gcg_Motion_Avatar_Sucrose_ElementBurst",
                  "events": [
                    {
                      "$type": "EDJLKMJKMKC",
                      "triggerPoint": "OnHit"
                    }
                  ]
                },
                {
                  "$type": "GLOJIIONPAE",
                  "effectName": "Eff_Gcg_Avatar_Layla_ElementalBurst_Trail",
                  "isLoopEffect": true,
                  "bornTargetSelector": {
                    "target": "Actor"
                  },
                  "moveTargetSelector": {
                    "target": "MainTarget"
                  },
                  "bornRotate": {
                    "$type": "DPLNDBOHACP",
                    "targetSelector": {
                      "target": "MainTarget"
                    }
                  },
                  "bornOffset": {
                    "x": -0.800000011920929,
                    "y": 0.6000000238418579,
                    "z": 0.5
                  },
                  "moveScript": "Eff_Gcg_Motion_Avatar_Sucrose_ElementBurst",
                  "oppoMoveScript": "Eff_Gcg_Motion_Avatar_Sucrose_ElementBurst",
                  "events": [
                    {
                      "$type": "EDJLKMJKMKC",
                      "triggerPoint": "OnHit"
                    }
                  ]
                },
                {
                  "$type": "GLOJIIONPAE",
                  "effectName": "Eff_Gcg_Avatar_Layla_ElementalBurst_Bullet",
                  "isLoopEffect": true,
                  "bornTargetSelector": {
                    "target": "Actor"
                  },
                  "moveTargetSelector": {
                    "target": "MainTarget"
                  },
                  "bornRotate": {
                    "$type": "DPLNDBOHACP",
                    "targetSelector": {
                      "target": "MainTarget"
                    }
                  },
                  "bornOffset": {
                    "x": 0.800000011920929,
                    "y": 0.6000000238418579,
                    "z": 0.5
                  },
                  "moveScript": "Eff_Gcg_Motion_Avatar_Sucrose_ElementBurst",
                  "oppoMoveScript": "Eff_Gcg_Motion_Avatar_Sucrose_ElementBurst",
                  "events": [
                    {
                      "$type": "EDJLKMJKMKC",
                      "triggerPoint": "OnHit"
                    }
                  ]
                },
                {
                  "$type": "GLOJIIONPAE",
                  "effectName": "Eff_Gcg_Avatar_Layla_ElementalBurst_Trail",
                  "isLoopEffect": true,
                  "bornTargetSelector": {
                    "target": "Actor"
                  },
                  "moveTargetSelector": {
                    "target": "MainTarget"
                  },
                  "bornRotate": {
                    "$type": "DPLNDBOHACP",
                    "targetSelector": {
                      "target": "MainTarget"
                    }
                  },
                  "bornOffset": {
                    "x": 0.800000011920929,
                    "y": 0.6000000238418579,
                    "z": 0.5
                  },
                  "moveScript": "Eff_Gcg_Motion_Avatar_Sucrose_ElementBurst",
                  "oppoMoveScript": "Eff_Gcg_Motion_Avatar_Sucrose_ElementBurst",
                  "events": [
                    {
                      "$type": "EDJLKMJKMKC",
                      "triggerPoint": "OnHit"
                    }
                  ]
                }
              ]
            }
          ]
        },
        {
          "lastTime": 0.029999999329447746,
          "actionGroups": [
            {
              "actions": [
                {
                  "$type": "HEOJFBCFBAG",
                  "targetSelector": {
                    "target": "Actor"
                  },
                  "effectName": "Eff_Gcg_Common_Spine_ReturnToLoop",
                  "doWriteStencil": true,
                  "followSpineName": "",
                  "followSpineBoneName": "",
                  "bornRotate": {
                    "$type": "IFLHJLBOPFG"
                  }
                }
              ]
            }
          ]
        },
        {
          "actionGroups": [
            {
              "actions": [
                {
                  "$type": "NCMFAICEJPG",
                  "targetSelector": {
                    "target": "Actor"
                  },
                  "isOpen": true
                },
                {
                  "$type": "IAKIANGHNKN",
                  "targetSelector": {
                    "target": "Actor"
                  },
                  "isOpen": true
                }
              ]
            }
          ]
        }
      ],
      "onHitLanded": [
        {
          "lastTime": 0.10000000149011612,
          "actionGroups": [
            {
              "actions": [
                {
                  "$type": "HEOJFBCFBAG",
                  "targetSelector": {
                    "target": "ContextTarget"
                  },
                  "effectName": "Eff_Gcg_Avatar_Layla_ElementalBurst_Hit",
                  "bornOffset": {
                    "y": 0.5
                  },
                  "followSpineName": "",
                  "followSpineBoneName": "",
                  "bornRotate": {
                    "$type": "DPLNDBOHACP",
                    "targetSelector": {
                      "target": "Actor"
                    }
                  }
                },
                {
                  "$type": "DNFIJJGGFGK",
                  "targetSelector": {
                    "target": "ContextTarget"
                  },
                  "script": "Common_ShakeScreen_Test_Q"
                }
              ]
            }
          ]
        },
        {
          "actionGroups": [
            {
              "actions": [
                {
                  "$type": "HEOJFBCFBAG",
                  "targetSelector": {
                    "target": "ContextTarget"
                  },
                  "effectName": "Eff_Gcg_Avatar_Layla_ElementalBurst_Hit",
                  "bornOffset": {
                    "y": 0.5
                  },
                  "followSpineName": "",
                  "followSpineBoneName": "",
                  "bornRotate": {
                    "$type": "DPLNDBOHACP",
                    "targetSelector": {
                      "target": "Actor"
                    }
                  }
                }
              ]
            }
          ]
        }
      ]
    }
  ]
}