{
  "behaviours": [
    {
      "name": "Character_Eula_Q_Normal",
      "GIJMNEJNECL": "",
      "onStart": [
        {
          "lastTime": 0.44999998807907104,
          "actionGroups": [
            {
              "actions": [
                {
                  "$type": "IAKIANGHNKN",
                  "targetSelector": {
                    "target": "Actor"
                  }
                },
                {
                  "$type": "HEOJFBCFBAG",
                  "targetSelector": {
                    "target": "Actor"
                  },
                  "effectName": "Eff_Gcg_Common_ElementalBurst_NormalCharge",
                  "followSpineName": "",
                  "followSpineBoneName": "",
                  "bornRotate": {
                    "$type": "IFLHJLBOPFG"
                  }
                },
                {
                  "$type": "ACBKBJPANAH",
                  "targetSelector": {
                    "target": "Actor"
                  },
                  "eventName": {
                    "text": "Play_vfx_GCG_Avatar_Mona_elementalBurst_BS_Normal"
                  }
                }
              ]
            }
          ]
        },
        {
          "lastTime": 0.20000000298023224,
          "actionGroups": [
            {
              "actions": [
                {
                  "$type": "HEOJFBCFBAG",
                  "targetSelector": {
                    "target": "Actor"
                  },
                  "effectName": "Eff_Gcg_Avatar_Eula_ElementalBurst_BS",
                  "followSpineName": "",
                  "followSpineBoneName": "",
                  "bornRotate": {
                    "$type": "IFLHJLBOPFG"
                  }
                },
                {
                  "$type": "HEOJFBCFBAG",
                  "targetSelector": {
                    "target": "MainTarget"
                  },
                  "effectName": "Eff_Gcg_Avatar_Eula_ElementalBurst_Hit",
                  "followSpineName": "",
                  "followSpineBoneName": "",
                  "bornRotate": {
                    "$type": "DPLNDBOHACP",
                    "targetSelector": {
                      "target": "Actor"
                    }
                  }
                }
              ]
            }
          ]
        },
        {
          "lastTime": 1.5700000524520874,
          "actionGroups": [
            {
              "actions": [
                {
                  "$type": "IBOACHLDPJC",
                  "targetSelector": {
                    "target": "MainTarget"
                  }
                }
              ]
            }
          ]
        },
        {
          "lastTime": 0.029999999329447746,
          "actionGroups": [
            {
              "actions": [
                {
                  "$type": "HEOJFBCFBAG",
                  "targetSelector": {
                    "target": "Actor"
                  },
                  "effectName": "Eff_Gcg_Common_Spine_ReturnToLoop",
                  "doWriteStencil": true,
                  "followSpineName": "",
                  "followSpineBoneName": "",
                  "bornRotate": {
                    "$type": "IFLHJLBOPFG"
                  }
                }
              ]
            }
          ]
        },
        {
          "actionGroups": [
            {
              "actions": [
                {
                  "$type": "IAKIANGHNKN",
                  "targetSelector": {
                    "target": "Actor"
                  },
                  "isOpen": true
                }
              ]
            }
          ]
        }
      ],
      "onHitLanded": [
        {
          "actionGroups": [
            {
              "actions": [
                {
                  "$type": "DNFIJJGGFGK",
                  "targetSelector": {
                    "target": "ContextTarget"
                  },
                  "script": "Common_ShakeScreen_Test_Q"
                }
              ]
            }
          ]
        }
      ]
    },
    {
      "name": "Character_Eula_Guangjian",
      "GIJMNEJNECL": "",
      "onStart": [
        {
          "actionGroups": [
            {
              "actions": [
                {
                  "$type": "GLOJIIONPAE",
                  "effectName": "Eff_Gcg_Common_Gadget_Normal_Bullet",
                  "isLoopEffect": true,
                  "isAttack": true,
                  "bornTargetSelector": {
                    "target": "Actor",
                    "includeNonCharacter": true
                  },
                  "moveTargetSelector": {
                    "target": "MainTarget",
                    "campFilter": "ActorOppoCamp"
                  },
                  "bornRotate": {
                    "$type": "DPLNDBOHACP",
                    "targetSelector": {
                      "target": "MainTarget",
                      "campFilter": "ActorOppoCamp"
                    }
                  },
                  "bornOffset": {
                    "y": 0.5
                  },
                  "moveScript": "Eff_Gcg_Motion_Common_Gadget_Bullet",
                  "oppoMoveScript": "",
                  "events": [
                    {
                      "$type": "EDJLKMJKMKC",
                      "triggerPoint": "OnHit"
                    }
                  ]
                }
              ]
            }
          ]
        }
      ],
      "onHitLanded": [
        {
          "predict": {
            "$type": "JBHJGNJLGIH",
            "predicts": [
              {
                "$type": "DNGHGBJLEEP",
                "targetSelector": {
                  "target": "MainTarget",
                  "campFilter": "ActorOppoCamp"
                }
              }
            ]
          },
          "actionGroups": [
            {
              "actions": [
                {
                  "$type": "HEOJFBCFBAG",
                  "targetSelector": {
                    "target": "ContextTarget"
                  },
                  "effectName": "Eff_Gcg_Common_Gadget_Normal_Hit",
                  "followSpineName": "",
                  "followSpineBoneName": "",
                  "bornRotate": {
                    "$type": "DPLNDBOHACP",
                    "targetSelector": {
                      "target": "Actor",
                      "includeNonCharacter": true
                    }
                  }
                },
                {
                  "$type": "ACBKBJPANAH",
                  "targetSelector": {
                    "target": "ContextTarget"
                  },
                  "playImmediately": true,
                  "eventName": {
                    "text": "Play_vfx_GCG_common_gadget_normal_hit"
                  }
                }
              ]
            }
          ]
        }
      ]
    }
  ]
}