{
  "behaviours": [
    {
      "name": "Character_Keqing_Q_Normal",
      "GIJMNEJNECL": "",
      "onStart": [
        {
          "lastTime": 0.44999998807907104,
          "actionGroups": [
            {
              "actions": [
                {
                  "$type": "IAKIANGHNKN",
                  "targetSelector": {
                    "target": "Actor"
                  }
                },
                {
                  "$type": "HEOJFBCFBAG",
                  "targetSelector": {
                    "target": "Actor"
                  },
                  "effectName": "Eff_Gcg_Common_ElementalBurst_NormalCharge",
                  "followSpineName": "",
                  "followSpineBoneName": "",
                  "bornRotate": {
                    "$type": "IFLHJLBOPFG"
                  }
                }
              ]
            }
          ]
        },
        {
          "lastTime": 0.25,
          "actionGroups": [
            {
              "actions": [
                {
                  "$type": "FHCCAFHHOIH",
                  "anchorTarget": "CharacterCenter",
                  "camp": "ActorOppoCamp",
                  "effectName": "Eff_Gcg_Avatar_Keqing_ElementalBurst_Hit"
                }
              ]
            }
          ]
        },
        {
          "lastTime": 1.0499999523162842,
          "actionGroups": [
            {
              "actions": [
                {
                  "$type": "HEOJFBCFBAG",
                  "targetSelector": {
                    "target": "Actor"
                  },
                  "effectName": "Eff_Gcg_Avatar_Keqing_ElementalBurst_BS",
                  "followSpineName": "",
                  "followSpineBoneName": "",
                  "bornRotate": {
                    "$type": "IFLHJLBOPFG"
                  }
                }
              ]
            }
          ]
        },
        {
          "actionGroups": [
            {
              "actions": [
                {
                  "$type": "IBOACHLDPJC",
                  "targetSelector": {
                    "target": "AllTarget"
                  }
                }
              ]
            }
          ]
        },
        {
          "lastTime": 0.15000000596046448,
          "actionGroups": [
            {
              "actions": [
                {
                  "$type": "HEOJFBCFBAG",
                  "targetSelector": {
                    "target": "MainTarget"
                  },
                  "effectName": "Eff_Gcg_Avatar_Keqing_ElementalBurst_Hit_01",
                  "followSpineName": "",
                  "followSpineBoneName": "",
                  "bornRotate": {
                    "$type": "IFLHJLBOPFG"
                  }
                },
                {
                  "$type": "DNFIJJGGFGK",
                  "targetSelector": {
                    "target": "MainTarget"
                  },
                  "script": "Common_ShakeScreen_Test_Q"
                },
                {
                  "$type": "IFFOEEHIMEJ",
                  "moveScript": "GcgMotion_Hit04_03",
                  "oppoMoveScript": "",
                  "sourceSelector": {
                    "target": "MainTarget"
                  },
                  "targetSelector": {
                    "target": "Actor"
                  },
                  "resetCharPositionWhenFinish": true
                }
              ]
            }
          ]
        },
        {
          "lastTime": 0.5,
          "actionGroups": [
            {
              "actions": [
                {
                  "$type": "HEOJFBCFBAG",
                  "targetSelector": {
                    "target": "SubTarget"
                  },
                  "effectName": "Eff_Gcg_Avatar_Keqing_ElementalBurst_Hit_02",
                  "followSpineName": "",
                  "followSpineBoneName": "",
                  "bornRotate": {
                    "$type": "IFLHJLBOPFG"
                  }
                }
              ]
            }
          ]
        },
        {
          "actionGroups": [
            {
              "actions": [
                {
                  "$type": "IAKIANGHNKN",
                  "targetSelector": {
                    "target": "Actor"
                  },
                  "isOpen": true
                }
              ]
            }
          ]
        }
      ]
    }
  ]
}