{
  "behaviours": [
    {
      "name": "Character_Charlotte_Q_Normal",
      "GIJMNEJNECL": "",
      "onStart": [
        {
          "lastTime": 0.44999998807907104,
          "actionGroups": [
            {
              "actions": [
                {
                  "$type": "IAKIANGHNKN",
                  "targetSelector": {
                    "target": "Actor"
                  }
                },
                {
                  "$type": "HEOJFBCFBAG",
                  "targetSelector": {
                    "target": "Actor"
                  },
                  "effectName": "Eff_Gcg_Common_ElementalBurst_NormalCharge",
                  "followSpineName": "",
                  "followSpineBoneName": "",
                  "bornRotate": {
                    "$type": "IFLHJLBOPFG"
                  }
                },
                {
                  "$type": "ACBKBJPANAH",
                  "targetSelector": {
                    "target": "Actor"
                  },
                  "eventName": {
                    "text": "Play_vfx_GCG_Avatar_Charlotte_elementalBurst_BS_Normal"
                  }
                }
              ]
            }
          ]
        },
        {
          "lastTime": 2.190000057220459,
          "actionGroups": [
            {
              "actions": [
                {
                  "$type": "IBOACHLDPJC",
                  "targetSelector": {
                    "target": "MainTarget",
                    "campFilter": "ActorOppoCamp"
                  }
                }
              ]
            }
          ]
        },
        {
          "actionGroups": [
            {
              "actions": [
                {
                  "$type": "IAKIANGHNKN",
                  "targetSelector": {
                    "target": "Actor"
                  },
                  "isOpen": true
                }
              ]
            }
          ]
        }
      ],
      "onHitLanded": [
        {
          "predict": {
            "$type": "DNGHGBJLEEP",
            "targetSelector": {
              "target": "MainTarget",
              "campFilter": "ActorOppoCamp"
            }
          },
          "lastTime": 0.10000000149011612,
          "actionGroups": [
            {
              "actions": [
                {
                  "$type": "HEOJFBCFBAG",
                  "targetSelector": {
                    "target": "ContextTarget",
                    "campFilter": "ActorOppoCamp"
                  },
                  "effectName": "Eff_Gcg_Avatar_Charlotte_ElementalBurst_Hit",
                  "followSpineName": "",
                  "followSpineBoneName": "",
                  "bornRotate": {
                    "$type": "FKEAAMKHNNO"
                  }
                },
                {
                  "$type": "IBOACHLDPJC",
                  "targetSelector": {
                    "target": "AllTarget",
                    "campFilter": "ActorSameCamp"
                  }
                }
              ]
            }
          ]
        },
        {
          "predict": {
            "$type": "DNGHGBJLEEP",
            "targetSelector": {
              "target": "AllTarget",
              "campFilter": "ActorSameCamp"
            }
          },
          "actionGroups": [
            {
              "actions": [
                {
                  "$type": "HEOJFBCFBAG",
                  "targetSelector": {
                    "target": "ContextTarget",
                    "campFilter": "ActorSameCamp"
                  },
                  "effectName": "Eff_Gcg_Common_ElementalArt_Healing_Hit",
                  "followSpineName": "",
                  "followSpineBoneName": "",
                  "bornRotate": {
                    "$type": "IFLHJLBOPFG"
                  }
                }
              ]
            }
          ]
        },
        {
          "actionGroups": [
            {
              "actions": [
                {
                  "$type": "IAKIANGHNKN",
                  "targetSelector": {
                    "target": "Actor"
                  },
                  "isOpen": true
                }
              ]
            }
          ]
        }
      ]
    }
  ]
}