{
  "behaviours": [
    {
      "name": "Character_Qiqi_Q_Golden",
      "GIJMNEJNECL": "",
      "onStart": [
        {
          "lastTime": 1.9500000476837158,
          "actionGroups": [
            {
              "actions": [
                {
                  "$type": "NCMFAICEJPG",
                  "targetSelector": {
                    "target": "Actor"
                  }
                },
                {
                  "$type": "IAKIANGHNKN",
                  "targetSelector": {
                    "target": "Actor"
                  }
                },
                {
                  "$type": "DOANJEEJPPK",
                  "targetSelector": {
                    "target": "Actor"
                  }
                },
                {
                  "$type": "HEOJFBCFBAG",
                  "targetSelector": {
                    "target": "Actor"
                  },
                  "effectName": "Eff_Gcg_Avatar_Qiqi_ElementalBurst_Spine",
                  "doWriteStencil": true,
                  "followSpineName": "",
                  "followSpineBoneName": "",
                  "bornRotate": {
                    "$type": "IFLHJLBOPFG"
                  }
                }
              ]
            }
          ]
        },
        {
          "lastTime": 0.15000000596046448,
          "actionGroups": [
            {
              "actions": [
                {
                  "$type": "HEOJFBCFBAG",
                  "targetSelector": {
                    "target": "Actor"
                  },
                  "effectName": "Eff_Gcg_Avatar_Qiqi_ElementalBurst_BS",
                  "bornOffset": {
                    "y": 0.5,
                    "z": 0.04699999839067459
                  },
                  "followSpineName": "",
                  "followSpineBoneName": "",
                  "bornRotate": {
                    "$type": "IFLHJLBOPFG"
                  }
                }
              ]
            }
          ]
        },
        {
          "lastTime": 0.05000000074505806,
          "actionGroups": [
            {
              "actions": [
                {
                  "$type": "HEOJFBCFBAG",
                  "targetSelector": {
                    "target": "MainTarget"
                  },
                  "effectName": "Eff_Gcg_Avatar_Qiqi_ElementalBurst_Hit",
                  "followSpineName": "",
                  "followSpineBoneName": "",
                  "bornRotate": {
                    "$type": "IFLHJLBOPFG"
                  }
                }
              ]
            }
          ]
        },
        {
          "lastTime": 2.819999933242798,
          "actionGroups": [
            {
              "actions": [
                {
                  "$type": "IBOACHLDPJC",
                  "targetSelector": {
                    "target": "MainTarget"
                  }
                },
                {
                  "$type": "DNFIJJGGFGK",
                  "targetSelector": {
                    "target": "MainTarget"
                  },
                  "script": "Common_ShakeScreen_Test_Q"
                }
              ]
            }
          ]
        },
        {
          "lastTime": 0.029999999329447746,
          "actionGroups": [
            {
              "actions": [
                {
                  "$type": "HEOJFBCFBAG",
                  "targetSelector": {
                    "target": "Actor"
                  },
                  "effectName": "Eff_Gcg_Common_Spine_ReturnToLoop",
                  "doWriteStencil": true,
                  "followSpineName": "",
                  "followSpineBoneName": "",
                  "bornRotate": {
                    "$type": "IFLHJLBOPFG"
                  }
                }
              ]
            }
          ]
        },
        {
          "actionGroups": [
            {
              "actions": [
                {
                  "$type": "NCMFAICEJPG",
                  "targetSelector": {
                    "target": "Actor"
                  },
                  "isOpen": true
                },
                {
                  "$type": "IAKIANGHNKN",
                  "targetSelector": {
                    "target": "Actor"
                  },
                  "isOpen": true
                }
              ]
            }
          ]
        }
      ]
    }
  ]
}