{
  "luaDataPath": "",
  "entityBan": "",
  "disableNpcLod": true,
  "startFade": {
    "startFadeOutDuration": 0.0
  },
  "endFade": {
    "startFadeOutDuration": 0.0
  },
  "actors": [
    {
      "alias": "Avatar",
      "visible": true,
      "bornPointName": "",
      "relativePosNpcAlias": "",
      "_bindMovingTargetKey": ""
    },
    {
      "configID": 12178,
      "alias": "12178",
      "visible": true,
      "bornPointName": "",
      "removeActorType": "REMOVE",
      "relativePosNpcAlias": "",
      "_bindMovingTargetKey": ""
    }
  ],
  "group": [
    [
      {
        "$type": "FJKIHHKJLMJ",
        "type": "CAMERA_FOCUS",
        "delayTime": 0.30000001192092896,
        "duration": 0.10000000149011612,
        "targetNpcAlias": "",
        "KJOEFBPOIIH": "",
        "IICFKKEBIEC": "",
        "EGEHEJEBLBJ": ""
      },
      {
        "$type": "MoleMole.Config.ConfigTimeProtectAction",
        "type": "TIME_PROTECT",
        "duration": 0.4000000059604645
      },
      {
        "$type": "LJLMDHDCAMK",
        "type": "LOOK_AT",
        "aliasList": [
          "Avatar"
        ],
        "enableHead": true,
        "headTurnTime": 0.5,
        "targetNpcAlias": "12178",
        "targetNpcLookAtPoint": "",
        "OAFJBHJHLJG": ""
      },
      {
        "$type": "LLGANGLOEEO",
        "type": "STEER_TO",
        "duration": 0.800000011920929,
        "aliasList": [
          "Avatar"
        ],
        "steerType": "TO_TARGET",
        "useSteerAnim": true,
        "interruptFreestyle": true,
        "forceSteer": true,
        "targetNpcAlias": "12178",
        "OAFJBHJHLJG": ""
      },
      {
        "$type": "LLGANGLOEEO",
        "type": "STEER_TO",
        "duration": 0.800000011920929,
        "aliasList": [
          "12178"
        ],
        "steerType": "TO_TARGET",
        "useSteerAnim": true,
        "interruptFreestyle": true,
        "forceSteer": true,
        "targetNpcAlias": "Avatar",
        "OAFJBHJHLJG": ""
      },
      {
        "$type": "LJLMDHDCAMK",
        "type": "LOOK_AT",
        "aliasList": [
          "12178"
        ],
        "enableHead": true,
        "headTurnTime": 0.5,
        "targetNpcAlias": "Avatar",
        "targetNpcLookAtPoint": "",
        "OAFJBHJHLJG": ""
      }
    ],
    [
      {
        "$type": "PKKMAMONGEO",
        "type": "DIALOG",
        "aliasList": [
          "12178"
        ],
        "dialogID": 120232001,
        "protectTime": 0.5
      },
      {
        "$type": "CPJKOIHIPBE",
        "type": "EMO_SYNC",
        "aliasList": [
          "12178"
        ],
        "dataPath": "Cs_Emo_Avatar_Simple_Common_Set/Cs_Emo_Avatar_Talk/Cs_Emo_Avatar_PersonalLine/Cs_Emo_Avatar_Kokomi/Cs_Emo_120232001",
        "phonemePath": "",
        "emotionPath": "",
        "mateDataPath": "",
        "matePhonemePath": "",
        "mateEmotionPath": "",
        "dataPathHashList": [
          8928629578578670833,
          5626431210707622934,
          1829982805704270550,
          8968901073476452650
        ],
        "FMDPBECPELH": "",
        "ADKBLPOKGIK": ""
      }
    ],
    [
      {
        "$type": "PKKMAMONGEO",
        "type": "DIALOG",
        "aliasList": [
          "12178"
        ],
        "dialogID": 120232002,
        "protectTime": 0.5
      },
      {
        "$type": "FABLGECDBCH",
        "type": "BODY_LANG",
        "delayTime": 0.01899999938905239,
        "aliasList": [
          "12178"
        ],
        "bodyLangParam": 1081,
        "forceDoFreeStyle": true,
        "canDoRepeatFreeStyle": false,
        "eventPatternSuiteKey": "",
        "FOHHKFAIAAJ": ""
      },
      {
        "$type": "CPJKOIHIPBE",
        "type": "EMO_SYNC",
        "aliasList": [
          "12178"
        ],
        "dataPath": "Cs_Emo_Avatar_Simple_Common_Set/Cs_Emo_Avatar_Talk/Cs_Emo_Avatar_PersonalLine/Cs_Emo_Avatar_Kokomi/Cs_Emo_120232002",
        "phonemePath": "",
        "emotionPath": "",
        "mateDataPath": "",
        "matePhonemePath": "",
        "mateEmotionPath": "",
        "dataPathHashList": [
          12329000829992623655,
          8420956196463216857,
          11886179843542343129,
          807831073373167044
        ],
        "FMDPBECPELH": "",
        "ADKBLPOKGIK": ""
      }
    ],
    [
      {
        "$type": "MoleMole.Config.ConfigTimeProtectAction",
        "type": "TIME_PROTECT",
        "duration": 0.10000000149011612
      },
      {
        "$type": "MoleMole.Config.ConfigBlackScreenAction",
        "type": "BLACK_SCREEN",
        "durationToBlack": 0.5,
        "durationKeepBlack": 1.0,
        "durationFromBlack": 0.5,
        "inteePos": "",
        "textMapID": "",
        "useTextFade": true
      },
      {
        "$type": "MoleMole.Config.ConfigTeleportToAction",
        "type": "TELEPORT_TO",
        "delayTime": 0.5,
        "aliasList": [
          "Avatar"
        ],
        "position": {
          "x": -4026.9189453125,
          "y": 201.0449981689453,
          "z": -726.4580078125
        },
        "forward": {
          "z": 1.0
        },
        "_posBindMovingTargetKey": "",
        "_forwardBindMovingTargetKey": ""
      },
      {
        "$type": "MoleMole.Config.ConfigVisibleInterAction",
        "type": "VISIBLE",
        "delayTime": 0.5,
        "aliasList": [
          "12178"
        ],
        "_extraParam": ""
      },
      {
        "$type": "PKKMAMONGEO",
        "type": "DIALOG_CLEAR",
        "delayTime": 0.5,
        "aliasList": [
          "12178"
        ]
      }
    ]
  ],
  "groupId": [
    {
      "grpId": 1125736007,
      "nextGrpId": 1125736008
    },
    {
      "index": 1,
      "grpId": 1125736008,
      "nextGrpId": 1125736009
    },
    {
      "index": 2,
      "grpId": 1125736009,
      "nextGrpId": 1125736010
    },
    {
      "index": 3,
      "grpId": 1125736010,
      "nextGrpId": 1125736011
    }
  ],
  "freeStyleDic": {
    "12178": [
      1081
    ]
  }
}