{
  "luaDataPath": "",
  "dontUseDefaultFinish": true,
  "startBlackKeepTime": 0.5,
  "entityBan": "",
  "disableNpcLod": true,
  "isAutoBanNpc": true,
  "isBanWidgetPet": true,
  "protectNpcMobileLod": true,
  "talkFlag": 7,
  "startFade": {
    "startFadeInDuration": 0.5,
    "startFadeOutDuration": 0.5
  },
  "endFade": {
    "startFadeOutDuration": 0.0
  },
  "actors": [
    {
      "alias": "Avatar",
      "visible": true,
      "bornPointName": "[3_5156:4030.710,486.000,3364.330]",
      "relativePosType": "AVATAR_NEW",
      "relativePosNpcAlias": "",
      "_bindMovingTargetKey": "",
      "_isInWater": true
    },
    {
      "configID": 1400,
      "alias": "1400",
      "visible": true,
      "bornPointName": "",
      "useRelativePos": true,
      "relativePos": {
        "x": 0.5,
        "z": -0.5
      },
      "removeActorType": "NEW_REMOVE_WITH_DISAPPEAR",
      "relativePosType": "AVATAR_NEW",
      "relativePosNpcAlias": "",
      "_notDestroyInTalk": true,
      "_bindMovingTargetKey": "",
      "_isInWater": true
    },
    {
      "configID": 21122,
      "alias": "21122",
      "visible": true,
      "bornPointName": "[3_5077:3928.348,504.000,3407.613]",
      "relativePosType": "AVATAR_NEW",
      "relativePosNpcAlias": "",
      "_bindMovingTargetKey": ""
    }
  ],
  "group": [
    [
      {
        "$type": "MoleMole.Config.ConfigBlackScreenAction",
        "type": "BLACK_SCREEN",
        "duration": 1.0,
        "actionId": 127,
        "_flag": 2048,
        "blackScreenType": "KEEP_BLACK",
        "durationToBlack": 0.5,
        "durationKeepBlack": 1.0,
        "durationFromBlack": 0.5,
        "inteePos": "",
        "textMapID": "",
        "useTextFade": true,
        "_changeAudioState": true
      },
      {
        "$type": "MoleMole.Config.ConfigTimeProtectAction",
        "type": "TIME_PROTECT",
        "duration": 1.0,
        "actionId": 128
      },
      {
        "$type": "LJLMDHDCAMK",
        "type": "LOOK_AT",
        "aliasList": [
          "Avatar"
        ],
        "actionId": 147,
        "_flag": 64,
        "enableHead": true,
        "useTargetPos": true,
        "enableAbsolute": true,
        "targetPosition": {
          "x": 4029.550048828125,
          "y": 486.135009765625,
          "z": 3367.055908203125
        },
        "headTurnTime": 0.5,
        "targetNpcAlias": "21122",
        "lookAtTargetType": "NONE",
        "openBackProtect": true,
        "backProtectAngle": 10.0,
        "targetNpcLookAtPoint": "",
        "OAFJBHJHLJG": ""
      },
      {
        "$type": "FABLGECDBCH",
        "type": "BODY_LANG",
        "aliasList": [
          "Avatar"
        ],
        "actionId": 148,
        "forceDoFreeStyle": true,
        "canDoRepeatFreeStyle": false,
        "cantBackToIdleWhenSitLoop": true,
        "eventPatternSuiteKey": "",
        "FOHHKFAIAAJ": ""
      },
      {
        "$type": "MoleMole.Config.ConfigTeleportToAction",
        "type": "TELEPORT_TO",
        "aliasList": [
          "Avatar"
        ],
        "actionId": 149,
        "position": {
          "x": 4032.31005859375,
          "y": 485.2080078125,
          "z": 3366.760009765625
        },
        "forward": {
          "x": -4.708000183105469,
          "y": -1.0789999961853027,
          "z": 0.10100000351667404
        },
        "openLongDisTeleport": true,
        "syncForward": true,
        "_posBindMovingTargetKey": "",
        "_forwardBindMovingTargetKey": ""
      },
      {
        "$type": "MoleMole.Config.ConfigVisibleInterAction",
        "type": "VISIBLE",
        "aliasList": [
          "Avatar"
        ],
        "actionId": 150,
        "isVisible": true,
        "_extraParam": ""
      },
      {
        "$type": "FABLGECDBCH",
        "type": "BODY_LANG",
        "aliasList": [
          "1400"
        ],
        "actionId": 151,
        "isContinue": true,
        "forceDoFreeStyle": true,
        "canDoRepeatFreeStyle": false,
        "eventPatternSuiteKey": "",
        "FOHHKFAIAAJ": ""
      },
      {
        "$type": "LJLMDHDCAMK",
        "type": "LOOK_AT",
        "aliasList": [
          "1400"
        ],
        "actionId": 152,
        "_flag": 64,
        "enableHead": true,
        "useTargetPos": true,
        "enableAbsolute": true,
        "targetPosition": {
          "x": 4029.737060546875,
          "y": 486.2070007324219,
          "z": 3366.60400390625
        },
        "headTurnTime": 0.5,
        "targetNpcAlias": "21122",
        "lookAtTargetType": "NONE",
        "openBackProtect": true,
        "backProtectAngle": 10.0,
        "targetNpcLookAtPoint": "",
        "OAFJBHJHLJG": ""
      },
      {
        "$type": "MoleMole.Config.ConfigTeleportToAction",
        "type": "TELEPORT_TO",
        "aliasList": [
          "1400"
        ],
        "actionId": 153,
        "position": {
          "x": 4031.5859375,
          "y": 484.98199462890625,
          "z": 3366.968994140625
        },
        "forward": {
          "x": -1.5800000429153442,
          "y": 1.8580000400543213,
          "z": -2.575000047683716
        },
        "openLongDisTeleport": true,
        "syncForward": true,
        "_posBindMovingTargetKey": "",
        "_forwardBindMovingTargetKey": ""
      },
      {
        "$type": "FJKIHHKJLMJ",
        "type": "CAMERA_MOVE",
        "delayTime": 0.550000011920929,
        "duration": 0.5,
        "actionId": 126,
        "camPosOffset": {
          "x": 4029.946044921875,
          "y": 482.91900634765625,
          "z": 3363.239013671875
        },
        "camForwardTargetOffset": {
          "x": 4030.39111328125,
          "y": 483.00201416015625,
          "z": 3364.131103515625
        },
        "camFov": 52.915000915527344,
        "lerpPattern": 6,
        "cameraBlendType": "EaseInOutCubic",
        "NJBNNOMLKCK": {},
        "needZAxisRotate": true,
        "openCameraDither": false,
        "targetNpcAlias": "",
        "closeTreeLeafDither": true,
        "KJOEFBPOIIH": "",
        "IICFKKEBIEC": "",
        "EGEHEJEBLBJ": ""
      }
    ],
    [
      {
        "$type": "FJKIHHKJLMJ",
        "type": "CAMERA_MOVE",
        "duration": 0.5,
        "actionId": 130,
        "camPosOffset": {
          "x": 4035.389892578125,
          "y": 489.2539978027344,
          "z": 3367.6650390625
        },
        "camForwardTargetOffset": {
          "x": 4034.751953125,
          "y": 488.56298828125,
          "z": 3367.323974609375
        },
        "lerpPattern": 6,
        "cameraBlendType": "EaseInOutCubic",
        "NJBNNOMLKCK": {},
        "needZAxisRotate": true,
        "openCameraDither": false,
        "targetNpcAlias": "",
        "closeTreeLeafDither": true,
        "KJOEFBPOIIH": "",
        "IICFKKEBIEC": "",
        "EGEHEJEBLBJ": ""
      },
      {
        "$type": "MoleMole.Config.ConfigBlackScreenAction",
        "type": "BLACK_SCREEN",
        "duration": 0.5,
        "actionId": 131,
        "_flag": 2048,
        "blackScreenType": "FROM_BLACK",
        "durationToBlack": 0.5,
        "durationKeepBlack": 0.5,
        "durationFromBlack": 0.5,
        "inteePos": "",
        "textMapID": "",
        "useTextFade": true,
        "_changeAudioState": true
      },
      {
        "$type": "MoleMole.Config.ConfigCameraDOFAction",
        "type": "CAMERA_DOF",
        "actionId": 132,
        "focusDistance": 3.2730000019073486,
        "focusRange": 2.9709999561309814,
        "nearFocalDistance": 0.6620000004768372,
        "nearFocalTransDistance": 2.9749999046325684,
        "dofBlurAmount": 2.0,
        "quality": 3
      },
      {
        "$type": "LJLMDHDCAMK",
        "type": "LOOK_AT",
        "aliasList": [
          "Avatar"
        ],
        "actionId": 146,
        "_flag": 64,
        "enableHead": true,
        "headTurnTime": 0.5,
        "targetNpcAlias": "21122",
        "openBackProtect": true,
        "backProtectAngle": 10.0,
        "targetNpcLookAtPoint": "",
        "OAFJBHJHLJG": ""
      },
      {
        "$type": "PKKMAMONGEO",
        "type": "DIALOG",
        "aliasList": [
          "1400"
        ],
        "actionId": 107,
        "dialogID": 740840705,
        "protectTime": 0.5
      },
      {
        "$type": "LJLMDHDCAMK",
        "type": "LOOK_AT",
        "aliasList": [
          "1400"
        ],
        "actionId": 154,
        "_flag": 64,
        "enableHead": true,
        "headTurnTime": 0.5,
        "targetNpcAlias": "21122",
        "openBackProtect": true,
        "backProtectAngle": 10.0,
        "targetNpcLookAtPoint": "",
        "OAFJBHJHLJG": ""
      },
      {
        "$type": "FJKIHHKJLMJ",
        "type": "CAMERA_MOVE",
        "delayTime": 0.10000000149011612,
        "duration": 5.0,
        "actionId": 129,
        "camPosOffset": {
          "x": 4035.488037109375,
          "y": 489.2539978027344,
          "z": 3367.468017578125
        },
        "camForwardTargetOffset": {
          "x": 4034.8291015625,
          "y": 488.56298828125,
          "z": 3367.1689453125
        },
        "cameraBlendType": "EaseOutQuad",
        "NJBNNOMLKCK": {},
        "needZAxisRotate": true,
        "openCameraDither": false,
        "targetNpcAlias": "",
        "closeTreeLeafDither": true,
        "KJOEFBPOIIH": "",
        "IICFKKEBIEC": "",
        "EGEHEJEBLBJ": ""
      }
    ],
    [
      {
        "$type": "FJKIHHKJLMJ",
        "type": "CAMERA_MOVE",
        "duration": 0.6000000238418579,
        "actionId": 133,
        "camPosOffset": {
          "x": 4029.946044921875,
          "y": 482.91900634765625,
          "z": 3363.239013671875
        },
        "camForwardTargetOffset": {
          "x": 4030.39111328125,
          "y": 483.00201416015625,
          "z": 3364.131103515625
        },
        "camFov": 52.915000915527344,
        "lerpPattern": 6,
        "cameraBlendType": "EaseInOutCubic",
        "NJBNNOMLKCK": {},
        "needZAxisRotate": true,
        "openCameraDither": false,
        "targetNpcAlias": "",
        "closeTreeLeafDither": true,
        "KJOEFBPOIIH": "",
        "IICFKKEBIEC": "",
        "EGEHEJEBLBJ": ""
      },
      {
        "$type": "LJLMDHDCAMK",
        "type": "LOOK_AT",
        "aliasList": [
          "Avatar"
        ],
        "actionId": 144,
        "_flag": 64,
        "enableHead": true,
        "headTurnTime": 0.5,
        "targetNpcAlias": "",
        "openBackProtect": true,
        "backProtectAngle": 10.0,
        "targetNpcLookAtPoint": "",
        "OAFJBHJHLJG": ""
      },
      {
        "$type": "MoleMole.Config.ConfigTeleportToAction",
        "type": "TELEPORT_TO",
        "aliasList": [
          "Avatar"
        ],
        "actionId": 145,
        "position": {
          "x": 4032.133056640625,
          "y": 484.9540100097656,
          "z": 3366.842041015625
        },
        "forward": {
          "x": -2.0250000953674316,
          "z": -0.09799999743700027
        },
        "openLongDisTeleport": true,
        "syncForward": true,
        "_posBindMovingTargetKey": "",
        "_forwardBindMovingTargetKey": ""
      },
      {
        "$type": "LJLMDHDCAMK",
        "type": "LOOK_AT",
        "aliasList": [
          "1400"
        ],
        "actionId": 155,
        "_flag": 64,
        "enableHead": true,
        "headTurnTime": 0.5,
        "targetNpcAlias": "",
        "openBackProtect": true,
        "backProtectAngle": 10.0,
        "targetNpcLookAtPoint": "",
        "OAFJBHJHLJG": ""
      },
      {
        "$type": "MoleMole.Config.ConfigTeleportToAction",
        "type": "TELEPORT_TO",
        "aliasList": [
          "1400"
        ],
        "actionId": 156,
        "position": {
          "x": 4031.722900390625,
          "y": 484.9530029296875,
          "z": 3367.2958984375
        },
        "forward": {
          "x": -1.659000039100647,
          "y": 0.02800000086426735,
          "z": -0.4950000047683716
        },
        "openLongDisTeleport": true,
        "syncForward": true,
        "_posBindMovingTargetKey": "",
        "_forwardBindMovingTargetKey": ""
      },
      {
        "$type": "MoleMole.Config.ConfigCameraDOFAction",
        "type": "CAMERA_DOF",
        "delayTime": 0.10000000149011612,
        "actionId": 135,
        "enabled": true,
        "focusDistance": 3.2730000019073486,
        "focusRange": 2.9709999561309814,
        "nearFocalDistance": 0.6620000004768372,
        "nearFocalTransDistance": 2.9749999046325684,
        "dofBlurAmount": 2.0,
        "quality": 3
      },
      {
        "$type": "MoleMole.Config.ConfigNewCameraShakeAction",
        "type": "NEW_CAMERA_SHAKE",
        "delayTime": 0.10000000149011612,
        "actionId": 136,
        "_shakeType": "INFINITE_ROTATION",
        "seed": 0.257999986410141,
        "amplitudeBase": {
          "x": 1.399999976158142,
          "y": 1.2000000476837158,
          "z": 1.7999999523162842
        },
        "frequencyBase": {
          "x": 0.5,
          "y": 0.5,
          "z": 0.4000000059604645
        },
        "amplitudeCurve": {
          "keyframes": [
            {
              "inTangent": 1.0,
              "outTangent": 1.0
            },
            {
              "time": 1.0,
              "value": 1.0,
              "inTangent": 1.0,
              "outTangent": 1.0
            }
          ]
        },
        "frequencyCurve": {
          "keyframes": [
            {
              "inTangent": 1.0,
              "outTangent": 1.0
            },
            {
              "time": 1.0,
              "value": 1.0,
              "inTangent": 1.0,
              "outTangent": 1.0
            }
          ]
        }
      },
      {
        "$type": "MoleMole.Config.ConfigSimpleUIShowInterAction",
        "type": "SIMPLE_UI_SHOW",
        "delayTime": 0.10000000149011612,
        "actionId": 137,
        "contextName": "BlinkDialog",
        "_param": ""
      },
      {
        "$type": "FJKIHHKJLMJ",
        "type": "CAMERA_MOVE",
        "delayTime": 0.14900000393390656,
        "duration": 2.986999988555908,
        "actionId": 134,
        "camPosOffset": {
          "x": 4029.7470703125,
          "y": 483.968994140625,
          "z": 3363.048095703125
        },
        "camForwardTargetOffset": {
          "x": 4030.156005859375,
          "y": 484.2149963378906,
          "z": 3363.926025390625
        },
        "camFov": 52.915000915527344,
        "cameraBlendType": "EaseOutQuad",
        "NJBNNOMLKCK": {},
        "needZAxisRotate": true,
        "openCameraDither": false,
        "targetNpcAlias": "",
        "closeTreeLeafDither": true,
        "KJOEFBPOIIH": "",
        "IICFKKEBIEC": "",
        "EGEHEJEBLBJ": ""
      }
    ],
    [
      {
        "$type": "MoleMole.Config.ConfigCameraShakeAction",
        "type": "CAMERA_SHAKE",
        "actionId": 138,
        "shakeRange": 0.10000000149011612,
        "shakeTime": 10.0,
        "shakeDinstance": 0.10000000149011612,
        "_shakeDir": {
          "x": 0.10000000149011612,
          "y": 1.0,
          "z": 0.20000000298023224
        },
        "randomSetting": {
          "energyCurve": {}
        }
      },
      {
        "$type": "PKKMAMONGEO",
        "type": "DIALOG",
        "aliasList": [
          "21122"
        ],
        "actionId": 111,
        "dialogID": 740840702,
        "protectTime": 0.5
      }
    ],
    [
      {
        "$type": "LJLMDHDCAMK",
        "type": "LOOK_AT",
        "aliasList": [
          "Avatar"
        ],
        "actionId": 143,
        "_flag": 64,
        "enableHead": true,
        "useTargetPos": true,
        "enableAbsolute": true,
        "targetPosition": {
          "x": 4028.946044921875,
          "y": 483.7090148925781,
          "z": 3362.43896484375
        },
        "headTurnTime": 0.5,
        "targetNpcAlias": "",
        "lookAtTargetType": "NONE",
        "openBackProtect": true,
        "backProtectAngle": 10.0,
        "targetNpcLookAtPoint": "",
        "OAFJBHJHLJG": ""
      },
      {
        "$type": "FABLGECDBCH",
        "type": "BODY_LANG",
        "aliasList": [
          "1400"
        ],
        "actionId": 157,
        "bodyLangParam": 1110,
        "forceDoFreeStyle": true,
        "canDoRepeatFreeStyle": false,
        "cantBackToIdleWhenSitLoop": true,
        "eventPatternSuiteKey": "",
        "FOHHKFAIAAJ": ""
      },
      {
        "$type": "LJLMDHDCAMK",
        "type": "LOOK_AT",
        "aliasList": [
          "1400"
        ],
        "actionId": 158,
        "_flag": 64,
        "enableHead": true,
        "useTargetPos": true,
        "enableAbsolute": true,
        "targetPosition": {
          "x": 4030.9140625,
          "y": 485.0830078125,
          "z": 3362.595947265625
        },
        "headTurnTime": 0.5,
        "targetNpcAlias": "",
        "lookAtTargetType": "NONE",
        "openBackProtect": true,
        "backProtectAngle": 10.0,
        "targetNpcLookAtPoint": "",
        "OAFJBHJHLJG": ""
      }
    ],
    [
      {
        "$type": "PKKMAMONGEO",
        "type": "DIALOG_CLEAR",
        "actionId": 139
      },
      {
        "$type": "MoleMole.Config.ConfigBlackScreenAction",
        "type": "BLACK_SCREEN",
        "actionId": 140,
        "_flag": 2048,
        "durationToBlack": 0.5,
        "durationKeepBlack": 3.0,
        "inteePos": "",
        "textMapID": "",
        "useTextFade": true,
        "_dialogID": 740840704,
        "needWaitClick": true,
        "_changeAudioState": true
      },
      {
        "$type": "FABLGECDBCH",
        "type": "BODY_LANG",
        "aliasList": [
          "1400"
        ],
        "actionId": 159,
        "isContinue": true,
        "forceDoFreeStyle": true,
        "canDoRepeatFreeStyle": false,
        "cantBackToIdleWhenSitLoop": true,
        "eventPatternSuiteKey": "",
        "FOHHKFAIAAJ": ""
      },
      {
        "$type": "MoleMole.Config.ConfigTeleportToAction",
        "type": "TELEPORT_TO",
        "delayTime": 1.0,
        "aliasList": [
          "Avatar"
        ],
        "actionId": 142,
        "position": {
          "x": 3920.221923828125,
          "y": 503.9909973144531,
          "z": 3407.089111328125
        },
        "forward": {
          "x": 9.097000122070312,
          "y": 1.3899999856948853,
          "z": -1.0800000429153442
        },
        "openLongDisTeleport": true,
        "syncForward": true,
        "_posBindMovingTargetKey": "",
        "_forwardBindMovingTargetKey": ""
      }
    ],
    [
      {
        "$type": "MoleMole.Config.ConfigSimpleBlackScreenAction",
        "type": "SIMPLE_BLACK_SCREEN",
        "actionId": 117,
        "durationToBlack": 0.5,
        "durationKeepBlack": 1.5,
        "durationFromBlack": 0.5,
        "textMapID": ""
      },
      {
        "$type": "MoleMole.Config.ConfigTimeProtectAction",
        "type": "TIME_PROTECT",
        "duration": 1.0,
        "actionId": 141
      },
      {
        "$type": "FJKIHHKJLMJ",
        "type": "CAMERA_MOVE",
        "delayTime": 0.5,
        "duration": 0.10000000149011612,
        "actionId": 125,
        "cameraPosType": "EXIT",
        "camForwardTargetOffset": {
          "z": 1.0
        },
        "camFov": 30.0,
        "lerpPattern": 5,
        "cameraBlendType": "EaseInOutCubic",
        "NJBNNOMLKCK": {},
        "openCameraDither": false,
        "targetNpcAlias": "",
        "closeTreeLeafDither": true,
        "KJOEFBPOIIH": "",
        "IICFKKEBIEC": "",
        "EGEHEJEBLBJ": ""
      },
      {
        "$type": "FABLGECDBCH",
        "type": "BODY_LANG",
        "delayTime": 0.6000000238418579,
        "aliasList": [
          "1400"
        ],
        "actionId": 120,
        "isContinue": true,
        "forceDoFreeStyle": true,
        "canDoRepeatFreeStyle": false,
        "eventPatternSuiteKey": "",
        "FOHHKFAIAAJ": ""
      },
      {
        "$type": "FABLGECDBCH",
        "type": "BODY_LANG",
        "delayTime": 0.6000000238418579,
        "aliasList": [
          "1400"
        ],
        "actionId": 160,
        "isContinue": true,
        "forceDoFreeStyle": true,
        "canDoRepeatFreeStyle": false,
        "eventPatternSuiteKey": "",
        "FOHHKFAIAAJ": ""
      },
      {
        "$type": "FABLGECDBCH",
        "type": "BODY_LANG",
        "delayTime": 0.6000000238418579,
        "aliasList": [
          "21122"
        ],
        "actionId": 162,
        "isContinue": true,
        "forceDoFreeStyle": true,
        "canDoRepeatFreeStyle": false,
        "eventPatternSuiteKey": "",
        "FOHHKFAIAAJ": ""
      }
    ]
  ],
  "groupId": [
    {
      "grpId": 667193979,
      "nextGrpId": 667193980
    },
    {
      "index": 1,
      "grpId": 667193980,
      "nextGrpId": 667193981
    },
    {
      "index": 2,
      "grpId": 667193981,
      "nextGrpId": 667193982
    },
    {
      "index": 3,
      "grpId": 667193982,
      "nextGrpId": 667193983
    },
    {
      "index": 4,
      "grpId": 667193983,
      "nextGrpId": 667193984
    },
    {
      "index": 5,
      "grpId": 667193984,
      "nextGrpId": 667193985
    },
    {
      "index": 6,
      "grpId": 667193985,
      "nextGrpId": 667193986
    }
  ]
}