[
  {
    "condList": [
      {},
      {
        "configId": 114
      },
      {
        "configId": 99
      },
      {
        "generalConditionType": 101
      },
      {
        "generalConditionVal": 80
      },
      {
        "configId": 103
      },
      {
        "configId": 65,
        "generalConditionType": 118
      },
      {
        "configId": 116
      },
      {
        "configId": 114
      },
      {
        "configId": 110
      },
      {
        "generalConditionType": 114
      },
      {
        "configId": 80,
        "generalConditionVal": 67,
        "generalConditionType": 0
      },
      {
        "configId": 0,
        "generalConditionType": 1
      },
      {
        "configId": 0,
        "generalConditionVal": 3,
        "generalConditionType": 4
      },
      {
        "configId": 1
      },
      {
        "configId": 571,
        "generalConditionVal": 1
      },
      {
        "configId": 1042,
        "generalConditionVal": 55,
        "generalConditionType": 71
      },
      {
        "generalConditionVal": 112
      },
      {
        "configId": 104,
        "generalConditionVal": 97
      },
      {
        "generalConditionVal": 97
      },
      {
        "configId": 116,
        "generalConditionVal": 101
      },
      {
        "generalConditionVal": 47
      },
      {
        "configId": 114,
        "generalConditionVal": 112,
        "generalConditionType": 65
      },
      {
        "generalConditionVal": 97,
        "generalConditionType": 116
      },
      {
        "configId": 114
      },
      {
        "configId": 110
      },
      {
        "generalConditionVal": 111,
        "generalConditionType": 47
      },
      {
        "configId": 118
      },
      {
        "configId": 116
      },
      {
        "configId": 114
      },
      {
        "configId": 110
      },
      {
        "generalConditionVal": 111,
        "generalConditionType": 47
      },
      {
        "configId": 114,
        "generalConditionVal": 112,
        "generalConditionType": 73
      },
      {
        "generalConditionVal": 102,
        "generalConditionType": 111
      },
      {
        "configId": 71,
        "generalConditionVal": 114,
        "generalConditionType": 112
      },
      {
        "configId": 99
      },
      {
        "generalConditionType": 105
      },
      {
        "configId": 110,
        "generalConditionVal": 13,
        "generalConditionType": 67
      },
      {},
      {
        "configId": 114
      },
      {
        "configId": 99
      },
      {
        "generalConditionType": 101
      },
      {
        "generalConditionVal": 80
      },
      {
        "configId": 103
      },
      {
        "configId": 0,
        "generalConditionType": 18
      },
      {
        "configId": 73,
        "generalConditionType": 95
      },
      {
        "configId": 85,
        "generalConditionVal": 73,
        "generalConditionType": 68
      },
      {
        "configId": 95,
        "generalConditionType": 73
      },
      {
        "generalConditionVal": 70,
        "generalConditionType": 79
      },
      {
        "configId": 77,
        "generalConditionVal": 79,
        "generalConditionType": 86
      },
      {
        "configId": 0,
        "generalConditionType": 2
      },
      {
        "generalConditionType": 0
      },
      {},
      {},
      {},
      {},
      {
        "configId": 73,
        "generalConditionVal": 110,
        "generalConditionType": 76
      },
      {
        "configId": 118,
        "generalConditionType": 101
      },
      {
        "generalConditionType": 77
      },
      {
        "configId": 105
      },
      {
        "generalConditionVal": 80,
        "generalConditionType": 97
      },
      {
        "configId": 101,
        "generalConditionVal": 1,
        "generalConditionType": 1
      },
      {
        "generalConditionVal": 0
      },
      {
        "configId": 0
      },
      {},
      {},
      {}
    ]
  }
]