{
  "transitions": {
    "shifters": [
      {
        "targetSongId": -53
      },
      {},
      {
        "targetSongId": -33
      },
      {
        "rootConditionId": -49
      },
      {},
      {
        "targetSongId": 57
      },
      {
        "rootConditionId": 54
      },
      {
        "targetSongId": -44
      },
      {
        "targetSongId": 57
      },
      {
        "rootConditionId": -53
      },
      {
        "rootConditionId": -52
      },
      {
        "targetSongId": 55
      },
      {
        "rootConditionId": -56
      },
      {},
      {
        "targetSongId": 0
      },
      {
        "targetSongId": -2
      },
      {
        "targetSongId": 2,
        "rootConditionId": -1
      },
      {
        "targetSongId": 512,
        "rootConditionId": 0
      },
      {},
      {},
      {},
      {},
      {
        "targetSongId": -37
      },
      {
        "targetSongId": -36,
        "rootConditionId": -43
      },
      {
        "targetSongId": 34
      },
      {
        "targetSongId": -48
      },
      {
        "targetSongId": 39
      },
      {
        "rootConditionId": -40
      },
      {
        "targetSongId": 35,
        "rootConditionId": 38
      },
      {
        "targetSongId": -44
      },
      {
        "targetSongId": 41
      },
      {
        "rootConditionId": -37
      },
      {
        "rootConditionId": -36
      },
      {},
      {},
      {},
      {},
      {},
      {
        "targetSongId": -37,
        "rootConditionId": 55
      },
      {},
      {
        "targetSongId": 59
      },
      {
        "targetSongId": 54
      },
      {
        "targetSongId": -49
      },
      {
        "targetSongId": 55
      },
      {},
      {
        "targetSongId": -52
      },
      {
        "targetSongId": 1
      },
      {
        "targetSongId": -16
      },
      {},
      {},
      {
        "targetSongId": 21
      },
      {},
      {
        "targetSongId": 0
      },
      {},
      {},
      {
        "targetSongId": -9
      },
      {
        "targetSongId": -59,
        "rootConditionId": -53
      },
      {},
      {
        "targetSongId": 34
      },
      {
        "targetSongId": -58
      },
      {
        "targetSongId": 49
      },
      {},
      {
        "targetSongId": -37
      },
      {
        "rootConditionId": 56
      },
      {
        "targetSongId": 58
      },
      {},
      {
        "targetSongId": 0
      },
      {
        "rootConditionId": 5
      },
      {},
      {
        "targetSongId": -1,
        "rootConditionId": -1
      },
      {
        "rootConditionId": 0
      }
    ]
  },
  "floatParam": 1.5
}