{
  "luaDataPath": "",
  "entityBan": "",
  "disableNpcLod": true,
  "isAutoBanNpc": true,
  "isBanWidgetPet": true,
  "protectNpcMobileLod": true,
  "startFade": {
    "startFadeOutDuration": 0.0
  },
  "endFade": {
    "startFadeOutDuration": 0.0
  },
  "actors": [
    {
      "alias": "Avatar",
      "visible": true,
      "bornPointName": "",
      "relativePosType": "AVATAR_NEW",
      "relativePosNpcAlias": "",
      "_bindMovingTargetKey": ""
    },
    {
      "configID": 20628,
      "alias": "20628",
      "visible": true,
      "bornPointName": "",
      "removeActorType": "REMOVE",
      "relativePosType": "AVATAR_NEW",
      "relativePosNpcAlias": "",
      "_bindMovingTargetKey": ""
    },
    {
      "configID": 1005,
      "alias": "1005",
      "visible": true,
      "bornPointName": "",
      "removeActorType": "REMOVE_WITH_DISAPPEAR",
      "relativePosType": "AVATAR_NEW",
      "relativePosNpcAlias": "",
      "_bindMovingTargetKey": ""
    },
    {
      "configID": 20661,
      "alias": "20661",
      "visible": true,
      "bornPointName": "",
      "removeActorType": "REMOVE",
      "relativePosType": "AVATAR_NEW",
      "relativePosNpcAlias": "",
      "_bindMovingTargetKey": ""
    },
    {
      "configID": 20662,
      "alias": "20662",
      "visible": true,
      "bornPointName": "",
      "removeActorType": "REMOVE",
      "relativePosType": "AVATAR_NEW",
      "relativePosNpcAlias": "",
      "_bindMovingTargetKey": ""
    }
  ],
  "group": [
    [
      {
        "$type": "FJKIHHKJLMJ",
        "type": "CAMERA_MOVE",
        "duration": 0.7879999876022339,
        "actionId": 159,
        "camPosOffset": {
          "x": -173.6649932861328,
          "y": 231.13400268554688,
          "z": 2285.23291015625
        },
        "camForwardTargetOffset": {
          "x": -173.1820068359375,
          "y": 231.06500244140625,
          "z": 2286.10595703125
        },
        "camFov": 20.0,
        "lerpPattern": 6,
        "cameraBlendType": "EaseInOutCubic",
        "NJBNNOMLKCK": {},
        "needZAxisRotate": true,
        "openCameraDither": false,
        "targetNpcAlias": "",
        "closeTreeLeafDither": true,
        "KJOEFBPOIIH": "",
        "IICFKKEBIEC": "",
        "EGEHEJEBLBJ": ""
      },
      {
        "$type": "MoleMole.Config.ConfigTeleportToAction",
        "type": "TELEPORT_TO",
        "aliasList": [
          "Avatar"
        ],
        "actionId": 301,
        "position": {
          "x": -172.19400024414062,
          "y": 229.62600708007812,
          "z": 2289.6240234375
        },
        "forward": {
          "x": 4.755000114440918,
          "y": 0.4440000057220459,
          "z": 4.789000034332275
        },
        "openLongDisTeleport": true,
        "_posBindMovingTargetKey": "",
        "_forwardBindMovingTargetKey": ""
      },
      {
        "$type": "LJLMDHDCAMK",
        "type": "LOOK_AT",
        "aliasList": [
          "Avatar"
        ],
        "actionId": 307,
        "enableHead": true,
        "useTargetPos": true,
        "enableAbsolute": true,
        "targetPosition": {
          "x": -170.27000427246094,
          "y": 231.23800659179688,
          "z": 2291.339111328125
        },
        "headTurnTime": 0.5,
        "targetNpcAlias": "",
        "lookAtTargetType": "NONE",
        "openBackProtect": true,
        "targetNpcLookAtPoint": "",
        "OAFJBHJHLJG": ""
      },
      {
        "$type": "PKKMAMONGEO",
        "type": "DIALOG",
        "aliasList": [
          "20628"
        ],
        "dialogID": 730614901,
        "protectTime": 0.5
      },
      {
        "$type": "MoleMole.Config.ConfigTeleportToAction",
        "type": "TELEPORT_TO",
        "aliasList": [
          "20628"
        ],
        "actionId": 297,
        "position": {
          "x": -168.42300415039062,
          "y": 230.0030059814453,
          "z": 2293.0419921875
        },
        "forward": {
          "x": -1.0729999542236328,
          "y": 0.009999999776482582,
          "z": -1.0440000295639038
        },
        "openLongDisTeleport": true,
        "_posBindMovingTargetKey": "",
        "_forwardBindMovingTargetKey": ""
      },
      {
        "$type": "FABLGECDBCH",
        "type": "BODY_LANG",
        "aliasList": [
          "20628"
        ],
        "actionId": 310,
        "bodyLangParam": 1172,
        "forceDoFreeStyle": true,
        "canDoRepeatFreeStyle": false,
        "cantBackToIdleWhenSitLoop": true,
        "eventPatternSuiteKey": "",
        "FOHHKFAIAAJ": ""
      },
      {
        "$type": "LJLMDHDCAMK",
        "type": "LOOK_AT",
        "aliasList": [
          "20628"
        ],
        "actionId": 321,
        "enableHead": true,
        "headTurnTime": 0.5,
        "targetNpcAlias": "Avatar",
        "openBackProtect": true,
        "targetNpcLookAtPoint": "",
        "OAFJBHJHLJG": ""
      },
      {
        "$type": "MoleMole.Config.ConfigTeleportToAction",
        "type": "TELEPORT_TO",
        "aliasList": [
          "1005"
        ],
        "actionId": 298,
        "position": {
          "x": -171.59300231933594,
          "y": 229.61700439453125,
          "z": 2289.091064453125
        },
        "forward": {
          "x": 3.252000093460083,
          "y": 0.3659999966621399,
          "z": 4.113999843597412
        },
        "openLongDisTeleport": true,
        "_posBindMovingTargetKey": "",
        "_forwardBindMovingTargetKey": ""
      },
      {
        "$type": "LJLMDHDCAMK",
        "type": "LOOK_AT",
        "aliasList": [
          "1005"
        ],
        "actionId": 302,
        "enableHead": true,
        "useTargetPos": true,
        "enableAbsolute": true,
        "targetPosition": {
          "x": -170.28599548339844,
          "y": 231.07400512695312,
          "z": 2290.634033203125
        },
        "headTurnTime": 0.5,
        "targetNpcAlias": "",
        "lookAtTargetType": "NONE",
        "openBackProtect": true,
        "targetNpcLookAtPoint": "",
        "OAFJBHJHLJG": ""
      },
      {
        "$type": "MoleMole.Config.ConfigTeleportToAction",
        "type": "TELEPORT_TO",
        "aliasList": [
          "20661"
        ],
        "actionId": 299,
        "position": {
          "x": -167.01199340820312,
          "y": 230.02999877929688,
          "z": 2295.948974609375
        },
        "forward": {
          "x": -0.7450000047683716,
          "y": -0.027000000700354576,
          "z": -1.2020000219345093
        },
        "openLongDisTeleport": true,
        "_posBindMovingTargetKey": "",
        "_forwardBindMovingTargetKey": ""
      },
      {
        "$type": "LJLMDHDCAMK",
        "type": "LOOK_AT",
        "aliasList": [
          "20661"
        ],
        "actionId": 315,
        "enableHead": true,
        "useTargetPos": true,
        "enableAbsolute": true,
        "targetPosition": {
          "x": -169.2570037841797,
          "y": 231.75,
          "z": 2293.156005859375
        },
        "headTurnTime": 0.5,
        "targetNpcAlias": "",
        "lookAtTargetType": "NONE",
        "openBackProtect": true,
        "targetNpcLookAtPoint": "",
        "OAFJBHJHLJG": ""
      },
      {
        "$type": "MoleMole.Config.ConfigTeleportToAction",
        "type": "TELEPORT_TO",
        "aliasList": [
          "20662"
        ],
        "actionId": 300,
        "position": {
          "x": -165.8820037841797,
          "y": 230.21099853515625,
          "z": 2294.406005859375
        },
        "forward": {
          "x": -1.1929999589920044,
          "y": 0.0430000014603138,
          "z": -0.7639999985694885
        },
        "openLongDisTeleport": true,
        "_posBindMovingTargetKey": "",
        "_forwardBindMovingTargetKey": ""
      },
      {
        "$type": "LJLMDHDCAMK",
        "type": "LOOK_AT",
        "aliasList": [
          "20662"
        ],
        "actionId": 316,
        "enableHead": true,
        "useTargetPos": true,
        "enableAbsolute": true,
        "targetPosition": {
          "x": -167.77200317382812,
          "y": 231.93099975585938,
          "z": 2292.614990234375
        },
        "headTurnTime": 0.5,
        "targetNpcAlias": "",
        "lookAtTargetType": "NONE",
        "openBackProtect": true,
        "targetNpcLookAtPoint": "",
        "OAFJBHJHLJG": ""
      },
      {
        "$type": "FJKIHHKJLMJ",
        "type": "CAMERA_MOVE",
        "delayTime": 0.10000000149011612,
        "duration": 5.728000164031982,
        "actionId": 163,
        "camPosOffset": {
          "x": -173.5399932861328,
          "y": 231.21400451660156,
          "z": 2285.43408203125
        },
        "camForwardTargetOffset": {
          "x": -173.0570068359375,
          "y": 231.14500427246094,
          "z": 2286.306884765625
        },
        "camFov": 20.0,
        "cameraBlendType": "EaseOutQuad",
        "NJBNNOMLKCK": {},
        "needZAxisRotate": true,
        "openCameraDither": false,
        "targetNpcAlias": "",
        "closeTreeLeafDither": true,
        "KJOEFBPOIIH": "",
        "IICFKKEBIEC": "",
        "EGEHEJEBLBJ": ""
      },
      {
        "$type": "HDGKHDNFMIM",
        "type": "DIALOG_SELECT",
        "delayTime": 0.4000000059604645,
        "aliasList": [
          "Avatar"
        ],
        "dialogIDList": [
          730614902
        ],
        "grpIDList": [
          1313642891
        ],
        "useGrpId": true
      }
    ],
    [
      {
        "$type": "FJKIHHKJLMJ",
        "type": "CAMERA_MOVE",
        "duration": 2.3959999084472656,
        "actionId": 313,
        "camPosOffset": {
          "x": -169.12899780273438,
          "y": 231.4340057373047,
          "z": 2292.261962890625
        },
        "camForwardTargetOffset": {
          "x": -168.46600341796875,
          "y": 231.51800537109375,
          "z": 2293.006103515625
        },
        "camFov": 30.0,
        "lerpPattern": 6,
        "cameraBlendType": "EaseInOutCubic",
        "NJBNNOMLKCK": {},
        "needZAxisRotate": true,
        "openCameraDither": false,
        "targetNpcAlias": "",
        "closeTreeLeafDither": true,
        "KJOEFBPOIIH": "",
        "IICFKKEBIEC": "",
        "EGEHEJEBLBJ": ""
      },
      {
        "$type": "PKKMAMONGEO",
        "type": "DIALOG",
        "aliasList": [
          "20628"
        ],
        "dialogID": 730614903,
        "protectTime": 0.5
      },
      {
        "$type": "FABLGECDBCH",
        "type": "BODY_LANG",
        "aliasList": [
          "20628"
        ],
        "actionId": 166,
        "bodyLangParam": 1180,
        "forceDoFreeStyle": true,
        "canDoRepeatFreeStyle": false,
        "cantBackToIdleWhenSitLoop": true,
        "eventPatternSuiteKey": "",
        "FOHHKFAIAAJ": ""
      },
      {
        "$type": "FABLGECDBCH",
        "type": "BODY_LANG",
        "delayTime": 1.9559999704360962,
        "aliasList": [
          "20628"
        ],
        "actionId": 167,
        "bodyLangParam": 1141,
        "forceDoFreeStyle": true,
        "canDoRepeatFreeStyle": false,
        "cantBackToIdleWhenSitLoop": true,
        "eventPatternSuiteKey": "",
        "FOHHKFAIAAJ": ""
      },
      {
        "$type": "CPJKOIHIPBE",
        "type": "EMO_SYNC",
        "delayTime": 2.00600004196167,
        "aliasList": [
          "20628"
        ],
        "actionId": 312,
        "dataPath": "",
        "phonemePath": "Cs_Emo_NPC_Common/Cs_Emo_NPC_Normal01",
        "emotionPath": "Cs_Emo_NPC_Common/Cs_Emo_NPC_Normal01_B",
        "mateDataPath": "",
        "matePhonemePath": "",
        "mateEmotionPath": "",
        "phonemePathHashList": [
          12803840960998583578,
          3437050431160283015,
          6548526936325855136,
          1274732080047098512
        ],
        "emotionPathHashList": [
          15191155715402440098,
          420038106395935518,
          2651432695756251320,
          4209314551981667660
        ],
        "FMDPBECPELH": "",
        "ADKBLPOKGIK": ""
      },
      {
        "$type": "FJKIHHKJLMJ",
        "type": "CAMERA_MOVE",
        "delayTime": 2.2960000038146973,
        "duration": 1.0,
        "actionId": 314,
        "camPosOffset": {
          "x": -169.52099609375,
          "y": 231.24400329589844,
          "z": 2291.818115234375
        },
        "camForwardTargetOffset": {
          "x": -168.85800170898438,
          "y": 231.3280029296875,
          "z": 2292.56201171875
        },
        "camFov": 30.0,
        "cameraBlendType": "EaseInOutCubic",
        "NJBNNOMLKCK": {},
        "needZAxisRotate": true,
        "openCameraDither": false,
        "targetNpcAlias": "",
        "closeTreeLeafDither": true,
        "KJOEFBPOIIH": "",
        "IICFKKEBIEC": "",
        "EGEHEJEBLBJ": ""
      },
      {
        "$type": "FJKIHHKJLMJ",
        "type": "CAMERA_MOVE",
        "delayTime": 2.885999917984009,
        "duration": 2.746999979019165,
        "actionId": 164,
        "camPosOffset": {
          "x": -169.57200622558594,
          "y": 231.218994140625,
          "z": 2291.760009765625
        },
        "camForwardTargetOffset": {
          "x": -168.90899658203125,
          "y": 231.30299377441406,
          "z": 2292.50390625
        },
        "camFov": 30.0,
        "cameraBlendType": "EaseOutQuad",
        "NJBNNOMLKCK": {},
        "needZAxisRotate": true,
        "openCameraDither": false,
        "targetNpcAlias": "",
        "closeTreeLeafDither": true,
        "KJOEFBPOIIH": "",
        "IICFKKEBIEC": "",
        "EGEHEJEBLBJ": ""
      }
    ],
    [
      {
        "$type": "FJKIHHKJLMJ",
        "type": "CAMERA_MOVE",
        "duration": 0.492000013589859,
        "actionId": 170,
        "camPosOffset": {
          "x": -172.31399536132812,
          "y": 231.0330047607422,
          "z": 2290.4189453125
        },
        "camForwardTargetOffset": {
          "x": -171.99000549316406,
          "y": 230.99099731445312,
          "z": 2289.47412109375
        },
        "camFov": 30.0,
        "lerpPattern": 6,
        "cameraBlendType": "EaseInOutCubic",
        "NJBNNOMLKCK": {},
        "needZAxisRotate": true,
        "openCameraDither": false,
        "targetNpcAlias": "",
        "closeTreeLeafDither": true,
        "KJOEFBPOIIH": "",
        "IICFKKEBIEC": "",
        "EGEHEJEBLBJ": ""
      },
      {
        "$type": "FABLGECDBCH",
        "type": "BODY_LANG",
        "aliasList": [
          "20628"
        ],
        "actionId": 311,
        "bodyLangParam": 1141,
        "forceDoFreeStyle": true,
        "canDoRepeatFreeStyle": false,
        "cantBackToIdleWhenSitLoop": true,
        "eventPatternSuiteKey": "",
        "FOHHKFAIAAJ": ""
      },
      {
        "$type": "PKKMAMONGEO",
        "type": "DIALOG",
        "aliasList": [
          "1005"
        ],
        "dialogID": 730614904,
        "protectTime": 1.2999999523162842
      },
      {
        "$type": "LJLMDHDCAMK",
        "type": "LOOK_AT",
        "aliasList": [
          "1005"
        ],
        "actionId": 303,
        "enableHead": true,
        "useTargetPos": true,
        "enableAbsolute": true,
        "targetPosition": {
          "x": -172.11300659179688,
          "y": 230.98699951171875,
          "z": 2289.635986328125
        },
        "headTurnTime": 0.30000001192092896,
        "targetNpcAlias": "",
        "lookAtTargetType": "NONE",
        "openBackProtect": true,
        "targetNpcLookAtPoint": "",
        "OAFJBHJHLJG": ""
      },
      {
        "$type": "FJKIHHKJLMJ",
        "type": "CAMERA_MOVE",
        "delayTime": 0.10000000149011612,
        "duration": 4.65500020980835,
        "actionId": 185,
        "camPosOffset": {
          "x": -172.28700256347656,
          "y": 231.02999877929688,
          "z": 2290.342041015625
        },
        "camForwardTargetOffset": {
          "x": -171.96299743652344,
          "y": 230.98800659179688,
          "z": 2289.39697265625
        },
        "camFov": 30.0,
        "cameraBlendType": "EaseOutQuad",
        "NJBNNOMLKCK": {},
        "needZAxisRotate": true,
        "openCameraDither": false,
        "targetNpcAlias": "",
        "closeTreeLeafDither": true,
        "KJOEFBPOIIH": "",
        "IICFKKEBIEC": "",
        "EGEHEJEBLBJ": ""
      },
      {
        "$type": "LLGANGLOEEO",
        "type": "STEER_TO",
        "delayTime": 0.29600000381469727,
        "duration": 1.0,
        "aliasList": [
          "1005"
        ],
        "actionId": 173,
        "steerType": "ABSOLUTE",
        "steerDir": {
          "x": -172.2310028076172,
          "y": 229.6540069580078,
          "z": 2289.875
        },
        "useSteerAnim": true,
        "targetNpcAlias": "",
        "OAFJBHJHLJG": ""
      },
      {
        "$type": "CPJKOIHIPBE",
        "type": "EMO_SYNC",
        "delayTime": 0.3149999976158142,
        "aliasList": [
          "Avatar"
        ],
        "actionId": 177,
        "dataPath": "",
        "phonemePath": "Cs_Emo_Avatar_Common/Cs_Emo_Avatar_Normal01",
        "emotionPath": "Cs_Emo_Avatar_Common/Cs_Emo_Avatar_Normal02_B",
        "mateDataPath": "",
        "matePhonemePath": "",
        "mateEmotionPath": "",
        "phonemePathHashList": [
          9445916536337636767,
          14128686126614747219,
          10779105391569104182,
          11659242061757756269
        ],
        "emotionPathHashList": [
          10207524410485606206,
          783930019878876805,
          5913389397642645946,
          16488022828473814120
        ],
        "FMDPBECPELH": "",
        "ADKBLPOKGIK": ""
      },
      {
        "$type": "HDGKHDNFMIM",
        "type": "DIALOG_SELECT",
        "delayTime": 0.4000000059604645,
        "aliasList": [
          "Avatar"
        ],
        "dialogIDList": [
          730614905,
          730614906
        ],
        "grpIDList": [
          1313642893,
          1313642893
        ],
        "useGrpId": true
      },
      {
        "$type": "CPJKOIHIPBE",
        "type": "EMO_SYNC",
        "delayTime": 1.218000054359436,
        "aliasList": [
          "1005"
        ],
        "actionId": 175,
        "dataPath": "",
        "phonemePath": "Cs_Emo_Pet_Common/Cs_Emo_Paimon_None",
        "emotionPath": "Cs_Emo_Pet_Common/Cs_Emo_Paimon_Closed03",
        "mateDataPath": "",
        "matePhonemePath": "",
        "mateEmotionPath": "",
        "enableBlink": false,
        "phonemePathHashList": [
          1796869206626684908,
          2049648015653630001,
          14015965774222061559,
          873259039409222856
        ],
        "emotionPathHashList": [
          14024943221699784354,
          5192239691256507092,
          7755455981309748705,
          10919918414640760733
        ],
        "FMDPBECPELH": "",
        "ADKBLPOKGIK": ""
      },
      {
        "$type": "FABLGECDBCH",
        "type": "BODY_LANG",
        "delayTime": 1.2990000247955322,
        "aliasList": [
          "1005"
        ],
        "actionId": 171,
        "bodyLangParam": 1100,
        "forceDoFreeStyle": true,
        "canDoRepeatFreeStyle": false,
        "cantBackToIdleWhenSitLoop": true,
        "eventPatternSuiteKey": "",
        "FOHHKFAIAAJ": ""
      },
      {
        "$type": "FABLGECDBCH",
        "type": "BODY_LANG",
        "delayTime": 2.5959999561309814,
        "aliasList": [
          "20628"
        ],
        "actionId": 180,
        "isContinue": true,
        "forceDoFreeStyle": true,
        "canDoRepeatFreeStyle": false,
        "cantBackToIdleWhenSitLoop": true,
        "eventPatternSuiteKey": "",
        "FOHHKFAIAAJ": ""
      },
      {
        "$type": "CPJKOIHIPBE",
        "type": "EMO_SYNC",
        "delayTime": 2.8380000591278076,
        "aliasList": [
          "1005"
        ],
        "actionId": 176,
        "dataPath": "",
        "phonemePath": "Cs_Emo_Pet_Common/Cs_Emo_Paimon_None",
        "emotionPath": "Cs_Emo_Pet_Common/Cs_Emo_Paimon_Normal01",
        "mateDataPath": "",
        "matePhonemePath": "",
        "mateEmotionPath": "",
        "phonemePathHashList": [
          1796869206626684908,
          2049648015653630001,
          14015965774222061559,
          873259039409222856
        ],
        "emotionPathHashList": [
          312453201720762420,
          9562322946389574798,
          18422542724361145117,
          17949024460815132449
        ],
        "FMDPBECPELH": "",
        "ADKBLPOKGIK": ""
      },
      {
        "$type": "CPJKOIHIPBE",
        "type": "EMO_SYNC",
        "delayTime": 2.934000015258789,
        "aliasList": [
          "Avatar"
        ],
        "actionId": 304,
        "dataPath": "",
        "phonemePath": "Cs_Emo_Avatar_Common/Cs_Emo_Avatar_Normal01",
        "emotionPath": "Cs_Emo_Avatar_Common/Cs_Emo_Avatar_Normal02_B",
        "mateDataPath": "",
        "matePhonemePath": "",
        "mateEmotionPath": "",
        "phonemePathHashList": [
          9445916536337636767,
          14128686126614747219,
          10779105391569104182,
          11659242061757756269
        ],
        "emotionPathHashList": [
          10207524410485606206,
          783930019878876805,
          5913389397642645946,
          16488022828473814120
        ],
        "FMDPBECPELH": "",
        "ADKBLPOKGIK": ""
      },
      {
        "$type": "FABLGECDBCH",
        "type": "BODY_LANG",
        "delayTime": 4.671999931335449,
        "aliasList": [
          "1005"
        ],
        "actionId": 174,
        "isContinue": true,
        "forceDoFreeStyle": true,
        "canDoRepeatFreeStyle": false,
        "cantBackToIdleWhenSitLoop": true,
        "eventPatternSuiteKey": "",
        "FOHHKFAIAAJ": ""
      }
    ],
    [
      {
        "$type": "FJKIHHKJLMJ",
        "type": "CAMERA_MOVE",
        "duration": 0.6610000133514404,
        "actionId": 178,
        "camPosOffset": {
          "x": -169.14999389648438,
          "y": 232.02699279785156,
          "z": 2292.034912109375
        },
        "camForwardTargetOffset": {
          "x": -168.64700317382812,
          "y": 231.58900451660156,
          "z": 2292.780029296875
        },
        "camFov": 30.0,
        "lerpPattern": 6,
        "cameraBlendType": "EaseInOutCubic",
        "NJBNNOMLKCK": {},
        "needZAxisRotate": true,
        "openCameraDither": false,
        "targetNpcAlias": "",
        "closeTreeLeafDither": true,
        "KJOEFBPOIIH": "",
        "IICFKKEBIEC": "",
        "EGEHEJEBLBJ": ""
      },
      {
        "$type": "PKKMAMONGEO",
        "type": "DIALOG",
        "aliasList": [
          "20628"
        ],
        "dialogID": 730614907,
        "protectTime": 1.0
      },
      {
        "$type": "FABLGECDBCH",
        "type": "BODY_LANG",
        "aliasList": [
          "20628"
        ],
        "actionId": 183,
        "bodyLangParam": 1171,
        "forceDoFreeStyle": true,
        "canDoRepeatFreeStyle": false,
        "cantBackToIdleWhenSitLoop": true,
        "eventPatternSuiteKey": "",
        "FOHHKFAIAAJ": ""
      },
      {
        "$type": "LLGANGLOEEO",
        "type": "STEER_TO",
        "duration": 1.0,
        "aliasList": [
          "1005"
        ],
        "actionId": 181,
        "steerType": "ABSOLUTE",
        "steerDir": {
          "x": -170.15199279785156,
          "y": 229.85499572753906,
          "z": 2290.862060546875
        },
        "useSteerAnim": true,
        "targetNpcAlias": "",
        "OAFJBHJHLJG": ""
      },
      {
        "$type": "FABLGECDBCH",
        "type": "BODY_LANG",
        "aliasList": [
          "1005"
        ],
        "actionId": 186,
        "forceDoFreeStyle": true,
        "canDoRepeatFreeStyle": false,
        "cantBackToIdleWhenSitLoop": true,
        "eventPatternSuiteKey": "",
        "FOHHKFAIAAJ": ""
      },
      {
        "$type": "CPJKOIHIPBE",
        "type": "EMO_SYNC",
        "aliasList": [
          "1005"
        ],
        "actionId": 277,
        "dataPath": "",
        "phonemePath": "Cs_Emo_Pet_Common/Cs_Emo_Paimon_None",
        "emotionPath": "Cs_Emo_Pet_Common/Cs_Emo_Paimon_Normal01",
        "mateDataPath": "",
        "matePhonemePath": "",
        "mateEmotionPath": "",
        "phonemePathHashList": [
          1796869206626684908,
          2049648015653630001,
          14015965774222061559,
          873259039409222856
        ],
        "emotionPathHashList": [
          312453201720762420,
          9562322946389574798,
          18422542724361145117,
          17949024460815132449
        ],
        "FMDPBECPELH": "",
        "ADKBLPOKGIK": ""
      },
      {
        "$type": "FJKIHHKJLMJ",
        "type": "CAMERA_MOVE",
        "delayTime": 0.10000000149011612,
        "duration": 5.38100004196167,
        "actionId": 187,
        "camPosOffset": {
          "x": -169.1199951171875,
          "y": 232.0,
          "z": 2292.080078125
        },
        "camForwardTargetOffset": {
          "x": -168.61700439453125,
          "y": 231.56199645996094,
          "z": 2292.824951171875
        },
        "camFov": 30.0,
        "cameraBlendType": "EaseOutQuad",
        "NJBNNOMLKCK": {},
        "needZAxisRotate": true,
        "openCameraDither": false,
        "targetNpcAlias": "",
        "closeTreeLeafDither": true,
        "KJOEFBPOIIH": "",
        "IICFKKEBIEC": "",
        "EGEHEJEBLBJ": ""
      },
      {
        "$type": "HDGKHDNFMIM",
        "type": "DIALOG_SELECT",
        "delayTime": 0.4000000059604645,
        "aliasList": [
          "Avatar"
        ],
        "dialogIDList": [
          730614908
        ],
        "grpIDList": [
          1313642894
        ],
        "useGrpId": true
      },
      {
        "$type": "FABLGECDBCH",
        "type": "BODY_LANG",
        "delayTime": 5.603000164031982,
        "aliasList": [
          "20628"
        ],
        "actionId": 188,
        "isContinue": true,
        "forceDoFreeStyle": true,
        "canDoRepeatFreeStyle": false,
        "cantBackToIdleWhenSitLoop": true,
        "eventPatternSuiteKey": "",
        "FOHHKFAIAAJ": ""
      }
    ],
    [
      {
        "$type": "FJKIHHKJLMJ",
        "type": "CAMERA_MOVE",
        "duration": 1.0,
        "actionId": 184,
        "camPosOffset": {
          "x": -173.15499877929688,
          "y": 230.8730010986328,
          "z": 2288.14208984375
        },
        "camForwardTargetOffset": {
          "x": -172.50799560546875,
          "y": 230.906005859375,
          "z": 2288.904052734375
        },
        "camFov": 30.0,
        "lerpPattern": 6,
        "cameraBlendType": "EaseInOutCubic",
        "NJBNNOMLKCK": {},
        "needZAxisRotate": true,
        "openCameraDither": false,
        "targetNpcAlias": "",
        "closeTreeLeafDither": true,
        "KJOEFBPOIIH": "",
        "IICFKKEBIEC": "",
        "EGEHEJEBLBJ": ""
      },
      {
        "$type": "PKKMAMONGEO",
        "type": "DIALOG",
        "aliasList": [
          "20628"
        ],
        "dialogID": 730614909,
        "protectTime": 0.5
      },
      {
        "$type": "FABLGECDBCH",
        "type": "BODY_LANG",
        "aliasList": [
          "20628"
        ],
        "actionId": 189,
        "isContinue": true,
        "forceDoFreeStyle": true,
        "canDoRepeatFreeStyle": false,
        "cantBackToIdleWhenSitLoop": true,
        "eventPatternSuiteKey": "",
        "FOHHKFAIAAJ": ""
      },
      {
        "$type": "LJLMDHDCAMK",
        "type": "LOOK_AT",
        "aliasList": [
          "1005"
        ],
        "actionId": 306,
        "enableHead": true,
        "useTargetPos": true,
        "enableAbsolute": true,
        "targetPosition": {
          "x": -170.06700134277344,
          "y": 231.0919952392578,
          "z": 2290.9140625
        },
        "headTurnTime": 0.5,
        "targetNpcAlias": "",
        "lookAtTargetType": "NONE",
        "openBackProtect": true,
        "targetNpcLookAtPoint": "",
        "OAFJBHJHLJG": ""
      },
      {
        "$type": "FJKIHHKJLMJ",
        "type": "CAMERA_MOVE",
        "delayTime": 0.10000000149011612,
        "duration": 12.569999694824219,
        "actionId": 190,
        "camPosOffset": {
          "x": -173.7570037841797,
          "y": 230.8730010986328,
          "z": 2288.87109375
        },
        "camForwardTargetOffset": {
          "x": -172.88600158691406,
          "y": 230.906005859375,
          "z": 2289.362060546875
        },
        "camFov": 30.0,
        "cameraBlendType": "EaseInOutQuad",
        "NJBNNOMLKCK": {},
        "needZAxisRotate": true,
        "openCameraDither": false,
        "targetNpcAlias": "",
        "closeTreeLeafDither": true,
        "KJOEFBPOIIH": "",
        "IICFKKEBIEC": "",
        "EGEHEJEBLBJ": ""
      },
      {
        "$type": "FABLGECDBCH",
        "type": "BODY_LANG",
        "delayTime": 0.3479999899864197,
        "aliasList": [
          "20628"
        ],
        "actionId": 292,
        "bodyLangParam": 1180,
        "forceDoFreeStyle": true,
        "canDoRepeatFreeStyle": false,
        "cantBackToIdleWhenSitLoop": true,
        "eventPatternSuiteKey": "",
        "FOHHKFAIAAJ": ""
      },
      {
        "$type": "HDGKHDNFMIM",
        "type": "DIALOG_SELECT",
        "delayTime": 0.4000000059604645,
        "aliasList": [
          "Avatar"
        ],
        "dialogIDList": [
          730614910,
          730614911,
          730614912
        ],
        "grpIDList": [
          1313642895,
          1313642895,
          1313642895
        ],
        "useGrpId": true
      },
      {
        "$type": "FABLGECDBCH",
        "type": "BODY_LANG",
        "delayTime": 9.331000328063965,
        "aliasList": [
          "20628"
        ],
        "actionId": 290,
        "isContinue": true,
        "forceDoFreeStyle": true,
        "canDoRepeatFreeStyle": false,
        "cantBackToIdleWhenSitLoop": true,
        "eventPatternSuiteKey": "",
        "FOHHKFAIAAJ": ""
      }
    ],
    [
      {
        "$type": "FJKIHHKJLMJ",
        "type": "CAMERA_MOVE",
        "duration": 1.0,
        "actionId": 193,
        "camPosOffset": {
          "x": -169.48899841308594,
          "y": 231.4530029296875,
          "z": 2292.12890625
        },
        "camForwardTargetOffset": {
          "x": -168.7449951171875,
          "y": 231.4499969482422,
          "z": 2292.797119140625
        },
        "camFov": 30.0,
        "lerpPattern": 6,
        "cameraBlendType": "EaseInOutCubic",
        "NJBNNOMLKCK": {},
        "needZAxisRotate": true,
        "openCameraDither": false,
        "targetNpcAlias": "",
        "closeTreeLeafDither": true,
        "KJOEFBPOIIH": "",
        "IICFKKEBIEC": "",
        "EGEHEJEBLBJ": ""
      },
      {
        "$type": "PKKMAMONGEO",
        "type": "DIALOG",
        "aliasList": [
          "20628"
        ],
        "dialogID": 730614913,
        "protectTime": 0.5
      },
      {
        "$type": "FABLGECDBCH",
        "type": "BODY_LANG",
        "aliasList": [
          "20628"
        ],
        "actionId": 291,
        "isContinue": true,
        "forceDoFreeStyle": true,
        "canDoRepeatFreeStyle": false,
        "cantBackToIdleWhenSitLoop": true,
        "eventPatternSuiteKey": "",
        "FOHHKFAIAAJ": ""
      }
    ],
    [
      {
        "$type": "PKKMAMONGEO",
        "type": "DIALOG",
        "aliasList": [
          "20628"
        ],
        "dialogID": 730614914,
        "protectTime": 0.5
      },
      {
        "$type": "FABLGECDBCH",
        "type": "BODY_LANG",
        "aliasList": [
          "20628"
        ],
        "actionId": 200,
        "bodyLangParam": 9000,
        "forceDoFreeStyle": true,
        "canDoRepeatFreeStyle": false,
        "cantBackToIdleWhenSitLoop": true,
        "eventPatternSuiteKey": "",
        "FOHHKFAIAAJ": ""
      },
      {
        "$type": "HDGKHDNFMIM",
        "type": "DIALOG_SELECT",
        "delayTime": 0.4000000059604645,
        "aliasList": [
          "Avatar"
        ],
        "dialogIDList": [
          730614915,
          730614916
        ],
        "grpIDList": [
          1313642897,
          1313642897
        ],
        "useGrpId": true
      },
      {
        "$type": "FABLGECDBCH",
        "type": "BODY_LANG",
        "delayTime": 6.3460001945495605,
        "aliasList": [
          "20628"
        ],
        "actionId": 201,
        "isContinue": true,
        "forceDoFreeStyle": true,
        "canDoRepeatFreeStyle": false,
        "cantBackToIdleWhenSitLoop": true,
        "eventPatternSuiteKey": "",
        "FOHHKFAIAAJ": ""
      }
    ],
    [
      {
        "$type": "FJKIHHKJLMJ",
        "type": "CAMERA_MOVE",
        "duration": 3.4570000171661377,
        "actionId": 285,
        "camPosOffset": {
          "x": -171.73599243164062,
          "y": 231.10299682617188,
          "z": 2292.305908203125
        },
        "camForwardTargetOffset": {
          "x": -170.80599975585938,
          "y": 231.0850067138672,
          "z": 2292.672119140625
        },
        "camFov": 30.0,
        "lerpPattern": 6,
        "cameraBlendType": "EaseInOutCubic",
        "NJBNNOMLKCK": {},
        "needZAxisRotate": true,
        "openCameraDither": false,
        "targetNpcAlias": "",
        "closeTreeLeafDither": true,
        "KJOEFBPOIIH": "",
        "IICFKKEBIEC": "",
        "EGEHEJEBLBJ": ""
      },
      {
        "$type": "PKKMAMONGEO",
        "type": "DIALOG",
        "aliasList": [
          "20628"
        ],
        "dialogID": 730614917,
        "protectTime": 0.5
      },
      {
        "$type": "FABLGECDBCH",
        "type": "BODY_LANG",
        "aliasList": [
          "20628"
        ],
        "actionId": 202,
        "isContinue": true,
        "forceDoFreeStyle": true,
        "canDoRepeatFreeStyle": false,
        "cantBackToIdleWhenSitLoop": true,
        "eventPatternSuiteKey": "",
        "FOHHKFAIAAJ": ""
      },
      {
        "$type": "FABLGECDBCH",
        "type": "BODY_LANG",
        "delayTime": 0.21799999475479126,
        "aliasList": [
          "20628"
        ],
        "actionId": 287,
        "bodyLangParam": 1171,
        "forceDoFreeStyle": true,
        "canDoRepeatFreeStyle": false,
        "cantBackToIdleWhenSitLoop": true,
        "eventPatternSuiteKey": "",
        "FOHHKFAIAAJ": ""
      },
      {
        "$type": "HDGKHDNFMIM",
        "type": "DIALOG_SELECT",
        "delayTime": 0.4000000059604645,
        "aliasList": [
          "Avatar"
        ],
        "dialogIDList": [
          730614918
        ],
        "grpIDList": [
          1313642898
        ],
        "useGrpId": true
      },
      {
        "$type": "LLGANGLOEEO",
        "type": "STEER_TO",
        "delayTime": 3.3269999027252197,
        "duration": 1.0,
        "aliasList": [
          "20628"
        ],
        "actionId": 205,
        "steerType": "ABSOLUTE",
        "steerDir": {
          "x": -167.56700134277344,
          "y": 230.06199645996094,
          "z": 2293.97705078125
        },
        "useSteerAnim": true,
        "targetNpcAlias": "",
        "OAFJBHJHLJG": ""
      },
      {
        "$type": "FJKIHHKJLMJ",
        "type": "CAMERA_MOVE",
        "delayTime": 3.4709999561309814,
        "duration": 3.6389999389648438,
        "actionId": 203,
        "camPosOffset": {
          "x": -164.94200134277344,
          "y": 232.2100067138672,
          "z": 2297.468994140625
        },
        "camForwardTargetOffset": {
          "x": -165.4720001220703,
          "y": 231.9929962158203,
          "z": 2296.64892578125
        },
        "camFov": 30.0,
        "lerpPattern": 6,
        "cameraBlendType": "EaseInOutCubic",
        "NJBNNOMLKCK": {},
        "needZAxisRotate": true,
        "openCameraDither": false,
        "targetNpcAlias": "",
        "closeTreeLeafDither": true,
        "KJOEFBPOIIH": "",
        "IICFKKEBIEC": "",
        "EGEHEJEBLBJ": ""
      },
      {
        "$type": "FABLGECDBCH",
        "type": "BODY_LANG",
        "delayTime": 7.794000148773193,
        "aliasList": [
          "20628"
        ],
        "actionId": 288,
        "isContinue": true,
        "forceDoFreeStyle": true,
        "canDoRepeatFreeStyle": false,
        "cantBackToIdleWhenSitLoop": true,
        "eventPatternSuiteKey": "",
        "FOHHKFAIAAJ": ""
      }
    ],
    [
      {
        "$type": "FJKIHHKJLMJ",
        "type": "CAMERA_MOVE",
        "duration": 3.74399995803833,
        "actionId": 207,
        "camPosOffset": {
          "x": -167.88099670410156,
          "y": 231.6999969482422,
          "z": 2294.035888671875
        },
        "camForwardTargetOffset": {
          "x": -168.4409942626953,
          "y": 231.5330047607422,
          "z": 2293.22509765625
        },
        "camFov": 20.0,
        "lerpPattern": 6,
        "cameraBlendType": "EaseInOutCubic",
        "NJBNNOMLKCK": {},
        "needZAxisRotate": true,
        "openCameraDither": false,
        "targetNpcAlias": "",
        "closeTreeLeafDither": true,
        "KJOEFBPOIIH": "",
        "IICFKKEBIEC": "",
        "EGEHEJEBLBJ": ""
      },
      {
        "$type": "PKKMAMONGEO",
        "type": "DIALOG",
        "aliasList": [
          "20628"
        ],
        "dialogID": 730614919,
        "protectTime": 2.0
      },
      {
        "$type": "FABLGECDBCH",
        "type": "BODY_LANG",
        "aliasList": [
          "20628"
        ],
        "actionId": 289,
        "isContinue": true,
        "forceDoFreeStyle": true,
        "canDoRepeatFreeStyle": false,
        "cantBackToIdleWhenSitLoop": true,
        "eventPatternSuiteKey": "",
        "FOHHKFAIAAJ": ""
      },
      {
        "$type": "LLGANGLOEEO",
        "type": "STEER_TO",
        "delayTime": 0.20100000500679016,
        "duration": 1.0,
        "aliasList": [
          "20628"
        ],
        "actionId": 213,
        "steerType": "ABSOLUTE",
        "steerDir": {
          "x": -167.56700134277344,
          "y": 230.06199645996094,
          "z": 2293.97705078125
        },
        "useSteerAnim": true,
        "targetNpcAlias": "",
        "OAFJBHJHLJG": ""
      },
      {
        "$type": "HDGKHDNFMIM",
        "type": "DIALOG_SELECT",
        "delayTime": 0.4000000059604645,
        "aliasList": [
          "Avatar"
        ],
        "dialogIDList": [
          730614920
        ],
        "grpIDList": [
          2068223974
        ],
        "useGrpId": true
      },
      {
        "$type": "CPJKOIHIPBE",
        "type": "EMO_SYNC",
        "delayTime": 1.1399999856948853,
        "aliasList": [
          "20628"
        ],
        "actionId": 212,
        "dataPath": "",
        "phonemePath": "Cs_Emo_NPC_Common/Cs_Emo_NPC_Normal01",
        "emotionPath": "Cs_Emo_NPC_Common/Cs_Emo_NPC_Doubt02_B",
        "mateDataPath": "",
        "matePhonemePath": "",
        "mateEmotionPath": "",
        "phonemePathHashList": [
          12803840960998583578,
          3437050431160283015,
          6548526936325855136,
          1274732080047098512
        ],
        "emotionPathHashList": [
          6240599091524623970,
          1410088969418930897,
          1926421492322213459,
          8858805761522143034
        ],
        "FMDPBECPELH": "",
        "ADKBLPOKGIK": ""
      },
      {
        "$type": "EMEHNEMOMMM",
        "type": "LOOK_AT_EYECTRL",
        "delayTime": 1.1649999618530273,
        "aliasList": [
          "20628"
        ],
        "actionId": 211,
        "useTargetPos": false,
        "eyeRotateVecLeft": {
          "y": -20.0,
          "z": 10.0
        },
        "eyeRotateVecRight": {
          "y": 20.0,
          "z": 10.0
        },
        "turnTime": 1.0,
        "targetNpcAlias": "",
        "targetPoint": "Face"
      },
      {
        "$type": "LJLMDHDCAMK",
        "type": "LOOK_AT",
        "delayTime": 1.2760000228881836,
        "aliasList": [
          "20628"
        ],
        "actionId": 210,
        "enableHead": true,
        "useTargetPos": true,
        "enableAbsolute": true,
        "targetPosition": {
          "x": -168.32400512695312,
          "y": 231.28599548339844,
          "z": 2293.904052734375
        },
        "headTurnTime": 0.5,
        "targetNpcAlias": "",
        "lookAtTargetType": "NONE",
        "openBackProtect": true,
        "targetNpcLookAtPoint": "",
        "OAFJBHJHLJG": ""
      }
    ],
    [
      {
        "$type": "FJKIHHKJLMJ",
        "type": "CAMERA_MOVE",
        "duration": 3.240999937057495,
        "actionId": 214,
        "camPosOffset": {
          "x": -173.26699829101562,
          "y": 230.81199645996094,
          "z": 2289.011962890625
        },
        "camForwardTargetOffset": {
          "x": -172.45799255371094,
          "y": 230.94700622558594,
          "z": 2289.583984375
        },
        "camFov": 20.0,
        "lerpPattern": 6,
        "cameraBlendType": "EaseInOutCubic",
        "NJBNNOMLKCK": {},
        "needZAxisRotate": true,
        "openCameraDither": false,
        "targetNpcAlias": "",
        "closeTreeLeafDither": true,
        "KJOEFBPOIIH": "",
        "IICFKKEBIEC": "",
        "EGEHEJEBLBJ": ""
      },
      {
        "$type": "PKKMAMONGEO",
        "type": "DIALOG",
        "aliasList": [
          "20628"
        ],
        "dialogID": 730614921,
        "protectTime": 0.5
      },
      {
        "$type": "LJLMDHDCAMK",
        "type": "LOOK_AT",
        "aliasList": [
          "20628"
        ],
        "actionId": 215,
        "enableHead": true,
        "useTargetPos": true,
        "enableAbsolute": true,
        "targetPosition": {
          "x": -168.63900756835938,
          "y": 231.51800537109375,
          "z": 2293.39892578125
        },
        "headTurnTime": 0.5,
        "targetNpcAlias": "",
        "lookAtTargetType": "NONE",
        "openBackProtect": true,
        "targetNpcLookAtPoint": "",
        "OAFJBHJHLJG": ""
      },
      {
        "$type": "FABLGECDBCH",
        "type": "BODY_LANG",
        "delayTime": 0.527999997138977,
        "aliasList": [
          "20628"
        ],
        "actionId": 217,
        "bodyLangParam": 1172,
        "forceDoFreeStyle": true,
        "canDoRepeatFreeStyle": false,
        "cantBackToIdleWhenSitLoop": true,
        "eventPatternSuiteKey": "",
        "FOHHKFAIAAJ": ""
      },
      {
        "$type": "FABLGECDBCH",
        "type": "BODY_LANG",
        "delayTime": 4.109000205993652,
        "aliasList": [
          "20628"
        ],
        "actionId": 218,
        "isContinue": true,
        "forceDoFreeStyle": true,
        "canDoRepeatFreeStyle": false,
        "cantBackToIdleWhenSitLoop": true,
        "eventPatternSuiteKey": "",
        "FOHHKFAIAAJ": ""
      }
    ],
    [
      {
        "$type": "FJKIHHKJLMJ",
        "type": "CAMERA_MOVE",
        "duration": 2.2300000190734863,
        "actionId": 216,
        "camPosOffset": {
          "x": -171.56900024414062,
          "y": 231.1020050048828,
          "z": 2290.720947265625
        },
        "camForwardTargetOffset": {
          "x": -171.593994140625,
          "y": 230.9530029296875,
          "z": 2289.73193359375
        },
        "camFov": 20.0,
        "lerpPattern": 6,
        "cameraBlendType": "EaseInOutCubic",
        "NJBNNOMLKCK": {},
        "needZAxisRotate": true,
        "openCameraDither": false,
        "targetNpcAlias": "",
        "closeTreeLeafDither": true,
        "KJOEFBPOIIH": "",
        "IICFKKEBIEC": "",
        "EGEHEJEBLBJ": ""
      },
      {
        "$type": "FABLGECDBCH",
        "type": "BODY_LANG",
        "aliasList": [
          "20628"
        ],
        "actionId": 219,
        "isContinue": true,
        "forceDoFreeStyle": true,
        "canDoRepeatFreeStyle": false,
        "cantBackToIdleWhenSitLoop": true,
        "eventPatternSuiteKey": "",
        "FOHHKFAIAAJ": ""
      },
      {
        "$type": "PKKMAMONGEO",
        "type": "DIALOG",
        "aliasList": [
          "1005"
        ],
        "dialogID": 730614922,
        "protectTime": 0.5
      },
      {
        "$type": "FABLGECDBCH",
        "type": "BODY_LANG",
        "delayTime": 0.36000001430511475,
        "aliasList": [
          "1005"
        ],
        "actionId": 221,
        "bodyLangParam": 1110,
        "forceDoFreeStyle": true,
        "canDoRepeatFreeStyle": false,
        "cantBackToIdleWhenSitLoop": true,
        "eventPatternSuiteKey": "",
        "FOHHKFAIAAJ": ""
      },
      {
        "$type": "FABLGECDBCH",
        "type": "BODY_LANG",
        "delayTime": 2.1510000228881836,
        "aliasList": [
          "1005"
        ],
        "actionId": 222,
        "bodyLangParam": 1120,
        "forceDoFreeStyle": true,
        "canDoRepeatFreeStyle": false,
        "cantBackToIdleWhenSitLoop": true,
        "eventPatternSuiteKey": "",
        "FOHHKFAIAAJ": ""
      },
      {
        "$type": "FJKIHHKJLMJ",
        "type": "CAMERA_MOVE",
        "delayTime": 2.200000047683716,
        "duration": 1.0,
        "actionId": 225,
        "camPosOffset": {
          "x": -171.53399658203125,
          "y": 231.03700256347656,
          "z": 2290.05908203125
        },
        "camForwardTargetOffset": {
          "x": -171.5590057373047,
          "y": 230.88699340820312,
          "z": 2289.071044921875
        },
        "camFov": 20.0,
        "cameraBlendType": "EaseInOutCubic",
        "NJBNNOMLKCK": {},
        "needZAxisRotate": true,
        "openCameraDither": false,
        "targetNpcAlias": "",
        "closeTreeLeafDither": true,
        "KJOEFBPOIIH": "",
        "IICFKKEBIEC": "",
        "EGEHEJEBLBJ": ""
      },
      {
        "$type": "CPJKOIHIPBE",
        "type": "EMO_SYNC",
        "delayTime": 2.5829999446868896,
        "aliasList": [
          "1005"
        ],
        "actionId": 283,
        "dataPath": "",
        "phonemePath": "Cs_Emo_Pet_Common/Cs_Emo_Paimon_None",
        "emotionPath": "Cs_Emo_Pet_Common/Cs_Emo_Paimon_Normal01_B",
        "mateDataPath": "",
        "matePhonemePath": "",
        "mateEmotionPath": "",
        "phonemePathHashList": [
          1796869206626684908,
          2049648015653630001,
          14015965774222061559,
          873259039409222856
        ],
        "emotionPathHashList": [
          14892026956990897578,
          7647528750435710781,
          2171559387429051042,
          15358483104891988261
        ],
        "FMDPBECPELH": "",
        "ADKBLPOKGIK": ""
      },
      {
        "$type": "FJKIHHKJLMJ",
        "type": "CAMERA_MOVE",
        "delayTime": 3.0480000972747803,
        "duration": 3.2139999866485596,
        "actionId": 223,
        "camPosOffset": {
          "x": -171.5260009765625,
          "y": 231.02099609375,
          "z": 2289.902099609375
        },
        "camForwardTargetOffset": {
          "x": -171.55099487304688,
          "y": 230.8719940185547,
          "z": 2288.9140625
        },
        "camFov": 20.0,
        "cameraBlendType": "EaseOutQuad",
        "NJBNNOMLKCK": {},
        "needZAxisRotate": true,
        "openCameraDither": false,
        "targetNpcAlias": "",
        "closeTreeLeafDither": true,
        "KJOEFBPOIIH": "",
        "IICFKKEBIEC": "",
        "EGEHEJEBLBJ": ""
      },
      {
        "$type": "FABLGECDBCH",
        "type": "BODY_LANG",
        "delayTime": 6.2220001220703125,
        "aliasList": [
          "1005"
        ],
        "actionId": 229,
        "isContinue": true,
        "forceDoFreeStyle": true,
        "canDoRepeatFreeStyle": false,
        "cantBackToIdleWhenSitLoop": true,
        "eventPatternSuiteKey": "",
        "FOHHKFAIAAJ": ""
      }
    ],
    [
      {
        "$type": "FJKIHHKJLMJ",
        "type": "CAMERA_MOVE",
        "duration": 4.006999969482422,
        "actionId": 226,
        "camPosOffset": {
          "x": -168.13499450683594,
          "y": 231.50599670410156,
          "z": 2293.72412109375
        },
        "camForwardTargetOffset": {
          "x": -168.7239990234375,
          "y": 231.38900756835938,
          "z": 2292.924072265625
        },
        "camFov": 20.0,
        "lerpPattern": 6,
        "cameraBlendType": "EaseOutQuad",
        "NJBNNOMLKCK": {},
        "needZAxisRotate": true,
        "openCameraDither": false,
        "targetNpcAlias": "",
        "closeTreeLeafDither": true,
        "KJOEFBPOIIH": "",
        "IICFKKEBIEC": "",
        "EGEHEJEBLBJ": ""
      },
      {
        "$type": "PKKMAMONGEO",
        "type": "DIALOG",
        "aliasList": [
          "20628"
        ],
        "dialogID": 730614923,
        "protectTime": 0.5
      },
      {
        "$type": "CPJKOIHIPBE",
        "type": "EMO_SYNC",
        "aliasList": [
          "20628"
        ],
        "actionId": 280,
        "dataPath": "",
        "phonemePath": "Cs_Emo_NPC_Common/Cs_Emo_NPC_Normal01",
        "emotionPath": "Cs_Emo_NPC_Common/Cs_Emo_NPC_Normal01_B",
        "mateDataPath": "",
        "matePhonemePath": "",
        "mateEmotionPath": "",
        "phonemePathHashList": [
          12803840960998583578,
          3437050431160283015,
          6548526936325855136,
          1274732080047098512
        ],
        "emotionPathHashList": [
          15191155715402440098,
          420038106395935518,
          2651432695756251320,
          4209314551981667660
        ],
        "FMDPBECPELH": "",
        "ADKBLPOKGIK": ""
      },
      {
        "$type": "FABLGECDBCH",
        "type": "BODY_LANG",
        "aliasList": [
          "1005"
        ],
        "actionId": 230,
        "isContinue": true,
        "forceDoFreeStyle": true,
        "canDoRepeatFreeStyle": false,
        "cantBackToIdleWhenSitLoop": true,
        "eventPatternSuiteKey": "",
        "FOHHKFAIAAJ": ""
      },
      {
        "$type": "LJLMDHDCAMK",
        "type": "LOOK_AT",
        "delayTime": 0.1809999942779541,
        "aliasList": [
          "20628"
        ],
        "actionId": 296,
        "enableHead": true,
        "useTargetPos": true,
        "enableAbsolute": true,
        "targetPosition": {
          "x": -169.70399475097656,
          "y": 231.08900451660156,
          "z": 2293.16796875
        },
        "headTurnTime": 0.5,
        "targetNpcAlias": "",
        "lookAtTargetType": "NONE",
        "openBackProtect": true,
        "targetNpcLookAtPoint": "",
        "OAFJBHJHLJG": ""
      },
      {
        "$type": "HDGKHDNFMIM",
        "type": "DIALOG_SELECT",
        "delayTime": 0.4000000059604645,
        "aliasList": [
          "Avatar"
        ],
        "dialogIDList": [
          730614924,
          730614926
        ],
        "grpIDList": [
          2068223977,
          2068223978
        ],
        "useGrpId": true
      }
    ],
    [
      {
        "$type": "FJKIHHKJLMJ",
        "type": "CAMERA_MOVE",
        "duration": 3.4600000381469727,
        "actionId": 231,
        "camPosOffset": {
          "x": -171.31900024414062,
          "y": 230.51400756835938,
          "z": 2290.47705078125
        },
        "camForwardTargetOffset": {
          "x": -171.49200439453125,
          "y": 230.78700256347656,
          "z": 2289.531005859375
        },
        "camFov": 20.0,
        "lerpPattern": 6,
        "cameraBlendType": "EaseInOutCubic",
        "NJBNNOMLKCK": {},
        "needZAxisRotate": true,
        "openCameraDither": false,
        "targetNpcAlias": "",
        "closeTreeLeafDither": true,
        "KJOEFBPOIIH": "",
        "IICFKKEBIEC": "",
        "EGEHEJEBLBJ": ""
      },
      {
        "$type": "PKKMAMONGEO",
        "type": "DIALOG",
        "aliasList": [
          "1005"
        ],
        "dialogID": 730614925,
        "protectTime": 0.5
      },
      {
        "$type": "FABLGECDBCH",
        "type": "BODY_LANG",
        "aliasList": [
          "1005"
        ],
        "actionId": 233,
        "bodyLangParam": 1260,
        "forceDoFreeStyle": true,
        "canDoRepeatFreeStyle": false,
        "cantBackToIdleWhenSitLoop": true,
        "eventPatternSuiteKey": "",
        "FOHHKFAIAAJ": ""
      },
      {
        "$type": "FABLGECDBCH",
        "type": "BODY_LANG",
        "delayTime": 3.565000057220459,
        "aliasList": [
          "1005"
        ],
        "actionId": 234,
        "isContinue": true,
        "forceDoFreeStyle": true,
        "canDoRepeatFreeStyle": false,
        "cantBackToIdleWhenSitLoop": true,
        "eventPatternSuiteKey": "",
        "FOHHKFAIAAJ": ""
      }
    ],
    [
      {
        "$type": "PKKMAMONGEO",
        "type": "DIALOG",
        "aliasList": [
          "1005"
        ],
        "dialogID": 730614927,
        "protectTime": 0.5
      },
      {
        "$type": "FABLGECDBCH",
        "type": "BODY_LANG",
        "aliasList": [
          "1005"
        ],
        "actionId": 235,
        "isContinue": true,
        "forceDoFreeStyle": true,
        "canDoRepeatFreeStyle": false,
        "cantBackToIdleWhenSitLoop": true,
        "eventPatternSuiteKey": "",
        "FOHHKFAIAAJ": ""
      },
      {
        "$type": "FABLGECDBCH",
        "type": "BODY_LANG",
        "delayTime": 0.17499999701976776,
        "aliasList": [
          "1005"
        ],
        "actionId": 237,
        "bodyLangParam": 1270,
        "forceDoFreeStyle": true,
        "canDoRepeatFreeStyle": false,
        "cantBackToIdleWhenSitLoop": true,
        "eventPatternSuiteKey": "",
        "FOHHKFAIAAJ": ""
      },
      {
        "$type": "FABLGECDBCH",
        "type": "BODY_LANG",
        "delayTime": 2.196000099182129,
        "aliasList": [
          "1005"
        ],
        "actionId": 240,
        "bodyLangParam": 1180,
        "forceDoFreeStyle": true,
        "canDoRepeatFreeStyle": false,
        "cantBackToIdleWhenSitLoop": true,
        "eventPatternSuiteKey": "",
        "FOHHKFAIAAJ": ""
      },
      {
        "$type": "FABLGECDBCH",
        "type": "BODY_LANG",
        "delayTime": 4.9029998779296875,
        "aliasList": [
          "1005"
        ],
        "actionId": 241,
        "isContinue": true,
        "forceDoFreeStyle": true,
        "canDoRepeatFreeStyle": false,
        "cantBackToIdleWhenSitLoop": true,
        "eventPatternSuiteKey": "",
        "FOHHKFAIAAJ": ""
      }
    ],
    [
      {
        "$type": "FJKIHHKJLMJ",
        "type": "CAMERA_MOVE",
        "duration": 3.2960000038146973,
        "actionId": 238,
        "camPosOffset": {
          "x": -168.13499450683594,
          "y": 231.593994140625,
          "z": 2293.708984375
        },
        "camForwardTargetOffset": {
          "x": -168.66000366210938,
          "y": 231.53700256347656,
          "z": 2292.860107421875
        },
        "camFov": 30.0,
        "lerpPattern": 6,
        "cameraBlendType": "EaseInOutCubic",
        "NJBNNOMLKCK": {},
        "needZAxisRotate": true,
        "openCameraDither": false,
        "targetNpcAlias": "",
        "closeTreeLeafDither": true,
        "KJOEFBPOIIH": "",
        "IICFKKEBIEC": "",
        "EGEHEJEBLBJ": ""
      },
      {
        "$type": "PKKMAMONGEO",
        "type": "DIALOG",
        "aliasList": [
          "20628"
        ],
        "dialogID": 730614928,
        "protectTime": 1.0
      },
      {
        "$type": "LJLMDHDCAMK",
        "type": "LOOK_AT",
        "aliasList": [
          "20628"
        ],
        "actionId": 239,
        "enableHead": true,
        "useTargetPos": true,
        "enableAbsolute": true,
        "targetPosition": {
          "x": -168.14700317382812,
          "y": 231.44400024414062,
          "z": 2293.4189453125
        },
        "headTurnTime": 0.5,
        "targetNpcAlias": "",
        "lookAtTargetType": "NONE",
        "openBackProtect": true,
        "targetNpcLookAtPoint": "",
        "OAFJBHJHLJG": ""
      },
      {
        "$type": "CPJKOIHIPBE",
        "type": "EMO_SYNC",
        "aliasList": [
          "20628"
        ],
        "actionId": 243,
        "dataPath": "",
        "phonemePath": "Cs_Emo_NPC_Common/Cs_Emo_NPC_Normal01",
        "emotionPath": "Cs_Emo_NPC_Common/Cs_Emo_NPC_Sad01_B",
        "mateDataPath": "",
        "matePhonemePath": "",
        "mateEmotionPath": "",
        "phonemePathHashList": [
          12803840960998583578,
          3437050431160283015,
          6548526936325855136,
          1274732080047098512
        ],
        "emotionPathHashList": [
          13608203086706346087,
          8983880955149441812,
          6168896623321060702,
          13508183777270633601
        ],
        "FMDPBECPELH": "",
        "ADKBLPOKGIK": ""
      },
      {
        "$type": "FABLGECDBCH",
        "type": "BODY_LANG",
        "aliasList": [
          "1005"
        ],
        "actionId": 242,
        "isContinue": true,
        "forceDoFreeStyle": true,
        "canDoRepeatFreeStyle": false,
        "cantBackToIdleWhenSitLoop": true,
        "eventPatternSuiteKey": "",
        "FOHHKFAIAAJ": ""
      },
      {
        "$type": "CPJKOIHIPBE",
        "type": "EMO_SYNC",
        "delayTime": 1.8020000457763672,
        "aliasList": [
          "20628"
        ],
        "actionId": 244,
        "dataPath": "",
        "phonemePath": "Cs_Emo_NPC_Common/Cs_Emo_NPC_Normal01",
        "emotionPath": "Cs_Emo_NPC_Common/Cs_Emo_NPC_Angry01_B",
        "mateDataPath": "",
        "matePhonemePath": "",
        "mateEmotionPath": "",
        "phonemePathHashList": [
          12803840960998583578,
          3437050431160283015,
          6548526936325855136,
          1274732080047098512
        ],
        "emotionPathHashList": [
          7899044606840785740,
          10175703066045221409,
          10119021136772445063,
          4929826079990131913
        ],
        "FMDPBECPELH": "",
        "ADKBLPOKGIK": ""
      },
      {
        "$type": "LJLMDHDCAMK",
        "type": "LOOK_AT",
        "delayTime": 1.871999979019165,
        "aliasList": [
          "20628"
        ],
        "actionId": 245,
        "enableHead": true,
        "useTargetPos": true,
        "enableAbsolute": true,
        "targetPosition": {
          "x": -168.14700317382812,
          "y": 231.5260009765625,
          "z": 2293.4189453125
        },
        "headTurnTime": 0.5,
        "targetNpcAlias": "",
        "lookAtTargetType": "NONE",
        "openBackProtect": true,
        "targetNpcLookAtPoint": "",
        "OAFJBHJHLJG": ""
      }
    ],
    [
      {
        "$type": "FJKIHHKJLMJ",
        "type": "CAMERA_MOVE",
        "duration": 1.0080000162124634,
        "actionId": 246,
        "camPosOffset": {
          "x": -172.40899658203125,
          "y": 230.87100219726562,
          "z": 2288.68310546875
        },
        "camForwardTargetOffset": {
          "x": -171.64999389648438,
          "y": 230.9010009765625,
          "z": 2289.3330078125
        },
        "camFov": 30.0,
        "lerpPattern": 6,
        "cameraBlendType": "EaseInOutCubic",
        "NJBNNOMLKCK": {},
        "needZAxisRotate": true,
        "openCameraDither": false,
        "targetNpcAlias": "",
        "closeTreeLeafDither": true,
        "KJOEFBPOIIH": "",
        "IICFKKEBIEC": "",
        "EGEHEJEBLBJ": ""
      },
      {
        "$type": "PKKMAMONGEO",
        "type": "DIALOG",
        "aliasList": [
          "1005"
        ],
        "dialogID": 730614929,
        "protectTime": 0.5
      },
      {
        "$type": "FABLGECDBCH",
        "type": "BODY_LANG",
        "aliasList": [
          "1005"
        ],
        "actionId": 247,
        "bodyLangParam": 1120,
        "forceDoFreeStyle": true,
        "canDoRepeatFreeStyle": false,
        "cantBackToIdleWhenSitLoop": true,
        "eventPatternSuiteKey": "",
        "FOHHKFAIAAJ": ""
      },
      {
        "$type": "FJKIHHKJLMJ",
        "type": "CAMERA_MOVE",
        "delayTime": 0.07599999755620956,
        "duration": 5.7170000076293945,
        "actionId": 281,
        "camPosOffset": {
          "x": -172.28399658203125,
          "y": 230.87600708007812,
          "z": 2288.7900390625
        },
        "camForwardTargetOffset": {
          "x": -171.52499389648438,
          "y": 230.906005859375,
          "z": 2289.43994140625
        },
        "camFov": 30.0,
        "cameraBlendType": "EaseOutQuad",
        "NJBNNOMLKCK": {},
        "openCameraDither": false,
        "targetNpcAlias": "",
        "closeTreeLeafDither": true,
        "KJOEFBPOIIH": "",
        "IICFKKEBIEC": "",
        "EGEHEJEBLBJ": ""
      },
      {
        "$type": "CPJKOIHIPBE",
        "type": "EMO_SYNC",
        "delayTime": 0.27300000190734863,
        "aliasList": [
          "1005"
        ],
        "actionId": 284,
        "dataPath": "",
        "phonemePath": "Cs_Emo_Pet_Common/Cs_Emo_Paimon_None",
        "emotionPath": "Cs_Emo_Pet_Common/Cs_Emo_Paimon_Angry01",
        "mateDataPath": "",
        "matePhonemePath": "",
        "mateEmotionPath": "",
        "phonemePathHashList": [
          1796869206626684908,
          2049648015653630001,
          14015965774222061559,
          873259039409222856
        ],
        "emotionPathHashList": [
          2289104602833775057,
          9212328771478276374,
          17241220668487233641,
          237688263355969894
        ],
        "FMDPBECPELH": "",
        "ADKBLPOKGIK": ""
      },
      {
        "$type": "FABLGECDBCH",
        "type": "BODY_LANG",
        "delayTime": 4.577000141143799,
        "aliasList": [
          "1005"
        ],
        "actionId": 248,
        "isContinue": true,
        "forceDoFreeStyle": true,
        "canDoRepeatFreeStyle": false,
        "cantBackToIdleWhenSitLoop": true,
        "eventPatternSuiteKey": "",
        "FOHHKFAIAAJ": ""
      }
    ],
    [
      {
        "$type": "FJKIHHKJLMJ",
        "type": "CAMERA_MOVE",
        "duration": 1.0,
        "actionId": 250,
        "camPosOffset": {
          "x": -171.31199645996094,
          "y": 230.24000549316406,
          "z": 2289.548095703125
        },
        "camForwardTargetOffset": {
          "x": -170.68099975585938,
          "y": 230.43099975585938,
          "z": 2290.300048828125
        },
        "camFov": 30.0,
        "lerpPattern": 6,
        "cameraBlendType": "EaseInOutCubic",
        "NJBNNOMLKCK": {},
        "needZAxisRotate": true,
        "openCameraDither": false,
        "targetNpcAlias": "",
        "closeTreeLeafDither": true,
        "KJOEFBPOIIH": "",
        "IICFKKEBIEC": "",
        "EGEHEJEBLBJ": ""
      },
      {
        "$type": "PKKMAMONGEO",
        "type": "DIALOG",
        "aliasList": [
          "20628"
        ],
        "dialogID": 730614930,
        "protectTime": 0.5
      },
      {
        "$type": "LJLMDHDCAMK",
        "type": "LOOK_AT",
        "aliasList": [
          "20628"
        ],
        "actionId": 255,
        "enableHead": true,
        "useTargetPos": true,
        "enableAbsolute": true,
        "targetPosition": {
          "x": -164.29299926757812,
          "y": 231.50999450683594,
          "z": 2297.014892578125
        },
        "headTurnTime": 0.5,
        "targetNpcAlias": "",
        "lookAtTargetType": "NONE",
        "openBackProtect": true,
        "targetNpcLookAtPoint": "",
        "OAFJBHJHLJG": ""
      },
      {
        "$type": "FABLGECDBCH",
        "type": "BODY_LANG",
        "aliasList": [
          "1005"
        ],
        "actionId": 249,
        "isContinue": true,
        "forceDoFreeStyle": true,
        "canDoRepeatFreeStyle": false,
        "cantBackToIdleWhenSitLoop": true,
        "eventPatternSuiteKey": "",
        "FOHHKFAIAAJ": ""
      },
      {
        "$type": "FJKIHHKJLMJ",
        "type": "CAMERA_MOVE",
        "delayTime": 0.10000000149011612,
        "duration": 5.974999904632568,
        "actionId": 278,
        "camPosOffset": {
          "x": -171.03900146484375,
          "y": 230.322998046875,
          "z": 2289.8740234375
        },
        "camForwardTargetOffset": {
          "x": -170.4080047607422,
          "y": 230.51400756835938,
          "z": 2290.6259765625
        },
        "camFov": 30.0,
        "cameraBlendType": "EaseOutQuad",
        "NJBNNOMLKCK": {},
        "openCameraDither": false,
        "targetNpcAlias": "",
        "closeTreeLeafDither": true,
        "KJOEFBPOIIH": "",
        "IICFKKEBIEC": "",
        "EGEHEJEBLBJ": ""
      }
    ],
    [
      {
        "$type": "FJKIHHKJLMJ",
        "type": "CAMERA_MOVE",
        "duration": 4.089000225067139,
        "actionId": 252,
        "camPosOffset": {
          "x": -168.00399780273438,
          "y": 231.38299560546875,
          "z": 2294.902099609375
        },
        "camForwardTargetOffset": {
          "x": -168.36599731445312,
          "y": 231.343994140625,
          "z": 2293.969970703125
        },
        "camFov": 30.0,
        "lerpPattern": 6,
        "cameraBlendType": "EaseInOutCubic",
        "NJBNNOMLKCK": {},
        "needZAxisRotate": true,
        "openCameraDither": false,
        "targetNpcAlias": "",
        "closeTreeLeafDither": true,
        "KJOEFBPOIIH": "",
        "IICFKKEBIEC": "",
        "EGEHEJEBLBJ": ""
      },
      {
        "$type": "PKKMAMONGEO",
        "type": "DIALOG",
        "aliasList": [
          "20628"
        ],
        "dialogID": 730614931,
        "protectTime": 2.0
      },
      {
        "$type": "LJLMDHDCAMK",
        "type": "LOOK_AT",
        "aliasList": [
          "20661"
        ],
        "actionId": 319,
        "enableHead": true,
        "useTargetPos": true,
        "enableAbsolute": true,
        "targetPosition": {
          "x": -161.79800415039062,
          "y": 231.81199645996094,
          "z": 2300.85302734375
        },
        "headTurnTime": 0.5,
        "targetNpcAlias": "",
        "lookAtTargetType": "NONE",
        "openBackProtect": true,
        "targetNpcLookAtPoint": "",
        "OAFJBHJHLJG": ""
      },
      {
        "$type": "LJLMDHDCAMK",
        "type": "LOOK_AT",
        "aliasList": [
          "20662"
        ],
        "actionId": 320,
        "enableHead": true,
        "useTargetPos": true,
        "enableAbsolute": true,
        "targetPosition": {
          "x": -159.94700622558594,
          "y": 232.16400146484375,
          "z": 2300.695068359375
        },
        "headTurnTime": 0.5,
        "targetNpcAlias": "",
        "lookAtTargetType": "NONE",
        "openBackProtect": true,
        "targetNpcLookAtPoint": "",
        "OAFJBHJHLJG": ""
      },
      {
        "$type": "MoleMole.Config.ConfigMoveToAction",
        "type": "MOVE_TO",
        "delayTime": 0.5,
        "aliasList": [
          "20628"
        ],
        "actionId": 253,
        "moveType": "WALK",
        "routeList": [
          {
            "x": -166.4759979248047,
            "y": 230.07400512695312,
            "z": 2295.137939453125
          }
        ],
        "exactlyMove": true,
        "_bindMovingTargetKey": ""
      }
    ],
    [
      {
        "$type": "FJKIHHKJLMJ",
        "type": "CAMERA_MOVE",
        "duration": 1.5880000591278076,
        "actionId": 254,
        "camPosOffset": {
          "x": -163.82699584960938,
          "y": 230.89700317382812,
          "z": 2298.202880859375
        },
        "camForwardTargetOffset": {
          "x": -164.47900390625,
          "y": 231.00799560546875,
          "z": 2297.452880859375
        },
        "camFov": 30.0,
        "lerpPattern": 6,
        "cameraBlendType": "EaseInOutCubic",
        "NJBNNOMLKCK": {},
        "needZAxisRotate": true,
        "openCameraDither": false,
        "targetNpcAlias": "",
        "closeTreeLeafDither": true,
        "KJOEFBPOIIH": "",
        "IICFKKEBIEC": "",
        "EGEHEJEBLBJ": ""
      },
      {
        "$type": "PKKMAMONGEO",
        "type": "DIALOG",
        "aliasList": [
          "20628"
        ],
        "dialogID": 730614932,
        "protectTime": 1.5
      },
      {
        "$type": "MoleMole.Config.ConfigMoveToAction",
        "type": "MOVE_TO",
        "aliasList": [
          "20628"
        ],
        "actionId": 264,
        "moveType": "WALK",
        "routeList": [
          {
            "x": -165.6750030517578,
            "y": 230.0919952392578,
            "z": 2295.993896484375
          }
        ],
        "exactlyMove": true,
        "_bindMovingTargetKey": ""
      },
      {
        "$type": "LJLMDHDCAMK",
        "type": "LOOK_AT",
        "aliasList": [
          "20628"
        ],
        "actionId": 268,
        "enableHead": true,
        "useTargetPos": true,
        "enableAbsolute": true,
        "targetPosition": {
          "x": -162.51499938964844,
          "y": 231.43800354003906,
          "z": 2300.074951171875
        },
        "headTurnTime": 0.5,
        "targetNpcAlias": "",
        "lookAtTargetType": "NONE",
        "openBackProtect": true,
        "targetNpcLookAtPoint": "",
        "OAFJBHJHLJG": ""
      },
      {
        "$type": "MoleMole.Config.ConfigTeleportToAction",
        "type": "TELEPORT_TO",
        "aliasList": [
          "20661"
        ],
        "actionId": 258,
        "position": {
          "x": -167.01199340820312,
          "y": 230.02999877929688,
          "z": 2295.948974609375
        },
        "forward": {
          "x": 1.1670000553131104,
          "z": 1.0290000438690186
        },
        "openLongDisTeleport": true,
        "_posBindMovingTargetKey": "",
        "_forwardBindMovingTargetKey": ""
      },
      {
        "$type": "LJLMDHDCAMK",
        "type": "LOOK_AT",
        "aliasList": [
          "20661"
        ],
        "actionId": 317,
        "enableHead": true,
        "useTargetPos": true,
        "enableAbsolute": true,
        "targetPosition": {
          "x": -161.79800415039062,
          "y": 231.81199645996094,
          "z": 2300.85302734375
        },
        "headTurnTime": 0.5,
        "targetNpcAlias": "",
        "lookAtTargetType": "NONE",
        "openBackProtect": true,
        "targetNpcLookAtPoint": "",
        "OAFJBHJHLJG": ""
      },
      {
        "$type": "MoleMole.Config.ConfigTeleportToAction",
        "type": "TELEPORT_TO",
        "aliasList": [
          "20662"
        ],
        "actionId": 259,
        "position": {
          "x": -165.8820037841797,
          "y": 230.21099853515625,
          "z": 2294.406005859375
        },
        "forward": {
          "x": 0.4399999976158142,
          "z": 0.6179999709129333
        },
        "openLongDisTeleport": true,
        "_posBindMovingTargetKey": "",
        "_forwardBindMovingTargetKey": ""
      },
      {
        "$type": "LJLMDHDCAMK",
        "type": "LOOK_AT",
        "aliasList": [
          "20662"
        ],
        "actionId": 318,
        "enableHead": true,
        "useTargetPos": true,
        "enableAbsolute": true,
        "targetPosition": {
          "x": -159.94700622558594,
          "y": 232.16400146484375,
          "z": 2300.695068359375
        },
        "headTurnTime": 0.5,
        "targetNpcAlias": "",
        "lookAtTargetType": "NONE",
        "openBackProtect": true,
        "targetNpcLookAtPoint": "",
        "OAFJBHJHLJG": ""
      },
      {
        "$type": "FJKIHHKJLMJ",
        "type": "CAMERA_MOVE",
        "delayTime": 0.10000000149011612,
        "duration": 7.984000205993652,
        "actionId": 276,
        "camPosOffset": {
          "x": -163.843994140625,
          "y": 230.75,
          "z": 2298.197021484375
        },
        "camForwardTargetOffset": {
          "x": -164.4949951171875,
          "y": 230.8730010986328,
          "z": 2297.447998046875
        },
        "camFov": 30.0,
        "cameraBlendType": "EaseOutQuad",
        "NJBNNOMLKCK": {},
        "needZAxisRotate": true,
        "openCameraDither": false,
        "targetNpcAlias": "",
        "closeTreeLeafDither": true,
        "KJOEFBPOIIH": "",
        "IICFKKEBIEC": "",
        "EGEHEJEBLBJ": ""
      },
      {
        "$type": "EMEHNEMOMMM",
        "type": "LOOK_AT_EYECTRL",
        "delayTime": 2.3610000610351562,
        "aliasList": [
          "20628"
        ],
        "actionId": 270,
        "useTargetPos": false,
        "eyeRotateVecLeft": {
          "x": -4.0,
          "z": 5.0
        },
        "eyeRotateVecRight": {
          "x": -4.0,
          "z": 5.0
        },
        "turnTime": 0.30000001192092896,
        "targetNpcAlias": "",
        "targetPoint": "Face"
      },
      {
        "$type": "LJLMDHDCAMK",
        "type": "LOOK_AT",
        "delayTime": 2.433000087738037,
        "aliasList": [
          "20628"
        ],
        "actionId": 274,
        "enableHead": true,
        "useTargetPos": true,
        "enableAbsolute": true,
        "targetPosition": {
          "x": -167.6219940185547,
          "y": 231.43800354003906,
          "z": 2295.427978515625
        },
        "enableBody": true,
        "headTurnTime": 0.4000000059604645,
        "targetNpcAlias": "",
        "lookAtTargetType": "NONE",
        "openBackProtect": true,
        "targetNpcLookAtPoint": "",
        "OAFJBHJHLJG": ""
      },
      {
        "$type": "EMEHNEMOMMM",
        "type": "LOOK_AT_EYECTRL",
        "delayTime": 4.315000057220459,
        "aliasList": [
          "20628"
        ],
        "actionId": 272,
        "useTargetPos": false,
        "turnTime": 0.30000001192092896,
        "targetNpcAlias": "",
        "targetPoint": "Face"
      },
      {
        "$type": "LJLMDHDCAMK",
        "type": "LOOK_AT",
        "delayTime": 4.427999973297119,
        "aliasList": [
          "20628"
        ],
        "actionId": 275,
        "enableHead": true,
        "useTargetPos": true,
        "enableAbsolute": true,
        "targetPosition": {
          "x": -164.2790069580078,
          "y": 231.43800354003906,
          "z": 2297.5439453125
        },
        "enableBody": true,
        "headTurnTime": 0.4000000059604645,
        "targetNpcAlias": "",
        "lookAtTargetType": "NONE",
        "openBackProtect": true,
        "targetNpcLookAtPoint": "",
        "OAFJBHJHLJG": ""
      },
      {
        "$type": "MoleMole.Config.ConfigMoveToAction",
        "type": "MOVE_TO",
        "delayTime": 4.931000232696533,
        "aliasList": [
          "20628"
        ],
        "actionId": 265,
        "moveType": "WALK",
        "routeList": [
          {
            "x": -162.4219970703125,
            "y": 230.28500366210938,
            "z": 2299.089111328125
          }
        ],
        "_bindMovingTargetKey": ""
      },
      {
        "$type": "MoleMole.Config.ConfigMoveToAction",
        "type": "MOVE_TO",
        "delayTime": 5.2820000648498535,
        "aliasList": [
          "20661"
        ],
        "actionId": 266,
        "moveType": "WALK",
        "routeList": [
          {
            "x": -164.14599609375,
            "y": 230.08099365234375,
            "z": 2298.552001953125
          }
        ],
        "_bindMovingTargetKey": ""
      },
      {
        "$type": "MoleMole.Config.ConfigMoveToAction",
        "type": "MOVE_TO",
        "delayTime": 5.581999778747559,
        "aliasList": [
          "20662"
        ],
        "actionId": 267,
        "moveType": "WALK",
        "routeList": [
          {
            "x": -162.5989990234375,
            "y": 230.42599487304688,
            "z": 2297.4951171875
          }
        ],
        "_bindMovingTargetKey": ""
      }
    ],
    [
      {
        "$type": "MoleMole.Config.ConfigTimeProtectAction",
        "type": "TIME_PROTECT",
        "duration": 0.10000000149011612
      },
      {
        "$type": "MoleMole.Config.ConfigSimpleBlackScreenAction",
        "type": "SIMPLE_BLACK_SCREEN",
        "durationToBlack": 0.5,
        "durationKeepBlack": 1.0,
        "durationFromBlack": 0.5,
        "textMapID": ""
      },
      {
        "$type": "MoleMole.Config.ConfigTimeProtectAction",
        "type": "TIME_PROTECT",
        "delayTime": 0.023000000044703484,
        "duration": 0.699999988079071
      },
      {
        "$type": "FJKIHHKJLMJ",
        "type": "CAMERA_MOVE",
        "delayTime": 0.6000000238418579,
        "duration": 0.10000000149011612,
        "actionId": 160,
        "camPosOffset": {
          "x": -174.53599548339844,
          "y": 231.3730010986328,
          "z": 2287.093017578125
        },
        "camForwardTargetOffset": {
          "x": -173.89999389648438,
          "y": 231.11199951171875,
          "z": 2287.820068359375
        },
        "lerpPattern": 6,
        "cameraBlendType": "EaseInOutCubic",
        "NJBNNOMLKCK": {},
        "needZAxisRotate": true,
        "openCameraDither": false,
        "targetNpcAlias": "",
        "closeTreeLeafDither": true,
        "KJOEFBPOIIH": "",
        "IICFKKEBIEC": "",
        "EGEHEJEBLBJ": ""
      },
      {
        "$type": "MoleMole.Config.ConfigVisibleInterAction",
        "type": "VISIBLE",
        "delayTime": 0.6000000238418579,
        "aliasList": [
          "20628"
        ],
        "actionId": 324,
        "_extraParam": ""
      },
      {
        "$type": "MoleMole.Config.ConfigVisibleInterAction",
        "type": "VISIBLE",
        "delayTime": 0.6000000238418579,
        "aliasList": [
          "20661"
        ],
        "actionId": 322,
        "_extraParam": ""
      },
      {
        "$type": "MoleMole.Config.ConfigVisibleInterAction",
        "type": "VISIBLE",
        "delayTime": 0.6000000238418579,
        "aliasList": [
          "20662"
        ],
        "actionId": 323,
        "_extraParam": ""
      }
    ]
  ],
  "groupId": [
    {
      "grpId": 1313642890,
      "nextGrpId": 1313642891
    },
    {
      "index": 1,
      "grpId": 1313642891,
      "nextGrpId": 1313642892
    },
    {
      "index": 2,
      "grpId": 1313642892,
      "nextGrpId": 1313642893
    },
    {
      "index": 3,
      "grpId": 1313642893,
      "nextGrpId": 1313642894
    },
    {
      "index": 4,
      "grpId": 1313642894,
      "nextGrpId": 1313642895
    },
    {
      "index": 5,
      "grpId": 1313642895,
      "nextGrpId": 1313642896
    },
    {
      "index": 6,
      "grpId": 1313642896,
      "nextGrpId": 1313642897
    },
    {
      "index": 7,
      "grpId": 1313642897,
      "nextGrpId": 1313642898
    },
    {
      "index": 8,
      "grpId": 1313642898,
      "nextGrpId": 2068223974
    },
    {
      "index": 9,
      "grpId": 2068223974,
      "nextGrpId": 2068223975
    },
    {
      "index": 10,
      "grpId": 2068223975,
      "nextGrpId": 2068223976
    },
    {
      "index": 11,
      "grpId": 2068223976,
      "nextGrpId": 2068223977
    },
    {
      "index": 12,
      "grpId": 2068223977,
      "nextGrpId": 2068223978
    },
    {
      "index": 13,
      "grpId": 2068223978,
      "nextGrpId": 2068223979
    },
    {
      "index": 14,
      "grpId": 2068223979,
      "nextGrpId": 2068223980
    },
    {
      "index": 15,
      "grpId": 2068223980,
      "nextGrpId": 2068223981
    },
    {
      "index": 16,
      "grpId": 2068223981,
      "nextGrpId": 2068223982
    },
    {
      "index": 17,
      "grpId": 2068223982,
      "nextGrpId": 2068223983
    },
    {
      "index": 18,
      "grpId": 2068223983,
      "nextGrpId": 2068224005
    },
    {
      "index": 19,
      "grpId": 2068224005,
      "nextGrpId": 2068224006
    }
  ],
  "freeStyleDic": {
    "20628": [
      1172,
      1180,
      1141,
      1171,
      9000
    ],
    "20661": [],
    "20662": []
  }
}