{
  "startTrigger": [
    {
      "actions": [
        {
          "$type": "CECKLNNDGDO",
          "actionType": "QTE_STEP_ACTION_PLAY_AUDIO",
          "audioName": "Play_ui_feedback_QTEbar_fadeIn"
        },
        {
          "$type": "GMFOLJPDJIM",
          "actionType": "QTE_STEP_ACTION_CAMERA_MOVE",
          "interAction": {
            "$type": "FJKIHHKJLMJ",
            "type": "CAMERA_MOVE",
            "duration": 0.10000000149011612,
            "cameraPosType": "RELATIVE_TO_INTEE_ONLY",
            "camPosOffset": {
              "x": 1.5,
              "y": 2.5,
              "z": 1.5
            },
            "nearLength": 5.0,
            "camTargetType": "RELATIVE_TO_INTEE_FORWARD",
            "camForwardTargetOffset": {
              "y": 1.0
            },
            "camFov": 40.0,
            "lerpRatio": 5.0,
            "lerpPattern": 6,
            "targetNpcAlias": "",
            "KJOEFBPOIIH": "",
            "IICFKKEBIEC": "",
            "EGEHEJEBLBJ": ""
          }
        },
        {
          "$type": "NGNJCILLGIA",
          "actionType": "QTE_STEP_ACTION_EMOTION",
          "interAction": {
            "$type": "CPJKOIHIPBE",
            "type": "EMO_SYNC",
            "duration": 0.0,
            "dataPath": "",
            "phonemePath": "Cs_Emo_Avatar_Common/Cs_Emo_Avatar_Angry01",
            "emotionPath": "Cs_Emo_Avatar_Common/Cs_Emo_Avatar_LowClosed03",
            "mateDataPath": "",
            "matePhonemePath": "",
            "mateEmotionPath": "",
            "backType": "WITH_BLINK",
            "enableBlink": false,
            "FMDPBECPELH": "",
            "ADKBLPOKGIK": ""
          }
        }
      ]
    }
  ],
  "components": [
    {
      "$type": "CDAEEOKJKAD",
      "positionId": 6,
      "clickTrigger": [
        {
          "condGroup": {},
          "actions": [
            {
              "$type": "EDMOMCFNPLG",
              "actionType": "QTE_STEP_ACTION_POWER_BAR_VALUE_CHANGE",
              "changeValue": 10
            },
            {
              "$type": "BHMEGEDGMOC",
              "actionType": "QTE_STEP_ACTION_POWER_BAR_PRESS_DOWN"
            },
            {
              "$type": "BHMEGEDGMOC",
              "actionType": "QTE_STEP_ACTION_AVATAR_SHAKE_HEAD"
            }
          ]
        }
      ]
    },
    {
      "$type": "MFOGDOBLLOO",
      "param2": 250,
      "autoChangeValuePerSecond": -50.0,
      "noInputAutoChangeInterval": 0.10000000149011612,
      "valueChangeTrigger": [
        {
          "condGroup": {
            "stepCondList": [
              {
                "$type": "ELOFENBKNMF",
                "condType": "QTE_STEP_COND_POWER_BAR_VALUE",
                "orderType": "GreaterOrEqual",
                "param3": 250
              }
            ]
          },
          "actions": [
            {
              "$type": "BHMEGEDGMOC",
              "actionType": "QTE_STEP_ACTION_SUCCESS"
            }
          ]
        }
      ]
    }
  ],
  "successTrigger": [
    {
      "actions": [
        {
          "$type": "CECKLNNDGDO",
          "actionType": "QTE_STEP_ACTION_PLAY_AUDIO",
          "audioName": "Play_ui_feedback_QTEbar_fadeOut"
        },
        {
          "$type": "GMFOLJPDJIM",
          "actionType": "QTE_STEP_ACTION_CAMERA_MOVE",
          "interAction": {
            "$type": "FJKIHHKJLMJ",
            "type": "CAMERA_MOVE",
            "duration": 0.0,
            "cameraPosType": "EXIT",
            "camTargetType": "TO_INTEE",
            "lerpRatio": 5.0,
            "lerpPattern": 6,
            "targetNpcAlias": "",
            "KJOEFBPOIIH": "",
            "IICFKKEBIEC": "",
            "EGEHEJEBLBJ": ""
          },
          "exitReturnBack": true
        }
      ]
    }
  ]
}