{
  "common": {
    "effectAttachShape": {
      "$type": "FJNPJANPGGC",
      "mesh": "EffectMesh"
    },
    "height": 1.0,
    "shadowViewSizeRatio": 0.0,
    "affectedByWorld": true,
    "checkInSurface": true,
    "canTriggerElementReactionText": false,
    "useGrassDisplacement": true,
    "clearAnimatorOnSetLightDeactive": true,
    "clearAIOnSetLightDeactive": true
  },
  "model": {
    "bornEffect": "",
    "attachEffect": "",
    "canBakeMesh": false,
    "BKPFGNPLDNJ": ""
  },
  "dither": {
    "showDitherDuration": 1.0
  },
  "combat": {
    "property": {
      "endureType": "Monster_Minion",
      "weight": 101.0,
      "isInvincible": true
    },
    "beHit": {
      "hitBloodEffect": "",
      "muteAllHit": true,
      "muteAllHitText": true
    },
    "combatLock": {
      "lockShape": "CircleLockEnemy",
      "lockType": "Animal_Lv2"
    },
    "die": {
      "dieEndTime": 1.7999999523162842,
      "dieForceDisappearTime": 2.0,
      "dieDisappearEffect": ""
    }
  },
  "abilities": [
    {
      "abilityID": "",
      "abilityName": "Partner_Animal_Electrohercules_Properties",
      "abilityOverride": ""
    },
    {
      "abilityID": "",
      "abilityName": "Animal_Electrohercules_Properties_Partner",
      "abilityOverride": ""
    },
    {
      "abilityID": "",
      "abilityName": "Animal_Electrohercules_PlayAlert",
      "abilityOverride": ""
    },
    {
      "abilityID": "",
      "abilityName": "Partner_Animal_Electrohercules_JumpForward_ChargeHandler",
      "abilityOverride": ""
    },
    {
      "abilityID": "",
      "abilityName": "Partner_Animal_Electrohercules_JumpBack_Handler",
      "abilityOverride": ""
    },
    {
      "abilityID": "",
      "abilityName": "Partner_Animal_Electrohercules_AttackManager",
      "abilityOverride": ""
    },
    {
      "abilityID": "",
      "abilityName": "Partner_Animal_Electrohercules_Tutorial_AddStage",
      "abilityOverride": ""
    },
    {
      "abilityID": "",
      "abilityName": "Partner_Animal_Electrohercules_Tutorial_JumpForward",
      "abilityOverride": ""
    },
    {
      "abilityID": "",
      "abilityName": "Partner_Animal_Electrohercules_Tutorial_JumpBack",
      "abilityOverride": ""
    },
    {
      "abilityID": "",
      "abilityName": "Partner_Animal_Electrohercules_Tutorial_RecoverStamina",
      "abilityOverride": ""
    }
  ],
  "stateLayers": {
    "defaultLayer": {
      "$type": "GBGJJIIEMBD",
      "layerIndexName": "",
      "CPAANEIJCGD": "",
      "stateIDs": {
        "Born": {
          "$type": "NEDIFAKEGCO",
          "animatorStates": {
            "Born": []
          },
          "resetAnimatorTriggerOnExit": [
            "DoSkill"
          ]
        },
        "NormalIdle": {
          "$type": "NEDIFAKEGCO",
          "animatorStates": {
            "Standby": []
          },
          "canDoSkill": true,
          "canSyncMove": true,
          "resetAnimatorTriggerOnEnter": [
            "IsCharging",
            "ChargeEnd"
          ],
          "resetAnimatorTriggerOnExit": [
            "DoSkill",
            "ChargeEnd"
          ]
        },
        "BeHit": {
          "$type": "NEDIFAKEGCO",
          "animatorStates": {
            "Hit_L": [
              "Audio_Animal_Electrohercules_01_Hit_L"
            ],
            "Hit_H": [
              "Audio_Animal_Electrohercules_01_Hit_H"
            ]
          },
          "resetAnimatorTriggerOnEnter": [
            "BeHit",
            "IsCharging",
            "ChargeEnd"
          ],
          "resetAnimatorTriggerOnExit": [
            "DoSkill"
          ]
        },
        "BeHitThrow": {
          "$type": "NEDIFAKEGCO",
          "animatorStates": {
            "HitThrow": [],
            "HitThrowDrop": [],
            "HitThrowToGround": []
          },
          "resetAnimatorTriggerOnEnter": [
            "BeHit",
            "HitAir2HitDrop",
            "IsCharging",
            "ChargeEnd"
          ],
          "resetAnimatorTriggerOnExit": [
            "DoSkill"
          ]
        },
        "Struggle": {
          "$type": "NEDIFAKEGCO",
          "animatorStates": {
            "Struggle": []
          },
          "resetAnimatorTriggerOnEnter": [
            "BeHit",
            "HitAir2HitDrop",
            "IsCharging",
            "ChargeEnd"
          ],
          "resetAnimatorTriggerOnExit": [
            "DoSkill"
          ]
        },
        "Die": {
          "$type": "NEDIFAKEGCO",
          "animatorStates": {
            "Die": [
              "Audio_Animal_Electrohercules_01_Die"
            ]
          }
        },
        "Warning": {
          "$type": "NEDIFAKEGCO",
          "animatorStates": {
            "Alert": [
              "Audio_Animal_Electrohercules_01_Alert"
            ]
          },
          "canSyncMove": true,
          "resetAnimatorTriggerOnExit": [
            "BeHit",
            "DoSkill"
          ],
          "canSteer": true
        },
        "JumpForward_Once": {
          "$type": "NEDIFAKEGCO",
          "animatorStates": {
            "JumpForward_Once": [
              "Animal_Electrohercules_01_JumpBack",
              "Audio_Animal_Electrohercules_01_JumpForward"
            ],
            "JumpForward_Once_CanTriggerCritical": []
          },
          "resetAnimatorTriggerOnEnter": [
            "IsCharging",
            "ChargeEnd"
          ],
          "resetAnimatorTriggerOnExit": [
            "BeHit",
            "DoSkill"
          ]
        },
        "JumpForward_Once_AS": {
          "$type": "NEDIFAKEGCO",
          "animatorStates": {
            "JumpForward_Once_AS": []
          },
          "canDoSkill": true,
          "resetAnimatorTriggerOnEnter": [
            "IsCharging",
            "ChargeEnd"
          ],
          "resetAnimatorTriggerOnExit": [
            "BeHit",
            "DoSkill"
          ]
        },
        "JumpForward_Critical": {
          "$type": "NEDIFAKEGCO",
          "animatorStates": {
            "JumpForward_Critical": []
          },
          "resetAnimatorTriggerOnEnter": [
            "IsCharging",
            "ChargeEnd"
          ],
          "resetAnimatorTriggerOnExit": [
            "BeHit",
            "DoSkill",
            "CriticalTrigger"
          ]
        },
        "JumpForward_Recoil": {
          "$type": "NEDIFAKEGCO",
          "animatorStates": {
            "JumpForward_Recoil": []
          },
          "resetAnimatorTriggerOnEnter": [
            "IsCharging",
            "ChargeEnd"
          ],
          "resetAnimatorTriggerOnExit": [
            "BeHit",
            "DoSkill",
            "CriticalTrigger"
          ]
        },
        "JumpForward_Charging": {
          "$type": "NEDIFAKEGCO",
          "animatorStates": {
            "JumpForward_Charging_BS": [],
            "JumpForward_Charging_Loop": []
          },
          "canDoSkill": true,
          "resetAnimatorTriggerOnEnter": [
            "IsCharging"
          ],
          "resetAnimatorTriggerOnExit": [
            "BeHit",
            "DoSkill",
            "IsCharging"
          ]
        },
        "JumpForward_Long": {
          "$type": "NEDIFAKEGCO",
          "animatorStates": {
            "JumpForward_Long": [
              "Animal_Electrohercules_01_JumpForward",
              "Audio_Animal_Electrohercules_01_JumpForward"
            ],
            "JumpForward_Long_CanTriggerCritical": []
          },
          "resetAnimatorTriggerOnEnter": [
            "IsCharging",
            "ChargeEnd"
          ],
          "resetAnimatorTriggerOnExit": [
            "BeHit",
            "DoSkill"
          ]
        },
        "JumpForward_Long_AS": {
          "$type": "NEDIFAKEGCO",
          "animatorStates": {
            "JumpForward_Long_AS": []
          },
          "canDoSkill": true,
          "resetAnimatorTriggerOnEnter": [
            "IsCharging",
            "ChargeEnd"
          ],
          "resetAnimatorTriggerOnExit": [
            "BeHit",
            "DoSkill"
          ]
        },
        "JumpForward_Short": {
          "$type": "NEDIFAKEGCO",
          "animatorStates": {
            "JumpForward_Short": [
              "Animal_Electrohercules_01_JumpForward",
              "Audio_Animal_Electrohercules_01_JumpForward"
            ],
            "JumpForward_Short_CanTriggerCritical": []
          },
          "resetAnimatorTriggerOnEnter": [
            "IsCharging",
            "ChargeEnd"
          ],
          "resetAnimatorTriggerOnExit": [
            "BeHit",
            "DoSkill"
          ]
        },
        "JumpForward_Short_AS": {
          "$type": "NEDIFAKEGCO",
          "animatorStates": {
            "JumpForward_Short_AS": []
          },
          "canDoSkill": true,
          "resetAnimatorTriggerOnEnter": [
            "IsCharging",
            "ChargeEnd"
          ],
          "resetAnimatorTriggerOnExit": [
            "BeHit",
            "DoSkill"
          ]
        },
        "JumpBack": {
          "$type": "NEDIFAKEGCO",
          "animatorStates": {
            "JumpBack": [
              "Animal_Electrohercules_01_JumpBack",
              "Audio_Animal_Electrohercules_01_Jump"
            ]
          },
          "resetAnimatorTriggerOnEnter": [
            "IsCharging",
            "ChargeEnd"
          ],
          "resetAnimatorTriggerOnExit": [
            "BeHit",
            "DoSkill"
          ]
        },
        "JumpBack_AS": {
          "$type": "NEDIFAKEGCO",
          "animatorStates": {
            "JumpBack_AS": []
          },
          "canDoSkill": true,
          "resetAnimatorTriggerOnEnter": [
            "IsCharging",
            "ChargeEnd"
          ],
          "resetAnimatorTriggerOnExit": [
            "BeHit",
            "DoSkill"
          ]
        }
      }
    }
  },
  "initialPoses": {
    "Default": {
      "initialPoseID": 1,
      "initialPoseParams": {
        "intParams": {
          "ActionState": "0"
        }
      }
    }
  },
  "inputKeys": [
    {
      "keyID": 1,
      "inputKeyCode": 257,
      "abilityName": ""
    },
    {
      "keyID": 1011,
      "inputKeyCode": 258,
      "abilityName": ""
    },
    {
      "keyID": 1021,
      "inputKeyCode": 259,
      "abilityName": ""
    },
    {
      "keyID": 1012,
      "inputKeyCode": 260,
      "abilityName": ""
    }
  ],
  "move": {
    "$type": "IPNMJMHDMPF",
    "PKHOMJHFAEE": "RootNode"
  },
  "animal": {
    "tickAbilityElement": false,
    "hasCharacterRenderering": false
  }
}