{
  "luaDataPath": "",
  "startBlackKeepTime": 0.5,
  "entityBan": "",
  "disableNpcLod": true,
  "isAutoBanNpc": true,
  "isBanWidgetPet": true,
  "protectNpcMobileLod": true,
  "startFade": {
    "startFadeInDuration": 0.5,
    "startFadeOutDuration": 0.5
  },
  "endFade": {
    "startFadeOutDuration": 0.0
  },
  "actors": [
    {
      "alias": "Avatar",
      "visible": true,
      "bornPointName": "N10000005_T7310310",
      "relativePosType": "AVATAR_NEW",
      "relativePosNpcAlias": "",
      "_bindMovingTargetKey": ""
    },
    {
      "configID": 4296,
      "alias": "4296",
      "visible": true,
      "bornPointName": "N20723_T7310310",
      "forceCreateDaily": true,
      "relativePosType": "AVATAR_NEW",
      "relativePosNpcAlias": "",
      "_bindMovingTargetKey": ""
    },
    {
      "configID": 20846,
      "alias": "20846",
      "visible": true,
      "bornPointName": "N20846_T7310310",
      "relativePosType": "AVATAR_NEW",
      "relativePosNpcAlias": "",
      "_bindMovingTargetKey": ""
    },
    {
      "configID": 1005,
      "alias": "1005",
      "visible": true,
      "bornPointName": "",
      "useRelativePos": true,
      "relativePos": {
        "x": -0.6000000238418579
      },
      "removeActorType": "REMOVE_WITH_DISAPPEAR",
      "relativePosType": "AVATAR_NEW",
      "relativePosNpcAlias": "",
      "_bindMovingTargetKey": ""
    }
  ],
  "group": [
    [
      {
        "$type": "MoleMole.Config.ConfigTimeProtectAction",
        "type": "TIME_PROTECT",
        "duration": 1.0,
        "actionId": 104
      },
      {
        "$type": "MoleMole.Config.ConfigBlackScreenAction",
        "type": "BLACK_SCREEN",
        "duration": 1.0,
        "actionId": 163,
        "blackScreenType": "KEEP_BLACK",
        "durationToBlack": 0.5,
        "durationKeepBlack": 1.0,
        "durationFromBlack": 0.5,
        "inteePos": "",
        "textMapID": "",
        "useTextFade": true
      }
    ],
    [
      {
        "$type": "MoleMole.Config.ConfigBlackScreenAction",
        "type": "BLACK_SCREEN",
        "duration": 0.5,
        "actionId": 164,
        "blackScreenType": "FROM_BLACK",
        "durationToBlack": 0.5,
        "durationKeepBlack": 0.5,
        "durationFromBlack": 0.5,
        "inteePos": "",
        "textMapID": "",
        "useTextFade": true
      },
      {
        "$type": "PKKMAMONGEO",
        "type": "DIALOG",
        "aliasList": [
          "4296"
        ],
        "actionId": 107,
        "dialogID": 731031001,
        "protectTime": 0.5
      },
      {
        "$type": "HDGKHDNFMIM",
        "type": "DIALOG_SELECT",
        "delayTime": 0.4000000059604645,
        "aliasList": [
          "Avatar"
        ],
        "actionId": 108,
        "dialogIDList": [
          731031002,
          731031004
        ],
        "grpIDList": [
          3544145542,
          3544145543
        ],
        "useGrpId": true
      }
    ],
    [
      {
        "$type": "PKKMAMONGEO",
        "type": "DIALOG",
        "aliasList": [
          "4296"
        ],
        "actionId": 110,
        "dialogID": 731031003,
        "protectTime": 0.5
      }
    ],
    [
      {
        "$type": "PKKMAMONGEO",
        "type": "DIALOG",
        "aliasList": [
          "1005"
        ],
        "actionId": 112,
        "dialogID": 731031005,
        "protectTime": 0.5
      }
    ],
    [
      {
        "$type": "PKKMAMONGEO",
        "type": "DIALOG",
        "aliasList": [
          "4296"
        ],
        "actionId": 114,
        "dialogID": 731031006,
        "protectTime": 0.5
      }
    ],
    [
      {
        "$type": "PKKMAMONGEO",
        "type": "DIALOG",
        "aliasList": [
          "4296"
        ],
        "actionId": 116,
        "dialogID": 731031007,
        "protectTime": 0.5
      }
    ],
    [
      {
        "$type": "PKKMAMONGEO",
        "type": "DIALOG",
        "aliasList": [
          "4296"
        ],
        "actionId": 118,
        "dialogID": 731031008,
        "protectTime": 0.5
      }
    ],
    [
      {
        "$type": "PKKMAMONGEO",
        "type": "DIALOG",
        "aliasList": [
          "20846"
        ],
        "actionId": 120,
        "dialogID": 731031009,
        "protectTime": 0.5
      }
    ],
    [
      {
        "$type": "PKKMAMONGEO",
        "type": "DIALOG",
        "aliasList": [
          "20846"
        ],
        "actionId": 122,
        "dialogID": 731031010,
        "protectTime": 0.5
      }
    ],
    [
      {
        "$type": "PKKMAMONGEO",
        "type": "DIALOG",
        "aliasList": [
          "4296"
        ],
        "actionId": 124,
        "dialogID": 731031011,
        "protectTime": 0.5
      }
    ],
    [
      {
        "$type": "PKKMAMONGEO",
        "type": "DIALOG",
        "aliasList": [
          "20846"
        ],
        "actionId": 126,
        "dialogID": 731031012,
        "protectTime": 0.5
      }
    ],
    [
      {
        "$type": "PKKMAMONGEO",
        "type": "DIALOG",
        "aliasList": [
          "20846"
        ],
        "actionId": 128,
        "dialogID": 731031013,
        "protectTime": 0.5
      }
    ],
    [
      {
        "$type": "PKKMAMONGEO",
        "type": "DIALOG",
        "aliasList": [
          "20846"
        ],
        "actionId": 130,
        "dialogID": 731031014,
        "protectTime": 0.5
      }
    ],
    [
      {
        "$type": "PKKMAMONGEO",
        "type": "DIALOG",
        "aliasList": [
          "20846"
        ],
        "actionId": 132,
        "dialogID": 731031015,
        "protectTime": 0.5
      }
    ],
    [
      {
        "$type": "PKKMAMONGEO",
        "type": "DIALOG",
        "aliasList": [
          "4296"
        ],
        "actionId": 134,
        "dialogID": 731031016,
        "protectTime": 0.5
      }
    ],
    [
      {
        "$type": "PKKMAMONGEO",
        "type": "DIALOG",
        "aliasList": [
          "20846"
        ],
        "actionId": 136,
        "dialogID": 731031017,
        "protectTime": 0.5
      }
    ],
    [
      {
        "$type": "PKKMAMONGEO",
        "type": "DIALOG",
        "aliasList": [
          "4296"
        ],
        "actionId": 138,
        "dialogID": 731031018,
        "protectTime": 0.5
      }
    ],
    [
      {
        "$type": "PKKMAMONGEO",
        "type": "DIALOG",
        "aliasList": [
          "4296"
        ],
        "actionId": 140,
        "dialogID": 731031019,
        "protectTime": 0.5
      }
    ],
    [
      {
        "$type": "PKKMAMONGEO",
        "type": "DIALOG",
        "aliasList": [
          "1005"
        ],
        "actionId": 142,
        "dialogID": 731031020,
        "protectTime": 0.5
      },
      {
        "$type": "HDGKHDNFMIM",
        "type": "DIALOG_SELECT",
        "delayTime": 0.4000000059604645,
        "aliasList": [
          "Avatar"
        ],
        "actionId": 143,
        "dialogIDList": [
          731031021,
          731031022
        ],
        "grpIDList": [
          2494329419,
          2494329419
        ],
        "useGrpId": true
      }
    ],
    [
      {
        "$type": "PKKMAMONGEO",
        "type": "DIALOG",
        "aliasList": [
          "4296"
        ],
        "actionId": 145,
        "dialogID": 731031023,
        "protectTime": 0.5
      },
      {
        "$type": "HDGKHDNFMIM",
        "type": "DIALOG_SELECT",
        "delayTime": 0.4000000059604645,
        "aliasList": [
          "Avatar"
        ],
        "actionId": 146,
        "dialogIDList": [
          731031024
        ],
        "grpIDList": [
          2494329420
        ],
        "useGrpId": true
      }
    ],
    [
      {
        "$type": "PKKMAMONGEO",
        "type": "DIALOG",
        "aliasList": [
          "4296"
        ],
        "actionId": 148,
        "dialogID": 731031025,
        "protectTime": 0.5
      }
    ],
    [
      {
        "$type": "PKKMAMONGEO",
        "type": "DIALOG",
        "aliasList": [
          "1005"
        ],
        "actionId": 150,
        "dialogID": 731031026,
        "protectTime": 0.5
      }
    ],
    [
      {
        "$type": "PKKMAMONGEO",
        "type": "DIALOG",
        "aliasList": [
          "1005"
        ],
        "actionId": 152,
        "dialogID": 731031027,
        "protectTime": 0.5
      }
    ],
    [
      {
        "$type": "PKKMAMONGEO",
        "type": "DIALOG",
        "aliasList": [
          "20846"
        ],
        "actionId": 154,
        "dialogID": 731031028,
        "protectTime": 0.5
      }
    ],
    [
      {
        "$type": "PKKMAMONGEO",
        "type": "DIALOG",
        "aliasList": [
          "20846"
        ],
        "actionId": 156,
        "dialogID": 731031029,
        "protectTime": 0.5
      }
    ],
    [
      {
        "$type": "PKKMAMONGEO",
        "type": "DIALOG",
        "aliasList": [
          "1005"
        ],
        "actionId": 158,
        "dialogID": 731031030,
        "protectTime": 0.5
      }
    ],
    [
      {
        "$type": "PKKMAMONGEO",
        "type": "DIALOG",
        "aliasList": [
          "20846"
        ],
        "actionId": 160,
        "dialogID": 731031031,
        "protectTime": 0.5
      }
    ],
    [
      {
        "$type": "MoleMole.Config.ConfigTimeProtectAction",
        "type": "TIME_PROTECT",
        "duration": 0.10000000149011612,
        "actionId": 105
      },
      {
        "$type": "MoleMole.Config.ConfigSimpleBlackScreenAction",
        "type": "SIMPLE_BLACK_SCREEN",
        "actionId": 161,
        "durationToBlack": 0.5,
        "durationKeepBlack": 1.0,
        "durationFromBlack": 0.5,
        "textMapID": ""
      },
      {
        "$type": "MoleMole.Config.ConfigTimeProtectAction",
        "type": "TIME_PROTECT",
        "duration": 0.699999988079071,
        "actionId": 162
      }
    ]
  ],
  "groupId": [
    {
      "grpId": 3544145540,
      "nextGrpId": 3544145541
    },
    {
      "index": 1,
      "grpId": 3544145541,
      "nextGrpId": 3544145542
    },
    {
      "index": 2,
      "grpId": 3544145542,
      "nextGrpId": 3544145544
    },
    {
      "index": 3,
      "grpId": 3544145543,
      "nextGrpId": 3544145544
    },
    {
      "index": 4,
      "grpId": 3544145544,
      "nextGrpId": 3544145545
    },
    {
      "index": 5,
      "grpId": 3544145545,
      "nextGrpId": 3544145546
    },
    {
      "index": 6,
      "grpId": 3544145546,
      "nextGrpId": 3544145547
    },
    {
      "index": 7,
      "grpId": 3544145547,
      "nextGrpId": 3544145548
    },
    {
      "index": 8,
      "grpId": 3544145548,
      "nextGrpId": 2494329388
    },
    {
      "index": 9,
      "grpId": 2494329388,
      "nextGrpId": 2494329389
    },
    {
      "index": 10,
      "grpId": 2494329389,
      "nextGrpId": 2494329390
    },
    {
      "index": 11,
      "grpId": 2494329390,
      "nextGrpId": 2494329391
    },
    {
      "index": 12,
      "grpId": 2494329391,
      "nextGrpId": 2494329392
    },
    {
      "index": 13,
      "grpId": 2494329392,
      "nextGrpId": 2494329393
    },
    {
      "index": 14,
      "grpId": 2494329393,
      "nextGrpId": 2494329394
    },
    {
      "index": 15,
      "grpId": 2494329394,
      "nextGrpId": 2494329395
    },
    {
      "index": 16,
      "grpId": 2494329395,
      "nextGrpId": 2494329396
    },
    {
      "index": 17,
      "grpId": 2494329396,
      "nextGrpId": 2494329397
    },
    {
      "index": 18,
      "grpId": 2494329397,
      "nextGrpId": 2494329419
    },
    {
      "index": 19,
      "grpId": 2494329419,
      "nextGrpId": 2494329420
    },
    {
      "index": 20,
      "grpId": 2494329420,
      "nextGrpId": 2494329421
    },
    {
      "index": 21,
      "grpId": 2494329421,
      "nextGrpId": 2494329422
    },
    {
      "index": 22,
      "grpId": 2494329422,
      "nextGrpId": 2494329423
    },
    {
      "index": 23,
      "grpId": 2494329423,
      "nextGrpId": 2494329424
    },
    {
      "index": 24,
      "grpId": 2494329424,
      "nextGrpId": 2494329425
    },
    {
      "index": 25,
      "grpId": 2494329425,
      "nextGrpId": 2494329426
    },
    {
      "index": 26,
      "grpId": 2494329426,
      "nextGrpId": 2494329427
    },
    {
      "index": 27,
      "grpId": 2494329427,
      "nextGrpId": 2494329428
    }
  ],
  "freeStyleDic": {
    "20846": []
  }
}