{
  "luaDataPath": "",
  "startBlackKeepTime": 0.5,
  "entityBan": "",
  "disableNpcLod": true,
  "isAutoBanNpc": true,
  "isBanWidgetPet": true,
  "protectNpcMobileLod": true,
  "startFade": {
    "startFadeInDuration": 0.5,
    "startFadeOutDuration": 0.5
  },
  "endFade": {
    "startFadeOutDuration": 0.0
  },
  "actors": [
    {
      "alias": "Avatar",
      "visible": true,
      "bornPointName": "guide_Q7902513",
      "relativePosNpcAlias": "",
      "_bindMovingTargetKey": ""
    },
    {
      "configID": 1005,
      "alias": "1005",
      "visible": true,
      "bornPointName": "guide_Q7902513",
      "removeActorType": "REMOVE_WITH_DISAPPEAR",
      "relativePosType": "AVATAR_NEW",
      "relativePosNpcAlias": "",
      "_bindMovingTargetKey": ""
    },
    {
      "configID": 20641,
      "alias": "20641",
      "visible": true,
      "bornPointName": "guide_Q7902513",
      "relativePosNpcAlias": "",
      "_bindMovingTargetKey": ""
    },
    {
      "configID": 20614,
      "alias": "20614",
      "visible": true,
      "bornPointName": "guide_Q7902513",
      "relativePosNpcAlias": "",
      "_bindMovingTargetKey": ""
    }
  ],
  "group": [
    [
      {
        "$type": "MoleMole.Config.ConfigTimeProtectAction",
        "type": "TIME_PROTECT",
        "duration": 0.5,
        "actionId": 121
      },
      {
        "$type": "MoleMole.Config.ConfigBlackScreenAction",
        "type": "BLACK_SCREEN",
        "actionId": 134,
        "blackScreenType": "KEEP_BLACK",
        "durationKeepBlack": 0.5,
        "inteePos": "",
        "textMapID": "",
        "useTextFade": true
      },
      {
        "$type": "FJKIHHKJLMJ",
        "type": "CAMERA_MOVE",
        "duration": 0.5,
        "actionId": 130,
        "camPosOffset": {
          "x": -278.8320007324219,
          "y": 122.58200073242188,
          "z": -636.9550170898438
        },
        "camForwardTargetOffset": {
          "x": -279.0740051269531,
          "y": 122.38500213623047,
          "z": -637.905029296875
        },
        "lerpPattern": 6,
        "cameraBlendType": "EaseOutQuad",
        "NJBNNOMLKCK": {},
        "needZAxisRotate": true,
        "openCameraDither": false,
        "targetNpcAlias": "",
        "closeTreeLeafDither": true,
        "KJOEFBPOIIH": "",
        "IICFKKEBIEC": "",
        "EGEHEJEBLBJ": ""
      },
      {
        "$type": "MoleMole.Config.ConfigTeleportToAction",
        "type": "TELEPORT_TO",
        "aliasList": [
          "Avatar"
        ],
        "actionId": 136,
        "position": {
          "x": -278.3009948730469,
          "y": 120.11799621582031,
          "z": -643.6010131835938
        },
        "forward": {
          "x": -2.2170000076293945,
          "y": 0.9359999895095825,
          "z": -2.6600000858306885
        },
        "openLongDisTeleport": true,
        "_posBindMovingTargetKey": "",
        "_forwardBindMovingTargetKey": ""
      },
      {
        "$type": "LJLMDHDCAMK",
        "type": "LOOK_AT",
        "aliasList": [
          "Avatar"
        ],
        "actionId": 165,
        "enableHead": true,
        "headTurnTime": 0.5,
        "targetNpcAlias": "20641",
        "targetNpcLookAtPoint": "",
        "OAFJBHJHLJG": ""
      },
      {
        "$type": "MoleMole.Config.ConfigTeleportToAction",
        "type": "TELEPORT_TO",
        "aliasList": [
          "1005"
        ],
        "actionId": 136,
        "position": {
          "x": -281.92401123046875,
          "y": 120.45099639892578,
          "z": -643.4119873046875
        },
        "forward": {
          "x": 0.5789999961853027,
          "z": -0.8149999976158142
        },
        "openLongDisTeleport": true,
        "_posBindMovingTargetKey": "",
        "_forwardBindMovingTargetKey": ""
      },
      {
        "$type": "LJLMDHDCAMK",
        "type": "LOOK_AT",
        "aliasList": [
          "1005"
        ],
        "actionId": 165,
        "enableHead": true,
        "headTurnTime": 0.5,
        "targetNpcAlias": "20641",
        "targetNpcLookAtPoint": "",
        "OAFJBHJHLJG": ""
      },
      {
        "$type": "MoleMole.Config.ConfigTeleportToAction",
        "type": "TELEPORT_TO",
        "aliasList": [
          "20641"
        ],
        "actionId": 136,
        "position": {
          "x": -279.260009765625,
          "y": 120.18900299072266,
          "z": -643.3489990234375
        },
        "forward": {
          "x": -0.3970000147819519,
          "z": -0.9179999828338623
        },
        "openLongDisTeleport": true,
        "_posBindMovingTargetKey": "",
        "_forwardBindMovingTargetKey": ""
      },
      {
        "$type": "MoleMole.Config.ConfigTeleportToAction",
        "type": "TELEPORT_TO",
        "aliasList": [
          "20614"
        ],
        "actionId": 136,
        "position": {
          "x": -280.89898681640625,
          "y": 120.33300018310547,
          "z": -642.7369995117188
        },
        "forward": {
          "x": 0.1120000034570694,
          "z": -0.9940000176429749
        },
        "openLongDisTeleport": true,
        "_posBindMovingTargetKey": "",
        "_forwardBindMovingTargetKey": ""
      }
    ],
    [
      {
        "$type": "MoleMole.Config.ConfigBlackScreenAction",
        "type": "BLACK_SCREEN",
        "actionId": 134,
        "blackScreenType": "FROM_BLACK",
        "durationFromBlack": 0.5,
        "inteePos": "",
        "textMapID": "",
        "useTextFade": true
      },
      {
        "$type": "PKKMAMONGEO",
        "type": "DIALOG",
        "aliasList": [
          "20614"
        ],
        "dialogID": 790251401,
        "protectTime": 0.5
      },
      {
        "$type": "FABLGECDBCH",
        "type": "BODY_LANG",
        "aliasList": [
          "20614"
        ],
        "actionId": 201,
        "bodyLangParam": 2,
        "forceDoFreeStyle": true,
        "canDoRepeatFreeStyle": false,
        "eventPatternSuiteKey": "",
        "FOHHKFAIAAJ": ""
      },
      {
        "$type": "MoleMole.Config.ConfigEmojiBubbleAction",
        "type": "EMOJI_BUBBLE",
        "delayTime": 0.02199999988079071,
        "aliasList": [
          "20614"
        ],
        "actionId": 140,
        "pattarnName": "EmojiBubble_Emoji_Exciting"
      }
    ],
    [
      {
        "$type": "PKKMAMONGEO",
        "type": "DIALOG",
        "aliasList": [
          "1005"
        ],
        "dialogID": 790251402,
        "protectTime": 0.5
      },
      {
        "$type": "HDGKHDNFMIM",
        "type": "DIALOG_SELECT",
        "delayTime": 0.4000000059604645,
        "aliasList": [
          "Avatar"
        ],
        "dialogIDList": [
          790251403,
          790251405
        ],
        "grpIDList": [
          1415634835,
          1415634836
        ],
        "useGrpId": true
      }
    ],
    [
      {
        "$type": "PKKMAMONGEO",
        "type": "DIALOG",
        "aliasList": [
          "1005"
        ],
        "dialogID": 790251404,
        "protectTime": 0.5
      }
    ],
    [
      {
        "$type": "PKKMAMONGEO",
        "type": "DIALOG",
        "aliasList": [
          "1005"
        ],
        "dialogID": 790251406,
        "protectTime": 0.5
      }
    ],
    [
      {
        "$type": "PKKMAMONGEO",
        "type": "DIALOG",
        "aliasList": [
          "20641"
        ],
        "dialogID": 790251407,
        "protectTime": 1.600000023841858
      },
      {
        "$type": "FABLGECDBCH",
        "type": "BODY_LANG",
        "aliasList": [
          "20641"
        ],
        "actionId": 317,
        "bodyLangParam": 5,
        "forceDoFreeStyle": true,
        "canDoRepeatFreeStyle": false,
        "eventPatternSuiteKey": "",
        "FOHHKFAIAAJ": ""
      },
      {
        "$type": "MoleMole.Config.ConfigEmojiBubbleAction",
        "type": "EMOJI_BUBBLE",
        "delayTime": 0.02199999988079071,
        "aliasList": [
          "20641"
        ],
        "actionId": 140,
        "pattarnName": "EmojiBubble_Emoji_Insight"
      },
      {
        "$type": "FABLGECDBCH",
        "type": "BODY_LANG",
        "delayTime": 0.21299999952316284,
        "aliasList": [
          "20614"
        ],
        "actionId": 317,
        "bodyLangParam": 5,
        "forceDoFreeStyle": true,
        "canDoRepeatFreeStyle": false,
        "eventPatternSuiteKey": "",
        "FOHHKFAIAAJ": ""
      },
      {
        "$type": "LJLMDHDCAMK",
        "type": "LOOK_AT",
        "delayTime": 0.9919999837875366,
        "aliasList": [
          "Avatar"
        ],
        "actionId": 184,
        "headTurnTime": 0.5,
        "targetNpcAlias": "",
        "targetNpcLookAtPoint": "",
        "OAFJBHJHLJG": ""
      },
      {
        "$type": "LJLMDHDCAMK",
        "type": "LOOK_AT",
        "delayTime": 0.9919999837875366,
        "aliasList": [
          "1005"
        ],
        "actionId": 184,
        "headTurnTime": 0.5,
        "targetNpcAlias": "",
        "targetNpcLookAtPoint": "",
        "OAFJBHJHLJG": ""
      },
      {
        "$type": "MoleMole.Config.ConfigPlayEffectAction",
        "type": "PLAY_EFFECT",
        "delayTime": 1.25,
        "aliasList": [
          "20641"
        ],
        "actionId": 188,
        "effectIndex": "1",
        "patternName": "Eff_Animal_Inu_Tanuki_Blink_Disappear",
        "_pos": {
          "x": -279.260009765625,
          "y": 120.18900299072266,
          "z": -643.3489990234375
        },
        "euler": {
          "y": 203.38699340820312
        },
        "scale": {
          "x": 1.0,
          "y": 1.0,
          "z": 1.0
        },
        "attachToEntity": true,
        "_otherTargetNpcAlias": "",
        "_overrideFollowPath": ""
      },
      {
        "$type": "MoleMole.Config.ConfigVisibleInterAction",
        "type": "VISIBLE",
        "delayTime": 1.25,
        "aliasList": [
          "20641"
        ],
        "actionId": 305,
        "_extraParam": ""
      },
      {
        "$type": "MoleMole.Config.ConfigVisibleInterAction",
        "type": "VISIBLE",
        "delayTime": 1.4859999418258667,
        "aliasList": [
          "20614"
        ],
        "actionId": 305,
        "_extraParam": ""
      },
      {
        "$type": "MoleMole.Config.ConfigPlayEffectAction",
        "type": "PLAY_EFFECT",
        "delayTime": 1.5,
        "aliasList": [
          "20614"
        ],
        "actionId": 188,
        "effectIndex": "1",
        "patternName": "Eff_Animal_Inu_Tanuki_Blink_Disappear",
        "_pos": {
          "x": -280.89898681640625,
          "y": 120.33300018310547,
          "z": -642.7369995117188
        },
        "euler": {
          "y": 173.5709991455078
        },
        "scale": {
          "x": 1.0,
          "y": 1.0,
          "z": 1.0
        },
        "attachToEntity": true,
        "_otherTargetNpcAlias": "",
        "_overrideFollowPath": ""
      }
    ],
    [
      {
        "$type": "LJLMDHDCAMK",
        "type": "LOOK_AT",
        "aliasList": [
          "Avatar"
        ],
        "actionId": 169,
        "headTurnTime": 0.5,
        "targetNpcAlias": "",
        "targetNpcLookAtPoint": "",
        "OAFJBHJHLJG": ""
      },
      {
        "$type": "PKKMAMONGEO",
        "type": "DIALOG",
        "aliasList": [
          "1005"
        ],
        "dialogID": 790251408,
        "protectTime": 3.200000047683716
      },
      {
        "$type": "LJLMDHDCAMK",
        "type": "LOOK_AT",
        "aliasList": [
          "1005"
        ],
        "actionId": 170,
        "headTurnTime": 0.5,
        "targetNpcAlias": "",
        "targetNpcLookAtPoint": "",
        "OAFJBHJHLJG": ""
      },
      {
        "$type": "LLGANGLOEEO",
        "type": "STEER_TO",
        "duration": 1.0,
        "aliasList": [
          "1005"
        ],
        "actionId": 174,
        "steerType": "ABSOLUTE",
        "steerDir": {
          "x": -281.6910095214844,
          "y": 120.4489974975586,
          "z": -644.2269897460938
        },
        "useSteerAnim": true,
        "interruptFreestyle": true,
        "forceSteer": true,
        "targetNpcAlias": "",
        "OAFJBHJHLJG": ""
      },
      {
        "$type": "MoleMole.Config.ConfigTeleportToAction",
        "type": "TELEPORT_TO",
        "aliasList": [
          "20641"
        ],
        "actionId": 164,
        "position": {
          "x": -279.885009765625,
          "y": 120.41100311279297,
          "z": -650.27001953125
        },
        "forward": {
          "x": 0.12600000202655792,
          "y": -0.22100000083446503,
          "z": 5.059999942779541
        },
        "openLongDisTeleport": true,
        "_posBindMovingTargetKey": "",
        "_forwardBindMovingTargetKey": ""
      },
      {
        "$type": "MoleMole.Config.ConfigPlayEffectAction",
        "type": "PLAY_EFFECT",
        "delayTime": 0.30000001192092896,
        "aliasList": [
          "20641"
        ],
        "actionId": 188,
        "effectIndex": "1",
        "patternName": "Eff_Animal_Inu_Tanuki_Blink_Appear",
        "_pos": {
          "x": -278.1910095214844,
          "y": 120.24600219726562,
          "z": -650.0540161132812
        },
        "euler": {
          "y": 342.0559997558594
        },
        "scale": {
          "x": 1.0,
          "y": 1.0,
          "z": 1.0
        },
        "attachToEntity": true,
        "_otherTargetNpcAlias": "",
        "_overrideFollowPath": ""
      },
      {
        "$type": "MoleMole.Config.ConfigVisibleInterAction",
        "type": "VISIBLE",
        "delayTime": 0.30000001192092896,
        "aliasList": [
          "20641"
        ],
        "actionId": 305,
        "isVisible": true,
        "_extraParam": ""
      },
      {
        "$type": "FABLGECDBCH",
        "type": "BODY_LANG",
        "delayTime": 0.30000001192092896,
        "aliasList": [
          "20641"
        ],
        "actionId": 317,
        "bodyLangParam": 4,
        "forceDoFreeStyle": true,
        "canDoRepeatFreeStyle": false,
        "eventPatternSuiteKey": "",
        "FOHHKFAIAAJ": ""
      },
      {
        "$type": "LJLMDHDCAMK",
        "type": "LOOK_AT",
        "delayTime": 0.43299999833106995,
        "aliasList": [
          "Avatar"
        ],
        "actionId": 176,
        "enableHead": true,
        "headTurnTime": 0.5,
        "targetNpcAlias": "1005",
        "targetNpcLookAtPoint": "",
        "OAFJBHJHLJG": ""
      },
      {
        "$type": "FABLGECDBCH",
        "type": "BODY_LANG",
        "delayTime": 1.0759999752044678,
        "aliasList": [
          "1005"
        ],
        "actionId": 171,
        "bodyLangParam": 1230,
        "forceDoFreeStyle": true,
        "canDoRepeatFreeStyle": false,
        "eventPatternSuiteKey": "",
        "FOHHKFAIAAJ": ""
      },
      {
        "$type": "LJLMDHDCAMK",
        "type": "LOOK_AT",
        "delayTime": 1.0759999752044678,
        "aliasList": [
          "1005"
        ],
        "actionId": 173,
        "enableHead": true,
        "headTurnTime": 0.5,
        "targetNpcAlias": "Avatar",
        "targetNpcLookAtPoint": "",
        "OAFJBHJHLJG": ""
      },
      {
        "$type": "FABLGECDBCH",
        "type": "BODY_LANG",
        "delayTime": 1.3539999723434448,
        "aliasList": [
          "20641"
        ],
        "actionId": 154,
        "bodyLangParam": 5,
        "forceDoFreeStyle": true,
        "canDoRepeatFreeStyle": false,
        "eventPatternSuiteKey": "",
        "FOHHKFAIAAJ": ""
      },
      {
        "$type": "MoleMole.Config.ConfigVisibleInterAction",
        "type": "VISIBLE",
        "delayTime": 2.5,
        "aliasList": [
          "20641"
        ],
        "actionId": 305,
        "_extraParam": ""
      },
      {
        "$type": "MoleMole.Config.ConfigPlayEffectAction",
        "type": "PLAY_EFFECT",
        "delayTime": 2.5,
        "aliasList": [
          "20641"
        ],
        "actionId": 188,
        "effectIndex": "1",
        "patternName": "Eff_Animal_Inu_Tanuki_Blink_Disappear",
        "_pos": {
          "x": -279.260009765625,
          "y": 120.18900299072266,
          "z": -643.3489990234375
        },
        "euler": {
          "y": 203.38699340820312
        },
        "scale": {
          "x": 1.0,
          "y": 1.0,
          "z": 1.0
        },
        "attachToEntity": true,
        "_otherTargetNpcAlias": "",
        "_overrideFollowPath": ""
      },
      {
        "$type": "HDGKHDNFMIM",
        "type": "DIALOG_SELECT",
        "delayTime": 3.0999999046325684,
        "aliasList": [
          "Avatar"
        ],
        "dialogIDList": [
          790251409,
          790251410
        ],
        "grpIDList": [
          1415634839,
          1415634839
        ],
        "useGrpId": true
      }
    ],
    [
      {
        "$type": "LJLMDHDCAMK",
        "type": "LOOK_AT",
        "aliasList": [
          "Avatar"
        ],
        "actionId": 176,
        "enableHead": true,
        "headTurnTime": 0.5,
        "targetNpcAlias": "1005",
        "targetNpcLookAtPoint": "",
        "OAFJBHJHLJG": ""
      },
      {
        "$type": "PKKMAMONGEO",
        "type": "DIALOG",
        "aliasList": [
          "1005"
        ],
        "dialogID": 790251411,
        "protectTime": 0.5
      },
      {
        "$type": "FABLGECDBCH",
        "type": "BODY_LANG",
        "aliasList": [
          "1005"
        ],
        "actionId": 172,
        "isContinue": true,
        "forceDoFreeStyle": true,
        "canDoRepeatFreeStyle": false,
        "eventPatternSuiteKey": "",
        "FOHHKFAIAAJ": ""
      },
      {
        "$type": "LJLMDHDCAMK",
        "type": "LOOK_AT",
        "aliasList": [
          "1005"
        ],
        "actionId": 173,
        "enableHead": true,
        "headTurnTime": 0.5,
        "targetNpcAlias": "Avatar",
        "targetNpcLookAtPoint": "",
        "OAFJBHJHLJG": ""
      },
      {
        "$type": "MoleMole.Config.ConfigTeleportToAction",
        "type": "TELEPORT_TO",
        "aliasList": [
          "20614"
        ],
        "actionId": 164,
        "position": {
          "x": -281.7439880371094,
          "y": 120.6050033569336,
          "z": -659.9929809570312
        },
        "forward": {
          "x": 0.9300000071525574,
          "y": 2.492000102996826,
          "z": 15.354000091552734
        },
        "openLongDisTeleport": true,
        "_posBindMovingTargetKey": "",
        "_forwardBindMovingTargetKey": ""
      },
      {
        "$type": "MoleMole.Config.ConfigPlayEffectAction",
        "type": "PLAY_EFFECT",
        "delayTime": 0.30000001192092896,
        "aliasList": [
          "20614"
        ],
        "actionId": 188,
        "effectIndex": "1",
        "patternName": "Eff_Animal_Inu_Tanuki_Blink_Appear",
        "_pos": {
          "x": -280.89898681640625,
          "y": 120.33300018310547,
          "z": -642.7369995117188
        },
        "euler": {
          "y": 173.5709991455078
        },
        "scale": {
          "x": 1.0,
          "y": 1.0,
          "z": 1.0
        },
        "attachToEntity": true,
        "_otherTargetNpcAlias": "",
        "_overrideFollowPath": ""
      },
      {
        "$type": "MoleMole.Config.ConfigVisibleInterAction",
        "type": "VISIBLE",
        "delayTime": 0.30000001192092896,
        "aliasList": [
          "20614"
        ],
        "actionId": 305,
        "isVisible": true,
        "_extraParam": ""
      },
      {
        "$type": "FABLGECDBCH",
        "type": "BODY_LANG",
        "delayTime": 0.30000001192092896,
        "aliasList": [
          "20614"
        ],
        "actionId": 317,
        "bodyLangParam": 4,
        "forceDoFreeStyle": true,
        "canDoRepeatFreeStyle": false,
        "eventPatternSuiteKey": "",
        "FOHHKFAIAAJ": ""
      },
      {
        "$type": "FABLGECDBCH",
        "type": "BODY_LANG",
        "delayTime": 1.3539999723434448,
        "aliasList": [
          "20614"
        ],
        "actionId": 154,
        "bodyLangParam": 5,
        "forceDoFreeStyle": true,
        "canDoRepeatFreeStyle": false,
        "eventPatternSuiteKey": "",
        "FOHHKFAIAAJ": ""
      },
      {
        "$type": "LJLMDHDCAMK",
        "type": "LOOK_AT",
        "delayTime": 1.5729999542236328,
        "aliasList": [
          "1005"
        ],
        "actionId": 196,
        "headTurnTime": 0.5,
        "targetNpcAlias": "",
        "targetNpcLookAtPoint": "",
        "OAFJBHJHLJG": ""
      },
      {
        "$type": "LJLMDHDCAMK",
        "type": "LOOK_AT",
        "delayTime": 1.9479999542236328,
        "aliasList": [
          "Avatar"
        ],
        "actionId": 196,
        "headTurnTime": 0.5,
        "targetNpcAlias": "",
        "targetNpcLookAtPoint": "",
        "OAFJBHJHLJG": ""
      },
      {
        "$type": "MoleMole.Config.ConfigVisibleInterAction",
        "type": "VISIBLE",
        "delayTime": 2.5,
        "aliasList": [
          "20614"
        ],
        "actionId": 305,
        "_extraParam": ""
      },
      {
        "$type": "MoleMole.Config.ConfigPlayEffectAction",
        "type": "PLAY_EFFECT",
        "delayTime": 2.5,
        "aliasList": [
          "20614"
        ],
        "actionId": 188,
        "effectIndex": "1",
        "patternName": "Eff_Animal_Inu_Tanuki_Blink_Disappear",
        "_pos": {
          "x": -280.89898681640625,
          "y": 120.33300018310547,
          "z": -642.7369995117188
        },
        "euler": {
          "y": 173.5709991455078
        },
        "scale": {
          "x": 1.0,
          "y": 1.0,
          "z": 1.0
        },
        "attachToEntity": true,
        "_otherTargetNpcAlias": "",
        "_overrideFollowPath": ""
      }
    ],
    [
      {
        "$type": "MoleMole.Config.ConfigSimpleBlackScreenAction",
        "type": "SIMPLE_BLACK_SCREEN",
        "durationToBlack": 0.5,
        "durationKeepBlack": 1.0,
        "durationFromBlack": 0.5,
        "textMapID": ""
      },
      {
        "$type": "MoleMole.Config.ConfigTimeProtectAction",
        "type": "TIME_PROTECT",
        "duration": 0.699999988079071
      },
      {
        "$type": "LJLMDHDCAMK",
        "type": "LOOK_AT",
        "aliasList": [
          "Avatar"
        ],
        "actionId": 178,
        "headTurnTime": 0.5,
        "targetNpcAlias": "",
        "targetNpcLookAtPoint": "",
        "OAFJBHJHLJG": ""
      },
      {
        "$type": "LJLMDHDCAMK",
        "type": "LOOK_AT",
        "aliasList": [
          "1005"
        ],
        "actionId": 179,
        "headTurnTime": 0.5,
        "targetNpcAlias": "",
        "targetNpcLookAtPoint": "",
        "OAFJBHJHLJG": ""
      },
      {
        "$type": "FABLGECDBCH",
        "type": "BODY_LANG",
        "aliasList": [
          "20641"
        ],
        "actionId": 181,
        "isContinue": true,
        "forceDoFreeStyle": true,
        "canDoRepeatFreeStyle": false,
        "eventPatternSuiteKey": "",
        "FOHHKFAIAAJ": ""
      },
      {
        "$type": "FABLGECDBCH",
        "type": "BODY_LANG",
        "aliasList": [
          "20614"
        ],
        "actionId": 180,
        "isContinue": true,
        "forceDoFreeStyle": true,
        "canDoRepeatFreeStyle": false,
        "eventPatternSuiteKey": "",
        "FOHHKFAIAAJ": ""
      },
      {
        "$type": "FJKIHHKJLMJ",
        "type": "CAMERA_MOVE",
        "delayTime": 0.6000000238418579,
        "duration": 0.14000000059604645,
        "actionId": 198,
        "camPosOffset": {
          "x": -277.1570129394531,
          "y": 121.53900146484375,
          "z": -640.3820190429688
        },
        "camForwardTargetOffset": {
          "x": -277.45599365234375,
          "y": 121.4020004272461,
          "z": -641.3259887695312
        },
        "lerpPattern": 6,
        "cameraBlendType": "EaseInOutCubic",
        "NJBNNOMLKCK": {},
        "openCameraDither": false,
        "targetNpcAlias": "",
        "closeTreeLeafDither": true,
        "KJOEFBPOIIH": "",
        "IICFKKEBIEC": "",
        "EGEHEJEBLBJ": ""
      },
      {
        "$type": "MoleMole.Config.ConfigVisibleInterAction",
        "type": "VISIBLE",
        "delayTime": 0.6000000238418579,
        "aliasList": [
          "20641"
        ],
        "actionId": 182,
        "isVisible": true,
        "_extraParam": ""
      },
      {
        "$type": "MoleMole.Config.ConfigVisibleInterAction",
        "type": "VISIBLE",
        "delayTime": 0.6000000238418579,
        "aliasList": [
          "20614"
        ],
        "actionId": 182,
        "isVisible": true,
        "_extraParam": ""
      }
    ]
  ],
  "groupId": [
    {
      "grpId": 1415634832,
      "nextGrpId": 1415634833
    },
    {
      "index": 1,
      "grpId": 1415634833,
      "nextGrpId": 1415634834
    },
    {
      "index": 2,
      "grpId": 1415634834,
      "nextGrpId": 1415634835
    },
    {
      "index": 3,
      "grpId": 1415634835,
      "nextGrpId": 1415634837
    },
    {
      "index": 4,
      "grpId": 1415634836,
      "nextGrpId": 1415634837
    },
    {
      "index": 5,
      "grpId": 1415634837,
      "nextGrpId": 1415634838
    },
    {
      "index": 6,
      "grpId": 1415634838,
      "nextGrpId": 1415634839
    },
    {
      "index": 7,
      "grpId": 1415634839,
      "nextGrpId": 1415634840
    },
    {
      "index": 8,
      "grpId": 1415634840,
      "nextGrpId": 935006880
    }
  ]
}