{
  "luaDataPath": "",
  "dontUseDefaultFinish": true,
  "entityBan": "",
  "disableNpcLod": true,
  "startFade": {
    "startFadeOutDuration": 0.0
  },
  "endFade": {
    "startFadeOutDuration": 0.0
  },
  "actors": [
    {
      "alias": "Avatar",
      "visible": true,
      "bornPointName": "",
      "relativePosNpcAlias": "",
      "_bindMovingTargetKey": ""
    },
    {
      "configID": 30176,
      "alias": "30176",
      "visible": true,
      "bornPointName": "",
      "forceCreateDaily": true,
      "relativePosNpcAlias": "",
      "_bindMovingTargetKey": ""
    }
  ],
  "group": [
    [
      {
        "$type": "LLGANGLOEEO",
        "type": "STEER_TO",
        "duration": 1.0,
        "aliasList": [
          "Avatar"
        ],
        "steerType": "TO_TARGET_ADVANCED",
        "useSteerAnim": true,
        "interruptFreestyle": true,
        "forceSteer": true,
        "targetNpcAlias": "30176",
        "OAFJBHJHLJG": ""
      },
      {
        "$type": "FJKIHHKJLMJ",
        "type": "CAMERA_MOVE",
        "duration": 0.75,
        "camPosOffset": {
          "x": -2566.39990234375,
          "y": 212.2270050048828,
          "z": -3799.4130859375
        },
        "camForwardTargetOffset": {
          "x": -2567.33203125,
          "y": 212.2550048828125,
          "z": -3799.77392578125
        },
        "cameraBlendType": "EaseOutQuad",
        "NJBNNOMLKCK": {},
        "needZAxisRotate": true,
        "openCameraDither": false,
        "targetNpcAlias": "",
        "closeTreeLeafDither": true,
        "KJOEFBPOIIH": "",
        "IICFKKEBIEC": "",
        "EGEHEJEBLBJ": ""
      },
      {
        "$type": "MoleMole.Config.ConfigTimeProtectAction",
        "type": "TIME_PROTECT",
        "duration": 0.75
      },
      {
        "$type": "LJLMDHDCAMK",
        "type": "LOOK_AT",
        "delayTime": 0.10000000149011612,
        "aliasList": [
          "Avatar"
        ],
        "enableHead": true,
        "useTargetPos": true,
        "enableAbsolute": true,
        "targetOffset": {
          "x": -0.2329999953508377,
          "y": 1.4830000400543213,
          "z": 2.0869998931884766
        },
        "targetPosition": {
          "x": -2569.779052734375,
          "y": 212.3699951171875,
          "z": -3800.778076171875
        },
        "headTurnTime": 0.5,
        "targetNpcAlias": "30176",
        "lookAtTargetType": "NONE",
        "targetNpcLookAtPoint": "",
        "OAFJBHJHLJG": ""
      },
      {
        "$type": "MoleMole.Config.ConfigVisibleInterAction",
        "type": "VISIBLE",
        "delayTime": 0.5,
        "duration": 0.25,
        "aliasList": [
          "Avatar"
        ],
        "useDither": true,
        "_extraParam": ""
      }
    ],
    [
      {
        "$type": "PKKMAMONGEO",
        "type": "DIALOG",
        "aliasList": [
          "30176"
        ],
        "dialogID": 400634701,
        "protectTime": 0.5
      },
      {
        "$type": "LJLMDHDCAMK",
        "type": "LOOK_AT",
        "aliasList": [
          "Avatar"
        ],
        "headTurnTime": 0.5,
        "targetNpcAlias": "",
        "targetNpcLookAtPoint": "",
        "OAFJBHJHLJG": ""
      },
      {
        "$type": "MoleMole.Config.ConfigVisibleInterAction",
        "type": "VISIBLE",
        "aliasList": [
          "Avatar"
        ],
        "_extraParam": ""
      }
    ],
    [
      {
        "$type": "PKKMAMONGEO",
        "type": "DIALOG",
        "aliasList": [
          "30176"
        ],
        "dialogID": 400634702,
        "protectTime": 0.5
      }
    ],
    [
      {
        "$type": "PKKMAMONGEO",
        "type": "DIALOG",
        "aliasList": [
          "30176"
        ],
        "dialogID": 400634703,
        "protectTime": 0.5
      }
    ],
    [
      {
        "$type": "FJKIHHKJLMJ",
        "type": "CAMERA_MOVE",
        "duration": 0.5,
        "cameraPosType": "EXIT",
        "camPosOffset": {
          "x": -2564.27587890625,
          "y": 212.5189971923828,
          "z": -3801.958984375
        },
        "camTargetType": "Other",
        "camForwardTargetOffset": {
          "x": 6.5,
          "y": 297.34100341796875
        },
        "cameraBlendType": "EaseOutQuad",
        "NJBNNOMLKCK": {},
        "needZAxisRotate": true,
        "openCameraDither": false,
        "targetNpcAlias": "",
        "closeTreeLeafDither": true,
        "KJOEFBPOIIH": "",
        "IICFKKEBIEC": "",
        "EGEHEJEBLBJ": ""
      },
      {
        "$type": "MoleMole.Config.ConfigTimeProtectAction",
        "type": "TIME_PROTECT",
        "duration": 0.5
      },
      {
        "$type": "MoleMole.Config.ConfigVisibleInterAction",
        "type": "VISIBLE",
        "delayTime": 0.25,
        "duration": 0.25,
        "aliasList": [
          "Avatar"
        ],
        "isVisible": true,
        "useDither": true,
        "_extraParam": ""
      }
    ]
  ],
  "groupId": [
    {
      "grpId": 1977059769,
      "nextGrpId": 1977059770
    },
    {
      "index": 1,
      "grpId": 1977059770,
      "nextGrpId": 1977059771
    },
    {
      "index": 2,
      "grpId": 1977059771,
      "nextGrpId": 1977059772
    },
    {
      "index": 3,
      "grpId": 1977059772,
      "nextGrpId": 1977059773
    },
    {
      "index": 4,
      "grpId": 1977059773,
      "nextGrpId": 1977059774
    }
  ]
}