{
  "roomID": 7,
  "LCCIOPJEJKM": 250,
  "MOKMGLJOJKM": 200,
  "basicData": {
    "deployStartPos": {
      "x": -56.0,
      "z": -36.0
    },
    "deployBound": {
      "x": 80.0,
      "y": 40.0,
      "z": 80.0
    },
    "bornPos": {
      "x": -12.0,
      "z": 4.0
    }
  },
  "PDBIECMEPLP": [
    {
      "configId": 1001,
      "pos": {
        "x": 40.0,
        "z": 9.0
      }
    },
    {
      "configId": 1002,
      "pos": {
        "x": 40.0,
        "z": 5.0
      }
    }
  ]
}