{
  "context": {
    "ActivityPageMainContext": {
      "actionGroups": {
        "Default": [
          {
            "eventType": "MenuUpEvent",
            "contextEvent": "CommonMenuUpEvent"
          },
          {
            "eventType": "MenuLeftEvent",
            "contextEvent": "CommonMenuLeftEvent"
          },
          {
            "priority": 4,
            "eventType": "LeftStickUpEvent",
            "contextEvent": "CommonLeftStickUpEvent"
          },
          {
            "priority": 4,
            "eventType": "LeftStickDownEvent",
            "contextEvent": "CommonLeftStickDownEvent"
          },
          {
            "priority": 4,
            "eventType": "LeftStickLeftEvent",
            "contextEvent": "CommonLeftStickLeftEvent"
          },
          {
            "priority": 4,
            "eventType": "LeftStickRightEvent",
            "contextEvent": "CommonLeftStickRightEvent"
          },
          {
            "priority": 4,
            "eventType": "RightStickLeftEvent",
            "contextEvent": "CommonRightStickLeftEvent"
          },
          {
            "priority": 4,
            "eventType": "RightStickRightEvent",
            "contextEvent": "CommonRightStickRightEvent"
          },
          {
            "priority": 10,
            "eventType": "MenuBackEvent",
            "contextEvent": "BackEvent"
          },
          {
            "priority": 10,
            "eventType": "MenuConfirmEvent",
            "contextEvent": "ConfirmEvent"
          },
          {
            "priority": 4,
            "eventType": "LeftStickVerticalEvent",
            "contextEvent": "ScrollPrimaryScrollerEvent"
          }
        ]
      },
      "stateActions": {
        "0": {
          "keyboardTouch": "Default",
          "keyboardMouse": "Default",
          "joypad": "Default"
        }
      },
      "enableInputPenetrate": true,
      "enableJoypadVirtualCursor": false
    },
    "ActivitySubPage_SignIn": {
      "actionGroups": {
        "Default": [
          {
            "eventType": "MenuUpEvent",
            "contextEvent": "CommonMenuUpEvent"
          },
          {
            "eventType": "MenuLeftEvent",
            "contextEvent": "CommonMenuLeftEvent"
          },
          {
            "priority": 4,
            "eventType": "LeftStickUpEvent",
            "contextEvent": "CommonLeftStickUpEvent"
          },
          {
            "priority": 4,
            "eventType": "LeftStickDownEvent",
            "contextEvent": "CommonLeftStickDownEvent"
          },
          {
            "priority": 4,
            "eventType": "LeftStickLeftEvent",
            "contextEvent": "CommonLeftStickLeftEvent"
          },
          {
            "priority": 4,
            "eventType": "LeftStickRightEvent",
            "contextEvent": "CommonLeftStickRightEvent"
          },
          {
            "priority": 4,
            "eventType": "RightStickLeftEvent",
            "contextEvent": "CommonRightStickLeftEvent"
          },
          {
            "priority": 4,
            "eventType": "RightStickRightEvent",
            "contextEvent": "CommonRightStickRightEvent"
          },
          {
            "priority": 10,
            "eventType": "MenuBackEvent",
            "contextEvent": "BackEvent"
          },
          {
            "priority": 10,
            "eventType": "MenuConfirmEvent",
            "contextEvent": "ConfirmEvent"
          }
        ]
      },
      "stateActions": {
        "0": {
          "keyboardTouch": "Default",
          "keyboardMouse": "Default",
          "joypad": "Default"
        }
      },
      "enableInputPenetrate": true,
      "enableJoypadVirtualCursor": false
    },
    "ActivitySubPage_Reunion": {
      "actionGroups": {
        "Default": [
          {
            "priority": 10,
            "eventType": "MenuBackEvent",
            "contextEvent": "BackEvent"
          },
          {
            "priority": 10,
            "eventType": "MenuConfirmEvent",
            "contextEvent": "ConfirmEvent"
          },
          {
            "priority": 4,
            "eventType": "MenuLeftEvent",
            "contextEvent": "CommonMenuLeftEvent"
          },
          {
            "priority": 4,
            "eventType": "MenuUpEvent",
            "contextEvent": "CommonMenuUpEvent"
          },
          {
            "priority": 4,
            "eventType": "LeftStickLeftEvent",
            "contextEvent": "CommonLeftStickLeftEvent"
          },
          {
            "priority": 4,
            "eventType": "LeftStickRightEvent",
            "contextEvent": "CommonLeftStickRightEvent"
          },
          {
            "priority": 4,
            "eventType": "LeftStickUpEvent",
            "contextEvent": "CommonLeftStickUpEvent"
          },
          {
            "priority": 4,
            "eventType": "LeftStickDownEvent",
            "contextEvent": "CommonLeftStickDownEvent"
          },
          {
            "priority": 4,
            "eventType": "RightStickLeftEvent",
            "contextEvent": "CommonRightStickLeftEvent"
          },
          {
            "priority": 4,
            "eventType": "RightStickRightEvent",
            "contextEvent": "CommonRightStickRightEvent"
          },
          {
            "priority": 4,
            "eventType": "DPadUpEvent",
            "contextEvent": "MenuNavigationUp"
          },
          {
            "priority": 4,
            "eventType": "RightStickVerticalEvent",
            "contextEvent": "ScrollPrimaryScrollerEvent"
          }
        ]
      },
      "stateActions": {
        "0": {
          "keyboardTouch": "Default",
          "keyboardMouse": "Default",
          "joypad": "Default"
        }
      },
      "enableInputPenetrate": true,
      "enableJoypadVirtualCursor": false
    },
    "ActivitySubPage_Expedition": {
      "actionGroups": {
        "Default": [
          {
            "priority": 10,
            "eventType": "MenuBackEvent",
            "contextEvent": "BackEvent"
          },
          {
            "priority": 10,
            "eventType": "MenuConfirmEvent",
            "contextEvent": "ConfirmEvent"
          },
          {
            "priority": 4,
            "eventType": "MenuUpEvent",
            "contextEvent": "CommonMenuUpEvent"
          },
          {
            "priority": 11,
            "eventType": "DPadUpEvent",
            "nextToHandle": "FrameEnd",
            "contextEvent": "MenuNavigationUp"
          },
          {
            "priority": 4,
            "eventType": "LeftStickLeftEvent",
            "contextEvent": "CommonLeftStickLeftEvent"
          },
          {
            "priority": 4,
            "eventType": "LeftStickVerticalEvent",
            "contextEvent": "ScrollPrimaryScrollerEvent"
          }
        ]
      },
      "stateActions": {
        "0": {
          "keyboardTouch": "Default",
          "keyboardMouse": "Default",
          "joypad": "Default"
        }
      },
      "enableInputPenetrate": true,
      "enableJoypadVirtualCursor": false
    },
    "ActivityExpeditionLendHistoryDialog": {
      "actionGroups": {
        "Default": [
          {
            "priority": 10,
            "eventType": "MenuBackEvent",
            "contextEvent": "BackEvent"
          },
          {
            "priority": 4,
            "eventType": "LeftStickUpEvent",
            "contextEvent": "CommonLeftStickUpEvent"
          },
          {
            "priority": 4,
            "eventType": "LeftStickDownEvent",
            "contextEvent": "CommonLeftStickDownEvent"
          }
        ]
      },
      "stateActions": {
        "0": {
          "keyboardTouch": "Default",
          "keyboardMouse": "Default",
          "joypad": "Default"
        }
      },
      "enableJoypadVirtualCursor": false
    },
    "ActivitySubPage_FoodDelivery": {
      "actionGroups": {
        "Default": [
          {
            "eventType": "MenuUpEvent",
            "contextEvent": "CommonMenuUpEvent"
          },
          {
            "eventType": "MenuLeftEvent",
            "contextEvent": "CommonMenuLeftEvent"
          },
          {
            "priority": 4,
            "eventType": "LeftStickUpEvent",
            "contextEvent": "CommonLeftStickUpEvent"
          },
          {
            "priority": 4,
            "eventType": "LeftStickDownEvent",
            "contextEvent": "CommonLeftStickDownEvent"
          },
          {
            "priority": 4,
            "eventType": "LeftStickLeftEvent",
            "contextEvent": "CommonLeftStickLeftEvent"
          },
          {
            "priority": 4,
            "eventType": "LeftStickRightEvent",
            "contextEvent": "CommonLeftStickRightEvent"
          },
          {
            "priority": 4,
            "eventType": "RightStickLeftEvent",
            "contextEvent": "CommonRightStickLeftEvent"
          },
          {
            "priority": 4,
            "eventType": "RightStickRightEvent",
            "contextEvent": "CommonRightStickRightEvent"
          },
          {
            "eventType": "DPadUpEvent",
            "nextToHandle": "FrameEnd",
            "contextEvent": "ActionNorthEvent"
          },
          {
            "priority": 10,
            "eventType": "MenuBackEvent",
            "contextEvent": "BackEvent"
          },
          {
            "priority": 10,
            "eventType": "MenuConfirmEvent",
            "contextEvent": "ConfirmEvent"
          }
        ]
      },
      "stateActions": {
        "0": {
          "keyboardTouch": "Default",
          "keyboardMouse": "Default",
          "joypad": "Default"
        }
      },
      "enableInputPenetrate": true,
      "enableJoypadVirtualCursor": false
    },
    "ActivitySubPage_Bonus": {
      "actionGroups": {
        "Default": [
          {
            "eventType": "MenuUpEvent",
            "contextEvent": "CommonMenuUpEvent"
          },
          {
            "eventType": "MenuLeftEvent",
            "contextEvent": "CommonMenuLeftEvent"
          },
          {
            "priority": 4,
            "eventType": "RightStickButtonEvent",
            "contextEvent": "ShowItemDetailEvent"
          },
          {
            "priority": 4,
            "eventType": "LeftStickUpEvent",
            "contextEvent": "CommonLeftStickUpEvent"
          },
          {
            "priority": 4,
            "eventType": "LeftStickDownEvent",
            "contextEvent": "CommonLeftStickDownEvent"
          },
          {
            "priority": 4,
            "eventType": "LeftStickLeftEvent",
            "contextEvent": "CommonLeftStickLeftEvent"
          },
          {
            "priority": 4,
            "eventType": "LeftStickRightEvent",
            "contextEvent": "CommonLeftStickRightEvent"
          },
          {
            "priority": 4,
            "eventType": "RightStickLeftEvent",
            "contextEvent": "CommonRightStickLeftEvent"
          },
          {
            "priority": 4,
            "eventType": "RightStickRightEvent",
            "contextEvent": "CommonRightStickRightEvent"
          },
          {
            "priority": 10,
            "eventType": "MenuBackEvent",
            "contextEvent": "BackEvent"
          },
          {
            "priority": 10,
            "eventType": "MenuConfirmEvent",
            "contextEvent": "ConfirmEvent"
          },
          {
            "priority": 4,
            "eventType": "LeftStickVerticalEvent",
            "contextEvent": "ScrollPrimaryScrollerEvent"
          }
        ]
      },
      "stateActions": {
        "0": {
          "keyboardTouch": "Default",
          "keyboardMouse": "Default",
          "joypad": "Default"
        }
      },
      "enableInputPenetrate": true,
      "enableJoypadVirtualCursor": false
    },
    "ActivitySubPage_WaterSpirit": {
      "actionGroups": {
        "Default": [
          {
            "eventType": "MenuUpEvent",
            "contextEvent": "CommonMenuUpEvent"
          },
          {
            "priority": 4,
            "eventType": "LeftStickLeftEvent",
            "contextEvent": "MenuNavigationLeft"
          },
          {
            "priority": 4,
            "eventType": "LeftStickRightEvent",
            "contextEvent": "MenuNavigationRight"
          },
          {
            "priority": 10,
            "eventType": "MenuBackEvent",
            "contextEvent": "BackEvent"
          },
          {
            "priority": 10,
            "eventType": "MenuConfirmEvent",
            "contextEvent": "ConfirmEvent"
          },
          {
            "priority": 10,
            "eventType": "DPadUpEvent",
            "contextEvent": "ActionNorthEvent"
          },
          {
            "eventType": "RightStickButtonEvent",
            "contextEvent": "ShowItemDetailEvent"
          },
          {
            "priority": 4,
            "eventType": "LeftStickVerticalEvent",
            "contextEvent": "ScrollPrimaryScrollerEvent"
          }
        ]
      },
      "stateActions": {
        "0": {
          "keyboardTouch": "Default",
          "keyboardMouse": "Default",
          "joypad": "Default"
        }
      },
      "enableInputPenetrate": true,
      "enableJoypadVirtualCursor": false
    },
    "ActivityWaterSpiritDialog": {
      "actionGroups": {
        "Default": [
          {
            "eventType": "LeftStickLeftEvent",
            "nextToHandle": "FrameEnd",
            "contextEvent": "CommonLeftStickLeftEvent"
          },
          {
            "eventType": "LeftStickRightEvent",
            "nextToHandle": "FrameEnd",
            "contextEvent": "CommonLeftStickRightEvent"
          },
          {
            "eventType": "DPadUpEvent",
            "contextEvent": "ShowHelpTips"
          },
          {
            "eventType": "DPadLeftEvent",
            "contextEvent": "ActionWestEvent"
          },
          {
            "eventType": "LeftStickUpEvent",
            "nextToHandle": "FrameEnd",
            "contextEvent": "CommonLeftStickUpEvent"
          },
          {
            "eventType": "LeftStickDownEvent",
            "nextToHandle": "FrameEnd",
            "contextEvent": "CommonLeftStickDownEvent"
          },
          {
            "eventType": "LeftShoulderEvent",
            "nextToHandle": "FrameEnd",
            "contextEvent": "ToPrevPrimaryTabEvent"
          },
          {
            "eventType": "RightShoulderEvent",
            "nextToHandle": "FrameEnd",
            "contextEvent": "ToNextPrimaryTabEvent"
          },
          {
            "eventType": "RightStickButtonEvent",
            "contextEvent": "CommonRightStickButtonEvent"
          },
          {
            "priority": 10,
            "eventType": "MenuBackEvent",
            "contextEvent": "BackEvent"
          },
          {
            "priority": 10,
            "eventType": "MenuConfirmEvent",
            "contextEvent": "ConfirmEvent"
          },
          {
            "eventType": "RightStickButtonEvent",
            "contextEvent": "ShowItemDetailEvent"
          },
          {
            "priority": 4,
            "eventType": "LeftStickVerticalEvent",
            "contextEvent": "ScrollPrimaryScrollerEvent"
          }
        ]
      },
      "stateActions": {
        "0": {
          "keyboardTouch": "Default",
          "keyboardMouse": "Default",
          "joypad": "Default"
        }
      },
      "enableJoypadVirtualCursor": false
    },
    "ActivitySubPage_FleurFair": {
      "actionGroups": {
        "Default": [
          {
            "priority": 10,
            "eventType": "MenuBackEvent",
            "contextEvent": "BackEvent"
          },
          {
            "priority": 10,
            "eventType": "MenuConfirmEvent",
            "contextEvent": "ConfirmEvent"
          },
          {
            "priority": 4,
            "eventType": "RightStickLeftEvent",
            "contextEvent": "CommonRightStickLeftEvent"
          },
          {
            "priority": 4,
            "eventType": "RightStickRightEvent",
            "contextEvent": "CommonRightStickRightEvent"
          },
          {
            "eventType": "DPadUpEvent",
            "contextEvent": "ShowHelpTips"
          },
          {
            "eventType": "LeftStickLeftEvent",
            "nextToHandle": "FrameEnd",
            "contextEvent": "CommonLeftStickLeftEvent"
          },
          {
            "eventType": "LeftStickRightEvent",
            "nextToHandle": "FrameEnd",
            "contextEvent": "CommonLeftStickRightEvent"
          },
          {
            "eventType": "RightStickButtonEvent",
            "contextEvent": "CommonRightStickButtonEvent"
          },
          {
            "eventType": "MenuLeftEvent",
            "contextEvent": "CommonMenuLeftEvent"
          },
          {
            "priority": 4,
            "eventType": "LeftStickVerticalEvent",
            "contextEvent": "ScrollPrimaryScrollerEvent"
          }
        ]
      },
      "stateActions": {
        "0": {
          "keyboardTouch": "Default",
          "keyboardMouse": "Default",
          "joypad": "Default"
        }
      },
      "enableInputPenetrate": true,
      "enableJoypadVirtualCursor": false
    },
    "ActivitySummertime": {
      "actionGroups": {
        "Default": [
          {
            "priority": 10,
            "eventType": "MenuBackEvent",
            "contextEvent": "BackEvent"
          },
          {
            "priority": 10,
            "eventType": "MenuConfirmEvent",
            "contextEvent": "ConfirmEvent"
          },
          {
            "priority": 4,
            "eventType": "RightStickLeftEvent",
            "contextEvent": "CommonRightStickLeftEvent"
          },
          {
            "priority": 4,
            "eventType": "RightStickRightEvent",
            "contextEvent": "CommonRightStickRightEvent"
          },
          {
            "eventType": "DPadUpEvent",
            "contextEvent": "ShowHelpTips"
          },
          {
            "eventType": "LeftStickLeftEvent",
            "nextToHandle": "FrameEnd",
            "contextEvent": "CommonLeftStickLeftEvent"
          },
          {
            "eventType": "LeftStickRightEvent",
            "nextToHandle": "FrameEnd",
            "contextEvent": "CommonLeftStickRightEvent"
          },
          {
            "eventType": "RightStickButtonEvent",
            "contextEvent": "ShowItemDetailEvent"
          },
          {
            "eventType": "MenuLeftEvent",
            "contextEvent": "CommonMenuLeftEvent"
          },
          {
            "priority": 4,
            "eventType": "LeftStickVerticalEvent",
            "contextEvent": "ScrollPrimaryScrollerEvent"
          }
        ]
      },
      "stateActions": {
        "0": {
          "keyboardTouch": "Default",
          "keyboardMouse": "Default",
          "joypad": "Default"
        }
      },
      "enableInputPenetrate": true,
      "enableJoypadVirtualCursor": false
    },
    "ActivityBlitzRush": {
      "actionGroups": {
        "Default": [
          {
            "priority": 10,
            "eventType": "MenuBackEvent",
            "contextEvent": "BackEvent"
          },
          {
            "priority": 10,
            "eventType": "MenuConfirmEvent",
            "contextEvent": "ConfirmEvent"
          },
          {
            "priority": 4,
            "eventType": "RightStickLeftEvent",
            "contextEvent": "CommonRightStickLeftEvent"
          },
          {
            "priority": 4,
            "eventType": "RightStickRightEvent",
            "contextEvent": "CommonRightStickRightEvent"
          },
          {
            "eventType": "DPadUpEvent",
            "contextEvent": "MenuNavigationUp"
          },
          {
            "eventType": "RightStickButtonEvent",
            "contextEvent": "ShowItemDetailEvent"
          },
          {
            "eventType": "MenuLeftEvent",
            "contextEvent": "CommonMenuLeftEvent"
          },
          {
            "priority": 4,
            "eventType": "LeftStickMoveEvent",
            "contextEvent": "ScrollPrimaryScrollerEvent"
          },
          {
            "priority": 4,
            "eventType": "LeftStickUpEvent",
            "contextEvent": "CommonLeftStickUpEvent"
          },
          {
            "priority": 4,
            "eventType": "LeftStickDownEvent",
            "contextEvent": "CommonLeftStickDownEvent"
          },
          {
            "priority": 4,
            "eventType": "LeftStickLeftEvent",
            "contextEvent": "CommonLeftStickLeftEvent"
          },
          {
            "priority": 4,
            "eventType": "LeftStickRightEvent",
            "contextEvent": "CommonLeftStickRightEvent"
          },
          {
            "priority": 10,
            "eventType": "DPadRightEvent",
            "contextEvent": "MenuNavigationRight"
          }
        ]
      },
      "stateActions": {
        "0": {
          "keyboardTouch": "Default",
          "keyboardMouse": "Default",
          "joypad": "Default"
        }
      },
      "enableInputPenetrate": true,
      "enableJoypadVirtualCursor": false
    },
    "ActivitySubPage_Hachi": {
      "actionGroups": {
        "Default": [
          {
            "priority": 10,
            "eventType": "MenuBackEvent",
            "contextEvent": "BackEvent"
          },
          {
            "priority": 10,
            "eventType": "MenuConfirmEvent",
            "contextEvent": "ConfirmEvent"
          },
          {
            "priority": 4,
            "eventType": "RightStickLeftEvent",
            "contextEvent": "CommonRightStickLeftEvent"
          },
          {
            "priority": 4,
            "eventType": "RightStickRightEvent",
            "contextEvent": "CommonRightStickRightEvent"
          },
          {
            "eventType": "DPadUpEvent",
            "contextEvent": "MenuNavigationUp"
          },
          {
            "eventType": "RightStickButtonEvent",
            "contextEvent": "CommonRightStickButtonEvent"
          },
          {
            "eventType": "MenuLeftEvent",
            "contextEvent": "CommonMenuLeftEvent"
          },
          {
            "priority": 4,
            "eventType": "LeftStickMoveEvent",
            "contextEvent": "ScrollPrimaryScrollerEvent"
          },
          {
            "priority": 4,
            "eventType": "LeftStickUpEvent",
            "contextEvent": "CommonLeftStickUpEvent"
          },
          {
            "priority": 4,
            "eventType": "LeftStickDownEvent",
            "contextEvent": "CommonLeftStickDownEvent"
          },
          {
            "priority": 4,
            "eventType": "LeftStickLeftEvent",
            "contextEvent": "CommonLeftStickLeftEvent"
          },
          {
            "priority": 4,
            "eventType": "LeftStickRightEvent",
            "contextEvent": "CommonLeftStickRightEvent"
          },
          {
            "priority": 10,
            "eventType": "DPadRightEvent",
            "contextEvent": "MenuNavigationRight"
          }
        ]
      },
      "stateActions": {
        "0": {
          "keyboardTouch": "Default",
          "keyboardMouse": "Default",
          "joypad": "Default"
        }
      },
      "enableInputPenetrate": true,
      "enableJoypadVirtualCursor": false
    },
    "ActivitySubPage_Photo": {
      "actionGroups": {
        "Default": [
          {
            "priority": 10,
            "eventType": "MenuBackEvent",
            "contextEvent": "BackEvent"
          },
          {
            "priority": 10,
            "eventType": "MenuConfirmEvent",
            "contextEvent": "ConfirmEvent"
          },
          {
            "priority": 4,
            "eventType": "RightStickLeftEvent",
            "contextEvent": "CommonRightStickLeftEvent"
          },
          {
            "priority": 4,
            "eventType": "RightStickRightEvent",
            "contextEvent": "CommonRightStickRightEvent"
          },
          {
            "eventType": "DPadUpEvent",
            "contextEvent": "MenuNavigationUp"
          },
          {
            "eventType": "RightStickButtonEvent",
            "contextEvent": "ShowItemDetailEvent"
          },
          {
            "eventType": "MenuLeftEvent",
            "contextEvent": "CommonMenuLeftEvent"
          },
          {
            "priority": 4,
            "eventType": "LeftStickMoveEvent",
            "contextEvent": "ScrollPrimaryScrollerEvent"
          },
          {
            "priority": 4,
            "eventType": "LeftStickUpEvent",
            "contextEvent": "CommonLeftStickUpEvent"
          },
          {
            "priority": 4,
            "eventType": "LeftStickDownEvent",
            "contextEvent": "CommonLeftStickDownEvent"
          },
          {
            "priority": 4,
            "eventType": "LeftStickLeftEvent",
            "contextEvent": "CommonLeftStickLeftEvent"
          },
          {
            "priority": 4,
            "eventType": "LeftStickRightEvent",
            "contextEvent": "CommonLeftStickRightEvent"
          },
          {
            "priority": 10,
            "eventType": "DPadRightEvent",
            "contextEvent": "MenuNavigationRight"
          }
        ]
      },
      "stateActions": {
        "0": {
          "keyboardTouch": "Default",
          "keyboardMouse": "Default",
          "joypad": "Default"
        }
      },
      "enableInputPenetrate": true,
      "enableJoypadVirtualCursor": false
    },
    "ActivitySubPage_PhotoV4": {
      "actionGroups": {
        "Default": [
          {
            "priority": 10,
            "eventType": "MenuBackEvent",
            "contextEvent": "BackEvent"
          },
          {
            "priority": 10,
            "eventType": "MenuConfirmEvent",
            "contextEvent": "ConfirmEvent"
          },
          {
            "priority": 4,
            "eventType": "RightStickLeftEvent",
            "contextEvent": "CommonRightStickLeftEvent"
          },
          {
            "priority": 4,
            "eventType": "RightStickRightEvent",
            "contextEvent": "CommonRightStickRightEvent"
          },
          {
            "eventType": "DPadUpEvent",
            "contextEvent": "MenuNavigationUp"
          },
          {
            "eventType": "RightStickButtonEvent",
            "contextEvent": "ShowItemDetailEvent"
          },
          {
            "eventType": "MenuLeftEvent",
            "contextEvent": "CommonMenuLeftEvent"
          },
          {
            "priority": 4,
            "eventType": "LeftStickMoveEvent",
            "contextEvent": "ScrollPrimaryScrollerEvent"
          },
          {
            "priority": 4,
            "eventType": "LeftStickUpEvent",
            "contextEvent": "CommonLeftStickUpEvent"
          },
          {
            "priority": 4,
            "eventType": "LeftStickDownEvent",
            "contextEvent": "CommonLeftStickDownEvent"
          },
          {
            "priority": 4,
            "eventType": "LeftStickLeftEvent",
            "contextEvent": "CommonLeftStickLeftEvent"
          },
          {
            "priority": 4,
            "eventType": "LeftStickRightEvent",
            "contextEvent": "CommonLeftStickRightEvent"
          },
          {
            "priority": 10,
            "eventType": "DPadRightEvent",
            "contextEvent": "MenuNavigationRight"
          },
          {
            "priority": 4,
            "eventType": "DPadUpEvent",
            "contextEvent": "ShowHelpTips"
          }
        ]
      },
      "stateActions": {
        "0": {
          "keyboardTouch": "Default",
          "keyboardMouse": "Default",
          "joypad": "Default"
        }
      },
      "enableInputPenetrate": true,
      "enableJoypadVirtualCursor": false
    },
    "ActivitySubPage_PhotoV5": {
      "actionGroups": {
        "Default": [
          {
            "priority": 10,
            "eventType": "MenuBackEvent",
            "contextEvent": "BackEvent"
          },
          {
            "priority": 10,
            "eventType": "MenuConfirmEvent",
            "contextEvent": "ConfirmEvent"
          },
          {
            "priority": 4,
            "eventType": "RightStickLeftEvent",
            "contextEvent": "CommonRightStickLeftEvent"
          },
          {
            "priority": 4,
            "eventType": "RightStickRightEvent",
            "contextEvent": "CommonRightStickRightEvent"
          },
          {
            "eventType": "DPadUpEvent",
            "contextEvent": "MenuNavigationUp"
          },
          {
            "eventType": "RightStickButtonEvent",
            "contextEvent": "ShowItemDetailEvent"
          },
          {
            "eventType": "MenuLeftEvent",
            "contextEvent": "CommonMenuLeftEvent"
          },
          {
            "priority": 4,
            "eventType": "LeftStickMoveEvent",
            "contextEvent": "ScrollPrimaryScrollerEvent"
          },
          {
            "priority": 4,
            "eventType": "LeftStickUpEvent",
            "contextEvent": "CommonLeftStickUpEvent"
          },
          {
            "priority": 4,
            "eventType": "LeftStickDownEvent",
            "contextEvent": "CommonLeftStickDownEvent"
          },
          {
            "priority": 4,
            "eventType": "LeftStickLeftEvent",
            "contextEvent": "CommonLeftStickLeftEvent"
          },
          {
            "priority": 4,
            "eventType": "LeftStickRightEvent",
            "contextEvent": "CommonLeftStickRightEvent"
          },
          {
            "priority": 10,
            "eventType": "DPadRightEvent",
            "contextEvent": "MenuNavigationRight"
          },
          {
            "priority": 9,
            "eventType": "MenuLeftEvent",
            "contextEvent": "CommonMenuLeftEvent"
          },
          {
            "priority": 4,
            "eventType": "DPadUpEvent",
            "contextEvent": "ShowHelpTips"
          }
        ]
      },
      "stateActions": {
        "0": {
          "keyboardTouch": "Default",
          "keyboardMouse": "Default",
          "joypad": "Default"
        }
      },
      "enableInputPenetrate": true,
      "enableJoypadVirtualCursor": false
    },
    "ActivitySubPage_Gear": {
      "actionGroups": {
        "Default": [
          {
            "priority": 10,
            "eventType": "MenuBackEvent",
            "contextEvent": "BackEvent"
          },
          {
            "priority": 10,
            "eventType": "MenuConfirmEvent",
            "contextEvent": "ConfirmEvent"
          },
          {
            "priority": 4,
            "eventType": "RightStickLeftEvent",
            "contextEvent": "CommonRightStickLeftEvent"
          },
          {
            "priority": 4,
            "eventType": "RightStickRightEvent",
            "contextEvent": "CommonRightStickRightEvent"
          },
          {
            "eventType": "DPadUpEvent",
            "contextEvent": "MenuNavigationUp"
          },
          {
            "eventType": "RightStickButtonEvent",
            "contextEvent": "ShowItemDetailEvent"
          },
          {
            "eventType": "MenuLeftEvent",
            "contextEvent": "CommonMenuLeftEvent"
          },
          {
            "eventType": "MenuUpEvent",
            "contextEvent": "CommonMenuUpEvent"
          },
          {
            "priority": 4,
            "eventType": "LeftStickMoveEvent",
            "contextEvent": "ScrollPrimaryScrollerEvent"
          },
          {
            "priority": 4,
            "eventType": "LeftStickUpEvent",
            "contextEvent": "CommonLeftStickUpEvent"
          },
          {
            "priority": 4,
            "eventType": "LeftStickDownEvent",
            "contextEvent": "CommonLeftStickDownEvent"
          },
          {
            "priority": 4,
            "eventType": "LeftStickLeftEvent",
            "contextEvent": "CommonLeftStickLeftEvent"
          },
          {
            "priority": 4,
            "eventType": "LeftStickRightEvent",
            "contextEvent": "CommonLeftStickRightEvent"
          },
          {
            "priority": 10,
            "eventType": "DPadRightEvent",
            "contextEvent": "MenuNavigationRight"
          }
        ]
      },
      "stateActions": {
        "0": {
          "keyboardTouch": "Default",
          "keyboardMouse": "Default",
          "joypad": "Default"
        }
      },
      "enableInputPenetrate": true,
      "enableJoypadVirtualCursor": false
    },
    "SummertimeStoryPage": {
      "actionGroups": {
        "Default": [
          {
            "priority": 10,
            "eventType": "MenuBackEvent",
            "contextEvent": "BackEvent"
          },
          {
            "priority": 10,
            "eventType": "MenuConfirmEvent",
            "contextEvent": "ConfirmEvent"
          },
          {
            "eventType": "DPadUpEvent",
            "contextEvent": "ShowHelpTips"
          },
          {
            "eventType": "LeftStickLeftEvent",
            "nextToHandle": "FrameEnd",
            "contextEvent": "CommonLeftStickLeftEvent"
          },
          {
            "eventType": "LeftStickRightEvent",
            "nextToHandle": "FrameEnd",
            "contextEvent": "CommonLeftStickRightEvent"
          },
          {
            "eventType": "RightStickButtonEvent",
            "contextEvent": "CommonRightStickButtonEvent"
          },
          {
            "priority": 4,
            "eventType": "LeftStickVerticalEvent",
            "contextEvent": "ScrollPrimaryScrollerEvent"
          }
        ]
      },
      "stateActions": {
        "0": {
          "keyboardTouch": "Default",
          "keyboardMouse": "Default",
          "joypad": "Default"
        }
      },
      "enableInputPenetrate": true,
      "enableJoypadVirtualCursor": false
    },
    "ActivitySubPage_DoubleReward": {
      "actionGroups": {
        "Default": [
          {
            "priority": 10,
            "eventType": "MenuBackEvent",
            "contextEvent": "BackEvent"
          },
          {
            "priority": 10,
            "eventType": "MenuConfirmEvent",
            "contextEvent": "ConfirmEvent"
          },
          {
            "priority": 10,
            "eventType": "DPadUpEvent",
            "contextEvent": "MenuNavigationUp"
          },
          {
            "priority": 4,
            "eventType": "LeftStickMoveEvent",
            "contextEvent": "ScrollPrimaryScrollerEvent"
          },
          {
            "priority": 10,
            "eventType": "LeftStickLeftEvent",
            "contextEvent": "CommonLeftStickLeftEvent"
          }
        ]
      },
      "stateActions": {
        "0": {
          "keyboardTouch": "Default",
          "keyboardMouse": "Default",
          "joypad": "Default"
        }
      },
      "enableInputPenetrate": true,
      "enableJoypadVirtualCursor": false
    },
    "ActivityOperationsBonusDetailPage": {
      "actionGroups": {
        "Default": [
          {
            "priority": 10,
            "eventType": "MenuBackEvent",
            "contextEvent": "BackEvent"
          },
          {
            "priority": 10,
            "eventType": "MenuConfirmEvent",
            "contextEvent": "ConfirmEvent"
          },
          {
            "priority": 10,
            "eventType": "DPadUpEvent",
            "contextEvent": "ShowHelpTips"
          },
          {
            "priority": 10,
            "eventType": "LeftStickUpEvent",
            "contextEvent": "CommonLeftStickUpEvent"
          },
          {
            "priority": 10,
            "eventType": "LeftStickDownEvent",
            "contextEvent": "CommonLeftStickDownEvent"
          },
          {
            "priority": 10,
            "eventType": "LeftStickLeftEvent",
            "contextEvent": "CommonLeftStickLeftEvent"
          },
          {
            "priority": 10,
            "eventType": "LeftStickRightEvent",
            "contextEvent": "CommonLeftStickRightEvent"
          },
          {
            "priority": 10,
            "eventType": "RightStickButtonEvent",
            "contextEvent": "CommonRightStickButtonEvent"
          }
        ]
      },
      "stateActions": {
        "0": {
          "keyboardTouch": "Default",
          "keyboardMouse": "Default",
          "joypad": "Default"
        }
      },
      "enableInputPenetrate": true,
      "enableJoypadVirtualCursor": false
    },
    "ActivitySubPage_Crucible": {
      "actionGroups": {
        "Default": [
          {
            "eventType": "MenuUpEvent",
            "contextEvent": "CommonMenuUpEvent"
          },
          {
            "eventType": "MenuLeftEvent",
            "contextEvent": "CommonMenuLeftEvent"
          },
          {
            "priority": 4,
            "eventType": "LeftStickUpEvent",
            "contextEvent": "CommonLeftStickUpEvent"
          },
          {
            "priority": 4,
            "eventType": "LeftStickDownEvent",
            "contextEvent": "CommonLeftStickDownEvent"
          },
          {
            "priority": 4,
            "eventType": "LeftStickLeftEvent",
            "contextEvent": "CommonLeftStickLeftEvent"
          },
          {
            "priority": 4,
            "eventType": "LeftStickRightEvent",
            "contextEvent": "CommonLeftStickRightEvent"
          },
          {
            "priority": 4,
            "eventType": "RightStickLeftEvent",
            "contextEvent": "CommonRightStickLeftEvent"
          },
          {
            "priority": 4,
            "eventType": "RightStickRightEvent",
            "contextEvent": "CommonRightStickRightEvent"
          },
          {
            "priority": 10,
            "eventType": "MenuBackEvent",
            "contextEvent": "BackEvent"
          },
          {
            "priority": 10,
            "eventType": "MenuConfirmEvent",
            "contextEvent": "ConfirmEvent"
          },
          {
            "priority": 4,
            "eventType": "LeftStickVerticalEvent",
            "contextEvent": "ScrollPrimaryScrollerEvent"
          },
          {
            "eventType": "DPadUpEvent",
            "nextToHandle": "FrameEnd",
            "contextEvent": "ActionNorthEvent"
          },
          {
            "eventType": "DPadLeftEvent",
            "nextToHandle": "FrameEnd",
            "contextEvent": "ActionWestEvent"
          },
          {
            "eventType": "RightStickButtonEvent",
            "contextEvent": "CommonRightStickButtonEvent"
          }
        ]
      },
      "stateActions": {
        "0": {
          "keyboardTouch": "Default",
          "keyboardMouse": "Default",
          "joypad": "Default"
        }
      },
      "enableInputPenetrate": true,
      "enableJoypadVirtualCursor": false
    },
    "ActivitySubPage_TrialAvatar": {
      "actionGroups": {
        "Default": [
          {
            "eventType": "MenuUpEvent",
            "contextEvent": "CommonMenuUpEvent"
          },
          {
            "eventType": "LeftShoulderEvent",
            "contextEvent": "ToPrevPrimaryTabEvent"
          },
          {
            "eventType": "RightShoulderEvent",
            "contextEvent": "ToNextPrimaryTabEvent"
          },
          {
            "priority": 4,
            "eventType": "LeftStickLeftEvent",
            "contextEvent": "CommonLeftStickLeftEvent"
          },
          {
            "priority": 4,
            "eventType": "LeftStickRightEvent",
            "contextEvent": "CommonLeftStickRightEvent"
          },
          {
            "eventType": "MenuLeftEvent",
            "contextEvent": "CommonMenuLeftEvent"
          },
          {
            "eventType": "RightStickButtonEvent",
            "contextEvent": "ShowItemDetailEvent"
          },
          {
            "priority": 10,
            "eventType": "MenuBackEvent",
            "contextEvent": "BackEvent"
          },
          {
            "priority": 10,
            "eventType": "MenuConfirmEvent",
            "contextEvent": "ConfirmEvent"
          },
          {
            "eventType": "DPadUpEvent",
            "nextToHandle": "FrameEnd",
            "contextEvent": "ActionNorthEvent"
          },
          {
            "priority": 4,
            "eventType": "RightStickLeftEvent",
            "contextEvent": "CommonRightStickLeftEvent"
          },
          {
            "priority": 4,
            "eventType": "RightStickRightEvent",
            "contextEvent": "CommonRightStickRightEvent"
          }
        ]
      },
      "stateActions": {
        "0": {
          "keyboardTouch": "Default",
          "keyboardMouse": "Default",
          "joypad": "Default"
        }
      },
      "enableInputPenetrate": true,
      "enableJoypadVirtualCursor": false
    },
    "ActivitySubPage_NewBeeBonus": {
      "actionGroups": {
        "Default": [
          {
            "priority": 4,
            "eventType": "LeftStickLeftEvent",
            "contextEvent": "CommonLeftStickLeftEvent"
          },
          {
            "priority": 4,
            "eventType": "RightStickLeftEvent",
            "contextEvent": "CommonRightStickLeftEvent"
          },
          {
            "priority": 10,
            "eventType": "MenuBackEvent",
            "contextEvent": "BackEvent"
          },
          {
            "priority": 10,
            "eventType": "MenuConfirmEvent",
            "contextEvent": "ConfirmEvent"
          }
        ]
      },
      "stateActions": {
        "0": {
          "keyboardTouch": "Default",
          "keyboardMouse": "Default",
          "joypad": "Default"
        }
      },
      "enableInputPenetrate": true,
      "enableJoypadVirtualCursor": false
    },
    "ActivitySubPage_SalesMan": {
      "actionGroups": {
        "Default": [
          {
            "eventType": "MenuUpEvent",
            "contextEvent": "CommonMenuUpEvent"
          },
          {
            "eventType": "MenuLeftEvent",
            "contextEvent": "CommonMenuLeftEvent"
          },
          {
            "priority": 10,
            "eventType": "LeftStickLeftEvent",
            "contextEvent": "MenuNavigationLeft"
          },
          {
            "priority": 10,
            "eventType": "LeftStickRightEvent",
            "contextEvent": "MenuNavigationRight"
          },
          {
            "eventType": "RightStickButtonEvent",
            "contextEvent": "CommonRightStickButtonEvent"
          },
          {
            "priority": 10,
            "eventType": "MenuBackEvent",
            "contextEvent": "BackEvent"
          },
          {
            "priority": 10,
            "eventType": "MenuConfirmEvent",
            "contextEvent": "ConfirmEvent"
          },
          {
            "priority": 4,
            "eventType": "RightStickLeftEvent",
            "contextEvent": "CommonRightStickLeftEvent"
          },
          {
            "priority": 4,
            "eventType": "RightStickRightEvent",
            "contextEvent": "CommonRightStickRightEvent"
          },
          {
            "priority": 4,
            "eventType": "LeftStickVerticalEvent",
            "contextEvent": "ScrollPrimaryScrollerEvent"
          },
          {
            "priority": 1,
            "eventType": "MenuConfirmingCancelEvent",
            "nextToHandle": "FrameEnd",
            "contextEvent": "ConfirmingCancelEvent"
          },
          {
            "eventType": "DPadUpEvent",
            "nextToHandle": "FrameEnd",
            "contextEvent": "ActionNorthEvent"
          },
          {
            "eventType": "DPadRightEvent",
            "nextToHandle": "FrameEnd",
            "contextEvent": "ActionEastEvent"
          }
        ]
      },
      "stateActions": {
        "0": {
          "keyboardTouch": "Default",
          "keyboardMouse": "Default",
          "joypad": "Default"
        }
      },
      "enableInputPenetrate": true,
      "enableJoypadVirtualCursor": false
    },
    "ActivitySubPage_PersonalLine": {
      "actionGroups": {
        "Default": [
          {
            "priority": 4,
            "eventType": "LeftStickLeftEvent",
            "contextEvent": "CommonLeftStickLeftEvent"
          },
          {
            "priority": 4,
            "eventType": "LeftStickRightEvent",
            "contextEvent": "CommonLeftStickRightEvent"
          },
          {
            "priority": 4,
            "eventType": "RightStickLeftEvent",
            "contextEvent": "CommonRightStickLeftEvent"
          },
          {
            "priority": 4,
            "eventType": "RightStickRightEvent",
            "contextEvent": "CommonRightStickRightEvent"
          },
          {
            "priority": 10,
            "eventType": "MenuBackEvent",
            "contextEvent": "BackEvent"
          },
          {
            "priority": 10,
            "eventType": "MenuConfirmEvent",
            "contextEvent": "ConfirmEvent"
          },
          {
            "priority": 4,
            "eventType": "LeftStickVerticalEvent",
            "contextEvent": "ScrollPrimaryScrollerEvent"
          },
          {
            "eventType": "DPadUpEvent",
            "nextToHandle": "FrameEnd",
            "contextEvent": "ActionNorthEvent"
          }
        ]
      },
      "stateActions": {
        "0": {
          "keyboardTouch": "Default",
          "keyboardMouse": "Default",
          "joypad": "Default"
        }
      },
      "enableInputPenetrate": true,
      "enableJoypadVirtualCursor": false
    },
    "ActivitySubPage_NatlanTribalQuest": {
      "actionGroups": {
        "Default": [
          {
            "priority": 4,
            "eventType": "LeftStickLeftEvent",
            "contextEvent": "CommonLeftStickLeftEvent"
          },
          {
            "priority": 4,
            "eventType": "LeftStickRightEvent",
            "contextEvent": "CommonLeftStickRightEvent"
          },
          {
            "priority": 4,
            "eventType": "RightStickLeftEvent",
            "contextEvent": "CommonRightStickLeftEvent"
          },
          {
            "priority": 4,
            "eventType": "RightStickRightEvent",
            "contextEvent": "CommonRightStickRightEvent"
          },
          {
            "priority": 10,
            "eventType": "MenuBackEvent",
            "contextEvent": "BackEvent"
          },
          {
            "priority": 10,
            "eventType": "MenuConfirmEvent",
            "contextEvent": "ConfirmEvent"
          },
          {
            "priority": 4,
            "eventType": "LeftStickVerticalEvent",
            "contextEvent": "ScrollPrimaryScrollerEvent"
          },
          {
            "priority": 4,
            "eventType": "LeftStickHorizontalEvent",
            "contextEvent": "CommonLeftStickHorizontalEvent"
          },
          {
            "priority": 4,
            "eventType": "RightStickButtonEvent",
            "contextEvent": "ShowItemDetailEvent"
          },
          {
            "eventType": "DPadUpEvent",
            "nextToHandle": "FrameEnd",
            "contextEvent": "ActionNorthEvent"
          }
        ]
      },
      "stateActions": {
        "0": {
          "keyboardTouch": "Default",
          "keyboardMouse": "Default",
          "joypad": "Default"
        }
      },
      "enableInputPenetrate": true,
      "enableJoypadVirtualCursor": false
    },
    "ActivitySubPage_Aster": {
      "actionGroups": {
        "Default": [
          {
            "eventType": "MenuUpEvent",
            "contextEvent": "CommonMenuUpEvent"
          },
          {
            "eventType": "RightStickButtonEvent",
            "contextEvent": "CommonRightStickButtonEvent"
          },
          {
            "priority": 10,
            "eventType": "LeftStickLeftEvent",
            "contextEvent": "MenuNavigationLeft"
          },
          {
            "priority": 10,
            "eventType": "LeftStickRightEvent",
            "contextEvent": "MenuNavigationRight"
          },
          {
            "priority": 4,
            "eventType": "RightStickLeftEvent",
            "contextEvent": "CommonRightStickLeftEvent"
          },
          {
            "priority": 4,
            "eventType": "RightStickRightEvent",
            "contextEvent": "CommonRightStickRightEvent"
          },
          {
            "priority": 10,
            "eventType": "MenuBackEvent",
            "contextEvent": "BackEvent"
          },
          {
            "priority": 10,
            "eventType": "MenuConfirmEvent",
            "contextEvent": "ConfirmEvent"
          },
          {
            "priority": 4,
            "eventType": "LeftStickVerticalEvent",
            "contextEvent": "ScrollPrimaryScrollerEvent"
          },
          {
            "eventType": "DPadUpEvent",
            "nextToHandle": "FrameEnd",
            "contextEvent": "ActionNorthEvent"
          }
        ]
      },
      "stateActions": {
        "0": {
          "keyboardTouch": "Default",
          "keyboardMouse": "Default",
          "joypad": "Default"
        }
      },
      "enableInputPenetrate": true,
      "enableJoypadVirtualCursor": false
    },
    "ActivitySalesManRewardDialog": {
      "actionGroups": {
        "Default": [
          {
            "priority": 10,
            "eventType": "MenuConfirmEvent",
            "contextEvent": "ConfirmEvent"
          },
          {
            "priority": 10,
            "eventType": "MenuBackEvent",
            "nextToHandle": "FrameEnd",
            "contextEvent": "BackEvent"
          },
          {
            "eventType": "RightStickButtonEvent",
            "contextEvent": "CommonRightStickButtonEvent"
          },
          {
            "priority": 4,
            "eventType": "LeftStickLeftEvent",
            "contextEvent": "CommonLeftStickLeftEvent"
          },
          {
            "priority": 4,
            "eventType": "LeftStickRightEvent",
            "contextEvent": "CommonLeftStickRightEvent"
          },
          {
            "priority": 4,
            "eventType": "LeftStickUpEvent",
            "contextEvent": "CommonLeftStickUpEvent"
          },
          {
            "priority": 4,
            "eventType": "LeftStickDownEvent",
            "contextEvent": "CommonLeftStickDownEvent"
          }
        ]
      },
      "stateActions": {
        "0": {
          "keyboardTouch": "Default",
          "keyboardMouse": "Default",
          "joypad": "Default"
        }
      },
      "enableJoypadVirtualCursor": false
    },
    "ActivitySalesManDeliverDialog": {
      "actionGroups": {
        "Default": [
          {
            "priority": 10,
            "eventType": "MenuConfirmEvent",
            "contextEvent": "ConfirmEvent"
          },
          {
            "priority": 10,
            "eventType": "MenuBackEvent",
            "nextToHandle": "FrameEnd",
            "contextEvent": "BackEvent"
          },
          {
            "eventType": "RightStickButtonEvent",
            "contextEvent": "CommonRightStickButtonEvent"
          },
          {
            "priority": 4,
            "eventType": "LeftStickLeftEvent",
            "contextEvent": "CommonLeftStickLeftEvent"
          },
          {
            "priority": 4,
            "eventType": "LeftStickRightEvent",
            "contextEvent": "CommonLeftStickRightEvent"
          },
          {
            "priority": 4,
            "eventType": "LeftStickUpEvent",
            "contextEvent": "CommonLeftStickUpEvent"
          },
          {
            "priority": 4,
            "eventType": "LeftStickDownEvent",
            "contextEvent": "CommonLeftStickDownEvent"
          },
          {
            "eventType": "MenuLeftEvent",
            "contextEvent": "CommonMenuLeftEvent"
          }
        ]
      },
      "stateActions": {
        "0": {
          "keyboardTouch": "Default",
          "keyboardMouse": "Default",
          "joypad": "Default"
        }
      },
      "enableJoypadVirtualCursor": false
    },
    "ActivitySalesmanDeliverPreview": {
      "actionGroups": {
        "Default": [
          {
            "priority": 10,
            "eventType": "MenuConfirmEvent",
            "contextEvent": "ConfirmEvent"
          },
          {
            "priority": 10,
            "eventType": "MenuBackEvent",
            "nextToHandle": "FrameEnd",
            "contextEvent": "BackEvent"
          },
          {
            "eventType": "RightStickButtonEvent",
            "contextEvent": "CommonRightStickButtonEvent"
          },
          {
            "priority": 4,
            "eventType": "LeftStickLeftEvent",
            "contextEvent": "CommonLeftStickLeftEvent"
          },
          {
            "priority": 4,
            "eventType": "LeftStickRightEvent",
            "contextEvent": "CommonLeftStickRightEvent"
          },
          {
            "priority": 4,
            "eventType": "LeftStickUpEvent",
            "contextEvent": "CommonLeftStickUpEvent"
          },
          {
            "priority": 4,
            "eventType": "LeftStickDownEvent",
            "contextEvent": "CommonLeftStickDownEvent"
          },
          {
            "eventType": "MenuLeftEvent",
            "contextEvent": "CommonMenuLeftEvent"
          }
        ]
      },
      "stateActions": {
        "0": {
          "keyboardTouch": "Default",
          "keyboardMouse": "Default",
          "joypad": "Default"
        }
      },
      "enableJoypadVirtualCursor": false
    },
    "CrucibleRewardDialog": {
      "actionGroups": {
        "Default": [
          {
            "priority": 10,
            "eventType": "MenuConfirmEvent",
            "contextEvent": "ConfirmEvent"
          },
          {
            "priority": 10,
            "eventType": "MenuBackEvent",
            "nextToHandle": "FrameEnd",
            "contextEvent": "BackEvent"
          },
          {
            "eventType": "RightStickButtonEvent",
            "contextEvent": "CommonRightStickButtonEvent"
          },
          {
            "priority": 11,
            "eventType": "LeftStickUpEvent",
            "contextEvent": "MenuNavigationUp"
          },
          {
            "priority": 11,
            "eventType": "LeftStickDownEvent",
            "contextEvent": "MenuNavigationDown"
          },
          {
            "priority": 11,
            "eventType": "LeftStickLeftEvent",
            "contextEvent": "MenuNavigationLeft"
          },
          {
            "priority": 11,
            "eventType": "LeftStickRightEvent",
            "contextEvent": "MenuNavigationRight"
          }
        ]
      },
      "stateActions": {
        "0": {
          "keyboardTouch": "Default",
          "keyboardMouse": "Default",
          "joypad": "Default"
        }
      },
      "enableJoypadVirtualCursor": false
    },
    "CrucibleChallengeDialog": {
      "actionGroups": {
        "Default": [
          {
            "priority": 10,
            "eventType": "MenuConfirmEvent",
            "contextEvent": "ConfirmEvent"
          },
          {
            "priority": 10,
            "eventType": "MenuBackEvent",
            "nextToHandle": "FrameEnd",
            "contextEvent": "BackEvent"
          },
          {
            "eventType": "RightStickButtonEvent",
            "contextEvent": "CommonRightStickButtonEvent"
          },
          {
            "priority": 11,
            "eventType": "LeftStickUpEvent",
            "contextEvent": "MenuNavigationUp"
          },
          {
            "priority": 11,
            "eventType": "LeftStickDownEvent",
            "contextEvent": "MenuNavigationDown"
          },
          {
            "priority": 11,
            "eventType": "LeftStickLeftEvent",
            "contextEvent": "MenuNavigationLeft"
          },
          {
            "priority": 11,
            "eventType": "LeftStickRightEvent",
            "contextEvent": "MenuNavigationRight"
          }
        ]
      },
      "stateActions": {
        "0": {
          "keyboardTouch": "Default",
          "keyboardMouse": "Default",
          "joypad": "Default"
        }
      },
      "enableJoypadVirtualCursor": false
    },
    "ActivityRewardDialog": {
      "actionGroups": {
        "Default": [
          {
            "priority": 10,
            "eventType": "MenuBackEvent",
            "nextToHandle": "FrameEnd",
            "contextEvent": "BackEvent"
          },
          {
            "eventType": "RightStickButtonEvent",
            "contextEvent": "CommonRightStickButtonEvent"
          },
          {
            "priority": 11,
            "eventType": "LeftStickUpEvent",
            "contextEvent": "MenuNavigationUp"
          },
          {
            "priority": 11,
            "eventType": "LeftStickDownEvent",
            "contextEvent": "MenuNavigationDown"
          },
          {
            "priority": 11,
            "eventType": "LeftStickLeftEvent",
            "contextEvent": "MenuNavigationLeft"
          },
          {
            "priority": 11,
            "eventType": "LeftStickRightEvent",
            "contextEvent": "MenuNavigationRight"
          }
        ]
      },
      "stateActions": {
        "0": {
          "keyboardTouch": "Default",
          "keyboardMouse": "Default",
          "joypad": "Default"
        }
      },
      "enableJoypadVirtualCursor": false
    },
    "GuideRatingDialogContext": {
      "actionGroups": {
        "Default": [
          {
            "eventType": "MenuLeftEvent",
            "contextEvent": "CommonMenuLeftEvent"
          },
          {
            "priority": 10,
            "eventType": "MenuBackEvent",
            "contextEvent": "BackEvent"
          },
          {
            "priority": 10,
            "eventType": "MenuConfirmEvent",
            "contextEvent": "ConfirmEvent"
          }
        ]
      },
      "stateActions": {
        "0": {
          "keyboardTouch": "Default",
          "keyboardMouse": "Default",
          "joypad": "Default"
        }
      },
      "enableJoypadVirtualCursor": false
    },
    "ActivityFoodDeliveryDialog": {
      "actionGroups": {
        "Default": [
          {
            "eventType": "RightStickButtonEvent",
            "contextEvent": "ShowItemDetailEvent"
          },
          {
            "eventType": "LeftShoulderEvent",
            "contextEvent": "ToPrevTabEvent"
          },
          {
            "eventType": "RightShoulderEvent",
            "contextEvent": "ToNextTabEvent"
          },
          {
            "priority": 4,
            "eventType": "LeftStickLeftEvent",
            "contextEvent": "CommonLeftStickLeftEvent"
          },
          {
            "priority": 4,
            "eventType": "LeftStickRightEvent",
            "contextEvent": "CommonLeftStickRightEvent"
          },
          {
            "priority": 10,
            "eventType": "MenuBackEvent",
            "contextEvent": "BackEvent"
          },
          {
            "eventType": "MenuUpEvent",
            "contextEvent": "CommonMenuUpEvent"
          },
          {
            "eventType": "LeftStickVerticalEvent",
            "contextEvent": "ScrollPrimaryScrollerEvent"
          }
        ]
      },
      "stateActions": {
        "0": {
          "keyboardTouch": "Default",
          "keyboardMouse": "Default",
          "joypad": "Default"
        }
      },
      "enableJoypadVirtualCursor": false
    },
    "ActivityReceiveRoleDialog": {
      "actionGroups": {
        "Default": [
          {
            "priority": 10,
            "eventType": "MenuBackEvent",
            "contextEvent": "BackEvent"
          },
          {
            "priority": 10,
            "eventType": "MenuConfirmEvent",
            "contextEvent": "ConfirmEvent"
          }
        ]
      },
      "stateActions": {
        "0": {
          "keyboardTouch": "Default",
          "keyboardMouse": "Default",
          "joypad": "Default"
        }
      },
      "enableJoypadVirtualCursor": false
    },
    "ActivityIntroduceDialog": {
      "actionGroups": {
        "Default": [
          {
            "priority": 10,
            "eventType": "MenuBackEvent",
            "contextEvent": "BackEvent"
          },
          {
            "priority": 4,
            "eventType": "LeftStickVerticalEvent",
            "contextEvent": "ScrollPrimaryScrollerEvent"
          }
        ]
      },
      "stateActions": {
        "0": {
          "keyboardTouch": "Default",
          "keyboardMouse": "Default",
          "joypad": "Default"
        }
      },
      "enableJoypadVirtualCursor": false
    },
    "ActivitySubPage_TowerReset": {
      "actionGroups": {
        "Default": [
          {
            "priority": 10,
            "eventType": "MenuBackEvent",
            "contextEvent": "BackEvent"
          },
          {
            "priority": 10,
            "eventType": "MenuConfirmEvent",
            "contextEvent": "ConfirmEvent"
          },
          {
            "priority": 10,
            "eventType": "MenuLeftEvent",
            "contextEvent": "CommonMenuLeftEvent"
          },
          {
            "priority": 10,
            "eventType": "DPadUpEvent",
            "contextEvent": "ShowHelpTips"
          },
          {
            "priority": 10,
            "eventType": "RightStickButtonEvent",
            "contextEvent": "CommonRightStickButtonEvent"
          },
          {
            "priority": 10,
            "eventType": "LeftStickLeftEvent",
            "contextEvent": "CommonLeftStickLeftEvent"
          },
          {
            "priority": 10,
            "eventType": "LeftStickRightEvent",
            "contextEvent": "CommonLeftStickRightEvent"
          },
          {
            "priority": 10,
            "eventType": "RightStickLeftEvent",
            "contextEvent": "CommonRightStickLeftEvent"
          },
          {
            "priority": 10,
            "eventType": "RightStickRightEvent",
            "contextEvent": "CommonRightStickRightEvent"
          },
          {
            "priority": 10,
            "eventType": "LeftStickVerticalEvent",
            "contextEvent": "ScrollPrimaryScrollerEvent"
          }
        ]
      },
      "stateActions": {
        "0": {
          "keyboardTouch": "Default",
          "keyboardMouse": "Default",
          "joypad": "Default"
        }
      },
      "enableInputPenetrate": true,
      "enableJoypadVirtualCursor": false
    },
    "ActivityRewardDialogV2": {
      "actionGroups": {
        "Default": [
          {
            "priority": 10,
            "eventType": "MenuBackEvent",
            "contextEvent": "BackEvent"
          },
          {
            "priority": 10,
            "eventType": "MenuLeftEvent",
            "contextEvent": "CommonMenuLeftEvent"
          },
          {
            "priority": 10,
            "eventType": "RightStickButtonEvent",
            "contextEvent": "CommonRightStickButtonEvent"
          },
          {
            "priority": 10,
            "eventType": "LeftStickLeftEvent",
            "contextEvent": "CommonLeftStickLeftEvent"
          },
          {
            "priority": 10,
            "eventType": "LeftStickRightEvent",
            "contextEvent": "CommonLeftStickRightEvent"
          },
          {
            "priority": 10,
            "eventType": "LeftStickUpEvent",
            "contextEvent": "CommonLeftStickUpEvent"
          },
          {
            "priority": 10,
            "eventType": "LeftStickDownEvent",
            "contextEvent": "CommonLeftStickDownEvent"
          }
        ]
      },
      "stateActions": {
        "0": {
          "keyboardTouch": "Default",
          "keyboardMouse": "Default",
          "joypad": "Default"
        }
      },
      "enableJoypadVirtualCursor": false
    },
    "ActivityFriendAssistDialogContext": {
      "actionGroups": {
        "Default": [
          {
            "priority": 10,
            "eventType": "MenuBackEvent",
            "contextEvent": "BackEvent"
          },
          {
            "priority": 10,
            "eventType": "MenuConfirmEvent",
            "contextEvent": "ConfirmEvent"
          },
          {
            "priority": 1,
            "eventType": "LeftStickLeftEvent",
            "contextEvent": "CommonLeftStickLeftEvent"
          },
          {
            "priority": 1,
            "eventType": "LeftStickRightEvent",
            "contextEvent": "CommonLeftStickRightEvent"
          },
          {
            "priority": 1,
            "eventType": "LeftStickUpEvent",
            "contextEvent": "CommonLeftStickUpEvent"
          },
          {
            "priority": 1,
            "eventType": "LeftStickDownEvent",
            "contextEvent": "CommonLeftStickDownEvent"
          },
          {
            "eventType": "MenuLeftEvent",
            "contextEvent": "CommonMenuLeftEvent"
          }
        ]
      },
      "stateActions": {
        "0": {
          "keyboardTouch": "Default",
          "keyboardMouse": "Default",
          "joypad": "Default"
        }
      },
      "enableJoypadVirtualCursor": false
    },
    "GeneralChallengeEndPage": {
      "actionGroups": {
        "Default": [
          {
            "priority": 10,
            "eventType": "MenuBackEvent",
            "nextToHandle": "FrameEnd",
            "contextEvent": "BackEvent"
          },
          {
            "priority": 10,
            "eventType": "MenuConfirmEvent",
            "nextToHandle": "FrameEnd",
            "contextEvent": "ConfirmEvent"
          },
          {
            "priority": 9,
            "eventType": "MenuLeftEvent",
            "contextEvent": "CommonMenuLeftEvent"
          },
          {
            "priority": 4,
            "eventType": "LeftStickUpEvent",
            "contextEvent": "CommonLeftStickUpEvent"
          },
          {
            "priority": 4,
            "eventType": "LeftStickDownEvent",
            "contextEvent": "CommonLeftStickDownEvent"
          },
          {
            "priority": 4,
            "eventType": "LeftStickLeftEvent",
            "contextEvent": "CommonLeftStickLeftEvent"
          },
          {
            "priority": 4,
            "eventType": "LeftStickRightEvent",
            "contextEvent": "CommonLeftStickRightEvent"
          },
          {
            "eventType": "DPadUpEvent",
            "nextToHandle": "FrameEnd",
            "contextEvent": "ActionNorthEvent"
          },
          {
            "eventType": "MenuUpEvent",
            "contextEvent": "CommonMenuUpEvent"
          },
          {
            "priority": 10,
            "eventType": "LeftStickVerticalEvent",
            "contextEvent": "ScrollPrimaryScrollerEvent"
          },
          {
            "eventType": "RightStickButtonEvent",
            "contextEvent": "ShowItemDetailEvent"
          }
        ]
      },
      "stateActions": {
        "0": {
          "keyboardTouch": "Default",
          "keyboardMouse": "Default",
          "joypad": "Default"
        }
      },
      "enableJoypadVirtualCursor": false
    }
  }
}