{
  "context": {
    "BattlePassPage": {
      "actionGroups": {
        "Default": [
          {
            "eventType": "DPadUpEvent",
            "contextEvent": "ShowHelpTips"
          },
          {
            "eventType": "DPadLeftEvent",
            "contextEvent": "UIDetails"
          },
          {
            "eventType": "RightStickButtonEvent",
            "contextEvent": "ShowItemDetailEvent"
          },
          {
            "eventType": "MenuLeftEvent",
            "contextEvent": "CommonMenuLeftEvent"
          },
          {
            "eventType": "MenuUpEvent",
            "contextEvent": "CommonMenuUpEvent"
          },
          {
            "priority": 4,
            "eventType": "LeftStickVerticalEvent",
            "contextEvent": "CommonLeftStickVerticalEvent"
          },
          {
            "priority": 4,
            "eventType": "LeftStickUpEvent",
            "contextEvent": "CommonLeftStickUpEvent"
          },
          {
            "priority": 4,
            "eventType": "LeftStickDownEvent",
            "contextEvent": "CommonLeftStickDownEvent"
          },
          {
            "priority": 4,
            "eventType": "LeftStickLeftEvent",
            "contextEvent": "CommonLeftStickLeftEvent"
          },
          {
            "priority": 4,
            "eventType": "LeftStickRightEvent",
            "contextEvent": "CommonLeftStickRightEvent"
          },
          {
            "priority": 4,
            "eventType": "RightStickLeftEvent",
            "contextEvent": "CommonRightStickLeftEvent"
          },
          {
            "priority": 4,
            "eventType": "RightStickRightEvent",
            "contextEvent": "CommonRightStickRightEvent"
          },
          {
            "priority": 4,
            "eventType": "LeftTriggerEvent",
            "contextEvent": "CommonLeftTriggerEvent"
          },
          {
            "priority": 4,
            "eventType": "RightTriggerEvent",
            "contextEvent": "CommonRightTriggerEvent"
          },
          {
            "priority": 4,
            "eventType": "RightStickVerticalEvent",
            "contextEvent": "CommonRightStickVerticalEvent"
          },
          {
            "eventType": "LeftShoulderEvent",
            "contextEvent": "ToPrevPrimaryTabEvent"
          },
          {
            "eventType": "RightShoulderEvent",
            "contextEvent": "ToNextPrimaryTabEvent"
          },
          {
            "priority": 10,
            "eventType": "MenuBackEvent",
            "contextEvent": "BackEvent"
          },
          {
            "priority": 10,
            "eventType": "MenuConfirmEvent",
            "contextEvent": "ConfirmEvent"
          }
        ]
      },
      "stateActions": {
        "0": {
          "keyboardTouch": "Default",
          "keyboardMouse": "Default",
          "joypad": "Default"
        }
      },
      "enableJoypadVirtualCursor": false
    },
    "BPShopPage": {
      "actionGroups": {
        "Default": [
          {
            "eventType": "LeftStickVerticalEvent",
            "contextEvent": "CommonLeftStickVerticalEvent"
          },
          {
            "eventType": "RightStickButtonEvent",
            "contextEvent": "ShowItemDetailEvent"
          },
          {
            "priority": 4,
            "eventType": "LeftStickUpEvent",
            "contextEvent": "CommonLeftStickUpEvent"
          },
          {
            "priority": 4,
            "eventType": "LeftStickDownEvent",
            "contextEvent": "CommonLeftStickDownEvent"
          },
          {
            "priority": 4,
            "eventType": "LeftStickLeftEvent",
            "contextEvent": "CommonLeftStickLeftEvent"
          },
          {
            "priority": 4,
            "eventType": "LeftStickRightEvent",
            "contextEvent": "CommonLeftStickRightEvent"
          },
          {
            "priority": 4,
            "eventType": "RightStickLeftEvent",
            "contextEvent": "CommonRightStickLeftEvent"
          },
          {
            "priority": 4,
            "eventType": "RightStickRightEvent",
            "contextEvent": "CommonRightStickRightEvent"
          },
          {
            "priority": 4,
            "eventType": "DPadUpEvent",
            "contextEvent": "ActionNorthEvent"
          },
          {
            "priority": 10,
            "eventType": "MenuBackEvent",
            "contextEvent": "BackEvent"
          },
          {
            "priority": 10,
            "eventType": "MenuConfirmEvent",
            "contextEvent": "ConfirmEvent"
          }
        ]
      },
      "stateActions": {
        "0": {
          "keyboardTouch": "Default",
          "keyboardMouse": "Default",
          "joypad": "Default"
        }
      },
      "enableJoypadVirtualCursor": false
    },
    "BPPreviewPage": {
      "actionGroups": {
        "Default": [
          {
            "eventType": "RightStickButtonEvent",
            "contextEvent": "ShowItemDetailEvent"
          },
          {
            "priority": 4,
            "eventType": "LeftStickLeftEvent",
            "contextEvent": "CommonLeftStickLeftEvent"
          },
          {
            "priority": 4,
            "eventType": "LeftStickRightEvent",
            "contextEvent": "CommonLeftStickRightEvent"
          },
          {
            "priority": 4,
            "eventType": "LeftStickUpEvent",
            "contextEvent": "CommonLeftStickUpEvent"
          },
          {
            "priority": 4,
            "eventType": "LeftStickDownEvent",
            "contextEvent": "CommonLeftStickDownEvent"
          },
          {
            "priority": 10,
            "eventType": "MenuBackEvent",
            "contextEvent": "BackEvent"
          }
        ]
      },
      "stateActions": {
        "0": {
          "keyboardTouch": "Default",
          "keyboardMouse": "Default",
          "joypad": "Default"
        }
      },
      "enableJoypadVirtualCursor": false
    },
    "BPRewardDialog": {
      "actionGroups": {
        "Default": [
          {
            "eventType": "RightStickButtonEvent",
            "contextEvent": "ShowItemDetailEvent"
          },
          {
            "eventType": "MenuUpEvent",
            "contextEvent": "CommonMenuUpEvent"
          },
          {
            "priority": 4,
            "eventType": "LeftStickUpEvent",
            "contextEvent": "CommonLeftStickUpEvent"
          },
          {
            "priority": 4,
            "eventType": "LeftStickDownEvent",
            "contextEvent": "CommonLeftStickDownEvent"
          },
          {
            "priority": 4,
            "eventType": "LeftStickLeftEvent",
            "contextEvent": "CommonLeftStickLeftEvent"
          },
          {
            "priority": 4,
            "eventType": "LeftStickRightEvent",
            "contextEvent": "CommonLeftStickRightEvent"
          },
          {
            "priority": 4,
            "eventType": "RightStickVerticalEvent",
            "contextEvent": "CommonRightStickVerticalEvent"
          },
          {
            "priority": 10,
            "eventType": "MenuBackEvent",
            "contextEvent": "BackEvent"
          },
          {
            "priority": 10,
            "eventType": "MenuConfirmEvent",
            "contextEvent": "ConfirmEvent"
          }
        ]
      },
      "stateActions": {
        "0": {
          "keyboardTouch": "Default",
          "keyboardMouse": "Default",
          "joypad": "Default"
        }
      },
      "enableJoypadVirtualCursor": false
    },
    "ItemUseSelectDialog": {
      "actionGroups": {
        "Default": [
          {
            "eventType": "RightStickButtonEvent",
            "contextEvent": "ShowItemDetailEvent"
          },
          {
            "priority": 4,
            "eventType": "LeftStickUpEvent",
            "contextEvent": "CommonLeftStickUpEvent"
          },
          {
            "priority": 4,
            "eventType": "LeftStickDownEvent",
            "contextEvent": "CommonLeftStickDownEvent"
          },
          {
            "priority": 4,
            "eventType": "LeftStickLeftEvent",
            "contextEvent": "CommonLeftStickLeftEvent"
          },
          {
            "priority": 4,
            "eventType": "LeftStickRightEvent",
            "contextEvent": "CommonLeftStickRightEvent"
          },
          {
            "priority": 4,
            "eventType": "RightStickVerticalEvent",
            "contextEvent": "CommonRightStickVerticalEvent"
          },
          {
            "priority": 10,
            "eventType": "MenuBackEvent",
            "contextEvent": "BackEvent"
          },
          {
            "priority": 10,
            "eventType": "MenuConfirmEvent",
            "contextEvent": "ConfirmEvent"
          }
        ]
      },
      "stateActions": {
        "0": {
          "keyboardTouch": "Default",
          "keyboardMouse": "Default",
          "joypad": "Default"
        }
      },
      "enableJoypadVirtualCursor": false
    },
    "BPGradePurchaseDialog": {
      "actionGroups": {
        "Default": [
          {
            "eventType": "RightStickButtonEvent",
            "contextEvent": "ShowItemDetailEvent"
          },
          {
            "priority": 4,
            "eventType": "LeftTriggerEvent",
            "contextEvent": "DecreaseCountEvent"
          },
          {
            "priority": 4,
            "eventType": "LeftTriggerReleaseEvent",
            "contextEvent": "DecreaseCountReleaseEvent"
          },
          {
            "priority": 4,
            "eventType": "RightTriggerEvent",
            "contextEvent": "IncreaseCountEvent"
          },
          {
            "priority": 4,
            "eventType": "RightTriggerReleaseEvent",
            "contextEvent": "IncreaseCountReleaseEvent"
          },
          {
            "priority": 4,
            "eventType": "LeftStickUpEvent",
            "contextEvent": "CommonLeftStickUpEvent"
          },
          {
            "priority": 4,
            "eventType": "LeftStickDownEvent",
            "contextEvent": "CommonLeftStickDownEvent"
          },
          {
            "priority": 4,
            "eventType": "LeftStickLeftEvent",
            "contextEvent": "CommonLeftStickLeftEvent"
          },
          {
            "priority": 4,
            "eventType": "LeftStickRightEvent",
            "contextEvent": "CommonLeftStickRightEvent"
          },
          {
            "priority": 10,
            "eventType": "MenuBackEvent",
            "contextEvent": "BackEvent"
          },
          {
            "priority": 10,
            "eventType": "MenuConfirmEvent",
            "contextEvent": "ConfirmEvent"
          }
        ]
      },
      "stateActions": {
        "0": {
          "keyboardTouch": "Default",
          "keyboardMouse": "Default",
          "joypad": "Default"
        }
      },
      "enableJoypadVirtualCursor": false
    },
    "BPRewardPlanDialog": {
      "actionGroups": {
        "Default": [
          {
            "eventType": "MenuConfirmEvent",
            "contextEvent": "ConfirmEvent"
          },
          {
            "eventType": "MenuBackEvent",
            "contextEvent": "BackEvent"
          },
          {
            "eventType": "MenuLeftEvent",
            "contextEvent": "CommonMenuLeftEvent"
          },
          {
            "eventType": "MenuUpEvent",
            "contextEvent": "CommonMenuUpEvent"
          },
          {
            "eventType": "DPadUpEvent",
            "contextEvent": "MenuNavigationUp"
          },
          {
            "eventType": "LeftStickLeftEvent",
            "contextEvent": "CommonLeftStickLeftEvent"
          },
          {
            "eventType": "LeftStickRightEvent",
            "contextEvent": "CommonLeftStickRightEvent"
          }
        ]
      },
      "stateActions": {
        "0": {
          "keyboardTouch": "Default",
          "keyboardMouse": "Default",
          "joypad": "Default"
        }
      },
      "enableJoypadVirtualCursor": false
    },
    "BPRewardPlanImpactDialog": {
      "actionGroups": {
        "Default": [
          {
            "eventType": "MenuBackEvent",
            "contextEvent": "BackEvent"
          },
          {
            "priority": 10,
            "eventType": "LeftStickVerticalEvent",
            "contextEvent": "CommonLeftStickVerticalEvent"
          }
        ]
      },
      "stateActions": {
        "0": {
          "keyboardTouch": "Default",
          "keyboardMouse": "Default",
          "joypad": "Default"
        }
      },
      "enableJoypadVirtualCursor": false
    }
  }
}