{
  "context": {
    "EquipSelectDialog": {
      "actionGroups": {
        "Default": [
          {
            "eventType": "DPadDownEvent",
            "contextEvent": "OpenSortingDropdownEvent"
          },
          {
            "eventType": "DPadLeftEvent",
            "contextEvent": "OpenScreenDropdownEvent"
          },
          {
            "eventType": "DPadUpEvent",
            "contextEvent": "ActionNorthEvent"
          },
          {
            "eventType": "MenuUpEvent",
            "contextEvent": "CommonMenuUpEvent"
          },
          {
            "eventType": "MenuLeftEvent",
            "contextEvent": "CommonMenuLeftEvent"
          },
          {
            "eventType": "LeftStickButtonEvent",
            "contextEvent": "CommonLeftStickButtonEvent"
          },
          {
            "priority": 4,
            "eventType": "LeftStickUpEvent",
            "contextEvent": "CommonLeftStickUpEvent"
          },
          {
            "priority": 4,
            "eventType": "LeftStickDownEvent",
            "contextEvent": "CommonLeftStickDownEvent"
          },
          {
            "priority": 4,
            "eventType": "LeftStickLeftEvent",
            "contextEvent": "CommonLeftStickLeftEvent"
          },
          {
            "priority": 4,
            "eventType": "LeftStickRightEvent",
            "contextEvent": "CommonLeftStickRightEvent"
          },
          {
            "priority": 10,
            "eventType": "MenuBackEvent",
            "contextEvent": "BackEvent"
          },
          {
            "priority": 10,
            "eventType": "MenuConfirmEvent",
            "contextEvent": "ConfirmEvent"
          },
          {
            "eventType": "LeftShoulderEvent",
            "contextEvent": "ToPrevSecondaryTabEvent"
          },
          {
            "eventType": "RightShoulderEvent",
            "contextEvent": "ToNextSecondaryTabEvent"
          }
        ]
      },
      "stateActions": {
        "0": {
          "keyboardTouch": "Default",
          "keyboardMouse": "Default",
          "joypad": "Default"
        }
      },
      "enableInputPenetrate": true,
      "enableJoypadVirtualCursor": false
    }
  }
}