{
  "context": {
    "UseReviveDialog": {
      "actionGroups": {
        "Default": [
          {
            "priority": 1,
            "eventType": "MenuBackEvent",
            "nextToHandle": "FrameEnd",
            "contextEvent": "BackEvent"
          },
          {
            "priority": 1,
            "eventType": "MenuConfirmEvent",
            "nextToHandle": "FrameEnd",
            "contextEvent": "ConfirmEvent"
          },
          {
            "priority": 2,
            "eventType": "LeftStickLeftEvent",
            "contextEvent": "ToPrevSlotEvent"
          },
          {
            "priority": 2,
            "eventType": "LeftStickRightEvent",
            "contextEvent": "ToNextSlotEvent"
          },
          {
            "priority": 4,
            "eventType": "LeftStickMoveEvent",
            "contextEvent": "ScrollPrimaryScrollerEvent"
          }
        ]
      },
      "stateActions": {
        "0": {
          "keyboardTouch": "Default",
          "keyboardMouse": "Default",
          "joypad": "Default"
        }
      },
      "enableJoypadVirtualCursor": false
    },
    "UseExpDialog": {
      "actionGroups": {
        "Default": [
          {
            "priority": 1,
            "eventType": "MenuBackEvent",
            "nextToHandle": "FrameEnd",
            "contextEvent": "BackEvent"
          },
          {
            "priority": 1,
            "eventType": "MenuConfirmEvent",
            "nextToHandle": "FrameEnd",
            "contextEvent": "ConfirmEvent"
          },
          {
            "priority": 2,
            "eventType": "RightTriggerEvent",
            "contextEvent": "IncreaseCountEvent"
          },
          {
            "priority": 2,
            "eventType": "LeftTriggerEvent",
            "contextEvent": "DecreaseCountEvent"
          },
          {
            "priority": 1,
            "eventType": "RightTriggerReleaseEvent",
            "nextToHandle": "FrameEnd",
            "contextEvent": "IncreaseCountReleaseEvent"
          },
          {
            "priority": 1,
            "eventType": "LeftTriggerReleaseEvent",
            "nextToHandle": "FrameEnd",
            "contextEvent": "DecreaseCountReleaseEvent"
          },
          {
            "priority": 2,
            "eventType": "DPadUpEvent",
            "contextEvent": "TipsEvent"
          },
          {
            "priority": 3,
            "eventType": "LeftStickLeftEvent",
            "contextEvent": "ToPrevSlotEvent"
          },
          {
            "priority": 3,
            "eventType": "LeftStickRightEvent",
            "contextEvent": "ToNextSlotEvent"
          },
          {
            "priority": 1,
            "eventType": "RightStickButtonEvent",
            "contextEvent": "CommonRightStickButtonEvent"
          }
        ]
      },
      "stateActions": {
        "0": {
          "keyboardTouch": "Default",
          "keyboardMouse": "Default",
          "joypad": "Default"
        }
      },
      "enableJoypadVirtualCursor": false
    },
    "CookingQuickDialog": {
      "actionGroups": {
        "Default": [
          {
            "priority": 1,
            "eventType": "MenuBackEvent",
            "nextToHandle": "FrameEnd",
            "contextEvent": "BackEvent"
          },
          {
            "priority": 1,
            "eventType": "MenuConfirmEvent",
            "nextToHandle": "FrameEnd",
            "contextEvent": "ConfirmEvent"
          },
          {
            "priority": 2,
            "eventType": "RightTriggerEvent",
            "contextEvent": "IncreaseCountEvent"
          },
          {
            "priority": 2,
            "eventType": "LeftTriggerEvent",
            "contextEvent": "DecreaseCountEvent"
          },
          {
            "priority": 1,
            "eventType": "RightTriggerReleaseEvent",
            "nextToHandle": "FrameEnd",
            "contextEvent": "IncreaseCountReleaseEvent"
          },
          {
            "priority": 1,
            "eventType": "LeftTriggerReleaseEvent",
            "nextToHandle": "FrameEnd",
            "contextEvent": "DecreaseCountReleaseEvent"
          },
          {
            "priority": 2,
            "eventType": "DPadUpEvent",
            "contextEvent": "TipsEvent"
          },
          {
            "priority": 3,
            "eventType": "LeftStickLeftEvent",
            "contextEvent": "CommonLeftStickLeftEvent"
          },
          {
            "priority": 3,
            "eventType": "LeftStickRightEvent",
            "contextEvent": "CommonLeftStickRightEvent"
          },
          {
            "priority": 1,
            "eventType": "RightStickButtonEvent",
            "contextEvent": "CommonRightStickButtonEvent"
          }
        ]
      },
      "stateActions": {
        "0": {
          "keyboardTouch": "Default",
          "keyboardMouse": "Default",
          "joypad": "Default"
        }
      },
      "enableJoypadVirtualCursor": false
    },
    "OperatedAvatarSelectDialog": {
      "actionGroups": {
        "Default": [
          {
            "priority": 1,
            "eventType": "MenuBackEvent",
            "nextToHandle": "FrameEnd",
            "contextEvent": "BackEvent"
          },
          {
            "priority": 1,
            "eventType": "MenuConfirmEvent",
            "nextToHandle": "FrameEnd",
            "contextEvent": "ConfirmEvent"
          },
          {
            "priority": 2,
            "eventType": "DPadUpEvent",
            "contextEvent": "IncreaseCountEvent"
          },
          {
            "priority": 2,
            "eventType": "DPadDownEvent",
            "contextEvent": "DecreaseCountEvent"
          },
          {
            "priority": 3,
            "eventType": "LeftStickLeftEvent",
            "contextEvent": "ToPrevSlotEvent"
          },
          {
            "priority": 3,
            "eventType": "LeftStickRightEvent",
            "contextEvent": "ToNextSlotEvent"
          }
        ]
      },
      "stateActions": {
        "0": {
          "keyboardTouch": "Default",
          "keyboardMouse": "Default",
          "joypad": "Default"
        }
      },
      "enableJoypadVirtualCursor": false
    },
    "InfoTextDialog": {
      "actionGroups": {
        "Default": [
          {
            "priority": 1,
            "eventType": "MenuBackEvent",
            "nextToHandle": "FrameEnd",
            "contextEvent": "BackEvent"
          },
          {
            "priority": 1,
            "eventType": "MenuConfirmEvent",
            "nextToHandle": "FrameEnd",
            "contextEvent": "ConfirmEvent"
          }
        ]
      },
      "stateActions": {
        "0": {
          "keyboardTouch": "Default",
          "keyboardMouse": "Default",
          "joypad": "Default"
        }
      },
      "enableJoypadVirtualCursor": false
    },
    "JoypadDisconnectDialog": {
      "actionGroups": {
        "Default": [
          {
            "priority": 1,
            "eventType": "MenuBackEvent",
            "nextToHandle": "FrameEnd",
            "contextEvent": "BackEvent"
          },
          {
            "priority": 1,
            "eventType": "MenuConfirmEvent",
            "nextToHandle": "FrameEnd",
            "contextEvent": "ConfirmEvent"
          }
        ]
      },
      "stateActions": {
        "0": {
          "keyboardTouch": "Default",
          "keyboardMouse": "Default",
          "joypad": "Default"
        }
      },
      "enableJoypadVirtualCursor": false
    },
    "ItemTipsDialog": {
      "actionGroups": {
        "Default": [
          {
            "priority": 10,
            "eventType": "MenuBackEvent",
            "nextToHandle": "FrameEnd",
            "contextEvent": "BackEvent"
          },
          {
            "priority": 10,
            "eventType": "MenuConfirmEvent",
            "nextToHandle": "FrameEnd",
            "contextEvent": "ConfirmEvent"
          },
          {
            "eventType": "LeftStickVerticalEvent",
            "contextEvent": "ScrollPrimaryScrollerEvent"
          },
          {
            "priority": 4,
            "eventType": "LeftStickUpEvent",
            "contextEvent": "CommonLeftStickUpEvent"
          },
          {
            "priority": 4,
            "eventType": "LeftStickDownEvent",
            "contextEvent": "CommonLeftStickDownEvent"
          },
          {
            "priority": 4,
            "eventType": "LeftStickButtonEvent",
            "contextEvent": "CommonLeftStickButtonEvent"
          }
        ]
      },
      "stateActions": {
        "0": {
          "keyboardTouch": "Default",
          "keyboardMouse": "Default",
          "joypad": "Default"
        }
      },
      "enableJoypadVirtualCursor": false
    }
  }
}