{
  "luaDataPath": "",
  "dontUseDefaultFinish": true,
  "entityBan": "",
  "disableNpcLod": true,
  "isAutoBanNpc": true,
  "isBanWidgetPet": true,
  "protectNpcMobileLod": true,
  "talkFlag": 7,
  "startFade": {
    "startFadeOutDuration": 0.0
  },
  "endFade": {
    "startFadeOutDuration": 0.0
  },
  "actors": [
    {
      "alias": "Avatar",
      "visible": true,
      "bornPointName": "",
      "relativePosType": "AVATAR_NEW",
      "relativePosNpcAlias": "",
      "_bindMovingTargetKey": ""
    },
    {
      "alias": "AvatarNpc",
      "visible": true,
      "bornPointName": "",
      "removeActorType": "NEW_REMOVE",
      "relativePosType": "AVATAR_NEW",
      "relativePosNpcAlias": "",
      "_notDestroyInTalk": true,
      "_bindMovingTargetKey": ""
    },
    {
      "configID": 21347,
      "alias": "21347",
      "visible": true,
      "bornPointName": "",
      "relativePosType": "AVATAR_NEW",
      "relativePosNpcAlias": "",
      "_notDestroyInTalk": true,
      "_bindMovingTargetKey": ""
    }
  ],
  "group": [
    [
      {
        "$type": "FJKIHHKJLMJ",
        "type": "CAMERA_MOVE",
        "duration": 0.10000000149011612,
        "actionId": 137,
        "camPosOffset": {
          "x": 1502.3199462890625,
          "y": -481.1730041503906,
          "z": 3565.330078125
        },
        "camForwardTargetOffset": {
          "x": 1501.9329833984375,
          "y": -480.5660095214844,
          "z": 3566.02392578125
        },
        "camFov": 40.0,
        "lerpPattern": 6,
        "cameraBlendType": "EaseInOutCubic",
        "NJBNNOMLKCK": {},
        "needZAxisRotate": true,
        "rotateAngle": 0.0010000000474974513,
        "openCameraDither": false,
        "targetNpcAlias": "",
        "closeTreeLeafDither": true,
        "KJOEFBPOIIH": "",
        "IICFKKEBIEC": "",
        "EGEHEJEBLBJ": ""
      },
      {
        "$type": "MoleMole.Config.ConfigVisibleInterAction",
        "type": "VISIBLE",
        "aliasList": [
          "Avatar"
        ],
        "actionId": 135,
        "_extraParam": ""
      },
      {
        "$type": "MoleMole.Config.ConfigSitOrStandAction",
        "type": "SIT_OR_STAND",
        "aliasList": [
          "Avatar"
        ],
        "actionId": 136,
        "_flag": 8192,
        "banResetFreestyle": true
      },
      {
        "$type": "MoleMole.Config.ConfigTeleportToAction",
        "type": "TELEPORT_TO",
        "aliasList": [
          "Avatar"
        ],
        "actionId": 141,
        "position": {
          "x": 1536.5059814453125,
          "y": -493.7380065917969,
          "z": 3566.201904296875
        },
        "forward": {
          "x": -1.0,
          "z": 0.028999999165534973
        },
        "openLongDisTeleport": true,
        "syncForward": true,
        "_posBindMovingTargetKey": "",
        "_forwardBindMovingTargetKey": ""
      },
      {
        "$type": "MoleMole.Config.ConfigPlayerNPCEnergyTypeAction",
        "type": "SET_PLAYER_NPC_ENERGY_TYPE",
        "aliasList": [
          "AvatarNpc"
        ],
        "actionId": 132,
        "setHeroEngergyType": true
      },
      {
        "$type": "LJLMDHDCAMK",
        "type": "LOOK_AT",
        "aliasList": [
          "AvatarNpc"
        ],
        "actionId": 133,
        "_flag": 64,
        "enableHead": true,
        "useTargetPos": true,
        "enableAbsolute": true,
        "targetPosition": {
          "x": 1534.512939453125,
          "y": -491.71600341796875,
          "z": 3566.235107421875
        },
        "headTurnTime": 0.5,
        "targetNpcAlias": "",
        "lookAtTargetType": "NONE",
        "openBackProtect": true,
        "backProtectAngle": 10.0,
        "targetNpcLookAtPoint": "",
        "OAFJBHJHLJG": ""
      },
      {
        "$type": "MoleMole.Config.ConfigTeleportToAction",
        "type": "TELEPORT_TO",
        "aliasList": [
          "AvatarNpc"
        ],
        "actionId": 134,
        "position": {
          "x": 1536.5059814453125,
          "y": -493.7380065917969,
          "z": 3566.201904296875
        },
        "forward": {
          "x": -1.0,
          "z": 0.028999999165534973
        },
        "openLongDisTeleport": true,
        "syncForward": true,
        "_posBindMovingTargetKey": "",
        "_forwardBindMovingTargetKey": ""
      },
      {
        "$type": "PKKMAMONGEO",
        "type": "DIALOG",
        "aliasList": [
          "21347"
        ],
        "actionId": 109,
        "dialogID": 741945102,
        "protectTime": 1.0
      },
      {
        "$type": "MoleMole.Config.ConfigTeleportToAction",
        "type": "TELEPORT_TO",
        "aliasList": [
          "21347"
        ],
        "actionId": 130,
        "position": {
          "x": 1501.6309814453125,
          "y": -481.6059875488281,
          "z": 3566.35791015625
        },
        "forward": {
          "x": 0.9990000128746033,
          "z": 0.03799999877810478
        },
        "openLongDisTeleport": true,
        "syncForward": true,
        "_posBindMovingTargetKey": "",
        "_forwardBindMovingTargetKey": ""
      },
      {
        "$type": "LJLMDHDCAMK",
        "type": "LOOK_AT",
        "aliasList": [
          "21347"
        ],
        "actionId": 131,
        "_flag": 64,
        "enableHead": true,
        "useTargetPos": true,
        "enableAbsolute": true,
        "targetPosition": {
          "x": 1506.6650390625,
          "y": -480.6109924316406,
          "z": 3566.157958984375
        },
        "headTurnTime": 0.5,
        "targetNpcAlias": "",
        "lookAtTargetType": "NONE",
        "openBackProtect": true,
        "backProtectAngle": 10.0,
        "targetNpcLookAtPoint": "",
        "OAFJBHJHLJG": ""
      },
      {
        "$type": "FJKIHHKJLMJ",
        "type": "CAMERA_MOVE",
        "delayTime": 0.10000000149011612,
        "duration": 8.694999694824219,
        "actionId": 138,
        "camPosOffset": {
          "x": 1502.56396484375,
          "y": -481.5539855957031,
          "z": 3564.89501953125
        },
        "camForwardTargetOffset": {
          "x": 1502.176025390625,
          "y": -480.9469909667969,
          "z": 3565.587890625
        },
        "camFov": 40.0,
        "cameraBlendType": "EaseOutQuad",
        "NJBNNOMLKCK": {},
        "needZAxisRotate": true,
        "rotateAngle": 8.0,
        "openCameraDither": false,
        "targetNpcAlias": "",
        "closeTreeLeafDither": true,
        "KJOEFBPOIIH": "",
        "IICFKKEBIEC": "",
        "EGEHEJEBLBJ": ""
      }
    ],
    [
      {
        "$type": "PKKMAMONGEO",
        "type": "DIALOG",
        "aliasList": [
          "21347"
        ],
        "actionId": 111,
        "dialogID": 741945103,
        "protectTime": 0.5
      }
    ],
    [
      {
        "$type": "FJKIHHKJLMJ",
        "type": "CAMERA_MOVE",
        "duration": 0.10000000149011612,
        "actionId": 139,
        "camPosOffset": {
          "x": 1537.1190185546875,
          "y": -492.7879943847656,
          "z": 3565.52197265625
        },
        "camForwardTargetOffset": {
          "x": 1536.18994140625,
          "y": -492.49200439453125,
          "z": 3565.74609375
        },
        "camFov": 30.0,
        "lerpPattern": 6,
        "cameraBlendType": "EaseInOutCubic",
        "NJBNNOMLKCK": {},
        "needZAxisRotate": true,
        "rotateAngle": 10.175000190734863,
        "openCameraDither": false,
        "targetNpcAlias": "",
        "closeTreeLeafDither": true,
        "KJOEFBPOIIH": "",
        "IICFKKEBIEC": "",
        "EGEHEJEBLBJ": ""
      },
      {
        "$type": "PKKMAMONGEO",
        "type": "DIALOG",
        "aliasList": [
          "21347"
        ],
        "actionId": 113,
        "dialogID": 741945104,
        "protectTime": 0.5
      },
      {
        "$type": "FJKIHHKJLMJ",
        "type": "CAMERA_MOVE",
        "delayTime": 0.10000000149011612,
        "duration": 16.812999725341797,
        "actionId": 140,
        "camPosOffset": {
          "x": 1538.3819580078125,
          "y": -493.1910095214844,
          "z": 3565.218017578125
        },
        "camForwardTargetOffset": {
          "x": 1537.4530029296875,
          "y": -492.8949890136719,
          "z": 3565.44091796875
        },
        "camFov": 30.0,
        "cameraBlendType": "EaseOutQuad",
        "NJBNNOMLKCK": {},
        "needZAxisRotate": true,
        "rotateAngle": 10.175000190734863,
        "openCameraDither": false,
        "targetNpcAlias": "",
        "closeTreeLeafDither": true,
        "KJOEFBPOIIH": "",
        "IICFKKEBIEC": "",
        "EGEHEJEBLBJ": ""
      }
    ],
    [
      {
        "$type": "PKKMAMONGEO",
        "type": "DIALOG",
        "aliasList": [
          "21347"
        ],
        "actionId": 115,
        "dialogID": 741945105,
        "protectTime": 0.5
      }
    ],
    [
      {
        "$type": "MoleMole.Config.ConfigLuaAction",
        "type": "LUA_ACTION",
        "duration": 0.10000000149011612,
        "actionId": 116,
        "invoke": true,
        "invokeAlias": "74194",
        "invokeParam": 1
      },
      {
        "$type": "PKKMAMONGEO",
        "type": "DIALOG",
        "aliasList": [
          "21347"
        ],
        "actionId": 117,
        "dialogID": 741945106,
        "protectTime": 0.5
      }
    ],
    [
      {
        "$type": "MoleMole.Config.ConfigLuaAction",
        "type": "LUA_ACTION",
        "duration": 0.10000000149011612,
        "actionId": 102,
        "invoke": true,
        "invokeAlias": "1",
        "invokeParam": 2
      },
      {
        "$type": "MoleMole.Config.ConfigTimeProtectAction",
        "type": "TIME_PROTECT",
        "duration": 0.10000000149011612,
        "actionId": 105
      }
    ]
  ],
  "groupId": [
    {
      "grpId": 784508368,
      "nextGrpId": 784508369,
      "_noCircleNextGrpId": 784508369
    },
    {
      "index": 1,
      "grpId": 784508369,
      "nextGrpId": 784508370,
      "_noCircleNextGrpId": 784508370
    },
    {
      "index": 2,
      "grpId": 784508370,
      "nextGrpId": 784508371,
      "_noCircleNextGrpId": 784508371
    },
    {
      "index": 3,
      "grpId": 784508371,
      "nextGrpId": 784508372,
      "_noCircleNextGrpId": 784508372
    },
    {
      "index": 4,
      "grpId": 784508372,
      "nextGrpId": 784508373,
      "_noCircleNextGrpId": 784508373
    },
    {
      "index": 5,
      "grpId": 784508373,
      "nextGrpId": 784508374,
      "_noCircleNextGrpId": 784508374
    }
  ],
  "freeStyleDic": {
    "1025": [],
    "1026": [],
    "21347": []
  },
  "GBPIKOLLKJH": {
    "KGFBJNAEBHO": "",
    "ADMLEHAKCPC": ""
  },
  "NPFDEBDMHJP": 784508373,
  "KEAMPHGKKAG": {
    "ANJBPLIOPCP": ""
  }
}