{
  "npcId": 1004,
  "talks": [
    {
      "id": 30703,
      "beginWay": "TALK_BEGIN_MANUAL",
      "beginCond": [
        {
          "type": "QUEST_COND_STATE_EQUAL",
          "_param": [
            "30700",
            "2"
          ]
        }
      ],
      "priority": 4,
      "initDialog": 3070301,
      "npcId": [
        1004
      ],
      "performCfg": "",
      "heroTalk": "TALK_HERO_MAIN",
      "assetIndex": 13661080314598207457,
      "prePerformCfg": ""
    },
    {
      "id": 37003,
      "beginWay": "TALK_BEGIN_MANUAL",
      "beginCondComb": "LOGIC_AND",
      "beginCond": [
        {
          "type": "QUEST_COND_STATE_EQUAL",
          "_param": [
            "99601",
            "2"
          ]
        }
      ],
      "priority": 1,
      "initDialog": 9960101,
      "npcId": [
        1004
      ],
      "performCfg": "",
      "assetIndex": 14156698523710997626,
      "prePerformCfg": ""
    }
  ]
}