{
  "npcId": 1005,
  "talks": [
    {
      "id": 200005,
      "beginWay": "TALK_BEGIN_MANUAL",
      "beginCond": [
        {
          "type": "QUEST_COND_STATE_EQUAL",
          "_param": [
            "200005",
            "2"
          ]
        }
      ],
      "priority": 5,
      "initDialog": 20000501,
      "npcId": [
        1005,
        10409
      ],
      "performCfg": "QuestDialogue/AQ/Daoqi1_2000/Q200005",
      "assetIndex": 8391407197514533243,
      "prePerformCfg": ""
    },
    {
      "id": 200006,
      "beginWay": "TALK_BEGIN_MANUAL",
      "beginCond": [
        {
          "type": "QUEST_COND_STATE_EQUAL",
          "_param": [
            "200006",
            "2"
          ]
        }
      ],
      "priority": 5,
      "initDialog": 20000601,
      "npcId": [
        1005,
        10410,
        10411
      ],
      "performCfg": "QuestDialogue/AQ/Daoqi1_2000/Q200006",
      "assetIndex": 7323143726722882215,
      "prePerformCfg": ""
    },
    {
      "id": 200010,
      "beginWay": "TALK_BEGIN_MANUAL",
      "beginCond": [
        {
          "type": "QUEST_COND_STATE_EQUAL",
          "_param": [
            "200010",
            "2"
          ]
        }
      ],
      "priority": 5,
      "nextTalks": [
        200011
      ],
      "initDialog": 20001001,
      "npcId": [
        10412,
        10419,
        10420,
        10421,
        1005
      ],
      "performCfg": "QuestDialogue/AQ/Daoqi1_2000/Q200010",
      "assetIndex": 440928821845957947,
      "prePerformCfg": ""
    },
    {
      "id": 200011,
      "priority": 5,
      "nextTalks": [
        200102
      ],
      "initDialog": 20010104,
      "npcId": [
        1005,
        10412
      ],
      "performCfg": "QuestDialogue/AQ/Daoqi1_2000/Q200011",
      "assetIndex": 14752768000295269758,
      "prePerformCfg": ""
    },
    {
      "id": 200101,
      "beginWay": "TALK_BEGIN_MANUAL",
      "beginCond": [
        {
          "type": "QUEST_COND_STATE_EQUAL",
          "_param": [
            "200101",
            "2"
          ]
        }
      ],
      "priority": 5,
      "initDialog": 20010107,
      "npcId": [
        1005,
        10412
      ],
      "performCfg": "QuestDialogue/AQ/Daoqi1_2001/Q200101",
      "assetIndex": 1545296171892322619,
      "prePerformCfg": ""
    },
    {
      "id": 200102,
      "priority": 5,
      "initDialog": 20010107,
      "npcId": [
        1005,
        10412
      ],
      "performCfg": "QuestDialogue/AQ/Daoqi1_2001/Q200102",
      "assetIndex": 8146386172380660579,
      "prePerformCfg": ""
    },
    {
      "id": 200104,
      "beginWay": "TALK_BEGIN_MANUAL",
      "beginCond": [
        {
          "type": "QUEST_COND_STATE_EQUAL",
          "_param": [
            "200104",
            "2"
          ]
        }
      ],
      "priority": 5,
      "initDialog": 20010401,
      "npcId": [
        10412,
        1005
      ],
      "performCfg": "QuestDialogue/AQ/Daoqi1_2001/Q200104",
      "assetIndex": 264731085390271448,
      "prePerformCfg": ""
    },
    {
      "id": 200107,
      "beginWay": "TALK_BEGIN_MANUAL",
      "beginCond": [
        {
          "type": "QUEST_COND_STATE_EQUAL",
          "_param": [
            "200107",
            "2"
          ]
        }
      ],
      "priority": 5,
      "initDialog": 20010701,
      "npcId": [
        10409,
        1005
      ],
      "performCfg": "QuestDialogue/AQ/Daoqi1_2001/Q200107",
      "assetIndex": 9672643782210945257,
      "prePerformCfg": ""
    },
    {
      "id": 200108,
      "beginWay": "TALK_BEGIN_MANUAL",
      "beginCond": [
        {
          "type": "QUEST_COND_STATE_EQUAL",
          "_param": [
            "200108",
            "2"
          ]
        }
      ],
      "priority": 5,
      "initDialog": 20010801,
      "npcId": [
        1005,
        10411
      ],
      "performCfg": "QuestDialogue/AQ/Daoqi1_2001/Q200108",
      "assetIndex": 4138466418584135026,
      "prePerformCfg": ""
    },
    {
      "id": 7104113,
      "beginWay": "TALK_BEGIN_MANUAL",
      "activeMode": "PLAY_MODE_HOST",
      "beginCondComb": "LOGIC_A_AND_B_OR_ETCAND",
      "beginCond": [
        {
          "type": "QUEST_COND_STATE_EQUAL",
          "_param": [
            "7103715",
            "3"
          ]
        },
        {
          "type": "QUEST_COND_STATE_EQUAL",
          "_param": [
            "7104520",
            "2"
          ]
        },
        {
          "type": "QUEST_COND_STATE_EQUAL",
          "_param": [
            "7103715",
            "3"
          ]
        },
        {
          "type": "QUEST_COND_QUEST_NOT_RECEIVE",
          "_param": [
            "7104520",
            "1"
          ]
        }
      ],
      "priority": 3,
      "initDialog": 710411301,
      "npcId": [
        2617,
        1005
      ],
      "performCfg": "QuestDialogue/WQ/Liyue_71041/Q7104113",
      "heroTalk": "TALK_HERO_MAIN",
      "assetIndex": 8393317499629335352,
      "prePerformCfg": "",
      "questIdleTalk": true
    },
    {
      "id": 7104114,
      "beginWay": "TALK_BEGIN_MANUAL",
      "activeMode": "PLAY_MODE_HOST",
      "beginCondComb": "LOGIC_AND",
      "beginCond": [
        {
          "type": "QUEST_COND_STATE_EQUAL",
          "_param": [
            "7104001",
            "3"
          ]
        },
        {
          "type": "QUEST_COND_QUEST_GLOBAL_VAR_LESS",
          "_param": [
            "71037",
            "4"
          ]
        }
      ],
      "priority": 5,
      "initDialog": 710411401,
      "npcId": [
        2618,
        1005
      ],
      "performCfg": "QuestDialogue/WQ/Liyue_71041/Q7104114",
      "heroTalk": "TALK_HERO_MAIN",
      "assetIndex": 4417840200166520585,
      "prePerformCfg": "",
      "questIdleTalk": true
    },
    {
      "id": 7104115,
      "beginWay": "TALK_BEGIN_MANUAL",
      "activeMode": "PLAY_MODE_HOST",
      "beginCondComb": "LOGIC_AND",
      "beginCond": [
        {
          "type": "QUEST_COND_STATE_EQUAL",
          "_param": [
            "7104001",
            "3"
          ]
        },
        {
          "type": "QUEST_COND_QUEST_GLOBAL_VAR_LESS",
          "_param": [
            "71037",
            "4"
          ]
        }
      ],
      "priority": 5,
      "initDialog": 710411501,
      "npcId": [
        2154,
        1005
      ],
      "performCfg": "QuestDialogue/WQ/Liyue_71041/Q7104115",
      "heroTalk": "TALK_HERO_MAIN",
      "assetIndex": 8881258851961530848,
      "prePerformCfg": "",
      "questIdleTalk": true
    },
    {
      "id": 7110389,
      "beginWay": "TALK_BEGIN_MANUAL",
      "activeMode": "PLAY_MODE_HOST",
      "beginCondComb": "LOGIC_AND",
      "beginCond": [
        {
          "type": "QUEST_COND_STATE_EQUAL",
          "_param": [
            "7110326",
            "3"
          ]
        },
        {
          "type": "QUEST_COND_STATE_EQUAL",
          "_param": [
            "7110328",
            "2"
          ]
        }
      ],
      "initDialog": 711038901,
      "npcId": [
        1005,
        2501
      ],
      "performCfg": "",
      "assetIndex": 16394387133096859830,
      "prePerformCfg": ""
    },
    {
      "id": 7110390,
      "beginWay": "TALK_BEGIN_MANUAL",
      "activeMode": "PLAY_MODE_HOST",
      "beginCondComb": "LOGIC_AND",
      "beginCond": [
        {
          "type": "QUEST_COND_STATE_EQUAL",
          "_param": [
            "7110311",
            "3"
          ]
        },
        {
          "type": "QUEST_COND_STATE_EQUAL",
          "_param": [
            "7110313",
            "2"
          ]
        }
      ],
      "initDialog": 711039001,
      "npcId": [
        1005
      ],
      "performCfg": "",
      "assetIndex": 3071093860458392,
      "prePerformCfg": ""
    },
    {
      "id": 7110391,
      "beginWay": "TALK_BEGIN_MANUAL",
      "activeMode": "PLAY_MODE_HOST",
      "beginCondComb": "LOGIC_AND",
      "beginCond": [
        {
          "type": "QUEST_COND_STATE_EQUAL",
          "_param": [
            "7110311",
            "3"
          ]
        },
        {
          "type": "QUEST_COND_STATE_EQUAL",
          "_param": [
            "7110315",
            "2"
          ]
        }
      ],
      "initDialog": 711039101,
      "npcId": [
        1005
      ],
      "performCfg": "",
      "assetIndex": 10125192555754923830,
      "prePerformCfg": ""
    },
    {
      "id": 7320706,
      "beginWay": "TALK_BEGIN_AUTO",
      "activeMode": "PLAY_MODE_HOST",
      "beginCond": [
        {
          "type": "QUEST_COND_STATE_EQUAL",
          "_param": [
            "99902",
            "3"
          ]
        }
      ],
      "priority": 5,
      "initDialog": 732070601,
      "npcId": [
        1005
      ],
      "performCfg": "",
      "heroTalk": "TALK_HERO_MAIN",
      "assetIndex": 15544942060013837845,
      "prePerformCfg": ""
    },
    {
      "id": 7323213,
      "beginWay": "TALK_BEGIN_MANUAL",
      "activeMode": "PLAY_MODE_HOST",
      "beginCond": [
        {
          "type": "QUEST_COND_STATE_EQUAL",
          "_param": [
            "7323213",
            "2"
          ]
        }
      ],
      "npcId": [
        20883,
        1005
      ],
      "performCfg": "",
      "assetIndex": 591180734501475944,
      "prePerformCfg": ""
    },
    {
      "id": 7406001,
      "beginWay": "TALK_BEGIN_MANUAL",
      "activeMode": "PLAY_MODE_HOST",
      "beginCond": [
        {
          "type": "QUEST_COND_STATE_EQUAL",
          "_param": [
            "7406001",
            "1"
          ]
        }
      ],
      "initDialog": 740600101,
      "npcId": [
        1005
      ],
      "performCfg": "",
      "assetIndex": 4691836390580456140,
      "prePerformCfg": ""
    },
    {
      "id": 7410430,
      "beginWay": "TALK_BEGIN_MANUAL",
      "activeMode": "PLAY_MODE_HOST",
      "beginCond": [
        {
          "type": "QUEST_COND_STATE_EQUAL",
          "_param": [
            "99902",
            "3"
          ]
        }
      ],
      "initDialog": 741043001,
      "npcId": [
        1005
      ],
      "performCfg": "",
      "assetIndex": 13953853570079571015,
      "prePerformCfg": ""
    },
    {
      "id": 7504004,
      "activeMode": "PLAY_MODE_HOST",
      "beginCond": [
        {
          "type": "QUEST_COND_STATE_EQUAL",
          "_param": [
            "7504001",
            "3"
          ]
        }
      ],
      "priority": 5,
      "initDialog": 750400401,
      "npcId": [
        1005
      ],
      "performCfg": "QuestDialogue/WQ/Natlan_75040/Q7504004",
      "assetIndex": 10777576738589994893,
      "prePerformCfg": "",
      "GPONOMBBGJI": true
    }
  ]
}