{
  "npcId": 1006,
  "talks": [
    {
      "id": 30903,
      "beginWay": "TALK_BEGIN_MANUAL",
      "beginCond": [
        {
          "type": "QUEST_COND_STATE_EQUAL",
          "_param": [
            "30901",
            "2"
          ]
        }
      ],
      "priority": 4,
      "initDialog": 3090301,
      "npcId": [
        1006
      ],
      "performCfg": "",
      "heroTalk": "TALK_HERO_MAIN",
      "assetIndex": 17408502541656197515,
      "prePerformCfg": ""
    },
    {
      "id": 37312,
      "beginWay": "TALK_BEGIN_MANUAL",
      "beginCondComb": "LOGIC_AND",
      "beginCond": [
        {
          "type": "QUEST_COND_STATE_EQUAL",
          "_param": [
            "37005",
            "3"
          ]
        },
        {
          "type": "QUEST_COND_STATE_NOT_EQUAL",
          "_param": [
            "37101",
            "3"
          ]
        }
      ],
      "initDialog": 3730902,
      "npcId": [
        1006
      ],
      "performCfg": "",
      "heroTalk": "TALK_HERO_MAIN",
      "assetIndex": 16627032377037157008,
      "prePerformCfg": ""
    },
    {
      "id": 38306,
      "beginWay": "TALK_BEGIN_MANUAL",
      "beginCondComb": "LOGIC_OR",
      "beginCond": [
        {
          "type": "QUEST_COND_STATE_EQUAL",
          "_param": [
            "38401",
            "2"
          ]
        },
        {
          "type": "QUEST_COND_STATE_EQUAL",
          "_param": [
            "38402",
            "2"
          ]
        }
      ],
      "initDialog": 3830514,
      "npcId": [
        1006
      ],
      "performCfg": "",
      "heroTalk": "TALK_HERO_MAIN",
      "assetIndex": 15206938807641201536,
      "prePerformCfg": ""
    },
    {
      "id": 99401,
      "beginWay": "TALK_BEGIN_MANUAL",
      "beginCondComb": "LOGIC_AND",
      "beginCond": [
        {
          "type": "QUEST_COND_STATE_EQUAL",
          "_param": [
            "99401",
            "2"
          ]
        }
      ],
      "priority": 1,
      "initDialog": 3700104,
      "npcId": [
        1006
      ],
      "performCfg": "QuestDialogue/Q370/InterContainer_TestAvatar",
      "heroTalk": "TALK_HERO_MAIN",
      "assetIndex": 8451399161046937710,
      "prePerformCfg": ""
    },
    {
      "id": 99701,
      "beginWay": "TALK_BEGIN_MANUAL",
      "beginCond": [
        {
          "type": "QUEST_COND_STATE_EQUAL",
          "_param": [
            "99701",
            "2"
          ]
        }
      ],
      "priority": 1,
      "npcId": [
        1006
      ],
      "performCfg": "QuestDialogue/Interaction_QtestOut",
      "assetIndex": 4334747188263224512,
      "prePerformCfg": ""
    }
  ]
}