{
  "npcId": 1007,
  "talks": [
    {
      "id": 30803,
      "beginWay": "TALK_BEGIN_MANUAL",
      "beginCond": [
        {
          "type": "QUEST_COND_STATE_EQUAL",
          "_param": [
            "30800",
            "2"
          ]
        }
      ],
      "priority": 4,
      "initDialog": 3080301,
      "npcId": [
        1007
      ],
      "performCfg": "",
      "heroTalk": "TALK_HERO_MAIN",
      "assetIndex": 4954846028495112360,
      "prePerformCfg": ""
    },
    {
      "id": 37314,
      "beginWay": "TALK_BEGIN_MANUAL",
      "beginCondComb": "LOGIC_AND",
      "beginCond": [
        {
          "type": "QUEST_COND_STATE_EQUAL",
          "_param": [
            "37005",
            "3"
          ]
        },
        {
          "type": "QUEST_COND_STATE_NOT_EQUAL",
          "_param": [
            "37101",
            "3"
          ]
        }
      ],
      "initDialog": 3730926,
      "npcId": [
        1007
      ],
      "performCfg": "",
      "heroTalk": "TALK_HERO_MAIN",
      "assetIndex": 1104134278138766802,
      "prePerformCfg": ""
    }
  ]
}