{
  "npcId": 10094,
  "talks": [
    {
      "id": 1020021,
      "beginWay": "TALK_BEGIN_MANUAL",
      "priority": 3,
      "initDialog": 102002101,
      "npcId": [
        10094
      ],
      "performCfg": "",
      "assetIndex": 10950443866994259574,
      "prePerformCfg": ""
    }
  ]
}