{
  "npcId": 10216,
  "talks": [
    {
      "id": 61021601,
      "beginWay": "TALK_BEGIN_MANUAL",
      "activeMode": "PLAY_MODE_ALL",
      "priority": 5,
      "initDialog": 400060101,
      "npcId": [
        10216,
        11004
      ],
      "performCfg": "",
      "assetIndex": 5664274208961888219,
      "prePerformCfg": ""
    }
  ]
}