{
  "npcId": 10256,
  "talks": [
    {
      "id": 61025601,
      "beginWay": "TALK_BEGIN_MANUAL",
      "activeMode": "PLAY_MODE_ALL",
      "priority": 5,
      "initDialog": 400060101,
      "npcId": [
        10256,
        30052
      ],
      "performCfg": "",
      "assetIndex": 6669163355595836440,
      "prePerformCfg": ""
    }
  ]
}