{
  "npcId": 10314,
  "talks": [
    {
      "id": 100990,
      "beginWay": "TALK_BEGIN_MANUAL",
      "beginCondComb": "LOGIC_A_AND_ETCOR",
      "beginCond": [
        {
          "type": "QUEST_COND_STATE_EQUAL",
          "_param": [
            "100914",
            "3"
          ]
        },
        {
          "type": "QUEST_COND_QUEST_NOT_RECEIVE",
          "_param": [
            "7180207",
            "1"
          ]
        },
        {
          "type": "QUEST_COND_STATE_EQUAL",
          "_param": [
            "7180206",
            "3"
          ]
        }
      ],
      "priority": 5,
      "initDialog": 10099001,
      "npcId": [
        10314
      ],
      "performCfg": "",
      "assetIndex": 14992019199528702688,
      "prePerformCfg": ""
    },
    {
      "id": 100994,
      "beginWay": "TALK_BEGIN_MANUAL",
      "beginCondComb": "LOGIC_A_AND_ETCOR",
      "beginCond": [
        {
          "type": "QUEST_COND_STATE_EQUAL",
          "_param": [
            "1103304",
            "3"
          ]
        },
        {
          "type": "QUEST_COND_QUEST_NOT_RECEIVE",
          "_param": [
            "7180207",
            "1"
          ]
        },
        {
          "type": "QUEST_COND_STATE_EQUAL",
          "_param": [
            "7180206",
            "3"
          ]
        }
      ],
      "priority": 6,
      "initDialog": 10099401,
      "npcId": [
        10314
      ],
      "performCfg": "",
      "assetIndex": 14659238477497390271,
      "prePerformCfg": ""
    }
  ]
}