{
  "npcId": 10321,
  "talks": [
    {
      "id": 102561,
      "beginWay": "TALK_BEGIN_MANUAL",
      "beginCond": [
        {
          "type": "QUEST_COND_STATE_EQUAL",
          "_param": [
            "102510",
            "3"
          ]
        }
      ],
      "priority": 7,
      "initDialog": 10253201,
      "npcId": [
        10321
      ],
      "performCfg": "",
      "assetIndex": 8024227516257560379,
      "prePerformCfg": ""
    }
  ]
}