{
  "npcId": 10418,
  "talks": [
    {
      "id": 200223,
      "beginWay": "TALK_BEGIN_MANUAL",
      "beginCondComb": "LOGIC_OR",
      "beginCond": [
        {
          "type": "QUEST_COND_STATE_EQUAL",
          "_param": [
            "200202",
            "2"
          ]
        },
        {
          "type": "QUEST_COND_STATE_EQUAL",
          "_param": [
            "200203",
            "2"
          ]
        },
        {
          "type": "QUEST_COND_STATE_EQUAL",
          "_param": [
            "200204",
            "2"
          ]
        }
      ],
      "priority": 1,
      "initDialog": 20022301,
      "npcId": [
        10418
      ],
      "performCfg": "QuestDialogue/AQ/Daoqi1_2002/Q200223",
      "assetIndex": 6981188028068332464,
      "prePerformCfg": ""
    },
    {
      "id": 200228,
      "beginWay": "TALK_BEGIN_MANUAL",
      "beginCondComb": "LOGIC_OR",
      "beginCond": [
        {
          "type": "QUEST_COND_STATE_EQUAL",
          "_param": [
            "200205",
            "2"
          ]
        },
        {
          "type": "QUEST_COND_STATE_EQUAL",
          "_param": [
            "200201",
            "2"
          ]
        }
      ],
      "priority": 1,
      "initDialog": 20022801,
      "npcId": [
        10418
      ],
      "performCfg": "QuestDialogue/AQ/Daoqi1_2002/Q200228",
      "assetIndex": 5658837944466801541,
      "prePerformCfg": ""
    }
  ]
}