{
  "npcId": 1180,
  "talks": [
    {
      "id": 42901,
      "beginWay": "TALK_BEGIN_MANUAL",
      "beginCond": [
        {
          "type": "QUEST_COND_STATE_EQUAL",
          "_param": [
            "42901",
            "2"
          ]
        }
      ],
      "nextTalks": [
        42902,
        42903
      ],
      "initDialog": 4290101,
      "npcId": [
        1180
      ],
      "performCfg": "",
      "assetIndex": 204011886329408894,
      "prePerformCfg": ""
    },
    {
      "id": 42902,
      "initDialog": 4290201,
      "npcId": [
        1180
      ],
      "performCfg": "",
      "assetIndex": 5247878221662041020,
      "prePerformCfg": ""
    },
    {
      "id": 42903,
      "initDialog": 4290301,
      "npcId": [
        1180
      ],
      "performCfg": "",
      "assetIndex": 5394810905540892388,
      "prePerformCfg": ""
    },
    {
      "id": 42904,
      "beginWay": "TALK_BEGIN_MANUAL",
      "beginCond": [
        {
          "type": "QUEST_COND_STATE_EQUAL",
          "_param": [
            "42902",
            "2"
          ]
        }
      ],
      "initDialog": 4290401,
      "npcId": [
        1180
      ],
      "performCfg": "",
      "assetIndex": 9154607911761539266,
      "prePerformCfg": ""
    },
    {
      "id": 42905,
      "beginWay": "TALK_BEGIN_MANUAL",
      "beginCond": [
        {
          "type": "QUEST_COND_STATE_EQUAL",
          "_param": [
            "42904",
            "2"
          ]
        }
      ],
      "initDialog": 4290501,
      "npcId": [
        1180
      ],
      "performCfg": "",
      "assetIndex": 16603929679253870288,
      "prePerformCfg": ""
    },
    {
      "id": 42906,
      "beginWay": "TALK_BEGIN_MANUAL",
      "beginCond": [
        {
          "type": "QUEST_COND_STATE_EQUAL",
          "_param": [
            "42905",
            "2"
          ]
        }
      ],
      "initDialog": 4290601,
      "npcId": [
        1180
      ],
      "performCfg": "",
      "assetIndex": 5321433947025193864,
      "prePerformCfg": ""
    }
  ]
}