{
  "npcId": 1220,
  "talks": [
    {
      "id": 42401,
      "beginWay": "TALK_BEGIN_MANUAL",
      "beginCond": [
        {
          "type": "QUEST_COND_STATE_EQUAL",
          "_param": [
            "42402",
            "2"
          ]
        }
      ],
      "nextTalks": [
        42402,
        42403
      ],
      "initDialog": 4240101,
      "npcId": [
        1220
      ],
      "performCfg": "",
      "assetIndex": 6748654634886681654,
      "prePerformCfg": ""
    },
    {
      "id": 42402,
      "initDialog": 4240201,
      "npcId": [
        1220
      ],
      "performCfg": "",
      "assetIndex": 17568147539565880248,
      "prePerformCfg": ""
    },
    {
      "id": 42403,
      "initDialog": 4240301,
      "npcId": [
        1220
      ],
      "performCfg": "",
      "assetIndex": 7364492094835188537,
      "prePerformCfg": ""
    },
    {
      "id": 42404,
      "beginWay": "TALK_BEGIN_MANUAL",
      "beginCond": [
        {
          "type": "QUEST_COND_STATE_EQUAL",
          "_param": [
            "42403",
            "2"
          ]
        }
      ],
      "initDialog": 4240401,
      "npcId": [
        1220
      ],
      "performCfg": "",
      "assetIndex": 15338261668008664339,
      "prePerformCfg": ""
    },
    {
      "id": 42405,
      "beginCondComb": "LOGIC_AND",
      "beginCond": [
        {
          "type": "QUEST_COND_STATE_EQUAL",
          "_param": [
            "42403",
            "4"
          ]
        },
        {
          "type": "QUEST_COND_STATE_NOT_EQUAL",
          "_param": [
            "42404",
            "3"
          ]
        }
      ],
      "initDialog": 4240501,
      "npcId": [
        1220
      ],
      "performCfg": "",
      "assetIndex": 13748083408172728419,
      "prePerformCfg": ""
    },
    {
      "id": 42406,
      "beginWay": "TALK_BEGIN_MANUAL",
      "beginCondComb": "LOGIC_AND",
      "beginCond": [
        {
          "type": "QUEST_COND_STATE_EQUAL",
          "_param": [
            "42403",
            "3"
          ]
        },
        {
          "type": "QUEST_COND_STATE_NOT_EQUAL",
          "_param": [
            "42405",
            "3"
          ]
        }
      ],
      "initDialog": 4240601,
      "npcId": [
        1220
      ],
      "performCfg": "",
      "assetIndex": 10406882262394527202,
      "prePerformCfg": ""
    }
  ]
}