{
  "npcId": 12334,
  "talks": [
    {
      "id": 1911609,
      "beginWay": "TALK_BEGIN_MANUAL",
      "priority": 5,
      "initDialog": 191160901,
      "npcId": [
        12334
      ],
      "performCfg": "",
      "assetIndex": 10522917144789501188,
      "prePerformCfg": ""
    }
  ]
}