{
  "npcId": 1237,
  "talks": [
    {
      "id": 42420,
      "beginWay": "TALK_BEGIN_MANUAL",
      "beginCondComb": "LOGIC_AND",
      "beginCond": [
        {
          "type": "QUEST_COND_STATE_EQUAL",
          "_param": [
            "42403",
            "2"
          ]
        },
        {
          "type": "QUEST_COND_STATE_EQUAL",
          "_param": [
            "42406",
            "3"
          ]
        }
      ],
      "initDialog": 4242001,
      "npcId": [
        1237
      ],
      "performCfg": "",
      "assetIndex": 15592685714872890098,
      "prePerformCfg": ""
    },
    {
      "id": 42425,
      "beginWay": "TALK_BEGIN_MANUAL",
      "beginCondComb": "LOGIC_AND",
      "beginCond": [
        {
          "type": "QUEST_COND_STATE_EQUAL",
          "_param": [
            "42403",
            "2"
          ]
        },
        {
          "type": "QUEST_COND_STATE_EQUAL",
          "_param": [
            "42406",
            "2"
          ]
        }
      ],
      "initDialog": 4242501,
      "npcId": [
        1237
      ],
      "performCfg": "",
      "assetIndex": 10109556994265481595,
      "prePerformCfg": ""
    }
  ]
}