{
  "npcId": 1245,
  "talks": [
    {
      "id": 34801,
      "beginWay": "TALK_BEGIN_MANUAL",
      "beginCond": [
        {
          "type": "QUEST_COND_STATE_EQUAL",
          "_param": [
            "34801",
            "2"
          ]
        }
      ],
      "priority": 3,
      "initDialog": 3480101,
      "npcId": [
        1245
      ],
      "performCfg": "",
      "assetIndex": 15350674677401073910,
      "prePerformCfg": ""
    },
    {
      "id": 34802,
      "beginWay": "TALK_BEGIN_MANUAL",
      "beginCond": [
        {
          "type": "QUEST_COND_STATE_EQUAL",
          "_param": [
            "34802",
            "2"
          ]
        }
      ],
      "priority": 3,
      "initDialog": 3480201,
      "npcId": [
        1245
      ],
      "performCfg": "",
      "assetIndex": 12110942283957223773,
      "prePerformCfg": ""
    },
    {
      "id": 34803,
      "beginWay": "TALK_BEGIN_MANUAL",
      "beginCond": [
        {
          "type": "QUEST_COND_STATE_EQUAL",
          "_param": [
            "34803",
            "2"
          ]
        }
      ],
      "priority": 3,
      "initDialog": 3480301,
      "npcId": [
        1245
      ],
      "performCfg": "",
      "assetIndex": 1869366221608484162,
      "prePerformCfg": ""
    },
    {
      "id": 34804,
      "beginWay": "TALK_BEGIN_MANUAL",
      "beginCond": [
        {
          "type": "QUEST_COND_STATE_EQUAL",
          "_param": [
            "34804",
            "2"
          ]
        }
      ],
      "priority": 3,
      "initDialog": 3480401,
      "npcId": [
        1245
      ],
      "performCfg": "",
      "assetIndex": 1373092860754872328,
      "prePerformCfg": ""
    },
    {
      "id": 34805,
      "beginWay": "TALK_BEGIN_MANUAL",
      "beginCond": [
        {
          "type": "QUEST_COND_STATE_EQUAL",
          "_param": [
            "34805",
            "2"
          ]
        }
      ],
      "priority": 3,
      "initDialog": 3480501,
      "npcId": [
        1245
      ],
      "performCfg": "",
      "assetIndex": 6386125275547830347,
      "prePerformCfg": ""
    },
    {
      "id": 34806,
      "beginWay": "TALK_BEGIN_MANUAL",
      "beginCond": [
        {
          "type": "QUEST_COND_STATE_EQUAL",
          "_param": [
            "34806",
            "2"
          ]
        }
      ],
      "priority": 3,
      "initDialog": 3480601,
      "npcId": [
        1245
      ],
      "performCfg": "",
      "assetIndex": 16785919334294634727,
      "prePerformCfg": ""
    },
    {
      "id": 34807,
      "beginWay": "TALK_BEGIN_MANUAL",
      "beginCond": [
        {
          "type": "QUEST_COND_STATE_EQUAL",
          "_param": [
            "34807",
            "2"
          ]
        }
      ],
      "priority": 3,
      "initDialog": 3480701,
      "npcId": [
        1245
      ],
      "performCfg": "",
      "assetIndex": 4744134229667627429,
      "prePerformCfg": ""
    },
    {
      "id": 34808,
      "beginWay": "TALK_BEGIN_MANUAL",
      "beginCond": [
        {
          "type": "QUEST_COND_STATE_EQUAL",
          "_param": [
            "34808",
            "2"
          ]
        }
      ],
      "priority": 3,
      "initDialog": 3480801,
      "npcId": [
        1245
      ],
      "performCfg": "",
      "assetIndex": 14578101115735286676,
      "prePerformCfg": ""
    },
    {
      "id": 34809,
      "beginWay": "TALK_BEGIN_MANUAL",
      "beginCond": [
        {
          "type": "QUEST_COND_STATE_EQUAL",
          "_param": [
            "34809",
            "2"
          ]
        }
      ],
      "priority": 3,
      "initDialog": 3480901,
      "npcId": [
        1245
      ],
      "performCfg": "",
      "assetIndex": 12473067799183099659,
      "prePerformCfg": ""
    },
    {
      "id": 34810,
      "beginWay": "TALK_BEGIN_MANUAL",
      "beginCond": [
        {
          "type": "QUEST_COND_STATE_EQUAL",
          "_param": [
            "34810",
            "2"
          ]
        }
      ],
      "priority": 3,
      "initDialog": 3481001,
      "npcId": [
        1245
      ],
      "performCfg": "",
      "assetIndex": 2068051166420091879,
      "prePerformCfg": ""
    },
    {
      "id": 34811,
      "beginWay": "TALK_BEGIN_MANUAL",
      "beginCond": [
        {
          "type": "QUEST_COND_STATE_EQUAL",
          "_param": [
            "34811",
            "2"
          ]
        }
      ],
      "priority": 3,
      "initDialog": 3481101,
      "npcId": [
        1245
      ],
      "performCfg": "",
      "assetIndex": 9329001839155332825,
      "prePerformCfg": ""
    },
    {
      "id": 34812,
      "beginWay": "TALK_BEGIN_MANUAL",
      "beginCond": [
        {
          "type": "QUEST_COND_STATE_EQUAL",
          "_param": [
            "34812",
            "2"
          ]
        }
      ],
      "priority": 3,
      "initDialog": 3481201,
      "npcId": [
        1245
      ],
      "performCfg": "",
      "assetIndex": 16788832093935195380,
      "prePerformCfg": ""
    },
    {
      "id": 34813,
      "beginWay": "TALK_BEGIN_MANUAL",
      "beginCond": [
        {
          "type": "QUEST_COND_STATE_EQUAL",
          "_param": [
            "34813",
            "2"
          ]
        }
      ],
      "priority": 3,
      "initDialog": 3481301,
      "npcId": [
        1245
      ],
      "performCfg": "",
      "assetIndex": 49776588373882054,
      "prePerformCfg": ""
    },
    {
      "id": 34814,
      "beginWay": "TALK_BEGIN_MANUAL",
      "beginCond": [
        {
          "type": "QUEST_COND_STATE_EQUAL",
          "_param": [
            "34814",
            "2"
          ]
        }
      ],
      "priority": 3,
      "initDialog": 3481401,
      "npcId": [
        1245
      ],
      "performCfg": "",
      "assetIndex": 9685363855112464103,
      "prePerformCfg": ""
    },
    {
      "id": 34815,
      "beginWay": "TALK_BEGIN_MANUAL",
      "beginCond": [
        {
          "type": "QUEST_COND_STATE_EQUAL",
          "_param": [
            "34815",
            "2"
          ]
        }
      ],
      "priority": 3,
      "initDialog": 3481501,
      "npcId": [
        1245
      ],
      "performCfg": "",
      "assetIndex": 16497973879186545391,
      "prePerformCfg": ""
    },
    {
      "id": 34816,
      "beginWay": "TALK_BEGIN_MANUAL",
      "beginCond": [
        {
          "type": "QUEST_COND_STATE_EQUAL",
          "_param": [
            "34816",
            "2"
          ]
        }
      ],
      "priority": 3,
      "initDialog": 3481601,
      "npcId": [
        1245
      ],
      "performCfg": "",
      "assetIndex": 17836735401981340295,
      "prePerformCfg": ""
    }
  ]
}