{
  "npcId": 12856,
  "talks": [
    {
      "id": 4008416,
      "beginWay": "TALK_BEGIN_MANUAL",
      "priority": 5,
      "initDialog": 400841601,
      "npcId": [
        12856
      ],
      "performCfg": "QuestDialogue/EQ/V3.2FungusFighter_40084/Q4008416",
      "heroTalk": "TALK_HERO_MAIN",
      "assetIndex": 1373265623042312309,
      "prePerformCfg": ""
    }
  ]
}