{
  "npcId": 13062,
  "talks": [
    {
      "id": 4008131,
      "beginWay": "TALK_BEGIN_MANUAL",
      "beginCond": [
        {
          "type": "QUEST_COND_STATE_EQUAL",
          "_param": [
            "4008101",
            "3"
          ]
        }
      ],
      "priority": 1,
      "initDialog": 400813101,
      "npcId": [
        13060,
        13061,
        13062
      ],
      "performCfg": "",
      "heroTalk": "TALK_HERO_MAIN",
      "assetIndex": 1123411162394976687,
      "prePerformCfg": ""
    },
    {
      "id": 4008135,
      "beginWay": "TALK_BEGIN_MANUAL",
      "beginCondComb": "LOGIC_AND",
      "beginCond": [
        {
          "type": "QUEST_COND_STATE_EQUAL",
          "_param": [
            "4008213",
            "3"
          ]
        }
      ],
      "priority": 2,
      "initDialog": 400813501,
      "npcId": [
        13060,
        13061,
        13062
      ],
      "performCfg": "",
      "heroTalk": "TALK_HERO_MAIN",
      "assetIndex": 16406228538168593106,
      "prePerformCfg": ""
    },
    {
      "id": 4008139,
      "beginWay": "TALK_BEGIN_MANUAL",
      "beginCondComb": "LOGIC_AND",
      "beginCond": [
        {
          "type": "QUEST_COND_STATE_EQUAL",
          "_param": [
            "4008314",
            "3"
          ]
        }
      ],
      "priority": 3,
      "initDialog": 400813901,
      "npcId": [
        13060,
        13061,
        13062
      ],
      "performCfg": "",
      "heroTalk": "TALK_HERO_MAIN",
      "assetIndex": 7564798423931579468,
      "prePerformCfg": ""
    },
    {
      "id": 4008144,
      "beginWay": "TALK_BEGIN_MANUAL",
      "beginCondComb": "LOGIC_AND",
      "beginCond": [
        {
          "type": "QUEST_COND_STATE_EQUAL",
          "_param": [
            "4008315",
            "3"
          ]
        }
      ],
      "priority": 4,
      "initDialog": 400814401,
      "npcId": [
        13060,
        13061,
        13062
      ],
      "performCfg": "",
      "heroTalk": "TALK_HERO_MAIN",
      "assetIndex": 14944603834599124048,
      "prePerformCfg": ""
    },
    {
      "id": 4008148,
      "beginWay": "TALK_BEGIN_MANUAL",
      "beginCondComb": "LOGIC_AND",
      "beginCond": [
        {
          "type": "QUEST_COND_STATE_EQUAL",
          "_param": [
            "4008402",
            "3"
          ]
        }
      ],
      "priority": 5,
      "initDialog": 400814801,
      "npcId": [
        13060,
        13061,
        13062
      ],
      "performCfg": "",
      "heroTalk": "TALK_HERO_MAIN",
      "assetIndex": 17427195711267507151,
      "prePerformCfg": ""
    },
    {
      "id": 4008153,
      "beginWay": "TALK_BEGIN_MANUAL",
      "beginCondComb": "LOGIC_AND",
      "beginCond": [
        {
          "type": "QUEST_COND_STATE_EQUAL",
          "_param": [
            "4008412",
            "3"
          ]
        }
      ],
      "priority": 6,
      "initDialog": 400815301,
      "npcId": [
        13060,
        13061,
        13062
      ],
      "performCfg": "",
      "heroTalk": "TALK_HERO_MAIN",
      "assetIndex": 16219474880965403357,
      "prePerformCfg": ""
    },
    {
      "id": 4008157,
      "beginWay": "TALK_BEGIN_MANUAL",
      "beginCond": [
        {
          "type": "QUEST_COND_STATE_EQUAL",
          "_param": [
            "4008506",
            "3"
          ]
        }
      ],
      "priority": 7,
      "initDialog": 400815701,
      "npcId": [
        13060,
        13061,
        13062
      ],
      "performCfg": "",
      "heroTalk": "TALK_HERO_MAIN",
      "assetIndex": 9873016596796813048,
      "prePerformCfg": ""
    }
  ]
}