{
  "npcId": 13118,
  "talks": [
    {
      "id": 7368611,
      "beginWay": "TALK_BEGIN_MANUAL",
      "beginCondComb": "LOGIC_AND",
      "beginCond": [
        {
          "type": "QUEST_COND_QUEST_GLOBAL_VAR_EQUAL",
          "_param": [
            "10013",
            "1"
          ]
        },
        {
          "type": "QUEST_COND_ACTIVITY_CLIENT_COND",
          "_param": [
            "5117",
            "5117021",
            "0"
          ]
        }
      ],
      "priority": 5,
      "initDialog": 736861101,
      "npcId": [
        13118
      ],
      "performCfg": "QuestDialogue/WQ/Pindao_73686/Q7368611",
      "heroTalk": "TALK_HERO_MAIN",
      "assetIndex": 5441833515297772693,
      "prePerformCfg": "",
      "lowPriority": true
    },
    {
      "id": 7368612,
      "beginWay": "TALK_BEGIN_MANUAL",
      "beginCondComb": "LOGIC_AND",
      "beginCond": [
        {
          "type": "QUEST_COND_QUEST_GLOBAL_VAR_EQUAL",
          "_param": [
            "10013",
            "1"
          ]
        },
        {
          "type": "QUEST_COND_ACTIVITY_CLIENT_COND",
          "_param": [
            "5117",
            "5117021",
            "1"
          ]
        }
      ],
      "priority": 5,
      "initDialog": 736861201,
      "npcId": [
        13118
      ],
      "performCfg": "QuestDialogue/WQ/Pindao_73686/Q7368612",
      "heroTalk": "TALK_HERO_MAIN",
      "assetIndex": 1870780725938650668,
      "prePerformCfg": "",
      "lowPriority": true
    }
  ]
}