{
  "npcId": 13124,
  "talks": [
    {
      "id": 801019,
      "beginWay": "TALK_BEGIN_MANUAL",
      "priority": 5,
      "initDialog": 80101901,
      "npcId": [
        13124,
        13125
      ],
      "performCfg": "QuestDialogue/AQ/Twins3_8010/Q801019",
      "heroTalk": "TALK_HERO_MAIN",
      "assetIndex": 15264787290394878674,
      "prePerformCfg": ""
    }
  ]
}