{
  "npcId": 13215,
  "talks": [
    {
      "id": 1302803,
      "beginWay": "TALK_BEGIN_MANUAL",
      "activeMode": "PLAY_MODE_HOST",
      "beginCond": [
        {
          "type": "QUEST_COND_QUEST_GLOBAL_VAR_EQUAL",
          "_param": [
            "1302701",
            "1"
          ]
        }
      ],
      "priority": 5,
      "initDialog": 130280301,
      "npcId": [
        13215
      ],
      "performCfg": "",
      "heroTalk": "TALK_HERO_MAIN",
      "assetIndex": 11606831648722553841,
      "prePerformCfg": ""
    }
  ]
}