{
  "npcId": 13280,
  "talks": [
    {
      "id": 7333010,
      "beginWay": "TALK_BEGIN_MANUAL",
      "activeMode": "PLAY_MODE_HOST",
      "priority": 5,
      "npcId": [
        13280
      ],
      "performCfg": "QuestDialogue/WQ/Sumeru_73330/Q7333010",
      "assetIndex": 14184189821513299887,
      "prePerformCfg": ""
    }
  ]
}