{
  "npcId": 1403,
  "talks": [
    {
      "id": 40151,
      "beginWay": "TALK_BEGIN_MANUAL",
      "beginCond": [
        {
          "type": "QUEST_COND_IS_DAYTIME",
          "_param": [
            "1"
          ]
        }
      ],
      "initDialog": 4015140301,
      "npcId": [
        1403
      ],
      "performCfg": "",
      "assetIndex": 7679081362029579264,
      "participantId": [
        1401
      ],
      "prePerformCfg": ""
    }
  ]
}