{
  "npcId": 1411,
  "talks": [
    {
      "id": 40157,
      "beginWay": "TALK_BEGIN_MANUAL",
      "beginCond": [
        {
          "type": "QUEST_COND_IS_DAYTIME",
          "_param": [
            "1"
          ]
        }
      ],
      "priority": 3,
      "nextTalks": [
        46113,
        46105,
        40221,
        40223
      ],
      "initDialog": 4015141101,
      "npcId": [
        1411
      ],
      "performCfg": "",
      "assetIndex": 1190964557570128313,
      "prePerformCfg": ""
    },
    {
      "id": 40221,
      "beginWay": "TALK_BEGIN_MANUAL",
      "priority": 1,
      "initDialog": 4015141102,
      "npcId": [
        1411
      ],
      "performCfg": "",
      "assetIndex": 9066860058525226279,
      "prePerformCfg": ""
    },
    {
      "id": 40222,
      "beginWay": "TALK_BEGIN_MANUAL",
      "priority": 1,
      "initDialog": 4015141103,
      "npcId": [
        1411
      ],
      "performCfg": "",
      "assetIndex": 12830934721666558038,
      "prePerformCfg": ""
    },
    {
      "id": 40223,
      "beginWay": "TALK_BEGIN_MANUAL",
      "priority": 1,
      "initDialog": 4015141104,
      "npcId": [
        1411
      ],
      "performCfg": "",
      "assetIndex": 7684400052995432498,
      "prePerformCfg": ""
    },
    {
      "id": 40230,
      "beginWay": "TALK_BEGIN_MANUAL",
      "beginCondComb": "LOGIC_AND",
      "beginCond": [
        {
          "type": "QUEST_COND_IS_DAYTIME",
          "_param": [
            "1"
          ]
        },
        {
          "type": "QUEST_COND_QUEST_GLOBAL_VAR_EQUAL",
          "_param": [
            "20013",
            "1"
          ]
        }
      ],
      "priority": 4,
      "nextTalks": [
        40231,
        40232,
        40233
      ],
      "initDialog": 4015141118,
      "npcId": [
        1411
      ],
      "performCfg": "",
      "assetIndex": 10429006603766451681,
      "prePerformCfg": ""
    },
    {
      "id": 40231,
      "beginWay": "TALK_BEGIN_MANUAL",
      "priority": 1,
      "initDialog": 4015141120,
      "npcId": [
        1411
      ],
      "performCfg": "",
      "assetIndex": 7897667080665832695,
      "prePerformCfg": ""
    },
    {
      "id": 40232,
      "beginWay": "TALK_BEGIN_MANUAL",
      "priority": 1,
      "initDialog": 4015141126,
      "npcId": [
        1411
      ],
      "performCfg": "",
      "assetIndex": 221020508856434087,
      "prePerformCfg": ""
    },
    {
      "id": 40233,
      "beginWay": "TALK_BEGIN_MANUAL",
      "priority": 1,
      "initDialog": 4015141135,
      "npcId": [
        1411
      ],
      "performCfg": "",
      "assetIndex": 4754915269482803606,
      "prePerformCfg": ""
    }
  ]
}