{
  "npcId": 1417,
  "talks": [
    {
      "id": 6141706,
      "beginWay": "TALK_BEGIN_MANUAL",
      "activeMode": "PLAY_MODE_HOST",
      "beginCond": [
        {
          "type": "QUEST_COND_GCG_LEVEL_UNLOCKED",
          "_param": [
            "6141706"
          ]
        }
      ],
      "priority": 1,
      "initDialog": 614170601,
      "npcId": [
        1417
      ],
      "performCfg": "",
      "assetIndex": 9195308623671851121,
      "prePerformCfg": ""
    },
    {
      "id": 6141707,
      "beginWay": "TALK_BEGIN_MANUAL",
      "activeMode": "PLAY_MODE_HOST",
      "beginCond": [
        {
          "type": "QUEST_COND_GCG_LEVEL_UNLOCKED",
          "_param": [
            "6141707"
          ]
        }
      ],
      "priority": 1,
      "initDialog": 614170701,
      "npcId": [
        1417
      ],
      "performCfg": "",
      "assetIndex": 7677536231195600008,
      "prePerformCfg": ""
    },
    {
      "id": 6141708,
      "beginWay": "TALK_BEGIN_AUTO",
      "activeMode": "PLAY_MODE_HOST",
      "beginCond": [
        {
          "type": "QUEST_COND_GCG_WORLD_CHALLENGE_RESULT",
          "_param": [
            "1",
            "1417",
            "6141706"
          ]
        }
      ],
      "priority": 10,
      "initDialog": 614170801,
      "npcId": [
        1417
      ],
      "performCfg": "",
      "assetIndex": 12293916574659881586,
      "prePerformCfg": ""
    },
    {
      "id": 6141709,
      "beginWay": "TALK_BEGIN_AUTO",
      "activeMode": "PLAY_MODE_HOST",
      "beginCond": [
        {
          "type": "QUEST_COND_GCG_WORLD_CHALLENGE_RESULT",
          "_param": [
            "-1",
            "1417",
            "6141706"
          ]
        }
      ],
      "priority": 10,
      "initDialog": 614170901,
      "npcId": [
        1417
      ],
      "performCfg": "",
      "assetIndex": 17957609316458679705,
      "prePerformCfg": ""
    },
    {
      "id": 6141710,
      "beginWay": "TALK_BEGIN_AUTO",
      "activeMode": "PLAY_MODE_HOST",
      "beginCond": [
        {
          "type": "QUEST_COND_GCG_WORLD_CHALLENGE_RESULT",
          "_param": [
            "1",
            "1417",
            "6141707"
          ]
        }
      ],
      "priority": 10,
      "initDialog": 614171001,
      "npcId": [
        1417
      ],
      "performCfg": "",
      "assetIndex": 7376481306902951834,
      "prePerformCfg": ""
    },
    {
      "id": 6141711,
      "beginWay": "TALK_BEGIN_AUTO",
      "activeMode": "PLAY_MODE_HOST",
      "beginCond": [
        {
          "type": "QUEST_COND_GCG_WORLD_CHALLENGE_RESULT",
          "_param": [
            "-1",
            "1417",
            "6141707"
          ]
        }
      ],
      "priority": 10,
      "initDialog": 614171101,
      "npcId": [
        1417
      ],
      "performCfg": "",
      "assetIndex": 9833258049744207016,
      "prePerformCfg": ""
    },
    {
      "id": 7082101,
      "beginWay": "TALK_BEGIN_MANUAL",
      "beginCond": [
        {
          "type": "QUEST_COND_QUEST_SERVER_COND_VALID",
          "_param": [
            "7082101"
          ]
        }
      ],
      "priority": 5,
      "nextTalks": [
        7082103,
        7082104
      ],
      "initDialog": 708210101,
      "npcId": [
        1417
      ],
      "performCfg": "",
      "heroTalk": "TALK_HERO_MAIN",
      "assetIndex": 5324199236899530286,
      "prePerformCfg": "QuestDialogue/COOP/CoopBarbara/test3"
    },
    {
      "id": 7082103,
      "initDialog": 708210301,
      "npcId": [
        1417
      ],
      "performCfg": "",
      "heroTalk": "TALK_HERO_MAIN",
      "assetIndex": 376505811633197762,
      "prePerformCfg": ""
    },
    {
      "id": 7082104,
      "initDialog": 708210401,
      "npcId": [
        1417
      ],
      "performCfg": "",
      "heroTalk": "TALK_HERO_MAIN",
      "assetIndex": 7307098048458256563,
      "prePerformCfg": ""
    },
    {
      "id": 40162,
      "beginWay": "TALK_BEGIN_MANUAL",
      "activeMode": "PLAY_MODE_ALL",
      "priority": 3,
      "nextTalks": [
        46411,
        7082106,
        6141701,
        41712,
        6141704,
        6141706,
        6141705,
        8141701,
        41713,
        41714
      ],
      "initDialog": 4015141701,
      "npcId": [
        1417
      ],
      "performCfg": "",
      "assetIndex": 5124483028463533006,
      "prePerformCfg": ""
    },
    {
      "id": 41712,
      "beginWay": "TALK_BEGIN_MANUAL",
      "activeMode": "PLAY_MODE_ALL",
      "beginCond": [
        {
          "type": "QUEST_COND_OPEN_STATE_EQUAL",
          "_param": [
            "1003",
            "1"
          ]
        }
      ],
      "priority": 1,
      "initDialog": 4015141702,
      "npcId": [
        1417
      ],
      "performCfg": "",
      "assetIndex": 2981869171805478940,
      "prePerformCfg": ""
    },
    {
      "id": 41713,
      "beginWay": "TALK_BEGIN_MANUAL",
      "activeMode": "PLAY_MODE_ALL",
      "priority": 1,
      "initDialog": 4015141714,
      "npcId": [
        1417
      ],
      "performCfg": "",
      "assetIndex": 15049501526599914385,
      "prePerformCfg": ""
    },
    {
      "id": 41714,
      "beginWay": "TALK_BEGIN_MANUAL",
      "activeMode": "PLAY_MODE_ALL",
      "priority": 1,
      "initDialog": 4015141705,
      "npcId": [
        1417
      ],
      "performCfg": "",
      "assetIndex": 13615911494759112948,
      "prePerformCfg": ""
    },
    {
      "id": 6141701,
      "beginWay": "TALK_BEGIN_MANUAL",
      "activeMode": "PLAY_MODE_ALL",
      "beginCondComb": "LOGIC_AND",
      "beginCond": [
        {
          "type": "QUEST_COND_OPEN_STATE_EQUAL",
          "_param": [
            "37",
            "1"
          ]
        },
        {
          "type": "QUEST_COND_FORGE_HAVE_FINISH",
          "_param": [
            "0"
          ]
        }
      ],
      "priority": 1,
      "initDialog": 614170101,
      "npcId": [
        1417
      ],
      "performCfg": "",
      "assetIndex": 15673174739830076167,
      "prePerformCfg": ""
    },
    {
      "id": 6141702,
      "beginWay": "TALK_BEGIN_MANUAL",
      "beginCond": [
        {
          "type": "QUEST_COND_STATE_EQUAL",
          "_param": [
            "35901",
            "2"
          ]
        }
      ],
      "priority": 4,
      "nextTalks": [
        46411,
        6141701,
        6141704,
        41712,
        6141703,
        41713,
        41714
      ],
      "initDialog": 614170201,
      "npcId": [
        1417
      ],
      "performCfg": "",
      "assetIndex": 15642214594090152473,
      "prePerformCfg": ""
    },
    {
      "id": 6141703,
      "beginWay": "TALK_BEGIN_MANUAL",
      "beginCond": [
        {
          "type": "QUEST_COND_STATE_EQUAL",
          "_param": [
            "35901",
            "2"
          ]
        }
      ],
      "priority": 1,
      "initDialog": 614170301,
      "npcId": [
        1417
      ],
      "performCfg": "",
      "assetIndex": 4052600398656611565,
      "prePerformCfg": ""
    },
    {
      "id": 6141704,
      "beginWay": "TALK_BEGIN_MANUAL",
      "activeMode": "PLAY_MODE_ALL",
      "beginCondComb": "LOGIC_AND",
      "beginCond": [
        {
          "type": "QUEST_COND_OPEN_STATE_EQUAL",
          "_param": [
            "37",
            "1"
          ]
        },
        {
          "type": "QUEST_COND_FORGE_HAVE_FINISH",
          "_param": [
            "1"
          ]
        }
      ],
      "priority": 1,
      "initDialog": 614170401,
      "npcId": [
        1417
      ],
      "performCfg": "",
      "assetIndex": 1547631051608138972,
      "prePerformCfg": ""
    },
    {
      "id": 6141705,
      "beginWay": "TALK_BEGIN_MANUAL",
      "beginCondComb": "LOGIC_AND",
      "beginCond": [
        {
          "type": "QUEST_COND_STATE_EQUAL",
          "_param": [
            "35901",
            "3"
          ]
        },
        {
          "type": "QUEST_COND_QUEST_NOT_RECEIVE",
          "_param": [
            "39403",
            "1"
          ]
        }
      ],
      "priority": 1,
      "initDialog": 614170501,
      "npcId": [
        1417
      ],
      "performCfg": "",
      "assetIndex": 8293859939990724825,
      "prePerformCfg": ""
    },
    {
      "id": 8141701,
      "beginWay": "TALK_BEGIN_MANUAL",
      "activeMode": "PLAY_MODE_ALL",
      "beginCond": [
        {
          "type": "QUEST_COND_OPEN_STATE_EQUAL",
          "_param": [
            "1404",
            "1"
          ]
        }
      ],
      "priority": 2,
      "nextTalks": [
        8141702,
        8141703,
        8141704
      ],
      "initDialog": 814170101,
      "npcId": [
        1417
      ],
      "performCfg": "",
      "assetIndex": 14847896235307007730,
      "prePerformCfg": ""
    },
    {
      "id": 8141702,
      "beginWay": "TALK_BEGIN_MANUAL",
      "activeMode": "PLAY_MODE_ALL",
      "beginCond": [
        {
          "type": "QUEST_COND_NOT_HAVE_BLOSSOM_TALK"
        }
      ],
      "priority": 1,
      "initDialog": 814170201,
      "npcId": [
        1417
      ],
      "performCfg": "",
      "assetIndex": 15311200315715250577,
      "prePerformCfg": ""
    }
  ]
}