{
  "npcId": 1421,
  "talks": [
    {
      "id": 7091101,
      "beginWay": "TALK_BEGIN_MANUAL",
      "beginCondComb": "LOGIC_OR",
      "beginCond": [
        {
          "type": "QUEST_COND_QUEST_NOT_RECEIVE",
          "_param": [
            "7091101",
            "1"
          ]
        }
      ],
      "priority": 1,
      "initDialog": 709110101,
      "npcId": [
        1421
      ],
      "performCfg": "",
      "assetIndex": 14530199682428968081,
      "dontBlockDaily": true,
      "prePerformCfg": ""
    },
    {
      "id": 40164,
      "beginWay": "TALK_BEGIN_MANUAL",
      "priority": 3,
      "nextTalks": [
        6142104,
        6142103,
        6142101,
        6142102
      ],
      "initDialog": 4015142101,
      "npcId": [
        1421
      ],
      "performCfg": "",
      "assetIndex": 1273542996992662592,
      "prePerformCfg": "",
      "freeStyleList": [
        9000
      ]
    },
    {
      "id": 41723,
      "beginWay": "TALK_BEGIN_MANUAL",
      "priority": 1,
      "initDialog": 4015142104,
      "npcId": [
        1421
      ],
      "performCfg": "",
      "assetIndex": 11090291348935046617,
      "prePerformCfg": ""
    },
    {
      "id": 41724,
      "beginWay": "TALK_BEGIN_MANUAL",
      "priority": 1,
      "nextTalks": [
        7091101
      ],
      "initDialog": 4015142105,
      "npcId": [
        1421
      ],
      "performCfg": "",
      "assetIndex": 5849109077425435667,
      "prePerformCfg": ""
    },
    {
      "id": 6142101,
      "beginWay": "TALK_BEGIN_MANUAL",
      "priority": 1,
      "nextTalks": [
        41723,
        41724
      ],
      "initDialog": 4015142103,
      "npcId": [
        1421
      ],
      "performCfg": "",
      "assetIndex": 15337821554166510768,
      "prePerformCfg": ""
    },
    {
      "id": 6142102,
      "beginWay": "TALK_BEGIN_MANUAL",
      "priority": 1,
      "initDialog": 4015142106,
      "npcId": [
        1421
      ],
      "performCfg": "",
      "assetIndex": 5386272236693973250,
      "prePerformCfg": ""
    },
    {
      "id": 6142103,
      "beginWay": "TALK_BEGIN_MANUAL",
      "beginCondComb": "LOGIC_AND",
      "beginCond": [
        {
          "type": "QUEST_COND_STATE_EQUAL",
          "_param": [
            "35901",
            "3"
          ]
        },
        {
          "type": "QUEST_COND_QUEST_NOT_RECEIVE",
          "_param": [
            "39403",
            "1"
          ]
        }
      ],
      "priority": 1,
      "initDialog": 614210301,
      "npcId": [
        1421
      ],
      "performCfg": "",
      "assetIndex": 1824019614225634614,
      "prePerformCfg": ""
    },
    {
      "id": 6142104,
      "beginWay": "TALK_BEGIN_MANUAL",
      "beginCond": [
        {
          "type": "QUEST_COND_STATE_EQUAL",
          "_param": [
            "39403",
            "3"
          ]
        }
      ],
      "priority": 1,
      "initDialog": 614210401,
      "npcId": [
        1421
      ],
      "performCfg": "",
      "assetIndex": 13505421492399004823,
      "prePerformCfg": ""
    }
  ]
}