{
  "npcId": 1425,
  "talks": [
    {
      "id": 2074001,
      "beginWay": "TALK_BEGIN_MANUAL",
      "beginCondComb": "LOGIC_AND",
      "beginCond": [
        {
          "type": "QUEST_COND_QUEST_SERVER_COND_VALID",
          "_param": [
            "2074001"
          ]
        }
      ],
      "priority": 5,
      "nextTalks": [
        2074002,
        2074003
      ],
      "initDialog": 207400102,
      "npcId": [
        1425
      ],
      "performCfg": "",
      "heroTalk": "TALK_HERO_MAIN",
      "assetIndex": 230228886048292829,
      "prePerformCfg": "QuestDialogue/WQ/Mengde_20740/Q20740_Talk"
    },
    {
      "id": 2074002,
      "beginCondComb": "LOGIC_AND",
      "priority": 5,
      "initDialog": 207400201,
      "npcId": [
        1425
      ],
      "performCfg": "",
      "heroTalk": "TALK_HERO_MAIN",
      "assetIndex": 14639474932314574870,
      "prePerformCfg": ""
    },
    {
      "id": 2074003,
      "beginCondComb": "LOGIC_AND",
      "priority": 5,
      "initDialog": 207400301,
      "npcId": [
        1425
      ],
      "performCfg": "",
      "heroTalk": "TALK_HERO_MAIN",
      "assetIndex": 12549425882533343249,
      "prePerformCfg": ""
    },
    {
      "id": 7090401,
      "beginWay": "TALK_BEGIN_MANUAL",
      "beginCondComb": "LOGIC_OR",
      "beginCond": [
        {
          "type": "QUEST_COND_QUEST_NOT_RECEIVE",
          "_param": [
            "7090401",
            "1"
          ]
        }
      ],
      "priority": 1,
      "initDialog": 709040101,
      "npcId": [
        1425
      ],
      "performCfg": "",
      "assetIndex": 11503135627647785649,
      "dontBlockDaily": true,
      "prePerformCfg": ""
    },
    {
      "id": 40166,
      "beginWay": "TALK_BEGIN_MANUAL",
      "priority": 3,
      "nextTalks": [
        4015773,
        4015774,
        2074004,
        2074005,
        2074006,
        2074007,
        7081008,
        7081011,
        7081012,
        1010061,
        6142502,
        6142503,
        6142504,
        46410,
        41710,
        41711
      ],
      "initDialog": 4015142501,
      "npcId": [
        1425
      ],
      "performCfg": "",
      "assetIndex": 8134620892854212900,
      "prePerformCfg": "",
      "freeStyleList": [
        9000
      ]
    },
    {
      "id": 41710,
      "beginWay": "TALK_BEGIN_MANUAL",
      "priority": 1,
      "nextTalks": [
        41725,
        41726,
        41727
      ],
      "initDialog": 4015142519,
      "npcId": [
        1425
      ],
      "performCfg": "",
      "assetIndex": 17352439290263631000,
      "prePerformCfg": ""
    },
    {
      "id": 41711,
      "beginWay": "TALK_BEGIN_MANUAL",
      "priority": 1,
      "initDialog": 4015142505,
      "npcId": [
        1425
      ],
      "performCfg": "",
      "assetIndex": 14030297399798092893,
      "prePerformCfg": ""
    },
    {
      "id": 41725,
      "beginWay": "TALK_BEGIN_MANUAL",
      "priority": 1,
      "nextTalks": [
        7090401
      ],
      "initDialog": 4015142502,
      "npcId": [
        1425
      ],
      "performCfg": "",
      "assetIndex": 11684200601309367437,
      "prePerformCfg": ""
    },
    {
      "id": 41726,
      "beginWay": "TALK_BEGIN_MANUAL",
      "priority": 1,
      "initDialog": 4015142503,
      "npcId": [
        1425
      ],
      "performCfg": "",
      "assetIndex": 1656135304088416116,
      "prePerformCfg": ""
    },
    {
      "id": 41727,
      "beginWay": "TALK_BEGIN_MANUAL",
      "priority": 1,
      "initDialog": 4015142504,
      "npcId": [
        1425
      ],
      "performCfg": "",
      "assetIndex": 543927567263302245,
      "prePerformCfg": ""
    },
    {
      "id": 6142501,
      "beginWay": "TALK_BEGIN_MANUAL",
      "priority": 1,
      "initDialog": 614250101,
      "npcId": [
        1425
      ],
      "performCfg": "",
      "assetIndex": 16839433915031502841,
      "prePerformCfg": ""
    },
    {
      "id": 6142502,
      "beginWay": "TALK_BEGIN_MANUAL",
      "priority": 1,
      "initDialog": 614250201,
      "npcId": [
        1425
      ],
      "performCfg": "",
      "assetIndex": 7976888541408044997,
      "prePerformCfg": ""
    },
    {
      "id": 6142503,
      "beginWay": "TALK_BEGIN_MANUAL",
      "beginCondComb": "LOGIC_AND",
      "beginCond": [
        {
          "type": "QUEST_COND_STATE_EQUAL",
          "_param": [
            "35901",
            "3"
          ]
        },
        {
          "type": "QUEST_COND_QUEST_NOT_RECEIVE",
          "_param": [
            "39403",
            "1"
          ]
        }
      ],
      "priority": 1,
      "initDialog": 614250301,
      "npcId": [
        1425
      ],
      "performCfg": "",
      "assetIndex": 15489775926183250566,
      "prePerformCfg": ""
    },
    {
      "id": 6142504,
      "beginWay": "TALK_BEGIN_MANUAL",
      "beginCond": [
        {
          "type": "QUEST_COND_STATE_EQUAL",
          "_param": [
            "39403",
            "3"
          ]
        }
      ],
      "priority": 1,
      "initDialog": 614250401,
      "npcId": [
        1425
      ],
      "performCfg": "",
      "assetIndex": 10845975005053330401,
      "prePerformCfg": ""
    }
  ]
}