{
  "npcId": 1433,
  "talks": [
    {
      "id": 7082501,
      "beginWay": "TALK_BEGIN_MANUAL",
      "beginCond": [
        {
          "type": "QUEST_COND_QUEST_SERVER_COND_VALID",
          "_param": [
            "7082501"
          ]
        }
      ],
      "priority": 5,
      "nextTalks": [
        7082502,
        7082503
      ],
      "initDialog": 708250101,
      "npcId": [
        1433
      ],
      "performCfg": "",
      "heroTalk": "TALK_HERO_MAIN",
      "assetIndex": 12268674014576487063,
      "prePerformCfg": "QuestDialogue/COOP/CoopBarbara/test3"
    },
    {
      "id": 7082502,
      "priority": 5,
      "initDialog": 708250201,
      "npcId": [
        1433
      ],
      "performCfg": "",
      "heroTalk": "TALK_HERO_MAIN",
      "assetIndex": 6907973658748446178,
      "prePerformCfg": ""
    },
    {
      "id": 7082503,
      "priority": 5,
      "initDialog": 708250301,
      "npcId": [
        1433
      ],
      "performCfg": "",
      "heroTalk": "TALK_HERO_MAIN",
      "assetIndex": 5309910098724048844,
      "prePerformCfg": ""
    },
    {
      "id": 40171,
      "beginWay": "TALK_BEGIN_MANUAL",
      "priority": 3,
      "nextTalks": [
        4008878,
        6143310,
        6143309,
        6143311,
        6143312,
        6143313
      ],
      "initDialog": 4015143301,
      "npcId": [
        1433
      ],
      "performCfg": "",
      "assetIndex": 10669495518452175384,
      "prePerformCfg": "",
      "freeStyleList": [
        9000
      ]
    },
    {
      "id": 6143302,
      "beginWay": "TALK_BEGIN_MANUAL",
      "beginCond": [
        {
          "type": "QUEST_COND_STATE_EQUAL",
          "_param": [
            "35901",
            "2"
          ]
        }
      ],
      "priority": 5,
      "initDialog": 614330201,
      "npcId": [
        1433
      ],
      "performCfg": "",
      "assetIndex": 17654229261910195079,
      "prePerformCfg": ""
    },
    {
      "id": 6143303,
      "beginWay": "TALK_BEGIN_MANUAL",
      "beginCond": [
        {
          "type": "QUEST_COND_STATE_EQUAL",
          "_param": [
            "35901",
            "2"
          ]
        }
      ],
      "priority": 5,
      "initDialog": 614330301,
      "npcId": [
        1433
      ],
      "performCfg": "",
      "assetIndex": 51683463975262257,
      "prePerformCfg": ""
    },
    {
      "id": 6143304,
      "beginWay": "TALK_BEGIN_MANUAL",
      "beginCond": [
        {
          "type": "QUEST_COND_STATE_EQUAL",
          "_param": [
            "35901",
            "2"
          ]
        }
      ],
      "priority": 5,
      "initDialog": 614330401,
      "npcId": [
        1433
      ],
      "performCfg": "",
      "assetIndex": 13462368322168300077,
      "prePerformCfg": ""
    },
    {
      "id": 6143305,
      "beginWay": "TALK_BEGIN_MANUAL",
      "beginCond": [
        {
          "type": "QUEST_COND_STATE_EQUAL",
          "_param": [
            "46618",
            "3"
          ]
        }
      ],
      "priority": 4,
      "nextTalks": [
        4008878,
        6143310,
        6143309,
        6143306,
        6143307,
        6143308
      ],
      "initDialog": 614330501,
      "npcId": [
        1433
      ],
      "performCfg": "",
      "assetIndex": 2857687919501391728,
      "prePerformCfg": ""
    },
    {
      "id": 6143306,
      "beginWay": "TALK_BEGIN_MANUAL",
      "beginCond": [
        {
          "type": "QUEST_COND_STATE_EQUAL",
          "_param": [
            "46618",
            "3"
          ]
        }
      ],
      "priority": 1,
      "initDialog": 614330601,
      "npcId": [
        1433
      ],
      "performCfg": "",
      "assetIndex": 11063986403039607791,
      "prePerformCfg": ""
    },
    {
      "id": 6143307,
      "beginWay": "TALK_BEGIN_MANUAL",
      "beginCond": [
        {
          "type": "QUEST_COND_STATE_EQUAL",
          "_param": [
            "46618",
            "3"
          ]
        }
      ],
      "priority": 1,
      "initDialog": 614330701,
      "npcId": [
        1433
      ],
      "performCfg": "",
      "assetIndex": 15569006173966036876,
      "prePerformCfg": ""
    },
    {
      "id": 6143308,
      "beginWay": "TALK_BEGIN_MANUAL",
      "beginCond": [
        {
          "type": "QUEST_COND_STATE_EQUAL",
          "_param": [
            "46618",
            "3"
          ]
        }
      ],
      "priority": 1,
      "initDialog": 614330801,
      "npcId": [
        1433
      ],
      "performCfg": "",
      "assetIndex": 17550077155359084176,
      "prePerformCfg": ""
    },
    {
      "id": 6143309,
      "beginWay": "TALK_BEGIN_MANUAL",
      "beginCondComb": "LOGIC_AND",
      "beginCond": [
        {
          "type": "QUEST_COND_STATE_EQUAL",
          "_param": [
            "35901",
            "3"
          ]
        },
        {
          "type": "QUEST_COND_QUEST_NOT_RECEIVE",
          "_param": [
            "39403",
            "1"
          ]
        }
      ],
      "priority": 1,
      "initDialog": 614330901,
      "npcId": [
        1433
      ],
      "performCfg": "",
      "assetIndex": 15330576591708423662,
      "prePerformCfg": ""
    },
    {
      "id": 6143310,
      "beginWay": "TALK_BEGIN_MANUAL",
      "beginCond": [
        {
          "type": "QUEST_COND_STATE_EQUAL",
          "_param": [
            "39403",
            "3"
          ]
        }
      ],
      "priority": 1,
      "initDialog": 614331001,
      "npcId": [
        1433
      ],
      "performCfg": "",
      "assetIndex": 3140256521172938466,
      "prePerformCfg": ""
    },
    {
      "id": 6143311,
      "beginWay": "TALK_BEGIN_MANUAL",
      "priority": 1,
      "initDialog": 4015143302,
      "npcId": [
        1433
      ],
      "performCfg": "",
      "assetIndex": 9074192319304977630,
      "prePerformCfg": ""
    },
    {
      "id": 6143312,
      "beginWay": "TALK_BEGIN_MANUAL",
      "priority": 1,
      "initDialog": 4015143303,
      "npcId": [
        1433
      ],
      "performCfg": "",
      "assetIndex": 14990974510857345883,
      "prePerformCfg": ""
    },
    {
      "id": 6143313,
      "beginWay": "TALK_BEGIN_MANUAL",
      "priority": 1,
      "initDialog": 4015143304,
      "npcId": [
        1433
      ],
      "performCfg": "",
      "assetIndex": 15932744720520001952,
      "prePerformCfg": ""
    }
  ]
}