{
  "npcId": 1453,
  "talks": [
    {
      "id": 6145301,
      "beginWay": "TALK_BEGIN_MANUAL",
      "priority": 3,
      "nextTalks": [
        6145305,
        6145302,
        6145303,
        6145304
      ],
      "initDialog": 4015145301,
      "npcId": [
        1453
      ],
      "performCfg": "",
      "assetIndex": 7221947027719681804,
      "prePerformCfg": "",
      "freeStyleList": [
        9000
      ]
    },
    {
      "id": 6145302,
      "beginWay": "TALK_BEGIN_MANUAL",
      "priority": 1,
      "initDialog": 4015145302,
      "npcId": [
        1453
      ],
      "performCfg": "",
      "assetIndex": 2930441810793473166,
      "prePerformCfg": ""
    },
    {
      "id": 6145303,
      "beginWay": "TALK_BEGIN_MANUAL",
      "priority": 1,
      "initDialog": 4015145304,
      "npcId": [
        1453
      ],
      "performCfg": "",
      "assetIndex": 6898417643189187329,
      "prePerformCfg": ""
    },
    {
      "id": 6145304,
      "beginWay": "TALK_BEGIN_MANUAL",
      "priority": 1,
      "initDialog": 4015145305,
      "npcId": [
        1453
      ],
      "performCfg": "",
      "assetIndex": 1617773750677701414,
      "prePerformCfg": ""
    },
    {
      "id": 6145305,
      "beginWay": "TALK_BEGIN_MANUAL",
      "beginCondComb": "LOGIC_AND",
      "beginCond": [
        {
          "type": "QUEST_COND_STATE_EQUAL",
          "_param": [
            "35901",
            "3"
          ]
        },
        {
          "type": "QUEST_COND_QUEST_NOT_RECEIVE",
          "_param": [
            "39403",
            "1"
          ]
        }
      ],
      "priority": 1,
      "initDialog": 614530501,
      "npcId": [
        1453
      ],
      "performCfg": "",
      "assetIndex": 7297584093928013352,
      "prePerformCfg": ""
    }
  ]
}