{
  "npcId": 1463,
  "talks": [
    {
      "id": 6146301,
      "beginWay": "TALK_BEGIN_MANUAL",
      "priority": 3,
      "nextTalks": [
        6146305,
        46416,
        6146302,
        6146303,
        6146304
      ],
      "initDialog": 614630101,
      "npcId": [
        1463
      ],
      "performCfg": "",
      "assetIndex": 14449295810179342196,
      "prePerformCfg": "",
      "freeStyleList": [
        9000
      ]
    },
    {
      "id": 6146302,
      "beginWay": "TALK_BEGIN_MANUAL",
      "priority": 1,
      "initDialog": 614630201,
      "npcId": [
        1463
      ],
      "performCfg": "",
      "assetIndex": 5340206202632107415,
      "prePerformCfg": ""
    },
    {
      "id": 6146303,
      "beginWay": "TALK_BEGIN_MANUAL",
      "priority": 1,
      "initDialog": 614630301,
      "npcId": [
        1463
      ],
      "performCfg": "",
      "assetIndex": 7320360174089652040,
      "prePerformCfg": ""
    },
    {
      "id": 6146304,
      "beginWay": "TALK_BEGIN_MANUAL",
      "priority": 1,
      "initDialog": 614630401,
      "npcId": [
        1463
      ],
      "performCfg": "",
      "assetIndex": 8204577837396306988,
      "prePerformCfg": ""
    },
    {
      "id": 6146305,
      "beginWay": "TALK_BEGIN_MANUAL",
      "beginCond": [
        {
          "type": "QUEST_COND_STATE_EQUAL",
          "_param": [
            "39403",
            "3"
          ]
        }
      ],
      "priority": 1,
      "initDialog": 614630501,
      "npcId": [
        1463
      ],
      "performCfg": "",
      "assetIndex": 6527758672018689396,
      "prePerformCfg": ""
    }
  ]
}