{
  "npcId": 1469,
  "talks": [
    {
      "id": 40173,
      "beginWay": "TALK_BEGIN_MANUAL",
      "priority": 2,
      "nextTalks": [
        46418,
        41603,
        41605,
        41604
      ],
      "initDialog": 4015146901,
      "npcId": [
        1469
      ],
      "performCfg": "",
      "assetIndex": 6222273852494536134,
      "prePerformCfg": "",
      "freeStyleList": [
        9000
      ]
    },
    {
      "id": 40198,
      "beginWay": "TALK_BEGIN_MANUAL",
      "beginCond": [
        {
          "type": "QUEST_COND_STATE_EQUAL",
          "_param": [
            "35901",
            "2"
          ]
        }
      ],
      "priority": 3,
      "initDialog": 4015146961,
      "npcId": [
        1469
      ],
      "performCfg": "",
      "assetIndex": 10183697342111770116,
      "prePerformCfg": "",
      "freeStyleList": [
        9000
      ]
    },
    {
      "id": 41601,
      "beginWay": "TALK_BEGIN_MANUAL",
      "priority": 1,
      "initDialog": 4015146903,
      "npcId": [
        1469
      ],
      "performCfg": "",
      "assetIndex": 6551991234924946295,
      "prePerformCfg": ""
    },
    {
      "id": 41602,
      "beginWay": "TALK_BEGIN_MANUAL",
      "priority": 1,
      "initDialog": 4015146930,
      "npcId": [
        1469
      ],
      "performCfg": "",
      "assetIndex": 3950812235009199370,
      "prePerformCfg": ""
    },
    {
      "id": 41603,
      "beginWay": "TALK_BEGIN_MANUAL",
      "priority": 1,
      "initDialog": 4015146920,
      "npcId": [
        1469
      ],
      "performCfg": "",
      "assetIndex": 6716798489486811326,
      "prePerformCfg": ""
    },
    {
      "id": 41604,
      "beginWay": "TALK_BEGIN_MANUAL",
      "priority": 1,
      "initDialog": 4015146906,
      "npcId": [
        1469
      ],
      "performCfg": "",
      "assetIndex": 2134060996915318280,
      "prePerformCfg": ""
    },
    {
      "id": 41605,
      "beginWay": "TALK_BEGIN_MANUAL",
      "priority": 1,
      "initDialog": 4015146972,
      "npcId": [
        1469
      ],
      "performCfg": "",
      "assetIndex": 9802098225081182178,
      "prePerformCfg": ""
    }
  ]
}