{
  "npcId": 1533,
  "talks": [
    {
      "id": 6153301,
      "beginWay": "TALK_BEGIN_MANUAL",
      "priority": 3,
      "nextTalks": [
        6153304,
        6153305,
        6153306
      ],
      "initDialog": 615330101,
      "npcId": [
        1533
      ],
      "performCfg": "",
      "assetIndex": 2654251405875795072,
      "prePerformCfg": "",
      "freeStyleList": [
        9000
      ]
    },
    {
      "id": 6153304,
      "beginWay": "TALK_BEGIN_MANUAL",
      "priority": 1,
      "initDialog": 615330401,
      "npcId": [
        1533
      ],
      "performCfg": "",
      "assetIndex": 2385330917221539346,
      "prePerformCfg": ""
    },
    {
      "id": 6153305,
      "beginWay": "TALK_BEGIN_MANUAL",
      "priority": 1,
      "initDialog": 615330501,
      "npcId": [
        1533
      ],
      "performCfg": "",
      "assetIndex": 14226257516660900195,
      "prePerformCfg": ""
    },
    {
      "id": 6153306,
      "beginWay": "TALK_BEGIN_MANUAL",
      "priority": 1,
      "initDialog": 615330601,
      "npcId": [
        1533
      ],
      "performCfg": "",
      "assetIndex": 4540775571866028892,
      "prePerformCfg": ""
    }
  ]
}