{
  "npcId": 1551,
  "talks": [
    {
      "id": 6155101,
      "beginWay": "TALK_BEGIN_MANUAL",
      "priority": 3,
      "nextTalks": [
        6155102,
        6155103,
        6155104
      ],
      "initDialog": 615510101,
      "npcId": [
        1551
      ],
      "performCfg": "",
      "assetIndex": 17613957859032628334,
      "prePerformCfg": "",
      "freeStyleList": [
        9000
      ]
    },
    {
      "id": 6155102,
      "beginWay": "TALK_BEGIN_MANUAL",
      "priority": 1,
      "initDialog": 615510201,
      "npcId": [
        1551
      ],
      "performCfg": "",
      "assetIndex": 184728554481459261,
      "prePerformCfg": ""
    },
    {
      "id": 6155103,
      "beginWay": "TALK_BEGIN_MANUAL",
      "priority": 1,
      "initDialog": 615510301,
      "npcId": [
        1551
      ],
      "performCfg": "",
      "assetIndex": 17695984551685662502,
      "prePerformCfg": ""
    },
    {
      "id": 6155104,
      "beginWay": "TALK_BEGIN_MANUAL",
      "priority": 1,
      "initDialog": 615510401,
      "npcId": [
        1551
      ],
      "performCfg": "",
      "assetIndex": 4344439356003233217,
      "prePerformCfg": ""
    }
  ]
}