{
  "npcId": 1587,
  "talks": [
    {
      "id": 6158707,
      "beginWay": "TALK_BEGIN_MANUAL",
      "activeMode": "PLAY_MODE_HOST",
      "beginCond": [
        {
          "type": "QUEST_COND_GCG_LEVEL_UNLOCKED",
          "_param": [
            "6158707"
          ]
        }
      ],
      "priority": 1,
      "initDialog": 615870701,
      "npcId": [
        1587
      ],
      "performCfg": "",
      "assetIndex": 14139699953825173986,
      "prePerformCfg": ""
    },
    {
      "id": 6158708,
      "beginWay": "TALK_BEGIN_MANUAL",
      "activeMode": "PLAY_MODE_HOST",
      "beginCond": [
        {
          "type": "QUEST_COND_GCG_LEVEL_UNLOCKED",
          "_param": [
            "6158708"
          ]
        }
      ],
      "priority": 1,
      "initDialog": 615870801,
      "npcId": [
        1587
      ],
      "performCfg": "",
      "assetIndex": 11258542022347150685,
      "prePerformCfg": ""
    },
    {
      "id": 6158709,
      "beginWay": "TALK_BEGIN_AUTO",
      "activeMode": "PLAY_MODE_HOST",
      "beginCond": [
        {
          "type": "QUEST_COND_GCG_WORLD_CHALLENGE_RESULT",
          "_param": [
            "1",
            "1587",
            "6158707"
          ]
        }
      ],
      "priority": 10,
      "initDialog": 615870901,
      "npcId": [
        1587
      ],
      "performCfg": "",
      "assetIndex": 1236830013168764996,
      "prePerformCfg": ""
    },
    {
      "id": 6158710,
      "beginWay": "TALK_BEGIN_AUTO",
      "activeMode": "PLAY_MODE_HOST",
      "beginCond": [
        {
          "type": "QUEST_COND_GCG_WORLD_CHALLENGE_RESULT",
          "_param": [
            "-1",
            "1587",
            "6158707"
          ]
        }
      ],
      "priority": 10,
      "initDialog": 615871001,
      "npcId": [
        1587
      ],
      "performCfg": "",
      "assetIndex": 8557062713845564079,
      "prePerformCfg": ""
    },
    {
      "id": 6158711,
      "beginWay": "TALK_BEGIN_AUTO",
      "activeMode": "PLAY_MODE_HOST",
      "beginCond": [
        {
          "type": "QUEST_COND_GCG_WORLD_CHALLENGE_RESULT",
          "_param": [
            "1",
            "1587",
            "6158708"
          ]
        }
      ],
      "priority": 10,
      "initDialog": 615871101,
      "npcId": [
        1587
      ],
      "performCfg": "",
      "assetIndex": 14754855081739262438,
      "prePerformCfg": ""
    },
    {
      "id": 6158712,
      "beginWay": "TALK_BEGIN_AUTO",
      "activeMode": "PLAY_MODE_HOST",
      "beginCond": [
        {
          "type": "QUEST_COND_GCG_WORLD_CHALLENGE_RESULT",
          "_param": [
            "-1",
            "1587",
            "6158708"
          ]
        }
      ],
      "priority": 10,
      "initDialog": 615871201,
      "npcId": [
        1587
      ],
      "performCfg": "",
      "assetIndex": 13342349087801386658,
      "prePerformCfg": ""
    },
    {
      "id": 7092901,
      "beginWay": "TALK_BEGIN_MANUAL",
      "beginCondComb": "LOGIC_OR",
      "beginCond": [
        {
          "type": "QUEST_COND_QUEST_NOT_RECEIVE",
          "_param": [
            "7092901",
            "1"
          ]
        }
      ],
      "priority": 1,
      "initDialog": 709290101,
      "npcId": [
        1587
      ],
      "performCfg": "",
      "assetIndex": 17669596261455165172,
      "dontBlockDaily": true,
      "prePerformCfg": ""
    },
    {
      "id": 41739,
      "beginWay": "TALK_BEGIN_MANUAL",
      "priority": 1,
      "initDialog": 615870305,
      "npcId": [
        1587
      ],
      "performCfg": "",
      "assetIndex": 12670993909918052328,
      "prePerformCfg": ""
    },
    {
      "id": 6158701,
      "beginWay": "TALK_BEGIN_MANUAL",
      "activeMode": "PLAY_MODE_HOST",
      "priority": 3,
      "nextTalks": [
        2003901,
        2003907,
        2003908,
        2003909,
        2003910,
        2003911,
        2003912,
        2003913,
        2003914,
        2003915,
        6158706,
        6158707,
        6158702,
        6158703,
        6158704,
        99603,
        99811
      ],
      "initDialog": 615870101,
      "npcId": [
        1587
      ],
      "performCfg": "",
      "assetIndex": 12708357301221902354,
      "prePerformCfg": "",
      "freeStyleList": [
        9000
      ]
    },
    {
      "id": 6158702,
      "beginWay": "TALK_BEGIN_MANUAL",
      "priority": 1,
      "initDialog": 615870201,
      "npcId": [
        1587
      ],
      "performCfg": "",
      "assetIndex": 17625703561716716563,
      "prePerformCfg": ""
    },
    {
      "id": 6158703,
      "beginWay": "TALK_BEGIN_MANUAL",
      "priority": 1,
      "nextTalks": [
        41739,
        7092901
      ],
      "initDialog": 615870301,
      "npcId": [
        1587
      ],
      "performCfg": "",
      "assetIndex": 9724685230818968485,
      "prePerformCfg": ""
    },
    {
      "id": 6158704,
      "beginWay": "TALK_BEGIN_MANUAL",
      "activeMode": "PLAY_MODE_HOST",
      "priority": 1,
      "initDialog": 615870401,
      "npcId": [
        1587
      ],
      "performCfg": "",
      "assetIndex": 3691111794309138191,
      "prePerformCfg": ""
    },
    {
      "id": 6158705,
      "beginWay": "TALK_BEGIN_MANUAL",
      "beginCond": [
        {
          "type": "QUEST_COND_OPEN_STATE_EQUAL",
          "_param": [
            "30",
            "1"
          ]
        }
      ],
      "priority": 1,
      "initDialog": 615870501,
      "npcId": [
        1587
      ],
      "performCfg": "",
      "assetIndex": 8873506903167857298,
      "prePerformCfg": ""
    },
    {
      "id": 6158706,
      "beginWay": "TALK_BEGIN_MANUAL",
      "beginCond": [
        {
          "type": "QUEST_COND_OPEN_STATE_EQUAL",
          "_param": [
            "30",
            "1"
          ]
        }
      ],
      "priority": 1,
      "initDialog": 615870601,
      "npcId": [
        1587
      ],
      "performCfg": "",
      "assetIndex": 2010730491738986288,
      "prePerformCfg": ""
    }
  ]
}