{
  "npcId": 1610,
  "talks": [
    {
      "id": 6161001,
      "beginWay": "TALK_BEGIN_MANUAL",
      "priority": 3,
      "initDialog": 616090101,
      "npcId": [
        1610
      ],
      "performCfg": "",
      "assetIndex": 3683471983019480102,
      "prePerformCfg": ""
    }
  ]
}