{
  "npcId": 1628,
  "talks": [
    {
      "id": 6162804,
      "beginWay": "TALK_BEGIN_MANUAL",
      "beginCond": [
        {
          "type": "QUEST_COND_QUEST_GLOBAL_VAR_GREATER",
          "_param": [
            "71037",
            "3"
          ]
        }
      ],
      "priority": 3,
      "nextTalks": [
        8162801,
        6162805,
        6162806
      ],
      "initDialog": 616280401,
      "npcId": [
        1628
      ],
      "performCfg": "",
      "assetIndex": 284546398265523160,
      "prePerformCfg": ""
    },
    {
      "id": 6162805,
      "beginCond": [
        {
          "type": "QUEST_COND_QUEST_GLOBAL_VAR_GREATER",
          "_param": [
            "71037",
            "3"
          ]
        }
      ],
      "priority": 1,
      "nextTalks": [
        6162807
      ],
      "initDialog": 616280501,
      "npcId": [
        1628
      ],
      "performCfg": "",
      "assetIndex": 8551452728427332298,
      "prePerformCfg": ""
    },
    {
      "id": 6162806,
      "beginCond": [
        {
          "type": "QUEST_COND_QUEST_GLOBAL_VAR_GREATER",
          "_param": [
            "71037",
            "3"
          ]
        }
      ],
      "priority": 1,
      "initDialog": 616280601,
      "npcId": [
        1628
      ],
      "performCfg": "",
      "assetIndex": 10730228263522287424,
      "prePerformCfg": ""
    },
    {
      "id": 6162807,
      "beginCond": [
        {
          "type": "QUEST_COND_QUEST_GLOBAL_VAR_GREATER",
          "_param": [
            "71037",
            "3"
          ]
        }
      ],
      "priority": 1,
      "initDialog": 616280701,
      "npcId": [
        1628
      ],
      "performCfg": "",
      "assetIndex": 14704631231880682343,
      "prePerformCfg": ""
    },
    {
      "id": 6162801,
      "beginWay": "TALK_BEGIN_MANUAL",
      "beginCond": [
        {
          "type": "QUEST_COND_QUEST_GLOBAL_VAR_LESS",
          "_param": [
            "71037",
            "4"
          ]
        }
      ],
      "priority": 3,
      "nextTalks": [
        8162801,
        6162802,
        6162803
      ],
      "initDialog": 616280101,
      "npcId": [
        1628
      ],
      "performCfg": "",
      "assetIndex": 11266055744247306532,
      "prePerformCfg": "",
      "freeStyleList": [
        9000
      ]
    },
    {
      "id": 6162802,
      "beginWay": "TALK_BEGIN_MANUAL",
      "beginCond": [
        {
          "type": "QUEST_COND_QUEST_GLOBAL_VAR_LESS",
          "_param": [
            "71037",
            "4"
          ]
        }
      ],
      "priority": 1,
      "initDialog": 616280201,
      "npcId": [
        1628
      ],
      "performCfg": "",
      "assetIndex": 16671549268870259551,
      "prePerformCfg": ""
    },
    {
      "id": 6162803,
      "beginWay": "TALK_BEGIN_MANUAL",
      "beginCond": [
        {
          "type": "QUEST_COND_QUEST_GLOBAL_VAR_LESS",
          "_param": [
            "71037",
            "4"
          ]
        }
      ],
      "priority": 1,
      "initDialog": 616280301,
      "npcId": [
        1628
      ],
      "performCfg": "",
      "assetIndex": 13085486415164738262,
      "prePerformCfg": ""
    },
    {
      "id": 8162801,
      "beginWay": "TALK_BEGIN_MANUAL",
      "beginCond": [
        {
          "type": "QUEST_COND_OPEN_STATE_EQUAL",
          "_param": [
            "1405",
            "1"
          ]
        }
      ],
      "priority": 2,
      "nextTalks": [
        8162802,
        8162803,
        8162804,
        8162805,
        8162806,
        8162807,
        8162808,
        8162809,
        8162810,
        8162811,
        8162812
      ],
      "initDialog": 816280101,
      "npcId": [
        1628
      ],
      "performCfg": "",
      "assetIndex": 10353252205899743632,
      "prePerformCfg": ""
    },
    {
      "id": 8162802,
      "beginWay": "TALK_BEGIN_MANUAL",
      "beginCond": [
        {
          "type": "QUEST_COND_NOT_HAVE_BLOSSOM_TALK"
        }
      ],
      "priority": 1,
      "initDialog": 816280201,
      "npcId": [
        1628
      ],
      "performCfg": "",
      "assetIndex": 17565076291094537304,
      "prePerformCfg": ""
    }
  ]
}