{
  "npcId": 1650,
  "talks": [
    {
      "id": 6165005,
      "beginCond": [
        {
          "type": "QUEST_COND_QUEST_GLOBAL_VAR_EQUAL",
          "_param": [
            "4012601",
            "1"
          ]
        }
      ],
      "priority": 1,
      "initDialog": 616500501,
      "npcId": [
        1650
      ],
      "performCfg": "",
      "assetIndex": 12435047157775570702,
      "prePerformCfg": ""
    },
    {
      "id": 6165006,
      "beginCond": [
        {
          "type": "QUEST_COND_QUEST_GLOBAL_VAR_EQUAL",
          "_param": [
            "4012601",
            "1"
          ]
        }
      ],
      "priority": 1,
      "initDialog": 616500601,
      "npcId": [
        1650
      ],
      "performCfg": "",
      "assetIndex": 10570089713970166572,
      "prePerformCfg": ""
    },
    {
      "id": 6165007,
      "beginCond": [
        {
          "type": "QUEST_COND_QUEST_GLOBAL_VAR_EQUAL",
          "_param": [
            "4012601",
            "1"
          ]
        }
      ],
      "priority": 1,
      "initDialog": 616500701,
      "npcId": [
        1650
      ],
      "performCfg": "",
      "assetIndex": 14872913490687935902,
      "prePerformCfg": ""
    },
    {
      "id": 6165001,
      "beginWay": "TALK_BEGIN_MANUAL",
      "priority": 3,
      "nextTalks": [
        6165002,
        6165003,
        6165004,
        6165005,
        6165006,
        6165007
      ],
      "initDialog": 616500101,
      "npcId": [
        1650
      ],
      "performCfg": "",
      "assetIndex": 2958378483065385226,
      "prePerformCfg": "",
      "freeStyleList": [
        9000
      ]
    },
    {
      "id": 6165002,
      "beginWay": "TALK_BEGIN_MANUAL",
      "beginCond": [
        {
          "type": "QUEST_COND_QUEST_GLOBAL_VAR_EQUAL",
          "_param": [
            "4012601",
            "0"
          ]
        }
      ],
      "priority": 1,
      "initDialog": 616500201,
      "npcId": [
        1650
      ],
      "performCfg": "",
      "assetIndex": 16032215186895591887,
      "prePerformCfg": ""
    },
    {
      "id": 6165003,
      "beginWay": "TALK_BEGIN_MANUAL",
      "beginCond": [
        {
          "type": "QUEST_COND_QUEST_GLOBAL_VAR_EQUAL",
          "_param": [
            "4012601",
            "0"
          ]
        }
      ],
      "priority": 1,
      "initDialog": 616500301,
      "npcId": [
        1650
      ],
      "performCfg": "",
      "assetIndex": 5379246060917955176,
      "prePerformCfg": ""
    },
    {
      "id": 6165004,
      "beginWay": "TALK_BEGIN_MANUAL",
      "beginCond": [
        {
          "type": "QUEST_COND_QUEST_GLOBAL_VAR_EQUAL",
          "_param": [
            "4012601",
            "0"
          ]
        }
      ],
      "priority": 1,
      "initDialog": 616500401,
      "npcId": [
        1650
      ],
      "performCfg": "",
      "assetIndex": 17163770714553538350,
      "prePerformCfg": ""
    }
  ]
}