{
  "npcId": 1665,
  "talks": [
    {
      "id": 6166506,
      "beginWay": "TALK_BEGIN_MANUAL",
      "activeMode": "PLAY_MODE_HOST",
      "beginCond": [
        {
          "type": "QUEST_COND_GCG_LEVEL_UNLOCKED",
          "_param": [
            "6166506"
          ]
        }
      ],
      "priority": 1,
      "initDialog": 616650601,
      "npcId": [
        1665
      ],
      "performCfg": "",
      "assetIndex": 10058819805507758470,
      "prePerformCfg": ""
    },
    {
      "id": 6166507,
      "beginWay": "TALK_BEGIN_AUTO",
      "activeMode": "PLAY_MODE_HOST",
      "beginCond": [
        {
          "type": "QUEST_COND_GCG_WORLD_CHALLENGE_RESULT",
          "_param": [
            "-1",
            "1665",
            "6166506"
          ]
        }
      ],
      "priority": 10,
      "initDialog": 616650701,
      "npcId": [
        1665
      ],
      "performCfg": "",
      "assetIndex": 9227322967510588887,
      "prePerformCfg": ""
    },
    {
      "id": 6166508,
      "beginWay": "TALK_BEGIN_AUTO",
      "activeMode": "PLAY_MODE_HOST",
      "beginCond": [
        {
          "type": "QUEST_COND_GCG_WORLD_CHALLENGE_RESULT",
          "_param": [
            "1",
            "1665",
            "6166506"
          ]
        }
      ],
      "priority": 10,
      "initDialog": 616650801,
      "npcId": [
        1665
      ],
      "performCfg": "",
      "assetIndex": 1081174237293327224,
      "prePerformCfg": ""
    },
    {
      "id": 7010701,
      "beginWay": "TALK_BEGIN_MANUAL",
      "beginCondComb": "LOGIC_A_AND_ETCOR",
      "beginCond": [
        {
          "type": "QUEST_COND_PLAYER_LEVEL_EQUAL_GREATER",
          "_param": [
            "28"
          ]
        },
        {
          "type": "QUEST_COND_STATE_EQUAL",
          "_param": [
            "7010701",
            "2"
          ]
        },
        {
          "type": "QUEST_COND_QUEST_SERVER_COND_VALID",
          "_param": [
            "7010701"
          ]
        }
      ],
      "priority": 9,
      "nextTalks": [
        7014101,
        7014102,
        7014103,
        7014104,
        7014105,
        7014109,
        7014110,
        7014111,
        7014112,
        7014113,
        7010201,
        6166502,
        6166503,
        6166505
      ],
      "initDialog": 701070101,
      "npcId": [
        1665
      ],
      "performCfg": "",
      "assetIndex": 8312779093621197557,
      "prePerformCfg": "",
      "talkMarkType": "TALK_MARK_COMMON"
    },
    {
      "id": 7010702,
      "beginWay": "TALK_BEGIN_MANUAL",
      "beginCondComb": "LOGIC_OR",
      "beginCond": [
        {
          "type": "QUEST_COND_STATE_EQUAL",
          "_param": [
            "7010701",
            "2"
          ]
        },
        {
          "type": "QUEST_COND_QUEST_SERVER_COND_VALID",
          "_param": [
            "7010701"
          ]
        }
      ],
      "priority": 8,
      "nextTalks": [
        7014101,
        7014102,
        7014103,
        7014104,
        7014105,
        7014109,
        7014110,
        7014111,
        7014112,
        7014113,
        7010201,
        6166502,
        6166503,
        6166505
      ],
      "initDialog": 701070101,
      "npcId": [
        1665
      ],
      "performCfg": "",
      "assetIndex": 6236885856442279673,
      "prePerformCfg": ""
    },
    {
      "id": 7093801,
      "beginWay": "TALK_BEGIN_MANUAL",
      "beginCondComb": "LOGIC_OR",
      "beginCond": [
        {
          "type": "QUEST_COND_QUEST_NOT_RECEIVE",
          "_param": [
            "7093801",
            "1"
          ]
        }
      ],
      "priority": 1,
      "initDialog": 709380101,
      "npcId": [
        1665
      ],
      "performCfg": "",
      "assetIndex": 17773987452740253584,
      "dontBlockDaily": true,
      "prePerformCfg": ""
    },
    {
      "id": 6166501,
      "beginWay": "TALK_BEGIN_MANUAL",
      "activeMode": "PLAY_MODE_HOST",
      "priority": 3,
      "nextTalks": [
        7001001,
        7001002,
        7001007,
        7001008,
        7014101,
        7014102,
        7014103,
        7014104,
        7014105,
        7014109,
        7014110,
        7014111,
        7014112,
        7014113,
        7014114,
        7014301,
        7014401,
        7014402,
        7014403,
        7010201,
        6166506,
        6166502,
        6166503,
        6166505
      ],
      "initDialog": 616650101,
      "npcId": [
        1665
      ],
      "performCfg": "",
      "assetIndex": 14444762094842681740,
      "prePerformCfg": "",
      "freeStyleList": [
        9000
      ]
    },
    {
      "id": 6166502,
      "beginWay": "TALK_BEGIN_MANUAL",
      "activeMode": "PLAY_MODE_ALL",
      "priority": 1,
      "nextTalks": [
        7093801
      ],
      "initDialog": 616650201,
      "npcId": [
        1665
      ],
      "performCfg": "",
      "assetIndex": 13246688139953452498,
      "prePerformCfg": ""
    },
    {
      "id": 6166503,
      "beginWay": "TALK_BEGIN_MANUAL",
      "activeMode": "PLAY_MODE_ALL",
      "priority": 1,
      "nextTalks": [
        6166504
      ],
      "initDialog": 616650301,
      "npcId": [
        1665
      ],
      "performCfg": "",
      "assetIndex": 6854690768063657757,
      "prePerformCfg": ""
    },
    {
      "id": 6166504,
      "beginWay": "TALK_BEGIN_MANUAL",
      "activeMode": "PLAY_MODE_ALL",
      "priority": 1,
      "initDialog": 616650401,
      "npcId": [
        1665
      ],
      "performCfg": "",
      "assetIndex": 13171193672711411307,
      "prePerformCfg": ""
    },
    {
      "id": 6166505,
      "beginWay": "TALK_BEGIN_MANUAL",
      "activeMode": "PLAY_MODE_HOST",
      "priority": 1,
      "initDialog": 616650501,
      "npcId": [
        1665
      ],
      "performCfg": "",
      "assetIndex": 13181008374104569446,
      "prePerformCfg": ""
    }
  ]
}