{
  "npcId": 1700,
  "talks": [
    {
      "id": 6170001,
      "beginWay": "TALK_BEGIN_MANUAL",
      "beginCond": [
        {
          "type": "QUEST_COND_QUEST_GLOBAL_VAR_EQUAL",
          "_param": [
            "2001401",
            "1"
          ]
        }
      ],
      "priority": 4,
      "nextTalks": [
        6170002,
        6170003,
        6170004
      ],
      "initDialog": 617000101,
      "npcId": [
        1700
      ],
      "performCfg": "",
      "assetIndex": 13225390292230590232,
      "prePerformCfg": ""
    },
    {
      "id": 6170002,
      "beginWay": "TALK_BEGIN_MANUAL",
      "beginCond": [
        {
          "type": "QUEST_COND_QUEST_GLOBAL_VAR_EQUAL",
          "_param": [
            "2001401",
            "1"
          ]
        }
      ],
      "priority": 1,
      "initDialog": 617000201,
      "npcId": [
        1700
      ],
      "performCfg": "",
      "assetIndex": 4463234545832889600,
      "prePerformCfg": ""
    },
    {
      "id": 6170003,
      "beginWay": "TALK_BEGIN_MANUAL",
      "beginCond": [
        {
          "type": "QUEST_COND_QUEST_GLOBAL_VAR_EQUAL",
          "_param": [
            "2001401",
            "1"
          ]
        }
      ],
      "priority": 1,
      "initDialog": 617000301,
      "npcId": [
        1700
      ],
      "performCfg": "",
      "assetIndex": 16470396221142184597,
      "prePerformCfg": ""
    },
    {
      "id": 6170004,
      "beginWay": "TALK_BEGIN_MANUAL",
      "beginCond": [
        {
          "type": "QUEST_COND_QUEST_GLOBAL_VAR_EQUAL",
          "_param": [
            "2001401",
            "1"
          ]
        }
      ],
      "priority": 1,
      "initDialog": 617000401,
      "npcId": [
        1700
      ],
      "performCfg": "",
      "assetIndex": 11542695859968209009,
      "prePerformCfg": ""
    }
  ]
}