{
  "npcId": 2001,
  "talks": [
    {
      "id": 6200101,
      "beginWay": "TALK_BEGIN_MANUAL",
      "beginCond": [
        {
          "type": "QUEST_COND_IS_DAYTIME",
          "_param": [
            "1"
          ]
        }
      ],
      "priority": 3,
      "initDialog": 620150101,
      "npcId": [
        2001
      ],
      "performCfg": "",
      "assetIndex": 5317328217723677194,
      "prePerformCfg": ""
    },
    {
      "id": 7200101,
      "beginWay": "TALK_BEGIN_MANUAL",
      "beginCond": [
        {
          "type": "QUEST_COND_ACTIVITY_OPEN",
          "_param": [
            "1001"
          ]
        }
      ],
      "priority": 4,
      "initDialog": 720150101,
      "npcId": [
        2001
      ],
      "performCfg": "",
      "assetIndex": 3661315530756584248,
      "prePerformCfg": ""
    }
  ]
}