{
  "npcId": 20039,
  "talks": [
    {
      "id": 7100201,
      "beginWay": "TALK_BEGIN_MANUAL",
      "activeMode": "PLAY_MODE_ALL",
      "priority": 5,
      "initDialog": 710020101,
      "npcId": [
        20039
      ],
      "performCfg": "",
      "assetIndex": 12259192077567419087,
      "prePerformCfg": ""
    }
  ]
}