{
  "npcId": 2003025,
  "talks": [
    {
      "id": 1102325,
      "beginWay": "TALK_BEGIN_MANUAL",
      "initDialog": 110232501,
      "npcId": [
        2003025
      ],
      "performCfg": "",
      "assetIndex": 17273390430379602267,
      "prePerformCfg": ""
    }
  ]
}