{
  "npcId": 2003021,
  "talks": [
    {
      "id": 1102321,
      "beginWay": "TALK_BEGIN_MANUAL",
      "initDialog": 110232101,
      "npcId": [
        2003021
      ],
      "performCfg": "",
      "assetIndex": 2379250753678061182,
      "prePerformCfg": ""
    }
  ]
}