{
  "npcId": 2003038,
  "talks": [
    {
      "id": 1104508,
      "beginWay": "TALK_BEGIN_MANUAL",
      "priority": 1,
      "initDialog": 110450801,
      "npcId": [
        2003038
      ],
      "performCfg": "",
      "assetIndex": 4948755599611517241,
      "prePerformCfg": ""
    }
  ]
}