{
  "npcId": 2003026,
  "talks": [
    {
      "id": 1102326,
      "beginWay": "TALK_BEGIN_MANUAL",
      "initDialog": 110232601,
      "npcId": [
        2003026
      ],
      "performCfg": "",
      "assetIndex": 15833770351898276928,
      "prePerformCfg": ""
    }
  ]
}