{
  "npcId": 2003029,
  "talks": [
    {
      "id": 1102329,
      "beginWay": "TALK_BEGIN_MANUAL",
      "initDialog": 110232901,
      "npcId": [
        2003029
      ],
      "performCfg": "",
      "assetIndex": 5081080469218297633,
      "prePerformCfg": ""
    }
  ]
}