{
  "npcId": 2003042,
  "talks": [
    {
      "id": 1104512,
      "beginWay": "TALK_BEGIN_MANUAL",
      "beginCond": [
        {
          "type": "QUEST_COND_QUEST_NOT_RECEIVE",
          "_param": [
            "1104205",
            "1"
          ]
        }
      ],
      "priority": 1,
      "initDialog": 110451201,
      "npcId": [
        2003042
      ],
      "performCfg": "",
      "assetIndex": 3183573731925110119,
      "prePerformCfg": ""
    }
  ]
}