{
  "npcId": 20040,
  "talks": [
    {
      "id": 7100202,
      "beginWay": "TALK_BEGIN_MANUAL",
      "activeMode": "PLAY_MODE_ALL",
      "priority": 5,
      "initDialog": 710020201,
      "npcId": [
        20040
      ],
      "performCfg": "",
      "assetIndex": 9197534230968503322,
      "prePerformCfg": ""
    }
  ]
}