{
  "npcId": 20059,
  "talks": [
    {
      "id": 34720,
      "beginWay": "TALK_BEGIN_MANUAL",
      "priority": 3,
      "initDialog": 3472001,
      "npcId": [
        20059
      ],
      "performCfg": "",
      "assetIndex": 16501239588405997948,
      "prePerformCfg": ""
    }
  ]
}