{
  "npcId": 2006,
  "talks": [
    {
      "id": 6200601,
      "beginWay": "TALK_BEGIN_MANUAL",
      "priority": 3,
      "nextTalks": [
        7166608,
        6200602,
        6200603,
        6200604
      ],
      "initDialog": 620060101,
      "npcId": [
        2006
      ],
      "performCfg": "",
      "assetIndex": 6211270920059643005,
      "prePerformCfg": "",
      "freeStyleList": [
        9000
      ]
    },
    {
      "id": 6200602,
      "beginWay": "TALK_BEGIN_MANUAL",
      "priority": 1,
      "initDialog": 620060201,
      "npcId": [
        2006
      ],
      "performCfg": "",
      "assetIndex": 17579834165558123011,
      "prePerformCfg": ""
    },
    {
      "id": 6200603,
      "beginWay": "TALK_BEGIN_MANUAL",
      "priority": 1,
      "initDialog": 620060301,
      "npcId": [
        2006
      ],
      "performCfg": "",
      "assetIndex": 11704475630911337391,
      "prePerformCfg": ""
    },
    {
      "id": 6200604,
      "beginWay": "TALK_BEGIN_MANUAL",
      "priority": 1,
      "initDialog": 620060401,
      "npcId": [
        2006
      ],
      "performCfg": "",
      "assetIndex": 6781620594228508112,
      "prePerformCfg": ""
    },
    {
      "id": 7200601,
      "beginWay": "TALK_BEGIN_MANUAL",
      "beginCond": [
        {
          "type": "QUEST_COND_ACTIVITY_OPEN",
          "_param": [
            "1001"
          ]
        }
      ],
      "priority": 4,
      "initDialog": 720060101,
      "npcId": [
        2006
      ],
      "performCfg": "",
      "assetIndex": 16517496722996521256,
      "prePerformCfg": "",
      "freeStyleList": [
        9000
      ]
    }
  ]
}