{
  "npcId": 20084,
  "talks": [
    {
      "id": 7155503,
      "beginWay": "TALK_BEGIN_MANUAL",
      "activeMode": "PLAY_MODE_ALL",
      "beginCondComb": "LOGIC_AND",
      "beginCond": [
        {
          "type": "QUEST_COND_STATE_EQUAL",
          "_param": [
            "7155513",
            "3"
          ]
        },
        {
          "type": "QUEST_COND_STATE_EQUAL",
          "_param": [
            "7155508",
            "2"
          ]
        }
      ],
      "priority": 5,
      "initDialog": 715550301,
      "npcId": [
        20084
      ],
      "performCfg": "",
      "assetIndex": 8575470869459292021,
      "prePerformCfg": ""
    }
  ]
}