{
  "npcId": 2008,
  "talks": [
    {
      "id": 6200801,
      "beginWay": "TALK_BEGIN_MANUAL",
      "beginCond": [
        {
          "type": "QUEST_COND_IS_DAYTIME",
          "_param": [
            "1"
          ]
        }
      ],
      "priority": 3,
      "initDialog": 620080101,
      "npcId": [
        2008
      ],
      "performCfg": "",
      "assetIndex": 2054132696832846727,
      "prePerformCfg": ""
    },
    {
      "id": 6200802,
      "beginWay": "TALK_BEGIN_MANUAL",
      "beginCond": [
        {
          "type": "QUEST_COND_IS_DAYTIME",
          "_param": [
            "0"
          ]
        }
      ],
      "priority": 3,
      "nextTalks": [
        6200803,
        6200804
      ],
      "initDialog": 620080201,
      "npcId": [
        2008
      ],
      "performCfg": "",
      "assetIndex": 11500814817477237842,
      "prePerformCfg": ""
    },
    {
      "id": 6200803,
      "beginWay": "TALK_BEGIN_MANUAL",
      "beginCond": [
        {
          "type": "QUEST_COND_IS_DAYTIME",
          "_param": [
            "0"
          ]
        }
      ],
      "priority": 1,
      "initDialog": 620080301,
      "npcId": [
        2008
      ],
      "performCfg": "",
      "assetIndex": 16838348418927362994,
      "prePerformCfg": "",
      "freeStyleList": [
        9000
      ]
    },
    {
      "id": 6200804,
      "beginWay": "TALK_BEGIN_MANUAL",
      "beginCond": [
        {
          "type": "QUEST_COND_IS_DAYTIME",
          "_param": [
            "0"
          ]
        }
      ],
      "priority": 1,
      "initDialog": 620080401,
      "npcId": [
        2008
      ],
      "performCfg": "",
      "assetIndex": 2196249410290429618,
      "prePerformCfg": ""
    },
    {
      "id": 7200801,
      "beginWay": "TALK_BEGIN_MANUAL",
      "beginCond": [
        {
          "type": "QUEST_COND_ACTIVITY_OPEN",
          "_param": [
            "1001"
          ]
        }
      ],
      "priority": 4,
      "initDialog": 720080101,
      "npcId": [
        2008
      ],
      "performCfg": "",
      "assetIndex": 6755705268448340838,
      "prePerformCfg": "",
      "freeStyleList": [
        9000
      ]
    }
  ]
}