{
  "npcId": 2011,
  "talks": [
    {
      "id": 4003737,
      "beginWay": "TALK_BEGIN_MANUAL",
      "beginCondComb": "LOGIC_AND",
      "beginCond": [
        {
          "type": "QUEST_COND_ACTIVITY_CLIENT_COND",
          "_param": [
            "2010",
            "2010004",
            "1"
          ]
        },
        {
          "type": "QUEST_COND_IS_DAYTIME",
          "_param": [
            "0"
          ]
        }
      ],
      "priority": 5,
      "nextTalks": [
        6201106,
        6201107,
        6201108
      ],
      "initDialog": 400373701,
      "npcId": [
        2011
      ],
      "performCfg": "",
      "assetIndex": 4665728018028366497,
      "prePerformCfg": ""
    },
    {
      "id": 6201110,
      "beginCond": [
        {
          "type": "QUEST_COND_STATE_EQUAL",
          "_param": [
            "7109911",
            "3"
          ]
        }
      ],
      "priority": 1,
      "nextTalks": [
        6201111,
        6201112
      ],
      "initDialog": 620111001,
      "npcId": [
        2011
      ],
      "performCfg": "",
      "assetIndex": 2493399388669491002,
      "prePerformCfg": ""
    },
    {
      "id": 6201111,
      "beginCond": [
        {
          "type": "QUEST_COND_STATE_EQUAL",
          "_param": [
            "7109911",
            "3"
          ]
        }
      ],
      "priority": 1,
      "nextTalks": [
        6201113
      ],
      "initDialog": 620111101,
      "npcId": [
        2011
      ],
      "performCfg": "",
      "assetIndex": 15078675964003455866,
      "prePerformCfg": ""
    },
    {
      "id": 6201112,
      "beginCond": [
        {
          "type": "QUEST_COND_STATE_EQUAL",
          "_param": [
            "7109911",
            "3"
          ]
        }
      ],
      "priority": 1,
      "nextTalks": [
        6201113
      ],
      "initDialog": 620111201,
      "npcId": [
        2011
      ],
      "performCfg": "",
      "assetIndex": 9445495037986722088,
      "prePerformCfg": ""
    },
    {
      "id": 6201113,
      "beginCond": [
        {
          "type": "QUEST_COND_STATE_EQUAL",
          "_param": [
            "7109911",
            "3"
          ]
        }
      ],
      "priority": 1,
      "initDialog": 620111301,
      "npcId": [
        2011
      ],
      "performCfg": "",
      "assetIndex": 4897670323098384694,
      "prePerformCfg": ""
    },
    {
      "id": 6201101,
      "beginWay": "TALK_BEGIN_MANUAL",
      "beginCond": [
        {
          "type": "QUEST_COND_IS_DAYTIME",
          "_param": [
            "1"
          ]
        }
      ],
      "priority": 3,
      "nextTalks": [
        6201109,
        6201103,
        6201102,
        6201104
      ],
      "initDialog": 620110101,
      "npcId": [
        2011
      ],
      "performCfg": "",
      "assetIndex": 2408904066835668651,
      "prePerformCfg": "",
      "freeStyleList": [
        9000
      ]
    },
    {
      "id": 6201102,
      "beginWay": "TALK_BEGIN_MANUAL",
      "beginCond": [
        {
          "type": "QUEST_COND_IS_DAYTIME",
          "_param": [
            "1"
          ]
        }
      ],
      "priority": 1,
      "initDialog": 620110201,
      "npcId": [
        2011
      ],
      "performCfg": "",
      "assetIndex": 13078798612223115384,
      "prePerformCfg": ""
    },
    {
      "id": 6201103,
      "beginWay": "TALK_BEGIN_MANUAL",
      "beginCondComb": "LOGIC_AND",
      "beginCond": [
        {
          "type": "QUEST_COND_IS_DAYTIME",
          "_param": [
            "1"
          ]
        },
        {
          "type": "QUEST_COND_STATE_EQUAL",
          "_param": [
            "100008",
            "3"
          ]
        },
        {
          "type": "QUEST_COND_QUEST_GLOBAL_VAR_EQUAL",
          "_param": [
            "10007",
            "0"
          ]
        }
      ],
      "priority": 1,
      "initDialog": 620110301,
      "npcId": [
        2011
      ],
      "performCfg": "",
      "assetIndex": 12383433272566098040,
      "prePerformCfg": ""
    },
    {
      "id": 6201104,
      "beginWay": "TALK_BEGIN_MANUAL",
      "beginCond": [
        {
          "type": "QUEST_COND_IS_DAYTIME",
          "_param": [
            "1"
          ]
        }
      ],
      "priority": 1,
      "initDialog": 620110401,
      "npcId": [
        2011
      ],
      "performCfg": "",
      "assetIndex": 16947812414603964968,
      "prePerformCfg": ""
    },
    {
      "id": 6201105,
      "beginWay": "TALK_BEGIN_MANUAL",
      "beginCond": [
        {
          "type": "QUEST_COND_IS_DAYTIME",
          "_param": [
            "0"
          ]
        }
      ],
      "priority": 3,
      "nextTalks": [
        6201106,
        6201107,
        6201110,
        6201108
      ],
      "initDialog": 620110501,
      "npcId": [
        2011
      ],
      "performCfg": "",
      "assetIndex": 11476911738954241384,
      "prePerformCfg": "",
      "freeStyleList": [
        9000
      ]
    },
    {
      "id": 6201106,
      "beginWay": "TALK_BEGIN_MANUAL",
      "beginCond": [
        {
          "type": "QUEST_COND_IS_DAYTIME",
          "_param": [
            "0"
          ]
        }
      ],
      "priority": 1,
      "initDialog": 620110601,
      "npcId": [
        2011
      ],
      "performCfg": "",
      "assetIndex": 10504459831337193359,
      "prePerformCfg": ""
    },
    {
      "id": 6201107,
      "beginWay": "TALK_BEGIN_MANUAL",
      "beginCond": [
        {
          "type": "QUEST_COND_IS_DAYTIME",
          "_param": [
            "0"
          ]
        }
      ],
      "priority": 1,
      "initDialog": 620110701,
      "npcId": [
        2011
      ],
      "performCfg": "",
      "assetIndex": 5987285326256297637,
      "prePerformCfg": ""
    },
    {
      "id": 6201108,
      "beginWay": "TALK_BEGIN_MANUAL",
      "beginCond": [
        {
          "type": "QUEST_COND_IS_DAYTIME",
          "_param": [
            "0"
          ]
        }
      ],
      "priority": 1,
      "initDialog": 620110801,
      "npcId": [
        2011
      ],
      "performCfg": "",
      "assetIndex": 7914526623188886616,
      "prePerformCfg": ""
    },
    {
      "id": 6201109,
      "beginWay": "TALK_BEGIN_MANUAL",
      "beginCond": [
        {
          "type": "QUEST_COND_IS_DAYTIME",
          "_param": [
            "1"
          ]
        },
        {
          "type": "QUEST_COND_QUEST_GLOBAL_VAR_EQUAL",
          "_param": [
            "10007",
            "1"
          ]
        }
      ],
      "priority": 1,
      "initDialog": 620110901,
      "npcId": [
        2011
      ],
      "performCfg": "",
      "assetIndex": 14498794858269070063,
      "prePerformCfg": ""
    },
    {
      "id": 7201101,
      "beginWay": "TALK_BEGIN_MANUAL",
      "beginCond": [
        {
          "type": "QUEST_COND_ACTIVITY_OPEN",
          "_param": [
            "1001"
          ]
        }
      ],
      "priority": 4,
      "initDialog": 720110101,
      "npcId": [
        2011
      ],
      "performCfg": "",
      "assetIndex": 10303007160896953011,
      "prePerformCfg": "",
      "freeStyleList": [
        9000
      ]
    }
  ]
}