{
  "npcId": 20114,
  "talks": [
    {
      "id": 7101101,
      "beginWay": "TALK_BEGIN_MANUAL",
      "priority": 9,
      "initDialog": 710110101,
      "npcId": [
        20114
      ],
      "performCfg": "",
      "assetIndex": 13030149344664888969,
      "dontBlockDaily": true,
      "prePerformCfg": ""
    }
  ]
}