{
  "npcId": 20124,
  "talks": [
    {
      "id": 34746,
      "beginWay": "TALK_BEGIN_MANUAL",
      "priority": 3,
      "initDialog": 3474601,
      "npcId": [
        20124
      ],
      "performCfg": "",
      "assetIndex": 10409840964171297778,
      "prePerformCfg": ""
    }
  ]
}