{
  "npcId": 20139,
  "talks": [
    {
      "id": 2100606,
      "beginWay": "TALK_BEGIN_MANUAL",
      "activeMode": "PLAY_MODE_ALL",
      "priority": 3,
      "initDialog": 210060601,
      "npcId": [
        20139
      ],
      "performCfg": "",
      "assetIndex": 17950699006130394066,
      "prePerformCfg": ""
    }
  ]
}