{
  "npcId": 20145,
  "talks": [
    {
      "id": 34756,
      "beginWay": "TALK_BEGIN_MANUAL",
      "priority": 3,
      "initDialog": 3475601,
      "npcId": [
        20145
      ],
      "performCfg": "",
      "assetIndex": 3679138302168997459,
      "prePerformCfg": ""
    }
  ]
}