{
  "npcId": 20164,
  "talks": [
    {
      "id": 420107,
      "beginWay": "TALK_BEGIN_MANUAL",
      "priority": 1,
      "initDialog": 42010701,
      "npcId": [
        20164
      ],
      "performCfg": "",
      "assetIndex": 14222791957062179491,
      "prePerformCfg": ""
    }
  ]
}