{
  "npcId": 20167,
  "talks": [
    {
      "id": 420110,
      "beginWay": "TALK_BEGIN_MANUAL",
      "priority": 1,
      "initDialog": 42011001,
      "npcId": [
        20167
      ],
      "performCfg": "",
      "assetIndex": 17478603075373011206,
      "prePerformCfg": ""
    }
  ]
}