{
  "npcId": 20199,
  "talks": [
    {
      "id": 7010303,
      "beginWay": "TALK_BEGIN_MANUAL",
      "activeMode": "PLAY_MODE_ALL",
      "initDialog": 701030301,
      "npcId": [
        20199
      ],
      "performCfg": "",
      "assetIndex": 483383825841081727,
      "prePerformCfg": "",
      "lockGameTime": true
    }
  ]
}