{
  "npcId": 20205,
  "talks": [
    {
      "id": 7010309,
      "beginWay": "TALK_BEGIN_MANUAL",
      "activeMode": "PLAY_MODE_ALL",
      "initDialog": 701030901,
      "npcId": [
        20205
      ],
      "performCfg": "",
      "assetIndex": 8191011971244801848,
      "prePerformCfg": "",
      "lockGameTime": true
    }
  ]
}