{
  "npcId": 2025,
  "talks": [
    {
      "id": 4003741,
      "beginWay": "TALK_BEGIN_MANUAL",
      "beginCond": [
        {
          "type": "QUEST_COND_ACTIVITY_CLIENT_COND",
          "_param": [
            "2010",
            "2010002",
            "1"
          ]
        }
      ],
      "priority": 5,
      "nextTalks": [
        7170001,
        6202502,
        6202503
      ],
      "initDialog": 400374101,
      "npcId": [
        2025
      ],
      "performCfg": "",
      "assetIndex": 11967381377845522354,
      "prePerformCfg": ""
    },
    {
      "id": 7180701,
      "beginWay": "TALK_BEGIN_MANUAL",
      "beginCond": [
        {
          "type": "QUEST_COND_QUEST_SERVER_COND_VALID",
          "_param": [
            "7180701"
          ]
        }
      ],
      "priority": 5,
      "initDialog": 718070101,
      "npcId": [
        2025
      ],
      "performCfg": "",
      "heroTalk": "TALK_HERO_MAIN",
      "assetIndex": 8306337792677881279,
      "prePerformCfg": "QuestDialogue/COOP/CoopBarbara/test3"
    },
    {
      "id": 6202501,
      "beginWay": "TALK_BEGIN_MANUAL",
      "priority": 3,
      "nextTalks": [
        7170001,
        6202502,
        6202503
      ],
      "initDialog": 620250101,
      "npcId": [
        2025
      ],
      "performCfg": "",
      "assetIndex": 603129118975895601,
      "prePerformCfg": "",
      "freeStyleList": [
        9000
      ]
    },
    {
      "id": 6202502,
      "beginWay": "TALK_BEGIN_MANUAL",
      "priority": 1,
      "initDialog": 620250201,
      "npcId": [
        2025
      ],
      "performCfg": "",
      "assetIndex": 6946476528100090108,
      "prePerformCfg": ""
    },
    {
      "id": 6202503,
      "beginWay": "TALK_BEGIN_MANUAL",
      "priority": 1,
      "initDialog": 620250301,
      "npcId": [
        2025
      ],
      "performCfg": "",
      "assetIndex": 16393380020461416004,
      "prePerformCfg": ""
    },
    {
      "id": 7202501,
      "beginWay": "TALK_BEGIN_MANUAL",
      "beginCond": [
        {
          "type": "QUEST_COND_ACTIVITY_OPEN",
          "_param": [
            "1001"
          ]
        }
      ],
      "priority": 4,
      "initDialog": 720250101,
      "npcId": [
        2025
      ],
      "performCfg": "",
      "assetIndex": 14044643326234501695,
      "prePerformCfg": "",
      "freeStyleList": [
        9000
      ]
    }
  ]
}