{
  "npcId": 2029,
  "talks": [
    {
      "id": 4003744,
      "beginWay": "TALK_BEGIN_MANUAL",
      "beginCondComb": "LOGIC_AND",
      "beginCond": [
        {
          "type": "QUEST_COND_ACTIVITY_CLIENT_COND",
          "_param": [
            "2010",
            "2010004",
            "1"
          ]
        },
        {
          "type": "QUEST_COND_IS_DAYTIME",
          "_param": [
            "1"
          ]
        },
        {
          "type": "QUEST_COND_QUEST_GLOBAL_VAR_EQUAL",
          "_param": [
            "20014",
            "0"
          ]
        }
      ],
      "priority": 5,
      "nextTalks": [
        6202907,
        6202902,
        6202903
      ],
      "initDialog": 400374401,
      "npcId": [
        2029
      ],
      "performCfg": "",
      "assetIndex": 541199945119245848,
      "prePerformCfg": ""
    },
    {
      "id": 4003751,
      "beginWay": "TALK_BEGIN_MANUAL",
      "beginCondComb": "LOGIC_AND",
      "beginCond": [
        {
          "type": "QUEST_COND_ACTIVITY_CLIENT_COND",
          "_param": [
            "2010",
            "2010004",
            "1"
          ]
        },
        {
          "type": "QUEST_COND_IS_DAYTIME",
          "_param": [
            "1"
          ]
        },
        {
          "type": "QUEST_COND_QUEST_GLOBAL_VAR_EQUAL",
          "_param": [
            "20014",
            "1"
          ]
        }
      ],
      "priority": 5,
      "nextTalks": [
        6202907,
        6202909,
        6202903
      ],
      "initDialog": 400374401,
      "npcId": [
        2029
      ],
      "performCfg": "",
      "assetIndex": 881880286001062926,
      "prePerformCfg": ""
    },
    {
      "id": 6202901,
      "beginWay": "TALK_BEGIN_MANUAL",
      "beginCond": [
        {
          "type": "QUEST_COND_IS_DAYTIME",
          "_param": [
            "1"
          ]
        }
      ],
      "priority": 3,
      "nextTalks": [
        6202907,
        6202902,
        6202903
      ],
      "initDialog": 620290101,
      "npcId": [
        2029
      ],
      "performCfg": "",
      "assetIndex": 5961814878216134513,
      "prePerformCfg": "",
      "freeStyleList": [
        9000
      ]
    },
    {
      "id": 6202902,
      "beginWay": "TALK_BEGIN_MANUAL",
      "beginCond": [
        {
          "type": "QUEST_COND_IS_DAYTIME",
          "_param": [
            "1"
          ]
        }
      ],
      "priority": 1,
      "initDialog": 620290201,
      "npcId": [
        2029
      ],
      "performCfg": "",
      "assetIndex": 14886550443648532681,
      "prePerformCfg": ""
    },
    {
      "id": 6202903,
      "beginWay": "TALK_BEGIN_MANUAL",
      "beginCond": [
        {
          "type": "QUEST_COND_IS_DAYTIME",
          "_param": [
            "1"
          ]
        }
      ],
      "priority": 1,
      "initDialog": 620290301,
      "npcId": [
        2029
      ],
      "performCfg": "",
      "assetIndex": 15590445639606069720,
      "prePerformCfg": ""
    },
    {
      "id": 6202904,
      "beginWay": "TALK_BEGIN_MANUAL",
      "beginCond": [
        {
          "type": "QUEST_COND_IS_DAYTIME",
          "_param": [
            "0"
          ]
        }
      ],
      "priority": 3,
      "nextTalks": [
        6202905,
        6202906
      ],
      "initDialog": 620290401,
      "npcId": [
        2029
      ],
      "performCfg": "",
      "assetIndex": 4577496409219893094,
      "prePerformCfg": "",
      "freeStyleList": [
        9000
      ]
    },
    {
      "id": 6202905,
      "beginWay": "TALK_BEGIN_MANUAL",
      "beginCond": [
        {
          "type": "QUEST_COND_IS_DAYTIME",
          "_param": [
            "0"
          ]
        }
      ],
      "priority": 1,
      "initDialog": 620290501,
      "npcId": [
        2029
      ],
      "performCfg": "",
      "assetIndex": 15468137102561489299,
      "prePerformCfg": ""
    },
    {
      "id": 6202906,
      "beginWay": "TALK_BEGIN_MANUAL",
      "beginCond": [
        {
          "type": "QUEST_COND_IS_DAYTIME",
          "_param": [
            "0"
          ]
        }
      ],
      "priority": 1,
      "initDialog": 620290601,
      "npcId": [
        2029
      ],
      "performCfg": "",
      "assetIndex": 14108437241951481331,
      "prePerformCfg": ""
    },
    {
      "id": 6202907,
      "beginWay": "TALK_BEGIN_MANUAL",
      "beginCondComb": "LOGIC_AND",
      "beginCond": [
        {
          "type": "QUEST_COND_IS_DAYTIME",
          "_param": [
            "1"
          ]
        },
        {
          "type": "QUEST_COND_QUEST_GLOBAL_VAR_EQUAL",
          "_param": [
            "10007",
            "1"
          ]
        }
      ],
      "priority": 1,
      "initDialog": 620290701,
      "npcId": [
        2029
      ],
      "performCfg": "",
      "assetIndex": 15256475851512117472,
      "prePerformCfg": ""
    },
    {
      "id": 6202908,
      "beginWay": "TALK_BEGIN_MANUAL",
      "beginCondComb": "LOGIC_AND",
      "beginCond": [
        {
          "type": "QUEST_COND_IS_DAYTIME",
          "_param": [
            "1"
          ]
        },
        {
          "type": "QUEST_COND_QUEST_GLOBAL_VAR_EQUAL",
          "_param": [
            "20014",
            "1"
          ]
        }
      ],
      "priority": 4,
      "nextTalks": [
        6202907,
        6202909,
        6202903
      ],
      "initDialog": 620290801,
      "npcId": [
        2029
      ],
      "performCfg": "",
      "assetIndex": 9007453582322583342,
      "prePerformCfg": ""
    },
    {
      "id": 6202909,
      "beginWay": "TALK_BEGIN_MANUAL",
      "beginCond": [
        {
          "type": "QUEST_COND_IS_DAYTIME",
          "_param": [
            "1"
          ]
        }
      ],
      "priority": 1,
      "nextTalks": [
        6202910,
        6202911,
        6202912
      ],
      "initDialog": 620290901,
      "npcId": [
        2029
      ],
      "performCfg": "",
      "assetIndex": 17934324733152470569,
      "prePerformCfg": ""
    },
    {
      "id": 6202910,
      "beginWay": "TALK_BEGIN_MANUAL",
      "beginCond": [
        {
          "type": "QUEST_COND_IS_DAYTIME",
          "_param": [
            "1"
          ]
        }
      ],
      "priority": 1,
      "initDialog": 620291001,
      "npcId": [
        2029
      ],
      "performCfg": "",
      "assetIndex": 13097192317590980582,
      "prePerformCfg": ""
    },
    {
      "id": 6202911,
      "beginWay": "TALK_BEGIN_MANUAL",
      "beginCond": [
        {
          "type": "QUEST_COND_IS_DAYTIME",
          "_param": [
            "1"
          ]
        }
      ],
      "priority": 1,
      "initDialog": 620290209,
      "npcId": [
        2029
      ],
      "performCfg": "",
      "assetIndex": 2900637056789826751,
      "prePerformCfg": ""
    },
    {
      "id": 6202912,
      "beginWay": "TALK_BEGIN_MANUAL",
      "beginCond": [
        {
          "type": "QUEST_COND_IS_DAYTIME",
          "_param": [
            "1"
          ]
        }
      ],
      "priority": 1,
      "initDialog": 620290214,
      "npcId": [
        2029
      ],
      "performCfg": "",
      "assetIndex": 207078177632277118,
      "prePerformCfg": ""
    },
    {
      "id": 7202901,
      "beginWay": "TALK_BEGIN_MANUAL",
      "beginCond": [
        {
          "type": "QUEST_COND_ACTIVITY_OPEN",
          "_param": [
            "1001"
          ]
        }
      ],
      "priority": 4,
      "nextTalks": [
        7202902,
        7202903,
        7202904,
        7202905
      ],
      "initDialog": 720290101,
      "npcId": [
        2029
      ],
      "performCfg": "",
      "assetIndex": 5329151062688545332,
      "prePerformCfg": "",
      "freeStyleList": [
        9000
      ]
    },
    {
      "id": 7202902,
      "beginWay": "TALK_BEGIN_MANUAL",
      "beginCond": [
        {
          "type": "QUEST_COND_STATE_EQUAL",
          "_param": [
            "4000111",
            "3"
          ]
        }
      ],
      "priority": 1,
      "initDialog": 720290201,
      "npcId": [
        2029
      ],
      "performCfg": "",
      "assetIndex": 12716321218578715345,
      "prePerformCfg": ""
    },
    {
      "id": 7202903,
      "beginWay": "TALK_BEGIN_MANUAL",
      "priority": 1,
      "initDialog": 720290301,
      "npcId": [
        2029
      ],
      "performCfg": "",
      "assetIndex": 12610343474580107589,
      "prePerformCfg": ""
    },
    {
      "id": 7202904,
      "beginWay": "TALK_BEGIN_MANUAL",
      "priority": 1,
      "initDialog": 720290401,
      "npcId": [
        2029
      ],
      "performCfg": "",
      "assetIndex": 12461172355347807941,
      "prePerformCfg": ""
    },
    {
      "id": 7202905,
      "beginWay": "TALK_BEGIN_MANUAL",
      "priority": 1,
      "initDialog": 720290501,
      "npcId": [
        2029
      ],
      "performCfg": "",
      "assetIndex": 16272663819129243175,
      "prePerformCfg": ""
    }
  ]
}