{
  "npcId": 2031,
  "talks": [
    {
      "id": 6203102,
      "beginWay": "TALK_BEGIN_MANUAL",
      "beginCond": [
        {
          "type": "QUEST_COND_QUEST_GLOBAL_VAR_EQUAL",
          "_param": [
            "2100001",
            "2"
          ]
        }
      ],
      "priority": 5,
      "nextTalks": [
        6203103,
        6203104,
        6203105
      ],
      "initDialog": 620310201,
      "npcId": [
        2031
      ],
      "performCfg": "",
      "assetIndex": 3622378435558474358,
      "prePerformCfg": ""
    },
    {
      "id": 6203103,
      "beginWay": "TALK_BEGIN_MANUAL",
      "beginCond": [
        {
          "type": "QUEST_COND_QUEST_GLOBAL_VAR_EQUAL",
          "_param": [
            "2100001",
            "2"
          ]
        }
      ],
      "priority": 1,
      "initDialog": 620310301,
      "npcId": [
        2031
      ],
      "performCfg": "",
      "assetIndex": 8588042868087247538,
      "prePerformCfg": "",
      "freeStyleList": [
        1171,
        1172,
        1173
      ]
    },
    {
      "id": 6203104,
      "beginWay": "TALK_BEGIN_MANUAL",
      "beginCond": [
        {
          "type": "QUEST_COND_QUEST_GLOBAL_VAR_EQUAL",
          "_param": [
            "2100001",
            "2"
          ]
        }
      ],
      "priority": 1,
      "initDialog": 620310401,
      "npcId": [
        2031
      ],
      "performCfg": "",
      "assetIndex": 571567661596178329,
      "prePerformCfg": "",
      "freeStyleList": [
        1171,
        1172,
        1173
      ]
    },
    {
      "id": 6203105,
      "beginWay": "TALK_BEGIN_MANUAL",
      "beginCond": [
        {
          "type": "QUEST_COND_QUEST_GLOBAL_VAR_EQUAL",
          "_param": [
            "2100001",
            "2"
          ]
        }
      ],
      "priority": 1,
      "initDialog": 620310501,
      "npcId": [
        2031
      ],
      "performCfg": "",
      "assetIndex": 16846399684480304351,
      "prePerformCfg": ""
    },
    {
      "id": 6203101,
      "beginWay": "TALK_BEGIN_MANUAL",
      "beginCond": [
        {
          "type": "QUEST_COND_QUEST_GLOBAL_VAR_EQUAL",
          "_param": [
            "2100001",
            "0"
          ]
        }
      ],
      "priority": 3,
      "initDialog": 620740101,
      "npcId": [
        2031
      ],
      "performCfg": "",
      "assetIndex": 17574597387322480473,
      "prePerformCfg": ""
    }
  ]
}