{
  "npcId": 2032,
  "talks": [
    {
      "id": 6203205,
      "beginWay": "TALK_BEGIN_MANUAL",
      "beginCond": [
        {
          "type": "QUEST_COND_QUEST_GLOBAL_VAR_EQUAL",
          "_param": [
            "12042",
            "1"
          ]
        }
      ],
      "priority": 3,
      "nextTalks": [
        6203206,
        6203207,
        6203208
      ],
      "initDialog": 620320501,
      "npcId": [
        2032
      ],
      "performCfg": "",
      "assetIndex": 14523861954524087761,
      "prePerformCfg": ""
    },
    {
      "id": 6203206,
      "beginCond": [
        {
          "type": "QUEST_COND_QUEST_GLOBAL_VAR_EQUAL",
          "_param": [
            "12042",
            "1"
          ]
        }
      ],
      "priority": 1,
      "initDialog": 620320601,
      "npcId": [
        2032
      ],
      "performCfg": "",
      "assetIndex": 2633719360693123580,
      "prePerformCfg": ""
    },
    {
      "id": 6203207,
      "beginCond": [
        {
          "type": "QUEST_COND_QUEST_GLOBAL_VAR_EQUAL",
          "_param": [
            "12042",
            "1"
          ]
        }
      ],
      "priority": 1,
      "initDialog": 620320701,
      "npcId": [
        2032
      ],
      "performCfg": "",
      "assetIndex": 15228439425587830587,
      "prePerformCfg": ""
    },
    {
      "id": 6203208,
      "beginCond": [
        {
          "type": "QUEST_COND_QUEST_GLOBAL_VAR_EQUAL",
          "_param": [
            "12042",
            "1"
          ]
        }
      ],
      "priority": 1,
      "initDialog": 620320801,
      "npcId": [
        2032
      ],
      "performCfg": "",
      "assetIndex": 14321579817770026824,
      "prePerformCfg": ""
    },
    {
      "id": 6203201,
      "beginWay": "TALK_BEGIN_MANUAL",
      "beginCond": [
        {
          "type": "QUEST_COND_QUEST_GLOBAL_VAR_EQUAL",
          "_param": [
            "12042",
            "0"
          ]
        }
      ],
      "priority": 3,
      "nextTalks": [
        6203202,
        6203203,
        6203204
      ],
      "initDialog": 620320101,
      "npcId": [
        2032
      ],
      "performCfg": "",
      "assetIndex": 1480666138949270656,
      "prePerformCfg": "",
      "freeStyleList": [
        9000
      ]
    },
    {
      "id": 6203202,
      "beginWay": "TALK_BEGIN_MANUAL",
      "beginCond": [
        {
          "type": "QUEST_COND_QUEST_GLOBAL_VAR_EQUAL",
          "_param": [
            "12042",
            "0"
          ]
        }
      ],
      "priority": 1,
      "initDialog": 620320201,
      "npcId": [
        2032
      ],
      "performCfg": "",
      "assetIndex": 15268771650688567717,
      "prePerformCfg": ""
    },
    {
      "id": 6203203,
      "beginWay": "TALK_BEGIN_MANUAL",
      "beginCond": [
        {
          "type": "QUEST_COND_QUEST_GLOBAL_VAR_EQUAL",
          "_param": [
            "12042",
            "0"
          ]
        }
      ],
      "priority": 1,
      "initDialog": 620320301,
      "npcId": [
        2032
      ],
      "performCfg": "",
      "assetIndex": 3100520079199402222,
      "prePerformCfg": ""
    },
    {
      "id": 6203204,
      "beginWay": "TALK_BEGIN_MANUAL",
      "beginCond": [
        {
          "type": "QUEST_COND_QUEST_GLOBAL_VAR_EQUAL",
          "_param": [
            "12042",
            "0"
          ]
        }
      ],
      "priority": 1,
      "initDialog": 620320401,
      "npcId": [
        2032
      ],
      "performCfg": "",
      "assetIndex": 356758095652823706,
      "prePerformCfg": ""
    }
  ]
}