{
  "npcId": 2034,
  "talks": [
    {
      "id": 4003722,
      "beginWay": "TALK_BEGIN_MANUAL",
      "beginCondComb": "LOGIC_AND",
      "beginCond": [
        {
          "type": "QUEST_COND_ACTIVITY_CLIENT_COND",
          "_param": [
            "2010",
            "2010002",
            "1"
          ]
        },
        {
          "type": "QUEST_COND_IS_DAYTIME",
          "_param": [
            "1"
          ]
        }
      ],
      "priority": 5,
      "nextTalks": [
        6203404,
        6203402,
        6203403
      ],
      "initDialog": 400372201,
      "npcId": [
        2034
      ],
      "performCfg": "",
      "assetIndex": 8071546516083932848,
      "prePerformCfg": ""
    },
    {
      "id": 6203401,
      "beginWay": "TALK_BEGIN_MANUAL",
      "beginCond": [
        {
          "type": "QUEST_COND_IS_DAYTIME",
          "_param": [
            "1"
          ]
        }
      ],
      "priority": 3,
      "nextTalks": [
        6203404,
        6203402,
        6203403
      ],
      "initDialog": 620340101,
      "npcId": [
        2034
      ],
      "performCfg": "",
      "assetIndex": 15557417641428542743,
      "prePerformCfg": "",
      "freeStyleList": [
        9000
      ]
    },
    {
      "id": 6203402,
      "beginWay": "TALK_BEGIN_MANUAL",
      "priority": 1,
      "initDialog": 620340201,
      "npcId": [
        2034
      ],
      "performCfg": "",
      "assetIndex": 3703271052083227381,
      "prePerformCfg": ""
    },
    {
      "id": 6203403,
      "beginWay": "TALK_BEGIN_MANUAL",
      "priority": 1,
      "initDialog": 620340301,
      "npcId": [
        2034
      ],
      "performCfg": "",
      "assetIndex": 1293646978718859189,
      "prePerformCfg": ""
    },
    {
      "id": 6203404,
      "beginWay": "TALK_BEGIN_MANUAL",
      "priority": 1,
      "initDialog": 620340401,
      "npcId": [
        2034
      ],
      "performCfg": "",
      "assetIndex": 2095404630542330284,
      "prePerformCfg": ""
    },
    {
      "id": 6203405,
      "beginWay": "TALK_BEGIN_MANUAL",
      "beginCond": [
        {
          "type": "QUEST_COND_IS_DAYTIME",
          "_param": [
            "0"
          ]
        }
      ],
      "priority": 3,
      "initDialog": 620340501,
      "npcId": [
        2034
      ],
      "performCfg": "",
      "assetIndex": 3524917199062565231,
      "prePerformCfg": ""
    }
  ]
}