{
  "npcId": 2036,
  "talks": [
    {
      "id": 4003724,
      "beginWay": "TALK_BEGIN_MANUAL",
      "beginCondComb": "LOGIC_AND",
      "beginCond": [
        {
          "type": "QUEST_COND_ACTIVITY_CLIENT_COND",
          "_param": [
            "2010",
            "2010002",
            "1"
          ]
        },
        {
          "type": "QUEST_COND_IS_DAYTIME",
          "_param": [
            "1"
          ]
        }
      ],
      "priority": 5,
      "nextTalks": [
        6203602,
        6203603,
        6203604
      ],
      "initDialog": 400372401,
      "npcId": [
        2036
      ],
      "performCfg": "",
      "assetIndex": 1244165097652118923,
      "prePerformCfg": ""
    },
    {
      "id": 4003725,
      "beginWay": "TALK_BEGIN_MANUAL",
      "beginCondComb": "LOGIC_AND",
      "beginCond": [
        {
          "type": "QUEST_COND_ACTIVITY_CLIENT_COND",
          "_param": [
            "2010",
            "2010002",
            "1"
          ]
        },
        {
          "type": "QUEST_COND_IS_DAYTIME",
          "_param": [
            "0"
          ]
        }
      ],
      "priority": 5,
      "nextTalks": [
        6203606,
        6203607
      ],
      "initDialog": 400372501,
      "npcId": [
        2036
      ],
      "performCfg": "",
      "assetIndex": 14718270600638580678,
      "prePerformCfg": ""
    },
    {
      "id": 6203601,
      "beginWay": "TALK_BEGIN_MANUAL",
      "beginCond": [
        {
          "type": "QUEST_COND_IS_DAYTIME",
          "_param": [
            "1"
          ]
        }
      ],
      "priority": 3,
      "nextTalks": [
        6203602,
        6203603,
        6203604
      ],
      "initDialog": 620360101,
      "npcId": [
        2036
      ],
      "performCfg": "",
      "assetIndex": 11195646332904787746,
      "prePerformCfg": "",
      "freeStyleList": [
        9000
      ]
    },
    {
      "id": 6203602,
      "beginWay": "TALK_BEGIN_MANUAL",
      "beginCond": [
        {
          "type": "QUEST_COND_IS_DAYTIME",
          "_param": [
            "1"
          ]
        }
      ],
      "priority": 1,
      "initDialog": 620360201,
      "npcId": [
        2036
      ],
      "performCfg": "",
      "assetIndex": 2024346842921146333,
      "prePerformCfg": ""
    },
    {
      "id": 6203603,
      "beginWay": "TALK_BEGIN_MANUAL",
      "beginCondComb": "LOGIC_AND",
      "beginCond": [
        {
          "type": "QUEST_COND_IS_DAYTIME",
          "_param": [
            "1"
          ]
        },
        {
          "type": "QUEST_COND_STATE_EQUAL",
          "_param": [
            "100008",
            "3"
          ]
        }
      ],
      "priority": 1,
      "initDialog": 620360301,
      "npcId": [
        2036
      ],
      "performCfg": "",
      "assetIndex": 10519483043045890189,
      "prePerformCfg": ""
    },
    {
      "id": 6203604,
      "beginWay": "TALK_BEGIN_MANUAL",
      "beginCond": [
        {
          "type": "QUEST_COND_IS_DAYTIME",
          "_param": [
            "1"
          ]
        }
      ],
      "priority": 1,
      "initDialog": 620360401,
      "npcId": [
        2036
      ],
      "performCfg": "",
      "assetIndex": 322517053533653106,
      "prePerformCfg": ""
    },
    {
      "id": 6203605,
      "beginWay": "TALK_BEGIN_MANUAL",
      "beginCond": [
        {
          "type": "QUEST_COND_IS_DAYTIME",
          "_param": [
            "0"
          ]
        }
      ],
      "priority": 3,
      "nextTalks": [
        6203606,
        6203607
      ],
      "initDialog": 620360501,
      "npcId": [
        2036
      ],
      "performCfg": "",
      "assetIndex": 2081215180785313729,
      "prePerformCfg": ""
    },
    {
      "id": 6203606,
      "beginWay": "TALK_BEGIN_MANUAL",
      "beginCond": [
        {
          "type": "QUEST_COND_IS_DAYTIME",
          "_param": [
            "0"
          ]
        }
      ],
      "priority": 1,
      "initDialog": 620360601,
      "npcId": [
        2036
      ],
      "performCfg": "",
      "assetIndex": 18193247839074100370,
      "prePerformCfg": ""
    },
    {
      "id": 6203607,
      "beginWay": "TALK_BEGIN_MANUAL",
      "beginCond": [
        {
          "type": "QUEST_COND_IS_DAYTIME",
          "_param": [
            "0"
          ]
        }
      ],
      "priority": 1,
      "initDialog": 620360701,
      "npcId": [
        2036
      ],
      "performCfg": "",
      "assetIndex": 8800771627461567949,
      "prePerformCfg": ""
    },
    {
      "id": 7203601,
      "beginWay": "TALK_BEGIN_MANUAL",
      "beginCond": [
        {
          "type": "QUEST_COND_ACTIVITY_OPEN",
          "_param": [
            "1001"
          ]
        }
      ],
      "priority": 4,
      "initDialog": 720360101,
      "npcId": [
        2036
      ],
      "performCfg": "",
      "assetIndex": 12343429783790355333,
      "prePerformCfg": "",
      "freeStyleList": [
        9000
      ]
    }
  ]
}