{
  "npcId": 20419,
  "talks": [
    {
      "id": 34819,
      "beginWay": "TALK_BEGIN_MANUAL",
      "priority": 3,
      "initDialog": 3481901,
      "npcId": [
        20419
      ],
      "performCfg": "",
      "assetIndex": 6127374290017938216,
      "prePerformCfg": ""
    }
  ]
}