{
  "npcId": 20422,
  "talks": [
    {
      "id": 7214905,
      "beginWay": "TALK_BEGIN_MANUAL",
      "activeMode": "PLAY_MODE_HOST",
      "priority": 5,
      "initDialog": 721490501,
      "npcId": [
        20422
      ],
      "performCfg": "",
      "assetIndex": 16327340801470719882,
      "prePerformCfg": ""
    }
  ]
}