{
  "npcId": 20436,
  "talks": [
    {
      "id": 6801302,
      "beginWay": "TALK_BEGIN_MANUAL",
      "activeMode": "PLAY_MODE_ALL",
      "priority": 9,
      "initDialog": 680130201,
      "npcId": [
        20436
      ],
      "performCfg": "",
      "assetIndex": 15714900605224999280,
      "prePerformCfg": ""
    }
  ]
}