{
  "npcId": 20442,
  "talks": [
    {
      "id": 6801308,
      "beginWay": "TALK_BEGIN_MANUAL",
      "activeMode": "PLAY_MODE_ALL",
      "priority": 9,
      "initDialog": 680130801,
      "npcId": [
        20442
      ],
      "performCfg": "",
      "assetIndex": 559828619475502417,
      "prePerformCfg": ""
    }
  ]
}