{
  "npcId": 20477,
  "talks": [
    {
      "id": 7223601,
      "beginWay": "TALK_BEGIN_MANUAL",
      "activeMode": "PLAY_MODE_HOST",
      "beginCondComb": "LOGIC_A_AND_ETCOR",
      "beginCond": [
        {
          "type": "QUEST_COND_QUEST_SERVER_COND_VALID",
          "_param": [
            "7223601"
          ]
        },
        {
          "type": "QUEST_COND_STATE_EQUAL",
          "_param": [
            "7223501",
            "2"
          ]
        },
        {
          "type": "QUEST_COND_STATE_EQUAL",
          "_param": [
            "7223501",
            "3"
          ]
        }
      ],
      "priority": 5,
      "initDialog": 722360101,
      "npcId": [
        20477
      ],
      "performCfg": "QuestDialogue/WQ/Inazuma_72236/Q7223601",
      "assetIndex": 17729455247497164722,
      "prePerformCfg": "",
      "talkMarkType": "TALK_MARK_COMMON"
    },
    {
      "id": 7223602,
      "beginWay": "TALK_BEGIN_MANUAL",
      "activeMode": "PLAY_MODE_HOST",
      "beginCondComb": "LOGIC_AND",
      "beginCond": [
        {
          "type": "QUEST_COND_QUEST_SERVER_COND_VALID",
          "_param": [
            "7223601"
          ]
        },
        {
          "type": "QUEST_COND_QUEST_NOT_RECEIVE",
          "_param": [
            "7223501",
            "1"
          ]
        }
      ],
      "priority": 5,
      "initDialog": 722360201,
      "npcId": [
        20477
      ],
      "performCfg": "QuestDialogue/WQ/Inazuma_72236/Q7223602",
      "assetIndex": 10384968936862669080,
      "prePerformCfg": "",
      "talkMarkType": "TALK_MARK_COMMON"
    },
    {
      "id": 7223603,
      "beginWay": "TALK_BEGIN_MANUAL",
      "activeMode": "PLAY_MODE_HOST",
      "beginCond": [
        {
          "type": "QUEST_COND_STATE_EQUAL",
          "_param": [
            "7223601",
            "3"
          ]
        }
      ],
      "priority": 3,
      "initDialog": 722360301,
      "npcId": [
        20477
      ],
      "performCfg": "",
      "assetIndex": 2893653363753003030,
      "dontBlockDaily": true,
      "prePerformCfg": ""
    }
  ]
}