{
  "npcId": 20492,
  "talks": [
    {
      "id": 7223406,
      "beginWay": "TALK_BEGIN_MANUAL",
      "activeMode": "PLAY_MODE_HOST",
      "priority": 3,
      "initDialog": 722340601,
      "npcId": [
        20492
      ],
      "performCfg": "",
      "assetIndex": 14366040644878564098,
      "prePerformCfg": "",
      "lowPriority": true
    }
  ]
}