{
  "npcId": 20491,
  "talks": [
    {
      "id": 7223405,
      "beginWay": "TALK_BEGIN_MANUAL",
      "activeMode": "PLAY_MODE_HOST",
      "priority": 3,
      "initDialog": 722340501,
      "npcId": [
        20491
      ],
      "performCfg": "",
      "assetIndex": 5665157943676407556,
      "prePerformCfg": "",
      "lowPriority": true
    }
  ]
}