{
  "npcId": 20504,
  "talks": [
    {
      "id": 7225902,
      "beginWay": "TALK_BEGIN_MANUAL",
      "activeMode": "PLAY_MODE_HOST",
      "priority": 3,
      "initDialog": 722590201,
      "npcId": [
        20504
      ],
      "performCfg": "",
      "assetIndex": 1063763863642940505,
      "prePerformCfg": ""
    }
  ]
}