{
  "npcId": 20512,
  "talks": [
    {
      "id": 6801703,
      "beginWay": "TALK_BEGIN_MANUAL",
      "activeMode": "PLAY_MODE_HOST",
      "priority": 5,
      "initDialog": 680170301,
      "npcId": [
        20512
      ],
      "performCfg": "",
      "assetIndex": 16798733664681832658,
      "prePerformCfg": ""
    }
  ]
}