{
  "npcId": 20586,
  "talks": [
    {
      "id": 7106412,
      "beginWay": "TALK_BEGIN_MANUAL",
      "activeMode": "PLAY_MODE_HOST",
      "priority": 5,
      "initDialog": 710641201,
      "npcId": [
        20586
      ],
      "performCfg": "",
      "assetIndex": 5619210307073836789,
      "prePerformCfg": ""
    }
  ]
}