{
  "npcId": 2061,
  "talks": [
    {
      "id": 6206101,
      "beginWay": "TALK_BEGIN_MANUAL",
      "beginCondComb": "LOGIC_AND",
      "beginCond": [
        {
          "type": "QUEST_COND_QUEST_GLOBAL_VAR_GREATER",
          "_param": [
            "7103902",
            "0"
          ]
        },
        {
          "type": "QUEST_COND_QUEST_GLOBAL_VAR_LESS",
          "_param": [
            "71037",
            "4"
          ]
        }
      ],
      "priority": 3,
      "nextTalks": [
        6206102,
        6206103,
        6206104
      ],
      "initDialog": 620610101,
      "npcId": [
        2061
      ],
      "performCfg": "",
      "assetIndex": 9891475211864730315,
      "prePerformCfg": ""
    },
    {
      "id": 6206102,
      "beginCondComb": "LOGIC_AND",
      "beginCond": [
        {
          "type": "QUEST_COND_QUEST_GLOBAL_VAR_GREATER",
          "_param": [
            "7103902",
            "0"
          ]
        },
        {
          "type": "QUEST_COND_QUEST_GLOBAL_VAR_LESS",
          "_param": [
            "71037",
            "4"
          ]
        }
      ],
      "priority": 1,
      "initDialog": 620610201,
      "npcId": [
        2061
      ],
      "performCfg": "",
      "assetIndex": 10645549495520289869,
      "prePerformCfg": ""
    },
    {
      "id": 6206103,
      "beginCondComb": "LOGIC_AND",
      "beginCond": [
        {
          "type": "QUEST_COND_QUEST_GLOBAL_VAR_GREATER",
          "_param": [
            "7103902",
            "0"
          ]
        },
        {
          "type": "QUEST_COND_QUEST_GLOBAL_VAR_LESS",
          "_param": [
            "71037",
            "4"
          ]
        }
      ],
      "priority": 1,
      "nextTalks": [
        6206105
      ],
      "initDialog": 620610301,
      "npcId": [
        2061
      ],
      "performCfg": "",
      "assetIndex": 7328722896167083913,
      "prePerformCfg": ""
    },
    {
      "id": 6206104,
      "beginCondComb": "LOGIC_AND",
      "beginCond": [
        {
          "type": "QUEST_COND_QUEST_GLOBAL_VAR_GREATER",
          "_param": [
            "7103902",
            "0"
          ]
        },
        {
          "type": "QUEST_COND_QUEST_GLOBAL_VAR_LESS",
          "_param": [
            "71037",
            "4"
          ]
        }
      ],
      "priority": 1,
      "initDialog": 620610401,
      "npcId": [
        2061
      ],
      "performCfg": "",
      "assetIndex": 615698887675295767,
      "prePerformCfg": ""
    },
    {
      "id": 6206105,
      "beginCondComb": "LOGIC_AND",
      "beginCond": [
        {
          "type": "QUEST_COND_QUEST_GLOBAL_VAR_GREATER",
          "_param": [
            "7103902",
            "0"
          ]
        },
        {
          "type": "QUEST_COND_QUEST_GLOBAL_VAR_LESS",
          "_param": [
            "71037",
            "4"
          ]
        }
      ],
      "priority": 1,
      "nextTalks": [
        6206106
      ],
      "initDialog": 620610501,
      "npcId": [
        2061
      ],
      "performCfg": "",
      "assetIndex": 12323497419266952696,
      "prePerformCfg": ""
    },
    {
      "id": 6206106,
      "beginCondComb": "LOGIC_AND",
      "beginCond": [
        {
          "type": "QUEST_COND_QUEST_GLOBAL_VAR_GREATER",
          "_param": [
            "7103902",
            "0"
          ]
        },
        {
          "type": "QUEST_COND_QUEST_GLOBAL_VAR_LESS",
          "_param": [
            "71037",
            "4"
          ]
        }
      ],
      "priority": 1,
      "initDialog": 620610601,
      "npcId": [
        2061
      ],
      "performCfg": "",
      "assetIndex": 1269047473424362934,
      "prePerformCfg": ""
    },
    {
      "id": 6206107,
      "beginWay": "TALK_BEGIN_MANUAL",
      "beginCond": [
        {
          "type": "QUEST_COND_QUEST_GLOBAL_VAR_GREATER",
          "_param": [
            "71037",
            "3"
          ]
        }
      ],
      "priority": 3,
      "nextTalks": [
        6206108,
        6206109,
        6206110
      ],
      "initDialog": 620610701,
      "npcId": [
        2061
      ],
      "performCfg": "",
      "assetIndex": 12046195621242146529,
      "prePerformCfg": ""
    },
    {
      "id": 6206108,
      "beginCond": [
        {
          "type": "QUEST_COND_QUEST_GLOBAL_VAR_GREATER",
          "_param": [
            "71037",
            "3"
          ]
        }
      ],
      "priority": 1,
      "nextTalks": [
        6206111,
        6206113
      ],
      "initDialog": 620610801,
      "npcId": [
        2061
      ],
      "performCfg": "",
      "assetIndex": 18352077854116345144,
      "prePerformCfg": ""
    },
    {
      "id": 6206109,
      "beginCond": [
        {
          "type": "QUEST_COND_QUEST_GLOBAL_VAR_GREATER",
          "_param": [
            "71037",
            "3"
          ]
        }
      ],
      "priority": 1,
      "initDialog": 620610901,
      "npcId": [
        2061
      ],
      "performCfg": "",
      "assetIndex": 15847181140173754026,
      "prePerformCfg": ""
    },
    {
      "id": 6206110,
      "beginCond": [
        {
          "type": "QUEST_COND_QUEST_GLOBAL_VAR_GREATER",
          "_param": [
            "71037",
            "3"
          ]
        }
      ],
      "priority": 1,
      "initDialog": 620611001,
      "npcId": [
        2061
      ],
      "performCfg": "",
      "assetIndex": 6742989073577358049,
      "prePerformCfg": ""
    },
    {
      "id": 6206111,
      "beginCondComb": "LOGIC_AND",
      "beginCond": [
        {
          "type": "QUEST_COND_QUEST_GLOBAL_VAR_GREATER",
          "_param": [
            "71037",
            "3"
          ]
        },
        {
          "type": "QUEST_COND_QUEST_GLOBAL_VAR_EQUAL",
          "_param": [
            "7103901",
            "1"
          ]
        }
      ],
      "priority": 1,
      "nextTalks": [
        6206112
      ],
      "initDialog": 620611101,
      "npcId": [
        2061
      ],
      "performCfg": "",
      "assetIndex": 10156739458901061086,
      "prePerformCfg": ""
    },
    {
      "id": 6206112,
      "beginCondComb": "LOGIC_AND",
      "beginCond": [
        {
          "type": "QUEST_COND_QUEST_GLOBAL_VAR_GREATER",
          "_param": [
            "71037",
            "3"
          ]
        },
        {
          "type": "QUEST_COND_QUEST_GLOBAL_VAR_GREATER",
          "_param": [
            "7103901",
            "0"
          ]
        }
      ],
      "priority": 1,
      "initDialog": 620611201,
      "npcId": [
        2061
      ],
      "performCfg": "",
      "assetIndex": 11877302416442099504,
      "prePerformCfg": ""
    },
    {
      "id": 6206113,
      "beginCondComb": "LOGIC_AND",
      "beginCond": [
        {
          "type": "QUEST_COND_QUEST_GLOBAL_VAR_GREATER",
          "_param": [
            "71037",
            "3"
          ]
        },
        {
          "type": "QUEST_COND_QUEST_GLOBAL_VAR_EQUAL",
          "_param": [
            "7103901",
            "2"
          ]
        }
      ],
      "priority": 1,
      "nextTalks": [
        6206112
      ],
      "initDialog": 620611301,
      "npcId": [
        2061
      ],
      "performCfg": "",
      "assetIndex": 1935350585924879273,
      "prePerformCfg": ""
    },
    {
      "id": 7104401,
      "beginWay": "TALK_BEGIN_MANUAL",
      "activeMode": "PLAY_MODE_HOST",
      "beginCond": [
        {
          "type": "QUEST_COND_QUEST_GLOBAL_VAR_EQUAL",
          "_param": [
            "10006",
            "0"
          ]
        }
      ],
      "priority": 5,
      "initDialog": 710440101,
      "npcId": [
        2061
      ],
      "performCfg": "",
      "heroTalk": "TALK_HERO_MAIN",
      "assetIndex": 10065299583570192288,
      "prePerformCfg": ""
    },
    {
      "id": 7104402,
      "activeMode": "PLAY_MODE_HOST",
      "beginCondComb": "LOGIC_AND",
      "beginCond": [
        {
          "type": "QUEST_COND_STATE_EQUAL",
          "_param": [
            "7104801",
            "3"
          ]
        },
        {
          "type": "QUEST_COND_QUEST_NOT_RECEIVE",
          "_param": [
            "7104406",
            "1"
          ]
        }
      ],
      "priority": 5,
      "nextTalks": [
        7104405,
        7104411
      ],
      "initDialog": 710440201,
      "npcId": [
        2061
      ],
      "performCfg": "QuestDialogue/WQ/Liyue_71044/Q7104402",
      "heroTalk": "TALK_HERO_MAIN",
      "assetIndex": 18288316088442679914,
      "prePerformCfg": ""
    },
    {
      "id": 7104403,
      "activeMode": "PLAY_MODE_HOST",
      "beginCondComb": "LOGIC_AND",
      "beginCond": [
        {
          "type": "QUEST_COND_STATE_EQUAL",
          "_param": [
            "7104901",
            "3"
          ]
        },
        {
          "type": "QUEST_COND_QUEST_NOT_RECEIVE",
          "_param": [
            "7104406",
            "1"
          ]
        }
      ],
      "priority": 5,
      "nextTalks": [
        7104405,
        7104412
      ],
      "initDialog": 710440301,
      "npcId": [
        2061
      ],
      "performCfg": "QuestDialogue/WQ/Liyue_71044/Q7104403",
      "heroTalk": "TALK_HERO_MAIN",
      "assetIndex": 4523571769632302471,
      "prePerformCfg": ""
    },
    {
      "id": 7104404,
      "activeMode": "PLAY_MODE_HOST",
      "beginCondComb": "LOGIC_AND",
      "beginCond": [
        {
          "type": "QUEST_COND_STATE_EQUAL",
          "_param": [
            "102510",
            "3"
          ]
        },
        {
          "type": "QUEST_COND_QUEST_GLOBAL_VAR_EQUAL",
          "_param": [
            "71044",
            "0"
          ]
        }
      ],
      "priority": 5,
      "nextTalks": [
        7104405
      ],
      "initDialog": 710440401,
      "npcId": [
        2061
      ],
      "performCfg": "",
      "heroTalk": "TALK_HERO_MAIN",
      "assetIndex": 503333013711091451,
      "prePerformCfg": "",
      "talkMarkType": "TALK_MARK_COMMON",
      "finishExec": [
        {
          "damageRatio": "TALK_EXEC_SET_QUEST_GLOBAL_VAR",
          "param": [
            "71044",
            "1"
          ]
        }
      ]
    },
    {
      "id": 7104405,
      "activeMode": "PLAY_MODE_HOST",
      "beginCond": [
        {
          "type": "QUEST_COND_STATE_EQUAL",
          "_param": [
            "102510",
            "3"
          ]
        }
      ],
      "priority": 5,
      "initDialog": 710440501,
      "npcId": [
        2061
      ],
      "performCfg": "QuestDialogue/WQ/Liyue_71044/Q7104405",
      "heroTalk": "TALK_HERO_MAIN",
      "assetIndex": 14348271507112245858,
      "prePerformCfg": "",
      "finishExec": [
        {
          "damageRatio": "TALK_EXEC_SET_QUEST_GLOBAL_VAR",
          "param": [
            "71044",
            "1"
          ]
        }
      ]
    },
    {
      "id": 7104410,
      "beginWay": "TALK_BEGIN_MANUAL",
      "activeMode": "PLAY_MODE_HOST",
      "beginCondComb": "LOGIC_A_AND_ETCOR",
      "beginCond": [
        {
          "type": "QUEST_COND_STATE_EQUAL",
          "_param": [
            "102510",
            "3"
          ]
        },
        {
          "type": "QUEST_COND_QUEST_NOT_RECEIVE",
          "_param": [
            "7104406",
            "1"
          ]
        }
      ],
      "priority": 5,
      "nextTalks": [
        7104402,
        7104403,
        7104405
      ],
      "initDialog": 710441001,
      "npcId": [
        2061
      ],
      "performCfg": "QuestDialogue/WQ/Liyue_71044/Q7104410",
      "heroTalk": "TALK_HERO_MAIN",
      "assetIndex": 17549115885269034919,
      "prePerformCfg": "",
      "talkMarkType": "TALK_MARK_COMMON"
    },
    {
      "id": 7104411,
      "activeMode": "PLAY_MODE_HOST",
      "beginCondComb": "LOGIC_AND",
      "beginCond": [
        {
          "type": "QUEST_COND_STATE_EQUAL",
          "_param": [
            "7104801",
            "3"
          ]
        },
        {
          "type": "QUEST_COND_QUEST_NOT_RECEIVE",
          "_param": [
            "7104406",
            "1"
          ]
        }
      ],
      "priority": 5,
      "nextTalks": [
        7104405
      ],
      "initDialog": 710441101,
      "npcId": [
        2061
      ],
      "performCfg": "QuestDialogue/WQ/Liyue_71044/Q7104411",
      "heroTalk": "TALK_HERO_MAIN",
      "assetIndex": 6310751726942752965,
      "prePerformCfg": ""
    },
    {
      "id": 7104412,
      "activeMode": "PLAY_MODE_HOST",
      "beginCondComb": "LOGIC_AND",
      "beginCond": [
        {
          "type": "QUEST_COND_STATE_EQUAL",
          "_param": [
            "7104901",
            "3"
          ]
        },
        {
          "type": "QUEST_COND_QUEST_NOT_RECEIVE",
          "_param": [
            "7104406",
            "1"
          ]
        }
      ],
      "priority": 5,
      "nextTalks": [
        7104405
      ],
      "initDialog": 710441201,
      "npcId": [
        2061
      ],
      "performCfg": "QuestDialogue/WQ/Liyue_71044/Q7104412",
      "heroTalk": "TALK_HERO_MAIN",
      "assetIndex": 17337796492803848794,
      "prePerformCfg": ""
    },
    {
      "id": 7105501,
      "beginWay": "TALK_BEGIN_MANUAL",
      "activeMode": "PLAY_MODE_HOST",
      "beginCondComb": "LOGIC_A_AND_B_AND_ETCOR",
      "beginCond": [
        {
          "type": "QUEST_COND_STATE_EQUAL",
          "_param": [
            "7104504",
            "3"
          ]
        },
        {
          "type": "QUEST_COND_QUEST_GLOBAL_VAR_EQUAL",
          "_param": [
            "71055",
            "0"
          ]
        },
        {
          "type": "QUEST_COND_STATE_NOT_EQUAL",
          "_param": [
            "7104520",
            "2"
          ]
        },
        {
          "type": "QUEST_COND_QUEST_NOT_RECEIVE",
          "_param": [
            "7104520",
            "1"
          ]
        }
      ],
      "priority": 8,
      "initDialog": 710550101,
      "npcId": [
        2061
      ],
      "performCfg": "QuestDialogue/WQ/Liyue_71055/Q7105501",
      "heroTalk": "TALK_HERO_MAIN",
      "assetIndex": 16956072793340880204,
      "prePerformCfg": "",
      "talkMarkType": "TALK_MARK_COMMON",
      "finishExec": [
        {
          "damageRatio": "TALK_EXEC_SET_QUEST_GLOBAL_VAR",
          "param": [
            "71055",
            "2"
          ]
        }
      ]
    },
    {
      "id": 7105513,
      "beginWay": "TALK_BEGIN_MANUAL",
      "activeMode": "PLAY_MODE_HOST",
      "beginCondComb": "LOGIC_A_AND_B_AND_ETCOR",
      "beginCond": [
        {
          "type": "QUEST_COND_STATE_EQUAL",
          "_param": [
            "7104504",
            "3"
          ]
        },
        {
          "type": "QUEST_COND_QUEST_GLOBAL_VAR_EQUAL",
          "_param": [
            "71055",
            "1"
          ]
        },
        {
          "type": "QUEST_COND_STATE_NOT_EQUAL",
          "_param": [
            "7104520",
            "2"
          ]
        },
        {
          "type": "QUEST_COND_QUEST_NOT_RECEIVE",
          "_param": [
            "7104520",
            "1"
          ]
        }
      ],
      "priority": 8,
      "initDialog": 710551301,
      "npcId": [
        2061
      ],
      "performCfg": "QuestDialogue/WQ/Liyue_71055/Q7105513",
      "heroTalk": "TALK_HERO_MAIN",
      "assetIndex": 5671419977538489349,
      "prePerformCfg": "",
      "talkMarkType": "TALK_MARK_COMMON",
      "finishExec": [
        {
          "damageRatio": "TALK_EXEC_SET_QUEST_GLOBAL_VAR",
          "param": [
            "71055",
            "2"
          ]
        }
      ]
    }
  ]
}