{
  "npcId": 2064,
  "talks": [
    {
      "id": 4003739,
      "beginWay": "TALK_BEGIN_MANUAL",
      "beginCond": [
        {
          "type": "QUEST_COND_ACTIVITY_CLIENT_COND",
          "_param": [
            "2010",
            "2010002",
            "1"
          ]
        }
      ],
      "priority": 5,
      "nextTalks": [
        6206406,
        6206403,
        6206402,
        6206405,
        6206404
      ],
      "initDialog": 400373901,
      "npcId": [
        2064
      ],
      "performCfg": "",
      "assetIndex": 18209972460025800155,
      "prePerformCfg": ""
    },
    {
      "id": 6206401,
      "beginWay": "TALK_BEGIN_MANUAL",
      "priority": 3,
      "nextTalks": [
        6206406,
        6206403,
        6206402,
        6206405,
        6206404
      ],
      "initDialog": 620640101,
      "npcId": [
        2064
      ],
      "performCfg": "",
      "assetIndex": 9616455103543959969,
      "prePerformCfg": "",
      "freeStyleList": [
        9000
      ]
    },
    {
      "id": 6206402,
      "beginWay": "TALK_BEGIN_MANUAL",
      "priority": 1,
      "initDialog": 620640201,
      "npcId": [
        2064
      ],
      "performCfg": "",
      "assetIndex": 1750586866525862202,
      "prePerformCfg": ""
    },
    {
      "id": 6206403,
      "beginWay": "TALK_BEGIN_MANUAL",
      "beginCondComb": "LOGIC_AND",
      "beginCond": [
        {
          "type": "QUEST_COND_STATE_EQUAL",
          "_param": [
            "100008",
            "3"
          ]
        },
        {
          "type": "QUEST_COND_QUEST_GLOBAL_VAR_EQUAL",
          "_param": [
            "10007",
            "0"
          ]
        }
      ],
      "priority": 1,
      "initDialog": 620640301,
      "npcId": [
        2064
      ],
      "performCfg": "",
      "assetIndex": 11097896110063128192,
      "prePerformCfg": ""
    },
    {
      "id": 6206404,
      "beginWay": "TALK_BEGIN_MANUAL",
      "priority": 1,
      "initDialog": 620640401,
      "npcId": [
        2064
      ],
      "performCfg": "",
      "assetIndex": 11759590528841684421,
      "prePerformCfg": ""
    },
    {
      "id": 6206405,
      "beginWay": "TALK_BEGIN_MANUAL",
      "priority": 1,
      "initDialog": 620640501,
      "npcId": [
        2064
      ],
      "performCfg": "",
      "assetIndex": 5125385281662406830,
      "prePerformCfg": ""
    },
    {
      "id": 6206406,
      "beginWay": "TALK_BEGIN_MANUAL",
      "beginCond": [
        {
          "type": "QUEST_COND_QUEST_GLOBAL_VAR_EQUAL",
          "_param": [
            "10007",
            "1"
          ]
        }
      ],
      "priority": 1,
      "initDialog": 620640601,
      "npcId": [
        2064
      ],
      "performCfg": "",
      "assetIndex": 7787636667723740790,
      "prePerformCfg": ""
    }
  ]
}