{
  "npcId": 2071,
  "talks": [
    {
      "id": 7191901,
      "beginWay": "TALK_BEGIN_MANUAL",
      "beginCondComb": "LOGIC_OR",
      "beginCond": [
        {
          "type": "QUEST_COND_QUEST_NOT_RECEIVE",
          "_param": [
            "7191901",
            "1"
          ]
        }
      ],
      "priority": 1,
      "initDialog": 719190101,
      "npcId": [
        2071
      ],
      "performCfg": "",
      "assetIndex": 3608690868222463845,
      "dontBlockDaily": true,
      "prePerformCfg": ""
    },
    {
      "id": 6207101,
      "beginWay": "TALK_BEGIN_MANUAL",
      "priority": 3,
      "nextTalks": [
        6207102,
        6207105,
        6207103
      ],
      "initDialog": 620710101,
      "npcId": [
        2071
      ],
      "performCfg": "",
      "assetIndex": 3092705351364458704,
      "prePerformCfg": "",
      "freeStyleList": [
        9000
      ]
    },
    {
      "id": 6207102,
      "beginWay": "TALK_BEGIN_MANUAL",
      "priority": 1,
      "nextTalks": [
        6207104,
        7191901
      ],
      "initDialog": 620710201,
      "npcId": [
        2071
      ],
      "performCfg": "",
      "assetIndex": 3805604167692243777,
      "prePerformCfg": ""
    },
    {
      "id": 6207103,
      "beginWay": "TALK_BEGIN_MANUAL",
      "priority": 1,
      "initDialog": 620710301,
      "npcId": [
        2071
      ],
      "performCfg": "",
      "assetIndex": 1146234162014083905,
      "prePerformCfg": ""
    },
    {
      "id": 6207104,
      "beginWay": "TALK_BEGIN_MANUAL",
      "priority": 1,
      "initDialog": 620710401,
      "npcId": [
        2071
      ],
      "performCfg": "",
      "assetIndex": 2442844310818776346,
      "prePerformCfg": ""
    },
    {
      "id": 6207105,
      "beginWay": "TALK_BEGIN_MANUAL",
      "priority": 1,
      "initDialog": 620710501,
      "npcId": [
        2071
      ],
      "performCfg": "",
      "assetIndex": 16671514047954632965,
      "prePerformCfg": ""
    }
  ]
}