{
  "npcId": 20765,
  "talks": [
    {
      "id": 7311708,
      "beginWay": "TALK_BEGIN_MANUAL",
      "activeMode": "PLAY_MODE_ALL",
      "priority": 5,
      "initDialog": 731170801,
      "npcId": [
        20765
      ],
      "performCfg": "",
      "assetIndex": 18175393828055890985,
      "prePerformCfg": ""
    }
  ]
}