{
  "npcId": 2080,
  "talks": [
    {
      "id": 6208001,
      "beginWay": "TALK_BEGIN_MANUAL",
      "priority": 3,
      "initDialog": 620800101,
      "npcId": [
        2080
      ],
      "performCfg": "",
      "assetIndex": 16014540864645775252,
      "prePerformCfg": ""
    }
  ]
}