{
  "npcId": 2086,
  "talks": [
    {
      "id": 4003736,
      "beginWay": "TALK_BEGIN_MANUAL",
      "beginCondComb": "LOGIC_AND",
      "beginCond": [
        {
          "type": "QUEST_COND_ACTIVITY_CLIENT_COND",
          "_param": [
            "2010",
            "2010208",
            "1"
          ]
        },
        {
          "type": "QUEST_COND_IS_DAYTIME",
          "_param": [
            "0"
          ]
        }
      ],
      "priority": 5,
      "nextTalks": [
        6208606,
        6208607
      ],
      "initDialog": 400373601,
      "npcId": [
        2086
      ],
      "performCfg": "",
      "assetIndex": 12777421042243601733,
      "prePerformCfg": ""
    },
    {
      "id": 6208601,
      "beginWay": "TALK_BEGIN_MANUAL",
      "beginCond": [
        {
          "type": "QUEST_COND_IS_DAYTIME",
          "_param": [
            "1"
          ]
        }
      ],
      "priority": 3,
      "nextTalks": [
        6208602,
        6208603,
        6208604
      ],
      "initDialog": 620860101,
      "npcId": [
        2086
      ],
      "performCfg": "",
      "assetIndex": 7108884516718985807,
      "prePerformCfg": "",
      "freeStyleList": [
        9000
      ]
    },
    {
      "id": 6208602,
      "beginWay": "TALK_BEGIN_MANUAL",
      "priority": 1,
      "initDialog": 620860201,
      "npcId": [
        2086
      ],
      "performCfg": "",
      "assetIndex": 5633872889158087687,
      "prePerformCfg": ""
    },
    {
      "id": 6208603,
      "beginWay": "TALK_BEGIN_MANUAL",
      "priority": 1,
      "initDialog": 620860301,
      "npcId": [
        2086
      ],
      "performCfg": "",
      "assetIndex": 11989072333241293793,
      "prePerformCfg": ""
    },
    {
      "id": 6208604,
      "beginWay": "TALK_BEGIN_MANUAL",
      "priority": 1,
      "initDialog": 620860401,
      "npcId": [
        2086
      ],
      "performCfg": "",
      "assetIndex": 16339541738190470916,
      "prePerformCfg": ""
    },
    {
      "id": 6208605,
      "beginWay": "TALK_BEGIN_MANUAL",
      "beginCond": [
        {
          "type": "QUEST_COND_IS_DAYTIME",
          "_param": [
            "0"
          ]
        }
      ],
      "priority": 3,
      "nextTalks": [
        6208606,
        6208607
      ],
      "initDialog": 620860501,
      "npcId": [
        2086
      ],
      "performCfg": "",
      "assetIndex": 9952811784216887051,
      "prePerformCfg": "",
      "freeStyleList": [
        9000
      ]
    },
    {
      "id": 6208606,
      "beginWay": "TALK_BEGIN_MANUAL",
      "priority": 1,
      "initDialog": 620860601,
      "npcId": [
        2086
      ],
      "performCfg": "",
      "assetIndex": 10339644716913190698,
      "prePerformCfg": ""
    },
    {
      "id": 6208607,
      "beginWay": "TALK_BEGIN_MANUAL",
      "priority": 1,
      "initDialog": 620860701,
      "npcId": [
        2086
      ],
      "performCfg": "",
      "assetIndex": 13320311462753809402,
      "prePerformCfg": ""
    }
  ]
}