{
  "npcId": 20872,
  "talks": [
    {
      "id": 7322809,
      "beginWay": "TALK_BEGIN_MANUAL",
      "activeMode": "PLAY_MODE_HOST",
      "npcId": [
        20872
      ],
      "performCfg": "QuestDialogue/WQ/Sumeru_73228/Q7322809",
      "assetIndex": 5127737127638239553,
      "prePerformCfg": ""
    }
  ]
}