{
  "npcId": 20878,
  "talks": [
    {
      "id": 7322812,
      "beginWay": "TALK_BEGIN_MANUAL",
      "activeMode": "PLAY_MODE_HOST",
      "npcId": [
        20878
      ],
      "performCfg": "QuestDialogue/WQ/Sumeru_73228/Q7322812",
      "assetIndex": 15331913337046004524,
      "prePerformCfg": ""
    }
  ]
}