{
  "npcId": 20883,
  "talks": [
    {
      "id": 7323213,
      "beginWay": "TALK_BEGIN_MANUAL",
      "activeMode": "PLAY_MODE_HOST",
      "beginCond": [
        {
          "type": "QUEST_COND_STATE_EQUAL",
          "_param": [
            "7323213",
            "2"
          ]
        }
      ],
      "npcId": [
        20883,
        1005
      ],
      "performCfg": "",
      "assetIndex": 591180734501475944,
      "prePerformCfg": ""
    }
  ]
}