{
  "npcId": 20927,
  "talks": [
    {
      "id": 7323890,
      "beginWay": "TALK_BEGIN_MANUAL",
      "activeMode": "PLAY_MODE_HOST",
      "beginCond": [
        {
          "type": "QUEST_COND_QUEST_GLOBAL_VAR_EQUAL",
          "_param": [
            "7323804",
            "0"
          ]
        }
      ],
      "priority": 3,
      "initDialog": 732389001,
      "npcId": [
        20927
      ],
      "performCfg": "",
      "assetIndex": 692991023347289618,
      "prePerformCfg": ""
    },
    {
      "id": 7323891,
      "beginWay": "TALK_BEGIN_MANUAL",
      "activeMode": "PLAY_MODE_HOST",
      "beginCondComb": "LOGIC_AND",
      "beginCond": [
        {
          "type": "QUEST_COND_QUEST_GLOBAL_VAR_EQUAL",
          "_param": [
            "7323804",
            "1"
          ]
        },
        {
          "type": "QUEST_COND_QUEST_GLOBAL_VAR_EQUAL",
          "_param": [
            "7334501",
            "0"
          ]
        }
      ],
      "priority": 3,
      "initDialog": 732389101,
      "npcId": [
        20927
      ],
      "performCfg": "",
      "assetIndex": 17244921020865490473,
      "prePerformCfg": ""
    },
    {
      "id": 7323892,
      "beginWay": "TALK_BEGIN_MANUAL",
      "activeMode": "PLAY_MODE_HOST",
      "beginCond": [
        {
          "type": "QUEST_COND_QUEST_GLOBAL_VAR_EQUAL",
          "_param": [
            "7334501",
            "1"
          ]
        }
      ],
      "priority": 3,
      "initDialog": 732389201,
      "npcId": [
        20927
      ],
      "performCfg": "",
      "assetIndex": 5805731023254216461,
      "prePerformCfg": ""
    }
  ]
}