{
  "npcId": 20943,
  "talks": [
    {
      "id": 7308420,
      "beginWay": "TALK_BEGIN_MANUAL",
      "activeMode": "PLAY_MODE_ALL",
      "priority": 5,
      "initDialog": 730842001,
      "npcId": [
        20943
      ],
      "performCfg": "",
      "assetIndex": 1129062116096168871,
      "prePerformCfg": ""
    }
  ]
}