{
  "npcId": 2106,
  "talks": [
    {
      "id": 6210601,
      "beginWay": "TALK_BEGIN_MANUAL",
      "priority": 3,
      "nextTalks": [
        6210602,
        6210603
      ],
      "initDialog": 621060101,
      "npcId": [
        2106
      ],
      "performCfg": "",
      "assetIndex": 15969101062389572507,
      "prePerformCfg": "",
      "freeStyleList": [
        9000
      ]
    },
    {
      "id": 6210602,
      "beginWay": "TALK_BEGIN_MANUAL",
      "priority": 1,
      "initDialog": 621060201,
      "npcId": [
        2106
      ],
      "performCfg": "",
      "assetIndex": 9684817448498901441,
      "prePerformCfg": ""
    },
    {
      "id": 6210603,
      "beginWay": "TALK_BEGIN_MANUAL",
      "priority": 1,
      "initDialog": 621060301,
      "npcId": [
        2106
      ],
      "performCfg": "",
      "assetIndex": 12900868332618509656,
      "prePerformCfg": ""
    }
  ]
}