{
  "npcId": 21128,
  "talks": [
    {
      "id": 7410813,
      "beginWay": "TALK_BEGIN_MANUAL",
      "activeMode": "PLAY_MODE_HOST",
      "beginCond": [
        {
          "type": "QUEST_COND_GADGET_TALK_STATE_EQUAL",
          "_param": [
            "19001",
            "133403019",
            "3"
          ]
        }
      ],
      "priority": 5,
      "nextTalks": [
        7410814,
        7410815,
        7410816
      ],
      "initDialog": 741081301,
      "npcId": [
        21128
      ],
      "performCfg": "",
      "heroTalk": "TALK_HERO_MAIN",
      "assetIndex": 16109617043194118721,
      "prePerformCfg": ""
    },
    {
      "id": 7410814,
      "beginWay": "TALK_BEGIN_MANUAL",
      "activeMode": "PLAY_MODE_HOST",
      "beginCond": [
        {
          "type": "QUEST_COND_GADGET_TALK_STATE_EQUAL",
          "_param": [
            "19001",
            "133403019",
            "3"
          ]
        }
      ],
      "priority": 4,
      "initDialog": 741081401,
      "npcId": [
        21128
      ],
      "performCfg": "",
      "heroTalk": "TALK_HERO_MAIN",
      "assetIndex": 1379450204676100653,
      "prePerformCfg": "",
      "finishExec": [
        {
          "damageRatio": "TALK_EXEC_NOTIFY_GROUP_LUA",
          "param": [
            "7410801",
            "133403019"
          ]
        }
      ]
    },
    {
      "id": 7410815,
      "beginWay": "TALK_BEGIN_MANUAL",
      "activeMode": "PLAY_MODE_HOST",
      "beginCond": [
        {
          "type": "QUEST_COND_GADGET_TALK_STATE_EQUAL",
          "_param": [
            "19001",
            "133403019",
            "3"
          ]
        }
      ],
      "priority": 4,
      "nextTalks": [
        7410817,
        7410818,
        7410819,
        7410820
      ],
      "initDialog": 741081501,
      "npcId": [
        21128
      ],
      "performCfg": "",
      "heroTalk": "TALK_HERO_MAIN",
      "assetIndex": 10052667602054297372,
      "prePerformCfg": ""
    },
    {
      "id": 7410816,
      "beginWay": "TALK_BEGIN_MANUAL",
      "activeMode": "PLAY_MODE_HOST",
      "beginCond": [
        {
          "type": "QUEST_COND_GADGET_TALK_STATE_EQUAL",
          "_param": [
            "19001",
            "133403019",
            "3"
          ]
        }
      ],
      "priority": 4,
      "initDialog": 741081601,
      "npcId": [
        21128
      ],
      "performCfg": "",
      "heroTalk": "TALK_HERO_MAIN",
      "assetIndex": 9875558991777180095,
      "prePerformCfg": ""
    },
    {
      "id": 7410817,
      "beginWay": "TALK_BEGIN_MANUAL",
      "activeMode": "PLAY_MODE_HOST",
      "beginCond": [
        {
          "type": "QUEST_COND_GADGET_TALK_STATE_EQUAL",
          "_param": [
            "19001",
            "133403019",
            "3"
          ]
        }
      ],
      "priority": 3,
      "initDialog": 741081701,
      "npcId": [
        21128
      ],
      "performCfg": "",
      "heroTalk": "TALK_HERO_MAIN",
      "assetIndex": 3025895668738561577,
      "prePerformCfg": ""
    },
    {
      "id": 7410818,
      "beginWay": "TALK_BEGIN_MANUAL",
      "activeMode": "PLAY_MODE_HOST",
      "beginCond": [
        {
          "type": "QUEST_COND_GADGET_TALK_STATE_EQUAL",
          "_param": [
            "19001",
            "133403019",
            "3"
          ]
        }
      ],
      "priority": 3,
      "initDialog": 741081801,
      "npcId": [
        21128
      ],
      "performCfg": "",
      "heroTalk": "TALK_HERO_MAIN",
      "assetIndex": 14267432063202936404,
      "prePerformCfg": ""
    },
    {
      "id": 7410819,
      "beginWay": "TALK_BEGIN_MANUAL",
      "activeMode": "PLAY_MODE_HOST",
      "beginCond": [
        {
          "type": "QUEST_COND_GADGET_TALK_STATE_EQUAL",
          "_param": [
            "19001",
            "133403019",
            "3"
          ]
        }
      ],
      "priority": 3,
      "initDialog": 741081901,
      "npcId": [
        21128
      ],
      "performCfg": "",
      "heroTalk": "TALK_HERO_MAIN",
      "assetIndex": 3827763782794681023,
      "prePerformCfg": "",
      "finishExec": [
        {
          "damageRatio": "TALK_EXEC_NOTIFY_GROUP_LUA",
          "param": [
            "7410801",
            "133403019"
          ]
        }
      ]
    },
    {
      "id": 7410820,
      "beginWay": "TALK_BEGIN_MANUAL",
      "activeMode": "PLAY_MODE_HOST",
      "beginCond": [
        {
          "type": "QUEST_COND_GADGET_TALK_STATE_EQUAL",
          "_param": [
            "19001",
            "133403019",
            "3"
          ]
        }
      ],
      "priority": 3,
      "initDialog": 741082001,
      "npcId": [
        21128
      ],
      "performCfg": "",
      "heroTalk": "TALK_HERO_MAIN",
      "assetIndex": 3486738781619572672,
      "prePerformCfg": ""
    },
    {
      "id": 7410821,
      "beginWay": "TALK_BEGIN_MANUAL",
      "activeMode": "PLAY_MODE_HOST",
      "beginCond": [
        {
          "type": "QUEST_COND_GADGET_TALK_STATE_EQUAL",
          "_param": [
            "19001",
            "133403019",
            "2"
          ]
        }
      ],
      "priority": 5,
      "nextTalks": [
        7410853,
        7410856,
        7410857
      ],
      "initDialog": 741082101,
      "npcId": [
        21128
      ],
      "performCfg": "",
      "heroTalk": "TALK_HERO_MAIN",
      "assetIndex": 6383033174229292746,
      "prePerformCfg": ""
    },
    {
      "id": 7410822,
      "beginWay": "TALK_BEGIN_MANUAL",
      "activeMode": "PLAY_MODE_HOST",
      "beginCond": [
        {
          "type": "QUEST_COND_GADGET_TALK_STATE_EQUAL",
          "_param": [
            "5010",
            "133403005",
            "3"
          ]
        }
      ],
      "priority": 5,
      "nextTalks": [
        7410823,
        7410824,
        7410825
      ],
      "initDialog": 741082201,
      "npcId": [
        21128
      ],
      "performCfg": "",
      "heroTalk": "TALK_HERO_MAIN",
      "assetIndex": 2176910529581788951,
      "prePerformCfg": ""
    },
    {
      "id": 7410823,
      "beginWay": "TALK_BEGIN_MANUAL",
      "activeMode": "PLAY_MODE_HOST",
      "beginCond": [
        {
          "type": "QUEST_COND_GADGET_TALK_STATE_EQUAL",
          "_param": [
            "5010",
            "133403005",
            "3"
          ]
        }
      ],
      "priority": 4,
      "initDialog": 741082301,
      "npcId": [
        21128
      ],
      "performCfg": "",
      "heroTalk": "TALK_HERO_MAIN",
      "assetIndex": 12900908990398184560,
      "prePerformCfg": "",
      "finishExec": [
        {
          "damageRatio": "TALK_EXEC_NOTIFY_GROUP_LUA",
          "param": [
            "7410801",
            "133403005"
          ]
        }
      ]
    },
    {
      "id": 7410824,
      "beginWay": "TALK_BEGIN_MANUAL",
      "activeMode": "PLAY_MODE_HOST",
      "beginCond": [
        {
          "type": "QUEST_COND_GADGET_TALK_STATE_EQUAL",
          "_param": [
            "5010",
            "133403005",
            "3"
          ]
        }
      ],
      "priority": 4,
      "nextTalks": [
        7410826,
        7410827,
        7410828,
        7410829
      ],
      "initDialog": 741082401,
      "npcId": [
        21128
      ],
      "performCfg": "",
      "heroTalk": "TALK_HERO_MAIN",
      "assetIndex": 5936799929172511426,
      "prePerformCfg": ""
    },
    {
      "id": 7410825,
      "beginWay": "TALK_BEGIN_MANUAL",
      "activeMode": "PLAY_MODE_HOST",
      "beginCond": [
        {
          "type": "QUEST_COND_GADGET_TALK_STATE_EQUAL",
          "_param": [
            "5010",
            "133403005",
            "3"
          ]
        }
      ],
      "priority": 4,
      "initDialog": 741082501,
      "npcId": [
        21128
      ],
      "performCfg": "",
      "heroTalk": "TALK_HERO_MAIN",
      "assetIndex": 5639730009907053522,
      "prePerformCfg": ""
    },
    {
      "id": 7410826,
      "beginWay": "TALK_BEGIN_MANUAL",
      "activeMode": "PLAY_MODE_HOST",
      "beginCond": [
        {
          "type": "QUEST_COND_GADGET_TALK_STATE_EQUAL",
          "_param": [
            "5010",
            "133403005",
            "3"
          ]
        }
      ],
      "priority": 3,
      "initDialog": 741082601,
      "npcId": [
        21128
      ],
      "performCfg": "",
      "heroTalk": "TALK_HERO_MAIN",
      "assetIndex": 17390213346219017590,
      "prePerformCfg": ""
    },
    {
      "id": 7410827,
      "beginWay": "TALK_BEGIN_MANUAL",
      "activeMode": "PLAY_MODE_HOST",
      "beginCond": [
        {
          "type": "QUEST_COND_GADGET_TALK_STATE_EQUAL",
          "_param": [
            "5010",
            "133403005",
            "3"
          ]
        }
      ],
      "priority": 3,
      "nextTalks": [
        7410830,
        7410831
      ],
      "initDialog": 741082701,
      "npcId": [
        21128
      ],
      "performCfg": "",
      "heroTalk": "TALK_HERO_MAIN",
      "assetIndex": 18137606133278336801,
      "prePerformCfg": ""
    },
    {
      "id": 7410828,
      "beginWay": "TALK_BEGIN_MANUAL",
      "activeMode": "PLAY_MODE_HOST",
      "beginCond": [
        {
          "type": "QUEST_COND_GADGET_TALK_STATE_EQUAL",
          "_param": [
            "5010",
            "133403005",
            "3"
          ]
        }
      ],
      "priority": 3,
      "initDialog": 741082801,
      "npcId": [
        21128
      ],
      "performCfg": "",
      "heroTalk": "TALK_HERO_MAIN",
      "assetIndex": 13997316691637419966,
      "prePerformCfg": "",
      "finishExec": [
        {
          "damageRatio": "TALK_EXEC_NOTIFY_GROUP_LUA",
          "param": [
            "7410801",
            "133403005"
          ]
        }
      ]
    },
    {
      "id": 7410829,
      "beginWay": "TALK_BEGIN_MANUAL",
      "activeMode": "PLAY_MODE_HOST",
      "beginCond": [
        {
          "type": "QUEST_COND_GADGET_TALK_STATE_EQUAL",
          "_param": [
            "5010",
            "133403005",
            "3"
          ]
        }
      ],
      "priority": 3,
      "initDialog": 741082901,
      "npcId": [
        21128
      ],
      "performCfg": "",
      "heroTalk": "TALK_HERO_MAIN",
      "assetIndex": 9594851185647184673,
      "prePerformCfg": ""
    },
    {
      "id": 7410830,
      "beginWay": "TALK_BEGIN_MANUAL",
      "activeMode": "PLAY_MODE_HOST",
      "beginCond": [
        {
          "type": "QUEST_COND_GADGET_TALK_STATE_EQUAL",
          "_param": [
            "5010",
            "133403005",
            "3"
          ]
        }
      ],
      "priority": 2,
      "initDialog": 741083001,
      "npcId": [
        21128
      ],
      "performCfg": "",
      "heroTalk": "TALK_HERO_MAIN",
      "assetIndex": 13419855417769038000,
      "prePerformCfg": "",
      "finishExec": [
        {
          "damageRatio": "TALK_EXEC_NOTIFY_GROUP_LUA",
          "param": [
            "7410801",
            "133403005"
          ]
        }
      ]
    },
    {
      "id": 7410831,
      "beginWay": "TALK_BEGIN_MANUAL",
      "activeMode": "PLAY_MODE_HOST",
      "beginCond": [
        {
          "type": "QUEST_COND_GADGET_TALK_STATE_EQUAL",
          "_param": [
            "5010",
            "133403005",
            "3"
          ]
        }
      ],
      "priority": 2,
      "initDialog": 741083101,
      "npcId": [
        21128
      ],
      "performCfg": "",
      "heroTalk": "TALK_HERO_MAIN",
      "assetIndex": 18029411917774083915,
      "prePerformCfg": ""
    },
    {
      "id": 7410832,
      "beginWay": "TALK_BEGIN_MANUAL",
      "activeMode": "PLAY_MODE_HOST",
      "beginCond": [
        {
          "type": "QUEST_COND_GADGET_TALK_STATE_EQUAL",
          "_param": [
            "5010",
            "133403005",
            "2"
          ]
        }
      ],
      "priority": 5,
      "nextTalks": [
        7410858,
        7410859,
        7410860
      ],
      "initDialog": 741083201,
      "npcId": [
        21128
      ],
      "performCfg": "",
      "heroTalk": "TALK_HERO_MAIN",
      "assetIndex": 4468672132932433371,
      "prePerformCfg": ""
    },
    {
      "id": 7410853,
      "beginWay": "TALK_BEGIN_MANUAL",
      "activeMode": "PLAY_MODE_HOST",
      "beginCond": [
        {
          "type": "QUEST_COND_GADGET_TALK_STATE_EQUAL",
          "_param": [
            "19001",
            "133403019",
            "2"
          ]
        }
      ],
      "priority": 4,
      "nextTalks": [
        7410854,
        7410855
      ],
      "initDialog": 741085301,
      "npcId": [
        21128
      ],
      "performCfg": "",
      "heroTalk": "TALK_HERO_MAIN",
      "assetIndex": 13889099065534796922,
      "prePerformCfg": ""
    },
    {
      "id": 7410854,
      "beginWay": "TALK_BEGIN_MANUAL",
      "activeMode": "PLAY_MODE_HOST",
      "beginCond": [
        {
          "type": "QUEST_COND_GADGET_TALK_STATE_EQUAL",
          "_param": [
            "19001",
            "133403019",
            "2"
          ]
        }
      ],
      "priority": 3,
      "initDialog": 741085401,
      "npcId": [
        21128
      ],
      "performCfg": "",
      "heroTalk": "TALK_HERO_MAIN",
      "assetIndex": 13760809329670195498,
      "prePerformCfg": ""
    },
    {
      "id": 7410855,
      "beginWay": "TALK_BEGIN_MANUAL",
      "activeMode": "PLAY_MODE_HOST",
      "beginCond": [
        {
          "type": "QUEST_COND_GADGET_TALK_STATE_EQUAL",
          "_param": [
            "19001",
            "133403019",
            "2"
          ]
        }
      ],
      "priority": 3,
      "initDialog": 741085501,
      "npcId": [
        21128
      ],
      "performCfg": "",
      "heroTalk": "TALK_HERO_MAIN",
      "assetIndex": 2152786121233200153,
      "prePerformCfg": ""
    },
    {
      "id": 7410856,
      "beginWay": "TALK_BEGIN_MANUAL",
      "activeMode": "PLAY_MODE_HOST",
      "beginCond": [
        {
          "type": "QUEST_COND_GADGET_TALK_STATE_EQUAL",
          "_param": [
            "19001",
            "133403019",
            "2"
          ]
        }
      ],
      "priority": 4,
      "initDialog": 741085601,
      "npcId": [
        21128
      ],
      "performCfg": "",
      "heroTalk": "TALK_HERO_MAIN",
      "assetIndex": 7402464888468758906,
      "prePerformCfg": ""
    },
    {
      "id": 7410857,
      "beginWay": "TALK_BEGIN_MANUAL",
      "activeMode": "PLAY_MODE_HOST",
      "beginCond": [
        {
          "type": "QUEST_COND_GADGET_TALK_STATE_EQUAL",
          "_param": [
            "19001",
            "133403019",
            "2"
          ]
        }
      ],
      "priority": 4,
      "initDialog": 741085701,
      "npcId": [
        21128
      ],
      "performCfg": "",
      "heroTalk": "TALK_HERO_MAIN",
      "assetIndex": 15358173304183951641,
      "prePerformCfg": ""
    },
    {
      "id": 7410858,
      "beginWay": "TALK_BEGIN_MANUAL",
      "activeMode": "PLAY_MODE_HOST",
      "beginCond": [
        {
          "type": "QUEST_COND_GADGET_TALK_STATE_EQUAL",
          "_param": [
            "5010",
            "133403005",
            "2"
          ]
        }
      ],
      "priority": 4,
      "nextTalks": [
        7410861,
        7410862
      ],
      "initDialog": 741085801,
      "npcId": [
        21128
      ],
      "performCfg": "",
      "heroTalk": "TALK_HERO_MAIN",
      "assetIndex": 14432234869034254786,
      "prePerformCfg": ""
    },
    {
      "id": 7410859,
      "beginWay": "TALK_BEGIN_MANUAL",
      "activeMode": "PLAY_MODE_HOST",
      "beginCond": [
        {
          "type": "QUEST_COND_GADGET_TALK_STATE_EQUAL",
          "_param": [
            "5010",
            "133403005",
            "2"
          ]
        }
      ],
      "priority": 4,
      "initDialog": 741085901,
      "npcId": [
        21128
      ],
      "performCfg": "",
      "heroTalk": "TALK_HERO_MAIN",
      "assetIndex": 12908892425644394974,
      "prePerformCfg": ""
    },
    {
      "id": 7410860,
      "beginWay": "TALK_BEGIN_MANUAL",
      "activeMode": "PLAY_MODE_HOST",
      "beginCond": [
        {
          "type": "QUEST_COND_GADGET_TALK_STATE_EQUAL",
          "_param": [
            "5010",
            "133403005",
            "2"
          ]
        }
      ],
      "priority": 4,
      "initDialog": 741086001,
      "npcId": [
        21128
      ],
      "performCfg": "",
      "heroTalk": "TALK_HERO_MAIN",
      "assetIndex": 13879800076081962479,
      "prePerformCfg": ""
    },
    {
      "id": 7410861,
      "beginWay": "TALK_BEGIN_MANUAL",
      "activeMode": "PLAY_MODE_HOST",
      "beginCond": [
        {
          "type": "QUEST_COND_GADGET_TALK_STATE_EQUAL",
          "_param": [
            "5010",
            "133403005",
            "2"
          ]
        }
      ],
      "priority": 3,
      "initDialog": 741086101,
      "npcId": [
        21128
      ],
      "performCfg": "",
      "heroTalk": "TALK_HERO_MAIN",
      "assetIndex": 10522120726290881674,
      "prePerformCfg": ""
    },
    {
      "id": 7410862,
      "beginWay": "TALK_BEGIN_MANUAL",
      "activeMode": "PLAY_MODE_HOST",
      "beginCond": [
        {
          "type": "QUEST_COND_GADGET_TALK_STATE_EQUAL",
          "_param": [
            "5010",
            "133403005",
            "2"
          ]
        }
      ],
      "priority": 3,
      "initDialog": 741086201,
      "npcId": [
        21128
      ],
      "performCfg": "",
      "heroTalk": "TALK_HERO_MAIN",
      "assetIndex": 15283397217695416480,
      "prePerformCfg": ""
    }
  ]
}