{
  "npcId": 2112,
  "talks": [
    {
      "id": 6211201,
      "beginWay": "TALK_BEGIN_MANUAL",
      "priority": 3,
      "nextTalks": [
        6211202,
        6211203,
        6211204
      ],
      "initDialog": 621120101,
      "npcId": [
        2112
      ],
      "performCfg": "",
      "assetIndex": 14844863013370767606,
      "prePerformCfg": "",
      "freeStyleList": [
        9000
      ]
    },
    {
      "id": 6211202,
      "beginWay": "TALK_BEGIN_MANUAL",
      "priority": 1,
      "initDialog": 621120201,
      "npcId": [
        2112
      ],
      "performCfg": "",
      "assetIndex": 5718580311224838886,
      "prePerformCfg": ""
    },
    {
      "id": 6211203,
      "beginWay": "TALK_BEGIN_MANUAL",
      "priority": 1,
      "initDialog": 621120301,
      "npcId": [
        2112
      ],
      "performCfg": "",
      "assetIndex": 6444701411728385771,
      "prePerformCfg": ""
    },
    {
      "id": 6211204,
      "beginWay": "TALK_BEGIN_MANUAL",
      "priority": 1,
      "initDialog": 621120401,
      "npcId": [
        2112
      ],
      "performCfg": "",
      "assetIndex": 35293401586346677,
      "prePerformCfg": ""
    }
  ]
}