{
  "npcId": 2118,
  "talks": [
    {
      "id": 7194601,
      "beginWay": "TALK_BEGIN_MANUAL",
      "beginCondComb": "LOGIC_OR",
      "beginCond": [
        {
          "type": "QUEST_COND_QUEST_NOT_RECEIVE",
          "_param": [
            "7194601",
            "1"
          ]
        }
      ],
      "priority": 1,
      "initDialog": 719460101,
      "npcId": [
        2118
      ],
      "performCfg": "",
      "assetIndex": 8996635096625420781,
      "dontBlockDaily": true,
      "prePerformCfg": ""
    },
    {
      "id": 6211801,
      "beginWay": "TALK_BEGIN_MANUAL",
      "priority": 3,
      "nextTalks": [
        6211802,
        6211803
      ],
      "initDialog": 621180101,
      "npcId": [
        2118
      ],
      "performCfg": "",
      "assetIndex": 16820729337798846687,
      "prePerformCfg": "",
      "freeStyleList": [
        9000
      ]
    },
    {
      "id": 6211802,
      "beginWay": "TALK_BEGIN_MANUAL",
      "priority": 1,
      "nextTalks": [
        7194601
      ],
      "initDialog": 621180201,
      "npcId": [
        2118
      ],
      "performCfg": "",
      "assetIndex": 186883003341000740,
      "prePerformCfg": ""
    },
    {
      "id": 6211803,
      "beginWay": "TALK_BEGIN_MANUAL",
      "priority": 1,
      "initDialog": 621180301,
      "npcId": [
        2118
      ],
      "performCfg": "",
      "assetIndex": 6995959272342509426,
      "prePerformCfg": ""
    }
  ]
}