{
  "npcId": 21190,
  "talks": [
    {
      "id": 7410610,
      "beginWay": "TALK_BEGIN_MANUAL",
      "activeMode": "PLAY_MODE_ALL",
      "priority": 5,
      "npcId": [
        21190
      ],
      "performCfg": "QuestDialogue/WQ/Fontaine_74106/Q7410610",
      "assetIndex": 7389498333239828029,
      "prePerformCfg": ""
    }
  ]
}