{
  "npcId": 2119,
  "talks": [
    {
      "id": 6211901,
      "beginWay": "TALK_BEGIN_MANUAL",
      "priority": 3,
      "nextTalks": [
        6211902,
        6211903
      ],
      "initDialog": 621190101,
      "npcId": [
        2119
      ],
      "performCfg": "",
      "assetIndex": 1513974913610548932,
      "prePerformCfg": "",
      "freeStyleList": [
        9000
      ]
    },
    {
      "id": 6211902,
      "beginWay": "TALK_BEGIN_MANUAL",
      "priority": 1,
      "initDialog": 621190201,
      "npcId": [
        2119
      ],
      "performCfg": "",
      "assetIndex": 17973246866977550092,
      "prePerformCfg": ""
    },
    {
      "id": 6211903,
      "beginWay": "TALK_BEGIN_MANUAL",
      "priority": 1,
      "initDialog": 621190301,
      "npcId": [
        2119
      ],
      "performCfg": "",
      "assetIndex": 10081839478922067661,
      "prePerformCfg": ""
    }
  ]
}