{
  "npcId": 2125,
  "talks": [
    {
      "id": 4111541,
      "beginWay": "TALK_BEGIN_MANUAL",
      "activeMode": "PLAY_MODE_ALL",
      "beginCond": [
        {
          "type": "QUEST_COND_ACTIVITY_CLIENT_COND",
          "_param": [
            "2001",
            "2001001",
            "1"
          ]
        }
      ],
      "priority": 4,
      "nextTalks": [
        6212502,
        6212503,
        6212504
      ],
      "initDialog": 411154101,
      "npcId": [
        2125
      ],
      "performCfg": "",
      "assetIndex": 10853144803776714876,
      "prePerformCfg": ""
    },
    {
      "id": 6212501,
      "beginWay": "TALK_BEGIN_MANUAL",
      "priority": 3,
      "nextTalks": [
        6212502,
        6212503,
        6212504
      ],
      "initDialog": 621250101,
      "npcId": [
        2125
      ],
      "performCfg": "",
      "assetIndex": 16581396517154026041,
      "prePerformCfg": "",
      "freeStyleList": [
        9000
      ]
    },
    {
      "id": 6212502,
      "beginWay": "TALK_BEGIN_MANUAL",
      "priority": 1,
      "initDialog": 621250201,
      "npcId": [
        2125
      ],
      "performCfg": "",
      "assetIndex": 17697474194733840772,
      "prePerformCfg": ""
    },
    {
      "id": 6212503,
      "beginWay": "TALK_BEGIN_MANUAL",
      "priority": 1,
      "initDialog": 621250301,
      "npcId": [
        2125
      ],
      "performCfg": "",
      "assetIndex": 13224173012098322735,
      "prePerformCfg": ""
    },
    {
      "id": 6212504,
      "beginWay": "TALK_BEGIN_MANUAL",
      "priority": 1,
      "initDialog": 621250401,
      "npcId": [
        2125
      ],
      "performCfg": "",
      "assetIndex": 13553120273138733107,
      "prePerformCfg": ""
    }
  ]
}