{
  "npcId": 2126,
  "talks": [
    {
      "id": 6212601,
      "beginWay": "TALK_BEGIN_MANUAL",
      "priority": 3,
      "nextTalks": [
        6212602,
        6212603
      ],
      "initDialog": 621260101,
      "npcId": [
        2126
      ],
      "performCfg": "",
      "assetIndex": 3670274557360304263,
      "prePerformCfg": "",
      "freeStyleList": [
        9000
      ]
    },
    {
      "id": 6212602,
      "beginWay": "TALK_BEGIN_MANUAL",
      "priority": 1,
      "initDialog": 621260201,
      "npcId": [
        2126
      ],
      "performCfg": "",
      "assetIndex": 5729044397751891634,
      "prePerformCfg": ""
    },
    {
      "id": 6212603,
      "beginWay": "TALK_BEGIN_MANUAL",
      "priority": 1,
      "initDialog": 621260301,
      "npcId": [
        2126
      ],
      "performCfg": "",
      "assetIndex": 14708706797276918229,
      "prePerformCfg": ""
    }
  ]
}