{
  "npcId": 2127,
  "talks": [
    {
      "id": 6212701,
      "beginWay": "TALK_BEGIN_MANUAL",
      "priority": 3,
      "nextTalks": [
        6212702,
        6212703
      ],
      "initDialog": 621270101,
      "npcId": [
        2127
      ],
      "performCfg": "",
      "assetIndex": 13206584970781698311,
      "prePerformCfg": "",
      "freeStyleList": [
        9000
      ]
    },
    {
      "id": 6212702,
      "beginWay": "TALK_BEGIN_MANUAL",
      "priority": 1,
      "initDialog": 621270201,
      "npcId": [
        2127
      ],
      "performCfg": "",
      "assetIndex": 17009270115834063355,
      "prePerformCfg": ""
    },
    {
      "id": 6212703,
      "beginWay": "TALK_BEGIN_MANUAL",
      "priority": 1,
      "initDialog": 621270301,
      "npcId": [
        2127
      ],
      "performCfg": "",
      "assetIndex": 7548441341136805615,
      "prePerformCfg": ""
    }
  ]
}