{
  "npcId": 21343,
  "talks": [
    {
      "id": 7504501,
      "beginWay": "TALK_BEGIN_MANUAL",
      "activeMode": "PLAY_MODE_ALL",
      "priority": 5,
      "npcId": [
        21343
      ],
      "performCfg": "QuestDialogue/WQ/Natlan_75045/Q7504501",
      "assetIndex": 508115661319712642,
      "prePerformCfg": ""
    }
  ]
}