{
  "npcId": 2135,
  "talks": [
    {
      "id": 4111544,
      "beginWay": "TALK_BEGIN_MANUAL",
      "activeMode": "PLAY_MODE_ALL",
      "beginCond": [
        {
          "type": "QUEST_COND_ACTIVITY_CLIENT_COND",
          "_param": [
            "2001",
            "2001001",
            "1"
          ]
        }
      ],
      "priority": 4,
      "nextTalks": [
        4112607,
        6213502,
        6213503
      ],
      "initDialog": 411154401,
      "npcId": [
        2135
      ],
      "performCfg": "",
      "assetIndex": 4719366662600317519,
      "prePerformCfg": ""
    },
    {
      "id": 6213501,
      "beginWay": "TALK_BEGIN_MANUAL",
      "priority": 3,
      "nextTalks": [
        4112607,
        6213502,
        6213503
      ],
      "initDialog": 621350101,
      "npcId": [
        2135
      ],
      "performCfg": "",
      "assetIndex": 746724424648725668,
      "prePerformCfg": "",
      "freeStyleList": [
        9000
      ]
    },
    {
      "id": 6213502,
      "beginWay": "TALK_BEGIN_MANUAL",
      "priority": 1,
      "initDialog": 621350201,
      "npcId": [
        2135
      ],
      "performCfg": "",
      "assetIndex": 7805067608779901085,
      "prePerformCfg": ""
    },
    {
      "id": 6213503,
      "beginWay": "TALK_BEGIN_MANUAL",
      "priority": 1,
      "initDialog": 621350301,
      "npcId": [
        2135
      ],
      "performCfg": "",
      "assetIndex": 940809953651307930,
      "prePerformCfg": ""
    }
  ]
}