{
  "npcId": 21390,
  "talks": [
    {
      "id": 7421204,
      "beginWay": "TALK_BEGIN_MANUAL",
      "activeMode": "PLAY_MODE_ALL",
      "priority": 5,
      "npcId": [
        21390
      ],
      "performCfg": "QuestDialogue/WQ/Fontaine_74212/Q7421204",
      "assetIndex": 15565778197585721710,
      "prePerformCfg": ""
    }
  ]
}