{
  "npcId": 2143,
  "talks": [
    {
      "id": 6214306,
      "beginWay": "TALK_BEGIN_MANUAL",
      "beginCond": [
        {
          "type": "QUEST_COND_STATE_EQUAL",
          "_param": [
            "1101508",
            "3"
          ]
        }
      ],
      "priority": 3,
      "nextTalks": [
        6214307,
        6214308,
        6214309
      ],
      "initDialog": 621430601,
      "npcId": [
        2143
      ],
      "performCfg": "",
      "assetIndex": 16506728724531153984,
      "prePerformCfg": ""
    },
    {
      "id": 6214307,
      "beginCond": [
        {
          "type": "QUEST_COND_STATE_EQUAL",
          "_param": [
            "1101508",
            "3"
          ]
        }
      ],
      "priority": 1,
      "nextTalks": [
        7195101
      ],
      "initDialog": 621430701,
      "npcId": [
        2143
      ],
      "performCfg": "",
      "assetIndex": 14363459927663344041,
      "prePerformCfg": ""
    },
    {
      "id": 6214308,
      "beginCond": [
        {
          "type": "QUEST_COND_STATE_EQUAL",
          "_param": [
            "1101508",
            "3"
          ]
        }
      ],
      "priority": 1,
      "initDialog": 621430801,
      "npcId": [
        2143
      ],
      "performCfg": "",
      "assetIndex": 11039560782020816160,
      "prePerformCfg": ""
    },
    {
      "id": 6214309,
      "beginCond": [
        {
          "type": "QUEST_COND_STATE_EQUAL",
          "_param": [
            "1101508",
            "3"
          ]
        }
      ],
      "priority": 1,
      "initDialog": 621430901,
      "npcId": [
        2143
      ],
      "performCfg": "",
      "assetIndex": 14304234603548298219,
      "prePerformCfg": ""
    },
    {
      "id": 7195101,
      "beginWay": "TALK_BEGIN_MANUAL",
      "beginCondComb": "LOGIC_OR",
      "beginCond": [
        {
          "type": "QUEST_COND_QUEST_NOT_RECEIVE",
          "_param": [
            "7195101",
            "1"
          ]
        }
      ],
      "priority": 1,
      "initDialog": 719510101,
      "npcId": [
        2143
      ],
      "performCfg": "",
      "assetIndex": 6519355567028680020,
      "dontBlockDaily": true,
      "prePerformCfg": ""
    },
    {
      "id": 6214301,
      "beginWay": "TALK_BEGIN_MANUAL",
      "beginCondComb": "LOGIC_OR",
      "beginCond": [
        {
          "type": "QUEST_COND_STATE_NOT_EQUAL",
          "_param": [
            "1101508",
            "3"
          ]
        },
        {
          "type": "QUEST_COND_QUEST_NOT_RECEIVE",
          "_param": [
            "1101508",
            "1"
          ]
        }
      ],
      "priority": 3,
      "nextTalks": [
        6214302,
        6214303,
        6214304
      ],
      "initDialog": 621430101,
      "npcId": [
        2143
      ],
      "performCfg": "",
      "assetIndex": 15587001237858466633,
      "prePerformCfg": ""
    },
    {
      "id": 6214302,
      "beginWay": "TALK_BEGIN_MANUAL",
      "beginCondComb": "LOGIC_OR",
      "beginCond": [
        {
          "type": "QUEST_COND_STATE_NOT_EQUAL",
          "_param": [
            "1101508",
            "3"
          ]
        },
        {
          "type": "QUEST_COND_QUEST_NOT_RECEIVE",
          "_param": [
            "1101508",
            "1"
          ]
        }
      ],
      "priority": 1,
      "nextTalks": [
        6214305,
        7195101
      ],
      "initDialog": 621430201,
      "npcId": [
        2143
      ],
      "performCfg": "",
      "assetIndex": 18337545854654044898,
      "prePerformCfg": ""
    },
    {
      "id": 6214303,
      "beginWay": "TALK_BEGIN_MANUAL",
      "beginCondComb": "LOGIC_OR",
      "beginCond": [
        {
          "type": "QUEST_COND_STATE_NOT_EQUAL",
          "_param": [
            "1101508",
            "3"
          ]
        },
        {
          "type": "QUEST_COND_QUEST_NOT_RECEIVE",
          "_param": [
            "1101508",
            "1"
          ]
        }
      ],
      "priority": 1,
      "initDialog": 621430301,
      "npcId": [
        2143
      ],
      "performCfg": "",
      "assetIndex": 13573477554250067317,
      "prePerformCfg": ""
    },
    {
      "id": 6214304,
      "beginWay": "TALK_BEGIN_MANUAL",
      "beginCondComb": "LOGIC_OR",
      "beginCond": [
        {
          "type": "QUEST_COND_STATE_NOT_EQUAL",
          "_param": [
            "1101508",
            "3"
          ]
        },
        {
          "type": "QUEST_COND_QUEST_NOT_RECEIVE",
          "_param": [
            "1101508",
            "1"
          ]
        }
      ],
      "priority": 1,
      "initDialog": 621430401,
      "npcId": [
        2143
      ],
      "performCfg": "",
      "assetIndex": 14497070550910555062,
      "prePerformCfg": ""
    },
    {
      "id": 6214305,
      "beginWay": "TALK_BEGIN_MANUAL",
      "beginCondComb": "LOGIC_OR",
      "beginCond": [
        {
          "type": "QUEST_COND_STATE_NOT_EQUAL",
          "_param": [
            "1101508",
            "3"
          ]
        },
        {
          "type": "QUEST_COND_QUEST_NOT_RECEIVE",
          "_param": [
            "1101508",
            "1"
          ]
        }
      ],
      "priority": 1,
      "initDialog": 621430501,
      "npcId": [
        2143
      ],
      "performCfg": "",
      "assetIndex": 2124849207888289052,
      "prePerformCfg": ""
    }
  ]
}