{
  "npcId": 2145,
  "talks": [
    {
      "id": 6214501,
      "beginWay": "TALK_BEGIN_MANUAL",
      "priority": 3,
      "nextTalks": [
        6214505,
        6214502,
        6214503,
        6214504
      ],
      "initDialog": 621450101,
      "npcId": [
        2145
      ],
      "performCfg": "",
      "assetIndex": 13576274990109889238,
      "prePerformCfg": "",
      "freeStyleList": [
        9000
      ]
    },
    {
      "id": 6214502,
      "beginWay": "TALK_BEGIN_MANUAL",
      "priority": 1,
      "initDialog": 621450201,
      "npcId": [
        2145
      ],
      "performCfg": "",
      "assetIndex": 13886267888116592140,
      "prePerformCfg": ""
    },
    {
      "id": 6214503,
      "beginWay": "TALK_BEGIN_MANUAL",
      "priority": 1,
      "initDialog": 621450301,
      "npcId": [
        2145
      ],
      "performCfg": "",
      "assetIndex": 13095506572786621612,
      "prePerformCfg": ""
    },
    {
      "id": 6214504,
      "beginWay": "TALK_BEGIN_MANUAL",
      "priority": 1,
      "initDialog": 621450401,
      "npcId": [
        2145
      ],
      "performCfg": "",
      "assetIndex": 4344274400574901716,
      "prePerformCfg": ""
    },
    {
      "id": 6214505,
      "beginWay": "TALK_BEGIN_MANUAL",
      "beginCondComb": "LOGIC_AND",
      "beginCond": [
        {
          "type": "QUEST_COND_STATE_EQUAL",
          "_param": [
            "101320",
            "3"
          ]
        },
        {
          "type": "QUEST_COND_PACK_HAVE_ITEM",
          "_param": [
            "100496",
            "1"
          ]
        }
      ],
      "priority": 1,
      "initDialog": 621450501,
      "npcId": [
        2145
      ],
      "performCfg": "",
      "assetIndex": 11699061076066942797,
      "prePerformCfg": ""
    },
    {
      "id": 6214506,
      "beginWay": "TALK_BEGIN_MANUAL",
      "beginCondComb": "LOGIC_AND",
      "beginCond": [
        {
          "type": "QUEST_COND_STATE_EQUAL",
          "_param": [
            "1101123",
            "3"
          ]
        },
        {
          "type": "QUEST_COND_PACK_HAVE_ITEM",
          "_param": [
            "100555",
            "1"
          ]
        }
      ],
      "priority": 2,
      "initDialog": 621450601,
      "npcId": [
        2145
      ],
      "performCfg": "",
      "assetIndex": 11072758598570316422,
      "prePerformCfg": ""
    },
    {
      "id": 6214507,
      "beginWay": "TALK_BEGIN_MANUAL",
      "beginCondComb": "LOGIC_AND",
      "beginCond": [
        {
          "type": "QUEST_COND_STATE_EQUAL",
          "_param": [
            "1101123",
            "3"
          ]
        },
        {
          "type": "QUEST_COND_PACK_HAVE_ITEM",
          "_param": [
            "100555",
            "1"
          ]
        }
      ],
      "priority": 5,
      "nextTalks": [
        6214506,
        6214502,
        6214503,
        6214504
      ],
      "initDialog": 621450101,
      "npcId": [
        2145
      ],
      "performCfg": "",
      "assetIndex": 2242627629870513619,
      "prePerformCfg": "",
      "freeStyleList": [
        9000
      ]
    }
  ]
}