{
  "npcId": 2146,
  "talks": [
    {
      "id": 6214601,
      "beginWay": "TALK_BEGIN_MANUAL",
      "beginCond": [
        {
          "type": "QUEST_COND_IS_DAYTIME",
          "_param": [
            "1"
          ]
        }
      ],
      "priority": 3,
      "initDialog": 621460101,
      "npcId": [
        2146
      ],
      "performCfg": "",
      "assetIndex": 6201012621905075715,
      "prePerformCfg": "",
      "freeStyleList": [
        9000
      ]
    },
    {
      "id": 6214602,
      "beginWay": "TALK_BEGIN_MANUAL",
      "beginCond": [
        {
          "type": "QUEST_COND_IS_DAYTIME",
          "_param": [
            "0"
          ]
        }
      ],
      "priority": 3,
      "initDialog": 621460201,
      "npcId": [
        2146
      ],
      "performCfg": "",
      "assetIndex": 8520005470194199701,
      "prePerformCfg": "",
      "freeStyleList": [
        9000
      ]
    }
  ]
}