{
  "npcId": 21491,
  "talks": [
    {
      "id": 7505406,
      "beginWay": "TALK_BEGIN_MANUAL",
      "activeMode": "PLAY_MODE_HOST",
      "beginCond": [
        {
          "type": "QUEST_COND_STATE_EQUAL",
          "_param": [
            "99902",
            "3"
          ]
        }
      ],
      "priority": 4,
      "initDialog": 750540601,
      "npcId": [
        21491
      ],
      "performCfg": "",
      "assetIndex": 17027184232531021967,
      "prePerformCfg": ""
    },
    {
      "id": 7505407,
      "beginWay": "TALK_BEGIN_MANUAL",
      "activeMode": "PLAY_MODE_HOST",
      "priority": 5,
      "initDialog": 750540701,
      "npcId": [
        21491
      ],
      "performCfg": "",
      "assetIndex": 7167571074201195882,
      "prePerformCfg": ""
    }
  ]
}