{
  "npcId": 2149,
  "talks": [
    {
      "id": 4111545,
      "beginWay": "TALK_BEGIN_MANUAL",
      "activeMode": "PLAY_MODE_ALL",
      "beginCond": [
        {
          "type": "QUEST_COND_ACTIVITY_CLIENT_COND",
          "_param": [
            "2001",
            "2001001",
            "1"
          ]
        }
      ],
      "priority": 4,
      "nextTalks": [
        6214902,
        6214903
      ],
      "initDialog": 411154501,
      "npcId": [
        2149
      ],
      "performCfg": "",
      "assetIndex": 18380989608908177225,
      "prePerformCfg": ""
    },
    {
      "id": 6214901,
      "beginWay": "TALK_BEGIN_MANUAL",
      "priority": 3,
      "nextTalks": [
        6214902,
        6214903
      ],
      "initDialog": 621490101,
      "npcId": [
        2149
      ],
      "performCfg": "",
      "assetIndex": 11712248092599735732,
      "prePerformCfg": "",
      "freeStyleList": [
        9000
      ]
    },
    {
      "id": 6214902,
      "beginWay": "TALK_BEGIN_MANUAL",
      "priority": 1,
      "initDialog": 621490201,
      "npcId": [
        2149
      ],
      "performCfg": "",
      "assetIndex": 8288074939565017182,
      "prePerformCfg": ""
    },
    {
      "id": 6214903,
      "beginWay": "TALK_BEGIN_MANUAL",
      "priority": 1,
      "initDialog": 621490301,
      "npcId": [
        2149
      ],
      "performCfg": "",
      "assetIndex": 6903073935494865148,
      "prePerformCfg": ""
    }
  ]
}