{
  "npcId": 21497,
  "talks": [
    {
      "id": 7502404,
      "beginWay": "TALK_BEGIN_MANUAL",
      "beginCondComb": "LOGIC_AND",
      "beginCond": [
        {
          "type": "QUEST_COND_STATE_EQUAL",
          "_param": [
            "7502408",
            "3"
          ]
        },
        {
          "type": "QUEST_COND_QUEST_GLOBAL_VAR_EQUAL",
          "_param": [
            "7502401",
            "0"
          ]
        }
      ],
      "priority": 5,
      "initDialog": 750240401,
      "npcId": [
        21497
      ],
      "performCfg": "",
      "assetIndex": 2847453249656311121,
      "prePerformCfg": ""
    },
    {
      "id": 7502450,
      "beginWay": "TALK_BEGIN_MANUAL",
      "beginCond": [
        {
          "type": "QUEST_COND_STATE_EQUAL",
          "_param": [
            "7502408",
            "3"
          ]
        },
        {
          "type": "QUEST_COND_IN_VEHICLE",
          "_param": [
            "0"
          ]
        },
        {
          "type": "QUEST_COND_QUEST_GLOBAL_VAR_EQUAL",
          "_param": [
            "7502401",
            "1"
          ]
        }
      ],
      "priority": 10,
      "initDialog": 750245001,
      "npcId": [
        21497
      ],
      "performCfg": "",
      "assetIndex": 1569123542181074900,
      "prePerformCfg": "",
      "GPONOMBBGJI": true
    },
    {
      "id": 7502451,
      "beginWay": "TALK_BEGIN_MANUAL",
      "beginCond": [
        {
          "type": "QUEST_COND_STATE_EQUAL",
          "_param": [
            "7502408",
            "3"
          ]
        },
        {
          "type": "QUEST_COND_QUEST_GLOBAL_VAR_EQUAL",
          "_param": [
            "7502401",
            "1"
          ]
        }
      ],
      "priority": 5,
      "initDialog": 750245101,
      "npcId": [
        21497
      ],
      "performCfg": "",
      "assetIndex": 17372065861112387472,
      "prePerformCfg": ""
    }
  ]
}