{
  "npcId": 2153,
  "talks": [
    {
      "id": 6215301,
      "beginWay": "TALK_BEGIN_MANUAL",
      "priority": 3,
      "nextTalks": [
        6215302,
        6215303
      ],
      "initDialog": 621530101,
      "npcId": [
        2153
      ],
      "performCfg": "",
      "assetIndex": 9122007731848961542,
      "prePerformCfg": ""
    },
    {
      "id": 6215302,
      "priority": 1,
      "initDialog": 621530201,
      "npcId": [
        2153
      ],
      "performCfg": "",
      "assetIndex": 8682666538127285498,
      "prePerformCfg": ""
    },
    {
      "id": 6215303,
      "priority": 1,
      "initDialog": 621530301,
      "npcId": [
        2153
      ],
      "performCfg": "",
      "assetIndex": 1591305447475916304,
      "prePerformCfg": ""
    }
  ]
}