{
  "npcId": 2163,
  "talks": [
    {
      "id": 7104109,
      "beginWay": "TALK_BEGIN_MANUAL",
      "activeMode": "PLAY_MODE_ALL",
      "priority": 5,
      "initDialog": 710410901,
      "npcId": [
        2163
      ],
      "performCfg": "",
      "assetIndex": 6032328575986041007,
      "prePerformCfg": ""
    }
  ]
}