{
  "npcId": 21726,
  "talks": [
    {
      "id": 7501323,
      "beginWay": "TALK_BEGIN_MANUAL",
      "activeMode": "PLAY_MODE_ALL",
      "priority": 5,
      "npcId": [
        21726
      ],
      "performCfg": "QuestDialogue/WQ/Natlan_75013/Q7501323",
      "assetIndex": 4336817303645347813,
      "prePerformCfg": "",
      "stayFreeStyle": true,
      "lowPriority": true
    }
  ]
}