{
  "npcId": 2177,
  "talks": [
    {
      "id": 7103607,
      "beginWay": "TALK_BEGIN_MANUAL",
      "activeMode": "PLAY_MODE_ALL",
      "priority": 5,
      "initDialog": 710360701,
      "npcId": [
        2177
      ],
      "performCfg": "",
      "assetIndex": 1694263937466338511,
      "prePerformCfg": ""
    }
  ]
}