{
  "npcId": 2191,
  "talks": [
    {
      "id": 7103725,
      "beginWay": "TALK_BEGIN_MANUAL",
      "activeMode": "PLAY_MODE_ALL",
      "initDialog": 710372501,
      "npcId": [
        2191
      ],
      "performCfg": "",
      "assetIndex": 1980776089177384877,
      "prePerformCfg": ""
    }
  ]
}