{
  "npcId": 2198,
  "talks": [
    {
      "id": 6219801,
      "beginWay": "TALK_BEGIN_MANUAL",
      "priority": 3,
      "nextTalks": [
        6219802,
        6219803,
        6219804
      ],
      "initDialog": 621980101,
      "npcId": [
        2198
      ],
      "performCfg": "",
      "assetIndex": 8955837286945652980,
      "prePerformCfg": ""
    },
    {
      "id": 6219802,
      "priority": 1,
      "nextTalks": [
        6219805,
        6219806
      ],
      "initDialog": 621980201,
      "npcId": [
        2198
      ],
      "performCfg": "",
      "assetIndex": 16365724598371719329,
      "prePerformCfg": ""
    },
    {
      "id": 6219803,
      "priority": 1,
      "initDialog": 621980301,
      "npcId": [
        2198
      ],
      "performCfg": "",
      "assetIndex": 17490882553785929362,
      "prePerformCfg": ""
    },
    {
      "id": 6219804,
      "priority": 1,
      "initDialog": 621980401,
      "npcId": [
        2198
      ],
      "performCfg": "",
      "assetIndex": 1776556268432495608,
      "prePerformCfg": ""
    },
    {
      "id": 6219805,
      "priority": 1,
      "initDialog": 621980501,
      "npcId": [
        2198
      ],
      "performCfg": "",
      "assetIndex": 11850366096432599385,
      "prePerformCfg": ""
    },
    {
      "id": 6219806,
      "priority": 1,
      "initDialog": 621980601,
      "npcId": [
        2198
      ],
      "performCfg": "",
      "assetIndex": 17432043424534130896,
      "prePerformCfg": ""
    }
  ]
}