{
  "npcId": 2202,
  "talks": [
    {
      "id": 4111535,
      "beginWay": "TALK_BEGIN_MANUAL",
      "activeMode": "PLAY_MODE_ALL",
      "beginCond": [
        {
          "type": "QUEST_COND_ACTIVITY_CLIENT_COND",
          "_param": [
            "2001",
            "2001001",
            "1"
          ]
        }
      ],
      "priority": 4,
      "nextTalks": [
        6220202,
        6220203,
        6220204
      ],
      "initDialog": 411153501,
      "npcId": [
        2202
      ],
      "performCfg": "",
      "assetIndex": 8566666984603501807,
      "prePerformCfg": ""
    },
    {
      "id": 6220205,
      "beginWay": "TALK_BEGIN_MANUAL",
      "activeMode": "PLAY_MODE_HOST",
      "beginCond": [
        {
          "type": "QUEST_COND_GCG_LEVEL_UNLOCKED",
          "_param": [
            "6220205"
          ]
        }
      ],
      "priority": 1,
      "initDialog": 622020501,
      "npcId": [
        2202
      ],
      "performCfg": "",
      "assetIndex": 2917119755621572354,
      "prePerformCfg": ""
    },
    {
      "id": 6220206,
      "beginWay": "TALK_BEGIN_MANUAL",
      "activeMode": "PLAY_MODE_HOST",
      "beginCond": [
        {
          "type": "QUEST_COND_GCG_LEVEL_UNLOCKED",
          "_param": [
            "6220206"
          ]
        }
      ],
      "priority": 1,
      "initDialog": 622020601,
      "npcId": [
        2202
      ],
      "performCfg": "",
      "assetIndex": 4592950366254010125,
      "prePerformCfg": ""
    },
    {
      "id": 6220207,
      "beginWay": "TALK_BEGIN_AUTO",
      "activeMode": "PLAY_MODE_HOST",
      "beginCond": [
        {
          "type": "QUEST_COND_GCG_WORLD_CHALLENGE_RESULT",
          "_param": [
            "1",
            "2202",
            "6220205"
          ]
        }
      ],
      "priority": 10,
      "initDialog": 622020701,
      "npcId": [
        2202
      ],
      "performCfg": "",
      "assetIndex": 14147167695068169656,
      "prePerformCfg": ""
    },
    {
      "id": 6220208,
      "beginWay": "TALK_BEGIN_AUTO",
      "activeMode": "PLAY_MODE_HOST",
      "beginCond": [
        {
          "type": "QUEST_COND_GCG_WORLD_CHALLENGE_RESULT",
          "_param": [
            "-1",
            "2202",
            "6220205"
          ]
        }
      ],
      "priority": 10,
      "initDialog": 622020801,
      "npcId": [
        2202
      ],
      "performCfg": "",
      "assetIndex": 6207290333464115433,
      "prePerformCfg": ""
    },
    {
      "id": 6220209,
      "beginWay": "TALK_BEGIN_AUTO",
      "activeMode": "PLAY_MODE_HOST",
      "beginCond": [
        {
          "type": "QUEST_COND_GCG_WORLD_CHALLENGE_RESULT",
          "_param": [
            "1",
            "2202",
            "6220206"
          ]
        }
      ],
      "priority": 10,
      "initDialog": 622020901,
      "npcId": [
        2202
      ],
      "performCfg": "",
      "assetIndex": 7931673928765905237,
      "prePerformCfg": ""
    },
    {
      "id": 6220210,
      "beginWay": "TALK_BEGIN_AUTO",
      "activeMode": "PLAY_MODE_HOST",
      "beginCond": [
        {
          "type": "QUEST_COND_GCG_WORLD_CHALLENGE_RESULT",
          "_param": [
            "-1",
            "2202",
            "6220206"
          ]
        }
      ],
      "priority": 10,
      "initDialog": 622021001,
      "npcId": [
        2202
      ],
      "performCfg": "",
      "assetIndex": 6620270487368055964,
      "prePerformCfg": ""
    },
    {
      "id": 6220211,
      "beginWay": "TALK_BEGIN_MANUAL",
      "activeMode": "PLAY_MODE_HOST",
      "beginCond": [
        {
          "type": "QUEST_COND_GCG_LEVEL_UNLOCKED",
          "_param": [
            "6220211"
          ]
        }
      ],
      "priority": 1,
      "initDialog": 622021101,
      "npcId": [
        2202
      ],
      "performCfg": "",
      "assetIndex": 3257946567586815413,
      "prePerformCfg": ""
    },
    {
      "id": 6220212,
      "beginWay": "TALK_BEGIN_AUTO",
      "activeMode": "PLAY_MODE_HOST",
      "beginCond": [
        {
          "type": "QUEST_COND_GCG_WORLD_CHALLENGE_RESULT",
          "_param": [
            "-1",
            "2202",
            "6220211"
          ]
        }
      ],
      "priority": 10,
      "initDialog": 622021201,
      "npcId": [
        2202
      ],
      "performCfg": "",
      "assetIndex": 7274936627112294225,
      "prePerformCfg": ""
    },
    {
      "id": 6220213,
      "beginWay": "TALK_BEGIN_AUTO",
      "activeMode": "PLAY_MODE_HOST",
      "beginCond": [
        {
          "type": "QUEST_COND_GCG_WORLD_CHALLENGE_RESULT",
          "_param": [
            "1",
            "2202",
            "6220211"
          ]
        }
      ],
      "priority": 10,
      "initDialog": 622021301,
      "npcId": [
        2202
      ],
      "performCfg": "",
      "assetIndex": 18378291053039887626,
      "prePerformCfg": ""
    },
    {
      "id": 6220201,
      "beginWay": "TALK_BEGIN_MANUAL",
      "activeMode": "PLAY_MODE_HOST",
      "priority": 3,
      "nextTalks": [
        6220211,
        6220202,
        6220203,
        6220204
      ],
      "initDialog": 622020101,
      "npcId": [
        2202
      ],
      "performCfg": "",
      "assetIndex": 6065935781730531959,
      "prePerformCfg": "",
      "freeStyleList": [
        9000
      ]
    },
    {
      "id": 6220202,
      "beginWay": "TALK_BEGIN_MANUAL",
      "priority": 1,
      "initDialog": 622020201,
      "npcId": [
        2202
      ],
      "performCfg": "",
      "assetIndex": 1707585122104258420,
      "prePerformCfg": ""
    },
    {
      "id": 6220203,
      "beginWay": "TALK_BEGIN_MANUAL",
      "priority": 1,
      "initDialog": 622020301,
      "npcId": [
        2202
      ],
      "performCfg": "",
      "assetIndex": 12263539995244518068,
      "prePerformCfg": ""
    },
    {
      "id": 6220204,
      "beginWay": "TALK_BEGIN_MANUAL",
      "activeMode": "PLAY_MODE_HOST",
      "priority": 1,
      "initDialog": 622020401,
      "npcId": [
        2202
      ],
      "performCfg": "",
      "assetIndex": 9698797728672287002,
      "prePerformCfg": ""
    }
  ]
}