{
  "npcId": 2236,
  "talks": [
    {
      "id": 7111701,
      "beginWay": "TALK_BEGIN_MANUAL",
      "activeMode": "PLAY_MODE_HOST",
      "priority": 3,
      "initDialog": 711170101,
      "npcId": [
        2236
      ],
      "performCfg": "QuestDialogue/WQ/3115_71117/Q7111701",
      "assetIndex": 6142011395427013491,
      "prePerformCfg": ""
    }
  ]
}