{
  "npcId": 2237,
  "talks": [
    {
      "id": 6223701,
      "beginWay": "TALK_BEGIN_MANUAL",
      "activeMode": "PLAY_MODE_HOST",
      "priority": 3,
      "initDialog": 622370101,
      "npcId": [
        2237
      ],
      "performCfg": "",
      "assetIndex": 7623079386147279876,
      "prePerformCfg": ""
    }
  ]
}