{
  "npcId": 2243,
  "talks": [
    {
      "id": 6224301,
      "beginWay": "TALK_BEGIN_MANUAL",
      "activeMode": "PLAY_MODE_HOST",
      "priority": 3,
      "initDialog": 622430101,
      "npcId": [
        2243
      ],
      "performCfg": "",
      "assetIndex": 15994451543197798196,
      "prePerformCfg": ""
    }
  ]
}