{
  "npcId": 2247,
  "talks": [
    {
      "id": 6224701,
      "beginWay": "TALK_BEGIN_MANUAL",
      "activeMode": "PLAY_MODE_HOST",
      "priority": 3,
      "initDialog": 622470101,
      "npcId": [
        2247
      ],
      "performCfg": "",
      "assetIndex": 4369095508937279033,
      "prePerformCfg": ""
    }
  ]
}