{
  "npcId": 2252,
  "talks": [
    {
      "id": 6225201,
      "beginWay": "TALK_BEGIN_MANUAL",
      "activeMode": "PLAY_MODE_HOST",
      "beginCond": [
        {
          "type": "QUEST_COND_STATE_EQUAL",
          "_param": [
            "7111608",
            "3"
          ]
        }
      ],
      "priority": 3,
      "initDialog": 622520101,
      "npcId": [
        2252
      ],
      "performCfg": "",
      "heroTalk": "TALK_HERO_MAIN",
      "assetIndex": 1448976287925550375,
      "prePerformCfg": ""
    }
  ]
}