{
  "npcId": 2260,
  "talks": [
    {
      "id": 6226001,
      "beginWay": "TALK_BEGIN_MANUAL",
      "priority": 3,
      "nextTalks": [
        6226002,
        6226003
      ],
      "initDialog": 622600101,
      "npcId": [
        2260
      ],
      "performCfg": "",
      "assetIndex": 8483816137594558959,
      "prePerformCfg": "",
      "freeStyleList": [
        1200
      ]
    },
    {
      "id": 6226002,
      "priority": 1,
      "nextTalks": [
        6226004
      ],
      "initDialog": 622600201,
      "npcId": [
        2260
      ],
      "performCfg": "",
      "assetIndex": 5636985677323078823,
      "prePerformCfg": "",
      "freeStyleList": [
        1130,
        1171,
        1172,
        1173
      ]
    },
    {
      "id": 6226003,
      "priority": 1,
      "initDialog": 622600301,
      "npcId": [
        2260
      ],
      "performCfg": "",
      "assetIndex": 3720960313882742909,
      "prePerformCfg": "",
      "freeStyleList": [
        4030
      ]
    },
    {
      "id": 6226004,
      "priority": 1,
      "nextTalks": [
        6226005
      ],
      "initDialog": 622600401,
      "npcId": [
        2260
      ],
      "performCfg": "",
      "assetIndex": 7459295207877618339,
      "prePerformCfg": "",
      "freeStyleList": [
        1230,
        1171,
        1172,
        1173
      ]
    },
    {
      "id": 6226005,
      "priority": 1,
      "initDialog": 622600501,
      "npcId": [
        2260
      ],
      "performCfg": "",
      "assetIndex": 16975109490077294385,
      "prePerformCfg": "",
      "freeStyleList": [
        1171,
        1172,
        1173
      ]
    }
  ]
}