{
  "npcId": 23,
  "talks": [
    {
      "id": 31003,
      "beginWay": "TALK_BEGIN_MANUAL",
      "activeMode": "PLAY_MODE_ALL",
      "priority": 1,
      "initDialog": 3100301,
      "npcId": [
        23
      ],
      "performCfg": "",
      "assetIndex": 16263047442511568250,
      "prePerformCfg": ""
    }
  ]
}