{
  "npcId": 230301,
  "talks": [
    {
      "id": 2101811,
      "beginWay": "TALK_BEGIN_MANUAL",
      "beginCond": [
        {
          "type": "QUEST_COND_STATE_EQUAL",
          "_param": [
            "2101801",
            "3"
          ]
        }
      ],
      "priority": 9,
      "initDialog": 210181101,
      "npcId": [
        230301
      ],
      "performCfg": "",
      "assetIndex": 266468609206058202,
      "prePerformCfg": ""
    },
    {
      "id": 2101812,
      "beginWay": "TALK_BEGIN_MANUAL",
      "beginCond": [
        {
          "type": "QUEST_COND_STATE_EQUAL",
          "_param": [
            "2101807",
            "3"
          ]
        }
      ],
      "priority": 10,
      "initDialog": 210181201,
      "npcId": [
        230301
      ],
      "performCfg": "",
      "assetIndex": 1188494574146736571,
      "prePerformCfg": ""
    },
    {
      "id": 2101816,
      "beginWay": "TALK_BEGIN_MANUAL",
      "beginCond": [
        {
          "type": "QUEST_COND_STATE_EQUAL",
          "_param": [
            "2101811",
            "3"
          ]
        }
      ],
      "priority": 11,
      "initDialog": 210181601,
      "npcId": [
        230301
      ],
      "performCfg": "",
      "assetIndex": 9148759766825284389,
      "prePerformCfg": ""
    }
  ]
}