{
  "npcId": 2303,
  "talks": [
    {
      "id": 6230301,
      "beginWay": "TALK_BEGIN_MANUAL",
      "priority": 3,
      "nextTalks": [
        2102155,
        6230302,
        6230303
      ],
      "initDialog": 623030101,
      "npcId": [
        2303
      ],
      "performCfg": "",
      "assetIndex": 7913299152049513600,
      "prePerformCfg": "",
      "freeStyleList": [
        9000
      ]
    },
    {
      "id": 6230302,
      "beginWay": "TALK_BEGIN_MANUAL",
      "priority": 1,
      "initDialog": 623030201,
      "npcId": [
        2303
      ],
      "performCfg": "",
      "assetIndex": 18051433792091850755,
      "prePerformCfg": ""
    },
    {
      "id": 6230303,
      "beginWay": "TALK_BEGIN_MANUAL",
      "priority": 1,
      "initDialog": 623030301,
      "npcId": [
        2303
      ],
      "performCfg": "",
      "assetIndex": 2398411968318003754,
      "prePerformCfg": ""
    }
  ]
}