{
  "npcId": 230401,
  "talks": [
    {
      "id": 2101809,
      "beginWay": "TALK_BEGIN_MANUAL",
      "beginCond": [
        {
          "type": "QUEST_COND_STATE_EQUAL",
          "_param": [
            "2101801",
            "3"
          ]
        }
      ],
      "priority": 9,
      "initDialog": 210180901,
      "npcId": [
        230401
      ],
      "performCfg": "",
      "assetIndex": 3442131515923468014,
      "prePerformCfg": ""
    },
    {
      "id": 2101810,
      "beginWay": "TALK_BEGIN_MANUAL",
      "beginCond": [
        {
          "type": "QUEST_COND_STATE_EQUAL",
          "_param": [
            "2101805",
            "3"
          ]
        }
      ],
      "priority": 10,
      "initDialog": 210181001,
      "npcId": [
        230401
      ],
      "performCfg": "",
      "assetIndex": 5359648166388781060,
      "prePerformCfg": ""
    },
    {
      "id": 2101815,
      "beginWay": "TALK_BEGIN_MANUAL",
      "beginCond": [
        {
          "type": "QUEST_COND_STATE_EQUAL",
          "_param": [
            "2101811",
            "3"
          ]
        }
      ],
      "priority": 11,
      "initDialog": 210181501,
      "npcId": [
        230401
      ],
      "performCfg": "",
      "assetIndex": 17918358833802897720,
      "prePerformCfg": ""
    }
  ]
}