{
  "npcId": 2335,
  "talks": [
    {
      "id": 6233501,
      "beginWay": "TALK_BEGIN_MANUAL",
      "activeMode": "PLAY_MODE_HOST",
      "priority": 5,
      "initDialog": 623350101,
      "npcId": [
        2335
      ],
      "performCfg": "",
      "assetIndex": 17315939201555175510,
      "prePerformCfg": ""
    }
  ]
}