{
  "npcId": 2403,
  "talks": [
    {
      "id": 6240306,
      "beginCond": [
        {
          "type": "QUEST_COND_QUEST_GLOBAL_VAR_GREATER",
          "_param": [
            "71037",
            "3"
          ]
        }
      ],
      "priority": 1,
      "nextTalks": [
        6240304
      ],
      "initDialog": 624030601,
      "npcId": [
        2403
      ],
      "performCfg": "",
      "assetIndex": 11148869309773891493,
      "prePerformCfg": ""
    },
    {
      "id": 7193401,
      "beginWay": "TALK_BEGIN_MANUAL",
      "beginCondComb": "LOGIC_OR",
      "beginCond": [
        {
          "type": "QUEST_COND_QUEST_NOT_RECEIVE",
          "_param": [
            "7193401",
            "1"
          ]
        }
      ],
      "priority": 1,
      "initDialog": 719340101,
      "npcId": [
        2403
      ],
      "performCfg": "",
      "assetIndex": 10002765951990625404,
      "dontBlockDaily": true,
      "prePerformCfg": ""
    },
    {
      "id": 6240301,
      "beginWay": "TALK_BEGIN_MANUAL",
      "priority": 3,
      "nextTalks": [
        6240302,
        6240306,
        6240303
      ],
      "initDialog": 624030101,
      "npcId": [
        2403
      ],
      "performCfg": "",
      "assetIndex": 648255806645846069,
      "prePerformCfg": "",
      "freeStyleList": [
        9000
      ]
    },
    {
      "id": 6240302,
      "beginWay": "TALK_BEGIN_MANUAL",
      "beginCond": [
        {
          "type": "QUEST_COND_QUEST_GLOBAL_VAR_LESS",
          "_param": [
            "71037",
            "4"
          ]
        }
      ],
      "priority": 1,
      "nextTalks": [
        6240304
      ],
      "initDialog": 624030201,
      "npcId": [
        2403
      ],
      "performCfg": "",
      "assetIndex": 14541794762892636484,
      "prePerformCfg": ""
    },
    {
      "id": 6240303,
      "beginWay": "TALK_BEGIN_MANUAL",
      "priority": 1,
      "initDialog": 624030301,
      "npcId": [
        2403
      ],
      "performCfg": "",
      "assetIndex": 18401972129372385367,
      "prePerformCfg": ""
    },
    {
      "id": 6240304,
      "beginWay": "TALK_BEGIN_MANUAL",
      "priority": 1,
      "nextTalks": [
        6240305,
        7193401
      ],
      "initDialog": 624030205,
      "npcId": [
        2403
      ],
      "performCfg": "",
      "assetIndex": 14326837148299259146,
      "prePerformCfg": ""
    },
    {
      "id": 6240305,
      "beginWay": "TALK_BEGIN_MANUAL",
      "priority": 1,
      "initDialog": 624030208,
      "npcId": [
        2403
      ],
      "performCfg": "",
      "assetIndex": 6863518599126556815,
      "prePerformCfg": ""
    }
  ]
}