{
  "npcId": 2409,
  "talks": [
    {
      "id": 6240902,
      "beginWay": "TALK_BEGIN_MANUAL",
      "priority": 1,
      "initDialog": 624090201,
      "npcId": [
        2409
      ],
      "performCfg": "",
      "assetIndex": 6994526181225677088,
      "prePerformCfg": ""
    },
    {
      "id": 6240903,
      "beginWay": "TALK_BEGIN_MANUAL",
      "priority": 1,
      "initDialog": 624090301,
      "npcId": [
        2409
      ],
      "performCfg": "",
      "assetIndex": 8160460052518467074,
      "prePerformCfg": ""
    },
    {
      "id": 6240904,
      "beginWay": "TALK_BEGIN_MANUAL",
      "priority": 1,
      "initDialog": 624090401,
      "npcId": [
        2409
      ],
      "performCfg": "",
      "assetIndex": 12272302049772228070,
      "prePerformCfg": ""
    },
    {
      "id": 6240905,
      "beginWay": "TALK_BEGIN_MANUAL",
      "priority": 4,
      "nextTalks": [
        7100701,
        6240902,
        6240903,
        6240904
      ],
      "initDialog": 624090501,
      "npcId": [
        2409
      ],
      "performCfg": "",
      "assetIndex": 5344036196032989160,
      "prePerformCfg": "",
      "freeStyleList": [
        9000
      ]
    }
  ]
}