{
  "npcId": 2419,
  "talks": [
    {
      "id": 7193301,
      "beginWay": "TALK_BEGIN_MANUAL",
      "beginCondComb": "LOGIC_OR",
      "beginCond": [
        {
          "type": "QUEST_COND_QUEST_NOT_RECEIVE",
          "_param": [
            "7193301",
            "1"
          ]
        }
      ],
      "priority": 1,
      "initDialog": 719330101,
      "npcId": [
        2419
      ],
      "performCfg": "",
      "assetIndex": 15046041843985649299,
      "dontBlockDaily": true,
      "prePerformCfg": ""
    },
    {
      "id": 6241901,
      "beginWay": "TALK_BEGIN_MANUAL",
      "priority": 3,
      "nextTalks": [
        6241902,
        6241905
      ],
      "initDialog": 624190101,
      "npcId": [
        2419
      ],
      "performCfg": "",
      "assetIndex": 5540469252564614833,
      "prePerformCfg": "",
      "freeStyleList": [
        9000
      ]
    },
    {
      "id": 6241902,
      "beginWay": "TALK_BEGIN_MANUAL",
      "priority": 1,
      "nextTalks": [
        6241903,
        6241904,
        7193301
      ],
      "initDialog": 624190201,
      "npcId": [
        2419
      ],
      "performCfg": "",
      "assetIndex": 6456965444225330517,
      "prePerformCfg": ""
    },
    {
      "id": 6241903,
      "beginWay": "TALK_BEGIN_MANUAL",
      "priority": 1,
      "initDialog": 624190203,
      "npcId": [
        2419
      ],
      "performCfg": "",
      "assetIndex": 17507378204107378055,
      "prePerformCfg": ""
    },
    {
      "id": 6241904,
      "beginWay": "TALK_BEGIN_MANUAL",
      "priority": 1,
      "initDialog": 624190206,
      "npcId": [
        2419
      ],
      "performCfg": "",
      "assetIndex": 9394387814030176973,
      "prePerformCfg": ""
    },
    {
      "id": 6241905,
      "beginWay": "TALK_BEGIN_MANUAL",
      "priority": 1,
      "initDialog": 624190301,
      "npcId": [
        2419
      ],
      "performCfg": "",
      "assetIndex": 2296942192428333918,
      "prePerformCfg": ""
    }
  ]
}