{
  "npcId": 2425,
  "talks": [
    {
      "id": 7193901,
      "beginWay": "TALK_BEGIN_MANUAL",
      "beginCondComb": "LOGIC_OR",
      "beginCond": [
        {
          "type": "QUEST_COND_QUEST_NOT_RECEIVE",
          "_param": [
            "7193901",
            "1"
          ]
        }
      ],
      "priority": 1,
      "initDialog": 719390101,
      "npcId": [
        2425
      ],
      "performCfg": "",
      "assetIndex": 11920117167056774635,
      "dontBlockDaily": true,
      "prePerformCfg": ""
    },
    {
      "id": 6242501,
      "beginWay": "TALK_BEGIN_MANUAL",
      "priority": 3,
      "nextTalks": [
        6242502,
        6242503,
        6242504
      ],
      "initDialog": 624250101,
      "npcId": [
        2425
      ],
      "performCfg": "",
      "assetIndex": 4285626170575515563,
      "prePerformCfg": "",
      "freeStyleList": [
        9000
      ]
    },
    {
      "id": 6242502,
      "beginWay": "TALK_BEGIN_MANUAL",
      "priority": 1,
      "initDialog": 624250201,
      "npcId": [
        2425
      ],
      "performCfg": "",
      "assetIndex": 8658842461174219225,
      "prePerformCfg": ""
    },
    {
      "id": 6242503,
      "beginWay": "TALK_BEGIN_MANUAL",
      "priority": 1,
      "nextTalks": [
        7193901
      ],
      "initDialog": 624250301,
      "npcId": [
        2425
      ],
      "performCfg": "",
      "assetIndex": 2912882236767302659,
      "prePerformCfg": ""
    },
    {
      "id": 6242504,
      "beginWay": "TALK_BEGIN_MANUAL",
      "priority": 1,
      "initDialog": 624250401,
      "npcId": [
        2425
      ],
      "performCfg": "",
      "assetIndex": 8078341969223529238,
      "prePerformCfg": ""
    }
  ]
}