{
  "npcId": 2429,
  "talks": [
    {
      "id": 2100301,
      "beginWay": "TALK_BEGIN_MANUAL",
      "beginCond": [
        {
          "type": "QUEST_COND_QUEST_SERVER_COND_VALID",
          "_param": [
            "2100301"
          ]
        }
      ],
      "priority": 5,
      "nextTalks": [
        2100302,
        2100303
      ],
      "initDialog": 210030101,
      "npcId": [
        2429
      ],
      "performCfg": "",
      "assetIndex": 16204213954060172954,
      "prePerformCfg": "",
      "talkMarkType": "TALK_MARK_COMMON"
    },
    {
      "id": 2100302,
      "activeMode": "PLAY_MODE_ALL",
      "priority": 5,
      "initDialog": 210030201,
      "npcId": [
        2429
      ],
      "performCfg": "",
      "assetIndex": 10249882335800744700,
      "prePerformCfg": ""
    },
    {
      "id": 2100303,
      "activeMode": "PLAY_MODE_ALL",
      "priority": 5,
      "initDialog": 210030301,
      "npcId": [
        2429
      ],
      "performCfg": "",
      "assetIndex": 4638775934850003609,
      "prePerformCfg": ""
    },
    {
      "id": 6242901,
      "beginWay": "TALK_BEGIN_MANUAL",
      "priority": 3,
      "nextTalks": [
        6242902,
        6242906,
        6242903
      ],
      "initDialog": 624290101,
      "npcId": [
        2429
      ],
      "performCfg": "",
      "assetIndex": 8348797282185733226,
      "prePerformCfg": "",
      "freeStyleList": [
        9000
      ]
    },
    {
      "id": 6242902,
      "beginWay": "TALK_BEGIN_MANUAL",
      "priority": 1,
      "initDialog": 624290201,
      "npcId": [
        2429
      ],
      "performCfg": "",
      "assetIndex": 13730322519052476232,
      "prePerformCfg": ""
    },
    {
      "id": 6242903,
      "beginWay": "TALK_BEGIN_MANUAL",
      "priority": 1,
      "initDialog": 624290301,
      "npcId": [
        2429
      ],
      "performCfg": "",
      "assetIndex": 1970752197481927728,
      "prePerformCfg": ""
    },
    {
      "id": 6242904,
      "beginWay": "TALK_BEGIN_MANUAL",
      "beginCondComb": "LOGIC_OR",
      "beginCond": [
        {
          "type": "QUEST_COND_STATE_EQUAL",
          "_param": [
            "2100330",
            "3"
          ]
        },
        {
          "type": "QUEST_COND_STATE_EQUAL",
          "_param": [
            "2100331",
            "3"
          ]
        },
        {
          "type": "QUEST_COND_STATE_EQUAL",
          "_param": [
            "2100399",
            "3"
          ]
        }
      ],
      "priority": 4,
      "nextTalks": [
        6242902,
        6242905,
        6242906,
        6242903
      ],
      "initDialog": 624290401,
      "npcId": [
        2429
      ],
      "performCfg": "",
      "assetIndex": 12085479482789335115,
      "prePerformCfg": ""
    },
    {
      "id": 6242905,
      "beginWay": "TALK_BEGIN_MANUAL",
      "beginCondComb": "LOGIC_OR",
      "beginCond": [
        {
          "type": "QUEST_COND_STATE_EQUAL",
          "_param": [
            "2100330",
            "3"
          ]
        },
        {
          "type": "QUEST_COND_STATE_EQUAL",
          "_param": [
            "2100331",
            "3"
          ]
        },
        {
          "type": "QUEST_COND_STATE_EQUAL",
          "_param": [
            "2100399",
            "3"
          ]
        }
      ],
      "priority": 1,
      "initDialog": 624290501,
      "npcId": [
        2429
      ],
      "performCfg": "",
      "assetIndex": 6584663172433705510,
      "prePerformCfg": ""
    },
    {
      "id": 6242906,
      "beginWay": "TALK_BEGIN_MANUAL",
      "priority": 1,
      "initDialog": 624290601,
      "npcId": [
        2429
      ],
      "performCfg": "",
      "assetIndex": 10439653579877456429,
      "prePerformCfg": ""
    }
  ]
}