{
  "npcId": 2434,
  "talks": [
    {
      "id": 6243405,
      "beginCond": [
        {
          "type": "QUEST_COND_STATE_EQUAL",
          "_param": [
            "201107",
            "3"
          ]
        }
      ],
      "priority": 1,
      "initDialog": 624340501,
      "npcId": [
        2434
      ],
      "performCfg": "",
      "assetIndex": 11227396562270732029,
      "prePerformCfg": ""
    },
    {
      "id": 6243401,
      "beginWay": "TALK_BEGIN_MANUAL",
      "priority": 3,
      "nextTalks": [
        6243402,
        6243403,
        6243405,
        6243404
      ],
      "initDialog": 624340101,
      "npcId": [
        2434
      ],
      "performCfg": "",
      "assetIndex": 6403336018196599876,
      "prePerformCfg": ""
    },
    {
      "id": 6243402,
      "beginWay": "TALK_BEGIN_MANUAL",
      "priority": 1,
      "initDialog": 624340201,
      "npcId": [
        2434
      ],
      "performCfg": "",
      "assetIndex": 7496602890873395651,
      "prePerformCfg": ""
    },
    {
      "id": 6243403,
      "beginWay": "TALK_BEGIN_MANUAL",
      "priority": 1,
      "initDialog": 624340301,
      "npcId": [
        2434
      ],
      "performCfg": "",
      "assetIndex": 13213022558376363477,
      "prePerformCfg": ""
    },
    {
      "id": 6243404,
      "beginWay": "TALK_BEGIN_MANUAL",
      "priority": 1,
      "initDialog": 624340401,
      "npcId": [
        2434
      ],
      "performCfg": "",
      "assetIndex": 12759182590993033979,
      "prePerformCfg": ""
    }
  ]
}