{
  "npcId": 2439,
  "talks": [
    {
      "id": 6243905,
      "beginWay": "TALK_BEGIN_MANUAL",
      "beginCond": [
        {
          "type": "QUEST_COND_QUEST_GLOBAL_VAR_EQUAL",
          "_param": [
            "1905105",
            "1"
          ]
        }
      ],
      "priority": 3,
      "nextTalks": [
        6243906,
        6243903,
        6243904
      ],
      "initDialog": 624390501,
      "npcId": [
        2439
      ],
      "performCfg": "",
      "assetIndex": 6260351618335168998,
      "prePerformCfg": ""
    },
    {
      "id": 6243906,
      "beginCond": [
        {
          "type": "QUEST_COND_QUEST_GLOBAL_VAR_EQUAL",
          "_param": [
            "1905105",
            "1"
          ]
        }
      ],
      "priority": 1,
      "initDialog": 624390601,
      "npcId": [
        2439
      ],
      "performCfg": "",
      "assetIndex": 605288057178019875,
      "prePerformCfg": ""
    },
    {
      "id": 6243901,
      "beginWay": "TALK_BEGIN_MANUAL",
      "beginCond": [
        {
          "type": "QUEST_COND_QUEST_GLOBAL_VAR_EQUAL",
          "_param": [
            "1905105",
            "0"
          ]
        }
      ],
      "priority": 3,
      "nextTalks": [
        6243902,
        6243903,
        6243904
      ],
      "initDialog": 624390101,
      "npcId": [
        2439
      ],
      "performCfg": "",
      "assetIndex": 17773358547402276539,
      "prePerformCfg": ""
    },
    {
      "id": 6243902,
      "beginWay": "TALK_BEGIN_MANUAL",
      "priority": 1,
      "initDialog": 624390201,
      "npcId": [
        2439
      ],
      "performCfg": "",
      "assetIndex": 369527678149135894,
      "prePerformCfg": ""
    },
    {
      "id": 6243903,
      "beginWay": "TALK_BEGIN_MANUAL",
      "priority": 1,
      "initDialog": 624390301,
      "npcId": [
        2439
      ],
      "performCfg": "",
      "assetIndex": 5631003291744806481,
      "prePerformCfg": ""
    },
    {
      "id": 6243904,
      "beginWay": "TALK_BEGIN_MANUAL",
      "priority": 1,
      "initDialog": 624390401,
      "npcId": [
        2439
      ],
      "performCfg": "",
      "assetIndex": 17565061773668562808,
      "prePerformCfg": ""
    }
  ]
}