{
  "npcId": 2443,
  "talks": [
    {
      "id": 6244301,
      "beginWay": "TALK_BEGIN_MANUAL",
      "beginCond": [
        {
          "type": "QUEST_COND_IS_DAYTIME",
          "_param": [
            "1"
          ]
        }
      ],
      "priority": 3,
      "nextTalks": [
        6244302,
        6244303
      ],
      "initDialog": 624430101,
      "npcId": [
        2443
      ],
      "performCfg": "",
      "assetIndex": 6318905963171689518,
      "prePerformCfg": ""
    },
    {
      "id": 6244302,
      "beginWay": "TALK_BEGIN_MANUAL",
      "priority": 1,
      "initDialog": 624430201,
      "npcId": [
        2443
      ],
      "performCfg": "",
      "assetIndex": 1352718963371268360,
      "prePerformCfg": ""
    },
    {
      "id": 6244303,
      "beginWay": "TALK_BEGIN_MANUAL",
      "priority": 1,
      "initDialog": 624430301,
      "npcId": [
        2443
      ],
      "performCfg": "",
      "assetIndex": 12835585073910466322,
      "prePerformCfg": ""
    },
    {
      "id": 6244304,
      "beginWay": "TALK_BEGIN_MANUAL",
      "beginCond": [
        {
          "type": "QUEST_COND_IS_DAYTIME",
          "_param": [
            "0"
          ]
        }
      ],
      "priority": 3,
      "nextTalks": [
        6244305,
        6244306
      ],
      "initDialog": 624430401,
      "npcId": [
        2443
      ],
      "performCfg": "",
      "assetIndex": 11218581123812965790,
      "prePerformCfg": ""
    },
    {
      "id": 6244305,
      "beginWay": "TALK_BEGIN_MANUAL",
      "priority": 1,
      "initDialog": 624430501,
      "npcId": [
        2443
      ],
      "performCfg": "",
      "assetIndex": 4606377706538475248,
      "prePerformCfg": ""
    },
    {
      "id": 6244306,
      "beginWay": "TALK_BEGIN_MANUAL",
      "priority": 1,
      "initDialog": 624430601,
      "npcId": [
        2443
      ],
      "performCfg": "",
      "assetIndex": 7909627438326699630,
      "prePerformCfg": ""
    }
  ]
}