{
  "npcId": 2445,
  "talks": [
    {
      "id": 6244501,
      "beginWay": "TALK_BEGIN_MANUAL",
      "priority": 3,
      "nextTalks": [
        6244502,
        6244503,
        6244504
      ],
      "initDialog": 624450101,
      "npcId": [
        2445
      ],
      "performCfg": "",
      "assetIndex": 7179386353057107721,
      "prePerformCfg": ""
    },
    {
      "id": 6244502,
      "beginWay": "TALK_BEGIN_MANUAL",
      "priority": 1,
      "initDialog": 624450201,
      "npcId": [
        2445
      ],
      "performCfg": "",
      "assetIndex": 11003500496870738360,
      "prePerformCfg": ""
    },
    {
      "id": 6244503,
      "beginWay": "TALK_BEGIN_MANUAL",
      "priority": 1,
      "initDialog": 624450301,
      "npcId": [
        2445
      ],
      "performCfg": "",
      "assetIndex": 9562270195933652524,
      "prePerformCfg": ""
    },
    {
      "id": 6244504,
      "beginWay": "TALK_BEGIN_MANUAL",
      "priority": 1,
      "initDialog": 624450401,
      "npcId": [
        2445
      ],
      "performCfg": "",
      "assetIndex": 15836148946306417357,
      "prePerformCfg": ""
    }
  ]
}