{
  "npcId": 2448,
  "talks": [
    {
      "id": 6244801,
      "beginWay": "TALK_BEGIN_MANUAL",
      "priority": 3,
      "nextTalks": [
        6244802,
        6244803,
        6244804
      ],
      "initDialog": 624480101,
      "npcId": [
        2448
      ],
      "performCfg": "",
      "assetIndex": 7035432438110455581,
      "prePerformCfg": ""
    },
    {
      "id": 6244802,
      "beginWay": "TALK_BEGIN_MANUAL",
      "priority": 1,
      "initDialog": 624480201,
      "npcId": [
        2448
      ],
      "performCfg": "",
      "assetIndex": 17286552884083448627,
      "prePerformCfg": ""
    },
    {
      "id": 6244803,
      "beginWay": "TALK_BEGIN_MANUAL",
      "priority": 1,
      "initDialog": 624480301,
      "npcId": [
        2448
      ],
      "performCfg": "",
      "assetIndex": 10140988994536015029,
      "prePerformCfg": ""
    },
    {
      "id": 6244804,
      "beginWay": "TALK_BEGIN_MANUAL",
      "priority": 1,
      "initDialog": 624480401,
      "npcId": [
        2448
      ],
      "performCfg": "",
      "assetIndex": 4624662626724320679,
      "prePerformCfg": ""
    }
  ]
}