{
  "npcId": 2453,
  "talks": [
    {
      "id": 6245301,
      "beginWay": "TALK_BEGIN_MANUAL",
      "priority": 3,
      "nextTalks": [
        6245302,
        6245303
      ],
      "initDialog": 624530101,
      "npcId": [
        2453
      ],
      "performCfg": "",
      "assetIndex": 9186739650715062352,
      "prePerformCfg": ""
    },
    {
      "id": 6245302,
      "beginWay": "TALK_BEGIN_MANUAL",
      "priority": 1,
      "nextTalks": [
        6245304
      ],
      "initDialog": 624530201,
      "npcId": [
        2453
      ],
      "performCfg": "",
      "assetIndex": 11222254236747843264,
      "prePerformCfg": ""
    },
    {
      "id": 6245303,
      "beginWay": "TALK_BEGIN_MANUAL",
      "priority": 1,
      "initDialog": 624530301,
      "npcId": [
        2453
      ],
      "performCfg": "",
      "assetIndex": 482606914230696607,
      "prePerformCfg": ""
    },
    {
      "id": 6245304,
      "beginWay": "TALK_BEGIN_MANUAL",
      "priority": 1,
      "nextTalks": [
        6245305
      ],
      "initDialog": 624530401,
      "npcId": [
        2453
      ],
      "performCfg": "",
      "assetIndex": 3448296901587279932,
      "prePerformCfg": ""
    },
    {
      "id": 6245305,
      "beginWay": "TALK_BEGIN_MANUAL",
      "priority": 1,
      "initDialog": 624530501,
      "npcId": [
        2453
      ],
      "performCfg": "",
      "assetIndex": 1095172846972531042,
      "prePerformCfg": ""
    }
  ]
}