{
  "npcId": 2454,
  "talks": [
    {
      "id": 6245401,
      "beginWay": "TALK_BEGIN_MANUAL",
      "priority": 3,
      "nextTalks": [
        1103109,
        6245402,
        6245403,
        6245404
      ],
      "initDialog": 624540101,
      "npcId": [
        2454
      ],
      "performCfg": "",
      "assetIndex": 6665908963369128106,
      "prePerformCfg": ""
    },
    {
      "id": 6245402,
      "beginWay": "TALK_BEGIN_MANUAL",
      "beginCond": [
        {
          "type": "QUEST_COND_OPEN_STATE_EQUAL",
          "_param": [
            "1008",
            "1"
          ]
        }
      ],
      "priority": 1,
      "initDialog": 624540201,
      "npcId": [
        2454
      ],
      "performCfg": "",
      "assetIndex": 15601370510217056702,
      "prePerformCfg": ""
    },
    {
      "id": 6245403,
      "beginWay": "TALK_BEGIN_MANUAL",
      "priority": 1,
      "nextTalks": [
        6245405,
        6245406
      ],
      "initDialog": 624540301,
      "npcId": [
        2454
      ],
      "performCfg": "",
      "assetIndex": 12992489561336783906,
      "prePerformCfg": ""
    },
    {
      "id": 6245404,
      "beginWay": "TALK_BEGIN_MANUAL",
      "priority": 1,
      "initDialog": 624540401,
      "npcId": [
        2454
      ],
      "performCfg": "",
      "assetIndex": 2587880009218471094,
      "prePerformCfg": ""
    },
    {
      "id": 6245405,
      "beginWay": "TALK_BEGIN_MANUAL",
      "priority": 1,
      "initDialog": 624540501,
      "npcId": [
        2454
      ],
      "performCfg": "",
      "assetIndex": 912924186313773248,
      "prePerformCfg": ""
    },
    {
      "id": 6245406,
      "beginWay": "TALK_BEGIN_MANUAL",
      "priority": 1,
      "initDialog": 624540601,
      "npcId": [
        2454
      ],
      "performCfg": "",
      "assetIndex": 10408826774927438947,
      "prePerformCfg": ""
    }
  ]
}