{
  "npcId": 2456,
  "talks": [
    {
      "id": 6245609,
      "beginWay": "TALK_BEGIN_MANUAL",
      "activeMode": "PLAY_MODE_HOST",
      "beginCond": [
        {
          "type": "QUEST_COND_STATE_EQUAL",
          "_param": [
            "1101508",
            "3"
          ]
        }
      ],
      "priority": 3,
      "nextTalks": [
        6245612,
        6245613,
        6245610,
        6245611
      ],
      "initDialog": 624560901,
      "npcId": [
        2456
      ],
      "performCfg": "",
      "assetIndex": 8597369594552792469,
      "prePerformCfg": ""
    },
    {
      "id": 6245610,
      "beginCond": [
        {
          "type": "QUEST_COND_STATE_EQUAL",
          "_param": [
            "1101508",
            "3"
          ]
        }
      ],
      "priority": 1,
      "initDialog": 624561001,
      "npcId": [
        2456
      ],
      "performCfg": "",
      "assetIndex": 9166992541683072443,
      "prePerformCfg": ""
    },
    {
      "id": 6245611,
      "activeMode": "PLAY_MODE_HOST",
      "beginCond": [
        {
          "type": "QUEST_COND_STATE_EQUAL",
          "_param": [
            "1101508",
            "3"
          ]
        }
      ],
      "priority": 1,
      "initDialog": 624561101,
      "npcId": [
        2456
      ],
      "performCfg": "",
      "assetIndex": 17068846602481877491,
      "prePerformCfg": ""
    },
    {
      "id": 6245612,
      "beginWay": "TALK_BEGIN_MANUAL",
      "activeMode": "PLAY_MODE_HOST",
      "beginCond": [
        {
          "type": "QUEST_COND_GCG_LEVEL_UNLOCKED",
          "_param": [
            "6245612"
          ]
        }
      ],
      "priority": 1,
      "initDialog": 624561201,
      "npcId": [
        2456
      ],
      "performCfg": "",
      "assetIndex": 9600760112458257140,
      "prePerformCfg": ""
    },
    {
      "id": 6245613,
      "beginWay": "TALK_BEGIN_MANUAL",
      "activeMode": "PLAY_MODE_HOST",
      "beginCond": [
        {
          "type": "QUEST_COND_GCG_LEVEL_UNLOCKED",
          "_param": [
            "6245613"
          ]
        }
      ],
      "priority": 1,
      "initDialog": 624561301,
      "npcId": [
        2456
      ],
      "performCfg": "",
      "assetIndex": 9308184047607707688,
      "prePerformCfg": ""
    },
    {
      "id": 6245614,
      "beginWay": "TALK_BEGIN_AUTO",
      "activeMode": "PLAY_MODE_HOST",
      "beginCond": [
        {
          "type": "QUEST_COND_GCG_WORLD_CHALLENGE_RESULT",
          "_param": [
            "1",
            "2456",
            "6245612"
          ]
        }
      ],
      "priority": 10,
      "initDialog": 624561401,
      "npcId": [
        2456
      ],
      "performCfg": "",
      "assetIndex": 11585468105304320713,
      "prePerformCfg": ""
    },
    {
      "id": 6245615,
      "beginWay": "TALK_BEGIN_AUTO",
      "activeMode": "PLAY_MODE_HOST",
      "beginCond": [
        {
          "type": "QUEST_COND_GCG_WORLD_CHALLENGE_RESULT",
          "_param": [
            "-1",
            "2456",
            "6245612"
          ]
        }
      ],
      "priority": 10,
      "initDialog": 624561501,
      "npcId": [
        2456
      ],
      "performCfg": "",
      "assetIndex": 1573836198119817689,
      "prePerformCfg": ""
    },
    {
      "id": 6245616,
      "beginWay": "TALK_BEGIN_AUTO",
      "activeMode": "PLAY_MODE_HOST",
      "beginCond": [
        {
          "type": "QUEST_COND_GCG_WORLD_CHALLENGE_RESULT",
          "_param": [
            "1",
            "2456",
            "6245613"
          ]
        }
      ],
      "priority": 10,
      "initDialog": 624561601,
      "npcId": [
        2456
      ],
      "performCfg": "",
      "assetIndex": 13118602447825618386,
      "prePerformCfg": ""
    },
    {
      "id": 6245617,
      "beginWay": "TALK_BEGIN_AUTO",
      "activeMode": "PLAY_MODE_HOST",
      "beginCond": [
        {
          "type": "QUEST_COND_GCG_WORLD_CHALLENGE_RESULT",
          "_param": [
            "-1",
            "2456",
            "6245613"
          ]
        }
      ],
      "priority": 10,
      "initDialog": 624561701,
      "npcId": [
        2456
      ],
      "performCfg": "",
      "assetIndex": 4506239463278555991,
      "prePerformCfg": ""
    },
    {
      "id": 6245601,
      "beginWay": "TALK_BEGIN_MANUAL",
      "activeMode": "PLAY_MODE_HOST",
      "beginCondComb": "LOGIC_OR",
      "beginCond": [
        {
          "type": "QUEST_COND_STATE_NOT_EQUAL",
          "_param": [
            "102516",
            "3"
          ]
        },
        {
          "type": "QUEST_COND_QUEST_NOT_RECEIVE",
          "_param": [
            "102516",
            "1"
          ]
        }
      ],
      "priority": 3,
      "nextTalks": [
        6245612,
        6245613,
        6245602,
        6245603,
        6245604
      ],
      "initDialog": 624560101,
      "npcId": [
        2456
      ],
      "performCfg": "",
      "assetIndex": 2720746272172244543,
      "prePerformCfg": ""
    },
    {
      "id": 6245602,
      "beginWay": "TALK_BEGIN_MANUAL",
      "beginCondComb": "LOGIC_OR",
      "beginCond": [
        {
          "type": "QUEST_COND_STATE_EQUAL",
          "_param": [
            "102103",
            "2"
          ]
        },
        {
          "type": "QUEST_COND_QUEST_NOT_RECEIVE",
          "_param": [
            "102103",
            "1"
          ]
        }
      ],
      "priority": 1,
      "initDialog": 624560201,
      "npcId": [
        2456
      ],
      "performCfg": "",
      "assetIndex": 13379097183994241718,
      "prePerformCfg": ""
    },
    {
      "id": 6245603,
      "beginWay": "TALK_BEGIN_MANUAL",
      "beginCond": [
        {
          "type": "QUEST_COND_STATE_EQUAL",
          "_param": [
            "102103",
            "3"
          ]
        }
      ],
      "priority": 1,
      "initDialog": 624560301,
      "npcId": [
        2456
      ],
      "performCfg": "",
      "assetIndex": 12478589229669344851,
      "prePerformCfg": ""
    },
    {
      "id": 6245604,
      "beginWay": "TALK_BEGIN_MANUAL",
      "activeMode": "PLAY_MODE_HOST",
      "priority": 1,
      "initDialog": 624560401,
      "npcId": [
        2456
      ],
      "performCfg": "",
      "assetIndex": 15475979382550264178,
      "prePerformCfg": ""
    },
    {
      "id": 6245605,
      "beginWay": "TALK_BEGIN_MANUAL",
      "activeMode": "PLAY_MODE_HOST",
      "beginCondComb": "LOGIC_A_OR_ETCAND",
      "beginCond": [
        {
          "type": "QUEST_COND_STATE_NOT_EQUAL",
          "_param": [
            "1101508",
            "3"
          ]
        },
        {
          "type": "QUEST_COND_STATE_EQUAL",
          "_param": [
            "102516",
            "3"
          ]
        },
        {
          "type": "QUEST_COND_QUEST_NOT_RECEIVE",
          "_param": [
            "1101508",
            "1"
          ]
        }
      ],
      "priority": 3,
      "nextTalks": [
        6245612,
        6245613,
        6245606,
        6245607,
        6245608
      ],
      "initDialog": 624560501,
      "npcId": [
        2456
      ],
      "performCfg": "",
      "assetIndex": 17473608359661994417,
      "prePerformCfg": ""
    },
    {
      "id": 6245606,
      "beginWay": "TALK_BEGIN_MANUAL",
      "beginCondComb": "LOGIC_A_OR_ETCAND",
      "beginCond": [
        {
          "type": "QUEST_COND_STATE_NOT_EQUAL",
          "_param": [
            "1101508",
            "3"
          ]
        },
        {
          "type": "QUEST_COND_STATE_EQUAL",
          "_param": [
            "102516",
            "3"
          ]
        },
        {
          "type": "QUEST_COND_QUEST_NOT_RECEIVE",
          "_param": [
            "1101508",
            "1"
          ]
        }
      ],
      "priority": 1,
      "initDialog": 624560601,
      "npcId": [
        2456
      ],
      "performCfg": "",
      "assetIndex": 7167816843153083040,
      "prePerformCfg": ""
    },
    {
      "id": 6245607,
      "beginWay": "TALK_BEGIN_MANUAL",
      "beginCondComb": "LOGIC_A_OR_ETCAND",
      "beginCond": [
        {
          "type": "QUEST_COND_STATE_NOT_EQUAL",
          "_param": [
            "1101508",
            "3"
          ]
        },
        {
          "type": "QUEST_COND_STATE_EQUAL",
          "_param": [
            "102516",
            "3"
          ]
        },
        {
          "type": "QUEST_COND_QUEST_NOT_RECEIVE",
          "_param": [
            "1101508",
            "1"
          ]
        }
      ],
      "priority": 1,
      "initDialog": 624560701,
      "npcId": [
        2456
      ],
      "performCfg": "",
      "assetIndex": 3105549273245600284,
      "prePerformCfg": ""
    },
    {
      "id": 6245608,
      "beginWay": "TALK_BEGIN_MANUAL",
      "activeMode": "PLAY_MODE_HOST",
      "beginCondComb": "LOGIC_A_OR_ETCAND",
      "beginCond": [
        {
          "type": "QUEST_COND_STATE_NOT_EQUAL",
          "_param": [
            "1101508",
            "3"
          ]
        },
        {
          "type": "QUEST_COND_STATE_EQUAL",
          "_param": [
            "102516",
            "3"
          ]
        },
        {
          "type": "QUEST_COND_QUEST_NOT_RECEIVE",
          "_param": [
            "1101508",
            "1"
          ]
        }
      ],
      "priority": 1,
      "initDialog": 624560801,
      "npcId": [
        2456
      ],
      "performCfg": "",
      "assetIndex": 11744456408354468278,
      "prePerformCfg": ""
    }
  ]
}