{
  "npcId": 2482,
  "talks": [
    {
      "id": 6248201,
      "beginWay": "TALK_BEGIN_MANUAL",
      "priority": 3,
      "nextTalks": [
        6248202,
        6248203,
        6248204
      ],
      "initDialog": 624820101,
      "npcId": [
        2482
      ],
      "performCfg": "",
      "assetIndex": 3215899519022445412,
      "prePerformCfg": "",
      "freeStyleList": [
        9000
      ]
    },
    {
      "id": 6248202,
      "priority": 1,
      "nextTalks": [
        6248205
      ],
      "initDialog": 624820201,
      "npcId": [
        2482
      ],
      "performCfg": "",
      "assetIndex": 5684509755115231045,
      "prePerformCfg": ""
    },
    {
      "id": 6248203,
      "priority": 1,
      "initDialog": 624820301,
      "npcId": [
        2482
      ],
      "performCfg": "",
      "assetIndex": 6448904949417631003,
      "prePerformCfg": ""
    },
    {
      "id": 6248204,
      "priority": 1,
      "initDialog": 624820401,
      "npcId": [
        2482
      ],
      "performCfg": "",
      "assetIndex": 14186918492860336302,
      "prePerformCfg": ""
    },
    {
      "id": 6248205,
      "priority": 1,
      "initDialog": 624820501,
      "npcId": [
        2482
      ],
      "performCfg": "",
      "assetIndex": 7518062709866596421,
      "prePerformCfg": ""
    }
  ]
}