{
  "npcId": 2489,
  "talks": [
    {
      "id": 6248901,
      "beginWay": "TALK_BEGIN_MANUAL",
      "priority": 3,
      "nextTalks": [
        6248902,
        6248903,
        6248904
      ],
      "initDialog": 624890101,
      "npcId": [
        2489
      ],
      "performCfg": "",
      "assetIndex": 12238122664647998173,
      "prePerformCfg": "",
      "stayFreeStyle": true
    },
    {
      "id": 6248902,
      "priority": 1,
      "nextTalks": [
        6248905
      ],
      "initDialog": 624890201,
      "npcId": [
        2489
      ],
      "performCfg": "",
      "assetIndex": 12314416233320367082,
      "prePerformCfg": "",
      "freeStyleList": [
        1171,
        1172,
        1173
      ]
    },
    {
      "id": 6248903,
      "priority": 1,
      "initDialog": 624890301,
      "npcId": [
        2489
      ],
      "performCfg": "",
      "assetIndex": 2142893889775146342,
      "prePerformCfg": "",
      "freeStyleList": [
        1130,
        1171,
        1172,
        1173
      ]
    },
    {
      "id": 6248904,
      "priority": 1,
      "initDialog": 624890401,
      "npcId": [
        2489
      ],
      "performCfg": "",
      "assetIndex": 5891100341390659033,
      "prePerformCfg": ""
    },
    {
      "id": 6248905,
      "priority": 1,
      "nextTalks": [
        6248906
      ],
      "initDialog": 624890501,
      "npcId": [
        2489
      ],
      "performCfg": "",
      "assetIndex": 4928750170521412116,
      "prePerformCfg": "",
      "freeStyleList": [
        1171,
        1172,
        1173
      ]
    },
    {
      "id": 6248906,
      "priority": 1,
      "initDialog": 624890601,
      "npcId": [
        2489
      ],
      "performCfg": "",
      "assetIndex": 8326909282257333235,
      "prePerformCfg": "",
      "freeStyleList": [
        1050,
        1171,
        1172,
        1173
      ]
    }
  ]
}