{
  "npcId": 2494,
  "talks": [
    {
      "id": 6249401,
      "beginWay": "TALK_BEGIN_MANUAL",
      "activeMode": "PLAY_MODE_HOST",
      "priority": 5,
      "nextTalks": [
        6249402,
        6249403,
        6249404
      ],
      "initDialog": 624940101,
      "npcId": [
        2494
      ],
      "performCfg": "",
      "assetIndex": 15298395625601900897,
      "prePerformCfg": ""
    },
    {
      "id": 6249402,
      "activeMode": "PLAY_MODE_HOST",
      "priority": 5,
      "initDialog": 624940201,
      "npcId": [
        2494
      ],
      "performCfg": "",
      "assetIndex": 17542284901031641115,
      "prePerformCfg": ""
    },
    {
      "id": 6249403,
      "activeMode": "PLAY_MODE_HOST",
      "priority": 5,
      "initDialog": 624940301,
      "npcId": [
        2494
      ],
      "performCfg": "",
      "assetIndex": 3686126119572118019,
      "prePerformCfg": ""
    },
    {
      "id": 6249404,
      "activeMode": "PLAY_MODE_HOST",
      "priority": 5,
      "initDialog": 624940401,
      "npcId": [
        2494
      ],
      "performCfg": "",
      "assetIndex": 2942155919284700197,
      "prePerformCfg": ""
    },
    {
      "id": 6249405,
      "beginWay": "TALK_BEGIN_MANUAL",
      "beginCond": [
        {
          "type": "QUEST_COND_STATE_EQUAL",
          "_param": [
            "99902",
            "3"
          ]
        }
      ],
      "priority": 3,
      "nextTalks": [
        6249406,
        6249407,
        6249408
      ],
      "initDialog": 624940501,
      "npcId": [
        2494
      ],
      "performCfg": "",
      "assetIndex": 12052534321609832846,
      "prePerformCfg": ""
    },
    {
      "id": 6249406,
      "priority": 1,
      "initDialog": 624940601,
      "npcId": [
        2494
      ],
      "performCfg": "",
      "assetIndex": 2426453245068829230,
      "prePerformCfg": ""
    },
    {
      "id": 6249407,
      "priority": 1,
      "initDialog": 624940701,
      "npcId": [
        2494
      ],
      "performCfg": "",
      "assetIndex": 4005900780817363569,
      "prePerformCfg": ""
    },
    {
      "id": 6249408,
      "priority": 1,
      "initDialog": 624940801,
      "npcId": [
        2494
      ],
      "performCfg": "",
      "assetIndex": 1782993123798747846,
      "prePerformCfg": ""
    }
  ]
}