{
  "npcId": 2502,
  "talks": [
    {
      "id": 6250201,
      "beginWay": "TALK_BEGIN_MANUAL",
      "priority": 3,
      "nextTalks": [
        6250202,
        6250203,
        6250204
      ],
      "initDialog": 625020101,
      "npcId": [
        2502
      ],
      "performCfg": "",
      "assetIndex": 5787210470583714526,
      "prePerformCfg": "",
      "freeStyleList": [
        9000
      ]
    },
    {
      "id": 6250202,
      "priority": 1,
      "nextTalks": [
        6250205
      ],
      "initDialog": 625020201,
      "npcId": [
        2502
      ],
      "performCfg": "",
      "assetIndex": 392611733782536607,
      "prePerformCfg": ""
    },
    {
      "id": 6250203,
      "priority": 1,
      "initDialog": 625020301,
      "npcId": [
        2502
      ],
      "performCfg": "",
      "assetIndex": 6568761499201369458,
      "prePerformCfg": ""
    },
    {
      "id": 6250204,
      "priority": 1,
      "initDialog": 625020401,
      "npcId": [
        2502
      ],
      "performCfg": "",
      "assetIndex": 543579430688419429,
      "prePerformCfg": ""
    },
    {
      "id": 6250205,
      "priority": 1,
      "initDialog": 625020501,
      "npcId": [
        2502
      ],
      "performCfg": "",
      "assetIndex": 11258243173153488726,
      "prePerformCfg": ""
    }
  ]
}