{
  "npcId": 2503,
  "talks": [
    {
      "id": 6250301,
      "beginWay": "TALK_BEGIN_MANUAL",
      "priority": 3,
      "nextTalks": [
        6250302,
        6250303,
        6250304
      ],
      "initDialog": 625030101,
      "npcId": [
        2503
      ],
      "performCfg": "",
      "assetIndex": 6526185619683551065,
      "prePerformCfg": "",
      "freeStyleList": [
        9000
      ]
    },
    {
      "id": 6250302,
      "priority": 1,
      "nextTalks": [
        6250305
      ],
      "initDialog": 625030201,
      "npcId": [
        2503
      ],
      "performCfg": "",
      "assetIndex": 7682482426716836697,
      "prePerformCfg": ""
    },
    {
      "id": 6250303,
      "priority": 1,
      "initDialog": 625030301,
      "npcId": [
        2503
      ],
      "performCfg": "",
      "assetIndex": 7275694756118950590,
      "prePerformCfg": ""
    },
    {
      "id": 6250304,
      "priority": 1,
      "initDialog": 625030401,
      "npcId": [
        2503
      ],
      "performCfg": "",
      "assetIndex": 1871183974888601103,
      "prePerformCfg": ""
    },
    {
      "id": 6250305,
      "priority": 1,
      "initDialog": 625030501,
      "npcId": [
        2503
      ],
      "performCfg": "",
      "assetIndex": 4131425360359751509,
      "prePerformCfg": ""
    }
  ]
}