{
  "npcId": 2516,
  "talks": [
    {
      "id": 5900180,
      "beginCond": [
        {
          "type": "QUEST_COND_OPEN_STATE_EQUAL",
          "_param": [
            "1405",
            "1"
          ]
        }
      ],
      "priority": 2,
      "nextTalks": [
        5900181,
        5900182,
        5900183,
        5900184,
        5900185
      ],
      "initDialog": 590018001,
      "npcId": [
        2516
      ],
      "performCfg": "",
      "assetIndex": 14407857003912648616,
      "prePerformCfg": ""
    },
    {
      "id": 5900181,
      "beginCond": [
        {
          "type": "QUEST_COND_NOT_HAVE_BLOSSOM_TALK"
        }
      ],
      "priority": 1,
      "initDialog": 590018101,
      "npcId": [
        2516
      ],
      "performCfg": "",
      "assetIndex": 11840308382239875553,
      "prePerformCfg": ""
    },
    {
      "id": 6251601,
      "beginWay": "TALK_BEGIN_MANUAL",
      "priority": 3,
      "nextTalks": [
        5900180,
        6251602,
        6251603,
        6251604,
        6251605
      ],
      "initDialog": 625160101,
      "npcId": [
        2516
      ],
      "performCfg": "",
      "assetIndex": 7018094841917839667,
      "prePerformCfg": "",
      "stayFreeStyle": true
    },
    {
      "id": 6251602,
      "priority": 1,
      "initDialog": 625160201,
      "npcId": [
        2516
      ],
      "performCfg": "",
      "assetIndex": 15641230868727055246,
      "prePerformCfg": "",
      "freeStyleList": [
        1171,
        1172,
        1173
      ]
    },
    {
      "id": 6251603,
      "priority": 1,
      "initDialog": 625160301,
      "npcId": [
        2516
      ],
      "performCfg": "",
      "assetIndex": 8894048394063916349,
      "prePerformCfg": "",
      "freeStyleList": [
        1171,
        1172,
        1173
      ]
    },
    {
      "id": 6251604,
      "priority": 1,
      "initDialog": 625160401,
      "npcId": [
        2516
      ],
      "performCfg": "",
      "assetIndex": 14248858349535134507,
      "prePerformCfg": "",
      "freeStyleList": [
        1171,
        1172,
        1173
      ]
    },
    {
      "id": 6251605,
      "priority": 1,
      "initDialog": 625160501,
      "npcId": [
        2516
      ],
      "performCfg": "",
      "assetIndex": 3481211643105763188,
      "prePerformCfg": "",
      "freeStyleList": [
        4030
      ]
    }
  ]
}