{
  "npcId": 2526,
  "talks": [
    {
      "id": 6252601,
      "beginWay": "TALK_BEGIN_MANUAL",
      "priority": 3,
      "nextTalks": [
        6252603,
        6252604
      ],
      "nextRandomTalks": [
        6252605,
        6252602
      ],
      "LKBNLLIPIDO": 1,
      "OLFNBJHOHBP": [
        2,
        1
      ],
      "showRandomTalkCount": 1,
      "initDialog": 625260101,
      "npcId": [
        2526
      ],
      "performCfg": "",
      "assetIndex": 12909201253868050022,
      "prePerformCfg": "",
      "stayFreeStyle": true
    },
    {
      "id": 6252602,
      "priority": 1,
      "initDialog": 625260201,
      "npcId": [
        2526
      ],
      "performCfg": "",
      "assetIndex": 17901765231930080189,
      "prePerformCfg": "",
      "freeStyleList": [
        1200
      ]
    },
    {
      "id": 6252603,
      "priority": 1,
      "initDialog": 625260301,
      "npcId": [
        2526
      ],
      "performCfg": "",
      "assetIndex": 12925768935648916487,
      "prePerformCfg": "",
      "freeStyleList": [
        4030,
        1171,
        1172,
        1173,
        4040,
        5010,
        1130
      ]
    },
    {
      "id": 6252604,
      "priority": 1,
      "initDialog": 625260401,
      "npcId": [
        2526
      ],
      "performCfg": "",
      "assetIndex": 4359995520423197355,
      "prePerformCfg": "",
      "stayFreeStyle": true
    },
    {
      "id": 6252605,
      "beginCond": [
        {
          "type": "QUEST_COND_STATE_EQUAL",
          "_param": [
            "7111409",
            "3"
          ]
        }
      ],
      "priority": 1,
      "initDialog": 625260501,
      "npcId": [
        2526
      ],
      "performCfg": "",
      "assetIndex": 14117464158190738192,
      "prePerformCfg": "",
      "freeStyleList": [
        1200,
        4030
      ]
    },
    {
      "id": 7111401,
      "beginWay": "TALK_BEGIN_MANUAL",
      "beginCond": [
        {
          "type": "QUEST_COND_QUEST_SERVER_COND_VALID",
          "_param": [
            "7111401"
          ]
        }
      ],
      "priority": 5,
      "initDialog": 711140101,
      "npcId": [
        2526
      ],
      "performCfg": "QuestDialogue/WQ/Liyue_71114/Q7111401",
      "heroTalk": "TALK_HERO_MAIN",
      "assetIndex": 7904090255176540578,
      "prePerformCfg": "",
      "talkMarkType": "TALK_MARK_COMMON",
      "CHAKPMBJNAJ": [
        "[3_7467:2463.026,404.385,2160.511,0.000,179.100,0.000]",
        "[3_7468:2461.942,404.364,2159.767,0.000,44.084,0.000]",
        "[3_7469:2462.799,404.385,2159.148]"
      ]
    }
  ]
}