{
  "npcId": 3001,
  "talks": [
    {
      "id": 6300101,
      "beginWay": "TALK_BEGIN_MANUAL",
      "priority": 3,
      "nextTalks": [
        6300103,
        6300102,
        6300104
      ],
      "initDialog": 630010101,
      "npcId": [
        3001
      ],
      "performCfg": "",
      "assetIndex": 12436220618148682744,
      "prePerformCfg": "",
      "freeStyleList": [
        9000
      ]
    },
    {
      "id": 6300102,
      "priority": 1,
      "nextTalks": [
        6300105
      ],
      "initDialog": 630010201,
      "npcId": [
        3001
      ],
      "performCfg": "",
      "assetIndex": 9561269780907755432,
      "prePerformCfg": ""
    },
    {
      "id": 6300103,
      "priority": 1,
      "initDialog": 630010301,
      "npcId": [
        3001
      ],
      "performCfg": "",
      "assetIndex": 3464084222438090091,
      "prePerformCfg": ""
    },
    {
      "id": 6300104,
      "priority": 1,
      "initDialog": 630010401,
      "npcId": [
        3001
      ],
      "performCfg": "",
      "assetIndex": 6557191960804148241,
      "prePerformCfg": ""
    },
    {
      "id": 6300105,
      "priority": 1,
      "initDialog": 630010501,
      "npcId": [
        3001
      ],
      "performCfg": "",
      "assetIndex": 15115807748524835350,
      "prePerformCfg": ""
    }
  ]
}