{
  "npcId": 3002,
  "talks": [
    {
      "id": 6300201,
      "beginWay": "TALK_BEGIN_MANUAL",
      "priority": 3,
      "nextTalks": [
        6300202,
        6300203,
        6300204
      ],
      "initDialog": 630020101,
      "npcId": [
        3002
      ],
      "performCfg": "",
      "assetIndex": 6451758966480094362,
      "prePerformCfg": "",
      "freeStyleList": [
        9000
      ]
    },
    {
      "id": 6300202,
      "beginCond": [
        {
          "type": "QUEST_COND_STATE_EQUAL",
          "_param": [
            "201310",
            "3"
          ]
        }
      ],
      "priority": 1,
      "initDialog": 630020201,
      "npcId": [
        3002
      ],
      "performCfg": "",
      "assetIndex": 7100062514006497504,
      "prePerformCfg": ""
    },
    {
      "id": 6300203,
      "priority": 1,
      "nextTalks": [
        6300205
      ],
      "initDialog": 630020301,
      "npcId": [
        3002
      ],
      "performCfg": "",
      "assetIndex": 13940632251055734505,
      "prePerformCfg": ""
    },
    {
      "id": 6300204,
      "priority": 1,
      "initDialog": 630020401,
      "npcId": [
        3002
      ],
      "performCfg": "",
      "assetIndex": 14213172910124667633,
      "prePerformCfg": ""
    },
    {
      "id": 6300205,
      "priority": 1,
      "initDialog": 630020501,
      "npcId": [
        3002
      ],
      "performCfg": "",
      "assetIndex": 11366313374231956095,
      "prePerformCfg": ""
    }
  ]
}