{
  "npcId": 3009,
  "talks": [
    {
      "id": 6300901,
      "beginWay": "TALK_BEGIN_MANUAL",
      "priority": 3,
      "nextTalks": [
        6300902,
        6300903,
        6300904
      ],
      "initDialog": 630090101,
      "npcId": [
        3009
      ],
      "performCfg": "",
      "assetIndex": 6555924145543274866,
      "prePerformCfg": ""
    },
    {
      "id": 6300902,
      "priority": 1,
      "nextTalks": [
        6300905,
        6300906
      ],
      "initDialog": 630090201,
      "npcId": [
        3009
      ],
      "performCfg": "",
      "assetIndex": 12028136388295247832,
      "prePerformCfg": ""
    },
    {
      "id": 6300903,
      "priority": 1,
      "initDialog": 630090301,
      "npcId": [
        3009
      ],
      "performCfg": "",
      "assetIndex": 6562634325184180919,
      "prePerformCfg": ""
    },
    {
      "id": 6300904,
      "priority": 1,
      "initDialog": 630090401,
      "npcId": [
        3009
      ],
      "performCfg": "",
      "assetIndex": 1839900433505365891,
      "prePerformCfg": ""
    },
    {
      "id": 6300905,
      "priority": 1,
      "initDialog": 630090501,
      "npcId": [
        3009
      ],
      "performCfg": "",
      "assetIndex": 6901917769190921199,
      "prePerformCfg": ""
    },
    {
      "id": 6300906,
      "priority": 1,
      "initDialog": 630090601,
      "npcId": [
        3009
      ],
      "performCfg": "",
      "assetIndex": 13587373139667382688,
      "prePerformCfg": ""
    }
  ]
}