{
  "npcId": 30108,
  "talks": [
    {
      "id": 4004804,
      "beginWay": "TALK_BEGIN_MANUAL",
      "beginCondComb": "LOGIC_AND",
      "beginCond": [
        {
          "type": "QUEST_COND_ACTIVITY_CLIENT_COND",
          "_param": [
            "2011",
            "2011004",
            "1"
          ]
        },
        {
          "type": "QUEST_COND_STATE_EQUAL",
          "_param": [
            "4004705",
            "3"
          ]
        },
        {
          "type": "QUEST_COND_QUEST_NOT_RECEIVE",
          "_param": [
            "7227601",
            "1"
          ]
        }
      ],
      "priority": 3,
      "initDialog": 400480401,
      "npcId": [
        30108
      ],
      "performCfg": "",
      "assetIndex": 14021218576097453263,
      "prePerformCfg": ""
    }
  ]
}