{
  "npcId": 3010,
  "talks": [
    {
      "id": 6301001,
      "beginWay": "TALK_BEGIN_MANUAL",
      "beginCond": [
        {
          "type": "QUEST_COND_STATE_EQUAL",
          "_param": [
            "200305",
            "3"
          ]
        }
      ],
      "priority": 3,
      "nextTalks": [
        7271701,
        6301002,
        6301003,
        6301004
      ],
      "initDialog": 630100101,
      "npcId": [
        3010
      ],
      "performCfg": "",
      "assetIndex": 6920911145116865256,
      "prePerformCfg": "",
      "freeStyleList": [
        9000
      ]
    },
    {
      "id": 6301002,
      "priority": 1,
      "nextTalks": [
        6301005,
        6301006
      ],
      "initDialog": 630100201,
      "npcId": [
        3010
      ],
      "performCfg": "",
      "assetIndex": 10978129290452497217,
      "prePerformCfg": ""
    },
    {
      "id": 6301003,
      "priority": 1,
      "initDialog": 630100301,
      "npcId": [
        3010
      ],
      "performCfg": "",
      "assetIndex": 6533470641144675548,
      "prePerformCfg": ""
    },
    {
      "id": 6301004,
      "priority": 1,
      "initDialog": 630100401,
      "npcId": [
        3010
      ],
      "performCfg": "",
      "assetIndex": 8961136071401328617,
      "prePerformCfg": ""
    },
    {
      "id": 6301005,
      "priority": 1,
      "initDialog": 630100501,
      "npcId": [
        3010
      ],
      "performCfg": "",
      "assetIndex": 17938514262526528186,
      "prePerformCfg": ""
    },
    {
      "id": 6301006,
      "priority": 1,
      "initDialog": 630100601,
      "npcId": [
        3010
      ],
      "performCfg": "",
      "assetIndex": 9202396111722232418,
      "prePerformCfg": ""
    },
    {
      "id": 6301007,
      "beginWay": "TALK_BEGIN_MANUAL",
      "beginCondComb": "LOGIC_OR",
      "beginCond": [
        {
          "type": "QUEST_COND_QUEST_NOT_RECEIVE",
          "_param": [
            "200305",
            "1"
          ]
        },
        {
          "type": "QUEST_COND_STATE_EQUAL",
          "_param": [
            "200305",
            "2"
          ]
        }
      ],
      "priority": 3,
      "initDialog": 630100701,
      "npcId": [
        3010
      ],
      "performCfg": "",
      "assetIndex": 14257210559978890699,
      "prePerformCfg": ""
    }
  ]
}