{
  "npcId": 30129,
  "talks": [
    {
      "id": 7165810,
      "beginWay": "TALK_BEGIN_MANUAL",
      "activeMode": "PLAY_MODE_HOST",
      "beginCond": [
        {
          "type": "QUEST_COND_ACTIVITY_CLIENT_COND",
          "_param": [
            "2010",
            "2010208",
            "1"
          ]
        }
      ],
      "priority": 5,
      "initDialog": 716581001,
      "npcId": [
        30129
      ],
      "performCfg": "QuestDialogue/WQ/Liyue_71658/Q7165810",
      "heroTalk": "TALK_HERO_MAIN",
      "assetIndex": 12241768227459544551,
      "prePerformCfg": "",
      "questIdleTalk": true
    }
  ]
}