{
  "npcId": 30133,
  "talks": [
    {
      "id": 7165806,
      "beginWay": "TALK_BEGIN_MANUAL",
      "activeMode": "PLAY_MODE_HOST",
      "beginCond": [
        {
          "type": "QUEST_COND_ACTIVITY_CLIENT_COND",
          "_param": [
            "2010",
            "2010207",
            "1"
          ]
        }
      ],
      "priority": 5,
      "initDialog": 716580601,
      "npcId": [
        30133
      ],
      "performCfg": "QuestDialogue/WQ/Liyue_71658/Q7165806",
      "heroTalk": "TALK_HERO_MAIN",
      "assetIndex": 3667110471923253408,
      "prePerformCfg": "",
      "questIdleTalk": true
    }
  ]
}