{
  "npcId": 3015,
  "talks": [
    {
      "id": 4006318,
      "beginWay": "TALK_BEGIN_MANUAL",
      "beginCondComb": "LOGIC_AND",
      "beginCond": [
        {
          "type": "QUEST_COND_ACTIVITY_CLIENT_COND",
          "_param": [
            "2012",
            "2012002",
            "1"
          ]
        },
        {
          "type": "QUEST_COND_QUEST_GLOBAL_VAR_EQUAL",
          "_param": [
            "4005513",
            "1"
          ]
        }
      ],
      "priority": 5,
      "nextTalks": [
        6301502,
        6301503,
        6301504,
        6301505
      ],
      "initDialog": 400631801,
      "npcId": [
        3015
      ],
      "performCfg": "",
      "assetIndex": 14501399668205658134,
      "prePerformCfg": ""
    },
    {
      "id": 6301501,
      "beginWay": "TALK_BEGIN_MANUAL",
      "priority": 3,
      "nextTalks": [
        6301502,
        6301503,
        6301504,
        6301505
      ],
      "initDialog": 630150101,
      "npcId": [
        3015
      ],
      "performCfg": "",
      "assetIndex": 16675196104140563777,
      "prePerformCfg": ""
    },
    {
      "id": 6301502,
      "beginCond": [
        {
          "type": "QUEST_COND_STATE_EQUAL",
          "_param": [
            "201310",
            "3"
          ]
        }
      ],
      "priority": 1,
      "initDialog": 630150201,
      "npcId": [
        3015
      ],
      "performCfg": "",
      "assetIndex": 13333512340160258344,
      "prePerformCfg": ""
    },
    {
      "id": 6301503,
      "priority": 1,
      "nextTalks": [
        6301506
      ],
      "initDialog": 630150301,
      "npcId": [
        3015
      ],
      "performCfg": "",
      "assetIndex": 4422017258015329680,
      "prePerformCfg": ""
    },
    {
      "id": 6301504,
      "priority": 1,
      "initDialog": 630150401,
      "npcId": [
        3015
      ],
      "performCfg": "",
      "assetIndex": 5627567455014628168,
      "prePerformCfg": ""
    },
    {
      "id": 6301505,
      "priority": 1,
      "initDialog": 630150501,
      "npcId": [
        3015
      ],
      "performCfg": "",
      "assetIndex": 9379074706166645143,
      "prePerformCfg": ""
    },
    {
      "id": 6301506,
      "priority": 1,
      "initDialog": 630150601,
      "npcId": [
        3015
      ],
      "performCfg": "",
      "assetIndex": 11368556313317103117,
      "prePerformCfg": ""
    }
  ]
}