{
  "npcId": 30162,
  "talks": [
    {
      "id": 7268449,
      "beginWay": "TALK_BEGIN_MANUAL",
      "beginCond": [
        {
          "type": "QUEST_COND_ACTIVITY_CLIENT_COND",
          "_param": [
            "5072",
            "5072008",
            "1"
          ]
        }
      ],
      "priority": 3,
      "nextTalks": [
        7268450,
        7268451,
        7268452,
        7268459,
        7268458
      ],
      "initDialog": 726844901,
      "npcId": [
        30162
      ],
      "performCfg": "",
      "heroTalk": "TALK_HERO_MAIN",
      "assetIndex": 7441356858009371026,
      "prePerformCfg": ""
    },
    {
      "id": 7268450,
      "beginCond": [
        {
          "type": "QUEST_COND_ACTIVITY_CLIENT_COND",
          "_param": [
            "5072",
            "5072008",
            "1"
          ]
        }
      ],
      "priority": 1,
      "nextTalks": [
        7268450,
        7268451,
        7268452,
        7268459,
        7268458
      ],
      "initDialog": 726845001,
      "npcId": [
        30162
      ],
      "performCfg": "",
      "heroTalk": "TALK_HERO_MAIN",
      "assetIndex": 1427642874771904717,
      "prePerformCfg": ""
    },
    {
      "id": 7268451,
      "beginCond": [
        {
          "type": "QUEST_COND_ACTIVITY_CLIENT_COND",
          "_param": [
            "5072",
            "5072008",
            "1"
          ]
        }
      ],
      "priority": 1,
      "nextTalks": [
        7268450,
        7268451,
        7268452,
        7268459,
        7268458
      ],
      "initDialog": 726845101,
      "npcId": [
        30162
      ],
      "performCfg": "",
      "heroTalk": "TALK_HERO_MAIN",
      "assetIndex": 16047744698482844655,
      "prePerformCfg": ""
    },
    {
      "id": 7268452,
      "beginCond": [
        {
          "type": "QUEST_COND_ACTIVITY_CLIENT_COND",
          "_param": [
            "5072",
            "5072002",
            "1"
          ]
        }
      ],
      "priority": 1,
      "nextTalks": [
        7268450,
        7268451,
        7268452,
        7268459,
        7268458
      ],
      "initDialog": 726845201,
      "npcId": [
        30162
      ],
      "performCfg": "",
      "heroTalk": "TALK_HERO_MAIN",
      "assetIndex": 4763380568665725468,
      "prePerformCfg": ""
    },
    {
      "id": 7268453,
      "beginCond": [
        {
          "type": "QUEST_COND_ACTIVITY_CLIENT_COND",
          "_param": [
            "5072",
            "5072003",
            "1"
          ]
        }
      ],
      "priority": 1,
      "nextTalks": [
        7268450,
        7268451,
        7268452,
        7268459,
        7268458
      ],
      "initDialog": 726845301,
      "npcId": [
        30162
      ],
      "performCfg": "",
      "heroTalk": "TALK_HERO_MAIN",
      "assetIndex": 5255997094155257777,
      "prePerformCfg": ""
    },
    {
      "id": 7268454,
      "beginCond": [
        {
          "type": "QUEST_COND_ACTIVITY_CLIENT_COND",
          "_param": [
            "5072",
            "5072004",
            "1"
          ]
        }
      ],
      "priority": 1,
      "nextTalks": [
        7268450,
        7268451,
        7268452,
        7268459,
        7268458
      ],
      "initDialog": 726845401,
      "npcId": [
        30162
      ],
      "performCfg": "",
      "heroTalk": "TALK_HERO_MAIN",
      "assetIndex": 7647749443473043142,
      "prePerformCfg": ""
    },
    {
      "id": 7268455,
      "beginCond": [
        {
          "type": "QUEST_COND_ACTIVITY_CLIENT_COND",
          "_param": [
            "5072",
            "5072005",
            "1"
          ]
        }
      ],
      "priority": 1,
      "nextTalks": [
        7268450,
        7268451,
        7268452,
        7268459,
        7268458
      ],
      "initDialog": 726845501,
      "npcId": [
        30162
      ],
      "performCfg": "",
      "heroTalk": "TALK_HERO_MAIN",
      "assetIndex": 1616117819566132184,
      "prePerformCfg": ""
    },
    {
      "id": 7268456,
      "beginCond": [
        {
          "type": "QUEST_COND_ACTIVITY_CLIENT_COND",
          "_param": [
            "5072",
            "5072006",
            "1"
          ]
        }
      ],
      "priority": 1,
      "nextTalks": [
        7268450,
        7268451,
        7268452,
        7268459,
        7268458
      ],
      "initDialog": 726845601,
      "npcId": [
        30162
      ],
      "performCfg": "",
      "heroTalk": "TALK_HERO_MAIN",
      "assetIndex": 3763931801712645714,
      "prePerformCfg": ""
    },
    {
      "id": 7268457,
      "beginWay": "TALK_BEGIN_MANUAL",
      "beginCondComb": "LOGIC_AND",
      "beginCond": [
        {
          "type": "QUEST_COND_ACTIVITY_CLIENT_COND",
          "_param": [
            "5072",
            "5072011",
            "1"
          ]
        },
        {
          "type": "QUEST_COND_STATE_EQUAL",
          "_param": [
            "7268407",
            "3"
          ]
        }
      ],
      "priority": 4,
      "nextTalks": [
        7268450,
        7268451,
        7268452,
        7268459,
        7268458
      ],
      "initDialog": 726845701,
      "npcId": [
        30162
      ],
      "performCfg": "",
      "heroTalk": "TALK_HERO_MAIN",
      "assetIndex": 7769945411197311413,
      "prePerformCfg": ""
    },
    {
      "id": 7268458,
      "beginCond": [
        {
          "type": "QUEST_COND_ACTIVITY_CLIENT_COND",
          "_param": [
            "5072",
            "5072008",
            "1"
          ]
        }
      ],
      "priority": 1,
      "initDialog": 726845801,
      "npcId": [
        30162
      ],
      "performCfg": "",
      "heroTalk": "TALK_HERO_MAIN",
      "assetIndex": 4092225200971079405,
      "prePerformCfg": ""
    },
    {
      "id": 7268459,
      "beginCond": [
        {
          "type": "QUEST_COND_ACTIVITY_CLIENT_COND",
          "_param": [
            "5072",
            "5072003",
            "1"
          ]
        }
      ],
      "priority": 1,
      "nextTalks": [
        7268453,
        7268454,
        7268455,
        7268456,
        7268458
      ],
      "initDialog": 726845901,
      "npcId": [
        30162
      ],
      "performCfg": "",
      "heroTalk": "TALK_HERO_MAIN",
      "assetIndex": 15869700726491083551,
      "prePerformCfg": ""
    },
    {
      "id": 7273011,
      "beginWay": "TALK_BEGIN_MANUAL",
      "activeMode": "PLAY_MODE_ALL",
      "beginCond": [
        {
          "type": "QUEST_COND_ACTIVITY_CLIENT_COND",
          "_param": [
            "5118",
            "5118002",
            "1"
          ]
        }
      ],
      "priority": 5,
      "initDialog": 727301101,
      "npcId": [
        30162
      ],
      "performCfg": "",
      "assetIndex": 936304661062608453,
      "prePerformCfg": ""
    }
  ]
}