{
  "npcId": 30213,
  "talks": [
    {
      "id": 7350051,
      "beginWay": "TALK_BEGIN_MANUAL",
      "beginCondComb": "LOGIC_A_AND_ETCOR",
      "beginCond": [
        {
          "type": "QUEST_COND_STATE_EQUAL",
          "_param": [
            "7350001",
            "3"
          ]
        },
        {
          "type": "QUEST_COND_QUEST_NOT_RECEIVE",
          "_param": [
            "7350014",
            "1"
          ]
        },
        {
          "type": "QUEST_COND_STATE_EQUAL",
          "_param": [
            "7350014",
            "2"
          ]
        }
      ],
      "priority": 5,
      "initDialog": 735005101,
      "npcId": [
        30213
      ],
      "performCfg": "QuestDialogue/WQ/Sumeru_73500/Q7350051",
      "heroTalk": "TALK_HERO_MAIN",
      "assetIndex": 8102881487836491535,
      "prePerformCfg": ""
    },
    {
      "id": 7350058,
      "beginWay": "TALK_BEGIN_MANUAL",
      "beginCondComb": "LOGIC_AND",
      "beginCond": [
        {
          "type": "QUEST_COND_STATE_EQUAL",
          "_param": [
            "7350014",
            "3"
          ]
        },
        {
          "type": "QUEST_COND_QUEST_NOT_RECEIVE",
          "_param": [
            "7350101",
            "1"
          ]
        }
      ],
      "priority": 5,
      "initDialog": 735005801,
      "npcId": [
        30213
      ],
      "performCfg": "QuestDialogue/WQ/Sumeru_73500/Q7350058",
      "heroTalk": "TALK_HERO_MAIN",
      "assetIndex": 17717901332530053053,
      "prePerformCfg": ""
    },
    {
      "id": 7350111,
      "beginWay": "TALK_BEGIN_MANUAL",
      "beginCond": [
        {
          "type": "QUEST_COND_STATE_EQUAL",
          "_param": [
            "7350101",
            "3"
          ]
        }
      ],
      "priority": 5,
      "initDialog": 735011101,
      "npcId": [
        30213
      ],
      "performCfg": "QuestDialogue/WQ/Sumeru_73501/Q7350111",
      "heroTalk": "TALK_HERO_MAIN",
      "assetIndex": 1880390761475021435,
      "prePerformCfg": ""
    }
  ]
}