{
  "npcId": 30226,
  "talks": [
    {
      "id": 7365102,
      "beginWay": "TALK_BEGIN_MANUAL",
      "priority": 4,
      "initDialog": 736510201,
      "npcId": [
        30226
      ],
      "performCfg": "",
      "heroTalk": "TALK_HERO_MAIN",
      "assetIndex": 13514402508337852001,
      "prePerformCfg": ""
    }
  ]
}