{
  "npcId": 3022,
  "talks": [
    {
      "id": 6302201,
      "beginWay": "TALK_BEGIN_MANUAL",
      "priority": 3,
      "nextTalks": [
        2204003,
        6302202,
        6302206,
        6302210,
        6302203,
        6302209,
        6302212
      ],
      "initDialog": 630220101,
      "npcId": [
        3022
      ],
      "performCfg": "",
      "assetIndex": 4195789160122496882,
      "prePerformCfg": "",
      "freeStyleList": [
        9000
      ]
    },
    {
      "id": 6302202,
      "beginCond": [
        {
          "type": "QUEST_COND_QUEST_GLOBAL_VAR_EQUAL",
          "_param": [
            "12042",
            "0"
          ]
        }
      ],
      "priority": 1,
      "nextTalks": [
        6302204,
        6302205
      ],
      "initDialog": 630220201,
      "npcId": [
        3022
      ],
      "performCfg": "",
      "assetIndex": 15964645678135548436,
      "prePerformCfg": ""
    },
    {
      "id": 6302203,
      "beginCond": [
        {
          "type": "QUEST_COND_QUEST_GLOBAL_VAR_EQUAL",
          "_param": [
            "12042",
            "0"
          ]
        }
      ],
      "priority": 1,
      "initDialog": 630220301,
      "npcId": [
        3022
      ],
      "performCfg": "",
      "assetIndex": 4709879302317016400,
      "prePerformCfg": ""
    },
    {
      "id": 6302204,
      "beginCond": [
        {
          "type": "QUEST_COND_QUEST_GLOBAL_VAR_EQUAL",
          "_param": [
            "12042",
            "0"
          ]
        }
      ],
      "priority": 1,
      "initDialog": 630220401,
      "npcId": [
        3022
      ],
      "performCfg": "",
      "assetIndex": 5484204423827175002,
      "prePerformCfg": ""
    },
    {
      "id": 6302205,
      "beginCond": [
        {
          "type": "QUEST_COND_QUEST_GLOBAL_VAR_EQUAL",
          "_param": [
            "12042",
            "0"
          ]
        }
      ],
      "priority": 1,
      "initDialog": 630220501,
      "npcId": [
        3022
      ],
      "performCfg": "",
      "assetIndex": 3772505414204233040,
      "prePerformCfg": ""
    },
    {
      "id": 6302206,
      "beginCondComb": "LOGIC_AND",
      "beginCond": [
        {
          "type": "QUEST_COND_QUEST_GLOBAL_VAR_EQUAL",
          "_param": [
            "12042",
            "1"
          ]
        },
        {
          "type": "QUEST_COND_QUEST_GLOBAL_VAR_EQUAL",
          "_param": [
            "2202501",
            "0"
          ]
        }
      ],
      "priority": 1,
      "nextTalks": [
        6302207,
        6302208
      ],
      "initDialog": 630220601,
      "npcId": [
        3022
      ],
      "performCfg": "",
      "assetIndex": 10522898920506090761,
      "prePerformCfg": ""
    },
    {
      "id": 6302207,
      "beginCondComb": "LOGIC_AND",
      "beginCond": [
        {
          "type": "QUEST_COND_QUEST_GLOBAL_VAR_EQUAL",
          "_param": [
            "12042",
            "1"
          ]
        },
        {
          "type": "QUEST_COND_QUEST_GLOBAL_VAR_EQUAL",
          "_param": [
            "2202501",
            "0"
          ]
        }
      ],
      "priority": 1,
      "initDialog": 630220701,
      "npcId": [
        3022
      ],
      "performCfg": "",
      "assetIndex": 12597446522491435625,
      "prePerformCfg": ""
    },
    {
      "id": 6302208,
      "beginCondComb": "LOGIC_AND",
      "beginCond": [
        {
          "type": "QUEST_COND_QUEST_GLOBAL_VAR_EQUAL",
          "_param": [
            "12042",
            "1"
          ]
        },
        {
          "type": "QUEST_COND_QUEST_GLOBAL_VAR_EQUAL",
          "_param": [
            "2202501",
            "0"
          ]
        }
      ],
      "priority": 1,
      "initDialog": 630220801,
      "npcId": [
        3022
      ],
      "performCfg": "",
      "assetIndex": 13887517002379686064,
      "prePerformCfg": ""
    },
    {
      "id": 6302209,
      "beginCondComb": "LOGIC_AND",
      "beginCond": [
        {
          "type": "QUEST_COND_QUEST_GLOBAL_VAR_EQUAL",
          "_param": [
            "12042",
            "1"
          ]
        },
        {
          "type": "QUEST_COND_QUEST_GLOBAL_VAR_EQUAL",
          "_param": [
            "2202501",
            "0"
          ]
        }
      ],
      "priority": 1,
      "initDialog": 630220901,
      "npcId": [
        3022
      ],
      "performCfg": "",
      "assetIndex": 12003142316193804515,
      "prePerformCfg": ""
    },
    {
      "id": 6302210,
      "beginCondComb": "LOGIC_AND",
      "beginCond": [
        {
          "type": "QUEST_COND_QUEST_GLOBAL_VAR_EQUAL",
          "_param": [
            "12042",
            "1"
          ]
        },
        {
          "type": "QUEST_COND_QUEST_GLOBAL_VAR_EQUAL",
          "_param": [
            "2202501",
            "1"
          ]
        }
      ],
      "priority": 1,
      "nextTalks": [
        6302211
      ],
      "initDialog": 630221001,
      "npcId": [
        3022
      ],
      "performCfg": "",
      "assetIndex": 12097580501021973026,
      "prePerformCfg": ""
    },
    {
      "id": 6302211,
      "beginCondComb": "LOGIC_AND",
      "beginCond": [
        {
          "type": "QUEST_COND_QUEST_GLOBAL_VAR_EQUAL",
          "_param": [
            "12042",
            "1"
          ]
        },
        {
          "type": "QUEST_COND_QUEST_GLOBAL_VAR_EQUAL",
          "_param": [
            "2202501",
            "1"
          ]
        }
      ],
      "priority": 1,
      "initDialog": 630221101,
      "npcId": [
        3022
      ],
      "performCfg": "",
      "assetIndex": 15147710043244434470,
      "prePerformCfg": ""
    },
    {
      "id": 6302212,
      "beginCondComb": "LOGIC_AND",
      "beginCond": [
        {
          "type": "QUEST_COND_QUEST_GLOBAL_VAR_EQUAL",
          "_param": [
            "12042",
            "1"
          ]
        },
        {
          "type": "QUEST_COND_QUEST_GLOBAL_VAR_EQUAL",
          "_param": [
            "2202501",
            "1"
          ]
        }
      ],
      "priority": 1,
      "initDialog": 630221201,
      "npcId": [
        3022
      ],
      "performCfg": "",
      "assetIndex": 8491356161636157562,
      "prePerformCfg": ""
    }
  ]
}