{
  "npcId": 3023,
  "talks": [
    {
      "id": 6302301,
      "beginWay": "TALK_BEGIN_MANUAL",
      "beginCond": [
        {
          "type": "QUEST_COND_QUEST_GLOBAL_VAR_EQUAL",
          "_param": [
            "12042",
            "0"
          ]
        }
      ],
      "priority": 3,
      "nextTalks": [
        6302302,
        6302303,
        6302305,
        6302304
      ],
      "initDialog": 630230101,
      "npcId": [
        3023
      ],
      "performCfg": "",
      "assetIndex": 14035348388978257396,
      "prePerformCfg": "",
      "freeStyleList": [
        9000
      ]
    },
    {
      "id": 6302302,
      "beginCond": [
        {
          "type": "QUEST_COND_QUEST_GLOBAL_VAR_EQUAL",
          "_param": [
            "12042",
            "0"
          ]
        }
      ],
      "priority": 1,
      "nextTalks": [
        7291401
      ],
      "initDialog": 630230201,
      "npcId": [
        3023
      ],
      "performCfg": "",
      "assetIndex": 3703280960900006877,
      "prePerformCfg": ""
    },
    {
      "id": 6302303,
      "beginCondComb": "LOGIC_A_AND_ETCOR",
      "beginCond": [
        {
          "type": "QUEST_COND_QUEST_GLOBAL_VAR_EQUAL",
          "_param": [
            "12042",
            "0"
          ]
        },
        {
          "type": "QUEST_COND_QUEST_NOT_RECEIVE",
          "_param": [
            "7217320",
            "1"
          ]
        },
        {
          "type": "QUEST_COND_STATE_NOT_EQUAL",
          "_param": [
            "7217320",
            "3"
          ]
        }
      ],
      "priority": 1,
      "initDialog": 630230301,
      "npcId": [
        3023
      ],
      "performCfg": "",
      "assetIndex": 3814965391006299123,
      "prePerformCfg": ""
    },
    {
      "id": 6302304,
      "beginCond": [
        {
          "type": "QUEST_COND_QUEST_GLOBAL_VAR_EQUAL",
          "_param": [
            "12042",
            "0"
          ]
        }
      ],
      "priority": 1,
      "initDialog": 630230401,
      "npcId": [
        3023
      ],
      "performCfg": "",
      "assetIndex": 179191129203184637,
      "prePerformCfg": ""
    },
    {
      "id": 6302305,
      "beginCondComb": "LOGIC_AND",
      "beginCond": [
        {
          "type": "QUEST_COND_STATE_EQUAL",
          "_param": [
            "7217320",
            "3"
          ]
        },
        {
          "type": "QUEST_COND_QUEST_GLOBAL_VAR_EQUAL",
          "_param": [
            "12042",
            "0"
          ]
        }
      ],
      "priority": 1,
      "initDialog": 630230501,
      "npcId": [
        3023
      ],
      "performCfg": "",
      "assetIndex": 292778375495233978,
      "prePerformCfg": ""
    },
    {
      "id": 6302306,
      "beginWay": "TALK_BEGIN_MANUAL",
      "beginCond": [
        {
          "type": "QUEST_COND_QUEST_GLOBAL_VAR_EQUAL",
          "_param": [
            "12042",
            "1"
          ]
        }
      ],
      "priority": 4,
      "nextTalks": [
        6302307,
        6302308,
        6302309,
        6302311,
        6302310
      ],
      "initDialog": 630230601,
      "npcId": [
        3023
      ],
      "performCfg": "",
      "assetIndex": 16793293611647252159,
      "prePerformCfg": ""
    },
    {
      "id": 6302307,
      "beginCond": [
        {
          "type": "QUEST_COND_QUEST_GLOBAL_VAR_EQUAL",
          "_param": [
            "12042",
            "1"
          ]
        }
      ],
      "priority": 1,
      "initDialog": 630230701,
      "npcId": [
        3023
      ],
      "performCfg": "",
      "assetIndex": 4961667901883413644,
      "prePerformCfg": ""
    },
    {
      "id": 6302308,
      "beginCond": [
        {
          "type": "QUEST_COND_QUEST_GLOBAL_VAR_EQUAL",
          "_param": [
            "12042",
            "1"
          ]
        }
      ],
      "priority": 1,
      "nextTalks": [
        7291402
      ],
      "initDialog": 630230801,
      "npcId": [
        3023
      ],
      "performCfg": "",
      "assetIndex": 3203961349784215026,
      "prePerformCfg": ""
    },
    {
      "id": 6302309,
      "beginCondComb": "LOGIC_A_AND_ETCOR",
      "beginCond": [
        {
          "type": "QUEST_COND_QUEST_GLOBAL_VAR_EQUAL",
          "_param": [
            "12042",
            "1"
          ]
        },
        {
          "type": "QUEST_COND_STATE_NOT_EQUAL",
          "_param": [
            "7217320",
            "3"
          ]
        },
        {
          "type": "QUEST_COND_QUEST_NOT_RECEIVE",
          "_param": [
            "7217320",
            "1"
          ]
        }
      ],
      "priority": 1,
      "initDialog": 630230901,
      "npcId": [
        3023
      ],
      "performCfg": "",
      "assetIndex": 7631595892510601630,
      "prePerformCfg": ""
    },
    {
      "id": 6302310,
      "beginCond": [
        {
          "type": "QUEST_COND_QUEST_GLOBAL_VAR_EQUAL",
          "_param": [
            "12042",
            "1"
          ]
        }
      ],
      "priority": 1,
      "initDialog": 630231001,
      "npcId": [
        3023
      ],
      "performCfg": "",
      "assetIndex": 12389502106856590032,
      "prePerformCfg": ""
    },
    {
      "id": 6302311,
      "beginCondComb": "LOGIC_AND",
      "beginCond": [
        {
          "type": "QUEST_COND_STATE_EQUAL",
          "_param": [
            "7217320",
            "3"
          ]
        },
        {
          "type": "QUEST_COND_QUEST_GLOBAL_VAR_EQUAL",
          "_param": [
            "12042",
            "1"
          ]
        }
      ],
      "priority": 1,
      "initDialog": 630231101,
      "npcId": [
        3023
      ],
      "performCfg": "",
      "assetIndex": 11404171844384328228,
      "prePerformCfg": ""
    },
    {
      "id": 7291401,
      "beginWay": "TALK_BEGIN_MANUAL",
      "beginCondComb": "LOGIC_AND",
      "beginCond": [
        {
          "type": "QUEST_COND_QUEST_NOT_RECEIVE",
          "_param": [
            "7291401",
            "1"
          ]
        },
        {
          "type": "QUEST_COND_QUEST_GLOBAL_VAR_EQUAL",
          "_param": [
            "12042",
            "0"
          ]
        }
      ],
      "priority": 1,
      "initDialog": 729140101,
      "npcId": [
        3023
      ],
      "performCfg": "",
      "assetIndex": 13853040541796552707,
      "dontBlockDaily": true,
      "prePerformCfg": ""
    },
    {
      "id": 7291402,
      "beginWay": "TALK_BEGIN_MANUAL",
      "beginCondComb": "LOGIC_AND",
      "beginCond": [
        {
          "type": "QUEST_COND_QUEST_NOT_RECEIVE",
          "_param": [
            "7291401",
            "1"
          ]
        },
        {
          "type": "QUEST_COND_QUEST_GLOBAL_VAR_EQUAL",
          "_param": [
            "12042",
            "1"
          ]
        }
      ],
      "priority": 2,
      "initDialog": 729140201,
      "npcId": [
        3023
      ],
      "performCfg": "",
      "assetIndex": 8442239657256057555,
      "dontBlockDaily": true,
      "prePerformCfg": ""
    }
  ]
}