{
  "npcId": 30246,
  "talks": [
    {
      "id": 7367802,
      "beginWay": "TALK_BEGIN_MANUAL",
      "beginCondComb": "LOGIC_AND",
      "beginCond": [
        {
          "type": "QUEST_COND_STATE_EQUAL",
          "_param": [
            "7367801",
            "3"
          ]
        },
        {
          "type": "QUEST_COND_ACTIVITY_CLIENT_COND",
          "_param": [
            "2016",
            "2016016",
            "1"
          ]
        }
      ],
      "priority": 5,
      "initDialog": 736780201,
      "npcId": [
        30246
      ],
      "performCfg": "QuestDialogue/WQ/Mengde_73678/Q7367802",
      "heroTalk": "TALK_HERO_MAIN",
      "assetIndex": 18428750380789597902,
      "prePerformCfg": ""
    }
  ]
}