{
  "npcId": 30248,
  "talks": [
    {
      "id": 7368002,
      "beginWay": "TALK_BEGIN_MANUAL",
      "activeMode": "PLAY_MODE_ALL",
      "beginCondComb": "LOGIC_AND",
      "beginCond": [
        {
          "type": "QUEST_COND_STATE_EQUAL",
          "_param": [
            "7368001",
            "3"
          ]
        },
        {
          "type": "QUEST_COND_ACTIVITY_CLIENT_COND",
          "_param": [
            "2016",
            "2016018",
            "1"
          ]
        }
      ],
      "priority": 5,
      "initDialog": 736800201,
      "npcId": [
        30248
      ],
      "performCfg": "",
      "heroTalk": "TALK_HERO_MAIN",
      "assetIndex": 8645261697971407824,
      "prePerformCfg": "",
      "freeStyleList": [
        1130
      ]
    }
  ]
}