{
  "npcId": 30309,
  "talks": [
    {
      "id": 7368610,
      "beginWay": "TALK_BEGIN_MANUAL",
      "priority": 5,
      "initDialog": 736861001,
      "npcId": [
        30309
      ],
      "performCfg": "QuestDialogue/WQ/Pindao_73686/Q7368610",
      "heroTalk": "TALK_HERO_MAIN",
      "assetIndex": 17967142955214528442,
      "prePerformCfg": ""
    }
  ]
}