{
  "npcId": 3036,
  "talks": [
    {
      "id": 6303701,
      "beginWay": "TALK_BEGIN_MANUAL",
      "priority": 3,
      "initDialog": 630370101,
      "npcId": [
        3037,
        3036,
        3066
      ],
      "performCfg": "",
      "assetIndex": 16031169383258929635,
      "prePerformCfg": ""
    }
  ]
}