{
  "npcId": 3043,
  "talks": [
    {
      "id": 6304301,
      "beginWay": "TALK_BEGIN_MANUAL",
      "priority": 3,
      "nextTalks": [
        6304302,
        6304303
      ],
      "initDialog": 630430101,
      "npcId": [
        3043
      ],
      "performCfg": "",
      "assetIndex": 9533026780313600855,
      "prePerformCfg": "",
      "freeStyleList": [
        9000
      ]
    },
    {
      "id": 6304302,
      "priority": 1,
      "nextTalks": [
        6304304
      ],
      "initDialog": 630430201,
      "npcId": [
        3043
      ],
      "performCfg": "",
      "assetIndex": 9012729982138221932,
      "prePerformCfg": ""
    },
    {
      "id": 6304303,
      "priority": 1,
      "initDialog": 630430301,
      "npcId": [
        3043
      ],
      "performCfg": "",
      "assetIndex": 17002795184970423265,
      "prePerformCfg": ""
    },
    {
      "id": 6304304,
      "priority": 1,
      "nextTalks": [
        6304305
      ],
      "initDialog": 630430401,
      "npcId": [
        3043
      ],
      "performCfg": "",
      "assetIndex": 9395683557880029778,
      "prePerformCfg": ""
    },
    {
      "id": 6304305,
      "priority": 1,
      "initDialog": 630430501,
      "npcId": [
        3043
      ],
      "performCfg": "",
      "assetIndex": 9544954922767675679,
      "prePerformCfg": ""
    }
  ]
}