{
  "npcId": 30458,
  "talks": [
    {
      "id": 7153102,
      "beginWay": "TALK_BEGIN_MANUAL",
      "beginCond": [
        {
          "type": "QUEST_COND_ACTIVITY_CLIENT_COND",
          "_param": [
            "2028",
            "2028002",
            "1"
          ]
        },
        {
          "type": "QUEST_COND_STATE_EQUAL",
          "_param": [
            "7153101",
            "3"
          ]
        }
      ],
      "priority": 5,
      "initDialog": 715310201,
      "npcId": [
        30458
      ],
      "performCfg": "QuestDialogue/WQ/Liyue_71531/Q7153102",
      "heroTalk": "TALK_HERO_MAIN",
      "assetIndex": 10765199974059561350,
      "prePerformCfg": ""
    }
  ]
}