{
  "npcId": 3050,
  "talks": [
    {
      "id": 6304901,
      "beginWay": "TALK_BEGIN_MANUAL",
      "beginCondComb": "LOGIC_AND",
      "beginCond": [
        {
          "type": "QUEST_COND_IS_DAYTIME",
          "_param": [
            "1"
          ]
        },
        {
          "type": "QUEST_COND_QUEST_GLOBAL_VAR_EQUAL",
          "_param": [
            "72802",
            "0"
          ]
        }
      ],
      "priority": 3,
      "initDialog": 630490101,
      "npcId": [
        3049,
        3050
      ],
      "performCfg": "",
      "assetIndex": 267377037351896460,
      "prePerformCfg": ""
    },
    {
      "id": 6304902,
      "beginWay": "TALK_BEGIN_MANUAL",
      "beginCondComb": "LOGIC_AND",
      "beginCond": [
        {
          "type": "QUEST_COND_IS_DAYTIME",
          "_param": [
            "1"
          ]
        },
        {
          "type": "QUEST_COND_QUEST_GLOBAL_VAR_EQUAL",
          "_param": [
            "72802",
            "1"
          ]
        },
        {
          "type": "QUEST_COND_QUEST_GLOBAL_VAR_EQUAL",
          "_param": [
            "12042",
            "0"
          ]
        }
      ],
      "priority": 3,
      "initDialog": 630490201,
      "npcId": [
        3049,
        3050
      ],
      "performCfg": "",
      "assetIndex": 17368328316593685718,
      "prePerformCfg": ""
    },
    {
      "id": 6304903,
      "beginWay": "TALK_BEGIN_MANUAL",
      "beginCondComb": "LOGIC_AND",
      "beginCond": [
        {
          "type": "QUEST_COND_IS_DAYTIME",
          "_param": [
            "1"
          ]
        },
        {
          "type": "QUEST_COND_QUEST_GLOBAL_VAR_EQUAL",
          "_param": [
            "72802",
            "1"
          ]
        },
        {
          "type": "QUEST_COND_QUEST_GLOBAL_VAR_EQUAL",
          "_param": [
            "12042",
            "1"
          ]
        }
      ],
      "priority": 3,
      "initDialog": 630490301,
      "npcId": [
        3049,
        3050
      ],
      "performCfg": "",
      "assetIndex": 7716572236187221612,
      "prePerformCfg": ""
    },
    {
      "id": 6305001,
      "beginWay": "TALK_BEGIN_MANUAL",
      "beginCondComb": "LOGIC_AND",
      "beginCond": [
        {
          "type": "QUEST_COND_IS_DAYTIME",
          "_param": [
            "0"
          ]
        },
        {
          "type": "QUEST_COND_QUEST_GLOBAL_VAR_EQUAL",
          "_param": [
            "72802",
            "0"
          ]
        }
      ],
      "priority": 3,
      "nextTalks": [
        6305002,
        6305003
      ],
      "initDialog": 630500101,
      "npcId": [
        3050
      ],
      "performCfg": "",
      "assetIndex": 17531224190834034472,
      "prePerformCfg": "",
      "freeStyleList": [
        9000
      ]
    },
    {
      "id": 6305002,
      "beginCondComb": "LOGIC_AND",
      "beginCond": [
        {
          "type": "QUEST_COND_IS_DAYTIME",
          "_param": [
            "0"
          ]
        },
        {
          "type": "QUEST_COND_QUEST_GLOBAL_VAR_EQUAL",
          "_param": [
            "72802",
            "0"
          ]
        }
      ],
      "priority": 1,
      "nextTalks": [
        6305004
      ],
      "initDialog": 630500201,
      "npcId": [
        3050
      ],
      "performCfg": "",
      "assetIndex": 16162250815737839942,
      "prePerformCfg": ""
    },
    {
      "id": 6305003,
      "beginCondComb": "LOGIC_AND",
      "beginCond": [
        {
          "type": "QUEST_COND_IS_DAYTIME",
          "_param": [
            "0"
          ]
        },
        {
          "type": "QUEST_COND_QUEST_GLOBAL_VAR_EQUAL",
          "_param": [
            "72802",
            "0"
          ]
        }
      ],
      "priority": 1,
      "initDialog": 630500301,
      "npcId": [
        3050
      ],
      "performCfg": "",
      "assetIndex": 4767748557701027920,
      "prePerformCfg": ""
    },
    {
      "id": 6305004,
      "beginCondComb": "LOGIC_AND",
      "beginCond": [
        {
          "type": "QUEST_COND_IS_DAYTIME",
          "_param": [
            "0"
          ]
        },
        {
          "type": "QUEST_COND_QUEST_GLOBAL_VAR_EQUAL",
          "_param": [
            "72802",
            "0"
          ]
        }
      ],
      "priority": 1,
      "initDialog": 630500401,
      "npcId": [
        3050
      ],
      "performCfg": "",
      "assetIndex": 183638759643097236,
      "prePerformCfg": ""
    },
    {
      "id": 6305005,
      "beginWay": "TALK_BEGIN_MANUAL",
      "beginCondComb": "LOGIC_AND",
      "beginCond": [
        {
          "type": "QUEST_COND_IS_DAYTIME",
          "_param": [
            "0"
          ]
        },
        {
          "type": "QUEST_COND_QUEST_GLOBAL_VAR_EQUAL",
          "_param": [
            "72802",
            "1"
          ]
        },
        {
          "type": "QUEST_COND_QUEST_GLOBAL_VAR_EQUAL",
          "_param": [
            "12042",
            "0"
          ]
        }
      ],
      "priority": 3,
      "nextTalks": [
        6305006,
        6305007,
        6305008
      ],
      "initDialog": 630500501,
      "npcId": [
        3050
      ],
      "performCfg": "",
      "assetIndex": 13825267476474586643,
      "prePerformCfg": "",
      "freeStyleList": [
        9000
      ]
    },
    {
      "id": 6305006,
      "beginCondComb": "LOGIC_AND",
      "beginCond": [
        {
          "type": "QUEST_COND_IS_DAYTIME",
          "_param": [
            "0"
          ]
        },
        {
          "type": "QUEST_COND_QUEST_GLOBAL_VAR_EQUAL",
          "_param": [
            "72802",
            "1"
          ]
        },
        {
          "type": "QUEST_COND_QUEST_GLOBAL_VAR_EQUAL",
          "_param": [
            "12042",
            "0"
          ]
        }
      ],
      "priority": 1,
      "initDialog": 630500601,
      "npcId": [
        3050
      ],
      "performCfg": "",
      "assetIndex": 3142480360616389696,
      "prePerformCfg": ""
    },
    {
      "id": 6305007,
      "beginCondComb": "LOGIC_AND",
      "beginCond": [
        {
          "type": "QUEST_COND_IS_DAYTIME",
          "_param": [
            "0"
          ]
        },
        {
          "type": "QUEST_COND_QUEST_GLOBAL_VAR_EQUAL",
          "_param": [
            "72802",
            "1"
          ]
        },
        {
          "type": "QUEST_COND_QUEST_GLOBAL_VAR_EQUAL",
          "_param": [
            "12042",
            "0"
          ]
        }
      ],
      "priority": 1,
      "nextTalks": [
        7292201
      ],
      "initDialog": 630500701,
      "npcId": [
        3050
      ],
      "performCfg": "",
      "assetIndex": 8819663268561134085,
      "prePerformCfg": ""
    },
    {
      "id": 6305008,
      "beginCondComb": "LOGIC_AND",
      "beginCond": [
        {
          "type": "QUEST_COND_IS_DAYTIME",
          "_param": [
            "0"
          ]
        },
        {
          "type": "QUEST_COND_QUEST_GLOBAL_VAR_EQUAL",
          "_param": [
            "72802",
            "1"
          ]
        },
        {
          "type": "QUEST_COND_QUEST_GLOBAL_VAR_EQUAL",
          "_param": [
            "12042",
            "0"
          ]
        }
      ],
      "priority": 1,
      "initDialog": 630500801,
      "npcId": [
        3050
      ],
      "performCfg": "",
      "assetIndex": 4169923769176039746,
      "prePerformCfg": ""
    },
    {
      "id": 6305009,
      "beginWay": "TALK_BEGIN_MANUAL",
      "beginCondComb": "LOGIC_AND",
      "beginCond": [
        {
          "type": "QUEST_COND_IS_DAYTIME",
          "_param": [
            "0"
          ]
        },
        {
          "type": "QUEST_COND_QUEST_GLOBAL_VAR_EQUAL",
          "_param": [
            "72802",
            "1"
          ]
        },
        {
          "type": "QUEST_COND_QUEST_GLOBAL_VAR_EQUAL",
          "_param": [
            "12042",
            "1"
          ]
        }
      ],
      "priority": 3,
      "nextTalks": [
        6305010,
        6305011
      ],
      "initDialog": 630500901,
      "npcId": [
        3050
      ],
      "performCfg": "",
      "assetIndex": 17466275513087774501,
      "prePerformCfg": ""
    },
    {
      "id": 6305010,
      "beginCondComb": "LOGIC_AND",
      "beginCond": [
        {
          "type": "QUEST_COND_IS_DAYTIME",
          "_param": [
            "0"
          ]
        },
        {
          "type": "QUEST_COND_QUEST_GLOBAL_VAR_EQUAL",
          "_param": [
            "72802",
            "1"
          ]
        },
        {
          "type": "QUEST_COND_QUEST_GLOBAL_VAR_EQUAL",
          "_param": [
            "12042",
            "1"
          ]
        }
      ],
      "priority": 1,
      "nextTalks": [
        6305012,
        7292202
      ],
      "initDialog": 630501001,
      "npcId": [
        3050
      ],
      "performCfg": "",
      "assetIndex": 5953776159250689591,
      "prePerformCfg": ""
    },
    {
      "id": 6305011,
      "beginCondComb": "LOGIC_AND",
      "beginCond": [
        {
          "type": "QUEST_COND_IS_DAYTIME",
          "_param": [
            "0"
          ]
        },
        {
          "type": "QUEST_COND_QUEST_GLOBAL_VAR_EQUAL",
          "_param": [
            "72802",
            "1"
          ]
        },
        {
          "type": "QUEST_COND_QUEST_GLOBAL_VAR_EQUAL",
          "_param": [
            "12042",
            "1"
          ]
        }
      ],
      "priority": 1,
      "initDialog": 630501101,
      "npcId": [
        3050
      ],
      "performCfg": "",
      "assetIndex": 11864360258421863579,
      "prePerformCfg": ""
    },
    {
      "id": 6305012,
      "beginCondComb": "LOGIC_AND",
      "beginCond": [
        {
          "type": "QUEST_COND_IS_DAYTIME",
          "_param": [
            "0"
          ]
        },
        {
          "type": "QUEST_COND_QUEST_GLOBAL_VAR_EQUAL",
          "_param": [
            "72802",
            "1"
          ]
        },
        {
          "type": "QUEST_COND_QUEST_GLOBAL_VAR_EQUAL",
          "_param": [
            "12042",
            "1"
          ]
        }
      ],
      "priority": 1,
      "nextTalks": [
        6305013
      ],
      "initDialog": 630501201,
      "npcId": [
        3050
      ],
      "performCfg": "",
      "assetIndex": 909458755507096522,
      "prePerformCfg": ""
    },
    {
      "id": 6305013,
      "beginCondComb": "LOGIC_AND",
      "beginCond": [
        {
          "type": "QUEST_COND_IS_DAYTIME",
          "_param": [
            "0"
          ]
        },
        {
          "type": "QUEST_COND_QUEST_GLOBAL_VAR_EQUAL",
          "_param": [
            "72802",
            "1"
          ]
        },
        {
          "type": "QUEST_COND_QUEST_GLOBAL_VAR_EQUAL",
          "_param": [
            "12042",
            "1"
          ]
        }
      ],
      "priority": 1,
      "initDialog": 630501301,
      "npcId": [
        3050
      ],
      "performCfg": "",
      "assetIndex": 1143440675801601705,
      "prePerformCfg": ""
    },
    {
      "id": 7292201,
      "beginWay": "TALK_BEGIN_MANUAL",
      "beginCondComb": "LOGIC_AND",
      "beginCond": [
        {
          "type": "QUEST_COND_QUEST_NOT_RECEIVE",
          "_param": [
            "7292201",
            "1"
          ]
        },
        {
          "type": "QUEST_COND_IS_DAYTIME",
          "_param": [
            "0"
          ]
        },
        {
          "type": "QUEST_COND_QUEST_GLOBAL_VAR_EQUAL",
          "_param": [
            "72802",
            "1"
          ]
        },
        {
          "type": "QUEST_COND_QUEST_GLOBAL_VAR_EQUAL",
          "_param": [
            "12042",
            "0"
          ]
        }
      ],
      "priority": 1,
      "initDialog": 729220101,
      "npcId": [
        3050
      ],
      "performCfg": "",
      "assetIndex": 9478310141438213065,
      "dontBlockDaily": true,
      "prePerformCfg": ""
    },
    {
      "id": 7292202,
      "beginWay": "TALK_BEGIN_MANUAL",
      "beginCondComb": "LOGIC_AND",
      "beginCond": [
        {
          "type": "QUEST_COND_QUEST_NOT_RECEIVE",
          "_param": [
            "7292201",
            "1"
          ]
        },
        {
          "type": "QUEST_COND_IS_DAYTIME",
          "_param": [
            "0"
          ]
        },
        {
          "type": "QUEST_COND_QUEST_GLOBAL_VAR_EQUAL",
          "_param": [
            "72802",
            "1"
          ]
        },
        {
          "type": "QUEST_COND_QUEST_GLOBAL_VAR_EQUAL",
          "_param": [
            "12042",
            "1"
          ]
        }
      ],
      "priority": 2,
      "initDialog": 729220201,
      "npcId": [
        3050
      ],
      "performCfg": "",
      "assetIndex": 789225100799231459,
      "dontBlockDaily": true,
      "prePerformCfg": ""
    }
  ]
}