{
  "npcId": 3061,
  "talks": [
    {
      "id": 6306101,
      "beginWay": "TALK_BEGIN_MANUAL",
      "priority": 3,
      "nextTalks": [
        6306102,
        6306103
      ],
      "initDialog": 630610101,
      "npcId": [
        3061
      ],
      "performCfg": "",
      "assetIndex": 12188835621612708028,
      "prePerformCfg": "",
      "freeStyleList": [
        9000
      ]
    },
    {
      "id": 6306102,
      "priority": 1,
      "nextTalks": [
        6306104
      ],
      "initDialog": 630610201,
      "npcId": [
        3061
      ],
      "performCfg": "",
      "assetIndex": 14964843658673224200,
      "prePerformCfg": ""
    },
    {
      "id": 6306103,
      "priority": 1,
      "initDialog": 630610301,
      "npcId": [
        3061
      ],
      "performCfg": "",
      "assetIndex": 7992354584612949276,
      "prePerformCfg": ""
    },
    {
      "id": 6306104,
      "priority": 1,
      "nextTalks": [
        6306105
      ],
      "initDialog": 630610401,
      "npcId": [
        3061
      ],
      "performCfg": "",
      "assetIndex": 1031283861073627060,
      "prePerformCfg": ""
    },
    {
      "id": 6306105,
      "priority": 1,
      "initDialog": 630610501,
      "npcId": [
        3061
      ],
      "performCfg": "",
      "assetIndex": 15904989676547277024,
      "prePerformCfg": ""
    }
  ]
}