{
  "npcId": 3063,
  "talks": [
    {
      "id": 6306301,
      "beginWay": "TALK_BEGIN_MANUAL",
      "priority": 3,
      "nextTalks": [
        6306302,
        6306303,
        6306304
      ],
      "initDialog": 630630101,
      "npcId": [
        3063
      ],
      "performCfg": "",
      "assetIndex": 14059390981151659676,
      "prePerformCfg": "",
      "freeStyleList": [
        9000
      ]
    },
    {
      "id": 6306302,
      "priority": 1,
      "initDialog": 630630201,
      "npcId": [
        3063
      ],
      "performCfg": "",
      "assetIndex": 14316654763895740881,
      "prePerformCfg": ""
    },
    {
      "id": 6306303,
      "priority": 1,
      "initDialog": 630630301,
      "npcId": [
        3063
      ],
      "performCfg": "",
      "assetIndex": 249178583407171970,
      "prePerformCfg": ""
    },
    {
      "id": 6306304,
      "priority": 1,
      "initDialog": 630630401,
      "npcId": [
        3063
      ],
      "performCfg": "",
      "assetIndex": 11736097920089426655,
      "prePerformCfg": ""
    },
    {
      "id": 6306305,
      "beginWay": "TALK_BEGIN_MANUAL",
      "beginCond": [
        {
          "type": "QUEST_COND_STATE_EQUAL",
          "_param": [
            "7216226",
            "3"
          ]
        }
      ],
      "priority": 4,
      "nextTalks": [
        6306306,
        6306307,
        6306304
      ],
      "initDialog": 630630501,
      "npcId": [
        3063
      ],
      "performCfg": "",
      "assetIndex": 1148377189423598580,
      "prePerformCfg": "",
      "freeStyleList": [
        9000
      ]
    },
    {
      "id": 6306306,
      "beginCond": [
        {
          "type": "QUEST_COND_STATE_EQUAL",
          "_param": [
            "7216226",
            "3"
          ]
        }
      ],
      "priority": 1,
      "initDialog": 630630601,
      "npcId": [
        3063
      ],
      "performCfg": "",
      "assetIndex": 10607101234081898620,
      "prePerformCfg": ""
    },
    {
      "id": 6306307,
      "beginCond": [
        {
          "type": "QUEST_COND_STATE_EQUAL",
          "_param": [
            "7216226",
            "3"
          ]
        }
      ],
      "priority": 1,
      "initDialog": 630630701,
      "npcId": [
        3063
      ],
      "performCfg": "",
      "assetIndex": 1644359838920490292,
      "prePerformCfg": ""
    }
  ]
}