{
  "npcId": 3089,
  "talks": [
    {
      "id": 4006310,
      "beginWay": "TALK_BEGIN_MANUAL",
      "beginCond": [
        {
          "type": "QUEST_COND_ACTIVITY_CLIENT_COND",
          "_param": [
            "2012",
            "2012002",
            "1"
          ]
        }
      ],
      "priority": 5,
      "nextTalks": [
        6308907,
        6308908,
        6308909
      ],
      "initDialog": 400631001,
      "npcId": [
        3089
      ],
      "performCfg": "",
      "assetIndex": 12539624876076039359,
      "prePerformCfg": ""
    },
    {
      "id": 6308901,
      "beginWay": "TALK_BEGIN_MANUAL",
      "beginCond": [
        {
          "type": "QUEST_COND_QUEST_GLOBAL_VAR_EQUAL",
          "_param": [
            "12042",
            "0"
          ]
        }
      ],
      "priority": 3,
      "nextTalks": [
        6308902,
        6308905,
        6308903,
        6308904
      ],
      "initDialog": 630890101,
      "npcId": [
        3089
      ],
      "performCfg": "",
      "assetIndex": 12200731667704307585,
      "prePerformCfg": "",
      "freeStyleList": [
        9000
      ]
    },
    {
      "id": 6308902,
      "beginCond": [
        {
          "type": "QUEST_COND_QUEST_GLOBAL_VAR_EQUAL",
          "_param": [
            "12042",
            "0"
          ]
        }
      ],
      "priority": 3,
      "initDialog": 630890201,
      "npcId": [
        3089
      ],
      "performCfg": "",
      "assetIndex": 18029903763902873154,
      "prePerformCfg": ""
    },
    {
      "id": 6308903,
      "beginCondComb": "LOGIC_AND",
      "beginCond": [
        {
          "type": "QUEST_COND_QUEST_GLOBAL_VAR_EQUAL",
          "_param": [
            "10014",
            "0"
          ]
        },
        {
          "type": "QUEST_COND_QUEST_GLOBAL_VAR_EQUAL",
          "_param": [
            "12042",
            "0"
          ]
        }
      ],
      "priority": 3,
      "initDialog": 630890301,
      "npcId": [
        3089
      ],
      "performCfg": "",
      "assetIndex": 16920625236191754441,
      "prePerformCfg": ""
    },
    {
      "id": 6308904,
      "beginCond": [
        {
          "type": "QUEST_COND_QUEST_GLOBAL_VAR_EQUAL",
          "_param": [
            "12042",
            "0"
          ]
        }
      ],
      "priority": 3,
      "initDialog": 630890401,
      "npcId": [
        3089
      ],
      "performCfg": "",
      "assetIndex": 16585001500092334766,
      "prePerformCfg": ""
    },
    {
      "id": 6308905,
      "beginCondComb": "LOGIC_AND",
      "beginCond": [
        {
          "type": "QUEST_COND_QUEST_GLOBAL_VAR_EQUAL",
          "_param": [
            "10014",
            "1"
          ]
        },
        {
          "type": "QUEST_COND_QUEST_GLOBAL_VAR_EQUAL",
          "_param": [
            "12042",
            "0"
          ]
        }
      ],
      "priority": 3,
      "initDialog": 630890501,
      "npcId": [
        3089
      ],
      "performCfg": "",
      "assetIndex": 6999881008071556101,
      "prePerformCfg": ""
    },
    {
      "id": 6308906,
      "beginWay": "TALK_BEGIN_MANUAL",
      "beginCond": [
        {
          "type": "QUEST_COND_QUEST_GLOBAL_VAR_EQUAL",
          "_param": [
            "12042",
            "1"
          ]
        }
      ],
      "priority": 3,
      "nextTalks": [
        6308907,
        6308908,
        6308909
      ],
      "initDialog": 630890601,
      "npcId": [
        3089
      ],
      "performCfg": "",
      "assetIndex": 16125655786641967167,
      "prePerformCfg": ""
    },
    {
      "id": 6308907,
      "beginCond": [
        {
          "type": "QUEST_COND_QUEST_GLOBAL_VAR_EQUAL",
          "_param": [
            "12042",
            "1"
          ]
        }
      ],
      "priority": 1,
      "initDialog": 630890701,
      "npcId": [
        3089
      ],
      "performCfg": "",
      "assetIndex": 15713706393502862044,
      "prePerformCfg": ""
    },
    {
      "id": 6308908,
      "beginCond": [
        {
          "type": "QUEST_COND_QUEST_GLOBAL_VAR_EQUAL",
          "_param": [
            "12042",
            "1"
          ]
        }
      ],
      "priority": 1,
      "initDialog": 630890801,
      "npcId": [
        3089
      ],
      "performCfg": "",
      "assetIndex": 11455389524120789245,
      "prePerformCfg": ""
    },
    {
      "id": 6308909,
      "beginCond": [
        {
          "type": "QUEST_COND_QUEST_GLOBAL_VAR_EQUAL",
          "_param": [
            "12042",
            "1"
          ]
        }
      ],
      "priority": 1,
      "initDialog": 630890901,
      "npcId": [
        3089
      ],
      "performCfg": "",
      "assetIndex": 5480525222285814819,
      "prePerformCfg": ""
    }
  ]
}