{
  "npcId": 3091,
  "talks": [
    {
      "id": 6309101,
      "beginWay": "TALK_BEGIN_MANUAL",
      "beginCond": [
        {
          "type": "QUEST_COND_IS_DAYTIME",
          "_param": [
            "1"
          ]
        }
      ],
      "priority": 3,
      "nextTalks": [
        6309102,
        6309110,
        6309106
      ],
      "initDialog": 630910101,
      "npcId": [
        3091
      ],
      "performCfg": "",
      "assetIndex": 12961648709989856817,
      "prePerformCfg": "",
      "freeStyleList": [
        9000
      ]
    },
    {
      "id": 6309102,
      "beginCondComb": "LOGIC_AND",
      "beginCond": [
        {
          "type": "QUEST_COND_IS_DAYTIME",
          "_param": [
            "1"
          ]
        },
        {
          "type": "QUEST_COND_QUEST_GLOBAL_VAR_EQUAL",
          "_param": [
            "12042",
            "0"
          ]
        }
      ],
      "priority": 1,
      "nextTalks": [
        6309107,
        6309108
      ],
      "initDialog": 630910201,
      "npcId": [
        3091
      ],
      "performCfg": "",
      "assetIndex": 4088223988261302889,
      "prePerformCfg": ""
    },
    {
      "id": 6309103,
      "beginCond": [
        {
          "type": "QUEST_COND_IS_DAYTIME",
          "_param": [
            "0"
          ]
        }
      ],
      "priority": 1,
      "initDialog": 630910301,
      "npcId": [
        3091
      ],
      "performCfg": "",
      "assetIndex": 12587159382171271439,
      "prePerformCfg": ""
    },
    {
      "id": 6309104,
      "beginWay": "TALK_BEGIN_MANUAL",
      "beginCond": [
        {
          "type": "QUEST_COND_IS_DAYTIME",
          "_param": [
            "0"
          ]
        }
      ],
      "priority": 3,
      "nextTalks": [
        6309105,
        6309111,
        6309103
      ],
      "initDialog": 630910401,
      "npcId": [
        3091
      ],
      "performCfg": "",
      "assetIndex": 2219328611474834393,
      "prePerformCfg": ""
    },
    {
      "id": 6309105,
      "beginCond": [
        {
          "type": "QUEST_COND_IS_DAYTIME",
          "_param": [
            "0"
          ]
        },
        {
          "type": "QUEST_COND_QUEST_GLOBAL_VAR_EQUAL",
          "_param": [
            "12042",
            "0"
          ]
        }
      ],
      "priority": 1,
      "nextTalks": [
        6309109
      ],
      "initDialog": 630910501,
      "npcId": [
        3091
      ],
      "performCfg": "",
      "assetIndex": 4601396428561006983,
      "prePerformCfg": ""
    },
    {
      "id": 6309106,
      "beginCond": [
        {
          "type": "QUEST_COND_IS_DAYTIME",
          "_param": [
            "1"
          ]
        }
      ],
      "priority": 1,
      "initDialog": 630910601,
      "npcId": [
        3091
      ],
      "performCfg": "",
      "assetIndex": 10418268713896551654,
      "prePerformCfg": ""
    },
    {
      "id": 6309107,
      "beginCond": [
        {
          "type": "QUEST_COND_IS_DAYTIME",
          "_param": [
            "1"
          ]
        }
      ],
      "priority": 1,
      "initDialog": 630910701,
      "npcId": [
        3091
      ],
      "performCfg": "",
      "assetIndex": 12228876583605883788,
      "prePerformCfg": ""
    },
    {
      "id": 6309108,
      "beginCond": [
        {
          "type": "QUEST_COND_IS_DAYTIME",
          "_param": [
            "1"
          ]
        }
      ],
      "priority": 1,
      "nextTalks": [
        7290901
      ],
      "initDialog": 630910801,
      "npcId": [
        3091
      ],
      "performCfg": "",
      "assetIndex": 15018384454953491283,
      "prePerformCfg": ""
    },
    {
      "id": 6309109,
      "beginCond": [
        {
          "type": "QUEST_COND_IS_DAYTIME",
          "_param": [
            "0"
          ]
        }
      ],
      "priority": 1,
      "initDialog": 630910901,
      "npcId": [
        3091
      ],
      "performCfg": "",
      "assetIndex": 4792793953490338014,
      "prePerformCfg": ""
    },
    {
      "id": 6309110,
      "beginWay": "TALK_BEGIN_MANUAL",
      "beginCond": [
        {
          "type": "QUEST_COND_IS_DAYTIME",
          "_param": [
            "1"
          ]
        },
        {
          "type": "QUEST_COND_QUEST_GLOBAL_VAR_EQUAL",
          "_param": [
            "12042",
            "1"
          ]
        }
      ],
      "priority": 1,
      "nextTalks": [
        6309107,
        6309108
      ],
      "initDialog": 630911001,
      "npcId": [
        3091
      ],
      "performCfg": "",
      "assetIndex": 9745953845001782115,
      "prePerformCfg": ""
    },
    {
      "id": 6309111,
      "beginCond": [
        {
          "type": "QUEST_COND_IS_DAYTIME",
          "_param": [
            "0"
          ]
        },
        {
          "type": "QUEST_COND_QUEST_GLOBAL_VAR_EQUAL",
          "_param": [
            "12042",
            "1"
          ]
        }
      ],
      "priority": 1,
      "nextTalks": [
        6309109
      ],
      "initDialog": 630911101,
      "npcId": [
        3091
      ],
      "performCfg": "",
      "assetIndex": 10545186736914839752,
      "prePerformCfg": ""
    },
    {
      "id": 7290901,
      "beginWay": "TALK_BEGIN_MANUAL",
      "beginCondComb": "LOGIC_AND",
      "beginCond": [
        {
          "type": "QUEST_COND_QUEST_NOT_RECEIVE",
          "_param": [
            "7290901",
            "1"
          ]
        },
        {
          "type": "QUEST_COND_IS_DAYTIME",
          "_param": [
            "1"
          ]
        }
      ],
      "priority": 1,
      "initDialog": 729090101,
      "npcId": [
        3091
      ],
      "performCfg": "",
      "assetIndex": 10390682434070723085,
      "dontBlockDaily": true,
      "prePerformCfg": ""
    }
  ]
}