{
  "npcId": 3095,
  "talks": [
    {
      "id": 4006314,
      "beginWay": "TALK_BEGIN_MANUAL",
      "beginCondComb": "LOGIC_AND",
      "beginCond": [
        {
          "type": "QUEST_COND_ACTIVITY_CLIENT_COND",
          "_param": [
            "2012",
            "2012002",
            "1"
          ]
        },
        {
          "type": "QUEST_COND_QUEST_GLOBAL_VAR_EQUAL",
          "_param": [
            "4005513",
            "1"
          ]
        }
      ],
      "priority": 5,
      "nextTalks": [
        6309510,
        6309511
      ],
      "initDialog": 400631401,
      "npcId": [
        3095
      ],
      "performCfg": "",
      "assetIndex": 5396277893396056454,
      "prePerformCfg": ""
    },
    {
      "id": 6309501,
      "beginWay": "TALK_BEGIN_MANUAL",
      "beginCondComb": "LOGIC_AND",
      "beginCond": [
        {
          "type": "QUEST_COND_QUEST_GLOBAL_VAR_EQUAL",
          "_param": [
            "10014",
            "0"
          ]
        },
        {
          "type": "QUEST_COND_QUEST_GLOBAL_VAR_EQUAL",
          "_param": [
            "12042",
            "0"
          ]
        }
      ],
      "priority": 3,
      "nextTalks": [
        6309502,
        6309504
      ],
      "initDialog": 630950101,
      "npcId": [
        3095
      ],
      "performCfg": "",
      "assetIndex": 12929715292106972395,
      "prePerformCfg": "",
      "freeStyleList": [
        9000
      ]
    },
    {
      "id": 6309502,
      "beginCondComb": "LOGIC_AND",
      "beginCond": [
        {
          "type": "QUEST_COND_QUEST_GLOBAL_VAR_EQUAL",
          "_param": [
            "10014",
            "0"
          ]
        },
        {
          "type": "QUEST_COND_QUEST_GLOBAL_VAR_EQUAL",
          "_param": [
            "12042",
            "0"
          ]
        }
      ],
      "priority": 1,
      "nextTalks": [
        6309503
      ],
      "initDialog": 630950201,
      "npcId": [
        3095
      ],
      "performCfg": "",
      "assetIndex": 7565757079790688146,
      "prePerformCfg": ""
    },
    {
      "id": 6309503,
      "beginCondComb": "LOGIC_AND",
      "beginCond": [
        {
          "type": "QUEST_COND_QUEST_GLOBAL_VAR_EQUAL",
          "_param": [
            "10014",
            "0"
          ]
        },
        {
          "type": "QUEST_COND_QUEST_GLOBAL_VAR_EQUAL",
          "_param": [
            "12042",
            "0"
          ]
        }
      ],
      "priority": 1,
      "initDialog": 630950301,
      "npcId": [
        3095
      ],
      "performCfg": "",
      "assetIndex": 13664169466404819047,
      "prePerformCfg": ""
    },
    {
      "id": 6309504,
      "beginCondComb": "LOGIC_AND",
      "beginCond": [
        {
          "type": "QUEST_COND_QUEST_GLOBAL_VAR_EQUAL",
          "_param": [
            "10014",
            "0"
          ]
        },
        {
          "type": "QUEST_COND_QUEST_GLOBAL_VAR_EQUAL",
          "_param": [
            "12042",
            "0"
          ]
        }
      ],
      "priority": 1,
      "initDialog": 630950401,
      "npcId": [
        3095
      ],
      "performCfg": "",
      "assetIndex": 18338824748023685080,
      "prePerformCfg": ""
    },
    {
      "id": 6309505,
      "beginWay": "TALK_BEGIN_MANUAL",
      "beginCondComb": "LOGIC_AND",
      "beginCond": [
        {
          "type": "QUEST_COND_QUEST_GLOBAL_VAR_EQUAL",
          "_param": [
            "10014",
            "1"
          ]
        },
        {
          "type": "QUEST_COND_QUEST_GLOBAL_VAR_EQUAL",
          "_param": [
            "12042",
            "0"
          ]
        }
      ],
      "priority": 3,
      "nextTalks": [
        6309506,
        6309508
      ],
      "initDialog": 630950501,
      "npcId": [
        3095
      ],
      "performCfg": "",
      "assetIndex": 3914832935790911500,
      "prePerformCfg": "",
      "freeStyleList": [
        9000
      ]
    },
    {
      "id": 6309506,
      "beginCondComb": "LOGIC_AND",
      "beginCond": [
        {
          "type": "QUEST_COND_QUEST_GLOBAL_VAR_EQUAL",
          "_param": [
            "10014",
            "1"
          ]
        },
        {
          "type": "QUEST_COND_QUEST_GLOBAL_VAR_EQUAL",
          "_param": [
            "12042",
            "0"
          ]
        }
      ],
      "priority": 1,
      "nextTalks": [
        6309507
      ],
      "initDialog": 630950601,
      "npcId": [
        3095
      ],
      "performCfg": "",
      "assetIndex": 6815243002715099696,
      "prePerformCfg": ""
    },
    {
      "id": 6309507,
      "beginCondComb": "LOGIC_AND",
      "beginCond": [
        {
          "type": "QUEST_COND_QUEST_GLOBAL_VAR_EQUAL",
          "_param": [
            "10014",
            "1"
          ]
        },
        {
          "type": "QUEST_COND_QUEST_GLOBAL_VAR_EQUAL",
          "_param": [
            "12042",
            "0"
          ]
        }
      ],
      "priority": 1,
      "initDialog": 630950701,
      "npcId": [
        3095
      ],
      "performCfg": "",
      "assetIndex": 6978126209648137071,
      "prePerformCfg": ""
    },
    {
      "id": 6309508,
      "beginCondComb": "LOGIC_AND",
      "beginCond": [
        {
          "type": "QUEST_COND_QUEST_GLOBAL_VAR_EQUAL",
          "_param": [
            "10014",
            "1"
          ]
        },
        {
          "type": "QUEST_COND_QUEST_GLOBAL_VAR_EQUAL",
          "_param": [
            "12042",
            "0"
          ]
        }
      ],
      "priority": 1,
      "initDialog": 630950801,
      "npcId": [
        3095
      ],
      "performCfg": "",
      "assetIndex": 11599307456343200272,
      "prePerformCfg": ""
    },
    {
      "id": 6309509,
      "beginWay": "TALK_BEGIN_MANUAL",
      "beginCond": [
        {
          "type": "QUEST_COND_QUEST_GLOBAL_VAR_EQUAL",
          "_param": [
            "12042",
            "1"
          ]
        }
      ],
      "priority": 3,
      "nextTalks": [
        6309510,
        6309511
      ],
      "initDialog": 630950901,
      "npcId": [
        3095
      ],
      "performCfg": "",
      "assetIndex": 1247202691368674831,
      "prePerformCfg": ""
    },
    {
      "id": 6309510,
      "beginCond": [
        {
          "type": "QUEST_COND_QUEST_GLOBAL_VAR_EQUAL",
          "_param": [
            "12042",
            "1"
          ]
        }
      ],
      "priority": 1,
      "nextTalks": [
        6309512
      ],
      "initDialog": 630951001,
      "npcId": [
        3095
      ],
      "performCfg": "",
      "assetIndex": 13704743951260591780,
      "prePerformCfg": ""
    },
    {
      "id": 6309511,
      "beginCond": [
        {
          "type": "QUEST_COND_QUEST_GLOBAL_VAR_EQUAL",
          "_param": [
            "12042",
            "1"
          ]
        }
      ],
      "priority": 1,
      "initDialog": 630951101,
      "npcId": [
        3095
      ],
      "performCfg": "",
      "assetIndex": 17713187917696163791,
      "prePerformCfg": ""
    },
    {
      "id": 6309512,
      "beginCond": [
        {
          "type": "QUEST_COND_QUEST_GLOBAL_VAR_EQUAL",
          "_param": [
            "12042",
            "1"
          ]
        }
      ],
      "priority": 1,
      "initDialog": 630951201,
      "npcId": [
        3095
      ],
      "performCfg": "",
      "assetIndex": 3868576799314166999,
      "prePerformCfg": ""
    }
  ]
}