{
  "npcId": 3101,
  "talks": [
    {
      "id": 6310101,
      "beginWay": "TALK_BEGIN_MANUAL",
      "priority": 3,
      "nextTalks": [
        6310102,
        6310104
      ],
      "initDialog": 631010101,
      "npcId": [
        3101
      ],
      "performCfg": "",
      "assetIndex": 10873082694554639559,
      "prePerformCfg": ""
    },
    {
      "id": 6310102,
      "priority": 3,
      "nextTalks": [
        6310103,
        7292601
      ],
      "initDialog": 631010201,
      "npcId": [
        3101
      ],
      "performCfg": "",
      "assetIndex": 4748091116657440968,
      "prePerformCfg": ""
    },
    {
      "id": 6310103,
      "priority": 3,
      "initDialog": 631010301,
      "npcId": [
        3101
      ],
      "performCfg": "",
      "assetIndex": 10364835797304068272,
      "prePerformCfg": ""
    },
    {
      "id": 6310104,
      "priority": 3,
      "initDialog": 631010401,
      "npcId": [
        3101
      ],
      "performCfg": "",
      "assetIndex": 10101251535053441645,
      "prePerformCfg": ""
    },
    {
      "id": 7228613,
      "beginWay": "TALK_BEGIN_MANUAL",
      "activeMode": "PLAY_MODE_HOST",
      "beginCondComb": "LOGIC_AND",
      "beginCond": [
        {
          "type": "QUEST_COND_STATE_EQUAL",
          "_param": [
            "7228601",
            "3"
          ]
        },
        {
          "type": "QUEST_COND_QUEST_NOT_RECEIVE",
          "_param": [
            "7228603",
            "1"
          ]
        }
      ],
      "priority": 5,
      "initDialog": 722861301,
      "npcId": [
        3101
      ],
      "performCfg": "",
      "heroTalk": "TALK_HERO_MAIN",
      "assetIndex": 18106520911029820388,
      "prePerformCfg": ""
    },
    {
      "id": 7292601,
      "beginWay": "TALK_BEGIN_MANUAL",
      "beginCondComb": "LOGIC_OR",
      "beginCond": [
        {
          "type": "QUEST_COND_QUEST_NOT_RECEIVE",
          "_param": [
            "7292601",
            "1"
          ]
        }
      ],
      "priority": 1,
      "initDialog": 729260101,
      "npcId": [
        3101
      ],
      "performCfg": "",
      "assetIndex": 18007789183122205252,
      "dontBlockDaily": true,
      "prePerformCfg": ""
    }
  ]
}