{
  "npcId": 3105,
  "talks": [
    {
      "id": 6310501,
      "beginWay": "TALK_BEGIN_MANUAL",
      "priority": 3,
      "nextTalks": [
        6310507,
        6310506,
        6310502,
        6310504,
        6310505
      ],
      "initDialog": 631050101,
      "npcId": [
        3105
      ],
      "performCfg": "",
      "assetIndex": 4018464224966839203,
      "prePerformCfg": ""
    },
    {
      "id": 6310502,
      "priority": 3,
      "nextTalks": [
        6310503,
        6310508
      ],
      "initDialog": 631050201,
      "npcId": [
        3105
      ],
      "performCfg": "",
      "assetIndex": 2882438120964255250,
      "prePerformCfg": ""
    },
    {
      "id": 6310503,
      "beginCond": [
        {
          "type": "QUEST_COND_QUEST_GLOBAL_VAR_EQUAL",
          "_param": [
            "12042",
            "0"
          ]
        }
      ],
      "priority": 3,
      "initDialog": 631050301,
      "npcId": [
        3105
      ],
      "performCfg": "",
      "assetIndex": 12852327673743147571,
      "prePerformCfg": ""
    },
    {
      "id": 6310504,
      "priority": 3,
      "initDialog": 631050401,
      "npcId": [
        3105
      ],
      "performCfg": "",
      "assetIndex": 6448674272985440262,
      "prePerformCfg": ""
    },
    {
      "id": 6310505,
      "priority": 3,
      "initDialog": 631050501,
      "npcId": [
        3105
      ],
      "performCfg": "",
      "assetIndex": 813154110073868576,
      "prePerformCfg": ""
    },
    {
      "id": 6310506,
      "beginCond": [
        {
          "type": "QUEST_COND_STATE_EQUAL",
          "_param": [
            "7210507",
            "3"
          ]
        }
      ],
      "priority": 3,
      "nextTalks": [
        7294601
      ],
      "initDialog": 631050601,
      "npcId": [
        3105
      ],
      "performCfg": "",
      "assetIndex": 14954168784049944089,
      "prePerformCfg": ""
    },
    {
      "id": 6310507,
      "beginCond": [
        {
          "type": "QUEST_COND_QUEST_GLOBAL_VAR_EQUAL",
          "_param": [
            "72266",
            "1"
          ]
        }
      ],
      "priority": 3,
      "initDialog": 631050701,
      "npcId": [
        3105
      ],
      "performCfg": "",
      "assetIndex": 1240097644789910260,
      "prePerformCfg": ""
    },
    {
      "id": 6310508,
      "beginCond": [
        {
          "type": "QUEST_COND_QUEST_GLOBAL_VAR_EQUAL",
          "_param": [
            "12042",
            "1"
          ]
        }
      ],
      "priority": 3,
      "initDialog": 631050801,
      "npcId": [
        3105
      ],
      "performCfg": "",
      "assetIndex": 532589333516245675,
      "prePerformCfg": ""
    },
    {
      "id": 7294601,
      "beginWay": "TALK_BEGIN_MANUAL",
      "beginCondComb": "LOGIC_AND",
      "beginCond": [
        {
          "type": "QUEST_COND_QUEST_NOT_RECEIVE",
          "_param": [
            "7294601",
            "1"
          ]
        },
        {
          "type": "QUEST_COND_STATE_EQUAL",
          "_param": [
            "7210507",
            "3"
          ]
        }
      ],
      "priority": 1,
      "initDialog": 729460101,
      "npcId": [
        3105
      ],
      "performCfg": "",
      "assetIndex": 12910450505082435030,
      "dontBlockDaily": true,
      "prePerformCfg": ""
    }
  ]
}