{
  "npcId": 3106,
  "talks": [
    {
      "id": 6310601,
      "beginWay": "TALK_BEGIN_MANUAL",
      "beginCond": [
        {
          "type": "QUEST_COND_QUEST_GLOBAL_VAR_EQUAL",
          "_param": [
            "105301",
            "0"
          ]
        }
      ],
      "priority": 3,
      "nextTalks": [
        7271601,
        6310602,
        6310605,
        6310607
      ],
      "initDialog": 631060101,
      "npcId": [
        3106
      ],
      "performCfg": "",
      "assetIndex": 10982935169087377454,
      "prePerformCfg": ""
    },
    {
      "id": 6310602,
      "priority": 3,
      "nextTalks": [
        6310603,
        6310604
      ],
      "initDialog": 631060201,
      "npcId": [
        3106
      ],
      "performCfg": "",
      "assetIndex": 28300793874959057,
      "prePerformCfg": ""
    },
    {
      "id": 6310603,
      "priority": 3,
      "initDialog": 631060301,
      "npcId": [
        3106
      ],
      "performCfg": "",
      "assetIndex": 12802787936821342084,
      "prePerformCfg": ""
    },
    {
      "id": 6310604,
      "priority": 3,
      "initDialog": 631060401,
      "npcId": [
        3106
      ],
      "performCfg": "",
      "assetIndex": 17994351545097278516,
      "prePerformCfg": ""
    },
    {
      "id": 6310605,
      "priority": 3,
      "nextTalks": [
        6310606
      ],
      "initDialog": 631060501,
      "npcId": [
        3106
      ],
      "performCfg": "",
      "assetIndex": 16305746315985045208,
      "prePerformCfg": ""
    },
    {
      "id": 6310606,
      "priority": 3,
      "initDialog": 631060601,
      "npcId": [
        3106
      ],
      "performCfg": "",
      "assetIndex": 8865774539927636447,
      "prePerformCfg": ""
    },
    {
      "id": 6310607,
      "priority": 3,
      "initDialog": 631060701,
      "npcId": [
        3106
      ],
      "performCfg": "",
      "assetIndex": 4997353124027318964,
      "prePerformCfg": ""
    },
    {
      "id": 6310608,
      "beginWay": "TALK_BEGIN_MANUAL",
      "beginCond": [
        {
          "type": "QUEST_COND_QUEST_GLOBAL_VAR_EQUAL",
          "_param": [
            "105301",
            "1"
          ]
        }
      ],
      "priority": 3,
      "nextTalks": [
        7271601,
        6310609,
        6310610,
        6310607
      ],
      "initDialog": 631060801,
      "npcId": [
        3106
      ],
      "performCfg": "",
      "assetIndex": 5543979228717853692,
      "prePerformCfg": ""
    },
    {
      "id": 6310609,
      "priority": 3,
      "nextTalks": [
        6310603,
        6310604
      ],
      "initDialog": 631060901,
      "npcId": [
        3106
      ],
      "performCfg": "",
      "assetIndex": 4441366615445381890,
      "prePerformCfg": ""
    },
    {
      "id": 6310610,
      "priority": 3,
      "initDialog": 631061001,
      "npcId": [
        3106
      ],
      "performCfg": "",
      "assetIndex": 12151374236796753282,
      "prePerformCfg": ""
    }
  ]
}