{
  "npcId": 3109,
  "talks": [
    {
      "id": 6310901,
      "beginWay": "TALK_BEGIN_MANUAL",
      "priority": 3,
      "nextTalks": [
        7271501,
        6310902,
        6310903
      ],
      "initDialog": 631090101,
      "npcId": [
        3109
      ],
      "performCfg": "",
      "assetIndex": 10412922117714709199,
      "prePerformCfg": "",
      "freeStyleList": [
        9000
      ]
    },
    {
      "id": 6310902,
      "priority": 3,
      "nextTalks": [
        7292701
      ],
      "initDialog": 631090201,
      "npcId": [
        3109
      ],
      "performCfg": "",
      "assetIndex": 10990910162957595466,
      "prePerformCfg": ""
    },
    {
      "id": 6310903,
      "priority": 3,
      "initDialog": 631090301,
      "npcId": [
        3109
      ],
      "performCfg": "",
      "assetIndex": 15070772283999855702,
      "prePerformCfg": ""
    },
    {
      "id": 7292701,
      "beginWay": "TALK_BEGIN_MANUAL",
      "beginCondComb": "LOGIC_OR",
      "beginCond": [
        {
          "type": "QUEST_COND_QUEST_NOT_RECEIVE",
          "_param": [
            "7292701",
            "1"
          ]
        }
      ],
      "priority": 1,
      "initDialog": 729270101,
      "npcId": [
        3109
      ],
      "performCfg": "",
      "assetIndex": 1109981444012890982,
      "dontBlockDaily": true,
      "prePerformCfg": ""
    }
  ]
}