{
  "npcId": 3112,
  "talks": [
    {
      "id": 6311201,
      "beginWay": "TALK_BEGIN_MANUAL",
      "beginCond": [
        {
          "type": "QUEST_COND_QUEST_GLOBAL_VAR_EQUAL",
          "_param": [
            "1202401",
            "0"
          ]
        }
      ],
      "priority": 3,
      "nextTalks": [
        6311202,
        6311206,
        6311203
      ],
      "initDialog": 631120101,
      "npcId": [
        3112
      ],
      "performCfg": "",
      "assetIndex": 5113332091225677998,
      "prePerformCfg": "",
      "freeStyleList": [
        9000
      ]
    },
    {
      "id": 6311202,
      "beginCond": [
        {
          "type": "QUEST_COND_QUEST_GLOBAL_VAR_EQUAL",
          "_param": [
            "1202401",
            "0"
          ]
        }
      ],
      "priority": 1,
      "nextTalks": [
        6311204
      ],
      "initDialog": 631120201,
      "npcId": [
        3112
      ],
      "performCfg": "",
      "assetIndex": 12102589365418599203,
      "prePerformCfg": ""
    },
    {
      "id": 6311203,
      "beginCond": [
        {
          "type": "QUEST_COND_QUEST_GLOBAL_VAR_EQUAL",
          "_param": [
            "1202401",
            "0"
          ]
        }
      ],
      "priority": 1,
      "initDialog": 631120301,
      "npcId": [
        3112
      ],
      "performCfg": "",
      "assetIndex": 11934433825243369790,
      "prePerformCfg": ""
    },
    {
      "id": 6311204,
      "beginCond": [
        {
          "type": "QUEST_COND_QUEST_GLOBAL_VAR_EQUAL",
          "_param": [
            "1202401",
            "0"
          ]
        }
      ],
      "priority": 1,
      "nextTalks": [
        6311205
      ],
      "initDialog": 631120401,
      "npcId": [
        3112
      ],
      "performCfg": "",
      "assetIndex": 16119014339304498659,
      "prePerformCfg": ""
    },
    {
      "id": 6311205,
      "beginCond": [
        {
          "type": "QUEST_COND_QUEST_GLOBAL_VAR_EQUAL",
          "_param": [
            "1202401",
            "0"
          ]
        }
      ],
      "priority": 1,
      "initDialog": 631120501,
      "npcId": [
        3112
      ],
      "performCfg": "",
      "assetIndex": 9439687081170395303,
      "prePerformCfg": ""
    },
    {
      "id": 6311206,
      "beginCondComb": "LOGIC_AND",
      "beginCond": [
        {
          "type": "QUEST_COND_STATE_EQUAL",
          "_param": [
            "7212422",
            "3"
          ]
        },
        {
          "type": "QUEST_COND_QUEST_GLOBAL_VAR_EQUAL",
          "_param": [
            "1202401",
            "0"
          ]
        }
      ],
      "priority": 1,
      "initDialog": 631120601,
      "npcId": [
        3112
      ],
      "performCfg": "",
      "assetIndex": 12674813401952185245,
      "prePerformCfg": ""
    },
    {
      "id": 6311207,
      "beginWay": "TALK_BEGIN_MANUAL",
      "beginCond": [
        {
          "type": "QUEST_COND_QUEST_GLOBAL_VAR_EQUAL",
          "_param": [
            "1202401",
            "1"
          ]
        }
      ],
      "priority": 4,
      "nextTalks": [
        6311208,
        6311210,
        6311211
      ],
      "initDialog": 631120701,
      "npcId": [
        3112
      ],
      "performCfg": "",
      "assetIndex": 4928034825434720835,
      "prePerformCfg": "",
      "freeStyleList": [
        9000
      ]
    },
    {
      "id": 6311208,
      "beginCond": [
        {
          "type": "QUEST_COND_QUEST_GLOBAL_VAR_EQUAL",
          "_param": [
            "1202401",
            "1"
          ]
        }
      ],
      "priority": 1,
      "nextTalks": [
        6311209
      ],
      "initDialog": 631120801,
      "npcId": [
        3112
      ],
      "performCfg": "",
      "assetIndex": 9202553925712284570,
      "prePerformCfg": ""
    },
    {
      "id": 6311209,
      "beginCond": [
        {
          "type": "QUEST_COND_QUEST_GLOBAL_VAR_EQUAL",
          "_param": [
            "1202401",
            "1"
          ]
        }
      ],
      "priority": 1,
      "initDialog": 631120901,
      "npcId": [
        3112
      ],
      "performCfg": "",
      "assetIndex": 5187522249056885198,
      "prePerformCfg": ""
    },
    {
      "id": 6311210,
      "beginCondComb": "LOGIC_AND",
      "beginCond": [
        {
          "type": "QUEST_COND_STATE_EQUAL",
          "_param": [
            "7212422",
            "3"
          ]
        },
        {
          "type": "QUEST_COND_QUEST_GLOBAL_VAR_EQUAL",
          "_param": [
            "1202401",
            "1"
          ]
        }
      ],
      "priority": 1,
      "initDialog": 631121001,
      "npcId": [
        3112
      ],
      "performCfg": "",
      "assetIndex": 17689015438403855486,
      "prePerformCfg": ""
    },
    {
      "id": 6311211,
      "beginCond": [
        {
          "type": "QUEST_COND_QUEST_GLOBAL_VAR_EQUAL",
          "_param": [
            "1202401",
            "1"
          ]
        }
      ],
      "priority": 1,
      "initDialog": 631121101,
      "npcId": [
        3112
      ],
      "performCfg": "",
      "assetIndex": 8320578052659977222,
      "prePerformCfg": ""
    }
  ]
}