{
  "npcId": 3115,
  "talks": [
    {
      "id": 6311501,
      "beginWay": "TALK_BEGIN_MANUAL",
      "beginCond": [
        {
          "type": "QUEST_COND_QUEST_GLOBAL_VAR_EQUAL",
          "_param": [
            "1202401",
            "0"
          ]
        }
      ],
      "priority": 3,
      "nextTalks": [
        6311502,
        6311503
      ],
      "initDialog": 631150101,
      "npcId": [
        3115
      ],
      "performCfg": "",
      "assetIndex": 18144112973965441739,
      "prePerformCfg": "",
      "freeStyleList": [
        9000
      ]
    },
    {
      "id": 6311502,
      "beginCond": [
        {
          "type": "QUEST_COND_QUEST_GLOBAL_VAR_EQUAL",
          "_param": [
            "1202401",
            "0"
          ]
        }
      ],
      "priority": 1,
      "nextTalks": [
        6311504
      ],
      "initDialog": 631150201,
      "npcId": [
        3115
      ],
      "performCfg": "",
      "assetIndex": 3610220262929655580,
      "prePerformCfg": ""
    },
    {
      "id": 6311503,
      "beginCond": [
        {
          "type": "QUEST_COND_QUEST_GLOBAL_VAR_EQUAL",
          "_param": [
            "1202401",
            "0"
          ]
        }
      ],
      "priority": 1,
      "initDialog": 631150301,
      "npcId": [
        3115
      ],
      "performCfg": "",
      "assetIndex": 14223399833738880784,
      "prePerformCfg": ""
    },
    {
      "id": 6311504,
      "beginCond": [
        {
          "type": "QUEST_COND_QUEST_GLOBAL_VAR_EQUAL",
          "_param": [
            "1202401",
            "0"
          ]
        }
      ],
      "priority": 1,
      "initDialog": 631150401,
      "npcId": [
        3115
      ],
      "performCfg": "",
      "assetIndex": 16097396253602433461,
      "prePerformCfg": ""
    },
    {
      "id": 6311505,
      "beginWay": "TALK_BEGIN_MANUAL",
      "beginCond": [
        {
          "type": "QUEST_COND_QUEST_GLOBAL_VAR_EQUAL",
          "_param": [
            "1202401",
            "1"
          ]
        }
      ],
      "priority": 4,
      "nextTalks": [
        6311506,
        6311508
      ],
      "initDialog": 631150501,
      "npcId": [
        3115
      ],
      "performCfg": "",
      "assetIndex": 11237777005492649443,
      "prePerformCfg": "",
      "freeStyleList": [
        9000
      ]
    },
    {
      "id": 6311506,
      "beginCond": [
        {
          "type": "QUEST_COND_QUEST_GLOBAL_VAR_EQUAL",
          "_param": [
            "1202401",
            "1"
          ]
        }
      ],
      "priority": 1,
      "nextTalks": [
        6311507
      ],
      "initDialog": 631150601,
      "npcId": [
        3115
      ],
      "performCfg": "",
      "assetIndex": 2171257716277735175,
      "prePerformCfg": ""
    },
    {
      "id": 6311507,
      "beginCond": [
        {
          "type": "QUEST_COND_QUEST_GLOBAL_VAR_EQUAL",
          "_param": [
            "1202401",
            "1"
          ]
        }
      ],
      "priority": 1,
      "initDialog": 631150701,
      "npcId": [
        3115
      ],
      "performCfg": "",
      "assetIndex": 11226563914967636854,
      "prePerformCfg": ""
    },
    {
      "id": 6311508,
      "beginCond": [
        {
          "type": "QUEST_COND_QUEST_GLOBAL_VAR_EQUAL",
          "_param": [
            "1202401",
            "1"
          ]
        }
      ],
      "priority": 1,
      "initDialog": 631150801,
      "npcId": [
        3115
      ],
      "performCfg": "",
      "assetIndex": 10793700267407535719,
      "prePerformCfg": ""
    }
  ]
}