{
  "npcId": 3125,
  "talks": [
    {
      "id": 6312501,
      "beginWay": "TALK_BEGIN_MANUAL",
      "priority": 3,
      "nextTalks": [
        6312502,
        6312503
      ],
      "initDialog": 631250101,
      "npcId": [
        3125
      ],
      "performCfg": "",
      "assetIndex": 5041996594893687152,
      "prePerformCfg": "",
      "freeStyleList": [
        9000
      ]
    },
    {
      "id": 6312502,
      "priority": 1,
      "nextTalks": [
        6312504
      ],
      "initDialog": 631250201,
      "npcId": [
        3125
      ],
      "performCfg": "",
      "assetIndex": 17659454403572356302,
      "prePerformCfg": ""
    },
    {
      "id": 6312503,
      "priority": 1,
      "initDialog": 631250301,
      "npcId": [
        3125
      ],
      "performCfg": "",
      "assetIndex": 17939376801290040840,
      "prePerformCfg": ""
    },
    {
      "id": 6312504,
      "priority": 1,
      "initDialog": 631250401,
      "npcId": [
        3125
      ],
      "performCfg": "",
      "assetIndex": 13657747081615593078,
      "prePerformCfg": ""
    }
  ]
}