{
  "npcId": 3127,
  "talks": [
    {
      "id": 6312701,
      "beginWay": "TALK_BEGIN_MANUAL",
      "priority": 3,
      "initDialog": 631270101,
      "npcId": [
        3127,
        3128
      ],
      "performCfg": "",
      "assetIndex": 13156786502148999851,
      "prePerformCfg": ""
    }
  ]
}