{
  "npcId": 3129,
  "talks": [
    {
      "id": 6312901,
      "beginWay": "TALK_BEGIN_MANUAL",
      "beginCond": [
        {
          "type": "QUEST_COND_QUEST_GLOBAL_VAR_EQUAL",
          "_param": [
            "10014",
            "0"
          ]
        }
      ],
      "priority": 3,
      "nextTalks": [
        6312902,
        6312904,
        6312906
      ],
      "initDialog": 631290101,
      "npcId": [
        3129
      ],
      "performCfg": "",
      "assetIndex": 15085867151002832068,
      "prePerformCfg": "",
      "freeStyleList": [
        9000
      ]
    },
    {
      "id": 6312902,
      "beginCond": [
        {
          "type": "QUEST_COND_QUEST_GLOBAL_VAR_EQUAL",
          "_param": [
            "10014",
            "0"
          ]
        }
      ],
      "priority": 1,
      "nextTalks": [
        6312903
      ],
      "initDialog": 631290201,
      "npcId": [
        3129
      ],
      "performCfg": "",
      "assetIndex": 6461755825419765404,
      "prePerformCfg": ""
    },
    {
      "id": 6312903,
      "beginCond": [
        {
          "type": "QUEST_COND_QUEST_GLOBAL_VAR_EQUAL",
          "_param": [
            "10014",
            "0"
          ]
        }
      ],
      "priority": 1,
      "initDialog": 631290301,
      "npcId": [
        3129
      ],
      "performCfg": "",
      "assetIndex": 9867382932419672495,
      "prePerformCfg": ""
    },
    {
      "id": 6312904,
      "beginCond": [
        {
          "type": "QUEST_COND_QUEST_GLOBAL_VAR_EQUAL",
          "_param": [
            "10014",
            "0"
          ]
        }
      ],
      "priority": 1,
      "nextTalks": [
        6312905
      ],
      "initDialog": 631290401,
      "npcId": [
        3129
      ],
      "performCfg": "",
      "assetIndex": 11945187018536724367,
      "prePerformCfg": ""
    },
    {
      "id": 6312905,
      "beginCond": [
        {
          "type": "QUEST_COND_QUEST_GLOBAL_VAR_EQUAL",
          "_param": [
            "10014",
            "0"
          ]
        }
      ],
      "priority": 1,
      "initDialog": 631290501,
      "npcId": [
        3129
      ],
      "performCfg": "",
      "assetIndex": 15883436050307661091,
      "prePerformCfg": ""
    },
    {
      "id": 6312906,
      "beginCond": [
        {
          "type": "QUEST_COND_QUEST_GLOBAL_VAR_EQUAL",
          "_param": [
            "10014",
            "0"
          ]
        }
      ],
      "priority": 1,
      "initDialog": 631290601,
      "npcId": [
        3129
      ],
      "performCfg": "",
      "assetIndex": 13465083003742441351,
      "prePerformCfg": ""
    },
    {
      "id": 6312907,
      "beginWay": "TALK_BEGIN_MANUAL",
      "beginCondComb": "LOGIC_AND",
      "beginCond": [
        {
          "type": "QUEST_COND_STATE_EQUAL",
          "_param": [
            "200405",
            "3"
          ]
        },
        {
          "type": "QUEST_COND_QUEST_GLOBAL_VAR_EQUAL",
          "_param": [
            "10014",
            "0"
          ]
        }
      ],
      "priority": 4,
      "nextTalks": [
        6312908,
        6312909,
        6312910
      ],
      "initDialog": 631290701,
      "npcId": [
        3129
      ],
      "performCfg": "",
      "assetIndex": 10312731253646174886,
      "prePerformCfg": ""
    },
    {
      "id": 6312908,
      "beginCondComb": "LOGIC_AND",
      "beginCond": [
        {
          "type": "QUEST_COND_STATE_EQUAL",
          "_param": [
            "200405",
            "3"
          ]
        },
        {
          "type": "QUEST_COND_QUEST_GLOBAL_VAR_EQUAL",
          "_param": [
            "10014",
            "0"
          ]
        }
      ],
      "priority": 1,
      "initDialog": 631290801,
      "npcId": [
        3129
      ],
      "performCfg": "",
      "assetIndex": 7939946438554358916,
      "prePerformCfg": ""
    },
    {
      "id": 6312909,
      "beginCondComb": "LOGIC_AND",
      "beginCond": [
        {
          "type": "QUEST_COND_STATE_EQUAL",
          "_param": [
            "200405",
            "3"
          ]
        },
        {
          "type": "QUEST_COND_QUEST_GLOBAL_VAR_EQUAL",
          "_param": [
            "10014",
            "0"
          ]
        }
      ],
      "priority": 1,
      "initDialog": 631290901,
      "npcId": [
        3129
      ],
      "performCfg": "",
      "assetIndex": 3149520857675614136,
      "prePerformCfg": ""
    },
    {
      "id": 6312910,
      "beginCondComb": "LOGIC_AND",
      "beginCond": [
        {
          "type": "QUEST_COND_STATE_EQUAL",
          "_param": [
            "200405",
            "3"
          ]
        },
        {
          "type": "QUEST_COND_QUEST_GLOBAL_VAR_EQUAL",
          "_param": [
            "10014",
            "0"
          ]
        }
      ],
      "priority": 1,
      "initDialog": 631291001,
      "npcId": [
        3129
      ],
      "performCfg": "",
      "assetIndex": 14376061389740602003,
      "prePerformCfg": ""
    },
    {
      "id": 6312911,
      "beginWay": "TALK_BEGIN_MANUAL",
      "beginCondComb": "LOGIC_AND",
      "beginCond": [
        {
          "type": "QUEST_COND_STATE_EQUAL",
          "_param": [
            "200405",
            "3"
          ]
        },
        {
          "type": "QUEST_COND_QUEST_GLOBAL_VAR_EQUAL",
          "_param": [
            "10014",
            "1"
          ]
        }
      ],
      "priority": 5,
      "nextTalks": [
        6312912,
        6312913,
        6312914
      ],
      "initDialog": 631291101,
      "npcId": [
        3129
      ],
      "performCfg": "",
      "assetIndex": 2612274298359911561,
      "prePerformCfg": "",
      "freeStyleList": [
        9000
      ]
    },
    {
      "id": 6312912,
      "beginCondComb": "LOGIC_AND",
      "beginCond": [
        {
          "type": "QUEST_COND_STATE_EQUAL",
          "_param": [
            "200405",
            "3"
          ]
        },
        {
          "type": "QUEST_COND_QUEST_GLOBAL_VAR_EQUAL",
          "_param": [
            "10014",
            "1"
          ]
        }
      ],
      "priority": 1,
      "initDialog": 631291201,
      "npcId": [
        3129
      ],
      "performCfg": "",
      "assetIndex": 1898534926828788625,
      "prePerformCfg": ""
    },
    {
      "id": 6312913,
      "beginCondComb": "LOGIC_AND",
      "beginCond": [
        {
          "type": "QUEST_COND_STATE_EQUAL",
          "_param": [
            "200405",
            "3"
          ]
        },
        {
          "type": "QUEST_COND_QUEST_GLOBAL_VAR_EQUAL",
          "_param": [
            "10014",
            "1"
          ]
        }
      ],
      "priority": 1,
      "nextTalks": [
        7294301
      ],
      "initDialog": 631291301,
      "npcId": [
        3129
      ],
      "performCfg": "",
      "assetIndex": 18018660862131368463,
      "prePerformCfg": ""
    },
    {
      "id": 6312914,
      "beginCondComb": "LOGIC_AND",
      "beginCond": [
        {
          "type": "QUEST_COND_STATE_EQUAL",
          "_param": [
            "200405",
            "3"
          ]
        },
        {
          "type": "QUEST_COND_QUEST_GLOBAL_VAR_EQUAL",
          "_param": [
            "10014",
            "1"
          ]
        }
      ],
      "priority": 1,
      "initDialog": 631291401,
      "npcId": [
        3129
      ],
      "performCfg": "",
      "assetIndex": 16860715772020885456,
      "prePerformCfg": ""
    },
    {
      "id": 7294301,
      "beginWay": "TALK_BEGIN_MANUAL",
      "beginCond": [
        {
          "type": "QUEST_COND_QUEST_NOT_RECEIVE",
          "_param": [
            "7294301",
            "1"
          ]
        }
      ],
      "priority": 1,
      "initDialog": 729430101,
      "npcId": [
        3129
      ],
      "performCfg": "",
      "assetIndex": 8652684602302746448,
      "dontBlockDaily": true,
      "prePerformCfg": ""
    }
  ]
}