{
  "npcId": 3149,
  "talks": [
    {
      "id": 6314901,
      "beginWay": "TALK_BEGIN_MANUAL",
      "priority": 3,
      "nextTalks": [
        6314902,
        6314905
      ],
      "initDialog": 631490101,
      "npcId": [
        3149
      ],
      "performCfg": "",
      "assetIndex": 16184935409884358203,
      "prePerformCfg": "",
      "freeStyleList": [
        9000
      ]
    },
    {
      "id": 6314902,
      "priority": 1,
      "nextTalks": [
        6314903,
        6314906
      ],
      "initDialog": 631490201,
      "npcId": [
        3149
      ],
      "performCfg": "",
      "assetIndex": 2490458344649014107,
      "prePerformCfg": ""
    },
    {
      "id": 6314903,
      "beginCond": [
        {
          "type": "QUEST_COND_QUEST_GLOBAL_VAR_EQUAL",
          "_param": [
            "12042",
            "0"
          ]
        }
      ],
      "priority": 1,
      "nextTalks": [
        6314904
      ],
      "initDialog": 631490301,
      "npcId": [
        3149
      ],
      "performCfg": "",
      "assetIndex": 2627238081602797874,
      "prePerformCfg": ""
    },
    {
      "id": 6314904,
      "priority": 1,
      "initDialog": 631490401,
      "npcId": [
        3149
      ],
      "performCfg": "",
      "assetIndex": 1732249903767618491,
      "prePerformCfg": ""
    },
    {
      "id": 6314905,
      "priority": 1,
      "initDialog": 631490501,
      "npcId": [
        3149
      ],
      "performCfg": "",
      "assetIndex": 14211683959903935961,
      "prePerformCfg": ""
    },
    {
      "id": 6314906,
      "beginCond": [
        {
          "type": "QUEST_COND_QUEST_GLOBAL_VAR_EQUAL",
          "_param": [
            "12042",
            "1"
          ]
        }
      ],
      "priority": 1,
      "nextTalks": [
        6314904
      ],
      "initDialog": 631490601,
      "npcId": [
        3149
      ],
      "performCfg": "",
      "assetIndex": 17013969697435925945,
      "prePerformCfg": ""
    }
  ]
}