{
  "npcId": 3156,
  "talks": [
    {
      "id": 6315601,
      "beginWay": "TALK_BEGIN_MANUAL",
      "beginCond": [
        {
          "type": "QUEST_COND_QUEST_GLOBAL_VAR_EQUAL",
          "_param": [
            "1202401",
            "0"
          ]
        }
      ],
      "priority": 3,
      "nextTalks": [
        6315602,
        6315603
      ],
      "initDialog": 631560101,
      "npcId": [
        3156
      ],
      "performCfg": "",
      "assetIndex": 17627221030135242034,
      "prePerformCfg": "",
      "freeStyleList": [
        9000
      ]
    },
    {
      "id": 6315602,
      "beginCond": [
        {
          "type": "QUEST_COND_QUEST_GLOBAL_VAR_EQUAL",
          "_param": [
            "1202401",
            "0"
          ]
        }
      ],
      "priority": 1,
      "initDialog": 631560201,
      "npcId": [
        3156
      ],
      "performCfg": "",
      "assetIndex": 7753603396489867234,
      "prePerformCfg": ""
    },
    {
      "id": 6315603,
      "beginCond": [
        {
          "type": "QUEST_COND_QUEST_GLOBAL_VAR_EQUAL",
          "_param": [
            "1202401",
            "0"
          ]
        }
      ],
      "priority": 1,
      "initDialog": 631560301,
      "npcId": [
        3156
      ],
      "performCfg": "",
      "assetIndex": 3883842729616112753,
      "prePerformCfg": ""
    },
    {
      "id": 6315604,
      "beginWay": "TALK_BEGIN_MANUAL",
      "beginCond": [
        {
          "type": "QUEST_COND_QUEST_GLOBAL_VAR_EQUAL",
          "_param": [
            "1202401",
            "1"
          ]
        }
      ],
      "priority": 4,
      "nextTalks": [
        6315605,
        6315606
      ],
      "initDialog": 631560401,
      "npcId": [
        3156
      ],
      "performCfg": "",
      "assetIndex": 10311180296577963293,
      "prePerformCfg": "",
      "freeStyleList": [
        9000
      ]
    },
    {
      "id": 6315605,
      "beginCond": [
        {
          "type": "QUEST_COND_QUEST_GLOBAL_VAR_EQUAL",
          "_param": [
            "1202401",
            "1"
          ]
        }
      ],
      "priority": 1,
      "initDialog": 631560501,
      "npcId": [
        3156
      ],
      "performCfg": "",
      "assetIndex": 12532989240481687459,
      "prePerformCfg": ""
    },
    {
      "id": 6315606,
      "beginCond": [
        {
          "type": "QUEST_COND_QUEST_GLOBAL_VAR_EQUAL",
          "_param": [
            "1202401",
            "1"
          ]
        }
      ],
      "priority": 1,
      "initDialog": 631560601,
      "npcId": [
        3156
      ],
      "performCfg": "",
      "assetIndex": 7309628442131579993,
      "prePerformCfg": ""
    }
  ]
}