{
  "npcId": 3158,
  "talks": [
    {
      "id": 6315801,
      "beginWay": "TALK_BEGIN_MANUAL",
      "priority": 3,
      "nextTalks": [
        6315802,
        6315803
      ],
      "initDialog": 631580101,
      "npcId": [
        3158
      ],
      "performCfg": "",
      "assetIndex": 13131524335146636521,
      "prePerformCfg": "",
      "freeStyleList": [
        9000
      ]
    },
    {
      "id": 6315802,
      "priority": 1,
      "nextTalks": [
        6315804
      ],
      "initDialog": 631580201,
      "npcId": [
        3158
      ],
      "performCfg": "",
      "assetIndex": 14271833845377202215,
      "prePerformCfg": ""
    },
    {
      "id": 6315803,
      "priority": 1,
      "initDialog": 631580301,
      "npcId": [
        3158
      ],
      "performCfg": "",
      "assetIndex": 15530098052380049307,
      "prePerformCfg": ""
    },
    {
      "id": 6315804,
      "priority": 1,
      "initDialog": 631580401,
      "npcId": [
        3158
      ],
      "performCfg": "",
      "assetIndex": 10490991542546129934,
      "prePerformCfg": ""
    }
  ]
}