{
  "npcId": 3163,
  "talks": [
    {
      "id": 6316301,
      "beginWay": "TALK_BEGIN_MANUAL",
      "beginCondComb": "LOGIC_AND",
      "beginCond": [
        {
          "type": "QUEST_COND_QUEST_GLOBAL_VAR_EQUAL",
          "_param": [
            "72123",
            "2"
          ]
        },
        {
          "type": "QUEST_COND_QUEST_GLOBAL_VAR_EQUAL",
          "_param": [
            "72122",
            "1"
          ]
        }
      ],
      "priority": 3,
      "nextTalks": [
        6316302,
        6316303,
        6316305
      ],
      "initDialog": 631630101,
      "npcId": [
        3163
      ],
      "performCfg": "",
      "assetIndex": 15877456861112087857,
      "prePerformCfg": "",
      "freeStyleList": [
        9000
      ]
    },
    {
      "id": 6316302,
      "beginCondComb": "LOGIC_AND",
      "beginCond": [
        {
          "type": "QUEST_COND_QUEST_GLOBAL_VAR_EQUAL",
          "_param": [
            "72123",
            "2"
          ]
        },
        {
          "type": "QUEST_COND_QUEST_GLOBAL_VAR_EQUAL",
          "_param": [
            "72122",
            "1"
          ]
        }
      ],
      "priority": 3,
      "nextTalks": [
        6316304
      ],
      "initDialog": 631630201,
      "npcId": [
        3163
      ],
      "performCfg": "",
      "assetIndex": 17775058328976461131,
      "prePerformCfg": ""
    },
    {
      "id": 6316303,
      "beginCondComb": "LOGIC_AND",
      "beginCond": [
        {
          "type": "QUEST_COND_QUEST_GLOBAL_VAR_EQUAL",
          "_param": [
            "72123",
            "2"
          ]
        },
        {
          "type": "QUEST_COND_QUEST_GLOBAL_VAR_EQUAL",
          "_param": [
            "72122",
            "1"
          ]
        }
      ],
      "priority": 3,
      "initDialog": 631630301,
      "npcId": [
        3163
      ],
      "performCfg": "",
      "assetIndex": 16189622040472897473,
      "prePerformCfg": ""
    },
    {
      "id": 6316304,
      "beginCondComb": "LOGIC_AND",
      "beginCond": [
        {
          "type": "QUEST_COND_QUEST_GLOBAL_VAR_EQUAL",
          "_param": [
            "72123",
            "2"
          ]
        },
        {
          "type": "QUEST_COND_QUEST_GLOBAL_VAR_EQUAL",
          "_param": [
            "72122",
            "1"
          ]
        }
      ],
      "priority": 3,
      "initDialog": 631630401,
      "npcId": [
        3163
      ],
      "performCfg": "",
      "assetIndex": 3807522957665585189,
      "prePerformCfg": ""
    },
    {
      "id": 6316305,
      "beginCondComb": "LOGIC_AND",
      "beginCond": [
        {
          "type": "QUEST_COND_QUEST_GLOBAL_VAR_EQUAL",
          "_param": [
            "72123",
            "2"
          ]
        },
        {
          "type": "QUEST_COND_QUEST_GLOBAL_VAR_EQUAL",
          "_param": [
            "72122",
            "1"
          ]
        }
      ],
      "priority": 3,
      "initDialog": 631630501,
      "npcId": [
        3163
      ],
      "performCfg": "",
      "assetIndex": 12559256031123487139,
      "prePerformCfg": ""
    },
    {
      "id": 7212301,
      "beginWay": "TALK_BEGIN_MANUAL",
      "activeMode": "PLAY_MODE_HOST",
      "beginCond": [
        {
          "type": "QUEST_COND_QUEST_SERVER_COND_VALID",
          "_param": [
            "7212302"
          ]
        },
        {
          "type": "QUEST_COND_STATE_EQUAL",
          "_param": [
            "7211422",
            "3"
          ]
        }
      ],
      "priority": 5,
      "initDialog": 721230101,
      "npcId": [
        3163
      ],
      "performCfg": "",
      "heroTalk": "TALK_HERO_MAIN",
      "assetIndex": 2049876325232258700,
      "prePerformCfg": "",
      "talkMarkType": "TALK_MARK_COMMON"
    }
  ]
}