{
  "npcId": 3167,
  "talks": [
    {
      "id": 6316701,
      "beginWay": "TALK_BEGIN_MANUAL",
      "beginCond": [
        {
          "type": "QUEST_COND_STATE_EQUAL",
          "_param": [
            "7219922",
            "3"
          ]
        }
      ],
      "priority": 3,
      "nextTalks": [
        6316702,
        6316703
      ],
      "initDialog": 631670101,
      "npcId": [
        3167
      ],
      "performCfg": "",
      "assetIndex": 8251078017834545533,
      "prePerformCfg": ""
    },
    {
      "id": 6316702,
      "beginCond": [
        {
          "type": "QUEST_COND_STATE_EQUAL",
          "_param": [
            "7219922",
            "3"
          ]
        }
      ],
      "priority": 1,
      "initDialog": 631670201,
      "npcId": [
        3167
      ],
      "performCfg": "",
      "assetIndex": 7512924621276036021,
      "prePerformCfg": ""
    },
    {
      "id": 6316703,
      "beginCond": [
        {
          "type": "QUEST_COND_STATE_EQUAL",
          "_param": [
            "7219922",
            "3"
          ]
        }
      ],
      "priority": 1,
      "initDialog": 631670301,
      "npcId": [
        3167
      ],
      "performCfg": "",
      "assetIndex": 15825868168130853104,
      "prePerformCfg": ""
    }
  ]
}