{
  "npcId": 3168,
  "talks": [
    {
      "id": 6316801,
      "beginWay": "TALK_BEGIN_MANUAL",
      "beginCondComb": "LOGIC_AND",
      "beginCond": [
        {
          "type": "QUEST_COND_STATE_EQUAL",
          "_param": [
            "7213205",
            "3"
          ]
        },
        {
          "type": "QUEST_COND_QUEST_GLOBAL_VAR_EQUAL",
          "_param": [
            "1202401",
            "0"
          ]
        }
      ],
      "priority": 3,
      "nextTalks": [
        6316802,
        6316803,
        6316805
      ],
      "initDialog": 631680101,
      "npcId": [
        3168
      ],
      "performCfg": "",
      "assetIndex": 15532128965534283143,
      "prePerformCfg": "",
      "freeStyleList": [
        9000
      ]
    },
    {
      "id": 6316802,
      "beginCondComb": "LOGIC_AND",
      "beginCond": [
        {
          "type": "QUEST_COND_STATE_EQUAL",
          "_param": [
            "7213205",
            "3"
          ]
        },
        {
          "type": "QUEST_COND_QUEST_GLOBAL_VAR_EQUAL",
          "_param": [
            "1202401",
            "0"
          ]
        }
      ],
      "priority": 1,
      "nextTalks": [
        6316804
      ],
      "initDialog": 631680201,
      "npcId": [
        3168
      ],
      "performCfg": "",
      "assetIndex": 18210667758134918461,
      "prePerformCfg": ""
    },
    {
      "id": 6316803,
      "beginCondComb": "LOGIC_AND",
      "beginCond": [
        {
          "type": "QUEST_COND_STATE_EQUAL",
          "_param": [
            "7213205",
            "3"
          ]
        },
        {
          "type": "QUEST_COND_QUEST_GLOBAL_VAR_EQUAL",
          "_param": [
            "1202401",
            "0"
          ]
        }
      ],
      "priority": 1,
      "initDialog": 631680301,
      "npcId": [
        3168
      ],
      "performCfg": "",
      "assetIndex": 10502777292931375996,
      "prePerformCfg": ""
    },
    {
      "id": 6316804,
      "beginCondComb": "LOGIC_AND",
      "beginCond": [
        {
          "type": "QUEST_COND_STATE_EQUAL",
          "_param": [
            "7213205",
            "3"
          ]
        },
        {
          "type": "QUEST_COND_QUEST_GLOBAL_VAR_EQUAL",
          "_param": [
            "1202401",
            "0"
          ]
        }
      ],
      "priority": 1,
      "initDialog": 631680401,
      "npcId": [
        3168
      ],
      "performCfg": "",
      "assetIndex": 3497152086008909907,
      "prePerformCfg": ""
    },
    {
      "id": 6316805,
      "beginCondComb": "LOGIC_AND",
      "beginCond": [
        {
          "type": "QUEST_COND_STATE_EQUAL",
          "_param": [
            "7213205",
            "3"
          ]
        },
        {
          "type": "QUEST_COND_QUEST_GLOBAL_VAR_EQUAL",
          "_param": [
            "1202401",
            "0"
          ]
        }
      ],
      "priority": 1,
      "initDialog": 631680501,
      "npcId": [
        3168
      ],
      "performCfg": "",
      "assetIndex": 4253435974413502421,
      "prePerformCfg": ""
    },
    {
      "id": 6316806,
      "beginWay": "TALK_BEGIN_MANUAL",
      "beginCondComb": "LOGIC_AND",
      "beginCond": [
        {
          "type": "QUEST_COND_STATE_EQUAL",
          "_param": [
            "7213205",
            "3"
          ]
        },
        {
          "type": "QUEST_COND_QUEST_GLOBAL_VAR_EQUAL",
          "_param": [
            "1202401",
            "1"
          ]
        }
      ],
      "priority": 4,
      "nextTalks": [
        6316807,
        6316808,
        6316810
      ],
      "initDialog": 631680601,
      "npcId": [
        3168
      ],
      "performCfg": "",
      "assetIndex": 4914480420204822608,
      "prePerformCfg": ""
    },
    {
      "id": 6316807,
      "beginCondComb": "LOGIC_AND",
      "beginCond": [
        {
          "type": "QUEST_COND_STATE_EQUAL",
          "_param": [
            "7213205",
            "3"
          ]
        },
        {
          "type": "QUEST_COND_QUEST_GLOBAL_VAR_EQUAL",
          "_param": [
            "1202401",
            "1"
          ]
        }
      ],
      "priority": 1,
      "nextTalks": [
        6316809
      ],
      "initDialog": 631680701,
      "npcId": [
        3168
      ],
      "performCfg": "",
      "assetIndex": 5490844836830447129,
      "prePerformCfg": ""
    },
    {
      "id": 6316808,
      "beginCondComb": "LOGIC_AND",
      "beginCond": [
        {
          "type": "QUEST_COND_STATE_EQUAL",
          "_param": [
            "7213205",
            "3"
          ]
        },
        {
          "type": "QUEST_COND_QUEST_GLOBAL_VAR_EQUAL",
          "_param": [
            "1202401",
            "1"
          ]
        }
      ],
      "priority": 1,
      "initDialog": 631680801,
      "npcId": [
        3168
      ],
      "performCfg": "",
      "assetIndex": 7297987713537376966,
      "prePerformCfg": ""
    },
    {
      "id": 6316809,
      "beginCondComb": "LOGIC_AND",
      "beginCond": [
        {
          "type": "QUEST_COND_STATE_EQUAL",
          "_param": [
            "7213205",
            "3"
          ]
        },
        {
          "type": "QUEST_COND_QUEST_GLOBAL_VAR_EQUAL",
          "_param": [
            "1202401",
            "1"
          ]
        }
      ],
      "priority": 1,
      "initDialog": 631680901,
      "npcId": [
        3168
      ],
      "performCfg": "",
      "assetIndex": 15374305860969587153,
      "prePerformCfg": ""
    },
    {
      "id": 6316810,
      "beginCondComb": "LOGIC_AND",
      "beginCond": [
        {
          "type": "QUEST_COND_STATE_EQUAL",
          "_param": [
            "7213205",
            "3"
          ]
        },
        {
          "type": "QUEST_COND_QUEST_GLOBAL_VAR_EQUAL",
          "_param": [
            "1202401",
            "1"
          ]
        }
      ],
      "priority": 1,
      "initDialog": 631681001,
      "npcId": [
        3168
      ],
      "performCfg": "",
      "assetIndex": 17471776720393685126,
      "prePerformCfg": ""
    }
  ]
}