{
  "npcId": 3177,
  "talks": [
    {
      "id": 6317701,
      "beginWay": "TALK_BEGIN_MANUAL",
      "priority": 3,
      "nextTalks": [
        6317702,
        6317703,
        6317704,
        6317705
      ],
      "initDialog": 631770101,
      "npcId": [
        3177
      ],
      "performCfg": "",
      "assetIndex": 11806644880861937176,
      "prePerformCfg": ""
    },
    {
      "id": 6317702,
      "beginCond": [
        {
          "type": "QUEST_COND_QUEST_GLOBAL_VAR_EQUAL",
          "_param": [
            "10014",
            "0"
          ]
        }
      ],
      "priority": 1,
      "initDialog": 631770201,
      "npcId": [
        3177
      ],
      "performCfg": "",
      "assetIndex": 814410126188933638,
      "prePerformCfg": ""
    },
    {
      "id": 6317703,
      "beginCond": [
        {
          "type": "QUEST_COND_QUEST_GLOBAL_VAR_EQUAL",
          "_param": [
            "10014",
            "0"
          ]
        }
      ],
      "priority": 1,
      "initDialog": 631770301,
      "npcId": [
        3177
      ],
      "performCfg": "",
      "assetIndex": 16202298062275755543,
      "prePerformCfg": ""
    },
    {
      "id": 6317704,
      "beginCond": [
        {
          "type": "QUEST_COND_QUEST_GLOBAL_VAR_EQUAL",
          "_param": [
            "10014",
            "1"
          ]
        }
      ],
      "priority": 2,
      "initDialog": 631770401,
      "npcId": [
        3177
      ],
      "performCfg": "",
      "assetIndex": 12534585944405877262,
      "prePerformCfg": ""
    },
    {
      "id": 6317705,
      "beginCond": [
        {
          "type": "QUEST_COND_QUEST_GLOBAL_VAR_EQUAL",
          "_param": [
            "10014",
            "1"
          ]
        }
      ],
      "priority": 2,
      "initDialog": 631770501,
      "npcId": [
        3177
      ],
      "performCfg": "",
      "assetIndex": 15029090659493641493,
      "prePerformCfg": ""
    }
  ]
}