{
  "npcId": 3180,
  "talks": [
    {
      "id": 6318001,
      "beginWay": "TALK_BEGIN_MANUAL",
      "beginCond": [
        {
          "type": "QUEST_COND_STATE_EQUAL",
          "_param": [
            "7215805",
            "3"
          ]
        }
      ],
      "priority": 3,
      "nextTalks": [
        6318002,
        6318003
      ],
      "initDialog": 631800101,
      "npcId": [
        3180
      ],
      "performCfg": "",
      "assetIndex": 8012034587318726533,
      "prePerformCfg": "",
      "freeStyleList": [
        9000
      ]
    },
    {
      "id": 6318002,
      "beginCond": [
        {
          "type": "QUEST_COND_STATE_EQUAL",
          "_param": [
            "7215805",
            "3"
          ]
        }
      ],
      "priority": 1,
      "nextTalks": [
        6318004
      ],
      "initDialog": 631800201,
      "npcId": [
        3180
      ],
      "performCfg": "",
      "assetIndex": 12352353882867656608,
      "prePerformCfg": ""
    },
    {
      "id": 6318003,
      "beginCond": [
        {
          "type": "QUEST_COND_STATE_EQUAL",
          "_param": [
            "7215805",
            "3"
          ]
        }
      ],
      "priority": 1,
      "initDialog": 631800301,
      "npcId": [
        3180
      ],
      "performCfg": "",
      "assetIndex": 8408390645695992550,
      "prePerformCfg": ""
    },
    {
      "id": 6318004,
      "beginCond": [
        {
          "type": "QUEST_COND_STATE_EQUAL",
          "_param": [
            "7215805",
            "3"
          ]
        }
      ],
      "priority": 1,
      "nextTalks": [
        6318005
      ],
      "initDialog": 631800401,
      "npcId": [
        3180
      ],
      "performCfg": "",
      "assetIndex": 17439534278224941735,
      "prePerformCfg": ""
    },
    {
      "id": 6318005,
      "beginCond": [
        {
          "type": "QUEST_COND_STATE_EQUAL",
          "_param": [
            "7215805",
            "3"
          ]
        }
      ],
      "priority": 1,
      "initDialog": 631800501,
      "npcId": [
        3180
      ],
      "performCfg": "",
      "assetIndex": 240722222756118189,
      "prePerformCfg": ""
    }
  ]
}