{
  "npcId": 3190,
  "talks": [
    {
      "id": 4006324,
      "beginWay": "TALK_BEGIN_MANUAL",
      "beginCondComb": "LOGIC_AND",
      "beginCond": [
        {
          "type": "QUEST_COND_ACTIVITY_CLIENT_COND",
          "_param": [
            "2012",
            "2012002",
            "1"
          ]
        },
        {
          "type": "QUEST_COND_QUEST_GLOBAL_VAR_EQUAL",
          "_param": [
            "4005513",
            "1"
          ]
        }
      ],
      "priority": 3,
      "nextTalks": [
        4006325,
        4006326,
        4006357,
        4006327
      ],
      "initDialog": 400632401,
      "npcId": [
        3190
      ],
      "performCfg": "",
      "assetIndex": 17267944189457986237,
      "prePerformCfg": ""
    },
    {
      "id": 4006325,
      "beginCond": [
        {
          "type": "QUEST_COND_ACTIVITY_CLIENT_COND",
          "_param": [
            "2012",
            "2012002",
            "1"
          ]
        }
      ],
      "priority": 1,
      "initDialog": 400632501,
      "npcId": [
        3190
      ],
      "performCfg": "",
      "assetIndex": 15559425546541667528,
      "prePerformCfg": ""
    },
    {
      "id": 4006326,
      "beginCondComb": "LOGIC_AND",
      "beginCond": [
        {
          "type": "QUEST_COND_ACTIVITY_CLIENT_COND",
          "_param": [
            "2012",
            "2012002",
            "1"
          ]
        },
        {
          "type": "QUEST_COND_QUEST_GLOBAL_VAR_EQUAL",
          "_param": [
            "4005914",
            "0"
          ]
        }
      ],
      "priority": 1,
      "initDialog": 400632601,
      "npcId": [
        3190
      ],
      "performCfg": "",
      "assetIndex": 7978535544694714581,
      "prePerformCfg": ""
    },
    {
      "id": 4006327,
      "beginCond": [
        {
          "type": "QUEST_COND_ACTIVITY_CLIENT_COND",
          "_param": [
            "2012",
            "2012002",
            "1"
          ]
        }
      ],
      "priority": 1,
      "initDialog": 400632701,
      "npcId": [
        3190
      ],
      "performCfg": "",
      "assetIndex": 15945042626114777617,
      "prePerformCfg": ""
    },
    {
      "id": 4006356,
      "beginWay": "TALK_BEGIN_MANUAL",
      "beginCondComb": "LOGIC_AND",
      "beginCond": [
        {
          "type": "QUEST_COND_ACTIVITY_CLIENT_COND",
          "_param": [
            "2012",
            "2012002",
            "1"
          ]
        },
        {
          "type": "QUEST_COND_QUEST_GLOBAL_VAR_EQUAL",
          "_param": [
            "4005513",
            "0"
          ]
        }
      ],
      "priority": 3,
      "initDialog": 400635601,
      "npcId": [
        3190
      ],
      "performCfg": "",
      "assetIndex": 7111346534081528204,
      "prePerformCfg": ""
    },
    {
      "id": 4006357,
      "beginCondComb": "LOGIC_AND",
      "beginCond": [
        {
          "type": "QUEST_COND_ACTIVITY_CLIENT_COND",
          "_param": [
            "2012",
            "2012002",
            "1"
          ]
        },
        {
          "type": "QUEST_COND_QUEST_GLOBAL_VAR_EQUAL",
          "_param": [
            "4005914",
            "1"
          ]
        }
      ],
      "priority": 1,
      "initDialog": 400635701,
      "npcId": [
        3190
      ],
      "performCfg": "",
      "assetIndex": 12544543490549244394,
      "prePerformCfg": ""
    }
  ]
}