{
  "npcId": 3193,
  "talks": [
    {
      "id": 6319301,
      "beginWay": "TALK_BEGIN_MANUAL",
      "beginCond": [
        {
          "type": "QUEST_COND_QUEST_GLOBAL_VAR_EQUAL",
          "_param": [
            "72149",
            "1"
          ]
        }
      ],
      "priority": 3,
      "nextTalks": [
        6319305,
        6319302,
        6319303,
        6319304
      ],
      "initDialog": 631930101,
      "npcId": [
        3193
      ],
      "performCfg": "",
      "assetIndex": 8821027636988583929,
      "prePerformCfg": "",
      "freeStyleList": [
        9000
      ]
    },
    {
      "id": 6319302,
      "beginCond": [
        {
          "type": "QUEST_COND_QUEST_GLOBAL_VAR_EQUAL",
          "_param": [
            "72149",
            "1"
          ]
        }
      ],
      "priority": 1,
      "initDialog": 631930201,
      "npcId": [
        3193
      ],
      "performCfg": "",
      "assetIndex": 17723234608241268288,
      "prePerformCfg": ""
    },
    {
      "id": 6319303,
      "beginCondComb": "LOGIC_AND",
      "beginCond": [
        {
          "type": "QUEST_COND_QUEST_GLOBAL_VAR_EQUAL",
          "_param": [
            "72149",
            "1"
          ]
        },
        {
          "type": "QUEST_COND_QUEST_GLOBAL_VAR_EQUAL",
          "_param": [
            "72233",
            "0"
          ]
        }
      ],
      "priority": 1,
      "initDialog": 631930301,
      "npcId": [
        3193
      ],
      "performCfg": "",
      "assetIndex": 14018221923751429777,
      "prePerformCfg": ""
    },
    {
      "id": 6319304,
      "beginCond": [
        {
          "type": "QUEST_COND_QUEST_GLOBAL_VAR_EQUAL",
          "_param": [
            "72149",
            "1"
          ]
        }
      ],
      "priority": 1,
      "initDialog": 631930401,
      "npcId": [
        3193
      ],
      "performCfg": "",
      "assetIndex": 16173003341800268568,
      "prePerformCfg": ""
    },
    {
      "id": 6319305,
      "beginCond": [
        {
          "type": "QUEST_COND_QUEST_GLOBAL_VAR_EQUAL",
          "_param": [
            "72233",
            "1"
          ]
        }
      ],
      "priority": 1,
      "initDialog": 631930501,
      "npcId": [
        3193
      ],
      "performCfg": "",
      "assetIndex": 6789954132945247622,
      "prePerformCfg": ""
    }
  ]
}