{
  "npcId": 3200,
  "talks": [
    {
      "id": 6320001,
      "beginWay": "TALK_BEGIN_MANUAL",
      "priority": 3,
      "nextTalks": [
        7266701,
        6320004,
        6320002,
        6320003,
        6320005
      ],
      "initDialog": 632000101,
      "npcId": [
        3200
      ],
      "performCfg": "",
      "assetIndex": 10277181655630568335,
      "prePerformCfg": "",
      "freeStyleList": [
        9000
      ]
    },
    {
      "id": 6320002,
      "priority": 1,
      "initDialog": 632000201,
      "npcId": [
        3200
      ],
      "performCfg": "",
      "assetIndex": 15933969536846013373,
      "prePerformCfg": ""
    },
    {
      "id": 6320003,
      "priority": 1,
      "initDialog": 632000301,
      "npcId": [
        3200
      ],
      "performCfg": "",
      "assetIndex": 2949014313524581097,
      "prePerformCfg": ""
    },
    {
      "id": 6320004,
      "beginCond": [
        {
          "type": "QUEST_COND_QUEST_GLOBAL_VAR_EQUAL",
          "_param": [
            "70661",
            "1"
          ]
        }
      ],
      "priority": 1,
      "initDialog": 632000401,
      "npcId": [
        3200
      ],
      "performCfg": "",
      "assetIndex": 11051085939417001213,
      "prePerformCfg": ""
    },
    {
      "id": 6320005,
      "priority": 1,
      "initDialog": 632000501,
      "npcId": [
        3200
      ],
      "performCfg": "",
      "assetIndex": 10144167191827309709,
      "prePerformCfg": ""
    }
  ]
}