{
  "npcId": 3226,
  "talks": [
    {
      "id": 6322601,
      "beginWay": "TALK_BEGIN_MANUAL",
      "priority": 3,
      "nextTalks": [
        6322602,
        6322603,
        6322604
      ],
      "initDialog": 632260101,
      "npcId": [
        3226
      ],
      "performCfg": "",
      "assetIndex": 12636940932155535822,
      "prePerformCfg": ""
    },
    {
      "id": 6322602,
      "priority": 1,
      "initDialog": 632260201,
      "npcId": [
        3226
      ],
      "performCfg": "",
      "assetIndex": 14270774512982586328,
      "prePerformCfg": ""
    },
    {
      "id": 6322603,
      "priority": 1,
      "initDialog": 632260301,
      "npcId": [
        3226
      ],
      "performCfg": "",
      "assetIndex": 10495321235126183093,
      "prePerformCfg": ""
    },
    {
      "id": 6322604,
      "priority": 1,
      "initDialog": 632260401,
      "npcId": [
        3226
      ],
      "performCfg": "",
      "assetIndex": 10020429103960418508,
      "prePerformCfg": ""
    }
  ]
}