{
  "npcId": 33,
  "talks": [
    {
      "id": 31103,
      "beginWay": "TALK_BEGIN_MANUAL",
      "activeMode": "PLAY_MODE_ALL",
      "priority": 1,
      "nextTalks": [
        31106,
        31109
      ],
      "initDialog": 3110301,
      "npcId": [
        33
      ],
      "performCfg": "",
      "assetIndex": 10275393011478134743,
      "prePerformCfg": ""
    },
    {
      "id": 31106,
      "activeMode": "PLAY_MODE_ALL",
      "initDialog": 3110601,
      "npcId": [
        33
      ],
      "performCfg": "",
      "assetIndex": 14844347799790737581,
      "prePerformCfg": ""
    },
    {
      "id": 31109,
      "activeMode": "PLAY_MODE_ALL",
      "initDialog": 3110901,
      "npcId": [
        33
      ],
      "performCfg": "",
      "assetIndex": 14490035735604169623,
      "prePerformCfg": ""
    }
  ]
}