{
  "npcId": 4013,
  "talks": [
    {
      "id": 6401301,
      "beginWay": "TALK_BEGIN_MANUAL",
      "priority": 3,
      "nextTalks": [
        6401302,
        6401303
      ],
      "initDialog": 640130101,
      "npcId": [
        4013
      ],
      "performCfg": "",
      "assetIndex": 9076252126430491467,
      "prePerformCfg": "",
      "freeStyleList": [
        9000
      ]
    },
    {
      "id": 6401302,
      "priority": 1,
      "nextTalks": [
        7392601
      ],
      "initDialog": 640130201,
      "npcId": [
        4013
      ],
      "performCfg": "",
      "assetIndex": 9040918956108358893,
      "prePerformCfg": ""
    },
    {
      "id": 6401303,
      "priority": 1,
      "initDialog": 640130301,
      "npcId": [
        4013
      ],
      "performCfg": "",
      "assetIndex": 5167956124592356582,
      "prePerformCfg": ""
    },
    {
      "id": 7392601,
      "beginWay": "TALK_BEGIN_MANUAL",
      "beginCondComb": "LOGIC_OR",
      "beginCond": [
        {
          "type": "QUEST_COND_QUEST_NOT_RECEIVE",
          "_param": [
            "7392601",
            "1"
          ]
        }
      ],
      "priority": 1,
      "initDialog": 739260101,
      "npcId": [
        4013
      ],
      "performCfg": "",
      "assetIndex": 16333423018150370268,
      "dontBlockDaily": true,
      "prePerformCfg": ""
    }
  ]
}