{
  "npcId": 4019,
  "talks": [
    {
      "id": 6401901,
      "beginWay": "TALK_BEGIN_MANUAL",
      "priority": 3,
      "nextTalks": [
        2010136,
        2010137,
        2010138,
        6401905,
        6401906,
        2010141,
        2010142,
        6401902,
        6401907,
        6401903
      ],
      "initDialog": 640190101,
      "npcId": [
        4019
      ],
      "performCfg": "",
      "assetIndex": 14692560329535212935,
      "prePerformCfg": "",
      "freeStyleList": [
        9000
      ]
    },
    {
      "id": 6401902,
      "priority": 1,
      "nextTalks": [
        6401904
      ],
      "initDialog": 640190201,
      "npcId": [
        4019
      ],
      "performCfg": "",
      "assetIndex": 9967952769579185119,
      "prePerformCfg": ""
    },
    {
      "id": 6401903,
      "priority": 1,
      "initDialog": 640190301,
      "npcId": [
        4019
      ],
      "performCfg": "",
      "assetIndex": 12288153384685874363,
      "prePerformCfg": ""
    },
    {
      "id": 6401904,
      "priority": 1,
      "initDialog": 640190401,
      "npcId": [
        4019
      ],
      "performCfg": "",
      "assetIndex": 530469905809698374,
      "prePerformCfg": ""
    },
    {
      "id": 6401905,
      "beginCond": [
        {
          "type": "QUEST_COND_PLAYER_LEVEL_REWARD_CAN_GET",
          "_param": [
            "0"
          ]
        }
      ],
      "priority": 2,
      "initDialog": 640190501,
      "npcId": [
        4019
      ],
      "performCfg": "",
      "assetIndex": 4903686900873960200,
      "prePerformCfg": ""
    },
    {
      "id": 6401906,
      "beginCond": [
        {
          "type": "QUEST_COND_PLAYER_LEVEL_REWARD_CAN_GET",
          "_param": [
            "1"
          ]
        }
      ],
      "priority": 1,
      "initDialog": 640190601,
      "npcId": [
        4019
      ],
      "performCfg": "",
      "assetIndex": 15955195440139597096,
      "prePerformCfg": ""
    },
    {
      "id": 6401907,
      "beginCond": [
        {
          "type": "QUEST_COND_STATE_EQUAL",
          "_param": [
            "301707",
            "3"
          ]
        }
      ],
      "priority": 1,
      "initDialog": 640190701,
      "npcId": [
        4019
      ],
      "performCfg": "",
      "assetIndex": 1895889063343263078,
      "prePerformCfg": ""
    },
    {
      "id": 2010136,
      "activeMode": "PLAY_MODE_ALL",
      "beginCondComb": "LOGIC_AND",
      "beginCond": [
        {
          "type": "QUEST_COND_DAILY_TASK_OPEN",
          "_param": [
            "1"
          ]
        },
        {
          "type": "QUEST_COND_DAILY_TASK_REWARD_CAN_GET",
          "_param": [
            "0"
          ]
        }
      ],
      "priority": 1,
      "initDialog": 201013601,
      "npcId": [
        1512,
        2078,
        3004,
        4019,
        5031,
        6004
      ],
      "performCfg": "",
      "assetIndex": 17310271366316851676,
      "prePerformCfg": ""
    },
    {
      "id": 2010137,
      "activeMode": "PLAY_MODE_ALL",
      "beginCondComb": "LOGIC_AND",
      "beginCond": [
        {
          "type": "QUEST_COND_DAILY_TASK_OPEN",
          "_param": [
            "1"
          ]
        },
        {
          "type": "QUEST_COND_DAILY_TASK_REWARD_CAN_GET",
          "_param": [
            "1"
          ]
        },
        {
          "type": "QUEST_COND_DAILY_TASK_REWARD_RECEIVED",
          "_param": [
            "0"
          ]
        }
      ],
      "priority": 1,
      "initDialog": 201013701,
      "npcId": [
        1512,
        2078,
        3004,
        4019,
        5031,
        6004
      ],
      "performCfg": "",
      "heroTalk": "TALK_HERO_MAIN",
      "assetIndex": 17334676187015778291,
      "prePerformCfg": ""
    },
    {
      "id": 2010138,
      "activeMode": "PLAY_MODE_ALL",
      "beginCondComb": "LOGIC_AND",
      "beginCond": [
        {
          "type": "QUEST_COND_DAILY_TASK_OPEN",
          "_param": [
            "1"
          ]
        },
        {
          "type": "QUEST_COND_DAILY_TASK_REWARD_RECEIVED",
          "_param": [
            "1"
          ]
        }
      ],
      "priority": 1,
      "initDialog": 201013801,
      "npcId": [
        1512,
        2078,
        3004,
        4019,
        5031,
        6004
      ],
      "performCfg": "",
      "assetIndex": 7970427559733878148,
      "prePerformCfg": ""
    },
    {
      "id": 2010141,
      "activeMode": "PLAY_MODE_ALL",
      "beginCondComb": "LOGIC_AND",
      "beginCond": [
        {
          "type": "QUEST_COND_EXPLORATION_REWARD_CAN_GET",
          "_param": [
            "0"
          ]
        },
        {
          "type": "QUEST_COND_OPEN_STATE_EQUAL",
          "_param": [
            "39",
            "1"
          ]
        }
      ],
      "priority": 3,
      "initDialog": 201014101,
      "npcId": [
        1512,
        2078,
        3004,
        4019,
        5031,
        6004
      ],
      "performCfg": "",
      "assetIndex": 3660286532913438687,
      "prePerformCfg": ""
    },
    {
      "id": 2010142,
      "activeMode": "PLAY_MODE_ALL",
      "beginCondComb": "LOGIC_AND",
      "beginCond": [
        {
          "type": "QUEST_COND_EXPLORATION_REWARD_CAN_GET",
          "_param": [
            "1"
          ]
        },
        {
          "type": "QUEST_COND_OPEN_STATE_EQUAL",
          "_param": [
            "39",
            "1"
          ]
        }
      ],
      "priority": 3,
      "initDialog": 201014201,
      "npcId": [
        1512,
        2078,
        3004,
        4019,
        5031,
        6004
      ],
      "performCfg": "",
      "assetIndex": 17323943322788186210,
      "prePerformCfg": ""
    }
  ]
}