{
  "npcId": 4020,
  "talks": [
    {
      "id": 6402001,
      "beginWay": "TALK_BEGIN_MANUAL",
      "beginCond": [
        {
          "type": "QUEST_COND_IS_DAYTIME",
          "_param": [
            "1"
          ]
        }
      ],
      "priority": 3,
      "initDialog": 640200101,
      "npcId": [
        4020,
        4021
      ],
      "performCfg": "",
      "assetIndex": 6076469174687089359,
      "prePerformCfg": ""
    }
  ]
}