{
  "npcId": 4023,
  "talks": [
    {
      "id": 6402301,
      "beginWay": "TALK_BEGIN_MANUAL",
      "beginCond": [
        {
          "type": "QUEST_COND_IS_DAYTIME",
          "_param": [
            "1"
          ]
        }
      ],
      "priority": 3,
      "nextTalks": [
        6402302,
        6402303
      ],
      "initDialog": 640230101,
      "npcId": [
        4023
      ],
      "performCfg": "",
      "assetIndex": 16344220851123827244,
      "prePerformCfg": "",
      "freeStyleList": [
        1171,
        1172,
        1173
      ]
    },
    {
      "id": 6402302,
      "beginCond": [
        {
          "type": "QUEST_COND_IS_DAYTIME",
          "_param": [
            "1"
          ]
        }
      ],
      "priority": 1,
      "nextTalks": [
        7392701
      ],
      "initDialog": 640230201,
      "npcId": [
        4023
      ],
      "performCfg": "",
      "assetIndex": 7346295171695437920,
      "prePerformCfg": "",
      "freeStyleList": [
        1130,
        4040,
        1171,
        1172,
        1173
      ]
    },
    {
      "id": 6402303,
      "beginCond": [
        {
          "type": "QUEST_COND_IS_DAYTIME",
          "_param": [
            "1"
          ]
        }
      ],
      "priority": 1,
      "initDialog": 640230301,
      "npcId": [
        4023
      ],
      "performCfg": "",
      "assetIndex": 15901079118093242564,
      "prePerformCfg": "",
      "freeStyleList": [
        1171,
        1172,
        1173
      ]
    },
    {
      "id": 6402304,
      "beginWay": "TALK_BEGIN_MANUAL",
      "beginCond": [
        {
          "type": "QUEST_COND_IS_DAYTIME",
          "_param": [
            "0"
          ]
        }
      ],
      "priority": 3,
      "nextTalks": [
        6402305,
        6402306,
        6402308,
        6402307
      ],
      "initDialog": 640230401,
      "npcId": [
        4023
      ],
      "performCfg": "",
      "assetIndex": 1568383621120854145,
      "prePerformCfg": "",
      "freeStyleList": [
        8060
      ]
    },
    {
      "id": 6402305,
      "beginCond": [
        {
          "type": "QUEST_COND_IS_DAYTIME",
          "_param": [
            "0"
          ]
        }
      ],
      "priority": 1,
      "nextTalks": [
        7392801
      ],
      "initDialog": 640230501,
      "npcId": [
        4023
      ],
      "performCfg": "",
      "assetIndex": 3924897647005685143,
      "prePerformCfg": ""
    },
    {
      "id": 6402306,
      "beginCondComb": "LOGIC_AND",
      "beginCond": [
        {
          "type": "QUEST_COND_IS_DAYTIME",
          "_param": [
            "0"
          ]
        },
        {
          "type": "QUEST_COND_QUEST_GLOBAL_VAR_EQUAL",
          "_param": [
            "300011",
            "0"
          ]
        }
      ],
      "priority": 1,
      "initDialog": 640230601,
      "npcId": [
        4023
      ],
      "performCfg": "",
      "assetIndex": 7044109814340800571,
      "prePerformCfg": ""
    },
    {
      "id": 6402307,
      "beginCond": [
        {
          "type": "QUEST_COND_IS_DAYTIME",
          "_param": [
            "0"
          ]
        }
      ],
      "priority": 1,
      "initDialog": 640230701,
      "npcId": [
        4023
      ],
      "performCfg": "",
      "assetIndex": 6898463669459761804,
      "prePerformCfg": ""
    },
    {
      "id": 6402308,
      "beginCondComb": "LOGIC_AND",
      "beginCond": [
        {
          "type": "QUEST_COND_IS_DAYTIME",
          "_param": [
            "0"
          ]
        },
        {
          "type": "QUEST_COND_QUEST_GLOBAL_VAR_EQUAL",
          "_param": [
            "300011",
            "1"
          ]
        }
      ],
      "priority": 1,
      "initDialog": 640230801,
      "npcId": [
        4023
      ],
      "performCfg": "",
      "assetIndex": 5008603215672474221,
      "prePerformCfg": ""
    },
    {
      "id": 7392701,
      "beginWay": "TALK_BEGIN_MANUAL",
      "beginCondComb": "LOGIC_OR",
      "beginCond": [
        {
          "type": "QUEST_COND_QUEST_NOT_RECEIVE",
          "_param": [
            "7392701",
            "1"
          ]
        }
      ],
      "priority": 1,
      "initDialog": 739270101,
      "npcId": [
        4023
      ],
      "performCfg": "",
      "assetIndex": 17993361927886111278,
      "dontBlockDaily": true,
      "prePerformCfg": ""
    },
    {
      "id": 7392801,
      "beginWay": "TALK_BEGIN_MANUAL",
      "beginCondComb": "LOGIC_OR",
      "beginCond": [
        {
          "type": "QUEST_COND_QUEST_NOT_RECEIVE",
          "_param": [
            "7392801",
            "1"
          ]
        }
      ],
      "priority": 1,
      "initDialog": 739280101,
      "npcId": [
        4023
      ],
      "performCfg": "",
      "assetIndex": 16615284658047207779,
      "dontBlockDaily": true,
      "prePerformCfg": ""
    }
  ]
}