{
  "npcId": 4029,
  "talks": [
    {
      "id": 6402901,
      "beginWay": "TALK_BEGIN_MANUAL",
      "priority": 3,
      "nextTalks": [
        6402902,
        6402905,
        6402903
      ],
      "initDialog": 640290101,
      "npcId": [
        4029
      ],
      "performCfg": "",
      "assetIndex": 15029374460298177991,
      "prePerformCfg": "",
      "freeStyleList": [
        9000
      ]
    },
    {
      "id": 6402902,
      "priority": 1,
      "nextTalks": [
        6402904
      ],
      "initDialog": 640290201,
      "npcId": [
        4029
      ],
      "performCfg": "",
      "assetIndex": 7842826148478342456,
      "prePerformCfg": ""
    },
    {
      "id": 6402903,
      "priority": 1,
      "initDialog": 640290301,
      "npcId": [
        4029
      ],
      "performCfg": "",
      "assetIndex": 17202612399188800657,
      "prePerformCfg": ""
    },
    {
      "id": 6402904,
      "priority": 1,
      "initDialog": 640290401,
      "npcId": [
        4029
      ],
      "performCfg": "",
      "assetIndex": 14838067558717915755,
      "prePerformCfg": ""
    },
    {
      "id": 6402905,
      "priority": 1,
      "initDialog": 640290501,
      "npcId": [
        4029
      ],
      "performCfg": "",
      "assetIndex": 14925859744720072807,
      "prePerformCfg": ""
    }
  ]
}