{
  "npcId": 4043,
  "talks": [
    {
      "id": 6404301,
      "beginWay": "TALK_BEGIN_MANUAL",
      "priority": 3,
      "nextTalks": [
        6404302,
        6404303
      ],
      "initDialog": 640430101,
      "npcId": [
        4043
      ],
      "performCfg": "",
      "assetIndex": 12510058301162205630,
      "prePerformCfg": "",
      "freeStyleList": [
        9000
      ]
    },
    {
      "id": 6404302,
      "priority": 1,
      "nextTalks": [
        6404304
      ],
      "initDialog": 640430201,
      "npcId": [
        4043
      ],
      "performCfg": "",
      "assetIndex": 9222781476868546014,
      "prePerformCfg": ""
    },
    {
      "id": 6404303,
      "priority": 1,
      "initDialog": 640430301,
      "npcId": [
        4043
      ],
      "performCfg": "",
      "assetIndex": 14020338002746503940,
      "prePerformCfg": ""
    },
    {
      "id": 6404304,
      "priority": 1,
      "nextTalks": [
        7393201
      ],
      "initDialog": 640430401,
      "npcId": [
        4043
      ],
      "performCfg": "",
      "assetIndex": 11298334299626499446,
      "prePerformCfg": ""
    },
    {
      "id": 7393201,
      "beginWay": "TALK_BEGIN_MANUAL",
      "beginCondComb": "LOGIC_OR",
      "beginCond": [
        {
          "type": "QUEST_COND_QUEST_NOT_RECEIVE",
          "_param": [
            "7393201",
            "1"
          ]
        }
      ],
      "priority": 1,
      "initDialog": 739320101,
      "npcId": [
        4043
      ],
      "performCfg": "",
      "assetIndex": 11099135617670044601,
      "dontBlockDaily": true,
      "prePerformCfg": ""
    }
  ]
}