{
  "npcId": 4044,
  "talks": [
    {
      "id": 6404401,
      "beginWay": "TALK_BEGIN_MANUAL",
      "priority": 3,
      "nextTalks": [
        6404402,
        6404403
      ],
      "initDialog": 640440101,
      "npcId": [
        4044
      ],
      "performCfg": "",
      "assetIndex": 4837228852611973418,
      "prePerformCfg": "",
      "freeStyleList": [
        9000
      ]
    },
    {
      "id": 6404402,
      "priority": 1,
      "initDialog": 640440201,
      "npcId": [
        4044
      ],
      "performCfg": "",
      "assetIndex": 1263790809901024036,
      "prePerformCfg": ""
    },
    {
      "id": 6404403,
      "priority": 1,
      "initDialog": 640440301,
      "npcId": [
        4044
      ],
      "performCfg": "",
      "assetIndex": 6481754904019445366,
      "prePerformCfg": ""
    }
  ]
}