{
  "npcId": 4062,
  "talks": [
    {
      "id": 6406201,
      "beginWay": "TALK_BEGIN_MANUAL",
      "priority": 3,
      "nextTalks": [
        6406202,
        6406205,
        6406203
      ],
      "initDialog": 640620101,
      "npcId": [
        4062
      ],
      "performCfg": "",
      "assetIndex": 2180868194731127701,
      "prePerformCfg": "",
      "freeStyleList": [
        9000
      ]
    },
    {
      "id": 6406202,
      "beginCond": [
        {
          "type": "QUEST_COND_QUEST_GLOBAL_VAR_EQUAL",
          "_param": [
            "1300807",
            "0"
          ]
        }
      ],
      "priority": 1,
      "nextTalks": [
        6406204
      ],
      "initDialog": 640620201,
      "npcId": [
        4062
      ],
      "performCfg": "",
      "assetIndex": 11754905143971574014,
      "prePerformCfg": ""
    },
    {
      "id": 6406203,
      "priority": 1,
      "initDialog": 640620301,
      "npcId": [
        4062
      ],
      "performCfg": "",
      "assetIndex": 17752524681228714275,
      "prePerformCfg": ""
    },
    {
      "id": 6406204,
      "priority": 1,
      "nextTalks": [
        7393701
      ],
      "initDialog": 640620401,
      "npcId": [
        4062
      ],
      "performCfg": "",
      "assetIndex": 12138253763077031684,
      "prePerformCfg": ""
    },
    {
      "id": 6406205,
      "beginCond": [
        {
          "type": "QUEST_COND_QUEST_GLOBAL_VAR_EQUAL",
          "_param": [
            "1300807",
            "1"
          ]
        }
      ],
      "priority": 1,
      "nextTalks": [
        6406204
      ],
      "initDialog": 640620501,
      "npcId": [
        4062
      ],
      "performCfg": "",
      "assetIndex": 9584910207620957719,
      "prePerformCfg": ""
    },
    {
      "id": 7393701,
      "beginWay": "TALK_BEGIN_MANUAL",
      "beginCondComb": "LOGIC_OR",
      "beginCond": [
        {
          "type": "QUEST_COND_QUEST_NOT_RECEIVE",
          "_param": [
            "7393701",
            "1"
          ]
        }
      ],
      "priority": 1,
      "initDialog": 739370101,
      "npcId": [
        4062
      ],
      "performCfg": "",
      "assetIndex": 16735142853466291049,
      "dontBlockDaily": true,
      "prePerformCfg": ""
    }
  ]
}