{
  "npcId": 4067,
  "talks": [
    {
      "id": 6406701,
      "beginWay": "TALK_BEGIN_MANUAL",
      "priority": 3,
      "nextTalks": [
        6406702,
        6406703
      ],
      "initDialog": 640670101,
      "npcId": [
        4067
      ],
      "performCfg": "",
      "assetIndex": 6229922567328567371,
      "prePerformCfg": ""
    },
    {
      "id": 6406702,
      "priority": 1,
      "nextTalks": [
        6406704
      ],
      "initDialog": 640670201,
      "npcId": [
        4067
      ],
      "performCfg": "",
      "assetIndex": 16330566752121107430,
      "prePerformCfg": "",
      "freeStyleList": [
        1171,
        1172,
        1173
      ]
    },
    {
      "id": 6406703,
      "priority": 1,
      "initDialog": 640670301,
      "npcId": [
        4067
      ],
      "performCfg": "",
      "assetIndex": 5526519529046860433,
      "prePerformCfg": ""
    },
    {
      "id": 6406704,
      "priority": 1,
      "initDialog": 640670401,
      "npcId": [
        4067
      ],
      "performCfg": "",
      "assetIndex": 16826269300052168676,
      "prePerformCfg": ""
    }
  ]
}