{
  "npcId": 4070,
  "talks": [
    {
      "id": 6407001,
      "beginWay": "TALK_BEGIN_MANUAL",
      "activeMode": "PLAY_MODE_ALL",
      "beginCond": [
        {
          "type": "QUEST_COND_CITY_REPUTATION_LEVEL",
          "_param": [
            "4",
            "3",
            "2"
          ]
        }
      ],
      "priority": 3,
      "nextTalks": [
        6407002,
        6407007,
        6407008
      ],
      "initDialog": 640700101,
      "npcId": [
        4070
      ],
      "performCfg": "",
      "assetIndex": 12563835640875277826,
      "prePerformCfg": "",
      "freeStyleList": [
        9000
      ]
    },
    {
      "id": 6407002,
      "activeMode": "PLAY_MODE_ALL",
      "beginCondComb": "LOGIC_AND",
      "beginCond": [
        {
          "type": "QUEST_COND_CITY_REPUTATION_LEVEL",
          "_param": [
            "4",
            "3",
            "2"
          ]
        },
        {
          "type": "QUEST_COND_STATE_EQUAL",
          "_param": [
            "7367302",
            "3"
          ]
        }
      ],
      "priority": 1,
      "initDialog": 640700201,
      "npcId": [
        4070
      ],
      "performCfg": "",
      "assetIndex": 14760045900586371784,
      "prePerformCfg": ""
    },
    {
      "id": 6407003,
      "beginWay": "TALK_BEGIN_MANUAL",
      "activeMode": "PLAY_MODE_ALL",
      "beginCondComb": "LOGIC_AND",
      "beginCond": [
        {
          "type": "QUEST_COND_CITY_REPUTATION_LEVEL",
          "_param": [
            "4",
            "7",
            "2"
          ]
        },
        {
          "type": "QUEST_COND_CITY_REPUTATION_LEVEL",
          "_param": [
            "4",
            "2",
            "1"
          ]
        }
      ],
      "priority": 3,
      "nextTalks": [
        6407004,
        6407007,
        6407008
      ],
      "initDialog": 640700301,
      "npcId": [
        4070
      ],
      "performCfg": "",
      "assetIndex": 5445410529442760423,
      "prePerformCfg": "",
      "freeStyleList": [
        9000
      ]
    },
    {
      "id": 6407004,
      "activeMode": "PLAY_MODE_ALL",
      "beginCondComb": "LOGIC_AND",
      "beginCond": [
        {
          "type": "QUEST_COND_CITY_REPUTATION_LEVEL",
          "_param": [
            "4",
            "7",
            "2"
          ]
        },
        {
          "type": "QUEST_COND_CITY_REPUTATION_LEVEL",
          "_param": [
            "4",
            "2",
            "1"
          ]
        }
      ],
      "priority": 1,
      "initDialog": 640700401,
      "npcId": [
        4070
      ],
      "performCfg": "",
      "assetIndex": 12292506946062618586,
      "prePerformCfg": ""
    },
    {
      "id": 6407005,
      "beginWay": "TALK_BEGIN_MANUAL",
      "activeMode": "PLAY_MODE_ALL",
      "beginCondComb": "LOGIC_AND",
      "beginCond": [
        {
          "type": "QUEST_COND_CITY_REPUTATION_LEVEL",
          "_param": [
            "4",
            "11",
            "2"
          ]
        },
        {
          "type": "QUEST_COND_CITY_REPUTATION_LEVEL",
          "_param": [
            "4",
            "6",
            "1"
          ]
        }
      ],
      "priority": 3,
      "nextTalks": [
        6407006,
        6407007,
        6407008
      ],
      "initDialog": 640700501,
      "npcId": [
        4070
      ],
      "performCfg": "",
      "assetIndex": 7586951079315853790,
      "prePerformCfg": "",
      "freeStyleList": [
        9000
      ]
    },
    {
      "id": 6407006,
      "activeMode": "PLAY_MODE_ALL",
      "beginCondComb": "LOGIC_AND",
      "beginCond": [
        {
          "type": "QUEST_COND_CITY_REPUTATION_LEVEL",
          "_param": [
            "4",
            "11",
            "2"
          ]
        },
        {
          "type": "QUEST_COND_CITY_REPUTATION_LEVEL",
          "_param": [
            "4",
            "6",
            "1"
          ]
        }
      ],
      "priority": 1,
      "initDialog": 640700601,
      "npcId": [
        4070
      ],
      "performCfg": "",
      "assetIndex": 16461880442202567371,
      "prePerformCfg": ""
    },
    {
      "id": 6407007,
      "activeMode": "PLAY_MODE_ALL",
      "priority": 1,
      "initDialog": 640700701,
      "npcId": [
        4070
      ],
      "performCfg": "",
      "assetIndex": 8783322564816270056,
      "prePerformCfg": ""
    },
    {
      "id": 6407008,
      "activeMode": "PLAY_MODE_ALL",
      "priority": 1,
      "initDialog": 640700801,
      "npcId": [
        4070
      ],
      "performCfg": "",
      "assetIndex": 1921129427192578636,
      "prePerformCfg": ""
    }
  ]
}