{
  "npcId": 4105,
  "talks": [
    {
      "id": 6410501,
      "beginWay": "TALK_BEGIN_MANUAL",
      "priority": 3,
      "nextTalks": [
        7366101,
        6410502,
        6410504,
        6410503
      ],
      "initDialog": 641050101,
      "npcId": [
        4105
      ],
      "performCfg": "",
      "assetIndex": 8116788393345801342,
      "prePerformCfg": "",
      "freeStyleList": [
        9000
      ]
    },
    {
      "id": 6410502,
      "beginCond": [
        {
          "type": "QUEST_COND_QUEST_GLOBAL_VAR_EQUAL",
          "_param": [
            "302821",
            "0"
          ]
        }
      ],
      "priority": 1,
      "initDialog": 641050201,
      "npcId": [
        4105
      ],
      "performCfg": "",
      "assetIndex": 17183619167274346591,
      "prePerformCfg": ""
    },
    {
      "id": 6410503,
      "priority": 1,
      "initDialog": 641050301,
      "npcId": [
        4105
      ],
      "performCfg": "",
      "assetIndex": 16404855845406031587,
      "prePerformCfg": ""
    },
    {
      "id": 6410504,
      "beginCond": [
        {
          "type": "QUEST_COND_QUEST_GLOBAL_VAR_EQUAL",
          "_param": [
            "302821",
            "1"
          ]
        }
      ],
      "priority": 1,
      "initDialog": 641050401,
      "npcId": [
        4105
      ],
      "performCfg": "",
      "assetIndex": 17248458453545712842,
      "prePerformCfg": ""
    }
  ]
}