{
  "npcId": 4110,
  "talks": [
    {
      "id": 6411001,
      "beginWay": "TALK_BEGIN_MANUAL",
      "priority": 3,
      "nextTalks": [
        6411002,
        6411003,
        6411004,
        6411005
      ],
      "initDialog": 641100101,
      "npcId": [
        4110
      ],
      "performCfg": "",
      "assetIndex": 5377991356058031955,
      "prePerformCfg": "",
      "freeStyleList": [
        1171,
        1172,
        1173
      ]
    },
    {
      "id": 6411002,
      "priority": 1,
      "initDialog": 641100201,
      "npcId": [
        4110
      ],
      "performCfg": "",
      "assetIndex": 7397278024959672718,
      "prePerformCfg": "",
      "freeStyleList": [
        1120
      ]
    },
    {
      "id": 6411003,
      "priority": 1,
      "nextTalks": [
        6411006,
        6411007
      ],
      "initDialog": 641100301,
      "npcId": [
        4110
      ],
      "performCfg": "",
      "assetIndex": 9810861974060797197,
      "prePerformCfg": "",
      "freeStyleList": [
        1120,
        1171,
        1172,
        1173
      ]
    },
    {
      "id": 6411004,
      "priority": 1,
      "initDialog": 641100401,
      "npcId": [
        4110
      ],
      "performCfg": "",
      "assetIndex": 5227598035599036247,
      "prePerformCfg": "",
      "freeStyleList": [
        1171,
        1172,
        1173,
        1110
      ]
    },
    {
      "id": 6411005,
      "priority": 1,
      "initDialog": 641100501,
      "npcId": [
        4110
      ],
      "performCfg": "",
      "assetIndex": 16046025316590156948,
      "prePerformCfg": ""
    },
    {
      "id": 6411006,
      "beginCond": [
        {
          "type": "QUEST_COND_QUEST_GLOBAL_VAR_EQUAL",
          "_param": [
            "302821",
            "0"
          ]
        }
      ],
      "priority": 1,
      "initDialog": 641100601,
      "npcId": [
        4110
      ],
      "performCfg": "",
      "assetIndex": 5650571835664972381,
      "prePerformCfg": "",
      "freeStyleList": [
        1110,
        1120
      ]
    },
    {
      "id": 6411007,
      "beginCond": [
        {
          "type": "QUEST_COND_QUEST_GLOBAL_VAR_EQUAL",
          "_param": [
            "302821",
            "1"
          ]
        }
      ],
      "priority": 1,
      "initDialog": 641100701,
      "npcId": [
        4110
      ],
      "performCfg": "",
      "assetIndex": 6857734483386584613,
      "prePerformCfg": ""
    }
  ]
}