{
  "npcId": 4127,
  "talks": [
    {
      "id": 6412701,
      "beginWay": "TALK_BEGIN_MANUAL",
      "priority": 3,
      "nextTalks": [
        6412702,
        6412703
      ],
      "initDialog": 641270101,
      "npcId": [
        4127
      ],
      "performCfg": "",
      "assetIndex": 18058976890149480902,
      "prePerformCfg": "",
      "freeStyleList": [
        8040
      ]
    },
    {
      "id": 6412702,
      "priority": 1,
      "initDialog": 641270201,
      "npcId": [
        4127
      ],
      "performCfg": "",
      "assetIndex": 3762729363570957021,
      "prePerformCfg": ""
    },
    {
      "id": 6412703,
      "priority": 1,
      "initDialog": 641270301,
      "npcId": [
        4127
      ],
      "performCfg": "",
      "assetIndex": 9653952224201453891,
      "prePerformCfg": ""
    }
  ]
}