{
  "npcId": 4131,
  "talks": [
    {
      "id": 6413101,
      "beginWay": "TALK_BEGIN_MANUAL",
      "priority": 3,
      "initDialog": 641310101,
      "npcId": [
        4131
      ],
      "performCfg": "",
      "assetIndex": 12402759980301287555,
      "prePerformCfg": ""
    }
  ]
}