{
  "npcId": 4132,
  "talks": [
    {
      "id": 6413201,
      "beginWay": "TALK_BEGIN_MANUAL",
      "priority": 3,
      "initDialog": 641320101,
      "npcId": [
        4132
      ],
      "performCfg": "",
      "assetIndex": 12870949776319778182,
      "prePerformCfg": ""
    }
  ]
}