{
  "npcId": 4136,
  "talks": [
    {
      "id": 6413601,
      "beginWay": "TALK_BEGIN_MANUAL",
      "activeMode": "PLAY_MODE_HOST",
      "priority": 3,
      "nextTalks": [
        6413605,
        6413602,
        6413603
      ],
      "initDialog": 641360101,
      "npcId": [
        4136
      ],
      "performCfg": "",
      "assetIndex": 13753594678947129467,
      "prePerformCfg": "",
      "freeStyleList": [
        1130
      ]
    },
    {
      "id": 6413602,
      "priority": 1,
      "nextTalks": [
        6413604
      ],
      "initDialog": 641360201,
      "npcId": [
        4136
      ],
      "performCfg": "",
      "assetIndex": 1541558438202325120,
      "prePerformCfg": "",
      "freeStyleList": [
        1170,
        1180
      ]
    },
    {
      "id": 6413603,
      "activeMode": "PLAY_MODE_HOST",
      "priority": 1,
      "initDialog": 641360301,
      "npcId": [
        4136
      ],
      "performCfg": "",
      "assetIndex": 15315382804091903304,
      "prePerformCfg": ""
    },
    {
      "id": 6413604,
      "priority": 1,
      "initDialog": 641360401,
      "npcId": [
        4136
      ],
      "performCfg": "",
      "assetIndex": 5020307264995257999,
      "prePerformCfg": "",
      "freeStyleList": [
        1120,
        1170,
        1180
      ]
    },
    {
      "id": 6413605,
      "beginWay": "TALK_BEGIN_MANUAL",
      "activeMode": "PLAY_MODE_HOST",
      "beginCond": [
        {
          "type": "QUEST_COND_GCG_LEVEL_UNLOCKED",
          "_param": [
            "6413605"
          ]
        }
      ],
      "priority": 1,
      "initDialog": 641360501,
      "npcId": [
        4136
      ],
      "performCfg": "",
      "assetIndex": 6579994067910809646,
      "prePerformCfg": ""
    },
    {
      "id": 6413606,
      "beginWay": "TALK_BEGIN_AUTO",
      "activeMode": "PLAY_MODE_HOST",
      "beginCond": [
        {
          "type": "QUEST_COND_GCG_WORLD_CHALLENGE_RESULT",
          "_param": [
            "1",
            "4136",
            "6413605"
          ]
        }
      ],
      "priority": 10,
      "initDialog": 641360601,
      "npcId": [
        4136
      ],
      "performCfg": "",
      "assetIndex": 9135635499523234690,
      "prePerformCfg": ""
    },
    {
      "id": 6413607,
      "beginWay": "TALK_BEGIN_AUTO",
      "activeMode": "PLAY_MODE_HOST",
      "beginCond": [
        {
          "type": "QUEST_COND_GCG_WORLD_CHALLENGE_RESULT",
          "_param": [
            "-1",
            "4136",
            "6413605"
          ]
        }
      ],
      "priority": 10,
      "initDialog": 641360701,
      "npcId": [
        4136
      ],
      "performCfg": "",
      "assetIndex": 14844417899789129576,
      "prePerformCfg": ""
    }
  ]
}