{
  "npcId": 4141,
  "talks": [
    {
      "id": 6414101,
      "beginWay": "TALK_BEGIN_MANUAL",
      "activeMode": "PLAY_MODE_HOST",
      "priority": 3,
      "nextTalks": [
        6414105,
        6414102,
        6414103
      ],
      "initDialog": 641410101,
      "npcId": [
        4141
      ],
      "performCfg": "",
      "assetIndex": 4410423698841682638,
      "prePerformCfg": "",
      "freeStyleList": [
        8040
      ]
    },
    {
      "id": 6414102,
      "priority": 1,
      "nextTalks": [
        6414104
      ],
      "initDialog": 641410201,
      "npcId": [
        4141
      ],
      "performCfg": "",
      "assetIndex": 10845310831205278039,
      "prePerformCfg": "",
      "freeStyleList": [
        8020
      ]
    },
    {
      "id": 6414103,
      "activeMode": "PLAY_MODE_HOST",
      "priority": 1,
      "initDialog": 641410301,
      "npcId": [
        4141
      ],
      "performCfg": "",
      "assetIndex": 14021979459198985530,
      "prePerformCfg": ""
    },
    {
      "id": 6414104,
      "priority": 1,
      "initDialog": 641410401,
      "npcId": [
        4141
      ],
      "performCfg": "",
      "assetIndex": 13323060458611184148,
      "prePerformCfg": "",
      "freeStyleList": [
        4030,
        8060
      ]
    },
    {
      "id": 6414105,
      "beginWay": "TALK_BEGIN_MANUAL",
      "activeMode": "PLAY_MODE_HOST",
      "beginCond": [
        {
          "type": "QUEST_COND_GCG_LEVEL_UNLOCKED",
          "_param": [
            "6414105"
          ]
        }
      ],
      "priority": 1,
      "initDialog": 641410501,
      "npcId": [
        4141
      ],
      "performCfg": "",
      "assetIndex": 2739849614599822092,
      "prePerformCfg": ""
    },
    {
      "id": 6414106,
      "beginWay": "TALK_BEGIN_AUTO",
      "activeMode": "PLAY_MODE_HOST",
      "beginCond": [
        {
          "type": "QUEST_COND_GCG_WORLD_CHALLENGE_RESULT",
          "_param": [
            "1",
            "4141",
            "6414105"
          ]
        }
      ],
      "priority": 10,
      "initDialog": 641410601,
      "npcId": [
        4141
      ],
      "performCfg": "",
      "assetIndex": 14681308888911084025,
      "prePerformCfg": ""
    },
    {
      "id": 6414107,
      "beginWay": "TALK_BEGIN_AUTO",
      "activeMode": "PLAY_MODE_HOST",
      "beginCond": [
        {
          "type": "QUEST_COND_GCG_WORLD_CHALLENGE_RESULT",
          "_param": [
            "-1",
            "4141",
            "6414105"
          ]
        }
      ],
      "priority": 10,
      "initDialog": 641410701,
      "npcId": [
        4141
      ],
      "performCfg": "",
      "assetIndex": 6549030718239302302,
      "prePerformCfg": ""
    }
  ]
}