{
  "npcId": 4142,
  "talks": [
    {
      "id": 6414201,
      "beginWay": "TALK_BEGIN_MANUAL",
      "priority": 3,
      "nextTalks": [
        6414202,
        6414203,
        6414204
      ],
      "initDialog": 641420101,
      "npcId": [
        4142
      ],
      "performCfg": "",
      "assetIndex": 6547815311138799909,
      "prePerformCfg": "",
      "freeStyleList": [
        1171,
        1172,
        1173
      ]
    },
    {
      "id": 6414202,
      "priority": 1,
      "initDialog": 641420201,
      "npcId": [
        4142
      ],
      "performCfg": "",
      "assetIndex": 5657946452051373493,
      "prePerformCfg": ""
    },
    {
      "id": 6414203,
      "priority": 1,
      "initDialog": 641420301,
      "npcId": [
        4142
      ],
      "performCfg": "",
      "assetIndex": 8515872117765222180,
      "prePerformCfg": "",
      "freeStyleList": [
        1171,
        1172,
        1173,
        4040
      ]
    },
    {
      "id": 6414204,
      "priority": 1,
      "initDialog": 641420401,
      "npcId": [
        4142
      ],
      "performCfg": "",
      "assetIndex": 13617223729414698540,
      "prePerformCfg": ""
    }
  ]
}