{
  "npcId": 4150,
  "talks": [
    {
      "id": 6415001,
      "beginWay": "TALK_BEGIN_MANUAL",
      "priority": 3,
      "nextTalks": [
        6415002,
        6415003
      ],
      "initDialog": 641500101,
      "npcId": [
        4150
      ],
      "performCfg": "",
      "assetIndex": 8658945254896288999,
      "prePerformCfg": "",
      "freeStyleList": [
        9000
      ]
    },
    {
      "id": 6415002,
      "priority": 1,
      "initDialog": 641500201,
      "npcId": [
        4150
      ],
      "performCfg": "",
      "assetIndex": 3452717569621836204,
      "prePerformCfg": ""
    },
    {
      "id": 6415003,
      "priority": 1,
      "initDialog": 641500301,
      "npcId": [
        4150
      ],
      "performCfg": "",
      "assetIndex": 1549465196527536483,
      "prePerformCfg": ""
    }
  ]
}