{
  "npcId": 4161,
  "talks": [
    {
      "id": 6416101,
      "beginWay": "TALK_BEGIN_MANUAL",
      "priority": 3,
      "initDialog": 641610101,
      "npcId": [
        4161,
        4162
      ],
      "performCfg": "",
      "assetIndex": 15789649070344615789,
      "prePerformCfg": ""
    }
  ]
}