{
  "npcId": 4167,
  "talks": [
    {
      "id": 6416701,
      "beginWay": "TALK_BEGIN_MANUAL",
      "priority": 3,
      "nextTalks": [
        6416702,
        6416703,
        6416704
      ],
      "initDialog": 641670101,
      "npcId": [
        4167
      ],
      "performCfg": "",
      "assetIndex": 6383909758320187346,
      "prePerformCfg": "",
      "freeStyleList": [
        9000
      ]
    },
    {
      "id": 6416702,
      "priority": 1,
      "initDialog": 641670201,
      "npcId": [
        4167
      ],
      "performCfg": "",
      "assetIndex": 5690716936895861266,
      "prePerformCfg": ""
    },
    {
      "id": 6416703,
      "priority": 1,
      "initDialog": 641670301,
      "npcId": [
        4167
      ],
      "performCfg": "",
      "assetIndex": 18164303689218017400,
      "prePerformCfg": ""
    },
    {
      "id": 6416704,
      "priority": 1,
      "initDialog": 641670401,
      "npcId": [
        4167
      ],
      "performCfg": "",
      "assetIndex": 4263154048988982476,
      "prePerformCfg": ""
    }
  ]
}