{
  "npcId": 4170,
  "talks": [
    {
      "id": 6417001,
      "beginWay": "TALK_BEGIN_MANUAL",
      "activeMode": "PLAY_MODE_HOST",
      "priority": 3,
      "nextTalks": [
        6417004,
        6417002,
        6417003
      ],
      "initDialog": 641700101,
      "npcId": [
        4170
      ],
      "performCfg": "",
      "assetIndex": 10541541529012610490,
      "prePerformCfg": "",
      "freeStyleList": [
        9000
      ]
    },
    {
      "id": 6417002,
      "priority": 1,
      "nextTalks": [
        7391701
      ],
      "initDialog": 641700201,
      "npcId": [
        4170
      ],
      "performCfg": "",
      "assetIndex": 14418428222269792566,
      "prePerformCfg": ""
    },
    {
      "id": 6417003,
      "activeMode": "PLAY_MODE_HOST",
      "priority": 1,
      "initDialog": 641700301,
      "npcId": [
        4170
      ],
      "performCfg": "",
      "assetIndex": 2890850247956912480,
      "prePerformCfg": ""
    },
    {
      "id": 6417004,
      "beginWay": "TALK_BEGIN_MANUAL",
      "activeMode": "PLAY_MODE_HOST",
      "beginCond": [
        {
          "type": "QUEST_COND_GCG_LEVEL_UNLOCKED",
          "_param": [
            "6417004"
          ]
        }
      ],
      "priority": 1,
      "initDialog": 641700401,
      "npcId": [
        4170
      ],
      "performCfg": "",
      "assetIndex": 17403115715328436700,
      "prePerformCfg": ""
    },
    {
      "id": 6417005,
      "beginWay": "TALK_BEGIN_AUTO",
      "activeMode": "PLAY_MODE_HOST",
      "beginCond": [
        {
          "type": "QUEST_COND_GCG_WORLD_CHALLENGE_RESULT",
          "_param": [
            "1",
            "4170",
            "6417004"
          ]
        }
      ],
      "priority": 10,
      "initDialog": 641700501,
      "npcId": [
        4170
      ],
      "performCfg": "",
      "assetIndex": 11071360412686557341,
      "prePerformCfg": ""
    },
    {
      "id": 6417006,
      "beginWay": "TALK_BEGIN_AUTO",
      "activeMode": "PLAY_MODE_HOST",
      "beginCond": [
        {
          "type": "QUEST_COND_GCG_WORLD_CHALLENGE_RESULT",
          "_param": [
            "-1",
            "4170",
            "6417004"
          ]
        }
      ],
      "priority": 10,
      "initDialog": 641700601,
      "npcId": [
        4170
      ],
      "performCfg": "",
      "assetIndex": 8264685396292032679,
      "prePerformCfg": ""
    },
    {
      "id": 7391701,
      "beginWay": "TALK_BEGIN_MANUAL",
      "beginCondComb": "LOGIC_OR",
      "beginCond": [
        {
          "type": "QUEST_COND_QUEST_NOT_RECEIVE",
          "_param": [
            "7391701",
            "1"
          ]
        }
      ],
      "priority": 1,
      "initDialog": 739170101,
      "npcId": [
        4170
      ],
      "performCfg": "",
      "assetIndex": 6534895341613112060,
      "dontBlockDaily": true,
      "prePerformCfg": ""
    }
  ]
}