{
  "npcId": 4176,
  "talks": [
    {
      "id": 6417601,
      "beginWay": "TALK_BEGIN_MANUAL",
      "priority": 3,
      "nextTalks": [
        6417602,
        6417603,
        6417604,
        6417605
      ],
      "initDialog": 641760101,
      "npcId": [
        4176
      ],
      "performCfg": "",
      "assetIndex": 2739381604686333864,
      "prePerformCfg": "",
      "freeStyleList": [
        9000
      ]
    },
    {
      "id": 6417602,
      "beginCond": [
        {
          "type": "QUEST_COND_QUEST_GLOBAL_VAR_EQUAL",
          "_param": [
            "70661",
            "1"
          ]
        }
      ],
      "priority": 1,
      "initDialog": 641760201,
      "npcId": [
        4176
      ],
      "performCfg": "",
      "assetIndex": 6394934203083590246,
      "prePerformCfg": ""
    },
    {
      "id": 6417603,
      "priority": 1,
      "initDialog": 641760301,
      "npcId": [
        4176
      ],
      "performCfg": "",
      "assetIndex": 3362864023139673938,
      "prePerformCfg": ""
    },
    {
      "id": 6417604,
      "priority": 1,
      "initDialog": 641760401,
      "npcId": [
        4176
      ],
      "performCfg": "",
      "assetIndex": 4444822792168716036,
      "prePerformCfg": ""
    },
    {
      "id": 6417605,
      "priority": 1,
      "initDialog": 641760501,
      "npcId": [
        4176
      ],
      "performCfg": "",
      "assetIndex": 10160598651916791212,
      "prePerformCfg": ""
    }
  ]
}