{
  "npcId": 4181,
  "talks": [
    {
      "id": 6418101,
      "beginWay": "TALK_BEGIN_MANUAL",
      "priority": 3,
      "nextTalks": [
        6418102,
        6418103
      ],
      "initDialog": 641810101,
      "npcId": [
        4181
      ],
      "performCfg": "",
      "assetIndex": 14917850664651726954,
      "prePerformCfg": ""
    },
    {
      "id": 6418102,
      "priority": 1,
      "nextTalks": [
        6418104
      ],
      "initDialog": 641810201,
      "npcId": [
        4181
      ],
      "performCfg": "",
      "assetIndex": 17260979635489458971,
      "prePerformCfg": ""
    },
    {
      "id": 6418103,
      "priority": 1,
      "initDialog": 641810301,
      "npcId": [
        4181
      ],
      "performCfg": "",
      "assetIndex": 8919071318819430010,
      "prePerformCfg": ""
    },
    {
      "id": 6418104,
      "priority": 1,
      "initDialog": 641810401,
      "npcId": [
        4181
      ],
      "performCfg": "",
      "assetIndex": 6024115407546013007,
      "prePerformCfg": ""
    }
  ]
}