{
  "npcId": 4196,
  "talks": [
    {
      "id": 6419601,
      "beginWay": "TALK_BEGIN_MANUAL",
      "beginCond": [
        {
          "type": "QUEST_COND_STATE_EQUAL",
          "_param": [
            "7302515",
            "3"
          ]
        }
      ],
      "priority": 3,
      "nextTalks": [
        6419602,
        6419603,
        6419604
      ],
      "initDialog": 641960101,
      "npcId": [
        4196
      ],
      "performCfg": "",
      "assetIndex": 356162879905671778,
      "prePerformCfg": ""
    },
    {
      "id": 6419602,
      "beginCond": [
        {
          "type": "QUEST_COND_STATE_EQUAL",
          "_param": [
            "7302515",
            "3"
          ]
        }
      ],
      "priority": 1,
      "initDialog": 641960201,
      "npcId": [
        4196
      ],
      "performCfg": "",
      "assetIndex": 11726979293193559618,
      "prePerformCfg": ""
    },
    {
      "id": 6419603,
      "beginCond": [
        {
          "type": "QUEST_COND_STATE_EQUAL",
          "_param": [
            "7302515",
            "3"
          ]
        }
      ],
      "priority": 1,
      "initDialog": 641960301,
      "npcId": [
        4196
      ],
      "performCfg": "",
      "assetIndex": 11209422461963030982,
      "prePerformCfg": ""
    },
    {
      "id": 6419604,
      "beginCond": [
        {
          "type": "QUEST_COND_STATE_EQUAL",
          "_param": [
            "7302515",
            "3"
          ]
        }
      ],
      "priority": 1,
      "initDialog": 641960401,
      "npcId": [
        4196
      ],
      "performCfg": "",
      "assetIndex": 7081660536671961657,
      "prePerformCfg": ""
    },
    {
      "id": 6419605,
      "beginWay": "TALK_BEGIN_MANUAL",
      "beginCond": [
        {
          "type": "QUEST_COND_STATE_EQUAL",
          "_param": [
            "7303803",
            "3"
          ]
        }
      ],
      "priority": 5,
      "nextTalks": [
        6419606,
        6419609
      ],
      "initDialog": 641960501,
      "npcId": [
        4196
      ],
      "performCfg": "",
      "assetIndex": 250259799976568066,
      "prePerformCfg": ""
    },
    {
      "id": 6419606,
      "beginCond": [
        {
          "type": "QUEST_COND_STATE_EQUAL",
          "_param": [
            "7303803",
            "3"
          ]
        }
      ],
      "priority": 1,
      "nextTalks": [
        6419607,
        6419608
      ],
      "initDialog": 641960601,
      "npcId": [
        4196
      ],
      "performCfg": "",
      "assetIndex": 3370731930604283236,
      "prePerformCfg": ""
    },
    {
      "id": 6419607,
      "beginCond": [
        {
          "type": "QUEST_COND_STATE_EQUAL",
          "_param": [
            "7303803",
            "3"
          ]
        }
      ],
      "priority": 1,
      "initDialog": 641960701,
      "npcId": [
        4196
      ],
      "performCfg": "",
      "assetIndex": 9157235883845776870,
      "prePerformCfg": ""
    },
    {
      "id": 6419608,
      "beginCond": [
        {
          "type": "QUEST_COND_STATE_EQUAL",
          "_param": [
            "7303803",
            "3"
          ]
        }
      ],
      "priority": 1,
      "initDialog": 641960801,
      "npcId": [
        4196
      ],
      "performCfg": "",
      "assetIndex": 2384184108803491304,
      "prePerformCfg": ""
    },
    {
      "id": 6419609,
      "beginCond": [
        {
          "type": "QUEST_COND_STATE_EQUAL",
          "_param": [
            "7303803",
            "3"
          ]
        }
      ],
      "priority": 1,
      "initDialog": 641960901,
      "npcId": [
        4196
      ],
      "performCfg": "",
      "assetIndex": 2816839899002696095,
      "prePerformCfg": ""
    },
    {
      "id": 6419610,
      "beginWay": "TALK_BEGIN_MANUAL",
      "beginCond": [
        {
          "type": "QUEST_COND_STATE_EQUAL",
          "_param": [
            "7303209",
            "3"
          ]
        }
      ],
      "priority": 4,
      "initDialog": 641961001,
      "npcId": [
        4196
      ],
      "performCfg": "",
      "assetIndex": 10382809370103982709,
      "prePerformCfg": ""
    }
  ]
}