{
  "npcId": 4209,
  "talks": [
    {
      "id": 6420901,
      "beginWay": "TALK_BEGIN_MANUAL",
      "beginCond": [
        {
          "type": "QUEST_COND_STATE_EQUAL",
          "_param": [
            "7302515",
            "3"
          ]
        }
      ],
      "priority": 3,
      "initDialog": 642090101,
      "npcId": [
        4209,
        4208
      ],
      "performCfg": "",
      "assetIndex": 11512751171400539750,
      "prePerformCfg": ""
    },
    {
      "id": 6420902,
      "beginWay": "TALK_BEGIN_MANUAL",
      "beginCond": [
        {
          "type": "QUEST_COND_STATE_EQUAL",
          "_param": [
            "7303803",
            "3"
          ]
        }
      ],
      "priority": 5,
      "initDialog": 642090201,
      "npcId": [
        4209,
        4208
      ],
      "performCfg": "",
      "assetIndex": 16436383060740734917,
      "prePerformCfg": ""
    },
    {
      "id": 6420903,
      "beginWay": "TALK_BEGIN_MANUAL",
      "beginCond": [
        {
          "type": "QUEST_COND_STATE_EQUAL",
          "_param": [
            "7303209",
            "3"
          ]
        }
      ],
      "priority": 4,
      "initDialog": 642090301,
      "npcId": [
        4209,
        4208
      ],
      "performCfg": "",
      "assetIndex": 9341288489292010129,
      "prePerformCfg": ""
    }
  ]
}