{
  "npcId": 4211,
  "talks": [
    {
      "id": 6421101,
      "beginWay": "TALK_BEGIN_MANUAL",
      "beginCond": [
        {
          "type": "QUEST_COND_STATE_EQUAL",
          "_param": [
            "7302515",
            "3"
          ]
        }
      ],
      "priority": 3,
      "nextTalks": [
        6421102,
        6421103,
        6421104
      ],
      "initDialog": 642110101,
      "npcId": [
        4211
      ],
      "performCfg": "",
      "assetIndex": 14867250482004757215,
      "prePerformCfg": ""
    },
    {
      "id": 6421102,
      "beginCond": [
        {
          "type": "QUEST_COND_STATE_EQUAL",
          "_param": [
            "7302515",
            "3"
          ]
        }
      ],
      "priority": 1,
      "initDialog": 642110201,
      "npcId": [
        4211
      ],
      "performCfg": "",
      "assetIndex": 1298031056959475723,
      "prePerformCfg": ""
    },
    {
      "id": 6421103,
      "beginCond": [
        {
          "type": "QUEST_COND_STATE_EQUAL",
          "_param": [
            "7302515",
            "3"
          ]
        }
      ],
      "priority": 1,
      "initDialog": 642110301,
      "npcId": [
        4211
      ],
      "performCfg": "",
      "assetIndex": 389855082288467372,
      "prePerformCfg": ""
    },
    {
      "id": 6421104,
      "beginCond": [
        {
          "type": "QUEST_COND_STATE_EQUAL",
          "_param": [
            "7302515",
            "3"
          ]
        }
      ],
      "priority": 1,
      "initDialog": 642110401,
      "npcId": [
        4211
      ],
      "performCfg": "",
      "assetIndex": 13077506694568762001,
      "prePerformCfg": ""
    },
    {
      "id": 6421105,
      "beginWay": "TALK_BEGIN_MANUAL",
      "beginCond": [
        {
          "type": "QUEST_COND_STATE_EQUAL",
          "_param": [
            "7303803",
            "3"
          ]
        }
      ],
      "priority": 5,
      "nextTalks": [
        6421106,
        6421107,
        6421108
      ],
      "initDialog": 642110501,
      "npcId": [
        4211
      ],
      "performCfg": "",
      "assetIndex": 17431382683044099116,
      "prePerformCfg": ""
    },
    {
      "id": 6421106,
      "beginCond": [
        {
          "type": "QUEST_COND_STATE_EQUAL",
          "_param": [
            "7303803",
            "3"
          ]
        }
      ],
      "priority": 1,
      "initDialog": 642110601,
      "npcId": [
        4211
      ],
      "performCfg": "",
      "assetIndex": 8212177978094819213,
      "prePerformCfg": ""
    },
    {
      "id": 6421107,
      "beginCond": [
        {
          "type": "QUEST_COND_STATE_EQUAL",
          "_param": [
            "7303803",
            "3"
          ]
        }
      ],
      "priority": 1,
      "initDialog": 642110701,
      "npcId": [
        4211
      ],
      "performCfg": "",
      "assetIndex": 17517908380509626466,
      "prePerformCfg": ""
    },
    {
      "id": 6421108,
      "beginCond": [
        {
          "type": "QUEST_COND_STATE_EQUAL",
          "_param": [
            "7303803",
            "3"
          ]
        }
      ],
      "priority": 1,
      "initDialog": 642110801,
      "npcId": [
        4211
      ],
      "performCfg": "",
      "assetIndex": 18057776755032508867,
      "prePerformCfg": ""
    },
    {
      "id": 6421109,
      "beginWay": "TALK_BEGIN_MANUAL",
      "beginCond": [
        {
          "type": "QUEST_COND_STATE_EQUAL",
          "_param": [
            "7303201",
            "3"
          ]
        }
      ],
      "priority": 4,
      "initDialog": 642110901,
      "npcId": [
        4211
      ],
      "performCfg": "",
      "assetIndex": 8004563012467114418,
      "prePerformCfg": ""
    }
  ]
}