{
  "npcId": 422001,
  "talks": [
    {
      "id": 7324906,
      "beginWay": "TALK_BEGIN_MANUAL",
      "activeMode": "PLAY_MODE_HOST",
      "beginCondComb": "LOGIC_AND",
      "beginCond": [
        {
          "type": "QUEST_COND_STATE_EQUAL",
          "_param": [
            "7324903",
            "3"
          ]
        }
      ],
      "priority": 3,
      "initDialog": 732490601,
      "npcId": [
        422001
      ],
      "performCfg": "",
      "assetIndex": 9859904478434830698,
      "prePerformCfg": ""
    }
  ]
}