{
  "npcId": 422002,
  "talks": [
    {
      "id": 7325006,
      "beginWay": "TALK_BEGIN_MANUAL",
      "activeMode": "PLAY_MODE_HOST",
      "beginCondComb": "LOGIC_AND",
      "beginCond": [
        {
          "type": "QUEST_COND_STATE_EQUAL",
          "_param": [
            "7325003",
            "3"
          ]
        }
      ],
      "priority": 3,
      "initDialog": 732500601,
      "npcId": [
        422002
      ],
      "performCfg": "",
      "assetIndex": 998136777806522253,
      "prePerformCfg": ""
    }
  ]
}