{
  "npcId": 4237,
  "talks": [
    {
      "id": 6423701,
      "beginWay": "TALK_BEGIN_MANUAL",
      "priority": 3,
      "nextTalks": [
        6423702,
        6423703
      ],
      "initDialog": 642370101,
      "npcId": [
        4237
      ],
      "performCfg": "",
      "assetIndex": 6370119321697764196,
      "prePerformCfg": ""
    },
    {
      "id": 6423702,
      "priority": 1,
      "initDialog": 642370201,
      "npcId": [
        4237
      ],
      "performCfg": "",
      "assetIndex": 14494113714330015584,
      "prePerformCfg": ""
    },
    {
      "id": 6423703,
      "priority": 1,
      "initDialog": 642370301,
      "npcId": [
        4237
      ],
      "performCfg": "",
      "assetIndex": 11439629952191460814,
      "prePerformCfg": ""
    },
    {
      "id": 6423704,
      "beginWay": "TALK_BEGIN_MANUAL",
      "beginCond": [
        {
          "type": "QUEST_COND_STATE_EQUAL",
          "_param": [
            "7303803",
            "3"
          ]
        }
      ],
      "priority": 5,
      "nextTalks": [
        6423705
      ],
      "initDialog": 642370401,
      "npcId": [
        4237
      ],
      "performCfg": "",
      "assetIndex": 13075992121499299459,
      "prePerformCfg": ""
    },
    {
      "id": 6423705,
      "beginCond": [
        {
          "type": "QUEST_COND_STATE_EQUAL",
          "_param": [
            "7303803",
            "3"
          ]
        }
      ],
      "priority": 1,
      "initDialog": 642370501,
      "npcId": [
        4237
      ],
      "performCfg": "",
      "assetIndex": 16334176424771136999,
      "prePerformCfg": ""
    },
    {
      "id": 6423706,
      "beginWay": "TALK_BEGIN_MANUAL",
      "beginCond": [
        {
          "type": "QUEST_COND_STATE_EQUAL",
          "_param": [
            "7303206",
            "3"
          ]
        }
      ],
      "priority": 4,
      "initDialog": 642370601,
      "npcId": [
        4237
      ],
      "performCfg": "",
      "assetIndex": 5691014338184826577,
      "prePerformCfg": ""
    }
  ]
}