{
  "npcId": 4258,
  "talks": [
    {
      "id": 6425801,
      "beginWay": "TALK_BEGIN_MANUAL",
      "priority": 3,
      "nextTalks": [
        6425802,
        6425803,
        6425804,
        6425805
      ],
      "initDialog": 642580101,
      "npcId": [
        4258
      ],
      "performCfg": "",
      "assetIndex": 17796890207651919607,
      "prePerformCfg": ""
    },
    {
      "id": 6425802,
      "priority": 1,
      "initDialog": 642580201,
      "npcId": [
        4258
      ],
      "performCfg": "",
      "assetIndex": 16467181248486094966,
      "prePerformCfg": ""
    },
    {
      "id": 6425803,
      "priority": 1,
      "initDialog": 642580301,
      "npcId": [
        4258
      ],
      "performCfg": "",
      "assetIndex": 11292201225972702293,
      "prePerformCfg": ""
    },
    {
      "id": 6425804,
      "beginCond": [
        {
          "type": "QUEST_COND_STATE_EQUAL",
          "_param": [
            "7315801",
            "3"
          ]
        }
      ],
      "priority": 1,
      "initDialog": 642580401,
      "npcId": [
        4258
      ],
      "performCfg": "",
      "assetIndex": 10782187481693436609,
      "prePerformCfg": ""
    },
    {
      "id": 6425805,
      "priority": 1,
      "initDialog": 642580501,
      "npcId": [
        4258
      ],
      "performCfg": "",
      "assetIndex": 5775074680821998496,
      "prePerformCfg": ""
    }
  ]
}