{
  "npcId": 4271,
  "talks": [
    {
      "id": 7323610,
      "beginWay": "TALK_BEGIN_MANUAL",
      "activeMode": "PLAY_MODE_ALL",
      "priority": 5,
      "initDialog": 732361001,
      "npcId": [
        4271
      ],
      "performCfg": "",
      "assetIndex": 1569491011976251479,
      "prePerformCfg": ""
    }
  ]
}