{
  "npcId": 4280,
  "talks": [
    {
      "id": 7323619,
      "beginWay": "TALK_BEGIN_MANUAL",
      "activeMode": "PLAY_MODE_ALL",
      "priority": 5,
      "initDialog": 732361901,
      "npcId": [
        4280
      ],
      "performCfg": "",
      "assetIndex": 255115103465028681,
      "prePerformCfg": ""
    }
  ]
}