{
  "npcId": 4281,
  "talks": [
    {
      "id": 7323620,
      "beginWay": "TALK_BEGIN_MANUAL",
      "activeMode": "PLAY_MODE_ALL",
      "priority": 5,
      "initDialog": 732362001,
      "npcId": [
        4281
      ],
      "performCfg": "",
      "assetIndex": 5900584783690087116,
      "prePerformCfg": ""
    }
  ]
}