{
  "npcId": 4290,
  "talks": [
    {
      "id": 6429001,
      "beginWay": "TALK_BEGIN_MANUAL",
      "beginCond": [
        {
          "type": "QUEST_COND_QUEST_GLOBAL_VAR_EQUAL",
          "_param": [
            "7323101",
            "1"
          ]
        }
      ],
      "priority": 3,
      "nextTalks": [
        6429002,
        6429003,
        6429004
      ],
      "initDialog": 642900101,
      "npcId": [
        4290
      ],
      "performCfg": "",
      "assetIndex": 4561388797032419783,
      "prePerformCfg": ""
    },
    {
      "id": 6429002,
      "beginCond": [
        {
          "type": "QUEST_COND_QUEST_GLOBAL_VAR_EQUAL",
          "_param": [
            "7323101",
            "1"
          ]
        }
      ],
      "priority": 1,
      "initDialog": 642900201,
      "npcId": [
        4290
      ],
      "performCfg": "",
      "assetIndex": 6295791636858523965,
      "prePerformCfg": ""
    },
    {
      "id": 6429003,
      "beginCond": [
        {
          "type": "QUEST_COND_QUEST_GLOBAL_VAR_EQUAL",
          "_param": [
            "7323101",
            "1"
          ]
        }
      ],
      "priority": 1,
      "initDialog": 642900301,
      "npcId": [
        4290
      ],
      "performCfg": "",
      "assetIndex": 12072781192626609038,
      "prePerformCfg": ""
    },
    {
      "id": 6429004,
      "beginCond": [
        {
          "type": "QUEST_COND_QUEST_GLOBAL_VAR_EQUAL",
          "_param": [
            "7323101",
            "1"
          ]
        }
      ],
      "priority": 1,
      "initDialog": 642900401,
      "npcId": [
        4290
      ],
      "performCfg": "",
      "assetIndex": 2028076200595542292,
      "prePerformCfg": ""
    },
    {
      "id": 6429005,
      "beginWay": "TALK_BEGIN_MANUAL",
      "beginCond": [
        {
          "type": "QUEST_COND_QUEST_GLOBAL_VAR_EQUAL",
          "_param": [
            "7323201",
            "1"
          ]
        }
      ],
      "priority": 4,
      "nextTalks": [
        6429006,
        6429009
      ],
      "initDialog": 642900501,
      "npcId": [
        4290
      ],
      "performCfg": "",
      "assetIndex": 4413911424444805560,
      "prePerformCfg": ""
    },
    {
      "id": 6429006,
      "beginCond": [
        {
          "type": "QUEST_COND_QUEST_GLOBAL_VAR_EQUAL",
          "_param": [
            "7323201",
            "1"
          ]
        }
      ],
      "priority": 1,
      "nextTalks": [
        6429007,
        6429008
      ],
      "initDialog": 642900601,
      "npcId": [
        4290
      ],
      "performCfg": "",
      "assetIndex": 4867446377081693387,
      "prePerformCfg": ""
    },
    {
      "id": 6429007,
      "beginCond": [
        {
          "type": "QUEST_COND_QUEST_GLOBAL_VAR_EQUAL",
          "_param": [
            "7323201",
            "1"
          ]
        }
      ],
      "priority": 1,
      "initDialog": 642900701,
      "npcId": [
        4290
      ],
      "performCfg": "",
      "assetIndex": 1887585016813631953,
      "prePerformCfg": ""
    },
    {
      "id": 6429008,
      "beginCond": [
        {
          "type": "QUEST_COND_QUEST_GLOBAL_VAR_EQUAL",
          "_param": [
            "7323201",
            "1"
          ]
        }
      ],
      "priority": 1,
      "initDialog": 642900801,
      "npcId": [
        4290
      ],
      "performCfg": "",
      "assetIndex": 3679592910102838102,
      "prePerformCfg": ""
    },
    {
      "id": 6429009,
      "beginCond": [
        {
          "type": "QUEST_COND_QUEST_GLOBAL_VAR_EQUAL",
          "_param": [
            "7323201",
            "1"
          ]
        }
      ],
      "priority": 1,
      "initDialog": 642900901,
      "npcId": [
        4290
      ],
      "performCfg": "",
      "assetIndex": 6149322732825608887,
      "prePerformCfg": ""
    }
  ]
}