{
  "npcId": 4311,
  "talks": [
    {
      "id": 6431101,
      "beginWay": "TALK_BEGIN_MANUAL",
      "priority": 3,
      "nextTalks": [
        6431102,
        6431103,
        6431106,
        6431104
      ],
      "initDialog": 643110101,
      "npcId": [
        4311
      ],
      "performCfg": "",
      "assetIndex": 18190236602958292255,
      "prePerformCfg": ""
    },
    {
      "id": 6431102,
      "priority": 1,
      "nextTalks": [
        6431105
      ],
      "initDialog": 643110201,
      "npcId": [
        4311
      ],
      "performCfg": "",
      "assetIndex": 12670911009767086639,
      "prePerformCfg": "",
      "freeStyleList": [
        4040
      ]
    },
    {
      "id": 6431103,
      "beginCond": [
        {
          "type": "QUEST_COND_QUEST_GLOBAL_VAR_EQUAL",
          "_param": [
            "302821",
            "0"
          ]
        }
      ],
      "priority": 1,
      "initDialog": 643110301,
      "npcId": [
        4311
      ],
      "performCfg": "",
      "assetIndex": 14699157668143839384,
      "prePerformCfg": ""
    },
    {
      "id": 6431104,
      "priority": 1,
      "initDialog": 643110401,
      "npcId": [
        4311
      ],
      "performCfg": "",
      "assetIndex": 3714114498191375021,
      "prePerformCfg": ""
    },
    {
      "id": 6431105,
      "priority": 1,
      "initDialog": 643110501,
      "npcId": [
        4311
      ],
      "performCfg": "",
      "assetIndex": 6247903183652891995,
      "prePerformCfg": "",
      "freeStyleList": [
        4030
      ]
    },
    {
      "id": 6431106,
      "beginCond": [
        {
          "type": "QUEST_COND_QUEST_GLOBAL_VAR_EQUAL",
          "_param": [
            "302821",
            "1"
          ]
        }
      ],
      "priority": 1,
      "initDialog": 643110601,
      "npcId": [
        4311
      ],
      "performCfg": "",
      "assetIndex": 3707541544645541512,
      "prePerformCfg": ""
    }
  ]
}