{
  "npcId": 4320,
  "talks": [
    {
      "id": 6432001,
      "beginWay": "TALK_BEGIN_MANUAL",
      "beginCond": [
        {
          "type": "QUEST_COND_IS_DAYTIME",
          "_param": [
            "1"
          ]
        }
      ],
      "priority": 3,
      "nextTalks": [
        6432002,
        6432003,
        6432004
      ],
      "initDialog": 643200101,
      "npcId": [
        4320
      ],
      "performCfg": "",
      "assetIndex": 13524764658610549603,
      "prePerformCfg": "",
      "freeStyleList": [
        9000
      ]
    },
    {
      "id": 6432002,
      "beginCond": [
        {
          "type": "QUEST_COND_IS_DAYTIME",
          "_param": [
            "1"
          ]
        }
      ],
      "priority": 1,
      "initDialog": 643200201,
      "npcId": [
        4320
      ],
      "performCfg": "",
      "assetIndex": 17693322324215441014,
      "prePerformCfg": ""
    },
    {
      "id": 6432003,
      "beginCond": [
        {
          "type": "QUEST_COND_IS_DAYTIME",
          "_param": [
            "1"
          ]
        }
      ],
      "priority": 1,
      "nextTalks": [
        7397201
      ],
      "initDialog": 643200301,
      "npcId": [
        4320
      ],
      "performCfg": "",
      "assetIndex": 14750707709566977541,
      "prePerformCfg": ""
    },
    {
      "id": 6432004,
      "beginCond": [
        {
          "type": "QUEST_COND_IS_DAYTIME",
          "_param": [
            "1"
          ]
        }
      ],
      "priority": 1,
      "initDialog": 643200401,
      "npcId": [
        4320
      ],
      "performCfg": "",
      "assetIndex": 13625026525624305214,
      "prePerformCfg": ""
    },
    {
      "id": 6440701,
      "beginWay": "TALK_BEGIN_MANUAL",
      "beginCond": [
        {
          "type": "QUEST_COND_IS_DAYTIME",
          "_param": [
            "0"
          ]
        }
      ],
      "priority": 3,
      "initDialog": 644070101,
      "npcId": [
        4407,
        4320
      ],
      "performCfg": "",
      "assetIndex": 11128317373773371915,
      "prePerformCfg": ""
    },
    {
      "id": 7397201,
      "beginCondComb": "LOGIC_AND",
      "beginCond": [
        {
          "type": "QUEST_COND_QUEST_NOT_RECEIVE",
          "_param": [
            "7397201",
            "1"
          ]
        }
      ],
      "priority": 1,
      "initDialog": 739720101,
      "npcId": [
        4320
      ],
      "performCfg": "",
      "assetIndex": 5883609072638534489,
      "dontBlockDaily": true,
      "prePerformCfg": ""
    }
  ]
}