{
  "npcId": 4327,
  "talks": [
    {
      "id": 6432701,
      "beginWay": "TALK_BEGIN_MANUAL",
      "beginCondComb": "LOGIC_AND",
      "beginCond": [
        {
          "type": "QUEST_COND_STATE_EQUAL",
          "_param": [
            "7300101"
          ]
        },
        {
          "type": "QUEST_COND_STATE_EQUAL",
          "_param": [
            "7300102"
          ]
        }
      ],
      "priority": 3,
      "nextTalks": [
        6432702
      ],
      "initDialog": 643270101,
      "npcId": [
        4327
      ],
      "performCfg": "",
      "assetIndex": 14146991543608233164,
      "prePerformCfg": "",
      "freeStyleList": [
        1190
      ]
    },
    {
      "id": 6432702,
      "beginCondComb": "LOGIC_AND",
      "beginCond": [
        {
          "type": "QUEST_COND_STATE_EQUAL",
          "_param": [
            "7300101"
          ]
        },
        {
          "type": "QUEST_COND_STATE_EQUAL",
          "_param": [
            "7300102"
          ]
        }
      ],
      "priority": 1,
      "initDialog": 643270201,
      "npcId": [
        4327
      ],
      "performCfg": "",
      "assetIndex": 9685583212968498238,
      "prePerformCfg": ""
    },
    {
      "id": 6432703,
      "beginWay": "TALK_BEGIN_MANUAL",
      "beginCondComb": "LOGIC_OR",
      "beginCond": [
        {
          "type": "QUEST_COND_STATE_EQUAL",
          "_param": [
            "7300122",
            "3"
          ]
        },
        {
          "type": "QUEST_COND_STATE_EQUAL",
          "_param": [
            "7300123",
            "3"
          ]
        }
      ],
      "priority": 4,
      "nextTalks": [
        6432704,
        6432705,
        6432706,
        6432707
      ],
      "initDialog": 643270301,
      "npcId": [
        4327
      ],
      "performCfg": "",
      "assetIndex": 17469622342255993450,
      "prePerformCfg": "",
      "freeStyleList": [
        1130
      ]
    },
    {
      "id": 6432704,
      "beginCondComb": "LOGIC_OR",
      "beginCond": [
        {
          "type": "QUEST_COND_STATE_EQUAL",
          "_param": [
            "7300122",
            "3"
          ]
        },
        {
          "type": "QUEST_COND_STATE_EQUAL",
          "_param": [
            "7300123",
            "3"
          ]
        }
      ],
      "priority": 1,
      "initDialog": 643270401,
      "npcId": [
        4327
      ],
      "performCfg": "",
      "assetIndex": 4396354220779258752,
      "prePerformCfg": "",
      "freeStyleList": [
        9000
      ]
    },
    {
      "id": 6432705,
      "beginCondComb": "LOGIC_OR",
      "beginCond": [
        {
          "type": "QUEST_COND_STATE_EQUAL",
          "_param": [
            "7300122",
            "3"
          ]
        },
        {
          "type": "QUEST_COND_STATE_EQUAL",
          "_param": [
            "7300123",
            "3"
          ]
        }
      ],
      "priority": 1,
      "initDialog": 643270501,
      "npcId": [
        4327
      ],
      "performCfg": "",
      "assetIndex": 8420113299541518285,
      "prePerformCfg": "",
      "freeStyleList": [
        9000
      ]
    },
    {
      "id": 6432706,
      "beginCondComb": "LOGIC_OR",
      "beginCond": [
        {
          "type": "QUEST_COND_STATE_EQUAL",
          "_param": [
            "7300122",
            "3"
          ]
        },
        {
          "type": "QUEST_COND_STATE_EQUAL",
          "_param": [
            "7300123",
            "3"
          ]
        }
      ],
      "priority": 1,
      "initDialog": 643270601,
      "npcId": [
        4327
      ],
      "performCfg": "",
      "assetIndex": 12401202169379657300,
      "prePerformCfg": "",
      "freeStyleList": [
        9000
      ]
    },
    {
      "id": 6432707,
      "beginCondComb": "LOGIC_OR",
      "beginCond": [
        {
          "type": "QUEST_COND_STATE_EQUAL",
          "_param": [
            "7300122",
            "3"
          ]
        },
        {
          "type": "QUEST_COND_STATE_EQUAL",
          "_param": [
            "7300123",
            "3"
          ]
        }
      ],
      "priority": 1,
      "initDialog": 643270701,
      "npcId": [
        4327
      ],
      "performCfg": "",
      "assetIndex": 9984931034445609549,
      "prePerformCfg": ""
    },
    {
      "id": 6432708,
      "beginWay": "TALK_BEGIN_MANUAL",
      "beginCond": [
        {
          "type": "QUEST_COND_STATE_EQUAL",
          "_param": [
            "7300309",
            "3"
          ]
        }
      ],
      "priority": 5,
      "nextTalks": [
        6432709,
        6432710,
        6432711
      ],
      "initDialog": 643270801,
      "npcId": [
        4327
      ],
      "performCfg": "",
      "assetIndex": 2218627377748319416,
      "prePerformCfg": "",
      "freeStyleList": [
        1190
      ]
    },
    {
      "id": 6432709,
      "beginCond": [
        {
          "type": "QUEST_COND_STATE_EQUAL",
          "_param": [
            "7300309",
            "3"
          ]
        }
      ],
      "priority": 1,
      "initDialog": 643270901,
      "npcId": [
        4327
      ],
      "performCfg": "",
      "assetIndex": 6139994798692169447,
      "prePerformCfg": ""
    },
    {
      "id": 6432710,
      "beginCond": [
        {
          "type": "QUEST_COND_STATE_EQUAL",
          "_param": [
            "7300309",
            "3"
          ]
        }
      ],
      "priority": 1,
      "initDialog": 643271001,
      "npcId": [
        4327
      ],
      "performCfg": "",
      "assetIndex": 3280072484012970379,
      "prePerformCfg": "",
      "freeStyleList": [
        9000
      ]
    },
    {
      "id": 6432711,
      "beginCond": [
        {
          "type": "QUEST_COND_STATE_EQUAL",
          "_param": [
            "7300309",
            "3"
          ]
        }
      ],
      "priority": 1,
      "initDialog": 643271101,
      "npcId": [
        4327
      ],
      "performCfg": "",
      "assetIndex": 18186552611793532958,
      "prePerformCfg": ""
    },
    {
      "id": 6432712,
      "beginWay": "TALK_BEGIN_MANUAL",
      "beginCond": [
        {
          "type": "QUEST_COND_STATE_EQUAL",
          "_param": [
            "7303803",
            "3"
          ]
        }
      ],
      "priority": 6,
      "nextTalks": [
        6432713
      ],
      "initDialog": 643271201,
      "npcId": [
        4327
      ],
      "performCfg": "",
      "assetIndex": 16757218492829747457,
      "prePerformCfg": "",
      "freeStyleList": [
        1190
      ]
    },
    {
      "id": 6432713,
      "beginCond": [
        {
          "type": "QUEST_COND_STATE_EQUAL",
          "_param": [
            "7303803",
            "3"
          ]
        }
      ],
      "priority": 1,
      "initDialog": 643271301,
      "npcId": [
        4327
      ],
      "performCfg": "",
      "assetIndex": 6094239923810334130,
      "prePerformCfg": ""
    }
  ]
}