{
  "npcId": 4330,
  "talks": [
    {
      "id": 6433001,
      "beginWay": "TALK_BEGIN_MANUAL",
      "priority": 3,
      "nextTalks": [
        6433002,
        6433003
      ],
      "initDialog": 643300101,
      "npcId": [
        4330
      ],
      "performCfg": "",
      "assetIndex": 3656084734466215161,
      "prePerformCfg": "",
      "freeStyleList": [
        9000
      ]
    },
    {
      "id": 6433002,
      "priority": 1,
      "initDialog": 643300201,
      "npcId": [
        4330
      ],
      "performCfg": "",
      "assetIndex": 1201012394187859690,
      "prePerformCfg": ""
    },
    {
      "id": 6433003,
      "priority": 1,
      "initDialog": 643300301,
      "npcId": [
        4330
      ],
      "performCfg": "",
      "assetIndex": 18156429100584829081,
      "prePerformCfg": ""
    }
  ]
}