{
  "npcId": 4338,
  "talks": [
    {
      "id": 6433801,
      "beginWay": "TALK_BEGIN_MANUAL",
      "priority": 3,
      "nextTalks": [
        6433802,
        6433803
      ],
      "initDialog": 643380101,
      "npcId": [
        4338
      ],
      "performCfg": "",
      "assetIndex": 13509691546488011767,
      "prePerformCfg": "",
      "freeStyleList": [
        9000
      ]
    },
    {
      "id": 6433802,
      "priority": 1,
      "nextTalks": [
        6433804
      ],
      "initDialog": 643380201,
      "npcId": [
        4338
      ],
      "performCfg": "",
      "assetIndex": 17822312873984773608,
      "prePerformCfg": ""
    },
    {
      "id": 6433803,
      "priority": 1,
      "initDialog": 643380301,
      "npcId": [
        4338
      ],
      "performCfg": "",
      "assetIndex": 2903674412582151426,
      "prePerformCfg": ""
    },
    {
      "id": 6433804,
      "priority": 1,
      "initDialog": 643380401,
      "npcId": [
        4338
      ],
      "performCfg": "",
      "assetIndex": 18427250800665125022,
      "prePerformCfg": ""
    }
  ]
}