{
  "npcId": 4344,
  "talks": [
    {
      "id": 6434401,
      "beginWay": "TALK_BEGIN_MANUAL",
      "priority": 3,
      "nextTalks": [
        6434402,
        6434403
      ],
      "initDialog": 643440101,
      "npcId": [
        4344
      ],
      "performCfg": "",
      "assetIndex": 8973991137346029321,
      "prePerformCfg": "",
      "freeStyleList": [
        9000
      ]
    },
    {
      "id": 6434402,
      "priority": 1,
      "nextTalks": [
        6434404
      ],
      "initDialog": 643440201,
      "npcId": [
        4344
      ],
      "performCfg": "",
      "assetIndex": 277723586607329711,
      "prePerformCfg": ""
    },
    {
      "id": 6434403,
      "priority": 1,
      "initDialog": 643440301,
      "npcId": [
        4344
      ],
      "performCfg": "",
      "assetIndex": 5343401406474648034,
      "prePerformCfg": ""
    },
    {
      "id": 6434404,
      "priority": 1,
      "initDialog": 643440401,
      "npcId": [
        4344
      ],
      "performCfg": "",
      "assetIndex": 120976818329603202,
      "prePerformCfg": ""
    }
  ]
}