{
  "npcId": 4347,
  "talks": [
    {
      "id": 6434701,
      "beginWay": "TALK_BEGIN_MANUAL",
      "priority": 3,
      "nextTalks": [
        6434702,
        6434706,
        6434703
      ],
      "initDialog": 643470101,
      "npcId": [
        4347
      ],
      "performCfg": "",
      "assetIndex": 17893327063875812260,
      "prePerformCfg": "",
      "freeStyleList": [
        9000
      ]
    },
    {
      "id": 6434702,
      "beginCond": [
        {
          "type": "QUEST_COND_QUEST_GLOBAL_VAR_EQUAL",
          "_param": [
            "302821",
            "0"
          ]
        }
      ],
      "priority": 1,
      "nextTalks": [
        6434704,
        6434705
      ],
      "initDialog": 643470201,
      "npcId": [
        4347
      ],
      "performCfg": "",
      "assetIndex": 775643051904117586,
      "prePerformCfg": ""
    },
    {
      "id": 6434703,
      "priority": 1,
      "initDialog": 643470301,
      "npcId": [
        4347
      ],
      "performCfg": "",
      "assetIndex": 16304432176454560519,
      "prePerformCfg": ""
    },
    {
      "id": 6434704,
      "priority": 1,
      "initDialog": 643470401,
      "npcId": [
        4347
      ],
      "performCfg": "",
      "assetIndex": 12984775048399584378,
      "prePerformCfg": ""
    },
    {
      "id": 6434705,
      "beginCond": [
        {
          "type": "QUEST_COND_QUEST_GLOBAL_VAR_EQUAL",
          "_param": [
            "302821",
            "0"
          ]
        }
      ],
      "priority": 1,
      "initDialog": 643470501,
      "npcId": [
        4347
      ],
      "performCfg": "",
      "assetIndex": 7896488860470396688,
      "prePerformCfg": ""
    },
    {
      "id": 6434706,
      "beginCond": [
        {
          "type": "QUEST_COND_QUEST_GLOBAL_VAR_EQUAL",
          "_param": [
            "302821",
            "1"
          ]
        }
      ],
      "priority": 1,
      "nextTalks": [
        6434704,
        6434707
      ],
      "initDialog": 643470601,
      "npcId": [
        4347
      ],
      "performCfg": "",
      "assetIndex": 18047769660543210802,
      "prePerformCfg": ""
    },
    {
      "id": 6434707,
      "beginCond": [
        {
          "type": "QUEST_COND_QUEST_GLOBAL_VAR_EQUAL",
          "_param": [
            "302821",
            "1"
          ]
        }
      ],
      "priority": 1,
      "initDialog": 643470701,
      "npcId": [
        4347
      ],
      "performCfg": "",
      "assetIndex": 7005962749540697010,
      "prePerformCfg": ""
    }
  ]
}