{
  "npcId": 4355,
  "talks": [
    {
      "id": 6435501,
      "beginWay": "TALK_BEGIN_MANUAL",
      "activeMode": "PLAY_MODE_HOST",
      "priority": 3,
      "nextTalks": [
        6435506,
        6435502,
        6435505,
        6435503
      ],
      "initDialog": 643550101,
      "npcId": [
        4355
      ],
      "performCfg": "",
      "assetIndex": 15339810929976842205,
      "prePerformCfg": "",
      "freeStyleList": [
        9000
      ]
    },
    {
      "id": 6435502,
      "beginCond": [
        {
          "type": "QUEST_COND_QUEST_GLOBAL_VAR_EQUAL",
          "_param": [
            "300011",
            "0"
          ]
        }
      ],
      "priority": 1,
      "nextTalks": [
        6435504
      ],
      "initDialog": 643550201,
      "npcId": [
        4355
      ],
      "performCfg": "",
      "assetIndex": 13892283192078868598,
      "prePerformCfg": ""
    },
    {
      "id": 6435503,
      "activeMode": "PLAY_MODE_HOST",
      "priority": 1,
      "initDialog": 643550301,
      "npcId": [
        4355
      ],
      "performCfg": "",
      "assetIndex": 9962107423255028046,
      "prePerformCfg": ""
    },
    {
      "id": 6435504,
      "priority": 1,
      "initDialog": 643550401,
      "npcId": [
        4355
      ],
      "performCfg": "",
      "assetIndex": 7569619380070424398,
      "prePerformCfg": ""
    },
    {
      "id": 6435505,
      "beginCond": [
        {
          "type": "QUEST_COND_QUEST_GLOBAL_VAR_EQUAL",
          "_param": [
            "300011",
            "1"
          ]
        }
      ],
      "priority": 1,
      "nextTalks": [
        6435504
      ],
      "initDialog": 643550501,
      "npcId": [
        4355
      ],
      "performCfg": "",
      "assetIndex": 8458481708810968295,
      "prePerformCfg": ""
    },
    {
      "id": 6435506,
      "beginWay": "TALK_BEGIN_MANUAL",
      "activeMode": "PLAY_MODE_HOST",
      "beginCond": [
        {
          "type": "QUEST_COND_GCG_LEVEL_UNLOCKED",
          "_param": [
            "6435506"
          ]
        }
      ],
      "priority": 1,
      "initDialog": 643550601,
      "npcId": [
        4355
      ],
      "performCfg": "",
      "assetIndex": 1333738875544863627,
      "prePerformCfg": ""
    },
    {
      "id": 6435507,
      "beginWay": "TALK_BEGIN_AUTO",
      "activeMode": "PLAY_MODE_HOST",
      "beginCond": [
        {
          "type": "QUEST_COND_GCG_WORLD_CHALLENGE_RESULT",
          "_param": [
            "-1",
            "4355",
            "6435506"
          ]
        }
      ],
      "priority": 10,
      "initDialog": 643550701,
      "npcId": [
        4355
      ],
      "performCfg": "",
      "assetIndex": 9231719580287422793,
      "prePerformCfg": ""
    },
    {
      "id": 6435508,
      "beginWay": "TALK_BEGIN_AUTO",
      "activeMode": "PLAY_MODE_HOST",
      "beginCond": [
        {
          "type": "QUEST_COND_GCG_WORLD_CHALLENGE_RESULT",
          "_param": [
            "1",
            "4355",
            "6435506"
          ]
        }
      ],
      "priority": 10,
      "initDialog": 643550801,
      "npcId": [
        4355
      ],
      "performCfg": "",
      "assetIndex": 8521393863841714445,
      "prePerformCfg": ""
    }
  ]
}