{
  "npcId": 4357,
  "talks": [
    {
      "id": 6435701,
      "beginWay": "TALK_BEGIN_MANUAL",
      "priority": 3,
      "nextTalks": [
        6435702,
        6435703
      ],
      "initDialog": 643570101,
      "npcId": [
        4357
      ],
      "performCfg": "",
      "assetIndex": 874991359845070799,
      "prePerformCfg": ""
    },
    {
      "id": 6435702,
      "priority": 1,
      "initDialog": 643570201,
      "npcId": [
        4357
      ],
      "performCfg": "",
      "assetIndex": 17502130384358028904,
      "prePerformCfg": "",
      "freeStyleList": [
        1230,
        1171,
        1172,
        1173
      ]
    },
    {
      "id": 6435703,
      "priority": 1,
      "initDialog": 643570301,
      "npcId": [
        4357
      ],
      "performCfg": "",
      "assetIndex": 16314431832111394905,
      "prePerformCfg": ""
    }
  ]
}