{
  "npcId": 4368,
  "talks": [
    {
      "id": 6436801,
      "beginWay": "TALK_BEGIN_MANUAL",
      "activeMode": "PLAY_MODE_HOST",
      "priority": 3,
      "nextTalks": [
        6436806,
        6436802,
        6436805,
        6436803
      ],
      "initDialog": 643680101,
      "npcId": [
        4368
      ],
      "performCfg": "",
      "assetIndex": 7808287828634070287,
      "prePerformCfg": "",
      "freeStyleList": [
        9000
      ]
    },
    {
      "id": 6436802,
      "priority": 1,
      "nextTalks": [
        6436804
      ],
      "initDialog": 643680201,
      "npcId": [
        4368
      ],
      "performCfg": "",
      "assetIndex": 9007147983305000498,
      "prePerformCfg": ""
    },
    {
      "id": 6436803,
      "activeMode": "PLAY_MODE_HOST",
      "priority": 1,
      "initDialog": 643680301,
      "npcId": [
        4368
      ],
      "performCfg": "",
      "assetIndex": 10039772822464706715,
      "prePerformCfg": ""
    },
    {
      "id": 6436804,
      "priority": 1,
      "initDialog": 643680401,
      "npcId": [
        4368
      ],
      "performCfg": "",
      "assetIndex": 9790215426433798393,
      "prePerformCfg": ""
    },
    {
      "id": 6436805,
      "priority": 1,
      "initDialog": 643680501,
      "npcId": [
        4368
      ],
      "performCfg": "",
      "assetIndex": 843130224251102976,
      "prePerformCfg": ""
    },
    {
      "id": 6436806,
      "beginWay": "TALK_BEGIN_MANUAL",
      "activeMode": "PLAY_MODE_HOST",
      "beginCond": [
        {
          "type": "QUEST_COND_GCG_LEVEL_UNLOCKED",
          "_param": [
            "6436806"
          ]
        }
      ],
      "priority": 1,
      "initDialog": 643680601,
      "npcId": [
        4368
      ],
      "performCfg": "",
      "assetIndex": 9413790396815710542,
      "prePerformCfg": ""
    },
    {
      "id": 6436807,
      "beginWay": "TALK_BEGIN_AUTO",
      "activeMode": "PLAY_MODE_HOST",
      "beginCond": [
        {
          "type": "QUEST_COND_GCG_WORLD_CHALLENGE_RESULT",
          "_param": [
            "-1",
            "4368",
            "6436806"
          ]
        }
      ],
      "priority": 10,
      "initDialog": 643680701,
      "npcId": [
        4368
      ],
      "performCfg": "",
      "assetIndex": 4970494477067638056,
      "prePerformCfg": ""
    },
    {
      "id": 6436808,
      "beginWay": "TALK_BEGIN_AUTO",
      "activeMode": "PLAY_MODE_HOST",
      "beginCond": [
        {
          "type": "QUEST_COND_GCG_WORLD_CHALLENGE_RESULT",
          "_param": [
            "1",
            "4368",
            "6436806"
          ]
        }
      ],
      "priority": 10,
      "initDialog": 643680801,
      "npcId": [
        4368
      ],
      "performCfg": "",
      "assetIndex": 16653693843328075682,
      "prePerformCfg": ""
    }
  ]
}