{
  "npcId": 4378,
  "talks": [
    {
      "id": 60437801,
      "beginWay": "TALK_BEGIN_MANUAL",
      "activeMode": "PLAY_MODE_ALL",
      "priority": 5,
      "initDialog": 400060101,
      "npcId": [
        4378
      ],
      "performCfg": "",
      "assetIndex": 3993407848107425510,
      "prePerformCfg": ""
    }
  ]
}