{
  "npcId": 4382,
  "talks": [
    {
      "id": 6438201,
      "beginWay": "TALK_BEGIN_MANUAL",
      "beginCond": [
        {
          "type": "QUEST_COND_IS_DAYTIME",
          "_param": [
            "1"
          ]
        }
      ],
      "priority": 3,
      "nextTalks": [
        6438202,
        6438203
      ],
      "initDialog": 643820101,
      "npcId": [
        4382
      ],
      "performCfg": "",
      "assetIndex": 8676453851859723953,
      "prePerformCfg": "",
      "freeStyleList": [
        9000
      ]
    },
    {
      "id": 6438202,
      "beginCond": [
        {
          "type": "QUEST_COND_IS_DAYTIME",
          "_param": [
            "1"
          ]
        }
      ],
      "priority": 1,
      "nextTalks": [
        6438204
      ],
      "initDialog": 643820201,
      "npcId": [
        4382
      ],
      "performCfg": "",
      "assetIndex": 1796422696873564475,
      "prePerformCfg": ""
    },
    {
      "id": 6438203,
      "beginCond": [
        {
          "type": "QUEST_COND_IS_DAYTIME",
          "_param": [
            "1"
          ]
        }
      ],
      "priority": 1,
      "initDialog": 643820301,
      "npcId": [
        4382
      ],
      "performCfg": "",
      "assetIndex": 7775728597236214356,
      "prePerformCfg": ""
    },
    {
      "id": 6438204,
      "beginCond": [
        {
          "type": "QUEST_COND_IS_DAYTIME",
          "_param": [
            "1"
          ]
        }
      ],
      "priority": 1,
      "initDialog": 643820401,
      "npcId": [
        4382
      ],
      "performCfg": "",
      "assetIndex": 783090795624011728,
      "prePerformCfg": ""
    },
    {
      "id": 6438205,
      "beginWay": "TALK_BEGIN_MANUAL",
      "beginCond": [
        {
          "type": "QUEST_COND_IS_DAYTIME",
          "_param": [
            "0"
          ]
        }
      ],
      "priority": 3,
      "nextTalks": [
        6438206,
        6438207
      ],
      "initDialog": 643820501,
      "npcId": [
        4382
      ],
      "performCfg": "",
      "assetIndex": 13681239899873462687,
      "prePerformCfg": "",
      "freeStyleList": [
        9000
      ]
    },
    {
      "id": 6438206,
      "beginCond": [
        {
          "type": "QUEST_COND_IS_DAYTIME",
          "_param": [
            "0"
          ]
        }
      ],
      "priority": 1,
      "initDialog": 643820601,
      "npcId": [
        4382
      ],
      "performCfg": "",
      "assetIndex": 14764067936585120495,
      "prePerformCfg": ""
    },
    {
      "id": 6438207,
      "beginCond": [
        {
          "type": "QUEST_COND_IS_DAYTIME",
          "_param": [
            "0"
          ]
        }
      ],
      "priority": 1,
      "initDialog": 643820701,
      "npcId": [
        4382
      ],
      "performCfg": "",
      "assetIndex": 3845542033336212173,
      "prePerformCfg": ""
    }
  ]
}