{
  "npcId": 4392,
  "talks": [
    {
      "id": 7319312,
      "beginWay": "TALK_BEGIN_MANUAL",
      "activeMode": "PLAY_MODE_HOST",
      "priority": 5,
      "initDialog": 731931201,
      "npcId": [
        4392
      ],
      "performCfg": "",
      "assetIndex": 16148454174545478002,
      "prePerformCfg": ""
    }
  ]
}