{
  "npcId": 4394,
  "talks": [
    {
      "id": 7319314,
      "beginWay": "TALK_BEGIN_MANUAL",
      "activeMode": "PLAY_MODE_HOST",
      "priority": 5,
      "initDialog": 731931201,
      "npcId": [
        4394
      ],
      "performCfg": "",
      "assetIndex": 10531896536048479204,
      "prePerformCfg": ""
    }
  ]
}