{
  "npcId": 4405,
  "talks": [
    {
      "id": 6440405,
      "beginWay": "TALK_BEGIN_MANUAL",
      "beginCondComb": "LOGIC_AND",
      "beginCond": [
        {
          "type": "QUEST_COND_IS_DAYTIME",
          "_param": [
            "0"
          ]
        },
        {
          "type": "QUEST_COND_QUEST_GLOBAL_VAR_EQUAL",
          "_param": [
            "302821",
            "0"
          ]
        }
      ],
      "priority": 3,
      "initDialog": 644040501,
      "npcId": [
        4404,
        4405
      ],
      "performCfg": "",
      "assetIndex": 8464464438592726521,
      "prePerformCfg": ""
    },
    {
      "id": 6440408,
      "beginWay": "TALK_BEGIN_MANUAL",
      "beginCondComb": "LOGIC_AND",
      "beginCond": [
        {
          "type": "QUEST_COND_IS_DAYTIME",
          "_param": [
            "0"
          ]
        },
        {
          "type": "QUEST_COND_QUEST_GLOBAL_VAR_EQUAL",
          "_param": [
            "302821",
            "1"
          ]
        }
      ],
      "priority": 3,
      "initDialog": 644040801,
      "npcId": [
        4404,
        4405
      ],
      "performCfg": "",
      "assetIndex": 5112111709381952576,
      "prePerformCfg": ""
    }
  ]
}