{
  "npcId": 4413,
  "talks": [
    {
      "id": 5900108,
      "beginCond": [
        {
          "type": "QUEST_COND_OPEN_STATE_EQUAL",
          "_param": [
            "3002",
            "1"
          ]
        }
      ],
      "priority": 2,
      "nextTalks": [
        5900109,
        5900110,
        5900111,
        5900112,
        5900113,
        5900114,
        5900115,
        5900116,
        5900117,
        5900118,
        5900119,
        5900120,
        5900121
      ],
      "initDialog": 590010801,
      "npcId": [
        4413
      ],
      "performCfg": "",
      "assetIndex": 10279590189678605618,
      "prePerformCfg": ""
    },
    {
      "id": 5900109,
      "beginCond": [
        {
          "type": "QUEST_COND_NOT_HAVE_BLOSSOM_TALK"
        }
      ],
      "priority": 1,
      "initDialog": 590010901,
      "npcId": [
        4413
      ],
      "performCfg": "",
      "assetIndex": 17213266364425227266,
      "prePerformCfg": ""
    },
    {
      "id": 6441301,
      "beginWay": "TALK_BEGIN_MANUAL",
      "priority": 3,
      "nextTalks": [
        5900108,
        6441302,
        6441303
      ],
      "initDialog": 644130101,
      "npcId": [
        4413
      ],
      "performCfg": "",
      "assetIndex": 17774462278458829833,
      "prePerformCfg": "",
      "freeStyleList": [
        9000
      ]
    },
    {
      "id": 6441302,
      "priority": 1,
      "nextTalks": [
        6441304
      ],
      "initDialog": 644130201,
      "npcId": [
        4413
      ],
      "performCfg": "",
      "assetIndex": 1365397431149706192,
      "prePerformCfg": ""
    },
    {
      "id": 6441303,
      "priority": 1,
      "initDialog": 644130301,
      "npcId": [
        4413
      ],
      "performCfg": "",
      "assetIndex": 17563388178506530002,
      "prePerformCfg": ""
    },
    {
      "id": 6441304,
      "priority": 1,
      "nextTalks": [
        7397401
      ],
      "initDialog": 644130401,
      "npcId": [
        4413
      ],
      "performCfg": "",
      "assetIndex": 4379938433588898455,
      "prePerformCfg": ""
    },
    {
      "id": 7397401,
      "beginCondComb": "LOGIC_AND",
      "beginCond": [
        {
          "type": "QUEST_COND_QUEST_NOT_RECEIVE",
          "_param": [
            "7397401",
            "1"
          ]
        }
      ],
      "priority": 1,
      "initDialog": 739740101,
      "npcId": [
        4413
      ],
      "performCfg": "",
      "assetIndex": 15517372009264636623,
      "dontBlockDaily": true,
      "prePerformCfg": ""
    }
  ]
}