{
  "npcId": 4416,
  "talks": [
    {
      "id": 6441601,
      "beginWay": "TALK_BEGIN_MANUAL",
      "priority": 3,
      "nextTalks": [
        6441602,
        6441603
      ],
      "initDialog": 644160101,
      "npcId": [
        4416
      ],
      "performCfg": "",
      "assetIndex": 7156394902366202901,
      "prePerformCfg": "",
      "freeStyleList": [
        9000
      ]
    },
    {
      "id": 6441602,
      "priority": 1,
      "nextTalks": [
        6441604
      ],
      "initDialog": 644160201,
      "npcId": [
        4416
      ],
      "performCfg": "",
      "assetIndex": 9897919333714983389,
      "prePerformCfg": ""
    },
    {
      "id": 6441603,
      "priority": 1,
      "initDialog": 644160301,
      "npcId": [
        4416
      ],
      "performCfg": "",
      "assetIndex": 6706002702553067198,
      "prePerformCfg": ""
    },
    {
      "id": 6441604,
      "priority": 1,
      "nextTalks": [
        7397501
      ],
      "initDialog": 644160401,
      "npcId": [
        4416
      ],
      "performCfg": "",
      "assetIndex": 17795058093225624661,
      "prePerformCfg": ""
    },
    {
      "id": 7397501,
      "beginCondComb": "LOGIC_AND",
      "beginCond": [
        {
          "type": "QUEST_COND_QUEST_NOT_RECEIVE",
          "_param": [
            "7397501",
            "1"
          ]
        }
      ],
      "priority": 1,
      "initDialog": 739750101,
      "npcId": [
        4416
      ],
      "performCfg": "",
      "assetIndex": 16716989151289912483,
      "dontBlockDaily": true,
      "prePerformCfg": ""
    }
  ]
}