{
  "npcId": 4440,
  "talks": [
    {
      "id": 7322066,
      "beginWay": "TALK_BEGIN_MANUAL",
      "activeMode": "PLAY_MODE_HOST",
      "beginCondComb": "LOGIC_AND",
      "beginCond": [
        {
          "type": "QUEST_COND_STATE_EQUAL",
          "_param": [
            "7322008",
            "3"
          ]
        }
      ],
      "priority": 1,
      "initDialog": 732206601,
      "npcId": [
        4440
      ],
      "performCfg": "",
      "assetIndex": 86804251068176428,
      "prePerformCfg": ""
    }
  ]
}