{
  "npcId": 4465,
  "talks": [
    {
      "id": 6446501,
      "beginWay": "TALK_BEGIN_MANUAL",
      "priority": 3,
      "nextTalks": [
        6446502,
        6446503,
        6446504
      ],
      "initDialog": 644650101,
      "npcId": [
        4465
      ],
      "performCfg": "",
      "assetIndex": 8529550466868000371,
      "prePerformCfg": "",
      "freeStyleList": [
        1230
      ]
    },
    {
      "id": 6446502,
      "priority": 1,
      "initDialog": 644650201,
      "npcId": [
        4465
      ],
      "performCfg": "",
      "assetIndex": 13748893419135325110,
      "prePerformCfg": "",
      "freeStyleList": [
        1130,
        1171,
        1172,
        1173
      ]
    },
    {
      "id": 6446503,
      "priority": 1,
      "nextTalks": [
        6446505,
        6446506
      ],
      "initDialog": 644650301,
      "npcId": [
        4465
      ],
      "performCfg": "",
      "assetIndex": 13477551572147717903,
      "prePerformCfg": "",
      "freeStyleList": [
        1171,
        1172,
        1173
      ]
    },
    {
      "id": 6446504,
      "priority": 1,
      "initDialog": 644650401,
      "npcId": [
        4465
      ],
      "performCfg": "",
      "assetIndex": 1788658763239402674,
      "prePerformCfg": "",
      "freeStyleList": [
        4030
      ]
    },
    {
      "id": 6446505,
      "priority": 1,
      "nextTalks": [
        6446507
      ],
      "initDialog": 644650501,
      "npcId": [
        4465
      ],
      "performCfg": "",
      "assetIndex": 13786040137272363000,
      "prePerformCfg": "",
      "freeStyleList": [
        4040,
        1120,
        1171,
        1172,
        1173
      ]
    },
    {
      "id": 6446506,
      "priority": 1,
      "nextTalks": [
        6446508
      ],
      "initDialog": 644650601,
      "npcId": [
        4465
      ],
      "performCfg": "",
      "assetIndex": 14364698003047476642,
      "prePerformCfg": "",
      "freeStyleList": [
        1171,
        1172,
        1173,
        1230
      ]
    },
    {
      "id": 6446507,
      "priority": 1,
      "initDialog": 644650701,
      "npcId": [
        4465
      ],
      "performCfg": "",
      "assetIndex": 6120934550153169475,
      "prePerformCfg": "",
      "freeStyleList": [
        1171,
        1172,
        1173
      ]
    },
    {
      "id": 6446508,
      "priority": 1,
      "initDialog": 644650801,
      "npcId": [
        4465
      ],
      "performCfg": "",
      "assetIndex": 9074013779571338576,
      "prePerformCfg": "",
      "freeStyleList": [
        1171,
        1172,
        1173,
        4030,
        1150
      ]
    }
  ]
}