{
  "npcId": 4470,
  "talks": [
    {
      "id": 6447001,
      "beginWay": "TALK_BEGIN_MANUAL",
      "priority": 3,
      "nextTalks": [
        6447006,
        6447002,
        6447003
      ],
      "initDialog": 644700101,
      "npcId": [
        4470
      ],
      "performCfg": "",
      "assetIndex": 15441031873015846059,
      "prePerformCfg": "",
      "stayFreeStyle": true
    },
    {
      "id": 6447002,
      "priority": 1,
      "nextTalks": [
        6447004,
        6447005
      ],
      "initDialog": 644700201,
      "npcId": [
        4470
      ],
      "performCfg": "",
      "assetIndex": 17680975903219959286,
      "prePerformCfg": "",
      "freeStyleList": [
        1130
      ]
    },
    {
      "id": 6447003,
      "priority": 1,
      "initDialog": 644700301,
      "npcId": [
        4470
      ],
      "performCfg": "",
      "assetIndex": 9630300439165639998,
      "prePerformCfg": "",
      "freeStyleList": [
        4030
      ]
    },
    {
      "id": 6447004,
      "priority": 1,
      "initDialog": 644700401,
      "npcId": [
        4470
      ],
      "performCfg": "",
      "assetIndex": 13006549514547182405,
      "prePerformCfg": "",
      "freeStyleList": [
        1230,
        1030,
        1060
      ]
    },
    {
      "id": 6447005,
      "priority": 1,
      "initDialog": 644700501,
      "npcId": [
        4470
      ],
      "performCfg": "",
      "assetIndex": 7146555368903509541,
      "prePerformCfg": "",
      "freeStyleList": [
        4030,
        1171,
        1172,
        1173,
        1060
      ]
    },
    {
      "id": 6447006,
      "priority": 1,
      "initDialog": 644700601,
      "npcId": [
        4470
      ],
      "performCfg": "",
      "assetIndex": 9255796147723998393,
      "prePerformCfg": "",
      "freeStyleList": [
        1171,
        1172,
        1173,
        1130
      ]
    }
  ]
}