{
  "npcId": 5015,
  "talks": [
    {
      "id": 6501501,
      "beginWay": "TALK_BEGIN_MANUAL",
      "priority": 3,
      "initDialog": 650150101,
      "npcId": [
        5015,
        5016
      ],
      "performCfg": "",
      "assetIndex": 15898131700158934243,
      "prePerformCfg": "",
      "stayFreeStyle": true
    }
  ]
}