{
  "npcId": 5021,
  "talks": [
    {
      "id": 6502101,
      "beginWay": "TALK_BEGIN_MANUAL",
      "priority": 3,
      "nextTalks": [
        6502102,
        6502103,
        6502104
      ],
      "initDialog": 650210101,
      "npcId": [
        5021
      ],
      "performCfg": "",
      "assetIndex": 6273925140688435693,
      "prePerformCfg": "",
      "freeStyleList": [
        1171,
        1172,
        1173
      ]
    },
    {
      "id": 6502102,
      "priority": 1,
      "initDialog": 650210201,
      "npcId": [
        5021
      ],
      "performCfg": "",
      "assetIndex": 4234883801898468000,
      "prePerformCfg": "",
      "freeStyleList": [
        4030,
        1130,
        4040
      ]
    },
    {
      "id": 6502103,
      "priority": 1,
      "initDialog": 650210301,
      "npcId": [
        5021
      ],
      "performCfg": "",
      "assetIndex": 15499395299257149626,
      "prePerformCfg": "",
      "freeStyleList": [
        1060,
        1171,
        1172,
        1173,
        4040,
        1130
      ]
    },
    {
      "id": 6502104,
      "priority": 1,
      "initDialog": 650210401,
      "npcId": [
        5021
      ],
      "performCfg": "",
      "assetIndex": 651799568556332012,
      "prePerformCfg": "",
      "stayFreeStyle": true,
      "freeStyleList": [
        1190
      ]
    }
  ]
}