{
  "npcId": 5023,
  "talks": [
    {
      "id": 6502301,
      "beginWay": "TALK_BEGIN_MANUAL",
      "priority": 3,
      "initDialog": 650230101,
      "npcId": [
        5023,
        5022
      ],
      "performCfg": "",
      "assetIndex": 2617619559053922577,
      "prePerformCfg": "",
      "stayFreeStyle": true
    }
  ]
}