{
  "npcId": 5024,
  "talks": [
    {
      "id": 6502401,
      "beginWay": "TALK_BEGIN_MANUAL",
      "priority": 3,
      "nextTalks": [
        6502402,
        6502403,
        6502404,
        6502405
      ],
      "initDialog": 650240101,
      "npcId": [
        5024
      ],
      "performCfg": "",
      "assetIndex": 2827627576576827850,
      "prePerformCfg": "",
      "stayFreeStyle": true
    },
    {
      "id": 6502402,
      "priority": 1,
      "initDialog": 650240201,
      "npcId": [
        5024
      ],
      "performCfg": "",
      "assetIndex": 17181498124056214062,
      "prePerformCfg": "",
      "freeStyleList": [
        1171,
        1172,
        1173
      ]
    },
    {
      "id": 6502403,
      "priority": 1,
      "initDialog": 650240301,
      "npcId": [
        5024
      ],
      "performCfg": "",
      "assetIndex": 13302463827610473661,
      "prePerformCfg": "",
      "freeStyleList": [
        1171,
        1172,
        1173,
        1130
      ]
    },
    {
      "id": 6502404,
      "priority": 1,
      "initDialog": 650240401,
      "npcId": [
        5024
      ],
      "performCfg": "",
      "assetIndex": 8421834322593677380,
      "prePerformCfg": "",
      "freeStyleList": [
        1171,
        1172,
        1173,
        4040
      ]
    },
    {
      "id": 6502405,
      "priority": 1,
      "initDialog": 650240501,
      "npcId": [
        5024
      ],
      "performCfg": "",
      "assetIndex": 15124304496173422460,
      "prePerformCfg": "",
      "freeStyleList": [
        1171,
        1172,
        1173
      ]
    }
  ]
}