{
  "npcId": 5029,
  "talks": [
    {
      "id": 6502901,
      "beginWay": "TALK_BEGIN_MANUAL",
      "priority": 3,
      "nextTalks": [
        6502902,
        6502904
      ],
      "initDialog": 650290101,
      "npcId": [
        5029
      ],
      "performCfg": "",
      "assetIndex": 16962596677696348204,
      "prePerformCfg": "",
      "freeStyleList": [
        9000
      ]
    },
    {
      "id": 6502902,
      "priority": 1,
      "nextTalks": [
        6502903
      ],
      "initDialog": 650290201,
      "npcId": [
        5029
      ],
      "performCfg": "",
      "assetIndex": 15588395873109502343,
      "prePerformCfg": ""
    },
    {
      "id": 6502903,
      "priority": 1,
      "initDialog": 650290301,
      "npcId": [
        5029
      ],
      "performCfg": "",
      "assetIndex": 8456853292373608370,
      "prePerformCfg": ""
    },
    {
      "id": 6502904,
      "priority": 1,
      "initDialog": 650290401,
      "npcId": [
        5029
      ],
      "performCfg": "",
      "assetIndex": 8812448570180548378,
      "prePerformCfg": ""
    },
    {
      "id": 6502905,
      "priority": 1,
      "initDialog": 650290501,
      "npcId": [
        5029
      ],
      "performCfg": "",
      "assetIndex": 9211125372357493310,
      "prePerformCfg": ""
    }
  ]
}