{
  "npcId": 5030,
  "talks": [
    {
      "id": 6503001,
      "beginWay": "TALK_BEGIN_MANUAL",
      "priority": 3,
      "nextTalks": [
        6503002,
        6503006,
        6503003,
        6503004
      ],
      "initDialog": 650300101,
      "npcId": [
        5030
      ],
      "performCfg": "",
      "assetIndex": 12461857550684073096,
      "prePerformCfg": "",
      "freeStyleList": [
        9000
      ]
    },
    {
      "id": 6503002,
      "beginCond": [
        {
          "type": "QUEST_COND_OPEN_STATE_EQUAL",
          "_param": [
            "4006",
            "0"
          ]
        }
      ],
      "priority": 1,
      "initDialog": 650300201,
      "npcId": [
        5030
      ],
      "performCfg": "",
      "assetIndex": 16910960588258414638,
      "prePerformCfg": ""
    },
    {
      "id": 6503003,
      "priority": 1,
      "nextTalks": [
        7492501,
        6503005
      ],
      "initDialog": 650300301,
      "npcId": [
        5030
      ],
      "performCfg": "",
      "assetIndex": 8846503025862581949,
      "prePerformCfg": ""
    },
    {
      "id": 6503004,
      "priority": 1,
      "initDialog": 650300401,
      "npcId": [
        5030
      ],
      "performCfg": "",
      "assetIndex": 13218631810691351118,
      "prePerformCfg": ""
    },
    {
      "id": 6503005,
      "priority": 1,
      "initDialog": 650300501,
      "npcId": [
        5030
      ],
      "performCfg": "",
      "assetIndex": 10865257221490691362,
      "prePerformCfg": ""
    },
    {
      "id": 6503006,
      "beginCond": [
        {
          "type": "QUEST_COND_OPEN_STATE_EQUAL",
          "_param": [
            "4006",
            "1"
          ]
        }
      ],
      "priority": 1,
      "initDialog": 650300601,
      "npcId": [
        5030
      ],
      "performCfg": "",
      "assetIndex": 8195688094189360897,
      "prePerformCfg": ""
    },
    {
      "id": 7492501,
      "beginWay": "TALK_BEGIN_MANUAL",
      "beginCond": [
        {
          "type": "QUEST_COND_QUEST_NOT_RECEIVE",
          "_param": [
            "7492501",
            "1"
          ]
        }
      ],
      "initDialog": 749250101,
      "npcId": [
        5030
      ],
      "performCfg": "",
      "assetIndex": 3324735859802468023,
      "dontBlockDaily": true,
      "prePerformCfg": ""
    }
  ]
}