{
  "npcId": 5032,
  "talks": [
    {
      "id": 6503201,
      "beginWay": "TALK_BEGIN_MANUAL",
      "priority": 3,
      "nextTalks": [
        6503202,
        6503203,
        6503204
      ],
      "initDialog": 650320101,
      "npcId": [
        5032
      ],
      "performCfg": "",
      "assetIndex": 6939082367368406071,
      "prePerformCfg": ""
    },
    {
      "id": 6503202,
      "priority": 1,
      "initDialog": 650320201,
      "npcId": [
        5032
      ],
      "performCfg": "",
      "assetIndex": 9092234375070872039,
      "prePerformCfg": "",
      "freeStyleList": [
        4040
      ]
    },
    {
      "id": 6503203,
      "priority": 1,
      "nextTalks": [
        6503205
      ],
      "initDialog": 650320301,
      "npcId": [
        5032
      ],
      "performCfg": "",
      "assetIndex": 2960502863179879260,
      "prePerformCfg": "",
      "freeStyleList": [
        4030
      ]
    },
    {
      "id": 6503204,
      "priority": 1,
      "initDialog": 650320401,
      "npcId": [
        5032
      ],
      "performCfg": "",
      "assetIndex": 1446302706287188414,
      "prePerformCfg": ""
    },
    {
      "id": 6503205,
      "priority": 1,
      "initDialog": 650320501,
      "npcId": [
        5032
      ],
      "performCfg": "",
      "assetIndex": 9522311701403963731,
      "prePerformCfg": "",
      "freeStyleList": [
        4040
      ]
    }
  ]
}