{
  "npcId": 5035,
  "talks": [
    {
      "id": 6503601,
      "beginWay": "TALK_BEGIN_MANUAL",
      "priority": 3,
      "initDialog": 650360101,
      "npcId": [
        5036,
        5035
      ],
      "performCfg": "",
      "assetIndex": 8184200123774250404,
      "prePerformCfg": "",
      "stayFreeStyle": true
    }
  ]
}