{
  "npcId": 5042,
  "talks": [
    {
      "id": 6504201,
      "beginWay": "TALK_BEGIN_MANUAL",
      "activeMode": "PLAY_MODE_ALL",
      "beginCond": [
        {
          "type": "QUEST_COND_CITY_REPUTATION_LEVEL",
          "_param": [
            "5",
            "3",
            "2"
          ]
        }
      ],
      "priority": 3,
      "nextTalks": [
        6504202,
        7414901,
        6504207,
        6504210,
        6504208
      ],
      "initDialog": 650420101,
      "npcId": [
        5042
      ],
      "performCfg": "",
      "assetIndex": 6054659002723089758,
      "prePerformCfg": "",
      "freeStyleList": [
        9000
      ]
    },
    {
      "id": 6504202,
      "activeMode": "PLAY_MODE_ALL",
      "beginCondComb": "LOGIC_AND",
      "beginCond": [
        {
          "type": "QUEST_COND_CITY_REPUTATION_LEVEL",
          "_param": [
            "5",
            "3",
            "2"
          ]
        },
        {
          "type": "QUEST_COND_STATE_EQUAL",
          "_param": [
            "7465002",
            "3"
          ]
        }
      ],
      "priority": 1,
      "initDialog": 650420201,
      "npcId": [
        5042
      ],
      "performCfg": "",
      "assetIndex": 3149797013977705873,
      "prePerformCfg": ""
    },
    {
      "id": 6504203,
      "beginWay": "TALK_BEGIN_MANUAL",
      "activeMode": "PLAY_MODE_ALL",
      "beginCondComb": "LOGIC_AND",
      "beginCond": [
        {
          "type": "QUEST_COND_CITY_REPUTATION_LEVEL",
          "_param": [
            "5",
            "7",
            "2"
          ]
        },
        {
          "type": "QUEST_COND_CITY_REPUTATION_LEVEL",
          "_param": [
            "5",
            "2",
            "1"
          ]
        }
      ],
      "priority": 3,
      "nextTalks": [
        6504204,
        7414901,
        6504207,
        6504210,
        6504208
      ],
      "initDialog": 650420301,
      "npcId": [
        5042
      ],
      "performCfg": "",
      "assetIndex": 7995338562084407530,
      "prePerformCfg": "",
      "freeStyleList": [
        9000
      ]
    },
    {
      "id": 6504204,
      "activeMode": "PLAY_MODE_ALL",
      "beginCondComb": "LOGIC_AND",
      "beginCond": [
        {
          "type": "QUEST_COND_CITY_REPUTATION_LEVEL",
          "_param": [
            "5",
            "7",
            "2"
          ]
        },
        {
          "type": "QUEST_COND_CITY_REPUTATION_LEVEL",
          "_param": [
            "5",
            "2",
            "1"
          ]
        }
      ],
      "priority": 1,
      "initDialog": 650420401,
      "npcId": [
        5042
      ],
      "performCfg": "",
      "assetIndex": 565561836681216808,
      "prePerformCfg": ""
    },
    {
      "id": 6504205,
      "beginWay": "TALK_BEGIN_MANUAL",
      "activeMode": "PLAY_MODE_ALL",
      "beginCondComb": "LOGIC_AND",
      "beginCond": [
        {
          "type": "QUEST_COND_CITY_REPUTATION_LEVEL",
          "_param": [
            "5",
            "11",
            "2"
          ]
        },
        {
          "type": "QUEST_COND_CITY_REPUTATION_LEVEL",
          "_param": [
            "5",
            "6",
            "1"
          ]
        }
      ],
      "priority": 3,
      "nextTalks": [
        6504206,
        7414901,
        6504207,
        6504210,
        6504208
      ],
      "initDialog": 650420501,
      "npcId": [
        5042
      ],
      "performCfg": "",
      "assetIndex": 14835522850845481275,
      "prePerformCfg": "",
      "freeStyleList": [
        9000
      ]
    },
    {
      "id": 6504206,
      "activeMode": "PLAY_MODE_ALL",
      "beginCondComb": "LOGIC_AND",
      "beginCond": [
        {
          "type": "QUEST_COND_CITY_REPUTATION_LEVEL",
          "_param": [
            "5",
            "11",
            "2"
          ]
        },
        {
          "type": "QUEST_COND_CITY_REPUTATION_LEVEL",
          "_param": [
            "5",
            "6",
            "1"
          ]
        }
      ],
      "priority": 1,
      "initDialog": 650420601,
      "npcId": [
        5042
      ],
      "performCfg": "",
      "assetIndex": 9641506260350840277,
      "prePerformCfg": ""
    },
    {
      "id": 6504207,
      "activeMode": "PLAY_MODE_ALL",
      "priority": 1,
      "initDialog": 650420701,
      "npcId": [
        5042
      ],
      "performCfg": "",
      "assetIndex": 17335842684590616620,
      "prePerformCfg": ""
    },
    {
      "id": 6504208,
      "activeMode": "PLAY_MODE_ALL",
      "priority": 1,
      "initDialog": 650420801,
      "npcId": [
        5042
      ],
      "performCfg": "",
      "assetIndex": 18276497057306502353,
      "prePerformCfg": ""
    },
    {
      "id": 6504210,
      "activeMode": "PLAY_MODE_ALL",
      "priority": 1,
      "nextTalks": [
        6504211
      ],
      "initDialog": 650421001,
      "npcId": [
        5042
      ],
      "performCfg": "",
      "assetIndex": 4654587591516405056,
      "prePerformCfg": ""
    },
    {
      "id": 6504211,
      "activeMode": "PLAY_MODE_ALL",
      "priority": 1,
      "initDialog": 650421101,
      "npcId": [
        5042
      ],
      "performCfg": "",
      "assetIndex": 17737467840495476831,
      "prePerformCfg": ""
    }
  ]
}