{
  "npcId": 5050,
  "talks": [
    {
      "id": 6505001,
      "beginWay": "TALK_BEGIN_MANUAL",
      "priority": 3,
      "nextTalks": [
        6505002,
        6505003
      ],
      "initDialog": 650500101,
      "npcId": [
        5050
      ],
      "performCfg": "",
      "assetIndex": 8851992498728132680,
      "prePerformCfg": "",
      "freeStyleList": [
        9000
      ]
    },
    {
      "id": 6505002,
      "priority": 1,
      "initDialog": 650500201,
      "npcId": [
        5050
      ],
      "performCfg": "",
      "assetIndex": 3391491891374104953,
      "prePerformCfg": ""
    },
    {
      "id": 6505003,
      "priority": 1,
      "initDialog": 650500301,
      "npcId": [
        5050
      ],
      "performCfg": "",
      "assetIndex": 12925207463773992039,
      "prePerformCfg": ""
    }
  ]
}