{
  "npcId": 5052,
  "talks": [
    {
      "id": 6505201,
      "beginWay": "TALK_BEGIN_MANUAL",
      "priority": 3,
      "nextTalks": [
        6505202,
        6505203,
        6505204
      ],
      "initDialog": 650520101,
      "npcId": [
        5052
      ],
      "performCfg": "",
      "assetIndex": 6805818171809293880,
      "prePerformCfg": "",
      "stayFreeStyle": true
    },
    {
      "id": 6505202,
      "priority": 1,
      "initDialog": 650520201,
      "npcId": [
        5052
      ],
      "performCfg": "",
      "assetIndex": 17392785807724672271,
      "prePerformCfg": "",
      "freeStyleList": [
        1171,
        1172,
        1173,
        4040
      ]
    },
    {
      "id": 6505203,
      "priority": 1,
      "nextTalks": [
        6505205,
        6505206
      ],
      "initDialog": 650520301,
      "npcId": [
        5052
      ],
      "performCfg": "",
      "assetIndex": 1148124055405697624,
      "prePerformCfg": "",
      "freeStyleList": [
        4030,
        1171,
        1172,
        1173,
        4040
      ]
    },
    {
      "id": 6505204,
      "priority": 1,
      "initDialog": 650520401,
      "npcId": [
        5052
      ],
      "performCfg": "",
      "assetIndex": 4890813950473693629,
      "prePerformCfg": "",
      "stayFreeStyle": true
    },
    {
      "id": 6505205,
      "priority": 1,
      "initDialog": 650520501,
      "npcId": [
        5052
      ],
      "performCfg": "",
      "assetIndex": 11105135601460686697,
      "prePerformCfg": "",
      "freeStyleList": [
        1171,
        1172,
        1173,
        1130
      ]
    },
    {
      "id": 6505206,
      "priority": 1,
      "initDialog": 650520601,
      "npcId": [
        5052
      ],
      "performCfg": "",
      "assetIndex": 15426474921438580082,
      "prePerformCfg": "",
      "freeStyleList": [
        1230,
        4040
      ]
    }
  ]
}