{
  "npcId": 5064,
  "talks": [
    {
      "id": 6506401,
      "beginWay": "TALK_BEGIN_MANUAL",
      "priority": 3,
      "nextTalks": [
        6506403,
        6506404
      ],
      "initDialog": 650640101,
      "npcId": [
        5064
      ],
      "performCfg": "",
      "assetIndex": 5466430072050055084,
      "prePerformCfg": "",
      "freeStyleList": [
        9000
      ]
    },
    {
      "id": 6506403,
      "priority": 1,
      "initDialog": 650640301,
      "npcId": [
        5064
      ],
      "performCfg": "",
      "assetIndex": 10663014319620377500,
      "prePerformCfg": ""
    },
    {
      "id": 6506404,
      "priority": 1,
      "initDialog": 650640401,
      "npcId": [
        5064
      ],
      "performCfg": "",
      "assetIndex": 6422725024621021777,
      "prePerformCfg": ""
    }
  ]
}