{
  "npcId": 5069,
  "talks": [
    {
      "id": 6506901,
      "beginWay": "TALK_BEGIN_MANUAL",
      "priority": 3,
      "nextTalks": [
        6506902,
        6506903,
        6506904
      ],
      "initDialog": 650690101,
      "npcId": [
        5069
      ],
      "performCfg": "",
      "assetIndex": 4590048464222023874,
      "prePerformCfg": ""
    },
    {
      "id": 6506902,
      "priority": 1,
      "initDialog": 650690201,
      "npcId": [
        5069
      ],
      "performCfg": "",
      "assetIndex": 3447542996514121910,
      "prePerformCfg": ""
    },
    {
      "id": 6506903,
      "priority": 1,
      "initDialog": 650690301,
      "npcId": [
        5069
      ],
      "performCfg": "",
      "assetIndex": 4578197851100212855,
      "prePerformCfg": "",
      "freeStyleList": [
        4040
      ]
    },
    {
      "id": 6506904,
      "priority": 1,
      "initDialog": 650690401,
      "npcId": [
        5069
      ],
      "performCfg": "",
      "assetIndex": 7217433057123203194,
      "prePerformCfg": "",
      "freeStyleList": [
        4030
      ]
    }
  ]
}