{
  "npcId": 5072,
  "talks": [
    {
      "id": 6507201,
      "beginWay": "TALK_BEGIN_MANUAL",
      "priority": 3,
      "nextTalks": [
        6507202,
        6507203
      ],
      "initDialog": 650720101,
      "npcId": [
        5072
      ],
      "performCfg": "",
      "assetIndex": 8231233532576146939,
      "prePerformCfg": "",
      "freeStyleList": [
        9000
      ]
    },
    {
      "id": 6507202,
      "priority": 1,
      "nextTalks": [
        6507204
      ],
      "initDialog": 650720201,
      "npcId": [
        5072
      ],
      "performCfg": "",
      "assetIndex": 14247331001200995771,
      "prePerformCfg": ""
    },
    {
      "id": 6507203,
      "priority": 1,
      "initDialog": 650720301,
      "npcId": [
        5072
      ],
      "performCfg": "",
      "assetIndex": 10298459324886367230,
      "prePerformCfg": ""
    },
    {
      "id": 6507204,
      "priority": 1,
      "initDialog": 650720401,
      "npcId": [
        5072
      ],
      "performCfg": "",
      "assetIndex": 8458053693341302971,
      "prePerformCfg": ""
    }
  ]
}