{
  "npcId": 5084,
  "talks": [
    {
      "id": 6508401,
      "beginWay": "TALK_BEGIN_MANUAL",
      "beginCond": [
        {
          "type": "QUEST_COND_IS_DAYTIME",
          "_param": [
            "1"
          ]
        }
      ],
      "priority": 3,
      "nextTalks": [
        6508402,
        6508403
      ],
      "initDialog": 650840101,
      "npcId": [
        5084
      ],
      "performCfg": "",
      "assetIndex": 8096662511793083996,
      "prePerformCfg": ""
    },
    {
      "id": 6508402,
      "beginCond": [
        {
          "type": "QUEST_COND_IS_DAYTIME",
          "_param": [
            "1"
          ]
        }
      ],
      "priority": 1,
      "nextTalks": [
        6508404
      ],
      "initDialog": 650840201,
      "npcId": [
        5084
      ],
      "performCfg": "",
      "assetIndex": 11694015174531907963,
      "prePerformCfg": ""
    },
    {
      "id": 6508403,
      "beginCond": [
        {
          "type": "QUEST_COND_IS_DAYTIME",
          "_param": [
            "1"
          ]
        }
      ],
      "priority": 1,
      "initDialog": 650840301,
      "npcId": [
        5084
      ],
      "performCfg": "",
      "assetIndex": 8698548975704166039,
      "prePerformCfg": ""
    },
    {
      "id": 6508404,
      "beginCond": [
        {
          "type": "QUEST_COND_IS_DAYTIME",
          "_param": [
            "1"
          ]
        }
      ],
      "priority": 1,
      "initDialog": 650840401,
      "npcId": [
        5084
      ],
      "performCfg": "",
      "assetIndex": 17439573011895010814,
      "prePerformCfg": "",
      "stayFreeStyle": true
    },
    {
      "id": 6508405,
      "beginWay": "TALK_BEGIN_MANUAL",
      "beginCond": [
        {
          "type": "QUEST_COND_IS_DAYTIME",
          "_param": [
            "0"
          ]
        }
      ],
      "priority": 3,
      "nextTalks": [
        6508406,
        6508407
      ],
      "initDialog": 650840501,
      "npcId": [
        5084
      ],
      "performCfg": "",
      "assetIndex": 17003755356812182635,
      "prePerformCfg": "",
      "stayFreeStyle": true
    },
    {
      "id": 6508406,
      "beginCond": [
        {
          "type": "QUEST_COND_IS_DAYTIME",
          "_param": [
            "0"
          ]
        }
      ],
      "priority": 1,
      "nextTalks": [
        7492001
      ],
      "initDialog": 650840601,
      "npcId": [
        5084
      ],
      "performCfg": "",
      "assetIndex": 8371580177109419939,
      "prePerformCfg": "",
      "freeStyleList": [
        1171,
        1172,
        1173,
        4040
      ]
    },
    {
      "id": 6508407,
      "beginCond": [
        {
          "type": "QUEST_COND_IS_DAYTIME",
          "_param": [
            "0"
          ]
        }
      ],
      "priority": 1,
      "initDialog": 650840701,
      "npcId": [
        5084
      ],
      "performCfg": "",
      "assetIndex": 12063568433514166650,
      "prePerformCfg": "",
      "freeStyleList": [
        1171,
        1172,
        1173
      ]
    },
    {
      "id": 7403401,
      "beginWay": "TALK_BEGIN_MANUAL",
      "beginCond": [
        {
          "type": "QUEST_COND_QUEST_SERVER_COND_VALID",
          "_param": [
            "7403401"
          ]
        }
      ],
      "priority": 5,
      "nextTalks": [
        7403402,
        7403403
      ],
      "initDialog": 740340101,
      "npcId": [
        5084
      ],
      "performCfg": "QuestDialogue/WQ/Fontaine_74034/Q7403401",
      "heroTalk": "TALK_HERO_MAIN",
      "assetIndex": 2820826652352849216,
      "prePerformCfg": "",
      "lockGameTime": true,
      "talkMarkType": "TALK_MARK_COMMON",
      "CHAKPMBJNAJ": [
        "[1083_15:5.380,0.000,6.033,0.000,60.307,0.000]",
        "[1083_16:5.077,0.000,-0.500,0.000,270.494,0.000]",
        "[1083_22:3.944,0.000,5.002,0.000,53.749,0.000]",
        "[1083_23:4.494,0.000,4.383]"
      ]
    },
    {
      "id": 7403402,
      "priority": 5,
      "nextTalks": [
        7403404
      ],
      "initDialog": 740340201,
      "npcId": [
        5084
      ],
      "performCfg": "QuestDialogue/WQ/Fontaine_74034/Q7403402",
      "heroTalk": "TALK_HERO_MAIN",
      "assetIndex": 13679784759935747555,
      "prePerformCfg": "",
      "lockGameTime": true
    },
    {
      "id": 7403403,
      "priority": 5,
      "nextTalks": [
        7403404
      ],
      "initDialog": 740340301,
      "npcId": [
        5084
      ],
      "performCfg": "QuestDialogue/WQ/Fontaine_74034/Q7403403",
      "heroTalk": "TALK_HERO_MAIN",
      "assetIndex": 5038394361448211325,
      "prePerformCfg": "",
      "lockGameTime": true
    },
    {
      "id": 7403404,
      "priority": 5,
      "initDialog": 740340401,
      "npcId": [
        5084
      ],
      "performCfg": "QuestDialogue/WQ/Fontaine_74034/Q7403404",
      "heroTalk": "TALK_HERO_MAIN",
      "assetIndex": 8734588009988950592,
      "prePerformCfg": "",
      "lockGameTime": true
    },
    {
      "id": 7492001,
      "beginWay": "TALK_BEGIN_MANUAL",
      "beginCondComb": "LOGIC_AND",
      "beginCond": [
        {
          "type": "QUEST_COND_QUEST_NOT_RECEIVE",
          "_param": [
            "7492001",
            "1"
          ]
        },
        {
          "type": "QUEST_COND_IS_DAYTIME",
          "_param": [
            "0"
          ]
        }
      ],
      "initDialog": 749200101,
      "npcId": [
        5084
      ],
      "performCfg": "",
      "assetIndex": 9015671801017521096,
      "dontBlockDaily": true,
      "prePerformCfg": ""
    }
  ]
}