{
  "npcId": 5085,
  "talks": [
    {
      "id": 6508501,
      "beginWay": "TALK_BEGIN_MANUAL",
      "beginCond": [
        {
          "type": "QUEST_COND_IS_DAYTIME",
          "_param": [
            "1"
          ]
        }
      ],
      "priority": 3,
      "nextTalks": [
        6508502,
        6508503
      ],
      "initDialog": 650850101,
      "npcId": [
        5085
      ],
      "performCfg": "",
      "assetIndex": 6398692292271584593,
      "prePerformCfg": ""
    },
    {
      "id": 6508502,
      "beginCond": [
        {
          "type": "QUEST_COND_IS_DAYTIME",
          "_param": [
            "1"
          ]
        }
      ],
      "priority": 1,
      "initDialog": 650850201,
      "npcId": [
        5085
      ],
      "performCfg": "",
      "assetIndex": 8702994922796906846,
      "prePerformCfg": ""
    },
    {
      "id": 6508503,
      "beginCond": [
        {
          "type": "QUEST_COND_IS_DAYTIME",
          "_param": [
            "1"
          ]
        }
      ],
      "priority": 1,
      "initDialog": 650850301,
      "npcId": [
        5085
      ],
      "performCfg": "",
      "assetIndex": 15843571407890401428,
      "prePerformCfg": ""
    }
  ]
}