{
  "npcId": 5101,
  "talks": [
    {
      "id": 6510101,
      "beginWay": "TALK_BEGIN_MANUAL",
      "priority": 3,
      "nextTalks": [
        6510102,
        6510103,
        6510104
      ],
      "initDialog": 651010101,
      "npcId": [
        5101
      ],
      "performCfg": "",
      "assetIndex": 6993951720305691176,
      "prePerformCfg": "",
      "freeStyleList": [
        9000
      ]
    },
    {
      "id": 6510102,
      "priority": 1,
      "initDialog": 651010201,
      "npcId": [
        5101
      ],
      "performCfg": "",
      "assetIndex": 14404564203705986934,
      "prePerformCfg": ""
    },
    {
      "id": 6510103,
      "priority": 1,
      "initDialog": 651010301,
      "npcId": [
        5101
      ],
      "performCfg": "",
      "assetIndex": 16676904547128919203,
      "prePerformCfg": ""
    },
    {
      "id": 6510104,
      "priority": 1,
      "initDialog": 651010401,
      "npcId": [
        5101
      ],
      "performCfg": "",
      "assetIndex": 2021264494884136059,
      "prePerformCfg": ""
    }
  ]
}