{
  "npcId": 5118,
  "talks": [
    {
      "id": 6511801,
      "beginWay": "TALK_BEGIN_MANUAL",
      "priority": 3,
      "initDialog": 651180101,
      "npcId": [
        5118,
        5119
      ],
      "performCfg": "",
      "assetIndex": 5823316457686064234,
      "prePerformCfg": "",
      "stayFreeStyle": true
    }
  ]
}