{
  "npcId": 5122,
  "talks": [
    {
      "id": 6512201,
      "beginWay": "TALK_BEGIN_MANUAL",
      "priority": 3,
      "nextTalks": [
        6512202,
        6512203
      ],
      "initDialog": 651220101,
      "npcId": [
        5122
      ],
      "performCfg": "",
      "assetIndex": 7076004468005420563,
      "prePerformCfg": "",
      "freeStyleList": [
        9000
      ]
    },
    {
      "id": 6512202,
      "priority": 1,
      "nextTalks": [
        6512204
      ],
      "initDialog": 651220201,
      "npcId": [
        5122
      ],
      "performCfg": "",
      "assetIndex": 3629776084274524736,
      "prePerformCfg": ""
    },
    {
      "id": 6512203,
      "priority": 1,
      "initDialog": 651220301,
      "npcId": [
        5122
      ],
      "performCfg": "",
      "assetIndex": 11026951856928870374,
      "prePerformCfg": ""
    },
    {
      "id": 6512204,
      "priority": 1,
      "initDialog": 651220401,
      "npcId": [
        5122
      ],
      "performCfg": "",
      "assetIndex": 16261528031204393086,
      "prePerformCfg": ""
    }
  ]
}