{
  "npcId": 5136,
  "talks": [
    {
      "id": 6513601,
      "beginWay": "TALK_BEGIN_MANUAL",
      "priority": 3,
      "nextTalks": [
        7465701,
        6513602,
        6513603,
        6513605,
        6513604
      ],
      "initDialog": 651360101,
      "npcId": [
        5136
      ],
      "performCfg": "",
      "assetIndex": 8447422232568702395,
      "prePerformCfg": "",
      "stayFreeStyle": true
    },
    {
      "id": 6513602,
      "priority": 1,
      "nextTalks": [
        7490601
      ],
      "initDialog": 651360201,
      "npcId": [
        5136
      ],
      "performCfg": "",
      "assetIndex": 15145113866538867970,
      "prePerformCfg": "",
      "stayFreeStyle": true,
      "checkActionAfter": true
    },
    {
      "id": 6513603,
      "beginCondComb": "LOGIC_AND",
      "beginCond": [
        {
          "type": "QUEST_COND_STATE_EQUAL",
          "_param": [
            "400409",
            "3"
          ]
        },
        {
          "type": "QUEST_COND_QUEST_GLOBAL_VAR_EQUAL",
          "_param": [
            "402401",
            "0"
          ]
        }
      ],
      "priority": 1,
      "initDialog": 651360301,
      "npcId": [
        5136
      ],
      "performCfg": "",
      "assetIndex": 17082257999565131175,
      "prePerformCfg": "",
      "stayFreeStyle": true
    },
    {
      "id": 6513604,
      "priority": 1,
      "initDialog": 651360401,
      "npcId": [
        5136
      ],
      "performCfg": "",
      "assetIndex": 6213474206415011396,
      "prePerformCfg": "",
      "stayFreeStyle": true
    },
    {
      "id": 6513605,
      "beginCondComb": "LOGIC_AND",
      "beginCond": [
        {
          "type": "QUEST_COND_STATE_EQUAL",
          "_param": [
            "400409",
            "3"
          ]
        },
        {
          "type": "QUEST_COND_QUEST_GLOBAL_VAR_EQUAL",
          "_param": [
            "402401",
            "1"
          ]
        }
      ],
      "priority": 1,
      "initDialog": 651360501,
      "npcId": [
        5136
      ],
      "performCfg": "",
      "assetIndex": 2307402852802796770,
      "prePerformCfg": "",
      "stayFreeStyle": true
    },
    {
      "id": 7490601,
      "beginWay": "TALK_BEGIN_MANUAL",
      "beginCond": [
        {
          "type": "QUEST_COND_QUEST_NOT_RECEIVE",
          "_param": [
            "7490601",
            "1"
          ]
        }
      ],
      "initDialog": 749060101,
      "npcId": [
        5136
      ],
      "performCfg": "",
      "assetIndex": 4689532660503811243,
      "dontBlockDaily": true,
      "prePerformCfg": ""
    }
  ]
}