{
  "npcId": 5145,
  "talks": [
    {
      "id": 6514601,
      "beginWay": "TALK_BEGIN_MANUAL",
      "priority": 3,
      "initDialog": 651460101,
      "npcId": [
        5146,
        5145
      ],
      "performCfg": "",
      "assetIndex": 15887728921338981288,
      "prePerformCfg": "",
      "stayFreeStyle": true
    }
  ]
}