{
  "npcId": 5151,
  "talks": [
    {
      "id": 6515101,
      "beginWay": "TALK_BEGIN_MANUAL",
      "priority": 3,
      "initDialog": 651510101,
      "npcId": [
        5151,
        5152
      ],
      "performCfg": "",
      "assetIndex": 5322903642597741511,
      "prePerformCfg": "",
      "stayFreeStyle": true
    }
  ]
}