{
  "npcId": 5161,
  "talks": [
    {
      "id": 7405705,
      "beginWay": "TALK_BEGIN_MANUAL",
      "activeMode": "PLAY_MODE_HOST",
      "npcId": [
        5161
      ],
      "performCfg": "QuestDialogue/WQ/Fontaine_74057/Q7405705",
      "assetIndex": 4624457856829045095,
      "prePerformCfg": ""
    }
  ]
}