{
  "npcId": 5172,
  "talks": [
    {
      "id": 7405715,
      "beginWay": "TALK_BEGIN_MANUAL",
      "activeMode": "PLAY_MODE_HOST",
      "npcId": [
        5172
      ],
      "performCfg": "QuestDialogue/WQ/Fontaine_74057/Q7405715",
      "assetIndex": 5078519142163486200,
      "prePerformCfg": ""
    }
  ]
}