{
  "npcId": 5176,
  "talks": [
    {
      "id": 7405719,
      "beginWay": "TALK_BEGIN_MANUAL",
      "activeMode": "PLAY_MODE_HOST",
      "npcId": [
        5176
      ],
      "performCfg": "QuestDialogue/WQ/Fontaine_74057/Q7405719",
      "assetIndex": 429936320668154010,
      "prePerformCfg": ""
    }
  ]
}