{
  "npcId": 5179,
  "talks": [
    {
      "id": 7405722,
      "beginWay": "TALK_BEGIN_MANUAL",
      "activeMode": "PLAY_MODE_HOST",
      "npcId": [
        5179
      ],
      "performCfg": "QuestDialogue/WQ/Fontaine_74057/Q7405722",
      "assetIndex": 770049464542810108,
      "prePerformCfg": ""
    }
  ]
}