{
  "npcId": 5181,
  "talks": [
    {
      "id": 7405724,
      "beginWay": "TALK_BEGIN_MANUAL",
      "activeMode": "PLAY_MODE_HOST",
      "priority": 5,
      "npcId": [
        5181
      ],
      "performCfg": "QuestDialogue/WQ/Fontaine_74057/Q7405724",
      "assetIndex": 17026894032993187982,
      "prePerformCfg": ""
    },
    {
      "id": 7405725,
      "beginWay": "TALK_BEGIN_MANUAL",
      "activeMode": "PLAY_MODE_HOST",
      "beginCond": [
        {
          "type": "QUEST_COND_STATE_EQUAL",
          "_param": [
            "7416201",
            "3"
          ]
        }
      ],
      "priority": 10,
      "npcId": [
        5181
      ],
      "performCfg": "QuestDialogue/WQ/Fontaine_74057/Q7405725",
      "assetIndex": 2801306001542634278,
      "prePerformCfg": ""
    }
  ]
}