{
  "npcId": 5190,
  "talks": [
    {
      "id": 6519001,
      "beginWay": "TALK_BEGIN_MANUAL",
      "priority": 3,
      "nextTalks": [
        6519002,
        6519003
      ],
      "initDialog": 651900101,
      "npcId": [
        5190
      ],
      "performCfg": "",
      "assetIndex": 4042066864030920331,
      "prePerformCfg": "",
      "freeStyleList": [
        9000
      ]
    },
    {
      "id": 6519002,
      "priority": 1,
      "nextTalks": [
        6519004,
        6519005
      ],
      "initDialog": 651900201,
      "npcId": [
        5190
      ],
      "performCfg": "",
      "assetIndex": 12585890189812400469,
      "prePerformCfg": ""
    },
    {
      "id": 6519003,
      "priority": 1,
      "initDialog": 651900301,
      "npcId": [
        5190
      ],
      "performCfg": "",
      "assetIndex": 12048388690281465360,
      "prePerformCfg": ""
    },
    {
      "id": 6519004,
      "beginCond": [
        {
          "type": "QUEST_COND_QUEST_GLOBAL_VAR_EQUAL",
          "_param": [
            "7413101",
            "0"
          ]
        }
      ],
      "priority": 1,
      "initDialog": 651900401,
      "npcId": [
        5190
      ],
      "performCfg": "",
      "assetIndex": 16892462399961089267,
      "prePerformCfg": ""
    },
    {
      "id": 6519005,
      "beginCond": [
        {
          "type": "QUEST_COND_QUEST_GLOBAL_VAR_EQUAL",
          "_param": [
            "7413101",
            "1"
          ]
        }
      ],
      "priority": 1,
      "initDialog": 651900501,
      "npcId": [
        5190
      ],
      "performCfg": "",
      "assetIndex": 68263270935344226,
      "prePerformCfg": ""
    }
  ]
}