{
  "npcId": 5192,
  "talks": [
    {
      "id": 6519201,
      "beginWay": "TALK_BEGIN_MANUAL",
      "priority": 3,
      "nextTalks": [
        6519202,
        6519203
      ],
      "initDialog": 651920101,
      "npcId": [
        5192
      ],
      "performCfg": "",
      "assetIndex": 7283616072804458202,
      "prePerformCfg": "",
      "freeStyleList": [
        9000
      ]
    },
    {
      "id": 6519202,
      "priority": 1,
      "nextTalks": [
        6519204
      ],
      "initDialog": 651920201,
      "npcId": [
        5192
      ],
      "performCfg": "",
      "assetIndex": 14907100193172437747,
      "prePerformCfg": ""
    },
    {
      "id": 6519203,
      "priority": 1,
      "initDialog": 651920301,
      "npcId": [
        5192
      ],
      "performCfg": "",
      "assetIndex": 1644627851888935277,
      "prePerformCfg": ""
    },
    {
      "id": 6519204,
      "priority": 1,
      "initDialog": 651920401,
      "npcId": [
        5192
      ],
      "performCfg": "",
      "assetIndex": 9847786148399389332,
      "prePerformCfg": ""
    }
  ]
}