{
  "npcId": 5193,
  "talks": [
    {
      "id": 6519301,
      "beginWay": "TALK_BEGIN_MANUAL",
      "priority": 3,
      "nextTalks": [
        6519302,
        6519303
      ],
      "initDialog": 651930101,
      "npcId": [
        5193
      ],
      "performCfg": "",
      "assetIndex": 6619225109938926197,
      "prePerformCfg": "",
      "freeStyleList": [
        9000
      ]
    },
    {
      "id": 6519302,
      "priority": 1,
      "nextTalks": [
        6519304
      ],
      "initDialog": 651930201,
      "npcId": [
        5193
      ],
      "performCfg": "",
      "assetIndex": 16859794904286769988,
      "prePerformCfg": ""
    },
    {
      "id": 6519303,
      "priority": 1,
      "initDialog": 651930301,
      "npcId": [
        5193
      ],
      "performCfg": "",
      "assetIndex": 4664974426619219176,
      "prePerformCfg": ""
    },
    {
      "id": 6519304,
      "priority": 1,
      "initDialog": 651930401,
      "npcId": [
        5193
      ],
      "performCfg": "",
      "assetIndex": 12958945387349859273,
      "prePerformCfg": ""
    }
  ]
}