{
  "npcId": 5208,
  "talks": [
    {
      "id": 6520801,
      "beginWay": "TALK_BEGIN_MANUAL",
      "priority": 3,
      "nextTalks": [
        6520802,
        6520803,
        6520804
      ],
      "initDialog": 652080101,
      "npcId": [
        5208
      ],
      "performCfg": "",
      "assetIndex": 6264357055862807154,
      "prePerformCfg": ""
    },
    {
      "id": 6520802,
      "beginCondComb": "LOGIC_OR",
      "beginCond": [
        {
          "type": "QUEST_COND_STATE_EQUAL",
          "_param": [
            "7405379",
            "2"
          ]
        },
        {
          "type": "QUEST_COND_QUEST_NOT_RECEIVE",
          "_param": [
            "7405379",
            "1"
          ]
        }
      ],
      "priority": 1,
      "nextTalks": [
        6520805
      ],
      "initDialog": 652080201,
      "npcId": [
        5208
      ],
      "performCfg": "",
      "assetIndex": 18094141027177840775,
      "prePerformCfg": ""
    },
    {
      "id": 6520803,
      "beginCond": [
        {
          "type": "QUEST_COND_STATE_EQUAL",
          "_param": [
            "7405379",
            "3"
          ]
        }
      ],
      "priority": 1,
      "nextTalks": [
        6520805
      ],
      "initDialog": 652080301,
      "npcId": [
        5208
      ],
      "performCfg": "",
      "assetIndex": 15661510187562204943,
      "prePerformCfg": ""
    },
    {
      "id": 6520804,
      "priority": 1,
      "initDialog": 652080401,
      "npcId": [
        5208
      ],
      "performCfg": "",
      "assetIndex": 16731716372688808035,
      "prePerformCfg": ""
    },
    {
      "id": 6520805,
      "priority": 1,
      "nextTalks": [
        6520806
      ],
      "initDialog": 652080501,
      "npcId": [
        5208
      ],
      "performCfg": "",
      "assetIndex": 16801986008908459680,
      "prePerformCfg": ""
    },
    {
      "id": 6520806,
      "priority": 1,
      "initDialog": 652080601,
      "npcId": [
        5208
      ],
      "performCfg": "",
      "assetIndex": 7499554531224728457,
      "prePerformCfg": ""
    }
  ]
}