{
  "npcId": 5209,
  "talks": [
    {
      "id": 6520901,
      "beginWay": "TALK_BEGIN_MANUAL",
      "priority": 3,
      "nextTalks": [
        7494001,
        6520905,
        6520906
      ],
      "nextRandomTalks": [
        6520902,
        6520903,
        6520904
      ],
      "LKBNLLIPIDO": 1,
      "OLFNBJHOHBP": [
        1,
        2,
        3
      ],
      "showRandomTalkCount": 2,
      "initDialog": 652090101,
      "npcId": [
        5209
      ],
      "performCfg": "",
      "assetIndex": 14232640274546527022,
      "prePerformCfg": "",
      "stayFreeStyle": true
    },
    {
      "id": 6520902,
      "priority": 1,
      "nextTalks": [
        6520907
      ],
      "initDialog": 652090201,
      "npcId": [
        5209
      ],
      "performCfg": "",
      "assetIndex": 9410941292678069440,
      "prePerformCfg": "",
      "freeStyleList": [
        1171,
        1172,
        1173,
        1190
      ]
    },
    {
      "id": 6520903,
      "beginCond": [
        {
          "type": "QUEST_COND_STATE_EQUAL",
          "_param": [
            "7405379",
            "3"
          ]
        }
      ],
      "priority": 1,
      "nextTalks": [
        6520907
      ],
      "initDialog": 652090301,
      "npcId": [
        5209
      ],
      "performCfg": "",
      "assetIndex": 9378380830696554769,
      "prePerformCfg": "",
      "freeStyleList": [
        1171,
        1172,
        1173,
        1130,
        1050
      ]
    },
    {
      "id": 6520904,
      "beginCond": [
        {
          "type": "QUEST_COND_STATE_EQUAL",
          "_param": [
            "7406035",
            "3"
          ]
        }
      ],
      "priority": 1,
      "nextTalks": [
        6520907
      ],
      "initDialog": 652090401,
      "npcId": [
        5209
      ],
      "performCfg": "",
      "assetIndex": 3968823342696968442,
      "prePerformCfg": "",
      "freeStyleList": [
        1171,
        1172,
        1173,
        1130,
        1060
      ]
    },
    {
      "id": 6520905,
      "priority": 1,
      "initDialog": 652090501,
      "npcId": [
        5209
      ],
      "performCfg": "",
      "assetIndex": 8612105451296320120,
      "prePerformCfg": "",
      "freeStyleList": [
        1171,
        1172,
        1173,
        1190
      ]
    },
    {
      "id": 6520906,
      "priority": 1,
      "initDialog": 652090601,
      "npcId": [
        5209
      ],
      "performCfg": "",
      "assetIndex": 9983001004214552853,
      "prePerformCfg": "",
      "freeStyleList": [
        1171,
        1172,
        1173
      ]
    },
    {
      "id": 6520907,
      "priority": 1,
      "nextTalks": [
        6520908
      ],
      "initDialog": 652090701,
      "npcId": [
        5209
      ],
      "performCfg": "",
      "assetIndex": 17796219768074505488,
      "prePerformCfg": "",
      "freeStyleList": [
        1171,
        1172,
        1173,
        1230
      ]
    },
    {
      "id": 6520908,
      "priority": 1,
      "initDialog": 652090801,
      "npcId": [
        5209
      ],
      "performCfg": "",
      "assetIndex": 2116972918522536318,
      "prePerformCfg": "",
      "freeStyleList": [
        1050,
        1130,
        4040,
        1171,
        1172,
        1173,
        1120
      ]
    },
    {
      "id": 7494001,
      "beginWay": "TALK_BEGIN_MANUAL",
      "beginCond": [
        {
          "type": "QUEST_COND_QUEST_NOT_RECEIVE",
          "_param": [
            "7494001",
            "1"
          ]
        }
      ],
      "priority": 1,
      "initDialog": 749400101,
      "npcId": [
        5209
      ],
      "performCfg": "",
      "assetIndex": 8319475515756673301,
      "dontBlockDaily": true,
      "prePerformCfg": "",
      "freeStyleList": [
        1171,
        1172,
        1173
      ]
    }
  ]
}