{
  "npcId": 5241,
  "talks": [
    {
      "id": 6524101,
      "beginWay": "TALK_BEGIN_MANUAL",
      "priority": 1,
      "initDialog": 652410101,
      "npcId": [
        5241
      ],
      "performCfg": "",
      "assetIndex": 7387300232870449185,
      "prePerformCfg": ""
    }
  ]
}