{
  "npcId": 5247,
  "talks": [
    {
      "id": 6524701,
      "beginWay": "TALK_BEGIN_MANUAL",
      "priority": 3,
      "nextTalks": [
        6524702,
        6524703
      ],
      "initDialog": 652470101,
      "npcId": [
        5247
      ],
      "performCfg": "",
      "assetIndex": 14825327626008472431,
      "prePerformCfg": ""
    },
    {
      "id": 6524702,
      "priority": 1,
      "initDialog": 652470201,
      "npcId": [
        5247
      ],
      "performCfg": "",
      "assetIndex": 273036123216001773,
      "prePerformCfg": ""
    },
    {
      "id": 6524703,
      "priority": 1,
      "initDialog": 652470301,
      "npcId": [
        5247
      ],
      "performCfg": "",
      "assetIndex": 15250901015441338004,
      "prePerformCfg": ""
    }
  ]
}