{
  "npcId": 5262,
  "talks": [
    {
      "id": 6526201,
      "beginWay": "TALK_BEGIN_MANUAL",
      "priority": 3,
      "nextTalks": [
        6526202,
        6526203,
        6526204
      ],
      "initDialog": 652620101,
      "npcId": [
        5262
      ],
      "performCfg": "",
      "assetIndex": 15375526479244035281,
      "prePerformCfg": "",
      "freeStyleList": [
        1171,
        1172,
        1173
      ]
    },
    {
      "id": 6526202,
      "priority": 1,
      "initDialog": 652620201,
      "npcId": [
        5262
      ],
      "performCfg": "",
      "assetIndex": 15623969657979618546,
      "prePerformCfg": "",
      "freeStyleList": [
        4030,
        1060,
        1130,
        1190
      ]
    },
    {
      "id": 6526203,
      "priority": 1,
      "initDialog": 652620301,
      "npcId": [
        5262
      ],
      "performCfg": "",
      "assetIndex": 3180343221125898389,
      "prePerformCfg": "",
      "freeStyleList": [
        1120,
        4040
      ]
    },
    {
      "id": 6526204,
      "priority": 1,
      "initDialog": 652620401,
      "npcId": [
        5262
      ],
      "performCfg": "",
      "assetIndex": 5659459206238154038,
      "prePerformCfg": ""
    },
    {
      "id": 6526205,
      "beginWay": "TALK_BEGIN_MANUAL",
      "beginCond": [
        {
          "type": "QUEST_COND_STATE_EQUAL",
          "_param": [
            "7406035",
            "3"
          ]
        }
      ],
      "priority": 4,
      "nextTalks": [
        6526206,
        6526203,
        6526207,
        6526204
      ],
      "initDialog": 652620501,
      "npcId": [
        5262
      ],
      "performCfg": "",
      "assetIndex": 3906722372251810736,
      "prePerformCfg": "",
      "freeStyleList": [
        1171,
        1172,
        1173
      ]
    },
    {
      "id": 6526206,
      "priority": 1,
      "initDialog": 652620601,
      "npcId": [
        5262
      ],
      "performCfg": "",
      "assetIndex": 3739899477131788285,
      "prePerformCfg": "",
      "freeStyleList": [
        4030,
        1060,
        1130,
        1190
      ]
    },
    {
      "id": 6526207,
      "priority": 1,
      "initDialog": 652620701,
      "npcId": [
        5262
      ],
      "performCfg": "",
      "assetIndex": 16821621412285795628,
      "prePerformCfg": "",
      "freeStyleList": [
        4040,
        1171,
        1172,
        1173,
        1190
      ]
    }
  ]
}