{
  "npcId": 5265,
  "talks": [
    {
      "id": 7408203,
      "beginWay": "TALK_BEGIN_MANUAL",
      "beginCondComb": "LOGIC_OR",
      "priority": 1,
      "initDialog": 740820301,
      "npcId": [
        5265
      ],
      "performCfg": "",
      "assetIndex": 15162315361917162071,
      "prePerformCfg": ""
    }
  ]
}