{
  "npcId": 5266,
  "talks": [
    {
      "id": 6526601,
      "beginWay": "TALK_BEGIN_MANUAL",
      "priority": 3,
      "nextTalks": [
        6526602,
        6526603
      ],
      "initDialog": 652660101,
      "npcId": [
        5266
      ],
      "performCfg": "",
      "assetIndex": 8771970122646132344,
      "prePerformCfg": "",
      "freeStyleList": [
        9000
      ]
    },
    {
      "id": 6526602,
      "priority": 1,
      "nextTalks": [
        6526604,
        6526605
      ],
      "initDialog": 652660201,
      "npcId": [
        5266
      ],
      "performCfg": "",
      "assetIndex": 1702277437435429080,
      "prePerformCfg": ""
    },
    {
      "id": 6526603,
      "priority": 1,
      "initDialog": 652660301,
      "npcId": [
        5266
      ],
      "performCfg": "",
      "assetIndex": 6609759819715710140,
      "prePerformCfg": ""
    },
    {
      "id": 6526604,
      "priority": 1,
      "initDialog": 652660401,
      "npcId": [
        5266
      ],
      "performCfg": "",
      "assetIndex": 10951596435846380815,
      "prePerformCfg": ""
    },
    {
      "id": 6526605,
      "priority": 1,
      "initDialog": 652660501,
      "npcId": [
        5266
      ],
      "performCfg": "",
      "assetIndex": 798626180397341052,
      "prePerformCfg": ""
    }
  ]
}