{
  "npcId": 5271,
  "talks": [
    {
      "id": 6527101,
      "beginWay": "TALK_BEGIN_MANUAL",
      "priority": 3,
      "nextTalks": [
        6527104
      ],
      "nextRandomTalks": [
        6527105,
        6527103,
        6527102
      ],
      "LKBNLLIPIDO": 1,
      "OLFNBJHOHBP": [
        3,
        2,
        1
      ],
      "showRandomTalkCount": 1,
      "initDialog": 652710101,
      "npcId": [
        5271
      ],
      "performCfg": "",
      "assetIndex": 14862840527406429286,
      "prePerformCfg": "",
      "freeStyleList": [
        9000
      ]
    },
    {
      "id": 6527102,
      "beginCondComb": "LOGIC_OR",
      "beginCond": [
        {
          "type": "QUEST_COND_STATE_EQUAL",
          "_param": [
            "401108",
            "2"
          ]
        },
        {
          "type": "QUEST_COND_QUEST_NOT_RECEIVE",
          "_param": [
            "401108",
            "1"
          ]
        }
      ],
      "priority": 1,
      "initDialog": 652710201,
      "npcId": [
        5271
      ],
      "performCfg": "",
      "assetIndex": 9134315121746239720,
      "prePerformCfg": ""
    },
    {
      "id": 6527103,
      "beginCond": [
        {
          "type": "QUEST_COND_STATE_EQUAL",
          "_param": [
            "401108",
            "3"
          ]
        }
      ],
      "priority": 1,
      "initDialog": 652710301,
      "npcId": [
        5271
      ],
      "performCfg": "",
      "assetIndex": 10262475291048674035,
      "prePerformCfg": ""
    },
    {
      "id": 6527104,
      "priority": 1,
      "initDialog": 652710401,
      "npcId": [
        5271
      ],
      "performCfg": "",
      "assetIndex": 15320551699036917624,
      "prePerformCfg": ""
    },
    {
      "id": 6527105,
      "beginCond": [
        {
          "type": "QUEST_COND_STATE_EQUAL",
          "_param": [
            "402304",
            "3"
          ]
        }
      ],
      "priority": 1,
      "initDialog": 652710501,
      "npcId": [
        5271
      ],
      "performCfg": "",
      "assetIndex": 7730780716588107051,
      "prePerformCfg": ""
    }
  ]
}