{
  "npcId": 5282,
  "talks": [
    {
      "id": 7401414,
      "beginWay": "TALK_BEGIN_MANUAL",
      "activeMode": "PLAY_MODE_HOST",
      "beginCond": [
        {
          "type": "QUEST_COND_STATE_EQUAL",
          "_param": [
            "99902",
            "3"
          ]
        }
      ],
      "initDialog": 740141401,
      "npcId": [
        5282
      ],
      "performCfg": "",
      "assetIndex": 3085578680144768816,
      "prePerformCfg": ""
    }
  ]
}