{
  "npcId": 5285,
  "talks": [
    {
      "id": 6528501,
      "beginWay": "TALK_BEGIN_MANUAL",
      "priority": 3,
      "nextTalks": [
        7413161,
        6528502
      ],
      "initDialog": 652850101,
      "npcId": [
        5285
      ],
      "performCfg": "",
      "assetIndex": 2934449067724934223,
      "prePerformCfg": "",
      "freeStyleList": [
        9000
      ]
    },
    {
      "id": 6528502,
      "priority": 1,
      "nextTalks": [
        6528503
      ],
      "initDialog": 652850201,
      "npcId": [
        5285
      ],
      "performCfg": "",
      "assetIndex": 4802515571941732029,
      "prePerformCfg": ""
    },
    {
      "id": 6528503,
      "priority": 1,
      "initDialog": 652850301,
      "npcId": [
        5285
      ],
      "performCfg": "",
      "assetIndex": 1706216042597106965,
      "prePerformCfg": ""
    }
  ]
}