{
  "npcId": 5311,
  "talks": [
    {
      "id": 6531101,
      "beginWay": "TALK_BEGIN_MANUAL",
      "priority": 3,
      "nextTalks": [
        6531102,
        6531103,
        6531105,
        6531104
      ],
      "initDialog": 653110101,
      "npcId": [
        5311
      ],
      "performCfg": "",
      "assetIndex": 4241849539702024329,
      "prePerformCfg": ""
    },
    {
      "id": 6531102,
      "priority": 1,
      "initDialog": 653110201,
      "npcId": [
        5311
      ],
      "performCfg": "",
      "assetIndex": 14295964373186773431,
      "prePerformCfg": ""
    },
    {
      "id": 6531103,
      "priority": 1,
      "initDialog": 653110301,
      "npcId": [
        5311
      ],
      "performCfg": "",
      "assetIndex": 4895961955379735321,
      "prePerformCfg": ""
    },
    {
      "id": 6531104,
      "priority": 1,
      "initDialog": 653110401,
      "npcId": [
        5311
      ],
      "performCfg": "",
      "assetIndex": 8332889958005048162,
      "prePerformCfg": ""
    },
    {
      "id": 6531105,
      "beginCond": [
        {
          "type": "QUEST_COND_QUEST_GLOBAL_VAR_EQUAL",
          "_param": [
            "7400703",
            "1"
          ]
        }
      ],
      "priority": 1,
      "initDialog": 653110501,
      "npcId": [
        5311
      ],
      "performCfg": "",
      "assetIndex": 15359543005985292393,
      "prePerformCfg": ""
    },
    {
      "id": 6531106,
      "beginWay": "TALK_BEGIN_MANUAL",
      "beginCond": [
        {
          "type": "QUEST_COND_STATE_EQUAL",
          "_param": [
            "7414214",
            "3"
          ]
        }
      ],
      "priority": 4,
      "nextTalks": [
        6531107,
        6531108,
        6531109
      ],
      "initDialog": 653110601,
      "npcId": [
        5311
      ],
      "performCfg": "",
      "assetIndex": 3340591635648218739,
      "prePerformCfg": ""
    },
    {
      "id": 6531107,
      "priority": 1,
      "initDialog": 653110701,
      "npcId": [
        5311
      ],
      "performCfg": "",
      "assetIndex": 7247503749250397465,
      "prePerformCfg": ""
    },
    {
      "id": 6531108,
      "priority": 1,
      "initDialog": 653110801,
      "npcId": [
        5311
      ],
      "performCfg": "",
      "assetIndex": 10258966764040135910,
      "prePerformCfg": ""
    },
    {
      "id": 6531109,
      "priority": 1,
      "initDialog": 653110901,
      "npcId": [
        5311
      ],
      "performCfg": "",
      "assetIndex": 13522280954122128463,
      "prePerformCfg": ""
    }
  ]
}