{
  "npcId": 5312,
  "talks": [
    {
      "id": 6531201,
      "beginWay": "TALK_BEGIN_MANUAL",
      "priority": 3,
      "nextTalks": [
        6531202,
        6531203,
        6531205,
        6531204
      ],
      "initDialog": 653120101,
      "npcId": [
        5312
      ],
      "performCfg": "",
      "assetIndex": 9033681822684988425,
      "prePerformCfg": ""
    },
    {
      "id": 6531202,
      "priority": 1,
      "initDialog": 653120201,
      "npcId": [
        5312
      ],
      "performCfg": "",
      "assetIndex": 13655938211703497149,
      "prePerformCfg": ""
    },
    {
      "id": 6531203,
      "priority": 1,
      "initDialog": 653120301,
      "npcId": [
        5312
      ],
      "performCfg": "",
      "assetIndex": 1826078904586246220,
      "prePerformCfg": ""
    },
    {
      "id": 6531204,
      "priority": 1,
      "initDialog": 653120401,
      "npcId": [
        5312
      ],
      "performCfg": "",
      "assetIndex": 16924548784868353564,
      "prePerformCfg": ""
    },
    {
      "id": 6531205,
      "beginCond": [
        {
          "type": "QUEST_COND_QUEST_GLOBAL_VAR_EQUAL",
          "_param": [
            "7400703",
            "1"
          ]
        }
      ],
      "priority": 1,
      "initDialog": 653120501,
      "npcId": [
        5312
      ],
      "performCfg": "",
      "assetIndex": 13238030024008905132,
      "prePerformCfg": ""
    }
  ]
}