{
  "npcId": 5319,
  "talks": [
    {
      "id": 6531901,
      "beginWay": "TALK_BEGIN_MANUAL",
      "priority": 3,
      "nextTalks": [
        6531902,
        6531903
      ],
      "initDialog": 653190101,
      "npcId": [
        5319
      ],
      "performCfg": "",
      "assetIndex": 223787985651694303,
      "prePerformCfg": ""
    },
    {
      "id": 6531902,
      "priority": 1,
      "initDialog": 653190201,
      "npcId": [
        5319
      ],
      "performCfg": "",
      "assetIndex": 1936726185970304506,
      "prePerformCfg": ""
    },
    {
      "id": 6531903,
      "priority": 1,
      "initDialog": 653190301,
      "npcId": [
        5319
      ],
      "performCfg": "",
      "assetIndex": 9977142358216562104,
      "prePerformCfg": ""
    }
  ]
}