{
  "npcId": 5327,
  "talks": [
    {
      "id": 6532701,
      "beginWay": "TALK_BEGIN_MANUAL",
      "priority": 1,
      "initDialog": 653270101,
      "npcId": [
        5327
      ],
      "performCfg": "",
      "assetIndex": 739551258442709037,
      "prePerformCfg": ""
    }
  ]
}