{
  "npcId": 5328,
  "talks": [
    {
      "id": 6532801,
      "beginWay": "TALK_BEGIN_MANUAL",
      "priority": 1,
      "initDialog": 653280101,
      "npcId": [
        5328
      ],
      "performCfg": "",
      "assetIndex": 7306330113019812591,
      "prePerformCfg": ""
    }
  ]
}