{
  "npcId": 5336,
  "talks": [
    {
      "id": 6535001,
      "beginWay": "TALK_BEGIN_MANUAL",
      "priority": 3,
      "initDialog": 653500101,
      "npcId": [
        5350,
        5336
      ],
      "performCfg": "",
      "assetIndex": 1607844990168604685,
      "prePerformCfg": "",
      "stayFreeStyle": true
    }
  ]
}