{
  "npcId": 5344,
  "talks": [
    {
      "id": 6534401,
      "beginWay": "TALK_BEGIN_MANUAL",
      "beginCond": [
        {
          "type": "QUEST_COND_QUEST_GLOBAL_VAR_EQUAL",
          "_param": [
            "7419601",
            "0"
          ]
        }
      ],
      "priority": 3,
      "nextTalks": [
        6534402,
        6534404
      ],
      "initDialog": 653440101,
      "npcId": [
        5344
      ],
      "performCfg": "",
      "assetIndex": 10244955224142739554,
      "prePerformCfg": "",
      "freeStyleList": [
        1050
      ]
    },
    {
      "id": 6534402,
      "beginCond": [
        {
          "type": "QUEST_COND_QUEST_GLOBAL_VAR_EQUAL",
          "_param": [
            "7419601",
            "0"
          ]
        }
      ],
      "priority": 1,
      "nextTalks": [
        6534403
      ],
      "initDialog": 653440201,
      "npcId": [
        5344
      ],
      "performCfg": "",
      "assetIndex": 16636257971598527422,
      "prePerformCfg": "",
      "freeStyleList": [
        9000
      ]
    },
    {
      "id": 6534403,
      "beginCond": [
        {
          "type": "QUEST_COND_QUEST_GLOBAL_VAR_EQUAL",
          "_param": [
            "7419601",
            "0"
          ]
        }
      ],
      "priority": 1,
      "initDialog": 653440301,
      "npcId": [
        5344
      ],
      "performCfg": "",
      "assetIndex": 3003574597300282609,
      "prePerformCfg": "",
      "freeStyleList": [
        4040
      ]
    },
    {
      "id": 6534404,
      "beginCond": [
        {
          "type": "QUEST_COND_QUEST_GLOBAL_VAR_EQUAL",
          "_param": [
            "7419601",
            "0"
          ]
        }
      ],
      "priority": 1,
      "initDialog": 653440401,
      "npcId": [
        5344
      ],
      "performCfg": "",
      "assetIndex": 3278468403524362838,
      "prePerformCfg": ""
    },
    {
      "id": 6534405,
      "beginWay": "TALK_BEGIN_MANUAL",
      "beginCondComb": "LOGIC_AND",
      "beginCond": [
        {
          "type": "QUEST_COND_QUEST_GLOBAL_VAR_EQUAL",
          "_param": [
            "7419601",
            "1"
          ]
        },
        {
          "type": "QUEST_COND_STATE_EQUAL",
          "_param": [
            "7421715",
            "3"
          ]
        }
      ],
      "priority": 3,
      "nextTalks": [
        6534406,
        6534408,
        6534409
      ],
      "initDialog": 653440501,
      "npcId": [
        5344
      ],
      "performCfg": "",
      "assetIndex": 3281740648431169953,
      "prePerformCfg": "",
      "freeStyleList": [
        1230
      ]
    },
    {
      "id": 6534406,
      "beginCond": [
        {
          "type": "QUEST_COND_QUEST_GLOBAL_VAR_EQUAL",
          "_param": [
            "7419601",
            "1"
          ]
        }
      ],
      "priority": 1,
      "nextTalks": [
        6534407
      ],
      "initDialog": 653440601,
      "npcId": [
        5344
      ],
      "performCfg": "",
      "assetIndex": 2916777648326901541,
      "prePerformCfg": "",
      "freeStyleList": [
        9000
      ]
    },
    {
      "id": 6534407,
      "beginCond": [
        {
          "type": "QUEST_COND_QUEST_GLOBAL_VAR_EQUAL",
          "_param": [
            "7419601",
            "1"
          ]
        }
      ],
      "priority": 1,
      "initDialog": 653440701,
      "npcId": [
        5344
      ],
      "performCfg": "",
      "assetIndex": 1651586529160159092,
      "prePerformCfg": "",
      "freeStyleList": [
        4030,
        1120,
        1171,
        1172,
        1173
      ]
    },
    {
      "id": 6534408,
      "beginCond": [
        {
          "type": "QUEST_COND_QUEST_GLOBAL_VAR_EQUAL",
          "_param": [
            "7419601",
            "1"
          ]
        }
      ],
      "priority": 1,
      "initDialog": 653440801,
      "npcId": [
        5344
      ],
      "performCfg": "",
      "assetIndex": 14913848550291050189,
      "prePerformCfg": "",
      "freeStyleList": [
        1130,
        4030,
        1171,
        1172,
        1173
      ]
    },
    {
      "id": 6534409,
      "beginCond": [
        {
          "type": "QUEST_COND_QUEST_GLOBAL_VAR_EQUAL",
          "_param": [
            "7419601",
            "1"
          ]
        }
      ],
      "priority": 1,
      "initDialog": 653440901,
      "npcId": [
        5344
      ],
      "performCfg": "",
      "assetIndex": 16814048745239029688,
      "prePerformCfg": "",
      "freeStyleList": [
        4030
      ]
    },
    {
      "id": 6534410,
      "beginWay": "TALK_BEGIN_MANUAL",
      "beginCond": [
        {
          "type": "QUEST_COND_QUEST_GLOBAL_VAR_EQUAL",
          "_param": [
            "7419601",
            "1"
          ]
        }
      ],
      "priority": 2,
      "initDialog": 653441001,
      "npcId": [
        5344
      ],
      "performCfg": "",
      "assetIndex": 13423648742627359563,
      "prePerformCfg": "",
      "freeStyleList": [
        4040
      ]
    }
  ]
}