{
  "npcId": 5354,
  "talks": [
    {
      "id": 6535401,
      "beginWay": "TALK_BEGIN_MANUAL",
      "beginCond": [
        {
          "type": "QUEST_COND_QUEST_GLOBAL_VAR_EQUAL",
          "_param": [
            "7419601",
            "0"
          ]
        }
      ],
      "priority": 3,
      "nextTalks": [
        6535402,
        6535403
      ],
      "initDialog": 653540101,
      "npcId": [
        5354
      ],
      "performCfg": "",
      "assetIndex": 8391198823409300012,
      "prePerformCfg": "",
      "stayFreeStyle": true
    },
    {
      "id": 6535402,
      "priority": 1,
      "initDialog": 653540201,
      "npcId": [
        5354
      ],
      "performCfg": "",
      "assetIndex": 17630895130150529228,
      "prePerformCfg": "",
      "freeStyleList": [
        4030,
        1171,
        1172,
        1173
      ]
    },
    {
      "id": 6535403,
      "priority": 1,
      "initDialog": 653540301,
      "npcId": [
        5354
      ],
      "performCfg": "",
      "assetIndex": 1908730750263888111,
      "prePerformCfg": "",
      "freeStyleList": [
        4030
      ]
    },
    {
      "id": 6535404,
      "priority": 1,
      "initDialog": 653540401,
      "npcId": [
        5354
      ],
      "performCfg": "",
      "assetIndex": 16374016583503140535,
      "prePerformCfg": "",
      "freeStyleList": [
        4040,
        1171,
        1172,
        1173,
        1190
      ]
    },
    {
      "id": 6535405,
      "beginCondComb": "LOGIC_OR",
      "beginCond": [
        {
          "type": "QUEST_COND_STATE_EQUAL",
          "_param": [
            "7405379",
            "2"
          ]
        },
        {
          "type": "QUEST_COND_QUEST_NOT_RECEIVE",
          "_param": [
            "7405379",
            "1"
          ]
        }
      ],
      "priority": 1,
      "initDialog": 653540501,
      "npcId": [
        5354
      ],
      "performCfg": "",
      "assetIndex": 18070638718569610312,
      "prePerformCfg": "",
      "freeStyleList": [
        1171,
        1172,
        1173
      ]
    },
    {
      "id": 6535406,
      "beginCond": [
        {
          "type": "QUEST_COND_STATE_EQUAL",
          "_param": [
            "7405379",
            "3"
          ]
        }
      ],
      "priority": 1,
      "initDialog": 653540601,
      "npcId": [
        5354
      ],
      "performCfg": "",
      "assetIndex": 11059059481184293935,
      "prePerformCfg": "",
      "freeStyleList": [
        1171,
        1172,
        1173
      ]
    },
    {
      "id": 6535407,
      "priority": 1,
      "initDialog": 653540701,
      "npcId": [
        5354
      ],
      "performCfg": "",
      "assetIndex": 3270428171746289744,
      "prePerformCfg": "",
      "freeStyleList": [
        4030
      ]
    },
    {
      "id": 6535408,
      "beginWay": "TALK_BEGIN_MANUAL",
      "beginCondComb": "LOGIC_AND",
      "beginCond": [
        {
          "type": "QUEST_COND_QUEST_GLOBAL_VAR_EQUAL",
          "_param": [
            "7419601",
            "1"
          ]
        },
        {
          "type": "QUEST_COND_STATE_EQUAL",
          "_param": [
            "7421715",
            "3"
          ]
        }
      ],
      "priority": 3,
      "nextTalks": [
        6535404,
        6535405,
        6535406,
        6535407
      ],
      "initDialog": 653540801,
      "npcId": [
        5354
      ],
      "performCfg": "",
      "assetIndex": 4891352893137795695,
      "dontBlockDaily": true,
      "prePerformCfg": ""
    },
    {
      "id": 6535409,
      "beginWay": "TALK_BEGIN_MANUAL",
      "beginCond": [
        {
          "type": "QUEST_COND_QUEST_GLOBAL_VAR_EQUAL",
          "_param": [
            "7419601",
            "1"
          ]
        }
      ],
      "priority": 2,
      "initDialog": 653540901,
      "npcId": [
        5354
      ],
      "performCfg": "",
      "assetIndex": 17594143595224329999,
      "prePerformCfg": "",
      "freeStyleList": [
        1190
      ]
    }
  ]
}