{
  "npcId": 5355,
  "talks": [
    {
      "id": 6535501,
      "beginWay": "TALK_BEGIN_MANUAL",
      "priority": 3,
      "nextTalks": [
        6535502,
        6535503
      ],
      "initDialog": 653550101,
      "npcId": [
        5355
      ],
      "performCfg": "",
      "assetIndex": 855883152490454716,
      "prePerformCfg": "",
      "freeStyleList": [
        1240
      ]
    },
    {
      "id": 6535502,
      "priority": 1,
      "nextTalks": [
        6535504
      ],
      "initDialog": 653550201,
      "npcId": [
        5355
      ],
      "performCfg": "",
      "assetIndex": 4753446231063184341,
      "prePerformCfg": "",
      "freeStyleList": [
        1171,
        1172,
        1173,
        1130,
        1060
      ]
    },
    {
      "id": 6535503,
      "priority": 1,
      "initDialog": 653550301,
      "npcId": [
        5355
      ],
      "performCfg": "",
      "assetIndex": 14762609298367935767,
      "prePerformCfg": "",
      "freeStyleList": [
        4030
      ]
    },
    {
      "id": 6535504,
      "priority": 1,
      "nextTalks": [
        6535506,
        7495001,
        6535505
      ],
      "initDialog": 653550401,
      "npcId": [
        5355
      ],
      "performCfg": "",
      "assetIndex": 15097505037823165086,
      "prePerformCfg": "",
      "freeStyleList": [
        1171,
        1172,
        1173,
        1240
      ]
    },
    {
      "id": 6535505,
      "beginCond": [
        {
          "type": "QUEST_COND_QUEST_GLOBAL_VAR_EQUAL",
          "_param": [
            "402501",
            "1"
          ]
        }
      ],
      "priority": 1,
      "initDialog": 653550501,
      "npcId": [
        5355
      ],
      "performCfg": "",
      "assetIndex": 258354551258289620,
      "prePerformCfg": "",
      "freeStyleList": [
        1171,
        1172,
        1173
      ]
    },
    {
      "id": 6535506,
      "beginCondComb": "LOGIC_OR",
      "beginCond": [
        {
          "type": "QUEST_COND_QUEST_GLOBAL_VAR_EQUAL",
          "_param": [
            "7422301",
            "1"
          ]
        },
        {
          "type": "QUEST_COND_STATE_EQUAL",
          "_param": [
            "7495001",
            "3"
          ]
        }
      ],
      "priority": 1,
      "initDialog": 653550601,
      "npcId": [
        5355
      ],
      "performCfg": "",
      "assetIndex": 876245556165743624,
      "prePerformCfg": ""
    },
    {
      "id": 7495001,
      "beginCondComb": "LOGIC_AND",
      "beginCond": [
        {
          "type": "QUEST_COND_QUEST_NOT_RECEIVE",
          "_param": [
            "7495001",
            "1"
          ]
        },
        {
          "type": "QUEST_COND_QUEST_GLOBAL_VAR_EQUAL",
          "_param": [
            "7422301",
            "0"
          ]
        },
        {
          "type": "QUEST_COND_QUEST_GLOBAL_VAR_EQUAL",
          "_param": [
            "7419601",
            "1"
          ]
        }
      ],
      "priority": 5,
      "initDialog": 749500101,
      "npcId": [
        5355
      ],
      "performCfg": "",
      "assetIndex": 16000277608437017480,
      "dontBlockDaily": true,
      "prePerformCfg": ""
    }
  ]
}