{
  "npcId": 5362,
  "talks": [
    {
      "id": 7422107,
      "beginWay": "TALK_BEGIN_MANUAL",
      "activeMode": "PLAY_MODE_ALL",
      "priority": 5,
      "npcId": [
        5362
      ],
      "performCfg": "QuestDialogue/WQ/Fontaine_74221/Q7422107",
      "assetIndex": 16400879187753807023,
      "prePerformCfg": ""
    }
  ]
}