{
  "npcId": 5365,
  "talks": [
    {
      "id": 7422115,
      "beginWay": "TALK_BEGIN_MANUAL",
      "activeMode": "PLAY_MODE_ALL",
      "priority": 5,
      "npcId": [
        5365
      ],
      "performCfg": "QuestDialogue/WQ/Fontaine_74221/Q7422115",
      "assetIndex": 10719767570908277549,
      "prePerformCfg": ""
    }
  ]
}