{
  "npcId": 5375,
  "talks": [
    {
      "id": 7422109,
      "beginWay": "TALK_BEGIN_MANUAL",
      "activeMode": "PLAY_MODE_ALL",
      "priority": 5,
      "initDialog": 742210901,
      "npcId": [
        5375
      ],
      "performCfg": "",
      "assetIndex": 9865436107656276960,
      "prePerformCfg": ""
    }
  ]
}