{
  "npcId": 5377,
  "talks": [
    {
      "id": 7422111,
      "beginWay": "TALK_BEGIN_MANUAL",
      "activeMode": "PLAY_MODE_ALL",
      "priority": 5,
      "initDialog": 742211101,
      "npcId": [
        5377
      ],
      "performCfg": "",
      "assetIndex": 11192823800967164193,
      "prePerformCfg": ""
    }
  ]
}