{
  "npcId": 5904,
  "talks": [
    {
      "id": 30335,
      "beginWay": "TALK_BEGIN_MANUAL",
      "beginCond": [
        {
          "type": "QUEST_COND_STATE_NOT_EQUAL",
          "_param": [
            "30335",
            "3"
          ]
        }
      ],
      "initDialog": 3033501,
      "npcId": [
        5904
      ],
      "performCfg": "",
      "assetIndex": 7903148763072658227,
      "prePerformCfg": ""
    },
    {
      "id": 31156,
      "activeMode": "PLAY_MODE_ALL",
      "priority": 1,
      "initDialog": 3115601,
      "npcId": [
        1201,
        1202,
        1203,
        1204,
        1205,
        1206,
        1207,
        1208,
        1209,
        1268,
        1272,
        1273,
        1274,
        1275,
        1277,
        1278,
        1279,
        1281,
        1282,
        1283,
        1284,
        1285,
        1286,
        1287,
        1288,
        4900,
        4901,
        4902,
        4903,
        4905,
        4906,
        5900,
        5901,
        5902,
        5903,
        5904,
        5905,
        5906,
        1289,
        1290,
        5907,
        6900,
        6901,
        6902,
        6903
      ],
      "performCfg": "",
      "assetIndex": 9493463439961886167,
      "prePerformCfg": ""
    },
    {
      "id": 31157,
      "activeMode": "PLAY_MODE_ALL",
      "beginCond": [
        {
          "type": "QUEST_COND_IS_WORLD_OWNER",
          "_param": [
            "1"
          ]
        }
      ],
      "priority": 1,
      "initDialog": 3115701,
      "npcId": [
        1201,
        1202,
        1203,
        1204,
        1205,
        1206,
        1207,
        1208,
        1209,
        1268,
        1272,
        1273,
        1274,
        1275,
        1277,
        1278,
        1279,
        1281,
        1282,
        1283,
        1284,
        1285,
        1286,
        1287,
        1288,
        4900,
        4901,
        4902,
        4903,
        4905,
        4906,
        5900,
        5901,
        5902,
        5903,
        5904,
        5905,
        5906,
        1289,
        1290,
        5907,
        6900,
        6901,
        6902,
        6903
      ],
      "performCfg": "",
      "assetIndex": 8055399952729395750,
      "prePerformCfg": ""
    },
    {
      "id": 31158,
      "activeMode": "PLAY_MODE_ALL",
      "beginCond": [
        {
          "type": "QUEST_COND_IS_WORLD_OWNER",
          "_param": [
            "1"
          ]
        }
      ],
      "priority": 1,
      "initDialog": 3115801,
      "npcId": [
        1201,
        1202,
        1203,
        1204,
        1205,
        1206,
        1207,
        1208,
        1209,
        1268,
        1272,
        1273,
        1274,
        1275,
        1277,
        1278,
        1279,
        1281,
        1282,
        1283,
        1284,
        1285,
        1286,
        1287,
        1288,
        4900,
        4901,
        4902,
        4903,
        4905,
        4906,
        5900,
        5901,
        5902,
        5903,
        5904,
        5905,
        5906,
        1289,
        1290,
        5907,
        6900,
        6901,
        6902,
        6903
      ],
      "performCfg": "",
      "assetIndex": 17930934495495136497,
      "prePerformCfg": ""
    },
    {
      "id": 31186,
      "activeMode": "PLAY_MODE_ALL",
      "beginCondComb": "LOGIC_AND",
      "beginCond": [
        {
          "type": "QUEST_COND_AVATAR_ELEMENT_NOT_EQUAL",
          "_param": [
            "2"
          ]
        },
        {
          "type": "QUEST_COND_AVATAR_CAN_CHANGE_ELEMENT",
          "_param": [
            "1"
          ]
        },
        {
          "type": "QUEST_COND_STATE_EQUAL",
          "_param": [
            "35205",
            "3"
          ]
        }
      ],
      "priority": 1,
      "initDialog": 3118601,
      "npcId": [
        5900,
        5901,
        5902,
        5903,
        5904,
        5905,
        5906,
        5907
      ],
      "performCfg": "",
      "assetIndex": 2079049249053098608,
      "prePerformCfg": ""
    },
    {
      "id": 31191,
      "beginWay": "TALK_BEGIN_MANUAL",
      "activeMode": "PLAY_MODE_ALL",
      "beginCondComb": "LOGIC_AND",
      "beginCond": [
        {
          "type": "QUEST_COND_STATE_EQUAL",
          "_param": [
            "30335",
            "3"
          ]
        },
        {
          "type": "QUEST_COND_SCENE_AREA_UNLOCKED",
          "_param": [
            "3",
            "37"
          ]
        }
      ],
      "nextTalks": [
        31158,
        31186,
        31157,
        31156
      ],
      "initDialog": 3119101,
      "npcId": [
        5904
      ],
      "performCfg": "",
      "assetIndex": 14391547321750103296,
      "prePerformCfg": ""
    }
  ]
}