{
  "npcId": 6022,
  "talks": [
    {
      "id": 6602201,
      "beginWay": "TALK_BEGIN_MANUAL",
      "priority": 5,
      "nextTalks": [
        6602202,
        6602203
      ],
      "initDialog": 660220101,
      "npcId": [
        6022
      ],
      "performCfg": "",
      "assetIndex": 12672782192723152568,
      "prePerformCfg": "",
      "freeStyleList": [
        1171,
        1172,
        1173
      ]
    },
    {
      "id": 6602202,
      "priority": 5,
      "nextTalks": [
        6602204
      ],
      "initDialog": 660220201,
      "npcId": [
        6022
      ],
      "performCfg": "",
      "assetIndex": 16897454633452182678,
      "prePerformCfg": "",
      "freeStyleList": [
        1171,
        1172,
        1173,
        1060
      ]
    },
    {
      "id": 6602203,
      "priority": 5,
      "initDialog": 660220301,
      "npcId": [
        6022
      ],
      "performCfg": "",
      "assetIndex": 10857645960207916346,
      "prePerformCfg": "",
      "freeStyleList": [
        1171,
        1172,
        1173
      ]
    },
    {
      "id": 6602204,
      "priority": 5,
      "nextTalks": [
        7591201
      ],
      "initDialog": 660220401,
      "npcId": [
        6022
      ],
      "performCfg": "",
      "assetIndex": 681333898097610728,
      "prePerformCfg": "",
      "freeStyleList": [
        1171,
        1172,
        1173,
        1190,
        1230
      ]
    },
    {
      "id": 7591201,
      "beginCond": [
        {
          "type": "QUEST_COND_QUEST_NOT_RECEIVE",
          "_param": [
            "7591201",
            "1"
          ]
        }
      ],
      "priority": 5,
      "initDialog": 759120101,
      "npcId": [
        6022
      ],
      "performCfg": "",
      "assetIndex": 16392916131541821763,
      "dontBlockDaily": true,
      "prePerformCfg": "",
      "freeStyleList": [
        1190,
        1150,
        1060
      ]
    }
  ]
}