{
  "npcId": 6026,
  "talks": [
    {
      "id": 6602601,
      "beginWay": "TALK_BEGIN_MANUAL",
      "beginCond": [
        {
          "type": "QUEST_COND_QUEST_GLOBAL_VAR_EQUAL",
          "_param": [
            "500701",
            "0"
          ]
        }
      ],
      "priority": 5,
      "initDialog": 660260101,
      "npcId": [
        6026,
        6027
      ],
      "performCfg": "",
      "assetIndex": 1215352942727911345,
      "prePerformCfg": "",
      "stayFreeStyle": true
    },
    {
      "id": 6602602,
      "beginWay": "TALK_BEGIN_MANUAL",
      "beginCond": [
        {
          "type": "QUEST_COND_QUEST_GLOBAL_VAR_EQUAL",
          "_param": [
            "500701",
            "1"
          ]
        }
      ],
      "priority": 5,
      "initDialog": 660260201,
      "npcId": [
        6026,
        6027
      ],
      "performCfg": "",
      "assetIndex": 13845158482094596732,
      "prePerformCfg": "",
      "stayFreeStyle": true
    }
  ]
}