{
  "npcId": 6041,
  "talks": [
    {
      "id": 6604101,
      "beginWay": "TALK_BEGIN_MANUAL",
      "priority": 5,
      "nextTalks": [
        6604102,
        6604103
      ],
      "initDialog": 660410101,
      "npcId": [
        6041
      ],
      "performCfg": "",
      "assetIndex": 8809051668682646690,
      "prePerformCfg": "",
      "freeStyleList": [
        1171,
        1172,
        1173
      ]
    },
    {
      "id": 6604102,
      "priority": 5,
      "nextTalks": [
        7592001
      ],
      "initDialog": 660410201,
      "npcId": [
        6041
      ],
      "performCfg": "",
      "assetIndex": 11997258700937497725,
      "prePerformCfg": "",
      "freeStyleList": [
        4030,
        1171,
        1172,
        1173
      ]
    },
    {
      "id": 6604103,
      "priority": 5,
      "initDialog": 660410301,
      "npcId": [
        6041
      ],
      "performCfg": "",
      "assetIndex": 13794511696857466468,
      "prePerformCfg": "",
      "freeStyleList": [
        1171,
        1172,
        1173
      ]
    },
    {
      "id": 7592001,
      "beginCond": [
        {
          "type": "QUEST_COND_QUEST_NOT_RECEIVE",
          "_param": [
            "7592001",
            "1"
          ]
        }
      ],
      "priority": 5,
      "initDialog": 759200101,
      "npcId": [
        6041
      ],
      "performCfg": "",
      "assetIndex": 10561007006576415124,
      "dontBlockDaily": true,
      "prePerformCfg": "",
      "freeStyleList": [
        1171,
        1172,
        1173,
        1130
      ]
    }
  ]
}