{
  "npcId": 6047,
  "talks": [
    {
      "id": 6604701,
      "beginWay": "TALK_BEGIN_MANUAL",
      "priority": 5,
      "nextTalks": [
        6604702,
        6604703
      ],
      "initDialog": 660470101,
      "npcId": [
        6047
      ],
      "performCfg": "",
      "assetIndex": 14249576116425247262,
      "prePerformCfg": "",
      "freeStyleList": [
        1200
      ]
    },
    {
      "id": 6604702,
      "priority": 5,
      "initDialog": 660470201,
      "npcId": [
        6047
      ],
      "performCfg": "",
      "assetIndex": 10900165562414925780,
      "prePerformCfg": "",
      "freeStyleList": [
        1171,
        1172,
        1173,
        1060
      ]
    },
    {
      "id": 6604703,
      "priority": 5,
      "initDialog": 660470301,
      "npcId": [
        6047
      ],
      "performCfg": "",
      "assetIndex": 585420544802980259,
      "prePerformCfg": "",
      "freeStyleList": [
        1171,
        1172,
        1173
      ]
    }
  ]
}