{
  "npcId": 6048,
  "talks": [
    {
      "id": 6604801,
      "beginWay": "TALK_BEGIN_MANUAL",
      "priority": 5,
      "initDialog": 660480101,
      "npcId": [
        6048,
        6049
      ],
      "performCfg": "",
      "assetIndex": 16342962868476623226,
      "prePerformCfg": "",
      "stayFreeStyle": true
    }
  ]
}