{
  "npcId": 6050,
  "talks": [
    {
      "id": 6605001,
      "beginWay": "TALK_BEGIN_MANUAL",
      "priority": 5,
      "nextTalks": [
        6605002,
        6605003
      ],
      "initDialog": 660500101,
      "npcId": [
        6050
      ],
      "performCfg": "",
      "assetIndex": 16125979709268268283,
      "prePerformCfg": "",
      "freeStyleList": [
        1171,
        1172,
        1173
      ]
    },
    {
      "id": 6605002,
      "priority": 5,
      "nextTalks": [
        6605004
      ],
      "initDialog": 660500201,
      "npcId": [
        6050
      ],
      "performCfg": "",
      "assetIndex": 5977569933585451659,
      "prePerformCfg": "",
      "freeStyleList": [
        4040,
        1171,
        1172,
        1173
      ]
    },
    {
      "id": 6605003,
      "priority": 5,
      "initDialog": 660500301,
      "npcId": [
        6050
      ],
      "performCfg": "",
      "assetIndex": 4522938604814144369,
      "prePerformCfg": "",
      "freeStyleList": [
        1171,
        1172,
        1173
      ]
    },
    {
      "id": 6605004,
      "priority": 5,
      "initDialog": 660500401,
      "npcId": [
        6050
      ],
      "performCfg": "",
      "assetIndex": 10567046587966166080,
      "prePerformCfg": "",
      "freeStyleList": [
        1171,
        1172,
        1173,
        1190
      ]
    }
  ]
}