{
  "npcId": 6053,
  "talks": [
    {
      "id": 6605301,
      "beginWay": "TALK_BEGIN_MANUAL",
      "priority": 5,
      "nextTalks": [
        6605302,
        6605303
      ],
      "initDialog": 660530101,
      "npcId": [
        6053
      ],
      "performCfg": "",
      "assetIndex": 3337178932969086008,
      "prePerformCfg": "",
      "freeStyleList": [
        1171,
        1172,
        1173
      ]
    },
    {
      "id": 6605302,
      "priority": 5,
      "nextTalks": [
        6605304
      ],
      "initDialog": 660530201,
      "npcId": [
        6053
      ],
      "performCfg": "",
      "assetIndex": 17651262817446074873,
      "prePerformCfg": "",
      "freeStyleList": [
        1171,
        1172,
        1173,
        1130
      ]
    },
    {
      "id": 6605303,
      "priority": 5,
      "initDialog": 660530301,
      "npcId": [
        6053
      ],
      "performCfg": "",
      "assetIndex": 14945000318164888340,
      "prePerformCfg": "",
      "freeStyleList": [
        4030
      ]
    },
    {
      "id": 6605304,
      "priority": 5,
      "nextTalks": [
        7592201
      ],
      "initDialog": 660530401,
      "npcId": [
        6053
      ],
      "performCfg": "",
      "assetIndex": 18051312874489664325,
      "prePerformCfg": "",
      "freeStyleList": [
        1060,
        1190,
        1171,
        1172,
        1173
      ]
    },
    {
      "id": 7592201,
      "beginCond": [
        {
          "type": "QUEST_COND_QUEST_NOT_RECEIVE",
          "_param": [
            "7592201",
            "1"
          ]
        }
      ],
      "priority": 5,
      "initDialog": 759220101,
      "npcId": [
        6053
      ],
      "performCfg": "",
      "assetIndex": 407146541818091019,
      "dontBlockDaily": true,
      "prePerformCfg": "",
      "freeStyleList": [
        1171,
        1172,
        1173
      ]
    }
  ]
}