{
  "npcId": 6061,
  "talks": [
    {
      "id": 6606101,
      "beginWay": "TALK_BEGIN_MANUAL",
      "priority": 5,
      "nextTalks": [
        6606102,
        6606103
      ],
      "initDialog": 660610101,
      "npcId": [
        6061
      ],
      "performCfg": "",
      "assetIndex": 12804759152279322660,
      "prePerformCfg": "",
      "stayFreeStyle": true
    },
    {
      "id": 6606102,
      "priority": 5,
      "nextTalks": [
        6606104
      ],
      "initDialog": 660610201,
      "npcId": [
        6061
      ],
      "performCfg": "",
      "assetIndex": 13937483850589878775,
      "prePerformCfg": "",
      "freeStyleList": [
        1171,
        1172,
        1173,
        1050
      ]
    },
    {
      "id": 6606103,
      "priority": 5,
      "initDialog": 660610301,
      "npcId": [
        6061
      ],
      "performCfg": "",
      "assetIndex": 8703890292540493453,
      "prePerformCfg": "",
      "freeStyleList": [
        4030
      ]
    },
    {
      "id": 6606104,
      "priority": 5,
      "initDialog": 660610401,
      "npcId": [
        6061
      ],
      "performCfg": "",
      "assetIndex": 5521197488938005094,
      "prePerformCfg": "",
      "freeStyleList": [
        4030,
        1130,
        1171,
        1172,
        1173
      ]
    }
  ]
}