{
  "npcId": 6065,
  "talks": [
    {
      "id": 6606501,
      "beginWay": "TALK_BEGIN_MANUAL",
      "priority": 5,
      "nextTalks": [
        6606502,
        6606503
      ],
      "initDialog": 660650101,
      "npcId": [
        6065
      ],
      "performCfg": "",
      "assetIndex": 9599903292579832369,
      "prePerformCfg": "",
      "stayFreeStyle": true
    },
    {
      "id": 6606502,
      "priority": 5,
      "nextTalks": [
        7592801
      ],
      "initDialog": 660650201,
      "npcId": [
        6065
      ],
      "performCfg": "",
      "assetIndex": 1767504141134041607,
      "prePerformCfg": "",
      "freeStyleList": [
        1060,
        1160,
        1171,
        1172,
        1173,
        1190
      ]
    },
    {
      "id": 6606503,
      "priority": 5,
      "initDialog": 660650301,
      "npcId": [
        6065
      ],
      "performCfg": "",
      "assetIndex": 8724343901320047133,
      "prePerformCfg": "",
      "freeStyleList": [
        1171,
        1172,
        1173
      ]
    },
    {
      "id": 7592801,
      "beginCond": [
        {
          "type": "QUEST_COND_QUEST_NOT_RECEIVE",
          "_param": [
            "7592801",
            "1"
          ]
        }
      ],
      "priority": 5,
      "initDialog": 759280101,
      "npcId": [
        6065
      ],
      "performCfg": "",
      "assetIndex": 11363726927313022226,
      "dontBlockDaily": true,
      "prePerformCfg": "",
      "freeStyleList": [
        1171,
        1172,
        1173,
        1030
      ]
    }
  ]
}