{
  "npcId": 6076,
  "talks": [
    {
      "id": 6607601,
      "beginWay": "TALK_BEGIN_MANUAL",
      "priority": 5,
      "nextTalks": [
        7511113,
        7511133,
        6607602,
        6607603
      ],
      "initDialog": 660760101,
      "npcId": [
        6076
      ],
      "performCfg": "",
      "assetIndex": 17761817078764498740,
      "prePerformCfg": "",
      "freeStyleList": [
        1240
      ]
    },
    {
      "id": 6607602,
      "priority": 5,
      "nextTalks": [
        6607604
      ],
      "initDialog": 660760201,
      "npcId": [
        6076
      ],
      "performCfg": "",
      "assetIndex": 8606735832561344822,
      "prePerformCfg": "",
      "freeStyleList": [
        1171,
        1172,
        1173,
        1060
      ]
    },
    {
      "id": 6607603,
      "priority": 5,
      "initDialog": 660760301,
      "npcId": [
        6076
      ],
      "performCfg": "",
      "assetIndex": 15783531325681178406,
      "prePerformCfg": "",
      "freeStyleList": [
        1150
      ]
    },
    {
      "id": 6607604,
      "priority": 5,
      "nextTalks": [
        7593201
      ],
      "initDialog": 660760401,
      "npcId": [
        6076
      ],
      "performCfg": "",
      "assetIndex": 661882186316422037,
      "prePerformCfg": "",
      "freeStyleList": [
        1171,
        1172,
        1173
      ]
    },
    {
      "id": 7593201,
      "beginCond": [
        {
          "type": "QUEST_COND_QUEST_NOT_RECEIVE",
          "_param": [
            "7593201",
            "1"
          ]
        }
      ],
      "priority": 5,
      "initDialog": 759320101,
      "npcId": [
        6076
      ],
      "performCfg": "",
      "assetIndex": 14153297842796425326,
      "dontBlockDaily": true,
      "prePerformCfg": "",
      "freeStyleList": [
        1190,
        1171,
        1172,
        1173
      ]
    }
  ]
}