{
  "npcId": 6084,
  "talks": [
    {
      "id": 6608401,
      "beginWay": "TALK_BEGIN_MANUAL",
      "priority": 5,
      "nextTalks": [
        7511112,
        7511132,
        6608402,
        6608403,
        6608404
      ],
      "initDialog": 660840101,
      "npcId": [
        6084
      ],
      "performCfg": "",
      "assetIndex": 5752017644380284157,
      "prePerformCfg": "",
      "freeStyleList": [
        1200
      ]
    },
    {
      "id": 6608402,
      "priority": 5,
      "initDialog": 660840201,
      "npcId": [
        6084
      ],
      "performCfg": "",
      "assetIndex": 15001229497191596815,
      "prePerformCfg": "",
      "freeStyleList": [
        1030
      ]
    },
    {
      "id": 6608403,
      "priority": 5,
      "nextTalks": [
        6608405
      ],
      "initDialog": 660840301,
      "npcId": [
        6084
      ],
      "performCfg": "",
      "assetIndex": 977924907012857842,
      "prePerformCfg": "",
      "freeStyleList": [
        4030,
        1171,
        1172,
        1173,
        1230
      ]
    },
    {
      "id": 6608404,
      "priority": 5,
      "initDialog": 660840401,
      "npcId": [
        6084
      ],
      "performCfg": "",
      "assetIndex": 18413603121591893501,
      "prePerformCfg": "",
      "freeStyleList": [
        1030
      ]
    },
    {
      "id": 6608405,
      "priority": 5,
      "initDialog": 660840501,
      "npcId": [
        6084
      ],
      "performCfg": "",
      "assetIndex": 10583541419992899308,
      "prePerformCfg": "",
      "freeStyleList": [
        4040,
        1171,
        1172,
        1173
      ]
    }
  ]
}