{
  "npcId": 6095,
  "talks": [
    {
      "id": 5900208,
      "beginCond": [
        {
          "type": "QUEST_COND_OPEN_STATE_EQUAL",
          "_param": [
            "5016",
            "1"
          ]
        }
      ],
      "priority": 2,
      "nextTalks": [
        5900209,
        5900210,
        5900211,
        5900212,
        5900213,
        5900214,
        5900215,
        5900216,
        5900217
      ],
      "initDialog": 590020801,
      "npcId": [
        6095
      ],
      "performCfg": "",
      "assetIndex": 1645333766172141510,
      "prePerformCfg": ""
    },
    {
      "id": 5900209,
      "beginCond": [
        {
          "type": "QUEST_COND_NOT_HAVE_BLOSSOM_TALK"
        }
      ],
      "priority": 1,
      "initDialog": 590020901,
      "npcId": [
        6095
      ],
      "performCfg": "",
      "assetIndex": 10147132083406346264,
      "prePerformCfg": ""
    },
    {
      "id": 6609501,
      "beginWay": "TALK_BEGIN_MANUAL",
      "priority": 5,
      "nextTalks": [
        5900208,
        6609502,
        6609503
      ],
      "initDialog": 660950101,
      "npcId": [
        6095
      ],
      "performCfg": "",
      "assetIndex": 818685266806793092,
      "prePerformCfg": "",
      "freeStyleList": [
        1171,
        1172,
        1173
      ]
    },
    {
      "id": 6609502,
      "priority": 5,
      "nextTalks": [
        6609504
      ],
      "initDialog": 660950201,
      "npcId": [
        6095
      ],
      "performCfg": "",
      "assetIndex": 5304147459524447751,
      "prePerformCfg": "",
      "freeStyleList": [
        1171,
        1172,
        1173,
        1230
      ]
    },
    {
      "id": 6609503,
      "priority": 5,
      "initDialog": 660950301,
      "npcId": [
        6095
      ],
      "performCfg": "",
      "assetIndex": 10526583434626522333,
      "prePerformCfg": "",
      "freeStyleList": [
        4030
      ]
    },
    {
      "id": 6609504,
      "priority": 5,
      "initDialog": 660950401,
      "npcId": [
        6095
      ],
      "performCfg": "",
      "assetIndex": 8829911806272710363,
      "prePerformCfg": "",
      "freeStyleList": [
        4030,
        1171,
        1172,
        1173,
        1060
      ]
    }
  ]
}