{
  "npcId": 6098,
  "talks": [
    {
      "id": 6609801,
      "beginWay": "TALK_BEGIN_MANUAL",
      "priority": 5,
      "nextTalks": [
        6609802,
        6609803
      ],
      "initDialog": 660980101,
      "npcId": [
        6098
      ],
      "performCfg": "",
      "assetIndex": 5103224842534401699,
      "prePerformCfg": "",
      "freeStyleList": [
        1200
      ]
    },
    {
      "id": 6609802,
      "priority": 5,
      "nextTalks": [
        6609804
      ],
      "initDialog": 660980201,
      "npcId": [
        6098
      ],
      "performCfg": "",
      "assetIndex": 10409107237262944927,
      "prePerformCfg": "",
      "freeStyleList": [
        4030,
        1171,
        1172,
        1173
      ]
    },
    {
      "id": 6609803,
      "priority": 5,
      "initDialog": 660980301,
      "npcId": [
        6098
      ],
      "performCfg": "",
      "assetIndex": 4887800151826669702,
      "prePerformCfg": "",
      "freeStyleList": [
        1171,
        1172,
        1173
      ]
    },
    {
      "id": 6609804,
      "priority": 5,
      "initDialog": 660980401,
      "npcId": [
        6098
      ],
      "performCfg": "",
      "assetIndex": 17916844281878797521,
      "prePerformCfg": "",
      "freeStyleList": [
        1190,
        1171,
        1172,
        1173
      ]
    }
  ]
}