{
  "npcId": 6099,
  "talks": [
    {
      "id": 6609901,
      "beginWay": "TALK_BEGIN_MANUAL",
      "priority": 5,
      "nextTalks": [
        6609902,
        6609903,
        6609904
      ],
      "initDialog": 660990101,
      "npcId": [
        6099
      ],
      "performCfg": "",
      "assetIndex": 17131740780644665972,
      "prePerformCfg": "",
      "freeStyleList": [
        1171,
        1172,
        1173
      ]
    },
    {
      "id": 6609902,
      "priority": 5,
      "nextTalks": [
        6609905
      ],
      "initDialog": 660990201,
      "npcId": [
        6099
      ],
      "performCfg": "",
      "assetIndex": 14464940213661553898,
      "prePerformCfg": "",
      "freeStyleList": [
        4030,
        1130,
        1150,
        1171,
        1172,
        1173
      ]
    },
    {
      "id": 6609903,
      "priority": 5,
      "initDialog": 660990301,
      "npcId": [
        6099
      ],
      "performCfg": "",
      "assetIndex": 379152499807260625,
      "prePerformCfg": "",
      "freeStyleList": [
        1150,
        1190,
        1171,
        1172,
        1173
      ]
    },
    {
      "id": 6609904,
      "priority": 5,
      "initDialog": 660990401,
      "npcId": [
        6099
      ],
      "performCfg": "",
      "assetIndex": 9999650246787621255,
      "prePerformCfg": "",
      "freeStyleList": [
        4030
      ]
    },
    {
      "id": 6609905,
      "priority": 5,
      "initDialog": 660990501,
      "npcId": [
        6099
      ],
      "performCfg": "",
      "assetIndex": 8770433943428872882,
      "prePerformCfg": "",
      "freeStyleList": [
        4030,
        1171,
        1172,
        1173,
        1060
      ]
    }
  ]
}