{
  "npcId": 6109,
  "talks": [
    {
      "id": 6610901,
      "beginWay": "TALK_BEGIN_MANUAL",
      "priority": 5,
      "nextTalks": [
        6610902,
        6610903
      ],
      "initDialog": 661090101,
      "npcId": [
        6109
      ],
      "performCfg": "",
      "assetIndex": 2762433103828276936,
      "prePerformCfg": "",
      "freeStyleList": [
        1230
      ]
    },
    {
      "id": 6610902,
      "priority": 5,
      "initDialog": 661090201,
      "npcId": [
        6109
      ],
      "performCfg": "",
      "assetIndex": 8715455023894662453,
      "prePerformCfg": "",
      "freeStyleList": [
        1171,
        1172,
        1173,
        1030
      ]
    },
    {
      "id": 6610903,
      "priority": 5,
      "initDialog": 661090301,
      "npcId": [
        6109
      ],
      "performCfg": "",
      "assetIndex": 13576504589072502323,
      "prePerformCfg": "",
      "freeStyleList": [
        4030
      ]
    }
  ]
}