{
  "npcId": 6113,
  "talks": [
    {
      "id": 6611301,
      "beginWay": "TALK_BEGIN_MANUAL",
      "priority": 5,
      "nextTalks": [
        6611302,
        6611303
      ],
      "initDialog": 661130101,
      "npcId": [
        6113
      ],
      "performCfg": "",
      "assetIndex": 10300065739832796457,
      "prePerformCfg": "",
      "freeStyleList": [
        1171,
        1172,
        1173
      ]
    },
    {
      "id": 6611302,
      "priority": 5,
      "initDialog": 661130201,
      "npcId": [
        6113
      ],
      "performCfg": "",
      "assetIndex": 12554123005992446334,
      "prePerformCfg": "",
      "freeStyleList": [
        4030
      ]
    },
    {
      "id": 6611303,
      "priority": 5,
      "initDialog": 661130301,
      "npcId": [
        6113
      ],
      "performCfg": "",
      "assetIndex": 12946027297781437612,
      "prePerformCfg": "",
      "freeStyleList": [
        4030
      ]
    }
  ]
}