{
  "npcId": 6140,
  "talks": [
    {
      "id": 6614001,
      "beginWay": "TALK_BEGIN_MANUAL",
      "activeMode": "PLAY_MODE_ALL",
      "priority": 5,
      "initDialog": 661400101,
      "npcId": [
        6140
      ],
      "performCfg": "",
      "assetIndex": 16290453871060729062,
      "prePerformCfg": ""
    }
  ]
}