{
  "npcId": 6145,
  "talks": [
    {
      "id": 7502117,
      "beginWay": "TALK_BEGIN_MANUAL",
      "priority": 3,
      "initDialog": 750211701,
      "npcId": [
        6144,
        6145
      ],
      "performCfg": "",
      "assetIndex": 18340833903449025556,
      "prePerformCfg": ""
    },
    {
      "id": 7502119,
      "beginWay": "TALK_BEGIN_MANUAL",
      "beginCond": [
        {
          "type": "QUEST_COND_STATE_EQUAL",
          "_param": [
            "7502113",
            "3"
          ]
        }
      ],
      "priority": 5,
      "initDialog": 750211901,
      "npcId": [
        6145
      ],
      "performCfg": "",
      "assetIndex": 14303356259911907600,
      "prePerformCfg": "",
      "freeStyleList": [
        1171,
        1172,
        1173
      ]
    }
  ]
}