{
  "npcId": 6207,
  "talks": [
    {
      "id": 7505202,
      "beginWay": "TALK_BEGIN_MANUAL",
      "activeMode": "PLAY_MODE_HOST",
      "beginCondComb": "LOGIC_AND",
      "beginCond": [
        {
          "type": "QUEST_COND_STATE_EQUAL",
          "_param": [
            "7503429",
            "3"
          ]
        }
      ],
      "priority": 5,
      "initDialog": 750520201,
      "npcId": [
        6207
      ],
      "performCfg": "",
      "assetIndex": 11955818613267644759,
      "prePerformCfg": ""
    }
  ]
}