{
  "npcId": 6254,
  "talks": [
    {
      "id": 7503434,
      "beginWay": "TALK_BEGIN_MANUAL",
      "activeMode": "PLAY_MODE_HOST",
      "priority": 5,
      "initDialog": 750343401,
      "npcId": [
        6254
      ],
      "performCfg": "",
      "assetIndex": 5019744931468500665,
      "prePerformCfg": ""
    }
  ]
}