{
  "npcId": 6262,
  "talks": [
    {
      "id": 7505213,
      "beginWay": "TALK_BEGIN_MANUAL",
      "activeMode": "PLAY_MODE_HOST",
      "priority": 4,
      "initDialog": 750521301,
      "npcId": [
        6262
      ],
      "performCfg": "",
      "assetIndex": 7098745008244204695,
      "prePerformCfg": "",
      "GPONOMBBGJI": true
    },
    {
      "id": 7505214,
      "beginWay": "TALK_BEGIN_MANUAL",
      "activeMode": "PLAY_MODE_HOST",
      "beginCondComb": "LOGIC_AND",
      "beginCond": [
        {
          "type": "QUEST_COND_IN_VEHICLE_BY_FEATURETAG",
          "_param": [
            "30010"
          ]
        }
      ],
      "priority": 5,
      "initDialog": 750521401,
      "npcId": [
        6262
      ],
      "performCfg": "",
      "assetIndex": 14586932610347936774,
      "prePerformCfg": "",
      "GPONOMBBGJI": true
    }
  ]
}