{
  "npcId": 86,
  "talks": [
    {
      "id": 31234,
      "beginWay": "TALK_BEGIN_MANUAL",
      "activeMode": "PLAY_MODE_ALL",
      "priority": 1,
      "nextTalks": [
        31235,
        31236
      ],
      "initDialog": 3123401,
      "npcId": [
        86
      ],
      "performCfg": "",
      "assetIndex": 10001066492452437765,
      "prePerformCfg": ""
    },
    {
      "id": 31235,
      "activeMode": "PLAY_MODE_ALL",
      "nextTalks": [
        31237,
        31238,
        31239,
        31240,
        31241,
        31242
      ],
      "initDialog": 3123501,
      "npcId": [
        86
      ],
      "performCfg": "",
      "assetIndex": 1387718827572108470,
      "prePerformCfg": ""
    },
    {
      "id": 31236,
      "activeMode": "PLAY_MODE_ALL",
      "initDialog": 3123601,
      "npcId": [
        86
      ],
      "performCfg": "",
      "assetIndex": 3381740727319885622,
      "prePerformCfg": ""
    },
    {
      "id": 31237,
      "activeMode": "PLAY_MODE_ALL",
      "nextTalks": [
        31243
      ],
      "initDialog": 3123701,
      "npcId": [
        86
      ],
      "performCfg": "",
      "assetIndex": 15794733701405291228,
      "prePerformCfg": ""
    },
    {
      "id": 31238,
      "activeMode": "PLAY_MODE_ALL",
      "nextTalks": [
        31243
      ],
      "initDialog": 3123801,
      "npcId": [
        86
      ],
      "performCfg": "",
      "assetIndex": 8744636471751931818,
      "prePerformCfg": ""
    },
    {
      "id": 31239,
      "activeMode": "PLAY_MODE_ALL",
      "nextTalks": [
        31243
      ],
      "initDialog": 3123901,
      "npcId": [
        86
      ],
      "performCfg": "",
      "assetIndex": 5555074347011730242,
      "prePerformCfg": ""
    },
    {
      "id": 31240,
      "activeMode": "PLAY_MODE_ALL",
      "nextTalks": [
        31243
      ],
      "initDialog": 3124001,
      "npcId": [
        86
      ],
      "performCfg": "",
      "assetIndex": 5804844613127943322,
      "prePerformCfg": ""
    },
    {
      "id": 31241,
      "activeMode": "PLAY_MODE_ALL",
      "nextTalks": [
        31243
      ],
      "initDialog": 3124101,
      "npcId": [
        86
      ],
      "performCfg": "",
      "assetIndex": 2599102008997750920,
      "prePerformCfg": ""
    },
    {
      "id": 31242,
      "activeMode": "PLAY_MODE_ALL",
      "initDialog": 3124201,
      "npcId": [
        86
      ],
      "performCfg": "",
      "assetIndex": 2691001525839178745,
      "prePerformCfg": ""
    },
    {
      "id": 31243,
      "activeMode": "PLAY_MODE_ALL",
      "nextTalks": [
        31237,
        31238,
        31239,
        31240,
        31241,
        31242
      ],
      "initDialog": 3124301,
      "npcId": [
        86
      ],
      "performCfg": "",
      "assetIndex": 911273157391876435,
      "prePerformCfg": ""
    }
  ]
}