{
  "npcId": 9004,
  "talks": [
    {
      "id": 1,
      "beginWay": "TALK_BEGIN_MANUAL",
      "priority": 3,
      "initDialog": 101,
      "npcId": [
        9004
      ],
      "performCfg": "QuestDialogue/Test/InterContainer_Test1",
      "assetIndex": 17977232968758126527,
      "prePerformCfg": ""
    }
  ]
}