{
  "npcId": 9006,
  "talks": [
    {
      "id": 6900601,
      "beginWay": "TALK_BEGIN_MANUAL",
      "activeMode": "PLAY_MODE_HOST",
      "priority": 5,
      "nextTalks": [
        6900623,
        6900619,
        6900615,
        6900614,
        6900602,
        6900612,
        6900603,
        6900613,
        6900604,
        6900605,
        6900606
      ],
      "initDialog": 690060101,
      "npcId": [
        9006
      ],
      "performCfg": "QuestDialogue/HomeWorld/Lisa_9006/Q6900601",
      "heroTalk": "TALK_HERO_MAIN",
      "assetIndex": 14085020284843237232,
      "prePerformCfg": ""
    },
    {
      "id": 6900602,
      "activeMode": "PLAY_MODE_HOST",
      "beginCond": [
        {
          "type": "QUEST_COND_HOMEWORLD_NPC_NEW_TALK",
          "_param": [
            "9006",
            "6900602",
            "1"
          ]
        }
      ],
      "priority": 5,
      "initDialog": 690060201,
      "npcId": [
        9006
      ],
      "performCfg": "QuestDialogue/HomeWorld/Lisa_9006/Q6900607",
      "heroTalk": "TALK_HERO_MAIN",
      "assetIndex": 16663639151048598751,
      "prePerformCfg": ""
    },
    {
      "id": 6900603,
      "activeMode": "PLAY_MODE_HOST",
      "beginCondComb": "LOGIC_AND",
      "beginCond": [
        {
          "type": "QUEST_COND_AVATAR_FETTER_GT",
          "_param": [
            "10000006",
            "3"
          ]
        },
        {
          "type": "QUEST_COND_HOMEWORLD_NPC_NEW_TALK",
          "_param": [
            "9006",
            "6900603",
            "1"
          ]
        }
      ],
      "priority": 5,
      "initDialog": 690060301,
      "npcId": [
        9006
      ],
      "performCfg": "QuestDialogue/HomeWorld/Lisa_9006/Q6900608",
      "heroTalk": "TALK_HERO_MAIN",
      "assetIndex": 13139378020770409607,
      "prePerformCfg": ""
    },
    {
      "id": 6900604,
      "activeMode": "PLAY_MODE_HOST",
      "beginCondComb": "LOGIC_AND",
      "beginCond": [
        {
          "type": "QUEST_COND_AVATAR_FETTER_GT",
          "_param": [
            "10000006",
            "6"
          ]
        },
        {
          "type": "QUEST_COND_HOMEWORLD_NPC_NEW_TALK",
          "_param": [
            "9006",
            "6900604",
            "1"
          ]
        }
      ],
      "priority": 5,
      "initDialog": 690060401,
      "npcId": [
        9006
      ],
      "performCfg": "QuestDialogue/HomeWorld/Lisa_9006/Q6900609",
      "heroTalk": "TALK_HERO_MAIN",
      "assetIndex": 13387220675893174918,
      "prePerformCfg": ""
    },
    {
      "id": 6900605,
      "activeMode": "PLAY_MODE_HOST",
      "beginCond": [
        {
          "type": "QUEST_COND_IS_DAYTIME",
          "_param": [
            "1"
          ]
        }
      ],
      "priority": 5,
      "initDialog": 690060501,
      "npcId": [
        9006
      ],
      "performCfg": "QuestDialogue/HomeWorld/Lisa_9006/Q6900610",
      "heroTalk": "TALK_HERO_MAIN",
      "assetIndex": 9815262234803379687,
      "prePerformCfg": ""
    },
    {
      "id": 6900606,
      "activeMode": "PLAY_MODE_HOST",
      "beginCond": [
        {
          "type": "QUEST_COND_IS_DAYTIME",
          "_param": [
            "0"
          ]
        }
      ],
      "priority": 5,
      "initDialog": 690060601,
      "npcId": [
        9006
      ],
      "performCfg": "QuestDialogue/HomeWorld/Lisa_9006/Q6900611",
      "heroTalk": "TALK_HERO_MAIN",
      "assetIndex": 4742159227853333613,
      "prePerformCfg": ""
    },
    {
      "id": 6900607,
      "activeMode": "PLAY_MODE_HOST",
      "priority": 5,
      "initDialog": 690060701,
      "npcId": [
        9006
      ],
      "performCfg": "QuestDialogue/HomeWorld/Lisa_9006/Q6900607",
      "heroTalk": "TALK_HERO_MAIN",
      "assetIndex": 15104695069022407823,
      "prePerformCfg": ""
    },
    {
      "id": 6900608,
      "activeMode": "PLAY_MODE_HOST",
      "priority": 5,
      "initDialog": 690060801,
      "npcId": [
        9006
      ],
      "performCfg": "QuestDialogue/HomeWorld/Lisa_9006/Q6900608",
      "heroTalk": "TALK_HERO_MAIN",
      "assetIndex": 4281777404603818425,
      "prePerformCfg": ""
    },
    {
      "id": 6900609,
      "activeMode": "PLAY_MODE_HOST",
      "priority": 5,
      "initDialog": 690060901,
      "npcId": [
        9006
      ],
      "performCfg": "QuestDialogue/HomeWorld/Lisa_9006/Q6900609",
      "heroTalk": "TALK_HERO_MAIN",
      "assetIndex": 17107729183078964901,
      "prePerformCfg": ""
    },
    {
      "id": 6900610,
      "activeMode": "PLAY_MODE_HOST",
      "priority": 5,
      "initDialog": 690061001,
      "npcId": [
        9006
      ],
      "performCfg": "QuestDialogue/HomeWorld/Lisa_9006/Q6900610",
      "heroTalk": "TALK_HERO_MAIN",
      "assetIndex": 14251831797173473689,
      "prePerformCfg": ""
    },
    {
      "id": 6900611,
      "activeMode": "PLAY_MODE_HOST",
      "priority": 5,
      "initDialog": 690061101,
      "npcId": [
        9006
      ],
      "performCfg": "QuestDialogue/HomeWorld/Lisa_9006/Q6900611",
      "heroTalk": "TALK_HERO_MAIN",
      "assetIndex": 13346376994671227521,
      "prePerformCfg": ""
    },
    {
      "id": 6900612,
      "activeMode": "PLAY_MODE_HOST",
      "beginCondComb": "LOGIC_AND",
      "beginCond": [
        {
          "type": "QUEST_COND_AVATAR_FETTER_GT",
          "_param": [
            "10000006",
            "3"
          ]
        },
        {
          "type": "QUEST_COND_HOMEWORLD_NPC_NEW_TALK",
          "_param": [
            "9006",
            "6900603",
            "0"
          ]
        }
      ],
      "priority": 5,
      "initDialog": 690061201,
      "npcId": [
        9006
      ],
      "performCfg": "QuestDialogue/HomeWorld/Lisa_9006/Q6900608",
      "heroTalk": "TALK_HERO_MAIN",
      "assetIndex": 8195402549325065374,
      "prePerformCfg": ""
    },
    {
      "id": 6900613,
      "activeMode": "PLAY_MODE_HOST",
      "beginCondComb": "LOGIC_AND",
      "beginCond": [
        {
          "type": "QUEST_COND_AVATAR_FETTER_GT",
          "_param": [
            "10000006",
            "6"
          ]
        },
        {
          "type": "QUEST_COND_HOMEWORLD_NPC_NEW_TALK",
          "_param": [
            "9006",
            "6900604",
            "0"
          ]
        }
      ],
      "priority": 5,
      "initDialog": 690061301,
      "npcId": [
        9006
      ],
      "performCfg": "QuestDialogue/HomeWorld/Lisa_9006/Q6900609",
      "heroTalk": "TALK_HERO_MAIN",
      "assetIndex": 17328047102308548916,
      "prePerformCfg": ""
    },
    {
      "id": 6900614,
      "activeMode": "PLAY_MODE_HOST",
      "beginCond": [
        {
          "type": "QUEST_COND_HOMEWORLD_NPC_NEW_TALK",
          "_param": [
            "9006",
            "6900602",
            "0"
          ]
        }
      ],
      "priority": 5,
      "initDialog": 690061401,
      "npcId": [
        9006
      ],
      "performCfg": "QuestDialogue/HomeWorld/Lisa_9006/Q6900607",
      "heroTalk": "TALK_HERO_MAIN",
      "assetIndex": 15685421637478836811,
      "prePerformCfg": ""
    },
    {
      "id": 6900650,
      "beginWay": "TALK_BEGIN_MANUAL",
      "activeMode": "PLAY_MODE_HOST",
      "beginCondComb": "LOGIC_OR",
      "beginCond": [
        {
          "type": "QUEST_COND_HOMEWORLD_NPC_EVENT",
          "_param": [
            "1101",
            "1"
          ]
        },
        {
          "type": "QUEST_COND_HOMEWORLD_NPC_EVENT",
          "_param": [
            "1111",
            "1"
          ]
        }
      ],
      "priority": 6,
      "initDialog": 690065001,
      "npcId": [
        9006
      ],
      "performCfg": "QuestDialogue/HomeWorld/Lisa_9006/Q6900650",
      "heroTalk": "TALK_HERO_MAIN",
      "assetIndex": 3004330946393469228,
      "prePerformCfg": ""
    },
    {
      "id": 6900651,
      "beginWay": "TALK_BEGIN_MANUAL",
      "activeMode": "PLAY_MODE_HOST",
      "beginCondComb": "LOGIC_OR",
      "beginCond": [
        {
          "type": "QUEST_COND_HOMEWORLD_NPC_EVENT",
          "_param": [
            "1102",
            "1"
          ]
        },
        {
          "type": "QUEST_COND_HOMEWORLD_NPC_EVENT",
          "_param": [
            "1112",
            "1"
          ]
        }
      ],
      "priority": 6,
      "initDialog": 690065101,
      "npcId": [
        9006
      ],
      "performCfg": "QuestDialogue/HomeWorld/Lisa_9006/Q6900651",
      "heroTalk": "TALK_HERO_MAIN",
      "assetIndex": 9168320388322006796,
      "prePerformCfg": ""
    },
    {
      "id": 3,
      "beginWay": "TALK_BEGIN_MANUAL",
      "priority": 3,
      "initDialog": 301,
      "npcId": [
        9006
      ],
      "performCfg": "",
      "assetIndex": 8093854905108191058,
      "prePerformCfg": ""
    }
  ]
}