{
  "npcId": 9009,
  "talks": [
    {
      "id": 6900901,
      "beginWay": "TALK_BEGIN_MANUAL",
      "activeMode": "PLAY_MODE_HOST",
      "priority": 5,
      "nextTalks": [
        6900920,
        6900916,
        6900912,
        6900909,
        6900902,
        6900910,
        6900903,
        6900911,
        6900904,
        6900905,
        6900906
      ],
      "initDialog": 690090101,
      "npcId": [
        9009
      ],
      "performCfg": "QuestDialogue/HomeWorld/Shinobu_9009/Q6900901",
      "assetIndex": 2192522844839342480,
      "prePerformCfg": ""
    },
    {
      "id": 6900902,
      "activeMode": "PLAY_MODE_HOST",
      "beginCond": [
        {
          "type": "QUEST_COND_HOMEWORLD_NPC_NEW_TALK",
          "_param": [
            "9009",
            "6900909",
            "0"
          ]
        }
      ],
      "priority": 5,
      "initDialog": 690090201,
      "npcId": [
        9009
      ],
      "performCfg": "QuestDialogue/HomeWorld/Shinobu_9009/Q6900902",
      "assetIndex": 10590588508825646882,
      "prePerformCfg": ""
    },
    {
      "id": 6900903,
      "activeMode": "PLAY_MODE_HOST",
      "beginCondComb": "LOGIC_AND",
      "beginCond": [
        {
          "type": "QUEST_COND_AVATAR_FETTER_GT",
          "_param": [
            "10000065",
            "3"
          ]
        },
        {
          "type": "QUEST_COND_HOMEWORLD_NPC_NEW_TALK",
          "_param": [
            "9009",
            "6900910",
            "0"
          ]
        }
      ],
      "priority": 5,
      "initDialog": 690090301,
      "npcId": [
        9009
      ],
      "performCfg": "QuestDialogue/HomeWorld/Shinobu_9009/Q6900903",
      "assetIndex": 9747184021786700037,
      "prePerformCfg": ""
    },
    {
      "id": 6900904,
      "activeMode": "PLAY_MODE_HOST",
      "beginCondComb": "LOGIC_AND",
      "beginCond": [
        {
          "type": "QUEST_COND_AVATAR_FETTER_GT",
          "_param": [
            "10000065",
            "6"
          ]
        },
        {
          "type": "QUEST_COND_HOMEWORLD_NPC_NEW_TALK",
          "_param": [
            "9009",
            "6900911",
            "0"
          ]
        }
      ],
      "priority": 5,
      "initDialog": 690090401,
      "npcId": [
        9009
      ],
      "performCfg": "QuestDialogue/HomeWorld/Shinobu_9009/Q6900904",
      "assetIndex": 7396880700661876999,
      "prePerformCfg": ""
    },
    {
      "id": 6900905,
      "activeMode": "PLAY_MODE_HOST",
      "beginCond": [
        {
          "type": "QUEST_COND_IS_DAYTIME",
          "_param": [
            "1"
          ]
        }
      ],
      "priority": 5,
      "initDialog": 690090501,
      "npcId": [
        9009
      ],
      "performCfg": "QuestDialogue/HomeWorld/Shinobu_9009/Q6900905",
      "assetIndex": 12996480241881723335,
      "prePerformCfg": ""
    },
    {
      "id": 6900906,
      "activeMode": "PLAY_MODE_HOST",
      "beginCond": [
        {
          "type": "QUEST_COND_IS_DAYTIME",
          "_param": [
            "0"
          ]
        }
      ],
      "priority": 5,
      "initDialog": 690090601,
      "npcId": [
        9009
      ],
      "performCfg": "QuestDialogue/HomeWorld/Shinobu_9009/Q6900906",
      "assetIndex": 12743443252099519654,
      "prePerformCfg": ""
    },
    {
      "id": 6900907,
      "beginWay": "TALK_BEGIN_MANUAL",
      "activeMode": "PLAY_MODE_HOST",
      "beginCondComb": "LOGIC_OR",
      "beginCond": [
        {
          "type": "QUEST_COND_HOMEWORLD_NPC_EVENT",
          "_param": [
            "5801",
            "1"
          ]
        },
        {
          "type": "QUEST_COND_HOMEWORLD_NPC_EVENT",
          "_param": [
            "5811",
            "1"
          ]
        }
      ],
      "priority": 6,
      "initDialog": 690090701,
      "npcId": [
        9009
      ],
      "performCfg": "QuestDialogue/HomeWorld/Shinobu_9009/Q6900907",
      "assetIndex": 18004712648917161215,
      "prePerformCfg": ""
    },
    {
      "id": 6900908,
      "beginWay": "TALK_BEGIN_MANUAL",
      "activeMode": "PLAY_MODE_HOST",
      "beginCondComb": "LOGIC_OR",
      "beginCond": [
        {
          "type": "QUEST_COND_HOMEWORLD_NPC_EVENT",
          "_param": [
            "5802",
            "1"
          ]
        },
        {
          "type": "QUEST_COND_HOMEWORLD_NPC_EVENT",
          "_param": [
            "5812",
            "1"
          ]
        }
      ],
      "priority": 6,
      "initDialog": 690090801,
      "npcId": [
        9009
      ],
      "performCfg": "QuestDialogue/HomeWorld/Shinobu_9009/Q6900908",
      "assetIndex": 13922941195528711550,
      "prePerformCfg": ""
    },
    {
      "id": 6900909,
      "activeMode": "PLAY_MODE_HOST",
      "beginCond": [
        {
          "type": "QUEST_COND_HOMEWORLD_NPC_NEW_TALK",
          "_param": [
            "9009",
            "6900909",
            "1"
          ]
        }
      ],
      "priority": 5,
      "initDialog": 690090201,
      "decoratorID": 3,
      "npcId": [
        9009
      ],
      "performCfg": "QuestDialogue/HomeWorld/Shinobu_9009/Q6900902",
      "assetIndex": 10181128506109455815,
      "prePerformCfg": ""
    },
    {
      "id": 6900910,
      "activeMode": "PLAY_MODE_HOST",
      "beginCondComb": "LOGIC_AND",
      "beginCond": [
        {
          "type": "QUEST_COND_AVATAR_FETTER_GT",
          "_param": [
            "10000065",
            "3"
          ]
        },
        {
          "type": "QUEST_COND_HOMEWORLD_NPC_NEW_TALK",
          "_param": [
            "9009",
            "6900910",
            "1"
          ]
        }
      ],
      "priority": 5,
      "initDialog": 690090301,
      "decoratorID": 3,
      "npcId": [
        9009
      ],
      "performCfg": "QuestDialogue/HomeWorld/Shinobu_9009/Q6900903",
      "assetIndex": 16779354987490150511,
      "prePerformCfg": ""
    },
    {
      "id": 6900911,
      "activeMode": "PLAY_MODE_HOST",
      "beginCondComb": "LOGIC_AND",
      "beginCond": [
        {
          "type": "QUEST_COND_AVATAR_FETTER_GT",
          "_param": [
            "10000065",
            "6"
          ]
        },
        {
          "type": "QUEST_COND_HOMEWORLD_NPC_NEW_TALK",
          "_param": [
            "9009",
            "6900911",
            "1"
          ]
        }
      ],
      "priority": 5,
      "initDialog": 690090401,
      "decoratorID": 3,
      "npcId": [
        9009
      ],
      "performCfg": "QuestDialogue/HomeWorld/Shinobu_9009/Q6900904",
      "assetIndex": 2062069507593935885,
      "prePerformCfg": ""
    }
  ]
}