{
  "npcId": 9033,
  "talks": [
    {
      "id": 6903301,
      "beginWay": "TALK_BEGIN_MANUAL",
      "activeMode": "PLAY_MODE_HOST",
      "priority": 5,
      "nextTalks": [
        6903318,
        6903314,
        6903310,
        6903309,
        6903302,
        6903307,
        6903303,
        6903308,
        6903304,
        6903305,
        6903306
      ],
      "initDialog": 690330101,
      "npcId": [
        9033
      ],
      "performCfg": "QuestDialogue/HomeWorld/Tartaglia_9033/Q6903301",
      "heroTalk": "TALK_HERO_MAIN",
      "assetIndex": 4603071715435576449,
      "prePerformCfg": ""
    },
    {
      "id": 6903302,
      "activeMode": "PLAY_MODE_HOST",
      "beginCond": [
        {
          "type": "QUEST_COND_HOMEWORLD_NPC_NEW_TALK",
          "_param": [
            "9033",
            "6903302",
            "1"
          ]
        }
      ],
      "priority": 5,
      "initDialog": 690330201,
      "npcId": [
        9033
      ],
      "performCfg": "QuestDialogue/HomeWorld/Tartaglia_9033/Q6903302",
      "heroTalk": "TALK_HERO_MAIN",
      "assetIndex": 9126151278087185844,
      "prePerformCfg": ""
    },
    {
      "id": 6903303,
      "activeMode": "PLAY_MODE_HOST",
      "beginCondComb": "LOGIC_AND",
      "beginCond": [
        {
          "type": "QUEST_COND_AVATAR_FETTER_GT",
          "_param": [
            "10000033",
            "3"
          ]
        },
        {
          "type": "QUEST_COND_HOMEWORLD_NPC_NEW_TALK",
          "_param": [
            "9033",
            "6903303",
            "1"
          ]
        }
      ],
      "priority": 5,
      "initDialog": 690330301,
      "npcId": [
        9033
      ],
      "performCfg": "QuestDialogue/HomeWorld/Tartaglia_9033/Q6903303",
      "heroTalk": "TALK_HERO_MAIN",
      "assetIndex": 12052383469564472082,
      "prePerformCfg": ""
    },
    {
      "id": 6903304,
      "activeMode": "PLAY_MODE_HOST",
      "beginCondComb": "LOGIC_AND",
      "beginCond": [
        {
          "type": "QUEST_COND_AVATAR_FETTER_GT",
          "_param": [
            "10000033",
            "6"
          ]
        },
        {
          "type": "QUEST_COND_HOMEWORLD_NPC_NEW_TALK",
          "_param": [
            "9033",
            "6903304",
            "1"
          ]
        }
      ],
      "priority": 5,
      "initDialog": 690330401,
      "npcId": [
        9033
      ],
      "performCfg": "QuestDialogue/HomeWorld/Tartaglia_9033/Q6903304",
      "heroTalk": "TALK_HERO_MAIN",
      "assetIndex": 17009248142510344494,
      "prePerformCfg": ""
    },
    {
      "id": 6903305,
      "activeMode": "PLAY_MODE_HOST",
      "beginCond": [
        {
          "type": "QUEST_COND_IS_DAYTIME",
          "_param": [
            "1"
          ]
        }
      ],
      "priority": 5,
      "initDialog": 690330501,
      "npcId": [
        9033
      ],
      "performCfg": "QuestDialogue/HomeWorld/Tartaglia_9033/Q6903305",
      "heroTalk": "TALK_HERO_MAIN",
      "assetIndex": 10844911161907792299,
      "prePerformCfg": ""
    },
    {
      "id": 6903306,
      "activeMode": "PLAY_MODE_HOST",
      "beginCond": [
        {
          "type": "QUEST_COND_IS_DAYTIME",
          "_param": [
            "0"
          ]
        }
      ],
      "priority": 5,
      "initDialog": 690330601,
      "npcId": [
        9033
      ],
      "performCfg": "QuestDialogue/HomeWorld/Tartaglia_9033/Q6903306",
      "heroTalk": "TALK_HERO_MAIN",
      "assetIndex": 2418094232618011079,
      "prePerformCfg": ""
    },
    {
      "id": 6903307,
      "activeMode": "PLAY_MODE_HOST",
      "beginCondComb": "LOGIC_AND",
      "beginCond": [
        {
          "type": "QUEST_COND_AVATAR_FETTER_GT",
          "_param": [
            "10000033",
            "3"
          ]
        },
        {
          "type": "QUEST_COND_HOMEWORLD_NPC_NEW_TALK",
          "_param": [
            "9033",
            "6903303",
            "0"
          ]
        }
      ],
      "priority": 5,
      "initDialog": 690330701,
      "npcId": [
        9033
      ],
      "performCfg": "QuestDialogue/HomeWorld/Tartaglia_9033/Q6903303",
      "heroTalk": "TALK_HERO_MAIN",
      "assetIndex": 2479763382820496731,
      "prePerformCfg": ""
    },
    {
      "id": 6903308,
      "activeMode": "PLAY_MODE_HOST",
      "beginCondComb": "LOGIC_AND",
      "beginCond": [
        {
          "type": "QUEST_COND_AVATAR_FETTER_GT",
          "_param": [
            "10000033",
            "6"
          ]
        },
        {
          "type": "QUEST_COND_HOMEWORLD_NPC_NEW_TALK",
          "_param": [
            "9033",
            "6903304",
            "0"
          ]
        }
      ],
      "priority": 5,
      "initDialog": 690330801,
      "npcId": [
        9033
      ],
      "performCfg": "QuestDialogue/HomeWorld/Tartaglia_9033/Q6903304",
      "heroTalk": "TALK_HERO_MAIN",
      "assetIndex": 9098885996607361422,
      "prePerformCfg": ""
    },
    {
      "id": 6903309,
      "activeMode": "PLAY_MODE_HOST",
      "beginCond": [
        {
          "type": "QUEST_COND_HOMEWORLD_NPC_NEW_TALK",
          "_param": [
            "9033",
            "6903302",
            "0"
          ]
        }
      ],
      "priority": 5,
      "initDialog": 690330901,
      "npcId": [
        9033
      ],
      "performCfg": "QuestDialogue/HomeWorld/Tartaglia_9033/Q6903302",
      "heroTalk": "TALK_HERO_MAIN",
      "assetIndex": 886184228342467843,
      "prePerformCfg": ""
    },
    {
      "id": 6903350,
      "beginWay": "TALK_BEGIN_MANUAL",
      "activeMode": "PLAY_MODE_HOST",
      "beginCondComb": "LOGIC_OR",
      "beginCond": [
        {
          "type": "QUEST_COND_HOMEWORLD_NPC_EVENT",
          "_param": [
            "2701",
            "1"
          ]
        },
        {
          "type": "QUEST_COND_HOMEWORLD_NPC_EVENT",
          "_param": [
            "2711",
            "1"
          ]
        }
      ],
      "priority": 6,
      "initDialog": 690335001,
      "npcId": [
        9033
      ],
      "performCfg": "QuestDialogue/HomeWorld/Tartaglia_9033/Q6903350",
      "heroTalk": "TALK_HERO_MAIN",
      "assetIndex": 4694644171590551445,
      "prePerformCfg": ""
    },
    {
      "id": 6903351,
      "beginWay": "TALK_BEGIN_MANUAL",
      "activeMode": "PLAY_MODE_HOST",
      "beginCondComb": "LOGIC_OR",
      "beginCond": [
        {
          "type": "QUEST_COND_HOMEWORLD_NPC_EVENT",
          "_param": [
            "2702",
            "1"
          ]
        },
        {
          "type": "QUEST_COND_HOMEWORLD_NPC_EVENT",
          "_param": [
            "2712",
            "1"
          ]
        }
      ],
      "priority": 6,
      "initDialog": 690335101,
      "npcId": [
        9033
      ],
      "performCfg": "QuestDialogue/HomeWorld/Tartaglia_9033/Q6903351",
      "heroTalk": "TALK_HERO_MAIN",
      "assetIndex": 4292126781807693930,
      "prePerformCfg": ""
    }
  ]
}