{
  "npcId": 9058,
  "talks": [
    {
      "id": 6905801,
      "beginWay": "TALK_BEGIN_MANUAL",
      "activeMode": "PLAY_MODE_HOST",
      "priority": 5,
      "nextTalks": [
        6905820,
        6905816,
        6905812,
        6905809,
        6905802,
        6905810,
        6905803,
        6905811,
        6905804,
        6905805,
        6905806
      ],
      "initDialog": 690580101,
      "npcId": [
        9058
      ],
      "performCfg": "QuestDialogue/HomeWorld/Yae_9058/Q6905801",
      "assetIndex": 14855924744947298551,
      "prePerformCfg": ""
    },
    {
      "id": 6905802,
      "activeMode": "PLAY_MODE_HOST",
      "beginCond": [
        {
          "type": "QUEST_COND_HOMEWORLD_NPC_NEW_TALK",
          "_param": [
            "9058",
            "6905809",
            "0"
          ]
        }
      ],
      "priority": 5,
      "initDialog": 690580201,
      "npcId": [
        9058
      ],
      "performCfg": "QuestDialogue/HomeWorld/Yae_9058/Q6905802",
      "assetIndex": 14511059076914749290,
      "prePerformCfg": ""
    },
    {
      "id": 6905803,
      "activeMode": "PLAY_MODE_HOST",
      "beginCondComb": "LOGIC_AND",
      "beginCond": [
        {
          "type": "QUEST_COND_AVATAR_FETTER_GT",
          "_param": [
            "10000058",
            "3"
          ]
        },
        {
          "type": "QUEST_COND_HOMEWORLD_NPC_NEW_TALK",
          "_param": [
            "9058",
            "6905810",
            "0"
          ]
        }
      ],
      "priority": 5,
      "initDialog": 690580301,
      "npcId": [
        9058
      ],
      "performCfg": "QuestDialogue/HomeWorld/Yae_9058/Q6905803",
      "assetIndex": 7355509176365835082,
      "prePerformCfg": ""
    },
    {
      "id": 6905804,
      "activeMode": "PLAY_MODE_HOST",
      "beginCondComb": "LOGIC_AND",
      "beginCond": [
        {
          "type": "QUEST_COND_AVATAR_FETTER_GT",
          "_param": [
            "10000058",
            "6"
          ]
        },
        {
          "type": "QUEST_COND_HOMEWORLD_NPC_NEW_TALK",
          "_param": [
            "9058",
            "6905811",
            "0"
          ]
        }
      ],
      "priority": 5,
      "initDialog": 690580401,
      "npcId": [
        9058
      ],
      "performCfg": "QuestDialogue/HomeWorld/Yae_9058/Q6905804",
      "assetIndex": 4375485340626441938,
      "prePerformCfg": ""
    },
    {
      "id": 6905805,
      "activeMode": "PLAY_MODE_HOST",
      "beginCond": [
        {
          "type": "QUEST_COND_IS_DAYTIME",
          "_param": [
            "1"
          ]
        }
      ],
      "priority": 5,
      "initDialog": 690580501,
      "npcId": [
        9058
      ],
      "performCfg": "QuestDialogue/HomeWorld/Yae_9058/Q6905805",
      "assetIndex": 3106902439931584784,
      "prePerformCfg": ""
    },
    {
      "id": 6905806,
      "activeMode": "PLAY_MODE_HOST",
      "beginCond": [
        {
          "type": "QUEST_COND_IS_DAYTIME",
          "_param": [
            "0"
          ]
        }
      ],
      "priority": 5,
      "initDialog": 690580601,
      "npcId": [
        9058
      ],
      "performCfg": "QuestDialogue/HomeWorld/Yae_9058/Q6905806",
      "assetIndex": 10018659348886991622,
      "prePerformCfg": ""
    },
    {
      "id": 6905807,
      "beginWay": "TALK_BEGIN_MANUAL",
      "activeMode": "PLAY_MODE_HOST",
      "beginCondComb": "LOGIC_OR",
      "beginCond": [
        {
          "type": "QUEST_COND_HOMEWORLD_NPC_EVENT",
          "_param": [
            "5501",
            "1"
          ]
        },
        {
          "type": "QUEST_COND_HOMEWORLD_NPC_EVENT",
          "_param": [
            "5511",
            "1"
          ]
        }
      ],
      "priority": 6,
      "initDialog": 690580701,
      "npcId": [
        9058
      ],
      "performCfg": "QuestDialogue/HomeWorld/Yae_9058/Q6905807",
      "assetIndex": 8181652632464909249,
      "prePerformCfg": ""
    },
    {
      "id": 6905808,
      "beginWay": "TALK_BEGIN_MANUAL",
      "activeMode": "PLAY_MODE_HOST",
      "beginCondComb": "LOGIC_OR",
      "beginCond": [
        {
          "type": "QUEST_COND_HOMEWORLD_NPC_EVENT",
          "_param": [
            "5502",
            "1"
          ]
        },
        {
          "type": "QUEST_COND_HOMEWORLD_NPC_EVENT",
          "_param": [
            "5512",
            "1"
          ]
        }
      ],
      "priority": 6,
      "initDialog": 690580801,
      "npcId": [
        9058
      ],
      "performCfg": "QuestDialogue/HomeWorld/Yae_9058/Q6905808",
      "assetIndex": 6497429405442836627,
      "prePerformCfg": ""
    },
    {
      "id": 6905809,
      "activeMode": "PLAY_MODE_HOST",
      "beginCond": [
        {
          "type": "QUEST_COND_HOMEWORLD_NPC_NEW_TALK",
          "_param": [
            "9058",
            "6905809",
            "1"
          ]
        }
      ],
      "priority": 5,
      "initDialog": 690580201,
      "decoratorID": 3,
      "npcId": [
        9058
      ],
      "performCfg": "QuestDialogue/HomeWorld/Yae_9058/Q6905802",
      "assetIndex": 12541663714380206449,
      "prePerformCfg": ""
    },
    {
      "id": 6905810,
      "activeMode": "PLAY_MODE_HOST",
      "beginCondComb": "LOGIC_AND",
      "beginCond": [
        {
          "type": "QUEST_COND_AVATAR_FETTER_GT",
          "_param": [
            "10000058",
            "3"
          ]
        },
        {
          "type": "QUEST_COND_HOMEWORLD_NPC_NEW_TALK",
          "_param": [
            "9058",
            "6905810",
            "1"
          ]
        }
      ],
      "priority": 5,
      "initDialog": 690580301,
      "decoratorID": 3,
      "npcId": [
        9058
      ],
      "performCfg": "QuestDialogue/HomeWorld/Yae_9058/Q6905803",
      "assetIndex": 187561218118563526,
      "prePerformCfg": ""
    },
    {
      "id": 6905811,
      "activeMode": "PLAY_MODE_HOST",
      "beginCondComb": "LOGIC_AND",
      "beginCond": [
        {
          "type": "QUEST_COND_AVATAR_FETTER_GT",
          "_param": [
            "10000058",
            "6"
          ]
        },
        {
          "type": "QUEST_COND_HOMEWORLD_NPC_NEW_TALK",
          "_param": [
            "9058",
            "6905811",
            "1"
          ]
        }
      ],
      "priority": 5,
      "initDialog": 690580401,
      "decoratorID": 3,
      "npcId": [
        9058
      ],
      "performCfg": "QuestDialogue/HomeWorld/Yae_9058/Q6905804",
      "assetIndex": 8439540339097627959,
      "prePerformCfg": ""
    }
  ]
}