{
  "npcId": 9067,
  "talks": [
    {
      "id": 6906701,
      "beginWay": "TALK_BEGIN_MANUAL",
      "activeMode": "PLAY_MODE_HOST",
      "priority": 5,
      "nextTalks": [
        6906716,
        6906712,
        6906707,
        6906702,
        6906708,
        6906703,
        6906709,
        6906704,
        6906705,
        6906706
      ],
      "initDialog": 690670101,
      "npcId": [
        9067
      ],
      "performCfg": "QuestDialogue/HomeWorld/Collei_9067/Q6906701",
      "assetIndex": 18246016763210039149,
      "prePerformCfg": ""
    },
    {
      "id": 6906702,
      "activeMode": "PLAY_MODE_HOST",
      "beginCond": [
        {
          "type": "QUEST_COND_HOMEWORLD_NPC_NEW_TALK",
          "_param": [
            "9067",
            "6906707",
            "0"
          ]
        }
      ],
      "priority": 5,
      "initDialog": 690670201,
      "npcId": [
        9067
      ],
      "performCfg": "QuestDialogue/HomeWorld/Collei_9067/Q6906702",
      "assetIndex": 10076780656141792336,
      "prePerformCfg": ""
    },
    {
      "id": 6906703,
      "activeMode": "PLAY_MODE_HOST",
      "beginCondComb": "LOGIC_AND",
      "beginCond": [
        {
          "type": "QUEST_COND_AVATAR_FETTER_GT",
          "_param": [
            "10000067",
            "3"
          ]
        },
        {
          "type": "QUEST_COND_HOMEWORLD_NPC_NEW_TALK",
          "_param": [
            "9067",
            "6906708",
            "0"
          ]
        }
      ],
      "priority": 5,
      "initDialog": 690670301,
      "npcId": [
        9067
      ],
      "performCfg": "QuestDialogue/HomeWorld/Collei_9067/Q6906703",
      "assetIndex": 11440943086651787006,
      "prePerformCfg": ""
    },
    {
      "id": 6906704,
      "activeMode": "PLAY_MODE_HOST",
      "beginCondComb": "LOGIC_AND",
      "beginCond": [
        {
          "type": "QUEST_COND_AVATAR_FETTER_GT",
          "_param": [
            "10000067",
            "6"
          ]
        },
        {
          "type": "QUEST_COND_HOMEWORLD_NPC_NEW_TALK",
          "_param": [
            "9067",
            "6906709",
            "0"
          ]
        }
      ],
      "priority": 5,
      "initDialog": 690670401,
      "npcId": [
        9067
      ],
      "performCfg": "QuestDialogue/HomeWorld/Collei_9067/Q6906704",
      "assetIndex": 17873656867428497253,
      "prePerformCfg": ""
    },
    {
      "id": 6906705,
      "activeMode": "PLAY_MODE_HOST",
      "beginCond": [
        {
          "type": "QUEST_COND_IS_DAYTIME",
          "_param": [
            "1"
          ]
        }
      ],
      "priority": 5,
      "initDialog": 690670501,
      "npcId": [
        9067
      ],
      "performCfg": "QuestDialogue/HomeWorld/Collei_9067/Q6906705",
      "assetIndex": 14963296313409925582,
      "prePerformCfg": ""
    },
    {
      "id": 6906706,
      "activeMode": "PLAY_MODE_HOST",
      "beginCond": [
        {
          "type": "QUEST_COND_IS_DAYTIME",
          "_param": [
            "0"
          ]
        }
      ],
      "priority": 5,
      "initDialog": 690670601,
      "npcId": [
        9067
      ],
      "performCfg": "QuestDialogue/HomeWorld/Collei_9067/Q6906706",
      "assetIndex": 8428136464185126532,
      "prePerformCfg": ""
    },
    {
      "id": 6906707,
      "activeMode": "PLAY_MODE_HOST",
      "beginCond": [
        {
          "type": "QUEST_COND_HOMEWORLD_NPC_NEW_TALK",
          "_param": [
            "9067",
            "6906707",
            "1"
          ]
        }
      ],
      "priority": 5,
      "initDialog": 690670201,
      "decoratorID": 3,
      "npcId": [
        9067
      ],
      "performCfg": "QuestDialogue/HomeWorld/Collei_9067/Q6906702",
      "assetIndex": 15838834579963954745,
      "prePerformCfg": ""
    },
    {
      "id": 6906708,
      "activeMode": "PLAY_MODE_HOST",
      "beginCondComb": "LOGIC_AND",
      "beginCond": [
        {
          "type": "QUEST_COND_AVATAR_FETTER_GT",
          "_param": [
            "10000067",
            "3"
          ]
        },
        {
          "type": "QUEST_COND_HOMEWORLD_NPC_NEW_TALK",
          "_param": [
            "9067",
            "6906708",
            "1"
          ]
        }
      ],
      "priority": 5,
      "initDialog": 690670301,
      "decoratorID": 3,
      "npcId": [
        9067
      ],
      "performCfg": "QuestDialogue/HomeWorld/Collei_9067/Q6906703",
      "assetIndex": 5845633624853701420,
      "prePerformCfg": ""
    },
    {
      "id": 6906709,
      "activeMode": "PLAY_MODE_HOST",
      "beginCondComb": "LOGIC_AND",
      "beginCond": [
        {
          "type": "QUEST_COND_AVATAR_FETTER_GT",
          "_param": [
            "10000067",
            "6"
          ]
        },
        {
          "type": "QUEST_COND_HOMEWORLD_NPC_NEW_TALK",
          "_param": [
            "9067",
            "6906709",
            "1"
          ]
        }
      ],
      "priority": 5,
      "initDialog": 690670401,
      "decoratorID": 3,
      "npcId": [
        9067
      ],
      "performCfg": "QuestDialogue/HomeWorld/Collei_9067/Q6906704",
      "assetIndex": 13544037449221156064,
      "prePerformCfg": ""
    },
    {
      "id": 6906710,
      "beginWay": "TALK_BEGIN_MANUAL",
      "activeMode": "PLAY_MODE_HOST",
      "beginCondComb": "LOGIC_OR",
      "beginCond": [
        {
          "type": "QUEST_COND_HOMEWORLD_NPC_EVENT",
          "_param": [
            "6101",
            "1"
          ]
        },
        {
          "type": "QUEST_COND_HOMEWORLD_NPC_EVENT",
          "_param": [
            "6111",
            "1"
          ]
        }
      ],
      "priority": 6,
      "initDialog": 690671001,
      "npcId": [
        9067
      ],
      "performCfg": "QuestDialogue/HomeWorld/Collei_9067/Q6906710",
      "assetIndex": 9400764906417104337,
      "prePerformCfg": ""
    },
    {
      "id": 6906711,
      "beginWay": "TALK_BEGIN_MANUAL",
      "activeMode": "PLAY_MODE_HOST",
      "beginCondComb": "LOGIC_OR",
      "beginCond": [
        {
          "type": "QUEST_COND_HOMEWORLD_NPC_EVENT",
          "_param": [
            "6102",
            "1"
          ]
        },
        {
          "type": "QUEST_COND_HOMEWORLD_NPC_EVENT",
          "_param": [
            "6112",
            "1"
          ]
        }
      ],
      "priority": 6,
      "initDialog": 690671101,
      "npcId": [
        9067
      ],
      "performCfg": "QuestDialogue/HomeWorld/Collei_9067/Q6906711",
      "assetIndex": 11215558632694054986,
      "prePerformCfg": ""
    }
  ]
}