{
  "npcId": 9070,
  "talks": [
    {
      "id": 6907001,
      "beginWay": "TALK_BEGIN_MANUAL",
      "activeMode": "PLAY_MODE_HOST",
      "priority": 5,
      "nextTalks": [
        6907016,
        6907012,
        6907007,
        6907002,
        6907008,
        6907003,
        6907009,
        6907004,
        6907005,
        6907006
      ],
      "initDialog": 690700101,
      "npcId": [
        9070
      ],
      "performCfg": "QuestDialogue/HomeWorld/Nilou_9070/Q6907001",
      "assetIndex": 9110588556713526610,
      "prePerformCfg": ""
    },
    {
      "id": 6907002,
      "activeMode": "PLAY_MODE_HOST",
      "beginCond": [
        {
          "type": "QUEST_COND_HOMEWORLD_NPC_NEW_TALK",
          "_param": [
            "9070",
            "6907007",
            "0"
          ]
        }
      ],
      "priority": 5,
      "initDialog": 690700201,
      "npcId": [
        9070
      ],
      "performCfg": "QuestDialogue/HomeWorld/Nilou_9070/Q6907002",
      "assetIndex": 481363592243933443,
      "prePerformCfg": ""
    },
    {
      "id": 6907003,
      "activeMode": "PLAY_MODE_HOST",
      "beginCondComb": "LOGIC_AND",
      "beginCond": [
        {
          "type": "QUEST_COND_AVATAR_FETTER_GT",
          "_param": [
            "10000070",
            "3"
          ]
        },
        {
          "type": "QUEST_COND_HOMEWORLD_NPC_NEW_TALK",
          "_param": [
            "9070",
            "6907008",
            "0"
          ]
        }
      ],
      "priority": 5,
      "initDialog": 690700301,
      "npcId": [
        9070
      ],
      "performCfg": "QuestDialogue/HomeWorld/Nilou_9070/Q6907003",
      "assetIndex": 10033978764387456741,
      "prePerformCfg": ""
    },
    {
      "id": 6907004,
      "activeMode": "PLAY_MODE_HOST",
      "beginCondComb": "LOGIC_AND",
      "beginCond": [
        {
          "type": "QUEST_COND_AVATAR_FETTER_GT",
          "_param": [
            "10000070",
            "6"
          ]
        },
        {
          "type": "QUEST_COND_HOMEWORLD_NPC_NEW_TALK",
          "_param": [
            "9070",
            "6907009",
            "0"
          ]
        }
      ],
      "priority": 5,
      "initDialog": 690700401,
      "npcId": [
        9070
      ],
      "performCfg": "QuestDialogue/HomeWorld/Nilou_9070/Q6907004",
      "assetIndex": 12149776135231601146,
      "prePerformCfg": ""
    },
    {
      "id": 6907005,
      "activeMode": "PLAY_MODE_HOST",
      "beginCond": [
        {
          "type": "QUEST_COND_IS_DAYTIME",
          "_param": [
            "1"
          ]
        }
      ],
      "priority": 5,
      "initDialog": 690700501,
      "npcId": [
        9070
      ],
      "performCfg": "QuestDialogue/HomeWorld/Nilou_9070/Q6907005",
      "assetIndex": 11865582263994829412,
      "prePerformCfg": ""
    },
    {
      "id": 6907006,
      "activeMode": "PLAY_MODE_HOST",
      "beginCond": [
        {
          "type": "QUEST_COND_IS_DAYTIME",
          "_param": [
            "0"
          ]
        }
      ],
      "priority": 5,
      "initDialog": 690700601,
      "npcId": [
        9070
      ],
      "performCfg": "QuestDialogue/HomeWorld/Nilou_9070/Q6907006",
      "assetIndex": 3874265620721735553,
      "prePerformCfg": ""
    },
    {
      "id": 6907007,
      "activeMode": "PLAY_MODE_HOST",
      "beginCond": [
        {
          "type": "QUEST_COND_HOMEWORLD_NPC_NEW_TALK",
          "_param": [
            "9070",
            "6907007",
            "1"
          ]
        }
      ],
      "priority": 5,
      "initDialog": 690700201,
      "decoratorID": 3,
      "npcId": [
        9070
      ],
      "performCfg": "QuestDialogue/HomeWorld/Nilou_9070/Q6907002",
      "assetIndex": 16794363360489159153,
      "prePerformCfg": ""
    },
    {
      "id": 6907008,
      "activeMode": "PLAY_MODE_HOST",
      "beginCondComb": "LOGIC_AND",
      "beginCond": [
        {
          "type": "QUEST_COND_AVATAR_FETTER_GT",
          "_param": [
            "10000070",
            "3"
          ]
        },
        {
          "type": "QUEST_COND_HOMEWORLD_NPC_NEW_TALK",
          "_param": [
            "9070",
            "6907008",
            "1"
          ]
        }
      ],
      "priority": 5,
      "initDialog": 690700301,
      "decoratorID": 3,
      "npcId": [
        9070
      ],
      "performCfg": "QuestDialogue/HomeWorld/Nilou_9070/Q6907003",
      "assetIndex": 10702665664890598276,
      "prePerformCfg": ""
    },
    {
      "id": 6907009,
      "activeMode": "PLAY_MODE_HOST",
      "beginCondComb": "LOGIC_AND",
      "beginCond": [
        {
          "type": "QUEST_COND_AVATAR_FETTER_GT",
          "_param": [
            "10000070",
            "6"
          ]
        },
        {
          "type": "QUEST_COND_HOMEWORLD_NPC_NEW_TALK",
          "_param": [
            "9070",
            "6907009",
            "1"
          ]
        }
      ],
      "priority": 5,
      "initDialog": 690700401,
      "decoratorID": 3,
      "npcId": [
        9070
      ],
      "performCfg": "QuestDialogue/HomeWorld/Nilou_9070/Q6907004",
      "assetIndex": 12621608346009635875,
      "prePerformCfg": ""
    },
    {
      "id": 6907010,
      "beginWay": "TALK_BEGIN_MANUAL",
      "activeMode": "PLAY_MODE_HOST",
      "beginCondComb": "LOGIC_OR",
      "beginCond": [
        {
          "type": "QUEST_COND_HOMEWORLD_NPC_EVENT",
          "_param": [
            "6301",
            "1"
          ]
        },
        {
          "type": "QUEST_COND_HOMEWORLD_NPC_EVENT",
          "_param": [
            "6311",
            "1"
          ]
        }
      ],
      "priority": 6,
      "initDialog": 690701001,
      "npcId": [
        9070
      ],
      "performCfg": "QuestDialogue/HomeWorld/Nilou_9070/Q6907010",
      "assetIndex": 12080515729937973322,
      "prePerformCfg": ""
    },
    {
      "id": 6907011,
      "beginWay": "TALK_BEGIN_MANUAL",
      "activeMode": "PLAY_MODE_HOST",
      "beginCondComb": "LOGIC_OR",
      "beginCond": [
        {
          "type": "QUEST_COND_HOMEWORLD_NPC_EVENT",
          "_param": [
            "6302",
            "1"
          ]
        },
        {
          "type": "QUEST_COND_HOMEWORLD_NPC_EVENT",
          "_param": [
            "6312",
            "1"
          ]
        }
      ],
      "priority": 6,
      "initDialog": 690701101,
      "npcId": [
        9070
      ],
      "performCfg": "QuestDialogue/HomeWorld/Nilou_9070/Q6907011",
      "assetIndex": 4582357143422186474,
      "prePerformCfg": ""
    }
  ]
}