{
  "npcId": 9096,
  "talks": [
    {
      "id": 6909601,
      "beginWay": "TALK_BEGIN_MANUAL",
      "activeMode": "PLAY_MODE_HOST",
      "priority": 5,
      "nextTalks": [
        6909609,
        6909602,
        6909610,
        6909603,
        6909611,
        6909604,
        6909605,
        6909606
      ],
      "initDialog": 690960101,
      "npcId": [
        9096
      ],
      "performCfg": "QuestDialogue/HomeWorld/Arlecchino_9096/Q6909601",
      "assetIndex": 8052908725382986999,
      "prePerformCfg": ""
    },
    {
      "id": 6909602,
      "activeMode": "PLAY_MODE_HOST",
      "beginCond": [
        {
          "type": "QUEST_COND_HOMEWORLD_NPC_NEW_TALK",
          "_param": [
            "9096",
            "6909609",
            "0"
          ]
        }
      ],
      "priority": 5,
      "initDialog": 690960201,
      "npcId": [
        9096
      ],
      "performCfg": "QuestDialogue/HomeWorld/Arlecchino_9096/Q6909602",
      "assetIndex": 2695873310613302730,
      "prePerformCfg": ""
    },
    {
      "id": 6909603,
      "activeMode": "PLAY_MODE_HOST",
      "beginCondComb": "LOGIC_AND",
      "beginCond": [
        {
          "type": "QUEST_COND_AVATAR_FETTER_GT",
          "_param": [
            "10000096",
            "3"
          ]
        },
        {
          "type": "QUEST_COND_HOMEWORLD_NPC_NEW_TALK",
          "_param": [
            "9096",
            "6909610",
            "0"
          ]
        }
      ],
      "priority": 5,
      "initDialog": 690960301,
      "npcId": [
        9096
      ],
      "performCfg": "QuestDialogue/HomeWorld/Arlecchino_9096/Q6909603",
      "assetIndex": 944863700209604559,
      "prePerformCfg": ""
    },
    {
      "id": 6909604,
      "activeMode": "PLAY_MODE_HOST",
      "beginCondComb": "LOGIC_AND",
      "beginCond": [
        {
          "type": "QUEST_COND_AVATAR_FETTER_GT",
          "_param": [
            "10000096",
            "6"
          ]
        },
        {
          "type": "QUEST_COND_HOMEWORLD_NPC_NEW_TALK",
          "_param": [
            "9096",
            "6909611",
            "0"
          ]
        }
      ],
      "priority": 5,
      "initDialog": 690960401,
      "npcId": [
        9096
      ],
      "performCfg": "QuestDialogue/HomeWorld/Arlecchino_9096/Q6909604",
      "assetIndex": 11346054782289514755,
      "prePerformCfg": ""
    },
    {
      "id": 6909605,
      "activeMode": "PLAY_MODE_HOST",
      "beginCond": [
        {
          "type": "QUEST_COND_IS_DAYTIME",
          "_param": [
            "1"
          ]
        }
      ],
      "priority": 5,
      "initDialog": 690960501,
      "npcId": [
        9096
      ],
      "performCfg": "QuestDialogue/HomeWorld/Arlecchino_9096/Q6909605",
      "assetIndex": 16738531706174813011,
      "prePerformCfg": ""
    },
    {
      "id": 6909606,
      "activeMode": "PLAY_MODE_HOST",
      "beginCond": [
        {
          "type": "QUEST_COND_IS_DAYTIME",
          "_param": [
            "0"
          ]
        }
      ],
      "priority": 5,
      "initDialog": 690960601,
      "npcId": [
        9096
      ],
      "performCfg": "QuestDialogue/HomeWorld/Arlecchino_9096/Q6909606",
      "assetIndex": 6847138975323669373,
      "prePerformCfg": ""
    },
    {
      "id": 6909607,
      "beginWay": "TALK_BEGIN_MANUAL",
      "activeMode": "PLAY_MODE_HOST",
      "beginCondComb": "LOGIC_OR",
      "beginCond": [
        {
          "type": "QUEST_COND_HOMEWORLD_NPC_EVENT",
          "_param": [
            "8901",
            "1"
          ]
        },
        {
          "type": "QUEST_COND_HOMEWORLD_NPC_EVENT",
          "_param": [
            "8911",
            "1"
          ]
        }
      ],
      "priority": 6,
      "initDialog": 690960701,
      "npcId": [
        9096
      ],
      "performCfg": "QuestDialogue/HomeWorld/Arlecchino_9096/Q6909607",
      "assetIndex": 165746549423656235,
      "prePerformCfg": ""
    },
    {
      "id": 6909608,
      "beginWay": "TALK_BEGIN_MANUAL",
      "activeMode": "PLAY_MODE_HOST",
      "beginCondComb": "LOGIC_OR",
      "beginCond": [
        {
          "type": "QUEST_COND_HOMEWORLD_NPC_EVENT",
          "_param": [
            "8902",
            "1"
          ]
        },
        {
          "type": "QUEST_COND_HOMEWORLD_NPC_EVENT",
          "_param": [
            "8912",
            "1"
          ]
        }
      ],
      "priority": 6,
      "initDialog": 690960801,
      "npcId": [
        9096
      ],
      "performCfg": "QuestDialogue/HomeWorld/Arlecchino_9096/Q6909608",
      "assetIndex": 5251825180893634527,
      "prePerformCfg": ""
    },
    {
      "id": 6909609,
      "activeMode": "PLAY_MODE_HOST",
      "beginCond": [
        {
          "type": "QUEST_COND_HOMEWORLD_NPC_NEW_TALK",
          "_param": [
            "9096",
            "6909609",
            "1"
          ]
        }
      ],
      "priority": 5,
      "initDialog": 690960201,
      "decoratorID": 3,
      "npcId": [
        9096
      ],
      "performCfg": "QuestDialogue/HomeWorld/Arlecchino_9096/Q6909602",
      "assetIndex": 5834861709502060884,
      "prePerformCfg": ""
    },
    {
      "id": 6909610,
      "activeMode": "PLAY_MODE_HOST",
      "beginCondComb": "LOGIC_AND",
      "beginCond": [
        {
          "type": "QUEST_COND_AVATAR_FETTER_GT",
          "_param": [
            "10000096",
            "3"
          ]
        },
        {
          "type": "QUEST_COND_HOMEWORLD_NPC_NEW_TALK",
          "_param": [
            "9096",
            "6909610",
            "1"
          ]
        }
      ],
      "priority": 5,
      "initDialog": 690960301,
      "decoratorID": 3,
      "npcId": [
        9096
      ],
      "performCfg": "QuestDialogue/HomeWorld/Arlecchino_9096/Q6909603",
      "assetIndex": 172093868554558651,
      "prePerformCfg": ""
    },
    {
      "id": 6909611,
      "activeMode": "PLAY_MODE_HOST",
      "beginCondComb": "LOGIC_AND",
      "beginCond": [
        {
          "type": "QUEST_COND_AVATAR_FETTER_GT",
          "_param": [
            "10000096",
            "6"
          ]
        },
        {
          "type": "QUEST_COND_HOMEWORLD_NPC_NEW_TALK",
          "_param": [
            "9096",
            "6909611",
            "1"
          ]
        }
      ],
      "priority": 5,
      "initDialog": 690960401,
      "decoratorID": 3,
      "npcId": [
        9096
      ],
      "performCfg": "QuestDialogue/HomeWorld/Arlecchino_9096/Q6909604",
      "assetIndex": 2905227041118375733,
      "prePerformCfg": ""
    }
  ]
}