{
  "npcId": 9299,
  "talks": [
    {
      "id": 6910102,
      "activeMode": "PLAY_MODE_HOST",
      "beginCond": [
        {
          "type": "QUEST_COND_HOMEWORLD_NPC_NEW_TALK",
          "_param": [
            "9101",
            "6910107",
            "0"
          ]
        }
      ],
      "priority": 5,
      "initDialog": 691010201,
      "npcId": [
        9101,
        9299
      ],
      "performCfg": "QuestDialogue/HomeWorld/Kinich_9101/Q6910102",
      "heroTalk": "TALK_HERO_MAIN",
      "assetIndex": 11870196501386512699,
      "prePerformCfg": ""
    },
    {
      "id": 6910103,
      "activeMode": "PLAY_MODE_HOST",
      "beginCondComb": "LOGIC_AND",
      "beginCond": [
        {
          "type": "QUEST_COND_HOMEWORLD_NPC_NEW_TALK",
          "_param": [
            "9101",
            "6910108",
            "0"
          ]
        },
        {
          "type": "QUEST_COND_AVATAR_FETTER_GT",
          "_param": [
            "10000101",
            "3"
          ]
        }
      ],
      "priority": 5,
      "initDialog": 691010301,
      "npcId": [
        9101,
        9299
      ],
      "performCfg": "QuestDialogue/HomeWorld/Kinich_9101/Q6910103",
      "heroTalk": "TALK_HERO_MAIN",
      "assetIndex": 6795827396672880576,
      "prePerformCfg": ""
    },
    {
      "id": 6910104,
      "activeMode": "PLAY_MODE_HOST",
      "beginCondComb": "LOGIC_AND",
      "beginCond": [
        {
          "type": "QUEST_COND_HOMEWORLD_NPC_NEW_TALK",
          "_param": [
            "9101",
            "6910109",
            "0"
          ]
        },
        {
          "type": "QUEST_COND_AVATAR_FETTER_GT",
          "_param": [
            "10000101",
            "6"
          ]
        }
      ],
      "priority": 5,
      "initDialog": 691010401,
      "npcId": [
        9101,
        9299
      ],
      "performCfg": "QuestDialogue/HomeWorld/Kinich_9101/Q6910104",
      "heroTalk": "TALK_HERO_MAIN",
      "assetIndex": 1298346594174103928,
      "prePerformCfg": ""
    },
    {
      "id": 6910105,
      "activeMode": "PLAY_MODE_HOST",
      "beginCond": [
        {
          "type": "QUEST_COND_IS_DAYTIME",
          "_param": [
            "1"
          ]
        }
      ],
      "priority": 5,
      "initDialog": 691010501,
      "npcId": [
        9101,
        9299
      ],
      "performCfg": "QuestDialogue/HomeWorld/Kinich_9101/Q6910105",
      "heroTalk": "TALK_HERO_MAIN",
      "assetIndex": 23662685393248801,
      "prePerformCfg": ""
    },
    {
      "id": 6910106,
      "activeMode": "PLAY_MODE_HOST",
      "beginCond": [
        {
          "type": "QUEST_COND_IS_DAYTIME",
          "_param": [
            "0"
          ]
        }
      ],
      "priority": 5,
      "initDialog": 691010601,
      "npcId": [
        9101,
        9299
      ],
      "performCfg": "QuestDialogue/HomeWorld/Kinich_9101/Q6910106",
      "heroTalk": "TALK_HERO_MAIN",
      "assetIndex": 6304625464481712429,
      "prePerformCfg": ""
    },
    {
      "id": 6910107,
      "activeMode": "PLAY_MODE_HOST",
      "beginCond": [
        {
          "type": "QUEST_COND_HOMEWORLD_NPC_NEW_TALK",
          "_param": [
            "9101",
            "6910107",
            "1"
          ]
        }
      ],
      "priority": 5,
      "initDialog": 691010201,
      "decoratorID": 3,
      "npcId": [
        9101,
        9299
      ],
      "performCfg": "QuestDialogue/HomeWorld/Kinich_9101/Q6910102",
      "heroTalk": "TALK_HERO_MAIN",
      "assetIndex": 14052064741984146112,
      "prePerformCfg": ""
    },
    {
      "id": 6910108,
      "activeMode": "PLAY_MODE_HOST",
      "beginCondComb": "LOGIC_AND",
      "beginCond": [
        {
          "type": "QUEST_COND_HOMEWORLD_NPC_NEW_TALK",
          "_param": [
            "9101",
            "6910108",
            "1"
          ]
        },
        {
          "type": "QUEST_COND_AVATAR_FETTER_GT",
          "_param": [
            "10000101",
            "3"
          ]
        }
      ],
      "priority": 5,
      "initDialog": 691010301,
      "decoratorID": 3,
      "npcId": [
        9101,
        9299
      ],
      "performCfg": "QuestDialogue/HomeWorld/Kinich_9101/Q6910103",
      "heroTalk": "TALK_HERO_MAIN",
      "assetIndex": 9025941415529312558,
      "prePerformCfg": ""
    },
    {
      "id": 6910109,
      "activeMode": "PLAY_MODE_HOST",
      "beginCondComb": "LOGIC_AND",
      "beginCond": [
        {
          "type": "QUEST_COND_HOMEWORLD_NPC_NEW_TALK",
          "_param": [
            "9101",
            "6910109",
            "1"
          ]
        },
        {
          "type": "QUEST_COND_AVATAR_FETTER_GT",
          "_param": [
            "10000101",
            "6"
          ]
        }
      ],
      "priority": 5,
      "initDialog": 691010401,
      "decoratorID": 3,
      "npcId": [
        9101,
        9299
      ],
      "performCfg": "QuestDialogue/HomeWorld/Kinich_9101/Q6910104",
      "heroTalk": "TALK_HERO_MAIN",
      "assetIndex": 10625250382744333900,
      "prePerformCfg": ""
    }
  ]
}