{
  "npcId": 9506,
  "talks": [
    {
      "id": 6950601,
      "beginWay": "TALK_BEGIN_MANUAL",
      "activeMode": "PLAY_MODE_HOST",
      "beginCond": [
        {
          "type": "QUEST_COND_GCG_NPC_TYPE",
          "_param": [
            "9506",
            "2"
          ]
        }
      ],
      "priority": 5,
      "nextTalks": [
        6950602,
        6950603
      ],
      "initDialog": 695060101,
      "npcId": [
        9506
      ],
      "performCfg": "QuestDialogue/GCG/Ambor_9506/Q6950601",
      "heroTalk": "TALK_HERO_MAIN",
      "assetIndex": 16810632256559446207,
      "prePerformCfg": ""
    },
    {
      "id": 6950602,
      "activeMode": "PLAY_MODE_HOST",
      "priority": 5,
      "initDialog": 695060201,
      "npcId": [
        9506
      ],
      "performCfg": "",
      "heroTalk": "TALK_HERO_MAIN",
      "assetIndex": 2962609876352414536,
      "prePerformCfg": ""
    },
    {
      "id": 6950603,
      "activeMode": "PLAY_MODE_HOST",
      "priority": 5,
      "initDialog": 695060301,
      "npcId": [
        9506
      ],
      "performCfg": "QuestDialogue/GCG/Ambor_9506/Q6950603",
      "heroTalk": "TALK_HERO_MAIN",
      "assetIndex": 8678455454926758356,
      "prePerformCfg": ""
    },
    {
      "id": 6950604,
      "beginWay": "TALK_BEGIN_AUTO",
      "activeMode": "PLAY_MODE_HOST",
      "beginCond": [
        {
          "type": "QUEST_COND_GCG_WORLD_CHALLENGE_RESULT",
          "_param": [
            "-1",
            "9506"
          ]
        }
      ],
      "priority": 6,
      "initDialog": 695060401,
      "npcId": [
        9506
      ],
      "performCfg": "QuestDialogue/GCG/Ambor_9506/Q6950604",
      "assetIndex": 2919852925669410581,
      "prePerformCfg": ""
    },
    {
      "id": 6950605,
      "beginWay": "TALK_BEGIN_AUTO",
      "activeMode": "PLAY_MODE_HOST",
      "beginCond": [
        {
          "type": "QUEST_COND_GCG_WORLD_CHALLENGE_RESULT",
          "_param": [
            "1",
            "9506"
          ]
        }
      ],
      "priority": 6,
      "initDialog": 695060501,
      "npcId": [
        9506
      ],
      "performCfg": "QuestDialogue/GCG/Ambor_9506/Q6950605",
      "heroTalk": "TALK_HERO_MAIN",
      "assetIndex": 18350587519248290900,
      "prePerformCfg": ""
    },
    {
      "id": 6950606,
      "beginWay": "TALK_BEGIN_MANUAL",
      "activeMode": "PLAY_MODE_HOST",
      "beginCond": [
        {
          "type": "QUEST_COND_GCG_NPC_TYPE",
          "_param": [
            "9506",
            "1"
          ]
        },
        {
          "type": "QUEST_COND_GCG_INVITE_TYPE",
          "_param": [
            "0"
          ]
        }
      ],
      "priority": 5,
      "nextTalks": [
        6950608,
        6950609,
        6950618
      ],
      "initDialog": 695060601,
      "npcId": [
        9506
      ],
      "performCfg": "QuestDialogue/GCG/Ambor_9506/Q6950606",
      "heroTalk": "TALK_HERO_MAIN",
      "assetIndex": 8250441665436993171,
      "prePerformCfg": ""
    },
    {
      "id": 6950607,
      "activeMode": "PLAY_MODE_HOST",
      "priority": 5,
      "nextTalks": [
        6950608,
        6950609,
        6950618
      ],
      "initDialog": 695060601,
      "npcId": [
        9506
      ],
      "performCfg": "QuestDialogue/GCG/Ambor_9506/Q6950607",
      "heroTalk": "TALK_HERO_MAIN",
      "assetIndex": 15041773778767243411,
      "prePerformCfg": ""
    },
    {
      "id": 6950608,
      "activeMode": "PLAY_MODE_HOST",
      "priority": 5,
      "initDialog": 695060801,
      "npcId": [
        9506
      ],
      "performCfg": "",
      "heroTalk": "TALK_HERO_MAIN",
      "assetIndex": 4354654731389338216,
      "prePerformCfg": ""
    },
    {
      "id": 6950609,
      "activeMode": "PLAY_MODE_HOST",
      "priority": 5,
      "nextTalks": [
        6950607
      ],
      "initDialog": 695060901,
      "npcId": [
        9506
      ],
      "performCfg": "",
      "heroTalk": "TALK_HERO_MAIN",
      "assetIndex": 8781919498727678513,
      "prePerformCfg": ""
    },
    {
      "id": 6950610,
      "activeMode": "PLAY_MODE_HOST",
      "priority": 5,
      "initDialog": 695061001,
      "npcId": [
        9506
      ],
      "performCfg": "QuestDialogue/GCG/Ambor_9506/Q6950610",
      "heroTalk": "TALK_HERO_MAIN",
      "assetIndex": 14974061576523009595,
      "prePerformCfg": ""
    },
    {
      "id": 6950611,
      "activeMode": "PLAY_MODE_HOST",
      "priority": 5,
      "initDialog": 695061101,
      "npcId": [
        9506
      ],
      "performCfg": "QuestDialogue/GCG/Ambor_9506/Q6950611",
      "assetIndex": 4327620907814819041,
      "prePerformCfg": ""
    },
    {
      "id": 6950612,
      "beginWay": "TALK_BEGIN_MANUAL",
      "activeMode": "PLAY_MODE_HOST",
      "beginCond": [
        {
          "type": "QUEST_COND_GCG_NPC_TYPE",
          "_param": [
            "9506",
            "1"
          ]
        },
        {
          "type": "QUEST_COND_GCG_INVITE_TYPE",
          "_param": [
            "1"
          ]
        }
      ],
      "priority": 5,
      "nextTalks": [
        6950614,
        6950615,
        6950618
      ],
      "initDialog": 695061201,
      "npcId": [
        9506
      ],
      "performCfg": "QuestDialogue/GCG/Ambor_9506/Q6950612",
      "assetIndex": 3893149630307285262,
      "prePerformCfg": ""
    },
    {
      "id": 6950613,
      "activeMode": "PLAY_MODE_HOST",
      "priority": 5,
      "nextTalks": [
        6950614,
        6950615,
        6950618
      ],
      "initDialog": 695061201,
      "npcId": [
        9506
      ],
      "performCfg": "QuestDialogue/GCG/Ambor_9506/Q6950613",
      "assetIndex": 10036580857515071269,
      "prePerformCfg": ""
    },
    {
      "id": 6950614,
      "activeMode": "PLAY_MODE_HOST",
      "priority": 5,
      "initDialog": 695061401,
      "npcId": [
        9506
      ],
      "performCfg": "",
      "assetIndex": 11021471388340287971,
      "prePerformCfg": ""
    },
    {
      "id": 6950615,
      "activeMode": "PLAY_MODE_HOST",
      "priority": 5,
      "nextTalks": [
        6950613
      ],
      "initDialog": 695061501,
      "npcId": [
        9506
      ],
      "performCfg": "",
      "assetIndex": 15615223028510981868,
      "prePerformCfg": ""
    },
    {
      "id": 6950616,
      "activeMode": "PLAY_MODE_HOST",
      "priority": 5,
      "initDialog": 695061601,
      "npcId": [
        9506
      ],
      "performCfg": "QuestDialogue/GCG/Ambor_9506/Q6950616",
      "assetIndex": 9587674136912109761,
      "prePerformCfg": ""
    },
    {
      "id": 6950617,
      "activeMode": "PLAY_MODE_HOST",
      "priority": 5,
      "initDialog": 695061701,
      "npcId": [
        9506
      ],
      "performCfg": "QuestDialogue/GCG/Ambor_9506/Q6950617",
      "assetIndex": 16542327774705692683,
      "prePerformCfg": ""
    },
    {
      "id": 6950618,
      "activeMode": "PLAY_MODE_HOST",
      "priority": 5,
      "initDialog": 695061801,
      "npcId": [
        9506
      ],
      "performCfg": "",
      "assetIndex": 10914039965813310668,
      "prePerformCfg": ""
    }
  ]
}