{
  "npcId": 9507,
  "talks": [
    {
      "id": 6950701,
      "beginWay": "TALK_BEGIN_MANUAL",
      "activeMode": "PLAY_MODE_HOST",
      "beginCond": [
        {
          "type": "QUEST_COND_GCG_NPC_TYPE",
          "_param": [
            "9507",
            "2"
          ]
        }
      ],
      "priority": 5,
      "nextTalks": [
        6950702,
        6950703
      ],
      "initDialog": 695070101,
      "npcId": [
        9507
      ],
      "performCfg": "QuestDialogue/GCG/Bennett_9507/Q6950701",
      "heroTalk": "TALK_HERO_MAIN",
      "assetIndex": 1633043385001981515,
      "prePerformCfg": ""
    },
    {
      "id": 6950702,
      "activeMode": "PLAY_MODE_HOST",
      "initDialog": 695070201,
      "npcId": [
        9507
      ],
      "performCfg": "",
      "heroTalk": "TALK_HERO_MAIN",
      "assetIndex": 15051923607890397841,
      "prePerformCfg": ""
    },
    {
      "id": 6950703,
      "activeMode": "PLAY_MODE_HOST",
      "initDialog": 695070301,
      "npcId": [
        9507
      ],
      "performCfg": "QuestDialogue/GCG/Bennett_9507/Q6950703",
      "heroTalk": "TALK_HERO_MAIN",
      "assetIndex": 16229590767910581209,
      "prePerformCfg": ""
    },
    {
      "id": 6950704,
      "beginWay": "TALK_BEGIN_AUTO",
      "activeMode": "PLAY_MODE_HOST",
      "beginCond": [
        {
          "type": "QUEST_COND_GCG_WORLD_CHALLENGE_RESULT",
          "_param": [
            "-1",
            "9507"
          ]
        }
      ],
      "priority": 6,
      "initDialog": 695070401,
      "npcId": [
        9507
      ],
      "performCfg": "QuestDialogue/GCG/Bennett_9507/Q6950704",
      "heroTalk": "TALK_HERO_MAIN",
      "assetIndex": 9504702518796357539,
      "prePerformCfg": ""
    },
    {
      "id": 6950705,
      "beginWay": "TALK_BEGIN_AUTO",
      "activeMode": "PLAY_MODE_HOST",
      "beginCond": [
        {
          "type": "QUEST_COND_GCG_WORLD_CHALLENGE_RESULT",
          "_param": [
            "1",
            "9507"
          ]
        }
      ],
      "priority": 6,
      "initDialog": 695070501,
      "npcId": [
        9507
      ],
      "performCfg": "QuestDialogue/GCG/Bennett_9507/Q6950705",
      "heroTalk": "TALK_HERO_MAIN",
      "assetIndex": 11207188670130503848,
      "prePerformCfg": ""
    },
    {
      "id": 6950706,
      "beginWay": "TALK_BEGIN_MANUAL",
      "activeMode": "PLAY_MODE_HOST",
      "beginCondComb": "LOGIC_AND",
      "beginCond": [
        {
          "type": "QUEST_COND_GCG_NPC_TYPE",
          "_param": [
            "9507",
            "1"
          ]
        },
        {
          "type": "QUEST_COND_GCG_INVITE_TYPE",
          "_param": [
            "0"
          ]
        }
      ],
      "priority": 5,
      "nextTalks": [
        6950708,
        6950709,
        6950718
      ],
      "initDialog": 695070601,
      "npcId": [
        9507
      ],
      "performCfg": "QuestDialogue/GCG/Bennett_9507/Q6950706",
      "heroTalk": "TALK_HERO_MAIN",
      "assetIndex": 3635049695175986188,
      "prePerformCfg": ""
    },
    {
      "id": 6950707,
      "activeMode": "PLAY_MODE_HOST",
      "nextTalks": [
        6950708,
        6950709,
        6950718
      ],
      "initDialog": 695070701,
      "npcId": [
        9507
      ],
      "performCfg": "QuestDialogue/GCG/Bennett_9507/Q6950707",
      "heroTalk": "TALK_HERO_MAIN",
      "assetIndex": 12961610311775114267,
      "prePerformCfg": ""
    },
    {
      "id": 6950708,
      "activeMode": "PLAY_MODE_HOST",
      "initDialog": 695070801,
      "npcId": [
        9507
      ],
      "performCfg": "",
      "heroTalk": "TALK_HERO_MAIN",
      "assetIndex": 16786434671980045576,
      "prePerformCfg": ""
    },
    {
      "id": 6950709,
      "activeMode": "PLAY_MODE_HOST",
      "nextTalks": [
        6950707
      ],
      "initDialog": 695070901,
      "npcId": [
        9507
      ],
      "performCfg": "",
      "heroTalk": "TALK_HERO_MAIN",
      "assetIndex": 12468642618524559481,
      "prePerformCfg": ""
    },
    {
      "id": 6950710,
      "activeMode": "PLAY_MODE_HOST",
      "initDialog": 695071001,
      "npcId": [
        9507
      ],
      "performCfg": "QuestDialogue/GCG/Bennett_9507/Q6950710",
      "heroTalk": "TALK_HERO_MAIN",
      "assetIndex": 645205986725031734,
      "prePerformCfg": ""
    },
    {
      "id": 6950711,
      "activeMode": "PLAY_MODE_HOST",
      "initDialog": 695071101,
      "npcId": [
        9507
      ],
      "performCfg": "QuestDialogue/GCG/Bennett_9507/Q6950711",
      "heroTalk": "TALK_HERO_MAIN",
      "assetIndex": 509222156805904249,
      "prePerformCfg": ""
    },
    {
      "id": 6950712,
      "beginWay": "TALK_BEGIN_MANUAL",
      "activeMode": "PLAY_MODE_HOST",
      "beginCondComb": "LOGIC_AND",
      "beginCond": [
        {
          "type": "QUEST_COND_GCG_NPC_TYPE",
          "_param": [
            "9507",
            "1"
          ]
        },
        {
          "type": "QUEST_COND_GCG_INVITE_TYPE",
          "_param": [
            "1"
          ]
        }
      ],
      "priority": 5,
      "nextTalks": [
        6950714,
        6950715,
        6950718
      ],
      "initDialog": 695071201,
      "npcId": [
        9507
      ],
      "performCfg": "QuestDialogue/GCG/Bennett_9507/Q6950712",
      "heroTalk": "TALK_HERO_MAIN",
      "assetIndex": 15103141477893714719,
      "prePerformCfg": ""
    },
    {
      "id": 6950713,
      "activeMode": "PLAY_MODE_HOST",
      "nextTalks": [
        6950714,
        6950715,
        6950718
      ],
      "initDialog": 695071301,
      "npcId": [
        9507
      ],
      "performCfg": "QuestDialogue/GCG/Bennett_9507/Q6950713",
      "heroTalk": "TALK_HERO_MAIN",
      "assetIndex": 9803745565009523813,
      "prePerformCfg": ""
    },
    {
      "id": 6950714,
      "activeMode": "PLAY_MODE_HOST",
      "initDialog": 695071401,
      "npcId": [
        9507
      ],
      "performCfg": "",
      "heroTalk": "TALK_HERO_MAIN",
      "assetIndex": 14628868297051752242,
      "prePerformCfg": ""
    },
    {
      "id": 6950715,
      "activeMode": "PLAY_MODE_HOST",
      "nextTalks": [
        6950713
      ],
      "initDialog": 695071501,
      "npcId": [
        9507
      ],
      "performCfg": "",
      "heroTalk": "TALK_HERO_MAIN",
      "assetIndex": 8458998583057330260,
      "prePerformCfg": ""
    },
    {
      "id": 6950716,
      "activeMode": "PLAY_MODE_HOST",
      "initDialog": 695071601,
      "npcId": [
        9507
      ],
      "performCfg": "QuestDialogue/GCG/Bennett_9507/Q6950716",
      "heroTalk": "TALK_HERO_MAIN",
      "assetIndex": 1694975581218911567,
      "prePerformCfg": ""
    },
    {
      "id": 6950717,
      "activeMode": "PLAY_MODE_HOST",
      "initDialog": 695071701,
      "npcId": [
        9507
      ],
      "performCfg": "QuestDialogue/GCG/Bennett_9507/Q6950717",
      "heroTalk": "TALK_HERO_MAIN",
      "assetIndex": 6984546940979285872,
      "prePerformCfg": ""
    },
    {
      "id": 6950718,
      "activeMode": "PLAY_MODE_HOST",
      "initDialog": 695071801,
      "npcId": [
        9507
      ],
      "performCfg": "",
      "heroTalk": "TALK_HERO_MAIN",
      "assetIndex": 14024997396257887441,
      "prePerformCfg": ""
    }
  ]
}