{
  "npcId": 9508,
  "talks": [
    {
      "id": 6950801,
      "beginWay": "TALK_BEGIN_MANUAL",
      "activeMode": "PLAY_MODE_HOST",
      "beginCond": [
        {
          "type": "QUEST_COND_GCG_NPC_TYPE",
          "_param": [
            "9508",
            "2"
          ]
        }
      ],
      "priority": 5,
      "nextTalks": [
        6950802,
        6950803
      ],
      "initDialog": 695080101,
      "npcId": [
        9508
      ],
      "performCfg": "QuestDialogue/GCG/Diona_9508/Q6950801",
      "heroTalk": "TALK_HERO_MAIN",
      "assetIndex": 5107822773373244346,
      "prePerformCfg": ""
    },
    {
      "id": 6950802,
      "activeMode": "PLAY_MODE_HOST",
      "initDialog": 695080201,
      "npcId": [
        9508
      ],
      "performCfg": "",
      "heroTalk": "TALK_HERO_MAIN",
      "assetIndex": 9843477946745346907,
      "prePerformCfg": ""
    },
    {
      "id": 6950803,
      "activeMode": "PLAY_MODE_HOST",
      "initDialog": 695080301,
      "npcId": [
        9508
      ],
      "performCfg": "QuestDialogue/GCG/Diona_9508/Q6950803",
      "heroTalk": "TALK_HERO_MAIN",
      "assetIndex": 930791316106111916,
      "prePerformCfg": ""
    },
    {
      "id": 6950804,
      "beginWay": "TALK_BEGIN_AUTO",
      "activeMode": "PLAY_MODE_HOST",
      "beginCond": [
        {
          "type": "QUEST_COND_GCG_WORLD_CHALLENGE_RESULT",
          "_param": [
            "-1",
            "9508"
          ]
        }
      ],
      "priority": 6,
      "initDialog": 695080401,
      "npcId": [
        9508
      ],
      "performCfg": "QuestDialogue/GCG/Diona_9508/Q6950804",
      "heroTalk": "TALK_HERO_MAIN",
      "assetIndex": 15679864842112684903,
      "prePerformCfg": ""
    },
    {
      "id": 6950805,
      "beginWay": "TALK_BEGIN_AUTO",
      "activeMode": "PLAY_MODE_HOST",
      "beginCond": [
        {
          "type": "QUEST_COND_GCG_WORLD_CHALLENGE_RESULT",
          "_param": [
            "1",
            "9508"
          ]
        }
      ],
      "priority": 6,
      "initDialog": 695080501,
      "npcId": [
        9508
      ],
      "performCfg": "QuestDialogue/GCG/Diona_9508/Q6950805",
      "heroTalk": "TALK_HERO_MAIN",
      "assetIndex": 5057743040461295386,
      "prePerformCfg": ""
    },
    {
      "id": 6950806,
      "beginWay": "TALK_BEGIN_MANUAL",
      "activeMode": "PLAY_MODE_HOST",
      "beginCondComb": "LOGIC_AND",
      "beginCond": [
        {
          "type": "QUEST_COND_GCG_NPC_TYPE",
          "_param": [
            "9508",
            "1"
          ]
        },
        {
          "type": "QUEST_COND_GCG_INVITE_TYPE",
          "_param": [
            "0"
          ]
        }
      ],
      "priority": 5,
      "nextTalks": [
        6950808,
        6950809,
        6950818
      ],
      "initDialog": 695080601,
      "npcId": [
        9508
      ],
      "performCfg": "QuestDialogue/GCG/Diona_9508/Q6950806",
      "heroTalk": "TALK_HERO_MAIN",
      "assetIndex": 1248328195204213393,
      "prePerformCfg": ""
    },
    {
      "id": 6950807,
      "activeMode": "PLAY_MODE_HOST",
      "nextTalks": [
        6950808,
        6950809,
        6950818
      ],
      "initDialog": 695080701,
      "npcId": [
        9508
      ],
      "performCfg": "QuestDialogue/GCG/Diona_9508/Q6950807",
      "heroTalk": "TALK_HERO_MAIN",
      "assetIndex": 13924583789471229825,
      "prePerformCfg": ""
    },
    {
      "id": 6950808,
      "activeMode": "PLAY_MODE_HOST",
      "initDialog": 695080801,
      "npcId": [
        9508
      ],
      "performCfg": "",
      "heroTalk": "TALK_HERO_MAIN",
      "assetIndex": 2781956568808361654,
      "prePerformCfg": ""
    },
    {
      "id": 6950809,
      "activeMode": "PLAY_MODE_HOST",
      "nextTalks": [
        6950807
      ],
      "initDialog": 695080901,
      "npcId": [
        9508
      ],
      "performCfg": "",
      "heroTalk": "TALK_HERO_MAIN",
      "assetIndex": 8422812638377699609,
      "prePerformCfg": ""
    },
    {
      "id": 6950810,
      "activeMode": "PLAY_MODE_HOST",
      "initDialog": 695081001,
      "npcId": [
        9508
      ],
      "performCfg": "QuestDialogue/GCG/Diona_9508/Q6950810",
      "heroTalk": "TALK_HERO_MAIN",
      "assetIndex": 14963989186964756197,
      "prePerformCfg": ""
    },
    {
      "id": 6950811,
      "activeMode": "PLAY_MODE_HOST",
      "initDialog": 695081101,
      "npcId": [
        9508
      ],
      "performCfg": "QuestDialogue/GCG/Diona_9508/Q6950811",
      "heroTalk": "TALK_HERO_MAIN",
      "assetIndex": 16585862416995619995,
      "prePerformCfg": ""
    },
    {
      "id": 6950812,
      "beginWay": "TALK_BEGIN_MANUAL",
      "activeMode": "PLAY_MODE_HOST",
      "beginCondComb": "LOGIC_AND",
      "beginCond": [
        {
          "type": "QUEST_COND_GCG_NPC_TYPE",
          "_param": [
            "9508",
            "1"
          ]
        },
        {
          "type": "QUEST_COND_GCG_INVITE_TYPE",
          "_param": [
            "1"
          ]
        }
      ],
      "priority": 5,
      "nextTalks": [
        6950814,
        6950815,
        6950818
      ],
      "initDialog": 695081201,
      "npcId": [
        9508
      ],
      "performCfg": "QuestDialogue/GCG/Diona_9508/Q6950812",
      "heroTalk": "TALK_HERO_MAIN",
      "assetIndex": 8714342621295222217,
      "prePerformCfg": ""
    },
    {
      "id": 6950813,
      "activeMode": "PLAY_MODE_HOST",
      "nextTalks": [
        6950814,
        6950815,
        6950818
      ],
      "initDialog": 695081301,
      "npcId": [
        9508
      ],
      "performCfg": "QuestDialogue/GCG/Diona_9508/Q6950813",
      "heroTalk": "TALK_HERO_MAIN",
      "assetIndex": 7907130581277863801,
      "prePerformCfg": ""
    },
    {
      "id": 6950814,
      "activeMode": "PLAY_MODE_HOST",
      "initDialog": 695081401,
      "npcId": [
        9508
      ],
      "performCfg": "",
      "heroTalk": "TALK_HERO_MAIN",
      "assetIndex": 17101882896620199069,
      "prePerformCfg": ""
    },
    {
      "id": 6950815,
      "activeMode": "PLAY_MODE_HOST",
      "nextTalks": [
        6950813
      ],
      "initDialog": 695081501,
      "npcId": [
        9508
      ],
      "performCfg": "",
      "heroTalk": "TALK_HERO_MAIN",
      "assetIndex": 5790970608609287092,
      "prePerformCfg": ""
    },
    {
      "id": 6950816,
      "activeMode": "PLAY_MODE_HOST",
      "initDialog": 695081601,
      "npcId": [
        9508
      ],
      "performCfg": "QuestDialogue/GCG/Diona_9508/Q6950816",
      "heroTalk": "TALK_HERO_MAIN",
      "assetIndex": 16308411971167683513,
      "prePerformCfg": ""
    },
    {
      "id": 6950817,
      "activeMode": "PLAY_MODE_HOST",
      "initDialog": 695081701,
      "npcId": [
        9508
      ],
      "performCfg": "QuestDialogue/GCG/Diona_9508/Q6950817",
      "heroTalk": "TALK_HERO_MAIN",
      "assetIndex": 12319522465870481606,
      "prePerformCfg": ""
    },
    {
      "id": 6950818,
      "activeMode": "PLAY_MODE_HOST",
      "initDialog": 695081801,
      "npcId": [
        9508
      ],
      "performCfg": "",
      "heroTalk": "TALK_HERO_MAIN",
      "assetIndex": 8752124745564319439,
      "prePerformCfg": ""
    }
  ]
}