{
  "npcId": 9510,
  "talks": [
    {
      "id": 6951001,
      "beginWay": "TALK_BEGIN_MANUAL",
      "activeMode": "PLAY_MODE_HOST",
      "beginCond": [
        {
          "type": "QUEST_COND_GCG_NPC_TYPE",
          "_param": [
            "9510",
            "2"
          ]
        }
      ],
      "priority": 5,
      "nextTalks": [
        6951002,
        6951003
      ],
      "initDialog": 695100101,
      "npcId": [
        9510
      ],
      "performCfg": "QuestDialogue/GCG/Ganyu_9510/Q6951001",
      "heroTalk": "TALK_HERO_MAIN",
      "assetIndex": 2212565464847017472,
      "prePerformCfg": ""
    },
    {
      "id": 6951002,
      "activeMode": "PLAY_MODE_HOST",
      "initDialog": 695100201,
      "npcId": [
        9510
      ],
      "performCfg": "",
      "heroTalk": "TALK_HERO_MAIN",
      "assetIndex": 2427944206801203689,
      "prePerformCfg": ""
    },
    {
      "id": 6951003,
      "activeMode": "PLAY_MODE_HOST",
      "initDialog": 695100301,
      "npcId": [
        9510
      ],
      "performCfg": "QuestDialogue/GCG/Ganyu_9510/Q6951003",
      "heroTalk": "TALK_HERO_MAIN",
      "assetIndex": 8928413823854698709,
      "prePerformCfg": ""
    },
    {
      "id": 6951004,
      "beginWay": "TALK_BEGIN_AUTO",
      "activeMode": "PLAY_MODE_HOST",
      "beginCond": [
        {
          "type": "QUEST_COND_GCG_WORLD_CHALLENGE_RESULT",
          "_param": [
            "-1",
            "9510"
          ]
        }
      ],
      "priority": 6,
      "initDialog": 695100401,
      "npcId": [
        9510
      ],
      "performCfg": "QuestDialogue/GCG/Ganyu_9510/Q6951004",
      "heroTalk": "TALK_HERO_MAIN",
      "assetIndex": 17178450915790265825,
      "prePerformCfg": ""
    },
    {
      "id": 6951005,
      "beginWay": "TALK_BEGIN_AUTO",
      "activeMode": "PLAY_MODE_HOST",
      "beginCond": [
        {
          "type": "QUEST_COND_GCG_WORLD_CHALLENGE_RESULT",
          "_param": [
            "1",
            "9510"
          ]
        }
      ],
      "priority": 6,
      "initDialog": 695100501,
      "npcId": [
        9510
      ],
      "performCfg": "QuestDialogue/GCG/Ganyu_9510/Q6951005",
      "heroTalk": "TALK_HERO_MAIN",
      "assetIndex": 7190837714287454288,
      "prePerformCfg": ""
    },
    {
      "id": 6951006,
      "beginWay": "TALK_BEGIN_MANUAL",
      "activeMode": "PLAY_MODE_HOST",
      "beginCondComb": "LOGIC_AND",
      "beginCond": [
        {
          "type": "QUEST_COND_GCG_NPC_TYPE",
          "_param": [
            "9510",
            "1"
          ]
        },
        {
          "type": "QUEST_COND_GCG_INVITE_TYPE",
          "_param": [
            "0"
          ]
        }
      ],
      "priority": 5,
      "nextTalks": [
        6951008,
        6951009,
        6951018
      ],
      "initDialog": 695100601,
      "npcId": [
        9510
      ],
      "performCfg": "QuestDialogue/GCG/Ganyu_9510/Q6951006",
      "heroTalk": "TALK_HERO_MAIN",
      "assetIndex": 9989195490850236362,
      "prePerformCfg": ""
    },
    {
      "id": 6951007,
      "activeMode": "PLAY_MODE_HOST",
      "nextTalks": [
        6951008,
        6951009,
        6951018
      ],
      "initDialog": 695100701,
      "npcId": [
        9510
      ],
      "performCfg": "QuestDialogue/GCG/Ganyu_9510/Q6951007",
      "heroTalk": "TALK_HERO_MAIN",
      "assetIndex": 10974366632355489747,
      "prePerformCfg": ""
    },
    {
      "id": 6951008,
      "activeMode": "PLAY_MODE_HOST",
      "initDialog": 695100801,
      "npcId": [
        9510
      ],
      "performCfg": "",
      "heroTalk": "TALK_HERO_MAIN",
      "assetIndex": 6979960995536845357,
      "prePerformCfg": ""
    },
    {
      "id": 6951009,
      "activeMode": "PLAY_MODE_HOST",
      "nextTalks": [
        6951007
      ],
      "initDialog": 695100901,
      "npcId": [
        9510
      ],
      "performCfg": "",
      "heroTalk": "TALK_HERO_MAIN",
      "assetIndex": 5736101587800196119,
      "prePerformCfg": ""
    },
    {
      "id": 6951010,
      "activeMode": "PLAY_MODE_HOST",
      "initDialog": 695101001,
      "npcId": [
        9510
      ],
      "performCfg": "QuestDialogue/GCG/Ganyu_9510/Q6951010",
      "heroTalk": "TALK_HERO_MAIN",
      "assetIndex": 5098716397638915486,
      "prePerformCfg": ""
    },
    {
      "id": 6951011,
      "activeMode": "PLAY_MODE_HOST",
      "initDialog": 695101101,
      "npcId": [
        9510
      ],
      "performCfg": "QuestDialogue/GCG/Ganyu_9510/Q6951011",
      "heroTalk": "TALK_HERO_MAIN",
      "assetIndex": 4618795144327920285,
      "prePerformCfg": ""
    },
    {
      "id": 6951012,
      "beginWay": "TALK_BEGIN_MANUAL",
      "activeMode": "PLAY_MODE_HOST",
      "beginCondComb": "LOGIC_AND",
      "beginCond": [
        {
          "type": "QUEST_COND_GCG_NPC_TYPE",
          "_param": [
            "9510",
            "1"
          ]
        },
        {
          "type": "QUEST_COND_GCG_INVITE_TYPE",
          "_param": [
            "1"
          ]
        }
      ],
      "priority": 5,
      "nextTalks": [
        6951014,
        6951015,
        6951018
      ],
      "initDialog": 695101201,
      "npcId": [
        9510
      ],
      "performCfg": "QuestDialogue/GCG/Ganyu_9510/Q6951012",
      "heroTalk": "TALK_HERO_MAIN",
      "assetIndex": 9203799530606991096,
      "prePerformCfg": ""
    },
    {
      "id": 6951013,
      "activeMode": "PLAY_MODE_HOST",
      "nextTalks": [
        6951014,
        6951015,
        6951018
      ],
      "initDialog": 695101301,
      "npcId": [
        9510
      ],
      "performCfg": "QuestDialogue/GCG/Ganyu_9510/Q6951013",
      "heroTalk": "TALK_HERO_MAIN",
      "assetIndex": 5605210775703909490,
      "prePerformCfg": ""
    },
    {
      "id": 6951014,
      "activeMode": "PLAY_MODE_HOST",
      "initDialog": 695101401,
      "npcId": [
        9510
      ],
      "performCfg": "",
      "heroTalk": "TALK_HERO_MAIN",
      "assetIndex": 16523392414706604982,
      "prePerformCfg": ""
    },
    {
      "id": 6951015,
      "activeMode": "PLAY_MODE_HOST",
      "nextTalks": [
        6951013
      ],
      "initDialog": 695101501,
      "npcId": [
        9510
      ],
      "performCfg": "",
      "heroTalk": "TALK_HERO_MAIN",
      "assetIndex": 9698600942141689922,
      "prePerformCfg": ""
    },
    {
      "id": 6951016,
      "activeMode": "PLAY_MODE_HOST",
      "initDialog": 695101601,
      "npcId": [
        9510
      ],
      "performCfg": "QuestDialogue/GCG/Ganyu_9510/Q6951016",
      "heroTalk": "TALK_HERO_MAIN",
      "assetIndex": 4929582247929004413,
      "prePerformCfg": ""
    },
    {
      "id": 6951017,
      "activeMode": "PLAY_MODE_HOST",
      "initDialog": 695101701,
      "npcId": [
        9510
      ],
      "performCfg": "QuestDialogue/GCG/Ganyu_9510/Q6951017",
      "heroTalk": "TALK_HERO_MAIN",
      "assetIndex": 10707929322517730839,
      "prePerformCfg": ""
    },
    {
      "id": 6951018,
      "activeMode": "PLAY_MODE_HOST",
      "initDialog": 695101801,
      "npcId": [
        9510
      ],
      "performCfg": "",
      "heroTalk": "TALK_HERO_MAIN",
      "assetIndex": 17561220116791836998,
      "prePerformCfg": ""
    }
  ]
}