{
  "npcId": 9511,
  "talks": [
    {
      "id": 6951101,
      "beginWay": "TALK_BEGIN_MANUAL",
      "activeMode": "PLAY_MODE_HOST",
      "beginCond": [
        {
          "type": "QUEST_COND_GCG_NPC_TYPE",
          "_param": [
            "9511",
            "2"
          ]
        }
      ],
      "priority": 5,
      "nextTalks": [
        6951102,
        6951103
      ],
      "initDialog": 695110101,
      "npcId": [
        9511
      ],
      "performCfg": "QuestDialogue/GCG/Kaeya_9511/Q6951101",
      "heroTalk": "TALK_HERO_MAIN",
      "assetIndex": 6624362620327465549,
      "prePerformCfg": ""
    },
    {
      "id": 6951102,
      "activeMode": "PLAY_MODE_HOST",
      "initDialog": 695110201,
      "npcId": [
        9511
      ],
      "performCfg": "",
      "heroTalk": "TALK_HERO_MAIN",
      "assetIndex": 6772831368790811724,
      "prePerformCfg": ""
    },
    {
      "id": 6951103,
      "activeMode": "PLAY_MODE_HOST",
      "initDialog": 695110301,
      "npcId": [
        9511
      ],
      "performCfg": "QuestDialogue/GCG/Kaeya_9511/Q6951103",
      "heroTalk": "TALK_HERO_MAIN",
      "assetIndex": 17878631605573965093,
      "prePerformCfg": ""
    },
    {
      "id": 6951104,
      "beginWay": "TALK_BEGIN_AUTO",
      "activeMode": "PLAY_MODE_HOST",
      "beginCond": [
        {
          "type": "QUEST_COND_GCG_WORLD_CHALLENGE_RESULT",
          "_param": [
            "-1",
            "9511"
          ]
        }
      ],
      "priority": 6,
      "initDialog": 695110401,
      "npcId": [
        9511
      ],
      "performCfg": "QuestDialogue/GCG/Kaeya_9511/Q6951104",
      "heroTalk": "TALK_HERO_MAIN",
      "assetIndex": 14468707407627059707,
      "prePerformCfg": ""
    },
    {
      "id": 6951105,
      "beginWay": "TALK_BEGIN_AUTO",
      "activeMode": "PLAY_MODE_HOST",
      "beginCond": [
        {
          "type": "QUEST_COND_GCG_WORLD_CHALLENGE_RESULT",
          "_param": [
            "1",
            "9511"
          ]
        }
      ],
      "priority": 6,
      "initDialog": 695110501,
      "npcId": [
        9511
      ],
      "performCfg": "QuestDialogue/GCG/Kaeya_9511/Q6951105",
      "heroTalk": "TALK_HERO_MAIN",
      "assetIndex": 7896396921691338909,
      "prePerformCfg": ""
    },
    {
      "id": 6951106,
      "beginWay": "TALK_BEGIN_MANUAL",
      "activeMode": "PLAY_MODE_HOST",
      "beginCondComb": "LOGIC_AND",
      "beginCond": [
        {
          "type": "QUEST_COND_GCG_NPC_TYPE",
          "_param": [
            "9511",
            "1"
          ]
        },
        {
          "type": "QUEST_COND_GCG_INVITE_TYPE",
          "_param": [
            "0"
          ]
        }
      ],
      "priority": 5,
      "nextTalks": [
        6951108,
        6951109,
        6951118
      ],
      "initDialog": 695110601,
      "npcId": [
        9511
      ],
      "performCfg": "QuestDialogue/GCG/Kaeya_9511/Q6951106",
      "heroTalk": "TALK_HERO_MAIN",
      "assetIndex": 15552324692720107588,
      "prePerformCfg": ""
    },
    {
      "id": 6951107,
      "activeMode": "PLAY_MODE_HOST",
      "nextTalks": [
        6951108,
        6951109,
        6951118
      ],
      "initDialog": 695110701,
      "npcId": [
        9511
      ],
      "performCfg": "QuestDialogue/GCG/Kaeya_9511/Q6951107",
      "heroTalk": "TALK_HERO_MAIN",
      "assetIndex": 17790249153334094248,
      "prePerformCfg": ""
    },
    {
      "id": 6951108,
      "activeMode": "PLAY_MODE_HOST",
      "initDialog": 695110801,
      "npcId": [
        9511
      ],
      "performCfg": "",
      "heroTalk": "TALK_HERO_MAIN",
      "assetIndex": 7775382790776043536,
      "prePerformCfg": ""
    },
    {
      "id": 6951109,
      "activeMode": "PLAY_MODE_HOST",
      "nextTalks": [
        6951107
      ],
      "initDialog": 695110901,
      "npcId": [
        9511
      ],
      "performCfg": "",
      "heroTalk": "TALK_HERO_MAIN",
      "assetIndex": 7676789448922996137,
      "prePerformCfg": ""
    },
    {
      "id": 6951110,
      "activeMode": "PLAY_MODE_HOST",
      "initDialog": 695111001,
      "npcId": [
        9511
      ],
      "performCfg": "QuestDialogue/GCG/Kaeya_9511/Q6951110",
      "heroTalk": "TALK_HERO_MAIN",
      "assetIndex": 5911850858547294423,
      "prePerformCfg": ""
    },
    {
      "id": 6951111,
      "activeMode": "PLAY_MODE_HOST",
      "initDialog": 695111101,
      "npcId": [
        9511
      ],
      "performCfg": "QuestDialogue/GCG/Kaeya_9511/Q6951111",
      "heroTalk": "TALK_HERO_MAIN",
      "assetIndex": 3961540267765757020,
      "prePerformCfg": ""
    },
    {
      "id": 6951112,
      "beginWay": "TALK_BEGIN_MANUAL",
      "activeMode": "PLAY_MODE_HOST",
      "beginCondComb": "LOGIC_AND",
      "beginCond": [
        {
          "type": "QUEST_COND_GCG_NPC_TYPE",
          "_param": [
            "9511",
            "1"
          ]
        },
        {
          "type": "QUEST_COND_GCG_INVITE_TYPE",
          "_param": [
            "1"
          ]
        }
      ],
      "priority": 5,
      "nextTalks": [
        6951114,
        6951115,
        6951118
      ],
      "initDialog": 695111201,
      "npcId": [
        9511
      ],
      "performCfg": "QuestDialogue/GCG/Kaeya_9511/Q6951112",
      "heroTalk": "TALK_HERO_MAIN",
      "assetIndex": 8376376114926613664,
      "prePerformCfg": ""
    },
    {
      "id": 6951113,
      "activeMode": "PLAY_MODE_HOST",
      "nextTalks": [
        6951114,
        6951115,
        6951118
      ],
      "initDialog": 695111301,
      "npcId": [
        9511
      ],
      "performCfg": "QuestDialogue/GCG/Kaeya_9511/Q6951113",
      "heroTalk": "TALK_HERO_MAIN",
      "assetIndex": 10991571683524615737,
      "prePerformCfg": ""
    },
    {
      "id": 6951114,
      "activeMode": "PLAY_MODE_HOST",
      "initDialog": 695111401,
      "npcId": [
        9511
      ],
      "performCfg": "",
      "heroTalk": "TALK_HERO_MAIN",
      "assetIndex": 6282508751015186454,
      "prePerformCfg": ""
    },
    {
      "id": 6951115,
      "activeMode": "PLAY_MODE_HOST",
      "nextTalks": [
        6951113
      ],
      "initDialog": 695111501,
      "npcId": [
        9511
      ],
      "performCfg": "",
      "heroTalk": "TALK_HERO_MAIN",
      "assetIndex": 17737762238960432398,
      "prePerformCfg": ""
    },
    {
      "id": 6951116,
      "activeMode": "PLAY_MODE_HOST",
      "initDialog": 695111601,
      "npcId": [
        9511
      ],
      "performCfg": "QuestDialogue/GCG/Kaeya_9511/Q6951116",
      "heroTalk": "TALK_HERO_MAIN",
      "assetIndex": 16982925942193247370,
      "prePerformCfg": ""
    },
    {
      "id": 6951117,
      "activeMode": "PLAY_MODE_HOST",
      "initDialog": 695111701,
      "npcId": [
        9511
      ],
      "performCfg": "QuestDialogue/GCG/Kaeya_9511/Q6951117",
      "heroTalk": "TALK_HERO_MAIN",
      "assetIndex": 5613183180992235663,
      "prePerformCfg": ""
    },
    {
      "id": 6951118,
      "activeMode": "PLAY_MODE_HOST",
      "initDialog": 695111801,
      "npcId": [
        9511
      ],
      "performCfg": "",
      "heroTalk": "TALK_HERO_MAIN",
      "assetIndex": 1026053738010991614,
      "prePerformCfg": ""
    }
  ]
}