{
  "npcId": 9526,
  "talks": [
    {
      "id": 6952601,
      "beginWay": "TALK_BEGIN_MANUAL",
      "activeMode": "PLAY_MODE_HOST",
      "beginCond": [
        {
          "type": "QUEST_COND_GCG_NPC_TYPE",
          "_param": [
            "9526",
            "2"
          ]
        }
      ],
      "priority": 5,
      "nextTalks": [
        6952602,
        6952603
      ],
      "initDialog": 695260101,
      "npcId": [
        9526
      ],
      "performCfg": "QuestDialogue/GCG/Klee_9526/Q6952601",
      "heroTalk": "TALK_HERO_MAIN",
      "assetIndex": 6357919486217117415,
      "prePerformCfg": ""
    },
    {
      "id": 6952602,
      "activeMode": "PLAY_MODE_HOST",
      "initDialog": 695260201,
      "npcId": [
        9526
      ],
      "performCfg": "",
      "heroTalk": "TALK_HERO_MAIN",
      "assetIndex": 542414661048392720,
      "prePerformCfg": ""
    },
    {
      "id": 6952603,
      "activeMode": "PLAY_MODE_HOST",
      "initDialog": 695260301,
      "npcId": [
        9526
      ],
      "performCfg": "QuestDialogue/GCG/Klee_9526/Q6952603",
      "heroTalk": "TALK_HERO_MAIN",
      "assetIndex": 13248355489876609926,
      "prePerformCfg": ""
    },
    {
      "id": 6952604,
      "beginWay": "TALK_BEGIN_AUTO",
      "activeMode": "PLAY_MODE_HOST",
      "beginCond": [
        {
          "type": "QUEST_COND_GCG_WORLD_CHALLENGE_RESULT",
          "_param": [
            "-1",
            "9526"
          ]
        }
      ],
      "priority": 6,
      "initDialog": 695260401,
      "npcId": [
        9526
      ],
      "performCfg": "QuestDialogue/GCG/Klee_9526/Q6952604",
      "heroTalk": "TALK_HERO_MAIN",
      "assetIndex": 11073875311540521292,
      "prePerformCfg": ""
    },
    {
      "id": 6952605,
      "beginWay": "TALK_BEGIN_AUTO",
      "activeMode": "PLAY_MODE_HOST",
      "beginCond": [
        {
          "type": "QUEST_COND_GCG_WORLD_CHALLENGE_RESULT",
          "_param": [
            "1",
            "9526"
          ]
        }
      ],
      "priority": 6,
      "initDialog": 695260501,
      "npcId": [
        9526
      ],
      "performCfg": "QuestDialogue/GCG/Klee_9526/Q6952605",
      "heroTalk": "TALK_HERO_MAIN",
      "assetIndex": 8086788942705275888,
      "prePerformCfg": ""
    },
    {
      "id": 6952606,
      "beginWay": "TALK_BEGIN_MANUAL",
      "activeMode": "PLAY_MODE_HOST",
      "beginCondComb": "LOGIC_AND",
      "beginCond": [
        {
          "type": "QUEST_COND_GCG_NPC_TYPE",
          "_param": [
            "9526",
            "1"
          ]
        },
        {
          "type": "QUEST_COND_GCG_INVITE_TYPE",
          "_param": [
            "0"
          ]
        }
      ],
      "priority": 5,
      "nextTalks": [
        6952608,
        6952609,
        6952618
      ],
      "initDialog": 695260601,
      "npcId": [
        9526
      ],
      "performCfg": "QuestDialogue/GCG/Klee_9526/Q6952606",
      "heroTalk": "TALK_HERO_MAIN",
      "assetIndex": 4490663251699990717,
      "prePerformCfg": ""
    },
    {
      "id": 6952607,
      "activeMode": "PLAY_MODE_HOST",
      "nextTalks": [
        6952608,
        6952609,
        6952618
      ],
      "initDialog": 695260601,
      "npcId": [
        9526
      ],
      "performCfg": "QuestDialogue/GCG/Klee_9526/Q6952607",
      "heroTalk": "TALK_HERO_MAIN",
      "assetIndex": 641911488185902520,
      "prePerformCfg": ""
    },
    {
      "id": 6952608,
      "activeMode": "PLAY_MODE_HOST",
      "initDialog": 695260801,
      "npcId": [
        9526
      ],
      "performCfg": "",
      "heroTalk": "TALK_HERO_MAIN",
      "assetIndex": 382666658095858610,
      "prePerformCfg": ""
    },
    {
      "id": 6952609,
      "activeMode": "PLAY_MODE_HOST",
      "nextTalks": [
        6952607
      ],
      "initDialog": 695260901,
      "npcId": [
        9526
      ],
      "performCfg": "",
      "heroTalk": "TALK_HERO_MAIN",
      "assetIndex": 13421960777352524656,
      "prePerformCfg": ""
    },
    {
      "id": 6952610,
      "activeMode": "PLAY_MODE_HOST",
      "initDialog": 695261001,
      "npcId": [
        9526
      ],
      "performCfg": "QuestDialogue/GCG/Klee_9526/Q6952610",
      "heroTalk": "TALK_HERO_MAIN",
      "assetIndex": 8653569820805061265,
      "prePerformCfg": ""
    },
    {
      "id": 6952611,
      "activeMode": "PLAY_MODE_HOST",
      "initDialog": 695261101,
      "npcId": [
        9526
      ],
      "performCfg": "QuestDialogue/GCG/Klee_9526/Q6952611",
      "heroTalk": "TALK_HERO_MAIN",
      "assetIndex": 498189304770675873,
      "prePerformCfg": ""
    },
    {
      "id": 6952612,
      "beginWay": "TALK_BEGIN_MANUAL",
      "activeMode": "PLAY_MODE_HOST",
      "beginCondComb": "LOGIC_AND",
      "beginCond": [
        {
          "type": "QUEST_COND_GCG_NPC_TYPE",
          "_param": [
            "9526",
            "1"
          ]
        },
        {
          "type": "QUEST_COND_GCG_INVITE_TYPE",
          "_param": [
            "1"
          ]
        }
      ],
      "priority": 5,
      "nextTalks": [
        6952614,
        6952615,
        6952618
      ],
      "initDialog": 695261201,
      "npcId": [
        9526
      ],
      "performCfg": "QuestDialogue/GCG/Klee_9526/Q6952612",
      "heroTalk": "TALK_HERO_MAIN",
      "assetIndex": 5938630393477961195,
      "prePerformCfg": ""
    },
    {
      "id": 6952613,
      "activeMode": "PLAY_MODE_HOST",
      "nextTalks": [
        6952614,
        6952615,
        6952618
      ],
      "initDialog": 695261201,
      "npcId": [
        9526
      ],
      "performCfg": "QuestDialogue/GCG/Klee_9526/Q6952613",
      "heroTalk": "TALK_HERO_MAIN",
      "assetIndex": 1408686415911829023,
      "prePerformCfg": ""
    },
    {
      "id": 6952614,
      "activeMode": "PLAY_MODE_HOST",
      "initDialog": 695261401,
      "npcId": [
        9526
      ],
      "performCfg": "",
      "heroTalk": "TALK_HERO_MAIN",
      "assetIndex": 352410555593198226,
      "prePerformCfg": ""
    },
    {
      "id": 6952615,
      "activeMode": "PLAY_MODE_HOST",
      "nextTalks": [
        6952613
      ],
      "initDialog": 695261501,
      "npcId": [
        9526
      ],
      "performCfg": "",
      "heroTalk": "TALK_HERO_MAIN",
      "assetIndex": 4044881895629762898,
      "prePerformCfg": ""
    },
    {
      "id": 6952616,
      "activeMode": "PLAY_MODE_HOST",
      "initDialog": 695261601,
      "npcId": [
        9526
      ],
      "performCfg": "QuestDialogue/GCG/Klee_9526/Q6952616",
      "heroTalk": "TALK_HERO_MAIN",
      "assetIndex": 8713734828725329732,
      "prePerformCfg": ""
    },
    {
      "id": 6952617,
      "activeMode": "PLAY_MODE_HOST",
      "initDialog": 695261701,
      "npcId": [
        9526
      ],
      "performCfg": "QuestDialogue/GCG/Klee_9526/Q6952617",
      "heroTalk": "TALK_HERO_MAIN",
      "assetIndex": 3525063237472195345,
      "prePerformCfg": ""
    },
    {
      "id": 6952618,
      "activeMode": "PLAY_MODE_HOST",
      "initDialog": 695261801,
      "npcId": [
        9526
      ],
      "performCfg": "",
      "heroTalk": "TALK_HERO_MAIN",
      "assetIndex": 12850172379006512563,
      "prePerformCfg": ""
    }
  ]
}