{
  "npcId": 9532,
  "talks": [
    {
      "id": 6953206,
      "beginWay": "TALK_BEGIN_MANUAL",
      "activeMode": "PLAY_MODE_HOST",
      "beginCond": [
        {
          "type": "QUEST_COND_GCG_NPC_TYPE",
          "_param": [
            "9532",
            "1"
          ]
        },
        {
          "type": "QUEST_COND_GCG_INVITE_TYPE",
          "_param": [
            "0"
          ]
        }
      ],
      "priority": 5,
      "nextTalks": [
        6953208,
        6953209,
        6953218
      ],
      "initDialog": 695320601,
      "npcId": [
        9532
      ],
      "performCfg": "QuestDialogue/GCG/Shougun_9532/Q6953206",
      "assetIndex": 17969234608873505906,
      "prePerformCfg": ""
    },
    {
      "id": 6953207,
      "activeMode": "PLAY_MODE_HOST",
      "priority": 5,
      "nextTalks": [
        6953208,
        6953209,
        6953218
      ],
      "initDialog": 695320601,
      "npcId": [
        9532
      ],
      "performCfg": "QuestDialogue/GCG/Shougun_9532/Q6953207",
      "assetIndex": 16222368978680264197,
      "prePerformCfg": ""
    },
    {
      "id": 6953208,
      "activeMode": "PLAY_MODE_HOST",
      "priority": 5,
      "initDialog": 695320801,
      "npcId": [
        9532
      ],
      "performCfg": "",
      "assetIndex": 7540570468490366896,
      "prePerformCfg": ""
    },
    {
      "id": 6953209,
      "activeMode": "PLAY_MODE_HOST",
      "priority": 5,
      "nextTalks": [
        6953207
      ],
      "initDialog": 695320901,
      "npcId": [
        9532
      ],
      "performCfg": "",
      "assetIndex": 14130919600953066403,
      "prePerformCfg": ""
    },
    {
      "id": 6953210,
      "activeMode": "PLAY_MODE_HOST",
      "priority": 5,
      "initDialog": 695321001,
      "npcId": [
        9532
      ],
      "performCfg": "QuestDialogue/GCG/Shougun_9532/Q6953210",
      "assetIndex": 15299661255323395037,
      "prePerformCfg": ""
    },
    {
      "id": 6953211,
      "activeMode": "PLAY_MODE_HOST",
      "priority": 5,
      "initDialog": 695321101,
      "npcId": [
        9532
      ],
      "performCfg": "QuestDialogue/GCG/Shougun_9532/Q6953211",
      "assetIndex": 1044781498018997771,
      "prePerformCfg": ""
    },
    {
      "id": 6953212,
      "beginWay": "TALK_BEGIN_MANUAL",
      "activeMode": "PLAY_MODE_HOST",
      "beginCond": [
        {
          "type": "QUEST_COND_GCG_NPC_TYPE",
          "_param": [
            "9532",
            "1"
          ]
        },
        {
          "type": "QUEST_COND_GCG_INVITE_TYPE",
          "_param": [
            "1"
          ]
        }
      ],
      "priority": 5,
      "nextTalks": [
        6953214,
        6953215,
        6953218
      ],
      "initDialog": 695321201,
      "npcId": [
        9532
      ],
      "performCfg": "QuestDialogue/GCG/Shougun_9532/Q6953212",
      "assetIndex": 17796254779707441508,
      "prePerformCfg": ""
    },
    {
      "id": 6953213,
      "activeMode": "PLAY_MODE_HOST",
      "priority": 5,
      "nextTalks": [
        6953214,
        6953215,
        6953218
      ],
      "initDialog": 695321201,
      "npcId": [
        9532
      ],
      "performCfg": "QuestDialogue/GCG/Shougun_9532/Q6953213",
      "assetIndex": 16252171235805730559,
      "prePerformCfg": ""
    },
    {
      "id": 6953214,
      "activeMode": "PLAY_MODE_HOST",
      "priority": 5,
      "initDialog": 695321401,
      "npcId": [
        9532
      ],
      "performCfg": "",
      "assetIndex": 9207448602274345612,
      "prePerformCfg": ""
    },
    {
      "id": 6953215,
      "activeMode": "PLAY_MODE_HOST",
      "priority": 5,
      "nextTalks": [
        6953213
      ],
      "initDialog": 695321501,
      "npcId": [
        9532
      ],
      "performCfg": "",
      "assetIndex": 713233087621109648,
      "prePerformCfg": ""
    },
    {
      "id": 6953216,
      "activeMode": "PLAY_MODE_HOST",
      "priority": 5,
      "initDialog": 695321601,
      "npcId": [
        9532
      ],
      "performCfg": "QuestDialogue/GCG/Shougun_9532/Q6953216",
      "assetIndex": 3560276641369957358,
      "prePerformCfg": ""
    },
    {
      "id": 6953217,
      "activeMode": "PLAY_MODE_HOST",
      "priority": 5,
      "initDialog": 695321701,
      "npcId": [
        9532
      ],
      "performCfg": "QuestDialogue/GCG/Shougun_9532/Q6953217",
      "assetIndex": 7112069880461593162,
      "prePerformCfg": ""
    },
    {
      "id": 6953218,
      "activeMode": "PLAY_MODE_HOST",
      "priority": 5,
      "initDialog": 695321801,
      "npcId": [
        9532
      ],
      "performCfg": "",
      "assetIndex": 8655642343288231232,
      "prePerformCfg": ""
    }
  ]
}