{
  "npcId": 9534,
  "talks": [
    {
      "id": 6953406,
      "beginWay": "TALK_BEGIN_MANUAL",
      "activeMode": "PLAY_MODE_HOST",
      "beginCond": [
        {
          "type": "QUEST_COND_GCG_NPC_TYPE",
          "_param": [
            "9534",
            "1"
          ]
        },
        {
          "type": "QUEST_COND_GCG_INVITE_TYPE",
          "_param": [
            "0"
          ]
        }
      ],
      "priority": 5,
      "nextTalks": [
        6953408,
        6953409,
        6953418
      ],
      "initDialog": 695340601,
      "npcId": [
        9534
      ],
      "performCfg": "QuestDialogue/GCG/Venti_9534/Q6953406",
      "assetIndex": 2940930106948275322,
      "prePerformCfg": ""
    },
    {
      "id": 6953407,
      "activeMode": "PLAY_MODE_HOST",
      "priority": 5,
      "nextTalks": [
        6953408,
        6953409,
        6953418
      ],
      "initDialog": 695340601,
      "npcId": [
        9534
      ],
      "performCfg": "QuestDialogue/GCG/Venti_9534/Q6953407",
      "assetIndex": 5183718115525001252,
      "prePerformCfg": ""
    },
    {
      "id": 6953408,
      "activeMode": "PLAY_MODE_HOST",
      "priority": 5,
      "initDialog": 695340801,
      "npcId": [
        9534
      ],
      "performCfg": "",
      "assetIndex": 10275500868702344601,
      "prePerformCfg": ""
    },
    {
      "id": 6953409,
      "activeMode": "PLAY_MODE_HOST",
      "priority": 5,
      "nextTalks": [
        6953407
      ],
      "initDialog": 695340901,
      "npcId": [
        9534
      ],
      "performCfg": "",
      "assetIndex": 8989948993962722149,
      "prePerformCfg": ""
    },
    {
      "id": 6953410,
      "activeMode": "PLAY_MODE_HOST",
      "priority": 5,
      "initDialog": 695341001,
      "npcId": [
        9534
      ],
      "performCfg": "QuestDialogue/GCG/Venti_9534/Q6953410",
      "assetIndex": 13898599117851604200,
      "prePerformCfg": ""
    },
    {
      "id": 6953411,
      "activeMode": "PLAY_MODE_HOST",
      "priority": 5,
      "initDialog": 695341101,
      "npcId": [
        9534
      ],
      "performCfg": "QuestDialogue/GCG/Venti_9534/Q6953411",
      "assetIndex": 13591749441204451498,
      "prePerformCfg": ""
    },
    {
      "id": 6953412,
      "beginWay": "TALK_BEGIN_MANUAL",
      "activeMode": "PLAY_MODE_HOST",
      "beginCond": [
        {
          "type": "QUEST_COND_GCG_NPC_TYPE",
          "_param": [
            "9534",
            "1"
          ]
        },
        {
          "type": "QUEST_COND_GCG_INVITE_TYPE",
          "_param": [
            "1"
          ]
        }
      ],
      "priority": 5,
      "nextTalks": [
        6953414,
        6953415,
        6953418
      ],
      "initDialog": 695341201,
      "npcId": [
        9534
      ],
      "performCfg": "QuestDialogue/GCG/Venti_9534/Q6953412",
      "assetIndex": 7708259755603218735,
      "prePerformCfg": ""
    },
    {
      "id": 6953413,
      "activeMode": "PLAY_MODE_HOST",
      "priority": 5,
      "nextTalks": [
        6953414,
        6953415,
        6953418
      ],
      "initDialog": 695341201,
      "npcId": [
        9534
      ],
      "performCfg": "QuestDialogue/GCG/Venti_9534/Q6953413",
      "assetIndex": 11354638645719444906,
      "prePerformCfg": ""
    },
    {
      "id": 6953414,
      "activeMode": "PLAY_MODE_HOST",
      "priority": 5,
      "initDialog": 695341401,
      "npcId": [
        9534
      ],
      "performCfg": "",
      "assetIndex": 17345020613683364216,
      "prePerformCfg": ""
    },
    {
      "id": 6953415,
      "activeMode": "PLAY_MODE_HOST",
      "priority": 5,
      "nextTalks": [
        6953413
      ],
      "initDialog": 695341501,
      "npcId": [
        9534
      ],
      "performCfg": "",
      "assetIndex": 8180893975351299442,
      "prePerformCfg": ""
    },
    {
      "id": 6953416,
      "activeMode": "PLAY_MODE_HOST",
      "priority": 5,
      "initDialog": 695341601,
      "npcId": [
        9534
      ],
      "performCfg": "QuestDialogue/GCG/Venti_9534/Q6953416",
      "assetIndex": 16994697532469408235,
      "prePerformCfg": ""
    },
    {
      "id": 6953417,
      "activeMode": "PLAY_MODE_HOST",
      "priority": 5,
      "initDialog": 695341701,
      "npcId": [
        9534
      ],
      "performCfg": "QuestDialogue/GCG/Venti_9534/Q6953417",
      "assetIndex": 8237339408743858103,
      "prePerformCfg": ""
    },
    {
      "id": 6953418,
      "activeMode": "PLAY_MODE_HOST",
      "priority": 5,
      "initDialog": 695341801,
      "npcId": [
        9534
      ],
      "performCfg": "",
      "assetIndex": 18269091947145984040,
      "prePerformCfg": ""
    }
  ]
}