{
  "npcId": 9535,
  "talks": [
    {
      "id": 6953506,
      "beginWay": "TALK_BEGIN_MANUAL",
      "activeMode": "PLAY_MODE_HOST",
      "beginCond": [
        {
          "type": "QUEST_COND_GCG_NPC_TYPE",
          "_param": [
            "9535",
            "1"
          ]
        },
        {
          "type": "QUEST_COND_GCG_INVITE_TYPE",
          "_param": [
            "0"
          ]
        }
      ],
      "priority": 5,
      "nextTalks": [
        6953508,
        6953509,
        6953518
      ],
      "initDialog": 695350601,
      "npcId": [
        9535
      ],
      "performCfg": "QuestDialogue/GCG/Xiao_9535/Q6953506",
      "assetIndex": 17646957448261888031,
      "prePerformCfg": ""
    },
    {
      "id": 6953507,
      "activeMode": "PLAY_MODE_HOST",
      "priority": 5,
      "nextTalks": [
        6953508,
        6953509,
        6953518
      ],
      "initDialog": 695350601,
      "npcId": [
        9535
      ],
      "performCfg": "QuestDialogue/GCG/Xiao_9535/Q6953507",
      "assetIndex": 14946524790843058985,
      "prePerformCfg": ""
    },
    {
      "id": 6953508,
      "activeMode": "PLAY_MODE_HOST",
      "priority": 5,
      "initDialog": 695350801,
      "npcId": [
        9535
      ],
      "performCfg": "",
      "assetIndex": 12802597404202085158,
      "prePerformCfg": ""
    },
    {
      "id": 6953509,
      "activeMode": "PLAY_MODE_HOST",
      "priority": 5,
      "nextTalks": [
        6953507
      ],
      "initDialog": 695350901,
      "npcId": [
        9535
      ],
      "performCfg": "",
      "assetIndex": 18103577005104698791,
      "prePerformCfg": ""
    },
    {
      "id": 6953510,
      "activeMode": "PLAY_MODE_HOST",
      "priority": 5,
      "initDialog": 695351001,
      "npcId": [
        9535
      ],
      "performCfg": "QuestDialogue/GCG/Xiao_9535/Q6953510",
      "assetIndex": 15444431720078288564,
      "prePerformCfg": ""
    },
    {
      "id": 6953511,
      "activeMode": "PLAY_MODE_HOST",
      "priority": 5,
      "initDialog": 695351101,
      "npcId": [
        9535
      ],
      "performCfg": "QuestDialogue/GCG/Xiao_9535/Q6953511",
      "assetIndex": 8611500763589602182,
      "prePerformCfg": ""
    },
    {
      "id": 6953512,
      "beginWay": "TALK_BEGIN_MANUAL",
      "activeMode": "PLAY_MODE_HOST",
      "beginCond": [
        {
          "type": "QUEST_COND_GCG_NPC_TYPE",
          "_param": [
            "9535",
            "1"
          ]
        },
        {
          "type": "QUEST_COND_GCG_INVITE_TYPE",
          "_param": [
            "1"
          ]
        }
      ],
      "priority": 5,
      "nextTalks": [
        6953514,
        6953515,
        6953518
      ],
      "initDialog": 695351201,
      "npcId": [
        9535
      ],
      "performCfg": "QuestDialogue/GCG/Xiao_9535/Q6953512",
      "assetIndex": 7015386895929486210,
      "prePerformCfg": ""
    },
    {
      "id": 6953513,
      "activeMode": "PLAY_MODE_HOST",
      "priority": 5,
      "nextTalks": [
        6953514,
        6953515,
        6953518
      ],
      "initDialog": 695351201,
      "npcId": [
        9535
      ],
      "performCfg": "QuestDialogue/GCG/Xiao_9535/Q6953513",
      "assetIndex": 11642058729900561900,
      "prePerformCfg": ""
    },
    {
      "id": 6953514,
      "activeMode": "PLAY_MODE_HOST",
      "priority": 5,
      "initDialog": 695351401,
      "npcId": [
        9535
      ],
      "performCfg": "",
      "assetIndex": 16543660495224749737,
      "prePerformCfg": ""
    },
    {
      "id": 6953515,
      "activeMode": "PLAY_MODE_HOST",
      "priority": 5,
      "nextTalks": [
        6953513
      ],
      "initDialog": 695351501,
      "npcId": [
        9535
      ],
      "performCfg": "",
      "assetIndex": 10716248982160443063,
      "prePerformCfg": ""
    },
    {
      "id": 6953516,
      "activeMode": "PLAY_MODE_HOST",
      "priority": 5,
      "initDialog": 695351601,
      "npcId": [
        9535
      ],
      "performCfg": "QuestDialogue/GCG/Xiao_9535/Q6953516",
      "assetIndex": 17726983923783071742,
      "prePerformCfg": ""
    },
    {
      "id": 6953517,
      "activeMode": "PLAY_MODE_HOST",
      "priority": 5,
      "initDialog": 695351701,
      "npcId": [
        9535
      ],
      "performCfg": "QuestDialogue/GCG/Xiao_9535/Q6953517",
      "assetIndex": 6979920175531095635,
      "prePerformCfg": ""
    },
    {
      "id": 6953518,
      "activeMode": "PLAY_MODE_HOST",
      "priority": 5,
      "initDialog": 695351801,
      "npcId": [
        9535
      ],
      "performCfg": "",
      "assetIndex": 666838583249809410,
      "prePerformCfg": ""
    }
  ]
}