{
  "npcId": 9541,
  "talks": [
    {
      "id": 6954101,
      "beginWay": "TALK_BEGIN_MANUAL",
      "activeMode": "PLAY_MODE_HOST",
      "beginCond": [
        {
          "type": "QUEST_COND_GCG_NPC_TYPE",
          "_param": [
            "9541",
            "2"
          ]
        }
      ],
      "priority": 5,
      "nextTalks": [
        6954102,
        6954103
      ],
      "initDialog": 695410101,
      "npcId": [
        9541
      ],
      "performCfg": "QuestDialogue/GCG/Feiyan_9541/Q6954101",
      "assetIndex": 14970890854793929126,
      "prePerformCfg": ""
    },
    {
      "id": 6954102,
      "activeMode": "PLAY_MODE_HOST",
      "priority": 5,
      "initDialog": 695410201,
      "npcId": [
        9541
      ],
      "performCfg": "",
      "assetIndex": 10733937005168003597,
      "prePerformCfg": ""
    },
    {
      "id": 6954103,
      "activeMode": "PLAY_MODE_HOST",
      "priority": 5,
      "initDialog": 695410301,
      "npcId": [
        9541
      ],
      "performCfg": "QuestDialogue/GCG/Feiyan_9541/Q6954103",
      "assetIndex": 13861912301575574372,
      "prePerformCfg": ""
    },
    {
      "id": 6954104,
      "beginWay": "TALK_BEGIN_AUTO",
      "activeMode": "PLAY_MODE_HOST",
      "beginCond": [
        {
          "type": "QUEST_COND_GCG_WORLD_CHALLENGE_RESULT",
          "_param": [
            "-1",
            "9541"
          ]
        }
      ],
      "priority": 6,
      "initDialog": 695410401,
      "npcId": [
        9541
      ],
      "performCfg": "QuestDialogue/GCG/Feiyan_9541/Q6954104",
      "assetIndex": 10614551765096382206,
      "prePerformCfg": ""
    },
    {
      "id": 6954105,
      "beginWay": "TALK_BEGIN_AUTO",
      "activeMode": "PLAY_MODE_HOST",
      "beginCond": [
        {
          "type": "QUEST_COND_GCG_WORLD_CHALLENGE_RESULT",
          "_param": [
            "1",
            "9541"
          ]
        }
      ],
      "priority": 6,
      "initDialog": 695410501,
      "npcId": [
        9541
      ],
      "performCfg": "QuestDialogue/GCG/Feiyan_9541/Q6954105",
      "assetIndex": 6204956012249818538,
      "prePerformCfg": ""
    },
    {
      "id": 6954106,
      "beginWay": "TALK_BEGIN_MANUAL",
      "activeMode": "PLAY_MODE_HOST",
      "beginCond": [
        {
          "type": "QUEST_COND_GCG_NPC_TYPE",
          "_param": [
            "9541",
            "1"
          ]
        },
        {
          "type": "QUEST_COND_GCG_INVITE_TYPE",
          "_param": [
            "0"
          ]
        }
      ],
      "priority": 5,
      "nextTalks": [
        6954108,
        6954109,
        6954118
      ],
      "initDialog": 695410601,
      "npcId": [
        9541
      ],
      "performCfg": "QuestDialogue/GCG/Feiyan_9541/Q6954106",
      "assetIndex": 1967833264549224557,
      "prePerformCfg": ""
    },
    {
      "id": 6954107,
      "activeMode": "PLAY_MODE_HOST",
      "priority": 5,
      "nextTalks": [
        6954108,
        6954109,
        6954118
      ],
      "initDialog": 695410601,
      "npcId": [
        9541
      ],
      "performCfg": "QuestDialogue/GCG/Feiyan_9541/Q6954107",
      "assetIndex": 15137361461183919394,
      "prePerformCfg": ""
    },
    {
      "id": 6954108,
      "activeMode": "PLAY_MODE_HOST",
      "priority": 5,
      "initDialog": 695410801,
      "npcId": [
        9541
      ],
      "performCfg": "",
      "assetIndex": 1660515359912258610,
      "prePerformCfg": ""
    },
    {
      "id": 6954109,
      "activeMode": "PLAY_MODE_HOST",
      "priority": 5,
      "nextTalks": [
        6954107
      ],
      "initDialog": 695410901,
      "npcId": [
        9541
      ],
      "performCfg": "",
      "assetIndex": 16865075865055382953,
      "prePerformCfg": ""
    },
    {
      "id": 6954110,
      "activeMode": "PLAY_MODE_HOST",
      "priority": 5,
      "initDialog": 695411001,
      "npcId": [
        9541
      ],
      "performCfg": "QuestDialogue/GCG/Feiyan_9541/Q6954110",
      "assetIndex": 3883448609153019020,
      "prePerformCfg": ""
    },
    {
      "id": 6954111,
      "activeMode": "PLAY_MODE_HOST",
      "priority": 5,
      "initDialog": 695411101,
      "npcId": [
        9541
      ],
      "performCfg": "QuestDialogue/GCG/Feiyan_9541/Q6954111",
      "assetIndex": 424957174143857886,
      "prePerformCfg": ""
    },
    {
      "id": 6954112,
      "beginWay": "TALK_BEGIN_MANUAL",
      "activeMode": "PLAY_MODE_HOST",
      "beginCond": [
        {
          "type": "QUEST_COND_GCG_NPC_TYPE",
          "_param": [
            "9541",
            "1"
          ]
        },
        {
          "type": "QUEST_COND_GCG_INVITE_TYPE",
          "_param": [
            "1"
          ]
        }
      ],
      "priority": 5,
      "nextTalks": [
        6954114,
        6954115,
        6954118
      ],
      "initDialog": 695411201,
      "npcId": [
        9541
      ],
      "performCfg": "QuestDialogue/GCG/Feiyan_9541/Q6954112",
      "assetIndex": 11751702715320758148,
      "prePerformCfg": ""
    },
    {
      "id": 6954113,
      "activeMode": "PLAY_MODE_HOST",
      "priority": 5,
      "nextTalks": [
        6954114,
        6954115,
        6954118
      ],
      "initDialog": 695411201,
      "npcId": [
        9541
      ],
      "performCfg": "QuestDialogue/GCG/Feiyan_9541/Q6954113",
      "assetIndex": 13262184924152303855,
      "prePerformCfg": ""
    },
    {
      "id": 6954114,
      "activeMode": "PLAY_MODE_HOST",
      "priority": 5,
      "initDialog": 695411401,
      "npcId": [
        9541
      ],
      "performCfg": "",
      "assetIndex": 5157577080279343811,
      "prePerformCfg": ""
    },
    {
      "id": 6954115,
      "activeMode": "PLAY_MODE_HOST",
      "priority": 5,
      "nextTalks": [
        6954113
      ],
      "initDialog": 695411501,
      "npcId": [
        9541
      ],
      "performCfg": "",
      "assetIndex": 4935910813055134509,
      "prePerformCfg": ""
    },
    {
      "id": 6954116,
      "activeMode": "PLAY_MODE_HOST",
      "priority": 5,
      "initDialog": 695411601,
      "npcId": [
        9541
      ],
      "performCfg": "QuestDialogue/GCG/Feiyan_9541/Q6954116",
      "assetIndex": 4735483345537714992,
      "prePerformCfg": ""
    },
    {
      "id": 6954117,
      "activeMode": "PLAY_MODE_HOST",
      "priority": 5,
      "initDialog": 695411701,
      "npcId": [
        9541
      ],
      "performCfg": "QuestDialogue/GCG/Feiyan_9541/Q6954117",
      "assetIndex": 8056342948921825516,
      "prePerformCfg": ""
    },
    {
      "id": 6954118,
      "activeMode": "PLAY_MODE_HOST",
      "priority": 5,
      "initDialog": 695411801,
      "npcId": [
        9541
      ],
      "performCfg": "",
      "assetIndex": 3287946775529151746,
      "prePerformCfg": ""
    }
  ]
}