{
  "npcId": 9548,
  "talks": [
    {
      "id": 6954801,
      "beginWay": "TALK_BEGIN_MANUAL",
      "activeMode": "PLAY_MODE_HOST",
      "beginCond": [
        {
          "type": "QUEST_COND_GCG_NPC_TYPE",
          "_param": [
            "9548",
            "2"
          ]
        }
      ],
      "priority": 5,
      "nextTalks": [
        6954802,
        6954803
      ],
      "initDialog": 695480101,
      "npcId": [
        9548
      ],
      "performCfg": "QuestDialogue/GCG/Yaoyao_9548/Q6954801",
      "assetIndex": 9142071014556189192,
      "prePerformCfg": ""
    },
    {
      "id": 6954802,
      "activeMode": "PLAY_MODE_HOST",
      "priority": 5,
      "initDialog": 695480201,
      "npcId": [
        9548
      ],
      "performCfg": "",
      "assetIndex": 13868747674486747548,
      "prePerformCfg": ""
    },
    {
      "id": 6954803,
      "activeMode": "PLAY_MODE_HOST",
      "priority": 5,
      "initDialog": 695480301,
      "npcId": [
        9548
      ],
      "performCfg": "QuestDialogue/GCG/Yaoyao_9548/Q6954803",
      "assetIndex": 13447188586095020781,
      "prePerformCfg": ""
    },
    {
      "id": 6954804,
      "beginWay": "TALK_BEGIN_AUTO",
      "activeMode": "PLAY_MODE_HOST",
      "beginCond": [
        {
          "type": "QUEST_COND_GCG_WORLD_CHALLENGE_RESULT",
          "_param": [
            "-1",
            "9548"
          ]
        }
      ],
      "priority": 6,
      "initDialog": 695480401,
      "npcId": [
        9548
      ],
      "performCfg": "QuestDialogue/GCG/Yaoyao_9548/Q6954804",
      "assetIndex": 4528406047858641183,
      "prePerformCfg": ""
    },
    {
      "id": 6954805,
      "beginWay": "TALK_BEGIN_AUTO",
      "activeMode": "PLAY_MODE_HOST",
      "beginCond": [
        {
          "type": "QUEST_COND_GCG_WORLD_CHALLENGE_RESULT",
          "_param": [
            "1",
            "9548"
          ]
        }
      ],
      "priority": 6,
      "initDialog": 695480501,
      "npcId": [
        9548
      ],
      "performCfg": "QuestDialogue/GCG/Yaoyao_9548/Q6954805",
      "assetIndex": 7563728549103313163,
      "prePerformCfg": ""
    },
    {
      "id": 6954806,
      "beginWay": "TALK_BEGIN_MANUAL",
      "activeMode": "PLAY_MODE_HOST",
      "beginCond": [
        {
          "type": "QUEST_COND_GCG_NPC_TYPE",
          "_param": [
            "9548",
            "1"
          ]
        },
        {
          "type": "QUEST_COND_GCG_INVITE_TYPE",
          "_param": [
            "0"
          ]
        }
      ],
      "priority": 5,
      "nextTalks": [
        6954808,
        6954809,
        6954818
      ],
      "initDialog": 695480601,
      "npcId": [
        9548
      ],
      "performCfg": "QuestDialogue/GCG/Yaoyao_9548/Q6954806",
      "assetIndex": 556132234526742002,
      "prePerformCfg": ""
    },
    {
      "id": 6954807,
      "activeMode": "PLAY_MODE_HOST",
      "priority": 5,
      "nextTalks": [
        6954808,
        6954809,
        6954818
      ],
      "initDialog": 695480601,
      "npcId": [
        9548
      ],
      "performCfg": "QuestDialogue/GCG/Yaoyao_9548/Q6954807",
      "assetIndex": 10587298239658617263,
      "prePerformCfg": ""
    },
    {
      "id": 6954808,
      "activeMode": "PLAY_MODE_HOST",
      "priority": 5,
      "initDialog": 695480801,
      "npcId": [
        9548
      ],
      "performCfg": "",
      "assetIndex": 8963553148311476138,
      "prePerformCfg": ""
    },
    {
      "id": 6954809,
      "activeMode": "PLAY_MODE_HOST",
      "priority": 5,
      "nextTalks": [
        6954807
      ],
      "initDialog": 695480901,
      "npcId": [
        9548
      ],
      "performCfg": "",
      "assetIndex": 4278173891925546430,
      "prePerformCfg": ""
    },
    {
      "id": 6954810,
      "activeMode": "PLAY_MODE_HOST",
      "priority": 5,
      "initDialog": 695481001,
      "npcId": [
        9548
      ],
      "performCfg": "QuestDialogue/GCG/Yaoyao_9548/Q6954810",
      "assetIndex": 11338644527046341034,
      "prePerformCfg": ""
    },
    {
      "id": 6954811,
      "activeMode": "PLAY_MODE_HOST",
      "priority": 5,
      "initDialog": 695481101,
      "npcId": [
        9548
      ],
      "performCfg": "QuestDialogue/GCG/Yaoyao_9548/Q6954811",
      "assetIndex": 13344415589919394902,
      "prePerformCfg": ""
    },
    {
      "id": 6954812,
      "beginWay": "TALK_BEGIN_MANUAL",
      "activeMode": "PLAY_MODE_HOST",
      "beginCond": [
        {
          "type": "QUEST_COND_GCG_NPC_TYPE",
          "_param": [
            "9548",
            "1"
          ]
        },
        {
          "type": "QUEST_COND_GCG_INVITE_TYPE",
          "_param": [
            "1"
          ]
        }
      ],
      "priority": 5,
      "nextTalks": [
        6954814,
        6954815,
        6954818
      ],
      "initDialog": 695481201,
      "npcId": [
        9548
      ],
      "performCfg": "QuestDialogue/GCG/Yaoyao_9548/Q6954812",
      "assetIndex": 10640738936887312496,
      "prePerformCfg": ""
    },
    {
      "id": 6954813,
      "activeMode": "PLAY_MODE_HOST",
      "priority": 5,
      "nextTalks": [
        6954814,
        6954815,
        6954818
      ],
      "initDialog": 695481201,
      "npcId": [
        9548
      ],
      "performCfg": "QuestDialogue/GCG/Yaoyao_9548/Q6954813",
      "assetIndex": 17839573826616701046,
      "prePerformCfg": ""
    },
    {
      "id": 6954814,
      "activeMode": "PLAY_MODE_HOST",
      "priority": 5,
      "initDialog": 695481401,
      "npcId": [
        9548
      ],
      "performCfg": "",
      "assetIndex": 11747966490567782919,
      "prePerformCfg": ""
    },
    {
      "id": 6954815,
      "activeMode": "PLAY_MODE_HOST",
      "priority": 5,
      "nextTalks": [
        6954813
      ],
      "initDialog": 695481501,
      "npcId": [
        9548
      ],
      "performCfg": "",
      "assetIndex": 15133758403799450789,
      "prePerformCfg": ""
    },
    {
      "id": 6954816,
      "activeMode": "PLAY_MODE_HOST",
      "priority": 5,
      "initDialog": 695481601,
      "npcId": [
        9548
      ],
      "performCfg": "QuestDialogue/GCG/Yaoyao_9548/Q6954816",
      "assetIndex": 13887685175756281376,
      "prePerformCfg": ""
    },
    {
      "id": 6954817,
      "activeMode": "PLAY_MODE_HOST",
      "priority": 5,
      "initDialog": 695481701,
      "npcId": [
        9548
      ],
      "performCfg": "QuestDialogue/GCG/Yaoyao_9548/Q6954817",
      "assetIndex": 4093168007525054705,
      "prePerformCfg": ""
    },
    {
      "id": 6954818,
      "activeMode": "PLAY_MODE_HOST",
      "priority": 5,
      "initDialog": 695481801,
      "npcId": [
        9548
      ],
      "performCfg": "",
      "assetIndex": 9709098432465578911,
      "prePerformCfg": ""
    }
  ]
}