{
  "npcId": 9556,
  "talks": [
    {
      "id": 6955601,
      "beginWay": "TALK_BEGIN_MANUAL",
      "activeMode": "PLAY_MODE_HOST",
      "beginCond": [
        {
          "type": "QUEST_COND_GCG_NPC_TYPE",
          "_param": [
            "9556",
            "2"
          ]
        }
      ],
      "priority": 5,
      "nextTalks": [
        6955602,
        6955603
      ],
      "initDialog": 695560101,
      "npcId": [
        9556
      ],
      "performCfg": "QuestDialogue/GCG/Linette_9556/Q6955601",
      "assetIndex": 14423622219339718349,
      "prePerformCfg": ""
    },
    {
      "id": 6955602,
      "activeMode": "PLAY_MODE_HOST",
      "priority": 5,
      "initDialog": 695560201,
      "npcId": [
        9556
      ],
      "performCfg": "",
      "assetIndex": 14666009088540721427,
      "prePerformCfg": ""
    },
    {
      "id": 6955603,
      "activeMode": "PLAY_MODE_HOST",
      "priority": 5,
      "initDialog": 695560301,
      "npcId": [
        9556
      ],
      "performCfg": "QuestDialogue/GCG/Linette_9556/Q6955603",
      "assetIndex": 3538912612440018207,
      "prePerformCfg": ""
    },
    {
      "id": 6955604,
      "beginWay": "TALK_BEGIN_AUTO",
      "activeMode": "PLAY_MODE_HOST",
      "beginCond": [
        {
          "type": "QUEST_COND_GCG_WORLD_CHALLENGE_RESULT",
          "_param": [
            "-1",
            "9556"
          ]
        }
      ],
      "priority": 6,
      "initDialog": 695560401,
      "npcId": [
        9556
      ],
      "performCfg": "QuestDialogue/GCG/Linette_9556/Q6955604",
      "assetIndex": 1882102511655276479,
      "prePerformCfg": ""
    },
    {
      "id": 6955605,
      "beginWay": "TALK_BEGIN_AUTO",
      "activeMode": "PLAY_MODE_HOST",
      "beginCond": [
        {
          "type": "QUEST_COND_GCG_WORLD_CHALLENGE_RESULT",
          "_param": [
            "1",
            "9556"
          ]
        }
      ],
      "priority": 6,
      "initDialog": 695560501,
      "npcId": [
        9556
      ],
      "performCfg": "QuestDialogue/GCG/Linette_9556/Q6955605",
      "assetIndex": 13711636587919563714,
      "prePerformCfg": ""
    },
    {
      "id": 6955606,
      "beginWay": "TALK_BEGIN_MANUAL",
      "activeMode": "PLAY_MODE_HOST",
      "beginCond": [
        {
          "type": "QUEST_COND_GCG_NPC_TYPE",
          "_param": [
            "9556",
            "1"
          ]
        },
        {
          "type": "QUEST_COND_GCG_INVITE_TYPE",
          "_param": [
            "0"
          ]
        }
      ],
      "priority": 5,
      "nextTalks": [
        6955608,
        6955609,
        6955618
      ],
      "initDialog": 695560601,
      "npcId": [
        9556
      ],
      "performCfg": "QuestDialogue/GCG/Linette_9556/Q6955606",
      "assetIndex": 1217443362761571792,
      "prePerformCfg": ""
    },
    {
      "id": 6955607,
      "activeMode": "PLAY_MODE_HOST",
      "priority": 5,
      "nextTalks": [
        6955608,
        6955609,
        6955618
      ],
      "initDialog": 695560601,
      "npcId": [
        9556
      ],
      "performCfg": "QuestDialogue/GCG/Linette_9556/Q6955607",
      "assetIndex": 5431434583276086525,
      "prePerformCfg": ""
    },
    {
      "id": 6955608,
      "activeMode": "PLAY_MODE_HOST",
      "priority": 5,
      "initDialog": 695560801,
      "npcId": [
        9556
      ],
      "performCfg": "",
      "assetIndex": 13077045570787610278,
      "prePerformCfg": ""
    },
    {
      "id": 6955609,
      "activeMode": "PLAY_MODE_HOST",
      "priority": 5,
      "nextTalks": [
        6955607
      ],
      "initDialog": 695560901,
      "npcId": [
        9556
      ],
      "performCfg": "",
      "assetIndex": 6218988880953510210,
      "prePerformCfg": ""
    },
    {
      "id": 6955610,
      "activeMode": "PLAY_MODE_HOST",
      "priority": 5,
      "initDialog": 695561001,
      "npcId": [
        9556
      ],
      "performCfg": "QuestDialogue/GCG/Linette_9556/Q6955610",
      "assetIndex": 6921470990073428877,
      "prePerformCfg": ""
    },
    {
      "id": 6955611,
      "activeMode": "PLAY_MODE_HOST",
      "priority": 5,
      "initDialog": 695561101,
      "npcId": [
        9556
      ],
      "performCfg": "QuestDialogue/GCG/Linette_9556/Q6955611",
      "assetIndex": 5208617975165922623,
      "prePerformCfg": ""
    },
    {
      "id": 6955612,
      "beginWay": "TALK_BEGIN_MANUAL",
      "activeMode": "PLAY_MODE_HOST",
      "beginCond": [
        {
          "type": "QUEST_COND_GCG_NPC_TYPE",
          "_param": [
            "9556",
            "1"
          ]
        },
        {
          "type": "QUEST_COND_GCG_INVITE_TYPE",
          "_param": [
            "1"
          ]
        }
      ],
      "priority": 5,
      "nextTalks": [
        6955614,
        6955615,
        6955618
      ],
      "initDialog": 695561201,
      "npcId": [
        9556
      ],
      "performCfg": "QuestDialogue/GCG/Linette_9556/Q6955612",
      "assetIndex": 4527271013914394431,
      "prePerformCfg": ""
    },
    {
      "id": 6955613,
      "activeMode": "PLAY_MODE_HOST",
      "priority": 5,
      "nextTalks": [
        6955614,
        6955615,
        6955618
      ],
      "initDialog": 695561201,
      "npcId": [
        9556
      ],
      "performCfg": "QuestDialogue/GCG/Linette_9556/Q6955613",
      "assetIndex": 2206254504785566019,
      "prePerformCfg": ""
    },
    {
      "id": 6955614,
      "activeMode": "PLAY_MODE_HOST",
      "priority": 5,
      "initDialog": 695561401,
      "npcId": [
        9556
      ],
      "performCfg": "",
      "assetIndex": 12168685000511612022,
      "prePerformCfg": ""
    },
    {
      "id": 6955615,
      "activeMode": "PLAY_MODE_HOST",
      "priority": 5,
      "nextTalks": [
        6955613
      ],
      "initDialog": 695561501,
      "npcId": [
        9556
      ],
      "performCfg": "",
      "assetIndex": 10317353797063464219,
      "prePerformCfg": ""
    },
    {
      "id": 6955616,
      "activeMode": "PLAY_MODE_HOST",
      "priority": 5,
      "initDialog": 695561601,
      "npcId": [
        9556
      ],
      "performCfg": "QuestDialogue/GCG/Linette_9556/Q6955616",
      "assetIndex": 2690760237533522148,
      "prePerformCfg": ""
    },
    {
      "id": 6955617,
      "activeMode": "PLAY_MODE_HOST",
      "priority": 5,
      "initDialog": 695561701,
      "npcId": [
        9556
      ],
      "performCfg": "QuestDialogue/GCG/Linette_9556/Q6955617",
      "assetIndex": 4102141349562357675,
      "prePerformCfg": ""
    },
    {
      "id": 6955618,
      "activeMode": "PLAY_MODE_HOST",
      "priority": 5,
      "initDialog": 695561801,
      "npcId": [
        9556
      ],
      "performCfg": "",
      "assetIndex": 4391553130575145227,
      "prePerformCfg": ""
    }
  ]
}