{
  "npcId": 9562,
  "talks": [
    {
      "id": 6956206,
      "beginWay": "TALK_BEGIN_MANUAL",
      "activeMode": "PLAY_MODE_HOST",
      "beginCond": [
        {
          "type": "QUEST_COND_GCG_NPC_TYPE",
          "_param": [
            "9562",
            "1"
          ]
        },
        {
          "type": "QUEST_COND_GCG_INVITE_TYPE",
          "_param": [
            "0"
          ]
        }
      ],
      "priority": 5,
      "nextTalks": [
        6956208,
        6956209,
        6956218
      ],
      "initDialog": 695620601,
      "npcId": [
        9562
      ],
      "performCfg": "QuestDialogue/GCG/Neuvillette_9562/Q6956206",
      "assetIndex": 255486732845740576,
      "prePerformCfg": ""
    },
    {
      "id": 6956207,
      "activeMode": "PLAY_MODE_HOST",
      "priority": 5,
      "nextTalks": [
        6956208,
        6956209,
        6956218
      ],
      "initDialog": 695620601,
      "npcId": [
        9562
      ],
      "performCfg": "QuestDialogue/GCG/Neuvillette_9562/Q6956207",
      "assetIndex": 2751500857812554602,
      "prePerformCfg": ""
    },
    {
      "id": 6956208,
      "activeMode": "PLAY_MODE_HOST",
      "priority": 5,
      "initDialog": 695620801,
      "npcId": [
        9562
      ],
      "performCfg": "",
      "assetIndex": 17078986984641113071,
      "prePerformCfg": ""
    },
    {
      "id": 6956209,
      "activeMode": "PLAY_MODE_HOST",
      "priority": 5,
      "nextTalks": [
        6956207
      ],
      "initDialog": 695620901,
      "npcId": [
        9562
      ],
      "performCfg": "",
      "assetIndex": 17240733552472429968,
      "prePerformCfg": ""
    },
    {
      "id": 6956210,
      "activeMode": "PLAY_MODE_HOST",
      "priority": 5,
      "initDialog": 695621001,
      "npcId": [
        9562
      ],
      "performCfg": "QuestDialogue/GCG/Neuvillette_9562/Q6956210",
      "assetIndex": 1757267097835381598,
      "prePerformCfg": ""
    },
    {
      "id": 6956211,
      "activeMode": "PLAY_MODE_HOST",
      "priority": 5,
      "initDialog": 695621101,
      "npcId": [
        9562
      ],
      "performCfg": "QuestDialogue/GCG/Neuvillette_9562/Q6956211",
      "assetIndex": 1093859736448597186,
      "prePerformCfg": ""
    },
    {
      "id": 6956212,
      "beginWay": "TALK_BEGIN_MANUAL",
      "activeMode": "PLAY_MODE_HOST",
      "beginCond": [
        {
          "type": "QUEST_COND_GCG_NPC_TYPE",
          "_param": [
            "9562",
            "1"
          ]
        },
        {
          "type": "QUEST_COND_GCG_INVITE_TYPE",
          "_param": [
            "1"
          ]
        }
      ],
      "priority": 5,
      "nextTalks": [
        6956214,
        6956215,
        6956218
      ],
      "initDialog": 695621201,
      "npcId": [
        9562
      ],
      "performCfg": "QuestDialogue/GCG/Neuvillette_9562/Q6956212",
      "assetIndex": 7447980824558446968,
      "prePerformCfg": ""
    },
    {
      "id": 6956213,
      "activeMode": "PLAY_MODE_HOST",
      "priority": 5,
      "nextTalks": [
        6956214,
        6956215,
        6956218
      ],
      "initDialog": 695621201,
      "npcId": [
        9562
      ],
      "performCfg": "QuestDialogue/GCG/Neuvillette_9562/Q6956213",
      "assetIndex": 18193976855220315525,
      "prePerformCfg": ""
    },
    {
      "id": 6956214,
      "activeMode": "PLAY_MODE_HOST",
      "priority": 5,
      "initDialog": 695621401,
      "npcId": [
        9562
      ],
      "performCfg": "",
      "assetIndex": 14354769130694159693,
      "prePerformCfg": ""
    },
    {
      "id": 6956215,
      "activeMode": "PLAY_MODE_HOST",
      "priority": 5,
      "nextTalks": [
        6956213
      ],
      "initDialog": 695621501,
      "npcId": [
        9562
      ],
      "performCfg": "",
      "assetIndex": 9003014584641821175,
      "prePerformCfg": ""
    },
    {
      "id": 6956216,
      "activeMode": "PLAY_MODE_HOST",
      "priority": 5,
      "initDialog": 695621601,
      "npcId": [
        9562
      ],
      "performCfg": "QuestDialogue/GCG/Neuvillette_9562/Q6956216",
      "assetIndex": 5483502296851804508,
      "prePerformCfg": ""
    },
    {
      "id": 6956217,
      "activeMode": "PLAY_MODE_HOST",
      "priority": 5,
      "initDialog": 695621701,
      "npcId": [
        9562
      ],
      "performCfg": "QuestDialogue/GCG/Neuvillette_9562/Q6956217",
      "assetIndex": 14488013571050801484,
      "prePerformCfg": ""
    },
    {
      "id": 6956218,
      "activeMode": "PLAY_MODE_HOST",
      "priority": 5,
      "initDialog": 695621801,
      "npcId": [
        9562
      ],
      "performCfg": "",
      "assetIndex": 2969460950150098851,
      "prePerformCfg": ""
    }
  ]
}