{
  "npcId": 9702,
  "talks": [
    {
      "id": 6970201,
      "beginWay": "TALK_BEGIN_MANUAL",
      "activeMode": "PLAY_MODE_HOST",
      "beginCond": [
        {
          "type": "QUEST_COND_GCG_NPC_TYPE",
          "_param": [
            "9702",
            "2"
          ]
        }
      ],
      "priority": 3,
      "nextTalks": [
        6970202,
        6970203
      ],
      "initDialog": 697020101,
      "npcId": [
        9702
      ],
      "performCfg": "",
      "assetIndex": 17365560860302193986,
      "prePerformCfg": ""
    },
    {
      "id": 6970202,
      "activeMode": "PLAY_MODE_HOST",
      "priority": 1,
      "initDialog": 697020201,
      "npcId": [
        9702
      ],
      "performCfg": "",
      "assetIndex": 12838733692403658653,
      "prePerformCfg": ""
    },
    {
      "id": 6970203,
      "activeMode": "PLAY_MODE_HOST",
      "priority": 1,
      "initDialog": 697020301,
      "npcId": [
        9702
      ],
      "performCfg": "",
      "assetIndex": 4023428275545433087,
      "prePerformCfg": ""
    },
    {
      "id": 6970204,
      "beginWay": "TALK_BEGIN_AUTO",
      "activeMode": "PLAY_MODE_HOST",
      "beginCond": [
        {
          "type": "QUEST_COND_GCG_WORLD_CHALLENGE_RESULT",
          "_param": [
            "-1",
            "9702"
          ]
        }
      ],
      "priority": 5,
      "initDialog": 697020401,
      "npcId": [
        9702
      ],
      "performCfg": "",
      "assetIndex": 6966480574193079224,
      "prePerformCfg": ""
    },
    {
      "id": 6970205,
      "beginWay": "TALK_BEGIN_AUTO",
      "activeMode": "PLAY_MODE_HOST",
      "beginCond": [
        {
          "type": "QUEST_COND_GCG_WORLD_CHALLENGE_RESULT",
          "_param": [
            "1",
            "9702"
          ]
        }
      ],
      "priority": 5,
      "initDialog": 697020501,
      "npcId": [
        9702
      ],
      "performCfg": "",
      "assetIndex": 7638227613282508506,
      "prePerformCfg": ""
    }
  ]
}