{
  "npcId": 9705,
  "talks": [
    {
      "id": 6970501,
      "beginWay": "TALK_BEGIN_MANUAL",
      "activeMode": "PLAY_MODE_HOST",
      "beginCond": [
        {
          "type": "QUEST_COND_GCG_NPC_TYPE",
          "_param": [
            "9705",
            "2"
          ]
        }
      ],
      "priority": 3,
      "nextTalks": [
        6970502,
        6970503
      ],
      "initDialog": 697050101,
      "npcId": [
        9705
      ],
      "performCfg": "",
      "assetIndex": 17626361203737587597,
      "prePerformCfg": ""
    },
    {
      "id": 6970502,
      "activeMode": "PLAY_MODE_HOST",
      "priority": 1,
      "initDialog": 697050201,
      "npcId": [
        9705
      ],
      "performCfg": "",
      "assetIndex": 1471325952468351095,
      "prePerformCfg": ""
    },
    {
      "id": 6970503,
      "activeMode": "PLAY_MODE_HOST",
      "priority": 1,
      "initDialog": 697050301,
      "npcId": [
        9705
      ],
      "performCfg": "",
      "assetIndex": 8029009008413996699,
      "prePerformCfg": ""
    },
    {
      "id": 6970504,
      "beginWay": "TALK_BEGIN_AUTO",
      "activeMode": "PLAY_MODE_HOST",
      "beginCond": [
        {
          "type": "QUEST_COND_GCG_WORLD_CHALLENGE_RESULT",
          "_param": [
            "-1",
            "9705"
          ]
        }
      ],
      "priority": 5,
      "initDialog": 697050401,
      "npcId": [
        9705
      ],
      "performCfg": "",
      "assetIndex": 6417084560153892859,
      "prePerformCfg": ""
    },
    {
      "id": 6970505,
      "beginWay": "TALK_BEGIN_AUTO",
      "activeMode": "PLAY_MODE_HOST",
      "beginCond": [
        {
          "type": "QUEST_COND_GCG_WORLD_CHALLENGE_RESULT",
          "_param": [
            "1",
            "9705"
          ]
        }
      ],
      "priority": 5,
      "initDialog": 697050501,
      "npcId": [
        9705
      ],
      "performCfg": "",
      "assetIndex": 878023804674178512,
      "prePerformCfg": ""
    }
  ]
}