{
  "npcId": 9712,
  "talks": [
    {
      "id": 6971201,
      "beginWay": "TALK_BEGIN_MANUAL",
      "activeMode": "PLAY_MODE_HOST",
      "beginCond": [
        {
          "type": "QUEST_COND_GCG_NPC_TYPE",
          "_param": [
            "9712",
            "2"
          ]
        }
      ],
      "priority": 3,
      "nextTalks": [
        6971202,
        6971203
      ],
      "initDialog": 697120101,
      "npcId": [
        9712
      ],
      "performCfg": "",
      "assetIndex": 3970484483207709270,
      "prePerformCfg": ""
    },
    {
      "id": 6971202,
      "activeMode": "PLAY_MODE_HOST",
      "priority": 1,
      "initDialog": 697120201,
      "npcId": [
        9712
      ],
      "performCfg": "",
      "assetIndex": 4107009517588148400,
      "prePerformCfg": ""
    },
    {
      "id": 6971203,
      "activeMode": "PLAY_MODE_HOST",
      "priority": 1,
      "initDialog": 697120301,
      "npcId": [
        9712
      ],
      "performCfg": "",
      "assetIndex": 13140413345750187423,
      "prePerformCfg": ""
    },
    {
      "id": 6971204,
      "beginWay": "TALK_BEGIN_AUTO",
      "activeMode": "PLAY_MODE_HOST",
      "beginCond": [
        {
          "type": "QUEST_COND_GCG_WORLD_CHALLENGE_RESULT",
          "_param": [
            "-1",
            "9712"
          ]
        }
      ],
      "priority": 5,
      "initDialog": 697120401,
      "npcId": [
        9712
      ],
      "performCfg": "",
      "assetIndex": 3359833368859257849,
      "prePerformCfg": ""
    },
    {
      "id": 6971205,
      "beginWay": "TALK_BEGIN_AUTO",
      "activeMode": "PLAY_MODE_HOST",
      "beginCond": [
        {
          "type": "QUEST_COND_GCG_WORLD_CHALLENGE_RESULT",
          "_param": [
            "1",
            "9712"
          ]
        }
      ],
      "priority": 5,
      "initDialog": 697120501,
      "npcId": [
        9712
      ],
      "performCfg": "",
      "assetIndex": 9378112902230857060,
      "prePerformCfg": ""
    }
  ]
}