{
  "npcId": 9716,
  "talks": [
    {
      "id": 6971601,
      "beginWay": "TALK_BEGIN_MANUAL",
      "activeMode": "PLAY_MODE_HOST",
      "beginCond": [
        {
          "type": "QUEST_COND_GCG_NPC_TYPE",
          "_param": [
            "9716",
            "2"
          ]
        }
      ],
      "priority": 3,
      "nextTalks": [
        6971602,
        6971603
      ],
      "initDialog": 697160101,
      "npcId": [
        9716
      ],
      "performCfg": "",
      "assetIndex": 11917746034554676420,
      "prePerformCfg": ""
    },
    {
      "id": 6971602,
      "activeMode": "PLAY_MODE_HOST",
      "priority": 1,
      "initDialog": 697160201,
      "npcId": [
        9716
      ],
      "performCfg": "",
      "assetIndex": 1053059933502471008,
      "prePerformCfg": ""
    },
    {
      "id": 6971603,
      "activeMode": "PLAY_MODE_HOST",
      "priority": 1,
      "initDialog": 697160301,
      "npcId": [
        9716
      ],
      "performCfg": "",
      "assetIndex": 12586739946258040383,
      "prePerformCfg": ""
    },
    {
      "id": 6971604,
      "beginWay": "TALK_BEGIN_AUTO",
      "activeMode": "PLAY_MODE_HOST",
      "beginCond": [
        {
          "type": "QUEST_COND_GCG_WORLD_CHALLENGE_RESULT",
          "_param": [
            "-1",
            "9716"
          ]
        }
      ],
      "priority": 5,
      "initDialog": 697160401,
      "npcId": [
        9716
      ],
      "performCfg": "",
      "assetIndex": 2897235927598614795,
      "prePerformCfg": ""
    },
    {
      "id": 6971605,
      "beginWay": "TALK_BEGIN_AUTO",
      "activeMode": "PLAY_MODE_HOST",
      "beginCond": [
        {
          "type": "QUEST_COND_GCG_WORLD_CHALLENGE_RESULT",
          "_param": [
            "1",
            "9716"
          ]
        }
      ],
      "priority": 5,
      "initDialog": 697160501,
      "npcId": [
        9716
      ],
      "performCfg": "",
      "assetIndex": 2355330839973044722,
      "prePerformCfg": ""
    }
  ]
}