[
  {
    "Default": {
      "$type": "CBPBEHLOHKI",
      "abilityName": "ActivityAbility_WQ_BossNarzissenkreuzBattle",
      "abilityMixins": [
        {
          "$type": "PHLKCMFKFIN",
          "globalValueKey": "SGV_WQ_BossNarzissenkreuzBattle",
          "valueSteps": [
            -0.5,
            1.5,
            2.5
          ],
          "modifierNameSteps": [
            "Blank",
            "UNIQUE_Activity_WQ_BossNarzissenkreuzBattle_Initial"
          ],
          "NMCLMHFBALJ": true
        },
        {
          "$type": "PHLKCMFKFIN",
          "globalValueKey": "GV_WQ_BossNarzissenkreuzBattle",
          "valueSteps": [
            -0.5,
            0.5,
            1.5
          ],
          "modifierNameSteps": [
            "Blank",
            "UNIQUE_Activity_WQ_BossNarzissenkreuzBattle_Handler"
          ],
          "NMCLMHFBALJ": true
        },
        {
          "$type": "PHLKCMFKFIN",
          "globalValueKey": "SGV_WQ_BossNarzissenkreuzBattle_LockCamera",
          "valueSteps": [
            -0.5,
            0.5,
            1.5
          ],
          "modifierNameSteps": [
            "Blank",
            "UNIQUE_Activity_WQ_BossNarzissenkreuzBattle_ShortLockHP"
          ],
          "NMCLMHFBALJ": true
        }
      ],
      "abilitySpecials": {
        "buff_duration": 0.0
      },
      "modifiers": {
        "FallingDamage_Immune": {
          "modifierName": "",
          "IPFJJJGABPL": 100.0,
          "properties": {
            "Actor_FallingDamageRatio": -1.0
          }
        },
        "UNIQUE_Activity_WQ_BossNarzissenkreuzBattle_ShortLockHP": {
          "modifierName": "",
          "forceTriggerWhenChangeAuthority": true,
          "IPFJJJGABPL": 100.0,
          "onAdded": [
            {
              "$type": "PELJALPANCA",
              "modifierName": "Activity_WQ_BossNarzissenkreuzBattle_ShortLockHP"
            }
          ]
        },
        "Activity_WQ_BossNarzissenkreuzBattle_ShortLockHP": {
          "modifierName": "",
          "elementDurability": 2.5,
          "IPFJJJGABPL": 100.0,
          "state": "LockHP"
        },
        "UNIQUE_Activity_WQ_BossNarzissenkreuzBattle_Initial": {
          "modifierName": "",
          "forceTriggerWhenChangeAuthority": true,
          "IPFJJJGABPL": 100.0,
          "thinkInterval": 2.0,
          "modifierMixins": [
            {
              "$type": "MLJAPFBGEEH",
              "globalValueKey": "_CHARGEBAR_VALUE",
              "gvInTalk": 0.0,
              "valueSteps": [
                -0.10000000149011612,
                99.9000015258789,
                101.0999984741211
              ],
              "modifierNameSteps": [
                "SetActivate",
                "Activity_WQ_BossNarzissenkreuzBattle_Handler"
              ]
            }
          ],
          "onAdded": [
            {
              "$type": "BOBCOJHOKKD",
              "param3": 100.0,
              "key": "_CHARGEBAR_VALUE",
              "param2": 100.0,
              "repeatTimes": 0.0
            },
            {
              "$type": "FHGPOFDJDCO",
              "target": "Applier",
              "ECOAIFKENNM": 1.0,
              "cdRatio": ""
            },
            {
              "$type": "KBFEIHEAMBM",
              "rotationDampTime": "Eff_AvatarCommon_Heal",
              "born": {
                "$type": "KLPANPDGHHA",
                "useRotation": true,
                "attachPointName": "RootNode"
              },
              "PPPDJGDDOGD": 1.0,
              "AJDILHJFNKE": -1.0
            }
          ],
          "onThinkInterval": [
            {
              "$type": "FHGPOFDJDCO",
              "target": "Applier",
              "ECOAIFKENNM": 0.05000000074505806,
              "cdRatio": ""
            }
          ]
        },
        "UNIQUE_Activity_WQ_BossNarzissenkreuzBattle_Handler": {
          "modifierName": "",
          "forceTriggerWhenChangeAuthority": true,
          "IPFJJJGABPL": 100.0,
          "modifierMixins": [
            {
              "$type": "NKEPLGAIEJM",
              "modifierName": "UNIQUE_Activity_WQ_BossNarzissenkreuzBattle_Avatar"
            }
          ]
        },
        "Blank": {
          "modifierName": "",
          "IPFJJJGABPL": 100.0
        },
        "UNIQUE_Activity_WQ_BossNarzissenkreuzBattle_Avatar": {
          "modifierName": "",
          "forceTriggerWhenChangeAuthority": true,
          "IPFJJJGABPL": 100.0,
          "modifierMixins": [
            {
              "$type": "NAFEDCNOIGL",
              "stateID": "ExtraAttack",
              "modifierName": "UNIQUE_Activity_WQ_BossNarzissenkreuzBattle_Attack",
              "normalizeStart": 0.4699999988079071,
              "DGFCLAIDIFI": ""
            }
          ],
          "onAdded": [
            {
              "$type": "JLDEMMJAMLC",
              "otherTargets": {
                "$type": "GAPFENEFKKE",
                "equipPartNames": [
                  "equip01",
                  "equip02",
                  "sheathPoint"
                ]
              },
              "modifierName": "Buff_Eff_Loop"
            }
          ],
          "onRemoved": [
            {
              "$type": "PELJALPANCA",
              "otherTargets": {
                "$type": "GAPFENEFKKE",
                "equipPartNames": [
                  "equip01",
                  "equip02",
                  "sheathPoint"
                ]
              },
              "modifierName": "Buff_Eff_End"
            }
          ]
        },
        "Buff_Eff_Loop": {
          "modifierName": "",
          "IPFJJJGABPL": 100.0,
          "onAdded": [
            {
              "$type": "ANLOBBMKNIJ",
              "rotationDampTime": "Eff_WQ_BossNarzissenkreuzBattle_PlayerBuff_Loop",
              "PPPDJGDDOGD": 1.0,
              "AJDILHJFNKE": -1.0
            }
          ]
        },
        "Buff_Eff_End": {
          "modifierName": "",
          "IPFJJJGABPL": 100.0,
          "onAdded": [
            {
              "$type": "KBFEIHEAMBM",
              "rotationDampTime": "Eff_WQ_BossNarzissenkreuzBattle_PlayerBuff_End",
              "PPPDJGDDOGD": 1.0,
              "AJDILHJFNKE": -1.0
            }
          ]
        },
        "UNIQUE_Activity_WQ_BossNarzissenkreuzBattle_Attack": {
          "modifierName": "",
          "forceTriggerWhenChangeAuthority": true,
          "IPFJJJGABPL": 100.0,
          "onAdded": [
            {
              "$type": "CAKDDHLKOAB",
              "bulletID": 42000005,
              "born": {
                "$type": "IAENDIPDFKD",
                "offset": {
                  "KGEPIMHBMOL": 0.0,
                  "JEBHCGDPFEJ": 0.8999999761581421,
                  "LPCHALMFFOD": 0.6000000238418579
                },
                "direction": {
                  "$type": "MEADFIJAHPG",
                  "angleOffset": {
                    "KGEPIMHBMOL": -5.0,
                    "JEBHCGDPFEJ": 0.0,
                    "LPCHALMFFOD": 0.0
                  },
                  "startPoint": ""
                },
                "useRotation": true
              }
            },
            {
              "$type": "PFIOPNPNADE",
              "id": 401318
            },
            {
              "$type": "PELJALPANCA",
              "predicates": [
                {
                  "$type": "CNGGLKHONAA",
                  "target": "Self",
                  "key": "GV_WQ_BossNarzissenkreuzBattle_Paimon",
                  "param3": 0.0,
                  "compareType": "NoneOrEqual"
                }
              ],
              "modifierName": "WQReminder"
            },
            {
              "$type": "GJCAPCBELPA",
              "abilityName": "ActivityAbility_WQ_BossNarzissenkreuzBattle"
            }
          ]
        },
        "SetActivate": {
          "modifierName": "",
          "IPFJJJGABPL": 100.0,
          "thinkInterval": 0.10000000149011612,
          "onThinkInterval": [
            {
              "$type": "IIGGCBAOAAK",
              "param3": 1.0,
              "key": "_CHARGEBAR_VALUE",
              "param2": 100.0,
              "repeatTimes": 0.0
            }
          ]
        },
        "WQReminder": {
          "modifierName": "",
          "elementDurability": 3.5,
          "IPFJJJGABPL": 100.0,
          "onAdded": [
            {
              "$type": "FNPMFLOOCDD",
              "param3": 1.0,
              "key": "GV_WQ_BossNarzissenkreuzBattle_Paimon",
              "param2": 1.0,
              "repeatTimes": 0.0
            },
            {
              "$type": "BAKEBEKLLAC",
              "id": 34049901
            }
          ],
          "onRemoved": [
            {
              "$type": "BAKEBEKLLAC",
              "id": 34049902
            }
          ]
        },
        "Activity_WQ_BossNarzissenkreuzBattle_Handler": {
          "modifierName": "",
          "IPFJJJGABPL": 100.0,
          "thinkInterval": 10.0,
          "onAdded": [
            {
              "$type": "FNPMFLOOCDD",
              "param3": 1.0,
              "key": "GV_WQ_BossNarzissenkreuzBattle",
              "param2": 0.0,
              "repeatTimes": 0.0
            },
            {
              "$type": "BAKEBEKLLAC",
              "id": 401318
            }
          ],
          "onThinkInterval": [
            {
              "$type": "BAKEBEKLLAC",
              "id": 401318
            }
          ]
        }
      },
      "onAdded": [
        {
          "$type": "FNPMFLOOCDD",
          "param3": 0.0,
          "key": "GV_WQ_BossNarzissenkreuzBattle",
          "param2": 1.0,
          "repeatTimes": 0.0
        },
        {
          "$type": "FNPMFLOOCDD",
          "param3": 0.0,
          "key": "GV_WQ_BossNarzissenkreuzBattle_Paimon",
          "param2": 1.0,
          "repeatTimes": 0.0
        },
        {
          "$type": "BOBCOJHOKKD",
          "param3": 0.0,
          "key": "_CHARGEBAR_VALUE",
          "param2": 100.0,
          "repeatTimes": 0.0
        },
        {
          "$type": "PELJALPANCA",
          "modifierName": "FallingDamage_Immune"
        }
      ],
      "onAbilityStart": [
        {
          "$type": "FNPMFLOOCDD",
          "param3": 0.10999999940395355,
          "key": "_CHARGEBAR_VALUE",
          "param2": 100.0,
          "repeatTimes": 0.0
        },
        {
          "$type": "FNPMFLOOCDD",
          "param3": 0.0,
          "key": "GV_WQ_BossNarzissenkreuzBattle",
          "param2": 0.0,
          "repeatTimes": 0.0
        }
      ],
      "isDynamicAbility": true
    }
  },
  {
    "Default": {
      "$type": "CBPBEHLOHKI",
      "abilityName": "ActivityAbility_WQ_BossNarzissenkreuzBattle_Bullet_1",
      "abilitySpecials": {
        "Bullet_01_Damage": 0.0
      },
      "modifiers": {
        "ActivityAbility_WQ_BossNarzissenkreuzBattle_Bullet_VFX": {
          "modifierName": "",
          "IPFJJJGABPL": 100.0,
          "onAdded": [
            {
              "$type": "ANLOBBMKNIJ",
              "rotationDampTime": "Eff_WQ_BossNarzissenkreuzBattle_PlayerAttack_Bullet",
              "PPPDJGDDOGD": 1.0,
              "AJDILHJFNKE": -1.0
            }
          ]
        },
        "ActivityAbility_WQ_BossNarzissenkreuzBattle_Bullet_Timer": {
          "modifierName": "",
          "elementDurability": 0.20000000298023224,
          "IPFJJJGABPL": 100.0,
          "onRemoved": [
            {
              "$type": "PELJALPANCA",
              "modifierName": "ActivityAbility_WQ_BossNarzissenkreuzBattle_Bullet_AngularVelocity"
            }
          ]
        },
        "ActivityAbility_WQ_BossNarzissenkreuzBattle_Bullet_AngularVelocity": {
          "modifierName": "",
          "IPFJJJGABPL": 100.0,
          "properties": {
            "Actor_BulletMoveAngularVelocityRatio": 10.0
          }
        }
      },
      "onAdded": [
        {
          "$type": "JLDEMMJAMLC",
          "modifierName": "ActivityAbility_WQ_BossNarzissenkreuzBattle_Bullet_VFX"
        },
        {
          "$type": "PELJALPANCA",
          "modifierName": "ActivityAbility_WQ_BossNarzissenkreuzBattle_Bullet_Timer"
        }
      ],
      "onAbilityStart": [
        {
          "$type": "AIFPLABJNMA",
          "attackEvent": {
            "attackPattern": {
              "$type": "BELNOFAKNBA",
              "triggerType": "TriggerNoRepeat",
              "born": {
                "$type": "JGEBAJLEBMO",
                "useRotation": true
              },
              "OAHPDLJIADP": 2.5
            },
            "attackInfo": {
              "attackTag": "Activity_SpecialAttack_Charge",
              "attenuationTag": "",
              "attenuationGroup": "default",
              "attackProperty": {
                "actorGrassSubHurtDelta": 67.5,
                "actorWindSubHurtDelta": 0.0,
                "IPFJJJGABPL": 0.0,
                "strikeType": "Default",
                "enBreak": 9.050000190734863,
                "AIGBINPINKE": 1.0,
                "GLKMCMDJBIK": 0.0
              },
              "hitPattern": {
                "onHitEffectName": "Eff_WQ_BossNarzissenkreuzBattle_PlayerAttack_Bullet_WaterHit",
                "hitImpulseY": "",
                "hitImpulseType": "LV2",
                "hitHaltTimeScale": 0.05000000074505806
              },
              "canBeModifiedBy": "OriginOwner"
            }
          },
          "targetType": "Enemy"
        },
        {
          "$type": "NCFFNDHGCMH"
        }
      ],
      "onKill": [
        {
          "$type": "KBFEIHEAMBM",
          "rotationDampTime": "Eff_WQ_BossNarzissenkreuzBattle_PlayerAttack_Bullet_Hit02",
          "PPPDJGDDOGD": 1.0,
          "AJDILHJFNKE": -1.0
        }
      ]
    }
  },
  {
    "Default": {
      "$type": "CBPBEHLOHKI",
      "abilityName": "ActivityAbility_WQ_BossNarzissenkreuzBattle_Bullet_2",
      "abilitySpecials": {
        "Bullet_02_Damage": 0.0
      },
      "modifiers": {
        "ActivityAbility_WQ_BossNarzissenkreuzBattle_Bullet_VFX": {
          "modifierName": "",
          "IPFJJJGABPL": 100.0,
          "onAdded": [
            {
              "$type": "ANLOBBMKNIJ",
              "rotationDampTime": "Eff_WQ_BossNarzissenkreuzBattle_PlayerAttack_Bullet",
              "PPPDJGDDOGD": 1.0,
              "AJDILHJFNKE": -1.0
            }
          ]
        },
        "ActivityAbility_WQ_BossNarzissenkreuzBattle_Bullet_Timer": {
          "modifierName": "",
          "elementDurability": 0.20000000298023224,
          "IPFJJJGABPL": 100.0,
          "onRemoved": [
            {
              "$type": "PELJALPANCA",
              "modifierName": "ActivityAbility_WQ_BossNarzissenkreuzBattle_Bullet_AngularVelocity"
            }
          ]
        },
        "ActivityAbility_WQ_BossNarzissenkreuzBattle_Bullet_AngularVelocity": {
          "modifierName": "",
          "IPFJJJGABPL": 100.0,
          "properties": {
            "Actor_BulletMoveAngularVelocityRatio": 10.0
          }
        }
      },
      "onAdded": [
        {
          "$type": "JLDEMMJAMLC",
          "modifierName": "ActivityAbility_WQ_BossNarzissenkreuzBattle_Bullet_VFX"
        },
        {
          "$type": "PELJALPANCA",
          "modifierName": "ActivityAbility_WQ_BossNarzissenkreuzBattle_Bullet_Timer"
        }
      ],
      "onAbilityStart": [
        {
          "$type": "AIFPLABJNMA",
          "attackEvent": {
            "attackPattern": {
              "$type": "BELNOFAKNBA",
              "triggerType": "TriggerNoRepeat",
              "born": {
                "$type": "IAENDIPDFKD",
                "useRotation": true
              },
              "OAHPDLJIADP": 1.0
            },
            "attackInfo": {
              "attackTag": "Activity_SpecialAttack_Charge",
              "attenuationTag": "NormalAttack",
              "attenuationGroup": "default",
              "attackProperty": {
                "actorWindSubHurtDelta": 0.0,
                "IPFJJJGABPL": 0.0,
                "strikeType": "Default",
                "enBreak": 9.050000190734863,
                "HMBONGBFIAP": "Bullet_02_Damage",
                "GLKMCMDJBIK": 0.0
              },
              "hitPattern": {
                "onHitEffectName": "Default",
                "hitImpulseY": "",
                "hitImpulseType": "LV2",
                "hitHaltTimeScale": 0.05000000074505806
              },
              "canBeModifiedBy": "OriginOwner"
            }
          },
          "targetType": "Enemy"
        },
        {
          "$type": "NCFFNDHGCMH"
        }
      ],
      "onKill": [
        {
          "$type": "KBFEIHEAMBM",
          "rotationDampTime": "Eff_WQ_BossNarzissenkreuzBattle_PlayerAttack_Bullet_Hit",
          "PPPDJGDDOGD": 1.0,
          "AJDILHJFNKE": -1.0
        }
      ]
    }
  },
  {
    "Default": {
      "$type": "CBPBEHLOHKI",
      "abilityName": "ActivityAbility_WQ_BossNarzissenkreuzBattle_EnergyBar",
      "modifiers": {
        "UNIQUE_Activity_WQ_BossNarzissenkreuzBattle_ChargeBar": {
          "modifierName": "",
          "forceTriggerWhenChangeAuthority": true,
          "IPFJJJGABPL": 100.0,
          "modifierMixins": [
            {
              "$type": "HBPDEMIJCDL",
              "initialValue": 100.0,
              "param2": 100.0
            },
            {
              "$type": "MLJAPFBGEEH",
              "globalValueKey": "_CHARGEBAR_VALUE",
              "gvInTalk": 0.0,
              "valueSteps": [
                0.10000000149011612,
                99.9000015258789,
                100.0999984741211
              ],
              "modifierNameSteps": [
                "SetActivate",
                "Activity_WQ_BossNarzissenkreuzBattle_Handler"
              ]
            }
          ]
        },
        "SetActivate": {
          "modifierName": "",
          "IPFJJJGABPL": 100.0,
          "thinkInterval": 0.10000000149011612,
          "onThinkInterval": [
            {
              "$type": "PMJJNECJCLE",
              "param3": 1.0,
              "param2": 0.0,
              "repeatTimes": 0.0
            }
          ]
        },
        "Activity_WQ_BossNarzissenkreuzBattle_Handler": {
          "modifierName": "",
          "IPFJJJGABPL": 100.0,
          "onAdded": [
            {
              "$type": "PELJALPANCA",
              "target": "Owner",
              "modifierName": "Activity_WQ_BossNarzissenkreuzBattle_GVSetter"
            }
          ]
        },
        "Activity_WQ_BossNarzissenkreuzBattle_GVSetter": {
          "modifierName": "",
          "elementDurability": 0.10000000149011612,
          "IPFJJJGABPL": 100.0,
          "onAdded": [
            {
              "$type": "FNPMFLOOCDD",
              "param3": 1.0,
              "key": "GV_WQ_BossNarzissenkreuzBattle",
              "param2": 0.0,
              "repeatTimes": 0.0
            }
          ]
        }
      },
      "onAdded": [
        {
          "$type": "BOBCOJHOKKD",
          "param3": 100.0,
          "key": "_CHARGEBAR_VALUE",
          "param2": 100.0,
          "repeatTimes": 0.0
        },
        {
          "$type": "PELJALPANCA",
          "modifierName": "UNIQUE_Activity_WQ_BossNarzissenkreuzBattle_ChargeBar"
        }
      ],
      "isDynamicAbility": true
    }
  },
  {
    "Default": {
      "$type": "CBPBEHLOHKI",
      "abilityName": "SceneObj_Area_Common_Property_WQ_BossNarzissenkreuzBattle_Ball_Heal",
      "modifiers": {
        "EffectBall": {
          "modifierName": "",
          "IPFJJJGABPL": 100.0,
          "onAdded": [
            {
              "$type": "ANLOBBMKNIJ",
              "rotationDampTime": "Eff_Monster_Narcissusborn_HealBallLoop",
              "born": {
                "$type": "IAENDIPDFKD",
                "useRotation": true
              },
              "PPPDJGDDOGD": 1.0,
              "AJDILHJFNKE": -1.0
            }
          ]
        },
        "HealHP": {
          "modifierName": "",
          "elementDurability": 0.5,
          "IPFJJJGABPL": 100.0,
          "onAdded": [
            {
              "$type": "FHGPOFDJDCO",
              "shieldHP": true,
              "CKDBFHCIJEK": 0.30000001192092896,
              "cdRatio": ""
            },
            {
              "$type": "IJEHOLMBKJJ",
              "shieldHP": true,
              "param3": 1000.0
            }
          ]
        }
      },
      "onAdded": [
        {
          "$type": "JLDEMMJAMLC",
          "modifierName": "EffectBall"
        },
        {
          "$type": "FNPMFLOOCDD",
          "param3": 0.0,
          "key": "WQ_BossNarzissenkreuzBattle_Ball_State",
          "param2": 1.0,
          "repeatTimes": 0.0
        }
      ],
      "onKill": [
        {
          "$type": "KBFEIHEAMBM",
          "rotationDampTime": "Eff_Monster_Narcissusborn_HealBallAS",
          "born": {
            "$type": "IAENDIPDFKD",
            "useRotation": true
          },
          "PPPDJGDDOGD": 1.0,
          "AJDILHJFNKE": -1.0
        }
      ],
      "onFieldEnter": [
        {
          "$type": "INBCDALOHMP",
          "targetPredicates": [
            {
              "$type": "CNGGLKHONAA",
              "target": "Self",
              "key": "WQ_BossNarzissenkreuzBattle_Ball_State",
              "param3": 0.0
            }
          ],
          "successActions": [
            {
              "$type": "FNPMFLOOCDD",
              "param3": 1.0,
              "key": "WQ_BossNarzissenkreuzBattle_Ball_State",
              "param2": 1.0,
              "repeatTimes": 0.0
            },
            {
              "$type": "PELJALPANCA",
              "target": "CurTeamAvatars",
              "shieldHP": true,
              "modifierName": "HealHP"
            },
            {
              "$type": "PFKNEFGOHIH",
              "modifierName": "EffectBall"
            },
            {
              "$type": "KBFEIHEAMBM",
              "rotationDampTime": "Eff_AvatarCommon_Heal",
              "born": {
                "$type": "KLPANPDGHHA",
                "useRotation": true,
                "attachPointName": "RootNode"
              },
              "PPPDJGDDOGD": 1.0,
              "AJDILHJFNKE": -1.0
            },
            {
              "$type": "NCFFNDHGCMH",
              "hideEntity": true
            }
          ]
        }
      ]
    }
  }
]