[
  {
    "Default": {
      "$type": "CBPBEHLOHKI",
      "abilityName": "Activity_Hachi_TeamAbility",
      "abilityMixins": [
        {
          "$type": "PHLKCMFKFIN",
          "globalValueKey": "SGV_CAN_CLEAR_THREAT",
          "valueSteps": [
            -0.5,
            0.5
          ],
          "modifierNameSteps": [
            "Blank"
          ]
        }
      ],
      "modifiers": {
        "IsInHachiSneak": {
          "modifierName": "",
          "IPFJJJGABPL": 100.0
        },
        "PlayerDieHandle": {
          "modifierName": "",
          "IPFJJJGABPL": 100.0,
          "onKill": [
            {
              "$type": "AHPEKICBIIL",
              "shieldHP": true,
              "luaCallType": "CurChallengeGroup",
              "funcName": "SLC_PlayerDie_DuringQuest",
              "param1": 0.0,
              "MGAMDEHMCOL": 0.0,
              "MMHOHAOGPLP": 0.0
            }
          ]
        },
        "Blank": {
          "modifierName": "",
          "IPFJJJGABPL": 100.0
        }
      },
      "onAdded": [
        {
          "$type": "JLDEMMJAMLC",
          "modifierName": "IsInHachiSneak"
        },
        {
          "$type": "JLDEMMJAMLC",
          "target": "AllPlayerAvatars",
          "modifierName": "PlayerDieHandle"
        }
      ]
    }
  }
]