[
  {
    "Default": {
      "$type": "CBPBEHLOHKI",
      "abilityName": "ActivityAbility_InstableSprayV2_ElecDamageUp",
      "abilityMixins": [
        {
          "$type": "NKEPLGAIEJM",
          "modifierName": "UNIQUE_Activity_InstableSprayV2_ElecDamageUp_Handler"
        }
      ],
      "abilitySpecials": {
        "ElecDamageUp": 0.0
      },
      "modifiers": {
        "UNIQUE_Activity_InstableSprayV2_ElecDamageUp_Handler": {
          "stacking": "Unique",
          "modifierName": "",
          "forceTriggerWhenChangeAuthority": true,
          "IPFJJJGABPL": 100.0,
          "modifierMixins": [
            {
              "$type": "CCNIOPJEHOE",
              "globalValueTarget": "Team",
              "globalValueKey": "SGV_ELEC_BUFF",
              "valueSteps": [
                -0.5,
                0.5,
                1.5
              ],
              "modifierNameSteps": [
                "ElecDamageUpEmpty",
                "UNIQUE_Activity_InstableSprayV2_ElecDamageUp"
              ]
            }
          ]
        },
        "ElecDamageUpEmpty": {
          "modifierName": "",
          "IPFJJJGABPL": 100.0
        },
        "UNIQUE_Activity_InstableSprayV2_ElecDamageUp": {
          "stacking": "Unique",
          "modifierName": "",
          "forceTriggerWhenChangeAuthority": true,
          "IPFJJJGABPL": 100.0,
          "properties": {
            "Actor_ElecAddHurtDelta": "ElecDamageUp"
          }
        }
      },
      "isDynamicAbility": true
    }
  },
  {
    "Default": {
      "$type": "CBPBEHLOHKI",
      "abilityName": "ActivityAbility_InstableSprayV2_GrassDamageUp",
      "abilityMixins": [
        {
          "$type": "NKEPLGAIEJM",
          "modifierName": "UNIQUE_Activity_InstableSprayV2_GrassDamageUp_Handler"
        }
      ],
      "abilitySpecials": {
        "GrassDamageUp": 0.0
      },
      "modifiers": {
        "UNIQUE_Activity_InstableSprayV2_GrassDamageUp_Handler": {
          "stacking": "Unique",
          "modifierName": "",
          "forceTriggerWhenChangeAuthority": true,
          "IPFJJJGABPL": 100.0,
          "modifierMixins": [
            {
              "$type": "CCNIOPJEHOE",
              "globalValueTarget": "Team",
              "globalValueKey": "SGV_GRASS_BUFF",
              "valueSteps": [
                -0.5,
                0.5,
                1.5
              ],
              "modifierNameSteps": [
                "GrassDamageUpEmpty",
                "UNIQUE_Activity_InstableSprayV2_GrassDamageUp"
              ]
            }
          ]
        },
        "GrassDamageUpEmpty": {
          "modifierName": "",
          "IPFJJJGABPL": 100.0
        },
        "UNIQUE_Activity_InstableSprayV2_GrassDamageUp": {
          "stacking": "Unique",
          "modifierName": "",
          "forceTriggerWhenChangeAuthority": true,
          "IPFJJJGABPL": 100.0,
          "properties": {
            "Actor_GrassAddHurtDelta": "GrassDamageUp"
          }
        }
      },
      "isDynamicAbility": true
    }
  },
  {
    "Default": {
      "$type": "CBPBEHLOHKI",
      "abilityName": "ActivityAbility_InstableSprayV2_WindDamageUp",
      "abilityMixins": [
        {
          "$type": "NKEPLGAIEJM",
          "modifierName": "UNIQUE_Activity_InstableSprayV2_WindDamageUp_Handler"
        }
      ],
      "abilitySpecials": {
        "WindDamageUp": 0.0
      },
      "modifiers": {
        "UNIQUE_Activity_InstableSprayV2_WindDamageUp_Handler": {
          "stacking": "Unique",
          "modifierName": "",
          "forceTriggerWhenChangeAuthority": true,
          "IPFJJJGABPL": 100.0,
          "modifierMixins": [
            {
              "$type": "CCNIOPJEHOE",
              "globalValueTarget": "Team",
              "globalValueKey": "SGV_WIND_BUFF",
              "valueSteps": [
                -0.5,
                0.5,
                1.5
              ],
              "modifierNameSteps": [
                "WindDamageUpEmpty",
                "UNIQUE_Activity_InstableSprayV2_WindDamageUp"
              ]
            }
          ]
        },
        "WindDamageUpEmpty": {
          "modifierName": "",
          "IPFJJJGABPL": 100.0
        },
        "UNIQUE_Activity_InstableSprayV2_WindDamageUp": {
          "stacking": "Unique",
          "modifierName": "",
          "forceTriggerWhenChangeAuthority": true,
          "IPFJJJGABPL": 100.0,
          "properties": {
            "Actor_WindAddHurtDelta": "WindDamageUp"
          }
        }
      },
      "isDynamicAbility": true
    }
  },
  {
    "Default": {
      "$type": "CBPBEHLOHKI",
      "abilityName": "ActivityAbility_InstableSprayV2_FireDamageUp",
      "abilityMixins": [
        {
          "$type": "NKEPLGAIEJM",
          "modifierName": "UNIQUE_Activity_InstableSprayV2_FireDamageUp_Handler"
        }
      ],
      "abilitySpecials": {
        "FireDamageUp": 0.0
      },
      "modifiers": {
        "UNIQUE_Activity_InstableSprayV2_FireDamageUp_Handler": {
          "stacking": "Unique",
          "modifierName": "",
          "forceTriggerWhenChangeAuthority": true,
          "IPFJJJGABPL": 100.0,
          "modifierMixins": [
            {
              "$type": "CCNIOPJEHOE",
              "globalValueTarget": "Team",
              "globalValueKey": "SGV_FIRE_BUFF",
              "valueSteps": [
                -0.5,
                0.5,
                1.5
              ],
              "modifierNameSteps": [
                "FireDamageUpEmpty",
                "UNIQUE_Activity_InstableSprayV2_FireDamageUp"
              ]
            }
          ]
        },
        "FireDamageUpEmpty": {
          "modifierName": "",
          "IPFJJJGABPL": 100.0
        },
        "UNIQUE_Activity_InstableSprayV2_FireDamageUp": {
          "stacking": "Unique",
          "modifierName": "",
          "forceTriggerWhenChangeAuthority": true,
          "IPFJJJGABPL": 100.0,
          "properties": {
            "Actor_FireAddHurtDelta": "FireDamageUp"
          }
        }
      },
      "isDynamicAbility": true
    }
  },
  {
    "Default": {
      "$type": "CBPBEHLOHKI",
      "abilityName": "ActivityAbility_InstableSprayV2_WaterDamageUp",
      "abilityMixins": [
        {
          "$type": "NKEPLGAIEJM",
          "modifierName": "UNIQUE_Activity_InstableSprayV2_WaterDamageUp_Handler"
        }
      ],
      "abilitySpecials": {
        "WaterDamageUp": 0.0
      },
      "modifiers": {
        "UNIQUE_Activity_InstableSprayV2_WaterDamageUp_Handler": {
          "stacking": "Unique",
          "modifierName": "",
          "forceTriggerWhenChangeAuthority": true,
          "IPFJJJGABPL": 100.0,
          "modifierMixins": [
            {
              "$type": "CCNIOPJEHOE",
              "globalValueTarget": "Team",
              "globalValueKey": "SGV_WATER_BUFF",
              "valueSteps": [
                -0.5,
                0.5,
                1.5
              ],
              "modifierNameSteps": [
                "WaterDamageUpEmpty",
                "UNIQUE_Activity_InstableSprayV2_WaterDamageUp"
              ]
            }
          ]
        },
        "WaterDamageUpEmpty": {
          "modifierName": "",
          "IPFJJJGABPL": 100.0
        },
        "UNIQUE_Activity_InstableSprayV2_WaterDamageUp": {
          "stacking": "Unique",
          "modifierName": "",
          "forceTriggerWhenChangeAuthority": true,
          "IPFJJJGABPL": 100.0,
          "properties": {
            "Actor_WaterAddHurtDelta": "WaterDamageUp"
          }
        }
      },
      "isDynamicAbility": true
    }
  },
  {
    "Default": {
      "$type": "CBPBEHLOHKI",
      "abilityName": "ActivityAbility_InstableSprayV2_IceDamageUp",
      "abilityMixins": [
        {
          "$type": "NKEPLGAIEJM",
          "modifierName": "UNIQUE_Activity_InstableSprayV2_IceDamageUp_Handler"
        }
      ],
      "abilitySpecials": {
        "IceDamageUp": 0.0
      },
      "modifiers": {
        "UNIQUE_Activity_InstableSprayV2_IceDamageUp_Handler": {
          "stacking": "Unique",
          "modifierName": "",
          "forceTriggerWhenChangeAuthority": true,
          "IPFJJJGABPL": 100.0,
          "modifierMixins": [
            {
              "$type": "CCNIOPJEHOE",
              "globalValueTarget": "Team",
              "globalValueKey": "SGV_ICE_BUFF",
              "valueSteps": [
                -0.5,
                0.5,
                1.5
              ],
              "modifierNameSteps": [
                "IceDamageUpEmpty",
                "UNIQUE_Activity_InstableSprayV2_IceDamageUp"
              ]
            }
          ]
        },
        "IceDamageUpEmpty": {
          "modifierName": "",
          "IPFJJJGABPL": 100.0
        },
        "UNIQUE_Activity_InstableSprayV2_IceDamageUp": {
          "stacking": "Unique",
          "modifierName": "",
          "forceTriggerWhenChangeAuthority": true,
          "IPFJJJGABPL": 100.0,
          "properties": {
            "Actor_IceAddHurtDelta": "IceDamageUp"
          }
        }
      },
      "isDynamicAbility": true
    }
  },
  {
    "Default": {
      "$type": "CBPBEHLOHKI",
      "abilityName": "ActivityAbility_InstableSprayV2_MaxHpUp",
      "abilityMixins": [
        {
          "$type": "NKEPLGAIEJM",
          "modifierName": "UNIQUE_Activity_InstableSprayV2_MaxHpUp_Handler"
        }
      ],
      "abilitySpecials": {
        "MaxHpUp": 0.0
      },
      "modifiers": {
        "UNIQUE_Activity_InstableSprayV2_MaxHpUp_Handler": {
          "stacking": "Unique",
          "modifierName": "",
          "forceTriggerWhenChangeAuthority": true,
          "IPFJJJGABPL": 100.0,
          "modifierMixins": [
            {
              "$type": "CCNIOPJEHOE",
              "globalValueTarget": "Team",
              "globalValueKey": "SGV_MAXHP_UP",
              "valueSteps": [
                -0.5,
                0.5,
                1.5
              ],
              "modifierNameSteps": [
                "MaxHpUpEmpty",
                "UNIQUE_Activity_InstableSprayV2_MaxHpUp"
              ]
            }
          ]
        },
        "MaxHpUpEmpty": {
          "modifierName": "",
          "IPFJJJGABPL": 100.0
        },
        "UNIQUE_Activity_InstableSprayV2_MaxHpUp": {
          "stacking": "Unique",
          "modifierName": "",
          "forceTriggerWhenChangeAuthority": true,
          "IPFJJJGABPL": 100.0,
          "properties": {
            "Actor_MaxHPRatio": "MaxHpUp"
          }
        }
      },
      "isDynamicAbility": true
    }
  },
  {
    "Default": {
      "$type": "CBPBEHLOHKI",
      "abilityName": "ActivityAbility_InstableSprayV2_ElemMasteryAllUp",
      "abilityMixins": [
        {
          "$type": "EEPKCGMKKJC",
          "modifierName": "UNIQUE_Activity_InstableSprayV2_ElemMasteryAllUp_Handler"
        }
      ],
      "abilitySpecials": {
        "ElemMasteryUp": 0.0
      },
      "modifiers": {
        "UNIQUE_Activity_InstableSprayV2_ElemMasteryAllUp_Handler": {
          "stacking": "Unique",
          "modifierName": "",
          "forceTriggerWhenChangeAuthority": true,
          "IPFJJJGABPL": 100.0,
          "modifierMixins": [
            {
              "$type": "CCNIOPJEHOE",
              "globalValueTarget": "Team",
              "globalValueKey": "SGV_ElEMMASTERY_UP",
              "valueSteps": [
                -0.5,
                0.5,
                1.5
              ],
              "modifierNameSteps": [
                "ElemMasteryAllUpEmpty",
                "UNIQUE_Activity_InstableSprayV2_ElemMasteryAllUp"
              ]
            }
          ]
        },
        "ElemMasteryAllUpEmpty": {
          "modifierName": "",
          "IPFJJJGABPL": 100.0
        },
        "UNIQUE_Activity_InstableSprayV2_ElemMasteryAllUp": {
          "stacking": "Unique",
          "modifierName": "",
          "forceTriggerWhenChangeAuthority": true,
          "IPFJJJGABPL": 100.0,
          "properties": {
            "Actor_ElemMasteryDelta": "ElemMasteryUp"
          }
        }
      },
      "isDynamicAbility": true
    }
  },
  {
    "Default": {
      "$type": "CBPBEHLOHKI",
      "abilityName": "ActivityAbility_InstableSprayV2_ElementBurstUp",
      "abilityMixins": [
        {
          "$type": "NKEPLGAIEJM",
          "modifierName": "UNIQUE_Activity_InstableSprayV2_ElementBurstUp_Handler"
        }
      ],
      "abilitySpecials": {
        "ElementBurstUp": 0.0
      },
      "modifiers": {
        "UNIQUE_Activity_InstableSprayV2_ElementBurstUp_Handler": {
          "stacking": "Unique",
          "modifierName": "",
          "forceTriggerWhenChangeAuthority": true,
          "IPFJJJGABPL": 100.0,
          "modifierMixins": [
            {
              "$type": "CCNIOPJEHOE",
              "globalValueTarget": "Team",
              "globalValueKey": "SGV_ELEMENTBURST_UP",
              "valueSteps": [
                -0.5,
                0.5,
                1.5
              ],
              "modifierNameSteps": [
                "ElementBurstUpEmpty",
                "UNIQUE_Activity_InstableSprayV2_ElementBurstUp"
              ]
            }
          ]
        },
        "ElementBurstUpEmpty": {
          "modifierName": "",
          "IPFJJJGABPL": 100.0
        },
        "UNIQUE_Activity_InstableSprayV2_ElementBurstUp": {
          "stacking": "Unique",
          "modifierName": "",
          "forceTriggerWhenChangeAuthority": true,
          "IPFJJJGABPL": 100.0,
          "modifierMixins": [
            {
              "$type": "LDBCDLJECKF",
              "attackTags": [
                "Elemental_Burst"
              ],
              "actorWindSubHurtDelta": "ElementBurstUp"
            }
          ]
        }
      },
      "isDynamicAbility": true
    }
  },
  {
    "Default": {
      "$type": "CBPBEHLOHKI",
      "abilityName": "ActivityAbility_InstableSprayV2_NormalAtkUp",
      "abilityMixins": [
        {
          "$type": "NKEPLGAIEJM",
          "modifierName": "UNIQUE_Activity_InstableSprayV2_NormalAtkUp_Handler"
        }
      ],
      "abilitySpecials": {
        "NormalAtkUp": 0.0
      },
      "modifiers": {
        "UNIQUE_Activity_InstableSprayV2_NormalAtkUp_Handler": {
          "stacking": "Unique",
          "modifierName": "",
          "forceTriggerWhenChangeAuthority": true,
          "IPFJJJGABPL": 100.0,
          "modifierMixins": [
            {
              "$type": "CCNIOPJEHOE",
              "globalValueTarget": "Team",
              "globalValueKey": "SGV_NORMALLATK_UP",
              "valueSteps": [
                -0.5,
                0.5,
                1.5
              ],
              "modifierNameSteps": [
                "NormalAtkUpEmpty",
                "UNIQUE_Activity_InstableSprayV2_NormalAtkUp"
              ]
            }
          ]
        },
        "NormalAtkUpEmpty": {
          "modifierName": "",
          "IPFJJJGABPL": 100.0
        },
        "UNIQUE_Activity_InstableSprayV2_NormalAtkUp": {
          "stacking": "Unique",
          "modifierName": "",
          "forceTriggerWhenChangeAuthority": true,
          "IPFJJJGABPL": 100.0,
          "modifierMixins": [
            {
              "$type": "LDBCDLJECKF",
              "attackTags": [
                "NormalAttack_01",
                "NormalAttack_02",
                "NormalAttack_03",
                "NormalAttack_04",
                "NormalAttack_05",
                "NormalAttack_06",
                "ExtraAttack"
              ],
              "actorWindSubHurtDelta": "NormalAtkUp"
            }
          ]
        }
      },
      "isDynamicAbility": true
    }
  },
  {
    "Default": {
      "$type": "CBPBEHLOHKI",
      "abilityName": "ActivityAbility_InstableSprayV2_PhysicalDamageUp",
      "abilityMixins": [
        {
          "$type": "NKEPLGAIEJM",
          "modifierName": "UNIQUE_Activity_InstableSprayV2_PhysicalDamageUp_Handler"
        }
      ],
      "abilitySpecials": {
        "PhysicalDamageUp": 0.0
      },
      "modifiers": {
        "UNIQUE_Activity_InstableSprayV2_PhysicalDamageUp_Handler": {
          "stacking": "Unique",
          "modifierName": "",
          "forceTriggerWhenChangeAuthority": true,
          "IPFJJJGABPL": 100.0,
          "modifierMixins": [
            {
              "$type": "CCNIOPJEHOE",
              "globalValueTarget": "Team",
              "globalValueKey": "SGV_PHYISICAL_BUFF",
              "valueSteps": [
                -0.5,
                0.5,
                1.5
              ],
              "modifierNameSteps": [
                "PhysicalDamageUpEmpty",
                "UNIQUE_Activity_InstableSprayV2_PhysicalDamageUp"
              ]
            }
          ]
        },
        "PhysicalDamageUpEmpty": {
          "modifierName": "",
          "IPFJJJGABPL": 100.0
        },
        "UNIQUE_Activity_InstableSprayV2_PhysicalDamageUp": {
          "stacking": "Unique",
          "modifierName": "",
          "forceTriggerWhenChangeAuthority": true,
          "IPFJJJGABPL": 100.0,
          "properties": {
            "Actor_PhysicalAddHurtDelta": "PhysicalDamageUp"
          }
        }
      },
      "isDynamicAbility": true
    }
  },
  {
    "Default": {
      "$type": "CBPBEHLOHKI",
      "abilityName": "ActivityAbility_InstableSprayV2_OverDose_SubHurtDown",
      "abilityMixins": [
        {
          "$type": "EEPKCGMKKJC",
          "modifierName": "UNIQUE_Activity_InstableSprayV2_OverDose_SubHurtDown_Handler"
        }
      ],
      "abilitySpecials": {
        "SubHurtDelta": 0.0,
        "SubHurtDuration": 0.0
      },
      "modifiers": {
        "UNIQUE_Activity_InstableSprayV2_OverDose_SubHurtDown_Handler": {
          "stacking": "Unique",
          "modifierName": "",
          "forceTriggerWhenChangeAuthority": true,
          "IPFJJJGABPL": 100.0,
          "modifierMixins": [
            {
              "$type": "CCNIOPJEHOE",
              "globalValueTarget": "Team",
              "globalValueKey": "SGV_OVERDOSE_DEBUFF",
              "valueSteps": [
                -0.5,
                0.5,
                1.5
              ],
              "modifierNameSteps": [
                "OverDose_SubHurtDownEmpty",
                "UNIQUE_Activity_InstableSprayV2_OverDose_SubHurtDown_Monitor"
              ]
            }
          ]
        },
        "OverDose_SubHurtDownEmpty": {
          "modifierName": "",
          "IPFJJJGABPL": 100.0
        },
        "UNIQUE_Activity_InstableSprayV2_OverDose_SubHurtDown_Monitor": {
          "stacking": "Unique",
          "modifierName": "",
          "forceTriggerWhenChangeAuthority": true,
          "IPFJJJGABPL": 100.0,
          "modifierMixins": [
            {
              "$type": "GEICHMDHPHI",
              "range": 60.0,
              "entityTypes": [
                "Monster"
              ],
              "reactionTypes": [
                "Overdose",
                "OverdoseGrass",
                "OverdoseElectric"
              ],
              "actions": [
                {
                  "$type": "PELJALPANCA",
                  "target": "Other",
                  "shieldHP": true,
                  "modifierName": "UNIQUE_Activity_InstableSprayV2_OverDose_SubHurtDown"
                }
              ]
            }
          ]
        },
        "UNIQUE_Activity_InstableSprayV2_OverDose_SubHurtDown": {
          "stacking": "MultipleAllRefresh",
          "stackingOption": {
            "abilitySpecialName": "",
            "maxModifierNumForMultipleType": 1.0,
            "enableMixedUnique": true
          },
          "modifierName": "",
          "forceTriggerWhenChangeAuthority": true,
          "elementDurability": "SubHurtDuration",
          "IPFJJJGABPL": 100.0,
          "properties": {
            "Actor_FireSubHurtDelta": [
              0.0,
              "SubHurtDelta",
              "SUB"
            ],
            "Actor_ElecSubHurtDelta": [
              0.0,
              "SubHurtDelta",
              "SUB"
            ],
            "Actor_WaterSubHurtDelta": [
              0.0,
              "SubHurtDelta",
              "SUB"
            ],
            "Actor_GrassSubHurtDelta": [
              0.0,
              "SubHurtDelta",
              "SUB"
            ],
            "Actor_WindSubHurtDelta": [
              0.0,
              "SubHurtDelta",
              "SUB"
            ],
            "Actor_IceSubHurtDelta": [
              0.0,
              "SubHurtDelta",
              "SUB"
            ],
            "Actor_RockSubHurtDelta": [
              0.0,
              "SubHurtDelta",
              "SUB"
            ],
            "Actor_PhysicalSubHurtDelta": [
              0.0,
              "SubHurtDelta",
              "SUB"
            ]
          },
          "state": "DefenseDown"
        }
      },
      "isDynamicAbility": true
    }
  },
  {
    "Default": {
      "$type": "CBPBEHLOHKI",
      "abilityName": "ActivityAbility_InstableSprayV2_Swirl_DefenseDown",
      "abilityMixins": [
        {
          "$type": "EEPKCGMKKJC",
          "modifierName": "UNIQUE_Activity_InstableSprayV2_Swirl_DefenseDown_Handler"
        }
      ],
      "abilitySpecials": {
        "DefenseRatio": 0.0,
        "DefenseDownTime": 0.0
      },
      "modifiers": {
        "UNIQUE_Activity_InstableSprayV2_Swirl_DefenseDown_Handler": {
          "stacking": "Unique",
          "modifierName": "",
          "forceTriggerWhenChangeAuthority": true,
          "IPFJJJGABPL": 100.0,
          "modifierMixins": [
            {
              "$type": "CCNIOPJEHOE",
              "globalValueTarget": "Team",
              "globalValueKey": "SGV_SWIRL_DEBUFF",
              "valueSteps": [
                -0.5,
                0.5,
                1.5
              ],
              "modifierNameSteps": [
                "Swirl_DefenseDownEmpty",
                "UNIQUE_Activity_InstableSprayV2_Swirl_DefenseDown_Monitor"
              ]
            }
          ]
        },
        "Swirl_DefenseDownEmpty": {
          "modifierName": "",
          "IPFJJJGABPL": 100.0
        },
        "UNIQUE_Activity_InstableSprayV2_Swirl_DefenseDown_Monitor": {
          "stacking": "Unique",
          "modifierName": "",
          "forceTriggerWhenChangeAuthority": true,
          "IPFJJJGABPL": 100.0,
          "modifierMixins": [
            {
              "$type": "GEICHMDHPHI",
              "range": 60.0,
              "entityTypes": [
                "Monster"
              ],
              "reactionTypes": [
                "SwirlFire",
                "SwirlElectric",
                "SwirlWater",
                "SwirlIce"
              ],
              "actions": [
                {
                  "$type": "PELJALPANCA",
                  "target": "Other",
                  "shieldHP": true,
                  "modifierName": "UNIQUE_Activity_InstableSprayV2_Swirl_DefenseDown"
                }
              ]
            }
          ]
        },
        "UNIQUE_Activity_InstableSprayV2_Swirl_DefenseDown": {
          "stacking": "RefreshUniqueDurability",
          "modifierName": "",
          "forceTriggerWhenChangeAuthority": true,
          "elementDurability": "DefenseDownTime",
          "IPFJJJGABPL": 100.0,
          "properties": {
            "Actor_DefenceRatio": [
              0.0,
              "DefenseRatio",
              "SUB"
            ]
          },
          "state": "DefenseDown"
        }
      },
      "isDynamicAbility": true
    }
  },
  {
    "Default": {
      "$type": "CBPBEHLOHKI",
      "abilityName": "ActivityAbility_InstableSprayV2_Melt_AddHurtUp",
      "abilityMixins": [
        {
          "$type": "EEPKCGMKKJC",
          "modifierName": "UNIQUE_Activity_InstableSprayV2_Melt_AddHurtUp_Handler"
        }
      ],
      "abilitySpecials": {
        "AddHurtRatio": 0.0,
        "AddHurtDuration": 0.0
      },
      "modifiers": {
        "UNIQUE_Activity_InstableSprayV2_Melt_AddHurtUp_Handler": {
          "stacking": "Unique",
          "modifierName": "",
          "forceTriggerWhenChangeAuthority": true,
          "IPFJJJGABPL": 100.0,
          "modifierMixins": [
            {
              "$type": "CCNIOPJEHOE",
              "globalValueTarget": "Team",
              "globalValueKey": "SGV_MELT_BUFF",
              "valueSteps": [
                -0.5,
                0.5,
                1.5
              ],
              "modifierNameSteps": [
                "Melt_AddHurtUpEmpty",
                "UNIQUE_Activity_InstableSprayV2_Melt_AddHurtUp_Monitor"
              ]
            }
          ]
        },
        "Melt_AddHurtUpEmpty": {
          "modifierName": "",
          "IPFJJJGABPL": 100.0
        },
        "UNIQUE_Activity_InstableSprayV2_Melt_AddHurtUp_Monitor": {
          "stacking": "Unique",
          "modifierName": "",
          "forceTriggerWhenChangeAuthority": true,
          "IPFJJJGABPL": 100.0,
          "modifierMixins": [
            {
              "$type": "GEICHMDHPHI",
              "range": 60.0,
              "entityTypes": [
                "Monster"
              ],
              "reactionTypes": [
                "Melt",
                "Stream"
              ],
              "actions": [
                {
                  "$type": "PELJALPANCA",
                  "target": "AllPlayerAvatars",
                  "shieldHP": true,
                  "modifierName": "UNIQUE_Activity_InstableSprayV2_Melt_AddHurtUp"
                }
              ]
            }
          ]
        },
        "UNIQUE_Activity_InstableSprayV2_Melt_AddHurtUp": {
          "stacking": "RefreshUniqueDurability",
          "modifierName": "",
          "forceTriggerWhenChangeAuthority": true,
          "elementDurability": "AddHurtDuration",
          "IPFJJJGABPL": 100.0,
          "properties": {
            "Actor_FireAddHurtDelta": "AddHurtRatio",
            "Actor_ElecAddHurtDelta": "AddHurtRatio",
            "Actor_WaterAddHurtDelta": "AddHurtRatio",
            "Actor_GrassAddHurtDelta": "AddHurtRatio",
            "Actor_WindAddHurtDelta": "AddHurtRatio",
            "Actor_IceAddHurtDelta": "AddHurtRatio",
            "Actor_RockAddHurtDelta": "AddHurtRatio",
            "Actor_PhysicalAddHurtDelta": "AddHurtRatio"
          }
        }
      },
      "isDynamicAbility": true
    }
  },
  {
    "Default": {
      "$type": "CBPBEHLOHKI",
      "abilityName": "ActivityAbility_InstableSprayV2_Freeze_AddHurtUp",
      "abilityMixins": [
        {
          "$type": "EEPKCGMKKJC",
          "modifierName": "UNIQUE_Activity_InstableSprayV2_Freeze_AddHurtUp_Handler"
        }
      ],
      "abilitySpecials": {
        "CriticalHurtRatio": 0.0,
        "AddHurtDuration": 0.0
      },
      "modifiers": {
        "UNIQUE_Activity_InstableSprayV2_Freeze_AddHurtUp_Handler": {
          "stacking": "Unique",
          "modifierName": "",
          "forceTriggerWhenChangeAuthority": true,
          "IPFJJJGABPL": 100.0,
          "modifierMixins": [
            {
              "$type": "CCNIOPJEHOE",
              "globalValueTarget": "Team",
              "globalValueKey": "SGV_FREEZE_BUFF",
              "valueSteps": [
                -0.5,
                0.5,
                1.5
              ],
              "modifierNameSteps": [
                "Freeze_AddHurtUpEmpty",
                "UNIQUE_Activity_InstableSprayV2_Freeze_AddHurtUp_Monitor"
              ]
            }
          ]
        },
        "Freeze_AddHurtUpEmpty": {
          "modifierName": "",
          "IPFJJJGABPL": 100.0
        },
        "UNIQUE_Activity_InstableSprayV2_Freeze_AddHurtUp_Monitor": {
          "stacking": "Unique",
          "modifierName": "",
          "forceTriggerWhenChangeAuthority": true,
          "IPFJJJGABPL": 100.0,
          "modifierMixins": [
            {
              "$type": "GEICHMDHPHI",
              "range": 60.0,
              "entityTypes": [
                "Monster"
              ],
              "reactionTypes": [
                "Freeze"
              ],
              "actions": [
                {
                  "$type": "PELJALPANCA",
                  "target": "AllPlayerAvatars",
                  "shieldHP": true,
                  "modifierName": "UNIQUE_Activity_InstableSprayV2_Freeze_AddHurtUp"
                }
              ]
            }
          ]
        },
        "UNIQUE_Activity_InstableSprayV2_Freeze_AddHurtUp": {
          "stacking": "RefreshUniqueDurability",
          "modifierName": "",
          "forceTriggerWhenChangeAuthority": true,
          "elementDurability": "AddHurtDuration",
          "IPFJJJGABPL": 100.0,
          "properties": {
            "Actor_CriticalHurtDelta": "CriticalHurtRatio"
          }
        }
      },
      "isDynamicAbility": true
    }
  },
  {
    "Default": {
      "$type": "CBPBEHLOHKI",
      "abilityName": "ActivityAbility_InstableSprayV2_Superconductor_AttackUp",
      "abilityMixins": [
        {
          "$type": "EEPKCGMKKJC",
          "modifierName": "UNIQUE_Activity_InstableSprayV2_Superconductor_AttackUp_Handler"
        }
      ],
      "abilitySpecials": {
        "AttackUpRatio": 0.0,
        "AttackUpDuration": 0.0
      },
      "modifiers": {
        "UNIQUE_Activity_InstableSprayV2_Superconductor_AttackUp_Handler": {
          "stacking": "Unique",
          "modifierName": "",
          "forceTriggerWhenChangeAuthority": true,
          "IPFJJJGABPL": 100.0,
          "modifierMixins": [
            {
              "$type": "CCNIOPJEHOE",
              "globalValueTarget": "Team",
              "globalValueKey": "SGV_SPCONDUCTOR_BUFF",
              "valueSteps": [
                -0.5,
                0.5,
                1.5
              ],
              "modifierNameSteps": [
                "Superconductor_AttackUpEmpty",
                "UNIQUE_Activity_InstableSprayV2_Superconductor_AttackUp_Monitor"
              ]
            }
          ]
        },
        "Superconductor_AttackUpEmpty": {
          "modifierName": "",
          "IPFJJJGABPL": 100.0
        },
        "UNIQUE_Activity_InstableSprayV2_Superconductor_AttackUp_Monitor": {
          "stacking": "Unique",
          "modifierName": "",
          "forceTriggerWhenChangeAuthority": true,
          "IPFJJJGABPL": 100.0,
          "modifierMixins": [
            {
              "$type": "GEICHMDHPHI",
              "range": 60.0,
              "entityTypes": [
                "Monster"
              ],
              "reactionTypes": [
                "Superconductor"
              ],
              "actions": [
                {
                  "$type": "PELJALPANCA",
                  "target": "AllPlayerAvatars",
                  "shieldHP": true,
                  "modifierName": "UNIQUE_Activity_Superconductor_AttackUp_AddHurtUp"
                }
              ]
            }
          ]
        },
        "UNIQUE_Activity_Superconductor_AttackUp_AddHurtUp": {
          "stacking": "RefreshUniqueDurability",
          "modifierName": "",
          "forceTriggerWhenChangeAuthority": true,
          "elementDurability": "AttackUpDuration",
          "IPFJJJGABPL": 100.0,
          "properties": {
            "Actor_AttackRatio": "AttackUpRatio"
          }
        }
      },
      "isDynamicAbility": true
    }
  },
  {
    "Default": {
      "$type": "CBPBEHLOHKI",
      "abilityName": "ActivityAbility_InstableSprayV2_Burn_SubHurtDown",
      "abilityMixins": [
        {
          "$type": "EEPKCGMKKJC",
          "modifierName": "UNIQUE_Activity_InstableSprayV2_Burn_SubHurtDown_Handler"
        }
      ],
      "abilitySpecials": {
        "SubHurtRatio": 0.0,
        "SubHurtDuration": 0.0
      },
      "modifiers": {
        "UNIQUE_Activity_InstableSprayV2_Burn_SubHurtDown_Handler": {
          "stacking": "Unique",
          "modifierName": "",
          "forceTriggerWhenChangeAuthority": true,
          "IPFJJJGABPL": 100.0,
          "modifierMixins": [
            {
              "$type": "CCNIOPJEHOE",
              "globalValueTarget": "Team",
              "globalValueKey": "SGV_BURN_DEBUFF",
              "valueSteps": [
                -0.5,
                0.5,
                1.5
              ],
              "modifierNameSteps": [
                "Burn_SubHurtDownEmpty",
                "UNIQUE_Activity_InstableSprayV2_Burn_SubHurtDown_Monitor"
              ]
            }
          ]
        },
        "Burn_SubHurtDownEmpty": {
          "modifierName": "",
          "IPFJJJGABPL": 100.0
        },
        "UNIQUE_Activity_InstableSprayV2_Burn_SubHurtDown_Monitor": {
          "stacking": "Unique",
          "modifierName": "",
          "forceTriggerWhenChangeAuthority": true,
          "IPFJJJGABPL": 100.0,
          "modifierMixins": [
            {
              "$type": "GEICHMDHPHI",
              "range": 60.0,
              "entityTypes": [
                "Monster"
              ],
              "reactionTypes": [
                "Burning"
              ],
              "actions": [
                {
                  "$type": "PELJALPANCA",
                  "target": "Other",
                  "shieldHP": true,
                  "modifierName": "UNIQUE_Activity_Burn_SubHurtDown"
                }
              ]
            }
          ]
        },
        "UNIQUE_Activity_Burn_SubHurtDown": {
          "stacking": "RefreshUniqueDurability",
          "modifierName": "",
          "forceTriggerWhenChangeAuthority": true,
          "elementDurability": "SubHurtDuration",
          "IPFJJJGABPL": 100.0,
          "properties": {
            "Actor_FireSubHurtDelta": [
              0.0,
              "SubHurtRatio",
              "SUB"
            ],
            "Actor_ElecSubHurtDelta": [
              0.0,
              "SubHurtRatio",
              "SUB"
            ],
            "Actor_WaterSubHurtDelta": [
              0.0,
              "SubHurtRatio",
              "SUB"
            ],
            "Actor_GrassSubHurtDelta": [
              0.0,
              "SubHurtRatio",
              "SUB"
            ],
            "Actor_WindSubHurtDelta": [
              0.0,
              "SubHurtRatio",
              "SUB"
            ],
            "Actor_IceSubHurtDelta": [
              0.0,
              "SubHurtRatio",
              "SUB"
            ],
            "Actor_RockSubHurtDelta": [
              0.0,
              "SubHurtRatio",
              "SUB"
            ],
            "Actor_PhysicalSubHurtDelta": [
              0.0,
              "SubHurtRatio",
              "SUB"
            ]
          },
          "state": "DefenseDown"
        }
      },
      "isDynamicAbility": true
    }
  },
  {
    "Default": {
      "$type": "CBPBEHLOHKI",
      "abilityName": "ActivityAbility_InstableSprayV2_Overgrow_SubHurtDown",
      "abilityMixins": [
        {
          "$type": "EEPKCGMKKJC",
          "modifierName": "UNIQUE_Activity_InstableSprayV2_Overgrow_SubHurtDown_Handler"
        }
      ],
      "abilitySpecials": {
        "SubHurtRatio": 0.0,
        "SubHurtDuration": 0.0
      },
      "modifiers": {
        "UNIQUE_Activity_InstableSprayV2_Overgrow_SubHurtDown_Handler": {
          "stacking": "Unique",
          "modifierName": "",
          "forceTriggerWhenChangeAuthority": true,
          "IPFJJJGABPL": 100.0,
          "modifierMixins": [
            {
              "$type": "CCNIOPJEHOE",
              "globalValueTarget": "Team",
              "globalValueKey": "SGV_OVERGROW_DEBUFF",
              "valueSteps": [
                -0.5,
                0.5,
                1.5
              ],
              "modifierNameSteps": [
                "Overgrow_SubHurtDownEmpty",
                "UNIQUE_Activity_InstableSprayV2_Overgrow_SubHurtDown_Monitor"
              ]
            }
          ]
        },
        "Overgrow_SubHurtDownEmpty": {
          "modifierName": "",
          "IPFJJJGABPL": 100.0
        },
        "UNIQUE_Activity_InstableSprayV2_Overgrow_SubHurtDown_Monitor": {
          "stacking": "Unique",
          "modifierName": "",
          "forceTriggerWhenChangeAuthority": true,
          "IPFJJJGABPL": 100.0,
          "modifierMixins": [
            {
              "$type": "GEICHMDHPHI",
              "range": 60.0,
              "entityTypes": [
                "Monster"
              ],
              "reactionTypes": [
                "Overgrow",
                "OvergrowMushroomElectric",
                "OvergrowMushroomFire"
              ],
              "actions": [
                {
                  "$type": "PELJALPANCA",
                  "target": "Other",
                  "shieldHP": true,
                  "modifierName": "UNIQUE_Activity_Overgrow_SubHurtDown"
                }
              ]
            }
          ]
        },
        "UNIQUE_Activity_Overgrow_SubHurtDown": {
          "stacking": "RefreshUniqueDurability",
          "modifierName": "",
          "forceTriggerWhenChangeAuthority": true,
          "elementDurability": "SubHurtDuration",
          "IPFJJJGABPL": 100.0,
          "properties": {
            "Actor_FireSubHurtDelta": [
              0.0,
              "SubHurtRatio",
              "SUB"
            ],
            "Actor_ElecSubHurtDelta": [
              0.0,
              "SubHurtRatio",
              "SUB"
            ],
            "Actor_WaterSubHurtDelta": [
              0.0,
              "SubHurtRatio",
              "SUB"
            ],
            "Actor_GrassSubHurtDelta": [
              0.0,
              "SubHurtRatio",
              "SUB"
            ],
            "Actor_WindSubHurtDelta": [
              0.0,
              "SubHurtRatio",
              "SUB"
            ],
            "Actor_IceSubHurtDelta": [
              0.0,
              "SubHurtRatio",
              "SUB"
            ],
            "Actor_RockSubHurtDelta": [
              0.0,
              "SubHurtRatio",
              "SUB"
            ],
            "Actor_PhysicalSubHurtDelta": [
              0.0,
              "SubHurtRatio",
              "SUB"
            ]
          },
          "state": "DefenseDown"
        }
      },
      "isDynamicAbility": true
    }
  },
  {
    "Default": {
      "$type": "CBPBEHLOHKI",
      "abilityName": "ActivityAbility_InstableSprayV2_Switch_GetEnergy",
      "abilityMixins": [
        {
          "$type": "EEPKCGMKKJC",
          "modifierName": "UNIQUE_Activity_InstableSprayV2_Switch_GetEnergy_Handler"
        }
      ],
      "abilitySpecials": {
        "Energy": 0.0
      },
      "modifiers": {
        "UNIQUE_Activity_InstableSprayV2_Switch_GetEnergy_Handler": {
          "stacking": "Unique",
          "modifierName": "",
          "forceTriggerWhenChangeAuthority": true,
          "IPFJJJGABPL": 100.0,
          "modifierMixins": [
            {
              "$type": "CCNIOPJEHOE",
              "globalValueTarget": "Team",
              "globalValueKey": "SGV_SWITCH_BUFF",
              "valueSteps": [
                -0.5,
                0.5,
                1.5
              ],
              "modifierNameSteps": [
                "Switch_GetEnergyEmpty",
                "UNIQUE_Activity_InstableSprayV2_Switch_GetEnergy_Monitor"
              ]
            }
          ]
        },
        "Switch_GetEnergyEmpty": {
          "modifierName": "",
          "IPFJJJGABPL": 100.0
        },
        "UNIQUE_Activity_InstableSprayV2_Switch_GetEnergy_Monitor": {
          "stacking": "Unique",
          "modifierName": "",
          "forceTriggerWhenChangeAuthority": true,
          "IPFJJJGABPL": 100.0,
          "onAvatarIn": [
            {
              "$type": "AHCALEMEJPJ",
              "param3": "Energy"
            }
          ]
        }
      },
      "isDynamicAbility": true
    }
  },
  {
    "Default": {
      "$type": "CBPBEHLOHKI",
      "abilityName": "ActivityAbility_InstableSprayV2_ChargeBuff",
      "abilityMixins": [
        {
          "$type": "EEPKCGMKKJC",
          "modifierName": "UNIQUE_Activity_InstableSprayV2_ChargeBuff_Handler"
        }
      ],
      "abilitySpecials": {
        "ChargeBuffRatio": 0.0
      },
      "modifiers": {
        "UNIQUE_Activity_InstableSprayV2_ChargeBuff_Handler": {
          "stacking": "Unique",
          "modifierName": "",
          "forceTriggerWhenChangeAuthority": true,
          "IPFJJJGABPL": 100.0,
          "modifierMixins": [
            {
              "$type": "CCNIOPJEHOE",
              "globalValueTarget": "Team",
              "globalValueKey": "SGV_CHARGE_BUFF",
              "valueSteps": [
                -0.5,
                0.5,
                1.5
              ],
              "modifierNameSteps": [
                "ChargeBuffEmpty",
                "UNIQUE_Activity_InstableSprayV2_ChargeBuff_Monitor"
              ]
            }
          ]
        },
        "ChargeBuffEmpty": {
          "modifierName": "",
          "IPFJJJGABPL": 100.0
        },
        "UNIQUE_Activity_InstableSprayV2_ChargeBuff_Monitor": {
          "stacking": "Unique",
          "modifierName": "",
          "forceTriggerWhenChangeAuthority": true,
          "IPFJJJGABPL": 100.0,
          "properties": {
            "Actor_ChargeEfficiencyDelta": "ChargeBuffRatio"
          }
        }
      },
      "isDynamicAbility": true
    }
  },
  {
    "Default": {
      "$type": "CBPBEHLOHKI",
      "abilityName": "ActivityAbility_InstableSprayV2_BeHit_HPBUFF",
      "abilityMixins": [
        {
          "$type": "EEPKCGMKKJC",
          "modifierName": "UNIQUE_Activity_InstableSprayV2_BeHit_HPBUFF_Handler"
        }
      ],
      "abilitySpecials": {
        "MaxHpRatio": 0.0,
        "MaxHpUpDuration": 0.0,
        "HpRecoverRatio": 0.0,
        "RecoverCD": 0.0
      },
      "modifiers": {
        "UNIQUE_Activity_InstableSprayV2_BeHit_HPBUFF_Handler": {
          "stacking": "Unique",
          "modifierName": "",
          "forceTriggerWhenChangeAuthority": true,
          "IPFJJJGABPL": 100.0,
          "modifierMixins": [
            {
              "$type": "CCNIOPJEHOE",
              "globalValueTarget": "Team",
              "globalValueKey": "SGV_BEHIT_HPBUFF",
              "valueSteps": [
                -0.5,
                0.5,
                1.5
              ],
              "modifierNameSteps": [
                "HPBUFFEmpty",
                "UNIQUE_Activity_InstableSprayV2_HPBUFF_Monitor"
              ]
            }
          ]
        },
        "HPBUFFEmpty": {
          "modifierName": "",
          "IPFJJJGABPL": 100.0
        },
        "UNIQUE_Activity_InstableSprayV2_HPBUFF_Monitor": {
          "stacking": "Unique",
          "modifierName": "",
          "forceTriggerWhenChangeAuthority": true,
          "IPFJJJGABPL": 100.0,
          "modifierMixins": [
            {
              "$type": "CLJDJFBAPFM",
              "onEvent": "HPDown",
              "actions": [
                {
                  "$type": "PELJALPANCA",
                  "shieldHP": true,
                  "predicates": [
                    {
                      "$type": "GIIADCNNLNI",
                      "hp": 1.0
                    }
                  ],
                  "modifierName": "UNIQUE_Activity_InstableSprayV2_HPBUFF"
                },
                {
                  "$type": "PELJALPANCA",
                  "shieldHP": true,
                  "predicates": [
                    {
                      "$type": "GIIADCNNLNI",
                      "hp": 1.0
                    }
                  ],
                  "modifierName": "UNIQUE_Activity_InstableSprayV2_ReviveHP"
                }
              ],
              "costEnergyDeltaName": ""
            }
          ]
        },
        "UNIQUE_Activity_InstableSprayV2_ReviveHP": {
          "stacking": "Unique",
          "modifierName": "",
          "forceTriggerWhenChangeAuthority": true,
          "elementDurability": "RecoverCD",
          "IPFJJJGABPL": 100.0,
          "onAdded": [
            {
              "$type": "FHGPOFDJDCO",
              "shieldHP": true,
              "CKDBFHCIJEK": "HpRecoverRatio",
              "cdRatio": ""
            }
          ]
        },
        "UNIQUE_Activity_InstableSprayV2_HPBUFF": {
          "stacking": "RefreshUniqueDurability",
          "modifierName": "",
          "forceTriggerWhenChangeAuthority": true,
          "elementDurability": "MaxHpUpDuration",
          "IPFJJJGABPL": 100.0,
          "properties": {
            "Actor_MaxHPRatio": "MaxHpRatio"
          }
        }
      },
      "isDynamicAbility": true
    }
  },
  {
    "Default": {
      "$type": "CBPBEHLOHKI",
      "abilityName": "ActivityAbility_InstableSprayV2_BeHit_ElemMasteryUp",
      "abilityMixins": [
        {
          "$type": "EEPKCGMKKJC",
          "modifierName": "UNIQUE_Activity_InstableSprayV2_BeHit_ElemMasteryUp_Handler"
        }
      ],
      "abilitySpecials": {
        "MasteryUpDelta": 0.0,
        "BuffDuration": 0.0
      },
      "modifiers": {
        "UNIQUE_Activity_InstableSprayV2_BeHit_ElemMasteryUp_Handler": {
          "stacking": "Unique",
          "modifierName": "",
          "forceTriggerWhenChangeAuthority": true,
          "IPFJJJGABPL": 100.0,
          "modifierMixins": [
            {
              "$type": "CCNIOPJEHOE",
              "globalValueTarget": "Team",
              "globalValueKey": "SGV_BEHIT_ElEMMASTERYBUFF",
              "valueSteps": [
                -0.5,
                0.5,
                1.5
              ],
              "modifierNameSteps": [
                "BeHit_ElemMasteryUpEmpty",
                "UNIQUE_Activity_BeHit_ElemMasteryUp_Monitor"
              ]
            }
          ]
        },
        "BeHit_ElemMasteryUpEmpty": {
          "modifierName": "",
          "IPFJJJGABPL": 100.0
        },
        "UNIQUE_Activity_BeHit_ElemMasteryUp_Monitor": {
          "stacking": "Unique",
          "modifierName": "",
          "forceTriggerWhenChangeAuthority": true,
          "IPFJJJGABPL": 100.0,
          "modifierMixins": [
            {
              "$type": "CLJDJFBAPFM",
              "onEvent": "HPDown",
              "actions": [
                {
                  "$type": "PELJALPANCA",
                  "target": "AllPlayerAvatars",
                  "shieldHP": true,
                  "predicates": [
                    {
                      "$type": "GIIADCNNLNI",
                      "hp": 1.0
                    }
                  ],
                  "modifierName": "UNIQUE_Activity_BeHit_ElemMasteryUp"
                }
              ],
              "costEnergyDeltaName": ""
            }
          ]
        },
        "UNIQUE_Activity_BeHit_ElemMasteryUp": {
          "stacking": "RefreshUniqueDurability",
          "modifierName": "",
          "forceTriggerWhenChangeAuthority": true,
          "elementDurability": "BuffDuration",
          "IPFJJJGABPL": 100.0,
          "properties": {
            "Actor_ElemMasteryDelta": "MasteryUpDelta"
          }
        }
      },
      "isDynamicAbility": true
    }
  },
  {
    "Default": {
      "$type": "CBPBEHLOHKI",
      "abilityName": "ActivityAbility_InstableSprayV2_AtkUp",
      "abilityMixins": [
        {
          "$type": "NKEPLGAIEJM",
          "modifierName": "UNIQUE_Activity_InstableSprayV2_AtkUp_Handler"
        }
      ],
      "abilitySpecials": {
        "AtkUp": 0.0
      },
      "modifiers": {
        "UNIQUE_Activity_InstableSprayV2_AtkUp_Handler": {
          "stacking": "Unique",
          "modifierName": "",
          "forceTriggerWhenChangeAuthority": true,
          "IPFJJJGABPL": 100.0,
          "modifierMixins": [
            {
              "$type": "CCNIOPJEHOE",
              "globalValueTarget": "Team",
              "globalValueKey": "SGV_ATK_BUFF",
              "valueSteps": [
                -0.5,
                0.5,
                1.5
              ],
              "modifierNameSteps": [
                "AtkUpEmpty",
                "UNIQUE_Activity_InstableSprayV2_AtkUp"
              ]
            }
          ]
        },
        "AtkUpEmpty": {
          "modifierName": "",
          "IPFJJJGABPL": 100.0
        },
        "UNIQUE_Activity_InstableSprayV2_AtkUp": {
          "stacking": "Unique",
          "modifierName": "",
          "forceTriggerWhenChangeAuthority": true,
          "IPFJJJGABPL": 100.0,
          "properties": {
            "Actor_AttackRatio": "AtkUp"
          }
        }
      },
      "isDynamicAbility": true
    }
  }
]