[
  {
    "Default": {
      "$type": "CBPBEHLOHKI",
      "abilityName": "ActivityAbility_SummerTimeV2_Dungeon_Test",
      "modifiers": {
        "Eff_Test": {
          "modifierName": "",
          "IPFJJJGABPL": 100.0,
          "modifierMixins": [
            {
              "$type": "APJKOLPHCGH",
              "stateIDs": [
                "FallingAnthem_AS_1",
                "ElementalArt_FallingAttack_Strike"
              ],
              "enterActions": [
                {
                  "$type": "KBFEIHEAMBM",
                  "rotationDampTime": "Eff_EnergyDisk_ElementalBurst_Wave_R40",
                  "PPPDJGDDOGD": 1.0,
                  "AJDILHJFNKE": -1.0
                }
              ],
              "DGFCLAIDIFI": ""
            }
          ]
        }
      },
      "onAdded": [
        {
          "$type": "JLDEMMJAMLC",
          "modifierName": "Eff_Test"
        }
      ],
      "isDynamicAbility": true
    }
  },
  {
    "Default": {
      "$type": "CBPBEHLOHKI",
      "abilityName": "ActivityAbility_SummerTimeV2_BoatRace",
      "abilityMixins": [
        {
          "$type": "CMOCCIJDPCK",
          "targetVehicleIDs": [
            45001001,
            45001002
          ],
          "skillDepotId": 99001001
        },
        {
          "$type": "NKEPLGAIEJM",
          "modifierName": "BoatRace_Skiff_Sprint_Watcher_GrandHandler"
        }
      ],
      "modifiers": {
        "BoatRace_Skiff_ClearGV_Handler": {
          "stacking": "Unique",
          "modifierName": "",
          "elementDurability": 0.5,
          "IPFJJJGABPL": 100.0,
          "onAdded": [
            {
              "$type": "JLDEMMJAMLC",
              "target": "Vehicle",
              "shieldHP": true,
              "modifierName": "BoatRace_Skiff_ClearGV"
            }
          ],
          "onVehicleIn": [
            {
              "$type": "JLDEMMJAMLC",
              "target": "Vehicle",
              "shieldHP": true,
              "modifierName": "BoatRace_Skiff_ClearGV"
            }
          ]
        },
        "BoatRace_Skiff_ClearGV": {
          "modifierName": "",
          "elementDurability": 0.5,
          "IPFJJJGABPL": 100.0,
          "onAdded": [
            {
              "$type": "BOBCOJHOKKD",
              "param3": 0.0,
              "key": "_ABILITY_Skiff_SprintValue",
              "param2": 0.0,
              "repeatTimes": 0.0
            }
          ]
        },
        "BoatRace_Skiff_Sprint_Watcher_GrandHandler": {
          "stacking": "Unique",
          "modifierName": "",
          "IPFJJJGABPL": 100.0,
          "thinkInterval": 1.0,
          "onAdded": [
            {
              "$type": "JLDEMMJAMLC",
              "target": "Vehicle",
              "shieldHP": true,
              "modifierName": "BoatRace_Skiff_Sprint_Watcher_Handler"
            }
          ],
          "onThinkInterval": [
            {
              "$type": "JLDEMMJAMLC",
              "target": "Vehicle",
              "shieldHP": true,
              "modifierName": "BoatRace_Skiff_Sprint_Watcher_Handler"
            }
          ],
          "onVehicleIn": [
            {
              "$type": "JLDEMMJAMLC",
              "target": "Vehicle",
              "shieldHP": true,
              "modifierName": "BoatRace_Skiff_Sprint_Watcher_Handler"
            }
          ]
        },
        "BoatRace_Skiff_Sprint_Watcher_Handler": {
          "modifierName": "",
          "elementDurability": 5.0,
          "IPFJJJGABPL": 100.0,
          "modifierMixins": [
            {
              "$type": "EKMHJKDLBJH",
              "stateIDs": [
                "Sprint"
              ],
              "modifierName": "BoatRace_Skiff_Sprint_Watcher",
              "DGFCLAIDIFI": ""
            }
          ]
        },
        "BoatRace_Skiff_Sprint_Watcher": {
          "modifierName": "",
          "IPFJJJGABPL": 100.0,
          "thinkInterval": 20.0,
          "onThinkInterval": [
            {
              "$type": "AHPEKICBIIL",
              "luaCallType": "CurGalleryControlGroup",
              "funcName": "SLC_BoatRaceV2_Counter",
              "paramNum": 1,
              "param1": 1.0,
              "MGAMDEHMCOL": 0.0,
              "MMHOHAOGPLP": 0.0
            }
          ]
        }
      },
      "onAdded": [
        {
          "$type": "JLDEMMJAMLC",
          "target": "CurLocalAvatar",
          "shieldHP": true,
          "modifierName": "BoatRace_Skiff_ClearGV_Handler"
        }
      ],
      "isDynamicAbility": true
    }
  },
  {
    "Default": {
      "$type": "CBPBEHLOHKI",
      "abilityName": "ActivityAbility_SummerTimeV2_IgnoreFallDamage",
      "modifiers": {
        "UNIQUE_SummerTimeV2_Avatar_FallingDamage": {
          "modifierName": "",
          "forceTriggerWhenChangeAuthority": true,
          "IPFJJJGABPL": 100.0,
          "properties": {
            "Actor_FallingDamageRatio": -1.0
          }
        }
      },
      "onAdded": [
        {
          "$type": "JLDEMMJAMLC",
          "modifierName": "UNIQUE_SummerTimeV2_Avatar_FallingDamage"
        }
      ],
      "isDynamicAbility": true
    }
  },
  {
    "Default": {
      "$type": "CBPBEHLOHKI",
      "abilityName": "ActivityAbility_SummerTimeV2_KazuhaAOE",
      "abilitySpecials": {
        "ImpactDamageSystemValue": 0.0,
        "ImpactDamageValue": 0.0,
        "ImpactDamageValue2": 0.0,
        "ImpactDamageValue3": 0.0,
        "ImpactDamageValue4": 0.0
      },
      "modifiers": {
        "UNIQUE_Activity_SummerTimeV2_KazuhaAOE": {
          "stacking": "Unique",
          "modifierName": "",
          "forceTriggerWhenChangeAuthority": true,
          "elementDurability": 1.0,
          "IPFJJJGABPL": 100.0,
          "modifierMixins": [
            {
              "$type": "COEDOLJOHAK",
              "postEffectAssetName": "postEffect_Activity_SummerTimeV2_Kazuha_ScreenEffect",
              "duration": 1.5
            }
          ],
          "onAdded": [
            {
              "$type": "KBFEIHEAMBM",
              "rotationDampTime": "Eff_SummerTimeV2_Dungeon_Kazuha_Slash",
              "born": {
                "$type": "IAENDIPDFKD"
              },
              "PPPDJGDDOGD": 1.0,
              "AJDILHJFNKE": -1.0
            },
            {
              "$type": "AIFPLABJNMA",
              "attackEvent": {
                "attackPattern": {
                  "$type": "BELNOFAKNBA",
                  "triggerType": "TriggerNoRepeat",
                  "born": {
                    "$type": "IAENDIPDFKD"
                  },
                  "OAHPDLJIADP": 10.5
                },
                "attackInfo": {
                  "attackTag": "",
                  "attenuationTag": "",
                  "attenuationGroup": "default",
                  "attackProperty": {
                    "actorWindSubHurtDelta": 0.0,
                    "IPFJJJGABPL": 0.0,
                    "ignoreAttackerProperty": true,
                    "enBreak": 0.0,
                    "attackType": "Melee",
                    "HMBONGBFIAP": [
                      "ImpactDamageValue",
                      "ImpactDamageSystemValue",
                      "MUL"
                    ],
                    "trueDamage": true,
                    "ignoreModifyDamage": true,
                    "GLKMCMDJBIK": 0.0
                  },
                  "hitPattern": {
                    "onHitEffectName": "default",
                    "hitImpulseY": "",
                    "hitImpulseType": "LV2",
                    "hitHaltTimeScale": 0.019999999552965164
                  },
                  "canBeModifiedBy": "OriginOwner"
                }
              },
              "targetType": "Enemy"
            }
          ]
        },
        "UNIQUE_Activity_SummerTimeV2_KazuhaAOE_2": {
          "stacking": "Unique",
          "modifierName": "",
          "forceTriggerWhenChangeAuthority": true,
          "elementDurability": 1.0,
          "IPFJJJGABPL": 100.0,
          "modifierMixins": [
            {
              "$type": "COEDOLJOHAK",
              "postEffectAssetName": "postEffect_Activity_SummerTimeV2_Kazuha_ScreenEffect",
              "duration": 1.5
            }
          ],
          "onAdded": [
            {
              "$type": "KBFEIHEAMBM",
              "rotationDampTime": "Eff_SummerTimeV2_Dungeon_Kazuha_Slash",
              "born": {
                "$type": "IAENDIPDFKD"
              },
              "PPPDJGDDOGD": 1.0,
              "AJDILHJFNKE": -1.0
            },
            {
              "$type": "AIFPLABJNMA",
              "attackEvent": {
                "attackPattern": {
                  "$type": "BELNOFAKNBA",
                  "triggerType": "TriggerNoRepeat",
                  "born": {
                    "$type": "IAENDIPDFKD"
                  },
                  "OAHPDLJIADP": 10.5
                },
                "attackInfo": {
                  "attackTag": "",
                  "attenuationTag": "",
                  "attenuationGroup": "default",
                  "attackProperty": {
                    "actorWindSubHurtDelta": 0.0,
                    "IPFJJJGABPL": 0.0,
                    "ignoreAttackerProperty": true,
                    "enBreak": 0.0,
                    "attackType": "Melee",
                    "HMBONGBFIAP": [
                      "ImpactDamageValue2",
                      "ImpactDamageSystemValue",
                      "MUL"
                    ],
                    "trueDamage": true,
                    "ignoreModifyDamage": true,
                    "GLKMCMDJBIK": 0.0
                  },
                  "hitPattern": {
                    "onHitEffectName": "default",
                    "hitImpulseY": "",
                    "hitImpulseType": "LV2",
                    "hitHaltTimeScale": 0.019999999552965164
                  },
                  "canBeModifiedBy": "OriginOwner"
                }
              },
              "targetType": "Enemy"
            }
          ]
        },
        "UNIQUE_Activity_SummerTimeV2_KazuhaAOE_3": {
          "stacking": "Unique",
          "modifierName": "",
          "forceTriggerWhenChangeAuthority": true,
          "elementDurability": 1.0,
          "IPFJJJGABPL": 100.0,
          "modifierMixins": [
            {
              "$type": "COEDOLJOHAK",
              "postEffectAssetName": "postEffect_Activity_SummerTimeV2_Kazuha_ScreenEffect",
              "duration": 1.5
            }
          ],
          "onAdded": [
            {
              "$type": "KBFEIHEAMBM",
              "rotationDampTime": "Eff_SummerTimeV2_Dungeon_Kazuha_Slash",
              "born": {
                "$type": "IAENDIPDFKD"
              },
              "PPPDJGDDOGD": 1.0,
              "AJDILHJFNKE": -1.0
            },
            {
              "$type": "AIFPLABJNMA",
              "attackEvent": {
                "attackPattern": {
                  "$type": "BELNOFAKNBA",
                  "triggerType": "TriggerNoRepeat",
                  "born": {
                    "$type": "IAENDIPDFKD"
                  },
                  "OAHPDLJIADP": 10.5
                },
                "attackInfo": {
                  "attackTag": "",
                  "attenuationTag": "",
                  "attenuationGroup": "default",
                  "attackProperty": {
                    "actorWindSubHurtDelta": 0.0,
                    "IPFJJJGABPL": 0.0,
                    "ignoreAttackerProperty": true,
                    "enBreak": 0.0,
                    "attackType": "Melee",
                    "HMBONGBFIAP": [
                      "ImpactDamageValue3",
                      "ImpactDamageSystemValue",
                      "MUL"
                    ],
                    "trueDamage": true,
                    "ignoreModifyDamage": true,
                    "GLKMCMDJBIK": 0.0
                  },
                  "hitPattern": {
                    "onHitEffectName": "default",
                    "hitImpulseY": "",
                    "hitImpulseType": "LV2",
                    "hitHaltTimeScale": 0.019999999552965164
                  },
                  "canBeModifiedBy": "OriginOwner"
                }
              },
              "targetType": "Enemy"
            }
          ]
        },
        "UNIQUE_Activity_SummerTimeV2_KazuhaAOE_4": {
          "stacking": "Unique",
          "modifierName": "",
          "forceTriggerWhenChangeAuthority": true,
          "elementDurability": 1.0,
          "IPFJJJGABPL": 100.0,
          "modifierMixins": [
            {
              "$type": "COEDOLJOHAK",
              "postEffectAssetName": "postEffect_Activity_SummerTimeV2_Kazuha_ScreenEffect",
              "duration": 1.5
            }
          ],
          "onAdded": [
            {
              "$type": "KBFEIHEAMBM",
              "rotationDampTime": "Eff_SummerTimeV2_Dungeon_Kazuha_Slash",
              "born": {
                "$type": "IAENDIPDFKD"
              },
              "PPPDJGDDOGD": 1.0,
              "AJDILHJFNKE": -1.0
            },
            {
              "$type": "AIFPLABJNMA",
              "attackEvent": {
                "attackPattern": {
                  "$type": "BELNOFAKNBA",
                  "triggerType": "TriggerNoRepeat",
                  "born": {
                    "$type": "IAENDIPDFKD"
                  },
                  "OAHPDLJIADP": 10.5
                },
                "attackInfo": {
                  "attackTag": "",
                  "attenuationTag": "",
                  "attenuationGroup": "default",
                  "attackProperty": {
                    "actorWindSubHurtDelta": 0.0,
                    "IPFJJJGABPL": 0.0,
                    "ignoreAttackerProperty": true,
                    "enBreak": 0.0,
                    "attackType": "Melee",
                    "HMBONGBFIAP": [
                      "ImpactDamageValue4",
                      "ImpactDamageSystemValue",
                      "MUL"
                    ],
                    "trueDamage": true,
                    "ignoreModifyDamage": true,
                    "GLKMCMDJBIK": 0.0
                  },
                  "hitPattern": {
                    "onHitEffectName": "default",
                    "hitImpulseY": "",
                    "hitImpulseType": "LV2",
                    "hitHaltTimeScale": 0.019999999552965164
                  },
                  "canBeModifiedBy": "OriginOwner"
                }
              },
              "targetType": "Enemy"
            }
          ]
        }
      },
      "onAdded": [
        {
          "$type": "MMEOBGGBNLK",
          "skillID": 20016
        },
        {
          "$type": "BOBCOJHOKKD",
          "param3": 100.0,
          "key": "AVATAR_SummerTimeV2_KazuhaAOE",
          "param2": 0.0,
          "repeatTimes": 0.0
        },
        {
          "$type": "NPGCEEJFDEM",
          "enable": true
        },
        {
          "$type": "GDHGMAPPGHD",
          "shieldHP": true,
          "key": "ImpactDamageSystemValue",
          "damageRatio": "ElementLevelCo"
        },
        {
          "$type": "AHPEKICBIIL",
          "luaCallType": "CurChallengeGroup",
          "funcName": "SLC_Get_PlayerCount",
          "param1": 0.0,
          "MGAMDEHMCOL": 0.0,
          "MMHOHAOGPLP": 0.0
        },
        {
          "$type": "BOBCOJHOKKD",
          "target": "Team",
          "param3": 0.0,
          "key": "CUR_TEAM_NUM",
          "param2": 0.0,
          "repeatTimes": 0.0
        }
      ],
      "onRemoved": [
        {
          "$type": "MMEOBGGBNLK"
        }
      ],
      "onAbilityStart": [
        {
          "$type": "LIAKJHCLFLK"
        },
        {
          "$type": "AHPEKICBIIL",
          "luaCallType": "CurChallengeGroup",
          "funcName": "SLC_Get_PlayerCount",
          "param1": 0.0,
          "MGAMDEHMCOL": 0.0,
          "MMHOHAOGPLP": 0.0
        },
        {
          "$type": "AHPEKICBIIL",
          "luaCallType": "CurChallengeGroup",
          "funcName": "SLC_DLActivityDungeon_Exhi_TSkill",
          "param1": 0.0,
          "MGAMDEHMCOL": 0.0,
          "MMHOHAOGPLP": 0.0
        },
        {
          "$type": "PELJALPANCA",
          "target": "CurLocalAvatar",
          "predicates": [
            {
              "$type": "CNGGLKHONAA",
              "target": "Team",
              "key": "SGV_DLDungeon_PlayerNum",
              "param3": 1.0
            }
          ],
          "modifierName": "UNIQUE_Activity_SummerTimeV2_KazuhaAOE"
        },
        {
          "$type": "PELJALPANCA",
          "target": "CurLocalAvatar",
          "predicates": [
            {
              "$type": "CNGGLKHONAA",
              "target": "Team",
              "key": "SGV_DLDungeon_PlayerNum",
              "param3": 2.0
            }
          ],
          "modifierName": "UNIQUE_Activity_SummerTimeV2_KazuhaAOE_2"
        },
        {
          "$type": "PELJALPANCA",
          "target": "CurLocalAvatar",
          "predicates": [
            {
              "$type": "CNGGLKHONAA",
              "target": "Team",
              "key": "SGV_DLDungeon_PlayerNum",
              "param3": 3.0
            }
          ],
          "modifierName": "UNIQUE_Activity_SummerTimeV2_KazuhaAOE_3"
        },
        {
          "$type": "PELJALPANCA",
          "target": "CurLocalAvatar",
          "predicates": [
            {
              "$type": "CNGGLKHONAA",
              "target": "Team",
              "key": "SGV_DLDungeon_PlayerNum",
              "param3": 4.0
            }
          ],
          "modifierName": "UNIQUE_Activity_SummerTimeV2_KazuhaAOE_4"
        }
      ],
      "isDynamicAbility": true
    }
  },
  {
    "Default": {
      "$type": "CBPBEHLOHKI",
      "abilityName": "ActivityAbility_SummerTimeV2_Kazuha_CDManager_Team",
      "abilityMixins": [
        {
          "$type": "JPPFBGJICKI",
          "key": "GV_SKILL_CD",
          "param2": 0.0,
          "repeatTimes": 0.0
        },
        {
          "$type": "JPPFBGJICKI",
          "key": "GV_ULTIMATESKILL_CD",
          "param2": 0.0,
          "repeatTimes": 0.0
        },
        {
          "$type": "JPPFBGJICKI",
          "key": "GV_FALLINGATK_CD",
          "param2": 0.0,
          "repeatTimes": 0.0
        }
      ],
      "abilitySpecials": {
        "CDDown_Value1": 0.0,
        "CDDown_Value2": 0.0,
        "CDDown_Value3": 0.0
      },
      "modifiers": {
        "UNIQUE_Activity_SummerTimeV2_Kazuha_CDManager_SkillCD": {
          "stacking": "Unique",
          "modifierName": "",
          "forceTriggerWhenChangeAuthority": true,
          "IPFJJJGABPL": 100.0,
          "modifierMixins": [
            {
              "$type": "NDFFAEHJMAL",
              "globalValueKey": "GV_SKILL_CD",
              "actions": [
                {
                  "$type": "JOPEOGGIGPB",
                  "skillID": 20016,
                  "cdMin": [
                    0.0,
                    1.0,
                    "CDDown_Value1",
                    "MUL",
                    "SUB"
                  ]
                }
              ]
            }
          ]
        },
        "UNIQUE_Activity_SummerTimeV2_Kazuha_CDManager_UltimateSkillCD": {
          "stacking": "Unique",
          "modifierName": "",
          "forceTriggerWhenChangeAuthority": true,
          "IPFJJJGABPL": 100.0,
          "modifierMixins": [
            {
              "$type": "NDFFAEHJMAL",
              "globalValueKey": "GV_ULTIMATESKILL_CD",
              "actions": [
                {
                  "$type": "JOPEOGGIGPB",
                  "skillID": 20016,
                  "cdMin": [
                    0.0,
                    1.0,
                    "CDDown_Value2",
                    "MUL",
                    "SUB"
                  ]
                }
              ]
            }
          ]
        },
        "UNIQUE_Activity_SummerTimeV2_Kazuha_CDManager_FallingAttackCD": {
          "stacking": "Unique",
          "modifierName": "",
          "forceTriggerWhenChangeAuthority": true,
          "IPFJJJGABPL": 100.0,
          "modifierMixins": [
            {
              "$type": "NDFFAEHJMAL",
              "globalValueKey": "GV_FALLINGATK_CD",
              "actions": [
                {
                  "$type": "JOPEOGGIGPB",
                  "skillID": 20016,
                  "cdMin": [
                    0.0,
                    1.0,
                    "CDDown_Value3",
                    "MUL",
                    "SUB"
                  ]
                }
              ]
            }
          ]
        }
      },
      "onAdded": [
        {
          "$type": "BOBCOJHOKKD",
          "param3": 0.0,
          "key": "GV_SKILL_CD",
          "param2": 0.0,
          "repeatTimes": 0.0
        },
        {
          "$type": "BOBCOJHOKKD",
          "param3": 0.0,
          "key": "GV_ULTIMATESKILL_CD",
          "param2": 0.0,
          "repeatTimes": 0.0
        },
        {
          "$type": "BOBCOJHOKKD",
          "param3": 0.0,
          "key": "GV_FALLINGATK_CD",
          "param2": 0.0,
          "repeatTimes": 0.0
        },
        {
          "$type": "JLDEMMJAMLC",
          "target": "Team",
          "modifierName": "UNIQUE_Activity_SummerTimeV2_Kazuha_CDManager_SkillCD"
        },
        {
          "$type": "JLDEMMJAMLC",
          "target": "Team",
          "modifierName": "UNIQUE_Activity_SummerTimeV2_Kazuha_CDManager_UltimateSkillCD"
        },
        {
          "$type": "JLDEMMJAMLC",
          "target": "Team",
          "modifierName": "UNIQUE_Activity_SummerTimeV2_Kazuha_CDManager_FallingAttackCD"
        }
      ],
      "isDynamicAbility": true
    }
  },
  {
    "Default": {
      "$type": "CBPBEHLOHKI",
      "abilityName": "ActivityAbility_SummerTimeV2_Dungeon_FallingAttackLand_CDDown",
      "abilityMixins": [
        {
          "$type": "JPPFBGJICKI",
          "key": "GV_KAZUHA_BUFF1",
          "param2": 0.0,
          "repeatTimes": 0.0
        },
        {
          "$type": "PHLKCMFKFIN",
          "globalValueKey": "GV_KAZUHA_BUFF1",
          "valueSteps": [
            0.5,
            1.5
          ],
          "modifierNameSteps": [
            "UNIQUE_Activity_SummerTimeV2_Dungeon_CDDown_Decision_FallingDamageLand_Handler"
          ]
        },
        {
          "$type": "EEPKCGMKKJC",
          "modifierName": "UNIQUE_Activity_SummerTimeV2_Dungeon_FallingDamageLand_CDDown_Decition_BuffExist"
        },
        {
          "$type": "NKEPLGAIEJM",
          "modifierName": "UNIQUE_FallingDamageLand_CDDown_Effect_Handler"
        }
      ],
      "abilitySpecials": {
        "CDDownValue": 0.0,
        "CDDown_Interval": 0.0,
        "CDDown_Duration": 0.0
      },
      "modifiers": {
        "UNIQUE_Activity_SummerTimeV2_Dungeon_CDDown_Decision_FallingDamageLand_Handler": {
          "stacking": "Unique",
          "modifierName": "",
          "forceTriggerWhenChangeAuthority": true,
          "elementDurability": 0.10000000149011612,
          "IPFJJJGABPL": 100.0,
          "onAdded": [
            {
              "$type": "PELJALPANCA",
              "target": "Team",
              "modifierName": "UNIQUE_Activity_SummerTimeV2_Dungeon_FallingDamageLand_CDDown_Duration"
            }
          ],
          "onRemoved": [
            {
              "$type": "BOBCOJHOKKD",
              "param3": 0.0,
              "key": "GV_KAZUHA_BUFF1",
              "param2": 0.0,
              "repeatTimes": 0.0
            }
          ]
        },
        "UNIQUE_Activity_SummerTimeV2_Dungeon_FallingDamageLand_CDDown_Decition_BuffExist": {
          "stacking": "Unique",
          "modifierName": "",
          "forceTriggerWhenChangeAuthority": true,
          "IPFJJJGABPL": 100.0,
          "modifierMixins": [
            {
              "$type": "CCNIOPJEHOE",
              "globalValueTarget": "Team",
              "globalValueKey": "FallAttackCDDown_ON",
              "valueSteps": [
                0.5,
                1.5
              ],
              "modifierNameSteps": [
                "UNIQUE_Activity_SummerTimeV2_Dungeon_CDDown_Decision_FallingDamageLand"
              ]
            }
          ]
        },
        "UNIQUE_FallingDamageLand_CDDown_Effect_Handler": {
          "stacking": "Unique",
          "modifierName": "",
          "forceTriggerWhenChangeAuthority": true,
          "IPFJJJGABPL": 100.0,
          "modifierMixins": [
            {
              "$type": "CCNIOPJEHOE",
              "globalValueTarget": "Team",
              "globalValueKey": "FallAttackCDDown_ON",
              "valueSteps": [
                0.5,
                1.5
              ],
              "modifierNameSteps": [
                "FallingDamageLand_CDDown_Effect"
              ]
            }
          ]
        },
        "FallingDamageLand_CDDown_Effect": {
          "modifierName": "",
          "IPFJJJGABPL": 100.0,
          "onAdded": [
            {
              "$type": "ANLOBBMKNIJ",
              "rotationDampTime": "Eff_SceneObj_DIK_BUFFB_01_Buff",
              "PPPDJGDDOGD": 1.0,
              "AJDILHJFNKE": -1.0
            }
          ]
        },
        "UNIQUE_Activity_SummerTimeV2_Dungeon_FallingDamageLand_CDDown_Duration": {
          "stacking": "MultipleAllRefresh",
          "stackingOption": {
            "abilitySpecialName": "",
            "maxModifierNumForMultipleType": 1.0,
            "enableMixedUnique": true
          },
          "modifierName": "",
          "forceTriggerWhenChangeAuthority": true,
          "elementDurability": "CDDown_Duration",
          "IPFJJJGABPL": 100.0,
          "onAdded": [
            {
              "$type": "BOBCOJHOKKD",
              "target": "Team",
              "param3": 1.0,
              "key": "FallAttackCDDown_ON",
              "param2": 0.0,
              "repeatTimes": 0.0
            }
          ],
          "onRemoved": [
            {
              "$type": "BOBCOJHOKKD",
              "target": "Team",
              "param3": 0.0,
              "key": "FallAttackCDDown_ON",
              "param2": 0.0,
              "repeatTimes": 0.0
            }
          ]
        },
        "UNIQUE_Activity_SummerTimeV2_Dungeon_CDDown_Decision_FallingDamageLand": {
          "stacking": "Unique",
          "modifierName": "",
          "forceTriggerWhenChangeAuthority": true,
          "IPFJJJGABPL": 100.0,
          "onAdded": [
            {
              "$type": "OBFLHMDNOCN",
              "shieldHP": true,
              "canBeHandledOnRecover": true,
              "damageRatio": "DungeonJump",
              "enable": true,
              "extention": {
                "xzMultiplier": 2.0,
                "yMultiplier": 3.0
              }
            }
          ],
          "onRemoved": [
            {
              "$type": "OBFLHMDNOCN",
              "shieldHP": true,
              "damageRatio": "DungeonJump"
            }
          ],
          "onAttackLanded": [
            {
              "$type": "INBCDALOHMP",
              "target": "Other",
              "shieldHP": true,
              "targetPredicates": [
                {
                  "$type": "NNEHDJHMING",
                  "attackTags": [
                    "FallingAttack"
                  ]
                },
                {
                  "$type": "NIMAPECDNKD",
                  "entityTypes": [
                    "Monster"
                  ]
                },
                {
                  "$type": "CNGGLKHONAA",
                  "target": "Team",
                  "key": "CDDownState",
                  "param3": 0.0,
                  "compareType": "NoneOrEqual"
                }
              ],
              "successActions": [
                {
                  "$type": "ELNHKGAPIBJ",
                  "content": "##：下落攻击减少CD"
                },
                {
                  "$type": "AHPEKICBIIL",
                  "luaCallType": "CurChallengeGroup",
                  "funcName": "SLC_DLActivityDungeon_TCoolDown",
                  "paramNum": 1,
                  "param1": 2.0,
                  "MGAMDEHMCOL": 0.0,
                  "MMHOHAOGPLP": 0.0
                },
                {
                  "$type": "PELJALPANCA",
                  "target": "Team",
                  "modifierName": "UNIQUE_Activity_SummerTimeV2_Dungeon_CDDown_Decision_FallingDamageLand_CD"
                }
              ]
            }
          ],
          "onAvatarIn": [
            {
              "$type": "OBFLHMDNOCN",
              "shieldHP": true,
              "canBeHandledOnRecover": true,
              "damageRatio": "DungeonJump",
              "enable": true,
              "extention": {
                "xzMultiplier": 2.0,
                "yMultiplier": 3.0
              }
            }
          ]
        },
        "UNIQUE_Activity_SummerTimeV2_Dungeon_CDDown_Decision_FallingDamageLand_CD": {
          "stacking": "Unique",
          "modifierName": "",
          "forceTriggerWhenChangeAuthority": true,
          "elementDurability": "CDDown_Interval",
          "IPFJJJGABPL": 100.0,
          "onAdded": [
            {
              "$type": "BOBCOJHOKKD",
              "target": "Team",
              "param3": -1.0,
              "key": "CDDownState",
              "param2": 0.0,
              "repeatTimes": 0.0
            }
          ],
          "onRemoved": [
            {
              "$type": "BOBCOJHOKKD",
              "target": "Team",
              "param3": 0.0,
              "key": "CDDownState",
              "param2": 0.0,
              "repeatTimes": 0.0
            }
          ]
        }
      },
      "onAdded": [
        {
          "$type": "BOBCOJHOKKD",
          "param3": 0.0,
          "key": "GV_KAZUHA_BUFF1",
          "param2": 0.0,
          "repeatTimes": 0.0
        },
        {
          "$type": "BOBCOJHOKKD",
          "target": "Team",
          "param3": 0.0,
          "key": "FallAttackCDDown_ON",
          "param2": 0.0,
          "repeatTimes": 0.0
        }
      ],
      "onRemoved": [
        {
          "$type": "BOBCOJHOKKD",
          "param3": 0.0,
          "key": "GV_KAZUHA_BUFF1",
          "param2": 0.0,
          "repeatTimes": 0.0
        },
        {
          "$type": "BOBCOJHOKKD",
          "target": "Team",
          "param3": 0.0,
          "key": "FallAttackCDDown_ON",
          "param2": 0.0,
          "repeatTimes": 0.0
        },
        {
          "$type": "KBODPNEEFGD",
          "target": "Team",
          "modifierName": "UNIQUE_Activity_SummerTimeV2_Dungeon_FallingDamageLand_CDDown_Duration"
        }
      ],
      "isDynamicAbility": true
    }
  },
  {
    "Default": {
      "$type": "CBPBEHLOHKI",
      "abilityName": "ActivityAbility_SummerTimeV2_Dungeon_SkillCDMinusRatioUp",
      "abilityMixins": [
        {
          "$type": "JPPFBGJICKI",
          "key": "GV_KAZUHA_BUFF2",
          "param2": 0.0,
          "repeatTimes": 0.0
        },
        {
          "$type": "PHLKCMFKFIN",
          "globalValueKey": "GV_KAZUHA_BUFF2",
          "valueSteps": [
            0.5,
            1.5
          ],
          "modifierNameSteps": [
            "UNIQUE_Activity_SummerTimeV2_Dungeon_SkillCDMinusRatioUp_Handler"
          ]
        },
        {
          "$type": "EEPKCGMKKJC",
          "modifierName": "UNIQUE_Activity_SummerTimeV2_Dungeon_SkillCDMinusRatioUp_Decition_BuffExist"
        },
        {
          "$type": "NKEPLGAIEJM",
          "modifierName": "UNIQUE_SkillCDMinusRatioUp_Effect_Handler"
        }
      ],
      "abilitySpecials": {
        "DecreaseCDDuration": 0.0,
        "SkillCDMinusRatioUp": 0.0
      },
      "modifiers": {
        "UNIQUE_Activity_SummerTimeV2_Dungeon_SkillCDMinusRatioUp_Handler": {
          "stacking": "Multiple",
          "modifierName": "",
          "forceTriggerWhenChangeAuthority": true,
          "elementDurability": 0.10000000149011612,
          "IPFJJJGABPL": 100.0,
          "onAdded": [
            {
              "$type": "PELJALPANCA",
              "target": "Team",
              "modifierName": "UNIQUE_Activity_SummerTimeV2_Dungeon_SkillCDMinusRatioUp_Duration"
            }
          ],
          "onRemoved": [
            {
              "$type": "BOBCOJHOKKD",
              "param3": 0.0,
              "key": "GV_KAZUHA_BUFF2",
              "param2": 0.0,
              "repeatTimes": 0.0
            }
          ]
        },
        "UNIQUE_Activity_SummerTimeV2_Dungeon_SkillCDMinusRatioUp_Decition_BuffExist": {
          "modifierName": "",
          "forceTriggerWhenChangeAuthority": true,
          "IPFJJJGABPL": 100.0,
          "modifierMixins": [
            {
              "$type": "CCNIOPJEHOE",
              "globalValueTarget": "Team",
              "globalValueKey": "SkillCDMinusRatioUp_ON",
              "valueSteps": [
                0.5,
                1.5
              ],
              "modifierNameSteps": [
                "UNIQUE_Activity_SummerTimeV2_Dungeon_SkillCDMinusRatioUp"
              ]
            }
          ]
        },
        "UNIQUE_SkillCDMinusRatioUp_Effect_Handler": {
          "stacking": "Unique",
          "modifierName": "",
          "forceTriggerWhenChangeAuthority": true,
          "IPFJJJGABPL": 100.0,
          "modifierMixins": [
            {
              "$type": "CCNIOPJEHOE",
              "globalValueTarget": "Team",
              "globalValueKey": "SkillCDMinusRatioUp_ON",
              "valueSteps": [
                0.5,
                1.5
              ],
              "modifierNameSteps": [
                "SkillCDMinusRatioUp_Effect"
              ]
            }
          ]
        },
        "SkillCDMinusRatioUp_Effect": {
          "stacking": "Unique",
          "modifierName": "",
          "IPFJJJGABPL": 100.0,
          "onAdded": [
            {
              "$type": "ANLOBBMKNIJ",
              "rotationDampTime": "Eff_SceneObj_DIK_BUFFC_01_Buff",
              "PPPDJGDDOGD": 1.0,
              "AJDILHJFNKE": -1.0
            }
          ]
        },
        "UNIQUE_Activity_SummerTimeV2_Dungeon_SkillCDMinusRatioUp_Duration": {
          "stacking": "MultipleAllRefresh",
          "stackingOption": {
            "abilitySpecialName": "",
            "maxModifierNumForMultipleType": 1.0,
            "enableMixedUnique": true
          },
          "modifierName": "",
          "forceTriggerWhenChangeAuthority": true,
          "elementDurability": "DecreaseCDDuration",
          "IPFJJJGABPL": 100.0,
          "onAdded": [
            {
              "$type": "BOBCOJHOKKD",
              "target": "Team",
              "param3": 1.0,
              "key": "SkillCDMinusRatioUp_ON",
              "param2": 0.0,
              "repeatTimes": 0.0
            }
          ],
          "onRemoved": [
            {
              "$type": "BOBCOJHOKKD",
              "target": "Team",
              "param3": 0.0,
              "key": "SkillCDMinusRatioUp_ON",
              "param2": 0.0,
              "repeatTimes": 0.0
            }
          ]
        },
        "UNIQUE_Activity_SummerTimeV2_Dungeon_SkillCDMinusRatioUp": {
          "stacking": "Unique",
          "modifierName": "",
          "forceTriggerWhenChangeAuthority": true,
          "IPFJJJGABPL": 100.0,
          "properties": {
            "Actor_SkillCDMinusRatio": "SkillCDMinusRatioUp"
          },
          "isLimitedProperties": true
        }
      },
      "onAdded": [
        {
          "$type": "BOBCOJHOKKD",
          "param3": 0.0,
          "key": "GV_KAZUHA_BUFF2",
          "param2": 0.0,
          "repeatTimes": 0.0
        },
        {
          "$type": "BOBCOJHOKKD",
          "param3": 0.0,
          "key": "SkillCDMinusRatioUp_ON",
          "param2": 0.0,
          "repeatTimes": 0.0
        }
      ],
      "onRemoved": [
        {
          "$type": "BOBCOJHOKKD",
          "param3": 0.0,
          "key": "SkillCDMinusRatioUp_ON",
          "param2": 0.0,
          "repeatTimes": 0.0
        },
        {
          "$type": "BOBCOJHOKKD",
          "param3": 0.0,
          "key": "GV_KAZUHA_BUFF2",
          "param2": 0.0,
          "repeatTimes": 0.0
        },
        {
          "$type": "KBODPNEEFGD",
          "target": "Team",
          "modifierName": "UNIQUE_Activity_SummerTimeV2_Dungeon_SkillCDMinusRatioUp_Duration"
        }
      ],
      "isDynamicAbility": true
    }
  },
  {
    "Default": {
      "$type": "CBPBEHLOHKI",
      "abilityName": "ActivityAbility_SummerTimeV2_Dungeon_Kazuha_DamageUp",
      "abilityMixins": [
        {
          "$type": "JPPFBGJICKI",
          "key": "GV_KAZUHA_BUFF3",
          "param2": 0.0,
          "repeatTimes": 0.0
        },
        {
          "$type": "PHLKCMFKFIN",
          "globalValueKey": "GV_KAZUHA_BUFF3",
          "valueSteps": [
            0.5,
            1.5
          ],
          "modifierNameSteps": [
            "UNIQUE_Activity_SummerTimeV2_Dungeon_Kazuha_IncreaseDamage_Handler"
          ]
        },
        {
          "$type": "EEPKCGMKKJC",
          "modifierName": "UNIQUE_Activity_SummerTimeV2_Dungeon_RefreshModifier"
        },
        {
          "$type": "NKEPLGAIEJM",
          "modifierName": "UNIQUE_Kazuha_DamageUp_Effect_Handle"
        }
      ],
      "abilitySpecials": {
        "IncreaseDamageDuration": 0.0,
        "DamageUpRate": 0.0,
        "DamageUpLevel": 0.0
      },
      "modifiers": {
        "UNIQUE_Activity_SummerTimeV2_Dungeon_Kazuha_IncreaseDamage_Handler": {
          "stacking": "Unique",
          "modifierName": "",
          "forceTriggerWhenChangeAuthority": true,
          "elementDurability": 0.10000000149011612,
          "IPFJJJGABPL": 100.0,
          "onAdded": [
            {
              "$type": "PELJALPANCA",
              "modifierName": "UNIQUE_UNIQUE_Activity_SummerTimeV2_Dungeon_ClearLevel"
            },
            {
              "$type": "LCOEFEMOHLP",
              "target": "Team",
              "param3": 1.0,
              "key": "DAMAGEUP_LEVEL",
              "useLimitRange": true,
              "param2": 1.0,
              "repeatTimes": 0.0
            },
            {
              "$type": "GJCAPCBELPA",
              "target": "Team",
              "abilityName": "ActivityAbility_SummerTimeV2_Dungeon_Kazuha_DamageUp"
            }
          ],
          "onRemoved": [
            {
              "$type": "BOBCOJHOKKD",
              "target": "Team",
              "param3": 0.0,
              "key": "GV_KAZUHA_BUFF3",
              "param2": 0.0,
              "repeatTimes": 0.0
            }
          ]
        },
        "UNIQUE_UNIQUE_Activity_SummerTimeV2_Dungeon_ClearLevel": {
          "modifierName": "",
          "forceTriggerWhenChangeAuthority": true,
          "elementDurability": "IncreaseDamageDuration",
          "IPFJJJGABPL": 100.0,
          "onRemoved": [
            {
              "$type": "BOBCOJHOKKD",
              "target": "Team",
              "param3": 0.0,
              "key": "DAMAGEUP_LEVEL",
              "param2": 0.0,
              "repeatTimes": 0.0
            },
            {
              "$type": "GJCAPCBELPA",
              "target": "Team",
              "abilityName": "ActivityAbility_SummerTimeV2_Dungeon_Kazuha_DamageUp"
            }
          ]
        },
        "UNIQUE_Activity_SummerTimeV2_Dungeon_RefreshModifier": {
          "stacking": "Unique",
          "modifierName": "",
          "forceTriggerWhenChangeAuthority": true,
          "IPFJJJGABPL": 100.0,
          "onAdded": [
            {
              "$type": "GJCAPCBELPA",
              "target": "Team",
              "shieldHP": true,
              "abilityName": "ActivityAbility_SummerTimeV2_Dungeon_Kazuha_DamageUp"
            }
          ]
        },
        "UNIQUE_Kazuha_DamageUp_Effect_Handle": {
          "stacking": "Unique",
          "modifierName": "",
          "forceTriggerWhenChangeAuthority": true,
          "IPFJJJGABPL": 100.0,
          "modifierMixins": [
            {
              "$type": "CCNIOPJEHOE",
              "globalValueTarget": "Team",
              "globalValueKey": "DAMAGEUP_LEVEL",
              "valueSteps": [
                0.5,
                3.5
              ],
              "modifierNameSteps": [
                "UNIQUE_Kazuha_DamageUp_Effect"
              ]
            }
          ]
        },
        "UNIQUE_Kazuha_DamageUp_Effect": {
          "stacking": "Unique",
          "modifierName": "",
          "forceTriggerWhenChangeAuthority": true,
          "IPFJJJGABPL": 100.0,
          "state": "AttackUp",
          "onAdded": [
            {
              "$type": "ANLOBBMKNIJ",
              "rotationDampTime": "Eff_SceneObj_DIK_BUFFA_01_Buff",
              "PPPDJGDDOGD": 1.0,
              "AJDILHJFNKE": -1.0
            }
          ]
        },
        "UNIQUE_Activity_SummerTimeV2_Dungeon_IncreaseDamage": {
          "stacking": "Unique",
          "modifierName": "",
          "forceTriggerWhenChangeAuthority": true,
          "IPFJJJGABPL": 100.0,
          "modifierMixins": [
            {
              "$type": "LDBCDLJECKF",
              "ignoreEventInfo": true,
              "actorWindSubHurtDelta": [
                "DamageUpRate",
                "DamageUpLevel",
                "MUL"
              ]
            }
          ],
          "isLimitedProperties": true
        }
      },
      "onAdded": [
        {
          "$type": "BOBCOJHOKKD",
          "param3": 0.0,
          "key": "GV_KAZUHA_BUFF3",
          "param2": 0.0,
          "repeatTimes": 0.0
        }
      ],
      "onRemoved": [
        {
          "$type": "BOBCOJHOKKD",
          "target": "Team",
          "param3": 0.0,
          "key": "DAMAGEUP_LEVEL",
          "param2": 0.0,
          "repeatTimes": 0.0
        },
        {
          "$type": "KBODPNEEFGD",
          "target": "Team",
          "modifierName": "UNIQUE_UNIQUE_Activity_SummerTimeV2_Dungeon_ClearLevel"
        }
      ],
      "onAbilityStart": [
        {
          "$type": "LDIAIDLOPEE",
          "target": "Team",
          "shieldHP": true,
          "globalValueKey": "DAMAGEUP_LEVEL",
          "overrideMapKey": "DamageUpLevel"
        },
        {
          "$type": "KBODPNEEFGD",
          "target": "CurTeamAvatars",
          "shieldHP": true,
          "modifierName": "UNIQUE_Activity_SummerTimeV2_Dungeon_IncreaseDamage"
        },
        {
          "$type": "JLDEMMJAMLC",
          "target": "CurTeamAvatars",
          "shieldHP": true,
          "modifierName": "UNIQUE_Activity_SummerTimeV2_Dungeon_IncreaseDamage"
        }
      ],
      "isDynamicAbility": true
    }
  },
  {
    "Default": {
      "$type": "CBPBEHLOHKI",
      "abilityName": "ActivityAbility_SummerTimeV2_Dungeon_Trigger_Skill_UltimateSkill_CDDown",
      "abilityMixins": [
        {
          "$type": "EEPKCGMKKJC",
          "modifierName": "UNIQUE_Activity_SummerTimeV2_Dungeon_CDDown_Decision_Trigger_Skill_UltimateSkill"
        }
      ],
      "abilitySpecials": {
        "SkillCD": 3.0,
        "UltimateSkillCD": 3.0
      },
      "modifiers": {
        "UNIQUE_Activity_SummerTimeV2_Dungeon_CDDown_Decision_Trigger_Skill_UltimateSkill": {
          "stacking": "Unique",
          "modifierName": "",
          "forceTriggerWhenChangeAuthority": true,
          "IPFJJJGABPL": 100.0,
          "modifierMixins": [
            {
              "$type": "LFDMBLDKNMK",
              "onTriggerSkill": [
                {
                  "$type": "AHPEKICBIIL",
                  "predicates": [
                    {
                      "$type": "CNGGLKHONAA",
                      "target": "Team",
                      "key": "Skill_CD",
                      "param3": 0.0,
                      "compareType": "NoneOrEqual"
                    }
                  ],
                  "luaCallType": "CurChallengeGroup",
                  "funcName": "SLC_DLActivityDungeon_TCoolDown",
                  "paramNum": 1,
                  "param1": 1.0,
                  "MGAMDEHMCOL": 0.0,
                  "MMHOHAOGPLP": 0.0
                },
                {
                  "$type": "PELJALPANCA",
                  "target": "Team",
                  "modifierName": "UNIQUE_Activity_SummerTimeV2_Dungeon_CDDown_Action_Trigger_Skill_CD"
                }
              ],
              "onTriggerUltimateSkill": [
                {
                  "$type": "AHPEKICBIIL",
                  "predicates": [
                    {
                      "$type": "CNGGLKHONAA",
                      "target": "Team",
                      "key": "UltimateSkill_CD",
                      "param3": 0.0,
                      "compareType": "NoneOrEqual"
                    }
                  ],
                  "luaCallType": "CurChallengeGroup",
                  "funcName": "SLC_DLActivityDungeon_TCoolDown",
                  "paramNum": 1,
                  "param1": 1.0,
                  "MGAMDEHMCOL": 0.0,
                  "MMHOHAOGPLP": 0.0
                },
                {
                  "$type": "PELJALPANCA",
                  "target": "Team",
                  "modifierName": "UNIQUE_Activity_SummerTimeV2_Dungeon_CDDown_Action_Trigger_UltimateSkill_CD"
                }
              ],
              "clearSkillIdDelay": 0.20000000298023224
            }
          ]
        },
        "UNIQUE_Activity_SummerTimeV2_Dungeon_CDDown_Action_Trigger_Skill_CD": {
          "stacking": "Unique",
          "modifierName": "",
          "forceTriggerWhenChangeAuthority": true,
          "elementDurability": "SkillCD",
          "IPFJJJGABPL": 100.0,
          "onAdded": [
            {
              "$type": "BOBCOJHOKKD",
              "target": "Team",
              "param3": -1.0,
              "key": "Skill_CD",
              "param2": 0.0,
              "repeatTimes": 0.0
            }
          ],
          "onRemoved": [
            {
              "$type": "BOBCOJHOKKD",
              "target": "Team",
              "param3": 0.0,
              "key": "Skill_CD",
              "param2": 0.0,
              "repeatTimes": 0.0
            }
          ]
        },
        "UNIQUE_Activity_SummerTimeV2_Dungeon_CDDown_Action_Trigger_UltimateSkill_CD": {
          "stacking": "Unique",
          "modifierName": "",
          "forceTriggerWhenChangeAuthority": true,
          "elementDurability": "UltimateSkillCD",
          "IPFJJJGABPL": 100.0,
          "onAdded": [
            {
              "$type": "BOBCOJHOKKD",
              "target": "Team",
              "param3": -1.0,
              "key": "UltimateSkill_CD",
              "param2": 0.0,
              "repeatTimes": 0.0
            }
          ],
          "onRemoved": [
            {
              "$type": "BOBCOJHOKKD",
              "target": "Team",
              "param3": 0.0,
              "key": "UltimateSkill_CD",
              "param2": 0.0,
              "repeatTimes": 0.0
            }
          ]
        }
      },
      "isDynamicAbility": true
    }
  },
  {
    "Default": {
      "$type": "CBPBEHLOHKI",
      "abilityName": "ActivityAbility_SummerTimeV2_Dungeon_AttackFrozenEnemy_IncreaseDamage",
      "abilityMixins": [
        {
          "$type": "JPPFBGJICKI",
          "key": "GV_MONA_BUFF2",
          "param2": 0.0,
          "repeatTimes": 0.0
        },
        {
          "$type": "PHLKCMFKFIN",
          "globalValueKey": "GV_MONA_BUFF2",
          "valueSteps": [
            0.5,
            1.5
          ],
          "modifierNameSteps": [
            "UNIQUE_Activity_SummerTimeV2_Dungeon_AttackFrozenEnemy_IncreaseDamage_Handler"
          ]
        }
      ],
      "abilitySpecials": {
        "DamageUpDuration": 0.0,
        "DamageUpRate": 0.0
      },
      "modifiers": {
        "UNIQUE_Activity_SummerTimeV2_Dungeon_AttackFrozenEnemy_IncreaseDamage_Handler": {
          "stacking": "Unique",
          "modifierName": "",
          "forceTriggerWhenChangeAuthority": true,
          "elementDurability": 0.10000000149011612,
          "IPFJJJGABPL": 100.0,
          "onAdded": [
            {
              "$type": "PELJALPANCA",
              "target": "CurTeamAvatars",
              "modifierName": "UNIQUE_Activity_SummerTimeV2_Dungeon_AttackFrozenEnemy_IncreaseDamage"
            },
            {
              "$type": "ELNHKGAPIBJ",
              "content": "####### Mona Buff 2 #######"
            }
          ],
          "onRemoved": [
            {
              "$type": "BOBCOJHOKKD",
              "param3": 0.0,
              "key": "GV_MONA_BUFF2",
              "param2": 0.0,
              "repeatTimes": 0.0
            }
          ]
        },
        "UNIQUE_Activity_SummerTimeV2_Dungeon_AttackFrozenEnemy_IncreaseDamage": {
          "stacking": "MultipleAllRefresh",
          "stackingOption": {
            "abilitySpecialName": "",
            "maxModifierNumForMultipleType": 1.0,
            "enableMixedUnique": true
          },
          "modifierName": "",
          "forceTriggerWhenChangeAuthority": true,
          "elementDurability": "DamageUpDuration",
          "IPFJJJGABPL": 100.0,
          "modifierMixins": [
            {
              "$type": "LDBCDLJECKF",
              "ignoreEventInfo": true,
              "actorWindSubHurtDelta": "DamageUpRate",
              "predicates": [
                {
                  "$type": "DHJDNPOHKPF",
                  "abilityState": "ElementFrozen"
                }
              ]
            }
          ],
          "isLimitedProperties": true
        }
      },
      "onAdded": [
        {
          "$type": "BOBCOJHOKKD",
          "param3": 0.0,
          "key": "GV_MONA_BUFF2",
          "param2": 0.0,
          "repeatTimes": 0.0
        }
      ],
      "isDynamicAbility": true
    }
  },
  {
    "Default": {
      "$type": "CBPBEHLOHKI",
      "abilityName": "ActivityAbility_SummerTimeV2_Dungeon_WhosYourDaddy",
      "abilityMixins": [
        {
          "$type": "JPPFBGJICKI",
          "key": "GV_MONA_BUFF1",
          "param2": 0.0,
          "repeatTimes": 0.0
        },
        {
          "$type": "PHLKCMFKFIN",
          "globalValueKey": "GV_MONA_BUFF1",
          "valueSteps": [
            0.5,
            1.5
          ],
          "modifierNameSteps": [
            "UNIQUE_Activity_SummerTimeV2_Dungeon_WhosYourDaddy_Handler"
          ]
        }
      ],
      "abilitySpecials": {
        "Duration": 6.0
      },
      "modifiers": {
        "UNIQUE_Activity_SummerTimeV2_Dungeon_WhosYourDaddy_Handler": {
          "stacking": "Unique",
          "modifierName": "",
          "forceTriggerWhenChangeAuthority": true,
          "elementDurability": 0.10000000149011612,
          "IPFJJJGABPL": 100.0,
          "onAdded": [
            {
              "$type": "PELJALPANCA",
              "target": "Team",
              "modifierName": "UNIQUE_MonaBuff_WhosYourDaddy_Timer"
            }
          ],
          "onRemoved": [
            {
              "$type": "BOBCOJHOKKD",
              "param3": 0.0,
              "key": "GV_MONA_BUFF1",
              "param2": 0.0,
              "repeatTimes": 0.0
            }
          ]
        },
        "UNIQUE_MonaBuff_WhosYourDaddy_Timer": {
          "stacking": "MultipleAllRefresh",
          "stackingOption": {
            "abilitySpecialName": "",
            "maxModifierNumForMultipleType": 1.0,
            "enableMixedUnique": true
          },
          "modifierName": "",
          "forceTriggerWhenChangeAuthority": true,
          "elementDurability": "Duration",
          "IPFJJJGABPL": 100.0,
          "modifierMixins": [
            {
              "$type": "NKEPLGAIEJM",
              "modifierName": "Activity_SummerTimeV2_Dungeon_WhosYourDaddy"
            }
          ]
        },
        "MonaBuff_WhosYourDaddy_Attack": {
          "modifierName": "",
          "elementDurability": 0.10000000149011612,
          "IPFJJJGABPL": 100.0,
          "onAdded": [
            {
              "$type": "BOBCOJHOKKD",
              "param3": 1.0,
              "key": "MonaBuff_Deny_Hit",
              "param2": 0.0,
              "repeatTimes": 0.0
            }
          ],
          "onRemoved": [
            {
              "$type": "NCFFNDHGCMH",
              "configIdArray": [
                70000000
              ]
            }
          ]
        },
        "Activity_SummerTimeV2_Dungeon_WhosYourDaddy": {
          "modifierName": "",
          "IPFJJJGABPL": 100.0,
          "thinkInterval": 0.10000000149011612,
          "state": "Invincible",
          "onAdded": [
            {
              "$type": "ANLOBBMKNIJ",
              "shieldHP": true,
              "rotationDampTime": "Eff_SceneObj_ShieldPower_01_Buff",
              "PPPDJGDDOGD": 1.0,
              "AJDILHJFNKE": -1.0
            },
            {
              "$type": "OPAOGKPJLIG",
              "resistanceListID": 11002
            }
          ],
          "onThinkInterval": [
            {
              "$type": "INBCDALOHMP",
              "otherTargets": {
                "$type": "IJOFJOGLDHE",
                "shapeName": "CircleR2H8",
                "campTargetType": "Enemy",
                "doOffStage": 1.0
              },
              "targetPredicates": [
                {
                  "$type": "NIMAPECDNKD",
                  "entityTypes": [
                    "Monster"
                  ]
                },
                {
                  "$type": "CNGGLKHONAA",
                  "key": "MonaBuff_Deny_Hit",
                  "param3": 0.0,
                  "compareType": "NoneOrEqual"
                }
              ],
              "successActions": [
                {
                  "$type": "AHPEKICBIIL",
                  "luaCallType": "CurChallengeGroup",
                  "funcName": "SLC_DLActivityDungeon_Exhi_MonaPush",
                  "param1": 0.0,
                  "MGAMDEHMCOL": 0.0,
                  "MMHOHAOGPLP": 0.0
                },
                {
                  "$type": "CCNPNMMONDO",
                  "target": "Other",
                  "attackInfo": {
                    "attackTag": "",
                    "attenuationTag": "",
                    "attenuationGroup": "default",
                    "attackProperty": {
                      "actorGrassSubHurtDelta": 0.0,
                      "actorWindSubHurtDelta": 0.0,
                      "IPFJJJGABPL": 0.0,
                      "strikeType": "Blunt",
                      "enBreak": 99999.0,
                      "ignoreLevelDiff": true,
                      "GLKMCMDJBIK": 0.0
                    },
                    "hitPattern": {
                      "onHitEffectName": "none",
                      "hitImpulseY": "",
                      "hitImpulseType": "LV6",
                      "hitHaltTimeScale": 0.009999999776482582,
                      "muteHitText": true
                    }
                  }
                },
                {
                  "$type": "PELJALPANCA",
                  "target": "Other",
                  "modifierName": "MonaBuff_WhosYourDaddy_Attack"
                }
              ]
            }
          ],
          "isLimitedProperties": true
        }
      },
      "onAdded": [
        {
          "$type": "BOBCOJHOKKD",
          "param3": 0.0,
          "key": "GV_MONA_BUFF1",
          "param2": 0.0,
          "repeatTimes": 0.0
        }
      ],
      "onRemoved": [
        {
          "$type": "PFKNEFGOHIH",
          "modifierName": "UNIQUE_MonaBuff_WhosYourDaddy_Timer"
        }
      ],
      "isDynamicAbility": true
    }
  },
  {
    "Default": {
      "$type": "CBPBEHLOHKI",
      "abilityName": "ActivityAbility_SummerTimeV2_Dungeon_Mona_StruggleBubble",
      "abilityMixins": [
        {
          "$type": "JPPFBGJICKI",
          "key": "GV_MONA_BUFF3",
          "param2": 0.0,
          "repeatTimes": 0.0
        },
        {
          "$type": "PHLKCMFKFIN",
          "globalValueKey": "GV_MONA_BUFF3",
          "valueSteps": [
            0.5,
            1.5
          ],
          "modifierNameSteps": [
            "UNIQUE_Activity_SummerTimeV2_Dungeon_Create_Bubble"
          ]
        }
      ],
      "abilitySpecials": {
        "BubbleDuration": 0.0
      },
      "modifiers": {
        "UNIQUE_Activity_SummerTimeV2_Dungeon_Create_Bubble": {
          "stacking": "Unique",
          "modifierName": "",
          "forceTriggerWhenChangeAuthority": true,
          "elementDurability": "BubbleDuration",
          "IPFJJJGABPL": 100.0,
          "properties": {
            "Actor_AddGravityScale": -2.0
          },
          "state": "Struggle",
          "onAdded": [
            {
              "$type": "ANLOBBMKNIJ",
              "rotationDampTime": "Eff_Avatar_Girl_Catalyst_Mona_StarChart_Bubble",
              "PPPDJGDDOGD": 1.0,
              "AJDILHJFNKE": -1.0
            },
            {
              "$type": "ELNHKGAPIBJ",
              "content": "####### Mona Buff 3 #######"
            }
          ],
          "onRemoved": [
            {
              "$type": "BOBCOJHOKKD",
              "target": "Team",
              "param3": 0.0,
              "key": "GV_MONA_BUFF3",
              "param2": 0.0,
              "repeatTimes": 0.0
            }
          ],
          "onBeingHit": [
            {
              "$type": "INBCDALOHMP",
              "target": "Target",
              "targetPredicates": [
                {
                  "$type": "OFFCGHNCBCD",
                  "isTarget": false,
                  "ALBJEAMOFLG": ""
                },
                {
                  "$type": "EKJMHHOMFOP",
                  "hitImpulse": 0.0
                }
              ],
              "successActions": [
                {
                  "$type": "KBODPNEEFGD",
                  "modifierName": "UNIQUE_Activity_SummerTimeV2_Dungeon_Create_Bubble"
                },
                {
                  "$type": "BOBCOJHOKKD",
                  "target": "Team",
                  "param3": 0.0,
                  "key": "GV_MONA_BUFF3",
                  "param2": 0.0,
                  "repeatTimes": 0.0
                }
              ]
            }
          ],
          "onKill": [
            {
              "$type": "KBODPNEEFGD",
              "modifierName": "UNIQUE_Activity_SummerTimeV2_Dungeon_Create_Bubble"
            },
            {
              "$type": "BOBCOJHOKKD",
              "target": "Team",
              "param3": 0.0,
              "key": "GV_MONA_BUFF3",
              "param2": 0.0,
              "repeatTimes": 0.0
            }
          ]
        }
      },
      "onAdded": [
        {
          "$type": "BOBCOJHOKKD",
          "param3": 0.0,
          "key": "GV_MONA_BUFF3",
          "param2": 0.0,
          "repeatTimes": 0.0
        }
      ],
      "isDynamicAbility": true
    }
  },
  {
    "Default": {
      "$type": "CBPBEHLOHKI",
      "abilityName": "ActivityAbility_SummerTimeV2_Dungeon_Mona_DamageUp",
      "abilityMixins": [
        {
          "$type": "JPPFBGJICKI",
          "key": "GV_MONA_BUFF3",
          "param2": 0.0,
          "repeatTimes": 0.0
        },
        {
          "$type": "PHLKCMFKFIN",
          "globalValueKey": "GV_MONA_BUFF3",
          "valueSteps": [
            0.5,
            1.5
          ],
          "modifierNameSteps": [
            "UNIQUE_Activity_SummerTimeV2_Dungeon_Mona_IncreaseDamage_Handler"
          ]
        },
        {
          "$type": "EEPKCGMKKJC",
          "modifierName": "UNIQUE_Activity_SummerTimeV2_Dungeon_RefreshModifier"
        }
      ],
      "abilitySpecials": {
        "IncreaseDamageDuration": 8.0,
        "DamageUpRate": 0.3499999940395355,
        "DamageUpLevel": 0.0
      },
      "modifiers": {
        "UNIQUE_Activity_SummerTimeV2_Dungeon_Mona_IncreaseDamage_Handler": {
          "stacking": "Unique",
          "modifierName": "",
          "forceTriggerWhenChangeAuthority": true,
          "elementDurability": 0.10000000149011612,
          "IPFJJJGABPL": 100.0,
          "onAdded": [
            {
              "$type": "PELJALPANCA",
              "modifierName": "UNIQUE_UNIQUE_Activity_SummerTimeV2_Dungeon_ClearLevel"
            },
            {
              "$type": "BOBCOJHOKKD",
              "target": "Team",
              "param3": 1.0,
              "key": "DAMAGEUP_LEVEL",
              "useLimitRange": true,
              "param2": 1.0,
              "repeatTimes": 0.0
            },
            {
              "$type": "GJCAPCBELPA",
              "target": "Team",
              "abilityName": "ActivityAbility_SummerTimeV2_Dungeon_Mona_DamageUp"
            }
          ],
          "onRemoved": [
            {
              "$type": "BOBCOJHOKKD",
              "target": "Team",
              "param3": 0.0,
              "key": "GV_MONA_BUFF3",
              "param2": 0.0,
              "repeatTimes": 0.0
            }
          ]
        },
        "UNIQUE_UNIQUE_Activity_SummerTimeV2_Dungeon_ClearLevel": {
          "modifierName": "",
          "forceTriggerWhenChangeAuthority": true,
          "elementDurability": "IncreaseDamageDuration",
          "IPFJJJGABPL": 100.0,
          "onRemoved": [
            {
              "$type": "BOBCOJHOKKD",
              "target": "Team",
              "param3": 0.0,
              "key": "DAMAGEUP_LEVEL",
              "param2": 0.0,
              "repeatTimes": 0.0
            },
            {
              "$type": "GJCAPCBELPA",
              "target": "Team",
              "abilityName": "ActivityAbility_SummerTimeV2_Dungeon_Mona_DamageUp"
            }
          ]
        },
        "UNIQUE_Activity_SummerTimeV2_Dungeon_RefreshModifier": {
          "stacking": "Unique",
          "modifierName": "",
          "forceTriggerWhenChangeAuthority": true,
          "IPFJJJGABPL": 100.0,
          "modifierMixins": [
            {
              "$type": "CCNIOPJEHOE",
              "globalValueTarget": "Team",
              "globalValueKey": "DAMAGEUP_LEVEL",
              "valueSteps": [
                0.5,
                1.5
              ],
              "modifierNameSteps": [
                "UNIQUE_Activity_SummerTimeV2_Dungeon_IncreaseDamage_Eff"
              ]
            }
          ],
          "onAdded": [
            {
              "$type": "GJCAPCBELPA",
              "target": "Team",
              "shieldHP": true,
              "abilityName": "ActivityAbility_SummerTimeV2_Dungeon_Mona_DamageUp"
            }
          ]
        },
        "UNIQUE_Activity_SummerTimeV2_Dungeon_IncreaseDamage_Eff": {
          "stacking": "Unique",
          "modifierName": "",
          "forceTriggerWhenChangeAuthority": true,
          "IPFJJJGABPL": 100.0,
          "state": "AttackUp"
        },
        "UNIQUE_Activity_SummerTimeV2_Dungeon_IncreaseDamage": {
          "stacking": "Unique",
          "modifierName": "",
          "forceTriggerWhenChangeAuthority": true,
          "IPFJJJGABPL": 100.0,
          "modifierMixins": [
            {
              "$type": "LDBCDLJECKF",
              "ignoreEventInfo": true,
              "actorWindSubHurtDelta": [
                "DamageUpRate",
                "DamageUpLevel",
                "MUL"
              ]
            }
          ],
          "isLimitedProperties": true
        }
      },
      "onAdded": [
        {
          "$type": "BOBCOJHOKKD",
          "param3": 0.0,
          "key": "GV_MONA_BUFF3",
          "param2": 0.0,
          "repeatTimes": 0.0
        }
      ],
      "onAbilityStart": [
        {
          "$type": "LDIAIDLOPEE",
          "target": "Team",
          "shieldHP": true,
          "globalValueKey": "DAMAGEUP_LEVEL",
          "overrideMapKey": "DamageUpLevel"
        },
        {
          "$type": "KBODPNEEFGD",
          "target": "CurTeamAvatars",
          "shieldHP": true,
          "modifierName": "UNIQUE_Activity_SummerTimeV2_Dungeon_IncreaseDamage"
        },
        {
          "$type": "JLDEMMJAMLC",
          "target": "CurTeamAvatars",
          "shieldHP": true,
          "modifierName": "UNIQUE_Activity_SummerTimeV2_Dungeon_IncreaseDamage"
        }
      ],
      "isDynamicAbility": true
    }
  },
  {
    "Default": {
      "$type": "CBPBEHLOHKI",
      "abilityName": "ActivityAbility_SummerTimeV2_Dungeon_Create_ElectricZone",
      "abilityMixins": [
        {
          "$type": "JPPFBGJICKI",
          "key": "GV_CREATE_ELECTRICZONE",
          "param2": 0.0,
          "repeatTimes": 0.0
        },
        {
          "$type": "PHLKCMFKFIN",
          "globalValueKey": "GV_CREATE_ELECTRICZONE",
          "valueSteps": [
            0.5,
            1.5
          ],
          "modifierNameSteps": [
            "UNIQUE_Activity_SummerTimeV2_Dungeon_Create_ElectricZone_Handler"
          ]
        }
      ],
      "modifiers": {
        "UNIQUE_Activity_SummerTimeV2_Dungeon_Create_ElectricZone_Handler": {
          "stacking": "Unique",
          "modifierName": "",
          "forceTriggerWhenChangeAuthority": true,
          "elementDurability": 0.10000000149011612,
          "IPFJJJGABPL": 100.0,
          "onAdded": [
            {
              "$type": "PELJALPANCA",
              "target": "CurTeamAvatars",
              "modifierName": "UNIQUE_Activity_SummerTimeV2_Dungeon_Create_ElectricZone"
            }
          ],
          "onRemoved": [
            {
              "$type": "BOBCOJHOKKD",
              "target": "Team",
              "param3": 0.0,
              "key": "GV_CREATE_ELECTRICZONE",
              "param2": 0.0,
              "repeatTimes": 0.0
            }
          ]
        },
        "UNIQUE_Activity_SummerTimeV2_Dungeon_Create_ElectricZone": {
          "stacking": "Unique",
          "modifierName": "",
          "forceTriggerWhenChangeAuthority": true,
          "elementDurability": 1.0,
          "IPFJJJGABPL": 100.0,
          "onAdded": [
            {
              "$type": "KFCDMIMBBLD",
              "born": {
                "$type": "IAENDIPDFKD",
                "offset": {
                  "KGEPIMHBMOL": 0.0,
                  "JEBHCGDPFEJ": 0.0,
                  "LPCHALMFFOD": 0.0
                }
              },
              "gadgetID": 44000429,
              "campID": 1001,
              "campTargetType": "Enemy"
            }
          ]
        }
      },
      "onAdded": [
        {
          "$type": "BOBCOJHOKKD",
          "target": "Team",
          "param3": 0.0,
          "key": "GV_CREATE_ELECTRICZONE",
          "param2": 0.0,
          "repeatTimes": 0.0
        }
      ],
      "isDynamicAbility": true
    }
  },
  {
    "Default": {
      "$type": "CBPBEHLOHKI",
      "abilityName": "ActivityAbility_SummerTimeV2_Dungeon_ElectricZone",
      "abilitySpecials": {
        "LevelEntity_SystemValue": 0.0,
        "Duration": 0.0,
        "Attack_Interval": 0.0,
        "Damage": 0.0
      },
      "modifiers": {
        "Life_Timer": {
          "modifierName": "",
          "elementDurability": "Duration",
          "IPFJJJGABPL": 100.0,
          "onRemoved": [
            {
              "$type": "NCFFNDHGCMH"
            }
          ],
          "onAttackLanded": [
            {
              "$type": "INBCDALOHMP",
              "targetPredicates": [
                {
                  "$type": "NNEHDJHMING",
                  "target": "Self",
                  "attackTags": [
                    "FISHCL_ELECTRIC_WAVE"
                  ]
                },
                {
                  "$type": "CNGGLKHONAA",
                  "target": "Self",
                  "key": "ElecWave_Land",
                  "param3": 0.0,
                  "compareType": "NoneOrEqual"
                }
              ],
              "successActions": [
                {
                  "$type": "AHPEKICBIIL",
                  "luaCallType": "CurChallengeGroup",
                  "funcName": "SLC_DLActivityDungeon_Exhi_FischlElecShock",
                  "param1": 0.0,
                  "MGAMDEHMCOL": 0.0,
                  "MMHOHAOGPLP": 0.0
                },
                {
                  "$type": "PELJALPANCA",
                  "modifierName": "UNIQUE_Electric_Wave_Land_CD"
                }
              ]
            }
          ]
        },
        "UNIQUE_Electric_Wave_Land_CD": {
          "stacking": "Unique",
          "modifierName": "",
          "forceTriggerWhenChangeAuthority": true,
          "elementDurability": 0.10000000149011612,
          "IPFJJJGABPL": 100.0,
          "onAdded": [
            {
              "$type": "BOBCOJHOKKD",
              "param3": -1.0,
              "key": "ElecWave_Land",
              "param2": 0.0,
              "repeatTimes": 0.0
            }
          ],
          "onRemoved": [
            {
              "$type": "BOBCOJHOKKD",
              "param3": 0.0,
              "key": "ElecWave_Land",
              "param2": 0.0,
              "repeatTimes": 0.0
            }
          ]
        },
        "SummerTimeV2_Dungeon_ElectricZone_Damage": {
          "modifierName": "",
          "IPFJJJGABPL": 100.0,
          "thinkInterval": "Attack_Interval",
          "onAdded": [
            {
              "$type": "ANLOBBMKNIJ",
              "rotationDampTime": "Eff_SummerTimeV2_Dungeon_ShockWave_Expand_Electric_Loop",
              "born": {
                "$type": "IAENDIPDFKD",
                "onGround": true
              },
              "PPPDJGDDOGD": 1.0,
              "AJDILHJFNKE": -1.0
            }
          ],
          "onThinkInterval": [
            {
              "$type": "KBFEIHEAMBM",
              "rotationDampTime": "Eff_SummerTimeV2_Dungeon_ShockWave_Expand_Electric_Once",
              "born": {
                "$type": "IAENDIPDFKD",
                "direction": {
                  "$type": "DFBFCGKKFJP",
                  "range": 3
                }
              },
              "PPPDJGDDOGD": 1.0,
              "AJDILHJFNKE": -1.0
            },
            {
              "$type": "AIFPLABJNMA",
              "attackEvent": {
                "attackPattern": {
                  "$type": "BELNOFAKNBA",
                  "triggerType": "TriggerNoRepeat",
                  "born": {
                    "$type": "IAENDIPDFKD"
                  },
                  "OAHPDLJIADP": 3.0
                },
                "attackInfo": {
                  "attackTag": "FISHCL_ELECTRIC_WAVE",
                  "attenuationTag": "",
                  "attenuationGroup": "default",
                  "attackProperty": {
                    "actorWindSubHurtDelta": 0.0,
                    "elementType": "Electric",
                    "IPFJJJGABPL": 25.0,
                    "ignoreAttackerProperty": true,
                    "strikeType": "Default",
                    "enBreak": 0.0,
                    "HMBONGBFIAP": [
                      "Damage",
                      "LevelEntity_SystemValue",
                      "MUL"
                    ],
                    "trueDamage": true,
                    "ignoreModifyDamage": true,
                    "GLKMCMDJBIK": 0.0
                  },
                  "hitPattern": {
                    "onHitEffectName": "",
                    "hitImpulseY": "",
                    "hitImpulseType": "LV2",
                    "hitHaltTimeScale": 0.05000000074505806
                  }
                }
              },
              "targetType": "Enemy"
            }
          ]
        }
      },
      "onAdded": [
        {
          "$type": "GDHGMAPPGHD",
          "key": "LevelEntity_SystemValue",
          "damageRatio": "ElementLevelCo"
        },
        {
          "$type": "JLDEMMJAMLC",
          "modifierName": "Life_Timer"
        },
        {
          "$type": "JLDEMMJAMLC",
          "modifierName": "SummerTimeV2_Dungeon_ElectricZone_Damage"
        }
      ],
      "isDynamicAbility": true
    }
  },
  {
    "Default": {
      "$type": "CBPBEHLOHKI",
      "abilityName": "ActivityAbility_SummerTimeV2_Dungeon_Fischl_ResetUltimateSkill",
      "abilityMixins": [
        {
          "$type": "JPPFBGJICKI",
          "key": "GV_FISCHL_BUFF3",
          "param2": 0.0,
          "repeatTimes": 0.0
        },
        {
          "$type": "PHLKCMFKFIN",
          "globalValueKey": "GV_FISCHL_BUFF3",
          "valueSteps": [
            0.5,
            1.5
          ],
          "modifierNameSteps": [
            "UNIQUE_Activity_SummerTimeV2_Dungeon_Fischl_ResetUltimateSkill_Handler"
          ]
        }
      ],
      "modifiers": {
        "UNIQUE_Activity_SummerTimeV2_Dungeon_Fischl_ResetUltimateSkill_Handler": {
          "stacking": "Unique",
          "modifierName": "",
          "forceTriggerWhenChangeAuthority": true,
          "elementDurability": 0.10000000149011612,
          "IPFJJJGABPL": 100.0,
          "onAdded": [
            {
              "$type": "AHCALEMEJPJ",
              "target": "CurLocalAvatar",
              "param3": 100.0
            },
            {
              "$type": "CCMOJLPKHDN",
              "target": "CurLocalAvatar",
              "skillSlot": [
                5
              ],
              "amountByTargetCurrentHPRatio": -1.0
            }
          ],
          "onRemoved": [
            {
              "$type": "BOBCOJHOKKD",
              "param3": 0.0,
              "key": "GV_FISCHL_BUFF3",
              "param2": 0.0,
              "repeatTimes": 0.0
            }
          ]
        }
      },
      "onAdded": [
        {
          "$type": "BOBCOJHOKKD",
          "param3": 0.0,
          "key": "GV_FISCHL_BUFF3",
          "param2": 0.0,
          "repeatTimes": 0.0
        }
      ],
      "isDynamicAbility": true
    }
  },
  {
    "Default": {
      "$type": "CBPBEHLOHKI",
      "abilityName": "ActivityAbility_SummerTimeV2_Dungeon_Fishcl_Crow",
      "abilitySpecials": {
        "Crow_LifeTime": 0.0,
        "Crow_AttackInterval": 0.0
      },
      "modifiers": {
        "UNIQUE_Activity_Crow_AutoAttack": {
          "stacking": "Unique",
          "modifierName": "",
          "forceTriggerWhenChangeAuthority": true,
          "elementDurability": "Crow_LifeTime",
          "IPFJJJGABPL": 100.0,
          "thinkInterval": "Crow_AttackInterval",
          "onAdded": [
            {
              "$type": "GJCAPCBELPA",
              "abilityName": "ActivityAbility_SummerTimeV2_Dungeon_Fishcl_Crow"
            },
            {
              "$type": "KBFEIHEAMBM",
              "rotationDampTime": "Eff_Fischl_S_Skill_Summon",
              "born": {
                "$type": "KLPANPDGHHA",
                "attachPointName": "Spine"
              },
              "PPPDJGDDOGD": 1.0,
              "AJDILHJFNKE": -1.0
            }
          ],
          "onRemoved": [
            {
              "$type": "KBFEIHEAMBM",
              "rotationDampTime": "Eff_Fischl_S_Skill_Death",
              "born": {
                "$type": "KLPANPDGHHA",
                "attachPointName": "Spine"
              },
              "PPPDJGDDOGD": 1.0,
              "AJDILHJFNKE": -1.0
            },
            {
              "$type": "NCFFNDHGCMH"
            }
          ],
          "onThinkInterval": [
            {
              "$type": "GJCAPCBELPA",
              "abilityName": "ActivityAbility_SummerTimeV2_Dungeon_Fishcl_Crow"
            }
          ]
        }
      },
      "onAdded": [
        {
          "$type": "JLDEMMJAMLC",
          "modifierName": "UNIQUE_Activity_Crow_AutoAttack"
        }
      ],
      "onAbilityStart": [
        {
          "$type": "MDIAKCCDEAL",
          "otherTargets": {
            "$type": "IJOFJOGLDHE",
            "topLimit": 1,
            "entityTypePriority": [
              "Monster",
              "Gadget"
            ],
            "sortType": "HigherScore",
            "shapeName": "CircleR11",
            "campTargetType": "Enemy",
            "doOffStage": 1.0
          },
          "predicates": [
            {
              "$type": "NIMAPECDNKD",
              "entityTypes": [
                "Gadget",
                "Monster"
              ]
            },
            {
              "$type": "CNGGLKHONAA",
              "key": "_ANIMAL_ENTITY_TYPE",
              "param3": 0.0,
              "compareType": "NoneOrEqual"
            }
          ],
          "turnToTargetImmediately": true
        },
        {
          "$type": "INBCDALOHMP",
          "target": "SelfAttackTarget",
          "targetPredicates": [
            {
              "$type": "IBDEPLJMONN"
            },
            {
              "$type": "FMBJAJFLDIP",
              "target": "SelfAttackTarget",
              "logic": "LesserOrEqual",
              "compareType": "XYZ",
              "param3": 10.0,
              "DDALGNLEHOD": ""
            },
            {
              "$type": "GIIADCNNLNI",
              "hp": 0.0
            },
            {
              "$type": "BCFNGJHILAG",
              "predicates": [
                {
                  "$type": "PBNMMCGHGHK"
                }
              ]
            }
          ],
          "successActions": [
            {
              "$type": "KBFEIHEAMBM",
              "rotationDampTime": "Eff_Fischl_Skill_S_Crow_NormalAttackOnShooting",
              "born": {
                "$type": "KLPANPDGHHA",
                "offset": {
                  "KGEPIMHBMOL": 0.0,
                  "JEBHCGDPFEJ": 0.0,
                  "LPCHALMFFOD": 0.0
                },
                "attachPointName": "Mouth"
              },
              "PPPDJGDDOGD": 1.0,
              "AJDILHJFNKE": -1.0
            },
            {
              "$type": "CAKDDHLKOAB",
              "bulletID": 44000432,
              "born": {
                "$type": "KLPANPDGHHA",
                "direction": {
                  "$type": "AHGNBAPONLA",
                  "angleOffset": {
                    "KGEPIMHBMOL": 1.0,
                    "JEBHCGDPFEJ": 0.0,
                    "LPCHALMFFOD": 0.0
                  },
                  "randomAngleHor": 45.0
                },
                "attachPointName": "AP1"
              }
            }
          ]
        }
      ],
      "isDynamicAbility": true
    }
  },
  {
    "Default": {
      "$type": "CBPBEHLOHKI",
      "abilityName": "ActivityAbility_SummerTimeV2_Dungeon_Fishcl_Crow_Bullet",
      "abilitySpecials": {
        "ImpactDamageSystemValue": 0.0,
        "BulletDamage": 0.0
      },
      "modifiers": {
        "FirstAttack": {
          "modifierName": "",
          "elementDurability": 0.10000000149011612,
          "IPFJJJGABPL": 100.0,
          "onAdded": [
            {
              "$type": "AIFPLABJNMA",
              "shieldHP": true,
              "attackEvent": {
                "attackPattern": {
                  "$type": "JHKEHNJBMOF",
                  "triggerType": "TriggerNoRepeat",
                  "checkHitLayerType": "Both",
                  "born": {
                    "$type": "JGEBAJLEBMO",
                    "offset": {
                      "KGEPIMHBMOL": 0.0,
                      "JEBHCGDPFEJ": 0.0,
                      "LPCHALMFFOD": -0.5
                    }
                  },
                  "size": {
                    "KGEPIMHBMOL": 0.10000000149011612,
                    "JEBHCGDPFEJ": 0.10000000149011612,
                    "LPCHALMFFOD": 1.0
                  }
                },
                "attackInfo": {
                  "attackTag": "Dungeon_OZ_Attack",
                  "attenuationTag": "",
                  "attenuationGroup": "default",
                  "attackProperty": {
                    "actorWindSubHurtDelta": 0.0,
                    "elementType": "Electric",
                    "IPFJJJGABPL": 25.0,
                    "ignoreAttackerProperty": true,
                    "strikeType": "Pierce",
                    "enBreak": 10.0,
                    "HMBONGBFIAP": [
                      "BulletDamage",
                      "ImpactDamageSystemValue",
                      "MUL"
                    ],
                    "trueDamage": true,
                    "ignoreModifyDamage": true,
                    "GLKMCMDJBIK": 0.0
                  },
                  "hitPattern": {
                    "onHitEffectName": "Eff_Fischl_Skill_S_Crow_NormalHit",
                    "hitImpulseY": "",
                    "hitImpulseType": "LV1",
                    "hitHaltTimeScale": 0.009999999776482582
                  }
                }
              },
              "targetType": "Enemy"
            }
          ]
        }
      },
      "onAdded": [
        {
          "$type": "ANLOBBMKNIJ",
          "rotationDampTime": "Eff_Fischl_Skill_S_Crow_NormalAttackTrail",
          "PPPDJGDDOGD": 1.0,
          "AJDILHJFNKE": -1.0
        },
        {
          "$type": "GDHGMAPPGHD",
          "shieldHP": true,
          "key": "ImpactDamageSystemValue",
          "damageRatio": "ElementLevelCo"
        }
      ],
      "onAbilityStart": [
        {
          "$type": "PELJALPANCA",
          "modifierName": "FirstAttack"
        }
      ],
      "isDynamicAbility": true
    }
  },
  {
    "Default": {
      "$type": "CBPBEHLOHKI",
      "abilityName": "ActivityAbility_SummerTimeV2_Dungeon_FallingAttack_Impact",
      "abilityMixins": [
        {
          "$type": "JPPFBGJICKI",
          "key": "GV_XINYAN_BUFF",
          "param2": 0.0,
          "repeatTimes": 0.0
        },
        {
          "$type": "PHLKCMFKFIN",
          "globalValueKey": "GV_XINYAN_BUFF",
          "valueSteps": [
            0.5,
            1.5
          ],
          "modifierNameSteps": [
            "UNIQUE_Activity_SummerTimeV2_Dungeon_FallingAttack_Impact_Handler"
          ]
        }
      ],
      "abilitySpecials": {
        "ImpactDamageValue": 0.0,
        "ImpactDamageSystemValue": 0.0,
        "BuffDuration": 0.0,
        "ImpactCD": 0.0
      },
      "modifiers": {
        "UNIQUE_Activity_SummerTimeV2_Dungeon_FallingAttack_Impact_Handler": {
          "stacking": "Unique",
          "modifierName": "",
          "forceTriggerWhenChangeAuthority": true,
          "IPFJJJGABPL": 100.0,
          "modifierMixins": [
            {
              "$type": "EEPKCGMKKJC",
              "modifierName": "UNIQUE_Activity_SummerTimeV2_Dungeon_FallingAttack_Impact_Decsion_FallingAttackEnd"
            }
          ],
          "onAdded": [
            {
              "$type": "JLDEMMJAMLC",
              "target": "CurTeamAvatars",
              "modifierName": "UNIQUE_Activity_SummerTimeV2_Dungeon_FallingAttack_Impact_Decsion_FallingAttackEnd"
            }
          ]
        },
        "UNIQUE_Activity_SummerTimeV2_Dungeon_FallingAttack_Impact_Decsion_FallingAttackEnd": {
          "stacking": "Unique",
          "modifierName": "",
          "forceTriggerWhenChangeAuthority": true,
          "IPFJJJGABPL": 100.0,
          "modifierMixins": [
            {
              "$type": "APJKOLPHCGH",
              "stateIDs": [
                "FallingAnthem_AS_1",
                "ElementalArt_FallingAttack_Strike"
              ],
              "exitActions": [
                {
                  "$type": "PELJALPANCA",
                  "shieldHP": true,
                  "predicates": [
                    {
                      "$type": "CNGGLKHONAA",
                      "target": "Team",
                      "key": "ImpactState",
                      "param3": 0.0,
                      "compareType": "NoneOrEqual"
                    }
                  ],
                  "modifierName": "UNIQUE_Activity_SummerTimeV2_Dungeon_FallingAttack_Impact_Action_Impact"
                },
                {
                  "$type": "PELJALPANCA",
                  "target": "Team",
                  "shieldHP": true,
                  "modifierName": "UNIQUE_Activity_SummerTimeV2_Dungeon_FallingAttack_Impact_CD"
                }
              ],
              "DGFCLAIDIFI": ""
            }
          ],
          "onHittingOther": [
            {
              "$type": "INBCDALOHMP",
              "shieldHP": true,
              "targetPredicates": [
                {
                  "$type": "NNEHDJHMING",
                  "target": "Self",
                  "attackTags": [
                    "XINYAN_DUNGEON_IMPACT"
                  ]
                }
              ],
              "successActions": [
                {
                  "$type": "AHPEKICBIIL",
                  "shieldHP": true,
                  "luaCallType": "CurChallengeGroup",
                  "funcName": "SLC_DLActivityDungeon_Exhi_XinyanFallAttack",
                  "param1": 0.0,
                  "MGAMDEHMCOL": 0.0,
                  "MMHOHAOGPLP": 0.0
                }
              ]
            }
          ]
        },
        "UNIQUE_Activity_SummerTimeV2_Dungeon_FallingAttack_Impact_CD": {
          "stacking": "Unique",
          "modifierName": "",
          "forceTriggerWhenChangeAuthority": true,
          "elementDurability": "ImpactCD",
          "IPFJJJGABPL": 100.0,
          "onAdded": [
            {
              "$type": "BOBCOJHOKKD",
              "target": "Team",
              "param3": -1.0,
              "key": "ImpactState",
              "param2": 0.0,
              "repeatTimes": 0.0
            }
          ],
          "onRemoved": [
            {
              "$type": "BOBCOJHOKKD",
              "target": "Team",
              "param3": 0.0,
              "key": "ImpactState",
              "param2": 0.0,
              "repeatTimes": 0.0
            }
          ]
        },
        "UNIQUE_Activity_SummerTimeV2_Dungeon_FallingAttack_Impact_Action_Impact": {
          "stacking": "Unique",
          "modifierName": "",
          "forceTriggerWhenChangeAuthority": true,
          "elementDurability": 0.05000000074505806,
          "IPFJJJGABPL": 100.0,
          "onAdded": [
            {
              "$type": "KBFEIHEAMBM",
              "shieldHP": true,
              "rotationDampTime": "Eff_EnergyDisk_ElementalBurst_Wave_R40",
              "PPPDJGDDOGD": 1.0,
              "AJDILHJFNKE": -1.0
            }
          ],
          "onRemoved": [
            {
              "$type": "AIFPLABJNMA",
              "shieldHP": true,
              "attackEvent": {
                "attackPattern": {
                  "$type": "BELNOFAKNBA",
                  "triggerType": "TriggerNoRepeat",
                  "born": {
                    "$type": "IAENDIPDFKD"
                  },
                  "OAHPDLJIADP": 4.0
                },
                "attackInfo": {
                  "attackTag": "XINYAN_DUNGEON_IMPACT",
                  "attenuationTag": "",
                  "attenuationGroup": "default",
                  "attackProperty": {
                    "actorWindSubHurtDelta": 0.0,
                    "IPFJJJGABPL": 0.0,
                    "ignoreAttackerProperty": true,
                    "enBreak": 0.0,
                    "attackType": "Melee",
                    "HMBONGBFIAP": [
                      "ImpactDamageValue",
                      "ImpactDamageSystemValue",
                      "MUL"
                    ],
                    "trueDamage": true,
                    "ignoreModifyDamage": true,
                    "GLKMCMDJBIK": 0.0
                  },
                  "hitPattern": {
                    "onHitEffectName": "default",
                    "hitImpulseY": "",
                    "hitImpulseType": "LV2",
                    "hitHaltTimeScale": 0.019999999552965164
                  },
                  "canBeModifiedBy": "OriginOwner"
                }
              },
              "targetType": "Enemy"
            }
          ]
        }
      },
      "onAdded": [
        {
          "$type": "GDHGMAPPGHD",
          "shieldHP": true,
          "key": "ImpactDamageSystemValue",
          "damageRatio": "ElementLevelCo"
        },
        {
          "$type": "BOBCOJHOKKD",
          "target": "Team",
          "param3": 0.0,
          "key": "GV_XINYAN_BUFF",
          "param2": 0.0,
          "repeatTimes": 0.0
        }
      ],
      "isDynamicAbility": true
    }
  },
  {
    "Default": {
      "$type": "CBPBEHLOHKI",
      "abilityName": "ActivityAbility_SummerTimeV2_BeHit_HasShield",
      "modifiers": {
        "UNIQUE_Ability_SummerTimeV2_BeHit_HasShield": {
          "stacking": "Unique",
          "modifierName": "",
          "forceTriggerWhenChangeAuthority": true,
          "IPFJJJGABPL": 100.0,
          "onBeingHit": [
            {
              "$type": "AHPEKICBIIL",
              "predicates": [
                {
                  "$type": "PDBBDHGEDJH",
                  "target": "Self",
                  "damageRatio": "All",
                  "usePotentShield": true,
                  "potentShieldType": "Rock"
                }
              ],
              "luaCallType": "CurChallengeGroup",
              "funcName": "SLC_DLActivityDungeon_Exhi_XinyanEnbreak",
              "param1": 0.0,
              "MGAMDEHMCOL": 0.0,
              "MMHOHAOGPLP": 0.0
            }
          ]
        }
      },
      "onAdded": [
        {
          "$type": "JLDEMMJAMLC",
          "modifierName": "UNIQUE_Ability_SummerTimeV2_BeHit_HasShield"
        }
      ],
      "isDynamicAbility": true
    }
  }
]