[
  {
    "Default": {
      "$type": "CBPBEHLOHKI",
      "abilityName": "Activity_ActivityTeamChain_TeamControlBuff",
      "abilityMixins": [
        {
          "$type": "MLJAPFBGEEH",
          "globalValueKey": "_GO_CJB_TRIGGER",
          "gvInTalk": 0.0,
          "valueSteps": [
            -0.5,
            0.5,
            1.5
          ],
          "modifierNameSteps": [
            "No_CJB_Trigger",
            "Has_CJB_Trigger"
          ]
        }
      ],
      "abilitySpecials": {
        "AvatarBuffDuration": 0.0,
        "CJBDamageRatio": 0.0,
        "CJBCD": 0.0,
        "ChooseCD": 0.0,
        "MaxCJBNum": 0.0
      },
      "modifiers": {
        "No_CJB_Trigger": {
          "modifierName": "",
          "IPFJJJGABPL": 100.0
        },
        "Has_CJB_Trigger": {
          "modifierName": "",
          "IPFJJJGABPL": 100.0,
          "onAdded": [
            {
              "$type": "PELJALPANCA",
              "modifierName": "ChooseMonster_CD"
            },
            {
              "$type": "BOBCOJHOKKD",
              "param3": 1.0,
              "key": "_CJB_NUM",
              "param2": 0.0,
              "repeatTimes": 0.0
            },
            {
              "$type": "PELJALPANCA",
              "modifierName": "Reset_CJB_Value"
            }
          ]
        },
        "Reset_CJB_Value": {
          "modifierName": "",
          "elementDurability": 0.30000001192092896,
          "IPFJJJGABPL": 100.0,
          "onRemoved": [
            {
              "$type": "BOBCOJHOKKD",
              "param3": 0.0,
              "key": "_GO_CJB_TRIGGER",
              "param2": 0.0,
              "repeatTimes": 0.0
            }
          ]
        },
        "ChooseMonster_CD": {
          "modifierName": "",
          "elementDurability": "ChooseCD",
          "IPFJJJGABPL": 100.0,
          "onAdded": [
            {
              "$type": "BOBCOJHOKKD",
              "param3": 1.0,
              "key": "_CHOOSE_IN_CD",
              "param2": 0.0,
              "repeatTimes": 0.0
            }
          ],
          "onRemoved": [
            {
              "$type": "BOBCOJHOKKD",
              "param3": 0.0,
              "key": "_CHOOSE_IN_CD",
              "param2": 0.0,
              "repeatTimes": 0.0
            }
          ]
        },
        "Activity_ActivityTeamChain_AvatarCJBBuff": {
          "modifierName": "",
          "IPFJJJGABPL": 100.0,
          "modifierMixins": [
            {
              "$type": "NKEPLGAIEJM",
              "modifierName": "Activity_ActivityTeamChain_AvatarCJBBuff_OnBattle"
            }
          ]
        },
        "CJB_DAMAGE_INCD": {
          "modifierName": "",
          "elementDurability": "CJBCD",
          "IPFJJJGABPL": 100.0,
          "onAdded": [
            {
              "$type": "BOBCOJHOKKD",
              "param3": 1.0,
              "key": "_CJB_IN_CD",
              "param2": 0.0,
              "repeatTimes": 0.0
            },
            {
              "$type": "LCOEFEMOHLP",
              "param3": 1.0,
              "key": "_CJB_NUM",
              "useLimitRange": true,
              "param2": 10.0,
              "repeatTimes": 0.0
            }
          ],
          "onRemoved": [
            {
              "$type": "BOBCOJHOKKD",
              "param3": 0.0,
              "key": "_CJB_IN_CD",
              "param2": 0.0,
              "repeatTimes": 0.0
            }
          ]
        },
        "Activity_ActivityTeamChain_AvatarCJBBuff_OnBattle": {
          "modifierName": "",
          "IPFJJJGABPL": 100.0,
          "onAttackLanded": [
            {
              "$type": "INBCDALOHMP",
              "target": "Other",
              "targetPredicates": [
                {
                  "$type": "NIMAPECDNKD",
                  "entityTypes": [
                    "Monster"
                  ]
                },
                {
                  "$type": "CNGGLKHONAA",
                  "target": "Team",
                  "key": "_CJB_IN_CD",
                  "param3": 0.0,
                  "compareType": "NoneOrEqual"
                },
                {
                  "$type": "CNGGLKHONAA",
                  "target": "Team",
                  "key": "_CJB_NUM",
                  "param3": "MaxCJBNum",
                  "compareType": "LessAndEqual"
                },
                {
                  "$type": "CNGGLKHONAA",
                  "target": "Team",
                  "key": "_CHOOSE_IN_CD",
                  "param3": 1.0
                }
              ],
              "successActions": [
                {
                  "$type": "KBFEIHEAMBM",
                  "target": "Other",
                  "rotationDampTime": "Eff_EnergyDisk_ElementalBurst_Wave_R40",
                  "born": {
                    "$type": "JHEBKCMEMLN"
                  },
                  "PPPDJGDDOGD": 1.0,
                  "AJDILHJFNKE": -1.0
                },
                {
                  "$type": "AIFPLABJNMA",
                  "target": "CurLocalAvatar",
                  "shieldHP": false,
                  "attackEvent": {
                    "attackPattern": {
                      "$type": "BELNOFAKNBA",
                      "triggerType": "TriggerNoRepeat",
                      "born": {
                        "$type": "DHDAAHGFPHK"
                      },
                      "OAHPDLJIADP": 4.0
                    },
                    "attackInfo": {
                      "attackTag": "",
                      "attenuationTag": "",
                      "attenuationGroup": "default",
                      "attackProperty": {
                        "actorWindSubHurtDelta": 0.0,
                        "IPFJJJGABPL": 0.0,
                        "ignoreAttackerProperty": true,
                        "enBreak": 25.0,
                        "attackType": "Melee",
                        "HMBONGBFIAP": [
                          "CJBDamageRatio",
                          "DamageSystemValue",
                          "MUL"
                        ],
                        "trueDamage": true,
                        "ignoreModifyDamage": true,
                        "GLKMCMDJBIK": 0.0
                      },
                      "hitPattern": {
                        "onHitEffectName": "default",
                        "hitImpulseY": "",
                        "hitImpulseType": "LV2",
                        "hitHaltTimeScale": 0.019999999552965164
                      }
                    }
                  },
                  "targetType": "Enemy"
                },
                {
                  "$type": "PELJALPANCA",
                  "target": "Team",
                  "modifierName": "CJB_DAMAGE_INCD"
                }
              ]
            }
          ]
        }
      },
      "onAdded": [
        {
          "$type": "GDHGMAPPGHD",
          "key": "DamageSystemValue",
          "damageRatio": "ElementLevelCo"
        },
        {
          "$type": "PELJALPANCA",
          "modifierName": "Activity_ActivityTeamChain_AvatarCJBBuff"
        }
      ],
      "isDynamicAbility": true
    }
  },
  {
    "Default": {
      "$type": "CBPBEHLOHKI",
      "abilityName": "Activity_ActivityTeamChainV3.4_TideBuff",
      "abilityMixins": [
        {
          "$type": "CCNIOPJEHOE",
          "globalValueKey": "_IN_HIGH_TIDE_V3.4",
          "valueSteps": [
            -0.5,
            0.5,
            1.5
          ],
          "modifierNameSteps": [
            "Crazy_In_Peace",
            "Crazy_DamageUp"
          ]
        },
        {
          "$type": "JPPFBGJICKI",
          "key": "_IN_HIGH_TIDE_V3.4",
          "useLimitRange": true,
          "param2": 1.0,
          "repeatTimes": 0.0
        }
      ],
      "abilitySpecials": {
        "DamageUp": 0.0
      },
      "modifiers": {
        "Crazy_In_Peace": {
          "modifierName": "",
          "IPFJJJGABPL": 100.0
        },
        "Crazy_DamageUp": {
          "modifierName": "",
          "IPFJJJGABPL": 100.0,
          "modifierMixins": [
            {
              "$type": "NKEPLGAIEJM",
              "modifierName": "Crazy_DamageUp_TeamChainV3.4_Eff"
            }
          ],
          "onAdded": [
            {
              "$type": "JLDEMMJAMLC",
              "target": "AllPlayerAvatars",
              "modifierName": "Crazy_DamageUp_TeamChainV3.4"
            }
          ]
        },
        "Crazy_DamageUp_TeamChainV3.4": {
          "modifierName": "",
          "IPFJJJGABPL": 100.0,
          "properties": {
            "Actor_FireAddHurtDelta": "DamageUp",
            "Actor_ElecAddHurtDelta": "DamageUp",
            "Actor_WaterAddHurtDelta": "DamageUp",
            "Actor_GrassAddHurtDelta": "DamageUp",
            "Actor_WindAddHurtDelta": "DamageUp",
            "Actor_IceAddHurtDelta": "DamageUp",
            "Actor_RockAddHurtDelta": "DamageUp",
            "Actor_PhysicalAddHurtDelta": "DamageUp"
          },
          "state": "AttackUp"
        },
        "Crazy_DamageUp_TeamChainV3.4_Eff": {
          "modifierName": "",
          "IPFJJJGABPL": 100.0
        }
      },
      "onAdded": [
        {
          "$type": "BOBCOJHOKKD",
          "param3": 0.0,
          "key": "_IN_HIGH_TIDE_V3.4",
          "param2": 0.0,
          "repeatTimes": 0.0
        }
      ],
      "isDynamicAbility": true
    }
  },
  {
    "Default": {
      "$type": "CBPBEHLOHKI",
      "abilityName": "Activity_TeamChain_LockedAvatar",
      "abilitySpecials": {
        "DamageUpRatio": 0.0,
        "OffStageInterval": 0.0,
        "Energy": 0.0
      },
      "modifiers": {
        "UNIQUE_TeamChain_LockedAvatar": {
          "modifierName": "",
          "forceTriggerWhenChangeAuthority": true,
          "IPFJJJGABPL": 100.0,
          "modifierMixins": [
            {
              "$type": "LDBCDLJECKF",
              "ignoreEventInfo": true,
              "actorWindSubHurtDelta": "DamageUpRatio"
            }
          ]
        },
        "UNIQUE_TeamChain_LockedAvatar_OffStage": {
          "stacking": "Unique",
          "modifierName": "",
          "forceTriggerWhenChangeAuthority": true,
          "IPFJJJGABPL": 100.0,
          "thinkInterval": "OffStageInterval",
          "onThinkInterval": [
            {
              "$type": "INBCDALOHMP",
              "shieldHP": true,
              "targetPredicates": [
                {
                  "$type": "IKCCGACFLEK"
                }
              ],
              "successActions": [
                {
                  "$type": "INBCDALOHMP",
                  "shieldHP": true,
                  "targetPredicates": [
                    {
                      "$type": "JALOOGPAKNF",
                      "target": "Self"
                    }
                  ],
                  "failActions": [
                    {
                      "$type": "AHCALEMEJPJ",
                      "shieldHP": true,
                      "param3": "Energy"
                    }
                  ]
                }
              ]
            }
          ]
        }
      },
      "onAdded": [
        {
          "$type": "JLDEMMJAMLC",
          "modifierName": "UNIQUE_TeamChain_LockedAvatar"
        },
        {
          "$type": "JLDEMMJAMLC",
          "shieldHP": true,
          "modifierName": "UNIQUE_TeamChain_LockedAvatar_OffStage"
        }
      ],
      "isDynamicAbility": true
    }
  },
  {
    "Default": {
      "$type": "CBPBEHLOHKI",
      "abilityName": "Activity_TeamChain_ElementAddHurt_Swirl",
      "abilitySpecials": {
        "ElementAddHurt_Swirl": 0.0
      },
      "modifiers": {
        "UNIQUE_TeamChain_ElementAddHurt_Swirl": {
          "stacking": "Unique",
          "modifierName": "",
          "forceTriggerWhenChangeAuthority": true,
          "IPFJJJGABPL": 100.0,
          "properties": {
            "Actor_ElemReactSwirlFireDelta": "ElementAddHurt_Swirl",
            "Actor_ElemReactSwirlWaterDelta": "ElementAddHurt_Swirl",
            "Actor_ElemReactSwirlIceDelta": "ElementAddHurt_Swirl",
            "Actor_ElemReactSwirlElectricDelta": "ElementAddHurt_Swirl"
          },
          "isLimitedProperties": true
        }
      },
      "onAdded": [
        {
          "$type": "JLDEMMJAMLC",
          "modifierName": "UNIQUE_TeamChain_ElementAddHurt_Swirl"
        }
      ],
      "isDynamicAbility": true
    }
  },
  {
    "Default": {
      "$type": "CBPBEHLOHKI",
      "abilityName": "Activity_TeamChain_Frozen_PercentageRatio",
      "abilitySpecials": {
        "damagePercentageRatio": 0.0
      },
      "modifiers": {
        "Activity_TeamChain_Frozen_PercentageRatio": {
          "modifierName": "",
          "IPFJJJGABPL": 100.0,
          "modifierMixins": [
            {
              "$type": "LDBCDLJECKF",
              "ignoreEventInfo": true,
              "actorWindSubHurtDelta": "damagePercentageRatio",
              "predicates": [
                {
                  "$type": "DHJDNPOHKPF",
                  "abilityState": "ElementFrozen"
                }
              ]
            }
          ]
        }
      },
      "onAdded": [
        {
          "$type": "JLDEMMJAMLC",
          "modifierName": "Activity_TeamChain_Frozen_PercentageRatio"
        }
      ],
      "isDynamicAbility": true
    }
  },
  {
    "Default": {
      "$type": "CBPBEHLOHKI",
      "abilityName": "Activity_TeamChain_BurstDamageUp_ReduceCD",
      "abilitySpecials": {
        "ElementalBurst_Rate": 0.0,
        "Actor_SkillCDMinusRatio": 0.0
      },
      "modifiers": {
        "UNIQUE_TeamChain_BurstDamageUp_ReduceCD": {
          "modifierName": "",
          "forceTriggerWhenChangeAuthority": true,
          "IPFJJJGABPL": 100.0,
          "modifierMixins": [
            {
              "$type": "LDBCDLJECKF",
              "attackTags": [
                "Elemental_Burst"
              ],
              "actorWindSubHurtDelta": "ElementalBurst_Rate"
            }
          ],
          "properties": {
            "Actor_SkillCDMinusRatio": "Actor_SkillCDMinusRatio"
          }
        }
      },
      "onAdded": [
        {
          "$type": "JLDEMMJAMLC",
          "modifierName": "UNIQUE_TeamChain_BurstDamageUp_ReduceCD"
        }
      ],
      "isDynamicAbility": true
    }
  },
  {
    "Default": {
      "$type": "CBPBEHLOHKI",
      "abilityName": "Activity_TeamChain_UltGainEnergy",
      "abilitySpecials": {
        "Duration": 0.0,
        "Interval": 0.0,
        "Energy": 0.0
      },
      "modifiers": {
        "UNIQUE_Activity_TeamChain_UltGainEnergy_Handler": {
          "modifierName": "",
          "forceTriggerWhenChangeAuthority": true,
          "IPFJJJGABPL": 100.0,
          "modifierMixins": [
            {
              "$type": "LFDMBLDKNMK",
              "onTriggerUltimateSkill": [
                {
                  "$type": "PELJALPANCA",
                  "shieldHP": true,
                  "modifierName": "UNIQUE_Activity_TeamChain_UltGainEnergy_Effect"
                }
              ],
              "clearSkillIdDelay": 0.20000000298023224
            }
          ]
        },
        "UNIQUE_Activity_TeamChain_UltGainEnergy_Effect": {
          "modifierName": "",
          "forceTriggerWhenChangeAuthority": true,
          "elementDurability": "Duration",
          "IPFJJJGABPL": 100.0,
          "thinkInterval": "Interval",
          "onThinkInterval": [
            {
              "$type": "AHCALEMEJPJ",
              "shieldHP": true,
              "param3": "Energy"
            }
          ]
        }
      },
      "onAdded": [
        {
          "$type": "JLDEMMJAMLC",
          "shieldHP": true,
          "modifierName": "UNIQUE_Activity_TeamChain_UltGainEnergy_Handler"
        }
      ],
      "isDynamicAbility": true
    }
  },
  {
    "Default": {
      "$type": "CBPBEHLOHKI",
      "abilityName": "Activity_TeamChain_GrassReaction_ElemMasteryDelta",
      "abilitySpecials": {
        "GrassReaction_ElemMasteryDelta": 0.0,
        "BuffTime": 0.0,
        "BuffMaxLevel": 0.0,
        "Multiple_CdTime": 0.0
      },
      "modifiers": {
        "UNIQUE_TeamChain_GrassReaction_ElemMasteryDelta_Handler": {
          "modifierName": "",
          "forceTriggerWhenChangeAuthority": true,
          "IPFJJJGABPL": 100.0,
          "modifierMixins": [
            {
              "$type": "GEICHMDHPHI",
              "entityTypes": [
                "Monster"
              ],
              "reactionTypes": [
                "Burning",
                "Overdose",
                "Overgrow",
                "OverdoseGrass",
                "OverdoseElectric",
                "OvergrowMushroomElectric",
                "OvergrowMushroomFire"
              ],
              "actions": [
                {
                  "$type": "PELJALPANCA",
                  "target": "Team",
                  "shieldHP": true,
                  "modifierName": "UNIQUE_TeamChain_GrassReaction_ElemMasteryDelta_Multiple_Handler"
                }
              ]
            }
          ]
        },
        "UNIQUE_TeamChain_GrassReaction_ElemMasteryDelta_Multiple_Handler": {
          "stacking": "Unique",
          "modifierName": "",
          "forceTriggerWhenChangeAuthority": true,
          "elementDurability": "Multiple_CdTime",
          "IPFJJJGABPL": 100.0,
          "onAdded": [
            {
              "$type": "PELJALPANCA",
              "target": "CurTeamAvatars",
              "shieldHP": true,
              "modifierName": "UNIQUE_TeamChain_GrassReaction_ElemMasteryDelta_MultipleEffect"
            }
          ]
        },
        "UNIQUE_TeamChain_GrassReaction_ElemMasteryDelta_MultipleEffect": {
          "stacking": "MultipleRefreshNoRemove",
          "stackingOption": {
            "abilitySpecialName": "",
            "maxModifierNumForMultipleType": "BuffMaxLevel",
            "enableMixedUnique": true
          },
          "modifierName": "",
          "forceTriggerWhenChangeAuthority": true,
          "elementDurability": "BuffTime",
          "IPFJJJGABPL": 100.0,
          "properties": {
            "Actor_ElemMasteryDelta": "GrassReaction_ElemMasteryDelta"
          },
          "state": "AttackUp"
        }
      },
      "onAdded": [
        {
          "$type": "JLDEMMJAMLC",
          "shieldHP": true,
          "modifierName": "UNIQUE_TeamChain_GrassReaction_ElemMasteryDelta_Handler"
        }
      ],
      "isDynamicAbility": true
    }
  },
  {
    "Default": {
      "$type": "CBPBEHLOHKI",
      "abilityName": "Activity_TeamChain_NormalAttackAndElementalArt_DamageUp",
      "abilitySpecials": {
        "NormalAttackRate": 0.0,
        "ElementalArtRate": 0.0
      },
      "modifiers": {
        "UNIQUE_TeamChain_NormalAttackAndElementalArt_DamageUp": {
          "modifierName": "",
          "forceTriggerWhenChangeAuthority": true,
          "IPFJJJGABPL": 100.0,
          "modifierMixins": [
            {
              "$type": "LDBCDLJECKF",
              "attackTags": [
                "NormalAttack_01",
                "NormalAttack_02",
                "NormalAttack_03",
                "NormalAttack_04",
                "NormalAttack_05",
                "NormalAttack_06"
              ],
              "actorWindSubHurtDelta": "NormalAttackRate"
            },
            {
              "$type": "LDBCDLJECKF",
              "attackTags": [
                "Elemental_Art",
                "Elemental_Art_Hold",
                "Elemental_Art_Extra"
              ],
              "actorWindSubHurtDelta": "ElementalArtRate"
            }
          ]
        }
      },
      "onAdded": [
        {
          "$type": "PELJALPANCA",
          "modifierName": "UNIQUE_TeamChain_NormalAttackAndElementalArt_DamageUp"
        }
      ],
      "isDynamicAbility": true
    }
  },
  {
    "Default": {
      "$type": "CBPBEHLOHKI",
      "abilityName": "Activity_TeamChain_FallingWindZone",
      "abilitySpecials": {
        "FallingDamageUp": 0.0,
        "WindZone_CD": 0.0
      },
      "modifiers": {
        "UNIQUE_TeamChain_FallingWindZone_Handler": {
          "modifierName": "",
          "forceTriggerWhenChangeAuthority": true,
          "IPFJJJGABPL": 100.0,
          "modifierMixins": [
            {
              "$type": "LDBCDLJECKF",
              "attackTags": [
                "FallingAttack"
              ],
              "actorWindSubHurtDelta": "FallingDamageUp"
            }
          ],
          "onAttackLanded": [
            {
              "$type": "INBCDALOHMP",
              "target": "Other",
              "targetPredicates": [
                {
                  "$type": "NIMAPECDNKD",
                  "entityTypes": [
                    "Monster"
                  ]
                },
                {
                  "$type": "CNGGLKHONAA",
                  "target": "Team",
                  "key": "RogueV2_FallingWindZone_CD",
                  "param3": 0.0,
                  "compareType": "NoneOrEqual"
                },
                {
                  "$type": "NNEHDJHMING",
                  "target": "Self",
                  "attackTags": [
                    "FallingAttack"
                  ]
                }
              ],
              "successActions": [
                {
                  "$type": "PELJALPANCA",
                  "shieldHP": true,
                  "modifierName": "TeamChain_FallingWindZone_WindZoneEffect"
                }
              ]
            }
          ]
        },
        "TeamChain_FallingWindZone_WindZoneEffect": {
          "modifierName": "",
          "elementDurability": 0.20000000298023224,
          "IPFJJJGABPL": 100.0,
          "onRemoved": [
            {
              "$type": "KFCDMIMBBLD",
              "shieldHP": true,
              "born": {
                "$type": "IAENDIPDFKD",
                "offset": {
                  "KGEPIMHBMOL": 0.0,
                  "JEBHCGDPFEJ": 0.5,
                  "LPCHALMFFOD": 0.0
                },
                "useRotation": true
              },
              "gadgetID": 44000428,
              "campID": 1001,
              "campTargetType": "Enemy"
            },
            {
              "$type": "PELJALPANCA",
              "target": "Team",
              "shieldHP": true,
              "modifierName": "UNIQUE_TeamChain_FallingWindZone_WindZone_CD"
            }
          ]
        },
        "UNIQUE_TeamChain_FallingWindZone_WindZone_CD": {
          "stacking": "Unique",
          "modifierName": "",
          "forceTriggerWhenChangeAuthority": true,
          "elementDurability": "WindZone_CD",
          "IPFJJJGABPL": 100.0,
          "onAdded": [
            {
              "$type": "BOBCOJHOKKD",
              "param3": -1.0,
              "key": "RogueV2_FallingWindZone_CD",
              "param2": 0.0,
              "repeatTimes": 0.0
            }
          ],
          "onRemoved": [
            {
              "$type": "BOBCOJHOKKD",
              "param3": 0.0,
              "key": "RogueV2_FallingWindZone_CD",
              "param2": 0.0,
              "repeatTimes": 0.0
            }
          ]
        }
      },
      "onAdded": [
        {
          "$type": "JLDEMMJAMLC",
          "modifierName": "UNIQUE_TeamChain_FallingWindZone_Handler"
        }
      ],
      "isDynamicAbility": true
    }
  },
  {
    "Default": {
      "$type": "CBPBEHLOHKI",
      "abilityName": "Activity_TeamChain_Mastery_DamageUp",
      "abilitySpecials": {
        "DamageUpTime": 0.0,
        "DamageUpRatio": 0.0
      },
      "modifiers": {
        "UNIQUE_TeamChain_Mastery_DamageUp": {
          "modifierName": "",
          "forceTriggerWhenChangeAuthority": true,
          "IPFJJJGABPL": 100.0,
          "modifierMixins": [
            {
              "$type": "GEICHMDHPHI",
              "entityTypes": [
                "Monster"
              ],
              "reactionTypes": [
                "SwirlFire",
                "SwirlElectric",
                "SwirlWater",
                "SwirlIce"
              ],
              "actions": [
                {
                  "$type": "JLDEMMJAMLC",
                  "target": "CurTeamAvatars",
                  "shieldHP": true,
                  "modifierName": "TeamChain_Mastery_BuffEffect"
                }
              ]
            }
          ]
        },
        "TeamChain_Mastery_BuffEffect": {
          "modifierName": "",
          "elementDurability": "DamageUpTime",
          "IPFJJJGABPL": 100.0,
          "modifierMixins": [
            {
              "$type": "LDBCDLJECKF",
              "ignoreEventInfo": true,
              "actorWindSubHurtDelta": "DamageUpRatio"
            }
          ]
        }
      },
      "onAdded": [
        {
          "$type": "JLDEMMJAMLC",
          "shieldHP": true,
          "modifierName": "UNIQUE_TeamChain_Mastery_DamageUp"
        }
      ],
      "isDynamicAbility": true
    }
  },
  {
    "Default": {
      "$type": "CBPBEHLOHKI",
      "abilityName": "Activity_TeamChain_AttackSpeedRatio",
      "abilitySpecials": {
        "AttackSpeedRatio": 0.0,
        "CriticalUpValue": 0.0
      },
      "modifiers": {
        "UNIQUE_Activity_TeamChain_AttackSpeedRatio": {
          "stacking": "Unique",
          "modifierName": "",
          "forceTriggerWhenChangeAuthority": true,
          "IPFJJJGABPL": 100.0,
          "modifierMixins": [
            {
              "$type": "LDBCDLJECKF",
              "attackTags": [
                "NormalAttack_01",
                "NormalAttack_02",
                "NormalAttack_03",
                "NormalAttack_04",
                "NormalAttack_05",
                "NormalAttack_06"
              ],
              "actorWindSubHurtDelta": 0.0,
              "AIGBINPINKE": "CriticalUpValue"
            }
          ],
          "properties": {
            "Animator_AttackSpeedRatio": "AttackSpeedRatio"
          },
          "isLimitedProperties": true
        }
      },
      "onAdded": [
        {
          "$type": "JLDEMMJAMLC",
          "modifierName": "UNIQUE_Activity_TeamChain_AttackSpeedRatio"
        }
      ],
      "isDynamicAbility": true
    }
  },
  {
    "Default": {
      "$type": "CBPBEHLOHKI",
      "abilityName": "Activity_TeamChain_NormalAttackDamageUp",
      "abilitySpecials": {
        "Rate": 0.0
      },
      "modifiers": {
        "UNIQUE_TeamChain_NormalAttackDamageUp": {
          "modifierName": "",
          "forceTriggerWhenChangeAuthority": true,
          "IPFJJJGABPL": 100.0,
          "modifierMixins": [
            {
              "$type": "LDBCDLJECKF",
              "attackTags": [
                "NormalAttack_01",
                "NormalAttack_02",
                "NormalAttack_03",
                "NormalAttack_04",
                "NormalAttack_05",
                "NormalAttack_06"
              ],
              "actorWindSubHurtDelta": "Rate"
            }
          ]
        }
      },
      "onAdded": [
        {
          "$type": "PELJALPANCA",
          "modifierName": "UNIQUE_TeamChain_NormalAttackDamageUp"
        }
      ],
      "isDynamicAbility": true
    }
  },
  {
    "Default": {
      "$type": "CBPBEHLOHKI",
      "abilityName": "Activity_TeamChain_AttackRatio",
      "abilitySpecials": {
        "AttackRatio": 0.0
      },
      "modifiers": {
        "UNIQUE_Activity_TeamChain_AttackRatio": {
          "stacking": "Unique",
          "modifierName": "",
          "forceTriggerWhenChangeAuthority": true,
          "IPFJJJGABPL": 100.0,
          "properties": {
            "Actor_AttackRatio": "AttackRatio"
          },
          "isLimitedProperties": true
        }
      },
      "onAdded": [
        {
          "$type": "JLDEMMJAMLC",
          "modifierName": "UNIQUE_Activity_TeamChain_AttackRatio"
        }
      ],
      "isDynamicAbility": true
    }
  },
  {
    "Default": {
      "$type": "CBPBEHLOHKI",
      "abilityName": "Activity_TeamChain_CriticalHurtDelta",
      "abilitySpecials": {
        "CriticalHurt": 0.0
      },
      "modifiers": {
        "UNIQUE_Activity_TeamChain_CriticalHurtDelta": {
          "stacking": "Unique",
          "modifierName": "",
          "forceTriggerWhenChangeAuthority": true,
          "IPFJJJGABPL": 100.0,
          "properties": {
            "Actor_CriticalHurtDelta": "CriticalHurt"
          },
          "isLimitedProperties": true
        }
      },
      "onAdded": [
        {
          "$type": "JLDEMMJAMLC",
          "modifierName": "UNIQUE_Activity_TeamChain_CriticalHurtDelta"
        }
      ],
      "isDynamicAbility": true
    }
  },
  {
    "Default": {
      "$type": "CBPBEHLOHKI",
      "abilityName": "Activity_TeamChain_ElemMasteryDeltaUp",
      "abilitySpecials": {
        "ElemMasteryDelta": 0.0
      },
      "modifiers": {
        "UNIQUE_Activity_TeamChain_ElemMasteryDeltaUp": {
          "stacking": "Unique",
          "modifierName": "",
          "forceTriggerWhenChangeAuthority": true,
          "IPFJJJGABPL": 100.0,
          "properties": {
            "Actor_ElemMasteryDelta": "ElemMasteryDelta"
          },
          "isLimitedProperties": true
        }
      },
      "onAdded": [
        {
          "$type": "JLDEMMJAMLC",
          "modifierName": "UNIQUE_Activity_TeamChain_ElemMasteryDeltaUp"
        }
      ],
      "isDynamicAbility": true
    }
  },
  {
    "Default": {
      "$type": "CBPBEHLOHKI",
      "abilityName": "Activity_TeamChain_BurstDamageUp",
      "abilitySpecials": {
        "Rate": 0.0
      },
      "modifiers": {
        "UNIQUE_TeamChain_BurstDamageUp": {
          "modifierName": "",
          "forceTriggerWhenChangeAuthority": true,
          "IPFJJJGABPL": 100.0,
          "modifierMixins": [
            {
              "$type": "LDBCDLJECKF",
              "attackTags": [
                "Elemental_Burst"
              ],
              "actorWindSubHurtDelta": "Rate"
            }
          ]
        }
      },
      "onAdded": [
        {
          "$type": "PELJALPANCA",
          "modifierName": "UNIQUE_TeamChain_BurstDamageUp"
        }
      ],
      "isDynamicAbility": true
    }
  },
  {
    "Default": {
      "$type": "CBPBEHLOHKI",
      "abilityName": "Activity_TeamChain_ElementAddHurt_Wind",
      "abilitySpecials": {
        "ElementAddHurt": 0.0
      },
      "modifiers": {
        "UNIQUE_Activity_TeamChain_ElementAddHurt_Wind": {
          "stacking": "Unique",
          "modifierName": "",
          "forceTriggerWhenChangeAuthority": true,
          "IPFJJJGABPL": 100.0,
          "properties": {
            "Actor_WindAddHurtDelta": "ElementAddHurt"
          },
          "isLimitedProperties": true
        }
      },
      "onAdded": [
        {
          "$type": "JLDEMMJAMLC",
          "modifierName": "UNIQUE_Activity_TeamChain_ElementAddHurt_Wind"
        }
      ],
      "isDynamicAbility": true
    }
  },
  {
    "Default": {
      "$type": "CBPBEHLOHKI",
      "abilityName": "Activity_TeamChain_ElementAddHurt_Fire",
      "abilitySpecials": {
        "ElementAddHurt": 0.0
      },
      "modifiers": {
        "UNIQUE_Activity_TeamChain_ElementAddHurt_Fire": {
          "stacking": "Unique",
          "modifierName": "",
          "forceTriggerWhenChangeAuthority": true,
          "IPFJJJGABPL": 100.0,
          "properties": {
            "Actor_FireAddHurtDelta": "ElementAddHurt"
          },
          "isLimitedProperties": true
        }
      },
      "onAdded": [
        {
          "$type": "JLDEMMJAMLC",
          "modifierName": "UNIQUE_Activity_TeamChain_ElementAddHurt_Fire"
        }
      ],
      "isDynamicAbility": true
    }
  },
  {
    "Default": {
      "$type": "CBPBEHLOHKI",
      "abilityName": "Activity_TeamChain_ElementAddHurt_Elec",
      "abilitySpecials": {
        "ElementAddHurt": 0.0
      },
      "modifiers": {
        "UNIQUE_Activity_TeamChain_ElementAddHurt_Elec": {
          "stacking": "Unique",
          "modifierName": "",
          "forceTriggerWhenChangeAuthority": true,
          "IPFJJJGABPL": 100.0,
          "properties": {
            "Actor_ElecAddHurtDelta": "ElementAddHurt"
          },
          "isLimitedProperties": true
        }
      },
      "onAdded": [
        {
          "$type": "JLDEMMJAMLC",
          "modifierName": "UNIQUE_Activity_TeamChain_ElementAddHurt_Elec"
        }
      ],
      "isDynamicAbility": true
    }
  },
  {
    "Default": {
      "$type": "CBPBEHLOHKI",
      "abilityName": "Activity_TeamChain_ElementAddHurt_Water",
      "abilitySpecials": {
        "ElementAddHurt": 0.0
      },
      "modifiers": {
        "UNIQUE_Activity_TeamChain_ElementAddHurt_Water": {
          "stacking": "Unique",
          "modifierName": "",
          "forceTriggerWhenChangeAuthority": true,
          "IPFJJJGABPL": 100.0,
          "properties": {
            "Actor_WaterAddHurtDelta": "ElementAddHurt"
          },
          "isLimitedProperties": true
        }
      },
      "onAdded": [
        {
          "$type": "JLDEMMJAMLC",
          "modifierName": "UNIQUE_Activity_TeamChain_ElementAddHurt_Water"
        }
      ],
      "isDynamicAbility": true
    }
  },
  {
    "Default": {
      "$type": "CBPBEHLOHKI",
      "abilityName": "Activity_TeamChain_ElementAddHurt_Grass",
      "abilitySpecials": {
        "ElementAddHurt": 0.0
      },
      "modifiers": {
        "UNIQUE_Activity_TeamChain_ElementAddHurt_Grass": {
          "stacking": "Unique",
          "modifierName": "",
          "forceTriggerWhenChangeAuthority": true,
          "IPFJJJGABPL": 100.0,
          "properties": {
            "Actor_GrassAddHurtDelta": "ElementAddHurt"
          },
          "isLimitedProperties": true
        }
      },
      "onAdded": [
        {
          "$type": "JLDEMMJAMLC",
          "modifierName": "UNIQUE_Activity_TeamChain_ElementAddHurt_Grass"
        }
      ],
      "isDynamicAbility": true
    }
  },
  {
    "Default": {
      "$type": "CBPBEHLOHKI",
      "abilityName": "Activity_TeamChain_ElementAddHurt_Ice",
      "abilitySpecials": {
        "ElementAddHurt": 0.0
      },
      "modifiers": {
        "UNIQUE_Activity_TeamChain_ElementAddHurt_Ice": {
          "stacking": "Unique",
          "modifierName": "",
          "forceTriggerWhenChangeAuthority": true,
          "IPFJJJGABPL": 100.0,
          "properties": {
            "Actor_IceAddHurtDelta": "ElementAddHurt"
          },
          "isLimitedProperties": true
        }
      },
      "onAdded": [
        {
          "$type": "JLDEMMJAMLC",
          "modifierName": "UNIQUE_Activity_TeamChain_ElementAddHurt_Ice"
        }
      ],
      "isDynamicAbility": true
    }
  }
]