[
  {
    "Default": {
      "$type": "CBPBEHLOHKI",
      "abilityName": "Activity_Pitch_Pot_Throw",
      "modifiers": {
        "UNIQUE_Activity_Pitch_Pot_Throw_ChangePlayMode_Team": {
          "stacking": "Unique",
          "modifierName": "",
          "forceTriggerWhenChangeAuthority": true,
          "IPFJJJGABPL": 100.0,
          "modifierMixins": [
            {
              "$type": "CIGJDPCDOEB",
              "onAdded": [
                {
                  "$type": "PPDJHLBHCIK",
                  "shieldHP": true,
                  "canBeHandledOnRecover": true,
                  "muteRemoteAction": true,
                  "toPlayMode": "PitchPot"
                }
              ],
              "onRemoved": [
                {
                  "$type": "PPDJHLBHCIK",
                  "shieldHP": true,
                  "canBeHandledOnRecover": true,
                  "muteRemoteAction": true,
                  "JFDCCIECAJB": "PitchPot"
                }
              ]
            }
          ]
        },
        "UNIQUE_Activity_Pitch_Pot_Team_Buff_Handler": {
          "stacking": "Unique",
          "modifierName": "",
          "forceTriggerWhenChangeAuthority": true,
          "IPFJJJGABPL": 100.0,
          "modifierMixins": [
            {
              "$type": "CCNIOPJEHOE",
              "globalValueTarget": "Team",
              "globalValueKey": "SGV_PotThrowBuff",
              "valueSteps": [
                0.5,
                1.5
              ],
              "modifierNameSteps": [
                "Buff_Controller_Pitch_Pot"
              ],
              "NMCLMHFBALJ": true
            }
          ]
        },
        "Buff_Controller_Pitch_Pot": {
          "modifierName": "",
          "elementDurability": 15.0,
          "IPFJJJGABPL": 100.0,
          "onAdded": [
            {
              "$type": "JLDEMMJAMLC",
              "target": "CurTeamAvatars",
              "shieldHP": true,
              "modifierName": "Buff_Controller_OnAvatar"
            }
          ]
        },
        "Buff_Controller_OnAvatar": {
          "modifierName": "",
          "IPFJJJGABPL": 100.0,
          "onAdded": [
            {
              "$type": "BOBCOJHOKKD",
              "shieldHP": true,
              "param3": 1.0,
              "key": "_ABILITY_Pitch_Pot_Buff_Avatar_Mark",
              "param2": 0.0,
              "repeatTimes": 0.0
            },
            {
              "$type": "ANLOBBMKNIJ",
              "shieldHP": true,
              "rotationDampTime": "Eff_Activity_Pitch_Pot_Bullet_Buff",
              "PPPDJGDDOGD": 1.0,
              "AJDILHJFNKE": -1.0
            },
            {
              "$type": "ELKNCLFKFFH",
              "rotationDampTime": "Eff_UI_ActionBtn_Skill_Notice_02",
              "effectSlot": "NormalAttack"
            }
          ],
          "onRemoved": [
            {
              "$type": "BOBCOJHOKKD",
              "shieldHP": true,
              "param3": 0.0,
              "key": "_ABILITY_Pitch_Pot_Buff_Avatar_Mark",
              "param2": 0.0,
              "repeatTimes": 0.0
            }
          ]
        },
        "UNIQUE_Activity_Pitch_Pot_Throw_Add_Skill": {
          "modifierName": "",
          "forceTriggerWhenChangeAuthority": true,
          "IPFJJJGABPL": 100.0,
          "modifierMixins": [
            {
              "$type": "BAAHKAFDLOB"
            }
          ],
          "onAdded": [
            {
              "$type": "PDFENCBHHAI",
              "shieldHP": true,
              "skillID": 20362
            }
          ],
          "onRemoved": [
            {
              "$type": "KFOBADMAFJF",
              "shieldHP": true,
              "skillID": 20362,
              "refreshAfterRemove": true
            }
          ]
        },
        "UNIQUE_Activity_Pitch_Pot_Throw_Switch_Skill": {
          "modifierName": "",
          "forceTriggerWhenChangeAuthority": true,
          "IPFJJJGABPL": 100.0,
          "modifierMixins": [
            {
              "$type": "BBDLKGEJDOJ",
              "priority": "Playmode",
              "skillID": 20362
            }
          ],
          "onAdded": [
            {
              "$type": "JLDEMMJAMLC",
              "modifierName": "Activity_Pitch_Pot_Throw_Hold_Driver_Once"
            }
          ]
        },
        "Power_Buff_Self": {
          "modifierName": "",
          "IPFJJJGABPL": 100.0,
          "modifierMixins": [
            {
              "$type": "EKMHJKDLBJH",
              "stateIDs": [
                "Channel_BS",
                "Channel_Loop"
              ],
              "modifierName": "Shoot_Conti_Delay",
              "isCheckOnAttach": true,
              "DGFCLAIDIFI": ""
            }
          ]
        },
        "Activity_Pitch_Pot_Throw_Hold_Driver_Once": {
          "modifierName": "",
          "IPFJJJGABPL": 100.0,
          "modifierMixins": [
            {
              "$type": "CCNIOPJEHOE",
              "globalValueKey": "_ABILITY_Pitch_Pot_Buff_Avatar_Mark",
              "valueSteps": [
                0.5,
                1.5
              ],
              "modifierNameSteps": [
                "Power_Buff_Self"
              ]
            },
            {
              "$type": "EKMHJKDLBJH",
              "stateIDs": [
                "Channel_Loop"
              ],
              "modifierName": "Charge_FX",
              "DGFCLAIDIFI": ""
            },
            {
              "$type": "GODEMHMODCN",
              "skillID": 20362,
              "EKKJNADOEMB": 0.15000000596046448,
              "onBeginCharged": [
                {
                  "$type": "BOBCOJHOKKD",
                  "shieldHP": true,
                  "param3": 0.0,
                  "key": "_ABILITY_Common_Channel_IsTrigger",
                  "param2": 0.0,
                  "repeatTimes": 0.0
                }
              ],
              "onReleaseCharged": [
                {
                  "$type": "PELJALPANCA",
                  "shieldHP": true,
                  "modifierName": "Shoot_Short"
                }
              ],
              "onBeginSecondCharged": [
                {
                  "$type": "BLCCGIPAOIP",
                  "PLLJBINMGJK": "StartChannelTrigger"
                }
              ],
              "onReleaseSecondCharged": [
                {
                  "$type": "PELJALPANCA",
                  "shieldHP": true,
                  "predicates": [
                    {
                      "$type": "CNGGLKHONAA",
                      "key": "_ABILITY_Common_Channel_IsTrigger",
                      "param3": 0.0
                    }
                  ],
                  "modifierName": "Shoot_Once"
                },
                {
                  "$type": "BOBCOJHOKKD",
                  "shieldHP": true,
                  "param3": 1.0,
                  "key": "_ABILITY_Common_Channel_IsTrigger",
                  "param2": 0.0,
                  "repeatTimes": 0.0
                }
              ],
              "onCancelCharged": [
                {
                  "$type": "BLCCGIPAOIP",
                  "PLLJBINMGJK": "EndChannelTrigger"
                }
              ],
              "chargeStateIDs": [
                "Channel_Loop"
              ]
            },
            {
              "$type": "EKMHJKDLBJH",
              "stateIDs": [
                "Channel_BS",
                "Channel_Loop"
              ],
              "modifierName": "Focus",
              "DGFCLAIDIFI": ""
            }
          ]
        },
        "Trigger_OnExit": {
          "modifierName": "",
          "IPFJJJGABPL": 100.0,
          "onRemoved": [
            {
              "$type": "PELJALPANCA",
              "shieldHP": true,
              "predicates": [
                {
                  "$type": "CNGGLKHONAA",
                  "key": "_ABILITY_Common_Channel_IsTrigger",
                  "param3": 0.0
                }
              ],
              "modifierName": "Shoot_Short"
            },
            {
              "$type": "BOBCOJHOKKD",
              "shieldHP": true,
              "param3": 1.0,
              "key": "_ABILITY_Common_Channel_IsTrigger",
              "param2": 0.0,
              "repeatTimes": 0.0
            }
          ]
        },
        "Focus": {
          "modifierName": "",
          "IPFJJJGABPL": 100.0,
          "onAdded": [
            {
              "$type": "ANLOBBMKNIJ",
              "rotationDampTime": "Eff_Activity_Pitch_Pot_Charging",
              "PPPDJGDDOGD": 1.0,
              "AJDILHJFNKE": -1.0
            },
            {
              "$type": "BAGMOLODOME",
              "cameraFollowLower": {
                "x": 0.800000011920929,
                "y": 1.899999976158142,
                "z": -4.5
              },
              "cameraFollowUpper": {
                "x": 0.5,
                "y": 0.6000000238418579,
                "z": -2.5
              },
              "cameraFollowMaxDegree": 40.0,
              "cameraFollowMinDegree": -35.0,
              "cameraFastFocusMode": true,
              "dragButtonName": "Skill1",
              "assistance": {
                "ps4": {},
                "ps5": {},
                "other": {
                  "useGyro": true
                }
              },
              "canMove": false,
              "showCrosshair": false,
              "vcamFov": 40.0,
              "OMHGAKJIEFB": ""
            },
            {
              "$type": "KJCHPDPBJHL",
              "boolID": "LockMotionFlagExitChannel",
              "param3": true
            },
            {
              "$type": "BOBCOJHOKKD",
              "param3": 1.0,
              "key": "_ABILITY_Common_IsChannelState",
              "param2": 0.0,
              "repeatTimes": 0.0
            }
          ],
          "onRemoved": [
            {
              "$type": "LJEDLFDLLDP",
              "shieldHP": true,
              "keepRotation": true,
              "exitCameraRadius": 4.800000190734863
            },
            {
              "$type": "KJCHPDPBJHL",
              "shieldHP": true,
              "boolID": "LockMotionFlagExitChannel"
            },
            {
              "$type": "BOBCOJHOKKD",
              "shieldHP": true,
              "param3": 0.0,
              "key": "_ABILITY_Common_IsChannelState",
              "param2": 0.0,
              "repeatTimes": 0.0
            }
          ]
        },
        "Shoot_Short": {
          "stacking": "Unique",
          "modifierName": "",
          "elementDurability": 0.5,
          "IPFJJJGABPL": 100.0,
          "onAdded": [
            {
              "$type": "OCLNBBMMIOK",
              "shieldHP": true,
              "skillID": 20362,
              "amountByTargetCurrentHPRatio": 1.0,
              "costStaminaRatio": 1.0
            },
            {
              "$type": "KBFEIHEAMBM",
              "predicates": [
                {
                  "$type": "HHHMNCNPBDK",
                  "predicates": [
                    {
                      "$type": "BGMAGODJEMF",
                      "featureTagIDs": [
                        1043
                      ]
                    },
                    {
                      "$type": "BGMAGODJEMF",
                      "featureTagIDs": [
                        1044
                      ]
                    }
                  ]
                }
              ],
              "rotationDampTime": "Eff_Activity_Pitch_Pot_Shoot_Short",
              "PPPDJGDDOGD": 1.0,
              "AJDILHJFNKE": -1.0
            },
            {
              "$type": "KBFEIHEAMBM",
              "predicates": [
                {
                  "$type": "HHHMNCNPBDK",
                  "predicates": [
                    {
                      "$type": "BGMAGODJEMF",
                      "featureTagIDs": [
                        1041
                      ]
                    },
                    {
                      "$type": "BGMAGODJEMF",
                      "featureTagIDs": [
                        1042
                      ]
                    }
                  ]
                }
              ],
              "rotationDampTime": "Eff_Activity_Pitch_Pot_Shoot_Short_MaleLady",
              "PPPDJGDDOGD": 1.0,
              "AJDILHJFNKE": -1.0
            },
            {
              "$type": "KBFEIHEAMBM",
              "predicates": [
                {
                  "$type": "BGMAGODJEMF",
                  "featureTagIDs": [
                    1045
                  ]
                }
              ],
              "rotationDampTime": "Eff_Activity_Pitch_Pot_Shoot_Short_Loli",
              "PPPDJGDDOGD": 1.0,
              "AJDILHJFNKE": -1.0
            },
            {
              "$type": "CAKDDHLKOAB",
              "predicates": [
                {
                  "$type": "HHHMNCNPBDK",
                  "predicates": [
                    {
                      "$type": "BGMAGODJEMF",
                      "featureTagIDs": [
                        1043
                      ]
                    },
                    {
                      "$type": "BGMAGODJEMF",
                      "featureTagIDs": [
                        1044
                      ]
                    }
                  ]
                }
              ],
              "bulletID": 42000003,
              "born": {
                "$type": "IAENDIPDFKD",
                "offset": {
                  "KGEPIMHBMOL": 0.0,
                  "JEBHCGDPFEJ": 1.2000000476837158,
                  "LPCHALMFFOD": 0.5
                },
                "direction": {
                  "$type": "LHBLDEOLGKF",
                  "angleOffset": {
                    "KGEPIMHBMOL": 0.0,
                    "JEBHCGDPFEJ": 0.0,
                    "LPCHALMFFOD": 0.0
                  },
                  "attachPointName": "FocusAnchor",
                  "attachPointTargetType": "Self"
                },
                "useRotation": true
              }
            },
            {
              "$type": "CAKDDHLKOAB",
              "predicates": [
                {
                  "$type": "HHHMNCNPBDK",
                  "predicates": [
                    {
                      "$type": "BGMAGODJEMF",
                      "featureTagIDs": [
                        1041
                      ]
                    },
                    {
                      "$type": "BGMAGODJEMF",
                      "featureTagIDs": [
                        1042
                      ]
                    }
                  ]
                }
              ],
              "bulletID": 42000003,
              "born": {
                "$type": "IAENDIPDFKD",
                "offset": {
                  "KGEPIMHBMOL": 0.0,
                  "JEBHCGDPFEJ": 1.399999976158142,
                  "LPCHALMFFOD": 0.5
                },
                "direction": {
                  "$type": "LHBLDEOLGKF",
                  "angleOffset": {
                    "KGEPIMHBMOL": 0.0,
                    "JEBHCGDPFEJ": 0.0,
                    "LPCHALMFFOD": 0.0
                  },
                  "attachPointName": "FocusAnchor",
                  "attachPointTargetType": "Self"
                },
                "useRotation": true
              }
            },
            {
              "$type": "CAKDDHLKOAB",
              "predicates": [
                {
                  "$type": "BGMAGODJEMF",
                  "featureTagIDs": [
                    1045
                  ]
                }
              ],
              "bulletID": 42000003,
              "born": {
                "$type": "IAENDIPDFKD",
                "offset": {
                  "KGEPIMHBMOL": 0.0,
                  "JEBHCGDPFEJ": 0.8500000238418579,
                  "LPCHALMFFOD": 0.5
                },
                "direction": {
                  "$type": "LHBLDEOLGKF",
                  "angleOffset": {
                    "KGEPIMHBMOL": 0.0,
                    "JEBHCGDPFEJ": 0.0,
                    "LPCHALMFFOD": 0.0
                  },
                  "attachPointName": "FocusAnchor",
                  "attachPointTargetType": "Self"
                },
                "useRotation": true
              }
            }
          ]
        },
        "Shoot_Once": {
          "stacking": "Multiple",
          "modifierName": "",
          "elementDurability": 0.10000000149011612,
          "IPFJJJGABPL": 100.0,
          "onAdded": [
            {
              "$type": "OCLNBBMMIOK",
              "shieldHP": true,
              "skillID": 20362,
              "amountByTargetCurrentHPRatio": 1.0,
              "costStaminaRatio": 1.0
            },
            {
              "$type": "KBFEIHEAMBM",
              "rotationDampTime": "Eff_Activity_Pitch_Pot_Shoot",
              "PPPDJGDDOGD": 1.0,
              "AJDILHJFNKE": -1.0
            },
            {
              "$type": "MPAGCPPAIHJ",
              "shieldHP": true,
              "key": "_ABILITY_Pitch_Pot_Throw_Pos",
              "born": {
                "$type": "KLPANPDGHHA",
                "offset": {
                  "KGEPIMHBMOL": 0.0,
                  "JEBHCGDPFEJ": 0.0,
                  "LPCHALMFFOD": 0.0
                },
                "useRotation": true,
                "attachPointName": "WeaponR"
              },
              "setTarget": false
            },
            {
              "$type": "ENBLCDCKLMK",
              "shieldHP": true,
              "key": "_ABILITY_Pitch_Pot_Throw_Dir",
              "born": {
                "$type": "EPICDEIDAMH",
                "direction": {
                  "$type": "JNKPDKHFJJB",
                  "angleOffset": {
                    "KGEPIMHBMOL": -40.0,
                    "JEBHCGDPFEJ": 5.0,
                    "LPCHALMFFOD": 0.0
                  },
                  "useCorrectDir": true
                }
              },
              "setTarget": false
            },
            {
              "$type": "CAKDDHLKOAB",
              "bulletID": 42000003,
              "born": {
                "$type": "ICKMMAHFNIM",
                "positionKey": "_ABILITY_Pitch_Pot_Throw_Pos",
                "directionKey": "_ABILITY_Pitch_Pot_Throw_Dir"
              }
            }
          ],
          "onRemoved": [
            {
              "$type": "BLCCGIPAOIP",
              "shieldHP": true,
              "PLLJBINMGJK": "EndChannelTrigger"
            }
          ]
        },
        "Shoot_Conti_Delay": {
          "modifierName": "",
          "IPFJJJGABPL": 100.0,
          "thinkInterval": 0.30000001192092896,
          "onThinkInterval": [
            {
              "$type": "JLDEMMJAMLC",
              "modifierName": "Shoot_Conti"
            }
          ]
        },
        "Shoot_Conti": {
          "stacking": "Unique",
          "modifierName": "",
          "IPFJJJGABPL": 100.0,
          "thinkInterval": 0.33000001311302185,
          "onThinkInterval": [
            {
              "$type": "MPAGCPPAIHJ",
              "shieldHP": true,
              "key": "_ABILITY_Pitch_Pot_Throw_Pos",
              "born": {
                "$type": "KLPANPDGHHA",
                "offset": {
                  "KGEPIMHBMOL": 0.0,
                  "JEBHCGDPFEJ": 0.0,
                  "LPCHALMFFOD": 0.0
                },
                "useRotation": true,
                "attachPointName": "WeaponR"
              },
              "setTarget": false
            },
            {
              "$type": "ENBLCDCKLMK",
              "shieldHP": true,
              "key": "_ABILITY_Pitch_Pot_Throw_Dir",
              "born": {
                "$type": "EPICDEIDAMH",
                "direction": {
                  "$type": "JNKPDKHFJJB",
                  "angleOffset": {
                    "KGEPIMHBMOL": -40.0,
                    "JEBHCGDPFEJ": 5.0,
                    "LPCHALMFFOD": 0.0
                  },
                  "useCorrectDir": true
                }
              },
              "setTarget": false
            },
            {
              "$type": "CAKDDHLKOAB",
              "bulletID": 42000003,
              "born": {
                "$type": "ICKMMAHFNIM",
                "positionKey": "_ABILITY_Pitch_Pot_Throw_Pos",
                "directionKey": "_ABILITY_Pitch_Pot_Throw_Dir"
              }
            }
          ]
        },
        "Charge_FX": {
          "modifierName": "",
          "IPFJJJGABPL": 100.0,
          "onAdded": [
            {
              "$type": "ANLOBBMKNIJ",
              "rotationDampTime": "Eff_Activity_Pitch_Pot_Aim_Line",
              "PPPDJGDDOGD": 1.0,
              "AJDILHJFNKE": -1.0
            }
          ]
        }
      },
      "onAdded": [
        {
          "$type": "JLDEMMJAMLC",
          "modifierName": "UNIQUE_Activity_Pitch_Pot_Throw_ChangePlayMode_Team"
        },
        {
          "$type": "JLDEMMJAMLC",
          "modifierName": "UNIQUE_Activity_Pitch_Pot_Throw_Add_Skill"
        },
        {
          "$type": "JLDEMMJAMLC",
          "modifierName": "UNIQUE_Activity_Pitch_Pot_Throw_Switch_Skill"
        },
        {
          "$type": "JLDEMMJAMLC",
          "target": "Team",
          "modifierName": "UNIQUE_Activity_Pitch_Pot_Team_Buff_Handler"
        }
      ],
      "isDynamicAbility": true
    }
  },
  {
    "Default": {
      "$type": "CBPBEHLOHKI",
      "abilityName": "Activity_Pitch_Pot_Throw_Bullet",
      "abilityMixins": [
        {
          "$type": "NDFFAEHJMAL",
          "globalValueKey": "Mark_Bullet_Triggered",
          "actions": [
            {
              "$type": "KBFEIHEAMBM",
              "predicates": [
                {
                  "$type": "CNGGLKHONAA",
                  "target": "Self",
                  "key": "Mark_Bullet_Triggered",
                  "param3": 0.0,
                  "compareType": "MoreThan"
                }
              ],
              "rotationDampTime": "Eff_Arrow_Hit_Monster",
              "PPPDJGDDOGD": 1.0,
              "AJDILHJFNKE": -1.0
            },
            {
              "$type": "PELJALPANCA",
              "predicates": [
                {
                  "$type": "CNGGLKHONAA",
                  "target": "Self",
                  "key": "Mark_Bullet_Triggered",
                  "param3": 0.0,
                  "compareType": "MoreThan"
                }
              ],
              "modifierName": "Bullet_Killself_Handler"
            }
          ]
        },
        {
          "$type": "JFAADLIBKKI",
          "onHittingOther": [
            {
              "$type": "FNPMFLOOCDD",
              "param3": 1.0,
              "key": "_Explode_Hit",
              "param2": 0.0,
              "repeatTimes": 0.0
            },
            {
              "$type": "LDIAIDLOPEE",
              "globalValueKey": "_Explode_Hit",
              "overrideMapKey": "_Explode_Call"
            },
            {
              "$type": "INBCDALOHMP",
              "target": "Target",
              "targetPredicates": [
                {
                  "$type": "HHHMNCNPBDK",
                  "predicates": [
                    {
                      "$type": "JHAJOBAACDP",
                      "tag": "Is_NormalPot"
                    },
                    {
                      "$type": "JHAJOBAACDP",
                      "tag": "Is_HugePot"
                    },
                    {
                      "$type": "JHAJOBAACDP",
                      "tag": "Is_Board"
                    },
                    {
                      "$type": "JHAJOBAACDP",
                      "tag": "Is_Predictable"
                    }
                  ]
                }
              ],
              "successActions": [
                {
                  "$type": "ELNHKGAPIBJ",
                  "content": "[JarDestory]:HitOtherNormalJar"
                },
                {
                  "$type": "PELJALPANCA",
                  "target": "Target",
                  "modifierName": "UNIQUE_Pot_To_Avatar_SLC_Handler"
                }
              ]
            },
            {
              "$type": "INBCDALOHMP",
              "target": "Target",
              "targetPredicates": [
                {
                  "$type": "JHAJOBAACDP",
                  "tag": "Is_ExplodePot"
                }
              ],
              "successActions": [
                {
                  "$type": "ELNHKGAPIBJ",
                  "content": "[JarDestory]:HitOtherExplodeJar"
                },
                {
                  "$type": "PELJALPANCA",
                  "target": "Target",
                  "modifierName": "UNIQUE_ExpPot_Attack_Handler"
                },
                {
                  "$type": "PELJALPANCA",
                  "target": "Target",
                  "modifierName": "UNIQUE_Pot_To_Avatar_SLC_Handler"
                }
              ]
            }
          ]
        }
      ],
      "abilitySpecials": {
        "_Ratio_Update_Gallery": 1.0,
        "_Explode_Call": 0.0
      },
      "modifiers": {
        "Bullet_Killself_Handler": {
          "modifierName": "",
          "elementDurability": 0.20000000298023224,
          "IPFJJJGABPL": 100.0,
          "onRemoved": [
            {
              "$type": "ELNHKGAPIBJ",
              "content": "Jar Bullet Triggered"
            },
            {
              "$type": "NCFFNDHGCMH"
            }
          ]
        },
        "Bullet_Eff": {
          "modifierName": "",
          "IPFJJJGABPL": 100.0,
          "onAdded": [
            {
              "$type": "ANLOBBMKNIJ",
              "predicates": [
                {
                  "$type": "CNGGLKHONAA",
                  "target": "Self",
                  "key": "_ABILITY_Pitch_Pot_Buff_Bullet_Mark",
                  "param3": 0.0,
                  "compareType": "NoneOrEqual"
                }
              ],
              "rotationDampTime": "Eff_Activity_Pitch_Pot_Bullet_02",
              "PPPDJGDDOGD": 1.0,
              "AJDILHJFNKE": -1.0
            },
            {
              "$type": "ANLOBBMKNIJ",
              "predicates": [
                {
                  "$type": "CNGGLKHONAA",
                  "target": "Self",
                  "key": "_ABILITY_Pitch_Pot_Buff_Bullet_Mark",
                  "param3": 1.0
                }
              ],
              "rotationDampTime": "Eff_Activity_Pitch_Pot_Bullet_01",
              "PPPDJGDDOGD": 1.0,
              "AJDILHJFNKE": -1.0
            }
          ]
        },
        "UNIQUE_Pot_To_Avatar_SLC_Handler": {
          "stacking": "Unique",
          "modifierName": "",
          "forceTriggerWhenChangeAuthority": true,
          "elementDurability": 0.20000000298023224,
          "IPFJJJGABPL": 100.0,
          "onAdded": [
            {
              "$type": "PELJALPANCA",
              "target": "ApplierOriginOnwer",
              "modifierName": "Pot_Call_From_Avatar"
            }
          ]
        },
        "Pot_Call_From_Avatar": {
          "stacking": "MultipleRefresh",
          "modifierName": "",
          "elementDurability": 0.20000000298023224,
          "IPFJJJGABPL": 100.0,
          "onAdded": [
            {
              "$type": "ELNHKGAPIBJ",
              "content": "[JarDestory]:PlayerSLC"
            },
            {
              "$type": "AHPEKICBIIL",
              "target": "Applier",
              "luaCallType": "CurGalleryControlGroup",
              "funcName": "SLC_Submit_Score_Ratio",
              "paramNum": 2,
              "param1": "_Ratio_Update_Gallery",
              "MGAMDEHMCOL": "_Explode_Call",
              "MMHOHAOGPLP": 0.0
            }
          ]
        },
        "UNIQUE_ExpPot_Attack_Handler": {
          "stacking": "Unique",
          "modifierName": "",
          "forceTriggerWhenChangeAuthority": true,
          "elementDurability": 1.0,
          "IPFJJJGABPL": 100.0,
          "onAdded": [
            {
              "$type": "AIFPLABJNMA",
              "target": "Applier",
              "attackEvent": {
                "attackPattern": {
                  "$type": "BELNOFAKNBA",
                  "triggerType": "TriggerNoRepeat",
                  "born": {
                    "$type": "KLPANPDGHHA",
                    "useRotation": true,
                    "attachPointName": "RootNode",
                    "attachPointTargetType": "Self"
                  },
                  "OAHPDLJIADP": 3.0
                },
                "attackInfo": {
                  "attackTag": "",
                  "attenuationTag": "",
                  "attenuationGroup": "default",
                  "attackProperty": {
                    "actorGrassSubHurtDelta": 0.0,
                    "actorWindSubHurtDelta": 0.0,
                    "IPFJJJGABPL": 0.0,
                    "strikeType": "Blunt",
                    "enBreak": 0.0,
                    "GLKMCMDJBIK": 0.0
                  }
                }
              },
              "targetType": "All"
            }
          ]
        }
      },
      "onAdded": [
        {
          "$type": "BEMPFJGAPHG",
          "srcTarget": "OriginOwner",
          "dstTarget": "Self",
          "srcKey": "_ABILITY_Pitch_Pot_Buff_Avatar_Mark",
          "dstKey": "_ABILITY_Pitch_Pot_Buff_Bullet_Mark"
        },
        {
          "$type": "JLDEMMJAMLC",
          "modifierName": "Bullet_Eff"
        },
        {
          "$type": "FNPMFLOOCDD",
          "param3": 0.0,
          "key": "Mark_Bullet_Triggered",
          "param2": 0.0,
          "repeatTimes": 0.0
        },
        {
          "$type": "FNPMFLOOCDD",
          "param3": 1.0,
          "key": "_Ratio_Jar_Score",
          "param2": 0.0,
          "repeatTimes": 0.0
        },
        {
          "$type": "FNPMFLOOCDD",
          "param3": 0.0,
          "key": "_Explode_Hit",
          "param2": 0.0,
          "repeatTimes": 0.0
        }
      ],
      "onAbilityStart": [
        {
          "$type": "INBCDALOHMP",
          "target": "Other",
          "targetPredicates": [
            {
              "$type": "JHAJOBAACDP",
              "tag": "Is_ScoreRing"
            }
          ],
          "successActions": [
            {
              "$type": "ELNHKGAPIBJ",
              "content": "[JarDestory]:HitAddRing,AddRatio"
            },
            {
              "$type": "FNPMFLOOCDD",
              "param3": 2.0,
              "key": "_Ratio_Jar_Score",
              "param2": 0.0,
              "repeatTimes": 0.0
            }
          ]
        },
        {
          "$type": "INBCDALOHMP",
          "target": "Target",
          "targetPredicates": [
            {
              "$type": "HHHMNCNPBDK",
              "predicates": [
                {
                  "$type": "JHAJOBAACDP",
                  "tag": "Is_ScoreRing"
                },
                {
                  "$type": "JHAJOBAACDP",
                  "tag": "Is_NormalPot"
                },
                {
                  "$type": "JHAJOBAACDP",
                  "tag": "Is_HugePot"
                },
                {
                  "$type": "JHAJOBAACDP",
                  "tag": "Is_Board"
                },
                {
                  "$type": "JHAJOBAACDP",
                  "tag": "Is_Predictable"
                }
              ]
            },
            {
              "$type": "CNGGLKHONAA",
              "target": "Self",
              "key": "Mark_Bullet_Triggered",
              "param3": 0.0
            }
          ],
          "successActions": [
            {
              "$type": "ELNHKGAPIBJ",
              "content": "[JarDestory]:HitNormalJar"
            },
            {
              "$type": "LDIAIDLOPEE",
              "globalValueKey": "_Ratio_Jar_Score",
              "overrideMapKey": "_Ratio_Update_Gallery"
            },
            {
              "$type": "PELJALPANCA",
              "target": "Target",
              "modifierName": "UNIQUE_Pot_To_Avatar_SLC_Handler"
            }
          ]
        },
        {
          "$type": "INBCDALOHMP",
          "target": "Target",
          "targetPredicates": [
            {
              "$type": "JHAJOBAACDP",
              "tag": "Is_ExplodePot"
            },
            {
              "$type": "CNGGLKHONAA",
              "target": "Self",
              "key": "Mark_Bullet_Triggered",
              "param3": 0.0
            }
          ],
          "successActions": [
            {
              "$type": "ELNHKGAPIBJ",
              "content": "[JarDestory]:HitExplodeJar"
            },
            {
              "$type": "LDIAIDLOPEE",
              "globalValueKey": "_Ratio_Jar_Score",
              "overrideMapKey": "_Ratio_Update_Gallery"
            },
            {
              "$type": "PENMIJBLLPF",
              "actionList": [
                {
                  "$type": "HPIHJNIOBBL",
                  "operation": {
                    "$type": "AKCGGGOIJAO",
                    "operation": {
                      "text": "Play_motion_amb_scnerObj_gear_CannonTarget_07"
                    }
                  }
                }
              ]
            },
            {
              "$type": "PELJALPANCA",
              "target": "Target",
              "modifierName": "UNIQUE_ExpPot_Attack_Handler"
            },
            {
              "$type": "PELJALPANCA",
              "target": "Target",
              "modifierName": "UNIQUE_Pot_To_Avatar_SLC_Handler"
            }
          ]
        },
        {
          "$type": "INBCDALOHMP",
          "target": "Other",
          "targetPredicates": [
            {
              "$type": "HHHMNCNPBDK",
              "predicates": [
                {
                  "$type": "JHAJOBAACDP",
                  "tag": "Is_NormalPot"
                },
                {
                  "$type": "JHAJOBAACDP",
                  "tag": "Is_HugePot"
                },
                {
                  "$type": "JHAJOBAACDP",
                  "tag": "Is_Board"
                },
                {
                  "$type": "JHAJOBAACDP",
                  "tag": "Is_ExplodePot"
                },
                {
                  "$type": "JHAJOBAACDP",
                  "tag": "Is_Predictable"
                },
                {
                  "$type": "NIMAPECDNKD",
                  "entityTypes": [
                    "Level"
                  ]
                }
              ]
            }
          ],
          "successActions": [
            {
              "$type": "FNPMFLOOCDD",
              "param3": 1.0,
              "key": "Mark_Bullet_Triggered",
              "param2": 0.0,
              "repeatTimes": 0.0
            }
          ]
        }
      ]
    }
  },
  {
    "Default": {
      "$type": "CBPBEHLOHKI",
      "abilityName": "Activity_Pitch_Pot_Throw_WQ",
      "modifiers": {
        "Activity_Pitch_Pot_Throw_ChangePlayMode_WQ_OnAvatar": {
          "modifierName": "",
          "IPFJJJGABPL": 100.0,
          "onAdded": [
            {
              "$type": "JLDEMMJAMLC",
              "target": "Team",
              "modifierName": "UNIQUE_Activity_Pitch_Pot_Throw_ChangePlayMode_WQ_Team"
            }
          ]
        },
        "UNIQUE_Activity_Pitch_Pot_Throw_ChangePlayMode_WQ_Team": {
          "stacking": "Unique",
          "modifierName": "",
          "forceTriggerWhenChangeAuthority": true,
          "IPFJJJGABPL": 100.0,
          "modifierMixins": [
            {
              "$type": "CIGJDPCDOEB",
              "onAdded": [
                {
                  "$type": "PPDJHLBHCIK",
                  "shieldHP": true,
                  "muteRemoteAction": true,
                  "toPlayMode": "PitchPot"
                }
              ],
              "onRemoved": [
                {
                  "$type": "PPDJHLBHCIK",
                  "shieldHP": true,
                  "canBeHandledOnRecover": true,
                  "muteRemoteAction": true,
                  "JFDCCIECAJB": "PitchPot"
                }
              ]
            },
            {
              "$type": "BAAHKAFDLOB"
            }
          ]
        },
        "UNIQUE_Activity_Pitch_Pot_Throw_Add_Skill_WQ": {
          "stacking": "Unique",
          "modifierName": "",
          "forceTriggerWhenChangeAuthority": true,
          "IPFJJJGABPL": 100.0,
          "onAdded": [
            {
              "$type": "PDFENCBHHAI",
              "shieldHP": true,
              "skillID": 20365
            }
          ],
          "onRemoved": [
            {
              "$type": "KFOBADMAFJF",
              "shieldHP": true,
              "skillID": 20365,
              "refreshAfterRemove": true
            }
          ]
        },
        "UNIQUE_Activity_Pitch_Pot_Throw_Switch_Skill_WQ": {
          "stacking": "Unique",
          "modifierName": "",
          "forceTriggerWhenChangeAuthority": true,
          "IPFJJJGABPL": 100.0,
          "modifierMixins": [
            {
              "$type": "BBDLKGEJDOJ",
              "priority": "PlaymodeExtra1",
              "skillID": 20365
            }
          ],
          "onAdded": [
            {
              "$type": "JLDEMMJAMLC",
              "modifierName": "Activity_Pitch_Pot_Throw_Hold_Driver_Once_WQ"
            }
          ]
        },
        "Activity_Pitch_Pot_Throw_Hold_Driver_Once_WQ": {
          "modifierName": "",
          "IPFJJJGABPL": 100.0,
          "modifierMixins": [
            {
              "$type": "EKMHJKDLBJH",
              "stateIDs": [
                "Channel_Loop"
              ],
              "modifierName": "Charge_FX",
              "DGFCLAIDIFI": ""
            },
            {
              "$type": "GODEMHMODCN",
              "skillID": 20365,
              "EKKJNADOEMB": 0.15000000596046448,
              "onBeginCharged": [
                {
                  "$type": "BOBCOJHOKKD",
                  "shieldHP": true,
                  "param3": 0.0,
                  "key": "_ABILITY_Common_Channel_IsTrigger",
                  "param2": 0.0,
                  "repeatTimes": 0.0
                }
              ],
              "onReleaseCharged": [
                {
                  "$type": "PELJALPANCA",
                  "shieldHP": true,
                  "modifierName": "Shoot_Short"
                }
              ],
              "onBeginSecondCharged": [
                {
                  "$type": "BLCCGIPAOIP",
                  "PLLJBINMGJK": "StartChannelTrigger"
                }
              ],
              "onReleaseSecondCharged": [
                {
                  "$type": "PELJALPANCA",
                  "shieldHP": true,
                  "predicates": [
                    {
                      "$type": "CNGGLKHONAA",
                      "key": "_ABILITY_Common_Channel_IsTrigger",
                      "param3": 0.0
                    }
                  ],
                  "modifierName": "Shoot_Once"
                },
                {
                  "$type": "BOBCOJHOKKD",
                  "shieldHP": true,
                  "param3": 1.0,
                  "key": "_ABILITY_Common_Channel_IsTrigger",
                  "param2": 0.0,
                  "repeatTimes": 0.0
                }
              ],
              "onCancelCharged": [
                {
                  "$type": "BLCCGIPAOIP",
                  "PLLJBINMGJK": "EndChannelTrigger"
                }
              ],
              "chargeStateIDs": [
                "Channel_Loop"
              ]
            },
            {
              "$type": "EKMHJKDLBJH",
              "stateIDs": [
                "Channel_BS",
                "Channel_Loop"
              ],
              "modifierName": "Focus",
              "DGFCLAIDIFI": ""
            }
          ]
        },
        "Trigger_OnExit": {
          "modifierName": "",
          "IPFJJJGABPL": 100.0,
          "onRemoved": [
            {
              "$type": "PELJALPANCA",
              "shieldHP": true,
              "predicates": [
                {
                  "$type": "CNGGLKHONAA",
                  "key": "_ABILITY_Common_Channel_IsTrigger",
                  "param3": 0.0
                }
              ],
              "modifierName": "Shoot_Short"
            },
            {
              "$type": "BOBCOJHOKKD",
              "shieldHP": true,
              "param3": 1.0,
              "key": "_ABILITY_Common_Channel_IsTrigger",
              "param2": 0.0,
              "repeatTimes": 0.0
            }
          ]
        },
        "Focus": {
          "modifierName": "",
          "IPFJJJGABPL": 100.0,
          "onAdded": [
            {
              "$type": "ANLOBBMKNIJ",
              "rotationDampTime": "Eff_Activity_Pitch_Pot_Charging",
              "PPPDJGDDOGD": 1.0,
              "AJDILHJFNKE": -1.0
            },
            {
              "$type": "BAGMOLODOME",
              "cameraFollowLower": {
                "x": 0.800000011920929,
                "y": 1.899999976158142,
                "z": -4.5
              },
              "cameraFollowUpper": {
                "x": 0.5,
                "y": 0.6000000238418579,
                "z": -2.5
              },
              "cameraFollowMaxDegree": 40.0,
              "cameraFollowMinDegree": -35.0,
              "cameraFastFocusMode": true,
              "dragButtonName": "Skill1",
              "assistance": {
                "ps4": {},
                "ps5": {},
                "other": {
                  "useGyro": true
                }
              },
              "canMove": false,
              "showCrosshair": false,
              "vcamFov": 40.0,
              "OMHGAKJIEFB": ""
            },
            {
              "$type": "KJCHPDPBJHL",
              "boolID": "LockMotionFlagExitChannel",
              "param3": true
            },
            {
              "$type": "BOBCOJHOKKD",
              "param3": 1.0,
              "key": "_ABILITY_Common_IsChannelState",
              "param2": 0.0,
              "repeatTimes": 0.0
            }
          ],
          "onRemoved": [
            {
              "$type": "LJEDLFDLLDP",
              "shieldHP": true,
              "keepRotation": true,
              "exitCameraRadius": 4.800000190734863
            },
            {
              "$type": "KJCHPDPBJHL",
              "shieldHP": true,
              "boolID": "LockMotionFlagExitChannel"
            },
            {
              "$type": "BOBCOJHOKKD",
              "shieldHP": true,
              "param3": 0.0,
              "key": "_ABILITY_Common_IsChannelState",
              "param2": 0.0,
              "repeatTimes": 0.0
            }
          ]
        },
        "Shoot_Short": {
          "stacking": "Unique",
          "modifierName": "",
          "elementDurability": 0.5,
          "IPFJJJGABPL": 100.0,
          "onAdded": [
            {
              "$type": "OCLNBBMMIOK",
              "shieldHP": true,
              "skillID": 20365,
              "amountByTargetCurrentHPRatio": 1.0,
              "costStaminaRatio": 1.0
            },
            {
              "$type": "KBFEIHEAMBM",
              "predicates": [
                {
                  "$type": "HHHMNCNPBDK",
                  "predicates": [
                    {
                      "$type": "BGMAGODJEMF",
                      "featureTagIDs": [
                        1043
                      ]
                    },
                    {
                      "$type": "BGMAGODJEMF",
                      "featureTagIDs": [
                        1044
                      ]
                    }
                  ]
                }
              ],
              "rotationDampTime": "Eff_Activity_Pitch_Pot_Shoot_Short",
              "PPPDJGDDOGD": 1.0,
              "AJDILHJFNKE": -1.0
            },
            {
              "$type": "KBFEIHEAMBM",
              "predicates": [
                {
                  "$type": "HHHMNCNPBDK",
                  "predicates": [
                    {
                      "$type": "BGMAGODJEMF",
                      "featureTagIDs": [
                        1041
                      ]
                    },
                    {
                      "$type": "BGMAGODJEMF",
                      "featureTagIDs": [
                        1042
                      ]
                    }
                  ]
                }
              ],
              "rotationDampTime": "Eff_Activity_Pitch_Pot_Shoot_Short_MaleLady",
              "PPPDJGDDOGD": 1.0,
              "AJDILHJFNKE": -1.0
            },
            {
              "$type": "KBFEIHEAMBM",
              "predicates": [
                {
                  "$type": "BGMAGODJEMF",
                  "featureTagIDs": [
                    1045
                  ]
                }
              ],
              "rotationDampTime": "Eff_Activity_Pitch_Pot_Shoot_Short_Loli",
              "PPPDJGDDOGD": 1.0,
              "AJDILHJFNKE": -1.0
            },
            {
              "$type": "CAKDDHLKOAB",
              "predicates": [
                {
                  "$type": "HHHMNCNPBDK",
                  "predicates": [
                    {
                      "$type": "BGMAGODJEMF",
                      "featureTagIDs": [
                        1043
                      ]
                    },
                    {
                      "$type": "BGMAGODJEMF",
                      "featureTagIDs": [
                        1044
                      ]
                    }
                  ]
                }
              ],
              "bulletID": 42000004,
              "born": {
                "$type": "IAENDIPDFKD",
                "offset": {
                  "KGEPIMHBMOL": 0.0,
                  "JEBHCGDPFEJ": 1.2000000476837158,
                  "LPCHALMFFOD": 0.5
                },
                "direction": {
                  "$type": "LHBLDEOLGKF",
                  "angleOffset": {
                    "KGEPIMHBMOL": 0.0,
                    "JEBHCGDPFEJ": 0.0,
                    "LPCHALMFFOD": 0.0
                  },
                  "attachPointName": "FocusAnchor",
                  "attachPointTargetType": "Self"
                },
                "useRotation": true
              }
            },
            {
              "$type": "CAKDDHLKOAB",
              "predicates": [
                {
                  "$type": "HHHMNCNPBDK",
                  "predicates": [
                    {
                      "$type": "BGMAGODJEMF",
                      "featureTagIDs": [
                        1041
                      ]
                    },
                    {
                      "$type": "BGMAGODJEMF",
                      "featureTagIDs": [
                        1042
                      ]
                    }
                  ]
                }
              ],
              "bulletID": 42000004,
              "born": {
                "$type": "IAENDIPDFKD",
                "offset": {
                  "KGEPIMHBMOL": 0.0,
                  "JEBHCGDPFEJ": 1.399999976158142,
                  "LPCHALMFFOD": 0.5
                },
                "direction": {
                  "$type": "LHBLDEOLGKF",
                  "angleOffset": {
                    "KGEPIMHBMOL": 0.0,
                    "JEBHCGDPFEJ": 0.0,
                    "LPCHALMFFOD": 0.0
                  },
                  "attachPointName": "FocusAnchor",
                  "attachPointTargetType": "Self"
                },
                "useRotation": true
              }
            },
            {
              "$type": "CAKDDHLKOAB",
              "predicates": [
                {
                  "$type": "BGMAGODJEMF",
                  "featureTagIDs": [
                    1045
                  ]
                }
              ],
              "bulletID": 42000004,
              "born": {
                "$type": "IAENDIPDFKD",
                "offset": {
                  "KGEPIMHBMOL": 0.0,
                  "JEBHCGDPFEJ": 0.8500000238418579,
                  "LPCHALMFFOD": 0.5
                },
                "direction": {
                  "$type": "LHBLDEOLGKF",
                  "angleOffset": {
                    "KGEPIMHBMOL": 0.0,
                    "JEBHCGDPFEJ": 0.0,
                    "LPCHALMFFOD": 0.0
                  },
                  "attachPointName": "FocusAnchor",
                  "attachPointTargetType": "Self"
                },
                "useRotation": true
              }
            }
          ]
        },
        "Shoot_Once": {
          "stacking": "Multiple",
          "modifierName": "",
          "elementDurability": 0.10000000149011612,
          "IPFJJJGABPL": 100.0,
          "onAdded": [
            {
              "$type": "OCLNBBMMIOK",
              "shieldHP": true,
              "skillID": 20365,
              "amountByTargetCurrentHPRatio": 1.0,
              "costStaminaRatio": 1.0
            },
            {
              "$type": "KBFEIHEAMBM",
              "rotationDampTime": "Eff_Activity_Pitch_Pot_Shoot",
              "PPPDJGDDOGD": 1.0,
              "AJDILHJFNKE": -1.0
            },
            {
              "$type": "MPAGCPPAIHJ",
              "shieldHP": true,
              "key": "_ABILITY_Pitch_Pot_Throw_Pos",
              "born": {
                "$type": "KLPANPDGHHA",
                "offset": {
                  "KGEPIMHBMOL": 0.0,
                  "JEBHCGDPFEJ": 0.0,
                  "LPCHALMFFOD": 0.0
                },
                "useRotation": true,
                "attachPointName": "WeaponR"
              },
              "setTarget": false
            },
            {
              "$type": "ENBLCDCKLMK",
              "shieldHP": true,
              "key": "_ABILITY_Pitch_Pot_Throw_Dir",
              "born": {
                "$type": "EPICDEIDAMH",
                "direction": {
                  "$type": "JNKPDKHFJJB",
                  "angleOffset": {
                    "KGEPIMHBMOL": -40.0,
                    "JEBHCGDPFEJ": 5.0,
                    "LPCHALMFFOD": 0.0
                  },
                  "useCorrectDir": true
                }
              },
              "setTarget": false
            },
            {
              "$type": "CAKDDHLKOAB",
              "bulletID": 42000004,
              "born": {
                "$type": "ICKMMAHFNIM",
                "positionKey": "_ABILITY_Pitch_Pot_Throw_Pos",
                "directionKey": "_ABILITY_Pitch_Pot_Throw_Dir"
              }
            }
          ],
          "onRemoved": [
            {
              "$type": "BLCCGIPAOIP",
              "shieldHP": true,
              "PLLJBINMGJK": "EndChannelTrigger"
            }
          ]
        },
        "Charge_FX": {
          "modifierName": "",
          "IPFJJJGABPL": 100.0,
          "onAdded": [
            {
              "$type": "ANLOBBMKNIJ",
              "rotationDampTime": "Eff_Activity_Pitch_Pot_Aim_Line",
              "PPPDJGDDOGD": 1.0,
              "AJDILHJFNKE": -1.0
            }
          ]
        }
      },
      "onAdded": [
        {
          "$type": "JLDEMMJAMLC",
          "modifierName": "Activity_Pitch_Pot_Throw_ChangePlayMode_WQ_OnAvatar"
        },
        {
          "$type": "JLDEMMJAMLC",
          "modifierName": "UNIQUE_Activity_Pitch_Pot_Throw_Add_Skill_WQ"
        },
        {
          "$type": "JLDEMMJAMLC",
          "modifierName": "UNIQUE_Activity_Pitch_Pot_Throw_Switch_Skill_WQ"
        }
      ],
      "isDynamicAbility": true
    }
  },
  {
    "Default": {
      "$type": "CBPBEHLOHKI",
      "abilityName": "Activity_Pitch_Pot_Throw_Bullet_02",
      "modifiers": {
        "Bullet_Eff": {
          "modifierName": "",
          "IPFJJJGABPL": 100.0,
          "onAdded": [
            {
              "$type": "ANLOBBMKNIJ",
              "rotationDampTime": "Eff_Activity_Pitch_Pot_Bullet_Pebble",
              "PPPDJGDDOGD": 1.0,
              "AJDILHJFNKE": -1.0
            }
          ]
        }
      },
      "onAdded": [
        {
          "$type": "JLDEMMJAMLC",
          "modifierName": "Bullet_Eff"
        }
      ],
      "onAbilityStart": [
        {
          "$type": "AIFPLABJNMA",
          "attackEvent": {
            "attackPattern": {
              "$type": "BELNOFAKNBA",
              "triggerType": "TriggerNoRepeat",
              "entityAttackFilter": "IgnoreSceneProp",
              "born": {
                "$type": "IAENDIPDFKD",
                "useRotation": true
              },
              "OAHPDLJIADP": 1.0
            },
            "attackInfo": {
              "attackTag": "TrainingJar",
              "attenuationTag": "",
              "attenuationGroup": "default",
              "attackProperty": {
                "actorGrassSubHurtDelta": 0.0,
                "actorWindSubHurtDelta": 0.0,
                "IPFJJJGABPL": 0.0,
                "strikeType": "Blunt",
                "enBreak": 0.0,
                "ignoreModifyDamage": true,
                "GLKMCMDJBIK": 0.0
              },
              "hitPattern": {
                "onHitEffectName": "default",
                "hitImpulseY": "",
                "hitImpulseType": "LV1"
              }
            }
          },
          "targetType": "Enemy"
        }
      ]
    }
  }
]