[
  {
    "Default": {
      "$type": "CBPBEHLOHKI",
      "abilityName": "ActivityAbility_FairyTales_Level01",
      "abilityMixins": [
        {
          "$type": "MLJAPFBGEEH",
          "globalValueKey": "SGV_FairyTales_BuffClass",
          "gvInTalk": 0.0,
          "valueSteps": [
            -0.5,
            0.5,
            1.5
          ],
          "modifierNameSteps": [
            "FairyTales_Level01_Low_BuffHandler",
            "FairyTales_Level01_High_BuffHandler"
          ],
          "NMCLMHFBALJ": true
        }
      ],
      "abilitySpecials": {
        "MasteryUp_Lv0": 0.0,
        "MasteryUp_Extra_Lv0": 0.0,
        "Duration_Lv0": 0.0,
        "MasteryUp_Lv1": 0.0,
        "MasteryUp_Extra_Lv1": 0.0,
        "Duration_Lv1": 0.0
      },
      "modifiers": {
        "Blank": {
          "modifierName": "",
          "IPFJJJGABPL": 100.0
        },
        "FairyTales_Level01_Low_BuffHandler": {
          "modifierName": "",
          "IPFJJJGABPL": 100.0,
          "modifierMixins": [
            {
              "$type": "MLJAPFBGEEH",
              "globalValueKey": "SGV_FairyTales_FairyTime",
              "gvInTalk": 0.0,
              "valueSteps": [
                -0.5,
                0.5,
                1.5
              ],
              "modifierNameSteps": [
                "Blank",
                "UNIQUE_FairyTales_Level01_Low_TeamHandler"
              ],
              "NMCLMHFBALJ": true
            }
          ]
        },
        "UNIQUE_FairyTales_Level01_Low_TeamHandler": {
          "modifierName": "",
          "forceTriggerWhenChangeAuthority": true,
          "IPFJJJGABPL": 100.0,
          "thinkInterval": 1.0,
          "onAdded": [
            {
              "$type": "JLDEMMJAMLC",
              "target": "CurTeamAvatars",
              "shieldHP": true,
              "modifierName": "UNIQUE_FairyTales_Level01_Low_Buff"
            }
          ],
          "onThinkInterval": [
            {
              "$type": "JLDEMMJAMLC",
              "target": "CurTeamAvatars",
              "shieldHP": true,
              "modifierName": "UNIQUE_FairyTales_Level01_Low_Buff"
            }
          ]
        },
        "UNIQUE_FairyTales_Level01_Low_Buff": {
          "stacking": "Unique",
          "modifierName": "",
          "forceTriggerWhenChangeAuthority": true,
          "IPFJJJGABPL": 100.0,
          "modifierMixins": [
            {
              "$type": "GEICHMDHPHI",
              "entityTypes": [
                "Monster"
              ],
              "reactionTypes": [
                "Explode",
                "Stream",
                "Burning",
                "Melt",
                "Freeze",
                "Shock",
                "Superconductor",
                "SwirlFire",
                "SwirlWater",
                "SwirlElectric",
                "SwirlIce",
                "CrystallizeFire",
                "CrystallizeWater",
                "CrystallizeElectric",
                "CrystallizeIce",
                "Overdose",
                "OverdoseElectric",
                "OverdoseGrass",
                "Overgrow",
                "OvergrowMushroomFire",
                "OvergrowMushroomElectric",
                "FrozenBroken"
              ],
              "actions": [
                {
                  "$type": "KBODPNEEFGD",
                  "target": "CurTeamAvatars",
                  "shieldHP": true,
                  "modifierName": "UNIQUE_FairyTales_Level01_Low_Buff_02"
                },
                {
                  "$type": "JLDEMMJAMLC",
                  "target": "CurTeamAvatars",
                  "shieldHP": true,
                  "modifierName": "UNIQUE_FairyTales_Level01_Low_Buff_02"
                }
              ]
            }
          ],
          "properties": {
            "Actor_ElemMasteryDelta": "MasteryUp_Lv0"
          },
          "isLimitedProperties": true
        },
        "UNIQUE_FairyTales_Level01_Low_Buff_02": {
          "stacking": "Unique",
          "modifierName": "",
          "forceTriggerWhenChangeAuthority": true,
          "elementDurability": "Duration_Lv0",
          "IPFJJJGABPL": 100.0,
          "properties": {
            "Actor_ElemMasteryDelta": "MasteryUp_Extra_Lv0"
          },
          "isLimitedProperties": true
        },
        "FairyTales_Level01_High_BuffHandler": {
          "modifierName": "",
          "IPFJJJGABPL": 100.0,
          "modifierMixins": [
            {
              "$type": "MLJAPFBGEEH",
              "globalValueKey": "SGV_FairyTales_FairyTime",
              "gvInTalk": 0.0,
              "valueSteps": [
                -0.5,
                0.5,
                1.5
              ],
              "modifierNameSteps": [
                "Blank",
                "UNIQUE_FairyTales_Level01_High_TeamHandler"
              ],
              "NMCLMHFBALJ": true
            }
          ]
        },
        "UNIQUE_FairyTales_Level01_High_TeamHandler": {
          "modifierName": "",
          "forceTriggerWhenChangeAuthority": true,
          "IPFJJJGABPL": 100.0,
          "thinkInterval": 1.0,
          "onAdded": [
            {
              "$type": "JLDEMMJAMLC",
              "target": "CurTeamAvatars",
              "shieldHP": true,
              "modifierName": "UNIQUE_FairyTales_Level01_High_Buff"
            }
          ],
          "onThinkInterval": [
            {
              "$type": "JLDEMMJAMLC",
              "target": "CurTeamAvatars",
              "shieldHP": true,
              "modifierName": "UNIQUE_FairyTales_Level01_High_Buff"
            }
          ]
        },
        "UNIQUE_FairyTales_Level01_High_Buff": {
          "stacking": "Unique",
          "modifierName": "",
          "forceTriggerWhenChangeAuthority": true,
          "IPFJJJGABPL": 100.0,
          "modifierMixins": [
            {
              "$type": "GEICHMDHPHI",
              "entityTypes": [
                "Monster"
              ],
              "reactionTypes": [
                "Explode",
                "Stream",
                "Burning",
                "Melt",
                "Freeze",
                "Shock",
                "Superconductor",
                "SwirlFire",
                "SwirlWater",
                "SwirlElectric",
                "SwirlIce",
                "CrystallizeFire",
                "CrystallizeWater",
                "CrystallizeElectric",
                "CrystallizeIce",
                "Overdose",
                "OverdoseElectric",
                "OverdoseGrass",
                "Overgrow",
                "OvergrowMushroomFire",
                "OvergrowMushroomElectric",
                "FrozenBroken"
              ],
              "actions": [
                {
                  "$type": "KBODPNEEFGD",
                  "target": "CurTeamAvatars",
                  "shieldHP": true,
                  "modifierName": "UNIQUE_FairyTales_Level01_High_Buff_02"
                },
                {
                  "$type": "JLDEMMJAMLC",
                  "target": "CurTeamAvatars",
                  "shieldHP": true,
                  "modifierName": "UNIQUE_FairyTales_Level01_High_Buff_02"
                }
              ]
            }
          ],
          "properties": {
            "Actor_ElemMasteryDelta": "MasteryUp_Lv1"
          },
          "isLimitedProperties": true
        },
        "UNIQUE_FairyTales_Level01_High_Buff_02": {
          "stacking": "Unique",
          "modifierName": "",
          "forceTriggerWhenChangeAuthority": true,
          "elementDurability": "Duration_Lv1",
          "IPFJJJGABPL": 100.0,
          "properties": {
            "Actor_ElemMasteryDelta": "MasteryUp_Extra_Lv1"
          },
          "isLimitedProperties": true
        }
      },
      "isDynamicAbility": true
    }
  },
  {
    "Default": {
      "$type": "CBPBEHLOHKI",
      "abilityName": "ActivityAbility_FairyTales_Level02",
      "abilityMixins": [
        {
          "$type": "MLJAPFBGEEH",
          "globalValueKey": "SGV_FairyTales_BuffClass",
          "gvInTalk": 0.0,
          "valueSteps": [
            -0.5,
            0.5,
            1.5
          ],
          "modifierNameSteps": [
            "FairyTales_Level02_Low_BuffHandler",
            "FairyTales_Level02_High_BuffHandler"
          ],
          "NMCLMHFBALJ": true
        }
      ],
      "abilitySpecials": {
        "Value_Lv0": 0.0,
        "Damage_Ratio_Lv0": 0.0,
        "Value_Lv1": 0.0,
        "Damage_Ratio_Lv1": 0.0
      },
      "modifiers": {
        "Blank": {
          "modifierName": "",
          "IPFJJJGABPL": 100.0
        },
        "FairyTales_Level02_Low_BuffHandler": {
          "modifierName": "",
          "IPFJJJGABPL": 100.0,
          "modifierMixins": [
            {
              "$type": "MLJAPFBGEEH",
              "globalValueKey": "SGV_FairyTales_FairyTime",
              "gvInTalk": 0.0,
              "valueSteps": [
                -0.5,
                0.5,
                1.5
              ],
              "modifierNameSteps": [
                "Blank",
                "UNIQUE_FairyTales_Level02_Low_TeamHandler"
              ],
              "NMCLMHFBALJ": true
            }
          ]
        },
        "UNIQUE_FairyTales_Level02_Low_TeamHandler": {
          "modifierName": "",
          "forceTriggerWhenChangeAuthority": true,
          "IPFJJJGABPL": 100.0,
          "thinkInterval": 1.0,
          "onAdded": [
            {
              "$type": "JLDEMMJAMLC",
              "target": "CurTeamAvatars",
              "shieldHP": true,
              "modifierName": "UNIQUE_FairyTales_Level02_Low_Buff"
            }
          ],
          "onThinkInterval": [
            {
              "$type": "JLDEMMJAMLC",
              "target": "CurTeamAvatars",
              "shieldHP": true,
              "modifierName": "UNIQUE_FairyTales_Level02_Low_Buff"
            }
          ]
        },
        "UNIQUE_FairyTales_Level02_Low_Buff": {
          "stacking": "Unique",
          "modifierName": "",
          "forceTriggerWhenChangeAuthority": true,
          "IPFJJJGABPL": 100.0,
          "modifierMixins": [
            {
              "$type": "LDBCDLJECKF",
              "attackTags": [
                "NormalAttack_01",
                "NormalAttack_02",
                "NormalAttack_03",
                "NormalAttack_04",
                "NormalAttack_05",
                "NormalAttack_06",
                "ExtraAttack",
                "FallingAttack"
              ],
              "actorWindSubHurtDelta": "Damage_Ratio_Lv0"
            }
          ],
          "properties": {
            "Actor_CostStaminaRatio": "Value_Lv0"
          },
          "isLimitedProperties": true
        },
        "FairyTales_Level02_High_BuffHandler": {
          "modifierName": "",
          "IPFJJJGABPL": 100.0,
          "modifierMixins": [
            {
              "$type": "MLJAPFBGEEH",
              "globalValueKey": "SGV_FairyTales_FairyTime",
              "gvInTalk": 0.0,
              "valueSteps": [
                -0.5,
                0.5,
                1.5
              ],
              "modifierNameSteps": [
                "Blank",
                "UNIQUE_FairyTales_Level02_High_TeamHandler"
              ],
              "NMCLMHFBALJ": true
            }
          ]
        },
        "UNIQUE_FairyTales_Level02_High_TeamHandler": {
          "modifierName": "",
          "forceTriggerWhenChangeAuthority": true,
          "IPFJJJGABPL": 100.0,
          "thinkInterval": 1.0,
          "onAdded": [
            {
              "$type": "JLDEMMJAMLC",
              "target": "CurTeamAvatars",
              "shieldHP": true,
              "modifierName": "UNIQUE_FairyTales_Level02_High_Buff"
            }
          ],
          "onThinkInterval": [
            {
              "$type": "JLDEMMJAMLC",
              "target": "CurTeamAvatars",
              "shieldHP": true,
              "modifierName": "UNIQUE_FairyTales_Level02_High_Buff"
            }
          ]
        },
        "UNIQUE_FairyTales_Level02_High_Buff": {
          "stacking": "Unique",
          "modifierName": "",
          "forceTriggerWhenChangeAuthority": true,
          "IPFJJJGABPL": 100.0,
          "modifierMixins": [
            {
              "$type": "LDBCDLJECKF",
              "attackTags": [
                "NormalAttack_01",
                "NormalAttack_02",
                "NormalAttack_03",
                "NormalAttack_04",
                "NormalAttack_05",
                "NormalAttack_06",
                "ExtraAttack",
                "FallingAttack"
              ],
              "actorWindSubHurtDelta": "Damage_Ratio_Lv1"
            }
          ],
          "properties": {
            "Actor_CostStaminaRatio": "Value_Lv1"
          },
          "isLimitedProperties": true
        }
      },
      "isDynamicAbility": true
    }
  },
  {
    "Default": {
      "$type": "CBPBEHLOHKI",
      "abilityName": "ActivityAbility_FairyTales_Level03",
      "abilityMixins": [
        {
          "$type": "MLJAPFBGEEH",
          "globalValueKey": "SGV_FairyTales_BuffClass",
          "gvInTalk": 0.0,
          "valueSteps": [
            -0.5,
            0.5,
            1.5
          ],
          "modifierNameSteps": [
            "FairyTales_Level03_Low_BuffHandler",
            "FairyTales_Level03_High_BuffHandler"
          ],
          "NMCLMHFBALJ": true
        }
      ],
      "abilitySpecials": {
        "Energy_Ratio_Lv0": 0.0,
        "Damage_Ratio_Lv0": 0.0,
        "Energy_Ratio_Lv1": 0.0,
        "Damage_Ratio_Lv1": 0.0
      },
      "modifiers": {
        "Blank": {
          "modifierName": "",
          "IPFJJJGABPL": 100.0
        },
        "FairyTales_Level03_Low_BuffHandler": {
          "modifierName": "",
          "IPFJJJGABPL": 100.0,
          "modifierMixins": [
            {
              "$type": "MLJAPFBGEEH",
              "globalValueKey": "SGV_FairyTales_FairyTime",
              "gvInTalk": 0.0,
              "valueSteps": [
                -0.5,
                0.5,
                1.5
              ],
              "modifierNameSteps": [
                "Blank",
                "UNIQUE_FairyTales_Level03_Low_TeamHandler"
              ],
              "NMCLMHFBALJ": true
            }
          ]
        },
        "UNIQUE_FairyTales_Level03_Low_TeamHandler": {
          "modifierName": "",
          "forceTriggerWhenChangeAuthority": true,
          "IPFJJJGABPL": 100.0,
          "thinkInterval": 1.0,
          "onAdded": [
            {
              "$type": "JLDEMMJAMLC",
              "target": "CurTeamAvatars",
              "shieldHP": true,
              "modifierName": "UNIQUE_FairyTales_Level03_Low_Buff"
            }
          ],
          "onThinkInterval": [
            {
              "$type": "JLDEMMJAMLC",
              "target": "CurTeamAvatars",
              "shieldHP": true,
              "modifierName": "UNIQUE_FairyTales_Level03_Low_Buff"
            }
          ]
        },
        "UNIQUE_FairyTales_Level03_Low_Buff": {
          "stacking": "Unique",
          "modifierName": "",
          "forceTriggerWhenChangeAuthority": true,
          "IPFJJJGABPL": 100.0,
          "modifierMixins": [
            {
              "$type": "LDBCDLJECKF",
              "attackTags": [
                "Elemental_Burst"
              ],
              "actorWindSubHurtDelta": "Damage_Ratio_Lv0"
            }
          ],
          "properties": {
            "Actor_ChargeEfficiencyDelta": "Energy_Ratio_Lv0"
          },
          "isLimitedProperties": true
        },
        "FairyTales_Level03_High_BuffHandler": {
          "modifierName": "",
          "IPFJJJGABPL": 100.0,
          "modifierMixins": [
            {
              "$type": "MLJAPFBGEEH",
              "globalValueKey": "SGV_FairyTales_FairyTime",
              "gvInTalk": 0.0,
              "valueSteps": [
                -0.5,
                0.5,
                1.5
              ],
              "modifierNameSteps": [
                "Blank",
                "UNIQUE_FairyTales_Level03_High_TeamHandler"
              ],
              "NMCLMHFBALJ": true
            }
          ]
        },
        "UNIQUE_FairyTales_Level03_High_TeamHandler": {
          "modifierName": "",
          "forceTriggerWhenChangeAuthority": true,
          "IPFJJJGABPL": 100.0,
          "thinkInterval": 1.0,
          "onAdded": [
            {
              "$type": "JLDEMMJAMLC",
              "target": "CurTeamAvatars",
              "shieldHP": true,
              "modifierName": "UNIQUE_FairyTales_Level03_High_Buff"
            }
          ],
          "onThinkInterval": [
            {
              "$type": "JLDEMMJAMLC",
              "target": "CurTeamAvatars",
              "shieldHP": true,
              "modifierName": "UNIQUE_FairyTales_Level03_High_Buff"
            }
          ]
        },
        "UNIQUE_FairyTales_Level03_High_Buff": {
          "stacking": "Unique",
          "modifierName": "",
          "forceTriggerWhenChangeAuthority": true,
          "IPFJJJGABPL": 100.0,
          "modifierMixins": [
            {
              "$type": "LDBCDLJECKF",
              "attackTags": [
                "Elemental_Burst"
              ],
              "actorWindSubHurtDelta": "Damage_Ratio_Lv1"
            }
          ],
          "properties": {
            "Actor_ChargeEfficiencyDelta": "Energy_Ratio_Lv1"
          },
          "isLimitedProperties": true
        }
      },
      "isDynamicAbility": true
    }
  },
  {
    "Default": {
      "$type": "CBPBEHLOHKI",
      "abilityName": "ActivityAbility_FairyTales_Level04",
      "abilityMixins": [
        {
          "$type": "MLJAPFBGEEH",
          "globalValueKey": "SGV_FairyTales_BuffClass",
          "gvInTalk": 0.0,
          "valueSteps": [
            -0.5,
            0.5,
            1.5
          ],
          "modifierNameSteps": [
            "FairyTales_Level04_Low_BuffHandler",
            "FairyTales_Level04_High_BuffHandler"
          ],
          "NMCLMHFBALJ": true
        }
      ],
      "abilitySpecials": {
        "ArtSkillUpRate_Lv0": 0.0,
        "ArtSkillUpRate_Extra_Lv0": 0.0,
        "ArtSkillUpRate_Lv1": 0.0,
        "ArtSkillUpRate_Extra_Lv1": 0.0
      },
      "modifiers": {
        "Blank": {
          "modifierName": "",
          "IPFJJJGABPL": 100.0
        },
        "FairyTales_Level04_Low_BuffHandler": {
          "modifierName": "",
          "IPFJJJGABPL": 100.0,
          "modifierMixins": [
            {
              "$type": "MLJAPFBGEEH",
              "globalValueKey": "SGV_FairyTales_FairyTime",
              "gvInTalk": 0.0,
              "valueSteps": [
                -0.5,
                0.5,
                1.5
              ],
              "modifierNameSteps": [
                "Blank",
                "UNIQUE_FairyTales_Level04_Low_TeamHandler"
              ],
              "NMCLMHFBALJ": true
            }
          ]
        },
        "UNIQUE_FairyTales_Level04_Low_TeamHandler": {
          "modifierName": "",
          "forceTriggerWhenChangeAuthority": true,
          "IPFJJJGABPL": 100.0,
          "thinkInterval": 1.0,
          "onAdded": [
            {
              "$type": "JLDEMMJAMLC",
              "target": "CurTeamAvatars",
              "shieldHP": true,
              "modifierName": "UNIQUE_FairyTales_Level04_Low_Buff"
            }
          ],
          "onThinkInterval": [
            {
              "$type": "JLDEMMJAMLC",
              "target": "CurTeamAvatars",
              "shieldHP": true,
              "modifierName": "UNIQUE_FairyTales_Level04_Low_Buff"
            }
          ]
        },
        "UNIQUE_FairyTales_Level04_Low_Buff": {
          "stacking": "Unique",
          "modifierName": "",
          "forceTriggerWhenChangeAuthority": true,
          "IPFJJJGABPL": 100.0,
          "thinkInterval": 0.10000000149011612,
          "modifierMixins": [
            {
              "$type": "LDBCDLJECKF",
              "attackTags": [
                "Elemental_Art",
                "Elemental_Art_Hold",
                "Elemental_Art_Extra"
              ],
              "actorWindSubHurtDelta": "ArtSkillUpRate_Lv0"
            }
          ],
          "onThinkInterval": [
            {
              "$type": "KBODPNEEFGD",
              "shieldHP": true,
              "predicates": [
                {
                  "$type": "JALOOGPAKNF"
                }
              ],
              "modifierName": "UNIQUE_FairyTales_Level04_Low_Buff_02"
            },
            {
              "$type": "JLDEMMJAMLC",
              "shieldHP": true,
              "predicates": [
                {
                  "$type": "BCFNGJHILAG",
                  "predicates": [
                    {
                      "$type": "JALOOGPAKNF"
                    }
                  ]
                }
              ],
              "modifierName": "UNIQUE_FairyTales_Level04_Low_Buff_02"
            }
          ],
          "isLimitedProperties": true
        },
        "UNIQUE_FairyTales_Level04_Low_Buff_02": {
          "stacking": "Unique",
          "modifierName": "",
          "forceTriggerWhenChangeAuthority": true,
          "IPFJJJGABPL": 100.0,
          "modifierMixins": [
            {
              "$type": "LDBCDLJECKF",
              "attackTags": [
                "Elemental_Art",
                "Elemental_Art_Hold",
                "Elemental_Art_Extra"
              ],
              "actorWindSubHurtDelta": "ArtSkillUpRate_Extra_Lv0"
            }
          ],
          "isLimitedProperties": true
        },
        "FairyTales_Level04_High_BuffHandler": {
          "modifierName": "",
          "IPFJJJGABPL": 100.0,
          "modifierMixins": [
            {
              "$type": "MLJAPFBGEEH",
              "globalValueKey": "SGV_FairyTales_FairyTime",
              "gvInTalk": 0.0,
              "valueSteps": [
                -0.5,
                0.5,
                1.5
              ],
              "modifierNameSteps": [
                "Blank",
                "UNIQUE_FairyTales_Level04_High_TeamHandler"
              ],
              "NMCLMHFBALJ": true
            }
          ]
        },
        "UNIQUE_FairyTales_Level04_High_TeamHandler": {
          "modifierName": "",
          "forceTriggerWhenChangeAuthority": true,
          "IPFJJJGABPL": 100.0,
          "thinkInterval": 1.0,
          "onAdded": [
            {
              "$type": "JLDEMMJAMLC",
              "target": "CurTeamAvatars",
              "shieldHP": true,
              "modifierName": "UNIQUE_FairyTales_Level04_High_Buff"
            }
          ],
          "onThinkInterval": [
            {
              "$type": "JLDEMMJAMLC",
              "target": "CurTeamAvatars",
              "shieldHP": true,
              "modifierName": "UNIQUE_FairyTales_Level04_High_Buff"
            }
          ]
        },
        "UNIQUE_FairyTales_Level04_High_Buff": {
          "stacking": "Unique",
          "modifierName": "",
          "forceTriggerWhenChangeAuthority": true,
          "IPFJJJGABPL": 100.0,
          "thinkInterval": 0.10000000149011612,
          "modifierMixins": [
            {
              "$type": "LDBCDLJECKF",
              "attackTags": [
                "Elemental_Art",
                "Elemental_Art_Hold",
                "Elemental_Art_Extra"
              ],
              "actorWindSubHurtDelta": "ArtSkillUpRate_Lv1"
            }
          ],
          "onThinkInterval": [
            {
              "$type": "KBODPNEEFGD",
              "shieldHP": true,
              "predicates": [
                {
                  "$type": "JALOOGPAKNF"
                }
              ],
              "modifierName": "UNIQUE_FairyTales_Level04_High_Buff_02"
            },
            {
              "$type": "JLDEMMJAMLC",
              "shieldHP": true,
              "predicates": [
                {
                  "$type": "BCFNGJHILAG",
                  "predicates": [
                    {
                      "$type": "JALOOGPAKNF"
                    }
                  ]
                }
              ],
              "modifierName": "UNIQUE_FairyTales_Level04_High_Buff_02"
            }
          ],
          "isLimitedProperties": true
        },
        "UNIQUE_FairyTales_Level04_High_Buff_02": {
          "stacking": "Unique",
          "modifierName": "",
          "forceTriggerWhenChangeAuthority": true,
          "IPFJJJGABPL": 100.0,
          "modifierMixins": [
            {
              "$type": "LDBCDLJECKF",
              "attackTags": [
                "Elemental_Art",
                "Elemental_Art_Hold",
                "Elemental_Art_Extra"
              ],
              "actorWindSubHurtDelta": "ArtSkillUpRate_Extra_Lv1"
            }
          ],
          "isLimitedProperties": true
        }
      },
      "isDynamicAbility": true
    }
  }
]