{
  "Flycloak_Template_01": {
    "effects": {
      "tail": "Flycloak_Tail_Default",
      "flyStart": "Eff_Flycloak_FlyStart",
      "flyEnd": ""
    },
    "PPPDJGDDOGD": {
      "loli": 0.75
    }
  },
  "Flycloak_Default_01": {
    "effects": {
      "tail": "Flycloak_Tail_Default",
      "flyStart": "Eff_Flycloak_FlyStart",
      "flyEnd": ""
    },
    "PPPDJGDDOGD": {
      "boy": 0.800000011920929,
      "girl": 0.800000011920929,
      "loli": 0.75
    }
  },
  "Flycloak_Sternlied_01": {
    "effects": {
      "tail": "Flycloak_Tail_Default",
      "flyStart": "Eff_Flycloak_FlyStart_Sternlied",
      "flyEnd": ""
    },
    "PPPDJGDDOGD": {
      "boy": 0.800000011920929,
      "girl": 0.800000011920929,
      "loli": 0.75
    }
  }
}