{
  "luaDataPath": "",
  "startBlackKeepTime": 0.5,
  "entityBan": "",
  "disableNpcLod": true,
  "isAutoBanNpc": true,
  "isBanWidgetPet": true,
  "protectNpcMobileLod": true,
  "talkFlag": 5,
  "startFade": {
    "startFadeInDuration": 0.5,
    "startFadeOutDuration": 0.5
  },
  "endFade": {
    "startFadeOutDuration": 0.0
  },
  "actors": [
    {
      "alias": "Avatar",
      "visible": true,
      "bornPointName": "[3_3968:2389.855,215.971,-846.985]",
      "relativePosType": "AVATAR_NEW",
      "relativePosNpcAlias": "",
      "_bindMovingTargetKey": ""
    },
    {
      "alias": "AvatarNpc",
      "visible": true,
      "bornPointName": "[3_3968:2389.855,215.971,-846.985]",
      "removeActorType": "NEW_REMOVE",
      "relativePosType": "AVATAR_NEW",
      "relativePosNpcAlias": "",
      "_bindMovingTargetKey": ""
    },
    {
      "configID": 1070,
      "alias": "1070",
      "visible": true,
      "bornPointName": "[3_3969:2391.112,216.054,-847.244]",
      "relativePosType": "AVATAR_NEW",
      "relativePosNpcAlias": "",
      "_bindMovingTargetKey": ""
    },
    {
      "configID": 1005,
      "alias": "1005",
      "visible": true,
      "bornPointName": "",
      "useRelativePos": true,
      "relativePos": {
        "x": -1.0,
        "z": 0.5
      },
      "removeActorType": "NEW_REMOVE_WITH_DISAPPEAR",
      "relativePosType": "AVATAR_NEW",
      "relativePosNpcAlias": "",
      "_bindMovingTargetKey": ""
    },
    {
      "configID": 30359,
      "alias": "30359",
      "visible": true,
      "bornPointName": "[3_3970:2387.882,221.275,-801.719,0.000,249.400,0.000]",
      "removeActorType": "NEW_REMOVE",
      "relativePosType": "AVATAR_NEW",
      "relativePosNpcAlias": "",
      "_bindMovingTargetKey": ""
    },
    {
      "configID": 30385,
      "alias": "30385",
      "visible": true,
      "bornPointName": "[3_4282:2378.904,218.246,-814.986,0.000,66.720,0.000]",
      "removeActorType": "NEW_REMOVE",
      "relativePosType": "AVATAR_NEW",
      "relativePosNpcAlias": "",
      "_bindMovingTargetKey": ""
    },
    {
      "configID": 30386,
      "alias": "30386",
      "visible": true,
      "bornPointName": "[3_4283:2402.362,220.283,-809.320,0.000,277.300,0.000]",
      "removeActorType": "NEW_REMOVE",
      "relativePosType": "AVATAR_NEW",
      "relativePosNpcAlias": "",
      "_bindMovingTargetKey": ""
    },
    {
      "configID": 30387,
      "alias": "30387",
      "visible": true,
      "bornPointName": "[3_4284:2377.796,221.851,-800.166,0.000,77.350,0.000]",
      "removeActorType": "NEW_REMOVE",
      "relativePosType": "AVATAR_NEW",
      "relativePosNpcAlias": "",
      "_bindMovingTargetKey": ""
    },
    {
      "configID": 30388,
      "alias": "30388",
      "visible": true,
      "bornPointName": "[3_4285:2386.314,223.689,-789.808,0.000,140.630,0.000]",
      "removeActorType": "NEW_REMOVE",
      "relativePosType": "AVATAR_NEW",
      "relativePosNpcAlias": "",
      "_bindMovingTargetKey": ""
    }
  ],
  "group": [
    [
      {
        "$type": "MoleMole.Config.ConfigTimeProtectAction",
        "type": "TIME_PROTECT",
        "duration": 1.0,
        "actionId": 104
      },
      {
        "$type": "FABLGECDBCH",
        "type": "BODY_LANG",
        "aliasList": [
          "30388"
        ],
        "actionId": 132,
        "isContinue": true,
        "forceDoFreeStyle": true,
        "canDoRepeatFreeStyle": false,
        "eventPatternSuiteKey": "",
        "FOHHKFAIAAJ": ""
      },
      {
        "$type": "MoleMole.Config.ConfigVisibleInterAction",
        "type": "VISIBLE",
        "aliasList": [
          "30387"
        ],
        "actionId": 494,
        "_extraParam": ""
      },
      {
        "$type": "MoleMole.Config.ConfigTeleportToAction",
        "type": "TELEPORT_TO",
        "aliasList": [
          "30387"
        ],
        "actionId": 155,
        "position": {
          "x": 2377.7958984375,
          "y": 221.8509979248047,
          "z": -800.166015625
        },
        "forward": {
          "x": 0.9760000109672546,
          "z": 0.21899999678134918
        },
        "openLongDisTeleport": true,
        "_posBindMovingTargetKey": "",
        "_forwardBindMovingTargetKey": ""
      },
      {
        "$type": "FABLGECDBCH",
        "type": "BODY_LANG",
        "aliasList": [
          "30387"
        ],
        "actionId": 129,
        "isContinue": true,
        "forceDoFreeStyle": true,
        "canDoRepeatFreeStyle": false,
        "eventPatternSuiteKey": "",
        "FOHHKFAIAAJ": ""
      },
      {
        "$type": "MoleMole.Config.ConfigVisibleInterAction",
        "type": "VISIBLE",
        "aliasList": [
          "30386"
        ],
        "actionId": 493,
        "_extraParam": ""
      },
      {
        "$type": "MoleMole.Config.ConfigTeleportToAction",
        "type": "TELEPORT_TO",
        "aliasList": [
          "30386"
        ],
        "actionId": 154,
        "position": {
          "x": 2397.56005859375,
          "y": 220.2830047607422,
          "z": -808.030029296875
        },
        "forward": {
          "x": -0.9919999837875366,
          "z": 0.12700000405311584
        },
        "openLongDisTeleport": true,
        "_posBindMovingTargetKey": "",
        "_forwardBindMovingTargetKey": ""
      },
      {
        "$type": "FABLGECDBCH",
        "type": "BODY_LANG",
        "aliasList": [
          "30386"
        ],
        "actionId": 126,
        "isContinue": true,
        "forceDoFreeStyle": true,
        "canDoRepeatFreeStyle": false,
        "eventPatternSuiteKey": "",
        "FOHHKFAIAAJ": ""
      },
      {
        "$type": "MoleMole.Config.ConfigVisibleInterAction",
        "type": "VISIBLE",
        "aliasList": [
          "30385"
        ],
        "actionId": 492,
        "_extraParam": ""
      },
      {
        "$type": "MoleMole.Config.ConfigTeleportToAction",
        "type": "TELEPORT_TO",
        "aliasList": [
          "30385"
        ],
        "actionId": 153,
        "position": {
          "x": 2378.904052734375,
          "y": 218.24600219726562,
          "z": -814.9860229492188
        },
        "forward": {
          "x": 0.9190000295639038,
          "z": 0.39500001072883606
        },
        "openLongDisTeleport": true,
        "_posBindMovingTargetKey": "",
        "_forwardBindMovingTargetKey": ""
      },
      {
        "$type": "FABLGECDBCH",
        "type": "BODY_LANG",
        "aliasList": [
          "30385"
        ],
        "actionId": 123,
        "isContinue": true,
        "forceDoFreeStyle": true,
        "canDoRepeatFreeStyle": false,
        "eventPatternSuiteKey": "",
        "FOHHKFAIAAJ": ""
      },
      {
        "$type": "MoleMole.Config.ConfigTeleportToAction",
        "type": "TELEPORT_TO",
        "aliasList": [
          "30359"
        ],
        "actionId": 148,
        "position": {
          "x": 2390.2451171875,
          "y": 215.44400024414062,
          "z": -830.8489990234375
        },
        "forward": {
          "x": -2.0980000495910645,
          "y": 0.12800000607967377,
          "z": 12.295999526977539
        },
        "openLongDisTeleport": true,
        "_posBindMovingTargetKey": "",
        "_forwardBindMovingTargetKey": ""
      },
      {
        "$type": "FABLGECDBCH",
        "type": "BODY_LANG",
        "aliasList": [
          "30359"
        ],
        "actionId": 120,
        "isContinue": true,
        "forceDoFreeStyle": true,
        "canDoRepeatFreeStyle": false,
        "eventPatternSuiteKey": "",
        "FOHHKFAIAAJ": ""
      },
      {
        "$type": "MoleMole.Config.ConfigVisibleInterAction",
        "type": "VISIBLE",
        "aliasList": [
          "1005"
        ],
        "actionId": 381,
        "_extraParam": ""
      },
      {
        "$type": "MoleMole.Config.ConfigTeleportToAction",
        "type": "TELEPORT_TO",
        "aliasList": [
          "30388"
        ],
        "actionId": 156,
        "position": {
          "x": 2386.909912109375,
          "y": 223.18600463867188,
          "z": -792.3900146484375
        },
        "forward": {
          "x": 0.6340000033378601,
          "z": -0.7730000019073486
        },
        "openLongDisTeleport": true,
        "_posBindMovingTargetKey": "",
        "_forwardBindMovingTargetKey": ""
      },
      {
        "$type": "MoleMole.Config.ConfigTeleportToAction",
        "type": "TELEPORT_TO",
        "aliasList": [
          "1005"
        ],
        "actionId": 152,
        "position": {
          "x": 2389.73291015625,
          "y": 215.97300720214844,
          "z": -846.8189697265625
        },
        "forward": {
          "x": 0.08100000023841858,
          "z": 0.996999979019165
        },
        "openLongDisTeleport": true,
        "_posBindMovingTargetKey": "",
        "_forwardBindMovingTargetKey": ""
      },
      {
        "$type": "MoleMole.Config.ConfigVisibleInterAction",
        "type": "VISIBLE",
        "aliasList": [
          "1070"
        ],
        "actionId": 380,
        "_extraParam": ""
      },
      {
        "$type": "MoleMole.Config.ConfigTeleportToAction",
        "type": "TELEPORT_TO",
        "aliasList": [
          "1070"
        ],
        "actionId": 151,
        "position": {
          "x": 2391.112060546875,
          "y": 216.0540008544922,
          "z": -847.2440185546875
        },
        "forward": {
          "z": 1.0
        },
        "openLongDisTeleport": true,
        "_posBindMovingTargetKey": "",
        "_forwardBindMovingTargetKey": ""
      },
      {
        "$type": "FABLGECDBCH",
        "type": "BODY_LANG",
        "aliasList": [
          "1070"
        ],
        "actionId": 116,
        "isContinue": true,
        "forceDoFreeStyle": true,
        "canDoRepeatFreeStyle": false,
        "eventPatternSuiteKey": "",
        "FOHHKFAIAAJ": ""
      },
      {
        "$type": "MoleMole.Config.ConfigVisibleInterAction",
        "type": "VISIBLE",
        "aliasList": [
          "AvatarNpc"
        ],
        "actionId": 376,
        "_extraParam": ""
      },
      {
        "$type": "MoleMole.Config.ConfigTeleportToAction",
        "type": "TELEPORT_TO",
        "aliasList": [
          "AvatarNpc"
        ],
        "actionId": 150,
        "position": {
          "x": 2390.241943359375,
          "y": 215.98399353027344,
          "z": -847.1959838867188
        },
        "forward": {
          "z": 1.0
        },
        "openLongDisTeleport": true,
        "_posBindMovingTargetKey": "",
        "_forwardBindMovingTargetKey": ""
      },
      {
        "$type": "FABLGECDBCH",
        "type": "BODY_LANG",
        "aliasList": [
          "AvatarNpc"
        ],
        "actionId": 139,
        "isContinue": true,
        "forceDoFreeStyle": true,
        "canDoRepeatFreeStyle": false,
        "eventPatternSuiteKey": "",
        "FOHHKFAIAAJ": ""
      },
      {
        "$type": "MoleMole.Config.ConfigPlayerNPCEnergyTypeAction",
        "type": "SET_PLAYER_NPC_ENERGY_TYPE",
        "aliasList": [
          "AvatarNpc"
        ],
        "actionId": 138,
        "setHeroEngergyType": true
      },
      {
        "$type": "MoleMole.Config.ConfigTeleportToAction",
        "type": "TELEPORT_TO",
        "aliasList": [
          "Avatar"
        ],
        "actionId": 676,
        "position": {
          "x": 2390.241943359375,
          "y": 215.98399353027344,
          "z": -847.1959838867188
        },
        "forward": {
          "z": 1.0
        },
        "openLongDisTeleport": true,
        "_posBindMovingTargetKey": "",
        "_forwardBindMovingTargetKey": ""
      },
      {
        "$type": "MoleMole.Config.ConfigVisibleInterAction",
        "type": "VISIBLE",
        "aliasList": [
          "Avatar"
        ],
        "actionId": 143,
        "_extraParam": ""
      },
      {
        "$type": "MoleMole.Config.ConfigSitOrStandAction",
        "type": "SIT_OR_STAND",
        "aliasList": [
          "Avatar"
        ],
        "actionId": 137,
        "banResetFreestyle": true
      },
      {
        "$type": "MoleMole.Config.ConfigBlackScreenAction",
        "type": "BLACK_SCREEN",
        "duration": 1.0,
        "actionId": 134,
        "blackScreenType": "KEEP_BLACK",
        "durationToBlack": 0.5,
        "durationKeepBlack": 1.0,
        "durationFromBlack": 0.5,
        "inteePos": "",
        "textMapID": "",
        "useTextFade": true
      },
      {
        "$type": "FABLGECDBCH",
        "type": "BODY_LANG",
        "aliasList": [
          "1005"
        ],
        "actionId": 118,
        "isContinue": true,
        "forceDoFreeStyle": true,
        "canDoRepeatFreeStyle": false,
        "eventPatternSuiteKey": "",
        "FOHHKFAIAAJ": ""
      },
      {
        "$type": "MoleMole.Config.ConfigVisibleInterAction",
        "type": "VISIBLE",
        "aliasList": [
          "30388"
        ],
        "actionId": 495,
        "_extraParam": ""
      },
      {
        "$type": "KKKMGOEHLDH",
        "type": "SOUND",
        "delayTime": 0.02500000037252903,
        "actionId": 661,
        "stateGroup": "StateGroup_musicChapter",
        "state": "State_Silence",
        "defaultState": ""
      },
      {
        "$type": "KKKMGOEHLDH",
        "type": "SOUND",
        "delayTime": 0.06700000166893005,
        "actionId": 662,
        "stateGroup": "StateGroup_gameState",
        "state": "State_Chapter",
        "defaultState": ""
      },
      {
        "$type": "MoleMole.Config.ConfigMoveToAction",
        "type": "MOVE_TO",
        "delayTime": 0.5,
        "aliasList": [
          "30359"
        ],
        "actionId": 190,
        "moveType": "RUN",
        "routeList": [
          {
            "x": 2388.873046875,
            "y": 220.41400146484375,
            "z": -806.10400390625
          }
        ],
        "exactlyMove": true,
        "closeNavMesh": true,
        "openSetPos": true,
        "_bindMovingTargetKey": ""
      }
    ],
    [
      {
        "$type": "MoleMole.Config.ConfigBlackScreenAction",
        "type": "BLACK_SCREEN",
        "duration": 0.5,
        "actionId": 158,
        "blackScreenType": "FROM_BLACK",
        "durationToBlack": 0.5,
        "durationKeepBlack": 0.5,
        "durationFromBlack": 0.5,
        "inteePos": "",
        "textMapID": "",
        "useTextFade": true
      },
      {
        "$type": "FJKIHHKJLMJ",
        "type": "CAMERA_MOVE",
        "duration": 0.5,
        "actionId": 159,
        "camPosOffset": {
          "x": 2394.39990234375,
          "y": 227.05299377441406,
          "z": -825.22900390625
        },
        "camForwardTargetOffset": {
          "x": 2393.791015625,
          "y": 226.26499938964844,
          "z": -825.1370239257812
        },
        "lerpPattern": 6,
        "cameraBlendType": "EaseInOutCubic",
        "NJBNNOMLKCK": {},
        "needZAxisRotate": true,
        "rotateAngle": 1.3609999418258667,
        "openCameraDither": false,
        "targetNpcAlias": "",
        "closeTreeLeafDither": true,
        "KJOEFBPOIIH": "",
        "IICFKKEBIEC": "",
        "EGEHEJEBLBJ": ""
      },
      {
        "$type": "MoleMole.Config.ConfigTimeProtectAction",
        "type": "TIME_PROTECT",
        "duration": 3.5,
        "actionId": 162
      },
      {
        "$type": "MoleMole.Config.ConfigCameraDOFAction",
        "type": "CAMERA_DOF",
        "actionId": 523,
        "enabled": true,
        "focusDistance": 61.729000091552734,
        "focusRange": 36.6349983215332,
        "nearFocalDistance": 7.4629998207092285,
        "nearFocalTransDistance": 7.934999942779541,
        "dofBlurAmount": 2.0,
        "quality": 3
      },
      {
        "$type": "MoleMole.Config.ConfigAudioPlayAction",
        "type": "AUDIO_PLAY",
        "actionId": 673,
        "audioEventStr": "Play_Chapter_3_7_Journey_401070901_NPCGrassRun"
      },
      {
        "$type": "FJKIHHKJLMJ",
        "type": "CAMERA_MOVE",
        "delayTime": 0.10000000149011612,
        "duration": 3.4000000953674316,
        "actionId": 172,
        "camPosOffset": {
          "x": 2394.489990234375,
          "y": 227.07699584960938,
          "z": -824.4240112304688
        },
        "camForwardTargetOffset": {
          "x": 2393.881103515625,
          "y": 226.28900146484375,
          "z": -824.3319702148438
        },
        "cameraBlendType": "Linear",
        "NJBNNOMLKCK": {},
        "needZAxisRotate": true,
        "rotateAngle": 1.3609999418258667,
        "openCameraDither": false,
        "targetNpcAlias": "",
        "closeTreeLeafDither": true,
        "KJOEFBPOIIH": "",
        "IICFKKEBIEC": "",
        "EGEHEJEBLBJ": ""
      }
    ],
    [
      {
        "$type": "FJKIHHKJLMJ",
        "type": "CAMERA_MOVE",
        "duration": 0.5,
        "actionId": 170,
        "camPosOffset": {
          "x": 2374.428955078125,
          "y": 223.14999389648438,
          "z": -801.0999755859375
        },
        "camForwardTargetOffset": {
          "x": 2375.386962890625,
          "y": 223.04400634765625,
          "z": -801.3670043945312
        },
        "camFov": 18.0,
        "lerpPattern": 6,
        "cameraBlendType": "EaseInOutCubic",
        "NJBNNOMLKCK": {},
        "needZAxisRotate": true,
        "rotateAngle": 0.3409999907016754,
        "openCameraDither": false,
        "targetNpcAlias": "",
        "closeTreeLeafDither": true,
        "KJOEFBPOIIH": "",
        "IICFKKEBIEC": "",
        "EGEHEJEBLBJ": ""
      },
      {
        "$type": "MoleMole.Config.ConfigTimeProtectAction",
        "type": "TIME_PROTECT",
        "duration": 4.5,
        "actionId": 171
      },
      {
        "$type": "MoleMole.Config.ConfigCameraDOFAction",
        "type": "CAMERA_DOF",
        "actionId": 524,
        "enabled": true,
        "focusDistance": 460.7300109863281,
        "focusRange": 36.6349983215332,
        "nearFocalDistance": 7.4629998207092285,
        "nearFocalTransDistance": 7.934999942779541,
        "dofBlurAmount": 2.0,
        "quality": 3
      },
      {
        "$type": "MoleMole.Config.ConfigTeleportToAction",
        "type": "TELEPORT_TO",
        "aliasList": [
          "1005"
        ],
        "actionId": 579,
        "position": {
          "x": 2389.43310546875,
          "y": 215.55999755859375,
          "z": -849.4429931640625
        },
        "forward": {
          "x": 0.38199999928474426,
          "y": 0.4129999876022339,
          "z": 3.621000051498413
        },
        "openLongDisTeleport": true,
        "_posBindMovingTargetKey": "",
        "_forwardBindMovingTargetKey": ""
      },
      {
        "$type": "MoleMole.Config.ConfigTeleportToAction",
        "type": "TELEPORT_TO",
        "aliasList": [
          "Avatar"
        ],
        "actionId": 678,
        "position": {
          "x": 2390.1630859375,
          "y": 215.5800018310547,
          "z": -849.68701171875
        },
        "forward": {
          "x": 0.17000000178813934,
          "y": 0.40400001406669617,
          "z": 3.490999937057495
        },
        "openLongDisTeleport": true,
        "_posBindMovingTargetKey": "",
        "_forwardBindMovingTargetKey": ""
      },
      {
        "$type": "MoleMole.Config.ConfigTeleportToAction",
        "type": "TELEPORT_TO",
        "aliasList": [
          "1070"
        ],
        "actionId": 577,
        "position": {
          "x": 2390.924072265625,
          "y": 215.64199829101562,
          "z": -849.655029296875
        },
        "forward": {
          "x": 0.2290000021457672,
          "y": 0.41200000047683716,
          "z": 3.424999952316284
        },
        "openLongDisTeleport": true,
        "_posBindMovingTargetKey": "",
        "_forwardBindMovingTargetKey": ""
      },
      {
        "$type": "MoleMole.Config.ConfigTeleportToAction",
        "type": "TELEPORT_TO",
        "aliasList": [
          "AvatarNpc"
        ],
        "actionId": 574,
        "position": {
          "x": 2390.1630859375,
          "y": 215.5800018310547,
          "z": -849.68701171875
        },
        "forward": {
          "x": 0.17000000178813934,
          "y": 0.40400001406669617,
          "z": 3.490999937057495
        },
        "openLongDisTeleport": true,
        "_posBindMovingTargetKey": "",
        "_forwardBindMovingTargetKey": ""
      },
      {
        "$type": "FJKIHHKJLMJ",
        "type": "CAMERA_MOVE",
        "delayTime": 0.10000000149011612,
        "duration": 4.5,
        "actionId": 173,
        "camPosOffset": {
          "x": 2374.385009765625,
          "y": 223.16700744628906,
          "z": -801.2659912109375
        },
        "camForwardTargetOffset": {
          "x": 2375.343017578125,
          "y": 223.06100463867188,
          "z": -801.5330200195312
        },
        "camFov": 18.0,
        "cameraBlendType": "Linear",
        "NJBNNOMLKCK": {},
        "needZAxisRotate": true,
        "rotateAngle": 0.3409999907016754,
        "openCameraDither": false,
        "targetNpcAlias": "",
        "closeTreeLeafDither": true,
        "KJOEFBPOIIH": "",
        "IICFKKEBIEC": "",
        "EGEHEJEBLBJ": ""
      },
      {
        "$type": "LLGANGLOEEO",
        "type": "STEER_TO",
        "delayTime": 2.368000030517578,
        "duration": 1.0,
        "aliasList": [
          "30359"
        ],
        "actionId": 287,
        "_flag": 32,
        "steerType": "ABSOLUTE",
        "steerDir": {
          "x": 2384.681884765625,
          "y": 220.6199951171875,
          "z": -804.3389892578125
        },
        "useSteerAnim": true,
        "interruptFreestyle": true,
        "forceSteer": true,
        "targetNpcAlias": "",
        "ignoreY": true,
        "fixInterNull": true,
        "OAFJBHJHLJG": ""
      },
      {
        "$type": "MoleMole.Config.ConfigMoveToAction",
        "type": "MOVE_TO",
        "delayTime": 3.569000005722046,
        "aliasList": [
          "30359"
        ],
        "actionId": 288,
        "moveType": "WALK",
        "routeList": [
          {
            "x": 2388.20703125,
            "y": 220.44700622558594,
            "z": -805.822021484375
          }
        ],
        "exactlyMove": true,
        "closeNavMesh": true,
        "openSetPos": true,
        "_bindMovingTargetKey": ""
      },
      {
        "$type": "MoleMole.Config.ConfigMoveToAction",
        "type": "MOVE_TO",
        "delayTime": 4.300000190734863,
        "aliasList": [
          "AvatarNpc"
        ],
        "actionId": 573,
        "moveType": "RUN",
        "routeList": [
          {
            "x": 2390.241943359375,
            "y": 215.98399353027344,
            "z": -847.1959838867188
          }
        ],
        "exactlyMove": true,
        "closeNavMesh": true,
        "openSetPos": true,
        "_bindMovingTargetKey": ""
      },
      {
        "$type": "MoleMole.Config.ConfigVisibleInterAction",
        "type": "VISIBLE",
        "delayTime": 4.300000190734863,
        "aliasList": [
          "1070"
        ],
        "actionId": 581,
        "isVisible": true,
        "_extraParam": ""
      },
      {
        "$type": "MoleMole.Config.ConfigMoveToAction",
        "type": "MOVE_TO",
        "delayTime": 4.300000190734863,
        "aliasList": [
          "1005"
        ],
        "actionId": 578,
        "moveType": "RUN",
        "routeList": [
          {
            "x": 2389.73291015625,
            "y": 215.97300720214844,
            "z": -846.8189697265625
          }
        ],
        "exactlyMove": true,
        "closeNavMesh": true,
        "openSetPos": true,
        "_bindMovingTargetKey": ""
      },
      {
        "$type": "MoleMole.Config.ConfigMoveToAction",
        "type": "MOVE_TO",
        "delayTime": 4.300000190734863,
        "aliasList": [
          "Avatar"
        ],
        "actionId": 677,
        "moveType": "RUN",
        "routeList": [
          {
            "x": 2390.241943359375,
            "y": 215.98399353027344,
            "z": -847.1959838867188
          }
        ],
        "exactlyMove": true,
        "closeNavMesh": true,
        "closeAvatarNavMesh": true,
        "openSetPos": true,
        "_bindMovingTargetKey": ""
      },
      {
        "$type": "MoleMole.Config.ConfigVisibleInterAction",
        "type": "VISIBLE",
        "delayTime": 4.300000190734863,
        "aliasList": [
          "1005"
        ],
        "actionId": 580,
        "isVisible": true,
        "_extraParam": ""
      },
      {
        "$type": "MoleMole.Config.ConfigMoveToAction",
        "type": "MOVE_TO",
        "delayTime": 4.300000190734863,
        "aliasList": [
          "1070"
        ],
        "actionId": 576,
        "moveType": "RUN",
        "routeList": [
          {
            "x": 2391.112060546875,
            "y": 216.0540008544922,
            "z": -847.2440185546875
          }
        ],
        "exactlyMove": true,
        "closeNavMesh": true,
        "openSetPos": true,
        "_bindMovingTargetKey": ""
      },
      {
        "$type": "MoleMole.Config.ConfigVisibleInterAction",
        "type": "VISIBLE",
        "delayTime": 4.300000190734863,
        "aliasList": [
          "AvatarNpc"
        ],
        "actionId": 575,
        "isVisible": true,
        "_extraParam": ""
      }
    ],
    [
      {
        "$type": "FJKIHHKJLMJ",
        "type": "CAMERA_MOVE",
        "duration": 0.5,
        "actionId": 160,
        "camPosOffset": {
          "x": 2395.133056640625,
          "y": 216.5449981689453,
          "z": -843.343017578125
        },
        "camForwardTargetOffset": {
          "x": 2394.35107421875,
          "y": 216.61599731445312,
          "z": -843.9630126953125
        },
        "camFov": 20.0,
        "lerpPattern": 6,
        "cameraBlendType": "EaseInOutCubic",
        "NJBNNOMLKCK": {},
        "needZAxisRotate": true,
        "rotateAngle": 0.8399999737739563,
        "openCameraDither": false,
        "targetNpcAlias": "",
        "closeTreeLeafDither": true,
        "KJOEFBPOIIH": "",
        "IICFKKEBIEC": "",
        "EGEHEJEBLBJ": ""
      },
      {
        "$type": "MoleMole.Config.ConfigCameraDOFAction",
        "type": "CAMERA_DOF",
        "actionId": 606,
        "enabled": true,
        "dofBlurAmount": 2.0,
        "quality": 3
      },
      {
        "$type": "PKKMAMONGEO",
        "type": "DIALOG",
        "aliasList": [
          "1070"
        ],
        "actionId": 107,
        "dialogID": 401070901,
        "protectTime": 0.5
      },
      {
        "$type": "CPJKOIHIPBE",
        "type": "EMO_SYNC",
        "aliasList": [
          "1070"
        ],
        "actionId": 144,
        "dataPath": "Cs_Emo_Avatar_Simple_Common_Set/Cs_Emo_Avatar_Talk/Cs_Emo_Avatar_Event/Cs_Emo_KaPaiXunYou/Cs_Emo_401070901",
        "phonemePath": "",
        "emotionPath": "",
        "mateDataPath": "",
        "matePhonemePath": "",
        "mateEmotionPath": "",
        "dataPathHashList": [
          17025490520531473198,
          15015229889230997837,
          2251937900206580169,
          16447540248978241712
        ],
        "FMDPBECPELH": "",
        "ADKBLPOKGIK": ""
      },
      {
        "$type": "MoleMole.Config.ConfigVisibleInterAction",
        "type": "VISIBLE",
        "aliasList": [
          "1070"
        ],
        "actionId": 483,
        "isVisible": true,
        "_extraParam": ""
      },
      {
        "$type": "MoleMole.Config.ConfigVisibleInterAction",
        "type": "VISIBLE",
        "aliasList": [
          "1005"
        ],
        "actionId": 486,
        "isVisible": true,
        "_extraParam": ""
      },
      {
        "$type": "MoleMole.Config.ConfigTeleportToAction",
        "type": "TELEPORT_TO",
        "aliasList": [
          "30388"
        ],
        "actionId": 430,
        "position": {
          "x": 2386.9130859375,
          "y": 223.19500732421875,
          "z": -792.3480224609375
        },
        "forward": {
          "x": 0.6340000033378601,
          "z": -0.7739999890327454
        },
        "openLongDisTeleport": true,
        "_posBindMovingTargetKey": "",
        "_forwardBindMovingTargetKey": ""
      },
      {
        "$type": "FABLGECDBCH",
        "type": "BODY_LANG",
        "aliasList": [
          "30388"
        ],
        "actionId": 433,
        "isContinue": true,
        "canDoRepeatFreeStyle": false,
        "cantBackToIdleWhenSitLoop": true,
        "eventPatternSuiteKey": "",
        "FOHHKFAIAAJ": ""
      },
      {
        "$type": "FJKIHHKJLMJ",
        "type": "CAMERA_MOVE",
        "delayTime": 0.10000000149011612,
        "duration": 5.110000133514404,
        "actionId": 161,
        "camPosOffset": {
          "x": 2394.955078125,
          "y": 216.47999572753906,
          "z": -843.4840087890625
        },
        "camForwardTargetOffset": {
          "x": 2394.175048828125,
          "y": 216.5659942626953,
          "z": -844.10302734375
        },
        "camFov": 20.0,
        "cameraBlendType": "EaseOutQuad",
        "NJBNNOMLKCK": {},
        "needZAxisRotate": true,
        "rotateAngle": 0.8410000205039978,
        "openCameraDither": false,
        "targetNpcAlias": "",
        "closeTreeLeafDither": true,
        "KJOEFBPOIIH": "",
        "IICFKKEBIEC": "",
        "EGEHEJEBLBJ": ""
      },
      {
        "$type": "FABLGECDBCH",
        "type": "BODY_LANG",
        "delayTime": 1.0269999504089355,
        "aliasList": [
          "30359"
        ],
        "actionId": 561,
        "bodyLangParam": 1040,
        "canDoRepeatFreeStyle": false,
        "cantBackToIdleWhenSitLoop": true,
        "eventPatternSuiteKey": "",
        "FOHHKFAIAAJ": ""
      },
      {
        "$type": "CPJKOIHIPBE",
        "type": "EMO_SYNC",
        "delayTime": 1.0379999876022339,
        "aliasList": [
          "30359"
        ],
        "actionId": 562,
        "dataPath": "",
        "phonemePath": "Cs_Emo_NPC_Common/Cs_Emo_NPC_Normal03",
        "emotionPath": "Cs_Emo_NPC_Common/Cs_Emo_NPC_Sad02_B",
        "mateDataPath": "",
        "matePhonemePath": "",
        "mateEmotionPath": "",
        "phonemePathHashList": [
          4206194446983539214,
          9297182341691128505,
          8529311666972072608,
          1009126133001795751
        ],
        "emotionPathHashList": [
          1423968049374264493,
          9190263019068375728,
          10985372767789447914,
          14968736931730964027
        ],
        "FMDPBECPELH": "",
        "ADKBLPOKGIK": ""
      },
      {
        "$type": "LJLMDHDCAMK",
        "type": "LOOK_AT",
        "delayTime": 2.2939999103546143,
        "aliasList": [
          "30359"
        ],
        "actionId": 563,
        "enableHead": true,
        "useTargetPos": true,
        "enableAbsolute": true,
        "targetPosition": {
          "x": 2382.847900390625,
          "y": 221.5,
          "z": -808.2659912109375
        },
        "headTurnTime": 0.30000001192092896,
        "targetNpcAlias": "",
        "lookAtTargetType": "NONE",
        "openBackProtect": true,
        "backProtectAngle": 60.0,
        "targetNpcLookAtPoint": "",
        "OAFJBHJHLJG": ""
      },
      {
        "$type": "LJLMDHDCAMK",
        "type": "LOOK_AT",
        "delayTime": 3.2799999713897705,
        "aliasList": [
          "30359"
        ],
        "actionId": 564,
        "enableHead": true,
        "useTargetPos": true,
        "enableAbsolute": true,
        "targetPosition": {
          "x": 2388.097900390625,
          "y": 222.16000366210938,
          "z": -804.5120239257812
        },
        "headTurnTime": 0.30000001192092896,
        "targetNpcAlias": "",
        "lookAtTargetType": "NONE",
        "openBackProtect": true,
        "backProtectAngle": 60.0,
        "targetNpcLookAtPoint": "",
        "OAFJBHJHLJG": ""
      }
    ],
    [
      {
        "$type": "FJKIHHKJLMJ",
        "type": "CAMERA_MOVE",
        "duration": 0.5,
        "actionId": 184,
        "camPosOffset": {
          "x": 2390.64794921875,
          "y": 217.36399841308594,
          "z": -845.7630004882812
        },
        "camForwardTargetOffset": {
          "x": 2390.001953125,
          "y": 217.30299377441406,
          "z": -846.5239868164062
        },
        "camFov": 20.0,
        "lerpPattern": 6,
        "cameraBlendType": "EaseInOutCubic",
        "NJBNNOMLKCK": {},
        "needZAxisRotate": true,
        "rotateAngle": 0.8399999737739563,
        "openCameraDither": false,
        "targetNpcAlias": "",
        "closeTreeLeafDither": true,
        "KJOEFBPOIIH": "",
        "IICFKKEBIEC": "",
        "EGEHEJEBLBJ": ""
      },
      {
        "$type": "LJLMDHDCAMK",
        "type": "LOOK_AT",
        "aliasList": [
          "AvatarNpc"
        ],
        "actionId": 512,
        "enableHead": true,
        "useTargetPos": true,
        "enableAbsolute": true,
        "targetPosition": {
          "x": 2389.7490234375,
          "y": 217.29299926757812,
          "z": -846.6329956054688
        },
        "headTurnTime": 0.5,
        "targetNpcAlias": "",
        "lookAtTargetType": "NONE",
        "openBackProtect": true,
        "backProtectAngle": 60.0,
        "targetNpcLookAtPoint": "",
        "OAFJBHJHLJG": ""
      },
      {
        "$type": "PKKMAMONGEO",
        "type": "DIALOG",
        "aliasList": [
          "1005"
        ],
        "actionId": 109,
        "dialogID": 401070902,
        "protectTime": 0.5
      },
      {
        "$type": "CPJKOIHIPBE",
        "type": "EMO_SYNC",
        "aliasList": [
          "1005"
        ],
        "actionId": 145,
        "dataPath": "Cs_Emo_Avatar_Simple_Common_Set/Cs_Emo_Avatar_Talk/Cs_Emo_Avatar_Event/Cs_Emo_KaPaiXunYou/Cs_Emo_401070902",
        "phonemePath": "",
        "emotionPath": "",
        "mateDataPath": "",
        "matePhonemePath": "",
        "mateEmotionPath": "",
        "dataPathHashList": [
          3058221503035029788,
          17718160309698805328,
          11113081629132832948,
          13740566941028402488
        ],
        "FMDPBECPELH": "",
        "ADKBLPOKGIK": ""
      },
      {
        "$type": "FABLGECDBCH",
        "type": "BODY_LANG",
        "aliasList": [
          "1005"
        ],
        "actionId": 175,
        "bodyLangParam": 1190,
        "canDoRepeatFreeStyle": false,
        "cantBackToIdleWhenSitLoop": true,
        "eventPatternSuiteKey": "",
        "FOHHKFAIAAJ": ""
      },
      {
        "$type": "MoleMole.Config.ConfigSetAnimatorSpeedAction",
        "type": "SET_ANIMATOR_SPEED",
        "aliasList": [
          "30359"
        ],
        "actionId": 200,
        "speedRatio": 1.2000000476837158,
        "blendType": "EaseInOutQuad"
      },
      {
        "$type": "FJKIHHKJLMJ",
        "type": "CAMERA_MOVE",
        "delayTime": 0.10000000149011612,
        "duration": 6.421000003814697,
        "actionId": 185,
        "camPosOffset": {
          "x": 2390.56689453125,
          "y": 217.35699462890625,
          "z": -845.8590087890625
        },
        "camForwardTargetOffset": {
          "x": 2389.9208984375,
          "y": 217.29600524902344,
          "z": -846.6199951171875
        },
        "camFov": 20.0,
        "cameraBlendType": "Linear",
        "NJBNNOMLKCK": {},
        "needZAxisRotate": true,
        "rotateAngle": 0.8399999737739563,
        "openCameraDither": false,
        "targetNpcAlias": "",
        "closeTreeLeafDither": true,
        "KJOEFBPOIIH": "",
        "IICFKKEBIEC": "",
        "EGEHEJEBLBJ": ""
      },
      {
        "$type": "FABLGECDBCH",
        "type": "BODY_LANG",
        "delayTime": 2.200000047683716,
        "aliasList": [
          "1005"
        ],
        "actionId": 176,
        "isContinue": true,
        "canDoRepeatFreeStyle": false,
        "cantBackToIdleWhenSitLoop": true,
        "eventPatternSuiteKey": "",
        "FOHHKFAIAAJ": ""
      },
      {
        "$type": "MoleMole.Config.ConfigTeleportToAction",
        "type": "TELEPORT_TO",
        "delayTime": 2.5,
        "aliasList": [
          "30359"
        ],
        "actionId": 187,
        "position": {
          "x": 2385.947998046875,
          "y": 221.05499267578125,
          "z": -802.4390258789062
        },
        "forward": {
          "x": 8.508000373840332,
          "z": -1.2350000143051147
        },
        "openLongDisTeleport": true,
        "_posBindMovingTargetKey": "",
        "_forwardBindMovingTargetKey": ""
      },
      {
        "$type": "FABLGECDBCH",
        "type": "BODY_LANG",
        "delayTime": 2.680999994277954,
        "aliasList": [
          "1005"
        ],
        "actionId": 174,
        "bodyLangParam": 1110,
        "canDoRepeatFreeStyle": false,
        "cantBackToIdleWhenSitLoop": true,
        "eventPatternSuiteKey": "",
        "FOHHKFAIAAJ": ""
      },
      {
        "$type": "FABLGECDBCH",
        "type": "BODY_LANG",
        "delayTime": 4.693999767303467,
        "aliasList": [
          "1005"
        ],
        "actionId": 177,
        "isContinue": true,
        "canDoRepeatFreeStyle": false,
        "cantBackToIdleWhenSitLoop": true,
        "eventPatternSuiteKey": "",
        "FOHHKFAIAAJ": ""
      }
    ],
    [
      {
        "$type": "FJKIHHKJLMJ",
        "type": "CAMERA_MOVE",
        "duration": 0.5,
        "actionId": 188,
        "camPosOffset": {
          "x": 2390.758056640625,
          "y": 217.50599670410156,
          "z": -849.6799926757812
        },
        "camForwardTargetOffset": {
          "x": 2390.680908203125,
          "y": 217.4929962158203,
          "z": -848.6829833984375
        },
        "camFov": 25.0,
        "lerpPattern": 6,
        "cameraBlendType": "EaseInOutCubic",
        "NJBNNOMLKCK": {},
        "needZAxisRotate": true,
        "rotateAngle": 0.8379999995231628,
        "openCameraDither": false,
        "targetNpcAlias": "",
        "closeTreeLeafDither": true,
        "KJOEFBPOIIH": "",
        "IICFKKEBIEC": "",
        "EGEHEJEBLBJ": ""
      },
      {
        "$type": "MoleMole.Config.ConfigTeleportToAction",
        "type": "TELEPORT_TO",
        "aliasList": [
          "30388"
        ],
        "actionId": 234,
        "position": {
          "x": 2381.2529296875,
          "y": 222.4459991455078,
          "z": -797.0479736328125
        },
        "forward": {
          "x": 3.7079999446868896,
          "y": -1.0369999408721924,
          "z": -4.968999862670898
        },
        "openLongDisTeleport": true,
        "_posBindMovingTargetKey": "",
        "_forwardBindMovingTargetKey": ""
      },
      {
        "$type": "MoleMole.Config.ConfigVisibleInterAction",
        "type": "VISIBLE",
        "aliasList": [
          "30387"
        ],
        "actionId": 610,
        "isVisible": true,
        "_extraParam": ""
      },
      {
        "$type": "MoleMole.Config.ConfigTeleportToAction",
        "type": "TELEPORT_TO",
        "aliasList": [
          "30387"
        ],
        "actionId": 235,
        "position": {
          "x": 2375.947998046875,
          "y": 220.19000244140625,
          "z": -807.531005859375
        },
        "forward": {
          "x": 9.399999618530273,
          "y": 1.4759999513626099,
          "z": 3.0840001106262207
        },
        "openLongDisTeleport": true,
        "_posBindMovingTargetKey": "",
        "_forwardBindMovingTargetKey": ""
      },
      {
        "$type": "MoleMole.Config.ConfigVisibleInterAction",
        "type": "VISIBLE",
        "aliasList": [
          "30386"
        ],
        "actionId": 609,
        "isVisible": true,
        "_extraParam": ""
      },
      {
        "$type": "MoleMole.Config.ConfigTeleportToAction",
        "type": "TELEPORT_TO",
        "aliasList": [
          "30386"
        ],
        "actionId": 236,
        "position": {
          "x": 2395.5849609375,
          "y": 219.99200439453125,
          "z": -808.7520141601562
        },
        "forward": {
          "x": -10.005999565124512,
          "y": 1.159000039100647,
          "z": 6.318999767303467
        },
        "openLongDisTeleport": true,
        "_posBindMovingTargetKey": "",
        "_forwardBindMovingTargetKey": ""
      },
      {
        "$type": "MoleMole.Config.ConfigTeleportToAction",
        "type": "TELEPORT_TO",
        "aliasList": [
          "30385"
        ],
        "actionId": 237,
        "position": {
          "x": 2380.639892578125,
          "y": 218.33200073242188,
          "z": -814.7739868164062
        },
        "forward": {
          "x": 7.742000102996826,
          "y": 2.688999891281128,
          "z": 9.029000282287598
        },
        "openLongDisTeleport": true,
        "_posBindMovingTargetKey": "",
        "_forwardBindMovingTargetKey": ""
      },
      {
        "$type": "MoleMole.Config.ConfigSetAnimatorSpeedAction",
        "type": "SET_ANIMATOR_SPEED",
        "aliasList": [
          "30359"
        ],
        "actionId": 229,
        "speedRatio": 1.0,
        "blendType": "EaseInOutQuad"
      },
      {
        "$type": "MoleMole.Config.ConfigTeleportToAction",
        "type": "TELEPORT_TO",
        "aliasList": [
          "30359"
        ],
        "actionId": 189,
        "position": {
          "x": 2388.410888671875,
          "y": 221.02200317382812,
          "z": -803.0289916992188
        },
        "forward": {
          "x": 0.984000027179718,
          "y": 0.11900000274181366,
          "z": 0.13099999725818634
        },
        "openLongDisTeleport": true,
        "_posBindMovingTargetKey": "",
        "_forwardBindMovingTargetKey": ""
      },
      {
        "$type": "MoleMole.Config.ConfigTeleportToAction",
        "type": "TELEPORT_TO",
        "aliasList": [
          "1005"
        ],
        "actionId": 264,
        "position": {
          "x": 2389.73291015625,
          "y": 215.97300720214844,
          "z": -846.8189697265625
        },
        "forward": {
          "x": 0.11400000005960464,
          "z": 0.9929999709129333
        },
        "openLongDisTeleport": true,
        "_posBindMovingTargetKey": "",
        "_forwardBindMovingTargetKey": ""
      },
      {
        "$type": "FABLGECDBCH",
        "type": "BODY_LANG",
        "aliasList": [
          "1005"
        ],
        "actionId": 263,
        "isContinue": true,
        "canDoRepeatFreeStyle": false,
        "cantBackToIdleWhenSitLoop": true,
        "eventPatternSuiteKey": "",
        "FOHHKFAIAAJ": ""
      },
      {
        "$type": "PKKMAMONGEO",
        "type": "DIALOG",
        "aliasList": [
          "1005"
        ],
        "actionId": 111,
        "dialogID": 401070903,
        "protectTime": 5.5
      },
      {
        "$type": "MoleMole.Config.ConfigVisibleInterAction",
        "type": "VISIBLE",
        "aliasList": [
          "30388"
        ],
        "actionId": 611,
        "isVisible": true,
        "_extraParam": ""
      },
      {
        "$type": "MoleMole.Config.ConfigTeleportToAction",
        "type": "TELEPORT_TO",
        "aliasList": [
          "1070"
        ],
        "actionId": 266,
        "position": {
          "x": 2391.112060546875,
          "y": 216.0540008544922,
          "z": -847.2440185546875
        },
        "forward": {
          "x": 0.07800000160932541,
          "z": 0.996999979019165
        },
        "openLongDisTeleport": true,
        "_posBindMovingTargetKey": "",
        "_forwardBindMovingTargetKey": ""
      },
      {
        "$type": "LJLMDHDCAMK",
        "type": "LOOK_AT",
        "aliasList": [
          "AvatarNpc"
        ],
        "actionId": 513,
        "enableHead": true,
        "useTargetPos": true,
        "enableAbsolute": true,
        "targetPosition": {
          "x": 2390.22802734375,
          "y": 217.36900329589844,
          "z": -846.0189819335938
        },
        "headTurnTime": 0.5,
        "targetNpcAlias": "",
        "lookAtTargetType": "NONE",
        "openBackProtect": true,
        "backProtectAngle": 60.0,
        "targetNpcLookAtPoint": "",
        "OAFJBHJHLJG": ""
      },
      {
        "$type": "MoleMole.Config.ConfigTeleportToAction",
        "type": "TELEPORT_TO",
        "aliasList": [
          "Avatar"
        ],
        "actionId": 679,
        "position": {
          "x": 2390.4208984375,
          "y": 216.0030059814453,
          "z": -847.1950073242188
        },
        "forward": {
          "x": -0.07699999958276749,
          "z": 0.996999979019165
        },
        "openLongDisTeleport": true,
        "_posBindMovingTargetKey": "",
        "_forwardBindMovingTargetKey": ""
      },
      {
        "$type": "MoleMole.Config.ConfigTeleportToAction",
        "type": "TELEPORT_TO",
        "aliasList": [
          "AvatarNpc"
        ],
        "actionId": 268,
        "position": {
          "x": 2390.4208984375,
          "y": 216.0030059814453,
          "z": -847.1950073242188
        },
        "forward": {
          "x": -0.07699999958276749,
          "z": 0.996999979019165
        },
        "openLongDisTeleport": true,
        "_posBindMovingTargetKey": "",
        "_forwardBindMovingTargetKey": ""
      },
      {
        "$type": "CPJKOIHIPBE",
        "type": "EMO_SYNC",
        "delayTime": 0.035999998450279236,
        "aliasList": [
          "1005"
        ],
        "actionId": 146,
        "dataPath": "Cs_Emo_Avatar_Simple_Common_Set/Cs_Emo_Avatar_Talk/Cs_Emo_Avatar_Event/Cs_Emo_KaPaiXunYou/Cs_Emo_401070903",
        "phonemePath": "",
        "emotionPath": "",
        "mateDataPath": "",
        "matePhonemePath": "",
        "mateEmotionPath": "",
        "dataPathHashList": [
          9128059432222229674,
          15728799174634724178,
          8166834786428792221,
          636139377415050818
        ],
        "FMDPBECPELH": "",
        "ADKBLPOKGIK": ""
      },
      {
        "$type": "FJKIHHKJLMJ",
        "type": "CAMERA_MOVE",
        "delayTime": 0.10000000149011612,
        "duration": 4.294000148773193,
        "actionId": 218,
        "camPosOffset": {
          "x": 2390.77001953125,
          "y": 217.65199279785156,
          "z": -849.677001953125
        },
        "camForwardTargetOffset": {
          "x": 2390.693115234375,
          "y": 217.63900756835938,
          "z": -848.6799926757812
        },
        "camFov": 25.0,
        "cameraBlendType": "EaseOutQuad",
        "NJBNNOMLKCK": {},
        "needZAxisRotate": true,
        "rotateAngle": 0.8379999995231628,
        "openCameraDither": false,
        "targetNpcAlias": "",
        "closeTreeLeafDither": true,
        "KJOEFBPOIIH": "",
        "IICFKKEBIEC": "",
        "EGEHEJEBLBJ": ""
      },
      {
        "$type": "MoleMole.Config.ConfigMoveToAction",
        "type": "MOVE_TO",
        "delayTime": 0.10000000149011612,
        "aliasList": [
          "30385"
        ],
        "actionId": 342,
        "moveType": "WALK",
        "routeList": [
          {
            "x": 2384.544921875,
            "y": 214.27200317382812,
            "z": -807.1599731445312
          }
        ],
        "exactlyMove": true,
        "closeNavMesh": true,
        "openSetPos": true,
        "_bindMovingTargetKey": ""
      },
      {
        "$type": "FABLGECDBCH",
        "type": "BODY_LANG",
        "delayTime": 0.34299999475479126,
        "aliasList": [
          "30359"
        ],
        "actionId": 429,
        "bodyLangParam": 4190,
        "canDoRepeatFreeStyle": false,
        "cantBackToIdleWhenSitLoop": true,
        "eventPatternSuiteKey": "",
        "FOHHKFAIAAJ": ""
      },
      {
        "$type": "MoleMole.Config.ConfigMoveToAction",
        "type": "MOVE_TO",
        "delayTime": 2.1070001125335693,
        "aliasList": [
          "30387"
        ],
        "actionId": 349,
        "moveType": "WALK",
        "routeList": [
          {
            "x": 2385.673095703125,
            "y": 219.5679931640625,
            "z": -804.8499755859375
          }
        ],
        "exactlyMove": true,
        "closeNavMesh": true,
        "openSetPos": true,
        "_bindMovingTargetKey": ""
      },
      {
        "$type": "MoleMole.Config.ConfigMoveToAction",
        "type": "MOVE_TO",
        "delayTime": 2.11299991607666,
        "aliasList": [
          "30388"
        ],
        "actionId": 356,
        "moveType": "WALK",
        "routeList": [
          {
            "x": 2385.31201171875,
            "y": 220.0850067138672,
            "z": -800.9840087890625
          }
        ],
        "exactlyMove": true,
        "closeNavMesh": true,
        "openSetPos": true,
        "_bindMovingTargetKey": ""
      },
      {
        "$type": "MoleMole.Config.ConfigMoveToAction",
        "type": "MOVE_TO",
        "delayTime": 2.11299991607666,
        "aliasList": [
          "30386"
        ],
        "actionId": 357,
        "moveType": "WALK",
        "routeList": [
          {
            "x": 2389.60693359375,
            "y": 219.7689971923828,
            "z": -806.1820068359375
          }
        ],
        "exactlyMove": true,
        "closeNavMesh": true,
        "openSetPos": true,
        "_bindMovingTargetKey": ""
      },
      {
        "$type": "FJKIHHKJLMJ",
        "type": "CAMERA_MOVE",
        "delayTime": 4.355999946594238,
        "duration": 0.5,
        "actionId": 219,
        "camPosOffset": {
          "x": 2389.7900390625,
          "y": 218.20799255371094,
          "z": -845.8469848632812
        },
        "camForwardTargetOffset": {
          "x": 2389.695068359375,
          "y": 218.12899780273438,
          "z": -846.8389892578125
        },
        "camFov": 20.0,
        "lerpPattern": 6,
        "cameraBlendType": "EaseInOutCubic",
        "NJBNNOMLKCK": {},
        "needZAxisRotate": true,
        "rotateAngle": 0.8410000205039978,
        "openCameraDither": false,
        "targetNpcAlias": "",
        "closeTreeLeafDither": true,
        "KJOEFBPOIIH": "",
        "IICFKKEBIEC": "",
        "EGEHEJEBLBJ": ""
      },
      {
        "$type": "MoleMole.Config.ConfigTeleportToAction",
        "type": "TELEPORT_TO",
        "delayTime": 4.355999946594238,
        "aliasList": [
          "Avatar"
        ],
        "actionId": 680,
        "position": {
          "x": 2390.511962890625,
          "y": 216.00799560546875,
          "z": -847.2050170898438
        },
        "forward": {
          "x": 0.03200000151991844,
          "z": 0.9990000128746033
        },
        "openLongDisTeleport": true,
        "_posBindMovingTargetKey": "",
        "_forwardBindMovingTargetKey": ""
      },
      {
        "$type": "MoleMole.Config.ConfigTeleportToAction",
        "type": "TELEPORT_TO",
        "delayTime": 4.355999946594238,
        "aliasList": [
          "1070"
        ],
        "actionId": 267,
        "position": {
          "x": 2391.376953125,
          "y": 216.08599853515625,
          "z": -847.1510009765625
        },
        "forward": {
          "x": -0.21199999749660492,
          "z": 0.9769999980926514
        },
        "openLongDisTeleport": true,
        "_posBindMovingTargetKey": "",
        "_forwardBindMovingTargetKey": ""
      },
      {
        "$type": "MoleMole.Config.ConfigTeleportToAction",
        "type": "TELEPORT_TO",
        "delayTime": 4.355999946594238,
        "aliasList": [
          "1005"
        ],
        "actionId": 265,
        "position": {
          "x": 2389.73291015625,
          "y": 215.97300720214844,
          "z": -846.8189697265625
        },
        "forward": {
          "x": 0.11400000005960464,
          "z": 0.9940000176429749
        },
        "openLongDisTeleport": true,
        "_posBindMovingTargetKey": "",
        "_forwardBindMovingTargetKey": ""
      },
      {
        "$type": "MoleMole.Config.ConfigTeleportToAction",
        "type": "TELEPORT_TO",
        "delayTime": 4.355999946594238,
        "aliasList": [
          "AvatarNpc"
        ],
        "actionId": 269,
        "position": {
          "x": 2390.511962890625,
          "y": 216.00799560546875,
          "z": -847.2050170898438
        },
        "forward": {
          "x": 0.03200000151991844,
          "z": 0.9990000128746033
        },
        "openLongDisTeleport": true,
        "_posBindMovingTargetKey": "",
        "_forwardBindMovingTargetKey": ""
      },
      {
        "$type": "FABLGECDBCH",
        "type": "BODY_LANG",
        "delayTime": 4.480000019073486,
        "aliasList": [
          "1005"
        ],
        "actionId": 225,
        "bodyLangParam": 1060,
        "canDoRepeatFreeStyle": false,
        "cantBackToIdleWhenSitLoop": true,
        "eventPatternSuiteKey": "",
        "FOHHKFAIAAJ": ""
      },
      {
        "$type": "MoleMole.Config.ConfigTeleportToAction",
        "type": "TELEPORT_TO",
        "delayTime": 4.5,
        "aliasList": [
          "30388"
        ],
        "actionId": 348,
        "position": {
          "x": 2387.0830078125,
          "y": 222.031005859375,
          "z": -797.9329833984375
        },
        "forward": {
          "x": 0.2919999957084656,
          "y": -0.4300000071525574,
          "z": -7.3470001220703125
        },
        "openLongDisTeleport": true,
        "_posBindMovingTargetKey": "",
        "_forwardBindMovingTargetKey": ""
      },
      {
        "$type": "MoleMole.Config.ConfigTeleportToAction",
        "type": "TELEPORT_TO",
        "delayTime": 4.5,
        "aliasList": [
          "30385"
        ],
        "actionId": 345,
        "position": {
          "x": 2381.676025390625,
          "y": 218.9219970703125,
          "z": -812.1409912109375
        },
        "forward": {
          "x": 5.545000076293945,
          "y": 2.0989999771118164,
          "z": 6.5980000495910645
        },
        "openLongDisTeleport": true,
        "_posBindMovingTargetKey": "",
        "_forwardBindMovingTargetKey": ""
      },
      {
        "$type": "MoleMole.Config.ConfigTeleportToAction",
        "type": "TELEPORT_TO",
        "delayTime": 4.5,
        "aliasList": [
          "30387"
        ],
        "actionId": 347,
        "position": {
          "x": 2379.846923828125,
          "y": 221.09500122070312,
          "z": -801.5709838867188
        },
        "forward": {
          "x": 7.451000213623047,
          "y": 0.5709999799728394,
          "z": -3.9230000972747803
        },
        "openLongDisTeleport": true,
        "_posBindMovingTargetKey": "",
        "_forwardBindMovingTargetKey": ""
      },
      {
        "$type": "FJKIHHKJLMJ",
        "type": "CAMERA_MOVE",
        "delayTime": 4.514999866485596,
        "duration": 0.800000011920929,
        "actionId": 223,
        "camPosOffset": {
          "x": 2389.824951171875,
          "y": 217.32899475097656,
          "z": -845.780029296875
        },
        "camForwardTargetOffset": {
          "x": 2389.72998046875,
          "y": 217.25,
          "z": -846.77197265625
        },
        "camFov": 20.0,
        "cameraBlendType": "EaseOutQuint",
        "NJBNNOMLKCK": {},
        "needZAxisRotate": true,
        "rotateAngle": 0.8410000205039978,
        "openCameraDither": false,
        "targetNpcAlias": "",
        "closeTreeLeafDither": true,
        "KJOEFBPOIIH": "",
        "IICFKKEBIEC": "",
        "EGEHEJEBLBJ": ""
      },
      {
        "$type": "FJKIHHKJLMJ",
        "type": "CAMERA_MOVE",
        "delayTime": 4.989999771118164,
        "duration": 5.660999774932861,
        "actionId": 224,
        "camPosOffset": {
          "x": 2389.823974609375,
          "y": 217.31100463867188,
          "z": -845.7789916992188
        },
        "camForwardTargetOffset": {
          "x": 2389.72900390625,
          "y": 217.23199462890625,
          "z": -846.77099609375
        },
        "camFov": 20.0,
        "cameraBlendType": "EaseOutQuad",
        "NJBNNOMLKCK": {},
        "needZAxisRotate": true,
        "rotateAngle": 0.8410000205039978,
        "openCameraDither": false,
        "targetNpcAlias": "",
        "closeTreeLeafDither": true,
        "KJOEFBPOIIH": "",
        "IICFKKEBIEC": "",
        "EGEHEJEBLBJ": ""
      },
      {
        "$type": "MoleMole.Config.ConfigTeleportToAction",
        "type": "TELEPORT_TO",
        "delayTime": 5.191999912261963,
        "aliasList": [
          "30386"
        ],
        "actionId": 414,
        "position": {
          "x": 2392.6708984375,
          "y": 220.1929931640625,
          "z": -807.6329956054688
        },
        "forward": {
          "x": -5.48799991607666,
          "y": 0.9580000042915344,
          "z": 2.3310000896453857
        },
        "openLongDisTeleport": true,
        "_posBindMovingTargetKey": "",
        "_forwardBindMovingTargetKey": ""
      },
      {
        "$type": "MoleMole.Config.ConfigTeleportToAction",
        "type": "TELEPORT_TO",
        "delayTime": 6.5,
        "aliasList": [
          "30359"
        ],
        "actionId": 437,
        "position": {
          "x": 2387.281982421875,
          "y": 220.48899841308594,
          "z": -805.4359741210938
        },
        "forward": {
          "x": 0.6570000052452087,
          "z": 0.7540000081062317
        },
        "openLongDisTeleport": true,
        "_posBindMovingTargetKey": "",
        "_forwardBindMovingTargetKey": ""
      },
      {
        "$type": "FABLGECDBCH",
        "type": "BODY_LANG",
        "delayTime": 6.76200008392334,
        "aliasList": [
          "1005"
        ],
        "actionId": 464,
        "isContinue": true,
        "canDoRepeatFreeStyle": false,
        "cantBackToIdleWhenSitLoop": true,
        "eventPatternSuiteKey": "",
        "FOHHKFAIAAJ": ""
      }
    ],
    [
      {
        "$type": "FJKIHHKJLMJ",
        "type": "CAMERA_MOVE",
        "duration": 0.5,
        "actionId": 440,
        "camPosOffset": {
          "x": 2397.27197265625,
          "y": 240.01600646972656,
          "z": -805.531982421875
        },
        "camForwardTargetOffset": {
          "x": 2396.806884765625,
          "y": 239.13099670410156,
          "z": -805.5369873046875
        },
        "camFov": 30.0,
        "lerpPattern": 6,
        "cameraBlendType": "EaseInOutCubic",
        "NJBNNOMLKCK": {},
        "needZAxisRotate": true,
        "rotateAngle": 1.8029999732971191,
        "openCameraDither": false,
        "targetNpcAlias": "",
        "closeTreeLeafDither": true,
        "KJOEFBPOIIH": "",
        "IICFKKEBIEC": "",
        "EGEHEJEBLBJ": ""
      },
      {
        "$type": "MoleMole.Config.ConfigTimeProtectAction",
        "type": "TIME_PROTECT",
        "duration": 3.0999999046325684,
        "actionId": 441
      },
      {
        "$type": "PKKMAMONGEO",
        "type": "DIALOG_CLEAR",
        "actionId": 636
      },
      {
        "$type": "MoleMole.Config.ConfigAudioPlayAction",
        "type": "AUDIO_PLAY",
        "actionId": 674,
        "audioEventStr": "Play_Chapter_3_7_Journey_401070904_NPCGrassWalk"
      },
      {
        "$type": "MoleMole.Config.ConfigTeleportToAction",
        "type": "TELEPORT_TO",
        "aliasList": [
          "30359"
        ],
        "actionId": 442,
        "position": {
          "x": 2387.281982421875,
          "y": 220.48899841308594,
          "z": -805.4359741210938
        },
        "forward": {
          "x": 0.6570000052452087,
          "z": 0.7540000081062317
        },
        "openLongDisTeleport": true,
        "_posBindMovingTargetKey": "",
        "_forwardBindMovingTargetKey": ""
      },
      {
        "$type": "MoleMole.Config.ConfigMoveToAction",
        "type": "MOVE_TO",
        "aliasList": [
          "30385"
        ],
        "actionId": 443,
        "moveType": "WALK",
        "routeList": [
          {
            "x": 2384.925048828125,
            "y": 214.3939971923828,
            "z": -806.6619873046875
          }
        ],
        "exactlyMove": true,
        "closeNavMesh": true,
        "openSetPos": true,
        "_bindMovingTargetKey": ""
      },
      {
        "$type": "MoleMole.Config.ConfigVisibleInterAction",
        "type": "VISIBLE",
        "aliasList": [
          "30385"
        ],
        "actionId": 514,
        "isVisible": true,
        "_extraParam": ""
      },
      {
        "$type": "MoleMole.Config.ConfigMoveToAction",
        "type": "MOVE_TO",
        "aliasList": [
          "30386"
        ],
        "actionId": 444,
        "moveType": "WALK",
        "routeList": [
          {
            "x": 2388.3359375,
            "y": 220.45399475097656,
            "z": -805.81201171875
          }
        ],
        "exactlyMove": true,
        "closeNavMesh": true,
        "openSetPos": true,
        "_bindMovingTargetKey": ""
      },
      {
        "$type": "MoleMole.Config.ConfigVisibleInterAction",
        "type": "VISIBLE",
        "aliasList": [
          "30386"
        ],
        "actionId": 515,
        "isVisible": true,
        "_extraParam": ""
      },
      {
        "$type": "MoleMole.Config.ConfigMoveToAction",
        "type": "MOVE_TO",
        "aliasList": [
          "30387"
        ],
        "actionId": 445,
        "moveType": "WALK",
        "routeList": [
          {
            "x": 2385.945068359375,
            "y": 220.49400329589844,
            "z": -805.176025390625
          }
        ],
        "exactlyMove": true,
        "closeNavMesh": true,
        "openSetPos": true,
        "_bindMovingTargetKey": ""
      },
      {
        "$type": "MoleMole.Config.ConfigVisibleInterAction",
        "type": "VISIBLE",
        "aliasList": [
          "30387"
        ],
        "actionId": 516,
        "isVisible": true,
        "_extraParam": ""
      },
      {
        "$type": "MoleMole.Config.ConfigMoveToAction",
        "type": "MOVE_TO",
        "aliasList": [
          "30388"
        ],
        "actionId": 446,
        "moveType": "WALK",
        "routeList": [
          {
            "x": 2387.843994140625,
            "y": 220.9029998779297,
            "z": -803.510009765625
          }
        ],
        "exactlyMove": true,
        "closeNavMesh": true,
        "openSetPos": true,
        "_bindMovingTargetKey": ""
      },
      {
        "$type": "MoleMole.Config.ConfigVisibleInterAction",
        "type": "VISIBLE",
        "aliasList": [
          "30388"
        ],
        "actionId": 517,
        "isVisible": true,
        "_extraParam": ""
      },
      {
        "$type": "FJKIHHKJLMJ",
        "type": "CAMERA_MOVE",
        "delayTime": 0.10000000149011612,
        "duration": 3.0,
        "actionId": 439,
        "camPosOffset": {
          "x": 2396.39501953125,
          "y": 240.28399658203125,
          "z": -803.0679931640625
        },
        "camForwardTargetOffset": {
          "x": 2395.969970703125,
          "y": 239.38600158691406,
          "z": -803.1859741210938
        },
        "camFov": 30.0,
        "cameraBlendType": "Linear",
        "NJBNNOMLKCK": {},
        "needZAxisRotate": true,
        "rotateAngle": 1.9010000228881836,
        "openCameraDither": false,
        "targetNpcAlias": "",
        "closeTreeLeafDither": true,
        "KJOEFBPOIIH": "",
        "IICFKKEBIEC": "",
        "EGEHEJEBLBJ": ""
      }
    ],
    [
      {
        "$type": "FJKIHHKJLMJ",
        "type": "CAMERA_MOVE",
        "duration": 0.5,
        "actionId": 208,
        "camPosOffset": {
          "x": 2392.3359375,
          "y": 217.46299743652344,
          "z": -845.3489990234375
        },
        "camForwardTargetOffset": {
          "x": 2391.60009765625,
          "y": 217.38099670410156,
          "z": -846.02099609375
        },
        "camFov": 20.0,
        "lerpPattern": 6,
        "cameraBlendType": "EaseInOutCubic",
        "NJBNNOMLKCK": {},
        "needZAxisRotate": true,
        "rotateAngle": 0.8410000205039978,
        "openCameraDither": false,
        "targetNpcAlias": "",
        "closeTreeLeafDither": true,
        "KJOEFBPOIIH": "",
        "IICFKKEBIEC": "",
        "EGEHEJEBLBJ": ""
      },
      {
        "$type": "MoleMole.Config.ConfigTeleportToAction",
        "type": "TELEPORT_TO",
        "aliasList": [
          "1005"
        ],
        "actionId": 259,
        "position": {
          "x": 2389.839111328125,
          "y": 215.98500061035156,
          "z": -846.8610229492188
        },
        "forward": {
          "x": 0.3109999895095825,
          "y": -0.012000000104308128,
          "z": 0.972000002861023
        },
        "openLongDisTeleport": true,
        "_posBindMovingTargetKey": "",
        "_forwardBindMovingTargetKey": ""
      },
      {
        "$type": "LLGANGLOEEO",
        "type": "STEER_TO",
        "duration": 1.0,
        "aliasList": [
          "1005"
        ],
        "actionId": 258,
        "_flag": 32,
        "steerType": "ABSOLUTE",
        "steerDir": {
          "x": 2390.818115234375,
          "y": 215.93800354003906,
          "z": -846.7050170898438
        },
        "useSteerAnim": true,
        "interruptFreestyle": true,
        "forceSteer": true,
        "targetNpcAlias": "",
        "ignoreY": true,
        "fixInterNull": true,
        "OAFJBHJHLJG": ""
      },
      {
        "$type": "LJLMDHDCAMK",
        "type": "LOOK_AT",
        "aliasList": [
          "1005"
        ],
        "actionId": 255,
        "enableHead": true,
        "targetPosition": {
          "x": 2390.818115234375,
          "y": 217.38600158691406,
          "z": -847.06298828125
        },
        "headTurnTime": 0.5,
        "targetNpcAlias": "AvatarNpc",
        "openBackProtect": true,
        "backProtectAngle": 60.0,
        "targetNpcLookAtPoint": "",
        "OAFJBHJHLJG": ""
      },
      {
        "$type": "CPJKOIHIPBE",
        "type": "EMO_SYNC",
        "aliasList": [
          "1005"
        ],
        "actionId": 147,
        "dataPath": "Cs_Emo_Avatar_Simple_Common_Set/Cs_Emo_Avatar_Talk/Cs_Emo_Avatar_Event/Cs_Emo_KaPaiXunYou/Cs_Emo_401070904",
        "phonemePath": "",
        "emotionPath": "",
        "mateDataPath": "",
        "matePhonemePath": "",
        "mateEmotionPath": "",
        "dataPathHashList": [
          15717487011818586780,
          89605304484689568,
          5091450563004920689,
          4782704279996411355
        ],
        "FMDPBECPELH": "",
        "ADKBLPOKGIK": ""
      },
      {
        "$type": "PKKMAMONGEO",
        "type": "DIALOG",
        "aliasList": [
          "1005"
        ],
        "actionId": 113,
        "dialogID": 401070904,
        "protectTime": 2.437999963760376
      },
      {
        "$type": "MoleMole.Config.ConfigTeleportToAction",
        "type": "TELEPORT_TO",
        "aliasList": [
          "1070"
        ],
        "actionId": 260,
        "position": {
          "x": 2390.991943359375,
          "y": 216.0449981689453,
          "z": -847.2349853515625
        },
        "forward": {
          "x": -0.21199999749660492,
          "z": 0.9769999980926514
        },
        "openLongDisTeleport": true,
        "_posBindMovingTargetKey": "",
        "_forwardBindMovingTargetKey": ""
      },
      {
        "$type": "LJLMDHDCAMK",
        "type": "LOOK_AT",
        "aliasList": [
          "1070"
        ],
        "actionId": 261,
        "enableHead": true,
        "useTargetPos": true,
        "enableAbsolute": true,
        "targetPosition": {
          "x": 2389.85107421875,
          "y": 217.31100463867188,
          "z": -846.8469848632812
        },
        "headTurnTime": 0.5,
        "targetNpcAlias": "",
        "lookAtTargetType": "NONE",
        "openBackProtect": true,
        "backProtectAngle": 60.0,
        "targetNpcLookAtPoint": "",
        "OAFJBHJHLJG": ""
      },
      {
        "$type": "MoleMole.Config.ConfigTeleportToAction",
        "type": "TELEPORT_TO",
        "aliasList": [
          "AvatarNpc"
        ],
        "actionId": 526,
        "position": {
          "x": 2390.4208984375,
          "y": 216.0030059814453,
          "z": -847.1950073242188
        },
        "forward": {
          "x": -0.07699999958276749,
          "z": 0.996999979019165
        },
        "openLongDisTeleport": true,
        "_posBindMovingTargetKey": "",
        "_forwardBindMovingTargetKey": ""
      },
      {
        "$type": "LJLMDHDCAMK",
        "type": "LOOK_AT",
        "aliasList": [
          "AvatarNpc"
        ],
        "actionId": 262,
        "enableHead": true,
        "useTargetPos": true,
        "enableAbsolute": true,
        "targetPosition": {
          "x": 2389.85107421875,
          "y": 217.31100463867188,
          "z": -846.8469848632812
        },
        "headTurnTime": 0.5,
        "targetNpcAlias": "",
        "lookAtTargetType": "NONE",
        "openBackProtect": true,
        "backProtectAngle": 60.0,
        "targetNpcLookAtPoint": "",
        "OAFJBHJHLJG": ""
      },
      {
        "$type": "MoleMole.Config.ConfigTeleportToAction",
        "type": "TELEPORT_TO",
        "aliasList": [
          "Avatar"
        ],
        "actionId": 681,
        "position": {
          "x": 2390.4208984375,
          "y": 216.0030059814453,
          "z": -847.1950073242188
        },
        "forward": {
          "x": -0.07699999958276749,
          "z": 0.996999979019165
        },
        "openLongDisTeleport": true,
        "_posBindMovingTargetKey": "",
        "_forwardBindMovingTargetKey": ""
      },
      {
        "$type": "FJKIHHKJLMJ",
        "type": "CAMERA_MOVE",
        "delayTime": 0.10000000149011612,
        "duration": 20.54800033569336,
        "actionId": 209,
        "camPosOffset": {
          "x": 2392.18603515625,
          "y": 217.41400146484375,
          "z": -844.9169921875
        },
        "camForwardTargetOffset": {
          "x": 2391.449951171875,
          "y": 217.33200073242188,
          "z": -845.5889892578125
        },
        "camFov": 20.0,
        "cameraBlendType": "EaseOutQuad",
        "NJBNNOMLKCK": {},
        "needZAxisRotate": true,
        "rotateAngle": 0.8410000205039978,
        "openCameraDither": false,
        "targetNpcAlias": "",
        "closeTreeLeafDither": true,
        "KJOEFBPOIIH": "",
        "IICFKKEBIEC": "",
        "EGEHEJEBLBJ": ""
      },
      {
        "$type": "LLGANGLOEEO",
        "type": "STEER_TO",
        "delayTime": 1.0069999694824219,
        "duration": 0.800000011920929,
        "aliasList": [
          "1005"
        ],
        "actionId": 587,
        "_flag": 32,
        "steerType": "ABSOLUTE",
        "steerDir": {
          "x": 2391.054931640625,
          "y": 216.06199645996094,
          "z": -847.177001953125
        },
        "interruptFreestyle": true,
        "forceSteer": true,
        "targetNpcAlias": "",
        "ignoreY": true,
        "fixInterNull": true,
        "OAFJBHJHLJG": ""
      },
      {
        "$type": "LJLMDHDCAMK",
        "type": "LOOK_AT",
        "delayTime": 1.152999997138977,
        "aliasList": [
          "AvatarNpc"
        ],
        "actionId": 583,
        "enableHead": true,
        "headTurnTime": 0.5,
        "targetNpcAlias": "30359",
        "openBackProtect": true,
        "backProtectAngle": 60.0,
        "targetNpcLookAtPoint": "",
        "OAFJBHJHLJG": ""
      },
      {
        "$type": "MoleMole.Config.ConfigMoveToAction",
        "type": "MOVE_TO",
        "delayTime": 1.152999997138977,
        "aliasList": [
          "Avatar"
        ],
        "actionId": 682,
        "moveType": "RUN",
        "routeList": [
          {
            "x": 2390.4208984375,
            "y": 215.9239959716797,
            "z": -844.8140258789062
          }
        ],
        "exactlyMove": true,
        "closeNavMesh": true,
        "closeAvatarNavMesh": true,
        "openSetPos": true,
        "_bindMovingTargetKey": ""
      },
      {
        "$type": "MoleMole.Config.ConfigMoveToAction",
        "type": "MOVE_TO",
        "delayTime": 1.152999997138977,
        "aliasList": [
          "AvatarNpc"
        ],
        "actionId": 585,
        "moveType": "RUN",
        "routeList": [
          {
            "x": 2390.4208984375,
            "y": 215.9239959716797,
            "z": -844.8140258789062
          }
        ],
        "exactlyMove": true,
        "closeNavMesh": true,
        "openSetPos": true,
        "_bindMovingTargetKey": ""
      },
      {
        "$type": "LJLMDHDCAMK",
        "type": "LOOK_AT",
        "delayTime": 1.440000057220459,
        "aliasList": [
          "1070"
        ],
        "actionId": 584,
        "enableHead": true,
        "headTurnTime": 0.5,
        "targetNpcAlias": "30359",
        "openBackProtect": true,
        "backProtectAngle": 60.0,
        "targetNpcLookAtPoint": "",
        "OAFJBHJHLJG": ""
      },
      {
        "$type": "MoleMole.Config.ConfigMoveToAction",
        "type": "MOVE_TO",
        "delayTime": 1.440000057220459,
        "aliasList": [
          "1070"
        ],
        "actionId": 586,
        "moveType": "RUN",
        "routeList": [
          {
            "x": 2391.194091796875,
            "y": 215.90199279785156,
            "z": -844.8150024414062
          }
        ],
        "exactlyMove": true,
        "closeNavMesh": true,
        "openSetPos": true,
        "_bindMovingTargetKey": ""
      },
      {
        "$type": "LJLMDHDCAMK",
        "type": "LOOK_AT",
        "delayTime": 1.8329999446868896,
        "aliasList": [
          "1005"
        ],
        "actionId": 589,
        "headTurnTime": 0.5,
        "targetNpcAlias": "",
        "openBackProtect": true,
        "backProtectAngle": 60.0,
        "targetNpcLookAtPoint": "",
        "OAFJBHJHLJG": ""
      },
      {
        "$type": "MoleMole.Config.ConfigMoveToAction",
        "type": "MOVE_TO",
        "delayTime": 1.8420000076293945,
        "aliasList": [
          "1005"
        ],
        "actionId": 588,
        "moveType": "RUN",
        "routeList": [
          {
            "x": 2389.68701171875,
            "y": 215.93499755859375,
            "z": -844.9099731445312
          }
        ],
        "exactlyMove": true,
        "closeNavMesh": true,
        "openSetPos": true,
        "_bindMovingTargetKey": ""
      }
    ],
    [
      {
        "$type": "MoleMole.Config.ConfigSimpleBlackScreenAction",
        "type": "SIMPLE_BLACK_SCREEN",
        "actionId": 114,
        "durationToBlack": 0.5,
        "durationKeepBlack": 1.5,
        "durationFromBlack": 0.5,
        "textMapID": ""
      },
      {
        "$type": "FABLGECDBCH",
        "type": "BODY_LANG",
        "aliasList": [
          "30387"
        ],
        "actionId": 130,
        "isContinue": true,
        "forceDoFreeStyle": true,
        "canDoRepeatFreeStyle": false,
        "eventPatternSuiteKey": "",
        "FOHHKFAIAAJ": ""
      },
      {
        "$type": "FABLGECDBCH",
        "type": "BODY_LANG",
        "aliasList": [
          "30386"
        ],
        "actionId": 127,
        "isContinue": true,
        "forceDoFreeStyle": true,
        "canDoRepeatFreeStyle": false,
        "eventPatternSuiteKey": "",
        "FOHHKFAIAAJ": ""
      },
      {
        "$type": "FABLGECDBCH",
        "type": "BODY_LANG",
        "aliasList": [
          "30385"
        ],
        "actionId": 124,
        "isContinue": true,
        "forceDoFreeStyle": true,
        "canDoRepeatFreeStyle": false,
        "eventPatternSuiteKey": "",
        "FOHHKFAIAAJ": ""
      },
      {
        "$type": "FABLGECDBCH",
        "type": "BODY_LANG",
        "aliasList": [
          "30359"
        ],
        "actionId": 121,
        "isContinue": true,
        "forceDoFreeStyle": true,
        "canDoRepeatFreeStyle": false,
        "eventPatternSuiteKey": "",
        "FOHHKFAIAAJ": ""
      },
      {
        "$type": "FABLGECDBCH",
        "type": "BODY_LANG",
        "aliasList": [
          "1070"
        ],
        "actionId": 117,
        "isContinue": true,
        "forceDoFreeStyle": true,
        "canDoRepeatFreeStyle": false,
        "eventPatternSuiteKey": "",
        "FOHHKFAIAAJ": ""
      },
      {
        "$type": "FABLGECDBCH",
        "type": "BODY_LANG",
        "aliasList": [
          "1005"
        ],
        "actionId": 119,
        "isContinue": true,
        "forceDoFreeStyle": true,
        "canDoRepeatFreeStyle": false,
        "eventPatternSuiteKey": "",
        "FOHHKFAIAAJ": ""
      },
      {
        "$type": "FABLGECDBCH",
        "type": "BODY_LANG",
        "aliasList": [
          "AvatarNpc"
        ],
        "actionId": 140,
        "isContinue": true,
        "forceDoFreeStyle": true,
        "canDoRepeatFreeStyle": false,
        "eventPatternSuiteKey": "",
        "FOHHKFAIAAJ": ""
      },
      {
        "$type": "MoleMole.Config.ConfigTimeProtectAction",
        "type": "TIME_PROTECT",
        "duration": 0.699999988079071,
        "actionId": 115
      },
      {
        "$type": "FABLGECDBCH",
        "type": "BODY_LANG",
        "aliasList": [
          "30388"
        ],
        "actionId": 133,
        "isContinue": true,
        "forceDoFreeStyle": true,
        "canDoRepeatFreeStyle": false,
        "eventPatternSuiteKey": "",
        "FOHHKFAIAAJ": ""
      },
      {
        "$type": "MoleMole.Config.ConfigTeleportToAction",
        "type": "TELEPORT_TO",
        "delayTime": 0.6000000238418579,
        "aliasList": [
          "AvatarNpc"
        ],
        "actionId": 545,
        "position": {
          "x": 2387.375,
          "y": 220.23500061035156,
          "z": -806.7080078125
        },
        "forward": {
          "x": -0.7139999866485596,
          "z": 0.699999988079071
        },
        "openLongDisTeleport": true,
        "_posBindMovingTargetKey": "",
        "_forwardBindMovingTargetKey": ""
      },
      {
        "$type": "MoleMole.Config.ConfigVisibleInterAction",
        "type": "VISIBLE",
        "delayTime": 0.6000000238418579,
        "aliasList": [
          "30388"
        ],
        "actionId": 131,
        "_extraParam": ""
      },
      {
        "$type": "MoleMole.Config.ConfigTeleportToAction",
        "type": "TELEPORT_TO",
        "delayTime": 0.6000000238418579,
        "aliasList": [
          "Avatar"
        ],
        "actionId": 683,
        "position": {
          "x": 2387.375,
          "y": 220.23500061035156,
          "z": -806.7080078125
        },
        "forward": {
          "x": -0.7139999866485596,
          "z": 0.699999988079071
        },
        "openLongDisTeleport": true,
        "_posBindMovingTargetKey": "",
        "_forwardBindMovingTargetKey": ""
      },
      {
        "$type": "MoleMole.Config.ConfigVisibleInterAction",
        "type": "VISIBLE",
        "delayTime": 0.6000000238418579,
        "aliasList": [
          "30385"
        ],
        "actionId": 122,
        "_extraParam": ""
      },
      {
        "$type": "MoleMole.Config.ConfigVisibleInterAction",
        "type": "VISIBLE",
        "delayTime": 0.6000000238418579,
        "aliasList": [
          "Avatar"
        ],
        "actionId": 141,
        "isVisible": true,
        "_extraParam": ""
      },
      {
        "$type": "MoleMole.Config.ConfigVisibleInterAction",
        "type": "VISIBLE",
        "delayTime": 0.6000000238418579,
        "aliasList": [
          "30386"
        ],
        "actionId": 125,
        "_extraParam": ""
      },
      {
        "$type": "FJKIHHKJLMJ",
        "type": "CAMERA_MOVE",
        "delayTime": 0.6000000238418579,
        "duration": 0.10000000149011612,
        "actionId": 217,
        "camPosOffset": {
          "x": 2388.95703125,
          "y": 221.9739990234375,
          "z": -808.9359741210938
        },
        "camForwardTargetOffset": {
          "x": 2388.4150390625,
          "y": 221.66000366210938,
          "z": -808.156005859375
        },
        "lerpPattern": 6,
        "cameraBlendType": "EaseInOutCubic",
        "NJBNNOMLKCK": {},
        "needZAxisRotate": true,
        "rotateAngle": 0.8830000162124634,
        "openCameraDither": false,
        "targetNpcAlias": "",
        "closeTreeLeafDither": true,
        "KJOEFBPOIIH": "",
        "IICFKKEBIEC": "",
        "EGEHEJEBLBJ": ""
      },
      {
        "$type": "MoleMole.Config.ConfigVisibleInterAction",
        "type": "VISIBLE",
        "delayTime": 0.6000000238418579,
        "aliasList": [
          "30387"
        ],
        "actionId": 128,
        "_extraParam": ""
      },
      {
        "$type": "MoleMole.Config.ConfigVisibleInterAction",
        "type": "VISIBLE",
        "delayTime": 0.6000000238418579,
        "aliasList": [
          "AvatarNpc"
        ],
        "actionId": 142,
        "_extraParam": ""
      }
    ]
  ],
  "groupId": [
    {
      "grpId": 596778185,
      "nextGrpId": 596778186
    },
    {
      "index": 1,
      "grpId": 596778186,
      "nextGrpId": 596778187
    },
    {
      "index": 2,
      "grpId": 596778187,
      "nextGrpId": 596778188
    },
    {
      "index": 3,
      "grpId": 596778188,
      "nextGrpId": 596778189
    },
    {
      "index": 4,
      "grpId": 596778189,
      "nextGrpId": 596778190
    },
    {
      "index": 5,
      "grpId": 596778190,
      "nextGrpId": 596778191
    },
    {
      "index": 6,
      "grpId": 596778191,
      "nextGrpId": 596778192
    },
    {
      "index": 7,
      "grpId": 596778192,
      "nextGrpId": 596778193
    },
    {
      "index": 8,
      "grpId": 596778193,
      "nextGrpId": 1320254599
    }
  ],
  "freeStyleDic": {
    "1025": [],
    "1026": [],
    "1070": [],
    "30359": [
      1040,
      4190
    ],
    "30385": [],
    "30386": [],
    "30387": [],
    "30388": []
  },
  "EKFBDAIDEEF": {
    "30359": [
      "SitChat01AS",
      "SitHoldArm01AS",
      "SitPutArm01AS",
      "SitRaiseHand01AS",
      "SitRead01AS"
    ],
    "30388": [
      "SitChat01AS",
      "SitHoldArm01AS",
      "SitPutArm01AS",
      "SitRaiseHand01AS",
      "SitRead01AS"
    ]
  }
}