{
  "flyDirectionRtpcKey": {
    "text": "Param_flyDir"
  },
  "flyDirectionRtpcFront": 50.0,
  "flyDirectionRtpcSide": 100.0,
  "flyDirectionRtpcBack": 50.0,
  "lastFrameSpeedInAirRtpcKey": {
    "text": "Param_landSpeed"
  },
  "eventFallInWater": {
    "text": "Play_sfx_char_land_splash"
  },
  "altitudeRtpcKey": {
    "text": "Param_gradient"
  },
  "slopeRtpcKey": {
    "text": "Param_walkAngle"
  },
  "flyTurnEvent": {
    "text": ""
  },
  "flySpeedRtpcKey": {
    "text": "Param_flySpeed"
  },
  "airflowSpeedGain": 2.0,
  "airflowGainFadeLength": 0.5,
  "climbVerticalScalerRtpcKey": {
    "text": "Param_climbDir"
  },
  "climbVerticalScalerAnimatorKey": {
    "text": "ClimbVer"
  },
  "cameraAngleXRtpcKey": {
    "text": "Param_cameraX"
  },
  "cameraAngleYRtpcKey": {
    "text": "Param_cameraY"
  },
  "enterSpeedupFieldEvent": {
    "text": ""
  },
  "fallOnWaterRtpcKey": {
    "text": "Param_splash"
  },
  "GGPDACBEAFH": {
    "text": "Param_avatarmove_Y_absolute"
  },
  "GELBCIPDPFM": {
    "text": "StateGroup_movementState"
  },
  "KGPJHILHAJC": {
    "UNDEFINED": {
      "text": "None"
    },
    "MOVE": {
      "text": "State_onLand"
    },
    "AIR": {
      "text": "State_inAir"
    },
    "FLY": {
      "text": "State_inAir"
    },
    "SWIM": {
      "text": "State_inWater"
    },
    "DIVE": {
      "text": "State_inDiving"
    },
    "OCEAN_CURRENT": {
      "text": "State_inDiving"
    },
    "ARC_LIGHT": {
      "text": "None"
    }
  },
  "OJAHDPJOJPJ": {
    "text": "StateGroup_Vehicle"
  },
  "MLNOLBOKKNC": {
    "None": {
      "text": "None"
    },
    "Undefined": {
      "text": "State_Undefined"
    },
    "Ship": {
      "text": "State_Ship"
    },
    "Skiff": {
      "text": "State_Skiff"
    },
    "Sorush": {
      "text": "State_Sorush"
    },
    "Natsaurus": {
      "text": "State_Natsaurus"
    }
  },
  "NIJIHGJGBNB": {
    "text": "StateGroup_ReferSys"
  },
  "DFLMPDFNMJF": {
    "None": {
      "text": "None"
    },
    "Undefined": {
      "text": "State_Undefined"
    },
    "GadgetCurveMove": {
      "text": "State_GadgetCurveMove"
    }
  },
  "OJJOOHEMGIL": {
    "text": "Param_TestIfReferSysStart"
  },
  "DGOAOFJKKII": "",
  "DDNNMCJPJIB": [
    {
      "stateName": "IN_WATER",
      "onEnter": [
        {
          "action": {
            "$type": "CPBMHBHJPKE",
            "CNLGJCENJHF": "AMBIENCE",
            "eventName": {
              "text": "Play_Amb_FD40_UnderWater_Trigger"
            }
          }
        },
        {
          "action": {
            "$type": "CPBMHBHJPKE",
            "CNLGJCENJHF": "AMBIENCE",
            "eventName": {
              "text": "Play_Amb_FD40_UnderWater_Surface_2_0"
            }
          }
        },
        {
          "action": {
            "$type": "DACJCGLBKKE",
            "stateGroup": {
              "text": "StateGroup_gameDiving"
            },
            "stateValue": {
              "text": "State_inDiving"
            }
          }
        },
        {
          "action": {
            "$type": "CCEDCNBMDEM",
            "rtpcKey": {
              "text": ""
            },
            "PGAPHMMKMNJ": "DiveRawRelativeYaw",
            "DOCPJEBCGCM": 3
          }
        },
        {
          "action": {
            "$type": "LPNFIDKPOOE",
            "configName": "config_water"
          }
        },
        {
          "action": {
            "$type": "EMPACEEOKPJ",
            "EFPMBIICMEE": "Aux_Underwater_Vo",
            "order": 1
          }
        },
        {
          "action": {
            "$type": "CGGCHPJDIGC",
            "KKAIAHIKOPK": 2,
            "GPJMNBNABAE": [
              0,
              1,
              2,
              3,
              4
            ]
          }
        }
      ],
      "onExit": [
        {
          "action": {
            "$type": "CGGCHPJDIGC",
            "enable": true,
            "KKAIAHIKOPK": 2,
            "GPJMNBNABAE": [
              4,
              3,
              2,
              1,
              0
            ]
          }
        },
        {
          "action": {
            "$type": "ICDPIOBCKIJ",
            "configName": "config_water"
          }
        },
        {
          "action": {
            "$type": "BEILBGOGPAJ",
            "rtpcKey": {
              "text": ""
            },
            "PGAPHMMKMNJ": "DiveRawRelativeYaw"
          }
        },
        {
          "action": {
            "$type": "CPBMHBHJPKE",
            "CNLGJCENJHF": "AMBIENCE",
            "eventName": {
              "text": "Stop_Amb_FD40_UnderWater_Trigger"
            }
          }
        },
        {
          "action": {
            "$type": "CPBMHBHJPKE",
            "CNLGJCENJHF": "AMBIENCE",
            "eventName": {
              "text": "Stop_Amb_FD40_UnderWater_Surface_2_0"
            }
          }
        },
        {
          "action": {
            "$type": "DACJCGLBKKE",
            "stateGroup": {
              "text": "StateGroup_movementState"
            },
            "stateValue": {
              "text": "None"
            }
          }
        },
        {
          "action": {
            "$type": "MLIGCHAJDPD",
            "PJJFOGAKOOA": "Aux_Underwater_Vo"
          }
        }
      ]
    },
    {
      "stateName": "OUT_OF_WATER",
      "onEnter": [
        {
          "action": {
            "$type": "DACJCGLBKKE",
            "stateGroup": {
              "text": "StateGroup_gameDiving"
            },
            "stateValue": {
              "text": "State_outDiving"
            }
          }
        }
      ]
    }
  ],
  "AAGOPEBADNP": {
    "text": "Param_avatarmove_duration"
  },
  "CNJLCBCEGNB": 30.0,
  "KOONNBCBAAP": {
    "text": "Param_avatarmove_diveSpeed"
  },
  "FFJHFPANIEO": {
    "text": "Param_avatarmove_diveSpeed_amb"
  },
  "FHBDDOJFAMI": 10.0,
  "APJCBPLACKD": {
    "text": "Param_avatarImpulseSpeed"
  },
  "IPPPLBJLGLL": {
    "text": "Play_sfx_char_dive_impact_explore"
  },
  "FPMHLHHJMHM": {
    "text": "SwitchGrp_Climb_SurfaceType"
  },
  "PKOFPCPAAIN": {
    "Invalid": {
      "text": "Switch_Unknown"
    },
    "Grass": {
      "text": "Switch_Grass"
    },
    "Dirt": {
      "text": "Switch_Dirt"
    },
    "Rock": {
      "text": "Switch_Rock"
    },
    "Snow": {
      "text": "Switch_Snow"
    },
    "Water": {
      "text": "Switch_Unknown"
    },
    "Tile": {
      "text": "Switch_Unknown"
    },
    "Sand": {
      "text": "Switch_Unknown"
    },
    "Wood": {
      "text": "Switch_Wood"
    },
    "Iron": {
      "text": "Switch_Iron"
    },
    "Tree": {
      "text": "Switch_Tree"
    },
    "Ice": {
      "text": "Switch_Ice"
    },
    "Marble": {
      "text": "Switch_Unknown"
    },
    "Carpet": {
      "text": "Switch_Unknown"
    },
    "WoodLog": {
      "text": "Switch_Unknown"
    },
    "Cloud": {
      "text": "Switch_Unknown"
    },
    "Coin": {
      "text": "Switch_Unknown"
    },
    "SnowRock": {
      "text": "Switch_SnowRock"
    },
    "ElectricWater": {
      "text": "Switch_Unknown"
    },
    "Sakura": {
      "text": "Switch_Unknown"
    },
    "BlackMud": {
      "text": "Switch_Unknown"
    },
    "TransparentBrick": {
      "text": "Switch_Unknown"
    },
    "Desert": {
      "text": "Switch_Desert"
    },
    "Glass": {
      "text": "Switch_Glass"
    }
  },
  "PEJBLNAGONP": {
    "text": "Switch_Unknown"
  },
  "JIAKBJOJMBD": {
    "text": "Switch_NotClimb"
  }
}