{
  "id": 3001,
  "regionPolygons": [
    {
      "minArea": {
        "x": 4279.05419921875,
        "y": 397.55743408203125,
        "z": 3599.99755859375
      },
      "maxArea": {
        "x": 4448.85498046875,
        "y": 492.779541015625,
        "z": 3848.599365234375
      },
      "roadPoints": [
        {
          "x": 4414.27734375,
          "y": 397.55743408203125,
          "z": 3599.99755859375
        },
        {
          "x": 4329.271484375,
          "y": 397.55743408203125,
          "z": 3606.201171875
        },
        {
          "x": 4284.08984375,
          "y": 397.55743408203125,
          "z": 3652.90234375
        },
        {
          "x": 4279.05419921875,
          "y": 397.55743408203125,
          "z": 3716.49951171875
        },
        {
          "x": 4279.05419921875,
          "y": 397.55743408203125,
          "z": 3778.7080078125
        },
        {
          "x": 4317.85498046875,
          "y": 397.55743408203125,
          "z": 3800.20849609375
        },
        {
          "x": 4363.21728515625,
          "y": 397.55743408203125,
          "z": 3848.599365234375
        },
        {
          "x": 4444.05419921875,
          "y": 397.55743408203125,
          "z": 3813.71826171875
        },
        {
          "x": 4448.85498046875,
          "y": 397.55743408203125,
          "z": 3764.858154296875
        },
        {
          "x": 4444.05419921875,
          "y": 397.55743408203125,
          "z": 3715.0732421875
        },
        {
          "x": 4399.32177734375,
          "y": 397.55743408203125,
          "z": 3683.826904296875
        },
        {
          "x": 4391.34716796875,
          "y": 397.55743408203125,
          "z": 3667.785400390625
        },
        {
          "x": 4414.20263671875,
          "y": 397.55743408203125,
          "z": 3655.6611328125
        }
      ]
    }
  ],
  "limitShapes": [
    {
      "pos": {
        "x": 4398.4912109375,
        "y": 494.98956298828125,
        "z": 3637.841796875
      },
      "shape": {
        "$type": "LCFGLDCOCOH",
        "useHeight": true,
        "height": 62.99327850341797,
        "centerType": "Center",
        "width": 23.293367385864258,
        "length": 21.865217208862305
      }
    }
  ],
  "routePoints": [
    {
      "id": 30010002,
      "damageRatio": "REGION_ENTRANCE",
      "pos": {
        "x": 4400.6083984375,
        "y": 524.107421875,
        "z": 3639.970458984375
      },
      "priority": 10,
      "condslogicType": "LOGIC_AND",
      "adjacencies": [
        30010003
      ],
      "routeRegionId": 4294967295,
      "routePointId": 4294967295
    },
    {
      "id": 30010003,
      "damageRatio": "REGION_ENTRANCE",
      "pos": {
        "x": 4396.5634765625,
        "y": 492.7749328613281,
        "z": 3634.50732421875
      },
      "priority": 5,
      "condslogicType": "LOGIC_AND",
      "adjacencies": [
        30010002,
        30010004
      ],
      "routeRegionId": 4294967295,
      "routePointId": 4294967295
    },
    {
      "id": 30010008,
      "pos": {
        "x": 4370.49462890625,
        "y": 407.10601806640625,
        "z": 3747.155029296875
      },
      "conds": [
        {
          "uintParam0": 7408133,
          "intParam0": 3,
          "boolParam0": true
        }
      ],
      "condslogicType": "LOGIC_AND",
      "adjacencies": [
        30010007
      ],
      "routeRegionId": 3002,
      "routePointId": 30020001
    }
  ],
  "points": [
    {
      "id": 30010007,
      "pos": {
        "x": 4365.4140625,
        "y": 411.0495910644531,
        "z": 3736.390380859375
      },
      "KDEIBEJJDIP": {
        "offset": {
          "y": 1.0
        },
        "DBHDBOIDPKP": true
      },
      "conds": [
        {
          "uintParam0": 7408133,
          "intParam0": 3,
          "boolParam0": true
        }
      ],
      "condslogicType": "LOGIC_AND",
      "adjacencies": [
        30010006,
        30010008
      ]
    },
    {
      "id": 30010002,
      "damageRatio": "REGION_ENTRANCE",
      "pos": {
        "x": 4400.6083984375,
        "y": 524.107421875,
        "z": 3639.970458984375
      },
      "priority": 10,
      "condslogicType": "LOGIC_AND",
      "adjacencies": [
        30010003
      ],
      "routeRegionId": 4294967295,
      "routePointId": 4294967295
    },
    {
      "id": 30010003,
      "damageRatio": "REGION_ENTRANCE",
      "pos": {
        "x": 4396.5634765625,
        "y": 492.7749328613281,
        "z": 3634.50732421875
      },
      "priority": 5,
      "condslogicType": "LOGIC_AND",
      "adjacencies": [
        30010002,
        30010004
      ],
      "routeRegionId": 4294967295,
      "routePointId": 4294967295
    },
    {
      "id": 30010004,
      "pos": {
        "x": 4365.89208984375,
        "y": 455.0,
        "z": 3643.299072265625
      },
      "KDEIBEJJDIP": {
        "offset": {
          "y": 1.0
        }
      },
      "condslogicType": "LOGIC_AND",
      "adjacencies": [
        30010003,
        30010005
      ]
    },
    {
      "id": 30010005,
      "pos": {
        "x": 4302.294921875,
        "y": 462.71685791015625,
        "z": 3643.3115234375
      },
      "KDEIBEJJDIP": {
        "offset": {
          "y": 1.0
        },
        "DBHDBOIDPKP": true
      },
      "condslogicType": "LOGIC_AND",
      "adjacencies": [
        30010004,
        30010006
      ]
    },
    {
      "id": 30010006,
      "pos": {
        "x": 4309.92919921875,
        "y": 453.6650695800781,
        "z": 3677.63037109375
      },
      "KDEIBEJJDIP": {
        "offset": {
          "y": 1.0
        },
        "DBHDBOIDPKP": true
      },
      "condslogicType": "LOGIC_AND",
      "adjacencies": [
        30010005,
        30010007,
        30010009,
        30010010,
        30010011
      ]
    },
    {
      "id": 30010008,
      "pos": {
        "x": 4370.49462890625,
        "y": 407.10601806640625,
        "z": 3747.155029296875
      },
      "conds": [
        {
          "uintParam0": 7408133,
          "intParam0": 3,
          "boolParam0": true
        }
      ],
      "condslogicType": "LOGIC_AND",
      "adjacencies": [
        30010007
      ],
      "routeRegionId": 3002,
      "routePointId": 30020001
    },
    {
      "id": 30010009,
      "pos": {
        "x": 4399.56787109375,
        "y": 441.5799865722656,
        "z": 3716.840087890625
      },
      "layout": "CAVE_POLYGON",
      "KDEIBEJJDIP": {
        "offset": {
          "y": 1.0
        },
        "DBHDBOIDPKP": true
      },
      "area": {
        "damageRatio": "INSIDE_RADIUS",
        "HPCPMEJNGLA": 20.0
      },
      "conds": [
        {
          "uintParam0": 99902,
          "intParam0": 3,
          "boolParam0": true
        }
      ],
      "condslogicType": "LOGIC_AND",
      "adjacencies": [
        30010006
      ]
    },
    {
      "id": 30010010,
      "pos": {
        "x": 4370.51171875,
        "y": 424.8865966796875,
        "z": 3746.893310546875
      },
      "layout": "CAVE_POLYGON",
      "area": {
        "damageRatio": "INSIDE_POLYGON",
        "GPAIIGGOAEB": {
          "minArea": {
            "x": 4287.89892578125,
            "y": 409.3476257324219,
            "z": 3672.818115234375
          },
          "maxArea": {
            "x": 4444.05419921875,
            "y": 467.0792236328125,
            "z": 3828.84423828125
          },
          "roadPoints": [
            {
              "x": 4319.20556640625,
              "y": 409.3476257324219,
              "z": 3685.2490234375
            },
            {
              "x": 4296.35498046875,
              "y": 409.3476257324219,
              "z": 3705.518310546875
            },
            {
              "x": 4288.51123046875,
              "y": 409.3476257324219,
              "z": 3722.24462890625
            },
            {
              "x": 4287.89892578125,
              "y": 409.3476257324219,
              "z": 3750.978515625
            },
            {
              "x": 4303.40380859375,
              "y": 409.3476257324219,
              "z": 3766.98828125
            },
            {
              "x": 4311.5185546875,
              "y": 409.3476257324219,
              "z": 3788.8095703125
            },
            {
              "x": 4314.1298828125,
              "y": 409.3476257324219,
              "z": 3794.951171875
            },
            {
              "x": 4331.50146484375,
              "y": 409.3476257324219,
              "z": 3796.50732421875
            },
            {
              "x": 4349.37646484375,
              "y": 409.3476257324219,
              "z": 3808.61962890625
            },
            {
              "x": 4378.1044921875,
              "y": 409.3476257324219,
              "z": 3828.84423828125
            },
            {
              "x": 4432.95361328125,
              "y": 409.3476257324219,
              "z": 3809.16552734375
            },
            {
              "x": 4444.05419921875,
              "y": 409.3476257324219,
              "z": 3782.945556640625
            },
            {
              "x": 4432.19091796875,
              "y": 409.3476257324219,
              "z": 3738.527099609375
            },
            {
              "x": 4417.96435546875,
              "y": 409.3476257324219,
              "z": 3708.902099609375
            },
            {
              "x": 4404.29443359375,
              "y": 409.3476257324219,
              "z": 3690.02099609375
            },
            {
              "x": 4386.2978515625,
              "y": 409.3476257324219,
              "z": 3683.826904296875
            },
            {
              "x": 4362.01708984375,
              "y": 409.3476257324219,
              "z": 3674.8837890625
            },
            {
              "x": 4317.8623046875,
              "y": 409.3476257324219,
              "z": 3672.818115234375
            }
          ]
        }
      },
      "conds": [
        {
          "uintParam0": 7408115,
          "boolParam0": true
        }
      ],
      "condslogicType": "LOGIC_AND",
      "adjacencies": [
        30010006
      ]
    },
    {
      "id": 30010011,
      "pos": {
        "x": 4405.88330078125,
        "y": 411.9614562988281,
        "z": 3761.8544921875
      },
      "layout": "CAVE_POLYGON",
      "isLogic": true,
      "KDEIBEJJDIP": {
        "offset": {
          "y": 1.0
        },
        "DBHDBOIDPKP": true
      },
      "area": {
        "damageRatio": "INSIDE_POLYGON",
        "GPAIIGGOAEB": {
          "minArea": {
            "x": 4287.89892578125,
            "y": 409.3476257324219,
            "z": 3672.818115234375
          },
          "maxArea": {
            "x": 4444.05419921875,
            "y": 467.0792236328125,
            "z": 3828.84423828125
          },
          "roadPoints": [
            {
              "x": 4319.20556640625,
              "y": 409.3476257324219,
              "z": 3685.2490234375
            },
            {
              "x": 4296.35498046875,
              "y": 409.3476257324219,
              "z": 3705.518310546875
            },
            {
              "x": 4288.51123046875,
              "y": 409.3476257324219,
              "z": 3722.24462890625
            },
            {
              "x": 4287.89892578125,
              "y": 409.3476257324219,
              "z": 3750.978515625
            },
            {
              "x": 4303.40380859375,
              "y": 409.3476257324219,
              "z": 3766.98828125
            },
            {
              "x": 4311.5185546875,
              "y": 409.3476257324219,
              "z": 3788.8095703125
            },
            {
              "x": 4314.1298828125,
              "y": 409.3476257324219,
              "z": 3794.951171875
            },
            {
              "x": 4331.50146484375,
              "y": 409.3476257324219,
              "z": 3796.50732421875
            },
            {
              "x": 4349.37646484375,
              "y": 409.3476257324219,
              "z": 3808.61962890625
            },
            {
              "x": 4378.1044921875,
              "y": 409.3476257324219,
              "z": 3828.84423828125
            },
            {
              "x": 4432.95361328125,
              "y": 409.3476257324219,
              "z": 3809.16552734375
            },
            {
              "x": 4444.05419921875,
              "y": 409.3476257324219,
              "z": 3782.945556640625
            },
            {
              "x": 4432.19091796875,
              "y": 409.3476257324219,
              "z": 3738.527099609375
            },
            {
              "x": 4417.96435546875,
              "y": 409.3476257324219,
              "z": 3708.902099609375
            },
            {
              "x": 4404.29443359375,
              "y": 409.3476257324219,
              "z": 3690.02099609375
            },
            {
              "x": 4386.2978515625,
              "y": 409.3476257324219,
              "z": 3683.826904296875
            },
            {
              "x": 4362.01708984375,
              "y": 409.3476257324219,
              "z": 3674.8837890625
            },
            {
              "x": 4317.8623046875,
              "y": 409.3476257324219,
              "z": 3672.818115234375
            }
          ]
        }
      },
      "conds": [
        {
          "uintParam0": 99902,
          "intParam0": 3,
          "boolParam0": true
        }
      ],
      "condslogicType": "LOGIC_AND",
      "adjacencies": [
        30010006
      ]
    }
  ]
}