{
  "id": 102,
  "limitShapes": [
    {
      "pos": {
        "x": -173.58489990234375,
        "y": 234.12965393066406,
        "z": 3482.695068359375
      },
      "shape": {
        "$type": "LCFGLDCOCOH",
        "useHeight": true,
        "height": 26.456851959228516,
        "centerType": "Center",
        "width": 33.07529830932617,
        "length": 11.897966384887695
      }
    },
    {
      "pos": {
        "x": -141.08135986328125,
        "y": 246.51327514648438,
        "z": 3472.938232421875
      },
      "shape": {
        "$type": "CMGBFEGEBPJ",
        "radius": 25.110944747924805
      }
    }
  ],
  "routePoints": [
    {
      "id": 1020001,
      "pos": {
        "x": -170.0997314453125,
        "y": 234.41786193847656,
        "z": 3482.281005859375
      },
      "KDEIBEJJDIP": {
        "offset": {
          "y": 1.0
        },
        "DBHDBOIDPKP": true
      },
      "condslogicType": "LOGIC_AND",
      "adjacencies": [
        1020002
      ],
      "routeRegionId": 101,
      "routePointId": 1010015
    },
    {
      "id": 1020011,
      "damageRatio": "REGION_TRANSPORT",
      "pos": {
        "x": -144.51124572753906,
        "y": 246.136962890625,
        "z": 3468.016357421875
      },
      "KDEIBEJJDIP": {
        "offset": {
          "y": 1.0
        },
        "DBHDBOIDPKP": true
      },
      "conds": [
        {
          "damageRatio": "TRANSPORT_UNLOCKED",
          "uintParam0": 464
        }
      ],
      "condslogicType": "LOGIC_AND",
      "adjacencies": [
        1020005
      ],
      "routeRegionId": 4294967295,
      "routePointId": 4294967295
    },
    {
      "id": 1020014,
      "damageRatio": "REGION_ENTRANCE",
      "pos": {
        "x": -122.813232421875,
        "y": 249.60308837890625,
        "z": 3460.103759765625
      },
      "KDEIBEJJDIP": {
        "offset": {
          "y": 1.0
        },
        "DBHDBOIDPKP": true
      },
      "condslogicType": "LOGIC_AND",
      "adjacencies": [
        1020013
      ],
      "routeRegionId": 4294967295,
      "routePointId": 4294967295
    }
  ],
  "points": [
    {
      "id": 1020001,
      "pos": {
        "x": -170.0997314453125,
        "y": 234.41786193847656,
        "z": 3482.281005859375
      },
      "KDEIBEJJDIP": {
        "offset": {
          "y": 1.0
        },
        "DBHDBOIDPKP": true
      },
      "condslogicType": "LOGIC_AND",
      "adjacencies": [
        1020002
      ],
      "routeRegionId": 101,
      "routePointId": 1010015
    },
    {
      "id": 1020002,
      "pos": {
        "x": -164.1795654296875,
        "y": 235.99147033691406,
        "z": 3485.075439453125
      },
      "KDEIBEJJDIP": {
        "offset": {
          "y": 1.0
        },
        "DBHDBOIDPKP": true
      },
      "condslogicType": "LOGIC_AND",
      "adjacencies": [
        1020001,
        1020003
      ]
    },
    {
      "id": 1020003,
      "pos": {
        "x": -159.4898681640625,
        "y": 237.20773315429688,
        "z": 3484.47509765625
      },
      "KDEIBEJJDIP": {
        "offset": {
          "y": 1.0
        },
        "DBHDBOIDPKP": true
      },
      "condslogicType": "LOGIC_AND",
      "adjacencies": [
        1020002,
        1020004,
        1020007
      ]
    },
    {
      "id": 1020004,
      "pos": {
        "x": -159.66119384765625,
        "y": 235.9539794921875,
        "z": 3474.74462890625
      },
      "KDEIBEJJDIP": {
        "offset": {
          "y": 1.0
        },
        "DBHDBOIDPKP": true
      },
      "condslogicType": "LOGIC_AND",
      "adjacencies": [
        1020003,
        1020005
      ]
    },
    {
      "id": 1020005,
      "pos": {
        "x": -155.3804168701172,
        "y": 236.9091796875,
        "z": 3466.538330078125
      },
      "condslogicType": "LOGIC_AND",
      "adjacencies": [
        1020004,
        1020006,
        1020011
      ]
    },
    {
      "id": 1020006,
      "pos": {
        "x": -149.43113708496094,
        "y": 247.82119750976562,
        "z": 3455.8662109375
      },
      "KDEIBEJJDIP": {
        "offset": {
          "y": 1.0
        },
        "DBHDBOIDPKP": true
      },
      "condslogicType": "LOGIC_AND",
      "adjacencies": [
        1020005
      ]
    },
    {
      "id": 1020007,
      "pos": {
        "x": -154.81793212890625,
        "y": 238.77703857421875,
        "z": 3486.26416015625
      },
      "KDEIBEJJDIP": {
        "offset": {
          "y": 1.0
        },
        "DBHDBOIDPKP": true
      },
      "condslogicType": "LOGIC_AND",
      "adjacencies": [
        1020003,
        1020008
      ]
    },
    {
      "id": 1020008,
      "pos": {
        "x": -148.1220703125,
        "y": 241.80429077148438,
        "z": 3485.09033203125
      },
      "KDEIBEJJDIP": {
        "offset": {
          "y": 1.0
        },
        "DBHDBOIDPKP": true
      },
      "condslogicType": "LOGIC_AND",
      "adjacencies": [
        1020007,
        1020009
      ]
    },
    {
      "id": 1020009,
      "pos": {
        "x": -140.450439453125,
        "y": 245.68072509765625,
        "z": 3480.755859375
      },
      "KDEIBEJJDIP": {
        "offset": {
          "y": 1.0
        },
        "DBHDBOIDPKP": true
      },
      "condslogicType": "LOGIC_AND",
      "adjacencies": [
        1020008,
        1020010
      ]
    },
    {
      "id": 1020010,
      "pos": {
        "x": -137.0863037109375,
        "y": 247.5571746826172,
        "z": 3473.7041015625
      },
      "layout": "CAVE_POLYGON",
      "KDEIBEJJDIP": {
        "offset": {
          "y": 1.0
        },
        "DBHDBOIDPKP": true
      },
      "area": {
        "damageRatio": "INSIDE_RADIUS",
        "HPCPMEJNGLA": 3.0
      },
      "condslogicType": "LOGIC_AND",
      "adjacencies": [
        1020009,
        1020012
      ]
    },
    {
      "id": 1020011,
      "damageRatio": "REGION_TRANSPORT",
      "pos": {
        "x": -144.51124572753906,
        "y": 246.136962890625,
        "z": 3468.016357421875
      },
      "KDEIBEJJDIP": {
        "offset": {
          "y": 1.0
        },
        "DBHDBOIDPKP": true
      },
      "conds": [
        {
          "damageRatio": "TRANSPORT_UNLOCKED",
          "uintParam0": 464
        }
      ],
      "condslogicType": "LOGIC_AND",
      "adjacencies": [
        1020005
      ],
      "routeRegionId": 4294967295,
      "routePointId": 4294967295
    },
    {
      "id": 1020012,
      "pos": {
        "x": -132.868408203125,
        "y": 248.78158569335938,
        "z": 3468.593994140625
      },
      "KDEIBEJJDIP": {
        "offset": {
          "y": 1.0
        },
        "DBHDBOIDPKP": true
      },
      "condslogicType": "LOGIC_AND",
      "adjacencies": [
        1020010,
        1020013
      ]
    },
    {
      "id": 1020013,
      "pos": {
        "x": -128.31298828125,
        "y": 249.88870239257812,
        "z": 3464.13427734375
      },
      "KDEIBEJJDIP": {
        "offset": {
          "y": 1.0
        },
        "DBHDBOIDPKP": true
      },
      "condslogicType": "LOGIC_AND",
      "adjacencies": [
        1020012,
        1020014
      ]
    },
    {
      "id": 1020014,
      "damageRatio": "REGION_ENTRANCE",
      "pos": {
        "x": -122.813232421875,
        "y": 249.60308837890625,
        "z": 3460.103759765625
      },
      "KDEIBEJJDIP": {
        "offset": {
          "y": 1.0
        },
        "DBHDBOIDPKP": true
      },
      "condslogicType": "LOGIC_AND",
      "adjacencies": [
        1020013
      ],
      "routeRegionId": 4294967295,
      "routePointId": 4294967295
    }
  ]
}