{
  "id": 1601,
  "regionPolygons": [
    {
      "minArea": {
        "x": -143.96524047851562,
        "y": 158.30288696289062,
        "z": 2754.908447265625
      },
      "maxArea": {
        "x": 22.625980377197266,
        "y": 246.00001525878906,
        "z": 2979.96337890625
      },
      "roadPoints": [
        {
          "x": 4.495281219482422,
          "y": 158.30288696289062,
          "z": 2925.781982421875
        },
        {
          "x": 22.625980377197266,
          "y": 158.30288696289062,
          "z": 2855.229736328125
        },
        {
          "x": 2.1050071716308594,
          "y": 158.30288696289062,
          "z": 2803.198486328125
        },
        {
          "x": -30.27114486694336,
          "y": 158.30288696289062,
          "z": 2770.33837890625
        },
        {
          "x": -84.94711303710938,
          "y": 158.30288696289062,
          "z": 2754.908447265625
        },
        {
          "x": -120.06314849853516,
          "y": 158.30288696289062,
          "z": 2795.318115234375
        },
        {
          "x": -143.96524047851562,
          "y": 158.30288696289062,
          "z": 2841.414794921875
        },
        {
          "x": -132.4677734375,
          "y": 158.30288696289062,
          "z": 2866.981201171875
        },
        {
          "x": -66.30860900878906,
          "y": 158.30288696289062,
          "z": 2979.96337890625
        },
        {
          "x": -26.39590835571289,
          "y": 158.30288696289062,
          "z": 2943.9248046875
        }
      ]
    },
    {
      "minArea": {
        "x": -177.5553741455078,
        "y": 195.24986267089844,
        "z": 2834.5400390625
      },
      "maxArea": {
        "x": -116.88389587402344,
        "y": 218.8491668701172,
        "z": 2889.931396484375
      },
      "roadPoints": [
        {
          "x": -177.5553741455078,
          "y": 195.24986267089844,
          "z": 2834.5400390625
        },
        {
          "x": -170.41226196289062,
          "y": 195.24986267089844,
          "z": 2873.462158203125
        },
        {
          "x": -144.17279052734375,
          "y": 195.24986267089844,
          "z": 2875.92236328125
        },
        {
          "x": -116.88389587402344,
          "y": 195.24986267089844,
          "z": 2889.931396484375
        },
        {
          "x": -120.61473083496094,
          "y": 195.24986267089844,
          "z": 2865.49658203125
        },
        {
          "x": -126.52802276611328,
          "y": 195.24986267089844,
          "z": 2841.143310546875
        }
      ]
    },
    {
      "minArea": {
        "x": -131.24658203125,
        "y": 205.86427307128906,
        "z": 2893.720703125
      },
      "maxArea": {
        "x": -76.5749740600586,
        "y": 238.47312927246094,
        "z": 2951.55419921875
      },
      "roadPoints": [
        {
          "x": -76.5749740600586,
          "y": 205.86427307128906,
          "z": 2951.55419921875
        },
        {
          "x": -105.89188385009766,
          "y": 205.86427307128906,
          "z": 2893.720703125
        },
        {
          "x": -131.24658203125,
          "y": 205.86427307128906,
          "z": 2936.26953125
        }
      ]
    },
    {
      "minArea": {
        "x": -60.44702911376953,
        "y": 209.5260467529297,
        "z": 2906.53515625
      },
      "maxArea": {
        "x": -1.711202621459961,
        "y": 262.0343017578125,
        "z": 2947.472412109375
      },
      "roadPoints": [
        {
          "x": -8.417734146118164,
          "y": 209.5260467529297,
          "z": 2931.943115234375
        },
        {
          "x": -3.82147216796875,
          "y": 209.5260467529297,
          "z": 2908.3115234375
        },
        {
          "x": -45.09803771972656,
          "y": 209.5260467529297,
          "z": 2906.53515625
        },
        {
          "x": -60.44702911376953,
          "y": 209.5260467529297,
          "z": 2941.4658203125
        },
        {
          "x": -16.695161819458008,
          "y": 209.5260467529297,
          "z": 2947.472412109375
        },
        {
          "x": -1.711202621459961,
          "y": 209.5260467529297,
          "z": 2935.21533203125
        }
      ]
    }
  ],
  "routePoints": [
    {
      "id": 16010001,
      "damageRatio": "REGION_ENTRANCE",
      "pos": {
        "x": -154.05628967285156,
        "y": 205.41683959960938,
        "z": 2851.90673828125
      },
      "KDEIBEJJDIP": {
        "offset": {
          "y": 1.0
        },
        "DBHDBOIDPKP": true
      },
      "condslogicType": "LOGIC_AND",
      "adjacencies": [
        16010002
      ],
      "routeRegionId": 4294967295,
      "routePointId": 4294967295
    }
  ],
  "isRoutePointsFullyConnected": true,
  "points": [
    {
      "id": 16010003,
      "pos": {
        "x": -116.71220397949219,
        "y": 200.87709045410156,
        "z": 2879.927490234375
      },
      "layout": "CAVE_POLYGON",
      "KDEIBEJJDIP": {
        "offset": {
          "y": 1.0
        },
        "DBHDBOIDPKP": true
      },
      "area": {
        "damageRatio": "INSIDE_RADIUS",
        "HPCPMEJNGLA": 5.0
      },
      "condslogicType": "LOGIC_AND",
      "adjacencies": [
        16010002
      ]
    },
    {
      "id": 16010002,
      "pos": {
        "x": -134.21063232421875,
        "y": 203.82498168945312,
        "z": 2854.380615234375
      },
      "KDEIBEJJDIP": {
        "offset": {
          "y": 1.0
        },
        "DBHDBOIDPKP": true
      },
      "condslogicType": "LOGIC_AND",
      "adjacencies": [
        16010001,
        16010003
      ]
    },
    {
      "id": 16010001,
      "damageRatio": "REGION_ENTRANCE",
      "pos": {
        "x": -154.05628967285156,
        "y": 205.41683959960938,
        "z": 2851.90673828125
      },
      "KDEIBEJJDIP": {
        "offset": {
          "y": 1.0
        },
        "DBHDBOIDPKP": true
      },
      "condslogicType": "LOGIC_AND",
      "adjacencies": [
        16010002
      ],
      "routeRegionId": 4294967295,
      "routePointId": 4294967295
    }
  ]
}