{
  "id": 1001,
  "limitShapes": [
    {
      "pos": {
        "x": 671.2432250976562,
        "y": 182.30941772460938,
        "z": 6713.03515625
      },
      "rot": {
        "y": 340.10430908203125
      },
      "shape": {
        "$type": "LCFGLDCOCOH",
        "useHeight": true,
        "height": 97.65815734863281,
        "centerType": "Center",
        "width": 150.45777893066406,
        "length": 104.79888916015625
      }
    },
    {
      "pos": {
        "x": 586.695556640625,
        "y": 221.493408203125,
        "z": 6681.22216796875
      },
      "rot": {
        "y": 15.469970703125,
        "z": 251.34091186523438
      },
      "shape": {
        "$type": "PAPCPHMEHFC",
        "useHeight": true,
        "height": 58.53860092163086,
        "width": 18.731487274169922,
        "length": 17.827234268188477
      }
    },
    {
      "pos": {
        "x": 550.336669921875,
        "y": 228.92343139648438,
        "z": 6689.3330078125
      },
      "rot": {
        "x": 1.4473633766174316,
        "y": 2.3696789741516113,
        "z": 354.31854248046875
      },
      "shape": {
        "$type": "PAPCPHMEHFC",
        "useHeight": true,
        "height": 18.510496139526367,
        "width": 33.53312301635742,
        "length": 24.21186065673828
      }
    },
    {
      "pos": {
        "x": 661.0826416015625,
        "y": 213.79031372070312,
        "z": 6534.216796875
      },
      "rot": {
        "x": 15.318227767944336
      },
      "shape": {
        "$type": "PAPCPHMEHFC",
        "useHeight": true,
        "height": 40.58497619628906,
        "width": 65.15800476074219,
        "length": 288.88092041015625
      }
    },
    {
      "pos": {
        "x": 686.0765380859375,
        "y": 251.99232482910156,
        "z": 6442.42626953125
      },
      "rot": {
        "x": 34.943538665771484,
        "y": 324.4668884277344,
        "z": 7.751157283782959
      },
      "shape": {
        "$type": "PAPCPHMEHFC",
        "useHeight": true,
        "height": 39.3233642578125,
        "width": 37.29954528808594,
        "length": 67.72317504882812
      }
    },
    {
      "pos": {
        "x": 722.522216796875,
        "y": 294.72650146484375,
        "z": 6386.0458984375
      },
      "rot": {
        "x": 352.5589599609375,
        "y": 68.92139434814453,
        "z": 22.74146270751953
      },
      "shape": {
        "$type": "PAPCPHMEHFC",
        "useHeight": true,
        "height": 25.4403076171875,
        "width": 111.7865219116211,
        "length": 36.189090728759766
      }
    }
  ],
  "routePoints": [
    {
      "id": 10010001,
      "damageRatio": "REGION_ENTRANCE",
      "pos": {
        "x": 537.1275024414062,
        "y": 228.1937255859375,
        "z": 6693.01708984375
      },
      "KDEIBEJJDIP": {
        "offset": {
          "y": 1.0
        },
        "DBHDBOIDPKP": true
      },
      "condslogicType": "LOGIC_AND",
      "adjacencies": [
        10010002
      ],
      "routeRegionId": 4294967295,
      "routePointId": 4294967295
    },
    {
      "id": 10010022,
      "pos": {
        "x": 673.84765625,
        "y": 165.45181274414062,
        "z": 6768.33203125
      },
      "KDEIBEJJDIP": {
        "offset": {
          "y": 1.0
        },
        "DBHDBOIDPKP": true
      },
      "condslogicType": "LOGIC_AND",
      "adjacencies": [
        10010021
      ],
      "routeRegionId": 1002,
      "routePointId": 10020008
    },
    {
      "id": 10010023,
      "damageRatio": "REGION_TRANSPORT",
      "pos": {
        "x": 689.9678344726562,
        "y": 159.54293823242188,
        "z": 6740.78564453125
      },
      "priority": 200,
      "KDEIBEJJDIP": {
        "offset": {
          "y": 1.0
        },
        "DBHDBOIDPKP": true
      },
      "conds": [
        {
          "damageRatio": "TRANSPORT_UNLOCKED",
          "uintParam0": 748
        }
      ],
      "condslogicType": "LOGIC_AND",
      "adjacencies": [
        10010021
      ],
      "routeRegionId": 4294967295,
      "routePointId": 4294967295
    }
  ],
  "points": [
    {
      "id": 10010001,
      "damageRatio": "REGION_ENTRANCE",
      "pos": {
        "x": 537.1275024414062,
        "y": 228.1937255859375,
        "z": 6693.01708984375
      },
      "KDEIBEJJDIP": {
        "offset": {
          "y": 1.0
        },
        "DBHDBOIDPKP": true
      },
      "condslogicType": "LOGIC_AND",
      "adjacencies": [
        10010002
      ],
      "routeRegionId": 4294967295,
      "routePointId": 4294967295
    },
    {
      "id": 10010003,
      "pos": {
        "x": 560.6884155273438,
        "y": 225.8605194091797,
        "z": 6691.7568359375
      },
      "KDEIBEJJDIP": {
        "offset": {
          "y": 1.0
        },
        "DBHDBOIDPKP": true
      },
      "condslogicType": "LOGIC_AND",
      "adjacencies": [
        10010002,
        10010004
      ]
    },
    {
      "id": 10010002,
      "pos": {
        "x": 550.1393432617188,
        "y": 226.24258422851562,
        "z": 6691.9541015625
      },
      "isLogic": true,
      "KDEIBEJJDIP": {
        "offset": {
          "y": 1.0
        },
        "DBHDBOIDPKP": true
      },
      "condslogicType": "LOGIC_AND",
      "adjacencies": [
        10010001,
        10010003
      ]
    },
    {
      "id": 10010004,
      "pos": {
        "x": 570.6599731445312,
        "y": 225.19212341308594,
        "z": 6687.841796875
      },
      "isLogic": true,
      "KDEIBEJJDIP": {
        "offset": {
          "y": 1.0
        },
        "DBHDBOIDPKP": true
      },
      "condslogicType": "LOGIC_AND",
      "adjacencies": [
        10010003,
        10010005
      ]
    },
    {
      "id": 10010005,
      "pos": {
        "x": 580.3367919921875,
        "y": 223.74945068359375,
        "z": 6683.1181640625
      },
      "KDEIBEJJDIP": {
        "offset": {
          "y": 1.0
        },
        "DBHDBOIDPKP": true
      },
      "condslogicType": "LOGIC_AND",
      "adjacencies": [
        10010004,
        10010006
      ]
    },
    {
      "id": 10010006,
      "pos": {
        "x": 585.395263671875,
        "y": 222.0146026611328,
        "z": 6680.466796875
      },
      "isLogic": true,
      "KDEIBEJJDIP": {
        "offset": {
          "y": 1.0
        },
        "DBHDBOIDPKP": true
      },
      "condslogicType": "LOGIC_AND",
      "adjacencies": [
        10010005,
        10010007
      ]
    },
    {
      "id": 10010007,
      "pos": {
        "x": 593.2101440429688,
        "y": 218.81475830078125,
        "z": 6678.083984375
      },
      "KDEIBEJJDIP": {
        "offset": {
          "y": 1.0
        },
        "DBHDBOIDPKP": true
      },
      "condslogicType": "LOGIC_AND",
      "adjacencies": [
        10010006,
        10010008
      ]
    },
    {
      "id": 10010010,
      "pos": {
        "x": 670.1017456054688,
        "y": 160.00599670410156,
        "z": 6677.771484375
      },
      "KDEIBEJJDIP": {
        "offset": {
          "y": 1.0
        },
        "DBHDBOIDPKP": true
      },
      "condslogicType": "LOGIC_AND",
      "adjacencies": [
        10010009,
        10010011,
        10010020
      ]
    },
    {
      "id": 10010009,
      "pos": {
        "x": 625.8955688476562,
        "y": 198.3770294189453,
        "z": 6676.20068359375
      },
      "KDEIBEJJDIP": {
        "offset": {
          "y": 1.0
        },
        "DBHDBOIDPKP": true
      },
      "condslogicType": "LOGIC_AND",
      "adjacencies": [
        10010008,
        10010010
      ]
    },
    {
      "id": 10010008,
      "pos": {
        "x": 606.158447265625,
        "y": 213.07273864746094,
        "z": 6674.63232421875
      },
      "isLogic": true,
      "KDEIBEJJDIP": {
        "offset": {
          "y": 1.0
        },
        "DBHDBOIDPKP": true
      },
      "condslogicType": "LOGIC_AND",
      "adjacencies": [
        10010007,
        10010009
      ]
    },
    {
      "id": 10010011,
      "pos": {
        "x": 678.4876098632812,
        "y": 162.38232421875,
        "z": 6649.7119140625
      },
      "isLogic": true,
      "KDEIBEJJDIP": {
        "offset": {
          "y": 1.0
        },
        "DBHDBOIDPKP": true
      },
      "conds": [
        {
          "uintParam0": 7323823,
          "intParam0": 3,
          "boolParam0": true
        }
      ],
      "condslogicType": "LOGIC_AND",
      "adjacencies": [
        10010010,
        10010012
      ]
    },
    {
      "id": 10010012,
      "pos": {
        "x": 668.9822387695312,
        "y": 168.9532012939453,
        "z": 6624.13916015625
      },
      "isLogic": true,
      "KDEIBEJJDIP": {
        "offset": {
          "y": 1.0
        },
        "DBHDBOIDPKP": true
      },
      "conds": [
        {
          "uintParam0": 7323823,
          "intParam0": 3,
          "boolParam0": true
        }
      ],
      "condslogicType": "LOGIC_AND",
      "adjacencies": [
        10010011,
        10010013
      ]
    },
    {
      "id": 10010013,
      "pos": {
        "x": 675.775390625,
        "y": 183.6504669189453,
        "z": 6588.09033203125
      },
      "KDEIBEJJDIP": {
        "offset": {
          "y": 1.0
        },
        "DBHDBOIDPKP": true
      },
      "conds": [
        {
          "uintParam0": 7323823,
          "intParam0": 3,
          "boolParam0": true
        }
      ],
      "condslogicType": "LOGIC_AND",
      "adjacencies": [
        10010012,
        10010014
      ]
    },
    {
      "id": 10010014,
      "pos": {
        "x": 673.2409057617188,
        "y": 200.9368896484375,
        "z": 6538.505859375
      },
      "KDEIBEJJDIP": {
        "offset": {
          "y": 1.0
        },
        "DBHDBOIDPKP": true
      },
      "conds": [
        {
          "uintParam0": 7323823,
          "intParam0": 3,
          "boolParam0": true
        }
      ],
      "condslogicType": "LOGIC_AND",
      "adjacencies": [
        10010013,
        10010015
      ]
    },
    {
      "id": 10010015,
      "pos": {
        "x": 672.3397827148438,
        "y": 211.9370574951172,
        "z": 6509.39453125
      },
      "KDEIBEJJDIP": {
        "offset": {
          "y": 1.0
        },
        "DBHDBOIDPKP": true
      },
      "conds": [
        {
          "uintParam0": 7323823,
          "intParam0": 3,
          "boolParam0": true
        }
      ],
      "condslogicType": "LOGIC_AND",
      "adjacencies": [
        10010014,
        10010016
      ]
    },
    {
      "id": 10010016,
      "pos": {
        "x": 686.15283203125,
        "y": 250.93626403808594,
        "z": 6448.15869140625
      },
      "KDEIBEJJDIP": {
        "offset": {
          "y": 1.0
        },
        "DBHDBOIDPKP": true
      },
      "conds": [
        {
          "uintParam0": 7323823,
          "intParam0": 3,
          "boolParam0": true
        }
      ],
      "condslogicType": "LOGIC_AND",
      "adjacencies": [
        10010015,
        10010017
      ]
    },
    {
      "id": 10010017,
      "pos": {
        "x": 707.8850708007812,
        "y": 277.3089294433594,
        "z": 6421.39892578125
      },
      "KDEIBEJJDIP": {
        "offset": {
          "y": 1.0
        },
        "DBHDBOIDPKP": true
      },
      "conds": [
        {
          "uintParam0": 7323823,
          "intParam0": 3,
          "boolParam0": true
        }
      ],
      "condslogicType": "LOGIC_AND",
      "adjacencies": [
        10010016,
        10010018
      ]
    },
    {
      "id": 10010018,
      "pos": {
        "x": 723.0882568359375,
        "y": 296.3898010253906,
        "z": 6377.01611328125
      },
      "KDEIBEJJDIP": {
        "offset": {
          "y": 1.0
        },
        "DBHDBOIDPKP": true
      },
      "conds": [
        {
          "uintParam0": 7323823,
          "intParam0": 3,
          "boolParam0": true
        }
      ],
      "condslogicType": "LOGIC_AND",
      "adjacencies": [
        10010017,
        10010019
      ]
    },
    {
      "id": 10010019,
      "pos": {
        "x": 737.6896362304688,
        "y": 303.9834289550781,
        "z": 6356.5009765625
      },
      "layout": "CAVE_POLYGON",
      "KDEIBEJJDIP": {
        "offset": {
          "y": 1.0
        },
        "DBHDBOIDPKP": true
      },
      "area": {
        "damageRatio": "INSIDE_RADIUS",
        "HPCPMEJNGLA": 10.0
      },
      "conds": [
        {
          "uintParam0": 7323823,
          "intParam0": 3,
          "boolParam0": true
        }
      ],
      "condslogicType": "LOGIC_AND",
      "adjacencies": [
        10010018
      ]
    },
    {
      "id": 10010020,
      "pos": {
        "x": 665.8568725585938,
        "y": 159.18333435058594,
        "z": 6693.74365234375
      },
      "layout": "CAVE_POLYGON",
      "KDEIBEJJDIP": {
        "offset": {
          "y": 1.0
        },
        "DBHDBOIDPKP": true
      },
      "area": {
        "damageRatio": "INSIDE_RADIUS",
        "HPCPMEJNGLA": 5.0
      },
      "condslogicType": "LOGIC_AND",
      "adjacencies": [
        10010010,
        10010021
      ]
    },
    {
      "id": 10010022,
      "pos": {
        "x": 673.84765625,
        "y": 165.45181274414062,
        "z": 6768.33203125
      },
      "KDEIBEJJDIP": {
        "offset": {
          "y": 1.0
        },
        "DBHDBOIDPKP": true
      },
      "condslogicType": "LOGIC_AND",
      "adjacencies": [
        10010021
      ],
      "routeRegionId": 1002,
      "routePointId": 10020008
    },
    {
      "id": 10010021,
      "pos": {
        "x": 671.5498657226562,
        "y": 154.7846221923828,
        "z": 6743.09765625
      },
      "KDEIBEJJDIP": {
        "offset": {
          "y": 1.0
        },
        "DBHDBOIDPKP": true
      },
      "condslogicType": "LOGIC_AND",
      "adjacencies": [
        10010020,
        10010022,
        10010023
      ]
    },
    {
      "id": 10010023,
      "damageRatio": "REGION_TRANSPORT",
      "pos": {
        "x": 689.9678344726562,
        "y": 159.54293823242188,
        "z": 6740.78564453125
      },
      "priority": 200,
      "KDEIBEJJDIP": {
        "offset": {
          "y": 1.0
        },
        "DBHDBOIDPKP": true
      },
      "conds": [
        {
          "damageRatio": "TRANSPORT_UNLOCKED",
          "uintParam0": 748
        }
      ],
      "condslogicType": "LOGIC_AND",
      "adjacencies": [
        10010021
      ],
      "routeRegionId": 4294967295,
      "routePointId": 4294967295
    }
  ]
}