{
  "id": 5001,
  "regionPolygons": [
    {
      "minArea": {
        "x": -1862.7276611328125,
        "y": -51.724178314208984,
        "z": 8573.1787109375
      },
      "maxArea": {
        "x": -1380.6834716796875,
        "y": 84.48005676269531,
        "z": 8798.955078125
      },
      "roadPoints": [
        {
          "x": -1432.624267578125,
          "y": -51.724178314208984,
          "z": 8634.734375
        },
        {
          "x": -1478.4100341796875,
          "y": -51.724178314208984,
          "z": 8618.31640625
        },
        {
          "x": -1505.251708984375,
          "y": -51.724178314208984,
          "z": 8613.9482421875
        },
        {
          "x": -1534.6907958984375,
          "y": -51.724178314208984,
          "z": 8601.6669921875
        },
        {
          "x": -1576.7618408203125,
          "y": -51.724178314208984,
          "z": 8573.1787109375
        },
        {
          "x": -1629.3248291015625,
          "y": -51.724178314208984,
          "z": 8606.53125
        },
        {
          "x": -1782.7298583984375,
          "y": -51.724178314208984,
          "z": 8586.443359375
        },
        {
          "x": -1862.7276611328125,
          "y": -51.724178314208984,
          "z": 8589.130859375
        },
        {
          "x": -1751.2945556640625,
          "y": -51.724178314208984,
          "z": 8736.4091796875
        },
        {
          "x": -1658.345458984375,
          "y": -51.724178314208984,
          "z": 8728.0673828125
        },
        {
          "x": -1592.336669921875,
          "y": -51.724178314208984,
          "z": 8761.46875
        },
        {
          "x": -1524.379150390625,
          "y": -51.724178314208984,
          "z": 8798.955078125
        },
        {
          "x": -1413.5030517578125,
          "y": -51.724178314208984,
          "z": 8792.32421875
        },
        {
          "x": -1380.6834716796875,
          "y": -51.724178314208984,
          "z": 8700.455078125
        }
      ]
    }
  ],
  "routePoints": [
    {
      "id": 50010001,
      "damageRatio": "REGION_ENTRANCE",
      "pos": {
        "x": -1425.552734375,
        "y": 49.494720458984375,
        "z": 8658.185546875
      },
      "KDEIBEJJDIP": {
        "DBHDBOIDPKP": true
      },
      "condslogicType": "LOGIC_AND",
      "adjacencies": [
        50010004
      ],
      "routeRegionId": 4294967295,
      "routePointId": 4294967295
    },
    {
      "id": 50010013,
      "damageRatio": "REGION_TRANSPORT",
      "pos": {
        "x": -1410.541259765625,
        "y": 31.43902587890625,
        "z": 8708.404296875
      },
      "KDEIBEJJDIP": {
        "DBHDBOIDPKP": true
      },
      "conds": [
        {
          "damageRatio": "TRANSPORT_UNLOCKED",
          "uintParam0": 1306,
          "boolParam0": true
        }
      ],
      "condslogicType": "LOGIC_AND",
      "adjacencies": [
        50010004
      ],
      "routeRegionId": 4294967295,
      "routePointId": 4294967295
    }
  ],
  "points": [
    {
      "id": 50010001,
      "damageRatio": "REGION_ENTRANCE",
      "pos": {
        "x": -1425.552734375,
        "y": 49.494720458984375,
        "z": 8658.185546875
      },
      "KDEIBEJJDIP": {
        "DBHDBOIDPKP": true
      },
      "condslogicType": "LOGIC_AND",
      "adjacencies": [
        50010004
      ],
      "routeRegionId": 4294967295,
      "routePointId": 4294967295
    },
    {
      "id": 50010004,
      "pos": {
        "x": -1425.7520751953125,
        "y": 26.915630340576172,
        "z": 8718.6337890625
      },
      "KDEIBEJJDIP": {
        "DBHDBOIDPKP": true
      },
      "condslogicType": "LOGIC_AND",
      "adjacencies": [
        50010005,
        50010012,
        50010013,
        50010001
      ]
    },
    {
      "id": 50010005,
      "pos": {
        "x": -1546.3681640625,
        "y": 26.519989013671875,
        "z": 8661.8740234375
      },
      "condslogicType": "LOGIC_AND",
      "adjacencies": [
        50010004,
        50010006
      ]
    },
    {
      "id": 50010006,
      "pos": {
        "x": -1593.00244140625,
        "y": 31.92681884765625,
        "z": 8653.845703125
      },
      "KDEIBEJJDIP": {
        "DBHDBOIDPKP": true
      },
      "condslogicType": "LOGIC_AND",
      "adjacencies": [
        50010005,
        50010007
      ]
    },
    {
      "id": 50010007,
      "pos": {
        "x": -1601.4227294921875,
        "y": 36.03690719604492,
        "z": 8670.8017578125
      },
      "KDEIBEJJDIP": {
        "DBHDBOIDPKP": true
      },
      "condslogicType": "LOGIC_AND",
      "adjacencies": [
        50010006,
        50010008
      ]
    },
    {
      "id": 50010008,
      "pos": {
        "x": -1654.23828125,
        "y": 34.98796463012695,
        "z": 8691.6416015625
      },
      "KDEIBEJJDIP": {
        "DBHDBOIDPKP": true
      },
      "condslogicType": "LOGIC_AND",
      "adjacencies": [
        50010007,
        50010009
      ]
    },
    {
      "id": 50010009,
      "pos": {
        "x": -1678.9537353515625,
        "y": -33.529998779296875,
        "z": 8683.0458984375
      },
      "KDEIBEJJDIP": {
        "DBHDBOIDPKP": true
      },
      "condslogicType": "LOGIC_AND",
      "adjacencies": [
        50010008,
        50010010
      ]
    },
    {
      "id": 50010010,
      "pos": {
        "x": -1678.4974365234375,
        "y": -30.18000030517578,
        "z": 8652.1787109375
      },
      "KDEIBEJJDIP": {
        "DBHDBOIDPKP": true
      },
      "condslogicType": "LOGIC_AND",
      "adjacencies": [
        50010009,
        50010011,
        50010015
      ]
    },
    {
      "id": 50010011,
      "pos": {
        "x": -1736.51953125,
        "y": -26.0,
        "z": 8634.6767578125
      },
      "KDEIBEJJDIP": {
        "DBHDBOIDPKP": true
      },
      "condslogicType": "LOGIC_AND",
      "adjacencies": [
        50010010,
        50010014,
        50010016
      ]
    },
    {
      "id": 50010012,
      "pos": {
        "x": -1477.1593017578125,
        "y": 10.556608200073242,
        "z": 8719.8369140625
      },
      "layout": "CAVE_POLYGON",
      "KDEIBEJJDIP": {
        "DBHDBOIDPKP": true
      },
      "area": {
        "damageRatio": "INSIDE_POLYGON",
        "GPAIIGGOAEB": {
          "minArea": {
            "x": -1681.0303955078125,
            "y": -14.044960021972656,
            "z": 8568.5458984375
          },
          "maxArea": {
            "x": -1423.5390625,
            "y": 90.42720794677734,
            "z": 8769.2353515625
          },
          "roadPoints": [
            {
              "x": -1453.228759765625,
              "y": -14.044960021972656,
              "z": 8722.1513671875
            },
            {
              "x": -1423.5390625,
              "y": -14.044960021972656,
              "z": 8685.482421875
            },
            {
              "x": -1505.74609375,
              "y": -14.044960021972656,
              "z": 8646.62890625
            },
            {
              "x": -1540.3577880859375,
              "y": -14.044960021972656,
              "z": 8644.66015625
            },
            {
              "x": -1567.1041259765625,
              "y": -14.044960021972656,
              "z": 8607.9970703125
            },
            {
              "x": -1586.181396484375,
              "y": -14.044960021972656,
              "z": 8568.5458984375
            },
            {
              "x": -1626.727294921875,
              "y": -14.044960021972656,
              "z": 8588.9609375
            },
            {
              "x": -1605.4171142578125,
              "y": -14.044960021972656,
              "z": 8631.5546875
            },
            {
              "x": -1633.8621826171875,
              "y": -14.044960021972656,
              "z": 8673.0029296875
            },
            {
              "x": -1675.87158203125,
              "y": -14.044960021972656,
              "z": 8679.4482421875
            },
            {
              "x": -1681.0303955078125,
              "y": -14.044960021972656,
              "z": 8713.029296875
            },
            {
              "x": -1648.9124755859375,
              "y": -14.044960021972656,
              "z": 8714.2041015625
            },
            {
              "x": -1642.0875244140625,
              "y": -14.044960021972656,
              "z": 8696.5654296875
            },
            {
              "x": -1581.626708984375,
              "y": -14.044960021972656,
              "z": 8662.673828125
            },
            {
              "x": -1566.657958984375,
              "y": -14.044960021972656,
              "z": 8683.17578125
            },
            {
              "x": -1565.8052978515625,
              "y": -14.044960021972656,
              "z": 8699.134765625
            },
            {
              "x": -1589.462158203125,
              "y": -14.044960021972656,
              "z": 8737.3310546875
            },
            {
              "x": -1551.3349609375,
              "y": -14.044960021972656,
              "z": 8769.2353515625
            },
            {
              "x": -1530.4857177734375,
              "y": -14.044960021972656,
              "z": 8755.556640625
            }
          ]
        }
      },
      "conds": [
        {
          "uintParam0": 7500109,
          "intParam0": 2,
          "boolParam0": true
        },
        {
          "uintParam0": 7500127,
          "intParam0": 2,
          "boolParam0": true
        },
        {
          "uintParam0": 7500128,
          "intParam0": 2,
          "boolParam0": true
        }
      ],
      "condslogicType": "LOGIC_OR",
      "adjacencies": [
        50010004
      ]
    },
    {
      "id": 50010013,
      "damageRatio": "REGION_TRANSPORT",
      "pos": {
        "x": -1410.541259765625,
        "y": 31.43902587890625,
        "z": 8708.404296875
      },
      "KDEIBEJJDIP": {
        "DBHDBOIDPKP": true
      },
      "conds": [
        {
          "damageRatio": "TRANSPORT_UNLOCKED",
          "uintParam0": 1306,
          "boolParam0": true
        }
      ],
      "condslogicType": "LOGIC_AND",
      "adjacencies": [
        50010004
      ],
      "routeRegionId": 4294967295,
      "routePointId": 4294967295
    },
    {
      "id": 50010014,
      "pos": {
        "x": -1747.385009765625,
        "y": -26.0,
        "z": 8639.6728515625
      },
      "KDEIBEJJDIP": {
        "DBHDBOIDPKP": true
      },
      "area": {
        "damageRatio": "INSIDE_RADIUS",
        "HPCPMEJNGLA": 40.0
      },
      "conds": [
        {
          "uintParam0": 7500130,
          "intParam0": 2,
          "boolParam0": true
        }
      ],
      "condslogicType": "LOGIC_AND",
      "adjacencies": [
        50010011
      ]
    },
    {
      "id": 50010015,
      "pos": {
        "x": -1676.9608154296875,
        "y": -30.18000030517578,
        "z": 8632.470703125
      },
      "KDEIBEJJDIP": {
        "DBHDBOIDPKP": true
      },
      "area": {
        "damageRatio": "INSIDE_RADIUS",
        "HPCPMEJNGLA": 40.0
      },
      "conds": [
        {
          "uintParam0": 7500129,
          "intParam0": 2,
          "boolParam0": true
        }
      ],
      "condslogicType": "LOGIC_AND",
      "adjacencies": [
        50010010
      ]
    },
    {
      "id": 50010016,
      "pos": {
        "x": -1757.23095703125,
        "y": -26.0,
        "z": 8637.857421875
      },
      "KDEIBEJJDIP": {
        "DBHDBOIDPKP": true
      },
      "area": {
        "damageRatio": "INSIDE_RADIUS",
        "HPCPMEJNGLA": 40.0
      },
      "conds": [
        {
          "uintParam0": 7500131,
          "intParam0": 2,
          "boolParam0": true
        }
      ],
      "condslogicType": "LOGIC_AND",
      "adjacencies": [
        50010011
      ]
    }
  ]
}