{
  "luaDataPath": "",
  "isSimpleTalk": true,
  "entityBan": "",
  "disableNpcLod": true,
  "protectNpcMobileLod": true,
  "talkFlag": 7,
  "startFade": {
    "startFadeOutDuration": 0.0
  },
  "endFade": {
    "startFadeOutDuration": 0.0
  },
  "actors": [
    {
      "alias": "Avatar",
      "visible": true,
      "bornPointName": "",
      "relativePosType": "AVATAR_NEW",
      "relativePosNpcAlias": "",
      "_bindMovingTargetKey": ""
    },
    {
      "configID": 5325,
      "alias": "5325",
      "visible": true,
      "bornPointName": "",
      "forceCreateDaily": true,
      "relativePosType": "AVATAR_NEW",
      "relativePosNpcAlias": "",
      "_bindMovingTargetKey": ""
    },
    {
      "configID": 1005,
      "alias": "1005",
      "visible": true,
      "bornPointName": "",
      "useRelativePos": true,
      "relativePos": {
        "x": 0.5,
        "z": -0.5
      },
      "removeActorType": "NEW_REMOVE_WITH_DISAPPEAR",
      "relativePosType": "AVATAR_NEW",
      "relativePosNpcAlias": "",
      "_bindMovingTargetKey": ""
    }
  ],
  "group": [
    [
      {
        "$type": "FJKIHHKJLMJ",
        "type": "CAMERA_FOCUS",
        "duration": 0.10000000149011612,
        "actionId": 103,
        "targetNpcAlias": "",
        "KJOEFBPOIIH": "",
        "IICFKKEBIEC": "",
        "EGEHEJEBLBJ": ""
      },
      {
        "$type": "MoleMole.Config.ConfigTimeProtectAction",
        "type": "TIME_PROTECT",
        "duration": 0.10000000149011612,
        "actionId": 104
      },
      {
        "$type": "LLGANGLOEEO",
        "type": "STEER_TO",
        "delayTime": 0.30000001192092896,
        "duration": 0.800000011920929,
        "aliasList": [
          "Avatar"
        ],
        "actionId": 178,
        "_flag": 32,
        "steerType": "TO_TARGET_ADVANCED",
        "useSteerAnim": true,
        "interruptFreestyle": true,
        "forceSteer": true,
        "targetNpcAlias": "5325",
        "fixInterNull": true,
        "OAFJBHJHLJG": ""
      },
      {
        "$type": "LLGANGLOEEO",
        "type": "STEER_TO",
        "delayTime": 0.30000001192092896,
        "duration": 0.800000011920929,
        "aliasList": [
          "5325"
        ],
        "actionId": 179,
        "_flag": 32,
        "steerType": "TO_LOCAL_AVATAR_ADVANCED",
        "useSteerAnim": true,
        "interruptFreestyle": true,
        "forceSteer": true,
        "targetNpcAlias": "",
        "fixInterNull": true,
        "OAFJBHJHLJG": ""
      }
    ],
    [
      {
        "$type": "PKKMAMONGEO",
        "type": "DIALOG",
        "aliasList": [
          "5325"
        ],
        "actionId": 107,
        "dialogID": 741930101,
        "protectTime": 0.5
      }
    ],
    [
      {
        "$type": "PKKMAMONGEO",
        "type": "DIALOG",
        "aliasList": [
          "1005"
        ],
        "actionId": 109,
        "dialogID": 741930102,
        "protectTime": 0.5
      }
    ],
    [
      {
        "$type": "PKKMAMONGEO",
        "type": "DIALOG",
        "aliasList": [
          "5325"
        ],
        "actionId": 111,
        "dialogID": 741930103,
        "protectTime": 0.5
      }
    ],
    [
      {
        "$type": "PKKMAMONGEO",
        "type": "DIALOG",
        "aliasList": [
          "1005"
        ],
        "actionId": 113,
        "dialogID": 741930104,
        "protectTime": 0.5
      }
    ],
    [
      {
        "$type": "PKKMAMONGEO",
        "type": "DIALOG",
        "aliasList": [
          "5325"
        ],
        "actionId": 115,
        "dialogID": 741930105,
        "protectTime": 0.5
      }
    ],
    [
      {
        "$type": "PKKMAMONGEO",
        "type": "DIALOG",
        "aliasList": [
          "1005"
        ],
        "actionId": 117,
        "dialogID": 741930106,
        "protectTime": 0.5
      }
    ],
    [
      {
        "$type": "PKKMAMONGEO",
        "type": "DIALOG",
        "aliasList": [
          "5325"
        ],
        "actionId": 119,
        "dialogID": 741930107,
        "protectTime": 0.5
      }
    ],
    [
      {
        "$type": "PKKMAMONGEO",
        "type": "DIALOG",
        "aliasList": [
          "5325"
        ],
        "actionId": 121,
        "dialogID": 741930108,
        "protectTime": 0.5
      }
    ],
    [
      {
        "$type": "PKKMAMONGEO",
        "type": "DIALOG",
        "aliasList": [
          "5325"
        ],
        "actionId": 123,
        "dialogID": 741930109,
        "protectTime": 0.5
      },
      {
        "$type": "HDGKHDNFMIM",
        "type": "DIALOG_SELECT",
        "delayTime": 0.4000000059604645,
        "aliasList": [
          "Avatar"
        ],
        "actionId": 124,
        "dialogIDList": [
          741930110
        ],
        "grpIDList": [
          3105079228
        ],
        "useGrpId": true,
        "countDownGrpId": 654353172
      }
    ],
    [
      {
        "$type": "PKKMAMONGEO",
        "type": "DIALOG",
        "aliasList": [
          "5325"
        ],
        "actionId": 126,
        "dialogID": 741930111,
        "protectTime": 0.5
      }
    ],
    [
      {
        "$type": "PKKMAMONGEO",
        "type": "DIALOG",
        "aliasList": [
          "5325"
        ],
        "actionId": 128,
        "dialogID": 741930112,
        "protectTime": 0.5
      }
    ],
    [
      {
        "$type": "PKKMAMONGEO",
        "type": "DIALOG",
        "aliasList": [
          "5325"
        ],
        "actionId": 130,
        "dialogID": 741930113,
        "protectTime": 0.5
      }
    ],
    [
      {
        "$type": "PKKMAMONGEO",
        "type": "DIALOG",
        "aliasList": [
          "5325"
        ],
        "actionId": 132,
        "dialogID": 741930114,
        "protectTime": 0.5
      }
    ],
    [
      {
        "$type": "PKKMAMONGEO",
        "type": "DIALOG",
        "aliasList": [
          "5325"
        ],
        "actionId": 134,
        "dialogID": 741930115,
        "protectTime": 0.5
      },
      {
        "$type": "HDGKHDNFMIM",
        "type": "DIALOG_SELECT",
        "delayTime": 0.4000000059604645,
        "aliasList": [
          "Avatar"
        ],
        "actionId": 135,
        "dialogIDList": [
          741930116
        ],
        "grpIDList": [
          3105079233
        ],
        "useGrpId": true,
        "countDownGrpId": 654353172
      }
    ],
    [
      {
        "$type": "PKKMAMONGEO",
        "type": "DIALOG",
        "aliasList": [
          "5325"
        ],
        "actionId": 137,
        "dialogID": 741930117,
        "protectTime": 0.5
      }
    ],
    [
      {
        "$type": "PKKMAMONGEO",
        "type": "DIALOG",
        "aliasList": [
          "1005"
        ],
        "actionId": 139,
        "dialogID": 741930118,
        "protectTime": 0.5
      }
    ],
    [
      {
        "$type": "PKKMAMONGEO",
        "type": "DIALOG",
        "aliasList": [
          "5325"
        ],
        "actionId": 141,
        "dialogID": 741930119,
        "protectTime": 0.5
      }
    ],
    [
      {
        "$type": "PKKMAMONGEO",
        "type": "DIALOG",
        "aliasList": [
          "1005"
        ],
        "actionId": 143,
        "dialogID": 741930120,
        "protectTime": 0.5
      }
    ],
    [
      {
        "$type": "PKKMAMONGEO",
        "type": "DIALOG",
        "aliasList": [
          "1005"
        ],
        "actionId": 145,
        "dialogID": 741930121,
        "protectTime": 0.5
      },
      {
        "$type": "HDGKHDNFMIM",
        "type": "DIALOG_SELECT",
        "delayTime": 0.4000000059604645,
        "aliasList": [
          "Avatar"
        ],
        "actionId": 146,
        "dialogIDList": [
          741930122
        ],
        "grpIDList": [
          3105079259
        ],
        "useGrpId": true,
        "countDownGrpId": 654353172
      }
    ],
    [
      {
        "$type": "PKKMAMONGEO",
        "type": "DIALOG",
        "aliasList": [
          "1005"
        ],
        "actionId": 148,
        "dialogID": 741930123,
        "protectTime": 0.5
      }
    ],
    [
      {
        "$type": "PKKMAMONGEO",
        "type": "DIALOG",
        "aliasList": [
          "5325"
        ],
        "actionId": 150,
        "dialogID": 741930124,
        "protectTime": 0.5
      }
    ],
    [
      {
        "$type": "PKKMAMONGEO",
        "type": "DIALOG",
        "aliasList": [
          "Avatar"
        ],
        "actionId": 152,
        "dialogID": 741930125,
        "protectTime": 0.5
      }
    ],
    [
      {
        "$type": "PKKMAMONGEO",
        "type": "DIALOG",
        "aliasList": [
          "5325"
        ],
        "actionId": 154,
        "dialogID": 741930126,
        "protectTime": 0.5
      }
    ],
    [
      {
        "$type": "PKKMAMONGEO",
        "type": "DIALOG",
        "aliasList": [
          "1005"
        ],
        "actionId": 156,
        "dialogID": 741930127,
        "protectTime": 0.5
      }
    ],
    [
      {
        "$type": "PKKMAMONGEO",
        "type": "DIALOG",
        "aliasList": [
          "1005"
        ],
        "actionId": 158,
        "dialogID": 741930128,
        "protectTime": 0.5
      }
    ],
    [
      {
        "$type": "PKKMAMONGEO",
        "type": "DIALOG",
        "aliasList": [
          "5325"
        ],
        "actionId": 160,
        "dialogID": 741930129,
        "protectTime": 0.5
      }
    ],
    [
      {
        "$type": "PKKMAMONGEO",
        "type": "DIALOG",
        "aliasList": [
          "5325"
        ],
        "actionId": 162,
        "dialogID": 741930130,
        "protectTime": 0.5
      },
      {
        "$type": "HDGKHDNFMIM",
        "type": "DIALOG_SELECT",
        "delayTime": 0.4000000059604645,
        "aliasList": [
          "Avatar"
        ],
        "actionId": 163,
        "dialogIDList": [
          741930131
        ],
        "grpIDList": [
          3105079267
        ],
        "useGrpId": true,
        "countDownGrpId": 654353172
      }
    ],
    [
      {
        "$type": "PKKMAMONGEO",
        "type": "DIALOG",
        "aliasList": [
          "5325"
        ],
        "actionId": 165,
        "dialogID": 741930132,
        "protectTime": 0.5
      }
    ],
    [
      {
        "$type": "PKKMAMONGEO",
        "type": "DIALOG",
        "aliasList": [
          "5325"
        ],
        "actionId": 167,
        "dialogID": 741930133,
        "protectTime": 0.5
      }
    ],
    [
      {
        "$type": "PKKMAMONGEO",
        "type": "DIALOG",
        "aliasList": [
          "5325"
        ],
        "actionId": 169,
        "dialogID": 741930134,
        "protectTime": 0.5
      }
    ],
    [
      {
        "$type": "PKKMAMONGEO",
        "type": "DIALOG",
        "aliasList": [
          "1005"
        ],
        "actionId": 171,
        "dialogID": 741930135,
        "protectTime": 0.5
      }
    ],
    [
      {
        "$type": "PKKMAMONGEO",
        "type": "DIALOG",
        "aliasList": [
          "5325"
        ],
        "actionId": 173,
        "dialogID": 741930136,
        "protectTime": 0.5
      }
    ],
    [
      {
        "$type": "PKKMAMONGEO",
        "type": "DIALOG",
        "aliasList": [
          "1005"
        ],
        "actionId": 175,
        "dialogID": 741930137,
        "protectTime": 0.5
      }
    ],
    [
      {
        "$type": "PKKMAMONGEO",
        "type": "DIALOG",
        "aliasList": [
          "5325"
        ],
        "actionId": 177,
        "dialogID": 741930138,
        "protectTime": 0.5
      }
    ],
    [
      {
        "$type": "MoleMole.Config.ConfigTimeProtectAction",
        "type": "TIME_PROTECT",
        "duration": 0.10000000149011612,
        "actionId": 105
      },
      {
        "$type": "LLGANGLOEEO",
        "type": "STEER_TO",
        "duration": 1.0,
        "aliasList": [
          "5325"
        ],
        "actionId": 180,
        "_flag": 32,
        "steerType": "RETURN",
        "useSteerAnim": true,
        "interruptFreestyle": true,
        "forceSteer": true,
        "targetNpcAlias": "",
        "ignoreY": true,
        "fixInterNull": true,
        "OAFJBHJHLJG": ""
      }
    ]
  ],
  "groupId": [
    {
      "grpId": 654353173,
      "nextGrpId": 654353174
    },
    {
      "index": 1,
      "grpId": 654353174,
      "nextGrpId": 654353175
    },
    {
      "index": 2,
      "grpId": 654353175,
      "nextGrpId": 654353176
    },
    {
      "index": 3,
      "grpId": 654353176,
      "nextGrpId": 654353177
    },
    {
      "index": 4,
      "grpId": 654353177,
      "nextGrpId": 654353178
    },
    {
      "index": 5,
      "grpId": 654353178,
      "nextGrpId": 654353179
    },
    {
      "index": 6,
      "grpId": 654353179,
      "nextGrpId": 654353180
    },
    {
      "index": 7,
      "grpId": 654353180,
      "nextGrpId": 654353181
    },
    {
      "index": 8,
      "grpId": 654353181,
      "nextGrpId": 3105079227
    },
    {
      "index": 9,
      "grpId": 3105079227,
      "nextGrpId": 3105079228
    },
    {
      "index": 10,
      "grpId": 3105079228,
      "nextGrpId": 3105079229
    },
    {
      "index": 11,
      "grpId": 3105079229,
      "nextGrpId": 3105079230
    },
    {
      "index": 12,
      "grpId": 3105079230,
      "nextGrpId": 3105079231
    },
    {
      "index": 13,
      "grpId": 3105079231,
      "nextGrpId": 3105079232
    },
    {
      "index": 14,
      "grpId": 3105079232,
      "nextGrpId": 3105079233
    },
    {
      "index": 15,
      "grpId": 3105079233,
      "nextGrpId": 3105079234
    },
    {
      "index": 16,
      "grpId": 3105079234,
      "nextGrpId": 3105079235
    },
    {
      "index": 17,
      "grpId": 3105079235,
      "nextGrpId": 3105079236
    },
    {
      "index": 18,
      "grpId": 3105079236,
      "nextGrpId": 3105079258
    },
    {
      "index": 19,
      "grpId": 3105079258,
      "nextGrpId": 3105079259
    },
    {
      "index": 20,
      "grpId": 3105079259,
      "nextGrpId": 3105079260
    },
    {
      "index": 21,
      "grpId": 3105079260,
      "nextGrpId": 3105079261
    },
    {
      "index": 22,
      "grpId": 3105079261,
      "nextGrpId": 3105079262
    },
    {
      "index": 23,
      "grpId": 3105079262,
      "nextGrpId": 3105079263
    },
    {
      "index": 24,
      "grpId": 3105079263,
      "nextGrpId": 3105079264
    },
    {
      "index": 25,
      "grpId": 3105079264,
      "nextGrpId": 3105079265
    },
    {
      "index": 26,
      "grpId": 3105079265,
      "nextGrpId": 3105079266
    },
    {
      "index": 27,
      "grpId": 3105079266,
      "nextGrpId": 3105079267
    },
    {
      "index": 28,
      "grpId": 3105079267,
      "nextGrpId": 3105079289
    },
    {
      "index": 29,
      "grpId": 3105079289,
      "nextGrpId": 3105079290
    },
    {
      "index": 30,
      "grpId": 3105079290,
      "nextGrpId": 3105079291
    },
    {
      "index": 31,
      "grpId": 3105079291,
      "nextGrpId": 3105079292
    },
    {
      "index": 32,
      "grpId": 3105079292,
      "nextGrpId": 3105079293
    },
    {
      "index": 33,
      "grpId": 3105079293,
      "nextGrpId": 3105079294
    },
    {
      "index": 34,
      "grpId": 3105079294,
      "nextGrpId": 3105079295
    },
    {
      "index": 35,
      "grpId": 3105079295,
      "nextGrpId": 3105079296
    }
  ],
  "freeStyleDic": {
    "5325": []
  }
}