{
  "luaDataPath": "",
  "dontUseDefaultFinish": true,
  "startBlackKeepTime": 0.5,
  "entityBan": "",
  "disableNpcLod": true,
  "isAutoBanNpc": true,
  "isBanWidgetPet": true,
  "protectNpcMobileLod": true,
  "talkFlag": 103,
  "startFade": {
    "startFadeInDuration": 0.5,
    "startFadeOutDuration": 0.5
  },
  "endFade": {
    "startFadeOutDuration": 0.0
  },
  "actors": [
    {
      "alias": "Avatar",
      "visible": true,
      "bornPointName": "[3_9409:924.103,258.970,353.309,0.000,125.564,0.000]",
      "relativePosType": "AVATAR_NEW",
      "relativePosNpcAlias": "",
      "_notDestroyInTalk": true,
      "_bindMovingTargetKey": ""
    },
    {
      "alias": "AvatarNpc",
      "visible": true,
      "bornPointName": "[3_9409:924.103,258.970,353.309,0.000,125.564,0.000]",
      "relativePos": {
        "x": 924.6690063476562,
        "y": 258.9700012207031,
        "z": 352.6650085449219
      },
      "relativeRot": {
        "y": 179.37600708007812
      },
      "removeActorType": "NEW_REMOVE",
      "relativePosType": "AVATAR_NEW",
      "relativePosNpcAlias": "",
      "_notDestroyInTalk": true,
      "_bindMovingTargetKey": "",
      "notDestroyInTalk": true
    },
    {
      "configID": 14466,
      "alias": "14466",
      "visible": true,
      "bornPointName": "Q7068108_guide",
      "relativePosType": "AVATAR_NEW",
      "relativePosNpcAlias": "",
      "_notDestroyInTalk": true,
      "_bindMovingTargetKey": ""
    },
    {
      "configID": 1005,
      "alias": "1005",
      "visible": true,
      "bornPointName": "[3_9408:923.381,258.970,352.074,0.000,95.989,0.000]",
      "removeActorType": "NEW_REMOVE_WITH_DISAPPEAR",
      "relativePosType": "AVATAR_NEW",
      "relativePosNpcAlias": "",
      "_notDestroyInTalk": true,
      "_bindMovingTargetKey": ""
    }
  ],
  "group": [
    [
      {
        "$type": "MoleMole.Config.ConfigTimeProtectAction",
        "type": "TIME_PROTECT",
        "duration": 1.0,
        "actionId": 104
      },
      {
        "$type": "FABLGECDBCH",
        "type": "BODY_LANG",
        "aliasList": [
          "14466"
        ],
        "actionId": 142,
        "_flag": 131072,
        "isContinue": true,
        "forceDoFreeStyle": true,
        "canDoRepeatFreeStyle": false,
        "cantBackToIdleWhenSitLoop": true,
        "eventPatternSuiteKey": "",
        "FOHHKFAIAAJ": ""
      },
      {
        "$type": "FABLGECDBCH",
        "type": "BODY_LANG",
        "aliasList": [
          "1005"
        ],
        "actionId": 144,
        "_flag": 131072,
        "isContinue": true,
        "forceDoFreeStyle": true,
        "canDoRepeatFreeStyle": false,
        "cantBackToIdleWhenSitLoop": true,
        "eventPatternSuiteKey": "",
        "FOHHKFAIAAJ": ""
      },
      {
        "$type": "MoleMole.Config.ConfigBlackScreenAction",
        "type": "BLACK_SCREEN",
        "duration": 4.0,
        "actionId": 146,
        "_flag": 2048,
        "blackScreenType": "KEEP_BLACK",
        "durationToBlack": 0.5,
        "durationKeepBlack": 4.0,
        "durationFromBlack": 0.5,
        "inteePos": "",
        "textMapID": "",
        "useTextFade": true,
        "_dialogID": 706819905,
        "showClickBtnDelayTime": 0.5,
        "waitClickBtnTipTime": 0.5,
        "_changeAudioState": true
      },
      {
        "$type": "MoleMole.Config.ConfigSitOrStandAction",
        "type": "SIT_OR_STAND",
        "duration": 2.0,
        "aliasList": [
          "Avatar"
        ],
        "actionId": 151,
        "_flag": 40960,
        "banResetFreestyle": true
      },
      {
        "$type": "MoleMole.Config.ConfigPlayerNPCEnergyTypeAction",
        "type": "SET_PLAYER_NPC_ENERGY_TYPE",
        "aliasList": [
          "AvatarNpc"
        ],
        "actionId": 152,
        "setHeroEngergyType": true
      },
      {
        "$type": "FABLGECDBCH",
        "type": "BODY_LANG",
        "aliasList": [
          "AvatarNpc"
        ],
        "actionId": 155,
        "_flag": 131072,
        "isContinue": true,
        "forceDoFreeStyle": true,
        "canDoRepeatFreeStyle": false,
        "cantBackToIdleWhenSitLoop": true,
        "eventPatternSuiteKey": "",
        "FOHHKFAIAAJ": ""
      },
      {
        "$type": "MoleMole.Config.ConfigVisibleInterAction",
        "type": "VISIBLE",
        "aliasList": [
          "Avatar"
        ],
        "actionId": 157,
        "_extraParam": ""
      },
      {
        "$type": "MoleMole.Config.ConfigSitOrStandAction",
        "type": "SIT_OR_STAND",
        "duration": 0.10000000149011612,
        "aliasList": [
          "AvatarNpc"
        ],
        "actionId": 178,
        "_flag": 40960,
        "isSit": true,
        "standDirection": "FRONT",
        "chairPos": {
          "x": 924.7150268554688,
          "y": 258.97198486328125,
          "z": 352.6619873046875
        },
        "chairEulerAngle": {
          "y": 179.36500549316406
        },
        "banResetFreestyle": true,
        "_forceFastSitOrStand": true,
        "_useVirtualChair": true
      },
      {
        "$type": "MoleMole.Config.ConfigTeleportToAction",
        "type": "TELEPORT_TO",
        "aliasList": [
          "AvatarNpc"
        ],
        "actionId": 179,
        "position": {
          "x": 924.6690063476562,
          "y": 258.9700012207031,
          "z": 352.6650085449219
        },
        "forward": {
          "x": 0.013000000268220901,
          "z": -1.1720000505447388
        },
        "openLongDisTeleport": true,
        "syncForward": true,
        "_posBindMovingTargetKey": "",
        "_forwardBindMovingTargetKey": ""
      },
      {
        "$type": "MoleMole.Config.ConfigSitOrStandAction",
        "type": "SIT_OR_STAND",
        "duration": 0.10000000149011612,
        "aliasList": [
          "14466"
        ],
        "actionId": 180,
        "_flag": 40960,
        "isSit": true,
        "standDirection": "FRONT",
        "chairPos": {
          "x": 925.656005859375,
          "y": 258.97198486328125,
          "z": 351.7749938964844
        },
        "chairEulerAngle": {
          "y": 272.656005859375
        },
        "banResetFreestyle": true,
        "_forceFastSitOrStand": true,
        "_useVirtualChair": true
      },
      {
        "$type": "MoleMole.Config.ConfigTeleportToAction",
        "type": "TELEPORT_TO",
        "aliasList": [
          "14466"
        ],
        "actionId": 181,
        "position": {
          "x": 925.7310180664062,
          "y": 258.9739990234375,
          "z": 351.70599365234375
        },
        "forward": {
          "x": -1.399999976158142,
          "z": -0.014000000432133675
        },
        "openLongDisTeleport": true,
        "syncForward": true,
        "_posBindMovingTargetKey": "",
        "_forwardBindMovingTargetKey": ""
      },
      {
        "$type": "MoleMole.Config.ConfigColliderOpInterAction",
        "type": "COLLIDER_OP",
        "aliasList": [
          "1005"
        ],
        "actionId": 182,
        "_colType": 1,
        "isClose": true
      },
      {
        "$type": "MoleMole.Config.ConfigColliderOpInterAction",
        "type": "COLLIDER_OP",
        "delayTime": 0.1420000046491623,
        "aliasList": [
          "1005"
        ],
        "actionId": 183,
        "isClose": true
      },
      {
        "$type": "MoleMole.Config.ConfigTeleportToAction",
        "type": "TELEPORT_TO",
        "delayTime": 0.3330000042915344,
        "aliasList": [
          "1005"
        ],
        "actionId": 184,
        "position": {
          "x": 923.5869750976562,
          "y": 258.6319885253906,
          "z": 351.82598876953125
        },
        "forward": {
          "x": 1.6410000324249268,
          "y": 0.33899998664855957,
          "z": 0.2240000069141388
        },
        "openLongDisTeleport": true,
        "syncForward": true,
        "_posBindMovingTargetKey": "",
        "_forwardBindMovingTargetKey": ""
      },
      {
        "$type": "MoleMole.Config.ConfigTeleportToAction",
        "type": "TELEPORT_TO",
        "aliasList": [
          "Avatar"
        ],
        "actionId": 208,
        "position": {
          "x": 924.6690063476562,
          "y": 258.9700012207031,
          "z": 352.6650085449219
        },
        "forward": {
          "x": 0.013000000268220901,
          "z": -1.1720000505447388
        },
        "openLongDisTeleport": true,
        "syncForward": true,
        "_posBindMovingTargetKey": "",
        "_forwardBindMovingTargetKey": ""
      },
      {
        "$type": "MoleMole.Config.ConfigLocalGadgetOP",
        "type": "LOCAL_GADGET_OP",
        "actionId": 294,
        "gadgetId": 70710495,
        "oprCode": 1,
        "slotName": "",
        "sceneId": 3,
        "position": {
          "x": 924.7329711914062,
          "y": 259.7439880371094,
          "z": 351.7019958496094
        },
        "gvKey": "",
        "_stateOnCreate": 0
      },
      {
        "$type": "MoleMole.Config.ConfigLocalGadgetOP",
        "type": "LOCAL_GADGET_OP",
        "delayTime": 0.1080000028014183,
        "actionId": 295,
        "gadgetId": 70710493,
        "oprCode": 1,
        "slotName": "",
        "sceneId": 3,
        "position": {
          "x": 351.7019958496094,
          "y": 259.7439880371094,
          "z": 351.385986328125
        },
        "gvKey": "",
        "_stateOnCreate": 0
      },
      {
        "$type": "MoleMole.Config.ConfigLocalGadgetOP",
        "type": "LOCAL_GADGET_OP",
        "delayTime": 0.2329999953508377,
        "actionId": 296,
        "gadgetId": 70220214,
        "oprCode": 1,
        "slotName": "",
        "sceneId": 3,
        "position": {
          "x": 924.9210205078125,
          "y": 259.55999755859375,
          "z": 351.25201416015625
        },
        "euler": {
          "y": 302.42498779296875
        },
        "gvKey": "",
        "_stateOnCreate": 0
      },
      {
        "$type": "MoleMole.Config.ConfigLocalGadgetOP",
        "type": "LOCAL_GADGET_OP",
        "delayTime": 0.382999986410141,
        "actionId": 297,
        "gadgetId": 70710101,
        "oprCode": 1,
        "slotName": "",
        "sceneId": 3,
        "position": {
          "x": 925.1220092773438,
          "y": 259.7439880371094,
          "z": 352.12298583984375
        },
        "gvKey": "",
        "_stateOnCreate": 0
      },
      {
        "$type": "MoleMole.Config.ConfigLocalGadgetOP",
        "type": "LOCAL_GADGET_OP",
        "delayTime": 0.5329999923706055,
        "actionId": 298,
        "gadgetId": 70710097,
        "oprCode": 1,
        "slotName": "",
        "sceneId": 3,
        "position": {
          "x": 925.1090087890625,
          "y": 259.7439880371094,
          "z": 351.27301025390625
        },
        "euler": {
          "y": 325.5169982910156
        },
        "gvKey": "",
        "_stateOnCreate": 0
      },
      {
        "$type": "MoleMole.Config.ConfigLocalGadgetOP",
        "type": "LOCAL_GADGET_OP",
        "delayTime": 0.6579999923706055,
        "actionId": 299,
        "gadgetId": 70710098,
        "subKey": 1,
        "oprCode": 1,
        "slotName": "",
        "sceneId": 3,
        "position": {
          "x": 924.697998046875,
          "y": 259.7439880371094,
          "z": 352.29998779296875
        },
        "gvKey": "",
        "_stateOnCreate": 0
      },
      {
        "$type": "MoleMole.Config.ConfigLocalGadgetOP",
        "type": "LOCAL_GADGET_OP",
        "delayTime": 0.7670000195503235,
        "actionId": 300,
        "gadgetId": 70710098,
        "subKey": 2,
        "oprCode": 1,
        "slotName": "",
        "sceneId": 3,
        "position": {
          "x": 925.3820190429688,
          "y": 259.7439880371094,
          "z": 351.7239990234375
        },
        "gvKey": "",
        "_stateOnCreate": 0
      },
      {
        "$type": "MoleMole.Config.ConfigLocalGadgetOP",
        "type": "LOCAL_GADGET_OP",
        "delayTime": 0.8999999761581421,
        "actionId": 301,
        "gadgetId": 70710098,
        "subKey": 3,
        "oprCode": 1,
        "slotName": "",
        "sceneId": 3,
        "position": {
          "x": 924.030029296875,
          "y": 259.7439880371094,
          "z": 351.7340087890625
        },
        "gvKey": "",
        "_stateOnCreate": 0
      },
      {
        "$type": "MoleMole.Config.ConfigLocalGadgetOP",
        "type": "LOCAL_GADGET_OP",
        "delayTime": 1.024999976158142,
        "actionId": 302,
        "gadgetId": 70220204,
        "oprCode": 1,
        "slotName": "",
        "sceneId": 3,
        "position": {
          "x": 924.3060302734375,
          "y": 259.7439880371094,
          "z": 352.1289978027344
        },
        "gvKey": "",
        "_stateOnCreate": 0
      },
      {
        "$type": "MoleMole.Config.ConfigLocalGadgetOP",
        "type": "LOCAL_GADGET_OP",
        "delayTime": 1.1419999599456787,
        "actionId": 303,
        "gadgetId": 70220201,
        "oprCode": 1,
        "slotName": "",
        "sceneId": 3,
        "position": {
          "x": 924.3049926757812,
          "y": 259.7510070800781,
          "z": 352.1340026855469
        },
        "gvKey": "",
        "_stateOnCreate": 0
      }
    ],
    [
      {
        "$type": "PKKMAMONGEO",
        "type": "DIALOG",
        "aliasList": [
          "14466"
        ],
        "actionId": 107,
        "dialogID": 706811201,
        "protectTime": 0.5
      },
      {
        "$type": "LJLMDHDCAMK",
        "type": "LOOK_AT",
        "aliasList": [
          "1005"
        ],
        "actionId": 185,
        "_flag": 64,
        "enableHead": true,
        "headTurnTime": 0.5,
        "targetNpcAlias": "14466",
        "openBackProtect": true,
        "backProtectAngle": 10.0,
        "targetNpcLookAtPoint": "",
        "OAFJBHJHLJG": ""
      },
      {
        "$type": "CPJKOIHIPBE",
        "type": "EMO_SYNC",
        "aliasList": [
          "14466"
        ],
        "actionId": 186,
        "_flag": 320,
        "dataPath": "",
        "phonemePath": "Cs_Emo_NPC_Common/Cs_Emo_NPC_Smile01",
        "emotionPath": "Cs_Emo_NPC_Common/Cs_Emo_NPC_WinkA01",
        "mateDataPath": "",
        "matePhonemePath": "",
        "mateEmotionPath": "",
        "enableBlink": false,
        "phonemePathHashList": [
          16904578549667717032,
          1816638257688317738,
          5794653667040553837,
          4994398500180388018
        ],
        "emotionPathHashList": [
          3765270258116979292,
          5819579798871825639,
          6466964524325215505,
          5921498707822553356
        ],
        "FMDPBECPELH": "",
        "ADKBLPOKGIK": ""
      },
      {
        "$type": "FABLGECDBCH",
        "type": "BODY_LANG",
        "aliasList": [
          "14466"
        ],
        "actionId": 187,
        "_flag": 131072,
        "isContinue": true,
        "bodyLangParam": 4030,
        "forceDoFreeStyle": true,
        "canDoRepeatFreeStyle": false,
        "cantBackToIdleWhenSitLoop": true,
        "eventPatternSuiteKey": "",
        "FOHHKFAIAAJ": ""
      },
      {
        "$type": "LJLMDHDCAMK",
        "type": "LOOK_AT",
        "aliasList": [
          "AvatarNpc"
        ],
        "actionId": 188,
        "_flag": 64,
        "enableHead": true,
        "headTurnTime": 0.5,
        "targetNpcAlias": "14466",
        "openBackProtect": true,
        "backProtectAngle": 10.0,
        "targetNpcLookAtPoint": "",
        "OAFJBHJHLJG": ""
      },
      {
        "$type": "MoleMole.Config.ConfigBlackScreenAction",
        "type": "BLACK_SCREEN",
        "duration": 0.5,
        "actionId": 191,
        "_flag": 2048,
        "blackScreenType": "FROM_BLACK",
        "durationToBlack": 0.5,
        "durationKeepBlack": 0.5,
        "durationFromBlack": 0.5,
        "inteePos": "",
        "textMapID": "",
        "useTextFade": true,
        "showClickBtnDelayTime": 0.5,
        "waitClickBtnTipTime": 0.5,
        "_changeAudioState": true
      },
      {
        "$type": "FJKIHHKJLMJ",
        "type": "CAMERA_MOVE",
        "duration": 1.0,
        "actionId": 192,
        "camPosOffset": {
          "x": 923.3679809570312,
          "y": 260.7590026855469,
          "z": 353.14898681640625
        },
        "camForwardTargetOffset": {
          "x": 924.0670166015625,
          "y": 260.31201171875,
          "z": 352.59100341796875
        },
        "camFov": 40.0,
        "lerpPattern": 6,
        "cameraBlendType": "EaseInOutCubic",
        "needZAxisRotate": true,
        "rotateAngle": 359.718994140625,
        "openCameraDither": false,
        "targetNpcAlias": "",
        "closeTreeLeafDither": true,
        "KJOEFBPOIIH": "",
        "IICFKKEBIEC": "",
        "EGEHEJEBLBJ": "",
        "cutFrameTrans": {
          "_elevMinValue": -50.0,
          "_elevMaxValue": 50.0,
          "_poleMinValue": -50.0,
          "_poleMaxValue": 50.0
        }
      },
      {
        "$type": "FJKIHHKJLMJ",
        "type": "CAMERA_MOVE",
        "delayTime": 0.10000000149011612,
        "duration": 8.649999618530273,
        "actionId": 193,
        "camPosOffset": {
          "x": 923.3259887695312,
          "y": 260.7590026855469,
          "z": 353.09698486328125
        },
        "camForwardTargetOffset": {
          "x": 924.0250244140625,
          "y": 260.31201171875,
          "z": 352.53900146484375
        },
        "camFov": 40.0,
        "needZAxisRotate": true,
        "rotateAngle": 359.718994140625,
        "openCameraDither": false,
        "targetNpcAlias": "",
        "closeTreeLeafDither": true,
        "KJOEFBPOIIH": "",
        "IICFKKEBIEC": "",
        "EGEHEJEBLBJ": "",
        "cutFrameTrans": {
          "_elevMinValue": -50.0,
          "_elevMaxValue": 50.0,
          "_poleMinValue": -50.0,
          "_poleMaxValue": 50.0
        }
      }
    ],
    [
      {
        "$type": "PKKMAMONGEO",
        "type": "DIALOG",
        "aliasList": [
          "1005"
        ],
        "actionId": 109,
        "dialogID": 706811202,
        "protectTime": 0.5
      },
      {
        "$type": "FJKIHHKJLMJ",
        "type": "CAMERA_MOVE",
        "duration": 1.0,
        "actionId": 189,
        "camPosOffset": {
          "x": 924.85498046875,
          "y": 260.1099853515625,
          "z": 350.86199951171875
        },
        "camForwardTargetOffset": {
          "x": 924.0830078125,
          "y": 259.9739990234375,
          "z": 351.48199462890625
        },
        "camFov": 23.67300033569336,
        "lerpPattern": 6,
        "cameraBlendType": "EaseInOutCubic",
        "needZAxisRotate": true,
        "rotateAngle": 359.7690124511719,
        "openCameraDither": false,
        "targetNpcAlias": "",
        "closeTreeLeafDither": true,
        "KJOEFBPOIIH": "",
        "IICFKKEBIEC": "",
        "EGEHEJEBLBJ": "",
        "cutFrameTrans": {
          "_elevMinValue": -50.0,
          "_elevMaxValue": 50.0,
          "_poleMinValue": -50.0,
          "_poleMaxValue": 50.0
        }
      },
      {
        "$type": "FJKIHHKJLMJ",
        "type": "CAMERA_MOVE",
        "delayTime": 0.10000000149011612,
        "duration": 7.900000095367432,
        "actionId": 190,
        "camPosOffset": {
          "x": 924.9000244140625,
          "y": 260.1099853515625,
          "z": 350.9179992675781
        },
        "camForwardTargetOffset": {
          "x": 924.1279907226562,
          "y": 259.9739990234375,
          "z": 351.5379943847656
        },
        "camFov": 23.67300033569336,
        "needZAxisRotate": true,
        "rotateAngle": 359.7690124511719,
        "openCameraDither": false,
        "targetNpcAlias": "",
        "closeTreeLeafDither": true,
        "KJOEFBPOIIH": "",
        "IICFKKEBIEC": "",
        "EGEHEJEBLBJ": "",
        "cutFrameTrans": {
          "_elevMinValue": -50.0,
          "_elevMaxValue": 50.0,
          "_poleMinValue": -50.0,
          "_poleMaxValue": 50.0
        }
      },
      {
        "$type": "LJLMDHDCAMK",
        "type": "LOOK_AT",
        "aliasList": [
          "AvatarNpc"
        ],
        "actionId": 194,
        "_flag": 64,
        "enableHead": true,
        "headTurnTime": 0.5,
        "targetNpcAlias": "1005",
        "openBackProtect": true,
        "backProtectAngle": 10.0,
        "targetNpcLookAtPoint": "",
        "OAFJBHJHLJG": ""
      },
      {
        "$type": "LJLMDHDCAMK",
        "type": "LOOK_AT",
        "aliasList": [
          "14466"
        ],
        "actionId": 195,
        "_flag": 64,
        "enableHead": true,
        "headTurnTime": 0.5,
        "targetNpcAlias": "1005",
        "openBackProtect": true,
        "backProtectAngle": 10.0,
        "targetNpcLookAtPoint": "",
        "OAFJBHJHLJG": ""
      },
      {
        "$type": "FABLGECDBCH",
        "type": "BODY_LANG",
        "aliasList": [
          "14466"
        ],
        "actionId": 196,
        "_flag": 131072,
        "isContinue": true,
        "forceDoFreeStyle": true,
        "canDoRepeatFreeStyle": false,
        "cantBackToIdleWhenSitLoop": true,
        "eventPatternSuiteKey": "",
        "FOHHKFAIAAJ": ""
      },
      {
        "$type": "FABLGECDBCH",
        "type": "BODY_LANG",
        "delayTime": 0.5,
        "aliasList": [
          "1005"
        ],
        "actionId": 197,
        "_flag": 131072,
        "bodyLangParam": 1130,
        "forceDoFreeStyle": true,
        "canDoRepeatFreeStyle": false,
        "cantBackToIdleWhenSitLoop": true,
        "eventPatternSuiteKey": "",
        "FOHHKFAIAAJ": ""
      },
      {
        "$type": "CPJKOIHIPBE",
        "type": "EMO_SYNC",
        "delayTime": 0.5,
        "aliasList": [
          "1005"
        ],
        "actionId": 198,
        "_flag": 320,
        "dataPath": "",
        "phonemePath": "Cs_Emo_Pet_Common/Cs_Emo_Paimon_Smile01",
        "emotionPath": "Cs_Emo_Pet_Common/Cs_Emo_Paimon_Happy01",
        "mateDataPath": "",
        "matePhonemePath": "",
        "mateEmotionPath": "",
        "enableBlink": false,
        "phonemePathHashList": [
          14444568113189515118,
          6334906583242748066,
          8352861918685421043,
          6062231986990823827
        ],
        "emotionPathHashList": [
          11795538569676462054,
          5514455715760618983,
          6871647363300542652,
          8381196293596717205
        ],
        "FMDPBECPELH": "",
        "ADKBLPOKGIK": ""
      }
    ],
    [
      {
        "$type": "MoleMole.Config.ConfigBlackScreenAction",
        "type": "BLACK_SCREEN",
        "actionId": 111,
        "_flag": 2048,
        "durationToBlack": 0.5,
        "durationKeepBlack": 3.0,
        "durationFromBlack": 0.5,
        "inteePos": "",
        "textMapID": "",
        "useTextFade": true,
        "_dialogID": 706811203,
        "showClickBtnDelayTime": 0.5,
        "waitClickBtnTipTime": 0.5,
        "_changeAudioState": true
      },
      {
        "$type": "PKKMAMONGEO",
        "type": "DIALOG_CLEAR",
        "actionId": 112
      },
      {
        "$type": "FABLGECDBCH",
        "type": "BODY_LANG",
        "aliasList": [
          "1005"
        ],
        "actionId": 199,
        "_flag": 131072,
        "isContinue": true,
        "forceDoFreeStyle": true,
        "canDoRepeatFreeStyle": false,
        "cantBackToIdleWhenSitLoop": true,
        "eventPatternSuiteKey": "",
        "FOHHKFAIAAJ": ""
      },
      {
        "$type": "FJKIHHKJLMJ",
        "type": "CAMERA_MOVE",
        "delayTime": 1.7829999923706055,
        "duration": 1.0,
        "actionId": 200,
        "camPosOffset": {
          "x": 927.655029296875,
          "y": 262.1600036621094,
          "z": 352.93798828125
        },
        "camForwardTargetOffset": {
          "x": 926.9180297851562,
          "y": 261.5169982910156,
          "z": 352.7300109863281
        },
        "camFov": 40.0,
        "lerpPattern": 6,
        "cameraBlendType": "EaseInOutCubic",
        "needZAxisRotate": true,
        "openCameraDither": false,
        "targetNpcAlias": "",
        "closeTreeLeafDither": true,
        "KJOEFBPOIIH": "",
        "IICFKKEBIEC": "",
        "EGEHEJEBLBJ": "",
        "cutFrameTrans": {
          "_elevMinValue": -50.0,
          "_elevMaxValue": 50.0,
          "_poleMinValue": -50.0,
          "_poleMaxValue": 50.0
        }
      },
      {
        "$type": "MoleMole.Config.ConfigLocalGadgetOP",
        "type": "LOCAL_GADGET_OP",
        "delayTime": 2.5,
        "actionId": 273,
        "gadgetId": 70710495,
        "oprCode": 2,
        "slotName": "",
        "sceneId": 3,
        "position": {
          "x": 924.7329711914062,
          "y": 259.7439880371094,
          "z": 351.7019958496094
        },
        "gvKey": "",
        "_stateOnCreate": 0
      },
      {
        "$type": "MoleMole.Config.ConfigLocalGadgetOP",
        "type": "LOCAL_GADGET_OP",
        "delayTime": 1.4329999685287476,
        "actionId": 274,
        "gadgetId": 70710493,
        "oprCode": 2,
        "slotName": "",
        "sceneId": 3,
        "position": {
          "x": 351.7019958496094,
          "y": 259.7439880371094,
          "z": 351.385986328125
        },
        "gvKey": "",
        "_stateOnCreate": 0
      },
      {
        "$type": "MoleMole.Config.ConfigLocalGadgetOP",
        "type": "LOCAL_GADGET_OP",
        "delayTime": 1.5750000476837158,
        "actionId": 275,
        "gadgetId": 70220214,
        "oprCode": 2,
        "slotName": "",
        "sceneId": 3,
        "position": {
          "x": 924.9210205078125,
          "y": 259.55999755859375,
          "z": 351.25201416015625
        },
        "euler": {
          "y": 302.42498779296875
        },
        "gvKey": "",
        "_stateOnCreate": 0
      },
      {
        "$type": "MoleMole.Config.ConfigLocalGadgetOP",
        "type": "LOCAL_GADGET_OP",
        "delayTime": 1.6920000314712524,
        "actionId": 276,
        "gadgetId": 70710101,
        "oprCode": 2,
        "slotName": "",
        "sceneId": 3,
        "position": {
          "x": 925.1220092773438,
          "y": 259.7439880371094,
          "z": 352.12298583984375
        },
        "gvKey": "",
        "_stateOnCreate": 0
      },
      {
        "$type": "MoleMole.Config.ConfigLocalGadgetOP",
        "type": "LOCAL_GADGET_OP",
        "delayTime": 1.8170000314712524,
        "actionId": 277,
        "gadgetId": 70710097,
        "oprCode": 2,
        "slotName": "",
        "sceneId": 3,
        "position": {
          "x": 925.1090087890625,
          "y": 259.7439880371094,
          "z": 351.27301025390625
        },
        "euler": {
          "y": 325.5169982910156
        },
        "gvKey": "",
        "_stateOnCreate": 0
      },
      {
        "$type": "MoleMole.Config.ConfigLocalGadgetOP",
        "type": "LOCAL_GADGET_OP",
        "delayTime": 1.9249999523162842,
        "actionId": 278,
        "gadgetId": 70710098,
        "subKey": 1,
        "oprCode": 2,
        "slotName": "",
        "sceneId": 3,
        "position": {
          "x": 325.5169982910156,
          "y": 259.7439880371094,
          "z": 351.7539978027344
        },
        "gvKey": "",
        "_stateOnCreate": 0
      },
      {
        "$type": "MoleMole.Config.ConfigLocalGadgetOP",
        "type": "LOCAL_GADGET_OP",
        "delayTime": 2.0420000553131104,
        "actionId": 279,
        "gadgetId": 70710098,
        "subKey": 2,
        "oprCode": 2,
        "slotName": "",
        "sceneId": 3,
        "position": {
          "x": 351.7539978027344,
          "y": 259.7439880371094,
          "z": 352.35699462890625
        },
        "gvKey": "",
        "_stateOnCreate": 0
      },
      {
        "$type": "MoleMole.Config.ConfigLocalGadgetOP",
        "type": "LOCAL_GADGET_OP",
        "delayTime": 2.1500000953674316,
        "actionId": 280,
        "gadgetId": 70710098,
        "subKey": 3,
        "oprCode": 2,
        "slotName": "",
        "sceneId": 3,
        "position": {
          "x": 924.030029296875,
          "y": 259.7439880371094,
          "z": 351.7340087890625
        },
        "gvKey": "",
        "_stateOnCreate": 0
      },
      {
        "$type": "MoleMole.Config.ConfigLocalGadgetOP",
        "type": "LOCAL_GADGET_OP",
        "delayTime": 2.2750000953674316,
        "actionId": 281,
        "gadgetId": 70220204,
        "oprCode": 2,
        "slotName": "",
        "sceneId": 3,
        "position": {
          "x": 924.3060302734375,
          "y": 259.7439880371094,
          "z": 352.1289978027344
        },
        "gvKey": "",
        "_stateOnCreate": 0
      },
      {
        "$type": "MoleMole.Config.ConfigLocalGadgetOP",
        "type": "LOCAL_GADGET_OP",
        "delayTime": 2.375,
        "actionId": 282,
        "gadgetId": 70220201,
        "oprCode": 2,
        "slotName": "",
        "sceneId": 3,
        "position": {
          "x": 924.3049926757812,
          "y": 259.7510070800781,
          "z": 352.1340026855469
        },
        "gvKey": "",
        "_stateOnCreate": 0
      },
      {
        "$type": "MoleMole.Config.ConfigLocalGadgetOP",
        "type": "LOCAL_GADGET_OP",
        "delayTime": 2.811000108718872,
        "actionId": 283,
        "gadgetId": 70220205,
        "oprCode": 1,
        "slotName": "",
        "sceneId": 3,
        "position": {
          "x": 924.5900268554688,
          "y": 259.7439880371094,
          "z": 351.31500244140625
        },
        "gvKey": "",
        "_stateOnCreate": 0
      },
      {
        "$type": "MoleMole.Config.ConfigLocalGadgetOP",
        "type": "LOCAL_GADGET_OP",
        "delayTime": 2.86899995803833,
        "actionId": 284,
        "gadgetId": 70220204,
        "oprCode": 1,
        "slotName": "",
        "sceneId": 3,
        "position": {
          "x": 924.3870239257812,
          "y": 259.7439880371094,
          "z": 351.9639892578125
        },
        "gvKey": "",
        "_stateOnCreate": 0
      },
      {
        "$type": "MoleMole.Config.ConfigLocalGadgetOP",
        "type": "LOCAL_GADGET_OP",
        "delayTime": 2.944000005722046,
        "actionId": 285,
        "gadgetId": 70710174,
        "subKey": 1,
        "oprCode": 1,
        "slotName": "",
        "sceneId": 3,
        "position": {
          "x": 924.7119750976562,
          "y": 259.7439880371094,
          "z": 352.2860107421875
        },
        "gvKey": "",
        "_stateOnCreate": 0
      },
      {
        "$type": "MoleMole.Config.ConfigLocalGadgetOP",
        "type": "LOCAL_GADGET_OP",
        "delayTime": 3.069000005722046,
        "actionId": 286,
        "gadgetId": 70710174,
        "subKey": 2,
        "oprCode": 1,
        "slotName": "",
        "sceneId": 3,
        "position": {
          "x": 925.3159790039062,
          "y": 259.7439880371094,
          "z": 351.7539978027344
        },
        "gvKey": "",
        "_stateOnCreate": 0
      },
      {
        "$type": "MoleMole.Config.ConfigLocalGadgetOP",
        "type": "LOCAL_GADGET_OP",
        "delayTime": 3.1610000133514404,
        "actionId": 287,
        "gadgetId": 70710174,
        "subKey": 3,
        "oprCode": 1,
        "slotName": "",
        "sceneId": 3,
        "position": {
          "x": 924.0430297851562,
          "y": 259.7439880371094,
          "z": 351.7489929199219
        },
        "gvKey": "",
        "_stateOnCreate": 0
      },
      {
        "$type": "MoleMole.Config.ConfigLocalGadgetOP",
        "type": "LOCAL_GADGET_OP",
        "delayTime": 3.2769999504089355,
        "actionId": 288,
        "gadgetId": 70220212,
        "subKey": 1,
        "oprCode": 1,
        "slotName": "",
        "sceneId": 3,
        "position": {
          "x": 925.2670288085938,
          "y": 259.55999755859375,
          "z": 351.2439880371094
        },
        "euler": {
          "y": 29.93600082397461
        },
        "gvKey": "",
        "_stateOnCreate": 0
      },
      {
        "$type": "MoleMole.Config.ConfigLocalGadgetOP",
        "type": "LOCAL_GADGET_OP",
        "delayTime": 3.3940000534057617,
        "actionId": 289,
        "gadgetId": 70220212,
        "subKey": 2,
        "oprCode": 1,
        "slotName": "",
        "sceneId": 3,
        "position": {
          "x": 924.2990112304688,
          "y": 259.5570068359375,
          "z": 351.635009765625
        },
        "euler": {
          "y": 279.20599365234375
        },
        "gvKey": "",
        "_stateOnCreate": 0
      },
      {
        "$type": "MoleMole.Config.ConfigLocalGadgetOP",
        "type": "LOCAL_GADGET_OP",
        "delayTime": 3.502000093460083,
        "actionId": 290,
        "gadgetId": 70220212,
        "subKey": 3,
        "oprCode": 1,
        "slotName": "",
        "sceneId": 3,
        "position": {
          "x": 925.219970703125,
          "y": 259.5570068359375,
          "z": 352.3009948730469
        },
        "euler": {
          "y": 279.20599365234375
        },
        "gvKey": "",
        "_stateOnCreate": 0
      },
      {
        "$type": "MoleMole.Config.ConfigLocalGadgetOP",
        "type": "LOCAL_GADGET_OP",
        "delayTime": 2.7360000610351562,
        "actionId": 291,
        "gadgetId": 70220207,
        "subKey": 2,
        "oprCode": 1,
        "slotName": "",
        "sceneId": 3,
        "position": {
          "x": 924.8790283203125,
          "y": 259.7439880371094,
          "z": 351.78900146484375
        },
        "gvKey": "",
        "_stateOnCreate": 0
      }
    ],
    [
      {
        "$type": "PKKMAMONGEO",
        "type": "DIALOG",
        "aliasList": [
          "1005"
        ],
        "actionId": 114,
        "dialogID": 706811204,
        "protectTime": 0.5
      },
      {
        "$type": "HDGKHDNFMIM",
        "type": "DIALOG_SELECT",
        "delayTime": 0.4000000059604645,
        "aliasList": [
          "AvatarNpc"
        ],
        "actionId": 149,
        "dialogIDList": [
          706811205,
          706811206
        ],
        "grpIDList": [
          2684690070,
          2684690070
        ],
        "useGrpId": true,
        "countDownGrpId": 2684690064
      },
      {
        "$type": "FJKIHHKJLMJ",
        "type": "CAMERA_MOVE",
        "duration": 1.0,
        "actionId": 201,
        "camPosOffset": {
          "x": 927.655029296875,
          "y": 262.1600036621094,
          "z": 352.93798828125
        },
        "camForwardTargetOffset": {
          "x": 926.9180297851562,
          "y": 261.5169982910156,
          "z": 352.7300109863281
        },
        "camFov": 40.0,
        "lerpPattern": 6,
        "cameraBlendType": "EaseInOutCubic",
        "needZAxisRotate": true,
        "openCameraDither": false,
        "targetNpcAlias": "",
        "closeTreeLeafDither": true,
        "KJOEFBPOIIH": "",
        "IICFKKEBIEC": "",
        "EGEHEJEBLBJ": "",
        "cutFrameTrans": {
          "_elevMinValue": -50.0,
          "_elevMaxValue": 50.0,
          "_poleMinValue": -50.0,
          "_poleMaxValue": 50.0
        }
      },
      {
        "$type": "FJKIHHKJLMJ",
        "type": "CAMERA_MOVE",
        "delayTime": 0.10000000149011612,
        "duration": 8.899999618530273,
        "actionId": 202,
        "camPosOffset": {
          "x": 927.6849975585938,
          "y": 262.1600036621094,
          "z": 352.8110046386719
        },
        "camForwardTargetOffset": {
          "x": 926.93701171875,
          "y": 261.51800537109375,
          "z": 352.64599609375
        },
        "camFov": 40.0,
        "needZAxisRotate": true,
        "rotateAngle": 2.122999906539917,
        "openCameraDither": false,
        "targetNpcAlias": "",
        "closeTreeLeafDither": true,
        "KJOEFBPOIIH": "",
        "IICFKKEBIEC": "",
        "EGEHEJEBLBJ": "",
        "cutFrameTrans": {
          "_elevMinValue": -50.0,
          "_elevMaxValue": 50.0,
          "_poleMinValue": -50.0,
          "_poleMaxValue": 50.0
        }
      },
      {
        "$type": "LJLMDHDCAMK",
        "type": "LOOK_AT",
        "aliasList": [
          "AvatarNpc"
        ],
        "actionId": 203,
        "_flag": 64,
        "enableHead": true,
        "headTurnTime": 0.5,
        "targetNpcAlias": "1005",
        "openBackProtect": true,
        "backProtectAngle": 10.0,
        "targetNpcLookAtPoint": "",
        "OAFJBHJHLJG": ""
      },
      {
        "$type": "FABLGECDBCH",
        "type": "BODY_LANG",
        "delayTime": 0.7689999938011169,
        "aliasList": [
          "AvatarNpc"
        ],
        "actionId": 204,
        "_flag": 131072,
        "bodyLangParam": 4030,
        "forceDoFreeStyle": true,
        "canDoRepeatFreeStyle": false,
        "dontClearPreFreeStyle": true,
        "cantBackToIdleWhenSitLoop": true,
        "eventPatternSuiteKey": "",
        "FOHHKFAIAAJ": ""
      },
      {
        "$type": "LJLMDHDCAMK",
        "type": "LOOK_AT",
        "aliasList": [
          "14466"
        ],
        "actionId": 205,
        "_flag": 64,
        "enableHead": true,
        "headTurnTime": 0.5,
        "targetNpcAlias": "1005",
        "openBackProtect": true,
        "backProtectAngle": 10.0,
        "targetNpcLookAtPoint": "",
        "OAFJBHJHLJG": ""
      },
      {
        "$type": "FABLGECDBCH",
        "type": "BODY_LANG",
        "delayTime": 0.00800000037997961,
        "aliasList": [
          "1005"
        ],
        "actionId": 206,
        "_flag": 131072,
        "bodyLangParam": 1250,
        "forceDoFreeStyle": true,
        "canDoRepeatFreeStyle": false,
        "cantBackToIdleWhenSitLoop": true,
        "eventPatternSuiteKey": "",
        "FOHHKFAIAAJ": ""
      },
      {
        "$type": "LJLMDHDCAMK",
        "type": "LOOK_AT",
        "aliasList": [
          "1005"
        ],
        "actionId": 207,
        "_flag": 64,
        "enableHead": true,
        "headTurnTime": 0.5,
        "targetNpcAlias": "14466",
        "openBackProtect": true,
        "backProtectAngle": 10.0,
        "targetNpcLookAtPoint": "",
        "OAFJBHJHLJG": ""
      }
    ],
    [
      {
        "$type": "PKKMAMONGEO",
        "type": "DIALOG",
        "aliasList": [
          "14466"
        ],
        "actionId": 117,
        "dialogID": 706811207,
        "protectTime": 0.5
      },
      {
        "$type": "FJKIHHKJLMJ",
        "type": "CAMERA_MOVE",
        "duration": 1.0,
        "actionId": 209,
        "camPosOffset": {
          "x": 925.176025390625,
          "y": 260.1390075683594,
          "z": 352.6679992675781
        },
        "camForwardTargetOffset": {
          "x": 925.8670043945312,
          "y": 260.10400390625,
          "z": 351.9460144042969
        },
        "camFov": 24.54599952697754,
        "lerpPattern": 6,
        "cameraBlendType": "EaseInOutCubic",
        "needZAxisRotate": true,
        "openCameraDither": false,
        "targetNpcAlias": "",
        "closeTreeLeafDither": true,
        "KJOEFBPOIIH": "",
        "IICFKKEBIEC": "",
        "EGEHEJEBLBJ": "",
        "cutFrameTrans": {
          "_elevMinValue": -50.0,
          "_elevMaxValue": 50.0,
          "_poleMinValue": -50.0,
          "_poleMaxValue": 50.0
        }
      },
      {
        "$type": "FJKIHHKJLMJ",
        "type": "CAMERA_MOVE",
        "delayTime": 0.10000000149011612,
        "duration": 9.899999618530273,
        "actionId": 210,
        "camPosOffset": {
          "x": 925.14697265625,
          "y": 260.1390075683594,
          "z": 352.6400146484375
        },
        "camForwardTargetOffset": {
          "x": 925.8380126953125,
          "y": 260.10400390625,
          "z": 351.9179992675781
        },
        "camFov": 24.54599952697754,
        "needZAxisRotate": true,
        "openCameraDither": false,
        "targetNpcAlias": "",
        "closeTreeLeafDither": true,
        "KJOEFBPOIIH": "",
        "IICFKKEBIEC": "",
        "EGEHEJEBLBJ": "",
        "cutFrameTrans": {
          "_elevMinValue": -50.0,
          "_elevMaxValue": 50.0,
          "_poleMinValue": -50.0,
          "_poleMaxValue": 50.0
        }
      },
      {
        "$type": "LJLMDHDCAMK",
        "type": "LOOK_AT",
        "aliasList": [
          "AvatarNpc"
        ],
        "actionId": 211,
        "_flag": 64,
        "enableHead": true,
        "headTurnTime": 0.5,
        "targetNpcAlias": "14466",
        "openBackProtect": true,
        "backProtectAngle": 10.0,
        "targetNpcLookAtPoint": "",
        "OAFJBHJHLJG": ""
      },
      {
        "$type": "CPJKOIHIPBE",
        "type": "EMO_SYNC",
        "aliasList": [
          "14466"
        ],
        "actionId": 212,
        "_flag": 256,
        "dataPath": "",
        "phonemePath": "Cs_Emo_NPC_Common/Cs_Emo_NPC_Smile01",
        "emotionPath": "Cs_Emo_NPC_Common/Cs_Emo_NPC_Normal01",
        "mateDataPath": "",
        "matePhonemePath": "",
        "mateEmotionPath": "",
        "phonemePathHashList": [
          16904578549667717032,
          1816638257688317738,
          5794653667040553837,
          4994398500180388018
        ],
        "emotionPathHashList": [
          10638823098752766568,
          16550434959365186937,
          16779490980036678760,
          2038118027140397243
        ],
        "FMDPBECPELH": "",
        "ADKBLPOKGIK": ""
      },
      {
        "$type": "LJLMDHDCAMK",
        "type": "LOOK_AT",
        "aliasList": [
          "14466"
        ],
        "actionId": 213,
        "_flag": 64,
        "enableHead": true,
        "headTurnTime": 0.5,
        "targetNpcAlias": "AvatarNpc",
        "openBackProtect": true,
        "backProtectAngle": 10.0,
        "targetNpcLookAtPoint": "",
        "OAFJBHJHLJG": ""
      },
      {
        "$type": "LJLMDHDCAMK",
        "type": "LOOK_AT",
        "aliasList": [
          "1005"
        ],
        "actionId": 214,
        "_flag": 64,
        "enableHead": true,
        "headTurnTime": 0.5,
        "targetNpcAlias": "14466",
        "openBackProtect": true,
        "backProtectAngle": 10.0,
        "targetNpcLookAtPoint": "",
        "OAFJBHJHLJG": ""
      }
    ],
    [
      {
        "$type": "PKKMAMONGEO",
        "type": "DIALOG",
        "aliasList": [
          "14466"
        ],
        "actionId": 119,
        "dialogID": 706811208,
        "protectTime": 0.5
      },
      {
        "$type": "FABLGECDBCH",
        "type": "BODY_LANG",
        "aliasList": [
          "14466"
        ],
        "actionId": 215,
        "_flag": 131072,
        "bodyLangParam": 4030,
        "forceDoFreeStyle": true,
        "canDoRepeatFreeStyle": false,
        "dontClearPreFreeStyle": true,
        "cantBackToIdleWhenSitLoop": true,
        "eventPatternSuiteKey": "",
        "FOHHKFAIAAJ": ""
      },
      {
        "$type": "CPJKOIHIPBE",
        "type": "EMO_SYNC",
        "aliasList": [
          "14466"
        ],
        "actionId": 216,
        "_flag": 320,
        "dataPath": "",
        "phonemePath": "Cs_Emo_NPC_Common/Cs_Emo_NPC_Normal01",
        "emotionPath": "Cs_Emo_NPC_Common/Cs_Emo_NPC_Normal01_B",
        "mateDataPath": "",
        "matePhonemePath": "",
        "mateEmotionPath": "",
        "phonemePathHashList": [
          12803840960998583578,
          3437050431160283015,
          6548526936325855136,
          1274732080047098512
        ],
        "emotionPathHashList": [
          15191155715402440098,
          420038106395935518,
          2651432695756251320,
          4209314551981667660
        ],
        "FMDPBECPELH": "",
        "ADKBLPOKGIK": ""
      }
    ],
    [
      {
        "$type": "PKKMAMONGEO",
        "type": "DIALOG",
        "aliasList": [
          "14466"
        ],
        "actionId": 121,
        "dialogID": 706811209,
        "protectTime": 0.5
      },
      {
        "$type": "FABLGECDBCH",
        "type": "BODY_LANG",
        "aliasList": [
          "14466"
        ],
        "actionId": 217,
        "_flag": 131072,
        "bodyLangParam": 8060,
        "forceDoFreeStyle": true,
        "canDoRepeatFreeStyle": false,
        "cantBackToIdleWhenSitLoop": true,
        "eventPatternSuiteKey": "",
        "FOHHKFAIAAJ": ""
      },
      {
        "$type": "FJKIHHKJLMJ",
        "type": "CAMERA_MOVE",
        "duration": 1.0,
        "actionId": 218,
        "camPosOffset": {
          "x": 922.6909790039062,
          "y": 259.9779968261719,
          "z": 353.1839904785156
        },
        "camForwardTargetOffset": {
          "x": 923.6380004882812,
          "y": 259.97198486328125,
          "z": 352.8630065917969
        },
        "camFov": 20.08799934387207,
        "lerpPattern": 6,
        "cameraBlendType": "EaseInOutCubic",
        "needZAxisRotate": true,
        "openCameraDither": false,
        "targetNpcAlias": "",
        "closeTreeLeafDither": true,
        "KJOEFBPOIIH": "",
        "IICFKKEBIEC": "",
        "EGEHEJEBLBJ": "",
        "cutFrameTrans": {
          "_elevMinValue": -50.0,
          "_elevMaxValue": 50.0,
          "_poleMinValue": -50.0,
          "_poleMaxValue": 50.0
        }
      },
      {
        "$type": "FJKIHHKJLMJ",
        "type": "CAMERA_MOVE",
        "delayTime": 0.10000000149011612,
        "duration": 11.649999618530273,
        "actionId": 219,
        "camPosOffset": {
          "x": 922.7150268554688,
          "y": 259.9779968261719,
          "z": 353.2560119628906
        },
        "camForwardTargetOffset": {
          "x": 923.6619873046875,
          "y": 259.97198486328125,
          "z": 352.93499755859375
        },
        "camFov": 20.08799934387207,
        "needZAxisRotate": true,
        "openCameraDither": false,
        "targetNpcAlias": "",
        "closeTreeLeafDither": true,
        "KJOEFBPOIIH": "",
        "IICFKKEBIEC": "",
        "EGEHEJEBLBJ": "",
        "cutFrameTrans": {
          "_elevMinValue": -50.0,
          "_elevMaxValue": 50.0,
          "_poleMinValue": -50.0,
          "_poleMaxValue": 50.0
        }
      }
    ],
    [
      {
        "$type": "PKKMAMONGEO",
        "type": "DIALOG_CLEAR",
        "actionId": 159
      },
      {
        "$type": "PKKMAMONGEO",
        "type": "DIALOG_CLEAR",
        "actionId": 161
      },
      {
        "$type": "FJKIHHKJLMJ",
        "type": "CAMERA_MOVE",
        "duration": 0.5,
        "actionId": 162,
        "camPosOffset": {
          "x": 939.5579833984375,
          "y": 261.60198974609375,
          "z": 348.0580139160156
        },
        "camForwardTargetOffset": {
          "x": 938.635009765625,
          "y": 261.656005859375,
          "z": 348.4389953613281
        },
        "camFov": 24.0,
        "lerpPattern": 6,
        "cameraBlendType": "EaseInOutCubic",
        "needZAxisRotate": true,
        "openCameraDither": false,
        "targetNpcAlias": "",
        "closeTreeLeafDither": true,
        "KJOEFBPOIIH": "",
        "IICFKKEBIEC": "",
        "EGEHEJEBLBJ": "",
        "cutFrameTrans": {
          "_elevMinValue": -50.0,
          "_elevMaxValue": 50.0,
          "_poleMinValue": -50.0,
          "_poleMaxValue": 50.0
        }
      },
      {
        "$type": "FJKIHHKJLMJ",
        "type": "CAMERA_MOVE",
        "delayTime": 0.24500000476837158,
        "duration": 6.0,
        "actionId": 163,
        "camPosOffset": {
          "x": 939.5380249023438,
          "y": 261.2090148925781,
          "z": 348.0660095214844
        },
        "camForwardTargetOffset": {
          "x": 938.614990234375,
          "y": 261.26300048828125,
          "z": 348.4469909667969
        },
        "camFov": 24.0,
        "cameraBlendType": "EaseOutQuad",
        "needZAxisRotate": true,
        "openCameraDither": false,
        "targetNpcAlias": "",
        "closeTreeLeafDither": true,
        "KJOEFBPOIIH": "",
        "IICFKKEBIEC": "",
        "EGEHEJEBLBJ": "",
        "cutFrameTrans": {
          "_elevMinValue": -50.0,
          "_elevMaxValue": 50.0,
          "_poleMinValue": -50.0,
          "_poleMaxValue": 50.0
        }
      },
      {
        "$type": "MoleMole.Config.ConfigTeleportToAction",
        "type": "TELEPORT_TO",
        "aliasList": [
          "Avatar"
        ],
        "actionId": 164,
        "position": {
          "x": 926.0960083007812,
          "y": 258.97198486328125,
          "z": 353.2179870605469
        },
        "forward": {
          "x": 0.1720000058412552,
          "z": -1.465999960899353
        },
        "openLongDisTeleport": true,
        "syncForward": true,
        "_posBindMovingTargetKey": "",
        "_forwardBindMovingTargetKey": ""
      },
      {
        "$type": "LJLMDHDCAMK",
        "type": "LOOK_AT",
        "aliasList": [
          "AvatarNpc"
        ],
        "actionId": 165,
        "_flag": 64,
        "enableHead": true,
        "headTurnTime": 0.5,
        "targetNpcAlias": "14466",
        "openBackProtect": true,
        "backProtectAngle": 10.0,
        "targetNpcLookAtPoint": "",
        "OAFJBHJHLJG": ""
      },
      {
        "$type": "MoleMole.Config.ConfigSitOrStandAction",
        "type": "SIT_OR_STAND",
        "aliasList": [
          "AvatarNpc"
        ],
        "actionId": 166,
        "_flag": 40960,
        "standDirection": "FRONT",
        "banResetFreestyle": true,
        "_forceFastSitOrStand": true
      },
      {
        "$type": "MoleMole.Config.ConfigTeleportToAction",
        "type": "TELEPORT_TO",
        "aliasList": [
          "AvatarNpc"
        ],
        "actionId": 167,
        "position": {
          "x": 926.0960083007812,
          "y": 258.97198486328125,
          "z": 353.2179870605469
        },
        "forward": {
          "x": 0.1720000058412552,
          "z": -1.465999960899353
        },
        "openLongDisTeleport": true,
        "syncForward": true,
        "_posBindMovingTargetKey": "",
        "_forwardBindMovingTargetKey": ""
      },
      {
        "$type": "FABLGECDBCH",
        "type": "BODY_LANG",
        "delayTime": 1.378999948501587,
        "aliasList": [
          "AvatarNpc"
        ],
        "actionId": 168,
        "_flag": 131072,
        "bodyLangParam": 1190,
        "forceDoFreeStyle": true,
        "canDoRepeatFreeStyle": false,
        "cantBackToIdleWhenSitLoop": true,
        "eventPatternSuiteKey": "",
        "FOHHKFAIAAJ": ""
      },
      {
        "$type": "FABLGECDBCH",
        "type": "BODY_LANG",
        "delayTime": 5.433000087738037,
        "aliasList": [
          "AvatarNpc"
        ],
        "actionId": 169,
        "_flag": 131072,
        "isContinue": true,
        "forceDoFreeStyle": true,
        "canDoRepeatFreeStyle": false,
        "cantBackToIdleWhenSitLoop": true,
        "eventPatternSuiteKey": "",
        "FOHHKFAIAAJ": ""
      },
      {
        "$type": "FABLGECDBCH",
        "type": "BODY_LANG",
        "aliasList": [
          "14466"
        ],
        "actionId": 170,
        "_flag": 131072,
        "isContinue": true,
        "forceDoFreeStyle": true,
        "canDoRepeatFreeStyle": false,
        "cantBackToIdleWhenSitLoop": true,
        "eventPatternSuiteKey": "",
        "FOHHKFAIAAJ": ""
      },
      {
        "$type": "LJLMDHDCAMK",
        "type": "LOOK_AT",
        "aliasList": [
          "14466"
        ],
        "actionId": 171,
        "_flag": 64,
        "enableHead": true,
        "headTurnTime": 0.5,
        "targetNpcAlias": "1005",
        "openBackProtect": true,
        "backProtectAngle": 10.0,
        "targetNpcLookAtPoint": "",
        "OAFJBHJHLJG": ""
      },
      {
        "$type": "MoleMole.Config.ConfigTeleportToAction",
        "type": "TELEPORT_TO",
        "aliasList": [
          "14466"
        ],
        "actionId": 172,
        "position": {
          "x": 926.3660278320312,
          "y": 258.9750061035156,
          "z": 352.322998046875
        },
        "forward": {
          "x": -0.16699999570846558,
          "z": 0.6399999856948853
        },
        "openLongDisTeleport": true,
        "syncForward": true,
        "_posBindMovingTargetKey": "",
        "_forwardBindMovingTargetKey": ""
      },
      {
        "$type": "MoleMole.Config.ConfigSitOrStandAction",
        "type": "SIT_OR_STAND",
        "aliasList": [
          "14466"
        ],
        "actionId": 173,
        "_flag": 40960,
        "standDirection": "FRONT",
        "banResetFreestyle": true,
        "_forceFastSitOrStand": true
      },
      {
        "$type": "FABLGECDBCH",
        "type": "BODY_LANG",
        "delayTime": 1.093000054359436,
        "aliasList": [
          "14466"
        ],
        "actionId": 174,
        "_flag": 131072,
        "bodyLangParam": 1170,
        "forceDoFreeStyle": true,
        "canDoRepeatFreeStyle": false,
        "cantBackToIdleWhenSitLoop": true,
        "eventPatternSuiteKey": "",
        "FOHHKFAIAAJ": ""
      },
      {
        "$type": "FABLGECDBCH",
        "type": "BODY_LANG",
        "delayTime": 5.456999778747559,
        "aliasList": [
          "14466"
        ],
        "actionId": 175,
        "_flag": 131072,
        "isContinue": true,
        "forceDoFreeStyle": true,
        "canDoRepeatFreeStyle": false,
        "cantBackToIdleWhenSitLoop": true,
        "eventPatternSuiteKey": "",
        "FOHHKFAIAAJ": ""
      },
      {
        "$type": "MoleMole.Config.ConfigTeleportToAction",
        "type": "TELEPORT_TO",
        "aliasList": [
          "1005"
        ],
        "actionId": 176,
        "position": {
          "x": 925.4580078125,
          "y": 258.97198486328125,
          "z": 353.114013671875
        },
        "forward": {
          "x": 0.7300000190734863,
          "z": -1.2350000143051147
        },
        "openLongDisTeleport": true,
        "syncForward": true,
        "_posBindMovingTargetKey": "",
        "_forwardBindMovingTargetKey": ""
      },
      {
        "$type": "CPJKOIHIPBE",
        "type": "EMO_SYNC",
        "aliasList": [
          "1005"
        ],
        "actionId": 177,
        "_flag": 320,
        "dataPath": "",
        "phonemePath": "Cs_Emo_Pet_Common/Cs_Emo_Paimon_Smile01",
        "emotionPath": "Cs_Emo_Pet_Common/Cs_Emo_Paimon_Normal01",
        "mateDataPath": "",
        "matePhonemePath": "",
        "mateEmotionPath": "",
        "phonemePathHashList": [
          14444568113189515118,
          6334906583242748066,
          8352861918685421043,
          6062231986990823827
        ],
        "emotionPathHashList": [
          312453201720762420,
          9562322946389574798,
          18422542724361145117,
          17949024460815132449
        ],
        "FMDPBECPELH": "",
        "ADKBLPOKGIK": ""
      }
    ],
    [
      {
        "$type": "PKKMAMONGEO",
        "type": "DIALOG",
        "aliasList": [
          "14466"
        ],
        "actionId": 123,
        "dialogID": 706811210,
        "protectTime": 0.5
      },
      {
        "$type": "FJKIHHKJLMJ",
        "type": "CAMERA_MOVE",
        "duration": 1.0,
        "actionId": 220,
        "camPosOffset": {
          "x": 931.8060302734375,
          "y": 262.2929992675781,
          "z": 350.63800048828125
        },
        "camForwardTargetOffset": {
          "x": 930.9299926757812,
          "y": 261.96600341796875,
          "z": 350.9930114746094
        },
        "camFov": 24.0,
        "lerpPattern": 6,
        "cameraBlendType": "EaseInOutCubic",
        "needZAxisRotate": true,
        "openCameraDither": false,
        "targetNpcAlias": "",
        "closeTreeLeafDither": true,
        "KJOEFBPOIIH": "",
        "IICFKKEBIEC": "",
        "EGEHEJEBLBJ": "",
        "cutFrameTrans": {
          "_elevMinValue": -50.0,
          "_elevMaxValue": 50.0,
          "_poleMinValue": -50.0,
          "_poleMaxValue": 50.0
        }
      },
      {
        "$type": "FJKIHHKJLMJ",
        "type": "CAMERA_MOVE",
        "delayTime": 0.28999999165534973,
        "duration": 8.699999809265137,
        "actionId": 221,
        "camPosOffset": {
          "x": 931.8809814453125,
          "y": 262.2929992675781,
          "z": 350.822998046875
        },
        "camForwardTargetOffset": {
          "x": 931.0059814453125,
          "y": 261.96600341796875,
          "z": 351.1789855957031
        },
        "camFov": 24.0,
        "cameraBlendType": "EaseOutQuad",
        "needZAxisRotate": true,
        "openCameraDither": false,
        "targetNpcAlias": "",
        "closeTreeLeafDither": true,
        "KJOEFBPOIIH": "",
        "IICFKKEBIEC": "",
        "EGEHEJEBLBJ": "",
        "cutFrameTrans": {
          "_elevMinValue": -50.0,
          "_elevMaxValue": 50.0,
          "_poleMinValue": -50.0,
          "_poleMaxValue": 50.0
        }
      },
      {
        "$type": "CPJKOIHIPBE",
        "type": "EMO_SYNC",
        "aliasList": [
          "14466"
        ],
        "actionId": 223,
        "_flag": 256,
        "dataPath": "",
        "phonemePath": "Cs_Emo_NPC_Common/Cs_Emo_NPC_Normal01",
        "emotionPath": "Cs_Emo_NPC_Common/Cs_Emo_NPC_Normal01_B",
        "mateDataPath": "",
        "matePhonemePath": "",
        "mateEmotionPath": "",
        "phonemePathHashList": [
          12803840960998583578,
          3437050431160283015,
          6548526936325855136,
          1274732080047098512
        ],
        "emotionPathHashList": [
          15191155715402440098,
          420038106395935518,
          2651432695756251320,
          4209314551981667660
        ],
        "FMDPBECPELH": "",
        "ADKBLPOKGIK": ""
      },
      {
        "$type": "FABLGECDBCH",
        "type": "BODY_LANG",
        "delayTime": 0.9390000104904175,
        "aliasList": [
          "14466"
        ],
        "actionId": 224,
        "_flag": 131072,
        "bodyLangParam": 1130,
        "forceDoFreeStyle": true,
        "canDoRepeatFreeStyle": false,
        "cantBackToIdleWhenSitLoop": true,
        "eventPatternSuiteKey": "",
        "FOHHKFAIAAJ": ""
      },
      {
        "$type": "LJLMDHDCAMK",
        "type": "LOOK_AT",
        "aliasList": [
          "14466"
        ],
        "actionId": 225,
        "_flag": 64,
        "enableHead": true,
        "headTurnTime": 0.5,
        "targetNpcAlias": "AvatarNpc",
        "openBackProtect": true,
        "backProtectAngle": 10.0,
        "targetNpcLookAtPoint": "",
        "OAFJBHJHLJG": ""
      },
      {
        "$type": "FABLGECDBCH",
        "type": "BODY_LANG",
        "aliasList": [
          "14466"
        ],
        "actionId": 226,
        "_flag": 131072,
        "isContinue": true,
        "forceDoFreeStyle": true,
        "canDoRepeatFreeStyle": false,
        "cantBackToIdleWhenSitLoop": true,
        "eventPatternSuiteKey": "",
        "FOHHKFAIAAJ": ""
      },
      {
        "$type": "FABLGECDBCH",
        "type": "BODY_LANG",
        "aliasList": [
          "AvatarNpc"
        ],
        "actionId": 227,
        "_flag": 131072,
        "isContinue": true,
        "forceDoFreeStyle": true,
        "canDoRepeatFreeStyle": false,
        "cantBackToIdleWhenSitLoop": true,
        "eventPatternSuiteKey": "",
        "FOHHKFAIAAJ": ""
      }
    ],
    [
      {
        "$type": "PKKMAMONGEO",
        "type": "DIALOG",
        "aliasList": [
          "14466"
        ],
        "actionId": 125,
        "dialogID": 706811211,
        "protectTime": 0.5
      },
      {
        "$type": "FABLGECDBCH",
        "type": "BODY_LANG",
        "delayTime": 0.00800000037997961,
        "aliasList": [
          "14466"
        ],
        "actionId": 228,
        "_flag": 131072,
        "isContinue": true,
        "forceDoFreeStyle": true,
        "canDoRepeatFreeStyle": false,
        "cantBackToIdleWhenSitLoop": true,
        "eventPatternSuiteKey": "",
        "FOHHKFAIAAJ": ""
      },
      {
        "$type": "FABLGECDBCH",
        "type": "BODY_LANG",
        "delayTime": 1.25,
        "aliasList": [
          "14466"
        ],
        "actionId": 229,
        "_flag": 131072,
        "bodyLangParam": 1230,
        "forceDoFreeStyle": true,
        "canDoRepeatFreeStyle": false,
        "cantBackToIdleWhenSitLoop": true,
        "eventPatternSuiteKey": "",
        "FOHHKFAIAAJ": ""
      },
      {
        "$type": "FABLGECDBCH",
        "type": "BODY_LANG",
        "delayTime": 2.1440000534057617,
        "aliasList": [
          "14466"
        ],
        "actionId": 230,
        "_flag": 131072,
        "bodyLangParam": 4030,
        "forceDoFreeStyle": true,
        "canDoRepeatFreeStyle": false,
        "dontClearPreFreeStyle": true,
        "cantBackToIdleWhenSitLoop": true,
        "eventPatternSuiteKey": "",
        "FOHHKFAIAAJ": ""
      },
      {
        "$type": "CPJKOIHIPBE",
        "type": "EMO_SYNC",
        "aliasList": [
          "14466"
        ],
        "actionId": 231,
        "_flag": 320,
        "dataPath": "",
        "phonemePath": "Cs_Emo_NPC_Common/Cs_Emo_NPC_Smile01",
        "emotionPath": "Cs_Emo_NPC_Common/Cs_Emo_NPC_Normal01_B",
        "mateDataPath": "",
        "matePhonemePath": "",
        "mateEmotionPath": "",
        "phonemePathHashList": [
          16904578549667717032,
          1816638257688317738,
          5794653667040553837,
          4994398500180388018
        ],
        "emotionPathHashList": [
          15191155715402440098,
          420038106395935518,
          2651432695756251320,
          4209314551981667660
        ],
        "FMDPBECPELH": "",
        "ADKBLPOKGIK": ""
      },
      {
        "$type": "LJLMDHDCAMK",
        "type": "LOOK_AT",
        "aliasList": [
          "14466"
        ],
        "actionId": 232,
        "_flag": 64,
        "enableHead": true,
        "headTurnTime": 0.5,
        "targetNpcAlias": "AvatarNpc",
        "openBackProtect": true,
        "backProtectAngle": 10.0,
        "targetNpcLookAtPoint": "",
        "OAFJBHJHLJG": ""
      }
    ],
    [
      {
        "$type": "PKKMAMONGEO",
        "type": "DIALOG",
        "aliasList": [
          "1005"
        ],
        "actionId": 127,
        "dialogID": 706811212,
        "protectTime": 0.5
      },
      {
        "$type": "FJKIHHKJLMJ",
        "type": "CAMERA_MOVE",
        "duration": 1.0,
        "actionId": 233,
        "camPosOffset": {
          "x": 922.5679931640625,
          "y": 260.2799987792969,
          "z": 354.552001953125
        },
        "camForwardTargetOffset": {
          "x": 923.406005859375,
          "y": 260.2650146484375,
          "z": 354.0069885253906
        },
        "camFov": 30.0,
        "lerpPattern": 6,
        "cameraBlendType": "EaseInOutCubic",
        "needZAxisRotate": true,
        "rotateAngle": 0.25099998712539673,
        "openCameraDither": false,
        "targetNpcAlias": "",
        "closeTreeLeafDither": true,
        "KJOEFBPOIIH": "",
        "IICFKKEBIEC": "",
        "EGEHEJEBLBJ": "",
        "cutFrameTrans": {
          "_elevMinValue": -50.0,
          "_elevMaxValue": 50.0,
          "_poleMinValue": -50.0,
          "_poleMaxValue": 50.0
        }
      },
      {
        "$type": "FJKIHHKJLMJ",
        "type": "CAMERA_MOVE",
        "delayTime": 0.4390000104904175,
        "duration": 9.649999618530273,
        "actionId": 234,
        "camPosOffset": {
          "x": 922.4569702148438,
          "y": 260.281005859375,
          "z": 354.3810119628906
        },
        "camForwardTargetOffset": {
          "x": 923.2949829101562,
          "y": 260.2659912109375,
          "z": 353.83599853515625
        },
        "camFov": 30.0,
        "needZAxisRotate": true,
        "rotateAngle": 0.25099998712539673,
        "openCameraDither": false,
        "targetNpcAlias": "",
        "closeTreeLeafDither": true,
        "KJOEFBPOIIH": "",
        "IICFKKEBIEC": "",
        "EGEHEJEBLBJ": "",
        "cutFrameTrans": {
          "_elevMinValue": -50.0,
          "_elevMaxValue": 50.0,
          "_poleMinValue": -50.0,
          "_poleMaxValue": 50.0
        }
      },
      {
        "$type": "FABLGECDBCH",
        "type": "BODY_LANG",
        "aliasList": [
          "AvatarNpc"
        ],
        "actionId": 235,
        "_flag": 131072,
        "bodyLangParam": 4030,
        "forceDoFreeStyle": true,
        "canDoRepeatFreeStyle": false,
        "dontClearPreFreeStyle": true,
        "cantBackToIdleWhenSitLoop": true,
        "eventPatternSuiteKey": "",
        "FOHHKFAIAAJ": ""
      },
      {
        "$type": "LJLMDHDCAMK",
        "type": "LOOK_AT",
        "aliasList": [
          "AvatarNpc"
        ],
        "actionId": 236,
        "_flag": 64,
        "enableHead": true,
        "headTurnTime": 0.5,
        "targetNpcAlias": "14466",
        "openBackProtect": true,
        "backProtectAngle": 10.0,
        "targetNpcLookAtPoint": "",
        "OAFJBHJHLJG": ""
      },
      {
        "$type": "FABLGECDBCH",
        "type": "BODY_LANG",
        "aliasList": [
          "14466"
        ],
        "actionId": 237,
        "_flag": 131072,
        "isContinue": true,
        "forceDoFreeStyle": true,
        "canDoRepeatFreeStyle": false,
        "cantBackToIdleWhenSitLoop": true,
        "eventPatternSuiteKey": "",
        "FOHHKFAIAAJ": ""
      },
      {
        "$type": "LJLMDHDCAMK",
        "type": "LOOK_AT",
        "aliasList": [
          "14466"
        ],
        "actionId": 238,
        "_flag": 64,
        "enableHead": true,
        "headTurnTime": 0.5,
        "targetNpcAlias": "1005",
        "openBackProtect": true,
        "backProtectAngle": 10.0,
        "targetNpcLookAtPoint": "",
        "OAFJBHJHLJG": ""
      },
      {
        "$type": "FABLGECDBCH",
        "type": "BODY_LANG",
        "aliasList": [
          "1005"
        ],
        "actionId": 239,
        "_flag": 131072,
        "bodyLangParam": 4030,
        "forceDoFreeStyle": true,
        "canDoRepeatFreeStyle": false,
        "dontClearPreFreeStyle": true,
        "cantBackToIdleWhenSitLoop": true,
        "eventPatternSuiteKey": "",
        "FOHHKFAIAAJ": ""
      },
      {
        "$type": "FABLGECDBCH",
        "type": "BODY_LANG",
        "delayTime": 0.40400001406669617,
        "aliasList": [
          "1005"
        ],
        "actionId": 240,
        "_flag": 131072,
        "bodyLangParam": 1130,
        "forceDoFreeStyle": true,
        "canDoRepeatFreeStyle": false,
        "cantBackToIdleWhenSitLoop": true,
        "eventPatternSuiteKey": "",
        "FOHHKFAIAAJ": ""
      },
      {
        "$type": "CPJKOIHIPBE",
        "type": "EMO_SYNC",
        "aliasList": [
          "1005"
        ],
        "actionId": 241,
        "_flag": 320,
        "dataPath": "",
        "phonemePath": "Cs_Emo_Pet_Common/Cs_Emo_Paimon_Smile01",
        "emotionPath": "Cs_Emo_Pet_Common/Cs_Emo_Paimon_Normal01",
        "mateDataPath": "",
        "matePhonemePath": "",
        "mateEmotionPath": "",
        "phonemePathHashList": [
          14444568113189515118,
          6334906583242748066,
          8352861918685421043,
          6062231986990823827
        ],
        "emotionPathHashList": [
          312453201720762420,
          9562322946389574798,
          18422542724361145117,
          17949024460815132449
        ],
        "FMDPBECPELH": "",
        "ADKBLPOKGIK": ""
      }
    ],
    [
      {
        "$type": "PKKMAMONGEO",
        "type": "DIALOG",
        "aliasList": [
          "1005"
        ],
        "actionId": 129,
        "dialogID": 706811213,
        "protectTime": 0.5
      },
      {
        "$type": "HDGKHDNFMIM",
        "type": "DIALOG_SELECT",
        "delayTime": 0.4000000059604645,
        "aliasList": [
          "AvatarNpc"
        ],
        "actionId": 150,
        "dialogIDList": [
          706811214,
          706811215
        ],
        "grpIDList": [
          1621013443,
          1621013443
        ],
        "useGrpId": true,
        "countDownGrpId": 2684690064
      },
      {
        "$type": "FABLGECDBCH",
        "type": "BODY_LANG",
        "delayTime": 1.0880000591278076,
        "aliasList": [
          "AvatarNpc"
        ],
        "actionId": 242,
        "_flag": 131072,
        "bodyLangParam": 1130,
        "forceDoFreeStyle": true,
        "canDoRepeatFreeStyle": false,
        "cantBackToIdleWhenSitLoop": true,
        "eventPatternSuiteKey": "",
        "FOHHKFAIAAJ": ""
      },
      {
        "$type": "LJLMDHDCAMK",
        "type": "LOOK_AT",
        "aliasList": [
          "AvatarNpc"
        ],
        "actionId": 243,
        "_flag": 64,
        "enableHead": true,
        "headTurnTime": 0.5,
        "targetNpcAlias": "14466",
        "openBackProtect": true,
        "backProtectAngle": 10.0,
        "targetNpcLookAtPoint": "",
        "OAFJBHJHLJG": ""
      },
      {
        "$type": "LJLMDHDCAMK",
        "type": "LOOK_AT",
        "aliasList": [
          "1005"
        ],
        "actionId": 244,
        "_flag": 64,
        "enableHead": true,
        "headTurnTime": 0.5,
        "targetNpcAlias": "14466",
        "openBackProtect": true,
        "backProtectAngle": 10.0,
        "targetNpcLookAtPoint": "",
        "OAFJBHJHLJG": ""
      },
      {
        "$type": "LJLMDHDCAMK",
        "type": "LOOK_AT",
        "delayTime": 1.0579999685287476,
        "aliasList": [
          "14466"
        ],
        "actionId": 245,
        "_flag": 64,
        "enableHead": true,
        "headTurnTime": 0.5,
        "targetNpcAlias": "AvatarNpc",
        "openBackProtect": true,
        "backProtectAngle": 10.0,
        "targetNpcLookAtPoint": "",
        "OAFJBHJHLJG": ""
      }
    ],
    [
      {
        "$type": "PKKMAMONGEO",
        "type": "DIALOG",
        "aliasList": [
          "14466"
        ],
        "actionId": 132,
        "dialogID": 706811216,
        "protectTime": 0.5
      },
      {
        "$type": "FABLGECDBCH",
        "type": "BODY_LANG",
        "aliasList": [
          "14466"
        ],
        "actionId": 246,
        "_flag": 131072,
        "bodyLangParam": 4030,
        "forceDoFreeStyle": true,
        "canDoRepeatFreeStyle": false,
        "dontClearPreFreeStyle": true,
        "cantBackToIdleWhenSitLoop": true,
        "eventPatternSuiteKey": "",
        "FOHHKFAIAAJ": ""
      },
      {
        "$type": "LJLMDHDCAMK",
        "type": "LOOK_AT",
        "aliasList": [
          "1005"
        ],
        "actionId": 247,
        "_flag": 64,
        "enableHead": true,
        "headTurnTime": 0.5,
        "targetNpcAlias": "14466",
        "openBackProtect": true,
        "backProtectAngle": 10.0,
        "targetNpcLookAtPoint": "",
        "OAFJBHJHLJG": ""
      },
      {
        "$type": "FABLGECDBCH",
        "type": "BODY_LANG",
        "aliasList": [
          "1005"
        ],
        "actionId": 248,
        "_flag": 131072,
        "isContinue": true,
        "forceDoFreeStyle": true,
        "canDoRepeatFreeStyle": false,
        "cantBackToIdleWhenSitLoop": true,
        "eventPatternSuiteKey": "",
        "FOHHKFAIAAJ": ""
      },
      {
        "$type": "LJLMDHDCAMK",
        "type": "LOOK_AT",
        "aliasList": [
          "AvatarNpc"
        ],
        "actionId": 249,
        "_flag": 64,
        "enableHead": true,
        "headTurnTime": 0.5,
        "targetNpcAlias": "14466",
        "openBackProtect": true,
        "backProtectAngle": 10.0,
        "targetNpcLookAtPoint": "",
        "OAFJBHJHLJG": ""
      },
      {
        "$type": "FABLGECDBCH",
        "type": "BODY_LANG",
        "aliasList": [
          "AvatarNpc"
        ],
        "actionId": 250,
        "_flag": 131072,
        "isContinue": true,
        "forceDoFreeStyle": true,
        "canDoRepeatFreeStyle": false,
        "cantBackToIdleWhenSitLoop": true,
        "eventPatternSuiteKey": "",
        "FOHHKFAIAAJ": ""
      },
      {
        "$type": "FJKIHHKJLMJ",
        "type": "CAMERA_MOVE",
        "delayTime": 0.46000000834465027,
        "duration": 8.274999618530273,
        "actionId": 251,
        "camPosOffset": {
          "x": 923.7550048828125,
          "y": 260.4530029296875,
          "z": 352.0889892578125
        },
        "camForwardTargetOffset": {
          "x": 924.7069702148438,
          "y": 260.4530029296875,
          "z": 352.3949890136719
        },
        "camFov": 21.89699935913086,
        "needZAxisRotate": true,
        "openCameraDither": false,
        "targetNpcAlias": "",
        "closeTreeLeafDither": true,
        "KJOEFBPOIIH": "",
        "IICFKKEBIEC": "",
        "EGEHEJEBLBJ": "",
        "cutFrameTrans": {
          "_elevMinValue": -50.0,
          "_elevMaxValue": 50.0,
          "_poleMinValue": -50.0,
          "_poleMaxValue": 50.0
        }
      },
      {
        "$type": "FJKIHHKJLMJ",
        "type": "CAMERA_MOVE",
        "duration": 1.097000002861023,
        "actionId": 252,
        "camPosOffset": {
          "x": 923.7769775390625,
          "y": 260.4530029296875,
          "z": 352.02099609375
        },
        "camForwardTargetOffset": {
          "x": 924.72900390625,
          "y": 260.4530029296875,
          "z": 352.3269958496094
        },
        "camFov": 21.89699935913086,
        "lerpPattern": 6,
        "cameraBlendType": "EaseInOutCubic",
        "needZAxisRotate": true,
        "openCameraDither": false,
        "targetNpcAlias": "",
        "closeTreeLeafDither": true,
        "KJOEFBPOIIH": "",
        "IICFKKEBIEC": "",
        "EGEHEJEBLBJ": "",
        "cutFrameTrans": {
          "_elevMinValue": -50.0,
          "_elevMaxValue": 50.0,
          "_poleMinValue": -50.0,
          "_poleMaxValue": 50.0
        }
      }
    ],
    [
      {
        "$type": "MoleMole.Config.ConfigBlackScreenAction",
        "type": "BLACK_SCREEN",
        "actionId": 134,
        "_flag": 2048,
        "durationToBlack": 0.5,
        "durationKeepBlack": 3.0,
        "durationFromBlack": 0.5,
        "inteePos": "",
        "textMapID": "",
        "useTextFade": true,
        "_dialogID": 706811217,
        "showClickBtnDelayTime": 0.5,
        "waitClickBtnTipTime": 0.5,
        "_changeAudioState": true
      },
      {
        "$type": "PKKMAMONGEO",
        "type": "DIALOG_CLEAR",
        "actionId": 135
      },
      {
        "$type": "FJKIHHKJLMJ",
        "type": "CAMERA_MOVE",
        "delayTime": 2.007999897003174,
        "duration": 1.0,
        "actionId": 253,
        "camPosOffset": {
          "x": 922.9650268554688,
          "y": 260.80499267578125,
          "z": 353.8680114746094
        },
        "camForwardTargetOffset": {
          "x": 922.7620239257812,
          "y": 260.614013671875,
          "z": 354.8280029296875
        },
        "camFov": 21.062999725341797,
        "lerpPattern": 6,
        "cameraBlendType": "EaseInOutCubic",
        "needZAxisRotate": true,
        "openCameraDither": false,
        "targetNpcAlias": "",
        "closeTreeLeafDither": true,
        "KJOEFBPOIIH": "",
        "IICFKKEBIEC": "",
        "EGEHEJEBLBJ": "",
        "cutFrameTrans": {
          "_elevMinValue": -50.0,
          "_elevMaxValue": 50.0,
          "_poleMinValue": -50.0,
          "_poleMaxValue": 50.0
        }
      },
      {
        "$type": "MoleMole.Config.ConfigTeleportToAction",
        "type": "TELEPORT_TO",
        "delayTime": 2.007999897003174,
        "aliasList": [
          "AvatarNpc"
        ],
        "actionId": 254,
        "_flag": 4,
        "position": {
          "x": 922.239013671875,
          "y": 258.9729919433594,
          "z": 356.0419921875
        },
        "forward": {
          "x": -0.15399999916553497,
          "y": 0.027000000700354576,
          "z": 1.2489999532699585
        },
        "openLongDisTeleport": true,
        "syncForward": true,
        "_posBindMovingTargetKey": "",
        "_forwardBindMovingTargetKey": ""
      },
      {
        "$type": "LJLMDHDCAMK",
        "type": "LOOK_AT",
        "delayTime": 1.9839999675750732,
        "aliasList": [
          "AvatarNpc"
        ],
        "actionId": 255,
        "_flag": 64,
        "enableHead": true,
        "headTurnTime": 0.5,
        "targetNpcAlias": "1005",
        "openBackProtect": true,
        "backProtectAngle": 10.0,
        "targetNpcLookAtPoint": "",
        "OAFJBHJHLJG": ""
      },
      {
        "$type": "MoleMole.Config.ConfigVisibleInterAction",
        "type": "VISIBLE",
        "delayTime": 1.9839999675750732,
        "aliasList": [
          "14466"
        ],
        "actionId": 256,
        "_extraParam": ""
      },
      {
        "$type": "MoleMole.Config.ConfigTeleportToAction",
        "type": "TELEPORT_TO",
        "delayTime": 1.9359999895095825,
        "aliasList": [
          "1005"
        ],
        "actionId": 257,
        "_flag": 4,
        "position": {
          "x": 922.4840087890625,
          "y": 258.97198486328125,
          "z": 356.9530029296875
        },
        "forward": {
          "x": -0.2809999883174896,
          "z": -0.7839999794960022
        },
        "openLongDisTeleport": true,
        "syncForward": true,
        "_posBindMovingTargetKey": "",
        "_forwardBindMovingTargetKey": ""
      },
      {
        "$type": "LJLMDHDCAMK",
        "type": "LOOK_AT",
        "delayTime": 1.9119999408721924,
        "aliasList": [
          "1005"
        ],
        "actionId": 258,
        "_flag": 64,
        "enableHead": true,
        "headTurnTime": 0.5,
        "targetNpcAlias": "AvatarNpc",
        "openBackProtect": true,
        "backProtectAngle": 10.0,
        "targetNpcLookAtPoint": "",
        "OAFJBHJHLJG": ""
      },
      {
        "$type": "MoleMole.Config.ConfigTeleportToAction",
        "type": "TELEPORT_TO",
        "delayTime": 2.007999897003174,
        "aliasList": [
          "Avatar"
        ],
        "actionId": 269,
        "_flag": 4,
        "position": {
          "x": 922.239013671875,
          "y": 258.9729919433594,
          "z": 356.0419921875
        },
        "forward": {
          "x": -0.15399999916553497,
          "y": 0.027000000700354576,
          "z": 1.2489999532699585
        },
        "openLongDisTeleport": true,
        "syncForward": true,
        "_posBindMovingTargetKey": "",
        "_forwardBindMovingTargetKey": ""
      }
    ],
    [
      {
        "$type": "PKKMAMONGEO",
        "type": "DIALOG",
        "aliasList": [
          "1005"
        ],
        "actionId": 137,
        "dialogID": 706811218,
        "protectTime": 0.5
      },
      {
        "$type": "FABLGECDBCH",
        "type": "BODY_LANG",
        "aliasList": [
          "1005"
        ],
        "actionId": 259,
        "_flag": 131072,
        "bodyLangParam": 1300,
        "forceDoFreeStyle": true,
        "canDoRepeatFreeStyle": false,
        "cantBackToIdleWhenSitLoop": true,
        "eventPatternSuiteKey": "",
        "FOHHKFAIAAJ": ""
      },
      {
        "$type": "LJLMDHDCAMK",
        "type": "LOOK_AT",
        "aliasList": [
          "1005"
        ],
        "actionId": 260,
        "_flag": 64,
        "enableHead": true,
        "headTurnTime": 0.5,
        "targetNpcAlias": "AvatarNpc",
        "openBackProtect": true,
        "backProtectAngle": 10.0,
        "targetNpcLookAtPoint": "",
        "OAFJBHJHLJG": ""
      },
      {
        "$type": "LJLMDHDCAMK",
        "type": "LOOK_AT",
        "aliasList": [
          "14466"
        ],
        "actionId": 261,
        "_flag": 64,
        "enableHead": true,
        "headTurnTime": 0.5,
        "targetNpcAlias": "1005",
        "openBackProtect": true,
        "backProtectAngle": 10.0,
        "targetNpcLookAtPoint": "",
        "OAFJBHJHLJG": ""
      },
      {
        "$type": "LJLMDHDCAMK",
        "type": "LOOK_AT",
        "aliasList": [
          "AvatarNpc"
        ],
        "actionId": 262,
        "_flag": 64,
        "enableHead": true,
        "headTurnTime": 0.5,
        "targetNpcAlias": "1005",
        "openBackProtect": true,
        "backProtectAngle": 10.0,
        "targetNpcLookAtPoint": "",
        "OAFJBHJHLJG": ""
      },
      {
        "$type": "FJKIHHKJLMJ",
        "type": "CAMERA_MOVE",
        "duration": 1.0,
        "actionId": 263,
        "camPosOffset": {
          "x": 922.9650268554688,
          "y": 260.80499267578125,
          "z": 353.8680114746094
        },
        "camForwardTargetOffset": {
          "x": 922.7620239257812,
          "y": 260.614013671875,
          "z": 354.8280029296875
        },
        "camFov": 21.062999725341797,
        "lerpPattern": 6,
        "cameraBlendType": "EaseInOutCubic",
        "needZAxisRotate": true,
        "openCameraDither": false,
        "targetNpcAlias": "",
        "closeTreeLeafDither": true,
        "KJOEFBPOIIH": "",
        "IICFKKEBIEC": "",
        "EGEHEJEBLBJ": "",
        "cutFrameTrans": {
          "_elevMinValue": -50.0,
          "_elevMaxValue": 50.0,
          "_poleMinValue": -50.0,
          "_poleMaxValue": 50.0
        }
      },
      {
        "$type": "FJKIHHKJLMJ",
        "type": "CAMERA_MOVE",
        "delayTime": 0.46299999952316284,
        "duration": 8.274999618530273,
        "actionId": 264,
        "camPosOffset": {
          "x": 923.0430297851562,
          "y": 260.80499267578125,
          "z": 353.8840026855469
        },
        "camForwardTargetOffset": {
          "x": 922.8400268554688,
          "y": 260.614013671875,
          "z": 354.843994140625
        },
        "camFov": 21.062999725341797,
        "needZAxisRotate": true,
        "openCameraDither": false,
        "targetNpcAlias": "",
        "closeTreeLeafDither": true,
        "KJOEFBPOIIH": "",
        "IICFKKEBIEC": "",
        "EGEHEJEBLBJ": "",
        "cutFrameTrans": {
          "_elevMinValue": -50.0,
          "_elevMaxValue": 50.0,
          "_poleMinValue": -50.0,
          "_poleMaxValue": 50.0
        }
      }
    ],
    [
      {
        "$type": "PKKMAMONGEO",
        "type": "DIALOG",
        "aliasList": [
          "1005"
        ],
        "actionId": 139,
        "dialogID": 706811219,
        "protectTime": 0.5
      },
      {
        "$type": "CPJKOIHIPBE",
        "type": "EMO_SYNC",
        "aliasList": [
          "1005"
        ],
        "actionId": 265,
        "_flag": 320,
        "dataPath": "",
        "phonemePath": "Cs_Emo_Pet_Common/Cs_Emo_Paimon_None",
        "emotionPath": "Cs_Emo_Pet_Common/Cs_Emo_Paimon_Normal01_B",
        "mateDataPath": "",
        "matePhonemePath": "",
        "mateEmotionPath": "",
        "phonemePathHashList": [
          1796869206626684908,
          2049648015653630001,
          14015965774222061559,
          873259039409222856
        ],
        "emotionPathHashList": [
          14892026956990897578,
          7647528750435710781,
          2171559387429051042,
          15358483104891988261
        ],
        "FMDPBECPELH": "",
        "ADKBLPOKGIK": ""
      },
      {
        "$type": "FABLGECDBCH",
        "type": "BODY_LANG",
        "aliasList": [
          "1005"
        ],
        "actionId": 266,
        "_flag": 131072,
        "bodyLangParam": 1110,
        "forceDoFreeStyle": true,
        "canDoRepeatFreeStyle": false,
        "cantBackToIdleWhenSitLoop": true,
        "eventPatternSuiteKey": "",
        "FOHHKFAIAAJ": ""
      },
      {
        "$type": "FABLGECDBCH",
        "type": "BODY_LANG",
        "aliasList": [
          "AvatarNpc"
        ],
        "actionId": 267,
        "_flag": 131072,
        "bodyLangParam": 1220,
        "forceDoFreeStyle": true,
        "canDoRepeatFreeStyle": false,
        "cantBackToIdleWhenSitLoop": true,
        "eventPatternSuiteKey": "",
        "FOHHKFAIAAJ": ""
      },
      {
        "$type": "FABLGECDBCH",
        "type": "BODY_LANG",
        "delayTime": 1.1330000162124634,
        "aliasList": [
          "AvatarNpc"
        ],
        "actionId": 268,
        "_flag": 131072,
        "bodyLangParam": 4031,
        "forceDoFreeStyle": true,
        "canDoRepeatFreeStyle": false,
        "dontClearPreFreeStyle": true,
        "cantBackToIdleWhenSitLoop": true,
        "eventPatternSuiteKey": "",
        "FOHHKFAIAAJ": ""
      }
    ],
    [
      {
        "$type": "MoleMole.Config.ConfigSimpleBlackScreenAction",
        "type": "SIMPLE_BLACK_SCREEN",
        "actionId": 140,
        "durationToBlack": 0.5,
        "durationKeepBlack": 1.5,
        "durationFromBlack": 0.5,
        "textMapID": ""
      },
      {
        "$type": "FABLGECDBCH",
        "type": "BODY_LANG",
        "delayTime": 0.6000000238418579,
        "aliasList": [
          "14466"
        ],
        "actionId": 143,
        "_flag": 131072,
        "isContinue": true,
        "forceDoFreeStyle": true,
        "canDoRepeatFreeStyle": false,
        "cantBackToIdleWhenSitLoop": true,
        "eventPatternSuiteKey": "",
        "FOHHKFAIAAJ": ""
      },
      {
        "$type": "FABLGECDBCH",
        "type": "BODY_LANG",
        "delayTime": 0.6000000238418579,
        "aliasList": [
          "1005"
        ],
        "actionId": 145,
        "_flag": 131072,
        "isContinue": true,
        "forceDoFreeStyle": true,
        "canDoRepeatFreeStyle": false,
        "cantBackToIdleWhenSitLoop": true,
        "eventPatternSuiteKey": "",
        "FOHHKFAIAAJ": ""
      },
      {
        "$type": "FJKIHHKJLMJ",
        "type": "CAMERA_MOVE",
        "delayTime": 0.699999988079071,
        "duration": 0.10000000149011612,
        "actionId": 148,
        "cameraPosType": "EXIT",
        "camForwardTargetOffset": {
          "z": 1.0
        },
        "camFov": 30.0,
        "lerpPattern": 5,
        "cameraBlendType": "EaseInOutCubic",
        "openCameraDither": false,
        "targetNpcAlias": "",
        "closeTreeLeafDither": true,
        "KJOEFBPOIIH": "",
        "IICFKKEBIEC": "",
        "EGEHEJEBLBJ": "",
        "cutFrameTrans": {
          "_elevMinValue": -50.0,
          "_elevMaxValue": 50.0,
          "_poleMinValue": -50.0,
          "_poleMaxValue": 50.0
        }
      },
      {
        "$type": "MoleMole.Config.ConfigVisibleInterAction",
        "type": "VISIBLE",
        "delayTime": 0.6000000238418579,
        "aliasList": [
          "AvatarNpc"
        ],
        "actionId": 153,
        "_extraParam": ""
      },
      {
        "$type": "MoleMole.Config.ConfigVisibleInterAction",
        "type": "VISIBLE",
        "delayTime": 0.6000000238418579,
        "aliasList": [
          "Avatar"
        ],
        "actionId": 154,
        "isVisible": true,
        "_extraParam": ""
      },
      {
        "$type": "FABLGECDBCH",
        "type": "BODY_LANG",
        "delayTime": 0.6000000238418579,
        "aliasList": [
          "AvatarNpc"
        ],
        "actionId": 156,
        "_flag": 131072,
        "isContinue": true,
        "forceDoFreeStyle": true,
        "canDoRepeatFreeStyle": false,
        "cantBackToIdleWhenSitLoop": true,
        "eventPatternSuiteKey": "",
        "FOHHKFAIAAJ": ""
      }
    ]
  ],
  "groupId": [
    {
      "grpId": 2684690065,
      "nextGrpId": 2684690066,
      "_noCircleNextGrpId": 2684690066
    },
    {
      "index": 1,
      "grpId": 2684690066,
      "nextGrpId": 2684690067,
      "_noCircleNextGrpId": 2684690067
    },
    {
      "index": 2,
      "grpId": 2684690067,
      "nextGrpId": 2684690068,
      "_noCircleNextGrpId": 2684690068
    },
    {
      "index": 3,
      "grpId": 2684690068,
      "nextGrpId": 2684690069,
      "_noCircleNextGrpId": 2684690069
    },
    {
      "index": 4,
      "grpId": 2684690069,
      "nextGrpId": 2684690070,
      "_noCircleNextGrpId": 2684690070
    },
    {
      "index": 5,
      "grpId": 2684690070,
      "nextGrpId": 2684690071,
      "_noCircleNextGrpId": 2684690071
    },
    {
      "index": 6,
      "grpId": 2684690071,
      "nextGrpId": 2684690072,
      "_noCircleNextGrpId": 2684690072
    },
    {
      "index": 7,
      "grpId": 2684690072,
      "nextGrpId": 2684690073,
      "_noCircleNextGrpId": 2684690073
    },
    {
      "index": 8,
      "grpId": 2684690073,
      "nextGrpId": 1621013439,
      "_noCircleNextGrpId": 1621013439
    },
    {
      "index": 9,
      "grpId": 1621013439,
      "nextGrpId": 1621013440,
      "_noCircleNextGrpId": 1621013440
    },
    {
      "index": 10,
      "grpId": 1621013440,
      "nextGrpId": 1621013441,
      "_noCircleNextGrpId": 1621013441
    },
    {
      "index": 11,
      "grpId": 1621013441,
      "nextGrpId": 1621013442,
      "_noCircleNextGrpId": 1621013442
    },
    {
      "index": 12,
      "grpId": 1621013442,
      "nextGrpId": 1621013443,
      "_noCircleNextGrpId": 1621013443
    },
    {
      "index": 13,
      "grpId": 1621013443,
      "nextGrpId": 1621013444,
      "_noCircleNextGrpId": 1621013444
    },
    {
      "index": 14,
      "grpId": 1621013444,
      "nextGrpId": 1621013445,
      "_noCircleNextGrpId": 1621013445
    },
    {
      "index": 15,
      "grpId": 1621013445,
      "nextGrpId": 1621013446,
      "_noCircleNextGrpId": 1621013446
    },
    {
      "index": 16,
      "grpId": 1621013446,
      "nextGrpId": 1621013447,
      "_noCircleNextGrpId": 1621013447
    },
    {
      "index": 17,
      "grpId": 1621013447,
      "nextGrpId": 1621013448,
      "_noCircleNextGrpId": 1621013448
    }
  ],
  "freeStyleDic": {
    "1025": [
      4030,
      1190,
      1130,
      1220,
      4031
    ],
    "1026": [
      4030,
      1190,
      1130,
      1220,
      4031
    ],
    "14466": [
      4030,
      8060,
      1170,
      1130,
      1230
    ]
  },
  "EKFBDAIDEEF": {
    "AvatarNpc": [
      "SitChat01AS",
      "SitHoldArm01AS",
      "SitShrug01AS",
      "SitThink01AS"
    ],
    "14466": [
      "SitHoldArm01AS",
      "SitPutArm01AS",
      "SitRaiseHand01AS"
    ]
  },
  "NPFDEBDMHJP": 1621013447
}