{
  "id": 10001,
  "damageRatio": "LQ",
  "titleTextMapHash": 1767644623,
  "showType": "QUEST_HIDDEN",
  "subQuests": [
    {
      "subId": 1000101,
      "mainId": 10001,
      "order": 1,
      "descTextMapHash": 3259104004,
      "showType": "QUEST_HIDDEN",
      "finishCond": [
        {
          "damageRatio": "QUEST_CONTENT_QUEST_STATE_EQUAL",
          "param": [
            45406,
            3
          ]
        }
      ],
      "guide": {
        "MLAHIFLGIGJ": ""
      },
      "guideHint": {
        "param1": ""
      },
      "finishParent": true,
      "isRewind": true,
      "finishExec": [
        {
          "damageRatio": "QUEST_EXEC_REFRESH_GROUP_SUITE",
          "param": [
            "3",
            "133004058,2"
          ]
        }
      ],
      "versionBegin": "",
      "versionEnd": ""
    }
  ]
}