{
  "id": 10202,
  "series": 2009,
  "damageRatio": "LQ",
  "titleTextMapHash": 3168828697,
  "descTextMapHash": 1226092263,
  "rewardIdList": [
    110202
  ],
  "chapterId": 2009,
  "subQuests": [
    {
      "subId": 1020201,
      "mainId": 10202,
      "order": 1,
      "descTextMapHash": 816088454,
      "JIFODJPFKDF": [
        1012001
      ],
      "finishCond": [
        {
          "damageRatio": "QUEST_CONTENT_COMPLETE_TALK",
          "param": [
            1020201,
            0
          ]
        }
      ],
      "guide": {
        "damageRatio": "QUEST_GUIDE_NPC",
        "param": [
          "1006"
        ],
        "guideScene": 1004,
        "guideStyle": "QUEST_GUIDE_STYLE_TARGET",
        "guideLayer": "QUEST_GUIDE_LAYER_SCENE",
        "MLAHIFLGIGJ": ""
      },
      "guideHint": {
        "param1": ""
      },
      "isRewind": true,
      "versionBegin": "",
      "versionEnd": ""
    },
    {
      "subId": 1020202,
      "mainId": 10202,
      "order": 2,
      "descTextMapHash": 784183110,
      "showType": "QUEST_HIDDEN",
      "JIFODJPFKDF": [
        1012001
      ],
      "finishCond": [
        {
          "damageRatio": "QUEST_CONTENT_QUEST_STATE_EQUAL",
          "param": [
            1020201,
            3
          ]
        },
        {
          "damageRatio": "QUEST_CONTENT_ENTER_ROOM",
          "param": [
            1004,
            0
          ]
        }
      ],
      "guide": {
        "damageRatio": "QUEST_GUIDE_LOCATION",
        "param": [
          "QuestKnighthood"
        ],
        "guideScene": 3,
        "MLAHIFLGIGJ": ""
      },
      "guideHint": {
        "param1": ""
      },
      "isRewind": true,
      "versionBegin": "",
      "versionEnd": ""
    },
    {
      "subId": 1020203,
      "mainId": 10202,
      "order": 3,
      "descTextMapHash": 3203549958,
      "showType": "QUEST_HIDDEN",
      "JIFODJPFKDF": [
        1012001
      ],
      "finishCond": [
        {
          "damageRatio": "QUEST_CONTENT_COMPLETE_TALK",
          "param": [
            1020201,
            0
          ]
        }
      ],
      "guide": {
        "MLAHIFLGIGJ": ""
      },
      "guideHint": {
        "param1": ""
      },
      "isRewind": true,
      "versionBegin": "",
      "versionEnd": ""
    },
    {
      "subId": 1020204,
      "mainId": 10202,
      "order": 4,
      "descTextMapHash": 1974069270,
      "JIFODJPFKDF": [
        1012001
      ],
      "finishCond": [
        {
          "damageRatio": "QUEST_CONTENT_COMPLETE_TALK",
          "param": [
            1020204,
            0
          ]
        }
      ],
      "guide": {
        "damageRatio": "QUEST_GUIDE_LOCATION",
        "param": [
          "Q10202Door"
        ],
        "guideScene": 1004,
        "guideStyle": "QUEST_GUIDE_STYLE_TARGET",
        "guideLayer": "QUEST_GUIDE_LAYER_UI",
        "MLAHIFLGIGJ": ""
      },
      "guideHint": {
        "param1": ""
      },
      "finishParent": true,
      "isRewind": true,
      "finishExec": [
        {
          "damageRatio": "QUEST_EXEC_SET_QUEST_GLOBAL_VAR",
          "param": [
            "20009",
            "1"
          ]
        }
      ],
      "versionBegin": "",
      "versionEnd": ""
    }
  ]
}