{
  "id": 11006,
  "damageRatio": "LQ",
  "titleTextMapHash": 237090193,
  "descTextMapHash": 1220413271,
  "subQuests": [
    {
      "subId": 1100601,
      "mainId": 11006,
      "order": 1,
      "descTextMapHash": 1112238510,
      "finishCond": [
        {
          "damageRatio": "QUEST_CONTENT_TRIGGER_FIRE",
          "param": [
            1168,
            0
          ]
        }
      ],
      "guide": {
        "damageRatio": "QUEST_GUIDE_LOCATION",
        "param": [
          "Q1100601_Target",
          "40"
        ],
        "guideScene": 3,
        "guideLayer": "QUEST_GUIDE_LAYER_SCENE",
        "MLAHIFLGIGJ": ""
      },
      "guideHint": {
        "param1": ""
      },
      "isRewind": true,
      "finishExec": [
        {
          "damageRatio": "QUEST_EXEC_NOTIFY_GROUP_LUA",
          "param": [
            "3",
            "133103015"
          ]
        }
      ],
      "versionBegin": "",
      "versionEnd": ""
    },
    {
      "subId": 1100602,
      "mainId": 11006,
      "order": 2,
      "descTextMapHash": 3473831270,
      "finishCond": [
        {
          "damageRatio": "QUEST_CONTENT_LUA_NOTIFY",
          "param": [
            0,
            0
          ],
          "count": 1
        }
      ],
      "guide": {
        "damageRatio": "QUEST_GUIDE_LOCATION",
        "param": [
          "Q1100602_Target"
        ],
        "guideScene": 3,
        "guideLayer": "QUEST_GUIDE_LAYER_SCENE",
        "MLAHIFLGIGJ": ""
      },
      "guideHint": {
        "param1": ""
      },
      "finishParent": true,
      "isRewind": true,
      "versionBegin": "",
      "versionEnd": ""
    }
  ]
}