{
  "id": 13005,
  "series": 13000,
  "damageRatio": "LQ",
  "descTextMapHash": 1943984606,
  "rewardIdList": [
    113005
  ],
  "showType": "QUEST_HIDDEN",
  "subQuests": [
    {
      "subId": 1300501,
      "mainId": 13005,
      "order": 1,
      "showType": "QUEST_HIDDEN",
      "finishCond": [
        {
          "damageRatio": "QUEST_CONTENT_QUEST_STATE_EQUAL",
          "param": [
            1300301,
            3
          ]
        }
      ],
      "guide": {
        "MLAHIFLGIGJ": ""
      },
      "guideHint": {
        "param1": ""
      },
      "finishParent": true,
      "isRewind": true,
      "versionBegin": "",
      "versionEnd": ""
    }
  ]
}