{
  "id": 13014,
  "series": 2034,
  "damageRatio": "LQ",
  "titleTextMapHash": 1832599599,
  "descTextMapHash": 2575099054,
  "suggestTrackMainQuestList": [
    13015
  ],
  "rewardIdList": [
    113014
  ],
  "chapterId": 2034,
  "subQuests": [
    {
      "subId": 1301401,
      "mainId": 13014,
      "order": 1,
      "descTextMapHash": 2548163916,
      "JIFODJPFKDF": [
        330218
      ],
      "finishCond": [
        {
          "damageRatio": "QUEST_CONTENT_COMPLETE_TALK",
          "param": [
            1301401,
            0
          ]
        }
      ],
      "guide": {
        "damageRatio": "QUEST_GUIDE_LOCATION",
        "autoGuide": "QUEST_GUIDE_AUTO_ENABLE",
        "param": [
          "Q13014MemberBEventB",
          "40"
        ],
        "guideScene": 3,
        "guideStyle": "QUEST_GUIDE_STYLE_TARGET",
        "guideLayer": "QUEST_GUIDE_LAYER_SCENE",
        "MLAHIFLGIGJ": ""
      },
      "guideHint": {
        "param1": ""
      },
      "isRewind": true,
      "versionBegin": "",
      "versionEnd": ""
    },
    {
      "subId": 1301402,
      "mainId": 13014,
      "order": 3,
      "isMpBlock": true,
      "descTextMapHash": 2665913332,
      "JIFODJPFKDF": [
        330218
      ],
      "finishCond": [
        {
          "damageRatio": "QUEST_CONTENT_LUA_NOTIFY",
          "param": [
            0,
            0
          ],
          "count": 1
        }
      ],
      "failCond": [
        {
          "damageRatio": "QUEST_CONTENT_LEAVE_SCENE_RANGE",
          "param": [
            3,
            40
          ]
        },
        {
          "damageRatio": "QUEST_CONTENT_ANY_MANUAL_TRANSPORT",
          "param": [
            0,
            0
          ]
        },
        {
          "damageRatio": "QUEST_CONTENT_TEAM_DEAD",
          "param": [
            0,
            0
          ]
        }
      ],
      "guide": {
        "damageRatio": "QUEST_GUIDE_LOCATION",
        "autoGuide": "QUEST_GUIDE_AUTO_ENABLE",
        "param": [
          "Q13014MemberBEventB",
          "40"
        ],
        "guideScene": 3,
        "guideStyle": "QUEST_GUIDE_STYLE_TARGET",
        "guideLayer": "QUEST_GUIDE_LAYER_SCENE",
        "MLAHIFLGIGJ": ""
      },
      "guideHint": {
        "param1": ""
      },
      "finishExec": [
        {
          "damageRatio": "QUEST_EXEC_REMOVE_TRIAL_AVATAR",
          "param": [
            "55"
          ]
        }
      ],
      "failExec": [
        {
          "damageRatio": "QUEST_EXEC_ROLLBACK_QUEST",
          "param": [
            "1301401"
          ]
        },
        {
          "damageRatio": "QUEST_EXEC_REMOVE_TRIAL_AVATAR",
          "param": [
            "55"
          ]
        }
      ],
      "versionBegin": "",
      "versionEnd": ""
    },
    {
      "subId": 1301403,
      "mainId": 13014,
      "order": 4,
      "descTextMapHash": 3000142948,
      "JIFODJPFKDF": [
        330218
      ],
      "finishCond": [
        {
          "damageRatio": "QUEST_CONTENT_COMPLETE_TALK",
          "param": [
            1301402,
            0
          ]
        }
      ],
      "guide": {
        "damageRatio": "QUEST_GUIDE_NPC",
        "autoGuide": "QUEST_GUIDE_AUTO_ENABLE",
        "param": [
          "12841"
        ],
        "guideScene": 3,
        "guideStyle": "QUEST_GUIDE_STYLE_TARGET",
        "guideLayer": "QUEST_GUIDE_LAYER_SCENE",
        "MLAHIFLGIGJ": ""
      },
      "guideHint": {
        "param1": ""
      },
      "isRewind": true,
      "finishExec": [
        {
          "damageRatio": "QUEST_EXEC_UNREGISTER_DYNAMIC_GROUP",
          "param": [
            "133302716"
          ]
        }
      ],
      "versionBegin": "",
      "versionEnd": ""
    },
    {
      "subId": 1301404,
      "mainId": 13014,
      "order": 5,
      "descTextMapHash": 3415132156,
      "JIFODJPFKDF": [
        330218,
        330219
      ],
      "finishCond": [
        {
          "damageRatio": "QUEST_CONTENT_COMPLETE_TALK",
          "param": [
            1301403,
            0
          ]
        }
      ],
      "guide": {
        "damageRatio": "QUEST_GUIDE_LOCATION",
        "autoGuide": "QUEST_GUIDE_AUTO_ENABLE",
        "param": [
          "Q13013BasePos",
          "20"
        ],
        "guideScene": 3,
        "guideStyle": "QUEST_GUIDE_STYLE_TARGET",
        "guideLayer": "QUEST_GUIDE_LAYER_SCENE",
        "MLAHIFLGIGJ": ""
      },
      "guideHint": {
        "param1": ""
      },
      "isRewind": true,
      "finishExec": [
        {
          "damageRatio": "QUEST_EXEC_UNREGISTER_DYNAMIC_GROUP",
          "param": [
            "133302564"
          ]
        }
      ],
      "versionBegin": "",
      "versionEnd": ""
    },
    {
      "subId": 1301405,
      "mainId": 13014,
      "order": 8,
      "descTextMapHash": 3645136596,
      "JIFODJPFKDF": [
        330218
      ],
      "finishCond": [
        {
          "damageRatio": "QUEST_CONTENT_ENTER_DUNGEON",
          "param": [
            1166,
            733
          ]
        }
      ],
      "guide": {
        "damageRatio": "QUEST_GUIDE_LOCATION",
        "autoGuide": "QUEST_GUIDE_AUTO_ENABLE",
        "param": [
          "Q13013BasePos",
          "20"
        ],
        "guideScene": 3,
        "guideStyle": "QUEST_GUIDE_STYLE_TARGET",
        "guideLayer": "QUEST_GUIDE_LAYER_SCENE",
        "MLAHIFLGIGJ": ""
      },
      "guideHint": {
        "param1": ""
      },
      "isRewind": true,
      "versionBegin": "",
      "versionEnd": ""
    },
    {
      "subId": 1301406,
      "mainId": 13014,
      "order": 9,
      "isMpBlock": true,
      "descTextMapHash": 1945739636,
      "JIFODJPFKDF": [
        330218
      ],
      "finishCond": [
        {
          "damageRatio": "QUEST_CONTENT_COMPLETE_TALK",
          "param": [
            1301404,
            0
          ]
        }
      ],
      "failCond": [
        {
          "damageRatio": "QUEST_CONTENT_LEAVE_SCENE",
          "param": [
            20165,
            0
          ]
        },
        {
          "damageRatio": "QUEST_CONTENT_ANY_MANUAL_TRANSPORT",
          "param": [
            0,
            0
          ]
        },
        {
          "damageRatio": "QUEST_CONTENT_FAIL_DUNGEON",
          "param": [
            1166,
            0
          ]
        }
      ],
      "guide": {
        "damageRatio": "QUEST_GUIDE_LOCATION",
        "autoGuide": "QUEST_GUIDE_AUTO_ENABLE",
        "param": [
          "Q13014Area1Player"
        ],
        "guideScene": 20165,
        "guideStyle": "QUEST_GUIDE_STYLE_POINT",
        "guideLayer": "QUEST_GUIDE_LAYER_SCENE",
        "MLAHIFLGIGJ": ""
      },
      "guideHint": {
        "param1": ""
      },
      "isRewind": true,
      "failExec": [
        {
          "damageRatio": "QUEST_EXEC_ROLLBACK_QUEST",
          "param": [
            "1301424"
          ]
        }
      ],
      "versionBegin": "",
      "versionEnd": ""
    },
    {
      "subId": 1301407,
      "mainId": 13014,
      "order": 10,
      "isMpBlock": true,
      "descTextMapHash": 2866064708,
      "JIFODJPFKDF": [
        330218
      ],
      "finishCond": [
        {
          "damageRatio": "QUEST_CONTENT_LUA_NOTIFY",
          "param": [
            0,
            0
          ],
          "count": 1
        }
      ],
      "failCond": [
        {
          "damageRatio": "QUEST_CONTENT_LEAVE_SCENE",
          "param": [
            20165,
            0
          ]
        },
        {
          "damageRatio": "QUEST_CONTENT_ANY_MANUAL_TRANSPORT",
          "param": [
            0,
            0
          ]
        },
        {
          "damageRatio": "QUEST_CONTENT_FAIL_DUNGEON",
          "param": [
            1166,
            0
          ]
        }
      ],
      "guide": {
        "damageRatio": "QUEST_GUIDE_LOCATION",
        "guideScene": 20165,
        "guideLayer": "QUEST_GUIDE_LAYER_SCENE",
        "MLAHIFLGIGJ": ""
      },
      "showGuide": "QUEST_GUIDE_ITEM_DISABLE",
      "guideHint": {
        "param1": ""
      },
      "isRewind": true,
      "failExec": [
        {
          "damageRatio": "QUEST_EXEC_ROLLBACK_QUEST",
          "param": [
            "1301424"
          ]
        },
        {
          "damageRatio": "QUEST_EXEC_REMOVE_TRIAL_AVATAR",
          "param": [
            "55"
          ]
        }
      ],
      "versionBegin": "",
      "versionEnd": ""
    },
    {
      "subId": 1301408,
      "mainId": 13014,
      "order": 11,
      "isMpBlock": true,
      "descTextMapHash": 2804510124,
      "JIFODJPFKDF": [
        330218
      ],
      "finishCond": [
        {
          "damageRatio": "QUEST_CONTENT_COMPLETE_TALK",
          "param": [
            1301405,
            0
          ]
        }
      ],
      "failCond": [
        {
          "damageRatio": "QUEST_CONTENT_LEAVE_SCENE",
          "param": [
            20165,
            0
          ]
        },
        {
          "damageRatio": "QUEST_CONTENT_ANY_MANUAL_TRANSPORT",
          "param": [
            0,
            0
          ]
        },
        {
          "damageRatio": "QUEST_CONTENT_FAIL_DUNGEON",
          "param": [
            1166,
            0
          ]
        }
      ],
      "guide": {
        "damageRatio": "QUEST_GUIDE_LOCATION",
        "autoGuide": "QUEST_GUIDE_AUTO_ENABLE",
        "param": [
          "Q13014Area2Nahida"
        ],
        "guideScene": 20165,
        "guideStyle": "QUEST_GUIDE_STYLE_POINT",
        "guideLayer": "QUEST_GUIDE_LAYER_SCENE",
        "MLAHIFLGIGJ": ""
      },
      "guideHint": {
        "param1": ""
      },
      "isRewind": true,
      "finishExec": [
        {
          "damageRatio": "QUEST_EXEC_NOTIFY_GROUP_LUA",
          "param": [
            "20165",
            "220165003"
          ]
        }
      ],
      "failExec": [
        {
          "damageRatio": "QUEST_EXEC_ROLLBACK_QUEST",
          "param": [
            "1301424"
          ]
        },
        {
          "damageRatio": "QUEST_EXEC_REMOVE_TRIAL_AVATAR",
          "param": [
            "55"
          ]
        }
      ],
      "versionBegin": "",
      "versionEnd": ""
    },
    {
      "subId": 1301409,
      "mainId": 13014,
      "order": 12,
      "isMpBlock": true,
      "descTextMapHash": 1880714012,
      "guideTipsTextMapHash": 4143618782,
      "JIFODJPFKDF": [
        330218
      ],
      "finishCond": [
        {
          "damageRatio": "QUEST_CONTENT_FINISH_PLOT",
          "param": [
            1301409,
            0
          ]
        }
      ],
      "failCond": [
        {
          "damageRatio": "QUEST_CONTENT_LEAVE_SCENE",
          "param": [
            20165,
            0
          ]
        },
        {
          "damageRatio": "QUEST_CONTENT_ANY_MANUAL_TRANSPORT",
          "param": [
            0,
            0
          ]
        },
        {
          "damageRatio": "QUEST_CONTENT_FAIL_DUNGEON",
          "param": [
            1166,
            0
          ]
        }
      ],
      "guide": {
        "guideScene": 20165,
        "guideLayer": "QUEST_GUIDE_LAYER_SCENE",
        "MLAHIFLGIGJ": ""
      },
      "showGuide": "QUEST_GUIDE_ITEM_DISABLE",
      "guideHint": {
        "param1": ""
      },
      "isRewind": true,
      "finishExec": [
        {
          "damageRatio": "QUEST_EXEC_REFRESH_GROUP_SUITE",
          "param": [
            "20165",
            "220165011,1"
          ]
        }
      ],
      "failExec": [
        {
          "damageRatio": "QUEST_EXEC_ROLLBACK_QUEST",
          "param": [
            "1301424"
          ]
        },
        {
          "damageRatio": "QUEST_EXEC_REMOVE_TRIAL_AVATAR",
          "param": [
            "55"
          ]
        }
      ],
      "versionBegin": "",
      "versionEnd": ""
    },
    {
      "subId": 1301410,
      "mainId": 13014,
      "order": 17,
      "isMpBlock": true,
      "descTextMapHash": 3892950196,
      "JIFODJPFKDF": [
        330218
      ],
      "finishCond": [
        {
          "damageRatio": "QUEST_CONTENT_LUA_NOTIFY",
          "param": [
            0,
            0
          ],
          "count": 1
        }
      ],
      "failCond": [
        {
          "damageRatio": "QUEST_CONTENT_LEAVE_SCENE",
          "param": [
            20165,
            0
          ]
        },
        {
          "damageRatio": "QUEST_CONTENT_ANY_MANUAL_TRANSPORT",
          "param": [
            0,
            0
          ]
        },
        {
          "damageRatio": "QUEST_CONTENT_FAIL_DUNGEON",
          "param": [
            1166,
            0
          ]
        }
      ],
      "guide": {
        "guideScene": 20165,
        "guideLayer": "QUEST_GUIDE_LAYER_SCENE",
        "MLAHIFLGIGJ": ""
      },
      "showGuide": "QUEST_GUIDE_ITEM_DISABLE",
      "guideHint": {
        "param1": ""
      },
      "isRewind": true,
      "failExec": [
        {
          "damageRatio": "QUEST_EXEC_ROLLBACK_QUEST",
          "param": [
            "1301424"
          ]
        },
        {
          "damageRatio": "QUEST_EXEC_REMOVE_TRIAL_AVATAR",
          "param": [
            "55"
          ]
        }
      ],
      "versionBegin": "",
      "versionEnd": ""
    },
    {
      "subId": 1301411,
      "mainId": 13014,
      "order": 18,
      "isMpBlock": true,
      "descTextMapHash": 1575041284,
      "JIFODJPFKDF": [
        330218
      ],
      "finishCond": [
        {
          "damageRatio": "QUEST_CONTENT_COMPLETE_TALK",
          "param": [
            1301406,
            0
          ]
        }
      ],
      "failCond": [
        {
          "damageRatio": "QUEST_CONTENT_LEAVE_SCENE",
          "param": [
            20165,
            0
          ]
        },
        {
          "damageRatio": "QUEST_CONTENT_ANY_MANUAL_TRANSPORT",
          "param": [
            0,
            0
          ]
        },
        {
          "damageRatio": "QUEST_CONTENT_FAIL_DUNGEON",
          "param": [
            1166,
            0
          ]
        }
      ],
      "guide": {
        "damageRatio": "QUEST_GUIDE_LOCATION",
        "autoGuide": "QUEST_GUIDE_AUTO_ENABLE",
        "param": [
          "Q13014DungeonArea4Start"
        ],
        "guideScene": 20165,
        "guideStyle": "QUEST_GUIDE_STYLE_POINT",
        "guideLayer": "QUEST_GUIDE_LAYER_SCENE",
        "MLAHIFLGIGJ": ""
      },
      "guideHint": {
        "param1": ""
      },
      "isRewind": true,
      "failExec": [
        {
          "damageRatio": "QUEST_EXEC_ROLLBACK_QUEST",
          "param": [
            "1301424"
          ]
        },
        {
          "damageRatio": "QUEST_EXEC_REMOVE_TRIAL_AVATAR",
          "param": [
            "55"
          ]
        }
      ],
      "versionBegin": "",
      "versionEnd": ""
    },
    {
      "subId": 1301412,
      "mainId": 13014,
      "order": 19,
      "isMpBlock": true,
      "descTextMapHash": 3460636396,
      "JIFODJPFKDF": [
        330218
      ],
      "finishCond": [
        {
          "damageRatio": "QUEST_CONTENT_COMPLETE_TALK",
          "param": [
            1301411,
            0
          ]
        }
      ],
      "failCond": [
        {
          "damageRatio": "QUEST_CONTENT_LEAVE_SCENE",
          "param": [
            20165,
            0
          ]
        },
        {
          "damageRatio": "QUEST_CONTENT_ANY_MANUAL_TRANSPORT",
          "param": [
            0,
            0
          ]
        },
        {
          "damageRatio": "QUEST_CONTENT_FAIL_DUNGEON",
          "param": [
            1166,
            0
          ]
        }
      ],
      "guide": {
        "damageRatio": "QUEST_GUIDE_LOCATION",
        "autoGuide": "QUEST_GUIDE_AUTO_ENABLE",
        "param": [
          "Q13014Area4Ilman",
          "30"
        ],
        "guideScene": 20165,
        "guideStyle": "QUEST_GUIDE_STYLE_TARGET",
        "guideLayer": "QUEST_GUIDE_LAYER_SCENE",
        "MLAHIFLGIGJ": ""
      },
      "guideHint": {
        "param1": ""
      },
      "isRewind": true,
      "finishExec": [
        {
          "damageRatio": "QUEST_EXEC_NOTIFY_GROUP_LUA",
          "param": [
            "20165",
            "220165003"
          ]
        },
        {
          "damageRatio": "QUEST_EXEC_NOTIFY_GROUP_LUA",
          "param": [
            "20165",
            "220165010"
          ]
        }
      ],
      "failExec": [
        {
          "damageRatio": "QUEST_EXEC_ROLLBACK_QUEST",
          "param": [
            "1301424"
          ]
        },
        {
          "damageRatio": "QUEST_EXEC_REMOVE_TRIAL_AVATAR",
          "param": [
            "55"
          ]
        }
      ],
      "versionBegin": "",
      "versionEnd": ""
    },
    {
      "subId": 1301413,
      "mainId": 13014,
      "order": 22,
      "isMpBlock": true,
      "descTextMapHash": 2482211748,
      "JIFODJPFKDF": [
        330218
      ],
      "finishCond": [
        {
          "damageRatio": "QUEST_CONTENT_LUA_NOTIFY",
          "param": [
            0,
            0
          ],
          "count": 1
        }
      ],
      "failCond": [
        {
          "damageRatio": "QUEST_CONTENT_LEAVE_SCENE",
          "param": [
            20165,
            0
          ]
        },
        {
          "damageRatio": "QUEST_CONTENT_ANY_MANUAL_TRANSPORT",
          "param": [
            0,
            0
          ]
        },
        {
          "damageRatio": "QUEST_CONTENT_FAIL_DUNGEON",
          "param": [
            1166,
            0
          ]
        }
      ],
      "guide": {
        "guideScene": 20165,
        "guideLayer": "QUEST_GUIDE_LAYER_SCENE",
        "MLAHIFLGIGJ": ""
      },
      "showGuide": "QUEST_GUIDE_ITEM_DISABLE",
      "guideHint": {
        "param1": ""
      },
      "isRewind": true,
      "failExec": [
        {
          "damageRatio": "QUEST_EXEC_ROLLBACK_QUEST",
          "param": [
            "1301424"
          ]
        },
        {
          "damageRatio": "QUEST_EXEC_REMOVE_TRIAL_AVATAR",
          "param": [
            "55"
          ]
        }
      ],
      "versionBegin": "",
      "versionEnd": ""
    },
    {
      "subId": 1301414,
      "mainId": 13014,
      "order": 24,
      "isMpBlock": true,
      "descTextMapHash": 352821596,
      "guideTipsTextMapHash": 1163927262,
      "JIFODJPFKDF": [
        330218
      ],
      "finishCond": [
        {
          "damageRatio": "QUEST_CONTENT_FINISH_PLOT",
          "param": [
            1301414,
            0
          ]
        }
      ],
      "failCond": [
        {
          "damageRatio": "QUEST_CONTENT_LEAVE_SCENE",
          "param": [
            20165,
            0
          ]
        },
        {
          "damageRatio": "QUEST_CONTENT_ANY_MANUAL_TRANSPORT",
          "param": [
            0,
            0
          ]
        },
        {
          "damageRatio": "QUEST_CONTENT_FAIL_DUNGEON",
          "param": [
            1166,
            0
          ]
        }
      ],
      "guide": {
        "guideScene": 20165,
        "guideLayer": "QUEST_GUIDE_LAYER_SCENE",
        "MLAHIFLGIGJ": ""
      },
      "showGuide": "QUEST_GUIDE_ITEM_DISABLE",
      "guideHint": {
        "param1": ""
      },
      "isRewind": true,
      "finishExec": [
        {
          "damageRatio": "QUEST_EXEC_REFRESH_GROUP_SUITE",
          "param": [
            "20165",
            "220165011,1"
          ]
        }
      ],
      "failExec": [
        {
          "damageRatio": "QUEST_EXEC_ROLLBACK_QUEST",
          "param": [
            "1301424"
          ]
        },
        {
          "damageRatio": "QUEST_EXEC_REMOVE_TRIAL_AVATAR",
          "param": [
            "55"
          ]
        }
      ],
      "versionBegin": "",
      "versionEnd": ""
    },
    {
      "subId": 1301415,
      "mainId": 13014,
      "order": 26,
      "isMpBlock": true,
      "descTextMapHash": 2641839788,
      "JIFODJPFKDF": [
        330218
      ],
      "finishCond": [
        {
          "damageRatio": "QUEST_CONTENT_LUA_NOTIFY",
          "param": [
            0,
            0
          ],
          "count": 1
        }
      ],
      "failCond": [
        {
          "damageRatio": "QUEST_CONTENT_LEAVE_SCENE",
          "param": [
            20165,
            0
          ]
        },
        {
          "damageRatio": "QUEST_CONTENT_ANY_MANUAL_TRANSPORT",
          "param": [
            0,
            0
          ]
        },
        {
          "damageRatio": "QUEST_CONTENT_FAIL_DUNGEON",
          "param": [
            1166,
            0
          ]
        }
      ],
      "guide": {
        "damageRatio": "QUEST_GUIDE_LOCATION",
        "autoGuide": "QUEST_GUIDE_AUTO_ENABLE",
        "param": [
          "Q13014Area6Talk5Nahida",
          "30"
        ],
        "guideScene": 20165,
        "guideStyle": "QUEST_GUIDE_STYLE_TARGET",
        "guideLayer": "QUEST_GUIDE_LAYER_SCENE",
        "MLAHIFLGIGJ": ""
      },
      "guideHint": {
        "param1": ""
      },
      "isRewind": true,
      "finishExec": [
        {
          "damageRatio": "QUEST_EXEC_REFRESH_GROUP_SUITE",
          "param": [
            "20165",
            "220165009,1"
          ]
        }
      ],
      "failExec": [
        {
          "damageRatio": "QUEST_EXEC_ROLLBACK_QUEST",
          "param": [
            "1301424"
          ]
        },
        {
          "damageRatio": "QUEST_EXEC_REMOVE_TRIAL_AVATAR",
          "param": [
            "55"
          ]
        }
      ],
      "versionBegin": "",
      "versionEnd": ""
    },
    {
      "subId": 1301416,
      "mainId": 13014,
      "order": 27,
      "isMpBlock": true,
      "descTextMapHash": 4070254636,
      "JIFODJPFKDF": [
        330218
      ],
      "finishCond": [
        {
          "damageRatio": "QUEST_CONTENT_FINISH_PLOT",
          "param": [
            1301416,
            0
          ]
        }
      ],
      "failCond": [
        {
          "damageRatio": "QUEST_CONTENT_LEAVE_SCENE",
          "param": [
            20165,
            0
          ]
        },
        {
          "damageRatio": "QUEST_CONTENT_ANY_MANUAL_TRANSPORT",
          "param": [
            0,
            0
          ]
        },
        {
          "damageRatio": "QUEST_CONTENT_FAIL_DUNGEON",
          "param": [
            1166,
            0
          ]
        }
      ],
      "guide": {
        "damageRatio": "QUEST_GUIDE_LOCATION",
        "autoGuide": "QUEST_GUIDE_AUTO_ENABLE",
        "param": [
          "Q13014Area6Talk5Nahida"
        ],
        "guideScene": 20165,
        "guideStyle": "QUEST_GUIDE_STYLE_POINT",
        "guideLayer": "QUEST_GUIDE_LAYER_SCENE",
        "MLAHIFLGIGJ": ""
      },
      "guideHint": {
        "param1": ""
      },
      "finishExec": [
        {
          "damageRatio": "QUEST_EXEC_NOTIFY_GROUP_LUA",
          "param": [
            "20165",
            "220165003"
          ]
        }
      ],
      "failExec": [
        {
          "damageRatio": "QUEST_EXEC_ROLLBACK_QUEST",
          "param": [
            "1301424"
          ]
        },
        {
          "damageRatio": "QUEST_EXEC_REMOVE_TRIAL_AVATAR",
          "param": [
            "55"
          ]
        }
      ],
      "versionBegin": "",
      "versionEnd": ""
    },
    {
      "subId": 1301417,
      "mainId": 13014,
      "order": 28,
      "isMpBlock": true,
      "descTextMapHash": 696149156,
      "JIFODJPFKDF": [
        330218
      ],
      "finishCond": [
        {
          "damageRatio": "QUEST_CONTENT_LUA_NOTIFY",
          "param": [
            0,
            0
          ],
          "count": 1
        }
      ],
      "failCond": [
        {
          "damageRatio": "QUEST_CONTENT_LEAVE_SCENE",
          "param": [
            20165,
            0
          ]
        },
        {
          "damageRatio": "QUEST_CONTENT_ANY_MANUAL_TRANSPORT",
          "param": [
            0,
            0
          ]
        },
        {
          "damageRatio": "QUEST_CONTENT_FAIL_DUNGEON",
          "param": [
            1166,
            0
          ]
        }
      ],
      "guide": {
        "damageRatio": "QUEST_GUIDE_LOCATION",
        "autoGuide": "QUEST_GUIDE_AUTO_ENABLE",
        "param": [
          "Q13014Area6Talk1Nahida",
          "30"
        ],
        "guideScene": 20165,
        "guideStyle": "QUEST_GUIDE_STYLE_TARGET",
        "guideLayer": "QUEST_GUIDE_LAYER_SCENE",
        "MLAHIFLGIGJ": ""
      },
      "guideHint": {
        "param1": ""
      },
      "isRewind": true,
      "failExec": [
        {
          "damageRatio": "QUEST_EXEC_ROLLBACK_QUEST",
          "param": [
            "1301424"
          ]
        },
        {
          "damageRatio": "QUEST_EXEC_REMOVE_TRIAL_AVATAR",
          "param": [
            "55"
          ]
        }
      ],
      "versionBegin": "",
      "versionEnd": ""
    },
    {
      "subId": 1301418,
      "mainId": 13014,
      "order": 29,
      "isMpBlock": true,
      "descTextMapHash": 4181844740,
      "JIFODJPFKDF": [
        330218
      ],
      "finishCond": [
        {
          "damageRatio": "QUEST_CONTENT_COMPLETE_TALK",
          "param": [
            1301409,
            0
          ]
        }
      ],
      "failCond": [
        {
          "damageRatio": "QUEST_CONTENT_LEAVE_SCENE",
          "param": [
            20165,
            0
          ]
        },
        {
          "damageRatio": "QUEST_CONTENT_ANY_MANUAL_TRANSPORT",
          "param": [
            0,
            0
          ]
        },
        {
          "damageRatio": "QUEST_CONTENT_FAIL_DUNGEON",
          "param": [
            1166,
            0
          ]
        }
      ],
      "guide": {
        "damageRatio": "QUEST_GUIDE_LOCATION",
        "autoGuide": "QUEST_GUIDE_AUTO_ENABLE",
        "param": [
          "Q13014Area6Talk1Nahida"
        ],
        "guideScene": 20165,
        "guideStyle": "QUEST_GUIDE_STYLE_POINT",
        "guideLayer": "QUEST_GUIDE_LAYER_SCENE",
        "MLAHIFLGIGJ": ""
      },
      "guideHint": {
        "param1": ""
      },
      "isRewind": true,
      "finishExec": [
        {
          "damageRatio": "QUEST_EXEC_REFRESH_GROUP_SUITE",
          "param": [
            "20165",
            "220165006,1"
          ]
        },
        {
          "damageRatio": "QUEST_EXEC_REMOVE_TRIAL_AVATAR",
          "param": [
            "55"
          ]
        }
      ],
      "failExec": [
        {
          "damageRatio": "QUEST_EXEC_ROLLBACK_QUEST",
          "param": [
            "1301424"
          ]
        },
        {
          "damageRatio": "QUEST_EXEC_REMOVE_TRIAL_AVATAR",
          "param": [
            "55"
          ]
        }
      ],
      "versionBegin": "",
      "versionEnd": ""
    },
    {
      "subId": 1301419,
      "mainId": 13014,
      "order": 30,
      "descTextMapHash": 3175066164,
      "JIFODJPFKDF": [
        330218
      ],
      "finishCond": [
        {
          "damageRatio": "QUEST_CONTENT_LEAVE_SCENE",
          "param": [
            20165,
            0
          ]
        }
      ],
      "guide": {
        "damageRatio": "QUEST_GUIDE_LOCATION",
        "autoGuide": "QUEST_GUIDE_AUTO_ENABLE",
        "param": [
          "Q13013BaseManager"
        ],
        "guideScene": 3,
        "guideStyle": "QUEST_GUIDE_STYLE_POINT",
        "guideLayer": "QUEST_GUIDE_LAYER_SCENE",
        "MLAHIFLGIGJ": ""
      },
      "guideHint": {
        "param1": ""
      },
      "finishParent": true,
      "isRewind": true,
      "versionBegin": "",
      "versionEnd": ""
    },
    {
      "subId": 1301420,
      "mainId": 13014,
      "order": 16,
      "isMpBlock": true,
      "descTextMapHash": 3247747972,
      "JIFODJPFKDF": [
        330218
      ],
      "finishCond": [
        {
          "damageRatio": "QUEST_CONTENT_COMPLETE_TALK",
          "param": [
            1301412,
            0
          ]
        }
      ],
      "failCond": [
        {
          "damageRatio": "QUEST_CONTENT_LEAVE_SCENE",
          "param": [
            20165,
            0
          ]
        },
        {
          "damageRatio": "QUEST_CONTENT_ANY_MANUAL_TRANSPORT",
          "param": [
            0,
            0
          ]
        },
        {
          "damageRatio": "QUEST_CONTENT_FAIL_DUNGEON",
          "param": [
            1166,
            0
          ]
        }
      ],
      "guide": {
        "guideScene": 20165,
        "guideLayer": "QUEST_GUIDE_LAYER_SCENE",
        "MLAHIFLGIGJ": ""
      },
      "showGuide": "QUEST_GUIDE_ITEM_DISABLE",
      "guideHint": {
        "param1": ""
      },
      "isRewind": true,
      "finishExec": [
        {
          "damageRatio": "QUEST_EXEC_REFRESH_GROUP_SUITE",
          "param": [
            "20165",
            "220165008,1"
          ]
        },
        {
          "damageRatio": "QUEST_EXEC_NOTIFY_GROUP_LUA",
          "param": [
            "20165",
            "220165004"
          ]
        },
        {
          "damageRatio": "QUEST_EXEC_NOTIFY_GROUP_LUA",
          "param": [
            "20165",
            "220165003"
          ]
        }
      ],
      "failExec": [
        {
          "damageRatio": "QUEST_EXEC_ROLLBACK_QUEST",
          "param": [
            "1301424"
          ]
        },
        {
          "damageRatio": "QUEST_EXEC_REMOVE_TRIAL_AVATAR",
          "param": [
            "55"
          ]
        }
      ],
      "versionBegin": "",
      "versionEnd": ""
    },
    {
      "subId": 1301421,
      "mainId": 13014,
      "order": 21,
      "isMpBlock": true,
      "descTextMapHash": 47980572,
      "JIFODJPFKDF": [
        330218
      ],
      "finishCond": [
        {
          "damageRatio": "QUEST_CONTENT_COMPLETE_TALK",
          "param": [
            1301413,
            0
          ]
        }
      ],
      "failCond": [
        {
          "damageRatio": "QUEST_CONTENT_LEAVE_SCENE",
          "param": [
            20165,
            0
          ]
        },
        {
          "damageRatio": "QUEST_CONTENT_ANY_MANUAL_TRANSPORT",
          "param": [
            0,
            0
          ]
        },
        {
          "damageRatio": "QUEST_CONTENT_FAIL_DUNGEON",
          "param": [
            1166,
            0
          ]
        }
      ],
      "guide": {
        "damageRatio": "QUEST_GUIDE_LOCATION",
        "autoGuide": "QUEST_GUIDE_AUTO_ENABLE",
        "param": [
          "Q13014DungeonArea15Start"
        ],
        "guideScene": 20165,
        "guideStyle": "QUEST_GUIDE_STYLE_POINT",
        "guideLayer": "QUEST_GUIDE_LAYER_SCENE",
        "MLAHIFLGIGJ": ""
      },
      "guideHint": {
        "param1": ""
      },
      "isRewind": true,
      "finishExec": [
        {
          "damageRatio": "QUEST_EXEC_NOTIFY_GROUP_LUA",
          "param": [
            "20165",
            "220165003"
          ]
        }
      ],
      "failExec": [
        {
          "damageRatio": "QUEST_EXEC_ROLLBACK_QUEST",
          "param": [
            "1301424"
          ]
        },
        {
          "damageRatio": "QUEST_EXEC_REMOVE_TRIAL_AVATAR",
          "param": [
            "55"
          ]
        }
      ],
      "versionBegin": "",
      "versionEnd": ""
    },
    {
      "subId": 1301422,
      "mainId": 13014,
      "order": 23,
      "isMpBlock": true,
      "descTextMapHash": 356960364,
      "JIFODJPFKDF": [
        330218
      ],
      "finishCond": [
        {
          "damageRatio": "QUEST_CONTENT_COMPLETE_TALK",
          "param": [
            1301414,
            0
          ]
        }
      ],
      "failCond": [
        {
          "damageRatio": "QUEST_CONTENT_LEAVE_SCENE",
          "param": [
            20165,
            0
          ]
        },
        {
          "damageRatio": "QUEST_CONTENT_ANY_MANUAL_TRANSPORT",
          "param": [
            0,
            0
          ]
        },
        {
          "damageRatio": "QUEST_CONTENT_FAIL_DUNGEON",
          "param": [
            1166,
            0
          ]
        }
      ],
      "guide": {
        "damageRatio": "QUEST_GUIDE_LOCATION",
        "autoGuide": "QUEST_GUIDE_AUTO_ENABLE",
        "param": [
          "Q13014DungeonArea6Start"
        ],
        "guideScene": 20165,
        "guideStyle": "QUEST_GUIDE_STYLE_POINT",
        "guideLayer": "QUEST_GUIDE_LAYER_SCENE",
        "MLAHIFLGIGJ": ""
      },
      "guideHint": {
        "param1": ""
      },
      "isRewind": true,
      "failExec": [
        {
          "damageRatio": "QUEST_EXEC_ROLLBACK_QUEST",
          "param": [
            "1301424"
          ]
        },
        {
          "damageRatio": "QUEST_EXEC_REMOVE_TRIAL_AVATAR",
          "param": [
            "55"
          ]
        }
      ],
      "versionBegin": "",
      "versionEnd": ""
    },
    {
      "subId": 1301423,
      "mainId": 13014,
      "order": 6,
      "descTextMapHash": 2332900596,
      "stepDescTextMapHash": 2759884317,
      "JIFODJPFKDF": [
        330218
      ],
      "finishCond": [
        {
          "damageRatio": "QUEST_CONTENT_FINISH_PLOT",
          "param": [
            1301423,
            0
          ]
        }
      ],
      "guide": {
        "damageRatio": "QUEST_GUIDE_LOCATION",
        "autoGuide": "QUEST_GUIDE_AUTO_ENABLE",
        "param": [
          "Q13013BasePos",
          "20"
        ],
        "guideScene": 3,
        "guideStyle": "QUEST_GUIDE_STYLE_TARGET",
        "guideLayer": "QUEST_GUIDE_LAYER_SCENE",
        "MLAHIFLGIGJ": ""
      },
      "guideHint": {
        "param1": ""
      },
      "versionBegin": "",
      "versionEnd": ""
    },
    {
      "subId": 1301424,
      "mainId": 13014,
      "order": 7,
      "descTextMapHash": 4122367724,
      "JIFODJPFKDF": [
        330218
      ],
      "finishCond": [
        {
          "damageRatio": "QUEST_CONTENT_COMPLETE_TALK",
          "param": [
            1301416,
            0
          ]
        }
      ],
      "guide": {
        "damageRatio": "QUEST_GUIDE_LOCATION",
        "autoGuide": "QUEST_GUIDE_AUTO_ENABLE",
        "param": [
          "Q13013BasePos",
          "20"
        ],
        "guideScene": 3,
        "guideStyle": "QUEST_GUIDE_STYLE_TARGET",
        "guideLayer": "QUEST_GUIDE_LAYER_SCENE",
        "MLAHIFLGIGJ": ""
      },
      "guideHint": {
        "param1": ""
      },
      "isRewind": true,
      "versionBegin": "",
      "versionEnd": ""
    },
    {
      "subId": 1301425,
      "mainId": 13014,
      "order": 14,
      "isMpBlock": true,
      "descTextMapHash": 3721569588,
      "JIFODJPFKDF": [
        330218
      ],
      "finishCond": [
        {
          "damageRatio": "QUEST_CONTENT_COMPLETE_TALK",
          "param": [
            1301425,
            0
          ]
        }
      ],
      "failCond": [
        {
          "damageRatio": "QUEST_CONTENT_LEAVE_SCENE",
          "param": [
            20165,
            0
          ]
        },
        {
          "damageRatio": "QUEST_CONTENT_ANY_MANUAL_TRANSPORT",
          "param": [
            0,
            0
          ]
        },
        {
          "damageRatio": "QUEST_CONTENT_FAIL_DUNGEON",
          "param": [
            1166,
            0
          ]
        }
      ],
      "guide": {
        "damageRatio": "QUEST_GUIDE_LOCATION",
        "autoGuide": "QUEST_GUIDE_AUTO_ENABLE",
        "param": [
          "Q13014Area2Deby",
          "25"
        ],
        "guideScene": 20165,
        "guideStyle": "QUEST_GUIDE_STYLE_TARGET",
        "guideLayer": "QUEST_GUIDE_LAYER_SCENE",
        "MLAHIFLGIGJ": ""
      },
      "guideHint": {
        "param1": ""
      },
      "isRewind": true,
      "finishExec": [
        {
          "damageRatio": "QUEST_EXEC_NOTIFY_GROUP_LUA",
          "param": [
            "20165",
            "220165003"
          ]
        },
        {
          "damageRatio": "QUEST_EXEC_NOTIFY_GROUP_LUA",
          "param": [
            "20165",
            "220165010"
          ]
        }
      ],
      "failExec": [
        {
          "damageRatio": "QUEST_EXEC_ROLLBACK_QUEST",
          "param": [
            "1301424"
          ]
        },
        {
          "damageRatio": "QUEST_EXEC_REMOVE_TRIAL_AVATAR",
          "param": [
            "55"
          ]
        }
      ],
      "versionBegin": "",
      "versionEnd": ""
    },
    {
      "subId": 1301426,
      "mainId": 13014,
      "order": 25,
      "isMpBlock": true,
      "descTextMapHash": 3209786444,
      "JIFODJPFKDF": [
        330218
      ],
      "finishCond": [
        {
          "damageRatio": "QUEST_CONTENT_COMPLETE_TALK",
          "param": [
            1301415,
            0
          ]
        }
      ],
      "failCond": [
        {
          "damageRatio": "QUEST_CONTENT_LEAVE_SCENE",
          "param": [
            20165,
            0
          ]
        },
        {
          "damageRatio": "QUEST_CONTENT_ANY_MANUAL_TRANSPORT",
          "param": [
            0,
            0
          ]
        },
        {
          "damageRatio": "QUEST_CONTENT_FAIL_DUNGEON",
          "param": [
            1166,
            0
          ]
        }
      ],
      "guide": {
        "damageRatio": "QUEST_GUIDE_NPC",
        "autoGuide": "QUEST_GUIDE_AUTO_ENABLE",
        "param": [
          "12848"
        ],
        "guideScene": 20165,
        "guideStyle": "QUEST_GUIDE_STYLE_TARGET",
        "guideLayer": "QUEST_GUIDE_LAYER_SCENE",
        "MLAHIFLGIGJ": ""
      },
      "guideHint": {
        "param1": ""
      },
      "isRewind": true,
      "failExec": [
        {
          "damageRatio": "QUEST_EXEC_ROLLBACK_QUEST",
          "param": [
            "1301424"
          ]
        },
        {
          "damageRatio": "QUEST_EXEC_REMOVE_TRIAL_AVATAR",
          "param": [
            "55"
          ]
        }
      ],
      "versionBegin": "",
      "versionEnd": ""
    },
    {
      "subId": 1301427,
      "mainId": 13014,
      "order": 2,
      "descTextMapHash": 1543629436,
      "showType": "QUEST_HIDDEN",
      "finishCond": [
        {
          "damageRatio": "QUEST_CONTENT_FINISH_PLOT",
          "param": [
            1301427,
            0
          ]
        }
      ],
      "guide": {
        "guideScene": 3,
        "guideLayer": "QUEST_GUIDE_LAYER_SCENE",
        "MLAHIFLGIGJ": ""
      },
      "showGuide": "QUEST_GUIDE_ITEM_DISABLE",
      "guideHint": {
        "param1": ""
      },
      "failParentShow": "QUEST_HIDDEN",
      "finishExec": [
        {
          "damageRatio": "QUEST_EXEC_REGISTER_DYNAMIC_GROUP",
          "param": [
            "3",
            "133302564"
          ]
        }
      ],
      "versionBegin": "",
      "versionEnd": ""
    },
    {
      "subId": 1301428,
      "mainId": 13014,
      "order": 15,
      "isMpBlock": true,
      "descTextMapHash": 3851109460,
      "JIFODJPFKDF": [
        330218
      ],
      "finishCond": [
        {
          "damageRatio": "QUEST_CONTENT_LUA_NOTIFY",
          "param": [
            0,
            0
          ],
          "count": 1
        }
      ],
      "failCond": [
        {
          "damageRatio": "QUEST_CONTENT_LEAVE_SCENE",
          "param": [
            20165,
            0
          ]
        },
        {
          "damageRatio": "QUEST_CONTENT_ANY_MANUAL_TRANSPORT",
          "param": [
            0,
            0
          ]
        },
        {
          "damageRatio": "QUEST_CONTENT_FAIL_DUNGEON",
          "param": [
            1166,
            0
          ]
        }
      ],
      "guide": {
        "guideScene": 20165,
        "guideLayer": "QUEST_GUIDE_LAYER_SCENE",
        "MLAHIFLGIGJ": ""
      },
      "showGuide": "QUEST_GUIDE_ITEM_DISABLE",
      "guideHint": {
        "param1": ""
      },
      "isRewind": true,
      "failExec": [
        {
          "damageRatio": "QUEST_EXEC_ROLLBACK_QUEST",
          "param": [
            "1301424"
          ]
        },
        {
          "damageRatio": "QUEST_EXEC_REMOVE_TRIAL_AVATAR",
          "param": [
            "55"
          ]
        }
      ],
      "versionBegin": "",
      "versionEnd": ""
    },
    {
      "subId": 1301429,
      "mainId": 13014,
      "order": 20,
      "isMpBlock": true,
      "descTextMapHash": 3983168956,
      "JIFODJPFKDF": [
        330218
      ],
      "finishCond": [
        {
          "damageRatio": "QUEST_CONTENT_LUA_NOTIFY",
          "param": [
            0,
            0
          ],
          "count": 1
        }
      ],
      "failCond": [
        {
          "damageRatio": "QUEST_CONTENT_LEAVE_SCENE",
          "param": [
            20165,
            0
          ]
        },
        {
          "damageRatio": "QUEST_CONTENT_ANY_MANUAL_TRANSPORT",
          "param": [
            0,
            0
          ]
        },
        {
          "damageRatio": "QUEST_CONTENT_FAIL_DUNGEON",
          "param": [
            1166,
            0
          ]
        }
      ],
      "guide": {
        "guideScene": 20165,
        "MLAHIFLGIGJ": ""
      },
      "showGuide": "QUEST_GUIDE_ITEM_DISABLE",
      "guideHint": {
        "param1": ""
      },
      "isRewind": true,
      "failExec": [
        {
          "damageRatio": "QUEST_EXEC_ROLLBACK_QUEST",
          "param": [
            "1301424"
          ]
        },
        {
          "damageRatio": "QUEST_EXEC_REMOVE_TRIAL_AVATAR",
          "param": [
            "55"
          ]
        }
      ],
      "versionBegin": "",
      "versionEnd": ""
    },
    {
      "subId": 1301430,
      "mainId": 13014,
      "order": 13,
      "descTextMapHash": 758530124,
      "showType": "QUEST_HIDDEN",
      "finishCond": [
        {
          "damageRatio": "QUEST_CONTENT_FINISH_PLOT",
          "param": [
            1301430,
            0
          ]
        }
      ],
      "failCond": [
        {
          "damageRatio": "QUEST_CONTENT_LEAVE_SCENE",
          "param": [
            20165,
            0
          ]
        },
        {
          "damageRatio": "QUEST_CONTENT_QUEST_STATE_EQUAL",
          "param": [
            1301409,
            3
          ]
        }
      ],
      "guide": {
        "guideScene": 20165,
        "MLAHIFLGIGJ": ""
      },
      "showGuide": "QUEST_GUIDE_ITEM_DISABLE",
      "guideHint": {
        "param1": ""
      },
      "failParentShow": "QUEST_HIDDEN",
      "finishExec": [
        {
          "damageRatio": "QUEST_EXEC_REFRESH_GROUP_SUITE",
          "param": [
            "20165",
            "220165011,2"
          ]
        }
      ],
      "versionBegin": "",
      "versionEnd": ""
    }
  ]
}