{
  "id": 13022,
  "series": 13020,
  "damageRatio": "LQ",
  "titleTextMapHash": 4187279391,
  "descTextMapHash": 447860846,
  "rewardIdList": [
    113022
  ],
  "chapterId": 2035,
  "subQuests": [
    {
      "subId": 1302201,
      "mainId": 13022,
      "order": 1,
      "descTextMapHash": 2507284324,
      "finishCond": [
        {
          "damageRatio": "QUEST_CONTENT_FINISH_PLOT",
          "param": [
            1302201,
            0
          ]
        }
      ],
      "guide": {
        "damageRatio": "QUEST_GUIDE_LOCATION",
        "param": [
          "Q1302201_N13003_Q1302202_guide"
        ],
        "guideScene": 3,
        "guideStyle": "QUEST_GUIDE_STYLE_POINT",
        "MLAHIFLGIGJ": ""
      },
      "guideHint": {
        "param1": ""
      },
      "isRewind": true,
      "versionBegin": "",
      "versionEnd": ""
    },
    {
      "subId": 1302202,
      "mainId": 13022,
      "order": 2,
      "descTextMapHash": 3535953964,
      "finishCond": [
        {
          "damageRatio": "QUEST_CONTENT_COMPLETE_TALK",
          "param": [
            1302202,
            0
          ]
        }
      ],
      "guide": {
        "damageRatio": "QUEST_GUIDE_NPC",
        "param": [
          "13003"
        ],
        "guideScene": 3,
        "guideStyle": "QUEST_GUIDE_STYLE_TARGET",
        "guideLayer": "QUEST_GUIDE_LAYER_SCENE",
        "MLAHIFLGIGJ": ""
      },
      "guideHint": {
        "param1": ""
      },
      "versionBegin": "",
      "versionEnd": ""
    },
    {
      "subId": 1302203,
      "mainId": 13022,
      "order": 3,
      "descTextMapHash": 1566971748,
      "finishCond": [
        {
          "damageRatio": "QUEST_CONTENT_ENTER_DUNGEON",
          "param": [
            1174,
            722
          ]
        }
      ],
      "guide": {
        "damageRatio": "QUEST_GUIDE_LOCATION",
        "param": [
          "Q1302201_N13003_Q1302202_guide"
        ],
        "guideScene": 3,
        "guideStyle": "QUEST_GUIDE_STYLE_POINT",
        "MLAHIFLGIGJ": ""
      },
      "guideHint": {
        "param1": ""
      },
      "isRewind": true,
      "finishExec": [
        {
          "damageRatio": "QUEST_EXEC_UNREGISTER_DYNAMIC_GROUP",
          "param": [
            "133303658",
            "1"
          ]
        }
      ],
      "versionBegin": "",
      "versionEnd": ""
    },
    {
      "subId": 1302204,
      "mainId": 13022,
      "order": 10,
      "isMpBlock": true,
      "descTextMapHash": 1569560348,
      "finishCond": [
        {
          "damageRatio": "QUEST_CONTENT_COMPLETE_TALK",
          "param": [
            1302204,
            0
          ]
        }
      ],
      "failCond": [
        {
          "damageRatio": "QUEST_CONTENT_LEAVE_SCENE",
          "param": [
            20173,
            0
          ]
        },
        {
          "damageRatio": "QUEST_CONTENT_FAIL_DUNGEON",
          "param": [
            1174,
            0
          ]
        }
      ],
      "guide": {
        "damageRatio": "QUEST_GUIDE_NPC",
        "param": [
          "1053"
        ],
        "guideScene": 20173,
        "guideStyle": "QUEST_GUIDE_STYLE_TARGET",
        "guideLayer": "QUEST_GUIDE_LAYER_SCENE",
        "MLAHIFLGIGJ": ""
      },
      "guideHint": {
        "param1": ""
      },
      "isRewind": true,
      "finishExec": [
        {
          "damageRatio": "QUEST_EXEC_NOTIFY_GROUP_LUA",
          "param": [
            "20173",
            "220173007"
          ]
        }
      ],
      "failExec": [
        {
          "damageRatio": "QUEST_EXEC_ROLLBACK_QUEST",
          "param": [
            "1302203"
          ]
        },
        {
          "damageRatio": "QUEST_EXEC_REMOVE_TRIAL_AVATAR",
          "param": [
            "58"
          ]
        }
      ],
      "versionBegin": "",
      "versionEnd": ""
    },
    {
      "subId": 1302205,
      "mainId": 13022,
      "order": 19,
      "isMpBlock": true,
      "descTextMapHash": 3687610972,
      "finishCond": [
        {
          "damageRatio": "QUEST_CONTENT_FINISH_PLOT",
          "param": [
            1302205,
            0
          ]
        }
      ],
      "failCond": [
        {
          "damageRatio": "QUEST_CONTENT_LEAVE_SCENE",
          "param": [
            20173,
            0
          ]
        },
        {
          "damageRatio": "QUEST_CONTENT_FAIL_DUNGEON",
          "param": [
            1174,
            0
          ]
        }
      ],
      "guide": {
        "param": [
          "30"
        ],
        "guideScene": 3,
        "MLAHIFLGIGJ": ""
      },
      "showGuide": "QUEST_GUIDE_ITEM_DISABLE",
      "guideHint": {
        "param1": ""
      },
      "isRewind": true,
      "failExec": [
        {
          "damageRatio": "QUEST_EXEC_ROLLBACK_QUEST",
          "param": [
            "1302203"
          ]
        },
        {
          "damageRatio": "QUEST_EXEC_REMOVE_TRIAL_AVATAR",
          "param": [
            "58"
          ]
        }
      ],
      "versionBegin": "",
      "versionEnd": ""
    },
    {
      "subId": 1302206,
      "mainId": 13022,
      "order": 17,
      "isMpBlock": true,
      "descTextMapHash": 877945788,
      "finishCond": [
        {
          "damageRatio": "QUEST_CONTENT_COMPLETE_TALK",
          "param": [
            1302207,
            0
          ]
        }
      ],
      "failCond": [
        {
          "damageRatio": "QUEST_CONTENT_LEAVE_SCENE",
          "param": [
            20173,
            0
          ]
        },
        {
          "damageRatio": "QUEST_CONTENT_FAIL_DUNGEON",
          "param": [
            1174,
            0
          ]
        }
      ],
      "guide": {
        "damageRatio": "QUEST_GUIDE_NPC",
        "param": [
          "1053"
        ],
        "guideScene": 20173,
        "guideStyle": "QUEST_GUIDE_STYLE_TARGET",
        "guideLayer": "QUEST_GUIDE_LAYER_SCENE",
        "MLAHIFLGIGJ": ""
      },
      "guideHint": {
        "param1": ""
      },
      "isRewind": true,
      "finishExec": [
        {
          "damageRatio": "QUEST_EXEC_NOTIFY_GROUP_LUA",
          "param": [
            "20173",
            "220173006"
          ]
        }
      ],
      "failExec": [
        {
          "damageRatio": "QUEST_EXEC_ROLLBACK_QUEST",
          "param": [
            "1302203"
          ]
        },
        {
          "damageRatio": "QUEST_EXEC_REMOVE_TRIAL_AVATAR",
          "param": [
            "58"
          ]
        }
      ],
      "versionBegin": "",
      "versionEnd": ""
    },
    {
      "subId": 1302207,
      "mainId": 13022,
      "order": 15,
      "isMpBlock": true,
      "descTextMapHash": 3168740020,
      "finishCond": [
        {
          "damageRatio": "QUEST_CONTENT_FINISH_PLOT",
          "param": [
            1302207,
            0
          ]
        }
      ],
      "failCond": [
        {
          "damageRatio": "QUEST_CONTENT_LEAVE_SCENE",
          "param": [
            20173,
            0
          ]
        },
        {
          "damageRatio": "QUEST_CONTENT_FAIL_DUNGEON",
          "param": [
            1174,
            0
          ]
        }
      ],
      "guide": {
        "param": [
          "30"
        ],
        "guideScene": 3,
        "MLAHIFLGIGJ": ""
      },
      "showGuide": "QUEST_GUIDE_ITEM_DISABLE",
      "guideHint": {
        "param1": ""
      },
      "isRewind": true,
      "failExec": [
        {
          "damageRatio": "QUEST_EXEC_ROLLBACK_QUEST",
          "param": [
            "1302203"
          ]
        },
        {
          "damageRatio": "QUEST_EXEC_REMOVE_TRIAL_AVATAR",
          "param": [
            "58"
          ]
        }
      ],
      "versionBegin": "",
      "versionEnd": ""
    },
    {
      "subId": 1302208,
      "mainId": 13022,
      "order": 21,
      "isMpBlock": true,
      "descTextMapHash": 573394020,
      "finishCond": [
        {
          "damageRatio": "QUEST_CONTENT_COMPLETE_TALK",
          "param": [
            1302208,
            0
          ]
        }
      ],
      "failCond": [
        {
          "damageRatio": "QUEST_CONTENT_LEAVE_SCENE",
          "param": [
            20173,
            0
          ]
        },
        {
          "damageRatio": "QUEST_CONTENT_FAIL_DUNGEON",
          "param": [
            1174,
            0
          ]
        }
      ],
      "guide": {
        "damageRatio": "QUEST_GUIDE_NPC",
        "param": [
          "1053"
        ],
        "guideScene": 20173,
        "guideStyle": "QUEST_GUIDE_STYLE_TARGET",
        "guideLayer": "QUEST_GUIDE_LAYER_SCENE",
        "MLAHIFLGIGJ": ""
      },
      "guideHint": {
        "param1": ""
      },
      "isRewind": true,
      "failExec": [
        {
          "damageRatio": "QUEST_EXEC_ROLLBACK_QUEST",
          "param": [
            "1302203"
          ]
        },
        {
          "damageRatio": "QUEST_EXEC_REMOVE_TRIAL_AVATAR",
          "param": [
            "58"
          ]
        }
      ],
      "versionBegin": "",
      "versionEnd": ""
    },
    {
      "subId": 1302209,
      "mainId": 13022,
      "order": 31,
      "isMpBlock": true,
      "descTextMapHash": 2808886484,
      "stepDescTextMapHash": 1749427261,
      "finishCond": [
        {
          "damageRatio": "QUEST_CONTENT_LUA_NOTIFY",
          "param": [
            0,
            0
          ],
          "count": 1
        }
      ],
      "failCond": [
        {
          "damageRatio": "QUEST_CONTENT_LEAVE_SCENE",
          "param": [
            20173,
            0
          ]
        },
        {
          "damageRatio": "QUEST_CONTENT_FAIL_DUNGEON",
          "param": [
            1174,
            0
          ]
        }
      ],
      "guide": {
        "param": [
          "30"
        ],
        "guideScene": 3,
        "MLAHIFLGIGJ": ""
      },
      "showGuide": "QUEST_GUIDE_ITEM_DISABLE",
      "guideHint": {
        "param1": ""
      },
      "isRewind": true,
      "failExec": [
        {
          "damageRatio": "QUEST_EXEC_ROLLBACK_QUEST",
          "param": [
            "1302203"
          ]
        },
        {
          "damageRatio": "QUEST_EXEC_REMOVE_TRIAL_AVATAR",
          "param": [
            "58"
          ]
        }
      ],
      "versionBegin": "",
      "versionEnd": ""
    },
    {
      "subId": 1302210,
      "mainId": 13022,
      "order": 33,
      "isMpBlock": true,
      "descTextMapHash": 951638228,
      "finishCond": [
        {
          "damageRatio": "QUEST_CONTENT_COMPLETE_TALK",
          "param": [
            1302210,
            0
          ]
        }
      ],
      "failCond": [
        {
          "damageRatio": "QUEST_CONTENT_LEAVE_SCENE",
          "param": [
            20173,
            0
          ]
        },
        {
          "damageRatio": "QUEST_CONTENT_FAIL_DUNGEON",
          "param": [
            1174,
            0
          ]
        }
      ],
      "guide": {
        "damageRatio": "QUEST_GUIDE_NPC",
        "param": [
          "13004"
        ],
        "guideScene": 20173,
        "guideStyle": "QUEST_GUIDE_STYLE_TARGET",
        "guideLayer": "QUEST_GUIDE_LAYER_SCENE",
        "MLAHIFLGIGJ": ""
      },
      "guideHint": {
        "param1": ""
      },
      "failExec": [
        {
          "damageRatio": "QUEST_EXEC_ROLLBACK_QUEST",
          "param": [
            "1302203"
          ]
        },
        {
          "damageRatio": "QUEST_EXEC_REMOVE_TRIAL_AVATAR",
          "param": [
            "58"
          ]
        }
      ],
      "versionBegin": "",
      "versionEnd": ""
    },
    {
      "subId": 1302211,
      "mainId": 13022,
      "order": 35,
      "isMpBlock": true,
      "descTextMapHash": 3939846716,
      "finishCond": [
        {
          "damageRatio": "QUEST_CONTENT_LUA_NOTIFY",
          "param": [
            0,
            0
          ],
          "count": 1
        }
      ],
      "failCond": [
        {
          "damageRatio": "QUEST_CONTENT_LEAVE_SCENE",
          "param": [
            20173,
            0
          ]
        },
        {
          "damageRatio": "QUEST_CONTENT_FAIL_DUNGEON",
          "param": [
            1174,
            0
          ]
        }
      ],
      "guide": {
        "param": [
          "30"
        ],
        "guideScene": 3,
        "MLAHIFLGIGJ": ""
      },
      "showGuide": "QUEST_GUIDE_ITEM_DISABLE",
      "guideHint": {
        "param1": ""
      },
      "isRewind": true,
      "failExec": [
        {
          "damageRatio": "QUEST_EXEC_ROLLBACK_QUEST",
          "param": [
            "1302203"
          ]
        },
        {
          "damageRatio": "QUEST_EXEC_REMOVE_TRIAL_AVATAR",
          "param": [
            "58"
          ]
        }
      ],
      "versionBegin": "",
      "versionEnd": ""
    },
    {
      "subId": 1302212,
      "mainId": 13022,
      "order": 37,
      "isMpBlock": true,
      "descTextMapHash": 4250780556,
      "finishCond": [
        {
          "damageRatio": "QUEST_CONTENT_COMPLETE_TALK",
          "param": [
            1302212,
            0
          ]
        }
      ],
      "failCond": [
        {
          "damageRatio": "QUEST_CONTENT_LEAVE_SCENE",
          "param": [
            20173,
            0
          ]
        },
        {
          "damageRatio": "QUEST_CONTENT_FAIL_DUNGEON",
          "param": [
            1174,
            0
          ]
        }
      ],
      "guide": {
        "damageRatio": "QUEST_GUIDE_NPC",
        "param": [
          "13004"
        ],
        "guideScene": 20173,
        "guideStyle": "QUEST_GUIDE_STYLE_TARGET",
        "guideLayer": "QUEST_GUIDE_LAYER_SCENE",
        "MLAHIFLGIGJ": ""
      },
      "guideHint": {
        "param1": ""
      },
      "failExec": [
        {
          "damageRatio": "QUEST_EXEC_ROLLBACK_QUEST",
          "param": [
            "1302203"
          ]
        },
        {
          "damageRatio": "QUEST_EXEC_REMOVE_TRIAL_AVATAR",
          "param": [
            "58"
          ]
        }
      ],
      "versionBegin": "",
      "versionEnd": ""
    },
    {
      "subId": 1302213,
      "mainId": 13022,
      "order": 39,
      "isMpBlock": true,
      "descTextMapHash": 3728185892,
      "finishCond": [
        {
          "damageRatio": "QUEST_CONTENT_LUA_NOTIFY",
          "param": [
            0,
            0
          ],
          "count": 1
        }
      ],
      "failCond": [
        {
          "damageRatio": "QUEST_CONTENT_LEAVE_SCENE",
          "param": [
            20173,
            0
          ]
        },
        {
          "damageRatio": "QUEST_CONTENT_FAIL_DUNGEON",
          "param": [
            1174,
            0
          ]
        }
      ],
      "guide": {
        "param": [
          "30"
        ],
        "guideScene": 3,
        "MLAHIFLGIGJ": ""
      },
      "showGuide": "QUEST_GUIDE_ITEM_DISABLE",
      "guideHint": {
        "param1": ""
      },
      "isRewind": true,
      "finishExec": [
        {
          "damageRatio": "QUEST_EXEC_REFRESH_GROUP_SUITE",
          "param": [
            "20173",
            "220173010,2"
          ]
        }
      ],
      "failExec": [
        {
          "damageRatio": "QUEST_EXEC_ROLLBACK_QUEST",
          "param": [
            "1302203"
          ]
        },
        {
          "damageRatio": "QUEST_EXEC_REMOVE_TRIAL_AVATAR",
          "param": [
            "58"
          ]
        }
      ],
      "versionBegin": "",
      "versionEnd": ""
    },
    {
      "subId": 1302214,
      "mainId": 13022,
      "order": 41,
      "isMpBlock": true,
      "descTextMapHash": 2741219964,
      "finishCond": [
        {
          "damageRatio": "QUEST_CONTENT_FINISH_PLOT",
          "param": [
            1302214,
            0
          ]
        }
      ],
      "failCond": [
        {
          "damageRatio": "QUEST_CONTENT_LEAVE_SCENE",
          "param": [
            20173,
            0
          ]
        },
        {
          "damageRatio": "QUEST_CONTENT_FAIL_DUNGEON",
          "param": [
            1174,
            0
          ]
        }
      ],
      "guide": {
        "MLAHIFLGIGJ": ""
      },
      "guideHint": {
        "param1": ""
      },
      "isRewind": true,
      "finishExec": [
        {
          "damageRatio": "QUEST_EXEC_NOTIFY_GROUP_LUA",
          "param": [
            "20173",
            "220173010"
          ]
        }
      ],
      "failExec": [
        {
          "damageRatio": "QUEST_EXEC_ROLLBACK_QUEST",
          "param": [
            "1302203"
          ]
        },
        {
          "damageRatio": "QUEST_EXEC_REMOVE_TRIAL_AVATAR",
          "param": [
            "58"
          ]
        }
      ],
      "versionBegin": "",
      "versionEnd": ""
    },
    {
      "subId": 1302215,
      "mainId": 13022,
      "order": 50,
      "isMpBlock": true,
      "descTextMapHash": 1243263740,
      "stepDescTextMapHash": 4163025837,
      "finishCond": [
        {
          "damageRatio": "QUEST_CONTENT_COMPLETE_TALK",
          "param": [
            1302215,
            0
          ]
        }
      ],
      "failCond": [
        {
          "damageRatio": "QUEST_CONTENT_LEAVE_SCENE",
          "param": [
            20173,
            0
          ]
        },
        {
          "damageRatio": "QUEST_CONTENT_FAIL_DUNGEON",
          "param": [
            1174,
            0
          ]
        }
      ],
      "guide": {
        "damageRatio": "QUEST_GUIDE_NPC",
        "param": [
          "1053"
        ],
        "guideScene": 20173,
        "guideStyle": "QUEST_GUIDE_STYLE_TARGET",
        "guideLayer": "QUEST_GUIDE_LAYER_SCENE",
        "MLAHIFLGIGJ": ""
      },
      "guideHint": {
        "param1": ""
      },
      "isRewind": true,
      "finishExec": [
        {
          "damageRatio": "QUEST_EXEC_REMOVE_TRIAL_AVATAR",
          "param": [
            "58"
          ]
        }
      ],
      "failExec": [
        {
          "damageRatio": "QUEST_EXEC_ROLLBACK_QUEST",
          "param": [
            "1302203"
          ]
        },
        {
          "damageRatio": "QUEST_EXEC_REMOVE_TRIAL_AVATAR",
          "param": [
            "58"
          ]
        }
      ],
      "versionBegin": "",
      "versionEnd": ""
    },
    {
      "subId": 1302216,
      "mainId": 13022,
      "order": 53,
      "isMpBlock": true,
      "descTextMapHash": 1943716732,
      "stepDescTextMapHash": 3658280453,
      "finishCond": [
        {
          "damageRatio": "QUEST_CONTENT_LEAVE_SCENE",
          "param": [
            20173,
            0
          ]
        }
      ],
      "guide": {
        "MLAHIFLGIGJ": ""
      },
      "guideHint": {
        "param1": ""
      },
      "isRewind": true,
      "finishExec": [
        {
          "damageRatio": "QUEST_EXEC_LOCK_POINT",
          "param": [
            "3",
            "722"
          ]
        }
      ],
      "versionBegin": "",
      "versionEnd": ""
    },
    {
      "subId": 1302217,
      "mainId": 13022,
      "order": 60,
      "descTextMapHash": 3546195876,
      "stepDescTextMapHash": 3080657253,
      "JIFODJPFKDF": [
        107901
      ],
      "finishCond": [
        {
          "damageRatio": "QUEST_CONTENT_ENTER_ROOM",
          "param": [
            1079,
            0
          ]
        }
      ],
      "guide": {
        "damageRatio": "QUEST_GUIDE_LOCATION",
        "param": [
          "Q1302217_Q1302218_N1053"
        ],
        "guideScene": 3,
        "guideStyle": "QUEST_GUIDE_STYLE_TARGET",
        "MLAHIFLGIGJ": ""
      },
      "guideHint": {
        "param1": ""
      },
      "isRewind": true,
      "versionBegin": "",
      "versionEnd": ""
    },
    {
      "subId": 1302218,
      "mainId": 13022,
      "order": 62,
      "descTextMapHash": 233999204,
      "stepDescTextMapHash": 4046852669,
      "JIFODJPFKDF": [
        107901
      ],
      "finishCond": [
        {
          "damageRatio": "QUEST_CONTENT_COMPLETE_TALK",
          "param": [
            1302218,
            0
          ]
        }
      ],
      "guide": {
        "damageRatio": "QUEST_GUIDE_NPC",
        "param": [
          "1053"
        ],
        "guideScene": 1079,
        "guideStyle": "QUEST_GUIDE_STYLE_TARGET",
        "guideLayer": "QUEST_GUIDE_LAYER_SCENE",
        "MLAHIFLGIGJ": ""
      },
      "guideHint": {
        "param1": ""
      },
      "finishParent": true,
      "isRewind": true,
      "finishExec": [
        {
          "damageRatio": "QUEST_EXEC_LOCK_POINT",
          "param": [
            "3",
            "741"
          ]
        }
      ],
      "versionBegin": "",
      "versionEnd": ""
    },
    {
      "subId": 1302219,
      "mainId": 13022,
      "order": 30,
      "isMpBlock": true,
      "descTextMapHash": 1918474940,
      "stepDescTextMapHash": 1511293461,
      "finishCond": [
        {
          "damageRatio": "QUEST_CONTENT_COMPLETE_TALK",
          "param": [
            1302220,
            0
          ]
        }
      ],
      "failCond": [
        {
          "damageRatio": "QUEST_CONTENT_LEAVE_SCENE",
          "param": [
            20173,
            0
          ]
        },
        {
          "damageRatio": "QUEST_CONTENT_FAIL_DUNGEON",
          "param": [
            1174,
            0
          ]
        }
      ],
      "guide": {
        "damageRatio": "QUEST_GUIDE_NPC",
        "param": [
          "13003"
        ],
        "guideScene": 20173,
        "guideStyle": "QUEST_GUIDE_STYLE_TARGET",
        "guideLayer": "QUEST_GUIDE_LAYER_SCENE",
        "MLAHIFLGIGJ": ""
      },
      "guideHint": {
        "param1": ""
      },
      "isRewind": true,
      "failExec": [
        {
          "damageRatio": "QUEST_EXEC_ROLLBACK_QUEST",
          "param": [
            "1302203"
          ]
        },
        {
          "damageRatio": "QUEST_EXEC_REMOVE_TRIAL_AVATAR",
          "param": [
            "58"
          ]
        }
      ],
      "versionBegin": "",
      "versionEnd": ""
    },
    {
      "subId": 1302220,
      "mainId": 13022,
      "order": 13,
      "isMpBlock": true,
      "descTextMapHash": 1869865580,
      "stepDescTextMapHash": 1202169653,
      "finishCond": [
        {
          "damageRatio": "QUEST_CONTENT_COMPLETE_TALK",
          "param": [
            1302205,
            0
          ]
        }
      ],
      "failCond": [
        {
          "damageRatio": "QUEST_CONTENT_LEAVE_SCENE",
          "param": [
            20173,
            0
          ]
        },
        {
          "damageRatio": "QUEST_CONTENT_FAIL_DUNGEON",
          "param": [
            1174,
            0
          ]
        }
      ],
      "guide": {
        "damageRatio": "QUEST_GUIDE_NPC",
        "param": [
          "1053"
        ],
        "guideScene": 20173,
        "guideStyle": "QUEST_GUIDE_STYLE_TARGET",
        "guideLayer": "QUEST_GUIDE_LAYER_SCENE",
        "MLAHIFLGIGJ": ""
      },
      "guideHint": {
        "param1": ""
      },
      "isRewind": true,
      "finishExec": [
        {
          "damageRatio": "QUEST_EXEC_NOTIFY_GROUP_LUA",
          "param": [
            "20173",
            "220173007"
          ]
        }
      ],
      "failExec": [
        {
          "damageRatio": "QUEST_EXEC_ROLLBACK_QUEST",
          "param": [
            "1302203"
          ]
        },
        {
          "damageRatio": "QUEST_EXEC_REMOVE_TRIAL_AVATAR",
          "param": [
            "58"
          ]
        }
      ],
      "versionBegin": "",
      "versionEnd": ""
    },
    {
      "subId": 1302221,
      "mainId": 13022,
      "order": 51,
      "isMpBlock": true,
      "descTextMapHash": 2195603388,
      "stepDescTextMapHash": 868831917,
      "finishCond": [
        {
          "damageRatio": "QUEST_CONTENT_COMPLETE_TALK",
          "param": [
            1302214,
            0
          ]
        }
      ],
      "failCond": [
        {
          "damageRatio": "QUEST_CONTENT_LEAVE_SCENE",
          "param": [
            20173,
            0
          ]
        },
        {
          "damageRatio": "QUEST_CONTENT_FAIL_DUNGEON",
          "param": [
            1174,
            0
          ]
        }
      ],
      "guide": {
        "damageRatio": "QUEST_GUIDE_NPC",
        "param": [
          "13049"
        ],
        "guideScene": 20173,
        "guideStyle": "QUEST_GUIDE_STYLE_TARGET",
        "guideLayer": "QUEST_GUIDE_LAYER_SCENE",
        "MLAHIFLGIGJ": ""
      },
      "guideHint": {
        "param1": ""
      },
      "isRewind": true,
      "failExec": [
        {
          "damageRatio": "QUEST_EXEC_ROLLBACK_QUEST",
          "param": [
            "1302203"
          ]
        }
      ],
      "versionBegin": "",
      "versionEnd": ""
    },
    {
      "subId": 1302222,
      "mainId": 13022,
      "order": 55,
      "descTextMapHash": 1629729308,
      "JIFODJPFKDF": [
        107901
      ],
      "finishCond": [
        {
          "damageRatio": "QUEST_CONTENT_COMPLETE_TALK",
          "param": [
            1302216,
            0
          ]
        }
      ],
      "guide": {
        "damageRatio": "QUEST_GUIDE_NPC",
        "param": [
          "1053"
        ],
        "guideScene": 3,
        "guideStyle": "QUEST_GUIDE_STYLE_TARGET",
        "guideLayer": "QUEST_GUIDE_LAYER_SCENE",
        "MLAHIFLGIGJ": ""
      },
      "guideHint": {
        "param1": ""
      },
      "isRewind": true,
      "finishExec": [
        {
          "damageRatio": "QUEST_EXEC_UNLOCK_POINT",
          "param": [
            "3",
            "741"
          ]
        },
        {
          "damageRatio": "QUEST_EXEC_UNREGISTER_DYNAMIC_GROUP",
          "param": [
            "133303658",
            "1"
          ]
        }
      ],
      "versionBegin": "",
      "versionEnd": ""
    },
    {
      "subId": 1302223,
      "mainId": 13022,
      "order": 12,
      "isMpBlock": true,
      "descTextMapHash": 1704780100,
      "stepDescTextMapHash": 516938421,
      "finishCond": [
        {
          "damageRatio": "QUEST_CONTENT_FINISH_PLOT",
          "param": [
            1302223,
            0
          ]
        }
      ],
      "failCond": [
        {
          "damageRatio": "QUEST_CONTENT_LEAVE_SCENE",
          "param": [
            20173,
            0
          ]
        },
        {
          "damageRatio": "QUEST_CONTENT_FAIL_DUNGEON",
          "param": [
            1174,
            0
          ]
        }
      ],
      "guide": {
        "param": [
          "30"
        ],
        "guideScene": 3,
        "MLAHIFLGIGJ": ""
      },
      "showGuide": "QUEST_GUIDE_ITEM_DISABLE",
      "guideHint": {
        "param1": ""
      },
      "isRewind": true,
      "failExec": [
        {
          "damageRatio": "QUEST_EXEC_ROLLBACK_QUEST",
          "param": [
            "1302203"
          ]
        },
        {
          "damageRatio": "QUEST_EXEC_REMOVE_TRIAL_AVATAR",
          "param": [
            "58"
          ]
        }
      ],
      "versionBegin": "",
      "versionEnd": ""
    },
    {
      "subId": 1302224,
      "mainId": 13022,
      "order": 4,
      "isMpBlock": true,
      "descTextMapHash": 2175938868,
      "finishCond": [
        {
          "damageRatio": "QUEST_CONTENT_FINISH_PLOT",
          "param": [
            1302224,
            0
          ]
        }
      ],
      "failCond": [
        {
          "damageRatio": "QUEST_CONTENT_LEAVE_SCENE",
          "param": [
            20173,
            0
          ]
        },
        {
          "damageRatio": "QUEST_CONTENT_FAIL_DUNGEON",
          "param": [
            1174,
            0
          ]
        }
      ],
      "guide": {
        "MLAHIFLGIGJ": ""
      },
      "guideHint": {
        "param1": ""
      },
      "isRewind": true,
      "failExec": [
        {
          "damageRatio": "QUEST_EXEC_ROLLBACK_QUEST",
          "param": [
            "1302203"
          ]
        },
        {
          "damageRatio": "QUEST_EXEC_REMOVE_TRIAL_AVATAR",
          "param": [
            "58"
          ]
        }
      ],
      "versionBegin": "",
      "versionEnd": ""
    },
    {
      "subId": 1302225,
      "mainId": 13022,
      "order": 36,
      "descTextMapHash": 3500213820,
      "showType": "QUEST_HIDDEN",
      "finishCond": [
        {
          "damageRatio": "QUEST_CONTENT_LUA_NOTIFY",
          "param": [
            0,
            0
          ],
          "count": 1
        }
      ],
      "failCond": [
        {
          "damageRatio": "QUEST_CONTENT_LEAVE_SCENE",
          "param": [
            20173,
            0
          ]
        },
        {
          "damageRatio": "QUEST_CONTENT_FAIL_DUNGEON",
          "param": [
            1174,
            0
          ]
        }
      ],
      "guide": {
        "param": [
          "30"
        ],
        "guideScene": 3,
        "MLAHIFLGIGJ": ""
      },
      "showGuide": "QUEST_GUIDE_ITEM_DISABLE",
      "guideHint": {
        "param1": ""
      },
      "versionBegin": "",
      "versionEnd": ""
    },
    {
      "subId": 1302226,
      "mainId": 13022,
      "order": 40,
      "descTextMapHash": 4101703076,
      "showType": "QUEST_HIDDEN",
      "finishCond": [
        {
          "damageRatio": "QUEST_CONTENT_LUA_NOTIFY",
          "param": [
            0,
            0
          ],
          "count": 1
        }
      ],
      "failCond": [
        {
          "damageRatio": "QUEST_CONTENT_LEAVE_SCENE",
          "param": [
            20173,
            0
          ]
        },
        {
          "damageRatio": "QUEST_CONTENT_FAIL_DUNGEON",
          "param": [
            1174,
            0
          ]
        }
      ],
      "guide": {
        "param": [
          "30"
        ],
        "guideScene": 3,
        "MLAHIFLGIGJ": ""
      },
      "showGuide": "QUEST_GUIDE_ITEM_DISABLE",
      "guideHint": {
        "param1": ""
      },
      "versionBegin": "",
      "versionEnd": ""
    },
    {
      "subId": 1302227,
      "mainId": 13022,
      "order": 32,
      "descTextMapHash": 2234177668,
      "showType": "QUEST_HIDDEN",
      "finishCond": [
        {
          "damageRatio": "QUEST_CONTENT_LUA_NOTIFY",
          "param": [
            0,
            0
          ],
          "count": 1
        }
      ],
      "failCond": [
        {
          "damageRatio": "QUEST_CONTENT_LEAVE_SCENE",
          "param": [
            20173,
            0
          ]
        },
        {
          "damageRatio": "QUEST_CONTENT_FAIL_DUNGEON",
          "param": [
            1174,
            0
          ]
        }
      ],
      "guide": {
        "param": [
          "30"
        ],
        "guideScene": 3,
        "MLAHIFLGIGJ": ""
      },
      "showGuide": "QUEST_GUIDE_ITEM_DISABLE",
      "guideHint": {
        "param1": ""
      },
      "versionBegin": "",
      "versionEnd": ""
    },
    {
      "subId": 1302228,
      "mainId": 13022,
      "order": 99,
      "descTextMapHash": 3964627412,
      "showType": "QUEST_HIDDEN",
      "finishCond": [
        {
          "damageRatio": "QUEST_CONTENT_LEAVE_SCENE",
          "param": [
            20173,
            0
          ]
        }
      ],
      "guide": {
        "guideScene": 1079,
        "guideLayer": "QUEST_GUIDE_LAYER_SCENE",
        "MLAHIFLGIGJ": ""
      },
      "showGuide": "QUEST_GUIDE_ITEM_DISABLE",
      "guideHint": {
        "param1": ""
      },
      "finishParent": true,
      "versionBegin": "",
      "versionEnd": ""
    }
  ]
}