{
  "id": 14031,
  "series": 2050,
  "damageRatio": "LQ",
  "titleTextMapHash": 1590497911,
  "descTextMapHash": 394302038,
  "suggestTrackMainQuestList": [
    14032
  ],
  "rewardIdList": [
    114031
  ],
  "chapterId": 2050,
  "NAOFGBNMCCI": true,
  "BONJIMPOJLG": true,
  "subQuests": [
    {
      "subId": 1403101,
      "mainId": 14031,
      "order": 1,
      "descTextMapHash": 1033574484,
      "JIFODJPFKDF": [
        340110,
        340108
      ],
      "finishCond": [
        {
          "damageRatio": "QUEST_CONTENT_FINISH_PLOT",
          "param": [
            1403101,
            0
          ]
        }
      ],
      "guide": {
        "damageRatio": "QUEST_GUIDE_LOCATION",
        "param": [
          "[3_340100750:3602.853,446.167,4468.691,0.000,318.733,0.000]",
          "20"
        ],
        "guideScene": 3,
        "guideStyle": "QUEST_GUIDE_STYLE_POINT",
        "guideLayer": "QUEST_GUIDE_LAYER_SCENE",
        "MLAHIFLGIGJ": ""
      },
      "guideHint": {
        "param1": ""
      },
      "isRewind": true,
      "versionBegin": "",
      "versionEnd": ""
    },
    {
      "subId": 1403102,
      "mainId": 14031,
      "order": 3,
      "descTextMapHash": 326871060,
      "JIFODJPFKDF": [
        340112
      ],
      "finishCond": [
        {
          "damageRatio": "QUEST_CONTENT_COMPLETE_TALK",
          "param": [
            1403102,
            0
          ]
        }
      ],
      "guide": {
        "damageRatio": "QUEST_GUIDE_NPC",
        "param": [
          "1071"
        ],
        "guideScene": 3,
        "guideStyle": "QUEST_GUIDE_STYLE_TARGET",
        "guideLayer": "QUEST_GUIDE_LAYER_SCENE",
        "MLAHIFLGIGJ": ""
      },
      "guideHint": {
        "param1": ""
      },
      "finishParent": true,
      "isRewind": true,
      "versionBegin": "",
      "versionEnd": ""
    },
    {
      "subId": 1403104,
      "mainId": 14031,
      "order": 2,
      "descTextMapHash": 1606151468,
      "JIFODJPFKDF": [
        340110,
        340108
      ],
      "finishCond": [
        {
          "damageRatio": "QUEST_CONTENT_COMPLETE_TALK",
          "param": [
            1403101,
            0
          ]
        }
      ],
      "guide": {
        "damageRatio": "QUEST_GUIDE_NPC",
        "param": [
          "1077"
        ],
        "guideScene": 3,
        "guideStyle": "QUEST_GUIDE_STYLE_TARGET",
        "guideLayer": "QUEST_GUIDE_LAYER_SCENE",
        "MLAHIFLGIGJ": ""
      },
      "guideHint": {
        "param1": ""
      },
      "isRewind": true,
      "versionBegin": "",
      "versionEnd": ""
    }
  ]
}