{
  "id": 15002,
  "series": 2054,
  "damageRatio": "LQ",
  "mainQuestTag": "MAINQUEST_TAG_NATLAN_TRIBAL",
  "titleTextMapHash": 3249421879,
  "descTextMapHash": 818980182,
  "suggestTrackMainQuestList": [
    15003
  ],
  "rewardIdList": [
    115002
  ],
  "chapterId": 2054,
  "NAOFGBNMCCI": true,
  "BONJIMPOJLG": true,
  "subQuests": [
    {
      "subId": 1500201,
      "mainId": 15002,
      "order": 2,
      "descTextMapHash": 1716509380,
      "JIFODJPFKDF": [
        350201
      ],
      "finishCond": [
        {
          "damageRatio": "QUEST_CONTENT_COMPLETE_TALK",
          "param": [
            1500201,
            0
          ]
        }
      ],
      "guide": {
        "damageRatio": "QUEST_GUIDE_NPC",
        "autoGuide": "QUEST_GUIDE_AUTO_ENABLE",
        "param": [
          "14145"
        ],
        "guideScene": 3,
        "guideStyle": "QUEST_GUIDE_STYLE_TARGET",
        "guideLayer": "QUEST_GUIDE_LAYER_SCENE",
        "MLAHIFLGIGJ": ""
      },
      "guideHint": {
        "param1": ""
      },
      "isRewind": true,
      "versionBegin": "",
      "versionEnd": ""
    },
    {
      "subId": 1500202,
      "mainId": 15002,
      "order": 1,
      "descTextMapHash": 3758324644,
      "showType": "QUEST_HIDDEN",
      "banType": "QUEST_SHOW_ON_FOCUS_REQ",
      "JIFODJPFKDF": [
        350218
      ],
      "finishCond": [
        {
          "damageRatio": "QUEST_CONTENT_COMPLETE_TALK",
          "param": [
            1500202,
            0
          ]
        }
      ],
      "guide": {
        "damageRatio": "QUEST_GUIDE_LOCATION",
        "autoGuide": "QUEST_GUIDE_AUTO_ENABLE",
        "param": [
          "[3_9398:-2189.381,243.899,8449.425,0.000,261.032,0.000]"
        ],
        "guideScene": 3,
        "guideStyle": "QUEST_GUIDE_STYLE_POINT",
        "guideLayer": "QUEST_GUIDE_LAYER_SCENE",
        "MLAHIFLGIGJ": ""
      },
      "guideHint": {
        "param1": ""
      },
      "isRewind": true,
      "finishExec": [
        {
          "damageRatio": "QUEST_EXEC_UNREGISTER_DYNAMIC_GROUP",
          "param": [
            "133502316"
          ]
        }
      ],
      "versionBegin": "",
      "versionEnd": ""
    },
    {
      "subId": 1500203,
      "mainId": 15002,
      "order": 3,
      "descTextMapHash": 3092659308,
      "JIFODJPFKDF": [
        350203
      ],
      "finishCond": [
        {
          "damageRatio": "QUEST_CONTENT_COMPLETE_TALK",
          "param": [
            1500203,
            0
          ]
        }
      ],
      "guide": {
        "damageRatio": "QUEST_GUIDE_NPC",
        "param": [
          "6100"
        ],
        "guideScene": 3,
        "guideStyle": "QUEST_GUIDE_STYLE_TARGET",
        "guideLayer": "QUEST_GUIDE_LAYER_SCENE",
        "MLAHIFLGIGJ": ""
      },
      "guideHint": {
        "param1": ""
      },
      "isRewind": true,
      "versionBegin": "",
      "versionEnd": ""
    },
    {
      "subId": 1500204,
      "mainId": 15002,
      "order": 4,
      "descTextMapHash": 204787172,
      "JIFODJPFKDF": [
        350218
      ],
      "finishCond": [
        {
          "damageRatio": "QUEST_CONTENT_COMPLETE_TALK",
          "param": [
            1500204,
            0
          ]
        }
      ],
      "guide": {
        "damageRatio": "QUEST_GUIDE_LOCATION",
        "param": [
          "[3_350200032:-2174.743,243.935,8444.999]"
        ],
        "guideScene": 3,
        "guideStyle": "QUEST_GUIDE_STYLE_POINT",
        "guideLayer": "QUEST_GUIDE_LAYER_SCENE",
        "MLAHIFLGIGJ": ""
      },
      "guideHint": {
        "param1": ""
      },
      "finishParent": true,
      "isRewind": true,
      "versionBegin": "",
      "versionEnd": ""
    }
  ]
}