{
  "id": 19010,
  "series": 105301,
  "damageRatio": "LQ",
  "titleTextMapHash": 2149710223,
  "descTextMapHash": 2398425350,
  "suggestTrackMainQuestList": [
    19013,
    19014,
    19015
  ],
  "chapterId": 105301,
  "subQuests": [
    {
      "subId": 1901001,
      "mainId": 19010,
      "order": 1,
      "descTextMapHash": 3888033444,
      "JIFODJPFKDF": [
        3001
      ],
      "finishCond": [
        {
          "damageRatio": "QUEST_CONTENT_MAIN_COOP_ENTER_SAVE_POINT",
          "param": [
            105301,
            19010011
          ]
        },
        {
          "damageRatio": "QUEST_CONTENT_MAIN_COOP_ENTER_SAVE_POINT",
          "param": [
            105301,
            19010012
          ]
        },
        {
          "damageRatio": "QUEST_CONTENT_MAIN_COOP_ENTER_SAVE_POINT",
          "param": [
            105301,
            19010013
          ]
        }
      ],
      "guide": {
        "damageRatio": "QUEST_GUIDE_LOCATION",
        "param": [
          "Q19010_Player_Pos"
        ],
        "guideScene": 3,
        "guideStyle": "QUEST_GUIDE_STYLE_POINT",
        "guideLayer": "QUEST_GUIDE_LAYER_SCENE",
        "MLAHIFLGIGJ": ""
      },
      "guideHint": {
        "param1": ""
      },
      "finishParent": true,
      "isRewind": true,
      "versionBegin": "",
      "versionEnd": ""
    }
  ]
}