{
  "id": 19014,
  "series": 105301,
  "damageRatio": "LQ",
  "titleTextMapHash": 781154519,
  "descTextMapHash": 2918472790,
  "chapterId": 105301,
  "subQuests": [
    {
      "subId": 1901401,
      "mainId": 19014,
      "order": 1,
      "descTextMapHash": 4015517708,
      "finishCond": [
        {
          "damageRatio": "QUEST_CONTENT_FINISH_PLOT",
          "param": [
            1901401,
            0
          ]
        }
      ],
      "guide": {
        "damageRatio": "QUEST_GUIDE_LOCATION",
        "param": [
          "Q19014_Sleep1_Pos",
          "20"
        ],
        "guideScene": 3,
        "guideStyle": "QUEST_GUIDE_STYLE_POINT",
        "guideLayer": "QUEST_GUIDE_LAYER_SCENE",
        "MLAHIFLGIGJ": ""
      },
      "guideHint": {
        "param1": ""
      },
      "isRewind": true,
      "versionBegin": "",
      "versionEnd": ""
    },
    {
      "subId": 1901402,
      "mainId": 19014,
      "order": 4,
      "descTextMapHash": 2395595180,
      "finishCond": [
        {
          "damageRatio": "QUEST_CONTENT_MAIN_COOP_ENTER_SAVE_POINT",
          "param": [
            105301,
            1901402
          ]
        }
      ],
      "guide": {
        "damageRatio": "QUEST_GUIDE_LOCATION",
        "param": [
          "Q19014_Sayu2_Pos"
        ],
        "guideScene": 3,
        "guideStyle": "QUEST_GUIDE_STYLE_POINT",
        "guideLayer": "QUEST_GUIDE_LAYER_SCENE",
        "MLAHIFLGIGJ": ""
      },
      "guideHint": {
        "param1": ""
      },
      "isRewind": true,
      "versionBegin": "",
      "versionEnd": ""
    },
    {
      "subId": 1901403,
      "mainId": 19014,
      "order": 5,
      "isMpBlock": true,
      "descTextMapHash": 694885292,
      "finishCond": [
        {
          "damageRatio": "QUEST_CONTENT_INTERACT_GADGET",
          "param": [
            70710518,
            0
          ],
          "count": 4
        }
      ],
      "guide": {
        "damageRatio": "QUEST_GUIDE_LOCATION",
        "param": [
          "Q19014_Sayu2_Pos",
          "20"
        ],
        "guideScene": 3,
        "guideStyle": "QUEST_GUIDE_STYLE_TARGET",
        "guideLayer": "QUEST_GUIDE_LAYER_SCENE",
        "MLAHIFLGIGJ": ""
      },
      "guideHint": {
        "param1": ""
      },
      "versionBegin": "",
      "versionEnd": ""
    },
    {
      "subId": 1901404,
      "mainId": 19014,
      "order": 6,
      "isMpBlock": true,
      "descTextMapHash": 2098629820,
      "finishCond": [
        {
          "damageRatio": "QUEST_CONTENT_MAIN_COOP_ENTER_SAVE_POINT",
          "param": [
            105301,
            1901404
          ]
        }
      ],
      "guide": {
        "damageRatio": "QUEST_GUIDE_NPC",
        "param": [
          "504"
        ],
        "guideScene": 3,
        "guideStyle": "QUEST_GUIDE_STYLE_TARGET",
        "guideLayer": "QUEST_GUIDE_LAYER_SCENE",
        "MLAHIFLGIGJ": ""
      },
      "guideHint": {
        "param1": ""
      },
      "isRewind": true,
      "versionBegin": "",
      "versionEnd": ""
    },
    {
      "subId": 1901405,
      "mainId": 19014,
      "order": 7,
      "descTextMapHash": 2420535820,
      "JIFODJPFKDF": [
        19014
      ],
      "finishCond": [
        {
          "damageRatio": "QUEST_CONTENT_MAIN_COOP_ENTER_SAVE_POINT",
          "param": [
            105301,
            1901405
          ]
        }
      ],
      "guide": {
        "damageRatio": "QUEST_GUIDE_LOCATION",
        "param": [
          "Q19014_Final1_Pos"
        ],
        "guideScene": 3,
        "guideStyle": "QUEST_GUIDE_STYLE_POINT",
        "guideLayer": "QUEST_GUIDE_LAYER_SCENE",
        "MLAHIFLGIGJ": ""
      },
      "guideHint": {
        "param1": ""
      },
      "isRewind": true,
      "versionBegin": "",
      "versionEnd": ""
    },
    {
      "subId": 1901406,
      "mainId": 19014,
      "order": 8,
      "isMpBlock": true,
      "descTextMapHash": 761724732,
      "JIFODJPFKDF": [
        19014
      ],
      "AKLAGMDECEM": "BAN_GROUP_TRANSPORT_ONLY",
      "finishCond": [
        {
          "damageRatio": "QUEST_CONTENT_FINISH_PLOT",
          "param": [
            1901406,
            0
          ]
        }
      ],
      "failCond": [
        {
          "damageRatio": "QUEST_CONTENT_NOT_FINISH_PLOT",
          "param": [
            1901406,
            0
          ]
        },
        {
          "damageRatio": "QUEST_CONTENT_ANY_MANUAL_TRANSPORT",
          "param": [
            0,
            0
          ]
        },
        {
          "damageRatio": "QUEST_CONTENT_LEAVE_SCENE_RANGE",
          "param": [
            3,
            45
          ]
        }
      ],
      "guide": {
        "damageRatio": "QUEST_GUIDE_LOCATION",
        "param": [
          "Q19014_Final2_Pos"
        ],
        "guideScene": 3,
        "guideStyle": "QUEST_GUIDE_STYLE_POINT",
        "guideLayer": "QUEST_GUIDE_LAYER_SCENE",
        "MLAHIFLGIGJ": ""
      },
      "guideHint": {
        "param1": ""
      },
      "finishExec": [
        {
          "damageRatio": "QUEST_EXEC_UNLOCK_AVATAR_TEAM"
        }
      ],
      "failExec": [
        {
          "damageRatio": "QUEST_EXEC_ROLLBACK_QUEST",
          "param": [
            "1901405"
          ]
        },
        {
          "damageRatio": "QUEST_EXEC_UNLOCK_AVATAR_TEAM"
        }
      ],
      "versionBegin": "",
      "versionEnd": ""
    },
    {
      "subId": 1901407,
      "mainId": 19014,
      "order": 10,
      "isMpBlock": true,
      "descTextMapHash": 1906930148,
      "JIFODJPFKDF": [
        19014
      ],
      "finishCond": [
        {
          "damageRatio": "QUEST_CONTENT_MAIN_COOP_ENTER_SAVE_POINT",
          "param": [
            105301,
            1901407
          ]
        }
      ],
      "guide": {
        "damageRatio": "QUEST_GUIDE_LOCATION",
        "param": [
          "Q19014_Final2_Pos"
        ],
        "guideScene": 3,
        "guideStyle": "QUEST_GUIDE_STYLE_POINT",
        "guideLayer": "QUEST_GUIDE_LAYER_SCENE",
        "MLAHIFLGIGJ": ""
      },
      "guideHint": {
        "param1": ""
      },
      "finishParent": true,
      "isRewind": true,
      "versionBegin": "",
      "versionEnd": ""
    },
    {
      "subId": 1901408,
      "mainId": 19014,
      "order": 2,
      "isMpBlock": true,
      "descTextMapHash": 4145910260,
      "finishCond": [
        {
          "damageRatio": "QUEST_CONTENT_LUA_NOTIFY",
          "param": [
            0,
            0
          ],
          "count": 1
        }
      ],
      "failCond": [
        {
          "damageRatio": "QUEST_CONTENT_TEAM_DEAD",
          "param": [
            0,
            0
          ]
        },
        {
          "damageRatio": "QUEST_CONTENT_ANY_MANUAL_TRANSPORT",
          "param": [
            0,
            0
          ]
        }
      ],
      "guide": {
        "damageRatio": "QUEST_GUIDE_LOCATION",
        "param": [
          "Q19014_Sleep1_Pos",
          "25"
        ],
        "guideScene": 3,
        "guideStyle": "QUEST_GUIDE_STYLE_TARGET",
        "guideLayer": "QUEST_GUIDE_LAYER_SCENE",
        "MLAHIFLGIGJ": ""
      },
      "guideHint": {
        "param1": ""
      },
      "finishExec": [
        {
          "damageRatio": "QUEST_EXEC_UNREGISTER_DYNAMIC_GROUP",
          "param": [
            "133220651"
          ]
        }
      ],
      "failExec": [
        {
          "damageRatio": "QUEST_EXEC_UNREGISTER_DYNAMIC_GROUP",
          "param": [
            "133220651"
          ]
        },
        {
          "damageRatio": "QUEST_EXEC_ROLLBACK_QUEST",
          "param": [
            "1901401"
          ]
        }
      ],
      "versionBegin": "",
      "versionEnd": ""
    },
    {
      "subId": 1901409,
      "mainId": 19014,
      "order": 3,
      "isMpBlock": true,
      "descTextMapHash": 1543343044,
      "finishCond": [
        {
          "damageRatio": "QUEST_CONTENT_MAIN_COOP_ENTER_SAVE_POINT",
          "param": [
            105301,
            1901409
          ]
        }
      ],
      "guide": {
        "damageRatio": "QUEST_GUIDE_NPC",
        "param": [
          "504"
        ],
        "guideScene": 3,
        "guideStyle": "QUEST_GUIDE_STYLE_TARGET",
        "guideLayer": "QUEST_GUIDE_LAYER_SCENE",
        "MLAHIFLGIGJ": ""
      },
      "guideHint": {
        "param1": ""
      },
      "isRewind": true,
      "versionBegin": "",
      "versionEnd": ""
    },
    {
      "subId": 1901410,
      "mainId": 19014,
      "order": 9,
      "isMpBlock": true,
      "descTextMapHash": 695070444,
      "showType": "QUEST_HIDDEN",
      "JIFODJPFKDF": [
        19014
      ],
      "AKLAGMDECEM": "BAN_GROUP_TRANSPORT_ONLY",
      "finishCond": [
        {
          "damageRatio": "QUEST_CONTENT_FINISH_PLOT",
          "param": [
            1901406,
            0
          ]
        }
      ],
      "failCond": [
        {
          "damageRatio": "QUEST_CONTENT_TEAM_DEAD",
          "param": [
            0,
            0
          ]
        }
      ],
      "guide": {
        "MLAHIFLGIGJ": ""
      },
      "showGuide": "QUEST_GUIDE_ITEM_DISABLE",
      "guideHint": {
        "param1": ""
      },
      "failExec": [
        {
          "damageRatio": "QUEST_EXEC_ROLLBACK_QUEST",
          "param": [
            "1901405"
          ]
        },
        {
          "damageRatio": "QUEST_EXEC_UNLOCK_AVATAR_TEAM"
        }
      ],
      "versionBegin": "",
      "versionEnd": ""
    }
  ]
}