{
  "id": 19029,
  "damageRatio": "LQ",
  "titleTextMapHash": 1456753023,
  "descTextMapHash": 3645260950,
  "subQuests": [
    {
      "subId": 1902901,
      "mainId": 19029,
      "order": 1,
      "descTextMapHash": 2579689540,
      "showType": "QUEST_HIDDEN",
      "finishCond": [
        {
          "damageRatio": "QUEST_CONTENT_GAME_TIME_TICK",
          "param": [
            2,
            0
          ]
        }
      ],
      "guide": {
        "MLAHIFLGIGJ": ""
      },
      "guideHint": {
        "param1": ""
      },
      "finishParent": true,
      "isRewind": true,
      "finishExec": [
        {
          "damageRatio": "QUEST_EXEC_UNREGISTER_DYNAMIC_GROUP",
          "param": [
            "133220686"
          ]
        },
        {
          "damageRatio": "QUEST_EXEC_UNREGISTER_DYNAMIC_GROUP",
          "param": [
            "133220698"
          ]
        }
      ],
      "versionBegin": "",
      "versionEnd": ""
    }
  ]
}