{
  "id": 19142,
  "series": 106501,
  "damageRatio": "LQ",
  "titleTextMapHash": 1827358983,
  "descTextMapHash": 2232979510,
  "suggestTrackMainQuestList": [
    19145,
    19146
  ],
  "chapterId": 106501,
  "subQuests": [
    {
      "subId": 1914201,
      "mainId": 19142,
      "order": 1,
      "descTextMapHash": 978862020,
      "JIFODJPFKDF": [
        19014
      ],
      "finishCond": [
        {
          "damageRatio": "QUEST_CONTENT_MAIN_COOP_ENTER_SAVE_POINT",
          "param": [
            106501,
            191420101
          ]
        },
        {
          "damageRatio": "QUEST_CONTENT_MAIN_COOP_ENTER_SAVE_POINT",
          "param": [
            106501,
            191420102
          ]
        }
      ],
      "guide": {
        "damageRatio": "QUEST_GUIDE_NPC",
        "param": [
          "1034"
        ],
        "guideScene": 3,
        "guideStyle": "QUEST_GUIDE_STYLE_TARGET",
        "guideLayer": "QUEST_GUIDE_LAYER_SCENE",
        "MLAHIFLGIGJ": ""
      },
      "guideHint": {
        "param1": ""
      },
      "finishParent": true,
      "isRewind": true,
      "finishExec": [
        {
          "damageRatio": "QUEST_EXEC_UNREGISTER_DYNAMIC_GROUP",
          "param": [
            "133221078"
          ]
        }
      ],
      "versionBegin": "",
      "versionEnd": ""
    }
  ]
}