{
  "id": 19152,
  "series": 107401,
  "damageRatio": "LQ",
  "titleTextMapHash": 2076172527,
  "descTextMapHash": 1418664558,
  "suggestTrackMainQuestList": [
    19153
  ],
  "chapterId": 107401,
  "BONJIMPOJLG": true,
  "subQuests": [
    {
      "subId": 1915201,
      "mainId": 19152,
      "order": 1,
      "subIdSet": 1,
      "descTextMapHash": 2388228348,
      "JIFODJPFKDF": [
        107304
      ],
      "finishCond": [
        {
          "damageRatio": "QUEST_CONTENT_MAIN_COOP_ENTER_SAVE_POINT",
          "param": [
            107401,
            191520101
          ]
        }
      ],
      "guide": {
        "damageRatio": "QUEST_GUIDE_NPC",
        "param": [
          "4385"
        ],
        "guideScene": 1073,
        "guideStyle": "QUEST_GUIDE_STYLE_TARGET",
        "guideLayer": "QUEST_GUIDE_LAYER_SCENE",
        "MLAHIFLGIGJ": ""
      },
      "guideHint": {
        "param1": ""
      },
      "isRewind": true,
      "versionBegin": "",
      "versionEnd": ""
    },
    {
      "subId": 1915202,
      "mainId": 19152,
      "order": 2,
      "subIdSet": 1,
      "descTextMapHash": 258775860,
      "JIFODJPFKDF": [
        107304
      ],
      "finishCond": [
        {
          "damageRatio": "QUEST_CONTENT_MAIN_COOP_ENTER_SAVE_POINT",
          "param": [
            107401,
            191520201
          ]
        }
      ],
      "guide": {
        "damageRatio": "QUEST_GUIDE_NPC",
        "param": [
          "4380"
        ],
        "guideScene": 1073,
        "guideStyle": "QUEST_GUIDE_STYLE_TARGET",
        "guideLayer": "QUEST_GUIDE_LAYER_SCENE",
        "MLAHIFLGIGJ": ""
      },
      "guideHint": {
        "param1": ""
      },
      "isRewind": true,
      "versionBegin": "",
      "versionEnd": ""
    },
    {
      "subId": 1915203,
      "mainId": 19152,
      "order": 3,
      "subIdSet": 1,
      "descTextMapHash": 1629044524,
      "JIFODJPFKDF": [
        107304
      ],
      "finishCond": [
        {
          "damageRatio": "QUEST_CONTENT_MAIN_COOP_ENTER_SAVE_POINT",
          "param": [
            107401,
            191520301
          ]
        }
      ],
      "guide": {
        "damageRatio": "QUEST_GUIDE_NPC",
        "param": [
          "12908"
        ],
        "guideScene": 1073,
        "guideStyle": "QUEST_GUIDE_STYLE_TARGET",
        "guideLayer": "QUEST_GUIDE_LAYER_SCENE",
        "MLAHIFLGIGJ": ""
      },
      "guideHint": {
        "param1": ""
      },
      "isRewind": true,
      "versionBegin": "",
      "versionEnd": ""
    },
    {
      "subId": 1915204,
      "mainId": 19152,
      "order": 4,
      "showType": "QUEST_HIDDEN",
      "JIFODJPFKDF": [
        107304
      ],
      "finishCond": [
        {
          "damageRatio": "QUEST_CONTENT_QUEST_STATE_EQUAL",
          "param": [
            1915201,
            3
          ]
        },
        {
          "damageRatio": "QUEST_CONTENT_QUEST_STATE_EQUAL",
          "param": [
            1915202,
            3
          ]
        },
        {
          "damageRatio": "QUEST_CONTENT_QUEST_STATE_EQUAL",
          "param": [
            1915203,
            3
          ]
        }
      ],
      "guide": {
        "MLAHIFLGIGJ": ""
      },
      "guideHint": {
        "param1": ""
      },
      "finishParent": true,
      "failParentShow": "QUEST_HIDDEN",
      "isRewind": true,
      "versionBegin": "",
      "versionEnd": ""
    }
  ]
}