{
  "id": 19159,
  "series": 107401,
  "damageRatio": "LQ",
  "titleTextMapHash": 1550633319,
  "descTextMapHash": 4182453406,
  "chapterId": 107401,
  "BONJIMPOJLG": true,
  "subQuests": [
    {
      "subId": 1915901,
      "mainId": 19159,
      "order": 1,
      "descTextMapHash": 1221865420,
      "JIFODJPFKDF": [
        330211,
        107304
      ],
      "finishCond": [
        {
          "damageRatio": "QUEST_CONTENT_FINISH_PLOT",
          "param": [
            1915901,
            0
          ]
        }
      ],
      "guide": {
        "damageRatio": "QUEST_GUIDE_LOCATION",
        "param": [
          "C1915902_N10000005"
        ],
        "guideScene": 1073,
        "guideStyle": "QUEST_GUIDE_STYLE_POINT",
        "guideLayer": "QUEST_GUIDE_LAYER_SCENE",
        "MLAHIFLGIGJ": ""
      },
      "guideHint": {
        "param1": ""
      },
      "isRewind": true,
      "versionBegin": "",
      "versionEnd": ""
    },
    {
      "subId": 1915902,
      "mainId": 19159,
      "order": 2,
      "descTextMapHash": 637877820,
      "JIFODJPFKDF": [
        330211,
        107304
      ],
      "finishCond": [
        {
          "damageRatio": "QUEST_CONTENT_MAIN_COOP_ENTER_SAVE_POINT",
          "param": [
            107401,
            191590201
          ]
        },
        {
          "damageRatio": "QUEST_CONTENT_MAIN_COOP_ENTER_SAVE_POINT",
          "param": [
            107401,
            191600201
          ]
        }
      ],
      "guide": {
        "damageRatio": "QUEST_GUIDE_LOCATION",
        "param": [
          "C1915902_N10000005"
        ],
        "guideScene": 1073,
        "guideStyle": "QUEST_GUIDE_STYLE_POINT",
        "guideLayer": "QUEST_GUIDE_LAYER_SCENE",
        "MLAHIFLGIGJ": ""
      },
      "guideHint": {
        "param1": ""
      },
      "finishParent": true,
      "isRewind": true,
      "versionBegin": "",
      "versionEnd": ""
    }
  ]
}