{
  "id": 19180,
  "series": 108301,
  "damageRatio": "LQ",
  "titleTextMapHash": 3462608855,
  "descTextMapHash": 4066053542,
  "suggestTrackMainQuestList": [
    19182,
    19185
  ],
  "chapterId": 108301,
  "BONJIMPOJLG": true,
  "subQuests": [
    {
      "subId": 1918001,
      "mainId": 19180,
      "order": 2,
      "descTextMapHash": 4007208508,
      "JIFODJPFKDF": [
        340145
      ],
      "finishCond": [
        {
          "damageRatio": "QUEST_CONTENT_MAIN_COOP_ENTER_SAVE_POINT",
          "param": [
            108301,
            191800101
          ]
        },
        {
          "damageRatio": "QUEST_CONTENT_MAIN_COOP_ENTER_SAVE_POINT",
          "param": [
            108301,
            191800102
          ]
        },
        {
          "damageRatio": "QUEST_CONTENT_MAIN_COOP_ENTER_SAVE_POINT",
          "param": [
            108301,
            191800103
          ]
        }
      ],
      "guide": {
        "damageRatio": "QUEST_GUIDE_NPC",
        "param": [
          "518"
        ],
        "guideScene": 3,
        "guideStyle": "QUEST_GUIDE_STYLE_TARGET",
        "guideLayer": "QUEST_GUIDE_LAYER_SCENE",
        "MLAHIFLGIGJ": ""
      },
      "guideHint": {
        "param1": ""
      },
      "finishParent": true,
      "isRewind": true,
      "versionBegin": "",
      "versionEnd": ""
    },
    {
      "subId": 1918002,
      "mainId": 19180,
      "order": 1,
      "descTextMapHash": 726874516,
      "stepDescTextMapHash": 3346588821,
      "JIFODJPFKDF": [
        340145
      ],
      "finishCond": [
        {
          "damageRatio": "QUEST_CONTENT_MAIN_COOP_ENTER_SAVE_POINT",
          "param": [
            108301,
            191800201
          ]
        }
      ],
      "guide": {
        "damageRatio": "QUEST_GUIDE_NPC",
        "param": [
          "518"
        ],
        "guideScene": 3,
        "guideStyle": "QUEST_GUIDE_STYLE_TARGET",
        "guideLayer": "QUEST_GUIDE_LAYER_SCENE",
        "MLAHIFLGIGJ": ""
      },
      "guideHint": {
        "param1": ""
      },
      "isRewind": true,
      "versionBegin": "",
      "versionEnd": ""
    }
  ]
}