{
  "id": 20064,
  "damageRatio": "IQ",
  "titleTextMapHash": 2793240633,
  "descTextMapHash": 699198871,
  "showType": "QUEST_HIDDEN",
  "taskID": 22400,
  "subQuests": [
    {
      "subId": 2006401,
      "mainId": 20064,
      "order": 1,
      "descTextMapHash": 154809736,
      "showType": "QUEST_HIDDEN",
      "finishCond": [
        {
          "damageRatio": "QUEST_CONTENT_LUA_NOTIFY",
          "param": [
            0,
            0
          ],
          "count": 1
        }
      ],
      "guide": {
        "MLAHIFLGIGJ": ""
      },
      "guideHint": {
        "param1": ""
      },
      "isRewind": true,
      "versionBegin": "",
      "versionEnd": ""
    },
    {
      "subId": 2006402,
      "mainId": 20064,
      "order": 2,
      "descTextMapHash": 3619986808,
      "showType": "QUEST_HIDDEN",
      "finishCond": [
        {
          "damageRatio": "QUEST_CONTENT_COMPLETE_TALK",
          "param": [
            2006401,
            0
          ]
        }
      ],
      "guide": {
        "MLAHIFLGIGJ": ""
      },
      "guideHint": {
        "param1": ""
      },
      "finishParent": true,
      "isRewind": true,
      "versionBegin": "",
      "versionEnd": ""
    }
  ]
}