{
  "id": 21013,
  "damageRatio": "WQ",
  "titleTextMapHash": 840118345,
  "descTextMapHash": 3197987287,
  "showType": "QUEST_HIDDEN",
  "subQuests": [
    {
      "subId": 2101301,
      "mainId": 21013,
      "order": 1,
      "descTextMapHash": 640886002,
      "showType": "QUEST_HIDDEN",
      "guide": {
        "MLAHIFLGIGJ": ""
      },
      "guideHint": {
        "param1": ""
      },
      "versionBegin": "",
      "versionEnd": ""
    },
    {
      "subId": 2101311,
      "mainId": 21013,
      "order": 11,
      "descTextMapHash": 2522354658,
      "guide": {
        "MLAHIFLGIGJ": ""
      },
      "guideHint": {
        "param1": ""
      },
      "versionBegin": "",
      "versionEnd": ""
    },
    {
      "subId": 2101399,
      "mainId": 21013,
      "order": 99,
      "descTextMapHash": 1845876618,
      "guide": {
        "MLAHIFLGIGJ": ""
      },
      "guideHint": {
        "param1": ""
      },
      "versionBegin": "",
      "versionEnd": ""
    }
  ]
}