{
  "id": 25001,
  "damageRatio": "WQ",
  "titleTextMapHash": 4176275185,
  "descTextMapHash": 3540591223,
  "rewardIdList": [
    125001
  ],
  "subQuests": [
    {
      "subId": 2500101,
      "mainId": 25001,
      "order": 1,
      "descTextMapHash": 911420831,
      "finishCond": [
        {
          "damageRatio": "QUEST_CONTENT_ENTER_DUNGEON",
          "param": [
            2008,
            48
          ]
        }
      ],
      "guide": {
        "damageRatio": "QUEST_GUIDE_LOCATION",
        "param": [
          "Q25001Target"
        ],
        "guideScene": 3,
        "guideStyle": "QUEST_GUIDE_STYLE_TARGET",
        "guideLayer": "QUEST_GUIDE_LAYER_SCENE",
        "MLAHIFLGIGJ": ""
      },
      "guideHint": {
        "param1": ""
      },
      "isRewind": true,
      "versionBegin": "",
      "versionEnd": ""
    },
    {
      "subId": 2500102,
      "mainId": 25001,
      "order": 2,
      "descTextMapHash": 3560310767,
      "finishCond": [
        {
          "damageRatio": "QUEST_CONTENT_FINISH_DUNGEON",
          "param": [
            2008,
            48
          ]
        }
      ],
      "failCond": [
        {
          "damageRatio": "QUEST_CONTENT_FAIL_DUNGEON",
          "param": [
            2008,
            0
          ]
        }
      ],
      "guide": {
        "MLAHIFLGIGJ": ""
      },
      "guideHint": {
        "param1": ""
      },
      "finishParent": true,
      "failExec": [
        {
          "damageRatio": "QUEST_EXEC_ROLLBACK_QUEST",
          "param": [
            "2500101"
          ]
        }
      ],
      "versionBegin": "",
      "versionEnd": ""
    }
  ]
}