{
  "id": 3008,
  "series": 1302,
  "titleTextMapHash": 2214038207,
  "descTextMapHash": 2591651334,
  "suggestTrackMainQuestList": [
    3009
  ],
  "rewardIdList": [
    103008
  ],
  "chapterId": 1302,
  "subQuests": [
    {
      "subId": 300801,
      "mainId": 3008,
      "order": 3,
      "descTextMapHash": 2502881220,
      "JIFODJPFKDF": [
        300701
      ],
      "finishCond": [
        {
          "damageRatio": "QUEST_CONTENT_COMPLETE_TALK",
          "param": [
            300801,
            0
          ]
        }
      ],
      "guide": {
        "damageRatio": "QUEST_GUIDE_NPC",
        "autoGuide": "QUEST_GUIDE_AUTO_ENABLE",
        "param": [
          "12555"
        ],
        "guideScene": 3,
        "guideStyle": "QUEST_GUIDE_STYLE_TARGET",
        "guideLayer": "QUEST_GUIDE_LAYER_SCENE",
        "MLAHIFLGIGJ": ""
      },
      "guideHint": {
        "param1": ""
      },
      "isRewind": true,
      "finishExec": [
        {
          "damageRatio": "QUEST_EXEC_SET_GAME_TIME",
          "param": [
            "12"
          ]
        }
      ],
      "versionBegin": "",
      "versionEnd": ""
    },
    {
      "subId": 300802,
      "mainId": 3008,
      "order": 5,
      "descTextMapHash": 1776358468,
      "JIFODJPFKDF": [
        300701
      ],
      "finishCond": [
        {
          "damageRatio": "QUEST_CONTENT_COMPLETE_TALK",
          "param": [
            300802,
            0
          ]
        }
      ],
      "guide": {
        "damageRatio": "QUEST_GUIDE_NPC",
        "autoGuide": "QUEST_GUIDE_AUTO_ENABLE",
        "param": [
          "12555"
        ],
        "guideScene": 3,
        "guideStyle": "QUEST_GUIDE_STYLE_TARGET",
        "guideLayer": "QUEST_GUIDE_LAYER_SCENE",
        "MLAHIFLGIGJ": ""
      },
      "guideHint": {
        "param1": ""
      },
      "isRewind": true,
      "versionBegin": "",
      "versionEnd": ""
    },
    {
      "subId": 300803,
      "mainId": 3008,
      "order": 6,
      "descTextMapHash": 3024319460,
      "JIFODJPFKDF": [
        300701
      ],
      "finishCond": [
        {
          "damageRatio": "QUEST_CONTENT_FINISH_PLOT",
          "param": [
            300803,
            0
          ]
        }
      ],
      "guide": {
        "damageRatio": "QUEST_GUIDE_NPC",
        "autoGuide": "QUEST_GUIDE_AUTO_ENABLE",
        "param": [
          "12555"
        ],
        "guideScene": 3,
        "guideStyle": "QUEST_GUIDE_STYLE_TARGET",
        "guideLayer": "QUEST_GUIDE_LAYER_SCENE",
        "MLAHIFLGIGJ": ""
      },
      "guideHint": {
        "param1": ""
      },
      "versionBegin": "",
      "versionEnd": ""
    },
    {
      "subId": 300804,
      "mainId": 3008,
      "order": 7,
      "descTextMapHash": 4116964916,
      "JIFODJPFKDF": [
        300701
      ],
      "finishCond": [
        {
          "damageRatio": "QUEST_CONTENT_COMPLETE_TALK",
          "param": [
            300804,
            0
          ]
        }
      ],
      "guide": {
        "damageRatio": "QUEST_GUIDE_NPC",
        "autoGuide": "QUEST_GUIDE_AUTO_ENABLE",
        "param": [
          "12555"
        ],
        "guideScene": 3,
        "guideStyle": "QUEST_GUIDE_STYLE_TARGET",
        "guideLayer": "QUEST_GUIDE_LAYER_SCENE",
        "MLAHIFLGIGJ": ""
      },
      "guideHint": {
        "param1": ""
      },
      "isRewind": true,
      "finishExec": [
        {
          "damageRatio": "QUEST_EXEC_SET_GAME_TIME",
          "param": [
            "14"
          ]
        },
        {
          "damageRatio": "QUEST_EXEC_REFRESH_GROUP_SUITE",
          "param": [
            "3",
            "133302606,12"
          ]
        }
      ],
      "versionBegin": "",
      "versionEnd": ""
    },
    {
      "subId": 300805,
      "mainId": 3008,
      "order": 9,
      "descTextMapHash": 3258711332,
      "JIFODJPFKDF": [
        300701
      ],
      "finishCond": [
        {
          "damageRatio": "QUEST_CONTENT_COMPLETE_TALK",
          "param": [
            300805,
            0
          ]
        }
      ],
      "guide": {
        "damageRatio": "QUEST_GUIDE_LOCATION",
        "param": [
          "Q3008PubDoor"
        ],
        "guideScene": 3,
        "guideStyle": "QUEST_GUIDE_STYLE_POINT",
        "guideLayer": "QUEST_GUIDE_LAYER_SCENE",
        "MLAHIFLGIGJ": ""
      },
      "guideHint": {
        "param1": ""
      },
      "isRewind": true,
      "finishExec": [
        {
          "damageRatio": "QUEST_EXEC_SET_GAME_TIME",
          "param": [
            "18"
          ]
        }
      ],
      "versionBegin": "",
      "versionEnd": ""
    },
    {
      "subId": 300806,
      "mainId": 3008,
      "order": 13,
      "descTextMapHash": 566177676,
      "JIFODJPFKDF": [
        300701
      ],
      "finishCond": [
        {
          "damageRatio": "QUEST_CONTENT_COMPLETE_TALK",
          "param": [
            300806,
            0
          ]
        }
      ],
      "guide": {
        "damageRatio": "QUEST_GUIDE_NPC",
        "autoGuide": "QUEST_GUIDE_AUTO_ENABLE",
        "param": [
          "12555"
        ],
        "guideScene": 3,
        "guideStyle": "QUEST_GUIDE_STYLE_TARGET",
        "guideLayer": "QUEST_GUIDE_LAYER_SCENE",
        "MLAHIFLGIGJ": ""
      },
      "guideHint": {
        "param1": ""
      },
      "isRewind": true,
      "finishExec": [
        {
          "damageRatio": "QUEST_EXEC_SET_GAME_TIME",
          "param": [
            "20"
          ]
        }
      ],
      "versionBegin": "",
      "versionEnd": ""
    },
    {
      "subId": 300807,
      "mainId": 3008,
      "order": 14,
      "descTextMapHash": 1836471972,
      "JIFODJPFKDF": [
        300701
      ],
      "finishCond": [
        {
          "damageRatio": "QUEST_CONTENT_COMPLETE_TALK",
          "param": [
            300807,
            0
          ]
        }
      ],
      "guide": {
        "damageRatio": "QUEST_GUIDE_NPC",
        "autoGuide": "QUEST_GUIDE_AUTO_ENABLE",
        "param": [
          "1054"
        ],
        "guideScene": 3,
        "guideStyle": "QUEST_GUIDE_STYLE_TARGET",
        "guideLayer": "QUEST_GUIDE_LAYER_SCENE",
        "MLAHIFLGIGJ": ""
      },
      "guideHint": {
        "param1": ""
      },
      "isRewind": true,
      "finishExec": [
        {
          "damageRatio": "QUEST_EXEC_SET_GAME_TIME",
          "param": [
            "22"
          ]
        }
      ],
      "versionBegin": "",
      "versionEnd": ""
    },
    {
      "subId": 300808,
      "mainId": 3008,
      "order": 15,
      "descTextMapHash": 2179574068,
      "JIFODJPFKDF": [
        300701
      ],
      "finishCond": [
        {
          "damageRatio": "QUEST_CONTENT_COMPLETE_TALK",
          "param": [
            300808,
            0
          ]
        }
      ],
      "guide": {
        "damageRatio": "QUEST_GUIDE_LOCATION",
        "param": [
          "Q3007PrelooproomPaimon"
        ],
        "guideScene": 3,
        "guideStyle": "QUEST_GUIDE_STYLE_POINT",
        "guideLayer": "QUEST_GUIDE_LAYER_SCENE",
        "MLAHIFLGIGJ": ""
      },
      "guideHint": {
        "param1": ""
      },
      "isRewind": true,
      "finishExec": [
        {
          "damageRatio": "QUEST_EXEC_SET_GAME_TIME",
          "param": [
            "10"
          ]
        }
      ],
      "versionBegin": "",
      "versionEnd": ""
    },
    {
      "subId": 300810,
      "mainId": 3008,
      "order": 1,
      "descTextMapHash": 4185076692,
      "JIFODJPFKDF": [
        300701
      ],
      "finishCond": [
        {
          "damageRatio": "QUEST_CONTENT_FINISH_PLOT",
          "param": [
            300810,
            0
          ]
        }
      ],
      "guide": {
        "damageRatio": "QUEST_GUIDE_LOCATION",
        "autoGuide": "QUEST_GUIDE_AUTO_ENABLE",
        "param": [
          "Q3007CityCenterPos"
        ],
        "guideScene": 3,
        "guideStyle": "QUEST_GUIDE_STYLE_POINT",
        "guideLayer": "QUEST_GUIDE_LAYER_SCENE",
        "MLAHIFLGIGJ": ""
      },
      "guideHint": {
        "param1": ""
      },
      "isRewind": true,
      "versionBegin": "",
      "versionEnd": ""
    },
    {
      "subId": 300811,
      "mainId": 3008,
      "order": 2,
      "descTextMapHash": 163595396,
      "JIFODJPFKDF": [
        300701
      ],
      "finishCond": [
        {
          "damageRatio": "QUEST_CONTENT_COMPLETE_TALK",
          "param": [
            300809,
            0
          ]
        }
      ],
      "guide": {
        "damageRatio": "QUEST_GUIDE_LOCATION",
        "autoGuide": "QUEST_GUIDE_AUTO_ENABLE",
        "param": [
          "Q3007PrelooproomPaimon"
        ],
        "guideScene": 3,
        "guideStyle": "QUEST_GUIDE_STYLE_POINT",
        "guideLayer": "QUEST_GUIDE_LAYER_SCENE",
        "MLAHIFLGIGJ": ""
      },
      "guideHint": {
        "param1": ""
      },
      "isRewind": true,
      "versionBegin": "",
      "versionEnd": ""
    },
    {
      "subId": 300812,
      "mainId": 3008,
      "order": 4,
      "descTextMapHash": 343059172,
      "JIFODJPFKDF": [
        300701
      ],
      "finishCond": [
        {
          "damageRatio": "QUEST_CONTENT_FINISH_PLOT",
          "param": [
            300812,
            0
          ]
        }
      ],
      "guide": {
        "damageRatio": "QUEST_GUIDE_NPC",
        "autoGuide": "QUEST_GUIDE_AUTO_ENABLE",
        "param": [
          "12555"
        ],
        "guideScene": 3,
        "guideStyle": "QUEST_GUIDE_STYLE_TARGET",
        "guideLayer": "QUEST_GUIDE_LAYER_SCENE",
        "MLAHIFLGIGJ": ""
      },
      "guideHint": {
        "param1": ""
      },
      "versionBegin": "",
      "versionEnd": ""
    },
    {
      "subId": 300813,
      "mainId": 3008,
      "order": 12,
      "descTextMapHash": 2396582292,
      "JIFODJPFKDF": [
        300701
      ],
      "finishCond": [
        {
          "damageRatio": "QUEST_CONTENT_LEAVE_SCENE",
          "param": [
            1072,
            0
          ]
        }
      ],
      "guide": {
        "damageRatio": "QUEST_GUIDE_LOCATION",
        "autoGuide": "QUEST_GUIDE_AUTO_ENABLE",
        "param": [
          "Q300406_guide"
        ],
        "guideScene": 3,
        "guideStyle": "QUEST_GUIDE_STYLE_POINT",
        "guideLayer": "QUEST_GUIDE_LAYER_SCENE",
        "MLAHIFLGIGJ": ""
      },
      "guideHint": {
        "param1": ""
      },
      "isRewind": true,
      "finishExec": [
        {
          "damageRatio": "QUEST_EXEC_REFRESH_GROUP_SUITE",
          "param": [
            "1072",
            "201072004,1"
          ]
        },
        {
          "damageRatio": "QUEST_EXEC_REFRESH_GROUP_SUITE",
          "param": [
            "1072",
            "201072005,3"
          ]
        }
      ],
      "versionBegin": "",
      "versionEnd": ""
    },
    {
      "subId": 300814,
      "mainId": 3008,
      "order": 30,
      "isMpBlock": true,
      "descTextMapHash": 1380727540,
      "showType": "QUEST_HIDDEN",
      "JIFODJPFKDF": [
        300701
      ],
      "finishCond": [
        {
          "damageRatio": "QUEST_CONTENT_QUEST_STATE_EQUAL",
          "param": [
            300808,
            3
          ]
        }
      ],
      "failCond": [
        {
          "damageRatio": "QUEST_CONTENT_LEAVE_SCENE_RANGE_AND_ROOM",
          "param": [
            3,
            230
          ]
        }
      ],
      "guide": {
        "MLAHIFLGIGJ": ""
      },
      "showGuide": "QUEST_GUIDE_ITEM_DISABLE",
      "guideHint": {
        "param1": ""
      },
      "finishParent": true,
      "failParentShow": "QUEST_HIDDEN",
      "failExec": [
        {
          "damageRatio": "QUEST_EXEC_SET_IS_GAME_TIME_LOCKED",
          "param": [
            "0"
          ]
        },
        {
          "damageRatio": "QUEST_EXEC_ROLLBACK_QUEST",
          "param": [
            "300810"
          ]
        }
      ],
      "versionBegin": "",
      "versionEnd": ""
    },
    {
      "subId": 300815,
      "mainId": 3008,
      "order": 8,
      "descTextMapHash": 1608459692,
      "showType": "QUEST_HIDDEN",
      "finishCond": [
        {
          "damageRatio": "QUEST_CONTENT_FINISH_PLOT",
          "param": [
            300815,
            0
          ]
        }
      ],
      "failCond": [
        {
          "damageRatio": "QUEST_CONTENT_QUEST_STATE_EQUAL",
          "param": [
            300804,
            3
          ]
        }
      ],
      "guide": {
        "guideScene": 3,
        "guideLayer": "QUEST_GUIDE_LAYER_SCENE",
        "MLAHIFLGIGJ": ""
      },
      "showGuide": "QUEST_GUIDE_ITEM_DISABLE",
      "guideHint": {
        "param1": ""
      },
      "failParentShow": "QUEST_HIDDEN",
      "finishExec": [
        {
          "damageRatio": "QUEST_EXEC_REFRESH_GROUP_SUITE",
          "param": [
            "3",
            "133302606,6"
          ]
        }
      ],
      "versionBegin": "",
      "versionEnd": ""
    },
    {
      "subId": 300816,
      "mainId": 3008,
      "order": 10,
      "descTextMapHash": 3031246980,
      "showType": "QUEST_HIDDEN",
      "finishCond": [
        {
          "damageRatio": "QUEST_CONTENT_FINISH_PLOT",
          "param": [
            300816,
            0
          ]
        }
      ],
      "failCond": [
        {
          "damageRatio": "QUEST_CONTENT_QUEST_STATE_EQUAL",
          "param": [
            300805,
            3
          ]
        }
      ],
      "guide": {
        "guideScene": 3,
        "guideLayer": "QUEST_GUIDE_LAYER_SCENE",
        "MLAHIFLGIGJ": ""
      },
      "showGuide": "QUEST_GUIDE_ITEM_DISABLE",
      "guideHint": {
        "param1": ""
      },
      "failParentShow": "QUEST_HIDDEN",
      "finishExec": [
        {
          "damageRatio": "QUEST_EXEC_REFRESH_GROUP_SUITE",
          "param": [
            "1072",
            "201072005,1"
          ]
        }
      ],
      "versionBegin": "",
      "versionEnd": ""
    },
    {
      "subId": 300817,
      "mainId": 3008,
      "order": 11,
      "descTextMapHash": 3154279836,
      "showType": "QUEST_HIDDEN",
      "finishCond": [
        {
          "damageRatio": "QUEST_CONTENT_FINISH_PLOT",
          "param": [
            300817,
            0
          ]
        }
      ],
      "failCond": [
        {
          "damageRatio": "QUEST_CONTENT_QUEST_STATE_EQUAL",
          "param": [
            300805,
            3
          ]
        }
      ],
      "guide": {
        "guideScene": 3,
        "guideLayer": "QUEST_GUIDE_LAYER_SCENE",
        "MLAHIFLGIGJ": ""
      },
      "showGuide": "QUEST_GUIDE_ITEM_DISABLE",
      "guideHint": {
        "param1": ""
      },
      "failParentShow": "QUEST_HIDDEN",
      "finishExec": [
        {
          "damageRatio": "QUEST_EXEC_REFRESH_GROUP_SUITE",
          "param": [
            "1072",
            "201072005,2"
          ]
        }
      ],
      "versionBegin": "",
      "versionEnd": ""
    }
  ]
}