{
  "id": 363,
  "series": 1001,
  "titleTextMapHash": 411236993,
  "showType": "QUEST_HIDDEN",
  "chapterId": 1001,
  "subQuests": [
    {
      "subId": 36301,
      "mainId": 363,
      "order": 1,
      "showType": "QUEST_HIDDEN",
      "finishCond": [
        {
          "damageRatio": "QUEST_CONTENT_COMPLETE_TALK",
          "param": [
            35328,
            0
          ]
        }
      ],
      "guide": {
        "MLAHIFLGIGJ": ""
      },
      "guideHint": {
        "param1": ""
      },
      "finishParent": true,
      "versionBegin": "",
      "versionEnd": ""
    }
  ]
}