{
  "id": 400,
  "series": 1003,
  "titleTextMapHash": 2751309041,
  "descTextMapHash": 1914682679,
  "showType": "QUEST_HIDDEN",
  "subQuests": [
    {
      "subId": 40001,
      "mainId": 400,
      "order": 1,
      "descTextMapHash": 2956522047,
      "showType": "QUEST_HIDDEN",
      "finishCond": [
        {
          "damageRatio": "QUEST_CONTENT_FINISH_PLOT",
          "param": [
            40001,
            0
          ]
        }
      ],
      "guide": {
        "MLAHIFLGIGJ": ""
      },
      "guideHint": {
        "param1": ""
      },
      "finishParent": true,
      "isRewind": true,
      "versionBegin": "",
      "versionEnd": ""
    }
  ]
}