{
  "id": 40018,
  "series": 10033,
  "damageRatio": "EQ",
  "titleTextMapHash": 1079376983,
  "descTextMapHash": 2509353982,
  "showType": "QUEST_HIDDEN",
  "subQuests": [
    {
      "subId": 4001801,
      "mainId": 40018,
      "order": 1,
      "descTextMapHash": 4084147860,
      "showType": "QUEST_HIDDEN",
      "finishCond": [
        {
          "damageRatio": "QUEST_CONTENT_GAME_TIME_TICK",
          "param": [
            0,
            0
          ]
        }
      ],
      "guide": {
        "MLAHIFLGIGJ": ""
      },
      "guideHint": {
        "param1": ""
      },
      "finishParent": true,
      "isRewind": true,
      "versionBegin": "",
      "versionEnd": ""
    }
  ]
}