{
  "id": 40046,
  "damageRatio": "EQ",
  "titleTextMapHash": 1954746447,
  "descTextMapHash": 595856798,
  "showType": "QUEST_HIDDEN",
  "subQuests": [
    {
      "subId": 4004601,
      "mainId": 40046,
      "order": 1,
      "descTextMapHash": 364701740,
      "showType": "QUEST_HIDDEN",
      "finishCond": [
        {
          "damageRatio": "QUEST_CONTENT_QUEST_STATE_EQUAL",
          "param": [
            4002612,
            3
          ]
        }
      ],
      "guide": {
        "MLAHIFLGIGJ": ""
      },
      "showGuide": "QUEST_GUIDE_ITEM_DISABLE",
      "guideHint": {
        "param1": ""
      },
      "finishParent": true,
      "failParentShow": "QUEST_HIDDEN",
      "isRewind": true,
      "versionBegin": "",
      "versionEnd": ""
    }
  ]
}