{
  "id": 40118,
  "series": 40112,
  "damageRatio": "EQ",
  "titleTextMapHash": 3856775303,
  "descTextMapHash": 3253799622,
  "showType": "QUEST_HIDDEN",
  "subQuests": [
    {
      "subId": 4011801,
      "mainId": 40118,
      "order": 8,
      "descTextMapHash": 3113105556,
      "showType": "QUEST_HIDDEN",
      "finishCond": [
        {
          "damageRatio": "QUEST_CONTENT_QUEST_STATE_EQUAL",
          "param": [
            4011601,
            3
          ]
        }
      ],
      "guide": {
        "MLAHIFLGIGJ": ""
      },
      "guideHint": {
        "param1": ""
      },
      "finishParent": true,
      "isRewind": true,
      "versionBegin": "",
      "versionEnd": ""
    }
  ]
}