{
  "id": 40137,
  "damageRatio": "EQ",
  "titleTextMapHash": 685978311,
  "descTextMapHash": 1238439790,
  "showType": "QUEST_HIDDEN",
  "subQuests": [
    {
      "subId": 4013701,
      "mainId": 40137,
      "order": 1,
      "showType": "QUEST_HIDDEN",
      "finishCond": [
        {
          "damageRatio": "QUEST_CONTENT_FINISH_PLOT",
          "param": [
            4013701,
            0
          ]
        }
      ],
      "guide": {
        "MLAHIFLGIGJ": ""
      },
      "guideHint": {
        "param1": ""
      },
      "finishParent": true,
      "failParentShow": "QUEST_HIDDEN",
      "isRewind": true,
      "versionBegin": "",
      "versionEnd": ""
    }
  ]
}