{
  "id": 40134,
  "series": 10161,
  "damageRatio": "EQ",
  "titleTextMapHash": 3730961559,
  "descTextMapHash": 2141179062,
  "suggestTrackMainQuestList": [
    40135
  ],
  "rewardIdList": [
    140134
  ],
  "chapterId": 10163,
  "subQuests": [
    {
      "subId": 4013401,
      "mainId": 40134,
      "order": 2,
      "descTextMapHash": 3558812476,
      "JIFODJPFKDF": [
        340103,
        340202,
        340208,
        340205,
        340206
      ],
      "finishCond": [
        {
          "damageRatio": "QUEST_CONTENT_COMPLETE_TALK",
          "param": [
            4013410,
            0
          ]
        }
      ],
      "guide": {
        "damageRatio": "QUEST_GUIDE_LOCATION",
        "param": [
          "[3_340100357:3500.906,426.623,4516.021]"
        ],
        "guideScene": 3,
        "guideStyle": "QUEST_GUIDE_STYLE_POINT",
        "guideLayer": "QUEST_GUIDE_LAYER_SCENE",
        "MLAHIFLGIGJ": ""
      },
      "guideHint": {
        "param1": ""
      },
      "MEMGANDALKN": "QUEST_HIDDEN",
      "isRewind": true,
      "versionBegin": "",
      "versionEnd": ""
    },
    {
      "subId": 4013402,
      "mainId": 40134,
      "order": 3,
      "descTextMapHash": 594561508,
      "JIFODJPFKDF": [
        340202,
        340205,
        340206,
        340208
      ],
      "finishCond": [
        {
          "damageRatio": "QUEST_CONTENT_COMPLETE_TALK",
          "param": [
            4013401,
            0
          ]
        }
      ],
      "guide": {
        "damageRatio": "QUEST_GUIDE_LOCATION",
        "param": [
          "[3_340200137:3473.424,459.354,3661.147]"
        ],
        "guideScene": 3,
        "guideStyle": "QUEST_GUIDE_STYLE_POINT",
        "guideLayer": "QUEST_GUIDE_LAYER_SCENE",
        "MLAHIFLGIGJ": ""
      },
      "guideHint": {
        "param1": ""
      },
      "isRewind": true,
      "versionBegin": "",
      "versionEnd": ""
    },
    {
      "subId": 4013403,
      "mainId": 40134,
      "order": 7,
      "isMpBlock": true,
      "descTextMapHash": 672665172,
      "JIFODJPFKDF": [
        340202,
        340205,
        340206,
        340208
      ],
      "finishCond": [
        {
          "damageRatio": "QUEST_CONTENT_COMPLETE_TALK",
          "param": [
            4013402,
            0
          ]
        }
      ],
      "guide": {
        "damageRatio": "QUEST_GUIDE_LOCATION",
        "param": [
          "[3_340200137:3473.424,459.354,3661.147]"
        ],
        "guideScene": 3,
        "guideStyle": "QUEST_GUIDE_STYLE_POINT",
        "guideLayer": "QUEST_GUIDE_LAYER_SCENE",
        "MLAHIFLGIGJ": ""
      },
      "guideHint": {
        "param1": ""
      },
      "isRewind": true,
      "finishExec": [
        {
          "damageRatio": "QUEST_EXEC_UNREGISTER_DYNAMIC_GROUP",
          "param": [
            "133402887",
            "0"
          ]
        }
      ],
      "versionBegin": "",
      "versionEnd": ""
    },
    {
      "subId": 4013404,
      "mainId": 40134,
      "order": 14,
      "descTextMapHash": 2005462516,
      "finishCond": [
        {
          "damageRatio": "QUEST_CONTENT_COMPLETE_TALK",
          "param": [
            4013403,
            0
          ]
        }
      ],
      "guide": {
        "damageRatio": "QUEST_GUIDE_LOCATION",
        "param": [
          "[3_340300203:2399.316,462.329,4297.444]"
        ],
        "guideScene": 3,
        "guideStyle": "QUEST_GUIDE_STYLE_POINT",
        "guideLayer": "QUEST_GUIDE_LAYER_SCENE",
        "MLAHIFLGIGJ": ""
      },
      "guideHint": {
        "param1": ""
      },
      "finishParent": true,
      "isRewind": true,
      "finishExec": [
        {
          "damageRatio": "QUEST_EXEC_UNREGISTER_DYNAMIC_GROUP",
          "param": [
            "133403790",
            "1"
          ]
        },
        {
          "damageRatio": "QUEST_EXEC_SET_WEATHER_GADGET",
          "param": [
            "5060",
            "0"
          ]
        }
      ],
      "versionBegin": "",
      "versionEnd": ""
    },
    {
      "subId": 4013405,
      "mainId": 40134,
      "order": 1,
      "descTextMapHash": 2573324980,
      "finishCond": [
        {
          "damageRatio": "QUEST_CONTENT_GAME_TIME_TICK",
          "param": [
            1,
            0
          ]
        }
      ],
      "guide": {
        "MLAHIFLGIGJ": ""
      },
      "guideHint": {
        "param1": ""
      },
      "isRewind": true,
      "versionBegin": "",
      "versionEnd": ""
    },
    {
      "subId": 4013406,
      "mainId": 40134,
      "order": 4,
      "isMpBlock": true,
      "descTextMapHash": 3455386180,
      "JIFODJPFKDF": [
        340202,
        340205,
        340206,
        340208
      ],
      "AKLAGMDECEM": "BAN_GROUP_TRANSPORT_MAP",
      "finishCond": [
        {
          "damageRatio": "QUEST_CONTENT_LUA_NOTIFY",
          "param": [
            0,
            0
          ],
          "count": 1
        }
      ],
      "failCond": [
        {
          "damageRatio": "QUEST_CONTENT_ANY_MANUAL_TRANSPORT",
          "param": [
            0,
            0
          ]
        },
        {
          "damageRatio": "QUEST_CONTENT_TEAM_DEAD",
          "param": [
            0,
            0
          ]
        },
        {
          "damageRatio": "QUEST_CONTENT_LEAVE_SCENE_RANGE",
          "param": [
            3,
            25
          ]
        }
      ],
      "guide": {
        "damageRatio": "QUEST_GUIDE_LOCATION",
        "param": [
          "[3_340200137:3473.424,459.354,3661.147]",
          "20"
        ],
        "guideScene": 3,
        "guideStyle": "QUEST_GUIDE_STYLE_POINT",
        "guideLayer": "QUEST_GUIDE_LAYER_SCENE",
        "MLAHIFLGIGJ": ""
      },
      "guideHint": {
        "param1": ""
      },
      "finishExec": [
        {
          "damageRatio": "QUEST_EXEC_UNREGISTER_DYNAMIC_GROUP",
          "param": [
            "133402888",
            "0"
          ]
        },
        {
          "damageRatio": "QUEST_EXEC_SET_IS_GAME_TIME_LOCKED_V2",
          "param": [
            "0"
          ]
        },
        {
          "damageRatio": "QUEST_EXEC_REMOVE_TRIAL_AVATAR",
          "param": [
            "82"
          ]
        },
        {
          "damageRatio": "QUEST_EXEC_REMOVE_TRIAL_AVATAR",
          "param": [
            "83"
          ]
        },
        {
          "damageRatio": "QUEST_EXEC_UNLOCK_AVATAR_TEAM_V2"
        }
      ],
      "failExec": [
        {
          "damageRatio": "QUEST_EXEC_REMOVE_TRIAL_AVATAR",
          "param": [
            "82"
          ]
        },
        {
          "damageRatio": "QUEST_EXEC_REMOVE_TRIAL_AVATAR",
          "param": [
            "83"
          ]
        },
        {
          "damageRatio": "QUEST_EXEC_UNLOCK_AVATAR_TEAM_V2"
        },
        {
          "damageRatio": "QUEST_EXEC_ROLLBACK_QUEST",
          "param": [
            "4013402"
          ]
        }
      ],
      "versionBegin": "",
      "versionEnd": ""
    },
    {
      "subId": 4013407,
      "mainId": 40134,
      "order": 10,
      "descTextMapHash": 2419209932,
      "finishCond": [
        {
          "damageRatio": "QUEST_CONTENT_COMPLETE_TALK",
          "param": [
            4013407,
            0
          ]
        }
      ],
      "guide": {
        "damageRatio": "QUEST_GUIDE_LOCATION",
        "param": [
          "[3_340300284:2491.712,497.371,4240.678]"
        ],
        "guideScene": 3,
        "guideStyle": "QUEST_GUIDE_STYLE_POINT",
        "guideLayer": "QUEST_GUIDE_LAYER_SCENE",
        "MLAHIFLGIGJ": ""
      },
      "guideHint": {
        "param1": ""
      },
      "isRewind": true,
      "versionBegin": "",
      "versionEnd": ""
    },
    {
      "subId": 4013408,
      "mainId": 40134,
      "order": 12,
      "isMpBlock": true,
      "descTextMapHash": 2933604932,
      "finishCond": [
        {
          "damageRatio": "QUEST_CONTENT_FINISH_DUNGEON",
          "param": [
            9215,
            0
          ]
        }
      ],
      "failCond": [
        {
          "damageRatio": "QUEST_CONTENT_FAIL_DUNGEON",
          "param": [
            9215,
            0
          ]
        },
        {
          "damageRatio": "QUEST_CONTENT_LEAVE_SCENE",
          "param": [
            35928,
            0
          ]
        },
        {
          "damageRatio": "QUEST_CONTENT_ENTER_MY_WORLD",
          "param": [
            3,
            0
          ]
        },
        {
          "damageRatio": "QUEST_CONTENT_ANY_MANUAL_TRANSPORT",
          "param": [
            0,
            0
          ]
        }
      ],
      "guide": {
        "MLAHIFLGIGJ": ""
      },
      "guideHint": {
        "param1": ""
      },
      "isRewind": true,
      "finishExec": [
        {
          "damageRatio": "QUEST_EXEC_SET_IS_GAME_TIME_LOCKED_V2",
          "param": [
            "0"
          ]
        }
      ],
      "failExec": [
        {
          "damageRatio": "QUEST_EXEC_ROLLBACK_QUEST",
          "param": [
            "4013407"
          ]
        }
      ],
      "versionBegin": "",
      "versionEnd": ""
    },
    {
      "subId": 4013409,
      "mainId": 40134,
      "order": 13,
      "descTextMapHash": 4190623476,
      "finishCond": [
        {
          "damageRatio": "QUEST_CONTENT_COMPLETE_TALK",
          "param": [
            4013409,
            0
          ]
        }
      ],
      "guide": {
        "damageRatio": "QUEST_GUIDE_LOCATION",
        "param": [
          "[3_340300284:2491.712,497.371,4240.678]"
        ],
        "guideScene": 3,
        "guideStyle": "QUEST_GUIDE_STYLE_POINT",
        "guideLayer": "QUEST_GUIDE_LAYER_SCENE",
        "MLAHIFLGIGJ": ""
      },
      "guideHint": {
        "param1": ""
      },
      "isRewind": true,
      "versionBegin": "",
      "versionEnd": ""
    },
    {
      "subId": 4013410,
      "mainId": 40134,
      "order": 9,
      "descTextMapHash": 40332884,
      "finishCond": [
        {
          "damageRatio": "QUEST_CONTENT_COMPLETE_TALK",
          "param": [
            4013404,
            0
          ]
        }
      ],
      "guide": {
        "damageRatio": "QUEST_GUIDE_LOCATION",
        "param": [
          "[3_340300349:2594.151,507.802,4152.021]"
        ],
        "guideScene": 3,
        "guideStyle": "QUEST_GUIDE_STYLE_POINT",
        "guideLayer": "QUEST_GUIDE_LAYER_SCENE",
        "MLAHIFLGIGJ": ""
      },
      "guideHint": {
        "param1": ""
      },
      "isRewind": true,
      "versionBegin": "",
      "versionEnd": ""
    },
    {
      "subId": 4013411,
      "mainId": 40134,
      "order": 99,
      "isMpBlock": true,
      "showType": "QUEST_HIDDEN",
      "finishCond": [
        {
          "damageRatio": "QUEST_CONTENT_FINISH_PLOT",
          "param": [
            4013411,
            0
          ]
        }
      ],
      "guide": {
        "MLAHIFLGIGJ": ""
      },
      "showGuide": "QUEST_GUIDE_ITEM_DISABLE",
      "guideHint": {
        "param1": ""
      },
      "failParentShow": "QUEST_HIDDEN",
      "MEMGANDALKN": "QUEST_HIDDEN",
      "versionBegin": "",
      "versionEnd": ""
    },
    {
      "subId": 4013412,
      "mainId": 40134,
      "order": 6,
      "showType": "QUEST_HIDDEN",
      "finishCond": [
        {
          "damageRatio": "QUEST_CONTENT_QUEST_STATE_EQUAL",
          "param": [
            4013406,
            3
          ]
        }
      ],
      "failCond": [
        {
          "damageRatio": "QUEST_CONTENT_ANY_MANUAL_TRANSPORT",
          "param": [
            0,
            0
          ]
        },
        {
          "damageRatio": "QUEST_CONTENT_TEAM_DEAD",
          "param": [
            0,
            0
          ]
        },
        {
          "damageRatio": "QUEST_CONTENT_LEAVE_SCENE_RANGE",
          "param": [
            3,
            25
          ]
        }
      ],
      "guide": {
        "MLAHIFLGIGJ": ""
      },
      "showGuide": "QUEST_GUIDE_ITEM_DISABLE",
      "guideHint": {
        "param1": ""
      },
      "failParentShow": "QUEST_HIDDEN",
      "MEMGANDALKN": "QUEST_HIDDEN",
      "versionBegin": "",
      "versionEnd": ""
    },
    {
      "subId": 4013413,
      "mainId": 40134,
      "order": 5,
      "showType": "QUEST_HIDDEN",
      "finishCond": [
        {
          "damageRatio": "QUEST_CONTENT_QUEST_STATE_EQUAL",
          "param": [
            4013406,
            3
          ]
        }
      ],
      "failCond": [
        {
          "damageRatio": "QUEST_CONTENT_ANY_MANUAL_TRANSPORT",
          "param": [
            0,
            0
          ]
        },
        {
          "damageRatio": "QUEST_CONTENT_TEAM_DEAD",
          "param": [
            0,
            0
          ]
        },
        {
          "damageRatio": "QUEST_CONTENT_LEAVE_SCENE_RANGE",
          "param": [
            3,
            25
          ]
        }
      ],
      "guide": {
        "MLAHIFLGIGJ": ""
      },
      "showGuide": "QUEST_GUIDE_ITEM_DISABLE",
      "guideHint": {
        "param1": ""
      },
      "failParentShow": "QUEST_HIDDEN",
      "MEMGANDALKN": "QUEST_HIDDEN",
      "versionBegin": "",
      "versionEnd": ""
    },
    {
      "subId": 4013414,
      "mainId": 40134,
      "order": 11,
      "isMpBlock": true,
      "descTextMapHash": 58464132,
      "finishCond": [
        {
          "damageRatio": "QUEST_CONTENT_ENTER_DUNGEON",
          "param": [
            9215,
            1093
          ]
        }
      ],
      "failCond": [
        {
          "damageRatio": "QUEST_CONTENT_FAIL_DUNGEON",
          "param": [
            9215,
            0
          ]
        },
        {
          "damageRatio": "QUEST_CONTENT_ANY_MANUAL_TRANSPORT",
          "param": [
            0,
            0
          ]
        },
        {
          "damageRatio": "QUEST_CONTENT_TEAM_DEAD",
          "param": [
            0,
            0
          ]
        }
      ],
      "guide": {
        "damageRatio": "QUEST_GUIDE_LOCATION",
        "param": [
          "[3_340300284:2491.712,497.371,4240.678]"
        ],
        "guideScene": 3,
        "guideStyle": "QUEST_GUIDE_STYLE_POINT",
        "guideLayer": "QUEST_GUIDE_LAYER_SCENE",
        "MLAHIFLGIGJ": ""
      },
      "guideHint": {
        "param1": ""
      },
      "failExec": [
        {
          "damageRatio": "QUEST_EXEC_ROLLBACK_QUEST",
          "param": [
            "4013407"
          ]
        }
      ],
      "versionBegin": "",
      "versionEnd": ""
    }
  ]
}