{
  "id": 40138,
  "damageRatio": "EQ",
  "titleTextMapHash": 2120755423,
  "rewardIdList": [
    140138
  ],
  "showType": "QUEST_HIDDEN",
  "subQuests": [
    {
      "subId": 4013801,
      "mainId": 40138,
      "order": 1,
      "showType": "QUEST_HIDDEN",
      "finishCond": [
        {
          "damageRatio": "QUEST_CONTENT_FINISH_PLOT",
          "param": [
            4013801,
            0
          ]
        }
      ],
      "guide": {
        "MLAHIFLGIGJ": ""
      },
      "guideHint": {
        "param1": ""
      },
      "finishParent": true,
      "failParentShow": "QUEST_HIDDEN",
      "MEMGANDALKN": "QUEST_HIDDEN",
      "isRewind": true,
      "versionBegin": "",
      "versionEnd": ""
    }
  ]
}