{
  "id": 4024,
  "series": 4020,
  "titleTextMapHash": 3313048399,
  "descTextMapHash": 3120156854,
  "suggestTrackMainQuestList": [
    4025
  ],
  "rewardIdList": [
    104024
  ],
  "specialShowRewardId": [
    33337
  ],
  "chapterId": 1405,
  "subQuests": [
    {
      "subId": 402401,
      "mainId": 4024,
      "order": 11,
      "descTextMapHash": 3220767108,
      "JIFODJPFKDF": [
        108501
      ],
      "finishCond": [
        {
          "damageRatio": "QUEST_CONTENT_ENTER_DUNGEON",
          "param": [
            1189,
            2
          ]
        }
      ],
      "guide": {
        "damageRatio": "QUEST_GUIDE_LOCATION",
        "param": [
          "[1085_321:0.031,8.875,8.622]"
        ],
        "guideScene": 1085,
        "guideStyle": "QUEST_GUIDE_STYLE_TARGET",
        "MLAHIFLGIGJ": ""
      },
      "guideHint": {
        "param1": ""
      },
      "MEMGANDALKN": "QUEST_HIDDEN",
      "isRewind": true,
      "versionBegin": "",
      "versionEnd": ""
    },
    {
      "subId": 402402,
      "mainId": 4024,
      "order": 12,
      "isMpBlock": true,
      "descTextMapHash": 1226952460,
      "JIFODJPFKDF": [
        108501
      ],
      "finishCond": [
        {
          "damageRatio": "QUEST_CONTENT_COMPLETE_TALK",
          "param": [
            402402,
            0
          ]
        }
      ],
      "failCond": [
        {
          "damageRatio": "QUEST_CONTENT_LEAVE_SCENE",
          "param": [
            20202,
            0
          ]
        },
        {
          "damageRatio": "QUEST_CONTENT_FAIL_DUNGEON",
          "param": [
            1189,
            0
          ]
        },
        {
          "damageRatio": "QUEST_CONTENT_ENTER_MY_WORLD",
          "param": [
            3,
            0
          ]
        }
      ],
      "guide": {
        "damageRatio": "QUEST_GUIDE_LOCATION",
        "param": [
          "[20202_1:34.226,119.589,37.334,0.000,184.829,0.000]"
        ],
        "guideScene": 20202,
        "guideStyle": "QUEST_GUIDE_STYLE_POINT",
        "guideLayer": "QUEST_GUIDE_LAYER_SCENE",
        "MLAHIFLGIGJ": ""
      },
      "guideHint": {
        "param1": ""
      },
      "MEMGANDALKN": "QUEST_HIDDEN",
      "isRewind": true,
      "failExec": [
        {
          "damageRatio": "QUEST_EXEC_ROLLBACK_QUEST",
          "param": [
            "402401"
          ]
        }
      ],
      "versionBegin": "",
      "versionEnd": ""
    },
    {
      "subId": 402403,
      "mainId": 4024,
      "order": 13,
      "isMpBlock": true,
      "descTextMapHash": 844407148,
      "JIFODJPFKDF": [
        108501
      ],
      "finishCond": [
        {
          "damageRatio": "QUEST_CONTENT_COMPLETE_TALK",
          "param": [
            402403,
            0
          ]
        }
      ],
      "failCond": [
        {
          "damageRatio": "QUEST_CONTENT_LEAVE_SCENE",
          "param": [
            20202,
            0
          ]
        },
        {
          "damageRatio": "QUEST_CONTENT_FAIL_DUNGEON",
          "param": [
            1189,
            0
          ]
        },
        {
          "damageRatio": "QUEST_CONTENT_ENTER_MY_WORLD",
          "param": [
            3,
            0
          ]
        }
      ],
      "guide": {
        "damageRatio": "QUEST_GUIDE_NPC",
        "param": [
          "13316"
        ],
        "guideScene": 20202,
        "guideStyle": "QUEST_GUIDE_STYLE_TARGET",
        "guideLayer": "QUEST_GUIDE_LAYER_SCENE",
        "MLAHIFLGIGJ": ""
      },
      "guideHint": {
        "param1": ""
      },
      "MEMGANDALKN": "QUEST_HIDDEN",
      "isRewind": true,
      "failExec": [
        {
          "damageRatio": "QUEST_EXEC_ROLLBACK_QUEST",
          "param": [
            "402401"
          ]
        }
      ],
      "versionBegin": "",
      "versionEnd": ""
    },
    {
      "subId": 402404,
      "mainId": 4024,
      "order": 15,
      "subIdSet": 402404,
      "isMpBlock": true,
      "descTextMapHash": 2588864988,
      "JIFODJPFKDF": [
        108501
      ],
      "finishCond": [
        {
          "damageRatio": "QUEST_CONTENT_LUA_NOTIFY",
          "param": [
            0,
            0
          ],
          "count": 3
        }
      ],
      "failCond": [
        {
          "damageRatio": "QUEST_CONTENT_LEAVE_SCENE",
          "param": [
            20202,
            0
          ]
        },
        {
          "damageRatio": "QUEST_CONTENT_FAIL_DUNGEON",
          "param": [
            1189,
            0
          ]
        },
        {
          "damageRatio": "QUEST_CONTENT_ENTER_MY_WORLD",
          "param": [
            3,
            0
          ]
        }
      ],
      "guide": {
        "param": [
          "30"
        ],
        "guideScene": 3,
        "MLAHIFLGIGJ": ""
      },
      "showGuide": "QUEST_GUIDE_ITEM_DISABLE",
      "guideHint": {
        "param1": ""
      },
      "isRewind": true,
      "finishExec": [
        {
          "damageRatio": "QUEST_EXEC_NOTIFY_GROUP_LUA",
          "param": [
            "20202",
            "220202001"
          ]
        }
      ],
      "failExec": [
        {
          "damageRatio": "QUEST_EXEC_ROLLBACK_QUEST",
          "param": [
            "402401"
          ]
        }
      ],
      "versionBegin": "",
      "versionEnd": ""
    },
    {
      "subId": 402405,
      "mainId": 4024,
      "order": 20,
      "isMpBlock": true,
      "descTextMapHash": 579230172,
      "JIFODJPFKDF": [
        108501
      ],
      "finishCond": [
        {
          "damageRatio": "QUEST_CONTENT_COMPLETE_TALK",
          "param": [
            402405,
            0
          ]
        }
      ],
      "failCond": [
        {
          "damageRatio": "QUEST_CONTENT_LEAVE_SCENE",
          "param": [
            20202,
            0
          ]
        },
        {
          "damageRatio": "QUEST_CONTENT_FAIL_DUNGEON",
          "param": [
            1189,
            0
          ]
        },
        {
          "damageRatio": "QUEST_CONTENT_ENTER_MY_WORLD",
          "param": [
            3,
            0
          ]
        }
      ],
      "guide": {
        "guideScene": 3,
        "guideStyle": "QUEST_GUIDE_STYLE_TARGET",
        "guideLayer": "QUEST_GUIDE_LAYER_SCENE",
        "MLAHIFLGIGJ": ""
      },
      "showGuide": "QUEST_GUIDE_ITEM_DISABLE",
      "guideHint": {
        "param1": ""
      },
      "MEMGANDALKN": "QUEST_HIDDEN",
      "isRewind": true,
      "failExec": [
        {
          "damageRatio": "QUEST_EXEC_ROLLBACK_QUEST",
          "param": [
            "402401"
          ]
        },
        {
          "damageRatio": "QUEST_EXEC_UNLOCK_AVATAR_TEAM_V2"
        },
        {
          "damageRatio": "QUEST_EXEC_REMOVE_TRIAL_AVATAR",
          "param": [
            "80"
          ]
        }
      ],
      "versionBegin": "",
      "versionEnd": ""
    },
    {
      "subId": 402406,
      "mainId": 4024,
      "order": 23,
      "isMpBlock": true,
      "descTextMapHash": 2276004044,
      "JIFODJPFKDF": [
        108501
      ],
      "finishCond": [
        {
          "damageRatio": "QUEST_CONTENT_COMPLETE_TALK",
          "param": [
            402406,
            0
          ]
        }
      ],
      "failCond": [
        {
          "damageRatio": "QUEST_CONTENT_LEAVE_SCENE",
          "param": [
            20202,
            0
          ]
        },
        {
          "damageRatio": "QUEST_CONTENT_FAIL_DUNGEON",
          "param": [
            1189,
            0
          ]
        },
        {
          "damageRatio": "QUEST_CONTENT_ENTER_MY_WORLD",
          "param": [
            3,
            0
          ]
        }
      ],
      "guide": {
        "guideScene": 3,
        "guideStyle": "QUEST_GUIDE_STYLE_TARGET",
        "guideLayer": "QUEST_GUIDE_LAYER_SCENE",
        "MLAHIFLGIGJ": ""
      },
      "showGuide": "QUEST_GUIDE_ITEM_DISABLE",
      "guideHint": {
        "param1": ""
      },
      "MEMGANDALKN": "QUEST_HIDDEN",
      "isRewind": true,
      "failExec": [
        {
          "damageRatio": "QUEST_EXEC_ROLLBACK_QUEST",
          "param": [
            "402401"
          ]
        },
        {
          "damageRatio": "QUEST_EXEC_UNLOCK_AVATAR_TEAM_V2"
        },
        {
          "damageRatio": "QUEST_EXEC_REMOVE_TRIAL_AVATAR",
          "param": [
            "80"
          ]
        }
      ],
      "versionBegin": "",
      "versionEnd": ""
    },
    {
      "subId": 402407,
      "mainId": 4024,
      "order": 24,
      "isMpBlock": true,
      "descTextMapHash": 1748820980,
      "JIFODJPFKDF": [
        108501
      ],
      "finishCond": [
        {
          "damageRatio": "QUEST_CONTENT_COMPLETE_TALK",
          "param": [
            402407,
            0
          ]
        }
      ],
      "failCond": [
        {
          "damageRatio": "QUEST_CONTENT_LEAVE_SCENE",
          "param": [
            20202,
            0
          ]
        },
        {
          "damageRatio": "QUEST_CONTENT_FAIL_DUNGEON",
          "param": [
            1189,
            0
          ]
        },
        {
          "damageRatio": "QUEST_CONTENT_ENTER_MY_WORLD",
          "param": [
            3,
            0
          ]
        }
      ],
      "guide": {
        "guideScene": 3,
        "guideStyle": "QUEST_GUIDE_STYLE_TARGET",
        "guideLayer": "QUEST_GUIDE_LAYER_SCENE",
        "MLAHIFLGIGJ": ""
      },
      "showGuide": "QUEST_GUIDE_ITEM_DISABLE",
      "guideHint": {
        "param1": ""
      },
      "MEMGANDALKN": "QUEST_HIDDEN",
      "isRewind": true,
      "failExec": [
        {
          "damageRatio": "QUEST_EXEC_ROLLBACK_QUEST",
          "param": [
            "402401"
          ]
        },
        {
          "damageRatio": "QUEST_EXEC_UNLOCK_AVATAR_TEAM_V2"
        },
        {
          "damageRatio": "QUEST_EXEC_REMOVE_TRIAL_AVATAR",
          "param": [
            "80"
          ]
        }
      ],
      "versionBegin": "",
      "versionEnd": ""
    },
    {
      "subId": 402408,
      "mainId": 4024,
      "order": 25,
      "isMpBlock": true,
      "descTextMapHash": 3793236636,
      "JIFODJPFKDF": [
        108501
      ],
      "finishCond": [
        {
          "damageRatio": "QUEST_CONTENT_COMPLETE_TALK",
          "param": [
            402408,
            0
          ]
        }
      ],
      "failCond": [
        {
          "damageRatio": "QUEST_CONTENT_LEAVE_SCENE",
          "param": [
            20202,
            0
          ]
        },
        {
          "damageRatio": "QUEST_CONTENT_FAIL_DUNGEON",
          "param": [
            1189,
            0
          ]
        },
        {
          "damageRatio": "QUEST_CONTENT_ENTER_MY_WORLD",
          "param": [
            3,
            0
          ]
        }
      ],
      "guide": {
        "guideScene": 3,
        "guideStyle": "QUEST_GUIDE_STYLE_TARGET",
        "guideLayer": "QUEST_GUIDE_LAYER_SCENE",
        "MLAHIFLGIGJ": ""
      },
      "showGuide": "QUEST_GUIDE_ITEM_DISABLE",
      "guideHint": {
        "param1": ""
      },
      "MEMGANDALKN": "QUEST_HIDDEN",
      "isRewind": true,
      "failExec": [
        {
          "damageRatio": "QUEST_EXEC_ROLLBACK_QUEST",
          "param": [
            "402401"
          ]
        },
        {
          "damageRatio": "QUEST_EXEC_UNLOCK_AVATAR_TEAM_V2"
        },
        {
          "damageRatio": "QUEST_EXEC_REMOVE_TRIAL_AVATAR",
          "param": [
            "80"
          ]
        }
      ],
      "versionBegin": "",
      "versionEnd": ""
    },
    {
      "subId": 402409,
      "mainId": 4024,
      "order": 26,
      "isMpBlock": true,
      "descTextMapHash": 3591197348,
      "JIFODJPFKDF": [
        108501
      ],
      "finishCond": [
        {
          "damageRatio": "QUEST_CONTENT_COMPLETE_TALK",
          "param": [
            402409,
            0
          ]
        }
      ],
      "failCond": [
        {
          "damageRatio": "QUEST_CONTENT_LEAVE_SCENE",
          "param": [
            20202,
            0
          ]
        },
        {
          "damageRatio": "QUEST_CONTENT_FAIL_DUNGEON",
          "param": [
            1189,
            0
          ]
        },
        {
          "damageRatio": "QUEST_CONTENT_ENTER_MY_WORLD",
          "param": [
            3,
            0
          ]
        }
      ],
      "guide": {
        "guideScene": 3,
        "guideStyle": "QUEST_GUIDE_STYLE_TARGET",
        "guideLayer": "QUEST_GUIDE_LAYER_SCENE",
        "MLAHIFLGIGJ": ""
      },
      "showGuide": "QUEST_GUIDE_ITEM_DISABLE",
      "guideHint": {
        "param1": ""
      },
      "MEMGANDALKN": "QUEST_HIDDEN",
      "isRewind": true,
      "failExec": [
        {
          "damageRatio": "QUEST_EXEC_ROLLBACK_QUEST",
          "param": [
            "402401"
          ]
        },
        {
          "damageRatio": "QUEST_EXEC_UNLOCK_AVATAR_TEAM_V2"
        },
        {
          "damageRatio": "QUEST_EXEC_REMOVE_TRIAL_AVATAR",
          "param": [
            "80"
          ]
        }
      ],
      "versionBegin": "",
      "versionEnd": ""
    },
    {
      "subId": 402410,
      "mainId": 4024,
      "order": 27,
      "isMpBlock": true,
      "descTextMapHash": 2357996132,
      "JIFODJPFKDF": [
        108501
      ],
      "finishCond": [
        {
          "damageRatio": "QUEST_CONTENT_COMPLETE_TALK",
          "param": [
            402420,
            0
          ]
        }
      ],
      "failCond": [
        {
          "damageRatio": "QUEST_CONTENT_LEAVE_SCENE",
          "param": [
            20202,
            0
          ]
        },
        {
          "damageRatio": "QUEST_CONTENT_FAIL_DUNGEON",
          "param": [
            1189,
            0
          ]
        },
        {
          "damageRatio": "QUEST_CONTENT_ENTER_MY_WORLD",
          "param": [
            3,
            0
          ]
        }
      ],
      "guide": {
        "guideScene": 3,
        "guideStyle": "QUEST_GUIDE_STYLE_TARGET",
        "guideLayer": "QUEST_GUIDE_LAYER_SCENE",
        "MLAHIFLGIGJ": ""
      },
      "showGuide": "QUEST_GUIDE_ITEM_DISABLE",
      "guideHint": {
        "param1": ""
      },
      "MEMGANDALKN": "QUEST_HIDDEN",
      "isRewind": true,
      "failExec": [
        {
          "damageRatio": "QUEST_EXEC_ROLLBACK_QUEST",
          "param": [
            "402401"
          ]
        },
        {
          "damageRatio": "QUEST_EXEC_UNLOCK_AVATAR_TEAM_V2"
        },
        {
          "damageRatio": "QUEST_EXEC_REMOVE_TRIAL_AVATAR",
          "param": [
            "80"
          ]
        }
      ],
      "versionBegin": "",
      "versionEnd": ""
    },
    {
      "subId": 402411,
      "mainId": 4024,
      "order": 31,
      "isMpBlock": true,
      "descTextMapHash": 1979306748,
      "JIFODJPFKDF": [
        108501
      ],
      "finishCond": [
        {
          "damageRatio": "QUEST_CONTENT_COMPLETE_TALK",
          "param": [
            402411,
            0
          ]
        }
      ],
      "failCond": [
        {
          "damageRatio": "QUEST_CONTENT_LEAVE_SCENE",
          "param": [
            20202,
            0
          ]
        },
        {
          "damageRatio": "QUEST_CONTENT_FAIL_DUNGEON",
          "param": [
            1189,
            0
          ]
        },
        {
          "damageRatio": "QUEST_CONTENT_ENTER_MY_WORLD",
          "param": [
            3,
            0
          ]
        }
      ],
      "guide": {
        "damageRatio": "QUEST_GUIDE_LOCATION",
        "param": [
          "[20202_1:34.226,119.589,37.334,0.000,184.829,0.000]"
        ],
        "guideScene": 20202,
        "guideStyle": "QUEST_GUIDE_STYLE_POINT",
        "guideLayer": "QUEST_GUIDE_LAYER_SCENE",
        "MLAHIFLGIGJ": ""
      },
      "guideHint": {
        "param1": ""
      },
      "MEMGANDALKN": "QUEST_HIDDEN",
      "isRewind": true,
      "failExec": [
        {
          "damageRatio": "QUEST_EXEC_ROLLBACK_QUEST",
          "param": [
            "402401"
          ]
        }
      ],
      "versionBegin": "",
      "versionEnd": ""
    },
    {
      "subId": 402412,
      "mainId": 4024,
      "order": 32,
      "isMpBlock": true,
      "descTextMapHash": 2256147500,
      "JIFODJPFKDF": [
        108501
      ],
      "finishCond": [
        {
          "damageRatio": "QUEST_CONTENT_FINISH_PLOT",
          "param": [
            402412,
            0
          ]
        }
      ],
      "failCond": [
        {
          "damageRatio": "QUEST_CONTENT_LEAVE_SCENE",
          "param": [
            20202,
            0
          ]
        },
        {
          "damageRatio": "QUEST_CONTENT_FAIL_DUNGEON",
          "param": [
            1189,
            0
          ]
        },
        {
          "damageRatio": "QUEST_CONTENT_ENTER_MY_WORLD",
          "param": [
            3,
            0
          ]
        }
      ],
      "guide": {
        "MLAHIFLGIGJ": ""
      },
      "guideHint": {
        "param1": ""
      },
      "MEMGANDALKN": "QUEST_HIDDEN",
      "isRewind": true,
      "failExec": [
        {
          "damageRatio": "QUEST_EXEC_ROLLBACK_QUEST",
          "param": [
            "402401"
          ]
        }
      ],
      "versionBegin": "",
      "versionEnd": ""
    },
    {
      "subId": 402413,
      "mainId": 4024,
      "order": 33,
      "descTextMapHash": 2814465172,
      "JIFODJPFKDF": [
        108501
      ],
      "finishCond": [
        {
          "damageRatio": "QUEST_CONTENT_COMPLETE_TALK",
          "param": [
            402413,
            0
          ]
        }
      ],
      "guide": {
        "damageRatio": "QUEST_GUIDE_LOCATION",
        "param": [
          "[1085_288:-0.007,-0.111,41.125]"
        ],
        "guideScene": 1085,
        "guideStyle": "QUEST_GUIDE_STYLE_POINT",
        "guideLayer": "QUEST_GUIDE_LAYER_SCENE",
        "MLAHIFLGIGJ": ""
      },
      "guideHint": {
        "param1": ""
      },
      "MEMGANDALKN": "QUEST_HIDDEN",
      "isRewind": true,
      "versionBegin": "",
      "versionEnd": ""
    },
    {
      "subId": 402414,
      "mainId": 4024,
      "order": 34,
      "descTextMapHash": 3220910460,
      "JIFODJPFKDF": [
        108501
      ],
      "finishCond": [
        {
          "damageRatio": "QUEST_CONTENT_ENTER_DUNGEON",
          "param": [
            143,
            2
          ]
        }
      ],
      "guide": {
        "damageRatio": "QUEST_GUIDE_LOCATION",
        "param": [
          "[1085_322:-1.323,10.346,58.301]"
        ],
        "guideScene": 1085,
        "guideStyle": "QUEST_GUIDE_STYLE_TARGET",
        "MLAHIFLGIGJ": ""
      },
      "guideHint": {
        "param1": ""
      },
      "MEMGANDALKN": "QUEST_HIDDEN",
      "isRewind": true,
      "finishExec": [
        {
          "damageRatio": "QUEST_EXEC_OPTIONAL_REVIVAL_TEAM",
          "param": [
            "1"
          ]
        }
      ],
      "versionBegin": "",
      "versionEnd": ""
    },
    {
      "subId": 402415,
      "mainId": 4024,
      "order": 35,
      "isMpBlock": true,
      "descTextMapHash": 1237996332,
      "JIFODJPFKDF": [
        108501
      ],
      "finishCond": [
        {
          "damageRatio": "QUEST_CONTENT_LUA_NOTIFY",
          "param": [
            0,
            0
          ],
          "count": 1
        }
      ],
      "failCond": [
        {
          "damageRatio": "QUEST_CONTENT_LEAVE_SCENE",
          "param": [
            20198,
            0
          ]
        },
        {
          "damageRatio": "QUEST_CONTENT_ENTER_MY_WORLD",
          "param": [
            3,
            0
          ]
        },
        {
          "damageRatio": "QUEST_CONTENT_FAIL_DUNGEON",
          "param": [
            143,
            0
          ]
        }
      ],
      "guide": {
        "param": [
          "30"
        ],
        "guideScene": 3,
        "MLAHIFLGIGJ": ""
      },
      "showGuide": "QUEST_GUIDE_ITEM_DISABLE",
      "guideHint": {
        "param1": ""
      },
      "isRewind": true,
      "failExec": [
        {
          "damageRatio": "QUEST_EXEC_ROLLBACK_QUEST",
          "param": [
            "402414"
          ]
        }
      ],
      "versionBegin": "",
      "versionEnd": ""
    },
    {
      "subId": 402416,
      "mainId": 4024,
      "order": 36,
      "isMpBlock": true,
      "descTextMapHash": 4036104980,
      "JIFODJPFKDF": [
        108501
      ],
      "finishCond": [
        {
          "damageRatio": "QUEST_CONTENT_FINISH_PLOT",
          "param": [
            402416,
            0
          ]
        }
      ],
      "failCond": [
        {
          "damageRatio": "QUEST_CONTENT_LEAVE_SCENE",
          "param": [
            20198,
            0
          ]
        },
        {
          "damageRatio": "QUEST_CONTENT_ENTER_MY_WORLD",
          "param": [
            3,
            0
          ]
        },
        {
          "damageRatio": "QUEST_CONTENT_FAIL_DUNGEON",
          "param": [
            143,
            0
          ]
        }
      ],
      "guide": {
        "MLAHIFLGIGJ": ""
      },
      "guideHint": {
        "param1": ""
      },
      "MEMGANDALKN": "QUEST_HIDDEN",
      "isRewind": true,
      "failExec": [
        {
          "damageRatio": "QUEST_EXEC_ROLLBACK_QUEST",
          "param": [
            "402414"
          ]
        }
      ],
      "versionBegin": "",
      "versionEnd": ""
    },
    {
      "subId": 402417,
      "mainId": 4024,
      "order": 37,
      "isMpBlock": true,
      "descTextMapHash": 3421197540,
      "JIFODJPFKDF": [
        108501
      ],
      "finishCond": [
        {
          "damageRatio": "QUEST_CONTENT_COMPLETE_TALK",
          "param": [
            402417,
            0
          ]
        }
      ],
      "failCond": [
        {
          "damageRatio": "QUEST_CONTENT_LEAVE_SCENE",
          "param": [
            20198,
            0
          ]
        },
        {
          "damageRatio": "QUEST_CONTENT_ENTER_MY_WORLD",
          "param": [
            3,
            0
          ]
        },
        {
          "damageRatio": "QUEST_CONTENT_FAIL_DUNGEON",
          "param": [
            143,
            0
          ]
        }
      ],
      "guide": {
        "damageRatio": "QUEST_GUIDE_NPC",
        "param": [
          "1076"
        ],
        "guideScene": 3,
        "guideStyle": "QUEST_GUIDE_STYLE_TARGET",
        "guideLayer": "QUEST_GUIDE_LAYER_SCENE",
        "MLAHIFLGIGJ": ""
      },
      "guideHint": {
        "param1": ""
      },
      "isRewind": true,
      "failExec": [
        {
          "damageRatio": "QUEST_EXEC_ROLLBACK_QUEST",
          "param": [
            "402414"
          ]
        }
      ],
      "versionBegin": "",
      "versionEnd": ""
    },
    {
      "subId": 402418,
      "mainId": 4024,
      "order": 38,
      "isMpBlock": true,
      "descTextMapHash": 732313740,
      "JIFODJPFKDF": [
        108501
      ],
      "finishCond": [
        {
          "damageRatio": "QUEST_CONTENT_FINISH_PLOT",
          "param": [
            402418,
            0
          ]
        }
      ],
      "failCond": [
        {
          "damageRatio": "QUEST_CONTENT_LEAVE_SCENE",
          "param": [
            20198,
            0
          ]
        },
        {
          "damageRatio": "QUEST_CONTENT_ENTER_MY_WORLD",
          "param": [
            3,
            0
          ]
        },
        {
          "damageRatio": "QUEST_CONTENT_FAIL_DUNGEON",
          "param": [
            143,
            0
          ]
        }
      ],
      "guide": {
        "MLAHIFLGIGJ": ""
      },
      "guideHint": {
        "param1": ""
      },
      "MEMGANDALKN": "QUEST_HIDDEN",
      "isRewind": true,
      "finishExec": [
        {
          "damageRatio": "QUEST_EXEC_SET_QUEST_GLOBAL_VAR",
          "param": [
            "402401",
            "1"
          ]
        },
        {
          "damageRatio": "QUEST_EXEC_REFRESH_GROUP_SUITE",
          "param": [
            "1085",
            "201085013,1"
          ]
        }
      ],
      "failExec": [
        {
          "damageRatio": "QUEST_EXEC_ROLLBACK_QUEST",
          "param": [
            "402414"
          ]
        }
      ],
      "versionBegin": "",
      "versionEnd": ""
    },
    {
      "subId": 402419,
      "mainId": 4024,
      "order": 17,
      "subIdSet": 402404,
      "isMpBlock": true,
      "descTextMapHash": 1473402476,
      "JIFODJPFKDF": [
        108501
      ],
      "finishCond": [
        {
          "damageRatio": "QUEST_CONTENT_LUA_NOTIFY",
          "param": [
            0,
            0
          ],
          "count": 1
        }
      ],
      "failCond": [
        {
          "damageRatio": "QUEST_CONTENT_LEAVE_SCENE",
          "param": [
            20202,
            0
          ]
        },
        {
          "damageRatio": "QUEST_CONTENT_FAIL_DUNGEON",
          "param": [
            1189,
            0
          ]
        },
        {
          "damageRatio": "QUEST_CONTENT_ENTER_MY_WORLD",
          "param": [
            3,
            0
          ]
        }
      ],
      "guide": {
        "param": [
          "30"
        ],
        "guideScene": 3,
        "MLAHIFLGIGJ": ""
      },
      "showGuide": "QUEST_GUIDE_ITEM_DISABLE",
      "guideHint": {
        "param1": ""
      },
      "finishExec": [
        {
          "damageRatio": "QUEST_EXEC_NOTIFY_GROUP_LUA",
          "param": [
            "20202",
            "220202001"
          ]
        }
      ],
      "versionBegin": "",
      "versionEnd": ""
    },
    {
      "subId": 402420,
      "mainId": 4024,
      "order": 16,
      "subIdSet": 402404,
      "isMpBlock": true,
      "descTextMapHash": 2813494052,
      "JIFODJPFKDF": [
        108501
      ],
      "finishCond": [
        {
          "damageRatio": "QUEST_CONTENT_LUA_NOTIFY",
          "param": [
            0,
            0
          ],
          "count": 2
        }
      ],
      "failCond": [
        {
          "damageRatio": "QUEST_CONTENT_LEAVE_SCENE",
          "param": [
            20202,
            0
          ]
        },
        {
          "damageRatio": "QUEST_CONTENT_FAIL_DUNGEON",
          "param": [
            1189,
            0
          ]
        },
        {
          "damageRatio": "QUEST_CONTENT_ENTER_MY_WORLD",
          "param": [
            3,
            0
          ]
        }
      ],
      "guide": {
        "param": [
          "30"
        ],
        "guideScene": 3,
        "MLAHIFLGIGJ": ""
      },
      "showGuide": "QUEST_GUIDE_ITEM_DISABLE",
      "guideHint": {
        "param1": ""
      },
      "finishExec": [
        {
          "damageRatio": "QUEST_EXEC_NOTIFY_GROUP_LUA",
          "param": [
            "20202",
            "220202001"
          ]
        }
      ],
      "versionBegin": "",
      "versionEnd": ""
    },
    {
      "subId": 402421,
      "mainId": 4024,
      "order": 19,
      "isMpBlock": true,
      "descTextMapHash": 4064360436,
      "showType": "QUEST_HIDDEN",
      "JIFODJPFKDF": [
        108501
      ],
      "finishCond": [
        {
          "damageRatio": "QUEST_CONTENT_FINISH_PLOT",
          "param": [
            402421,
            0
          ]
        }
      ],
      "failCond": [
        {
          "damageRatio": "QUEST_CONTENT_LEAVE_SCENE",
          "param": [
            20202,
            0
          ]
        },
        {
          "damageRatio": "QUEST_CONTENT_FAIL_DUNGEON",
          "param": [
            1189,
            0
          ]
        },
        {
          "damageRatio": "QUEST_CONTENT_ENTER_MY_WORLD",
          "param": [
            3,
            0
          ]
        }
      ],
      "guide": {
        "guideScene": 3,
        "guideStyle": "QUEST_GUIDE_STYLE_TARGET",
        "guideLayer": "QUEST_GUIDE_LAYER_SCENE",
        "MLAHIFLGIGJ": ""
      },
      "guideHint": {
        "param1": ""
      },
      "versionBegin": "",
      "versionEnd": ""
    },
    {
      "subId": 402422,
      "mainId": 4024,
      "order": 29,
      "isMpBlock": true,
      "descTextMapHash": 3192669948,
      "JIFODJPFKDF": [
        108501
      ],
      "finishCond": [
        {
          "damageRatio": "QUEST_CONTENT_COMPLETE_TALK",
          "param": [
            402410,
            0
          ]
        }
      ],
      "failCond": [
        {
          "damageRatio": "QUEST_CONTENT_LEAVE_SCENE",
          "param": [
            20202,
            0
          ]
        },
        {
          "damageRatio": "QUEST_CONTENT_FAIL_DUNGEON",
          "param": [
            1189,
            0
          ]
        },
        {
          "damageRatio": "QUEST_CONTENT_ENTER_MY_WORLD",
          "param": [
            3,
            0
          ]
        }
      ],
      "guide": {
        "guideScene": 3,
        "guideStyle": "QUEST_GUIDE_STYLE_TARGET",
        "guideLayer": "QUEST_GUIDE_LAYER_SCENE",
        "MLAHIFLGIGJ": ""
      },
      "showGuide": "QUEST_GUIDE_ITEM_DISABLE",
      "guideHint": {
        "param1": ""
      },
      "failParentShow": "QUEST_HIDDEN",
      "MEMGANDALKN": "QUEST_HIDDEN",
      "isRewind": true,
      "finishExec": [
        {
          "damageRatio": "QUEST_EXEC_UNLOCK_AVATAR_TEAM_V2"
        },
        {
          "damageRatio": "QUEST_EXEC_REMOVE_TRIAL_AVATAR",
          "param": [
            "80"
          ]
        },
        {
          "damageRatio": "QUEST_EXEC_REFRESH_GROUP_SUITE",
          "param": [
            "20202",
            "220202002,1"
          ]
        }
      ],
      "failExec": [
        {
          "damageRatio": "QUEST_EXEC_ROLLBACK_QUEST",
          "param": [
            "402401"
          ]
        },
        {
          "damageRatio": "QUEST_EXEC_UNLOCK_AVATAR_TEAM_V2"
        },
        {
          "damageRatio": "QUEST_EXEC_REMOVE_TRIAL_AVATAR",
          "param": [
            "80"
          ]
        }
      ],
      "versionBegin": "",
      "versionEnd": ""
    },
    {
      "subId": 402423,
      "mainId": 4024,
      "order": 99,
      "isMpBlock": true,
      "descTextMapHash": 3969934436,
      "finishCond": [
        {
          "damageRatio": "QUEST_CONTENT_COMPLETE_TALK",
          "param": [
            402420,
            0
          ]
        }
      ],
      "failCond": [
        {
          "damageRatio": "QUEST_CONTENT_LEAVE_SCENE",
          "param": [
            20202,
            0
          ]
        }
      ],
      "guide": {
        "guideScene": 3,
        "guideStyle": "QUEST_GUIDE_STYLE_TARGET",
        "guideLayer": "QUEST_GUIDE_LAYER_SCENE",
        "MLAHIFLGIGJ": ""
      },
      "showGuide": "QUEST_GUIDE_ITEM_DISABLE",
      "guideHint": {
        "param1": ""
      },
      "MEMGANDALKN": "QUEST_HIDDEN",
      "isRewind": true,
      "failExec": [
        {
          "damageRatio": "QUEST_EXEC_ROLLBACK_QUEST",
          "param": [
            "402401"
          ]
        },
        {
          "damageRatio": "QUEST_EXEC_UNLOCK_AVATAR_TEAM_V2"
        },
        {
          "damageRatio": "QUEST_EXEC_REMOVE_TRIAL_AVATAR",
          "param": [
            "80"
          ]
        }
      ],
      "versionBegin": "",
      "versionEnd": ""
    },
    {
      "subId": 402424,
      "mainId": 4024,
      "order": 14,
      "isMpBlock": true,
      "descTextMapHash": 2167128364,
      "JIFODJPFKDF": [
        108501
      ],
      "finishCond": [
        {
          "damageRatio": "QUEST_CONTENT_COMPLETE_TALK",
          "param": [
            402430,
            0
          ]
        }
      ],
      "failCond": [
        {
          "damageRatio": "QUEST_CONTENT_LEAVE_SCENE",
          "param": [
            20202,
            0
          ]
        },
        {
          "damageRatio": "QUEST_CONTENT_FAIL_DUNGEON",
          "param": [
            1189,
            0
          ]
        },
        {
          "damageRatio": "QUEST_CONTENT_ENTER_MY_WORLD",
          "param": [
            3,
            0
          ]
        }
      ],
      "guide": {
        "damageRatio": "QUEST_GUIDE_NPC",
        "param": [
          "13316"
        ],
        "guideScene": 20202,
        "guideStyle": "QUEST_GUIDE_STYLE_TARGET",
        "guideLayer": "QUEST_GUIDE_LAYER_SCENE",
        "MLAHIFLGIGJ": ""
      },
      "guideHint": {
        "param1": ""
      },
      "isRewind": true,
      "finishExec": [
        {
          "damageRatio": "QUEST_EXEC_REFRESH_GROUP_SUITE",
          "param": [
            "20202",
            "220202006,2"
          ]
        }
      ],
      "failExec": [
        {
          "damageRatio": "QUEST_EXEC_ROLLBACK_QUEST",
          "param": [
            "402401"
          ]
        }
      ],
      "versionBegin": "",
      "versionEnd": ""
    },
    {
      "subId": 402425,
      "mainId": 4024,
      "order": 18,
      "isMpBlock": true,
      "descTextMapHash": 1117459676,
      "JIFODJPFKDF": [
        108501
      ],
      "finishCond": [
        {
          "damageRatio": "QUEST_CONTENT_COMPLETE_TALK",
          "param": [
            402414,
            0
          ]
        }
      ],
      "failCond": [
        {
          "damageRatio": "QUEST_CONTENT_LEAVE_SCENE",
          "param": [
            20202,
            0
          ]
        },
        {
          "damageRatio": "QUEST_CONTENT_FAIL_DUNGEON",
          "param": [
            1189,
            0
          ]
        },
        {
          "damageRatio": "QUEST_CONTENT_ENTER_MY_WORLD",
          "param": [
            3,
            0
          ]
        }
      ],
      "guide": {
        "damageRatio": "QUEST_GUIDE_NPC",
        "param": [
          "1073"
        ],
        "guideScene": 20202,
        "guideStyle": "QUEST_GUIDE_STYLE_TARGET",
        "guideLayer": "QUEST_GUIDE_LAYER_SCENE",
        "MLAHIFLGIGJ": ""
      },
      "guideHint": {
        "param1": ""
      },
      "isRewind": true,
      "finishExec": [
        {
          "damageRatio": "QUEST_EXEC_REFRESH_GROUP_SUITE",
          "param": [
            "20202",
            "220202001,5"
          ]
        }
      ],
      "failExec": [
        {
          "damageRatio": "QUEST_EXEC_ROLLBACK_QUEST",
          "param": [
            "402401"
          ]
        }
      ],
      "versionBegin": "",
      "versionEnd": ""
    },
    {
      "subId": 402426,
      "mainId": 4024,
      "order": 1,
      "descTextMapHash": 3749440028,
      "JIFODJPFKDF": [
        108501
      ],
      "finishCond": [
        {
          "damageRatio": "QUEST_CONTENT_FINISH_PLOT",
          "param": [
            402426,
            0
          ]
        }
      ],
      "guide": {
        "damageRatio": "QUEST_GUIDE_LOCATION",
        "param": [
          "[1085_321:0.031,8.875,8.622]"
        ],
        "guideScene": 1085,
        "guideStyle": "QUEST_GUIDE_STYLE_TARGET",
        "MLAHIFLGIGJ": ""
      },
      "guideHint": {
        "param1": ""
      },
      "isRewind": true,
      "versionBegin": "",
      "versionEnd": ""
    },
    {
      "subId": 402427,
      "mainId": 4024,
      "order": 39,
      "isMpBlock": true,
      "descTextMapHash": 5056484,
      "JIFODJPFKDF": [
        108501
      ],
      "finishCond": [
        {
          "damageRatio": "QUEST_CONTENT_LEAVE_SCENE",
          "param": [
            20198,
            0
          ]
        }
      ],
      "guide": {
        "MLAHIFLGIGJ": ""
      },
      "guideHint": {
        "param1": ""
      },
      "finishParent": true,
      "MEMGANDALKN": "QUEST_HIDDEN",
      "isRewind": true,
      "finishExec": [
        {
          "damageRatio": "QUEST_EXEC_SET_QUEST_GLOBAL_VAR",
          "param": [
            "400206",
            "0"
          ]
        },
        {
          "damageRatio": "QUEST_EXEC_REFRESH_GROUP_SUITE",
          "param": [
            "1086",
            "201086003,2"
          ]
        },
        {
          "damageRatio": "QUEST_EXEC_ADD_SCENE_TAG",
          "param": [
            "1086",
            "1379"
          ]
        },
        {
          "damageRatio": "QUEST_EXEC_DEL_SCENE_TAG",
          "param": [
            "1086",
            "1371"
          ]
        },
        {
          "damageRatio": "QUEST_EXEC_MODIFY_WEATHER_AREA",
          "param": [
            "10225",
            "0"
          ]
        }
      ],
      "versionBegin": "",
      "versionEnd": ""
    },
    {
      "subId": 402428,
      "mainId": 4024,
      "order": 30,
      "isMpBlock": true,
      "descTextMapHash": 3172730444,
      "showType": "QUEST_HIDDEN",
      "JIFODJPFKDF": [
        108501
      ],
      "finishCond": [
        {
          "damageRatio": "QUEST_CONTENT_FINISH_PLOT",
          "param": [
            402428,
            0
          ]
        }
      ],
      "failCond": [
        {
          "damageRatio": "QUEST_CONTENT_LEAVE_SCENE",
          "param": [
            20202,
            0
          ]
        },
        {
          "damageRatio": "QUEST_CONTENT_FAIL_DUNGEON",
          "param": [
            1189,
            0
          ]
        },
        {
          "damageRatio": "QUEST_CONTENT_ENTER_MY_WORLD",
          "param": [
            3,
            0
          ]
        }
      ],
      "guide": {
        "guideScene": 3,
        "guideStyle": "QUEST_GUIDE_STYLE_TARGET",
        "guideLayer": "QUEST_GUIDE_LAYER_SCENE",
        "MLAHIFLGIGJ": ""
      },
      "showGuide": "QUEST_GUIDE_ITEM_DISABLE",
      "guideHint": {
        "param1": ""
      },
      "finishExec": [
        {
          "damageRatio": "QUEST_EXEC_REFRESH_GROUP_SUITE",
          "param": [
            "20202",
            "220202002,6"
          ]
        },
        {
          "damageRatio": "QUEST_EXEC_REFRESH_GROUP_SUITE",
          "param": [
            "20202",
            "220202003,1"
          ]
        },
        {
          "damageRatio": "QUEST_EXEC_REFRESH_GROUP_SUITE",
          "param": [
            "20202",
            "220202001,5"
          ]
        }
      ],
      "versionBegin": "",
      "versionEnd": ""
    },
    {
      "subId": 402429,
      "mainId": 4024,
      "order": 21,
      "descTextMapHash": 4085153132,
      "showType": "QUEST_HIDDEN",
      "JIFODJPFKDF": [
        108501
      ],
      "finishCond": [
        {
          "damageRatio": "QUEST_CONTENT_FINISH_PLOT",
          "param": [
            402429,
            0
          ]
        }
      ],
      "failCond": [
        {
          "damageRatio": "QUEST_CONTENT_LEAVE_SCENE",
          "param": [
            20202,
            0
          ]
        },
        {
          "damageRatio": "QUEST_CONTENT_FAIL_DUNGEON",
          "param": [
            1189,
            0
          ]
        },
        {
          "damageRatio": "QUEST_CONTENT_ENTER_MY_WORLD",
          "param": [
            3,
            0
          ]
        }
      ],
      "guide": {
        "damageRatio": "QUEST_GUIDE_NPC",
        "param": [
          "1073"
        ],
        "guideScene": 3,
        "guideStyle": "QUEST_GUIDE_STYLE_TARGET",
        "guideLayer": "QUEST_GUIDE_LAYER_SCENE",
        "MLAHIFLGIGJ": ""
      },
      "showGuide": "QUEST_GUIDE_ITEM_DISABLE",
      "guideHint": {
        "param1": ""
      },
      "MEMGANDALKN": "QUEST_HIDDEN",
      "finishExec": [
        {
          "damageRatio": "QUEST_EXEC_NOTIFY_GROUP_LUA",
          "param": [
            "20202",
            "220202002"
          ]
        }
      ],
      "versionBegin": "",
      "versionEnd": ""
    },
    {
      "subId": 402430,
      "mainId": 4024,
      "order": 98,
      "descTextMapHash": 1886852540,
      "showType": "QUEST_HIDDEN",
      "finishCond": [
        {
          "damageRatio": "QUEST_CONTENT_COMPLETE_TALK",
          "param": [
            402405,
            0
          ]
        }
      ],
      "failCond": [
        {
          "damageRatio": "QUEST_CONTENT_LEAVE_SCENE",
          "param": [
            20202,
            0
          ]
        },
        {
          "damageRatio": "QUEST_CONTENT_FAIL_DUNGEON",
          "param": [
            1189,
            0
          ]
        },
        {
          "damageRatio": "QUEST_CONTENT_ENTER_MY_WORLD",
          "param": [
            3,
            0
          ]
        }
      ],
      "guide": {
        "damageRatio": "QUEST_GUIDE_NPC",
        "param": [
          "1073"
        ],
        "guideScene": 3,
        "guideStyle": "QUEST_GUIDE_STYLE_TARGET",
        "guideLayer": "QUEST_GUIDE_LAYER_SCENE",
        "MLAHIFLGIGJ": ""
      },
      "showGuide": "QUEST_GUIDE_ITEM_DISABLE",
      "guideHint": {
        "param1": ""
      },
      "MEMGANDALKN": "QUEST_HIDDEN",
      "versionBegin": "",
      "versionEnd": ""
    }
  ]
}