{
  "id": 41316,
  "damageRatio": "EQ",
  "titleTextMapHash": 218005815,
  "rewardIdList": [
    141316
  ],
  "showType": "QUEST_HIDDEN",
  "subQuests": [
    {
      "subId": 4131601,
      "mainId": 41316,
      "order": 1,
      "showType": "QUEST_HIDDEN",
      "finishCond": [
        {
          "damageRatio": "QUEST_CONTENT_FINISH_PLOT",
          "param": [
            4131601,
            0
          ]
        }
      ],
      "guide": {
        "MLAHIFLGIGJ": ""
      },
      "showGuide": "QUEST_GUIDE_ITEM_DISABLE",
      "guideHint": {
        "param1": ""
      },
      "finishParent": true,
      "isRewind": true,
      "versionBegin": "",
      "versionEnd": ""
    }
  ]
}