{
  "id": 41317,
  "damageRatio": "EQ",
  "titleTextMapHash": 870908743,
  "rewardIdList": [
    141317
  ],
  "showType": "QUEST_HIDDEN",
  "subQuests": [
    {
      "subId": 4131701,
      "mainId": 41317,
      "order": 1,
      "showType": "QUEST_HIDDEN",
      "finishCond": [
        {
          "damageRatio": "QUEST_CONTENT_COMPLETE_TALK",
          "param": [
            4131111,
            0
          ]
        }
      ],
      "guide": {
        "MLAHIFLGIGJ": ""
      },
      "showGuide": "QUEST_GUIDE_ITEM_DISABLE",
      "guideHint": {
        "param1": ""
      },
      "finishParent": true,
      "isRewind": true,
      "versionBegin": "",
      "versionEnd": ""
    }
  ]
}