{
  "id": 419,
  "damageRatio": "WQ",
  "titleTextMapHash": 3792806609,
  "descTextMapHash": 1821918263,
  "subQuests": [
    {
      "subId": 41901,
      "mainId": 419,
      "order": 1,
      "descTextMapHash": 966746287,
      "showType": "QUEST_HIDDEN",
      "finishCond": [
        {
          "damageRatio": "QUEST_CONTENT_LUA_NOTIFY",
          "param": [
            0,
            0
          ],
          "count": 1
        }
      ],
      "guide": {
        "damageRatio": "QUEST_GUIDE_LOCATION",
        "param": [
          "Q418_Sun",
          "20"
        ],
        "MLAHIFLGIGJ": ""
      },
      "guideHint": {
        "param1": ""
      },
      "finishParent": true,
      "isRewind": true,
      "finishExec": [
        {
          "damageRatio": "QUEST_EXEC_NOTIFY_GROUP_LUA",
          "param": [
            "3",
            "133001109"
          ]
        }
      ],
      "versionBegin": "",
      "versionEnd": ""
    }
  ]
}