{
  "id": 423,
  "damageRatio": "WQ",
  "titleTextMapHash": 171490209,
  "descTextMapHash": 1756947231,
  "subQuests": [
    {
      "subId": 42301,
      "mainId": 423,
      "order": 1,
      "descTextMapHash": 605151255,
      "showType": "QUEST_HIDDEN",
      "finishCond": [
        {
          "damageRatio": "QUEST_CONTENT_TRIGGER_FIRE",
          "param": [
            1074,
            0
          ]
        }
      ],
      "guide": {
        "param": [
          "Q418_Meat",
          "20"
        ],
        "MLAHIFLGIGJ": ""
      },
      "guideHint": {
        "param1": ""
      },
      "versionBegin": "",
      "versionEnd": ""
    },
    {
      "subId": 42302,
      "mainId": 423,
      "order": 2,
      "descTextMapHash": 1730915959,
      "finishCond": [
        {
          "damageRatio": "QUEST_CONTENT_CLEAR_GROUP_MONSTER",
          "param": [
            133001166,
            0
          ]
        }
      ],
      "guide": {
        "MLAHIFLGIGJ": ""
      },
      "guideHint": {
        "param1": ""
      },
      "finishParent": true,
      "isRewind": true,
      "versionBegin": "",
      "versionEnd": ""
    }
  ]
}