{
  "id": 491,
  "series": 2002,
  "damageRatio": "WQ",
  "titleTextMapHash": 3948500297,
  "descTextMapHash": 1996211023,
  "showType": "QUEST_HIDDEN",
  "chapterId": 2002,
  "subQuests": [
    {
      "subId": 49101,
      "mainId": 491,
      "order": 2,
      "descTextMapHash": 970054184,
      "showType": "QUEST_HIDDEN",
      "finishCond": [
        {
          "damageRatio": "QUEST_CONTENT_ENTER_MY_WORLD",
          "param": [
            3,
            0
          ]
        }
      ],
      "guide": {
        "MLAHIFLGIGJ": ""
      },
      "guideHint": {
        "param1": ""
      },
      "finishParent": true,
      "versionBegin": "",
      "versionEnd": ""
    },
    {
      "subId": 49102,
      "mainId": 491,
      "order": 1,
      "descTextMapHash": 2759006304,
      "showType": "QUEST_HIDDEN",
      "finishCond": [
        {
          "damageRatio": "QUEST_CONTENT_TRIGGER_FIRE",
          "param": [
            1171,
            0
          ]
        }
      ],
      "guide": {
        "MLAHIFLGIGJ": ""
      },
      "guideHint": {
        "param1": ""
      },
      "isRewind": true,
      "finishExec": [
        {
          "damageRatio": "QUEST_EXEC_ROLLBACK_QUEST",
          "param": [
            "49102"
          ]
        }
      ],
      "versionBegin": "",
      "versionEnd": ""
    }
  ]
}