{
  "id": 5019,
  "titleTextMapHash": 3806078919,
  "descTextMapHash": 1351122494,
  "showType": "QUEST_HIDDEN",
  "subQuests": [
    {
      "subId": 501901,
      "mainId": 5019,
      "order": 1,
      "descTextMapHash": 484191340,
      "showType": "QUEST_HIDDEN",
      "finishCond": [
        {
          "damageRatio": "QUEST_CONTENT_QUEST_STATE_EQUAL",
          "param": [
            500703,
            3
          ]
        }
      ],
      "guide": {
        "MLAHIFLGIGJ": ""
      },
      "guideHint": {
        "param1": ""
      },
      "isRewind": true,
      "versionBegin": "",
      "versionEnd": ""
    },
    {
      "subId": 501902,
      "mainId": 5019,
      "order": 2,
      "descTextMapHash": 3675475492,
      "showType": "QUEST_HIDDEN",
      "finishCond": [
        {
          "damageRatio": "QUEST_CONTENT_QUEST_GLOBAL_VAR_EQUAL",
          "param": [
            501901,
            1
          ]
        }
      ],
      "guide": {
        "MLAHIFLGIGJ": ""
      },
      "guideHint": {
        "param1": ""
      },
      "finishParent": true,
      "isRewind": true,
      "versionBegin": "",
      "versionEnd": ""
    }
  ]
}