{
  "id": 70025,
  "damageRatio": "WQ",
  "mainQuestTag": "MAINQUEST_TAG_ACTIVITY",
  "titleTextMapHash": 1726657567,
  "descTextMapHash": 3208492094,
  "rewardIdList": [
    170025
  ],
  "subQuests": [
    {
      "subId": 7002501,
      "mainId": 70025,
      "order": 1,
      "descTextMapHash": 913746980,
      "finishCond": [
        {
          "damageRatio": "QUEST_CONTENT_COMPLETE_TALK",
          "param": [
            7002501,
            0
          ]
        }
      ],
      "guide": {
        "damageRatio": "QUEST_GUIDE_NPC",
        "autoGuide": "QUEST_GUIDE_AUTO_ENABLE",
        "param": [
          "151201",
          "SELECT_NPC_NONE"
        ],
        "guideScene": 3,
        "guideStyle": "QUEST_GUIDE_STYLE_TARGET",
        "guideLayer": "QUEST_GUIDE_LAYER_SCENE",
        "MLAHIFLGIGJ": ""
      },
      "guideHint": {
        "param1": ""
      },
      "isRewind": true,
      "versionBegin": "",
      "versionEnd": ""
    },
    {
      "subId": 7002502,
      "mainId": 70025,
      "order": 2,
      "descTextMapHash": 942192892,
      "finishCond": [
        {
          "damageRatio": "QUEST_CONTENT_COMPLETE_TALK",
          "param": [
            7002502,
            0
          ]
        }
      ],
      "guide": {
        "damageRatio": "QUEST_GUIDE_NPC",
        "autoGuide": "QUEST_GUIDE_AUTO_ENABLE",
        "param": [
          "156501",
          "SELECT_NPC_NONE"
        ],
        "guideScene": 1004,
        "guideStyle": "QUEST_GUIDE_STYLE_TARGET",
        "guideLayer": "QUEST_GUIDE_LAYER_SCENE",
        "MLAHIFLGIGJ": ""
      },
      "guideHint": {
        "param1": ""
      },
      "finishParent": true,
      "isRewind": true,
      "versionBegin": "",
      "versionEnd": ""
    }
  ]
}