{
  "id": 70044,
  "damageRatio": "WQ",
  "showType": "QUEST_HIDDEN",
  "subQuests": [
    {
      "subId": 7004401,
      "mainId": 70044,
      "order": 1,
      "showType": "QUEST_HIDDEN",
      "finishCond": [
        {
          "damageRatio": "QUEST_CONTENT_FINISH_PLOT",
          "param": [
            7004401,
            0
          ]
        }
      ],
      "guide": {
        "MLAHIFLGIGJ": ""
      },
      "showGuide": "QUEST_GUIDE_ITEM_DISABLE",
      "guideHint": {
        "param1": ""
      },
      "finishParent": true,
      "failParentShow": "QUEST_HIDDEN",
      "isRewind": true,
      "finishExec": [
        {
          "damageRatio": "QUEST_EXEC_UNLOCK_POINT",
          "param": [
            "3",
            "912"
          ]
        }
      ],
      "versionBegin": "",
      "versionEnd": ""
    }
  ]
}