{
  "id": 70500,
  "damageRatio": "WQ",
  "mainQuestTag": "MAINQUEST_TAG_ACTIVITY",
  "titleTextMapHash": 1335134247,
  "descTextMapHash": 3376223486,
  "rewardIdList": [
    170500
  ],
  "subQuests": [
    {
      "subId": 7050001,
      "mainId": 70500,
      "order": 2,
      "descTextMapHash": 1712275756,
      "finishCond": [
        {
          "damageRatio": "QUEST_CONTENT_FINISH_PLOT",
          "param": [
            7050001,
            0
          ]
        }
      ],
      "guide": {
        "damageRatio": "QUEST_GUIDE_NPC",
        "autoGuide": "QUEST_GUIDE_AUTO_ENABLE",
        "param": [
          "10258"
        ],
        "guideScene": 3,
        "guideStyle": "QUEST_GUIDE_STYLE_TARGET",
        "guideLayer": "QUEST_GUIDE_LAYER_UI",
        "MLAHIFLGIGJ": ""
      },
      "guideHint": {
        "param1": ""
      },
      "isRewind": true,
      "finishExec": [
        {
          "damageRatio": "QUEST_EXEC_NOTIFY_GROUP_LUA",
          "param": [
            "3",
            "133105038"
          ]
        }
      ],
      "versionBegin": "",
      "versionEnd": ""
    },
    {
      "subId": 7050002,
      "mainId": 70500,
      "order": 3,
      "descTextMapHash": 1558750204,
      "guideTipsTextMapHash": 1953599702,
      "finishCond": [
        {
          "damageRatio": "QUEST_CONTENT_LUA_NOTIFY",
          "param": [
            0,
            0
          ],
          "count": 1
        }
      ],
      "guide": {
        "MLAHIFLGIGJ": ""
      },
      "showGuide": "QUEST_GUIDE_ITEM_DISABLE",
      "guideHint": {
        "param1": ""
      },
      "isRewind": true,
      "finishExec": [
        {
          "damageRatio": "QUEST_EXEC_NOTIFY_GROUP_LUA",
          "param": [
            "3",
            "133105041"
          ]
        }
      ],
      "versionBegin": "",
      "versionEnd": ""
    },
    {
      "subId": 7050003,
      "mainId": 70500,
      "order": 4,
      "descTextMapHash": 2422713556,
      "finishCond": [
        {
          "damageRatio": "QUEST_CONTENT_FINISH_ITEM_GIVING",
          "param": [
            7050001,
            0
          ]
        }
      ],
      "guide": {
        "damageRatio": "QUEST_GUIDE_NPC",
        "autoGuide": "QUEST_GUIDE_AUTO_ENABLE",
        "param": [
          "10258"
        ],
        "guideScene": 3,
        "guideStyle": "QUEST_GUIDE_STYLE_TARGET",
        "guideLayer": "QUEST_GUIDE_LAYER_UI",
        "MLAHIFLGIGJ": ""
      },
      "guideHint": {
        "param1": ""
      },
      "isRewind": true,
      "finishExec": [
        {
          "damageRatio": "QUEST_EXEC_NOTIFY_GROUP_LUA",
          "param": [
            "3",
            "133105038"
          ]
        }
      ],
      "versionBegin": "",
      "versionEnd": ""
    },
    {
      "subId": 7050004,
      "mainId": 70500,
      "order": 8,
      "isMpBlock": true,
      "descTextMapHash": 3987775436,
      "finishCond": [
        {
          "damageRatio": "QUEST_CONTENT_LUA_NOTIFY",
          "param": [
            0,
            0
          ],
          "count": 1
        }
      ],
      "failCond": [
        {
          "damageRatio": "QUEST_CONTENT_LUA_NOTIFY",
          "param": [
            0,
            0
          ],
          "count": 1
        }
      ],
      "guide": {
        "MLAHIFLGIGJ": ""
      },
      "showGuide": "QUEST_GUIDE_ITEM_DISABLE",
      "guideHint": {
        "param1": ""
      },
      "isRewind": true,
      "versionBegin": "",
      "versionEnd": ""
    },
    {
      "subId": 7050005,
      "mainId": 70500,
      "order": 10,
      "descTextMapHash": 1626078796,
      "finishCond": [
        {
          "damageRatio": "QUEST_CONTENT_FINISH_ITEM_GIVING",
          "param": [
            7050002,
            0
          ]
        }
      ],
      "guide": {
        "damageRatio": "QUEST_GUIDE_NPC",
        "autoGuide": "QUEST_GUIDE_AUTO_ENABLE",
        "param": [
          "10258"
        ],
        "guideScene": 3,
        "guideStyle": "QUEST_GUIDE_STYLE_TARGET",
        "guideLayer": "QUEST_GUIDE_LAYER_UI",
        "MLAHIFLGIGJ": ""
      },
      "guideHint": {
        "param1": ""
      },
      "isRewind": true,
      "versionBegin": "",
      "versionEnd": ""
    },
    {
      "subId": 7050006,
      "mainId": 70500,
      "order": 9,
      "descTextMapHash": 1383585004,
      "finishCond": [
        {
          "damageRatio": "QUEST_CONTENT_COMPLETE_TALK",
          "param": [
            7050004,
            0
          ]
        }
      ],
      "guide": {
        "damageRatio": "QUEST_GUIDE_NPC",
        "autoGuide": "QUEST_GUIDE_AUTO_ENABLE",
        "param": [
          "10258"
        ],
        "guideScene": 3,
        "guideStyle": "QUEST_GUIDE_STYLE_TARGET",
        "guideLayer": "QUEST_GUIDE_LAYER_UI",
        "MLAHIFLGIGJ": ""
      },
      "guideHint": {
        "param1": ""
      },
      "isRewind": true,
      "finishExec": [
        {
          "damageRatio": "QUEST_EXEC_NOTIFY_GROUP_LUA",
          "param": [
            "3",
            "133105041"
          ]
        },
        {
          "damageRatio": "QUEST_EXEC_ROLLBACK_QUEST",
          "param": [
            "7050010"
          ]
        }
      ],
      "versionBegin": "",
      "versionEnd": ""
    },
    {
      "subId": 7050007,
      "mainId": 70500,
      "order": 5,
      "descTextMapHash": 713957732,
      "finishCond": [
        {
          "damageRatio": "QUEST_CONTENT_COMPLETE_TALK",
          "param": [
            7050005,
            0
          ]
        }
      ],
      "guide": {
        "damageRatio": "QUEST_GUIDE_NPC",
        "autoGuide": "QUEST_GUIDE_AUTO_ENABLE",
        "param": [
          "10258"
        ],
        "guideScene": 3,
        "guideStyle": "QUEST_GUIDE_STYLE_TARGET",
        "guideLayer": "QUEST_GUIDE_LAYER_UI",
        "MLAHIFLGIGJ": ""
      },
      "guideHint": {
        "param1": ""
      },
      "isRewind": true,
      "versionBegin": "",
      "versionEnd": ""
    },
    {
      "subId": 7050008,
      "mainId": 70500,
      "order": 11,
      "descTextMapHash": 567219252,
      "finishCond": [
        {
          "damageRatio": "QUEST_CONTENT_COMPLETE_TALK",
          "param": [
            7050007,
            0
          ]
        }
      ],
      "guide": {
        "damageRatio": "QUEST_GUIDE_NPC",
        "autoGuide": "QUEST_GUIDE_AUTO_ENABLE",
        "param": [
          "10258"
        ],
        "guideScene": 3,
        "guideStyle": "QUEST_GUIDE_STYLE_TARGET",
        "guideLayer": "QUEST_GUIDE_LAYER_UI",
        "MLAHIFLGIGJ": ""
      },
      "guideHint": {
        "param1": ""
      },
      "finishParent": true,
      "isRewind": true,
      "finishExec": [
        {
          "damageRatio": "QUEST_EXEC_UNREGISTER_DYNAMIC_GROUP",
          "param": [
            "133105038",
            "1"
          ]
        },
        {
          "damageRatio": "QUEST_EXEC_UNREGISTER_DYNAMIC_GROUP",
          "param": [
            "133105041"
          ]
        },
        {
          "damageRatio": "QUEST_EXEC_UNREGISTER_DYNAMIC_GROUP",
          "param": [
            "133105043"
          ]
        }
      ],
      "versionBegin": "",
      "versionEnd": ""
    },
    {
      "subId": 7050009,
      "mainId": 70500,
      "order": 6,
      "descTextMapHash": 1527489300,
      "finishCond": [
        {
          "damageRatio": "QUEST_CONTENT_COMPLETE_TALK",
          "param": [
            7050009,
            0
          ]
        }
      ],
      "guide": {
        "damageRatio": "QUEST_GUIDE_NPC",
        "autoGuide": "QUEST_GUIDE_AUTO_ENABLE",
        "param": [
          "10258"
        ],
        "guideScene": 3,
        "guideStyle": "QUEST_GUIDE_STYLE_TARGET",
        "guideLayer": "QUEST_GUIDE_LAYER_UI",
        "MLAHIFLGIGJ": ""
      },
      "guideHint": {
        "param1": ""
      },
      "isRewind": true,
      "versionBegin": "",
      "versionEnd": ""
    },
    {
      "subId": 7050010,
      "mainId": 70500,
      "order": 7,
      "isMpBlock": true,
      "descTextMapHash": 440330180,
      "showType": "QUEST_HIDDEN",
      "finishCond": [
        {
          "damageRatio": "QUEST_CONTENT_FINISH_PLOT",
          "param": [
            7050010,
            0
          ]
        }
      ],
      "guide": {
        "MLAHIFLGIGJ": ""
      },
      "showGuide": "QUEST_GUIDE_ITEM_DISABLE",
      "guideHint": {
        "param1": ""
      },
      "isRewind": true,
      "versionBegin": "",
      "versionEnd": ""
    },
    {
      "subId": 7050011,
      "mainId": 70500,
      "order": 1,
      "showType": "QUEST_HIDDEN",
      "finishCond": [
        {
          "damageRatio": "QUEST_CONTENT_FINISH_PLOT",
          "param": [
            7050011,
            0
          ]
        }
      ],
      "guide": {
        "MLAHIFLGIGJ": ""
      },
      "guideHint": {
        "param1": ""
      },
      "isRewind": true,
      "versionBegin": "",
      "versionEnd": ""
    }
  ]
}