{
  "id": 70652,
  "damageRatio": "WQ",
  "titleTextMapHash": 1284731607,
  "descTextMapHash": 2935612766,
  "rewardIdList": [
    170652
  ],
  "subQuests": [
    {
      "subId": 7065201,
      "mainId": 70652,
      "order": 1,
      "descTextMapHash": 2883630180,
      "finishCond": [
        {
          "damageRatio": "QUEST_CONTENT_COMPLETE_TALK",
          "param": [
            7065201,
            0
          ]
        }
      ],
      "guide": {
        "damageRatio": "QUEST_GUIDE_NPC",
        "param": [
          "30038"
        ],
        "guideScene": 3,
        "guideStyle": "QUEST_GUIDE_STYLE_TARGET",
        "guideLayer": "QUEST_GUIDE_LAYER_SCENE",
        "MLAHIFLGIGJ": ""
      },
      "guideHint": {
        "param1": ""
      },
      "finishParent": true,
      "isRewind": true,
      "versionBegin": "",
      "versionEnd": ""
    }
  ]
}