{
  "id": 70904,
  "damageRatio": "WQ",
  "titleTextMapHash": 64388071,
  "descTextMapHash": 3592824678,
  "rewardIdList": [
    551015
  ],
  "showType": "QUEST_HIDDEN",
  "subQuests": [
    {
      "subId": 7090401,
      "mainId": 70904,
      "order": 1,
      "showType": "QUEST_HIDDEN",
      "finishCond": [
        {
          "damageRatio": "QUEST_CONTENT_COMPLETE_TALK",
          "param": [
            7090401,
            0
          ]
        }
      ],
      "guide": {
        "MLAHIFLGIGJ": ""
      },
      "guideHint": {
        "param1": ""
      },
      "finishParent": true,
      "versionBegin": "",
      "versionEnd": ""
    }
  ]
}