{
  "id": 70913,
  "damageRatio": "WQ",
  "titleTextMapHash": 2960670367,
  "descTextMapHash": 2737451030,
  "rewardIdList": [
    551008
  ],
  "showType": "QUEST_HIDDEN",
  "subQuests": [
    {
      "subId": 7091301,
      "mainId": 70913,
      "order": 1,
      "showType": "QUEST_HIDDEN",
      "finishCond": [
        {
          "damageRatio": "QUEST_CONTENT_COMPLETE_TALK",
          "param": [
            7091301,
            0
          ]
        }
      ],
      "guide": {
        "MLAHIFLGIGJ": ""
      },
      "guideHint": {
        "param1": ""
      },
      "finishParent": true,
      "versionBegin": "",
      "versionEnd": ""
    }
  ]
}