{
  "id": 70910,
  "damageRatio": "WQ",
  "titleTextMapHash": 812697423,
  "descTextMapHash": 2376104782,
  "rewardIdList": [
    551005
  ],
  "showType": "QUEST_HIDDEN",
  "subQuests": [
    {
      "subId": 7091001,
      "mainId": 70910,
      "order": 1,
      "showType": "QUEST_HIDDEN",
      "finishCond": [
        {
          "damageRatio": "QUEST_CONTENT_COMPLETE_TALK",
          "param": [
            7091001,
            0
          ]
        }
      ],
      "guide": {
        "MLAHIFLGIGJ": ""
      },
      "guideHint": {
        "param1": ""
      },
      "finishParent": true,
      "versionBegin": "",
      "versionEnd": ""
    }
  ]
}