{
  "id": 70917,
  "damageRatio": "WQ",
  "titleTextMapHash": 3557100271,
  "descTextMapHash": 155488374,
  "rewardIdList": [
    551013
  ],
  "showType": "QUEST_HIDDEN",
  "subQuests": [
    {
      "subId": 7091701,
      "mainId": 70917,
      "order": 1,
      "showType": "QUEST_HIDDEN",
      "finishCond": [
        {
          "damageRatio": "QUEST_CONTENT_COMPLETE_TALK",
          "param": [
            7091701,
            0
          ]
        }
      ],
      "guide": {
        "MLAHIFLGIGJ": ""
      },
      "guideHint": {
        "param1": ""
      },
      "finishParent": true,
      "versionBegin": "",
      "versionEnd": ""
    }
  ]
}