{
  "id": 70924,
  "damageRatio": "WQ",
  "titleTextMapHash": 2589536175,
  "descTextMapHash": 2509161102,
  "rewardIdList": [
    551022
  ],
  "showType": "QUEST_HIDDEN",
  "subQuests": [
    {
      "subId": 7092401,
      "mainId": 70924,
      "order": 1,
      "showType": "QUEST_HIDDEN",
      "finishCond": [
        {
          "damageRatio": "QUEST_CONTENT_COMPLETE_TALK",
          "param": [
            7092401,
            0
          ]
        }
      ],
      "guide": {
        "MLAHIFLGIGJ": ""
      },
      "guideHint": {
        "param1": ""
      },
      "finishParent": true,
      "versionBegin": "",
      "versionEnd": ""
    }
  ]
}