{
  "id": 70930,
  "damageRatio": "WQ",
  "titleTextMapHash": 1377198295,
  "descTextMapHash": 1611295750,
  "rewardIdList": [
    551028
  ],
  "showType": "QUEST_HIDDEN",
  "subQuests": [
    {
      "subId": 7093001,
      "mainId": 70930,
      "order": 1,
      "showType": "QUEST_HIDDEN",
      "finishCond": [
        {
          "damageRatio": "QUEST_CONTENT_COMPLETE_TALK",
          "param": [
            7093001,
            0
          ]
        }
      ],
      "guide": {
        "MLAHIFLGIGJ": ""
      },
      "guideHint": {
        "param1": ""
      },
      "finishParent": true,
      "versionBegin": "",
      "versionEnd": ""
    }
  ]
}