{
  "id": 70932,
  "damageRatio": "WQ",
  "titleTextMapHash": 3760160495,
  "descTextMapHash": 3308624358,
  "rewardIdList": [
    551030
  ],
  "showType": "QUEST_HIDDEN",
  "subQuests": [
    {
      "subId": 7093201,
      "mainId": 70932,
      "order": 1,
      "showType": "QUEST_HIDDEN",
      "finishCond": [
        {
          "damageRatio": "QUEST_CONTENT_COMPLETE_TALK",
          "param": [
            7093201,
            0
          ]
        }
      ],
      "guide": {
        "MLAHIFLGIGJ": ""
      },
      "guideHint": {
        "param1": ""
      },
      "finishParent": true,
      "versionBegin": "",
      "versionEnd": ""
    }
  ]
}