{
  "id": 70934,
  "damageRatio": "WQ",
  "titleTextMapHash": 2989391095,
  "descTextMapHash": 1349014118,
  "rewardIdList": [
    551032
  ],
  "showType": "QUEST_HIDDEN",
  "subQuests": [
    {
      "subId": 7093401,
      "mainId": 70934,
      "order": 1,
      "showType": "QUEST_HIDDEN",
      "finishCond": [
        {
          "damageRatio": "QUEST_CONTENT_COMPLETE_TALK",
          "param": [
            7093401,
            0
          ]
        }
      ],
      "guide": {
        "MLAHIFLGIGJ": ""
      },
      "guideHint": {
        "param1": ""
      },
      "finishParent": true,
      "versionBegin": "",
      "versionEnd": ""
    }
  ]
}