{
  "id": 70941,
  "damageRatio": "WQ",
  "titleTextMapHash": 3384605231,
  "descTextMapHash": 3793249038,
  "rewardIdList": [
    551040
  ],
  "showType": "QUEST_HIDDEN",
  "subQuests": [
    {
      "subId": 7094101,
      "mainId": 70941,
      "order": 1,
      "showType": "QUEST_HIDDEN",
      "finishCond": [
        {
          "damageRatio": "QUEST_CONTENT_COMPLETE_TALK",
          "param": [
            7094101,
            0
          ]
        }
      ],
      "guide": {
        "MLAHIFLGIGJ": ""
      },
      "guideHint": {
        "param1": ""
      },
      "finishParent": true,
      "versionBegin": "",
      "versionEnd": ""
    }
  ]
}