{
  "id": 71067,
  "series": 71035,
  "damageRatio": "WQ",
  "titleTextMapHash": 2982802775,
  "showType": "QUEST_HIDDEN",
  "subQuests": [
    {
      "subId": 7106701,
      "mainId": 71067,
      "order": 1,
      "showType": "QUEST_HIDDEN",
      "finishCond": [
        {
          "damageRatio": "QUEST_CONTENT_FINISH_PLOT",
          "param": [
            7106701,
            0
          ]
        },
        {
          "damageRatio": "QUEST_CONTENT_ANY_MANUAL_TRANSPORT",
          "param": [
            0,
            0
          ]
        }
      ],
      "guide": {
        "MLAHIFLGIGJ": ""
      },
      "guideHint": {
        "param1": ""
      },
      "finishParent": true,
      "failParentShow": "QUEST_HIDDEN",
      "finishExec": [
        {
          "damageRatio": "QUEST_EXEC_NOTIFY_GROUP_LUA",
          "param": [
            "3",
            "133107219"
          ]
        }
      ],
      "versionBegin": "",
      "versionEnd": ""
    }
  ]
}