{
  "id": 71089,
  "damageRatio": "WQ",
  "titleTextMapHash": 2923071199,
  "descTextMapHash": 3077642894,
  "showType": "QUEST_HIDDEN",
  "subQuests": [
    {
      "subId": 7108901,
      "mainId": 71089,
      "order": 1,
      "descTextMapHash": 25040596,
      "showType": "QUEST_HIDDEN",
      "finishCond": [
        {
          "damageRatio": "QUEST_CONTENT_OBTAIN_ITEM",
          "param": [
            101724,
            0
          ],
          "count": 1
        }
      ],
      "guide": {
        "MLAHIFLGIGJ": ""
      },
      "guideHint": {
        "param1": ""
      },
      "isRewind": true,
      "versionBegin": "",
      "versionEnd": ""
    },
    {
      "subId": 7108902,
      "mainId": 71089,
      "order": 2,
      "descTextMapHash": 273114196,
      "showType": "QUEST_HIDDEN",
      "finishCond": [
        {
          "damageRatio": "QUEST_CONTENT_COMPLETE_TALK",
          "param": [
            7108901,
            0
          ]
        }
      ],
      "guide": {
        "MLAHIFLGIGJ": ""
      },
      "guideHint": {
        "param1": ""
      },
      "isRewind": true,
      "finishExec": [
        {
          "damageRatio": "QUEST_EXEC_NOTIFY_GROUP_LUA",
          "param": [
            "6",
            "166001309"
          ]
        }
      ],
      "versionBegin": "",
      "versionEnd": ""
    },
    {
      "subId": 7108903,
      "mainId": 71089,
      "order": 3,
      "descTextMapHash": 623040316,
      "showType": "QUEST_HIDDEN",
      "finishCond": [
        {
          "damageRatio": "QUEST_CONTENT_COMPLETE_TALK",
          "param": [
            7108902,
            0
          ]
        }
      ],
      "guide": {
        "MLAHIFLGIGJ": ""
      },
      "guideHint": {
        "param1": ""
      },
      "finishParent": true,
      "isRewind": true,
      "versionBegin": "",
      "versionEnd": ""
    }
  ]
}