{
  "id": 71092,
  "damageRatio": "WQ",
  "titleTextMapHash": 2678525351,
  "showType": "QUEST_HIDDEN",
  "subQuests": [
    {
      "subId": 7109201,
      "mainId": 71092,
      "order": 1,
      "descTextMapHash": 3402477924,
      "showType": "QUEST_HIDDEN",
      "finishCond": [
        {
          "damageRatio": "QUEST_CONTENT_FINISH_PLOT",
          "param": [
            7109201,
            0
          ]
        }
      ],
      "guide": {
        "MLAHIFLGIGJ": ""
      },
      "guideHint": {
        "param1": ""
      },
      "finishParent": true,
      "versionBegin": "",
      "versionEnd": ""
    }
  ]
}