{
  "id": 71123,
  "damageRatio": "WQ",
  "titleTextMapHash": 973317439,
  "descTextMapHash": 1743206390,
  "showType": "QUEST_HIDDEN",
  "subQuests": [
    {
      "subId": 7112301,
      "mainId": 71123,
      "order": 1,
      "descTextMapHash": 2905795396,
      "showType": "QUEST_HIDDEN",
      "finishCond": [
        {
          "damageRatio": "QUEST_CONTENT_FINISH_PLOT",
          "param": [
            7112301,
            0
          ]
        }
      ],
      "guide": {
        "MLAHIFLGIGJ": ""
      },
      "guideHint": {
        "param1": ""
      },
      "isRewind": true,
      "versionBegin": "",
      "versionEnd": ""
    },
    {
      "subId": 7112302,
      "mainId": 71123,
      "order": 2,
      "descTextMapHash": 4111806804,
      "showType": "QUEST_HIDDEN",
      "finishCond": [
        {
          "damageRatio": "QUEST_CONTENT_FINISH_PLOT",
          "param": [
            7112302,
            0
          ]
        }
      ],
      "guide": {
        "MLAHIFLGIGJ": ""
      },
      "guideHint": {
        "param1": ""
      },
      "isRewind": true,
      "versionBegin": "",
      "versionEnd": ""
    }
  ]
}