{
  "id": 71140,
  "damageRatio": "WQ",
  "titleTextMapHash": 293747351,
  "rewardIdList": [
    171121
  ],
  "showType": "QUEST_HIDDEN",
  "subQuests": [
    {
      "subId": 7114001,
      "mainId": 71140,
      "order": 1,
      "showType": "QUEST_HIDDEN",
      "finishCond": [
        {
          "damageRatio": "QUEST_CONTENT_COMPLETE_TALK",
          "param": [
            7112102,
            0
          ]
        }
      ],
      "failCond": [
        {
          "damageRatio": "QUEST_CONTENT_GADGET_STATE_CHANGE",
          "param": [
            133114051,
            51039
          ]
        },
        {
          "damageRatio": "QUEST_CONTENT_GADGET_STATE_CHANGE",
          "param": [
            133114051,
            51046
          ]
        }
      ],
      "guide": {
        "MLAHIFLGIGJ": ""
      },
      "showGuide": "QUEST_GUIDE_ITEM_DISABLE",
      "guideHint": {
        "param1": ""
      },
      "finishParent": true,
      "failParent": true,
      "failParentShow": "QUEST_HIDDEN",
      "MEMGANDALKN": "QUEST_HIDDEN",
      "isRewind": true,
      "versionBegin": "",
      "versionEnd": ""
    }
  ]
}