{
  "id": 71521,
  "damageRatio": "WQ",
  "mainQuestTag": "MAINQUEST_TAG_GUIDE",
  "titleTextMapHash": 1439243719,
  "descTextMapHash": 2921717054,
  "rewardIdList": [
    171521
  ],
  "subQuests": [
    {
      "subId": 7152101,
      "mainId": 71521,
      "order": 1,
      "descTextMapHash": 2633372916,
      "finishCond": [
        {
          "damageRatio": "QUEST_CONTENT_COMPLETE_TALK",
          "param": [
            7152101,
            0
          ]
        }
      ],
      "guide": {
        "damageRatio": "QUEST_GUIDE_NPC",
        "param": [
          "30424"
        ],
        "guideScene": 3,
        "MLAHIFLGIGJ": ""
      },
      "guideHint": {
        "param1": ""
      },
      "finishParent": true,
      "isRewind": true,
      "versionBegin": "",
      "versionEnd": ""
    }
  ]
}