{
  "id": 71806,
  "damageRatio": "WQ",
  "titleTextMapHash": 3670918279,
  "showType": "QUEST_HIDDEN",
  "subQuests": [
    {
      "subId": 7180601,
      "mainId": 71806,
      "order": 1,
      "descTextMapHash": 1769692076,
      "showType": "QUEST_HIDDEN",
      "finishCond": [
        {
          "damageRatio": "QUEST_CONTENT_COMPLETE_TALK",
          "param": [
            6245603,
            0
          ]
        },
        {
          "damageRatio": "QUEST_CONTENT_COMPLETE_TALK",
          "param": [
            6245610,
            0
          ]
        }
      ],
      "guide": {
        "MLAHIFLGIGJ": ""
      },
      "guideHint": {
        "param1": ""
      },
      "failParentShow": "QUEST_HIDDEN",
      "isRewind": true,
      "versionBegin": "",
      "versionEnd": ""
    },
    {
      "subId": 7180602,
      "mainId": 71806,
      "order": 2,
      "descTextMapHash": 4285105828,
      "showType": "QUEST_HIDDEN",
      "finishCond": [
        {
          "damageRatio": "QUEST_CONTENT_FINISH_PLOT",
          "param": [
            7180602,
            0
          ]
        }
      ],
      "guide": {
        "MLAHIFLGIGJ": ""
      },
      "guideHint": {
        "param1": ""
      },
      "failParentShow": "QUEST_HIDDEN",
      "finishExec": [
        {
          "damageRatio": "QUEST_EXEC_ROLLBACK_QUEST",
          "param": [
            "7180601"
          ]
        }
      ],
      "versionBegin": "",
      "versionEnd": ""
    }
  ]
}