{
  "id": 71924,
  "damageRatio": "WQ",
  "titleTextMapHash": 3973976255,
  "descTextMapHash": 704678214,
  "rewardIdList": [
    552028
  ],
  "showType": "QUEST_HIDDEN",
  "subQuests": [
    {
      "subId": 7192401,
      "mainId": 71924,
      "order": 1,
      "showType": "QUEST_HIDDEN",
      "finishCond": [
        {
          "damageRatio": "QUEST_CONTENT_COMPLETE_TALK",
          "param": [
            7192401,
            0
          ]
        }
      ],
      "guide": {
        "MLAHIFLGIGJ": ""
      },
      "guideHint": {
        "param1": ""
      },
      "finishParent": true,
      "versionBegin": "",
      "versionEnd": ""
    }
  ]
}