{
  "id": 71936,
  "damageRatio": "WQ",
  "titleTextMapHash": 1892181767,
  "descTextMapHash": 648912478,
  "rewardIdList": [
    552041
  ],
  "showType": "QUEST_HIDDEN",
  "subQuests": [
    {
      "subId": 7193601,
      "mainId": 71936,
      "order": 1,
      "showType": "QUEST_HIDDEN",
      "finishCond": [
        {
          "damageRatio": "QUEST_CONTENT_COMPLETE_TALK",
          "param": [
            7193601,
            0
          ]
        }
      ],
      "guide": {
        "MLAHIFLGIGJ": ""
      },
      "guideHint": {
        "param1": ""
      },
      "finishParent": true,
      "versionBegin": "",
      "versionEnd": ""
    }
  ]
}