{
  "id": 71932,
  "damageRatio": "WQ",
  "titleTextMapHash": 173745375,
  "descTextMapHash": 3711445518,
  "rewardIdList": [
    552036
  ],
  "showType": "QUEST_HIDDEN",
  "subQuests": [
    {
      "subId": 7193201,
      "mainId": 71932,
      "order": 1,
      "showType": "QUEST_HIDDEN",
      "finishCond": [
        {
          "damageRatio": "QUEST_CONTENT_COMPLETE_TALK",
          "param": [
            7193201,
            0
          ]
        }
      ],
      "guide": {
        "MLAHIFLGIGJ": ""
      },
      "guideHint": {
        "param1": ""
      },
      "finishParent": true,
      "versionBegin": "",
      "versionEnd": ""
    }
  ]
}