{
  "id": 72258,
  "damageRatio": "WQ",
  "titleTextMapHash": 332789015,
  "descTextMapHash": 4039576118,
  "showType": "QUEST_HIDDEN",
  "subQuests": [
    {
      "subId": 7225801,
      "mainId": 72258,
      "order": 1,
      "showType": "QUEST_HIDDEN",
      "finishCond": [
        {
          "damageRatio": "QUEST_CONTENT_FINISH_ITEM_GIVING",
          "param": [
            7224407,
            0
          ]
        }
      ],
      "guide": {
        "MLAHIFLGIGJ": ""
      },
      "guideHint": {
        "param1": ""
      },
      "finishParent": true,
      "isRewind": true,
      "finishExec": [
        {
          "damageRatio": "QUEST_EXEC_NOTIFY_GROUP_LUA",
          "param": [
            "5",
            "155006046"
          ]
        }
      ],
      "versionBegin": "",
      "versionEnd": ""
    }
  ]
}