{
  "id": 72282,
  "damageRatio": "WQ",
  "titleTextMapHash": 179953855,
  "showType": "QUEST_HIDDEN",
  "subQuests": [
    {
      "subId": 7228201,
      "mainId": 72282,
      "order": 1,
      "descTextMapHash": 1766326732,
      "showType": "QUEST_HIDDEN",
      "finishCond": [
        {
          "damageRatio": "QUEST_CONTENT_OBTAIN_ITEM",
          "param": [
            101707,
            0
          ],
          "count": 1
        }
      ],
      "guide": {
        "MLAHIFLGIGJ": ""
      },
      "guideHint": {
        "param1": ""
      },
      "failParentShow": "QUEST_HIDDEN",
      "versionBegin": "",
      "versionEnd": ""
    },
    {
      "subId": 7228202,
      "mainId": 72282,
      "order": 2,
      "descTextMapHash": 1474260092,
      "showType": "QUEST_HIDDEN",
      "finishCond": [
        {
          "damageRatio": "QUEST_CONTENT_LUA_NOTIFY",
          "param": [
            0,
            0
          ],
          "count": 1
        }
      ],
      "guide": {
        "MLAHIFLGIGJ": ""
      },
      "guideHint": {
        "param1": ""
      },
      "finishParent": true,
      "failParentShow": "QUEST_HIDDEN",
      "versionBegin": "",
      "versionEnd": ""
    }
  ]
}