{
  "id": 72703,
  "damageRatio": "WQ",
  "titleTextMapHash": 2857727583,
  "descTextMapHash": 2824014214,
  "subQuests": [
    {
      "subId": 7270301,
      "mainId": 72703,
      "order": 1,
      "descTextMapHash": 1631526148,
      "finishCond": [
        {
          "damageRatio": "QUEST_CONTENT_LUA_NOTIFY",
          "param": [
            0,
            0
          ],
          "count": 1
        }
      ],
      "guide": {
        "damageRatio": "QUEST_GUIDE_LOCATION",
        "param": [
          "Q3_72703_0",
          "30"
        ],
        "guideScene": 3,
        "guideStyle": "QUEST_GUIDE_STYLE_TARGET",
        "guideLayer": "QUEST_GUIDE_LAYER_SCENE",
        "MLAHIFLGIGJ": ""
      },
      "guideHint": {
        "param1": ""
      },
      "finishParent": true,
      "isRewind": true,
      "finishExec": [
        {
          "damageRatio": "QUEST_EXEC_UNREGISTER_DYNAMIC_GROUP",
          "param": [
            "133220250"
          ]
        }
      ],
      "versionBegin": "",
      "versionEnd": ""
    }
  ]
}