{
  "id": 72722,
  "damageRatio": "WQ",
  "mainQuestTag": "MAINQUEST_TAG_GUIDE",
  "titleTextMapHash": 1022759687,
  "descTextMapHash": 3546900478,
  "rewardIdList": [
    172722
  ],
  "showType": "QUEST_HIDDEN",
  "subQuests": [
    {
      "subId": 7272201,
      "mainId": 72722,
      "order": 1,
      "showType": "QUEST_HIDDEN",
      "finishCond": [
        {
          "damageRatio": "QUEST_CONTENT_COMPLETE_TALK",
          "param": [
            7268701,
            0
          ]
        }
      ],
      "guide": {
        "MLAHIFLGIGJ": ""
      },
      "guideHint": {
        "param1": ""
      },
      "finishParent": true,
      "failParentShow": "QUEST_HIDDEN",
      "versionBegin": "",
      "versionEnd": ""
    }
  ]
}