{
  "id": 72814,
  "damageRatio": "WQ",
  "titleTextMapHash": 1369087135,
  "descTextMapHash": 997230854,
  "rewardIdList": [
    555055
  ],
  "showType": "QUEST_HIDDEN",
  "subQuests": [
    {
      "subId": 7281401,
      "mainId": 72814,
      "order": 1,
      "showType": "QUEST_HIDDEN",
      "finishCond": [
        {
          "damageRatio": "QUEST_CONTENT_COMPLETE_TALK",
          "param": [
            7281401,
            0
          ]
        }
      ],
      "guide": {
        "MLAHIFLGIGJ": ""
      },
      "guideHint": {
        "param1": ""
      },
      "finishParent": true,
      "versionBegin": "",
      "versionEnd": ""
    }
  ]
}