{
  "id": 72910,
  "damageRatio": "WQ",
  "titleTextMapHash": 310693863,
  "descTextMapHash": 3392728302,
  "rewardIdList": [
    553009
  ],
  "showType": "QUEST_HIDDEN",
  "subQuests": [
    {
      "subId": 7291001,
      "mainId": 72910,
      "order": 1,
      "showType": "QUEST_HIDDEN",
      "finishCond": [
        {
          "damageRatio": "QUEST_CONTENT_COMPLETE_TALK",
          "param": [
            7291001,
            0
          ]
        }
      ],
      "guide": {
        "MLAHIFLGIGJ": ""
      },
      "guideHint": {
        "param1": ""
      },
      "finishParent": true,
      "versionBegin": "",
      "versionEnd": ""
    }
  ]
}