{
  "id": 72927,
  "damageRatio": "WQ",
  "titleTextMapHash": 136663087,
  "descTextMapHash": 528176982,
  "rewardIdList": [
    553032
  ],
  "showType": "QUEST_HIDDEN",
  "subQuests": [
    {
      "subId": 7292701,
      "mainId": 72927,
      "order": 1,
      "showType": "QUEST_HIDDEN",
      "finishCond": [
        {
          "damageRatio": "QUEST_CONTENT_COMPLETE_TALK",
          "param": [
            7292701,
            0
          ]
        }
      ],
      "guide": {
        "MLAHIFLGIGJ": ""
      },
      "guideHint": {
        "param1": ""
      },
      "finishParent": true,
      "versionBegin": "",
      "versionEnd": ""
    }
  ]
}