{
  "id": 72921,
  "damageRatio": "WQ",
  "titleTextMapHash": 128994639,
  "descTextMapHash": 711389398,
  "rewardIdList": [
    553023
  ],
  "showType": "QUEST_HIDDEN",
  "subQuests": [
    {
      "subId": 7292101,
      "mainId": 72921,
      "order": 1,
      "showType": "QUEST_HIDDEN",
      "finishCond": [
        {
          "damageRatio": "QUEST_CONTENT_COMPLETE_TALK",
          "param": [
            7292101,
            0
          ]
        }
      ],
      "guide": {
        "MLAHIFLGIGJ": ""
      },
      "guideHint": {
        "param1": ""
      },
      "finishParent": true,
      "versionBegin": "",
      "versionEnd": ""
    }
  ]
}