{
  "id": 72926,
  "damageRatio": "WQ",
  "titleTextMapHash": 1494877543,
  "descTextMapHash": 3890250358,
  "rewardIdList": [
    553030
  ],
  "showType": "QUEST_HIDDEN",
  "subQuests": [
    {
      "subId": 7292601,
      "mainId": 72926,
      "order": 1,
      "showType": "QUEST_HIDDEN",
      "finishCond": [
        {
          "damageRatio": "QUEST_CONTENT_COMPLETE_TALK",
          "param": [
            7292601,
            0
          ]
        }
      ],
      "guide": {
        "MLAHIFLGIGJ": ""
      },
      "guideHint": {
        "param1": ""
      },
      "finishParent": true,
      "versionBegin": "",
      "versionEnd": ""
    }
  ]
}