{
  "id": 72933,
  "damageRatio": "WQ",
  "titleTextMapHash": 2437012415,
  "descTextMapHash": 2109763990,
  "rewardIdList": [
    553010
  ],
  "showType": "QUEST_HIDDEN",
  "subQuests": [
    {
      "subId": 7293301,
      "mainId": 72933,
      "order": 1,
      "showType": "QUEST_HIDDEN",
      "finishCond": [
        {
          "damageRatio": "QUEST_CONTENT_COMPLETE_TALK",
          "param": [
            6308609,
            0
          ]
        },
        {
          "damageRatio": "QUEST_CONTENT_COMPLETE_TALK",
          "param": [
            7293301,
            0
          ]
        }
      ],
      "guide": {
        "MLAHIFLGIGJ": ""
      },
      "guideHint": {
        "param1": ""
      },
      "finishParent": true,
      "versionBegin": "",
      "versionEnd": ""
    }
  ]
}