{
  "id": 72930,
  "damageRatio": "WQ",
  "titleTextMapHash": 1061177207,
  "descTextMapHash": 4082168990,
  "rewardIdList": [
    553012
  ],
  "showType": "QUEST_HIDDEN",
  "subQuests": [
    {
      "subId": 7293001,
      "mainId": 72930,
      "order": 1,
      "showType": "QUEST_HIDDEN",
      "finishCond": [
        {
          "damageRatio": "QUEST_CONTENT_COMPLETE_TALK",
          "param": [
            7293001,
            0
          ]
        }
      ],
      "guide": {
        "MLAHIFLGIGJ": ""
      },
      "guideHint": {
        "param1": ""
      },
      "finishParent": true,
      "versionBegin": "",
      "versionEnd": ""
    }
  ]
}