{
  "id": 72935,
  "damageRatio": "WQ",
  "titleTextMapHash": 3080368367,
  "descTextMapHash": 104858822,
  "rewardIdList": [
    553031
  ],
  "showType": "QUEST_HIDDEN",
  "subQuests": [
    {
      "subId": 7293501,
      "mainId": 72935,
      "order": 1,
      "showType": "QUEST_HIDDEN",
      "finishCond": [
        {
          "damageRatio": "QUEST_CONTENT_COMPLETE_TALK",
          "param": [
            7293501,
            0
          ]
        }
      ],
      "guide": {
        "MLAHIFLGIGJ": ""
      },
      "guideHint": {
        "param1": ""
      },
      "finishParent": true,
      "versionBegin": "",
      "versionEnd": ""
    }
  ]
}