{
  "id": 73232,
  "damageRatio": "WQ",
  "mainQuestTag": "MAINQUEST_TAG_RANK_ZERO_WQ",
  "titleTextMapHash": 4039256775,
  "descTextMapHash": 435386134,
  "rewardIdList": [
    173232
  ],
  "chapterId": 10121,
  "BONJIMPOJLG": true,
  "subQuests": [
    {
      "subId": 7323201,
      "mainId": 73232,
      "order": 1,
      "descTextMapHash": 2787195564,
      "finishCond": [
        {
          "damageRatio": "QUEST_CONTENT_FINISH_PLOT",
          "param": [
            7323201,
            0
          ]
        }
      ],
      "guide": {
        "damageRatio": "QUEST_GUIDE_LOCATION",
        "param": [
          "Q7323201_guide"
        ],
        "guideScene": 3,
        "guideStyle": "QUEST_GUIDE_STYLE_POINT",
        "guideLayer": "QUEST_GUIDE_LAYER_UI",
        "MLAHIFLGIGJ": ""
      },
      "guideHint": {
        "param1": ""
      },
      "isRewind": true,
      "versionBegin": "",
      "versionEnd": ""
    },
    {
      "subId": 7323202,
      "mainId": 73232,
      "order": 2,
      "descTextMapHash": 592188684,
      "finishCond": [
        {
          "damageRatio": "QUEST_CONTENT_FINISH_PLOT",
          "param": [
            7323202,
            0
          ]
        }
      ],
      "guide": {
        "damageRatio": "QUEST_GUIDE_LOCATION",
        "param": [
          "Q7323201_N20893"
        ],
        "guideScene": 3,
        "guideStyle": "QUEST_GUIDE_STYLE_POINT",
        "guideLayer": "QUEST_GUIDE_LAYER_UI",
        "MLAHIFLGIGJ": ""
      },
      "guideHint": {
        "param1": ""
      },
      "isRewind": true,
      "versionBegin": "",
      "versionEnd": ""
    },
    {
      "subId": 7323203,
      "mainId": 73232,
      "order": 3,
      "descTextMapHash": 2053688900,
      "finishCond": [
        {
          "damageRatio": "QUEST_CONTENT_COMPLETE_TALK",
          "param": [
            7323203,
            0
          ]
        }
      ],
      "guide": {
        "damageRatio": "QUEST_GUIDE_NPC",
        "param": [
          "20883"
        ],
        "guideScene": 3,
        "guideStyle": "QUEST_GUIDE_STYLE_TARGET",
        "guideLayer": "QUEST_GUIDE_LAYER_UI",
        "MLAHIFLGIGJ": ""
      },
      "guideHint": {
        "param1": ""
      },
      "isRewind": true,
      "versionBegin": "",
      "versionEnd": ""
    },
    {
      "subId": 7323204,
      "mainId": 73232,
      "order": 4,
      "descTextMapHash": 2749184188,
      "showType": "QUEST_HIDDEN",
      "finishCond": [
        {
          "damageRatio": "QUEST_CONTENT_FINISH_PLOT",
          "param": [
            7323204,
            0
          ]
        }
      ],
      "guide": {
        "MLAHIFLGIGJ": ""
      },
      "guideHint": {
        "param1": ""
      },
      "isRewind": true,
      "versionBegin": "",
      "versionEnd": ""
    },
    {
      "subId": 7323205,
      "mainId": 73232,
      "order": 5,
      "descTextMapHash": 251401292,
      "finishCond": [
        {
          "damageRatio": "QUEST_CONTENT_FINISH_PLOT",
          "param": [
            7323205,
            0
          ]
        }
      ],
      "guide": {
        "damageRatio": "QUEST_GUIDE_NPC",
        "param": [
          "20883"
        ],
        "guideScene": 3,
        "guideStyle": "QUEST_GUIDE_STYLE_TARGET",
        "guideLayer": "QUEST_GUIDE_LAYER_UI",
        "MLAHIFLGIGJ": ""
      },
      "guideHint": {
        "param1": ""
      },
      "isRewind": true,
      "finishExec": [
        {
          "damageRatio": "QUEST_EXEC_SHOW_MAP_LAYER_GROUP",
          "param": [
            "33104"
          ]
        },
        {
          "damageRatio": "QUEST_EXEC_SET_MAP_LAYER_UNLOCK_STATE",
          "param": [
            "3310401",
            "1"
          ]
        }
      ],
      "versionBegin": "",
      "versionEnd": ""
    },
    {
      "subId": 7323206,
      "mainId": 73232,
      "order": 6,
      "descTextMapHash": 4264146716,
      "finishCond": [
        {
          "damageRatio": "QUEST_CONTENT_COMPLETE_TALK",
          "param": [
            7323206,
            0
          ]
        }
      ],
      "guide": {
        "damageRatio": "QUEST_GUIDE_NPC",
        "param": [
          "20883"
        ],
        "guideScene": 3,
        "guideStyle": "QUEST_GUIDE_STYLE_TARGET",
        "guideLayer": "QUEST_GUIDE_LAYER_UI",
        "MLAHIFLGIGJ": ""
      },
      "guideHint": {
        "param1": ""
      },
      "isRewind": true,
      "finishExec": [
        {
          "damageRatio": "QUEST_EXEC_UNHIDE_SCENE_POINT",
          "param": [
            "3",
            "798"
          ]
        },
        {
          "damageRatio": "QUEST_EXEC_NOTIFY_GROUP_LUA",
          "param": [
            "3",
            "133317362"
          ]
        },
        {
          "damageRatio": "QUEST_EXEC_NOTIFY_GROUP_LUA",
          "param": [
            "3",
            "133317363"
          ]
        },
        {
          "damageRatio": "QUEST_EXEC_NOTIFY_GROUP_LUA",
          "param": [
            "3",
            "133317364"
          ]
        },
        {
          "damageRatio": "QUEST_EXEC_NOTIFY_GROUP_LUA",
          "param": [
            "3",
            "133317365"
          ]
        }
      ],
      "versionBegin": "",
      "versionEnd": ""
    },
    {
      "subId": 7323207,
      "mainId": 73232,
      "order": 11,
      "descTextMapHash": 3034290060,
      "showType": "QUEST_HIDDEN",
      "finishCond": [
        {
          "damageRatio": "QUEST_CONTENT_LUA_NOTIFY",
          "param": [
            0,
            0
          ],
          "count": 1
        }
      ],
      "guide": {
        "param": [
          "30"
        ],
        "guideScene": 3,
        "MLAHIFLGIGJ": ""
      },
      "showGuide": "QUEST_GUIDE_ITEM_DISABLE",
      "guideHint": {
        "param1": ""
      },
      "versionBegin": "",
      "versionEnd": ""
    },
    {
      "subId": 7323208,
      "mainId": 73232,
      "order": 7,
      "subIdSet": 2,
      "descTextMapHash": 932016188,
      "finishCond": [
        {
          "damageRatio": "QUEST_CONTENT_LUA_NOTIFY",
          "param": [
            0,
            0
          ],
          "count": 1
        },
        {
          "damageRatio": "QUEST_CONTENT_QUEST_GLOBAL_VAR_EQUAL",
          "param": [
            7323202,
            1
          ]
        }
      ],
      "guide": {
        "damageRatio": "QUEST_GUIDE_LOCATION",
        "param": [
          "Q7323208_guide",
          "0"
        ],
        "guideScene": 3,
        "guideStyle": "QUEST_GUIDE_STYLE_POINT",
        "guideLayer": "QUEST_GUIDE_LAYER_UI",
        "MLAHIFLGIGJ": ""
      },
      "guideHint": {
        "param1": ""
      },
      "finishExec": [
        {
          "damageRatio": "QUEST_EXEC_REGISTER_DYNAMIC_GROUP",
          "param": [
            "3",
            "133317117"
          ]
        },
        {
          "damageRatio": "QUEST_EXEC_SET_QUEST_GLOBAL_VAR",
          "param": [
            "7323202",
            "1"
          ]
        },
        {
          "damageRatio": "QUEST_EXEC_REFRESH_GROUP_SUITE",
          "param": [
            "3",
            "133317031,3"
          ]
        }
      ],
      "versionBegin": "",
      "versionEnd": ""
    },
    {
      "subId": 7323209,
      "mainId": 73232,
      "order": 8,
      "subIdSet": 2,
      "descTextMapHash": 2232763668,
      "finishCond": [
        {
          "damageRatio": "QUEST_CONTENT_LUA_NOTIFY",
          "param": [
            0,
            0
          ],
          "count": 1
        },
        {
          "damageRatio": "QUEST_CONTENT_QUEST_GLOBAL_VAR_EQUAL",
          "param": [
            7323203,
            1
          ]
        }
      ],
      "guide": {
        "damageRatio": "QUEST_GUIDE_LOCATION",
        "param": [
          "Q7323209_guide",
          "0"
        ],
        "guideScene": 3,
        "guideStyle": "QUEST_GUIDE_STYLE_POINT",
        "guideLayer": "QUEST_GUIDE_LAYER_UI",
        "MLAHIFLGIGJ": ""
      },
      "guideHint": {
        "param1": ""
      },
      "finishExec": [
        {
          "damageRatio": "QUEST_EXEC_REGISTER_DYNAMIC_GROUP",
          "param": [
            "3",
            "133317118"
          ]
        },
        {
          "damageRatio": "QUEST_EXEC_REFRESH_GROUP_SUITE",
          "param": [
            "3",
            "133317079,3"
          ]
        },
        {
          "damageRatio": "QUEST_EXEC_SET_QUEST_GLOBAL_VAR",
          "param": [
            "7323203",
            "1"
          ]
        }
      ],
      "versionBegin": "",
      "versionEnd": ""
    },
    {
      "subId": 7323210,
      "mainId": 73232,
      "order": 9,
      "subIdSet": 2,
      "descTextMapHash": 3046247580,
      "finishCond": [
        {
          "damageRatio": "QUEST_CONTENT_LUA_NOTIFY",
          "param": [
            0,
            0
          ],
          "count": 1
        },
        {
          "damageRatio": "QUEST_CONTENT_QUEST_GLOBAL_VAR_EQUAL",
          "param": [
            7323204,
            1
          ]
        }
      ],
      "guide": {
        "damageRatio": "QUEST_GUIDE_LOCATION",
        "param": [
          "Q7323210_guide",
          "0"
        ],
        "guideScene": 3,
        "guideStyle": "QUEST_GUIDE_STYLE_POINT",
        "guideLayer": "QUEST_GUIDE_LAYER_UI",
        "MLAHIFLGIGJ": ""
      },
      "guideHint": {
        "param1": ""
      },
      "finishExec": [
        {
          "damageRatio": "QUEST_EXEC_REGISTER_DYNAMIC_GROUP",
          "param": [
            "3",
            "133317119"
          ]
        },
        {
          "damageRatio": "QUEST_EXEC_SET_QUEST_GLOBAL_VAR",
          "param": [
            "7323204",
            "1"
          ]
        },
        {
          "damageRatio": "QUEST_EXEC_REFRESH_GROUP_SUITE",
          "param": [
            "3",
            "133317089,3"
          ]
        }
      ],
      "versionBegin": "",
      "versionEnd": ""
    },
    {
      "subId": 7323211,
      "mainId": 73232,
      "order": 10,
      "descTextMapHash": 2789843116,
      "showType": "QUEST_HIDDEN",
      "finishCond": [
        {
          "damageRatio": "QUEST_CONTENT_QUEST_STATE_EQUAL",
          "param": [
            7323208,
            3
          ]
        },
        {
          "damageRatio": "QUEST_CONTENT_QUEST_STATE_EQUAL",
          "param": [
            7323209,
            3
          ]
        },
        {
          "damageRatio": "QUEST_CONTENT_QUEST_STATE_EQUAL",
          "param": [
            7323210,
            3
          ]
        }
      ],
      "guide": {
        "MLAHIFLGIGJ": ""
      },
      "guideHint": {
        "param1": ""
      },
      "isRewind": true,
      "versionBegin": "",
      "versionEnd": ""
    },
    {
      "subId": 7323212,
      "mainId": 73232,
      "order": 17,
      "descTextMapHash": 2390782604,
      "finishCond": [
        {
          "damageRatio": "QUEST_CONTENT_FINISH_PLOT",
          "param": [
            7323212,
            0
          ]
        }
      ],
      "guide": {
        "damageRatio": "QUEST_GUIDE_LOCATION",
        "param": [
          "Q7323206_guide",
          "30"
        ],
        "guideScene": 3,
        "guideStyle": "QUEST_GUIDE_STYLE_TARGET",
        "guideLayer": "QUEST_GUIDE_LAYER_UI",
        "MLAHIFLGIGJ": ""
      },
      "guideHint": {
        "param1": ""
      },
      "isRewind": true,
      "versionBegin": "",
      "versionEnd": ""
    },
    {
      "subId": 7323213,
      "mainId": 73232,
      "order": 19,
      "descTextMapHash": 177717196,
      "finishCond": [
        {
          "damageRatio": "QUEST_CONTENT_LUA_NOTIFY",
          "param": [
            0,
            0
          ],
          "count": 1
        }
      ],
      "guide": {
        "damageRatio": "QUEST_GUIDE_LOCATION",
        "param": [
          "Q7323206_guide",
          "30"
        ],
        "guideScene": 3,
        "guideStyle": "QUEST_GUIDE_STYLE_TARGET",
        "guideLayer": "QUEST_GUIDE_LAYER_UI",
        "MLAHIFLGIGJ": ""
      },
      "guideHint": {
        "param1": ""
      },
      "isRewind": true,
      "finishExec": [
        {
          "damageRatio": "QUEST_EXEC_UNREGISTER_DYNAMIC_GROUP",
          "param": [
            "133317346",
            "0"
          ]
        },
        {
          "damageRatio": "QUEST_EXEC_UNREGISTER_DYNAMIC_GROUP",
          "param": [
            "133317117",
            "0"
          ]
        },
        {
          "damageRatio": "QUEST_EXEC_UNREGISTER_DYNAMIC_GROUP",
          "param": [
            "133317118",
            "0"
          ]
        },
        {
          "damageRatio": "QUEST_EXEC_UNREGISTER_DYNAMIC_GROUP",
          "param": [
            "133317119",
            "0"
          ]
        }
      ],
      "versionBegin": "",
      "versionEnd": ""
    },
    {
      "subId": 7323214,
      "mainId": 73232,
      "order": 20,
      "descTextMapHash": 1581997532,
      "showType": "QUEST_HIDDEN",
      "finishCond": [
        {
          "damageRatio": "QUEST_CONTENT_FINISH_PLOT",
          "param": [
            7323214,
            0
          ]
        }
      ],
      "guide": {
        "MLAHIFLGIGJ": ""
      },
      "guideHint": {
        "param1": ""
      },
      "isRewind": true,
      "finishExec": [
        {
          "damageRatio": "QUEST_EXEC_SET_WEATHER_GADGET",
          "param": [
            "4307",
            "0"
          ]
        },
        {
          "damageRatio": "QUEST_EXEC_DEL_SCENE_TAG",
          "param": [
            "3",
            "1241"
          ]
        },
        {
          "damageRatio": "QUEST_EXEC_ADD_SCENE_TAG",
          "param": [
            "3",
            "1242"
          ]
        },
        {
          "damageRatio": "QUEST_EXEC_DEL_SCENE_TAG",
          "param": [
            "3",
            "1237"
          ]
        },
        {
          "damageRatio": "QUEST_EXEC_ADD_SCENE_TAG",
          "param": [
            "3",
            "1238"
          ]
        }
      ],
      "versionBegin": "",
      "versionEnd": ""
    },
    {
      "subId": 7323217,
      "mainId": 73232,
      "order": 13,
      "descTextMapHash": 1398300180,
      "showType": "QUEST_HIDDEN",
      "finishCond": [
        {
          "damageRatio": "QUEST_CONTENT_LUA_NOTIFY",
          "param": [
            0,
            0
          ],
          "count": 1
        }
      ],
      "guide": {
        "param": [
          "30"
        ],
        "guideScene": 3,
        "MLAHIFLGIGJ": ""
      },
      "showGuide": "QUEST_GUIDE_ITEM_DISABLE",
      "guideHint": {
        "param1": ""
      },
      "versionBegin": "",
      "versionEnd": ""
    },
    {
      "subId": 7323218,
      "mainId": 73232,
      "order": 22,
      "descTextMapHash": 1734364628,
      "finishCond": [
        {
          "damageRatio": "QUEST_CONTENT_COMPLETE_TALK",
          "param": [
            7323218,
            0
          ]
        },
        {
          "damageRatio": "QUEST_CONTENT_COMPLETE_TALK",
          "param": [
            7323219,
            0
          ]
        }
      ],
      "guide": {
        "damageRatio": "QUEST_GUIDE_NPC",
        "param": [
          "20883"
        ],
        "guideScene": 3,
        "guideStyle": "QUEST_GUIDE_STYLE_TARGET",
        "guideLayer": "QUEST_GUIDE_LAYER_UI",
        "MLAHIFLGIGJ": ""
      },
      "guideHint": {
        "param1": ""
      },
      "isRewind": true,
      "finishExec": [
        {
          "damageRatio": "QUEST_EXEC_UNREGISTER_DYNAMIC_GROUP",
          "param": [
            "133317090",
            "0"
          ]
        },
        {
          "damageRatio": "QUEST_EXEC_UNREGISTER_DYNAMIC_GROUP",
          "param": [
            "133317113",
            "0"
          ]
        },
        {
          "damageRatio": "QUEST_EXEC_UNREGISTER_DYNAMIC_GROUP",
          "param": [
            "133317031",
            "0"
          ]
        },
        {
          "damageRatio": "QUEST_EXEC_UNREGISTER_DYNAMIC_GROUP",
          "param": [
            "133317079",
            "0"
          ]
        },
        {
          "damageRatio": "QUEST_EXEC_SET_QUEST_GLOBAL_VAR",
          "param": [
            "7323201",
            "1"
          ]
        }
      ],
      "versionBegin": "",
      "versionEnd": ""
    },
    {
      "subId": 7323219,
      "mainId": 73232,
      "order": 15,
      "descTextMapHash": 2767335372,
      "showType": "QUEST_HIDDEN",
      "finishCond": [
        {
          "damageRatio": "QUEST_CONTENT_LUA_NOTIFY",
          "param": [
            0,
            0
          ],
          "count": 1
        }
      ],
      "guide": {
        "param": [
          "30"
        ],
        "guideScene": 3,
        "MLAHIFLGIGJ": ""
      },
      "showGuide": "QUEST_GUIDE_ITEM_DISABLE",
      "guideHint": {
        "param1": ""
      },
      "versionBegin": "",
      "versionEnd": ""
    },
    {
      "subId": 7323220,
      "mainId": 73232,
      "order": 12,
      "descTextMapHash": 3324856868,
      "showType": "QUEST_HIDDEN",
      "finishCond": [
        {
          "damageRatio": "QUEST_CONTENT_QUEST_GLOBAL_VAR_EQUAL",
          "param": [
            7323202,
            1
          ]
        }
      ],
      "failCond": [
        {
          "damageRatio": "QUEST_CONTENT_LEAVE_SCENE",
          "param": [
            20174,
            0
          ]
        },
        {
          "damageRatio": "QUEST_CONTENT_TEAM_DEAD",
          "param": [
            0,
            0
          ]
        }
      ],
      "guide": {
        "MLAHIFLGIGJ": ""
      },
      "guideHint": {
        "param1": ""
      },
      "isRewind": true,
      "finishExec": [
        {
          "damageRatio": "QUEST_EXEC_ROLLBACK_QUEST",
          "param": [
            "7323211"
          ]
        }
      ],
      "failExec": [
        {
          "damageRatio": "QUEST_EXEC_ROLLBACK_QUEST",
          "param": [
            "7323211"
          ]
        }
      ],
      "versionBegin": "",
      "versionEnd": ""
    },
    {
      "subId": 7323221,
      "mainId": 73232,
      "order": 14,
      "descTextMapHash": 3054605828,
      "showType": "QUEST_HIDDEN",
      "finishCond": [
        {
          "damageRatio": "QUEST_CONTENT_QUEST_GLOBAL_VAR_EQUAL",
          "param": [
            7323203,
            1
          ]
        }
      ],
      "failCond": [
        {
          "damageRatio": "QUEST_CONTENT_TEAM_DEAD",
          "param": [
            0,
            0
          ]
        },
        {
          "damageRatio": "QUEST_CONTENT_LEAVE_SCENE",
          "param": [
            20175,
            0
          ]
        }
      ],
      "guide": {
        "MLAHIFLGIGJ": ""
      },
      "guideHint": {
        "param1": ""
      },
      "isRewind": true,
      "finishExec": [
        {
          "damageRatio": "QUEST_EXEC_ROLLBACK_QUEST",
          "param": [
            "7323211"
          ]
        }
      ],
      "failExec": [
        {
          "damageRatio": "QUEST_EXEC_ROLLBACK_QUEST",
          "param": [
            "7323211"
          ]
        }
      ],
      "versionBegin": "",
      "versionEnd": ""
    },
    {
      "subId": 7323222,
      "mainId": 73232,
      "order": 16,
      "descTextMapHash": 1517885044,
      "showType": "QUEST_HIDDEN",
      "finishCond": [
        {
          "damageRatio": "QUEST_CONTENT_QUEST_GLOBAL_VAR_EQUAL",
          "param": [
            7323204,
            1
          ]
        }
      ],
      "failCond": [
        {
          "damageRatio": "QUEST_CONTENT_TEAM_DEAD",
          "param": [
            0,
            0
          ]
        },
        {
          "damageRatio": "QUEST_CONTENT_LEAVE_SCENE",
          "param": [
            20176,
            0
          ]
        }
      ],
      "guide": {
        "MLAHIFLGIGJ": ""
      },
      "guideHint": {
        "param1": ""
      },
      "isRewind": true,
      "finishExec": [
        {
          "damageRatio": "QUEST_EXEC_ROLLBACK_QUEST",
          "param": [
            "7323211"
          ]
        }
      ],
      "failExec": [
        {
          "damageRatio": "QUEST_EXEC_ROLLBACK_QUEST",
          "param": [
            "7323211"
          ]
        }
      ],
      "versionBegin": "",
      "versionEnd": ""
    },
    {
      "subId": 7323223,
      "mainId": 73232,
      "order": 21,
      "descTextMapHash": 1062597204,
      "showType": "QUEST_HIDDEN",
      "finishCond": [
        {
          "damageRatio": "QUEST_CONTENT_QUEST_STATE_EQUAL",
          "param": [
            7323214,
            3
          ]
        }
      ],
      "guide": {
        "MLAHIFLGIGJ": ""
      },
      "guideHint": {
        "param1": ""
      },
      "isRewind": true,
      "finishExec": [
        {
          "damageRatio": "QUEST_EXEC_DEL_SCENE_TAG",
          "param": [
            "3",
            "1244"
          ]
        },
        {
          "damageRatio": "QUEST_EXEC_ADD_SCENE_TAG",
          "param": [
            "3",
            "1245"
          ]
        },
        {
          "damageRatio": "QUEST_EXEC_CHANGE_SCENE_LEVEL_TAG",
          "param": [
            "85"
          ]
        },
        {
          "damageRatio": "QUEST_EXEC_CHANGE_SCENE_LEVEL_TAG",
          "param": [
            "87"
          ]
        }
      ],
      "versionBegin": "",
      "versionEnd": ""
    },
    {
      "subId": 7323224,
      "mainId": 73232,
      "order": 18,
      "descTextMapHash": 963817524,
      "finishCond": [
        {
          "damageRatio": "QUEST_CONTENT_COMPLETE_TALK",
          "param": [
            7323224,
            0
          ]
        }
      ],
      "guide": {
        "damageRatio": "QUEST_GUIDE_NPC",
        "param": [
          "20883"
        ],
        "guideScene": 3,
        "guideStyle": "QUEST_GUIDE_STYLE_TARGET",
        "guideLayer": "QUEST_GUIDE_LAYER_UI",
        "MLAHIFLGIGJ": ""
      },
      "guideHint": {
        "param1": ""
      },
      "isRewind": true,
      "versionBegin": "",
      "versionEnd": ""
    },
    {
      "subId": 7323225,
      "mainId": 73232,
      "order": 23,
      "descTextMapHash": 2395806580,
      "finishCond": [
        {
          "damageRatio": "QUEST_CONTENT_COMPLETE_TALK",
          "param": [
            7323225,
            0
          ]
        }
      ],
      "guide": {
        "damageRatio": "QUEST_GUIDE_NPC",
        "param": [
          "4019"
        ],
        "guideScene": 3,
        "guideStyle": "QUEST_GUIDE_STYLE_TARGET",
        "guideLayer": "QUEST_GUIDE_LAYER_SCENE",
        "MLAHIFLGIGJ": ""
      },
      "guideHint": {
        "param1": ""
      },
      "finishParent": true,
      "isRewind": true,
      "versionBegin": "",
      "versionEnd": ""
    }
  ]
}