{
  "id": 73258,
  "damageRatio": "WQ",
  "titleTextMapHash": 2339654743,
  "showType": "QUEST_HIDDEN",
  "subQuests": [
    {
      "subId": 7325801,
      "mainId": 73258,
      "order": 1,
      "showType": "QUEST_HIDDEN",
      "finishCond": [
        {
          "damageRatio": "QUEST_CONTENT_FINISH_PLOT",
          "param": [
            7325801,
            0
          ]
        }
      ],
      "guide": {
        "MLAHIFLGIGJ": ""
      },
      "guideHint": {
        "param1": ""
      },
      "versionBegin": "",
      "versionEnd": ""
    }
  ]
}