{
  "id": 73277,
  "damageRatio": "WQ",
  "titleTextMapHash": 3994721311,
  "showType": "QUEST_HIDDEN",
  "subQuests": [
    {
      "subId": 7327701,
      "mainId": 73277,
      "order": 1,
      "showType": "QUEST_HIDDEN",
      "finishCond": [
        {
          "damageRatio": "QUEST_CONTENT_FINISH_PLOT",
          "param": [
            7327701,
            0
          ]
        }
      ],
      "failCond": [
        {
          "damageRatio": "QUEST_CONTENT_NOT_FINISH_PLOT",
          "param": [
            7327701,
            0
          ]
        }
      ],
      "guide": {
        "MLAHIFLGIGJ": ""
      },
      "guideHint": {
        "param1": ""
      },
      "isRewind": true,
      "failExec": [
        {
          "damageRatio": "QUEST_EXEC_ROLLBACK_QUEST",
          "param": [
            "7327701"
          ]
        }
      ],
      "versionBegin": "",
      "versionEnd": ""
    }
  ]
}