{
  "id": 73321,
  "damageRatio": "WQ",
  "titleTextMapHash": 1697208711,
  "descTextMapHash": 3042243398,
  "rewardIdList": [
    173321
  ],
  "showType": "QUEST_HIDDEN",
  "subQuests": [
    {
      "subId": 7332101,
      "mainId": 73321,
      "order": 1,
      "descTextMapHash": 754467900,
      "showType": "QUEST_HIDDEN",
      "finishCond": [
        {
          "damageRatio": "QUEST_CONTENT_QUEST_STATE_EQUAL",
          "param": [
            7321201,
            3
          ]
        }
      ],
      "guide": {
        "MLAHIFLGIGJ": ""
      },
      "guideHint": {
        "param1": ""
      },
      "finishParent": true,
      "isRewind": true,
      "versionBegin": "",
      "versionEnd": ""
    }
  ]
}