{
  "id": 73325,
  "damageRatio": "WQ",
  "descTextMapHash": 1468323358,
  "showType": "QUEST_HIDDEN",
  "subQuests": [
    {
      "subId": 7332501,
      "mainId": 73325,
      "order": 1,
      "showType": "QUEST_HIDDEN",
      "finishCond": [
        {
          "damageRatio": "QUEST_CONTENT_GADGET_STATE_CHANGE",
          "param": [
            133314365,
            365006
          ]
        }
      ],
      "guide": {
        "MLAHIFLGIGJ": ""
      },
      "guideHint": {
        "param1": ""
      },
      "finishParent": true,
      "failParentShow": "QUEST_HIDDEN",
      "isRewind": true,
      "finishExec": [
        {
          "damageRatio": "QUEST_EXEC_UNREGISTER_DYNAMIC_GROUP",
          "param": [
            "133314365",
            "1"
          ]
        },
        {
          "damageRatio": "QUEST_EXEC_MODIFY_ARANARA_COLLECTION_STATE",
          "param": [
            "1",
            "15",
            "3"
          ]
        }
      ],
      "versionBegin": "",
      "versionEnd": ""
    }
  ]
}