{
  "id": 73339,
  "damageRatio": "WQ",
  "mainQuestTag": "MAINQUEST_TAG_RANK_ZERO_WQ",
  "titleTextMapHash": 2645061439,
  "rewardIdList": [
    173339
  ],
  "showType": "QUEST_HIDDEN",
  "subQuests": [
    {
      "subId": 7333901,
      "mainId": 73339,
      "order": 1,
      "descTextMapHash": 475201468,
      "showType": "QUEST_HIDDEN",
      "finishCond": [
        {
          "damageRatio": "QUEST_CONTENT_GAME_TIME_TICK",
          "param": [
            0,
            0
          ]
        }
      ],
      "guide": {
        "MLAHIFLGIGJ": ""
      },
      "guideHint": {
        "param1": ""
      },
      "finishParent": true,
      "versionBegin": "",
      "versionEnd": ""
    }
  ]
}