{
  "id": 73517,
  "damageRatio": "WQ",
  "mainQuestTag": "MAINQUEST_TAG_ACTIVITY",
  "titleTextMapHash": 4138030311,
  "descTextMapHash": 878525902,
  "rewardIdList": [
    173517
  ],
  "subQuests": [
    {
      "subId": 7351701,
      "mainId": 73517,
      "order": 2,
      "descTextMapHash": 3548750868,
      "finishCond": [
        {
          "damageRatio": "QUEST_CONTENT_COMPLETE_TALK",
          "param": [
            7351701,
            0
          ]
        }
      ],
      "guide": {
        "damageRatio": "QUEST_GUIDE_NPC",
        "param": [
          "30342"
        ],
        "guideScene": 3,
        "guideStyle": "QUEST_GUIDE_STYLE_TARGET",
        "guideLayer": "QUEST_GUIDE_LAYER_SCENE",
        "MLAHIFLGIGJ": ""
      },
      "guideHint": {
        "param1": ""
      },
      "finishParent": true,
      "isRewind": true,
      "versionBegin": "",
      "versionEnd": ""
    },
    {
      "subId": 7351702,
      "mainId": 73517,
      "order": 1,
      "descTextMapHash": 1751640932,
      "finishCond": [
        {
          "damageRatio": "QUEST_CONTENT_GAME_TIME_TICK",
          "param": [
            1,
            0
          ]
        }
      ],
      "guide": {
        "MLAHIFLGIGJ": ""
      },
      "guideHint": {
        "param1": ""
      },
      "isRewind": true,
      "versionBegin": "",
      "versionEnd": ""
    }
  ]
}