{
  "id": 73672,
  "damageRatio": "WQ",
  "mainQuestTag": "MAINQUEST_TAG_REPUTATION",
  "titleTextMapHash": 4092768871,
  "descTextMapHash": 2318635990,
  "subQuests": [
    {
      "subId": 7367201,
      "mainId": 73672,
      "order": 1,
      "descTextMapHash": 2256357540,
      "finishCond": [
        {
          "damageRatio": "QUEST_CONTENT_LUA_NOTIFY",
          "param": [
            0,
            0
          ],
          "count": 1
        }
      ],
      "guide": {
        "damageRatio": "QUEST_GUIDE_LOCATION",
        "param": [
          "Q7367201",
          "30"
        ],
        "guideScene": 3,
        "guideStyle": "QUEST_GUIDE_STYLE_TARGET",
        "guideLayer": "QUEST_GUIDE_LAYER_SCENE",
        "MLAHIFLGIGJ": ""
      },
      "guideHint": {
        "param1": ""
      },
      "finishParent": true,
      "isRewind": true,
      "finishExec": [
        {
          "damageRatio": "QUEST_EXEC_UNREGISTER_DYNAMIC_GROUP",
          "param": [
            "133301213"
          ]
        }
      ],
      "versionBegin": "",
      "versionEnd": ""
    }
  ]
}