{
  "id": 73907,
  "damageRatio": "WQ",
  "titleTextMapHash": 1848509455,
  "descTextMapHash": 2582254150,
  "rewardIdList": [
    554031
  ],
  "showType": "QUEST_HIDDEN",
  "subQuests": [
    {
      "subId": 7390701,
      "mainId": 73907,
      "order": 1,
      "showType": "QUEST_HIDDEN",
      "finishCond": [
        {
          "damageRatio": "QUEST_CONTENT_COMPLETE_TALK",
          "param": [
            7390701,
            0
          ]
        }
      ],
      "guide": {
        "MLAHIFLGIGJ": ""
      },
      "guideHint": {
        "param1": ""
      },
      "finishParent": true,
      "versionBegin": "",
      "versionEnd": ""
    }
  ]
}