{
  "id": 73905,
  "damageRatio": "WQ",
  "titleTextMapHash": 1648053439,
  "descTextMapHash": 537328678,
  "rewardIdList": [
    554029
  ],
  "showType": "QUEST_HIDDEN",
  "subQuests": [
    {
      "subId": 7390501,
      "mainId": 73905,
      "order": 1,
      "showType": "QUEST_HIDDEN",
      "finishCond": [
        {
          "damageRatio": "QUEST_CONTENT_COMPLETE_TALK",
          "param": [
            7390501,
            0
          ]
        }
      ],
      "guide": {
        "MLAHIFLGIGJ": ""
      },
      "guideHint": {
        "param1": ""
      },
      "finishParent": true,
      "versionBegin": "",
      "versionEnd": ""
    }
  ]
}