{
  "id": 73901,
  "damageRatio": "WQ",
  "titleTextMapHash": 3237152967,
  "descTextMapHash": 459419454,
  "rewardIdList": [
    554044
  ],
  "showType": "QUEST_HIDDEN",
  "subQuests": [
    {
      "subId": 7390101,
      "mainId": 73901,
      "order": 1,
      "showType": "QUEST_HIDDEN",
      "finishCond": [
        {
          "damageRatio": "QUEST_CONTENT_COMPLETE_TALK",
          "param": [
            7390101,
            0
          ]
        }
      ],
      "guide": {
        "MLAHIFLGIGJ": ""
      },
      "guideHint": {
        "param1": ""
      },
      "finishParent": true,
      "versionBegin": "",
      "versionEnd": ""
    }
  ]
}