{
  "id": 73908,
  "damageRatio": "WQ",
  "titleTextMapHash": 3325067551,
  "descTextMapHash": 2980217646,
  "rewardIdList": [
    554032
  ],
  "showType": "QUEST_HIDDEN",
  "subQuests": [
    {
      "subId": 7390801,
      "mainId": 73908,
      "order": 1,
      "showType": "QUEST_HIDDEN",
      "finishCond": [
        {
          "damageRatio": "QUEST_CONTENT_COMPLETE_TALK",
          "param": [
            7390801,
            0
          ]
        }
      ],
      "guide": {
        "MLAHIFLGIGJ": ""
      },
      "guideHint": {
        "param1": ""
      },
      "finishParent": true,
      "versionBegin": "",
      "versionEnd": ""
    }
  ]
}