{
  "id": 73919,
  "damageRatio": "WQ",
  "titleTextMapHash": 1420275631,
  "descTextMapHash": 962594406,
  "rewardIdList": [
    554001
  ],
  "showType": "QUEST_HIDDEN",
  "subQuests": [
    {
      "subId": 7391901,
      "mainId": 73919,
      "order": 1,
      "showType": "QUEST_HIDDEN",
      "finishCond": [
        {
          "damageRatio": "QUEST_CONTENT_COMPLETE_TALK",
          "param": [
            7391901,
            0
          ]
        }
      ],
      "guide": {
        "MLAHIFLGIGJ": ""
      },
      "guideHint": {
        "param1": ""
      },
      "finishParent": true,
      "versionBegin": "",
      "versionEnd": ""
    }
  ]
}