{
  "id": 73929,
  "damageRatio": "WQ",
  "titleTextMapHash": 520845023,
  "descTextMapHash": 1359755942,
  "rewardIdList": [
    554011
  ],
  "showType": "QUEST_HIDDEN",
  "subQuests": [
    {
      "subId": 7392901,
      "mainId": 73929,
      "order": 1,
      "showType": "QUEST_HIDDEN",
      "finishCond": [
        {
          "damageRatio": "QUEST_CONTENT_COMPLETE_TALK",
          "param": [
            7392901,
            0
          ]
        }
      ],
      "guide": {
        "MLAHIFLGIGJ": ""
      },
      "guideHint": {
        "param1": ""
      },
      "finishParent": true,
      "versionBegin": "",
      "versionEnd": ""
    }
  ]
}