{
  "id": 73932,
  "damageRatio": "WQ",
  "titleTextMapHash": 2597808759,
  "descTextMapHash": 1109385718,
  "rewardIdList": [
    554014
  ],
  "showType": "QUEST_HIDDEN",
  "subQuests": [
    {
      "subId": 7393201,
      "mainId": 73932,
      "order": 1,
      "showType": "QUEST_HIDDEN",
      "finishCond": [
        {
          "damageRatio": "QUEST_CONTENT_COMPLETE_TALK",
          "param": [
            7393201,
            0
          ]
        }
      ],
      "guide": {
        "MLAHIFLGIGJ": ""
      },
      "guideHint": {
        "param1": ""
      },
      "finishParent": true,
      "versionBegin": "",
      "versionEnd": ""
    }
  ]
}