{
  "id": 73933,
  "damageRatio": "WQ",
  "titleTextMapHash": 1957743959,
  "descTextMapHash": 2047770926,
  "rewardIdList": [
    554015
  ],
  "showType": "QUEST_HIDDEN",
  "subQuests": [
    {
      "subId": 7393301,
      "mainId": 73933,
      "order": 1,
      "showType": "QUEST_HIDDEN",
      "finishCond": [
        {
          "damageRatio": "QUEST_CONTENT_COMPLETE_TALK",
          "param": [
            7393301,
            0
          ]
        }
      ],
      "guide": {
        "MLAHIFLGIGJ": ""
      },
      "guideHint": {
        "param1": ""
      },
      "finishParent": true,
      "versionBegin": "",
      "versionEnd": ""
    }
  ]
}