{
  "id": 73947,
  "damageRatio": "WQ",
  "titleTextMapHash": 3726313031,
  "descTextMapHash": 2581149790,
  "rewardIdList": [
    554048
  ],
  "showType": "QUEST_HIDDEN",
  "subQuests": [
    {
      "subId": 7394701,
      "mainId": 73947,
      "order": 1,
      "showType": "QUEST_HIDDEN",
      "finishCond": [
        {
          "damageRatio": "QUEST_CONTENT_COMPLETE_TALK",
          "param": [
            7394701,
            0
          ]
        }
      ],
      "guide": {
        "MLAHIFLGIGJ": ""
      },
      "guideHint": {
        "param1": ""
      },
      "finishParent": true,
      "versionBegin": "",
      "versionEnd": ""
    }
  ]
}