{
  "id": 73940,
  "damageRatio": "WQ",
  "titleTextMapHash": 2592864831,
  "descTextMapHash": 4025570054,
  "rewardIdList": [
    554022
  ],
  "showType": "QUEST_HIDDEN",
  "subQuests": [
    {
      "subId": 7394001,
      "mainId": 73940,
      "order": 1,
      "showType": "QUEST_HIDDEN",
      "finishCond": [
        {
          "damageRatio": "QUEST_CONTENT_COMPLETE_TALK",
          "param": [
            7394001,
            0
          ]
        }
      ],
      "guide": {
        "MLAHIFLGIGJ": ""
      },
      "guideHint": {
        "param1": ""
      },
      "finishParent": true,
      "versionBegin": "",
      "versionEnd": ""
    }
  ]
}