{
  "id": 73958,
  "damageRatio": "WQ",
  "titleTextMapHash": 3335841303,
  "descTextMapHash": 3546303502,
  "rewardIdList": [
    554059
  ],
  "showType": "QUEST_HIDDEN",
  "subQuests": [
    {
      "subId": 7395801,
      "mainId": 73958,
      "order": 1,
      "showType": "QUEST_HIDDEN",
      "finishCond": [
        {
          "damageRatio": "QUEST_CONTENT_COMPLETE_TALK",
          "param": [
            7395801,
            0
          ]
        }
      ],
      "guide": {
        "MLAHIFLGIGJ": ""
      },
      "guideHint": {
        "param1": ""
      },
      "finishParent": true,
      "versionBegin": "",
      "versionEnd": ""
    }
  ]
}