{
  "id": 73951,
  "damageRatio": "WQ",
  "titleTextMapHash": 2455748735,
  "descTextMapHash": 1616374510,
  "rewardIdList": [
    554052
  ],
  "showType": "QUEST_HIDDEN",
  "subQuests": [
    {
      "subId": 7395101,
      "mainId": 73951,
      "order": 1,
      "showType": "QUEST_HIDDEN",
      "finishCond": [
        {
          "damageRatio": "QUEST_CONTENT_COMPLETE_TALK",
          "param": [
            7395101,
            0
          ]
        }
      ],
      "guide": {
        "MLAHIFLGIGJ": ""
      },
      "guideHint": {
        "param1": ""
      },
      "finishParent": true,
      "versionBegin": "",
      "versionEnd": ""
    }
  ]
}