{
  "id": 73952,
  "damageRatio": "WQ",
  "titleTextMapHash": 2472671271,
  "descTextMapHash": 2064166102,
  "rewardIdList": [
    554053
  ],
  "showType": "QUEST_HIDDEN",
  "subQuests": [
    {
      "subId": 7395201,
      "mainId": 73952,
      "order": 1,
      "showType": "QUEST_HIDDEN",
      "finishCond": [
        {
          "damageRatio": "QUEST_CONTENT_COMPLETE_TALK",
          "param": [
            7395201,
            0
          ]
        }
      ],
      "guide": {
        "MLAHIFLGIGJ": ""
      },
      "guideHint": {
        "param1": ""
      },
      "finishParent": true,
      "versionBegin": "",
      "versionEnd": ""
    }
  ]
}