{
  "id": 74051,
  "damageRatio": "WQ",
  "titleTextMapHash": 2051676295,
  "descTextMapHash": 3631186062,
  "rewardIdList": [
    174051
  ],
  "subQuests": [
    {
      "subId": 7405101,
      "mainId": 74051,
      "order": 14,
      "descTextMapHash": 680145940,
      "showType": "QUEST_HIDDEN",
      "finishCond": [
        {
          "damageRatio": "QUEST_CONTENT_COMPLETE_TALK",
          "param": [
            7405101,
            0
          ]
        }
      ],
      "guide": {
        "MLAHIFLGIGJ": ""
      },
      "guideHint": {
        "param1": ""
      },
      "isRewind": true,
      "versionBegin": "",
      "versionEnd": ""
    },
    {
      "subId": 7405102,
      "mainId": 74051,
      "order": 12,
      "descTextMapHash": 923861836,
      "finishCond": [
        {
          "damageRatio": "QUEST_CONTENT_GAME_TIME_TICK",
          "param": [
            1,
            0
          ]
        }
      ],
      "guide": {
        "MLAHIFLGIGJ": ""
      },
      "showGuide": "QUEST_GUIDE_ITEM_DISABLE",
      "guideHint": {
        "param1": ""
      },
      "isRewind": true,
      "versionBegin": "",
      "versionEnd": ""
    },
    {
      "subId": 7405103,
      "mainId": 74051,
      "order": 1,
      "showType": "QUEST_HIDDEN",
      "finishCond": [
        {
          "damageRatio": "QUEST_CONTENT_COMPLETE_TALK",
          "param": [
            7405102,
            0
          ]
        }
      ],
      "guide": {
        "MLAHIFLGIGJ": ""
      },
      "showGuide": "QUEST_GUIDE_ITEM_DISABLE",
      "guideHint": {
        "param1": ""
      },
      "isRewind": true,
      "finishExec": [
        {
          "damageRatio": "QUEST_EXEC_SET_QUEST_GLOBAL_VAR",
          "param": [
            "7405101",
            "1"
          ]
        }
      ],
      "versionBegin": "",
      "versionEnd": ""
    },
    {
      "subId": 7405104,
      "mainId": 74051,
      "order": 2,
      "descTextMapHash": 1140404068,
      "JIFODJPFKDF": [
        340208
      ],
      "finishCond": [
        {
          "damageRatio": "QUEST_CONTENT_LUA_NOTIFY",
          "param": [
            0,
            0
          ],
          "count": 1
        }
      ],
      "guide": {
        "damageRatio": "QUEST_GUIDE_LOCATION",
        "autoGuide": "QUEST_GUIDE_AUTO_ENABLE",
        "param": [
          "[3_5219:3565.292,478.541,3639.213]",
          "15"
        ],
        "guideScene": 3,
        "guideStyle": "QUEST_GUIDE_STYLE_POINT",
        "guideLayer": "QUEST_GUIDE_LAYER_SCENE",
        "MLAHIFLGIGJ": ""
      },
      "guideHint": {
        "param1": ""
      },
      "isRewind": true,
      "versionBegin": "",
      "versionEnd": ""
    },
    {
      "subId": 7405105,
      "mainId": 74051,
      "order": 3,
      "descTextMapHash": 4128159476,
      "finishCond": [
        {
          "damageRatio": "QUEST_CONTENT_COMPLETE_TALK",
          "param": [
            7405103,
            0
          ]
        }
      ],
      "guide": {
        "damageRatio": "QUEST_GUIDE_LOCATION",
        "autoGuide": "QUEST_GUIDE_AUTO_ENABLE",
        "param": [
          "[3_5186:3562.729,477.494,3641.976,0.000,186.918,0.000]"
        ],
        "guideScene": 3,
        "guideStyle": "QUEST_GUIDE_STYLE_POINT",
        "guideLayer": "QUEST_GUIDE_LAYER_SCENE",
        "MLAHIFLGIGJ": ""
      },
      "guideHint": {
        "param1": ""
      },
      "finishParent": true,
      "isRewind": true,
      "finishExec": [
        {
          "damageRatio": "QUEST_EXEC_UNREGISTER_DYNAMIC_GROUP",
          "param": [
            "133402044"
          ]
        }
      ],
      "versionBegin": "",
      "versionEnd": ""
    },
    {
      "subId": 7405106,
      "mainId": 74051,
      "order": 5,
      "descTextMapHash": 933344436,
      "finishCond": [
        {
          "damageRatio": "QUEST_CONTENT_GAME_TIME_TICK",
          "param": [
            1,
            0
          ]
        }
      ],
      "guide": {
        "MLAHIFLGIGJ": ""
      },
      "showGuide": "QUEST_GUIDE_ITEM_DISABLE",
      "guideHint": {
        "param1": ""
      },
      "isRewind": true,
      "versionBegin": "",
      "versionEnd": ""
    },
    {
      "subId": 7405107,
      "mainId": 74051,
      "order": 6,
      "descTextMapHash": 3105397620,
      "finishCond": [
        {
          "damageRatio": "QUEST_CONTENT_COMPLETE_TALK",
          "param": [
            7405104,
            0
          ]
        }
      ],
      "guide": {
        "damageRatio": "QUEST_GUIDE_NPC",
        "autoGuide": "QUEST_GUIDE_AUTO_ENABLE",
        "param": [
          "13489"
        ],
        "guideScene": 3,
        "guideStyle": "QUEST_GUIDE_STYLE_TARGET",
        "guideLayer": "QUEST_GUIDE_LAYER_SCENE",
        "MLAHIFLGIGJ": ""
      },
      "guideHint": {
        "param1": ""
      },
      "isRewind": true,
      "versionBegin": "",
      "versionEnd": ""
    },
    {
      "subId": 7405108,
      "mainId": 74051,
      "order": 7,
      "descTextMapHash": 2835274404,
      "finishCond": [
        {
          "damageRatio": "QUEST_CONTENT_LUA_NOTIFY",
          "param": [
            0,
            0
          ],
          "count": 1
        }
      ],
      "guide": {
        "damageRatio": "QUEST_GUIDE_LOCATION",
        "autoGuide": "QUEST_GUIDE_AUTO_ENABLE",
        "param": [
          "[3_5220:3410.133,426.986,3872.892]",
          "15"
        ],
        "guideScene": 3,
        "guideStyle": "QUEST_GUIDE_STYLE_POINT",
        "guideLayer": "QUEST_GUIDE_LAYER_SCENE",
        "MLAHIFLGIGJ": ""
      },
      "guideHint": {
        "param1": ""
      },
      "isRewind": true,
      "versionBegin": "",
      "versionEnd": ""
    },
    {
      "subId": 7405109,
      "mainId": 74051,
      "order": 8,
      "descTextMapHash": 2998681324,
      "finishCond": [
        {
          "damageRatio": "QUEST_CONTENT_COMPLETE_TALK",
          "param": [
            7405105,
            0
          ]
        }
      ],
      "guide": {
        "damageRatio": "QUEST_GUIDE_NPC",
        "autoGuide": "QUEST_GUIDE_AUTO_ENABLE",
        "param": [
          "13489"
        ],
        "guideScene": 3,
        "guideStyle": "QUEST_GUIDE_STYLE_TARGET",
        "guideLayer": "QUEST_GUIDE_LAYER_SCENE",
        "MLAHIFLGIGJ": ""
      },
      "guideHint": {
        "param1": ""
      },
      "isRewind": true,
      "versionBegin": "",
      "versionEnd": ""
    },
    {
      "subId": 7405110,
      "mainId": 74051,
      "order": 13,
      "descTextMapHash": 2603116332,
      "finishCond": [
        {
          "damageRatio": "QUEST_CONTENT_GAME_TIME_TICK",
          "param": [
            1,
            0
          ]
        }
      ],
      "guide": {
        "MLAHIFLGIGJ": ""
      },
      "showGuide": "QUEST_GUIDE_ITEM_DISABLE",
      "guideHint": {
        "param1": ""
      },
      "isRewind": true,
      "versionBegin": "",
      "versionEnd": ""
    },
    {
      "subId": 7405111,
      "mainId": 74051,
      "order": 9,
      "descTextMapHash": 3724649860,
      "finishCond": [
        {
          "damageRatio": "QUEST_CONTENT_COMPLETE_TALK",
          "param": [
            7405107,
            0
          ]
        }
      ],
      "guide": {
        "damageRatio": "QUEST_GUIDE_NPC",
        "autoGuide": "QUEST_GUIDE_AUTO_ENABLE",
        "param": [
          "13489"
        ],
        "guideScene": 1084,
        "guideStyle": "QUEST_GUIDE_STYLE_TARGET",
        "guideLayer": "QUEST_GUIDE_LAYER_SCENE",
        "MLAHIFLGIGJ": ""
      },
      "guideHint": {
        "param1": ""
      },
      "isRewind": true,
      "versionBegin": "",
      "versionEnd": ""
    },
    {
      "subId": 7405112,
      "mainId": 74051,
      "order": 10,
      "descTextMapHash": 537106324,
      "finishCond": [
        {
          "damageRatio": "QUEST_CONTENT_FINISH_ITEM_GIVING",
          "param": [
            7405112,
            0
          ]
        }
      ],
      "guide": {
        "damageRatio": "QUEST_GUIDE_NPC",
        "autoGuide": "QUEST_GUIDE_AUTO_ENABLE",
        "param": [
          "13489"
        ],
        "guideScene": 1084,
        "guideStyle": "QUEST_GUIDE_STYLE_TARGET",
        "guideLayer": "QUEST_GUIDE_LAYER_SCENE",
        "MLAHIFLGIGJ": ""
      },
      "guideHint": {
        "param1": ""
      },
      "isRewind": true,
      "versionBegin": "",
      "versionEnd": ""
    },
    {
      "subId": 7405113,
      "mainId": 74051,
      "order": 11,
      "descTextMapHash": 538626060,
      "finishCond": [
        {
          "damageRatio": "QUEST_CONTENT_COMPLETE_TALK",
          "param": [
            7405106,
            0
          ]
        }
      ],
      "guide": {
        "damageRatio": "QUEST_GUIDE_NPC",
        "autoGuide": "QUEST_GUIDE_AUTO_ENABLE",
        "param": [
          "13489"
        ],
        "guideScene": 1084,
        "guideStyle": "QUEST_GUIDE_STYLE_TARGET",
        "guideLayer": "QUEST_GUIDE_LAYER_SCENE",
        "MLAHIFLGIGJ": ""
      },
      "guideHint": {
        "param1": ""
      },
      "finishParent": true,
      "isRewind": true,
      "versionBegin": "",
      "versionEnd": ""
    }
  ]
}