{
  "id": 74066,
  "damageRatio": "WQ",
  "titleTextMapHash": 3243310983,
  "descTextMapHash": 2907391030,
  "rewardIdList": [
    174066
  ],
  "chapterId": 10156,
  "subQuests": [
    {
      "subId": 7406601,
      "mainId": 74066,
      "order": 1,
      "descTextMapHash": 2633692756,
      "showType": "QUEST_HIDDEN",
      "finishCond": [
        {
          "damageRatio": "QUEST_CONTENT_FINISH_PLOT",
          "param": [
            7406601,
            0
          ]
        }
      ],
      "guide": {
        "MLAHIFLGIGJ": ""
      },
      "guideHint": {
        "param1": ""
      },
      "isRewind": true,
      "versionBegin": "",
      "versionEnd": ""
    },
    {
      "subId": 7406602,
      "mainId": 74066,
      "order": 2,
      "descTextMapHash": 3904957548,
      "finishCond": [
        {
          "damageRatio": "QUEST_CONTENT_COMPLETE_TALK",
          "param": [
            7406602,
            0
          ]
        }
      ],
      "guide": {
        "damageRatio": "QUEST_GUIDE_LOCATION",
        "param": [
          "[3_4915:4368.650,124.874,4560.548]"
        ],
        "guideScene": 3,
        "guideStyle": "QUEST_GUIDE_STYLE_POINT",
        "guideLayer": "QUEST_GUIDE_LAYER_SCENE",
        "MLAHIFLGIGJ": ""
      },
      "guideHint": {
        "param1": ""
      },
      "isRewind": true,
      "finishExec": [
        {
          "damageRatio": "QUEST_EXEC_SET_QUEST_VAR",
          "param": [
            "0",
            "0",
            "74066"
          ]
        }
      ],
      "versionBegin": "",
      "versionEnd": ""
    },
    {
      "subId": 7406603,
      "mainId": 74066,
      "order": 3,
      "descTextMapHash": 1863168140,
      "finishCond": [
        {
          "damageRatio": "QUEST_CONTENT_COMPLETE_TALK",
          "param": [
            7406609,
            0
          ]
        }
      ],
      "guide": {
        "damageRatio": "QUEST_GUIDE_NPC",
        "param": [
          "5202"
        ],
        "guideScene": 3,
        "guideStyle": "QUEST_GUIDE_STYLE_TARGET",
        "guideLayer": "QUEST_GUIDE_LAYER_SCENE",
        "MLAHIFLGIGJ": ""
      },
      "guideHint": {
        "param1": ""
      },
      "finishParent": true,
      "isRewind": true,
      "finishExec": [
        {
          "damageRatio": "QUEST_EXEC_INC_QUEST_GLOBAL_VAR",
          "param": [
            "74025",
            "1"
          ]
        }
      ],
      "versionBegin": "",
      "versionEnd": ""
    }
  ]
}