{
  "id": 74129,
  "damageRatio": "WQ",
  "titleTextMapHash": 2694115959,
  "rewardIdList": [
    174129
  ],
  "showType": "QUEST_HIDDEN",
  "subQuests": [
    {
      "subId": 7412901,
      "mainId": 74129,
      "order": 1,
      "descTextMapHash": 2428458356,
      "showType": "QUEST_HIDDEN",
      "finishCond": [
        {
          "damageRatio": "QUEST_CONTENT_QUEST_STATE_EQUAL",
          "param": [
            7404402,
            3
          ]
        }
      ],
      "guide": {
        "MLAHIFLGIGJ": ""
      },
      "showGuide": "QUEST_GUIDE_ITEM_DISABLE",
      "guideHint": {
        "param1": ""
      },
      "finishParent": true,
      "isRewind": true,
      "versionBegin": "",
      "versionEnd": ""
    }
  ]
}