{
  "id": 74176,
  "damageRatio": "WQ",
  "showType": "QUEST_HIDDEN",
  "subQuests": [
    {
      "subId": 7417601,
      "mainId": 74176,
      "order": 1,
      "showType": "QUEST_HIDDEN",
      "finishCond": [
        {
          "damageRatio": "QUEST_CONTENT_FINISH_PLOT",
          "param": [
            7417601,
            0
          ]
        }
      ],
      "guide": {
        "MLAHIFLGIGJ": ""
      },
      "guideHint": {
        "param1": ""
      },
      "finishParent": true,
      "isRewind": true,
      "finishExec": [
        {
          "damageRatio": "QUEST_EXEC_UNLOCK_POINT",
          "param": [
            "3",
            "874"
          ]
        }
      ],
      "versionBegin": "",
      "versionEnd": ""
    }
  ]
}