{
  "id": 74182,
  "damageRatio": "WQ",
  "titleTextMapHash": 294434559,
  "rewardIdList": [
    174193
  ],
  "showType": "QUEST_HIDDEN",
  "subQuests": [
    {
      "subId": 7418201,
      "mainId": 74182,
      "order": 1,
      "descTextMapHash": 3557097956,
      "showType": "QUEST_HIDDEN",
      "finishCond": [
        {
          "damageRatio": "QUEST_CONTENT_QUEST_STATE_EQUAL",
          "param": [
            7419303,
            3
          ]
        }
      ],
      "guide": {
        "MLAHIFLGIGJ": ""
      },
      "showGuide": "QUEST_GUIDE_ITEM_DISABLE",
      "guideHint": {
        "param1": ""
      },
      "finishParent": true,
      "isRewind": true,
      "versionBegin": "",
      "versionEnd": ""
    }
  ]
}