{
  "id": 74214,
  "damageRatio": "WQ",
  "titleTextMapHash": 3716144599,
  "rewardIdList": [
    174213
  ],
  "showType": "QUEST_HIDDEN",
  "subQuests": [
    {
      "subId": 7421401,
      "mainId": 74214,
      "order": 1,
      "showType": "QUEST_HIDDEN",
      "finishCond": [
        {
          "damageRatio": "QUEST_CONTENT_LUA_NOTIFY",
          "param": [
            0,
            0
          ],
          "count": 1
        }
      ],
      "guide": {
        "MLAHIFLGIGJ": ""
      },
      "guideHint": {
        "param1": ""
      },
      "finishParent": true,
      "isRewind": true,
      "versionBegin": "",
      "versionEnd": ""
    }
  ]
}