{
  "id": 74226,
  "damageRatio": "WQ",
  "titleTextMapHash": 3140852175,
  "descTextMapHash": 3568877606,
  "showType": "QUEST_HIDDEN",
  "subQuests": [
    {
      "subId": 7422601,
      "mainId": 74226,
      "order": 1,
      "descTextMapHash": 2671197748,
      "showType": "QUEST_HIDDEN",
      "finishCond": [
        {
          "damageRatio": "QUEST_CONTENT_QUEST_GLOBAL_VAR_EQUAL",
          "param": [
            7419601,
            1
          ]
        }
      ],
      "guide": {
        "MLAHIFLGIGJ": ""
      },
      "showGuide": "QUEST_GUIDE_ITEM_DISABLE",
      "guideHint": {
        "param1": ""
      },
      "finishParent": true,
      "failParentShow": "QUEST_HIDDEN",
      "MEMGANDALKN": "QUEST_HIDDEN",
      "isRewind": true,
      "finishExec": [
        {
          "damageRatio": "QUEST_EXEC_NOTIFY_GROUP_LUA",
          "param": [
            "11",
            "511010037"
          ]
        },
        {
          "damageRatio": "QUEST_EXEC_NOTIFY_GROUP_LUA",
          "param": [
            "11",
            "511010123"
          ]
        },
        {
          "damageRatio": "QUEST_EXEC_NOTIFY_GROUP_LUA",
          "param": [
            "3",
            "133405066"
          ]
        },
        {
          "damageRatio": "QUEST_EXEC_NOTIFY_GROUP_LUA",
          "param": [
            "3",
            "133405088"
          ]
        }
      ],
      "versionBegin": "",
      "versionEnd": ""
    }
  ]
}