{
  "id": 74239,
  "damageRatio": "WQ",
  "titleTextMapHash": 3586935079,
  "showType": "QUEST_HIDDEN",
  "subQuests": [
    {
      "subId": 7423901,
      "mainId": 74239,
      "order": 1,
      "descTextMapHash": 3056703748,
      "showType": "QUEST_HIDDEN",
      "finishCond": [
        {
          "damageRatio": "QUEST_CONTENT_GADGET_STATE_CHANGE",
          "param": [
            511010053,
            53001
          ]
        }
      ],
      "guide": {
        "MLAHIFLGIGJ": ""
      },
      "guideHint": {
        "param1": ""
      },
      "isRewind": true,
      "versionBegin": "",
      "versionEnd": ""
    },
    {
      "subId": 7423902,
      "mainId": 74239,
      "order": 2,
      "descTextMapHash": 895385548,
      "showType": "QUEST_HIDDEN",
      "finishCond": [
        {
          "damageRatio": "QUEST_CONTENT_COMPLETE_TALK",
          "param": [
            7423901,
            0
          ]
        }
      ],
      "guide": {
        "MLAHIFLGIGJ": ""
      },
      "guideHint": {
        "param1": ""
      },
      "finishParent": true,
      "isRewind": true,
      "versionBegin": "",
      "versionEnd": ""
    }
  ]
}