{
  "id": 74238,
  "damageRatio": "WQ",
  "titleTextMapHash": 2241520807,
  "showType": "QUEST_HIDDEN",
  "subQuests": [
    {
      "subId": 7423801,
      "mainId": 74238,
      "order": 1,
      "descTextMapHash": 2487257204,
      "showType": "QUEST_HIDDEN",
      "finishCond": [
        {
          "damageRatio": "QUEST_CONTENT_GADGET_STATE_CHANGE",
          "param": [
            511010035,
            35001
          ]
        }
      ],
      "guide": {
        "MLAHIFLGIGJ": ""
      },
      "guideHint": {
        "param1": ""
      },
      "isRewind": true,
      "versionBegin": "",
      "versionEnd": ""
    },
    {
      "subId": 7423802,
      "mainId": 74238,
      "order": 2,
      "descTextMapHash": 38289780,
      "showType": "QUEST_HIDDEN",
      "finishCond": [
        {
          "damageRatio": "QUEST_CONTENT_COMPLETE_TALK",
          "param": [
            7423801,
            0
          ]
        }
      ],
      "guide": {
        "MLAHIFLGIGJ": ""
      },
      "guideHint": {
        "param1": ""
      },
      "finishParent": true,
      "isRewind": true,
      "versionBegin": "",
      "versionEnd": ""
    }
  ]
}