{
  "id": 74904,
  "damageRatio": "WQ",
  "titleTextMapHash": 4007507759,
  "descTextMapHash": 2178844558,
  "rewardIdList": [
    555005
  ],
  "showType": "QUEST_HIDDEN",
  "subQuests": [
    {
      "subId": 7490401,
      "mainId": 74904,
      "order": 1,
      "showType": "QUEST_HIDDEN",
      "finishCond": [
        {
          "damageRatio": "QUEST_CONTENT_COMPLETE_TALK",
          "param": [
            7490401,
            0
          ]
        }
      ],
      "guide": {
        "MLAHIFLGIGJ": ""
      },
      "guideHint": {
        "param1": ""
      },
      "finishParent": true,
      "versionBegin": "",
      "versionEnd": ""
    }
  ]
}