{
  "id": 74916,
  "damageRatio": "WQ",
  "titleTextMapHash": 2047274351,
  "descTextMapHash": 520214702,
  "rewardIdList": [
    555017
  ],
  "showType": "QUEST_HIDDEN",
  "subQuests": [
    {
      "subId": 7491601,
      "mainId": 74916,
      "order": 1,
      "showType": "QUEST_HIDDEN",
      "finishCond": [
        {
          "damageRatio": "QUEST_CONTENT_COMPLETE_TALK",
          "param": [
            7491601,
            0
          ]
        }
      ],
      "guide": {
        "MLAHIFLGIGJ": ""
      },
      "guideHint": {
        "param1": ""
      },
      "finishParent": true,
      "versionBegin": "",
      "versionEnd": ""
    }
  ]
}