{
  "id": 74920,
  "damageRatio": "WQ",
  "titleTextMapHash": 3659951231,
  "descTextMapHash": 3175773342,
  "rewardIdList": [
    555021
  ],
  "showType": "QUEST_HIDDEN",
  "subQuests": [
    {
      "subId": 7492001,
      "mainId": 74920,
      "order": 1,
      "showType": "QUEST_HIDDEN",
      "finishCond": [
        {
          "damageRatio": "QUEST_CONTENT_COMPLETE_TALK",
          "param": [
            7492001,
            0
          ]
        }
      ],
      "guide": {
        "MLAHIFLGIGJ": ""
      },
      "guideHint": {
        "param1": ""
      },
      "finishParent": true,
      "versionBegin": "",
      "versionEnd": ""
    }
  ]
}