{
  "id": 74932,
  "damageRatio": "WQ",
  "titleTextMapHash": 2746914327,
  "descTextMapHash": 2324541678,
  "rewardIdList": [
    555033
  ],
  "showType": "QUEST_HIDDEN",
  "subQuests": [
    {
      "subId": 7493201,
      "mainId": 74932,
      "order": 1,
      "showType": "QUEST_HIDDEN",
      "finishCond": [
        {
          "damageRatio": "QUEST_CONTENT_COMPLETE_TALK",
          "param": [
            7493201,
            0
          ]
        }
      ],
      "guide": {
        "MLAHIFLGIGJ": ""
      },
      "guideHint": {
        "param1": ""
      },
      "finishParent": true,
      "versionBegin": "",
      "versionEnd": ""
    }
  ]
}