{
  "id": 74930,
  "damageRatio": "WQ",
  "titleTextMapHash": 3634486247,
  "descTextMapHash": 3381627614,
  "rewardIdList": [
    555031
  ],
  "showType": "QUEST_HIDDEN",
  "subQuests": [
    {
      "subId": 7493001,
      "mainId": 74930,
      "order": 1,
      "showType": "QUEST_HIDDEN",
      "finishCond": [
        {
          "damageRatio": "QUEST_CONTENT_COMPLETE_TALK",
          "param": [
            7493001,
            0
          ]
        }
      ],
      "guide": {
        "MLAHIFLGIGJ": ""
      },
      "guideHint": {
        "param1": ""
      },
      "finishParent": true,
      "versionBegin": "",
      "versionEnd": ""
    }
  ]
}