{
  "id": 74940,
  "damageRatio": "WQ",
  "titleTextMapHash": 4223585703,
  "descTextMapHash": 3194770942,
  "rewardIdList": [
    555040
  ],
  "showType": "QUEST_HIDDEN",
  "subQuests": [
    {
      "subId": 7494001,
      "mainId": 74940,
      "order": 1,
      "showType": "QUEST_HIDDEN",
      "finishCond": [
        {
          "damageRatio": "QUEST_CONTENT_COMPLETE_TALK",
          "param": [
            7494001,
            0
          ]
        }
      ],
      "guide": {
        "MLAHIFLGIGJ": ""
      },
      "guideHint": {
        "param1": ""
      },
      "finishParent": true,
      "versionBegin": "",
      "versionEnd": ""
    }
  ]
}