{
  "id": 74941,
  "damageRatio": "WQ",
  "titleTextMapHash": 3804415871,
  "descTextMapHash": 3001154238,
  "rewardIdList": [
    555041
  ],
  "showType": "QUEST_HIDDEN",
  "subQuests": [
    {
      "subId": 7494101,
      "mainId": 74941,
      "order": 1,
      "showType": "QUEST_HIDDEN",
      "finishCond": [
        {
          "damageRatio": "QUEST_CONTENT_COMPLETE_TALK",
          "param": [
            7494101,
            0
          ]
        }
      ],
      "guide": {
        "MLAHIFLGIGJ": ""
      },
      "guideHint": {
        "param1": ""
      },
      "finishParent": true,
      "versionBegin": "",
      "versionEnd": ""
    }
  ]
}