{
  "id": 74943,
  "damageRatio": "WQ",
  "titleTextMapHash": 4153729271,
  "descTextMapHash": 1482870614,
  "rewardIdList": [
    555043
  ],
  "showType": "QUEST_HIDDEN",
  "subQuests": [
    {
      "subId": 7494301,
      "mainId": 74943,
      "order": 1,
      "showType": "QUEST_HIDDEN",
      "finishCond": [
        {
          "damageRatio": "QUEST_CONTENT_COMPLETE_TALK",
          "param": [
            7494301,
            0
          ]
        }
      ],
      "guide": {
        "MLAHIFLGIGJ": ""
      },
      "guideHint": {
        "param1": ""
      },
      "finishParent": true,
      "versionBegin": "",
      "versionEnd": ""
    }
  ]
}