{
  "id": 74948,
  "damageRatio": "WQ",
  "titleTextMapHash": 2085341735,
  "descTextMapHash": 1270065942,
  "rewardIdList": [
    555048
  ],
  "showType": "QUEST_HIDDEN",
  "subQuests": [
    {
      "subId": 7494801,
      "mainId": 74948,
      "order": 1,
      "showType": "QUEST_HIDDEN",
      "finishCond": [
        {
          "damageRatio": "QUEST_CONTENT_COMPLETE_TALK",
          "param": [
            7494801,
            0
          ]
        }
      ],
      "guide": {
        "MLAHIFLGIGJ": ""
      },
      "guideHint": {
        "param1": ""
      },
      "finishParent": true,
      "versionBegin": "",
      "versionEnd": ""
    }
  ]
}