{
  "id": 75042,
  "damageRatio": "WQ",
  "titleTextMapHash": 704456687,
  "descTextMapHash": 1625146870,
  "showType": "QUEST_HIDDEN",
  "subQuests": [
    {
      "subId": 7504201,
      "mainId": 75042,
      "order": 1,
      "descTextMapHash": 4228605052,
      "showType": "QUEST_HIDDEN",
      "finishCond": [
        {
          "damageRatio": "QUEST_CONTENT_QUEST_STATE_EQUAL",
          "param": [
            7501901,
            3
          ]
        }
      ],
      "guide": {
        "MLAHIFLGIGJ": ""
      },
      "guideHint": {
        "param1": ""
      },
      "finishParent": true,
      "isRewind": true,
      "versionBegin": "",
      "versionEnd": ""
    }
  ]
}