{
  "id": 75063,
  "damageRatio": "WQ",
  "titleTextMapHash": 2410439639,
  "showType": "QUEST_HIDDEN",
  "subQuests": [
    {
      "subId": 7506301,
      "mainId": 75063,
      "order": 1,
      "showType": "QUEST_HIDDEN",
      "finishCond": [
        {
          "damageRatio": "QUEST_CONTENT_LUA_NOTIFY",
          "param": [
            0,
            0
          ],
          "count": 1
        }
      ],
      "guide": {
        "MLAHIFLGIGJ": ""
      },
      "guideHint": {
        "param1": ""
      },
      "isRewind": true,
      "versionBegin": "",
      "versionEnd": ""
    },
    {
      "subId": 7506302,
      "mainId": 75063,
      "order": 2,
      "showType": "QUEST_HIDDEN",
      "finishCond": [
        {
          "damageRatio": "QUEST_CONTENT_FINISH_PLOT",
          "param": [
            7506302,
            0
          ]
        }
      ],
      "guide": {
        "MLAHIFLGIGJ": ""
      },
      "guideHint": {
        "param1": ""
      },
      "finishParent": true,
      "isRewind": true,
      "finishExec": [
        {
          "damageRatio": "QUEST_EXEC_ENTER_VEHICLE",
          "param": [
            "45003011",
            "3",
            "[3_350200337:-2257.629,44.626,8848.484,0.000,9.265,0.000]"
          ]
        }
      ],
      "versionBegin": "",
      "versionEnd": ""
    }
  ]
}