{
  "id": 75085,
  "damageRatio": "WQ",
  "titleTextMapHash": 1239324519,
  "descTextMapHash": 581273038,
  "showType": "QUEST_HIDDEN",
  "subQuests": [
    {
      "subId": 7508501,
      "mainId": 75085,
      "order": 1,
      "descTextMapHash": 49148644,
      "showType": "QUEST_HIDDEN",
      "finishCond": [
        {
          "damageRatio": "QUEST_CONTENT_FINISH_PLOT",
          "param": [
            7508501,
            0
          ]
        }
      ],
      "guide": {
        "MLAHIFLGIGJ": ""
      },
      "guideHint": {
        "param1": ""
      },
      "finishParent": true,
      "isRewind": true,
      "versionBegin": "",
      "versionEnd": ""
    }
  ]
}