{
  "id": 75081,
  "damageRatio": "WQ",
  "titleTextMapHash": 469674575,
  "descTextMapHash": 1602286318,
  "showType": "QUEST_HIDDEN",
  "chapterId": 10204,
  "subQuests": [
    {
      "subId": 7508101,
      "mainId": 75081,
      "order": 1,
      "descTextMapHash": 2222904556,
      "showType": "QUEST_HIDDEN",
      "finishCond": [
        {
          "damageRatio": "QUEST_CONTENT_LUA_NOTIFY",
          "param": [
            0,
            0
          ],
          "count": 1
        }
      ],
      "guide": {
        "damageRatio": "QUEST_GUIDE_LOCATION",
        "param": [
          "[3_350200223:-2259.940,230.459,8788.119]",
          "30"
        ],
        "guideScene": 3,
        "guideStyle": "QUEST_GUIDE_STYLE_POINT",
        "guideLayer": "QUEST_GUIDE_LAYER_SCENE",
        "MLAHIFLGIGJ": ""
      },
      "guideHint": {
        "param1": ""
      },
      "finishParent": true,
      "isRewind": true,
      "finishExec": [
        {
          "damageRatio": "QUEST_EXEC_UNREGISTER_DYNAMIC_GROUP",
          "param": [
            "133502334"
          ]
        },
        {
          "damageRatio": "QUEST_EXEC_REFRESH_GROUP_SUITE",
          "param": [
            "3",
            "133504504,2"
          ]
        }
      ],
      "versionBegin": "",
      "versionEnd": ""
    }
  ]
}