{
  "id": 75900,
  "damageRatio": "WQ",
  "titleTextMapHash": 2540688631,
  "descTextMapHash": 1946216358,
  "rewardIdList": [
    556001
  ],
  "showType": "QUEST_HIDDEN",
  "subQuests": [
    {
      "subId": 7590001,
      "mainId": 75900,
      "order": 1,
      "showType": "QUEST_HIDDEN",
      "finishCond": [
        {
          "damageRatio": "QUEST_CONTENT_COMPLETE_TALK",
          "param": [
            7590001,
            0
          ]
        }
      ],
      "guide": {
        "MLAHIFLGIGJ": ""
      },
      "guideHint": {
        "param1": ""
      },
      "finishParent": true,
      "versionBegin": "",
      "versionEnd": ""
    }
  ]
}