{
  "id": 75915,
  "damageRatio": "WQ",
  "titleTextMapHash": 3987199663,
  "descTextMapHash": 2281444046,
  "rewardIdList": [
    556016
  ],
  "showType": "QUEST_HIDDEN",
  "subQuests": [
    {
      "subId": 7591501,
      "mainId": 75915,
      "order": 1,
      "showType": "QUEST_HIDDEN",
      "finishCond": [
        {
          "damageRatio": "QUEST_CONTENT_COMPLETE_TALK",
          "param": [
            7591501,
            0
          ]
        }
      ],
      "guide": {
        "MLAHIFLGIGJ": ""
      },
      "guideHint": {
        "param1": ""
      },
      "finishParent": true,
      "versionBegin": "",
      "versionEnd": ""
    }
  ]
}