{
  "id": 75928,
  "damageRatio": "WQ",
  "titleTextMapHash": 2392022119,
  "descTextMapHash": 4243051478,
  "rewardIdList": [
    556029
  ],
  "showType": "QUEST_HIDDEN",
  "subQuests": [
    {
      "subId": 7592801,
      "mainId": 75928,
      "order": 1,
      "showType": "QUEST_HIDDEN",
      "finishCond": [
        {
          "damageRatio": "QUEST_CONTENT_COMPLETE_TALK",
          "param": [
            7592801,
            0
          ]
        }
      ],
      "guide": {
        "MLAHIFLGIGJ": ""
      },
      "guideHint": {
        "param1": ""
      },
      "finishParent": true,
      "versionBegin": "",
      "versionEnd": ""
    }
  ]
}