{
  "id": 75927,
  "damageRatio": "WQ",
  "titleTextMapHash": 1422090783,
  "descTextMapHash": 383428606,
  "rewardIdList": [
    556028
  ],
  "showType": "QUEST_HIDDEN",
  "subQuests": [
    {
      "subId": 7592701,
      "mainId": 75927,
      "order": 1,
      "showType": "QUEST_HIDDEN",
      "finishCond": [
        {
          "damageRatio": "QUEST_CONTENT_COMPLETE_TALK",
          "param": [
            7592701,
            0
          ]
        }
      ],
      "guide": {
        "MLAHIFLGIGJ": ""
      },
      "guideHint": {
        "param1": ""
      },
      "finishParent": true,
      "versionBegin": "",
      "versionEnd": ""
    }
  ]
}