{
  "id": 75921,
  "damageRatio": "WQ",
  "titleTextMapHash": 3879615815,
  "descTextMapHash": 3168080070,
  "rewardIdList": [
    556022
  ],
  "showType": "QUEST_HIDDEN",
  "subQuests": [
    {
      "subId": 7592101,
      "mainId": 75921,
      "order": 1,
      "showType": "QUEST_HIDDEN",
      "finishCond": [
        {
          "damageRatio": "QUEST_CONTENT_COMPLETE_TALK",
          "param": [
            7592101,
            0
          ]
        }
      ],
      "guide": {
        "MLAHIFLGIGJ": ""
      },
      "guideHint": {
        "param1": ""
      },
      "finishParent": true,
      "versionBegin": "",
      "versionEnd": ""
    }
  ]
}