{
  "id": 75930,
  "damageRatio": "WQ",
  "titleTextMapHash": 523820463,
  "descTextMapHash": 1436886718,
  "rewardIdList": [
    556031
  ],
  "showType": "QUEST_HIDDEN",
  "subQuests": [
    {
      "subId": 7593001,
      "mainId": 75930,
      "order": 1,
      "showType": "QUEST_HIDDEN",
      "finishCond": [
        {
          "damageRatio": "QUEST_CONTENT_COMPLETE_TALK",
          "param": [
            7593001,
            0
          ]
        }
      ],
      "guide": {
        "MLAHIFLGIGJ": ""
      },
      "guideHint": {
        "param1": ""
      },
      "finishParent": true,
      "versionBegin": "",
      "versionEnd": ""
    }
  ]
}