{
  "sceneId": 100,
  "KACANGDHOML": [
    {
      "_groupID": 910001003,
      "_name": "910001003-【发条主线】上天前",
      "_tag": "ToyTrain",
      "_points": [
        {
          "BBKLMPBFJGK": 10,
          "PGBJMIOKJAO": 0.0040039136074483395,
          "pos": {
            "x": 404.543212890625,
            "y": 540.4849853515625,
            "z": 257.0762023925781
          },
          "FKGKJHKMAJD": {
            "x": 399.30694580078125,
            "y": 540.4844360351562,
            "z": 252.2269287109375
          },
          "IGPIAEMMOPI": {
            "x": 406.9752197265625,
            "y": 540.4852294921875,
            "z": 259.3284912109375
          },
          "HICDPOHOBJB": [
            [
              0.0,
              1.0
            ],
            [
              0.9990000128746033,
              8.0
            ]
          ],
          "speed": 1.0,
          "GAOFJAFGMFG": {
            "x": -5.403901741374284e-05,
            "y": 1.0,
            "z": -5.0045699026668444e-05
          }
        },
        {
          "BBKLMPBFJGK": 11,
          "PGBJMIOKJAO": 0.0012525254860520363,
          "pos": {
            "x": 413.70440673828125,
            "y": 540.48583984375,
            "z": 265.5625
          },
          "FKGKJHKMAJD": {
            "x": 410.1482849121094,
            "y": 540.4855346679688,
            "z": 262.2674560546875
          },
          "IGPIAEMMOPI": {
            "x": 422.9676513671875,
            "y": 540.4866943359375,
            "z": 274.14569091796875
          },
          "speed": 8.0,
          "GAOFJAFGMFG": {
            "x": -4.963272294844501e-05,
            "y": 1.0,
            "z": -4.598897430696525e-05
          }
        },
        {
          "BBKLMPBFJGK": 12,
          "PGBJMIOKJAO": 0.004521476104855537,
          "pos": {
            "x": 442.9644470214844,
            "y": 540.48681640625,
            "z": 292.7176818847656
          },
          "FKGKJHKMAJD": {
            "x": 434.830078125,
            "y": 540.4874267578125,
            "z": 285.14508056640625
          },
          "IGPIAEMMOPI": {
            "x": 446.5780334472656,
            "y": 540.4865112304688,
            "z": 296.0816955566406
          },
          "HICDPOHOBJB": [
            [
              0.0,
              8.0
            ],
            [
              0.9900000095367432,
              1.0
            ]
          ],
          "speed": 8.0,
          "GAOFJAFGMFG": {
            "x": 4.524296673480421e-05,
            "y": 1.0,
            "z": 4.211825944366865e-05
          }
        },
        {
          "BBKLMPBFJGK": 9,
          "pos": {
            "x": 451.0433654785156,
            "y": 540.4849853515625,
            "z": 300.2686767578125
          },
          "FKGKJHKMAJD": {
            "x": 449.4559020996094,
            "y": 540.4859619140625,
            "z": 298.7694396972656
          },
          "IGPIAEMMOPI": {
            "x": 464.0143737792969,
            "y": 540.4772338867188,
            "z": 312.5187683105469
          },
          "speed": 1.0,
          "GAOFJAFGMFG": {
            "x": 0.0003158673644065857,
            "y": 0.9999998807907104,
            "z": 0.0002983117301482707
          }
        }
      ],
      "_ocp_name": ""
    },
    {
      "_groupID": 910001004,
      "_name": "910001004-【发条主线】挂星星",
      "_tag": "ToyTrain",
      "_points": [
        {
          "BBKLMPBFJGK": 3,
          "PGBJMIOKJAO": 0.0005294279544614255,
          "pos": {
            "x": 330.6051025390625,
            "y": 679.0,
            "z": 536.6992797851562
          },
          "FKGKJHKMAJD": {
            "x": 327.2022705078125,
            "y": 679.0,
            "z": 540.3627319335938
          },
          "IGPIAEMMOPI": {
            "x": 334.0079345703125,
            "y": 679.0,
            "z": 533.0358276367188
          },
          "AAAMJBGIJHP": [
            {
              "ratio": 0.05000000074505806,
              "interval": [
                0.0,
                0.0
              ],
              "GCJDMHMKBEC": "4.8_SetGroupVariable",
              "floatParams": [
                1.0,
                1.0
              ]
            }
          ],
          "HICDPOHOBJB": [
            [
              0.0,
              1.0
            ],
            [
              0.10000000149011612,
              4.0
            ]
          ],
          "speed": 1.0,
          "GAOFJAFGMFG": {
            "y": 1.0
          }
        },
        {
          "BBKLMPBFJGK": 10,
          "PGBJMIOKJAO": 0.0011742039350792766,
          "pos": {
            "x": 394.8790588378906,
            "y": 679.0,
            "z": 467.50341796875
          },
          "FKGKJHKMAJD": {
            "x": 383.28704833984375,
            "y": 679.0,
            "z": 479.98309326171875
          },
          "IGPIAEMMOPI": {
            "x": 406.4710693359375,
            "y": 679.0,
            "z": 455.02374267578125
          },
          "AAAMJBGIJHP": [
            {
              "interval": [
                0.0,
                0.0
              ],
              "GCJDMHMKBEC": "4.8_TorrentBrave_PauseCheck",
              "floatParams": [
                1.0
              ]
            },
            {
              "interval": [
                0.0,
                0.0
              ],
              "GCJDMHMKBEC": "4.8_SetGroupVariable",
              "floatParams": [
                1.0,
                100.0
              ]
            },
            {
              "ratio": 0.5,
              "interval": [
                0.0,
                0.0
              ],
              "GCJDMHMKBEC": "4.8_SetGroupVariable",
              "floatParams": [
                1.0,
                0.0
              ]
            }
          ],
          "HICDPOHOBJB": [
            [
              0.0,
              4.0
            ]
          ],
          "speed": 4.0,
          "GAOFJAFGMFG": {
            "y": 1.0
          }
        },
        {
          "BBKLMPBFJGK": 9,
          "PGBJMIOKJAO": 0.0005182032473385334,
          "pos": {
            "x": 423.85906982421875,
            "y": 679.0,
            "z": 436.3042297363281
          },
          "FKGKJHKMAJD": {
            "x": 412.26708984375,
            "y": 679.0,
            "z": 448.7839050292969
          },
          "IGPIAEMMOPI": {
            "x": 435.4510498046875,
            "y": 679.0,
            "z": 423.8245544433594
          },
          "AAAMJBGIJHP": [
            {
              "interval": [
                0.0,
                0.0
              ],
              "GCJDMHMKBEC": "4.8_TorrentBrave_PauseCheck",
              "floatParams": [
                1.0
              ]
            },
            {
              "interval": [
                0.0,
                0.0
              ],
              "GCJDMHMKBEC": "4.8_SetGroupVariable",
              "floatParams": [
                1.0,
                100.0
              ]
            },
            {
              "ratio": 0.5,
              "interval": [
                0.0,
                0.0
              ],
              "GCJDMHMKBEC": "4.8_SetGroupVariable",
              "floatParams": [
                1.0,
                0.0
              ]
            }
          ],
          "HICDPOHOBJB": [
            [
              0.0,
              4.0
            ]
          ],
          "speed": 4.0,
          "GAOFJAFGMFG": {
            "y": 1.0
          }
        },
        {
          "BBKLMPBFJGK": 11,
          "PGBJMIOKJAO": 0.0030860963743180037,
          "pos": {
            "x": 489.5252380371094,
            "y": 679.0,
            "z": 365.60955810546875
          },
          "FKGKJHKMAJD": {
            "x": 485.11468505859375,
            "y": 679.0,
            "z": 370.35784912109375
          },
          "IGPIAEMMOPI": {
            "x": 493.935791015625,
            "y": 679.0,
            "z": 360.86126708984375
          },
          "AAAMJBGIJHP": [
            {
              "interval": [
                0.0,
                0.0
              ],
              "GCJDMHMKBEC": "4.8_TorrentBrave_PauseCheck",
              "floatParams": [
                1.0
              ]
            },
            {
              "interval": [
                0.0,
                0.0
              ],
              "GCJDMHMKBEC": "4.8_SetGroupVariable",
              "floatParams": [
                1.0,
                100.0
              ]
            }
          ],
          "HICDPOHOBJB": [
            [
              0.0,
              4.0
            ]
          ],
          "speed": 4.0,
          "GAOFJAFGMFG": {
            "y": 1.0
          }
        },
        {
          "BBKLMPBFJGK": 16,
          "PGBJMIOKJAO": 0.0019158287905156612,
          "pos": {
            "x": 500.5515441894531,
            "y": 679.0,
            "z": 353.73876953125
          },
          "FKGKJHKMAJD": {
            "x": 496.1419982910156,
            "y": 679.0,
            "z": 358.4880065917969
          },
          "IGPIAEMMOPI": {
            "x": 504.9610900878906,
            "y": 679.0,
            "z": 348.9895324707031
          },
          "speed": 4.0,
          "GAOFJAFGMFG": {
            "y": 1.0
          }
        },
        {
          "BBKLMPBFJGK": 15,
          "pos": {
            "x": 518.3067016601562,
            "y": 679.0,
            "z": 334.6108093261719
          },
          "FKGKJHKMAJD": {
            "x": 514.9052734375,
            "y": 679.0,
            "z": 338.2755432128906
          },
          "IGPIAEMMOPI": {
            "x": 521.7081298828125,
            "y": 679.0,
            "z": 330.9460754394531
          },
          "speed": 4.0,
          "GAOFJAFGMFG": {
            "y": 1.0
          }
        }
      ],
      "_ocp_name": ""
    },
    {
      "_groupID": 910001005,
      "_name": "910001005-【主线后】上天前段",
      "_tag": "ToyTrain",
      "_points": [
        {
          "BBKLMPBFJGK": 1,
          "PGBJMIOKJAO": 0.009999973699450493,
          "pos": {
            "x": 404.543212890625,
            "y": 540.4849853515625,
            "z": 257.0762023925781
          },
          "FKGKJHKMAJD": {
            "x": 404.543212890625,
            "y": 540.4849853515625,
            "z": 257.0762023925781
          },
          "IGPIAEMMOPI": {
            "x": 404.543212890625,
            "y": 540.4849853515625,
            "z": 257.0762023925781
          },
          "AAAMJBGIJHP": [
            {
              "ratio": 0.9990000128746033,
              "interval": [
                0.0,
                0.0
              ],
              "GCJDMHMKBEC": "4.8_SetGroupVariable",
              "floatParams": [
                1.0,
                1.0
              ]
            }
          ],
          "HICDPOHOBJB": [
            [
              0.0,
              1.0
            ]
          ],
          "speed": 1.0
        },
        {
          "BBKLMPBFJGK": 3,
          "pos": {
            "x": 408.20379638671875,
            "y": 540.4849853515625,
            "z": 260.48211669921875
          },
          "FKGKJHKMAJD": {
            "x": 404.543212890625,
            "y": 540.4849853515625,
            "z": 257.0762023925781
          },
          "IGPIAEMMOPI": {
            "x": 411.8643798828125,
            "y": 540.4849853515625,
            "z": 263.8880310058594
          },
          "HICDPOHOBJB": [
            [
              0.0,
              1.0
            ]
          ],
          "speed": 1.0,
          "GAOFJAFGMFG": {
            "y": 1.0
          }
        }
      ],
      "_ocp_name": ""
    },
    {
      "_groupID": 910001006,
      "_name": "910001006-【主线后】上天后端",
      "_tag": "ToyTrain",
      "_points": [
        {
          "BBKLMPBFJGK": 3,
          "PGBJMIOKJAO": 0.0117705799639225,
          "pos": {
            "x": 330.6051025390625,
            "y": 679.0,
            "z": 536.6992797851562
          },
          "FKGKJHKMAJD": {
            "x": 327.2022705078125,
            "y": 679.0,
            "z": 540.3626708984375
          },
          "IGPIAEMMOPI": {
            "x": 330.8402404785156,
            "y": 679.0,
            "z": 536.4461059570312
          },
          "HICDPOHOBJB": [
            [
              0.0,
              1.0
            ],
            [
              0.8999999761581421,
              8.0
            ]
          ],
          "speed": 1.0,
          "GAOFJAFGMFG": {
            "y": 1.0
          }
        },
        {
          "BBKLMPBFJGK": 12,
          "PGBJMIOKJAO": 0.0002113433729391545,
          "pos": {
            "x": 333.4960632324219,
            "y": 679.0,
            "z": 533.5869140625
          },
          "FKGKJHKMAJD": {
            "x": 332.3396911621094,
            "y": 679.0,
            "z": 534.8318481445312
          },
          "IGPIAEMMOPI": {
            "x": 334.6524353027344,
            "y": 679.0,
            "z": 532.3419799804688
          },
          "HICDPOHOBJB": [
            [
              0.0,
              8.0
            ]
          ],
          "speed": 8.0,
          "GAOFJAFGMFG": {
            "y": 1.0
          }
        },
        {
          "BBKLMPBFJGK": 13,
          "PGBJMIOKJAO": 0.0054523032158613205,
          "pos": {
            "x": 494.5061950683594,
            "y": 679.0,
            "z": 360.24725341796875
          },
          "FKGKJHKMAJD": {
            "x": 492.0097351074219,
            "y": 679.0,
            "z": 362.93487548828125
          },
          "IGPIAEMMOPI": {
            "x": 497.0026550292969,
            "y": 679.0,
            "z": 357.55963134765625
          },
          "AAAMJBGIJHP": [
            {
              "ratio": 0.9990000128746033,
              "interval": [
                0.0,
                0.0
              ],
              "GCJDMHMKBEC": "4.8_SetGroupVariable",
              "floatParams": [
                2.0,
                1.0
              ]
            }
          ],
          "HICDPOHOBJB": [
            [
              0.0,
              8.0
            ],
            [
              0.800000011920929,
              1.0
            ]
          ],
          "speed": 8.0,
          "GAOFJAFGMFG": {
            "y": 1.0
          }
        },
        {
          "BBKLMPBFJGK": 6,
          "pos": {
            "x": 500.7472839355469,
            "y": 679.0,
            "z": 353.5281982421875
          },
          "FKGKJHKMAJD": {
            "x": 497.3444519042969,
            "y": 679.0,
            "z": 357.191650390625
          },
          "IGPIAEMMOPI": {
            "x": 504.1501159667969,
            "y": 679.0,
            "z": 349.86474609375
          },
          "speed": 1.0,
          "GAOFJAFGMFG": {
            "y": 1.0
          }
        }
      ],
      "_ocp_name": ""
    }
  ]
}