{
  "luaDataPath": "",
  "entityBan": "",
  "disableNpcLod": true,
  "isAutoBanNpc": true,
  "isBanWidgetPet": true,
  "protectNpcMobileLod": true,
  "startFade": {
    "startFadeOutDuration": 0.0
  },
  "endFade": {
    "startFadeOutDuration": 0.0
  },
  "actors": [
    {
      "alias": "Avatar",
      "visible": true,
      "bornPointName": "",
      "relativePosType": "AVATAR_NEW",
      "relativePosNpcAlias": "",
      "_bindMovingTargetKey": ""
    },
    {
      "configID": 20651,
      "alias": "20651",
      "visible": true,
      "bornPointName": "Q7301901_N4193",
      "relativePosType": "AVATAR_NEW",
      "relativePosNpcAlias": "",
      "_bindMovingTargetKey": ""
    },
    {
      "configID": 1005,
      "alias": "1005",
      "visible": true,
      "bornPointName": "",
      "useRelativePos": true,
      "relativePos": {
        "x": -0.5,
        "z": 0.10000000149011612
      },
      "removeActorType": "REMOVE_WITH_DISAPPEAR",
      "relativePosType": "AVATAR_NEW",
      "relativePosNpcAlias": "",
      "_bindMovingTargetKey": ""
    }
  ],
  "group": [
    [
      {
        "$type": "MoleMole.Config.ConfigTimeProtectAction",
        "type": "TIME_PROTECT",
        "duration": 0.10000000149011612
      }
    ],
    [
      {
        "$type": "LLGANGLOEEO",
        "type": "STEER_TO",
        "duration": 0.5,
        "aliasList": [
          "Avatar"
        ],
        "steerType": "TO_TARGET_ADVANCED",
        "useSteerAnim": true,
        "targetNpcAlias": "20651",
        "OAFJBHJHLJG": ""
      },
      {
        "$type": "LJLMDHDCAMK",
        "type": "LOOK_AT",
        "aliasList": [
          "Avatar"
        ],
        "enableHead": true,
        "headTurnTime": 0.5,
        "targetNpcAlias": "20651",
        "openBackProtect": true,
        "targetNpcLookAtPoint": "",
        "OAFJBHJHLJG": ""
      },
      {
        "$type": "PKKMAMONGEO",
        "type": "DIALOG",
        "aliasList": [
          "20651"
        ],
        "dialogID": 730190101,
        "protectTime": 0.5
      },
      {
        "$type": "FABLGECDBCH",
        "type": "BODY_LANG",
        "aliasList": [
          "20651"
        ],
        "bodyLangParam": 1050,
        "forceDoFreeStyle": true,
        "canDoRepeatFreeStyle": false,
        "eventPatternSuiteKey": "",
        "FOHHKFAIAAJ": ""
      },
      {
        "$type": "LLGANGLOEEO",
        "type": "STEER_TO",
        "duration": 0.5,
        "aliasList": [
          "1005"
        ],
        "steerType": "TO_TARGET_ADVANCED",
        "useSteerAnim": true,
        "targetNpcAlias": "20651",
        "OAFJBHJHLJG": ""
      },
      {
        "$type": "LJLMDHDCAMK",
        "type": "LOOK_AT",
        "aliasList": [
          "1005"
        ],
        "enableHead": true,
        "headTurnTime": 0.5,
        "targetNpcAlias": "20651",
        "openBackProtect": true,
        "targetNpcLookAtPoint": "",
        "OAFJBHJHLJG": ""
      }
    ],
    [
      {
        "$type": "PKKMAMONGEO",
        "type": "DIALOG",
        "aliasList": [
          "1005"
        ],
        "dialogID": 730190102,
        "protectTime": 0.5
      },
      {
        "$type": "HDGKHDNFMIM",
        "type": "DIALOG_SELECT",
        "delayTime": 0.4000000059604645,
        "aliasList": [
          "Avatar"
        ],
        "dialogIDList": [
          730190103,
          730190105
        ],
        "grpIDList": [
          3677435241,
          3677435242
        ],
        "useGrpId": true
      }
    ],
    [
      {
        "$type": "PKKMAMONGEO",
        "type": "DIALOG",
        "aliasList": [
          "1005"
        ],
        "dialogID": 730190104,
        "protectTime": 0.5
      }
    ],
    [
      {
        "$type": "PKKMAMONGEO",
        "type": "DIALOG",
        "aliasList": [
          "1005"
        ],
        "dialogID": 730190106,
        "protectTime": 0.5
      }
    ],
    [
      {
        "$type": "PKKMAMONGEO",
        "type": "DIALOG",
        "aliasList": [
          "20651"
        ],
        "dialogID": 730190107,
        "protectTime": 0.5
      }
    ],
    [
      {
        "$type": "PKKMAMONGEO",
        "type": "DIALOG",
        "aliasList": [
          "1005"
        ],
        "dialogID": 730190108,
        "protectTime": 0.5
      }
    ],
    [
      {
        "$type": "MoleMole.Config.ConfigTimeProtectAction",
        "type": "TIME_PROTECT",
        "duration": 0.10000000149011612
      }
    ]
  ],
  "groupId": [
    {
      "grpId": 3677435238,
      "nextGrpId": 3677435239
    },
    {
      "index": 1,
      "grpId": 3677435239,
      "nextGrpId": 3677435240
    },
    {
      "index": 2,
      "grpId": 3677435240,
      "nextGrpId": 3677435241
    },
    {
      "index": 3,
      "grpId": 3677435241,
      "nextGrpId": 3677435243
    },
    {
      "index": 4,
      "grpId": 3677435242,
      "nextGrpId": 3677435243
    },
    {
      "index": 5,
      "grpId": 3677435243,
      "nextGrpId": 3677435244
    },
    {
      "index": 6,
      "grpId": 3677435244,
      "nextGrpId": 3677435245
    },
    {
      "index": 7,
      "grpId": 3677435245,
      "nextGrpId": 3677435246
    }
  ],
  "freeStyleDic": {
    "20651": [
      1050
    ]
  }
}