[
  {
    "Default": {
      "$type": "CBPBEHLOHKI",
      "abilityName": "Avatar_Xiao_ExtraAttack",
      "abilityMixins": [
        {
          "$type": "GODEMHMODCN",
          "skillID": 10261,
          "chargeTime": 0.11999999731779099,
          "EKKJNADOEMB": 0.20000000298023224,
          "onBeginUncharged": [
            {
              "$type": "BLCCGIPAOIP",
              "PLLJBINMGJK": "DoSkill"
            },
            {
              "$type": "AKEEDILMOJF",
              "predicates": [
                {
                  "$type": "HHHMNCNPBDK",
                  "predicates": [
                    {
                      "$type": "ALLFFNEOPGA",
                      "logic": "Equal",
                      "param3": 0,
                      "parameter": "ComboCount"
                    },
                    {
                      "$type": "ALLFFNEOPGA",
                      "logic": "Equal",
                      "param3": 6,
                      "parameter": "ComboCount"
                    }
                  ]
                }
              ],
              "intID": "SkillID",
              "param3": 99.0
            },
            {
              "$type": "KJCHPDPBJHL",
              "boolID": "IsCharging"
            }
          ],
          "onReleaseUncharged": [
            {
              "$type": "AKEEDILMOJF",
              "intID": "SkillID",
              "param3": 1.0
            }
          ],
          "onBeginCharged": [
            {
              "$type": "KJCHPDPBJHL",
              "boolID": "IsCharging",
              "param3": true
            }
          ],
          "onReleaseCharged": [
            {
              "$type": "KJCHPDPBJHL",
              "boolID": "IsCharging"
            },
            {
              "$type": "AKEEDILMOJF",
              "intID": "SkillID",
              "param3": 1.0
            }
          ],
          "onBeginSecondCharged": [
            {
              "$type": "BLCCGIPAOIP",
              "predicates": [
                {
                  "$type": "BHALEMOHOLJ",
                  "logic": "GreaterOrEqual",
                  "stamina": [
                    "ExtraAttack_Pole_Stamina_Cost",
                    "Flexible_Stamina",
                    "ADD"
                  ]
                }
              ],
              "PLLJBINMGJK": "DoSkill"
            },
            {
              "$type": "AKEEDILMOJF",
              "predicates": [
                {
                  "$type": "BHALEMOHOLJ",
                  "logic": "GreaterOrEqual",
                  "stamina": [
                    "ExtraAttack_Pole_Stamina_Cost",
                    "Flexible_Stamina",
                    "ADD"
                  ]
                }
              ],
              "intID": "SkillID",
              "param3": 6.0
            },
            {
              "$type": "KJCHPDPBJHL",
              "boolID": "IsCharging"
            }
          ],
          "chargeStateIDs": [
            "Attack01",
            "Attack02",
            "Attack03",
            "Attack04",
            "Attack05",
            "Run"
          ]
        },
        {
          "$type": "EKMHJKDLBJH",
          "stateIDs": [
            "ExtraAttack"
          ],
          "modifierName": "ExtraAttack_StaminaCost",
          "DGFCLAIDIFI": ""
        }
      ],
      "abilitySpecials": {
        "ExtraAttack_Pole_Stamina_Cost": 0.0,
        "Flexible_Stamina": -2.0
      },
      "modifiers": {
        "ExtraAttack_StaminaCost": {
          "modifierName": "",
          "IPFJJJGABPL": 100.0,
          "onAdded": [
            {
              "$type": "OCLNBBMMIOK",
              "skillID": 10002,
              "amountByTargetCurrentHPRatio": 1.0,
              "costStaminaRatio": "ExtraAttack_Pole_Stamina_Cost"
            }
          ]
        }
      }
    }
  },
  {
    "Default": {
      "$type": "CBPBEHLOHKI",
      "abilityName": "Avatar_Xiao_DevilDash_Handler",
      "abilityMixins": [
        {
          "$type": "KMPFLHBHBBP",
          "index": 1,
          "priority": "AvatarSpecial",
          "jumpSkillID": 10263,
          "flySkillID": 10263
        },
        {
          "$type": "EKMHJKDLBJH",
          "stateIDs": [
            "DevilDashAir",
            "DevilDashAir_AS"
          ],
          "modifierName": "DevilDash_Air_LooseWeight",
          "DGFCLAIDIFI": ""
        },
        {
          "$type": "NAFEDCNOIGL",
          "stateID": "DevilDash",
          "modifierName": "DevilDash_Dust_Material",
          "normalizeStart": 0.3400000035762787,
          "normalizeEnd": 0.5,
          "DGFCLAIDIFI": ""
        },
        {
          "$type": "NAFEDCNOIGL",
          "stateID": "DevilDash",
          "modifierName": "DevilDash_CameraPullBack",
          "normalizeEnd": 0.8999999761581421,
          "DGFCLAIDIFI": ""
        },
        {
          "$type": "NAFEDCNOIGL",
          "stateID": "DevilDashAir",
          "modifierName": "DevilDash_CameraPullBack",
          "normalizeEnd": 0.8999999761581421,
          "DGFCLAIDIFI": ""
        },
        {
          "$type": "NAFEDCNOIGL",
          "stateID": "DevilDashAir",
          "modifierName": "DevilDash_ClearVelocityForce",
          "DGFCLAIDIFI": ""
        },
        {
          "$type": "NAFEDCNOIGL",
          "stateID": "DevilDash",
          "modifierName": "DevilDash_ClearTrigger",
          "normalizeStart": 0.4000000059604645,
          "normalizeEnd": 0.800000011920929,
          "DGFCLAIDIFI": ""
        },
        {
          "$type": "NAFEDCNOIGL",
          "stateID": "DevilDashAir",
          "modifierName": "DevilDash_ClearTrigger",
          "normalizeStart": 0.4000000059604645,
          "normalizeEnd": 0.800000011920929,
          "DGFCLAIDIFI": ""
        },
        {
          "$type": "EKMHJKDLBJH",
          "stateIDs": [
            "FallingAnthem_BS"
          ],
          "modifierName": "DevilDash_Infinite_Handler_Reset",
          "DGFCLAIDIFI": ""
        },
        {
          "$type": "MLJAPFBGEEH",
          "globalValueKey": "_ABILITY_DevilDash_FallingAnthemCount",
          "gvInTalk": 0.0,
          "valueSteps": [
            -1.0,
            1.5,
            2.5
          ],
          "modifierNameSteps": [
            "DevilDash_Infinite_FallingAnthemCount_Blank",
            "DevilDash_Infinite_Activator"
          ],
          "removeAppliedModifier": false
        }
      ],
      "abilitySpecials": {
        "DevilDash_SoulReaper_Duration": 0.0,
        "DevilDash_SoulReaper_MaxStack": 0.0,
        "DevilDash_SoulReaper_DamageUp": 0.0,
        "DevilDash_Infinite_Activator_Duration": 0.0
      },
      "modifiers": {
        "DevilDash_DropBall_Handler": {
          "modifierName": "",
          "IPFJJJGABPL": 100.0,
          "onAttackLanded": [
            {
              "$type": "INBCDALOHMP",
              "target": "Target",
              "shieldHP": true,
              "targetPredicates": [
                {
                  "$type": "NNEHDJHMING",
                  "attackTags": [
                    "Elemental_Art"
                  ]
                },
                {
                  "$type": "NIMAPECDNKD",
                  "entityTypes": [
                    "Monster"
                  ]
                },
                {
                  "$type": "CNGGLKHONAA",
                  "key": "_ABILITY_HowlingSoul_Flag",
                  "param3": 0.0,
                  "forceByCaster": true
                },
                {
                  "$type": "CNGGLKHONAA",
                  "key": "_ANIMAL_ENTITY_TYPE",
                  "param3": 0.0,
                  "compareType": "NoneOrEqual"
                }
              ],
              "successActions": [
                {
                  "$type": "PELJALPANCA",
                  "shieldHP": true,
                  "modifierName": "DevilDash_DropBall_Base"
                }
              ]
            }
          ]
        },
        "DevilDash_DropBall_Base": {
          "modifierName": "",
          "elementDurability": 0.5,
          "IPFJJJGABPL": 100.0,
          "onAdded": [
            {
              "$type": "OGPDKJJJKNN",
              "shieldHP": true,
              "configID": 2021,
              "born": {
                "$type": "IAENDIPDFKD",
                "offset": {
                  "KGEPIMHBMOL": 0.0,
                  "JEBHCGDPFEJ": 0.5,
                  "LPCHALMFFOD": -1.0
                }
              },
              "hpRatio": 1.0,
              "baseEnergy": 9.0
            }
          ]
        },
        "DevilDash_Dust_Material": {
          "modifierName": "",
          "IPFJJJGABPL": 100.0,
          "onAdded": [
            {
              "$type": "KBFEIHEAMBM",
              "rotationDampTime": "Eff_Avatar_Boy_Pole_Xiao_DevilDash_Dust",
              "PPPDJGDDOGD": 1.0,
              "AJDILHJFNKE": -1.0
            }
          ]
        },
        "DevilDash_Air_LooseWeight": {
          "modifierName": "",
          "IPFJJJGABPL": 100.0,
          "properties": {
            "Actor_AddGravityScale": -2.0
          },
          "onAdded": [
            {
              "$type": "PCDJJDJHPGC",
              "ignoreAirGY": true
            }
          ],
          "onRemoved": [
            {
              "$type": "PCDJJDJHPGC",
              "shieldHP": true
            }
          ]
        },
        "DevilDash_CameraPullBack": {
          "modifierName": "",
          "IPFJJJGABPL": 100.0,
          "onAdded": [
            {
              "$type": "LJBFFDLKIKL",
              "cameraParam": {
                "forceRadius": 5.0,
                "forceRadiusDuration": 0.0,
                "shouldKeepForceRadius": true
              }
            }
          ]
        },
        "DevilDash_ClearVelocityForce": {
          "modifierName": "",
          "IPFJJJGABPL": 100.0,
          "onAdded": [
            {
              "$type": "LBLNHEBGPJI",
              "forces": [
                "RushMoveType",
                "InertiaType"
              ]
            }
          ],
          "onRemoved": [
            {
              "$type": "LBLNHEBGPJI",
              "forces": [
                "RushMoveType"
              ]
            }
          ]
        },
        "DevilDash_SoulReaper_Timer": {
          "modifierName": "",
          "elementDurability": 0.25,
          "IPFJJJGABPL": 100.0,
          "onRemoved": [
            {
              "$type": "PELJALPANCA",
              "shieldHP": true,
              "modifierName": "DevilDash_SoulReaper"
            }
          ]
        },
        "DevilDash_SoulReaper": {
          "stacking": "MultipleAllRefresh",
          "stackingOption": {
            "abilitySpecialName": "",
            "maxModifierNumForMultipleType": "DevilDash_SoulReaper_MaxStack"
          },
          "modifierName": "",
          "elementDurability": "DevilDash_SoulReaper_Duration",
          "IPFJJJGABPL": 100.0,
          "modifierMixins": [
            {
              "$type": "LDBCDLJECKF",
              "attackTags": [
                "Elemental_Art"
              ],
              "actorWindSubHurtDelta": "DevilDash_SoulReaper_DamageUp"
            }
          ]
        },
        "DevilDash_Infinite_FallingAnthemCount_Blank": {
          "modifierName": "",
          "IPFJJJGABPL": 100.0
        },
        "DevilDash_Infinite_Handler": {
          "modifierName": "",
          "IPFJJJGABPL": 100.0,
          "onAttackLanded": [
            {
              "$type": "INBCDALOHMP",
              "target": "Target",
              "targetPredicates": [
                {
                  "$type": "NNEHDJHMING",
                  "attackTags": [
                    "FallingAttack"
                  ]
                },
                {
                  "$type": "LFIIDNMJHBH",
                  "strikeType": "Blunt"
                },
                {
                  "$type": "NIMAPECDNKD",
                  "entityTypes": [
                    "Monster"
                  ]
                },
                {
                  "$type": "CNGGLKHONAA",
                  "key": "_ANIMAL_ENTITY_TYPE",
                  "param3": 0.0,
                  "compareType": "NoneOrEqual"
                },
                {
                  "$type": "CNGGLKHONAA",
                  "key": "_ABILITY_HowlingSoul_Flag",
                  "param3": 1.0,
                  "forceByCaster": true
                },
                {
                  "$type": "GKDKGMAMGGN",
                  "target": "Caster",
                  "talentParam": "Talent_DevilDash_Infinite"
                },
                {
                  "$type": "BCFNGJHILAG",
                  "predicates": [
                    {
                      "$type": "OFFCGHNCBCD",
                      "targetType": "TempTarget",
                      "ALBJEAMOFLG": "_ABILITY_Xiao_DevilDash_Infinite_Target_Cache"
                    }
                  ]
                }
              ],
              "successActions": [
                {
                  "$type": "LCOEFEMOHLP",
                  "target": "Caster",
                  "param3": 1.0,
                  "key": "_ABILITY_DevilDash_FallingAnthemCount",
                  "useLimitRange": true,
                  "param2": 2.0,
                  "repeatTimes": 0.0
                },
                {
                  "$type": "EGJDFNHCFAA",
                  "target": "Target",
                  "targetKey": "_ABILITY_Xiao_DevilDash_Infinite_Target_Cache"
                }
              ]
            }
          ]
        },
        "DevilDash_Infinite_Handler_Reset": {
          "modifierName": "",
          "IPFJJJGABPL": 100.0,
          "onAdded": [
            {
              "$type": "LCOEFEMOHLP",
              "param3": 0.0,
              "key": "_ABILITY_DevilDash_FallingAnthemCount",
              "useLimitRange": true,
              "param2": 0.0,
              "repeatTimes": 0.0
            },
            {
              "$type": "BOBCOJHOKKD",
              "param3": 0.0,
              "key": "_ABILITY_Xiao_DevilDash_Infinite_Target_Cache_0",
              "useLimitRange": true,
              "param2": 0.0,
              "repeatTimes": 0.0
            },
            {
              "$type": "BOBCOJHOKKD",
              "param3": 0.0,
              "key": "_ABILITY_Xiao_DevilDash_Infinite_Target_Cache_1",
              "useLimitRange": true,
              "param2": 0.0,
              "repeatTimes": 0.0
            }
          ]
        },
        "DevilDash_Infinite_Activator": {
          "modifierName": "",
          "elementDurability": "DevilDash_Infinite_Activator_Duration",
          "IPFJJJGABPL": 100.0,
          "onAdded": [
            {
              "$type": "CCMOJLPKHDN",
              "predicates": [
                {
                  "$type": "BCFNGJHILAG",
                  "predicates": [
                    {
                      "$type": "IHLMAOEHHOB",
                      "skillID": 10262
                    }
                  ]
                }
              ],
              "skillID": 10262,
              "amountByTargetCurrentHPRatio": -1.0
            },
            {
              "$type": "CCMOJLPKHDN",
              "predicates": [
                {
                  "$type": "BCFNGJHILAG",
                  "predicates": [
                    {
                      "$type": "IHLMAOEHHOB",
                      "skillID": 10263
                    }
                  ]
                }
              ],
              "skillID": 10263,
              "amountByTargetCurrentHPRatio": -1.0
            },
            {
              "$type": "LCOEFEMOHLP",
              "param3": 1.0,
              "key": "_ABILITY_DevilDash_Infinite_Flag",
              "useLimitRange": true,
              "param2": 1.0,
              "repeatTimes": 0.0
            }
          ],
          "onRemoved": [
            {
              "$type": "LCOEFEMOHLP",
              "shieldHP": true,
              "param3": 0.0,
              "key": "_ABILITY_DevilDash_FallingAnthemCount",
              "useLimitRange": true,
              "param2": 0.0,
              "repeatTimes": 0.0
            },
            {
              "$type": "LCOEFEMOHLP",
              "shieldHP": true,
              "param3": -5.0,
              "key": "_ABILITY_DevilDash_Infinite_Flag",
              "useLimitRange": true,
              "param2": 1.0,
              "repeatTimes": 0.0
            }
          ]
        },
        "DevilDash_ClearTrigger": {
          "modifierName": "",
          "IPFJJJGABPL": 100.0,
          "onAdded": [
            {
              "$type": "GNAEJNBIFAC",
              "PLLJBINMGJK": "DoSkill"
            }
          ]
        }
      },
      "onAdded": [
        {
          "$type": "LCOEFEMOHLP",
          "param3": 0.0,
          "key": "_ABILITY_DevilDash_FallingAnthemCount",
          "useLimitRange": true,
          "param2": 0.0,
          "repeatTimes": 0.0
        },
        {
          "$type": "LCOEFEMOHLP",
          "param3": 0.0,
          "key": "_ABILITY_DevilDash_Infinite_Flag",
          "useLimitRange": true,
          "param2": 0.0,
          "repeatTimes": 0.0
        },
        {
          "$type": "PELJALPANCA",
          "modifierName": "DevilDash_DropBall_Handler"
        },
        {
          "$type": "PELJALPANCA",
          "modifierName": "DevilDash_Infinite_Handler"
        }
      ],
      "onAbilityStart": [
        {
          "$type": "BLCCGIPAOIP",
          "PLLJBINMGJK": "DevilDash_Skin"
        },
        {
          "$type": "PFKNEFGOHIH",
          "modifierName": "DevilDash_DropBall_Base"
        },
        {
          "$type": "CAKDDHLKOAB",
          "bulletID": 41026001,
          "born": {
            "$type": "KLPANPDGHHA",
            "offset": {
              "KGEPIMHBMOL": 0.0,
              "JEBHCGDPFEJ": 0.0,
              "LPCHALMFFOD": 0.0
            },
            "attachPointName": "RootNode"
          }
        },
        {
          "$type": "PELJALPANCA",
          "predicates": [
            {
              "$type": "GKDKGMAMGGN",
              "talentParam": "Talent_DevilDash_SoulReaper"
            }
          ],
          "modifierName": "DevilDash_SoulReaper_Timer"
        },
        {
          "$type": "OCLNBBMMIOK",
          "predicates": [
            {
              "$type": "CNGGLKHONAA",
              "key": "_ABILITY_DevilDash_Infinite_Flag",
              "param3": 0.0,
              "forceByCaster": true
            }
          ],
          "skillID": 10262,
          "amountByTargetCurrentHPRatio": 1.0,
          "costStaminaRatio": 1.0
        },
        {
          "$type": "OCLNBBMMIOK",
          "predicates": [
            {
              "$type": "CNGGLKHONAA",
              "key": "_ABILITY_DevilDash_Infinite_Flag",
              "param3": 0.0,
              "forceByCaster": true
            }
          ],
          "skillID": 10263,
          "amountByTargetCurrentHPRatio": 1.0,
          "costStaminaRatio": 1.0
        }
      ]
    }
  },
  {
    "Default": {
      "$type": "CBPBEHLOHKI",
      "abilityName": "Avatar_Xiao_DevilDash_Bullet",
      "abilitySpecials": {
        "DevilDash_Damage": 0.0
      },
      "onAbilityStart": [
        {
          "$type": "INBCDALOHMP",
          "target": "Target",
          "targetPredicates": [
            {
              "$type": "NIMAPECDNKD",
              "entityTypes": [
                "MonsterEquip"
              ]
            }
          ],
          "successActions": [
            {
              "$type": "CCNPNMMONDO",
              "target": "Target",
              "attackInfo": {
                "attackTag": "Elemental_Art",
                "attenuationTag": "Elemental_Art",
                "attenuationGroup": "Xiao_DevilDash",
                "attackProperty": {
                  "actorGrassSubHurtDelta": "DevilDash_Damage",
                  "actorWindSubHurtDelta": 0.0,
                  "elementType": "Wind",
                  "IPFJJJGABPL": 25.0,
                  "strikeType": "Slash",
                  "enBreak": 100.0,
                  "attackType": "Melee",
                  "GLKMCMDJBIK": 0.0
                },
                "hitPattern": {
                  "onHitEffectName": "default",
                  "hitImpulseY": "",
                  "hitImpulseType": "LV3",
                  "hitHaltTimeScale": 0.009999999776482582
                },
                "canBeModifiedBy": "OriginOwner"
              }
            }
          ],
          "failActions": [
            {
              "$type": "AIFPLABJNMA",
              "target": "OriginOwner",
              "attackEvent": {
                "attackPattern": {
                  "$type": "BELNOFAKNBA",
                  "triggerType": "TriggerNoRepeat",
                  "filterByFrame": true,
                  "born": {
                    "$type": "JGEBAJLEBMO",
                    "offset": {
                      "KGEPIMHBMOL": 0.0,
                      "JEBHCGDPFEJ": 0.0,
                      "LPCHALMFFOD": 0.0
                    }
                  },
                  "OAHPDLJIADP": 0.800000011920929
                },
                "attackInfo": {
                  "attackTag": "Elemental_Art",
                  "attenuationTag": "Elemental_Art",
                  "attenuationGroup": "Xiao_DevilDash",
                  "attackProperty": {
                    "actorGrassSubHurtDelta": "DevilDash_Damage",
                    "actorWindSubHurtDelta": 0.0,
                    "elementType": "Wind",
                    "IPFJJJGABPL": 25.0,
                    "strikeType": "Slash",
                    "enBreak": 100.0,
                    "attackType": "Melee",
                    "GLKMCMDJBIK": 0.0
                  },
                  "hitPattern": {
                    "onHitEffectName": "default",
                    "hitImpulseY": "",
                    "hitImpulseType": "LV3",
                    "hitHaltTimeScale": 0.009999999776482582
                  }
                }
              },
              "targetType": "Enemy"
            }
          ]
        }
      ]
    }
  },
  {
    "Default": {
      "$type": "CBPBEHLOHKI",
      "abilityName": "Avatar_Xiao_CloseCollider",
      "abilityMixins": [
        {
          "$type": "NAFEDCNOIGL",
          "stateID": "DevilDash",
          "modifierName": "Xiao_CloseCollider",
          "normalizeEnd": 0.3240000009536743,
          "DGFCLAIDIFI": ""
        },
        {
          "$type": "NAFEDCNOIGL",
          "stateID": "DevilDashAir",
          "modifierName": "Xiao_CloseCollider_Air",
          "normalizeEnd": 0.3240000009536743,
          "DGFCLAIDIFI": ""
        },
        {
          "$type": "NAFEDCNOIGL",
          "stateID": "DevilDash",
          "modifierName": "Xiao_Invisible",
          "normalizeEnd": 0.3240000009536743,
          "DGFCLAIDIFI": ""
        },
        {
          "$type": "NAFEDCNOIGL",
          "stateID": "DevilDashAir",
          "modifierName": "Xiao_Invisible_Air",
          "normalizeEnd": 0.3240000009536743,
          "DGFCLAIDIFI": ""
        },
        {
          "$type": "EKMHJKDLBJH",
          "stateIDs": [
            "FallingAnthem_Loop"
          ],
          "modifierName": "Xiao_CloseCollider",
          "DGFCLAIDIFI": ""
        }
      ],
      "modifiers": {
        "Xiao_CloseCollider": {
          "modifierName": "",
          "IPFJJJGABPL": 100.0,
          "onAdded": [
            {
              "$type": "EOBKCKNFHDM",
              "shieldHP": true,
              "passThrough": true
            },
            {
              "$type": "CNMAKBJBODN",
              "hdMeshKey": "Default"
            }
          ],
          "onRemoved": [
            {
              "$type": "EOBKCKNFHDM",
              "shieldHP": true,
              "canBeHandledOnRecover": true
            },
            {
              "$type": "CNMAKBJBODN",
              "canBeHandledOnRecover": true,
              "enable": true,
              "hdMeshKey": "Default"
            }
          ]
        },
        "Xiao_Invisible": {
          "modifierName": "",
          "IPFJJJGABPL": 100.0,
          "onAdded": [
            {
              "$type": "PJENOLFAFMG"
            }
          ],
          "onRemoved": [
            {
              "$type": "PJENOLFAFMG",
              "shieldHP": true,
              "KGGEDGKGLDD": true
            }
          ]
        },
        "Xiao_CloseCollider_Air": {
          "modifierName": "",
          "IPFJJJGABPL": 100.0,
          "onAdded": [
            {
              "$type": "EOBKCKNFHDM",
              "shieldHP": true,
              "passThrough": true
            },
            {
              "$type": "CNMAKBJBODN",
              "hdMeshKey": "Default"
            }
          ],
          "onRemoved": [
            {
              "$type": "EOBKCKNFHDM",
              "shieldHP": true,
              "canBeHandledOnRecover": true
            },
            {
              "$type": "CNMAKBJBODN",
              "canBeHandledOnRecover": true,
              "enable": true,
              "hdMeshKey": "Default"
            }
          ]
        },
        "Xiao_Invisible_Air": {
          "modifierName": "",
          "IPFJJJGABPL": 100.0,
          "onAdded": [
            {
              "$type": "PJENOLFAFMG"
            }
          ],
          "onRemoved": [
            {
              "$type": "PJENOLFAFMG",
              "shieldHP": true,
              "KGGEDGKGLDD": true
            }
          ]
        }
      }
    }
  },
  {
    "Default": {
      "$type": "CBPBEHLOHKI",
      "abilityName": "Avatar_Xiao_FallingAnthem",
      "abilityMixins": [
        {
          "$type": "KMPFLHBHBBP",
          "jumpSkillID": 10264,
          "flySkillID": 10264
        },
        {
          "$type": "EKMHJKDLBJH",
          "stateIDs": [
            "FallingAnthem_BS"
          ],
          "modifierName": "FallingAnthem_BS_Material",
          "DGFCLAIDIFI": ""
        },
        {
          "$type": "EKMHJKDLBJH",
          "stateIDs": [
            "FallingAnthem_Loop"
          ],
          "modifierName": "FallingAnthem_DamageHandler",
          "DGFCLAIDIFI": ""
        },
        {
          "$type": "EKMHJKDLBJH",
          "stateIDs": [
            "FallingAnthem_Loop"
          ],
          "modifierName": "FallingAnthem_LoopDamage",
          "DGFCLAIDIFI": ""
        },
        {
          "$type": "EKMHJKDLBJH",
          "stateIDs": [
            "FallingAnthem_BS"
          ],
          "modifierName": "FallingAnthem_BS_VelocityForce_Initialize",
          "DGFCLAIDIFI": ""
        },
        {
          "$type": "EKMHJKDLBJH",
          "stateIDs": [
            "FallingAnthem_BS",
            "FallingAnthem_Loop",
            "FallingAnthem_AS_1",
            "FallingAnthem_AS_2"
          ],
          "modifierName": "FallingAnthem_Height_Detect",
          "DGFCLAIDIFI": ""
        },
        {
          "$type": "EKMHJKDLBJH",
          "stateIDs": [
            "FallingAnthem_BS",
            "FallingAnthem_Loop",
            "FallingAnthem_AS_1",
            "FallingAnthem_AS_2"
          ],
          "modifierName": "FallingAnthem_FallingDamageImmune",
          "DGFCLAIDIFI": ""
        },
        {
          "$type": "EKMHJKDLBJH",
          "stateIDs": [
            "FallingAnthem_BS",
            "FallingAnthem_Loop"
          ],
          "modifierName": "Inertia",
          "DGFCLAIDIFI": ""
        },
        {
          "$type": "EKMHJKDLBJH",
          "stateIDs": [
            "FallingAnthem_BS",
            "FallingAnthem_Loop",
            "FallingAnthem_AS_1",
            "FallingAnthem_AS_2"
          ],
          "modifierName": "FallingAnthem_OverHead_Camera",
          "DGFCLAIDIFI": ""
        },
        {
          "$type": "EKMHJKDLBJH",
          "stateIDs": [
            "FallingAnthem_BS"
          ],
          "modifierName": "FallingAnthem_ClearVelocityForce",
          "DGFCLAIDIFI": ""
        }
      ],
      "abilitySpecials": {
        "FallingAnthem_Normal_Loop_Damage": 0.0,
        "FallingAnthem_HowlingSoul_Loop_Damage": 0.0,
        "FallingAnthem_Normal_Rank_1_Damage": 0.0,
        "FallingAnthem_Normal_Rank_2_Damage": 0.0,
        "FallingAnthem_HowlingSoul_Rank_1_Damage": 0.0,
        "FallingAnthem_HowlingSoul_Rank_2_Damage": 0.0
      },
      "modifiers": {
        "FallingAnthem_BS_Material": {
          "modifierName": "",
          "IPFJJJGABPL": 100.0,
          "onAdded": [
            {
              "$type": "KBFEIHEAMBM",
              "predicates": [
                {
                  "$type": "CNGGLKHONAA",
                  "key": "_ABILITY_HowlingSoul_Flag",
                  "param3": 0.0,
                  "forceByCaster": true,
                  "compareType": "NoneOrEqual"
                }
              ],
              "rotationDampTime": "Eff_Avatar_Pole_FallingAnthem_BS_Normal",
              "PPPDJGDDOGD": 1.0,
              "AJDILHJFNKE": -1.0
            },
            {
              "$type": "KBFEIHEAMBM",
              "predicates": [
                {
                  "$type": "CNGGLKHONAA",
                  "key": "_ABILITY_HowlingSoul_Flag",
                  "param3": 1.0,
                  "forceByCaster": true
                }
              ],
              "rotationDampTime": "Eff_Avatar_Boy_Pole_Xiao_FallingAnthem_BS_Howling",
              "PPPDJGDDOGD": 1.0,
              "AJDILHJFNKE": -1.0
            }
          ]
        },
        "FallingAnthem_BS_VelocityForce_Initialize": {
          "modifierName": "",
          "IPFJJJGABPL": 100.0,
          "properties": {
            "Actor_AddGravityScale": -2.0
          },
          "onAdded": [
            {
              "$type": "LBLNHEBGPJI",
              "forces": [
                "RushMoveType"
              ]
            }
          ]
        },
        "FallingAnthem_DamageHandler": {
          "modifierName": "",
          "IPFJJJGABPL": 100.0,
          "modifierMixins": [
            {
              "$type": "MLJAPFBGEEH",
              "globalValueKey": "_ABILITY_HowlingSoul_Flag",
              "gvInTalk": 0.0,
              "valueSteps": [
                -1.0,
                0.5,
                1.5
              ],
              "modifierNameSteps": [
                "FallingAnthem_Loop_Normal",
                "FallingAnthem_Loop_HowlingSoul"
              ]
            }
          ]
        },
        "FallingAnthem_LoopDamage": {
          "modifierName": "",
          "IPFJJJGABPL": 100.0,
          "thinkInterval": 0.30000001192092896,
          "onAdded": [
            {
              "$type": "AIFPLABJNMA",
              "predicates": [
                {
                  "$type": "CNGGLKHONAA",
                  "key": "_ABILITY_HowlingSoul_Flag",
                  "param3": 0.0,
                  "forceByCaster": true,
                  "compareType": "NoneOrEqual"
                }
              ],
              "attackEvent": {
                "attackPattern": {
                  "$type": "BELNOFAKNBA",
                  "triggerType": "TriggerNoRepeat",
                  "born": {
                    "$type": "IAENDIPDFKD",
                    "offset": {
                      "KGEPIMHBMOL": 0.0,
                      "JEBHCGDPFEJ": 0.0,
                      "LPCHALMFFOD": 0.0
                    }
                  },
                  "OAHPDLJIADP": 1.0
                },
                "attackInfo": {
                  "attackTag": "FallingAttack",
                  "attenuationTag": "",
                  "attenuationGroup": "default",
                  "attackProperty": {
                    "actorGrassSubHurtDelta": "FallingAnthem_Normal_Loop_Damage",
                    "actorWindSubHurtDelta": 0.0,
                    "IPFJJJGABPL": 0.0,
                    "overrideByWeapon": true,
                    "strikeType": "Slash",
                    "enBreak": 25.0,
                    "attackType": "Melee",
                    "GLKMCMDJBIK": 0.0
                  },
                  "hitPattern": {
                    "onHitEffectName": "default",
                    "hitImpulseY": "",
                    "hitImpulseType": "LV2",
                    "hitHaltTimeScale": 0.019999999552965164
                  }
                }
              },
              "targetType": "Enemy"
            },
            {
              "$type": "AIFPLABJNMA",
              "predicates": [
                {
                  "$type": "CNGGLKHONAA",
                  "key": "_ABILITY_HowlingSoul_Flag",
                  "param3": 1.0,
                  "forceByCaster": true
                }
              ],
              "attackEvent": {
                "attackPattern": {
                  "$type": "BELNOFAKNBA",
                  "triggerType": "TriggerNoRepeat",
                  "born": {
                    "$type": "IAENDIPDFKD",
                    "offset": {
                      "KGEPIMHBMOL": 0.0,
                      "JEBHCGDPFEJ": 0.0,
                      "LPCHALMFFOD": 0.0
                    }
                  },
                  "OAHPDLJIADP": 1.0
                },
                "attackInfo": {
                  "attackTag": "FallingAttack",
                  "attenuationTag": "",
                  "attenuationGroup": "default",
                  "attackProperty": {
                    "actorGrassSubHurtDelta": "FallingAnthem_HowlingSoul_Loop_Damage",
                    "actorWindSubHurtDelta": 0.0,
                    "elementType": "Wind",
                    "IPFJJJGABPL": 0.0,
                    "strikeType": "Slash",
                    "enBreak": 37.5,
                    "attackType": "Melee",
                    "GLKMCMDJBIK": 0.0
                  },
                  "hitPattern": {
                    "onHitEffectName": "default",
                    "hitImpulseY": "",
                    "hitImpulseType": "LV2",
                    "hitHaltTimeScale": 0.019999999552965164
                  }
                }
              },
              "targetType": "Enemy"
            }
          ],
          "onThinkInterval": [
            {
              "$type": "AIFPLABJNMA",
              "predicates": [
                {
                  "$type": "CNGGLKHONAA",
                  "key": "_ABILITY_HowlingSoul_Flag",
                  "param3": 0.0,
                  "forceByCaster": true,
                  "compareType": "NoneOrEqual"
                }
              ],
              "attackEvent": {
                "attackPattern": {
                  "$type": "BELNOFAKNBA",
                  "triggerType": "TriggerNoRepeat",
                  "born": {
                    "$type": "IAENDIPDFKD",
                    "offset": {
                      "KGEPIMHBMOL": 0.0,
                      "JEBHCGDPFEJ": 0.0,
                      "LPCHALMFFOD": 0.0
                    }
                  },
                  "OAHPDLJIADP": 1.0
                },
                "attackInfo": {
                  "attackTag": "FallingAttack",
                  "attenuationTag": "",
                  "attenuationGroup": "default",
                  "attackProperty": {
                    "actorGrassSubHurtDelta": "FallingAnthem_Normal_Loop_Damage",
                    "actorWindSubHurtDelta": 0.0,
                    "IPFJJJGABPL": 0.0,
                    "overrideByWeapon": true,
                    "strikeType": "Slash",
                    "enBreak": 25.0,
                    "attackType": "Melee",
                    "GLKMCMDJBIK": 0.0
                  },
                  "hitPattern": {
                    "onHitEffectName": "default",
                    "hitImpulseY": "",
                    "hitImpulseType": "LV2",
                    "hitHaltTimeScale": 0.019999999552965164
                  }
                }
              },
              "targetType": "Enemy"
            },
            {
              "$type": "AIFPLABJNMA",
              "predicates": [
                {
                  "$type": "CNGGLKHONAA",
                  "key": "_ABILITY_HowlingSoul_Flag",
                  "param3": 1.0,
                  "forceByCaster": true
                }
              ],
              "attackEvent": {
                "attackPattern": {
                  "$type": "BELNOFAKNBA",
                  "triggerType": "TriggerNoRepeat",
                  "born": {
                    "$type": "IAENDIPDFKD",
                    "offset": {
                      "KGEPIMHBMOL": 0.0,
                      "JEBHCGDPFEJ": 0.0,
                      "LPCHALMFFOD": 0.0
                    }
                  },
                  "OAHPDLJIADP": 1.0
                },
                "attackInfo": {
                  "attackTag": "FallingAttack",
                  "attenuationTag": "",
                  "attenuationGroup": "default",
                  "attackProperty": {
                    "actorGrassSubHurtDelta": "FallingAnthem_HowlingSoul_Loop_Damage",
                    "actorWindSubHurtDelta": 0.0,
                    "elementType": "Wind",
                    "IPFJJJGABPL": 0.0,
                    "strikeType": "Slash",
                    "enBreak": 25.0,
                    "attackType": "Melee",
                    "GLKMCMDJBIK": 0.0
                  },
                  "hitPattern": {
                    "onHitEffectName": "default",
                    "hitImpulseY": "",
                    "hitImpulseType": "LV2",
                    "hitHaltTimeScale": 0.019999999552965164
                  }
                }
              },
              "targetType": "Enemy"
            }
          ]
        },
        "FallingAnthem_FallingDamageImmune": {
          "modifierName": "",
          "IPFJJJGABPL": 100.0,
          "properties": {
            "Actor_FallingDamageRatio": -1.0
          }
        },
        "FallingAnthem_Loop_Normal": {
          "modifierName": "",
          "IPFJJJGABPL": 100.0,
          "modifierMixins": [
            {
              "$type": "MLJAPFBGEEH",
              "globalValueKey": "_ABILITY_FallingAnthem_UseCamera",
              "gvInTalk": 0.0,
              "valueSteps": [
                -1.0,
                0.5,
                1.5
              ],
              "modifierNameSteps": [
                "FallingAnthem_Loop_Normal_Rank_1",
                "FallingAnthem_Loop_Normal_Rank_2"
              ]
            }
          ]
        },
        "FallingAnthem_Loop_Normal_Rank_1": {
          "modifierName": "",
          "IPFJJJGABPL": 100.0,
          "onAdded": [
            {
              "$type": "KBFEIHEAMBM",
              "rotationDampTime": "Eff_Avatar_Pole_FallingAnthem_Loop_01_Normal",
              "PPPDJGDDOGD": 1.0,
              "AJDILHJFNKE": -1.0
            }
          ]
        },
        "FallingAnthem_Loop_Normal_Rank_2": {
          "modifierName": "",
          "IPFJJJGABPL": 100.0,
          "onAdded": [
            {
              "$type": "ANLOBBMKNIJ",
              "rotationDampTime": "Eff_Avatar_Pole_FallingAnthem_Loop_02_Normal",
              "PPPDJGDDOGD": 1.0,
              "AJDILHJFNKE": -1.0
            }
          ]
        },
        "FallingAnthem_Loop_HowlingSoul": {
          "modifierName": "",
          "IPFJJJGABPL": 100.0,
          "modifierMixins": [
            {
              "$type": "MLJAPFBGEEH",
              "globalValueKey": "_ABILITY_FallingAnthem_UseCamera",
              "gvInTalk": 0.0,
              "valueSteps": [
                -1.0,
                0.5,
                1.5
              ],
              "modifierNameSteps": [
                "FallingAnthem_Loop_HowlingSoul_Rank_1",
                "FallingAnthem_Loop_HowlingSoul_Rank_2"
              ]
            }
          ]
        },
        "FallingAnthem_Loop_HowlingSoul_Rank_1": {
          "modifierName": "",
          "IPFJJJGABPL": 100.0,
          "onAdded": [
            {
              "$type": "KBFEIHEAMBM",
              "rotationDampTime": "Eff_Avatar_Boy_Pole_Xiao_FallingAnthem_Loop_01_HowlingSoul",
              "PPPDJGDDOGD": 1.0,
              "AJDILHJFNKE": -1.0
            }
          ]
        },
        "FallingAnthem_Loop_HowlingSoul_Rank_2": {
          "modifierName": "",
          "IPFJJJGABPL": 100.0,
          "onAdded": [
            {
              "$type": "ANLOBBMKNIJ",
              "rotationDampTime": "Eff_Avatar_Boy_Pole_Xiao_FallingAnthem_Loop_02_HowlingSoul",
              "PPPDJGDDOGD": 1.0,
              "AJDILHJFNKE": -1.0
            }
          ]
        },
        "Inertia": {
          "modifierName": "",
          "IPFJJJGABPL": 100.0,
          "modifierMixins": [
            {
              "$type": "KEHPDCODOOC",
              "useXZ": false,
              "useY": false
            }
          ]
        },
        "FallingAnthem_Height_Detect": {
          "modifierName": "",
          "IPFJJJGABPL": 100.0,
          "onAdded": [
            {
              "$type": "LCOEFEMOHLP",
              "predicates": [
                {
                  "$type": "NKACKHNIJOO",
                  "logic": "LesserOrEqual",
                  "param3": 2.4000000953674316
                }
              ],
              "param3": 0.0,
              "key": "_ABILITY_FallingAnthem_UseCamera",
              "useLimitRange": true,
              "param2": 0.0,
              "repeatTimes": 0.0
            },
            {
              "$type": "LCOEFEMOHLP",
              "predicates": [
                {
                  "$type": "NKACKHNIJOO",
                  "param3": 2.4000000953674316
                }
              ],
              "param3": 5.0,
              "key": "_ABILITY_FallingAnthem_UseCamera",
              "useLimitRange": true,
              "param2": 1.0,
              "repeatTimes": 0.0
            },
            {
              "$type": "FEKJDLHHOLE",
              "predicates": [
                {
                  "$type": "NKACKHNIJOO",
                  "logic": "LesserOrEqual",
                  "param3": 2.4000000953674316
                }
              ],
              "floatID": "FallingAnthem_UseCamera",
              "param3": 0.0
            },
            {
              "$type": "FEKJDLHHOLE",
              "predicates": [
                {
                  "$type": "NKACKHNIJOO",
                  "param3": 2.4000000953674316
                }
              ],
              "floatID": "FallingAnthem_UseCamera",
              "param3": 1.0
            }
          ],
          "onRemoved": [
            {
              "$type": "FEKJDLHHOLE",
              "floatID": "FallingAnthem_UseCamera",
              "param3": 0.0
            },
            {
              "$type": "LCOEFEMOHLP",
              "param3": 0.0,
              "key": "_ABILITY_FallingAnthem_UseCamera",
              "useLimitRange": true,
              "param2": 0.0,
              "repeatTimes": 0.0
            }
          ]
        },
        "FallingAnthem_OverHead_Camera": {
          "modifierName": "",
          "IPFJJJGABPL": 100.0,
          "onAdded": [
            {
              "$type": "LJBFFDLKIKL",
              "predicates": [
                {
                  "$type": "NIFDMKMHAGJ",
                  "logic": "Equal",
                  "param3": 1.0,
                  "parameter": "FallingAnthem_UseCamera"
                }
              ],
              "cameraParam": {
                "forceRadius": 4.5,
                "forceRadiusDuration": 0.20000000298023224,
                "shouldKeepForceRadius": true
              }
            }
          ]
        },
        "FallingAnthem_OverHead_Camera_Remover": {
          "modifierName": "",
          "IPFJJJGABPL": 100.0,
          "onAdded": [
            {
              "$type": "PEIPIGEMHEK",
              "shieldHP": true
            }
          ]
        },
        "FallingAnthem_Landed_Camera": {
          "modifierName": "",
          "IPFJJJGABPL": 100.0,
          "onAdded": [
            {
              "$type": "LJBFFDLKIKL",
              "predicates": [
                {
                  "$type": "NIFDMKMHAGJ",
                  "logic": "Equal",
                  "param3": 1.0,
                  "parameter": "FallingAnthem_UseCamera"
                }
              ],
              "cameraParam": {
                "forceRadius": 6.0,
                "forceRadiusDuration": 0.10000000149011612,
                "shouldKeepForceRadius": true
              }
            }
          ]
        },
        "FallingAnthem_ClearVelocityForce": {
          "modifierName": "",
          "IPFJJJGABPL": 100.0,
          "onAdded": [
            {
              "$type": "LBLNHEBGPJI",
              "forces": [
                "RushMoveType",
                "InertiaType"
              ]
            }
          ]
        }
      },
      "onAbilityStart": [
        {
          "$type": "AIFPLABJNMA",
          "predicates": [
            {
              "$type": "CNGGLKHONAA",
              "key": "_ABILITY_HowlingSoul_Flag",
              "param3": 0.0,
              "forceByCaster": true,
              "compareType": "NoneOrEqual"
            },
            {
              "$type": "CNGGLKHONAA",
              "key": "_ABILITY_FallingAnthem_UseCamera",
              "param3": 0.0,
              "forceByCaster": true,
              "compareType": "NoneOrEqual"
            }
          ],
          "attackEvent": {
            "attackPattern": {
              "$type": "GMDIMKKHACA",
              "triggerType": "TriggerNoRepeat",
              "born": {
                "$type": "JHEBKCMEMLN",
                "offset": {
                  "KGEPIMHBMOL": 0.0,
                  "JEBHCGDPFEJ": -0.5,
                  "LPCHALMFFOD": 0.0
                }
              },
              "height": 2.0,
              "OAHPDLJIADP": 3.0
            },
            "attackInfo": {
              "attackTag": "FallingAttack",
              "attenuationTag": "",
              "attenuationGroup": "default",
              "attackProperty": {
                "actorGrassSubHurtDelta": "FallingAnthem_Normal_Rank_1_Damage",
                "actorWindSubHurtDelta": 0.0,
                "IPFJJJGABPL": 25.0,
                "overrideByWeapon": true,
                "strikeType": "Blunt",
                "enBreak": 100.0,
                "attackType": "Melee",
                "GLKMCMDJBIK": 0.0
              },
              "hitPattern": {
                "onHitEffectName": "none",
                "hitImpulseY": "",
                "hitImpulseType": "LV4",
                "hitHaltTimeScale": 0.10000000149011612
              },
              "forceCameraShake": true,
              "cameraShake": {
                "shakeType": "CustomVector",
                "shakeRange": 0.23999999463558197,
                "shakeTime": 0.11999999731779099,
                "shakeDistance": 30.0,
                "shakeDir": {
                  "y": 1.0
                },
                "extension": {
                  "baseCycle": 0.23999999463558197,
                  "cycleDamping": 0.0,
                  "rangeAttenuation": 0.30000001192092896
                }
              }
            }
          },
          "targetType": "Enemy"
        },
        {
          "$type": "AIFPLABJNMA",
          "predicates": [
            {
              "$type": "CNGGLKHONAA",
              "key": "_ABILITY_HowlingSoul_Flag",
              "param3": 0.0,
              "forceByCaster": true,
              "compareType": "NoneOrEqual"
            },
            {
              "$type": "CNGGLKHONAA",
              "key": "_ABILITY_FallingAnthem_UseCamera",
              "param3": 1.0,
              "forceByCaster": true
            }
          ],
          "attackEvent": {
            "attackPattern": {
              "$type": "GMDIMKKHACA",
              "triggerType": "TriggerNoRepeat",
              "born": {
                "$type": "JHEBKCMEMLN",
                "offset": {
                  "KGEPIMHBMOL": 0.0,
                  "JEBHCGDPFEJ": -0.5,
                  "LPCHALMFFOD": 0.0
                }
              },
              "height": 2.0,
              "OAHPDLJIADP": 5.0
            },
            "attackInfo": {
              "attackTag": "FallingAttack",
              "attenuationTag": "",
              "attenuationGroup": "default",
              "attackProperty": {
                "actorGrassSubHurtDelta": "FallingAnthem_Normal_Rank_2_Damage",
                "actorWindSubHurtDelta": 0.0,
                "IPFJJJGABPL": 25.0,
                "overrideByWeapon": true,
                "strikeType": "Blunt",
                "enBreak": 150.0,
                "attackType": "Melee",
                "GLKMCMDJBIK": 0.0
              },
              "hitPattern": {
                "onHitEffectName": "none",
                "hitImpulseY": "",
                "hitImpulseType": "LV7",
                "hitHaltTimeScale": 0.10000000149011612
              },
              "forceCameraShake": true,
              "cameraShake": {
                "shakeType": "CustomVector",
                "shakeRange": 0.5,
                "shakeTime": 0.20000000298023224,
                "shakeDistance": 30.0,
                "shakeDir": {
                  "y": 1.0
                },
                "extension": {
                  "baseCycle": 0.4000000059604645,
                  "cycleDamping": 0.0,
                  "rangeAttenuation": 0.30000001192092896
                }
              }
            }
          },
          "targetType": "Enemy"
        },
        {
          "$type": "AIFPLABJNMA",
          "predicates": [
            {
              "$type": "CNGGLKHONAA",
              "key": "_ABILITY_HowlingSoul_Flag",
              "param3": 1.0,
              "forceByCaster": true
            },
            {
              "$type": "CNGGLKHONAA",
              "key": "_ABILITY_FallingAnthem_UseCamera",
              "param3": 0.0,
              "forceByCaster": true,
              "compareType": "NoneOrEqual"
            }
          ],
          "attackEvent": {
            "attackPattern": {
              "$type": "GMDIMKKHACA",
              "triggerType": "TriggerNoRepeat",
              "born": {
                "$type": "JHEBKCMEMLN",
                "offset": {
                  "KGEPIMHBMOL": 0.0,
                  "JEBHCGDPFEJ": -0.5,
                  "LPCHALMFFOD": 0.0
                }
              },
              "height": 2.0,
              "OAHPDLJIADP": 4.0
            },
            "attackInfo": {
              "attackTag": "FallingAttack",
              "attenuationTag": "",
              "attenuationGroup": "default",
              "attackProperty": {
                "actorGrassSubHurtDelta": "FallingAnthem_HowlingSoul_Rank_1_Damage",
                "actorWindSubHurtDelta": 0.0,
                "elementType": "Wind",
                "IPFJJJGABPL": 25.0,
                "strikeType": "Blunt",
                "enBreak": 150.0,
                "attackType": "Melee",
                "GLKMCMDJBIK": 0.0
              },
              "hitPattern": {
                "onHitEffectName": "none",
                "hitImpulseY": "",
                "hitImpulseType": "LV7",
                "hitHaltTimeScale": 0.10000000149011612
              },
              "forceCameraShake": true,
              "cameraShake": {
                "shakeType": "CustomVector",
                "shakeRange": 0.23999999463558197,
                "shakeTime": 0.11999999731779099,
                "shakeDistance": 30.0,
                "shakeDir": {
                  "y": 1.0
                },
                "extension": {
                  "baseCycle": 0.23999999463558197,
                  "cycleDamping": 0.0,
                  "rangeAttenuation": 0.30000001192092896
                }
              }
            }
          },
          "targetType": "Enemy"
        },
        {
          "$type": "AIFPLABJNMA",
          "predicates": [
            {
              "$type": "CNGGLKHONAA",
              "key": "_ABILITY_HowlingSoul_Flag",
              "param3": 1.0,
              "forceByCaster": true
            },
            {
              "$type": "CNGGLKHONAA",
              "key": "_ABILITY_FallingAnthem_UseCamera",
              "param3": 1.0,
              "forceByCaster": true
            }
          ],
          "attackEvent": {
            "attackPattern": {
              "$type": "GMDIMKKHACA",
              "triggerType": "TriggerNoRepeat",
              "born": {
                "$type": "JHEBKCMEMLN",
                "offset": {
                  "KGEPIMHBMOL": 0.0,
                  "JEBHCGDPFEJ": -0.5,
                  "LPCHALMFFOD": 0.0
                }
              },
              "height": 2.0,
              "OAHPDLJIADP": 6.0
            },
            "attackInfo": {
              "attackTag": "FallingAttack",
              "attenuationTag": "",
              "attenuationGroup": "default",
              "attackProperty": {
                "actorGrassSubHurtDelta": "FallingAnthem_HowlingSoul_Rank_2_Damage",
                "actorWindSubHurtDelta": 0.0,
                "elementType": "Wind",
                "IPFJJJGABPL": 25.0,
                "strikeType": "Blunt",
                "enBreak": 225.0,
                "attackType": "Melee",
                "GLKMCMDJBIK": 0.0
              },
              "hitPattern": {
                "onHitEffectName": "none",
                "hitImpulseY": "",
                "hitImpulseType": "LV7",
                "hitHaltTimeScale": 0.10000000149011612
              },
              "forceCameraShake": true,
              "cameraShake": {
                "shakeType": "CustomVector",
                "shakeRange": 0.5,
                "shakeTime": 0.20000000298023224,
                "shakeDistance": 30.0,
                "shakeDir": {
                  "y": 1.0
                },
                "extension": {
                  "baseCycle": 0.4000000059604645,
                  "cycleDamping": 0.0,
                  "rangeAttenuation": 0.30000001192092896
                }
              }
            }
          },
          "targetType": "Enemy"
        },
        {
          "$type": "KBFEIHEAMBM",
          "predicates": [
            {
              "$type": "CNGGLKHONAA",
              "key": "_ABILITY_HowlingSoul_Flag",
              "param3": 0.0,
              "forceByCaster": true,
              "compareType": "NoneOrEqual"
            },
            {
              "$type": "CNGGLKHONAA",
              "key": "_ABILITY_FallingAnthem_UseCamera",
              "param3": 0.0,
              "forceByCaster": true,
              "compareType": "NoneOrEqual"
            }
          ],
          "rotationDampTime": "Eff_Avatar_Pole_FallingAnthem_Strike_01_Normal",
          "PPPDJGDDOGD": 1.0,
          "AJDILHJFNKE": -1.0
        },
        {
          "$type": "KBFEIHEAMBM",
          "predicates": [
            {
              "$type": "CNGGLKHONAA",
              "key": "_ABILITY_HowlingSoul_Flag",
              "param3": 0.0,
              "forceByCaster": true,
              "compareType": "NoneOrEqual"
            },
            {
              "$type": "CNGGLKHONAA",
              "key": "_ABILITY_FallingAnthem_UseCamera",
              "param3": 1.0,
              "forceByCaster": true
            }
          ],
          "rotationDampTime": "Eff_Avatar_Pole_FallingAnthem_Strike_02_Normal",
          "PPPDJGDDOGD": 1.0,
          "AJDILHJFNKE": -1.0
        },
        {
          "$type": "KBFEIHEAMBM",
          "predicates": [
            {
              "$type": "CNGGLKHONAA",
              "key": "_ABILITY_HowlingSoul_Flag",
              "param3": 1.0,
              "forceByCaster": true
            },
            {
              "$type": "CNGGLKHONAA",
              "key": "_ABILITY_FallingAnthem_UseCamera",
              "param3": 0.0,
              "forceByCaster": true,
              "compareType": "NoneOrEqual"
            }
          ],
          "rotationDampTime": "Eff_Avatar_Boy_Pole_Xiao_FallingAnthem_Strike_01_HowlingSoul",
          "PPPDJGDDOGD": 1.0,
          "AJDILHJFNKE": -1.0
        },
        {
          "$type": "KBFEIHEAMBM",
          "predicates": [
            {
              "$type": "CNGGLKHONAA",
              "key": "_ABILITY_HowlingSoul_Flag",
              "param3": 1.0,
              "forceByCaster": true
            },
            {
              "$type": "CNGGLKHONAA",
              "key": "_ABILITY_FallingAnthem_UseCamera",
              "param3": 1.0,
              "forceByCaster": true
            }
          ],
          "rotationDampTime": "Eff_Avatar_Boy_Pole_Xiao_FallingAnthem_Strike_02_HowlingSoul",
          "PPPDJGDDOGD": 1.0,
          "AJDILHJFNKE": -1.0
        }
      ]
    }
  },
  {
    "Default": {
      "$type": "CBPBEHLOHKI",
      "abilityName": "Avatar_Xiao_HowlingSoul_CameraController",
      "abilityMixins": [
        {
          "$type": "EKMHJKDLBJH",
          "stateIDs": [
            "Xiao_HowlingSoul"
          ],
          "modifierName": "HowlingSoul_Camera_Protection_Ghost",
          "DGFCLAIDIFI": ""
        },
        {
          "$type": "EKMHJKDLBJH",
          "stateIDs": [
            "Xiao_HowlingSoul"
          ],
          "modifierName": "HowlingSoul_Camera_Protection_Invincible",
          "DGFCLAIDIFI": ""
        },
        {
          "$type": "EKMHJKDLBJH",
          "stateIDs": [
            "Xiao_HowlingSoul"
          ],
          "modifierName": "HowlingSoul_Camera_Handler",
          "DGFCLAIDIFI": ""
        },
        {
          "$type": "EKMHJKDLBJH",
          "stateIDs": [
            "Xiao_HowlingSoul"
          ],
          "modifierName": "HowlingSoul_Camera_Remover",
          "DGFCLAIDIFI": ""
        }
      ],
      "modifiers": {
        "HowlingSoul_Camera_Protection_Ghost": {
          "modifierName": "",
          "IPFJJJGABPL": 100.0,
          "onAdded": [
            {
              "$type": "OPAOGKPJLIG",
              "resistanceListID": 11002
            }
          ]
        },
        "HowlingSoul_Camera_Protection_Invincible": {
          "modifierName": "",
          "IPFJJJGABPL": 100.0,
          "state": "Invincible"
        },
        "HowlingSoul_Camera_Handler": {
          "modifierName": "",
          "IPFJJJGABPL": 100.0,
          "modifierMixins": [
            {
              "$type": "EIMGEIJIDNO",
              "shapeName": "CircleR3",
              "born": {
                "$type": "JHEBKCMEMLN",
                "offset": {
                  "KGEPIMHBMOL": 0.0,
                  "JEBHCGDPFEJ": 0.0,
                  "LPCHALMFFOD": 0.0
                }
              },
              "strength": -3.0,
              "IAELBHDMINN": 2.0,
              "MMBCLAEOEFB": 0.0,
              "targetType": "Enemy",
              "predicates": [
                {
                  "$type": "NIMAPECDNKD",
                  "entityTypes": [
                    "Monster",
                    "Grass"
                  ]
                },
                {
                  "$type": "GDIBFABBADA",
                  "logic": "LesserOrEqual",
                  "BHOOHGLJDHM": 250.0
                }
              ],
              "modifierName": ""
            }
          ]
        },
        "HowlingSoul_Camera_Remover": {
          "modifierName": "",
          "IPFJJJGABPL": 100.0,
          "onAdded": [
            {
              "$type": "KGGAJAOJIDL",
              "toggleEmoSync": false,
              "toggleBlink": false,
              "toggleEyeKey": false
            },
            {
              "$type": "NAAJIHIKECC",
              "partNames": [
                "equip01"
              ]
            },
            {
              "$type": "LJBFFDLKIKL",
              "cameraParam": {
                "forceRadius": 5.0,
                "forceRadiusDuration": 0.10000000149011612,
                "shouldKeepForceRadius": true
              }
            }
          ],
          "onRemoved": [
            {
              "$type": "GPGGCODEFIF",
              "shieldHP": true,
              "enable": true
            },
            {
              "$type": "PEIPIGEMHEK",
              "shieldHP": true
            },
            {
              "$type": "KGGAJAOJIDL",
              "shieldHP": true
            },
            {
              "$type": "NAAJIHIKECC",
              "shieldHP": true,
              "KGGEDGKGLDD": true,
              "partNames": [
                "equip01"
              ]
            }
          ]
        },
        "UNIQUE_HowlingSoul_Mask_Material": {
          "modifierName": "",
          "forceTriggerWhenChangeAuthority": true,
          "IPFJJJGABPL": 100.0,
          "onAdded": [
            {
              "$type": "ANLOBBMKNIJ",
              "rotationDampTime": "Eff_Avatar_Boy_Pole_Xiao_HowlingSoul_Mask",
              "PPPDJGDDOGD": 1.0,
              "AJDILHJFNKE": -1.0
            }
          ]
        },
        "UNIQUE_HowlingSoul_Pre_Weather": {
          "modifierName": "",
          "forceTriggerWhenChangeAuthority": true,
          "elementDurability": 1.5,
          "IPFJJJGABPL": 100.0,
          "modifierMixins": [
            {
              "$type": "JFFOPFFEBPN",
              "damageRatio": "Skill",
              "weatherPattern": "Weather_Xiao_HowlingSoul_Pre",
              "transDuration": 0.30000001192092896,
              "duration": 1.5
            }
          ]
        }
      },
      "onAbilityStart": [
        {
          "$type": "GPGGCODEFIF",
          "blend": false
        },
        {
          "$type": "KBODPNEEFGD",
          "modifierName": "UNIQUE_HowlingSoul_Mask_Material_Remover"
        },
        {
          "$type": "KBODPNEEFGD",
          "modifierName": "UNIQUE_HowlingSoul_Mask_Material"
        },
        {
          "$type": "PELJALPANCA",
          "modifierName": "UNIQUE_HowlingSoul_Mask_Material"
        },
        {
          "$type": "KBODPNEEFGD",
          "modifierName": "UNIQUE_HowlingSoul_Weather"
        },
        {
          "$type": "PELJALPANCA",
          "modifierName": "UNIQUE_HowlingSoul_Pre_Weather"
        },
        {
          "$type": "KBFEIHEAMBM",
          "rotationDampTime": "Eff_Avatar_Boy_Pole_Xiao_HowlingSoul_Start",
          "PPPDJGDDOGD": 1.0,
          "AJDILHJFNKE": -1.0
        },
        {
          "$type": "OIDCJAEPFPF",
          "predicates": [
            {
              "$type": "CEKDKMLPJDC",
              "attackPattern": {
                "$type": "BELNOFAKNBA",
                "triggerType": "TriggerNoRepeat",
                "born": {
                  "$type": "IAENDIPDFKD",
                  "offset": {
                    "KGEPIMHBMOL": 0.0,
                    "JEBHCGDPFEJ": 1.0,
                    "LPCHALMFFOD": 0.20000000298023224
                  }
                },
                "OAHPDLJIADP": 0.4000000059604645
              },
              "checkWaterLayer": true
            },
            {
              "$type": "KINBGHMJBBD",
              "compareType": "LessAndEqual",
              "depth": 0.5
            }
          ],
          "cameraMoveCfgPath": "Camera_Xiao_HowlingSoul"
        }
      ]
    }
  },
  {
    "Default": {
      "$type": "CBPBEHLOHKI",
      "abilityName": "Avatar_Xiao_HowlingSoul",
      "abilitySpecials": {
        "HowlingSoul_LifeCostRatio": 0.0,
        "HowlingSoul_Duration": 0.0,
        "HowlingSoul_DamageUp": 0.0
      },
      "modifiers": {
        "UNIQUE_HowlingSoul_Main_Handler": {
          "modifierName": "",
          "forceTriggerWhenChangeAuthority": true,
          "elementDurability": [
            "HowlingSoul_Duration",
            0.800000011920929,
            "ADD"
          ],
          "IPFJJJGABPL": 100.0,
          "thinkInterval": 1.0,
          "modifierMixins": [
            {
              "$type": "HCCJNFOGEKI",
              "oldPatterns": [
                "Xiao_Attack01",
                "Xiao_Attack02",
                "Xiao_Attack03",
                "Xiao_Attack04",
                "Xiao_Attack05",
                "Xiao_Attack06",
                "Xiao_ExtraAttack",
                "Audio_Boy_FallingAnthem_AS_1_Normal_Xiao",
                "Audio_Boy_Attack01_Xiao",
                "Audio_Boy_Attack02_Xiao",
                "Audio_Boy_Attack03_Xiao",
                "Audio_Boy_Attack04_Xiao",
                "Audio_Boy_Attack05_Xiao",
                "Audio_Boy_Attack06_Xiao",
                "Audio_Boy_ExtraAtk_Xiao"
              ],
              "newPatterns": [
                "Xiao_Attack01_HowlingSoul",
                "Xiao_Attack02_HowlingSoul",
                "Xiao_Attack03_HowlingSoul",
                "Xiao_Attack04_HowlingSoul",
                "Xiao_Attack05_HowlingSoul",
                "Xiao_Attack06_HowlingSoul",
                "Xiao_ExtraAttack_HowlingSoul",
                "Audio_Boy_FallingAnthem_AS_1_HS_Xiao",
                "Audio_Boy_Attack01_HS_Xiao",
                "Audio_Boy_Attack02_HS_Xiao",
                "Audio_Boy_Attack03_HS_Xiao",
                "Audio_Boy_Attack04_HS_Xiao",
                "Audio_Boy_Attack05_HS_Xiao",
                "Audio_Boy_Attack06_HS_Xiao",
                "Audio_Boy_ExtraAtk_HowlingSoul_Xiao"
              ]
            },
            {
              "$type": "EKMHJKDLBJH",
              "stateIDs": [
                "Jump"
              ],
              "modifierName": "HowlingSoul_Jump_Material",
              "DGFCLAIDIFI": ""
            },
            {
              "$type": "NAFEDCNOIGL",
              "stateID": "Jump",
              "modifierName": "HowlingSoul_StayInAir_FallingProtection",
              "normalizeEnd": 0.20000000298023224,
              "DGFCLAIDIFI": ""
            },
            {
              "$type": "NAFEDCNOIGL",
              "stateID": "JumpForRun",
              "modifierName": "HowlingSoul_StayInAir_FallingProtection",
              "normalizeEnd": 0.20000000298023224,
              "DGFCLAIDIFI": ""
            },
            {
              "$type": "NAFEDCNOIGL",
              "stateID": "JumpForWalk",
              "modifierName": "HowlingSoul_StayInAir_FallingProtection",
              "normalizeEnd": 0.20000000298023224,
              "DGFCLAIDIFI": ""
            },
            {
              "$type": "NAFEDCNOIGL",
              "stateID": "JumpForSprint",
              "modifierName": "HowlingSoul_StayInAir_FallingProtection",
              "normalizeEnd": 0.20000000298023224,
              "DGFCLAIDIFI": ""
            },
            {
              "$type": "NAFEDCNOIGL",
              "stateID": "DevilDash",
              "modifierName": "HowlingSoul_AfterImage_Main_Handler_DevilDash",
              "normalizeEnd": 0.699999988079071,
              "DGFCLAIDIFI": ""
            },
            {
              "$type": "NAFEDCNOIGL",
              "stateID": "DevilDashAir",
              "modifierName": "HowlingSoul_AfterImage_Main_Handler_DevilDashAir",
              "normalizeEnd": 0.699999988079071,
              "DGFCLAIDIFI": ""
            },
            {
              "$type": "NAFEDCNOIGL",
              "stateID": "Attack03",
              "modifierName": "HowlingSoul_AfterImage_Main_Handler_Attack03",
              "normalizeEnd": 0.15000000596046448,
              "DGFCLAIDIFI": ""
            },
            {
              "$type": "NAFEDCNOIGL",
              "stateID": "Attack04",
              "modifierName": "HowlingSoul_AfterImage_Main_Handler_Attack04",
              "normalizeEnd": 0.20000000298023224,
              "DGFCLAIDIFI": ""
            },
            {
              "$type": "NAFEDCNOIGL",
              "stateID": "Attack05",
              "modifierName": "HowlingSoul_AfterImage_Main_Handler_Attack05",
              "normalizeEnd": 0.10999999940395355,
              "DGFCLAIDIFI": ""
            },
            {
              "$type": "NAFEDCNOIGL",
              "stateID": "Attack06",
              "modifierName": "HowlingSoul_AfterImage_Main_Handler_Attack06",
              "normalizeEnd": 0.10000000149011612,
              "DGFCLAIDIFI": ""
            },
            {
              "$type": "NAFEDCNOIGL",
              "stateID": "Attack06",
              "modifierName": "HowlingSoul_AfterImage_Main_Handler_Attack06",
              "normalizeStart": 0.20999999344348907,
              "normalizeEnd": 0.25,
              "DGFCLAIDIFI": ""
            },
            {
              "$type": "LDBCDLJECKF",
              "attackTags": [
                "NormalAttack_01",
                "NormalAttack_02",
                "NormalAttack_03",
                "NormalAttack_04",
                "NormalAttack_05",
                "NormalAttack_06",
                "ExtraAttack",
                "FallingAttack"
              ],
              "actorWindSubHurtDelta": "HowlingSoul_DamageUp"
            }
          ],
          "properties": {
            "Actor_EndureDelta": 0.5
          },
          "onAdded": [
            {
              "$type": "ENPKLOKAGDL",
              "materialType": "Arm",
              "value": 20.0,
              "duration": 20.0
            },
            {
              "$type": "LCOEFEMOHLP",
              "param3": 1.0,
              "key": "_ABILITY_HowlingSoul_Flag",
              "useLimitRange": true,
              "param2": 1.0,
              "repeatTimes": 1.0
            },
            {
              "$type": "ANLOBBMKNIJ",
              "rotationDampTime": "Eff_Avatar_Boy_Pole_Xiao_HowlingSoul_Loop",
              "PPPDJGDDOGD": 1.0,
              "AJDILHJFNKE": -1.0
            },
            {
              "$type": "OBFLHMDNOCN",
              "canBeHandledOnRecover": true,
              "enable": true,
              "extention": {
                "xzMultiplier": 2.299999952316284,
                "yMultiplier": 5.0
              }
            },
            {
              "$type": "CDHOAGHMOEE"
            },
            {
              "$type": "KJCHPDPBJHL",
              "boolID": "CanSpecialPerform"
            }
          ],
          "onRemoved": [
            {
              "$type": "OBFLHMDNOCN",
              "shieldHP": true,
              "canBeHandledOnRecover": true
            },
            {
              "$type": "LCOEFEMOHLP",
              "shieldHP": true,
              "param3": -999.0,
              "key": "_ABILITY_HowlingSoul_Flag",
              "useLimitRange": true,
              "param2": 0.0,
              "repeatTimes": 0.0
            },
            {
              "$type": "KBODPNEEFGD",
              "shieldHP": true,
              "modifierName": "UNIQUE_HowlingSoul_Weather"
            },
            {
              "$type": "KBFEIHEAMBM",
              "rotationDampTime": "Eff_Avatar_Boy_Pole_Xiao_HowlingSoul_Mask_Dissipate",
              "PPPDJGDDOGD": 1.0,
              "AJDILHJFNKE": -1.0
            },
            {
              "$type": "FEKJDLHHOLE",
              "shieldHP": true,
              "floatID": "HowlingSoul_Flag",
              "param3": 0.0
            },
            {
              "$type": "PELJALPANCA",
              "shieldHP": true,
              "modifierName": "UNIQUE_HowlingSoul_Mask_Material_Remover"
            },
            {
              "$type": "ENPKLOKAGDL",
              "shieldHP": true,
              "materialType": "Arm",
              "value": 0.5
            },
            {
              "$type": "KJCHPDPBJHL",
              "shieldHP": true,
              "boolID": "CanSpecialPerform",
              "param3": true
            }
          ],
          "onThinkInterval": [
            {
              "$type": "DLLGNJPHFDE",
              "HFGOEPIEBEE": "HowlingSoul_LifeCostRatio",
              "lethal": false,
              "BJKGFBGEFPB": ""
            },
            {
              "$type": "OBFLHMDNOCN",
              "canBeHandledOnRecover": true,
              "enable": true,
              "extention": {
                "xzMultiplier": 2.299999952316284,
                "yMultiplier": 5.0
              }
            }
          ],
          "onKill": [
            {
              "$type": "ENPKLOKAGDL",
              "shieldHP": true,
              "materialType": "Arm",
              "value": 0.5
            },
            {
              "$type": "KBODPNEEFGD",
              "shieldHP": true,
              "modifierName": "UNIQUE_HowlingSoul_Main_Handler"
            }
          ],
          "onAvatarIn": [
            {
              "$type": "FEKJDLHHOLE",
              "floatID": "HowlingSoul_Flag",
              "param3": 1.0
            }
          ],
          "onAvatarOut": [
            {
              "$type": "KBODPNEEFGD",
              "shieldHP": true,
              "modifierName": "UNIQUE_HowlingSoul_Main_Handler"
            }
          ]
        },
        "UNIQUE_HowlingSoul_Weather": {
          "modifierName": "",
          "forceTriggerWhenChangeAuthority": true,
          "IPFJJJGABPL": 100.0,
          "modifierMixins": [
            {
              "$type": "JFFOPFFEBPN",
              "damageRatio": "Skill",
              "weatherPattern": "Weather_Xiao_HowlingSoul",
              "duration": 999.0
            }
          ]
        },
        "HowlingSoul_Jump_Material": {
          "modifierName": "",
          "IPFJJJGABPL": 100.0,
          "onAdded": [
            {
              "$type": "KBFEIHEAMBM",
              "rotationDampTime": "Eff_Avatar_Boy_Pole_Xiao_HowlingSoul_Jump",
              "PPPDJGDDOGD": 1.0,
              "AJDILHJFNKE": -1.0
            }
          ]
        },
        "HowlingSoul_StayInAir_Hard": {
          "modifierName": "",
          "IPFJJJGABPL": 100.0,
          "properties": {
            "Animator_MoveSpeedRatio": -0.699999988079071
          }
        },
        "HowlingSoul_StayInAir_Normal": {
          "modifierName": "",
          "IPFJJJGABPL": 100.0,
          "properties": {
            "Animator_MoveSpeedRatio": -0.5
          }
        },
        "HowlingSoul_StayInAir_FallingProtection": {
          "modifierName": "",
          "IPFJJJGABPL": 100.0,
          "onAdded": [
            {
              "$type": "PELJALPANCA",
              "modifierName": "HowlingSoul_StayInAir_FallingProtection_Handler"
            }
          ]
        },
        "HowlingSoul_StayInAir_FallingProtection_Handler": {
          "modifierName": "",
          "elementDurability": 0.20000000298023224,
          "IPFJJJGABPL": 100.0,
          "properties": {
            "Actor_FallingDamageRatio": -1.0
          }
        },
        "UNIQUE_HowlingSoul_Mask_Material_Remover": {
          "modifierName": "",
          "forceTriggerWhenChangeAuthority": true,
          "elementDurability": 1.600000023841858,
          "IPFJJJGABPL": 100.0,
          "thinkInterval": 1.0,
          "onAdded": [
            {
              "$type": "GFOOGEIKGBI",
              "parameter": "Fade",
              "attachPoint": "",
              "rotationDampTime": "Eff_Avatar_Boy_Pole_Xiao_HowlingSoul_Mask"
            }
          ],
          "onThinkInterval": [
            {
              "$type": "KBODPNEEFGD",
              "shieldHP": true,
              "modifierName": "UNIQUE_HowlingSoul_Mask_Material"
            }
          ]
        },
        "HowlingSoul_AfterImage_Main_Handler": {
          "modifierName": "",
          "IPFJJJGABPL": 100.0,
          "onAdded": [
            {
              "$type": "LOJLJJHMJCM",
              "enable": true
            }
          ],
          "onRemoved": [
            {
              "$type": "LOJLJJHMJCM",
              "shieldHP": true
            }
          ]
        },
        "HowlingSoul_AfterImage_Main_Handler_DevilDash": {
          "modifierName": "",
          "IPFJJJGABPL": 100.0,
          "onAdded": [
            {
              "$type": "LOJLJJHMJCM",
              "enable": true
            }
          ],
          "onRemoved": [
            {
              "$type": "LOJLJJHMJCM",
              "shieldHP": true
            }
          ]
        },
        "HowlingSoul_AfterImage_Main_Handler_DevilDashAir": {
          "modifierName": "",
          "IPFJJJGABPL": 100.0,
          "onAdded": [
            {
              "$type": "LOJLJJHMJCM",
              "enable": true
            }
          ],
          "onRemoved": [
            {
              "$type": "LOJLJJHMJCM",
              "shieldHP": true
            }
          ]
        },
        "HowlingSoul_AfterImage_Main_Handler_Attack03": {
          "modifierName": "",
          "IPFJJJGABPL": 100.0,
          "onAdded": [
            {
              "$type": "LOJLJJHMJCM",
              "enable": true
            }
          ],
          "onRemoved": [
            {
              "$type": "LOJLJJHMJCM",
              "shieldHP": true
            }
          ]
        },
        "HowlingSoul_AfterImage_Main_Handler_Attack04": {
          "modifierName": "",
          "IPFJJJGABPL": 100.0,
          "onAdded": [
            {
              "$type": "LOJLJJHMJCM",
              "enable": true
            }
          ],
          "onRemoved": [
            {
              "$type": "LOJLJJHMJCM",
              "shieldHP": true
            }
          ]
        },
        "HowlingSoul_AfterImage_Main_Handler_Attack05": {
          "modifierName": "",
          "IPFJJJGABPL": 100.0,
          "onAdded": [
            {
              "$type": "LOJLJJHMJCM",
              "enable": true
            }
          ],
          "onRemoved": [
            {
              "$type": "LOJLJJHMJCM",
              "shieldHP": true
            }
          ]
        },
        "HowlingSoul_AfterImage_Main_Handler_Attack06": {
          "modifierName": "",
          "IPFJJJGABPL": 100.0,
          "onAdded": [
            {
              "$type": "LOJLJJHMJCM",
              "enable": true
            }
          ],
          "onRemoved": [
            {
              "$type": "LOJLJJHMJCM",
              "shieldHP": true
            }
          ]
        },
        "HowlingSoul_AfterImage_Buff": {
          "modifierName": "",
          "elementDurability": 0.3499999940395355,
          "IPFJJJGABPL": 100.0,
          "onAdded": [
            {
              "$type": "LOJLJJHMJCM",
              "enable": true
            }
          ],
          "onRemoved": [
            {
              "$type": "LOJLJJHMJCM",
              "shieldHP": true
            }
          ]
        }
      },
      "onAdded": [
        {
          "$type": "LCOEFEMOHLP",
          "param3": -999.0,
          "key": "_ABILITY_HowlingSoul_Flag",
          "useLimitRange": true,
          "param2": 0.0,
          "repeatTimes": 0.0
        }
      ],
      "onAbilityStart": [
        {
          "$type": "KBODPNEEFGD",
          "modifierName": "UNIQUE_HowlingSoul_Pre_Weather"
        },
        {
          "$type": "PELJALPANCA",
          "modifierName": "UNIQUE_HowlingSoul_Weather"
        },
        {
          "$type": "FEKJDLHHOLE",
          "floatID": "HowlingSoul_Flag",
          "param3": 1.0
        },
        {
          "$type": "PELJALPANCA",
          "modifierName": "UNIQUE_HowlingSoul_Main_Handler"
        },
        {
          "$type": "KBFEIHEAMBM",
          "rotationDampTime": "Eff_Avatar_Boy_Pole_Xiao_HowlingSoul_Burst",
          "PPPDJGDDOGD": 1.0,
          "AJDILHJFNKE": -1.0
        },
        {
          "$type": "OCLNBBMMIOK",
          "skillID": 10265,
          "amountByTargetCurrentHPRatio": 1.0,
          "costStaminaRatio": 1.0
        }
      ]
    }
  },
  {
    "Default": {
      "$type": "CBPBEHLOHKI",
      "abilityName": "Avatar_Xiao_Talent_Zen",
      "abilitySpecials": {
        "Xiao_Talent_Zen_ChargeEfficiencyUp": 0.0
      },
      "modifiers": {
        "UNIQUE_Zen_Handler": {
          "modifierName": "",
          "forceTriggerWhenChangeAuthority": true,
          "IPFJJJGABPL": 100.0,
          "onAdded": [
            {
              "$type": "PELJALPANCA",
              "shieldHP": true,
              "predicates": [
                {
                  "$type": "BCFNGJHILAG",
                  "predicates": [
                    {
                      "$type": "JALOOGPAKNF"
                    }
                  ]
                }
              ],
              "modifierName": "UNIQUE_Zen_ChargeEfficiencyUp"
            }
          ],
          "onAvatarIn": [
            {
              "$type": "KBODPNEEFGD",
              "modifierName": "UNIQUE_Zen_ChargeEfficiencyUp"
            }
          ],
          "onAvatarOut": [
            {
              "$type": "PELJALPANCA",
              "shieldHP": true,
              "modifierName": "UNIQUE_Zen_ChargeEfficiencyUp"
            }
          ]
        },
        "UNIQUE_Zen_ChargeEfficiencyUp": {
          "modifierName": "",
          "forceTriggerWhenChangeAuthority": true,
          "IPFJJJGABPL": 100.0,
          "properties": {
            "Actor_ChargeEfficiencyDelta": "Xiao_Talent_Zen_ChargeEfficiencyUp"
          }
        }
      },
      "onAdded": [
        {
          "$type": "PELJALPANCA",
          "modifierName": "UNIQUE_Zen_Handler"
        }
      ],
      "isDynamicAbility": true
    }
  },
  {
    "Default": {
      "$type": "CBPBEHLOHKI",
      "abilityName": "Avatar_Xiao_Talent_DevilMayCry",
      "abilitySpecials": {
        "DevilMayCry_DamageUp": 0.0,
        "DevilMayCry_DeltaTime": 0.0,
        "DevilMayCry_TimeToDamage_Interval": 3.0
      },
      "modifiers": {
        "DevilMayCry_Handler": {
          "modifierName": "",
          "IPFJJJGABPL": 100.0,
          "modifierMixins": [
            {
              "$type": "MLJAPFBGEEH",
              "globalValueKey": "_ABILITY_HowlingSoul_Flag",
              "gvInTalk": 0.0,
              "valueSteps": [
                -1.0,
                0.5,
                1.5
              ],
              "modifierNameSteps": [
                "DevilMayCry_Blank",
                "DevilMayCry_TimeToDamage"
              ]
            }
          ]
        },
        "DevilMayCry_Blank": {
          "modifierName": "",
          "IPFJJJGABPL": 100.0
        },
        "DevilMayCry_TimeToDamage": {
          "modifierName": "",
          "IPFJJJGABPL": 100.0,
          "thinkInterval": "DevilMayCry_TimeToDamage_Interval",
          "modifierMixins": [
            {
              "$type": "LDBCDLJECKF",
              "ignoreEventInfo": true,
              "actorWindSubHurtDelta": [
                "DevilMayCry_DamageUp",
                "DevilMayCry_DeltaTime",
                "MUL"
              ]
            },
            {
              "$type": "MLJAPFBGEEH",
              "globalValueKey": "_ABILITY_XIAO_DEVILMAYCRY_DELTATIME",
              "gvInTalk": 0.0,
              "valueSteps": [
                0.0,
                4.5,
                5.5
              ],
              "modifierNameSteps": [
                "DevilMayCry_Material_Low",
                "DevilMayCry_Material_High"
              ]
            }
          ],
          "onAdded": [
            {
              "$type": "LCOEFEMOHLP",
              "param3": -4.0,
              "key": "_ABILITY_XIAO_DEVILMAYCRY_DELTATIME",
              "useLimitRange": true,
              "param2": 5.0,
              "repeatTimes": 1.0
            },
            {
              "$type": "LDIAIDLOPEE",
              "globalValueKey": "_ABILITY_XIAO_DEVILMAYCRY_DELTATIME",
              "overrideMapKey": "DevilMayCry_DeltaTime"
            }
          ],
          "onThinkInterval": [
            {
              "$type": "LCOEFEMOHLP",
              "param3": 1.0,
              "key": "_ABILITY_XIAO_DEVILMAYCRY_DELTATIME",
              "useLimitRange": true,
              "param2": 5.0,
              "repeatTimes": 1.0
            },
            {
              "$type": "LDIAIDLOPEE",
              "globalValueKey": "_ABILITY_XIAO_DEVILMAYCRY_DELTATIME",
              "overrideMapKey": "DevilMayCry_DeltaTime"
            }
          ]
        },
        "DevilMayCry_Material_Low": {
          "modifierName": "",
          "IPFJJJGABPL": 100.0,
          "onAdded": [
            {
              "$type": "ANLOBBMKNIJ",
              "rotationDampTime": "Eff_Avatar_Boy_Pole_Xiao_DevilMayCry_Low",
              "PPPDJGDDOGD": 1.0,
              "AJDILHJFNKE": -1.0
            }
          ]
        },
        "DevilMayCry_Material_High": {
          "modifierName": "",
          "IPFJJJGABPL": 100.0,
          "onAdded": [
            {
              "$type": "ANLOBBMKNIJ",
              "rotationDampTime": "Eff_Avatar_Boy_Pole_Xiao_DevilMayCry_High",
              "PPPDJGDDOGD": 1.0,
              "AJDILHJFNKE": -1.0
            }
          ]
        }
      },
      "onAdded": [
        {
          "$type": "PELJALPANCA",
          "modifierName": "DevilMayCry_Handler"
        }
      ],
      "isDynamicAbility": true
    }
  },
  {
    "Default": {
      "$type": "CBPBEHLOHKI",
      "abilityName": "Avatar_Xiao_NormalAttack_DamageHandler",
      "abilityMixins": [
        {
          "$type": "LDBCDLJECKF",
          "animEventNames": [
            "ATK01A",
            "ATK01A_HowlingSoul"
          ],
          "actorGrassSubHurtDelta": "NormalAttack_01A_DamagePercentage",
          "actorWindSubHurtDelta": 0.0
        },
        {
          "$type": "LDBCDLJECKF",
          "animEventNames": [
            "ATK01B",
            "ATK01B_HowlingSoul"
          ],
          "actorGrassSubHurtDelta": "NormalAttack_01B_DamagePercentage",
          "actorWindSubHurtDelta": 0.0
        },
        {
          "$type": "LDBCDLJECKF",
          "animEventNames": [
            "ATK02",
            "ATK02_HowlingSoul"
          ],
          "actorGrassSubHurtDelta": "NormalAttack_02_DamagePercentage",
          "actorWindSubHurtDelta": 0.0
        },
        {
          "$type": "LDBCDLJECKF",
          "animEventNames": [
            "ATK03",
            "ATK03_HowlingSoul"
          ],
          "actorGrassSubHurtDelta": "NormalAttack_03_DamagePercentage",
          "actorWindSubHurtDelta": 0.0
        },
        {
          "$type": "LDBCDLJECKF",
          "animEventNames": [
            "ATK04A",
            "ATK04A_HowlingSoul"
          ],
          "actorGrassSubHurtDelta": "NormalAttack_04A_DamagePercentage",
          "actorWindSubHurtDelta": 0.0
        },
        {
          "$type": "LDBCDLJECKF",
          "animEventNames": [
            "ATK04B",
            "ATK04B_HowlingSoul"
          ],
          "actorGrassSubHurtDelta": "NormalAttack_04B_DamagePercentage",
          "actorWindSubHurtDelta": 0.0
        },
        {
          "$type": "LDBCDLJECKF",
          "animEventNames": [
            "ATK05",
            "ATK05_HowlingSoul"
          ],
          "actorGrassSubHurtDelta": "NormalAttack_05_DamagePercentage",
          "actorWindSubHurtDelta": 0.0
        },
        {
          "$type": "LDBCDLJECKF",
          "animEventNames": [
            "ATK06",
            "ATK06_HowlingSoul"
          ],
          "actorGrassSubHurtDelta": "NormalAttack_06_DamagePercentage",
          "actorWindSubHurtDelta": 0.0
        },
        {
          "$type": "LDBCDLJECKF",
          "animEventNames": [
            "ExtraAttack",
            "ExtraAttack_HowlingSoul"
          ],
          "actorGrassSubHurtDelta": "ExtraAttack_DamagePercentage",
          "actorWindSubHurtDelta": 0.0
        }
      ],
      "abilitySpecials": {
        "NormalAttack_01A_DamagePercentage": 0.0,
        "NormalAttack_01B_DamagePercentage": 0.0,
        "NormalAttack_02_DamagePercentage": 0.0,
        "NormalAttack_03_DamagePercentage": 0.0,
        "NormalAttack_04A_DamagePercentage": 0.0,
        "NormalAttack_04B_DamagePercentage": 0.0,
        "NormalAttack_05_DamagePercentage": 0.0,
        "NormalAttack_06_DamagePercentage": 0.0,
        "ExtraAttack_DamagePercentage": 0.0
      }
    }
  },
  {
    "Default": {
      "$type": "CBPBEHLOHKI",
      "abilityName": "Avatar_Xiao_CoreSkill",
      "abilityMixins": [
        {
          "$type": "LDBCDLJECKF",
          "attackTags": [
            "ExtraAttack"
          ],
          "actorWindSubHurtDelta": "CoreSkill_DamagePercentageRatio"
        }
      ],
      "abilitySpecials": {
        "CoreSkill_DamagePercentageRatio": 0.0
      }
    }
  },
  {
    "Default": {
      "$type": "CBPBEHLOHKI",
      "abilityName": "Avatar_Xiao_Talent_LowHP_DefenceUp",
      "abilitySpecials": {
        "Xiao_Talent_LowHPRatio": 0.0,
        "Xiao_Talent_LowHP_DefenceRatio": 0.0
      },
      "modifiers": {
        "Xiao_Talent_LowHP_DefenceUp_Handler": {
          "modifierName": "",
          "IPFJJJGABPL": 100.0,
          "thinkInterval": 0.30000001192092896,
          "modifierMixins": [
            {
              "$type": "MLJAPFBGEEH",
              "globalValueKey": "_ABILITY_Xiao_Talent_LowHP_DefenceUp_Active",
              "gvInTalk": 0.0,
              "valueSteps": [
                -0.5,
                0.5,
                1.5
              ],
              "modifierNameSteps": [
                "Xiao_Talent_LowHP_DefenceUp_Blank",
                "Xiao_Talent_LowHP_DefenceUp_Buff"
              ]
            }
          ],
          "onThinkInterval": [
            {
              "$type": "BOBCOJHOKKD",
              "shieldHP": true,
              "predicates": [
                {
                  "$type": "AFCIHEABHEL",
                  "target": "Self",
                  "logic": "LesserOrEqual",
                  "ratio": "Xiao_Talent_LowHPRatio"
                }
              ],
              "param3": 1.0,
              "key": "_ABILITY_Xiao_Talent_LowHP_DefenceUp_Active",
              "param2": 0.0,
              "repeatTimes": 0.0
            },
            {
              "$type": "BOBCOJHOKKD",
              "shieldHP": true,
              "predicates": [
                {
                  "$type": "AFCIHEABHEL",
                  "target": "Self",
                  "ratio": "Xiao_Talent_LowHPRatio"
                }
              ],
              "param3": 0.0,
              "key": "_ABILITY_Xiao_Talent_LowHP_DefenceUp_Active",
              "param2": 0.0,
              "repeatTimes": 0.0
            }
          ]
        },
        "Xiao_Talent_LowHP_DefenceUp_Blank": {
          "modifierName": "",
          "IPFJJJGABPL": 100.0
        },
        "Xiao_Talent_LowHP_DefenceUp_Buff": {
          "modifierName": "",
          "IPFJJJGABPL": 100.0,
          "properties": {
            "Actor_DefenceRatio": "Xiao_Talent_LowHP_DefenceRatio"
          },
          "state": "DefenseUp",
          "isLimitedProperties": true
        }
      },
      "onAdded": [
        {
          "$type": "PELJALPANCA",
          "shieldHP": true,
          "modifierName": "Xiao_Talent_LowHP_DefenceUp_Handler"
        }
      ],
      "isDynamicAbility": true
    }
  },
  {
    "Default": {
      "$type": "CBPBEHLOHKI",
      "abilityName": "Avatar_Xiao_FallingDamageReduction"
    }
  },
  {
    "Default": {
      "$type": "CBPBEHLOHKI",
      "abilityName": "Avatar_Xiao_ClimbStamina_Reduction",
      "modifiers": {
        "Xiao_ClimbStaminaReduction_Handler": {
          "modifierName": "",
          "IPFJJJGABPL": 100.0,
          "thinkInterval": 5.0,
          "onThinkInterval": [
            {
              "$type": "JLDEMMJAMLC",
              "target": "CurTeamAvatars",
              "shieldHP": true,
              "modifierName": "UNIQUE_ClimbStaminaReduction"
            }
          ]
        },
        "UNIQUE_ClimbStaminaReduction": {
          "modifierName": "",
          "forceTriggerWhenChangeAuthority": true,
          "IPFJJJGABPL": 100.0,
          "modifierMixins": [
            {
              "$type": "EKMHJKDLBJH",
              "stateIDs": [
                "Climb"
              ],
              "modifierName": "ClimbStamina_Reduction",
              "DGFCLAIDIFI": ""
            }
          ]
        },
        "ClimbStamina_Reduction": {
          "modifierName": "",
          "IPFJJJGABPL": 100.0,
          "properties": {
            "Actor_CostStaminaRatio": -0.20000000298023224
          }
        }
      },
      "onAdded": [
        {
          "$type": "JLDEMMJAMLC",
          "target": "CurTeamAvatars",
          "shieldHP": true,
          "modifierName": "UNIQUE_ClimbStaminaReduction"
        },
        {
          "$type": "JLDEMMJAMLC",
          "shieldHP": true,
          "modifierName": "Xiao_ClimbStaminaReduction_Handler"
        }
      ],
      "isDynamicAbility": true
    }
  }
]