[
  {
    "Default": {
      "$type": "CBPBEHLOHKI",
      "abilityName": "Avatar_Beidou_ExtraAttack_Chongyun",
      "abilityMixins": [
        {
          "$type": "GODEMHMODCN",
          "skillID": 10401,
          "chargeTime": 0.25,
          "EKKJNADOEMB": "Max_Dura",
          "onBeginUncharged": [
            {
              "$type": "BLCCGIPAOIP",
              "PLLJBINMGJK": "DoSkill"
            },
            {
              "$type": "AKEEDILMOJF",
              "intID": "SkillID",
              "param3": 1.0
            },
            {
              "$type": "GNAEJNBIFAC",
              "PLLJBINMGJK": "EndHoldTrigger"
            },
            {
              "$type": "PFKNEFGOHIH",
              "modifierName": "SetTrigger"
            }
          ],
          "onBeginCharged": [
            {
              "$type": "BLCCGIPAOIP",
              "PLLJBINMGJK": "DoSkill"
            },
            {
              "$type": "AKEEDILMOJF",
              "intID": "SkillID",
              "param3": 6.0
            }
          ],
          "onReleaseCharged": [
            {
              "$type": "BLCCGIPAOIP",
              "PLLJBINMGJK": "EndHoldTrigger"
            },
            {
              "$type": "PELJALPANCA",
              "modifierName": "SetTrigger"
            }
          ],
          "onBeginSecondCharged": [
            {
              "$type": "BLCCGIPAOIP",
              "PLLJBINMGJK": "EndHoldTrigger"
            }
          ],
          "chargeStateIDs": [
            "Attack01_BS",
            "Attack01",
            "Attack02",
            "Attack03",
            "Attack04",
            "ExtraAttack_BS",
            "ExtraAttack",
            "ExtraAttack1"
          ]
        },
        {
          "$type": "OMINBOKBKOB",
          "stateIDs": [
            "ExtraAttack1"
          ],
          "PBLEFEPFBPH": "",
          "LBOBGGPJOOP": ""
        },
        {
          "$type": "EKMHJKDLBJH",
          "stateIDs": [
            "ExtraAttack",
            "ExtraAttack1",
            "ExtraAttack2",
            "ExtraAttack3"
          ],
          "modifierName": "Camera",
          "DGFCLAIDIFI": ""
        },
        {
          "$type": "EKMHJKDLBJH",
          "stateIDs": [
            "ExtraAttack1"
          ],
          "modifierName": "Cost",
          "DGFCLAIDIFI": ""
        }
      ],
      "abilitySpecials": {
        "ExtraAttack_Claymore_Stamina_Cost": 0.0,
        "Max_Dura": 0.0
      },
      "modifiers": {
        "SetTrigger": {
          "modifierName": "",
          "elementDurability": 1.0,
          "IPFJJJGABPL": 100.0,
          "onRemoved": [
            {
              "$type": "BLCCGIPAOIP",
              "PLLJBINMGJK": "EndHoldTrigger"
            }
          ]
        },
        "Camera": {
          "modifierName": "",
          "IPFJJJGABPL": 100.0,
          "onRemoved": [
            {
              "$type": "PEIPIGEMHEK",
              "shieldHP": true
            }
          ],
          "onAvatarOut": [
            {
              "$type": "PEIPIGEMHEK",
              "shieldHP": true
            }
          ]
        },
        "Cost": {
          "modifierName": "",
          "IPFJJJGABPL": 100.0,
          "modifierMixins": [
            {
              "$type": "ALFJHNOMEFL",
              "costStaminaDelta": "ExtraAttack_Claymore_Stamina_Cost",
              "onStaminaEmpty": [
                {
                  "$type": "BLCCGIPAOIP",
                  "PLLJBINMGJK": "EndHoldTrigger"
                }
              ]
            }
          ]
        }
      }
    }
  },
  {
    "Default": {
      "$type": "CBPBEHLOHKI",
      "abilityName": "Avatar_Chongyun_ElementalArt_Initiate",
      "modifiers": {
        "Weapon_FX": {
          "modifierName": "",
          "elementDurability": 0.5,
          "IPFJJJGABPL": 100.0,
          "onAdded": [
            {
              "$type": "KBFEIHEAMBM",
              "rotationDampTime": "Eff_Chongyun_ElementalSkill_Weapon",
              "PPPDJGDDOGD": 1.0,
              "AJDILHJFNKE": -1.0
            }
          ]
        }
      },
      "onAbilityStart": [
        {
          "$type": "JLDEMMJAMLC",
          "otherTargets": {
            "$type": "GAPFENEFKKE",
            "equipPartNames": [
              "equip01",
              "sheathPoint"
            ]
          },
          "modifierName": "Weapon_FX"
        }
      ]
    }
  },
  {
    "Default": {
      "$type": "CBPBEHLOHKI",
      "abilityName": "Avatar_Chongyun_ElementalArt_Damage",
      "abilitySpecials": {
        "ElementalArt_Damage": 0.0
      },
      "modifiers": {
        "ElementalArt_Ball": {
          "modifierName": "",
          "IPFJJJGABPL": 100.0,
          "onAttackLanded": [
            {
              "$type": "INBCDALOHMP",
              "target": "Target",
              "targetPredicates": [
                {
                  "$type": "NNEHDJHMING",
                  "attackTags": [
                    "Elemental_Art"
                  ]
                },
                {
                  "$type": "NIMAPECDNKD",
                  "entityTypes": [
                    "Monster"
                  ]
                },
                {
                  "$type": "EGKHHMLPGLB",
                  "attackType": "Melee"
                },
                {
                  "$type": "CNGGLKHONAA",
                  "key": "_ANIMAL_ENTITY_TYPE",
                  "param3": 0.0,
                  "compareType": "NoneOrEqual"
                }
              ],
              "successActions": [
                {
                  "$type": "PELJALPANCA",
                  "modifierName": "Ball_Base"
                }
              ]
            }
          ]
        },
        "Ball_Base": {
          "stacking": "Unique",
          "modifierName": "",
          "elementDurability": 0.20000000298023224,
          "IPFJJJGABPL": 100.0,
          "onAdded": [
            {
              "$type": "OGPDKJJJKNN",
              "configID": 2022,
              "born": {
                "$type": "JHEBKCMEMLN",
                "offset": {
                  "KGEPIMHBMOL": 0.0,
                  "JEBHCGDPFEJ": 0.0,
                  "LPCHALMFFOD": 1.0
                }
              },
              "hpRatio": 1.0,
              "baseEnergy": 12.0
            }
          ]
        }
      },
      "onAdded": [
        {
          "$type": "PELJALPANCA",
          "modifierName": "ElementalArt_Ball"
        }
      ],
      "onAbilityStart": [
        {
          "$type": "OCLNBBMMIOK",
          "predicates": [
            {
              "$type": "IHLMAOEHHOB",
              "skillID": 10402
            }
          ],
          "skillID": 10402,
          "amountByTargetCurrentHPRatio": 1.0,
          "costStaminaRatio": 1.0
        },
        {
          "$type": "KBFEIHEAMBM",
          "rotationDampTime": "Eff_Chongyun_ElementalSkill_Hit",
          "born": {
            "$type": "IAENDIPDFKD",
            "offset": {
              "KGEPIMHBMOL": 0.0,
              "JEBHCGDPFEJ": 0.0,
              "LPCHALMFFOD": 2.5
            }
          },
          "PPPDJGDDOGD": 1.0,
          "AJDILHJFNKE": -1.0
        },
        {
          "$type": "AIFPLABJNMA",
          "attackEvent": {
            "attackPattern": {
              "$type": "BELNOFAKNBA",
              "triggerType": "TriggerNoRepeat",
              "born": {
                "$type": "IAENDIPDFKD",
                "offset": {
                  "KGEPIMHBMOL": 0.0,
                  "JEBHCGDPFEJ": 0.0,
                  "LPCHALMFFOD": 1.5
                }
              },
              "OAHPDLJIADP": 2.5
            },
            "attackInfo": {
              "attackTag": "Elemental_Art",
              "attenuationTag": "Elemental_Art",
              "attenuationGroup": "default",
              "attackProperty": {
                "actorGrassSubHurtDelta": "ElementalArt_Damage",
                "actorWindSubHurtDelta": 0.0,
                "elementType": "Ice",
                "elementRank": 1.5,
                "IPFJJJGABPL": 50.0,
                "strikeType": "Blunt",
                "enBreak": 150.0,
                "attackType": "Melee",
                "GLKMCMDJBIK": 0.0
              },
              "hitPattern": {
                "onHitEffectName": "default",
                "hitImpulseY": "",
                "hitImpulseType": "LV7",
                "overrideHitImpulse": {
                  "hitLevel": "Air",
                  "IMIJMPGJOGG": 0.0,
                  "BPCDKKBKOBM": 600.0
                },
                "hitHaltTime": 0.09000000357627869,
                "hitHaltTimeScale": 0.009999999776482582
              },
              "forceCameraShake": true,
              "cameraShake": {
                "shakeType": "CustomVector",
                "shakeRange": 0.47999998927116394,
                "shakeTime": 0.11999999731779099,
                "shakeDistance": 30.0,
                "shakeDir": {
                  "y": 1.0
                }
              },
              "canBeModifiedBy": "OriginOwner"
            }
          },
          "targetType": "Enemy"
        },
        {
          "$type": "JKFLDIKGJEF",
          "gadgetInfo": {
            "configID": 41034201
          }
        },
        {
          "$type": "KFCDMIMBBLD",
          "born": {
            "$type": "IAENDIPDFKD",
            "offset": {
              "KGEPIMHBMOL": 0.0,
              "JEBHCGDPFEJ": 0.0,
              "LPCHALMFFOD": 2.9000000953674316
            },
            "onGround": true
          },
          "gadgetID": 41034201,
          "campID": 1001,
          "campTargetType": "Enemy"
        }
      ]
    }
  },
  {
    "Default": {
      "$type": "CBPBEHLOHKI",
      "abilityName": "Avatar_Chongyun_IceCrystal",
      "abilitySpecials": {
        "EnchantDuration": 0.0,
        "SkillCDMinusRatio": 0.0,
        "OverallSpeedRatio": 0.0
      },
      "modifiers": {
        "UNIQUE_IceField_Handler": {
          "modifierName": "",
          "forceTriggerWhenChangeAuthority": true,
          "elementDurability": 10.0,
          "IPFJJJGABPL": 100.0,
          "thinkInterval": 1.0,
          "onThinkInterval": [
            {
              "$type": "PELJALPANCA",
              "otherTargets": {
                "$type": "IJOFJOGLDHE",
                "shapeName": "CircleR8",
                "campTargetType": "Alliance",
                "doOffStage": 1.0
              },
              "predicates": [
                {
                  "$type": "NIMAPECDNKD",
                  "entityTypes": [
                    "Avatar"
                  ]
                }
              ],
              "modifierName": "IceField_Modifier"
            },
            {
              "$type": "PELJALPANCA",
              "otherTargets": {
                "$type": "IJOFJOGLDHE",
                "shapeName": "CircleR8",
                "campTargetType": "Alliance",
                "doOffStage": 1.0
              },
              "predicates": [
                {
                  "$type": "NIMAPECDNKD",
                  "entityTypes": [
                    "Avatar"
                  ]
                },
                {
                  "$type": "GPKOPAOMILE",
                  "weaponTypes": [
                    "WEAPON_CLAYMORE",
                    "WEAPON_POLE",
                    "WEAPON_SWORD_ONE_HAND"
                  ]
                },
                {
                  "$type": "GKDKGMAMGGN",
                  "target": "Applier",
                  "talentParam": "Avatar_Chongyun_Talent_364"
                }
              ],
              "modifierName": "UNIQUE_Weapon_Enchanted_Berserker"
            },
            {
              "$type": "PELJALPANCA",
              "otherTargets": {
                "$type": "IJOFJOGLDHE",
                "shapeName": "CircleR8",
                "campTargetType": "Alliance",
                "doOffStage": 1.0
              },
              "predicates": [
                {
                  "$type": "NIMAPECDNKD",
                  "entityTypes": [
                    "Avatar"
                  ]
                },
                {
                  "$type": "GKDKGMAMGGN",
                  "target": "Applier",
                  "talentParam": "Avatar_Chongyun_Talent_362"
                }
              ],
              "modifierName": "UNIQUE_Weapon_Enchanted_Defense"
            }
          ],
          "onKill": [
            {
              "$type": "KBODPNEEFGD",
              "modifierName": "UNIQUE_IceField_Handler"
            }
          ]
        },
        "UNIQUE_Weapon_Enchanted_Berserker": {
          "modifierName": "",
          "forceTriggerWhenChangeAuthority": true,
          "elementDurability": 2.0999999046325684,
          "IPFJJJGABPL": 100.0,
          "properties": {
            "Animator_AttackSpeedRatio": "OverallSpeedRatio"
          },
          "onAdded": [
            {
              "$type": "ANLOBBMKNIJ",
              "rotationDampTime": "Eff_Chongyun_ElementalSkill_Aura",
              "PPPDJGDDOGD": 1.0,
              "AJDILHJFNKE": -1.0
            }
          ],
          "isLimitedProperties": true
        },
        "UNIQUE_Weapon_Enchanted_Defense": {
          "modifierName": "",
          "forceTriggerWhenChangeAuthority": true,
          "elementDurability": 2.0999999046325684,
          "IPFJJJGABPL": 100.0,
          "properties": {
            "Actor_SkillCDMinusRatio": "SkillCDMinusRatio"
          },
          "isLimitedProperties": true
        },
        "IceField_Modifier": {
          "modifierName": "",
          "elementDurability": 0.5,
          "IPFJJJGABPL": 100.0,
          "onAdded": [
            {
              "$type": "PELJALPANCA",
              "otherTargets": {
                "$type": "GAPFENEFKKE",
                "equipPartNames": [
                  "equip01",
                  "sheathPoint"
                ]
              },
              "predicates": [
                {
                  "$type": "GPKOPAOMILE",
                  "target": "Self",
                  "weaponTypes": [
                    "WEAPON_CLAYMORE"
                  ]
                }
              ],
              "modifierName": "UNIQUE_Weapon_Claymore_Enchanted_Ice"
            },
            {
              "$type": "PELJALPANCA",
              "otherTargets": {
                "$type": "GAPFENEFKKE",
                "equipPartNames": [
                  "equip01",
                  "sheathPoint"
                ]
              },
              "predicates": [
                {
                  "$type": "GPKOPAOMILE",
                  "target": "Self",
                  "weaponTypes": [
                    "WEAPON_POLE"
                  ]
                }
              ],
              "modifierName": "UNIQUE_Weapon_Pole_Enchanted_Ice"
            },
            {
              "$type": "PELJALPANCA",
              "otherTargets": {
                "$type": "GAPFENEFKKE",
                "equipPartNames": [
                  "equip01",
                  "sheathPoint"
                ]
              },
              "predicates": [
                {
                  "$type": "GPKOPAOMILE",
                  "target": "Self",
                  "weaponTypes": [
                    "WEAPON_SWORD_ONE_HAND"
                  ]
                }
              ],
              "modifierName": "UNIQUE_Weapon_Sword_Enchanted_Ice"
            }
          ]
        },
        "UNIQUE_Weapon_Claymore_Enchanted_Ice": {
          "modifierName": "",
          "forceTriggerWhenChangeAuthority": true,
          "elementDurability": "EnchantDuration",
          "elementType": "Ice",
          "IPFJJJGABPL": 25.0,
          "overrideWeaponElement": true,
          "onAdded": [
            {
              "$type": "ANLOBBMKNIJ",
              "rotationDampTime": "Eff_Chongyun_ElementalSkill_Buff_Claymore",
              "PPPDJGDDOGD": 1.0,
              "AJDILHJFNKE": -1.0
            }
          ]
        },
        "UNIQUE_Weapon_Pole_Enchanted_Ice": {
          "modifierName": "",
          "forceTriggerWhenChangeAuthority": true,
          "elementDurability": "EnchantDuration",
          "elementType": "Ice",
          "IPFJJJGABPL": 25.0,
          "overrideWeaponElement": true,
          "onAdded": [
            {
              "$type": "ANLOBBMKNIJ",
              "rotationDampTime": "Eff_Chongyun_ElementalSkill_Buff_Pole",
              "PPPDJGDDOGD": 1.0,
              "AJDILHJFNKE": -1.0
            }
          ]
        },
        "UNIQUE_Weapon_Sword_Enchanted_Ice": {
          "modifierName": "",
          "forceTriggerWhenChangeAuthority": true,
          "elementDurability": "EnchantDuration",
          "elementType": "Ice",
          "IPFJJJGABPL": 25.0,
          "overrideWeaponElement": true,
          "onAdded": [
            {
              "$type": "ANLOBBMKNIJ",
              "rotationDampTime": "Eff_Chongyun_ElementalSkill_Buff_Sword",
              "PPPDJGDDOGD": 1.0,
              "AJDILHJFNKE": -1.0
            }
          ]
        }
      },
      "onAdded": [
        {
          "$type": "JLDEMMJAMLC",
          "modifierName": "UNIQUE_IceField_Handler"
        },
        {
          "$type": "ANLOBBMKNIJ",
          "rotationDampTime": "Eff_Chongyun_ElementalSkill_IceCrystal",
          "PPPDJGDDOGD": 1.0,
          "AJDILHJFNKE": -1.0
        },
        {
          "$type": "INBCDALOHMP",
          "target": "OriginOwner",
          "targetPredicates": [
            {
              "$type": "GKDKGMAMGGN",
              "talentParam": "Avatar_Chongyun_Talent_21"
            }
          ],
          "successActions": [
            {
              "$type": "ANLOBBMKNIJ",
              "rotationDampTime": "Eff_Chongyun_ElementalSkill_Area_Debuff",
              "PPPDJGDDOGD": 1.0,
              "AJDILHJFNKE": -1.0
            }
          ]
        }
      ],
      "onKill": [
        {
          "$type": "INBCDALOHMP",
          "targetPredicates": [
            {
              "$type": "GKDKGMAMGGN",
              "talentParam": "Avatar_Chongyun_Talent_21"
            }
          ],
          "successActions": [
            {
              "$type": "KFCDMIMBBLD",
              "born": {
                "$type": "IAENDIPDFKD",
                "offset": {
                  "KGEPIMHBMOL": 0.0,
                  "JEBHCGDPFEJ": 0.0,
                  "LPCHALMFFOD": 0.0
                }
              },
              "gadgetID": 41034011,
              "campID": 1001,
              "campTargetType": "Enemy"
            }
          ]
        }
      ],
      "onFieldEnter": [
        {
          "$type": "PELJALPANCA",
          "otherTargets": {
            "$type": "IJOFJOGLDHE",
            "shapeName": "CircleR8",
            "campTargetType": "Alliance",
            "doOffStage": 1.0
          },
          "predicates": [
            {
              "$type": "NIMAPECDNKD",
              "entityTypes": [
                "Avatar"
              ]
            }
          ],
          "modifierName": "IceField_Modifier"
        },
        {
          "$type": "PELJALPANCA",
          "otherTargets": {
            "$type": "IJOFJOGLDHE",
            "shapeName": "CircleR8",
            "campTargetType": "Alliance",
            "doOffStage": 1.0
          },
          "predicates": [
            {
              "$type": "NIMAPECDNKD",
              "entityTypes": [
                "Avatar"
              ]
            },
            {
              "$type": "GPKOPAOMILE",
              "weaponTypes": [
                "WEAPON_CLAYMORE",
                "WEAPON_POLE",
                "WEAPON_SWORD_ONE_HAND"
              ]
            },
            {
              "$type": "GKDKGMAMGGN",
              "target": "Applier",
              "talentParam": "Avatar_Chongyun_Talent_364"
            }
          ],
          "modifierName": "UNIQUE_Weapon_Enchanted_Berserker"
        },
        {
          "$type": "PELJALPANCA",
          "otherTargets": {
            "$type": "IJOFJOGLDHE",
            "shapeName": "CircleR8",
            "campTargetType": "Alliance",
            "doOffStage": 1.0
          },
          "predicates": [
            {
              "$type": "NIMAPECDNKD",
              "entityTypes": [
                "Avatar"
              ]
            },
            {
              "$type": "GKDKGMAMGGN",
              "target": "Applier",
              "talentParam": "Avatar_Chongyun_Talent_362"
            }
          ],
          "modifierName": "UNIQUE_Weapon_Enchanted_Defense"
        }
      ]
    }
  },
  {
    "Default": {
      "$type": "CBPBEHLOHKI",
      "abilityName": "Avatar_Chongyun_IceCrystal_Dummy",
      "abilitySpecials": {
        "IceSubHurtDelta": 0.0,
        "IceSubHurtDuration": 0.0,
        "ElementalArt_Damage_Percentage": 0.0,
        "ElementalArt_Damage": 0.0
      },
      "modifiers": {
        "AttackDetect": {
          "modifierName": "",
          "elementDurability": 1.0,
          "IPFJJJGABPL": 100.0,
          "onAttackLanded": [
            {
              "$type": "INBCDALOHMP",
              "target": "Target",
              "targetPredicates": [
                {
                  "$type": "NNEHDJHMING",
                  "attackTags": [
                    "Elemental_Art"
                  ]
                },
                {
                  "$type": "NIMAPECDNKD",
                  "entityTypes": [
                    "Monster"
                  ]
                },
                {
                  "$type": "CNGGLKHONAA",
                  "key": "_ANIMAL_ENTITY_TYPE",
                  "param3": 0.0,
                  "compareType": "NoneOrEqual"
                }
              ],
              "successActions": [
                {
                  "$type": "PELJALPANCA",
                  "target": "Target",
                  "modifierName": "IceDown_Modifier"
                }
              ]
            }
          ]
        },
        "LaunchAttack_HasTarget": {
          "modifierName": "",
          "elementDurability": 1.0,
          "IPFJJJGABPL": 100.0,
          "thinkInterval": 0.699999988079071,
          "onAdded": [
            {
              "$type": "MPAGCPPAIHJ",
              "target": "SelfAttackTarget",
              "key": "_ABILITY_Chongyun_Talent_Blade_Pos",
              "born": {
                "$type": "AEDBNLGHPNN",
                "offset": {
                  "KGEPIMHBMOL": 0.0,
                  "JEBHCGDPFEJ": 0.0,
                  "LPCHALMFFOD": 0.0
                },
                "onGround": true
              },
              "setTarget": false
            },
            {
              "$type": "KBFEIHEAMBM",
              "rotationDampTime": "Eff_Chongyun_ElementalBurst_SoulBlade_Single",
              "born": {
                "$type": "ICKMMAHFNIM",
                "offset": {
                  "KGEPIMHBMOL": 0.0,
                  "JEBHCGDPFEJ": 0.0,
                  "LPCHALMFFOD": 0.0
                },
                "onGround": true,
                "positionKey": "_ABILITY_Chongyun_Talent_Blade_Pos",
                "directionKey": ""
              },
              "PPPDJGDDOGD": 1.0,
              "AJDILHJFNKE": -1.0
            }
          ],
          "onThinkInterval": [
            {
              "$type": "KBFEIHEAMBM",
              "rotationDampTime": "Eff_Chongyun_ElementalBurst_SoulBlade_Single_Bomb",
              "born": {
                "$type": "ICKMMAHFNIM",
                "offset": {
                  "KGEPIMHBMOL": 0.0,
                  "JEBHCGDPFEJ": 0.0,
                  "LPCHALMFFOD": 0.0
                },
                "onGround": true,
                "positionKey": "_ABILITY_Chongyun_Talent_Blade_Pos",
                "directionKey": ""
              },
              "PPPDJGDDOGD": 1.0,
              "AJDILHJFNKE": -1.0
            },
            {
              "$type": "AIFPLABJNMA",
              "target": "Caster",
              "attackEvent": {
                "attackPattern": {
                  "$type": "BELNOFAKNBA",
                  "triggerType": "TriggerNoRepeat",
                  "born": {
                    "$type": "ICKMMAHFNIM",
                    "offset": {
                      "KGEPIMHBMOL": 0.0,
                      "JEBHCGDPFEJ": 0.0,
                      "LPCHALMFFOD": 0.0
                    },
                    "onGround": true,
                    "positionKey": "_ABILITY_Chongyun_Talent_Blade_Pos",
                    "directionKey": ""
                  },
                  "OAHPDLJIADP": 3.5
                },
                "attackInfo": {
                  "attackTag": "Elemental_Art",
                  "attenuationTag": "",
                  "attenuationGroup": "default",
                  "attackProperty": {
                    "actorGrassSubHurtDelta": [
                      "ElementalArt_Damage",
                      "ElementalArt_Damage_Percentage",
                      "MUL"
                    ],
                    "actorWindSubHurtDelta": 0.0,
                    "elementType": "Ice",
                    "IPFJJJGABPL": 25.0,
                    "strikeType": "Blunt",
                    "enBreak": 100.0,
                    "GLKMCMDJBIK": 0.0
                  },
                  "hitPattern": {
                    "onHitEffectName": "",
                    "hitImpulseY": "",
                    "hitImpulseType": "LV7",
                    "overrideHitImpulse": {
                      "hitLevel": "Air",
                      "IMIJMPGJOGG": 0.0,
                      "BPCDKKBKOBM": 600.0
                    },
                    "hitHaltTimeScale": 0.05000000074505806
                  },
                  "forceCameraShake": true,
                  "cameraShake": {
                    "shakeType": "CustomVector",
                    "shakeRange": 0.36000001430511475,
                    "shakeTime": 0.11999999731779099,
                    "shakeDistance": 30.0,
                    "shakeDir": {
                      "x": -0.20000000298023224,
                      "y": 1.0
                    }
                  },
                  "canBeModifiedBy": "OriginOwner"
                }
              },
              "targetType": "Enemy"
            }
          ]
        },
        "LaunchAttack_NoTarget": {
          "modifierName": "",
          "elementDurability": 1.0,
          "IPFJJJGABPL": 100.0,
          "thinkInterval": 0.699999988079071,
          "onAdded": [
            {
              "$type": "MPAGCPPAIHJ",
              "key": "_ABILITY_Chongyun_Talent_Blade_Pos",
              "born": {
                "$type": "IAENDIPDFKD",
                "onGround": true
              },
              "setTarget": false
            },
            {
              "$type": "KBFEIHEAMBM",
              "rotationDampTime": "Eff_Chongyun_ElementalBurst_SoulBlade_Single",
              "born": {
                "$type": "IAENDIPDFKD",
                "offset": {
                  "KGEPIMHBMOL": 0.0,
                  "JEBHCGDPFEJ": 0.0,
                  "LPCHALMFFOD": 0.0
                },
                "onGround": true
              },
              "PPPDJGDDOGD": 1.0,
              "AJDILHJFNKE": -1.0
            }
          ],
          "onThinkInterval": [
            {
              "$type": "KBFEIHEAMBM",
              "rotationDampTime": "Eff_Chongyun_ElementalBurst_SoulBlade_Single_Bomb",
              "born": {
                "$type": "IAENDIPDFKD",
                "offset": {
                  "KGEPIMHBMOL": 0.0,
                  "JEBHCGDPFEJ": 0.0,
                  "LPCHALMFFOD": 0.0
                },
                "onGround": true
              },
              "PPPDJGDDOGD": 1.0,
              "AJDILHJFNKE": -1.0
            },
            {
              "$type": "AIFPLABJNMA",
              "target": "Caster",
              "attackEvent": {
                "attackPattern": {
                  "$type": "BELNOFAKNBA",
                  "triggerType": "TriggerNoRepeat",
                  "born": {
                    "$type": "IAENDIPDFKD",
                    "offset": {
                      "KGEPIMHBMOL": 0.0,
                      "JEBHCGDPFEJ": 0.0,
                      "LPCHALMFFOD": 0.0
                    },
                    "onGround": true
                  },
                  "OAHPDLJIADP": 3.5
                },
                "attackInfo": {
                  "attackTag": "Elemental_Art",
                  "attenuationTag": "",
                  "attenuationGroup": "default",
                  "attackProperty": {
                    "actorGrassSubHurtDelta": [
                      "ElementalArt_Damage",
                      "ElementalArt_Damage_Percentage",
                      "MUL"
                    ],
                    "actorWindSubHurtDelta": 0.0,
                    "elementType": "Ice",
                    "IPFJJJGABPL": 25.0,
                    "strikeType": "Default",
                    "enBreak": 100.0,
                    "GLKMCMDJBIK": 0.0
                  },
                  "hitPattern": {
                    "onHitEffectName": "",
                    "hitImpulseY": "",
                    "hitImpulseType": "LV7",
                    "overrideHitImpulse": {
                      "hitLevel": "Air",
                      "IMIJMPGJOGG": 0.0,
                      "BPCDKKBKOBM": 600.0
                    },
                    "hitHaltTimeScale": 0.05000000074505806
                  },
                  "forceCameraShake": true,
                  "cameraShake": {
                    "shakeType": "CustomVector",
                    "shakeRange": 0.36000001430511475,
                    "shakeTime": 0.11999999731779099,
                    "shakeDistance": 30.0,
                    "shakeDir": {
                      "x": -0.20000000298023224,
                      "y": 1.0
                    }
                  },
                  "canBeModifiedBy": "OriginOwner"
                }
              },
              "targetType": "Enemy"
            }
          ]
        },
        "IceDown_Modifier": {
          "modifierName": "",
          "elementDurability": "IceSubHurtDuration",
          "IPFJJJGABPL": 100.0,
          "properties": {
            "Actor_IceSubHurtDelta": "IceSubHurtDelta"
          },
          "state": "DefenseDown"
        }
      },
      "onAdded": [
        {
          "$type": "MDIAKCCDEAL",
          "otherTargets": {
            "$type": "IJOFJOGLDHE",
            "topLimit": 1,
            "sortType": "Nearest",
            "shapeName": "CircleR8",
            "campTargetType": "Enemy",
            "doOffStage": 1.0
          },
          "predicates": [
            {
              "$type": "NIMAPECDNKD",
              "entityTypes": [
                "Monster"
              ]
            }
          ]
        },
        {
          "$type": "INBCDALOHMP",
          "targetPredicates": [
            {
              "$type": "IBDEPLJMONN"
            }
          ],
          "successActions": [
            {
              "$type": "PELJALPANCA",
              "modifierName": "LaunchAttack_HasTarget"
            },
            {
              "$type": "PELJALPANCA",
              "modifierName": "AttackDetect"
            }
          ],
          "failActions": [
            {
              "$type": "PELJALPANCA",
              "modifierName": "LaunchAttack_NoTarget"
            },
            {
              "$type": "PELJALPANCA",
              "modifierName": "AttackDetect"
            }
          ]
        }
      ]
    }
  },
  {
    "Default": {
      "$type": "CBPBEHLOHKI",
      "abilityName": "Avatar_Chongyun_SoulUnleash_Single_Initiate"
    }
  },
  {
    "Default": {
      "$type": "CBPBEHLOHKI",
      "abilityName": "Avatar_Chongyun_SoulUnleash_Initiate",
      "abilityMixins": [
        {
          "$type": "EKMHJKDLBJH",
          "stateIDs": [
            "Chongyun_SoulUnleash"
          ],
          "modifierName": "Invincible",
          "DGFCLAIDIFI": ""
        }
      ],
      "modifiers": {
        "Camera_Remover": {
          "modifierName": "",
          "IPFJJJGABPL": 100.0,
          "onRemoved": [
            {
              "$type": "PEIPIGEMHEK",
              "shieldHP": true
            }
          ]
        },
        "Chongyun_SoulUnleash_Weather_Handler": {
          "modifierName": "",
          "elementDurability": 0.5,
          "IPFJJJGABPL": 100.0,
          "onAdded": [
            {
              "$type": "INBCDALOHMP",
              "targetPredicates": [
                {
                  "$type": "GKDKGMAMGGN",
                  "talentParam": "Avatar_Chongyun_Talent_366"
                }
              ],
              "successActions": [
                {
                  "$type": "PELJALPANCA",
                  "modifierName": "Chongyun_SoulUnleash_Weather_4"
                }
              ],
              "failActions": [
                {
                  "$type": "PELJALPANCA",
                  "modifierName": "Chongyun_SoulUnleash_Weather"
                }
              ]
            }
          ]
        },
        "Chongyun_SoulUnleash_Weather": {
          "modifierName": "",
          "elementDurability": 2.0,
          "IPFJJJGABPL": 100.0,
          "modifierMixins": [
            {
              "$type": "JFFOPFFEBPN",
              "damageRatio": "Skill",
              "weatherPattern": "Weather_Chongyun_ElementBurst",
              "transDuration": 0.699999988079071,
              "duration": 1.399999976158142
            }
          ]
        },
        "Chongyun_SoulUnleash_Weather_4": {
          "modifierName": "",
          "elementDurability": 2.0,
          "IPFJJJGABPL": 100.0,
          "modifierMixins": [
            {
              "$type": "JFFOPFFEBPN",
              "damageRatio": "Skill",
              "weatherPattern": "Weather_Chongyun_ElementBurst",
              "transDuration": 0.699999988079071,
              "duration": 1.75
            }
          ]
        },
        "Invincible": {
          "modifierName": "",
          "IPFJJJGABPL": 100.0,
          "state": "Invincible",
          "onAdded": [
            {
              "$type": "OPAOGKPJLIG",
              "resistanceListID": 11002
            }
          ]
        },
        "LaunchAttack_HasTarget": {
          "modifierName": "",
          "elementDurability": 0.5,
          "IPFJJJGABPL": 100.0,
          "onAdded": [
            {
              "$type": "MPAGCPPAIHJ",
              "target": "SelfAttackTarget",
              "key": "_ABILITY_Chongyun_ElementBurst_Pos",
              "born": {
                "$type": "AEDBNLGHPNN",
                "offset": {
                  "KGEPIMHBMOL": 0.0,
                  "JEBHCGDPFEJ": 0.0,
                  "LPCHALMFFOD": 0.0
                },
                "onGround": true
              },
              "setTarget": false
            },
            {
              "$type": "KBFEIHEAMBM",
              "rotationDampTime": "Eff_Chongyun_ElementalBurst_AlertArea",
              "born": {
                "$type": "ICKMMAHFNIM",
                "offset": {
                  "KGEPIMHBMOL": 0.0,
                  "JEBHCGDPFEJ": 0.0,
                  "LPCHALMFFOD": 0.0
                },
                "onGround": true,
                "positionKey": "_ABILITY_Chongyun_ElementBurst_Pos",
                "directionKey": ""
              },
              "PPPDJGDDOGD": 1.0,
              "AJDILHJFNKE": -1.0
            },
            {
              "$type": "INBCDALOHMP",
              "targetPredicates": [
                {
                  "$type": "GKDKGMAMGGN",
                  "talentParam": "Avatar_Chongyun_Talent_366"
                }
              ],
              "successActions": [
                {
                  "$type": "GJCAPCBELPA",
                  "abilityName": "Avatar_Chongyun_SoulUnleash_SoulBlades_Quadra"
                }
              ],
              "failActions": [
                {
                  "$type": "GJCAPCBELPA",
                  "abilityName": "Avatar_Chongyun_SoulUnleash_SoulBlades"
                }
              ]
            }
          ]
        },
        "LaunchAttack_NoTarget": {
          "modifierName": "",
          "elementDurability": 0.5,
          "IPFJJJGABPL": 100.0,
          "onAdded": [
            {
              "$type": "MPAGCPPAIHJ",
              "key": "_ABILITY_Chongyun_ElementBurst_Pos",
              "born": {
                "$type": "IAENDIPDFKD",
                "offset": {
                  "KGEPIMHBMOL": 0.0,
                  "JEBHCGDPFEJ": 0.0,
                  "LPCHALMFFOD": 5.0
                },
                "onGround": true
              }
            },
            {
              "$type": "KBFEIHEAMBM",
              "rotationDampTime": "Eff_Chongyun_ElementalBurst_AlertArea",
              "born": {
                "$type": "ICKMMAHFNIM",
                "offset": {
                  "KGEPIMHBMOL": 0.0,
                  "JEBHCGDPFEJ": 0.0,
                  "LPCHALMFFOD": 0.0
                },
                "onGround": true,
                "positionKey": "_ABILITY_Chongyun_ElementBurst_Pos",
                "directionKey": ""
              },
              "PPPDJGDDOGD": 1.0,
              "AJDILHJFNKE": -1.0
            },
            {
              "$type": "INBCDALOHMP",
              "targetPredicates": [
                {
                  "$type": "GKDKGMAMGGN",
                  "talentParam": "Avatar_Chongyun_Talent_366"
                }
              ],
              "successActions": [
                {
                  "$type": "GJCAPCBELPA",
                  "abilityName": "Avatar_Chongyun_SoulUnleash_SoulBlades_Quadra"
                }
              ],
              "failActions": [
                {
                  "$type": "GJCAPCBELPA",
                  "abilityName": "Avatar_Chongyun_SoulUnleash_SoulBlades"
                }
              ]
            }
          ]
        }
      },
      "onAbilityStart": [
        {
          "$type": "INBCDALOHMP",
          "targetPredicates": [
            {
              "$type": "IBDEPLJMONN"
            }
          ],
          "successActions": [
            {
              "$type": "PELJALPANCA",
              "modifierName": "LaunchAttack_HasTarget"
            }
          ],
          "failActions": [
            {
              "$type": "PELJALPANCA",
              "modifierName": "LaunchAttack_NoTarget"
            }
          ]
        },
        {
          "$type": "JPHLIDGMGBG",
          "cameraRadialBlur": {
            "power": 0.800000011920929,
            "blurTime": 0.25,
            "fadeTime": 0.30000001192092896
          }
        },
        {
          "$type": "OCLNBBMMIOK",
          "skillID": 10403,
          "amountByTargetCurrentHPRatio": 1.0,
          "costStaminaRatio": 1.0
        },
        {
          "$type": "INBCDALOHMP",
          "targetPredicates": [
            {
              "$type": "GKDKGMAMGGN",
              "talentParam": "Avatar_Chongyun_Talent_366"
            }
          ],
          "successActions": [
            {
              "$type": "KBFEIHEAMBM",
              "rotationDampTime": "Eff_Chongyun_ElementalBurst_Aura_4",
              "PPPDJGDDOGD": 1.0,
              "AJDILHJFNKE": -1.0
            }
          ],
          "failActions": [
            {
              "$type": "KBFEIHEAMBM",
              "rotationDampTime": "Eff_Chongyun_ElementalBurst_Aura",
              "PPPDJGDDOGD": 1.0,
              "AJDILHJFNKE": -1.0
            }
          ]
        },
        {
          "$type": "PELJALPANCA",
          "modifierName": "Chongyun_SoulUnleash_Weather_Handler"
        }
      ]
    }
  },
  {
    "Default": {
      "$type": "CBPBEHLOHKI",
      "abilityName": "Avatar_Chongyun_SoulUnleash_SoulBlades",
      "modifiers": {
        "Timer1": {
          "modifierName": "",
          "elementDurability": 0.75,
          "IPFJJJGABPL": 100.0,
          "onRemoved": [
            {
              "$type": "GJCAPCBELPA",
              "abilityName": "Avatar_Chongyun_SoulUnleash_Damage"
            },
            {
              "$type": "KBFEIHEAMBM",
              "rotationDampTime": "Eff_Chongyun_ElementalBurst_SoulBlade_Bomb",
              "born": {
                "$type": "ICKMMAHFNIM",
                "offset": {
                  "KGEPIMHBMOL": 0.0,
                  "JEBHCGDPFEJ": 0.0,
                  "LPCHALMFFOD": 0.0
                },
                "onGround": true,
                "positionKey": "_ABILITY_Chongyun_ElementBurst_Pos",
                "directionKey": ""
              },
              "PPPDJGDDOGD": 1.0,
              "AJDILHJFNKE": -1.0
            },
            {
              "$type": "PELJALPANCA",
              "modifierName": "Timer2"
            }
          ]
        },
        "Timer2": {
          "modifierName": "",
          "elementDurability": 0.009999999776482582,
          "IPFJJJGABPL": 100.0,
          "onRemoved": [
            {
              "$type": "GJCAPCBELPA",
              "abilityName": "Avatar_Chongyun_SoulUnleash_Damage"
            },
            {
              "$type": "KBFEIHEAMBM",
              "rotationDampTime": "Eff_Chongyun_ElementalBurst_SoulBlade_Bomb",
              "born": {
                "$type": "ICKMMAHFNIM",
                "offset": {
                  "KGEPIMHBMOL": 0.0,
                  "JEBHCGDPFEJ": 0.0,
                  "LPCHALMFFOD": 0.0
                },
                "onGround": true,
                "positionKey": "_ABILITY_Chongyun_ElementBurst_Pos",
                "directionKey": ""
              },
              "PPPDJGDDOGD": 1.0,
              "AJDILHJFNKE": -1.0
            },
            {
              "$type": "PELJALPANCA",
              "modifierName": "Timer3"
            }
          ]
        },
        "Timer3": {
          "modifierName": "",
          "elementDurability": 0.009999999776482582,
          "IPFJJJGABPL": 100.0,
          "onRemoved": [
            {
              "$type": "GJCAPCBELPA",
              "abilityName": "Avatar_Chongyun_SoulUnleash_Damage"
            },
            {
              "$type": "KBFEIHEAMBM",
              "rotationDampTime": "Eff_Chongyun_ElementalBurst_SoulBlade_Bomb",
              "born": {
                "$type": "ICKMMAHFNIM",
                "offset": {
                  "KGEPIMHBMOL": 0.0,
                  "JEBHCGDPFEJ": 0.0,
                  "LPCHALMFFOD": 0.0
                },
                "onGround": true,
                "positionKey": "_ABILITY_Chongyun_ElementBurst_Pos",
                "directionKey": ""
              },
              "PPPDJGDDOGD": 1.0,
              "AJDILHJFNKE": -1.0
            }
          ]
        }
      },
      "onAbilityStart": [
        {
          "$type": "KBFEIHEAMBM",
          "rotationDampTime": "Eff_Chongyun_ElementalBurst_SoulBlade",
          "born": {
            "$type": "ICKMMAHFNIM",
            "offset": {
              "KGEPIMHBMOL": 0.0,
              "JEBHCGDPFEJ": 0.0,
              "LPCHALMFFOD": 0.0
            },
            "onGround": true,
            "positionKey": "_ABILITY_Chongyun_ElementBurst_Pos",
            "directionKey": ""
          },
          "PPPDJGDDOGD": 1.0,
          "AJDILHJFNKE": -1.0
        },
        {
          "$type": "PELJALPANCA",
          "modifierName": "Timer1"
        }
      ]
    }
  },
  {
    "Default": {
      "$type": "CBPBEHLOHKI",
      "abilityName": "Avatar_Chongyun_SoulUnleash_SoulBlades_Quadra",
      "modifiers": {
        "Timer1": {
          "modifierName": "",
          "elementDurability": 0.75,
          "IPFJJJGABPL": 100.0,
          "onRemoved": [
            {
              "$type": "GJCAPCBELPA",
              "abilityName": "Avatar_Chongyun_SoulUnleash_Quadra_Damage"
            },
            {
              "$type": "KBFEIHEAMBM",
              "rotationDampTime": "Eff_Chongyun_ElementalBurst_SoulBlade_Bomb",
              "born": {
                "$type": "ICKMMAHFNIM",
                "offset": {
                  "KGEPIMHBMOL": 0.0,
                  "JEBHCGDPFEJ": 0.0,
                  "LPCHALMFFOD": 0.0
                },
                "onGround": true,
                "positionKey": "_ABILITY_Chongyun_ElementBurst_Pos",
                "directionKey": ""
              },
              "PPPDJGDDOGD": 1.0,
              "AJDILHJFNKE": -1.0
            },
            {
              "$type": "PELJALPANCA",
              "modifierName": "Timer2"
            }
          ]
        },
        "Timer2": {
          "modifierName": "",
          "elementDurability": 0.019999999552965164,
          "IPFJJJGABPL": 100.0,
          "onRemoved": [
            {
              "$type": "GJCAPCBELPA",
              "abilityName": "Avatar_Chongyun_SoulUnleash_Quadra_Damage"
            },
            {
              "$type": "KBFEIHEAMBM",
              "rotationDampTime": "Eff_Chongyun_ElementalBurst_SoulBlade_Bomb",
              "born": {
                "$type": "ICKMMAHFNIM",
                "offset": {
                  "KGEPIMHBMOL": 0.0,
                  "JEBHCGDPFEJ": 0.0,
                  "LPCHALMFFOD": 0.0
                },
                "onGround": true,
                "positionKey": "_ABILITY_Chongyun_ElementBurst_Pos",
                "directionKey": ""
              },
              "PPPDJGDDOGD": 1.0,
              "AJDILHJFNKE": -1.0
            },
            {
              "$type": "PELJALPANCA",
              "modifierName": "Timer3"
            }
          ]
        },
        "Timer3": {
          "modifierName": "",
          "elementDurability": 0.019999999552965164,
          "IPFJJJGABPL": 100.0,
          "onRemoved": [
            {
              "$type": "GJCAPCBELPA",
              "abilityName": "Avatar_Chongyun_SoulUnleash_Quadra_Damage"
            },
            {
              "$type": "KBFEIHEAMBM",
              "rotationDampTime": "Eff_Chongyun_ElementalBurst_SoulBlade_Bomb",
              "born": {
                "$type": "ICKMMAHFNIM",
                "offset": {
                  "KGEPIMHBMOL": 0.0,
                  "JEBHCGDPFEJ": 0.0,
                  "LPCHALMFFOD": 0.0
                },
                "onGround": true,
                "positionKey": "_ABILITY_Chongyun_ElementBurst_Pos",
                "directionKey": ""
              },
              "PPPDJGDDOGD": 1.0,
              "AJDILHJFNKE": -1.0
            },
            {
              "$type": "PELJALPANCA",
              "modifierName": "Timer4"
            }
          ]
        },
        "Timer4": {
          "modifierName": "",
          "elementDurability": 0.15000000596046448,
          "IPFJJJGABPL": 100.0,
          "onRemoved": [
            {
              "$type": "GJCAPCBELPA",
              "abilityName": "Avatar_Chongyun_SoulUnleash_Quadra_Damage"
            },
            {
              "$type": "KBFEIHEAMBM",
              "rotationDampTime": "Eff_Chongyun_ElementalBurst_SoulBlade_Quadra_Bomb",
              "born": {
                "$type": "ICKMMAHFNIM",
                "offset": {
                  "KGEPIMHBMOL": 0.0,
                  "JEBHCGDPFEJ": 0.0,
                  "LPCHALMFFOD": 0.0
                },
                "onGround": true,
                "positionKey": "_ABILITY_Chongyun_ElementBurst_Pos",
                "directionKey": ""
              },
              "PPPDJGDDOGD": 1.0,
              "AJDILHJFNKE": -1.0
            }
          ]
        }
      },
      "onAbilityStart": [
        {
          "$type": "KBFEIHEAMBM",
          "rotationDampTime": "Eff_Chongyun_ElementalBurst_SoulBlade_Quadra",
          "born": {
            "$type": "ICKMMAHFNIM",
            "offset": {
              "KGEPIMHBMOL": 0.0,
              "JEBHCGDPFEJ": 0.0,
              "LPCHALMFFOD": 0.0
            },
            "onGround": true,
            "positionKey": "_ABILITY_Chongyun_ElementBurst_Pos",
            "directionKey": ""
          },
          "PPPDJGDDOGD": 1.0,
          "AJDILHJFNKE": -1.0
        },
        {
          "$type": "PELJALPANCA",
          "modifierName": "Timer1"
        }
      ]
    }
  },
  {
    "Default": {
      "$type": "CBPBEHLOHKI",
      "abilityName": "Avatar_Chongyun_SoulUnleash_Quadra_Damage",
      "abilityMixins": [
        {
          "$type": "LDBCDLJECKF",
          "ignoreEventInfo": true,
          "actorWindSubHurtDelta": "damagePercentage",
          "predicates": [
            {
              "$type": "KEAMKFMOMCA"
            },
            {
              "$type": "NNEHDJHMING",
              "attackTags": [
                "Elemental_Burst"
              ]
            }
          ]
        }
      ],
      "abilitySpecials": {
        "ElementalBurst_Damage": 0.0,
        "damagePercentage": 0.0
      },
      "onAbilityStart": [
        {
          "$type": "AIFPLABJNMA",
          "attackEvent": {
            "attackPattern": {
              "$type": "BELNOFAKNBA",
              "triggerType": "TriggerNoRepeat",
              "born": {
                "$type": "ICKMMAHFNIM",
                "offset": {
                  "KGEPIMHBMOL": 0.0,
                  "JEBHCGDPFEJ": 0.0,
                  "LPCHALMFFOD": 0.0
                },
                "onGround": true,
                "positionKey": "_ABILITY_Chongyun_ElementBurst_Pos",
                "directionKey": ""
              },
              "OAHPDLJIADP": 3.5
            },
            "attackInfo": {
              "attackTag": "Elemental_Burst",
              "attenuationTag": "",
              "attenuationGroup": "default",
              "attackProperty": {
                "actorGrassSubHurtDelta": "ElementalBurst_Damage",
                "actorWindSubHurtDelta": 0.0,
                "elementType": "Ice",
                "IPFJJJGABPL": 25.0,
                "strikeType": "Blunt",
                "enBreak": 100.0,
                "GLKMCMDJBIK": 0.0
              },
              "hitPattern": {
                "onHitEffectName": "",
                "hitImpulseY": "",
                "hitImpulseType": "LV7",
                "overrideHitImpulse": {
                  "hitLevel": "Air",
                  "IMIJMPGJOGG": 0.0,
                  "BPCDKKBKOBM": 600.0
                },
                "hitHaltTimeScale": 0.05000000074505806
              },
              "forceCameraShake": true,
              "cameraShake": {
                "shakeType": "CustomVector",
                "shakeRange": 0.36000001430511475,
                "shakeTime": 0.11999999731779099,
                "shakeDistance": 30.0,
                "shakeDir": {
                  "x": -0.20000000298023224,
                  "y": 1.0
                }
              },
              "canBeModifiedBy": "OriginOwner"
            }
          },
          "targetType": "Enemy"
        }
      ]
    }
  },
  {
    "Default": {
      "$type": "CBPBEHLOHKI",
      "abilityName": "Avatar_Chongyun_SoulUnleash_Damage",
      "abilitySpecials": {
        "ElementalBurst_Damage": 0.0
      },
      "onAbilityStart": [
        {
          "$type": "AIFPLABJNMA",
          "attackEvent": {
            "attackPattern": {
              "$type": "BELNOFAKNBA",
              "triggerType": "TriggerNoRepeat",
              "born": {
                "$type": "ICKMMAHFNIM",
                "offset": {
                  "KGEPIMHBMOL": 0.0,
                  "JEBHCGDPFEJ": 0.0,
                  "LPCHALMFFOD": 0.0
                },
                "onGround": true,
                "positionKey": "_ABILITY_Chongyun_ElementBurst_Pos",
                "directionKey": ""
              },
              "OAHPDLJIADP": 3.5
            },
            "attackInfo": {
              "attackTag": "Elemental_Burst",
              "attenuationTag": "",
              "attenuationGroup": "default",
              "attackProperty": {
                "actorGrassSubHurtDelta": "ElementalBurst_Damage",
                "actorWindSubHurtDelta": 0.0,
                "elementType": "Ice",
                "IPFJJJGABPL": 25.0,
                "strikeType": "Blunt",
                "enBreak": 100.0,
                "GLKMCMDJBIK": 0.0
              },
              "hitPattern": {
                "onHitEffectName": "",
                "hitImpulseY": "",
                "hitImpulseType": "LV7",
                "overrideHitImpulse": {
                  "hitLevel": "Air",
                  "IMIJMPGJOGG": 0.0,
                  "BPCDKKBKOBM": 600.0
                },
                "hitHaltTimeScale": 0.05000000074505806
              },
              "forceCameraShake": true,
              "cameraShake": {
                "shakeType": "CustomVector",
                "shakeRange": 0.36000001430511475,
                "shakeTime": 0.11999999731779099,
                "shakeDistance": 30.0,
                "shakeDir": {
                  "x": -0.20000000298023224,
                  "y": 1.0
                }
              },
              "canBeModifiedBy": "OriginOwner"
            }
          },
          "targetType": "Enemy"
        }
      ]
    }
  },
  {
    "Default": {
      "$type": "CBPBEHLOHKI",
      "abilityName": "Avatar_Chongyun_HitReviveElemEnergy",
      "abilitySpecials": {
        "baseEnergy": 0.0,
        "duration": 0.0
      },
      "modifiers": {
        "Chongyun_ReviveElemEnergy_Handler": {
          "modifierName": "",
          "IPFJJJGABPL": 100.0,
          "onAttackLanded": [
            {
              "$type": "INBCDALOHMP",
              "target": "Target",
              "targetPredicates": [
                {
                  "$type": "NIMAPECDNKD",
                  "entityTypes": [
                    "Monster"
                  ]
                },
                {
                  "$type": "HHHMNCNPBDK",
                  "predicates": [
                    {
                      "$type": "NFJHABGCNHE",
                      "element": "Ice"
                    },
                    {
                      "$type": "NFJHABGCNHE",
                      "element": "Frozen"
                    }
                  ]
                }
              ],
              "successActions": [
                {
                  "$type": "PELJALPANCA",
                  "modifierName": "Revive_Timer"
                }
              ]
            }
          ]
        },
        "Revive_Timer": {
          "stacking": "Unique",
          "modifierName": "",
          "elementDurability": "duration",
          "IPFJJJGABPL": 100.0,
          "onAdded": [
            {
              "$type": "AHCALEMEJPJ",
              "shieldHP": true,
              "param3": "baseEnergy"
            }
          ]
        }
      },
      "onAdded": [
        {
          "$type": "PELJALPANCA",
          "modifierName": "Chongyun_ReviveElemEnergy_Handler"
        }
      ],
      "isDynamicAbility": true
    }
  },
  {
    "Default": {
      "$type": "CBPBEHLOHKI",
      "abilityName": "Avatar_Chongyun_NormalAttack_DamageHandler",
      "abilityMixins": [
        {
          "$type": "LDBCDLJECKF",
          "animEventNames": [
            "ATK01"
          ],
          "actorGrassSubHurtDelta": "NormalAttack_01_DamagePercentage",
          "actorWindSubHurtDelta": 0.0
        },
        {
          "$type": "LDBCDLJECKF",
          "animEventNames": [
            "ATK02"
          ],
          "actorGrassSubHurtDelta": "NormalAttack_02_DamagePercentage",
          "actorWindSubHurtDelta": 0.0
        },
        {
          "$type": "LDBCDLJECKF",
          "animEventNames": [
            "ATK03"
          ],
          "actorGrassSubHurtDelta": "NormalAttack_03_DamagePercentage",
          "actorWindSubHurtDelta": 0.0
        },
        {
          "$type": "LDBCDLJECKF",
          "animEventNames": [
            "ATK04"
          ],
          "actorGrassSubHurtDelta": "NormalAttack_04_DamagePercentage",
          "actorWindSubHurtDelta": 0.0
        },
        {
          "$type": "LDBCDLJECKF",
          "animEventNames": [
            "ExtraAttack1"
          ],
          "actorGrassSubHurtDelta": "ExtraAttack_Loop_DamagePercentage",
          "actorWindSubHurtDelta": 0.0
        },
        {
          "$type": "LDBCDLJECKF",
          "animEventNames": [
            "ExtraAttack2"
          ],
          "actorGrassSubHurtDelta": "ExtraAttack_End_DamagePercentage",
          "actorWindSubHurtDelta": 0.0
        }
      ],
      "abilitySpecials": {
        "NormalAttack_01_DamagePercentage": 0.0,
        "NormalAttack_02_DamagePercentage": 0.0,
        "NormalAttack_03_DamagePercentage": 0.0,
        "NormalAttack_04_DamagePercentage": 0.0,
        "ExtraAttack_Loop_DamagePercentage": 0.0,
        "ExtraAttack_End_DamagePercentage": 0.0
      }
    }
  },
  {
    "Default": {
      "$type": "CBPBEHLOHKI",
      "abilityName": "Avatar_Chongyun_IceBlade",
      "onAbilityStart": [
        {
          "$type": "CAKDDHLKOAB",
          "predicates": [
            {
              "$type": "GKDKGMAMGGN",
              "talentParam": "Avatar_Chongyun_Talent_361"
            }
          ],
          "bulletID": 41034101,
          "born": {
            "$type": "IAENDIPDFKD",
            "offset": {
              "KGEPIMHBMOL": 0.0,
              "JEBHCGDPFEJ": 0.5,
              "LPCHALMFFOD": 0.5
            }
          }
        },
        {
          "$type": "CAKDDHLKOAB",
          "predicates": [
            {
              "$type": "GKDKGMAMGGN",
              "talentParam": "Avatar_Chongyun_Talent_361"
            }
          ],
          "bulletID": 41034101,
          "born": {
            "$type": "IAENDIPDFKD",
            "offset": {
              "KGEPIMHBMOL": 0.0,
              "JEBHCGDPFEJ": 0.5,
              "LPCHALMFFOD": 0.5
            },
            "direction": {
              "$type": "LEIHCELGBNN",
              "angleOffset": {
                "KGEPIMHBMOL": 0.0,
                "JEBHCGDPFEJ": 25.0,
                "LPCHALMFFOD": 0.0
              }
            }
          }
        },
        {
          "$type": "CAKDDHLKOAB",
          "predicates": [
            {
              "$type": "GKDKGMAMGGN",
              "talentParam": "Avatar_Chongyun_Talent_361"
            }
          ],
          "bulletID": 41034101,
          "born": {
            "$type": "IAENDIPDFKD",
            "offset": {
              "KGEPIMHBMOL": 0.0,
              "JEBHCGDPFEJ": 0.5,
              "LPCHALMFFOD": 0.5
            },
            "direction": {
              "$type": "LEIHCELGBNN",
              "angleOffset": {
                "KGEPIMHBMOL": 0.0,
                "JEBHCGDPFEJ": -25.0,
                "LPCHALMFFOD": 0.0
              }
            }
          }
        }
      ]
    }
  },
  {
    "Default": {
      "$type": "CBPBEHLOHKI",
      "abilityName": "ChongyunTest_TestBlade_Hit",
      "abilitySpecials": {
        "Chongyun_Talent_IceBlades_Damage": 0.0
      },
      "modifiers": {
        "ModifyDamage": {
          "modifierName": "",
          "IPFJJJGABPL": 100.0,
          "modifierMixins": [
            {
              "$type": "LDBCDLJECKF",
              "attackTags": [
                "IceBlades"
              ],
              "actorGrassSubHurtDelta": "Chongyun_Talent_IceBlades_Damage",
              "actorWindSubHurtDelta": 0.0
            }
          ]
        },
        "LoopState": {
          "modifierName": "",
          "IPFJJJGABPL": 100.0,
          "onAdded": [
            {
              "$type": "ANLOBBMKNIJ",
              "rotationDampTime": "Eff_Chongyun_Talent_IceBlades",
              "PPPDJGDDOGD": 1.0,
              "AJDILHJFNKE": -1.0
            }
          ]
        },
        "Damage": {
          "modifierName": "",
          "IPFJJJGABPL": 100.0,
          "thinkInterval": 0.05000000074505806,
          "onThinkInterval": [
            {
              "$type": "CCNPNMMONDO",
              "otherTargets": {
                "$type": "IJOFJOGLDHE",
                "shapeName": "CircleR1",
                "campTargetType": "Enemy",
                "doOffStage": 1.0
              },
              "predicates": [
                {
                  "$type": "NIMAPECDNKD",
                  "entityTypes": [
                    "Grass"
                  ]
                }
              ],
              "attackInfo": {
                "attackTag": "NormalAttack_04",
                "attenuationTag": "",
                "attenuationGroup": "default",
                "attackProperty": {
                  "actorGrassSubHurtDelta": 0.0,
                  "actorWindSubHurtDelta": 0.0,
                  "elementType": "Ice",
                  "elementRank": 3.0,
                  "IPFJJJGABPL": 25.0,
                  "enBreak": 0.0,
                  "GLKMCMDJBIK": 0.0
                },
                "hitPattern": {
                  "onHitEffectName": "none",
                  "hitImpulseY": "",
                  "hitImpulseType": "LV0",
                  "hitHaltTimeScale": 0.05000000074505806,
                  "muteHitText": true
                }
              }
            }
          ]
        }
      },
      "onAdded": [
        {
          "$type": "PELJALPANCA",
          "modifierName": "LoopState"
        },
        {
          "$type": "PELJALPANCA",
          "modifierName": "Damage"
        },
        {
          "$type": "PELJALPANCA",
          "modifierName": "ModifyDamage"
        }
      ]
    }
  },
  {
    "Default": {
      "$type": "CBPBEHLOHKI",
      "abilityName": "Avatar_Chongyun_FallingAnthem",
      "abilityMixins": [
        {
          "$type": "KMPFLHBHBBP",
          "jumpSkillID": 5036010,
          "flySkillID": 5036010
        },
        {
          "$type": "EKMHJKDLBJH",
          "stateIDs": [
            "FallingAnthem_BS"
          ],
          "modifierName": "FallingAnthem_BS_Material",
          "DGFCLAIDIFI": ""
        },
        {
          "$type": "EKMHJKDLBJH",
          "stateIDs": [
            "FallingAnthem_Loop"
          ],
          "modifierName": "FallingAnthem_Loop_Normal",
          "DGFCLAIDIFI": ""
        },
        {
          "$type": "EJDKAKLFCPA",
          "stateIDs": [
            "FallingAnthem_BS_2",
            "FallingAnthem_Loop",
            "FallingAnthem_Loop_Low"
          ],
          "modifierName": "FallingAnthem_LoopDamage",
          "DGFCLAIDIFI": ""
        },
        {
          "$type": "EKMHJKDLBJH",
          "stateIDs": [
            "FallingAnthem_BS"
          ],
          "modifierName": "FallingAnthem_BS_VelocityForce_Initialize",
          "DGFCLAIDIFI": ""
        },
        {
          "$type": "EKMHJKDLBJH",
          "stateIDs": [
            "FallingAnthem_BS",
            "FallingAnthem_Loop",
            "FallingAnthem_AS_1",
            "FallingAnthem_AS_2"
          ],
          "modifierName": "FallingAnthem_Height_Detect",
          "DGFCLAIDIFI": ""
        },
        {
          "$type": "EKMHJKDLBJH",
          "stateIDs": [
            "FallingAnthem_BS",
            "FallingAnthem_Loop",
            "FallingAnthem_AS_1",
            "FallingAnthem_AS_2"
          ],
          "modifierName": "FallingAnthem_FallingDamageImmune_01",
          "DGFCLAIDIFI": ""
        },
        {
          "$type": "EKMHJKDLBJH",
          "stateIDs": [
            "FallingAnthem_BS",
            "FallingAnthem_Loop"
          ],
          "modifierName": "Inertia",
          "DGFCLAIDIFI": ""
        },
        {
          "$type": "EKMHJKDLBJH",
          "stateIDs": [
            "FallingAnthem_BS",
            "FallingAnthem_Loop",
            "FallingAnthem_AS_1",
            "FallingAnthem_AS_2"
          ],
          "modifierName": "FallingAnthem_OverHead_Camera",
          "DGFCLAIDIFI": ""
        },
        {
          "$type": "EKMHJKDLBJH",
          "stateIDs": [
            "FallingAnthem_BS"
          ],
          "modifierName": "FallingAnthem_ClearVelocityForce",
          "DGFCLAIDIFI": ""
        },
        {
          "$type": "EJDKAKLFCPA",
          "stateIDs": [
            "FallingAnthem_BS_2",
            "FallingAnthem_Loop"
          ],
          "modifierName": "FallingAnthem_AttachSelfEffect",
          "DGFCLAIDIFI": ""
        }
      ],
      "abilitySpecials": {
        "FallingAnthem_Normal_Loop_Damage": 0.0,
        "FallingAnthem_Normal_Rank_1_Damage": 0.0,
        "FallingAnthem_Normal_Rank_2_Damage": 0.0,
        "FallingAnthem_Altitude_Lv0": 20.0,
        "FallingAnthem_Altitude_Lv1": 40.0,
        "FallingAnthem_Altitude_Lv2": 60.0,
        "FallingAnthem_Altitude_Lv3": 100.0,
        "FallingAnthem_Altitude_Lv4": 200.0,
        "FallingAnthem_FallingDamageRatio_Lv0": -1.0,
        "FallingAnthem_FallingDamageRatio_Lv1": -1.0,
        "FallingAnthem_FallingDamageRatio_Lv2": -0.8999999761581421,
        "FallingAnthem_FallingDamageRatio_Lv3": -0.800000011920929,
        "FallingAnthem_FallingDamageRatio_Lv4": -0.6000000238418579,
        "FallingAnthem_FallingDamageRatio": 0.0
      },
      "modifiers": {
        "FallingAnthem_AttachSelfEffect": {
          "modifierName": "",
          "IPFJJJGABPL": 100.0,
          "onAdded": [
            {
              "$type": "ANLOBBMKNIJ",
              "rotationDampTime": "Eff_Avatar_Claymore_FallAnthem_Self_02",
              "PPPDJGDDOGD": 1.0,
              "AJDILHJFNKE": -1.0
            }
          ]
        },
        "FallingAnthem_BS_Material": {
          "modifierName": "",
          "IPFJJJGABPL": 100.0,
          "onAdded": [
            {
              "$type": "KBFEIHEAMBM",
              "rotationDampTime": "Eff_Avatar_Claymore_FallAnthem_Self",
              "PPPDJGDDOGD": 1.0,
              "AJDILHJFNKE": -1.0
            },
            {
              "$type": "KBFEIHEAMBM",
              "rotationDampTime": "Eff_Avatar_Claymore_FallAnthem_BS",
              "PPPDJGDDOGD": 1.0,
              "AJDILHJFNKE": -1.0
            }
          ]
        },
        "FallingAnthem_BS_VelocityForce_Initialize": {
          "modifierName": "",
          "IPFJJJGABPL": 100.0,
          "properties": {
            "Actor_AddGravityScale": -2.0
          },
          "onAdded": [
            {
              "$type": "LBLNHEBGPJI",
              "forces": [
                "RushMoveType"
              ]
            }
          ]
        },
        "FallingAnthem_LoopDamage": {
          "modifierName": "",
          "IPFJJJGABPL": 100.0,
          "thinkInterval": 0.30000001192092896,
          "onThinkInterval": [
            {
              "$type": "AIFPLABJNMA",
              "attackEvent": {
                "attackPattern": {
                  "$type": "BELNOFAKNBA",
                  "triggerType": "TriggerNoRepeat",
                  "born": {
                    "$type": "IAENDIPDFKD",
                    "offset": {
                      "KGEPIMHBMOL": 0.0,
                      "JEBHCGDPFEJ": 0.0,
                      "LPCHALMFFOD": 1.0
                    }
                  },
                  "OAHPDLJIADP": 1.0
                },
                "attackInfo": {
                  "attackTag": "FallingAttack",
                  "attenuationTag": "",
                  "attenuationGroup": "default",
                  "attackProperty": {
                    "actorGrassSubHurtDelta": "FallingAnthem_Normal_Loop_Damage",
                    "actorWindSubHurtDelta": 0.0,
                    "IPFJJJGABPL": 0.0,
                    "overrideByWeapon": true,
                    "strikeType": "Slash",
                    "enBreak": 35.0,
                    "attackType": "Melee",
                    "GLKMCMDJBIK": 0.0
                  },
                  "hitPattern": {
                    "onHitEffectName": "default",
                    "hitImpulseY": "",
                    "hitImpulseType": "LV2",
                    "hitHaltTimeScale": 0.019999999552965164
                  }
                }
              },
              "targetType": "Enemy"
            }
          ]
        },
        "FallingAnthem_FallingDamageImmune_01": {
          "modifierName": "",
          "IPFJJJGABPL": 100.0,
          "onAdded": [
            {
              "$type": "HMKGPFBBDIC",
              "key": "_ABILITY_FallingAttack_Altitude"
            },
            {
              "$type": "LCOEFEMOHLP",
              "predicates": [
                {
                  "$type": "NKACKHNIJOO",
                  "logic": "LesserOrEqual",
                  "param3": "FallingAnthem_Altitude_Lv0"
                }
              ],
              "param3": "FallingAnthem_FallingDamageRatio_Lv0",
              "key": "_ABILITY_FallingAttack_Altitude",
              "useLimitRange": true,
              "param2": "FallingAnthem_FallingDamageRatio_Lv0",
              "repeatTimes": "FallingAnthem_FallingDamageRatio_Lv0"
            },
            {
              "$type": "LCOEFEMOHLP",
              "predicates": [
                {
                  "$type": "NKACKHNIJOO",
                  "logic": "LesserOrEqual",
                  "param3": "FallingAnthem_Altitude_Lv1"
                },
                {
                  "$type": "NKACKHNIJOO",
                  "param3": "FallingAnthem_Altitude_Lv0"
                }
              ],
              "param3": "FallingAnthem_FallingDamageRatio_Lv1",
              "key": "_ABILITY_FallingAttack_Altitude",
              "useLimitRange": true,
              "param2": "FallingAnthem_FallingDamageRatio_Lv1",
              "repeatTimes": "FallingAnthem_FallingDamageRatio_Lv1"
            },
            {
              "$type": "LCOEFEMOHLP",
              "predicates": [
                {
                  "$type": "NKACKHNIJOO",
                  "logic": "LesserOrEqual",
                  "param3": "FallingAnthem_Altitude_Lv2"
                },
                {
                  "$type": "NKACKHNIJOO",
                  "param3": "FallingAnthem_Altitude_Lv1"
                }
              ],
              "param3": "FallingAnthem_FallingDamageRatio_Lv2",
              "key": "_ABILITY_FallingAttack_Altitude",
              "useLimitRange": true,
              "param2": "FallingAnthem_FallingDamageRatio_Lv2",
              "repeatTimes": "FallingAnthem_FallingDamageRatio_Lv2"
            },
            {
              "$type": "LCOEFEMOHLP",
              "predicates": [
                {
                  "$type": "NKACKHNIJOO",
                  "logic": "LesserOrEqual",
                  "param3": "FallingAnthem_Altitude_Lv3"
                },
                {
                  "$type": "NKACKHNIJOO",
                  "param3": "FallingAnthem_Altitude_Lv2"
                }
              ],
              "param3": "FallingAnthem_FallingDamageRatio_Lv3",
              "key": "_ABILITY_FallingAttack_Altitude",
              "useLimitRange": true,
              "param2": "FallingAnthem_FallingDamageRatio_Lv3",
              "repeatTimes": "FallingAnthem_FallingDamageRatio_Lv3"
            },
            {
              "$type": "LCOEFEMOHLP",
              "predicates": [
                {
                  "$type": "NKACKHNIJOO",
                  "param3": "FallingAnthem_Altitude_Lv3"
                }
              ],
              "param3": "FallingAnthem_FallingDamageRatio_Lv4",
              "key": "_ABILITY_FallingAttack_Altitude",
              "useLimitRange": true,
              "param2": "FallingAnthem_FallingDamageRatio_Lv4",
              "repeatTimes": "FallingAnthem_FallingDamageRatio_Lv4"
            },
            {
              "$type": "JLDEMMJAMLC",
              "modifierName": "FallingAnthem_FallingDamageImmune_02"
            }
          ]
        },
        "FallingAnthem_FallingDamageImmune_02": {
          "modifierName": "",
          "IPFJJJGABPL": 100.0,
          "onAdded": [
            {
              "$type": "LDIAIDLOPEE",
              "globalValueKey": "_ABILITY_FallingAttack_Altitude",
              "overrideMapKey": "FallingAnthem_FallingDamageRatio"
            },
            {
              "$type": "JLDEMMJAMLC",
              "modifierName": "FallingAnthem_FallingDamageImmune_03"
            }
          ]
        },
        "FallingAnthem_FallingDamageImmune_03": {
          "modifierName": "",
          "IPFJJJGABPL": 100.0,
          "properties": {
            "Actor_FallingDamageRatio": "FallingAnthem_FallingDamageRatio"
          }
        },
        "FallingAnthem_Loop_Normal": {
          "modifierName": "",
          "IPFJJJGABPL": 100.0,
          "modifierMixins": [
            {
              "$type": "MLJAPFBGEEH",
              "globalValueKey": "_ABILITY_FallingAnthem_UseCamera",
              "gvInTalk": 0.0,
              "valueSteps": [
                -1.0,
                0.5,
                1.5
              ],
              "modifierNameSteps": [
                "FallingAnthem_Loop_Normal_Rank_1",
                "FallingAnthem_Loop_Normal_Rank_2"
              ]
            }
          ]
        },
        "FallingAnthem_Loop_Normal_Rank_1": {
          "modifierName": "",
          "IPFJJJGABPL": 100.0,
          "onAdded": [
            {
              "$type": "KBFEIHEAMBM",
              "rotationDampTime": "Eff_Avatar_Claymore_FallAnthem_Loop_01",
              "PPPDJGDDOGD": 1.0,
              "AJDILHJFNKE": -1.0
            }
          ]
        },
        "FallingAnthem_Loop_Normal_Rank_2": {
          "modifierName": "",
          "IPFJJJGABPL": 100.0,
          "onAdded": [
            {
              "$type": "ANLOBBMKNIJ",
              "rotationDampTime": "Eff_Avatar_Claymore_FallAnthem_Loop_02",
              "PPPDJGDDOGD": 1.0,
              "AJDILHJFNKE": -1.0
            }
          ]
        },
        "Inertia": {
          "modifierName": "",
          "IPFJJJGABPL": 100.0,
          "modifierMixins": [
            {
              "$type": "KEHPDCODOOC",
              "useXZ": false,
              "useY": false
            }
          ]
        },
        "FallingAnthem_Height_Detect": {
          "modifierName": "",
          "IPFJJJGABPL": 100.0,
          "onAdded": [
            {
              "$type": "LCOEFEMOHLP",
              "predicates": [
                {
                  "$type": "NKACKHNIJOO",
                  "logic": "LesserOrEqual",
                  "param3": 2.4000000953674316
                }
              ],
              "param3": 0.0,
              "key": "_ABILITY_FallingAnthem_UseCamera",
              "useLimitRange": true,
              "param2": 0.0,
              "repeatTimes": 0.0
            },
            {
              "$type": "LCOEFEMOHLP",
              "predicates": [
                {
                  "$type": "NKACKHNIJOO",
                  "param3": 2.4000000953674316
                }
              ],
              "param3": 5.0,
              "key": "_ABILITY_FallingAnthem_UseCamera",
              "useLimitRange": true,
              "param2": 1.0,
              "repeatTimes": 0.0
            },
            {
              "$type": "FEKJDLHHOLE",
              "predicates": [
                {
                  "$type": "NKACKHNIJOO",
                  "logic": "LesserOrEqual",
                  "param3": 2.4000000953674316
                }
              ],
              "floatID": "FallingAnthem_UseCamera",
              "param3": 0.0
            },
            {
              "$type": "FEKJDLHHOLE",
              "predicates": [
                {
                  "$type": "NKACKHNIJOO",
                  "param3": 2.4000000953674316
                }
              ],
              "floatID": "FallingAnthem_UseCamera",
              "param3": 1.0
            }
          ],
          "onRemoved": [
            {
              "$type": "FEKJDLHHOLE",
              "floatID": "FallingAnthem_UseCamera",
              "param3": 0.0
            },
            {
              "$type": "LCOEFEMOHLP",
              "param3": 0.0,
              "key": "_ABILITY_FallingAnthem_UseCamera",
              "useLimitRange": true,
              "param2": 0.0,
              "repeatTimes": 0.0
            }
          ]
        },
        "FallingAnthem_OverHead_Camera": {
          "modifierName": "",
          "IPFJJJGABPL": 100.0,
          "onAdded": [
            {
              "$type": "LJBFFDLKIKL",
              "predicates": [
                {
                  "$type": "NIFDMKMHAGJ",
                  "logic": "Equal",
                  "param3": 1.0,
                  "parameter": "FallingAnthem_UseCamera"
                }
              ],
              "cameraParam": {
                "forceRadius": 4.5,
                "forceRadiusDuration": 0.20000000298023224,
                "shouldKeepForceRadius": true
              }
            }
          ]
        },
        "FallingAnthem_OverHead_Camera_Remover": {
          "modifierName": "",
          "IPFJJJGABPL": 100.0,
          "onAdded": [
            {
              "$type": "PEIPIGEMHEK",
              "shieldHP": true
            }
          ]
        },
        "FallingAnthem_Landed_Camera": {
          "modifierName": "",
          "IPFJJJGABPL": 100.0,
          "onAdded": [
            {
              "$type": "LJBFFDLKIKL",
              "predicates": [
                {
                  "$type": "NIFDMKMHAGJ",
                  "logic": "Equal",
                  "param3": 1.0,
                  "parameter": "FallingAnthem_UseCamera"
                }
              ],
              "cameraParam": {
                "forceRadius": 6.0,
                "forceRadiusDuration": 0.10000000149011612,
                "shouldKeepForceRadius": true
              }
            }
          ]
        },
        "FallingAnthem_ClearVelocityForce": {
          "modifierName": "",
          "IPFJJJGABPL": 100.0,
          "onAdded": [
            {
              "$type": "LBLNHEBGPJI",
              "forces": [
                "RushMoveType",
                "InertiaType"
              ]
            }
          ]
        }
      },
      "onAbilityStart": [
        {
          "$type": "AIFPLABJNMA",
          "predicates": [
            {
              "$type": "CNGGLKHONAA",
              "key": "_ABILITY_FallingAnthem_UseCamera",
              "param3": 0.0,
              "forceByCaster": true,
              "compareType": "NoneOrEqual"
            }
          ],
          "attackEvent": {
            "attackPattern": {
              "$type": "GMDIMKKHACA",
              "triggerType": "TriggerNoRepeat",
              "born": {
                "$type": "JHEBKCMEMLN",
                "offset": {
                  "KGEPIMHBMOL": 0.0,
                  "JEBHCGDPFEJ": -0.5,
                  "LPCHALMFFOD": 1.0
                }
              },
              "height": 2.0,
              "OAHPDLJIADP": 3.0
            },
            "attackInfo": {
              "attackTag": "FallingAttack",
              "attenuationTag": "",
              "attenuationGroup": "default",
              "attackProperty": {
                "actorGrassSubHurtDelta": "FallingAnthem_Normal_Rank_1_Damage",
                "actorWindSubHurtDelta": 0.0,
                "IPFJJJGABPL": 25.0,
                "overrideByWeapon": true,
                "strikeType": "Blunt",
                "enBreak": 150.0,
                "attackType": "Melee",
                "GLKMCMDJBIK": 0.0
              },
              "hitPattern": {
                "onHitEffectName": "none",
                "hitImpulseY": "",
                "hitImpulseType": "LV4",
                "hitHaltTimeScale": 0.10000000149011612
              },
              "forceCameraShake": true,
              "cameraShake": {
                "shakeType": "CustomVector",
                "shakeRange": 0.23999999463558197,
                "shakeTime": 0.11999999731779099,
                "shakeDistance": 30.0,
                "shakeDir": {
                  "y": 1.0
                },
                "extension": {
                  "baseCycle": 0.23999999463558197,
                  "cycleDamping": 0.0,
                  "rangeAttenuation": 0.30000001192092896
                }
              }
            }
          },
          "targetType": "Enemy"
        },
        {
          "$type": "AIFPLABJNMA",
          "predicates": [
            {
              "$type": "CNGGLKHONAA",
              "key": "_ABILITY_FallingAnthem_UseCamera",
              "param3": 1.0,
              "forceByCaster": true
            }
          ],
          "attackEvent": {
            "attackPattern": {
              "$type": "GMDIMKKHACA",
              "triggerType": "TriggerNoRepeat",
              "born": {
                "$type": "JHEBKCMEMLN",
                "offset": {
                  "KGEPIMHBMOL": 0.0,
                  "JEBHCGDPFEJ": -0.5,
                  "LPCHALMFFOD": 1.0
                }
              },
              "height": 2.0,
              "OAHPDLJIADP": 5.0
            },
            "attackInfo": {
              "attackTag": "FallingAttack",
              "attenuationTag": "",
              "attenuationGroup": "default",
              "attackProperty": {
                "actorGrassSubHurtDelta": "FallingAnthem_Normal_Rank_2_Damage",
                "actorWindSubHurtDelta": 0.0,
                "IPFJJJGABPL": 25.0,
                "overrideByWeapon": true,
                "strikeType": "Blunt",
                "enBreak": 200.0,
                "attackType": "Melee",
                "GLKMCMDJBIK": 0.0
              },
              "hitPattern": {
                "onHitEffectName": "none",
                "hitImpulseY": "",
                "hitImpulseType": "LV7",
                "overrideHitImpulse": {
                  "hitLevel": "Air",
                  "IMIJMPGJOGG": 0.0,
                  "BPCDKKBKOBM": 800.0
                },
                "hitHaltTimeScale": 0.10000000149011612
              },
              "forceCameraShake": true,
              "cameraShake": {
                "shakeType": "CustomVector",
                "shakeRange": 0.5,
                "shakeTime": 0.20000000298023224,
                "shakeDistance": 30.0,
                "shakeDir": {
                  "y": 1.0,
                  "z": 1.0
                },
                "extension": {
                  "baseCycle": 0.4000000059604645,
                  "cycleDamping": 0.0,
                  "rangeAttenuation": 0.30000001192092896
                }
              }
            }
          },
          "targetType": "Enemy"
        },
        {
          "$type": "KBFEIHEAMBM",
          "predicates": [
            {
              "$type": "CNGGLKHONAA",
              "key": "_ABILITY_FallingAnthem_UseCamera",
              "param3": 0.0,
              "forceByCaster": true,
              "compareType": "NoneOrEqual"
            }
          ],
          "rotationDampTime": "Eff_Avatar_Claymore_FallAnthem_Strike_01",
          "PPPDJGDDOGD": 1.0,
          "AJDILHJFNKE": -1.0
        },
        {
          "$type": "KBFEIHEAMBM",
          "predicates": [
            {
              "$type": "CNGGLKHONAA",
              "key": "_ABILITY_FallingAnthem_UseCamera",
              "param3": 1.0,
              "forceByCaster": true
            }
          ],
          "rotationDampTime": "Eff_Avatar_Claymore_FallAnthem_Strike_02",
          "PPPDJGDDOGD": 1.0,
          "AJDILHJFNKE": -1.0
        }
      ]
    }
  }
]