[
  {
    "Default": {
      "$type": "CBPBEHLOHKI",
      "abilityName": "Avatar_Diluc_ExtraAttack",
      "abilityMixins": [
        {
          "$type": "GODEMHMODCN",
          "skillID": 10160,
          "chargeTime": 0.25,
          "EKKJNADOEMB": "Max_Dura",
          "onBeginUncharged": [
            {
              "$type": "BLCCGIPAOIP",
              "PLLJBINMGJK": "DoSkill"
            },
            {
              "$type": "AKEEDILMOJF",
              "intID": "SkillID",
              "param3": 1.0
            },
            {
              "$type": "GNAEJNBIFAC",
              "PLLJBINMGJK": "EndHoldTrigger"
            },
            {
              "$type": "PFKNEFGOHIH",
              "modifierName": "SetTrigger"
            }
          ],
          "onBeginCharged": [
            {
              "$type": "BLCCGIPAOIP",
              "PLLJBINMGJK": "DoSkill"
            },
            {
              "$type": "AKEEDILMOJF",
              "intID": "SkillID",
              "param3": 6.0
            }
          ],
          "onReleaseCharged": [
            {
              "$type": "BLCCGIPAOIP",
              "PLLJBINMGJK": "EndHoldTrigger"
            },
            {
              "$type": "PELJALPANCA",
              "modifierName": "SetTrigger"
            }
          ],
          "onBeginSecondCharged": [
            {
              "$type": "BLCCGIPAOIP",
              "PLLJBINMGJK": "EndHoldTrigger"
            }
          ],
          "chargeStateIDs": [
            "Attack01_BS",
            "Attack01",
            "Attack02",
            "Attack03",
            "Attack04",
            "ExtraAttack",
            "ExtraAttack1"
          ]
        },
        {
          "$type": "OMINBOKBKOB",
          "stateIDs": [
            "ExtraAttack1"
          ],
          "PBLEFEPFBPH": "",
          "LBOBGGPJOOP": ""
        },
        {
          "$type": "EKMHJKDLBJH",
          "stateIDs": [
            "ExtraAttack1"
          ],
          "modifierName": "Cost",
          "DGFCLAIDIFI": ""
        },
        {
          "$type": "EKMHJKDLBJH",
          "stateIDs": [
            "ExtraAttack",
            "ExtraAttack1",
            "ExtraAttack2",
            "ExtraAttack3"
          ],
          "modifierName": "Camera",
          "DGFCLAIDIFI": ""
        }
      ],
      "abilitySpecials": {
        "Max_Dura": 0.0,
        "StaminaCost": 0.0
      },
      "modifiers": {
        "SetTrigger": {
          "modifierName": "",
          "elementDurability": 1.0,
          "IPFJJJGABPL": 100.0,
          "onRemoved": [
            {
              "$type": "BLCCGIPAOIP",
              "PLLJBINMGJK": "EndHoldTrigger"
            }
          ]
        },
        "Camera": {
          "modifierName": "",
          "IPFJJJGABPL": 100.0,
          "onRemoved": [
            {
              "$type": "PEIPIGEMHEK",
              "shieldHP": true
            }
          ],
          "onAvatarOut": [
            {
              "$type": "PEIPIGEMHEK",
              "shieldHP": true
            }
          ]
        },
        "Cost": {
          "modifierName": "",
          "IPFJJJGABPL": 100.0,
          "modifierMixins": [
            {
              "$type": "ALFJHNOMEFL",
              "costStaminaDelta": "StaminaCost",
              "onStaminaEmpty": [
                {
                  "$type": "BLCCGIPAOIP",
                  "PLLJBINMGJK": "EndHoldTrigger"
                }
              ]
            }
          ]
        }
      }
    }
  },
  {
    "Default": {
      "$type": "CBPBEHLOHKI",
      "abilityName": "Avatar_Diluc_Fire_Blade",
      "abilityMixins": [
        {
          "$type": "EKMHJKDLBJH",
          "stateIDs": [
            "FireBlade1",
            "FireBlade2",
            "FireBlade3"
          ],
          "modifierName": "PushCombo",
          "predicates": [
            {
              "$type": "GKDKGMAMGGN",
              "talentParam": "KeepCombo"
            }
          ],
          "DGFCLAIDIFI": ""
        },
        {
          "$type": "EKMHJKDLBJH",
          "stateIDs": [
            "FireBlade1A",
            "FireBlade2A",
            "FireBlade3A"
          ],
          "modifierName": "PopCombo",
          "predicates": [
            {
              "$type": "GKDKGMAMGGN",
              "talentParam": "KeepCombo"
            }
          ],
          "DGFCLAIDIFI": ""
        },
        {
          "$type": "MLJAPFBGEEH",
          "globalValueKey": "_ABILITY_DilucFireBlade_COUNT",
          "gvInTalk": 0.0,
          "valueSteps": [
            -1.5,
            0.5,
            1.5,
            2.5,
            3.5
          ],
          "modifierNameSteps": [
            "Blank",
            "Switch1To2",
            "Switch2To3",
            "Switch3To0"
          ],
          "removeAppliedModifier": false
        }
      ],
      "abilitySpecials": {
        "GetElementRatio": 1.0,
        "ComboCount": 0.0
      },
      "modifiers": {
        "PushCombo": {
          "modifierName": "",
          "IPFJJJGABPL": 100.0,
          "onAdded": [
            {
              "$type": "LCOEFEMOHLP",
              "predicates": [
                {
                  "$type": "ALLFFNEOPGA",
                  "logic": "LesserOrEqual",
                  "param3": 0,
                  "parameter": "ComboCount"
                }
              ],
              "param3": 0.0,
              "key": "_ABILITY_Diluc_ComboCount",
              "useLimitRange": true,
              "param2": 0.0,
              "repeatTimes": 0.0
            },
            {
              "$type": "LCOEFEMOHLP",
              "predicates": [
                {
                  "$type": "ALLFFNEOPGA",
                  "logic": "Equal",
                  "param3": 1,
                  "parameter": "ComboCount"
                }
              ],
              "param3": 1.0,
              "key": "_ABILITY_Diluc_ComboCount",
              "useLimitRange": true,
              "param2": 1.0,
              "repeatTimes": 0.0
            },
            {
              "$type": "LCOEFEMOHLP",
              "predicates": [
                {
                  "$type": "ALLFFNEOPGA",
                  "logic": "Equal",
                  "param3": 2,
                  "parameter": "ComboCount"
                }
              ],
              "param3": 2.0,
              "key": "_ABILITY_Diluc_ComboCount",
              "useLimitRange": true,
              "param2": 2.0,
              "repeatTimes": 0.0
            },
            {
              "$type": "LCOEFEMOHLP",
              "predicates": [
                {
                  "$type": "ALLFFNEOPGA",
                  "logic": "Equal",
                  "param3": 3,
                  "parameter": "ComboCount"
                }
              ],
              "param3": 3.0,
              "key": "_ABILITY_Diluc_ComboCount",
              "useLimitRange": true,
              "param2": 3.0,
              "repeatTimes": 0.0
            },
            {
              "$type": "LCOEFEMOHLP",
              "predicates": [
                {
                  "$type": "ALLFFNEOPGA",
                  "logic": "GreaterOrEqual",
                  "param3": 4,
                  "parameter": "ComboCount"
                }
              ],
              "param3": 0.0,
              "key": "_ABILITY_Diluc_ComboCount",
              "useLimitRange": true,
              "param2": 0.0,
              "repeatTimes": 0.0
            }
          ]
        },
        "PopCombo": {
          "modifierName": "",
          "IPFJJJGABPL": 100.0,
          "onAdded": [
            {
              "$type": "LDIAIDLOPEE",
              "globalValueKey": "_ABILITY_Diluc_ComboCount",
              "overrideMapKey": "ComboCount"
            },
            {
              "$type": "AKEEDILMOJF",
              "intID": "ComboCount",
              "param3": "ComboCount"
            }
          ],
          "onRemoved": [
            {
              "$type": "AKEEDILMOJF",
              "intID": "ComboCount",
              "param3": 0.0
            }
          ]
        },
        "Blank": {
          "modifierName": "",
          "IPFJJJGABPL": 100.0
        },
        "Switch1To2": {
          "modifierName": "",
          "elementDurability": 4.0,
          "IPFJJJGABPL": 100.0,
          "modifierMixins": [
            {
              "$type": "BBDLKGEJDOJ",
              "priority": "AvatarSpecial",
              "skillIndex": 1,
              "skillID": 10162
            }
          ],
          "onAdded": [
            {
              "$type": "OCLNBBMMIOK",
              "skillID": 10161,
              "amountByTargetCurrentHPRatio": 1.0,
              "costStaminaRatio": 1.0
            }
          ],
          "onRemoved": [
            {
              "$type": "LCOEFEMOHLP",
              "shieldHP": true,
              "param3": -4.0,
              "key": "_ABILITY_DilucFireBlade_COUNT",
              "useLimitRange": true,
              "param2": -1.0,
              "repeatTimes": -1.0
            }
          ]
        },
        "Switch2To3": {
          "modifierName": "",
          "elementDurability": 4.0,
          "IPFJJJGABPL": 100.0,
          "modifierMixins": [
            {
              "$type": "BBDLKGEJDOJ",
              "priority": "AvatarSpecial",
              "skillIndex": 1,
              "skillID": 10163
            }
          ],
          "onAdded": [
            {
              "$type": "PFKNEFGOHIH",
              "modifierName": "Switch1To2"
            },
            {
              "$type": "OCLNBBMMIOK",
              "skillID": 10162,
              "amountByTargetCurrentHPRatio": 1.0,
              "costStaminaRatio": 1.0
            }
          ],
          "onRemoved": [
            {
              "$type": "LCOEFEMOHLP",
              "shieldHP": true,
              "param3": -4.0,
              "key": "_ABILITY_DilucFireBlade_COUNT",
              "useLimitRange": true,
              "param2": -1.0,
              "repeatTimes": -1.0
            }
          ]
        },
        "Switch3To0": {
          "modifierName": "",
          "elementDurability": 0.30000001192092896,
          "IPFJJJGABPL": 100.0,
          "onAdded": [
            {
              "$type": "PFKNEFGOHIH",
              "modifierName": "Switch2To3"
            },
            {
              "$type": "OCLNBBMMIOK",
              "skillID": 10163,
              "amountByTargetCurrentHPRatio": 1.0,
              "costStaminaRatio": 1.0
            },
            {
              "$type": "LCOEFEMOHLP",
              "param3": -4.0,
              "key": "_ABILITY_DilucFireBlade_COUNT",
              "useLimitRange": true,
              "param2": -1.0,
              "repeatTimes": -1.0
            }
          ]
        },
        "GenerateElemBall_FireBlade": {
          "modifierName": "",
          "IPFJJJGABPL": 100.0,
          "onAttackLanded": [
            {
              "$type": "INBCDALOHMP",
              "target": "Target",
              "targetPredicates": [
                {
                  "$type": "NIMAPECDNKD",
                  "entityTypes": [
                    "Monster"
                  ]
                },
                {
                  "$type": "CNGGLKHONAA",
                  "key": "_ANIMAL_ENTITY_TYPE",
                  "param3": 0.0,
                  "compareType": "NoneOrEqual"
                },
                {
                  "$type": "NNEHDJHMING",
                  "attackTags": [
                    "Elemental_Art"
                  ]
                }
              ],
              "successActions": [
                {
                  "$type": "JLDEMMJAMLC",
                  "modifierName": "Ball"
                },
                {
                  "$type": "JLDEMMJAMLC",
                  "modifierName": "Ball_Extra"
                }
              ]
            }
          ]
        },
        "Ball": {
          "stacking": "Unique",
          "modifierName": "",
          "elementDurability": 0.30000001192092896,
          "IPFJJJGABPL": 100.0,
          "onAdded": [
            {
              "$type": "OGPDKJJJKNN",
              "configID": 2017,
              "born": {
                "$type": "JHEBKCMEMLN",
                "offset": {
                  "KGEPIMHBMOL": 0.0,
                  "JEBHCGDPFEJ": 0.0,
                  "LPCHALMFFOD": 1.0
                }
              },
              "hpRatio": "GetElementRatio",
              "baseEnergy": 3.0
            }
          ]
        },
        "Ball_Extra": {
          "stacking": "Unique",
          "modifierName": "",
          "elementDurability": 0.30000001192092896,
          "IPFJJJGABPL": 100.0,
          "onAdded": [
            {
              "$type": "BEIEKAHLNED",
              "chance": 0.33000001311302185,
              "successActions": [
                {
                  "$type": "OGPDKJJJKNN",
                  "configID": 2017,
                  "born": {
                    "$type": "JHEBKCMEMLN",
                    "offset": {
                      "KGEPIMHBMOL": 0.0,
                      "JEBHCGDPFEJ": 0.0,
                      "LPCHALMFFOD": 1.0
                    }
                  },
                  "hpRatio": "GetElementRatio",
                  "baseEnergy": 3.0
                }
              ]
            }
          ]
        }
      },
      "onAdded": [
        {
          "$type": "JLDEMMJAMLC",
          "modifierName": "GenerateElemBall_FireBlade"
        }
      ],
      "onRemoved": [
        {
          "$type": "LCOEFEMOHLP",
          "param3": -4.0,
          "key": "_ABILITY_DilucFireBlade_COUNT",
          "useLimitRange": true,
          "param2": -1.0,
          "repeatTimes": -1.0
        }
      ]
    }
  },
  {
    "Default": {
      "$type": "CBPBEHLOHKI",
      "abilityName": "Avatar_Diluc_Fire_BladeSet1",
      "abilityMixins": [
        {
          "$type": "EKMHJKDLBJH",
          "stateIDs": [
            "FireBlade1",
            "FireBlade1A"
          ],
          "modifierName": "Eff_Diluc_FireBlade_Weapon_01",
          "DGFCLAIDIFI": ""
        }
      ],
      "modifiers": {
        "Eff_Diluc_FireBlade_Weapon_01": {
          "modifierName": "",
          "IPFJJJGABPL": 100.0,
          "onAdded": [
            {
              "$type": "ANLOBBMKNIJ",
              "rotationDampTime": "Eff_Diluc_FireBlade_Weapon_01",
              "PPPDJGDDOGD": 1.0,
              "AJDILHJFNKE": -1.0
            }
          ]
        }
      },
      "onAbilityStart": [
        {
          "$type": "LCOEFEMOHLP",
          "param3": -4.0,
          "key": "_ABILITY_DilucFireBlade_COUNT",
          "useLimitRange": true,
          "param2": -1.0,
          "repeatTimes": -1.0
        },
        {
          "$type": "LCOEFEMOHLP",
          "param3": 3.0,
          "key": "_ABILITY_DilucFireBlade_COUNT",
          "useLimitRange": true,
          "param2": 1.0,
          "repeatTimes": 1.0
        },
        {
          "$type": "GJCAPCBELPA",
          "predicates": [
            {
              "$type": "GKDKGMAMGGN",
              "talentParam": "AfterFireBlade"
            }
          ],
          "abilityName": "Avatar_Diluc_AfterFireBlade"
        }
      ]
    }
  },
  {
    "Default": {
      "$type": "CBPBEHLOHKI",
      "abilityName": "Avatar_Diluc_Fire_BladeSet2",
      "abilityMixins": [
        {
          "$type": "EKMHJKDLBJH",
          "stateIDs": [
            "FireBlade2",
            "FireBlade2A"
          ],
          "modifierName": "Eff_Diluc_FireBlade_Weapon_02",
          "DGFCLAIDIFI": ""
        }
      ],
      "modifiers": {
        "Eff_Diluc_FireBlade_Weapon_02": {
          "modifierName": "",
          "IPFJJJGABPL": 100.0,
          "onAdded": [
            {
              "$type": "ANLOBBMKNIJ",
              "rotationDampTime": "Eff_Diluc_FireBlade_Weapon_02",
              "PPPDJGDDOGD": 1.0,
              "AJDILHJFNKE": -1.0
            }
          ]
        }
      },
      "onAbilityStart": [
        {
          "$type": "LCOEFEMOHLP",
          "param3": -4.0,
          "key": "_ABILITY_DilucFireBlade_COUNT",
          "useLimitRange": true,
          "param2": -1.0,
          "repeatTimes": -1.0
        },
        {
          "$type": "LCOEFEMOHLP",
          "param3": 3.0,
          "key": "_ABILITY_DilucFireBlade_COUNT",
          "useLimitRange": true,
          "param2": 2.0,
          "repeatTimes": 2.0
        },
        {
          "$type": "GJCAPCBELPA",
          "predicates": [
            {
              "$type": "GKDKGMAMGGN",
              "talentParam": "AfterFireBlade"
            }
          ],
          "abilityName": "Avatar_Diluc_AfterFireBlade"
        }
      ]
    }
  },
  {
    "Default": {
      "$type": "CBPBEHLOHKI",
      "abilityName": "Avatar_Diluc_Fire_BladeSet3",
      "abilityMixins": [
        {
          "$type": "EKMHJKDLBJH",
          "stateIDs": [
            "FireBlade3",
            "FireBlade3A"
          ],
          "modifierName": "Eff_Diluc_FireBlade_Weapon_03",
          "DGFCLAIDIFI": ""
        }
      ],
      "modifiers": {
        "Eff_Diluc_FireBlade_Weapon_03": {
          "modifierName": "",
          "IPFJJJGABPL": 100.0,
          "onAdded": [
            {
              "$type": "ANLOBBMKNIJ",
              "rotationDampTime": "Eff_Diluc_FireBlade_Weapon_03",
              "PPPDJGDDOGD": 1.0,
              "AJDILHJFNKE": -1.0
            },
            {
              "$type": "ANLOBBMKNIJ",
              "rotationDampTime": "Eff_Diluc_FireBlade_Weapon_03_01",
              "PPPDJGDDOGD": 1.0,
              "AJDILHJFNKE": -1.0
            }
          ]
        }
      },
      "onAbilityStart": [
        {
          "$type": "LCOEFEMOHLP",
          "param3": -4.0,
          "key": "_ABILITY_DilucFireBlade_COUNT",
          "useLimitRange": true,
          "param2": -1.0,
          "repeatTimes": -1.0
        },
        {
          "$type": "LCOEFEMOHLP",
          "param3": 4.0,
          "key": "_ABILITY_DilucFireBlade_COUNT",
          "useLimitRange": true,
          "param2": 3.0,
          "repeatTimes": 3.0
        },
        {
          "$type": "GJCAPCBELPA",
          "predicates": [
            {
              "$type": "GKDKGMAMGGN",
              "talentParam": "AfterFireBlade"
            }
          ],
          "abilityName": "Avatar_Diluc_AfterFireBlade"
        }
      ]
    }
  },
  {
    "Default": {
      "$type": "CBPBEHLOHKI",
      "abilityName": "Avatar_Diluc_Fire_Enhancement",
      "abilityMixins": [
        {
          "$type": "EKMHJKDLBJH",
          "stateIDs": [
            "FireCross",
            "FireCross_AS"
          ],
          "modifierName": "Fire_Enhancement_State",
          "DGFCLAIDIFI": ""
        },
        {
          "$type": "EKMHJKDLBJH",
          "stateIDs": [
            "FireCross",
            "FireCross_AS"
          ],
          "modifierName": "WeatherChange",
          "DGFCLAIDIFI": ""
        }
      ],
      "abilitySpecials": {
        "Dura": 10.199999809265137,
        "ElementDurability": 25.0,
        "FireUp": 0.0
      },
      "modifiers": {
        "WeatherChange": {
          "modifierName": "",
          "IPFJJJGABPL": 100.0,
          "modifierMixins": [
            {
              "$type": "JFFOPFFEBPN",
              "damageRatio": "Skill",
              "weatherPattern": "Weather_Diluc_FireCross",
              "transDuration": 1.0,
              "duration": 2.0
            }
          ]
        },
        "Fire_Enhancement_State": {
          "modifierName": "",
          "IPFJJJGABPL": 100.0
        },
        "Fire_Enhancement_Weapon_Remove": {
          "stacking": "Unique",
          "modifierName": "",
          "elementDurability": 0.6000000238418579,
          "IPFJJJGABPL": 100.0,
          "onAdded": [
            {
              "$type": "PFKNEFGOHIH",
              "shieldHP": true,
              "modifierName": "Fire_Enhancement_Weapon"
            }
          ],
          "onRemoved": [
            {
              "$type": "PFKNEFGOHIH",
              "shieldHP": true,
              "modifierName": "Fire_Enhancement_Weapon"
            }
          ]
        },
        "Fire_Enhancement_Weapon": {
          "modifierName": "",
          "elementDurability": "Dura",
          "elementType": "Fire",
          "IPFJJJGABPL": "ElementDurability",
          "overrideWeaponElement": true,
          "onAdded": [
            {
              "$type": "ANLOBBMKNIJ",
              "rotationDampTime": "Eff_Diluc_FireCross_Weapon_02",
              "PPPDJGDDOGD": 1.0,
              "AJDILHJFNKE": -1.0
            }
          ],
          "onRemoved": [
            {
              "$type": "PELJALPANCA",
              "modifierName": "Eff_Weapon_03"
            }
          ]
        },
        "Eff_Weapon_03": {
          "modifierName": "",
          "elementDurability": 1.0,
          "IPFJJJGABPL": 100.0,
          "onAdded": [
            {
              "$type": "KBFEIHEAMBM",
              "rotationDampTime": "Eff_Diluc_FireCross_Weapon_03",
              "PPPDJGDDOGD": 1.0,
              "AJDILHJFNKE": -1.0
            }
          ]
        },
        "Fire_Enhancement_Diluc": {
          "modifierName": "",
          "elementDurability": "Dura",
          "IPFJJJGABPL": 100.0,
          "thinkInterval": 0.5,
          "properties": {
            "Actor_FireAddHurtDelta": "FireUp"
          },
          "onRemoved": [
            {
              "$type": "PELJALPANCA",
              "otherTargets": {
                "$type": "GAPFENEFKKE",
                "equipPartNames": [
                  "equip01",
                  "sheathPoint"
                ]
              },
              "shieldHP": true,
              "modifierName": "Fire_Enhancement_Weapon_Remove"
            }
          ],
          "onThinkInterval": [
            {
              "$type": "PELJALPANCA",
              "otherTargets": {
                "$type": "GAPFENEFKKE",
                "equipPartNames": [
                  "equip01",
                  "sheathPoint"
                ]
              },
              "modifierName": "Fire_Enhancement_Weapon"
            }
          ],
          "isLimitedProperties": true
        }
      },
      "onAbilityStart": [
        {
          "$type": "PELJALPANCA",
          "otherTargets": {
            "$type": "GAPFENEFKKE",
            "equipPartNames": [
              "equip01",
              "sheathPoint"
            ]
          },
          "modifierName": "Fire_Enhancement_Weapon"
        },
        {
          "$type": "KBFEIHEAMBM",
          "otherTargets": {
            "$type": "GAPFENEFKKE",
            "equipPartNames": [
              "equip01",
              "sheathPoint"
            ]
          },
          "rotationDampTime": "Eff_Diluc_FireCross_Weapon_01",
          "PPPDJGDDOGD": 1.0,
          "AJDILHJFNKE": -1.0
        },
        {
          "$type": "PELJALPANCA",
          "modifierName": "Fire_Enhancement_Diluc"
        },
        {
          "$type": "OCLNBBMMIOK",
          "skillID": 10165,
          "amountByTargetCurrentHPRatio": 1.0,
          "costStaminaRatio": 1.0
        }
      ],
      "onKill": [
        {
          "$type": "PELJALPANCA",
          "otherTargets": {
            "$type": "GAPFENEFKKE",
            "equipPartNames": [
              "equip01",
              "sheathPoint"
            ]
          },
          "shieldHP": true,
          "modifierName": "Fire_Enhancement_Weapon_Remove"
        }
      ]
    }
  },
  {
    "Default": {
      "$type": "CBPBEHLOHKI",
      "abilityName": "Avatar_Diluc_FireCrossCamera",
      "abilityMixins": [
        {
          "$type": "EKMHJKDLBJH",
          "stateIDs": [
            "FireCross"
          ],
          "modifierName": "isGhost",
          "DGFCLAIDIFI": ""
        },
        {
          "$type": "EKMHJKDLBJH",
          "stateIDs": [
            "FireCross"
          ],
          "modifierName": "invincible",
          "DGFCLAIDIFI": ""
        },
        {
          "$type": "EKMHJKDLBJH",
          "stateIDs": [
            "FireCross",
            "FireCross_AS"
          ],
          "modifierName": "FireCross_Camera_Handler",
          "DGFCLAIDIFI": ""
        }
      ],
      "modifiers": {
        "isGhost": {
          "modifierName": "",
          "IPFJJJGABPL": 100.0,
          "onAdded": [
            {
              "$type": "OPAOGKPJLIG",
              "resistanceListID": 11002
            }
          ]
        },
        "invincible": {
          "modifierName": "",
          "IPFJJJGABPL": 100.0,
          "state": "Invincible"
        },
        "FireCross_Camera_Handler": {
          "modifierName": "",
          "IPFJJJGABPL": 100.0,
          "onAdded": [
            {
              "$type": "KGGAJAOJIDL",
              "toggleEmoSync": false,
              "toggleBlink": false,
              "toggleEyeKey": false
            }
          ],
          "onRemoved": [
            {
              "$type": "PEIPIGEMHEK",
              "shieldHP": true
            },
            {
              "$type": "KGGAJAOJIDL",
              "shieldHP": true
            }
          ],
          "onAvatarOut": [
            {
              "$type": "PEIPIGEMHEK",
              "shieldHP": true
            },
            {
              "$type": "KGGAJAOJIDL",
              "shieldHP": true
            }
          ]
        }
      },
      "onAbilityStart": [
        {
          "$type": "OIDCJAEPFPF",
          "predicates": [
            {
              "$type": "CEKDKMLPJDC",
              "attackPattern": {
                "$type": "GMDIMKKHACA",
                "triggerType": "TriggerNoRepeat",
                "born": {
                  "$type": "IAENDIPDFKD",
                  "offset": {
                    "KGEPIMHBMOL": 0.0,
                    "JEBHCGDPFEJ": 1.5,
                    "LPCHALMFFOD": 0.0
                  }
                },
                "height": 0.20000000298023224,
                "fanAngle": 30.0,
                "OAHPDLJIADP": 1.399999976158142
              }
            },
            {
              "$type": "KINBGHMJBBD",
              "compareType": "LessAndEqual",
              "depth": 0.5
            }
          ],
          "cameraMoveCfgPath": "Camera_Diluc_FireCross"
        },
        {
          "$type": "LJBFFDLKIKL",
          "cameraParam": {
            "forceRadius": 5.599999904632568,
            "forceRadiusDuration": 0.8999999761581421,
            "shouldKeepForceRadius": true
          }
        }
      ]
    }
  },
  {
    "Default": {
      "$type": "CBPBEHLOHKI",
      "abilityName": "Avatar_Diluc_FireCross_Push1",
      "onAbilityStart": [
        {
          "$type": "KBFEIHEAMBM",
          "rotationDampTime": "Eff_Diluc_FireCross_Aoe",
          "born": {
            "$type": "JHEBKCMEMLN",
            "offset": {
              "KGEPIMHBMOL": 0.0,
              "JEBHCGDPFEJ": 0.0,
              "LPCHALMFFOD": 0.0
            },
            "alongGround": true
          },
          "PPPDJGDDOGD": 1.0,
          "AJDILHJFNKE": -1.0
        },
        {
          "$type": "AIFPLABJNMA",
          "attackEvent": {
            "attackPattern": {
              "$type": "GMDIMKKHACA",
              "triggerType": "TriggerNoRepeat",
              "ignoreMassive": true,
              "born": {
                "$type": "IAENDIPDFKD",
                "offset": {
                  "KGEPIMHBMOL": 0.0,
                  "JEBHCGDPFEJ": 0.0,
                  "LPCHALMFFOD": 0.0
                }
              },
              "OAHPDLJIADP": 6.0
            },
            "attackInfo": {
              "attackTag": "",
              "attenuationTag": "",
              "attenuationGroup": "default",
              "attackProperty": {
                "actorGrassSubHurtDelta": 0.0,
                "actorWindSubHurtDelta": 0.0,
                "IPFJJJGABPL": 1.0,
                "enBreak": 400.0,
                "attackType": "None",
                "GLKMCMDJBIK": 0.0
              },
              "hitPattern": {
                "onHitEffectName": "",
                "hitImpulseY": "",
                "hitImpulseType": "LV3",
                "retreatType": "ByHitDirection",
                "hitHaltTimeScale": 0.009999999776482582
              }
            }
          },
          "targetType": "Enemy"
        }
      ]
    }
  },
  {
    "Default": {
      "$type": "CBPBEHLOHKI",
      "abilityName": "Avatar_Diluc_FireCross_Strike",
      "abilitySpecials": {
        "Damage": 0.0
      },
      "onAbilityStart": [
        {
          "$type": "JPHLIDGMGBG",
          "cameraRadialBlur": {
            "power": 0.800000011920929,
            "blurTime": 0.25,
            "fadeTime": 0.30000001192092896
          }
        },
        {
          "$type": "KBFEIHEAMBM",
          "rotationDampTime": "Eff_Diluc_FireCross_Aoe1",
          "PPPDJGDDOGD": 1.0,
          "AJDILHJFNKE": -1.0
        },
        {
          "$type": "AIFPLABJNMA",
          "attackEvent": {
            "attackPattern": {
              "$type": "JHKEHNJBMOF",
              "triggerType": "TriggerNoRepeat",
              "filterByFrame": true,
              "ignoreMassive": true,
              "born": {
                "$type": "IAENDIPDFKD",
                "offset": {
                  "KGEPIMHBMOL": 0.0,
                  "JEBHCGDPFEJ": 1.0,
                  "LPCHALMFFOD": -1.0
                }
              },
              "size": {
                "KGEPIMHBMOL": 16.0,
                "JEBHCGDPFEJ": 4.0,
                "LPCHALMFFOD": 6.0
              }
            },
            "attackInfo": {
              "attackTag": "Elemental_Burst",
              "attenuationTag": "Elemental_Burst",
              "attenuationGroup": "Diluc",
              "attackProperty": {
                "actorGrassSubHurtDelta": "Damage",
                "actorWindSubHurtDelta": 0.0,
                "elementType": "Fire",
                "elementRank": 3.0,
                "IPFJJJGABPL": 50.0,
                "strikeType": "Blunt",
                "enBreak": 100.0,
                "attackType": "Melee",
                "GLKMCMDJBIK": 0.0
              },
              "hitPattern": {
                "onHitEffectName": "Eff_Diluc_FireBlade_Hit_01",
                "hitImpulseY": "",
                "hitImpulseType": "LV4",
                "hitHaltTime": 0.09000000357627869,
                "hitHaltTimeScale": 0.009999999776482582,
                "canBeDefenceHalt": true
              },
              "forceCameraShake": true,
              "cameraShake": {
                "shakeType": "CustomVector",
                "shakeRange": 0.20000000298023224,
                "shakeTime": 0.4000000059604645,
                "shakeDistance": 30.0,
                "shakeDir": {
                  "x": -1.0,
                  "y": 0.20000000298023224
                }
              }
            }
          },
          "targetType": "Enemy"
        },
        {
          "$type": "AIFPLABJNMA",
          "attackEvent": {
            "attackPattern": {
              "$type": "GMDIMKKHACA",
              "triggerType": "TriggerNoRepeat",
              "filterByFrame": true,
              "ignoreMassive": true,
              "born": {
                "$type": "IAENDIPDFKD",
                "offset": {
                  "KGEPIMHBMOL": 0.0,
                  "JEBHCGDPFEJ": 0.0,
                  "LPCHALMFFOD": 0.0
                }
              },
              "OAHPDLJIADP": 6.0
            },
            "attackInfo": {
              "attackTag": "Elemental_Burst",
              "attenuationTag": "",
              "attenuationGroup": "default",
              "attackProperty": {
                "actorGrassSubHurtDelta": 0.0,
                "actorWindSubHurtDelta": 0.0,
                "IPFJJJGABPL": 1.0,
                "enBreak": 100.0,
                "attackType": "None",
                "GLKMCMDJBIK": 0.0
              },
              "hitPattern": {
                "onHitEffectName": "Eff_Diluc_FireBlade_Hit_01",
                "hitImpulseY": "",
                "hitImpulseType": "LV5",
                "retreatType": "ByHitDirection",
                "hitHaltTimeScale": 0.009999999776482582
              }
            }
          },
          "targetType": "Enemy"
        }
      ]
    }
  },
  {
    "Default": {
      "$type": "CBPBEHLOHKI",
      "abilityName": "Avatar_Diluc_FireCross",
      "onAbilityStart": [
        {
          "$type": "CAKDDHLKOAB",
          "bulletID": 41016001,
          "born": {
            "$type": "JHEBKCMEMLN",
            "offset": {
              "KGEPIMHBMOL": 0.0,
              "JEBHCGDPFEJ": 1.600000023841858,
              "LPCHALMFFOD": 1.0
            }
          }
        }
      ]
    }
  },
  {
    "Default": {
      "$type": "CBPBEHLOHKI",
      "abilityName": "Avatar_Diluc_FireCross_Material",
      "abilitySpecials": {
        "Damage": 0.0,
        "TalentRate": 1.0,
        "Interval": 0.20000000298023224
      },
      "modifiers": {
        "Attack_Box": {
          "modifierName": "",
          "IPFJJJGABPL": 100.0,
          "thinkInterval": "Interval",
          "onThinkInterval": [
            {
              "$type": "AIFPLABJNMA",
              "attackEvent": {
                "attackPattern": {
                  "$type": "JHKEHNJBMOF",
                  "triggerType": "TriggerNoRepeat",
                  "massiveAttackRatio": 0.15000000596046448,
                  "born": {
                    "$type": "IAENDIPDFKD",
                    "offset": {
                      "KGEPIMHBMOL": 0.0,
                      "JEBHCGDPFEJ": 0.0,
                      "LPCHALMFFOD": -5.0
                    }
                  },
                  "size": {
                    "KGEPIMHBMOL": 16.0,
                    "JEBHCGDPFEJ": 4.0,
                    "LPCHALMFFOD": 8.0
                  }
                },
                "attackInfo": {
                  "attackTag": "Elemental_Burst",
                  "attenuationTag": "Elemental_Burst",
                  "attenuationGroup": "Diluc",
                  "attackProperty": {
                    "actorGrassSubHurtDelta": [
                      "Damage",
                      "TalentRate",
                      "MUL"
                    ],
                    "actorWindSubHurtDelta": 0.0,
                    "elementType": "Fire",
                    "elementRank": 3.0,
                    "IPFJJJGABPL": 50.0,
                    "strikeType": "Default",
                    "enBreak": 100.0,
                    "attackType": "Range",
                    "GLKMCMDJBIK": 0.0
                  },
                  "hitPattern": {
                    "onHitEffectName": "default",
                    "hitImpulseY": "",
                    "hitImpulseType": "LV4",
                    "overrideHitImpulse": {
                      "hitLevel": "Heavy",
                      "IMIJMPGJOGG": 900.0,
                      "BPCDKKBKOBM": 0.0
                    },
                    "hitHaltTimeScale": 0.009999999776482582
                  },
                  "cameraShake": {
                    "shakeRange": 0.09000000357627869,
                    "shakeTime": 0.05999999865889549,
                    "shakeDistance": 30.0
                  },
                  "canBeModifiedBy": "OriginOwner"
                }
              },
              "targetType": "Enemy"
            }
          ]
        }
      },
      "onAdded": [
        {
          "$type": "JLDEMMJAMLC",
          "modifierName": "Attack_Box"
        },
        {
          "$type": "KBFEIHEAMBM",
          "rotationDampTime": "Eff_Diluc_FireCross_01",
          "PPPDJGDDOGD": 1.0,
          "AJDILHJFNKE": -1.0
        }
      ]
    }
  },
  {
    "Default": {
      "$type": "CBPBEHLOHKI",
      "abilityName": "Avatar_Diluc_FireCross_Explode",
      "abilitySpecials": {
        "Damage": 0.0,
        "TalentRate": 1.0
      },
      "onAbilityStart": [
        {
          "$type": "AIFPLABJNMA",
          "attackEvent": {
            "attackPattern": {
              "$type": "JHKEHNJBMOF",
              "triggerType": "TriggerNoRepeat",
              "ignoreMassive": true,
              "born": {
                "$type": "IAENDIPDFKD",
                "offset": {
                  "KGEPIMHBMOL": 0.0,
                  "JEBHCGDPFEJ": -1.0,
                  "LPCHALMFFOD": -6.0
                }
              },
              "size": {
                "KGEPIMHBMOL": 16.0,
                "JEBHCGDPFEJ": 6.0,
                "LPCHALMFFOD": 10.0
              }
            },
            "attackInfo": {
              "attackTag": "Elemental_Burst",
              "attenuationTag": "Elemental_Burst",
              "attenuationGroup": "Diluc",
              "attackProperty": {
                "actorGrassSubHurtDelta": [
                  "Damage",
                  "TalentRate",
                  "MUL"
                ],
                "actorWindSubHurtDelta": 0.0,
                "elementType": "Fire",
                "elementRank": 3.0,
                "IPFJJJGABPL": 50.0,
                "strikeType": "Default",
                "enBreak": 100.0,
                "attackType": "Range",
                "GLKMCMDJBIK": 0.0
              },
              "hitPattern": {
                "onHitEffectName": "Eff_Diluc_FireBlade_Hit_01",
                "hitImpulseY": "",
                "hitImpulseType": "LV8",
                "retreatType": "ByHitDirection",
                "hitHaltTimeScale": 0.009999999776482582
              },
              "cameraShake": {
                "shakeRange": 0.11999999731779099,
                "shakeTime": 0.09000000357627869
              },
              "canBeModifiedBy": "OriginOwner"
            }
          },
          "targetType": "Enemy"
        }
      ]
    }
  },
  {
    "Default": {
      "$type": "CBPBEHLOHKI",
      "abilityName": "Avatar_Diluc_NormalAttackDamage",
      "abilityMixins": [
        {
          "$type": "LDBCDLJECKF",
          "attackTags": [
            "NormalAttack_01"
          ],
          "actorGrassSubHurtDelta": "Attack01",
          "actorWindSubHurtDelta": 0.0
        },
        {
          "$type": "LDBCDLJECKF",
          "attackTags": [
            "NormalAttack_02"
          ],
          "actorGrassSubHurtDelta": "Attack02",
          "actorWindSubHurtDelta": 0.0
        },
        {
          "$type": "LDBCDLJECKF",
          "attackTags": [
            "NormalAttack_03"
          ],
          "actorGrassSubHurtDelta": "Attack03",
          "actorWindSubHurtDelta": 0.0
        },
        {
          "$type": "LDBCDLJECKF",
          "attackTags": [
            "NormalAttack_04"
          ],
          "actorGrassSubHurtDelta": "Attack04",
          "actorWindSubHurtDelta": 0.0
        },
        {
          "$type": "LDBCDLJECKF",
          "animEventNames": [
            "ExtraAttack1"
          ],
          "actorGrassSubHurtDelta": "ExtraAttack1",
          "actorWindSubHurtDelta": 0.0
        },
        {
          "$type": "LDBCDLJECKF",
          "animEventNames": [
            "ExtraAttack2"
          ],
          "actorGrassSubHurtDelta": "ExtraAttack2",
          "actorWindSubHurtDelta": 0.0
        }
      ],
      "abilitySpecials": {
        "Attack01": 0.0,
        "Attack02": 0.0,
        "Attack03": 0.0,
        "Attack04": 0.0,
        "ExtraAttack1": 0.0,
        "ExtraAttack2": 0.0
      }
    }
  },
  {
    "Default": {
      "$type": "CBPBEHLOHKI",
      "abilityName": "Avatar_Diluc_ElementArt",
      "abilityMixins": [
        {
          "$type": "LDBCDLJECKF",
          "animEventNames": [
            "FB01"
          ],
          "actorGrassSubHurtDelta": "FB01",
          "actorWindSubHurtDelta": 0.0
        },
        {
          "$type": "LDBCDLJECKF",
          "animEventNames": [
            "FB02"
          ],
          "actorGrassSubHurtDelta": "FB02",
          "actorWindSubHurtDelta": 0.0
        },
        {
          "$type": "LDBCDLJECKF",
          "animEventNames": [
            "FB03"
          ],
          "actorGrassSubHurtDelta": "FB03",
          "actorWindSubHurtDelta": 0.0
        }
      ],
      "abilitySpecials": {
        "FB01": 0.0,
        "FB02": 0.0,
        "FB03": 0.0
      }
    }
  },
  {
    "Default": {
      "$type": "CBPBEHLOHKI",
      "abilityName": "Avatar_Diluc_GiantKiller",
      "abilityMixins": [
        {
          "$type": "LDBCDLJECKF",
          "ignoreEventInfo": true,
          "actorWindSubHurtDelta": "Rate",
          "predicates": [
            {
              "$type": "AFCIHEABHEL",
              "logic": "GreaterOrEqual",
              "ratio": 0.5
            }
          ]
        }
      ],
      "abilitySpecials": {
        "Rate": 0.0
      },
      "isDynamicAbility": true
    }
  },
  {
    "Default": {
      "$type": "CBPBEHLOHKI",
      "abilityName": "Avatar_Diluc_FireHowl",
      "abilitySpecials": {
        "AttackRate": 0.0,
        "SpeedRate": 0.0,
        "Time": 0.0,
        "maxStackCount": 0.0,
        "CDTime": 0.0
      },
      "modifiers": {
        "HowlCheck": {
          "modifierName": "",
          "IPFJJJGABPL": 100.0,
          "modifierMixins": [
            {
              "$type": "MLJAPFBGEEH",
              "globalValueKey": "_ABILITY_DilucTalentHowl_COUNT",
              "gvInTalk": 0.0,
              "valueSteps": [
                -0.5,
                0.5,
                1.5,
                2.5,
                3.5,
                4.5
              ],
              "modifierNameSteps": [
                "Blank",
                "AttackUp1",
                "AttackUp2",
                "AttackUp3",
                "AttackUp4"
              ]
            }
          ],
          "onBeingHit": [
            {
              "$type": "PELJALPANCA",
              "modifierName": "Howl"
            }
          ],
          "onKill": [
            {
              "$type": "LCOEFEMOHLP",
              "param3": -4.0,
              "key": "_ABILITY_DilucTalentHowl_COUNT",
              "useLimitRange": true,
              "param2": "maxStackCount",
              "repeatTimes": 0.0
            }
          ]
        },
        "Howl": {
          "stacking": "Unique",
          "modifierName": "",
          "elementDurability": "CDTime",
          "IPFJJJGABPL": 100.0,
          "onAdded": [
            {
              "$type": "PELJALPANCA",
              "modifierName": "Buff_Time"
            },
            {
              "$type": "LCOEFEMOHLP",
              "param3": 1.0,
              "key": "_ABILITY_DilucTalentHowl_COUNT",
              "useLimitRange": true,
              "param2": "maxStackCount",
              "repeatTimes": 0.0
            }
          ]
        },
        "Buff_Time": {
          "modifierName": "",
          "elementDurability": "Time",
          "IPFJJJGABPL": 100.0,
          "onRemoved": [
            {
              "$type": "LCOEFEMOHLP",
              "shieldHP": true,
              "param3": -4.0,
              "key": "_ABILITY_DilucTalentHowl_COUNT",
              "useLimitRange": true,
              "param2": "maxStackCount",
              "repeatTimes": 0.0
            }
          ]
        },
        "Blank": {
          "modifierName": "",
          "IPFJJJGABPL": 100.0
        },
        "AttackUp1": {
          "modifierName": "",
          "IPFJJJGABPL": 100.0,
          "properties": {
            "Actor_AttackRatio": "AttackRate",
            "Animator_AttackSpeedRatio": "SpeedRate"
          },
          "state": "AttackUp",
          "isLimitedProperties": true
        },
        "AttackUp2": {
          "modifierName": "",
          "IPFJJJGABPL": 100.0,
          "properties": {
            "Actor_AttackRatio": [
              "AttackRate",
              2.0,
              "MUL"
            ],
            "Animator_AttackSpeedRatio": [
              "SpeedRate",
              2.0,
              "MUL"
            ]
          },
          "state": "AttackUp",
          "isLimitedProperties": true
        },
        "AttackUp3": {
          "modifierName": "",
          "IPFJJJGABPL": 100.0,
          "properties": {
            "Actor_AttackRatio": [
              "AttackRate",
              3.0,
              "MUL"
            ],
            "Animator_AttackSpeedRatio": [
              "SpeedRate",
              3.0,
              "MUL"
            ]
          },
          "state": "AttackUp",
          "isLimitedProperties": true
        },
        "AttackUp4": {
          "modifierName": "",
          "IPFJJJGABPL": 100.0,
          "properties": {
            "Actor_AttackRatio": [
              "AttackRate",
              4.0,
              "MUL"
            ],
            "Animator_AttackSpeedRatio": [
              "SpeedRate",
              4.0,
              "MUL"
            ]
          },
          "state": "AttackUp",
          "isLimitedProperties": true
        }
      },
      "onAdded": [
        {
          "$type": "JLDEMMJAMLC",
          "modifierName": "HowlCheck"
        }
      ],
      "isDynamicAbility": true
    }
  },
  {
    "Default": {
      "$type": "CBPBEHLOHKI",
      "abilityName": "Avatar_Diluc_AfterFireBlade",
      "abilityMixins": [
        {
          "$type": "MLJAPFBGEEH",
          "globalValueKey": "_ABILITY_DilucTalentCritTime_COUNT",
          "gvInTalk": 0.0,
          "valueSteps": [
            -1.0,
            0.5,
            4.5
          ],
          "modifierNameSteps": [
            "BlankCritUp",
            "NormalCritUp"
          ]
        }
      ],
      "abilitySpecials": {
        "Dura": 0.0,
        "Rate": 0.0,
        "AtkSpeed": 0.0
      },
      "modifiers": {
        "NormalCritUp_Timer": {
          "modifierName": "",
          "elementDurability": "Dura",
          "IPFJJJGABPL": 100.0,
          "onRemoved": [
            {
              "$type": "LCOEFEMOHLP",
              "shieldHP": true,
              "param3": 0.0,
              "key": "_ABILITY_DilucTalentCritTime_COUNT",
              "useLimitRange": true,
              "param2": 0.0,
              "repeatTimes": 0.0
            }
          ]
        },
        "BlankCritUp": {
          "modifierName": "",
          "IPFJJJGABPL": 100.0
        },
        "NormalCritUp": {
          "modifierName": "",
          "IPFJJJGABPL": 100.0,
          "modifierMixins": [
            {
              "$type": "LDBCDLJECKF",
              "animEventNames": [
                "ATK01",
                "ATK02",
                "ATK03",
                "ATK04"
              ],
              "actorWindSubHurtDelta": "Rate"
            }
          ],
          "properties": {
            "Animator_AttackSpeedRatio": "AtkSpeed"
          },
          "isLimitedProperties": true
        }
      },
      "onRemoved": [
        {
          "$type": "LCOEFEMOHLP",
          "shieldHP": true,
          "param3": 0.0,
          "key": "_ABILITY_DilucTalentCritTime_COUNT",
          "useLimitRange": true,
          "param2": 0.0,
          "repeatTimes": 0.0
        }
      ],
      "onAbilityStart": [
        {
          "$type": "LCOEFEMOHLP",
          "param3": 0.0,
          "key": "_ABILITY_DilucTalentCritTime_COUNT",
          "useLimitRange": true,
          "param2": 2.0,
          "repeatTimes": 2.0
        },
        {
          "$type": "PELJALPANCA",
          "modifierName": "NormalCritUp_Timer"
        }
      ],
      "isDynamicAbility": true
    }
  },
  {
    "Default": {
      "$type": "CBPBEHLOHKI",
      "abilityName": "Avatar_Diluc_AfterFireBladeCountDown",
      "onAbilityStart": [
        {
          "$type": "LCOEFEMOHLP",
          "param3": -1.0,
          "key": "_ABILITY_DilucTalentCritTime_COUNT",
          "useLimitRange": true,
          "param2": 4.0,
          "repeatTimes": 0.0
        }
      ]
    }
  },
  {
    "Default": {
      "$type": "CBPBEHLOHKI",
      "abilityName": "Avatar_Diluc_NextFireBlade1",
      "abilityMixins": [
        {
          "$type": "MLJAPFBGEEH",
          "globalValueKey": "_ABILITY_DilucFireBlade_COUNT",
          "gvInTalk": 0.0,
          "valueSteps": [
            -0.5,
            0.5,
            1.5,
            2.5,
            3.5
          ],
          "modifierNameSteps": [
            "T",
            "T",
            "T",
            "T"
          ],
          "actionQueues": [
            [],
            [],
            [
              {
                "$type": "PFKNEFGOHIH",
                "modifierName": "Timer2"
              }
            ],
            [
              {
                "$type": "PFKNEFGOHIH",
                "modifierName": "Timer2"
              }
            ]
          ],
          "removeAppliedModifier": false
        }
      ],
      "abilitySpecials": {
        "Rate": 0.0
      },
      "modifiers": {
        "T": {
          "modifierName": "",
          "IPFJJJGABPL": 100.0
        },
        "Timer2": {
          "modifierName": "",
          "elementDurability": 3.5999999046325684,
          "IPFJJJGABPL": 100.0,
          "thinkInterval": 2.0,
          "onThinkInterval": [
            {
              "$type": "PELJALPANCA",
              "shieldHP": true,
              "modifierName": "NextFireBlade2"
            },
            {
              "$type": "JLDEMMJAMLC",
              "shieldHP": true,
              "modifierName": "NextFireBlade2_Eff"
            }
          ]
        },
        "NextFireBlade2_Eff": {
          "modifierName": "",
          "elementDurability": 2.0,
          "IPFJJJGABPL": 100.0,
          "onAdded": [
            {
              "$type": "ANLOBBMKNIJ",
              "shieldHP": true,
              "rotationDampTime": "Eff_Diluc_Talent_NextFireBlade",
              "PPPDJGDDOGD": 1.0,
              "AJDILHJFNKE": -1.0
            }
          ]
        },
        "NextFireBlade2": {
          "modifierName": "",
          "elementDurability": 4.0,
          "IPFJJJGABPL": 100.0,
          "modifierMixins": [
            {
              "$type": "LDBCDLJECKF",
              "animEventNames": [
                "FB02"
              ],
              "actorWindSubHurtDelta": "Rate"
            }
          ]
        }
      },
      "onAbilityStart": [
        {
          "$type": "JLDEMMJAMLC",
          "modifierName": "Timer2"
        }
      ],
      "isDynamicAbility": true
    }
  },
  {
    "Default": {
      "$type": "CBPBEHLOHKI",
      "abilityName": "Avatar_Diluc_NextFireBlade2",
      "abilityMixins": [
        {
          "$type": "MLJAPFBGEEH",
          "globalValueKey": "_ABILITY_DilucFireBlade_COUNT",
          "gvInTalk": 0.0,
          "valueSteps": [
            -0.5,
            0.5,
            1.5,
            2.5,
            3.5
          ],
          "modifierNameSteps": [
            "T",
            "T",
            "T",
            "T"
          ],
          "actionQueues": [
            [],
            [
              {
                "$type": "PFKNEFGOHIH",
                "modifierName": "Timer3"
              }
            ],
            [],
            [
              {
                "$type": "PFKNEFGOHIH",
                "modifierName": "Timer3"
              }
            ]
          ],
          "removeAppliedModifier": false
        }
      ],
      "abilitySpecials": {
        "Rate": 0.0
      },
      "modifiers": {
        "T": {
          "modifierName": "",
          "IPFJJJGABPL": 100.0
        },
        "Timer3": {
          "modifierName": "",
          "elementDurability": 3.5999999046325684,
          "IPFJJJGABPL": 100.0,
          "thinkInterval": 2.0,
          "onThinkInterval": [
            {
              "$type": "PELJALPANCA",
              "shieldHP": true,
              "modifierName": "NextFireBlade3"
            },
            {
              "$type": "JLDEMMJAMLC",
              "shieldHP": true,
              "modifierName": "NextFireBlade3_Eff"
            }
          ]
        },
        "NextFireBlade3_Eff": {
          "modifierName": "",
          "elementDurability": 2.0,
          "IPFJJJGABPL": 100.0,
          "onAdded": [
            {
              "$type": "ANLOBBMKNIJ",
              "shieldHP": true,
              "rotationDampTime": "Eff_Diluc_Talent_NextFireBlade",
              "PPPDJGDDOGD": 1.0,
              "AJDILHJFNKE": -1.0
            }
          ]
        },
        "NextFireBlade3": {
          "modifierName": "",
          "elementDurability": 4.0,
          "IPFJJJGABPL": 100.0,
          "modifierMixins": [
            {
              "$type": "LDBCDLJECKF",
              "animEventNames": [
                "FB03"
              ],
              "actorWindSubHurtDelta": "Rate"
            }
          ]
        }
      },
      "onAbilityStart": [
        {
          "$type": "JLDEMMJAMLC",
          "modifierName": "Timer3"
        }
      ],
      "isDynamicAbility": true
    }
  },
  {
    "Default": {
      "$type": "CBPBEHLOHKI",
      "abilityName": "Avatar_Diluc_FallingAnthem",
      "abilityMixins": [
        {
          "$type": "KMPFLHBHBBP",
          "jumpSkillID": 5016010,
          "flySkillID": 5016010
        },
        {
          "$type": "EKMHJKDLBJH",
          "stateIDs": [
            "FallingAnthem_BS"
          ],
          "modifierName": "FallingAnthem_BS_Material",
          "DGFCLAIDIFI": ""
        },
        {
          "$type": "EKMHJKDLBJH",
          "stateIDs": [
            "FallingAnthem_Loop"
          ],
          "modifierName": "FallingAnthem_Loop_Normal",
          "DGFCLAIDIFI": ""
        },
        {
          "$type": "EJDKAKLFCPA",
          "stateIDs": [
            "FallingAnthem_BS_2",
            "FallingAnthem_Loop",
            "FallingAnthem_Loop_Low"
          ],
          "modifierName": "FallingAnthem_LoopDamage",
          "DGFCLAIDIFI": ""
        },
        {
          "$type": "EKMHJKDLBJH",
          "stateIDs": [
            "FallingAnthem_BS"
          ],
          "modifierName": "FallingAnthem_BS_VelocityForce_Initialize",
          "DGFCLAIDIFI": ""
        },
        {
          "$type": "EKMHJKDLBJH",
          "stateIDs": [
            "FallingAnthem_BS",
            "FallingAnthem_Loop",
            "FallingAnthem_AS_1",
            "FallingAnthem_AS_2"
          ],
          "modifierName": "FallingAnthem_Height_Detect",
          "DGFCLAIDIFI": ""
        },
        {
          "$type": "EKMHJKDLBJH",
          "stateIDs": [
            "FallingAnthem_BS",
            "FallingAnthem_Loop",
            "FallingAnthem_AS_1",
            "FallingAnthem_AS_2"
          ],
          "modifierName": "FallingAnthem_FallingDamageImmune_01",
          "DGFCLAIDIFI": ""
        },
        {
          "$type": "EKMHJKDLBJH",
          "stateIDs": [
            "FallingAnthem_BS",
            "FallingAnthem_Loop"
          ],
          "modifierName": "Inertia",
          "DGFCLAIDIFI": ""
        },
        {
          "$type": "EKMHJKDLBJH",
          "stateIDs": [
            "FallingAnthem_BS",
            "FallingAnthem_Loop",
            "FallingAnthem_AS_1",
            "FallingAnthem_AS_2"
          ],
          "modifierName": "FallingAnthem_OverHead_Camera",
          "DGFCLAIDIFI": ""
        },
        {
          "$type": "EKMHJKDLBJH",
          "stateIDs": [
            "FallingAnthem_BS"
          ],
          "modifierName": "FallingAnthem_ClearVelocityForce",
          "DGFCLAIDIFI": ""
        },
        {
          "$type": "EKMHJKDLBJH",
          "stateIDs": [
            "FallingAnthem_BS",
            "FallingAnthem_Loop"
          ],
          "modifierName": "FallingAnthem_AttachSelfEffect",
          "DGFCLAIDIFI": ""
        }
      ],
      "abilitySpecials": {
        "FallingAnthem_Normal_Loop_Damage": 0.0,
        "FallingAnthem_Normal_Rank_1_Damage": 0.0,
        "FallingAnthem_Normal_Rank_2_Damage": 0.0,
        "FallingAnthem_Altitude_Lv0": 20.0,
        "FallingAnthem_Altitude_Lv1": 40.0,
        "FallingAnthem_Altitude_Lv2": 60.0,
        "FallingAnthem_Altitude_Lv3": 100.0,
        "FallingAnthem_Altitude_Lv4": 200.0,
        "FallingAnthem_FallingDamageRatio_Lv0": -1.0,
        "FallingAnthem_FallingDamageRatio_Lv1": -1.0,
        "FallingAnthem_FallingDamageRatio_Lv2": -0.8999999761581421,
        "FallingAnthem_FallingDamageRatio_Lv3": -0.800000011920929,
        "FallingAnthem_FallingDamageRatio_Lv4": -0.6000000238418579,
        "FallingAnthem_FallingDamageRatio": 0.0
      },
      "modifiers": {
        "FallingAnthem_AttachSelfEffect": {
          "modifierName": "",
          "IPFJJJGABPL": 100.0,
          "onAdded": [
            {
              "$type": "ANLOBBMKNIJ",
              "rotationDampTime": "Eff_Avatar_Claymore_FallAnthem_Self_02",
              "PPPDJGDDOGD": 1.0,
              "AJDILHJFNKE": -1.0
            }
          ]
        },
        "FallingAnthem_BS_Material": {
          "modifierName": "",
          "IPFJJJGABPL": 100.0,
          "onAdded": [
            {
              "$type": "KBFEIHEAMBM",
              "rotationDampTime": "Eff_Avatar_Claymore_FallAnthem_Self",
              "PPPDJGDDOGD": 1.0,
              "AJDILHJFNKE": -1.0
            },
            {
              "$type": "KBFEIHEAMBM",
              "rotationDampTime": "Eff_Avatar_Claymore_FallAnthem_BS",
              "PPPDJGDDOGD": 1.0,
              "AJDILHJFNKE": -1.0
            }
          ]
        },
        "FallingAnthem_BS_VelocityForce_Initialize": {
          "modifierName": "",
          "IPFJJJGABPL": 100.0,
          "properties": {
            "Actor_AddGravityScale": -2.0
          },
          "onAdded": [
            {
              "$type": "LBLNHEBGPJI",
              "forces": [
                "RushMoveType"
              ]
            }
          ]
        },
        "FallingAnthem_LoopDamage": {
          "modifierName": "",
          "IPFJJJGABPL": 100.0,
          "thinkInterval": 0.30000001192092896,
          "onThinkInterval": [
            {
              "$type": "AIFPLABJNMA",
              "attackEvent": {
                "attackPattern": {
                  "$type": "BELNOFAKNBA",
                  "triggerType": "TriggerNoRepeat",
                  "born": {
                    "$type": "IAENDIPDFKD",
                    "offset": {
                      "KGEPIMHBMOL": 0.0,
                      "JEBHCGDPFEJ": 0.0,
                      "LPCHALMFFOD": 1.0
                    }
                  },
                  "OAHPDLJIADP": 1.0
                },
                "attackInfo": {
                  "attackTag": "FallingAttack",
                  "attenuationTag": "",
                  "attenuationGroup": "default",
                  "attackProperty": {
                    "actorGrassSubHurtDelta": "FallingAnthem_Normal_Loop_Damage",
                    "actorWindSubHurtDelta": 0.0,
                    "IPFJJJGABPL": 0.0,
                    "overrideByWeapon": true,
                    "strikeType": "Slash",
                    "enBreak": 35.0,
                    "attackType": "Melee",
                    "GLKMCMDJBIK": 0.0
                  },
                  "hitPattern": {
                    "onHitEffectName": "default",
                    "hitImpulseY": "",
                    "hitImpulseType": "LV2",
                    "hitHaltTimeScale": 0.019999999552965164
                  }
                }
              },
              "targetType": "Enemy"
            }
          ]
        },
        "FallingAnthem_FallingDamageImmune_01": {
          "modifierName": "",
          "IPFJJJGABPL": 100.0,
          "onAdded": [
            {
              "$type": "HMKGPFBBDIC",
              "key": "_ABILITY_FallingAttack_Altitude"
            },
            {
              "$type": "LCOEFEMOHLP",
              "predicates": [
                {
                  "$type": "NKACKHNIJOO",
                  "logic": "LesserOrEqual",
                  "param3": "FallingAnthem_Altitude_Lv0"
                }
              ],
              "param3": "FallingAnthem_FallingDamageRatio_Lv0",
              "key": "_ABILITY_FallingAttack_Altitude",
              "useLimitRange": true,
              "param2": "FallingAnthem_FallingDamageRatio_Lv0",
              "repeatTimes": "FallingAnthem_FallingDamageRatio_Lv0"
            },
            {
              "$type": "LCOEFEMOHLP",
              "predicates": [
                {
                  "$type": "NKACKHNIJOO",
                  "logic": "LesserOrEqual",
                  "param3": "FallingAnthem_Altitude_Lv1"
                },
                {
                  "$type": "NKACKHNIJOO",
                  "param3": "FallingAnthem_Altitude_Lv0"
                }
              ],
              "param3": "FallingAnthem_FallingDamageRatio_Lv1",
              "key": "_ABILITY_FallingAttack_Altitude",
              "useLimitRange": true,
              "param2": "FallingAnthem_FallingDamageRatio_Lv1",
              "repeatTimes": "FallingAnthem_FallingDamageRatio_Lv1"
            },
            {
              "$type": "LCOEFEMOHLP",
              "predicates": [
                {
                  "$type": "NKACKHNIJOO",
                  "logic": "LesserOrEqual",
                  "param3": "FallingAnthem_Altitude_Lv2"
                },
                {
                  "$type": "NKACKHNIJOO",
                  "param3": "FallingAnthem_Altitude_Lv1"
                }
              ],
              "param3": "FallingAnthem_FallingDamageRatio_Lv2",
              "key": "_ABILITY_FallingAttack_Altitude",
              "useLimitRange": true,
              "param2": "FallingAnthem_FallingDamageRatio_Lv2",
              "repeatTimes": "FallingAnthem_FallingDamageRatio_Lv2"
            },
            {
              "$type": "LCOEFEMOHLP",
              "predicates": [
                {
                  "$type": "NKACKHNIJOO",
                  "logic": "LesserOrEqual",
                  "param3": "FallingAnthem_Altitude_Lv3"
                },
                {
                  "$type": "NKACKHNIJOO",
                  "param3": "FallingAnthem_Altitude_Lv2"
                }
              ],
              "param3": "FallingAnthem_FallingDamageRatio_Lv3",
              "key": "_ABILITY_FallingAttack_Altitude",
              "useLimitRange": true,
              "param2": "FallingAnthem_FallingDamageRatio_Lv3",
              "repeatTimes": "FallingAnthem_FallingDamageRatio_Lv3"
            },
            {
              "$type": "LCOEFEMOHLP",
              "predicates": [
                {
                  "$type": "NKACKHNIJOO",
                  "param3": "FallingAnthem_Altitude_Lv3"
                }
              ],
              "param3": "FallingAnthem_FallingDamageRatio_Lv4",
              "key": "_ABILITY_FallingAttack_Altitude",
              "useLimitRange": true,
              "param2": "FallingAnthem_FallingDamageRatio_Lv4",
              "repeatTimes": "FallingAnthem_FallingDamageRatio_Lv4"
            },
            {
              "$type": "JLDEMMJAMLC",
              "modifierName": "FallingAnthem_FallingDamageImmune_02"
            }
          ]
        },
        "FallingAnthem_FallingDamageImmune_02": {
          "modifierName": "",
          "IPFJJJGABPL": 100.0,
          "onAdded": [
            {
              "$type": "LDIAIDLOPEE",
              "globalValueKey": "_ABILITY_FallingAttack_Altitude",
              "overrideMapKey": "FallingAnthem_FallingDamageRatio"
            },
            {
              "$type": "JLDEMMJAMLC",
              "modifierName": "FallingAnthem_FallingDamageImmune_03"
            }
          ]
        },
        "FallingAnthem_FallingDamageImmune_03": {
          "modifierName": "",
          "IPFJJJGABPL": 100.0,
          "properties": {
            "Actor_FallingDamageRatio": "FallingAnthem_FallingDamageRatio"
          }
        },
        "FallingAnthem_Loop_Normal": {
          "modifierName": "",
          "IPFJJJGABPL": 100.0,
          "modifierMixins": [
            {
              "$type": "MLJAPFBGEEH",
              "globalValueKey": "_ABILITY_FallingAnthem_UseCamera",
              "gvInTalk": 0.0,
              "valueSteps": [
                -1.0,
                0.5,
                1.5
              ],
              "modifierNameSteps": [
                "FallingAnthem_Loop_Normal_Rank_1",
                "FallingAnthem_Loop_Normal_Rank_2"
              ]
            }
          ]
        },
        "FallingAnthem_Loop_Normal_Rank_1": {
          "modifierName": "",
          "IPFJJJGABPL": 100.0,
          "onAdded": [
            {
              "$type": "KBFEIHEAMBM",
              "rotationDampTime": "Eff_Avatar_Claymore_FallAnthem_Loop_01",
              "PPPDJGDDOGD": 1.0,
              "AJDILHJFNKE": -1.0
            }
          ]
        },
        "FallingAnthem_Loop_Normal_Rank_2": {
          "modifierName": "",
          "IPFJJJGABPL": 100.0,
          "onAdded": [
            {
              "$type": "ANLOBBMKNIJ",
              "rotationDampTime": "Eff_Avatar_Claymore_FallAnthem_Loop_02",
              "PPPDJGDDOGD": 1.0,
              "AJDILHJFNKE": -1.0
            }
          ]
        },
        "Inertia": {
          "modifierName": "",
          "IPFJJJGABPL": 100.0,
          "modifierMixins": [
            {
              "$type": "KEHPDCODOOC",
              "useXZ": false,
              "useY": false
            }
          ]
        },
        "FallingAnthem_Height_Detect": {
          "modifierName": "",
          "IPFJJJGABPL": 100.0,
          "onAdded": [
            {
              "$type": "LCOEFEMOHLP",
              "predicates": [
                {
                  "$type": "NKACKHNIJOO",
                  "logic": "LesserOrEqual",
                  "param3": 2.4000000953674316
                }
              ],
              "param3": 0.0,
              "key": "_ABILITY_FallingAnthem_UseCamera",
              "useLimitRange": true,
              "param2": 0.0,
              "repeatTimes": 0.0
            },
            {
              "$type": "LCOEFEMOHLP",
              "predicates": [
                {
                  "$type": "NKACKHNIJOO",
                  "param3": 2.4000000953674316
                }
              ],
              "param3": 5.0,
              "key": "_ABILITY_FallingAnthem_UseCamera",
              "useLimitRange": true,
              "param2": 1.0,
              "repeatTimes": 0.0
            },
            {
              "$type": "FEKJDLHHOLE",
              "predicates": [
                {
                  "$type": "NKACKHNIJOO",
                  "logic": "LesserOrEqual",
                  "param3": 2.4000000953674316
                }
              ],
              "floatID": "FallingAnthem_UseCamera",
              "param3": 0.0
            },
            {
              "$type": "FEKJDLHHOLE",
              "predicates": [
                {
                  "$type": "NKACKHNIJOO",
                  "param3": 2.4000000953674316
                }
              ],
              "floatID": "FallingAnthem_UseCamera",
              "param3": 1.0
            }
          ],
          "onRemoved": [
            {
              "$type": "FEKJDLHHOLE",
              "floatID": "FallingAnthem_UseCamera",
              "param3": 0.0
            },
            {
              "$type": "LCOEFEMOHLP",
              "param3": 0.0,
              "key": "_ABILITY_FallingAnthem_UseCamera",
              "useLimitRange": true,
              "param2": 0.0,
              "repeatTimes": 0.0
            }
          ]
        },
        "FallingAnthem_OverHead_Camera": {
          "modifierName": "",
          "IPFJJJGABPL": 100.0,
          "onAdded": [
            {
              "$type": "LJBFFDLKIKL",
              "predicates": [
                {
                  "$type": "NIFDMKMHAGJ",
                  "logic": "Equal",
                  "param3": 1.0,
                  "parameter": "FallingAnthem_UseCamera"
                }
              ],
              "cameraParam": {
                "forceRadius": 4.5,
                "forceRadiusDuration": 0.20000000298023224,
                "shouldKeepForceRadius": true
              }
            }
          ]
        },
        "FallingAnthem_OverHead_Camera_Remover": {
          "modifierName": "",
          "IPFJJJGABPL": 100.0,
          "onAdded": [
            {
              "$type": "PEIPIGEMHEK",
              "shieldHP": true
            }
          ]
        },
        "FallingAnthem_Landed_Camera": {
          "modifierName": "",
          "IPFJJJGABPL": 100.0,
          "onAdded": [
            {
              "$type": "LJBFFDLKIKL",
              "predicates": [
                {
                  "$type": "NIFDMKMHAGJ",
                  "logic": "Equal",
                  "param3": 1.0,
                  "parameter": "FallingAnthem_UseCamera"
                }
              ],
              "cameraParam": {
                "forceRadius": 6.0,
                "forceRadiusDuration": 0.10000000149011612,
                "shouldKeepForceRadius": true
              }
            }
          ]
        },
        "FallingAnthem_ClearVelocityForce": {
          "modifierName": "",
          "IPFJJJGABPL": 100.0,
          "onAdded": [
            {
              "$type": "LBLNHEBGPJI",
              "forces": [
                "RushMoveType",
                "InertiaType"
              ]
            }
          ]
        }
      },
      "onAbilityStart": [
        {
          "$type": "AIFPLABJNMA",
          "predicates": [
            {
              "$type": "CNGGLKHONAA",
              "key": "_ABILITY_FallingAnthem_UseCamera",
              "param3": 0.0,
              "forceByCaster": true,
              "compareType": "NoneOrEqual"
            }
          ],
          "attackEvent": {
            "attackPattern": {
              "$type": "GMDIMKKHACA",
              "triggerType": "TriggerNoRepeat",
              "born": {
                "$type": "JHEBKCMEMLN",
                "offset": {
                  "KGEPIMHBMOL": 0.0,
                  "JEBHCGDPFEJ": -0.5,
                  "LPCHALMFFOD": 1.0
                }
              },
              "height": 2.0,
              "OAHPDLJIADP": 3.0
            },
            "attackInfo": {
              "attackTag": "FallingAttack",
              "attenuationTag": "",
              "attenuationGroup": "default",
              "attackProperty": {
                "actorGrassSubHurtDelta": "FallingAnthem_Normal_Rank_1_Damage",
                "actorWindSubHurtDelta": 0.0,
                "IPFJJJGABPL": 25.0,
                "overrideByWeapon": true,
                "strikeType": "Blunt",
                "enBreak": 150.0,
                "attackType": "Melee",
                "GLKMCMDJBIK": 0.0
              },
              "hitPattern": {
                "onHitEffectName": "none",
                "hitImpulseY": "",
                "hitImpulseType": "LV4",
                "hitHaltTimeScale": 0.10000000149011612
              },
              "forceCameraShake": true,
              "cameraShake": {
                "shakeType": "CustomVector",
                "shakeRange": 0.23999999463558197,
                "shakeTime": 0.11999999731779099,
                "shakeDistance": 30.0,
                "shakeDir": {
                  "y": 1.0
                },
                "extension": {
                  "baseCycle": 0.23999999463558197,
                  "cycleDamping": 0.0,
                  "rangeAttenuation": 0.30000001192092896
                }
              }
            }
          },
          "targetType": "Enemy"
        },
        {
          "$type": "AIFPLABJNMA",
          "predicates": [
            {
              "$type": "CNGGLKHONAA",
              "key": "_ABILITY_FallingAnthem_UseCamera",
              "param3": 1.0,
              "forceByCaster": true
            }
          ],
          "attackEvent": {
            "attackPattern": {
              "$type": "GMDIMKKHACA",
              "triggerType": "TriggerNoRepeat",
              "born": {
                "$type": "JHEBKCMEMLN",
                "offset": {
                  "KGEPIMHBMOL": 0.0,
                  "JEBHCGDPFEJ": -0.5,
                  "LPCHALMFFOD": 1.0
                }
              },
              "height": 2.0,
              "OAHPDLJIADP": 5.0
            },
            "attackInfo": {
              "attackTag": "FallingAttack",
              "attenuationTag": "",
              "attenuationGroup": "default",
              "attackProperty": {
                "actorGrassSubHurtDelta": "FallingAnthem_Normal_Rank_2_Damage",
                "actorWindSubHurtDelta": 0.0,
                "IPFJJJGABPL": 25.0,
                "overrideByWeapon": true,
                "strikeType": "Blunt",
                "enBreak": 200.0,
                "attackType": "Melee",
                "GLKMCMDJBIK": 0.0
              },
              "hitPattern": {
                "onHitEffectName": "none",
                "hitImpulseY": "",
                "hitImpulseType": "LV7",
                "hitHaltTimeScale": 0.10000000149011612
              },
              "forceCameraShake": true,
              "cameraShake": {
                "shakeType": "CustomVector",
                "shakeRange": 0.5,
                "shakeTime": 0.20000000298023224,
                "shakeDistance": 30.0,
                "shakeDir": {
                  "y": 1.0,
                  "z": 1.0
                },
                "extension": {
                  "baseCycle": 0.4000000059604645,
                  "cycleDamping": 0.0,
                  "rangeAttenuation": 0.30000001192092896
                }
              }
            }
          },
          "targetType": "Enemy"
        },
        {
          "$type": "KBFEIHEAMBM",
          "predicates": [
            {
              "$type": "CNGGLKHONAA",
              "key": "_ABILITY_FallingAnthem_UseCamera",
              "param3": 0.0,
              "forceByCaster": true,
              "compareType": "NoneOrEqual"
            }
          ],
          "rotationDampTime": "Eff_Avatar_Claymore_FallAnthem_Strike_01",
          "PPPDJGDDOGD": 1.0,
          "AJDILHJFNKE": -1.0
        },
        {
          "$type": "KBFEIHEAMBM",
          "predicates": [
            {
              "$type": "CNGGLKHONAA",
              "key": "_ABILITY_FallingAnthem_UseCamera",
              "param3": 1.0,
              "forceByCaster": true
            }
          ],
          "rotationDampTime": "Eff_Avatar_Claymore_FallAnthem_Strike_02",
          "PPPDJGDDOGD": 1.0,
          "AJDILHJFNKE": -1.0
        }
      ]
    }
  }
]