[
  {
    "Default": {
      "$type": "CBPBEHLOHKI",
      "abilityName": "Avatar_Qiqi_ExtraAttack",
      "abilityMixins": [
        {
          "$type": "GODEMHMODCN",
          "skillID": 10351,
          "chargeTime": 0.11999999731779099,
          "EKKJNADOEMB": 0.20000000298023224,
          "onBeginUncharged": [
            {
              "$type": "BLCCGIPAOIP",
              "PLLJBINMGJK": "DoSkill"
            },
            {
              "$type": "AKEEDILMOJF",
              "predicates": [
                {
                  "$type": "HHHMNCNPBDK",
                  "predicates": [
                    {
                      "$type": "ALLFFNEOPGA",
                      "logic": "Equal",
                      "param3": 0,
                      "parameter": "ComboCount"
                    },
                    {
                      "$type": "ALLFFNEOPGA",
                      "logic": "Equal",
                      "param3": 5,
                      "parameter": "ComboCount"
                    }
                  ]
                }
              ],
              "intID": "SkillID",
              "param3": 99.0
            },
            {
              "$type": "KJCHPDPBJHL",
              "boolID": "IsCharging"
            }
          ],
          "onReleaseUncharged": [
            {
              "$type": "AKEEDILMOJF",
              "intID": "SkillID",
              "param3": 1.0
            }
          ],
          "onBeginCharged": [
            {
              "$type": "KJCHPDPBJHL",
              "boolID": "IsCharging",
              "param3": true
            }
          ],
          "onReleaseCharged": [
            {
              "$type": "KJCHPDPBJHL",
              "boolID": "IsCharging"
            },
            {
              "$type": "AKEEDILMOJF",
              "intID": "SkillID",
              "param3": 1.0
            }
          ],
          "onBeginSecondCharged": [
            {
              "$type": "BLCCGIPAOIP",
              "predicates": [
                {
                  "$type": "BHALEMOHOLJ",
                  "logic": "GreaterOrEqual",
                  "stamina": [
                    "ExtraAttack_Sword_Stamina_Cost",
                    "Flexible_Stamina",
                    "ADD"
                  ]
                }
              ],
              "PLLJBINMGJK": "DoSkill"
            },
            {
              "$type": "AKEEDILMOJF",
              "predicates": [
                {
                  "$type": "BHALEMOHOLJ",
                  "logic": "GreaterOrEqual",
                  "stamina": [
                    "ExtraAttack_Sword_Stamina_Cost",
                    "Flexible_Stamina",
                    "ADD"
                  ]
                }
              ],
              "intID": "SkillID",
              "param3": 6.0
            },
            {
              "$type": "KJCHPDPBJHL",
              "boolID": "IsCharging"
            }
          ],
          "chargeStateIDs": [
            "Attack01",
            "Attack02",
            "Attack03",
            "Attack04",
            "Run"
          ]
        },
        {
          "$type": "EKMHJKDLBJH",
          "stateIDs": [
            "ExtraAttack"
          ],
          "modifierName": "ExtraAttack_StaminaCost",
          "DGFCLAIDIFI": ""
        }
      ],
      "abilitySpecials": {
        "ExtraAttack_Sword_Stamina_Cost": 0.0,
        "Flexible_Stamina": -2.0
      },
      "modifiers": {
        "ExtraAttack_StaminaCost": {
          "modifierName": "",
          "IPFJJJGABPL": 100.0,
          "onAdded": [
            {
              "$type": "OCLNBBMMIOK",
              "skillID": 10001,
              "amountByTargetCurrentHPRatio": 1.0,
              "costStaminaRatio": "ExtraAttack_Sword_Stamina_Cost"
            }
          ]
        }
      }
    }
  },
  {
    "Default": {
      "$type": "CBPBEHLOHKI",
      "abilityName": "Avatar_Qiqi_ElementalArt_Clear",
      "onAbilityStart": [
        {
          "$type": "JKFLDIKGJEF",
          "gadgetInfo": {
            "configID": 41035001
          }
        }
      ]
    }
  },
  {
    "Default": {
      "$type": "CBPBEHLOHKI",
      "abilityName": "Avatar_Qiqi_ElementalArt",
      "abilityMixins": [
        {
          "$type": "EKMHJKDLBJH",
          "stateIDs": [
            "Qiqi_ElementalArt"
          ],
          "modifierName": "Frostbite_Born",
          "DGFCLAIDIFI": ""
        }
      ],
      "modifiers": {
        "Frostbite_Born": {
          "modifierName": "",
          "IPFJJJGABPL": 100.0,
          "onAdded": [
            {
              "$type": "KBFEIHEAMBM",
              "rotationDampTime": "Eff_Qiqi_ElementalArt",
              "PPPDJGDDOGD": 1.0,
              "AJDILHJFNKE": -1.0
            }
          ]
        }
      },
      "onAbilityStart": [
        {
          "$type": "CAKDDHLKOAB",
          "bulletID": 41035001,
          "born": {
            "$type": "KLPANPDGHHA",
            "offset": {
              "KGEPIMHBMOL": 0.0,
              "JEBHCGDPFEJ": 0.0,
              "LPCHALMFFOD": 0.0
            },
            "attachPointName": "RootNode"
          }
        },
        {
          "$type": "OCLNBBMMIOK",
          "skillID": 10352,
          "amountByTargetCurrentHPRatio": 1.0,
          "costStaminaRatio": 1.0
        }
      ]
    }
  },
  {
    "Default": {
      "$type": "CBPBEHLOHKI",
      "abilityName": "Avatar_Qiqi_ElementalArt_CD",
      "onAbilityStart": [
        {
          "$type": "OCLNBBMMIOK",
          "skillID": 10352,
          "amountByTargetCurrentHPRatio": 1.0,
          "costStaminaRatio": 1.0
        }
      ]
    }
  },
  {
    "Default": {
      "$type": "CBPBEHLOHKI",
      "abilityName": "Avatar_Qiqi_ElementalArt_Bullet",
      "abilitySpecials": {
        "ElementalArt_HealHp_Ratio": 0.0,
        "ElementalArt_HealHp_Const": 0.0,
        "HealHP_OnHittingOthers": 0.0,
        "HealHP_Const_OnHittingOthers": 0.0,
        "Qiqi_PermanentSkill_HealedUp": 0.20000000298023224,
        "ReviveElemEnergy": 2.0,
        "Elemental_Art_Damage": 0.0
      },
      "modifiers": {
        "TriggerAttackEvent_onAdded": {
          "modifierName": "",
          "elementDurability": 0.4099999964237213,
          "IPFJJJGABPL": 100.0,
          "onRemoved": [
            {
              "$type": "AIFPLABJNMA",
              "target": "Owner",
              "shieldHP": true,
              "attackEvent": {
                "attackPattern": {
                  "$type": "GMDIMKKHACA",
                  "triggerType": "TriggerNoRepeat",
                  "height": 1.5,
                  "OAHPDLJIADP": 2.5
                },
                "attackInfo": {
                  "attackTag": "Elemental_Art",
                  "attenuationTag": "Elemental_Art",
                  "attenuationGroup": "default",
                  "attackProperty": {
                    "actorGrassSubHurtDelta": "Elemental_Art_Damage",
                    "actorWindSubHurtDelta": 0.0,
                    "elementType": "Ice",
                    "IPFJJJGABPL": 25.0,
                    "strikeType": "Default",
                    "enBreak": 40.0,
                    "GLKMCMDJBIK": 0.0
                  },
                  "hitPattern": {
                    "onHitEffectName": "Eff_Qiqi_ElementalArt_Bullet_Hit",
                    "hitImpulseY": "",
                    "hitImpulseType": "LV3",
                    "retreatType": "ByHitDirection",
                    "hitHaltTime": 0.05000000074505806,
                    "hitHaltTimeScale": 0.05000000074505806,
                    "canBeDefenceHalt": true
                  }
                }
              },
              "targetType": "Enemy"
            }
          ]
        },
        "Spawn_Fx": {
          "modifierName": "",
          "IPFJJJGABPL": 100.0,
          "onAdded": [
            {
              "$type": "ANLOBBMKNIJ",
              "rotationDampTime": "Eff_Qiqi_ElementalArt_Bullet_Born",
              "PPPDJGDDOGD": 1.0,
              "AJDILHJFNKE": -1.0
            }
          ]
        },
        "SpawnTimer": {
          "modifierName": "",
          "elementDurability": 1.0299999713897705,
          "IPFJJJGABPL": 100.0,
          "onRemoved": [
            {
              "$type": "BLCCGIPAOIP",
              "PLLJBINMGJK": "Idle"
            },
            {
              "$type": "PELJALPANCA",
              "modifierName": "Bullet_Fx"
            },
            {
              "$type": "PFKNEFGOHIH",
              "modifierName": "Spawn_Fx"
            },
            {
              "$type": "PELJALPANCA",
              "modifierName": "Life_Time"
            }
          ]
        },
        "Bullet_Fx": {
          "modifierName": "",
          "IPFJJJGABPL": 100.0,
          "onAdded": [
            {
              "$type": "ANLOBBMKNIJ",
              "rotationDampTime": "Eff_Qiqi_ElementalArt_Bullet",
              "PPPDJGDDOGD": 1.0,
              "AJDILHJFNKE": -1.0
            }
          ]
        },
        "Life_Time": {
          "modifierName": "",
          "elementDurability": 15.0,
          "IPFJJJGABPL": 100.0,
          "onRemoved": [
            {
              "$type": "NCFFNDHGCMH",
              "duration": 0.5
            },
            {
              "$type": "PFKNEFGOHIH",
              "modifierName": "Bullet_Fx"
            },
            {
              "$type": "KBFEIHEAMBM",
              "rotationDampTime": "Eff_Qiqi_ElementalArt_Disappear",
              "born": {
                "$type": "KLPANPDGHHA",
                "offset": {
                  "KGEPIMHBMOL": 0.0,
                  "JEBHCGDPFEJ": 1.0,
                  "LPCHALMFFOD": 0.0
                },
                "attachPointName": "FX001",
                "attachPointTargetType": "Self"
              },
              "PPPDJGDDOGD": 1.0,
              "AJDILHJFNKE": -1.0
            },
            {
              "$type": "NCFFNDHGCMH",
              "duration": 0.20000000298023224
            }
          ]
        },
        "Qiqi_ElementalArt_HealHp_Handler": {
          "modifierName": "",
          "elementDurability": 15.300000190734863,
          "IPFJJJGABPL": 100.0,
          "thinkInterval": 5.0,
          "onAdded": [
            {
              "$type": "FHGPOFDJDCO",
              "target": "CurLocalAvatar",
              "GHINLKIEMFA": "ElementalArt_HealHp_Const",
              "GPBBHGPCHJH": "ElementalArt_HealHp_Ratio",
              "cdRatio": ""
            }
          ],
          "onThinkInterval": [
            {
              "$type": "FHGPOFDJDCO",
              "target": "CurLocalAvatar",
              "GHINLKIEMFA": "ElementalArt_HealHp_Const",
              "GPBBHGPCHJH": "ElementalArt_HealHp_Ratio",
              "cdRatio": ""
            }
          ]
        },
        "HealHp_Teammate_OnHittingOthers": {
          "modifierName": "",
          "elementDurability": 26.0,
          "IPFJJJGABPL": 100.0,
          "onAttackLanded": [
            {
              "$type": "INBCDALOHMP",
              "target": "Other",
              "targetPredicates": [
                {
                  "$type": "NNEHDJHMING",
                  "attackTags": [
                    "NormalAttack_01",
                    "NormalAttack_02",
                    "NormalAttack_03",
                    "NormalAttack_04",
                    "NormalAttack_05",
                    "ExtraAttack"
                  ]
                },
                {
                  "$type": "NIMAPECDNKD",
                  "entityTypes": [
                    "Monster"
                  ]
                },
                {
                  "$type": "CNGGLKHONAA",
                  "key": "_ANIMAL_ENTITY_TYPE",
                  "param3": 0.0,
                  "compareType": "NoneOrEqual"
                }
              ],
              "successActions": [
                {
                  "$type": "PELJALPANCA",
                  "modifierName": "HealHp_Teammate_Modifier"
                }
              ]
            }
          ]
        },
        "Qiqi_PermanentSkill_1_Modifier": {
          "modifierName": "",
          "IPFJJJGABPL": 100.0,
          "modifierMixins": [
            {
              "$type": "IJKJKFHPENC",
              "modifierName": "HealedUp_OnElementReaction_Handler"
            }
          ]
        },
        "HealedUp_OnElementReaction_Handler": {
          "modifierName": "",
          "IPFJJJGABPL": 100.0,
          "modifierMixins": [
            {
              "$type": "GEICHMDHPHI",
              "entityTypes": [
                "Monster"
              ],
              "reactionTypes": [
                "Explode",
                "Stream",
                "Burning",
                "Melt",
                "Freeze",
                "Shock",
                "Superconductor",
                "SwirlFire",
                "SwirlWater",
                "SwirlElectric",
                "SwirlIce",
                "CrystallizeWater",
                "CrystallizeElectric",
                "CrystallizeIce",
                "CrystallizeFire",
                "Overdose",
                "OverdoseElectric",
                "OverdoseGrass",
                "Overgrow",
                "OvergrowMushroomFire",
                "OvergrowMushroomElectric"
              ],
              "actions": [
                {
                  "$type": "PELJALPANCA",
                  "modifierName": "Qiqi_PermanentSkill_HealedUp"
                }
              ]
            }
          ]
        },
        "Qiqi_PermanentSkill_HealedUp": {
          "modifierName": "",
          "elementDurability": 8.0,
          "IPFJJJGABPL": 100.0,
          "properties": {
            "Actor_HealedAddDelta": "Qiqi_PermanentSkill_HealedUp"
          },
          "isLimitedProperties": true
        },
        "Qiqi_ElementalArt_ReviveElemEnergy_Handler": {
          "modifierName": "",
          "IPFJJJGABPL": 100.0,
          "onAttackLanded": [
            {
              "$type": "INBCDALOHMP",
              "target": "Target",
              "targetPredicates": [
                {
                  "$type": "CNGGLKHONAA",
                  "key": "_ABILITY_QIQI_ELEMENTALBURST_MARK",
                  "param3": 1.0
                }
              ],
              "successActions": [
                {
                  "$type": "PELJALPANCA",
                  "target": "Owner",
                  "modifierName": "Qiqi_ElementalArt_ReviveElemEnergy"
                }
              ]
            }
          ]
        },
        "Qiqi_ElementalArt_ReviveElemEnergy": {
          "modifierName": "",
          "elementDurability": 0.5,
          "IPFJJJGABPL": 100.0,
          "onAdded": [
            {
              "$type": "AHCALEMEJPJ",
              "shieldHP": true,
              "param3": "ReviveElemEnergy"
            }
          ]
        },
        "HealHp_Teammate_Modifier": {
          "modifierName": "",
          "elementDurability": 0.10000000149011612,
          "IPFJJJGABPL": 100.0,
          "onAdded": [
            {
              "$type": "FHGPOFDJDCO",
              "target": "AllPlayerAvatars",
              "shieldHP": true,
              "predicates": [
                {
                  "$type": "FMBJAJFLDIP",
                  "logic": "LesserOrEqual",
                  "param3": 40.0,
                  "DDALGNLEHOD": ""
                }
              ],
              "GHINLKIEMFA": "HealHP_Const_OnHittingOthers",
              "GPBBHGPCHJH": "HealHP_OnHittingOthers",
              "cdRatio": ""
            }
          ]
        }
      },
      "onAdded": [
        {
          "$type": "PELJALPANCA",
          "modifierName": "TriggerAttackEvent_onAdded"
        },
        {
          "$type": "JLDEMMJAMLC",
          "modifierName": "Spawn_Fx"
        },
        {
          "$type": "PELJALPANCA",
          "modifierName": "SpawnTimer"
        },
        {
          "$type": "JLDEMMJAMLC",
          "modifierName": "Qiqi_ElementalArt_HealHp_Handler"
        },
        {
          "$type": "JLDEMMJAMLC",
          "target": "Owner",
          "modifierName": "HealHp_Teammate_OnHittingOthers"
        },
        {
          "$type": "JLDEMMJAMLC",
          "predicates": [
            {
              "$type": "GKDKGMAMGGN",
              "talentParam": "Qiqi_Constellation_1"
            }
          ],
          "modifierName": "Qiqi_ElementalArt_ReviveElemEnergy_Handler"
        },
        {
          "$type": "JLDEMMJAMLC",
          "predicates": [
            {
              "$type": "GKDKGMAMGGN",
              "talentParam": "Qiqi_PermanentSkill_1"
            }
          ],
          "modifierName": "Qiqi_PermanentSkill_1_Modifier"
        }
      ],
      "onKill": [
        {
          "$type": "PFKNEFGOHIH",
          "modifierName": "Bullet_Fx"
        },
        {
          "$type": "PFKNEFGOHIH",
          "predicates": [
            {
              "$type": "GKDKGMAMGGN",
              "talentParam": "Qiqi_PermanentSkill_1"
            }
          ],
          "modifierName": "Qiqi_PermanentSkill_1_Modifier"
        }
      ]
    }
  },
  {
    "Default": {
      "$type": "CBPBEHLOHKI",
      "abilityName": "Avatar_Qiqi_ElementalBurst",
      "abilityMixins": [
        {
          "$type": "EKMHJKDLBJH",
          "stateIDs": [
            "Qiqi_ElementalBurst",
            "Qiqi_ElementalBurst_AS"
          ],
          "modifierName": "WeatherChange",
          "DGFCLAIDIFI": ""
        },
        {
          "$type": "EKMHJKDLBJH",
          "stateIDs": [
            "Qiqi_ElementalBurst",
            "Qiqi_ElementalBurst_AS"
          ],
          "modifierName": "camera",
          "DGFCLAIDIFI": ""
        },
        {
          "$type": "EKMHJKDLBJH",
          "stateIDs": [
            "Qiqi_ElementalBurst"
          ],
          "modifierName": "Elemental_Burst_Invincible",
          "DGFCLAIDIFI": ""
        },
        {
          "$type": "EKMHJKDLBJH",
          "stateIDs": [
            "Qiqi_ElementalBurst",
            "Qiqi_ElementalBurst_AS"
          ],
          "modifierName": "ElementalBurst_Fx",
          "DGFCLAIDIFI": ""
        },
        {
          "$type": "EKMHJKDLBJH",
          "stateIDs": [
            "Qiqi_ElementalBurst",
            "Qiqi_ElementalBurst_AS"
          ],
          "modifierName": "ElementalBurst_HideWeapon",
          "DGFCLAIDIFI": ""
        }
      ],
      "modifiers": {
        "Elemental_Burst_Invincible": {
          "modifierName": "",
          "IPFJJJGABPL": 100.0,
          "state": "Invincible",
          "onAdded": [
            {
              "$type": "OPAOGKPJLIG",
              "resistanceListID": 11002
            }
          ]
        },
        "WeatherChange": {
          "modifierName": "",
          "IPFJJJGABPL": 100.0,
          "modifierMixins": [
            {
              "$type": "JFFOPFFEBPN",
              "damageRatio": "Skill",
              "weatherPattern": "Weather_Qiqi_ElementalBurst",
              "transDuration": 1.0,
              "duration": 4.0
            }
          ]
        },
        "camera": {
          "modifierName": "",
          "IPFJJJGABPL": 100.0,
          "onAdded": [
            {
              "$type": "KGGAJAOJIDL",
              "toggleEmoSync": false,
              "toggleBlink": false,
              "toggleEyeKey": false
            },
            {
              "$type": "GPGGCODEFIF",
              "blend": false
            }
          ],
          "onRemoved": [
            {
              "$type": "PEIPIGEMHEK",
              "shieldHP": true
            },
            {
              "$type": "KGGAJAOJIDL",
              "shieldHP": true
            },
            {
              "$type": "LJBFFDLKIKL",
              "cameraParam": {
                "forceRadius": 6.0,
                "forceRadiusDuration": 0.0,
                "shouldKeepForceRadius": true
              }
            },
            {
              "$type": "GPGGCODEFIF",
              "shieldHP": true,
              "enable": true
            }
          ]
        },
        "ElementalBurst_Fx": {
          "modifierName": "",
          "IPFJJJGABPL": 100.0
        },
        "ElementalBurst_HideWeapon": {
          "modifierName": "",
          "IPFJJJGABPL": 100.0,
          "onAdded": [
            {
              "$type": "NAAJIHIKECC",
              "partNames": [
                "sheathPoint",
                "equip01",
                "equip02",
                "equip03"
              ]
            }
          ],
          "onRemoved": [
            {
              "$type": "NAAJIHIKECC",
              "shieldHP": true,
              "KGGEDGKGLDD": true,
              "partNames": [
                "sheathPoint",
                "equip01",
                "equip02",
                "equip03"
              ]
            }
          ]
        }
      },
      "onAdded": [
        {
          "$type": "LCOEFEMOHLP",
          "param3": 1.0,
          "key": "_Is_Qiqi",
          "useLimitRange": true,
          "param2": 1.0,
          "repeatTimes": 0.0
        },
        {
          "$type": "BKKEFFNLPEK",
          "skillID": 10355
        }
      ],
      "onAbilityStart": [
        {
          "$type": "BLCCGIPAOIP",
          "PLLJBINMGJK": "Skin_Strong"
        },
        {
          "$type": "OIDCJAEPFPF",
          "predicates": [
            {
              "$type": "CEKDKMLPJDC",
              "attackPattern": {
                "$type": "GMDIMKKHACA",
                "triggerType": "TriggerNoRepeat",
                "born": {
                  "$type": "IAENDIPDFKD",
                  "offset": {
                    "KGEPIMHBMOL": 0.0,
                    "JEBHCGDPFEJ": 1.0,
                    "LPCHALMFFOD": 0.0
                  }
                },
                "height": 0.20000000298023224,
                "OAHPDLJIADP": 1.399999976158142
              }
            },
            {
              "$type": "CEKDKMLPJDC",
              "attackPattern": {
                "$type": "JHKEHNJBMOF",
                "triggerType": "TriggerNoRepeat",
                "born": {
                  "$type": "IAENDIPDFKD",
                  "offset": {
                    "KGEPIMHBMOL": 0.0,
                    "JEBHCGDPFEJ": 1.0,
                    "LPCHALMFFOD": -4.0
                  }
                },
                "size": {
                  "KGEPIMHBMOL": 2.0,
                  "JEBHCGDPFEJ": 2.0,
                  "LPCHALMFFOD": 8.0
                }
              }
            },
            {
              "$type": "KINBGHMJBBD",
              "compareType": "LessAndEqual",
              "depth": 0.5
            }
          ],
          "cameraMoveCfgPath": "Camera_Qiqi_ElementalBurst"
        },
        {
          "$type": "OCLNBBMMIOK",
          "skillID": 10353,
          "amountByTargetCurrentHPRatio": 1.0,
          "costStaminaRatio": 1.0
        },
        {
          "$type": "KLNACMAKOOI",
          "predicates": [
            {
              "$type": "GKDKGMAMGGN",
              "talentParam": "Qiqi_Constellation_6"
            },
            {
              "$type": "IHLMAOEHHOB",
              "skillID": 10355
            }
          ],
          "CKDBFHCIJEK": 0.5,
          "cdRatio": "",
          "isReviveOtherPlayerAvatar": true,
          "skillID": 10355,
          "amountByTargetCurrentHPRatio": 1.0,
          "range": 40.0
        }
      ]
    }
  },
  {
    "Default": {
      "$type": "CBPBEHLOHKI",
      "abilityName": "Avatar_Qiqi_ElementalBurst_PostEffect",
      "modifiers": {
        "CameraEffect": {
          "modifierName": "",
          "elementDurability": 3.5,
          "IPFJJJGABPL": 100.0,
          "modifierMixins": [
            {
              "$type": "COEDOLJOHAK",
              "postEffectAssetName": "PostEffect_Avatar_Qiqi_ElementalBurst_ScreenEffect",
              "duration": 3.0
            }
          ]
        }
      },
      "onAbilityStart": [
        {
          "$type": "PELJALPANCA",
          "modifierName": "CameraEffect"
        }
      ]
    }
  },
  {
    "Default": {
      "$type": "CBPBEHLOHKI",
      "abilityName": "Avatar_Qiqi_Revive",
      "abilitySpecials": {
        "HealHP": 0.5
      },
      "onAbilityStart": [
        {
          "$type": "OCLNBBMMIOK",
          "shieldHP": true,
          "skillID": 10355,
          "amountByTargetCurrentHPRatio": 1.0,
          "costStaminaRatio": 1.0
        },
        {
          "$type": "ELNHKGAPIBJ",
          "shieldHP": true,
          "content": "10355 Start!!!!!!"
        },
        {
          "$type": "GODNEFOOJKH",
          "target": "CurTeamAvatars",
          "shieldHP": true,
          "CKDBFHCIJEK": "HealHP",
          "cdRatio": ""
        }
      ]
    }
  },
  {
    "Default": {
      "$type": "CBPBEHLOHKI",
      "abilityName": "Avatar_Qiqi_ElementalBurst_ApplyModifier",
      "abilitySpecials": {
        "ElementalBurst_HealHp_Ratio": 0.0,
        "ElementalBurst_HealHp_Const": 0.0,
        "Qiqi_Constellation_AttackRatio": -0.20000000298023224,
        "PermanentSkill_2_Chance": 0.5
      },
      "modifiers": {
        "Qiqi_HealHP_Handler_Detector": {
          "modifierName": "",
          "elementDurability": 15.0,
          "IPFJJJGABPL": 100.0,
          "thinkInterval": 1.0,
          "onThinkInterval": [
            {
              "$type": "JLDEMMJAMLC",
              "target": "AllPlayerAvatars",
              "shieldHP": true,
              "modifierName": "UNIQUE_Qiqi_HealHP_Handler"
            }
          ]
        },
        "Qiqi_PermanentSkill_RuneModifier_Handler": {
          "modifierName": "",
          "IPFJJJGABPL": 100.0,
          "onAttackLanded": [
            {
              "$type": "INBCDALOHMP",
              "target": "Target",
              "targetPredicates": [
                {
                  "$type": "CNGGLKHONAA",
                  "key": "_PermanentSkill_2_Chance_CD",
                  "param3": 0.0,
                  "forceByCaster": true,
                  "compareType": "NoneOrEqual"
                },
                {
                  "$type": "CNGGLKHONAA",
                  "key": "_ABILITY_QIQI_ELEMENTALBURST_MARK",
                  "param3": 0.0,
                  "compareType": "NoneOrEqual"
                },
                {
                  "$type": "CNGGLKHONAA",
                  "key": "_ANIMAL_ENTITY_TYPE",
                  "param3": 0.0,
                  "compareType": "NoneOrEqual"
                },
                {
                  "$type": "NIMAPECDNKD",
                  "entityTypes": [
                    "Monster"
                  ]
                },
                {
                  "$type": "NNEHDJHMING",
                  "attackTags": [
                    "NormalAttack_01",
                    "NormalAttack_02",
                    "NormalAttack_03",
                    "NormalAttack04",
                    "ExtraAttack"
                  ]
                }
              ],
              "successActions": [
                {
                  "$type": "JLDEMMJAMLC",
                  "target": "Target",
                  "modifierName": "Qiqi_Random_RuneModifier_Handler"
                },
                {
                  "$type": "KBODPNEEFGD",
                  "target": "AllPlayerAvatars",
                  "shieldHP": true,
                  "modifierName": "UNIQUE_Qiqi_HealHP_Handler"
                },
                {
                  "$type": "JLDEMMJAMLC",
                  "target": "AllPlayerAvatars",
                  "shieldHP": true,
                  "modifierName": "UNIQUE_Qiqi_HealHP_Handler"
                },
                {
                  "$type": "PELJALPANCA",
                  "predicates": [
                    {
                      "$type": "BCFNGJHILAG",
                      "predicates": [
                        {
                          "$type": "BHFFBBOLCCP",
                          "modifierName": "Qiqi_HealHP_Handler_Detector"
                        }
                      ]
                    }
                  ],
                  "modifierName": "Qiqi_PermanentSkill_2_Detector"
                }
              ]
            }
          ]
        },
        "Qiqi_PermanentSkill_2_Detector": {
          "modifierName": "",
          "elementDurability": 6.0,
          "IPFJJJGABPL": 100.0,
          "thinkInterval": 1.0,
          "onThinkInterval": [
            {
              "$type": "JLDEMMJAMLC",
              "target": "AllPlayerAvatars",
              "shieldHP": true,
              "modifierName": "UNIQUE_Qiqi_HealHP_Handler"
            }
          ]
        },
        "PermanentSkill_2_Chance_CD": {
          "modifierName": "",
          "elementDurability": 30.0,
          "IPFJJJGABPL": 100.0,
          "onAdded": [
            {
              "$type": "LCOEFEMOHLP",
              "shieldHP": true,
              "param3": 1.0,
              "key": "_PermanentSkill_2_Chance_CD",
              "useLimitRange": true,
              "param2": 1.0,
              "repeatTimes": 0.0
            }
          ],
          "onRemoved": [
            {
              "$type": "LCOEFEMOHLP",
              "shieldHP": true,
              "param3": -1.0,
              "key": "_PermanentSkill_2_Chance_CD",
              "useLimitRange": true,
              "param2": 1.0,
              "repeatTimes": 0.0
            }
          ]
        },
        "UNIQUE_Qiqi_RuneModifier": {
          "stacking": "Overlap",
          "modifierName": "",
          "forceTriggerWhenChangeAuthority": true,
          "elementDurability": 15.0,
          "IPFJJJGABPL": 100.0,
          "onAdded": [
            {
              "$type": "ANLOBBMKNIJ",
              "rotationDampTime": "Eff_Qiqi_ElementalBurst_Rune",
              "PPPDJGDDOGD": 1.0,
              "AJDILHJFNKE": -1.0
            },
            {
              "$type": "LCOEFEMOHLP",
              "param3": 1.0,
              "key": "_ABILITY_QIQI_ELEMENTALBURST_MARK",
              "useLimitRange": true,
              "param2": 1.0,
              "repeatTimes": 0.0
            },
            {
              "$type": "JLDEMMJAMLC",
              "predicates": [
                {
                  "$type": "GKDKGMAMGGN",
                  "talentParam": "Qiqi_Constellation_4"
                }
              ],
              "modifierName": "UNIQUE_Qiqi_RuneModifier_AttackDown"
            }
          ],
          "onRemoved": [
            {
              "$type": "LCOEFEMOHLP",
              "param3": -1.0,
              "key": "_ABILITY_QIQI_ELEMENTALBURST_MARK",
              "useLimitRange": true,
              "param2": 1.0,
              "repeatTimes": 0.0
            }
          ]
        },
        "Qiqi_Random_RuneModifier_Handler": {
          "modifierName": "",
          "elementDurability": 6.0,
          "IPFJJJGABPL": 100.0,
          "onAdded": [
            {
              "$type": "BEIEKAHLNED",
              "chance": 0.5,
              "successActions": [
                {
                  "$type": "JLDEMMJAMLC",
                  "modifierName": "UNIQUE_Qiqi_RuneModifier_Short"
                }
              ],
              "failActions": [
                {
                  "$type": "PFKNEFGOHIH",
                  "modifierName": "Qiqi_Random_RuneModifier_Handler"
                }
              ]
            }
          ]
        },
        "UNIQUE_Qiqi_RuneModifier_Short": {
          "stacking": "Overlap",
          "modifierName": "",
          "forceTriggerWhenChangeAuthority": true,
          "elementDurability": 6.0,
          "IPFJJJGABPL": 100.0,
          "onAdded": [
            {
              "$type": "ANLOBBMKNIJ",
              "rotationDampTime": "Eff_Qiqi_ElementalBurst_Rune",
              "PPPDJGDDOGD": 1.0,
              "AJDILHJFNKE": -1.0
            },
            {
              "$type": "LCOEFEMOHLP",
              "param3": 1.0,
              "key": "_ABILITY_QIQI_ELEMENTALBURST_MARK",
              "useLimitRange": true,
              "param2": 1.0,
              "repeatTimes": 0.0
            },
            {
              "$type": "JLDEMMJAMLC",
              "predicates": [
                {
                  "$type": "GKDKGMAMGGN",
                  "talentParam": "Qiqi_Constellation_4"
                }
              ],
              "modifierName": "UNIQUE_Qiqi_RuneModifier_AttackDown"
            },
            {
              "$type": "PELJALPANCA",
              "target": "Caster",
              "modifierName": "PermanentSkill_2_Chance_CD"
            }
          ],
          "onRemoved": [
            {
              "$type": "LCOEFEMOHLP",
              "param3": -1.0,
              "key": "_ABILITY_QIQI_ELEMENTALBURST_MARK",
              "useLimitRange": true,
              "param2": 1.0,
              "repeatTimes": 0.0
            }
          ]
        },
        "UNIQUE_Qiqi_HealHP_Handler": {
          "modifierName": "",
          "forceTriggerWhenChangeAuthority": true,
          "elementDurability": 15.5,
          "IPFJJJGABPL": 100.0,
          "onAttackLanded": [
            {
              "$type": "INBCDALOHMP",
              "target": "Other",
              "shieldHP": true,
              "targetPredicates": [
                {
                  "$type": "CNGGLKHONAA",
                  "key": "_ABILITY_QIQI_ELEMENTALBURST_MARK",
                  "param3": 1.0
                }
              ],
              "successActions": [
                {
                  "$type": "PELJALPANCA",
                  "shieldHP": true,
                  "modifierName": "UNIQUE_Qiqi_HealHP"
                }
              ]
            }
          ]
        },
        "UNIQUE_Qiqi_HealHP": {
          "stacking": "Unique",
          "modifierName": "",
          "forceTriggerWhenChangeAuthority": true,
          "elementDurability": 1.0,
          "IPFJJJGABPL": 100.0,
          "onAdded": [
            {
              "$type": "FHGPOFDJDCO",
              "GHINLKIEMFA": "ElementalBurst_HealHp_Const",
              "GPBBHGPCHJH": "ElementalBurst_HealHp_Ratio",
              "cdRatio": ""
            }
          ]
        },
        "UNIQUE_Qiqi_RuneModifier_AttackDown": {
          "modifierName": "",
          "forceTriggerWhenChangeAuthority": true,
          "elementDurability": 15.0,
          "IPFJJJGABPL": 100.0,
          "properties": {
            "Actor_AttackRatio": "Qiqi_Constellation_AttackRatio"
          },
          "state": "DefenseDown"
        }
      },
      "onAdded": [
        {
          "$type": "PELJALPANCA",
          "predicates": [
            {
              "$type": "GKDKGMAMGGN",
              "talentParam": "Qiqi_PermanentSkill_2"
            }
          ],
          "modifierName": "Qiqi_PermanentSkill_RuneModifier_Handler"
        }
      ],
      "onAbilityStart": [
        {
          "$type": "AIFPLABJNMA",
          "attackEvent": {
            "attackPattern": {
              "$type": "GMDIMKKHACA",
              "triggerType": "TriggerNoRepeat",
              "massiveAttackRatio": 0.6000000238418579,
              "born": {
                "$type": "IAENDIPDFKD",
                "offset": {
                  "KGEPIMHBMOL": 0.0,
                  "JEBHCGDPFEJ": 0.0,
                  "LPCHALMFFOD": 0.0
                }
              },
              "OAHPDLJIADP": 7.0
            },
            "attackInfo": {
              "attackTag": "",
              "attenuationTag": "",
              "attenuationGroup": "default",
              "attackProperty": {
                "actorGrassSubHurtDelta": 0.0,
                "actorWindSubHurtDelta": 0.0,
                "elementType": "Ice",
                "IPFJJJGABPL": 0.0,
                "strikeType": "Slash",
                "enBreak": 0.0,
                "attackType": "Melee",
                "GLKMCMDJBIK": 0.0
              },
              "hitPattern": {
                "onHitEffectName": "none",
                "hitImpulseY": "",
                "hitImpulseType": "LV3",
                "hitHaltTimeScale": 0.019999999552965164
              }
            }
          },
          "targetType": "Enemy"
        },
        {
          "$type": "KBODPNEEFGD",
          "otherTargets": {
            "$type": "IJOFJOGLDHE",
            "shapeName": "CircleR7",
            "campTargetType": "Enemy",
            "doOffStage": 1.0
          },
          "predicates": [
            {
              "$type": "NIMAPECDNKD",
              "entityTypes": [
                "Monster"
              ]
            }
          ],
          "modifierName": "UNIQUE_Qiqi_RuneModifier_Short"
        },
        {
          "$type": "JLDEMMJAMLC",
          "otherTargets": {
            "$type": "IJOFJOGLDHE",
            "shapeName": "CircleR7",
            "campTargetType": "Enemy",
            "doOffStage": 1.0
          },
          "predicates": [
            {
              "$type": "NIMAPECDNKD",
              "entityTypes": [
                "Monster"
              ]
            },
            {
              "$type": "CNGGLKHONAA",
              "key": "_ANIMAL_ENTITY_TYPE",
              "param3": 0.0,
              "compareType": "NoneOrEqual"
            }
          ],
          "modifierName": "UNIQUE_Qiqi_RuneModifier"
        },
        {
          "$type": "KBODPNEEFGD",
          "target": "AllPlayerAvatars",
          "shieldHP": true,
          "modifierName": "UNIQUE_Qiqi_HealHP_Handler"
        },
        {
          "$type": "JLDEMMJAMLC",
          "target": "AllPlayerAvatars",
          "shieldHP": true,
          "modifierName": "UNIQUE_Qiqi_HealHP_Handler"
        },
        {
          "$type": "PELJALPANCA",
          "modifierName": "Qiqi_HealHP_Handler_Detector"
        }
      ]
    }
  },
  {
    "Default": {
      "$type": "CBPBEHLOHKI",
      "abilityName": "Avatar_Qiqi_ElementalBurst_TriggerAttack",
      "abilitySpecials": {
        "ElementalBurst_Damage": 0.0
      },
      "onAbilityStart": [
        {
          "$type": "AIFPLABJNMA",
          "attackEvent": {
            "attackPattern": {
              "$type": "GMDIMKKHACA",
              "triggerType": "TriggerNoRepeat",
              "massiveAttackRatio": 0.6000000238418579,
              "born": {
                "$type": "IAENDIPDFKD",
                "offset": {
                  "KGEPIMHBMOL": 0.0,
                  "JEBHCGDPFEJ": 0.0,
                  "LPCHALMFFOD": 0.0
                }
              },
              "OAHPDLJIADP": 7.0
            },
            "attackInfo": {
              "attackTag": "Elemental_Burst",
              "attenuationTag": "",
              "attenuationGroup": "default",
              "attackProperty": {
                "actorGrassSubHurtDelta": "ElementalBurst_Damage",
                "actorWindSubHurtDelta": 0.0,
                "elementType": "Ice",
                "IPFJJJGABPL": 50.0,
                "strikeType": "Default",
                "enBreak": 200.0,
                "GLKMCMDJBIK": 0.0
              },
              "hitPattern": {
                "onHitEffectName": "Eff_Qiqi_ElementalBurst_Hit",
                "hitImpulseY": "",
                "hitImpulseType": "LV4",
                "hitHaltTimeScale": 0.019999999552965164
              }
            }
          },
          "targetType": "Enemy"
        }
      ]
    }
  },
  {
    "Default": {
      "$type": "CBPBEHLOHKI",
      "abilityName": "Avatar_Qiqi_ElementalBurst_CameraRadialBlur",
      "onAbilityStart": [
        {
          "$type": "JPHLIDGMGBG",
          "cameraRadialBlur": {
            "power": 1.0,
            "blurTime": 0.6000000238418579,
            "fadeTime": 0.20000000298023224
          }
        }
      ]
    }
  },
  {
    "Default": {
      "$type": "CBPBEHLOHKI",
      "abilityName": "Avatar_Qiqi_NormalAttackDamage",
      "abilityMixins": [
        {
          "$type": "LDBCDLJECKF",
          "animEventNames": [
            "ATK01"
          ],
          "actorGrassSubHurtDelta": "Attack01",
          "actorWindSubHurtDelta": 0.0
        },
        {
          "$type": "LDBCDLJECKF",
          "animEventNames": [
            "ATK02"
          ],
          "actorGrassSubHurtDelta": "Attack02",
          "actorWindSubHurtDelta": 0.0
        },
        {
          "$type": "LDBCDLJECKF",
          "animEventNames": [
            "ATK03_1"
          ],
          "actorGrassSubHurtDelta": "Attack03_1",
          "actorWindSubHurtDelta": 0.0
        },
        {
          "$type": "LDBCDLJECKF",
          "animEventNames": [
            "ATK03_2"
          ],
          "actorGrassSubHurtDelta": "Attack03_2",
          "actorWindSubHurtDelta": 0.0
        },
        {
          "$type": "LDBCDLJECKF",
          "animEventNames": [
            "ATK04_1"
          ],
          "actorGrassSubHurtDelta": "Attack04_1",
          "actorWindSubHurtDelta": 0.0
        },
        {
          "$type": "LDBCDLJECKF",
          "animEventNames": [
            "ATK04_2"
          ],
          "actorGrassSubHurtDelta": "Attack04_2",
          "actorWindSubHurtDelta": 0.0
        },
        {
          "$type": "LDBCDLJECKF",
          "animEventNames": [
            "ATK05"
          ],
          "actorGrassSubHurtDelta": "Attack05",
          "actorWindSubHurtDelta": 0.0
        },
        {
          "$type": "LDBCDLJECKF",
          "animEventNames": [
            "ExtraAttack_1"
          ],
          "actorGrassSubHurtDelta": "ExtraAttack_1",
          "actorWindSubHurtDelta": 0.0
        },
        {
          "$type": "LDBCDLJECKF",
          "animEventNames": [
            "ExtraAttack_2"
          ],
          "actorGrassSubHurtDelta": "ExtraAttack_2",
          "actorWindSubHurtDelta": 0.0
        }
      ],
      "abilitySpecials": {
        "Attack01": 0.0,
        "Attack02": 0.0,
        "Attack03_1": 0.0,
        "Attack03_2": 0.0,
        "Attack04_1": 0.0,
        "Attack04_2": 0.0,
        "Attack05": 0.0,
        "ExtraAttack_1": 0.0,
        "ExtraAttack_2": 0.0
      }
    }
  },
  {
    "Default": {
      "$type": "CBPBEHLOHKI",
      "abilityName": "Avatar_Qiqi_ElementalArt_Damage",
      "abilityMixins": [
        {
          "$type": "LDBCDLJECKF",
          "animEventNames": [
            "ELEMENTAL_ART"
          ],
          "actorGrassSubHurtDelta": "Elemental_Art",
          "actorWindSubHurtDelta": 0.0
        }
      ],
      "abilitySpecials": {
        "Elemental_Art": 0.0
      }
    }
  },
  {
    "Default": {
      "$type": "CBPBEHLOHKI",
      "abilityName": "Avatar_Qiqi_CoreTalent",
      "abilitySpecials": {
        "Qiqi_CoreTalent_HealedAddDelta": 0.0
      },
      "modifiers": {
        "Qiqi_CoreTalent_Main_Handler": {
          "modifierName": "",
          "IPFJJJGABPL": 100.0,
          "thinkInterval": 1.0,
          "modifierMixins": [
            {
              "$type": "MLJAPFBGEEH",
              "globalValueKey": "_ABILITY_Avatar_Qiqi_CoreTalent_ElementTypeCount",
              "gvInTalk": 0.0,
              "valueSteps": [
                0.5,
                1.5,
                2.5,
                3.5,
                99.0
              ],
              "modifierNameSteps": [
                "Qiqi_CoreTalent_1",
                "Qiqi_CoreTalent_2",
                "Qiqi_CoreTalent_3",
                "Qiqi_CoreTalent_4"
              ]
            }
          ],
          "onThinkInterval": [
            {
              "$type": "LCOEFEMOHLP",
              "shieldHP": true,
              "predicates": [
                {
                  "$type": "GEFIFEHMDLF",
                  "number": 1,
                  "logic": "Equal"
                }
              ],
              "param3": 1.0,
              "key": "_ABILITY_Avatar_Qiqi_CoreTalent_ElementTypeCount",
              "useLimitRange": true,
              "param2": 1.0,
              "repeatTimes": 1.0
            },
            {
              "$type": "LCOEFEMOHLP",
              "shieldHP": true,
              "predicates": [
                {
                  "$type": "GEFIFEHMDLF",
                  "number": 2,
                  "logic": "Equal"
                }
              ],
              "param3": 1.0,
              "key": "_ABILITY_Avatar_Qiqi_CoreTalent_ElementTypeCount",
              "useLimitRange": true,
              "param2": 2.0,
              "repeatTimes": 2.0
            },
            {
              "$type": "LCOEFEMOHLP",
              "shieldHP": true,
              "predicates": [
                {
                  "$type": "GEFIFEHMDLF",
                  "number": 3,
                  "logic": "Equal"
                }
              ],
              "param3": 1.0,
              "key": "_ABILITY_Avatar_Qiqi_CoreTalent_ElementTypeCount",
              "useLimitRange": true,
              "param2": 3.0,
              "repeatTimes": 3.0
            },
            {
              "$type": "LCOEFEMOHLP",
              "shieldHP": true,
              "predicates": [
                {
                  "$type": "GEFIFEHMDLF",
                  "number": 4,
                  "logic": "GreaterOrEqual"
                }
              ],
              "param3": 1.0,
              "key": "_ABILITY_Avatar_Qiqi_CoreTalent_ElementTypeCount",
              "useLimitRange": true,
              "param2": 4.0,
              "repeatTimes": 4.0
            }
          ]
        },
        "Qiqi_CoreTalent_1": {
          "modifierName": "",
          "IPFJJJGABPL": 100.0,
          "properties": {
            "Actor_HealedAddDelta": "Qiqi_CoreTalent_HealedAddDelta"
          },
          "isLimitedProperties": true
        },
        "Qiqi_CoreTalent_2": {
          "modifierName": "",
          "IPFJJJGABPL": 100.0,
          "properties": {
            "Actor_HealedAddDelta": [
              "Qiqi_CoreTalent_HealedAddDelta",
              2.0,
              "MUL"
            ]
          },
          "isLimitedProperties": true
        },
        "Qiqi_CoreTalent_3": {
          "modifierName": "",
          "IPFJJJGABPL": 100.0,
          "properties": {
            "Actor_HealedAddDelta": [
              "Qiqi_CoreTalent_HealedAddDelta",
              3.0,
              "MUL"
            ]
          },
          "isLimitedProperties": true
        },
        "Qiqi_CoreTalent_4": {
          "modifierName": "",
          "IPFJJJGABPL": 100.0,
          "properties": {
            "Actor_HealedAddDelta": [
              "Qiqi_CoreTalent_HealedAddDelta",
              4.0,
              "MUL"
            ]
          },
          "isLimitedProperties": true
        }
      },
      "onAdded": [
        {
          "$type": "LCOEFEMOHLP",
          "param3": -4.0,
          "key": "_ABILITY_Avatar_Qiqi_CoreTalent_ElementTypeCount",
          "useLimitRange": true,
          "param2": 1.0,
          "repeatTimes": 1.0
        },
        {
          "$type": "JLDEMMJAMLC",
          "shieldHP": true,
          "modifierName": "Qiqi_CoreTalent_Main_Handler"
        }
      ]
    }
  },
  {
    "Default": {
      "$type": "CBPBEHLOHKI",
      "abilityName": "Avatar_Qiqi_Frozen_AttackUp",
      "abilitySpecials": {
        "Frozen_AttackUp": 0.15000000596046448
      },
      "modifiers": {
        "UNIQUE_Qiqi_Frozen_AttackUp": {
          "modifierName": "",
          "forceTriggerWhenChangeAuthority": true,
          "IPFJJJGABPL": 100.0,
          "modifierMixins": [
            {
              "$type": "LDBCDLJECKF",
              "attackTags": [
                "NormalAttack_01",
                "NormalAttack_02",
                "NormalAttack_03",
                "NormalAttack_04",
                "NormalAttack_05",
                "ExtraAttack"
              ],
              "actorWindSubHurtDelta": "Frozen_AttackUp",
              "predicates": [
                {
                  "$type": "HHHMNCNPBDK",
                  "predicates": [
                    {
                      "$type": "DHJDNPOHKPF",
                      "abilityState": "ElementFrozen"
                    },
                    {
                      "$type": "DHJDNPOHKPF",
                      "abilityState": "ElementIce"
                    }
                  ]
                }
              ]
            }
          ]
        }
      },
      "onAdded": [
        {
          "$type": "PELJALPANCA",
          "modifierName": "UNIQUE_Qiqi_Frozen_AttackUp"
        }
      ],
      "isDynamicAbility": true
    }
  },
  {
    "Default": {
      "$type": "CBPBEHLOHKI",
      "abilityName": "Avatar_Qiqi_FallingAnthem",
      "abilityMixins": [
        {
          "$type": "KMPFLHBHBBP",
          "jumpSkillID": 5035010,
          "flySkillID": 5035010
        },
        {
          "$type": "EKMHJKDLBJH",
          "stateIDs": [
            "FallingAnthem_BS"
          ],
          "modifierName": "FallingAnthem_BS_Material",
          "DGFCLAIDIFI": ""
        },
        {
          "$type": "EKMHJKDLBJH",
          "stateIDs": [
            "FallingAnthem_BS"
          ],
          "modifierName": "FallingAnthem_Loop_Normal",
          "DGFCLAIDIFI": ""
        },
        {
          "$type": "EJDKAKLFCPA",
          "stateIDs": [
            "FallingAnthem_BS_2",
            "FallingAnthem_Loop",
            "FallingAnthem_Loop_Low"
          ],
          "modifierName": "FallingAnthem_LoopDamage",
          "DGFCLAIDIFI": ""
        },
        {
          "$type": "EKMHJKDLBJH",
          "stateIDs": [
            "FallingAnthem_BS"
          ],
          "modifierName": "FallingAnthem_BS_VelocityForce_Initialize",
          "DGFCLAIDIFI": ""
        },
        {
          "$type": "EKMHJKDLBJH",
          "stateIDs": [
            "FallingAnthem_BS",
            "FallingAnthem_Loop",
            "FallingAnthem_AS_1",
            "FallingAnthem_AS_2"
          ],
          "modifierName": "FallingAnthem_Height_Detect",
          "DGFCLAIDIFI": ""
        },
        {
          "$type": "EKMHJKDLBJH",
          "stateIDs": [
            "FallingAnthem_BS",
            "FallingAnthem_Loop",
            "FallingAnthem_AS_1",
            "FallingAnthem_AS_2"
          ],
          "modifierName": "FallingAnthem_FallingDamageImmune_01",
          "DGFCLAIDIFI": ""
        },
        {
          "$type": "EKMHJKDLBJH",
          "stateIDs": [
            "FallingAnthem_BS",
            "FallingAnthem_Loop"
          ],
          "modifierName": "Inertia",
          "DGFCLAIDIFI": ""
        },
        {
          "$type": "EKMHJKDLBJH",
          "stateIDs": [
            "FallingAnthem_BS",
            "FallingAnthem_Loop",
            "FallingAnthem_AS_1",
            "FallingAnthem_AS_2"
          ],
          "modifierName": "FallingAnthem_OverHead_Camera",
          "DGFCLAIDIFI": ""
        },
        {
          "$type": "EKMHJKDLBJH",
          "stateIDs": [
            "FallingAnthem_BS"
          ],
          "modifierName": "FallingAnthem_ClearVelocityForce",
          "DGFCLAIDIFI": ""
        },
        {
          "$type": "EKMHJKDLBJH",
          "stateIDs": [
            "FallingAnthem_AS_1",
            "FallingAnthem_AS_2"
          ],
          "modifierName": "FallingAnthem_ClearVelocityForce_AS",
          "DGFCLAIDIFI": ""
        },
        {
          "$type": "EKMHJKDLBJH",
          "stateIDs": [
            "FallingAnthem_BS",
            "FallingAnthem_Loop"
          ],
          "modifierName": "FallingAnthem_AttachWeaponEffect",
          "DGFCLAIDIFI": ""
        },
        {
          "$type": "EJDKAKLFCPA",
          "stateIDs": [
            "FallingAnthem_BS_2"
          ],
          "modifierName": "FallingAnthem_CameraRadialBlur",
          "DGFCLAIDIFI": ""
        }
      ],
      "abilitySpecials": {
        "FallingAnthem_Normal_Loop_Damage": 0.0,
        "FallingAnthem_Normal_Rank_1_Damage": 0.0,
        "FallingAnthem_Normal_Rank_2_Damage": 0.0,
        "FallingAnthem_Altitude_Lv0": 20.0,
        "FallingAnthem_Altitude_Lv1": 40.0,
        "FallingAnthem_Altitude_Lv2": 60.0,
        "FallingAnthem_Altitude_Lv3": 100.0,
        "FallingAnthem_Altitude_Lv4": 200.0,
        "FallingAnthem_FallingDamageRatio_Lv0": -1.0,
        "FallingAnthem_FallingDamageRatio_Lv1": -1.0,
        "FallingAnthem_FallingDamageRatio_Lv2": -0.8999999761581421,
        "FallingAnthem_FallingDamageRatio_Lv3": -0.800000011920929,
        "FallingAnthem_FallingDamageRatio_Lv4": -0.6000000238418579,
        "FallingAnthem_FallingDamageRatio": 0.0
      },
      "modifiers": {
        "FallingAnthem_AttachWeaponEffect": {
          "modifierName": "",
          "IPFJJJGABPL": 100.0,
          "onAdded": [
            {
              "$type": "ANLOBBMKNIJ",
              "rotationDampTime": "Eff_Avatar_Sword_FallAnthem_Self_01",
              "PPPDJGDDOGD": 1.0,
              "AJDILHJFNKE": -1.0
            }
          ]
        },
        "FallingAnthem_CameraRadialBlur": {
          "modifierName": "",
          "elementDurability": 0.23000000417232513,
          "IPFJJJGABPL": 100.0,
          "modifierMixins": [
            {
              "$type": "PIEMLPMIDKA",
              "cameraRadialBlur": {
                "power": 0.30000001192092896,
                "fadeTime": 0.15000000596046448
              }
            }
          ]
        },
        "FallingAnthem_BS_Material": {
          "modifierName": "",
          "IPFJJJGABPL": 100.0,
          "onAdded": [
            {
              "$type": "KBFEIHEAMBM",
              "rotationDampTime": "Eff_Avatar_Sword_FallAnthem_BS",
              "PPPDJGDDOGD": 1.0,
              "AJDILHJFNKE": -1.0
            }
          ]
        },
        "FallingAnthem_BS_VelocityForce_Initialize": {
          "modifierName": "",
          "IPFJJJGABPL": 100.0,
          "properties": {
            "Actor_AddGravityScale": -2.0
          },
          "onAdded": [
            {
              "$type": "LBLNHEBGPJI",
              "forces": [
                "RushMoveType"
              ]
            }
          ]
        },
        "FallingAnthem_LoopDamage": {
          "modifierName": "",
          "IPFJJJGABPL": 100.0,
          "thinkInterval": 0.30000001192092896,
          "onThinkInterval": [
            {
              "$type": "AIFPLABJNMA",
              "attackEvent": {
                "attackPattern": {
                  "$type": "BELNOFAKNBA",
                  "triggerType": "TriggerNoRepeat",
                  "born": {
                    "$type": "IAENDIPDFKD",
                    "offset": {
                      "KGEPIMHBMOL": 0.0,
                      "JEBHCGDPFEJ": 0.0,
                      "LPCHALMFFOD": 1.0
                    }
                  },
                  "OAHPDLJIADP": 1.0
                },
                "attackInfo": {
                  "attackTag": "FallingAttack",
                  "attenuationTag": "",
                  "attenuationGroup": "default",
                  "attackProperty": {
                    "actorGrassSubHurtDelta": "FallingAnthem_Normal_Loop_Damage",
                    "actorWindSubHurtDelta": 0.0,
                    "IPFJJJGABPL": 0.0,
                    "overrideByWeapon": true,
                    "strikeType": "Slash",
                    "enBreak": 25.0,
                    "attackType": "Melee",
                    "GLKMCMDJBIK": 0.0
                  },
                  "hitPattern": {
                    "onHitEffectName": "default",
                    "hitImpulseY": "",
                    "hitImpulseType": "LV2",
                    "hitHaltTimeScale": 0.019999999552965164
                  }
                }
              },
              "targetType": "Enemy"
            }
          ]
        },
        "FallingAnthem_FallingDamageImmune_01": {
          "modifierName": "",
          "IPFJJJGABPL": 100.0,
          "onAdded": [
            {
              "$type": "HMKGPFBBDIC",
              "key": "_ABILITY_FallingAttack_Altitude"
            },
            {
              "$type": "LCOEFEMOHLP",
              "predicates": [
                {
                  "$type": "NKACKHNIJOO",
                  "logic": "LesserOrEqual",
                  "param3": "FallingAnthem_Altitude_Lv0"
                }
              ],
              "param3": "FallingAnthem_FallingDamageRatio_Lv0",
              "key": "_ABILITY_FallingAttack_Altitude",
              "useLimitRange": true,
              "param2": "FallingAnthem_FallingDamageRatio_Lv0",
              "repeatTimes": "FallingAnthem_FallingDamageRatio_Lv0"
            },
            {
              "$type": "LCOEFEMOHLP",
              "predicates": [
                {
                  "$type": "NKACKHNIJOO",
                  "logic": "LesserOrEqual",
                  "param3": "FallingAnthem_Altitude_Lv1"
                },
                {
                  "$type": "NKACKHNIJOO",
                  "param3": "FallingAnthem_Altitude_Lv0"
                }
              ],
              "param3": "FallingAnthem_FallingDamageRatio_Lv1",
              "key": "_ABILITY_FallingAttack_Altitude",
              "useLimitRange": true,
              "param2": "FallingAnthem_FallingDamageRatio_Lv1",
              "repeatTimes": "FallingAnthem_FallingDamageRatio_Lv1"
            },
            {
              "$type": "LCOEFEMOHLP",
              "predicates": [
                {
                  "$type": "NKACKHNIJOO",
                  "logic": "LesserOrEqual",
                  "param3": "FallingAnthem_Altitude_Lv2"
                },
                {
                  "$type": "NKACKHNIJOO",
                  "param3": "FallingAnthem_Altitude_Lv1"
                }
              ],
              "param3": "FallingAnthem_FallingDamageRatio_Lv2",
              "key": "_ABILITY_FallingAttack_Altitude",
              "useLimitRange": true,
              "param2": "FallingAnthem_FallingDamageRatio_Lv2",
              "repeatTimes": "FallingAnthem_FallingDamageRatio_Lv2"
            },
            {
              "$type": "LCOEFEMOHLP",
              "predicates": [
                {
                  "$type": "NKACKHNIJOO",
                  "logic": "LesserOrEqual",
                  "param3": "FallingAnthem_Altitude_Lv3"
                },
                {
                  "$type": "NKACKHNIJOO",
                  "param3": "FallingAnthem_Altitude_Lv2"
                }
              ],
              "param3": "FallingAnthem_FallingDamageRatio_Lv3",
              "key": "_ABILITY_FallingAttack_Altitude",
              "useLimitRange": true,
              "param2": "FallingAnthem_FallingDamageRatio_Lv3",
              "repeatTimes": "FallingAnthem_FallingDamageRatio_Lv3"
            },
            {
              "$type": "LCOEFEMOHLP",
              "predicates": [
                {
                  "$type": "NKACKHNIJOO",
                  "param3": "FallingAnthem_Altitude_Lv3"
                }
              ],
              "param3": "FallingAnthem_FallingDamageRatio_Lv4",
              "key": "_ABILITY_FallingAttack_Altitude",
              "useLimitRange": true,
              "param2": "FallingAnthem_FallingDamageRatio_Lv4",
              "repeatTimes": "FallingAnthem_FallingDamageRatio_Lv4"
            },
            {
              "$type": "JLDEMMJAMLC",
              "modifierName": "FallingAnthem_FallingDamageImmune_02"
            }
          ]
        },
        "FallingAnthem_FallingDamageImmune_02": {
          "modifierName": "",
          "IPFJJJGABPL": 100.0,
          "onAdded": [
            {
              "$type": "LDIAIDLOPEE",
              "globalValueKey": "_ABILITY_FallingAttack_Altitude",
              "overrideMapKey": "FallingAnthem_FallingDamageRatio"
            },
            {
              "$type": "JLDEMMJAMLC",
              "modifierName": "FallingAnthem_FallingDamageImmune_03"
            }
          ]
        },
        "FallingAnthem_FallingDamageImmune_03": {
          "modifierName": "",
          "IPFJJJGABPL": 100.0,
          "properties": {
            "Actor_FallingDamageRatio": "FallingAnthem_FallingDamageRatio"
          }
        },
        "FallingAnthem_Loop_Normal": {
          "modifierName": "",
          "IPFJJJGABPL": 100.0,
          "modifierMixins": [
            {
              "$type": "MLJAPFBGEEH",
              "globalValueKey": "_ABILITY_FallingAnthem_UseCamera",
              "gvInTalk": 0.0,
              "valueSteps": [
                -1.0,
                0.5,
                1.5
              ],
              "modifierNameSteps": [
                "FallingAnthem_Loop_Normal_Rank_1",
                "FallingAnthem_Loop_Normal_Rank_2"
              ]
            }
          ]
        },
        "FallingAnthem_Loop_Normal_Rank_1": {
          "modifierName": "",
          "IPFJJJGABPL": 100.0,
          "onAdded": [
            {
              "$type": "ANLOBBMKNIJ",
              "rotationDampTime": "Eff_Avatar_Sword_FallAnthem_Loop_01",
              "PPPDJGDDOGD": 1.0,
              "AJDILHJFNKE": -1.0
            }
          ]
        },
        "FallingAnthem_Loop_Normal_Rank_2": {
          "modifierName": "",
          "IPFJJJGABPL": 100.0,
          "onAdded": [
            {
              "$type": "ANLOBBMKNIJ",
              "rotationDampTime": "Eff_Avatar_Sword_FallAnthem_Loop_02",
              "PPPDJGDDOGD": 1.0,
              "AJDILHJFNKE": -1.0
            }
          ]
        },
        "Inertia": {
          "modifierName": "",
          "IPFJJJGABPL": 100.0,
          "modifierMixins": [
            {
              "$type": "KEHPDCODOOC",
              "useXZ": false,
              "useY": false
            }
          ]
        },
        "FallingAnthem_Height_Detect": {
          "modifierName": "",
          "IPFJJJGABPL": 100.0,
          "onAdded": [
            {
              "$type": "LCOEFEMOHLP",
              "predicates": [
                {
                  "$type": "NKACKHNIJOO",
                  "logic": "LesserOrEqual",
                  "param3": 2.4000000953674316
                }
              ],
              "param3": 0.0,
              "key": "_ABILITY_FallingAnthem_UseCamera",
              "useLimitRange": true,
              "param2": 0.0,
              "repeatTimes": 0.0
            },
            {
              "$type": "LCOEFEMOHLP",
              "predicates": [
                {
                  "$type": "NKACKHNIJOO",
                  "param3": 2.4000000953674316
                }
              ],
              "param3": 5.0,
              "key": "_ABILITY_FallingAnthem_UseCamera",
              "useLimitRange": true,
              "param2": 1.0,
              "repeatTimes": 0.0
            },
            {
              "$type": "FEKJDLHHOLE",
              "predicates": [
                {
                  "$type": "NKACKHNIJOO",
                  "logic": "LesserOrEqual",
                  "param3": 2.4000000953674316
                }
              ],
              "floatID": "FallingAnthem_UseCamera",
              "param3": 0.0
            },
            {
              "$type": "FEKJDLHHOLE",
              "predicates": [
                {
                  "$type": "NKACKHNIJOO",
                  "param3": 2.4000000953674316
                }
              ],
              "floatID": "FallingAnthem_UseCamera",
              "param3": 1.0
            }
          ],
          "onRemoved": [
            {
              "$type": "FEKJDLHHOLE",
              "floatID": "FallingAnthem_UseCamera",
              "param3": 0.0
            },
            {
              "$type": "LCOEFEMOHLP",
              "param3": 0.0,
              "key": "_ABILITY_FallingAnthem_UseCamera",
              "useLimitRange": true,
              "param2": 0.0,
              "repeatTimes": 0.0
            }
          ]
        },
        "FallingAnthem_OverHead_Camera": {
          "modifierName": "",
          "IPFJJJGABPL": 100.0,
          "onAdded": [
            {
              "$type": "LJBFFDLKIKL",
              "predicates": [
                {
                  "$type": "NIFDMKMHAGJ",
                  "logic": "Equal",
                  "param3": 1.0,
                  "parameter": "FallingAnthem_UseCamera"
                }
              ],
              "cameraParam": {
                "forceRadius": 4.5,
                "forceRadiusDuration": 0.20000000298023224,
                "shouldKeepForceRadius": true
              }
            }
          ]
        },
        "FallingAnthem_OverHead_Camera_Remover": {
          "modifierName": "",
          "IPFJJJGABPL": 100.0,
          "onAdded": [
            {
              "$type": "PEIPIGEMHEK",
              "shieldHP": true
            }
          ]
        },
        "FallingAnthem_Landed_Camera": {
          "modifierName": "",
          "IPFJJJGABPL": 100.0,
          "onAdded": [
            {
              "$type": "LJBFFDLKIKL",
              "predicates": [
                {
                  "$type": "NIFDMKMHAGJ",
                  "logic": "Equal",
                  "param3": 1.0,
                  "parameter": "FallingAnthem_UseCamera"
                }
              ],
              "cameraParam": {
                "forceRadius": 6.0,
                "forceRadiusDuration": 0.10000000149011612,
                "shouldKeepForceRadius": true
              }
            }
          ]
        },
        "FallingAnthem_ClearVelocityForce": {
          "modifierName": "",
          "IPFJJJGABPL": 100.0,
          "onAdded": [
            {
              "$type": "LBLNHEBGPJI",
              "forces": [
                "RushMoveType",
                "InertiaType"
              ]
            }
          ]
        },
        "FallingAnthem_ClearVelocityForce_AS": {
          "modifierName": "",
          "IPFJJJGABPL": 100.0,
          "onAdded": [
            {
              "$type": "LBLNHEBGPJI",
              "forces": [
                "RushMoveType",
                "InertiaType"
              ]
            }
          ]
        }
      },
      "onAbilityStart": [
        {
          "$type": "AIFPLABJNMA",
          "predicates": [
            {
              "$type": "CNGGLKHONAA",
              "key": "_ABILITY_FallingAnthem_UseCamera",
              "param3": 0.0,
              "forceByCaster": true,
              "compareType": "NoneOrEqual"
            }
          ],
          "attackEvent": {
            "attackPattern": {
              "$type": "GMDIMKKHACA",
              "triggerType": "TriggerNoRepeat",
              "born": {
                "$type": "JHEBKCMEMLN",
                "offset": {
                  "KGEPIMHBMOL": 0.0,
                  "JEBHCGDPFEJ": -0.5,
                  "LPCHALMFFOD": 1.0
                }
              },
              "height": 2.0,
              "OAHPDLJIADP": 3.0
            },
            "attackInfo": {
              "attackTag": "FallingAttack",
              "attenuationTag": "",
              "attenuationGroup": "default",
              "attackProperty": {
                "actorGrassSubHurtDelta": "FallingAnthem_Normal_Rank_1_Damage",
                "actorWindSubHurtDelta": 0.0,
                "IPFJJJGABPL": 25.0,
                "overrideByWeapon": true,
                "strikeType": "Blunt",
                "enBreak": 100.0,
                "attackType": "Melee",
                "GLKMCMDJBIK": 0.0
              },
              "hitPattern": {
                "onHitEffectName": "none",
                "hitImpulseY": "",
                "hitImpulseType": "LV4",
                "hitHaltTimeScale": 0.10000000149011612
              },
              "forceCameraShake": true,
              "cameraShake": {
                "shakeType": "CustomVector",
                "shakeRange": 0.23999999463558197,
                "shakeTime": 0.11999999731779099,
                "shakeDistance": 30.0,
                "shakeDir": {
                  "y": 1.0
                },
                "extension": {
                  "baseCycle": 0.23999999463558197,
                  "cycleDamping": 0.0,
                  "rangeAttenuation": 0.30000001192092896
                }
              }
            }
          },
          "targetType": "Enemy"
        },
        {
          "$type": "AIFPLABJNMA",
          "predicates": [
            {
              "$type": "CNGGLKHONAA",
              "key": "_ABILITY_FallingAnthem_UseCamera",
              "param3": 1.0,
              "forceByCaster": true
            }
          ],
          "attackEvent": {
            "attackPattern": {
              "$type": "GMDIMKKHACA",
              "triggerType": "TriggerNoRepeat",
              "born": {
                "$type": "JHEBKCMEMLN",
                "offset": {
                  "KGEPIMHBMOL": 0.0,
                  "JEBHCGDPFEJ": -0.5,
                  "LPCHALMFFOD": 1.0
                }
              },
              "height": 2.0,
              "OAHPDLJIADP": 5.0
            },
            "attackInfo": {
              "attackTag": "FallingAttack",
              "attenuationTag": "",
              "attenuationGroup": "default",
              "attackProperty": {
                "actorGrassSubHurtDelta": "FallingAnthem_Normal_Rank_2_Damage",
                "actorWindSubHurtDelta": 0.0,
                "IPFJJJGABPL": 25.0,
                "overrideByWeapon": true,
                "strikeType": "Blunt",
                "enBreak": 150.0,
                "attackType": "Melee",
                "GLKMCMDJBIK": 0.0
              },
              "hitPattern": {
                "onHitEffectName": "none",
                "hitImpulseY": "",
                "hitImpulseType": "LV7",
                "hitHaltTimeScale": 0.10000000149011612
              },
              "forceCameraShake": true,
              "cameraShake": {
                "shakeType": "CustomVector",
                "shakeRange": 0.5,
                "shakeTime": 0.20000000298023224,
                "shakeDistance": 30.0,
                "shakeDir": {
                  "y": 1.0,
                  "z": 1.0
                },
                "extension": {
                  "baseCycle": 0.4000000059604645,
                  "cycleDamping": 0.0,
                  "rangeAttenuation": 0.30000001192092896
                }
              }
            }
          },
          "targetType": "Enemy"
        },
        {
          "$type": "KBFEIHEAMBM",
          "predicates": [
            {
              "$type": "CNGGLKHONAA",
              "key": "_ABILITY_FallingAnthem_UseCamera",
              "param3": 0.0,
              "forceByCaster": true,
              "compareType": "NoneOrEqual"
            }
          ],
          "rotationDampTime": "Eff_Avatar_Sword_FallAnthem_Strike_01",
          "PPPDJGDDOGD": 1.0,
          "AJDILHJFNKE": -1.0
        },
        {
          "$type": "KBFEIHEAMBM",
          "predicates": [
            {
              "$type": "CNGGLKHONAA",
              "key": "_ABILITY_FallingAnthem_UseCamera",
              "param3": 1.0,
              "forceByCaster": true
            }
          ],
          "rotationDampTime": "Eff_Avatar_Sword_FallAnthem_Strike_02",
          "PPPDJGDDOGD": 1.0,
          "AJDILHJFNKE": -1.0
        }
      ]
    }
  },
  {
    "Default": {
      "$type": "CBPBEHLOHKI",
      "abilityName": "Avatar_Qiqi_Radar_Collectables_Liyue",
      "modifiers": {
        "Radar_Toggle": {
          "modifierName": "",
          "IPFJJJGABPL": 100.0,
          "onAdded": [
            {
              "$type": "LCOEFEMOHLP",
              "shieldHP": true,
              "param3": 1.0,
              "key": "_ABILITY_Radar_Collectables_Liyue",
              "useLimitRange": true,
              "param2": 2.0,
              "repeatTimes": 0.0
            }
          ],
          "onRemoved": [
            {
              "$type": "LCOEFEMOHLP",
              "shieldHP": true,
              "param3": -1.0,
              "key": "_ABILITY_Radar_Collectables_Liyue",
              "useLimitRange": true,
              "param2": 2.0,
              "repeatTimes": 0.0
            }
          ]
        }
      },
      "onAdded": [
        {
          "$type": "JLDEMMJAMLC",
          "modifierName": "Radar_Toggle"
        }
      ],
      "isDynamicAbility": true
    }
  },
  {
    "Default": {
      "$type": "CBPBEHLOHKI",
      "abilityName": "Avatar_Qiqi_Show_WindZone",
      "abilityMixins": [
        {
          "$type": "NAFEDCNOIGL",
          "stateID": "StandbyShow_02",
          "modifierName": "Qiqi_Show02_WindZone",
          "DGFCLAIDIFI": ""
        }
      ],
      "modifiers": {
        "Qiqi_Show02_WindZone": {
          "modifierName": "",
          "IPFJJJGABPL": 100.0,
          "modifierMixins": [
            {
              "$type": "EIMGEIJIDNO",
              "shapeName": "CircleR5",
              "born": {
                "$type": "IAENDIPDFKD",
                "offset": {
                  "KGEPIMHBMOL": 0.0,
                  "JEBHCGDPFEJ": 0.0,
                  "LPCHALMFFOD": 0.0
                }
              },
              "strength": 4.0,
              "IAELBHDMINN": 2.0,
              "MMBCLAEOEFB": 0.0,
              "targetType": "All",
              "predicates": [
                {
                  "$type": "NIMAPECDNKD",
                  "entityTypes": [
                    "Grass"
                  ]
                }
              ],
              "modifierName": ""
            }
          ]
        }
      }
    }
  }
]