[
  {
    "Default": {
      "$type": "CBPBEHLOHKI",
      "abilityName": "Avatar_DefaultAbility_VisionReplaceDieInvincible",
      "abilityMixins": [
        {
          "$type": "OLGJDKOJBGC",
          "onReviveActions": [
            {
              "$type": "PELJALPANCA",
              "target": "CurLocalAvatar",
              "shieldHP": true,
              "modifierName": "UNIQUE_VisionReplaceDieInvincible_Invincible"
            }
          ]
        }
      ],
      "modifiers": {
        "UNIQUE_VisionReplaceDieInvincible_Invincible": {
          "modifierName": "",
          "forceTriggerWhenChangeAuthority": true,
          "elementDurability": 2.5,
          "IPFJJJGABPL": 100.0,
          "state": "Invincible"
        }
      },
      "onAvatarIn": [
        {
          "$type": "PELJALPANCA",
          "predicates": [
            {
              "$type": "HHHMNCNPBDK",
              "predicates": [
                {
                  "$type": "LPCDAHPFOPO",
                  "visionType": "VisionReborn"
                },
                {
                  "$type": "LPCDAHPFOPO",
                  "visionType": "VisionReplaceDie"
                }
              ]
            }
          ],
          "modifierName": "UNIQUE_VisionReplaceDieInvincible_Invincible"
        }
      ],
      "isDynamicAbility": true
    }
  },
  {
    "Default": {
      "$type": "CBPBEHLOHKI",
      "abilityName": "Avatar_DefaultAbility_AvartarInShaderChange",
      "modifiers": {
        "ShaderLerp": {
          "modifierName": "",
          "elementDurability": 1.2999999523162842,
          "IPFJJJGABPL": 100.0,
          "modifierMixins": [
            {
              "$type": "HGGKNHLBMED",
              "damageRatio": "CharacterDissolve"
            }
          ]
        },
        "UNIQUE_Special_ShaderLerp": {
          "modifierName": "",
          "forceTriggerWhenChangeAuthority": true,
          "elementDurability": 1.2999999523162842,
          "IPFJJJGABPL": 100.0,
          "modifierMixins": [
            {
              "$type": "HGGKNHLBMED",
              "damageRatio": "CharacterDissolve",
              "forceStopWhenRemoved": true
            }
          ]
        }
      },
      "onAvatarIn": [
        {
          "$type": "INBCDALOHMP",
          "targetPredicates": [
            {
              "$type": "CNGGLKHONAA",
              "key": "_AvartarInShaderChange_Special",
              "param3": 1.0
            }
          ],
          "successActions": [
            {
              "$type": "PELJALPANCA",
              "modifierName": "UNIQUE_Special_ShaderLerp"
            }
          ],
          "failActions": [
            {
              "$type": "PELJALPANCA",
              "modifierName": "ShaderLerp"
            }
          ]
        }
      ],
      "isDynamicAbility": true
    }
  }
]