[
  {
    "Default": {
      "$type": "CBPBEHLOHKI",
      "abilityName": "Avatar_PlayerBoy_ExtraAttack_Rock",
      "abilityMixins": [
        {
          "$type": "GODEMHMODCN",
          "skillID": 100545,
          "chargeTime": 0.11999999731779099,
          "EKKJNADOEMB": 0.20000000298023224,
          "onBeginUncharged": [
            {
              "$type": "BLCCGIPAOIP",
              "PLLJBINMGJK": "DoSkill"
            },
            {
              "$type": "AKEEDILMOJF",
              "predicates": [
                {
                  "$type": "HHHMNCNPBDK",
                  "predicates": [
                    {
                      "$type": "ALLFFNEOPGA",
                      "logic": "Equal",
                      "param3": 0,
                      "parameter": "ComboCount"
                    },
                    {
                      "$type": "ALLFFNEOPGA",
                      "logic": "Equal",
                      "param3": 5,
                      "parameter": "ComboCount"
                    }
                  ]
                }
              ],
              "intID": "SkillID",
              "param3": 99.0
            },
            {
              "$type": "KJCHPDPBJHL",
              "boolID": "IsCharging"
            }
          ],
          "onReleaseUncharged": [
            {
              "$type": "AKEEDILMOJF",
              "intID": "SkillID",
              "param3": 1.0
            }
          ],
          "onBeginCharged": [
            {
              "$type": "KJCHPDPBJHL",
              "boolID": "IsCharging",
              "param3": true
            }
          ],
          "onReleaseCharged": [
            {
              "$type": "KJCHPDPBJHL",
              "boolID": "IsCharging"
            },
            {
              "$type": "AKEEDILMOJF",
              "intID": "SkillID",
              "param3": 1.0
            }
          ],
          "onBeginSecondCharged": [
            {
              "$type": "BLCCGIPAOIP",
              "predicates": [
                {
                  "$type": "BHALEMOHOLJ",
                  "logic": "GreaterOrEqual",
                  "stamina": [
                    "ExtraAttack_Sword_Stamina_Cost",
                    "Flexible_Stamina",
                    "ADD"
                  ]
                }
              ],
              "PLLJBINMGJK": "DoSkill"
            },
            {
              "$type": "AKEEDILMOJF",
              "predicates": [
                {
                  "$type": "BHALEMOHOLJ",
                  "logic": "GreaterOrEqual",
                  "stamina": [
                    "ExtraAttack_Sword_Stamina_Cost",
                    "Flexible_Stamina",
                    "ADD"
                  ]
                }
              ],
              "intID": "SkillID",
              "param3": 6.0
            },
            {
              "$type": "KJCHPDPBJHL",
              "boolID": "IsCharging"
            }
          ],
          "chargeStateIDs": [
            "Attack01",
            "Attack02",
            "Attack03",
            "Attack04",
            "Run"
          ]
        },
        {
          "$type": "EKMHJKDLBJH",
          "stateIDs": [
            "ExtraAttack"
          ],
          "modifierName": "ExtraAttack_StaminaCost",
          "DGFCLAIDIFI": ""
        }
      ],
      "abilitySpecials": {
        "ExtraAttack_Sword_Stamina_Cost": 0.0,
        "Flexible_Stamina": -2.0
      },
      "modifiers": {
        "ExtraAttack_StaminaCost": {
          "modifierName": "",
          "IPFJJJGABPL": 100.0,
          "onAdded": [
            {
              "$type": "OCLNBBMMIOK",
              "skillID": 10001,
              "amountByTargetCurrentHPRatio": 1.0,
              "costStaminaRatio": "ExtraAttack_Sword_Stamina_Cost"
            }
          ]
        }
      },
      "isDynamicAbility": true
    }
  },
  {
    "Default": {
      "$type": "CBPBEHLOHKI",
      "abilityName": "Avatar_PlayerGirl_ExtraAttack_Rock",
      "abilityMixins": [
        {
          "$type": "GODEMHMODCN",
          "skillID": 100555,
          "chargeTime": 0.11999999731779099,
          "EKKJNADOEMB": 0.20000000298023224,
          "onBeginUncharged": [
            {
              "$type": "BLCCGIPAOIP",
              "PLLJBINMGJK": "DoSkill"
            },
            {
              "$type": "AKEEDILMOJF",
              "predicates": [
                {
                  "$type": "HHHMNCNPBDK",
                  "predicates": [
                    {
                      "$type": "ALLFFNEOPGA",
                      "logic": "Equal",
                      "param3": 0,
                      "parameter": "ComboCount"
                    },
                    {
                      "$type": "ALLFFNEOPGA",
                      "logic": "Equal",
                      "param3": 5,
                      "parameter": "ComboCount"
                    }
                  ]
                }
              ],
              "intID": "SkillID",
              "param3": 99.0
            },
            {
              "$type": "KJCHPDPBJHL",
              "boolID": "IsCharging"
            }
          ],
          "onReleaseUncharged": [
            {
              "$type": "AKEEDILMOJF",
              "intID": "SkillID",
              "param3": 1.0
            }
          ],
          "onBeginCharged": [
            {
              "$type": "KJCHPDPBJHL",
              "boolID": "IsCharging",
              "param3": true
            }
          ],
          "onReleaseCharged": [
            {
              "$type": "KJCHPDPBJHL",
              "boolID": "IsCharging"
            },
            {
              "$type": "AKEEDILMOJF",
              "intID": "SkillID",
              "param3": 1.0
            }
          ],
          "onBeginSecondCharged": [
            {
              "$type": "BLCCGIPAOIP",
              "predicates": [
                {
                  "$type": "BHALEMOHOLJ",
                  "logic": "GreaterOrEqual",
                  "stamina": [
                    "ExtraAttack_Sword_Stamina_Cost",
                    "Flexible_Stamina",
                    "ADD"
                  ]
                }
              ],
              "PLLJBINMGJK": "DoSkill"
            },
            {
              "$type": "AKEEDILMOJF",
              "predicates": [
                {
                  "$type": "BHALEMOHOLJ",
                  "logic": "GreaterOrEqual",
                  "stamina": [
                    "ExtraAttack_Sword_Stamina_Cost",
                    "Flexible_Stamina",
                    "ADD"
                  ]
                }
              ],
              "intID": "SkillID",
              "param3": 6.0
            },
            {
              "$type": "KJCHPDPBJHL",
              "boolID": "IsCharging"
            }
          ],
          "chargeStateIDs": [
            "Attack01",
            "Attack02",
            "Attack03",
            "Attack04",
            "Run"
          ]
        },
        {
          "$type": "EKMHJKDLBJH",
          "stateIDs": [
            "ExtraAttack"
          ],
          "modifierName": "ExtraAttack_StaminaCost",
          "DGFCLAIDIFI": ""
        }
      ],
      "abilitySpecials": {
        "ExtraAttack_Sword_Stamina_Cost": 0.0,
        "Flexible_Stamina": -2.0
      },
      "modifiers": {
        "ExtraAttack_StaminaCost": {
          "modifierName": "",
          "IPFJJJGABPL": 100.0,
          "onAdded": [
            {
              "$type": "OCLNBBMMIOK",
              "skillID": 10001,
              "amountByTargetCurrentHPRatio": 1.0,
              "costStaminaRatio": "ExtraAttack_Sword_Stamina_Cost"
            }
          ]
        }
      },
      "isDynamicAbility": true
    }
  },
  {
    "Default": {
      "$type": "CBPBEHLOHKI",
      "abilityName": "Avatar_Player_Hogyoku",
      "onAbilityStart": [
        {
          "$type": "KFCDMIMBBLD",
          "born": {
            "$type": "JHEBKCMEMLN",
            "offset": {
              "KGEPIMHBMOL": 0.0,
              "JEBHCGDPFEJ": 0.0,
              "LPCHALMFFOD": 2.0
            },
            "onGround": true,
            "onGroundIgnoreWater": true,
            "alongGround": true
          },
          "gadgetID": 41005003,
          "campID": 1001,
          "campTargetType": "Enemy"
        },
        {
          "$type": "OCLNBBMMIOK",
          "skillID": 10077,
          "amountByTargetCurrentHPRatio": 1.0,
          "costStaminaRatio": 1.0
        }
      ],
      "isDynamicAbility": true
    }
  },
  {
    "Default": {
      "$type": "CBPBEHLOHKI",
      "abilityName": "Avatar_Player_Hogyoku_ChargeStrike",
      "abilityMixins": [
        {
          "$type": "ADCFAHFIPHN",
          "skillID": 10077,
          "nextLoopTriggerID": "NextLoopTrigger",
          "endHoldTrigger": "EndHoldTrigger",
          "beforeStateIDs": [
            "Hogyoku_BS"
          ],
          "chargeLoopStateIDs": [
            "Hogyoku_Charge"
          ],
          "chargeLoopDurations": [
            10.0
          ]
        },
        {
          "$type": "EKMHJKDLBJH",
          "stateIDs": [
            "Hogyoku_Charge",
            "Hogyoku_Charge_2"
          ],
          "modifierName": "Focus",
          "DGFCLAIDIFI": ""
        },
        {
          "$type": "EKMHJKDLBJH",
          "stateIDs": [
            "Hogyoku_Charge"
          ],
          "modifierName": "Charge",
          "DGFCLAIDIFI": ""
        }
      ],
      "modifiers": {
        "Focus": {
          "modifierName": "",
          "IPFJJJGABPL": 100.0,
          "onAdded": [
            {
              "$type": "BAGMOLODOME",
              "cameraFollowLower": {
                "x": 0.800000011920929,
                "y": 0.20000000298023224,
                "z": -2.5
              },
              "cameraFollowUpper": {
                "x": 0.5,
                "y": -0.20000000298023224
              },
              "cameraFastFocusMode": true,
              "dragButtonName": "Skill2",
              "assistance": {
                "ps4": {},
                "ps5": {},
                "other": {
                  "useGyro": true
                }
              },
              "canMove": false,
              "showCrosshair": false,
              "focusAnchorVerAngle": 5.0,
              "OMHGAKJIEFB": ""
            }
          ],
          "onRemoved": [
            {
              "$type": "LJEDLFDLLDP",
              "keepRotation": true
            }
          ]
        },
        "Charge": {
          "modifierName": "",
          "IPFJJJGABPL": 100.0,
          "onAdded": [
            {
              "$type": "LCOEFEMOHLP",
              "param3": 10.0,
              "key": "_HOGYOKU_THROW_RANGE",
              "useLimitRange": true,
              "param2": 10.0,
              "repeatTimes": 10.0
            },
            {
              "$type": "ANLOBBMKNIJ",
              "rotationDampTime": "Eff_Avatar_Hogyoku_Aim_Line",
              "PPPDJGDDOGD": 1.0,
              "AJDILHJFNKE": -1.0
            }
          ]
        }
      },
      "onAbilityStart": [
        {
          "$type": "OCLNBBMMIOK",
          "skillID": 10077,
          "amountByTargetCurrentHPRatio": 1.0,
          "costStaminaRatio": 1.0
        },
        {
          "$type": "CAKDDHLKOAB",
          "bulletID": 41005008,
          "born": {
            "$type": "KLPANPDGHHA",
            "offset": {
              "KGEPIMHBMOL": 0.20000000298023224,
              "JEBHCGDPFEJ": 0.0,
              "LPCHALMFFOD": 0.6000000238418579
            },
            "attachPointName": "FocusAnchor"
          }
        }
      ],
      "isDynamicAbility": true
    }
  },
  {
    "Default": {
      "$type": "CBPBEHLOHKI",
      "abilityName": "Avatar_Player_HogyokuBullet",
      "onAbilityStart": [
        {
          "$type": "KFCDMIMBBLD",
          "born": {
            "$type": "JGEBAJLEBMO",
            "offset": {
              "KGEPIMHBMOL": 0.0,
              "JEBHCGDPFEJ": 0.0,
              "LPCHALMFFOD": 0.0
            },
            "onGround": true,
            "onGroundIgnoreWater": true,
            "alongGround": true
          },
          "gadgetID": 41005004,
          "campID": 1001,
          "campTargetType": "Enemy"
        }
      ]
    }
  },
  {
    "Default": {
      "$type": "CBPBEHLOHKI",
      "abilityName": "Avatar_Player_HogyokuBullet_LifeOver",
      "onAbilityStart": [
        {
          "$type": "KFCDMIMBBLD",
          "born": {
            "$type": "JHEBKCMEMLN",
            "offset": {
              "KGEPIMHBMOL": 0.0,
              "JEBHCGDPFEJ": 0.0,
              "LPCHALMFFOD": 0.0
            },
            "onGround": true,
            "onGroundIgnoreWater": true,
            "alongGround": true
          },
          "gadgetID": 41005004,
          "campID": 1001,
          "campTargetType": "Enemy"
        }
      ]
    }
  },
  {
    "Default": {
      "$type": "CBPBEHLOHKI",
      "abilityName": "Avatar_Player_Hogyoku_Base",
      "modifiers": {
        "Hogyoku_Base_Appear": {
          "modifierName": "",
          "elementDurability": 0.6000000238418579,
          "IPFJJJGABPL": 100.0,
          "onAdded": [
            {
              "$type": "KBFEIHEAMBM",
              "rotationDampTime": "Eff_Avatar_Hogyoku_Bullet",
              "born": {
                "$type": "JHEBKCMEMLN",
                "offset": {
                  "KGEPIMHBMOL": 0.0,
                  "JEBHCGDPFEJ": 0.0,
                  "LPCHALMFFOD": 1.0
                },
                "onGround": true,
                "alongGround": true
              },
              "PPPDJGDDOGD": 1.0,
              "AJDILHJFNKE": -1.0
            }
          ],
          "onRemoved": [
            {
              "$type": "KFCDMIMBBLD",
              "born": {
                "$type": "JHEBKCMEMLN",
                "offset": {
                  "KGEPIMHBMOL": 0.0,
                  "JEBHCGDPFEJ": 0.0,
                  "LPCHALMFFOD": 1.0
                },
                "onGround": true,
                "onGroundIgnoreWater": true,
                "onGroundRaycastUpDist": 4.0,
                "alongGround": true
              },
              "gadgetID": 41005004,
              "campID": 1001,
              "campTargetType": "Enemy"
            }
          ]
        }
      },
      "onAdded": [
        {
          "$type": "PELJALPANCA",
          "modifierName": "Hogyoku_Base_Appear"
        }
      ]
    }
  },
  {
    "Default": {
      "$type": "CBPBEHLOHKI",
      "abilityName": "Avatar_Player_Hogyoku_Barrier",
      "abilitySpecials": {
        "GetElementRatio": 1.0,
        "BarrierLifeTimeDelta": 0.0,
        "Damage_Explode": 0.0
      },
      "modifiers": {
        "Hogyoku_AttackHandler": {
          "modifierName": "",
          "elementDurability": 5.0,
          "IPFJJJGABPL": 100.0,
          "onAdded": [
            {
              "$type": "AIFPLABJNMA",
              "attackEvent": {
                "attackPattern": {
                  "$type": "GMDIMKKHACA",
                  "triggerType": "TriggerNoRepeat",
                  "born": {
                    "$type": "IAENDIPDFKD",
                    "offset": {
                      "KGEPIMHBMOL": 0.0,
                      "JEBHCGDPFEJ": -0.5,
                      "LPCHALMFFOD": 0.0
                    },
                    "useRotation": true
                  },
                  "height": 2.0,
                  "OAHPDLJIADP": 3.0
                },
                "attackInfo": {
                  "attackTag": "Elemental_Art",
                  "attenuationTag": "Elemental_Art",
                  "attenuationGroup": "default",
                  "attackProperty": {
                    "actorGrassSubHurtDelta": "Damage_Explode",
                    "actorWindSubHurtDelta": 0.0,
                    "elementType": "Rock",
                    "elementRank": 1.5,
                    "IPFJJJGABPL": 50.0,
                    "strikeType": "Blunt",
                    "enBreak": 133.1999969482422,
                    "GLKMCMDJBIK": 0.0
                  },
                  "hitPattern": {
                    "onHitEffectName": "default",
                    "hitImpulseY": "",
                    "hitImpulseType": "LV5",
                    "retreatType": "ByHitDirection",
                    "hitHaltTime": 0.05000000074505806,
                    "hitHaltTimeScale": 0.05000000074505806,
                    "canBeDefenceHalt": true
                  },
                  "forceCameraShake": true,
                  "cameraShake": {
                    "shakeRange": 0.30000001192092896,
                    "shakeTime": 0.15000000596046448
                  },
                  "canBeModifiedBy": "OriginOwner"
                }
              },
              "targetType": "Enemy"
            }
          ],
          "onAttackLanded": [
            {
              "$type": "INBCDALOHMP",
              "target": "Target",
              "targetPredicates": [
                {
                  "$type": "NNEHDJHMING",
                  "attackTags": [
                    "Elemental_Art"
                  ]
                },
                {
                  "$type": "NIMAPECDNKD",
                  "entityTypes": [
                    "Monster"
                  ]
                },
                {
                  "$type": "CNGGLKHONAA",
                  "key": "_ANIMAL_ENTITY_TYPE",
                  "param3": 0.0,
                  "compareType": "NoneOrEqual"
                },
                {
                  "$type": "PEJAIAPIAJD",
                  "target": "OriginOwner",
                  "elementType": "Rock"
                },
                {
                  "$type": "CNGGLKHONAA",
                  "target": "Self",
                  "key": "_ABILITY_Hogyoku_Barrier_Limitation",
                  "param3": 1.0
                },
                {
                  "$type": "CNGGLKHONAA",
                  "target": "Self",
                  "key": "_ABILITY_Hogyoku_Barrier_ElemBallMark",
                  "param3": 0.0,
                  "compareType": "NoneOrEqual"
                }
              ],
              "successActions": [
                {
                  "$type": "OGPDKJJJKNN",
                  "configID": 2023,
                  "born": {
                    "$type": "JHEBKCMEMLN",
                    "offset": {
                      "KGEPIMHBMOL": 0.0,
                      "JEBHCGDPFEJ": 0.0,
                      "LPCHALMFFOD": 0.0
                    }
                  },
                  "hpRatio": "GetElementRatio",
                  "baseEnergy": 9.0
                },
                {
                  "$type": "BEIEKAHLNED",
                  "chance": 0.33000001311302185,
                  "successActions": [
                    {
                      "$type": "OGPDKJJJKNN",
                      "configID": 2023,
                      "born": {
                        "$type": "JHEBKCMEMLN",
                        "offset": {
                          "KGEPIMHBMOL": 0.0,
                          "JEBHCGDPFEJ": 0.0,
                          "LPCHALMFFOD": 0.0
                        }
                      },
                      "hpRatio": "GetElementRatio",
                      "baseEnergy": 3.0
                    }
                  ]
                },
                {
                  "$type": "LCOEFEMOHLP",
                  "param3": 1.0,
                  "key": "_ABILITY_Hogyoku_Barrier_ElemBallMark",
                  "useLimitRange": true,
                  "param2": 1.0,
                  "repeatTimes": 1.0
                }
              ]
            }
          ]
        },
        "Hogyoku_Barrier_HP": {
          "modifierName": "",
          "elementDurability": [
            "BarrierLifeTimeDelta",
            30.0,
            "ADD"
          ],
          "IPFJJJGABPL": 100.0,
          "onRemoved": [
            {
              "$type": "NCFFNDHGCMH"
            }
          ]
        },
        "Hogyoku_Barrier_Explode_Timer": {
          "modifierName": "",
          "elementDurability": 0.8999999761581421,
          "IPFJJJGABPL": 100.0,
          "onAdded": [
            {
              "$type": "LCOEFEMOHLP",
              "param3": 1.0,
              "key": "_ABILITY_Hogyoku_Barrier_Limitation",
              "useLimitRange": true,
              "param2": 1.0,
              "repeatTimes": 0.0
            }
          ],
          "onRemoved": [
            {
              "$type": "LCOEFEMOHLP",
              "param3": -1.0,
              "key": "_ABILITY_Hogyoku_Barrier_Limitation",
              "useLimitRange": true,
              "param2": 1.0,
              "repeatTimes": 0.0
            },
            {
              "$type": "PELJALPANCA",
              "predicates": [
                {
                  "$type": "GKDKGMAMGGN",
                  "talentParam": "Player_Rock_UnstablePrime"
                }
              ],
              "modifierName": "Hogyoku_Barrier_Explode"
            }
          ]
        },
        "Hogyoku_Barrier_Explode": {
          "modifierName": "",
          "IPFJJJGABPL": 100.0,
          "onKill": [
            {
              "$type": "AIFPLABJNMA",
              "attackEvent": {
                "attackPattern": {
                  "$type": "GMDIMKKHACA",
                  "triggerType": "TriggerNoRepeat",
                  "born": {
                    "$type": "IAENDIPDFKD",
                    "offset": {
                      "KGEPIMHBMOL": 0.0,
                      "JEBHCGDPFEJ": 0.0,
                      "LPCHALMFFOD": 0.0
                    },
                    "useRotation": true
                  },
                  "height": 1.5,
                  "OAHPDLJIADP": 3.0
                },
                "attackInfo": {
                  "attackTag": "Elemental_Art",
                  "attenuationTag": "Elemental_Art",
                  "attenuationGroup": "default",
                  "attackProperty": {
                    "actorGrassSubHurtDelta": "Damage_Explode",
                    "actorWindSubHurtDelta": 0.0,
                    "elementType": "Rock",
                    "elementRank": 1.5,
                    "IPFJJJGABPL": 25.0,
                    "strikeType": "Blunt",
                    "enBreak": 133.1999969482422,
                    "GLKMCMDJBIK": 0.0
                  },
                  "hitPattern": {
                    "onHitEffectName": "default",
                    "hitImpulseY": "",
                    "hitImpulseType": "LV5",
                    "retreatType": "ByHitDirection",
                    "hitHaltTime": 0.05000000074505806,
                    "hitHaltTimeScale": 0.05000000074505806,
                    "canBeDefenceHalt": true
                  },
                  "forceCameraShake": true,
                  "cameraShake": {
                    "shakeRange": 0.30000001192092896,
                    "shakeTime": 0.15000000596046448
                  },
                  "canBeModifiedBy": "OriginOwner"
                }
              },
              "targetType": "Enemy"
            },
            {
              "$type": "KBFEIHEAMBM",
              "rotationDampTime": "Eff_Avatar_Hogyoku_Crystal_Explode",
              "PPPDJGDDOGD": 1.0,
              "AJDILHJFNKE": -1.0
            }
          ]
        }
      },
      "onAdded": [
        {
          "$type": "PELJALPANCA",
          "modifierName": "Hogyoku_Barrier_Explode_Timer"
        },
        {
          "$type": "PELJALPANCA",
          "modifierName": "Hogyoku_AttackHandler"
        },
        {
          "$type": "PELJALPANCA",
          "modifierName": "Hogyoku_Barrier_HP"
        }
      ]
    }
  },
  {
    "Default": {
      "$type": "CBPBEHLOHKI",
      "abilityName": "Avatar_Player_Hogyoku_Barrier_EndBoom",
      "abilitySpecials": {
        "Damage_Explode": 0.0
      },
      "modifiers": {
        "Life_Timer": {
          "modifierName": "",
          "elementDurability": 2.0,
          "IPFJJJGABPL": 100.0,
          "onRemoved": [
            {
              "$type": "NCFFNDHGCMH"
            }
          ]
        }
      },
      "onAdded": [
        {
          "$type": "AIFPLABJNMA",
          "attackEvent": {
            "attackPattern": {
              "$type": "GMDIMKKHACA",
              "triggerType": "TriggerNoRepeat",
              "born": {
                "$type": "IAENDIPDFKD",
                "offset": {
                  "KGEPIMHBMOL": 0.0,
                  "JEBHCGDPFEJ": 0.0,
                  "LPCHALMFFOD": 0.0
                },
                "useRotation": true
              },
              "height": 1.5,
              "OAHPDLJIADP": 3.0
            },
            "attackInfo": {
              "attackTag": "Elemental_Art",
              "attenuationTag": "Elemental_Art",
              "attenuationGroup": "default",
              "attackProperty": {
                "actorGrassSubHurtDelta": "Damage_Explode",
                "actorWindSubHurtDelta": 0.0,
                "elementType": "Rock",
                "elementRank": 1.5,
                "IPFJJJGABPL": 25.0,
                "strikeType": "Blunt",
                "enBreak": 133.1999969482422,
                "GLKMCMDJBIK": 0.0
              },
              "hitPattern": {
                "onHitEffectName": "default",
                "hitImpulseY": "",
                "hitImpulseType": "LV5",
                "retreatType": "ByHitDirection",
                "hitHaltTime": 0.05000000074505806,
                "hitHaltTimeScale": 0.05000000074505806,
                "canBeDefenceHalt": true
              },
              "forceCameraShake": true,
              "cameraShake": {
                "shakeRange": 0.30000001192092896,
                "shakeTime": 0.15000000596046448
              },
              "canBeModifiedBy": "OriginOwner"
            }
          },
          "targetType": "Enemy"
        },
        {
          "$type": "KBFEIHEAMBM",
          "rotationDampTime": "Eff_Avatar_Hogyoku_Crystal_Explode",
          "PPPDJGDDOGD": 1.0,
          "AJDILHJFNKE": -1.0
        },
        {
          "$type": "PELJALPANCA",
          "modifierName": "Life_Timer"
        }
      ]
    }
  },
  {
    "Default": {
      "$type": "CBPBEHLOHKI",
      "abilityName": "Avatar_Player_Hogyoku_Barrier_Material",
      "modifiers": {
        "Hogyoku_Barrier_Material_Timer": {
          "modifierName": "",
          "elementDurability": 0.05000000074505806,
          "IPFJJJGABPL": 100.0,
          "onRemoved": [
            {
              "$type": "PELJALPANCA",
              "modifierName": "Hogyoku_Barrier_Material"
            },
            {
              "$type": "BLCCGIPAOIP",
              "PLLJBINMGJK": "Start"
            }
          ]
        },
        "Hogyoku_Barrier_Material": {
          "modifierName": "",
          "IPFJJJGABPL": 100.0,
          "onAdded": [
            {
              "$type": "ANLOBBMKNIJ",
              "rotationDampTime": "Eff_Avatar_Hogyoku_Crystal",
              "PPPDJGDDOGD": 1.0,
              "AJDILHJFNKE": -1.0
            }
          ]
        },
        "Hogyoku_Barrier_Disappear": {
          "modifierName": "",
          "IPFJJJGABPL": 100.0,
          "onKill": [
            {
              "$type": "KBFEIHEAMBM",
              "predicates": [
                {
                  "$type": "BCFNGJHILAG",
                  "predicates": [
                    {
                      "$type": "GKDKGMAMGGN",
                      "talentParam": "Player_Rock_UnstablePrime"
                    }
                  ]
                }
              ],
              "rotationDampTime": "Eff_Avatar_Hogyoku_Crystal_Disappear",
              "PPPDJGDDOGD": 1.0,
              "AJDILHJFNKE": -1.0
            },
            {
              "$type": "PFKNEFGOHIH",
              "modifierName": "Hogyoku_Barrier_Material"
            }
          ]
        }
      },
      "onAdded": [
        {
          "$type": "KBFEIHEAMBM",
          "rotationDampTime": "Eff_Avatar_Hogyoku_Crystal_Impact",
          "PPPDJGDDOGD": 1.0,
          "AJDILHJFNKE": -1.0
        },
        {
          "$type": "PELJALPANCA",
          "modifierName": "Hogyoku_Barrier_Material_Timer"
        },
        {
          "$type": "PELJALPANCA",
          "modifierName": "Hogyoku_Barrier_Disappear"
        }
      ]
    }
  },
  {
    "Default": {
      "$type": "CBPBEHLOHKI",
      "abilityName": "Avatar_Player_RockTide",
      "abilityMixins": [
        {
          "$type": "EKMHJKDLBJH",
          "stateIDs": [
            "RockTide"
          ],
          "modifierName": "RockTide_Camera_Protection_Ghost",
          "DGFCLAIDIFI": ""
        },
        {
          "$type": "EKMHJKDLBJH",
          "stateIDs": [
            "RockTide"
          ],
          "modifierName": "RockTide_Camera_Protection_Invincible",
          "DGFCLAIDIFI": ""
        }
      ],
      "modifiers": {
        "RockTide_Camera_Protection_Ghost": {
          "modifierName": "",
          "IPFJJJGABPL": 100.0,
          "onAdded": [
            {
              "$type": "OPAOGKPJLIG",
              "resistanceListID": 11002
            }
          ]
        },
        "RockTide_Camera_Protection_Invincible": {
          "modifierName": "",
          "IPFJJJGABPL": 100.0,
          "state": "Invincible"
        }
      },
      "onAbilityStart": [
        {
          "$type": "JKFLDIKGJEF",
          "gadgetInfo": {
            "configID": 41005006
          }
        },
        {
          "$type": "KFCDMIMBBLD",
          "born": {
            "$type": "JHEBKCMEMLN",
            "offset": {
              "KGEPIMHBMOL": 0.0,
              "JEBHCGDPFEJ": 0.0,
              "LPCHALMFFOD": 0.0
            }
          },
          "gadgetID": 41005005,
          "campID": 1001,
          "campTargetType": "Enemy"
        },
        {
          "$type": "OCLNBBMMIOK",
          "skillID": 10078,
          "amountByTargetCurrentHPRatio": 1.0,
          "costStaminaRatio": 1.0
        }
      ],
      "isDynamicAbility": true
    }
  },
  {
    "Default": {
      "$type": "CBPBEHLOHKI",
      "abilityName": "Avatar_Player_RockTide_AttackWave",
      "abilitySpecials": {
        "ReviveElemEnergyRatio": 5.0,
        "GaeaAnthem_TimeDelta": 0.0,
        "GaeaAnthem_EndureDelta": 0.699999988079071,
        "GaeaAnthem_CriticalDelta": 0.10000000149011612,
        "AttackWaveDamage": 0.0
      },
      "modifiers": {
        "RockTide_Push": {
          "modifierName": "",
          "elementDurability": 1.2000000476837158,
          "IPFJJJGABPL": 100.0,
          "modifierMixins": [
            {
              "$type": "EIMGEIJIDNO",
              "shapeName": "CircleR6",
              "born": {
                "$type": "JHEBKCMEMLN",
                "offset": {
                  "KGEPIMHBMOL": 0.0,
                  "JEBHCGDPFEJ": 0.0,
                  "LPCHALMFFOD": 0.0
                }
              },
              "strength": -2.0,
              "IAELBHDMINN": 4.0,
              "MMBCLAEOEFB": 0.0,
              "targetType": "All",
              "predicates": [
                {
                  "$type": "NIMAPECDNKD",
                  "entityTypes": [
                    "Avatar"
                  ],
                  "reject": true
                },
                {
                  "$type": "GDIBFABBADA",
                  "logic": "LesserOrEqual",
                  "BHOOHGLJDHM": 100.0
                }
              ],
              "modifierName": ""
            }
          ]
        },
        "RockTide_Attack_Start": {
          "modifierName": "",
          "elementDurability": 1.100000023841858,
          "IPFJJJGABPL": 100.0,
          "thinkInterval": 0.25,
          "onRemoved": [
            {
              "$type": "GJCAPCBELPA",
              "abilityName": "Avatar_Player_RockTide_Barrier_Appear"
            }
          ],
          "onThinkInterval": [
            {
              "$type": "AIFPLABJNMA",
              "attackEvent": {
                "attackPattern": {
                  "$type": "GMDIMKKHACA",
                  "triggerType": "TriggerNoRepeat",
                  "born": {
                    "$type": "IAENDIPDFKD",
                    "offset": {
                      "KGEPIMHBMOL": 0.0,
                      "JEBHCGDPFEJ": 0.0,
                      "LPCHALMFFOD": 0.0
                    }
                  },
                  "height": 1.5,
                  "OAHPDLJIADP": 6.0
                },
                "attackInfo": {
                  "attackTag": "Elemental_Burst",
                  "attenuationTag": "Player_RockTide",
                  "attenuationGroup": "default",
                  "attackProperty": {
                    "actorGrassSubHurtDelta": "AttackWaveDamage",
                    "actorWindSubHurtDelta": 0.0,
                    "elementType": "Rock",
                    "elementRank": 3.0,
                    "IPFJJJGABPL": 50.0,
                    "strikeType": "Blunt",
                    "enBreak": 100.0,
                    "GLKMCMDJBIK": 0.0
                  },
                  "hitPattern": {
                    "onHitEffectName": "default",
                    "hitImpulseY": "",
                    "hitImpulseType": "LV4",
                    "retreatType": "ByHitDirection",
                    "hitHaltTimeScale": 0.05000000074505806
                  },
                  "forceCameraShake": true,
                  "cameraShake": {
                    "shakeRange": 0.03999999910593033,
                    "shakeTime": 0.20000000298023224
                  },
                  "canBeModifiedBy": "OriginOwner"
                }
              },
              "targetType": "Enemy"
            }
          ]
        },
        "RockTide_AttackWave_Material": {
          "modifierName": "",
          "elementDurability": [
            "GaeaAnthem_TimeDelta",
            18.0,
            "ADD"
          ],
          "IPFJJJGABPL": 100.0,
          "onAdded": [
            {
              "$type": "KBFEIHEAMBM",
              "rotationDampTime": "Eff_Avatar_RockTide_Crest_Move",
              "PPPDJGDDOGD": 1.0,
              "AJDILHJFNKE": -1.0
            }
          ],
          "onRemoved": [
            {
              "$type": "NCFFNDHGCMH"
            }
          ]
        },
        "RockTide_AttackWave_StarDustReturn": {
          "modifierName": "",
          "IPFJJJGABPL": 100.0,
          "onAttackLanded": [
            {
              "$type": "INBCDALOHMP",
              "target": "Target",
              "targetPredicates": [
                {
                  "$type": "NNEHDJHMING",
                  "attackTags": [
                    "Elemental_Burst"
                  ]
                },
                {
                  "$type": "NIMAPECDNKD",
                  "entityTypes": [
                    "Monster"
                  ]
                }
              ],
              "successActions": [
                {
                  "$type": "PELJALPANCA",
                  "target": "Target",
                  "predicates": [
                    {
                      "$type": "PEJAIAPIAJD",
                      "target": "Owner",
                      "elementType": "Rock"
                    }
                  ],
                  "modifierName": "StarDustReturn_Mark"
                }
              ]
            }
          ]
        },
        "StarDustReturn_Mark": {
          "modifierName": "",
          "elementDurability": 2.0,
          "IPFJJJGABPL": 100.0,
          "onAdded": [
            {
              "$type": "PELJALPANCA",
              "target": "CasterOriginOwner",
              "modifierName": "StarDustReturn_Restore"
            }
          ]
        },
        "StarDustReturn_Restore": {
          "stacking": "Multiple",
          "stackingOption": {
            "abilitySpecialName": "",
            "maxModifierNumForMultipleType": 5.0
          },
          "modifierName": "",
          "elementDurability": 1.5,
          "IPFJJJGABPL": 100.0,
          "onAdded": [
            {
              "$type": "AHCALEMEJPJ",
              "shieldHP": true,
              "param3": "ReviveElemEnergyRatio"
            }
          ]
        },
        "UNIQUE_RockTide_GaeaAnthem": {
          "modifierName": "",
          "forceTriggerWhenChangeAuthority": true,
          "elementDurability": [
            "GaeaAnthem_TimeDelta",
            15.0,
            "ADD"
          ],
          "IPFJJJGABPL": 100.0,
          "thinkInterval": 1.0,
          "onThinkInterval": [
            {
              "$type": "PELJALPANCA",
              "otherTargets": {
                "$type": "IJOFJOGLDHE",
                "shapeName": "CircleR7",
                "campTargetType": "Alliance",
                "doOffStage": 1.0
              },
              "predicates": [
                {
                  "$type": "NIMAPECDNKD",
                  "entityTypes": [
                    "Avatar"
                  ]
                }
              ],
              "modifierName": "UNIQUE_GaeaAnthem_PowerUp"
            }
          ]
        },
        "UNIQUE_GaeaAnthem_PowerUp": {
          "modifierName": "",
          "forceTriggerWhenChangeAuthority": true,
          "elementDurability": 2.0,
          "IPFJJJGABPL": 100.0,
          "properties": {
            "Actor_EndureDelta": "GaeaAnthem_EndureDelta",
            "Actor_CriticalDelta": "GaeaAnthem_CriticalDelta"
          },
          "isLimitedProperties": true
        }
      },
      "onAdded": [
        {
          "$type": "PELJALPANCA",
          "modifierName": "RockTide_Push"
        },
        {
          "$type": "PELJALPANCA",
          "modifierName": "RockTide_Attack_Start"
        },
        {
          "$type": "PELJALPANCA",
          "modifierName": "RockTide_AttackWave_Material"
        },
        {
          "$type": "PELJALPANCA",
          "predicates": [
            {
              "$type": "GKDKGMAMGGN",
              "talentParam": "Player_Rock_StarDustReturn"
            }
          ],
          "modifierName": "RockTide_AttackWave_StarDustReturn"
        },
        {
          "$type": "PFKNEFGOHIH",
          "predicates": [
            {
              "$type": "BCFNGJHILAG",
              "predicates": [
                {
                  "$type": "GKDKGMAMGGN",
                  "talentParam": "Player_Rock_StarDustReturn"
                }
              ]
            }
          ],
          "modifierName": "RockTide_AttackWave_StarDustReturn"
        },
        {
          "$type": "PELJALPANCA",
          "predicates": [
            {
              "$type": "GKDKGMAMGGN",
              "talentParam": "Player_Rock_GaeaAnthem"
            }
          ],
          "modifierName": "UNIQUE_RockTide_GaeaAnthem"
        },
        {
          "$type": "KBODPNEEFGD",
          "predicates": [
            {
              "$type": "BCFNGJHILAG",
              "predicates": [
                {
                  "$type": "GKDKGMAMGGN",
                  "talentParam": "Player_Rock_GaeaAnthem"
                }
              ]
            }
          ],
          "modifierName": "UNIQUE_RockTide_GaeaAnthem"
        }
      ]
    }
  },
  {
    "Default": {
      "$type": "CBPBEHLOHKI",
      "abilityName": "Avatar_Player_RockTide_Barrier_Appear",
      "onAbilityStart": [
        {
          "$type": "KFCDMIMBBLD",
          "born": {
            "$type": "JHEBKCMEMLN",
            "offset": {
              "KGEPIMHBMOL": 2.75,
              "JEBHCGDPFEJ": 0.0,
              "LPCHALMFFOD": 6.670000076293945
            },
            "onGround": true,
            "onGroundIgnoreWater": true,
            "direction": {
              "$type": "PIKKPLPCLKE",
              "namedTransform": ""
            },
            "alongGround": true
          },
          "gadgetID": 41005006,
          "campID": 1001,
          "campTargetType": "Enemy"
        },
        {
          "$type": "KFCDMIMBBLD",
          "born": {
            "$type": "JHEBKCMEMLN",
            "offset": {
              "KGEPIMHBMOL": -2.75,
              "JEBHCGDPFEJ": 0.0,
              "LPCHALMFFOD": -6.670000076293945
            },
            "onGround": true,
            "onGroundIgnoreWater": true,
            "direction": {
              "$type": "PIKKPLPCLKE",
              "namedTransform": ""
            },
            "alongGround": true
          },
          "gadgetID": 41005006,
          "campID": 1001,
          "campTargetType": "Enemy"
        },
        {
          "$type": "KFCDMIMBBLD",
          "born": {
            "$type": "JHEBKCMEMLN",
            "offset": {
              "KGEPIMHBMOL": 6.670000076293945,
              "JEBHCGDPFEJ": 0.0,
              "LPCHALMFFOD": -2.75
            },
            "onGround": true,
            "onGroundIgnoreWater": true,
            "direction": {
              "$type": "PIKKPLPCLKE",
              "namedTransform": ""
            },
            "alongGround": true
          },
          "gadgetID": 41005006,
          "campID": 1001,
          "campTargetType": "Enemy"
        },
        {
          "$type": "KFCDMIMBBLD",
          "born": {
            "$type": "JHEBKCMEMLN",
            "offset": {
              "KGEPIMHBMOL": -6.670000076293945,
              "JEBHCGDPFEJ": 0.0,
              "LPCHALMFFOD": 2.75
            },
            "onGround": true,
            "onGroundIgnoreWater": true,
            "direction": {
              "$type": "PIKKPLPCLKE",
              "namedTransform": ""
            },
            "alongGround": true
          },
          "gadgetID": 41005006,
          "campID": 1001,
          "campTargetType": "Enemy"
        }
      ]
    }
  },
  {
    "Default": {
      "$type": "CBPBEHLOHKI",
      "abilityName": "Avatar_Player_RockTide_Barrier",
      "abilitySpecials": {
        "BarrierHP": 0.25,
        "BarrierLifeTimeDelta": 0.0
      },
      "modifiers": {
        "Barrier_Stat": {
          "modifierName": "",
          "elementDurability": [
            "BarrierLifeTimeDelta",
            15.0,
            "ADD"
          ],
          "IPFJJJGABPL": 100.0,
          "properties": {
            "Actor_MaxHPRatio": "BarrierHP"
          },
          "onRemoved": [
            {
              "$type": "NCFFNDHGCMH"
            }
          ]
        },
        "Barrier_Material_Timer": {
          "modifierName": "",
          "elementDurability": 0.05000000074505806,
          "IPFJJJGABPL": 100.0,
          "onRemoved": [
            {
              "$type": "PELJALPANCA",
              "modifierName": "Barrier_Material"
            },
            {
              "$type": "BLCCGIPAOIP",
              "PLLJBINMGJK": "Start"
            }
          ]
        },
        "Barrier_Material": {
          "modifierName": "",
          "IPFJJJGABPL": 100.0,
          "onAdded": [
            {
              "$type": "ANLOBBMKNIJ",
              "rotationDampTime": "Eff_Avatar_RockTide_RockWall",
              "PPPDJGDDOGD": 1.0,
              "AJDILHJFNKE": -1.0
            }
          ],
          "onKill": [
            {
              "$type": "KBFEIHEAMBM",
              "rotationDampTime": "Eff_Avatar_RockTide_RockWall_Disappear",
              "PPPDJGDDOGD": 1.0,
              "AJDILHJFNKE": -1.0
            }
          ]
        },
        "Barrier_Damage": {
          "modifierName": "",
          "IPFJJJGABPL": 100.0
        },
        "Barrier_Damage_Modifier": {
          "modifierName": "",
          "elementDurability": 0.10000000149011612,
          "IPFJJJGABPL": 100.0,
          "onAdded": [
            {
              "$type": "AIFPLABJNMA",
              "target": "Caster",
              "attackEvent": {
                "attackPattern": {
                  "$type": "BELNOFAKNBA",
                  "triggerType": "TriggerNoRepeat",
                  "born": {
                    "$type": "IAENDIPDFKD"
                  },
                  "OAHPDLJIADP": 1.0
                },
                "attackInfo": {
                  "attackTag": "",
                  "attenuationTag": "",
                  "attenuationGroup": "default",
                  "attackProperty": {
                    "actorGrassSubHurtDelta": 0.10000000149011612,
                    "actorWindSubHurtDelta": 0.0,
                    "elementType": "Rock",
                    "elementRank": 1.5,
                    "IPFJJJGABPL": 25.0,
                    "strikeType": "Default",
                    "enBreak": 10.59000015258789,
                    "GLKMCMDJBIK": 0.0
                  },
                  "hitPattern": {
                    "onHitEffectName": "",
                    "hitImpulseY": "",
                    "hitImpulseType": "LV3",
                    "hitHaltTimeScale": 0.05000000074505806
                  }
                }
              },
              "targetType": "Enemy"
            }
          ]
        }
      },
      "onAdded": [
        {
          "$type": "PELJALPANCA",
          "modifierName": "Barrier_Stat"
        },
        {
          "$type": "KBFEIHEAMBM",
          "rotationDampTime": "Eff_Avatar_RockTide_RockWall_Impact",
          "PPPDJGDDOGD": 1.0,
          "AJDILHJFNKE": -1.0
        },
        {
          "$type": "PELJALPANCA",
          "modifierName": "Barrier_Material_Timer"
        }
      ]
    }
  },
  {
    "Default": {
      "$type": "CBPBEHLOHKI",
      "abilityName": "Avatar_Player_Rock_Avalanche",
      "abilitySpecials": {
        "Avalanche_Damage": 0.6000000238418579
      },
      "onAbilityStart": [
        {
          "$type": "AIFPLABJNMA",
          "predicates": [
            {
              "$type": "GKDKGMAMGGN",
              "talentParam": "Player_Rock_Avalanche"
            }
          ],
          "attackEvent": {
            "attackPattern": {
              "$type": "BELNOFAKNBA",
              "triggerType": "TriggerNoRepeat",
              "born": {
                "$type": "IAENDIPDFKD",
                "offset": {
                  "KGEPIMHBMOL": 0.0,
                  "JEBHCGDPFEJ": 1.0,
                  "LPCHALMFFOD": 1.2000000476837158
                }
              },
              "OAHPDLJIADP": 2.4000000953674316
            },
            "attackInfo": {
              "attackTag": "NormalAttack_05",
              "attenuationTag": "",
              "attenuationGroup": "default",
              "attackProperty": {
                "actorGrassSubHurtDelta": "Avalanche_Damage",
                "actorWindSubHurtDelta": 0.0,
                "elementType": "Rock",
                "IPFJJJGABPL": 25.0,
                "strikeType": "Blunt",
                "enBreak": 13.5,
                "attackType": "Melee",
                "GLKMCMDJBIK": 0.0
              },
              "hitPattern": {
                "onHitEffectName": "default",
                "hitImpulseY": "",
                "hitImpulseType": "LV2",
                "hitHaltTimeScale": 0.05000000074505806
              },
              "cameraShake": {
                "shakeRange": 0.07999999821186066,
                "shakeTime": 0.03999999910593033
              }
            }
          },
          "targetType": "Enemy"
        },
        {
          "$type": "KBFEIHEAMBM",
          "predicates": [
            {
              "$type": "GKDKGMAMGGN",
              "talentParam": "Player_Rock_Avalanche"
            }
          ],
          "rotationDampTime": "Eff_Avatar_RockBlade_Explode",
          "PPPDJGDDOGD": 1.0,
          "AJDILHJFNKE": -1.0
        }
      ],
      "isDynamicAbility": true
    }
  },
  {
    "Default": {
      "$type": "CBPBEHLOHKI",
      "abilityName": "Avatar_Player_Rock_Climber",
      "abilityMixins": [
        {
          "$type": "EKMHJKDLBJH",
          "stateIDs": [
            "Climb"
          ],
          "modifierName": "Player_Rock_Climber",
          "DGFCLAIDIFI": ""
        }
      ],
      "abilitySpecials": {
        "Climber_CostStaminaRatio": -0.07999999821186066
      },
      "modifiers": {
        "Player_Rock_Climber": {
          "modifierName": "",
          "IPFJJJGABPL": 100.0,
          "properties": {
            "Actor_CostStaminaRatio": "Climber_CostStaminaRatio"
          },
          "isLimitedProperties": true
        }
      },
      "isDynamicAbility": true
    }
  }
]