{
  "activityID": 2028,
  "preQuestConfig": {
    "preQuestList": [
      {
        "PCMLOAIAKHM": [
          396
        ],
        "untakeDisplay": [
          {
            "$type": "PMENINONJME",
            "overrideText": "UI_ACTIVITY_PRE_UNFINISHED_CHAPTER"
          }
        ],
        "takeDisplay": [
          {
            "$type": "PMENINONJME",
            "overrideText": "UI_ACTIVITY_PRE_UNFINISHED_CHAPTER"
          }
        ]
      },
      {
        "PCMLOAIAKHM": [
          4013904
        ],
        "isMainQuestID": false,
        "takeBehaviour": [
          {
            "$type": "KBOHKHCCELG"
          }
        ],
        "takeDisplay": [
          {
            "$type": "NPOJFMMLIFM",
            "overrideText": ""
          }
        ]
      }
    ],
    "quickOpenConfirmTitle": "",
    "quickOpenConfirmDesc": "",
    "redPointGroup": [
      [
        396
      ],
      [
        4013904
      ]
    ],
    "recommendConfig": {
      "IFMCEAAGEFN": [
        396
      ],
      "AFEGNNGPPHP": [
        1025,
        11035
      ]
    }
  }
}