{
  "activityID": 5133,
  "preQuestConfig": {
    "preQuestList": [
      {
        "PCMLOAIAKHM": [
          396
        ],
        "untakeDisplay": [
          {
            "$type": "PMENINONJME",
            "overrideText": ""
          }
        ],
        "takeDisplay": [
          {
            "$type": "PMENINONJME",
            "overrideText": ""
          }
        ]
      },
      {
        "PCMLOAIAKHM": [
          70674
        ],
        "takeBehaviour": [
          {
            "$type": "KBOHKHCCELG"
          }
        ],
        "takeDisplay": [
          {
            "$type": "NPOJFMMLIFM",
            "overrideText": ""
          }
        ]
      }
    ],
    "quickOpenConfirmTitle": "",
    "quickOpenConfirmDesc": "",
    "redPointGroup": [
      [
        396
      ]
    ]
  }
}