{
  "activityID": 5147,
  "preQuestConfig": {
    "preQuestList": [
      {
        "PCMLOAIAKHM": [
          74668
        ],
        "skipList": [
          {
            "$type": "LFPIJKHLNHF"
          }
        ],
        "untakeBehaviour": [
          {
            "$type": "CJLFBKMNNPK",
            "markID": 770
          }
        ],
        "untakeDisplay": [
          {
            "$type": "NDBIACKNGDF",
            "overrideBannerText": "UI_ACTIVITY_PHOTOUNDERSEA_DIVEUNLOCKTIPS",
            "overrideButtonText": "UI_ACTIVITY_PHOTOUNDERSEA_DIVEUNLOCKBUTTON"
          }
        ],
        "takeBehaviour": [
          {
            "$type": "CJLFBKMNNPK",
            "markID": 770
          }
        ],
        "takeDisplay": [
          {
            "$type": "NDBIACKNGDF",
            "overrideBannerText": "UI_ACTIVITY_PHOTOUNDERSEA_DIVEUNLOCKTIPS",
            "overrideButtonText": "UI_ACTIVITY_PHOTOUNDERSEA_DIVEUNLOCKBUTTON"
          }
        ]
      },
      {
        "PCMLOAIAKHM": [
          74669
        ],
        "takeBehaviour": [
          {
            "$type": "KBOHKHCCELG"
          }
        ],
        "takeDisplay": [
          {
            "$type": "NPOJFMMLIFM",
            "overrideText": ""
          }
        ]
      }
    ],
    "quickOpenConfirmTitle": "",
    "quickOpenConfirmDesc": "",
    "redPointGroup": [
      [
        74668
      ],
      [
        74669
      ]
    ]
  }
}