{
  "activityID": 5172,
  "preQuestConfig": {
    "preQuestList": [
      {
        "PCMLOAIAKHM": [
          396
        ],
        "untakeDisplay": [
          {
            "$type": "PMENINONJME",
            "overrideText": "UI_ACTIVITY_EFFIGYV4_PREQUEST"
          }
        ],
        "takeDisplay": [
          {
            "$type": "PMENINONJME",
            "overrideText": ""
          }
        ]
      },
      {
        "PCMLOAIAKHM": [
          74677
        ],
        "takeBehaviour": [
          {
            "$type": "KBOHKHCCELG"
          }
        ],
        "takeDisplay": [
          {
            "$type": "NPOJFMMLIFM",
            "overrideText": ""
          }
        ]
      }
    ],
    "quickOpenConfirmTitle": "",
    "quickOpenConfirmDesc": "",
    "redPointGroup": [
      [
        396
      ],
      [
        74677
      ]
    ]
  }
}