{
  "activityID": 5174,
  "preQuestConfig": {
    "preQuestList": [
      {
        "PCMLOAIAKHM": [
          74668
        ],
        "skipList": [
          {
            "$type": "LFPIJKHLNHF"
          }
        ],
        "untakeBehaviour": [
          {
            "$type": "CJLFBKMNNPK",
            "markID": 770
          }
        ],
        "untakeDisplay": [
          {
            "$type": "NDBIACKNGDF",
            "overrideBannerText": "UI_ACTIVITY_TREASUREHUNTV4_CURRENT_STATUE_UNLOCK",
            "overrideButtonText": "UI_ACTIVITY_NEW_REGION_UNLOCK_BUTTON"
          }
        ],
        "takeBehaviour": [
          {
            "$type": "CJLFBKMNNPK",
            "markID": 770
          }
        ],
        "takeDisplay": [
          {
            "$type": "NDBIACKNGDF",
            "overrideBannerText": "UI_ACTIVITY_TREASUREHUNTV4_CURRENT_STATUE_UNLOCK",
            "overrideButtonText": "UI_ACTIVITY_NEW_REGION_UNLOCK_BUTTON"
          }
        ]
      },
      {
        "PCMLOAIAKHM": [
          74673
        ],
        "takeBehaviour": [
          {
            "$type": "KBOHKHCCELG"
          }
        ],
        "takeDisplay": [
          {
            "$type": "NPOJFMMLIFM",
            "overrideText": ""
          }
        ]
      }
    ],
    "quickOpenConfirmTitle": "",
    "quickOpenConfirmDesc": "",
    "redPointGroup": [
      [
        74668
      ],
      [
        74673
      ]
    ]
  }
}