{
  "activityID": 5184,
  "preQuestConfig": {
    "preQuestList": [
      {
        "PCMLOAIAKHM": [
          396
        ],
        "untakeDisplay": [
          {
            "$type": "PMENINONJME",
            "overrideText": "UI_ACTIVITY_PRE_UNFINISHED_CHAPTER"
          }
        ],
        "takeDisplay": [
          {
            "$type": "PMENINONJME",
            "overrideText": "UI_ACTIVITY_PRE_UNFINISHED_CHAPTER"
          }
        ]
      },
      {
        "PCMLOAIAKHM": [
          74511
        ],
        "takeBehaviour": [
          {
            "$type": "KBOHKHCCELG"
          }
        ],
        "takeDisplay": [
          {
            "$type": "NPOJFMMLIFM",
            "overrideText": ""
          }
        ]
      }
    ],
    "quickOpenConfirmTitle": "",
    "quickOpenConfirmDesc": "",
    "redPointGroup": [
      [
        396
      ],
      [
        74511
      ]
    ]
  }
}