{
  "activityID": 5189,
  "preQuestConfig": {
    "preQuestList": [
      {
        "PCMLOAIAKHM": [
          1025
        ],
        "untakeDisplay": [
          {
            "$type": "PMENINONJME",
            "overrideText": ""
          }
        ],
        "takeDisplay": [
          {
            "$type": "PMENINONJME",
            "overrideText": ""
          }
        ]
      }
    ],
    "quickOpenConfirmTitle": "",
    "quickOpenConfirmDesc": "",
    "redPointGroup": [
      [
        1025
      ]
    ],
    "recommendConfig": {
      "IFMCEAAGEFN": [
        1025
      ],
      "AFEGNNGPPHP": [
        71125
      ]
    }
  }
}