{
  "luaDataPath": "",
  "startBlackKeepTime": 0.5,
  "entityBan": "",
  "disableNpcLod": true,
  "isAutoBanNpc": true,
  "isBanWidgetPet": true,
  "protectNpcMobileLod": true,
  "talkFlag": 5,
  "startFade": {
    "startFadeInDuration": 0.5,
    "startFadeOutDuration": 0.5
  },
  "endFade": {
    "startFadeOutDuration": 0.0
  },
  "actors": [
    {
      "alias": "Avatar",
      "visible": true,
      "bornPointName": "[3_4535:390.447,312.914,5703.516,0.000,316.086,0.000]",
      "relativePosType": "AVATAR_NEW",
      "relativePosNpcAlias": "",
      "_bindMovingTargetKey": ""
    },
    {
      "alias": "AvatarNpc",
      "visible": true,
      "bornPointName": "[3_4535:390.447,312.914,5703.516,0.000,316.086,0.000]",
      "removeActorType": "NEW_REMOVE",
      "relativePosType": "AVATAR_NEW",
      "relativePosNpcAlias": "",
      "_bindMovingTargetKey": ""
    },
    {
      "configID": 1005,
      "alias": "1005",
      "visible": true,
      "bornPointName": "",
      "useRelativePos": true,
      "relativePos": {
        "x": -0.6000000238418579,
        "z": 0.10000000149011612
      },
      "removeActorType": "NEW_REMOVE_WITH_DISAPPEAR",
      "relativePosType": "AVATAR_NEW",
      "relativePosNpcAlias": "",
      "_bindMovingTargetKey": ""
    },
    {
      "configID": 20883,
      "alias": "20883",
      "visible": true,
      "bornPointName": "",
      "useRelativePos": true,
      "relativePos": {
        "x": 0.699999988079071
      },
      "removeActorType": "NEW_REMOVE_WITH_DISAPPEAR",
      "relativePosType": "AVATAR_NEW",
      "relativePosNpcAlias": "",
      "_bindMovingTargetKey": ""
    },
    {
      "configID": 4284,
      "alias": "4284",
      "visible": true,
      "bornPointName": "",
      "relativePosType": "AVATAR_NEW",
      "relativePosNpcAlias": "",
      "_bindMovingTargetKey": ""
    }
  ],
  "group": [
    [
      {
        "$type": "MoleMole.Config.ConfigTimeProtectAction",
        "type": "TIME_PROTECT",
        "duration": 1.0,
        "actionId": 104
      },
      {
        "$type": "MoleMole.Config.ConfigBlackScreenAction",
        "type": "BLACK_SCREEN",
        "duration": 1.0,
        "actionId": 214,
        "blackScreenType": "KEEP_BLACK",
        "durationToBlack": 0.5,
        "durationKeepBlack": 1.0,
        "durationFromBlack": 0.5,
        "inteePos": "",
        "textMapID": "",
        "useTextFade": true
      },
      {
        "$type": "MoleMole.Config.ConfigSitOrStandAction",
        "type": "SIT_OR_STAND",
        "aliasList": [
          "Avatar"
        ],
        "actionId": 222,
        "banResetFreestyle": true
      },
      {
        "$type": "MoleMole.Config.ConfigVisibleInterAction",
        "type": "VISIBLE",
        "aliasList": [
          "Avatar"
        ],
        "actionId": 233,
        "_extraParam": ""
      },
      {
        "$type": "MoleMole.Config.ConfigPlayerNPCEnergyTypeAction",
        "type": "SET_PLAYER_NPC_ENERGY_TYPE",
        "aliasList": [
          "AvatarNpc"
        ],
        "actionId": 223,
        "setHeroEngergyType": true
      },
      {
        "$type": "LLGANGLOEEO",
        "type": "STEER_TO",
        "duration": 1.0,
        "aliasList": [
          "AvatarNpc"
        ],
        "actionId": 224,
        "steerType": "RETURN",
        "useSteerAnim": true,
        "interruptFreestyle": true,
        "forceSteer": true,
        "targetNpcAlias": "",
        "ignoreY": true,
        "fixInterNull": true,
        "OAFJBHJHLJG": ""
      },
      {
        "$type": "LLGANGLOEEO",
        "type": "STEER_TO",
        "duration": 1.0,
        "aliasList": [
          "1005"
        ],
        "actionId": 226,
        "steerType": "RETURN",
        "useSteerAnim": true,
        "interruptFreestyle": true,
        "forceSteer": true,
        "targetNpcAlias": "",
        "ignoreY": true,
        "fixInterNull": true,
        "OAFJBHJHLJG": ""
      },
      {
        "$type": "LLGANGLOEEO",
        "type": "STEER_TO",
        "duration": 1.0,
        "aliasList": [
          "20883"
        ],
        "actionId": 228,
        "steerType": "RETURN",
        "useSteerAnim": true,
        "interruptFreestyle": true,
        "forceSteer": true,
        "targetNpcAlias": "",
        "ignoreY": true,
        "fixInterNull": true,
        "OAFJBHJHLJG": ""
      },
      {
        "$type": "LLGANGLOEEO",
        "type": "STEER_TO",
        "duration": 1.0,
        "aliasList": [
          "4284"
        ],
        "actionId": 230,
        "steerType": "RETURN",
        "useSteerAnim": true,
        "interruptFreestyle": true,
        "forceSteer": true,
        "targetNpcAlias": "",
        "ignoreY": true,
        "fixInterNull": true,
        "OAFJBHJHLJG": ""
      }
    ],
    [
      {
        "$type": "MoleMole.Config.ConfigBlackScreenAction",
        "type": "BLACK_SCREEN",
        "duration": 0.5,
        "actionId": 215,
        "blackScreenType": "FROM_BLACK",
        "durationToBlack": 0.5,
        "durationKeepBlack": 0.5,
        "durationFromBlack": 0.5,
        "inteePos": "",
        "textMapID": "",
        "useTextFade": true
      },
      {
        "$type": "PKKMAMONGEO",
        "type": "DIALOG",
        "aliasList": [
          "1005"
        ],
        "actionId": 107,
        "dialogID": 732570201,
        "protectTime": 0.5
      }
    ],
    [
      {
        "$type": "PKKMAMONGEO",
        "type": "DIALOG",
        "aliasList": [
          "4284"
        ],
        "actionId": 109,
        "dialogID": 732570202,
        "protectTime": 0.5
      }
    ],
    [
      {
        "$type": "PKKMAMONGEO",
        "type": "DIALOG",
        "aliasList": [
          "4284"
        ],
        "actionId": 111,
        "dialogID": 732570203,
        "protectTime": 0.5
      },
      {
        "$type": "HDGKHDNFMIM",
        "type": "DIALOG_SELECT",
        "delayTime": 0.4000000059604645,
        "aliasList": [
          "AvatarNpc"
        ],
        "actionId": 217,
        "dialogIDList": [
          732570204,
          732570205
        ],
        "grpIDList": [
          3122218411,
          3122218411
        ],
        "useGrpId": true,
        "countDownGrpId": 3122218406
      }
    ],
    [
      {
        "$type": "PKKMAMONGEO",
        "type": "DIALOG",
        "aliasList": [
          "4284"
        ],
        "actionId": 114,
        "dialogID": 732570206,
        "protectTime": 0.5
      }
    ],
    [
      {
        "$type": "PKKMAMONGEO",
        "type": "DIALOG",
        "aliasList": [
          "4284"
        ],
        "actionId": 116,
        "dialogID": 732570207,
        "protectTime": 0.5
      }
    ],
    [
      {
        "$type": "PKKMAMONGEO",
        "type": "DIALOG",
        "aliasList": [
          "1005"
        ],
        "actionId": 118,
        "dialogID": 732570208,
        "protectTime": 0.5
      }
    ],
    [
      {
        "$type": "PKKMAMONGEO",
        "type": "DIALOG",
        "aliasList": [
          "4284"
        ],
        "actionId": 120,
        "dialogID": 732570209,
        "protectTime": 0.5
      },
      {
        "$type": "HDGKHDNFMIM",
        "type": "DIALOG_SELECT",
        "delayTime": 0.4000000059604645,
        "aliasList": [
          "AvatarNpc"
        ],
        "actionId": 218,
        "dialogIDList": [
          732570210,
          732570212
        ],
        "grpIDList": [
          3122218415,
          2299490153
        ],
        "useGrpId": true,
        "countDownGrpId": 3122218406
      }
    ],
    [
      {
        "$type": "PKKMAMONGEO",
        "type": "DIALOG",
        "aliasList": [
          "4284"
        ],
        "actionId": 123,
        "dialogID": 732570211,
        "protectTime": 0.5
      }
    ],
    [
      {
        "$type": "PKKMAMONGEO",
        "type": "DIALOG",
        "aliasList": [
          "4284"
        ],
        "actionId": 125,
        "dialogID": 732570213,
        "protectTime": 0.5
      }
    ],
    [
      {
        "$type": "MoleMole.Config.ConfigSimpleBlackScreenAction",
        "type": "SIMPLE_BLACK_SCREEN",
        "actionId": 127,
        "durationToBlack": 0.5,
        "durationKeepBlack": 3.0,
        "durationFromBlack": 0.5,
        "textMapID": "",
        "useTextFade": true,
        "_dialogID": 732570214
      },
      {
        "$type": "PKKMAMONGEO",
        "type": "DIALOG_CLEAR",
        "actionId": 128
      }
    ],
    [
      {
        "$type": "PKKMAMONGEO",
        "type": "DIALOG",
        "aliasList": [
          "4284"
        ],
        "actionId": 130,
        "dialogID": 732570215,
        "protectTime": 0.5
      }
    ],
    [
      {
        "$type": "PKKMAMONGEO",
        "type": "DIALOG",
        "aliasList": [
          "4284"
        ],
        "actionId": 132,
        "dialogID": 732570216,
        "protectTime": 0.5
      }
    ],
    [
      {
        "$type": "PKKMAMONGEO",
        "type": "DIALOG",
        "aliasList": [
          "1005"
        ],
        "actionId": 134,
        "dialogID": 732570217,
        "protectTime": 0.5
      }
    ],
    [
      {
        "$type": "PKKMAMONGEO",
        "type": "DIALOG",
        "aliasList": [
          "4284"
        ],
        "actionId": 136,
        "dialogID": 732570218,
        "protectTime": 0.5
      }
    ],
    [
      {
        "$type": "PKKMAMONGEO",
        "type": "DIALOG",
        "aliasList": [
          "4284"
        ],
        "actionId": 138,
        "dialogID": 732570219,
        "protectTime": 0.5
      }
    ],
    [
      {
        "$type": "PKKMAMONGEO",
        "type": "DIALOG",
        "aliasList": [
          "4284"
        ],
        "actionId": 140,
        "dialogID": 732570220,
        "protectTime": 0.5
      }
    ],
    [
      {
        "$type": "PKKMAMONGEO",
        "type": "DIALOG",
        "aliasList": [
          "4284"
        ],
        "actionId": 142,
        "dialogID": 732570221,
        "protectTime": 0.5
      }
    ],
    [
      {
        "$type": "PKKMAMONGEO",
        "type": "DIALOG",
        "aliasList": [
          "4284"
        ],
        "actionId": 144,
        "dialogID": 732570222,
        "protectTime": 0.5
      }
    ],
    [
      {
        "$type": "PKKMAMONGEO",
        "type": "DIALOG",
        "aliasList": [
          "4284"
        ],
        "actionId": 146,
        "dialogID": 732570223,
        "protectTime": 0.5
      }
    ],
    [
      {
        "$type": "PKKMAMONGEO",
        "type": "DIALOG",
        "aliasList": [
          "4284"
        ],
        "actionId": 148,
        "dialogID": 732570224,
        "protectTime": 0.5
      }
    ],
    [
      {
        "$type": "PKKMAMONGEO",
        "type": "DIALOG",
        "aliasList": [
          "4284"
        ],
        "actionId": 150,
        "dialogID": 732570225,
        "protectTime": 0.5
      }
    ],
    [
      {
        "$type": "PKKMAMONGEO",
        "type": "DIALOG",
        "aliasList": [
          "1005"
        ],
        "actionId": 152,
        "dialogID": 732570226,
        "protectTime": 0.5
      },
      {
        "$type": "HDGKHDNFMIM",
        "type": "DIALOG_SELECT",
        "delayTime": 0.4000000059604645,
        "aliasList": [
          "AvatarNpc"
        ],
        "actionId": 219,
        "dialogIDList": [
          732570227
        ],
        "grpIDList": [
          2299490188
        ],
        "useGrpId": true,
        "countDownGrpId": 3122218406
      }
    ],
    [
      {
        "$type": "PKKMAMONGEO",
        "type": "DIALOG",
        "aliasList": [
          "4284"
        ],
        "actionId": 155,
        "dialogID": 732570228,
        "protectTime": 0.5
      }
    ],
    [
      {
        "$type": "PKKMAMONGEO",
        "type": "DIALOG",
        "aliasList": [
          "4284"
        ],
        "actionId": 157,
        "dialogID": 732570229,
        "protectTime": 0.5
      }
    ],
    [
      {
        "$type": "PKKMAMONGEO",
        "type": "DIALOG",
        "aliasList": [
          "4284"
        ],
        "actionId": 159,
        "dialogID": 732570230,
        "protectTime": 0.5
      }
    ],
    [
      {
        "$type": "PKKMAMONGEO",
        "type": "DIALOG",
        "aliasList": [
          "4284"
        ],
        "actionId": 161,
        "dialogID": 732570231,
        "protectTime": 0.5
      }
    ],
    [
      {
        "$type": "PKKMAMONGEO",
        "type": "DIALOG",
        "aliasList": [
          "1005"
        ],
        "actionId": 163,
        "dialogID": 732570232,
        "protectTime": 0.5
      },
      {
        "$type": "HDGKHDNFMIM",
        "type": "DIALOG_SELECT",
        "delayTime": 0.4000000059604645,
        "aliasList": [
          "AvatarNpc"
        ],
        "actionId": 220,
        "dialogIDList": [
          732570233
        ],
        "grpIDList": [
          2299490193
        ],
        "useGrpId": true,
        "countDownGrpId": 3122218406
      }
    ],
    [
      {
        "$type": "PKKMAMONGEO",
        "type": "DIALOG",
        "aliasList": [
          "20883"
        ],
        "actionId": 166,
        "dialogID": 732570234,
        "protectTime": 0.5
      }
    ],
    [
      {
        "$type": "PKKMAMONGEO",
        "type": "DIALOG",
        "aliasList": [
          "4284"
        ],
        "actionId": 168,
        "dialogID": 732570235,
        "protectTime": 0.5
      }
    ],
    [
      {
        "$type": "PKKMAMONGEO",
        "type": "DIALOG",
        "aliasList": [
          "4284"
        ],
        "actionId": 170,
        "dialogID": 732570236,
        "protectTime": 0.5
      }
    ],
    [
      {
        "$type": "PKKMAMONGEO",
        "type": "DIALOG",
        "aliasList": [
          "4284"
        ],
        "actionId": 172,
        "dialogID": 732570237,
        "protectTime": 0.5
      }
    ],
    [
      {
        "$type": "PKKMAMONGEO",
        "type": "DIALOG",
        "aliasList": [
          "20883"
        ],
        "actionId": 174,
        "dialogID": 732570238,
        "protectTime": 0.5
      }
    ],
    [
      {
        "$type": "PKKMAMONGEO",
        "type": "DIALOG",
        "aliasList": [
          "4284"
        ],
        "actionId": 176,
        "dialogID": 732570239,
        "protectTime": 0.5
      },
      {
        "$type": "HDGKHDNFMIM",
        "type": "DIALOG_SELECT",
        "delayTime": 0.4000000059604645,
        "aliasList": [
          "AvatarNpc"
        ],
        "actionId": 221,
        "dialogIDList": [
          732570240
        ],
        "grpIDList": [
          2299490220
        ],
        "useGrpId": true,
        "countDownGrpId": 3122218406
      }
    ],
    [
      {
        "$type": "PKKMAMONGEO",
        "type": "DIALOG",
        "aliasList": [
          "1005"
        ],
        "actionId": 179,
        "dialogID": 732570241,
        "protectTime": 0.5
      }
    ],
    [
      {
        "$type": "PKKMAMONGEO",
        "type": "DIALOG",
        "aliasList": [
          "4284"
        ],
        "actionId": 181,
        "dialogID": 732570242,
        "protectTime": 0.5
      }
    ],
    [
      {
        "$type": "PKKMAMONGEO",
        "type": "DIALOG",
        "aliasList": [
          "4284"
        ],
        "actionId": 183,
        "dialogID": 732570243,
        "protectTime": 0.5
      }
    ],
    [
      {
        "$type": "PKKMAMONGEO",
        "type": "DIALOG",
        "aliasList": [
          "4284"
        ],
        "actionId": 185,
        "dialogID": 732570244,
        "protectTime": 0.5
      }
    ],
    [
      {
        "$type": "PKKMAMONGEO",
        "type": "DIALOG",
        "aliasList": [
          "4284"
        ],
        "actionId": 187,
        "dialogID": 732570245,
        "protectTime": 0.5
      }
    ],
    [
      {
        "$type": "PKKMAMONGEO",
        "type": "DIALOG",
        "aliasList": [
          "4284"
        ],
        "actionId": 189,
        "dialogID": 732570246,
        "protectTime": 0.5
      }
    ],
    [
      {
        "$type": "PKKMAMONGEO",
        "type": "DIALOG",
        "aliasList": [
          "1005"
        ],
        "actionId": 191,
        "dialogID": 732570247,
        "protectTime": 0.5
      }
    ],
    [
      {
        "$type": "PKKMAMONGEO",
        "type": "DIALOG",
        "aliasList": [
          "4284"
        ],
        "actionId": 193,
        "dialogID": 732570248,
        "protectTime": 0.5
      }
    ],
    [
      {
        "$type": "PKKMAMONGEO",
        "type": "DIALOG",
        "aliasList": [
          "4284"
        ],
        "actionId": 195,
        "dialogID": 732570249,
        "protectTime": 0.5
      }
    ],
    [
      {
        "$type": "PKKMAMONGEO",
        "type": "DIALOG",
        "aliasList": [
          "4284"
        ],
        "actionId": 197,
        "dialogID": 732570250,
        "protectTime": 0.5
      }
    ],
    [
      {
        "$type": "PKKMAMONGEO",
        "type": "DIALOG",
        "aliasList": [
          "4284"
        ],
        "actionId": 199,
        "dialogID": 732570251,
        "protectTime": 0.5
      }
    ],
    [
      {
        "$type": "PKKMAMONGEO",
        "type": "DIALOG",
        "aliasList": [
          "4284"
        ],
        "actionId": 201,
        "dialogID": 732570252,
        "protectTime": 0.5
      }
    ],
    [
      {
        "$type": "PKKMAMONGEO",
        "type": "DIALOG",
        "aliasList": [
          "4284"
        ],
        "actionId": 203,
        "dialogID": 732570253,
        "protectTime": 0.5
      }
    ],
    [
      {
        "$type": "PKKMAMONGEO",
        "type": "DIALOG",
        "aliasList": [
          "4284"
        ],
        "actionId": 205,
        "dialogID": 732570254,
        "protectTime": 0.5
      }
    ],
    [
      {
        "$type": "PKKMAMONGEO",
        "type": "DIALOG",
        "aliasList": [
          "20883"
        ],
        "actionId": 207,
        "dialogID": 732570255,
        "protectTime": 0.5
      }
    ],
    [
      {
        "$type": "PKKMAMONGEO",
        "type": "DIALOG",
        "aliasList": [
          "4284"
        ],
        "actionId": 209,
        "dialogID": 732570256,
        "protectTime": 0.5
      }
    ],
    [
      {
        "$type": "PKKMAMONGEO",
        "type": "DIALOG",
        "aliasList": [
          "4284"
        ],
        "actionId": 211,
        "dialogID": 732570257,
        "protectTime": 0.5
      }
    ],
    [
      {
        "$type": "MoleMole.Config.ConfigTimeProtectAction",
        "type": "TIME_PROTECT",
        "duration": 0.10000000149011612,
        "actionId": 105
      },
      {
        "$type": "MoleMole.Config.ConfigSimpleBlackScreenAction",
        "type": "SIMPLE_BLACK_SCREEN",
        "actionId": 212,
        "durationToBlack": 0.5,
        "durationKeepBlack": 1.5,
        "durationFromBlack": 0.5,
        "textMapID": ""
      },
      {
        "$type": "MoleMole.Config.ConfigTimeProtectAction",
        "type": "TIME_PROTECT",
        "duration": 0.699999988079071,
        "actionId": 213
      },
      {
        "$type": "LLGANGLOEEO",
        "type": "STEER_TO",
        "duration": 1.0,
        "aliasList": [
          "AvatarNpc"
        ],
        "actionId": 225,
        "steerType": "RETURN",
        "useSteerAnim": true,
        "interruptFreestyle": true,
        "forceSteer": true,
        "targetNpcAlias": "",
        "ignoreY": true,
        "fixInterNull": true,
        "OAFJBHJHLJG": ""
      },
      {
        "$type": "LLGANGLOEEO",
        "type": "STEER_TO",
        "duration": 1.0,
        "aliasList": [
          "1005"
        ],
        "actionId": 227,
        "steerType": "RETURN",
        "useSteerAnim": true,
        "interruptFreestyle": true,
        "forceSteer": true,
        "targetNpcAlias": "",
        "ignoreY": true,
        "fixInterNull": true,
        "OAFJBHJHLJG": ""
      },
      {
        "$type": "LLGANGLOEEO",
        "type": "STEER_TO",
        "duration": 1.0,
        "aliasList": [
          "20883"
        ],
        "actionId": 229,
        "steerType": "RETURN",
        "useSteerAnim": true,
        "interruptFreestyle": true,
        "forceSteer": true,
        "targetNpcAlias": "",
        "ignoreY": true,
        "fixInterNull": true,
        "OAFJBHJHLJG": ""
      },
      {
        "$type": "LLGANGLOEEO",
        "type": "STEER_TO",
        "duration": 1.0,
        "aliasList": [
          "4284"
        ],
        "actionId": 231,
        "steerType": "RETURN",
        "useSteerAnim": true,
        "interruptFreestyle": true,
        "forceSteer": true,
        "targetNpcAlias": "",
        "ignoreY": true,
        "fixInterNull": true,
        "OAFJBHJHLJG": ""
      },
      {
        "$type": "FJKIHHKJLMJ",
        "type": "CAMERA_MOVE",
        "delayTime": 0.5,
        "duration": 0.10000000149011612,
        "actionId": 216,
        "cameraPosType": "EXIT",
        "camForwardTargetOffset": {
          "z": 1.0
        },
        "camFov": 30.0,
        "lerpPattern": 5,
        "cameraBlendType": "EaseInOutCubic",
        "NJBNNOMLKCK": {},
        "openCameraDither": false,
        "targetNpcAlias": "",
        "closeTreeLeafDither": true,
        "KJOEFBPOIIH": "",
        "IICFKKEBIEC": "",
        "EGEHEJEBLBJ": ""
      },
      {
        "$type": "MoleMole.Config.ConfigVisibleInterAction",
        "type": "VISIBLE",
        "delayTime": 0.6000000238418579,
        "aliasList": [
          "Avatar"
        ],
        "actionId": 232,
        "isVisible": true,
        "_extraParam": ""
      },
      {
        "$type": "MoleMole.Config.ConfigVisibleInterAction",
        "type": "VISIBLE",
        "delayTime": 0.6000000238418579,
        "aliasList": [
          "AvatarNpc"
        ],
        "actionId": 234,
        "_extraParam": ""
      }
    ]
  ],
  "groupId": [
    {
      "grpId": 3122218407,
      "nextGrpId": 3122218408
    },
    {
      "index": 1,
      "grpId": 3122218408,
      "nextGrpId": 3122218409
    },
    {
      "index": 2,
      "grpId": 3122218409,
      "nextGrpId": 3122218410
    },
    {
      "index": 3,
      "grpId": 3122218410,
      "nextGrpId": 3122218411
    },
    {
      "index": 4,
      "grpId": 3122218411,
      "nextGrpId": 3122218412
    },
    {
      "index": 5,
      "grpId": 3122218412,
      "nextGrpId": 3122218413
    },
    {
      "index": 6,
      "grpId": 3122218413,
      "nextGrpId": 3122218414
    },
    {
      "index": 7,
      "grpId": 3122218414,
      "nextGrpId": 3122218415
    },
    {
      "index": 8,
      "grpId": 3122218415,
      "nextGrpId": 2299490154
    },
    {
      "index": 9,
      "grpId": 2299490153,
      "nextGrpId": 2299490154
    },
    {
      "index": 10,
      "grpId": 2299490154,
      "nextGrpId": 2299490155
    },
    {
      "index": 11,
      "grpId": 2299490155,
      "nextGrpId": 2299490156
    },
    {
      "index": 12,
      "grpId": 2299490156,
      "nextGrpId": 2299490157
    },
    {
      "index": 13,
      "grpId": 2299490157,
      "nextGrpId": 2299490158
    },
    {
      "index": 14,
      "grpId": 2299490158,
      "nextGrpId": 2299490159
    },
    {
      "index": 15,
      "grpId": 2299490159,
      "nextGrpId": 2299490160
    },
    {
      "index": 16,
      "grpId": 2299490160,
      "nextGrpId": 2299490161
    },
    {
      "index": 17,
      "grpId": 2299490161,
      "nextGrpId": 2299490162
    },
    {
      "index": 18,
      "grpId": 2299490162,
      "nextGrpId": 2299490184
    },
    {
      "index": 19,
      "grpId": 2299490184,
      "nextGrpId": 2299490185
    },
    {
      "index": 20,
      "grpId": 2299490185,
      "nextGrpId": 2299490186
    },
    {
      "index": 21,
      "grpId": 2299490186,
      "nextGrpId": 2299490187
    },
    {
      "index": 22,
      "grpId": 2299490187,
      "nextGrpId": 2299490188
    },
    {
      "index": 23,
      "grpId": 2299490188,
      "nextGrpId": 2299490189
    },
    {
      "index": 24,
      "grpId": 2299490189,
      "nextGrpId": 2299490190
    },
    {
      "index": 25,
      "grpId": 2299490190,
      "nextGrpId": 2299490191
    },
    {
      "index": 26,
      "grpId": 2299490191,
      "nextGrpId": 2299490192
    },
    {
      "index": 27,
      "grpId": 2299490192,
      "nextGrpId": 2299490193
    },
    {
      "index": 28,
      "grpId": 2299490193,
      "nextGrpId": 2299490215
    },
    {
      "index": 29,
      "grpId": 2299490215,
      "nextGrpId": 2299490216
    },
    {
      "index": 30,
      "grpId": 2299490216,
      "nextGrpId": 2299490217
    },
    {
      "index": 31,
      "grpId": 2299490217,
      "nextGrpId": 2299490218
    },
    {
      "index": 32,
      "grpId": 2299490218,
      "nextGrpId": 2299490219
    },
    {
      "index": 33,
      "grpId": 2299490219,
      "nextGrpId": 2299490220
    },
    {
      "index": 34,
      "grpId": 2299490220,
      "nextGrpId": 2299490221
    },
    {
      "index": 35,
      "grpId": 2299490221,
      "nextGrpId": 2299490222
    },
    {
      "index": 36,
      "grpId": 2299490222,
      "nextGrpId": 2299490223
    },
    {
      "index": 37,
      "grpId": 2299490223,
      "nextGrpId": 2299490224
    },
    {
      "index": 38,
      "grpId": 2299490224,
      "nextGrpId": 2299490246
    },
    {
      "index": 39,
      "grpId": 2299490246,
      "nextGrpId": 2299490247
    },
    {
      "index": 40,
      "grpId": 2299490247,
      "nextGrpId": 2299490248
    },
    {
      "index": 41,
      "grpId": 2299490248,
      "nextGrpId": 2299490249
    },
    {
      "index": 42,
      "grpId": 2299490249,
      "nextGrpId": 2299490250
    },
    {
      "index": 43,
      "grpId": 2299490250,
      "nextGrpId": 2299490251
    },
    {
      "index": 44,
      "grpId": 2299490251,
      "nextGrpId": 2299490252
    },
    {
      "index": 45,
      "grpId": 2299490252,
      "nextGrpId": 2299490253
    },
    {
      "index": 46,
      "grpId": 2299490253,
      "nextGrpId": 2299490254
    },
    {
      "index": 47,
      "grpId": 2299490254,
      "nextGrpId": 2299490255
    },
    {
      "index": 48,
      "grpId": 2299490255,
      "nextGrpId": 2299490277
    },
    {
      "index": 49,
      "grpId": 2299490277,
      "nextGrpId": 2299490278
    },
    {
      "index": 50,
      "grpId": 2299490278,
      "nextGrpId": 2299490279
    },
    {
      "index": 51,
      "grpId": 2299490279,
      "nextGrpId": 2299490280
    }
  ],
  "freeStyleDic": {
    "1025": [],
    "1026": [],
    "20883": [],
    "4284": []
  }
}