[
  {
    "index": 12516,
    "occupyBound": {
      "x": 7455562530816.0,
      "z": -0.015076939947903156
    }
  },
  {
    "index": 69,
    "occupyBound": {
      "y": 5.9383109336061836e-34,
      "z": 5011.62841796875
    }
  },
  {
    "index": 0,
    "occupyBound": {}
  },
  {
    "occupyBound": {
      "x": 3407.39013671875,
      "y": 5997.62841796875
    }
  },
  {
    "index": 0,
    "occupyBound": {}
  },
  {
    "occupyBound": {
      "x": 3405.5615234375,
      "y": 6030.87841796875
    }
  },
  {
    "index": 0,
    "occupyBound": {}
  },
  {
    "occupyBound": {
      "x": 3408.65185546875,
      "y": 5559.00341796875
    }
  },
  {
    "index": 142021648,
    "occupyBound": {
      "x": 1.4845680906744493e-34,
      "y": 3161.229736328125
    }
  },
  {
    "occupyPos": {
      "x": 2.494177781022805e+23,
      "z": -0.1321004182100296
    }
  },
  {
    "occupyPos": {
      "x": -1.66379284926038e+17,
      "z": 19811750903808.0
    }
  },
  {
    "index": 7,
    "occupyBound": {
      "z": -2.622181510465989e+38
    }
  },
  {
    "index": 8668,
    "occupyBound": {
      "z": 1.4845739451873294e-34
    }
  },
  {
    "index": 8838,
    "occupyBound": {
      "x": 440.0,
      "z": 3411.950439453125
    }
  }
]