[
  {
    "duration": -3545.888916015625,
    "PIIFCHEAFHG": -2990.93994140625
  },
  {
    "duration": -3517.888916015625,
    "PIIFCHEAFHG": -2962.93994140625
  },
  {
    "PIIFCHEAFHG": 1.2510029411463987e+17,
    "DEMHFCAMFNO": {
      "x": 200.00010681152344,
      "z": -2976.93994140625
    }
  },
  {
    "duration": -3519.7646484375,
    "ICKMNFKCMLC": 200.00010681152344,
    "PIIFCHEAFHG": -2969.93994140625
  },
  {
    "duration": -3524.888916015625,
    "ICKMNFKCMLC": 200.00010681152344,
    "PIIFCHEAFHG": -2964.815673828125
  },
  {
    "duration": -3531.888916015625,
    "ICKMNFKCMLC": 200.00010681152344,
    "PIIFCHEAFHG": -2962.93994140625
  },
  {
    "duration": -3538.888916015625,
    "ICKMNFKCMLC": 200.00010681152344,
    "PIIFCHEAFHG": -2964.815673828125
  },
  {
    "duration": -3544.01318359375,
    "ICKMNFKCMLC": 200.00010681152344,
    "PIIFCHEAFHG": -2969.93994140625
  },
  {
    "duration": -3545.888916015625,
    "ICKMNFKCMLC": 200.00010681152344,
    "PIIFCHEAFHG": -2976.93994140625
  },
  {
    "duration": -3544.01318359375,
    "ICKMNFKCMLC": 200.00010681152344,
    "PIIFCHEAFHG": -2983.93994140625
  },
  {
    "duration": -3538.888916015625,
    "ICKMNFKCMLC": 200.00010681152344,
    "PIIFCHEAFHG": -2989.064208984375
  },
  {
    "duration": -3531.888916015625,
    "ICKMNFKCMLC": 200.00010681152344,
    "PIIFCHEAFHG": -2990.93994140625
  },
  {
    "duration": -3524.888916015625,
    "ICKMNFKCMLC": 200.00010681152344,
    "PIIFCHEAFHG": -2989.064208984375
  },
  {
    "duration": -3519.7646484375,
    "ICKMNFKCMLC": 200.00010681152344,
    "PIIFCHEAFHG": -2983.93994140625
  }
]