[
  {
    "configId": 927804,
    "BDAPHBAEEFC": {
      "x": 3818.855224609375,
      "z": 0.0001376458239974454
    }
  },
  {
    "configId": 122,
    "BDAPHBAEEFC": {
      "y": 1.032713916731242e-34,
      "z": 2960.326904296875
    }
  },
  {},
  {},
  {
    "BDAPHBAEEFC": {
      "x": 3824.369140625,
      "y": 0.00010426906374050304
    },
    "rotation": {
      "x": 440.0,
      "z": 3824.90478515625
    },
    "LJCDAHFLIEO": {
      "ILHLEFAMHJC": true,
      "monsterLevel": 7248,
      "GCIAHGFIBAM": true
    }
  },
  {},
  {},
  {
    "BDAPHBAEEFC": {
      "x": 3824.3974609375,
      "y": 0.0001003314318950288
    },
    "rotation": {
      "x": 440.0047607421875,
      "z": 3822.43896484375
    },
    "LJCDAHFLIEO": {
      "ILHLEFAMHJC": true,
      "monsterLevel": 7271,
      "GCIAHGFIBAM": true
    }
  },
  {
    "configId": 1,
    "rotation": {
      "z": 3.37267707148861e+28
    }
  },
  {
    "configId": 7,
    "BDAPHBAEEFC": {
      "x": -1.45524510766248e+22,
      "z": -2.4246237016603527e+29
    }
  },
  {},
  {
    "isFreshmanGuide": 69,
    "BDAPHBAEEFC": {
      "x": 2959.91552734375,
      "y": 440.0486755371094,
      "z": 3819.2607421875
    },
    "rotation": {
      "x": 2960.96484375,
      "y": 440.2032165527344,
      "z": 3818.855224609375
    }
  },
  {
    "configId": 85,
    "isFreshmanGuide": 16,
    "BDAPHBAEEFC": {
      "x": -1.4411637348682957e+17
    }
  },
  {
    "configId": 1813342,
    "isFreshmanGuide": 69
  }
]