[
  {
    "AEBLMKFNCDG": 101,
    "rate": -8.184167141850188e+36
  },
  {},
  {
    "AEBLMKFNCDG": 69
  },
  {
    "AEBLMKFNCDG": 94735,
    "rate": 1.5373322290299358e-18
  },
  {
    "AEBLMKFNCDG": 4,
    "rate": 2.161184102635978e-35
  },
  {
    "AEBLMKFNCDG": 0,
    "rate": -4.055832883623017e+36
  },
  {},
  {
    "AEBLMKFNCDG": 69
  },
  {
    "AEBLMKFNCDG": 94735,
    "IGLIBIOEGBB": 556997,
    "rate": -0.013748952187597752
  },
  {
    "AEBLMKFNCDG": 69
  },
  {
    "AEBLMKFNCDG": 69,
    "IGLIBIOEGBB": 835,
    "rate": 331526.15625
  },
  {
    "AEBLMKFNCDG": 553310,
    "IGLIBIOEGBB": 69
  },
  {
    "AEBLMKFNCDG": 101,
    "IGLIBIOEGBB": 851,
    "rate": 131075.078125
  },
  {
    "AEBLMKFNCDG": 544276,
    "IGLIBIOEGBB": 69
  }
]