{
  "fishtankMap": {
    "ALBJEAMOFLG": ""
  },
  "isUnique": true,
  "OPLFBPIJHEG": [
    123,
    32,
    8840,
    5,
    5254,
    8711,
    14,
    68,
    8840,
    8,
    7,
    69,
    92,
    8710,
    4599,
    8588,
    30,
    33,
    8840,
    7,
    8023,
    8710,
    0,
    0,
    8588,
    123,
    32,
    8840,
    7,
    0,
    52,
    8710,
    0,
    0,
    8588,
    4597,
    8840,
    7,
    142720007,
    0,
    0,
    8588,
    14,
    68,
    8840,
    7,
    2528,
    8711,
    0,
    0,
    8588,
    8284,
    8840,
    7,
    5254,
    8711,
    80,
    12,
    8588,
    0,
    56,
    8840,
    7,
    142720964,
    3617,
    8588,
    6152,
    8840
  ],
  "abilityDisableIDs": [
    86,
    1114926,
    11376,
    8588,
    63,
    38,
    8840
  ]
}