{
  "minArea": {
    "x": -693.0326538085938,
    "z": 2854.338134765625
  },
  "maxArea": {
    "x": -686.3067626953125,
    "z": 2875.34619140625
  },
  "roadPoints": [
    {
      "x": -686.3067626953125,
      "y": 200.0,
      "z": 2872.345458984375
    },
    {
      "x": -691.0521850585938,
      "y": 200.0,
      "z": 2875.34619140625
    },
    {
      "x": -693.0326538085938,
      "y": 200.75119018554688,
      "z": 2864.88037109375
    },
    {
      "x": -692.8921508789062,
      "y": 200.0,
      "z": 2854.338134765625
    },
    {
      "x": -687.7828979492188,
      "y": 200.0,
      "z": 2855.559326171875
    }
  ]
}