[
  {
    "BOEDGBKEFNH": {
      "z": 2.2439151231568033e-11
    }
  },
  {
    "BOEDGBKEFNH": {
      "x": -4.723031664534608e+22,
      "y": -2.3397018030338243e-38
    },
    "radius": 1.0439971701723234e-34
  },
  {
    "BOEDGBKEFNH": {
      "y": 7.080340750694003e-41,
      "z": 4.936859606334864e-30
    }
  },
  {
    "BOEDGBKEFNH": {
      "x": 7.221525081121148e+19,
      "z": 131075.078125
    },
    "radius": 2.983347367181732e+21
  },
  {
    "BOEDGBKEFNH": {
      "x": -3590.687744140625,
      "y": 200.0,
      "z": -3636.93408203125
    }
  },
  {
    "BOEDGBKEFNH": {
      "x": 1.8126119335986768e-38
    },
    "radius": 2.8417161956895143e-09
  },
  {
    "BOEDGBKEFNH": {
      "x": 5.894629784286565e-10,
      "y": 3.1891286126257086e-22
    },
    "radius": 7464.41015625
  },
  {
    "BOEDGBKEFNH": {
      "x": 5.4083758711417864e+19,
      "z": 160767.078125
    },
    "radius": 4.987143801011872e+21
  },
  {
    "BOEDGBKEFNH": {
      "x": -3580.599365234375,
      "y": 200.0,
      "z": -3637.121826171875
    }
  },
  {
    "BOEDGBKEFNH": {
      "x": -5.12407586463867e+35,
      "y": -9.670463594777734e+29,
      "z": 2.9699493846673776e-34
    },
    "radius": -3566.3203125
  },
  {},
  {},
  {},
  {
    "BOEDGBKEFNH": {
      "x": 2.969945481658791e-34,
      "y": -3566.876953125,
      "z": 200.0
    },
    "radius": -3624.06201171875
  }
]