{
  "luaDataPath": "",
  "entityBan": "",
  "disableNpcLod": true,
  "isAutoBanNpc": true,
  "isBanWidgetPet": true,
  "protectNpcMobileLod": true,
  "talkFlag": 5,
  "startFade": {
    "startFadeOutDuration": 0.0
  },
  "endFade": {
    "startFadeOutDuration": 0.0
  },
  "actors": [
    {
      "alias": "Avatar",
      "visible": true,
      "bornPointName": "",
      "relativePosType": "AVATAR_NEW",
      "relativePosNpcAlias": "",
      "_bindMovingTargetKey": ""
    },
    {
      "configID": 5085,
      "alias": "5085",
      "visible": true,
      "bornPointName": "",
      "forceCreateDaily": true,
      "relativePosType": "AVATAR_NEW",
      "relativePosNpcAlias": "",
      "_bindMovingTargetKey": ""
    },
    {
      "configID": 1005,
      "alias": "1005",
      "visible": true,
      "bornPointName": "",
      "useRelativePos": true,
      "relativePos": {
        "x": -0.5,
        "z": 0.5
      },
      "removeActorType": "NEW_REMOVE_WITH_DISAPPEAR",
      "relativePosType": "AVATAR_NEW",
      "relativePosNpcAlias": "",
      "relativePosList": [
        {
          "x": 0.5,
          "z": 0.5
        }
      ],
      "_bindMovingTargetKey": ""
    }
  ],
  "group": [
    [
      {
        "$type": "MoleMole.Config.ConfigTimeProtectAction",
        "type": "TIME_PROTECT",
        "duration": 0.10000000149011612,
        "actionId": 104
      },
      {
        "$type": "FABLGECDBCH",
        "type": "BODY_LANG",
        "aliasList": [
          "5085"
        ],
        "actionId": 108,
        "isContinue": true,
        "forceDoFreeStyle": true,
        "canDoRepeatFreeStyle": false,
        "eventPatternSuiteKey": "",
        "FOHHKFAIAAJ": ""
      }
    ],
    [
      {
        "$type": "PKKMAMONGEO",
        "type": "DIALOG",
        "aliasList": [
          "5085"
        ],
        "actionId": 107,
        "dialogID": 240180902,
        "protectTime": 0.5
      },
      {
        "$type": "FABLGECDBCH",
        "type": "BODY_LANG",
        "aliasList": [
          "5085"
        ],
        "actionId": 111,
        "bodyLangParam": 1130,
        "forceDoFreeStyle": true,
        "canDoRepeatFreeStyle": false,
        "cantBackToIdleWhenSitLoop": true,
        "eventPatternSuiteKey": "",
        "FOHHKFAIAAJ": ""
      }
    ],
    [
      {
        "$type": "MoleMole.Config.ConfigTimeProtectAction",
        "type": "TIME_PROTECT",
        "duration": 0.10000000149011612,
        "actionId": 105
      },
      {
        "$type": "FABLGECDBCH",
        "type": "BODY_LANG",
        "aliasList": [
          "5085"
        ],
        "actionId": 109,
        "isContinue": true,
        "forceDoFreeStyle": true,
        "canDoRepeatFreeStyle": false,
        "eventPatternSuiteKey": "",
        "FOHHKFAIAAJ": ""
      },
      {
        "$type": "LLGANGLOEEO",
        "type": "STEER_TO",
        "duration": 1.0,
        "aliasList": [
          "5085"
        ],
        "actionId": 112,
        "_flag": 32,
        "steerType": "RETURN",
        "useSteerAnim": true,
        "interruptFreestyle": true,
        "forceSteer": true,
        "targetNpcAlias": "",
        "ignoreY": true,
        "fixInterNull": true,
        "OAFJBHJHLJG": ""
      },
      {
        "$type": "LJLMDHDCAMK",
        "type": "LOOK_AT",
        "aliasList": [
          "5085"
        ],
        "actionId": 113,
        "_flag": 64,
        "headTurnTime": 0.5,
        "targetNpcAlias": "",
        "openBackProtect": true,
        "backProtectAngle": 10.0,
        "targetNpcLookAtPoint": "",
        "OAFJBHJHLJG": ""
      }
    ]
  ],
  "groupId": [
    {
      "grpId": 1017023499,
      "nextGrpId": 1017023500
    },
    {
      "index": 1,
      "grpId": 1017023500,
      "nextGrpId": 1017023501
    },
    {
      "index": 2,
      "grpId": 1017023501,
      "nextGrpId": 1017023502
    }
  ],
  "freeStyleDic": {
    "5085": [
      1130
    ]
  },
  "EKFBDAIDEEF": {
    "5085": [
      "SitChat01AS",
      "SitHoldArm01AS",
      "SitPutArm01AS",
      "SitRaiseHand01AS",
      "SitRead01AS"
    ]
  }
}