{
  "luaDataPath": "",
  "isSimpleTalk": true,
  "entityBan": "",
  "startFade": {
    "startFadeInDuration": 0.5,
    "startFadeOutDuration": 0.5
  },
  "endFade": {
    "startFadeOutDuration": 0.0
  },
  "actors": [
    {
      "alias": "Avatar",
      "visible": true,
      "bornPointName": "Q48407Player",
      "relativePosNpcAlias": "",
      "_bindMovingTargetKey": ""
    },
    {
      "configID": 1002,
      "alias": "1002",
      "visible": true,
      "bornPointName": "Q48407Ambor",
      "relativePosNpcAlias": "",
      "_bindMovingTargetKey": ""
    }
  ],
  "group": [
    [
      {
        "$type": "PKKMAMONGEO",
        "type": "DIALOG",
        "aliasList": [
          "1002"
        ],
        "dialogID": 4840601
      },
      {
        "$type": "FJKIHHKJLMJ",
        "type": "CAMERA_FOCUS",
        "aliasList": [
          "1002"
        ],
        "targetNpcAlias": "",
        "KJOEFBPOIIH": "",
        "IICFKKEBIEC": "",
        "EGEHEJEBLBJ": ""
      },
      {
        "$type": "LLGANGLOEEO",
        "type": "STEER_TO",
        "duration": 1.0,
        "aliasList": [
          "1002"
        ],
        "steerType": "TO_LOCAL_AVATAR",
        "targetNpcAlias": "",
        "OAFJBHJHLJG": ""
      }
    ],
    [
      {
        "$type": "HDGKHDNFMIM",
        "type": "DIALOG_SELECT",
        "aliasList": [
          "Avatar"
        ],
        "dialogIDList": [
          4840602,
          4840604
        ],
        "grpIDList": [
          275796157,
          275796158
        ],
        "useGrpId": true
      }
    ],
    [
      {
        "$type": "PKKMAMONGEO",
        "type": "DIALOG",
        "aliasList": [
          "1002"
        ],
        "dialogID": 4840603
      }
    ],
    [
      {
        "$type": "PKKMAMONGEO",
        "type": "DIALOG",
        "aliasList": [
          "1002"
        ],
        "dialogID": 4840605
      }
    ],
    [
      {
        "$type": "PKKMAMONGEO",
        "type": "DIALOG",
        "aliasList": [
          "1002"
        ],
        "dialogID": 4840606
      }
    ]
  ],
  "groupId": [
    {
      "grpId": 275796155,
      "nextGrpId": 275796156
    },
    {
      "index": 1,
      "grpId": 275796156,
      "nextGrpId": 275796157
    },
    {
      "index": 2,
      "grpId": 275796157,
      "nextGrpId": 275796158
    },
    {
      "index": 3,
      "grpId": 275796158,
      "nextGrpId": 275796159
    },
    {
      "index": 4,
      "grpId": 275796159,
      "nextGrpId": 275796160
    }
  ],
  "freeStyleDic": {
    "1002": []
  }
}