{
  "luaDataPath": "",
  "entityBan": "",
  "startFade": {
    "startFadeOutDuration": 0.0
  },
  "endFade": {
    "startFadeOutDuration": 0.0
  },
  "actors": [
    {
      "alias": "Avatar",
      "visible": true,
      "bornPointName": "",
      "relativePosNpcAlias": "",
      "_bindMovingTargetKey": ""
    },
    {
      "configID": 1002,
      "alias": "1002",
      "visible": true,
      "bornPointName": "",
      "relativePosNpcAlias": "",
      "_bindMovingTargetKey": ""
    }
  ],
  "group": [
    [
      {
        "$type": "FJKIHHKJLMJ",
        "type": "CAMERA_FOCUS",
        "targetNpcAlias": "",
        "KJOEFBPOIIH": "",
        "IICFKKEBIEC": "",
        "EGEHEJEBLBJ": ""
      },
      {
        "$type": "MoleMole.Config.ConfigTimeProtectAction",
        "type": "TIME_PROTECT",
        "duration": 1.0
      },
      {
        "$type": "LJLMDHDCAMK",
        "type": "LOOK_AT",
        "delayTime": 0.30000001192092896,
        "aliasList": [
          "Avatar"
        ],
        "enableHead": true,
        "headTurnTime": 0.4000000059604645,
        "targetNpcAlias": "140901",
        "targetNpcLookAtPoint": "",
        "OAFJBHJHLJG": ""
      },
      {
        "$type": "PKKMAMONGEO",
        "type": "DIALOG",
        "delayTime": 1.0,
        "aliasList": [
          "1002"
        ],
        "dialogID": 3982001
      },
      {
        "$type": "CPJKOIHIPBE",
        "type": "EMO_SYNC",
        "delayTime": 1.0,
        "aliasList": [
          "1002"
        ],
        "dataPath": "Cs_Emo_Avatar_Simple_Common_Set/Cs_Emo_Avatar_Talk/Cs_Emo_Avatar_MainLine/Cs_Emo_Avatar_MengDe/Cs_Emo_3982001",
        "phonemePath": "",
        "emotionPath": "",
        "mateDataPath": "",
        "matePhonemePath": "",
        "mateEmotionPath": "",
        "dataPathHashList": [
          11485825466932126626,
          13215528503002574132,
          13178202827873854222,
          12940358183883803952
        ],
        "FMDPBECPELH": "",
        "ADKBLPOKGIK": ""
      },
      {
        "$type": "LLGANGLOEEO",
        "type": "STEER_TO",
        "duration": 1.0,
        "aliasList": [
          "1002"
        ],
        "steerType": "TO_LOCAL_AVATAR_ADVANCED",
        "useSteerAnim": true,
        "targetNpcAlias": "",
        "OAFJBHJHLJG": ""
      },
      {
        "$type": "LJLMDHDCAMK",
        "type": "LOOK_AT",
        "aliasList": [
          "1002"
        ],
        "enableHead": true,
        "headTurnTime": 0.4000000059604645,
        "targetNpcAlias": "Avatar",
        "targetNpcLookAtPoint": "",
        "OAFJBHJHLJG": ""
      },
      {
        "$type": "FABLGECDBCH",
        "type": "BODY_LANG",
        "delayTime": 1.0,
        "aliasList": [
          "1002"
        ],
        "bodyLangParam": 1230,
        "eventPatternSuiteKey": "",
        "FOHHKFAIAAJ": ""
      }
    ],
    [
      {
        "$type": "PKKMAMONGEO",
        "type": "DIALOG",
        "aliasList": [
          "1002"
        ],
        "dialogID": 3982002
      },
      {
        "$type": "CPJKOIHIPBE",
        "type": "EMO_SYNC",
        "aliasList": [
          "1002"
        ],
        "dataPath": "Cs_Emo_Avatar_Simple_Common_Set/Cs_Emo_Avatar_Talk/Cs_Emo_Avatar_MainLine/Cs_Emo_Avatar_MengDe/Cs_Emo_3982002",
        "phonemePath": "",
        "emotionPath": "",
        "mateDataPath": "",
        "matePhonemePath": "",
        "mateEmotionPath": "",
        "dataPathHashList": [
          3129108103905795135,
          2699352208034564665,
          3003153725944222712,
          5942351871415370613
        ],
        "FMDPBECPELH": "",
        "ADKBLPOKGIK": ""
      },
      {
        "$type": "FABLGECDBCH",
        "type": "BODY_LANG",
        "aliasList": [
          "1002"
        ],
        "bodyLangParam": 1231,
        "eventPatternSuiteKey": "",
        "FOHHKFAIAAJ": ""
      }
    ],
    [
      {
        "$type": "PKKMAMONGEO",
        "type": "DIALOG",
        "aliasList": [
          "1002"
        ],
        "dialogID": 3982003
      },
      {
        "$type": "CPJKOIHIPBE",
        "type": "EMO_SYNC",
        "aliasList": [
          "1002"
        ],
        "dataPath": "Cs_Emo_Avatar_Simple_Common_Set/Cs_Emo_Avatar_Talk/Cs_Emo_Avatar_MainLine/Cs_Emo_Avatar_MengDe/Cs_Emo_3982003",
        "phonemePath": "",
        "emotionPath": "",
        "mateDataPath": "",
        "matePhonemePath": "",
        "mateEmotionPath": "",
        "dataPathHashList": [
          5908663721729667316,
          1761593353230218818,
          3113343879197000833,
          978647762896975930
        ],
        "FMDPBECPELH": "",
        "ADKBLPOKGIK": ""
      },
      {
        "$type": "FABLGECDBCH",
        "type": "BODY_LANG",
        "aliasList": [
          "1002"
        ],
        "isContinue": true,
        "bodyLangParam": 1231,
        "eventPatternSuiteKey": "",
        "FOHHKFAIAAJ": ""
      }
    ],
    [
      {
        "$type": "PKKMAMONGEO",
        "type": "DIALOG",
        "aliasList": [
          "1002"
        ],
        "dialogID": 3982004
      },
      {
        "$type": "CPJKOIHIPBE",
        "type": "EMO_SYNC",
        "aliasList": [
          "1002"
        ],
        "dataPath": "Cs_Emo_Avatar_Simple_Common_Set/Cs_Emo_Avatar_Talk/Cs_Emo_Avatar_MainLine/Cs_Emo_Avatar_MengDe/Cs_Emo_3982004",
        "phonemePath": "",
        "emotionPath": "",
        "mateDataPath": "",
        "matePhonemePath": "",
        "mateEmotionPath": "",
        "dataPathHashList": [
          5831805445753084454,
          12341181255825663207,
          11045905248934630295,
          16514156490641363186
        ],
        "FMDPBECPELH": "",
        "ADKBLPOKGIK": ""
      },
      {
        "$type": "FABLGECDBCH",
        "type": "BODY_LANG",
        "aliasList": [
          "1002"
        ],
        "isContinue": true,
        "bodyLangParam": 1231,
        "eventPatternSuiteKey": "",
        "FOHHKFAIAAJ": ""
      },
      {
        "$type": "LJLMDHDCAMK",
        "type": "LOOK_AT",
        "aliasList": [
          "1002"
        ],
        "targetNpcAlias": "",
        "targetNpcLookAtPoint": "",
        "OAFJBHJHLJG": ""
      }
    ],
    [
      {
        "$type": "LLGANGLOEEO",
        "type": "STEER_TO",
        "duration": 1.0,
        "aliasList": [
          "1002"
        ],
        "steerType": "RETURN",
        "useSteerAnim": true,
        "targetNpcAlias": "",
        "OAFJBHJHLJG": ""
      },
      {
        "$type": "FABLGECDBCH",
        "type": "BODY_LANG",
        "delayTime": 1.0,
        "aliasList": [
          "1002"
        ],
        "bodyLangParam": 1280,
        "eventPatternSuiteKey": "",
        "FOHHKFAIAAJ": ""
      }
    ]
  ],
  "groupId": [
    {
      "grpId": 2184487651,
      "nextGrpId": 2184487652
    },
    {
      "index": 1,
      "grpId": 2184487652,
      "nextGrpId": 2184487653
    },
    {
      "index": 2,
      "grpId": 2184487653,
      "nextGrpId": 2184487654
    },
    {
      "index": 3,
      "grpId": 2184487654,
      "nextGrpId": 2184487655
    },
    {
      "index": 4,
      "grpId": 2184487655,
      "nextGrpId": 2184487656
    }
  ],
  "freeStyleDic": {
    "1002": [
      1230,
      1231,
      1280
    ]
  }
}