{
  "luaDataPath": "",
  "startBlackKeepTime": 0.5,
  "entityBan": "",
  "disableNpcLod": true,
  "isAutoBanNpc": true,
  "isBanWidgetPet": true,
  "protectNpcMobileLod": true,
  "startFade": {
    "startFadeInDuration": 0.5,
    "startFadeOutDuration": 0.5
  },
  "endFade": {
    "startFadeOutDuration": 0.0
  },
  "actors": [
    {
      "alias": "Avatar",
      "visible": true,
      "bornPointName": "",
      "relativePosType": "AVATAR_NEW",
      "relativePosNpcAlias": "",
      "_bindMovingTargetKey": ""
    },
    {
      "configID": 12688,
      "alias": "12688",
      "visible": true,
      "bornPointName": "Q2303004_N12688",
      "relativePosType": "AVATAR_NEW",
      "relativePosNpcAlias": "",
      "_bindMovingTargetKey": ""
    },
    {
      "configID": 12689,
      "alias": "12689",
      "visible": true,
      "bornPointName": "Q2303004_N12689",
      "relativePosType": "AVATAR_NEW",
      "relativePosNpcAlias": "",
      "_bindMovingTargetKey": ""
    },
    {
      "configID": 4178,
      "alias": "4178",
      "visible": true,
      "bornPointName": "Q2303005_N4178",
      "forceCreateDaily": true,
      "relativePosType": "AVATAR_NEW",
      "relativePosNpcAlias": "",
      "_bindMovingTargetKey": ""
    },
    {
      "configID": 1005,
      "alias": "1005",
      "visible": true,
      "bornPointName": "Q2303002_guide",
      "removeActorType": "REMOVE_WITH_DISAPPEAR",
      "relativePosType": "AVATAR_NEW",
      "relativePosNpcAlias": "",
      "_bindMovingTargetKey": ""
    }
  ],
  "group": [
    [
      {
        "$type": "MoleMole.Config.ConfigTimeProtectAction",
        "type": "TIME_PROTECT",
        "duration": 0.699999988079071
      },
      {
        "$type": "MoleMole.Config.ConfigSimpleBlackScreenAction",
        "type": "SIMPLE_BLACK_SCREEN",
        "actionId": 185,
        "durationToBlack": 0.5,
        "durationKeepBlack": 1.0,
        "durationFromBlack": 0.5,
        "textMapID": "",
        "useTextFade": true
      },
      {
        "$type": "MoleMole.Config.ConfigTeleportToAction",
        "type": "TELEPORT_TO",
        "delayTime": 0.492000013589859,
        "aliasList": [
          "4178"
        ],
        "actionId": 186,
        "position": {
          "x": -268.2380065917969,
          "y": 200.95700073242188,
          "z": 2679.593017578125
        },
        "forward": {
          "x": 6.427000045776367,
          "y": 0.17299999296665192,
          "z": -16.42300033569336
        },
        "openLongDisTeleport": true,
        "_posBindMovingTargetKey": "",
        "_forwardBindMovingTargetKey": ""
      },
      {
        "$type": "MoleMole.Config.ConfigTeleportToAction",
        "type": "TELEPORT_TO",
        "delayTime": 0.5,
        "aliasList": [
          "Avatar"
        ],
        "actionId": 186,
        "position": {
          "x": -268.2640075683594,
          "y": 200.4459991455078,
          "z": 2665.037109375
        },
        "forward": {
          "x": 6.290999889373779,
          "y": 0.6850000023841858,
          "z": -1.465999960899353
        },
        "openLongDisTeleport": true,
        "_posBindMovingTargetKey": "",
        "_forwardBindMovingTargetKey": ""
      },
      {
        "$type": "MoleMole.Config.ConfigTeleportToAction",
        "type": "TELEPORT_TO",
        "delayTime": 0.5,
        "aliasList": [
          "12688"
        ],
        "actionId": 186,
        "position": {
          "x": -265.8739929199219,
          "y": 200.14500427246094,
          "z": 2664.4560546875
        },
        "forward": {
          "x": 4.980999946594238,
          "y": 0.9860000014305115,
          "z": 0.15800000727176666
        },
        "openLongDisTeleport": true,
        "_posBindMovingTargetKey": "",
        "_forwardBindMovingTargetKey": ""
      },
      {
        "$type": "MoleMole.Config.ConfigTeleportToAction",
        "type": "TELEPORT_TO",
        "delayTime": 0.5,
        "aliasList": [
          "12689"
        ],
        "actionId": 186,
        "position": {
          "x": -265.4410095214844,
          "y": 200.15499877929688,
          "z": 2665.679931640625
        },
        "forward": {
          "x": 3.496999979019165,
          "y": 0.9760000109672546,
          "z": -2.7009999752044678
        },
        "openLongDisTeleport": true,
        "_posBindMovingTargetKey": "",
        "_forwardBindMovingTargetKey": ""
      },
      {
        "$type": "MoleMole.Config.ConfigVisibleInterAction",
        "type": "VISIBLE",
        "delayTime": 0.5,
        "aliasList": [
          "4178"
        ],
        "actionId": 193,
        "_extraParam": ""
      },
      {
        "$type": "MoleMole.Config.ConfigTeleportToAction",
        "type": "TELEPORT_TO",
        "delayTime": 0.5,
        "aliasList": [
          "1005"
        ],
        "actionId": 186,
        "position": {
          "x": -268.4679870605469,
          "y": 200.4510040283203,
          "z": 2664.468017578125
        },
        "forward": {
          "x": 6.466000080108643,
          "y": 0.6800000071525574,
          "z": -1.1039999723434448
        },
        "openLongDisTeleport": true,
        "_posBindMovingTargetKey": "",
        "_forwardBindMovingTargetKey": ""
      }
    ],
    [
      {
        "$type": "FJKIHHKJLMJ",
        "type": "CAMERA_MOVE",
        "duration": 1.0,
        "actionId": 194,
        "camPosOffset": {
          "x": -271.65301513671875,
          "y": 204.9429931640625,
          "z": 2665.77392578125
        },
        "camForwardTargetOffset": {
          "x": -270.77899169921875,
          "y": 204.47799682617188,
          "z": 2665.635009765625
        },
        "camFov": 55.89699935913086,
        "lerpPattern": 6,
        "cameraBlendType": "EaseInOutCubic",
        "NJBNNOMLKCK": {},
        "needZAxisRotate": true,
        "openCameraDither": false,
        "targetNpcAlias": "",
        "closeTreeLeafDither": true,
        "KJOEFBPOIIH": "",
        "IICFKKEBIEC": "",
        "EGEHEJEBLBJ": ""
      },
      {
        "$type": "LJLMDHDCAMK",
        "type": "LOOK_AT",
        "aliasList": [
          "Avatar"
        ],
        "enableHead": true,
        "headTurnTime": 0.5,
        "targetNpcAlias": "12688",
        "targetNpcLookAtPoint": "",
        "OAFJBHJHLJG": ""
      },
      {
        "$type": "PKKMAMONGEO",
        "type": "DIALOG",
        "aliasList": [
          "12688"
        ],
        "dialogID": 230300501,
        "protectTime": 5.158999919891357
      },
      {
        "$type": "FABLGECDBCH",
        "type": "BODY_LANG",
        "aliasList": [
          "12688"
        ],
        "actionId": 254,
        "bodyLangParam": 1240,
        "forceDoFreeStyle": true,
        "canDoRepeatFreeStyle": false,
        "eventPatternSuiteKey": "",
        "FOHHKFAIAAJ": ""
      },
      {
        "$type": "FABLGECDBCH",
        "type": "BODY_LANG",
        "aliasList": [
          "12689"
        ],
        "actionId": 255,
        "bodyLangParam": 1290,
        "forceDoFreeStyle": true,
        "eventPatternSuiteKey": "",
        "FOHHKFAIAAJ": ""
      },
      {
        "$type": "LJLMDHDCAMK",
        "type": "LOOK_AT",
        "aliasList": [
          "1005"
        ],
        "enableHead": true,
        "headTurnTime": 0.5,
        "targetNpcAlias": "12688",
        "targetNpcLookAtPoint": "",
        "OAFJBHJHLJG": ""
      },
      {
        "$type": "FJKIHHKJLMJ",
        "type": "CAMERA_MOVE",
        "delayTime": 0.15800000727176666,
        "duration": 16.0,
        "actionId": 194,
        "camPosOffset": {
          "x": -271.65301513671875,
          "y": 204.9429931640625,
          "z": 2665.77392578125
        },
        "camForwardTargetOffset": {
          "x": -270.8039855957031,
          "y": 204.45399475097656,
          "z": 2665.572998046875
        },
        "camFov": 55.89699935913086,
        "cameraBlendType": "EaseOutQuad",
        "NJBNNOMLKCK": {},
        "needZAxisRotate": true,
        "openCameraDither": false,
        "targetNpcAlias": "",
        "closeTreeLeafDither": true,
        "KJOEFBPOIIH": "",
        "IICFKKEBIEC": "",
        "EGEHEJEBLBJ": ""
      },
      {
        "$type": "FABLGECDBCH",
        "type": "BODY_LANG",
        "delayTime": 2.0850000381469727,
        "aliasList": [
          "12689"
        ],
        "actionId": 256,
        "bodyLangParam": 4040,
        "forceDoFreeStyle": true,
        "dontClearPreFreeStyle": true,
        "eventPatternSuiteKey": "",
        "FOHHKFAIAAJ": ""
      },
      {
        "$type": "LJLMDHDCAMK",
        "type": "LOOK_AT",
        "delayTime": 5.059000015258789,
        "aliasList": [
          "12689"
        ],
        "enableHead": true,
        "headTurnTime": 0.5,
        "targetNpcAlias": "12688",
        "targetNpcLookAtPoint": "",
        "OAFJBHJHLJG": ""
      }
    ],
    [
      {
        "$type": "FJKIHHKJLMJ",
        "type": "CAMERA_MOVE",
        "duration": 1.0,
        "actionId": 194,
        "camPosOffset": {
          "x": -264.2409973144531,
          "y": 202.13900756835938,
          "z": 2663.37109375
        },
        "camForwardTargetOffset": {
          "x": -264.9649963378906,
          "y": 201.86000061035156,
          "z": 2664.001953125
        },
        "camFov": 55.858001708984375,
        "lerpPattern": 6,
        "cameraBlendType": "EaseInOutCubic",
        "NJBNNOMLKCK": {},
        "needZAxisRotate": true,
        "openCameraDither": false,
        "targetNpcAlias": "",
        "closeTreeLeafDither": true,
        "KJOEFBPOIIH": "",
        "IICFKKEBIEC": "",
        "EGEHEJEBLBJ": ""
      },
      {
        "$type": "FABLGECDBCH",
        "type": "BODY_LANG",
        "aliasList": [
          "12688"
        ],
        "actionId": 232,
        "isContinue": true,
        "forceDoFreeStyle": true,
        "canDoRepeatFreeStyle": false,
        "eventPatternSuiteKey": "",
        "FOHHKFAIAAJ": ""
      },
      {
        "$type": "PKKMAMONGEO",
        "type": "DIALOG",
        "aliasList": [
          "12689"
        ],
        "dialogID": 230300502,
        "protectTime": 3.8580000400543213
      },
      {
        "$type": "FJKIHHKJLMJ",
        "type": "CAMERA_MOVE",
        "delayTime": 0.15800000727176666,
        "duration": 16.0,
        "actionId": 194,
        "camPosOffset": {
          "x": -264.2409973144531,
          "y": 202.13900756835938,
          "z": 2663.37109375
        },
        "camForwardTargetOffset": {
          "x": -264.8389892578125,
          "y": 201.9040069580078,
          "z": 2664.136962890625
        },
        "camFov": 55.858001708984375,
        "cameraBlendType": "EaseOutQuad",
        "NJBNNOMLKCK": {},
        "needZAxisRotate": true,
        "openCameraDither": false,
        "targetNpcAlias": "",
        "closeTreeLeafDither": true,
        "KJOEFBPOIIH": "",
        "IICFKKEBIEC": "",
        "EGEHEJEBLBJ": ""
      },
      {
        "$type": "LJLMDHDCAMK",
        "type": "LOOK_AT",
        "delayTime": 0.16699999570846558,
        "aliasList": [
          "1005"
        ],
        "enableHead": true,
        "headTurnTime": 0.5,
        "targetNpcAlias": "12689",
        "targetNpcLookAtPoint": "",
        "OAFJBHJHLJG": ""
      },
      {
        "$type": "FABLGECDBCH",
        "type": "BODY_LANG",
        "delayTime": 0.37599998712539673,
        "aliasList": [
          "12689"
        ],
        "actionId": 257,
        "bodyLangParam": 1150,
        "forceDoFreeStyle": true,
        "canDoRepeatFreeStyle": false,
        "eventPatternSuiteKey": "",
        "FOHHKFAIAAJ": ""
      },
      {
        "$type": "LJLMDHDCAMK",
        "type": "LOOK_AT",
        "delayTime": 2.4170000553131104,
        "aliasList": [
          "12688"
        ],
        "enableHead": true,
        "headTurnTime": 0.5,
        "targetNpcAlias": "12689",
        "targetNpcLookAtPoint": "",
        "OAFJBHJHLJG": ""
      },
      {
        "$type": "LJLMDHDCAMK",
        "type": "LOOK_AT",
        "delayTime": 2.558000087738037,
        "aliasList": [
          "Avatar"
        ],
        "enableHead": true,
        "headTurnTime": 0.5,
        "targetNpcAlias": "12689",
        "targetNpcLookAtPoint": "",
        "OAFJBHJHLJG": ""
      },
      {
        "$type": "FABLGECDBCH",
        "type": "BODY_LANG",
        "delayTime": 3.2330000400543213,
        "aliasList": [
          "Avatar"
        ],
        "actionId": 280,
        "bodyLangParam": 1240,
        "forceDoFreeStyle": true,
        "canDoRepeatFreeStyle": false,
        "eventPatternSuiteKey": "",
        "FOHHKFAIAAJ": ""
      },
      {
        "$type": "HDGKHDNFMIM",
        "type": "DIALOG_SELECT",
        "delayTime": 3.757999897003174,
        "aliasList": [
          "Avatar"
        ],
        "dialogIDList": [
          230300503
        ],
        "grpIDList": [
          248599227
        ],
        "useGrpId": true
      }
    ],
    [
      {
        "$type": "FJKIHHKJLMJ",
        "type": "CAMERA_MOVE",
        "duration": 1.0,
        "actionId": 194,
        "camPosOffset": {
          "x": -261.8169860839844,
          "y": 203.1320037841797,
          "z": 2666.778076171875
        },
        "camForwardTargetOffset": {
          "x": -262.68798828125,
          "y": 202.71299743652344,
          "z": 2666.52197265625
        },
        "camFov": 55.858001708984375,
        "lerpPattern": 6,
        "cameraBlendType": "EaseInOutCubic",
        "NJBNNOMLKCK": {},
        "needZAxisRotate": true,
        "openCameraDither": false,
        "targetNpcAlias": "",
        "closeTreeLeafDither": true,
        "KJOEFBPOIIH": "",
        "IICFKKEBIEC": "",
        "EGEHEJEBLBJ": ""
      },
      {
        "$type": "LJLMDHDCAMK",
        "type": "LOOK_AT",
        "aliasList": [
          "Avatar"
        ],
        "enableHead": true,
        "headTurnTime": 0.5,
        "targetNpcAlias": "12688",
        "targetNpcLookAtPoint": "",
        "OAFJBHJHLJG": ""
      },
      {
        "$type": "FABLGECDBCH",
        "type": "BODY_LANG",
        "aliasList": [
          "Avatar"
        ],
        "actionId": 287,
        "isContinue": true,
        "forceDoFreeStyle": true,
        "canDoRepeatFreeStyle": false,
        "eventPatternSuiteKey": "",
        "FOHHKFAIAAJ": ""
      },
      {
        "$type": "PKKMAMONGEO",
        "type": "DIALOG",
        "aliasList": [
          "12688"
        ],
        "dialogID": 230300504,
        "protectTime": 2.299999952316284
      },
      {
        "$type": "LLGANGLOEEO",
        "type": "STEER_TO",
        "duration": 1.0,
        "aliasList": [
          "12688"
        ],
        "actionId": 198,
        "steerType": "ABSOLUTE",
        "steerDir": {
          "x": -265.66900634765625,
          "y": 200.17999267578125,
          "z": 2665.68798828125
        },
        "useSteerAnim": true,
        "interruptFreestyle": true,
        "forceSteer": true,
        "targetNpcAlias": "12689",
        "OAFJBHJHLJG": ""
      },
      {
        "$type": "FABLGECDBCH",
        "type": "BODY_LANG",
        "aliasList": [
          "12689"
        ],
        "actionId": 259,
        "isContinue": true,
        "forceDoFreeStyle": true,
        "canDoRepeatFreeStyle": false,
        "eventPatternSuiteKey": "",
        "FOHHKFAIAAJ": ""
      },
      {
        "$type": "LJLMDHDCAMK",
        "type": "LOOK_AT",
        "aliasList": [
          "1005"
        ],
        "enableHead": true,
        "headTurnTime": 0.5,
        "targetNpcAlias": "12688",
        "targetNpcLookAtPoint": "",
        "OAFJBHJHLJG": ""
      },
      {
        "$type": "FJKIHHKJLMJ",
        "type": "CAMERA_MOVE",
        "delayTime": 0.15800000727176666,
        "duration": 16.0,
        "actionId": 194,
        "camPosOffset": {
          "x": -261.8169860839844,
          "y": 203.1320037841797,
          "z": 2666.778076171875
        },
        "camForwardTargetOffset": {
          "x": -262.635986328125,
          "y": 202.73699951171875,
          "z": 2666.361083984375
        },
        "camFov": 55.858001708984375,
        "cameraBlendType": "EaseOutQuad",
        "NJBNNOMLKCK": {},
        "needZAxisRotate": true,
        "openCameraDither": false,
        "targetNpcAlias": "",
        "closeTreeLeafDither": true,
        "KJOEFBPOIIH": "",
        "IICFKKEBIEC": "",
        "EGEHEJEBLBJ": ""
      },
      {
        "$type": "LJLMDHDCAMK",
        "type": "LOOK_AT",
        "delayTime": 0.550000011920929,
        "aliasList": [
          "12689"
        ],
        "enableHead": true,
        "headTurnTime": 0.5,
        "targetNpcAlias": "12688",
        "targetNpcLookAtPoint": "",
        "OAFJBHJHLJG": ""
      },
      {
        "$type": "LLGANGLOEEO",
        "type": "STEER_TO",
        "delayTime": 0.7170000076293945,
        "duration": 1.0,
        "aliasList": [
          "12689"
        ],
        "actionId": 199,
        "steerType": "TO_TARGET_ADVANCED",
        "useSteerAnim": true,
        "interruptFreestyle": true,
        "forceSteer": true,
        "targetNpcAlias": "12688",
        "OAFJBHJHLJG": ""
      },
      {
        "$type": "FABLGECDBCH",
        "type": "BODY_LANG",
        "delayTime": 1.4490000009536743,
        "aliasList": [
          "12688"
        ],
        "actionId": 258,
        "bodyLangParam": 1180,
        "forceDoFreeStyle": true,
        "canDoRepeatFreeStyle": false,
        "eventPatternSuiteKey": "",
        "FOHHKFAIAAJ": ""
      },
      {
        "$type": "FABLGECDBCH",
        "type": "BODY_LANG",
        "delayTime": 2.200000047683716,
        "aliasList": [
          "12689"
        ],
        "actionId": 260,
        "bodyLangParam": 1230,
        "forceDoFreeStyle": true,
        "canDoRepeatFreeStyle": false,
        "eventPatternSuiteKey": "",
        "FOHHKFAIAAJ": ""
      }
    ],
    [
      {
        "$type": "FJKIHHKJLMJ",
        "type": "CAMERA_MOVE",
        "duration": 1.0,
        "actionId": 194,
        "camPosOffset": {
          "x": -267.25,
          "y": 201.54800415039062,
          "z": 2666.028076171875
        },
        "camForwardTargetOffset": {
          "x": -266.40399169921875,
          "y": 201.41000366210938,
          "z": 2665.513916015625
        },
        "camFov": 55.858001708984375,
        "lerpPattern": 6,
        "cameraBlendType": "EaseInOutCubic",
        "NJBNNOMLKCK": {},
        "needZAxisRotate": true,
        "openCameraDither": false,
        "targetNpcAlias": "",
        "closeTreeLeafDither": true,
        "KJOEFBPOIIH": "",
        "IICFKKEBIEC": "",
        "EGEHEJEBLBJ": ""
      },
      {
        "$type": "PKKMAMONGEO",
        "type": "DIALOG",
        "aliasList": [
          "12688"
        ],
        "dialogID": 230300505,
        "protectTime": 0.257999986410141
      },
      {
        "$type": "FJKIHHKJLMJ",
        "type": "CAMERA_MOVE",
        "delayTime": 0.15800000727176666,
        "duration": 16.0,
        "actionId": 194,
        "camPosOffset": {
          "x": -267.25,
          "y": 201.54800415039062,
          "z": 2666.028076171875
        },
        "camForwardTargetOffset": {
          "x": -266.3949890136719,
          "y": 201.5019989013672,
          "z": 2665.511962890625
        },
        "camFov": 55.858001708984375,
        "cameraBlendType": "EaseOutQuad",
        "NJBNNOMLKCK": {},
        "needZAxisRotate": true,
        "openCameraDither": false,
        "targetNpcAlias": "",
        "closeTreeLeafDither": true,
        "KJOEFBPOIIH": "",
        "IICFKKEBIEC": "",
        "EGEHEJEBLBJ": ""
      }
    ],
    [
      {
        "$type": "FJKIHHKJLMJ",
        "type": "CAMERA_MOVE",
        "duration": 16.0,
        "actionId": 194,
        "camPosOffset": {
          "x": -267.25,
          "y": 201.54800415039062,
          "z": 2666.028076171875
        },
        "camForwardTargetOffset": {
          "x": -266.4620056152344,
          "y": 201.51100158691406,
          "z": 2665.4130859375
        },
        "camFov": 55.858001708984375,
        "cameraBlendType": "EaseOutQuad",
        "NJBNNOMLKCK": {},
        "needZAxisRotate": true,
        "openCameraDither": false,
        "targetNpcAlias": "",
        "closeTreeLeafDither": true,
        "KJOEFBPOIIH": "",
        "IICFKKEBIEC": "",
        "EGEHEJEBLBJ": ""
      },
      {
        "$type": "PKKMAMONGEO",
        "type": "DIALOG",
        "aliasList": [
          "12688"
        ],
        "dialogID": 230300506,
        "protectTime": 2.052000045776367
      },
      {
        "$type": "FABLGECDBCH",
        "type": "BODY_LANG",
        "aliasList": [
          "12688"
        ],
        "actionId": 261,
        "bodyLangParam": 1240,
        "forceDoFreeStyle": true,
        "canDoRepeatFreeStyle": false,
        "eventPatternSuiteKey": "",
        "FOHHKFAIAAJ": ""
      },
      {
        "$type": "MoleMole.Config.ConfigVisibleInterAction",
        "type": "VISIBLE",
        "aliasList": [
          "4178"
        ],
        "actionId": 200,
        "isVisible": true,
        "_extraParam": ""
      },
      {
        "$type": "LJLMDHDCAMK",
        "type": "LOOK_AT",
        "delayTime": 1.7350000143051147,
        "aliasList": [
          "12688"
        ],
        "actionId": 282,
        "headTurnTime": 0.5,
        "targetNpcAlias": "",
        "targetNpcLookAtPoint": "",
        "OAFJBHJHLJG": ""
      }
    ],
    [
      {
        "$type": "FJKIHHKJLMJ",
        "type": "CAMERA_MOVE",
        "duration": 1.0,
        "actionId": 194,
        "camPosOffset": {
          "x": -267.12701416015625,
          "y": 202.5070037841797,
          "z": 2677.781005859375
        },
        "camForwardTargetOffset": {
          "x": -267.6499938964844,
          "y": 202.33900451660156,
          "z": 2678.616943359375
        },
        "camFov": 55.733001708984375,
        "lerpPattern": 6,
        "cameraBlendType": "EaseInOutCubic",
        "NJBNNOMLKCK": {},
        "needZAxisRotate": true,
        "openCameraDither": false,
        "targetNpcAlias": "",
        "closeTreeLeafDither": true,
        "KJOEFBPOIIH": "",
        "IICFKKEBIEC": "",
        "EGEHEJEBLBJ": ""
      },
      {
        "$type": "LJLMDHDCAMK",
        "type": "LOOK_AT",
        "aliasList": [
          "Avatar"
        ],
        "enableHead": true,
        "headTurnTime": 0.5,
        "targetNpcAlias": "4178",
        "targetNpcLookAtPoint": "",
        "OAFJBHJHLJG": ""
      },
      {
        "$type": "LJLMDHDCAMK",
        "type": "LOOK_AT",
        "aliasList": [
          "12688"
        ],
        "enableHead": true,
        "headTurnTime": 0.5,
        "targetNpcAlias": "4178",
        "targetNpcLookAtPoint": "",
        "OAFJBHJHLJG": ""
      },
      {
        "$type": "LJLMDHDCAMK",
        "type": "LOOK_AT",
        "aliasList": [
          "12689"
        ],
        "enableHead": true,
        "headTurnTime": 0.5,
        "targetNpcAlias": "4178",
        "targetNpcLookAtPoint": "",
        "OAFJBHJHLJG": ""
      },
      {
        "$type": "PKKMAMONGEO",
        "type": "DIALOG",
        "aliasList": [
          "4178"
        ],
        "dialogID": 230300507,
        "protectTime": 1.9170000553131104
      },
      {
        "$type": "MoleMole.Config.ConfigMoveToAction",
        "type": "MOVE_TO",
        "aliasList": [
          "4178"
        ],
        "actionId": 263,
        "haveNextAction": true,
        "moveType": "WALK",
        "routeList": [
          {
            "x": -267.9949951171875,
            "y": 200.94000244140625,
            "z": 2679.139892578125
          }
        ],
        "_bindMovingTargetKey": ""
      },
      {
        "$type": "LJLMDHDCAMK",
        "type": "LOOK_AT",
        "aliasList": [
          "1005"
        ],
        "enableHead": true,
        "headTurnTime": 0.5,
        "targetNpcAlias": "4178",
        "targetNpcLookAtPoint": "",
        "OAFJBHJHLJG": ""
      },
      {
        "$type": "FJKIHHKJLMJ",
        "type": "CAMERA_MOVE",
        "delayTime": 0.15800000727176666,
        "duration": 16.0,
        "actionId": 194,
        "camPosOffset": {
          "x": -267.12701416015625,
          "y": 202.5070037841797,
          "z": 2677.781005859375
        },
        "camForwardTargetOffset": {
          "x": -267.64801025390625,
          "y": 202.31900024414062,
          "z": 2678.614013671875
        },
        "camFov": 55.733001708984375,
        "cameraBlendType": "EaseOutQuad",
        "NJBNNOMLKCK": {},
        "needZAxisRotate": true,
        "openCameraDither": false,
        "targetNpcAlias": "",
        "closeTreeLeafDither": true,
        "KJOEFBPOIIH": "",
        "IICFKKEBIEC": "",
        "EGEHEJEBLBJ": ""
      },
      {
        "$type": "FABLGECDBCH",
        "type": "BODY_LANG",
        "delayTime": 0.675000011920929,
        "aliasList": [
          "4178"
        ],
        "actionId": 201,
        "preActionId": 263,
        "bodyLangParam": 1200,
        "forceDoFreeStyle": true,
        "canDoRepeatFreeStyle": false,
        "eventPatternSuiteKey": "",
        "FOHHKFAIAAJ": ""
      }
    ],
    [
      {
        "$type": "MoleMole.Config.ConfigSimpleBlackScreenAction",
        "type": "SIMPLE_BLACK_SCREEN",
        "actionId": 192,
        "durationToBlack": 0.5,
        "durationKeepBlack": 1.5,
        "durationFromBlack": 0.5,
        "textMapID": "",
        "useTextFade": true
      },
      {
        "$type": "MoleMole.Config.ConfigTimeProtectAction",
        "type": "TIME_PROTECT",
        "duration": 2.5,
        "actionId": 241
      },
      {
        "$type": "FJKIHHKJLMJ",
        "type": "CAMERA_MOVE",
        "duration": 0.8169999718666077,
        "actionId": 308,
        "camPosOffset": {
          "x": -267.12701416015625,
          "y": 202.5070037841797,
          "z": 2677.781005859375
        },
        "camForwardTargetOffset": {
          "x": -267.64801025390625,
          "y": 202.31900024414062,
          "z": 2678.614013671875
        },
        "camFov": 55.733001708984375,
        "lerpPattern": 6,
        "cameraBlendType": "EaseOutQuad",
        "NJBNNOMLKCK": {},
        "needZAxisRotate": true,
        "openCameraDither": false,
        "targetNpcAlias": "",
        "closeTreeLeafDither": true,
        "KJOEFBPOIIH": "",
        "IICFKKEBIEC": "",
        "EGEHEJEBLBJ": ""
      },
      {
        "$type": "MoleMole.Config.ConfigTeleportToAction",
        "type": "TELEPORT_TO",
        "delayTime": 0.5,
        "aliasList": [
          "4178"
        ],
        "actionId": 202,
        "position": {
          "x": -275.5950012207031,
          "y": 201.8070068359375,
          "z": 2669.419921875
        },
        "forward": {
          "x": -2.562999963760376,
          "y": 0.984000027179718,
          "z": 4.061999797821045
        },
        "openLongDisTeleport": true,
        "_posBindMovingTargetKey": "",
        "_forwardBindMovingTargetKey": ""
      },
      {
        "$type": "MoleMole.Config.ConfigTeleportToAction",
        "type": "TELEPORT_TO",
        "delayTime": 0.5090000033378601,
        "aliasList": [
          "Avatar"
        ],
        "actionId": 234,
        "position": {
          "x": -275.9010009765625,
          "y": 201.9969940185547,
          "z": 2666.68408203125
        },
        "forward": {
          "x": 0.28299999237060547,
          "y": -0.07199999690055847,
          "z": 3.174999952316284
        },
        "openLongDisTeleport": true,
        "_posBindMovingTargetKey": "",
        "_forwardBindMovingTargetKey": ""
      },
      {
        "$type": "MoleMole.Config.ConfigTeleportToAction",
        "type": "TELEPORT_TO",
        "delayTime": 0.5090000033378601,
        "aliasList": [
          "12688"
        ],
        "actionId": 234,
        "position": {
          "x": -276.0249938964844,
          "y": 201.9530029296875,
          "z": 2668.3759765625
        },
        "forward": {
          "x": -0.7440000176429749,
          "y": 0.3400000035762787,
          "z": 3.881999969482422
        },
        "openLongDisTeleport": true,
        "_posBindMovingTargetKey": "",
        "_forwardBindMovingTargetKey": ""
      },
      {
        "$type": "MoleMole.Config.ConfigTeleportToAction",
        "type": "TELEPORT_TO",
        "delayTime": 0.5090000033378601,
        "aliasList": [
          "12689"
        ],
        "actionId": 234,
        "position": {
          "x": -274.6789855957031,
          "y": 201.8040008544922,
          "z": 2668.614990234375
        },
        "forward": {
          "x": -3.6059999465942383,
          "y": 0.14800000190734863,
          "z": 5.10099983215332
        },
        "openLongDisTeleport": true,
        "_posBindMovingTargetKey": "",
        "_forwardBindMovingTargetKey": ""
      },
      {
        "$type": "MoleMole.Config.ConfigTeleportToAction",
        "type": "TELEPORT_TO",
        "delayTime": 0.5090000033378601,
        "aliasList": [
          "1005"
        ],
        "actionId": 234,
        "position": {
          "x": -274.7349853515625,
          "y": 201.96600341796875,
          "z": 2666.571044921875
        },
        "forward": {
          "x": -1.5329999923706055,
          "y": 0.2150000035762787,
          "z": 3.319999933242798
        },
        "openLongDisTeleport": true,
        "_posBindMovingTargetKey": "",
        "_forwardBindMovingTargetKey": ""
      },
      {
        "$type": "FABLGECDBCH",
        "type": "BODY_LANG",
        "delayTime": 0.5099999904632568,
        "aliasList": [
          "Avatar"
        ],
        "actionId": 284,
        "isContinue": true,
        "forceDoFreeStyle": true,
        "canDoRepeatFreeStyle": false,
        "eventPatternSuiteKey": "",
        "FOHHKFAIAAJ": ""
      },
      {
        "$type": "FABLGECDBCH",
        "type": "BODY_LANG",
        "delayTime": 0.5440000295639038,
        "aliasList": [
          "12688"
        ],
        "actionId": 283,
        "isContinue": true,
        "forceDoFreeStyle": true,
        "canDoRepeatFreeStyle": false,
        "eventPatternSuiteKey": "",
        "FOHHKFAIAAJ": ""
      },
      {
        "$type": "FABLGECDBCH",
        "type": "BODY_LANG",
        "delayTime": 0.5849999785423279,
        "aliasList": [
          "12689"
        ],
        "actionId": 285,
        "isContinue": true,
        "forceDoFreeStyle": true,
        "canDoRepeatFreeStyle": false,
        "eventPatternSuiteKey": "",
        "FOHHKFAIAAJ": ""
      },
      {
        "$type": "FJKIHHKJLMJ",
        "type": "CAMERA_MOVE",
        "delayTime": 0.699999988079071,
        "duration": 1.8170000314712524,
        "actionId": 194,
        "camPosOffset": {
          "x": -270.239990234375,
          "y": 206.82699584960938,
          "z": 2668.343994140625
        },
        "camForwardTargetOffset": {
          "x": -271.0299987792969,
          "y": 206.2429962158203,
          "z": 2668.530029296875
        },
        "camFov": 55.733001708984375,
        "lerpPattern": 6,
        "cameraBlendType": "EaseInOutCubic",
        "NJBNNOMLKCK": {},
        "needZAxisRotate": true,
        "openCameraDither": false,
        "targetNpcAlias": "",
        "closeTreeLeafDither": true,
        "KJOEFBPOIIH": "",
        "IICFKKEBIEC": "",
        "EGEHEJEBLBJ": ""
      }
    ],
    [
      {
        "$type": "FJKIHHKJLMJ",
        "type": "CAMERA_MOVE",
        "duration": 1.0,
        "actionId": 194,
        "camPosOffset": {
          "x": -270.239990234375,
          "y": 206.82699584960938,
          "z": 2668.343994140625
        },
        "camForwardTargetOffset": {
          "x": -271.0299987792969,
          "y": 206.2429962158203,
          "z": 2668.530029296875
        },
        "camFov": 55.733001708984375,
        "lerpPattern": 6,
        "cameraBlendType": "EaseInOutCubic",
        "NJBNNOMLKCK": {},
        "needZAxisRotate": true,
        "openCameraDither": false,
        "targetNpcAlias": "",
        "closeTreeLeafDither": true,
        "KJOEFBPOIIH": "",
        "IICFKKEBIEC": "",
        "EGEHEJEBLBJ": ""
      },
      {
        "$type": "PKKMAMONGEO",
        "type": "DIALOG",
        "aliasList": [
          "4178"
        ],
        "dialogID": 230300508,
        "protectTime": 2.8420000076293945
      },
      {
        "$type": "FJKIHHKJLMJ",
        "type": "CAMERA_MOVE",
        "delayTime": 0.15800000727176666,
        "duration": 16.0,
        "actionId": 194,
        "camPosOffset": {
          "x": -270.239990234375,
          "y": 206.82699584960938,
          "z": 2668.343994140625
        },
        "camForwardTargetOffset": {
          "x": -271.0119934082031,
          "y": 206.27200317382812,
          "z": 2668.653076171875
        },
        "camFov": 55.733001708984375,
        "cameraBlendType": "EaseOutQuad",
        "NJBNNOMLKCK": {},
        "needZAxisRotate": true,
        "openCameraDither": false,
        "targetNpcAlias": "",
        "closeTreeLeafDither": true,
        "KJOEFBPOIIH": "",
        "IICFKKEBIEC": "",
        "EGEHEJEBLBJ": ""
      },
      {
        "$type": "FABLGECDBCH",
        "type": "BODY_LANG",
        "delayTime": 2.742000102996826,
        "aliasList": [
          "4178"
        ],
        "actionId": 286,
        "bodyLangParam": 1171,
        "forceDoFreeStyle": true,
        "canDoRepeatFreeStyle": false,
        "eventPatternSuiteKey": "",
        "FOHHKFAIAAJ": ""
      }
    ],
    [
      {
        "$type": "FJKIHHKJLMJ",
        "type": "CAMERA_MOVE",
        "duration": 1.0,
        "actionId": 194,
        "camPosOffset": {
          "x": -276.8760070800781,
          "y": 203.46499633789062,
          "z": 2672.14208984375
        },
        "camForwardTargetOffset": {
          "x": -276.5989990234375,
          "y": 203.32400512695312,
          "z": 2671.19091796875
        },
        "camFov": 55.85900115966797,
        "lerpPattern": 6,
        "cameraBlendType": "EaseInOutCubic",
        "NJBNNOMLKCK": {},
        "needZAxisRotate": true,
        "openCameraDither": false,
        "targetNpcAlias": "",
        "closeTreeLeafDither": true,
        "KJOEFBPOIIH": "",
        "IICFKKEBIEC": "",
        "EGEHEJEBLBJ": ""
      },
      {
        "$type": "LJLMDHDCAMK",
        "type": "LOOK_AT",
        "aliasList": [
          "Avatar"
        ],
        "enableHead": true,
        "headTurnTime": 0.5,
        "targetNpcAlias": "12688",
        "targetNpcLookAtPoint": "",
        "OAFJBHJHLJG": ""
      },
      {
        "$type": "PKKMAMONGEO",
        "type": "DIALOG",
        "aliasList": [
          "12688"
        ],
        "dialogID": 230300509,
        "protectTime": 2.427999973297119
      },
      {
        "$type": "LJLMDHDCAMK",
        "type": "LOOK_AT",
        "aliasList": [
          "1005"
        ],
        "enableHead": true,
        "headTurnTime": 0.5,
        "targetNpcAlias": "12688",
        "targetNpcLookAtPoint": "",
        "OAFJBHJHLJG": ""
      },
      {
        "$type": "FJKIHHKJLMJ",
        "type": "CAMERA_MOVE",
        "delayTime": 0.17100000381469727,
        "duration": 16.0,
        "actionId": 194,
        "camPosOffset": {
          "x": -276.8760070800781,
          "y": 203.46499633789062,
          "z": 2672.14208984375
        },
        "camForwardTargetOffset": {
          "x": -276.52099609375,
          "y": 203.31199645996094,
          "z": 2671.219970703125
        },
        "camFov": 55.85900115966797,
        "cameraBlendType": "EaseOutQuad",
        "NJBNNOMLKCK": {},
        "needZAxisRotate": true,
        "openCameraDither": false,
        "targetNpcAlias": "",
        "closeTreeLeafDither": true,
        "KJOEFBPOIIH": "",
        "IICFKKEBIEC": "",
        "EGEHEJEBLBJ": ""
      },
      {
        "$type": "LLGANGLOEEO",
        "type": "STEER_TO",
        "delayTime": 0.6790000200271606,
        "duration": 1.0,
        "aliasList": [
          "12688"
        ],
        "actionId": 249,
        "steerType": "TO_TARGET_ADVANCED",
        "useSteerAnim": true,
        "interruptFreestyle": true,
        "forceSteer": true,
        "targetNpcAlias": "4178",
        "OAFJBHJHLJG": ""
      },
      {
        "$type": "FABLGECDBCH",
        "type": "BODY_LANG",
        "delayTime": 1.9199999570846558,
        "aliasList": [
          "12688"
        ],
        "actionId": 265,
        "bodyLangParam": 1171,
        "forceDoFreeStyle": true,
        "canDoRepeatFreeStyle": false,
        "eventPatternSuiteKey": "",
        "FOHHKFAIAAJ": ""
      },
      {
        "$type": "LJLMDHDCAMK",
        "type": "LOOK_AT",
        "delayTime": 2.2079999446868896,
        "aliasList": [
          "4178"
        ],
        "enableHead": true,
        "headTurnTime": 0.5,
        "targetNpcAlias": "12688",
        "targetNpcLookAtPoint": "",
        "OAFJBHJHLJG": ""
      },
      {
        "$type": "LJLMDHDCAMK",
        "type": "LOOK_AT",
        "delayTime": 2.2170000076293945,
        "aliasList": [
          "12689"
        ],
        "enableHead": true,
        "headTurnTime": 0.5,
        "targetNpcAlias": "4178",
        "targetNpcLookAtPoint": "",
        "OAFJBHJHLJG": ""
      },
      {
        "$type": "LLGANGLOEEO",
        "type": "STEER_TO",
        "delayTime": 2.316999912261963,
        "duration": 1.0,
        "aliasList": [
          "12689"
        ],
        "actionId": 299,
        "steerType": "ABSOLUTE",
        "steerDir": {
          "x": -275.81201171875,
          "y": 201.88999938964844,
          "z": 2668.79296875
        },
        "useSteerAnim": true,
        "interruptFreestyle": true,
        "forceSteer": true,
        "targetNpcAlias": "",
        "OAFJBHJHLJG": ""
      },
      {
        "$type": "LLGANGLOEEO",
        "type": "STEER_TO",
        "delayTime": 2.328000068664551,
        "duration": 1.0,
        "aliasList": [
          "4178"
        ],
        "actionId": 298,
        "steerType": "TO_TARGET",
        "useSteerAnim": true,
        "interruptFreestyle": true,
        "forceSteer": true,
        "targetNpcAlias": "12688",
        "OAFJBHJHLJG": ""
      }
    ],
    [
      {
        "$type": "FJKIHHKJLMJ",
        "type": "CAMERA_MOVE",
        "duration": 1.0,
        "actionId": 194,
        "camPosOffset": {
          "x": -274.6300048828125,
          "y": 203.5749969482422,
          "z": 2668.847900390625
        },
        "camForwardTargetOffset": {
          "x": -275.59600830078125,
          "y": 203.375,
          "z": 2669.011962890625
        },
        "camFov": 55.858001708984375,
        "lerpPattern": 6,
        "cameraBlendType": "EaseInOutCubic",
        "NJBNNOMLKCK": {},
        "needZAxisRotate": true,
        "openCameraDither": false,
        "targetNpcAlias": "",
        "closeTreeLeafDither": true,
        "KJOEFBPOIIH": "",
        "IICFKKEBIEC": "",
        "EGEHEJEBLBJ": ""
      },
      {
        "$type": "LJLMDHDCAMK",
        "type": "LOOK_AT",
        "aliasList": [
          "Avatar"
        ],
        "enableHead": true,
        "headTurnTime": 0.5,
        "targetNpcAlias": "4178",
        "targetNpcLookAtPoint": "",
        "OAFJBHJHLJG": ""
      },
      {
        "$type": "LJLMDHDCAMK",
        "type": "LOOK_AT",
        "aliasList": [
          "12688"
        ],
        "enableHead": true,
        "headTurnTime": 0.5,
        "targetNpcAlias": "4178",
        "targetNpcLookAtPoint": "",
        "OAFJBHJHLJG": ""
      },
      {
        "$type": "LJLMDHDCAMK",
        "type": "LOOK_AT",
        "aliasList": [
          "12689"
        ],
        "enableHead": true,
        "headTurnTime": 0.5,
        "targetNpcAlias": "4178",
        "targetNpcLookAtPoint": "",
        "OAFJBHJHLJG": ""
      },
      {
        "$type": "LLGANGLOEEO",
        "type": "STEER_TO",
        "duration": 1.0,
        "aliasList": [
          "12689"
        ],
        "actionId": 299,
        "steerType": "ABSOLUTE",
        "steerDir": {
          "x": -275.81201171875,
          "y": 201.88999938964844,
          "z": 2668.79296875
        },
        "useSteerAnim": true,
        "interruptFreestyle": true,
        "forceSteer": true,
        "targetNpcAlias": "",
        "OAFJBHJHLJG": ""
      },
      {
        "$type": "PKKMAMONGEO",
        "type": "DIALOG",
        "aliasList": [
          "4178"
        ],
        "dialogID": 230300510,
        "protectTime": 1.496000051498413
      },
      {
        "$type": "LJLMDHDCAMK",
        "type": "LOOK_AT",
        "aliasList": [
          "1005"
        ],
        "enableHead": true,
        "headTurnTime": 0.5,
        "targetNpcAlias": "4178",
        "targetNpcLookAtPoint": "",
        "OAFJBHJHLJG": ""
      },
      {
        "$type": "FJKIHHKJLMJ",
        "type": "CAMERA_MOVE",
        "delayTime": 0.15800000727176666,
        "duration": 16.0,
        "actionId": 194,
        "camPosOffset": {
          "x": -274.6300048828125,
          "y": 203.5749969482422,
          "z": 2668.847900390625
        },
        "camForwardTargetOffset": {
          "x": -275.5920104980469,
          "y": 203.35400390625,
          "z": 2669.010986328125
        },
        "camFov": 55.858001708984375,
        "cameraBlendType": "EaseOutQuad",
        "NJBNNOMLKCK": {},
        "needZAxisRotate": true,
        "openCameraDither": false,
        "targetNpcAlias": "",
        "closeTreeLeafDither": true,
        "KJOEFBPOIIH": "",
        "IICFKKEBIEC": "",
        "EGEHEJEBLBJ": ""
      },
      {
        "$type": "FABLGECDBCH",
        "type": "BODY_LANG",
        "delayTime": 1.3960000276565552,
        "aliasList": [
          "4178"
        ],
        "actionId": 266,
        "bodyLangParam": 1130,
        "forceDoFreeStyle": true,
        "canDoRepeatFreeStyle": false,
        "eventPatternSuiteKey": "",
        "FOHHKFAIAAJ": ""
      }
    ],
    [
      {
        "$type": "FJKIHHKJLMJ",
        "type": "CAMERA_MOVE",
        "duration": 1.0,
        "actionId": 194,
        "camPosOffset": {
          "x": -277.3680114746094,
          "y": 203.92100524902344,
          "z": 2669.552001953125
        },
        "camForwardTargetOffset": {
          "x": -276.5140075683594,
          "y": 203.5290069580078,
          "z": 2669.208984375
        },
        "camFov": 55.733001708984375,
        "lerpPattern": 6,
        "cameraBlendType": "EaseInOutCubic",
        "NJBNNOMLKCK": {},
        "needZAxisRotate": true,
        "openCameraDither": false,
        "targetNpcAlias": "",
        "closeTreeLeafDither": true,
        "KJOEFBPOIIH": "",
        "IICFKKEBIEC": "",
        "EGEHEJEBLBJ": ""
      },
      {
        "$type": "LJLMDHDCAMK",
        "type": "LOOK_AT",
        "aliasList": [
          "Avatar"
        ],
        "enableHead": true,
        "headTurnTime": 0.5,
        "targetNpcAlias": "12688",
        "targetNpcLookAtPoint": "",
        "OAFJBHJHLJG": ""
      },
      {
        "$type": "PKKMAMONGEO",
        "type": "DIALOG",
        "aliasList": [
          "12688"
        ],
        "dialogID": 230300511,
        "protectTime": 0.8059999942779541
      },
      {
        "$type": "LJLMDHDCAMK",
        "type": "LOOK_AT",
        "aliasList": [
          "12689"
        ],
        "enableHead": true,
        "headTurnTime": 0.5,
        "targetNpcAlias": "12688",
        "targetNpcLookAtPoint": "",
        "OAFJBHJHLJG": ""
      },
      {
        "$type": "LJLMDHDCAMK",
        "type": "LOOK_AT",
        "aliasList": [
          "4178"
        ],
        "enableHead": true,
        "headTurnTime": 0.5,
        "targetNpcAlias": "12688",
        "targetNpcLookAtPoint": "",
        "OAFJBHJHLJG": ""
      },
      {
        "$type": "LJLMDHDCAMK",
        "type": "LOOK_AT",
        "aliasList": [
          "1005"
        ],
        "enableHead": true,
        "headTurnTime": 0.5,
        "targetNpcAlias": "12688",
        "targetNpcLookAtPoint": "",
        "OAFJBHJHLJG": ""
      },
      {
        "$type": "FJKIHHKJLMJ",
        "type": "CAMERA_MOVE",
        "delayTime": 0.15800000727176666,
        "duration": 16.0,
        "actionId": 194,
        "camPosOffset": {
          "x": -277.3680114746094,
          "y": 203.92100524902344,
          "z": 2669.552001953125
        },
        "camForwardTargetOffset": {
          "x": -276.56298828125,
          "y": 203.54299926757812,
          "z": 2669.093994140625
        },
        "camFov": 55.733001708984375,
        "cameraBlendType": "EaseOutQuad",
        "NJBNNOMLKCK": {},
        "needZAxisRotate": true,
        "openCameraDither": false,
        "targetNpcAlias": "",
        "closeTreeLeafDither": true,
        "KJOEFBPOIIH": "",
        "IICFKKEBIEC": "",
        "EGEHEJEBLBJ": ""
      },
      {
        "$type": "FABLGECDBCH",
        "type": "BODY_LANG",
        "delayTime": 0.4569999873638153,
        "aliasList": [
          "12688"
        ],
        "actionId": 267,
        "bodyLangParam": 1190,
        "forceDoFreeStyle": true,
        "canDoRepeatFreeStyle": false,
        "eventPatternSuiteKey": "",
        "FOHHKFAIAAJ": ""
      },
      {
        "$type": "FABLGECDBCH",
        "type": "BODY_LANG",
        "delayTime": 0.7059999704360962,
        "aliasList": [
          "4178"
        ],
        "actionId": 307,
        "isContinue": true,
        "forceDoFreeStyle": true,
        "canDoRepeatFreeStyle": false,
        "cantBackToIdleWhenSitLoop": true,
        "eventPatternSuiteKey": "",
        "FOHHKFAIAAJ": ""
      }
    ],
    [
      {
        "$type": "FJKIHHKJLMJ",
        "type": "CAMERA_MOVE",
        "duration": 0.5799999833106995,
        "actionId": 194,
        "camPosOffset": {
          "x": -277.3680114746094,
          "y": 203.92100524902344,
          "z": 2669.552001953125
        },
        "camForwardTargetOffset": {
          "x": -276.46600341796875,
          "y": 203.593994140625,
          "z": 2669.27197265625
        },
        "camFov": 55.733001708984375,
        "cameraBlendType": "EaseOutQuad",
        "NJBNNOMLKCK": {},
        "needZAxisRotate": true,
        "openCameraDither": false,
        "targetNpcAlias": "",
        "closeTreeLeafDither": true,
        "KJOEFBPOIIH": "",
        "IICFKKEBIEC": "",
        "EGEHEJEBLBJ": ""
      },
      {
        "$type": "LJLMDHDCAMK",
        "type": "LOOK_AT",
        "aliasList": [
          "Avatar"
        ],
        "enableHead": true,
        "headTurnTime": 0.5,
        "targetNpcAlias": "12689",
        "targetNpcLookAtPoint": "",
        "OAFJBHJHLJG": ""
      },
      {
        "$type": "LJLMDHDCAMK",
        "type": "LOOK_AT",
        "aliasList": [
          "12688"
        ],
        "enableHead": true,
        "headTurnTime": 0.5,
        "targetNpcAlias": "12689",
        "targetNpcLookAtPoint": "",
        "OAFJBHJHLJG": ""
      },
      {
        "$type": "PKKMAMONGEO",
        "type": "DIALOG",
        "aliasList": [
          "12689"
        ],
        "dialogID": 230300512,
        "protectTime": 1.6629999876022339
      },
      {
        "$type": "LJLMDHDCAMK",
        "type": "LOOK_AT",
        "aliasList": [
          "4178"
        ],
        "enableHead": true,
        "headTurnTime": 0.5,
        "targetNpcAlias": "12689",
        "targetNpcLookAtPoint": "",
        "OAFJBHJHLJG": ""
      },
      {
        "$type": "LJLMDHDCAMK",
        "type": "LOOK_AT",
        "aliasList": [
          "1005"
        ],
        "enableHead": true,
        "headTurnTime": 0.5,
        "targetNpcAlias": "12689",
        "targetNpcLookAtPoint": "",
        "OAFJBHJHLJG": ""
      },
      {
        "$type": "FABLGECDBCH",
        "type": "BODY_LANG",
        "delayTime": 0.382999986410141,
        "aliasList": [
          "12689"
        ],
        "actionId": 268,
        "bodyLangParam": 1060,
        "forceDoFreeStyle": true,
        "canDoRepeatFreeStyle": false,
        "eventPatternSuiteKey": "",
        "FOHHKFAIAAJ": ""
      },
      {
        "$type": "FJKIHHKJLMJ",
        "type": "CAMERA_MOVE",
        "delayTime": 0.5130000114440918,
        "duration": 4.0,
        "actionId": 194,
        "camPosOffset": {
          "x": -277.3680114746094,
          "y": 203.92100524902344,
          "z": 2669.552001953125
        },
        "camForwardTargetOffset": {
          "x": -276.46600341796875,
          "y": 203.593994140625,
          "z": 2669.27197265625
        },
        "camFov": 55.733001708984375,
        "lerpPattern": 6,
        "cameraBlendType": "EaseOutQuad",
        "NJBNNOMLKCK": {},
        "needZAxisRotate": true,
        "openCameraDither": false,
        "targetNpcAlias": "",
        "closeTreeLeafDither": true,
        "KJOEFBPOIIH": "",
        "IICFKKEBIEC": "",
        "EGEHEJEBLBJ": ""
      },
      {
        "$type": "LLGANGLOEEO",
        "type": "STEER_TO",
        "delayTime": 1.562999963760376,
        "duration": 1.0,
        "aliasList": [
          "12688"
        ],
        "actionId": 304,
        "steerType": "TO_TARGET",
        "useSteerAnim": true,
        "interruptFreestyle": true,
        "forceSteer": true,
        "targetNpcAlias": "12689",
        "OAFJBHJHLJG": ""
      }
    ],
    [
      {
        "$type": "FJKIHHKJLMJ",
        "type": "CAMERA_MOVE",
        "duration": 1.0,
        "actionId": 194,
        "camPosOffset": {
          "x": -274.8389892578125,
          "y": 203.31100463867188,
          "z": 2669.117919921875
        },
        "camForwardTargetOffset": {
          "x": -275.6919860839844,
          "y": 203.4810028076172,
          "z": 2668.6240234375
        },
        "camFov": 30.0,
        "lerpPattern": 6,
        "cameraBlendType": "EaseInOutCubic",
        "NJBNNOMLKCK": {},
        "needZAxisRotate": true,
        "openCameraDither": false,
        "targetNpcAlias": "",
        "closeTreeLeafDither": true,
        "KJOEFBPOIIH": "",
        "IICFKKEBIEC": "",
        "EGEHEJEBLBJ": ""
      },
      {
        "$type": "LJLMDHDCAMK",
        "type": "LOOK_AT",
        "aliasList": [
          "Avatar"
        ],
        "enableHead": true,
        "headTurnTime": 0.5,
        "targetNpcAlias": "12688",
        "targetNpcLookAtPoint": "",
        "OAFJBHJHLJG": ""
      },
      {
        "$type": "PKKMAMONGEO",
        "type": "DIALOG",
        "aliasList": [
          "12688"
        ],
        "dialogID": 230300513,
        "protectTime": 0.41499999165534973
      },
      {
        "$type": "LJLMDHDCAMK",
        "type": "LOOK_AT",
        "aliasList": [
          "12689"
        ],
        "enableHead": true,
        "headTurnTime": 0.5,
        "targetNpcAlias": "12688",
        "targetNpcLookAtPoint": "",
        "OAFJBHJHLJG": ""
      },
      {
        "$type": "FABLGECDBCH",
        "type": "BODY_LANG",
        "aliasList": [
          "12689"
        ],
        "actionId": 305,
        "isContinue": true,
        "forceDoFreeStyle": true,
        "canDoRepeatFreeStyle": false,
        "cantBackToIdleWhenSitLoop": true,
        "eventPatternSuiteKey": "",
        "FOHHKFAIAAJ": ""
      },
      {
        "$type": "LJLMDHDCAMK",
        "type": "LOOK_AT",
        "aliasList": [
          "4178"
        ],
        "enableHead": true,
        "headTurnTime": 0.5,
        "targetNpcAlias": "12688",
        "targetNpcLookAtPoint": "",
        "OAFJBHJHLJG": ""
      },
      {
        "$type": "LJLMDHDCAMK",
        "type": "LOOK_AT",
        "aliasList": [
          "1005"
        ],
        "enableHead": true,
        "headTurnTime": 0.5,
        "targetNpcAlias": "12688",
        "targetNpcLookAtPoint": "",
        "OAFJBHJHLJG": ""
      },
      {
        "$type": "FJKIHHKJLMJ",
        "type": "CAMERA_MOVE",
        "delayTime": 0.15800000727176666,
        "duration": 16.0,
        "actionId": 194,
        "camPosOffset": {
          "x": -274.8389892578125,
          "y": 203.31100463867188,
          "z": 2669.117919921875
        },
        "camForwardTargetOffset": {
          "x": -275.69500732421875,
          "y": 203.46299743652344,
          "z": 2668.623046875
        },
        "camFov": 30.0,
        "cameraBlendType": "EaseOutQuad",
        "NJBNNOMLKCK": {},
        "needZAxisRotate": true,
        "openCameraDither": false,
        "targetNpcAlias": "",
        "closeTreeLeafDither": true,
        "KJOEFBPOIIH": "",
        "IICFKKEBIEC": "",
        "EGEHEJEBLBJ": ""
      },
      {
        "$type": "FABLGECDBCH",
        "type": "BODY_LANG",
        "delayTime": 0.3149999976158142,
        "aliasList": [
          "12688"
        ],
        "actionId": 270,
        "bodyLangParam": 1230,
        "forceDoFreeStyle": true,
        "canDoRepeatFreeStyle": false,
        "eventPatternSuiteKey": "",
        "FOHHKFAIAAJ": ""
      }
    ],
    [
      {
        "$type": "FJKIHHKJLMJ",
        "type": "CAMERA_MOVE",
        "duration": 1.0,
        "actionId": 194,
        "camPosOffset": {
          "x": -275.2279968261719,
          "y": 204.4459991455078,
          "z": 2664.4541015625
        },
        "camForwardTargetOffset": {
          "x": -275.3340148925781,
          "y": 204.04600524902344,
          "z": 2665.364990234375
        },
        "camFov": 55.84700012207031,
        "lerpPattern": 6,
        "cameraBlendType": "EaseInOutCubic",
        "NJBNNOMLKCK": {},
        "needZAxisRotate": true,
        "openCameraDither": false,
        "targetNpcAlias": "",
        "closeTreeLeafDither": true,
        "KJOEFBPOIIH": "",
        "IICFKKEBIEC": "",
        "EGEHEJEBLBJ": ""
      },
      {
        "$type": "LJLMDHDCAMK",
        "type": "LOOK_AT",
        "aliasList": [
          "Avatar"
        ],
        "enableHead": true,
        "headTurnTime": 0.5,
        "targetNpcAlias": "12689",
        "targetNpcLookAtPoint": "",
        "OAFJBHJHLJG": ""
      },
      {
        "$type": "LJLMDHDCAMK",
        "type": "LOOK_AT",
        "aliasList": [
          "12688"
        ],
        "enableHead": true,
        "headTurnTime": 0.5,
        "targetNpcAlias": "12689",
        "targetNpcLookAtPoint": "",
        "OAFJBHJHLJG": ""
      },
      {
        "$type": "PKKMAMONGEO",
        "type": "DIALOG",
        "aliasList": [
          "12689"
        ],
        "dialogID": 230300514,
        "protectTime": 0.46299999952316284
      },
      {
        "$type": "LJLMDHDCAMK",
        "type": "LOOK_AT",
        "aliasList": [
          "4178"
        ],
        "enableHead": true,
        "headTurnTime": 0.5,
        "targetNpcAlias": "12689",
        "targetNpcLookAtPoint": "",
        "OAFJBHJHLJG": ""
      },
      {
        "$type": "LJLMDHDCAMK",
        "type": "LOOK_AT",
        "aliasList": [
          "1005"
        ],
        "enableHead": true,
        "headTurnTime": 0.5,
        "targetNpcAlias": "12689",
        "targetNpcLookAtPoint": "",
        "OAFJBHJHLJG": ""
      },
      {
        "$type": "FJKIHHKJLMJ",
        "type": "CAMERA_MOVE",
        "delayTime": 0.15800000727176666,
        "duration": 16.0,
        "actionId": 194,
        "camPosOffset": {
          "x": -275.2760009765625,
          "y": 204.26600646972656,
          "z": 2664.864013671875
        },
        "camForwardTargetOffset": {
          "x": -275.3819885253906,
          "y": 203.86599731445312,
          "z": 2665.77392578125
        },
        "camFov": 55.84700012207031,
        "cameraBlendType": "EaseOutQuad",
        "NJBNNOMLKCK": {},
        "needZAxisRotate": true,
        "openCameraDither": false,
        "targetNpcAlias": "",
        "closeTreeLeafDither": true,
        "KJOEFBPOIIH": "",
        "IICFKKEBIEC": "",
        "EGEHEJEBLBJ": ""
      },
      {
        "$type": "FABLGECDBCH",
        "type": "BODY_LANG",
        "delayTime": 0.3630000054836273,
        "aliasList": [
          "12689"
        ],
        "actionId": 271,
        "bodyLangParam": 1180,
        "forceDoFreeStyle": true,
        "canDoRepeatFreeStyle": false,
        "eventPatternSuiteKey": "",
        "FOHHKFAIAAJ": ""
      }
    ],
    [
      {
        "$type": "LJLMDHDCAMK",
        "type": "LOOK_AT",
        "aliasList": [
          "Avatar"
        ],
        "enableHead": true,
        "headTurnTime": 0.5,
        "targetNpcAlias": "12688",
        "targetNpcLookAtPoint": "",
        "OAFJBHJHLJG": ""
      },
      {
        "$type": "PKKMAMONGEO",
        "type": "DIALOG",
        "aliasList": [
          "12688"
        ],
        "dialogID": 230300515,
        "protectTime": 3.0360000133514404
      },
      {
        "$type": "LJLMDHDCAMK",
        "type": "LOOK_AT",
        "aliasList": [
          "12689"
        ],
        "enableHead": true,
        "headTurnTime": 0.5,
        "targetNpcAlias": "12688",
        "targetNpcLookAtPoint": "",
        "OAFJBHJHLJG": ""
      },
      {
        "$type": "FABLGECDBCH",
        "type": "BODY_LANG",
        "aliasList": [
          "12689"
        ],
        "actionId": 291,
        "isContinue": true,
        "forceDoFreeStyle": true,
        "canDoRepeatFreeStyle": false,
        "eventPatternSuiteKey": "",
        "FOHHKFAIAAJ": ""
      },
      {
        "$type": "LJLMDHDCAMK",
        "type": "LOOK_AT",
        "aliasList": [
          "4178"
        ],
        "enableHead": true,
        "headTurnTime": 0.5,
        "targetNpcAlias": "12688",
        "targetNpcLookAtPoint": "",
        "OAFJBHJHLJG": ""
      },
      {
        "$type": "LJLMDHDCAMK",
        "type": "LOOK_AT",
        "aliasList": [
          "1005"
        ],
        "enableHead": true,
        "headTurnTime": 0.5,
        "targetNpcAlias": "12688",
        "targetNpcLookAtPoint": "",
        "OAFJBHJHLJG": ""
      },
      {
        "$type": "LJLMDHDCAMK",
        "type": "LOOK_AT",
        "delayTime": 1.4539999961853027,
        "aliasList": [
          "12688"
        ],
        "actionId": 253,
        "enableHead": true,
        "headTurnTime": 0.5,
        "targetNpcAlias": "",
        "lookAtTargetType": "CAMERA",
        "targetNpcLookAtPoint": "",
        "OAFJBHJHLJG": ""
      },
      {
        "$type": "LLGANGLOEEO",
        "type": "STEER_TO",
        "delayTime": 1.5959999561309814,
        "duration": 1.0,
        "aliasList": [
          "12688"
        ],
        "actionId": 252,
        "steerType": "ABSOLUTE",
        "steerDir": {
          "x": -275.47900390625,
          "y": 201.0189971923828,
          "z": 2666.77294921875
        },
        "useSteerAnim": true,
        "interruptFreestyle": true,
        "forceSteer": true,
        "targetNpcAlias": "Avatar",
        "OAFJBHJHLJG": ""
      },
      {
        "$type": "FJKIHHKJLMJ",
        "type": "CAMERA_MOVE",
        "delayTime": 1.8580000400543213,
        "duration": 1.0,
        "actionId": 194,
        "camPosOffset": {
          "x": -275.80499267578125,
          "y": 203.3350067138672,
          "z": 2666.590087890625
        },
        "camForwardTargetOffset": {
          "x": -275.9219970703125,
          "y": 203.46600341796875,
          "z": 2667.573974609375
        },
        "camFov": 30.0,
        "lerpPattern": 6,
        "cameraBlendType": "EaseInOutCubic",
        "NJBNNOMLKCK": {},
        "needZAxisRotate": true,
        "openCameraDither": false,
        "targetNpcAlias": "",
        "closeTreeLeafDither": true,
        "KJOEFBPOIIH": "",
        "IICFKKEBIEC": "",
        "EGEHEJEBLBJ": ""
      },
      {
        "$type": "FJKIHHKJLMJ",
        "type": "CAMERA_MOVE",
        "delayTime": 2.0160000324249268,
        "duration": 16.0,
        "actionId": 194,
        "camPosOffset": {
          "x": -275.80499267578125,
          "y": 203.3350067138672,
          "z": 2666.590087890625
        },
        "camForwardTargetOffset": {
          "x": -275.9289855957031,
          "y": 203.41200256347656,
          "z": 2667.5791015625
        },
        "camFov": 30.0,
        "cameraBlendType": "EaseOutQuad",
        "NJBNNOMLKCK": {},
        "needZAxisRotate": true,
        "openCameraDither": false,
        "targetNpcAlias": "",
        "closeTreeLeafDither": true,
        "KJOEFBPOIIH": "",
        "IICFKKEBIEC": "",
        "EGEHEJEBLBJ": ""
      },
      {
        "$type": "LJLMDHDCAMK",
        "type": "LOOK_AT",
        "delayTime": 2.1659998893737793,
        "aliasList": [
          "4178"
        ],
        "actionId": 297,
        "enableHead": true,
        "headTurnTime": 0.5,
        "targetNpcAlias": "Avatar",
        "targetNpcLookAtPoint": "",
        "OAFJBHJHLJG": ""
      },
      {
        "$type": "FABLGECDBCH",
        "type": "BODY_LANG",
        "delayTime": 2.936000108718872,
        "aliasList": [
          "12688"
        ],
        "actionId": 273,
        "bodyLangParam": 1030,
        "forceDoFreeStyle": true,
        "canDoRepeatFreeStyle": false,
        "eventPatternSuiteKey": "",
        "FOHHKFAIAAJ": ""
      }
    ],
    [
      {
        "$type": "FJKIHHKJLMJ",
        "type": "CAMERA_MOVE",
        "duration": 1.0,
        "actionId": 194,
        "camPosOffset": {
          "x": -274.4880065917969,
          "y": 205.97999572753906,
          "z": 2662.5439453125
        },
        "camForwardTargetOffset": {
          "x": -274.53900146484375,
          "y": 205.5019989013672,
          "z": 2663.4208984375
        },
        "camFov": 55.88199996948242,
        "lerpPattern": 6,
        "cameraBlendType": "EaseInOutCubic",
        "NJBNNOMLKCK": {},
        "needZAxisRotate": true,
        "openCameraDither": false,
        "targetNpcAlias": "",
        "closeTreeLeafDither": true,
        "KJOEFBPOIIH": "",
        "IICFKKEBIEC": "",
        "EGEHEJEBLBJ": ""
      },
      {
        "$type": "PKKMAMONGEO",
        "type": "DIALOG",
        "aliasList": [
          "12688"
        ],
        "dialogID": 230300516,
        "protectTime": 1.878999948501587
      },
      {
        "$type": "FABLGECDBCH",
        "type": "BODY_LANG",
        "aliasList": [
          "12688"
        ],
        "actionId": 274,
        "bodyLangParam": 1240,
        "forceDoFreeStyle": true,
        "canDoRepeatFreeStyle": false,
        "eventPatternSuiteKey": "",
        "FOHHKFAIAAJ": ""
      },
      {
        "$type": "LJLMDHDCAMK",
        "type": "LOOK_AT",
        "aliasList": [
          "12688"
        ],
        "actionId": 294,
        "headTurnTime": 0.5,
        "targetNpcAlias": "",
        "targetNpcLookAtPoint": "",
        "OAFJBHJHLJG": ""
      },
      {
        "$type": "LJLMDHDCAMK",
        "type": "LOOK_AT",
        "aliasList": [
          "4178"
        ],
        "actionId": 296,
        "enableHead": true,
        "headTurnTime": 0.5,
        "targetNpcAlias": "12688",
        "targetNpcLookAtPoint": "",
        "OAFJBHJHLJG": ""
      },
      {
        "$type": "FJKIHHKJLMJ",
        "type": "CAMERA_MOVE",
        "delayTime": 0.15800000727176666,
        "duration": 16.0,
        "actionId": 194,
        "camPosOffset": {
          "x": -274.4880065917969,
          "y": 205.97999572753906,
          "z": 2662.5439453125
        },
        "camForwardTargetOffset": {
          "x": -274.6669921875,
          "y": 205.61599731445312,
          "z": 2663.4580078125
        },
        "camFov": 55.88199996948242,
        "cameraBlendType": "EaseOutQuad",
        "NJBNNOMLKCK": {},
        "needZAxisRotate": true,
        "openCameraDither": false,
        "targetNpcAlias": "",
        "closeTreeLeafDither": true,
        "KJOEFBPOIIH": "",
        "IICFKKEBIEC": "",
        "EGEHEJEBLBJ": ""
      },
      {
        "$type": "FABLGECDBCH",
        "type": "BODY_LANG",
        "delayTime": 0.9120000004768372,
        "aliasList": [
          "12689"
        ],
        "actionId": 275,
        "bodyLangParam": 1160,
        "forceDoFreeStyle": true,
        "canDoRepeatFreeStyle": false,
        "eventPatternSuiteKey": "",
        "FOHHKFAIAAJ": ""
      },
      {
        "$type": "LJLMDHDCAMK",
        "type": "LOOK_AT",
        "delayTime": 0.9120000004768372,
        "aliasList": [
          "12689"
        ],
        "actionId": 275,
        "headTurnTime": 0.5,
        "targetNpcAlias": "",
        "targetNpcLookAtPoint": "",
        "OAFJBHJHLJG": ""
      },
      {
        "$type": "FABLGECDBCH",
        "type": "BODY_LANG",
        "delayTime": 1.7790000438690186,
        "aliasList": [
          "4178"
        ],
        "actionId": 276,
        "bodyLangParam": 1230,
        "forceDoFreeStyle": true,
        "canDoRepeatFreeStyle": false,
        "eventPatternSuiteKey": "",
        "FOHHKFAIAAJ": ""
      }
    ],
    [
      {
        "$type": "MoleMole.Config.ConfigTimeProtectAction",
        "type": "TIME_PROTECT",
        "duration": 0.699999988079071
      },
      {
        "$type": "MoleMole.Config.ConfigSimpleBlackScreenAction",
        "type": "SIMPLE_BLACK_SCREEN",
        "durationToBlack": 0.5,
        "durationKeepBlack": 1.0,
        "durationFromBlack": 0.5,
        "textMapID": ""
      },
      {
        "$type": "MoleMole.Config.ConfigVisibleInterAction",
        "type": "VISIBLE",
        "delayTime": 0.5,
        "aliasList": [
          "12688"
        ],
        "actionId": 229,
        "_extraParam": ""
      },
      {
        "$type": "MoleMole.Config.ConfigVisibleInterAction",
        "type": "VISIBLE",
        "delayTime": 0.5,
        "aliasList": [
          "12689"
        ],
        "actionId": 229,
        "_extraParam": ""
      },
      {
        "$type": "MoleMole.Config.ConfigVisibleInterAction",
        "type": "VISIBLE",
        "delayTime": 0.5,
        "aliasList": [
          "4178"
        ],
        "actionId": 229,
        "_extraParam": ""
      }
    ]
  ],
  "groupId": [
    {
      "grpId": 248599224,
      "nextGrpId": 248599225
    },
    {
      "index": 1,
      "grpId": 248599225,
      "nextGrpId": 248599226
    },
    {
      "index": 2,
      "grpId": 248599226,
      "nextGrpId": 248599227
    },
    {
      "index": 3,
      "grpId": 248599227,
      "nextGrpId": 248599228
    },
    {
      "index": 4,
      "grpId": 248599228,
      "nextGrpId": 248599229
    },
    {
      "index": 5,
      "grpId": 248599229,
      "nextGrpId": 248599230
    },
    {
      "index": 6,
      "grpId": 248599230,
      "nextGrpId": 248599231
    },
    {
      "index": 7,
      "grpId": 248599231,
      "nextGrpId": 248599232
    },
    {
      "index": 8,
      "grpId": 248599232,
      "nextGrpId": 3411608696
    },
    {
      "index": 9,
      "grpId": 3411608696,
      "nextGrpId": 3411608697
    },
    {
      "index": 10,
      "grpId": 3411608697,
      "nextGrpId": 3411608698
    },
    {
      "index": 11,
      "grpId": 3411608698,
      "nextGrpId": 3411608699
    },
    {
      "index": 12,
      "grpId": 3411608699,
      "nextGrpId": 3411608700
    },
    {
      "index": 13,
      "grpId": 3411608700,
      "nextGrpId": 3411608701
    },
    {
      "index": 14,
      "grpId": 3411608701,
      "nextGrpId": 3411608702
    },
    {
      "index": 15,
      "grpId": 3411608702,
      "nextGrpId": 3411608703
    },
    {
      "index": 16,
      "grpId": 3411608703,
      "nextGrpId": 3411608704
    },
    {
      "index": 17,
      "grpId": 3411608704,
      "nextGrpId": 3411608705
    }
  ],
  "freeStyleDic": {
    "12688": [
      1240,
      1180,
      1171,
      1190,
      1230,
      1030
    ],
    "12689": [
      1290,
      4040,
      1150,
      1230,
      1060,
      1180,
      1160
    ],
    "4178": [
      1200,
      1171,
      1130,
      1230
    ]
  }
}