{
  "luaDataPath": "",
  "entityBan": "70502NPC_hide",
  "disableNpcLod": true,
  "startFade": {
    "startFadeOutDuration": 0.0
  },
  "endFade": {
    "startFadeOutDuration": 0.0
  },
  "actors": [
    {
      "alias": "Avatar",
      "visible": true,
      "bornPointName": "",
      "relativePosNpcAlias": "",
      "_bindMovingTargetKey": ""
    },
    {
      "configID": 30112,
      "alias": "30112",
      "visible": true,
      "bornPointName": "",
      "relativePosNpcAlias": "",
      "_bindMovingTargetKey": ""
    },
    {
      "configID": 1005,
      "alias": "1005",
      "visible": true,
      "bornPointName": "",
      "removeActorType": "REMOVE_WITH_DISAPPEAR",
      "relativePosNpcAlias": "",
      "_bindMovingTargetKey": ""
    }
  ],
  "group": [
    [
      {
        "$type": "LJLMDHDCAMK",
        "type": "LOOK_AT",
        "aliasList": [
          "1005"
        ],
        "enableHead": true,
        "useTargetPos": true,
        "enableAbsolute": true,
        "targetPosition": {
          "x": 2301.97705078125,
          "y": 215.64999389648438,
          "z": -921.2739868164062
        },
        "headTurnTime": 0.5,
        "targetNpcAlias": "",
        "lookAtTargetType": "NONE",
        "targetNpcLookAtPoint": "",
        "OAFJBHJHLJG": ""
      },
      {
        "$type": "MoleMole.Config.ConfigTeleportToAction",
        "type": "TELEPORT_TO",
        "aliasList": [
          "1005"
        ],
        "position": {
          "x": 2300.678955078125,
          "y": 213.99000549316406,
          "z": -922.2109985351562
        },
        "forward": {
          "x": 0.7870000004768372,
          "z": 0.6169999837875366
        },
        "openLongDisTeleport": true,
        "_posBindMovingTargetKey": "",
        "_forwardBindMovingTargetKey": ""
      },
      {
        "$type": "CPJKOIHIPBE",
        "type": "EMO_SYNC",
        "aliasList": [
          "30112"
        ],
        "dataPath": "Cs_Emo_Avatar_Simple_Common_Set/Cs_Emo_Avatar_Talk/Cs_Emo_Avatar_Event/Cs_Emo_Tiaojiu/Cs_Emo_705020119",
        "phonemePath": "",
        "emotionPath": "",
        "mateDataPath": "",
        "matePhonemePath": "",
        "mateEmotionPath": "",
        "dataPathHashList": [
          8975623541600211281,
          3233534581517940143,
          11107442918989582578,
          226116549790438821
        ],
        "FMDPBECPELH": "",
        "ADKBLPOKGIK": ""
      },
      {
        "$type": "MoleMole.Config.ConfigTeleportToAction",
        "type": "TELEPORT_TO",
        "aliasList": [
          "30112"
        ],
        "position": {
          "x": 2302.05810546875,
          "y": 214.09100341796875,
          "z": -921.2449951171875
        },
        "forward": {
          "x": -0.45500001311302185,
          "z": -0.8899999856948853
        },
        "openLongDisTeleport": true,
        "_posBindMovingTargetKey": "",
        "_forwardBindMovingTargetKey": ""
      },
      {
        "$type": "LJLMDHDCAMK",
        "type": "LOOK_AT",
        "aliasList": [
          "30112"
        ],
        "enableHead": true,
        "useTargetPos": true,
        "enableAbsolute": true,
        "targetPosition": {
          "x": 2300.987060546875,
          "y": 215.46200561523438,
          "z": -922.7620239257812
        },
        "headTurnTime": 0.5,
        "targetNpcAlias": "",
        "lookAtTargetType": "NONE",
        "targetNpcLookAtPoint": "",
        "OAFJBHJHLJG": ""
      },
      {
        "$type": "FABLGECDBCH",
        "type": "BODY_LANG",
        "aliasList": [
          "30112"
        ],
        "isContinue": true,
        "forceDoFreeStyle": true,
        "canDoRepeatFreeStyle": false,
        "eventPatternSuiteKey": "",
        "FOHHKFAIAAJ": ""
      },
      {
        "$type": "LJLMDHDCAMK",
        "type": "LOOK_AT",
        "aliasList": [
          "Avatar"
        ],
        "enableHead": true,
        "useTargetPos": true,
        "enableAbsolute": true,
        "targetPosition": {
          "x": 2302.080078125,
          "y": 215.69900512695312,
          "z": -921.2470092773438
        },
        "headTurnTime": 0.5,
        "targetNpcAlias": "",
        "lookAtTargetType": "NONE",
        "targetNpcLookAtPoint": "",
        "OAFJBHJHLJG": ""
      },
      {
        "$type": "FJKIHHKJLMJ",
        "type": "CAMERA_MOVE",
        "duration": 1.0,
        "camPosOffset": {
          "x": 2300.506103515625,
          "y": 215.72999572753906,
          "z": -925.5989990234375
        },
        "camForwardTargetOffset": {
          "x": 2300.751953125,
          "y": 215.6529998779297,
          "z": -924.6329956054688
        },
        "camFov": 20.0,
        "lerpPattern": 6,
        "cameraBlendType": "EaseInOutCubic",
        "NJBNNOMLKCK": {},
        "needZAxisRotate": true,
        "openCameraDither": false,
        "targetNpcAlias": "",
        "closeTreeLeafDither": true,
        "KJOEFBPOIIH": "",
        "IICFKKEBIEC": "",
        "EGEHEJEBLBJ": ""
      },
      {
        "$type": "MoleMole.Config.ConfigTeleportToAction",
        "type": "TELEPORT_TO",
        "aliasList": [
          "Avatar"
        ],
        "position": {
          "x": 2301.0810546875,
          "y": 214.09100341796875,
          "z": -922.7540283203125
        },
        "forward": {
          "x": 0.3490000069141388,
          "z": 0.9369999766349792
        },
        "openLongDisTeleport": true,
        "_posBindMovingTargetKey": "",
        "_forwardBindMovingTargetKey": ""
      },
      {
        "$type": "FABLGECDBCH",
        "type": "BODY_LANG",
        "aliasList": [
          "30112"
        ],
        "bodyLangParam": 4040,
        "forceDoFreeStyle": true,
        "canDoRepeatFreeStyle": false,
        "eventPatternSuiteKey": "",
        "FOHHKFAIAAJ": ""
      },
      {
        "$type": "PKKMAMONGEO",
        "type": "DIALOG",
        "aliasList": [
          "30112"
        ],
        "dialogID": 705020119,
        "protectTime": 0.5
      },
      {
        "$type": "FABLGECDBCH",
        "type": "BODY_LANG",
        "delayTime": 1.9170000553131104,
        "aliasList": [
          "30112"
        ],
        "bodyLangParam": 1130,
        "forceDoFreeStyle": true,
        "canDoRepeatFreeStyle": false,
        "eventPatternSuiteKey": "",
        "FOHHKFAIAAJ": ""
      },
      {
        "$type": "FABLGECDBCH",
        "type": "BODY_LANG",
        "delayTime": 3.683000087738037,
        "aliasList": [
          "30112"
        ],
        "isContinue": true,
        "forceDoFreeStyle": true,
        "canDoRepeatFreeStyle": false,
        "eventPatternSuiteKey": "",
        "FOHHKFAIAAJ": ""
      }
    ],
    [
      {
        "$type": "FABLGECDBCH",
        "type": "BODY_LANG",
        "aliasList": [
          "30112"
        ],
        "isContinue": true,
        "forceDoFreeStyle": true,
        "canDoRepeatFreeStyle": false,
        "eventPatternSuiteKey": "",
        "FOHHKFAIAAJ": ""
      },
      {
        "$type": "MoleMole.Config.ConfigSimpleBlackScreenAction",
        "type": "SIMPLE_BLACK_SCREEN",
        "durationToBlack": 0.5,
        "durationKeepBlack": 1.0,
        "durationFromBlack": 0.5,
        "textMapID": "",
        "useTextFade": true
      },
      {
        "$type": "FJKIHHKJLMJ",
        "type": "CAMERA_MOVE",
        "delayTime": 0.6000000238418579,
        "duration": 0.10000000149011612,
        "camPosOffset": {
          "x": 2299.74609375,
          "y": 215.66299438476562,
          "z": -925.0850219726562
        },
        "camForwardTargetOffset": {
          "x": 2300.172119140625,
          "y": 215.4550018310547,
          "z": -924.2050170898438
        },
        "lerpPattern": 6,
        "cameraBlendType": "EaseInOutCubic",
        "NJBNNOMLKCK": {},
        "needZAxisRotate": true,
        "openCameraDither": false,
        "targetNpcAlias": "",
        "closeTreeLeafDither": true,
        "KJOEFBPOIIH": "",
        "IICFKKEBIEC": "",
        "EGEHEJEBLBJ": ""
      },
      {
        "$type": "MoleMole.Config.ConfigHideWidgetPet",
        "type": "HIDE_WIDGET_PET",
        "delayTime": 0.6000000238418579
      }
    ]
  ],
  "groupId": [
    {
      "grpId": 255950776,
      "nextGrpId": 255950777
    },
    {
      "index": 1,
      "grpId": 255950777,
      "nextGrpId": 255950778
    }
  ],
  "freeStyleDic": {
    "30112": [
      4040,
      1130
    ]
  }
}