{
  "luaDataPath": "",
  "dontUseDefaultFinish": true,
  "entityBan": "",
  "disableNpcLod": true,
  "isAutoBanNpc": true,
  "isBanWidgetPet": true,
  "protectNpcMobileLod": true,
  "talkFlag": 5,
  "startFade": {
    "startFadeOutDuration": 0.0
  },
  "endFade": {
    "startFadeOutDuration": 0.0
  },
  "actors": [
    {
      "alias": "Avatar",
      "visible": true,
      "bornPointName": "N10000005_T7400303",
      "relativePosType": "AVATAR_NEW",
      "relativePosNpcAlias": "",
      "_bindMovingTargetKey": ""
    },
    {
      "alias": "AvatarNpc",
      "visible": true,
      "bornPointName": "N10000005_T7400303",
      "removeActorType": "NEW_REMOVE",
      "relativePosType": "AVATAR_NEW",
      "relativePosNpcAlias": "",
      "_bindMovingTargetKey": ""
    },
    {
      "configID": 1005,
      "alias": "1005",
      "visible": true,
      "bornPointName": "N1005_T7400303",
      "removeActorType": "NEW_REMOVE_WITH_DISAPPEAR",
      "relativePosType": "AVATAR_NEW",
      "relativePosNpcAlias": "",
      "_bindMovingTargetKey": ""
    }
  ],
  "group": [
    [
      {
        "$type": "MoleMole.Config.ConfigTimeProtectAction",
        "type": "TIME_PROTECT",
        "duration": 0.10000000149011612,
        "actionId": 104
      },
      {
        "$type": "MoleMole.Config.ConfigSitOrStandAction",
        "type": "SIT_OR_STAND",
        "aliasList": [
          "Avatar"
        ],
        "actionId": 110,
        "banResetFreestyle": true
      },
      {
        "$type": "MoleMole.Config.ConfigPlayerNPCEnergyTypeAction",
        "type": "SET_PLAYER_NPC_ENERGY_TYPE",
        "aliasList": [
          "AvatarNpc"
        ],
        "actionId": 111,
        "setHeroEngergyType": true
      },
      {
        "$type": "FABLGECDBCH",
        "type": "BODY_LANG",
        "aliasList": [
          "1005"
        ],
        "actionId": 108,
        "isContinue": true,
        "forceDoFreeStyle": true,
        "canDoRepeatFreeStyle": false,
        "eventPatternSuiteKey": "",
        "FOHHKFAIAAJ": ""
      }
    ],
    [
      {
        "$type": "MoleMole.Config.ConfigSpawnAttachInterAction",
        "type": "SPAWN_ATTACH",
        "aliasList": [
          "AvatarNpc"
        ],
        "actionId": 118,
        "attachName": "SwordWood_WeaponR",
        "_attachSetting": {
          "MNOBMANDDDE": "WeaponR",
          "attachPath": "ART/Char/NPC/NPC_Item/NPC_Item_SwordWooden",
          "effectPath": ""
        }
      },
      {
        "$type": "PKKMAMONGEO",
        "type": "DIALOG",
        "aliasList": [
          "1005"
        ],
        "actionId": 107,
        "dialogID": 740030801,
        "protectTime": 0.5
      },
      {
        "$type": "MoleMole.Config.ConfigVisibleInterAction",
        "type": "VISIBLE",
        "aliasList": [
          "1005"
        ],
        "actionId": 116,
        "isVisible": true,
        "_extraParam": ""
      },
      {
        "$type": "LJLMDHDCAMK",
        "type": "LOOK_AT",
        "aliasList": [
          "1005"
        ],
        "actionId": 119,
        "_flag": 64,
        "enableHead": true,
        "useTargetPos": true,
        "enableAbsolute": true,
        "targetPosition": {
          "x": 3904.804931640625,
          "y": -119.55699920654297,
          "z": 4820.8408203125
        },
        "headTurnTime": 0.5,
        "targetNpcAlias": "",
        "lookAtTargetType": "NONE",
        "openBackProtect": true,
        "backProtectAngle": 60.0,
        "targetNpcLookAtPoint": "",
        "OAFJBHJHLJG": ""
      },
      {
        "$type": "LJLMDHDCAMK",
        "type": "LOOK_AT",
        "delayTime": 0.33500000834465027,
        "aliasList": [
          "1005"
        ],
        "actionId": 120,
        "_flag": 64,
        "enableHead": true,
        "useTargetPos": true,
        "enableAbsolute": true,
        "targetPosition": {
          "x": 3904.570068359375,
          "y": -119.55699920654297,
          "z": 4821.22900390625
        },
        "headTurnTime": 0.5,
        "targetNpcAlias": "",
        "lookAtTargetType": "NONE",
        "openBackProtect": true,
        "backProtectAngle": 60.0,
        "targetNpcLookAtPoint": "",
        "OAFJBHJHLJG": ""
      },
      {
        "$type": "LJLMDHDCAMK",
        "type": "LOOK_AT",
        "delayTime": 0.9700000286102295,
        "aliasList": [
          "1005"
        ],
        "actionId": 123,
        "_flag": 64,
        "enableHead": true,
        "useTargetPos": true,
        "enableAbsolute": true,
        "targetPosition": {
          "x": 3904.77587890625,
          "y": -119.55699920654297,
          "z": 4820.87890625
        },
        "headTurnTime": 0.5,
        "targetNpcAlias": "",
        "lookAtTargetType": "NONE",
        "openBackProtect": true,
        "backProtectAngle": 60.0,
        "targetNpcLookAtPoint": "",
        "OAFJBHJHLJG": ""
      },
      {
        "$type": "FABLGECDBCH",
        "type": "BODY_LANG",
        "delayTime": 1.527999997138977,
        "aliasList": [
          "1005"
        ],
        "actionId": 124,
        "bodyLangParam": 1250,
        "forceDoFreeStyle": true,
        "canDoRepeatFreeStyle": false,
        "cantBackToIdleWhenSitLoop": true,
        "eventPatternSuiteKey": "",
        "FOHHKFAIAAJ": ""
      }
    ],
    [
      {
        "$type": "MoleMole.Config.ConfigTimeProtectAction",
        "type": "TIME_PROTECT",
        "duration": 0.10000000149011612,
        "actionId": 105
      }
    ]
  ],
  "groupId": [
    {
      "grpId": 2655379548,
      "nextGrpId": 2655379549
    },
    {
      "index": 1,
      "grpId": 2655379549,
      "nextGrpId": 2655379550
    },
    {
      "index": 2,
      "grpId": 2655379550,
      "nextGrpId": 2655379551
    }
  ],
  "freeStyleDic": {
    "1025": [],
    "1026": []
  }
}