{
  "luaDataPath": "",
  "dontUseDefaultFinish": true,
  "entityBan": "",
  "disableNpcLod": true,
  "protectNpcMobileLod": true,
  "talkFlag": 5,
  "startFade": {
    "startFadeOutDuration": 0.0
  },
  "endFade": {
    "startFadeOutDuration": 0.0
  },
  "actors": [
    {
      "alias": "Avatar",
      "visible": true,
      "bornPointName": "",
      "relativePosType": "AVATAR_NEW",
      "relativePosNpcAlias": "",
      "_bindMovingTargetKey": ""
    },
    {
      "configID": 9537,
      "alias": "9537",
      "visible": true,
      "bornPointName": "",
      "relativePosType": "AVATAR_NEW",
      "relativePosNpcAlias": "",
      "_bindMovingTargetKey": ""
    }
  ],
  "group": [
    [
      {
        "$type": "MoleMole.Config.ConfigTimeProtectAction",
        "type": "TIME_PROTECT",
        "duration": 1.2000000476837158,
        "actionId": 104
      },
      {
        "$type": "MoleMole.Config.ConfigBlackScreenAction",
        "type": "BLACK_SCREEN",
        "duration": 3.0,
        "actionId": 106,
        "durationToBlack": 0.5,
        "durationKeepBlack": 2.0,
        "durationFromBlack": 0.5,
        "inteePos": "",
        "textMapID": "",
        "useTextFade": true
      },
      {
        "$type": "MoleMole.Config.ConfigUITriggerInterAction",
        "type": "UI_TRIGGER",
        "actionId": 110,
        "contextName": "GcgCardGroupName",
        "_param": "1"
      },
      {
        "$type": "MoleMole.Config.ConfigRequestMsgAction",
        "type": "REQUEST_MSG",
        "actionId": 111,
        "msgName": "GCGTCInvite",
        "_param": ""
      },
      {
        "$type": "LJLMDHDCAMK",
        "type": "LOOK_AT",
        "aliasList": [
          "9537"
        ],
        "actionId": 115,
        "headTurnTime": 0.5,
        "targetNpcAlias": "",
        "openBackProtect": true,
        "backProtectAngle": 60.0,
        "targetNpcLookAtPoint": "",
        "OAFJBHJHLJG": ""
      },
      {
        "$type": "MoleMole.Config.ConfigTeleportToAction",
        "type": "TELEPORT_TO",
        "delayTime": 0.5,
        "aliasList": [
          "Avatar"
        ],
        "actionId": 112,
        "forward": {
          "z": 1.0
        },
        "openLongDisTeleport": true,
        "posSelectType": "GCG_PLAYER",
        "_posBindMovingTargetKey": "",
        "_forwardBindMovingTargetKey": ""
      },
      {
        "$type": "MoleMole.Config.ConfigSitOrStandAction",
        "type": "SIT_OR_STAND",
        "delayTime": 1.7999999523162842,
        "aliasList": [
          "Avatar"
        ],
        "actionId": 113,
        "isSit": true,
        "banResetFreestyle": true
      },
      {
        "$type": "FJKIHHKJLMJ",
        "type": "CAMERA_MOVE",
        "delayTime": 2.0,
        "duration": 0.10000000149011612,
        "actionId": 109,
        "cameraPosType": "RELATIVE_TO_INTEE_ONLY",
        "camPosOffset": {
          "y": 1.3799999952316284,
          "z": 0.8100000023841858
        },
        "camTargetType": "RELATIVE_TO_INTEE_FORWARD",
        "camForwardTargetOffset": {
          "y": 1.350000023841858,
          "z": -0.3799999952316284
        },
        "camFov": 30.0,
        "lerpPattern": 6,
        "cameraBlendType": "EaseInOutCubic",
        "NJBNNOMLKCK": {},
        "openCameraDither": false,
        "targetNpcAlias": "",
        "closeTreeLeafDither": true,
        "KJOEFBPOIIH": "",
        "exFreestyleTypeList": [
          8010,
          8011,
          8012,
          8013,
          8040,
          8060
        ],
        "exCamPosOffset": {
          "y": 1.059999942779541,
          "z": 0.6100000143051147
        },
        "exCamForwardTargetOffset": {
          "y": 1.0299999713897705,
          "z": -1.100000023841858
        },
        "IICFKKEBIEC": "",
        "EGEHEJEBLBJ": ""
      }
    ],
    [
      {
        "$type": "PKKMAMONGEO",
        "type": "DIALOG",
        "aliasList": [
          "9537"
        ],
        "actionId": 108,
        "dialogID": 695371201,
        "protectTime": 0.5
      },
      {
        "$type": "FABLGECDBCH",
        "type": "BODY_LANG",
        "aliasList": [
          "9537"
        ],
        "actionId": 116,
        "bodyLangParam": 8040,
        "forceDoFreeStyle": true,
        "canDoRepeatFreeStyle": false,
        "cantBackToIdleWhenSitLoop": true,
        "eventPatternSuiteKey": "",
        "FOHHKFAIAAJ": ""
      },
      {
        "$type": "CPJKOIHIPBE",
        "type": "EMO_SYNC",
        "delayTime": 0.00800000037997961,
        "aliasList": [
          "9537"
        ],
        "actionId": 114,
        "dataPath": "Cs_Emo_Avatar_Simple_Common_Set/Cs_Emo_Avatar_Talk/Cs_Emo_GCG/Cs_Emo_Avatar_Hutao/Cs_Emo_695371201",
        "phonemePath": "",
        "emotionPath": "",
        "mateDataPath": "",
        "matePhonemePath": "",
        "mateEmotionPath": "",
        "dataPathHashList": [
          1367515143864832756,
          4915642788435451617,
          8915838390963528332,
          15318472779273113631
        ],
        "FMDPBECPELH": "",
        "ADKBLPOKGIK": ""
      }
    ],
    [
      {
        "$type": "MoleMole.Config.ConfigTimeProtectAction",
        "type": "TIME_PROTECT",
        "duration": 0.10000000149011612,
        "actionId": 105
      },
      {
        "$type": "FABLGECDBCH",
        "type": "BODY_LANG",
        "aliasList": [
          "9537"
        ],
        "actionId": 117,
        "isContinue": true,
        "forceDoFreeStyle": true,
        "canDoRepeatFreeStyle": false,
        "cantBackToIdleWhenSitLoop": true,
        "eventPatternSuiteKey": "",
        "FOHHKFAIAAJ": ""
      }
    ]
  ],
  "groupId": [
    {
      "grpId": 803233585,
      "nextGrpId": 803233586
    },
    {
      "index": 1,
      "grpId": 803233586,
      "nextGrpId": 803233587
    },
    {
      "index": 2,
      "grpId": 803233587,
      "nextGrpId": 803233588
    }
  ],
  "freeStyleDic": {
    "9537": [
      8040
    ]
  },
  "EKFBDAIDEEF": {
    "9537": [
      "SitChat01AS",
      "SitHoldArm01AS",
      "SitPutArm01AS",
      "SitShrug01AS",
      "SitThink01AS"
    ]
  }
}