{
  "luaDataPath": "",
  "entityBan": "",
  "disableNpcLod": true,
  "startFade": {
    "startFadeOutDuration": 0.0
  },
  "endFade": {
    "startFadeOutDuration": 0.0
  },
  "actors": [
    {
      "alias": "Avatar",
      "visible": true,
      "bornPointName": "",
      "relativePosNpcAlias": "",
      "_bindMovingTargetKey": ""
    },
    {
      "configID": 1005,
      "alias": "1005",
      "visible": true,
      "bornPointName": "",
      "useRelativePos": true,
      "relativePos": {
        "x": -0.5,
        "z": 0.5
      },
      "removeActorType": "REMOVE_WITH_DISAPPEAR",
      "relativePosNpcAlias": "",
      "_bindMovingTargetKey": ""
    },
    {
      "configID": 2093,
      "alias": "2093",
      "visible": true,
      "bornPointName": "",
      "relativePosNpcAlias": "",
      "_bindMovingTargetKey": ""
    }
  ],
  "group": [
    [
      {
        "$type": "FJKIHHKJLMJ",
        "type": "CAMERA_FOCUS",
        "duration": 0.10000000149011612,
        "targetNpcAlias": "",
        "KJOEFBPOIIH": "",
        "IICFKKEBIEC": "",
        "EGEHEJEBLBJ": ""
      },
      {
        "$type": "HDGKHDNFMIM",
        "type": "DIALOG_SELECT",
        "delayTime": 0.4000000059604645,
        "aliasList": [
          "Avatar"
        ],
        "dialogIDList": [
          721830202
        ],
        "grpIDList": [
          1706231316
        ],
        "useGrpId": true
      },
      {
        "$type": "LJLMDHDCAMK",
        "type": "LOOK_AT",
        "duration": 0.10000000149011612,
        "aliasList": [
          "Avatar"
        ],
        "enableHead": true,
        "headTurnTime": 0.5,
        "targetNpcAlias": "2093",
        "targetNpcLookAtPoint": "",
        "OAFJBHJHLJG": ""
      },
      {
        "$type": "PKKMAMONGEO",
        "type": "DIALOG",
        "aliasList": [
          "2093"
        ],
        "dialogID": 721830201,
        "protectTime": 0.5
      },
      {
        "$type": "LLGANGLOEEO",
        "type": "STEER_TO",
        "duration": 0.800000011920929,
        "aliasList": [
          "2093"
        ],
        "steerType": "TO_LOCAL_AVATAR",
        "useSteerAnim": true,
        "forceSteer": true,
        "targetNpcAlias": "",
        "OAFJBHJHLJG": ""
      }
    ],
    [
      {
        "$type": "PKKMAMONGEO",
        "type": "DIALOG",
        "aliasList": [
          "2093"
        ],
        "dialogID": 721830203,
        "protectTime": 0.5
      }
    ],
    [
      {
        "$type": "PKKMAMONGEO",
        "type": "DIALOG",
        "aliasList": [
          "2093"
        ],
        "dialogID": 721830204,
        "protectTime": 0.5
      }
    ],
    [
      {
        "$type": "PKKMAMONGEO",
        "type": "DIALOG",
        "aliasList": [
          "2093"
        ],
        "dialogID": 721830205,
        "protectTime": 0.5
      }
    ],
    [
      {
        "$type": "PKKMAMONGEO",
        "type": "DIALOG",
        "aliasList": [
          "1005"
        ],
        "dialogID": 721830206,
        "protectTime": 0.5
      }
    ],
    [
      {
        "$type": "PKKMAMONGEO",
        "type": "DIALOG",
        "aliasList": [
          "1005"
        ],
        "dialogID": 721830207,
        "protectTime": 0.5
      }
    ],
    [
      {
        "$type": "PKKMAMONGEO",
        "type": "DIALOG",
        "aliasList": [
          "2093"
        ],
        "dialogID": 721830208,
        "protectTime": 0.5
      }
    ],
    [
      {
        "$type": "PKKMAMONGEO",
        "type": "DIALOG",
        "aliasList": [
          "2093"
        ],
        "dialogID": 721830209,
        "protectTime": 0.5
      }
    ],
    [
      {
        "$type": "PKKMAMONGEO",
        "type": "DIALOG",
        "aliasList": [
          "2093"
        ],
        "dialogID": 721830210,
        "protectTime": 0.5
      }
    ],
    [
      {
        "$type": "PKKMAMONGEO",
        "type": "DIALOG",
        "aliasList": [
          "2093"
        ],
        "dialogID": 721830211,
        "protectTime": 0.5
      }
    ],
    [
      {
        "$type": "PKKMAMONGEO",
        "type": "DIALOG",
        "aliasList": [
          "2093"
        ],
        "dialogID": 721830212,
        "protectTime": 0.5
      }
    ],
    [
      {
        "$type": "HDGKHDNFMIM",
        "type": "DIALOG_SELECT",
        "delayTime": 0.4000000059604645,
        "aliasList": [
          "Avatar"
        ],
        "dialogIDList": [
          721830214
        ],
        "grpIDList": [
          1353563264
        ],
        "useGrpId": true
      },
      {
        "$type": "PKKMAMONGEO",
        "type": "DIALOG",
        "aliasList": [
          "2093"
        ],
        "dialogID": 721830213,
        "protectTime": 0.5
      }
    ],
    [
      {
        "$type": "PKKMAMONGEO",
        "type": "DIALOG",
        "aliasList": [
          "1005"
        ],
        "dialogID": 721830215,
        "protectTime": 0.5
      }
    ],
    [
      {
        "$type": "PKKMAMONGEO",
        "type": "DIALOG",
        "aliasList": [
          "2093"
        ],
        "dialogID": 721830216,
        "protectTime": 0.5
      }
    ],
    [
      {
        "$type": "PKKMAMONGEO",
        "type": "DIALOG",
        "aliasList": [
          "1005"
        ],
        "dialogID": 721830217,
        "protectTime": 0.5
      }
    ],
    [
      {
        "$type": "PKKMAMONGEO",
        "type": "DIALOG",
        "aliasList": [
          "1005"
        ],
        "dialogID": 721830218,
        "protectTime": 0.5
      }
    ],
    [
      {
        "$type": "MoleMole.Config.ConfigTimeProtectAction",
        "type": "TIME_PROTECT",
        "duration": 0.10000000149011612
      }
    ]
  ],
  "groupId": [
    {
      "grpId": 1706231315,
      "nextGrpId": 1706231316
    },
    {
      "index": 1,
      "grpId": 1706231316,
      "nextGrpId": 1706231317
    },
    {
      "index": 2,
      "grpId": 1706231317,
      "nextGrpId": 1706231318
    },
    {
      "index": 3,
      "grpId": 1706231318,
      "nextGrpId": 1706231319
    },
    {
      "index": 4,
      "grpId": 1706231319,
      "nextGrpId": 1706231320
    },
    {
      "index": 5,
      "grpId": 1706231320,
      "nextGrpId": 1706231321
    },
    {
      "index": 6,
      "grpId": 1706231321,
      "nextGrpId": 1706231322
    },
    {
      "index": 7,
      "grpId": 1706231322,
      "nextGrpId": 1706231323
    },
    {
      "index": 8,
      "grpId": 1706231323,
      "nextGrpId": 1353563261
    },
    {
      "index": 9,
      "grpId": 1353563261,
      "nextGrpId": 1353563262
    },
    {
      "index": 10,
      "grpId": 1353563262,
      "nextGrpId": 1353563263
    },
    {
      "index": 11,
      "grpId": 1353563263,
      "nextGrpId": 1353563264
    },
    {
      "index": 12,
      "grpId": 1353563264,
      "nextGrpId": 1353563265
    },
    {
      "index": 13,
      "grpId": 1353563265,
      "nextGrpId": 1353563266
    },
    {
      "index": 14,
      "grpId": 1353563266,
      "nextGrpId": 1353563267
    },
    {
      "index": 15,
      "grpId": 1353563267,
      "nextGrpId": 1353563268
    },
    {
      "index": 16,
      "grpId": 1353563268,
      "nextGrpId": 1353563269
    }
  ],
  "freeStyleDic": {
    "2093": []
  }
}