{
  "luaDataPath": "",
  "startBlackKeepTime": 0.5,
  "entityBan": "",
  "disableNpcLod": true,
  "isAutoBanNpc": true,
  "isBanWidgetPet": true,
  "protectNpcMobileLod": true,
  "startFade": {
    "startFadeInDuration": 0.5,
    "startFadeOutDuration": 0.5
  },
  "endFade": {
    "startFadeOutDuration": 0.0
  },
  "actors": [
    {
      "alias": "Avatar",
      "visible": true,
      "bornPointName": "N10000005_T7330512_3065",
      "relativePosType": "AVATAR_NEW",
      "relativePosNpcAlias": "",
      "_bindMovingTargetKey": ""
    },
    {
      "alias": "AvatarNpc",
      "visible": true,
      "bornPointName": "N10000005_T7330512_3065",
      "removeActorType": "REMOVE",
      "relativePosType": "AVATAR_NEW",
      "relativePosNpcAlias": "",
      "_bindMovingTargetKey": ""
    },
    {
      "configID": 20846,
      "alias": "20846",
      "visible": true,
      "bornPointName": "Q7330501_N20846",
      "relativePosType": "AVATAR_NEW",
      "relativePosNpcAlias": "",
      "_bindMovingTargetKey": ""
    },
    {
      "configID": 1005,
      "alias": "1005",
      "visible": true,
      "bornPointName": "",
      "useRelativePos": true,
      "relativePos": {
        "x": 0.5,
        "z": 0.5
      },
      "removeActorType": "REMOVE_WITH_DISAPPEAR",
      "relativePosType": "AVATAR_NEW",
      "relativePosNpcAlias": "",
      "_bindMovingTargetKey": ""
    }
  ],
  "group": [
    [
      {
        "$type": "MoleMole.Config.ConfigTimeProtectAction",
        "type": "TIME_PROTECT",
        "duration": 1.0,
        "actionId": 104
      },
      {
        "$type": "MoleMole.Config.ConfigBlackScreenAction",
        "type": "BLACK_SCREEN",
        "duration": 1.0,
        "actionId": 120,
        "blackScreenType": "KEEP_BLACK",
        "durationToBlack": 0.5,
        "durationKeepBlack": 1.0,
        "durationFromBlack": 0.5,
        "inteePos": "",
        "textMapID": "",
        "useTextFade": true
      },
      {
        "$type": "MoleMole.Config.ConfigVisibleInterAction",
        "type": "VISIBLE",
        "aliasList": [
          "Avatar"
        ],
        "actionId": 124,
        "_extraParam": ""
      },
      {
        "$type": "MoleMole.Config.ConfigPlayerNPCEnergyTypeAction",
        "type": "SET_PLAYER_NPC_ENERGY_TYPE",
        "aliasList": [
          "Avatar"
        ],
        "actionId": 198,
        "setHeroEngergyType": true
      },
      {
        "$type": "MoleMole.Config.ConfigTeleportToAction",
        "type": "TELEPORT_TO",
        "aliasList": [
          "Avatar"
        ],
        "actionId": 204,
        "position": {
          "x": -1427.9530029296875,
          "y": -28.340999603271484,
          "z": 5612.9248046875
        },
        "forward": {
          "x": 0.6110000014305115,
          "z": -0.7910000085830688
        },
        "openLongDisTeleport": true,
        "_posBindMovingTargetKey": "",
        "_forwardBindMovingTargetKey": ""
      },
      {
        "$type": "MoleMole.Config.ConfigTeleportToAction",
        "type": "TELEPORT_TO",
        "aliasList": [
          "AvatarNpc"
        ],
        "actionId": 139,
        "position": {
          "x": -1427.9530029296875,
          "y": -28.340999603271484,
          "z": 5612.9248046875
        },
        "forward": {
          "x": 0.6110000014305115,
          "z": -0.7910000085830688
        },
        "openLongDisTeleport": true,
        "_posBindMovingTargetKey": "",
        "_forwardBindMovingTargetKey": ""
      },
      {
        "$type": "MoleMole.Config.ConfigPlayerNPCEnergyTypeAction",
        "type": "SET_PLAYER_NPC_ENERGY_TYPE",
        "aliasList": [
          "AvatarNpc"
        ],
        "actionId": 203,
        "setHeroEngergyType": true
      },
      {
        "$type": "MoleMole.Config.ConfigTeleportToAction",
        "type": "TELEPORT_TO",
        "aliasList": [
          "20846"
        ],
        "actionId": 131,
        "position": {
          "x": -1427.5460205078125,
          "y": -27.316999435424805,
          "z": 5613.5390625
        },
        "forward": {
          "x": 0.3149999976158142,
          "z": -0.9490000009536743
        },
        "openLongDisTeleport": true,
        "_posBindMovingTargetKey": "",
        "_forwardBindMovingTargetKey": ""
      },
      {
        "$type": "MoleMole.Config.ConfigTeleportToAction",
        "type": "TELEPORT_TO",
        "aliasList": [
          "1005"
        ],
        "actionId": 132,
        "position": {
          "x": -1428.612060546875,
          "y": -28.340999603271484,
          "z": 5612.68310546875
        },
        "forward": {
          "x": 0.8149999976158142,
          "z": -0.7680000066757202
        },
        "openLongDisTeleport": true,
        "_posBindMovingTargetKey": "",
        "_forwardBindMovingTargetKey": ""
      }
    ],
    [
      {
        "$type": "MoleMole.Config.ConfigBlackScreenAction",
        "type": "BLACK_SCREEN",
        "duration": 0.5,
        "actionId": 121,
        "blackScreenType": "FROM_BLACK",
        "durationToBlack": 0.5,
        "durationKeepBlack": 0.5,
        "durationFromBlack": 0.5,
        "inteePos": "",
        "textMapID": "",
        "useTextFade": true
      },
      {
        "$type": "FJKIHHKJLMJ",
        "type": "CAMERA_MOVE",
        "duration": 0.5,
        "actionId": 126,
        "camPosOffset": {
          "x": -1436.0269775390625,
          "y": -21.28499984741211,
          "z": 5633.19384765625
        },
        "camForwardTargetOffset": {
          "x": -1435.489990234375,
          "y": -21.51300048828125,
          "z": 5632.380859375
        },
        "lerpPattern": 6,
        "cameraBlendType": "EaseInOutCubic",
        "NJBNNOMLKCK": {},
        "needZAxisRotate": true,
        "openCameraDither": false,
        "targetNpcAlias": "",
        "closeTreeLeafDither": true,
        "KJOEFBPOIIH": "",
        "IICFKKEBIEC": "",
        "EGEHEJEBLBJ": ""
      },
      {
        "$type": "MoleMole.Config.ConfigCameraShakeAction",
        "type": "CAMERA_SHAKE",
        "duration": 6.048999786376953,
        "actionId": 127,
        "shakeRange": 0.20000000298023224,
        "shakeTime": 5.0,
        "_shakeDir": {
          "x": 0.20000000298023224,
          "y": 0.44999998807907104,
          "z": 0.15000000596046448
        },
        "useExtendSetting": true,
        "_shakeType": "RANDOM",
        "randomSetting": {
          "randomSeed": 15.289999961853027,
          "energyCurve": {
            "keyframes": [
              {
                "value": -0.699999988079071
              },
              {
                "time": 0.17399999499320984,
                "value": -0.6259999871253967,
                "inTangent": 0.9070000052452087,
                "outTangent": 0.9070000052452087
              },
              {
                "time": 1.0,
                "value": 0.30000001192092896,
                "inTangent": 1.2730000019073486,
                "outTangent": 1.2730000019073486
              }
            ]
          },
          "keepTime": 5.0
        }
      },
      {
        "$type": "PKKMAMONGEO",
        "type": "DIALOG",
        "aliasList": [
          "20846"
        ],
        "actionId": 107,
        "dialogID": 733051201,
        "protectTime": 0.5
      },
      {
        "$type": "MoleMole.Config.ConfigSetModelTransform",
        "type": "SET_MODEL_TRANSFORM",
        "aliasList": [
          "1005"
        ],
        "actionId": 145,
        "groudHight": 0.4000000059604645
      },
      {
        "$type": "FJKIHHKJLMJ",
        "type": "CAMERA_MOVE",
        "delayTime": 0.06300000101327896,
        "duration": 5.918000221252441,
        "actionId": 129,
        "camPosOffset": {
          "x": -1435.7650146484375,
          "y": -20.45599937438965,
          "z": 5633.10009765625
        },
        "camForwardTargetOffset": {
          "x": -1435.2440185546875,
          "y": -20.724000930786133,
          "z": 5632.2900390625
        },
        "cameraBlendType": "EaseOutQuad",
        "NJBNNOMLKCK": {},
        "needZAxisRotate": true,
        "openCameraDither": false,
        "targetNpcAlias": "",
        "closeTreeLeafDither": true,
        "KJOEFBPOIIH": "",
        "IICFKKEBIEC": "",
        "EGEHEJEBLBJ": ""
      }
    ],
    [
      {
        "$type": "MoleMole.Config.ConfigCameraShakeAction",
        "type": "CAMERA_SHAKE",
        "duration": 4.5279998779296875,
        "actionId": 136,
        "shakeRange": 0.019999999552965164,
        "shakeTime": 5.0,
        "_shakeDir": {
          "x": 0.009999999776482582,
          "y": 0.05000000074505806,
          "z": 0.009999999776482582
        },
        "useExtendSetting": true,
        "_shakeType": "RANDOM",
        "randomSetting": {
          "randomSeed": 14.079999923706055,
          "energyCurve": {
            "keyframes": [
              {
                "value": 1.0
              },
              {
                "time": 1.0,
                "value": 1.0
              }
            ]
          },
          "keepTime": 5.0
        }
      },
      {
        "$type": "FABLGECDBCH",
        "type": "BODY_LANG",
        "aliasList": [
          "AvatarNpc"
        ],
        "actionId": 141,
        "bodyLangParam": 1080,
        "forceDoFreeStyle": true,
        "canDoRepeatFreeStyle": false,
        "cantBackToIdleWhenSitLoop": true,
        "eventPatternSuiteKey": "",
        "FOHHKFAIAAJ": ""
      },
      {
        "$type": "PKKMAMONGEO",
        "type": "DIALOG",
        "aliasList": [
          "1005"
        ],
        "actionId": 109,
        "dialogID": 733051202,
        "protectTime": 0.5
      },
      {
        "$type": "FABLGECDBCH",
        "type": "BODY_LANG",
        "aliasList": [
          "1005"
        ],
        "actionId": 142,
        "bodyLangParam": 1410,
        "forceDoFreeStyle": true,
        "canDoRepeatFreeStyle": false,
        "cantBackToIdleWhenSitLoop": true,
        "eventPatternSuiteKey": "",
        "FOHHKFAIAAJ": ""
      },
      {
        "$type": "FJKIHHKJLMJ",
        "type": "CAMERA_MOVE",
        "delayTime": 0.008999999612569809,
        "duration": 0.5,
        "actionId": 134,
        "camPosOffset": {
          "x": -1426.050048828125,
          "y": -28.218000411987305,
          "z": 5611.8271484375
        },
        "camForwardTargetOffset": {
          "x": -1426.8380126953125,
          "y": -27.881000518798828,
          "z": 5612.341796875
        },
        "camFov": 35.0,
        "lerpPattern": 6,
        "cameraBlendType": "EaseInOutCubic",
        "NJBNNOMLKCK": {},
        "needZAxisRotate": true,
        "openCameraDither": false,
        "targetNpcAlias": "",
        "closeTreeLeafDither": true,
        "KJOEFBPOIIH": "",
        "IICFKKEBIEC": "",
        "EGEHEJEBLBJ": ""
      },
      {
        "$type": "FJKIHHKJLMJ",
        "type": "CAMERA_MOVE",
        "delayTime": 0.09300000220537186,
        "duration": 4.443999767303467,
        "actionId": 135,
        "camPosOffset": {
          "x": -1425.906005859375,
          "y": -27.76799964904785,
          "z": 5611.80712890625
        },
        "camForwardTargetOffset": {
          "x": -1426.738037109375,
          "y": -27.582000732421875,
          "z": 5612.330078125
        },
        "camFov": 35.0,
        "cameraBlendType": "EaseOutQuad",
        "NJBNNOMLKCK": {},
        "needZAxisRotate": true,
        "openCameraDither": false,
        "targetNpcAlias": "",
        "closeTreeLeafDither": true,
        "KJOEFBPOIIH": "",
        "IICFKKEBIEC": "",
        "EGEHEJEBLBJ": ""
      }
    ],
    [
      {
        "$type": "FJKIHHKJLMJ",
        "type": "CAMERA_MOVE",
        "duration": 0.5,
        "actionId": 146,
        "camPosOffset": {
          "x": -1428.595947265625,
          "y": -27.135000228881836,
          "z": 5611.77978515625
        },
        "camForwardTargetOffset": {
          "x": -1428.322998046875,
          "y": -27.134000778198242,
          "z": 5612.7421875
        },
        "camFov": 35.0,
        "lerpPattern": 6,
        "cameraBlendType": "EaseInOutCubic",
        "NJBNNOMLKCK": {},
        "needZAxisRotate": true,
        "openCameraDither": false,
        "targetNpcAlias": "",
        "closeTreeLeafDither": true,
        "KJOEFBPOIIH": "",
        "IICFKKEBIEC": "",
        "EGEHEJEBLBJ": ""
      },
      {
        "$type": "MoleMole.Config.ConfigCameraShakeAction",
        "type": "CAMERA_SHAKE",
        "duration": 4.269999980926514,
        "actionId": 148,
        "shakeRange": 0.014999999664723873,
        "shakeTime": 5.0,
        "_shakeDir": {
          "x": 0.009999999776482582,
          "y": 0.05000000074505806,
          "z": 0.009999999776482582
        },
        "useExtendSetting": true,
        "_shakeType": "RANDOM",
        "randomSetting": {
          "randomSeed": 14.079999923706055,
          "energyCurve": {
            "keyframes": [
              {
                "value": 1.0
              },
              {
                "time": 1.0,
                "value": 1.0
              }
            ]
          },
          "keepTime": 5.0
        }
      },
      {
        "$type": "LJLMDHDCAMK",
        "type": "LOOK_AT",
        "aliasList": [
          "AvatarNpc"
        ],
        "actionId": 150,
        "enableHead": true,
        "useTargetPos": true,
        "enableAbsolute": true,
        "targetPosition": {
          "x": -1427.5460205078125,
          "y": -27.058000564575195,
          "z": 5613.42822265625
        },
        "headTurnTime": 0.5,
        "targetNpcAlias": "",
        "lookAtTargetType": "NONE",
        "openBackProtect": true,
        "targetNpcLookAtPoint": "",
        "OAFJBHJHLJG": ""
      },
      {
        "$type": "PKKMAMONGEO",
        "type": "DIALOG",
        "aliasList": [
          "20846"
        ],
        "actionId": 111,
        "dialogID": 733051203,
        "protectTime": 0.5
      },
      {
        "$type": "LJLMDHDCAMK",
        "type": "LOOK_AT",
        "aliasList": [
          "1005"
        ],
        "actionId": 151,
        "enableHead": true,
        "useTargetPos": true,
        "enableAbsolute": true,
        "targetPosition": {
          "x": -1427.6309814453125,
          "y": -26.913000106811523,
          "z": 5613.2080078125
        },
        "headTurnTime": 0.5,
        "targetNpcAlias": "",
        "lookAtTargetType": "NONE",
        "openBackProtect": true,
        "targetNpcLookAtPoint": "",
        "OAFJBHJHLJG": ""
      },
      {
        "$type": "FJKIHHKJLMJ",
        "type": "CAMERA_MOVE",
        "delayTime": 0.125,
        "duration": 4.215000152587891,
        "actionId": 147,
        "camPosOffset": {
          "x": -1428.56103515625,
          "y": -27.138999938964844,
          "z": 5611.9560546875
        },
        "camForwardTargetOffset": {
          "x": -1428.2249755859375,
          "y": -27.13800048828125,
          "z": 5612.89794921875
        },
        "camFov": 35.0,
        "cameraBlendType": "EaseOutQuad",
        "NJBNNOMLKCK": {},
        "needZAxisRotate": true,
        "openCameraDither": false,
        "targetNpcAlias": "",
        "closeTreeLeafDither": true,
        "KJOEFBPOIIH": "",
        "IICFKKEBIEC": "",
        "EGEHEJEBLBJ": ""
      }
    ],
    [
      {
        "$type": "FJKIHHKJLMJ",
        "type": "CAMERA_MOVE",
        "duration": 0.5,
        "actionId": 157,
        "camPosOffset": {
          "x": -1426.56396484375,
          "y": -27.099000930786133,
          "z": 5613.205078125
        },
        "camForwardTargetOffset": {
          "x": -1427.56298828125,
          "y": -27.131000518798828,
          "z": 5613.18701171875
        },
        "camFov": 35.0,
        "lerpPattern": 6,
        "cameraBlendType": "EaseInOutCubic",
        "NJBNNOMLKCK": {},
        "needZAxisRotate": true,
        "openCameraDither": false,
        "targetNpcAlias": "",
        "closeTreeLeafDither": true,
        "KJOEFBPOIIH": "",
        "IICFKKEBIEC": "",
        "EGEHEJEBLBJ": ""
      },
      {
        "$type": "MoleMole.Config.ConfigCameraShakeAction",
        "type": "CAMERA_SHAKE",
        "duration": 4.0269999504089355,
        "actionId": 160,
        "shakeRange": 0.014999999664723873,
        "shakeTime": 5.0,
        "_shakeDir": {
          "x": 0.009999999776482582,
          "y": 0.05000000074505806,
          "z": 0.009999999776482582
        },
        "useExtendSetting": true,
        "_shakeType": "RANDOM",
        "randomSetting": {
          "randomSeed": 14.079999923706055,
          "energyCurve": {
            "keyframes": [
              {
                "value": 1.0
              },
              {
                "time": 1.0,
                "value": 1.0
              }
            ]
          },
          "keepTime": 5.0
        }
      },
      {
        "$type": "PKKMAMONGEO",
        "type": "DIALOG",
        "aliasList": [
          "1005"
        ],
        "actionId": 113,
        "dialogID": 733051204,
        "protectTime": 0.5
      },
      {
        "$type": "MoleMole.Config.ConfigSetModelTransform",
        "type": "SET_MODEL_TRANSFORM",
        "aliasList": [
          "1005"
        ],
        "actionId": 168,
        "isReset": true
      },
      {
        "$type": "MoleMole.Config.ConfigTeleportToAction",
        "type": "TELEPORT_TO",
        "aliasList": [
          "1005"
        ],
        "actionId": 169,
        "position": {
          "x": -1428.612060546875,
          "y": -28.340999603271484,
          "z": 5612.68310546875
        },
        "forward": {
          "x": 0.9049999713897705,
          "z": 0.4259999990463257
        },
        "openLongDisTeleport": true,
        "_posBindMovingTargetKey": "",
        "_forwardBindMovingTargetKey": ""
      },
      {
        "$type": "CPJKOIHIPBE",
        "type": "EMO_SYNC",
        "aliasList": [
          "1005"
        ],
        "actionId": 182,
        "dataPath": "",
        "phonemePath": "Cs_Emo_Pet_Common/Cs_Emo_Paimon_Angry01",
        "emotionPath": "Cs_Emo_Pet_Common/Cs_Emo_Paimon_Angry01_B",
        "mateDataPath": "",
        "matePhonemePath": "",
        "mateEmotionPath": "",
        "phonemePathHashList": [
          8887624181441475292,
          18209086005751125871,
          3291038487434063407,
          2002509548947436691
        ],
        "emotionPathHashList": [
          13881928724929073215,
          7603214701309324592,
          1219334094693683373,
          13358599274641292023
        ],
        "FMDPBECPELH": "",
        "ADKBLPOKGIK": ""
      },
      {
        "$type": "FABLGECDBCH",
        "type": "BODY_LANG",
        "delayTime": 0.007000000216066837,
        "aliasList": [
          "1005"
        ],
        "actionId": 153,
        "bodyLangParam": 1230,
        "forceDoFreeStyle": true,
        "canDoRepeatFreeStyle": false,
        "cantBackToIdleWhenSitLoop": true,
        "eventPatternSuiteKey": "",
        "FOHHKFAIAAJ": ""
      },
      {
        "$type": "FJKIHHKJLMJ",
        "type": "CAMERA_MOVE",
        "delayTime": 0.07000000029802322,
        "duration": 4.047999858856201,
        "actionId": 158,
        "camPosOffset": {
          "x": -1426.6949462890625,
          "y": -27.104000091552734,
          "z": 5613.216796875
        },
        "camForwardTargetOffset": {
          "x": -1427.6920166015625,
          "y": -27.132999420166016,
          "z": 5613.14990234375
        },
        "camFov": 35.0,
        "cameraBlendType": "EaseOutQuad",
        "NJBNNOMLKCK": {},
        "needZAxisRotate": true,
        "openCameraDither": false,
        "targetNpcAlias": "",
        "closeTreeLeafDither": true,
        "KJOEFBPOIIH": "",
        "IICFKKEBIEC": "",
        "EGEHEJEBLBJ": ""
      }
    ],
    [
      {
        "$type": "FJKIHHKJLMJ",
        "type": "CAMERA_MOVE",
        "duration": 0.375,
        "actionId": 161,
        "camPosOffset": {
          "x": -1426.6949462890625,
          "y": -27.104000091552734,
          "z": 5613.216796875
        },
        "camForwardTargetOffset": {
          "x": -1427.6920166015625,
          "y": -27.132999420166016,
          "z": 5613.14990234375
        },
        "camFov": 35.0,
        "lerpPattern": 6,
        "cameraBlendType": "EaseInOutCubic",
        "NJBNNOMLKCK": {},
        "needZAxisRotate": true,
        "openCameraDither": false,
        "targetNpcAlias": "",
        "closeTreeLeafDither": true,
        "KJOEFBPOIIH": "",
        "IICFKKEBIEC": "",
        "EGEHEJEBLBJ": ""
      },
      {
        "$type": "MoleMole.Config.ConfigCameraShakeAction",
        "type": "CAMERA_SHAKE",
        "duration": 1.2860000133514404,
        "actionId": 172,
        "shakeRange": 0.014999999664723873,
        "shakeTime": 5.0,
        "_shakeDir": {
          "x": 0.009999999776482582,
          "y": 0.05000000074505806,
          "z": 0.009999999776482582
        },
        "useExtendSetting": true,
        "_shakeType": "RANDOM",
        "randomSetting": {
          "randomSeed": 14.079999923706055,
          "energyCurve": {
            "keyframes": [
              {
                "value": 1.0
              },
              {
                "time": 1.0,
                "value": 1.0
              }
            ]
          },
          "keepTime": 5.0
        }
      },
      {
        "$type": "PKKMAMONGEO",
        "type": "DIALOG",
        "aliasList": [
          "1005"
        ],
        "actionId": 115,
        "dialogID": 733051205,
        "protectTime": 0.5
      },
      {
        "$type": "FABLGECDBCH",
        "type": "BODY_LANG",
        "aliasList": [
          "1005"
        ],
        "actionId": 164,
        "bodyLangParam": 1040,
        "forceDoFreeStyle": true,
        "canDoRepeatFreeStyle": false,
        "cantBackToIdleWhenSitLoop": true,
        "eventPatternSuiteKey": "",
        "FOHHKFAIAAJ": ""
      },
      {
        "$type": "CPJKOIHIPBE",
        "type": "EMO_SYNC",
        "aliasList": [
          "1005"
        ],
        "actionId": 184,
        "dataPath": "",
        "phonemePath": "Cs_Emo_Pet_Common/Cs_Emo_Paimon_Doya01",
        "emotionPath": "Cs_Emo_Pet_Common/Cs_Emo_Paimon_Surprise01",
        "mateDataPath": "",
        "matePhonemePath": "",
        "mateEmotionPath": "",
        "phonemePathHashList": [
          849082694650419658,
          15775737828584316661,
          1367834523423819021,
          6724973754118134883
        ],
        "emotionPathHashList": [
          5172069665041538778,
          3817339641546978999,
          1481313530412781419,
          15209838585823257773
        ],
        "FMDPBECPELH": "",
        "ADKBLPOKGIK": ""
      },
      {
        "$type": "FJKIHHKJLMJ",
        "type": "CAMERA_MOVE",
        "delayTime": 0.24300000071525574,
        "duration": 0.29100000858306885,
        "actionId": 162,
        "camPosOffset": {
          "x": -1427.362060546875,
          "y": -27.058000564575195,
          "z": 5612.97119140625
        },
        "camForwardTargetOffset": {
          "x": -1428.3509521484375,
          "y": -27.077999114990234,
          "z": 5612.8251953125
        },
        "camFov": 35.0,
        "cameraBlendType": "EaseOutQuad",
        "NJBNNOMLKCK": {},
        "needZAxisRotate": true,
        "openCameraDither": false,
        "targetNpcAlias": "",
        "closeTreeLeafDither": true,
        "KJOEFBPOIIH": "",
        "IICFKKEBIEC": "",
        "EGEHEJEBLBJ": ""
      },
      {
        "$type": "FJKIHHKJLMJ",
        "type": "CAMERA_MOVE",
        "delayTime": 0.42399999499320984,
        "duration": 0.9240000247955322,
        "actionId": 166,
        "camPosOffset": {
          "x": -1427.427978515625,
          "y": -27.05900001525879,
          "z": 5612.9609375
        },
        "camForwardTargetOffset": {
          "x": -1428.4169921875,
          "y": -27.07900047302246,
          "z": 5612.81396484375
        },
        "camFov": 35.0,
        "cameraBlendType": "EaseOutQuad",
        "NJBNNOMLKCK": {},
        "needZAxisRotate": true,
        "openCameraDither": false,
        "targetNpcAlias": "",
        "closeTreeLeafDither": true,
        "KJOEFBPOIIH": "",
        "IICFKKEBIEC": "",
        "EGEHEJEBLBJ": ""
      },
      {
        "$type": "FABLGECDBCH",
        "type": "BODY_LANG",
        "delayTime": 0.9879999756813049,
        "aliasList": [
          "1005"
        ],
        "actionId": 163,
        "bodyLangParam": 1060,
        "forceDoFreeStyle": true,
        "canDoRepeatFreeStyle": false,
        "cantBackToIdleWhenSitLoop": true,
        "eventPatternSuiteKey": "",
        "FOHHKFAIAAJ": ""
      },
      {
        "$type": "CPJKOIHIPBE",
        "type": "EMO_SYNC",
        "delayTime": 1.0959999561309814,
        "aliasList": [
          "1005"
        ],
        "actionId": 185,
        "dataPath": "",
        "phonemePath": "Cs_Emo_Pet_Common/Cs_Emo_Paimon_I",
        "emotionPath": "Cs_Emo_Pet_Common/Cs_Emo_Paimon_Tired02",
        "mateDataPath": "",
        "matePhonemePath": "",
        "mateEmotionPath": "",
        "phonemePathHashList": [
          9922694527865888182,
          2961024926851903058,
          16391496819479330588,
          10817433974751630841
        ],
        "emotionPathHashList": [
          10596911277390527307,
          6393070542983033236,
          11440640104385264707,
          12354193320338590516
        ],
        "FMDPBECPELH": "",
        "ADKBLPOKGIK": ""
      },
      {
        "$type": "FJKIHHKJLMJ",
        "type": "CAMERA_MOVE",
        "delayTime": 1.2239999771118164,
        "duration": 0.2290000021457672,
        "actionId": 165,
        "camPosOffset": {
          "x": -1428.0589599609375,
          "y": -27.006999969482422,
          "z": 5612.8310546875
        },
        "camForwardTargetOffset": {
          "x": -1429.04296875,
          "y": -27.099000930786133,
          "z": 5612.67578125
        },
        "camFov": 35.0,
        "cameraBlendType": "EaseOutQuad",
        "NJBNNOMLKCK": {},
        "needZAxisRotate": true,
        "openCameraDither": false,
        "targetNpcAlias": "",
        "closeTreeLeafDither": true,
        "KJOEFBPOIIH": "",
        "IICFKKEBIEC": "",
        "EGEHEJEBLBJ": ""
      }
    ],
    [
      {
        "$type": "FJKIHHKJLMJ",
        "type": "CAMERA_MOVE",
        "duration": 0.5,
        "actionId": 173,
        "camPosOffset": {
          "x": -1435.8089599609375,
          "y": -25.274999618530273,
          "z": 5616.40185546875
        },
        "camForwardTargetOffset": {
          "x": -1434.9139404296875,
          "y": -25.503000259399414,
          "z": 5616.01904296875
        },
        "camFov": 35.0,
        "lerpPattern": 6,
        "cameraBlendType": "EaseInOutCubic",
        "NJBNNOMLKCK": {},
        "needZAxisRotate": true,
        "openCameraDither": false,
        "targetNpcAlias": "",
        "closeTreeLeafDither": true,
        "KJOEFBPOIIH": "",
        "IICFKKEBIEC": "",
        "EGEHEJEBLBJ": ""
      },
      {
        "$type": "MoleMole.Config.ConfigCameraShakeAction",
        "type": "CAMERA_SHAKE",
        "duration": 3.561000108718872,
        "actionId": 175,
        "shakeRange": 0.03999999910593033,
        "shakeTime": 5.0,
        "_shakeDir": {
          "x": 0.009999999776482582,
          "y": 0.05000000074505806,
          "z": 0.009999999776482582
        },
        "useExtendSetting": true,
        "_shakeType": "RANDOM",
        "randomSetting": {
          "randomSeed": 14.079999923706055,
          "energyCurve": {
            "keyframes": [
              {},
              {
                "time": 1.0,
                "value": 1.0,
                "inTangent": 2.0,
                "outTangent": 2.0
              }
            ]
          },
          "keepTime": 5.0
        }
      },
      {
        "$type": "LJLMDHDCAMK",
        "type": "LOOK_AT",
        "aliasList": [
          "AvatarNpc"
        ],
        "actionId": 193,
        "enableHead": true,
        "useTargetPos": true,
        "enableAbsolute": true,
        "targetPosition": {
          "x": -1427.5789794921875,
          "y": -27.062000274658203,
          "z": 5613.0830078125
        },
        "headTurnTime": 0.5,
        "targetNpcAlias": "",
        "lookAtTargetType": "NONE",
        "openBackProtect": true,
        "targetNpcLookAtPoint": "",
        "OAFJBHJHLJG": ""
      },
      {
        "$type": "PKKMAMONGEO",
        "type": "DIALOG",
        "aliasList": [
          "20846"
        ],
        "actionId": 117,
        "dialogID": 733051206,
        "protectTime": 0.5
      },
      {
        "$type": "FABLGECDBCH",
        "type": "BODY_LANG",
        "aliasList": [
          "1005"
        ],
        "actionId": 186,
        "isContinue": true,
        "forceDoFreeStyle": true,
        "canDoRepeatFreeStyle": false,
        "cantBackToIdleWhenSitLoop": true,
        "eventPatternSuiteKey": "",
        "FOHHKFAIAAJ": ""
      },
      {
        "$type": "LJLMDHDCAMK",
        "type": "LOOK_AT",
        "aliasList": [
          "1005"
        ],
        "actionId": 194,
        "enableHead": true,
        "useTargetPos": true,
        "enableAbsolute": true,
        "targetPosition": {
          "x": -1427.6190185546875,
          "y": -27.062000274658203,
          "z": 5612.47900390625
        },
        "headTurnTime": 0.5,
        "targetNpcAlias": "",
        "lookAtTargetType": "NONE",
        "openBackProtect": true,
        "targetNpcLookAtPoint": "",
        "OAFJBHJHLJG": ""
      },
      {
        "$type": "FJKIHHKJLMJ",
        "type": "CAMERA_MOVE",
        "delayTime": 0.09700000286102295,
        "duration": 3.4839999675750732,
        "actionId": 174,
        "camPosOffset": {
          "x": -1435.43701171875,
          "y": -25.327999114990234,
          "z": 5617.19384765625
        },
        "camForwardTargetOffset": {
          "x": -1434.5830078125,
          "y": -25.549999237060547,
          "z": 5616.72412109375
        },
        "camFov": 35.0,
        "cameraBlendType": "EaseOutQuad",
        "NJBNNOMLKCK": {},
        "needZAxisRotate": true,
        "openCameraDither": false,
        "targetNpcAlias": "",
        "closeTreeLeafDither": true,
        "KJOEFBPOIIH": "",
        "IICFKKEBIEC": "",
        "EGEHEJEBLBJ": ""
      }
    ],
    [
      {
        "$type": "MoleMole.Config.ConfigTimeProtectAction",
        "type": "TIME_PROTECT",
        "duration": 0.10000000149011612,
        "actionId": 105
      },
      {
        "$type": "MoleMole.Config.ConfigSimpleBlackScreenAction",
        "type": "SIMPLE_BLACK_SCREEN",
        "actionId": 118,
        "durationToBlack": 0.5,
        "durationKeepBlack": 1.0,
        "durationFromBlack": 0.5,
        "textMapID": ""
      },
      {
        "$type": "MoleMole.Config.ConfigTimeProtectAction",
        "type": "TIME_PROTECT",
        "duration": 0.699999988079071,
        "actionId": 119
      },
      {
        "$type": "MoleMole.Config.ConfigVisibleInterAction",
        "type": "VISIBLE",
        "delayTime": 0.6000000238418579,
        "aliasList": [
          "Avatar"
        ],
        "actionId": 205,
        "isVisible": true,
        "_extraParam": ""
      },
      {
        "$type": "MoleMole.Config.ConfigVisibleInterAction",
        "type": "VISIBLE",
        "delayTime": 0.6000000238418579,
        "aliasList": [
          "AvatarNpc"
        ],
        "actionId": 206,
        "_extraParam": ""
      },
      {
        "$type": "MoleMole.Config.ConfigVisibleInterAction",
        "type": "VISIBLE",
        "delayTime": 0.6000000238418579,
        "aliasList": [
          "20846"
        ],
        "actionId": 191,
        "_extraParam": ""
      },
      {
        "$type": "MoleMole.Config.ConfigVisibleInterAction",
        "type": "VISIBLE",
        "delayTime": 0.6000000238418579,
        "aliasList": [
          "1005"
        ],
        "actionId": 192,
        "_extraParam": ""
      }
    ]
  ],
  "groupId": [
    {
      "grpId": 273082758,
      "nextGrpId": 273082759
    },
    {
      "index": 1,
      "grpId": 273082759,
      "nextGrpId": 273082760
    },
    {
      "index": 2,
      "grpId": 273082760,
      "nextGrpId": 273082761
    },
    {
      "index": 3,
      "grpId": 273082761,
      "nextGrpId": 273082762
    },
    {
      "index": 4,
      "grpId": 273082762,
      "nextGrpId": 273082763
    },
    {
      "index": 5,
      "grpId": 273082763,
      "nextGrpId": 273082764
    },
    {
      "index": 6,
      "grpId": 273082764,
      "nextGrpId": 273082765
    },
    {
      "index": 7,
      "grpId": 273082765,
      "nextGrpId": 273082766
    }
  ],
  "freeStyleDic": {
    "1025": [
      1080
    ],
    "1026": [
      1080
    ]
  }
}