{
  "talkId": 4064,
  "damageRatio": "FREE",
  "dialogList": [
    {
      "id": 1016406400,
      "talkRole": {
        "type": "TALK_ROLE_NPC",
        "_id": "4064"
      },
      "talkContentTextMapHash": 834688994,
      "talkAssetPath": "",
      "talkAssetPathAlter": "",
      "talkAudioName": "",
      "actionBefore": "",
      "actionWhile": "",
      "actionAfter": "",
      "optionIcon": "",
      "iconPath": ""
    }
  ]
}