{
  "talkId": 4107,
  "damageRatio": "FREE",
  "dialogList": [
    {
      "id": 1016410700,
      "talkRole": {
        "type": "TALK_ROLE_NPC",
        "_id": "4107"
      },
      "talkContentTextMapHash": 1099797730,
      "talkAssetPath": "",
      "talkAssetPathAlter": "",
      "talkAudioName": "",
      "actionBefore": "",
      "actionWhile": "",
      "actionAfter": "",
      "optionIcon": "",
      "iconPath": ""
    }
  ]
}