{
  "talkId": 4110,
  "damageRatio": "FREE",
  "dialogList": [
    {
      "id": 1016411000,
      "talkRole": {
        "type": "TALK_ROLE_NPC",
        "_id": "4110"
      },
      "talkContentTextMapHash": 2610590866,
      "talkAssetPath": "",
      "talkAssetPathAlter": "",
      "talkAudioName": "",
      "actionBefore": "",
      "actionWhile": "",
      "actionAfter": "",
      "optionIcon": "",
      "iconPath": ""
    }
  ]
}