{
  "talkId": 4155,
  "damageRatio": "FREE",
  "dialogList": [
    {
      "id": 1016415500,
      "talkRole": {
        "type": "TALK_ROLE_NPC",
        "_id": "4155"
      },
      "talkContentTextMapHash": 3504691642,
      "talkAssetPath": "",
      "talkAssetPathAlter": "",
      "talkAudioName": "",
      "actionBefore": "",
      "actionWhile": "",
      "actionAfter": "",
      "optionIcon": "",
      "iconPath": ""
    }
  ]
}