{
  "talkId": 4158,
  "damageRatio": "FREE",
  "dialogList": [
    {
      "id": 1016415800,
      "talkRole": {
        "type": "TALK_ROLE_NPC",
        "_id": "4158"
      },
      "talkContentTextMapHash": 586263258,
      "talkAssetPath": "",
      "talkAssetPathAlter": "",
      "talkAudioName": "",
      "actionBefore": "",
      "actionWhile": "",
      "actionAfter": "",
      "optionIcon": "",
      "iconPath": ""
    }
  ]
}