{
  "talkId": 4418,
  "damageRatio": "FREE",
  "dialogList": [
    {
      "id": 1016441800,
      "talkRole": {
        "type": "TALK_ROLE_NPC",
        "_id": "4418"
      },
      "talkContentTextMapHash": 247010322,
      "talkAssetPath": "",
      "talkAssetPathAlter": "",
      "talkAudioName": "",
      "actionBefore": "",
      "actionWhile": "",
      "actionAfter": "",
      "optionIcon": "",
      "iconPath": ""
    },
    {
      "id": 1016441801,
      "talkRole": {
        "type": "TALK_ROLE_NPC",
        "_id": "4418"
      },
      "talkContentTextMapHash": 3465397314,
      "talkAssetPath": "",
      "talkAssetPathAlter": "",
      "talkAudioName": "",
      "actionBefore": "",
      "actionWhile": "",
      "actionAfter": "",
      "optionIcon": "",
      "iconPath": ""
    }
  ]
}