{
  "talkId": 6027,
  "damageRatio": "FREE",
  "dialogList": [
    {
      "id": 1016602700,
      "talkRole": {
        "type": "TALK_ROLE_NPC",
        "_id": "6027"
      },
      "talkContentTextMapHash": 784784474,
      "talkAssetPath": "",
      "talkAssetPathAlter": "",
      "talkAudioName": "",
      "actionBefore": "",
      "actionWhile": "",
      "actionAfter": "",
      "optionIcon": "",
      "iconPath": ""
    }
  ]
}