{
  "luaDataPath": "",
  "entityBan": "",
  "startFade": {
    "startFadeInDuration": 0.5,
    "startFadeOutDuration": 0.5
  },
  "endFade": {
    "startFadeOutDuration": 0.0
  },
  "actors": [
    {
      "alias": "Avatar",
      "visible": true,
      "bornPointName": "",
      "relativePosNpcAlias": "",
      "_bindMovingTargetKey": ""
    },
    {
      "configID": 10233,
      "alias": "10233",
      "visible": true,
      "bornPointName": "Q1120124Qiqi",
      "relativePosNpcAlias": "",
      "_bindMovingTargetKey": ""
    }
  ],
  "group": [
    [
      {
        "$type": "MoleMole.Config.ConfigLuaAction",
        "type": "LUA_ACTION",
        "delayTime": 3.299999952316284,
        "duration": 1.0,
        "invoke": true,
        "invokeAlias": "11201",
        "invokeParam": 1
      },
      {
        "$type": "MoleMole.Config.ConfigTimeProtectAction",
        "type": "TIME_PROTECT",
        "duration": 4.0
      },
      {
        "$type": "FJKIHHKJLMJ",
        "type": "CAMERA_MOVE",
        "duration": 1.0,
        "camPosOffset": {
          "x": 957.4951171875,
          "y": 289.109375,
          "z": 1120.2418212890625
        },
        "camForwardTargetOffset": {
          "x": 957.5408935546875,
          "y": 288.54901123046875,
          "z": 1121.06884765625
        },
        "camFov": 30.0,
        "lerpPattern": 6,
        "cameraBlendType": "EaseInOutCubic",
        "NJBNNOMLKCK": {},
        "targetNpcAlias": "",
        "KJOEFBPOIIH": "",
        "IICFKKEBIEC": "",
        "EGEHEJEBLBJ": ""
      },
      {
        "$type": "FJKIHHKJLMJ",
        "type": "CAMERA_MOVE",
        "delayTime": 1.0,
        "duration": 3.5,
        "camPosOffset": {
          "x": 957.6250610351562,
          "y": 288.06085205078125,
          "z": 1120.08251953125
        },
        "camForwardTargetOffset": {
          "x": 957.6426391601562,
          "y": 287.6468505859375,
          "z": 1120.99267578125
        },
        "camFov": 30.0,
        "cameraBlendType": "EaseInQuad",
        "NJBNNOMLKCK": {},
        "targetNpcAlias": "",
        "KJOEFBPOIIH": "",
        "IICFKKEBIEC": "",
        "EGEHEJEBLBJ": ""
      },
      {
        "$type": "MoleMole.Config.ConfigSimpleBlackScreenAction",
        "type": "SIMPLE_BLACK_SCREEN",
        "delayTime": 3.5,
        "duration": 1.5,
        "durationToBlack": 0.6000000238418579,
        "durationKeepBlack": 0.6000000238418579,
        "durationFromBlack": 0.30000001192092896,
        "textMapID": ""
      },
      {
        "$type": "MoleMole.Config.ConfigMoveToAction",
        "type": "MOVE_TO",
        "duration": 1.0,
        "aliasList": [
          "10233"
        ],
        "moveType": "RUN",
        "routeList": [
          {
            "x": 950.3502807617188,
            "y": 286.154541015625,
            "z": 1155.4893798828125
          }
        ],
        "_bindMovingTargetKey": ""
      }
    ],
    [
      {
        "$type": "LJLMDHDCAMK",
        "type": "LOOK_AT",
        "aliasList": [
          "Avatar"
        ],
        "targetNpcAlias": "",
        "targetNpcLookAtPoint": "",
        "OAFJBHJHLJG": ""
      },
      {
        "$type": "LJLMDHDCAMK",
        "type": "LOOK_AT",
        "aliasList": [
          "10233"
        ],
        "targetNpcAlias": "",
        "targetNpcLookAtPoint": "",
        "OAFJBHJHLJG": ""
      }
    ]
  ],
  "groupId": [
    {
      "grpId": 4228353778,
      "nextGrpId": 4228353779
    },
    {
      "index": 1,
      "grpId": 4228353779,
      "nextGrpId": 4228353780
    }
  ],
  "freeStyleDic": {
    "10233": []
  }
}