{
  "luaDataPath": "",
  "entityBan": "",
  "startFade": {
    "startFadeInDuration": 0.4000000059604645,
    "startFadeOutDuration": 0.4000000059604645
  },
  "endFade": {
    "startFadeOutDuration": 0.0
  },
  "actors": [
    {
      "alias": "Avatar",
      "visible": true,
      "bornPointName": "Q1120111Player",
      "relativePosNpcAlias": "",
      "_bindMovingTargetKey": ""
    },
    {
      "configID": 1005,
      "alias": "1005",
      "visible": true,
      "bornPointName": "Q1120111Paimon",
      "relativePosNpcAlias": "",
      "_bindMovingTargetKey": ""
    },
    {
      "configID": 10233,
      "alias": "10233",
      "visible": true,
      "bornPointName": "Q1120111qiqi",
      "useRelativePos": true,
      "relativePos": {
        "x": 1.0,
        "z": 1.0
      },
      "relativePosNpcAlias": "",
      "_bindMovingTargetKey": ""
    }
  ],
  "group": [
    [
      {
        "$type": "FJKIHHKJLMJ",
        "type": "CAMERA_MOVE",
        "duration": 1.0,
        "camPosOffset": {
          "x": -56.144527435302734,
          "y": 14.464937210083008,
          "z": 91.16087341308594
        },
        "camForwardTargetOffset": {
          "x": -56.17626190185547,
          "y": 14.380332946777344,
          "z": 90.16496276855469
        },
        "camFov": 30.0,
        "lerpPattern": 6,
        "cameraBlendType": "EaseInOutCubic",
        "NJBNNOMLKCK": {},
        "targetNpcAlias": "",
        "KJOEFBPOIIH": "",
        "IICFKKEBIEC": "",
        "EGEHEJEBLBJ": ""
      },
      {
        "$type": "PKKMAMONGEO",
        "type": "DIALOG",
        "aliasList": [
          "1005"
        ],
        "dialogID": 112011101
      }
    ],
    [
      {
        "$type": "FJKIHHKJLMJ",
        "type": "CAMERA_MOVE",
        "duration": 1.0,
        "camPosOffset": {
          "x": -55.56698226928711,
          "y": 14.44531536102295,
          "z": 88.54190063476562
        },
        "camForwardTargetOffset": {
          "x": -56.36994171142578,
          "y": 14.333842277526855,
          "z": 89.1274185180664
        },
        "camFov": 30.0,
        "lerpPattern": 6,
        "cameraBlendType": "EaseInOutCubic",
        "NJBNNOMLKCK": {},
        "targetNpcAlias": "",
        "KJOEFBPOIIH": "",
        "IICFKKEBIEC": "",
        "EGEHEJEBLBJ": ""
      },
      {
        "$type": "PKKMAMONGEO",
        "type": "DIALOG",
        "aliasList": [
          "10233"
        ],
        "dialogID": 112011102
      },
      {
        "$type": "LLGANGLOEEO",
        "type": "STEER_TO",
        "delayTime": 6.0,
        "duration": 1.0,
        "aliasList": [
          "10233"
        ],
        "steerDir": {
          "x": -0.1585243195295334,
          "z": 0.9873550534248352
        },
        "useSteerAnim": true,
        "targetNpcAlias": "",
        "OAFJBHJHLJG": ""
      },
      {
        "$type": "MoleMole.Config.ConfigMoveToAction",
        "type": "MOVE_TO",
        "delayTime": 7.0,
        "aliasList": [
          "10233"
        ],
        "moveType": "RUN",
        "routeList": [
          {
            "x": -57.60960006713867,
            "y": 13.40291976928711,
            "z": 96.49409484863281
          }
        ],
        "_bindMovingTargetKey": ""
      }
    ],
    [
      {
        "$type": "FJKIHHKJLMJ",
        "type": "CAMERA_MOVE",
        "delayTime": 0.10000000149011612,
        "duration": 8.0,
        "camPosOffset": {
          "x": -54.46411895751953,
          "y": 14.69420337677002,
          "z": 89.45525360107422
        },
        "camForwardTargetOffset": {
          "x": -55.081687927246094,
          "y": 14.57974910736084,
          "z": 88.67710876464844
        },
        "camFov": 30.0,
        "cameraBlendType": "EaseInOutQuad",
        "NJBNNOMLKCK": {},
        "targetNpcAlias": "",
        "KJOEFBPOIIH": "",
        "IICFKKEBIEC": "",
        "EGEHEJEBLBJ": ""
      },
      {
        "$type": "FJKIHHKJLMJ",
        "type": "CAMERA_MOVE",
        "duration": 1.0,
        "camPosOffset": {
          "x": -54.29631805419922,
          "y": 14.69420337677002,
          "z": 89.31018829345703
        },
        "camForwardTargetOffset": {
          "x": -54.97699737548828,
          "y": 14.57974910736084,
          "z": 88.58660125732422
        },
        "camFov": 30.0,
        "lerpPattern": 6,
        "cameraBlendType": "EaseInOutCubic",
        "NJBNNOMLKCK": {},
        "targetNpcAlias": "",
        "KJOEFBPOIIH": "",
        "IICFKKEBIEC": "",
        "EGEHEJEBLBJ": ""
      },
      {
        "$type": "HDGKHDNFMIM",
        "type": "DIALOG_SELECT",
        "delayTime": 0.4000000059604645,
        "aliasList": [
          "Avatar"
        ],
        "dialogIDList": [
          112011104,
          112011105
        ],
        "grpIDList": [
          4228321107,
          4228321107
        ],
        "useGrpId": true
      },
      {
        "$type": "PKKMAMONGEO",
        "type": "DIALOG",
        "aliasList": [
          "1005"
        ],
        "dialogID": 112011103
      }
    ],
    [
      {
        "$type": "PKKMAMONGEO",
        "type": "DIALOG",
        "aliasList": [
          "1005"
        ],
        "dialogID": 112011106
      }
    ],
    [
      {
        "$type": "MoleMole.Config.ConfigSimpleBlackScreenAction",
        "type": "SIMPLE_BLACK_SCREEN",
        "duration": 1.5,
        "durationToBlack": 0.4000000059604645,
        "durationKeepBlack": 0.699999988079071,
        "durationFromBlack": 0.4000000059604645,
        "textMapID": ""
      },
      {
        "$type": "MoleMole.Config.ConfigTimeProtectAction",
        "type": "TIME_PROTECT",
        "duration": 1.5
      },
      {
        "$type": "PKKMAMONGEO",
        "type": "DIALOG_CLEAR",
        "delayTime": 0.20000000298023224,
        "dialogID": 112011106
      },
      {
        "$type": "FJKIHHKJLMJ",
        "type": "CAMERA_MOVE",
        "delayTime": 0.5,
        "duration": 1.0,
        "camPosOffset": {
          "x": -54.46833419799805,
          "y": 15.107707023620605,
          "z": 85.47176361083984
        },
        "camForwardTargetOffset": {
          "x": -54.909358978271484,
          "y": 15.044044494628906,
          "z": 86.36699676513672
        },
        "lerpPattern": 6,
        "cameraBlendType": "EaseInOutCubic",
        "NJBNNOMLKCK": {},
        "targetNpcAlias": "",
        "KJOEFBPOIIH": "",
        "IICFKKEBIEC": "",
        "EGEHEJEBLBJ": ""
      },
      {
        "$type": "MoleMole.Config.ConfigVisibleInterAction",
        "type": "VISIBLE",
        "delayTime": 0.5,
        "aliasList": [
          "10233"
        ],
        "_extraParam": ""
      }
    ],
    [
      {
        "$type": "LJLMDHDCAMK",
        "type": "LOOK_AT",
        "aliasList": [
          "Avatar"
        ],
        "targetNpcAlias": "",
        "targetNpcLookAtPoint": "",
        "OAFJBHJHLJG": ""
      },
      {
        "$type": "LJLMDHDCAMK",
        "type": "LOOK_AT",
        "aliasList": [
          "1005"
        ],
        "targetNpcAlias": "",
        "targetNpcLookAtPoint": "",
        "OAFJBHJHLJG": ""
      },
      {
        "$type": "LJLMDHDCAMK",
        "type": "LOOK_AT",
        "aliasList": [
          "10233"
        ],
        "targetNpcAlias": "",
        "targetNpcLookAtPoint": "",
        "OAFJBHJHLJG": ""
      }
    ]
  ],
  "groupId": [
    {
      "grpId": 4228321104,
      "nextGrpId": 4228321105
    },
    {
      "index": 1,
      "grpId": 4228321105,
      "nextGrpId": 4228321106
    },
    {
      "index": 2,
      "grpId": 4228321106,
      "nextGrpId": 4228321107
    },
    {
      "index": 3,
      "grpId": 4228321107,
      "nextGrpId": 4228321108
    },
    {
      "index": 4,
      "grpId": 4228321108,
      "nextGrpId": 4228321109
    },
    {
      "index": 5,
      "grpId": 4228321109,
      "nextGrpId": 4228321110
    }
  ],
  "freeStyleDic": {
    "10233": []
  }
}