[
  {
    "crowdGroupID": 1,
    "boundCenter": {
      "x": 599.0068359375,
      "y": 86.88883209228516,
      "z": 639.64892578125
    },
    "boundSize": {
      "x": 46.60791015625,
      "y": 1.6679229736328125,
      "z": 29.417236328125
    },
    "spawnByDefault": false,
    "crowdRestrictionGroups": [
      {
        "questRes": [
          {
            "questID": 1303805,
            "questStates": [
              "QUEST_STATE_UNFINISHED"
            ]
          }
        ],
        "AJEHPKMAENG": [
          {
            "mainQuestId": 13038
          }
        ]
      },
      {
        "questRes": [
          {
            "questID": 1303810,
            "questStates": [
              "QUEST_STATE_UNFINISHED"
            ]
          }
        ],
        "AJEHPKMAENG": [
          {
            "mainQuestId": 13038
          }
        ]
      },
      {
        "questRes": [
          {
            "questID": 1303808,
            "questStates": [
              "QUEST_STATE_UNFINISHED"
            ]
          }
        ],
        "AJEHPKMAENG": [
          {
            "mainQuestId": 13038
          }
        ]
      }
    ],
    "ignoreLowPerfMode": true,
    "canBeOptimized": true,
    "damageRatio": "QUEST"
  },
  {
    "crowdGroupID": 2,
    "boundCenter": {
      "x": 685.8687744140625,
      "y": 89.61670684814453,
      "z": 499.98419189453125
    },
    "boundSize": {
      "x": 21.353515625,
      "y": 7.0269317626953125,
      "z": 39.100189208984375
    },
    "spawnByDefault": false,
    "crowdRestrictionGroups": [
      {
        "questRes": [
          {
            "questID": 1303712,
            "questStates": [
              "QUEST_STATE_UNFINISHED"
            ]
          }
        ],
        "AJEHPKMAENG": [
          {
            "mainQuestId": 13037
          }
        ]
      }
    ],
    "ignoreLowPerfMode": true,
    "canBeOptimized": true,
    "damageRatio": "QUEST"
  },
  {
    "crowdGroupID": 3,
    "boundCenter": {
      "x": 686.1121826171875,
      "y": 90.27427673339844,
      "z": 498.293701171875
    },
    "boundSize": {
      "x": 35.43145751953125,
      "y": 8.342071533203125,
      "z": 50.383056640625
    },
    "crowdRestrictionGroups": [
      {
        "questRes": [
          {
            "questID": 1303501,
            "questStates": [
              "QUEST_STATE_FINISHED"
            ]
          },
          {
            "questID": 1303801,
            "questAccepted": false,
            "questStates": [
              "QUEST_STATE_NONE"
            ]
          }
        ]
      },
      {
        "questRes": [
          {
            "questID": 1303804,
            "questStates": [
              "QUEST_STATE_FINISHED"
            ]
          },
          {
            "questID": 1303903,
            "questAccepted": false,
            "questStates": [
              "QUEST_STATE_NONE"
            ]
          }
        ]
      }
    ],
    "ignoreLowPerfMode": true,
    "canBeOptimized": true
  },
  {
    "crowdGroupID": 4,
    "boundCenter": {
      "x": 581.3460693359375,
      "y": 79.86967468261719,
      "z": 385.7058410644531
    },
    "boundSize": {
      "x": 95.079345703125,
      "y": 2.4171142578125,
      "z": 51.17010498046875
    },
    "crowdRestrictionGroups": [
      {
        "questRes": [
          {
            "questID": 1303501,
            "questStates": [
              "QUEST_STATE_FINISHED"
            ]
          },
          {
            "questID": 1303801,
            "questAccepted": false,
            "questStates": [
              "QUEST_STATE_NONE"
            ]
          }
        ]
      },
      {
        "questRes": [
          {
            "questID": 1303804,
            "questStates": [
              "QUEST_STATE_FINISHED"
            ]
          },
          {
            "questID": 1303903,
            "questAccepted": false,
            "questStates": [
              "QUEST_STATE_NONE"
            ]
          }
        ]
      }
    ],
    "ignoreLowPerfMode": true,
    "canBeOptimized": true
  },
  {
    "crowdGroupID": 5,
    "boundCenter": {
      "x": 575.955078125,
      "y": 82.12908935546875,
      "z": 485.8942565917969
    },
    "boundSize": {
      "x": 23.64312744140625,
      "y": 3.2266311645507812,
      "z": 37.14471435546875
    },
    "crowdRestrictionGroups": [
      {
        "questRes": [
          {
            "questID": 1303501,
            "questStates": [
              "QUEST_STATE_FINISHED"
            ]
          },
          {
            "questID": 1303801,
            "questAccepted": false,
            "questStates": [
              "QUEST_STATE_NONE"
            ]
          }
        ]
      },
      {
        "questRes": [
          {
            "questID": 1303804,
            "questStates": [
              "QUEST_STATE_FINISHED"
            ]
          },
          {
            "questID": 1303903,
            "questAccepted": false,
            "questStates": [
              "QUEST_STATE_NONE"
            ]
          }
        ]
      }
    ],
    "ignoreLowPerfMode": true,
    "canBeOptimized": true
  }
]