[
  {
    "crowdGroupID": 1,
    "boundCenter": {
      "x": 2773.088623046875,
      "y": 395.49945068359375,
      "z": 4211.234375
    },
    "boundSize": {
      "x": 142.02490234375,
      "y": 66.8397216796875,
      "z": 166.0
    },
    "crowdRestrictionGroups": [
      {
        "questRes": [
          {
            "questID": 402801,
            "questStates": [
              "QUEST_STATE_UNFINISHED"
            ]
          }
        ]
      },
      {
        "questRes": [
          {
            "questID": 402105,
            "questStates": [
              "QUEST_STATE_UNFINISHED"
            ]
          }
        ]
      },
      {
        "questRes": [
          {
            "questID": 402006,
            "questStates": [
              "QUEST_STATE_UNFINISHED"
            ]
          }
        ]
      },
      {
        "questRes": [
          {
            "questID": 1401701,
            "questStates": [
              "QUEST_STATE_UNFINISHED"
            ]
          }
        ]
      },
      {
        "questRes": [
          {
            "questID": 1401713,
            "questStates": [
              "QUEST_STATE_UNFINISHED"
            ]
          }
        ]
      },
      {
        "questRes": [
          {
            "questID": 1401702,
            "questStates": [
              "QUEST_STATE_UNFINISHED"
            ]
          }
        ]
      },
      {
        "questRes": [
          {
            "questID": 1401703,
            "questStates": [
              "QUEST_STATE_UNFINISHED"
            ]
          }
        ]
      },
      {
        "questRes": [
          {
            "questID": 1401504,
            "questStates": [
              "QUEST_STATE_UNFINISHED"
            ]
          }
        ]
      },
      {},
      {
        "questRes": [
          {
            "questID": 1402404,
            "questStates": [
              "QUEST_STATE_UNFINISHED"
            ]
          }
        ]
      },
      {
        "questRes": [
          {
            "questID": 1402401,
            "questStates": [
              "QUEST_STATE_UNFINISHED"
            ]
          }
        ]
      },
      {
        "questRes": [
          {
            "questID": 1402405,
            "questStates": [
              "QUEST_STATE_UNFINISHED"
            ]
          }
        ]
      },
      {
        "questRes": [
          {
            "questID": 1402407,
            "questStates": [
              "QUEST_STATE_UNFINISHED"
            ]
          }
        ]
      },
      {
        "questRes": [
          {
            "questID": 1402406,
            "questStates": [
              "QUEST_STATE_UNFINISHED"
            ]
          }
        ]
      }
    ],
    "canBeOptimized": true
  },
  {
    "crowdGroupID": 2,
    "boundCenter": {
      "x": 2815.691650390625,
      "y": 389.40167236328125,
      "z": 4191.04052734375
    },
    "boundSize": {
      "x": 67.63525390625,
      "y": 17.2037353515625,
      "z": 65.53125
    },
    "crowdRestrictionGroups": [
      {
        "questRes": [
          {
            "questID": 400114,
            "questStates": [
              "QUEST_STATE_FINISHED"
            ]
          },
          {
            "questID": 400111,
            "questAccepted": false
          }
        ]
      },
      {
        "questRes": [
          {
            "questID": 400111,
            "questStates": [
              "QUEST_STATE_UNFINISHED"
            ]
          }
        ]
      },
      {
        "questRes": [
          {
            "questID": 402801,
            "questStates": [
              "QUEST_STATE_UNFINISHED"
            ]
          }
        ]
      },
      {
        "questRes": [
          {
            "questID": 402105
          }
        ]
      },
      {
        "questRes": [
          {
            "questID": 1401505,
            "questStates": [
              "QUEST_STATE_UNFINISHED"
            ]
          }
        ]
      },
      {
        "questRes": [
          {
            "questID": 1401701,
            "questStates": [
              "QUEST_STATE_UNFINISHED"
            ]
          }
        ]
      },
      {
        "questRes": [
          {
            "questID": 1401713,
            "questStates": [
              "QUEST_STATE_UNFINISHED"
            ]
          }
        ]
      },
      {
        "questRes": [
          {
            "questID": 1401702,
            "questStates": [
              "QUEST_STATE_UNFINISHED"
            ]
          }
        ]
      },
      {
        "questRes": [
          {
            "questID": 1401703,
            "questStates": [
              "QUEST_STATE_UNFINISHED"
            ]
          }
        ]
      },
      {
        "questRes": [
          {
            "questID": 1401710,
            "questStates": [
              "QUEST_STATE_UNFINISHED"
            ]
          }
        ]
      },
      {
        "questRes": [
          {
            "questID": 1401801,
            "questStates": [
              "QUEST_STATE_UNFINISHED"
            ]
          }
        ]
      }
    ],
    "canBeOptimized": true
  },
  {
    "crowdGroupID": 3,
    "boundCenter": {
      "x": 2754.91064453125,
      "y": 383.4014892578125,
      "z": 4176.1142578125
    },
    "boundSize": {
      "x": 57.755126953125,
      "y": 7.693359375,
      "z": 38.80908203125
    },
    "spawnByDefault": false,
    "crowdRestrictionGroups": [
      {
        "questRes": [
          {
            "questID": 402501,
            "questStates": [
              "QUEST_STATE_FINISHED"
            ]
          },
          {
            "questID": 402801,
            "questStates": [
              "QUEST_STATE_UNFINISHED"
            ]
          }
        ],
        "AJEHPKMAENG": [
          {
            "mainQuestId": 4025
          },
          {
            "mainQuestId": 4028
          }
        ]
      }
    ],
    "damageRatio": "QUEST"
  },
  {
    "crowdGroupID": 4,
    "boundCenter": {
      "x": 2755.762451171875,
      "y": 379.484619140625,
      "z": 4159.35986328125
    },
    "boundSize": {
      "x": 0.458984375,
      "y": 0.000213623046875,
      "z": 1.1220703125
    },
    "crowdRestrictionGroups": [
      {
        "questRes": [
          {
            "questID": 402801,
            "questStates": [
              "QUEST_STATE_UNFINISHED"
            ]
          }
        ]
      },
      {
        "questRes": [
          {
            "questID": 402105,
            "questStates": [
              "QUEST_STATE_UNFINISHED"
            ]
          }
        ]
      },
      {
        "questRes": [
          {
            "questID": 402006,
            "questStates": [
              "QUEST_STATE_UNFINISHED"
            ]
          }
        ]
      },
      {
        "questRes": [
          {
            "questID": 1401504,
            "questStates": [
              "QUEST_STATE_UNFINISHED"
            ]
          }
        ]
      },
      {},
      {
        "questRes": [
          {
            "questID": 1401701,
            "questStates": [
              "QUEST_STATE_UNFINISHED"
            ]
          }
        ]
      },
      {
        "questRes": [
          {
            "questID": 1401713,
            "questStates": [
              "QUEST_STATE_UNFINISHED"
            ]
          }
        ]
      },
      {
        "questRes": [
          {
            "questID": 1401702,
            "questStates": [
              "QUEST_STATE_UNFINISHED"
            ]
          }
        ]
      },
      {
        "questRes": [
          {
            "questID": 1401703,
            "questStates": [
              "QUEST_STATE_UNFINISHED"
            ]
          }
        ]
      }
    ],
    "canBeOptimized": true
  },
  {
    "crowdGroupID": 5,
    "boundCenter": {
      "x": 2870.83203125,
      "y": 375.43701171875,
      "z": 4166.9794921875
    },
    "boundSize": {
      "x": 1.1201171875,
      "y": 0.003021240234375,
      "z": 0.71875
    },
    "crowdRestrictionGroups": [
      {
        "IKGGMGMGBAP": [
          {
            "questID1": 1402301,
            "questID2": 1402608
          }
        ]
      },
      {}
    ]
  }
]