[
  {
    "crowdGroupID": 1,
    "boundCenter": {
      "x": -3047.781005859375,
      "y": 229.31546020507812,
      "z": -4353.41650390625
    },
    "boundSize": {
      "x": 57.39404296875,
      "y": 34.9735107421875,
      "z": 124.2490234375
    }
  },
  {
    "crowdGroupID": 2,
    "boundCenter": {
      "x": -3023.70849609375,
      "y": 224.5955047607422,
      "z": -4406.556640625
    },
    "boundSize": {
      "x": 1.1650390625,
      "z": 1.26513671875
    },
    "crowdRestrictionGroups": [
      {
        "questRes": [
          {
            "questID": 1201701
          },
          {
            "questID": 1201801,
            "questStates": [
              "QUEST_STATE_UNFINISHED"
            ]
          }
        ]
      },
      {}
    ]
  },
  {
    "crowdGroupID": 3,
    "boundCenter": {
      "x": -2536.41357421875,
      "y": 275.8263854980469,
      "z": -4621.08935546875
    },
    "boundSize": {
      "x": 0.326904296875,
      "z": 3.5390625
    },
    "crowdRestrictionGroups": [
      {
        "questRes": [
          {
            "questID": 7368803,
            "questStates": [
              "QUEST_STATE_UNSTARTED"
            ]
          }
        ]
      },
      {
        "questRes": [
          {
            "questID": 7368803,
            "questStates": [
              "QUEST_STATE_UNFINISHED"
            ]
          }
        ]
      },
      {
        "questRes": [
          {
            "questID": 7368804,
            "questStates": [
              "QUEST_STATE_UNSTARTED"
            ]
          }
        ]
      },
      {
        "questRes": [
          {
            "questID": 7368804,
            "questStates": [
              "QUEST_STATE_UNFINISHED"
            ]
          }
        ]
      }
    ]
  },
  {
    "crowdGroupID": 4,
    "boundCenter": {
      "x": -2403.7802734375,
      "y": 245.57534790039062,
      "z": -4279.044921875
    },
    "boundSize": {
      "x": 22.255859375,
      "y": 0.378692626953125,
      "z": 15.81396484375
    },
    "spawnByDefault": false,
    "crowdRestrictionGroups": [
      {
        "questRes": [
          {
            "questID": 4002005,
            "questStates": [
              "QUEST_STATE_FINISHED"
            ]
          },
          {
            "questID": 4002013,
            "questAccepted": false
          }
        ],
        "AJEHPKMAENG": [
          {
            "mainQuestId": 40020
          }
        ]
      },
      {
        "questRes": [
          {
            "questID": 4002017,
            "questStates": [
              "QUEST_STATE_UNFINISHED"
            ]
          }
        ],
        "AJEHPKMAENG": [
          {
            "mainQuestId": 40020
          }
        ]
      }
    ],
    "damageRatio": "QUEST"
  },
  {
    "crowdGroupID": 5,
    "boundCenter": {
      "x": -2360.37158203125,
      "y": 229.23959350585938,
      "z": -4269.93505859375
    },
    "boundSize": {
      "x": 14.762939453125,
      "y": 4.7607879638671875,
      "z": 11.822265625
    },
    "spawnByDefault": false,
    "crowdRestrictionGroups": [
      {
        "activityRes": [
          {
            "activityType": 2201,
            "condID": 2008002
          },
          {
            "activityType": 2201,
            "isActive": false,
            "condID": 2008004
          }
        ]
      },
      {
        "activityRes": [
          {
            "activityType": 2201,
            "condID": 2008003
          },
          {
            "activityType": 2201,
            "isActive": false,
            "condID": 2008004
          }
        ]
      }
    ],
    "damageRatio": "ACTIVITY"
  },
  {
    "crowdGroupID": 6,
    "boundCenter": {
      "x": -3055.12744140625,
      "y": 245.0186004638672,
      "z": -4389.8701171875
    },
    "boundSize": {
      "x": 1.843017578125,
      "z": 0.423828125
    },
    "crowdRestrictionGroups": [
      {
        "questRes": [
          {
            "questID": 1911403,
            "questStates": [
              "QUEST_STATE_UNFINISHED"
            ]
          }
        ]
      },
      {
        "questRes": [
          {
            "questID": 1911404,
            "questStates": [
              "QUEST_STATE_UNFINISHED"
            ]
          }
        ]
      }
    ]
  },
  {
    "crowdGroupID": 9,
    "boundCenter": {
      "x": -2582.6865234375,
      "y": 274.208251953125,
      "z": -4615.5498046875
    },
    "boundSize": {
      "x": 1.87890625,
      "y": 0.24267578125,
      "z": 26.65625
    },
    "spawnByDefault": false,
    "crowdRestrictionGroups": [
      {
        "questRes": [
          {
            "questID": 1911502,
            "questStates": [
              "QUEST_STATE_UNFINISHED"
            ]
          }
        ],
        "AJEHPKMAENG": [
          {
            "mainQuestId": 19115
          }
        ]
      }
    ],
    "damageRatio": "QUEST"
  },
  {
    "crowdGroupID": 10,
    "boundCenter": {
      "x": -3029.505859375,
      "y": 236.01040649414062,
      "z": -4439.70751953125
    },
    "boundSize": {
      "x": 9.555908203125,
      "z": 1.1630859375
    },
    "spawnByDefault": false,
    "crowdRestrictionGroups": [
      {
        "questRes": [
          {
            "questID": 1202905,
            "questStates": [
              "QUEST_STATE_UNFINISHED"
            ]
          }
        ],
        "AJEHPKMAENG": [
          {
            "mainQuestId": 12029
          }
        ]
      },
      {
        "questRes": [
          {
            "questID": 1202907,
            "questStates": [
              "QUEST_STATE_UNFINISHED"
            ]
          }
        ],
        "AJEHPKMAENG": [
          {
            "mainQuestId": 12029
          }
        ]
      },
      {
        "questRes": [
          {
            "questID": 1202908,
            "questStates": [
              "QUEST_STATE_UNFINISHED"
            ]
          }
        ],
        "AJEHPKMAENG": [
          {
            "mainQuestId": 12029
          }
        ]
      },
      {
        "questRes": [
          {
            "questID": 1202910,
            "questStates": [
              "QUEST_STATE_UNFINISHED"
            ]
          }
        ],
        "AJEHPKMAENG": [
          {
            "mainQuestId": 12029
          }
        ]
      },
      {
        "questRes": [
          {
            "questID": 1202904,
            "questStates": [
              "QUEST_STATE_UNFINISHED"
            ]
          }
        ],
        "AJEHPKMAENG": [
          {
            "mainQuestId": 12029
          }
        ]
      },
      {
        "questRes": [
          {
            "questID": 1202909,
            "questStates": [
              "QUEST_STATE_UNFINISHED"
            ]
          }
        ],
        "AJEHPKMAENG": [
          {
            "mainQuestId": 12029
          }
        ]
      },
      {
        "questRes": [
          {
            "questID": 1202911,
            "questStates": [
              "QUEST_STATE_UNFINISHED"
            ]
          }
        ],
        "AJEHPKMAENG": [
          {
            "mainQuestId": 12029
          }
        ]
      }
    ],
    "damageRatio": "QUEST"
  },
  {
    "crowdGroupID": 11,
    "boundCenter": {
      "x": -3030.97265625,
      "y": 236.01040649414062,
      "z": -4438.607421875
    },
    "boundSize": {
      "x": 6.3466796875,
      "z": 6.1591796875
    },
    "spawnByDefault": false,
    "crowdRestrictionGroups": [
      {
        "questRes": [
          {
            "questID": 1202906,
            "questStates": [
              "QUEST_STATE_UNFINISHED"
            ]
          }
        ],
        "AJEHPKMAENG": [
          {
            "mainQuestId": 12029
          }
        ]
      }
    ],
    "damageRatio": "QUEST"
  },
  {
    "crowdGroupID": 12,
    "boundCenter": {
      "x": -2470.59912109375,
      "y": 201.816650390625,
      "z": -4146.52294921875
    },
    "boundSize": {
      "x": 0.230224609375,
      "y": 0.041290283203125,
      "z": 7.505859375
    },
    "spawnByDefault": false,
    "crowdRestrictionGroups": [
      {
        "questRes": [
          {
            "questID": 1203313,
            "questStates": [
              "QUEST_STATE_FINISHED"
            ]
          },
          {
            "questID": 1203405,
            "questAccepted": false
          }
        ],
        "AJEHPKMAENG": [
          {
            "mainQuestId": 12033
          },
          {
            "mainQuestId": 12034
          }
        ]
      }
    ],
    "ignoreLowPerfMode": true,
    "damageRatio": "QUEST"
  },
  {
    "crowdGroupID": 13,
    "boundCenter": {
      "x": -3008.58544921875,
      "y": 220.32949829101562,
      "z": -4353.44873046875
    },
    "boundSize": {
      "x": 0.208984375,
      "y": 0.003997802734375,
      "z": 1.2509765625
    },
    "crowdRestrictionGroups": [
      {
        "questRes": [
          {
            "questID": 1203411,
            "questStates": [
              "QUEST_STATE_FINISHED"
            ]
          },
          {
            "questID": 1203501,
            "questAccepted": false
          }
        ]
      }
    ]
  },
  {
    "crowdGroupID": 14,
    "boundCenter": {
      "x": -3005.741455078125,
      "y": 228.91409301757812,
      "z": -4425.06201171875
    },
    "boundSize": {
      "x": 1.10693359375,
      "z": 0.083984375
    },
    "spawnByDefault": false,
    "crowdRestrictionGroups": [
      {
        "questRes": [
          {
            "questID": 1203409,
            "questStates": [
              "QUEST_STATE_FINISHED"
            ]
          },
          {
            "questID": 1203502,
            "questAccepted": false
          }
        ],
        "AJEHPKMAENG": [
          {
            "mainQuestId": 12034
          },
          {
            "mainQuestId": 12035
          }
        ]
      }
    ],
    "damageRatio": "QUEST"
  },
  {
    "crowdGroupID": 15,
    "boundCenter": {
      "x": -2910.25341796875,
      "y": 205.0640411376953,
      "z": -4209.8740234375
    },
    "boundSize": {
      "x": 221.5693359375,
      "y": 7.858917236328125,
      "z": 117.29833984375
    },
    "spawnByDefault": false,
    "crowdRestrictionGroups": [
      {
        "questRes": [
          {
            "questID": 1203411,
            "questStates": [
              "QUEST_STATE_FINISHED"
            ]
          },
          {
            "questID": 1203502,
            "questAccepted": false
          }
        ],
        "AJEHPKMAENG": [
          {
            "mainQuestId": 12034
          },
          {
            "mainQuestId": 12035
          }
        ]
      }
    ],
    "damageRatio": "QUEST"
  },
  {
    "crowdGroupID": 16,
    "boundCenter": {
      "x": -3030.68310546875,
      "y": 213.34530639648438,
      "z": -4324.875
    },
    "crowdRestrictionGroups": [
      {
        "questRes": [
          {
            "questID": 4005606,
            "questStates": [
              "QUEST_STATE_FINISHED"
            ]
          },
          {
            "questID": 4005620,
            "questAccepted": false
          }
        ]
      },
      {
        "questRes": [
          {
            "questID": 1203411,
            "questStates": [
              "QUEST_STATE_FINISHED"
            ]
          },
          {
            "questID": 1203501,
            "questAccepted": false
          }
        ]
      }
    ]
  },
  {
    "crowdGroupID": 17,
    "boundCenter": {
      "x": -3046.112548828125,
      "y": 212.5435028076172,
      "z": -4317.39501953125
    },
    "boundSize": {
      "x": 1.2470703125,
      "z": 0.7900390625
    },
    "crowdRestrictionGroups": [
      {
        "questRes": [
          {
            "questID": 1914701,
            "questStates": [
              "QUEST_STATE_UNFINISHED"
            ]
          }
        ]
      }
    ]
  },
  {
    "crowdGroupID": 18,
    "boundCenter": {
      "x": -2988.3896484375,
      "y": 220.31289672851562,
      "z": -4369.6787109375
    },
    "boundSize": {
      "x": 1.178955078125,
      "y": 0.00360107421875,
      "z": 1.25927734375
    },
    "crowdRestrictionGroups": [
      {
        "questRes": [
          {
            "questID": 1905708,
            "questStates": [
              "QUEST_STATE_UNFINISHED"
            ]
          }
        ]
      },
      {
        "questRes": [
          {
            "questID": 1905703,
            "questStates": [
              "QUEST_STATE_UNFINISHED"
            ]
          }
        ]
      },
      {
        "questRes": [
          {
            "questID": 1905704,
            "questStates": [
              "QUEST_STATE_UNFINISHED"
            ]
          }
        ]
      }
    ]
  },
  {
    "crowdGroupID": 19,
    "boundCenter": {
      "x": -3024.23876953125,
      "y": 236.01040649414062,
      "z": -4436.978515625
    },
    "boundSize": {
      "x": 8.0322265625,
      "z": 8.90283203125
    },
    "spawnByDefault": false,
    "crowdRestrictionGroups": [
      {
        "questRes": [
          {
            "questID": 1905705,
            "questStates": [
              "QUEST_STATE_UNFINISHED"
            ]
          },
          {
            "questID": 1905706,
            "questStates": [
              "QUEST_STATE_UNFINISHED"
            ]
          }
        ],
        "AJEHPKMAENG": [
          {
            "mainQuestId": 19057
          }
        ]
      }
    ],
    "ignoreLowPerfMode": true,
    "damageRatio": "QUEST"
  },
  {
    "crowdGroupID": 20,
    "boundCenter": {
      "x": -3033.052001953125,
      "y": 221.25460815429688,
      "z": -4374.0283203125
    },
    "boundSize": {
      "x": 0.81982421875,
      "y": 0.0685882568359375,
      "z": 0.10888671875
    },
    "crowdRestrictionGroups": [
      {
        "questRes": [
          {
            "questID": 1203920,
            "questStates": [
              "QUEST_STATE_UNFINISHED"
            ]
          }
        ]
      },
      {
        "questRes": [
          {
            "questID": 1203903,
            "questStates": [
              "QUEST_STATE_UNFINISHED"
            ]
          }
        ]
      },
      {
        "questRes": [
          {
            "questID": 1203904,
            "questStates": [
              "QUEST_STATE_UNFINISHED"
            ]
          }
        ]
      }
    ]
  }
]