{
  "enable": true,
  "PIOCBHLFLJP": {
    "744": {
      "ANLAAGAMIKF": 1759,
      "GILNINLDIAJ": true
    },
    "57970057": {
      "ANLAAGAMIKF": -481,
      "radius": 5.401280403137207
    },
    "613560": {
      "ANLAAGAMIKF": 32,
      "GILNINLDIAJ": true
    },
    "-4087": {},
    "-1": {
      "ANLAAGAMIKF": 20039
    },
    "15655": {
      "ANLAAGAMIKF": 2
    }
  }
}