[
  {
    "crowdGroupID": 1,
    "boundCenter": {
      "x": 33.740562438964844,
      "y": 191.39610290527344,
      "z": 2617.5625
    },
    "boundSize": {
      "x": 1.0069618225097656,
      "z": 2.47314453125
    },
    "spawnByDefault": false,
    "crowdRestrictionGroups": [
      {
        "questRes": [
          {
            "questID": 1907401,
            "questStates": [
              "QUEST_STATE_UNFINISHED"
            ]
          }
        ],
        "AJEHPKMAENG": [
          {
            "mainQuestId": 19074
          }
        ]
      },
      {
        "questRes": [
          {
            "questID": 1907404,
            "questStates": [
              "QUEST_STATE_UNFINISHED"
            ]
          }
        ],
        "AJEHPKMAENG": [
          {
            "mainQuestId": 19074
          }
        ]
      }
    ],
    "canBeOptimized": true,
    "damageRatio": "QUEST"
  }
]