[
  {
    "crowdGroupID": 1,
    "boundCenter": {
      "x": 2310.6494140625,
      "y": 281.32037353515625,
      "z": 2320.10009765625
    },
    "boundSize": {
      "x": 100.19921875,
      "y": 1.1939697265625,
      "z": 68.326171875
    },
    "canBeOptimized": true
  },
  {
    "crowdGroupID": 2,
    "boundCenter": {
      "x": 2349.44970703125,
      "y": 334.1629638671875,
      "z": 2406.02685546875
    },
    "boundSize": {
      "x": 41.28125,
      "y": 9.304443359375,
      "z": 27.2216796875
    },
    "canBeOptimized": true
  },
  {
    "crowdGroupID": 3,
    "boundCenter": {
      "x": 2407.88232421875,
      "y": 351.7425537109375,
      "z": 2453.8681640625
    },
    "boundSize": {
      "x": 64.251953125,
      "y": 21.866851806640625,
      "z": 91.33984375
    },
    "canBeOptimized": true
  },
  {
    "crowdGroupID": 4,
    "boundCenter": {
      "x": 2481.53466796875,
      "y": 353.376953125,
      "z": 2446.166015625
    },
    "boundSize": {
      "x": 68.3232421875,
      "y": 24.2886962890625,
      "z": 125.573974609375
    },
    "canBeOptimized": true
  },
  {
    "crowdGroupID": 5,
    "boundCenter": {
      "x": 2419.86474609375,
      "y": 340.622802734375,
      "z": 2305.375
    },
    "boundSize": {
      "x": 75.91796875,
      "y": 14.7078857421875,
      "z": 94.837890625
    },
    "canBeOptimized": true
  },
  {
    "crowdGroupID": 6,
    "boundCenter": {
      "x": 2418.3603515625,
      "y": 343.1221008300781,
      "z": 2390.00927734375
    },
    "boundSize": {
      "x": 16.291259765625,
      "y": 0.126220703125,
      "z": 24.997802734375
    },
    "canBeOptimized": true
  },
  {
    "crowdGroupID": 7,
    "boundCenter": {
      "x": 2539.0244140625,
      "y": 344.4815368652344,
      "z": 2385.8359375
    },
    "boundSize": {
      "x": 40.876953125,
      "y": 3.08489990234375,
      "z": 53.981689453125
    },
    "canBeOptimized": true
  },
  {
    "crowdGroupID": 8,
    "boundCenter": {
      "x": 2429.64501953125,
      "y": 341.8599853515625,
      "z": 2431.501953125
    },
    "boundSize": {
      "x": 5.330078125,
      "z": 1.5380859375
    },
    "spawnByDefault": false,
    "crowdRestrictionGroups": [
      {
        "questRes": [
          {
            "questID": 7111010,
            "questStates": [
              "QUEST_STATE_UNFINISHED"
            ]
          }
        ],
        "AJEHPKMAENG": [
          {
            "mainQuestId": 71110
          }
        ]
      }
    ],
    "canBeOptimized": true,
    "damageRatio": "QUEST"
  },
  {
    "crowdGroupID": 9,
    "boundCenter": {
      "x": 2170.97265625,
      "y": 409.12890625,
      "z": 2587.7900390625
    },
    "boundSize": {
      "x": 73.547119140625,
      "y": 25.995819091796875,
      "z": 45.8701171875
    },
    "crowdRestrictionGroups": [
      {
        "questRes": [
          {
            "questID": 7111608,
            "questStates": [
              "QUEST_STATE_FINISHED"
            ]
          }
        ],
        "AJEHPKMAENG": [
          {
            "mainQuestId": 71116
          }
        ]
      }
    ]
  },
  {
    "crowdGroupID": 10,
    "boundCenter": {
      "x": 2164.698486328125,
      "y": 282.9924011230469,
      "z": 2790.70849609375
    },
    "boundSize": {
      "x": 57.89501953125,
      "y": 5.39959716796875,
      "z": 40.475341796875
    },
    "crowdRestrictionGroups": [
      {
        "questRes": [
          {
            "questID": 7111602,
            "questStates": [
              "QUEST_STATE_FINISHED"
            ]
          }
        ],
        "AJEHPKMAENG": [
          {
            "mainQuestId": 71116
          }
        ]
      }
    ]
  },
  {
    "crowdGroupID": 11,
    "boundCenter": {
      "x": 2189.46923828125,
      "y": 422.8814697265625,
      "z": 2590.818359375
    },
    "boundSize": {
      "x": 31.875732421875,
      "y": 15.54931640625,
      "z": 47.0673828125
    },
    "spawnByDefault": false,
    "crowdRestrictionGroups": [
      {
        "questRes": [
          {
            "questID": 7111608,
            "questStates": [
              "QUEST_STATE_FINISHED"
            ]
          }
        ]
      }
    ]
  },
  {
    "crowdGroupID": 12,
    "boundCenter": {
      "x": 2502.41796875,
      "y": 343.0847473144531,
      "z": 2408.242431640625
    },
    "boundSize": {
      "x": 9.731689453125,
      "y": 0.051513671875,
      "z": 14.35498046875
    },
    "crowdRestrictionGroups": [
      {
        "questRes": [
          {
            "questID": 4013906,
            "questStates": [
              "QUEST_STATE_UNFINISHED"
            ]
          }
        ]
      },
      {
        "questRes": [
          {
            "questID": 4013907,
            "questStates": [
              "QUEST_STATE_UNFINISHED"
            ]
          }
        ]
      },
      {
        "questRes": [
          {
            "questID": 4013908,
            "questStates": [
              "QUEST_STATE_UNFINISHED"
            ]
          }
        ]
      },
      {
        "questRes": [
          {
            "questID": 4013909,
            "questStates": [
              "QUEST_STATE_UNFINISHED"
            ]
          }
        ]
      },
      {
        "questRes": [
          {
            "questID": 4013910,
            "questStates": [
              "QUEST_STATE_UNFINISHED"
            ]
          }
        ]
      },
      {
        "activityRes": [
          {
            "activityType": 4402,
            "condID": 2028803
          }
        ],
        "IKGGMGMGBAP": [
          {
            "questID1": 4013910,
            "questID2": 4014002
          }
        ]
      }
    ],
    "canBeOptimized": true,
    "damageRatio": "ACTIVITY"
  }
]