{
  "AbyssalPalace_-1_0_Dashe_Relic02_Inside_Ve": {
    "$type": "LCFGLDCOCOH",
    "useHeight": true,
    "height": 20.0,
    "centerType": "Center",
    "width": 86.0,
    "length": 65.0
  },
  "AbyssalPalace_-1_0_YXGDS_01_Inside_Vd": {
    "$type": "MGKHCALIABD",
    "polygonConfigPath": "AbyssalPalace_-1_0_YXGDS_01_Inside_Vd"
  },
  "AbyssalPalace_-1_0_YXGDS_01_Outside_Vd": {
    "$type": "MGKHCALIABD",
    "polygonConfigPath": "AbyssalPalace_-1_0_YXGDS_01_Outside_Vd"
  },
  "AbyssalPalace_-1_0_YXGDS_01_Inside_Vs": {
    "$type": "LCFGLDCOCOH",
    "useHeight": true,
    "height": 77.70390319824219,
    "centerType": "Center",
    "width": 93.88674926757812,
    "length": 154.1638946533203
  },
  "AbyssalPalace_-1_0_YXGDS_01_Outside_Vs": {
    "$type": "EMOKHIGKKBE",
    "useHeight": true,
    "height": 400.0,
    "radius": 135.0
  }
}