{
  "AbyssalPalace_-1_1_TD_01_Inside_Vs": {
    "$type": "LCFGLDCOCOH",
    "useHeight": true,
    "height": 438.0,
    "centerType": "Center",
    "width": 467.0,
    "length": 847.0
  },
  "AbyssalPalace_-1_1_TD_01_Outside_Vs": {
    "$type": "LCFGLDCOCOH",
    "useHeight": true,
    "height": 520.0,
    "centerType": "Center",
    "width": 1140.0,
    "length": 1040.0
  },
  "AbyssalPalace_-1_1_TunnelA_Inside_Ve": {
    "$type": "MGKHCALIABD",
    "polygonConfigPath": "AbyssalPalace_-1_1_TunnelA_Inside_Ve"
  }
}