{
  "AbyssalPalace_0_0_AbyssalPalace_0_0_25Indoor_02_Ve_Inside_Ve": {
    "$type": "LCFGLDCOCOH",
    "useHeight": true,
    "height": 10.600000381469727,
    "centerType": "Center",
    "width": 20.0,
    "length": 10.0
  },
  "AbyssalPalace_0_0_AbyssalPalace_0_0_25Indoor_03_Ve_Inside_Ve": {
    "$type": "LCFGLDCOCOH",
    "useHeight": true,
    "height": 12.0,
    "centerType": "Center",
    "width": 53.0,
    "length": 21.0
  },
  "AbyssalPalace_0_0_AbyssalPalace_0_0_25Indoor_04_Inside_Ve_Inside_Ve": {
    "$type": "LCFGLDCOCOH",
    "useHeight": true,
    "height": 11.0,
    "centerType": "Center",
    "width": 23.0,
    "length": 32.0
  },
  "AbyssalPalace_0_0_AbyssalPalace_0_0_25Indoor_04_02_Inside_Ve_Inside_Ve": {
    "$type": "LCFGLDCOCOH",
    "useHeight": true,
    "height": 11.0,
    "centerType": "Center",
    "width": 9.5,
    "length": 12.0
  },
  "AbyssalPalace_0_0_25Indoor_05_Inside_Ve": {
    "$type": "LCFGLDCOCOH",
    "useHeight": true,
    "height": 11.0,
    "centerType": "Center",
    "width": 33.0,
    "length": 25.5
  },
  "AbyssalPalace_0_0_25Indoor_06_01_Inside_Ve": {
    "$type": "LCFGLDCOCOH",
    "useHeight": true,
    "height": 11.0,
    "centerType": "Center",
    "width": 20.0,
    "length": 10.0
  },
  "AbyssalPalace_0_0_25Indoor_07_01_Inside_Ve": {
    "$type": "LCFGLDCOCOH",
    "useHeight": true,
    "height": 16.5,
    "centerType": "Center",
    "width": 15.0,
    "length": 35.0
  },
  "AbyssalPalace_0_0_25_Indoor_07_02_Inside_Ve": {
    "$type": "LCFGLDCOCOH",
    "useHeight": true,
    "height": 13.0,
    "centerType": "Center",
    "width": 15.0,
    "length": 13.0
  },
  "AbyssalPalace_0_0_25Indoor_Inside_Ve": {
    "$type": "LCFGLDCOCOH",
    "useHeight": true,
    "height": 12.0,
    "centerType": "Center",
    "width": 40.0,
    "length": 20.0
  },
  "AbyssalPalace_0_0_Cave_01_Inside_Ve": {
    "$type": "LCFGLDCOCOH",
    "useHeight": true,
    "height": 20.0,
    "centerType": "Center",
    "width": 30.0,
    "length": 8.0
  },
  "AbyssalPalace_0_0_Cave_06_Inside_Ve": {
    "$type": "LCFGLDCOCOH",
    "useHeight": true,
    "height": 20.0,
    "centerType": "Center",
    "width": 10.0,
    "length": 10.0
  },
  "AbyssalPalace_0_0_Cave_07_Inside_Ve": {
    "$type": "LCFGLDCOCOH",
    "useHeight": true,
    "height": 20.0,
    "centerType": "Center",
    "width": 30.0,
    "length": 8.0
  },
  "AbyssalPalace_0_0_Cave_08_Inside_Ve": {
    "$type": "LCFGLDCOCOH",
    "useHeight": true,
    "height": 20.0,
    "centerType": "Center",
    "width": 30.0,
    "length": 8.0
  },
  "AbyssalPalace_0_0_Cave_09_Inside_Ve": {
    "$type": "LCFGLDCOCOH",
    "useHeight": true,
    "height": 20.0,
    "centerType": "Center",
    "width": 30.0,
    "length": 8.0
  },
  "AbyssalPalace_0_0_Cave_10_Inside_Ve": {
    "$type": "LCFGLDCOCOH",
    "useHeight": true,
    "height": 20.0,
    "centerType": "Center",
    "width": 30.0,
    "length": 8.0
  },
  "AbyssalPalace_0_0_Cave_11_Inside_Ve": {
    "$type": "LCFGLDCOCOH",
    "useHeight": true,
    "height": 20.0,
    "centerType": "Center",
    "width": 30.0,
    "length": 8.0
  },
  "AbyssalPalace_0_0_Cave_02_Inside_Ve": {
    "$type": "LCFGLDCOCOH",
    "useHeight": true,
    "height": 33.20000076293945,
    "centerType": "Center",
    "width": 56.900001525878906,
    "length": 43.599998474121094
  },
  "AbyssalPalace_0_0_Cave_02_1_Inside_Ve": {
    "$type": "LCFGLDCOCOH",
    "useHeight": true,
    "height": 15.0,
    "centerType": "Center",
    "width": 5.0,
    "length": 5.0
  },
  "AbyssalPalace_0_0_Cave_03_Inside_Ve": {
    "$type": "LCFGLDCOCOH",
    "useHeight": true,
    "height": 18.0,
    "centerType": "Center",
    "width": 45.0,
    "length": 40.0
  },
  "AbyssalPalace_0_0_Cave_03_01_Inside_Ve": {
    "$type": "LCFGLDCOCOH",
    "useHeight": true,
    "height": 12.0,
    "centerType": "Center",
    "width": 37.20000076293945,
    "length": 22.200000762939453
  },
  "AbyssalPalace_0_0_Cave_03_02_Inside_Ve": {
    "$type": "LCFGLDCOCOH",
    "useHeight": true,
    "height": 2.0,
    "centerType": "Center",
    "width": 37.20000076293945,
    "length": 22.200000762939453
  },
  "AbyssalPalace_0_0_Cave_03_03_Inside_Ve": {
    "$type": "LCFGLDCOCOH",
    "useHeight": true,
    "height": 2.0,
    "centerType": "Center",
    "width": 37.20000076293945,
    "length": 10.0
  },
  "AbyssalPalace_0_0_Cave_04_Inside_Ve": {
    "$type": "LCFGLDCOCOH",
    "useHeight": true,
    "height": 42.0,
    "centerType": "Center",
    "width": 100.19999694824219,
    "length": 83.80000305175781
  },
  "AbyssalPalace_0_0_Cave_04_01_Inside_Ve": {
    "$type": "LCFGLDCOCOH",
    "useHeight": true,
    "height": 30.0,
    "centerType": "Center",
    "width": 30.0,
    "length": 30.0
  },
  "AbyssalPalace_0_0_Cave_04_02_Inside_Ve": {
    "$type": "LCFGLDCOCOH",
    "useHeight": true,
    "height": 15.0,
    "centerType": "Center",
    "width": 12.0,
    "length": 10.0
  },
  "AbyssalPalace_0_0_Cave_05_Inside_Ve": {
    "$type": "LCFGLDCOCOH",
    "useHeight": true,
    "height": 100.0,
    "centerType": "Center",
    "width": 100.0,
    "length": 100.0
  },
  "AbyssalPalace_0_0_Dari_Boss_Inside_Ve": {
    "$type": "LCFGLDCOCOH",
    "useHeight": true,
    "height": 70.0,
    "centerType": "Center",
    "width": 100.0,
    "length": 100.0
  },
  "AbyssalPalace_0_0_Dari_Boss02_Inside_Ve": {
    "$type": "LCFGLDCOCOH",
    "useHeight": true,
    "height": 70.0,
    "centerType": "Center",
    "width": 108.4000015258789,
    "length": 76.0
  },
  "AbyssalPalace_0_0_Dari_Boss03_Inside_Ve": {
    "$type": "LCFGLDCOCOH",
    "useHeight": true,
    "height": 70.0,
    "centerType": "Center",
    "width": 100.0,
    "length": 54.0
  },
  "AbyssalPalace_0_0_Dari_Boss04_Inside_Ve": {
    "$type": "LCFGLDCOCOH",
    "useHeight": true,
    "height": 70.0,
    "centerType": "Center",
    "width": 50.0,
    "length": 80.0
  },
  "AbyssalPalace_0_0_Dari_Boss05_Inside_Ve": {
    "$type": "LCFGLDCOCOH",
    "useHeight": true,
    "height": 70.0,
    "centerType": "Center",
    "width": 40.70000076293945,
    "length": 32.09000015258789
  },
  "AbyssalPalace_0_0_Dari_Boss06_Inside_Ve": {
    "$type": "LCFGLDCOCOH",
    "useHeight": true,
    "height": 70.0,
    "centerType": "Center",
    "width": 38.29999923706055,
    "length": 63.20000076293945
  },
  "AbyssalPalace_0_0_Dari_Boss07_Inside_Ve": {
    "$type": "LCFGLDCOCOH",
    "useHeight": true,
    "height": 70.0,
    "centerType": "Center",
    "width": 31.549999237060547,
    "length": 15.960000038146973
  },
  "AbyssalPalace_0_0_Dari_Boss08_Inside_Ve": {
    "$type": "LCFGLDCOCOH",
    "useHeight": true,
    "height": 70.0,
    "centerType": "Center",
    "width": 77.47000122070312,
    "length": 120.0
  },
  "AbyssalPalace_0_0_YXGBoss_01_Inside_Vs": {
    "$type": "EMOKHIGKKBE",
    "useHeight": true,
    "height": 200.0,
    "radius": 127.0
  },
  "AbyssalPalace_0_0_YXGBoss_01_Outside_Vs": {
    "$type": "EMOKHIGKKBE",
    "useHeight": true,
    "height": 220.0,
    "radius": 165.0
  },
  "AbyssalPalace_0_0_YXGBoss_02_Outside_Vs": {
    "$type": "LCFGLDCOCOH",
    "useHeight": true,
    "height": 80.72761535644531,
    "centerType": "Center",
    "width": 76.41166687011719,
    "length": 76.73377990722656
  },
  "AbyssalPalace_0_0_YXGBoss_03_Outside_Vs": {
    "$type": "LCFGLDCOCOH",
    "useHeight": true,
    "height": 72.14122009277344,
    "centerType": "Center",
    "width": 76.41166687011719,
    "length": 76.73377990722656
  },
  "AbyssalPalace_0_0_YXGBoss_04_Outside_Vs": {
    "$type": "LCFGLDCOCOH",
    "useHeight": true,
    "height": 114.97499084472656,
    "centerType": "Center",
    "width": 76.41166687011719,
    "length": 76.73377990722656
  },
  "AbyssalPalace_0_0_YXGDR_01_Inside_Vd": {
    "$type": "MGKHCALIABD",
    "polygonConfigPath": "AbyssalPalace_0_0_YXGDR_01_Inside_Vd"
  },
  "AbyssalPalace_0_0_YXGDR_01_Outside_Vd": {
    "$type": "MGKHCALIABD",
    "polygonConfigPath": "AbyssalPalace_0_0_YXGDR_01_Outside_Vd"
  }
}