{
  "BigWorld_1_1_Cavern_FXD_City_01_Inside_Vs": {
    "$type": "LCFGLDCOCOH",
    "useHeight": true,
    "height": 57.627105712890625,
    "centerType": "Center",
    "width": 81.09639739990234,
    "length": 97.09434509277344
  },
  "BigWorld_1_1_Cavern_FXD_City_01_Outside_Vs": {
    "$type": "LCFGLDCOCOH",
    "useHeight": true,
    "height": 63.30667495727539,
    "centerType": "Center",
    "width": 84.75509643554688,
    "length": 84.10081481933594
  },
  "BigWorld_1_1_Cavern_FXD_City_02_Outside_Vs": {
    "$type": "LCFGLDCOCOH",
    "useHeight": true,
    "height": 66.80110931396484,
    "centerType": "Center",
    "width": 86.1852035522461,
    "length": 111.80934143066406
  },
  "BigWorld_1_1_Cavern_MXJ_City_01_Inside_Vs": {
    "$type": "LCFGLDCOCOH",
    "useHeight": true,
    "height": 59.07624816894531,
    "centerType": "Center",
    "width": 66.54560089111328,
    "length": 46.67072677612305
  },
  "BigWorld_1_1_Cavern_MXJ_City_01_Outside_Vs": {
    "$type": "LCFGLDCOCOH",
    "useHeight": true,
    "height": 64.49459838867188,
    "centerType": "Center",
    "width": 72.36195373535156,
    "length": 115.852783203125
  },
  "BigWorld_1_1_Cavern_MXJ_City_02_Outside_Vs": {
    "$type": "LCFGLDCOCOH",
    "useHeight": true,
    "height": 43.67384719848633,
    "centerType": "Center",
    "width": 70.04206848144531,
    "length": 38.73949432373047
  },
  "BigWorld_1_1_Cavern_YGZD_City_01_Inside_Vs": {
    "$type": "LCFGLDCOCOH",
    "useHeight": true,
    "height": 101.84976196289062,
    "centerType": "Center",
    "width": 210.27540588378906,
    "length": 194.7075653076172
  },
  "BigWorld_1_1_Cavern_YGZD_City_02_Inside_Vs": {
    "$type": "LCFGLDCOCOH",
    "useHeight": true,
    "height": 54.54018020629883,
    "centerType": "Center",
    "width": 134.05697631835938,
    "length": 122.30774688720703
  },
  "BigWorld_1_1_Cavern_YGZD_City_03_Inside_Vs": {
    "$type": "LCFGLDCOCOH",
    "useHeight": true,
    "height": 38.459407806396484,
    "centerType": "Center",
    "width": 78.77119445800781,
    "length": 50.125186920166016
  },
  "BigWorld_1_1_Cavern_YGZD_City_01_Outside_Vs": {
    "$type": "LCFGLDCOCOH",
    "useHeight": true,
    "height": 112.77255249023438,
    "centerType": "Center",
    "width": 227.0350341796875,
    "length": 251.30508422851562
  },
  "BigWorld_1_1_Cavern_YGZD_City_02_Outside_Vs": {
    "$type": "LCFGLDCOCOH",
    "useHeight": true,
    "height": 84.18651580810547,
    "centerType": "Center",
    "width": 146.31576538085938,
    "length": 146.31570434570312
  },
  "BigWorld_1_1_Cavern_YGZD_City_03_Outside_Vs": {
    "$type": "LCFGLDCOCOH",
    "useHeight": true,
    "height": 70.69351959228516,
    "centerType": "Center",
    "width": 82.68389129638672,
    "length": 70.69351959228516
  },
  "BigWorld_1_1_CYG_Inside_Vd": {
    "$type": "MGKHCALIABD",
    "polygonConfigPath": "BigWorld_1_1_CYG_Inside_Vd"
  },
  "BigWorld_1_1_CYG_Outside_Vd": {
    "$type": "MGKHCALIABD",
    "polygonConfigPath": "BigWorld_1_1_CYG_Outside_Vd"
  },
  "BigWorld_1_1_GlobalFarFog_External_0_1_LY_LXS_After_Inside_Vdgo": {
    "$type": "LCFGLDCOCOH",
    "useHeight": true,
    "height": 1000.0,
    "centerType": "Center",
    "width": 3072.0,
    "length": 3072.0
  },
  "BigWorld_1_1_GlobalFarFog_External_0_1_Inside_Vdgo": {
    "$type": "LCFGLDCOCOH",
    "useHeight": true,
    "height": 1000.0,
    "centerType": "Center",
    "width": 3072.0,
    "length": 3072.0
  },
  "BigWorld_1_1_GlobalFarFog_External_0_2_LY_LXS_After_Inside_Vdgo": {
    "$type": "LCFGLDCOCOH",
    "useHeight": true,
    "height": 1000.0,
    "centerType": "Center",
    "width": 3072.0,
    "length": 3072.0
  },
  "BigWorld_1_1_GlobalFarFog_External_0_2_Inside_Vdgo": {
    "$type": "LCFGLDCOCOH",
    "useHeight": true,
    "height": 1000.0,
    "centerType": "Center",
    "width": 3072.0,
    "length": 3072.0
  },
  "BigWorld_1_1_GlobalFarFog_External_1_2_LY_LXS_After_Inside_Vdgo": {
    "$type": "LCFGLDCOCOH",
    "useHeight": true,
    "height": 1000.0,
    "centerType": "Center",
    "width": 3072.0,
    "length": 3072.0
  },
  "BigWorld_1_1_GlobalFarFog_External_1_2_Inside_Vdgo": {
    "$type": "LCFGLDCOCOH",
    "useHeight": true,
    "height": 1000.0,
    "centerType": "Center",
    "width": 3072.0,
    "length": 3072.0
  },
  "BigWorld_1_1_GlobalFarFog_External_2_1_LY_LXS_After_Inside_Vdgo": {
    "$type": "LCFGLDCOCOH",
    "useHeight": true,
    "height": 1000.0,
    "centerType": "Center",
    "width": 3072.0,
    "length": 3072.0
  },
  "BigWorld_1_1_GlobalFarFog_External_2_1_Inside_Vdgo": {
    "$type": "LCFGLDCOCOH",
    "useHeight": true,
    "height": 1000.0,
    "centerType": "Center",
    "width": 3072.0,
    "length": 3072.0
  },
  "BigWorld_1_1_GlobalFarFog_External_2_2_LY_LXS_After_Inside_Vdgo": {
    "$type": "LCFGLDCOCOH",
    "useHeight": true,
    "height": 1000.0,
    "centerType": "Center",
    "width": 3072.0,
    "length": 3072.0
  },
  "BigWorld_1_1_GlobalFarFog_External_2_2_Inside_Vdgo": {
    "$type": "LCFGLDCOCOH",
    "useHeight": true,
    "height": 1000.0,
    "centerType": "Center",
    "width": 3072.0,
    "length": 3072.0
  },
  "BigWorld_1_1_GlobalFarFog_LY_LXS_After_Inside_Vdgo": {
    "$type": "LCFGLDCOCOH",
    "useHeight": true,
    "height": 1000.0,
    "centerType": "Center",
    "width": 3072.0,
    "length": 3072.0
  },
  "BigWorld_1_1_GlobalFarFog_Inside_Vdgo": {
    "$type": "LCFGLDCOCOH",
    "useHeight": true,
    "height": 1000.0,
    "centerType": "Center",
    "width": 3072.0,
    "length": 3072.0
  },
  "BigWorld_1_1_LY_Inside_Vd": {
    "$type": "MGKHCALIABD",
    "polygonConfigPath": "BigWorld_1_1_LY_Inside_Vd"
  },
  "BigWorld_1_1_LY_Outside_Vd": {
    "$type": "MGKHCALIABD",
    "polygonConfigPath": "BigWorld_1_1_LY_Outside_Vd"
  },
  "BigWorld_1_1_QYDCloud_Inside_Vsp": {
    "$type": "MGKHCALIABD",
    "polygonConfigPath": "BigWorld_1_1_QYDCloud_Inside_Vsp"
  },
  "BigWorld_1_1_Tunnel_FXD_City_01_Outside_Vs": {
    "$type": "LCFGLDCOCOH",
    "useHeight": true,
    "height": 63.30667495727539,
    "centerType": "Center",
    "width": 84.75509643554688,
    "length": 103.97126770019531
  },
  "BigWorld_1_1_Tunnel_FXD_City_02_Outside_Vs": {
    "$type": "LCFGLDCOCOH",
    "useHeight": true,
    "height": 66.53089141845703,
    "centerType": "Center",
    "width": 86.1852035522461,
    "length": 111.80934143066406
  },
  "BigWorld_1_1_Tunnel_MXJ_City_01_Outside_Vs": {
    "$type": "LCFGLDCOCOH",
    "useHeight": true,
    "height": 64.49459838867188,
    "centerType": "Center",
    "width": 72.36195373535156,
    "length": 115.852783203125
  },
  "BigWorld_1_1_Tunnel_MXJ_City_02_Outside_Vs": {
    "$type": "LCFGLDCOCOH",
    "useHeight": true,
    "height": 48.238609313964844,
    "centerType": "Center",
    "width": 79.49915313720703,
    "length": 68.77318572998047
  },
  "BigWorld_1_1_Tunnel_YGZD_City_02_Outside_Vs": {
    "$type": "LCFGLDCOCOH",
    "useHeight": true,
    "height": 66.60999298095703,
    "centerType": "Center",
    "width": 68.84199523925781,
    "length": 101.73992919921875
  },
  "BigWorld_1_1_Tunnel_YGZD_City_01_Outside_Vs": {
    "$type": "LCFGLDCOCOH",
    "useHeight": true,
    "height": 63.91827392578125,
    "centerType": "Center",
    "width": 78.6207046508789,
    "length": 136.72218322753906
  },
  "BigWorld_1_1_XLS_Boundary_Inside_Ve": {
    "$type": "MGKHCALIABD",
    "polygonConfigPath": "BigWorld_1_1_XLS_Boundary_Inside_Ve"
  },
  "BigWorld_1_1_XLS_Pavilion_Inside_Ve": {
    "$type": "MGKHCALIABD",
    "polygonConfigPath": "BigWorld_1_1_XLS_Pavilion_Inside_Ve"
  },
  "BigWorld_1_1_XLS_Inside_Vd": {
    "$type": "MGKHCALIABD",
    "polygonConfigPath": "BigWorld_1_1_XLS_Inside_Vd"
  },
  "BigWorld_1_1_XLS_Outside_Vd": {
    "$type": "MGKHCALIABD",
    "polygonConfigPath": "BigWorld_1_1_XLS_Outside_Vd"
  },
  "BigWorld_1_1_XLS_Inside_Ve": {
    "$type": "EMOKHIGKKBE",
    "useHeight": true,
    "height": 292.9117736816406,
    "radius": 115.7269287109375
  },
  "BigWorld_1_1_YDG_Cave_Inside_Ve": {
    "$type": "MGKHCALIABD",
    "polygonConfigPath": "BigWorld_1_1_YDG_Cave_Inside_Ve"
  },
  "BigWorld_1_1_YDG_FXD_Inside_Ve": {
    "$type": "MGKHCALIABD",
    "polygonConfigPath": "BigWorld_1_1_YDG_FXD_Inside_Ve"
  },
  "BigWorld_1_1_YDG_YGZD_Cave01_Inside_Ve": {
    "$type": "MGKHCALIABD",
    "polygonConfigPath": "BigWorld_1_1_YDG_YGZD_Cave01_Inside_Ve"
  },
  "BigWorld_1_1_YDG_YGZD_Cave02_Inside_Ve": {
    "$type": "MGKHCALIABD",
    "polygonConfigPath": "BigWorld_1_1_YDG_YGZD_Cave02_Inside_Ve"
  },
  "BigWorld_1_1_YDG_YGZD_Central_Inside_Ve": {
    "$type": "MGKHCALIABD",
    "polygonConfigPath": "BigWorld_1_1_YDG_YGZD_Central_Inside_Ve"
  },
  "BigWorld_1_1_YDG_YGZD_UpSide_Inside_Ve": {
    "$type": "MGKHCALIABD",
    "polygonConfigPath": "BigWorld_1_1_YDG_YGZD_UpSide_Inside_Ve"
  },
  "BigWorld_1_1_YDG_YGZD_Inside_Ve": {
    "$type": "MGKHCALIABD",
    "polygonConfigPath": "BigWorld_1_1_YDG_YGZD_Inside_Ve"
  },
  "BigWorld_1_1_YDG_YGZD01_Inside_Ve": {
    "$type": "MGKHCALIABD",
    "polygonConfigPath": "BigWorld_1_1_YDG_YGZD01_Inside_Ve"
  }
}