{
  "BigWorld_2_2_Cavern_WST01_City_01_Inside_Vs": {
    "$type": "LCFGLDCOCOH",
    "useHeight": true,
    "height": 43.4691047668457,
    "centerType": "Center",
    "width": 96.08780670166016,
    "length": 95.84098052978516
  },
  "BigWorld_2_2_Cavern_WST01_City_01_Outside_Vs": {
    "$type": "LCFGLDCOCOH",
    "useHeight": true,
    "height": 73.7252426147461,
    "centerType": "Center",
    "width": 109.85075378417969,
    "length": 105.02337646484375
  },
  "BigWorld_2_2_Cavern_WST01_City_02_Outside_Vs": {
    "$type": "LCFGLDCOCOH",
    "useHeight": true,
    "height": 36.525779724121094,
    "centerType": "Center",
    "width": 39.08513259887695,
    "length": 62.7404670715332
  },
  "BigWorld_2_2_Cavern_WST01_City_03_Outside_Vs": {
    "$type": "LCFGLDCOCOH",
    "useHeight": true,
    "height": 53.44068908691406,
    "centerType": "Center",
    "width": 48.468265533447266,
    "length": 45.16030502319336
  },
  "BigWorld_2_2_Cavern_WST02_City_01_Inside_Vs": {
    "$type": "LCFGLDCOCOH",
    "useHeight": true,
    "height": 35.59739685058594,
    "centerType": "Center",
    "width": 66.68807220458984,
    "length": 64.04300689697266
  },
  "BigWorld_2_2_Cavern_WST02_City_02_Inside_Vs": {
    "$type": "LCFGLDCOCOH",
    "useHeight": true,
    "height": 25.141353607177734,
    "centerType": "Center",
    "width": 43.662635803222656,
    "length": 50.709293365478516
  },
  "BigWorld_2_2_Cavern_WST02_City_03_Inside_Vs": {
    "$type": "LCFGLDCOCOH",
    "useHeight": true,
    "height": 41.207923889160156,
    "centerType": "Center",
    "width": 62.32018280029297,
    "length": 50.60903549194336
  },
  "BigWorld_2_2_Cavern_WST02_City_01_Outside_Vs": {
    "$type": "LCFGLDCOCOH",
    "useHeight": true,
    "height": 58.468257904052734,
    "centerType": "Center",
    "width": 72.53755187988281,
    "length": 70.20178985595703
  },
  "BigWorld_2_2_Cavern_WST02_City_02_Outside_Vs": {
    "$type": "LCFGLDCOCOH",
    "useHeight": true,
    "height": 28.665796279907227,
    "centerType": "Center",
    "width": 85.15650177001953,
    "length": 82.31892395019531
  },
  "BigWorld_2_2_Cavern_WST02_City_03_Outside_Vs": {
    "$type": "LCFGLDCOCOH",
    "useHeight": true,
    "height": 44.60697555541992,
    "centerType": "Center",
    "width": 73.812744140625,
    "length": 49.86116027832031
  },
  "BigWorld_2_2_Cavern_WST02_City_04_Outside_Vs": {
    "$type": "LCFGLDCOCOH",
    "useHeight": true,
    "height": 9.618366241455078,
    "centerType": "Center",
    "width": 34.97658920288086,
    "length": 50.51222229003906
  },
  "BigWorld_2_2_Cavern_WST02_City_05_Outside_Vs": {
    "$type": "LCFGLDCOCOH",
    "useHeight": true,
    "height": 62.394248962402344,
    "centerType": "Center",
    "width": 62.51539993286133,
    "length": 40.535953521728516
  },
  "BigWorld_2_2_Cavern_WST02_City_06_Outside_Vs": {
    "$type": "LCFGLDCOCOH",
    "useHeight": true,
    "height": 45.28062057495117,
    "centerType": "Center",
    "width": 57.112979888916016,
    "length": 97.6983642578125
  },
  "BigWorld_2_2_Cavern_WST03_City_01_Inside_Vs": {
    "$type": "LCFGLDCOCOH",
    "useHeight": true,
    "height": 40.6984748840332,
    "centerType": "Center",
    "width": 112.83710479736328,
    "length": 77.1736068725586
  },
  "BigWorld_2_2_Cavern_WST03_City_01_Outside_Vs": {
    "$type": "LCFGLDCOCOH",
    "useHeight": true,
    "height": 45.611209869384766,
    "centerType": "Center",
    "width": 115.98832702636719,
    "length": 127.43241882324219
  },
  "BigWorld_2_2_Cavern_WST03_City_02_Outside_Vs": {
    "$type": "LCFGLDCOCOH",
    "useHeight": true,
    "height": 33.597652435302734,
    "centerType": "Center",
    "width": 41.57863235473633,
    "length": 38.98046875
  },
  "BigWorld_2_2_Cavern_WST03_City_03_Outside_Vs": {
    "$type": "LCFGLDCOCOH",
    "useHeight": true,
    "height": 37.19213104248047,
    "centerType": "Center",
    "width": 69.36580657958984,
    "length": 70.18146514892578
  },
  "BigWorld_2_2_Cavern_WST03_City_04_Outside_Vs": {
    "$type": "LCFGLDCOCOH",
    "useHeight": true,
    "height": 37.67518997192383,
    "centerType": "Center",
    "width": 37.58668518066406,
    "length": 38.565303802490234
  },
  "BigWorld_2_2_Cavern_WST03_City_05_Outside_Vs": {
    "$type": "LCFGLDCOCOH",
    "useHeight": true,
    "height": 18.300046920776367,
    "centerType": "Center",
    "width": 6.782001495361328,
    "length": 4.796288013458252
  },
  "BigWorld_2_2_Cavern_XMMJ05_City_01_Outside_Vs": {
    "$type": "LCFGLDCOCOH",
    "useHeight": true,
    "height": 69.1687240600586,
    "centerType": "Center",
    "width": 110.1015396118164,
    "length": 192.60052490234375
  },
  "BigWorld_2_2_CYG_Inside_Vd": {
    "$type": "MGKHCALIABD",
    "polygonConfigPath": "BigWorld_2_2_CYG_Inside_Vd"
  },
  "BigWorld_2_2_CYG_Outside_Vd": {
    "$type": "MGKHCALIABD",
    "polygonConfigPath": "BigWorld_2_2_CYG_Outside_Vd"
  },
  "BigWorld_2_2_GlobalFarFog_External_1_1_LY_LXS_After_Inside_Vdgo": {
    "$type": "LCFGLDCOCOH",
    "useHeight": true,
    "height": 1000.0,
    "centerType": "Center",
    "width": 3072.0,
    "length": 3072.0
  },
  "BigWorld_2_2_GlobalFarFog_External_1_1_Inside_Vdgo": {
    "$type": "LCFGLDCOCOH",
    "useHeight": true,
    "height": 1000.0,
    "centerType": "Center",
    "width": 3072.0,
    "length": 3072.0
  },
  "BigWorld_2_2_GlobalFarFog_External_1_2_LY_LXS_After_Inside_Vdgo": {
    "$type": "LCFGLDCOCOH",
    "useHeight": true,
    "height": 1000.0,
    "centerType": "Center",
    "width": 3072.0,
    "length": 3072.0
  },
  "BigWorld_2_2_GlobalFarFog_External_1_2_Inside_Vdgo": {
    "$type": "LCFGLDCOCOH",
    "useHeight": true,
    "height": 1000.0,
    "centerType": "Center",
    "width": 3072.0,
    "length": 3072.0
  },
  "BigWorld_2_2_GlobalFarFog_External_1_3_LY_LXS_After_Inside_Vdgo": {
    "$type": "LCFGLDCOCOH",
    "useHeight": true,
    "height": 1000.0,
    "centerType": "Center",
    "width": 3072.0,
    "length": 3072.0
  },
  "BigWorld_2_2_GlobalFarFog_External_1_3_Inside_Vdgo": {
    "$type": "LCFGLDCOCOH",
    "useHeight": true,
    "height": 1000.0,
    "centerType": "Center",
    "width": 3072.0,
    "length": 3072.0
  },
  "BigWorld_2_2_GlobalFarFog_External_2_1_LY_LXS_After_Inside_Vdgo": {
    "$type": "LCFGLDCOCOH",
    "useHeight": true,
    "height": 1000.0,
    "centerType": "Center",
    "width": 3072.0,
    "length": 3072.0
  },
  "BigWorld_2_2_GlobalFarFog_External_2_1_Inside_Vdgo": {
    "$type": "LCFGLDCOCOH",
    "useHeight": true,
    "height": 1000.0,
    "centerType": "Center",
    "width": 3072.0,
    "length": 3072.0
  },
  "BigWorld_2_2_GlobalFarFog_External_2_3_LY_LXS_After_Inside_Vdgo": {
    "$type": "LCFGLDCOCOH",
    "useHeight": true,
    "height": 1000.0,
    "centerType": "Center",
    "width": 3072.0,
    "length": 3072.0
  },
  "BigWorld_2_2_GlobalFarFog_External_2_3_Inside_Vdgo": {
    "$type": "LCFGLDCOCOH",
    "useHeight": true,
    "height": 1000.0,
    "centerType": "Center",
    "width": 3072.0,
    "length": 3072.0
  },
  "BigWorld_2_2_GlobalFarFog_LY_LXS_After_Inside_Vdgo": {
    "$type": "LCFGLDCOCOH",
    "useHeight": true,
    "height": 1000.0,
    "centerType": "Center",
    "width": 3072.0,
    "length": 3072.0
  },
  "BigWorld_2_2_GlobalFarFog_Inside_Vdgo": {
    "$type": "LCFGLDCOCOH",
    "useHeight": true,
    "height": 1000.0,
    "centerType": "Center",
    "width": 3072.0,
    "length": 3072.0
  },
  "BigWorld_2_2_RDG_UP_Inside_Ve": {
    "$type": "MGKHCALIABD",
    "polygonConfigPath": "BigWorld_2_2_RDG_UP_Inside_Ve"
  },
  "BigWorld_2_2_WST_Boss_Inside_Ve": {
    "$type": "LCFGLDCOCOH",
    "useHeight": true,
    "height": 41.754425048828125,
    "centerType": "Center",
    "width": 98.0256118774414,
    "length": 117.30487823486328
  },
  "BigWorld_2_2_WST_Boss02_Inside_Ve": {
    "$type": "LCFGLDCOCOH",
    "useHeight": true,
    "height": 19.888492584228516,
    "centerType": "Center",
    "width": 18.557477951049805,
    "length": 51.83607482910156
  },
  "BigWorld_2_2_WST_Boss03_Inside_Ve": {
    "$type": "LCFGLDCOCOH",
    "useHeight": true,
    "height": 14.976597785949707,
    "centerType": "Center",
    "width": 5.0,
    "length": 12.529817581176758
  },
  "BigWorld_2_2_WST_GuoDu01_Inside_Ve": {
    "$type": "PAPCPHMEHFC",
    "useHeight": true,
    "height": 25.380414962768555,
    "width": 37.68624496459961,
    "length": 52.85462188720703
  },
  "BigWorld_2_2_WST_Hall_Inside_Ve": {
    "$type": "LCFGLDCOCOH",
    "useHeight": true,
    "height": 50.30329132080078,
    "centerType": "Center",
    "width": 80.44640350341797,
    "length": 81.25028991699219
  },
  "BigWorld_2_2_WST_Hall02_Inside_Ve": {
    "$type": "LCFGLDCOCOH",
    "useHeight": true,
    "height": 19.196544647216797,
    "centerType": "Center",
    "width": 9.592883110046387,
    "length": 11.77773380279541
  },
  "BigWorld_2_2_WST_Hall03_Inside_Ve": {
    "$type": "LCFGLDCOCOH",
    "useHeight": true,
    "height": 31.5880069732666,
    "centerType": "Center",
    "width": 33.011356353759766,
    "length": 36.70270919799805
  },
  "BigWorld_2_2_WST_Hall04_Inside_Ve": {
    "$type": "LCFGLDCOCOH",
    "useHeight": true,
    "height": 19.284914016723633,
    "centerType": "Center",
    "width": 9.149360656738281,
    "length": 14.698673248291016
  },
  "BigWorld_2_2_WST_Hall05_Inside_Ve": {
    "$type": "LCFGLDCOCOH",
    "useHeight": true,
    "height": 23.82181167602539,
    "centerType": "Center",
    "width": 3.19404935836792,
    "length": 10.900094032287598
  },
  "BigWorld_2_2_WST_Hall06_Inside_Ve": {
    "$type": "PAPCPHMEHFC",
    "useHeight": true,
    "height": 6.943351745605469,
    "width": 12.101101875305176,
    "length": 10.085577964782715
  },
  "BigWorld_2_2_WST_Hall07_Inside_Ve": {
    "$type": "LCFGLDCOCOH",
    "useHeight": true,
    "height": 20.962238311767578,
    "centerType": "Center",
    "width": 21.646718978881836,
    "length": 11.70907974243164
  },
  "BigWorld_2_2_WST_Hall08_Inside_Ve": {
    "$type": "LCFGLDCOCOH",
    "useHeight": true,
    "height": 8.611713409423828,
    "centerType": "Center",
    "width": 5.0,
    "length": 5.0
  },
  "BigWorld_2_2_WST_Room_Inside_Ve": {
    "$type": "LCFGLDCOCOH",
    "useHeight": true,
    "height": 23.796791076660156,
    "centerType": "Center",
    "width": 91.71305084228516,
    "length": 86.94245147705078
  },
  "BigWorld_2_2_WST_Room_Inside02_Inside_Ve": {
    "$type": "LCFGLDCOCOH",
    "useHeight": true,
    "height": 21.885183334350586,
    "centerType": "Center",
    "width": 81.643310546875,
    "length": 51.193031311035156
  },
  "BigWorld_2_2_WST_Room_Inside03_Inside_Ve": {
    "$type": "LCFGLDCOCOH",
    "useHeight": true,
    "height": 17.533313751220703,
    "centerType": "Center",
    "width": 36.782535552978516,
    "length": 62.00404739379883
  },
  "BigWorld_2_2_WST_Room_Inside04_Inside_Ve": {
    "$type": "LCFGLDCOCOH",
    "useHeight": true,
    "height": 6.479336261749268,
    "centerType": "Center",
    "width": 40.95000457763672,
    "length": 55.328453063964844
  },
  "BigWorld_2_2_WST_Room_Inside05_Inside_Ve": {
    "$type": "LCFGLDCOCOH",
    "useHeight": true,
    "height": 7.587683200836182,
    "centerType": "Center",
    "width": 31.120126724243164,
    "length": 27.323890686035156
  },
  "BigWorld_2_2_WST_Room_Inside06_Inside_Ve": {
    "$type": "LCFGLDCOCOH",
    "useHeight": true,
    "height": 13.520170211791992,
    "centerType": "Center",
    "width": 13.388757705688477,
    "length": 10.459500312805176
  },
  "BigWorld_2_2_WST_Room_Inside07_Inside_Ve": {
    "$type": "LCFGLDCOCOH",
    "useHeight": true,
    "height": 9.424332618713379,
    "centerType": "Center",
    "width": 20.650775909423828,
    "length": 18.017547607421875
  },
  "BigWorld_2_2_WST_Room_Inside08_Inside_Ve": {
    "$type": "LCFGLDCOCOH",
    "useHeight": true,
    "height": 5.0,
    "centerType": "Center",
    "width": 15.039678573608398,
    "length": 14.952958106994629
  },
  "BigWorld_2_2_WST_Room_Inside09_Inside_Ve": {
    "$type": "LCFGLDCOCOH",
    "useHeight": true,
    "height": 2.739936351776123,
    "centerType": "Center",
    "width": 11.634035110473633,
    "length": 18.30788803100586
  },
  "BigWorld_2_2_XMMJ_05_001_Inside_Ve": {
    "$type": "LCFGLDCOCOH",
    "useHeight": true,
    "height": 23.03722381591797,
    "centerType": "Center",
    "width": 21.203453063964844,
    "length": 49.52200698852539
  },
  "BigWorld_2_2_XMMJ_05_002_Inside_Ve": {
    "$type": "LCFGLDCOCOH",
    "useHeight": true,
    "height": 41.648624420166016,
    "centerType": "Center",
    "width": 59.65524673461914,
    "length": 77.12850189208984
  }
}