{
  "BigWorld_0_-1_Ljxs_01_Inside_Vs": {
    "$type": "CMGBFEGEBPJ",
    "radius": 58.15309143066406
  },
  "BigWorld_0_-1_Ljxs_02_Inside_Vs": {
    "$type": "CMGBFEGEBPJ",
    "radius": 64.17396545410156
  },
  "BigWorld_0_-1_Ljxs_03_Inside_Vs": {
    "$type": "LCFGLDCOCOH",
    "useHeight": true,
    "height": 65.80803680419922,
    "centerType": "Center",
    "width": 67.88604736328125,
    "length": 74.27274322509766
  },
  "BigWorld_0_-1_Ljxs_01_Outside_Vs": {
    "$type": "EMOKHIGKKBE",
    "useHeight": true,
    "height": 339.3951721191406,
    "radius": 200.0
  },
  "BigWorld_0_-1_Ljxs_02_Outside_Vs": {
    "$type": "LCFGLDCOCOH",
    "useHeight": true,
    "height": 268.5802917480469,
    "centerType": "Center",
    "width": 155.3361053466797,
    "length": 170.0
  }
}