{
  "BigWorld_0_6_AdventuresCamp_DownOut_Inside_Ve": {
    "$type": "PAPCPHMEHFC",
    "useHeight": true,
    "height": 21.35178565979004,
    "width": 18.640945434570312,
    "length": 27.985923767089844
  },
  "BigWorld_0_6_AdventuresCamp_Down_01_Inside_Ve": {
    "$type": "LCFGLDCOCOH",
    "useHeight": true,
    "height": 42.28187561035156,
    "centerType": "Center",
    "width": 109.14971923828125,
    "length": 81.55127716064453
  },
  "BigWorld_0_6_AdcenturesCamp_Down_01_Inside_Ve": {
    "$type": "LCFGLDCOCOH",
    "useHeight": true,
    "height": 14.540851593017578,
    "centerType": "Center",
    "width": 24.545228958129883,
    "length": 17.78477668762207
  },
  "BigWorld_0_6_AdventuresCamp_Up_01_Inside_Ve": {
    "$type": "PAPCPHMEHFC",
    "useHeight": true,
    "height": 73.89878845214844,
    "width": 98.61264038085938,
    "length": 60.827110290527344
  },
  "BigWorld_0_6_AdventuresCamp_UP_02_Inside_Ve": {
    "$type": "PAPCPHMEHFC",
    "useHeight": true,
    "height": 15.901177406311035,
    "width": 5.312242031097412,
    "length": 39.705162048339844
  },
  "BigWorld_0_6_Aisle_Inside_Ve": {
    "$type": "LCFGLDCOCOH",
    "useHeight": true,
    "height": 108.84111022949219,
    "centerType": "Center",
    "width": 196.58203125,
    "length": 300.64404296875
  },
  "BigWorld_0_6_Aisle02_Inside_Ve": {
    "$type": "LCFGLDCOCOH",
    "useHeight": true,
    "height": 48.87804412841797,
    "centerType": "Center",
    "width": 111.77789306640625,
    "length": 97.71484375
  },
  "BigWorld_0_6_JJSD02_01_Outside_Vs": {
    "$type": "LCFGLDCOCOH",
    "useHeight": true,
    "height": 119.15422058105469,
    "centerType": "Center",
    "width": 154.86407470703125,
    "length": 142.89892578125
  },
  "BigWorld_0_6_JJSD02_02_Outside_Vs": {
    "$type": "LCFGLDCOCOH",
    "useHeight": true,
    "height": 72.09841918945312,
    "centerType": "Center",
    "width": 59.66082763671875,
    "length": 105.2109375
  },
  "BigWorld_0_6_JJSD02_03_Outside_Vs": {
    "$type": "LCFGLDCOCOH",
    "useHeight": true,
    "height": 91.3558349609375,
    "centerType": "Center",
    "width": 88.24322509765625,
    "length": 59.50146484375
  },
  "BigWorld_0_6_JJSD02_04_Outside_Vs": {
    "$type": "LCFGLDCOCOH",
    "useHeight": true,
    "height": 100.0,
    "centerType": "Center",
    "width": 56.77850341796875,
    "length": 62.9931640625
  },
  "BigWorld_0_6_JJSD02_05_Outside_Vs": {
    "$type": "LCFGLDCOCOH",
    "useHeight": true,
    "height": 81.3770751953125,
    "centerType": "Center",
    "width": 47.20896530151367,
    "length": 97.53619384765625
  },
  "BigWorld_0_6_ZZYJ01_01_Inside_Vs": {
    "$type": "LCFGLDCOCOH",
    "useHeight": true,
    "height": 99.62267303466797,
    "centerType": "Center",
    "width": 133.01043701171875,
    "length": 112.18495178222656
  },
  "BigWorld_0_6_ZZYJ01_01_Outside_Vs": {
    "$type": "LCFGLDCOCOH",
    "useHeight": true,
    "height": 105.02059173583984,
    "centerType": "Center",
    "width": 206.8299102783203,
    "length": 114.38078308105469
  },
  "BigWorld_0_6_ZZYJ01_02_Outside_Vs": {
    "$type": "LCFGLDCOCOH",
    "useHeight": true,
    "height": 89.4455337524414,
    "centerType": "Center",
    "width": 120.23715209960938,
    "length": 97.11685943603516
  },
  "BigWorld_0_6_ZZYJ01_03_Outside_Vs": {
    "$type": "LCFGLDCOCOH",
    "useHeight": true,
    "height": 46.0667724609375,
    "centerType": "Center",
    "width": 55.98118209838867,
    "length": 77.97608184814453
  },
  "BigWorld_0_6_ZZYJ01_04_Outside_Vs": {
    "$type": "LCFGLDCOCOH",
    "useHeight": true,
    "height": 59.18437957763672,
    "centerType": "Center",
    "width": 77.1035385131836,
    "length": 46.74443435668945
  },
  "BigWorld_0_6_ZZYJ01_05_Outside_Vs": {
    "$type": "LCFGLDCOCOH",
    "useHeight": true,
    "height": 68.33544158935547,
    "centerType": "Center",
    "width": 97.22967529296875,
    "length": 105.52587890625
  },
  "BigWorld_0_6_ZZYJ02_Inside_Vs": {
    "$type": "LCFGLDCOCOH",
    "useHeight": true,
    "height": 80.58929443359375,
    "centerType": "Center",
    "width": 89.3134765625,
    "length": 181.79345703125
  },
  "BigWorld_0_6_ZZYJ02_03_Inside_Vs": {
    "$type": "LCFGLDCOCOH",
    "useHeight": true,
    "height": 50.764007568359375,
    "centerType": "Center",
    "width": 79.60870361328125,
    "length": 86.93505859375
  },
  "BigWorld_0_6_ZZYJ02_04_Inside_Vs": {
    "$type": "LCFGLDCOCOH",
    "useHeight": true,
    "height": 59.095550537109375,
    "centerType": "Center",
    "width": 69.22720336914062,
    "length": 61.01361083984375
  },
  "BigWorld_0_6_ZZYJ02_01_Outside_Vs": {
    "$type": "LCFGLDCOCOH",
    "useHeight": true,
    "height": 84.90292358398438,
    "centerType": "Center",
    "width": 97.40740966796875,
    "length": 130.3955078125
  },
  "BigWorld_0_6_ZZYJ02_02_Outside_Vs": {
    "$type": "LCFGLDCOCOH",
    "useHeight": true,
    "height": 64.79462432861328,
    "centerType": "Center",
    "width": 107.77821350097656,
    "length": 76.12214660644531
  },
  "BigWorld_0_6_ZZYJ02_03_Outside_Vs": {
    "$type": "LCFGLDCOCOH",
    "useHeight": true,
    "height": 60.01545715332031,
    "centerType": "Center",
    "width": 86.4620361328125,
    "length": 78.38818359375
  },
  "BigWorld_0_6_ZZYJ02_04_Outside_Vs": {
    "$type": "LCFGLDCOCOH",
    "useHeight": true,
    "height": 49.029632568359375,
    "centerType": "Center",
    "width": 82.10748291015625,
    "length": 95.20068359375
  },
  "BigWorld_0_6_ZZYJ02_05_Outside_Vs": {
    "$type": "LCFGLDCOCOH",
    "useHeight": true,
    "height": 63.519813537597656,
    "centerType": "Center",
    "width": 74.00344848632812,
    "length": 89.65909576416016
  },
  "BigWorld_0_6_ZZYJ05_01_Inside_Vs": {
    "$type": "LCFGLDCOCOH",
    "useHeight": true,
    "height": 51.673194885253906,
    "centerType": "Center",
    "width": 77.57032012939453,
    "length": 60.34246063232422
  },
  "BigWorld_0_6_ZZYJ05_01_Outside_Vs": {
    "$type": "LCFGLDCOCOH",
    "useHeight": true,
    "height": 53.6579704284668,
    "centerType": "Center",
    "width": 83.50411987304688,
    "length": 66.10816955566406
  },
  "BigWorld_0_6_ZZYJ08_01_Inside_Vs": {
    "$type": "LCFGLDCOCOH",
    "useHeight": true,
    "height": 68.53619384765625,
    "centerType": "Center",
    "width": 148.78114318847656,
    "length": 113.1124038696289
  },
  "BigWorld_0_6_ZZYJ08_01_Outside_Vs": {
    "$type": "LCFGLDCOCOH",
    "useHeight": true,
    "height": 80.45414733886719,
    "centerType": "Center",
    "width": 214.53884887695312,
    "length": 119.11381530761719
  },
  "BigWorld_0_6_ZZYJ08_02_Outside_Vs": {
    "$type": "LCFGLDCOCOH",
    "useHeight": true,
    "height": 149.75808715820312,
    "centerType": "Center",
    "width": 230.1636962890625,
    "length": 191.68142700195312
  },
  "BigWorld_0_6_ZZYJ08_03_Outside_Vs": {
    "$type": "LCFGLDCOCOH",
    "useHeight": true,
    "height": 53.720115661621094,
    "centerType": "Center",
    "width": 63.08870315551758,
    "length": 95.45996856689453
  },
  "BigWorld_0_6_ZZYJ08_04_Outside_Vs": {
    "$type": "LCFGLDCOCOH",
    "useHeight": true,
    "height": 81.96908569335938,
    "centerType": "Center",
    "width": 100.0,
    "length": 100.0
  },
  "BigWorld_0_6_ZZYJ08_05_Outside_Vs": {
    "$type": "LCFGLDCOCOH",
    "useHeight": true,
    "height": 67.58240509033203,
    "centerType": "Center",
    "width": 89.08524322509766,
    "length": 89.05850219726562
  },
  "BigWorld_0_6_ZZYJ10_01_Inside_Vs": {
    "$type": "LCFGLDCOCOH",
    "useHeight": true,
    "height": 72.12004852294922,
    "centerType": "Center",
    "width": 118.54259490966797,
    "length": 86.84205627441406
  },
  "BigWorld_0_6_ZZYJ10_01_Outside_Vs": {
    "$type": "LCFGLDCOCOH",
    "useHeight": true,
    "height": 126.19647216796875,
    "centerType": "Center",
    "width": 164.01011657714844,
    "length": 104.91339111328125
  },
  "BigWorld_0_6_ZZYJ10_02_Outside_Vs": {
    "$type": "LCFGLDCOCOH",
    "useHeight": true,
    "height": 96.26113891601562,
    "centerType": "Center",
    "width": 112.94170379638672,
    "length": 130.67953491210938
  },
  "BigWorld_0_6_ZZYJ10_03_Outside_Vs": {
    "$type": "LCFGLDCOCOH",
    "useHeight": true,
    "height": 99.8793716430664,
    "centerType": "Center",
    "width": 183.004150390625,
    "length": 122.229736328125
  },
  "BigWorld_0_6_KANRUIYA01_01_Inside_Vs": {
    "$type": "LCFGLDCOCOH",
    "useHeight": true,
    "height": 99.62704467773438,
    "centerType": "Center",
    "width": 100.0,
    "length": 150.3740234375
  },
  "BigWorld_0_6_KANRUIYA01_02_Inside_Vs": {
    "$type": "LCFGLDCOCOH",
    "useHeight": true,
    "height": 20.713455200195312,
    "centerType": "Center",
    "width": 34.85631561279297,
    "length": 71.437744140625
  },
  "BigWorld_0_6_KANRUIYA01_01_Outside_Vs": {
    "$type": "LCFGLDCOCOH",
    "useHeight": true,
    "height": 139.58103942871094,
    "centerType": "Center",
    "width": 163.87985229492188,
    "length": 141.84228515625
  },
  "BigWorld_0_6_KANRUIYA01_02_Outside_Vs": {
    "$type": "LCFGLDCOCOH",
    "useHeight": true,
    "height": 295.1916809082031,
    "centerType": "Center",
    "width": 242.88973999023438,
    "length": 289.96966552734375
  },
  "BigWorld_0_6_KANRUIYA01_03_Outside_Vs": {
    "$type": "LCFGLDCOCOH",
    "useHeight": true,
    "height": 29.652603149414062,
    "centerType": "Center",
    "width": 40.27721405029297,
    "length": 69.01176452636719
  },
  "BigWorld_0_6_MJDT_01_Inside_Vs": {
    "$type": "LCFGLDCOCOH",
    "useHeight": true,
    "height": 68.05810546875,
    "centerType": "Center",
    "width": 53.582000732421875,
    "length": 149.64013671875
  },
  "BigWorld_0_6_MJDT_02_Inside_Vs": {
    "$type": "LCFGLDCOCOH",
    "useHeight": true,
    "height": 127.012451171875,
    "centerType": "Center",
    "width": 185.62179565429688,
    "length": 181.884765625
  },
  "BigWorld_0_6_MJDT_03_Inside_Vs": {
    "$type": "LCFGLDCOCOH",
    "useHeight": true,
    "height": 100.0,
    "centerType": "Center",
    "width": 100.0,
    "length": 41.36279296875
  },
  "BigWorld_0_6_MJDT_04_Inside_Vs": {
    "$type": "LCFGLDCOCOH",
    "useHeight": true,
    "height": 31.480758666992188,
    "centerType": "Center",
    "width": 100.0,
    "length": 87.8955078125
  },
  "BigWorld_0_6_MJDT_01_Outside_Vs": {
    "$type": "LCFGLDCOCOH",
    "useHeight": true,
    "height": 181.97052001953125,
    "centerType": "Center",
    "width": 204.99249267578125,
    "length": 228.52392578125
  },
  "BigWorld_0_6_MJDT_02_Outside_Vs": {
    "$type": "LCFGLDCOCOH",
    "useHeight": true,
    "height": 125.675048828125,
    "centerType": "Center",
    "width": 152.51333618164062,
    "length": 191.91357421875
  },
  "BigWorld_0_6_MJDT_03_Outside_Vs": {
    "$type": "LCFGLDCOCOH",
    "useHeight": true,
    "height": 132.33636474609375,
    "centerType": "Center",
    "width": 156.07611083984375,
    "length": 108.04345703125
  },
  "BigWorld_0_6_MJDT_04_Outside_Vs": {
    "$type": "LCFGLDCOCOH",
    "useHeight": true,
    "height": 152.13438415527344,
    "centerType": "Center",
    "width": 191.92356872558594,
    "length": 255.70962524414062
  },
  "BigWorld_0_6_SCD02_Inside_Vs": {
    "$type": "LCFGLDCOCOH",
    "useHeight": true,
    "height": 31.33404541015625,
    "centerType": "Center",
    "width": 95.30284881591797,
    "length": 211.30517578125
  },
  "BigWorld_0_6_SCD02_02_Inside_Vs": {
    "$type": "LCFGLDCOCOH",
    "useHeight": true,
    "height": 34.74800109863281,
    "centerType": "Center",
    "width": 94.9168701171875,
    "length": 75.990234375
  },
  "BigWorld_0_6_SCD02_Outside_Vs": {
    "$type": "LCFGLDCOCOH",
    "useHeight": true,
    "height": 90.48812866210938,
    "centerType": "Center",
    "width": 107.70550537109375,
    "length": 253.60791015625
  },
  "BigWorld_0_6_SCD02_02_Outside_Vs": {
    "$type": "LCFGLDCOCOH",
    "useHeight": true,
    "height": 72.46244812011719,
    "centerType": "Center",
    "width": 100.0,
    "length": 124.10986328125
  },
  "BigWorld_0_6_SCD02_03_Outside_Vs": {
    "$type": "LCFGLDCOCOH",
    "useHeight": true,
    "height": 60.64881896972656,
    "centerType": "Center",
    "width": 48.5643310546875,
    "length": 76.61767578125
  },
  "BigWorld_0_6_SCD02_05_Outside_Vs": {
    "$type": "LCFGLDCOCOH",
    "useHeight": true,
    "height": 36.52937316894531,
    "centerType": "Center",
    "width": 54.0830078125,
    "length": 154.5458984375
  },
  "BigWorld_0_6_SCDZX_02_Inside_Vs": {
    "$type": "LCFGLDCOCOH",
    "useHeight": true,
    "height": 60.0504150390625,
    "centerType": "Center",
    "width": 114.482421875,
    "length": 95.80908203125
  },
  "BigWorld_0_6_SCDZX_01_Outside_Vs": {
    "$type": "LCFGLDCOCOH",
    "useHeight": true,
    "height": 106.36196899414062,
    "centerType": "Center",
    "width": 206.56805419921875,
    "length": 214.056640625
  },
  "BigWorld_0_6_SCD_01_Inside_Vs": {
    "$type": "LCFGLDCOCOH",
    "useHeight": true,
    "height": 146.52880859375,
    "centerType": "Center",
    "width": 111.36407470703125,
    "length": 138.806640625
  },
  "BigWorld_0_6_SCD_02_Inside_Vs": {
    "$type": "LCFGLDCOCOH",
    "useHeight": true,
    "height": 70.6636962890625,
    "centerType": "Center",
    "width": 53.85321044921875,
    "length": 92.40380859375
  },
  "BigWorld_0_6_SCD_03_Inside_Vs": {
    "$type": "LCFGLDCOCOH",
    "useHeight": true,
    "height": 148.93182373046875,
    "centerType": "Center",
    "width": 108.85028076171875,
    "length": 116.8779296875
  },
  "BigWorld_0_6_SCD_04_Inside_Vs": {
    "$type": "LCFGLDCOCOH",
    "useHeight": true,
    "height": 153.10504150390625,
    "centerType": "Center",
    "width": 65.847412109375,
    "length": 100.0
  },
  "BigWorld_0_6_SCD_01_Outside_Vs": {
    "$type": "LCFGLDCOCOH",
    "useHeight": true,
    "height": 160.65933227539062,
    "centerType": "Center",
    "width": 126.6212158203125,
    "length": 305.9326171875
  },
  "BigWorld_0_6_SCD_02_Outside_Vs": {
    "$type": "LCFGLDCOCOH",
    "useHeight": true,
    "height": 121.68486022949219,
    "centerType": "Center",
    "width": 143.4864501953125,
    "length": 159.6298828125
  },
  "BigWorld_0_6_SCD_03_Outside_Vs": {
    "$type": "LCFGLDCOCOH",
    "useHeight": true,
    "height": 134.87916564941406,
    "centerType": "Center",
    "width": 98.08843994140625,
    "length": 161.20751953125
  },
  "BigWorld_0_6_SCD_04_Outside_Vs": {
    "$type": "LCFGLDCOCOH",
    "useHeight": true,
    "height": 75.28070068359375,
    "centerType": "Center",
    "width": 48.43402099609375,
    "length": 100.0
  },
  "BigWorld_0_6_TNHYYJ01_01_Inside_Vs": {
    "$type": "LCFGLDCOCOH",
    "useHeight": true,
    "height": 81.87322235107422,
    "centerType": "Center",
    "width": 131.47625732421875,
    "length": 108.74560546875
  },
  "BigWorld_0_6_TNHYYJ01_02_Inside_Vs": {
    "$type": "LCFGLDCOCOH",
    "useHeight": true,
    "height": 31.70995330810547,
    "centerType": "Center",
    "width": 86.720703125,
    "length": 125.5
  },
  "BigWorld_0_6_TNHYYJ01_01_Outside_Vs": {
    "$type": "LCFGLDCOCOH",
    "useHeight": true,
    "height": 91.3536148071289,
    "centerType": "Center",
    "width": 152.72900390625,
    "length": 122.83203125
  },
  "BigWorld_0_6_TNHYYJ01_04_Outside_Vs": {
    "$type": "LCFGLDCOCOH",
    "useHeight": true,
    "height": 87.92779541015625,
    "centerType": "Center",
    "width": 139.15296936035156,
    "length": 205.2010955810547
  },
  "BigWorld_0_6_TNHYYJ01_02_Outside_Vs": {
    "$type": "LCFGLDCOCOH",
    "useHeight": true,
    "height": 116.35674285888672,
    "centerType": "Center",
    "width": 129.40130615234375,
    "length": 120.0068359375
  },
  "BigWorld_0_6_TNHYYJ02_01_Inside_Vs": {
    "$type": "LCFGLDCOCOH",
    "useHeight": true,
    "height": 95.5850601196289,
    "centerType": "Center",
    "width": 196.48724365234375,
    "length": 105.232421875
  },
  "BigWorld_0_6_TNHYYJ02_02_Inside_Vs": {
    "$type": "LCFGLDCOCOH",
    "useHeight": true,
    "height": 50.16065216064453,
    "centerType": "Center",
    "width": 72.77001953125,
    "length": 76.7548828125
  },
  "BigWorld_0_6_TNHYYJ02_01_Outside_Vs": {
    "$type": "LCFGLDCOCOH",
    "useHeight": true,
    "height": 127.84423065185547,
    "centerType": "Center",
    "width": 225.57156372070312,
    "length": 158.03662109375
  },
  "BigWorld_0_6_TNHYYJ02_02_Outside_Vs": {
    "$type": "LCFGLDCOCOH",
    "useHeight": true,
    "height": 80.62837982177734,
    "centerType": "Center",
    "width": 157.31765747070312,
    "length": 138.40625
  },
  "BigWorld_0_6_TNHYYJ03_01_Inside_Vs": {
    "$type": "LCFGLDCOCOH",
    "useHeight": true,
    "height": 69.90467834472656,
    "centerType": "Center",
    "width": 112.57864379882812,
    "length": 211.1982421875
  },
  "BigWorld_0_6_TNHYYJ03_01_Outside_Vs": {
    "$type": "LCFGLDCOCOH",
    "useHeight": true,
    "height": 128.48196411132812,
    "centerType": "Center",
    "width": 156.09820556640625,
    "length": 123.16845703125
  },
  "BigWorld_0_6_TNHYYJ03_03_Outside_Vs": {
    "$type": "LCFGLDCOCOH",
    "useHeight": true,
    "height": 123.53487396240234,
    "centerType": "Center",
    "width": 211.15606689453125,
    "length": 175.8203125
  },
  "BigWorld_0_6_TNHYYJ03_02_Outside_Vs": {
    "$type": "LCFGLDCOCOH",
    "useHeight": true,
    "height": 60.056610107421875,
    "centerType": "Center",
    "width": 110.359619140625,
    "length": 85.068359375
  },
  "BigWorld_0_6_TNHYYJ04_01_Inside_Vs": {
    "$type": "LCFGLDCOCOH",
    "useHeight": true,
    "height": 54.98113250732422,
    "centerType": "Center",
    "width": 80.7945556640625,
    "length": 118.73681640625
  },
  "BigWorld_0_6_TNHYYJ04_02_Inside_Vs": {
    "$type": "LCFGLDCOCOH",
    "useHeight": true,
    "height": 100.0,
    "centerType": "Center",
    "width": 158.3438720703125,
    "length": 45.33154296875
  },
  "BigWorld_0_6_TNHYYJ04_01_Outside_Vs": {
    "$type": "LCFGLDCOCOH",
    "useHeight": true,
    "height": 99.05551147460938,
    "centerType": "Center",
    "width": 83.01812744140625,
    "length": 133.7919921875
  },
  "BigWorld_0_6_TNHYYJ04_02_Outside_Vs": {
    "$type": "LCFGLDCOCOH",
    "useHeight": true,
    "height": 118.5340576171875,
    "centerType": "Center",
    "width": 97.44485473632812,
    "length": 114.9462890625
  },
  "BigWorld_0_6_TNHYYJ04_03_Outside_Vs": {
    "$type": "LCFGLDCOCOH",
    "useHeight": true,
    "height": 50.08058166503906,
    "centerType": "Center",
    "width": 104.23855590820312,
    "length": 69.990234375
  },
  "BigWorld_0_6_TNHYYJ04_04_Outside_Vs": {
    "$type": "LCFGLDCOCOH",
    "useHeight": true,
    "height": 110.09154510498047,
    "centerType": "Center",
    "width": 133.15505981445312,
    "length": 153.935546875
  },
  "BigWorld_0_6_TNHYYJ04_05_Outside_Vs": {
    "$type": "LCFGLDCOCOH",
    "useHeight": true,
    "height": 57.67028045654297,
    "centerType": "Center",
    "width": 58.696044921875,
    "length": 60.435546875
  },
  "BigWorld_0_6_TNHYYJ05_01_Inside_Vs": {
    "$type": "LCFGLDCOCOH",
    "useHeight": true,
    "height": 100.0,
    "centerType": "Center",
    "width": 96.84683227539062,
    "length": 136.97216796875
  },
  "BigWorld_0_6_TNHYYJ05_01_Outside_Vs": {
    "$type": "LCFGLDCOCOH",
    "useHeight": true,
    "height": 100.0,
    "centerType": "Center",
    "width": 116.92721557617188,
    "length": 161.61279296875
  },
  "BigWorld_0_6_TNHYYJ05_02_Outside_Vs": {
    "$type": "LCFGLDCOCOH",
    "useHeight": true,
    "height": 57.56263732910156,
    "centerType": "Center",
    "width": 26.20355224609375,
    "length": 62.11181640625
  },
  "BigWorld_0_6_TNHYYJ05_03_Outside_Vs": {
    "$type": "LCFGLDCOCOH",
    "useHeight": true,
    "height": 100.0,
    "centerType": "Center",
    "width": 100.0,
    "length": 100.0
  },
  "BigWorld_0_6_TNHYYJ05_04_Outside_Vs": {
    "$type": "EMOKHIGKKBE",
    "useHeight": true,
    "height": 45.974708557128906,
    "radius": 50.0
  },
  "BigWorld_0_6_TNHYYJ07_01_Inside_Vs": {
    "$type": "EMOKHIGKKBE",
    "useHeight": true,
    "height": 106.85724639892578,
    "radius": 33.66952133178711
  },
  "BigWorld_0_6_TNHYYJ07_01_Outside_Vs": {
    "$type": "EMOKHIGKKBE",
    "useHeight": true,
    "height": 138.47146606445312,
    "radius": 36.99409866333008
  },
  "BigWorld_0_6_TNHYYJ07_02_Outside_Vs": {
    "$type": "LCFGLDCOCOH",
    "useHeight": true,
    "height": 90.04450988769531,
    "centerType": "Center",
    "width": 100.0306396484375,
    "length": 128.95556640625
  },
  "BigWorld_0_6_TNHYYJ07_03_Outside_Vs": {
    "$type": "LCFGLDCOCOH",
    "useHeight": true,
    "height": 27.999526977539062,
    "centerType": "Center",
    "width": 44.96563720703125,
    "length": 25.13818359375
  },
  "BigWorld_0_6_TNHYYJ07_04_Outside_Vs": {
    "$type": "EMOKHIGKKBE",
    "useHeight": true,
    "height": 57.34590148925781,
    "radius": 36.32200622558594
  },
  "BigWorld_0_6_TNHYYJ08_01_Inside_Vs": {
    "$type": "LCFGLDCOCOH",
    "useHeight": true,
    "height": 80.3389892578125,
    "centerType": "Center",
    "width": 100.0,
    "length": 52.07421875
  },
  "BigWorld_0_6_TNHYYJ08_01_Outside_Vs": {
    "$type": "LCFGLDCOCOH",
    "useHeight": true,
    "height": 115.12325286865234,
    "centerType": "Center",
    "width": 166.32720947265625,
    "length": 305.57080078125
  },
  "BigWorld_0_6_TNHYYJSFA_01_Inside_Vs": {
    "$type": "LCFGLDCOCOH",
    "useHeight": true,
    "height": 50.76105499267578,
    "centerType": "Center",
    "width": 154.53469848632812,
    "length": 170.55906677246094
  },
  "BigWorld_0_6_TNHYYJSFA_02_Inside_Vs": {
    "$type": "LCFGLDCOCOH",
    "useHeight": true,
    "height": 82.04437255859375,
    "centerType": "Center",
    "width": 100.0,
    "length": 74.32666015625
  },
  "BigWorld_0_6_TNHYYJSFA_03_Inside_Vs": {
    "$type": "LCFGLDCOCOH",
    "useHeight": true,
    "height": 56.04566192626953,
    "centerType": "Center",
    "width": 104.2216796875,
    "length": 65.94287109375
  },
  "BigWorld_0_6_TNHYYJSFA_01_Outside_Vs": {
    "$type": "LCFGLDCOCOH",
    "useHeight": true,
    "height": 61.460227966308594,
    "centerType": "Center",
    "width": 170.45753479003906,
    "length": 180.4583282470703
  },
  "BigWorld_0_6_TNHYYJSFA_02_Outside_Vs": {
    "$type": "LCFGLDCOCOH",
    "useHeight": true,
    "height": 51.00531768798828,
    "centerType": "Center",
    "width": 39.720855712890625,
    "length": 45.1884765625
  },
  "BigWorld_0_6_TNHYYJSFA_03_Outside_Vs": {
    "$type": "LCFGLDCOCOH",
    "useHeight": true,
    "height": 94.08597564697266,
    "centerType": "Center",
    "width": 121.181640625,
    "length": 134.90478515625
  },
  "BigWorld_0_6_TNHYYJSFA_04_Outside_Vs": {
    "$type": "LCFGLDCOCOH",
    "useHeight": true,
    "height": 48.95610046386719,
    "centerType": "Center",
    "width": 40.29705810546875,
    "length": 40.30133056640625
  },
  "BigWorld_0_6_TNHYYJSFB_01_Inside_Vs": {
    "$type": "LCFGLDCOCOH",
    "useHeight": true,
    "height": 105.40889739990234,
    "centerType": "Center",
    "width": 104.12169647216797,
    "length": 164.85525512695312
  },
  "BigWorld_0_6_TNHYYJSFB_02_Inside_Vs": {
    "$type": "LCFGLDCOCOH",
    "useHeight": true,
    "height": 69.67607879638672,
    "centerType": "Center",
    "width": 51.1168212890625,
    "length": 65.39501953125
  },
  "BigWorld_0_6_TNHYYJSFB_01_Outside_Vs": {
    "$type": "LCFGLDCOCOH",
    "useHeight": true,
    "height": 121.52996826171875,
    "centerType": "Center",
    "width": 119.44281005859375,
    "length": 203.02978515625
  },
  "BigWorld_0_6_TNHYYJSFB_03_Outside_Vs": {
    "$type": "LCFGLDCOCOH",
    "useHeight": true,
    "height": 71.32416534423828,
    "centerType": "Center",
    "width": 56.40313720703125,
    "length": 71.12890625
  },
  "BigWorld_0_6_TNHYYJSFB_02_Outside_Vs": {
    "$type": "LCFGLDCOCOH",
    "useHeight": true,
    "height": 101.84784698486328,
    "centerType": "Center",
    "width": 66.17446899414062,
    "length": 98.39208984375
  },
  "BigWorld_0_6_Black_Abyss_01_Inside_Ve": {
    "$type": "EMOKHIGKKBE",
    "useHeight": true,
    "height": 40.0,
    "radius": 29.350000381469727
  },
  "BigWorld_0_6_BlackAbyss_01_Inside_Ve": {
    "$type": "MGKHCALIABD",
    "polygonConfigPath": "BigWorld_0_6_BlackAbyss_01_Inside_Ve"
  },
  "BigWorld_0_6_BlackAbyss_02_Inside_Ve": {
    "$type": "MGKHCALIABD",
    "polygonConfigPath": "BigWorld_0_6_BlackAbyss_02_Inside_Ve"
  },
  "BigWorld_0_6_BlackAbyss_03_Inside_Ve": {
    "$type": "CMGBFEGEBPJ",
    "radius": 81.41999816894531
  },
  "BigWorld_0_6_BlackAbyss_04_Inside_Ve": {
    "$type": "LCFGLDCOCOH",
    "useHeight": true,
    "height": 21.42584228515625,
    "centerType": "Center",
    "width": 22.03680992126465,
    "length": 64.59172058105469
  },
  "BigWorld_0_6_CircuitRoom_Inside_Ve": {
    "$type": "LCFGLDCOCOH",
    "useHeight": true,
    "height": 25.117462158203125,
    "centerType": "Center",
    "width": 70.94232177734375,
    "length": 64.35655212402344
  },
  "BigWorld_0_6_CircuitRoom_02_Inside_Ve": {
    "$type": "LCFGLDCOCOH",
    "useHeight": true,
    "height": 26.27942657470703,
    "centerType": "Center",
    "width": 74.74374389648438,
    "length": 38.32844161987305
  },
  "BigWorld_0_6_CircuitRoom_03_Inside_Ve": {
    "$type": "LCFGLDCOCOH",
    "useHeight": true,
    "height": 18.516265869140625,
    "centerType": "Center",
    "width": 41.60919189453125,
    "length": 23.53144645690918
  },
  "BigWorld_0_6_Crystal_Cave_01_Inside_Ve": {
    "$type": "LCFGLDCOCOH",
    "useHeight": true,
    "height": 54.819244384765625,
    "centerType": "Center",
    "width": 90.35256958007812,
    "length": 99.47105407714844
  },
  "BigWorld_0_6_Crystal_Cave_02_Inside_Ve": {
    "$type": "PAPCPHMEHFC",
    "useHeight": true,
    "height": 11.469927787780762,
    "width": 14.891385078430176,
    "length": 12.303004264831543
  },
  "BigWorld_0_6_Crystal_Cave_03_Inside_Ve": {
    "$type": "LCFGLDCOCOH",
    "useHeight": true,
    "height": 12.079504013061523,
    "centerType": "Center",
    "width": 23.54136085510254,
    "length": 3.0689966678619385
  },
  "BigWorld_0_6_Crystal_0_Inside_Vsp": {
    "$type": "PAPCPHMEHFC",
    "useHeight": true,
    "height": 110.73896026611328,
    "width": 236.106689453125,
    "length": 103.35469818115234
  },
  "BigWorld_0_6_ElvenBurial_Inside_Ve": {
    "$type": "CMGBFEGEBPJ",
    "radius": 35.0
  },
  "BigWorld_0_6_GlobalFarFog_External_0_5_Bigworld_Inside_Vdgo": {
    "$type": "LCFGLDCOCOH",
    "useHeight": true,
    "height": 1000.0,
    "centerType": "Center",
    "width": 3072.0,
    "length": 3072.0
  },
  "BigWorld_0_6_GlobalFarFog_External_1_5_Bigworld_Inside_Vdgo": {
    "$type": "LCFGLDCOCOH",
    "useHeight": true,
    "height": 1000.0,
    "centerType": "Center",
    "width": 3072.0,
    "length": 3072.0
  },
  "BigWorld_0_6_GrassGodLake_Inside_Ve": {
    "$type": "PAPCPHMEHFC",
    "useHeight": true,
    "height": 38.8615608215332,
    "width": 35.24446487426758,
    "length": 49.68213653564453
  },
  "BigWorld_0_6_GrassGodLake_01_Inside_Ve": {
    "$type": "LCFGLDCOCOH",
    "useHeight": true,
    "height": 35.82855224609375,
    "centerType": "Center",
    "width": 35.345863342285156,
    "length": 71.9208984375
  },
  "BigWorld_0_6_GrassTrial_Inside_Ve": {
    "$type": "LCFGLDCOCOH",
    "useHeight": true,
    "height": 18.929229736328125,
    "centerType": "Center",
    "width": 57.7164192199707,
    "length": 49.394588470458984
  },
  "BigWorld_0_6_Elevator_01_Inside_Ve": {
    "$type": "LCFGLDCOCOH",
    "useHeight": true,
    "height": 128.03475952148438,
    "centerType": "Center",
    "width": 77.58090209960938,
    "length": 83.70169067382812
  },
  "BigWorld_0_6_Elevator_02_Inside_Ve": {
    "$type": "PAPCPHMEHFC",
    "useHeight": true,
    "height": 13.555825233459473,
    "width": 28.19866943359375,
    "length": 17.54443359375
  },
  "BigWorld_0_6_Elevator_03_Inside_Ve": {
    "$type": "PAPCPHMEHFC",
    "useHeight": true,
    "height": 17.553970336914062,
    "width": 18.90349578857422,
    "length": 6.363590717315674
  },
  "BigWorld_0_6_Machine01_Inside_Ve": {
    "$type": "LCFGLDCOCOH",
    "useHeight": true,
    "height": 66.3646011352539,
    "centerType": "Center",
    "width": 99.86557006835938,
    "length": 78.986328125
  },
  "BigWorld_0_6_Mr_Guo_01_Inside_Ve": {
    "$type": "LCFGLDCOCOH",
    "useHeight": true,
    "height": 96.08401489257812,
    "centerType": "Center",
    "width": 145.7845458984375,
    "length": 160.78146362304688
  },
  "BigWorld_0_6_Mr_Guo_02_Inside_Ve": {
    "$type": "LCFGLDCOCOH",
    "useHeight": true,
    "height": 9.749063491821289,
    "centerType": "Center",
    "width": 8.705777168273926,
    "length": 8.134604454040527
  },
  "BigWorld_0_6_NoHugeNrm_Inside_Vsp": {
    "$type": "LCFGLDCOCOH",
    "useHeight": true,
    "height": 602.9175415039062,
    "centerType": "Center",
    "width": 2112.55517578125,
    "length": 357.5138854980469
  },
  "BigWorld_0_6_NoHugeNrm02_Inside_Vsp": {
    "$type": "LCFGLDCOCOH",
    "useHeight": true,
    "height": 859.3366088867188,
    "centerType": "Center",
    "width": 592.1993408203125,
    "length": 567.1925048828125
  },
  "BigWorld_0_6_PowerRoom01_Inside_Ve": {
    "$type": "LCFGLDCOCOH",
    "useHeight": true,
    "height": 30.559005737304688,
    "centerType": "Center",
    "width": 64.16728210449219,
    "length": 59.11150360107422
  },
  "BigWorld_0_6_PowerRoom02_Inside_Ve": {
    "$type": "PAPCPHMEHFC",
    "useHeight": true,
    "height": 28.82466697692871,
    "width": 57.7533073425293,
    "length": 34.98466110229492
  },
  "BigWorld_0_6_SandwormHole_Inside_Ve": {
    "$type": "CMGBFEGEBPJ",
    "radius": 95.0
  },
  "BigWorld_0_6_SandwormHole_01_Inside_Ve": {
    "$type": "LCFGLDCOCOH",
    "useHeight": true,
    "height": 50.79798889160156,
    "centerType": "Center",
    "width": 50.8983154296875,
    "length": 129.708984375
  },
  "BigWorld_0_6_SandwormHole_02_Inside_Ve": {
    "$type": "EAGMFICMEKO",
    "useHeight": true,
    "height": 38.13467788696289,
    "radius": 17.713218688964844
  },
  "BigWorld_0_6_Water_House_01_Inside_Ve": {
    "$type": "LCFGLDCOCOH",
    "useHeight": true,
    "height": 95.30513763427734,
    "centerType": "Center",
    "width": 100.81657409667969,
    "length": 125.54364776611328
  },
  "BigWorld_0_6_Water_House_02_Inside_Ve": {
    "$type": "LCFGLDCOCOH",
    "useHeight": true,
    "height": 77.64579772949219,
    "centerType": "Center",
    "width": 151.81663513183594,
    "length": 117.52764892578125
  },
  "BigWorld_0_6_Water_House_03_Inside_Ve": {
    "$type": "LCFGLDCOCOH",
    "useHeight": true,
    "height": 33.850379943847656,
    "centerType": "Center",
    "width": 45.96793746948242,
    "length": 25.356983184814453
  },
  "BigWorld_0_6_Water_House_04_Inside_Ve": {
    "$type": "LCFGLDCOCOH",
    "useHeight": true,
    "height": 9.800018310546875,
    "centerType": "Center",
    "width": 19.06218147277832,
    "length": 14.928389549255371
  },
  "BigWorld_0_6_WildnessExit01_Inside_Ve": {
    "$type": "PAPCPHMEHFC",
    "useHeight": true,
    "height": 69.80635833740234,
    "width": 116.80122375488281,
    "length": 88.62515258789062
  },
  "BigWorld_0_6_WildnessExit01_02_Inside_Ve": {
    "$type": "LCFGLDCOCOH",
    "useHeight": true,
    "height": 20.54857063293457,
    "centerType": "Center",
    "width": 19.832202911376953,
    "length": 37.49490737915039
  },
  "BigWorld_0_6_WildnessExit02_Inside_Ve": {
    "$type": "LCFGLDCOCOH",
    "useHeight": true,
    "height": 54.00787353515625,
    "centerType": "Center",
    "width": 50.097900390625,
    "length": 46.43310546875
  },
  "BigWorld_0_6_WildnessExit02_02_Inside_Ve": {
    "$type": "LCFGLDCOCOH",
    "useHeight": true,
    "height": 29.886550903320312,
    "centerType": "Center",
    "width": 28.17449188232422,
    "length": 32.83216094970703
  },
  "BigWorld_0_6_WineHall_Inside_Ve": {
    "$type": "LCFGLDCOCOH",
    "useHeight": true,
    "height": 72.60893249511719,
    "centerType": "Center",
    "width": 263.0909118652344,
    "length": 147.64793395996094
  },
  "BigWorld_0_6_WineHall02_Inside_Ve": {
    "$type": "LCFGLDCOCOH",
    "useHeight": true,
    "height": 84.88694763183594,
    "centerType": "Center",
    "width": 74.9765853881836,
    "length": 81.33161926269531
  },
  "BigWorld_0_6_WineHall03_Inside_Ve": {
    "$type": "LCFGLDCOCOH",
    "useHeight": true,
    "height": 16.049575805664062,
    "centerType": "Center",
    "width": 34.7635612487793,
    "length": 24.165420532226562
  },
  "BigWorld_0_6_WineHall04_Inside_Ve": {
    "$type": "LCFGLDCOCOH",
    "useHeight": true,
    "height": 27.75469207763672,
    "centerType": "Center",
    "width": 40.268890380859375,
    "length": 42.944358825683594
  },
  "BigWorld_0_6_WineHall05_Inside_Ve": {
    "$type": "LCFGLDCOCOH",
    "useHeight": true,
    "height": 15.731497764587402,
    "centerType": "Center",
    "width": 20.68428611755371,
    "length": 12.108153343200684
  },
  "BigWorld_0_6_WineHallExit01_Inside_Ve": {
    "$type": "LCFGLDCOCOH",
    "useHeight": true,
    "height": 21.999465942382812,
    "centerType": "Center",
    "width": 43.175994873046875,
    "length": 42.535614013671875
  }
}