{
  "BigWorld_4_4_BLTD_01_Inside_Vs": {
    "$type": "LCFGLDCOCOH",
    "useHeight": true,
    "height": 147.7014617919922,
    "centerType": "Center",
    "width": 202.8250732421875,
    "length": 132.65087890625
  },
  "BigWorld_4_4_BLTD_02_Inside_Vs": {
    "$type": "LCFGLDCOCOH",
    "useHeight": true,
    "height": 210.16656494140625,
    "centerType": "Center",
    "width": 152.8209228515625,
    "length": 177.57168579101562
  },
  "BigWorld_4_4_BLTD_01_Outside_Vs": {
    "$type": "LCFGLDCOCOH",
    "useHeight": true,
    "height": 235.91854858398438,
    "centerType": "Center",
    "width": 169.08444213867188,
    "length": 247.2229766845703
  },
  "BigWorld_4_4_BLTD_03_Outside_Vs": {
    "$type": "LCFGLDCOCOH",
    "useHeight": true,
    "height": 220.81387329101562,
    "centerType": "Center",
    "width": 160.5630340576172,
    "length": 186.5677032470703
  },
  "BigWorld_4_4_BLTD_04_Outside_Vs": {
    "$type": "LCFGLDCOCOH",
    "useHeight": true,
    "height": 159.4834442138672,
    "centerType": "Center",
    "width": 245.43380737304688,
    "length": 146.17588806152344
  },
  "BigWorld_4_4_CTZY_01_Inside_Vs": {
    "$type": "LCFGLDCOCOH",
    "useHeight": true,
    "height": 140.68177795410156,
    "centerType": "Center",
    "width": 232.07679748535156,
    "length": 150.30758666992188
  },
  "BigWorld_4_4_CTZY_02_Inside_Vs": {
    "$type": "LCFGLDCOCOH",
    "useHeight": true,
    "height": 95.94722747802734,
    "centerType": "Center",
    "width": 97.13543701171875,
    "length": 107.80973052978516
  },
  "BigWorld_4_4_CTZY_03_Inside_Vs": {
    "$type": "LCFGLDCOCOH",
    "useHeight": true,
    "height": 97.2867660522461,
    "centerType": "Center",
    "width": 105.62655639648438,
    "length": 123.72760772705078
  },
  "BigWorld_4_4_CTZY_01_Outside_Vs": {
    "$type": "LCFGLDCOCOH",
    "useHeight": true,
    "height": 153.1851806640625,
    "centerType": "Center",
    "width": 252.703125,
    "length": 163.89892578125
  },
  "BigWorld_4_4_CTZY_02_Outside_Vs": {
    "$type": "LCFGLDCOCOH",
    "useHeight": true,
    "height": 106.70733642578125,
    "centerType": "Center",
    "width": 115.85470581054688,
    "length": 135.70852661132812
  },
  "BigWorld_4_4_CTZY_03_Outside_Vs": {
    "$type": "LCFGLDCOCOH",
    "useHeight": true,
    "height": 107.36077880859375,
    "centerType": "Center",
    "width": 168.8437957763672,
    "length": 119.78858947753906
  },
  "BigWorld_4_4_DSCZZ_01_Inside_Vs": {
    "$type": "LCFGLDCOCOH",
    "useHeight": true,
    "height": 116.34447479248047,
    "centerType": "Center",
    "width": 189.3433380126953,
    "length": 116.21635437011719
  },
  "BigWorld_4_4_DSCZZ_02_Inside_Vs": {
    "$type": "LCFGLDCOCOH",
    "useHeight": true,
    "height": 82.721435546875,
    "centerType": "Center",
    "width": 118.81184387207031,
    "length": 108.65636444091797
  },
  "BigWorld_4_4_DSCZZ_03_Inside_Vs": {
    "$type": "LCFGLDCOCOH",
    "useHeight": true,
    "height": 112.38609313964844,
    "centerType": "Center",
    "width": 117.75811004638672,
    "length": 97.08207702636719
  },
  "BigWorld_4_4_DSCZZ_04_Inside_Vs": {
    "$type": "LCFGLDCOCOH",
    "useHeight": true,
    "height": 67.9562759399414,
    "centerType": "Center",
    "width": 61.1362190246582,
    "length": 76.15336608886719
  },
  "BigWorld_4_4_DSCZZ_01_Outside_Vs": {
    "$type": "LCFGLDCOCOH",
    "useHeight": true,
    "height": 121.19216918945312,
    "centerType": "Center",
    "width": 197.23265075683594,
    "length": 121.0587158203125
  },
  "BigWorld_4_4_DSCZZ_02_Outside_Vs": {
    "$type": "LCFGLDCOCOH",
    "useHeight": true,
    "height": 88.39102172851562,
    "centerType": "Center",
    "width": 126.95500946044922,
    "length": 116.10348510742188
  },
  "BigWorld_4_4_DSCZZ_03_Outside_Vs": {
    "$type": "LCFGLDCOCOH",
    "useHeight": true,
    "height": 118.30115509033203,
    "centerType": "Center",
    "width": 123.9559097290039,
    "length": 102.19165802001953
  },
  "BigWorld_4_4_DSCZZ_04_Outside_Vs": {
    "$type": "LCFGLDCOCOH",
    "useHeight": true,
    "height": 74.6772232055664,
    "centerType": "Center",
    "width": 67.18265533447266,
    "length": 83.68501281738281
  },
  "BigWorld_4_4_DSCZZ_05_Outside_Vs": {
    "$type": "LCFGLDCOCOH",
    "useHeight": true,
    "height": 92.54801177978516,
    "centerType": "Center",
    "width": 89.1349105834961,
    "length": 69.07596588134766
  },
  "BigWorld_4_4_DSCZZ_06_Outside_Vs": {
    "$type": "LCFGLDCOCOH",
    "useHeight": true,
    "height": 120.77317810058594,
    "centerType": "Center",
    "width": 117.0679702758789,
    "length": 139.41259765625
  },
  "BigWorld_4_4_MianPart_Inside_Ve": {
    "$type": "EMOKHIGKKBE",
    "useHeight": true,
    "height": 123.96559143066406,
    "radius": 74.73468017578125
  },
  "BigWorld_4_4_Elevator01_Inside_Ve": {
    "$type": "LCFGLDCOCOH",
    "useHeight": true,
    "height": 72.16472625732422,
    "centerType": "Center",
    "width": 47.56097412109375,
    "length": 32.39890670776367
  },
  "BigWorld_4_4_Cell01_Inside_Ve": {
    "$type": "LCFGLDCOCOH",
    "useHeight": true,
    "height": 70.75826263427734,
    "centerType": "Center",
    "width": 49.772979736328125,
    "length": 64.8836898803711
  },
  "BigWorld_4_4_Cell02_Inside_Ve": {
    "$type": "LCFGLDCOCOH",
    "useHeight": true,
    "height": 43.079429626464844,
    "centerType": "Center",
    "width": 49.1026725769043,
    "length": 53.32421875
  },
  "BigWorld_4_4_Cell03_Inside_Ve": {
    "$type": "LCFGLDCOCOH",
    "useHeight": true,
    "height": 100.0,
    "centerType": "Center",
    "width": 77.16633605957031,
    "length": 52.08607864379883
  },
  "BigWorld_4_4_Cell04_Inside_Ve": {
    "$type": "LCFGLDCOCOH",
    "useHeight": true,
    "height": 40.80896759033203,
    "centerType": "Center",
    "width": 75.80398559570312,
    "length": 83.91327667236328
  },
  "BigWorld_4_4_EntranceRoom_Inside_Ve": {
    "$type": "LCFGLDCOCOH",
    "useHeight": true,
    "height": 39.57794952392578,
    "centerType": "Center",
    "width": 81.22466278076172,
    "length": 87.4571304321289
  },
  "BigWorld_4_4_Elevator02_Inside_Ve": {
    "$type": "LCFGLDCOCOH",
    "useHeight": true,
    "height": 118.30994415283203,
    "centerType": "Center",
    "width": 27.964794158935547,
    "length": 34.86211013793945
  },
  "BigWorld_4_4_EntranceBigworld_Inside_Ve": {
    "$type": "LCFGLDCOCOH",
    "useHeight": true,
    "height": 24.016098022460938,
    "centerType": "Center",
    "width": 42.1501579284668,
    "length": 71.17522430419922
  },
  "BigWorld_4_4_Tunnel01_Inside_Ve": {
    "$type": "LCFGLDCOCOH",
    "useHeight": true,
    "height": 178.96676635742188,
    "centerType": "Center",
    "width": 15.507536888122559,
    "length": 14.685011863708496
  },
  "BigWorld_4_4_Fd41_BHFX_01_Inside_Ve": {
    "$type": "LCFGLDCOCOH",
    "useHeight": true,
    "height": 12.0103120803833,
    "centerType": "Center",
    "width": 38.3700065612793,
    "length": 19.70046615600586
  },
  "BigWorld_4_4_Fd41_BHFX_02_Inside_Ve": {
    "$type": "LCFGLDCOCOH",
    "useHeight": true,
    "height": 24.15158462524414,
    "centerType": "Center",
    "width": 10.495013236999512,
    "length": 20.883604049682617
  },
  "BigWorld_4_4_Fd41_BHFX_03_Inside_Ve": {
    "$type": "LCFGLDCOCOH",
    "useHeight": true,
    "height": 24.411447525024414,
    "centerType": "Center",
    "width": 10.089512825012207,
    "length": 23.392677307128906
  },
  "BigWorld_4_4_Fd41_BHFX_04_Inside_Ve": {
    "$type": "LCFGLDCOCOH",
    "useHeight": true,
    "height": 19.356054306030273,
    "centerType": "Center",
    "width": 11.81350326538086,
    "length": 13.513535499572754
  },
  "BigWorld_4_4_Fd41_BHFX_05_Inside_Ve": {
    "$type": "LCFGLDCOCOH",
    "useHeight": true,
    "height": 27.168180465698242,
    "centerType": "Center",
    "width": 20.504392623901367,
    "length": 11.92640495300293
  },
  "BigWorld_4_4_Fd41_CTZY_Entry_Inside_Ve": {
    "$type": "MGKHCALIABD",
    "polygonConfigPath": "BigWorld_4_4_Fd41_CTZY_Entry_Inside_Ve"
  },
  "BigWorld_4_4_Fd41_CTZY_Exit_Inside_Ve": {
    "$type": "LCFGLDCOCOH",
    "useHeight": true,
    "height": 59.78058624267578,
    "centerType": "Center",
    "width": 116.3505859375,
    "length": 80.68022155761719
  },
  "BigWorld_4_4_Fd41_CTZY_Inside_Ve": {
    "$type": "MGKHCALIABD",
    "polygonConfigPath": "BigWorld_4_4_Fd41_CTZY_Inside_Ve"
  },
  "BigWorld_4_4_Fd41_CTZY_02_Inside_Ve": {
    "$type": "MGKHCALIABD",
    "polygonConfigPath": "BigWorld_4_4_Fd41_CTZY_02_Inside_Ve"
  },
  "BigWorld_4_4_FTYJS_UW2_Inside_Ve": {
    "$type": "EMOKHIGKKBE",
    "useHeight": true,
    "height": 44.22894287109375,
    "radius": 30.43310546875
  },
  "BigWorld_4_4_FTYJS_A2_01_Inside_Ve": {
    "$type": "EAGMFICMEKO",
    "useHeight": true,
    "height": 72.02250671386719,
    "radius": 50.0
  },
  "BigWorld_4_4_FTYJS_A2_02_Inside_Ve": {
    "$type": "EMOKHIGKKBE",
    "useHeight": true,
    "height": 64.89788818359375,
    "radius": 35.12455368041992
  },
  "BigWorld_4_4_FTYJS_A2_03_Inside_Ve": {
    "$type": "LCFGLDCOCOH",
    "useHeight": true,
    "height": 52.816226959228516,
    "centerType": "Center",
    "width": 58.081912994384766,
    "length": 61.708648681640625
  },
  "BigWorld_4_4_FTYJS_A2_04_Inside_Ve": {
    "$type": "EAGMFICMEKO",
    "useHeight": true,
    "height": 96.85430908203125,
    "radius": 17.025419235229492
  },
  "BigWorld_4_4_FTYJS_D_01_Inside_Ve": {
    "$type": "LCFGLDCOCOH",
    "useHeight": true,
    "height": 33.5251350402832,
    "centerType": "Center",
    "width": 94.66020202636719,
    "length": 61.71957015991211
  },
  "BigWorld_4_4_FTYJS_D_02_Inside_Ve": {
    "$type": "EAGMFICMEKO",
    "useHeight": true,
    "height": 19.089340209960938,
    "radius": 7.081101894378662
  },
  "BigWorld_4_4_FTYJS_General_01_Inside_Ve": {
    "$type": "LCFGLDCOCOH",
    "useHeight": true,
    "height": 228.8783721923828,
    "centerType": "Center",
    "width": 293.78173828125,
    "length": 193.564453125
  },
  "BigWorld_4_4_FTYJS_General_02_Inside_Ve": {
    "$type": "EMOKHIGKKBE",
    "useHeight": true,
    "height": 43.877197265625,
    "radius": 18.799999237060547
  },
  "BigWorld_4_4_FTYJS_IN_01_Inside_Ve": {
    "$type": "EAGMFICMEKO",
    "useHeight": true,
    "height": 58.87824249267578,
    "radius": 30.580862045288086
  },
  "BigWorld_4_4_FTYJS_IN_02_Inside_Ve": {
    "$type": "EMOKHIGKKBE",
    "useHeight": true,
    "height": 34.273895263671875,
    "radius": 28.38828468322754
  },
  "BigWorld_4_4_Fd41_FTYJS_UW_01_Inside_Ve": {
    "$type": "EAGMFICMEKO",
    "useHeight": true,
    "height": 107.8686294555664,
    "radius": 33.7053108215332
  },
  "BigWorld_4_4_Fd41_FTYJS_UW_02_Inside_Ve": {
    "$type": "LCFGLDCOCOH",
    "useHeight": true,
    "height": 15.137847900390625,
    "centerType": "Center",
    "width": 51.002037048339844,
    "length": 29.784250259399414
  },
  "BigWorld_4_4_Fd41_JCDK_Road_Inside_Ve": {
    "$type": "MGKHCALIABD",
    "polygonConfigPath": "BigWorld_4_4_Fd41_JCDK_Road_Inside_Ve"
  },
  "BigWorld_4_4_Fd41_JCDK_Tunnel02_Inside_Ve": {
    "$type": "LCFGLDCOCOH",
    "useHeight": true,
    "height": 74.17508697509766,
    "centerType": "Center",
    "width": 121.93600463867188,
    "length": 86.02569580078125
  },
  "BigWorld_4_4_Fd41_JCDK_Tunnel_01_Inside_Ve": {
    "$type": "LCFGLDCOCOH",
    "useHeight": true,
    "height": 134.833984375,
    "centerType": "Center",
    "width": 109.35457611083984,
    "length": 84.19819641113281
  },
  "BigWorld_4_4_Fd41_JCDK_Tunnel_02_Inside_Ve": {
    "$type": "LCFGLDCOCOH",
    "useHeight": true,
    "height": 120.13810729980469,
    "centerType": "Center",
    "width": 161.26760864257812,
    "length": 98.28865051269531
  },
  "BigWorld_4_4_Fd41_JCDK_Tunnel_03_Inside_Ve": {
    "$type": "LCFGLDCOCOH",
    "useHeight": true,
    "height": 66.0799560546875,
    "centerType": "Center",
    "width": 82.93065643310547,
    "length": 99.69051361083984
  },
  "BigWorld_4_4_Fd41_JCDK_Inside_Ve": {
    "$type": "MGKHCALIABD",
    "polygonConfigPath": "BigWorld_4_4_Fd41_JCDK_Inside_Ve"
  },
  "BigWorld_4_4_Fd41_KXT_Cliff_01_Inside_Ve": {
    "$type": "EMOKHIGKKBE",
    "useHeight": true,
    "height": 40.472923278808594,
    "radius": 8.649999618530273
  },
  "BigWorld_4_4_Fd41_KXT_Cliff_02_Inside_Ve": {
    "$type": "CMGBFEGEBPJ",
    "radius": 8.0
  },
  "BigWorld_4_4_Fd41_KXT_Cliff_03_Inside_Ve": {
    "$type": "LCFGLDCOCOH",
    "useHeight": true,
    "height": 12.499507904052734,
    "centerType": "Center",
    "width": 9.749227523803711,
    "length": 6.556990146636963
  },
  "BigWorld_4_4_Fd41_KXT_Cliff_04_Inside_Ve": {
    "$type": "EMOKHIGKKBE",
    "useHeight": true,
    "height": 10.437713623046875,
    "radius": 8.5
  },
  "BigWorld_4_4_Fd41_PSHA_2nd_High_01_Inside_Ve": {
    "$type": "MGKHCALIABD",
    "polygonConfigPath": "BigWorld_4_4_Fd41_PSHA_2nd_High_01_Inside_Ve"
  },
  "BigWorld_4_4_Fd41_PSHA_NOCamera_Inside_Ve": {
    "$type": "MGKHCALIABD",
    "polygonConfigPath": "BigWorld_4_4_Fd41_PSHA_NOCamera_Inside_Ve"
  },
  "BigWorld_4_4_Fd41_PSHA_NOCamera_01_Inside_Ve": {
    "$type": "LCFGLDCOCOH",
    "useHeight": true,
    "height": 31.36986541748047,
    "centerType": "Center",
    "width": 30.577299118041992,
    "length": 39.76778793334961
  },
  "BigWorld_4_4_Fd41_QZJCZX_Boat_Inside_Ve": {
    "$type": "MGKHCALIABD",
    "polygonConfigPath": "BigWorld_4_4_Fd41_QZJCZX_Boat_Inside_Ve"
  },
  "BigWorld_4_4_Fd41_QZJCZX_Glass_Inside_Ve": {
    "$type": "LCFGLDCOCOH",
    "useHeight": true,
    "height": 34.44167709350586,
    "centerType": "Center",
    "width": 129.69947814941406,
    "length": 38.49736404418945
  },
  "BigWorld_4_4_Fd41_QZJCZX_Prepare_Inside_Ve": {
    "$type": "LCFGLDCOCOH",
    "useHeight": true,
    "height": 61.024940490722656,
    "centerType": "Center",
    "width": 73.78897094726562,
    "length": 59.51686477661133
  },
  "BigWorld_4_4_Fd41_QZJCZX_UW_01_Inside_Ve": {
    "$type": "PAPCPHMEHFC",
    "useHeight": true,
    "height": 94.71954345703125,
    "width": 74.25714874267578,
    "length": 91.0774154663086
  },
  "BigWorld_4_4_Fd41_QZJCZX_UW_02_A_Inside_Ve": {
    "$type": "LCFGLDCOCOH",
    "useHeight": true,
    "height": 93.27900695800781,
    "centerType": "Center",
    "width": 171.5108642578125,
    "length": 156.71444702148438
  },
  "BigWorld_4_4_Fd41_QZJCZX_UW_02_B_Inside_Ve": {
    "$type": "LCFGLDCOCOH",
    "useHeight": true,
    "height": 83.75467681884766,
    "centerType": "Center",
    "width": 66.31491088867188,
    "length": 170.345703125
  },
  "BigWorld_4_4_Fd41_QZJCZX_UW_02_C_Inside_Ve": {
    "$type": "LCFGLDCOCOH",
    "useHeight": true,
    "height": 147.94998168945312,
    "centerType": "Center",
    "width": 68.583984375,
    "length": 68.58399200439453
  },
  "BigWorld_4_4_Fd41_QZJCZX_UW_02_D_Inside_Ve": {
    "$type": "PAPCPHMEHFC",
    "useHeight": true,
    "height": 35.19951248168945,
    "width": 12.117756843566895,
    "length": 11.487671852111816
  },
  "BigWorld_4_4_Fd41_QZJCZX_UW_02_E_Inside_Ve": {
    "$type": "LCFGLDCOCOH",
    "useHeight": true,
    "height": 39.30036163330078,
    "centerType": "Center",
    "width": 20.45629119873047,
    "length": 38.16988754272461
  },
  "BigWorld_4_4_UW_01_Inside_Ve": {
    "$type": "LCFGLDCOCOH",
    "useHeight": true,
    "height": 96.53304290771484,
    "centerType": "Center",
    "width": 94.62366485595703,
    "length": 76.99620819091797
  },
  "BigWorld_4_4_SXGC_B3_01_Inside_Ve": {
    "$type": "MGKHCALIABD",
    "polygonConfigPath": "BigWorld_4_4_SXGC_B3_01_Inside_Ve"
  },
  "BigWorld_4_4_Fd41_SXGC_Near_Inside_Ve": {
    "$type": "MGKHCALIABD",
    "polygonConfigPath": "BigWorld_4_4_Fd41_SXGC_Near_Inside_Ve"
  },
  "BigWorld_4_4_Fd41_SXGC_Near_02_Inside_Ve": {
    "$type": "CMGBFEGEBPJ",
    "radius": 36.93557357788086
  },
  "BigWorld_4_4_Fd41_SXGC_Near_03_Inside_Ve": {
    "$type": "CMGBFEGEBPJ",
    "radius": 54.1170539855957
  },
  "BigWorld_4_4_Fd41_SXGC_Near_04_Inside_Ve": {
    "$type": "LCFGLDCOCOH",
    "useHeight": true,
    "height": 32.80984115600586,
    "centerType": "Center",
    "width": 73.77472686767578,
    "length": 52.283241271972656
  },
  "BigWorld_4_4_Fd41_SXYZ_Boss_Inside_Ve": {
    "$type": "MGKHCALIABD",
    "polygonConfigPath": "BigWorld_4_4_Fd41_SXYZ_Boss_Inside_Ve"
  },
  "BigWorld_4_4_SXYZ_Enter_01_Inside_Ve": {
    "$type": "LCFGLDCOCOH",
    "useHeight": true,
    "height": 91.99018096923828,
    "centerType": "Center",
    "width": 63.03281021118164,
    "length": 119.5694351196289
  },
  "BigWorld_4_4_Fd41_SXYZ_Entrance_01_Inside_Ve": {
    "$type": "LCFGLDCOCOH",
    "useHeight": true,
    "height": 145.9386444091797,
    "centerType": "Center",
    "width": 240.14971923828125,
    "length": 120.9720458984375
  },
  "BigWorld_4_4_Fd41_SXYZ_Entrance_02_Inside_Ve": {
    "$type": "LCFGLDCOCOH",
    "useHeight": true,
    "height": 141.80465698242188,
    "centerType": "Center",
    "width": 150.8964080810547,
    "length": 147.05714416503906
  },
  "BigWorld_4_4_Fd41_SXYZ_Entrance_03_Inside_Ve": {
    "$type": "LCFGLDCOCOH",
    "useHeight": true,
    "height": 45.437068939208984,
    "centerType": "Center",
    "width": 62.456459045410156,
    "length": 66.8368148803711
  },
  "BigWorld_4_4_Fd41_YZBoss_Tunnel_Inside_Ve": {
    "$type": "LCFGLDCOCOH",
    "useHeight": true,
    "height": 64.48348236083984,
    "centerType": "Center",
    "width": 68.63180541992188,
    "length": 107.33323669433594
  },
  "BigWorld_4_4_Fd41_SXYZ_Inside_Ve": {
    "$type": "MGKHCALIABD",
    "polygonConfigPath": "BigWorld_4_4_Fd41_SXYZ_Inside_Ve"
  },
  "BigWorld_4_4_Fd41_XFKY_Inside_Ve": {
    "$type": "EMOKHIGKKBE",
    "useHeight": true,
    "height": 54.79918670654297,
    "radius": 25.828125
  },
  "BigWorld_4_4_Fd41_XFKY_02_Inside_Ve": {
    "$type": "LCFGLDCOCOH",
    "useHeight": true,
    "height": 27.36806297302246,
    "centerType": "Center",
    "width": 13.110794067382812,
    "length": 12.130722045898438
  },
  "BigWorld_4_4_Fd41_ZLBOSS_1st_Inside_Ve": {
    "$type": "EMOKHIGKKBE",
    "useHeight": true,
    "height": 26.012529373168945,
    "radius": 34.921875
  },
  "BigWorld_4_4_Fd41_ZLBOSS_2nd_Inside_Ve": {
    "$type": "EMOKHIGKKBE",
    "useHeight": true,
    "height": 26.0,
    "radius": 34.921878814697266
  },
  "BigWorld_4_4_FKY_01_Inside_Vd": {
    "$type": "MGKHCALIABD",
    "polygonConfigPath": "BigWorld_4_4_FKY_01_Inside_Vd"
  },
  "BigWorld_4_4_FKY_01_Outside_Vd": {
    "$type": "MGKHCALIABD",
    "polygonConfigPath": "BigWorld_4_4_FKY_01_Outside_Vd"
  },
  "BigWorld_4_4_FTYJS_01_Inside_Vs": {
    "$type": "LCFGLDCOCOH",
    "useHeight": true,
    "height": 238.23016357421875,
    "centerType": "Center",
    "width": 228.97293090820312,
    "length": 234.319091796875
  },
  "BigWorld_4_4_FTYJS_01_Outside_Vs": {
    "$type": "LCFGLDCOCOH",
    "useHeight": true,
    "height": 246.6513671875,
    "centerType": "Center",
    "width": 237.06689453125,
    "length": 242.60205078125
  },
  "BigWorld_4_4_FTYJS_03_Outside_Vs": {
    "$type": "LCFGLDCOCOH",
    "useHeight": true,
    "height": 109.16922760009766,
    "centerType": "Center",
    "width": 34.752899169921875,
    "length": 30.204360961914062
  },
  "BigWorld_4_4_FTYJS_02_Outside_Vs": {
    "$type": "LCFGLDCOCOH",
    "useHeight": true,
    "height": 88.39102172851562,
    "centerType": "Center",
    "width": 126.95500946044922,
    "length": 116.10348510742188
  },
  "BigWorld_4_4_FTYJS_04_Outside_Vs": {
    "$type": "LCFGLDCOCOH",
    "useHeight": true,
    "height": 67.74408721923828,
    "centerType": "Center",
    "width": 57.31795120239258,
    "length": 55.63862609863281
  },
  "BigWorld_4_4_HaiAn_Inside_Vd": {
    "$type": "MGKHCALIABD",
    "polygonConfigPath": "BigWorld_4_4_HaiAn_Inside_Vd"
  },
  "BigWorld_4_4_HaiAn_Outside_Vd": {
    "$type": "MGKHCALIABD",
    "polygonConfigPath": "BigWorld_4_4_HaiAn_Outside_Vd"
  },
  "BigWorld_4_4_HMBossRK_01_Outside_Vs": {
    "$type": "LCFGLDCOCOH",
    "useHeight": true,
    "height": 252.34942626953125,
    "centerType": "Center",
    "width": 258.5202331542969,
    "length": 186.91021728515625
  },
  "BigWorld_4_4_HMBossRK_02_Outside_Vs": {
    "$type": "LCFGLDCOCOH",
    "useHeight": true,
    "height": 224.3061065673828,
    "centerType": "Center",
    "width": 262.1239318847656,
    "length": 261.3617248535156
  },
  "BigWorld_4_4_HMBoss_01_Inside_Vs": {
    "$type": "LCFGLDCOCOH",
    "useHeight": true,
    "height": 146.77549743652344,
    "centerType": "Center",
    "width": 171.533935546875,
    "length": 197.7776641845703
  },
  "BigWorld_4_4_HMBoss_02_Inside_Vs": {
    "$type": "LCFGLDCOCOH",
    "useHeight": true,
    "height": 113.45238494873047,
    "centerType": "Center",
    "width": 100.46145629882812,
    "length": 187.3518829345703
  },
  "BigWorld_4_4_HMBoss_03_Inside_Vs": {
    "$type": "LCFGLDCOCOH",
    "useHeight": true,
    "height": 157.6378173828125,
    "centerType": "Center",
    "width": 179.9166717529297,
    "length": 229.4355926513672
  },
  "BigWorld_4_4_HMBoss_01_Outside_Vs": {
    "$type": "LCFGLDCOCOH",
    "useHeight": true,
    "height": 156.80587768554688,
    "centerType": "Center",
    "width": 188.2080535888672,
    "length": 205.5947723388672
  },
  "BigWorld_4_4_HMBoss_02_Outside_Vs": {
    "$type": "LCFGLDCOCOH",
    "useHeight": true,
    "height": 120.47413635253906,
    "centerType": "Center",
    "width": 106.6791763305664,
    "length": 198.9473876953125
  },
  "BigWorld_4_4_HMBoss_03_Outside_Vs": {
    "$type": "LCFGLDCOCOH",
    "useHeight": true,
    "height": 163.44195556640625,
    "centerType": "Center",
    "width": 186.10379028320312,
    "length": 237.32559204101562
  },
  "BigWorld_4_4_HMBoss_04_Outside_Vs": {
    "$type": "LCFGLDCOCOH",
    "useHeight": true,
    "height": 168.85601806640625,
    "centerType": "Center",
    "width": 133.41015625,
    "length": 120.79605865478516
  },
  "BigWorld_4_4_HMBoss_05_Outside_Vs": {
    "$type": "LCFGLDCOCOH",
    "useHeight": true,
    "height": 120.77317810058594,
    "centerType": "Center",
    "width": 117.0679702758789,
    "length": 139.41259765625
  },
  "BigWorld_4_4_HQJJC_01_Inside_Vs": {
    "$type": "LCFGLDCOCOH",
    "useHeight": true,
    "height": 65.27140808105469,
    "centerType": "Center",
    "width": 102.32833099365234,
    "length": 76.67737579345703
  },
  "BigWorld_4_4_HQJJC_01_Outside_Vs": {
    "$type": "LCFGLDCOCOH",
    "useHeight": true,
    "height": 48.94829559326172,
    "centerType": "Center",
    "width": 163.5027313232422,
    "length": 75.4703369140625
  },
  "BigWorld_4_4_HQJJC_02_Outside_Vs": {
    "$type": "LCFGLDCOCOH",
    "useHeight": true,
    "height": 86.6458740234375,
    "centerType": "Center",
    "width": 72.87942504882812,
    "length": 70.40137481689453
  },
  "BigWorld_4_4_JCDKTD02_01_Inside_Vs": {
    "$type": "LCFGLDCOCOH",
    "useHeight": true,
    "height": 96.77659606933594,
    "centerType": "Center",
    "width": 250.2666015625,
    "length": 100.85652160644531
  },
  "BigWorld_4_4_JCDKTD02_02_Inside_Vs": {
    "$type": "LCFGLDCOCOH",
    "useHeight": true,
    "height": 81.19844055175781,
    "centerType": "Center",
    "width": 109.24065399169922,
    "length": 96.5494613647461
  },
  "BigWorld_4_4_JCDKTD02_01_Outside_Vs": {
    "$type": "LCFGLDCOCOH",
    "useHeight": true,
    "height": 103.0228271484375,
    "centerType": "Center",
    "width": 281.3133239746094,
    "length": 112.6872787475586
  },
  "BigWorld_4_4_JCDKTD02_02_Outside_Vs": {
    "$type": "LCFGLDCOCOH",
    "useHeight": true,
    "height": 85.4720458984375,
    "centerType": "Center",
    "width": 114.99016571044922,
    "length": 101.63101196289062
  },
  "BigWorld_4_4_JCDK_MobileEmissionLightingFix_Inside_Vsp": {
    "$type": "LCFGLDCOCOH",
    "useHeight": true,
    "height": 111.9188461303711,
    "centerType": "Center",
    "width": 247.7444305419922,
    "length": 165.2470245361328
  },
  "BigWorld_4_4_JCDK01_Inside_Vero": {
    "$type": "LCFGLDCOCOH",
    "useHeight": true,
    "height": 99.73555755615234,
    "centerType": "Center",
    "width": 181.61802673339844,
    "length": 183.48989868164062
  },
  "BigWorld_4_4_JCDK_01_Inside_Vs": {
    "$type": "LCFGLDCOCOH",
    "useHeight": true,
    "height": 100.96072387695312,
    "centerType": "Center",
    "width": 251.2314453125,
    "length": 181.2099609375
  },
  "BigWorld_4_4_JCDK_01_Outside_Vs": {
    "$type": "LCFGLDCOCOH",
    "useHeight": true,
    "height": 112.73788452148438,
    "centerType": "Center",
    "width": 264.2431640625,
    "length": 193.5458984375
  },
  "BigWorld_4_4_QZJCZXCK_01_Inside_Vs": {
    "$type": "LCFGLDCOCOH",
    "useHeight": true,
    "height": 95.0,
    "centerType": "Center",
    "width": 95.38758850097656,
    "length": 195.58795166015625
  },
  "BigWorld_4_4_QZJCZXCK_02_Inside_Vs": {
    "$type": "LCFGLDCOCOH",
    "useHeight": true,
    "height": 117.87657165527344,
    "centerType": "Center",
    "width": 101.62248229980469,
    "length": 109.19032287597656
  },
  "BigWorld_4_4_QZJCZXCK_01_Outside_Vs": {
    "$type": "LCFGLDCOCOH",
    "useHeight": true,
    "height": 100.0,
    "centerType": "Center",
    "width": 100.40798950195312,
    "length": 205.88204956054688
  },
  "BigWorld_4_4_QZJCZXCK_02_Outside_Vs": {
    "$type": "LCFGLDCOCOH",
    "useHeight": true,
    "height": 142.40911865234375,
    "centerType": "Center",
    "width": 108.58751678466797,
    "length": 116.67404174804688
  },
  "BigWorld_4_4_QZJCZXCK_03_Outside_Vs": {
    "$type": "LCFGLDCOCOH",
    "useHeight": true,
    "height": 216.52490234375,
    "centerType": "Center",
    "width": 147.248779296875,
    "length": 141.138427734375
  },
  "BigWorld_4_4_QZJCZX_01_Inside_Vs": {
    "$type": "LCFGLDCOCOH",
    "useHeight": true,
    "height": 149.91444396972656,
    "centerType": "Center",
    "width": 242.4265899658203,
    "length": 137.40533447265625
  },
  "BigWorld_4_4_QZJCZX_02_Inside_Vs": {
    "$type": "LCFGLDCOCOH",
    "useHeight": true,
    "height": 164.62399291992188,
    "centerType": "Center",
    "width": 182.32054138183594,
    "length": 138.6298828125
  },
  "BigWorld_4_4_QZJCZX_01_Outside_Vs": {
    "$type": "LCFGLDCOCOH",
    "useHeight": true,
    "height": 159.4834442138672,
    "centerType": "Center",
    "width": 257.900634765625,
    "length": 146.17588806152344
  },
  "BigWorld_4_4_QZJCZX_02_Outside_Vs": {
    "$type": "LCFGLDCOCOH",
    "useHeight": true,
    "height": 173.58493041992188,
    "centerType": "Center",
    "width": 192.24473571777344,
    "length": 146.17588806152344
  },
  "BigWorld_4_4_RotataRoom_Main_Inside_Ve": {
    "$type": "EMOKHIGKKBE",
    "useHeight": true,
    "height": 82.77290344238281,
    "radius": 83.27479553222656
  },
  "BigWorld_4_4_Elevater03_Inside_Ve": {
    "$type": "LCFGLDCOCOH",
    "useHeight": true,
    "height": 70.81240844726562,
    "centerType": "Center",
    "width": 34.72898864746094,
    "length": 28.43170738220215
  },
  "BigWorld_4_4_Elevater04_Inside_Ve": {
    "$type": "LCFGLDCOCOH",
    "useHeight": true,
    "height": 40.77293395996094,
    "centerType": "Center",
    "width": 34.933082580566406,
    "length": 30.349063873291016
  },
  "BigWorld_4_4_Elevater05_Inside_Ve": {
    "$type": "LCFGLDCOCOH",
    "useHeight": true,
    "height": 56.509849548339844,
    "centerType": "Center",
    "width": 35.55229568481445,
    "length": 32.53769302368164
  },
  "BigWorld_4_4_SXGC1F_01_Inside_Vs": {
    "$type": "LCFGLDCOCOH",
    "useHeight": true,
    "height": 133.22015380859375,
    "centerType": "Center",
    "width": 262.9374694824219,
    "length": 223.91458129882812
  },
  "BigWorld_4_4_SXGC1F_02_Inside_Vs": {
    "$type": "LCFGLDCOCOH",
    "useHeight": true,
    "height": 50.735321044921875,
    "centerType": "Center",
    "width": 69.64534759521484,
    "length": 37.35154724121094
  },
  "BigWorld_4_4_SXGC1F_03_Inside_Vs": {
    "$type": "LCFGLDCOCOH",
    "useHeight": true,
    "height": 202.94833374023438,
    "centerType": "Center",
    "width": 83.62503051757812,
    "length": 45.42372512817383
  },
  "BigWorld_4_4_SXGC1F_04_Inside_Vs": {
    "$type": "LCFGLDCOCOH",
    "useHeight": true,
    "height": 95.16815185546875,
    "centerType": "Center",
    "width": 176.62608337402344,
    "length": 115.54930877685547
  },
  "BigWorld_4_4_SXGC1F_05_Inside_Vs": {
    "$type": "LCFGLDCOCOH",
    "useHeight": true,
    "height": 38.59375,
    "centerType": "Center",
    "width": 39.62282943725586,
    "length": 30.72510528564453
  },
  "BigWorld_4_4_SXGC1F_06_Inside_Vs": {
    "$type": "LCFGLDCOCOH",
    "useHeight": true,
    "height": 72.52892303466797,
    "centerType": "Center",
    "width": 140.80848693847656,
    "length": 79.89550018310547
  },
  "BigWorld_4_4_SXGC1F_01_Outside_Vs": {
    "$type": "LCFGLDCOCOH",
    "useHeight": true,
    "height": 156.68380737304688,
    "centerType": "Center",
    "width": 301.28118896484375,
    "length": 249.65579223632812
  },
  "BigWorld_4_4_SXGC1F_02_Outside_Vs": {
    "$type": "LCFGLDCOCOH",
    "useHeight": true,
    "height": 211.5244903564453,
    "centerType": "Center",
    "width": 95.7376937866211,
    "length": 53.44647216796875
  },
  "BigWorld_4_4_SXGC1F_03_Outside_Vs": {
    "$type": "LCFGLDCOCOH",
    "useHeight": true,
    "height": 142.25091552734375,
    "centerType": "Center",
    "width": 247.7727813720703,
    "length": 111.95988464355469
  },
  "BigWorld_4_4_SXGC1F_04_Outside_Vs": {
    "$type": "LCFGLDCOCOH",
    "useHeight": true,
    "height": 41.478248596191406,
    "centerType": "Center",
    "width": 43.55189895629883,
    "length": 34.43802261352539
  },
  "BigWorld_4_4_SXGC1F_05_Outside_Vs": {
    "$type": "LCFGLDCOCOH",
    "useHeight": true,
    "height": 78.51092529296875,
    "centerType": "Center",
    "width": 146.8723907470703,
    "length": 85.4881820678711
  },
  "BigWorld_4_4_SXGC2F_01_Inside_Vs": {
    "$type": "LCFGLDCOCOH",
    "useHeight": true,
    "height": 91.6248779296875,
    "centerType": "Center",
    "width": 197.5801544189453,
    "length": 218.5928192138672
  },
  "BigWorld_4_4_SXGC2F_02_Inside_Vs": {
    "$type": "LCFGLDCOCOH",
    "useHeight": true,
    "height": 95.60922241210938,
    "centerType": "Center",
    "width": 29.10334014892578,
    "length": 21.849836349487305
  },
  "BigWorld_4_4_SXGC2F_01_Outside_Vs": {
    "$type": "LCFGLDCOCOH",
    "useHeight": true,
    "height": 100.2010498046875,
    "centerType": "Center",
    "width": 219.67503356933594,
    "length": 225.23191833496094
  },
  "BigWorld_4_4_SXGC2F_02_Outside_Vs": {
    "$type": "LCFGLDCOCOH",
    "useHeight": true,
    "height": 103.03063201904297,
    "centerType": "Center",
    "width": 32.581382751464844,
    "length": 25.70945167541504
  },
  "BigWorld_4_4_SXGC3F_01_Inside_Vs": {
    "$type": "LCFGLDCOCOH",
    "useHeight": true,
    "height": 61.536354064941406,
    "centerType": "Center",
    "width": 114.56686401367188,
    "length": 257.99127197265625
  },
  "BigWorld_4_4_SXGC3F_02_Inside_Vs": {
    "$type": "LCFGLDCOCOH",
    "useHeight": true,
    "height": 35.41069793701172,
    "centerType": "Center",
    "width": 77.23306274414062,
    "length": 25.372299194335938
  },
  "BigWorld_4_4_SXGC3F_03_Inside_Vs": {
    "$type": "LCFGLDCOCOH",
    "useHeight": true,
    "height": 50.23497772216797,
    "centerType": "Center",
    "width": 90.9510726928711,
    "length": 42.79215621948242
  },
  "BigWorld_4_4_SXGC3F_01_Outside_Vs": {
    "$type": "LCFGLDCOCOH",
    "useHeight": true,
    "height": 66.81915283203125,
    "centerType": "Center",
    "width": 119.3184585571289,
    "length": 268.0234680175781
  },
  "BigWorld_4_4_SXGC3F_02_Outside_Vs": {
    "$type": "LCFGLDCOCOH",
    "useHeight": true,
    "height": 38.20603942871094,
    "centerType": "Center",
    "width": 78.69312286376953,
    "length": 29.766254425048828
  },
  "BigWorld_4_4_SXGC3F_03_Outside_Vs": {
    "$type": "LCFGLDCOCOH",
    "useHeight": true,
    "height": 53.76288604736328,
    "centerType": "Center",
    "width": 90.93025970458984,
    "length": 71.78219604492188
  },
  "BigWorld_4_4_SXGC3F_04_Outside_Vs": {
    "$type": "LCFGLDCOCOH",
    "useHeight": true,
    "height": 62.38819885253906,
    "centerType": "Center",
    "width": 54.378761291503906,
    "length": 62.692481994628906
  },
  "BigWorld_4_4_SXGC3F_05_Outside_Vs": {
    "$type": "LCFGLDCOCOH",
    "useHeight": true,
    "height": 62.38819885253906,
    "centerType": "Center",
    "width": 54.378761291503906,
    "length": 100.18984985351562
  },
  "BigWorld_4_4_SXGC3F_06_Outside_Vs": {
    "$type": "LCFGLDCOCOH",
    "useHeight": true,
    "height": 61.36512756347656,
    "centerType": "Center",
    "width": 33.16148376464844,
    "length": 35.90903854370117
  },
  "BigWorld_4_4_B1_Exit_01_Inside_Ve": {
    "$type": "LCFGLDCOCOH",
    "useHeight": true,
    "height": 122.0064697265625,
    "centerType": "Center",
    "width": 235.97145080566406,
    "length": 110.24344635009766
  },
  "BigWorld_4_4_B1_Exit_02_Inside_Ve": {
    "$type": "LCFGLDCOCOH",
    "useHeight": true,
    "height": 35.924705505371094,
    "centerType": "Center",
    "width": 20.711912155151367,
    "length": 22.383813858032227
  },
  "BigWorld_4_4_SXGC01_Inside_Vd": {
    "$type": "MGKHCALIABD",
    "polygonConfigPath": "BigWorld_4_4_SXGC01_Inside_Vd"
  },
  "BigWorld_4_4_SXGC01_Outside_Vd": {
    "$type": "MGKHCALIABD",
    "polygonConfigPath": "BigWorld_4_4_SXGC01_Outside_Vd"
  },
  "BigWorld_4_4_SXKXT_Main_Inside_Ve": {
    "$type": "EAGMFICMEKO",
    "useHeight": true,
    "height": 43.52195739746094,
    "radius": 8.850281715393066
  },
  "BigWorld_4_4_SXKXT_Up_Inside_Ve": {
    "$type": "EAGMFICMEKO",
    "useHeight": true,
    "height": 13.900075912475586,
    "radius": 8.223636627197266
  },
  "BigWorld_4_4_SXZZZ_Inside_Ve": {
    "$type": "MGKHCALIABD",
    "polygonConfigPath": "BigWorld_4_4_SXZZZ_Inside_Ve"
  },
  "BigWorld_4_4_SXZZZTunel_Inside_Ve": {
    "$type": "LCFGLDCOCOH",
    "useHeight": true,
    "height": 72.80736541748047,
    "centerType": "Center",
    "width": 24.213354110717773,
    "length": 24.21335220336914
  },
  "BigWorld_4_4_SXZZZ_01_Outside_Vs": {
    "$type": "LCFGLDCOCOH",
    "useHeight": true,
    "height": 87.10556030273438,
    "centerType": "Center",
    "width": 18.572568893432617,
    "length": 23.537311553955078
  },
  "BigWorld_4_4_SXZZZ_02_Outside_Vs": {
    "$type": "LCFGLDCOCOH",
    "useHeight": true,
    "height": 87.10556030273438,
    "centerType": "Center",
    "width": 14.950145721435547,
    "length": 24.073604583740234
  },
  "BigWorld_4_4_SXZZZ_03_Outside_Vs": {
    "$type": "LCFGLDCOCOH",
    "useHeight": true,
    "height": 87.10556030273438,
    "centerType": "Center",
    "width": 14.950139999389648,
    "length": 24.396329879760742
  },
  "BigWorld_4_4_SXZZZ_04_Outside_Vs": {
    "$type": "LCFGLDCOCOH",
    "useHeight": true,
    "height": 87.10556030273438,
    "centerType": "Center",
    "width": 138.2298126220703,
    "length": 71.42597961425781
  },
  "BigWorld_4_4_SXZZZ_05_Outside_Vs": {
    "$type": "LCFGLDCOCOH",
    "useHeight": true,
    "height": 284.8583679199219,
    "centerType": "Center",
    "width": 64.33076477050781,
    "length": 61.03580093383789
  },
  "BigWorld_4_4_XFKY_2nd_Inside_Ve": {
    "$type": "EMOKHIGKKBE",
    "useHeight": true,
    "height": 35.300174713134766,
    "radius": 24.17227554321289
  },
  "BigWorld_4_4_XFKY_2nd_02_Inside_Ve": {
    "$type": "LCFGLDCOCOH",
    "useHeight": true,
    "height": 19.919588088989258,
    "centerType": "Center",
    "width": 11.6679105758667,
    "length": 10.815232276916504
  }
}