{
  "BigWorld_0_3_GlobalFarFog_External_0_2_LY_LXS_After_Inside_Vdgo": {
    "$type": "LCFGLDCOCOH",
    "useHeight": true,
    "height": 1000.0,
    "centerType": "Center",
    "width": 3072.0,
    "length": 3072.0
  },
  "BigWorld_0_3_GlobalFarFog_External_0_2_Inside_Vdgo": {
    "$type": "LCFGLDCOCOH",
    "useHeight": true,
    "height": 1000.0,
    "centerType": "Center",
    "width": 3072.0,
    "length": 3072.0
  },
  "BigWorld_0_3_GlobalFarFog_External_0_4_Bigworld_Inside_Vdgo": {
    "$type": "LCFGLDCOCOH",
    "useHeight": true,
    "height": 1000.0,
    "centerType": "Center",
    "width": 3072.0,
    "length": 3072.0
  },
  "BigWorld_0_3_GlobalFarFog_External_1_2_LY_LXS_After_Inside_Vdgo": {
    "$type": "LCFGLDCOCOH",
    "useHeight": true,
    "height": 1000.0,
    "centerType": "Center",
    "width": 3072.0,
    "length": 3072.0
  },
  "BigWorld_0_3_GlobalFarFog_External_1_2_Inside_Vdgo": {
    "$type": "LCFGLDCOCOH",
    "useHeight": true,
    "height": 1000.0,
    "centerType": "Center",
    "width": 3072.0,
    "length": 3072.0
  },
  "BigWorld_0_3_GlobalFarFog_External_1_3_LY_LXS_After_Inside_Vdgo": {
    "$type": "LCFGLDCOCOH",
    "useHeight": true,
    "height": 1000.0,
    "centerType": "Center",
    "width": 3072.0,
    "length": 3072.0
  },
  "BigWorld_0_3_GlobalFarFog_External_1_3_Inside_Vdgo": {
    "$type": "LCFGLDCOCOH",
    "useHeight": true,
    "height": 1000.0,
    "centerType": "Center",
    "width": 3072.0,
    "length": 3072.0
  },
  "BigWorld_0_3_GlobalFarFog_External_1_4_Bigworld_Inside_Vdgo": {
    "$type": "LCFGLDCOCOH",
    "useHeight": true,
    "height": 1000.0,
    "centerType": "Center",
    "width": 3072.0,
    "length": 3072.0
  },
  "BigWorld_0_3_GlobalFarFog_LY_LXS_After_Inside_Vdgo": {
    "$type": "LCFGLDCOCOH",
    "useHeight": true,
    "height": 1000.0,
    "centerType": "Center",
    "width": 3072.0,
    "length": 3072.0
  },
  "BigWorld_0_3_GlobalFarFog_Inside_Vdgo": {
    "$type": "LCFGLDCOCOH",
    "useHeight": true,
    "height": 1000.0,
    "centerType": "Center",
    "width": 3072.0,
    "length": 3072.0
  }
}