{
  "BigWorld_2_1_Area_FF_City_01_Outside_Vs": {
    "$type": "LCFGLDCOCOH",
    "useHeight": true,
    "height": 86.2005615234375,
    "centerType": "Center",
    "width": 95.76692199707031,
    "length": 145.5386962890625
  },
  "BigWorld_2_1_Cavern_WST04_City_01_Inside_Vs": {
    "$type": "LCFGLDCOCOH",
    "useHeight": true,
    "height": 76.44243621826172,
    "centerType": "Center",
    "width": 123.48750305175781,
    "length": 70.74507904052734
  },
  "BigWorld_2_1_Cavern_WST04_City_01_Outside_Vs": {
    "$type": "LCFGLDCOCOH",
    "useHeight": true,
    "height": 81.36189270019531,
    "centerType": "Center",
    "width": 158.86300659179688,
    "length": 84.93946075439453
  },
  "BigWorld_2_1_Cavern_WST04_City_02_Outside_Vs": {
    "$type": "LCFGLDCOCOH",
    "useHeight": true,
    "height": 67.29603576660156,
    "centerType": "Center",
    "width": 108.16790008544922,
    "length": 99.2696533203125
  },
  "BigWorld_2_1_Cavern_WST04_City_03_Outside_Vs": {
    "$type": "LCFGLDCOCOH",
    "useHeight": true,
    "height": 39.233856201171875,
    "centerType": "Center",
    "width": 48.702598571777344,
    "length": 80.16665649414062
  },
  "BigWorld_2_1_CYG_01_Inside_Vd": {
    "$type": "LCFGLDCOCOH",
    "useHeight": true,
    "height": 514.621826171875,
    "centerType": "Center",
    "width": 1081.5499267578125,
    "length": 1062.8927001953125
  },
  "BigWorld_2_1_CYG_01_Outside_Vd": {
    "$type": "LCFGLDCOCOH",
    "useHeight": true,
    "height": 514.621826171875,
    "centerType": "Center",
    "width": 1081.5499267578125,
    "length": 1062.8927001953125
  },
  "BigWorld_2_1_GlobalFarFog_External_1_1_LY_LXS_After_Inside_Vdgo": {
    "$type": "LCFGLDCOCOH",
    "useHeight": true,
    "height": 1000.0,
    "centerType": "Center",
    "width": 3072.0,
    "length": 3072.0
  },
  "BigWorld_2_1_GlobalFarFog_External_1_1_Inside_Vdgo": {
    "$type": "LCFGLDCOCOH",
    "useHeight": true,
    "height": 1000.0,
    "centerType": "Center",
    "width": 3072.0,
    "length": 3072.0
  },
  "BigWorld_2_1_GlobalFarFog_External_1_2_LY_LXS_After_Inside_Vdgo": {
    "$type": "LCFGLDCOCOH",
    "useHeight": true,
    "height": 1000.0,
    "centerType": "Center",
    "width": 3072.0,
    "length": 3072.0
  },
  "BigWorld_2_1_GlobalFarFog_External_1_2_Inside_Vdgo": {
    "$type": "LCFGLDCOCOH",
    "useHeight": true,
    "height": 1000.0,
    "centerType": "Center",
    "width": 3072.0,
    "length": 3072.0
  },
  "BigWorld_2_1_GlobalFarFog_External_2_2_LY_LXS_After_Inside_Vdgo": {
    "$type": "LCFGLDCOCOH",
    "useHeight": true,
    "height": 1000.0,
    "centerType": "Center",
    "width": 3072.0,
    "length": 3072.0
  },
  "BigWorld_2_1_GlobalFarFog_External_2_2_Inside_Vdgo": {
    "$type": "LCFGLDCOCOH",
    "useHeight": true,
    "height": 1000.0,
    "centerType": "Center",
    "width": 3072.0,
    "length": 3072.0
  },
  "BigWorld_2_1_GlobalFarFog_LY_LXS_After_Inside_Vdgo": {
    "$type": "LCFGLDCOCOH",
    "useHeight": true,
    "height": 1000.0,
    "centerType": "Center",
    "width": 3072.0,
    "length": 3072.0
  },
  "BigWorld_2_1_GlobalFarFog_Inside_Vdgo": {
    "$type": "LCFGLDCOCOH",
    "useHeight": true,
    "height": 1000.0,
    "centerType": "Center",
    "width": 3072.0,
    "length": 3072.0
  },
  "BigWorld_2_1_QYZ_Inside_Vd": {
    "$type": "MGKHCALIABD",
    "polygonConfigPath": "BigWorld_2_1_QYZ_Inside_Vd"
  },
  "BigWorld_2_1_QYZ_Outside_Vd": {
    "$type": "MGKHCALIABD",
    "polygonConfigPath": "BigWorld_2_1_QYZ_Outside_Vd"
  },
  "BigWorld_2_1_V44_Cave01_Inside_Ve": {
    "$type": "LCFGLDCOCOH",
    "useHeight": true,
    "height": 37.596126556396484,
    "centerType": "Center",
    "width": 100.54486083984375,
    "length": 75.17737579345703
  },
  "BigWorld_2_1_V44_Cave02_01_Inside_Ve": {
    "$type": "LCFGLDCOCOH",
    "useHeight": true,
    "height": 36.061519622802734,
    "centerType": "Center",
    "width": 81.40196228027344,
    "length": 49.88585662841797
  }
}