{
  "Level_FCdungeon_BigTree_cave_A_Inside_Ve": {
    "$type": "LCFGLDCOCOH",
    "useHeight": true,
    "height": 8.537506103515625,
    "centerType": "Center",
    "width": 6.433725357055664,
    "length": 10.589221000671387
  },
  "Level_FCdungeon_BigTree_cave_B_Inside_Ve": {
    "$type": "LCFGLDCOCOH",
    "useHeight": true,
    "height": 8.537506103515625,
    "centerType": "Center",
    "width": 15.699422836303711,
    "length": 14.62485408782959
  },
  "Level_FCdungeon_BigTree_cave_C_Inside_Ve": {
    "$type": "LCFGLDCOCOH",
    "useHeight": true,
    "height": 6.4388427734375,
    "centerType": "Center",
    "width": 7.742427349090576,
    "length": 12.045997619628906
  },
  "Level_FCdungeon_BigTree_cave_D_Inside_Ve": {
    "$type": "LCFGLDCOCOH",
    "useHeight": true,
    "height": 11.107940673828125,
    "centerType": "Center",
    "width": 6.433725357055664,
    "length": 8.452324867248535
  },
  "Level_FCdungeon_BigTree_Gy_Inside_Vsp": {
    "$type": "LCFGLDCOCOH",
    "useHeight": true,
    "height": 100.0,
    "centerType": "Center",
    "width": 265.43414306640625,
    "length": 239.34561157226562
  }
}