{
  "Level_FD_Freminet_Center_Inside_Ve": {
    "$type": "LCFGLDCOCOH",
    "useHeight": true,
    "height": 129.0693359375,
    "centerType": "Center",
    "width": 95.75865936279297,
    "length": 121.30000305175781
  },
  "Level_FD_Freminet_FourthSpace_Inside_Ve": {
    "$type": "LCFGLDCOCOH",
    "useHeight": true,
    "height": 49.75345230102539,
    "centerType": "Center",
    "width": 38.762020111083984,
    "length": 424.7351989746094
  },
  "Level_FD_Freminet_SecondSpace_Inside_Ve": {
    "$type": "LCFGLDCOCOH",
    "useHeight": true,
    "height": 32.30699920654297,
    "centerType": "Center",
    "width": 22.457918167114258,
    "length": 49.299591064453125
  }
}