{
  "Level_FCdungeon_Liuyun_LYG_Cave_Inside_Ve": {
    "$type": "PAPCPHMEHFC",
    "useHeight": true,
    "height": 82.46112060546875,
    "width": 66.84225463867188,
    "length": 59.42711639404297
  },
  "Level_FCdungeon_Liuyun_WS_Cave_02_Inside_Ve": {
    "$type": "LCFGLDCOCOH",
    "useHeight": true,
    "height": 50.59645080566406,
    "centerType": "Center",
    "width": 50.517547607421875,
    "length": 64.59384155273438
  },
  "Level_FCdungeon_Liuyun_WS_StartCave_Inside_Ve": {
    "$type": "MGKHCALIABD",
    "polygonConfigPath": "Level_FCdungeon_Liuyun_WS_StartCave_Inside_Ve"
  }
}