{
  "Level_FC_DeshretTemple_Inside_Ve": {
    "$type": "LCFGLDCOCOH",
    "useHeight": true,
    "height": 154.8664093017578,
    "centerType": "Center",
    "width": 157.37277221679688,
    "length": 142.96820068359375
  },
  "Level_FC_DeshretTemple_Chiwang_Inside_Vsp": {
    "$type": "LCFGLDCOCOH",
    "useHeight": true,
    "height": 283.088134765625,
    "centerType": "Center",
    "width": 443.3962097167969,
    "length": 334.4256286621094
  },
  "Level_FC_DeshretTemple_Grass_Inside_Ve": {
    "$type": "LCFGLDCOCOH",
    "useHeight": true,
    "height": 129.7757568359375,
    "centerType": "Center",
    "width": 363.51141357421875,
    "length": 205.2989501953125
  }
}