{
  "Level_NihilBoss01_PRBoss01_Inside_Vd": {
    "$type": "CMGBFEGEBPJ",
    "radius": 69.29960632324219
  },
  "Level_NihilBoss01_PRBoss01_Outside_Vd": {
    "$type": "CMGBFEGEBPJ",
    "radius": 69.29960632324219
  },
  "Level_NihilBoss01_Start_Inside_Ve": {
    "$type": "LCFGLDCOCOH",
    "useHeight": true,
    "height": 36.86319351196289,
    "centerType": "Center",
    "width": 39.157989501953125,
    "length": 46.18904113769531
  }
}