{
  "Level_Smr_LostCity_1F_Cor0809_Inside_Ve": {
    "$type": "MGKHCALIABD",
    "polygonConfigPath": "Level_Smr_LostCity_1F_Cor0809_Inside_Ve"
  },
  "Level_Smr_LostCity_2F_Room01_Inside_Ve": {
    "$type": "MGKHCALIABD",
    "polygonConfigPath": "Level_Smr_LostCity_2F_Room01_Inside_Ve"
  },
  "Level_Smr_LostCity_Cube_Inside_Vsp": {
    "$type": "LCFGLDCOCOH",
    "useHeight": true,
    "height": 148.62677001953125,
    "centerType": "Center",
    "width": 350.0794677734375,
    "length": 315.4056091308594
  }
}