{
  "Level_XMDungeon_WQ01_Dungeon01_T_Inside_Ve": {
    "$type": "LCFGLDCOCOH",
    "useHeight": true,
    "height": 31.93712615966797,
    "centerType": "Center",
    "width": 99.8748550415039,
    "length": 127.88760375976562
  },
  "Level_XMDungeon_WQ01_Dream_02_Inside_Ve": {
    "$type": "LCFGLDCOCOH",
    "useHeight": true,
    "height": 57.82923126220703,
    "centerType": "Center",
    "width": 120.0648422241211,
    "length": 73.94902038574219
  },
  "Level_XMDungeon_WQ01_XMWQ01_01_Inside_Vd": {
    "$type": "MGKHCALIABD",
    "polygonConfigPath": "Level_XMDungeon_WQ01_XMWQ01_01_Inside_Vd"
  },
  "Level_XMDungeon_WQ01_XMWQ01_01_Outside_Vd": {
    "$type": "MGKHCALIABD",
    "polygonConfigPath": "Level_XMDungeon_WQ01_XMWQ01_01_Outside_Vd"
  }
}