{
  "Penumbra_0_1_RollerCoaster_ConnectCave_Inside_Ve": {
    "$type": "MGKHCALIABD",
    "polygonConfigPath": "Penumbra_0_1_RollerCoaster_ConnectCave_Inside_Ve"
  },
  "Penumbra_0_1_Xm38_VinesRuins_Inside_Ve": {
    "$type": "MGKHCALIABD",
    "polygonConfigPath": "Penumbra_0_1_Xm38_VinesRuins_Inside_Ve"
  }
}