{
  "luaDataPath": "",
  "isSimpleTalk": true,
  "startBlackKeepTime": 1.0,
  "entityBan": "",
  "disableNpcLod": true,
  "startFade": {
    "startFadeInDuration": 0.5,
    "startFadeOutDuration": 0.5
  },
  "endFade": {
    "startFadeOutDuration": 0.0
  },
  "actors": [
    {
      "alias": "Avatar",
      "visible": true,
      "bornPointName": "72167_playerjisi",
      "relativePosNpcAlias": "",
      "_bindMovingTargetKey": ""
    },
    {
      "configID": 1005,
      "alias": "1005",
      "visible": true,
      "bornPointName": "72167_paimengjisi",
      "relativePos": {
        "x": 0.5,
        "z": 0.5
      },
      "relativePosNpcAlias": "",
      "_bindMovingTargetKey": ""
    }
  ],
  "group": [
    [
      {
        "$type": "MoleMole.Config.ConfigSimpleBlackScreenAction",
        "type": "SIMPLE_BLACK_SCREEN",
        "duration": 2.0,
        "durationToBlack": 0.5,
        "durationKeepBlack": 1.0,
        "durationFromBlack": 0.5,
        "textMapID": "",
        "useTextFade": true
      },
      {
        "$type": "MoleMole.Config.ConfigTimeProtectAction",
        "type": "TIME_PROTECT",
        "duration": 2.0
      },
      {
        "$type": "MoleMole.Config.ConfigTeleportToAction",
        "type": "TELEPORT_TO",
        "delayTime": 0.5920000076293945,
        "duration": 0.0,
        "aliasList": [
          "1005"
        ],
        "position": {
          "x": -6332.8388671875,
          "y": 247.71200561523438,
          "z": -2792.658935546875
        },
        "forward": {
          "x": -10.071000099182129,
          "y": 0.3070000112056732,
          "z": 3.684000015258789
        },
        "_posBindMovingTargetKey": "",
        "_forwardBindMovingTargetKey": ""
      },
      {
        "$type": "MoleMole.Config.ConfigTeleportToAction",
        "type": "TELEPORT_TO",
        "delayTime": 0.6000000238418579,
        "duration": 0.0,
        "aliasList": [
          "Avatar"
        ],
        "position": {
          "x": -6332.2861328125,
          "y": 247.80999755859375,
          "z": -2791.455078125
        },
        "forward": {
          "x": -8.543999671936035,
          "y": 0.20999999344348907,
          "z": 3.7239999771118164
        },
        "_posBindMovingTargetKey": "",
        "_forwardBindMovingTargetKey": ""
      },
      {
        "$type": "FJKIHHKJLMJ",
        "type": "CAMERA_MOVE",
        "delayTime": 0.6000000238418579,
        "duration": 0.0,
        "camPosOffset": {
          "x": -6340.28076171875,
          "y": 249.57400512695312,
          "z": -2796.597900390625
        },
        "camForwardTargetOffset": {
          "x": -6339.43798828125,
          "y": 249.54100036621094,
          "z": -2796.06103515625
        },
        "camFov": 49.694000244140625,
        "lerpPattern": 6,
        "cameraBlendType": "EaseInOutCubic",
        "NJBNNOMLKCK": {},
        "openCameraDither": false,
        "targetNpcAlias": "",
        "closeTreeLeafDither": true,
        "KJOEFBPOIIH": "",
        "IICFKKEBIEC": "",
        "EGEHEJEBLBJ": ""
      }
    ],
    [
      {
        "$type": "MoleMole.Config.ConfigMoveToAction",
        "type": "MOVE_TO",
        "aliasList": [
          "1005"
        ],
        "moveType": "WALK",
        "routeList": [
          {
            "x": -6341.68408203125,
            "y": 248.697998046875,
            "z": -2790.489990234375
          }
        ],
        "exactlyMove": true,
        "_bindMovingTargetKey": ""
      },
      {
        "$type": "MoleMole.Config.ConfigMoveToAction",
        "type": "MOVE_TO",
        "aliasList": [
          "Avatar"
        ],
        "moveType": "WALK",
        "routeList": [
          {
            "x": -6341.56298828125,
            "y": 248.74899291992188,
            "z": -2787.868896484375
          }
        ],
        "_bindMovingTargetKey": ""
      },
      {
        "$type": "FJKIHHKJLMJ",
        "type": "CAMERA_MOVE",
        "duration": 2.0,
        "camPosOffset": {
          "x": -6340.28076171875,
          "y": 249.57400512695312,
          "z": -2796.597900390625
        },
        "camForwardTargetOffset": {
          "x": -6339.4658203125,
          "y": 249.54100036621094,
          "z": -2796.01806640625
        },
        "camFov": 49.694000244140625,
        "lerpPattern": 2,
        "cameraBlendType": "Linear",
        "NJBNNOMLKCK": {},
        "openCameraDither": false,
        "targetNpcAlias": "",
        "closeTreeLeafDither": true,
        "KJOEFBPOIIH": "",
        "IICFKKEBIEC": "",
        "EGEHEJEBLBJ": ""
      },
      {
        "$type": "FJKIHHKJLMJ",
        "type": "CAMERA_MOVE",
        "delayTime": 2.1080000400543213,
        "duration": 0.0,
        "camPosOffset": {
          "x": -6336.87109375,
          "y": 250.218994140625,
          "z": -2791.0390625
        },
        "camForwardTargetOffset": {
          "x": -6337.8681640625,
          "y": 250.2429962158203,
          "z": -2790.9609375
        },
        "camFov": 49.694000244140625,
        "lerpPattern": 6,
        "cameraBlendType": "EaseInOutCubic",
        "NJBNNOMLKCK": {},
        "openCameraDither": false,
        "targetNpcAlias": "",
        "closeTreeLeafDither": true,
        "KJOEFBPOIIH": "",
        "IICFKKEBIEC": "",
        "EGEHEJEBLBJ": ""
      },
      {
        "$type": "FJKIHHKJLMJ",
        "type": "CAMERA_MOVE",
        "delayTime": 2.1670000553131104,
        "duration": 2.0,
        "camPosOffset": {
          "x": -6338.01318359375,
          "y": 250.2530059814453,
          "z": -2790.2080078125
        },
        "camForwardTargetOffset": {
          "x": -6338.7900390625,
          "y": 250.27699279785156,
          "z": -2789.5791015625
        },
        "camFov": 49.694000244140625,
        "lerpPattern": 2,
        "cameraBlendType": "EaseOutQuad",
        "NJBNNOMLKCK": {},
        "openCameraDither": false,
        "targetNpcAlias": "",
        "closeTreeLeafDither": true,
        "KJOEFBPOIIH": "",
        "IICFKKEBIEC": "",
        "EGEHEJEBLBJ": ""
      },
      {
        "$type": "FJKIHHKJLMJ",
        "type": "CAMERA_MOVE",
        "delayTime": 4.140999794006348,
        "duration": 1.0,
        "camPosOffset": {
          "x": -6341.0478515625,
          "y": 250.4250030517578,
          "z": -2789.705078125
        },
        "camForwardTargetOffset": {
          "x": -6342.044921875,
          "y": 250.45799255371094,
          "z": -2789.635986328125
        },
        "camFov": 49.694000244140625,
        "lerpPattern": 2,
        "cameraBlendType": "EaseOutQuad",
        "NJBNNOMLKCK": {},
        "openCameraDither": false,
        "targetNpcAlias": "",
        "closeTreeLeafDither": true,
        "KJOEFBPOIIH": "",
        "IICFKKEBIEC": "",
        "EGEHEJEBLBJ": ""
      }
    ],
    [
      {
        "$type": "MoleMole.Config.ConfigTeleportToAction",
        "type": "TELEPORT_TO",
        "duration": 0.0,
        "aliasList": [
          "Avatar"
        ],
        "position": {
          "x": -6345.76513671875,
          "y": 248.7519989013672,
          "z": -2785.1259765625
        },
        "forward": {
          "x": -0.9879999756813049,
          "z": 0.15199999511241913
        },
        "_posBindMovingTargetKey": "",
        "_forwardBindMovingTargetKey": ""
      },
      {
        "$type": "MoleMole.Config.ConfigTeleportToAction",
        "type": "TELEPORT_TO",
        "aliasList": [
          "1005"
        ],
        "position": {
          "x": -6346.17919921875,
          "y": 248.76600646972656,
          "z": -2786.262939453125
        },
        "forward": {
          "x": -0.6869999766349792,
          "z": 0.7269999980926514
        },
        "_posBindMovingTargetKey": "",
        "_forwardBindMovingTargetKey": ""
      },
      {
        "$type": "FJKIHHKJLMJ",
        "type": "CAMERA_MOVE",
        "duration": 0.0,
        "camPosOffset": {
          "x": -6346.76611328125,
          "y": 250.08900451660156,
          "z": -2784.157958984375
        },
        "camForwardTargetOffset": {
          "x": -6346.32177734375,
          "y": 250.02000427246094,
          "z": -2785.051025390625
        },
        "camFov": 49.694000244140625,
        "lerpPattern": 6,
        "cameraBlendType": "EaseInOutCubic",
        "NJBNNOMLKCK": {},
        "openCameraDither": false,
        "targetNpcAlias": "",
        "closeTreeLeafDither": true,
        "KJOEFBPOIIH": "",
        "IICFKKEBIEC": "",
        "EGEHEJEBLBJ": ""
      },
      {
        "$type": "LLGANGLOEEO",
        "type": "STEER_TO",
        "delayTime": 0.2669999897480011,
        "duration": 0.800000011920929,
        "aliasList": [
          "1005"
        ],
        "steerType": "ABSOLUTE",
        "steerDir": {
          "x": -6346.09423828125,
          "y": 248.75599670410156,
          "z": -2785.489990234375
        },
        "useSteerAnim": true,
        "targetNpcAlias": "",
        "OAFJBHJHLJG": ""
      },
      {
        "$type": "LLGANGLOEEO",
        "type": "STEER_TO",
        "delayTime": 0.5839999914169312,
        "duration": 0.800000011920929,
        "aliasList": [
          "Avatar"
        ],
        "steerType": "ABSOLUTE",
        "steerDir": {
          "x": -6346.8828125,
          "y": 248.75599670410156,
          "z": -2786.264892578125
        },
        "useSteerAnim": true,
        "targetNpcAlias": "",
        "OAFJBHJHLJG": ""
      },
      {
        "$type": "LJLMDHDCAMK",
        "type": "LOOK_AT",
        "delayTime": 0.8840000033378601,
        "aliasList": [
          "1005"
        ],
        "enableHead": true,
        "headTurnTime": 0.5,
        "targetNpcAlias": "Avatar",
        "targetNpcLookAtPoint": "",
        "OAFJBHJHLJG": ""
      },
      {
        "$type": "LJLMDHDCAMK",
        "type": "LOOK_AT",
        "delayTime": 0.9340000152587891,
        "aliasList": [
          "Avatar"
        ],
        "enableHead": true,
        "headTurnTime": 0.5,
        "targetNpcAlias": "1005",
        "targetNpcLookAtPoint": "",
        "OAFJBHJHLJG": ""
      },
      {
        "$type": "FABLGECDBCH",
        "type": "BODY_LANG",
        "delayTime": 1.3589999675750732,
        "aliasList": [
          "1005"
        ],
        "bodyLangParam": 1050,
        "forceDoFreeStyle": true,
        "canDoRepeatFreeStyle": false,
        "eventPatternSuiteKey": "",
        "FOHHKFAIAAJ": ""
      },
      {
        "$type": "PKKMAMONGEO",
        "type": "DIALOG",
        "delayTime": 1.6670000553131104,
        "aliasList": [
          "1005"
        ],
        "dialogID": 721671001,
        "protectTime": 2.3919999599456787
      },
      {
        "$type": "HDGKHDNFMIM",
        "type": "DIALOG_SELECT",
        "delayTime": 2.3919999599456787,
        "aliasList": [
          "Avatar"
        ],
        "dialogIDList": [
          721671002,
          721671003
        ],
        "grpIDList": [
          2755831859,
          2755831859
        ],
        "useGrpId": true
      },
      {
        "$type": "FABLGECDBCH",
        "type": "BODY_LANG",
        "delayTime": 2.9749999046325684,
        "aliasList": [
          "1005"
        ],
        "isContinue": true,
        "forceDoFreeStyle": true,
        "canDoRepeatFreeStyle": false,
        "eventPatternSuiteKey": "",
        "FOHHKFAIAAJ": ""
      },
      {
        "$type": "FABLGECDBCH",
        "type": "BODY_LANG",
        "delayTime": 3.174999952316284,
        "aliasList": [
          "1005"
        ],
        "bodyLangParam": 1120,
        "forceDoFreeStyle": true,
        "canDoRepeatFreeStyle": false,
        "eventPatternSuiteKey": "",
        "FOHHKFAIAAJ": ""
      }
    ],
    [
      {
        "$type": "LLGANGLOEEO",
        "type": "STEER_TO",
        "duration": 0.800000011920929,
        "aliasList": [
          "1005"
        ],
        "steerType": "ABSOLUTE",
        "steerDir": {
          "x": -6359.666015625,
          "y": 248.8159942626953,
          "z": -2779.486083984375
        },
        "useSteerAnim": true,
        "targetNpcAlias": "",
        "OAFJBHJHLJG": ""
      },
      {
        "$type": "LJLMDHDCAMK",
        "type": "LOOK_AT",
        "delayTime": 0.699999988079071,
        "aliasList": [
          "1005"
        ],
        "enableHead": true,
        "useTargetPos": true,
        "enableAbsolute": true,
        "targetPosition": {
          "x": -6355.59814453125,
          "y": 250.14700317382812,
          "z": -2780.89990234375
        },
        "headTurnTime": 0.5,
        "targetNpcAlias": "",
        "targetNpcLookAtPoint": "",
        "OAFJBHJHLJG": ""
      },
      {
        "$type": "LJLMDHDCAMK",
        "type": "LOOK_AT",
        "delayTime": 0.8330000042915344,
        "aliasList": [
          "Avatar"
        ],
        "enableHead": true,
        "useTargetPos": true,
        "enableAbsolute": true,
        "targetPosition": {
          "x": -6350.31103515625,
          "y": 249.75599670410156,
          "z": -2783.032958984375
        },
        "headTurnTime": 0.5,
        "targetNpcAlias": "",
        "targetNpcLookAtPoint": "",
        "OAFJBHJHLJG": ""
      },
      {
        "$type": "FABLGECDBCH",
        "type": "BODY_LANG",
        "delayTime": 1.2170000076293945,
        "aliasList": [
          "1005"
        ],
        "bodyLangParam": 1060,
        "forceDoFreeStyle": true,
        "canDoRepeatFreeStyle": false,
        "eventPatternSuiteKey": "",
        "FOHHKFAIAAJ": ""
      },
      {
        "$type": "PKKMAMONGEO",
        "type": "DIALOG",
        "delayTime": 1.5499999523162842,
        "aliasList": [
          "1005"
        ],
        "dialogID": 721671004,
        "protectTime": 0.5
      },
      {
        "$type": "FJKIHHKJLMJ",
        "type": "CAMERA_MOVE",
        "delayTime": 2.174999952316284,
        "duration": 0.0,
        "camPosOffset": {
          "x": -6349.77587890625,
          "y": 249.83200073242188,
          "z": -2786.37109375
        },
        "camForwardTargetOffset": {
          "x": -6350.56787109375,
          "y": 249.76300048828125,
          "z": -2785.764892578125
        },
        "camFov": 49.694000244140625,
        "lerpPattern": 6,
        "cameraBlendType": "EaseInOutCubic",
        "NJBNNOMLKCK": {},
        "openCameraDither": false,
        "targetNpcAlias": "",
        "closeTreeLeafDither": true,
        "KJOEFBPOIIH": "",
        "IICFKKEBIEC": "",
        "EGEHEJEBLBJ": ""
      },
      {
        "$type": "FJKIHHKJLMJ",
        "type": "CAMERA_MOVE",
        "delayTime": 2.2170000076293945,
        "duration": 1.0,
        "camPosOffset": {
          "x": -6353.22802734375,
          "y": 249.531005859375,
          "z": -2783.73095703125
        },
        "camForwardTargetOffset": {
          "x": -6354.02099609375,
          "y": 249.46499633789062,
          "z": -2783.125
        },
        "camFov": 49.694000244140625,
        "lerpPattern": 2,
        "cameraBlendType": "EaseOutQuart",
        "NJBNNOMLKCK": {},
        "openCameraDither": false,
        "targetNpcAlias": "",
        "closeTreeLeafDither": true,
        "KJOEFBPOIIH": "",
        "IICFKKEBIEC": "",
        "EGEHEJEBLBJ": ""
      }
    ],
    [
      {
        "$type": "MoleMole.Config.ConfigSimpleBlackScreenAction",
        "type": "SIMPLE_BLACK_SCREEN",
        "durationToBlack": 0.5,
        "durationKeepBlack": 1.0,
        "durationFromBlack": 0.5,
        "textMapID": "",
        "useTextFade": true
      },
      {
        "$type": "MoleMole.Config.ConfigTimeProtectAction",
        "type": "TIME_PROTECT",
        "duration": 0.10000000149011612
      },
      {
        "$type": "FJKIHHKJLMJ",
        "type": "CAMERA_MOVE",
        "delayTime": 0.5,
        "duration": 0.0,
        "camPosOffset": {
          "x": -6340.8720703125,
          "y": 251.94700622558594,
          "z": -2787.97705078125
        },
        "camForwardTargetOffset": {
          "x": -6341.73779296875,
          "y": 251.6719970703125,
          "z": -2787.56005859375
        },
        "lerpPattern": 6,
        "cameraBlendType": "EaseInOutCubic",
        "NJBNNOMLKCK": {},
        "openCameraDither": false,
        "targetNpcAlias": "",
        "closeTreeLeafDither": true,
        "KJOEFBPOIIH": "",
        "IICFKKEBIEC": "",
        "EGEHEJEBLBJ": ""
      }
    ]
  ],
  "groupId": [
    {
      "grpId": 2755831856,
      "nextGrpId": 2755831857
    },
    {
      "index": 1,
      "grpId": 2755831857,
      "nextGrpId": 2755831858
    },
    {
      "index": 2,
      "grpId": 2755831858,
      "nextGrpId": 2755831859
    },
    {
      "index": 3,
      "grpId": 2755831859,
      "nextGrpId": 2755831860
    },
    {
      "index": 4,
      "grpId": 2755831860,
      "nextGrpId": 2755831861
    }
  ]
}