{
  "luaDataPath": "",
  "isSimpleTalk": true,
  "startBlackKeepTime": 1.0,
  "entityBan": "",
  "disableNpcLod": true,
  "startFade": {
    "startFadeInDuration": 0.5,
    "startFadeOutDuration": 0.5
  },
  "endFade": {
    "startFadeOutDuration": 0.0
  },
  "actors": [
    {
      "alias": "Avatar",
      "visible": true,
      "bornPointName": "Q72199MuraPlayer",
      "relativePosNpcAlias": "",
      "_bindMovingTargetKey": ""
    },
    {
      "configID": 3167,
      "alias": "3167",
      "visible": true,
      "bornPointName": "Q3_72109_6",
      "relativePosNpcAlias": "",
      "_bindMovingTargetKey": ""
    },
    {
      "configID": 3154,
      "alias": "3154",
      "visible": true,
      "bornPointName": "Q72199MuraEriBba",
      "relativePosNpcAlias": "",
      "_bindMovingTargetKey": ""
    },
    {
      "configID": 3155,
      "alias": "3155",
      "visible": true,
      "bornPointName": "Q72199HomeNiro",
      "relativePosNpcAlias": "",
      "_bindMovingTargetKey": ""
    },
    {
      "configID": 1005,
      "alias": "1005",
      "visible": true,
      "bornPointName": "Q72199MuraPaimon",
      "relativePosNpcAlias": "",
      "_bindMovingTargetKey": ""
    }
  ],
  "group": [
    [
      {
        "$type": "FJKIHHKJLMJ",
        "type": "CAMERA_FOCUS",
        "delayTime": 0.30000001192092896,
        "duration": 0.10000000149011612,
        "targetNpcAlias": "",
        "KJOEFBPOIIH": "",
        "IICFKKEBIEC": "",
        "EGEHEJEBLBJ": ""
      },
      {
        "$type": "MoleMole.Config.ConfigTimeProtectAction",
        "type": "TIME_PROTECT",
        "duration": 1.5
      },
      {
        "$type": "LLGANGLOEEO",
        "type": "STEER_TO",
        "duration": 0.800000011920929,
        "aliasList": [
          "3167"
        ],
        "steerType": "TO_LOCAL_AVATAR_ADVANCED",
        "useSteerAnim": true,
        "interruptFreestyle": true,
        "forceSteer": true,
        "targetNpcAlias": "",
        "OAFJBHJHLJG": ""
      },
      {
        "$type": "LJLMDHDCAMK",
        "type": "LOOK_AT",
        "delayTime": 0.8127572536468506,
        "aliasList": [
          "3167"
        ],
        "enableHead": true,
        "headTurnTime": 0.5,
        "targetNpcAlias": "3155",
        "targetNpcLookAtPoint": "",
        "OAFJBHJHLJG": ""
      },
      {
        "$type": "LLGANGLOEEO",
        "type": "STEER_TO",
        "duration": 0.800000011920929,
        "aliasList": [
          "3154"
        ],
        "steerType": "TO_LOCAL_AVATAR_ADVANCED",
        "useSteerAnim": true,
        "interruptFreestyle": true,
        "forceSteer": true,
        "targetNpcAlias": "",
        "OAFJBHJHLJG": ""
      },
      {
        "$type": "LJLMDHDCAMK",
        "type": "LOOK_AT",
        "delayTime": 0.8333333730697632,
        "aliasList": [
          "3154"
        ],
        "enableHead": true,
        "headTurnTime": 0.5,
        "targetNpcAlias": "3155",
        "targetNpcLookAtPoint": "",
        "OAFJBHJHLJG": ""
      },
      {
        "$type": "LLGANGLOEEO",
        "type": "STEER_TO",
        "duration": 0.800000011920929,
        "aliasList": [
          "3155"
        ],
        "steerType": "TO_LOCAL_AVATAR_ADVANCED",
        "useSteerAnim": true,
        "interruptFreestyle": true,
        "forceSteer": true,
        "targetNpcAlias": "",
        "OAFJBHJHLJG": ""
      },
      {
        "$type": "LJLMDHDCAMK",
        "type": "LOOK_AT",
        "delayTime": 0.8230454921722412,
        "aliasList": [
          "3155"
        ],
        "enableHead": true,
        "headTurnTime": 0.5,
        "targetNpcAlias": "3167",
        "targetNpcLookAtPoint": "",
        "OAFJBHJHLJG": ""
      }
    ],
    [
      {
        "$type": "PKKMAMONGEO",
        "type": "DIALOG",
        "aliasList": [
          "3167"
        ],
        "dialogID": 721991701,
        "protectTime": 0.5
      }
    ],
    [
      {
        "$type": "HDGKHDNFMIM",
        "type": "DIALOG_SELECT",
        "delayTime": 0.4000000059604645,
        "aliasList": [
          "Avatar"
        ],
        "dialogIDList": [
          721991703,
          721991705
        ],
        "grpIDList": [
          2221529498,
          2221529499
        ],
        "useGrpId": true
      },
      {
        "$type": "PKKMAMONGEO",
        "type": "DIALOG",
        "aliasList": [
          "3167"
        ],
        "dialogID": 721991702,
        "protectTime": 0.5
      }
    ],
    [
      {
        "$type": "PKKMAMONGEO",
        "type": "DIALOG",
        "aliasList": [
          "3154"
        ],
        "dialogID": 721991704,
        "protectTime": 0.5
      }
    ],
    [
      {
        "$type": "PKKMAMONGEO",
        "type": "DIALOG",
        "aliasList": [
          "3155"
        ],
        "dialogID": 721991706,
        "protectTime": 0.5
      },
      {
        "$type": "FABLGECDBCH",
        "type": "BODY_LANG",
        "aliasList": [
          "3155"
        ],
        "bodyLangParam": 1050,
        "forceDoFreeStyle": true,
        "canDoRepeatFreeStyle": false,
        "eventPatternSuiteKey": "",
        "FOHHKFAIAAJ": ""
      }
    ],
    [
      {
        "$type": "PKKMAMONGEO",
        "type": "DIALOG",
        "aliasList": [
          "3167"
        ],
        "dialogID": 721991707,
        "protectTime": 0.5
      },
      {
        "$type": "LJLMDHDCAMK",
        "type": "LOOK_AT",
        "aliasList": [
          "3167"
        ],
        "enableHead": true,
        "headTurnTime": 0.5,
        "targetNpcAlias": "3154",
        "targetNpcLookAtPoint": "",
        "OAFJBHJHLJG": ""
      }
    ],
    [
      {
        "$type": "PKKMAMONGEO",
        "type": "DIALOG",
        "aliasList": [
          "3154"
        ],
        "dialogID": 721991708,
        "protectTime": 0.5
      }
    ],
    [
      {
        "$type": "PKKMAMONGEO",
        "type": "DIALOG",
        "aliasList": [
          "3154"
        ],
        "dialogID": 721991709,
        "protectTime": 0.5
      }
    ],
    [
      {
        "$type": "PKKMAMONGEO",
        "type": "DIALOG",
        "aliasList": [
          "3154"
        ],
        "dialogID": 721991710,
        "protectTime": 0.5
      }
    ],
    [
      {
        "$type": "PKKMAMONGEO",
        "type": "DIALOG",
        "aliasList": [
          "3154"
        ],
        "dialogID": 721991711,
        "protectTime": 0.5
      }
    ],
    [
      {
        "$type": "PKKMAMONGEO",
        "type": "DIALOG",
        "aliasList": [
          "3154"
        ],
        "dialogID": 721991712,
        "protectTime": 0.5
      }
    ],
    [
      {
        "$type": "PKKMAMONGEO",
        "type": "DIALOG",
        "aliasList": [
          "3167"
        ],
        "dialogID": 721991713,
        "protectTime": 0.5
      }
    ],
    [
      {
        "$type": "PKKMAMONGEO",
        "type": "DIALOG",
        "aliasList": [
          "3167"
        ],
        "dialogID": 721991714,
        "protectTime": 0.5
      },
      {
        "$type": "LJLMDHDCAMK",
        "type": "LOOK_AT",
        "aliasList": [
          "3167"
        ],
        "enableHead": true,
        "headTurnTime": 0.5,
        "targetNpcAlias": "3155",
        "targetNpcLookAtPoint": "",
        "OAFJBHJHLJG": ""
      }
    ],
    [
      {
        "$type": "PKKMAMONGEO",
        "type": "DIALOG",
        "aliasList": [
          "3155"
        ],
        "dialogID": 721991715,
        "protectTime": 0.5
      },
      {
        "$type": "FABLGECDBCH",
        "type": "BODY_LANG",
        "aliasList": [
          "3155"
        ],
        "isContinue": true,
        "forceDoFreeStyle": true,
        "canDoRepeatFreeStyle": false,
        "eventPatternSuiteKey": "",
        "FOHHKFAIAAJ": ""
      }
    ],
    [
      {
        "$type": "MoleMole.Config.ConfigBlackScreenAction",
        "type": "BLACK_SCREEN",
        "duration": 4.0,
        "durationToBlack": 0.5,
        "durationKeepBlack": 3.0,
        "durationFromBlack": 0.5,
        "inteePos": "",
        "textMapID": "QUEST_Message_Q7210904",
        "useTextFade": true
      },
      {
        "$type": "PKKMAMONGEO",
        "type": "DIALOG_CLEAR"
      }
    ],
    [
      {
        "$type": "PKKMAMONGEO",
        "type": "DIALOG",
        "aliasList": [
          "3167"
        ],
        "dialogID": 721991716,
        "protectTime": 0.5
      }
    ],
    [
      {
        "$type": "PKKMAMONGEO",
        "type": "DIALOG",
        "aliasList": [
          "3167"
        ],
        "dialogID": 721991717,
        "protectTime": 0.5
      }
    ],
    [
      {
        "$type": "PKKMAMONGEO",
        "type": "DIALOG",
        "aliasList": [
          "3167"
        ],
        "dialogID": 721991718,
        "protectTime": 0.5
      }
    ],
    [
      {
        "$type": "PKKMAMONGEO",
        "type": "DIALOG",
        "aliasList": [
          "3167"
        ],
        "dialogID": 721991719,
        "protectTime": 0.5
      }
    ],
    [
      {
        "$type": "PKKMAMONGEO",
        "type": "DIALOG",
        "aliasList": [
          "3154"
        ],
        "dialogID": 721991720,
        "protectTime": 0.5
      }
    ],
    [
      {
        "$type": "PKKMAMONGEO",
        "type": "DIALOG",
        "aliasList": [
          "3154"
        ],
        "dialogID": 721991721,
        "protectTime": 0.5
      }
    ],
    [
      {
        "$type": "PKKMAMONGEO",
        "type": "DIALOG",
        "aliasList": [
          "1005"
        ],
        "dialogID": 721991722,
        "protectTime": 0.5
      },
      {
        "$type": "FABLGECDBCH",
        "type": "BODY_LANG",
        "aliasList": [
          "1005"
        ],
        "bodyLangParam": 1050,
        "forceDoFreeStyle": true,
        "canDoRepeatFreeStyle": false,
        "eventPatternSuiteKey": "",
        "FOHHKFAIAAJ": ""
      }
    ],
    [
      {
        "$type": "PKKMAMONGEO",
        "type": "DIALOG",
        "aliasList": [
          "3167"
        ],
        "dialogID": 721991723,
        "protectTime": 0.5
      },
      {
        "$type": "LJLMDHDCAMK",
        "type": "LOOK_AT",
        "aliasList": [
          "3167"
        ],
        "enableHead": true,
        "headTurnTime": 0.5,
        "targetNpcAlias": "Avatar",
        "targetNpcLookAtPoint": "",
        "OAFJBHJHLJG": ""
      }
    ],
    [
      {
        "$type": "PKKMAMONGEO",
        "type": "DIALOG",
        "aliasList": [
          "3155"
        ],
        "dialogID": 721991724,
        "protectTime": 0.5
      },
      {
        "$type": "FABLGECDBCH",
        "type": "BODY_LANG",
        "aliasList": [
          "3155"
        ],
        "bodyLangParam": 1130,
        "forceDoFreeStyle": true,
        "canDoRepeatFreeStyle": false,
        "eventPatternSuiteKey": "",
        "FOHHKFAIAAJ": ""
      },
      {
        "$type": "FABLGECDBCH",
        "type": "BODY_LANG",
        "aliasList": [
          "1005"
        ],
        "isContinue": true,
        "forceDoFreeStyle": true,
        "canDoRepeatFreeStyle": false,
        "eventPatternSuiteKey": "",
        "FOHHKFAIAAJ": ""
      }
    ],
    [
      {
        "$type": "HDGKHDNFMIM",
        "type": "DIALOG_SELECT",
        "delayTime": 0.4000000059604645,
        "aliasList": [
          "Avatar"
        ],
        "dialogIDList": [
          721991726
        ],
        "grpIDList": [
          147937694
        ],
        "useGrpId": true
      },
      {
        "$type": "PKKMAMONGEO",
        "type": "DIALOG",
        "aliasList": [
          "1005"
        ],
        "dialogID": 721991725,
        "protectTime": 0.5
      },
      {
        "$type": "FABLGECDBCH",
        "type": "BODY_LANG",
        "aliasList": [
          "1005"
        ],
        "bodyLangParam": 1110,
        "forceDoFreeStyle": true,
        "canDoRepeatFreeStyle": false,
        "eventPatternSuiteKey": "",
        "FOHHKFAIAAJ": ""
      }
    ],
    [
      {
        "$type": "PKKMAMONGEO",
        "type": "DIALOG",
        "aliasList": [
          "3155"
        ],
        "dialogID": 721991727,
        "protectTime": 0.5
      },
      {
        "$type": "FABLGECDBCH",
        "type": "BODY_LANG",
        "aliasList": [
          "3155"
        ],
        "bodyLangParam": 1040,
        "forceDoFreeStyle": true,
        "canDoRepeatFreeStyle": false,
        "eventPatternSuiteKey": "",
        "FOHHKFAIAAJ": ""
      }
    ],
    [
      {
        "$type": "PKKMAMONGEO",
        "type": "DIALOG",
        "aliasList": [
          "3167"
        ],
        "dialogID": 721991728,
        "protectTime": 0.5
      },
      {
        "$type": "LJLMDHDCAMK",
        "type": "LOOK_AT",
        "aliasList": [
          "3167"
        ],
        "enableHead": true,
        "headTurnTime": 0.5,
        "targetNpcAlias": "3155",
        "targetNpcLookAtPoint": "",
        "OAFJBHJHLJG": ""
      }
    ],
    [
      {
        "$type": "PKKMAMONGEO",
        "type": "DIALOG",
        "aliasList": [
          "3154"
        ],
        "dialogID": 721991729,
        "protectTime": 0.5
      }
    ],
    [
      {
        "$type": "PKKMAMONGEO",
        "type": "DIALOG",
        "aliasList": [
          "1005"
        ],
        "dialogID": 721991730,
        "protectTime": 0.5
      }
    ],
    [
      {
        "$type": "PKKMAMONGEO",
        "type": "DIALOG",
        "aliasList": [
          "3167"
        ],
        "dialogID": 721991731,
        "protectTime": 0.5
      }
    ],
    [
      {
        "$type": "PKKMAMONGEO",
        "type": "DIALOG",
        "aliasList": [
          "3167"
        ],
        "dialogID": 721991732,
        "protectTime": 0.5
      }
    ],
    [
      {
        "$type": "PKKMAMONGEO",
        "type": "DIALOG",
        "aliasList": [
          "3154"
        ],
        "dialogID": 721991733,
        "protectTime": 0.5
      }
    ],
    [
      {
        "$type": "PKKMAMONGEO",
        "type": "DIALOG",
        "aliasList": [
          "3155"
        ],
        "dialogID": 721991734,
        "protectTime": 0.5
      },
      {
        "$type": "FABLGECDBCH",
        "type": "BODY_LANG",
        "aliasList": [
          "3155"
        ],
        "bodyLangParam": 1160,
        "forceDoFreeStyle": true,
        "canDoRepeatFreeStyle": false,
        "eventPatternSuiteKey": "",
        "FOHHKFAIAAJ": ""
      }
    ],
    [
      {
        "$type": "PKKMAMONGEO",
        "type": "DIALOG",
        "aliasList": [
          "3167"
        ],
        "dialogID": 721991735,
        "protectTime": 0.5
      }
    ],
    [
      {
        "$type": "PKKMAMONGEO",
        "type": "DIALOG",
        "aliasList": [
          "3167"
        ],
        "dialogID": 721991736,
        "protectTime": 0.5
      },
      {
        "$type": "FABLGECDBCH",
        "type": "BODY_LANG",
        "aliasList": [
          "3155"
        ],
        "isContinue": true,
        "forceDoFreeStyle": true,
        "canDoRepeatFreeStyle": false,
        "eventPatternSuiteKey": "",
        "FOHHKFAIAAJ": ""
      }
    ],
    [
      {
        "$type": "PKKMAMONGEO",
        "type": "DIALOG",
        "aliasList": [
          "3167"
        ],
        "dialogID": 721991737,
        "protectTime": 0.5
      }
    ],
    [
      {
        "$type": "PKKMAMONGEO",
        "type": "DIALOG",
        "aliasList": [
          "3167"
        ],
        "dialogID": 721991738,
        "protectTime": 0.5
      }
    ],
    [
      {
        "$type": "PKKMAMONGEO",
        "type": "DIALOG",
        "aliasList": [
          "3167"
        ],
        "dialogID": 721991739,
        "protectTime": 0.5
      }
    ],
    [
      {
        "$type": "PKKMAMONGEO",
        "type": "DIALOG",
        "aliasList": [
          "3154"
        ],
        "dialogID": 721991740,
        "protectTime": 0.5
      }
    ],
    [
      {
        "$type": "HDGKHDNFMIM",
        "type": "DIALOG_SELECT",
        "delayTime": 0.4000000059604645,
        "aliasList": [
          "Avatar"
        ],
        "dialogIDList": [
          721991742,
          721991749
        ],
        "grpIDList": [
          147937751,
          147937757
        ],
        "useGrpId": true
      },
      {
        "$type": "PKKMAMONGEO",
        "type": "DIALOG",
        "aliasList": [
          "1005"
        ],
        "dialogID": 721991741,
        "protectTime": 0.5
      }
    ],
    [
      {
        "$type": "PKKMAMONGEO",
        "type": "DIALOG",
        "aliasList": [
          "3167"
        ],
        "dialogID": 721991743,
        "protectTime": 0.5
      },
      {
        "$type": "LJLMDHDCAMK",
        "type": "LOOK_AT",
        "aliasList": [
          "3167"
        ],
        "enableHead": true,
        "headTurnTime": 0.5,
        "targetNpcAlias": "Avatar",
        "targetNpcLookAtPoint": "",
        "OAFJBHJHLJG": ""
      },
      {
        "$type": "LJLMDHDCAMK",
        "type": "LOOK_AT",
        "aliasList": [
          "3154"
        ],
        "enableHead": true,
        "headTurnTime": 0.5,
        "targetNpcAlias": "Avatar",
        "targetNpcLookAtPoint": "",
        "OAFJBHJHLJG": ""
      }
    ],
    [
      {
        "$type": "PKKMAMONGEO",
        "type": "DIALOG",
        "aliasList": [
          "3154"
        ],
        "dialogID": 721991744,
        "protectTime": 0.5
      }
    ],
    [
      {
        "$type": "PKKMAMONGEO",
        "type": "DIALOG",
        "aliasList": [
          "3154"
        ],
        "dialogID": 721991745,
        "protectTime": 0.5
      }
    ],
    [
      {
        "$type": "PKKMAMONGEO",
        "type": "DIALOG",
        "aliasList": [
          "3167"
        ],
        "dialogID": 721991746,
        "protectTime": 0.5
      }
    ],
    [
      {
        "$type": "PKKMAMONGEO",
        "type": "DIALOG",
        "aliasList": [
          "3154"
        ],
        "dialogID": 721991747,
        "protectTime": 0.5
      }
    ],
    [
      {
        "$type": "PKKMAMONGEO",
        "type": "DIALOG",
        "aliasList": [
          "3167"
        ],
        "dialogID": 721991748,
        "protectTime": 0.5
      }
    ],
    [
      {
        "$type": "PKKMAMONGEO",
        "type": "DIALOG",
        "aliasList": [
          "3167"
        ],
        "dialogID": 721991750,
        "protectTime": 0.5
      }
    ],
    [
      {
        "$type": "PKKMAMONGEO",
        "type": "DIALOG",
        "aliasList": [
          "3167"
        ],
        "dialogID": 721991751,
        "protectTime": 0.5
      }
    ],
    [
      {
        "$type": "PKKMAMONGEO",
        "type": "DIALOG",
        "aliasList": [
          "3167"
        ],
        "dialogID": 721991752,
        "protectTime": 0.5
      }
    ],
    [
      {
        "$type": "PKKMAMONGEO",
        "type": "DIALOG",
        "aliasList": [
          "3167"
        ],
        "dialogID": 721991753,
        "protectTime": 0.5
      }
    ],
    [
      {
        "$type": "PKKMAMONGEO",
        "type": "DIALOG",
        "aliasList": [
          "3167"
        ],
        "dialogID": 721991754,
        "protectTime": 0.5
      }
    ],
    [
      {
        "$type": "PKKMAMONGEO",
        "type": "DIALOG",
        "aliasList": [
          "3167"
        ],
        "dialogID": 721991755,
        "protectTime": 0.5
      }
    ],
    [
      {
        "$type": "PKKMAMONGEO",
        "type": "DIALOG",
        "aliasList": [
          "3167"
        ],
        "dialogID": 721991756,
        "protectTime": 0.5
      }
    ],
    [
      {
        "$type": "PKKMAMONGEO",
        "type": "DIALOG",
        "aliasList": [
          "1005"
        ],
        "dialogID": 721991757,
        "protectTime": 0.5
      }
    ],
    [
      {
        "$type": "PKKMAMONGEO",
        "type": "DIALOG",
        "aliasList": [
          "3167"
        ],
        "dialogID": 721991758,
        "protectTime": 0.5
      }
    ],
    [
      {
        "$type": "PKKMAMONGEO",
        "type": "DIALOG",
        "aliasList": [
          "3167"
        ],
        "dialogID": 721991759,
        "protectTime": 0.5
      }
    ],
    [
      {
        "$type": "PKKMAMONGEO",
        "type": "DIALOG",
        "aliasList": [
          "3154"
        ],
        "dialogID": 721991760,
        "protectTime": 0.5
      }
    ],
    [
      {
        "$type": "PKKMAMONGEO",
        "type": "DIALOG",
        "aliasList": [
          "3154"
        ],
        "dialogID": 721991761,
        "protectTime": 0.5
      }
    ],
    [
      {
        "$type": "PKKMAMONGEO",
        "type": "DIALOG",
        "aliasList": [
          "3167"
        ],
        "dialogID": 721991762,
        "protectTime": 0.5
      }
    ],
    [
      {
        "$type": "PKKMAMONGEO",
        "type": "DIALOG",
        "aliasList": [
          "3167"
        ],
        "dialogID": 721991763,
        "protectTime": 0.5
      }
    ],
    [
      {
        "$type": "PKKMAMONGEO",
        "type": "DIALOG",
        "aliasList": [
          "3167"
        ],
        "dialogID": 721991764,
        "protectTime": 0.5
      }
    ],
    [
      {
        "$type": "PKKMAMONGEO",
        "type": "DIALOG",
        "aliasList": [
          "3167"
        ],
        "dialogID": 721991765,
        "protectTime": 0.5
      }
    ],
    [
      {
        "$type": "PKKMAMONGEO",
        "type": "DIALOG",
        "aliasList": [
          "3154"
        ],
        "dialogID": 721991766,
        "protectTime": 0.5
      }
    ],
    [
      {
        "$type": "PKKMAMONGEO",
        "type": "DIALOG",
        "aliasList": [
          "3167"
        ],
        "dialogID": 721991767,
        "protectTime": 0.5
      }
    ],
    [
      {
        "$type": "PKKMAMONGEO",
        "type": "DIALOG",
        "aliasList": [
          "3167"
        ],
        "dialogID": 721991768,
        "protectTime": 0.5
      }
    ],
    [
      {
        "$type": "PKKMAMONGEO",
        "type": "DIALOG",
        "aliasList": [
          "3167"
        ],
        "dialogID": 721991769,
        "protectTime": 0.5
      }
    ],
    [
      {
        "$type": "PKKMAMONGEO",
        "type": "DIALOG",
        "aliasList": [
          "3167"
        ],
        "dialogID": 721991770,
        "protectTime": 0.5
      }
    ],
    [
      {
        "$type": "PKKMAMONGEO",
        "type": "DIALOG",
        "aliasList": [
          "3167"
        ],
        "dialogID": 721991771,
        "protectTime": 0.5
      }
    ],
    [
      {
        "$type": "PKKMAMONGEO",
        "type": "DIALOG",
        "aliasList": [
          "3167"
        ],
        "dialogID": 721991772,
        "protectTime": 0.5
      }
    ],
    [
      {
        "$type": "PKKMAMONGEO",
        "type": "DIALOG",
        "aliasList": [
          "3154"
        ],
        "dialogID": 721991773,
        "protectTime": 0.5
      }
    ],
    [
      {
        "$type": "PKKMAMONGEO",
        "type": "DIALOG",
        "aliasList": [
          "3167"
        ],
        "dialogID": 721991774,
        "protectTime": 0.5
      }
    ],
    [
      {
        "$type": "PKKMAMONGEO",
        "type": "DIALOG",
        "aliasList": [
          "3167"
        ],
        "dialogID": 721991775,
        "protectTime": 0.5
      }
    ],
    [
      {
        "$type": "PKKMAMONGEO",
        "type": "DIALOG",
        "aliasList": [
          "3167"
        ],
        "dialogID": 721991776,
        "protectTime": 0.5
      }
    ],
    [
      {
        "$type": "HDGKHDNFMIM",
        "type": "DIALOG_SELECT",
        "delayTime": 0.4000000059604645,
        "aliasList": [
          "Avatar"
        ],
        "dialogIDList": [
          721991778,
          721991779
        ],
        "grpIDList": [
          147937848,
          147937848
        ],
        "useGrpId": true
      },
      {
        "$type": "PKKMAMONGEO",
        "type": "DIALOG",
        "aliasList": [
          "3154"
        ],
        "dialogID": 721991777,
        "protectTime": 0.5
      }
    ],
    [
      {
        "$type": "PKKMAMONGEO",
        "type": "DIALOG",
        "aliasList": [
          "3167"
        ],
        "dialogID": 721991780,
        "protectTime": 0.5
      }
    ],
    [
      {
        "$type": "PKKMAMONGEO",
        "type": "DIALOG",
        "aliasList": [
          "3167"
        ],
        "dialogID": 721991781,
        "protectTime": 0.5
      }
    ],
    [
      {
        "$type": "PKKMAMONGEO",
        "type": "DIALOG",
        "aliasList": [
          "3167"
        ],
        "dialogID": 721991782,
        "protectTime": 0.5
      }
    ],
    [
      {
        "$type": "MoleMole.Config.ConfigSimpleBlackScreenAction",
        "type": "SIMPLE_BLACK_SCREEN",
        "durationToBlack": 0.5,
        "durationKeepBlack": 2.0,
        "durationFromBlack": 0.5,
        "textMapID": ""
      },
      {
        "$type": "MoleMole.Config.ConfigTimeProtectAction",
        "type": "TIME_PROTECT",
        "duration": 0.699999988079071
      },
      {
        "$type": "FABLGECDBCH",
        "type": "BODY_LANG",
        "delayTime": 0.6000000238418579,
        "aliasList": [
          "3167"
        ],
        "isContinue": true,
        "forceDoFreeStyle": true,
        "canDoRepeatFreeStyle": false,
        "eventPatternSuiteKey": "",
        "FOHHKFAIAAJ": ""
      },
      {
        "$type": "MoleMole.Config.ConfigVisibleInterAction",
        "type": "VISIBLE",
        "delayTime": 0.6093851923942566,
        "aliasList": [
          "3167"
        ],
        "_extraParam": ""
      },
      {
        "$type": "FABLGECDBCH",
        "type": "BODY_LANG",
        "delayTime": 0.6000000238418579,
        "aliasList": [
          "3154"
        ],
        "isContinue": true,
        "forceDoFreeStyle": true,
        "canDoRepeatFreeStyle": false,
        "eventPatternSuiteKey": "",
        "FOHHKFAIAAJ": ""
      },
      {
        "$type": "MoleMole.Config.ConfigVisibleInterAction",
        "type": "VISIBLE",
        "delayTime": 0.5991007685661316,
        "aliasList": [
          "3154"
        ],
        "_extraParam": ""
      },
      {
        "$type": "FABLGECDBCH",
        "type": "BODY_LANG",
        "delayTime": 0.6000000238418579,
        "aliasList": [
          "3155"
        ],
        "isContinue": true,
        "forceDoFreeStyle": true,
        "canDoRepeatFreeStyle": false,
        "eventPatternSuiteKey": "",
        "FOHHKFAIAAJ": ""
      }
    ]
  ],
  "groupId": [
    {
      "grpId": 2221529495,
      "nextGrpId": 2221529496
    },
    {
      "index": 1,
      "grpId": 2221529496,
      "nextGrpId": 2221529497
    },
    {
      "index": 2,
      "grpId": 2221529497,
      "nextGrpId": 2221529498
    },
    {
      "index": 3,
      "grpId": 2221529498,
      "nextGrpId": 2221529499
    },
    {
      "index": 4,
      "grpId": 2221529499,
      "nextGrpId": 2221529500
    },
    {
      "index": 5,
      "grpId": 2221529500,
      "nextGrpId": 2221529501
    },
    {
      "index": 6,
      "grpId": 2221529501,
      "nextGrpId": 2221529502
    },
    {
      "index": 7,
      "grpId": 2221529502,
      "nextGrpId": 2221529503
    },
    {
      "index": 8,
      "grpId": 2221529503,
      "nextGrpId": 147937657
    },
    {
      "index": 9,
      "grpId": 147937657,
      "nextGrpId": 147937658
    },
    {
      "index": 10,
      "grpId": 147937658,
      "nextGrpId": 147937659
    },
    {
      "index": 11,
      "grpId": 147937659,
      "nextGrpId": 147937660
    },
    {
      "index": 12,
      "grpId": 147937660,
      "nextGrpId": 147937661
    },
    {
      "index": 13,
      "grpId": 147937661,
      "nextGrpId": 147937662
    },
    {
      "index": 14,
      "grpId": 147937662,
      "nextGrpId": 147937663
    },
    {
      "index": 15,
      "grpId": 147937663,
      "nextGrpId": 147937664
    },
    {
      "index": 16,
      "grpId": 147937664,
      "nextGrpId": 147937665
    },
    {
      "index": 17,
      "grpId": 147937665,
      "nextGrpId": 147937666
    },
    {
      "index": 18,
      "grpId": 147937666,
      "nextGrpId": 147937688
    },
    {
      "index": 19,
      "grpId": 147937688,
      "nextGrpId": 147937689
    },
    {
      "index": 20,
      "grpId": 147937689,
      "nextGrpId": 147937690
    },
    {
      "index": 21,
      "grpId": 147937690,
      "nextGrpId": 147937691
    },
    {
      "index": 22,
      "grpId": 147937691,
      "nextGrpId": 147937692
    },
    {
      "index": 23,
      "grpId": 147937692,
      "nextGrpId": 147937693
    },
    {
      "index": 24,
      "grpId": 147937693,
      "nextGrpId": 147937694
    },
    {
      "index": 25,
      "grpId": 147937694,
      "nextGrpId": 147937695
    },
    {
      "index": 26,
      "grpId": 147937695,
      "nextGrpId": 147937696
    },
    {
      "index": 27,
      "grpId": 147937696,
      "nextGrpId": 147937697
    },
    {
      "index": 28,
      "grpId": 147937697,
      "nextGrpId": 147937719
    },
    {
      "index": 29,
      "grpId": 147937719,
      "nextGrpId": 147937720
    },
    {
      "index": 30,
      "grpId": 147937720,
      "nextGrpId": 147937721
    },
    {
      "index": 31,
      "grpId": 147937721,
      "nextGrpId": 147937722
    },
    {
      "index": 32,
      "grpId": 147937722,
      "nextGrpId": 147937723
    },
    {
      "index": 33,
      "grpId": 147937723,
      "nextGrpId": 147937724
    },
    {
      "index": 34,
      "grpId": 147937724,
      "nextGrpId": 147937725
    },
    {
      "index": 35,
      "grpId": 147937725,
      "nextGrpId": 147937726
    },
    {
      "index": 36,
      "grpId": 147937726,
      "nextGrpId": 147937727
    },
    {
      "index": 37,
      "grpId": 147937727,
      "nextGrpId": 147937728
    },
    {
      "index": 38,
      "grpId": 147937728,
      "nextGrpId": 147937750
    },
    {
      "index": 39,
      "grpId": 147937750,
      "nextGrpId": 147937751
    },
    {
      "index": 40,
      "grpId": 147937751,
      "nextGrpId": 147937752
    },
    {
      "index": 41,
      "grpId": 147937752,
      "nextGrpId": 147937753
    },
    {
      "index": 42,
      "grpId": 147937753,
      "nextGrpId": 147937754
    },
    {
      "index": 43,
      "grpId": 147937754,
      "nextGrpId": 147937755
    },
    {
      "index": 44,
      "grpId": 147937755,
      "nextGrpId": 147937756
    },
    {
      "index": 45,
      "grpId": 147937756,
      "nextGrpId": 147937790
    },
    {
      "index": 46,
      "grpId": 147937757,
      "nextGrpId": 147937758
    },
    {
      "index": 47,
      "grpId": 147937758,
      "nextGrpId": 147937759
    },
    {
      "index": 48,
      "grpId": 147937759,
      "nextGrpId": 147937781
    },
    {
      "index": 49,
      "grpId": 147937781,
      "nextGrpId": 147937782
    },
    {
      "index": 50,
      "grpId": 147937782,
      "nextGrpId": 147937783
    },
    {
      "index": 51,
      "grpId": 147937783,
      "nextGrpId": 147937784
    },
    {
      "index": 52,
      "grpId": 147937784,
      "nextGrpId": 147937785
    },
    {
      "index": 53,
      "grpId": 147937785,
      "nextGrpId": 147937786
    },
    {
      "index": 54,
      "grpId": 147937786,
      "nextGrpId": 147937787
    },
    {
      "index": 55,
      "grpId": 147937787,
      "nextGrpId": 147937788
    },
    {
      "index": 56,
      "grpId": 147937788,
      "nextGrpId": 147937789
    },
    {
      "index": 57,
      "grpId": 147937789,
      "nextGrpId": 147937790
    },
    {
      "index": 58,
      "grpId": 147937790,
      "nextGrpId": 147937812
    },
    {
      "index": 59,
      "grpId": 147937812,
      "nextGrpId": 147937813
    },
    {
      "index": 60,
      "grpId": 147937813,
      "nextGrpId": 147937814
    },
    {
      "index": 61,
      "grpId": 147937814,
      "nextGrpId": 147937815
    },
    {
      "index": 62,
      "grpId": 147937815,
      "nextGrpId": 147937816
    },
    {
      "index": 63,
      "grpId": 147937816,
      "nextGrpId": 147937817
    },
    {
      "index": 64,
      "grpId": 147937817,
      "nextGrpId": 147937818
    },
    {
      "index": 65,
      "grpId": 147937818,
      "nextGrpId": 147937819
    },
    {
      "index": 66,
      "grpId": 147937819,
      "nextGrpId": 147937820
    },
    {
      "index": 67,
      "grpId": 147937820,
      "nextGrpId": 147937821
    },
    {
      "index": 68,
      "grpId": 147937821,
      "nextGrpId": 147937843
    },
    {
      "index": 69,
      "grpId": 147937843,
      "nextGrpId": 147937844
    },
    {
      "index": 70,
      "grpId": 147937844,
      "nextGrpId": 147937845
    },
    {
      "index": 71,
      "grpId": 147937845,
      "nextGrpId": 147937846
    },
    {
      "index": 72,
      "grpId": 147937846,
      "nextGrpId": 147937847
    },
    {
      "index": 73,
      "grpId": 147937847,
      "nextGrpId": 147937848
    },
    {
      "index": 74,
      "grpId": 147937848,
      "nextGrpId": 147937849
    },
    {
      "index": 75,
      "grpId": 147937849,
      "nextGrpId": 147937850
    },
    {
      "index": 76,
      "grpId": 147937850,
      "nextGrpId": 147937851
    },
    {
      "index": 77,
      "grpId": 147937851,
      "nextGrpId": 147937852
    }
  ],
  "freeStyleDic": {
    "3167": [],
    "3154": [],
    "3155": [
      1050,
      1130,
      1040,
      1160
    ]
  }
}