{
  "luaDataPath": "",
  "isSimpleTalk": true,
  "entityBan": "",
  "disableNpcLod": true,
  "startFade": {
    "startFadeOutDuration": 0.0
  },
  "endFade": {
    "startFadeOutDuration": 0.0
  },
  "actors": [
    {
      "alias": "Avatar",
      "visible": true,
      "bornPointName": "",
      "relativePosNpcAlias": "",
      "_bindMovingTargetKey": ""
    },
    {
      "configID": 3167,
      "alias": "3167",
      "visible": true,
      "bornPointName": "",
      "relativePosNpcAlias": "",
      "_bindMovingTargetKey": ""
    },
    {
      "configID": 1005,
      "alias": "1005",
      "visible": true,
      "bornPointName": "Q72199MuraPaimon",
      "removeActorType": "REMOVE_WITH_DISAPPEAR",
      "relativePosNpcAlias": "",
      "_bindMovingTargetKey": ""
    }
  ],
  "group": [
    [
      {
        "$type": "FJKIHHKJLMJ",
        "type": "CAMERA_FOCUS",
        "delayTime": 0.30000001192092896,
        "duration": 0.10000000149011612,
        "targetNpcAlias": "",
        "KJOEFBPOIIH": "",
        "IICFKKEBIEC": "",
        "EGEHEJEBLBJ": ""
      },
      {
        "$type": "MoleMole.Config.ConfigTimeProtectAction",
        "type": "TIME_PROTECT",
        "duration": 0.4000000059604645
      },
      {
        "$type": "LLGANGLOEEO",
        "type": "STEER_TO",
        "delayTime": 0.30000001192092896,
        "duration": 0.800000011920929,
        "aliasList": [
          "3167"
        ],
        "steerType": "TO_LOCAL_AVATAR_ADVANCED",
        "useSteerAnim": true,
        "interruptFreestyle": true,
        "forceSteer": true,
        "targetNpcAlias": "",
        "OAFJBHJHLJG": ""
      }
    ],
    [
      {
        "$type": "PKKMAMONGEO",
        "type": "DIALOG",
        "aliasList": [
          "3167"
        ],
        "dialogID": 721992002,
        "protectTime": 0.5
      }
    ],
    [
      {
        "$type": "PKKMAMONGEO",
        "type": "DIALOG",
        "aliasList": [
          "3167"
        ],
        "dialogID": 721992003,
        "protectTime": 0.5
      }
    ],
    [
      {
        "$type": "PKKMAMONGEO",
        "type": "DIALOG",
        "aliasList": [
          "3167"
        ],
        "dialogID": 721992004,
        "protectTime": 0.5
      }
    ],
    [
      {
        "$type": "PKKMAMONGEO",
        "type": "DIALOG",
        "aliasList": [
          "3167"
        ],
        "dialogID": 721992005,
        "protectTime": 0.5
      }
    ],
    [
      {
        "$type": "PKKMAMONGEO",
        "type": "DIALOG",
        "aliasList": [
          "3167"
        ],
        "dialogID": 721992006,
        "protectTime": 0.5
      }
    ],
    [
      {
        "$type": "PKKMAMONGEO",
        "type": "DIALOG",
        "aliasList": [
          "3167"
        ],
        "dialogID": 721992007,
        "protectTime": 0.5
      }
    ],
    [
      {
        "$type": "PKKMAMONGEO",
        "type": "DIALOG",
        "aliasList": [
          "3167"
        ],
        "dialogID": 721992008,
        "protectTime": 0.5
      }
    ],
    [
      {
        "$type": "PKKMAMONGEO",
        "type": "DIALOG",
        "aliasList": [
          "3167"
        ],
        "dialogID": 721992009,
        "protectTime": 0.5
      }
    ],
    [
      {
        "$type": "PKKMAMONGEO",
        "type": "DIALOG",
        "aliasList": [
          "3167"
        ],
        "dialogID": 721992010,
        "protectTime": 0.5
      }
    ],
    [
      {
        "$type": "PKKMAMONGEO",
        "type": "DIALOG",
        "aliasList": [
          "3167"
        ],
        "dialogID": 721992011,
        "protectTime": 0.5
      }
    ],
    [
      {
        "$type": "PKKMAMONGEO",
        "type": "DIALOG",
        "aliasList": [
          "3167"
        ],
        "dialogID": 721992012,
        "protectTime": 0.5
      }
    ],
    [
      {
        "$type": "PKKMAMONGEO",
        "type": "DIALOG",
        "aliasList": [
          "3167"
        ],
        "dialogID": 721992013,
        "protectTime": 0.5
      }
    ],
    [
      {
        "$type": "MoleMole.Config.ConfigTimeProtectAction",
        "type": "TIME_PROTECT",
        "duration": 0.10000000149011612
      },
      {
        "$type": "FABLGECDBCH",
        "type": "BODY_LANG",
        "aliasList": [
          "3167"
        ],
        "isContinue": true,
        "forceDoFreeStyle": true,
        "canDoRepeatFreeStyle": false,
        "eventPatternSuiteKey": "",
        "FOHHKFAIAAJ": ""
      }
    ]
  ],
  "groupId": [
    {
      "grpId": 2221552559,
      "nextGrpId": 2221552560
    },
    {
      "index": 1,
      "grpId": 2221552560,
      "nextGrpId": 2221552561
    },
    {
      "index": 2,
      "grpId": 2221552561,
      "nextGrpId": 2221552562
    },
    {
      "index": 3,
      "grpId": 2221552562,
      "nextGrpId": 2221552563
    },
    {
      "index": 4,
      "grpId": 2221552563,
      "nextGrpId": 2221552564
    },
    {
      "index": 5,
      "grpId": 2221552564,
      "nextGrpId": 2221552565
    },
    {
      "index": 6,
      "grpId": 2221552565,
      "nextGrpId": 2221552566
    },
    {
      "index": 7,
      "grpId": 2221552566,
      "nextGrpId": 2221552567
    },
    {
      "index": 8,
      "grpId": 2221552567,
      "nextGrpId": 148652641
    },
    {
      "index": 9,
      "grpId": 148652641,
      "nextGrpId": 148652642
    },
    {
      "index": 10,
      "grpId": 148652642,
      "nextGrpId": 148652643
    },
    {
      "index": 11,
      "grpId": 148652643,
      "nextGrpId": 148652644
    },
    {
      "index": 12,
      "grpId": 148652644,
      "nextGrpId": 148652645
    },
    {
      "index": 13,
      "grpId": 148652645,
      "nextGrpId": 148652646
    }
  ],
  "freeStyleDic": {
    "3167": []
  }
}