{
  "luaDataPath": "",
  "startBlackKeepTime": 0.5,
  "entityBan": "",
  "disableNpcLod": true,
  "protectNpcMobileLod": true,
  "entityBanSetting": [
    {
      "isBlack": true,
      "entityType": "NPC",
      "entityIds": [
        4065
      ]
    }
  ],
  "talkFlag": 7,
  "startFade": {
    "startFadeInDuration": 0.5,
    "startFadeOutDuration": 0.5
  },
  "endFade": {
    "startFadeOutDuration": 0.0
  },
  "actors": [
    {
      "alias": "Avatar",
      "visible": true,
      "bornPointName": "",
      "relativePosType": "AVATAR_NEW",
      "relativePosNpcAlias": "",
      "_notDestroyInTalk": true,
      "_bindMovingTargetKey": ""
    },
    {
      "configID": 30591,
      "alias": "30591",
      "visible": true,
      "bornPointName": "[3_330201559:-406.594,239.889,2810.033,0.000,185.798,0.000]",
      "forceCreateDaily": true,
      "relativePosType": "AVATAR_NEW",
      "relativePosNpcAlias": "",
      "_notDestroyInTalk": true,
      "_bindMovingTargetKey": ""
    },
    {
      "configID": 30626,
      "alias": "30626",
      "visible": true,
      "bornPointName": "[3_330201563:-403.063,239.813,2811.722,0.000,216.799,0.000]",
      "removeActorType": "NEW_REMOVE",
      "forceCreateDaily": true,
      "relativePosType": "AVATAR_NEW",
      "relativePosNpcAlias": "",
      "_notDestroyInTalk": true,
      "_bindMovingTargetKey": ""
    },
    {
      "configID": 30647,
      "alias": "30647",
      "visible": true,
      "bornPointName": "",
      "forceCreateDaily": true,
      "relativePosType": "AVATAR_NEW",
      "relativePosNpcAlias": "",
      "_notDestroyInTalk": true,
      "_bindMovingTargetKey": ""
    },
    {
      "configID": 30646,
      "alias": "30646",
      "visible": true,
      "bornPointName": "",
      "forceCreateDaily": true,
      "relativePosType": "AVATAR_NEW",
      "relativePosNpcAlias": "",
      "_notDestroyInTalk": true,
      "_bindMovingTargetKey": ""
    },
    {
      "configID": 30648,
      "alias": "30648",
      "visible": true,
      "bornPointName": "",
      "forceCreateDaily": true,
      "relativePosType": "AVATAR_NEW",
      "relativePosNpcAlias": "",
      "_notDestroyInTalk": true,
      "_bindMovingTargetKey": ""
    }
  ],
  "group": [
    [
      {
        "$type": "KMKDFCOPMLP",
        "type": "LOOK_AT",
        "aliasList": [
          "30626"
        ],
        "actionId": 140,
        "_flag": 64,
        "enableHead": true,
        "headRotateVec": {
          "y": 66.04000091552734
        },
        "headTurnTime": 0.5,
        "targetNpcAlias": "",
        "lookAtTargetType": "NONE",
        "openBackProtect": true,
        "backProtectAngle": 10.0,
        "targetNpcLookAtPoint": "",
        "APKIBBLJLON": ""
      },
      {
        "$type": "KMKDFCOPMLP",
        "type": "LOOK_AT",
        "aliasList": [
          "30591"
        ],
        "actionId": 144,
        "_flag": 64,
        "enableHead": true,
        "useTargetPos": true,
        "enableAbsolute": true,
        "targetPosition": {
          "x": -404.5530090332031,
          "y": 240.49000549316406,
          "z": 2809.52392578125
        },
        "headTurnTime": 0.5,
        "targetNpcAlias": "",
        "lookAtTargetType": "NONE",
        "openBackProtect": true,
        "backProtectAngle": 10.0,
        "targetNpcLookAtPoint": "",
        "APKIBBLJLON": ""
      },
      {
        "$type": "MoleMole.Config.ConfigTeleportToAction",
        "type": "TELEPORT_TO",
        "aliasList": [
          "30626"
        ],
        "actionId": 215,
        "position": {
          "x": -399.0050048828125,
          "y": 239.83099365234375,
          "z": 2820.43798828125
        },
        "forward": {
          "x": -4.5929999351501465,
          "y": -0.01899999938905239,
          "z": -5.763000011444092
        },
        "openLongDisTeleport": true,
        "syncForward": true,
        "_posBindMovingTargetKey": "",
        "_forwardBindMovingTargetKey": ""
      },
      {
        "$type": "AHHBJGEHACH",
        "type": "BODY_LANG",
        "aliasList": [
          "30626"
        ],
        "actionId": 216,
        "_flag": 131072,
        "isContinue": true,
        "forceDoFreeStyle": true,
        "canDoRepeatFreeStyle": false,
        "cantBackToIdleWhenSitLoop": true,
        "eventPatternSuiteKey": ""
      },
      {
        "$type": "MoleMole.Config.ConfigTeleportToAction",
        "type": "TELEPORT_TO",
        "aliasList": [
          "30591"
        ],
        "actionId": 220,
        "_flag": 4,
        "position": {
          "x": -404.20001220703125,
          "y": 239.81300354003906,
          "z": 2811.14697265625
        },
        "forward": {
          "x": -0.8880000114440918,
          "z": -1.7120000123977661
        },
        "openLongDisTeleport": true,
        "syncForward": true,
        "_posBindMovingTargetKey": "",
        "_forwardBindMovingTargetKey": ""
      },
      {
        "$type": "MoleMole.Config.ConfigTeleportToAction",
        "type": "TELEPORT_TO",
        "aliasList": [
          "Avatar"
        ],
        "actionId": 221,
        "position": {
          "x": -405.697998046875,
          "y": 239.81300354003906,
          "z": 2811.06005859375
        },
        "forward": {
          "x": 0.4749999940395355,
          "z": -1.149999976158142
        },
        "openLongDisTeleport": true,
        "syncForward": true,
        "_posBindMovingTargetKey": "",
        "_forwardBindMovingTargetKey": ""
      },
      {
        "$type": "MoleMole.Config.ConfigVisibleInterAction",
        "type": "VISIBLE",
        "aliasList": [
          "Avatar"
        ],
        "actionId": 233,
        "_extraParam": ""
      },
      {
        "$type": "AHHBJGEHACH",
        "type": "BODY_LANG",
        "aliasList": [
          "30591"
        ],
        "actionId": 236,
        "_flag": 131072,
        "isContinue": true,
        "forceDoFreeStyle": true,
        "canDoRepeatFreeStyle": false,
        "cantBackToIdleWhenSitLoop": true,
        "eventPatternSuiteKey": ""
      },
      {
        "$type": "MoleMole.Config.ConfigVisibleInterAction",
        "type": "VISIBLE",
        "aliasList": [
          "30626"
        ],
        "actionId": 374,
        "isVisible": true,
        "_extraParam": ""
      },
      {
        "$type": "MoleMole.Config.ConfigTimeProtectAction",
        "type": "TIME_PROTECT",
        "duration": 1.0,
        "actionId": 382
      },
      {
        "$type": "MoleMole.Config.ConfigBlackScreenAction",
        "type": "BLACK_SCREEN",
        "duration": 1.0,
        "actionId": 383,
        "_flag": 2048,
        "blackScreenType": "KEEP_BLACK",
        "durationToBlack": 0.5,
        "durationKeepBlack": 1.0,
        "durationFromBlack": 0.5,
        "inteePos": "",
        "textMapID": "",
        "useTextFade": true,
        "showClickBtnDelayTime": 0.5,
        "waitClickBtnTipTime": 0.5,
        "_changeAudioState": true
      },
      {
        "$type": "MoleMole.Config.ConfigTeleportToAction",
        "type": "TELEPORT_TO",
        "aliasList": [
          "30647"
        ],
        "actionId": 440,
        "position": {
          "x": -404.1780090332031,
          "y": 239.83099365234375,
          "z": 2808.991943359375
        },
        "forward": {
          "x": -0.6759999990463257,
          "z": 0.9539999961853027
        },
        "openLongDisTeleport": true,
        "syncForward": true,
        "_posBindMovingTargetKey": "",
        "_forwardBindMovingTargetKey": ""
      },
      {
        "$type": "AHHBJGEHACH",
        "type": "BODY_LANG",
        "aliasList": [
          "30647"
        ],
        "actionId": 441,
        "_flag": 131072,
        "isContinue": true,
        "forceDoFreeStyle": true,
        "canDoRepeatFreeStyle": false,
        "cantBackToIdleWhenSitLoop": true,
        "eventPatternSuiteKey": ""
      },
      {
        "$type": "MoleMole.Config.ConfigTeleportToAction",
        "type": "TELEPORT_TO",
        "aliasList": [
          "30646"
        ],
        "actionId": 455,
        "position": {
          "x": -406.1650085449219,
          "y": 239.81300354003906,
          "z": 2809.764892578125
        },
        "forward": {
          "x": 1.2589999437332153,
          "z": 1.0
        },
        "openLongDisTeleport": true,
        "syncForward": true,
        "_posBindMovingTargetKey": "",
        "_forwardBindMovingTargetKey": ""
      },
      {
        "$type": "AHHBJGEHACH",
        "type": "BODY_LANG",
        "aliasList": [
          "30646"
        ],
        "actionId": 456,
        "_flag": 131072,
        "isContinue": true,
        "forceDoFreeStyle": true,
        "canDoRepeatFreeStyle": false,
        "cantBackToIdleWhenSitLoop": true,
        "eventPatternSuiteKey": ""
      },
      {
        "$type": "MoleMole.Config.ConfigTeleportToAction",
        "type": "TELEPORT_TO",
        "aliasList": [
          "30648"
        ],
        "actionId": 474,
        "position": {
          "x": -405.3030090332031,
          "y": 239.83099365234375,
          "z": 2808.64990234375
        },
        "forward": {
          "x": 0.4729999899864197,
          "z": 1.2079999446868896
        },
        "openLongDisTeleport": true,
        "syncForward": true,
        "_posBindMovingTargetKey": "",
        "_forwardBindMovingTargetKey": ""
      },
      {
        "$type": "AHHBJGEHACH",
        "type": "BODY_LANG",
        "aliasList": [
          "30648"
        ],
        "actionId": 475,
        "_flag": 131072,
        "isContinue": true,
        "forceDoFreeStyle": true,
        "canDoRepeatFreeStyle": false,
        "cantBackToIdleWhenSitLoop": true,
        "eventPatternSuiteKey": ""
      }
    ],
    [
      {
        "$type": "KMKDFCOPMLP",
        "type": "LOOK_AT",
        "delayTime": 0.18299999833106995,
        "aliasList": [
          "30591"
        ],
        "actionId": 148,
        "_flag": 64,
        "enableHead": true,
        "headTurnTime": 0.5,
        "targetNpcAlias": "30647",
        "openBackProtect": true,
        "backProtectAngle": 10.0,
        "targetNpcLookAtPoint": "",
        "APKIBBLJLON": ""
      },
      {
        "$type": "DNOIKEDAKBN",
        "type": "CAMERA_MOVE",
        "duration": 0.5,
        "actionId": 212,
        "camPosOffset": {
          "x": -385.8340148925781,
          "y": 243.11300659179688,
          "z": 2792.131103515625
        },
        "camForwardTargetOffset": {
          "x": -386.5350036621094,
          "y": 243.15499877929688,
          "z": 2792.843017578125
        },
        "camFov": 35.0,
        "lerpPattern": 6,
        "cameraBlendType": "EaseOutQuad",
        "needZAxisRotate": true,
        "openCameraDither": false,
        "targetNpcAlias": "",
        "closeTreeLeafDither": true,
        "FPHOLHODOFL": "",
        "JOAEMNHLBAH": "",
        "DMBMJMEHOBJ": "",
        "cutFrameTrans": {
          "_elevMinValue": -50.0,
          "_elevMaxValue": 50.0,
          "_poleMinValue": -50.0,
          "_poleMaxValue": 50.0
        }
      },
      {
        "$type": "DNOIKEDAKBN",
        "type": "CAMERA_MOVE",
        "delayTime": 0.10000000149011612,
        "duration": 12.0,
        "actionId": 223,
        "camPosOffset": {
          "x": -385.739990234375,
          "y": 243.16099548339844,
          "z": 2792.22509765625
        },
        "camForwardTargetOffset": {
          "x": -386.4460144042969,
          "y": 243.15199279785156,
          "z": 2792.93310546875
        },
        "camFov": 35.0,
        "cameraBlendType": "EaseOutQuad",
        "needZAxisRotate": true,
        "openCameraDither": false,
        "targetNpcAlias": "",
        "closeTreeLeafDither": true,
        "FPHOLHODOFL": "",
        "JOAEMNHLBAH": "",
        "DMBMJMEHOBJ": "",
        "cutFrameTrans": {
          "_elevMinValue": -50.0,
          "_elevMaxValue": 50.0,
          "_poleMinValue": -50.0,
          "_poleMaxValue": 50.0
        }
      },
      {
        "$type": "MoleMole.Config.ConfigBlackScreenAction",
        "type": "BLACK_SCREEN",
        "duration": 0.5,
        "actionId": 384,
        "_flag": 2048,
        "blackScreenType": "FROM_BLACK",
        "durationToBlack": 0.5,
        "durationKeepBlack": 0.5,
        "durationFromBlack": 0.5,
        "inteePos": "",
        "textMapID": "",
        "useTextFade": true,
        "showClickBtnDelayTime": 0.5,
        "waitClickBtnTipTime": 0.5,
        "_changeAudioState": true
      },
      {
        "$type": "MoleMole.Config.ConfigMoveToAction",
        "type": "MOVE_TO",
        "delayTime": 0.10000000149011612,
        "aliasList": [
          "30626"
        ],
        "actionId": 401,
        "moveType": "RUN",
        "routeList": [
          {
            "x": -394.9339904785156,
            "y": 238.0919952392578,
            "z": 2817.885009765625
          }
        ],
        "exactlyMove": true,
        "closeNavMesh": true,
        "openSetPos": true,
        "_bindMovingTargetKey": "",
        "_delayTriggerNextTime": 0.30000001192092896
      },
      {
        "$type": "MoleMole.Config.ConfigTeleportToAction",
        "type": "TELEPORT_TO",
        "aliasList": [
          "30626"
        ],
        "actionId": 406,
        "position": {
          "x": -392.2640075683594,
          "y": 237.156005859375,
          "z": 2816.881103515625
        },
        "forward": {
          "x": -4.2829999923706055,
          "y": 0.9359999895095825,
          "z": 1.718000054359436
        },
        "openLongDisTeleport": true,
        "syncForward": true,
        "_posBindMovingTargetKey": "",
        "_forwardBindMovingTargetKey": ""
      },
      {
        "$type": "MoleMole.Config.ConfigSetModelTransform",
        "type": "SET_MODEL_TRANSFORM",
        "duration": 1.0,
        "aliasList": [
          "30626"
        ],
        "actionId": 407,
        "_flag": 1024,
        "oprCode": 1,
        "_targetEulerAngle": {
          "x": -20.0
        }
      },
      {
        "$type": "MFLLBDNLNBG",
        "type": "STEER_TO",
        "delayTime": 0.6520000100135803,
        "duration": 1.0,
        "aliasList": [
          "30646"
        ],
        "actionId": 457,
        "_flag": 32,
        "steerType": "ABSOLUTE",
        "steerDir": {
          "x": -404.58599853515625,
          "y": 239.88900756835938,
          "z": 2809.322021484375
        },
        "targetNpcAlias": "",
        "ignoreY": true,
        "fixInterNull": true,
        "advancedMaxSteerAngle": 150.0,
        "advancedMinSteerAngle": 40.0,
        "APKIBBLJLON": ""
      },
      {
        "$type": "NDPINFEKFAN",
        "type": "DIALOG",
        "aliasList": [
          "30647"
        ],
        "actionId": 496,
        "dialogID": 401651901,
        "protectTime": 2.5
      }
    ],
    [
      {
        "$type": "MoleMole.Config.ConfigMoveToAction",
        "type": "MOVE_TO",
        "aliasList": [
          "30626"
        ],
        "actionId": 404,
        "moveType": "RUN",
        "routeList": [
          {
            "x": -397.98199462890625,
            "y": 239.3509979248047,
            "z": 2818.6689453125
          }
        ],
        "exactlyMove": true,
        "closeNavMesh": true,
        "openSetPos": true,
        "_bindMovingTargetKey": "",
        "_delayTriggerNextTime": 0.30000001192092896
      },
      {
        "$type": "MoleMole.Config.ConfigTimeProtectAction",
        "type": "TIME_PROTECT",
        "duration": 1.5,
        "actionId": 408
      }
    ],
    [
      {
        "$type": "KMKDFCOPMLP",
        "type": "LOOK_AT",
        "delayTime": 0.18299999833106995,
        "aliasList": [
          "30591"
        ],
        "actionId": 153,
        "_flag": 64,
        "enableHead": true,
        "headTurnTime": 0.5,
        "targetNpcAlias": "30646",
        "openBackProtect": true,
        "backProtectAngle": 10.0,
        "targetNpcLookAtPoint": "",
        "APKIBBLJLON": ""
      },
      {
        "$type": "DNOIKEDAKBN",
        "type": "CAMERA_MOVE",
        "duration": 0.5,
        "actionId": 222,
        "camPosOffset": {
          "x": -397.6390075683594,
          "y": 240.28500366210938,
          "z": 2814.72705078125
        },
        "camForwardTargetOffset": {
          "x": -398.427001953125,
          "y": 240.3280029296875,
          "z": 2814.113037109375
        },
        "camFov": 30.0,
        "lerpPattern": 6,
        "cameraBlendType": "EaseInOutCubic",
        "needZAxisRotate": true,
        "openCameraDither": false,
        "targetNpcAlias": "",
        "closeTreeLeafDither": true,
        "FPHOLHODOFL": "",
        "JOAEMNHLBAH": "",
        "DMBMJMEHOBJ": "",
        "cutFrameTrans": {
          "_elevMinValue": -50.0,
          "_elevMaxValue": 50.0,
          "_poleMinValue": -50.0,
          "_poleMaxValue": 50.0
        }
      },
      {
        "$type": "MoleMole.Config.ConfigTeleportToAction",
        "type": "TELEPORT_TO",
        "aliasList": [
          "30591"
        ],
        "actionId": 248,
        "position": {
          "x": -404.3059997558594,
          "y": 239.81300354003906,
          "z": 2811.39306640625
        },
        "forward": {
          "x": -0.8880000114440918,
          "z": -1.7120000123977661
        },
        "openLongDisTeleport": true,
        "syncForward": true,
        "_posBindMovingTargetKey": "",
        "_forwardBindMovingTargetKey": ""
      },
      {
        "$type": "DNOIKEDAKBN",
        "type": "CAMERA_MOVE",
        "delayTime": 4.5,
        "duration": 0.5,
        "actionId": 250,
        "camPosOffset": {
          "x": -404.8630065917969,
          "y": 240.2209930419922,
          "z": 2809.966064453125
        },
        "camForwardTargetOffset": {
          "x": -405.74200439453125,
          "y": 240.05799865722656,
          "z": 2809.51904296875
        },
        "camFov": 20.0,
        "lerpPattern": 6,
        "cameraBlendType": "EaseInOutCubic",
        "needZAxisRotate": true,
        "openCameraDither": false,
        "targetNpcAlias": "",
        "closeTreeLeafDither": true,
        "FPHOLHODOFL": "",
        "JOAEMNHLBAH": "",
        "DMBMJMEHOBJ": "",
        "cutFrameTrans": {
          "_elevMinValue": -50.0,
          "_elevMaxValue": 50.0,
          "_poleMinValue": -50.0,
          "_poleMaxValue": 50.0
        }
      },
      {
        "$type": "MoleMole.Config.ConfigTeleportToAction",
        "type": "TELEPORT_TO",
        "aliasList": [
          "30626"
        ],
        "actionId": 252,
        "_flag": 4,
        "position": {
          "x": -401.8450012207031,
          "y": 239.83099365234375,
          "z": 2818.028076171875
        },
        "forward": {
          "x": -0.6940000057220459,
          "z": -1.4249999523162842
        },
        "openLongDisTeleport": true,
        "syncForward": true,
        "_posBindMovingTargetKey": "",
        "_forwardBindMovingTargetKey": ""
      },
      {
        "$type": "KMKDFCOPMLP",
        "type": "LOOK_AT",
        "aliasList": [
          "30626"
        ],
        "actionId": 253,
        "_flag": 64,
        "headTurnTime": 0.5,
        "targetNpcAlias": "",
        "openBackProtect": true,
        "backProtectAngle": 10.0,
        "targetNpcLookAtPoint": "",
        "APKIBBLJLON": ""
      },
      {
        "$type": "DNOIKEDAKBN",
        "type": "CAMERA_MOVE",
        "delayTime": 0.10000000149011612,
        "duration": 4.5279998779296875,
        "actionId": 340,
        "camPosOffset": {
          "x": -397.72100830078125,
          "y": 240.3979949951172,
          "z": 2814.840087890625
        },
        "camForwardTargetOffset": {
          "x": -398.5090026855469,
          "y": 240.4409942626953,
          "z": 2814.22607421875
        },
        "camFov": 30.0,
        "cameraBlendType": "Linear",
        "needZAxisRotate": true,
        "openCameraDither": false,
        "targetNpcAlias": "",
        "closeTreeLeafDither": true,
        "FPHOLHODOFL": "",
        "JOAEMNHLBAH": "",
        "DMBMJMEHOBJ": "",
        "cutFrameTrans": {
          "_elevMinValue": -50.0,
          "_elevMaxValue": 50.0,
          "_poleMinValue": -50.0,
          "_poleMaxValue": 50.0
        }
      },
      {
        "$type": "DNOIKEDAKBN",
        "type": "CAMERA_MOVE",
        "delayTime": 7.081999778747559,
        "duration": 0.5,
        "actionId": 341,
        "camPosOffset": {
          "x": -405.1419982910156,
          "y": 240.18800354003906,
          "z": 2809.794921875
        },
        "camForwardTargetOffset": {
          "x": -406.02099609375,
          "y": 240.02499389648438,
          "z": 2809.347900390625
        },
        "camFov": 20.0,
        "cameraBlendType": "EaseInOutQuad",
        "needZAxisRotate": true,
        "openCameraDither": false,
        "targetNpcAlias": "",
        "closeTreeLeafDither": true,
        "FPHOLHODOFL": "",
        "JOAEMNHLBAH": "",
        "DMBMJMEHOBJ": "",
        "cutFrameTrans": {
          "_elevMinValue": -50.0,
          "_elevMaxValue": 50.0,
          "_poleMinValue": -50.0,
          "_poleMaxValue": 50.0
        }
      },
      {
        "$type": "DNOIKEDAKBN",
        "type": "CAMERA_MOVE",
        "delayTime": 4.599999904632568,
        "duration": 2.5999999046325684,
        "actionId": 342,
        "camPosOffset": {
          "x": -404.93499755859375,
          "y": 240.20799255371094,
          "z": 2809.929931640625
        },
        "camForwardTargetOffset": {
          "x": -405.8139953613281,
          "y": 240.04400634765625,
          "z": 2809.48291015625
        },
        "camFov": 20.0,
        "cameraBlendType": "Linear",
        "needZAxisRotate": true,
        "openCameraDither": false,
        "targetNpcAlias": "",
        "closeTreeLeafDither": true,
        "FPHOLHODOFL": "",
        "JOAEMNHLBAH": "",
        "DMBMJMEHOBJ": "",
        "cutFrameTrans": {
          "_elevMinValue": -50.0,
          "_elevMaxValue": 50.0,
          "_poleMinValue": -50.0,
          "_poleMaxValue": 50.0
        }
      },
      {
        "$type": "MoleMole.Config.ConfigTeleportToAction",
        "type": "TELEPORT_TO",
        "aliasList": [
          "30647"
        ],
        "actionId": 446,
        "position": {
          "x": -404.1780090332031,
          "y": 239.83099365234375,
          "z": 2808.991943359375
        },
        "forward": {
          "x": -0.6759999990463257,
          "z": 0.9539999961853027
        },
        "openLongDisTeleport": true,
        "syncForward": true,
        "_posBindMovingTargetKey": "",
        "_forwardBindMovingTargetKey": ""
      },
      {
        "$type": "AHHBJGEHACH",
        "type": "BODY_LANG",
        "aliasList": [
          "30646"
        ],
        "actionId": 467,
        "_flag": 131072,
        "isContinue": true,
        "forceDoFreeStyle": true,
        "canDoRepeatFreeStyle": false,
        "cantBackToIdleWhenSitLoop": true,
        "eventPatternSuiteKey": ""
      },
      {
        "$type": "AHHBJGEHACH",
        "type": "BODY_LANG",
        "delayTime": 0.6779999732971191,
        "aliasList": [
          "30646"
        ],
        "actionId": 468,
        "_flag": 131072,
        "bodyLangParam": 1,
        "forceDoFreeStyle": true,
        "canDoRepeatFreeStyle": false,
        "cantBackToIdleWhenSitLoop": true,
        "eventPatternSuiteKey": ""
      },
      {
        "$type": "MFLLBDNLNBG",
        "type": "STEER_TO",
        "delayTime": 0.6520000100135803,
        "duration": 1.0,
        "aliasList": [
          "30646"
        ],
        "actionId": 469,
        "_flag": 32,
        "steerType": "ABSOLUTE",
        "steerDir": {
          "x": -404.58599853515625,
          "y": 239.81300354003906,
          "z": 2810.7490234375
        },
        "targetNpcAlias": "",
        "ignoreY": true,
        "fixInterNull": true,
        "advancedMaxSteerAngle": 150.0,
        "advancedMinSteerAngle": 40.0,
        "APKIBBLJLON": ""
      },
      {
        "$type": "MoleMole.Config.ConfigTeleportToAction",
        "type": "TELEPORT_TO",
        "aliasList": [
          "30646"
        ],
        "actionId": 470,
        "position": {
          "x": -405.9989929199219,
          "y": 239.81300354003906,
          "z": 2809.376953125
        },
        "forward": {
          "x": 1.2589999437332153,
          "z": 1.0
        },
        "openLongDisTeleport": true,
        "syncForward": true,
        "_posBindMovingTargetKey": "",
        "_forwardBindMovingTargetKey": ""
      },
      {
        "$type": "MoleMole.Config.ConfigTeleportToAction",
        "type": "TELEPORT_TO",
        "aliasList": [
          "30648"
        ],
        "actionId": 476,
        "position": {
          "x": -405.61199951171875,
          "y": 239.88900756835938,
          "z": 2808.906005859375
        },
        "forward": {
          "x": 0.7490000128746033,
          "z": 1.2079999446868896
        },
        "openLongDisTeleport": true,
        "syncForward": true,
        "_posBindMovingTargetKey": "",
        "_forwardBindMovingTargetKey": ""
      },
      {
        "$type": "NDPINFEKFAN",
        "type": "DIALOG",
        "aliasList": [
          "30646"
        ],
        "actionId": 494,
        "dialogID": 401651902,
        "protectTime": 4.699999809265137,
        "autoTalkProtectTime": 12.942000389099121
      }
    ],
    [
      {
        "$type": "NDPINFEKFAN",
        "type": "DIALOG",
        "delayTime": 1.4570000171661377,
        "aliasList": [
          "30591"
        ],
        "actionId": 111,
        "dialogID": 401651903,
        "protectTime": 0.5
      },
      {
        "$type": "KMKDFCOPMLP",
        "type": "LOOK_AT",
        "aliasList": [
          "30591"
        ],
        "actionId": 159,
        "_flag": 64,
        "enableHead": true,
        "headTurnTime": 0.5,
        "targetNpcAlias": "30626",
        "openBackProtect": true,
        "backProtectAngle": 10.0,
        "targetNpcLookAtPoint": "",
        "APKIBBLJLON": ""
      },
      {
        "$type": "MFLLBDNLNBG",
        "type": "STEER_TO",
        "duration": 1.0,
        "aliasList": [
          "30591"
        ],
        "actionId": 160,
        "_flag": 32,
        "steerType": "TO_TARGET_ADVANCED",
        "steerDir": {
          "x": -406.9809875488281,
          "y": 239.83900451660156,
          "z": 2809.587890625
        },
        "useSteerAnim": true,
        "interruptFreestyle": true,
        "forceSteer": true,
        "targetNpcAlias": "30626",
        "playTarStateAnim": true,
        "ignoreY": true,
        "fixInterNull": true,
        "advancedMaxSteerAngle": 150.0,
        "advancedMinSteerAngle": 40.0,
        "APKIBBLJLON": ""
      },
      {
        "$type": "NDPINFEKFAN",
        "type": "DIALOG_CLEAR",
        "actionId": 204
      },
      {
        "$type": "KNDPHIODCAO",
        "type": "EMO_SYNC",
        "delayTime": 1.4570000171661377,
        "aliasList": [
          "30591"
        ],
        "actionId": 210,
        "_flag": 320,
        "dataPath": "Cs_Emo_Avatar_Simple_Common_Set/Cs_Emo_Avatar_Talk/Cs_Emo_Avatar_Event/Cs_Emo_Avatar_Fairy/Cs_Emo_401651903",
        "phonemePath": "",
        "emotionPath": "",
        "mateDataPath": "",
        "matePhonemePath": "",
        "mateEmotionPath": "",
        "dataPathHashList": [
          14955156371539779536,
          251413266507840827,
          4517846934011278194,
          5525454774607223422
        ],
        "LGOOHJOPJOJ": "",
        "HCHELJAGBIB": ""
      },
      {
        "$type": "KMKDFCOPMLP",
        "type": "LOOK_AT",
        "aliasList": [
          "30626"
        ],
        "actionId": 254,
        "_flag": 64,
        "headTurnTime": 0.5,
        "targetNpcAlias": "",
        "openBackProtect": true,
        "backProtectAngle": 10.0,
        "targetNpcLookAtPoint": "",
        "APKIBBLJLON": ""
      },
      {
        "$type": "DNOIKEDAKBN",
        "type": "CAMERA_MOVE",
        "duration": 0.5,
        "actionId": 255,
        "camPosOffset": {
          "x": -401.22601318359375,
          "y": 240.64999389648438,
          "z": 2817.824951171875
        },
        "camForwardTargetOffset": {
          "x": -401.7309875488281,
          "y": 240.6179962158203,
          "z": 2816.962890625
        },
        "camFov": 30.0,
        "lerpPattern": 6,
        "cameraBlendType": "EaseInOutCubic",
        "needZAxisRotate": true,
        "openCameraDither": false,
        "targetNpcAlias": "",
        "closeTreeLeafDither": true,
        "FPHOLHODOFL": "",
        "JOAEMNHLBAH": "",
        "DMBMJMEHOBJ": "",
        "cutFrameTrans": {
          "_elevMinValue": -50.0,
          "_elevMaxValue": 50.0,
          "_poleMinValue": -50.0,
          "_poleMaxValue": 50.0
        }
      },
      {
        "$type": "DNOIKEDAKBN",
        "type": "CAMERA_MOVE",
        "delayTime": 0.10000000149011612,
        "duration": 3.0,
        "actionId": 256,
        "camPosOffset": {
          "x": -400.85400390625,
          "y": 240.6490020751953,
          "z": 2819.197021484375
        },
        "camForwardTargetOffset": {
          "x": -401.3559875488281,
          "y": 240.5749969482422,
          "z": 2818.3349609375
        },
        "camFov": 30.0,
        "cameraBlendType": "EaseInOutQuad",
        "needZAxisRotate": true,
        "openCameraDither": false,
        "targetNpcAlias": "",
        "closeTreeLeafDither": true,
        "FPHOLHODOFL": "",
        "JOAEMNHLBAH": "",
        "DMBMJMEHOBJ": "",
        "cutFrameTrans": {
          "_elevMinValue": -50.0,
          "_elevMaxValue": 50.0,
          "_poleMinValue": -50.0,
          "_poleMaxValue": 50.0
        }
      },
      {
        "$type": "KMKDFCOPMLP",
        "type": "LOOK_AT",
        "delayTime": 3.2750000953674316,
        "aliasList": [
          "30591"
        ],
        "actionId": 260,
        "_flag": 64,
        "enableHead": true,
        "headRotateVec": {
          "x": 336.7449951171875,
          "y": 11.145000457763672
        },
        "headTurnTime": 0.5,
        "targetNpcAlias": "",
        "lookAtTargetType": "NONE",
        "openBackProtect": true,
        "backProtectAngle": 10.0,
        "targetNpcLookAtPoint": "",
        "APKIBBLJLON": ""
      },
      {
        "$type": "AHHBJGEHACH",
        "type": "BODY_LANG",
        "delayTime": 4.298999786376953,
        "aliasList": [
          "30591"
        ],
        "actionId": 261,
        "_flag": 131072,
        "bodyLangParam": 4040,
        "forceDoFreeStyle": true,
        "canDoRepeatFreeStyle": false,
        "dontClearPreFreeStyle": true,
        "cantBackToIdleWhenSitLoop": true,
        "eventPatternSuiteKey": ""
      },
      {
        "$type": "MoleMole.Config.ConfigVisibleInterAction",
        "type": "VISIBLE",
        "aliasList": [
          "30626"
        ],
        "actionId": 381,
        "isVisible": true,
        "_extraParam": ""
      },
      {
        "$type": "MoleMole.Config.ConfigTeleportToAction",
        "type": "TELEPORT_TO",
        "aliasList": [
          "30626"
        ],
        "actionId": 409,
        "_flag": 4,
        "position": {
          "x": -401.7539978027344,
          "y": 239.83099365234375,
          "z": 2818.408935546875
        },
        "forward": {
          "x": -0.8339999914169312,
          "z": -1.805999994277954
        },
        "openLongDisTeleport": true,
        "syncForward": true,
        "_posBindMovingTargetKey": "",
        "_forwardBindMovingTargetKey": ""
      },
      {
        "$type": "MFLLBDNLNBG",
        "type": "STEER_TO",
        "delayTime": 0.42500001192092896,
        "duration": 0.6140000224113464,
        "aliasList": [
          "30647"
        ],
        "actionId": 442,
        "_flag": 32,
        "steerType": "TO_TARGET_ADVANCED",
        "steerDir": {
          "x": -406.9809875488281,
          "y": 239.83900451660156,
          "z": 2809.587890625
        },
        "useSteerAnim": true,
        "interruptFreestyle": true,
        "forceSteer": true,
        "targetNpcAlias": "30626",
        "playTarStateAnim": true,
        "ignoreY": true,
        "fixInterNull": true,
        "advancedMaxSteerAngle": 150.0,
        "advancedMinSteerAngle": 40.0,
        "APKIBBLJLON": ""
      },
      {
        "$type": "AHHBJGEHACH",
        "type": "BODY_LANG",
        "delayTime": 0.4350000023841858,
        "aliasList": [
          "30647"
        ],
        "actionId": 443,
        "_flag": 131072,
        "bodyLangParam": 9040,
        "forceDoFreeStyle": true,
        "canDoRepeatFreeStyle": false,
        "cantBackToIdleWhenSitLoop": true,
        "eventPatternSuiteKey": ""
      },
      {
        "$type": "MoleMole.Config.ConfigTeleportToAction",
        "type": "TELEPORT_TO",
        "aliasList": [
          "30646"
        ],
        "actionId": 459,
        "position": {
          "x": -405.9989929199219,
          "y": 239.81300354003906,
          "z": 2809.376953125
        },
        "forward": {
          "x": 0.7170000076293945,
          "z": 1.3539999723434448
        },
        "openLongDisTeleport": true,
        "syncForward": true,
        "_posBindMovingTargetKey": "",
        "_forwardBindMovingTargetKey": ""
      }
    ],
    [
      {
        "$type": "NDPINFEKFAN",
        "type": "DIALOG",
        "aliasList": [
          "30626"
        ],
        "actionId": 113,
        "dialogID": 401651904,
        "protectTime": 2.0
      },
      {
        "$type": "DNOIKEDAKBN",
        "type": "CAMERA_MOVE",
        "duration": 0.5,
        "actionId": 258,
        "camPosOffset": {
          "x": -402.00201416015625,
          "y": 240.62399291992188,
          "z": 2816.1220703125
        },
        "camForwardTargetOffset": {
          "x": -402.02398681640625,
          "y": 240.47300720214844,
          "z": 2817.110107421875
        },
        "camFov": 30.0,
        "lerpPattern": 6,
        "cameraBlendType": "EaseInOutCubic",
        "needZAxisRotate": true,
        "openCameraDither": false,
        "targetNpcAlias": "",
        "closeTreeLeafDither": true,
        "FPHOLHODOFL": "",
        "JOAEMNHLBAH": "",
        "DMBMJMEHOBJ": "",
        "cutFrameTrans": {
          "_elevMinValue": -50.0,
          "_elevMaxValue": 50.0,
          "_poleMinValue": -50.0,
          "_poleMaxValue": 50.0
        }
      },
      {
        "$type": "AHHBJGEHACH",
        "type": "BODY_LANG",
        "aliasList": [
          "30591"
        ],
        "actionId": 267,
        "_flag": 131072,
        "isContinue": true,
        "forceDoFreeStyle": true,
        "canDoRepeatFreeStyle": false,
        "cantBackToIdleWhenSitLoop": true,
        "eventPatternSuiteKey": ""
      },
      {
        "$type": "KMKDFCOPMLP",
        "type": "LOOK_AT",
        "aliasList": [
          "30591"
        ],
        "actionId": 315,
        "_flag": 64,
        "enableHead": true,
        "useTargetPos": true,
        "enableAbsolute": true,
        "targetPosition": {
          "x": -403.9849853515625,
          "y": 241.01100158691406,
          "z": 2813.240966796875
        },
        "headTurnTime": 0.5,
        "targetNpcAlias": "",
        "lookAtTargetType": "NONE",
        "openBackProtect": true,
        "backProtectAngle": 10.0,
        "targetNpcLookAtPoint": "",
        "APKIBBLJLON": ""
      },
      {
        "$type": "AHHBJGEHACH",
        "type": "BODY_LANG",
        "aliasList": [
          "30626"
        ],
        "actionId": 410,
        "_flag": 131072,
        "isContinue": true,
        "forceDoFreeStyle": true,
        "canDoRepeatFreeStyle": false,
        "cantBackToIdleWhenSitLoop": true,
        "eventPatternSuiteKey": ""
      },
      {
        "$type": "MoleMole.Config.ConfigMoveToAction",
        "type": "MOVE_TO",
        "delayTime": 0.5,
        "aliasList": [
          "30626"
        ],
        "actionId": 413,
        "moveType": "RUN",
        "routeList": [
          {
            "x": -402.62799072265625,
            "y": 239.83099365234375,
            "z": 2815.820068359375
          }
        ],
        "exactlyMove": true,
        "closeNavMesh": true,
        "openSetPos": true,
        "_bindMovingTargetKey": "",
        "_delayTriggerNextTime": 0.30000001192092896
      },
      {
        "$type": "DNOIKEDAKBN",
        "type": "CAMERA_MOVE",
        "delayTime": 0.6000000238418579,
        "duration": 3.0,
        "actionId": 414,
        "camPosOffset": {
          "x": -401.77899169921875,
          "y": 240.41000366210938,
          "z": 2815.676025390625
        },
        "camForwardTargetOffset": {
          "x": -401.8659973144531,
          "y": 240.3159942626953,
          "z": 2816.6669921875
        },
        "camFov": 30.0,
        "cameraBlendType": "EaseInOutQuad",
        "needZAxisRotate": true,
        "openCameraDither": false,
        "targetNpcAlias": "",
        "closeTreeLeafDither": true,
        "FPHOLHODOFL": "",
        "JOAEMNHLBAH": "",
        "DMBMJMEHOBJ": "",
        "cutFrameTrans": {
          "_elevMinValue": -50.0,
          "_elevMaxValue": 50.0,
          "_poleMinValue": -50.0,
          "_poleMaxValue": 50.0
        }
      },
      {
        "$type": "MoleMole.Config.ConfigAudioPlayAction",
        "type": "AUDIO_PLAY",
        "actionId": 499,
        "audioEventStr": "Play_vo_creature_dog_common"
      }
    ],
    [
      {
        "$type": "NDPINFEKFAN",
        "type": "DIALOG",
        "aliasList": [
          "30591"
        ],
        "actionId": 115,
        "dialogID": 401651905,
        "protectTime": 2.700000047683716
      },
      {
        "$type": "AHHBJGEHACH",
        "type": "BODY_LANG",
        "delayTime": 1.128000020980835,
        "aliasList": [
          "30591"
        ],
        "actionId": 173,
        "_flag": 131072,
        "bodyLangParam": 1280,
        "forceDoFreeStyle": true,
        "canDoRepeatFreeStyle": false,
        "cantBackToIdleWhenSitLoop": true,
        "eventPatternSuiteKey": ""
      },
      {
        "$type": "KNDPHIODCAO",
        "type": "EMO_SYNC",
        "aliasList": [
          "30591"
        ],
        "actionId": 211,
        "_flag": 320,
        "dataPath": "Cs_Emo_Avatar_Simple_Common_Set/Cs_Emo_Avatar_Talk/Cs_Emo_Avatar_Event/Cs_Emo_Avatar_Fairy/Cs_Emo_401651905",
        "phonemePath": "",
        "emotionPath": "",
        "mateDataPath": "",
        "matePhonemePath": "",
        "mateEmotionPath": "",
        "dataPathHashList": [
          11181092520774196453,
          12613283650947425306,
          1950043671708326400,
          11214159401476690323
        ],
        "LGOOHJOPJOJ": "",
        "HCHELJAGBIB": ""
      },
      {
        "$type": "DNOIKEDAKBN",
        "type": "CAMERA_MOVE",
        "delayTime": 1.3660000562667847,
        "duration": 2.0,
        "actionId": 263,
        "camPosOffset": {
          "x": -404.0400085449219,
          "y": 240.36700439453125,
          "z": 2812.527099609375
        },
        "camForwardTargetOffset": {
          "x": -404.3590087890625,
          "y": 240.47900390625,
          "z": 2811.5859375
        },
        "camFov": 27.0,
        "cameraBlendType": "EaseInOutQuad",
        "needZAxisRotate": true,
        "openCameraDither": false,
        "targetNpcAlias": "",
        "closeTreeLeafDither": true,
        "FPHOLHODOFL": "",
        "JOAEMNHLBAH": "",
        "DMBMJMEHOBJ": "",
        "cutFrameTrans": {
          "_elevMinValue": -50.0,
          "_elevMaxValue": 50.0,
          "_poleMinValue": -50.0,
          "_poleMaxValue": 50.0
        }
      },
      {
        "$type": "AHHBJGEHACH",
        "type": "BODY_LANG",
        "aliasList": [
          "30591"
        ],
        "actionId": 264,
        "_flag": 131072,
        "isContinue": true,
        "forceDoFreeStyle": true,
        "canDoRepeatFreeStyle": false,
        "cantBackToIdleWhenSitLoop": true,
        "eventPatternSuiteKey": ""
      },
      {
        "$type": "KMKDFCOPMLP",
        "type": "LOOK_AT",
        "aliasList": [
          "30591"
        ],
        "actionId": 265,
        "_flag": 64,
        "enableHead": true,
        "useTargetPos": true,
        "enableAbsolute": true,
        "targetPosition": {
          "x": -403.9849853515625,
          "y": 241.01100158691406,
          "z": 2813.240966796875
        },
        "headTurnTime": 0.5,
        "targetNpcAlias": "",
        "lookAtTargetType": "NONE",
        "openBackProtect": true,
        "backProtectAngle": 10.0,
        "targetNpcLookAtPoint": "",
        "APKIBBLJLON": ""
      },
      {
        "$type": "DNOIKEDAKBN",
        "type": "CAMERA_MOVE",
        "duration": 0.5,
        "actionId": 266,
        "camPosOffset": {
          "x": -403.8559875488281,
          "y": 240.98199462890625,
          "z": 2812.552001953125
        },
        "camForwardTargetOffset": {
          "x": -404.2340087890625,
          "y": 241.0749969482422,
          "z": 2811.631103515625
        },
        "camFov": 27.0,
        "lerpPattern": 6,
        "cameraBlendType": "EaseInOutCubic",
        "needZAxisRotate": true,
        "openCameraDither": false,
        "targetNpcAlias": "",
        "closeTreeLeafDither": true,
        "FPHOLHODOFL": "",
        "JOAEMNHLBAH": "",
        "DMBMJMEHOBJ": "",
        "cutFrameTrans": {
          "_elevMinValue": -50.0,
          "_elevMaxValue": 50.0,
          "_poleMinValue": -50.0,
          "_poleMaxValue": 50.0
        }
      },
      {
        "$type": "KMKDFCOPMLP",
        "type": "LOOK_AT",
        "delayTime": 2.8410000801086426,
        "aliasList": [
          "30591"
        ],
        "actionId": 268,
        "_flag": 64,
        "enableHead": true,
        "useTargetPos": true,
        "enableAbsolute": true,
        "targetPosition": {
          "x": -404.3599853515625,
          "y": 240.58900451660156,
          "z": 2811.735107421875
        },
        "headTurnTime": 0.5,
        "targetNpcAlias": "",
        "lookAtTargetType": "NONE",
        "openBackProtect": true,
        "backProtectAngle": 10.0,
        "targetNpcLookAtPoint": "",
        "APKIBBLJLON": ""
      },
      {
        "$type": "KMKDFCOPMLP",
        "type": "LOOK_AT",
        "delayTime": 0.781000018119812,
        "aliasList": [
          "30591"
        ],
        "actionId": 269,
        "_flag": 64,
        "enableHead": true,
        "useTargetPos": true,
        "enableAbsolute": true,
        "targetPosition": {
          "x": -403.9849853515625,
          "y": 240.60699462890625,
          "z": 2813.240966796875
        },
        "headTurnTime": 0.5,
        "targetNpcAlias": "",
        "lookAtTargetType": "NONE",
        "openBackProtect": true,
        "backProtectAngle": 10.0,
        "targetNpcLookAtPoint": "",
        "APKIBBLJLON": ""
      },
      {
        "$type": "DNOIKEDAKBN",
        "type": "CAMERA_MOVE",
        "delayTime": 0.10000000149011612,
        "duration": 1.4299999475479126,
        "actionId": 344,
        "camPosOffset": {
          "x": -403.8599853515625,
          "y": 240.96800231933594,
          "z": 2812.551025390625
        },
        "camForwardTargetOffset": {
          "x": -404.23699951171875,
          "y": 241.06199645996094,
          "z": 2811.6298828125
        },
        "camFov": 27.0,
        "cameraBlendType": "Linear",
        "needZAxisRotate": true,
        "openCameraDither": false,
        "targetNpcAlias": "",
        "closeTreeLeafDither": true,
        "FPHOLHODOFL": "",
        "JOAEMNHLBAH": "",
        "DMBMJMEHOBJ": "",
        "cutFrameTrans": {
          "_elevMinValue": -50.0,
          "_elevMaxValue": 50.0,
          "_poleMinValue": -50.0,
          "_poleMaxValue": 50.0
        }
      },
      {
        "$type": "AHHBJGEHACH",
        "type": "BODY_LANG",
        "delayTime": 5.50600004196167,
        "aliasList": [
          "30591"
        ],
        "actionId": 346,
        "_flag": 131072,
        "bodyLangParam": 4040,
        "forceDoFreeStyle": true,
        "canDoRepeatFreeStyle": false,
        "dontClearPreFreeStyle": true,
        "cantBackToIdleWhenSitLoop": true,
        "eventPatternSuiteKey": ""
      },
      {
        "$type": "MoleMole.Config.ConfigTeleportToAction",
        "type": "TELEPORT_TO",
        "aliasList": [
          "30647"
        ],
        "actionId": 444,
        "position": {
          "x": -404.9360046386719,
          "y": 239.83099365234375,
          "z": 2808.737060546875
        },
        "forward": {
          "x": 0.3799999952316284,
          "z": 1.0959999561309814
        },
        "openLongDisTeleport": true,
        "syncForward": true,
        "_posBindMovingTargetKey": "",
        "_forwardBindMovingTargetKey": ""
      },
      {
        "$type": "MoleMole.Config.ConfigTeleportToAction",
        "type": "TELEPORT_TO",
        "aliasList": [
          "30646"
        ],
        "actionId": 460,
        "position": {
          "x": -405.6650085449219,
          "y": 239.83099365234375,
          "z": 2808.14794921875
        },
        "forward": {
          "x": 0.6069999933242798,
          "z": 0.7950000166893005
        },
        "openLongDisTeleport": true,
        "syncForward": true,
        "_posBindMovingTargetKey": "",
        "_forwardBindMovingTargetKey": ""
      },
      {
        "$type": "MoleMole.Config.ConfigTeleportToAction",
        "type": "TELEPORT_TO",
        "aliasList": [
          "30648"
        ],
        "actionId": 477,
        "position": {
          "x": -405.2569885253906,
          "y": 239.81300354003906,
          "z": 2809.90087890625
        },
        "forward": {
          "x": 0.5270000100135803,
          "z": 0.9900000095367432
        },
        "openLongDisTeleport": true,
        "syncForward": true,
        "_posBindMovingTargetKey": "",
        "_forwardBindMovingTargetKey": ""
      },
      {
        "$type": "MoleMole.Config.ConfigSetArmAction",
        "type": "SET_NPC_ARM",
        "delayTime": 2.7720000743865967,
        "duration": 1.0,
        "aliasList": [
          "30591"
        ],
        "actionId": 489,
        "_flag": 1024,
        "_enable": true,
        "leftOrRight": 1.0,
        "rightArmHor": 0.27300000190734863,
        "rightArmVer": -0.1080000028014183,
        "_rightArmRoll": 0.07199999690055847,
        "_leftOrRightForearm": 1.0,
        "_enableHand": true,
        "_leftOrRightHand": 1.0,
        "_rightHandHor": -0.1850000023841858,
        "_rightHandVer": -0.2980000078678131,
        "useBlend": true,
        "blendType": "EaseInOutQuad"
      }
    ],
    [
      {
        "$type": "DNOIKEDAKBN",
        "type": "CAMERA_MOVE",
        "delayTime": 0.4000000059604645,
        "duration": 2.0,
        "actionId": 278,
        "camPosOffset": {
          "x": -404.1130065917969,
          "y": 240.31900024414062,
          "z": 2812.553955078125
        },
        "camForwardTargetOffset": {
          "x": -404.4200134277344,
          "y": 240.37600708007812,
          "z": 2811.60400390625
        },
        "camFov": 27.0,
        "cameraBlendType": "EaseInOutQuad",
        "needZAxisRotate": true,
        "rotateAngle": 0.06700000166893005,
        "openCameraDither": false,
        "targetNpcAlias": "",
        "closeTreeLeafDither": true,
        "FPHOLHODOFL": "",
        "JOAEMNHLBAH": "",
        "DMBMJMEHOBJ": "",
        "cutFrameTrans": {
          "_elevMinValue": -50.0,
          "_elevMaxValue": 50.0,
          "_poleMinValue": -50.0,
          "_poleMaxValue": 50.0
        }
      },
      {
        "$type": "KMKDFCOPMLP",
        "type": "LOOK_AT",
        "delayTime": 0.5860000252723694,
        "aliasList": [
          "30591"
        ],
        "actionId": 281,
        "_flag": 64,
        "enableHead": true,
        "useTargetPos": true,
        "enableAbsolute": true,
        "targetPosition": {
          "x": -404.4429931640625,
          "y": 240.5279998779297,
          "z": 2811.735107421875
        },
        "headTurnTime": 0.5,
        "targetNpcAlias": "",
        "lookAtTargetType": "NONE",
        "openBackProtect": true,
        "backProtectAngle": 10.0,
        "targetNpcLookAtPoint": "",
        "APKIBBLJLON": ""
      },
      {
        "$type": "ADLFFDIAEGI",
        "type": "LOOK_AT_EYECTRL",
        "delayTime": 0.6069999933242798,
        "aliasList": [
          "30591"
        ],
        "actionId": 282,
        "_flag": 4672,
        "useTargetPos": false,
        "eyeRotateVecLeft": {
          "x": -11.0,
          "z": 8.0
        },
        "eyeRotateVecRight": {
          "x": -11.0,
          "z": 8.0
        },
        "turnTime": 0.20000000298023224,
        "targetNpcAlias": "",
        "targetPoint": "Face"
      },
      {
        "$type": "KNDPHIODCAO",
        "type": "EMO_SYNC",
        "delayTime": 0.621999979019165,
        "aliasList": [
          "30591"
        ],
        "actionId": 347,
        "_flag": 320,
        "dataPath": "",
        "phonemePath": "Cs_Emo_Avatar_Common/Cs_Emo_Avatar_Default01",
        "emotionPath": "Cs_Emo_Avatar_Common/Cs_Emo_Avatar_Sweat01_B",
        "mateDataPath": "",
        "matePhonemePath": "",
        "mateEmotionPath": "",
        "phonemePathHashList": [
          1010565500959774114,
          17914558573000180712,
          14498871351621154070,
          14348654671849899985
        ],
        "emotionPathHashList": [
          12940596578163640280,
          13798116854821911643,
          7528668213529796301,
          10054944119033393314
        ],
        "LGOOHJOPJOJ": "",
        "HCHELJAGBIB": ""
      },
      {
        "$type": "AHHBJGEHACH",
        "type": "BODY_LANG",
        "aliasList": [
          "30648"
        ],
        "actionId": 485,
        "_flag": 131072,
        "bodyLangParam": 1,
        "forceDoFreeStyle": true,
        "canDoRepeatFreeStyle": false,
        "cantBackToIdleWhenSitLoop": true,
        "eventPatternSuiteKey": ""
      },
      {
        "$type": "MoleMole.Config.ConfigSetModelTransform",
        "type": "SET_MODEL_TRANSFORM",
        "duration": 1.0,
        "aliasList": [
          "30648"
        ],
        "actionId": 486,
        "_flag": 1024,
        "groudHight": 0.10000000149011612,
        "blendType": "EaseInOutQuad",
        "_targetEulerAngle": {
          "z": 50.0
        }
      },
      {
        "$type": "MoleMole.Config.ConfigSetModelTransform",
        "type": "SET_MODEL_TRANSFORM",
        "duration": 1.0,
        "aliasList": [
          "30648"
        ],
        "actionId": 487,
        "_flag": 1024,
        "useBlend": true,
        "blendType": "EaseInOutQuad",
        "oprCode": 1,
        "_targetEulerAngle": {
          "z": 45.0
        }
      },
      {
        "$type": "NDPINFEKFAN",
        "type": "DIALOG",
        "aliasList": [
          "30648"
        ],
        "actionId": 498,
        "dialogID": 401651906,
        "protectTime": 0.5
      }
    ],
    [
      {
        "$type": "NDPINFEKFAN",
        "type": "DIALOG",
        "aliasList": [
          "30626"
        ],
        "actionId": 119,
        "dialogID": 401651907,
        "protectTime": 1.2660000324249268
      },
      {
        "$type": "DNOIKEDAKBN",
        "type": "CAMERA_MOVE",
        "duration": 0.5,
        "actionId": 283,
        "camPosOffset": {
          "x": -403.239990234375,
          "y": 240.3419952392578,
          "z": 2808.66796875
        },
        "camForwardTargetOffset": {
          "x": -403.61700439453125,
          "y": 240.37899780273438,
          "z": 2809.593994140625
        },
        "camFov": 30.0,
        "lerpPattern": 6,
        "cameraBlendType": "EaseInOutCubic",
        "needZAxisRotate": true,
        "openCameraDither": false,
        "targetNpcAlias": "",
        "closeTreeLeafDither": true,
        "FPHOLHODOFL": "",
        "JOAEMNHLBAH": "",
        "DMBMJMEHOBJ": "",
        "cutFrameTrans": {
          "_elevMinValue": -50.0,
          "_elevMaxValue": 50.0,
          "_poleMinValue": -50.0,
          "_poleMaxValue": 50.0
        }
      },
      {
        "$type": "MoleMole.Config.ConfigTeleportToAction",
        "type": "TELEPORT_TO",
        "aliasList": [
          "30591"
        ],
        "actionId": 292,
        "position": {
          "x": -404.3059997558594,
          "y": 239.81300354003906,
          "z": 2811.39306640625
        },
        "forward": {
          "x": 0.3409999907016754,
          "z": 0.9990000128746033
        },
        "openLongDisTeleport": true,
        "syncForward": true,
        "_posBindMovingTargetKey": "",
        "_forwardBindMovingTargetKey": ""
      },
      {
        "$type": "KMKDFCOPMLP",
        "type": "LOOK_AT",
        "aliasList": [
          "30591"
        ],
        "actionId": 293,
        "_flag": 64,
        "enableHead": true,
        "useTargetPos": true,
        "enableAbsolute": true,
        "targetPosition": {
          "x": -404.2130126953125,
          "y": 240.6529998779297,
          "z": 2811.735107421875
        },
        "headTurnTime": 0.5,
        "targetNpcAlias": "",
        "lookAtTargetType": "NONE",
        "openBackProtect": true,
        "backProtectAngle": 10.0,
        "targetNpcLookAtPoint": "",
        "APKIBBLJLON": ""
      },
      {
        "$type": "DNOIKEDAKBN",
        "type": "CAMERA_MOVE",
        "delayTime": 0.10000000149011612,
        "duration": 4.9679999351501465,
        "actionId": 295,
        "camPosOffset": {
          "x": -403.2019958496094,
          "y": 240.30799865722656,
          "z": 2808.68505859375
        },
        "camForwardTargetOffset": {
          "x": -403.5780029296875,
          "y": 240.343994140625,
          "z": 2809.610107421875
        },
        "camFov": 30.0,
        "cameraBlendType": "EaseOutQuad",
        "needZAxisRotate": true,
        "openCameraDither": false,
        "targetNpcAlias": "",
        "closeTreeLeafDither": true,
        "FPHOLHODOFL": "",
        "JOAEMNHLBAH": "",
        "DMBMJMEHOBJ": "",
        "cutFrameTrans": {
          "_elevMinValue": -50.0,
          "_elevMaxValue": 50.0,
          "_poleMinValue": -50.0,
          "_poleMaxValue": 50.0
        }
      },
      {
        "$type": "AHHBJGEHACH",
        "type": "BODY_LANG",
        "aliasList": [
          "30626"
        ],
        "actionId": 416,
        "_flag": 131072,
        "bodyLangParam": 3,
        "forceDoFreeStyle": true,
        "canDoRepeatFreeStyle": false,
        "cantBackToIdleWhenSitLoop": true,
        "eventPatternSuiteKey": ""
      },
      {
        "$type": "AHHBJGEHACH",
        "type": "BODY_LANG",
        "delayTime": 4.676000118255615,
        "aliasList": [
          "30626"
        ],
        "actionId": 417,
        "_flag": 131072,
        "bodyLangParam": 2,
        "forceDoFreeStyle": true,
        "canDoRepeatFreeStyle": false,
        "cantBackToIdleWhenSitLoop": true,
        "eventPatternSuiteKey": ""
      },
      {
        "$type": "MoleMole.Config.ConfigTeleportToAction",
        "type": "TELEPORT_TO",
        "aliasList": [
          "30626"
        ],
        "actionId": 428,
        "position": {
          "x": -403.7650146484375,
          "y": 239.81300354003906,
          "z": 2812.708984375
        },
        "forward": {
          "x": -0.28999999165534973,
          "z": -1.0
        },
        "openLongDisTeleport": true,
        "syncForward": true,
        "_posBindMovingTargetKey": "",
        "_forwardBindMovingTargetKey": ""
      },
      {
        "$type": "MoleMole.Config.ConfigTeleportToAction",
        "type": "TELEPORT_TO",
        "aliasList": [
          "30647"
        ],
        "actionId": 445,
        "position": {
          "x": -404.9110107421875,
          "y": 239.81300354003906,
          "z": 2809.77490234375
        },
        "forward": {
          "x": 0.3799999952316284,
          "z": 1.0959999561309814
        },
        "openLongDisTeleport": true,
        "syncForward": true,
        "_posBindMovingTargetKey": "",
        "_forwardBindMovingTargetKey": ""
      },
      {
        "$type": "AHHBJGEHACH",
        "type": "BODY_LANG",
        "aliasList": [
          "30646"
        ],
        "actionId": 461,
        "_flag": 131072,
        "isContinue": true,
        "forceDoFreeStyle": true,
        "canDoRepeatFreeStyle": false,
        "cantBackToIdleWhenSitLoop": true,
        "eventPatternSuiteKey": ""
      },
      {
        "$type": "MoleMole.Config.ConfigTeleportToAction",
        "type": "TELEPORT_TO",
        "aliasList": [
          "30646"
        ],
        "actionId": 462,
        "position": {
          "x": -405.6650085449219,
          "y": 239.83099365234375,
          "z": 2808.14794921875
        },
        "forward": {
          "x": 0.29600000381469727,
          "z": 0.7950000166893005
        },
        "openLongDisTeleport": true,
        "syncForward": true,
        "_posBindMovingTargetKey": "",
        "_forwardBindMovingTargetKey": ""
      },
      {
        "$type": "MoleMole.Config.ConfigTeleportToAction",
        "type": "TELEPORT_TO",
        "aliasList": [
          "30648"
        ],
        "actionId": 478,
        "position": {
          "x": -404.75799560546875,
          "y": 239.81300354003906,
          "z": 2810.8330078125
        },
        "forward": {
          "x": 0.3779999911785126,
          "z": 0.8830000162124634
        },
        "openLongDisTeleport": true,
        "syncForward": true,
        "_posBindMovingTargetKey": "",
        "_forwardBindMovingTargetKey": ""
      },
      {
        "$type": "MoleMole.Config.ConfigSetModelTransform",
        "type": "SET_MODEL_TRANSFORM",
        "duration": 0.5,
        "aliasList": [
          "30648"
        ],
        "actionId": 479,
        "_flag": 1024,
        "isReset": true,
        "useBlend": true,
        "blendType": "EaseInOutQuad",
        "oprCode": 1,
        "_targetEulerAngle": {
          "z": 50.0
        }
      },
      {
        "$type": "MoleMole.Config.ConfigAudioPlayAction",
        "type": "AUDIO_PLAY",
        "actionId": 500,
        "audioEventStr": "Play_vo_creature_dog_common"
      },
      {
        "$type": "MoleMole.Config.ConfigAudioPlayAction",
        "type": "AUDIO_PLAY",
        "delayTime": 0.6790000200271606,
        "actionId": 501,
        "audioEventStr": "Play_vo_creature_dog_breathe"
      }
    ],
    [
      {
        "$type": "KMKDFCOPMLP",
        "type": "LOOK_AT",
        "delayTime": 0.125,
        "aliasList": [
          "30591"
        ],
        "actionId": 182,
        "_flag": 64,
        "enableHead": true,
        "headTurnTime": 0.5,
        "targetNpcAlias": "30646",
        "openBackProtect": true,
        "backProtectAngle": 10.0,
        "targetNpcLookAtPoint": "",
        "APKIBBLJLON": ""
      },
      {
        "$type": "DNOIKEDAKBN",
        "type": "CAMERA_MOVE",
        "duration": 0.5,
        "actionId": 294,
        "camPosOffset": {
          "x": -404.68499755859375,
          "y": 240.4290008544922,
          "z": 2809.3310546875
        },
        "camForwardTargetOffset": {
          "x": -405.2919921875,
          "y": 240.1739959716797,
          "z": 2808.577880859375
        },
        "camFov": 27.0,
        "lerpPattern": 6,
        "cameraBlendType": "EaseInOutCubic",
        "needZAxisRotate": true,
        "openCameraDither": false,
        "targetNpcAlias": "",
        "closeTreeLeafDither": true,
        "FPHOLHODOFL": "",
        "JOAEMNHLBAH": "",
        "DMBMJMEHOBJ": "",
        "cutFrameTrans": {
          "_elevMinValue": -50.0,
          "_elevMaxValue": 50.0,
          "_poleMinValue": -50.0,
          "_poleMaxValue": 50.0
        }
      },
      {
        "$type": "MoleMole.Config.ConfigTeleportToAction",
        "type": "TELEPORT_TO",
        "aliasList": [
          "30591"
        ],
        "actionId": 319,
        "position": {
          "x": -404.3059997558594,
          "y": 239.81300354003906,
          "z": 2811.39306640625
        },
        "forward": {
          "x": 0.3230000138282776,
          "z": 0.9459999799728394
        },
        "openLongDisTeleport": true,
        "syncForward": true,
        "_posBindMovingTargetKey": "",
        "_forwardBindMovingTargetKey": ""
      },
      {
        "$type": "AHHBJGEHACH",
        "type": "BODY_LANG",
        "aliasList": [
          "30591"
        ],
        "actionId": 320,
        "_flag": 131072,
        "isContinue": true,
        "forceDoFreeStyle": true,
        "canDoRepeatFreeStyle": false,
        "cantBackToIdleWhenSitLoop": true,
        "eventPatternSuiteKey": ""
      },
      {
        "$type": "DNOIKEDAKBN",
        "type": "CAMERA_MOVE",
        "delayTime": 0.10000000149011612,
        "duration": 28.937999725341797,
        "actionId": 348,
        "camPosOffset": {
          "x": -404.78900146484375,
          "y": 240.38499450683594,
          "z": 2809.201904296875
        },
        "camForwardTargetOffset": {
          "x": -405.39599609375,
          "y": 240.1300048828125,
          "z": 2808.448974609375
        },
        "camFov": 27.0,
        "cameraBlendType": "EaseOutQuad",
        "needZAxisRotate": true,
        "openCameraDither": false,
        "targetNpcAlias": "",
        "closeTreeLeafDither": true,
        "FPHOLHODOFL": "",
        "JOAEMNHLBAH": "",
        "DMBMJMEHOBJ": "",
        "cutFrameTrans": {
          "_elevMinValue": -50.0,
          "_elevMaxValue": 50.0,
          "_poleMinValue": -50.0,
          "_poleMaxValue": 50.0
        }
      },
      {
        "$type": "AHHBJGEHACH",
        "type": "BODY_LANG",
        "aliasList": [
          "30647"
        ],
        "actionId": 447,
        "_flag": 131072,
        "isContinue": true,
        "forceDoFreeStyle": true,
        "canDoRepeatFreeStyle": false,
        "cantBackToIdleWhenSitLoop": true,
        "eventPatternSuiteKey": ""
      },
      {
        "$type": "AHHBJGEHACH",
        "type": "BODY_LANG",
        "delayTime": 2.2920000553131104,
        "aliasList": [
          "30646"
        ],
        "actionId": 472,
        "_flag": 131072,
        "bodyLangParam": 1,
        "forceDoFreeStyle": true,
        "canDoRepeatFreeStyle": false,
        "cantBackToIdleWhenSitLoop": true,
        "eventPatternSuiteKey": ""
      },
      {
        "$type": "AHHBJGEHACH",
        "type": "BODY_LANG",
        "delayTime": 0.843999981880188,
        "aliasList": [
          "30648"
        ],
        "actionId": 480,
        "_flag": 131072,
        "bodyLangParam": 3,
        "forceDoFreeStyle": true,
        "canDoRepeatFreeStyle": false,
        "cantBackToIdleWhenSitLoop": true,
        "eventPatternSuiteKey": ""
      },
      {
        "$type": "NDPINFEKFAN",
        "type": "DIALOG",
        "aliasList": [
          "30646"
        ],
        "actionId": 495,
        "dialogID": 401651908,
        "protectTime": 0.5
      }
    ],
    [
      {
        "$type": "DNOIKEDAKBN",
        "type": "CAMERA_MOVE",
        "duration": 0.5,
        "actionId": 321,
        "camPosOffset": {
          "x": -405.2829895019531,
          "y": 240.48699951171875,
          "z": 2810.694091796875
        },
        "camForwardTargetOffset": {
          "x": -404.9320068359375,
          "y": 239.91099548339844,
          "z": 2809.95703125
        },
        "camFov": 27.0,
        "lerpPattern": 6,
        "cameraBlendType": "EaseInOutCubic",
        "needZAxisRotate": true,
        "openCameraDither": false,
        "targetNpcAlias": "",
        "closeTreeLeafDither": true,
        "FPHOLHODOFL": "",
        "JOAEMNHLBAH": "",
        "DMBMJMEHOBJ": "",
        "cutFrameTrans": {
          "_elevMinValue": -50.0,
          "_elevMaxValue": 50.0,
          "_poleMinValue": -50.0,
          "_poleMaxValue": 50.0
        }
      },
      {
        "$type": "DNOIKEDAKBN",
        "type": "CAMERA_MOVE",
        "delayTime": 4.604000091552734,
        "duration": 0.699999988079071,
        "actionId": 327,
        "camPosOffset": {
          "x": -404.93798828125,
          "y": 239.91700744628906,
          "z": 2810.89501953125
        },
        "camForwardTargetOffset": {
          "x": -405.0140075683594,
          "y": 239.9239959716797,
          "z": 2809.89794921875
        },
        "camFov": 27.0,
        "cameraBlendType": "EaseInOutQuad",
        "needZAxisRotate": true,
        "openCameraDither": false,
        "targetNpcAlias": "",
        "closeTreeLeafDither": true,
        "FPHOLHODOFL": "",
        "JOAEMNHLBAH": "",
        "DMBMJMEHOBJ": "",
        "cutFrameTrans": {
          "_elevMinValue": -50.0,
          "_elevMaxValue": 50.0,
          "_poleMinValue": -50.0,
          "_poleMaxValue": 50.0
        }
      },
      {
        "$type": "MoleMole.Config.ConfigVisibleInterAction",
        "type": "VISIBLE",
        "aliasList": [
          "30591"
        ],
        "actionId": 329,
        "_extraParam": ""
      },
      {
        "$type": "DNOIKEDAKBN",
        "type": "CAMERA_MOVE",
        "delayTime": 0.10000000149011612,
        "duration": 4.8379998207092285,
        "actionId": 338,
        "camPosOffset": {
          "x": -405.27099609375,
          "y": 240.4499969482422,
          "z": 2810.718017578125
        },
        "camForwardTargetOffset": {
          "x": -404.9389953613281,
          "y": 239.91200256347656,
          "z": 2809.943115234375
        },
        "camFov": 27.0,
        "cameraBlendType": "Linear",
        "needZAxisRotate": true,
        "openCameraDither": false,
        "targetNpcAlias": "",
        "closeTreeLeafDither": true,
        "FPHOLHODOFL": "",
        "JOAEMNHLBAH": "",
        "DMBMJMEHOBJ": "",
        "cutFrameTrans": {
          "_elevMinValue": -50.0,
          "_elevMaxValue": 50.0,
          "_poleMinValue": -50.0,
          "_poleMaxValue": 50.0
        }
      },
      {
        "$type": "AHHBJGEHACH",
        "type": "BODY_LANG",
        "aliasList": [
          "30626"
        ],
        "actionId": 423,
        "_flag": 131072,
        "isContinue": true,
        "forceDoFreeStyle": true,
        "canDoRepeatFreeStyle": false,
        "cantBackToIdleWhenSitLoop": true,
        "eventPatternSuiteKey": ""
      },
      {
        "$type": "MoleMole.Config.ConfigTeleportToAction",
        "type": "TELEPORT_TO",
        "aliasList": [
          "30647"
        ],
        "actionId": 451,
        "position": {
          "x": -404.9110107421875,
          "y": 239.81300354003906,
          "z": 2809.77490234375
        },
        "forward": {
          "x": 0.3799999952316284,
          "z": 1.0959999561309814
        },
        "openLongDisTeleport": true,
        "syncForward": true,
        "_posBindMovingTargetKey": "",
        "_forwardBindMovingTargetKey": ""
      },
      {
        "$type": "AHHBJGEHACH",
        "type": "BODY_LANG",
        "delayTime": 4.269000053405762,
        "aliasList": [
          "30647"
        ],
        "actionId": 452,
        "_flag": 131072,
        "bodyLangParam": 9030,
        "forceDoFreeStyle": true,
        "canDoRepeatFreeStyle": false,
        "cantBackToIdleWhenSitLoop": true,
        "eventPatternSuiteKey": ""
      },
      {
        "$type": "MFLLBDNLNBG",
        "type": "STEER_TO",
        "delayTime": 4.265999794006348,
        "duration": 0.574999988079071,
        "aliasList": [
          "30647"
        ],
        "actionId": 453,
        "_flag": 32,
        "steerType": "ABSOLUTE",
        "steerDir": {
          "x": -405.2380065917969,
          "y": 239.81300354003906,
          "z": 2810.489013671875
        },
        "useSteerAnim": true,
        "interruptFreestyle": true,
        "forceSteer": true,
        "targetNpcAlias": "",
        "playTarStateAnim": true,
        "ignoreY": true,
        "fixInterNull": true,
        "advancedMaxSteerAngle": 150.0,
        "advancedMinSteerAngle": 40.0,
        "APKIBBLJLON": ""
      },
      {
        "$type": "MoleMole.Config.ConfigTeleportToAction",
        "type": "TELEPORT_TO",
        "aliasList": [
          "30646"
        ],
        "actionId": 463,
        "position": {
          "x": -405.468994140625,
          "y": 239.83099365234375,
          "z": 2808.554931640625
        },
        "forward": {
          "x": 0.3880000114440918,
          "z": 0.9369999766349792
        },
        "openLongDisTeleport": true,
        "syncForward": true,
        "_posBindMovingTargetKey": "",
        "_forwardBindMovingTargetKey": ""
      },
      {
        "$type": "MoleMole.Config.ConfigVisibleInterAction",
        "type": "VISIBLE",
        "aliasList": [
          "30648"
        ],
        "actionId": 481,
        "_extraParam": ""
      },
      {
        "$type": "KMKDFCOPMLP",
        "type": "LOOK_AT",
        "delayTime": 0.125,
        "aliasList": [
          "30591"
        ],
        "actionId": 493,
        "_flag": 64,
        "enableHead": true,
        "headTurnTime": 0.5,
        "targetNpcAlias": "30647",
        "openBackProtect": true,
        "backProtectAngle": 10.0,
        "targetNpcLookAtPoint": "",
        "APKIBBLJLON": ""
      },
      {
        "$type": "NDPINFEKFAN",
        "type": "DIALOG",
        "aliasList": [
          "30647"
        ],
        "actionId": 497,
        "dialogID": 401651909,
        "protectTime": 0.5
      }
    ],
    [
      {
        "$type": "DNOIKEDAKBN",
        "type": "CAMERA_MOVE",
        "duration": 0.5,
        "actionId": 353,
        "camPosOffset": {
          "x": -399.7120056152344,
          "y": 243.1649932861328,
          "z": 2802.5
        },
        "camForwardTargetOffset": {
          "x": -400.2359924316406,
          "y": 242.8730010986328,
          "z": 2803.301025390625
        },
        "camFov": 27.0,
        "lerpPattern": 6,
        "cameraBlendType": "EaseInOutCubic",
        "needZAxisRotate": true,
        "openCameraDither": false,
        "targetNpcAlias": "",
        "closeTreeLeafDither": true,
        "FPHOLHODOFL": "",
        "JOAEMNHLBAH": "",
        "DMBMJMEHOBJ": "",
        "cutFrameTrans": {
          "_elevMinValue": -50.0,
          "_elevMaxValue": 50.0,
          "_poleMinValue": -50.0,
          "_poleMaxValue": 50.0
        }
      },
      {
        "$type": "MoleMole.Config.ConfigVisibleInterAction",
        "type": "VISIBLE",
        "aliasList": [
          "30591"
        ],
        "actionId": 354,
        "isVisible": true,
        "_extraParam": ""
      },
      {
        "$type": "MoleMole.Config.ConfigTeleportToAction",
        "type": "TELEPORT_TO",
        "aliasList": [
          "30591"
        ],
        "actionId": 361,
        "position": {
          "x": -404.3059997558594,
          "y": 239.81300354003906,
          "z": 2811.39306640625
        },
        "forward": {
          "x": -0.3540000021457672,
          "z": -1.3630000352859497
        },
        "openLongDisTeleport": true,
        "syncForward": true,
        "_posBindMovingTargetKey": "",
        "_forwardBindMovingTargetKey": ""
      },
      {
        "$type": "MoleMole.Config.ConfigTeleportToAction",
        "type": "TELEPORT_TO",
        "aliasList": [
          "30626"
        ],
        "actionId": 364,
        "position": {
          "x": -403.7650146484375,
          "y": 239.81300354003906,
          "z": 2812.708984375
        },
        "forward": {
          "x": -0.27900001406669617,
          "z": -1.3949999809265137
        },
        "openLongDisTeleport": true,
        "syncForward": true,
        "_posBindMovingTargetKey": "",
        "_forwardBindMovingTargetKey": ""
      },
      {
        "$type": "KMKDFCOPMLP",
        "type": "LOOK_AT",
        "aliasList": [
          "30591"
        ],
        "actionId": 365,
        "_flag": 64,
        "enableHead": true,
        "headTurnTime": 0.5,
        "targetNpcAlias": "30646",
        "openBackProtect": true,
        "backProtectAngle": 10.0,
        "targetNpcLookAtPoint": "",
        "APKIBBLJLON": ""
      },
      {
        "$type": "DNOIKEDAKBN",
        "type": "CAMERA_MOVE",
        "delayTime": 0.10000000149011612,
        "duration": 4.0,
        "actionId": 370,
        "camPosOffset": {
          "x": -399.4289855957031,
          "y": 243.322998046875,
          "z": 2802.06689453125
        },
        "camForwardTargetOffset": {
          "x": -399.9530029296875,
          "y": 243.031005859375,
          "z": 2802.866943359375
        },
        "camFov": 27.0,
        "cameraBlendType": "Linear",
        "needZAxisRotate": true,
        "openCameraDither": false,
        "targetNpcAlias": "",
        "closeTreeLeafDither": true,
        "FPHOLHODOFL": "",
        "JOAEMNHLBAH": "",
        "DMBMJMEHOBJ": "",
        "cutFrameTrans": {
          "_elevMinValue": -50.0,
          "_elevMaxValue": 50.0,
          "_poleMinValue": -50.0,
          "_poleMaxValue": 50.0
        }
      },
      {
        "$type": "MoleMole.Config.ConfigTimeProtectAction",
        "type": "TIME_PROTECT",
        "duration": 2.0,
        "actionId": 371
      },
      {
        "$type": "MoleMole.Config.ConfigSkipGroupAction",
        "type": "SKIP_GROUP",
        "delayTime": 2.0,
        "actionId": 397
      },
      {
        "$type": "NDPINFEKFAN",
        "type": "DIALOG_CLEAR",
        "actionId": 398
      },
      {
        "$type": "AHHBJGEHACH",
        "type": "BODY_LANG",
        "delayTime": 0.7350000143051147,
        "aliasList": [
          "30626"
        ],
        "actionId": 425,
        "_flag": 131072,
        "bodyLangParam": 1,
        "forceDoFreeStyle": true,
        "canDoRepeatFreeStyle": false,
        "cantBackToIdleWhenSitLoop": true,
        "eventPatternSuiteKey": ""
      },
      {
        "$type": "AHHBJGEHACH",
        "type": "BODY_LANG",
        "aliasList": [
          "30647"
        ],
        "actionId": 449,
        "_flag": 131072,
        "isContinue": true,
        "forceDoFreeStyle": true,
        "canDoRepeatFreeStyle": false,
        "cantBackToIdleWhenSitLoop": true,
        "eventPatternSuiteKey": ""
      },
      {
        "$type": "MoleMole.Config.ConfigTeleportToAction",
        "type": "TELEPORT_TO",
        "aliasList": [
          "30646"
        ],
        "actionId": 464,
        "position": {
          "x": -405.468994140625,
          "y": 239.83099365234375,
          "z": 2808.554931640625
        },
        "forward": {
          "x": 0.5550000071525574,
          "z": 0.9240000247955322
        },
        "openLongDisTeleport": true,
        "syncForward": true,
        "_posBindMovingTargetKey": "",
        "_forwardBindMovingTargetKey": ""
      },
      {
        "$type": "MoleMole.Config.ConfigVisibleInterAction",
        "type": "VISIBLE",
        "aliasList": [
          "30648"
        ],
        "actionId": 482,
        "isVisible": true,
        "_extraParam": ""
      },
      {
        "$type": "MoleMole.Config.ConfigTeleportToAction",
        "type": "TELEPORT_TO",
        "aliasList": [
          "30648"
        ],
        "actionId": 483,
        "position": {
          "x": -404.7130126953125,
          "y": 239.81300354003906,
          "z": 2811.113037109375
        },
        "forward": {
          "x": 0.09700000286102295,
          "z": -1.4809999465942383
        },
        "openLongDisTeleport": true,
        "syncForward": true,
        "_posBindMovingTargetKey": "",
        "_forwardBindMovingTargetKey": ""
      },
      {
        "$type": "MoleMole.Config.ConfigTeleportToAction",
        "type": "TELEPORT_TO",
        "aliasList": [
          "30647"
        ],
        "actionId": 491,
        "position": {
          "x": -404.9110107421875,
          "y": 239.81300354003906,
          "z": 2809.77490234375
        },
        "forward": {
          "x": -0.33500000834465027,
          "z": -0.9419999718666077
        },
        "openLongDisTeleport": true,
        "syncForward": true,
        "_posBindMovingTargetKey": "",
        "_forwardBindMovingTargetKey": ""
      }
    ],
    [
      {
        "$type": "MoleMole.Config.ConfigVisibleInterAction",
        "type": "VISIBLE",
        "delayTime": 0.6000000238418579,
        "aliasList": [
          "Avatar"
        ],
        "actionId": 230,
        "isVisible": true,
        "_extraParam": ""
      },
      {
        "$type": "MoleMole.Config.ConfigTimeProtectAction",
        "type": "TIME_PROTECT",
        "duration": 0.699999988079071,
        "actionId": 385
      },
      {
        "$type": "DNOIKEDAKBN",
        "type": "CAMERA_MOVE",
        "delayTime": 0.6000000238418579,
        "duration": 0.10000000149011612,
        "actionId": 386,
        "cameraPosType": "EXIT",
        "camForwardTargetOffset": {
          "z": 1.0
        },
        "camFov": 30.0,
        "lerpPattern": 5,
        "cameraBlendType": "EaseInOutCubic",
        "openCameraDither": false,
        "targetNpcAlias": "",
        "closeTreeLeafDither": true,
        "FPHOLHODOFL": "",
        "JOAEMNHLBAH": "",
        "DMBMJMEHOBJ": "",
        "cutFrameTrans": {
          "_elevMinValue": -50.0,
          "_elevMaxValue": 50.0,
          "_poleMinValue": -50.0,
          "_poleMaxValue": 50.0
        }
      },
      {
        "$type": "MoleMole.Config.ConfigSimpleBlackScreenAction",
        "type": "SIMPLE_BLACK_SCREEN",
        "actionId": 387,
        "durationToBlack": 0.5,
        "durationKeepBlack": 1.5,
        "durationFromBlack": 0.5,
        "textMapID": ""
      },
      {
        "$type": "MoleMole.Config.ConfigTeleportToAction",
        "type": "TELEPORT_TO",
        "delayTime": 0.6000000238418579,
        "aliasList": [
          "30591"
        ],
        "actionId": 388,
        "position": {
          "x": -408.135986328125,
          "y": 239.81300354003906,
          "z": 2813.447998046875
        },
        "forward": {
          "x": 1.0,
          "z": -0.675000011920929
        },
        "openLongDisTeleport": true,
        "syncForward": true,
        "_posBindMovingTargetKey": "",
        "_forwardBindMovingTargetKey": ""
      },
      {
        "$type": "MoleMole.Config.ConfigTeleportToAction",
        "type": "TELEPORT_TO",
        "delayTime": 0.6000000238418579,
        "aliasList": [
          "30626"
        ],
        "actionId": 399,
        "position": {
          "x": -403.06298828125,
          "y": 239.81300354003906,
          "z": 2811.721923828125
        },
        "forward": {
          "x": -0.5989999771118164,
          "z": -0.8009999990463257
        },
        "openLongDisTeleport": true,
        "syncForward": true,
        "_posBindMovingTargetKey": "",
        "_forwardBindMovingTargetKey": ""
      },
      {
        "$type": "AHHBJGEHACH",
        "type": "BODY_LANG",
        "delayTime": 0.5979999899864197,
        "aliasList": [
          "30626"
        ],
        "actionId": 426,
        "_flag": 131072,
        "isContinue": true,
        "forceDoFreeStyle": true,
        "canDoRepeatFreeStyle": false,
        "cantBackToIdleWhenSitLoop": true,
        "eventPatternSuiteKey": ""
      },
      {
        "$type": "MoleMole.Config.ConfigVisibleInterAction",
        "type": "VISIBLE",
        "delayTime": 0.6000000238418579,
        "aliasList": [
          "30626"
        ],
        "actionId": 427,
        "_extraParam": ""
      },
      {
        "$type": "MoleMole.Config.ConfigTeleportToAction",
        "type": "TELEPORT_TO",
        "delayTime": 0.6000000238418579,
        "aliasList": [
          "30646"
        ],
        "actionId": 465,
        "position": {
          "x": -406.9070129394531,
          "y": 239.81300354003906,
          "z": 2812.44189453125
        },
        "forward": {
          "x": -1.1430000066757202,
          "z": 1.0
        },
        "openLongDisTeleport": true,
        "syncForward": true,
        "_posBindMovingTargetKey": "",
        "_forwardBindMovingTargetKey": ""
      },
      {
        "$type": "MoleMole.Config.ConfigTeleportToAction",
        "type": "TELEPORT_TO",
        "delayTime": 0.6000000238418579,
        "aliasList": [
          "30647"
        ],
        "actionId": 466,
        "position": {
          "x": -405.9679870605469,
          "y": 239.81300354003906,
          "z": 2813.758056640625
        },
        "forward": {
          "x": -0.5070000290870667,
          "z": -0.11500000208616257
        },
        "openLongDisTeleport": true,
        "syncForward": true,
        "_posBindMovingTargetKey": "",
        "_forwardBindMovingTargetKey": ""
      },
      {
        "$type": "MoleMole.Config.ConfigTeleportToAction",
        "type": "TELEPORT_TO",
        "delayTime": 0.6000000238418579,
        "aliasList": [
          "30648"
        ],
        "actionId": 484,
        "position": {
          "x": -407.5679931640625,
          "y": 239.81300354003906,
          "z": 2812.172119140625
        },
        "forward": {
          "x": -0.20600000023841858,
          "z": 1.0
        },
        "openLongDisTeleport": true,
        "syncForward": true,
        "_posBindMovingTargetKey": "",
        "_forwardBindMovingTargetKey": ""
      }
    ]
  ],
  "groupId": [
    {
      "grpId": 2351758661,
      "nextGrpId": 2351758662,
      "_noCircleNextGrpId": 2351758662
    },
    {
      "index": 1,
      "grpId": 2351758662,
      "nextGrpId": 2351758663,
      "_noCircleNextGrpId": 2351758663
    },
    {
      "index": 2,
      "grpId": 2351758663,
      "nextGrpId": 2351758664,
      "_noCircleNextGrpId": 2351758664
    },
    {
      "index": 3,
      "grpId": 2351758664,
      "nextGrpId": 2351758665,
      "_noCircleNextGrpId": 2351758665
    },
    {
      "index": 4,
      "grpId": 2351758665,
      "nextGrpId": 2351758666,
      "_noCircleNextGrpId": 2351758666
    },
    {
      "index": 5,
      "grpId": 2351758666,
      "nextGrpId": 2351758667,
      "_noCircleNextGrpId": 2351758667
    },
    {
      "index": 6,
      "grpId": 2351758667,
      "nextGrpId": 2351758668,
      "_noCircleNextGrpId": 2351758668
    },
    {
      "index": 7,
      "grpId": 2351758668,
      "nextGrpId": 2351758669,
      "_noCircleNextGrpId": 2351758669
    },
    {
      "index": 8,
      "grpId": 2351758669,
      "nextGrpId": 4185041803,
      "_noCircleNextGrpId": 4185041803
    },
    {
      "index": 9,
      "grpId": 4185041803,
      "nextGrpId": 4185041804,
      "_noCircleNextGrpId": 4185041804
    },
    {
      "index": 10,
      "grpId": 4185041804,
      "nextGrpId": 4185041805,
      "_noCircleNextGrpId": 4185041805
    },
    {
      "index": 11,
      "grpId": 4185041805,
      "nextGrpId": 4185041806,
      "_noCircleNextGrpId": 4185041806
    },
    {
      "index": 12,
      "grpId": 4185041806,
      "nextGrpId": 4185041807,
      "_noCircleNextGrpId": 4185041807
    }
  ],
  "freeStyleDic": {
    "30591": [
      4040,
      1280
    ]
  },
  "GJNILPCMCFC": {
    "30591": [
      "SitChat01AS",
      "SitHoldArm01AS",
      "SitPutArm01AS",
      "SitShrug01AS",
      "SitThink01AS"
    ]
  },
  "DOGNDDGFIOE": 4185041806
}