{
  "luaDataPath": "",
  "entityBan": "",
  "disableNpcLod": true,
  "protectNpcMobileLod": true,
  "talkFlag": 7,
  "startFade": {
    "startFadeOutDuration": 0.0
  },
  "endFade": {
    "startFadeOutDuration": 0.0
  },
  "actors": [
    {
      "alias": "Avatar",
      "visible": true,
      "bornPointName": "",
      "relativePosType": "AVATAR_NEW",
      "relativePosNpcAlias": "",
      "_notDestroyInTalk": true,
      "_bindMovingTargetKey": ""
    },
    {
      "configID": 30599,
      "alias": "30599",
      "visible": true,
      "bornPointName": "",
      "forceCreateDaily": true,
      "relativePosType": "AVATAR_NEW",
      "relativePosNpcAlias": "",
      "_notDestroyInTalk": true,
      "_bindMovingTargetKey": ""
    }
  ],
  "group": [
    [
      {
        "$type": "DNOIKEDAKBN",
        "type": "CAMERA_FOCUS",
        "duration": 0.10000000149011612,
        "actionId": 103,
        "targetNpcAlias": "",
        "FPHOLHODOFL": "",
        "JOAEMNHLBAH": "",
        "DMBMJMEHOBJ": ""
      },
      {
        "$type": "MoleMole.Config.ConfigTimeProtectAction",
        "type": "TIME_PROTECT",
        "duration": 0.10000000149011612,
        "actionId": 104
      },
      {
        "$type": "MFLLBDNLNBG",
        "type": "STEER_TO",
        "delayTime": 0.30000001192092896,
        "duration": 0.800000011920929,
        "aliasList": [
          "Avatar"
        ],
        "actionId": 129,
        "_flag": 32,
        "steerType": "TO_TARGET_ADVANCED",
        "useSteerAnim": true,
        "interruptFreestyle": true,
        "forceSteer": true,
        "targetNpcAlias": "30599",
        "fixInterNull": true,
        "APKIBBLJLON": ""
      },
      {
        "$type": "MFLLBDNLNBG",
        "type": "STEER_TO",
        "delayTime": 0.30000001192092896,
        "duration": 0.800000011920929,
        "aliasList": [
          "30599"
        ],
        "actionId": 130,
        "_flag": 32,
        "steerType": "TO_LOCAL_AVATAR_ADVANCED",
        "useSteerAnim": true,
        "interruptFreestyle": true,
        "forceSteer": true,
        "targetNpcAlias": "",
        "fixInterNull": true,
        "APKIBBLJLON": ""
      },
      {
        "$type": "KMKDFCOPMLP",
        "type": "LOOK_AT",
        "aliasList": [
          "Avatar"
        ],
        "actionId": 135,
        "_flag": 64,
        "enableHead": true,
        "headTurnTime": 0.5,
        "targetNpcAlias": "30599",
        "openBackProtect": true,
        "backProtectAngle": 10.0,
        "targetNpcLookAtPoint": "",
        "APKIBBLJLON": ""
      },
      {
        "$type": "KMKDFCOPMLP",
        "type": "LOOK_AT",
        "aliasList": [
          "30599"
        ],
        "actionId": 136,
        "_flag": 64,
        "enableHead": true,
        "headTurnTime": 0.5,
        "targetNpcAlias": "Avatar",
        "openBackProtect": true,
        "backProtectAngle": 10.0,
        "targetNpcLookAtPoint": "",
        "APKIBBLJLON": ""
      }
    ],
    [
      {
        "$type": "NDPINFEKFAN",
        "type": "DIALOG",
        "aliasList": [
          "30599"
        ],
        "actionId": 107,
        "dialogID": 401652101,
        "protectTime": 0.5
      },
      {
        "$type": "FAHGFJPOMGP",
        "type": "DIALOG_SELECT",
        "delayTime": 0.4000000059604645,
        "aliasList": [
          "Avatar"
        ],
        "actionId": 108,
        "dialogIDList": [
          401652102,
          401652106,
          401652110,
          401652113
        ],
        "grpIDList": [
          2351780766,
          2351780769,
          2351780772,
          4185726997
        ],
        "useGrpId": true,
        "countDownGrpId": 2351780763
      },
      {
        "$type": "AHHBJGEHACH",
        "type": "BODY_LANG",
        "aliasList": [
          "30599"
        ],
        "actionId": 137,
        "_flag": 131072,
        "bodyLangParam": 1060,
        "forceDoFreeStyle": true,
        "canDoRepeatFreeStyle": false,
        "cantBackToIdleWhenSitLoop": true,
        "eventPatternSuiteKey": ""
      },
      {
        "$type": "AHHBJGEHACH",
        "type": "BODY_LANG",
        "delayTime": 2.5380001068115234,
        "aliasList": [
          "30599"
        ],
        "actionId": 138,
        "_flag": 131072,
        "isContinue": true,
        "forceDoFreeStyle": true,
        "canDoRepeatFreeStyle": false,
        "cantBackToIdleWhenSitLoop": true,
        "eventPatternSuiteKey": ""
      },
      {
        "$type": "KNDPHIODCAO",
        "type": "EMO_SYNC",
        "aliasList": [
          "30599"
        ],
        "actionId": 182,
        "_flag": 256,
        "dataPath": "Cs_Emo_Avatar_Simple_Common_Set/Cs_Emo_Avatar_Talk/Cs_Emo_Avatar_Event/Cs_Emo_Avatar_Fairy/Cs_Emo_401652101",
        "phonemePath": "",
        "emotionPath": "",
        "mateDataPath": "",
        "matePhonemePath": "",
        "mateEmotionPath": "",
        "dataPathHashList": [
          10193267464160161090,
          13266022041761229485,
          5288955762520014351,
          14183054772838227122
        ],
        "LGOOHJOPJOJ": "",
        "HCHELJAGBIB": ""
      }
    ],
    [
      {
        "$type": "NDPINFEKFAN",
        "type": "DIALOG",
        "aliasList": [
          "30599"
        ],
        "actionId": 110,
        "dialogID": 401652103,
        "protectTime": 0.5
      },
      {
        "$type": "AHHBJGEHACH",
        "type": "BODY_LANG",
        "aliasList": [
          "30599"
        ],
        "actionId": 139,
        "_flag": 131072,
        "isContinue": true,
        "forceDoFreeStyle": true,
        "canDoRepeatFreeStyle": false,
        "cantBackToIdleWhenSitLoop": true,
        "eventPatternSuiteKey": ""
      },
      {
        "$type": "AHHBJGEHACH",
        "type": "BODY_LANG",
        "delayTime": 1.9459999799728394,
        "aliasList": [
          "30599"
        ],
        "actionId": 141,
        "_flag": 131072,
        "bodyLangParam": 1220,
        "forceDoFreeStyle": true,
        "canDoRepeatFreeStyle": false,
        "cantBackToIdleWhenSitLoop": true,
        "eventPatternSuiteKey": ""
      },
      {
        "$type": "AHHBJGEHACH",
        "type": "BODY_LANG",
        "delayTime": 5.446000099182129,
        "aliasList": [
          "30599"
        ],
        "actionId": 142,
        "_flag": 131072,
        "bodyLangParam": 4031,
        "forceDoFreeStyle": true,
        "canDoRepeatFreeStyle": false,
        "dontClearPreFreeStyle": true,
        "cantBackToIdleWhenSitLoop": true,
        "eventPatternSuiteKey": ""
      },
      {
        "$type": "AHHBJGEHACH",
        "type": "BODY_LANG",
        "delayTime": 7.809000015258789,
        "aliasList": [
          "30599"
        ],
        "actionId": 143,
        "_flag": 131072,
        "isContinue": true,
        "forceDoFreeStyle": true,
        "canDoRepeatFreeStyle": false,
        "cantBackToIdleWhenSitLoop": true,
        "eventPatternSuiteKey": ""
      },
      {
        "$type": "KNDPHIODCAO",
        "type": "EMO_SYNC",
        "aliasList": [
          "30599"
        ],
        "actionId": 183,
        "_flag": 256,
        "dataPath": "Cs_Emo_Avatar_Simple_Common_Set/Cs_Emo_Avatar_Talk/Cs_Emo_Avatar_Event/Cs_Emo_Avatar_Fairy/Cs_Emo_401652103",
        "phonemePath": "",
        "emotionPath": "",
        "mateDataPath": "",
        "matePhonemePath": "",
        "mateEmotionPath": "",
        "dataPathHashList": [
          8292320026588953019,
          4854757748616239263,
          6225191440966717482,
          4509391455166873246
        ],
        "LGOOHJOPJOJ": "",
        "HCHELJAGBIB": ""
      }
    ],
    [
      {
        "$type": "NDPINFEKFAN",
        "type": "DIALOG",
        "aliasList": [
          "30599"
        ],
        "actionId": 112,
        "dialogID": 401652104,
        "protectTime": 0.5
      },
      {
        "$type": "AHHBJGEHACH",
        "type": "BODY_LANG",
        "aliasList": [
          "30599"
        ],
        "actionId": 144,
        "_flag": 131072,
        "isContinue": true,
        "forceDoFreeStyle": true,
        "canDoRepeatFreeStyle": false,
        "cantBackToIdleWhenSitLoop": true,
        "eventPatternSuiteKey": ""
      },
      {
        "$type": "AHHBJGEHACH",
        "type": "BODY_LANG",
        "delayTime": 2.749000072479248,
        "aliasList": [
          "30599"
        ],
        "actionId": 145,
        "_flag": 131072,
        "bodyLangParam": 1110,
        "forceDoFreeStyle": true,
        "canDoRepeatFreeStyle": false,
        "cantBackToIdleWhenSitLoop": true,
        "eventPatternSuiteKey": ""
      },
      {
        "$type": "AHHBJGEHACH",
        "type": "BODY_LANG",
        "delayTime": 8.392999649047852,
        "aliasList": [
          "30599"
        ],
        "actionId": 146,
        "_flag": 131072,
        "isContinue": true,
        "forceDoFreeStyle": true,
        "canDoRepeatFreeStyle": false,
        "cantBackToIdleWhenSitLoop": true,
        "eventPatternSuiteKey": ""
      },
      {
        "$type": "AHHBJGEHACH",
        "type": "BODY_LANG",
        "delayTime": 6.38100004196167,
        "aliasList": [
          "30599"
        ],
        "actionId": 148,
        "_flag": 131072,
        "bodyLangParam": 4041,
        "forceDoFreeStyle": true,
        "canDoRepeatFreeStyle": false,
        "dontClearPreFreeStyle": true,
        "cantBackToIdleWhenSitLoop": true,
        "eventPatternSuiteKey": ""
      },
      {
        "$type": "KNDPHIODCAO",
        "type": "EMO_SYNC",
        "aliasList": [
          "30599"
        ],
        "actionId": 184,
        "_flag": 256,
        "dataPath": "Cs_Emo_Avatar_Simple_Common_Set/Cs_Emo_Avatar_Talk/Cs_Emo_Avatar_Event/Cs_Emo_Avatar_Fairy/Cs_Emo_401652104",
        "phonemePath": "",
        "emotionPath": "",
        "mateDataPath": "",
        "matePhonemePath": "",
        "mateEmotionPath": "",
        "dataPathHashList": [
          579694356430134822,
          12154827869052023115,
          626245278122928991,
          7586761078215105153
        ],
        "LGOOHJOPJOJ": "",
        "HCHELJAGBIB": ""
      }
    ],
    [
      {
        "$type": "NDPINFEKFAN",
        "type": "DIALOG",
        "aliasList": [
          "30599"
        ],
        "actionId": 114,
        "dialogID": 401652105,
        "protectTime": 0.5
      },
      {
        "$type": "FAHGFJPOMGP",
        "type": "DIALOG_SELECT",
        "delayTime": 0.4000000059604645,
        "aliasList": [
          "Avatar"
        ],
        "actionId": 132,
        "dialogIDList": [
          401652102,
          401652106,
          401652110,
          401652113
        ],
        "grpIDList": [
          2351780766,
          2351780769,
          2351780772,
          4185726997
        ],
        "useGrpId": true,
        "countDownGrpId": 2351780763
      },
      {
        "$type": "AHHBJGEHACH",
        "type": "BODY_LANG",
        "aliasList": [
          "30599"
        ],
        "actionId": 147,
        "_flag": 131072,
        "isContinue": true,
        "forceDoFreeStyle": true,
        "canDoRepeatFreeStyle": false,
        "cantBackToIdleWhenSitLoop": true,
        "eventPatternSuiteKey": ""
      },
      {
        "$type": "AHHBJGEHACH",
        "type": "BODY_LANG",
        "delayTime": 0.4350000023841858,
        "aliasList": [
          "30599"
        ],
        "actionId": 149,
        "_flag": 131072,
        "bodyLangParam": 1160,
        "forceDoFreeStyle": true,
        "canDoRepeatFreeStyle": false,
        "cantBackToIdleWhenSitLoop": true,
        "eventPatternSuiteKey": ""
      },
      {
        "$type": "KMKDFCOPMLP",
        "type": "LOOK_AT",
        "delayTime": 0.34700000286102295,
        "aliasList": [
          "30599"
        ],
        "actionId": 150,
        "_flag": 64,
        "enableHead": true,
        "headTurnTime": 0.5,
        "targetNpcAlias": "",
        "openBackProtect": true,
        "backProtectAngle": 10.0,
        "targetNpcLookAtPoint": "",
        "APKIBBLJLON": ""
      },
      {
        "$type": "AHHBJGEHACH",
        "type": "BODY_LANG",
        "delayTime": 2.5789999961853027,
        "aliasList": [
          "30599"
        ],
        "actionId": 151,
        "_flag": 131072,
        "bodyLangParam": 4040,
        "forceDoFreeStyle": true,
        "canDoRepeatFreeStyle": false,
        "dontClearPreFreeStyle": true,
        "cantBackToIdleWhenSitLoop": true,
        "eventPatternSuiteKey": ""
      },
      {
        "$type": "KNDPHIODCAO",
        "type": "EMO_SYNC",
        "aliasList": [
          "30599"
        ],
        "actionId": 185,
        "_flag": 256,
        "dataPath": "Cs_Emo_Avatar_Simple_Common_Set/Cs_Emo_Avatar_Talk/Cs_Emo_Avatar_Event/Cs_Emo_Avatar_Fairy/Cs_Emo_401652105",
        "phonemePath": "",
        "emotionPath": "",
        "mateDataPath": "",
        "matePhonemePath": "",
        "mateEmotionPath": "",
        "dataPathHashList": [
          1939891823238772672,
          7312594421403071122,
          1345459063195636075,
          14911660287394991548
        ],
        "LGOOHJOPJOJ": "",
        "HCHELJAGBIB": ""
      }
    ],
    [
      {
        "$type": "NDPINFEKFAN",
        "type": "DIALOG",
        "aliasList": [
          "30599"
        ],
        "actionId": 116,
        "dialogID": 401652107,
        "protectTime": 0.5
      },
      {
        "$type": "AHHBJGEHACH",
        "type": "BODY_LANG",
        "aliasList": [
          "30599"
        ],
        "actionId": 152,
        "_flag": 131072,
        "isContinue": true,
        "forceDoFreeStyle": true,
        "canDoRepeatFreeStyle": false,
        "cantBackToIdleWhenSitLoop": true,
        "eventPatternSuiteKey": ""
      },
      {
        "$type": "KMKDFCOPMLP",
        "type": "LOOK_AT",
        "aliasList": [
          "30599"
        ],
        "actionId": 153,
        "_flag": 64,
        "enableHead": true,
        "headTurnTime": 0.5,
        "targetNpcAlias": "Avatar",
        "openBackProtect": true,
        "backProtectAngle": 10.0,
        "targetNpcLookAtPoint": "",
        "APKIBBLJLON": ""
      },
      {
        "$type": "AHHBJGEHACH",
        "type": "BODY_LANG",
        "delayTime": 0.5,
        "aliasList": [
          "30599"
        ],
        "actionId": 155,
        "_flag": 131072,
        "bodyLangParam": 1060,
        "forceDoFreeStyle": true,
        "canDoRepeatFreeStyle": false,
        "cantBackToIdleWhenSitLoop": true,
        "eventPatternSuiteKey": ""
      },
      {
        "$type": "AHHBJGEHACH",
        "type": "BODY_LANG",
        "delayTime": 5.443999767303467,
        "aliasList": [
          "30599"
        ],
        "actionId": 156,
        "_flag": 131072,
        "isContinue": true,
        "forceDoFreeStyle": true,
        "canDoRepeatFreeStyle": false,
        "cantBackToIdleWhenSitLoop": true,
        "eventPatternSuiteKey": ""
      },
      {
        "$type": "AHHBJGEHACH",
        "type": "BODY_LANG",
        "delayTime": 6.01200008392334,
        "aliasList": [
          "30599"
        ],
        "actionId": 157,
        "_flag": 131072,
        "bodyLangParam": 1171,
        "forceDoFreeStyle": true,
        "canDoRepeatFreeStyle": false,
        "cantBackToIdleWhenSitLoop": true,
        "eventPatternSuiteKey": ""
      },
      {
        "$type": "KNDPHIODCAO",
        "type": "EMO_SYNC",
        "aliasList": [
          "30599"
        ],
        "actionId": 186,
        "_flag": 256,
        "dataPath": "Cs_Emo_Avatar_Simple_Common_Set/Cs_Emo_Avatar_Talk/Cs_Emo_Avatar_Event/Cs_Emo_Avatar_Fairy/Cs_Emo_401652107",
        "phonemePath": "",
        "emotionPath": "",
        "mateDataPath": "",
        "matePhonemePath": "",
        "mateEmotionPath": "",
        "enableBlink": false,
        "dataPathHashList": [
          16659920021569068334,
          9072081752822672454,
          13746332704428462229,
          5066969970800184568
        ],
        "LGOOHJOPJOJ": "",
        "HCHELJAGBIB": ""
      }
    ],
    [
      {
        "$type": "NDPINFEKFAN",
        "type": "DIALOG",
        "aliasList": [
          "30599"
        ],
        "actionId": 118,
        "dialogID": 401652108,
        "protectTime": 0.5
      },
      {
        "$type": "AHHBJGEHACH",
        "type": "BODY_LANG",
        "aliasList": [
          "30599"
        ],
        "actionId": 158,
        "_flag": 131072,
        "isContinue": true,
        "forceDoFreeStyle": true,
        "canDoRepeatFreeStyle": false,
        "cantBackToIdleWhenSitLoop": true,
        "eventPatternSuiteKey": ""
      },
      {
        "$type": "AHHBJGEHACH",
        "type": "BODY_LANG",
        "delayTime": 0.5899999737739563,
        "aliasList": [
          "30599"
        ],
        "actionId": 159,
        "_flag": 131072,
        "bodyLangParam": 1173,
        "forceDoFreeStyle": true,
        "canDoRepeatFreeStyle": false,
        "cantBackToIdleWhenSitLoop": true,
        "eventPatternSuiteKey": ""
      },
      {
        "$type": "AHHBJGEHACH",
        "type": "BODY_LANG",
        "delayTime": 4.877999782562256,
        "aliasList": [
          "30599"
        ],
        "actionId": 160,
        "_flag": 131072,
        "bodyLangParam": 1030,
        "forceDoFreeStyle": true,
        "canDoRepeatFreeStyle": false,
        "cantBackToIdleWhenSitLoop": true,
        "eventPatternSuiteKey": ""
      },
      {
        "$type": "AHHBJGEHACH",
        "type": "BODY_LANG",
        "delayTime": 7.372000217437744,
        "aliasList": [
          "30599"
        ],
        "actionId": 161,
        "_flag": 131072,
        "bodyLangParam": 4040,
        "forceDoFreeStyle": true,
        "canDoRepeatFreeStyle": false,
        "dontClearPreFreeStyle": true,
        "cantBackToIdleWhenSitLoop": true,
        "eventPatternSuiteKey": ""
      },
      {
        "$type": "AHHBJGEHACH",
        "type": "BODY_LANG",
        "delayTime": 8.902999877929688,
        "aliasList": [
          "30599"
        ],
        "actionId": 162,
        "_flag": 131072,
        "isContinue": true,
        "forceDoFreeStyle": true,
        "canDoRepeatFreeStyle": false,
        "cantBackToIdleWhenSitLoop": true,
        "eventPatternSuiteKey": ""
      },
      {
        "$type": "KNDPHIODCAO",
        "type": "EMO_SYNC",
        "aliasList": [
          "30599"
        ],
        "actionId": 187,
        "_flag": 256,
        "dataPath": "Cs_Emo_Avatar_Simple_Common_Set/Cs_Emo_Avatar_Talk/Cs_Emo_Avatar_Event/Cs_Emo_Avatar_Fairy/Cs_Emo_401652108",
        "phonemePath": "",
        "emotionPath": "",
        "mateDataPath": "",
        "matePhonemePath": "",
        "mateEmotionPath": "",
        "dataPathHashList": [
          11095672344504304611,
          1417919348973512030,
          4120451569584205159,
          1159845021837463626
        ],
        "LGOOHJOPJOJ": "",
        "HCHELJAGBIB": ""
      }
    ],
    [
      {
        "$type": "NDPINFEKFAN",
        "type": "DIALOG",
        "aliasList": [
          "30599"
        ],
        "actionId": 120,
        "dialogID": 401652109,
        "protectTime": 0.5
      },
      {
        "$type": "FAHGFJPOMGP",
        "type": "DIALOG_SELECT",
        "delayTime": 0.4000000059604645,
        "aliasList": [
          "Avatar"
        ],
        "actionId": 133,
        "dialogIDList": [
          401652102,
          401652106,
          401652110,
          401652113
        ],
        "grpIDList": [
          2351780766,
          2351780769,
          2351780772,
          4185726997
        ],
        "useGrpId": true,
        "countDownGrpId": 2351780763
      },
      {
        "$type": "AHHBJGEHACH",
        "type": "BODY_LANG",
        "aliasList": [
          "30599"
        ],
        "actionId": 163,
        "_flag": 131072,
        "isContinue": true,
        "forceDoFreeStyle": true,
        "canDoRepeatFreeStyle": false,
        "cantBackToIdleWhenSitLoop": true,
        "eventPatternSuiteKey": ""
      },
      {
        "$type": "AHHBJGEHACH",
        "type": "BODY_LANG",
        "aliasList": [
          "30599"
        ],
        "actionId": 165,
        "_flag": 131072,
        "bodyLangParam": 4031,
        "forceDoFreeStyle": true,
        "canDoRepeatFreeStyle": false,
        "dontClearPreFreeStyle": true,
        "cantBackToIdleWhenSitLoop": true,
        "eventPatternSuiteKey": ""
      },
      {
        "$type": "AHHBJGEHACH",
        "type": "BODY_LANG",
        "delayTime": 3.0220000743865967,
        "aliasList": [
          "30599"
        ],
        "actionId": 166,
        "_flag": 131072,
        "bodyLangParam": 1172,
        "forceDoFreeStyle": true,
        "canDoRepeatFreeStyle": false,
        "cantBackToIdleWhenSitLoop": true,
        "eventPatternSuiteKey": ""
      },
      {
        "$type": "KNDPHIODCAO",
        "type": "EMO_SYNC",
        "aliasList": [
          "30599"
        ],
        "actionId": 188,
        "_flag": 256,
        "dataPath": "Cs_Emo_Avatar_Simple_Common_Set/Cs_Emo_Avatar_Talk/Cs_Emo_Avatar_Event/Cs_Emo_Avatar_Fairy/Cs_Emo_401652109",
        "phonemePath": "",
        "emotionPath": "",
        "mateDataPath": "",
        "matePhonemePath": "",
        "mateEmotionPath": "",
        "dataPathHashList": [
          16517145023672855127,
          7346516097948235949,
          13477273643749271240,
          6344592553275361209
        ],
        "LGOOHJOPJOJ": "",
        "HCHELJAGBIB": ""
      }
    ],
    [
      {
        "$type": "NDPINFEKFAN",
        "type": "DIALOG",
        "aliasList": [
          "30599"
        ],
        "actionId": 122,
        "dialogID": 401652111,
        "protectTime": 0.5
      },
      {
        "$type": "AHHBJGEHACH",
        "type": "BODY_LANG",
        "aliasList": [
          "30599"
        ],
        "actionId": 167,
        "_flag": 131072,
        "isContinue": true,
        "forceDoFreeStyle": true,
        "canDoRepeatFreeStyle": false,
        "cantBackToIdleWhenSitLoop": true,
        "eventPatternSuiteKey": ""
      },
      {
        "$type": "AHHBJGEHACH",
        "type": "BODY_LANG",
        "delayTime": 0.4569999873638153,
        "aliasList": [
          "30599"
        ],
        "actionId": 168,
        "_flag": 131072,
        "bodyLangParam": 1110,
        "forceDoFreeStyle": true,
        "canDoRepeatFreeStyle": false,
        "cantBackToIdleWhenSitLoop": true,
        "eventPatternSuiteKey": ""
      },
      {
        "$type": "AHHBJGEHACH",
        "type": "BODY_LANG",
        "delayTime": 4.263000011444092,
        "aliasList": [
          "30599"
        ],
        "actionId": 169,
        "_flag": 131072,
        "isContinue": true,
        "forceDoFreeStyle": true,
        "canDoRepeatFreeStyle": false,
        "cantBackToIdleWhenSitLoop": true,
        "eventPatternSuiteKey": ""
      },
      {
        "$type": "KNDPHIODCAO",
        "type": "EMO_SYNC",
        "aliasList": [
          "30599"
        ],
        "actionId": 189,
        "_flag": 256,
        "dataPath": "Cs_Emo_Avatar_Simple_Common_Set/Cs_Emo_Avatar_Talk/Cs_Emo_Avatar_Event/Cs_Emo_Avatar_Fairy/Cs_Emo_401652111",
        "phonemePath": "",
        "emotionPath": "",
        "mateDataPath": "",
        "matePhonemePath": "",
        "mateEmotionPath": "",
        "dataPathHashList": [
          14240396201887214540,
          7966506217052019148,
          12571738329512066618,
          1645169111279570066
        ],
        "LGOOHJOPJOJ": "",
        "HCHELJAGBIB": ""
      }
    ],
    [
      {
        "$type": "NDPINFEKFAN",
        "type": "DIALOG",
        "aliasList": [
          "30599"
        ],
        "actionId": 124,
        "dialogID": 401652112,
        "protectTime": 0.5
      },
      {
        "$type": "FAHGFJPOMGP",
        "type": "DIALOG_SELECT",
        "delayTime": 0.4000000059604645,
        "aliasList": [
          "Avatar"
        ],
        "actionId": 134,
        "dialogIDList": [
          401652102,
          401652106,
          401652110,
          401652113
        ],
        "grpIDList": [
          2351780766,
          2351780769,
          2351780772,
          4185726997
        ],
        "useGrpId": true,
        "countDownGrpId": 2351780763
      },
      {
        "$type": "AHHBJGEHACH",
        "type": "BODY_LANG",
        "aliasList": [
          "30599"
        ],
        "actionId": 170,
        "_flag": 131072,
        "isContinue": true,
        "forceDoFreeStyle": true,
        "canDoRepeatFreeStyle": false,
        "cantBackToIdleWhenSitLoop": true,
        "eventPatternSuiteKey": ""
      },
      {
        "$type": "AHHBJGEHACH",
        "type": "BODY_LANG",
        "delayTime": 0.44600000977516174,
        "aliasList": [
          "30599"
        ],
        "actionId": 171,
        "_flag": 131072,
        "bodyLangParam": 1220,
        "forceDoFreeStyle": true,
        "canDoRepeatFreeStyle": false,
        "cantBackToIdleWhenSitLoop": true,
        "eventPatternSuiteKey": ""
      },
      {
        "$type": "AHHBJGEHACH",
        "type": "BODY_LANG",
        "delayTime": 2.9839999675750732,
        "aliasList": [
          "30599"
        ],
        "actionId": 172,
        "_flag": 131072,
        "bodyLangParam": 1221,
        "forceDoFreeStyle": true,
        "canDoRepeatFreeStyle": false,
        "cantBackToIdleWhenSitLoop": true,
        "eventPatternSuiteKey": ""
      },
      {
        "$type": "AHHBJGEHACH",
        "type": "BODY_LANG",
        "delayTime": 5.126999855041504,
        "aliasList": [
          "30599"
        ],
        "actionId": 173,
        "_flag": 131072,
        "isContinue": true,
        "forceDoFreeStyle": true,
        "canDoRepeatFreeStyle": false,
        "cantBackToIdleWhenSitLoop": true,
        "eventPatternSuiteKey": ""
      },
      {
        "$type": "AHHBJGEHACH",
        "type": "BODY_LANG",
        "delayTime": 7.359000205993652,
        "aliasList": [
          "30599"
        ],
        "actionId": 174,
        "_flag": 131072,
        "bodyLangParam": 4030,
        "forceDoFreeStyle": true,
        "canDoRepeatFreeStyle": false,
        "dontClearPreFreeStyle": true,
        "cantBackToIdleWhenSitLoop": true,
        "eventPatternSuiteKey": ""
      },
      {
        "$type": "KNDPHIODCAO",
        "type": "EMO_SYNC",
        "aliasList": [
          "30599"
        ],
        "actionId": 190,
        "_flag": 256,
        "dataPath": "Cs_Emo_Avatar_Simple_Common_Set/Cs_Emo_Avatar_Talk/Cs_Emo_Avatar_Event/Cs_Emo_Avatar_Fairy/Cs_Emo_401652112",
        "phonemePath": "",
        "emotionPath": "",
        "mateDataPath": "",
        "matePhonemePath": "",
        "mateEmotionPath": "",
        "dataPathHashList": [
          1770292884901931904,
          15494284417107414811,
          16098337440571771293,
          17570388000850100896
        ],
        "LGOOHJOPJOJ": "",
        "HCHELJAGBIB": ""
      }
    ],
    [
      {
        "$type": "NDPINFEKFAN",
        "type": "DIALOG",
        "aliasList": [
          "30599"
        ],
        "actionId": 126,
        "dialogID": 401652114,
        "protectTime": 0.5
      },
      {
        "$type": "AHHBJGEHACH",
        "type": "BODY_LANG",
        "aliasList": [
          "30599"
        ],
        "actionId": 175,
        "_flag": 131072,
        "isContinue": true,
        "forceDoFreeStyle": true,
        "canDoRepeatFreeStyle": false,
        "cantBackToIdleWhenSitLoop": true,
        "eventPatternSuiteKey": ""
      },
      {
        "$type": "AHHBJGEHACH",
        "type": "BODY_LANG",
        "delayTime": 0.42800000309944153,
        "aliasList": [
          "30599"
        ],
        "actionId": 176,
        "_flag": 131072,
        "isContinue": true,
        "forceDoFreeStyle": true,
        "canDoRepeatFreeStyle": false,
        "cantBackToIdleWhenSitLoop": true,
        "eventPatternSuiteKey": ""
      },
      {
        "$type": "AHHBJGEHACH",
        "type": "BODY_LANG",
        "delayTime": 0.8220000267028809,
        "aliasList": [
          "30599"
        ],
        "actionId": 177,
        "_flag": 131072,
        "bodyLangParam": 1130,
        "forceDoFreeStyle": true,
        "canDoRepeatFreeStyle": false,
        "cantBackToIdleWhenSitLoop": true,
        "eventPatternSuiteKey": ""
      },
      {
        "$type": "KNDPHIODCAO",
        "type": "EMO_SYNC",
        "aliasList": [
          "30599"
        ],
        "actionId": 191,
        "_flag": 320,
        "dataPath": "Cs_Emo_Avatar_Simple_Common_Set/Cs_Emo_Avatar_Talk/Cs_Emo_Avatar_Event/Cs_Emo_Avatar_Fairy/Cs_Emo_401652114",
        "phonemePath": "",
        "emotionPath": "",
        "mateDataPath": "",
        "matePhonemePath": "",
        "mateEmotionPath": "",
        "enableBlink": false,
        "dataPathHashList": [
          14338172968883576055,
          12580915046217247276,
          10440881761790703451,
          2386778263407290488
        ],
        "LGOOHJOPJOJ": "",
        "HCHELJAGBIB": ""
      }
    ],
    [
      {
        "$type": "MoleMole.Config.ConfigTimeProtectAction",
        "type": "TIME_PROTECT",
        "duration": 0.10000000149011612,
        "actionId": 128
      },
      {
        "$type": "AHHBJGEHACH",
        "type": "BODY_LANG",
        "aliasList": [
          "30599"
        ],
        "actionId": 178,
        "_flag": 131072,
        "isContinue": true,
        "forceDoFreeStyle": true,
        "canDoRepeatFreeStyle": false,
        "cantBackToIdleWhenSitLoop": true,
        "eventPatternSuiteKey": ""
      }
    ],
    [
      {
        "$type": "MoleMole.Config.ConfigTimeProtectAction",
        "type": "TIME_PROTECT",
        "duration": 0.10000000149011612,
        "actionId": 105
      },
      {
        "$type": "MFLLBDNLNBG",
        "type": "STEER_TO",
        "duration": 1.0,
        "aliasList": [
          "30599"
        ],
        "actionId": 131,
        "_flag": 32,
        "steerType": "RETURN",
        "useSteerAnim": true,
        "interruptFreestyle": true,
        "forceSteer": true,
        "targetNpcAlias": "",
        "ignoreY": true,
        "fixInterNull": true,
        "APKIBBLJLON": ""
      },
      {
        "$type": "AHHBJGEHACH",
        "type": "BODY_LANG",
        "aliasList": [
          "30599"
        ],
        "actionId": 180,
        "_flag": 131072,
        "isContinue": true,
        "forceDoFreeStyle": true,
        "canDoRepeatFreeStyle": false,
        "cantBackToIdleWhenSitLoop": true,
        "eventPatternSuiteKey": ""
      },
      {
        "$type": "KMKDFCOPMLP",
        "type": "LOOK_AT",
        "aliasList": [
          "30599"
        ],
        "actionId": 181,
        "_flag": 64,
        "enableHead": true,
        "headTurnTime": 0.5,
        "targetNpcAlias": "",
        "openBackProtect": true,
        "backProtectAngle": 10.0,
        "targetNpcLookAtPoint": "",
        "APKIBBLJLON": ""
      }
    ]
  ],
  "groupId": [
    {
      "grpId": 2351780764,
      "nextGrpId": 2351780765,
      "_noCircleNextGrpId": 2351780765
    },
    {
      "index": 1,
      "grpId": 2351780765,
      "nextGrpId": 2351780766,
      "_noCircleNextGrpId": 4185726997
    },
    {
      "index": 2,
      "grpId": 2351780766,
      "nextGrpId": 2351780767,
      "_noCircleNextGrpId": 2351780767
    },
    {
      "index": 3,
      "grpId": 2351780767,
      "nextGrpId": 2351780768,
      "_noCircleNextGrpId": 2351780768
    },
    {
      "index": 4,
      "grpId": 2351780768,
      "nextGrpId": 4185726998,
      "_noCircleNextGrpId": 4185726997
    },
    {
      "index": 5,
      "grpId": 2351780769,
      "nextGrpId": 2351780770,
      "_noCircleNextGrpId": 2351780770
    },
    {
      "index": 6,
      "grpId": 2351780770,
      "nextGrpId": 2351780771,
      "_noCircleNextGrpId": 2351780771
    },
    {
      "index": 7,
      "grpId": 2351780771,
      "nextGrpId": 4185726998,
      "_noCircleNextGrpId": 4185726997
    },
    {
      "index": 8,
      "grpId": 2351780772,
      "nextGrpId": 4185726996,
      "_noCircleNextGrpId": 4185726996
    },
    {
      "index": 9,
      "grpId": 4185726996,
      "nextGrpId": 4185726998,
      "_noCircleNextGrpId": 4185726997
    },
    {
      "index": 10,
      "grpId": 4185726997,
      "nextGrpId": 4185726998,
      "_noCircleNextGrpId": 4185726998
    },
    {
      "index": 11,
      "grpId": 4185726998,
      "nextGrpId": 4185726999,
      "_noCircleNextGrpId": 4185726999
    },
    {
      "index": 12,
      "grpId": 4185726999,
      "nextGrpId": 4185727000,
      "_noCircleNextGrpId": 4185727000
    }
  ],
  "freeStyleDic": {
    "30599": [
      1060,
      1220,
      4031,
      1110,
      4041,
      1160,
      4040,
      1171,
      1173,
      1030,
      1172,
      1221,
      4030,
      1130
    ]
  },
  "GJNILPCMCFC": {
    "30599": [
      "SitChat01AS",
      "SitHoldArm01AS",
      "SitPutArm01AS",
      "SitShrug01AS",
      "SitThink01AS"
    ]
  },
  "DOGNDDGFIOE": 4185726999
}