{
  "shuffle_ball": {
    "tag": "Ball",
    "ICBALLGCJGA": {
      "behaviours": [
        {
          "$type": "DEKBEDFKEHF",
          "PLJFNCKDOCL": "Eff_SceneObj_PA_ShuffleBall_Crash_01",
          "KGMHMHKFBHL": "",
          "JFFAHBOAKCD": {
            "AirWall": "Play_ui_activity_PenAdv_Ball_InLevel_HitStone",
            "DeploySurface_Wall": "Play_ui_activity_PenAdv_Ball_InLevel_HitWood",
            "Player": "Play_ui_activity_PenAdv_Ball_InLevel_HitBall"
          }
        },
        {
          "$type": "JELPKACCIKH",
          "effectPath": "Eff_SceneObj_PA_ShuffleBall_Appear_01",
          "BDLAOFFACDH": "EffectNode"
        }
      ]
    },
    "EJDKEBDNEMF": {
      "fire_effect_on_failure": {
        "behaviours": [
          {
            "$type": "JELPKACCIKH",
            "effectPath": "Eff_SceneObj_PA_ShuffleBall_Deregulation_01",
            "BDLAOFFACDH": "EffectNode"
          }
        ]
      },
      "suck_on_still": {
        "behaviours": [
          {
            "$type": "PIGPABCMDMF",
            "tag": "Ball",
            "FDNNMBBNMDH": 0.10000000149011612,
            "GDCBOMPGKIM": 1.0,
            "radius": 4.5,
            "KKNJBHCHLCI": 6.0,
            "effectPath": "Eff_SceneObj_PA_ShuffleBallWind_Skill_01",
            "BDLAOFFACDH": "EffectNode",
            "OGPHJJPMKIN": "ART/UI/UIScene/ShuffleBoardLevel/Penumbra_ShuffleBoard_SuckBallSkillBounce"
          }
        ]
      },
      "stick_on_collision": {
        "behaviours": [
          {
            "$type": "AHMKHKMGIML",
            "tag": "Ball",
            "effectPath": "Eff_SceneObj_PA_ShuffleBallAdjoin_Skill_01_Loop",
            "BDLAOFFACDH": "EffectNode",
            "LBMEEOOKKBP": "Play_ui_activity_PenAdv_Ball_InLevel_BallStick"
          }
        ]
      }
    }
  }
}