{
  "luaDataPath": "",
  "dontUseDefaultFinish": true,
  "startBlackKeepTime": 0.5,
  "entityBan": "",
  "disableNpcLod": true,
  "isAutoBanNpc": true,
  "isBanWidgetPet": true,
  "protectNpcMobileLod": true,
  "talkFlag": 7,
  "startFade": {
    "startFadeInDuration": 0.5,
    "startFadeOutDuration": 0.5
  },
  "endFade": {
    "startFadeOutDuration": 0.0
  },
  "actors": [
    {
      "alias": "Avatar",
      "visible": true,
      "bornPointName": "[3_6841:4205.313,526.764,4893.050,0.000,160.000,0.000]",
      "relativePosType": "AVATAR_NEW",
      "relativePosNpcAlias": "",
      "_bindMovingTargetKey": ""
    },
    {
      "alias": "AvatarNpc",
      "visible": true,
      "bornPointName": "[3_6841:4205.313,526.764,4893.050,0.000,160.000,0.000]",
      "removeActorType": "NEW_REMOVE",
      "relativePosType": "AVATAR_NEW",
      "relativePosNpcAlias": "",
      "_bindMovingTargetKey": ""
    },
    {
      "configID": 21172,
      "alias": "21172",
      "visible": true,
      "bornPointName": "[3_6522:4207.364,526.577,4890.632,0.000,322.893,0.000]",
      "removeActorType": "NEW_REMOVE",
      "relativePosType": "AVATAR_NEW",
      "relativePosNpcAlias": "",
      "_bindMovingTargetKey": ""
    },
    {
      "configID": 1005,
      "alias": "1005",
      "visible": true,
      "bornPointName": "",
      "useRelativePos": true,
      "relativePos": {
        "x": 1.0,
        "z": 0.20000000298023224
      },
      "removeActorType": "NEW_REMOVE_WITH_DISAPPEAR",
      "relativePosType": "AVATAR_NEW",
      "relativePosNpcAlias": "",
      "_bindMovingTargetKey": ""
    },
    {
      "configID": 21034,
      "alias": "21034",
      "visible": true,
      "bornPointName": "[3_6521:4206.965,526.834,4892.792,0.000,230.000,0.000]",
      "relativePosType": "AVATAR_NEW",
      "relativePosNpcAlias": "",
      "_bindMovingTargetKey": ""
    }
  ],
  "group": [
    [
      {
        "$type": "MoleMole.Config.ConfigTimeProtectAction",
        "type": "TIME_PROTECT",
        "duration": 1.0,
        "actionId": 104
      },
      {
        "$type": "MoleMole.Config.ConfigBlackScreenAction",
        "type": "BLACK_SCREEN",
        "duration": 1.0,
        "actionId": 242,
        "_flag": 2048,
        "blackScreenType": "KEEP_BLACK",
        "durationToBlack": 0.5,
        "durationKeepBlack": 1.0,
        "durationFromBlack": 0.5,
        "inteePos": "",
        "textMapID": "",
        "useTextFade": true,
        "_changeAudioState": true
      },
      {
        "$type": "MoleMole.Config.ConfigSitOrStandAction",
        "type": "SIT_OR_STAND",
        "aliasList": [
          "Avatar"
        ],
        "actionId": 246,
        "_flag": 8192,
        "banResetFreestyle": true
      },
      {
        "$type": "MoleMole.Config.ConfigVisibleInterAction",
        "type": "VISIBLE",
        "aliasList": [
          "Avatar"
        ],
        "actionId": 250,
        "_extraParam": ""
      },
      {
        "$type": "MoleMole.Config.ConfigPlayerNPCEnergyTypeAction",
        "type": "SET_PLAYER_NPC_ENERGY_TYPE",
        "aliasList": [
          "AvatarNpc"
        ],
        "actionId": 247,
        "setHeroEngergyType": true
      },
      {
        "$type": "FABLGECDBCH",
        "type": "BODY_LANG",
        "aliasList": [
          "AvatarNpc"
        ],
        "actionId": 248,
        "isContinue": true,
        "forceDoFreeStyle": true,
        "canDoRepeatFreeStyle": false,
        "eventPatternSuiteKey": "",
        "FOHHKFAIAAJ": ""
      },
      {
        "$type": "FABLGECDBCH",
        "type": "BODY_LANG",
        "aliasList": [
          "21172"
        ],
        "actionId": 236,
        "isContinue": true,
        "forceDoFreeStyle": true,
        "canDoRepeatFreeStyle": false,
        "eventPatternSuiteKey": "",
        "FOHHKFAIAAJ": ""
      },
      {
        "$type": "FABLGECDBCH",
        "type": "BODY_LANG",
        "aliasList": [
          "1005"
        ],
        "actionId": 238,
        "isContinue": true,
        "forceDoFreeStyle": true,
        "canDoRepeatFreeStyle": false,
        "eventPatternSuiteKey": "",
        "FOHHKFAIAAJ": ""
      },
      {
        "$type": "FABLGECDBCH",
        "type": "BODY_LANG",
        "aliasList": [
          "21034"
        ],
        "actionId": 240,
        "isContinue": true,
        "forceDoFreeStyle": true,
        "canDoRepeatFreeStyle": false,
        "eventPatternSuiteKey": "",
        "FOHHKFAIAAJ": ""
      },
      {
        "$type": "MoleMole.Config.ConfigVisibleInterAction",
        "type": "VISIBLE",
        "delayTime": 0.5,
        "aliasList": [
          "21034"
        ],
        "actionId": 254,
        "isVisible": true,
        "_extraParam": ""
      }
    ],
    [
      {
        "$type": "MoleMole.Config.ConfigBlackScreenAction",
        "type": "BLACK_SCREEN",
        "duration": 0.5,
        "actionId": 243,
        "_flag": 2048,
        "blackScreenType": "FROM_BLACK",
        "durationToBlack": 0.5,
        "durationKeepBlack": 0.5,
        "durationFromBlack": 0.5,
        "inteePos": "",
        "textMapID": "",
        "useTextFade": true,
        "_changeAudioState": true
      },
      {
        "$type": "PKKMAMONGEO",
        "type": "DIALOG",
        "aliasList": [
          "21172"
        ],
        "actionId": 107,
        "dialogID": 741430401,
        "protectTime": 0.5
      }
    ],
    [
      {
        "$type": "PKKMAMONGEO",
        "type": "DIALOG",
        "aliasList": [
          "1005"
        ],
        "actionId": 109,
        "dialogID": 741430402,
        "protectTime": 0.5
      }
    ],
    [
      {
        "$type": "PKKMAMONGEO",
        "type": "DIALOG",
        "aliasList": [
          "21034"
        ],
        "actionId": 111,
        "dialogID": 741430403,
        "protectTime": 0.5
      }
    ],
    [
      {
        "$type": "PKKMAMONGEO",
        "type": "DIALOG",
        "aliasList": [
          "21034"
        ],
        "actionId": 113,
        "dialogID": 741430404,
        "protectTime": 0.5
      }
    ],
    [
      {
        "$type": "PKKMAMONGEO",
        "type": "DIALOG",
        "aliasList": [
          "1005"
        ],
        "actionId": 115,
        "dialogID": 741430405,
        "protectTime": 0.5
      }
    ],
    [
      {
        "$type": "PKKMAMONGEO",
        "type": "DIALOG",
        "aliasList": [
          "21034"
        ],
        "actionId": 117,
        "dialogID": 741430406,
        "protectTime": 0.5
      }
    ],
    [
      {
        "$type": "PKKMAMONGEO",
        "type": "DIALOG",
        "aliasList": [
          "1005"
        ],
        "actionId": 119,
        "dialogID": 741430407,
        "protectTime": 0.5
      },
      {
        "$type": "HDGKHDNFMIM",
        "type": "DIALOG_SELECT",
        "delayTime": 0.4000000059604645,
        "aliasList": [
          "AvatarNpc"
        ],
        "actionId": 244,
        "dialogIDList": [
          741430408
        ],
        "grpIDList": [
          1978225344
        ],
        "useGrpId": true,
        "countDownGrpId": 1978225335
      }
    ],
    [
      {
        "$type": "MoleMole.Config.ConfigTimeProtectAction",
        "type": "TIME_PROTECT",
        "duration": 0.5,
        "aliasList": [
          "AvatarNpc"
        ],
        "actionId": 251
      },
      {
        "$type": "HDGKHDNFMIM",
        "type": "DIALOG_SELECT",
        "delayTime": 0.4000000059604645,
        "aliasList": [
          "AvatarNpc"
        ],
        "actionId": 245,
        "dialogIDList": [
          741430409
        ],
        "grpIDList": [
          1195443320
        ],
        "useGrpId": true,
        "countDownGrpId": 1978225335
      }
    ],
    [
      {
        "$type": "PKKMAMONGEO",
        "type": "DIALOG",
        "aliasList": [
          "21172"
        ],
        "actionId": 124,
        "dialogID": 741430410,
        "protectTime": 0.5
      }
    ],
    [
      {
        "$type": "PKKMAMONGEO",
        "type": "DIALOG",
        "aliasList": [
          "21172"
        ],
        "actionId": 126,
        "dialogID": 741430411,
        "protectTime": 0.5
      }
    ],
    [
      {
        "$type": "PKKMAMONGEO",
        "type": "DIALOG",
        "aliasList": [
          "1005"
        ],
        "actionId": 128,
        "dialogID": 741430412,
        "protectTime": 0.5
      }
    ],
    [
      {
        "$type": "PKKMAMONGEO",
        "type": "DIALOG",
        "aliasList": [
          "21172"
        ],
        "actionId": 130,
        "dialogID": 741430413,
        "protectTime": 0.5
      }
    ],
    [
      {
        "$type": "PKKMAMONGEO",
        "type": "DIALOG",
        "aliasList": [
          "21034"
        ],
        "actionId": 132,
        "dialogID": 741430414,
        "protectTime": 0.5
      }
    ],
    [
      {
        "$type": "PKKMAMONGEO",
        "type": "DIALOG",
        "aliasList": [
          "21034"
        ],
        "actionId": 134,
        "dialogID": 741430415,
        "protectTime": 0.5
      }
    ],
    [
      {
        "$type": "PKKMAMONGEO",
        "type": "DIALOG",
        "aliasList": [
          "1005"
        ],
        "actionId": 136,
        "dialogID": 741430416,
        "protectTime": 0.5
      }
    ],
    [
      {
        "$type": "PKKMAMONGEO",
        "type": "DIALOG",
        "aliasList": [
          "21172"
        ],
        "actionId": 138,
        "dialogID": 741430417,
        "protectTime": 0.5
      }
    ],
    [
      {
        "$type": "PKKMAMONGEO",
        "type": "DIALOG",
        "aliasList": [
          "1005"
        ],
        "actionId": 140,
        "dialogID": 741430418,
        "protectTime": 0.5
      }
    ],
    [
      {
        "$type": "PKKMAMONGEO",
        "type": "DIALOG",
        "aliasList": [
          "21034"
        ],
        "actionId": 142,
        "dialogID": 741430419,
        "protectTime": 0.5
      }
    ],
    [
      {
        "$type": "PKKMAMONGEO",
        "type": "DIALOG",
        "aliasList": [
          "21172"
        ],
        "actionId": 144,
        "dialogID": 741430420,
        "protectTime": 0.5
      }
    ],
    [
      {
        "$type": "PKKMAMONGEO",
        "type": "DIALOG",
        "aliasList": [
          "21034"
        ],
        "actionId": 146,
        "dialogID": 741430421,
        "protectTime": 0.5
      }
    ],
    [
      {
        "$type": "PKKMAMONGEO",
        "type": "DIALOG",
        "aliasList": [
          "21172"
        ],
        "actionId": 148,
        "dialogID": 741430422,
        "protectTime": 0.5
      }
    ],
    [
      {
        "$type": "MoleMole.Config.ConfigBlackScreenAction",
        "type": "BLACK_SCREEN",
        "actionId": 150,
        "_flag": 2048,
        "durationToBlack": 0.5,
        "durationKeepBlack": 3.0,
        "durationFromBlack": 0.5,
        "inteePos": "",
        "textMapID": "",
        "useTextFade": true,
        "_dialogID": 741430423,
        "needWaitClick": true,
        "_changeAudioState": true
      },
      {
        "$type": "PKKMAMONGEO",
        "type": "DIALOG_CLEAR",
        "actionId": 151
      }
    ],
    [
      {
        "$type": "PKKMAMONGEO",
        "type": "DIALOG",
        "aliasList": [
          "21034"
        ],
        "actionId": 153,
        "dialogID": 741430424,
        "protectTime": 0.5
      }
    ],
    [
      {
        "$type": "PKKMAMONGEO",
        "type": "DIALOG",
        "aliasList": [
          "21034"
        ],
        "actionId": 155,
        "dialogID": 741430425,
        "protectTime": 0.5
      }
    ],
    [
      {
        "$type": "PKKMAMONGEO",
        "type": "DIALOG",
        "aliasList": [
          "21034"
        ],
        "actionId": 157,
        "dialogID": 741430426,
        "protectTime": 0.5
      }
    ],
    [
      {
        "$type": "PKKMAMONGEO",
        "type": "DIALOG",
        "aliasList": [
          "21034"
        ],
        "actionId": 159,
        "dialogID": 741430427,
        "protectTime": 0.5
      }
    ],
    [
      {
        "$type": "PKKMAMONGEO",
        "type": "DIALOG",
        "aliasList": [
          "21034"
        ],
        "actionId": 161,
        "dialogID": 741430428,
        "protectTime": 0.5
      }
    ],
    [
      {
        "$type": "PKKMAMONGEO",
        "type": "DIALOG",
        "aliasList": [
          "21034"
        ],
        "actionId": 163,
        "dialogID": 741430429,
        "protectTime": 0.5
      }
    ],
    [
      {
        "$type": "PKKMAMONGEO",
        "type": "DIALOG",
        "aliasList": [
          "21034"
        ],
        "actionId": 165,
        "dialogID": 741430430,
        "protectTime": 0.5
      }
    ],
    [
      {
        "$type": "PKKMAMONGEO",
        "type": "DIALOG",
        "aliasList": [
          "21034"
        ],
        "actionId": 167,
        "dialogID": 741430431,
        "protectTime": 0.5
      }
    ],
    [
      {
        "$type": "PKKMAMONGEO",
        "type": "DIALOG",
        "aliasList": [
          "21034"
        ],
        "actionId": 169,
        "dialogID": 741430432,
        "protectTime": 0.5
      }
    ],
    [
      {
        "$type": "PKKMAMONGEO",
        "type": "DIALOG",
        "aliasList": [
          "21172"
        ],
        "actionId": 171,
        "dialogID": 741430433,
        "protectTime": 0.5
      }
    ],
    [
      {
        "$type": "PKKMAMONGEO",
        "type": "DIALOG",
        "aliasList": [
          "21034"
        ],
        "actionId": 173,
        "dialogID": 741430434,
        "protectTime": 0.5
      }
    ],
    [
      {
        "$type": "PKKMAMONGEO",
        "type": "DIALOG",
        "aliasList": [
          "21172"
        ],
        "actionId": 175,
        "dialogID": 741430435,
        "protectTime": 0.5
      }
    ],
    [
      {
        "$type": "PKKMAMONGEO",
        "type": "DIALOG",
        "aliasList": [
          "21172"
        ],
        "actionId": 177,
        "dialogID": 741430436,
        "protectTime": 0.5
      }
    ],
    [
      {
        "$type": "PKKMAMONGEO",
        "type": "DIALOG",
        "aliasList": [
          "21172"
        ],
        "actionId": 179,
        "dialogID": 741430437,
        "protectTime": 0.5
      }
    ],
    [
      {
        "$type": "PKKMAMONGEO",
        "type": "DIALOG",
        "aliasList": [
          "21172"
        ],
        "actionId": 181,
        "dialogID": 741430438,
        "protectTime": 0.5
      }
    ],
    [
      {
        "$type": "PKKMAMONGEO",
        "type": "DIALOG",
        "aliasList": [
          "21172"
        ],
        "actionId": 183,
        "dialogID": 741430439,
        "protectTime": 0.5
      }
    ],
    [
      {
        "$type": "PKKMAMONGEO",
        "type": "DIALOG",
        "aliasList": [
          "21172"
        ],
        "actionId": 185,
        "dialogID": 741430440,
        "protectTime": 0.5
      }
    ],
    [
      {
        "$type": "PKKMAMONGEO",
        "type": "DIALOG",
        "aliasList": [
          "21172"
        ],
        "actionId": 187,
        "dialogID": 741430441,
        "protectTime": 0.5
      }
    ],
    [
      {
        "$type": "PKKMAMONGEO",
        "type": "DIALOG",
        "aliasList": [
          "21172"
        ],
        "actionId": 189,
        "dialogID": 741430442,
        "protectTime": 0.5
      }
    ],
    [
      {
        "$type": "PKKMAMONGEO",
        "type": "DIALOG",
        "aliasList": [
          "21172"
        ],
        "actionId": 191,
        "dialogID": 741430443,
        "protectTime": 0.5
      }
    ],
    [
      {
        "$type": "PKKMAMONGEO",
        "type": "DIALOG",
        "aliasList": [
          "21172"
        ],
        "actionId": 193,
        "dialogID": 741430444,
        "protectTime": 0.5
      }
    ],
    [
      {
        "$type": "PKKMAMONGEO",
        "type": "DIALOG",
        "aliasList": [
          "21034"
        ],
        "actionId": 195,
        "dialogID": 741430445,
        "protectTime": 0.5
      }
    ],
    [
      {
        "$type": "PKKMAMONGEO",
        "type": "DIALOG",
        "aliasList": [
          "21172"
        ],
        "actionId": 197,
        "dialogID": 741430446,
        "protectTime": 0.5
      }
    ],
    [
      {
        "$type": "PKKMAMONGEO",
        "type": "DIALOG",
        "aliasList": [
          "21172"
        ],
        "actionId": 199,
        "dialogID": 741430447,
        "protectTime": 0.5
      }
    ],
    [
      {
        "$type": "PKKMAMONGEO",
        "type": "DIALOG",
        "aliasList": [
          "21172"
        ],
        "actionId": 201,
        "dialogID": 741430448,
        "protectTime": 0.5
      }
    ],
    [
      {
        "$type": "PKKMAMONGEO",
        "type": "DIALOG",
        "aliasList": [
          "21172"
        ],
        "actionId": 203,
        "dialogID": 741430449,
        "protectTime": 0.5
      }
    ],
    [
      {
        "$type": "PKKMAMONGEO",
        "type": "DIALOG",
        "aliasList": [
          "21172"
        ],
        "actionId": 205,
        "dialogID": 741430450,
        "protectTime": 0.5
      }
    ],
    [
      {
        "$type": "PKKMAMONGEO",
        "type": "DIALOG",
        "aliasList": [
          "21172"
        ],
        "actionId": 207,
        "dialogID": 741430451,
        "protectTime": 0.5
      }
    ],
    [
      {
        "$type": "PKKMAMONGEO",
        "type": "DIALOG",
        "aliasList": [
          "21172"
        ],
        "actionId": 209,
        "dialogID": 741430452,
        "protectTime": 0.5
      }
    ],
    [
      {
        "$type": "PKKMAMONGEO",
        "type": "DIALOG",
        "aliasList": [
          "21172"
        ],
        "actionId": 211,
        "dialogID": 741430453,
        "protectTime": 0.5
      }
    ],
    [
      {
        "$type": "PKKMAMONGEO",
        "type": "DIALOG",
        "aliasList": [
          "21172"
        ],
        "actionId": 213,
        "dialogID": 741430454,
        "protectTime": 0.5
      }
    ],
    [
      {
        "$type": "PKKMAMONGEO",
        "type": "DIALOG",
        "aliasList": [
          "21034"
        ],
        "actionId": 215,
        "dialogID": 741430455,
        "protectTime": 0.5
      }
    ],
    [
      {
        "$type": "PKKMAMONGEO",
        "type": "DIALOG",
        "aliasList": [
          "21172"
        ],
        "actionId": 217,
        "dialogID": 741430456,
        "protectTime": 0.5
      }
    ],
    [
      {
        "$type": "PKKMAMONGEO",
        "type": "DIALOG",
        "aliasList": [
          "1005"
        ],
        "actionId": 219,
        "dialogID": 741430457,
        "protectTime": 0.5
      }
    ],
    [
      {
        "$type": "PKKMAMONGEO",
        "type": "DIALOG",
        "aliasList": [
          "21034"
        ],
        "actionId": 221,
        "dialogID": 741430458,
        "protectTime": 0.5
      }
    ],
    [
      {
        "$type": "PKKMAMONGEO",
        "type": "DIALOG",
        "aliasList": [
          "21172"
        ],
        "actionId": 223,
        "dialogID": 741430459,
        "protectTime": 0.5
      }
    ],
    [
      {
        "$type": "PKKMAMONGEO",
        "type": "DIALOG",
        "aliasList": [
          "21172"
        ],
        "actionId": 225,
        "dialogID": 741430460,
        "protectTime": 0.5
      }
    ],
    [
      {
        "$type": "PKKMAMONGEO",
        "type": "DIALOG",
        "aliasList": [
          "21172"
        ],
        "actionId": 227,
        "dialogID": 741430461,
        "protectTime": 0.5
      }
    ],
    [
      {
        "$type": "PKKMAMONGEO",
        "type": "DIALOG",
        "aliasList": [
          "21034"
        ],
        "actionId": 229,
        "dialogID": 741430462,
        "protectTime": 0.5
      }
    ],
    [
      {
        "$type": "PKKMAMONGEO",
        "type": "DIALOG",
        "aliasList": [
          "21034"
        ],
        "actionId": 231,
        "dialogID": 741430463,
        "protectTime": 0.5
      }
    ],
    [
      {
        "$type": "PKKMAMONGEO",
        "type": "DIALOG",
        "aliasList": [
          "21172"
        ],
        "actionId": 233,
        "dialogID": 741430464,
        "protectTime": 0.5
      }
    ],
    [
      {
        "$type": "PKKMAMONGEO",
        "type": "DIALOG",
        "aliasList": [
          "21172"
        ],
        "actionId": 235,
        "dialogID": 741430465,
        "protectTime": 0.5
      }
    ],
    [
      {
        "$type": "MoleMole.Config.ConfigTimeProtectAction",
        "type": "TIME_PROTECT",
        "duration": 0.10000000149011612,
        "actionId": 105
      },
      {
        "$type": "MoleMole.Config.ConfigBlackScreenAction",
        "type": "BLACK_SCREEN",
        "actionId": 255,
        "_flag": 2048,
        "blackScreenType": "TO_BLACK",
        "durationToBlack": 0.5,
        "durationKeepBlack": 0.5,
        "durationFromBlack": 0.5,
        "inteePos": "",
        "textMapID": "",
        "useTextFade": true,
        "_changeAudioState": true
      },
      {
        "$type": "MoleMole.Config.ConfigBlackScreenAction",
        "type": "BLACK_SCREEN",
        "delayTime": 0.5,
        "actionId": 256,
        "_flag": 2048,
        "blackScreenType": "KEEP_BLACK",
        "durationToBlack": 0.5,
        "durationKeepBlack": 0.5,
        "durationFromBlack": 0.5,
        "inteePos": "",
        "textMapID": "",
        "useTextFade": true,
        "_changeAudioState": true
      },
      {
        "$type": "MoleMole.Config.ConfigVisibleInterAction",
        "type": "VISIBLE",
        "delayTime": 0.6000000238418579,
        "aliasList": [
          "21034"
        ],
        "actionId": 253,
        "_extraParam": ""
      },
      {
        "$type": "FABLGECDBCH",
        "type": "BODY_LANG",
        "delayTime": 0.6000000238418579,
        "aliasList": [
          "AvatarNpc"
        ],
        "actionId": 249,
        "isContinue": true,
        "forceDoFreeStyle": true,
        "canDoRepeatFreeStyle": false,
        "eventPatternSuiteKey": "",
        "FOHHKFAIAAJ": ""
      },
      {
        "$type": "FABLGECDBCH",
        "type": "BODY_LANG",
        "delayTime": 0.6000000238418579,
        "aliasList": [
          "21172"
        ],
        "actionId": 237,
        "isContinue": true,
        "forceDoFreeStyle": true,
        "canDoRepeatFreeStyle": false,
        "eventPatternSuiteKey": "",
        "FOHHKFAIAAJ": ""
      },
      {
        "$type": "MoleMole.Config.ConfigVisibleInterAction",
        "type": "VISIBLE",
        "delayTime": 0.6000000238418579,
        "aliasList": [
          "21172"
        ],
        "actionId": 252,
        "_extraParam": ""
      },
      {
        "$type": "FABLGECDBCH",
        "type": "BODY_LANG",
        "delayTime": 0.6000000238418579,
        "aliasList": [
          "1005"
        ],
        "actionId": 239,
        "isContinue": true,
        "forceDoFreeStyle": true,
        "canDoRepeatFreeStyle": false,
        "eventPatternSuiteKey": "",
        "FOHHKFAIAAJ": ""
      },
      {
        "$type": "FABLGECDBCH",
        "type": "BODY_LANG",
        "delayTime": 0.6000000238418579,
        "aliasList": [
          "21034"
        ],
        "actionId": 241,
        "isContinue": true,
        "forceDoFreeStyle": true,
        "canDoRepeatFreeStyle": false,
        "eventPatternSuiteKey": "",
        "FOHHKFAIAAJ": ""
      }
    ]
  ],
  "groupId": [
    {
      "grpId": 1978225336,
      "nextGrpId": 1978225337
    },
    {
      "index": 1,
      "grpId": 1978225337,
      "nextGrpId": 1978225338
    },
    {
      "index": 2,
      "grpId": 1978225338,
      "nextGrpId": 1978225339
    },
    {
      "index": 3,
      "grpId": 1978225339,
      "nextGrpId": 1978225340
    },
    {
      "index": 4,
      "grpId": 1978225340,
      "nextGrpId": 1978225341
    },
    {
      "index": 5,
      "grpId": 1978225341,
      "nextGrpId": 1978225342
    },
    {
      "index": 6,
      "grpId": 1978225342,
      "nextGrpId": 1978225343
    },
    {
      "index": 7,
      "grpId": 1978225343,
      "nextGrpId": 1978225344
    },
    {
      "index": 8,
      "grpId": 1978225344,
      "nextGrpId": 1195443320
    },
    {
      "index": 9,
      "grpId": 1195443320,
      "nextGrpId": 1195443321
    },
    {
      "index": 10,
      "grpId": 1195443321,
      "nextGrpId": 1195443322
    },
    {
      "index": 11,
      "grpId": 1195443322,
      "nextGrpId": 1195443323
    },
    {
      "index": 12,
      "grpId": 1195443323,
      "nextGrpId": 1195443324
    },
    {
      "index": 13,
      "grpId": 1195443324,
      "nextGrpId": 1195443325
    },
    {
      "index": 14,
      "grpId": 1195443325,
      "nextGrpId": 1195443326
    },
    {
      "index": 15,
      "grpId": 1195443326,
      "nextGrpId": 1195443327
    },
    {
      "index": 16,
      "grpId": 1195443327,
      "nextGrpId": 1195443328
    },
    {
      "index": 17,
      "grpId": 1195443328,
      "nextGrpId": 1195443329
    },
    {
      "index": 18,
      "grpId": 1195443329,
      "nextGrpId": 1195443351
    },
    {
      "index": 19,
      "grpId": 1195443351,
      "nextGrpId": 1195443352
    },
    {
      "index": 20,
      "grpId": 1195443352,
      "nextGrpId": 1195443353
    },
    {
      "index": 21,
      "grpId": 1195443353,
      "nextGrpId": 1195443354
    },
    {
      "index": 22,
      "grpId": 1195443354,
      "nextGrpId": 1195443355
    },
    {
      "index": 23,
      "grpId": 1195443355,
      "nextGrpId": 1195443356
    },
    {
      "index": 24,
      "grpId": 1195443356,
      "nextGrpId": 1195443357
    },
    {
      "index": 25,
      "grpId": 1195443357,
      "nextGrpId": 1195443358
    },
    {
      "index": 26,
      "grpId": 1195443358,
      "nextGrpId": 1195443359
    },
    {
      "index": 27,
      "grpId": 1195443359,
      "nextGrpId": 1195443360
    },
    {
      "index": 28,
      "grpId": 1195443360,
      "nextGrpId": 1195443382
    },
    {
      "index": 29,
      "grpId": 1195443382,
      "nextGrpId": 1195443383
    },
    {
      "index": 30,
      "grpId": 1195443383,
      "nextGrpId": 1195443384
    },
    {
      "index": 31,
      "grpId": 1195443384,
      "nextGrpId": 1195443385
    },
    {
      "index": 32,
      "grpId": 1195443385,
      "nextGrpId": 1195443386
    },
    {
      "index": 33,
      "grpId": 1195443386,
      "nextGrpId": 1195443387
    },
    {
      "index": 34,
      "grpId": 1195443387,
      "nextGrpId": 1195443388
    },
    {
      "index": 35,
      "grpId": 1195443388,
      "nextGrpId": 1195443389
    },
    {
      "index": 36,
      "grpId": 1195443389,
      "nextGrpId": 1195443390
    },
    {
      "index": 37,
      "grpId": 1195443390,
      "nextGrpId": 1195443391
    },
    {
      "index": 38,
      "grpId": 1195443391,
      "nextGrpId": 1195443413
    },
    {
      "index": 39,
      "grpId": 1195443413,
      "nextGrpId": 1195443414
    },
    {
      "index": 40,
      "grpId": 1195443414,
      "nextGrpId": 1195443415
    },
    {
      "index": 41,
      "grpId": 1195443415,
      "nextGrpId": 1195443416
    },
    {
      "index": 42,
      "grpId": 1195443416,
      "nextGrpId": 1195443417
    },
    {
      "index": 43,
      "grpId": 1195443417,
      "nextGrpId": 1195443418
    },
    {
      "index": 44,
      "grpId": 1195443418,
      "nextGrpId": 1195443419
    },
    {
      "index": 45,
      "grpId": 1195443419,
      "nextGrpId": 1195443420
    },
    {
      "index": 46,
      "grpId": 1195443420,
      "nextGrpId": 1195443421
    },
    {
      "index": 47,
      "grpId": 1195443421,
      "nextGrpId": 1195443422
    },
    {
      "index": 48,
      "grpId": 1195443422,
      "nextGrpId": 1195443444
    },
    {
      "index": 49,
      "grpId": 1195443444,
      "nextGrpId": 1195443445
    },
    {
      "index": 50,
      "grpId": 1195443445,
      "nextGrpId": 1195443446
    },
    {
      "index": 51,
      "grpId": 1195443446,
      "nextGrpId": 1195443447
    },
    {
      "index": 52,
      "grpId": 1195443447,
      "nextGrpId": 1195443448
    },
    {
      "index": 53,
      "grpId": 1195443448,
      "nextGrpId": 1195443449
    },
    {
      "index": 54,
      "grpId": 1195443449,
      "nextGrpId": 1195443450
    },
    {
      "index": 55,
      "grpId": 1195443450,
      "nextGrpId": 1195443451
    },
    {
      "index": 56,
      "grpId": 1195443451,
      "nextGrpId": 1195443452
    },
    {
      "index": 57,
      "grpId": 1195443452,
      "nextGrpId": 1195443453
    },
    {
      "index": 58,
      "grpId": 1195443453,
      "nextGrpId": 1195443475
    },
    {
      "index": 59,
      "grpId": 1195443475,
      "nextGrpId": 1195443476
    },
    {
      "index": 60,
      "grpId": 1195443476,
      "nextGrpId": 1195443477
    },
    {
      "index": 61,
      "grpId": 1195443477,
      "nextGrpId": 1195443478
    },
    {
      "index": 62,
      "grpId": 1195443478,
      "nextGrpId": 1195443479
    },
    {
      "index": 63,
      "grpId": 1195443479,
      "nextGrpId": 1195443480
    },
    {
      "index": 64,
      "grpId": 1195443480,
      "nextGrpId": 1195443481
    },
    {
      "index": 65,
      "grpId": 1195443481,
      "nextGrpId": 1195443482
    }
  ],
  "freeStyleDic": {
    "1025": [],
    "1026": [],
    "21034": []
  }
}