{
  "luaDataPath": "",
  "entityBan": "",
  "group": [
    [
      {
        "$type": "PKKMAMONGEO",
        "type": "DIALOG_CLEAR"
      }
    ],
    [
      {
        "$type": "FAPLADEDGAJ",
        "type": "SHOP_EXCHANGE",
        "shopType": "SHOP_TYPE_NPC_Enteka"
      }
    ],
    [
      {
        "$type": "FJKIHHKJLMJ",
        "type": "CAMERA_MOVE",
        "duration": 1.0,
        "cameraPosType": "EXIT",
        "camTargetType": "TO_INTEE",
        "lerpRatio": 5.0,
        "targetNpcAlias": "",
        "KJOEFBPOIIH": "",
        "IICFKKEBIEC": "",
        "EGEHEJEBLBJ": ""
      }
    ]
  ]
}