{
  "luaDataPath": "",
  "entityBan": "",
  "group": [
    [
      {
        "$type": "PKKMAMONGEO",
        "type": "DIALOG_CLEAR"
      }
    ],
    [
      {
        "$type": "FAPLADEDGAJ",
        "type": "SHOP_EXCHANGE",
        "shopType": "SHOP_TYPE_NPC_Pahsiv_02"
      }
    ]
  ]
}