{
  "luaDataPath": "",
  "entityBan": "",
  "startFade": {
    "startFadeInDuration": 0.4000000059604645,
    "startFadeOutDuration": 0.4000000059604645
  },
  "endFade": {
    "startFadeOutDuration": 0.0
  },
  "actors": [
    {
      "alias": "Avatar",
      "visible": true,
      "bornPointName": "Q101405Born",
      "relativePosNpcAlias": "",
      "_bindMovingTargetKey": ""
    },
    {
      "configID": 10245,
      "alias": "10245",
      "visible": true,
      "bornPointName": "Q101402Pot",
      "relativePosNpcAlias": "",
      "_bindMovingTargetKey": ""
    }
  ],
  "group": [
    [
      {
        "$type": "MoleMole.Config.ConfigLuaAction",
        "type": "LUA_ACTION",
        "delayTime": 0.10000000149011612,
        "duration": 1.0,
        "invoke": true,
        "invokeAlias": "71800",
        "invokeParam": 2
      },
      {
        "$type": "FJKIHHKJLMJ",
        "type": "CAMERA_MOVE",
        "duration": 0.5,
        "camPosOffset": {
          "x": -528.2367553710938,
          "y": 250.41307067871094,
          "z": 444.69622802734375
        },
        "camForwardTargetOffset": {
          "x": -528.6083374023438,
          "y": 249.96141052246094,
          "z": 443.8851013183594
        },
        "camFov": 30.0,
        "lerpPattern": 6,
        "cameraBlendType": "EaseInOutCubic",
        "NJBNNOMLKCK": {},
        "targetNpcAlias": "",
        "KJOEFBPOIIH": "",
        "IICFKKEBIEC": "",
        "EGEHEJEBLBJ": ""
      },
      {
        "$type": "MoleMole.Config.ConfigBlackScreenAction",
        "type": "BLACK_SCREEN",
        "inteePos": "",
        "textMapID": ""
      },
      {
        "$type": "MoleMole.Config.ConfigCameraDOFAction",
        "type": "CAMERA_DOF",
        "enabled": true
      },
      {
        "$type": "FJKIHHKJLMJ",
        "type": "CAMERA_MOVE",
        "delayTime": 1.2000000476837158,
        "duration": 3.0,
        "camPosOffset": {
          "x": -528.36279296875,
          "y": 250.3096160888672,
          "z": 444.77130126953125
        },
        "camForwardTargetOffset": {
          "x": -528.6051635742188,
          "y": 249.99066162109375,
          "z": 443.85504150390625
        },
        "camFov": 30.0,
        "cameraBlendType": "EaseInOutQuad",
        "NJBNNOMLKCK": {},
        "targetNpcAlias": "",
        "KJOEFBPOIIH": "",
        "IICFKKEBIEC": "",
        "EGEHEJEBLBJ": ""
      },
      {
        "$type": "FJKIHHKJLMJ",
        "type": "CAMERA_MOVE",
        "delayTime": 5.294500827789307,
        "duration": 0.30000001192092896,
        "camPosOffset": {
          "x": -528.637939453125,
          "y": 249.478759765625,
          "z": 441.9896545410156
        },
        "camForwardTargetOffset": {
          "x": -528.7981567382812,
          "y": 249.59487915039062,
          "z": 442.9698791503906
        },
        "camFov": 30.0,
        "lerpPattern": 6,
        "cameraBlendType": "EaseInOutCubic",
        "NJBNNOMLKCK": {},
        "targetNpcAlias": "",
        "KJOEFBPOIIH": "",
        "IICFKKEBIEC": "",
        "EGEHEJEBLBJ": ""
      },
      {
        "$type": "FJKIHHKJLMJ",
        "type": "CAMERA_MOVE",
        "delayTime": 7.550000190734863,
        "duration": 0.4000000059604645,
        "camPosOffset": {
          "x": -528.741455078125,
          "y": 249.6062469482422,
          "z": 442.8227233886719
        },
        "camForwardTargetOffset": {
          "x": -528.9261474609375,
          "y": 249.65660095214844,
          "z": 443.8042297363281
        },
        "camFov": 10.0,
        "cameraBlendType": "EaseInCubic",
        "NJBNNOMLKCK": {},
        "targetNpcAlias": "",
        "KJOEFBPOIIH": "",
        "IICFKKEBIEC": "",
        "EGEHEJEBLBJ": ""
      },
      {
        "$type": "MoleMole.Config.ConfigBlackScreenAction",
        "type": "BLACK_SCREEN",
        "delayTime": 7.349999904632568,
        "duration": 0.6000000238418579,
        "blackScreenType": "TO_BLACK",
        "durationToBlack": 0.6000000238418579,
        "inteePos": "",
        "textMapID": ""
      },
      {
        "$type": "MoleMole.Config.ConfigCameraDOFAction",
        "type": "CAMERA_DOF",
        "delayTime": 7.57602071762085,
        "duration": 0.5,
        "enabled": true,
        "focusRange": 1.0,
        "dofBlurAmount": 50.0,
        "quality": 3
      },
      {
        "$type": "MoleMole.Config.ConfigCameraDOFAction",
        "type": "CAMERA_DOF",
        "delayTime": 7.5,
        "duration": 0.08834551274776459,
        "enabled": true,
        "focusDistance": 15.0,
        "focusRange": 10.0,
        "dofBlurAmount": 3.0,
        "quality": 1
      },
      {
        "$type": "FJKIHHKJLMJ",
        "type": "CAMERA_MOVE",
        "delayTime": 5.536769390106201,
        "duration": 2.0999999046325684,
        "camPosOffset": {
          "x": -528.637939453125,
          "y": 249.478759765625,
          "z": 441.9896545410156
        },
        "camForwardTargetOffset": {
          "x": -528.7981567382812,
          "y": 249.59487915039062,
          "z": 442.9698791503906
        },
        "camFov": 25.0,
        "cameraBlendType": "EaseInQuad",
        "NJBNNOMLKCK": {},
        "targetNpcAlias": "",
        "KJOEFBPOIIH": "",
        "IICFKKEBIEC": "",
        "EGEHEJEBLBJ": ""
      },
      {
        "$type": "FJKIHHKJLMJ",
        "type": "CAMERA_MOVE",
        "delayTime": 4.199999809265137,
        "duration": 1.2999999523162842,
        "camPosOffset": {
          "x": -528.31103515625,
          "y": 250.34725952148438,
          "z": 444.73876953125
        },
        "camForwardTargetOffset": {
          "x": -528.5977783203125,
          "y": 249.98599243164062,
          "z": 443.85150146484375
        },
        "camFov": 30.0,
        "cameraBlendType": "EaseInQuad",
        "NJBNNOMLKCK": {},
        "targetNpcAlias": "",
        "KJOEFBPOIIH": "",
        "IICFKKEBIEC": "",
        "EGEHEJEBLBJ": ""
      },
      {
        "$type": "FABLGECDBCH",
        "type": "BODY_LANG",
        "aliasList": [
          "Avatar"
        ],
        "isContinue": true,
        "eventPatternSuiteKey": "",
        "FOHHKFAIAAJ": ""
      },
      {
        "$type": "LJLMDHDCAMK",
        "type": "LOOK_AT",
        "aliasList": [
          "Avatar"
        ],
        "enableHead": true,
        "headRotateVec": {
          "x": 11.71402359008789,
          "y": 15.684985160827637
        },
        "headTurnTime": 0.4000000059604645,
        "targetNpcAlias": "",
        "targetNpcLookAtPoint": "",
        "OAFJBHJHLJG": ""
      },
      {
        "$type": "LJLMDHDCAMK",
        "type": "LOOK_AT",
        "delayTime": 1.5337984561920166,
        "aliasList": [
          "Avatar"
        ],
        "enableHead": true,
        "headRotateVec": {
          "x": -20.0,
          "y": -5.0
        },
        "headTurnTime": 1.2000000476837158,
        "targetNpcAlias": "",
        "targetNpcLookAtPoint": "",
        "OAFJBHJHLJG": ""
      },
      {
        "$type": "LJLMDHDCAMK",
        "type": "LOOK_AT",
        "delayTime": 4.191147327423096,
        "aliasList": [
          "Avatar"
        ],
        "enableHead": true,
        "headRotateVec": {
          "x": 11.71402359008789,
          "y": 15.684985160827637
        },
        "headTurnTime": 1.2000000476837158,
        "targetNpcAlias": "",
        "targetNpcLookAtPoint": "",
        "OAFJBHJHLJG": ""
      },
      {
        "$type": "FABLGECDBCH",
        "type": "BODY_LANG",
        "delayTime": 7.494535446166992,
        "aliasList": [
          "Avatar"
        ],
        "bodyLangParam": 1040,
        "eventPatternSuiteKey": "",
        "FOHHKFAIAAJ": ""
      },
      {
        "$type": "CPJKOIHIPBE",
        "type": "EMO_SYNC",
        "delayTime": 5.469533920288086,
        "aliasList": [
          "Avatar"
        ],
        "dataPath": "Cs_Emo_Avatar_Simple_Common_Set/Cs_Emo_Avatar_Talk/Cs_Emo_Avatar_MainLine/Cs_Emo_Avatar_LiYue/Cs_Emo_10140601",
        "phonemePath": "",
        "emotionPath": "",
        "mateDataPath": "",
        "matePhonemePath": "",
        "mateEmotionPath": "",
        "dataPathHashList": [
          13205570071791235259,
          10066930202476150971,
          8748172792405198225,
          10940372025826026484
        ],
        "FMDPBECPELH": "",
        "ADKBLPOKGIK": ""
      },
      {
        "$type": "CPJKOIHIPBE",
        "type": "EMO_SYNC",
        "delayTime": 9.244534492492676,
        "aliasList": [
          "Avatar"
        ],
        "dataPath": "Cs_Emo_Avatar_Simple_Common_Set/Cs_Emo_Avatar_Common_Normal",
        "phonemePath": "",
        "emotionPath": "",
        "mateDataPath": "",
        "matePhonemePath": "",
        "mateEmotionPath": "",
        "dataPathHashList": [
          1254595151211172457,
          11740135046283525816,
          13690962357574067534,
          4569976534232268451
        ],
        "FMDPBECPELH": "",
        "ADKBLPOKGIK": ""
      }
    ]
  ],
  "groupId": [
    {
      "grpId": 470330514,
      "nextGrpId": 470330515
    }
  ]
}