{
  "luaDataPath": "",
  "entityBan": "",
  "disableNpcLod": true,
  "startFade": {
    "startFadeOutDuration": 0.0
  },
  "endFade": {
    "startFadeOutDuration": 0.0
  },
  "actors": [
    {
      "alias": "Avatar",
      "visible": true,
      "bornPointName": "Q71808Player",
      "relativePosNpcAlias": "",
      "_bindMovingTargetKey": ""
    },
    {
      "configID": 1005,
      "alias": "1005",
      "visible": true,
      "bornPointName": "Q71808Paimon",
      "relativePosNpcAlias": "",
      "_bindMovingTargetKey": ""
    }
  ],
  "group": [
    [
      {
        "$type": "FJKIHHKJLMJ",
        "type": "CAMERA_MOVE",
        "duration": 1.4901927709579468,
        "camPosOffset": {
          "x": 570.0542602539062,
          "y": 235.28517150878906,
          "z": 1725.4105224609375
        },
        "camForwardTargetOffset": {
          "x": 570.9349365234375,
          "y": 235.05447387695312,
          "z": 1724.996826171875
        },
        "lerpPattern": 6,
        "cameraBlendType": "EaseInOutCubic",
        "NJBNNOMLKCK": {},
        "targetNpcAlias": "",
        "KJOEFBPOIIH": "",
        "IICFKKEBIEC": "",
        "EGEHEJEBLBJ": ""
      },
      {
        "$type": "MoleMole.Config.ConfigBlackScreenAction",
        "type": "BLACK_SCREEN",
        "duration": 1.5,
        "durationToBlack": 0.20000000298023224,
        "durationKeepBlack": 0.5,
        "durationFromBlack": 0.20000000298023224,
        "inteePos": "",
        "textMapID": ""
      }
    ],
    [
      {
        "$type": "FJKIHHKJLMJ",
        "type": "CAMERA_MOVE",
        "duration": 1.8985259532928467,
        "camPosOffset": {
          "x": 570.0542602539062,
          "y": 235.28517150878906,
          "z": 1725.4105224609375
        },
        "camForwardTargetOffset": {
          "x": 570.9349365234375,
          "y": 235.05447387695312,
          "z": 1724.996826171875
        },
        "lerpPattern": 6,
        "cameraBlendType": "EaseInOutCubic",
        "NJBNNOMLKCK": {},
        "targetNpcAlias": "",
        "KJOEFBPOIIH": "",
        "IICFKKEBIEC": "",
        "EGEHEJEBLBJ": ""
      },
      {
        "$type": "FJKIHHKJLMJ",
        "type": "CAMERA_MOVE",
        "delayTime": 0.5208555459976196,
        "duration": 2.979597330093384,
        "camPosOffset": {
          "x": 569.681396484375,
          "y": 235.3115997314453,
          "z": 1724.8446044921875
        },
        "camForwardTargetOffset": {
          "x": 570.6373291015625,
          "y": 235.10137939453125,
          "z": 1724.6396484375
        },
        "cameraBlendType": "EaseInOutCubic",
        "NJBNNOMLKCK": {},
        "targetNpcAlias": "",
        "KJOEFBPOIIH": "",
        "IICFKKEBIEC": "",
        "EGEHEJEBLBJ": ""
      },
      {
        "$type": "PKKMAMONGEO",
        "type": "DIALOG",
        "aliasList": [
          "1005"
        ],
        "dialogID": 718080501
      },
      {
        "$type": "LLGANGLOEEO",
        "type": "STEER_TO",
        "duration": 1.0,
        "aliasList": [
          "1005"
        ],
        "steerType": "TO_LOCAL_AVATAR_ADVANCED",
        "targetNpcAlias": "",
        "OAFJBHJHLJG": ""
      }
    ],
    [
      {
        "$type": "FJKIHHKJLMJ",
        "type": "CAMERA_MOVE",
        "delayTime": 0.019943803548812866,
        "duration": 2.107771158218384,
        "camPosOffset": {
          "x": 574.9614868164062,
          "y": 235.44314575195312,
          "z": 1726.0084228515625
        },
        "camForwardTargetOffset": {
          "x": 575.701904296875,
          "y": 235.87107849121094,
          "z": 1726.5267333984375
        },
        "lerpPattern": 2,
        "cameraBlendType": "EaseInOutCubic",
        "NJBNNOMLKCK": {},
        "targetNpcAlias": "",
        "KJOEFBPOIIH": "",
        "IICFKKEBIEC": "",
        "EGEHEJEBLBJ": ""
      },
      {
        "$type": "FJKIHHKJLMJ",
        "type": "CAMERA_MOVE",
        "delayTime": 2.118516445159912,
        "duration": 2.7250187397003174,
        "camPosOffset": {
          "x": 574.9614868164062,
          "y": 235.44314575195312,
          "z": 1726.0084228515625
        },
        "camForwardTargetOffset": {
          "x": 575.701904296875,
          "y": 235.87107849121094,
          "z": 1726.5267333984375
        },
        "lerpPattern": 6,
        "cameraBlendType": "EaseInOutCubic",
        "NJBNNOMLKCK": {},
        "targetNpcAlias": "",
        "KJOEFBPOIIH": "",
        "IICFKKEBIEC": "",
        "EGEHEJEBLBJ": ""
      },
      {
        "$type": "PKKMAMONGEO",
        "type": "DIALOG",
        "aliasList": [
          "1005"
        ],
        "dialogID": 718080502
      }
    ],
    [
      {
        "$type": "MoleMole.Config.ConfigCameraShakeAction",
        "type": "CAMERA_SHAKE",
        "delayTime": 2.544330596923828,
        "duration": 2.0,
        "shakeRange": 1.0,
        "shakeTime": 2.0,
        "shakeDinstance": 1.0,
        "_shakeDir": {
          "y": 1.0
        }
      },
      {
        "$type": "MoleMole.Config.ConfigCameraShakeAction",
        "type": "CAMERA_SHAKE",
        "delayTime": 0.5536271929740906,
        "duration": 2.0,
        "shakeRange": 1.0,
        "shakeTime": 2.0,
        "shakeDinstance": 1.0,
        "_shakeDir": {
          "y": 1.0
        }
      },
      {
        "$type": "PKKMAMONGEO",
        "type": "DIALOG",
        "aliasList": [
          "1005"
        ],
        "dialogID": 718080503
      }
    ],
    [
      {
        "$type": "FJKIHHKJLMJ",
        "type": "CAMERA_MOVE",
        "duration": 2.703495740890503,
        "camPosOffset": {
          "x": 575.8021850585938,
          "y": 236.15090942382812,
          "z": 1724.9627685546875
        },
        "camForwardTargetOffset": {
          "x": 575.0421142578125,
          "y": 235.8025665283203,
          "z": 1724.4141845703125
        },
        "lerpPattern": 6,
        "cameraBlendType": "EaseInOutCubic",
        "NJBNNOMLKCK": {},
        "targetNpcAlias": "",
        "KJOEFBPOIIH": "",
        "IICFKKEBIEC": "",
        "EGEHEJEBLBJ": ""
      },
      {
        "$type": "MoleMole.Config.ConfigCameraShakeAction",
        "type": "CAMERA_SHAKE",
        "delayTime": 1.5359976291656494,
        "duration": 1.416667103767395,
        "shakeRange": 1.0,
        "shakeTime": 2.0,
        "shakeDinstance": 1.0,
        "_shakeDir": {
          "y": 1.0
        }
      },
      {
        "$type": "MoleMole.Config.ConfigCameraShakeAction",
        "type": "CAMERA_SHAKE",
        "delayTime": 0.2619604170322418,
        "duration": 1.2666667699813843,
        "shakeRange": 1.0,
        "shakeTime": 2.0,
        "shakeDinstance": 1.0,
        "_shakeDir": {
          "y": 1.0
        }
      },
      {
        "$type": "FJKIHHKJLMJ",
        "type": "CAMERA_MOVE",
        "delayTime": 1.1102725267410278,
        "duration": 1.9249999523162842,
        "camPosOffset": {
          "x": 575.2260131835938,
          "y": 236.13177490234375,
          "z": 1725.5897216796875
        },
        "camForwardTargetOffset": {
          "x": 574.524658203125,
          "y": 235.78062438964844,
          "z": 1724.9693603515625
        },
        "cameraBlendType": "EaseInOutCubic",
        "NJBNNOMLKCK": {},
        "targetNpcAlias": "",
        "KJOEFBPOIIH": "",
        "IICFKKEBIEC": "",
        "EGEHEJEBLBJ": ""
      },
      {
        "$type": "LLGANGLOEEO",
        "type": "STEER_TO",
        "delayTime": 1.0,
        "duration": 1.0,
        "aliasList": [
          "Avatar"
        ],
        "useAngle": true,
        "steerDir": {
          "y": 100.0
        },
        "steerAngle": 205.48683166503906,
        "useSteerAnim": true,
        "interruptFreestyle": true,
        "targetNpcAlias": "",
        "OAFJBHJHLJG": ""
      },
      {
        "$type": "PKKMAMONGEO",
        "type": "DIALOG",
        "aliasList": [
          "1005"
        ],
        "dialogID": 718080504
      }
    ],
    [
      {
        "$type": "MoleMole.Config.ConfigBlackScreenAction",
        "type": "BLACK_SCREEN",
        "duration": 1.0,
        "blackScreenType": "TO_BLACK",
        "durationToBlack": 0.20000000298023224,
        "durationKeepBlack": 0.5,
        "inteePos": "",
        "textMapID": ""
      }
    ]
  ],
  "groupId": [
    {
      "grpId": 1406218111,
      "nextGrpId": 1406218112
    },
    {
      "index": 1,
      "grpId": 1406218112,
      "nextGrpId": 1406218113
    },
    {
      "index": 2,
      "grpId": 1406218113,
      "nextGrpId": 1406218114
    },
    {
      "index": 3,
      "grpId": 1406218114,
      "nextGrpId": 1406218115
    },
    {
      "index": 4,
      "grpId": 1406218115,
      "nextGrpId": 1406218116
    },
    {
      "index": 5,
      "grpId": 1406218116,
      "nextGrpId": 1406218117
    }
  ]
}