{
  "-669413761": {},
  "0": {
    "NBENNEKDIIA": 1.661548265448366e+35,
    "KPNDPKIOPJM": -2.793088883768552e-23,
    "PINAFKEDDLL": 2.177510457373761e-14,
    "HIGLILIOAHE": 2.302502959586051e+23,
    "AMIIPPJEIPM": 1.4844470974082611e-34
  },
  "-6951": {
    "AMIIPPJEIPM": 2.214206158601978e-34
  },
  "-34": {
    "NBENNEKDIIA": 1.4844581176678e-34,
    "KPNDPKIOPJM": -634.9000244140625,
    "AMIIPPJEIPM": 135.5748291015625,
    "ANMPOPEBDIA": 3367.300048828125
  },
  "-4": {
    "NBENNEKDIIA": 2.1777999732351325e-14,
    "KPNDPKIOPJM": 6.155695360307737e-39,
    "AMIIPPJEIPM": 1.4844519187718094e-34,
    "ANMPOPEBDIA": -668.7999877929688
  },
  "17": {
    "KPNDPKIOPJM": 2.302502959586051e+23,
    "ANMPOPEBDIA": 1.484548116454035e-34,
    "FJEDKNKKAAB": -279335,
    "GLBILFHBNFD": true
  },
  "20": {
    "ANLAAGAMIKF": -34,
    "NBENNEKDIIA": 3344.699951171875,
    "HIGLILIOAHE": 1.1990470287598603e-15,
    "GMJFIMFFOEL": 2.214206158601978e-34,
    "CHCPFDMADEI": 36507496448.0,
    "NEAKBBLMLDM": -35
  },
  "3312": {
    "KPNDPKIOPJM": 2.302502959586051e+23,
    "ANMPOPEBDIA": 1.484594034202114e-34,
    "FJEDKNKKAAB": -434983,
    "GLBILFHBNFD": true
  },
  "16": {
    "ANLAAGAMIKF": 2594,
    "NBENNEKDIIA": 4.540886422432777e-08,
    "HIGLILIOAHE": 1.4844816505136906e-34,
    "AMIIPPJEIPM": -709.0
  }
}