[
  {},
  {},
  {
    "rotation": {
      "y": 5.0
    }
  },
  {
    "rotation": {
      "x": -3192.751708984375,
      "y": 74.45030212402344,
      "z": 4390.453125
    },
    "size": {
      "x": -3212.054443359375,
      "y": 75.75750732421875,
      "z": 4395.9560546875
    }
  },
  {
    "BOEDGBKEFNH": {
      "y": -4.98015708741599e-27,
      "z": 3.9477582893550465e+33
    },
    "rotation": {
      "x": -0.13210119307041168,
      "z": -3.342194830686952e-19
    },
    "size": {
      "x": -9454233.0,
      "y": -9295795060736.0,
      "z": 1.4699559187647537e-06
    }
  },
  {
    "size": {}
  },
  {
    "rotation": {
      "x": 1.4860784402031377e-34,
      "y": -3276.231689453125
    }
  },
  {},
  {
    "BOEDGBKEFNH": {
      "x": -2.981950447305304e-34,
      "z": 5.683393321087325e+37
    },
    "rotation": {
      "x": 6.895032008060238e+33,
      "y": -3.964373639219247e-35
    }
  },
  {
    "BOEDGBKEFNH": {
      "x": -3228.4931640625,
      "y": 54.82656478881836,
      "z": 4246.74072265625
    },
    "size": {
      "x": -3192.77587890625,
      "y": 54.500205993652344,
      "z": 4216.2119140625
    }
  },
  {
    "BOEDGBKEFNH": {
      "x": -1.8550722871236518e-35,
      "y": 3.8464864283748306e+30
    },
    "rotation": {},
    "size": {
      "z": 92289576.0
    }
  },
  {
    "BOEDGBKEFNH": {
      "x": 48.307952880859375,
      "z": 4263.44970703125
    }
  },
  {
    "BOEDGBKEFNH": {},
    "rotation": {
      "z": -5.645049168379046e-05
    },
    "size": {
      "z": -5.698687558134762e-35
    }
  },
  {
    "BOEDGBKEFNH": {
      "x": -3124.327392578125,
      "y": 34.99991989135742,
      "z": 4345.96337890625
    },
    "size": {
      "x": -3161.781982421875,
      "y": 63.107242584228516,
      "z": 4391.552734375
    }
  }
]