[
  {},
  {},
  {
    "DEMHFCAMFNO": {
      "x": 370.0,
      "y": 8.298278407892212e-05
    },
    "KFIDGMODMIJ": {
      "x": -0.00012207131658215076,
      "y": -1.1227790000907353e-28,
      "z": -0.2500554621219635
    }
  },
  {
    "ICKMNFKCMLC": -0.00012207131658215076,
    "PIIFCHEAFHG": -1.2230506167153124e-28
  },
  {
    "duration": 106530.0546875,
    "PIIFCHEAFHG": -0.00012207131658215076
  },
  {
    "duration": 4554.10498046875,
    "ICKMNFKCMLC": 2195457.75
  },
  {
    "duration": 370.0,
    "PIIFCHEAFHG": 4488.93798828125
  },
  {
    "duration": 3184.61279296875,
    "ICKMNFKCMLC": 370.0,
    "PIIFCHEAFHG": 4316.02880859375
  },
  {
    "duration": 3247.7734375,
    "ICKMNFKCMLC": 370.0,
    "PIIFCHEAFHG": 4248.07958984375
  },
  {
    "duration": 3365.76708984375,
    "ICKMNFKCMLC": 370.0,
    "PIIFCHEAFHG": 4254.626953125
  },
  {
    "duration": 3485.60205078125,
    "ICKMNFKCMLC": 370.0,
    "PIIFCHEAFHG": 4278.453125
  },
  {
    "duration": 3594.21826171875,
    "ICKMNFKCMLC": 370.0,
    "PIIFCHEAFHG": 4329.4052734375
  },
  {
    "duration": 3602.126953125,
    "ICKMNFKCMLC": 370.0,
    "PIIFCHEAFHG": 4081.6083984375
  },
  {
    "duration": 3057.54296875,
    "ICKMNFKCMLC": 370.0,
    "PIIFCHEAFHG": 4081.635009765625
  }
]