[
  {},
  {},
  {
    "value": 1.4757740065814112e+20,
    "inTangent": -7.148859976375525e-21,
    "outTangent": -1.1802673170641068e-33
  },
  {
    "outTangent": -3.275875070979613e-25
  },
  {
    "value": -0.000721086107660085,
    "inTangent": 4.4589076111479815e-38
  },
  {
    "time": -3.9071776972268756e-16
  },
  {
    "time": 4.840095168324327e-29,
    "inTangent": 60067430400.0
  },
  {
    "inTangent": 5301.98046875
  },
  {
    "time": -554.2665405273438,
    "value": -830.8174438476562,
    "inTangent": 5338.29833984375
  },
  {
    "time": -504.1042785644531,
    "value": -819.003662109375,
    "inTangent": 5405.146484375
  },
  {
    "time": -554.6200561523438,
    "value": -815.919189453125,
    "inTangent": 5470.02978515625
  },
  {
    "time": -605.8816528320312,
    "value": -812.0133666992188,
    "inTangent": 5451.5693359375
  },
  {
    "time": -629.8705444335938,
    "value": -826.4146728515625,
    "inTangent": 5408.103515625
  },
  {
    "time": -636.4618530273438,
    "value": -833.4158935546875,
    "inTangent": 5371.38818359375
  }
]