{
  "0": {},
  "122": {
    "PAAFAIJBGKP": -1000.0,
    "EEGBNKGHIMA": 3.3916670200247806e+34
  },
  "91": {
    "CFIACBBDBKA": 5205.16357421875,
    "CPJAGLGNPBC": -320512.21875,
    "EEGBNKGHIMA": -4.158373523366815e-16,
    "OGAIFBKONIO": true
  },
  "12916": {
    "CFIACBBDBKA": 295296008192.0,
    "CPJAGLGNPBC": -1.3658608933725668e-18,
    "AECIFACBEFN": -8.833270112518221e-05,
    "GJIMGGGHJNF": -1917798058033152.0,
    "NBFOJHBKAGF": 329.5362548828125,
    "OGAIFBKONIO": true
  },
  "66": {
    "CFIACBBDBKA": 1.4873447369007862e-34,
    "PAAFAIJBGKP": -1543.8941650390625,
    "NMNLBBKIBPD": 84.70594787597656,
    "AECIFACBEFN": 5208.60400390625,
    "EEGBNKGHIMA": -9.655124045345316e-19
  },
  "194116": {
    "CFIACBBDBKA": 4657.73974609375,
    "CPJAGLGNPBC": 255919767552.0,
    "PAAFAIJBGKP": -538689273856.0,
    "AECIFACBEFN": -1.5183371523921546e-30,
    "GJIMGGGHJNF": 1.7210881875676634e+29,
    "FIGNCFEHLFG": true
  },
  "3139": {
    "PAAFAIJBGKP": 4714.26513671875,
    "AECIFACBEFN": 7.125373229076788e+19,
    "OGAIFBKONIO": true
  },
  "7064": {
    "CFIACBBDBKA": 5197.068359375,
    "EEGBNKGHIMA": -1.3316093833062176e-13,
    "FIGNCFEHLFG": true
  },
  "12678": {
    "CFIACBBDBKA": 5202.57763671875,
    "CPJAGLGNPBC": -5.4729161897263315e-33,
    "EEGBNKGHIMA": -138884988928.0,
    "FIGNCFEHLFG": true
  },
  "8451": {
    "AECIFACBEFN": 232083537920.0,
    "NBFOJHBKAGF": -182312828928.0,
    "OGAIFBKONIO": true
  },
  "114": {
    "CPJAGLGNPBC": -6.6986446771444275e-12,
    "NMNLBBKIBPD": -3.738772647920996e-05,
    "AECIFACBEFN": -2.406269285737757e-30,
    "EEGBNKGHIMA": -185848687493120.0,
    "NBFOJHBKAGF": 7.702738571424561e-07
  },
  "8488": {
    "CPJAGLGNPBC": -4.820413165851356e-11,
    "AECIFACBEFN": -4.686761921171609e-26,
    "NBFOJHBKAGF": -5.600887561740819e-06,
    "FIGNCFEHLFG": true
  },
  "7": {
    "CFIACBBDBKA": 5.685528236213035e-26,
    "CPJAGLGNPBC": -1.2003019345488773e+18,
    "PAAFAIJBGKP": 6.678644532910651e-40,
    "NMNLBBKIBPD": 102544152.0,
    "EEGBNKGHIMA": -3.930849209141592e-26,
    "OGAIFBKONIO": true
  },
  "8886": {
    "CFIACBBDBKA": -83.23033142089844,
    "CPJAGLGNPBC": 94.37226867675781,
    "PAAFAIJBGKP": 5212.43798828125
  }
}