[
  {},
  {},
  {
    "reviseLevel": 68,
    "score": 141954202
  },
  {
    "score": 7
  },
  {
    "score": 1133333,
    "INMBHFMHAOH": true
  },
  {
    "FICCMEEHDJL": 8664,
    "INMBHFMHAOH": true
  },
  {
    "FICCMEEHDJL": 120,
    "reviseLevel": 69,
    "score": 7
  },
  {
    "FICCMEEHDJL": 1133387,
    "reviseLevel": 141954202
  },
  {
    "FICCMEEHDJL": 15235,
    "reviseLevel": 69
  },
  {
    "FICCMEEHDJL": 12,
    "reviseLevel": 46,
    "score": 8855
  },
  {
    "reviseLevel": 1109017,
    "INMBHFMHAOH": true
  },
  {
    "FICCMEEHDJL": 120,
    "score": 69,
    "INMBHFMHAOH": true
  },
  {
    "FICCMEEHDJL": 1133430,
    "reviseLevel": 141954202,
    "score": 13,
    "INMBHFMHAOH": true
  },
  {
    "INMBHFMHAOH": true
  }
]