[
  {},
  {},
  {},
  {
    "time": -40.0
  },
  {
    "time": -4.907692128925416e-34,
    "outTangent": 8.178801555846203e-30
  },
  {
    "value": 5468.07958984375
  },
  {
    "time": -1075.346435546875,
    "value": -29.689559936523438,
    "inTangent": 5441.70263671875
  },
  {
    "time": -1082.5477294921875,
    "value": -28.773874282836914,
    "inTangent": 5412.6259765625
  },
  {
    "time": -1124.718994140625,
    "value": -31.059429168701172,
    "inTangent": 5380.67919921875
  },
  {
    "time": -1139.610107421875,
    "value": -25.65522003173828,
    "inTangent": 5403.40283203125
  },
  {
    "time": -1155.284912109375,
    "value": -29.87233543395996,
    "inTangent": 5417.4775390625
  },
  {
    "time": -1133.73828125,
    "value": -29.706510543823242,
    "inTangent": 5436.88818359375
  },
  {
    "time": -1124.75830078125,
    "value": -28.14962387084961,
    "inTangent": 5447.09619140625
  },
  {
    "time": -1107.237060546875,
    "value": -32.535736083984375,
    "inTangent": 5468.4228515625
  }
]