{
  "fishtankMap": {},
  "isUnique": true,
  "MBJIJEGMFLB": [
    142599757,
    9,
    7,
    3311,
    8858,
    142599757,
    1904784,
    69,
    7,
    30,
    54,
    8856,
    142599757,
    12,
    51,
    122,
    69,
    7,
    10742,
    8852,
    142599757,
    383,
    124,
    69,
    7,
    15685,
    8849,
    142599757,
    38,
    29,
    8832,
    7,
    3331,
    8848,
    142599757,
    58,
    11,
    126,
    69,
    7,
    10,
    107,
    8847,
    142599757,
    117,
    124,
    118,
    69,
    7,
    125,
    71,
    8847,
    142599757,
    1837529,
    69,
    7,
    34,
    1132800,
    142599757,
    1690823,
    69,
    7,
    9629,
    8854,
    142599757,
    6,
    23,
    105
  ],
  "defaultModifier": ""
}