{
  "yMax": 337.7429504394531,
  "yMin": 276.9260559082031,
  "vertices": [
    {
      "x": 2412.54931640625,
      "y": 276.9260559082031,
      "z": 1548.036865234375
    },
    {
      "x": 2396.913330078125,
      "y": 276.9260559082031,
      "z": 1564.467041015625
    },
    {
      "x": 2367.083984375,
      "y": 276.9260559082031,
      "z": 1580.231689453125
    },
    {
      "x": 2357.442626953125,
      "y": 276.9260559082031,
      "z": 1588.843505859375
    },
    {
      "x": 2346.658203125,
      "y": 276.9260559082031,
      "z": 1599.545654296875
    },
    {
      "x": 2323.562744140625,
      "y": 276.9260559082031,
      "z": 1594.31396484375
    },
    {
      "x": 2297.44873046875,
      "y": 276.9260559082031,
      "z": 1594.63330078125
    },
    {
      "x": 2266.330322265625,
      "y": 276.9260559082031,
      "z": 1602.531494140625
    },
    {
      "x": 2240.84423828125,
      "y": 276.9260559082031,
      "z": 1606.742431640625
    },
    {
      "x": 2201.97705078125,
      "y": 276.9260559082031,
      "z": 1609.209716796875
    },
    {
      "x": 2168.57958984375,
      "y": 276.9260559082031,
      "z": 1609.334228515625
    },
    {
      "x": 2135.306396484375,
      "y": 276.9260559082031,
      "z": 1607.742431640625
    },
    {
      "x": 2116.81591796875,
      "y": 276.9260559082031,
      "z": 1586.70166015625
    },
    {
      "x": 2110.278076171875,
      "y": 276.9260559082031,
      "z": 1543.3623046875
    },
    {
      "x": 2103.464599609375,
      "y": 276.9260559082031,
      "z": 1523.06982421875
    },
    {
      "x": 2120.1962890625,
      "y": 276.9260559082031,
      "z": 1467.2001953125
    },
    {
      "x": 2220.053466796875,
      "y": 276.9260559082031,
      "z": 1461.97119140625
    },
    {
      "x": 2261.156982421875,
      "y": 276.9260559082031,
      "z": 1469.8095703125
    },
    {
      "x": 2282.535888671875,
      "y": 276.9260559082031,
      "z": 1469.082763671875
    },
    {
      "x": 2295.185302734375,
      "y": 276.9260559082031,
      "z": 1473.115478515625
    },
    {
      "x": 2316.2001953125,
      "y": 276.9260559082031,
      "z": 1477.88525390625
    },
    {
      "x": 2331.447509765625,
      "y": 276.9260559082031,
      "z": 1484.22216796875
    },
    {
      "x": 2345.658935546875,
      "y": 276.9260559082031,
      "z": 1476.291748046875
    },
    {
      "x": 2350.27978515625,
      "y": 276.9260559082031,
      "z": 1464.216064453125
    },
    {
      "x": 2350.21435546875,
      "y": 276.9260559082031,
      "z": 1445.671875
    },
    {
      "x": 2350.59326171875,
      "y": 276.9260559082031,
      "z": 1439.01123046875
    },
    {
      "x": 2365.099365234375,
      "y": 276.9260559082031,
      "z": 1432.5703125
    },
    {
      "x": 2382.671630859375,
      "y": 276.9260559082031,
      "z": 1433.599853515625
    },
    {
      "x": 2404.949951171875,
      "y": 276.9260559082031,
      "z": 1431.318359375
    },
    {
      "x": 2424.1201171875,
      "y": 276.9260559082031,
      "z": 1429.587646484375
    },
    {
      "x": 2440.135498046875,
      "y": 276.9260559082031,
      "z": 1429.81591796875
    },
    {
      "x": 2455.408935546875,
      "y": 276.9260559082031,
      "z": 1428.341552734375
    },
    {
      "x": 2496.47900390625,
      "y": 276.9260559082031,
      "z": 1429.82666015625
    },
    {
      "x": 2502.738525390625,
      "y": 276.9260559082031,
      "z": 1446.938720703125
    },
    {
      "x": 2492.0400390625,
      "y": 276.9260559082031,
      "z": 1460.264892578125
    },
    {
      "x": 2447.814453125,
      "y": 276.9260559082031,
      "z": 1477.6123046875
    },
    {
      "x": 2423.8154296875,
      "y": 276.9260559082031,
      "z": 1496.480224609375
    },
    {
      "x": 2414.298095703125,
      "y": 276.9260559082031,
      "z": 1528.576904296875
    }
  ]
}