[
  {
    "BOEDGBKEFNH": {
      "z": 7.0844745811637614e-40
    },
    "size": {}
  },
  {
    "rotation": {
      "z": -5.997815925070354e+35
    }
  },
  {},
  {
    "size": {
      "y": 6.025360228190649e-31
    }
  },
  {
    "BOEDGBKEFNH": {
      "y": 7840.970703125
    },
    "size": {
      "x": -6.028054049819711e-33,
      "z": -1.30758671643359e-26
    }
  },
  {
    "size": {
      "x": 996.2565307617188,
      "y": 198.419921875,
      "z": -1335.1290283203125
    }
  },
  {
    "BOEDGBKEFNH": {},
    "rotation": {},
    "size": {
      "y": 267346.125
    }
  },
  {
    "BOEDGBKEFNH": {
      "x": 2.957766258158318e-34,
      "z": 578.5745239257812
    },
    "rotation": {
      "y": -2.7751149902360828e-12,
      "z": 2.9532052482416315e-34
    }
  },
  {},
  {
    "BOEDGBKEFNH": {
      "y": -4.0350399006100027e-28,
      "z": -8.476071330250784e+29
    }
  },
  {
    "BOEDGBKEFNH": {
      "x": 987.856689453125,
      "y": 275.276123046875,
      "z": -338.53289794921875
    },
    "rotation": {
      "x": 1415.5645751953125,
      "y": 261.92535400390625,
      "z": -345.35003662109375
    }
  }
]