[
  {
    "duration": 6.237868903554209e-39,
    "PIIFCHEAFHG": 1.5036397114249533e-31,
    "DEMHFCAMFNO": {
      "x": -808.5287475585938,
      "y": 128.86883544921875,
      "z": 2229.20556640625
    },
    "KFIDGMODMIJ": {
      "x": -771.1005249023438,
      "y": 129.9369354248047,
      "z": 2286.388671875
    }
  },
  {
    "duration": -768.8143920898438,
    "ICKMNFKCMLC": 131.18408203125,
    "PIIFCHEAFHG": 2362.32666015625
  },
  {
    "duration": -759.0703735351562,
    "ICKMNFKCMLC": 133.91555786132812,
    "PIIFCHEAFHG": 2442.60791015625
  },
  {
    "duration": -731.9244384765625,
    "ICKMNFKCMLC": 86.23704528808594,
    "PIIFCHEAFHG": 2505.185302734375
  },
  {
    "duration": -702.0493774414062,
    "ICKMNFKCMLC": 116.52296447753906,
    "PIIFCHEAFHG": 2562.64892578125
  },
  {
    "duration": -743.5974731445312,
    "ICKMNFKCMLC": 114.78084564208984,
    "PIIFCHEAFHG": 2598.547607421875
  },
  {
    "duration": -773.9037475585938,
    "ICKMNFKCMLC": 113.22127532958984,
    "PIIFCHEAFHG": 2546.940185546875
  },
  {
    "duration": -860.860107421875,
    "ICKMNFKCMLC": 111.80157470703125,
    "PIIFCHEAFHG": 2499.5869140625
  },
  {
    "duration": -888.1055908203125,
    "ICKMNFKCMLC": 98.96548461914062,
    "PIIFCHEAFHG": 2400.75439453125
  },
  {
    "duration": -892.779541015625,
    "ICKMNFKCMLC": 105.44052124023438,
    "PIIFCHEAFHG": 2307.803466796875
  },
  {
    "duration": -884.3861083984375,
    "ICKMNFKCMLC": 114.46739196777344,
    "PIIFCHEAFHG": 2227.38916015625
  }
]