{
  "2031053545": {},
  "0": {
    "CFIACBBDBKA": -3.0517821869580075e-05,
    "CPJAGLGNPBC": -2.7279013480744716e-26,
    "PAAFAIJBGKP": 4.646524757845327e-05
  },
  "17": {
    "CFIACBBDBKA": 3007.70263671875,
    "AECIFACBEFN": -5.148743884186447e+32,
    "GJIMGGGHJNF": -3.6092920393593094e+31,
    "EEGBNKGHIMA": 0.0008450486930087209,
    "FIGNCFEHLFG": true
  },
  "7": {
    "CFIACBBDBKA": 3435008542900224.0,
    "CPJAGLGNPBC": 0.1902804970741272,
    "PAAFAIJBGKP": 1.483739619704734e-34,
    "AECIFACBEFN": 184.26376342773438,
    "EEGBNKGHIMA": 110.56132507324219
  },
  "7294": {
    "CFIACBBDBKA": 1.6872209841346093e-32,
    "PAAFAIJBGKP": -1.1868845391795454e+20,
    "EEGBNKGHIMA": 2.0768147805938497e-05
  },
  "69": {
    "CFIACBBDBKA": 131.9160919189453,
    "CPJAGLGNPBC": 108.06482696533203,
    "PAAFAIJBGKP": 2932.626953125
  },
  "8533": {
    "CPJAGLGNPBC": 1.4836428480506575e-34,
    "PAAFAIJBGKP": 184.98020935058594,
    "NMNLBBKIBPD": 106.25569152832031,
    "EEGBNKGHIMA": 2913.68310546875
  },
  "50": {
    "CPJAGLGNPBC": 6.903652969317136e-29,
    "NMNLBBKIBPD": -435983707275264.0,
    "AECIFACBEFN": 1.1174077071615662e-12,
    "GJIMGGGHJNF": -6.669346438768862e-30,
    "EEGBNKGHIMA": 3196907.25
  },
  "1093171": {
    "PAAFAIJBGKP": 1.4837960985348712e-34,
    "GJIMGGGHJNF": 154.07330322265625
  },
  "33": {
    "CPJAGLGNPBC": 3002.254638671875,
    "PAAFAIJBGKP": 5.455608562410549e-26,
    "GJIMGGGHJNF": -1.5442128848469765e+32,
    "EEGBNKGHIMA": 0.010588468983769417,
    "NBFOJHBKAGF": -1.3481239358239174e+26
  },
  "13": {
    "CFIACBBDBKA": 125.1545639038086,
    "CPJAGLGNPBC": 3014.133544921875,
    "EEGBNKGHIMA": 2.4608345264451474e-38
  },
  "67": {
    "CFIACBBDBKA": 9.207974049584811e+23,
    "PAAFAIJBGKP": 1.483848903945162e-34,
    "NMNLBBKIBPD": 120.35980987548828,
    "AECIFACBEFN": 127.87974548339844,
    "GJIMGGGHJNF": 3014.034423828125
  }
}