[
  {},
  {},
  {
    "npcId": 67
  },
  {},
  {
    "KAGOGNOLOJI": {
      "z": -4.684399247759661e-16
    }
  },
  {
    "npcId": 8828
  },
  {},
  {
    "KAGOGNOLOJI": {
      "z": 2.4305533298837e+36
    }
  },
  {},
  {
    "npcId": 15277,
    "KAGOGNOLOJI": {
      "y": -3.638592669331358e-36
    }
  },
  {},
  {
    "npcId": 100
  },
  {
    "npcId": 964,
    "KAGOGNOLOJI": {
      "x": -1571.8187255859375,
      "z": 103032016.0
    }
  },
  {
    "npcId": 8825,
    "KAGOGNOLOJI": {
      "x": 2017.268310546875,
      "y": -1060.83642578125,
      "z": 1990.384765625
    }
  }
]