{
  "sceneId": 33728,
  "monsters": [
    {
      "groupId": 233728004,
      "mapInstId": 4001,
      "aiGroupID": 233728004,
      "overrideDefendAreaRange": true,
      "defendAreaRange": 999.0,
      "overrideClearThreatTargetDistance": true,
      "clearThreatTargetDistance": 999.0,
      "aiNeuronSetting": "DefaultSetting",
      "aiSensingTemplate": "DefaultTemplate",
      "ENPGOILNGAK": "",
      "forceCombatOnSpawn": true,
      "disableWander": true,
      "billboardHasUIBar": true,
      "reuseNotRemoveAbilityTag": "",
      "enterCombatTemplate": ""
    },
    {
      "groupId": 233728005,
      "mapInstId": 5001,
      "aiGroupID": 233728005,
      "overrideDefendAreaRange": true,
      "defendAreaRange": 999.0,
      "overrideClearThreatTargetDistance": true,
      "clearThreatTargetDistance": 999.0,
      "aiNeuronSetting": "DefaultSetting",
      "aiSensingTemplate": "DefaultTemplate",
      "ENPGOILNGAK": "",
      "forceCombatOnSpawn": true,
      "disableWander": true,
      "reuseNotRemoveAbilityTag": "",
      "enterCombatTemplate": ""
    },
    {
      "groupId": 233728005,
      "mapInstId": 5002,
      "aiGroupID": 233728005,
      "overrideDefendAreaRange": true,
      "defendAreaRange": 999.0,
      "overrideClearThreatTargetDistance": true,
      "clearThreatTargetDistance": 999.0,
      "aiNeuronSetting": "DefaultSetting",
      "aiSensingTemplate": "DefaultTemplate",
      "ENPGOILNGAK": "",
      "forceCombatOnSpawn": true,
      "disableWander": true,
      "reuseNotRemoveAbilityTag": "",
      "enterCombatTemplate": ""
    },
    {
      "groupId": 233728005,
      "mapInstId": 5004,
      "aiGroupID": 233728005,
      "overrideDefendAreaRange": true,
      "defendAreaRange": 999.0,
      "overrideClearThreatTargetDistance": true,
      "clearThreatTargetDistance": 999.0,
      "aiNeuronSetting": "DefaultSetting",
      "aiSensingTemplate": "DefaultTemplate",
      "ENPGOILNGAK": "",
      "forceCombatOnSpawn": true,
      "disableWander": true,
      "reuseNotRemoveAbilityTag": "",
      "enterCombatTemplate": ""
    },
    {
      "groupId": 233728005,
      "mapInstId": 5005,
      "aiGroupID": 233728005,
      "overrideDefendAreaRange": true,
      "defendAreaRange": 999.0,
      "overrideClearThreatTargetDistance": true,
      "clearThreatTargetDistance": 999.0,
      "aiNeuronSetting": "DefaultSetting",
      "aiSensingTemplate": "DefaultTemplate",
      "ENPGOILNGAK": "",
      "forceCombatOnSpawn": true,
      "disableWander": true,
      "reuseNotRemoveAbilityTag": "",
      "enterCombatTemplate": ""
    },
    {
      "groupId": 233728005,
      "mapInstId": 5007,
      "aiGroupID": 233728005,
      "overrideDefendAreaRange": true,
      "defendAreaRange": 999.0,
      "overrideClearThreatTargetDistance": true,
      "clearThreatTargetDistance": 999.0,
      "aiNeuronSetting": "DefaultSetting",
      "aiSensingTemplate": "DefaultTemplate",
      "ENPGOILNGAK": "",
      "forceCombatOnSpawn": true,
      "disableWander": true,
      "reuseNotRemoveAbilityTag": "",
      "enterCombatTemplate": ""
    },
    {
      "groupId": 233728005,
      "mapInstId": 5008,
      "aiGroupID": 233728005,
      "overrideDefendAreaRange": true,
      "defendAreaRange": 999.0,
      "overrideClearThreatTargetDistance": true,
      "clearThreatTargetDistance": 999.0,
      "aiNeuronSetting": "DefaultSetting",
      "aiSensingTemplate": "DefaultTemplate",
      "ENPGOILNGAK": "",
      "forceCombatOnSpawn": true,
      "disableWander": true,
      "reuseNotRemoveAbilityTag": "",
      "enterCombatTemplate": ""
    }
  ]
}