{
  "sceneId": 20153,
  "monsters": [
    {
      "groupId": 220153001,
      "mapInstId": 1001,
      "aiGroupID": 220153001,
      "aiNeuronSetting": "DefaultSetting",
      "aiSensingTemplate": "DefaultTemplate",
      "ENPGOILNGAK": "",
      "billboardHasUIBar": true,
      "billboardUIBarNeedEnterCombat": true,
      "reuseNotRemoveAbilityTag": "",
      "enterCombatTemplate": ""
    }
  ]
}