{
  "sceneId": 20016,
  "monsters": [
    {
      "groupId": 220016007,
      "mapInstId": 6,
      "aiGroupID": 201,
      "aiNeuronSetting": "",
      "aiSensingTemplate": "DefaultTemplate",
      "ENPGOILNGAK": "",
      "reuseNotRemoveAbilityTag": "",
      "enterCombatTemplate": ""
    },
    {
      "groupId": 220016007,
      "mapInstId": 7,
      "aiGroupID": 201,
      "aiNeuronSetting": "",
      "aiSensingTemplate": "DefaultTemplate",
      "ENPGOILNGAK": "",
      "reuseNotRemoveAbilityTag": "",
      "enterCombatTemplate": ""
    },
    {
      "groupId": 220016007,
      "mapInstId": 8,
      "aiGroupID": 201,
      "aiNeuronSetting": "",
      "aiSensingTemplate": "DefaultTemplate",
      "ENPGOILNGAK": "",
      "reuseNotRemoveAbilityTag": "",
      "enterCombatTemplate": ""
    },
    {
      "groupId": 220016008,
      "mapInstId": 9,
      "aiNeuronSetting": "DefaultSetting",
      "aiSensingTemplate": "DefaultTemplate",
      "ENPGOILNGAK": "",
      "disableWander": true,
      "reuseNotRemoveAbilityTag": "",
      "enterCombatTemplate": ""
    },
    {
      "groupId": 220016007,
      "mapInstId": 11,
      "aiNeuronSetting": "",
      "aiSensingTemplate": "DefaultTemplate",
      "ENPGOILNGAK": "",
      "reuseNotRemoveAbilityTag": "",
      "enterCombatTemplate": ""
    },
    {
      "groupId": 220016007,
      "mapInstId": 12,
      "aiNeuronSetting": "",
      "aiSensingTemplate": "DefaultTemplate",
      "ENPGOILNGAK": "",
      "reuseNotRemoveAbilityTag": "",
      "enterCombatTemplate": ""
    },
    {
      "groupId": 220016007,
      "mapInstId": 13,
      "aiNeuronSetting": "",
      "aiSensingTemplate": "DefaultTemplate",
      "ENPGOILNGAK": "",
      "reuseNotRemoveAbilityTag": "",
      "enterCombatTemplate": ""
    },
    {
      "groupId": 220016006,
      "mapInstId": 18,
      "aiGroupID": 220016006,
      "aiNeuronSetting": "",
      "aiSensingTemplate": "DefaultTemplate",
      "ENPGOILNGAK": "",
      "reuseNotRemoveAbilityTag": "",
      "enterCombatTemplate": ""
    },
    {
      "groupId": 220016006,
      "mapInstId": 19,
      "aiGroupID": 220016006,
      "aiNeuronSetting": "DefaultSetting",
      "aiSensingTemplate": "HighAlertTemplate",
      "ENPGOILNGAK": "",
      "reuseNotRemoveAbilityTag": "",
      "enterCombatTemplate": ""
    },
    {
      "groupId": 220016006,
      "mapInstId": 20,
      "aiGroupID": 220016006,
      "aiNeuronSetting": "DefaultSetting",
      "aiSensingTemplate": "HighAlertTemplate",
      "ENPGOILNGAK": "",
      "reuseNotRemoveAbilityTag": "",
      "enterCombatTemplate": ""
    },
    {
      "groupId": 220016006,
      "mapInstId": 21,
      "aiGroupID": 220016006,
      "aiNeuronSetting": "",
      "aiSensingTemplate": "",
      "ENPGOILNGAK": "",
      "reuseNotRemoveAbilityTag": "",
      "enterCombatTemplate": ""
    },
    {
      "groupId": 220016008,
      "mapInstId": 22,
      "aiNeuronSetting": "DefaultSetting",
      "aiSensingTemplate": "DefaultTemplate",
      "ENPGOILNGAK": "",
      "billboardHasUIBar": true,
      "billboardUIBarNeedEnterCombat": true,
      "reuseNotRemoveAbilityTag": "",
      "enterCombatTemplate": ""
    },
    {
      "groupId": 220016001,
      "mapInstId": 1001,
      "aiGroupID": 220016001,
      "aiNeuronSetting": "",
      "aiSensingTemplate": "DefaultTemplate",
      "ENPGOILNGAK": "",
      "disableWander": true,
      "reuseNotRemoveAbilityTag": "",
      "enterCombatTemplate": ""
    },
    {
      "groupId": 220016001,
      "mapInstId": 1002,
      "aiGroupID": 220016001,
      "aiNeuronSetting": "DefaultSetting",
      "aiSensingTemplate": "DefaultTemplate",
      "ENPGOILNGAK": "",
      "disableWander": true,
      "reuseNotRemoveAbilityTag": "",
      "enterCombatTemplate": ""
    },
    {
      "groupId": 220016001,
      "mapInstId": 1003,
      "aiGroupID": 220016001,
      "aiNeuronSetting": "",
      "aiSensingTemplate": "DefaultTemplate",
      "ENPGOILNGAK": "",
      "disableWander": true,
      "reuseNotRemoveAbilityTag": "",
      "enterCombatTemplate": ""
    },
    {
      "groupId": 220016001,
      "mapInstId": 1004,
      "aiGroupID": 220016001,
      "aiNeuronSetting": "",
      "aiSensingTemplate": "DefaultTemplate",
      "ENPGOILNGAK": "",
      "disableWander": true,
      "reuseNotRemoveAbilityTag": "",
      "enterCombatTemplate": ""
    },
    {
      "groupId": 220016001,
      "mapInstId": 1005,
      "aiGroupID": 220016001,
      "aiNeuronSetting": "",
      "aiSensingTemplate": "DefaultTemplate",
      "ENPGOILNGAK": "",
      "reuseNotRemoveAbilityTag": "",
      "enterCombatTemplate": ""
    },
    {
      "groupId": 220016001,
      "mapInstId": 1006,
      "aiGroupID": 220016001,
      "aiNeuronSetting": "",
      "aiSensingTemplate": "DefaultTemplate",
      "ENPGOILNGAK": "",
      "reuseNotRemoveAbilityTag": "",
      "enterCombatTemplate": ""
    }
  ]
}