{
  "sceneId": 47402,
  "monsters": [
    {
      "groupId": 247402001,
      "mapInstId": 1129,
      "defendAreaID": 8,
      "sensingAreaID": 7,
      "aiNeuronSetting": "DefaultSetting",
      "aiSensingTemplate": "DefaultTemplate",
      "ENPGOILNGAK": "",
      "reuseNotRemoveAbilityTag": "",
      "enterCombatTemplate": ""
    },
    {
      "groupId": 247402001,
      "mapInstId": 1130,
      "routeId": 25,
      "defendAreaID": 4,
      "sensingAreaID": 3,
      "aiNeuronSetting": "DefaultSetting",
      "aiSensingTemplate": "DefaultTemplate",
      "ENPGOILNGAK": "",
      "reuseNotRemoveAbilityTag": "",
      "enterCombatTemplate": ""
    },
    {
      "groupId": 247402001,
      "mapInstId": 1131,
      "routeId": 26,
      "defendAreaID": 6,
      "sensingAreaID": 5,
      "aiNeuronSetting": "DefaultSetting",
      "aiSensingTemplate": "DefaultTemplate",
      "ENPGOILNGAK": "",
      "reuseNotRemoveAbilityTag": "",
      "enterCombatTemplate": ""
    },
    {
      "groupId": 247402001,
      "mapInstId": 1132,
      "routeId": 24,
      "defendAreaID": 2,
      "sensingAreaID": 1,
      "aiNeuronSetting": "DefaultSetting",
      "aiSensingTemplate": "DefaultTemplate",
      "ENPGOILNGAK": "",
      "reuseNotRemoveAbilityTag": "",
      "enterCombatTemplate": ""
    },
    {
      "groupId": 247402001,
      "mapInstId": 1133,
      "defendAreaID": 10,
      "sensingAreaID": 9,
      "aiNeuronSetting": "DefaultSetting",
      "aiSensingTemplate": "DefaultTemplate",
      "ENPGOILNGAK": "",
      "reuseNotRemoveAbilityTag": "",
      "enterCombatTemplate": ""
    },
    {
      "groupId": 247402001,
      "mapInstId": 1134,
      "defendAreaID": 12,
      "sensingAreaID": 11,
      "aiNeuronSetting": "DefaultSetting",
      "aiSensingTemplate": "DefaultTemplate",
      "ENPGOILNGAK": "",
      "reuseNotRemoveAbilityTag": "",
      "enterCombatTemplate": ""
    },
    {
      "groupId": 247402001,
      "mapInstId": 1135,
      "routeId": 22,
      "defendAreaID": 14,
      "sensingAreaID": 13,
      "aiNeuronSetting": "DefaultSetting",
      "aiSensingTemplate": "DefaultTemplate",
      "ENPGOILNGAK": "",
      "reuseNotRemoveAbilityTag": "",
      "enterCombatTemplate": ""
    },
    {
      "groupId": 247402001,
      "mapInstId": 1136,
      "routeId": 23,
      "defendAreaID": 16,
      "sensingAreaID": 15,
      "aiNeuronSetting": "DefaultSetting",
      "aiSensingTemplate": "DefaultTemplate",
      "ENPGOILNGAK": "",
      "reuseNotRemoveAbilityTag": "",
      "enterCombatTemplate": ""
    },
    {
      "groupId": 247402001,
      "mapInstId": 1137,
      "defendAreaID": 18,
      "sensingAreaID": 17,
      "aiNeuronSetting": "DefaultSetting",
      "aiSensingTemplate": "DefaultTemplate",
      "ENPGOILNGAK": "",
      "reuseNotRemoveAbilityTag": "",
      "enterCombatTemplate": ""
    }
  ]
}