{
  "sceneId": 20194,
  "monsters": [
    {
      "groupId": 220194003,
      "mapInstId": 3002,
      "aiGroupID": 220194003,
      "aiNeuronSetting": "DefaultSetting",
      "aiSensingTemplate": "BoxMatch",
      "ENPGOILNGAK": "",
      "disableWander": true,
      "reuseNotRemoveAbilityTag": "",
      "enterCombatTemplate": ""
    },
    {
      "groupId": 220194003,
      "mapInstId": 3005,
      "aiGroupID": 220194003,
      "aiNeuronSetting": "DefaultSetting",
      "aiSensingTemplate": "BoxMatchCustomize",
      "ENPGOILNGAK": "",
      "disableWander": true,
      "reuseNotRemoveAbilityTag": "",
      "enterCombatTemplate": ""
    },
    {
      "groupId": 220194003,
      "mapInstId": 3006,
      "aiNeuronSetting": "DefaultSetting",
      "aiSensingTemplate": "BoxMatch",
      "ENPGOILNGAK": "",
      "disableWander": true,
      "reuseNotRemoveAbilityTag": "",
      "enterCombatTemplate": ""
    }
  ]
}