{
  "sceneId": 46306,
  "monsters": [
    {
      "groupId": 246306001,
      "mapInstId": 1001,
      "aiGroupID": 246306001,
      "aiNeuronSetting": "DefaultSetting",
      "aiSensingTemplate": "DefaultTemplate",
      "ENPGOILNGAK": "",
      "forceCombatOnSpawn": true,
      "disableWander": true,
      "reuseNotRemoveAbilityTag": "",
      "enterCombatTemplate": ""
    },
    {
      "groupId": 246306001,
      "mapInstId": 1002,
      "aiGroupID": 246306001,
      "aiNeuronSetting": "DefaultSetting",
      "aiSensingTemplate": "DefaultTemplate",
      "ENPGOILNGAK": "",
      "forceCombatOnSpawn": true,
      "disableWander": true,
      "reuseNotRemoveAbilityTag": "",
      "enterCombatTemplate": ""
    },
    {
      "groupId": 246306001,
      "mapInstId": 1003,
      "aiGroupID": 246306001,
      "aiNeuronSetting": "DefaultSetting",
      "aiSensingTemplate": "DefaultTemplate",
      "ENPGOILNGAK": "",
      "forceCombatOnSpawn": true,
      "disableWander": true,
      "reuseNotRemoveAbilityTag": "",
      "enterCombatTemplate": ""
    },
    {
      "groupId": 246306001,
      "mapInstId": 1004,
      "aiGroupID": 246306001,
      "aiNeuronSetting": "DefaultSetting",
      "aiSensingTemplate": "DefaultTemplate",
      "ENPGOILNGAK": "",
      "forceCombatOnSpawn": true,
      "disableWander": true,
      "reuseNotRemoveAbilityTag": "",
      "enterCombatTemplate": ""
    },
    {
      "groupId": 246306001,
      "mapInstId": 1005,
      "aiGroupID": 246306001,
      "aiNeuronSetting": "DefaultSetting",
      "aiSensingTemplate": "DefaultTemplate",
      "ENPGOILNGAK": "",
      "forceCombatOnSpawn": true,
      "disableWander": true,
      "reuseNotRemoveAbilityTag": "",
      "enterCombatTemplate": ""
    },
    {
      "groupId": 246306001,
      "mapInstId": 1006,
      "aiGroupID": 246306001,
      "aiNeuronSetting": "DefaultSetting",
      "aiSensingTemplate": "DefaultTemplate",
      "ENPGOILNGAK": "",
      "forceCombatOnSpawn": true,
      "disableWander": true,
      "reuseNotRemoveAbilityTag": "",
      "enterCombatTemplate": ""
    },
    {
      "groupId": 246306001,
      "mapInstId": 1007,
      "aiGroupID": 246306001,
      "aiNeuronSetting": "DefaultSetting",
      "aiSensingTemplate": "DefaultTemplate",
      "ENPGOILNGAK": "",
      "forceCombatOnSpawn": true,
      "disableWander": true,
      "reuseNotRemoveAbilityTag": "",
      "enterCombatTemplate": ""
    },
    {
      "groupId": 246306001,
      "mapInstId": 1008,
      "aiGroupID": 246306001,
      "aiNeuronSetting": "DefaultSetting",
      "aiSensingTemplate": "DefaultTemplate",
      "ENPGOILNGAK": "",
      "forceCombatOnSpawn": true,
      "disableWander": true,
      "reuseNotRemoveAbilityTag": "",
      "enterCombatTemplate": ""
    },
    {
      "groupId": 246306001,
      "mapInstId": 1009,
      "aiGroupID": 246306001,
      "aiNeuronSetting": "DefaultSetting",
      "aiSensingTemplate": "DefaultTemplate",
      "ENPGOILNGAK": "",
      "forceCombatOnSpawn": true,
      "disableWander": true,
      "reuseNotRemoveAbilityTag": "",
      "enterCombatTemplate": ""
    },
    {
      "groupId": 246306001,
      "mapInstId": 1010,
      "aiGroupID": 246306001,
      "aiNeuronSetting": "DefaultSetting",
      "aiSensingTemplate": "DefaultTemplate",
      "ENPGOILNGAK": "",
      "forceCombatOnSpawn": true,
      "disableWander": true,
      "reuseNotRemoveAbilityTag": "",
      "enterCombatTemplate": ""
    },
    {
      "groupId": 246306001,
      "mapInstId": 1011,
      "aiGroupID": 246306001,
      "aiNeuronSetting": "DefaultSetting",
      "aiSensingTemplate": "DefaultTemplate",
      "ENPGOILNGAK": "",
      "forceCombatOnSpawn": true,
      "disableWander": true,
      "reuseNotRemoveAbilityTag": "",
      "enterCombatTemplate": ""
    },
    {
      "groupId": 246306001,
      "mapInstId": 1012,
      "aiGroupID": 246306001,
      "aiNeuronSetting": "DefaultSetting",
      "aiSensingTemplate": "DefaultTemplate",
      "ENPGOILNGAK": "",
      "forceCombatOnSpawn": true,
      "disableWander": true,
      "reuseNotRemoveAbilityTag": "",
      "enterCombatTemplate": ""
    },
    {
      "groupId": 246306001,
      "mapInstId": 1013,
      "aiGroupID": 246306001,
      "aiNeuronSetting": "DefaultSetting",
      "aiSensingTemplate": "DefaultTemplate",
      "ENPGOILNGAK": "",
      "forceCombatOnSpawn": true,
      "disableWander": true,
      "reuseNotRemoveAbilityTag": "",
      "enterCombatTemplate": ""
    },
    {
      "groupId": 246306001,
      "mapInstId": 1014,
      "aiGroupID": 246306001,
      "aiNeuronSetting": "DefaultSetting",
      "aiSensingTemplate": "DefaultTemplate",
      "ENPGOILNGAK": "",
      "forceCombatOnSpawn": true,
      "disableWander": true,
      "reuseNotRemoveAbilityTag": "",
      "enterCombatTemplate": ""
    },
    {
      "groupId": 246306001,
      "mapInstId": 1017,
      "aiGroupID": 246306001,
      "aiNeuronSetting": "DefaultSetting",
      "aiSensingTemplate": "DefaultTemplate",
      "ENPGOILNGAK": "",
      "forceCombatOnSpawn": true,
      "disableWander": true,
      "reuseNotRemoveAbilityTag": "",
      "enterCombatTemplate": ""
    },
    {
      "groupId": 246306001,
      "mapInstId": 1018,
      "aiGroupID": 246306001,
      "aiNeuronSetting": "DefaultSetting",
      "aiSensingTemplate": "DefaultTemplate",
      "ENPGOILNGAK": "",
      "forceCombatOnSpawn": true,
      "disableWander": true,
      "reuseNotRemoveAbilityTag": "",
      "enterCombatTemplate": ""
    }
  ]
}