{
  "sceneId": 20146,
  "monsters": [
    {
      "groupId": 220146002,
      "mapInstId": 2004,
      "aiGroupID": 220146002,
      "defendAreaRange": 45.0,
      "aiNeuronSetting": "DefaultSetting",
      "aiSensingTemplate": "DefaultTemplate",
      "ENPGOILNGAK": "",
      "forceCombatOnSpawn": true,
      "disableWander": true,
      "reuseNotRemoveAbilityTag": "",
      "enterCombatTemplate": ""
    },
    {
      "groupId": 220146002,
      "mapInstId": 2005,
      "aiGroupID": 220146002,
      "defendAreaRange": 45.0,
      "aiNeuronSetting": "DefaultSetting",
      "aiSensingTemplate": "DefaultTemplate",
      "ENPGOILNGAK": "",
      "forceCombatOnSpawn": true,
      "disableWander": true,
      "reuseNotRemoveAbilityTag": "",
      "enterCombatTemplate": ""
    },
    {
      "groupId": 220146002,
      "mapInstId": 2006,
      "aiGroupID": 220146002,
      "defendAreaRange": 45.0,
      "aiNeuronSetting": "DefaultSetting",
      "aiSensingTemplate": "DefaultTemplate",
      "ENPGOILNGAK": "",
      "forceCombatOnSpawn": true,
      "disableWander": true,
      "reuseNotRemoveAbilityTag": "",
      "enterCombatTemplate": ""
    },
    {
      "groupId": 220146002,
      "mapInstId": 2008,
      "aiGroupID": 220146002,
      "defendAreaRange": 45.0,
      "aiNeuronSetting": "DefaultSetting",
      "aiSensingTemplate": "DefaultTemplate",
      "ENPGOILNGAK": "",
      "forceCombatOnSpawn": true,
      "disableWander": true,
      "reuseNotRemoveAbilityTag": "",
      "enterCombatTemplate": ""
    },
    {
      "groupId": 220146002,
      "mapInstId": 2009,
      "aiGroupID": 220146002,
      "defendAreaRange": 45.0,
      "aiNeuronSetting": "DefaultSetting",
      "aiSensingTemplate": "DefaultTemplate",
      "ENPGOILNGAK": "",
      "forceCombatOnSpawn": true,
      "disableWander": true,
      "reuseNotRemoveAbilityTag": "",
      "enterCombatTemplate": ""
    },
    {
      "groupId": 220146002,
      "mapInstId": 2010,
      "aiGroupID": 220146002,
      "defendAreaRange": 45.0,
      "aiNeuronSetting": "DefaultSetting",
      "aiSensingTemplate": "DefaultTemplate",
      "ENPGOILNGAK": "",
      "forceCombatOnSpawn": true,
      "disableWander": true,
      "reuseNotRemoveAbilityTag": "",
      "enterCombatTemplate": ""
    },
    {
      "groupId": 220146003,
      "mapInstId": 3001,
      "aiGroupID": 220146003,
      "overrideDefendAreaRange": true,
      "defendAreaRange": 5.0,
      "defendAreaID": 1,
      "aiNeuronSetting": "DefaultSetting",
      "aiSensingTemplate": "DefaultTemplate",
      "ENPGOILNGAK": "",
      "forceCombatOnSpawn": true,
      "disableWander": true,
      "billboardHasUIBar": true,
      "billboardMultiBarSortId": 1,
      "billboardMultiBarNum": 2,
      "reuseNotRemoveAbilityTag": "",
      "enterCombatTemplate": ""
    },
    {
      "groupId": 220146003,
      "mapInstId": 3002,
      "aiGroupID": 220146003,
      "overrideDefendAreaRange": true,
      "defendAreaRange": 5.0,
      "defendAreaID": 1,
      "aiNeuronSetting": "DefaultSetting",
      "aiSensingTemplate": "DefaultTemplate",
      "ENPGOILNGAK": "",
      "forceCombatOnSpawn": true,
      "disableWander": true,
      "billboardHasUIBar": true,
      "billboardMultiBarSortId": 2,
      "billboardMultiBarNum": 2,
      "reuseNotRemoveAbilityTag": "",
      "enterCombatTemplate": ""
    },
    {
      "groupId": 220146003,
      "mapInstId": 3029,
      "aiGroupID": 220146003,
      "overrideDefendAreaRange": true,
      "defendAreaRange": 5.0,
      "defendAreaID": 1,
      "aiNeuronSetting": "DefaultSetting",
      "aiSensingTemplate": "DefaultTemplate",
      "ENPGOILNGAK": "",
      "forceCombatOnSpawn": true,
      "disableWander": true,
      "reuseNotRemoveAbilityTag": "",
      "enterCombatTemplate": ""
    },
    {
      "groupId": 220146003,
      "mapInstId": 3030,
      "aiGroupID": 220146003,
      "overrideDefendAreaRange": true,
      "defendAreaRange": 5.0,
      "defendAreaID": 1,
      "aiNeuronSetting": "DefaultSetting",
      "aiSensingTemplate": "DefaultTemplate",
      "ENPGOILNGAK": "",
      "forceCombatOnSpawn": true,
      "disableWander": true,
      "reuseNotRemoveAbilityTag": "",
      "enterCombatTemplate": ""
    },
    {
      "groupId": 220146003,
      "mapInstId": 3031,
      "aiGroupID": 220146003,
      "overrideDefendAreaRange": true,
      "defendAreaRange": 5.0,
      "defendAreaID": 1,
      "aiNeuronSetting": "DefaultSetting",
      "aiSensingTemplate": "DefaultTemplate",
      "ENPGOILNGAK": "",
      "forceCombatOnSpawn": true,
      "disableWander": true,
      "reuseNotRemoveAbilityTag": "",
      "enterCombatTemplate": ""
    },
    {
      "groupId": 220146003,
      "mapInstId": 3032,
      "aiGroupID": 220146003,
      "overrideDefendAreaRange": true,
      "defendAreaRange": 5.0,
      "defendAreaID": 1,
      "aiNeuronSetting": "DefaultSetting",
      "aiSensingTemplate": "DefaultTemplate",
      "ENPGOILNGAK": "",
      "forceCombatOnSpawn": true,
      "disableWander": true,
      "reuseNotRemoveAbilityTag": "",
      "enterCombatTemplate": ""
    },
    {
      "groupId": 220146004,
      "mapInstId": 4001,
      "aiGroupID": 220146004,
      "defendAreaRange": 45.0,
      "aiNeuronSetting": "DefaultSetting",
      "aiSensingTemplate": "DefaultTemplate",
      "ENPGOILNGAK": "",
      "disableWander": true,
      "reuseNotRemoveAbilityTag": "",
      "enterCombatTemplate": ""
    },
    {
      "groupId": 220146004,
      "mapInstId": 4002,
      "aiGroupID": 220146004,
      "defendAreaRange": 45.0,
      "aiNeuronSetting": "DefaultSetting",
      "aiSensingTemplate": "DefaultTemplate",
      "ENPGOILNGAK": "",
      "disableWander": true,
      "reuseNotRemoveAbilityTag": "",
      "enterCombatTemplate": ""
    },
    {
      "groupId": 220146006,
      "mapInstId": 6001,
      "aiGroupID": 220146006,
      "overrideDefendAreaRange": true,
      "defendAreaRange": 5.0,
      "defendAreaID": 1,
      "aiNeuronSetting": "DefaultSetting",
      "aiSensingTemplate": "DefaultTemplate",
      "ENPGOILNGAK": "",
      "disableWander": true,
      "reuseNotRemoveAbilityTag": "",
      "enterCombatTemplate": ""
    },
    {
      "groupId": 220146006,
      "mapInstId": 6002,
      "aiGroupID": 220146006,
      "overrideDefendAreaRange": true,
      "defendAreaRange": 5.0,
      "defendAreaID": 1,
      "aiNeuronSetting": "DefaultSetting",
      "aiSensingTemplate": "DefaultTemplate",
      "ENPGOILNGAK": "",
      "disableWander": true,
      "reuseNotRemoveAbilityTag": "",
      "enterCombatTemplate": ""
    },
    {
      "groupId": 220146006,
      "mapInstId": 6003,
      "aiGroupID": 220146006,
      "overrideDefendAreaRange": true,
      "defendAreaRange": 5.0,
      "defendAreaID": 1,
      "aiNeuronSetting": "DefaultSetting",
      "aiSensingTemplate": "DefaultTemplate",
      "ENPGOILNGAK": "",
      "disableWander": true,
      "reuseNotRemoveAbilityTag": "",
      "enterCombatTemplate": ""
    },
    {
      "groupId": 220146006,
      "mapInstId": 6004,
      "aiGroupID": 220146006,
      "overrideDefendAreaRange": true,
      "defendAreaRange": 5.0,
      "defendAreaID": 1,
      "aiNeuronSetting": "DefaultSetting",
      "aiSensingTemplate": "DefaultTemplate",
      "ENPGOILNGAK": "",
      "disableWander": true,
      "reuseNotRemoveAbilityTag": "",
      "enterCombatTemplate": ""
    },
    {
      "groupId": 220146007,
      "mapInstId": 7001,
      "aiGroupID": 220146007,
      "overrideDefendAreaRange": true,
      "defendAreaRange": 5.0,
      "defendAreaID": 1,
      "aiNeuronSetting": "DefaultSetting",
      "aiSensingTemplate": "DefaultTemplate",
      "ENPGOILNGAK": "",
      "forceCombatOnSpawn": true,
      "disableWander": true,
      "reuseNotRemoveAbilityTag": "",
      "enterCombatTemplate": ""
    },
    {
      "groupId": 220146007,
      "mapInstId": 7002,
      "aiGroupID": 220146007,
      "overrideDefendAreaRange": true,
      "defendAreaRange": 5.0,
      "defendAreaID": 1,
      "aiNeuronSetting": "DefaultSetting",
      "aiSensingTemplate": "DefaultTemplate",
      "ENPGOILNGAK": "",
      "forceCombatOnSpawn": true,
      "disableWander": true,
      "reuseNotRemoveAbilityTag": "",
      "enterCombatTemplate": ""
    },
    {
      "groupId": 220146007,
      "mapInstId": 7003,
      "aiGroupID": 220146007,
      "overrideDefendAreaRange": true,
      "defendAreaRange": 5.0,
      "defendAreaID": 1,
      "aiNeuronSetting": "DefaultSetting",
      "aiSensingTemplate": "DefaultTemplate",
      "ENPGOILNGAK": "",
      "forceCombatOnSpawn": true,
      "disableWander": true,
      "reuseNotRemoveAbilityTag": "",
      "enterCombatTemplate": ""
    },
    {
      "groupId": 220146007,
      "mapInstId": 7004,
      "aiGroupID": 220146007,
      "overrideDefendAreaRange": true,
      "defendAreaRange": 5.0,
      "defendAreaID": 1,
      "aiNeuronSetting": "DefaultSetting",
      "aiSensingTemplate": "DefaultTemplate",
      "ENPGOILNGAK": "",
      "forceCombatOnSpawn": true,
      "disableWander": true,
      "reuseNotRemoveAbilityTag": "",
      "enterCombatTemplate": ""
    },
    {
      "groupId": 220146007,
      "mapInstId": 7005,
      "aiGroupID": 220146007,
      "overrideDefendAreaRange": true,
      "defendAreaRange": 5.0,
      "defendAreaID": 1,
      "aiNeuronSetting": "DefaultSetting",
      "aiSensingTemplate": "DefaultTemplate",
      "ENPGOILNGAK": "",
      "forceCombatOnSpawn": true,
      "disableWander": true,
      "reuseNotRemoveAbilityTag": "",
      "enterCombatTemplate": ""
    }
  ]
}