{
  "sceneId": 40070,
  "monsters": [
    {
      "groupId": 240070001,
      "mapInstId": 1006,
      "aiGroupID": 240070001,
      "overrideForceAlertDistance": true,
      "forceAlertDistanceLimit": 999.0,
      "sensingAreaID": 1,
      "overrideClearThreatTargetDistance": true,
      "clearThreatTargetDistance": 999.0,
      "aiNeuronSetting": "DefaultSetting",
      "aiSensingTemplate": "DefaultTemplate",
      "ENPGOILNGAK": "",
      "forceCombatOnSpawn": true,
      "disableWander": true,
      "billboardHasUIBar": true,
      "billboardMultiBarSortId": 1,
      "billboardMultiBarNum": 2,
      "reuseNotRemoveAbilityTag": "",
      "enterCombatTemplate": ""
    },
    {
      "groupId": 240070001,
      "mapInstId": 1007,
      "aiGroupID": 240070001,
      "overrideForceAlertDistance": true,
      "forceAlertDistanceLimit": 999.0,
      "sensingAreaID": 1,
      "overrideClearThreatTargetDistance": true,
      "clearThreatTargetDistance": 999.0,
      "aiNeuronSetting": "DefaultSetting",
      "aiSensingTemplate": "DefaultTemplate",
      "ENPGOILNGAK": "",
      "forceCombatOnSpawn": true,
      "disableWander": true,
      "billboardHasUIBar": true,
      "billboardMultiBarSortId": 2,
      "billboardMultiBarNum": 2,
      "reuseNotRemoveAbilityTag": "",
      "enterCombatTemplate": ""
    },
    {
      "groupId": 240070001,
      "mapInstId": 1016,
      "aiGroupID": 240070001,
      "overrideForceAlertDistance": true,
      "forceAlertDistanceLimit": 999.0,
      "sensingAreaID": 1,
      "overrideClearThreatTargetDistance": true,
      "clearThreatTargetDistance": 999.0,
      "aiNeuronSetting": "DefaultSetting",
      "aiSensingTemplate": "DefaultTemplate",
      "ENPGOILNGAK": "",
      "forceCombatOnSpawn": true,
      "disableWander": true,
      "billboardHasUIBar": true,
      "billboardMultiBarSortId": 1,
      "billboardMultiBarNum": 2,
      "reuseNotRemoveAbilityTag": "",
      "enterCombatTemplate": ""
    },
    {
      "groupId": 240070001,
      "mapInstId": 1017,
      "aiGroupID": 240070001,
      "overrideForceAlertDistance": true,
      "forceAlertDistanceLimit": 999.0,
      "sensingAreaID": 1,
      "overrideClearThreatTargetDistance": true,
      "clearThreatTargetDistance": 999.0,
      "aiNeuronSetting": "DefaultSetting",
      "aiSensingTemplate": "DefaultTemplate",
      "ENPGOILNGAK": "",
      "forceCombatOnSpawn": true,
      "disableWander": true,
      "billboardHasUIBar": true,
      "billboardMultiBarSortId": 2,
      "billboardMultiBarNum": 2,
      "reuseNotRemoveAbilityTag": "",
      "enterCombatTemplate": ""
    },
    {
      "groupId": 240070001,
      "mapInstId": 1018,
      "aiGroupID": 240070001,
      "overrideForceAlertDistance": true,
      "forceAlertDistanceLimit": 999.0,
      "sensingAreaID": 1,
      "overrideClearThreatTargetDistance": true,
      "clearThreatTargetDistance": 999.0,
      "aiNeuronSetting": "DefaultSetting",
      "aiSensingTemplate": "DefaultTemplate",
      "ENPGOILNGAK": "",
      "forceCombatOnSpawn": true,
      "disableWander": true,
      "billboardHasUIBar": true,
      "reuseNotRemoveAbilityTag": "",
      "enterCombatTemplate": ""
    },
    {
      "groupId": 240070001,
      "mapInstId": 1019,
      "aiGroupID": 240070001,
      "overrideForceAlertDistance": true,
      "forceAlertDistanceLimit": 999.0,
      "sensingAreaID": 1,
      "overrideClearThreatTargetDistance": true,
      "clearThreatTargetDistance": 999.0,
      "aiNeuronSetting": "DefaultSetting",
      "aiSensingTemplate": "DefaultTemplate",
      "ENPGOILNGAK": "",
      "forceCombatOnSpawn": true,
      "disableWander": true,
      "billboardHasUIBar": true,
      "reuseNotRemoveAbilityTag": "",
      "enterCombatTemplate": ""
    },
    {
      "groupId": 240070001,
      "mapInstId": 1020,
      "aiGroupID": 240070001,
      "overrideForceAlertDistance": true,
      "forceAlertDistanceLimit": 999.0,
      "sensingAreaID": 1,
      "overrideClearThreatTargetDistance": true,
      "clearThreatTargetDistance": 999.0,
      "aiNeuronSetting": "DefaultSetting",
      "aiSensingTemplate": "DefaultTemplate",
      "ENPGOILNGAK": "",
      "forceCombatOnSpawn": true,
      "disableWander": true,
      "billboardHasUIBar": true,
      "reuseNotRemoveAbilityTag": "",
      "enterCombatTemplate": ""
    },
    {
      "groupId": 240070001,
      "mapInstId": 1021,
      "aiGroupID": 240070001,
      "overrideForceAlertDistance": true,
      "forceAlertDistanceLimit": 999.0,
      "sensingAreaID": 1,
      "overrideClearThreatTargetDistance": true,
      "clearThreatTargetDistance": 999.0,
      "aiNeuronSetting": "DefaultSetting",
      "aiSensingTemplate": "DefaultTemplate",
      "ENPGOILNGAK": "",
      "forceCombatOnSpawn": true,
      "disableWander": true,
      "billboardHasUIBar": true,
      "reuseNotRemoveAbilityTag": "",
      "enterCombatTemplate": ""
    }
  ]
}