{
  "sceneId": 20208,
  "monsters": [
    {
      "groupId": 220208001,
      "mapInstId": 1002,
      "aiGroupID": 220208001,
      "aiNeuronSetting": "DefaultSetting",
      "aiSensingTemplate": "DefaultTemplate",
      "ENPGOILNGAK": "",
      "billboardHasUIBar": true,
      "billboardUIBarNeedEnterCombat": true,
      "billboardHpBarStyle": "Boss",
      "reuseNotRemoveAbilityTag": "",
      "enterCombatTemplate": ""
    },
    {
      "groupId": 220208001,
      "mapInstId": 1007,
      "aiGroupID": 220208001,
      "aiNeuronSetting": "DefaultSetting",
      "aiSensingTemplate": "StoryMode",
      "ENPGOILNGAK": "",
      "billboardHasUIBar": true,
      "billboardUIBarNeedEnterCombat": true,
      "billboardHpBarStyle": "Boss",
      "reuseNotRemoveAbilityTag": "",
      "enterCombatTemplate": ""
    }
  ]
}