{
  "sceneId": 47404,
  "monsters": [
    {
      "groupId": 247404001,
      "mapInstId": 1042,
      "routeId": 18,
      "defendAreaID": 18,
      "sensingAreaID": 17,
      "aiNeuronSetting": "DefaultSetting",
      "aiSensingTemplate": "DefaultTemplate",
      "ENPGOILNGAK": "",
      "reuseNotRemoveAbilityTag": "",
      "enterCombatTemplate": ""
    },
    {
      "groupId": 247404001,
      "mapInstId": 1060,
      "defendAreaID": 2,
      "sensingAreaID": 1,
      "aiNeuronSetting": "DefaultSetting",
      "aiSensingTemplate": "DefaultTemplate",
      "ENPGOILNGAK": "",
      "reuseNotRemoveAbilityTag": "",
      "enterCombatTemplate": ""
    },
    {
      "groupId": 247404001,
      "mapInstId": 1061,
      "routeId": 1,
      "defendAreaID": 4,
      "sensingAreaID": 3,
      "aiNeuronSetting": "DefaultSetting",
      "aiSensingTemplate": "DefaultTemplate",
      "ENPGOILNGAK": "",
      "reuseNotRemoveAbilityTag": "",
      "enterCombatTemplate": ""
    },
    {
      "groupId": 247404001,
      "mapInstId": 1062,
      "routeId": 2,
      "defendAreaID": 6,
      "sensingAreaID": 5,
      "aiNeuronSetting": "DefaultSetting",
      "aiSensingTemplate": "DefaultTemplate",
      "ENPGOILNGAK": "",
      "reuseNotRemoveAbilityTag": "",
      "enterCombatTemplate": ""
    },
    {
      "groupId": 247404001,
      "mapInstId": 1072,
      "routeId": 8,
      "defendAreaID": 8,
      "sensingAreaID": 7,
      "aiNeuronSetting": "DefaultSetting",
      "aiSensingTemplate": "DefaultTemplate",
      "ENPGOILNGAK": "",
      "reuseNotRemoveAbilityTag": "",
      "enterCombatTemplate": ""
    },
    {
      "groupId": 247404001,
      "mapInstId": 1073,
      "routeId": 9,
      "defendAreaID": 10,
      "sensingAreaID": 9,
      "aiNeuronSetting": "DefaultSetting",
      "aiSensingTemplate": "DefaultTemplate",
      "ENPGOILNGAK": "",
      "reuseNotRemoveAbilityTag": "",
      "enterCombatTemplate": ""
    },
    {
      "groupId": 247404001,
      "mapInstId": 1078,
      "defendAreaID": 12,
      "sensingAreaID": 11,
      "aiNeuronSetting": "DefaultSetting",
      "aiSensingTemplate": "DefaultTemplate",
      "ENPGOILNGAK": "",
      "reuseNotRemoveAbilityTag": "",
      "enterCombatTemplate": ""
    },
    {
      "groupId": 247404001,
      "mapInstId": 1079,
      "defendAreaID": 14,
      "sensingAreaID": 13,
      "aiNeuronSetting": "DefaultSetting",
      "aiSensingTemplate": "DefaultTemplate",
      "ENPGOILNGAK": "",
      "reuseNotRemoveAbilityTag": "",
      "enterCombatTemplate": ""
    },
    {
      "groupId": 247404001,
      "mapInstId": 1080,
      "defendAreaID": 16,
      "sensingAreaID": 15,
      "aiNeuronSetting": "DefaultSetting",
      "aiSensingTemplate": "DefaultTemplate",
      "ENPGOILNGAK": "",
      "reuseNotRemoveAbilityTag": "",
      "enterCombatTemplate": ""
    }
  ]
}