{
  "sceneId": 34755,
  "monsters": [
    {
      "groupId": 234755007,
      "mapInstId": 7001,
      "aiGroupID": 234755007,
      "overrideDefendAreaRange": true,
      "defendAreaRange": 999.0,
      "overrideClearThreatTargetDistance": true,
      "clearThreatTargetDistance": 999.0,
      "aiNeuronSetting": "DefaultSetting",
      "aiSensingTemplate": "DefaultTemplate",
      "ENPGOILNGAK": "",
      "forceCombatOnSpawn": true,
      "disableWander": true,
      "reuseNotRemoveAbilityTag": "",
      "enterCombatTemplate": ""
    },
    {
      "groupId": 234755007,
      "mapInstId": 7002,
      "aiGroupID": 234755007,
      "overrideDefendAreaRange": true,
      "defendAreaRange": 999.0,
      "overrideClearThreatTargetDistance": true,
      "clearThreatTargetDistance": 999.0,
      "aiNeuronSetting": "DefaultSetting",
      "aiSensingTemplate": "DefaultTemplate",
      "ENPGOILNGAK": "",
      "forceCombatOnSpawn": true,
      "disableWander": true,
      "reuseNotRemoveAbilityTag": "",
      "enterCombatTemplate": ""
    },
    {
      "groupId": 234755007,
      "mapInstId": 7004,
      "aiGroupID": 234755007,
      "overrideDefendAreaRange": true,
      "defendAreaRange": 999.0,
      "overrideClearThreatTargetDistance": true,
      "clearThreatTargetDistance": 999.0,
      "aiNeuronSetting": "DefaultSetting",
      "aiSensingTemplate": "DefaultTemplate",
      "ENPGOILNGAK": "",
      "forceCombatOnSpawn": true,
      "disableWander": true,
      "reuseNotRemoveAbilityTag": "",
      "enterCombatTemplate": ""
    },
    {
      "groupId": 234755007,
      "mapInstId": 7005,
      "aiGroupID": 234755007,
      "overrideDefendAreaRange": true,
      "defendAreaRange": 999.0,
      "overrideClearThreatTargetDistance": true,
      "clearThreatTargetDistance": 999.0,
      "aiNeuronSetting": "DefaultSetting",
      "aiSensingTemplate": "DefaultTemplate",
      "ENPGOILNGAK": "",
      "forceCombatOnSpawn": true,
      "disableWander": true,
      "reuseNotRemoveAbilityTag": "",
      "enterCombatTemplate": ""
    },
    {
      "groupId": 234755007,
      "mapInstId": 7006,
      "aiGroupID": 234755007,
      "overrideDefendAreaRange": true,
      "defendAreaRange": 999.0,
      "overrideClearThreatTargetDistance": true,
      "clearThreatTargetDistance": 999.0,
      "aiNeuronSetting": "DefaultSetting",
      "aiSensingTemplate": "DefaultTemplate",
      "ENPGOILNGAK": "",
      "forceCombatOnSpawn": true,
      "disableWander": true,
      "reuseNotRemoveAbilityTag": "",
      "enterCombatTemplate": ""
    },
    {
      "groupId": 234755007,
      "mapInstId": 7008,
      "aiGroupID": 234755007,
      "overrideDefendAreaRange": true,
      "defendAreaRange": 999.0,
      "overrideClearThreatTargetDistance": true,
      "clearThreatTargetDistance": 999.0,
      "aiNeuronSetting": "DefaultSetting",
      "aiSensingTemplate": "DefaultTemplate",
      "ENPGOILNGAK": "",
      "forceCombatOnSpawn": true,
      "disableWander": true,
      "reuseNotRemoveAbilityTag": "",
      "enterCombatTemplate": ""
    },
    {
      "groupId": 234755007,
      "mapInstId": 7009,
      "aiGroupID": 234755007,
      "overrideDefendAreaRange": true,
      "defendAreaRange": 999.0,
      "overrideClearThreatTargetDistance": true,
      "clearThreatTargetDistance": 999.0,
      "aiNeuronSetting": "DefaultSetting",
      "aiSensingTemplate": "DefaultTemplate",
      "ENPGOILNGAK": "",
      "forceCombatOnSpawn": true,
      "disableWander": true,
      "reuseNotRemoveAbilityTag": "",
      "enterCombatTemplate": ""
    },
    {
      "groupId": 234755007,
      "mapInstId": 7012,
      "aiGroupID": 234755007,
      "overrideDefendAreaRange": true,
      "defendAreaRange": 999.0,
      "overrideClearThreatTargetDistance": true,
      "clearThreatTargetDistance": 999.0,
      "aiNeuronSetting": "DefaultSetting",
      "aiSensingTemplate": "DefaultTemplate",
      "ENPGOILNGAK": "",
      "forceCombatOnSpawn": true,
      "disableWander": true,
      "reuseNotRemoveAbilityTag": "",
      "enterCombatTemplate": ""
    },
    {
      "groupId": 234755007,
      "mapInstId": 7016,
      "aiGroupID": 234755007,
      "overrideDefendAreaRange": true,
      "defendAreaRange": 999.0,
      "overrideClearThreatTargetDistance": true,
      "clearThreatTargetDistance": 999.0,
      "aiNeuronSetting": "DefaultSetting",
      "aiSensingTemplate": "DefaultTemplate",
      "ENPGOILNGAK": "",
      "forceCombatOnSpawn": true,
      "disableWander": true,
      "reuseNotRemoveAbilityTag": "",
      "enterCombatTemplate": ""
    },
    {
      "groupId": 234755007,
      "mapInstId": 7017,
      "aiGroupID": 234755007,
      "overrideDefendAreaRange": true,
      "defendAreaRange": 999.0,
      "overrideClearThreatTargetDistance": true,
      "clearThreatTargetDistance": 999.0,
      "aiNeuronSetting": "DefaultSetting",
      "aiSensingTemplate": "DefaultTemplate",
      "ENPGOILNGAK": "",
      "forceCombatOnSpawn": true,
      "disableWander": true,
      "reuseNotRemoveAbilityTag": "",
      "enterCombatTemplate": ""
    },
    {
      "groupId": 234755008,
      "mapInstId": 8001,
      "aiGroupID": 234755008,
      "overrideDefendAreaRange": true,
      "defendAreaRange": 999.0,
      "overrideClearThreatTargetDistance": true,
      "clearThreatTargetDistance": 999.0,
      "aiNeuronSetting": "DefaultSetting",
      "aiSensingTemplate": "DefaultTemplate",
      "ENPGOILNGAK": "",
      "forceCombatOnSpawn": true,
      "disableWander": true,
      "reuseNotRemoveAbilityTag": "",
      "enterCombatTemplate": ""
    },
    {
      "groupId": 234755008,
      "mapInstId": 8003,
      "aiGroupID": 234755008,
      "overrideDefendAreaRange": true,
      "defendAreaRange": 999.0,
      "overrideClearThreatTargetDistance": true,
      "clearThreatTargetDistance": 999.0,
      "aiNeuronSetting": "DefaultSetting",
      "aiSensingTemplate": "DefaultTemplate",
      "ENPGOILNGAK": "",
      "forceCombatOnSpawn": true,
      "disableWander": true,
      "reuseNotRemoveAbilityTag": "",
      "enterCombatTemplate": ""
    },
    {
      "groupId": 234755008,
      "mapInstId": 8004,
      "aiGroupID": 234755008,
      "overrideDefendAreaRange": true,
      "defendAreaRange": 999.0,
      "overrideClearThreatTargetDistance": true,
      "clearThreatTargetDistance": 999.0,
      "aiNeuronSetting": "DefaultSetting",
      "aiSensingTemplate": "DefaultTemplate",
      "ENPGOILNGAK": "",
      "forceCombatOnSpawn": true,
      "disableWander": true,
      "reuseNotRemoveAbilityTag": "",
      "enterCombatTemplate": ""
    },
    {
      "groupId": 234755008,
      "mapInstId": 8007,
      "aiGroupID": 234755008,
      "overrideDefendAreaRange": true,
      "defendAreaRange": 999.0,
      "overrideClearThreatTargetDistance": true,
      "clearThreatTargetDistance": 999.0,
      "aiNeuronSetting": "DefaultSetting",
      "aiSensingTemplate": "DefaultTemplate",
      "ENPGOILNGAK": "",
      "forceCombatOnSpawn": true,
      "disableWander": true,
      "reuseNotRemoveAbilityTag": "",
      "enterCombatTemplate": ""
    },
    {
      "groupId": 234755008,
      "mapInstId": 8008,
      "aiGroupID": 234755008,
      "overrideDefendAreaRange": true,
      "defendAreaRange": 999.0,
      "overrideClearThreatTargetDistance": true,
      "clearThreatTargetDistance": 999.0,
      "aiNeuronSetting": "DefaultSetting",
      "aiSensingTemplate": "DefaultTemplate",
      "ENPGOILNGAK": "",
      "forceCombatOnSpawn": true,
      "disableWander": true,
      "reuseNotRemoveAbilityTag": "",
      "enterCombatTemplate": ""
    }
  ]
}