{
  "sceneId": 31802,
  "monsters": [
    {
      "groupId": 231802006,
      "mapInstId": 6001,
      "aiGroupID": 231802006,
      "aiNeuronSetting": "DefaultSetting",
      "aiSensingTemplate": "DefaultTemplate",
      "ENPGOILNGAK": "",
      "forceCombatOnSpawn": true,
      "reuseNotRemoveAbilityTag": "",
      "enterCombatTemplate": ""
    },
    {
      "groupId": 231802006,
      "mapInstId": 6002,
      "aiGroupID": 231802006,
      "aiNeuronSetting": "DefaultSetting",
      "aiSensingTemplate": "DefaultTemplate",
      "ENPGOILNGAK": "",
      "forceCombatOnSpawn": true,
      "reuseNotRemoveAbilityTag": "",
      "enterCombatTemplate": ""
    },
    {
      "groupId": 231802006,
      "mapInstId": 6003,
      "aiGroupID": 231802006,
      "aiNeuronSetting": "DefaultSetting",
      "aiSensingTemplate": "DefaultTemplate",
      "ENPGOILNGAK": "",
      "forceCombatOnSpawn": true,
      "reuseNotRemoveAbilityTag": "",
      "enterCombatTemplate": ""
    },
    {
      "groupId": 231802006,
      "mapInstId": 6004,
      "aiGroupID": 231802006,
      "aiNeuronSetting": "DefaultSetting",
      "aiSensingTemplate": "DefaultTemplate",
      "ENPGOILNGAK": "",
      "forceCombatOnSpawn": true,
      "reuseNotRemoveAbilityTag": "",
      "enterCombatTemplate": ""
    },
    {
      "groupId": 231802006,
      "mapInstId": 6005,
      "aiGroupID": 231802006,
      "aiNeuronSetting": "DefaultSetting",
      "aiSensingTemplate": "DefaultTemplate",
      "ENPGOILNGAK": "",
      "forceCombatOnSpawn": true,
      "reuseNotRemoveAbilityTag": "",
      "enterCombatTemplate": ""
    },
    {
      "groupId": 231802006,
      "mapInstId": 6006,
      "aiGroupID": 231802006,
      "aiNeuronSetting": "DefaultSetting",
      "aiSensingTemplate": "DefaultTemplate",
      "ENPGOILNGAK": "",
      "forceCombatOnSpawn": true,
      "reuseNotRemoveAbilityTag": "",
      "enterCombatTemplate": ""
    },
    {
      "groupId": 231802006,
      "mapInstId": 6007,
      "aiGroupID": 231802006,
      "aiNeuronSetting": "DefaultSetting",
      "aiSensingTemplate": "DefaultTemplate",
      "ENPGOILNGAK": "",
      "forceCombatOnSpawn": true,
      "reuseNotRemoveAbilityTag": "",
      "enterCombatTemplate": ""
    },
    {
      "groupId": 231802006,
      "mapInstId": 6008,
      "aiGroupID": 231802006,
      "aiNeuronSetting": "DefaultSetting",
      "aiSensingTemplate": "DefaultTemplate",
      "ENPGOILNGAK": "",
      "forceCombatOnSpawn": true,
      "reuseNotRemoveAbilityTag": "",
      "enterCombatTemplate": ""
    },
    {
      "groupId": 231802006,
      "mapInstId": 6009,
      "aiGroupID": 231802006,
      "aiNeuronSetting": "DefaultSetting",
      "aiSensingTemplate": "DefaultTemplate",
      "ENPGOILNGAK": "",
      "forceCombatOnSpawn": true,
      "reuseNotRemoveAbilityTag": "",
      "enterCombatTemplate": ""
    },
    {
      "groupId": 231802006,
      "mapInstId": 6010,
      "aiGroupID": 231802006,
      "aiNeuronSetting": "DefaultSetting",
      "aiSensingTemplate": "DefaultTemplate",
      "ENPGOILNGAK": "",
      "forceCombatOnSpawn": true,
      "reuseNotRemoveAbilityTag": "",
      "enterCombatTemplate": ""
    },
    {
      "groupId": 231802006,
      "mapInstId": 6011,
      "aiGroupID": 231802006,
      "aiNeuronSetting": "DefaultSetting",
      "aiSensingTemplate": "DefaultTemplate",
      "ENPGOILNGAK": "",
      "forceCombatOnSpawn": true,
      "reuseNotRemoveAbilityTag": "",
      "enterCombatTemplate": ""
    },
    {
      "groupId": 231802006,
      "mapInstId": 6012,
      "aiGroupID": 231802006,
      "aiNeuronSetting": "DefaultSetting",
      "aiSensingTemplate": "DefaultTemplate",
      "ENPGOILNGAK": "",
      "forceCombatOnSpawn": true,
      "reuseNotRemoveAbilityTag": "",
      "enterCombatTemplate": ""
    },
    {
      "groupId": 231802006,
      "mapInstId": 6013,
      "aiGroupID": 231802006,
      "aiNeuronSetting": "DefaultSetting",
      "aiSensingTemplate": "DefaultTemplate",
      "ENPGOILNGAK": "",
      "forceCombatOnSpawn": true,
      "reuseNotRemoveAbilityTag": "",
      "enterCombatTemplate": ""
    },
    {
      "groupId": 231802006,
      "mapInstId": 6014,
      "aiGroupID": 231802006,
      "aiNeuronSetting": "DefaultSetting",
      "aiSensingTemplate": "DefaultTemplate",
      "ENPGOILNGAK": "",
      "forceCombatOnSpawn": true,
      "reuseNotRemoveAbilityTag": "",
      "enterCombatTemplate": ""
    },
    {
      "groupId": 231802006,
      "mapInstId": 6015,
      "aiGroupID": 231802006,
      "aiNeuronSetting": "DefaultSetting",
      "aiSensingTemplate": "DefaultTemplate",
      "ENPGOILNGAK": "",
      "forceCombatOnSpawn": true,
      "reuseNotRemoveAbilityTag": "",
      "enterCombatTemplate": ""
    },
    {
      "groupId": 231802006,
      "mapInstId": 6016,
      "aiGroupID": 231802006,
      "aiNeuronSetting": "DefaultSetting",
      "aiSensingTemplate": "DefaultTemplate",
      "ENPGOILNGAK": "",
      "forceCombatOnSpawn": true,
      "reuseNotRemoveAbilityTag": "",
      "enterCombatTemplate": ""
    },
    {
      "groupId": 231802006,
      "mapInstId": 6017,
      "aiGroupID": 231802006,
      "aiNeuronSetting": "DefaultSetting",
      "aiSensingTemplate": "DefaultTemplate",
      "ENPGOILNGAK": "",
      "forceCombatOnSpawn": true,
      "reuseNotRemoveAbilityTag": "",
      "enterCombatTemplate": ""
    },
    {
      "groupId": 231802006,
      "mapInstId": 6018,
      "aiGroupID": 231802006,
      "aiNeuronSetting": "DefaultSetting",
      "aiSensingTemplate": "DefaultTemplate",
      "ENPGOILNGAK": "",
      "forceCombatOnSpawn": true,
      "reuseNotRemoveAbilityTag": "",
      "enterCombatTemplate": ""
    },
    {
      "groupId": 231802006,
      "mapInstId": 6019,
      "aiGroupID": 231802006,
      "aiNeuronSetting": "DefaultSetting",
      "aiSensingTemplate": "DefaultTemplate",
      "ENPGOILNGAK": "",
      "forceCombatOnSpawn": true,
      "reuseNotRemoveAbilityTag": "",
      "enterCombatTemplate": ""
    },
    {
      "groupId": 231802006,
      "mapInstId": 6020,
      "aiGroupID": 231802006,
      "aiNeuronSetting": "DefaultSetting",
      "aiSensingTemplate": "DefaultTemplate",
      "ENPGOILNGAK": "",
      "forceCombatOnSpawn": true,
      "reuseNotRemoveAbilityTag": "",
      "enterCombatTemplate": ""
    },
    {
      "groupId": 231802006,
      "mapInstId": 6021,
      "aiGroupID": 231802006,
      "aiNeuronSetting": "DefaultSetting",
      "aiSensingTemplate": "DefaultTemplate",
      "ENPGOILNGAK": "",
      "forceCombatOnSpawn": true,
      "reuseNotRemoveAbilityTag": "",
      "enterCombatTemplate": ""
    },
    {
      "groupId": 231802006,
      "mapInstId": 6022,
      "aiGroupID": 231802006,
      "aiNeuronSetting": "DefaultSetting",
      "aiSensingTemplate": "DefaultTemplate",
      "ENPGOILNGAK": "",
      "forceCombatOnSpawn": true,
      "reuseNotRemoveAbilityTag": "",
      "enterCombatTemplate": ""
    },
    {
      "groupId": 231802006,
      "mapInstId": 6024,
      "aiGroupID": 231802006,
      "aiNeuronSetting": "DefaultSetting",
      "aiSensingTemplate": "DefaultTemplate",
      "ENPGOILNGAK": "",
      "forceCombatOnSpawn": true,
      "reuseNotRemoveAbilityTag": "",
      "enterCombatTemplate": ""
    },
    {
      "groupId": 231802006,
      "mapInstId": 6025,
      "aiGroupID": 231802006,
      "aiNeuronSetting": "DefaultSetting",
      "aiSensingTemplate": "DefaultTemplate",
      "ENPGOILNGAK": "",
      "forceCombatOnSpawn": true,
      "reuseNotRemoveAbilityTag": "",
      "enterCombatTemplate": ""
    },
    {
      "groupId": 231802006,
      "mapInstId": 6027,
      "aiGroupID": 231802006,
      "aiNeuronSetting": "DefaultSetting",
      "aiSensingTemplate": "DefaultTemplate",
      "ENPGOILNGAK": "",
      "forceCombatOnSpawn": true,
      "reuseNotRemoveAbilityTag": "",
      "enterCombatTemplate": ""
    },
    {
      "groupId": 231802006,
      "mapInstId": 6028,
      "aiGroupID": 231802006,
      "aiNeuronSetting": "DefaultSetting",
      "aiSensingTemplate": "DefaultTemplate",
      "ENPGOILNGAK": "",
      "forceCombatOnSpawn": true,
      "reuseNotRemoveAbilityTag": "",
      "enterCombatTemplate": ""
    },
    {
      "groupId": 231802006,
      "mapInstId": 6029,
      "aiGroupID": 231802006,
      "aiNeuronSetting": "DefaultSetting",
      "aiSensingTemplate": "DefaultTemplate",
      "ENPGOILNGAK": "",
      "forceCombatOnSpawn": true,
      "reuseNotRemoveAbilityTag": "",
      "enterCombatTemplate": ""
    },
    {
      "groupId": 231802006,
      "mapInstId": 6043,
      "aiGroupID": 231802006,
      "aiNeuronSetting": "DefaultSetting",
      "aiSensingTemplate": "DefaultTemplate",
      "ENPGOILNGAK": "",
      "forceCombatOnSpawn": true,
      "reuseNotRemoveAbilityTag": "",
      "enterCombatTemplate": ""
    },
    {
      "groupId": 231802006,
      "mapInstId": 6044,
      "aiGroupID": 231802006,
      "aiNeuronSetting": "DefaultSetting",
      "aiSensingTemplate": "DefaultTemplate",
      "ENPGOILNGAK": "",
      "forceCombatOnSpawn": true,
      "reuseNotRemoveAbilityTag": "",
      "enterCombatTemplate": ""
    },
    {
      "groupId": 231802006,
      "mapInstId": 6045,
      "aiGroupID": 231802006,
      "aiNeuronSetting": "DefaultSetting",
      "aiSensingTemplate": "DefaultTemplate",
      "ENPGOILNGAK": "",
      "forceCombatOnSpawn": true,
      "reuseNotRemoveAbilityTag": "",
      "enterCombatTemplate": ""
    },
    {
      "groupId": 231802006,
      "mapInstId": 6046,
      "aiGroupID": 231802006,
      "aiNeuronSetting": "DefaultSetting",
      "aiSensingTemplate": "DefaultTemplate",
      "ENPGOILNGAK": "",
      "forceCombatOnSpawn": true,
      "reuseNotRemoveAbilityTag": "",
      "enterCombatTemplate": ""
    },
    {
      "groupId": 231802006,
      "mapInstId": 6047,
      "aiGroupID": 231802006,
      "aiNeuronSetting": "DefaultSetting",
      "aiSensingTemplate": "DefaultTemplate",
      "ENPGOILNGAK": "",
      "forceCombatOnSpawn": true,
      "reuseNotRemoveAbilityTag": "",
      "enterCombatTemplate": ""
    }
  ]
}