{
  "sceneId": 35908,
  "monsters": [
    {
      "groupId": 235908001,
      "mapInstId": 1002,
      "aiGroupID": 235908001,
      "overrideDefendAreaRange": true,
      "defendAreaRange": 99.0,
      "overrideClearThreatTargetDistance": true,
      "clearThreatTargetDistance": 99.0,
      "aiNeuronSetting": "DefaultSetting",
      "aiSensingTemplate": "DefaultTemplate",
      "ENPGOILNGAK": "",
      "forceCombatOnSpawn": true,
      "disableWander": true,
      "reuseNotRemoveAbilityTag": "",
      "enterCombatTemplate": ""
    },
    {
      "groupId": 235908001,
      "mapInstId": 1003,
      "aiGroupID": 235908001,
      "overrideDefendAreaRange": true,
      "defendAreaRange": 99.0,
      "overrideClearThreatTargetDistance": true,
      "clearThreatTargetDistance": 99.0,
      "aiNeuronSetting": "DefaultSetting",
      "aiSensingTemplate": "DefaultTemplate",
      "ENPGOILNGAK": "",
      "forceCombatOnSpawn": true,
      "disableWander": true,
      "reuseNotRemoveAbilityTag": "",
      "enterCombatTemplate": ""
    },
    {
      "groupId": 235908001,
      "mapInstId": 1004,
      "aiGroupID": 235908001,
      "overrideDefendAreaRange": true,
      "defendAreaRange": 99.0,
      "overrideClearThreatTargetDistance": true,
      "clearThreatTargetDistance": 99.0,
      "aiNeuronSetting": "DefaultSetting",
      "aiSensingTemplate": "DefaultTemplate",
      "ENPGOILNGAK": "",
      "forceCombatOnSpawn": true,
      "disableWander": true,
      "reuseNotRemoveAbilityTag": "",
      "enterCombatTemplate": ""
    },
    {
      "groupId": 235908001,
      "mapInstId": 1007,
      "aiGroupID": 235908001,
      "overrideDefendAreaRange": true,
      "defendAreaRange": 99.0,
      "overrideClearThreatTargetDistance": true,
      "clearThreatTargetDistance": 99.0,
      "aiNeuronSetting": "DefaultSetting",
      "aiSensingTemplate": "DefaultTemplate",
      "ENPGOILNGAK": "",
      "forceCombatOnSpawn": true,
      "disableWander": true,
      "reuseNotRemoveAbilityTag": "",
      "enterCombatTemplate": ""
    },
    {
      "groupId": 235908001,
      "mapInstId": 1008,
      "aiGroupID": 235908001,
      "overrideDefendAreaRange": true,
      "defendAreaRange": 99.0,
      "overrideClearThreatTargetDistance": true,
      "clearThreatTargetDistance": 99.0,
      "aiNeuronSetting": "DefaultSetting",
      "aiSensingTemplate": "DefaultTemplate",
      "ENPGOILNGAK": "",
      "forceCombatOnSpawn": true,
      "disableWander": true,
      "reuseNotRemoveAbilityTag": "",
      "enterCombatTemplate": ""
    },
    {
      "groupId": 235908001,
      "mapInstId": 1013,
      "aiGroupID": 235908001,
      "overrideDefendAreaRange": true,
      "defendAreaRange": 99.0,
      "overrideClearThreatTargetDistance": true,
      "clearThreatTargetDistance": 99.0,
      "aiNeuronSetting": "DefaultSetting",
      "aiSensingTemplate": "DefaultTemplate",
      "ENPGOILNGAK": "",
      "forceCombatOnSpawn": true,
      "disableWander": true,
      "reuseNotRemoveAbilityTag": "",
      "enterCombatTemplate": ""
    },
    {
      "groupId": 235908001,
      "mapInstId": 1014,
      "aiGroupID": 235908001,
      "overrideDefendAreaRange": true,
      "defendAreaRange": 99.0,
      "overrideClearThreatTargetDistance": true,
      "clearThreatTargetDistance": 99.0,
      "aiNeuronSetting": "DefaultSetting",
      "aiSensingTemplate": "DefaultTemplate",
      "ENPGOILNGAK": "",
      "forceCombatOnSpawn": true,
      "disableWander": true,
      "reuseNotRemoveAbilityTag": "",
      "enterCombatTemplate": ""
    },
    {
      "groupId": 235908001,
      "mapInstId": 1015,
      "aiGroupID": 235908001,
      "overrideDefendAreaRange": true,
      "defendAreaRange": 99.0,
      "overrideClearThreatTargetDistance": true,
      "clearThreatTargetDistance": 99.0,
      "aiNeuronSetting": "DefaultSetting",
      "aiSensingTemplate": "DefaultTemplate",
      "ENPGOILNGAK": "",
      "forceCombatOnSpawn": true,
      "disableWander": true,
      "reuseNotRemoveAbilityTag": "",
      "enterCombatTemplate": ""
    },
    {
      "groupId": 235908001,
      "mapInstId": 1016,
      "aiGroupID": 235908001,
      "overrideDefendAreaRange": true,
      "defendAreaRange": 99.0,
      "overrideClearThreatTargetDistance": true,
      "clearThreatTargetDistance": 99.0,
      "aiNeuronSetting": "DefaultSetting",
      "aiSensingTemplate": "DefaultTemplate",
      "ENPGOILNGAK": "",
      "forceCombatOnSpawn": true,
      "disableWander": true,
      "reuseNotRemoveAbilityTag": "",
      "enterCombatTemplate": ""
    },
    {
      "groupId": 235908001,
      "mapInstId": 1017,
      "aiGroupID": 235908001,
      "overrideDefendAreaRange": true,
      "defendAreaRange": 99.0,
      "overrideClearThreatTargetDistance": true,
      "clearThreatTargetDistance": 99.0,
      "aiNeuronSetting": "DefaultSetting",
      "aiSensingTemplate": "DefaultTemplate",
      "ENPGOILNGAK": "",
      "forceCombatOnSpawn": true,
      "disableWander": true,
      "reuseNotRemoveAbilityTag": "",
      "enterCombatTemplate": ""
    },
    {
      "groupId": 235908001,
      "mapInstId": 1018,
      "aiGroupID": 235908001,
      "overrideDefendAreaRange": true,
      "defendAreaRange": 99.0,
      "overrideClearThreatTargetDistance": true,
      "clearThreatTargetDistance": 99.0,
      "aiNeuronSetting": "DefaultSetting",
      "aiSensingTemplate": "DefaultTemplate",
      "ENPGOILNGAK": "",
      "forceCombatOnSpawn": true,
      "disableWander": true,
      "reuseNotRemoveAbilityTag": "",
      "enterCombatTemplate": ""
    },
    {
      "groupId": 235908001,
      "mapInstId": 1019,
      "aiGroupID": 235908001,
      "overrideDefendAreaRange": true,
      "defendAreaRange": 99.0,
      "overrideClearThreatTargetDistance": true,
      "clearThreatTargetDistance": 99.0,
      "aiNeuronSetting": "DefaultSetting",
      "aiSensingTemplate": "DefaultTemplate",
      "ENPGOILNGAK": "",
      "forceCombatOnSpawn": true,
      "disableWander": true,
      "reuseNotRemoveAbilityTag": "",
      "enterCombatTemplate": ""
    },
    {
      "groupId": 235908001,
      "mapInstId": 1020,
      "aiGroupID": 235908001,
      "overrideDefendAreaRange": true,
      "defendAreaRange": 99.0,
      "overrideClearThreatTargetDistance": true,
      "clearThreatTargetDistance": 99.0,
      "aiNeuronSetting": "DefaultSetting",
      "aiSensingTemplate": "DefaultTemplate",
      "ENPGOILNGAK": "",
      "forceCombatOnSpawn": true,
      "disableWander": true,
      "reuseNotRemoveAbilityTag": "",
      "enterCombatTemplate": ""
    },
    {
      "groupId": 235908001,
      "mapInstId": 1033,
      "aiGroupID": 235908001,
      "overrideDefendAreaRange": true,
      "defendAreaRange": 99.0,
      "overrideClearThreatTargetDistance": true,
      "clearThreatTargetDistance": 99.0,
      "aiNeuronSetting": "DefaultSetting",
      "aiSensingTemplate": "DefaultTemplate",
      "ENPGOILNGAK": "",
      "forceCombatOnSpawn": true,
      "disableWander": true,
      "reuseNotRemoveAbilityTag": "",
      "enterCombatTemplate": ""
    },
    {
      "groupId": 235908001,
      "mapInstId": 1034,
      "aiGroupID": 235908001,
      "overrideDefendAreaRange": true,
      "defendAreaRange": 99.0,
      "overrideClearThreatTargetDistance": true,
      "clearThreatTargetDistance": 99.0,
      "aiNeuronSetting": "DefaultSetting",
      "aiSensingTemplate": "DefaultTemplate",
      "ENPGOILNGAK": "",
      "forceCombatOnSpawn": true,
      "disableWander": true,
      "reuseNotRemoveAbilityTag": "",
      "enterCombatTemplate": ""
    },
    {
      "groupId": 235908001,
      "mapInstId": 1035,
      "aiGroupID": 235908001,
      "overrideDefendAreaRange": true,
      "defendAreaRange": 99.0,
      "overrideClearThreatTargetDistance": true,
      "clearThreatTargetDistance": 99.0,
      "aiNeuronSetting": "DefaultSetting",
      "aiSensingTemplate": "DefaultTemplate",
      "ENPGOILNGAK": "",
      "forceCombatOnSpawn": true,
      "disableWander": true,
      "reuseNotRemoveAbilityTag": "",
      "enterCombatTemplate": ""
    },
    {
      "groupId": 235908001,
      "mapInstId": 1036,
      "aiGroupID": 235908001,
      "overrideDefendAreaRange": true,
      "defendAreaRange": 99.0,
      "overrideClearThreatTargetDistance": true,
      "clearThreatTargetDistance": 99.0,
      "aiNeuronSetting": "DefaultSetting",
      "aiSensingTemplate": "DefaultTemplate",
      "ENPGOILNGAK": "",
      "forceCombatOnSpawn": true,
      "disableWander": true,
      "reuseNotRemoveAbilityTag": "",
      "enterCombatTemplate": ""
    },
    {
      "groupId": 235908001,
      "mapInstId": 1037,
      "aiGroupID": 235908001,
      "overrideDefendAreaRange": true,
      "defendAreaRange": 99.0,
      "overrideClearThreatTargetDistance": true,
      "clearThreatTargetDistance": 99.0,
      "aiNeuronSetting": "DefaultSetting",
      "aiSensingTemplate": "DefaultTemplate",
      "ENPGOILNGAK": "",
      "forceCombatOnSpawn": true,
      "disableWander": true,
      "reuseNotRemoveAbilityTag": "",
      "enterCombatTemplate": ""
    },
    {
      "groupId": 235908001,
      "mapInstId": 1038,
      "aiGroupID": 235908001,
      "overrideDefendAreaRange": true,
      "defendAreaRange": 99.0,
      "overrideClearThreatTargetDistance": true,
      "clearThreatTargetDistance": 99.0,
      "aiNeuronSetting": "DefaultSetting",
      "aiSensingTemplate": "DefaultTemplate",
      "ENPGOILNGAK": "",
      "forceCombatOnSpawn": true,
      "disableWander": true,
      "reuseNotRemoveAbilityTag": "",
      "enterCombatTemplate": ""
    },
    {
      "groupId": 235908001,
      "mapInstId": 1039,
      "aiGroupID": 235908001,
      "overrideDefendAreaRange": true,
      "defendAreaRange": 99.0,
      "overrideClearThreatTargetDistance": true,
      "clearThreatTargetDistance": 99.0,
      "aiNeuronSetting": "DefaultSetting",
      "aiSensingTemplate": "DefaultTemplate",
      "ENPGOILNGAK": "",
      "forceCombatOnSpawn": true,
      "disableWander": true,
      "reuseNotRemoveAbilityTag": "",
      "enterCombatTemplate": ""
    },
    {
      "groupId": 235908001,
      "mapInstId": 1040,
      "aiGroupID": 235908001,
      "overrideDefendAreaRange": true,
      "defendAreaRange": 99.0,
      "overrideClearThreatTargetDistance": true,
      "clearThreatTargetDistance": 99.0,
      "aiNeuronSetting": "DefaultSetting",
      "aiSensingTemplate": "DefaultTemplate",
      "ENPGOILNGAK": "",
      "forceCombatOnSpawn": true,
      "disableWander": true,
      "reuseNotRemoveAbilityTag": "",
      "enterCombatTemplate": ""
    },
    {
      "groupId": 235908001,
      "mapInstId": 1053,
      "aiGroupID": 235908001,
      "overrideDefendAreaRange": true,
      "defendAreaRange": 99.0,
      "overrideClearThreatTargetDistance": true,
      "clearThreatTargetDistance": 99.0,
      "aiNeuronSetting": "DefaultSetting",
      "aiSensingTemplate": "DefaultTemplate",
      "ENPGOILNGAK": "",
      "forceCombatOnSpawn": true,
      "disableWander": true,
      "reuseNotRemoveAbilityTag": "",
      "enterCombatTemplate": ""
    },
    {
      "groupId": 235908001,
      "mapInstId": 1054,
      "aiGroupID": 235908001,
      "overrideDefendAreaRange": true,
      "defendAreaRange": 99.0,
      "overrideClearThreatTargetDistance": true,
      "clearThreatTargetDistance": 99.0,
      "aiNeuronSetting": "DefaultSetting",
      "aiSensingTemplate": "DefaultTemplate",
      "ENPGOILNGAK": "",
      "forceCombatOnSpawn": true,
      "disableWander": true,
      "reuseNotRemoveAbilityTag": "",
      "enterCombatTemplate": ""
    },
    {
      "groupId": 235908001,
      "mapInstId": 1055,
      "aiGroupID": 235908001,
      "overrideDefendAreaRange": true,
      "defendAreaRange": 99.0,
      "overrideClearThreatTargetDistance": true,
      "clearThreatTargetDistance": 99.0,
      "aiNeuronSetting": "DefaultSetting",
      "aiSensingTemplate": "DefaultTemplate",
      "ENPGOILNGAK": "",
      "forceCombatOnSpawn": true,
      "disableWander": true,
      "reuseNotRemoveAbilityTag": "",
      "enterCombatTemplate": ""
    },
    {
      "groupId": 235908001,
      "mapInstId": 1056,
      "aiGroupID": 235908001,
      "overrideDefendAreaRange": true,
      "defendAreaRange": 99.0,
      "overrideClearThreatTargetDistance": true,
      "clearThreatTargetDistance": 99.0,
      "aiNeuronSetting": "DefaultSetting",
      "aiSensingTemplate": "DefaultTemplate",
      "ENPGOILNGAK": "",
      "forceCombatOnSpawn": true,
      "disableWander": true,
      "reuseNotRemoveAbilityTag": "",
      "enterCombatTemplate": ""
    },
    {
      "groupId": 235908001,
      "mapInstId": 1057,
      "aiGroupID": 235908001,
      "overrideDefendAreaRange": true,
      "defendAreaRange": 99.0,
      "overrideClearThreatTargetDistance": true,
      "clearThreatTargetDistance": 99.0,
      "aiNeuronSetting": "DefaultSetting",
      "aiSensingTemplate": "DefaultTemplate",
      "ENPGOILNGAK": "",
      "forceCombatOnSpawn": true,
      "disableWander": true,
      "reuseNotRemoveAbilityTag": "",
      "enterCombatTemplate": ""
    },
    {
      "groupId": 235908001,
      "mapInstId": 1058,
      "aiGroupID": 235908001,
      "overrideDefendAreaRange": true,
      "defendAreaRange": 99.0,
      "overrideClearThreatTargetDistance": true,
      "clearThreatTargetDistance": 99.0,
      "aiNeuronSetting": "DefaultSetting",
      "aiSensingTemplate": "DefaultTemplate",
      "ENPGOILNGAK": "",
      "forceCombatOnSpawn": true,
      "disableWander": true,
      "reuseNotRemoveAbilityTag": "",
      "enterCombatTemplate": ""
    },
    {
      "groupId": 235908001,
      "mapInstId": 1059,
      "aiGroupID": 235908001,
      "overrideDefendAreaRange": true,
      "defendAreaRange": 99.0,
      "overrideClearThreatTargetDistance": true,
      "clearThreatTargetDistance": 99.0,
      "aiNeuronSetting": "DefaultSetting",
      "aiSensingTemplate": "DefaultTemplate",
      "ENPGOILNGAK": "",
      "forceCombatOnSpawn": true,
      "disableWander": true,
      "reuseNotRemoveAbilityTag": "",
      "enterCombatTemplate": ""
    },
    {
      "groupId": 235908001,
      "mapInstId": 1060,
      "aiGroupID": 235908001,
      "overrideDefendAreaRange": true,
      "defendAreaRange": 99.0,
      "overrideClearThreatTargetDistance": true,
      "clearThreatTargetDistance": 99.0,
      "aiNeuronSetting": "DefaultSetting",
      "aiSensingTemplate": "DefaultTemplate",
      "ENPGOILNGAK": "",
      "forceCombatOnSpawn": true,
      "disableWander": true,
      "reuseNotRemoveAbilityTag": "",
      "enterCombatTemplate": ""
    }
  ]
}