{
  "sceneId": 30204,
  "monsters": [
    {
      "groupId": 230204003,
      "mapInstId": 3005,
      "aiGroupID": 230204003,
      "aiNeuronSetting": "DefaultSetting",
      "aiSensingTemplate": "DefaultTemplate",
      "ENPGOILNGAK": "",
      "forceCombatOnSpawn": true,
      "disableWander": true,
      "reuseNotRemoveAbilityTag": "",
      "enterCombatTemplate": ""
    }
  ]
}