{
  "sceneId": 47716,
  "monsters": [
    {
      "groupId": 247716001,
      "mapInstId": 1004,
      "aiGroupID": 247716001,
      "overrideDefendAreaRange": true,
      "defendAreaRange": 999.0,
      "overrideForceAlertDistance": true,
      "overrideClearThreatTargetDistance": true,
      "clearThreatTargetDistance": 999.0,
      "aiNeuronSetting": "DefaultSetting",
      "aiSensingTemplate": "DefaultTemplate",
      "ENPGOILNGAK": "",
      "forceCombatOnSpawn": true,
      "disableWander": true,
      "reuseNotRemoveAbilityTag": "",
      "enterCombatTemplate": ""
    },
    {
      "groupId": 247716001,
      "mapInstId": 1005,
      "aiGroupID": 247716001,
      "overrideDefendAreaRange": true,
      "defendAreaRange": 999.0,
      "overrideForceAlertDistance": true,
      "overrideClearThreatTargetDistance": true,
      "clearThreatTargetDistance": 999.0,
      "aiNeuronSetting": "DefaultSetting",
      "aiSensingTemplate": "DefaultTemplate",
      "ENPGOILNGAK": "",
      "forceCombatOnSpawn": true,
      "disableWander": true,
      "reuseNotRemoveAbilityTag": "",
      "enterCombatTemplate": ""
    },
    {
      "groupId": 247716001,
      "mapInstId": 1006,
      "aiGroupID": 247716001,
      "overrideDefendAreaRange": true,
      "defendAreaRange": 999.0,
      "overrideForceAlertDistance": true,
      "overrideClearThreatTargetDistance": true,
      "clearThreatTargetDistance": 999.0,
      "aiNeuronSetting": "DefaultSetting",
      "aiSensingTemplate": "DefaultTemplate",
      "ENPGOILNGAK": "",
      "forceCombatOnSpawn": true,
      "disableWander": true,
      "reuseNotRemoveAbilityTag": "",
      "enterCombatTemplate": ""
    },
    {
      "groupId": 247716001,
      "mapInstId": 1007,
      "aiGroupID": 247716001,
      "overrideDefendAreaRange": true,
      "defendAreaRange": 999.0,
      "overrideForceAlertDistance": true,
      "overrideClearThreatTargetDistance": true,
      "clearThreatTargetDistance": 999.0,
      "aiNeuronSetting": "DefaultSetting",
      "aiSensingTemplate": "DefaultTemplate",
      "ENPGOILNGAK": "",
      "forceCombatOnSpawn": true,
      "disableWander": true,
      "reuseNotRemoveAbilityTag": "",
      "enterCombatTemplate": ""
    },
    {
      "groupId": 247716001,
      "mapInstId": 1008,
      "aiGroupID": 247716001,
      "overrideDefendAreaRange": true,
      "defendAreaRange": 999.0,
      "overrideForceAlertDistance": true,
      "overrideClearThreatTargetDistance": true,
      "clearThreatTargetDistance": 999.0,
      "aiNeuronSetting": "DefaultSetting",
      "aiSensingTemplate": "DefaultTemplate",
      "ENPGOILNGAK": "",
      "forceCombatOnSpawn": true,
      "disableWander": true,
      "reuseNotRemoveAbilityTag": "",
      "enterCombatTemplate": ""
    },
    {
      "groupId": 247716001,
      "mapInstId": 1009,
      "aiGroupID": 247716001,
      "overrideDefendAreaRange": true,
      "defendAreaRange": 999.0,
      "overrideForceAlertDistance": true,
      "overrideClearThreatTargetDistance": true,
      "clearThreatTargetDistance": 999.0,
      "aiNeuronSetting": "DefaultSetting",
      "aiSensingTemplate": "DefaultTemplate",
      "ENPGOILNGAK": "",
      "forceCombatOnSpawn": true,
      "disableWander": true,
      "reuseNotRemoveAbilityTag": "",
      "enterCombatTemplate": ""
    },
    {
      "groupId": 247716001,
      "mapInstId": 1011,
      "aiGroupID": 247716001,
      "overrideDefendAreaRange": true,
      "defendAreaRange": 999.0,
      "overrideForceAlertDistance": true,
      "overrideClearThreatTargetDistance": true,
      "clearThreatTargetDistance": 999.0,
      "aiNeuronSetting": "DefaultSetting",
      "aiSensingTemplate": "DefaultTemplate",
      "ENPGOILNGAK": "",
      "forceCombatOnSpawn": true,
      "disableWander": true,
      "reuseNotRemoveAbilityTag": "",
      "enterCombatTemplate": ""
    },
    {
      "groupId": 247716001,
      "mapInstId": 1012,
      "aiGroupID": 247716001,
      "overrideDefendAreaRange": true,
      "defendAreaRange": 999.0,
      "overrideForceAlertDistance": true,
      "overrideClearThreatTargetDistance": true,
      "clearThreatTargetDistance": 999.0,
      "aiNeuronSetting": "DefaultSetting",
      "aiSensingTemplate": "DefaultTemplate",
      "ENPGOILNGAK": "",
      "forceCombatOnSpawn": true,
      "disableWander": true,
      "reuseNotRemoveAbilityTag": "",
      "enterCombatTemplate": ""
    },
    {
      "groupId": 247716001,
      "mapInstId": 1013,
      "aiGroupID": 247716001,
      "overrideDefendAreaRange": true,
      "defendAreaRange": 999.0,
      "overrideForceAlertDistance": true,
      "overrideClearThreatTargetDistance": true,
      "clearThreatTargetDistance": 999.0,
      "aiNeuronSetting": "DefaultSetting",
      "aiSensingTemplate": "DefaultTemplate",
      "ENPGOILNGAK": "",
      "forceCombatOnSpawn": true,
      "disableWander": true,
      "reuseNotRemoveAbilityTag": "",
      "enterCombatTemplate": ""
    },
    {
      "groupId": 247716001,
      "mapInstId": 1014,
      "aiGroupID": 247716001,
      "overrideDefendAreaRange": true,
      "defendAreaRange": 999.0,
      "overrideForceAlertDistance": true,
      "overrideClearThreatTargetDistance": true,
      "clearThreatTargetDistance": 999.0,
      "aiNeuronSetting": "DefaultSetting",
      "aiSensingTemplate": "DefaultTemplate",
      "ENPGOILNGAK": "",
      "forceCombatOnSpawn": true,
      "disableWander": true,
      "reuseNotRemoveAbilityTag": "",
      "enterCombatTemplate": ""
    },
    {
      "groupId": 247716001,
      "mapInstId": 1016,
      "aiGroupID": 247716001,
      "overrideDefendAreaRange": true,
      "defendAreaRange": 999.0,
      "overrideForceAlertDistance": true,
      "overrideClearThreatTargetDistance": true,
      "clearThreatTargetDistance": 999.0,
      "aiNeuronSetting": "DefaultSetting",
      "aiSensingTemplate": "DefaultTemplate",
      "ENPGOILNGAK": "",
      "forceCombatOnSpawn": true,
      "disableWander": true,
      "reuseNotRemoveAbilityTag": "",
      "enterCombatTemplate": ""
    },
    {
      "groupId": 247716001,
      "mapInstId": 1017,
      "aiGroupID": 247716001,
      "overrideDefendAreaRange": true,
      "defendAreaRange": 999.0,
      "overrideForceAlertDistance": true,
      "overrideClearThreatTargetDistance": true,
      "clearThreatTargetDistance": 999.0,
      "aiNeuronSetting": "DefaultSetting",
      "aiSensingTemplate": "DefaultTemplate",
      "ENPGOILNGAK": "",
      "forceCombatOnSpawn": true,
      "disableWander": true,
      "reuseNotRemoveAbilityTag": "",
      "enterCombatTemplate": ""
    },
    {
      "groupId": 247716002,
      "mapInstId": 2001,
      "aiGroupID": 247716002,
      "overrideDefendAreaRange": true,
      "defendAreaRange": 999.0,
      "overrideForceAlertDistance": true,
      "overrideClearThreatTargetDistance": true,
      "clearThreatTargetDistance": 999.0,
      "aiNeuronSetting": "DefaultSetting",
      "aiSensingTemplate": "DefaultTemplate",
      "ENPGOILNGAK": "",
      "forceCombatOnSpawn": true,
      "disableWander": true,
      "reuseNotRemoveAbilityTag": "",
      "enterCombatTemplate": ""
    },
    {
      "groupId": 247716002,
      "mapInstId": 2007,
      "aiGroupID": 247716002,
      "overrideDefendAreaRange": true,
      "defendAreaRange": 999.0,
      "overrideForceAlertDistance": true,
      "overrideClearThreatTargetDistance": true,
      "clearThreatTargetDistance": 999.0,
      "aiNeuronSetting": "DefaultSetting",
      "aiSensingTemplate": "DefaultTemplate",
      "ENPGOILNGAK": "",
      "forceCombatOnSpawn": true,
      "disableWander": true,
      "reuseNotRemoveAbilityTag": "",
      "enterCombatTemplate": ""
    },
    {
      "groupId": 247716002,
      "mapInstId": 2011,
      "aiGroupID": 247716002,
      "overrideDefendAreaRange": true,
      "defendAreaRange": 999.0,
      "overrideForceAlertDistance": true,
      "overrideClearThreatTargetDistance": true,
      "clearThreatTargetDistance": 999.0,
      "aiNeuronSetting": "DefaultSetting",
      "aiSensingTemplate": "DefaultTemplate",
      "ENPGOILNGAK": "",
      "forceCombatOnSpawn": true,
      "disableWander": true,
      "reuseNotRemoveAbilityTag": "",
      "enterCombatTemplate": ""
    },
    {
      "groupId": 247716002,
      "mapInstId": 2012,
      "aiGroupID": 247716002,
      "overrideDefendAreaRange": true,
      "defendAreaRange": 999.0,
      "overrideForceAlertDistance": true,
      "overrideClearThreatTargetDistance": true,
      "clearThreatTargetDistance": 999.0,
      "aiNeuronSetting": "DefaultSetting",
      "aiSensingTemplate": "DefaultTemplate",
      "ENPGOILNGAK": "",
      "forceCombatOnSpawn": true,
      "disableWander": true,
      "reuseNotRemoveAbilityTag": "",
      "enterCombatTemplate": ""
    },
    {
      "groupId": 247716003,
      "mapInstId": 3001,
      "aiGroupID": 247716003,
      "overrideDefendAreaRange": true,
      "defendAreaRange": 999.0,
      "overrideForceAlertDistance": true,
      "overrideClearThreatTargetDistance": true,
      "clearThreatTargetDistance": 999.0,
      "aiNeuronSetting": "DefaultSetting",
      "aiSensingTemplate": "DefaultTemplate",
      "ENPGOILNGAK": "",
      "forceCombatOnSpawn": true,
      "disableWander": true,
      "reuseNotRemoveAbilityTag": "",
      "enterCombatTemplate": ""
    },
    {
      "groupId": 247716003,
      "mapInstId": 3002,
      "aiGroupID": 247716003,
      "overrideDefendAreaRange": true,
      "defendAreaRange": 999.0,
      "overrideForceAlertDistance": true,
      "overrideClearThreatTargetDistance": true,
      "clearThreatTargetDistance": 999.0,
      "aiNeuronSetting": "DefaultSetting",
      "aiSensingTemplate": "DefaultTemplate",
      "ENPGOILNGAK": "",
      "forceCombatOnSpawn": true,
      "disableWander": true,
      "reuseNotRemoveAbilityTag": "",
      "enterCombatTemplate": ""
    },
    {
      "groupId": 247716003,
      "mapInstId": 3006,
      "aiGroupID": 247716003,
      "overrideDefendAreaRange": true,
      "defendAreaRange": 999.0,
      "overrideForceAlertDistance": true,
      "overrideClearThreatTargetDistance": true,
      "clearThreatTargetDistance": 999.0,
      "aiNeuronSetting": "DefaultSetting",
      "aiSensingTemplate": "DefaultTemplate",
      "ENPGOILNGAK": "",
      "forceCombatOnSpawn": true,
      "disableWander": true,
      "reuseNotRemoveAbilityTag": "",
      "enterCombatTemplate": ""
    },
    {
      "groupId": 247716003,
      "mapInstId": 3012,
      "aiGroupID": 247716003,
      "overrideDefendAreaRange": true,
      "defendAreaRange": 999.0,
      "overrideForceAlertDistance": true,
      "overrideClearThreatTargetDistance": true,
      "clearThreatTargetDistance": 999.0,
      "aiNeuronSetting": "DefaultSetting",
      "aiSensingTemplate": "DefaultTemplate",
      "ENPGOILNGAK": "",
      "forceCombatOnSpawn": true,
      "disableWander": true,
      "reuseNotRemoveAbilityTag": "",
      "enterCombatTemplate": ""
    },
    {
      "groupId": 247716003,
      "mapInstId": 3013,
      "aiGroupID": 247716003,
      "overrideDefendAreaRange": true,
      "defendAreaRange": 999.0,
      "overrideForceAlertDistance": true,
      "overrideClearThreatTargetDistance": true,
      "clearThreatTargetDistance": 999.0,
      "aiNeuronSetting": "DefaultSetting",
      "aiSensingTemplate": "DefaultTemplate",
      "ENPGOILNGAK": "",
      "forceCombatOnSpawn": true,
      "disableWander": true,
      "reuseNotRemoveAbilityTag": "",
      "enterCombatTemplate": ""
    },
    {
      "groupId": 247716004,
      "mapInstId": 4001,
      "aiGroupID": 247716004,
      "overrideDefendAreaRange": true,
      "defendAreaRange": 999.0,
      "overrideForceAlertDistance": true,
      "overrideClearThreatTargetDistance": true,
      "clearThreatTargetDistance": 999.0,
      "aiNeuronSetting": "DefaultSetting",
      "aiSensingTemplate": "DefaultTemplate",
      "ENPGOILNGAK": "",
      "forceCombatOnSpawn": true,
      "disableWander": true,
      "reuseNotRemoveAbilityTag": "",
      "enterCombatTemplate": ""
    },
    {
      "groupId": 247716004,
      "mapInstId": 4002,
      "aiGroupID": 247716004,
      "overrideDefendAreaRange": true,
      "defendAreaRange": 999.0,
      "overrideForceAlertDistance": true,
      "overrideClearThreatTargetDistance": true,
      "clearThreatTargetDistance": 999.0,
      "aiNeuronSetting": "DefaultSetting",
      "aiSensingTemplate": "DefaultTemplate",
      "ENPGOILNGAK": "",
      "forceCombatOnSpawn": true,
      "disableWander": true,
      "reuseNotRemoveAbilityTag": "",
      "enterCombatTemplate": ""
    },
    {
      "groupId": 247716004,
      "mapInstId": 4003,
      "aiGroupID": 247716004,
      "overrideDefendAreaRange": true,
      "defendAreaRange": 999.0,
      "overrideForceAlertDistance": true,
      "overrideClearThreatTargetDistance": true,
      "clearThreatTargetDistance": 999.0,
      "aiNeuronSetting": "DefaultSetting",
      "aiSensingTemplate": "DefaultTemplate",
      "ENPGOILNGAK": "",
      "forceCombatOnSpawn": true,
      "disableWander": true,
      "reuseNotRemoveAbilityTag": "",
      "enterCombatTemplate": ""
    },
    {
      "groupId": 247716004,
      "mapInstId": 4004,
      "aiGroupID": 247716004,
      "overrideDefendAreaRange": true,
      "defendAreaRange": 999.0,
      "overrideForceAlertDistance": true,
      "overrideClearThreatTargetDistance": true,
      "clearThreatTargetDistance": 999.0,
      "aiNeuronSetting": "DefaultSetting",
      "aiSensingTemplate": "DefaultTemplate",
      "ENPGOILNGAK": "",
      "forceCombatOnSpawn": true,
      "disableWander": true,
      "reuseNotRemoveAbilityTag": "",
      "enterCombatTemplate": ""
    },
    {
      "groupId": 247716004,
      "mapInstId": 4005,
      "aiGroupID": 247716004,
      "overrideDefendAreaRange": true,
      "defendAreaRange": 999.0,
      "overrideForceAlertDistance": true,
      "overrideClearThreatTargetDistance": true,
      "clearThreatTargetDistance": 999.0,
      "aiNeuronSetting": "DefaultSetting",
      "aiSensingTemplate": "DefaultTemplate",
      "ENPGOILNGAK": "",
      "forceCombatOnSpawn": true,
      "disableWander": true,
      "reuseNotRemoveAbilityTag": "",
      "enterCombatTemplate": ""
    },
    {
      "groupId": 247716004,
      "mapInstId": 4006,
      "aiGroupID": 247716004,
      "overrideDefendAreaRange": true,
      "defendAreaRange": 999.0,
      "overrideForceAlertDistance": true,
      "overrideClearThreatTargetDistance": true,
      "clearThreatTargetDistance": 999.0,
      "aiNeuronSetting": "DefaultSetting",
      "aiSensingTemplate": "DefaultTemplate",
      "ENPGOILNGAK": "",
      "forceCombatOnSpawn": true,
      "disableWander": true,
      "reuseNotRemoveAbilityTag": "",
      "enterCombatTemplate": ""
    },
    {
      "groupId": 247716004,
      "mapInstId": 4013,
      "aiGroupID": 247716004,
      "overrideDefendAreaRange": true,
      "defendAreaRange": 999.0,
      "overrideForceAlertDistance": true,
      "overrideClearThreatTargetDistance": true,
      "clearThreatTargetDistance": 999.0,
      "aiNeuronSetting": "DefaultSetting",
      "aiSensingTemplate": "DefaultTemplate",
      "ENPGOILNGAK": "",
      "forceCombatOnSpawn": true,
      "disableWander": true,
      "reuseNotRemoveAbilityTag": "",
      "enterCombatTemplate": ""
    }
  ]
}