{
  "sceneId": 30604,
  "monsters": [
    {
      "groupId": 230604003,
      "mapInstId": 3001,
      "aiGroupID": 230604003,
      "aiNeuronSetting": "DefaultSetting",
      "aiSensingTemplate": "DefaultTemplate",
      "ENPGOILNGAK": "",
      "forceCombatOnSpawn": true,
      "disableWander": true,
      "reuseNotRemoveAbilityTag": "",
      "enterCombatTemplate": ""
    }
  ]
}