{
  "sceneId": 40667,
  "monsters": [
    {
      "groupId": 240667002,
      "mapInstId": 2004,
      "aiGroupID": 240667002,
      "overrideDefendAreaRange": true,
      "defendAreaRange": 999.0,
      "aiNeuronSetting": "DefaultSetting",
      "aiSensingTemplate": "DefaultTemplate",
      "ENPGOILNGAK": "",
      "forceCombatOnSpawn": true,
      "disableWander": true,
      "reuseNotRemoveAbilityTag": "",
      "enterCombatTemplate": ""
    },
    {
      "groupId": 240667002,
      "mapInstId": 2005,
      "aiGroupID": 240667002,
      "overrideDefendAreaRange": true,
      "defendAreaRange": 999.0,
      "aiNeuronSetting": "DefaultSetting",
      "aiSensingTemplate": "DefaultTemplate",
      "ENPGOILNGAK": "",
      "forceCombatOnSpawn": true,
      "disableWander": true,
      "reuseNotRemoveAbilityTag": "",
      "enterCombatTemplate": ""
    },
    {
      "groupId": 240667002,
      "mapInstId": 2006,
      "aiGroupID": 240667002,
      "overrideDefendAreaRange": true,
      "defendAreaRange": 999.0,
      "aiNeuronSetting": "DefaultSetting",
      "aiSensingTemplate": "DefaultTemplate",
      "ENPGOILNGAK": "",
      "forceCombatOnSpawn": true,
      "disableWander": true,
      "reuseNotRemoveAbilityTag": "",
      "enterCombatTemplate": ""
    },
    {
      "groupId": 240667002,
      "mapInstId": 2007,
      "aiGroupID": 240667002,
      "overrideDefendAreaRange": true,
      "defendAreaRange": 999.0,
      "aiNeuronSetting": "DefaultSetting",
      "aiSensingTemplate": "DefaultTemplate",
      "ENPGOILNGAK": "",
      "forceCombatOnSpawn": true,
      "disableWander": true,
      "reuseNotRemoveAbilityTag": "",
      "enterCombatTemplate": ""
    }
  ]
}