{
  "sceneId": 35923,
  "monsters": [
    {
      "groupId": 235923001,
      "mapInstId": 1001,
      "aiGroupID": 235923001,
      "aiNeuronSetting": "DefaultSetting",
      "aiSensingTemplate": "NeverCombatTemplate",
      "ENPGOILNGAK": "",
      "disableWander": true,
      "reuseNotRemoveAbilityTag": "",
      "enterCombatTemplate": ""
    },
    {
      "groupId": 235923001,
      "mapInstId": 1002,
      "aiGroupID": 235923001,
      "aiNeuronSetting": "DefaultSetting",
      "aiSensingTemplate": "NeverCombatTemplate",
      "ENPGOILNGAK": "",
      "reuseNotRemoveAbilityTag": "",
      "enterCombatTemplate": ""
    },
    {
      "groupId": 235923001,
      "mapInstId": 1003,
      "routeId": 1,
      "aiGroupID": 235923001,
      "aiNeuronSetting": "DefaultSetting",
      "aiSensingTemplate": "NeverCombatTemplate",
      "ENPGOILNGAK": "",
      "reuseNotRemoveAbilityTag": "",
      "enterCombatTemplate": ""
    },
    {
      "groupId": 235923001,
      "mapInstId": 1004,
      "aiGroupID": 235923001,
      "aiNeuronSetting": "DefaultSetting",
      "aiSensingTemplate": "NeverCombatTemplate",
      "ENPGOILNGAK": "",
      "disableWander": true,
      "reuseNotRemoveAbilityTag": "",
      "enterCombatTemplate": ""
    },
    {
      "groupId": 235923001,
      "mapInstId": 1005,
      "aiGroupID": 235923001,
      "aiNeuronSetting": "DefaultSetting",
      "aiSensingTemplate": "DefaultTemplate",
      "ENPGOILNGAK": "",
      "disableWander": true,
      "reuseNotRemoveAbilityTag": "",
      "hasSneakIndicator": true,
      "enterCombatTemplate": ""
    },
    {
      "groupId": 235923001,
      "mapInstId": 1009,
      "aiGroupID": 235923001,
      "aiNeuronSetting": "DefaultSetting",
      "aiSensingTemplate": "NeverCombatTemplate",
      "ENPGOILNGAK": "",
      "disableWander": true,
      "reuseNotRemoveAbilityTag": "",
      "enterCombatTemplate": ""
    },
    {
      "groupId": 235923001,
      "mapInstId": 1010,
      "aiGroupID": 235923001,
      "aiNeuronSetting": "LostSamachurl_Sit",
      "aiSensingTemplate": "NeverCombatTemplate",
      "ENPGOILNGAK": "",
      "reuseNotRemoveAbilityTag": "",
      "enterCombatTemplate": ""
    }
  ]
}