{
  "sceneId": 50033,
  "monsters": [
    {
      "groupId": 250033018,
      "mapInstId": 18001,
      "routeId": 3,
      "aiNeuronSetting": "NeverCombat",
      "aiSensingTemplate": "NeverCombatTemplate",
      "ENPGOILNGAK": "",
      "reuseNotRemoveAbilityTag": "",
      "enterCombatTemplate": ""
    },
    {
      "groupId": 250033018,
      "mapInstId": 18002,
      "routeId": 2,
      "aiNeuronSetting": "NeverCombat",
      "aiSensingTemplate": "NeverCombatTemplate",
      "ENPGOILNGAK": "",
      "reuseNotRemoveAbilityTag": "",
      "enterCombatTemplate": ""
    },
    {
      "groupId": 250033018,
      "mapInstId": 18003,
      "routeId": 2,
      "aiNeuronSetting": "NeverCombat",
      "aiSensingTemplate": "NeverCombatTemplate",
      "ENPGOILNGAK": "",
      "reuseNotRemoveAbilityTag": "",
      "enterCombatTemplate": ""
    },
    {
      "groupId": 250033018,
      "mapInstId": 18004,
      "routeId": 2,
      "aiNeuronSetting": "NeverCombat",
      "aiSensingTemplate": "NeverCombatTemplate",
      "ENPGOILNGAK": "",
      "reuseNotRemoveAbilityTag": "",
      "enterCombatTemplate": ""
    },
    {
      "groupId": 250033018,
      "mapInstId": 18005,
      "routeId": 2,
      "aiNeuronSetting": "NeverCombat",
      "aiSensingTemplate": "NeverCombatTemplate",
      "ENPGOILNGAK": "",
      "reuseNotRemoveAbilityTag": "",
      "enterCombatTemplate": ""
    },
    {
      "groupId": 250033018,
      "mapInstId": 18006,
      "routeId": 2,
      "aiNeuronSetting": "NeverCombat",
      "aiSensingTemplate": "NeverCombatTemplate",
      "ENPGOILNGAK": "",
      "reuseNotRemoveAbilityTag": "",
      "enterCombatTemplate": ""
    },
    {
      "groupId": 250033018,
      "mapInstId": 18007,
      "routeId": 2,
      "aiNeuronSetting": "NeverCombat",
      "aiSensingTemplate": "NeverCombatTemplate",
      "ENPGOILNGAK": "",
      "reuseNotRemoveAbilityTag": "",
      "enterCombatTemplate": ""
    },
    {
      "groupId": 250033018,
      "mapInstId": 18008,
      "routeId": 2,
      "aiNeuronSetting": "NeverCombat",
      "aiSensingTemplate": "NeverCombatTemplate",
      "ENPGOILNGAK": "",
      "reuseNotRemoveAbilityTag": "",
      "enterCombatTemplate": ""
    },
    {
      "groupId": 250033018,
      "mapInstId": 18009,
      "routeId": 8,
      "aiNeuronSetting": "NeverCombat",
      "aiSensingTemplate": "NeverCombatTemplate",
      "ENPGOILNGAK": "",
      "reuseNotRemoveAbilityTag": "",
      "enterCombatTemplate": ""
    },
    {
      "groupId": 250033018,
      "mapInstId": 18010,
      "routeId": 8,
      "aiNeuronSetting": "NeverCombat",
      "aiSensingTemplate": "NeverCombatTemplate",
      "ENPGOILNGAK": "",
      "reuseNotRemoveAbilityTag": "",
      "enterCombatTemplate": ""
    },
    {
      "groupId": 250033018,
      "mapInstId": 18011,
      "routeId": 8,
      "aiNeuronSetting": "NeverCombat",
      "aiSensingTemplate": "NeverCombatTemplate",
      "ENPGOILNGAK": "",
      "reuseNotRemoveAbilityTag": "",
      "enterCombatTemplate": ""
    },
    {
      "groupId": 250033018,
      "mapInstId": 18012,
      "routeId": 8,
      "aiNeuronSetting": "NeverCombat",
      "aiSensingTemplate": "NeverCombatTemplate",
      "ENPGOILNGAK": "",
      "reuseNotRemoveAbilityTag": "",
      "enterCombatTemplate": ""
    },
    {
      "groupId": 250033018,
      "mapInstId": 18013,
      "routeId": 2,
      "aiNeuronSetting": "NeverCombat",
      "aiSensingTemplate": "NeverCombatTemplate",
      "ENPGOILNGAK": "",
      "reuseNotRemoveAbilityTag": "",
      "enterCombatTemplate": ""
    },
    {
      "groupId": 250033018,
      "mapInstId": 18014,
      "routeId": 2,
      "aiNeuronSetting": "NeverCombat",
      "aiSensingTemplate": "NeverCombatTemplate",
      "ENPGOILNGAK": "",
      "reuseNotRemoveAbilityTag": "",
      "enterCombatTemplate": ""
    },
    {
      "groupId": 250033018,
      "mapInstId": 18015,
      "routeId": 6,
      "aiNeuronSetting": "NeverCombat",
      "aiSensingTemplate": "NeverCombatTemplate",
      "ENPGOILNGAK": "",
      "reuseNotRemoveAbilityTag": "",
      "enterCombatTemplate": ""
    },
    {
      "groupId": 250033018,
      "mapInstId": 18016,
      "routeId": 6,
      "aiNeuronSetting": "NeverCombat",
      "aiSensingTemplate": "NeverCombatTemplate",
      "ENPGOILNGAK": "",
      "reuseNotRemoveAbilityTag": "",
      "enterCombatTemplate": ""
    },
    {
      "groupId": 250033018,
      "mapInstId": 18017,
      "routeId": 6,
      "aiNeuronSetting": "NeverCombat",
      "aiSensingTemplate": "NeverCombatTemplate",
      "ENPGOILNGAK": "",
      "reuseNotRemoveAbilityTag": "",
      "enterCombatTemplate": ""
    },
    {
      "groupId": 250033019,
      "mapInstId": 19001,
      "routeId": 3,
      "aiNeuronSetting": "NeverCombat",
      "aiSensingTemplate": "NeverCombatTemplate",
      "ENPGOILNGAK": "",
      "reuseNotRemoveAbilityTag": "",
      "enterCombatTemplate": ""
    },
    {
      "groupId": 250033019,
      "mapInstId": 19002,
      "routeId": 3,
      "aiNeuronSetting": "NeverCombat",
      "aiSensingTemplate": "NeverCombatTemplate",
      "ENPGOILNGAK": "",
      "reuseNotRemoveAbilityTag": "",
      "enterCombatTemplate": ""
    },
    {
      "groupId": 250033019,
      "mapInstId": 19003,
      "routeId": 2,
      "aiNeuronSetting": "NeverCombat",
      "aiSensingTemplate": "NeverCombatTemplate",
      "ENPGOILNGAK": "",
      "reuseNotRemoveAbilityTag": "",
      "enterCombatTemplate": ""
    },
    {
      "groupId": 250033019,
      "mapInstId": 19004,
      "routeId": 2,
      "aiNeuronSetting": "NeverCombat",
      "aiSensingTemplate": "NeverCombatTemplate",
      "ENPGOILNGAK": "",
      "reuseNotRemoveAbilityTag": "",
      "enterCombatTemplate": ""
    },
    {
      "groupId": 250033019,
      "mapInstId": 19005,
      "routeId": 2,
      "aiNeuronSetting": "NeverCombat",
      "aiSensingTemplate": "NeverCombatTemplate",
      "ENPGOILNGAK": "",
      "reuseNotRemoveAbilityTag": "",
      "enterCombatTemplate": ""
    },
    {
      "groupId": 250033019,
      "mapInstId": 19006,
      "routeId": 2,
      "aiNeuronSetting": "NeverCombat",
      "aiSensingTemplate": "NeverCombatTemplate",
      "ENPGOILNGAK": "",
      "reuseNotRemoveAbilityTag": "",
      "enterCombatTemplate": ""
    },
    {
      "groupId": 250033019,
      "mapInstId": 19007,
      "routeId": 2,
      "aiNeuronSetting": "NeverCombat",
      "aiSensingTemplate": "NeverCombatTemplate",
      "ENPGOILNGAK": "",
      "reuseNotRemoveAbilityTag": "",
      "enterCombatTemplate": ""
    },
    {
      "groupId": 250033019,
      "mapInstId": 19008,
      "routeId": 2,
      "aiNeuronSetting": "NeverCombat",
      "aiSensingTemplate": "NeverCombatTemplate",
      "ENPGOILNGAK": "",
      "reuseNotRemoveAbilityTag": "",
      "enterCombatTemplate": ""
    },
    {
      "groupId": 250033019,
      "mapInstId": 19009,
      "routeId": 3,
      "aiNeuronSetting": "NeverCombat",
      "aiSensingTemplate": "NeverCombatTemplate",
      "ENPGOILNGAK": "",
      "reuseNotRemoveAbilityTag": "",
      "enterCombatTemplate": ""
    },
    {
      "groupId": 250033019,
      "mapInstId": 19010,
      "routeId": 3,
      "aiNeuronSetting": "NeverCombat",
      "aiSensingTemplate": "NeverCombatTemplate",
      "ENPGOILNGAK": "",
      "reuseNotRemoveAbilityTag": "",
      "enterCombatTemplate": ""
    },
    {
      "groupId": 250033019,
      "mapInstId": 19011,
      "routeId": 3,
      "aiNeuronSetting": "NeverCombat",
      "aiSensingTemplate": "NeverCombatTemplate",
      "ENPGOILNGAK": "",
      "reuseNotRemoveAbilityTag": "",
      "enterCombatTemplate": ""
    },
    {
      "groupId": 250033019,
      "mapInstId": 19012,
      "routeId": 3,
      "aiNeuronSetting": "NeverCombat",
      "aiSensingTemplate": "NeverCombatTemplate",
      "ENPGOILNGAK": "",
      "reuseNotRemoveAbilityTag": "",
      "enterCombatTemplate": ""
    },
    {
      "groupId": 250033019,
      "mapInstId": 19014,
      "routeId": 2,
      "aiNeuronSetting": "NeverCombat",
      "aiSensingTemplate": "NeverCombatTemplate",
      "ENPGOILNGAK": "",
      "reuseNotRemoveAbilityTag": "",
      "enterCombatTemplate": ""
    },
    {
      "groupId": 250033019,
      "mapInstId": 19015,
      "routeId": 2,
      "aiNeuronSetting": "NeverCombat",
      "aiSensingTemplate": "NeverCombatTemplate",
      "ENPGOILNGAK": "",
      "reuseNotRemoveAbilityTag": "",
      "enterCombatTemplate": ""
    },
    {
      "groupId": 250033019,
      "mapInstId": 19016,
      "routeId": 2,
      "aiNeuronSetting": "NeverCombat",
      "aiSensingTemplate": "NeverCombatTemplate",
      "ENPGOILNGAK": "",
      "reuseNotRemoveAbilityTag": "",
      "enterCombatTemplate": ""
    },
    {
      "groupId": 250033019,
      "mapInstId": 19017,
      "routeId": 2,
      "aiNeuronSetting": "NeverCombat",
      "aiSensingTemplate": "NeverCombatTemplate",
      "ENPGOILNGAK": "",
      "reuseNotRemoveAbilityTag": "",
      "enterCombatTemplate": ""
    },
    {
      "groupId": 250033019,
      "mapInstId": 19018,
      "routeId": 2,
      "aiNeuronSetting": "NeverCombat",
      "aiSensingTemplate": "NeverCombatTemplate",
      "ENPGOILNGAK": "",
      "reuseNotRemoveAbilityTag": "",
      "enterCombatTemplate": ""
    },
    {
      "groupId": 250033019,
      "mapInstId": 19019,
      "routeId": 2,
      "aiNeuronSetting": "NeverCombat",
      "aiSensingTemplate": "NeverCombatTemplate",
      "ENPGOILNGAK": "",
      "reuseNotRemoveAbilityTag": "",
      "enterCombatTemplate": ""
    },
    {
      "groupId": 250033020,
      "mapInstId": 20001,
      "routeId": 3,
      "aiNeuronSetting": "NeverCombat",
      "aiSensingTemplate": "NeverCombatTemplate",
      "ENPGOILNGAK": "",
      "reuseNotRemoveAbilityTag": "",
      "enterCombatTemplate": ""
    },
    {
      "groupId": 250033020,
      "mapInstId": 20002,
      "routeId": 3,
      "aiNeuronSetting": "NeverCombat",
      "aiSensingTemplate": "NeverCombatTemplate",
      "ENPGOILNGAK": "",
      "reuseNotRemoveAbilityTag": "",
      "enterCombatTemplate": ""
    },
    {
      "groupId": 250033020,
      "mapInstId": 20005,
      "routeId": 6,
      "aiNeuronSetting": "NeverCombat",
      "aiSensingTemplate": "NeverCombatTemplate",
      "ENPGOILNGAK": "",
      "reuseNotRemoveAbilityTag": "",
      "enterCombatTemplate": ""
    },
    {
      "groupId": 250033020,
      "mapInstId": 20006,
      "routeId": 6,
      "aiNeuronSetting": "NeverCombat",
      "aiSensingTemplate": "NeverCombatTemplate",
      "ENPGOILNGAK": "",
      "reuseNotRemoveAbilityTag": "",
      "enterCombatTemplate": ""
    },
    {
      "groupId": 250033020,
      "mapInstId": 20007,
      "routeId": 6,
      "aiNeuronSetting": "NeverCombat",
      "aiSensingTemplate": "NeverCombatTemplate",
      "ENPGOILNGAK": "",
      "reuseNotRemoveAbilityTag": "",
      "enterCombatTemplate": ""
    },
    {
      "groupId": 250033020,
      "mapInstId": 20008,
      "routeId": 2,
      "aiNeuronSetting": "NeverCombat",
      "aiSensingTemplate": "NeverCombatTemplate",
      "ENPGOILNGAK": "",
      "reuseNotRemoveAbilityTag": "",
      "enterCombatTemplate": ""
    },
    {
      "groupId": 250033020,
      "mapInstId": 20011,
      "routeId": 3,
      "aiNeuronSetting": "NeverCombat",
      "aiSensingTemplate": "NeverCombatTemplate",
      "ENPGOILNGAK": "",
      "reuseNotRemoveAbilityTag": "",
      "enterCombatTemplate": ""
    },
    {
      "groupId": 250033020,
      "mapInstId": 20019,
      "routeId": 1,
      "aiNeuronSetting": "NeverCombat",
      "aiSensingTemplate": "NeverCombatTemplate",
      "ENPGOILNGAK": "",
      "reuseNotRemoveAbilityTag": "",
      "enterCombatTemplate": ""
    },
    {
      "groupId": 250033020,
      "mapInstId": 20020,
      "routeId": 1,
      "aiNeuronSetting": "NeverCombat",
      "aiSensingTemplate": "NeverCombatTemplate",
      "ENPGOILNGAK": "",
      "reuseNotRemoveAbilityTag": "",
      "enterCombatTemplate": ""
    },
    {
      "groupId": 250033020,
      "mapInstId": 20021,
      "routeId": 1,
      "aiNeuronSetting": "NeverCombat",
      "aiSensingTemplate": "NeverCombatTemplate",
      "ENPGOILNGAK": "",
      "reuseNotRemoveAbilityTag": "",
      "enterCombatTemplate": ""
    },
    {
      "groupId": 250033020,
      "mapInstId": 20022,
      "routeId": 7,
      "aiNeuronSetting": "NeverCombat",
      "aiSensingTemplate": "NeverCombatTemplate",
      "ENPGOILNGAK": "",
      "reuseNotRemoveAbilityTag": "",
      "enterCombatTemplate": ""
    },
    {
      "groupId": 250033020,
      "mapInstId": 20023,
      "routeId": 7,
      "aiNeuronSetting": "NeverCombat",
      "aiSensingTemplate": "NeverCombatTemplate",
      "ENPGOILNGAK": "",
      "reuseNotRemoveAbilityTag": "",
      "enterCombatTemplate": ""
    },
    {
      "groupId": 250033020,
      "mapInstId": 20024,
      "routeId": 7,
      "aiNeuronSetting": "NeverCombat",
      "aiSensingTemplate": "NeverCombatTemplate",
      "ENPGOILNGAK": "",
      "reuseNotRemoveAbilityTag": "",
      "enterCombatTemplate": ""
    },
    {
      "groupId": 250033020,
      "mapInstId": 20025,
      "routeId": 2,
      "aiNeuronSetting": "NeverCombat",
      "aiSensingTemplate": "NeverCombatTemplate",
      "ENPGOILNGAK": "",
      "reuseNotRemoveAbilityTag": "",
      "enterCombatTemplate": ""
    },
    {
      "groupId": 250033020,
      "mapInstId": 20026,
      "routeId": 6,
      "aiNeuronSetting": "NeverCombat",
      "aiSensingTemplate": "NeverCombatTemplate",
      "ENPGOILNGAK": "",
      "reuseNotRemoveAbilityTag": "",
      "enterCombatTemplate": ""
    },
    {
      "groupId": 250033020,
      "mapInstId": 20027,
      "routeId": 6,
      "aiNeuronSetting": "NeverCombat",
      "aiSensingTemplate": "NeverCombatTemplate",
      "ENPGOILNGAK": "",
      "reuseNotRemoveAbilityTag": "",
      "enterCombatTemplate": ""
    },
    {
      "groupId": 250033020,
      "mapInstId": 20028,
      "routeId": 6,
      "aiNeuronSetting": "NeverCombat",
      "aiSensingTemplate": "NeverCombatTemplate",
      "ENPGOILNGAK": "",
      "reuseNotRemoveAbilityTag": "",
      "enterCombatTemplate": ""
    },
    {
      "groupId": 250033020,
      "mapInstId": 20029,
      "routeId": 2,
      "aiNeuronSetting": "NeverCombat",
      "aiSensingTemplate": "NeverCombatTemplate",
      "ENPGOILNGAK": "",
      "reuseNotRemoveAbilityTag": "",
      "enterCombatTemplate": ""
    },
    {
      "groupId": 250033020,
      "mapInstId": 20030,
      "routeId": 2,
      "aiNeuronSetting": "NeverCombat",
      "aiSensingTemplate": "NeverCombatTemplate",
      "ENPGOILNGAK": "",
      "reuseNotRemoveAbilityTag": "",
      "enterCombatTemplate": ""
    },
    {
      "groupId": 250033020,
      "mapInstId": 20031,
      "routeId": 1,
      "aiNeuronSetting": "NeverCombat",
      "aiSensingTemplate": "NeverCombatTemplate",
      "ENPGOILNGAK": "",
      "reuseNotRemoveAbilityTag": "",
      "enterCombatTemplate": ""
    },
    {
      "groupId": 250033020,
      "mapInstId": 20032,
      "routeId": 1,
      "aiNeuronSetting": "NeverCombat",
      "aiSensingTemplate": "NeverCombatTemplate",
      "ENPGOILNGAK": "",
      "reuseNotRemoveAbilityTag": "",
      "enterCombatTemplate": ""
    },
    {
      "groupId": 250033020,
      "mapInstId": 20033,
      "routeId": 1,
      "aiNeuronSetting": "NeverCombat",
      "aiSensingTemplate": "NeverCombatTemplate",
      "ENPGOILNGAK": "",
      "reuseNotRemoveAbilityTag": "",
      "enterCombatTemplate": ""
    },
    {
      "groupId": 250033020,
      "mapInstId": 20034,
      "routeId": 7,
      "aiNeuronSetting": "NeverCombat",
      "aiSensingTemplate": "NeverCombatTemplate",
      "ENPGOILNGAK": "",
      "reuseNotRemoveAbilityTag": "",
      "enterCombatTemplate": ""
    },
    {
      "groupId": 250033020,
      "mapInstId": 20035,
      "routeId": 7,
      "aiNeuronSetting": "NeverCombat",
      "aiSensingTemplate": "NeverCombatTemplate",
      "ENPGOILNGAK": "",
      "reuseNotRemoveAbilityTag": "",
      "enterCombatTemplate": ""
    },
    {
      "groupId": 250033020,
      "mapInstId": 20036,
      "routeId": 7,
      "aiNeuronSetting": "NeverCombat",
      "aiSensingTemplate": "NeverCombatTemplate",
      "ENPGOILNGAK": "",
      "reuseNotRemoveAbilityTag": "",
      "enterCombatTemplate": ""
    },
    {
      "groupId": 250033020,
      "mapInstId": 20037,
      "routeId": 1,
      "aiNeuronSetting": "NeverCombat",
      "aiSensingTemplate": "NeverCombatTemplate",
      "ENPGOILNGAK": "",
      "reuseNotRemoveAbilityTag": "",
      "enterCombatTemplate": ""
    },
    {
      "groupId": 250033020,
      "mapInstId": 20038,
      "routeId": 1,
      "aiNeuronSetting": "NeverCombat",
      "aiSensingTemplate": "NeverCombatTemplate",
      "ENPGOILNGAK": "",
      "reuseNotRemoveAbilityTag": "",
      "enterCombatTemplate": ""
    },
    {
      "groupId": 250033020,
      "mapInstId": 20039,
      "routeId": 1,
      "aiNeuronSetting": "NeverCombat",
      "aiSensingTemplate": "NeverCombatTemplate",
      "ENPGOILNGAK": "",
      "reuseNotRemoveAbilityTag": "",
      "enterCombatTemplate": ""
    },
    {
      "groupId": 250033020,
      "mapInstId": 20040,
      "routeId": 7,
      "aiNeuronSetting": "NeverCombat",
      "aiSensingTemplate": "NeverCombatTemplate",
      "ENPGOILNGAK": "",
      "reuseNotRemoveAbilityTag": "",
      "enterCombatTemplate": ""
    },
    {
      "groupId": 250033020,
      "mapInstId": 20041,
      "routeId": 7,
      "aiNeuronSetting": "NeverCombat",
      "aiSensingTemplate": "NeverCombatTemplate",
      "ENPGOILNGAK": "",
      "reuseNotRemoveAbilityTag": "",
      "enterCombatTemplate": ""
    },
    {
      "groupId": 250033020,
      "mapInstId": 20042,
      "routeId": 7,
      "aiNeuronSetting": "NeverCombat",
      "aiSensingTemplate": "NeverCombatTemplate",
      "ENPGOILNGAK": "",
      "reuseNotRemoveAbilityTag": "",
      "enterCombatTemplate": ""
    },
    {
      "groupId": 250033021,
      "mapInstId": 21001,
      "routeId": 8,
      "aiNeuronSetting": "NeverCombat",
      "aiSensingTemplate": "NeverCombatTemplate",
      "ENPGOILNGAK": "",
      "reuseNotRemoveAbilityTag": "",
      "enterCombatTemplate": ""
    },
    {
      "groupId": 250033021,
      "mapInstId": 21002,
      "routeId": 8,
      "aiNeuronSetting": "NeverCombat",
      "aiSensingTemplate": "NeverCombatTemplate",
      "ENPGOILNGAK": "",
      "reuseNotRemoveAbilityTag": "",
      "enterCombatTemplate": ""
    },
    {
      "groupId": 250033021,
      "mapInstId": 21003,
      "routeId": 2,
      "aiNeuronSetting": "NeverCombat",
      "aiSensingTemplate": "NeverCombatTemplate",
      "ENPGOILNGAK": "",
      "reuseNotRemoveAbilityTag": "",
      "enterCombatTemplate": ""
    },
    {
      "groupId": 250033021,
      "mapInstId": 21004,
      "routeId": 2,
      "aiNeuronSetting": "NeverCombat",
      "aiSensingTemplate": "NeverCombatTemplate",
      "ENPGOILNGAK": "",
      "reuseNotRemoveAbilityTag": "",
      "enterCombatTemplate": ""
    },
    {
      "groupId": 250033021,
      "mapInstId": 21005,
      "routeId": 2,
      "aiNeuronSetting": "NeverCombat",
      "aiSensingTemplate": "NeverCombatTemplate",
      "ENPGOILNGAK": "",
      "reuseNotRemoveAbilityTag": "",
      "enterCombatTemplate": ""
    },
    {
      "groupId": 250033021,
      "mapInstId": 21008,
      "routeId": 7,
      "aiNeuronSetting": "NeverCombat",
      "aiSensingTemplate": "NeverCombatTemplate",
      "ENPGOILNGAK": "",
      "reuseNotRemoveAbilityTag": "",
      "enterCombatTemplate": ""
    },
    {
      "groupId": 250033021,
      "mapInstId": 21009,
      "routeId": 7,
      "aiNeuronSetting": "NeverCombat",
      "aiSensingTemplate": "NeverCombatTemplate",
      "ENPGOILNGAK": "",
      "reuseNotRemoveAbilityTag": "",
      "enterCombatTemplate": ""
    }
  ]
}