{
  "sceneId": 40788,
  "monsters": [
    {
      "groupId": 240788002,
      "mapInstId": 2004,
      "aiGroupID": 240788002,
      "overrideDefendAreaRange": true,
      "defendAreaRange": 999.0,
      "aiNeuronSetting": "DefaultSetting",
      "aiSensingTemplate": "DefaultTemplate",
      "ENPGOILNGAK": "",
      "forceCombatOnSpawn": true,
      "disableWander": true,
      "reuseNotRemoveAbilityTag": "",
      "enterCombatTemplate": ""
    },
    {
      "groupId": 240788002,
      "mapInstId": 2005,
      "aiGroupID": 240788002,
      "overrideDefendAreaRange": true,
      "defendAreaRange": 999.0,
      "aiNeuronSetting": "DefaultSetting",
      "aiSensingTemplate": "DefaultTemplate",
      "ENPGOILNGAK": "",
      "forceCombatOnSpawn": true,
      "disableWander": true,
      "reuseNotRemoveAbilityTag": "",
      "enterCombatTemplate": ""
    },
    {
      "groupId": 240788002,
      "mapInstId": 2006,
      "aiGroupID": 240788002,
      "overrideDefendAreaRange": true,
      "defendAreaRange": 999.0,
      "aiNeuronSetting": "DefaultSetting",
      "aiSensingTemplate": "DefaultTemplate",
      "ENPGOILNGAK": "",
      "forceCombatOnSpawn": true,
      "disableWander": true,
      "reuseNotRemoveAbilityTag": "",
      "enterCombatTemplate": ""
    },
    {
      "groupId": 240788002,
      "mapInstId": 2009,
      "aiGroupID": 240788002,
      "overrideDefendAreaRange": true,
      "defendAreaRange": 999.0,
      "aiNeuronSetting": "DefaultSetting",
      "aiSensingTemplate": "DefaultTemplate",
      "ENPGOILNGAK": "",
      "forceCombatOnSpawn": true,
      "disableWander": true,
      "reuseNotRemoveAbilityTag": "",
      "enterCombatTemplate": ""
    },
    {
      "groupId": 240788002,
      "mapInstId": 2010,
      "aiGroupID": 240788002,
      "overrideDefendAreaRange": true,
      "defendAreaRange": 999.0,
      "aiNeuronSetting": "DefaultSetting",
      "aiSensingTemplate": "DefaultTemplate",
      "ENPGOILNGAK": "",
      "forceCombatOnSpawn": true,
      "disableWander": true,
      "reuseNotRemoveAbilityTag": "",
      "enterCombatTemplate": ""
    },
    {
      "groupId": 240788002,
      "mapInstId": 2013,
      "aiGroupID": 240788002,
      "overrideDefendAreaRange": true,
      "defendAreaRange": 999.0,
      "aiNeuronSetting": "DefaultSetting",
      "aiSensingTemplate": "DefaultTemplate",
      "ENPGOILNGAK": "",
      "forceCombatOnSpawn": true,
      "disableWander": true,
      "reuseNotRemoveAbilityTag": "",
      "enterCombatTemplate": ""
    },
    {
      "groupId": 240788002,
      "mapInstId": 2014,
      "aiGroupID": 240788002,
      "overrideDefendAreaRange": true,
      "defendAreaRange": 999.0,
      "aiNeuronSetting": "DefaultSetting",
      "aiSensingTemplate": "DefaultTemplate",
      "ENPGOILNGAK": "",
      "forceCombatOnSpawn": true,
      "disableWander": true,
      "reuseNotRemoveAbilityTag": "",
      "enterCombatTemplate": ""
    },
    {
      "groupId": 240788002,
      "mapInstId": 2015,
      "aiGroupID": 240788002,
      "overrideDefendAreaRange": true,
      "defendAreaRange": 999.0,
      "aiNeuronSetting": "DefaultSetting",
      "aiSensingTemplate": "DefaultTemplate",
      "ENPGOILNGAK": "",
      "forceCombatOnSpawn": true,
      "disableWander": true,
      "reuseNotRemoveAbilityTag": "",
      "enterCombatTemplate": ""
    },
    {
      "groupId": 240788002,
      "mapInstId": 2016,
      "aiGroupID": 240788002,
      "overrideDefendAreaRange": true,
      "defendAreaRange": 999.0,
      "aiNeuronSetting": "DefaultSetting",
      "aiSensingTemplate": "DefaultTemplate",
      "ENPGOILNGAK": "",
      "forceCombatOnSpawn": true,
      "disableWander": true,
      "reuseNotRemoveAbilityTag": "",
      "enterCombatTemplate": ""
    }
  ]
}