{
  "sceneId": 1065,
  "monsters": [
    {
      "groupId": 201065001,
      "mapInstId": 1001,
      "aiGroupID": 2010650010,
      "overrideDefendAreaRange": true,
      "defendAreaRange": 50.0,
      "aiNeuronSetting": "DefaultSetting",
      "aiSensingTemplate": "DefaultTemplate",
      "ENPGOILNGAK": "",
      "forceCombatOnSpawn": true,
      "disableWander": true,
      "reuseNotRemoveAbilityTag": "",
      "enterCombatTemplate": ""
    },
    {
      "groupId": 201065001,
      "mapInstId": 1002,
      "aiGroupID": 2010650010,
      "overrideDefendAreaRange": true,
      "defendAreaRange": 50.0,
      "aiNeuronSetting": "DefaultSetting",
      "aiSensingTemplate": "DefaultTemplate",
      "ENPGOILNGAK": "",
      "forceCombatOnSpawn": true,
      "disableWander": true,
      "reuseNotRemoveAbilityTag": "",
      "enterCombatTemplate": ""
    },
    {
      "groupId": 201065001,
      "mapInstId": 1003,
      "aiGroupID": 2010650010,
      "overrideDefendAreaRange": true,
      "defendAreaRange": 50.0,
      "aiNeuronSetting": "DefaultSetting",
      "aiSensingTemplate": "DefaultTemplate",
      "ENPGOILNGAK": "",
      "forceCombatOnSpawn": true,
      "disableWander": true,
      "reuseNotRemoveAbilityTag": "",
      "enterCombatTemplate": ""
    },
    {
      "groupId": 201065001,
      "mapInstId": 1004,
      "aiGroupID": 2010650010,
      "overrideDefendAreaRange": true,
      "defendAreaRange": 50.0,
      "aiNeuronSetting": "DefaultSetting",
      "aiSensingTemplate": "DefaultTemplate",
      "ENPGOILNGAK": "",
      "forceCombatOnSpawn": true,
      "disableWander": true,
      "reuseNotRemoveAbilityTag": "",
      "enterCombatTemplate": ""
    },
    {
      "groupId": 201065001,
      "mapInstId": 1005,
      "aiGroupID": 2010650011,
      "overrideDefendAreaRange": true,
      "defendAreaRange": 50.0,
      "aiNeuronSetting": "DefaultSetting",
      "aiSensingTemplate": "DefaultTemplate",
      "ENPGOILNGAK": "",
      "forceCombatOnSpawn": true,
      "disableWander": true,
      "reuseNotRemoveAbilityTag": "",
      "enterCombatTemplate": ""
    },
    {
      "groupId": 201065001,
      "mapInstId": 1006,
      "aiGroupID": 2010650011,
      "overrideDefendAreaRange": true,
      "defendAreaRange": 50.0,
      "aiNeuronSetting": "DefaultSetting",
      "aiSensingTemplate": "DefaultTemplate",
      "ENPGOILNGAK": "",
      "forceCombatOnSpawn": true,
      "disableWander": true,
      "reuseNotRemoveAbilityTag": "",
      "enterCombatTemplate": ""
    },
    {
      "groupId": 201065001,
      "mapInstId": 1007,
      "aiGroupID": 2010650011,
      "overrideDefendAreaRange": true,
      "defendAreaRange": 50.0,
      "aiNeuronSetting": "DefaultSetting",
      "aiSensingTemplate": "DefaultTemplate",
      "ENPGOILNGAK": "",
      "forceCombatOnSpawn": true,
      "disableWander": true,
      "reuseNotRemoveAbilityTag": "",
      "enterCombatTemplate": ""
    },
    {
      "groupId": 201065001,
      "mapInstId": 1008,
      "aiGroupID": 2010650011,
      "overrideDefendAreaRange": true,
      "defendAreaRange": 50.0,
      "aiNeuronSetting": "DefaultSetting",
      "aiSensingTemplate": "DefaultTemplate",
      "ENPGOILNGAK": "",
      "forceCombatOnSpawn": true,
      "disableWander": true,
      "reuseNotRemoveAbilityTag": "",
      "enterCombatTemplate": ""
    },
    {
      "groupId": 201065001,
      "mapInstId": 1009,
      "aiGroupID": 2010650011,
      "overrideDefendAreaRange": true,
      "defendAreaRange": 50.0,
      "aiNeuronSetting": "DefaultSetting",
      "aiSensingTemplate": "DefaultTemplate",
      "ENPGOILNGAK": "",
      "forceCombatOnSpawn": true,
      "disableWander": true,
      "reuseNotRemoveAbilityTag": "",
      "enterCombatTemplate": ""
    },
    {
      "groupId": 201065001,
      "mapInstId": 1010,
      "aiGroupID": 2010650011,
      "overrideDefendAreaRange": true,
      "defendAreaRange": 50.0,
      "aiNeuronSetting": "DefaultSetting",
      "aiSensingTemplate": "DefaultTemplate",
      "ENPGOILNGAK": "",
      "forceCombatOnSpawn": true,
      "disableWander": true,
      "reuseNotRemoveAbilityTag": "",
      "enterCombatTemplate": ""
    },
    {
      "groupId": 201065001,
      "mapInstId": 1011,
      "aiGroupID": 2010650011,
      "overrideDefendAreaRange": true,
      "defendAreaRange": 50.0,
      "aiNeuronSetting": "DefaultSetting",
      "aiSensingTemplate": "DefaultTemplate",
      "ENPGOILNGAK": "",
      "forceCombatOnSpawn": true,
      "disableWander": true,
      "reuseNotRemoveAbilityTag": "",
      "enterCombatTemplate": ""
    },
    {
      "groupId": 201065001,
      "mapInstId": 1012,
      "overrideDefendAreaRange": true,
      "defendAreaRange": 50.0,
      "aiNeuronSetting": "DefaultSetting",
      "aiSensingTemplate": "DefaultTemplate",
      "ENPGOILNGAK": "",
      "forceCombatOnSpawn": true,
      "disableWander": true,
      "billboardHasUIBar": true,
      "billboardHpBarStyle": "Boss",
      "billboardMultiBarSortId": 1,
      "billboardMultiBarNum": 1,
      "reuseNotRemoveAbilityTag": "",
      "enterCombatTemplate": ""
    },
    {
      "groupId": 201065001,
      "mapInstId": 1013,
      "aiGroupID": 2010650012,
      "overrideDefendAreaRange": true,
      "defendAreaRange": 50.0,
      "aiNeuronSetting": "DefaultSetting",
      "aiSensingTemplate": "DefaultTemplate",
      "ENPGOILNGAK": "",
      "forceCombatOnSpawn": true,
      "disableWander": true,
      "reuseNotRemoveAbilityTag": "",
      "enterCombatTemplate": ""
    },
    {
      "groupId": 201065001,
      "mapInstId": 1014,
      "aiGroupID": 2010650012,
      "overrideDefendAreaRange": true,
      "defendAreaRange": 50.0,
      "aiNeuronSetting": "DefaultSetting",
      "aiSensingTemplate": "DefaultTemplate",
      "ENPGOILNGAK": "",
      "forceCombatOnSpawn": true,
      "disableWander": true,
      "reuseNotRemoveAbilityTag": "",
      "enterCombatTemplate": ""
    },
    {
      "groupId": 201065001,
      "mapInstId": 1015,
      "aiGroupID": 2010650012,
      "overrideDefendAreaRange": true,
      "defendAreaRange": 50.0,
      "aiNeuronSetting": "DefaultSetting",
      "aiSensingTemplate": "DefaultTemplate",
      "ENPGOILNGAK": "",
      "forceCombatOnSpawn": true,
      "disableWander": true,
      "reuseNotRemoveAbilityTag": "",
      "enterCombatTemplate": ""
    },
    {
      "groupId": 201065001,
      "mapInstId": 1016,
      "aiGroupID": 2010650012,
      "overrideDefendAreaRange": true,
      "defendAreaRange": 50.0,
      "aiNeuronSetting": "DefaultSetting",
      "aiSensingTemplate": "DefaultTemplate",
      "ENPGOILNGAK": "",
      "forceCombatOnSpawn": true,
      "disableWander": true,
      "reuseNotRemoveAbilityTag": "",
      "enterCombatTemplate": ""
    },
    {
      "groupId": 201065001,
      "mapInstId": 1017,
      "aiGroupID": 2010650012,
      "overrideDefendAreaRange": true,
      "defendAreaRange": 50.0,
      "aiNeuronSetting": "DefaultSetting",
      "aiSensingTemplate": "DefaultTemplate",
      "ENPGOILNGAK": "",
      "forceCombatOnSpawn": true,
      "disableWander": true,
      "reuseNotRemoveAbilityTag": "",
      "enterCombatTemplate": ""
    }
  ]
}