{
  "sceneId": 51015,
  "monsters": [
    {
      "groupId": 251015001,
      "mapInstId": 1082,
      "routeId": 5,
      "overrideForceAlertDistance": true,
      "forceAlertDistanceLimit": 2.0,
      "aiNeuronSetting": "DefaultSetting",
      "aiSensingTemplate": "DefaultTemplate",
      "ENPGOILNGAK": "",
      "reuseNotRemoveAbilityTag": "",
      "enterCombatTemplate": ""
    },
    {
      "groupId": 251015001,
      "mapInstId": 1083,
      "routeId": 10,
      "overrideForceAlertDistance": true,
      "forceAlertDistanceLimit": 2.0,
      "defendAreaID": 1,
      "sensingAreaID": 4,
      "aiNeuronSetting": "DefaultSetting",
      "aiSensingTemplate": "DefaultTemplate",
      "ENPGOILNGAK": "",
      "reuseNotRemoveAbilityTag": "",
      "enterCombatTemplate": ""
    },
    {
      "groupId": 251015001,
      "mapInstId": 1084,
      "routeId": 11,
      "overrideForceAlertDistance": true,
      "forceAlertDistanceLimit": 2.0,
      "defendAreaID": 3,
      "sensingAreaID": 6,
      "aiNeuronSetting": "DefaultSetting",
      "aiSensingTemplate": "DefaultTemplate",
      "ENPGOILNGAK": "",
      "reuseNotRemoveAbilityTag": "",
      "enterCombatTemplate": ""
    },
    {
      "groupId": 251015001,
      "mapInstId": 1085,
      "routeId": 8,
      "overrideForceAlertDistance": true,
      "forceAlertDistanceLimit": 2.0,
      "aiNeuronSetting": "DefaultSetting",
      "aiSensingTemplate": "DefaultTemplate",
      "ENPGOILNGAK": "",
      "reuseNotRemoveAbilityTag": "",
      "enterCombatTemplate": ""
    },
    {
      "groupId": 251015001,
      "mapInstId": 1086,
      "routeId": 12,
      "overrideForceAlertDistance": true,
      "forceAlertDistanceLimit": 2.0,
      "defendAreaID": 2,
      "sensingAreaID": 5,
      "aiNeuronSetting": "DefaultSetting",
      "aiSensingTemplate": "DefaultTemplate",
      "ENPGOILNGAK": "",
      "reuseNotRemoveAbilityTag": "",
      "enterCombatTemplate": ""
    }
  ]
}