{
  "sceneId": 33760,
  "monsters": [
    {
      "groupId": 233760004,
      "mapInstId": 4001,
      "aiGroupID": 233760004,
      "overrideDefendAreaRange": true,
      "defendAreaRange": 999.0,
      "overrideClearThreatTargetDistance": true,
      "clearThreatTargetDistance": 999.0,
      "aiNeuronSetting": "DefaultSetting",
      "aiSensingTemplate": "DefaultTemplate",
      "ENPGOILNGAK": "",
      "forceCombatOnSpawn": true,
      "disableWander": true,
      "billboardHasUIBar": true,
      "billboardMultiBarNum": 2,
      "reuseNotRemoveAbilityTag": "",
      "enterCombatTemplate": ""
    },
    {
      "groupId": 233760005,
      "mapInstId": 5001,
      "aiGroupID": 233760005,
      "overrideDefendAreaRange": true,
      "defendAreaRange": 999.0,
      "overrideClearThreatTargetDistance": true,
      "clearThreatTargetDistance": 999.0,
      "aiNeuronSetting": "DefaultSetting",
      "aiSensingTemplate": "DefaultTemplate",
      "ENPGOILNGAK": "",
      "forceCombatOnSpawn": true,
      "disableWander": true,
      "billboardMultiBarNum": 2,
      "reuseNotRemoveAbilityTag": "",
      "enterCombatTemplate": ""
    },
    {
      "groupId": 233760005,
      "mapInstId": 5002,
      "aiGroupID": 233760005,
      "overrideDefendAreaRange": true,
      "defendAreaRange": 999.0,
      "overrideClearThreatTargetDistance": true,
      "clearThreatTargetDistance": 999.0,
      "aiNeuronSetting": "DefaultSetting",
      "aiSensingTemplate": "DefaultTemplate",
      "ENPGOILNGAK": "",
      "forceCombatOnSpawn": true,
      "disableWander": true,
      "billboardMultiBarNum": 2,
      "reuseNotRemoveAbilityTag": "",
      "enterCombatTemplate": ""
    },
    {
      "groupId": 233760005,
      "mapInstId": 5003,
      "aiGroupID": 233760005,
      "overrideDefendAreaRange": true,
      "defendAreaRange": 999.0,
      "overrideClearThreatTargetDistance": true,
      "clearThreatTargetDistance": 999.0,
      "aiNeuronSetting": "DefaultSetting",
      "aiSensingTemplate": "DefaultTemplate",
      "ENPGOILNGAK": "",
      "forceCombatOnSpawn": true,
      "disableWander": true,
      "billboardMultiBarNum": 2,
      "reuseNotRemoveAbilityTag": "",
      "enterCombatTemplate": ""
    },
    {
      "groupId": 233760005,
      "mapInstId": 5006,
      "aiGroupID": 233760004,
      "overrideDefendAreaRange": true,
      "defendAreaRange": 999.0,
      "overrideClearThreatTargetDistance": true,
      "clearThreatTargetDistance": 999.0,
      "aiNeuronSetting": "DefaultSetting",
      "aiSensingTemplate": "DefaultTemplate",
      "ENPGOILNGAK": "",
      "forceCombatOnSpawn": true,
      "disableWander": true,
      "billboardMultiBarNum": 2,
      "reuseNotRemoveAbilityTag": "",
      "enterCombatTemplate": ""
    },
    {
      "groupId": 233760005,
      "mapInstId": 5007,
      "aiGroupID": 233760005,
      "overrideDefendAreaRange": true,
      "defendAreaRange": 999.0,
      "overrideClearThreatTargetDistance": true,
      "clearThreatTargetDistance": 999.0,
      "aiNeuronSetting": "DefaultSetting",
      "aiSensingTemplate": "DefaultTemplate",
      "ENPGOILNGAK": "",
      "forceCombatOnSpawn": true,
      "disableWander": true,
      "billboardMultiBarNum": 2,
      "reuseNotRemoveAbilityTag": "",
      "enterCombatTemplate": ""
    },
    {
      "groupId": 233760005,
      "mapInstId": 5010,
      "aiGroupID": 233760005,
      "overrideDefendAreaRange": true,
      "defendAreaRange": 999.0,
      "overrideClearThreatTargetDistance": true,
      "clearThreatTargetDistance": 999.0,
      "aiNeuronSetting": "DefaultSetting",
      "aiSensingTemplate": "DefaultTemplate",
      "ENPGOILNGAK": "",
      "forceCombatOnSpawn": true,
      "disableWander": true,
      "billboardMultiBarNum": 2,
      "reuseNotRemoveAbilityTag": "",
      "enterCombatTemplate": ""
    },
    {
      "groupId": 233760005,
      "mapInstId": 5013,
      "aiGroupID": 233760005,
      "overrideDefendAreaRange": true,
      "defendAreaRange": 999.0,
      "overrideClearThreatTargetDistance": true,
      "clearThreatTargetDistance": 999.0,
      "aiNeuronSetting": "DefaultSetting",
      "aiSensingTemplate": "DefaultTemplate",
      "ENPGOILNGAK": "",
      "forceCombatOnSpawn": true,
      "disableWander": true,
      "billboardMultiBarNum": 2,
      "reuseNotRemoveAbilityTag": "",
      "enterCombatTemplate": ""
    }
  ]
}