{
  "sceneId": 20198,
  "monsters": [
    {
      "groupId": 220198001,
      "mapInstId": 1001,
      "aiGroupID": 220198001,
      "aiNeuronSetting": "DefaultSetting",
      "aiSensingTemplate": "DefaultTemplate",
      "ENPGOILNGAK": "",
      "billboardHasUIBar": true,
      "billboardShowUIBarDis": 1000.0,
      "billboardHideUIBarDis": 1200.0,
      "billboardHpBarStyle": "Boss",
      "reuseNotRemoveAbilityTag": "",
      "enterCombatTemplate": ""
    },
    {
      "groupId": 220198001,
      "mapInstId": 1011,
      "aiGroupID": 220198001,
      "aiNeuronSetting": "DefaultSetting",
      "aiSensingTemplate": "DefaultTemplate",
      "ENPGOILNGAK": "",
      "billboardHasUIBar": true,
      "billboardShowUIBarDis": 300.0,
      "billboardHideUIBarDis": 400.0,
      "billboardUIBarNeedEnterCombat": true,
      "billboardHpBarStyle": "Boss",
      "reuseNotRemoveAbilityTag": "",
      "enterCombatTemplate": ""
    },
    {
      "groupId": 220198001,
      "mapInstId": 1012,
      "aiGroupID": 220198001,
      "aiNeuronSetting": "DefaultSetting",
      "aiSensingTemplate": "DefaultTemplate",
      "ENPGOILNGAK": "",
      "hideBornEffect": true,
      "reuseNotRemoveAbilityTag": "",
      "enterCombatTemplate": ""
    }
  ]
}