{
  "sceneId": 33751,
  "monsters": [
    {
      "groupId": 233751007,
      "mapInstId": 7001,
      "aiGroupID": 233751007,
      "overrideDefendAreaRange": true,
      "defendAreaRange": 999.0,
      "overrideClearThreatTargetDistance": true,
      "clearThreatTargetDistance": 999.0,
      "aiNeuronSetting": "DefaultSetting",
      "aiSensingTemplate": "DefaultTemplate",
      "ENPGOILNGAK": "",
      "forceCombatOnSpawn": true,
      "disableWander": true,
      "reuseNotRemoveAbilityTag": "",
      "enterCombatTemplate": ""
    },
    {
      "groupId": 233751007,
      "mapInstId": 7002,
      "aiGroupID": 233751007,
      "overrideDefendAreaRange": true,
      "defendAreaRange": 999.0,
      "overrideClearThreatTargetDistance": true,
      "clearThreatTargetDistance": 999.0,
      "aiNeuronSetting": "DefaultSetting",
      "aiSensingTemplate": "DefaultTemplate",
      "ENPGOILNGAK": "",
      "forceCombatOnSpawn": true,
      "disableWander": true,
      "reuseNotRemoveAbilityTag": "",
      "enterCombatTemplate": ""
    },
    {
      "groupId": 233751007,
      "mapInstId": 7004,
      "aiGroupID": 233751007,
      "overrideDefendAreaRange": true,
      "defendAreaRange": 999.0,
      "overrideClearThreatTargetDistance": true,
      "clearThreatTargetDistance": 999.0,
      "aiNeuronSetting": "DefaultSetting",
      "aiSensingTemplate": "DefaultTemplate",
      "ENPGOILNGAK": "",
      "forceCombatOnSpawn": true,
      "disableWander": true,
      "reuseNotRemoveAbilityTag": "",
      "enterCombatTemplate": ""
    },
    {
      "groupId": 233751007,
      "mapInstId": 7005,
      "aiGroupID": 233751007,
      "overrideDefendAreaRange": true,
      "defendAreaRange": 999.0,
      "overrideClearThreatTargetDistance": true,
      "clearThreatTargetDistance": 999.0,
      "aiNeuronSetting": "DefaultSetting",
      "aiSensingTemplate": "DefaultTemplate",
      "ENPGOILNGAK": "",
      "forceCombatOnSpawn": true,
      "disableWander": true,
      "reuseNotRemoveAbilityTag": "",
      "enterCombatTemplate": ""
    },
    {
      "groupId": 233751007,
      "mapInstId": 7006,
      "aiGroupID": 233751007,
      "overrideDefendAreaRange": true,
      "defendAreaRange": 999.0,
      "overrideClearThreatTargetDistance": true,
      "clearThreatTargetDistance": 999.0,
      "aiNeuronSetting": "DefaultSetting",
      "aiSensingTemplate": "DefaultTemplate",
      "ENPGOILNGAK": "",
      "forceCombatOnSpawn": true,
      "disableWander": true,
      "reuseNotRemoveAbilityTag": "",
      "enterCombatTemplate": ""
    },
    {
      "groupId": 233751007,
      "mapInstId": 7008,
      "aiGroupID": 233751007,
      "overrideDefendAreaRange": true,
      "defendAreaRange": 999.0,
      "overrideClearThreatTargetDistance": true,
      "clearThreatTargetDistance": 999.0,
      "aiNeuronSetting": "DefaultSetting",
      "aiSensingTemplate": "DefaultTemplate",
      "ENPGOILNGAK": "",
      "forceCombatOnSpawn": true,
      "disableWander": true,
      "reuseNotRemoveAbilityTag": "",
      "enterCombatTemplate": ""
    },
    {
      "groupId": 233751008,
      "mapInstId": 8001,
      "aiGroupID": 233751008,
      "overrideDefendAreaRange": true,
      "defendAreaRange": 999.0,
      "overrideClearThreatTargetDistance": true,
      "clearThreatTargetDistance": 999.0,
      "aiNeuronSetting": "DefaultSetting",
      "aiSensingTemplate": "DefaultTemplate",
      "ENPGOILNGAK": "",
      "forceCombatOnSpawn": true,
      "disableWander": true,
      "reuseNotRemoveAbilityTag": "",
      "enterCombatTemplate": ""
    },
    {
      "groupId": 233751008,
      "mapInstId": 8002,
      "aiGroupID": 233751008,
      "overrideDefendAreaRange": true,
      "defendAreaRange": 999.0,
      "overrideClearThreatTargetDistance": true,
      "clearThreatTargetDistance": 999.0,
      "aiNeuronSetting": "DefaultSetting",
      "aiSensingTemplate": "DefaultTemplate",
      "ENPGOILNGAK": "",
      "forceCombatOnSpawn": true,
      "disableWander": true,
      "reuseNotRemoveAbilityTag": "",
      "enterCombatTemplate": ""
    },
    {
      "groupId": 233751008,
      "mapInstId": 8003,
      "aiGroupID": 233751008,
      "overrideDefendAreaRange": true,
      "defendAreaRange": 999.0,
      "overrideClearThreatTargetDistance": true,
      "clearThreatTargetDistance": 999.0,
      "aiNeuronSetting": "DefaultSetting",
      "aiSensingTemplate": "DefaultTemplate",
      "ENPGOILNGAK": "",
      "forceCombatOnSpawn": true,
      "disableWander": true,
      "reuseNotRemoveAbilityTag": "",
      "enterCombatTemplate": ""
    },
    {
      "groupId": 233751008,
      "mapInstId": 8004,
      "aiGroupID": 233751008,
      "overrideDefendAreaRange": true,
      "defendAreaRange": 999.0,
      "overrideClearThreatTargetDistance": true,
      "clearThreatTargetDistance": 999.0,
      "aiNeuronSetting": "DefaultSetting",
      "aiSensingTemplate": "DefaultTemplate",
      "ENPGOILNGAK": "",
      "forceCombatOnSpawn": true,
      "disableWander": true,
      "reuseNotRemoveAbilityTag": "",
      "enterCombatTemplate": ""
    },
    {
      "groupId": 233751008,
      "mapInstId": 8005,
      "aiGroupID": 233751008,
      "overrideDefendAreaRange": true,
      "defendAreaRange": 999.0,
      "overrideClearThreatTargetDistance": true,
      "clearThreatTargetDistance": 999.0,
      "aiNeuronSetting": "DefaultSetting",
      "aiSensingTemplate": "DefaultTemplate",
      "ENPGOILNGAK": "",
      "forceCombatOnSpawn": true,
      "disableWander": true,
      "reuseNotRemoveAbilityTag": "",
      "enterCombatTemplate": ""
    },
    {
      "groupId": 233751008,
      "mapInstId": 8006,
      "aiGroupID": 233751008,
      "overrideDefendAreaRange": true,
      "defendAreaRange": 999.0,
      "overrideClearThreatTargetDistance": true,
      "clearThreatTargetDistance": 999.0,
      "aiNeuronSetting": "DefaultSetting",
      "aiSensingTemplate": "DefaultTemplate",
      "ENPGOILNGAK": "",
      "forceCombatOnSpawn": true,
      "disableWander": true,
      "reuseNotRemoveAbilityTag": "",
      "enterCombatTemplate": ""
    },
    {
      "groupId": 233751008,
      "mapInstId": 8007,
      "aiGroupID": 233751008,
      "overrideDefendAreaRange": true,
      "defendAreaRange": 999.0,
      "overrideClearThreatTargetDistance": true,
      "clearThreatTargetDistance": 999.0,
      "aiNeuronSetting": "DefaultSetting",
      "aiSensingTemplate": "DefaultTemplate",
      "ENPGOILNGAK": "",
      "forceCombatOnSpawn": true,
      "disableWander": true,
      "reuseNotRemoveAbilityTag": "",
      "enterCombatTemplate": ""
    },
    {
      "groupId": 233751008,
      "mapInstId": 8008,
      "aiGroupID": 233751008,
      "overrideDefendAreaRange": true,
      "defendAreaRange": 999.0,
      "overrideClearThreatTargetDistance": true,
      "clearThreatTargetDistance": 999.0,
      "aiNeuronSetting": "DefaultSetting",
      "aiSensingTemplate": "DefaultTemplate",
      "ENPGOILNGAK": "",
      "forceCombatOnSpawn": true,
      "disableWander": true,
      "reuseNotRemoveAbilityTag": "",
      "enterCombatTemplate": ""
    },
    {
      "groupId": 233751008,
      "mapInstId": 8011,
      "aiGroupID": 233751008,
      "overrideDefendAreaRange": true,
      "defendAreaRange": 999.0,
      "overrideClearThreatTargetDistance": true,
      "clearThreatTargetDistance": 999.0,
      "aiNeuronSetting": "DefaultSetting",
      "aiSensingTemplate": "DefaultTemplate",
      "ENPGOILNGAK": "",
      "forceCombatOnSpawn": true,
      "disableWander": true,
      "reuseNotRemoveAbilityTag": "",
      "enterCombatTemplate": ""
    },
    {
      "groupId": 233751008,
      "mapInstId": 8014,
      "aiGroupID": 233751008,
      "overrideDefendAreaRange": true,
      "defendAreaRange": 999.0,
      "overrideClearThreatTargetDistance": true,
      "clearThreatTargetDistance": 999.0,
      "aiNeuronSetting": "DefaultSetting",
      "aiSensingTemplate": "DefaultTemplate",
      "ENPGOILNGAK": "",
      "forceCombatOnSpawn": true,
      "disableWander": true,
      "reuseNotRemoveAbilityTag": "",
      "enterCombatTemplate": ""
    },
    {
      "groupId": 233751008,
      "mapInstId": 8016,
      "aiGroupID": 233751008,
      "overrideDefendAreaRange": true,
      "defendAreaRange": 999.0,
      "overrideClearThreatTargetDistance": true,
      "clearThreatTargetDistance": 999.0,
      "aiNeuronSetting": "DefaultSetting",
      "aiSensingTemplate": "DefaultTemplate",
      "ENPGOILNGAK": "",
      "forceCombatOnSpawn": true,
      "disableWander": true,
      "reuseNotRemoveAbilityTag": "",
      "enterCombatTemplate": ""
    },
    {
      "groupId": 233751008,
      "mapInstId": 8017,
      "aiGroupID": 233751008,
      "overrideDefendAreaRange": true,
      "defendAreaRange": 999.0,
      "overrideClearThreatTargetDistance": true,
      "clearThreatTargetDistance": 999.0,
      "aiNeuronSetting": "DefaultSetting",
      "aiSensingTemplate": "DefaultTemplate",
      "ENPGOILNGAK": "",
      "forceCombatOnSpawn": true,
      "disableWander": true,
      "reuseNotRemoveAbilityTag": "",
      "enterCombatTemplate": ""
    },
    {
      "groupId": 233751008,
      "mapInstId": 8018,
      "aiGroupID": 233751008,
      "overrideDefendAreaRange": true,
      "defendAreaRange": 999.0,
      "overrideClearThreatTargetDistance": true,
      "clearThreatTargetDistance": 999.0,
      "aiNeuronSetting": "DefaultSetting",
      "aiSensingTemplate": "DefaultTemplate",
      "ENPGOILNGAK": "",
      "forceCombatOnSpawn": true,
      "disableWander": true,
      "reuseNotRemoveAbilityTag": "",
      "enterCombatTemplate": ""
    },
    {
      "groupId": 233751008,
      "mapInstId": 8019,
      "aiGroupID": 233751008,
      "overrideDefendAreaRange": true,
      "defendAreaRange": 999.0,
      "overrideClearThreatTargetDistance": true,
      "clearThreatTargetDistance": 999.0,
      "aiNeuronSetting": "DefaultSetting",
      "aiSensingTemplate": "DefaultTemplate",
      "ENPGOILNGAK": "",
      "forceCombatOnSpawn": true,
      "disableWander": true,
      "reuseNotRemoveAbilityTag": "",
      "enterCombatTemplate": ""
    },
    {
      "groupId": 233751008,
      "mapInstId": 8021,
      "aiGroupID": 233751008,
      "overrideDefendAreaRange": true,
      "defendAreaRange": 999.0,
      "overrideClearThreatTargetDistance": true,
      "clearThreatTargetDistance": 999.0,
      "aiNeuronSetting": "DefaultSetting",
      "aiSensingTemplate": "DefaultTemplate",
      "ENPGOILNGAK": "",
      "forceCombatOnSpawn": true,
      "disableWander": true,
      "reuseNotRemoveAbilityTag": "",
      "enterCombatTemplate": ""
    }
  ]
}