{
  "sceneId": 35805,
  "monsters": [
    {
      "groupId": 235805002,
      "mapInstId": 2001,
      "overrideDefendAreaRange": true,
      "defendAreaRange": 99.0,
      "overrideClearThreatTargetDistance": true,
      "clearThreatTargetDistance": 99.0,
      "aiNeuronSetting": "DefaultSetting",
      "aiSensingTemplate": "DefaultTemplate",
      "ENPGOILNGAK": "",
      "forceCombatOnSpawn": true,
      "disableWander": true,
      "reuseNotRemoveAbilityTag": "",
      "enterCombatTemplate": ""
    },
    {
      "groupId": 235805002,
      "mapInstId": 2002,
      "overrideDefendAreaRange": true,
      "defendAreaRange": 99.0,
      "overrideClearThreatTargetDistance": true,
      "clearThreatTargetDistance": 99.0,
      "aiNeuronSetting": "DefaultSetting",
      "aiSensingTemplate": "DefaultTemplate",
      "ENPGOILNGAK": "",
      "forceCombatOnSpawn": true,
      "disableWander": true,
      "reuseNotRemoveAbilityTag": "",
      "enterCombatTemplate": ""
    },
    {
      "groupId": 235805002,
      "mapInstId": 2003,
      "overrideDefendAreaRange": true,
      "defendAreaRange": 99.0,
      "overrideClearThreatTargetDistance": true,
      "clearThreatTargetDistance": 99.0,
      "aiNeuronSetting": "DefaultSetting",
      "aiSensingTemplate": "DefaultTemplate",
      "ENPGOILNGAK": "",
      "forceCombatOnSpawn": true,
      "disableWander": true,
      "reuseNotRemoveAbilityTag": "",
      "enterCombatTemplate": ""
    },
    {
      "groupId": 235805002,
      "mapInstId": 2004,
      "overrideDefendAreaRange": true,
      "defendAreaRange": 99.0,
      "overrideClearThreatTargetDistance": true,
      "clearThreatTargetDistance": 99.0,
      "aiNeuronSetting": "DefaultSetting",
      "aiSensingTemplate": "DefaultTemplate",
      "ENPGOILNGAK": "",
      "forceCombatOnSpawn": true,
      "disableWander": true,
      "reuseNotRemoveAbilityTag": "",
      "enterCombatTemplate": ""
    },
    {
      "groupId": 235805002,
      "mapInstId": 2005,
      "overrideDefendAreaRange": true,
      "defendAreaRange": 99.0,
      "overrideClearThreatTargetDistance": true,
      "clearThreatTargetDistance": 99.0,
      "aiNeuronSetting": "DefaultSetting",
      "aiSensingTemplate": "DefaultTemplate",
      "ENPGOILNGAK": "",
      "forceCombatOnSpawn": true,
      "disableWander": true,
      "reuseNotRemoveAbilityTag": "",
      "enterCombatTemplate": ""
    },
    {
      "groupId": 235805002,
      "mapInstId": 2006,
      "overrideDefendAreaRange": true,
      "defendAreaRange": 99.0,
      "overrideClearThreatTargetDistance": true,
      "clearThreatTargetDistance": 99.0,
      "aiNeuronSetting": "DefaultSetting",
      "aiSensingTemplate": "DefaultTemplate",
      "ENPGOILNGAK": "",
      "forceCombatOnSpawn": true,
      "disableWander": true,
      "reuseNotRemoveAbilityTag": "",
      "enterCombatTemplate": ""
    },
    {
      "groupId": 235805002,
      "mapInstId": 2007,
      "overrideDefendAreaRange": true,
      "defendAreaRange": 99.0,
      "overrideClearThreatTargetDistance": true,
      "clearThreatTargetDistance": 99.0,
      "aiNeuronSetting": "DefaultSetting",
      "aiSensingTemplate": "DefaultTemplate",
      "ENPGOILNGAK": "",
      "forceCombatOnSpawn": true,
      "disableWander": true,
      "reuseNotRemoveAbilityTag": "",
      "enterCombatTemplate": ""
    },
    {
      "groupId": 235805002,
      "mapInstId": 2008,
      "overrideDefendAreaRange": true,
      "defendAreaRange": 99.0,
      "overrideClearThreatTargetDistance": true,
      "clearThreatTargetDistance": 99.0,
      "aiNeuronSetting": "DefaultSetting",
      "aiSensingTemplate": "DefaultTemplate",
      "ENPGOILNGAK": "",
      "forceCombatOnSpawn": true,
      "disableWander": true,
      "reuseNotRemoveAbilityTag": "",
      "enterCombatTemplate": ""
    },
    {
      "groupId": 235805002,
      "mapInstId": 2009,
      "overrideDefendAreaRange": true,
      "defendAreaRange": 99.0,
      "overrideClearThreatTargetDistance": true,
      "clearThreatTargetDistance": 99.0,
      "aiNeuronSetting": "DefaultSetting",
      "aiSensingTemplate": "DefaultTemplate",
      "ENPGOILNGAK": "",
      "forceCombatOnSpawn": true,
      "disableWander": true,
      "reuseNotRemoveAbilityTag": "",
      "enterCombatTemplate": ""
    },
    {
      "groupId": 235805002,
      "mapInstId": 2010,
      "overrideDefendAreaRange": true,
      "defendAreaRange": 99.0,
      "overrideClearThreatTargetDistance": true,
      "clearThreatTargetDistance": 99.0,
      "aiNeuronSetting": "DefaultSetting",
      "aiSensingTemplate": "DefaultTemplate",
      "ENPGOILNGAK": "",
      "forceCombatOnSpawn": true,
      "disableWander": true,
      "reuseNotRemoveAbilityTag": "",
      "enterCombatTemplate": ""
    },
    {
      "groupId": 235805002,
      "mapInstId": 2011,
      "overrideDefendAreaRange": true,
      "defendAreaRange": 99.0,
      "overrideClearThreatTargetDistance": true,
      "clearThreatTargetDistance": 99.0,
      "aiNeuronSetting": "DefaultSetting",
      "aiSensingTemplate": "DefaultTemplate",
      "ENPGOILNGAK": "",
      "forceCombatOnSpawn": true,
      "disableWander": true,
      "reuseNotRemoveAbilityTag": "",
      "enterCombatTemplate": ""
    },
    {
      "groupId": 235805002,
      "mapInstId": 2012,
      "overrideDefendAreaRange": true,
      "defendAreaRange": 99.0,
      "overrideClearThreatTargetDistance": true,
      "clearThreatTargetDistance": 99.0,
      "aiNeuronSetting": "DefaultSetting",
      "aiSensingTemplate": "DefaultTemplate",
      "ENPGOILNGAK": "",
      "forceCombatOnSpawn": true,
      "disableWander": true,
      "reuseNotRemoveAbilityTag": "",
      "enterCombatTemplate": ""
    },
    {
      "groupId": 235805002,
      "mapInstId": 2013,
      "overrideDefendAreaRange": true,
      "defendAreaRange": 99.0,
      "overrideClearThreatTargetDistance": true,
      "clearThreatTargetDistance": 99.0,
      "aiNeuronSetting": "DefaultSetting",
      "aiSensingTemplate": "DefaultTemplate",
      "ENPGOILNGAK": "",
      "forceCombatOnSpawn": true,
      "disableWander": true,
      "reuseNotRemoveAbilityTag": "",
      "enterCombatTemplate": ""
    },
    {
      "groupId": 235805002,
      "mapInstId": 2014,
      "overrideDefendAreaRange": true,
      "defendAreaRange": 99.0,
      "overrideClearThreatTargetDistance": true,
      "clearThreatTargetDistance": 99.0,
      "aiNeuronSetting": "DefaultSetting",
      "aiSensingTemplate": "DefaultTemplate",
      "ENPGOILNGAK": "",
      "forceCombatOnSpawn": true,
      "disableWander": true,
      "reuseNotRemoveAbilityTag": "",
      "enterCombatTemplate": ""
    },
    {
      "groupId": 235805002,
      "mapInstId": 2015,
      "overrideDefendAreaRange": true,
      "defendAreaRange": 99.0,
      "overrideClearThreatTargetDistance": true,
      "clearThreatTargetDistance": 99.0,
      "aiNeuronSetting": "DefaultSetting",
      "aiSensingTemplate": "DefaultTemplate",
      "ENPGOILNGAK": "",
      "forceCombatOnSpawn": true,
      "disableWander": true,
      "reuseNotRemoveAbilityTag": "",
      "enterCombatTemplate": ""
    },
    {
      "groupId": 235805002,
      "mapInstId": 2016,
      "overrideDefendAreaRange": true,
      "defendAreaRange": 99.0,
      "overrideClearThreatTargetDistance": true,
      "clearThreatTargetDistance": 99.0,
      "aiNeuronSetting": "DefaultSetting",
      "aiSensingTemplate": "DefaultTemplate",
      "ENPGOILNGAK": "",
      "forceCombatOnSpawn": true,
      "disableWander": true,
      "reuseNotRemoveAbilityTag": "",
      "enterCombatTemplate": ""
    },
    {
      "groupId": 235805002,
      "mapInstId": 2017,
      "overrideDefendAreaRange": true,
      "defendAreaRange": 99.0,
      "overrideClearThreatTargetDistance": true,
      "clearThreatTargetDistance": 99.0,
      "aiNeuronSetting": "DefaultSetting",
      "aiSensingTemplate": "DefaultTemplate",
      "ENPGOILNGAK": "",
      "forceCombatOnSpawn": true,
      "disableWander": true,
      "reuseNotRemoveAbilityTag": "",
      "enterCombatTemplate": ""
    },
    {
      "groupId": 235805002,
      "mapInstId": 2018,
      "overrideDefendAreaRange": true,
      "defendAreaRange": 99.0,
      "overrideClearThreatTargetDistance": true,
      "clearThreatTargetDistance": 99.0,
      "aiNeuronSetting": "DefaultSetting",
      "aiSensingTemplate": "DefaultTemplate",
      "ENPGOILNGAK": "",
      "forceCombatOnSpawn": true,
      "disableWander": true,
      "reuseNotRemoveAbilityTag": "",
      "enterCombatTemplate": ""
    },
    {
      "groupId": 235805002,
      "mapInstId": 2019,
      "overrideDefendAreaRange": true,
      "defendAreaRange": 99.0,
      "overrideClearThreatTargetDistance": true,
      "clearThreatTargetDistance": 99.0,
      "aiNeuronSetting": "DefaultSetting",
      "aiSensingTemplate": "DefaultTemplate",
      "ENPGOILNGAK": "",
      "forceCombatOnSpawn": true,
      "disableWander": true,
      "reuseNotRemoveAbilityTag": "",
      "enterCombatTemplate": ""
    },
    {
      "groupId": 235805002,
      "mapInstId": 2020,
      "overrideDefendAreaRange": true,
      "defendAreaRange": 99.0,
      "overrideClearThreatTargetDistance": true,
      "clearThreatTargetDistance": 99.0,
      "aiNeuronSetting": "DefaultSetting",
      "aiSensingTemplate": "DefaultTemplate",
      "ENPGOILNGAK": "",
      "forceCombatOnSpawn": true,
      "disableWander": true,
      "reuseNotRemoveAbilityTag": "",
      "enterCombatTemplate": ""
    },
    {
      "groupId": 235805002,
      "mapInstId": 2030,
      "overrideDefendAreaRange": true,
      "defendAreaRange": 99.0,
      "overrideClearThreatTargetDistance": true,
      "clearThreatTargetDistance": 99.0,
      "aiNeuronSetting": "DefaultSetting",
      "aiSensingTemplate": "DefaultTemplate",
      "ENPGOILNGAK": "",
      "forceCombatOnSpawn": true,
      "disableWander": true,
      "reuseNotRemoveAbilityTag": "",
      "enterCombatTemplate": ""
    },
    {
      "groupId": 235805002,
      "mapInstId": 2031,
      "overrideDefendAreaRange": true,
      "defendAreaRange": 99.0,
      "overrideClearThreatTargetDistance": true,
      "clearThreatTargetDistance": 99.0,
      "aiNeuronSetting": "DefaultSetting",
      "aiSensingTemplate": "DefaultTemplate",
      "ENPGOILNGAK": "",
      "forceCombatOnSpawn": true,
      "disableWander": true,
      "reuseNotRemoveAbilityTag": "",
      "enterCombatTemplate": ""
    },
    {
      "groupId": 235805002,
      "mapInstId": 2032,
      "overrideDefendAreaRange": true,
      "defendAreaRange": 99.0,
      "overrideClearThreatTargetDistance": true,
      "clearThreatTargetDistance": 99.0,
      "aiNeuronSetting": "DefaultSetting",
      "aiSensingTemplate": "DefaultTemplate",
      "ENPGOILNGAK": "",
      "forceCombatOnSpawn": true,
      "disableWander": true,
      "reuseNotRemoveAbilityTag": "",
      "enterCombatTemplate": ""
    },
    {
      "groupId": 235805002,
      "mapInstId": 2038,
      "overrideDefendAreaRange": true,
      "defendAreaRange": 99.0,
      "overrideClearThreatTargetDistance": true,
      "clearThreatTargetDistance": 99.0,
      "aiNeuronSetting": "DefaultSetting",
      "aiSensingTemplate": "DefaultTemplate",
      "ENPGOILNGAK": "",
      "forceCombatOnSpawn": true,
      "disableWander": true,
      "reuseNotRemoveAbilityTag": "",
      "enterCombatTemplate": ""
    },
    {
      "groupId": 235805002,
      "mapInstId": 2039,
      "overrideDefendAreaRange": true,
      "defendAreaRange": 99.0,
      "overrideClearThreatTargetDistance": true,
      "clearThreatTargetDistance": 99.0,
      "aiNeuronSetting": "DefaultSetting",
      "aiSensingTemplate": "DefaultTemplate",
      "ENPGOILNGAK": "",
      "forceCombatOnSpawn": true,
      "disableWander": true,
      "reuseNotRemoveAbilityTag": "",
      "enterCombatTemplate": ""
    },
    {
      "groupId": 235805002,
      "mapInstId": 2040,
      "overrideDefendAreaRange": true,
      "defendAreaRange": 99.0,
      "overrideClearThreatTargetDistance": true,
      "clearThreatTargetDistance": 99.0,
      "aiNeuronSetting": "DefaultSetting",
      "aiSensingTemplate": "DefaultTemplate",
      "ENPGOILNGAK": "",
      "forceCombatOnSpawn": true,
      "disableWander": true,
      "reuseNotRemoveAbilityTag": "",
      "enterCombatTemplate": ""
    },
    {
      "groupId": 235805002,
      "mapInstId": 2041,
      "overrideDefendAreaRange": true,
      "defendAreaRange": 99.0,
      "overrideClearThreatTargetDistance": true,
      "clearThreatTargetDistance": 99.0,
      "aiNeuronSetting": "DefaultSetting",
      "aiSensingTemplate": "DefaultTemplate",
      "ENPGOILNGAK": "",
      "forceCombatOnSpawn": true,
      "disableWander": true,
      "reuseNotRemoveAbilityTag": "",
      "enterCombatTemplate": ""
    },
    {
      "groupId": 235805002,
      "mapInstId": 2042,
      "overrideDefendAreaRange": true,
      "defendAreaRange": 99.0,
      "overrideClearThreatTargetDistance": true,
      "clearThreatTargetDistance": 99.0,
      "aiNeuronSetting": "DefaultSetting",
      "aiSensingTemplate": "DefaultTemplate",
      "ENPGOILNGAK": "",
      "forceCombatOnSpawn": true,
      "disableWander": true,
      "reuseNotRemoveAbilityTag": "",
      "enterCombatTemplate": ""
    },
    {
      "groupId": 235805002,
      "mapInstId": 2043,
      "overrideDefendAreaRange": true,
      "defendAreaRange": 99.0,
      "overrideClearThreatTargetDistance": true,
      "clearThreatTargetDistance": 99.0,
      "aiNeuronSetting": "DefaultSetting",
      "aiSensingTemplate": "DefaultTemplate",
      "ENPGOILNGAK": "",
      "forceCombatOnSpawn": true,
      "disableWander": true,
      "reuseNotRemoveAbilityTag": "",
      "enterCombatTemplate": ""
    },
    {
      "groupId": 235805002,
      "mapInstId": 2044,
      "overrideDefendAreaRange": true,
      "defendAreaRange": 99.0,
      "overrideClearThreatTargetDistance": true,
      "clearThreatTargetDistance": 99.0,
      "aiNeuronSetting": "DefaultSetting",
      "aiSensingTemplate": "DefaultTemplate",
      "ENPGOILNGAK": "",
      "forceCombatOnSpawn": true,
      "disableWander": true,
      "reuseNotRemoveAbilityTag": "",
      "enterCombatTemplate": ""
    },
    {
      "groupId": 235805002,
      "mapInstId": 2045,
      "overrideDefendAreaRange": true,
      "defendAreaRange": 99.0,
      "overrideClearThreatTargetDistance": true,
      "clearThreatTargetDistance": 99.0,
      "aiNeuronSetting": "DefaultSetting",
      "aiSensingTemplate": "DefaultTemplate",
      "ENPGOILNGAK": "",
      "forceCombatOnSpawn": true,
      "disableWander": true,
      "reuseNotRemoveAbilityTag": "",
      "enterCombatTemplate": ""
    },
    {
      "groupId": 235805002,
      "mapInstId": 2046,
      "overrideDefendAreaRange": true,
      "defendAreaRange": 99.0,
      "overrideClearThreatTargetDistance": true,
      "clearThreatTargetDistance": 99.0,
      "aiNeuronSetting": "DefaultSetting",
      "aiSensingTemplate": "DefaultTemplate",
      "ENPGOILNGAK": "",
      "forceCombatOnSpawn": true,
      "disableWander": true,
      "reuseNotRemoveAbilityTag": "",
      "enterCombatTemplate": ""
    },
    {
      "groupId": 235805002,
      "mapInstId": 2047,
      "overrideDefendAreaRange": true,
      "defendAreaRange": 99.0,
      "overrideClearThreatTargetDistance": true,
      "clearThreatTargetDistance": 99.0,
      "aiNeuronSetting": "DefaultSetting",
      "aiSensingTemplate": "DefaultTemplate",
      "ENPGOILNGAK": "",
      "forceCombatOnSpawn": true,
      "disableWander": true,
      "reuseNotRemoveAbilityTag": "",
      "enterCombatTemplate": ""
    }
  ]
}