{
  "sceneId": 47914,
  "monsters": [
    {
      "groupId": 247914001,
      "mapInstId": 1001,
      "aiGroupID": 247914001,
      "aiNeuronSetting": "DefaultSetting",
      "aiSensingTemplate": "DefaultTemplate",
      "ENPGOILNGAK": "",
      "billboardHasUIBar": true,
      "billboardUIBarNeedEnterCombat": true,
      "billboardHpBarStyle": "Boss",
      "reuseNotRemoveAbilityTag": "",
      "enterCombatTemplate": ""
    }
  ]
}