{
  "sceneId": 20017,
  "monsters": [
    {
      "groupId": 220017001,
      "mapInstId": 1,
      "aiNeuronSetting": "DefaultSetting",
      "aiSensingTemplate": "DefaultTemplate",
      "ENPGOILNGAK": "",
      "billboardHasUIBar": true,
      "billboardShowUIBarDis": 1000.0,
      "billboardHideUIBarDis": 1000.0,
      "billboardHpBarStyle": "Boss",
      "reuseNotRemoveAbilityTag": "",
      "enterCombatTemplate": ""
    }
  ]
}