{
  "sceneId": 35856,
  "monsters": [
    {
      "groupId": 235856001,
      "mapInstId": 1002,
      "aiGroupID": 235856001,
      "overrideDefendAreaRange": true,
      "defendAreaRange": 99.0,
      "overrideClearThreatTargetDistance": true,
      "clearThreatTargetDistance": 99.0,
      "aiNeuronSetting": "DefaultSetting",
      "aiSensingTemplate": "DefaultTemplate",
      "ENPGOILNGAK": "",
      "forceCombatOnSpawn": true,
      "disableWander": true,
      "reuseNotRemoveAbilityTag": "",
      "enterCombatTemplate": ""
    },
    {
      "groupId": 235856001,
      "mapInstId": 1042,
      "aiGroupID": 235856001,
      "overrideDefendAreaRange": true,
      "defendAreaRange": 99.0,
      "overrideClearThreatTargetDistance": true,
      "clearThreatTargetDistance": 99.0,
      "aiNeuronSetting": "DefaultSetting",
      "aiSensingTemplate": "DefaultTemplate",
      "ENPGOILNGAK": "",
      "forceCombatOnSpawn": true,
      "disableWander": true,
      "reuseNotRemoveAbilityTag": "",
      "enterCombatTemplate": ""
    },
    {
      "groupId": 235856001,
      "mapInstId": 1043,
      "aiGroupID": 235856001,
      "overrideDefendAreaRange": true,
      "defendAreaRange": 99.0,
      "overrideClearThreatTargetDistance": true,
      "clearThreatTargetDistance": 99.0,
      "aiNeuronSetting": "DefaultSetting",
      "aiSensingTemplate": "DefaultTemplate",
      "ENPGOILNGAK": "",
      "forceCombatOnSpawn": true,
      "disableWander": true,
      "reuseNotRemoveAbilityTag": "",
      "enterCombatTemplate": ""
    },
    {
      "groupId": 235856001,
      "mapInstId": 1044,
      "aiGroupID": 235856001,
      "overrideDefendAreaRange": true,
      "defendAreaRange": 99.0,
      "overrideClearThreatTargetDistance": true,
      "clearThreatTargetDistance": 99.0,
      "aiNeuronSetting": "DefaultSetting",
      "aiSensingTemplate": "DefaultTemplate",
      "ENPGOILNGAK": "",
      "forceCombatOnSpawn": true,
      "disableWander": true,
      "reuseNotRemoveAbilityTag": "",
      "enterCombatTemplate": ""
    },
    {
      "groupId": 235856001,
      "mapInstId": 1045,
      "aiGroupID": 235856001,
      "overrideDefendAreaRange": true,
      "defendAreaRange": 99.0,
      "overrideClearThreatTargetDistance": true,
      "clearThreatTargetDistance": 99.0,
      "aiNeuronSetting": "DefaultSetting",
      "aiSensingTemplate": "DefaultTemplate",
      "ENPGOILNGAK": "",
      "forceCombatOnSpawn": true,
      "disableWander": true,
      "reuseNotRemoveAbilityTag": "",
      "enterCombatTemplate": ""
    },
    {
      "groupId": 235856001,
      "mapInstId": 1046,
      "aiGroupID": 235856001,
      "overrideDefendAreaRange": true,
      "defendAreaRange": 99.0,
      "overrideClearThreatTargetDistance": true,
      "clearThreatTargetDistance": 99.0,
      "aiNeuronSetting": "DefaultSetting",
      "aiSensingTemplate": "DefaultTemplate",
      "ENPGOILNGAK": "",
      "forceCombatOnSpawn": true,
      "disableWander": true,
      "reuseNotRemoveAbilityTag": "",
      "enterCombatTemplate": ""
    },
    {
      "groupId": 235856001,
      "mapInstId": 1047,
      "aiGroupID": 235856001,
      "overrideDefendAreaRange": true,
      "defendAreaRange": 99.0,
      "overrideClearThreatTargetDistance": true,
      "clearThreatTargetDistance": 99.0,
      "aiNeuronSetting": "DefaultSetting",
      "aiSensingTemplate": "DefaultTemplate",
      "ENPGOILNGAK": "",
      "forceCombatOnSpawn": true,
      "disableWander": true,
      "reuseNotRemoveAbilityTag": "",
      "enterCombatTemplate": ""
    },
    {
      "groupId": 235856001,
      "mapInstId": 1048,
      "aiGroupID": 235856001,
      "overrideDefendAreaRange": true,
      "defendAreaRange": 99.0,
      "overrideClearThreatTargetDistance": true,
      "clearThreatTargetDistance": 99.0,
      "aiNeuronSetting": "DefaultSetting",
      "aiSensingTemplate": "DefaultTemplate",
      "ENPGOILNGAK": "",
      "forceCombatOnSpawn": true,
      "disableWander": true,
      "reuseNotRemoveAbilityTag": "",
      "enterCombatTemplate": ""
    },
    {
      "groupId": 235856001,
      "mapInstId": 1049,
      "aiGroupID": 235856001,
      "overrideDefendAreaRange": true,
      "defendAreaRange": 99.0,
      "overrideClearThreatTargetDistance": true,
      "clearThreatTargetDistance": 99.0,
      "aiNeuronSetting": "DefaultSetting",
      "aiSensingTemplate": "DefaultTemplate",
      "ENPGOILNGAK": "",
      "forceCombatOnSpawn": true,
      "disableWander": true,
      "reuseNotRemoveAbilityTag": "",
      "enterCombatTemplate": ""
    },
    {
      "groupId": 235856001,
      "mapInstId": 1050,
      "aiGroupID": 235856001,
      "overrideDefendAreaRange": true,
      "defendAreaRange": 99.0,
      "overrideClearThreatTargetDistance": true,
      "clearThreatTargetDistance": 99.0,
      "aiNeuronSetting": "DefaultSetting",
      "aiSensingTemplate": "DefaultTemplate",
      "ENPGOILNGAK": "",
      "forceCombatOnSpawn": true,
      "disableWander": true,
      "reuseNotRemoveAbilityTag": "",
      "enterCombatTemplate": ""
    },
    {
      "groupId": 235856001,
      "mapInstId": 1051,
      "aiGroupID": 235856001,
      "overrideDefendAreaRange": true,
      "defendAreaRange": 99.0,
      "overrideClearThreatTargetDistance": true,
      "clearThreatTargetDistance": 99.0,
      "aiNeuronSetting": "DefaultSetting",
      "aiSensingTemplate": "DefaultTemplate",
      "ENPGOILNGAK": "",
      "forceCombatOnSpawn": true,
      "disableWander": true,
      "reuseNotRemoveAbilityTag": "",
      "enterCombatTemplate": ""
    },
    {
      "groupId": 235856001,
      "mapInstId": 1052,
      "aiGroupID": 235856001,
      "overrideDefendAreaRange": true,
      "defendAreaRange": 99.0,
      "overrideClearThreatTargetDistance": true,
      "clearThreatTargetDistance": 99.0,
      "aiNeuronSetting": "DefaultSetting",
      "aiSensingTemplate": "DefaultTemplate",
      "ENPGOILNGAK": "",
      "forceCombatOnSpawn": true,
      "disableWander": true,
      "reuseNotRemoveAbilityTag": "",
      "enterCombatTemplate": ""
    },
    {
      "groupId": 235856001,
      "mapInstId": 1053,
      "aiGroupID": 235856001,
      "overrideDefendAreaRange": true,
      "defendAreaRange": 99.0,
      "overrideClearThreatTargetDistance": true,
      "clearThreatTargetDistance": 99.0,
      "aiNeuronSetting": "DefaultSetting",
      "aiSensingTemplate": "DefaultTemplate",
      "ENPGOILNGAK": "",
      "forceCombatOnSpawn": true,
      "disableWander": true,
      "reuseNotRemoveAbilityTag": "",
      "enterCombatTemplate": ""
    },
    {
      "groupId": 235856001,
      "mapInstId": 1054,
      "aiGroupID": 235856001,
      "overrideDefendAreaRange": true,
      "defendAreaRange": 99.0,
      "overrideClearThreatTargetDistance": true,
      "clearThreatTargetDistance": 99.0,
      "aiNeuronSetting": "DefaultSetting",
      "aiSensingTemplate": "DefaultTemplate",
      "ENPGOILNGAK": "",
      "forceCombatOnSpawn": true,
      "disableWander": true,
      "reuseNotRemoveAbilityTag": "",
      "enterCombatTemplate": ""
    },
    {
      "groupId": 235856001,
      "mapInstId": 1055,
      "aiGroupID": 235856001,
      "overrideDefendAreaRange": true,
      "defendAreaRange": 99.0,
      "overrideClearThreatTargetDistance": true,
      "clearThreatTargetDistance": 99.0,
      "aiNeuronSetting": "DefaultSetting",
      "aiSensingTemplate": "DefaultTemplate",
      "ENPGOILNGAK": "",
      "forceCombatOnSpawn": true,
      "disableWander": true,
      "reuseNotRemoveAbilityTag": "",
      "enterCombatTemplate": ""
    },
    {
      "groupId": 235856001,
      "mapInstId": 1056,
      "aiGroupID": 235856001,
      "overrideDefendAreaRange": true,
      "defendAreaRange": 99.0,
      "overrideClearThreatTargetDistance": true,
      "clearThreatTargetDistance": 99.0,
      "aiNeuronSetting": "DefaultSetting",
      "aiSensingTemplate": "DefaultTemplate",
      "ENPGOILNGAK": "",
      "forceCombatOnSpawn": true,
      "disableWander": true,
      "reuseNotRemoveAbilityTag": "",
      "enterCombatTemplate": ""
    },
    {
      "groupId": 235856001,
      "mapInstId": 1057,
      "aiGroupID": 235856001,
      "overrideDefendAreaRange": true,
      "defendAreaRange": 99.0,
      "overrideClearThreatTargetDistance": true,
      "clearThreatTargetDistance": 99.0,
      "aiNeuronSetting": "DefaultSetting",
      "aiSensingTemplate": "DefaultTemplate",
      "ENPGOILNGAK": "",
      "forceCombatOnSpawn": true,
      "disableWander": true,
      "reuseNotRemoveAbilityTag": "",
      "enterCombatTemplate": ""
    },
    {
      "groupId": 235856001,
      "mapInstId": 1058,
      "aiGroupID": 235856001,
      "overrideDefendAreaRange": true,
      "defendAreaRange": 99.0,
      "overrideClearThreatTargetDistance": true,
      "clearThreatTargetDistance": 99.0,
      "aiNeuronSetting": "DefaultSetting",
      "aiSensingTemplate": "DefaultTemplate",
      "ENPGOILNGAK": "",
      "forceCombatOnSpawn": true,
      "disableWander": true,
      "reuseNotRemoveAbilityTag": "",
      "enterCombatTemplate": ""
    },
    {
      "groupId": 235856001,
      "mapInstId": 1059,
      "aiGroupID": 235856001,
      "overrideDefendAreaRange": true,
      "defendAreaRange": 99.0,
      "overrideClearThreatTargetDistance": true,
      "clearThreatTargetDistance": 99.0,
      "aiNeuronSetting": "DefaultSetting",
      "aiSensingTemplate": "DefaultTemplate",
      "ENPGOILNGAK": "",
      "forceCombatOnSpawn": true,
      "disableWander": true,
      "reuseNotRemoveAbilityTag": "",
      "enterCombatTemplate": ""
    },
    {
      "groupId": 235856001,
      "mapInstId": 1060,
      "aiGroupID": 235856001,
      "overrideDefendAreaRange": true,
      "defendAreaRange": 99.0,
      "overrideClearThreatTargetDistance": true,
      "clearThreatTargetDistance": 99.0,
      "aiNeuronSetting": "DefaultSetting",
      "aiSensingTemplate": "DefaultTemplate",
      "ENPGOILNGAK": "",
      "forceCombatOnSpawn": true,
      "disableWander": true,
      "reuseNotRemoveAbilityTag": "",
      "enterCombatTemplate": ""
    },
    {
      "groupId": 235856002,
      "mapInstId": 2001,
      "aiGroupID": 235856002,
      "overrideDefendAreaRange": true,
      "defendAreaRange": 99.0,
      "overrideClearThreatTargetDistance": true,
      "clearThreatTargetDistance": 99.0,
      "aiNeuronSetting": "DefaultSetting",
      "aiSensingTemplate": "DefaultTemplate",
      "ENPGOILNGAK": "",
      "forceCombatOnSpawn": true,
      "disableWander": true,
      "reuseNotRemoveAbilityTag": "",
      "enterCombatTemplate": ""
    },
    {
      "groupId": 235856002,
      "mapInstId": 2002,
      "aiGroupID": 235856002,
      "overrideDefendAreaRange": true,
      "defendAreaRange": 99.0,
      "overrideClearThreatTargetDistance": true,
      "clearThreatTargetDistance": 99.0,
      "aiNeuronSetting": "DefaultSetting",
      "aiSensingTemplate": "DefaultTemplate",
      "ENPGOILNGAK": "",
      "forceCombatOnSpawn": true,
      "disableWander": true,
      "reuseNotRemoveAbilityTag": "",
      "enterCombatTemplate": ""
    },
    {
      "groupId": 235856002,
      "mapInstId": 2003,
      "aiGroupID": 235856002,
      "overrideDefendAreaRange": true,
      "defendAreaRange": 99.0,
      "overrideClearThreatTargetDistance": true,
      "clearThreatTargetDistance": 99.0,
      "aiNeuronSetting": "DefaultSetting",
      "aiSensingTemplate": "DefaultTemplate",
      "ENPGOILNGAK": "",
      "forceCombatOnSpawn": true,
      "disableWander": true,
      "reuseNotRemoveAbilityTag": "",
      "enterCombatTemplate": ""
    },
    {
      "groupId": 235856002,
      "mapInstId": 2057,
      "aiGroupID": 235856002,
      "overrideDefendAreaRange": true,
      "defendAreaRange": 99.0,
      "overrideClearThreatTargetDistance": true,
      "clearThreatTargetDistance": 99.0,
      "aiNeuronSetting": "DefaultSetting",
      "aiSensingTemplate": "DefaultTemplate",
      "ENPGOILNGAK": "",
      "forceCombatOnSpawn": true,
      "disableWander": true,
      "reuseNotRemoveAbilityTag": "",
      "enterCombatTemplate": ""
    },
    {
      "groupId": 235856002,
      "mapInstId": 2058,
      "aiGroupID": 235856002,
      "overrideDefendAreaRange": true,
      "defendAreaRange": 99.0,
      "overrideClearThreatTargetDistance": true,
      "clearThreatTargetDistance": 99.0,
      "aiNeuronSetting": "DefaultSetting",
      "aiSensingTemplate": "DefaultTemplate",
      "ENPGOILNGAK": "",
      "forceCombatOnSpawn": true,
      "disableWander": true,
      "reuseNotRemoveAbilityTag": "",
      "enterCombatTemplate": ""
    },
    {
      "groupId": 235856002,
      "mapInstId": 2059,
      "aiGroupID": 235856002,
      "overrideDefendAreaRange": true,
      "defendAreaRange": 99.0,
      "overrideClearThreatTargetDistance": true,
      "clearThreatTargetDistance": 99.0,
      "aiNeuronSetting": "DefaultSetting",
      "aiSensingTemplate": "DefaultTemplate",
      "ENPGOILNGAK": "",
      "forceCombatOnSpawn": true,
      "disableWander": true,
      "reuseNotRemoveAbilityTag": "",
      "enterCombatTemplate": ""
    },
    {
      "groupId": 235856002,
      "mapInstId": 2060,
      "aiGroupID": 235856002,
      "overrideDefendAreaRange": true,
      "defendAreaRange": 99.0,
      "overrideClearThreatTargetDistance": true,
      "clearThreatTargetDistance": 99.0,
      "aiNeuronSetting": "DefaultSetting",
      "aiSensingTemplate": "DefaultTemplate",
      "ENPGOILNGAK": "",
      "forceCombatOnSpawn": true,
      "disableWander": true,
      "reuseNotRemoveAbilityTag": "",
      "enterCombatTemplate": ""
    },
    {
      "groupId": 235856002,
      "mapInstId": 2061,
      "aiGroupID": 235856002,
      "overrideDefendAreaRange": true,
      "defendAreaRange": 99.0,
      "overrideClearThreatTargetDistance": true,
      "clearThreatTargetDistance": 99.0,
      "aiNeuronSetting": "DefaultSetting",
      "aiSensingTemplate": "DefaultTemplate",
      "ENPGOILNGAK": "",
      "forceCombatOnSpawn": true,
      "disableWander": true,
      "reuseNotRemoveAbilityTag": "",
      "enterCombatTemplate": ""
    },
    {
      "groupId": 235856002,
      "mapInstId": 2062,
      "aiGroupID": 235856002,
      "overrideDefendAreaRange": true,
      "defendAreaRange": 99.0,
      "overrideClearThreatTargetDistance": true,
      "clearThreatTargetDistance": 99.0,
      "aiNeuronSetting": "DefaultSetting",
      "aiSensingTemplate": "DefaultTemplate",
      "ENPGOILNGAK": "",
      "forceCombatOnSpawn": true,
      "disableWander": true,
      "reuseNotRemoveAbilityTag": "",
      "enterCombatTemplate": ""
    },
    {
      "groupId": 235856002,
      "mapInstId": 2063,
      "aiGroupID": 235856002,
      "overrideDefendAreaRange": true,
      "defendAreaRange": 99.0,
      "overrideClearThreatTargetDistance": true,
      "clearThreatTargetDistance": 99.0,
      "aiNeuronSetting": "DefaultSetting",
      "aiSensingTemplate": "DefaultTemplate",
      "ENPGOILNGAK": "",
      "forceCombatOnSpawn": true,
      "disableWander": true,
      "reuseNotRemoveAbilityTag": "",
      "enterCombatTemplate": ""
    },
    {
      "groupId": 235856002,
      "mapInstId": 2064,
      "aiGroupID": 235856002,
      "overrideDefendAreaRange": true,
      "defendAreaRange": 99.0,
      "overrideClearThreatTargetDistance": true,
      "clearThreatTargetDistance": 99.0,
      "aiNeuronSetting": "DefaultSetting",
      "aiSensingTemplate": "DefaultTemplate",
      "ENPGOILNGAK": "",
      "forceCombatOnSpawn": true,
      "disableWander": true,
      "reuseNotRemoveAbilityTag": "",
      "enterCombatTemplate": ""
    },
    {
      "groupId": 235856002,
      "mapInstId": 2065,
      "aiGroupID": 235856002,
      "overrideDefendAreaRange": true,
      "defendAreaRange": 99.0,
      "overrideClearThreatTargetDistance": true,
      "clearThreatTargetDistance": 99.0,
      "aiNeuronSetting": "DefaultSetting",
      "aiSensingTemplate": "DefaultTemplate",
      "ENPGOILNGAK": "",
      "forceCombatOnSpawn": true,
      "disableWander": true,
      "reuseNotRemoveAbilityTag": "",
      "enterCombatTemplate": ""
    }
  ]
}