{
  "sceneId": 35766,
  "monsters": [
    {
      "groupId": 235766004,
      "mapInstId": 4021,
      "aiGroupID": 235766005,
      "overrideDefendAreaRange": true,
      "defendAreaRange": 999.0,
      "overrideClearThreatTargetDistance": true,
      "clearThreatTargetDistance": 999.0,
      "aiNeuronSetting": "DefaultSetting",
      "aiSensingTemplate": "DefaultTemplate",
      "ENPGOILNGAK": "",
      "forceCombatOnSpawn": true,
      "disableWander": true,
      "billboardHasUIBar": true,
      "reuseNotRemoveAbilityTag": "",
      "enterCombatTemplate": ""
    },
    {
      "groupId": 235766005,
      "mapInstId": 5017,
      "aiGroupID": 235766004,
      "overrideDefendAreaRange": true,
      "defendAreaRange": 999.0,
      "overrideClearThreatTargetDistance": true,
      "clearThreatTargetDistance": 999.0,
      "aiNeuronSetting": "DefaultSetting",
      "aiSensingTemplate": "DefaultTemplate",
      "ENPGOILNGAK": "",
      "forceCombatOnSpawn": true,
      "disableWander": true,
      "reuseNotRemoveAbilityTag": "",
      "enterCombatTemplate": ""
    },
    {
      "groupId": 235766005,
      "mapInstId": 5018,
      "aiGroupID": 235766004,
      "overrideDefendAreaRange": true,
      "defendAreaRange": 999.0,
      "overrideClearThreatTargetDistance": true,
      "clearThreatTargetDistance": 999.0,
      "aiNeuronSetting": "DefaultSetting",
      "aiSensingTemplate": "DefaultTemplate",
      "ENPGOILNGAK": "",
      "forceCombatOnSpawn": true,
      "disableWander": true,
      "reuseNotRemoveAbilityTag": "",
      "enterCombatTemplate": ""
    },
    {
      "groupId": 235766005,
      "mapInstId": 5020,
      "aiGroupID": 235766004,
      "overrideDefendAreaRange": true,
      "defendAreaRange": 999.0,
      "overrideClearThreatTargetDistance": true,
      "clearThreatTargetDistance": 999.0,
      "aiNeuronSetting": "DefaultSetting",
      "aiSensingTemplate": "DefaultTemplate",
      "ENPGOILNGAK": "",
      "forceCombatOnSpawn": true,
      "disableWander": true,
      "reuseNotRemoveAbilityTag": "",
      "enterCombatTemplate": ""
    },
    {
      "groupId": 235766005,
      "mapInstId": 5021,
      "aiGroupID": 235766004,
      "overrideDefendAreaRange": true,
      "defendAreaRange": 999.0,
      "overrideClearThreatTargetDistance": true,
      "clearThreatTargetDistance": 999.0,
      "aiNeuronSetting": "DefaultSetting",
      "aiSensingTemplate": "DefaultTemplate",
      "ENPGOILNGAK": "",
      "forceCombatOnSpawn": true,
      "disableWander": true,
      "reuseNotRemoveAbilityTag": "",
      "enterCombatTemplate": ""
    }
  ]
}