{
  "luaDataPath": "",
  "startBlackKeepTime": 1.0,
  "entityBan": "",
  "disableNpcLod": true,
  "startFade": {
    "startFadeInDuration": 0.5,
    "startFadeOutDuration": 0.5
  },
  "endFade": {
    "startFadeOutDuration": 0.0
  },
  "actors": [
    {
      "alias": "Avatar",
      "visible": true,
      "bornPointName": "",
      "relativePosNpcAlias": "",
      "_bindMovingTargetKey": ""
    },
    {
      "configID": 1005,
      "alias": "1005",
      "visible": true,
      "bornPointName": "",
      "removeActorType": "REMOVE_WITH_DISAPPEAR",
      "relativePosNpcAlias": "",
      "_bindMovingTargetKey": ""
    },
    {
      "configID": 10232,
      "alias": "10232",
      "visible": true,
      "bornPointName": "",
      "removeActorType": "REMOVE",
      "relativePosNpcAlias": "",
      "_bindMovingTargetKey": ""
    },
    {
      "configID": 10376,
      "alias": "10376",
      "visible": true,
      "bornPointName": "",
      "removeActorType": "REMOVE",
      "relativePosNpcAlias": "",
      "_bindMovingTargetKey": ""
    }
  ],
  "group": [
    [
      {
        "$type": "FJKIHHKJLMJ",
        "type": "CAMERA_MOVE",
        "duration": 1.0,
        "camPosOffset": {
          "x": -476.36810302734375,
          "y": 238.49447631835938,
          "z": 1265.3204345703125
        },
        "camForwardTargetOffset": {
          "x": -475.6276550292969,
          "y": 238.2132568359375,
          "z": 1264.7099609375
        },
        "lerpPattern": 6,
        "cameraBlendType": "EaseInOutCubic",
        "NJBNNOMLKCK": {},
        "openCameraDither": false,
        "targetNpcAlias": "",
        "KJOEFBPOIIH": "",
        "IICFKKEBIEC": "",
        "EGEHEJEBLBJ": ""
      },
      {
        "$type": "FJKIHHKJLMJ",
        "type": "CAMERA_MOVE",
        "delayTime": 0.10000000149011612,
        "duration": 7.5,
        "camPosOffset": {
          "x": -431.6217956542969,
          "y": 220.62379455566406,
          "z": 1217.18115234375
        },
        "camForwardTargetOffset": {
          "x": -430.7322692871094,
          "y": 220.421142578125,
          "z": 1216.7716064453125
        },
        "camFov": 40.0,
        "NJBNNOMLKCK": {},
        "openCameraDither": false,
        "targetNpcAlias": "",
        "KJOEFBPOIIH": "",
        "IICFKKEBIEC": "",
        "EGEHEJEBLBJ": ""
      },
      {
        "$type": "FJKIHHKJLMJ",
        "type": "CAMERA_MOVE",
        "delayTime": 8.0,
        "duration": 2.0,
        "camPosOffset": {
          "x": -419.2532958984375,
          "y": 216.64639282226562,
          "z": 1211.7843017578125
        },
        "camForwardTargetOffset": {
          "x": -418.3832092285156,
          "y": 216.330810546875,
          "z": 1211.4056396484375
        },
        "camFov": 25.0,
        "cameraBlendType": "EaseInOutCubic",
        "NJBNNOMLKCK": {},
        "openCameraDither": false,
        "targetNpcAlias": "",
        "KJOEFBPOIIH": "",
        "IICFKKEBIEC": "",
        "EGEHEJEBLBJ": ""
      },
      {
        "$type": "MoleMole.Config.ConfigTimeProtectAction",
        "type": "TIME_PROTECT",
        "duration": 7.0
      },
      {
        "$type": "MoleMole.Config.ConfigCameraDOFAction",
        "type": "CAMERA_DOF",
        "enabled": true,
        "focusDistance": 100.0,
        "focusRange": 200.0,
        "nearFocalDistance": 5.0,
        "nearFocalTransDistance": 5.0,
        "dofBlurAmount": 1.0,
        "quality": 3
      },
      {
        "$type": "MoleMole.Config.ConfigCameraDOFAction",
        "type": "CAMERA_DOF",
        "delayTime": 8.5,
        "duration": 1.0,
        "enabled": true,
        "focusDistance": 100.0,
        "focusRange": 200.0,
        "nearFocalDistance": 25.0,
        "nearFocalTransDistance": 5.0,
        "dofBlurAmount": 1.0,
        "quality": 3
      },
      {
        "$type": "LJLMDHDCAMK",
        "type": "LOOK_AT",
        "aliasList": [
          "Avatar"
        ],
        "enableHead": true,
        "useTargetPos": true,
        "enableAbsolute": true,
        "targetPosition": {
          "x": -394.17254638671875,
          "y": 213.70570373535156,
          "z": 1199.89453125
        },
        "headRotateVec": {
          "y": 5.0
        },
        "headTurnTime": 0.5,
        "targetNpcAlias": "",
        "lookAtTargetType": "NONE",
        "targetNpcLookAtPoint": "",
        "OAFJBHJHLJG": ""
      },
      {
        "$type": "MoleMole.Config.ConfigTeleportToAction",
        "type": "TELEPORT_TO",
        "aliasList": [
          "Avatar"
        ],
        "position": {
          "x": -476.45208740234375,
          "y": 236.6412353515625,
          "z": 1265.316162109375
        },
        "forward": {
          "x": 5.334991455078125,
          "y": -1.61639404296875,
          "z": -4.238037109375
        },
        "_posBindMovingTargetKey": "",
        "_forwardBindMovingTargetKey": ""
      },
      {
        "$type": "PKKMAMONGEO",
        "type": "DIALOG",
        "delayTime": 7.0,
        "aliasList": [
          "1005"
        ],
        "dialogID": 111229901,
        "protectTime": 3.0
      },
      {
        "$type": "MoleMole.Config.ConfigTeleportToAction",
        "type": "TELEPORT_TO",
        "aliasList": [
          "1005"
        ],
        "position": {
          "x": -475.7386169433594,
          "y": 236.64170837402344,
          "z": 1265.46240234375
        },
        "forward": {
          "x": 5.334991455078125,
          "y": -1.61639404296875,
          "z": -4.238037109375
        },
        "_posBindMovingTargetKey": "",
        "_forwardBindMovingTargetKey": ""
      },
      {
        "$type": "LJLMDHDCAMK",
        "type": "LOOK_AT",
        "aliasList": [
          "1005"
        ],
        "enableHead": true,
        "useTargetPos": true,
        "enableAbsolute": true,
        "targetPosition": {
          "x": -394.17254638671875,
          "y": 213.70570373535156,
          "z": 1199.89453125
        },
        "headRotateVec": {
          "y": 5.0
        },
        "headTurnTime": 0.5,
        "targetNpcAlias": "",
        "lookAtTargetType": "NONE",
        "targetNpcLookAtPoint": "",
        "OAFJBHJHLJG": ""
      },
      {
        "$type": "MoleMole.Config.ConfigTeleportToAction",
        "type": "TELEPORT_TO",
        "aliasList": [
          "10232"
        ],
        "position": {
          "x": -476.1578674316406,
          "y": 236.63717651367188,
          "z": 1264.1552734375
        },
        "forward": {
          "x": 5.699127197265625,
          "y": -1.686279296875,
          "z": -4.4437255859375
        },
        "_posBindMovingTargetKey": "",
        "_forwardBindMovingTargetKey": ""
      },
      {
        "$type": "LJLMDHDCAMK",
        "type": "LOOK_AT",
        "aliasList": [
          "10232"
        ],
        "enableHead": true,
        "useTargetPos": true,
        "enableAbsolute": true,
        "targetPosition": {
          "x": -394.17254638671875,
          "y": 213.70570373535156,
          "z": 1199.89453125
        },
        "headRotateVec": {
          "y": 5.0
        },
        "headTurnTime": 0.5,
        "targetNpcAlias": "",
        "lookAtTargetType": "NONE",
        "targetNpcLookAtPoint": "",
        "OAFJBHJHLJG": ""
      },
      {
        "$type": "MoleMole.Config.ConfigTeleportToAction",
        "type": "TELEPORT_TO",
        "aliasList": [
          "10376"
        ],
        "position": {
          "x": -476.3576354980469,
          "y": 236.63906860351562,
          "z": 1266.3720703125
        },
        "forward": {
          "x": 6.626220703125,
          "y": -1.68817138671875,
          "z": -5.33203125
        },
        "_posBindMovingTargetKey": "",
        "_forwardBindMovingTargetKey": ""
      },
      {
        "$type": "LJLMDHDCAMK",
        "type": "LOOK_AT",
        "aliasList": [
          "10376"
        ],
        "enableHead": true,
        "useTargetPos": true,
        "enableAbsolute": true,
        "targetPosition": {
          "x": -394.17254638671875,
          "y": 213.70570373535156,
          "z": 1199.89453125
        },
        "headRotateVec": {
          "y": 5.0
        },
        "headTurnTime": 0.5,
        "targetNpcAlias": "",
        "lookAtTargetType": "NONE",
        "targetNpcLookAtPoint": "",
        "OAFJBHJHLJG": ""
      }
    ],
    [
      {
        "$type": "FJKIHHKJLMJ",
        "type": "CAMERA_MOVE",
        "duration": 15.0,
        "camPosOffset": {
          "x": -422.8911437988281,
          "y": 218.7587432861328,
          "z": 1213.397705078125
        },
        "camForwardTargetOffset": {
          "x": -422.02056884765625,
          "y": 218.43746948242188,
          "z": 1213.0250244140625
        },
        "camFov": 27.0,
        "cameraBlendType": "EaseInOutQuad",
        "NJBNNOMLKCK": {},
        "openCameraDither": false,
        "targetNpcAlias": "",
        "KJOEFBPOIIH": "",
        "IICFKKEBIEC": "",
        "EGEHEJEBLBJ": ""
      },
      {
        "$type": "PKKMAMONGEO",
        "type": "DIALOG",
        "aliasList": [
          "1005"
        ],
        "dialogID": 111229902,
        "protectTime": 0.5
      }
    ],
    [
      {
        "$type": "FJKIHHKJLMJ",
        "type": "CAMERA_MOVE",
        "duration": 1.0,
        "camPosOffset": {
          "x": -488.0585632324219,
          "y": 241.34170532226562,
          "z": 1268.4986572265625
        },
        "camForwardTargetOffset": {
          "x": -487.2347717285156,
          "y": 241.1337890625,
          "z": 1267.9713134765625
        },
        "camFov": 30.0,
        "lerpPattern": 6,
        "cameraBlendType": "EaseInOutCubic",
        "NJBNNOMLKCK": {},
        "openCameraDither": false,
        "targetNpcAlias": "",
        "KJOEFBPOIIH": "",
        "IICFKKEBIEC": "",
        "EGEHEJEBLBJ": ""
      },
      {
        "$type": "FJKIHHKJLMJ",
        "type": "CAMERA_MOVE",
        "delayTime": 0.10000000149011612,
        "duration": 15.0,
        "camPosOffset": {
          "x": -488.3015441894531,
          "y": 241.55889892578125,
          "z": 1269.0611572265625
        },
        "camForwardTargetOffset": {
          "x": -487.4922790527344,
          "y": 241.35098266601562,
          "z": 1268.51171875
        },
        "camFov": 31.0,
        "cameraBlendType": "EaseInOutQuad",
        "NJBNNOMLKCK": {},
        "openCameraDither": false,
        "targetNpcAlias": "",
        "KJOEFBPOIIH": "",
        "IICFKKEBIEC": "",
        "EGEHEJEBLBJ": ""
      },
      {
        "$type": "MoleMole.Config.ConfigCameraDOFAction",
        "type": "CAMERA_DOF",
        "enabled": true,
        "focusDistance": 300.0,
        "focusRange": 300.0,
        "nearFocalDistance": 12.0,
        "nearFocalTransDistance": 3.0,
        "dofBlurAmount": 1.0,
        "quality": 3
      },
      {
        "$type": "PKKMAMONGEO",
        "type": "DIALOG",
        "aliasList": [
          "10232"
        ],
        "dialogID": 111229903,
        "protectTime": 0.5
      }
    ],
    [
      {
        "$type": "MoleMole.Config.ConfigSimpleBlackScreenAction",
        "type": "SIMPLE_BLACK_SCREEN",
        "durationToBlack": 0.5,
        "durationKeepBlack": 1.0,
        "durationFromBlack": 0.5,
        "textMapID": ""
      },
      {
        "$type": "MoleMole.Config.ConfigTimeProtectAction",
        "type": "TIME_PROTECT",
        "duration": 0.699999988079071
      },
      {
        "$type": "FJKIHHKJLMJ",
        "type": "CAMERA_MOVE",
        "delayTime": 0.6000000238418579,
        "duration": 0.10000000149011612,
        "camForwardTargetOffset": {
          "z": 1.0
        },
        "camFov": 30.0,
        "lerpPattern": 6,
        "cameraBlendType": "EaseInOutCubic",
        "NJBNNOMLKCK": {},
        "openCameraDither": false,
        "targetNpcAlias": "",
        "KJOEFBPOIIH": "",
        "IICFKKEBIEC": "",
        "EGEHEJEBLBJ": ""
      },
      {
        "$type": "MoleMole.Config.ConfigVisibleInterAction",
        "type": "VISIBLE",
        "delayTime": 0.6000000238418579,
        "aliasList": [
          "10232"
        ],
        "_extraParam": ""
      },
      {
        "$type": "MoleMole.Config.ConfigVisibleInterAction",
        "type": "VISIBLE",
        "delayTime": 0.6000000238418579,
        "aliasList": [
          "10376"
        ],
        "_extraParam": ""
      }
    ]
  ],
  "groupId": [
    {
      "grpId": 2489617747,
      "nextGrpId": 2489617748
    },
    {
      "index": 1,
      "grpId": 2489617748,
      "nextGrpId": 2489617749
    },
    {
      "index": 2,
      "grpId": 2489617749,
      "nextGrpId": 2489617750
    },
    {
      "index": 3,
      "grpId": 2489617750,
      "nextGrpId": 2489617751
    }
  ],
  "freeStyleDic": {
    "10232": [],
    "10376": []
  }
}