{
  "luaDataPath": "",
  "startBlackKeepTime": 0.5,
  "entityBan": "",
  "disableNpcLod": true,
  "isAutoBanNpc": true,
  "isBanWidgetPet": true,
  "protectNpcMobileLod": true,
  "startFade": {
    "startFadeInDuration": 0.5,
    "startFadeOutDuration": 0.5
  },
  "endFade": {
    "startFadeOutDuration": 0.0
  },
  "actors": [
    {
      "alias": "Avatar",
      "visible": true,
      "bornPointName": "N10000005_T7326407",
      "relativePosType": "AVATAR_NEW",
      "relativePosNpcAlias": "",
      "_bindMovingTargetKey": ""
    },
    {
      "configID": 20936,
      "alias": "20936",
      "visible": true,
      "bornPointName": "N20935_T7326407",
      "removeActorType": "REMOVE",
      "relativePosType": "AVATAR_NEW",
      "relativePosNpcAlias": "",
      "_bindMovingTargetKey": ""
    },
    {
      "configID": 1005,
      "alias": "1005",
      "visible": true,
      "bornPointName": "N1005_T7326407",
      "relativePos": {
        "x": 0.5,
        "z": -0.5
      },
      "removeActorType": "REMOVE_WITH_DISAPPEAR",
      "relativePosType": "AVATAR_NEW",
      "relativePosNpcAlias": "",
      "_bindMovingTargetKey": ""
    },
    {
      "configID": 20935,
      "alias": "20935",
      "visible": true,
      "bornPointName": "N20936_T7326407",
      "removeActorType": "REMOVE",
      "relativePosType": "AVATAR_NEW",
      "relativePosNpcAlias": "",
      "_bindMovingTargetKey": ""
    }
  ],
  "group": [
    [
      {
        "$type": "MoleMole.Config.ConfigTimeProtectAction",
        "type": "TIME_PROTECT",
        "duration": 1.0,
        "actionId": 104
      },
      {
        "$type": "MoleMole.Config.ConfigBlackScreenAction",
        "type": "BLACK_SCREEN",
        "duration": 1.0,
        "actionId": 193,
        "blackScreenType": "KEEP_BLACK",
        "durationToBlack": 0.5,
        "durationKeepBlack": 1.0,
        "durationFromBlack": 0.5,
        "inteePos": "",
        "textMapID": "",
        "useTextFade": true
      },
      {
        "$type": "FJKIHHKJLMJ",
        "type": "CAMERA_MOVE",
        "delayTime": 0.6669999957084656,
        "duration": 0.0,
        "actionId": 356,
        "camPosOffset": {
          "x": -1379.9100341796875,
          "y": 33.97600173950195,
          "z": 5214.3759765625
        },
        "camForwardTargetOffset": {
          "x": -1379.0159912109375,
          "y": 33.91699981689453,
          "z": 5214.81982421875
        },
        "camFov": 55.823001861572266,
        "lerpPattern": 6,
        "cameraBlendType": "EaseInOutCubic",
        "NJBNNOMLKCK": {},
        "needZAxisRotate": true,
        "rotateAngle": -0.0020000000949949026,
        "openCameraDither": false,
        "targetNpcAlias": "",
        "closeTreeLeafDither": true,
        "KJOEFBPOIIH": "",
        "IICFKKEBIEC": "",
        "EGEHEJEBLBJ": ""
      },
      {
        "$type": "MoleMole.Config.ConfigTeleportToAction",
        "type": "TELEPORT_TO",
        "delayTime": 0.6669999957084656,
        "aliasList": [
          "Avatar"
        ],
        "actionId": 382,
        "position": {
          "x": -1379.010986328125,
          "y": 32.51499938964844,
          "z": 5216.84423828125
        },
        "forward": {
          "x": 0.9940000176429749,
          "z": 0.10999999940395355
        },
        "openLongDisTeleport": true,
        "_posBindMovingTargetKey": "",
        "_forwardBindMovingTargetKey": ""
      }
    ],
    [
      {
        "$type": "MoleMole.Config.ConfigBlackScreenAction",
        "type": "BLACK_SCREEN",
        "duration": 0.5,
        "actionId": 194,
        "blackScreenType": "FROM_BLACK",
        "durationToBlack": 0.5,
        "durationKeepBlack": 0.5,
        "durationFromBlack": 0.5,
        "inteePos": "",
        "textMapID": "",
        "useTextFade": true
      },
      {
        "$type": "FJKIHHKJLMJ",
        "type": "CAMERA_MOVE",
        "duration": 0.5,
        "actionId": 208,
        "camPosOffset": {
          "x": -1379.9100341796875,
          "y": 33.97600173950195,
          "z": 5214.3759765625
        },
        "camForwardTargetOffset": {
          "x": -1379.0159912109375,
          "y": 33.91699981689453,
          "z": 5214.81982421875
        },
        "camFov": 55.823001861572266,
        "lerpPattern": 6,
        "cameraBlendType": "EaseInOutCubic",
        "NJBNNOMLKCK": {},
        "needZAxisRotate": true,
        "rotateAngle": -0.0020000000949949026,
        "openCameraDither": false,
        "targetNpcAlias": "",
        "closeTreeLeafDither": true,
        "KJOEFBPOIIH": "",
        "IICFKKEBIEC": "",
        "EGEHEJEBLBJ": ""
      },
      {
        "$type": "PKKMAMONGEO",
        "type": "DIALOG",
        "aliasList": [
          "20936"
        ],
        "actionId": 107,
        "dialogID": 732640701,
        "protectTime": 2.0
      },
      {
        "$type": "MoleMole.Config.ConfigMoveToAction",
        "type": "MOVE_TO",
        "delayTime": 0.19499999284744263,
        "aliasList": [
          "1005"
        ],
        "actionId": 206,
        "moveType": "WALK",
        "routeList": [
          {
            "x": -1375.718994140625,
            "y": 32.84400177001953,
            "z": 5216.69189453125
          }
        ],
        "exactlyMove": true,
        "closeNavMesh": true,
        "openSetPos": true,
        "_bindMovingTargetKey": ""
      },
      {
        "$type": "MoleMole.Config.ConfigMoveToAction",
        "type": "MOVE_TO",
        "delayTime": 0.24300000071525574,
        "aliasList": [
          "Avatar"
        ],
        "actionId": 358,
        "moveType": "WALK",
        "routeList": [
          {
            "x": -1375.7559814453125,
            "y": 32.71200180053711,
            "z": 5217.4990234375
          }
        ],
        "exactlyMove": true,
        "closeNavMesh": true,
        "closeAvatarNavMesh": true,
        "openSetPos": true,
        "_bindMovingTargetKey": ""
      },
      {
        "$type": "MoleMole.Config.ConfigMoveToAction",
        "type": "MOVE_TO",
        "delayTime": 0.24300000071525574,
        "aliasList": [
          "Avatar"
        ],
        "actionId": 359,
        "moveType": "WALK",
        "routeList": [
          {
            "x": -1375.7559814453125,
            "y": 32.71200180053711,
            "z": 5217.4990234375
          }
        ],
        "exactlyMove": true,
        "closeNavMesh": true,
        "closeAvatarNavMesh": true,
        "openSetPos": true,
        "_bindMovingTargetKey": ""
      },
      {
        "$type": "FJKIHHKJLMJ",
        "type": "CAMERA_MOVE",
        "delayTime": 0.3709999918937683,
        "duration": 4.0,
        "actionId": 209,
        "camPosOffset": {
          "x": -1377.072998046875,
          "y": 34.02199935913086,
          "z": 5215.72998046875
        },
        "camForwardTargetOffset": {
          "x": -1376.156982421875,
          "y": 34.095001220703125,
          "z": 5216.125
        },
        "camFov": 55.823001861572266,
        "lerpPattern": 2,
        "cameraBlendType": "EaseInOutQuad",
        "NJBNNOMLKCK": {},
        "needZAxisRotate": true,
        "rotateAngle": -0.0020000000949949026,
        "openCameraDither": false,
        "targetNpcAlias": "",
        "closeTreeLeafDither": true,
        "KJOEFBPOIIH": "",
        "IICFKKEBIEC": "",
        "EGEHEJEBLBJ": ""
      },
      {
        "$type": "FABLGECDBCH",
        "type": "BODY_LANG",
        "delayTime": 0.4950000047683716,
        "aliasList": [
          "20936"
        ],
        "actionId": 207,
        "bodyLangParam": 1280,
        "forceDoFreeStyle": true,
        "canDoRepeatFreeStyle": false,
        "cantBackToIdleWhenSitLoop": true,
        "eventPatternSuiteKey": "",
        "FOHHKFAIAAJ": ""
      }
    ],
    [
      {
        "$type": "FJKIHHKJLMJ",
        "type": "CAMERA_MOVE",
        "duration": 0.5,
        "actionId": 210,
        "camPosOffset": {
          "x": -1374.6419677734375,
          "y": 33.94599914550781,
          "z": 5216.7587890625
        },
        "camForwardTargetOffset": {
          "x": -1375.60498046875,
          "y": 33.946998596191406,
          "z": 5217.02685546875
        },
        "camFov": 55.823001861572266,
        "lerpPattern": 6,
        "cameraBlendType": "EaseInOutCubic",
        "NJBNNOMLKCK": {},
        "needZAxisRotate": true,
        "rotateAngle": -0.0020000000949949026,
        "openCameraDither": false,
        "targetNpcAlias": "",
        "closeTreeLeafDither": true,
        "KJOEFBPOIIH": "",
        "IICFKKEBIEC": "",
        "EGEHEJEBLBJ": ""
      },
      {
        "$type": "PKKMAMONGEO",
        "type": "DIALOG",
        "aliasList": [
          "1005"
        ],
        "actionId": 109,
        "dialogID": 732640702,
        "protectTime": 4.0
      },
      {
        "$type": "LJLMDHDCAMK",
        "type": "LOOK_AT",
        "delayTime": 0.5519999861717224,
        "aliasList": [
          "Avatar"
        ],
        "actionId": 361,
        "enableHead": true,
        "headRotateVec": {
          "x": 50.0
        },
        "enableBody": true,
        "bodyAngle": 15.0,
        "headTurnTime": 0.5,
        "targetNpcAlias": "",
        "lookAtTargetType": "NONE",
        "openBackProtect": true,
        "targetNpcLookAtPoint": "",
        "OAFJBHJHLJG": ""
      },
      {
        "$type": "LJLMDHDCAMK",
        "type": "LOOK_AT",
        "delayTime": 0.6010000109672546,
        "aliasList": [
          "1005"
        ],
        "actionId": 289,
        "enableHead": true,
        "headTurnTime": 0.5,
        "targetNpcAlias": "Avatar",
        "openBackProtect": true,
        "targetNpcLookAtPoint": "",
        "OAFJBHJHLJG": ""
      },
      {
        "$type": "FABLGECDBCH",
        "type": "BODY_LANG",
        "delayTime": 0.9269999861717224,
        "aliasList": [
          "1005"
        ],
        "actionId": 287,
        "bodyLangParam": 1190,
        "forceDoFreeStyle": true,
        "canDoRepeatFreeStyle": false,
        "cantBackToIdleWhenSitLoop": true,
        "eventPatternSuiteKey": "",
        "FOHHKFAIAAJ": ""
      },
      {
        "$type": "FJKIHHKJLMJ",
        "type": "CAMERA_MOVE",
        "delayTime": 1.3639999628067017,
        "duration": 3.0,
        "actionId": 293,
        "camPosOffset": {
          "x": -1374.6419677734375,
          "y": 33.94599914550781,
          "z": 5216.7587890625
        },
        "camForwardTargetOffset": {
          "x": -1375.58203125,
          "y": 33.952999114990234,
          "z": 5217.09912109375
        },
        "camFov": 55.823001861572266,
        "lerpPattern": 2,
        "cameraBlendType": "EaseInOutQuad",
        "NJBNNOMLKCK": {},
        "needZAxisRotate": true,
        "rotateAngle": -0.0020000000949949026,
        "openCameraDither": false,
        "targetNpcAlias": "",
        "closeTreeLeafDither": true,
        "KJOEFBPOIIH": "",
        "IICFKKEBIEC": "",
        "EGEHEJEBLBJ": ""
      },
      {
        "$type": "HDGKHDNFMIM",
        "type": "DIALOG_SELECT",
        "delayTime": 2.003999948501587,
        "aliasList": [
          "Avatar"
        ],
        "actionId": 360,
        "dialogIDList": [
          732640703,
          732640736
        ],
        "grpIDList": [
          2467430639,
          3475905798
        ],
        "useGrpId": true,
        "countDownGrpId": 2467430635
      },
      {
        "$type": "FABLGECDBCH",
        "type": "BODY_LANG",
        "delayTime": 3.510999917984009,
        "aliasList": [
          "1005"
        ],
        "actionId": 288,
        "isContinue": true,
        "forceDoFreeStyle": true,
        "canDoRepeatFreeStyle": false,
        "cantBackToIdleWhenSitLoop": true,
        "eventPatternSuiteKey": "",
        "FOHHKFAIAAJ": ""
      },
      {
        "$type": "LJLMDHDCAMK",
        "type": "LOOK_AT",
        "delayTime": 3.5169999599456787,
        "aliasList": [
          "1005"
        ],
        "actionId": 290,
        "enableHead": true,
        "headRotateVec": {
          "y": -5.0
        },
        "headTurnTime": 0.5,
        "targetNpcAlias": "",
        "lookAtTargetType": "NONE",
        "openBackProtect": true,
        "targetNpcLookAtPoint": "",
        "OAFJBHJHLJG": ""
      },
      {
        "$type": "LJLMDHDCAMK",
        "type": "LOOK_AT",
        "delayTime": 3.7330000400543213,
        "aliasList": [
          "Avatar"
        ],
        "actionId": 362,
        "enableHead": true,
        "headRotateVec": {
          "y": -10.0
        },
        "headTurnTime": 0.5,
        "targetNpcAlias": "",
        "lookAtTargetType": "NONE",
        "openBackProtect": true,
        "targetNpcLookAtPoint": "",
        "OAFJBHJHLJG": ""
      }
    ],
    [
      {
        "$type": "FJKIHHKJLMJ",
        "type": "CAMERA_MOVE",
        "duration": 0.5,
        "actionId": 212,
        "camPosOffset": {
          "x": -1375.04296875,
          "y": 34.91699981689453,
          "z": 5215.9482421875
        },
        "camForwardTargetOffset": {
          "x": -1374.0770263671875,
          "y": 35.02299880981445,
          "z": 5216.18310546875
        },
        "camFov": 55.823001861572266,
        "lerpPattern": 6,
        "cameraBlendType": "EaseInOutCubic",
        "NJBNNOMLKCK": {},
        "needZAxisRotate": true,
        "rotateAngle": -0.0020000000949949026,
        "openCameraDither": false,
        "targetNpcAlias": "",
        "closeTreeLeafDither": true,
        "KJOEFBPOIIH": "",
        "IICFKKEBIEC": "",
        "EGEHEJEBLBJ": ""
      },
      {
        "$type": "PKKMAMONGEO",
        "type": "DIALOG",
        "aliasList": [
          "20936"
        ],
        "actionId": 112,
        "dialogID": 732640704,
        "protectTime": 1.0
      },
      {
        "$type": "FABLGECDBCH",
        "type": "BODY_LANG",
        "delayTime": 0.10499999672174454,
        "aliasList": [
          "20936"
        ],
        "actionId": 247,
        "bodyLangParam": 1280,
        "forceDoFreeStyle": true,
        "canDoRepeatFreeStyle": false,
        "cantBackToIdleWhenSitLoop": true,
        "eventPatternSuiteKey": "",
        "FOHHKFAIAAJ": ""
      },
      {
        "$type": "FJKIHHKJLMJ",
        "type": "CAMERA_MOVE",
        "delayTime": 0.39899998903274536,
        "duration": 1.7999999523162842,
        "actionId": 294,
        "camPosOffset": {
          "x": -1374.6080322265625,
          "y": 34.96500015258789,
          "z": 5216.05419921875
        },
        "camForwardTargetOffset": {
          "x": -1373.64404296875,
          "y": 35.097999572753906,
          "z": 5216.2861328125
        },
        "camFov": 55.823001861572266,
        "cameraBlendType": "EaseOutQuad",
        "NJBNNOMLKCK": {},
        "needZAxisRotate": true,
        "rotateAngle": -0.0020000000949949026,
        "openCameraDither": false,
        "targetNpcAlias": "",
        "closeTreeLeafDither": true,
        "KJOEFBPOIIH": "",
        "IICFKKEBIEC": "",
        "EGEHEJEBLBJ": ""
      }
    ],
    [
      {
        "$type": "PKKMAMONGEO",
        "type": "DIALOG",
        "aliasList": [
          "20936"
        ],
        "actionId": 114,
        "dialogID": 732640705,
        "protectTime": 0.5
      },
      {
        "$type": "FJKIHHKJLMJ",
        "type": "CAMERA_MOVE",
        "delayTime": 0.007000000216066837,
        "duration": 0.0,
        "actionId": 300,
        "camPosOffset": {
          "x": -1374.6080322265625,
          "y": 34.96500015258789,
          "z": 5216.05419921875
        },
        "camForwardTargetOffset": {
          "x": -1373.64404296875,
          "y": 35.097999572753906,
          "z": 5216.2861328125
        },
        "camFov": 55.823001861572266,
        "lerpPattern": 2,
        "cameraBlendType": "EaseInOutQuad",
        "NJBNNOMLKCK": {},
        "needZAxisRotate": true,
        "rotateAngle": -0.0020000000949949026,
        "openCameraDither": false,
        "targetNpcAlias": "",
        "closeTreeLeafDither": true,
        "KJOEFBPOIIH": "",
        "IICFKKEBIEC": "",
        "EGEHEJEBLBJ": ""
      },
      {
        "$type": "FABLGECDBCH",
        "type": "BODY_LANG",
        "delayTime": 0.3880000114440918,
        "aliasList": [
          "20936"
        ],
        "actionId": 248,
        "bodyLangParam": 1080,
        "forceDoFreeStyle": true,
        "canDoRepeatFreeStyle": false,
        "cantBackToIdleWhenSitLoop": true,
        "eventPatternSuiteKey": "",
        "FOHHKFAIAAJ": ""
      },
      {
        "$type": "FJKIHHKJLMJ",
        "type": "CAMERA_MOVE",
        "delayTime": 0.43299999833106995,
        "duration": 0.699999988079071,
        "actionId": 301,
        "camPosOffset": {
          "x": -1374.175048828125,
          "y": 35.02399826049805,
          "z": 5216.158203125
        },
        "camForwardTargetOffset": {
          "x": -1373.2110595703125,
          "y": 35.15700149536133,
          "z": 5216.39013671875
        },
        "camFov": 55.823001861572266,
        "cameraBlendType": "EaseOutQuad",
        "NJBNNOMLKCK": {},
        "needZAxisRotate": true,
        "rotateAngle": -0.0020000000949949026,
        "openCameraDither": false,
        "targetNpcAlias": "",
        "closeTreeLeafDither": true,
        "KJOEFBPOIIH": "",
        "IICFKKEBIEC": "",
        "EGEHEJEBLBJ": ""
      }
    ],
    [
      {
        "$type": "FJKIHHKJLMJ",
        "type": "CAMERA_MOVE",
        "duration": 0.0,
        "actionId": 213,
        "camPosOffset": {
          "x": -1374.175048828125,
          "y": 35.02399826049805,
          "z": 5216.158203125
        },
        "camForwardTargetOffset": {
          "x": -1373.2110595703125,
          "y": 35.15700149536133,
          "z": 5216.39013671875
        },
        "camFov": 55.823001861572266,
        "lerpPattern": 6,
        "cameraBlendType": "EaseInOutCubic",
        "NJBNNOMLKCK": {},
        "needZAxisRotate": true,
        "rotateAngle": -0.0020000000949949026,
        "openCameraDither": false,
        "targetNpcAlias": "",
        "closeTreeLeafDither": true,
        "KJOEFBPOIIH": "",
        "IICFKKEBIEC": "",
        "EGEHEJEBLBJ": ""
      },
      {
        "$type": "PKKMAMONGEO",
        "type": "DIALOG",
        "aliasList": [
          "20936"
        ],
        "actionId": 116,
        "dialogID": 732640706,
        "protectTime": 2.0
      },
      {
        "$type": "FJKIHHKJLMJ",
        "type": "CAMERA_MOVE",
        "delayTime": 0.14900000393390656,
        "duration": 1.5,
        "actionId": 214,
        "camPosOffset": {
          "x": -1374.175048828125,
          "y": 35.02399826049805,
          "z": 5216.158203125
        },
        "camForwardTargetOffset": {
          "x": -1373.6099853515625,
          "y": 34.99800109863281,
          "z": 5216.98291015625
        },
        "camFov": 55.823001861572266,
        "cameraBlendType": "EaseOutQuad",
        "NJBNNOMLKCK": {},
        "needZAxisRotate": true,
        "rotateAngle": -0.0020000000949949026,
        "openCameraDither": false,
        "targetNpcAlias": "",
        "closeTreeLeafDither": true,
        "KJOEFBPOIIH": "",
        "IICFKKEBIEC": "",
        "EGEHEJEBLBJ": ""
      },
      {
        "$type": "LJLMDHDCAMK",
        "type": "LOOK_AT",
        "delayTime": 0.17800000309944153,
        "aliasList": [
          "20936"
        ],
        "actionId": 249,
        "enableHead": true,
        "enableBody": true,
        "bodyAngle": 10.0,
        "headTurnTime": 0.5,
        "bodyTurnTime": 0.5,
        "targetNpcAlias": "20935",
        "openBackProtect": true,
        "targetNpcLookAtPoint": "",
        "OAFJBHJHLJG": ""
      },
      {
        "$type": "LJLMDHDCAMK",
        "type": "LOOK_AT",
        "delayTime": 0.6150000095367432,
        "aliasList": [
          "20935"
        ],
        "actionId": 250,
        "enableHead": true,
        "headTurnTime": 0.5,
        "targetNpcAlias": "20936",
        "openBackProtect": true,
        "targetNpcLookAtPoint": "",
        "OAFJBHJHLJG": ""
      }
    ],
    [
      {
        "$type": "PKKMAMONGEO",
        "type": "DIALOG",
        "aliasList": [
          "20935"
        ],
        "actionId": 118,
        "dialogID": 732640707,
        "protectTime": 0.5
      }
    ],
    [
      {
        "$type": "FJKIHHKJLMJ",
        "type": "CAMERA_MOVE",
        "duration": 0.5,
        "actionId": 215,
        "camPosOffset": {
          "x": -1375.0880126953125,
          "y": 35.457000732421875,
          "z": 5215.9951171875
        },
        "camForwardTargetOffset": {
          "x": -1374.1290283203125,
          "y": 35.25899887084961,
          "z": 5216.1982421875
        },
        "camFov": 55.823001861572266,
        "lerpPattern": 6,
        "cameraBlendType": "EaseInOutCubic",
        "NJBNNOMLKCK": {},
        "needZAxisRotate": true,
        "rotateAngle": -0.0020000000949949026,
        "openCameraDither": false,
        "targetNpcAlias": "",
        "closeTreeLeafDither": true,
        "KJOEFBPOIIH": "",
        "IICFKKEBIEC": "",
        "EGEHEJEBLBJ": ""
      },
      {
        "$type": "PKKMAMONGEO",
        "type": "DIALOG",
        "aliasList": [
          "20936"
        ],
        "actionId": 120,
        "dialogID": 732640708,
        "protectTime": 0.5
      },
      {
        "$type": "FABLGECDBCH",
        "type": "BODY_LANG",
        "delayTime": 0.13699999451637268,
        "aliasList": [
          "20936"
        ],
        "actionId": 216,
        "bodyLangParam": 1080,
        "forceDoFreeStyle": true,
        "canDoRepeatFreeStyle": false,
        "cantBackToIdleWhenSitLoop": true,
        "eventPatternSuiteKey": "",
        "FOHHKFAIAAJ": ""
      },
      {
        "$type": "FJKIHHKJLMJ",
        "type": "CAMERA_MOVE",
        "delayTime": 0.45399999618530273,
        "duration": 1.0,
        "actionId": 218,
        "camPosOffset": {
          "x": -1374.198974609375,
          "y": 35.31700134277344,
          "z": 5216.1748046875
        },
        "camForwardTargetOffset": {
          "x": -1373.20703125,
          "y": 35.345001220703125,
          "z": 5216.2958984375
        },
        "camFov": 55.823001861572266,
        "cameraBlendType": "EaseOutQuad",
        "NJBNNOMLKCK": {},
        "needZAxisRotate": true,
        "rotateAngle": -0.0020000000949949026,
        "openCameraDither": false,
        "targetNpcAlias": "",
        "closeTreeLeafDither": true,
        "KJOEFBPOIIH": "",
        "IICFKKEBIEC": "",
        "EGEHEJEBLBJ": ""
      },
      {
        "$type": "FABLGECDBCH",
        "type": "BODY_LANG",
        "delayTime": 0.49300000071525574,
        "aliasList": [
          "1005"
        ],
        "actionId": 296,
        "bodyLangParam": 1050,
        "forceDoFreeStyle": true,
        "canDoRepeatFreeStyle": false,
        "cantBackToIdleWhenSitLoop": true,
        "eventPatternSuiteKey": "",
        "FOHHKFAIAAJ": ""
      },
      {
        "$type": "FABLGECDBCH",
        "type": "BODY_LANG",
        "delayTime": 0.5619999766349792,
        "aliasList": [
          "Avatar"
        ],
        "actionId": 363,
        "bodyLangParam": 1230,
        "forceDoFreeStyle": true,
        "canDoRepeatFreeStyle": false,
        "cantBackToIdleWhenSitLoop": true,
        "eventPatternSuiteKey": "",
        "FOHHKFAIAAJ": ""
      }
    ],
    [
      {
        "$type": "PKKMAMONGEO",
        "type": "DIALOG",
        "aliasList": [
          "20935"
        ],
        "actionId": 122,
        "dialogID": 732640709,
        "protectTime": 1.0
      },
      {
        "$type": "FJKIHHKJLMJ",
        "type": "CAMERA_MOVE",
        "delayTime": 0.23199999332427979,
        "duration": 1.0,
        "actionId": 252,
        "camPosOffset": {
          "x": -1374.6390380859375,
          "y": 35.33599853515625,
          "z": 5216.08203125
        },
        "camForwardTargetOffset": {
          "x": -1373.9300537109375,
          "y": 35.20000076293945,
          "z": 5216.77294921875
        },
        "camFov": 55.823001861572266,
        "lerpPattern": 2,
        "cameraBlendType": "EaseInOutQuad",
        "NJBNNOMLKCK": {},
        "needZAxisRotate": true,
        "rotateAngle": -0.0020000000949949026,
        "openCameraDither": false,
        "targetNpcAlias": "",
        "closeTreeLeafDither": true,
        "KJOEFBPOIIH": "",
        "IICFKKEBIEC": "",
        "EGEHEJEBLBJ": ""
      }
    ],
    [
      {
        "$type": "FJKIHHKJLMJ",
        "type": "CAMERA_MOVE",
        "duration": 0.5,
        "actionId": 219,
        "camPosOffset": {
          "x": -1376.4959716796875,
          "y": 34.402000427246094,
          "z": 5215.87890625
        },
        "camForwardTargetOffset": {
          "x": -1375.623046875,
          "y": 34.40599822998047,
          "z": 5216.3662109375
        },
        "camFov": 55.823001861572266,
        "lerpPattern": 6,
        "cameraBlendType": "EaseInOutCubic",
        "NJBNNOMLKCK": {},
        "needZAxisRotate": true,
        "rotateAngle": -0.0020000000949949026,
        "openCameraDither": false,
        "targetNpcAlias": "",
        "closeTreeLeafDither": true,
        "KJOEFBPOIIH": "",
        "IICFKKEBIEC": "",
        "EGEHEJEBLBJ": ""
      },
      {
        "$type": "PKKMAMONGEO",
        "type": "DIALOG",
        "aliasList": [
          "20936"
        ],
        "actionId": 124,
        "dialogID": 732640710,
        "protectTime": 0.5
      }
    ],
    [
      {
        "$type": "PKKMAMONGEO",
        "type": "DIALOG",
        "aliasList": [
          "20935"
        ],
        "actionId": 126,
        "dialogID": 732640711,
        "protectTime": 2.0
      },
      {
        "$type": "FABLGECDBCH",
        "type": "BODY_LANG",
        "delayTime": 1.722000002861023,
        "aliasList": [
          "20936"
        ],
        "actionId": 253,
        "isContinue": true,
        "forceDoFreeStyle": true,
        "canDoRepeatFreeStyle": false,
        "cantBackToIdleWhenSitLoop": true,
        "eventPatternSuiteKey": "",
        "FOHHKFAIAAJ": ""
      }
    ],
    [
      {
        "$type": "FJKIHHKJLMJ",
        "type": "CAMERA_MOVE",
        "duration": 0.5,
        "actionId": 346,
        "camPosOffset": {
          "x": -1373.7120361328125,
          "y": 35.448001861572266,
          "z": 5217.955078125
        },
        "camForwardTargetOffset": {
          "x": -1373.3160400390625,
          "y": 35.263999938964844,
          "z": 5218.85498046875
        },
        "camFov": 55.823001861572266,
        "lerpPattern": 6,
        "cameraBlendType": "EaseInOutCubic",
        "NJBNNOMLKCK": {},
        "needZAxisRotate": true,
        "rotateAngle": -0.0020000000949949026,
        "openCameraDither": false,
        "targetNpcAlias": "",
        "closeTreeLeafDither": true,
        "KJOEFBPOIIH": "",
        "IICFKKEBIEC": "",
        "EGEHEJEBLBJ": ""
      },
      {
        "$type": "PKKMAMONGEO",
        "type": "DIALOG",
        "aliasList": [
          "20935"
        ],
        "actionId": 128,
        "dialogID": 732640712,
        "protectTime": 2.0
      },
      {
        "$type": "LJLMDHDCAMK",
        "type": "LOOK_AT",
        "delayTime": 0.20800000429153442,
        "aliasList": [
          "20935"
        ],
        "actionId": 255,
        "headTurnTime": 0.5,
        "targetNpcAlias": "",
        "openBackProtect": true,
        "targetNpcLookAtPoint": "",
        "OAFJBHJHLJG": ""
      },
      {
        "$type": "FABLGECDBCH",
        "type": "BODY_LANG",
        "delayTime": 0.550000011920929,
        "aliasList": [
          "Avatar"
        ],
        "actionId": 364,
        "isContinue": true,
        "forceDoFreeStyle": true,
        "canDoRepeatFreeStyle": false,
        "cantBackToIdleWhenSitLoop": true,
        "eventPatternSuiteKey": "",
        "FOHHKFAIAAJ": ""
      },
      {
        "$type": "FABLGECDBCH",
        "type": "BODY_LANG",
        "delayTime": 0.7440000176429749,
        "aliasList": [
          "1005"
        ],
        "actionId": 279,
        "bodyLangParam": 1060,
        "forceDoFreeStyle": true,
        "canDoRepeatFreeStyle": false,
        "cantBackToIdleWhenSitLoop": true,
        "eventPatternSuiteKey": "",
        "FOHHKFAIAAJ": ""
      },
      {
        "$type": "FABLGECDBCH",
        "type": "BODY_LANG",
        "delayTime": 2.9619998931884766,
        "aliasList": [
          "1005"
        ],
        "actionId": 298,
        "isContinue": true,
        "forceDoFreeStyle": true,
        "canDoRepeatFreeStyle": false,
        "cantBackToIdleWhenSitLoop": true,
        "eventPatternSuiteKey": "",
        "FOHHKFAIAAJ": ""
      }
    ],
    [
      {
        "$type": "FJKIHHKJLMJ",
        "type": "CAMERA_MOVE",
        "duration": 0.5,
        "actionId": 347,
        "camPosOffset": {
          "x": -1376.4959716796875,
          "y": 34.402000427246094,
          "z": 5215.87890625
        },
        "camForwardTargetOffset": {
          "x": -1375.623046875,
          "y": 34.40599822998047,
          "z": 5216.3662109375
        },
        "camFov": 55.823001861572266,
        "lerpPattern": 6,
        "cameraBlendType": "EaseInOutCubic",
        "NJBNNOMLKCK": {},
        "needZAxisRotate": true,
        "rotateAngle": -0.0020000000949949026,
        "openCameraDither": false,
        "targetNpcAlias": "",
        "closeTreeLeafDither": true,
        "KJOEFBPOIIH": "",
        "IICFKKEBIEC": "",
        "EGEHEJEBLBJ": ""
      },
      {
        "$type": "PKKMAMONGEO",
        "type": "DIALOG",
        "aliasList": [
          "20936"
        ],
        "actionId": 130,
        "dialogID": 732640713,
        "protectTime": 1.0
      },
      {
        "$type": "FABLGECDBCH",
        "type": "BODY_LANG",
        "aliasList": [
          "20936"
        ],
        "actionId": 348,
        "bodyLangParam": 1280,
        "forceDoFreeStyle": true,
        "canDoRepeatFreeStyle": false,
        "cantBackToIdleWhenSitLoop": true,
        "eventPatternSuiteKey": "",
        "FOHHKFAIAAJ": ""
      }
    ],
    [
      {
        "$type": "PKKMAMONGEO",
        "type": "DIALOG",
        "aliasList": [
          "20936"
        ],
        "actionId": 132,
        "dialogID": 732640714,
        "protectTime": 3.0
      },
      {
        "$type": "FABLGECDBCH",
        "type": "BODY_LANG",
        "delayTime": 0.05400000140070915,
        "aliasList": [
          "20936"
        ],
        "actionId": 257,
        "isContinue": true,
        "forceDoFreeStyle": true,
        "canDoRepeatFreeStyle": false,
        "cantBackToIdleWhenSitLoop": true,
        "eventPatternSuiteKey": "",
        "FOHHKFAIAAJ": ""
      },
      {
        "$type": "LJLMDHDCAMK",
        "type": "LOOK_AT",
        "delayTime": 0.23499999940395355,
        "aliasList": [
          "20935"
        ],
        "actionId": 258,
        "enableHead": true,
        "headTurnTime": 0.5,
        "targetNpcAlias": "Avatar",
        "openBackProtect": true,
        "targetNpcLookAtPoint": "",
        "OAFJBHJHLJG": ""
      },
      {
        "$type": "LJLMDHDCAMK",
        "type": "LOOK_AT",
        "delayTime": 0.2630000114440918,
        "aliasList": [
          "20936"
        ],
        "actionId": 256,
        "enableHead": true,
        "headTurnTime": 0.5,
        "targetNpcAlias": "1005",
        "openBackProtect": true,
        "targetNpcLookAtPoint": "",
        "OAFJBHJHLJG": ""
      },
      {
        "$type": "FJKIHHKJLMJ",
        "type": "CAMERA_MOVE",
        "delayTime": 2.6570000648498535,
        "duration": 0.5,
        "actionId": 341,
        "camPosOffset": {
          "x": -1374.6949462890625,
          "y": 34.0099983215332,
          "z": 5217.02099609375
        },
        "camForwardTargetOffset": {
          "x": -1375.6939697265625,
          "y": 33.99300003051758,
          "z": 5217.05615234375
        },
        "camFov": 55.823001861572266,
        "lerpPattern": 6,
        "cameraBlendType": "EaseInOutCubic",
        "NJBNNOMLKCK": {},
        "needZAxisRotate": true,
        "rotateAngle": -0.0020000000949949026,
        "openCameraDither": false,
        "targetNpcAlias": "",
        "closeTreeLeafDither": true,
        "KJOEFBPOIIH": "",
        "IICFKKEBIEC": "",
        "EGEHEJEBLBJ": ""
      },
      {
        "$type": "FABLGECDBCH",
        "type": "BODY_LANG",
        "delayTime": 2.878999948501587,
        "aliasList": [
          "1005"
        ],
        "actionId": 281,
        "bodyLangParam": 1190,
        "forceDoFreeStyle": true,
        "canDoRepeatFreeStyle": false,
        "cantBackToIdleWhenSitLoop": true,
        "eventPatternSuiteKey": "",
        "FOHHKFAIAAJ": ""
      }
    ],
    [
      {
        "$type": "FJKIHHKJLMJ",
        "type": "CAMERA_MOVE",
        "duration": 0.5,
        "actionId": 220,
        "camPosOffset": {
          "x": -1374.6949462890625,
          "y": 34.0099983215332,
          "z": 5217.02099609375
        },
        "camForwardTargetOffset": {
          "x": -1375.6939697265625,
          "y": 33.99300003051758,
          "z": 5217.05615234375
        },
        "camFov": 55.823001861572266,
        "lerpPattern": 6,
        "cameraBlendType": "EaseInOutCubic",
        "NJBNNOMLKCK": {},
        "needZAxisRotate": true,
        "rotateAngle": -0.0020000000949949026,
        "openCameraDither": false,
        "targetNpcAlias": "",
        "closeTreeLeafDither": true,
        "KJOEFBPOIIH": "",
        "IICFKKEBIEC": "",
        "EGEHEJEBLBJ": ""
      },
      {
        "$type": "PKKMAMONGEO",
        "type": "DIALOG",
        "aliasList": [
          "1005"
        ],
        "actionId": 134,
        "dialogID": 732640715,
        "protectTime": 3.0
      },
      {
        "$type": "FABLGECDBCH",
        "type": "BODY_LANG",
        "delayTime": 0.02800000086426735,
        "aliasList": [
          "1005"
        ],
        "actionId": 259,
        "bodyLangParam": 4030,
        "forceDoFreeStyle": true,
        "canDoRepeatFreeStyle": false,
        "cantBackToIdleWhenSitLoop": true,
        "eventPatternSuiteKey": "",
        "FOHHKFAIAAJ": ""
      },
      {
        "$type": "HDGKHDNFMIM",
        "type": "DIALOG_SELECT",
        "delayTime": 1.1360000371932983,
        "aliasList": [
          "Avatar"
        ],
        "actionId": 365,
        "dialogIDList": [
          732640716
        ],
        "grpIDList": [
          3475905738
        ],
        "useGrpId": true,
        "countDownGrpId": 2467430635
      },
      {
        "$type": "FABLGECDBCH",
        "type": "BODY_LANG",
        "delayTime": 1.7569999694824219,
        "aliasList": [
          "1005"
        ],
        "actionId": 260,
        "bodyLangParam": 4040,
        "forceDoFreeStyle": true,
        "canDoRepeatFreeStyle": false,
        "cantBackToIdleWhenSitLoop": true,
        "eventPatternSuiteKey": "",
        "FOHHKFAIAAJ": ""
      },
      {
        "$type": "FJKIHHKJLMJ",
        "type": "CAMERA_MOVE",
        "delayTime": 2.1489999294281006,
        "duration": 1.5,
        "actionId": 302,
        "camPosOffset": {
          "x": -1374.6949462890625,
          "y": 34.0099983215332,
          "z": 5217.02099609375
        },
        "camForwardTargetOffset": {
          "x": -1375.68994140625,
          "y": 33.98699951171875,
          "z": 5217.119140625
        },
        "camFov": 55.823001861572266,
        "lerpPattern": 2,
        "cameraBlendType": "EaseInOutQuad",
        "NJBNNOMLKCK": {},
        "needZAxisRotate": true,
        "rotateAngle": -0.0020000000949949026,
        "openCameraDither": false,
        "targetNpcAlias": "",
        "closeTreeLeafDither": true,
        "KJOEFBPOIIH": "",
        "IICFKKEBIEC": "",
        "EGEHEJEBLBJ": ""
      },
      {
        "$type": "FABLGECDBCH",
        "type": "BODY_LANG",
        "delayTime": 3.4760000705718994,
        "aliasList": [
          "1005"
        ],
        "actionId": 299,
        "isContinue": true,
        "forceDoFreeStyle": true,
        "canDoRepeatFreeStyle": false,
        "cantBackToIdleWhenSitLoop": true,
        "eventPatternSuiteKey": "",
        "FOHHKFAIAAJ": ""
      }
    ],
    [
      {
        "$type": "FJKIHHKJLMJ",
        "type": "CAMERA_MOVE",
        "duration": 0.0,
        "actionId": 221,
        "camPosOffset": {
          "x": -1374.864013671875,
          "y": 34.46900177001953,
          "z": 5215.90283203125
        },
        "camForwardTargetOffset": {
          "x": -1373.8909912109375,
          "y": 34.25,
          "z": 5215.97509765625
        },
        "camFov": 55.823001861572266,
        "lerpPattern": 6,
        "cameraBlendType": "EaseInOutCubic",
        "NJBNNOMLKCK": {},
        "needZAxisRotate": true,
        "rotateAngle": -0.0020000000949949026,
        "openCameraDither": false,
        "targetNpcAlias": "",
        "closeTreeLeafDither": true,
        "KJOEFBPOIIH": "",
        "IICFKKEBIEC": "",
        "EGEHEJEBLBJ": ""
      },
      {
        "$type": "PKKMAMONGEO",
        "type": "DIALOG",
        "aliasList": [
          "20936"
        ],
        "actionId": 137,
        "dialogID": 732640717,
        "protectTime": 2.5
      },
      {
        "$type": "FJKIHHKJLMJ",
        "type": "CAMERA_MOVE",
        "delayTime": 0.43299999833106995,
        "duration": 2.0,
        "actionId": 222,
        "camPosOffset": {
          "x": -1374.2049560546875,
          "y": 35.12200164794922,
          "z": 5216.04296875
        },
        "camForwardTargetOffset": {
          "x": -1373.22705078125,
          "y": 35.18299865722656,
          "z": 5216.2412109375
        },
        "camFov": 55.823001861572266,
        "lerpPattern": 2,
        "cameraBlendType": "EaseInOutQuad",
        "NJBNNOMLKCK": {},
        "needZAxisRotate": true,
        "rotateAngle": -0.0020000000949949026,
        "openCameraDither": false,
        "targetNpcAlias": "",
        "closeTreeLeafDither": true,
        "KJOEFBPOIIH": "",
        "IICFKKEBIEC": "",
        "EGEHEJEBLBJ": ""
      },
      {
        "$type": "LJLMDHDCAMK",
        "type": "LOOK_AT",
        "delayTime": 0.45899999141693115,
        "aliasList": [
          "20936"
        ],
        "actionId": 283,
        "enableHead": true,
        "enableBody": true,
        "bodyAngle": 10.0,
        "headTurnTime": 0.5,
        "bodyTurnTime": 0.4000000059604645,
        "targetNpcAlias": "20935",
        "openBackProtect": true,
        "targetNpcLookAtPoint": "",
        "OAFJBHJHLJG": ""
      },
      {
        "$type": "FABLGECDBCH",
        "type": "BODY_LANG",
        "delayTime": 0.6119999885559082,
        "aliasList": [
          "20936"
        ],
        "actionId": 282,
        "bodyLangParam": 1280,
        "forceDoFreeStyle": true,
        "canDoRepeatFreeStyle": false,
        "cantBackToIdleWhenSitLoop": true,
        "eventPatternSuiteKey": "",
        "FOHHKFAIAAJ": ""
      }
    ],
    [
      {
        "$type": "PKKMAMONGEO",
        "type": "DIALOG",
        "aliasList": [
          "20936"
        ],
        "actionId": 139,
        "dialogID": 732640718,
        "protectTime": 1.0
      }
    ],
    [
      {
        "$type": "FJKIHHKJLMJ",
        "type": "CAMERA_MOVE",
        "duration": 0.0,
        "actionId": 223,
        "camPosOffset": {
          "x": -1374.0679931640625,
          "y": 35.145999908447266,
          "z": 5218.02880859375
        },
        "camForwardTargetOffset": {
          "x": -1373.4090576171875,
          "y": 35.167999267578125,
          "z": 5218.77978515625
        },
        "camFov": 55.823001861572266,
        "lerpPattern": 6,
        "cameraBlendType": "EaseInOutCubic",
        "NJBNNOMLKCK": {},
        "needZAxisRotate": true,
        "rotateAngle": -0.0020000000949949026,
        "openCameraDither": false,
        "targetNpcAlias": "",
        "closeTreeLeafDither": true,
        "KJOEFBPOIIH": "",
        "IICFKKEBIEC": "",
        "EGEHEJEBLBJ": ""
      },
      {
        "$type": "PKKMAMONGEO",
        "type": "DIALOG",
        "aliasList": [
          "20935"
        ],
        "actionId": 141,
        "dialogID": 732640719,
        "protectTime": 1.5
      },
      {
        "$type": "LJLMDHDCAMK",
        "type": "LOOK_AT",
        "delayTime": 0.06599999964237213,
        "aliasList": [
          "20935"
        ],
        "actionId": 261,
        "enableHead": true,
        "headRotateVec": {
          "x": -30.0,
          "y": -5.0
        },
        "enableBody": true,
        "bodyAngle": -15.0,
        "headTurnTime": 0.5,
        "targetNpcAlias": "20936",
        "lookAtTargetType": "NONE",
        "openBackProtect": true,
        "targetNpcLookAtPoint": "",
        "OAFJBHJHLJG": ""
      },
      {
        "$type": "FJKIHHKJLMJ",
        "type": "CAMERA_MOVE",
        "delayTime": 0.4580000042915344,
        "duration": 3.0,
        "actionId": 351,
        "camPosOffset": {
          "x": -1374.0679931640625,
          "y": 35.145999908447266,
          "z": 5218.02880859375
        },
        "camForwardTargetOffset": {
          "x": -1373.407958984375,
          "y": 35.2130012512207,
          "z": 5218.77685546875
        },
        "camFov": 50.0,
        "lerpPattern": 2,
        "cameraBlendType": "EaseInOutQuad",
        "NJBNNOMLKCK": {},
        "needZAxisRotate": true,
        "rotateAngle": -0.0020000000949949026,
        "openCameraDither": false,
        "targetNpcAlias": "",
        "closeTreeLeafDither": true,
        "KJOEFBPOIIH": "",
        "IICFKKEBIEC": "",
        "EGEHEJEBLBJ": ""
      }
    ],
    [
      {
        "$type": "FJKIHHKJLMJ",
        "type": "CAMERA_MOVE",
        "duration": 0.0,
        "actionId": 224,
        "camPosOffset": {
          "x": -1374.5250244140625,
          "y": 34.652000427246094,
          "z": 5216.56982421875
        },
        "camForwardTargetOffset": {
          "x": -1373.5880126953125,
          "y": 34.99399948120117,
          "z": 5216.4951171875
        },
        "camFov": 55.823001861572266,
        "lerpPattern": 6,
        "cameraBlendType": "EaseInOutCubic",
        "NJBNNOMLKCK": {},
        "needZAxisRotate": true,
        "rotateAngle": -0.0020000000949949026,
        "openCameraDither": false,
        "targetNpcAlias": "",
        "closeTreeLeafDither": true,
        "KJOEFBPOIIH": "",
        "IICFKKEBIEC": "",
        "EGEHEJEBLBJ": ""
      },
      {
        "$type": "PKKMAMONGEO",
        "type": "DIALOG",
        "aliasList": [
          "20936"
        ],
        "actionId": 143,
        "dialogID": 732640720,
        "protectTime": 2.0
      },
      {
        "$type": "FABLGECDBCH",
        "type": "BODY_LANG",
        "delayTime": 0.1940000057220459,
        "aliasList": [
          "20936"
        ],
        "actionId": 228,
        "bodyLangParam": 91000,
        "forceDoFreeStyle": true,
        "canDoRepeatFreeStyle": false,
        "cantBackToIdleWhenSitLoop": true,
        "eventPatternSuiteKey": "",
        "FOHHKFAIAAJ": ""
      },
      {
        "$type": "FJKIHHKJLMJ",
        "type": "CAMERA_MOVE",
        "delayTime": 0.7179999947547913,
        "duration": 0.699999988079071,
        "actionId": 225,
        "camPosOffset": {
          "x": -1374.467041015625,
          "y": 34.409000396728516,
          "z": 5216.52587890625
        },
        "camForwardTargetOffset": {
          "x": -1373.4759521484375,
          "y": 34.38600158691406,
          "z": 5216.39599609375
        },
        "camFov": 55.823001861572266,
        "lerpPattern": 2,
        "cameraBlendType": "EaseOutQuad",
        "NJBNNOMLKCK": {},
        "needZAxisRotate": true,
        "rotateAngle": -0.0020000000949949026,
        "openCameraDither": false,
        "targetNpcAlias": "",
        "closeTreeLeafDither": true,
        "KJOEFBPOIIH": "",
        "IICFKKEBIEC": "",
        "EGEHEJEBLBJ": ""
      }
    ],
    [
      {
        "$type": "PKKMAMONGEO",
        "type": "DIALOG",
        "aliasList": [
          "20936"
        ],
        "actionId": 145,
        "dialogID": 732640721,
        "protectTime": 1.0
      }
    ],
    [
      {
        "$type": "PKKMAMONGEO",
        "type": "DIALOG",
        "aliasList": [
          "20935"
        ],
        "actionId": 147,
        "dialogID": 732640722,
        "protectTime": 1.5
      },
      {
        "$type": "FJKIHHKJLMJ",
        "type": "CAMERA_MOVE",
        "delayTime": 0.007000000216066837,
        "duration": 0.0,
        "actionId": 226,
        "camPosOffset": {
          "x": -1373.7659912109375,
          "y": 34.33300018310547,
          "z": 5217.4072265625
        },
        "camForwardTargetOffset": {
          "x": -1373.363037109375,
          "y": 34.604000091552734,
          "z": 5218.28076171875
        },
        "camFov": 55.823001861572266,
        "lerpPattern": 6,
        "cameraBlendType": "EaseInOutCubic",
        "NJBNNOMLKCK": {},
        "needZAxisRotate": true,
        "rotateAngle": -0.0020000000949949026,
        "openCameraDither": false,
        "targetNpcAlias": "",
        "closeTreeLeafDither": true,
        "KJOEFBPOIIH": "",
        "IICFKKEBIEC": "",
        "EGEHEJEBLBJ": ""
      },
      {
        "$type": "FJKIHHKJLMJ",
        "type": "CAMERA_MOVE",
        "delayTime": 0.19699999690055847,
        "duration": 1.0,
        "actionId": 284,
        "camPosOffset": {
          "x": -1373.583984375,
          "y": 34.45500183105469,
          "z": 5217.80078125
        },
        "camForwardTargetOffset": {
          "x": -1373.2020263671875,
          "y": 34.7859992980957,
          "z": 5218.6640625
        },
        "camFov": 55.823001861572266,
        "lerpPattern": 2,
        "cameraBlendType": "EaseInOutQuad",
        "NJBNNOMLKCK": {},
        "needZAxisRotate": true,
        "rotateAngle": -0.0020000000949949026,
        "openCameraDither": false,
        "targetNpcAlias": "",
        "closeTreeLeafDither": true,
        "KJOEFBPOIIH": "",
        "IICFKKEBIEC": "",
        "EGEHEJEBLBJ": ""
      }
    ],
    [
      {
        "$type": "FJKIHHKJLMJ",
        "type": "CAMERA_MOVE",
        "duration": 0.5,
        "actionId": 227,
        "camPosOffset": {
          "x": -1376.6529541015625,
          "y": 33.959999084472656,
          "z": 5215.73876953125
        },
        "camForwardTargetOffset": {
          "x": -1375.7989501953125,
          "y": 34.08100128173828,
          "z": 5216.2451171875
        },
        "camFov": 55.823001861572266,
        "lerpPattern": 6,
        "cameraBlendType": "EaseInOutCubic",
        "NJBNNOMLKCK": {},
        "needZAxisRotate": true,
        "rotateAngle": -0.0020000000949949026,
        "openCameraDither": false,
        "targetNpcAlias": "",
        "closeTreeLeafDither": true,
        "KJOEFBPOIIH": "",
        "IICFKKEBIEC": "",
        "EGEHEJEBLBJ": ""
      },
      {
        "$type": "PKKMAMONGEO",
        "type": "DIALOG",
        "aliasList": [
          "20936"
        ],
        "actionId": 149,
        "dialogID": 732640723,
        "protectTime": 1.5
      },
      {
        "$type": "FABLGECDBCH",
        "type": "BODY_LANG",
        "delayTime": 0.14000000059604645,
        "aliasList": [
          "20936"
        ],
        "actionId": 229,
        "isContinue": true,
        "forceDoFreeStyle": true,
        "canDoRepeatFreeStyle": false,
        "cantBackToIdleWhenSitLoop": true,
        "eventPatternSuiteKey": "",
        "FOHHKFAIAAJ": ""
      },
      {
        "$type": "FABLGECDBCH",
        "type": "BODY_LANG",
        "delayTime": 0.32499998807907104,
        "aliasList": [
          "Avatar"
        ],
        "actionId": 366,
        "bodyLangParam": 4040,
        "forceDoFreeStyle": true,
        "canDoRepeatFreeStyle": false,
        "cantBackToIdleWhenSitLoop": true,
        "eventPatternSuiteKey": "",
        "FOHHKFAIAAJ": ""
      },
      {
        "$type": "FABLGECDBCH",
        "type": "BODY_LANG",
        "delayTime": 0.4659999907016754,
        "aliasList": [
          "1005"
        ],
        "actionId": 262,
        "bodyLangParam": 1410,
        "forceDoFreeStyle": true,
        "canDoRepeatFreeStyle": false,
        "cantBackToIdleWhenSitLoop": true,
        "eventPatternSuiteKey": "",
        "FOHHKFAIAAJ": ""
      }
    ],
    [
      {
        "$type": "PKKMAMONGEO",
        "type": "DIALOG",
        "aliasList": [
          "1005"
        ],
        "actionId": 151,
        "dialogID": 732640724,
        "protectTime": 2.0
      },
      {
        "$type": "FABLGECDBCH",
        "type": "BODY_LANG",
        "delayTime": 0.1509999930858612,
        "aliasList": [
          "1005"
        ],
        "actionId": 263,
        "bodyLangParam": 1130,
        "forceDoFreeStyle": true,
        "canDoRepeatFreeStyle": false,
        "cantBackToIdleWhenSitLoop": true,
        "eventPatternSuiteKey": "",
        "FOHHKFAIAAJ": ""
      },
      {
        "$type": "FABLGECDBCH",
        "type": "BODY_LANG",
        "delayTime": 0.335999995470047,
        "aliasList": [
          "Avatar"
        ],
        "actionId": 367,
        "bodyLangParam": 1240,
        "forceDoFreeStyle": true,
        "canDoRepeatFreeStyle": false,
        "cantBackToIdleWhenSitLoop": true,
        "eventPatternSuiteKey": "",
        "FOHHKFAIAAJ": ""
      },
      {
        "$type": "FABLGECDBCH",
        "type": "BODY_LANG",
        "delayTime": 1.8309999704360962,
        "aliasList": [
          "1005"
        ],
        "actionId": 285,
        "isContinue": true,
        "forceDoFreeStyle": true,
        "canDoRepeatFreeStyle": false,
        "cantBackToIdleWhenSitLoop": true,
        "eventPatternSuiteKey": "",
        "FOHHKFAIAAJ": ""
      },
      {
        "$type": "FABLGECDBCH",
        "type": "BODY_LANG",
        "delayTime": 2.815000057220459,
        "aliasList": [
          "Avatar"
        ],
        "actionId": 383,
        "isContinue": true,
        "forceDoFreeStyle": true,
        "canDoRepeatFreeStyle": false,
        "cantBackToIdleWhenSitLoop": true,
        "eventPatternSuiteKey": "",
        "FOHHKFAIAAJ": ""
      }
    ],
    [
      {
        "$type": "FABLGECDBCH",
        "type": "BODY_LANG",
        "aliasList": [
          "Avatar"
        ],
        "actionId": 384,
        "isContinue": true,
        "forceDoFreeStyle": true,
        "canDoRepeatFreeStyle": false,
        "cantBackToIdleWhenSitLoop": true,
        "eventPatternSuiteKey": "",
        "FOHHKFAIAAJ": ""
      },
      {
        "$type": "PKKMAMONGEO",
        "type": "DIALOG",
        "aliasList": [
          "20935"
        ],
        "actionId": 153,
        "dialogID": 732640725,
        "protectTime": 1.5
      }
    ],
    [
      {
        "$type": "FJKIHHKJLMJ",
        "type": "CAMERA_MOVE",
        "duration": 0.5,
        "actionId": 230,
        "camPosOffset": {
          "x": -1374.3480224609375,
          "y": 35.30400085449219,
          "z": 5217.60205078125
        },
        "camForwardTargetOffset": {
          "x": -1373.5760498046875,
          "y": 35.30500030517578,
          "z": 5216.966796875
        },
        "camFov": 55.823001861572266,
        "lerpPattern": 6,
        "cameraBlendType": "EaseInOutCubic",
        "NJBNNOMLKCK": {},
        "needZAxisRotate": true,
        "rotateAngle": -0.0020000000949949026,
        "openCameraDither": false,
        "targetNpcAlias": "",
        "closeTreeLeafDither": true,
        "KJOEFBPOIIH": "",
        "IICFKKEBIEC": "",
        "EGEHEJEBLBJ": ""
      },
      {
        "$type": "PKKMAMONGEO",
        "type": "DIALOG",
        "aliasList": [
          "20936"
        ],
        "actionId": 155,
        "dialogID": 732640726,
        "protectTime": 1.0
      },
      {
        "$type": "LJLMDHDCAMK",
        "type": "LOOK_AT",
        "delayTime": 0.20999999344348907,
        "aliasList": [
          "20936"
        ],
        "actionId": 268,
        "enableHead": true,
        "headRotateVec": {
          "x": 40.0
        },
        "enableBody": true,
        "bodyAngle": 15.0,
        "headTurnTime": 0.5,
        "targetNpcAlias": "20935",
        "lookAtTargetType": "NONE",
        "openBackProtect": true,
        "targetNpcLookAtPoint": "",
        "OAFJBHJHLJG": ""
      },
      {
        "$type": "FABLGECDBCH",
        "type": "BODY_LANG",
        "delayTime": 0.5920000076293945,
        "aliasList": [
          "20936"
        ],
        "actionId": 267,
        "forceDoFreeStyle": true,
        "canDoRepeatFreeStyle": false,
        "cantBackToIdleWhenSitLoop": true,
        "eventPatternSuiteKey": "",
        "FOHHKFAIAAJ": ""
      }
    ],
    [
      {
        "$type": "FJKIHHKJLMJ",
        "type": "CAMERA_MOVE",
        "duration": 0.5,
        "actionId": 232,
        "camPosOffset": {
          "x": -1374.0780029296875,
          "y": 35.27000045776367,
          "z": 5217.830078125
        },
        "camForwardTargetOffset": {
          "x": -1373.4620361328125,
          "y": 35.189998626708984,
          "z": 5218.61376953125
        },
        "camFov": 55.823001861572266,
        "lerpPattern": 6,
        "cameraBlendType": "EaseInOutCubic",
        "NJBNNOMLKCK": {},
        "needZAxisRotate": true,
        "rotateAngle": -0.0020000000949949026,
        "openCameraDither": false,
        "targetNpcAlias": "",
        "closeTreeLeafDither": true,
        "KJOEFBPOIIH": "",
        "IICFKKEBIEC": "",
        "EGEHEJEBLBJ": ""
      },
      {
        "$type": "PKKMAMONGEO",
        "type": "DIALOG",
        "aliasList": [
          "20935"
        ],
        "actionId": 157,
        "dialogID": 732640727,
        "protectTime": 2.0
      },
      {
        "$type": "HDGKHDNFMIM",
        "type": "DIALOG_SELECT",
        "delayTime": 1.0180000066757202,
        "aliasList": [
          "Avatar"
        ],
        "actionId": 368,
        "dialogIDList": [
          732640728
        ],
        "grpIDList": [
          3475905770
        ],
        "useGrpId": true,
        "countDownGrpId": 2467430635
      }
    ],
    [
      {
        "$type": "FJKIHHKJLMJ",
        "type": "CAMERA_MOVE",
        "duration": 0.5,
        "actionId": 235,
        "camPosOffset": {
          "x": -1374.675048828125,
          "y": 33.90700149536133,
          "z": 5216.791015625
        },
        "camForwardTargetOffset": {
          "x": -1375.64697265625,
          "y": 33.97100067138672,
          "z": 5217.01904296875
        },
        "camFov": 55.823001861572266,
        "lerpPattern": 6,
        "cameraBlendType": "EaseInOutCubic",
        "NJBNNOMLKCK": {},
        "needZAxisRotate": true,
        "rotateAngle": -0.0020000000949949026,
        "openCameraDither": false,
        "targetNpcAlias": "",
        "closeTreeLeafDither": true,
        "KJOEFBPOIIH": "",
        "IICFKKEBIEC": "",
        "EGEHEJEBLBJ": ""
      },
      {
        "$type": "PKKMAMONGEO",
        "type": "DIALOG",
        "aliasList": [
          "1005"
        ],
        "actionId": 160,
        "dialogID": 732640729,
        "protectTime": 3.700000047683716
      },
      {
        "$type": "LJLMDHDCAMK",
        "type": "LOOK_AT",
        "aliasList": [
          "1005"
        ],
        "actionId": 233,
        "enableHead": true,
        "enableBody": true,
        "bodyAngle": -20.0,
        "headTurnTime": 0.5,
        "targetNpcAlias": "Avatar",
        "openBackProtect": true,
        "targetNpcLookAtPoint": "",
        "OAFJBHJHLJG": ""
      },
      {
        "$type": "FABLGECDBCH",
        "type": "BODY_LANG",
        "delayTime": 0.2680000066757202,
        "aliasList": [
          "1005"
        ],
        "actionId": 270,
        "bodyLangParam": 1280,
        "forceDoFreeStyle": true,
        "canDoRepeatFreeStyle": false,
        "cantBackToIdleWhenSitLoop": true,
        "eventPatternSuiteKey": "",
        "FOHHKFAIAAJ": ""
      },
      {
        "$type": "LJLMDHDCAMK",
        "type": "LOOK_AT",
        "delayTime": 0.5210000276565552,
        "aliasList": [
          "Avatar"
        ],
        "actionId": 369,
        "enableHead": true,
        "enableBody": true,
        "bodyAngle": 20.0,
        "headTurnTime": 0.20000000298023224,
        "targetNpcAlias": "1005",
        "openBackProtect": true,
        "targetNpcLookAtPoint": "",
        "OAFJBHJHLJG": ""
      },
      {
        "$type": "FABLGECDBCH",
        "type": "BODY_LANG",
        "delayTime": 2.1010000705718994,
        "aliasList": [
          "1005"
        ],
        "actionId": 271,
        "bodyLangParam": 1140,
        "forceDoFreeStyle": true,
        "canDoRepeatFreeStyle": false,
        "cantBackToIdleWhenSitLoop": true,
        "eventPatternSuiteKey": "",
        "FOHHKFAIAAJ": ""
      },
      {
        "$type": "LJLMDHDCAMK",
        "type": "LOOK_AT",
        "delayTime": 3.24399995803833,
        "aliasList": [
          "1005"
        ],
        "actionId": 272,
        "enableHead": true,
        "headRotateVec": {
          "y": -5.0
        },
        "enableBody": true,
        "headTurnTime": 0.5,
        "targetNpcAlias": "",
        "lookAtTargetType": "NONE",
        "openBackProtect": true,
        "targetNpcLookAtPoint": "",
        "OAFJBHJHLJG": ""
      },
      {
        "$type": "LJLMDHDCAMK",
        "type": "LOOK_AT",
        "delayTime": 3.328000068664551,
        "aliasList": [
          "Avatar"
        ],
        "actionId": 370,
        "enableHead": true,
        "headRotateVec": {
          "x": 13.0,
          "y": -10.0
        },
        "headTurnTime": 0.5,
        "targetNpcAlias": "",
        "lookAtTargetType": "NONE",
        "openBackProtect": true,
        "targetNpcLookAtPoint": "",
        "OAFJBHJHLJG": ""
      },
      {
        "$type": "FABLGECDBCH",
        "type": "BODY_LANG",
        "delayTime": 3.509000062942505,
        "aliasList": [
          "1005"
        ],
        "actionId": 304,
        "isContinue": true,
        "forceDoFreeStyle": true,
        "canDoRepeatFreeStyle": false,
        "cantBackToIdleWhenSitLoop": true,
        "eventPatternSuiteKey": "",
        "FOHHKFAIAAJ": ""
      }
    ],
    [
      {
        "$type": "FJKIHHKJLMJ",
        "type": "CAMERA_MOVE",
        "duration": 0.0,
        "actionId": 273,
        "camPosOffset": {
          "x": -1364.3740234375,
          "y": 38.4630012512207,
          "z": 5220.6240234375
        },
        "camForwardTargetOffset": {
          "x": -1365.218017578125,
          "y": 38.0369987487793,
          "z": 5220.298828125
        },
        "camFov": 55.823001861572266,
        "lerpPattern": 6,
        "cameraBlendType": "EaseInOutCubic",
        "NJBNNOMLKCK": {},
        "needZAxisRotate": true,
        "rotateAngle": -0.0020000000949949026,
        "openCameraDither": false,
        "targetNpcAlias": "",
        "closeTreeLeafDither": true,
        "KJOEFBPOIIH": "",
        "IICFKKEBIEC": "",
        "EGEHEJEBLBJ": ""
      },
      {
        "$type": "PKKMAMONGEO",
        "type": "DIALOG",
        "aliasList": [
          "20936"
        ],
        "actionId": 162,
        "dialogID": 732640730,
        "protectTime": 3.0
      },
      {
        "$type": "LJLMDHDCAMK",
        "type": "LOOK_AT",
        "aliasList": [
          "1005"
        ],
        "actionId": 236,
        "enableHead": true,
        "headRotateVec": {
          "y": -5.0
        },
        "headTurnTime": 0.5,
        "targetNpcAlias": "",
        "lookAtTargetType": "NONE",
        "openBackProtect": true,
        "targetNpcLookAtPoint": "",
        "OAFJBHJHLJG": ""
      },
      {
        "$type": "LJLMDHDCAMK",
        "type": "LOOK_AT",
        "delayTime": 0.012000000104308128,
        "aliasList": [
          "Avatar"
        ],
        "actionId": 371,
        "enableHead": true,
        "headRotateVec": {
          "y": -10.0
        },
        "headTurnTime": 0.5,
        "targetNpcAlias": "",
        "lookAtTargetType": "NONE",
        "openBackProtect": true,
        "targetNpcLookAtPoint": "",
        "OAFJBHJHLJG": ""
      },
      {
        "$type": "LJLMDHDCAMK",
        "type": "LOOK_AT",
        "delayTime": 0.014000000432133675,
        "aliasList": [
          "20935"
        ],
        "actionId": 274,
        "enableHead": true,
        "headTurnTime": 0.5,
        "targetNpcAlias": "Avatar",
        "openBackProtect": true,
        "targetNpcLookAtPoint": "",
        "OAFJBHJHLJG": ""
      },
      {
        "$type": "LJLMDHDCAMK",
        "type": "LOOK_AT",
        "delayTime": 0.026000000536441803,
        "aliasList": [
          "20936"
        ],
        "actionId": 269,
        "enableHead": true,
        "headRotateVec": {
          "y": 20.0
        },
        "enableBody": true,
        "headTurnTime": 0.5,
        "targetNpcAlias": "1005",
        "lookAtTargetType": "NONE",
        "openBackProtect": true,
        "targetNpcLookAtPoint": "",
        "OAFJBHJHLJG": ""
      },
      {
        "$type": "FABLGECDBCH",
        "type": "BODY_LANG",
        "delayTime": 0.15199999511241913,
        "aliasList": [
          "20936"
        ],
        "actionId": 286,
        "bodyLangParam": 1280,
        "forceDoFreeStyle": true,
        "canDoRepeatFreeStyle": false,
        "cantBackToIdleWhenSitLoop": true,
        "eventPatternSuiteKey": "",
        "FOHHKFAIAAJ": ""
      },
      {
        "$type": "FJKIHHKJLMJ",
        "type": "CAMERA_MOVE",
        "delayTime": 0.23899999260902405,
        "duration": 6.0,
        "actionId": 305,
        "camPosOffset": {
          "x": -1364.3740234375,
          "y": 38.4630012512207,
          "z": 5220.6240234375
        },
        "camForwardTargetOffset": {
          "x": -1365.238037109375,
          "y": 38.040000915527344,
          "z": 5220.35009765625
        },
        "camFov": 53.0,
        "lerpPattern": 2,
        "cameraBlendType": "EaseInOutQuad",
        "NJBNNOMLKCK": {},
        "needZAxisRotate": true,
        "rotateAngle": -0.0020000000949949026,
        "openCameraDither": false,
        "targetNpcAlias": "",
        "closeTreeLeafDither": true,
        "KJOEFBPOIIH": "",
        "IICFKKEBIEC": "",
        "EGEHEJEBLBJ": ""
      }
    ],
    [
      {
        "$type": "PKKMAMONGEO",
        "type": "DIALOG",
        "aliasList": [
          "20935"
        ],
        "actionId": 164,
        "dialogID": 732640731,
        "protectTime": 1.0
      }
    ],
    [
      {
        "$type": "FJKIHHKJLMJ",
        "type": "CAMERA_MOVE",
        "duration": 0.0,
        "actionId": 275,
        "camPosOffset": {
          "x": -1373.6600341796875,
          "y": 34.62699890136719,
          "z": 5218.84619140625
        },
        "camForwardTargetOffset": {
          "x": -1373.0269775390625,
          "y": 35.11899948120117,
          "z": 5219.44384765625
        },
        "camFov": 55.823001861572266,
        "lerpPattern": 6,
        "cameraBlendType": "EaseInOutCubic",
        "NJBNNOMLKCK": {},
        "needZAxisRotate": true,
        "rotateAngle": -0.0020000000949949026,
        "openCameraDither": false,
        "targetNpcAlias": "",
        "closeTreeLeafDither": true,
        "KJOEFBPOIIH": "",
        "IICFKKEBIEC": "",
        "EGEHEJEBLBJ": ""
      },
      {
        "$type": "PKKMAMONGEO",
        "type": "DIALOG",
        "aliasList": [
          "20935"
        ],
        "actionId": 166,
        "dialogID": 732640732,
        "protectTime": 2.5
      },
      {
        "$type": "FJKIHHKJLMJ",
        "type": "CAMERA_MOVE",
        "delayTime": 0.5090000033378601,
        "duration": 2.5,
        "actionId": 276,
        "camPosOffset": {
          "x": -1373.6600341796875,
          "y": 34.62699890136719,
          "z": 5218.84619140625
        },
        "camForwardTargetOffset": {
          "x": -1373.1920166015625,
          "y": 35.38399887084961,
          "z": 5219.30078125
        },
        "camFov": 53.0,
        "lerpPattern": 2,
        "cameraBlendType": "EaseInOutQuad",
        "NJBNNOMLKCK": {},
        "needZAxisRotate": true,
        "rotateAngle": -0.003000000026077032,
        "openCameraDither": false,
        "targetNpcAlias": "",
        "closeTreeLeafDither": true,
        "KJOEFBPOIIH": "",
        "IICFKKEBIEC": "",
        "EGEHEJEBLBJ": ""
      }
    ],
    [
      {
        "$type": "FJKIHHKJLMJ",
        "type": "CAMERA_MOVE",
        "duration": 0.0,
        "actionId": 239,
        "camPosOffset": {
          "x": -1372.9229736328125,
          "y": 35.8390007019043,
          "z": 5216.86083984375
        },
        "camForwardTargetOffset": {
          "x": -1372.156005859375,
          "y": 35.487998962402344,
          "z": 5216.3232421875
        },
        "camFov": 55.823001861572266,
        "lerpPattern": 6,
        "cameraBlendType": "EaseInOutCubic",
        "NJBNNOMLKCK": {},
        "needZAxisRotate": true,
        "rotateAngle": -0.0020000000949949026,
        "openCameraDither": false,
        "targetNpcAlias": "",
        "closeTreeLeafDither": true,
        "KJOEFBPOIIH": "",
        "IICFKKEBIEC": "",
        "EGEHEJEBLBJ": ""
      },
      {
        "$type": "PKKMAMONGEO",
        "type": "DIALOG",
        "aliasList": [
          "20936"
        ],
        "actionId": 168,
        "dialogID": 732640733,
        "protectTime": 2.5
      },
      {
        "$type": "LJLMDHDCAMK",
        "type": "LOOK_AT",
        "delayTime": 0.47200000286102295,
        "aliasList": [
          "20936"
        ],
        "actionId": 277,
        "enableHead": true,
        "headRotateVec": {
          "x": 5.0,
          "y": 3.0
        },
        "headTurnTime": 1.2000000476837158,
        "targetNpcAlias": "",
        "lookAtTargetType": "NONE",
        "openBackProtect": true,
        "targetNpcLookAtPoint": "",
        "OAFJBHJHLJG": ""
      },
      {
        "$type": "FJKIHHKJLMJ",
        "type": "CAMERA_MOVE",
        "delayTime": 0.4959999918937683,
        "duration": 2.0,
        "actionId": 240,
        "camPosOffset": {
          "x": -1372.9229736328125,
          "y": 35.8390007019043,
          "z": 5216.86083984375
        },
        "camForwardTargetOffset": {
          "x": -1372.1240234375,
          "y": 35.61399841308594,
          "z": 5216.30419921875
        },
        "camFov": 52.0,
        "cameraBlendType": "EaseOutQuad",
        "NJBNNOMLKCK": {},
        "needZAxisRotate": true,
        "rotateAngle": -0.0020000000949949026,
        "openCameraDither": false,
        "targetNpcAlias": "",
        "closeTreeLeafDither": true,
        "KJOEFBPOIIH": "",
        "IICFKKEBIEC": "",
        "EGEHEJEBLBJ": ""
      }
    ],
    [
      {
        "$type": "FJKIHHKJLMJ",
        "type": "CAMERA_MOVE",
        "duration": 0.5,
        "actionId": 241,
        "camPosOffset": {
          "x": -1375.032958984375,
          "y": 34.388999938964844,
          "z": 5216.03076171875
        },
        "camForwardTargetOffset": {
          "x": -1374.2130126953125,
          "y": 34.724998474121094,
          "z": 5216.4931640625
        },
        "camFov": 55.823001861572266,
        "lerpPattern": 6,
        "cameraBlendType": "EaseInOutCubic",
        "NJBNNOMLKCK": {},
        "needZAxisRotate": true,
        "rotateAngle": -0.0020000000949949026,
        "openCameraDither": false,
        "targetNpcAlias": "",
        "closeTreeLeafDither": true,
        "KJOEFBPOIIH": "",
        "IICFKKEBIEC": "",
        "EGEHEJEBLBJ": ""
      },
      {
        "$type": "PKKMAMONGEO",
        "type": "DIALOG",
        "aliasList": [
          "20935"
        ],
        "actionId": 170,
        "dialogID": 732640734,
        "protectTime": 2.0
      },
      {
        "$type": "FJKIHHKJLMJ",
        "type": "CAMERA_MOVE",
        "delayTime": 0.9330000281333923,
        "duration": 2.700000047683716,
        "actionId": 352,
        "camPosOffset": {
          "x": -1375.032958984375,
          "y": 34.388999938964844,
          "z": 5216.03076171875
        },
        "camForwardTargetOffset": {
          "x": -1374.2259521484375,
          "y": 34.625,
          "z": 5216.57177734375
        },
        "camFov": 54.0,
        "cameraBlendType": "EaseOutQuad",
        "NJBNNOMLKCK": {},
        "needZAxisRotate": true,
        "rotateAngle": -0.0020000000949949026,
        "openCameraDither": false,
        "targetNpcAlias": "",
        "closeTreeLeafDither": true,
        "KJOEFBPOIIH": "",
        "IICFKKEBIEC": "",
        "EGEHEJEBLBJ": ""
      },
      {
        "$type": "LJLMDHDCAMK",
        "type": "LOOK_AT",
        "delayTime": 1.5260000228881836,
        "aliasList": [
          "20935"
        ],
        "actionId": 278,
        "enableHead": true,
        "enableBody": true,
        "bodyAngle": -30.0,
        "headTurnTime": 0.5,
        "bodyTurnTime": 0.5,
        "targetNpcAlias": "20936",
        "openBackProtect": true,
        "targetNpcLookAtPoint": "",
        "OAFJBHJHLJG": ""
      }
    ],
    [
      {
        "$type": "FJKIHHKJLMJ",
        "type": "CAMERA_MOVE",
        "duration": 0.0,
        "actionId": 242,
        "camPosOffset": {
          "x": -1375.032958984375,
          "y": 34.388999938964844,
          "z": 5216.03076171875
        },
        "camForwardTargetOffset": {
          "x": -1374.2130126953125,
          "y": 34.724998474121094,
          "z": 5216.4931640625
        },
        "camFov": 55.823001861572266,
        "lerpPattern": 6,
        "cameraBlendType": "EaseInOutCubic",
        "NJBNNOMLKCK": {},
        "needZAxisRotate": true,
        "rotateAngle": -0.0020000000949949026,
        "openCameraDither": false,
        "targetNpcAlias": "",
        "closeTreeLeafDither": true,
        "KJOEFBPOIIH": "",
        "IICFKKEBIEC": "",
        "EGEHEJEBLBJ": ""
      },
      {
        "$type": "PKKMAMONGEO",
        "type": "DIALOG",
        "aliasList": [
          "20936"
        ],
        "actionId": 172,
        "dialogID": 732640735,
        "protectTime": 2.5
      },
      {
        "$type": "FABLGECDBCH",
        "type": "BODY_LANG",
        "delayTime": 0.1459999978542328,
        "aliasList": [
          "20936"
        ],
        "actionId": 244,
        "bodyLangParam": 1080,
        "forceDoFreeStyle": true,
        "canDoRepeatFreeStyle": false,
        "cantBackToIdleWhenSitLoop": true,
        "eventPatternSuiteKey": "",
        "FOHHKFAIAAJ": ""
      },
      {
        "$type": "FJKIHHKJLMJ",
        "type": "CAMERA_MOVE",
        "delayTime": 0.39899998903274536,
        "duration": 1.0,
        "actionId": 243,
        "camPosOffset": {
          "x": -1377.4739990234375,
          "y": 34.23099899291992,
          "z": 5215.6728515625
        },
        "camForwardTargetOffset": {
          "x": -1376.60302734375,
          "y": 34.14799880981445,
          "z": 5216.1572265625
        },
        "camFov": 55.823001861572266,
        "lerpPattern": 2,
        "cameraBlendType": "EaseInOutQuad",
        "NJBNNOMLKCK": {},
        "needZAxisRotate": true,
        "rotateAngle": -0.0020000000949949026,
        "openCameraDither": false,
        "targetNpcAlias": "",
        "closeTreeLeafDither": true,
        "KJOEFBPOIIH": "",
        "IICFKKEBIEC": "",
        "EGEHEJEBLBJ": ""
      },
      {
        "$type": "FABLGECDBCH",
        "type": "BODY_LANG",
        "delayTime": 1.1080000400543213,
        "aliasList": [
          "Avatar"
        ],
        "actionId": 372,
        "bodyLangParam": 1080,
        "forceDoFreeStyle": true,
        "canDoRepeatFreeStyle": false,
        "cantBackToIdleWhenSitLoop": true,
        "eventPatternSuiteKey": "",
        "FOHHKFAIAAJ": ""
      },
      {
        "$type": "FABLGECDBCH",
        "type": "BODY_LANG",
        "delayTime": 1.1430000066757202,
        "aliasList": [
          "1005"
        ],
        "actionId": 245,
        "bodyLangParam": 1040,
        "forceDoFreeStyle": true,
        "canDoRepeatFreeStyle": false,
        "cantBackToIdleWhenSitLoop": true,
        "eventPatternSuiteKey": "",
        "FOHHKFAIAAJ": ""
      }
    ],
    [
      {
        "$type": "FJKIHHKJLMJ",
        "type": "CAMERA_MOVE",
        "duration": 0.5,
        "actionId": 306,
        "camPosOffset": {
          "x": -1376.85400390625,
          "y": 34.26300048828125,
          "z": 5215.4521484375
        },
        "camForwardTargetOffset": {
          "x": -1376.010986328125,
          "y": 34.209999084472656,
          "z": 5215.98681640625
        },
        "camFov": 55.823001861572266,
        "lerpPattern": 6,
        "cameraBlendType": "EaseInOutCubic",
        "NJBNNOMLKCK": {},
        "needZAxisRotate": true,
        "rotateAngle": -0.0020000000949949026,
        "openCameraDither": false,
        "targetNpcAlias": "",
        "closeTreeLeafDither": true,
        "KJOEFBPOIIH": "",
        "IICFKKEBIEC": "",
        "EGEHEJEBLBJ": ""
      },
      {
        "$type": "PKKMAMONGEO",
        "type": "DIALOG",
        "aliasList": [
          "20936"
        ],
        "actionId": 174,
        "dialogID": 732640737,
        "protectTime": 0.5
      },
      {
        "$type": "LJLMDHDCAMK",
        "type": "LOOK_AT",
        "aliasList": [
          "20936"
        ],
        "actionId": 307,
        "enableHead": true,
        "headRotateVec": {
          "y": 10.0
        },
        "enableBody": true,
        "headTurnTime": 0.5,
        "targetNpcAlias": "1005",
        "lookAtTargetType": "NONE",
        "openBackProtect": true,
        "targetNpcLookAtPoint": "",
        "OAFJBHJHLJG": ""
      },
      {
        "$type": "LJLMDHDCAMK",
        "type": "LOOK_AT",
        "aliasList": [
          "20935"
        ],
        "actionId": 308,
        "enableHead": true,
        "headRotateVec": {
          "x": -10.0,
          "y": 10.0
        },
        "enableBody": true,
        "bodyAngle": -5.0,
        "headTurnTime": 0.5,
        "targetNpcAlias": "Avatar",
        "lookAtTargetType": "NONE",
        "openBackProtect": true,
        "targetNpcLookAtPoint": "",
        "OAFJBHJHLJG": ""
      },
      {
        "$type": "LJLMDHDCAMK",
        "type": "LOOK_AT",
        "delayTime": 0.004999999888241291,
        "aliasList": [
          "Avatar"
        ],
        "actionId": 374,
        "enableHead": true,
        "headRotateVec": {
          "y": -10.0
        },
        "headTurnTime": 0.5,
        "targetNpcAlias": "",
        "lookAtTargetType": "NONE",
        "openBackProtect": true,
        "targetNpcLookAtPoint": "",
        "OAFJBHJHLJG": ""
      },
      {
        "$type": "FABLGECDBCH",
        "type": "BODY_LANG",
        "delayTime": 0.012000000104308128,
        "aliasList": [
          "Avatar"
        ],
        "actionId": 373,
        "isContinue": true,
        "forceDoFreeStyle": true,
        "canDoRepeatFreeStyle": false,
        "cantBackToIdleWhenSitLoop": true,
        "eventPatternSuiteKey": "",
        "FOHHKFAIAAJ": ""
      },
      {
        "$type": "FABLGECDBCH",
        "type": "BODY_LANG",
        "delayTime": 0.020999999716877937,
        "aliasList": [
          "1005"
        ],
        "actionId": 329,
        "bodyLangParam": 1060,
        "forceDoFreeStyle": true,
        "canDoRepeatFreeStyle": false,
        "cantBackToIdleWhenSitLoop": true,
        "eventPatternSuiteKey": "",
        "FOHHKFAIAAJ": ""
      },
      {
        "$type": "LJLMDHDCAMK",
        "type": "LOOK_AT",
        "delayTime": 0.13699999451637268,
        "aliasList": [
          "1005"
        ],
        "actionId": 330,
        "enableHead": true,
        "headRotateVec": {
          "y": -5.0
        },
        "enableBody": true,
        "headTurnTime": 0.5,
        "targetNpcAlias": "",
        "lookAtTargetType": "NONE",
        "openBackProtect": true,
        "targetNpcLookAtPoint": "",
        "OAFJBHJHLJG": ""
      }
    ],
    [
      {
        "$type": "PKKMAMONGEO",
        "type": "DIALOG",
        "aliasList": [
          "20936"
        ],
        "actionId": 176,
        "dialogID": 732640738,
        "protectTime": 0.5
      },
      {
        "$type": "FABLGECDBCH",
        "type": "BODY_LANG",
        "delayTime": 0.08299999684095383,
        "aliasList": [
          "1005"
        ],
        "actionId": 335,
        "isContinue": true,
        "forceDoFreeStyle": true,
        "canDoRepeatFreeStyle": false,
        "cantBackToIdleWhenSitLoop": true,
        "eventPatternSuiteKey": "",
        "FOHHKFAIAAJ": ""
      },
      {
        "$type": "FABLGECDBCH",
        "type": "BODY_LANG",
        "delayTime": 0.14000000059604645,
        "aliasList": [
          "20936"
        ],
        "actionId": 318,
        "bodyLangParam": 1280,
        "forceDoFreeStyle": true,
        "canDoRepeatFreeStyle": false,
        "cantBackToIdleWhenSitLoop": true,
        "eventPatternSuiteKey": "",
        "FOHHKFAIAAJ": ""
      },
      {
        "$type": "HDGKHDNFMIM",
        "type": "DIALOG_SELECT",
        "delayTime": 0.4000000059604645,
        "aliasList": [
          "Avatar"
        ],
        "actionId": 375,
        "dialogIDList": [
          732640739
        ],
        "grpIDList": [
          3475905800
        ],
        "useGrpId": true,
        "countDownGrpId": 2467430635
      },
      {
        "$type": "FABLGECDBCH",
        "type": "BODY_LANG",
        "delayTime": 0.46299999952316284,
        "aliasList": [
          "1005"
        ],
        "actionId": 336,
        "bodyLangParam": 1050,
        "forceDoFreeStyle": true,
        "canDoRepeatFreeStyle": false,
        "cantBackToIdleWhenSitLoop": true,
        "eventPatternSuiteKey": "",
        "FOHHKFAIAAJ": ""
      },
      {
        "$type": "FABLGECDBCH",
        "type": "BODY_LANG",
        "delayTime": 1.1749999523162842,
        "aliasList": [
          "Avatar"
        ],
        "actionId": 376,
        "bodyLangParam": 1190,
        "forceDoFreeStyle": true,
        "canDoRepeatFreeStyle": false,
        "cantBackToIdleWhenSitLoop": true,
        "eventPatternSuiteKey": "",
        "FOHHKFAIAAJ": ""
      }
    ],
    [
      {
        "$type": "FJKIHHKJLMJ",
        "type": "CAMERA_MOVE",
        "duration": 0.0,
        "actionId": 310,
        "camPosOffset": {
          "x": -1373.8819580078125,
          "y": 35.895999908447266,
          "z": 5217.1767578125
        },
        "camForwardTargetOffset": {
          "x": -1373.2159423828125,
          "y": 35.472999572753906,
          "z": 5216.56201171875
        },
        "camFov": 55.823001861572266,
        "lerpPattern": 6,
        "cameraBlendType": "EaseInOutCubic",
        "NJBNNOMLKCK": {},
        "needZAxisRotate": true,
        "rotateAngle": -0.0020000000949949026,
        "openCameraDither": false,
        "targetNpcAlias": "",
        "closeTreeLeafDither": true,
        "KJOEFBPOIIH": "",
        "IICFKKEBIEC": "",
        "EGEHEJEBLBJ": ""
      },
      {
        "$type": "PKKMAMONGEO",
        "type": "DIALOG",
        "aliasList": [
          "20936"
        ],
        "actionId": 179,
        "dialogID": 732640740,
        "protectTime": 0.5
      },
      {
        "$type": "FABLGECDBCH",
        "type": "BODY_LANG",
        "aliasList": [
          "1005"
        ],
        "actionId": 337,
        "isContinue": true,
        "forceDoFreeStyle": true,
        "canDoRepeatFreeStyle": false,
        "cantBackToIdleWhenSitLoop": true,
        "eventPatternSuiteKey": "",
        "FOHHKFAIAAJ": ""
      },
      {
        "$type": "LJLMDHDCAMK",
        "type": "LOOK_AT",
        "delayTime": 0.013000000268220901,
        "aliasList": [
          "20936"
        ],
        "actionId": 322,
        "enableHead": true,
        "headRotateVec": {
          "y": 10.0
        },
        "headTurnTime": 0.5,
        "targetNpcAlias": "",
        "lookAtTargetType": "NONE",
        "openBackProtect": true,
        "targetNpcLookAtPoint": "",
        "OAFJBHJHLJG": ""
      },
      {
        "$type": "FABLGECDBCH",
        "type": "BODY_LANG",
        "delayTime": 0.1340000033378601,
        "aliasList": [
          "20936"
        ],
        "actionId": 309,
        "bodyLangParam": 1280,
        "forceDoFreeStyle": true,
        "canDoRepeatFreeStyle": false,
        "cantBackToIdleWhenSitLoop": true,
        "eventPatternSuiteKey": "",
        "FOHHKFAIAAJ": ""
      },
      {
        "$type": "FABLGECDBCH",
        "type": "BODY_LANG",
        "delayTime": 0.14900000393390656,
        "aliasList": [
          "Avatar"
        ],
        "actionId": 377,
        "isContinue": true,
        "forceDoFreeStyle": true,
        "canDoRepeatFreeStyle": false,
        "cantBackToIdleWhenSitLoop": true,
        "eventPatternSuiteKey": "",
        "FOHHKFAIAAJ": ""
      },
      {
        "$type": "FJKIHHKJLMJ",
        "type": "CAMERA_MOVE",
        "delayTime": 0.3149999976158142,
        "duration": 3.0,
        "actionId": 320,
        "camPosOffset": {
          "x": -1373.8819580078125,
          "y": 35.895999908447266,
          "z": 5217.1767578125
        },
        "camForwardTargetOffset": {
          "x": -1373.1929931640625,
          "y": 35.54199981689453,
          "z": 5216.5439453125
        },
        "camFov": 55.823001861572266,
        "lerpPattern": 2,
        "cameraBlendType": "EaseInOutQuad",
        "NJBNNOMLKCK": {},
        "needZAxisRotate": true,
        "rotateAngle": -0.0020000000949949026,
        "openCameraDither": false,
        "targetNpcAlias": "",
        "closeTreeLeafDither": true,
        "KJOEFBPOIIH": "",
        "IICFKKEBIEC": "",
        "EGEHEJEBLBJ": ""
      },
      {
        "$type": "LJLMDHDCAMK",
        "type": "LOOK_AT",
        "delayTime": 1.8179999589920044,
        "aliasList": [
          "20936"
        ],
        "actionId": 333,
        "enableHead": true,
        "headTurnTime": 0.5,
        "targetNpcAlias": "",
        "lookAtTargetType": "NONE",
        "openBackProtect": true,
        "targetNpcLookAtPoint": "",
        "OAFJBHJHLJG": ""
      }
    ],
    [
      {
        "$type": "FJKIHHKJLMJ",
        "type": "CAMERA_MOVE",
        "duration": 0.5,
        "actionId": 311,
        "camPosOffset": {
          "x": -1374.6949462890625,
          "y": 34.0099983215332,
          "z": 5217.02099609375
        },
        "camForwardTargetOffset": {
          "x": -1375.6939697265625,
          "y": 33.99300003051758,
          "z": 5217.05615234375
        },
        "camFov": 55.823001861572266,
        "lerpPattern": 6,
        "cameraBlendType": "EaseInOutCubic",
        "NJBNNOMLKCK": {},
        "needZAxisRotate": true,
        "rotateAngle": -0.0020000000949949026,
        "openCameraDither": false,
        "targetNpcAlias": "",
        "closeTreeLeafDither": true,
        "KJOEFBPOIIH": "",
        "IICFKKEBIEC": "",
        "EGEHEJEBLBJ": ""
      },
      {
        "$type": "PKKMAMONGEO",
        "type": "DIALOG",
        "aliasList": [
          "1005"
        ],
        "actionId": 181,
        "dialogID": 732640741,
        "protectTime": 0.5
      },
      {
        "$type": "FABLGECDBCH",
        "type": "BODY_LANG",
        "delayTime": 0.11699999868869781,
        "aliasList": [
          "1005"
        ],
        "actionId": 324,
        "bodyLangParam": 1430,
        "forceDoFreeStyle": true,
        "canDoRepeatFreeStyle": false,
        "cantBackToIdleWhenSitLoop": true,
        "eventPatternSuiteKey": "",
        "FOHHKFAIAAJ": ""
      },
      {
        "$type": "HDGKHDNFMIM",
        "type": "DIALOG_SELECT",
        "delayTime": 0.4000000059604645,
        "aliasList": [
          "Avatar"
        ],
        "actionId": 378,
        "dialogIDList": [
          732640742
        ],
        "grpIDList": [
          3475905802
        ],
        "useGrpId": true,
        "countDownGrpId": 2467430635
      },
      {
        "$type": "FABLGECDBCH",
        "type": "BODY_LANG",
        "delayTime": 3.7330000400543213,
        "aliasList": [
          "Avatar"
        ],
        "actionId": 379,
        "bodyLangParam": 1230,
        "forceDoFreeStyle": true,
        "canDoRepeatFreeStyle": false,
        "cantBackToIdleWhenSitLoop": true,
        "eventPatternSuiteKey": "",
        "FOHHKFAIAAJ": ""
      },
      {
        "$type": "FABLGECDBCH",
        "type": "BODY_LANG",
        "delayTime": 4.603000164031982,
        "aliasList": [
          "1005"
        ],
        "actionId": 325,
        "isContinue": true,
        "forceDoFreeStyle": true,
        "canDoRepeatFreeStyle": false,
        "cantBackToIdleWhenSitLoop": true,
        "eventPatternSuiteKey": "",
        "FOHHKFAIAAJ": ""
      },
      {
        "$type": "FABLGECDBCH",
        "type": "BODY_LANG",
        "delayTime": 6.0229997634887695,
        "aliasList": [
          "1005"
        ],
        "actionId": 326,
        "isContinue": true,
        "forceDoFreeStyle": true,
        "canDoRepeatFreeStyle": false,
        "cantBackToIdleWhenSitLoop": true,
        "eventPatternSuiteKey": "",
        "FOHHKFAIAAJ": ""
      }
    ],
    [
      {
        "$type": "FJKIHHKJLMJ",
        "type": "CAMERA_MOVE",
        "duration": 0.5,
        "actionId": 312,
        "camPosOffset": {
          "x": -1375.89599609375,
          "y": 35.231998443603516,
          "z": 5215.41015625
        },
        "camForwardTargetOffset": {
          "x": -1375.06494140625,
          "y": 35.01599884033203,
          "z": 5215.9228515625
        },
        "camFov": 55.823001861572266,
        "lerpPattern": 6,
        "cameraBlendType": "EaseInOutCubic",
        "NJBNNOMLKCK": {},
        "needZAxisRotate": true,
        "rotateAngle": -0.0020000000949949026,
        "openCameraDither": false,
        "targetNpcAlias": "",
        "closeTreeLeafDither": true,
        "KJOEFBPOIIH": "",
        "IICFKKEBIEC": "",
        "EGEHEJEBLBJ": ""
      },
      {
        "$type": "PKKMAMONGEO",
        "type": "DIALOG",
        "aliasList": [
          "20936"
        ],
        "actionId": 184,
        "dialogID": 732640743,
        "protectTime": 0.5
      },
      {
        "$type": "FABLGECDBCH",
        "type": "BODY_LANG",
        "delayTime": 0.3409999907016754,
        "aliasList": [
          "20936"
        ],
        "actionId": 327,
        "bodyLangParam": 1080,
        "forceDoFreeStyle": true,
        "canDoRepeatFreeStyle": false,
        "cantBackToIdleWhenSitLoop": true,
        "eventPatternSuiteKey": "",
        "FOHHKFAIAAJ": ""
      },
      {
        "$type": "LJLMDHDCAMK",
        "type": "LOOK_AT",
        "delayTime": 1.0140000581741333,
        "aliasList": [
          "20936"
        ],
        "actionId": 323,
        "enableHead": true,
        "headRotateVec": {
          "x": 50.0,
          "y": 5.0
        },
        "enableBody": true,
        "bodyAngle": 5.0,
        "headTurnTime": 0.5,
        "targetNpcAlias": "",
        "lookAtTargetType": "NONE",
        "openBackProtect": true,
        "targetNpcLookAtPoint": "",
        "OAFJBHJHLJG": ""
      },
      {
        "$type": "LJLMDHDCAMK",
        "type": "LOOK_AT",
        "delayTime": 2.4149999618530273,
        "aliasList": [
          "20936"
        ],
        "actionId": 328,
        "enableHead": true,
        "headRotateVec": {
          "y": 5.0
        },
        "enableBody": true,
        "headTurnTime": 0.5,
        "targetNpcAlias": "",
        "lookAtTargetType": "NONE",
        "openBackProtect": true,
        "targetNpcLookAtPoint": "",
        "OAFJBHJHLJG": ""
      }
    ],
    [
      {
        "$type": "FJKIHHKJLMJ",
        "type": "CAMERA_MOVE",
        "duration": 0.0,
        "actionId": 313,
        "camPosOffset": {
          "x": -1371.4599609375,
          "y": 35.5989990234375,
          "z": 5218.1630859375
        },
        "camForwardTargetOffset": {
          "x": -1372.39599609375,
          "y": 35.292999267578125,
          "z": 5217.9921875
        },
        "camFov": 55.823001861572266,
        "lerpPattern": 6,
        "cameraBlendType": "EaseInOutCubic",
        "NJBNNOMLKCK": {},
        "needZAxisRotate": true,
        "rotateAngle": -0.0020000000949949026,
        "openCameraDither": false,
        "targetNpcAlias": "",
        "closeTreeLeafDither": true,
        "KJOEFBPOIIH": "",
        "IICFKKEBIEC": "",
        "EGEHEJEBLBJ": ""
      },
      {
        "$type": "PKKMAMONGEO",
        "type": "DIALOG",
        "aliasList": [
          "1005"
        ],
        "actionId": 186,
        "dialogID": 732640744,
        "protectTime": 0.5
      },
      {
        "$type": "FJKIHHKJLMJ",
        "type": "CAMERA_MOVE",
        "delayTime": 0.3919999897480011,
        "duration": 1.0,
        "actionId": 314,
        "camPosOffset": {
          "x": -1375.031982421875,
          "y": 33.93600082397461,
          "z": 5217.55078125
        },
        "camForwardTargetOffset": {
          "x": -1375.97998046875,
          "y": 33.90999984741211,
          "z": 5217.23388671875
        },
        "camFov": 55.823001861572266,
        "lerpPattern": 2,
        "cameraBlendType": "EaseInQuad",
        "NJBNNOMLKCK": {},
        "needZAxisRotate": true,
        "rotateAngle": -0.0020000000949949026,
        "openCameraDither": false,
        "targetNpcAlias": "",
        "closeTreeLeafDither": true,
        "KJOEFBPOIIH": "",
        "IICFKKEBIEC": "",
        "EGEHEJEBLBJ": ""
      },
      {
        "$type": "FABLGECDBCH",
        "type": "BODY_LANG",
        "delayTime": 0.8619999885559082,
        "aliasList": [
          "Avatar"
        ],
        "actionId": 380,
        "bodyLangParam": 1080,
        "forceDoFreeStyle": true,
        "canDoRepeatFreeStyle": false,
        "cantBackToIdleWhenSitLoop": true,
        "eventPatternSuiteKey": "",
        "FOHHKFAIAAJ": ""
      },
      {
        "$type": "FABLGECDBCH",
        "type": "BODY_LANG",
        "delayTime": 0.8690000176429749,
        "aliasList": [
          "1005"
        ],
        "actionId": 315,
        "bodyLangParam": 1040,
        "forceDoFreeStyle": true,
        "canDoRepeatFreeStyle": false,
        "cantBackToIdleWhenSitLoop": true,
        "eventPatternSuiteKey": "",
        "FOHHKFAIAAJ": ""
      }
    ],
    [
      {
        "$type": "MoleMole.Config.ConfigTimeProtectAction",
        "type": "TIME_PROTECT",
        "duration": 0.10000000149011612,
        "actionId": 188
      }
    ],
    [
      {
        "$type": "MoleMole.Config.ConfigTimeProtectAction",
        "type": "TIME_PROTECT",
        "duration": 0.10000000149011612,
        "actionId": 105
      },
      {
        "$type": "MoleMole.Config.ConfigSimpleBlackScreenAction",
        "type": "SIMPLE_BLACK_SCREEN",
        "actionId": 189,
        "durationToBlack": 0.5,
        "durationKeepBlack": 1.0,
        "durationFromBlack": 0.5,
        "textMapID": ""
      },
      {
        "$type": "MoleMole.Config.ConfigTimeProtectAction",
        "type": "TIME_PROTECT",
        "duration": 0.699999988079071,
        "actionId": 190
      },
      {
        "$type": "FJKIHHKJLMJ",
        "type": "CAMERA_MOVE",
        "delayTime": 0.6000000238418579,
        "duration": 0.5,
        "actionId": 354,
        "camPosOffset": {
          "x": -1378.52197265625,
          "y": 34.14400100708008,
          "z": 5217.15283203125
        },
        "camForwardTargetOffset": {
          "x": -1377.5260009765625,
          "y": 34.06399917602539,
          "z": 5217.1982421875
        },
        "camFov": 55.823001861572266,
        "lerpPattern": 6,
        "cameraBlendType": "EaseInOutCubic",
        "NJBNNOMLKCK": {},
        "needZAxisRotate": true,
        "rotateAngle": -0.0020000000949949026,
        "openCameraDither": false,
        "targetNpcAlias": "",
        "closeTreeLeafDither": true,
        "KJOEFBPOIIH": "",
        "IICFKKEBIEC": "",
        "EGEHEJEBLBJ": ""
      },
      {
        "$type": "MoleMole.Config.ConfigVisibleInterAction",
        "type": "VISIBLE",
        "delayTime": 0.6000000238418579,
        "aliasList": [
          "20936"
        ],
        "actionId": 191,
        "_extraParam": ""
      },
      {
        "$type": "MoleMole.Config.ConfigVisibleInterAction",
        "type": "VISIBLE",
        "delayTime": 0.6000000238418579,
        "aliasList": [
          "20935"
        ],
        "actionId": 192,
        "_extraParam": ""
      },
      {
        "$type": "FABLGECDBCH",
        "type": "BODY_LANG",
        "delayTime": 0.6460000276565552,
        "aliasList": [
          "Avatar"
        ],
        "actionId": 385,
        "isContinue": true,
        "forceDoFreeStyle": true,
        "canDoRepeatFreeStyle": false,
        "cantBackToIdleWhenSitLoop": true,
        "eventPatternSuiteKey": "",
        "FOHHKFAIAAJ": ""
      }
    ]
  ],
  "groupId": [
    {
      "grpId": 2467430636,
      "nextGrpId": 2467430637
    },
    {
      "index": 1,
      "grpId": 2467430637,
      "nextGrpId": 2467430638
    },
    {
      "index": 2,
      "grpId": 2467430638,
      "nextGrpId": 2467430639
    },
    {
      "index": 3,
      "grpId": 2467430639,
      "nextGrpId": 2467430640
    },
    {
      "index": 4,
      "grpId": 2467430640,
      "nextGrpId": 2467430641
    },
    {
      "index": 5,
      "grpId": 2467430641,
      "nextGrpId": 2467430642
    },
    {
      "index": 6,
      "grpId": 2467430642,
      "nextGrpId": 2467430643
    },
    {
      "index": 7,
      "grpId": 2467430643,
      "nextGrpId": 2467430644
    },
    {
      "index": 8,
      "grpId": 2467430644,
      "nextGrpId": 3475905732
    },
    {
      "index": 9,
      "grpId": 3475905732,
      "nextGrpId": 3475905733
    },
    {
      "index": 10,
      "grpId": 3475905733,
      "nextGrpId": 3475905734
    },
    {
      "index": 11,
      "grpId": 3475905734,
      "nextGrpId": 3475905735
    },
    {
      "index": 12,
      "grpId": 3475905735,
      "nextGrpId": 3475905736
    },
    {
      "index": 13,
      "grpId": 3475905736,
      "nextGrpId": 3475905737
    },
    {
      "index": 14,
      "grpId": 3475905737,
      "nextGrpId": 3475905738
    },
    {
      "index": 15,
      "grpId": 3475905738,
      "nextGrpId": 3475905739
    },
    {
      "index": 16,
      "grpId": 3475905739,
      "nextGrpId": 3475905740
    },
    {
      "index": 17,
      "grpId": 3475905740,
      "nextGrpId": 3475905741
    },
    {
      "index": 18,
      "grpId": 3475905741,
      "nextGrpId": 3475905763
    },
    {
      "index": 19,
      "grpId": 3475905763,
      "nextGrpId": 3475905764
    },
    {
      "index": 20,
      "grpId": 3475905764,
      "nextGrpId": 3475905765
    },
    {
      "index": 21,
      "grpId": 3475905765,
      "nextGrpId": 3475905766
    },
    {
      "index": 22,
      "grpId": 3475905766,
      "nextGrpId": 3475905767
    },
    {
      "index": 23,
      "grpId": 3475905767,
      "nextGrpId": 3475905768
    },
    {
      "index": 24,
      "grpId": 3475905768,
      "nextGrpId": 3475905769
    },
    {
      "index": 25,
      "grpId": 3475905769,
      "nextGrpId": 3475905770
    },
    {
      "index": 26,
      "grpId": 3475905770,
      "nextGrpId": 3475905771
    },
    {
      "index": 27,
      "grpId": 3475905771,
      "nextGrpId": 3475905772
    },
    {
      "index": 28,
      "grpId": 3475905772,
      "nextGrpId": 3475905794
    },
    {
      "index": 29,
      "grpId": 3475905794,
      "nextGrpId": 3475905795
    },
    {
      "index": 30,
      "grpId": 3475905795,
      "nextGrpId": 3475905796
    },
    {
      "index": 31,
      "grpId": 3475905796,
      "nextGrpId": 3475905797
    },
    {
      "index": 32,
      "grpId": 3475905797,
      "nextGrpId": 3475905825
    },
    {
      "index": 33,
      "grpId": 3475905798,
      "nextGrpId": 3475905799
    },
    {
      "index": 34,
      "grpId": 3475905799,
      "nextGrpId": 3475905800
    },
    {
      "index": 35,
      "grpId": 3475905800,
      "nextGrpId": 3475905801
    },
    {
      "index": 36,
      "grpId": 3475905801,
      "nextGrpId": 3475905802
    },
    {
      "index": 37,
      "grpId": 3475905802,
      "nextGrpId": 3475905803
    },
    {
      "index": 38,
      "grpId": 3475905803,
      "nextGrpId": 3475905825
    },
    {
      "index": 39,
      "grpId": 3475905825,
      "nextGrpId": 3475905826
    },
    {
      "index": 40,
      "grpId": 3475905826,
      "nextGrpId": 3475905827
    }
  ]
}