{
  "luaDataPath": "",
  "dontUseDefaultFinish": true,
  "entityBan": "",
  "disableNpcLod": true,
  "startFade": {
    "startFadeOutDuration": 0.0
  },
  "endFade": {
    "startFadeOutDuration": 0.0
  },
  "actors": [
    {
      "alias": "Avatar",
      "visible": true,
      "bornPointName": "",
      "relativePosNpcAlias": "",
      "_bindMovingTargetKey": ""
    },
    {
      "configID": 20536,
      "alias": "20536",
      "visible": true,
      "bornPointName": "",
      "relativePosNpcAlias": "",
      "_bindMovingTargetKey": ""
    },
    {
      "configID": 20551,
      "alias": "20551",
      "visible": true,
      "bornPointName": "",
      "removeActorType": "REMOVE",
      "relativePosNpcAlias": "",
      "_bindMovingTargetKey": ""
    },
    {
      "configID": 20549,
      "alias": "20549",
      "visible": true,
      "bornPointName": "",
      "removeActorType": "REMOVE",
      "relativePosNpcAlias": "",
      "_bindMovingTargetKey": ""
    },
    {
      "configID": 1005,
      "alias": "1005",
      "visible": true,
      "bornPointName": "",
      "removeActorType": "REMOVE_WITH_DISAPPEAR",
      "relativePosNpcAlias": "",
      "_bindMovingTargetKey": ""
    },
    {
      "configID": 20550,
      "alias": "20550",
      "visible": true,
      "bornPointName": "",
      "relativePosNpcAlias": "",
      "_bindMovingTargetKey": ""
    }
  ],
  "group": [
    [
      {
        "$type": "FJKIHHKJLMJ",
        "type": "CAMERA_MOVE",
        "duration": 0.4000000059604645,
        "camPosOffset": {
          "x": 709.8870239257812,
          "y": 765.260986328125,
          "z": 419.9309997558594
        },
        "camForwardTargetOffset": {
          "x": 710.77197265625,
          "y": 764.9819946289062,
          "z": 419.5580139160156
        },
        "camFov": 25.0,
        "lerpPattern": 6,
        "cameraBlendType": "EaseInOutCubic",
        "NJBNNOMLKCK": {},
        "needZAxisRotate": true,
        "rotateAngle": 359.9939880371094,
        "openCameraDither": false,
        "targetNpcAlias": "",
        "closeTreeLeafDither": true,
        "KJOEFBPOIIH": "",
        "IICFKKEBIEC": "",
        "EGEHEJEBLBJ": ""
      },
      {
        "$type": "MoleMole.Config.ConfigTimeProtectAction",
        "type": "TIME_PROTECT",
        "duration": 0.10000000149011612
      }
    ],
    [
      {
        "$type": "PKKMAMONGEO",
        "type": "DIALOG",
        "aliasList": [
          "20536"
        ],
        "dialogID": 710620121,
        "protectTime": 1.0
      },
      {
        "$type": "FJKIHHKJLMJ",
        "type": "CAMERA_MOVE",
        "duration": 0.4000000059604645,
        "camPosOffset": {
          "x": 709.8870239257812,
          "y": 765.260986328125,
          "z": 419.9309997558594
        },
        "camForwardTargetOffset": {
          "x": 710.77197265625,
          "y": 764.9819946289062,
          "z": 419.5580139160156
        },
        "camFov": 25.0,
        "lerpPattern": 6,
        "cameraBlendType": "EaseInOutCubic",
        "NJBNNOMLKCK": {},
        "needZAxisRotate": true,
        "rotateAngle": 359.9939880371094,
        "openCameraDither": false,
        "targetNpcAlias": "",
        "closeTreeLeafDither": true,
        "KJOEFBPOIIH": "",
        "IICFKKEBIEC": "",
        "EGEHEJEBLBJ": ""
      },
      {
        "$type": "FJKIHHKJLMJ",
        "type": "CAMERA_MOVE",
        "delayTime": 0.24899999797344208,
        "duration": 4.302999973297119,
        "camPosOffset": {
          "x": 710.0770263671875,
          "y": 765.2000122070312,
          "z": 419.85101318359375
        },
        "camForwardTargetOffset": {
          "x": 710.9619750976562,
          "y": 764.9210205078125,
          "z": 419.4779968261719
        },
        "camFov": 25.0,
        "cameraBlendType": "EaseOutQuad",
        "NJBNNOMLKCK": {},
        "needZAxisRotate": true,
        "rotateAngle": 359.9939880371094,
        "openCameraDither": false,
        "targetNpcAlias": "",
        "closeTreeLeafDither": true,
        "KJOEFBPOIIH": "",
        "IICFKKEBIEC": "",
        "EGEHEJEBLBJ": ""
      }
    ],
    [
      {
        "$type": "LJLMDHDCAMK",
        "type": "LOOK_AT",
        "aliasList": [
          "20549"
        ],
        "enableHead": true,
        "headTurnTime": 0.5,
        "targetNpcAlias": "20536",
        "targetNpcLookAtPoint": "",
        "OAFJBHJHLJG": ""
      },
      {
        "$type": "MoleMole.Config.ConfigTeleportToAction",
        "type": "TELEPORT_TO",
        "aliasList": [
          "20549"
        ],
        "position": {
          "x": 716.1199951171875,
          "y": 762.0390014648438,
          "z": 421.82000732421875
        },
        "forward": {
          "x": 0.37299999594688416,
          "z": -0.9279999732971191
        },
        "openLongDisTeleport": true,
        "_posBindMovingTargetKey": "",
        "_forwardBindMovingTargetKey": ""
      },
      {
        "$type": "LJLMDHDCAMK",
        "type": "LOOK_AT",
        "aliasList": [
          "20551"
        ],
        "enableHead": true,
        "headTurnTime": 0.5,
        "targetNpcAlias": "20536",
        "targetNpcLookAtPoint": "",
        "OAFJBHJHLJG": ""
      },
      {
        "$type": "MoleMole.Config.ConfigTeleportToAction",
        "type": "TELEPORT_TO",
        "aliasList": [
          "1005"
        ],
        "position": {
          "x": 716.7360229492188,
          "y": 762.1400146484375,
          "z": 417.7149963378906
        },
        "forward": {
          "x": -1.0570000410079956,
          "z": 0.023000000044703484
        },
        "openLongDisTeleport": true,
        "_posBindMovingTargetKey": "",
        "_forwardBindMovingTargetKey": ""
      },
      {
        "$type": "LJLMDHDCAMK",
        "type": "LOOK_AT",
        "aliasList": [
          "20550"
        ],
        "enableHead": true,
        "headTurnTime": 0.5,
        "targetNpcAlias": "20536",
        "targetNpcLookAtPoint": "",
        "OAFJBHJHLJG": ""
      },
      {
        "$type": "MoleMole.Config.ConfigTeleportToAction",
        "type": "TELEPORT_TO",
        "aliasList": [
          "20550"
        ],
        "position": {
          "x": 710.6580200195312,
          "y": 762.1300048828125,
          "z": 421.1499938964844
        },
        "forward": {
          "x": 0.8730000257492065,
          "z": -0.4880000054836273
        },
        "openLongDisTeleport": true,
        "_posBindMovingTargetKey": "",
        "_forwardBindMovingTargetKey": ""
      },
      {
        "$type": "LJLMDHDCAMK",
        "type": "LOOK_AT",
        "aliasList": [
          "1005"
        ],
        "enableHead": true,
        "useTargetPos": true,
        "enableAbsolute": true,
        "targetPosition": {
          "x": 713.5130004882812,
          "y": 764.489990234375,
          "z": 417.8590087890625
        },
        "headTurnTime": 0.5,
        "targetNpcAlias": "20536",
        "lookAtTargetType": "NONE",
        "targetNpcLookAtPoint": "",
        "OAFJBHJHLJG": ""
      },
      {
        "$type": "MoleMole.Config.ConfigTeleportToAction",
        "type": "TELEPORT_TO",
        "aliasList": [
          "20551"
        ],
        "position": {
          "x": 713.6060180664062,
          "y": 762.1380004882812,
          "z": 422.7760009765625
        },
        "forward": {
          "x": 0.2770000100135803,
          "y": 0.0020000000949949026,
          "z": -1.9850000143051147
        },
        "openLongDisTeleport": true,
        "_posBindMovingTargetKey": "",
        "_forwardBindMovingTargetKey": ""
      },
      {
        "$type": "LJLMDHDCAMK",
        "type": "LOOK_AT",
        "aliasList": [
          "Avatar"
        ],
        "enableHead": true,
        "useTargetPos": true,
        "enableAbsolute": true,
        "targetPosition": {
          "x": 713.989013671875,
          "y": 764.7509765625,
          "z": 418.1830139160156
        },
        "headTurnTime": 0.5,
        "targetNpcAlias": "20536",
        "lookAtTargetType": "NONE",
        "targetNpcLookAtPoint": "",
        "OAFJBHJHLJG": ""
      },
      {
        "$type": "MoleMole.Config.ConfigTeleportToAction",
        "type": "TELEPORT_TO",
        "aliasList": [
          "Avatar"
        ],
        "position": {
          "x": 716.8369750976562,
          "y": 762.1409912109375,
          "z": 418.6470031738281
        },
        "forward": {
          "x": -1.0,
          "z": -0.014999999664723873
        },
        "openLongDisTeleport": true,
        "_posBindMovingTargetKey": "",
        "_forwardBindMovingTargetKey": ""
      },
      {
        "$type": "FJKIHHKJLMJ",
        "type": "CAMERA_MOVE",
        "duration": 0.4000000059604645,
        "camPosOffset": {
          "x": 714.52001953125,
          "y": 763.947998046875,
          "z": 424.1719970703125
        },
        "camForwardTargetOffset": {
          "x": 714.1640014648438,
          "y": 763.93798828125,
          "z": 423.2380065917969
        },
        "camFov": 30.0,
        "lerpPattern": 6,
        "cameraBlendType": "EaseInOutCubic",
        "NJBNNOMLKCK": {},
        "needZAxisRotate": true,
        "rotateAngle": 359.9939880371094,
        "openCameraDither": false,
        "targetNpcAlias": "",
        "closeTreeLeafDither": true,
        "KJOEFBPOIIH": "",
        "IICFKKEBIEC": "",
        "EGEHEJEBLBJ": ""
      },
      {
        "$type": "PKKMAMONGEO",
        "type": "DIALOG",
        "aliasList": [
          "20551"
        ],
        "dialogID": 710620122,
        "protectTime": 1.0
      },
      {
        "$type": "MoleMole.Config.ConfigTeleportToAction",
        "type": "TELEPORT_TO",
        "aliasList": [
          "20536"
        ],
        "position": {
          "x": 713.2579956054688,
          "y": 762.14697265625,
          "z": 417.68499755859375
        },
        "forward": {
          "x": 0.6299999952316284,
          "z": 0.7770000100135803
        },
        "openLongDisTeleport": true,
        "_posBindMovingTargetKey": "",
        "_forwardBindMovingTargetKey": ""
      },
      {
        "$type": "LJLMDHDCAMK",
        "type": "LOOK_AT",
        "aliasList": [
          "20536"
        ],
        "enableHead": true,
        "headTurnTime": 0.5,
        "targetNpcAlias": "20551",
        "targetNpcLookAtPoint": "",
        "OAFJBHJHLJG": ""
      },
      {
        "$type": "FJKIHHKJLMJ",
        "type": "CAMERA_MOVE",
        "delayTime": 0.21199999749660492,
        "duration": 6.494999885559082,
        "camPosOffset": {
          "x": 714.4869995117188,
          "y": 763.947021484375,
          "z": 424.0849914550781
        },
        "camForwardTargetOffset": {
          "x": 714.1309814453125,
          "y": 763.93701171875,
          "z": 423.1510009765625
        },
        "camFov": 30.0,
        "cameraBlendType": "EaseOutQuad",
        "NJBNNOMLKCK": {},
        "needZAxisRotate": true,
        "rotateAngle": 359.9939880371094,
        "openCameraDither": false,
        "targetNpcAlias": "",
        "closeTreeLeafDither": true,
        "KJOEFBPOIIH": "",
        "IICFKKEBIEC": "",
        "EGEHEJEBLBJ": ""
      }
    ],
    [
      {
        "$type": "PKKMAMONGEO",
        "type": "DIALOG",
        "aliasList": [
          "20549"
        ],
        "dialogID": 710620123,
        "protectTime": 1.0
      },
      {
        "$type": "LJLMDHDCAMK",
        "type": "LOOK_AT",
        "aliasList": [
          "20549"
        ],
        "enableHead": true,
        "headTurnTime": 0.5,
        "targetNpcAlias": "20551",
        "targetNpcLookAtPoint": "",
        "OAFJBHJHLJG": ""
      },
      {
        "$type": "FJKIHHKJLMJ",
        "type": "CAMERA_MOVE",
        "duration": 0.4000000059604645,
        "camPosOffset": {
          "x": 715.1890258789062,
          "y": 763.9249877929688,
          "z": 420.8840026855469
        },
        "camForwardTargetOffset": {
          "x": 715.8820190429688,
          "y": 763.8939819335938,
          "z": 421.60400390625
        },
        "camFov": 30.0,
        "lerpPattern": 6,
        "cameraBlendType": "EaseInOutCubic",
        "NJBNNOMLKCK": {},
        "needZAxisRotate": true,
        "rotateAngle": 359.9939880371094,
        "openCameraDither": false,
        "targetNpcAlias": "",
        "closeTreeLeafDither": true,
        "KJOEFBPOIIH": "",
        "IICFKKEBIEC": "",
        "EGEHEJEBLBJ": ""
      },
      {
        "$type": "FJKIHHKJLMJ",
        "type": "CAMERA_MOVE",
        "delayTime": 0.22699999809265137,
        "duration": 4.872000217437744,
        "camPosOffset": {
          "x": 715.2239990234375,
          "y": 763.9229736328125,
          "z": 420.9200134277344
        },
        "camForwardTargetOffset": {
          "x": 715.9169921875,
          "y": 763.8920288085938,
          "z": 421.6400146484375
        },
        "camFov": 30.0,
        "cameraBlendType": "EaseOutQuad",
        "NJBNNOMLKCK": {},
        "needZAxisRotate": true,
        "rotateAngle": 359.9939880371094,
        "openCameraDither": false,
        "targetNpcAlias": "",
        "closeTreeLeafDither": true,
        "KJOEFBPOIIH": "",
        "IICFKKEBIEC": "",
        "EGEHEJEBLBJ": ""
      }
    ],
    [
      {
        "$type": "LJLMDHDCAMK",
        "type": "LOOK_AT",
        "aliasList": [
          "20549"
        ],
        "enableHead": true,
        "headTurnTime": 0.5,
        "targetNpcAlias": "20551",
        "targetNpcLookAtPoint": "",
        "OAFJBHJHLJG": ""
      },
      {
        "$type": "PKKMAMONGEO",
        "type": "DIALOG",
        "aliasList": [
          "20551"
        ],
        "dialogID": 710620124,
        "protectTime": 1.0
      },
      {
        "$type": "LJLMDHDCAMK",
        "type": "LOOK_AT",
        "aliasList": [
          "20550"
        ],
        "enableHead": true,
        "headTurnTime": 0.5,
        "targetNpcAlias": "20551",
        "targetNpcLookAtPoint": "",
        "OAFJBHJHLJG": ""
      },
      {
        "$type": "LJLMDHDCAMK",
        "type": "LOOK_AT",
        "aliasList": [
          "1005"
        ],
        "enableHead": true,
        "headTurnTime": 0.5,
        "targetNpcAlias": "20551",
        "targetNpcLookAtPoint": "",
        "OAFJBHJHLJG": ""
      },
      {
        "$type": "FJKIHHKJLMJ",
        "type": "CAMERA_MOVE",
        "duration": 0.4000000059604645,
        "camPosOffset": {
          "x": 732.6649780273438,
          "y": 761.89697265625,
          "z": 406.093994140625
        },
        "camForwardTargetOffset": {
          "x": 731.7449951171875,
          "y": 761.968017578125,
          "z": 406.47900390625
        },
        "camFov": 40.0,
        "lerpPattern": 6,
        "cameraBlendType": "EaseInOutCubic",
        "NJBNNOMLKCK": {},
        "needZAxisRotate": true,
        "rotateAngle": 359.9939880371094,
        "openCameraDither": false,
        "targetNpcAlias": "",
        "closeTreeLeafDither": true,
        "KJOEFBPOIIH": "",
        "IICFKKEBIEC": "",
        "EGEHEJEBLBJ": ""
      },
      {
        "$type": "LJLMDHDCAMK",
        "type": "LOOK_AT",
        "aliasList": [
          "Avatar"
        ],
        "enableHead": true,
        "headTurnTime": 0.5,
        "targetNpcAlias": "20551",
        "targetNpcLookAtPoint": "",
        "OAFJBHJHLJG": ""
      },
      {
        "$type": "LJLMDHDCAMK",
        "type": "LOOK_AT",
        "aliasList": [
          "20536"
        ],
        "enableHead": true,
        "headTurnTime": 0.5,
        "targetNpcAlias": "20551",
        "targetNpcLookAtPoint": "",
        "OAFJBHJHLJG": ""
      },
      {
        "$type": "FJKIHHKJLMJ",
        "type": "CAMERA_MOVE",
        "delayTime": 0.21699999272823334,
        "duration": 8.595000267028809,
        "camPosOffset": {
          "x": 732.9970092773438,
          "y": 761.9000244140625,
          "z": 406.88800048828125
        },
        "camForwardTargetOffset": {
          "x": 732.0770263671875,
          "y": 761.9710083007812,
          "z": 407.27301025390625
        },
        "camFov": 40.0,
        "cameraBlendType": "EaseOutQuad",
        "NJBNNOMLKCK": {},
        "needZAxisRotate": true,
        "rotateAngle": 359.9939880371094,
        "openCameraDither": false,
        "targetNpcAlias": "",
        "closeTreeLeafDither": true,
        "KJOEFBPOIIH": "",
        "IICFKKEBIEC": "",
        "EGEHEJEBLBJ": ""
      }
    ],
    [
      {
        "$type": "MoleMole.Config.ConfigTeleportToAction",
        "type": "TELEPORT_TO",
        "aliasList": [
          "20536"
        ],
        "position": {
          "x": 712.7639770507812,
          "y": 762.14697265625,
          "z": 418.3169860839844
        },
        "forward": {
          "x": 0.878000020980835,
          "z": 0.4779999852180481
        },
        "openLongDisTeleport": true,
        "_posBindMovingTargetKey": "",
        "_forwardBindMovingTargetKey": ""
      },
      {
        "$type": "LJLMDHDCAMK",
        "type": "LOOK_AT",
        "aliasList": [
          "20536"
        ],
        "enableHead": true,
        "headTurnTime": 0.5,
        "targetNpcAlias": "20551",
        "targetNpcLookAtPoint": "",
        "OAFJBHJHLJG": ""
      },
      {
        "$type": "MoleMole.Config.ConfigTeleportToAction",
        "type": "TELEPORT_TO",
        "aliasList": [
          "1005"
        ],
        "position": {
          "x": 716.1920166015625,
          "y": 762.1409912109375,
          "z": 417.72698974609375
        },
        "forward": {
          "x": -1.0,
          "z": 0.02199999988079071
        },
        "openLongDisTeleport": true,
        "_posBindMovingTargetKey": "",
        "_forwardBindMovingTargetKey": ""
      },
      {
        "$type": "FJKIHHKJLMJ",
        "type": "CAMERA_MOVE",
        "duration": 0.4000000059604645,
        "camPosOffset": {
          "x": 719.5399780273438,
          "y": 762.9110107421875,
          "z": 429.9049987792969
        },
        "camForwardTargetOffset": {
          "x": 719.0130004882812,
          "y": 762.9730224609375,
          "z": 429.0580139160156
        },
        "camFov": 30.0,
        "lerpPattern": 6,
        "cameraBlendType": "EaseInOutCubic",
        "NJBNNOMLKCK": {},
        "needZAxisRotate": true,
        "rotateAngle": 359.9939880371094,
        "openCameraDither": false,
        "targetNpcAlias": "",
        "closeTreeLeafDither": true,
        "KJOEFBPOIIH": "",
        "IICFKKEBIEC": "",
        "EGEHEJEBLBJ": ""
      },
      {
        "$type": "PKKMAMONGEO",
        "type": "DIALOG",
        "aliasList": [
          "20536"
        ],
        "dialogID": 710620125,
        "protectTime": 1.0
      },
      {
        "$type": "FJKIHHKJLMJ",
        "type": "CAMERA_MOVE",
        "delayTime": 0.22100000083446503,
        "duration": 12.654000282287598,
        "camPosOffset": {
          "x": 719.4130249023438,
          "y": 762.926025390625,
          "z": 429.70001220703125
        },
        "camForwardTargetOffset": {
          "x": 718.885986328125,
          "y": 762.9879760742188,
          "z": 428.8529968261719
        },
        "camFov": 30.0,
        "cameraBlendType": "EaseOutQuad",
        "NJBNNOMLKCK": {},
        "needZAxisRotate": true,
        "rotateAngle": 359.9939880371094,
        "openCameraDither": false,
        "targetNpcAlias": "",
        "closeTreeLeafDither": true,
        "KJOEFBPOIIH": "",
        "IICFKKEBIEC": "",
        "EGEHEJEBLBJ": ""
      }
    ],
    [
      {
        "$type": "LJLMDHDCAMK",
        "type": "LOOK_AT",
        "aliasList": [
          "1005"
        ],
        "enableHead": true,
        "headTurnTime": 0.5,
        "targetNpcAlias": "Avatar",
        "targetNpcLookAtPoint": "",
        "OAFJBHJHLJG": ""
      },
      {
        "$type": "PKKMAMONGEO",
        "type": "DIALOG",
        "aliasList": [
          "1005"
        ],
        "dialogID": 710620126,
        "protectTime": 1.0
      },
      {
        "$type": "CPJKOIHIPBE",
        "type": "EMO_SYNC",
        "aliasList": [
          "1005"
        ],
        "dataPath": "",
        "phonemePath": "Cs_Emo_Pet_Common/Cs_Emo_Paimon_None",
        "emotionPath": "Cs_Emo_Pet_Common/Cs_Emo_Paimon_Normal02_B",
        "mateDataPath": "",
        "matePhonemePath": "",
        "mateEmotionPath": "",
        "phonemePathHashList": [
          1796869206626684908,
          2049648015653630001,
          14015965774222061559,
          873259039409222856
        ],
        "emotionPathHashList": [
          8193175980003048155,
          1264945116173066023,
          9863698042095554948,
          6125281388361076342
        ],
        "FMDPBECPELH": "",
        "ADKBLPOKGIK": ""
      },
      {
        "$type": "MoleMole.Config.ConfigTeleportToAction",
        "type": "TELEPORT_TO",
        "aliasList": [
          "1005"
        ],
        "position": {
          "x": 716.7360229492188,
          "y": 762.1400146484375,
          "z": 417.7149963378906
        },
        "forward": {
          "x": -1.0,
          "z": 0.02199999988079071
        },
        "openLongDisTeleport": true,
        "_posBindMovingTargetKey": "",
        "_forwardBindMovingTargetKey": ""
      },
      {
        "$type": "FJKIHHKJLMJ",
        "type": "CAMERA_MOVE",
        "duration": 0.4000000059604645,
        "camPosOffset": {
          "x": 714.822021484375,
          "y": 763.5560302734375,
          "z": 419.9259948730469
        },
        "camForwardTargetOffset": {
          "x": 715.5800170898438,
          "y": 763.4660034179688,
          "z": 419.2799987792969
        },
        "camFov": 20.0,
        "lerpPattern": 6,
        "cameraBlendType": "EaseInOutCubic",
        "NJBNNOMLKCK": {},
        "needZAxisRotate": true,
        "rotateAngle": 359.9939880371094,
        "openCameraDither": false,
        "targetNpcAlias": "",
        "closeTreeLeafDither": true,
        "KJOEFBPOIIH": "",
        "IICFKKEBIEC": "",
        "EGEHEJEBLBJ": ""
      },
      {
        "$type": "MoleMole.Config.ConfigTeleportToAction",
        "type": "TELEPORT_TO",
        "aliasList": [
          "Avatar"
        ],
        "position": {
          "x": 716.8369750976562,
          "y": 762.1400146484375,
          "z": 418.6470031738281
        },
        "forward": {
          "x": -0.9359999895095825,
          "z": -0.2590000033378601
        },
        "openLongDisTeleport": true,
        "_posBindMovingTargetKey": "",
        "_forwardBindMovingTargetKey": ""
      },
      {
        "$type": "FJKIHHKJLMJ",
        "type": "CAMERA_MOVE",
        "delayTime": 0.3009999990463257,
        "duration": 8.118000030517578,
        "camPosOffset": {
          "x": 714.822021484375,
          "y": 763.5560302734375,
          "z": 419.9259948730469
        },
        "camForwardTargetOffset": {
          "x": 715.5800170898438,
          "y": 763.4660034179688,
          "z": 419.2799987792969
        },
        "camFov": 20.0,
        "cameraBlendType": "EaseOutQuad",
        "NJBNNOMLKCK": {},
        "needZAxisRotate": true,
        "rotateAngle": 359.9939880371094,
        "openCameraDither": false,
        "targetNpcAlias": "",
        "closeTreeLeafDither": true,
        "KJOEFBPOIIH": "",
        "IICFKKEBIEC": "",
        "EGEHEJEBLBJ": ""
      },
      {
        "$type": "LLGANGLOEEO",
        "type": "STEER_TO",
        "delayTime": 0.3449999988079071,
        "duration": 1.0,
        "aliasList": [
          "1005"
        ],
        "steerType": "ABSOLUTE",
        "steerDir": {
          "x": 716.7050170898438,
          "y": 762.1409912109375,
          "z": 418.46099853515625
        },
        "useSteerAnim": true,
        "targetNpcAlias": "",
        "OAFJBHJHLJG": ""
      },
      {
        "$type": "LJLMDHDCAMK",
        "type": "LOOK_AT",
        "delayTime": 0.6740000247955322,
        "aliasList": [
          "Avatar"
        ],
        "enableHead": true,
        "useTargetPos": true,
        "enableAbsolute": true,
        "targetPosition": {
          "x": 716.5880126953125,
          "y": 763.5280151367188,
          "z": 417.67498779296875
        },
        "headTurnTime": 0.5,
        "targetNpcAlias": "",
        "lookAtTargetType": "NONE",
        "targetNpcLookAtPoint": "",
        "OAFJBHJHLJG": ""
      },
      {
        "$type": "LJLMDHDCAMK",
        "type": "LOOK_AT",
        "delayTime": 1.2009999752044678,
        "aliasList": [
          "1005"
        ],
        "enableHead": true,
        "useTargetPos": true,
        "enableAbsolute": true,
        "targetPosition": {
          "x": 716.760009765625,
          "y": 763.5150146484375,
          "z": 418.5199890136719
        },
        "headTurnTime": 0.5,
        "targetNpcAlias": "",
        "lookAtTargetType": "NONE",
        "targetNpcLookAtPoint": "",
        "OAFJBHJHLJG": ""
      },
      {
        "$type": "FABLGECDBCH",
        "type": "BODY_LANG",
        "delayTime": 1.9240000247955322,
        "aliasList": [
          "1005"
        ],
        "bodyLangParam": 1110,
        "forceDoFreeStyle": true,
        "canDoRepeatFreeStyle": false,
        "eventPatternSuiteKey": "",
        "FOHHKFAIAAJ": ""
      }
    ],
    [
      {
        "$type": "LJLMDHDCAMK",
        "type": "LOOK_AT",
        "aliasList": [
          "20536"
        ],
        "enableHead": true,
        "headTurnTime": 0.5,
        "targetNpcAlias": "Avatar",
        "targetNpcLookAtPoint": "",
        "OAFJBHJHLJG": ""
      },
      {
        "$type": "LJLMDHDCAMK",
        "type": "LOOK_AT",
        "aliasList": [
          "1005"
        ],
        "enableHead": true,
        "headTurnTime": 0.5,
        "targetNpcAlias": "20536",
        "targetNpcLookAtPoint": "",
        "OAFJBHJHLJG": ""
      },
      {
        "$type": "CPJKOIHIPBE",
        "type": "EMO_SYNC",
        "aliasList": [
          "1005"
        ],
        "dataPath": "",
        "phonemePath": "Cs_Emo_Pet_Common/Cs_Emo_Paimon_None",
        "emotionPath": "Cs_Emo_Pet_Common/Cs_Emo_Paimon_Normal01_B",
        "mateDataPath": "",
        "matePhonemePath": "",
        "mateEmotionPath": "",
        "phonemePathHashList": [
          1796869206626684908,
          2049648015653630001,
          14015965774222061559,
          873259039409222856
        ],
        "emotionPathHashList": [
          14892026956990897578,
          7647528750435710781,
          2171559387429051042,
          15358483104891988261
        ],
        "FMDPBECPELH": "",
        "ADKBLPOKGIK": ""
      },
      {
        "$type": "PKKMAMONGEO",
        "type": "DIALOG",
        "aliasList": [
          "20536"
        ],
        "dialogID": 710620127,
        "protectTime": 1.0
      },
      {
        "$type": "FJKIHHKJLMJ",
        "type": "CAMERA_MOVE",
        "duration": 0.4000000059604645,
        "camPosOffset": {
          "x": 719.0599975585938,
          "y": 763.0609741210938,
          "z": 420.2179870605469
        },
        "camForwardTargetOffset": {
          "x": 718.1840209960938,
          "y": 763.1380004882812,
          "z": 419.74200439453125
        },
        "camFov": 30.0,
        "lerpPattern": 6,
        "cameraBlendType": "EaseInOutCubic",
        "NJBNNOMLKCK": {},
        "needZAxisRotate": true,
        "rotateAngle": 359.9939880371094,
        "openCameraDither": false,
        "targetNpcAlias": "",
        "closeTreeLeafDither": true,
        "KJOEFBPOIIH": "",
        "IICFKKEBIEC": "",
        "EGEHEJEBLBJ": ""
      },
      {
        "$type": "LJLMDHDCAMK",
        "type": "LOOK_AT",
        "aliasList": [
          "Avatar"
        ],
        "enableHead": true,
        "useTargetPos": true,
        "enableAbsolute": true,
        "targetPosition": {
          "x": 713.843017578125,
          "y": 764.7490234375,
          "z": 418.7980041503906
        },
        "headTurnTime": 0.5,
        "targetNpcAlias": "",
        "lookAtTargetType": "NONE",
        "targetNpcLookAtPoint": "",
        "OAFJBHJHLJG": ""
      },
      {
        "$type": "FJKIHHKJLMJ",
        "type": "CAMERA_MOVE",
        "delayTime": 0.210999995470047,
        "duration": 8.875,
        "camPosOffset": {
          "x": 718.9099731445312,
          "y": 763.073974609375,
          "z": 420.135986328125
        },
        "camForwardTargetOffset": {
          "x": 718.0339965820312,
          "y": 763.1510009765625,
          "z": 419.6600036621094
        },
        "camFov": 30.0,
        "cameraBlendType": "EaseOutQuad",
        "NJBNNOMLKCK": {},
        "needZAxisRotate": true,
        "rotateAngle": 359.9939880371094,
        "openCameraDither": false,
        "targetNpcAlias": "",
        "closeTreeLeafDither": true,
        "KJOEFBPOIIH": "",
        "IICFKKEBIEC": "",
        "EGEHEJEBLBJ": ""
      },
      {
        "$type": "LLGANGLOEEO",
        "type": "STEER_TO",
        "delayTime": 0.30000001192092896,
        "duration": 1.0,
        "aliasList": [
          "1005"
        ],
        "steerType": "ABSOLUTE",
        "steerDir": {
          "x": 715.4509887695312,
          "y": 762.1430053710938,
          "z": 417.90301513671875
        },
        "useSteerAnim": true,
        "targetNpcAlias": "",
        "OAFJBHJHLJG": ""
      },
      {
        "$type": "LJLMDHDCAMK",
        "type": "LOOK_AT",
        "delayTime": 1.1180000305175781,
        "aliasList": [
          "1005"
        ],
        "enableHead": true,
        "headTurnTime": 0.5,
        "targetNpcAlias": "20536",
        "targetNpcLookAtPoint": "",
        "OAFJBHJHLJG": ""
      }
    ],
    [
      {
        "$type": "MoleMole.Config.ConfigTimeProtectAction",
        "type": "TIME_PROTECT",
        "duration": 0.699999988079071
      },
      {
        "$type": "MoleMole.Config.ConfigTimeProtectAction",
        "type": "TIME_PROTECT",
        "duration": 0.10000000149011612
      }
    ]
  ],
  "groupId": [
    {
      "grpId": 381141302,
      "nextGrpId": 381141303
    },
    {
      "index": 1,
      "grpId": 381141303,
      "nextGrpId": 381141304
    },
    {
      "index": 2,
      "grpId": 381141304,
      "nextGrpId": 381141305
    },
    {
      "index": 3,
      "grpId": 381141305,
      "nextGrpId": 381141306
    },
    {
      "index": 4,
      "grpId": 381141306,
      "nextGrpId": 381141307
    },
    {
      "index": 5,
      "grpId": 381141307,
      "nextGrpId": 381141308
    },
    {
      "index": 6,
      "grpId": 381141308,
      "nextGrpId": 381141309
    },
    {
      "index": 7,
      "grpId": 381141309,
      "nextGrpId": 381141310
    },
    {
      "index": 8,
      "grpId": 381141310,
      "nextGrpId": 3225445818
    }
  ]
}