{
  "luaDataPath": "",
  "entityBan": "",
  "startFade": {
    "startFadeOutDuration": 0.0
  },
  "endFade": {
    "startFadeOutDuration": 0.0
  },
  "actors": [
    {
      "alias": "Avatar",
      "visible": true,
      "bornPointName": "Q37801Player",
      "relativePosNpcAlias": "",
      "_bindMovingTargetKey": ""
    },
    {
      "configID": 1006,
      "alias": "1006",
      "visible": true,
      "bornPointName": "Q378Qin1",
      "relativePosNpcAlias": "",
      "_bindMovingTargetKey": ""
    }
  ],
  "group": [
    [
      {
        "$type": "HDGKHDNFMIM",
        "type": "DIALOG_SELECT",
        "delayTime": 0.4000000059604645,
        "aliasList": [
          "Avatar"
        ],
        "dialogIDList": [
          3780102
        ],
        "grpIDList": [
          1931664776
        ],
        "useGrpId": true
      },
      {
        "$type": "PKKMAMONGEO",
        "type": "DIALOG",
        "aliasList": [
          "1006"
        ],
        "dialogID": 3780101
      },
      {
        "$type": "FJKIHHKJLMJ",
        "type": "CAMERA_MOVE",
        "duration": 1.0,
        "aliasList": [
          "1006"
        ],
        "camPosOffset": {
          "x": 2367.14501953125,
          "y": 251.82000732421875,
          "z": -732.280029296875
        },
        "camForwardTargetOffset": {
          "x": 2366.474609375,
          "y": 251.61065673828125,
          "z": -731.5682373046875
        },
        "lerpRatio": 6.0,
        "lerpPattern": 6,
        "NJBNNOMLKCK": {},
        "targetNpcAlias": "",
        "KJOEFBPOIIH": "",
        "IICFKKEBIEC": "",
        "EGEHEJEBLBJ": ""
      },
      {
        "$type": "CPJKOIHIPBE",
        "type": "EMO_SYNC",
        "aliasList": [
          "1006"
        ],
        "dataPath": "Cs_Emo_Avatar_Simple_Common_Set/Cs_Emo_Avatar_Qin_VO_MDAQ053_Qin_01",
        "phonemePath": "",
        "emotionPath": "",
        "mateDataPath": "",
        "matePhonemePath": "",
        "mateEmotionPath": "",
        "dataPathHashList": [
          15906897580227031147,
          13692898513628054221,
          14915680092209285137,
          16180944787472737973
        ],
        "FMDPBECPELH": "",
        "ADKBLPOKGIK": ""
      }
    ]
  ],
  "groupId": [
    {
      "grpId": 1931664775,
      "nextGrpId": 1931664776
    },
    {
      "index": 1,
      "grpId": 1931664776,
      "nextGrpId": 1931664777
    },
    {
      "index": 2,
      "grpId": 1931664777,
      "nextGrpId": 1931664778
    }
  ]
}