{
  "luaDataPath": "",
  "dontUseDefaultFinish": true,
  "startBlackKeepTime": 0.5,
  "entityBan": "",
  "disableNpcLod": true,
  "isAutoBanNpc": true,
  "isBanWidgetPet": true,
  "protectNpcMobileLod": true,
  "talkFlag": 7,
  "startFade": {
    "startFadeInDuration": 0.5,
    "startFadeOutDuration": 0.5
  },
  "endFade": {
    "startFadeOutDuration": 0.5
  },
  "actors": [
    {
      "alias": "Avatar",
      "visible": true,
      "bornPointName": "[3_5970:4252.406,578.415,3535.624,0.000,286.195,0.000]",
      "relativePosType": "AVATAR_NEW",
      "relativePosNpcAlias": "",
      "_notDestroyInTalk": true,
      "_bindMovingTargetKey": ""
    },
    {
      "alias": "AvatarNpc",
      "visible": true,
      "bornPointName": "[3_5970:4252.406,578.415,3535.624,0.000,286.195,0.000]",
      "removeActorType": "NEW_REMOVE",
      "relativePosType": "AVATAR_NEW",
      "relativePosNpcAlias": "",
      "_notDestroyInTalk": true,
      "_bindMovingTargetKey": ""
    },
    {
      "configID": 1005,
      "alias": "1005",
      "visible": true,
      "bornPointName": "[3_5971:4251.555,578.415,3536.345,0.000,253.500,0.000]",
      "removeActorType": "NEW_REMOVE_WITH_DISAPPEAR",
      "relativePosType": "AVATAR_NEW",
      "relativePosNpcAlias": "",
      "_notDestroyInTalk": true,
      "_bindMovingTargetKey": ""
    },
    {
      "configID": 21041,
      "alias": "21041",
      "visible": true,
      "bornPointName": "[3_4409:4249.999,580.068,3535.994]",
      "relativePosType": "AVATAR_NEW",
      "relativePosNpcAlias": "",
      "_notDestroyInTalk": true,
      "_bindMovingTargetKey": ""
    },
    {
      "configID": 21039,
      "alias": "21039",
      "visible": true,
      "bornPointName": "[3_4695:4251.421,578.415,3535.254,0.000,301.510,0.000]",
      "relativePosType": "AVATAR_NEW",
      "relativePosNpcAlias": "",
      "_notDestroyInTalk": true,
      "_bindMovingTargetKey": ""
    }
  ],
  "group": [
    [
      {
        "$type": "MoleMole.Config.ConfigTimeProtectAction",
        "type": "TIME_PROTECT",
        "duration": 1.0,
        "actionId": 104
      },
      {
        "$type": "MoleMole.Config.ConfigBlackScreenAction",
        "type": "BLACK_SCREEN",
        "duration": 1.0,
        "actionId": 257,
        "blackScreenType": "KEEP_BLACK",
        "durationToBlack": 0.5,
        "durationKeepBlack": 1.0,
        "durationFromBlack": 0.5,
        "inteePos": "",
        "textMapID": "",
        "useTextFade": true,
        "_changeAudioState": true
      },
      {
        "$type": "MoleMole.Config.ConfigSitOrStandAction",
        "type": "SIT_OR_STAND",
        "aliasList": [
          "Avatar"
        ],
        "actionId": 265,
        "banResetFreestyle": true
      },
      {
        "$type": "MoleMole.Config.ConfigVisibleInterAction",
        "type": "VISIBLE",
        "aliasList": [
          "Avatar"
        ],
        "actionId": 270,
        "_extraParam": ""
      },
      {
        "$type": "MoleMole.Config.ConfigPlayerNPCEnergyTypeAction",
        "type": "SET_PLAYER_NPC_ENERGY_TYPE",
        "aliasList": [
          "AvatarNpc"
        ],
        "actionId": 266,
        "setHeroEngergyType": true
      },
      {
        "$type": "FABLGECDBCH",
        "type": "BODY_LANG",
        "aliasList": [
          "AvatarNpc"
        ],
        "actionId": 267,
        "isContinue": true,
        "forceDoFreeStyle": true,
        "canDoRepeatFreeStyle": false,
        "eventPatternSuiteKey": "",
        "FOHHKFAIAAJ": ""
      },
      {
        "$type": "FABLGECDBCH",
        "type": "BODY_LANG",
        "aliasList": [
          "1005"
        ],
        "actionId": 251,
        "isContinue": true,
        "forceDoFreeStyle": true,
        "canDoRepeatFreeStyle": false,
        "eventPatternSuiteKey": "",
        "FOHHKFAIAAJ": ""
      },
      {
        "$type": "FABLGECDBCH",
        "type": "BODY_LANG",
        "aliasList": [
          "21039"
        ],
        "actionId": 255,
        "isContinue": true,
        "forceDoFreeStyle": true,
        "canDoRepeatFreeStyle": false,
        "eventPatternSuiteKey": "",
        "FOHHKFAIAAJ": ""
      }
    ],
    [
      {
        "$type": "MoleMole.Config.ConfigBlackScreenAction",
        "type": "BLACK_SCREEN",
        "duration": 0.5,
        "actionId": 258,
        "blackScreenType": "FROM_BLACK",
        "durationToBlack": 0.5,
        "durationKeepBlack": 0.5,
        "durationFromBlack": 0.5,
        "inteePos": "",
        "textMapID": "",
        "useTextFade": true,
        "_changeAudioState": true
      },
      {
        "$type": "PKKMAMONGEO",
        "type": "DIALOG",
        "aliasList": [
          "1005"
        ],
        "actionId": 107,
        "dialogID": 740180601,
        "protectTime": 0.5
      }
    ],
    [
      {
        "$type": "PKKMAMONGEO",
        "type": "DIALOG",
        "aliasList": [
          "21041"
        ],
        "actionId": 109,
        "dialogID": 740180602,
        "protectTime": 0.5
      }
    ],
    [
      {
        "$type": "PKKMAMONGEO",
        "type": "DIALOG",
        "aliasList": [
          "1005"
        ],
        "actionId": 111,
        "dialogID": 740180603,
        "protectTime": 0.5
      },
      {
        "$type": "HDGKHDNFMIM",
        "type": "DIALOG_SELECT",
        "delayTime": 0.4000000059604645,
        "aliasList": [
          "21039"
        ],
        "actionId": 112,
        "dialogIDList": [
          740180604
        ],
        "grpIDList": [
          3040634974
        ],
        "useGrpId": true,
        "countDownGrpId": 3040634969
      }
    ],
    [
      {
        "$type": "PKKMAMONGEO",
        "type": "DIALOG",
        "aliasList": [
          "21041"
        ],
        "actionId": 114,
        "dialogID": 740180605,
        "protectTime": 0.5
      }
    ],
    [
      {
        "$type": "PKKMAMONGEO",
        "type": "DIALOG",
        "aliasList": [
          "1005"
        ],
        "actionId": 116,
        "dialogID": 740180606,
        "protectTime": 0.5
      }
    ],
    [
      {
        "$type": "PKKMAMONGEO",
        "type": "DIALOG",
        "aliasList": [
          "21041"
        ],
        "actionId": 118,
        "dialogID": 740180607,
        "protectTime": 0.5
      },
      {
        "$type": "HDGKHDNFMIM",
        "type": "DIALOG_SELECT",
        "delayTime": 0.4000000059604645,
        "aliasList": [
          "AvatarNpc"
        ],
        "actionId": 260,
        "dialogIDList": [
          740180608
        ],
        "grpIDList": [
          3040634977
        ],
        "useGrpId": true,
        "countDownGrpId": 3040634969
      }
    ],
    [
      {
        "$type": "MoleMole.Config.ConfigSimpleBlackScreenAction",
        "type": "SIMPLE_BLACK_SCREEN",
        "actionId": 121,
        "durationToBlack": 0.5,
        "durationKeepBlack": 3.0,
        "durationFromBlack": 0.5,
        "textMapID": "",
        "useTextFade": true,
        "_dialogID": 740180609,
        "_changeAudioState": true
      },
      {
        "$type": "PKKMAMONGEO",
        "type": "DIALOG_CLEAR",
        "actionId": 122
      }
    ],
    [
      {
        "$type": "PKKMAMONGEO",
        "type": "DIALOG",
        "aliasList": [
          "21041"
        ],
        "actionId": 124,
        "dialogID": 740180610,
        "protectTime": 0.5
      }
    ],
    [
      {
        "$type": "PKKMAMONGEO",
        "type": "DIALOG",
        "aliasList": [
          "1005"
        ],
        "actionId": 126,
        "dialogID": 740180611,
        "protectTime": 0.5
      }
    ],
    [
      {
        "$type": "PKKMAMONGEO",
        "type": "DIALOG",
        "aliasList": [
          "21041"
        ],
        "actionId": 128,
        "dialogID": 740180612,
        "protectTime": 0.5
      },
      {
        "$type": "HDGKHDNFMIM",
        "type": "DIALOG_SELECT",
        "delayTime": 0.4000000059604645,
        "aliasList": [
          "AvatarNpc"
        ],
        "actionId": 261,
        "dialogIDList": [
          740180613
        ],
        "grpIDList": [
          4065370904
        ],
        "useGrpId": true,
        "countDownGrpId": 3040634969
      }
    ],
    [
      {
        "$type": "PKKMAMONGEO",
        "type": "DIALOG",
        "aliasList": [
          "21041"
        ],
        "actionId": 131,
        "dialogID": 740180614,
        "protectTime": 0.5
      }
    ],
    [
      {
        "$type": "PKKMAMONGEO",
        "type": "DIALOG",
        "aliasList": [
          "21041"
        ],
        "actionId": 133,
        "dialogID": 740180615,
        "protectTime": 0.5
      }
    ],
    [
      {
        "$type": "PKKMAMONGEO",
        "type": "DIALOG",
        "aliasList": [
          "21039"
        ],
        "actionId": 135,
        "dialogID": 740180616,
        "protectTime": 0.5
      }
    ],
    [
      {
        "$type": "PKKMAMONGEO",
        "type": "DIALOG",
        "aliasList": [
          "21041"
        ],
        "actionId": 137,
        "dialogID": 740180617,
        "protectTime": 0.5
      }
    ],
    [
      {
        "$type": "PKKMAMONGEO",
        "type": "DIALOG",
        "aliasList": [
          "21041"
        ],
        "actionId": 139,
        "dialogID": 740180618,
        "protectTime": 0.5
      }
    ],
    [
      {
        "$type": "PKKMAMONGEO",
        "type": "DIALOG",
        "aliasList": [
          "21041"
        ],
        "actionId": 141,
        "dialogID": 740180619,
        "protectTime": 0.5
      }
    ],
    [
      {
        "$type": "PKKMAMONGEO",
        "type": "DIALOG",
        "aliasList": [
          "21041"
        ],
        "actionId": 143,
        "dialogID": 740180620,
        "protectTime": 0.5
      }
    ],
    [
      {
        "$type": "PKKMAMONGEO",
        "type": "DIALOG",
        "aliasList": [
          "21041"
        ],
        "actionId": 145,
        "dialogID": 740180621,
        "protectTime": 0.5
      }
    ],
    [
      {
        "$type": "PKKMAMONGEO",
        "type": "DIALOG",
        "aliasList": [
          "1005"
        ],
        "actionId": 147,
        "dialogID": 740180622,
        "protectTime": 0.5
      }
    ],
    [
      {
        "$type": "PKKMAMONGEO",
        "type": "DIALOG",
        "aliasList": [
          "21039"
        ],
        "actionId": 149,
        "dialogID": 740180623,
        "protectTime": 0.5
      }
    ],
    [
      {
        "$type": "PKKMAMONGEO",
        "type": "DIALOG",
        "aliasList": [
          "21041"
        ],
        "actionId": 151,
        "dialogID": 740180624,
        "protectTime": 0.5
      }
    ],
    [
      {
        "$type": "PKKMAMONGEO",
        "type": "DIALOG",
        "aliasList": [
          "21039"
        ],
        "actionId": 153,
        "dialogID": 740180625,
        "protectTime": 0.5
      }
    ],
    [
      {
        "$type": "PKKMAMONGEO",
        "type": "DIALOG",
        "aliasList": [
          "1005"
        ],
        "actionId": 155,
        "dialogID": 740180626,
        "protectTime": 0.5
      },
      {
        "$type": "HDGKHDNFMIM",
        "type": "DIALOG_SELECT",
        "delayTime": 0.4000000059604645,
        "aliasList": [
          "AvatarNpc"
        ],
        "actionId": 262,
        "dialogIDList": [
          740180627,
          740180628
        ],
        "grpIDList": [
          4065370938,
          4065370938
        ],
        "useGrpId": true,
        "countDownGrpId": 3040634969
      }
    ],
    [
      {
        "$type": "PKKMAMONGEO",
        "type": "DIALOG",
        "aliasList": [
          "21039"
        ],
        "actionId": 158,
        "dialogID": 740180629,
        "protectTime": 0.5
      }
    ],
    [
      {
        "$type": "PKKMAMONGEO",
        "type": "DIALOG",
        "aliasList": [
          "21041"
        ],
        "actionId": 160,
        "dialogID": 740180630,
        "protectTime": 0.5
      },
      {
        "$type": "HDGKHDNFMIM",
        "type": "DIALOG_SELECT",
        "delayTime": 0.4000000059604645,
        "aliasList": [
          "AvatarNpc"
        ],
        "actionId": 263,
        "dialogIDList": [
          740180631
        ],
        "grpIDList": [
          4065370940
        ],
        "useGrpId": true,
        "countDownGrpId": 3040634969
      }
    ],
    [
      {
        "$type": "PKKMAMONGEO",
        "type": "DIALOG",
        "aliasList": [
          "21041"
        ],
        "actionId": 163,
        "dialogID": 740180632,
        "protectTime": 0.5
      }
    ],
    [
      {
        "$type": "PKKMAMONGEO",
        "type": "DIALOG",
        "aliasList": [
          "21041"
        ],
        "actionId": 165,
        "dialogID": 740180633,
        "protectTime": 0.5
      }
    ],
    [
      {
        "$type": "PKKMAMONGEO",
        "type": "DIALOG",
        "aliasList": [
          "21041"
        ],
        "actionId": 167,
        "dialogID": 740180634,
        "protectTime": 0.5
      }
    ],
    [
      {
        "$type": "PKKMAMONGEO",
        "type": "DIALOG",
        "aliasList": [
          "1005"
        ],
        "actionId": 169,
        "dialogID": 740180635,
        "protectTime": 0.5
      }
    ],
    [
      {
        "$type": "PKKMAMONGEO",
        "type": "DIALOG",
        "aliasList": [
          "21041"
        ],
        "actionId": 171,
        "dialogID": 740180636,
        "protectTime": 0.5
      }
    ],
    [
      {
        "$type": "PKKMAMONGEO",
        "type": "DIALOG",
        "aliasList": [
          "21041"
        ],
        "actionId": 173,
        "dialogID": 740180637,
        "protectTime": 0.5
      }
    ],
    [
      {
        "$type": "PKKMAMONGEO",
        "type": "DIALOG",
        "aliasList": [
          "21039"
        ],
        "actionId": 175,
        "dialogID": 740180638,
        "protectTime": 0.5
      }
    ],
    [
      {
        "$type": "PKKMAMONGEO",
        "type": "DIALOG",
        "aliasList": [
          "21041"
        ],
        "actionId": 177,
        "dialogID": 740180639,
        "protectTime": 0.5
      }
    ],
    [
      {
        "$type": "PKKMAMONGEO",
        "type": "DIALOG",
        "aliasList": [
          "1005"
        ],
        "actionId": 179,
        "dialogID": 740180640,
        "protectTime": 0.5
      }
    ],
    [
      {
        "$type": "PKKMAMONGEO",
        "type": "DIALOG",
        "aliasList": [
          "21041"
        ],
        "actionId": 181,
        "dialogID": 740180641,
        "protectTime": 0.5
      }
    ],
    [
      {
        "$type": "PKKMAMONGEO",
        "type": "DIALOG",
        "aliasList": [
          "21041"
        ],
        "actionId": 183,
        "dialogID": 740180642,
        "protectTime": 0.5
      }
    ],
    [
      {
        "$type": "PKKMAMONGEO",
        "type": "DIALOG",
        "aliasList": [
          "1005"
        ],
        "actionId": 185,
        "dialogID": 740180643,
        "protectTime": 0.5
      }
    ],
    [
      {
        "$type": "PKKMAMONGEO",
        "type": "DIALOG",
        "aliasList": [
          "21041"
        ],
        "actionId": 187,
        "dialogID": 740180644,
        "protectTime": 0.5
      }
    ],
    [
      {
        "$type": "PKKMAMONGEO",
        "type": "DIALOG",
        "aliasList": [
          "21041"
        ],
        "actionId": 189,
        "dialogID": 740180645,
        "protectTime": 0.5
      }
    ],
    [
      {
        "$type": "PKKMAMONGEO",
        "type": "DIALOG",
        "aliasList": [
          "21039"
        ],
        "actionId": 191,
        "dialogID": 740180646,
        "protectTime": 0.5
      }
    ],
    [
      {
        "$type": "PKKMAMONGEO",
        "type": "DIALOG",
        "aliasList": [
          "1005"
        ],
        "actionId": 193,
        "dialogID": 740180647,
        "protectTime": 0.5
      }
    ],
    [
      {
        "$type": "PKKMAMONGEO",
        "type": "DIALOG",
        "aliasList": [
          "21041"
        ],
        "actionId": 195,
        "dialogID": 740180648,
        "protectTime": 0.5
      }
    ],
    [
      {
        "$type": "PKKMAMONGEO",
        "type": "DIALOG",
        "aliasList": [
          "21041"
        ],
        "actionId": 197,
        "dialogID": 740180649,
        "protectTime": 0.5
      }
    ],
    [
      {
        "$type": "PKKMAMONGEO",
        "type": "DIALOG",
        "aliasList": [
          "1005"
        ],
        "actionId": 199,
        "dialogID": 740180650,
        "protectTime": 0.5
      }
    ],
    [
      {
        "$type": "PKKMAMONGEO",
        "type": "DIALOG",
        "aliasList": [
          "1005"
        ],
        "actionId": 201,
        "dialogID": 740180651,
        "protectTime": 0.5
      }
    ],
    [
      {
        "$type": "PKKMAMONGEO",
        "type": "DIALOG",
        "aliasList": [
          "21041"
        ],
        "actionId": 203,
        "dialogID": 740180652,
        "protectTime": 0.5
      }
    ],
    [
      {
        "$type": "PKKMAMONGEO",
        "type": "DIALOG",
        "aliasList": [
          "21039"
        ],
        "actionId": 205,
        "dialogID": 740180653,
        "protectTime": 0.5
      }
    ],
    [
      {
        "$type": "PKKMAMONGEO",
        "type": "DIALOG",
        "aliasList": [
          "1005"
        ],
        "actionId": 207,
        "dialogID": 740180654,
        "protectTime": 0.5
      },
      {
        "$type": "HDGKHDNFMIM",
        "type": "DIALOG_SELECT",
        "delayTime": 0.4000000059604645,
        "aliasList": [
          "AvatarNpc"
        ],
        "actionId": 264,
        "dialogIDList": [
          740180655,
          740180657
        ],
        "grpIDList": [
          4065371026,
          4065371027
        ],
        "useGrpId": true,
        "countDownGrpId": 3040634969
      }
    ],
    [
      {
        "$type": "PKKMAMONGEO",
        "type": "DIALOG",
        "aliasList": [
          "1005"
        ],
        "actionId": 210,
        "dialogID": 740180656,
        "protectTime": 0.5
      }
    ],
    [
      {
        "$type": "PKKMAMONGEO",
        "type": "DIALOG",
        "aliasList": [
          "1005"
        ],
        "actionId": 212,
        "dialogID": 740180658,
        "protectTime": 0.5
      }
    ],
    [
      {
        "$type": "PKKMAMONGEO",
        "type": "DIALOG",
        "aliasList": [
          "21041"
        ],
        "actionId": 214,
        "dialogID": 740180659,
        "protectTime": 0.5
      }
    ],
    [
      {
        "$type": "PKKMAMONGEO",
        "type": "DIALOG",
        "aliasList": [
          "1005"
        ],
        "actionId": 216,
        "dialogID": 740180660,
        "protectTime": 0.5
      }
    ],
    [
      {
        "$type": "PKKMAMONGEO",
        "type": "DIALOG",
        "aliasList": [
          "21041"
        ],
        "actionId": 218,
        "dialogID": 740180661,
        "protectTime": 0.5
      }
    ],
    [
      {
        "$type": "PKKMAMONGEO",
        "type": "DIALOG",
        "aliasList": [
          "21041"
        ],
        "actionId": 220,
        "dialogID": 740180662,
        "protectTime": 0.5
      }
    ],
    [
      {
        "$type": "PKKMAMONGEO",
        "type": "DIALOG",
        "aliasList": [
          "21041"
        ],
        "actionId": 222,
        "dialogID": 740180663,
        "protectTime": 0.5
      }
    ],
    [
      {
        "$type": "PKKMAMONGEO",
        "type": "DIALOG",
        "aliasList": [
          "21041"
        ],
        "actionId": 224,
        "dialogID": 740180664,
        "protectTime": 0.5
      }
    ],
    [
      {
        "$type": "PKKMAMONGEO",
        "type": "DIALOG",
        "aliasList": [
          "1005"
        ],
        "actionId": 226,
        "dialogID": 740180665,
        "protectTime": 0.5
      }
    ],
    [
      {
        "$type": "PKKMAMONGEO",
        "type": "DIALOG",
        "aliasList": [
          "21041"
        ],
        "actionId": 228,
        "dialogID": 740180666,
        "protectTime": 0.5
      }
    ],
    [
      {
        "$type": "PKKMAMONGEO",
        "type": "DIALOG",
        "aliasList": [
          "21041"
        ],
        "actionId": 230,
        "dialogID": 740180667,
        "protectTime": 0.5
      }
    ],
    [
      {
        "$type": "PKKMAMONGEO",
        "type": "DIALOG",
        "aliasList": [
          "1005"
        ],
        "actionId": 232,
        "dialogID": 740180668,
        "protectTime": 0.5
      }
    ],
    [
      {
        "$type": "PKKMAMONGEO",
        "type": "DIALOG",
        "aliasList": [
          "21041"
        ],
        "actionId": 234,
        "dialogID": 740180669,
        "protectTime": 0.5
      }
    ],
    [
      {
        "$type": "PKKMAMONGEO",
        "type": "DIALOG",
        "aliasList": [
          "21041"
        ],
        "actionId": 236,
        "dialogID": 740180670,
        "protectTime": 0.5
      }
    ],
    [
      {
        "$type": "PKKMAMONGEO",
        "type": "DIALOG",
        "aliasList": [
          "21041"
        ],
        "actionId": 238,
        "dialogID": 740180671,
        "protectTime": 0.5
      }
    ],
    [
      {
        "$type": "PKKMAMONGEO",
        "type": "DIALOG",
        "aliasList": [
          "1005"
        ],
        "actionId": 240,
        "dialogID": 740180672,
        "protectTime": 0.5
      }
    ],
    [
      {
        "$type": "PKKMAMONGEO",
        "type": "DIALOG",
        "aliasList": [
          "21041"
        ],
        "actionId": 242,
        "dialogID": 740180673,
        "protectTime": 0.5
      }
    ],
    [
      {
        "$type": "PKKMAMONGEO",
        "type": "DIALOG",
        "aliasList": [
          "21039"
        ],
        "actionId": 244,
        "dialogID": 740180674,
        "protectTime": 0.5
      }
    ],
    [
      {
        "$type": "PKKMAMONGEO",
        "type": "DIALOG",
        "aliasList": [
          "1005"
        ],
        "actionId": 246,
        "dialogID": 740180675,
        "protectTime": 0.5
      }
    ],
    [
      {
        "$type": "PKKMAMONGEO",
        "type": "DIALOG",
        "aliasList": [
          "21039"
        ],
        "actionId": 248,
        "dialogID": 740180676,
        "protectTime": 0.5
      }
    ],
    [
      {
        "$type": "MoleMole.Config.ConfigTimeProtectAction",
        "type": "TIME_PROTECT",
        "duration": 0.10000000149011612,
        "actionId": 105
      },
      {
        "$type": "MoleMole.Config.ConfigSimpleBlackScreenAction",
        "type": "SIMPLE_BLACK_SCREEN",
        "actionId": 249,
        "durationToBlack": 0.5,
        "durationKeepBlack": 1.5,
        "durationFromBlack": 0.5,
        "textMapID": ""
      },
      {
        "$type": "MoleMole.Config.ConfigTimeProtectAction",
        "type": "TIME_PROTECT",
        "duration": 0.699999988079071,
        "actionId": 250
      },
      {
        "$type": "FJKIHHKJLMJ",
        "type": "CAMERA_MOVE",
        "delayTime": 0.5,
        "duration": 0.10000000149011612,
        "actionId": 259,
        "cameraPosType": "EXIT",
        "camForwardTargetOffset": {
          "z": 1.0
        },
        "camFov": 30.0,
        "lerpPattern": 5,
        "cameraBlendType": "EaseInOutCubic",
        "NJBNNOMLKCK": {},
        "openCameraDither": false,
        "targetNpcAlias": "",
        "closeTreeLeafDither": true,
        "KJOEFBPOIIH": "",
        "IICFKKEBIEC": "",
        "EGEHEJEBLBJ": ""
      },
      {
        "$type": "MoleMole.Config.ConfigVisibleInterAction",
        "type": "VISIBLE",
        "delayTime": 0.6000000238418579,
        "aliasList": [
          "Avatar"
        ],
        "actionId": 269,
        "isVisible": true,
        "_extraParam": ""
      },
      {
        "$type": "FABLGECDBCH",
        "type": "BODY_LANG",
        "delayTime": 0.6000000238418579,
        "aliasList": [
          "AvatarNpc"
        ],
        "actionId": 268,
        "isContinue": true,
        "forceDoFreeStyle": true,
        "canDoRepeatFreeStyle": false,
        "eventPatternSuiteKey": "",
        "FOHHKFAIAAJ": ""
      },
      {
        "$type": "FABLGECDBCH",
        "type": "BODY_LANG",
        "delayTime": 0.6000000238418579,
        "aliasList": [
          "1005"
        ],
        "actionId": 252,
        "isContinue": true,
        "forceDoFreeStyle": true,
        "canDoRepeatFreeStyle": false,
        "eventPatternSuiteKey": "",
        "FOHHKFAIAAJ": ""
      },
      {
        "$type": "FABLGECDBCH",
        "type": "BODY_LANG",
        "delayTime": 0.6000000238418579,
        "aliasList": [
          "21039"
        ],
        "actionId": 256,
        "isContinue": true,
        "forceDoFreeStyle": true,
        "canDoRepeatFreeStyle": false,
        "eventPatternSuiteKey": "",
        "FOHHKFAIAAJ": ""
      }
    ]
  ],
  "groupId": [
    {
      "grpId": 3040634970,
      "nextGrpId": 3040634971
    },
    {
      "index": 1,
      "grpId": 3040634971,
      "nextGrpId": 3040634972
    },
    {
      "index": 2,
      "grpId": 3040634972,
      "nextGrpId": 3040634973
    },
    {
      "index": 3,
      "grpId": 3040634973,
      "nextGrpId": 3040634974
    },
    {
      "index": 4,
      "grpId": 3040634974,
      "nextGrpId": 3040634975
    },
    {
      "index": 5,
      "grpId": 3040634975,
      "nextGrpId": 3040634976
    },
    {
      "index": 6,
      "grpId": 3040634976,
      "nextGrpId": 3040634977
    },
    {
      "index": 7,
      "grpId": 3040634977,
      "nextGrpId": 3040634978
    },
    {
      "index": 8,
      "grpId": 3040634978,
      "nextGrpId": 4065370902
    },
    {
      "index": 9,
      "grpId": 4065370902,
      "nextGrpId": 4065370903
    },
    {
      "index": 10,
      "grpId": 4065370903,
      "nextGrpId": 4065370904
    },
    {
      "index": 11,
      "grpId": 4065370904,
      "nextGrpId": 4065370905
    },
    {
      "index": 12,
      "grpId": 4065370905,
      "nextGrpId": 4065370906
    },
    {
      "index": 13,
      "grpId": 4065370906,
      "nextGrpId": 4065370907
    },
    {
      "index": 14,
      "grpId": 4065370907,
      "nextGrpId": 4065370908
    },
    {
      "index": 15,
      "grpId": 4065370908,
      "nextGrpId": 4065370909
    },
    {
      "index": 16,
      "grpId": 4065370909,
      "nextGrpId": 4065370910
    },
    {
      "index": 17,
      "grpId": 4065370910,
      "nextGrpId": 4065370911
    },
    {
      "index": 18,
      "grpId": 4065370911,
      "nextGrpId": 4065370933
    },
    {
      "index": 19,
      "grpId": 4065370933,
      "nextGrpId": 4065370934
    },
    {
      "index": 20,
      "grpId": 4065370934,
      "nextGrpId": 4065370935
    },
    {
      "index": 21,
      "grpId": 4065370935,
      "nextGrpId": 4065370936
    },
    {
      "index": 22,
      "grpId": 4065370936,
      "nextGrpId": 4065370937
    },
    {
      "index": 23,
      "grpId": 4065370937,
      "nextGrpId": 4065370938
    },
    {
      "index": 24,
      "grpId": 4065370938,
      "nextGrpId": 4065370939
    },
    {
      "index": 25,
      "grpId": 4065370939,
      "nextGrpId": 4065370940
    },
    {
      "index": 26,
      "grpId": 4065370940,
      "nextGrpId": 4065370941
    },
    {
      "index": 27,
      "grpId": 4065370941,
      "nextGrpId": 4065370942
    },
    {
      "index": 28,
      "grpId": 4065370942,
      "nextGrpId": 4065370964
    },
    {
      "index": 29,
      "grpId": 4065370964,
      "nextGrpId": 4065370965
    },
    {
      "index": 30,
      "grpId": 4065370965,
      "nextGrpId": 4065370966
    },
    {
      "index": 31,
      "grpId": 4065370966,
      "nextGrpId": 4065370967
    },
    {
      "index": 32,
      "grpId": 4065370967,
      "nextGrpId": 4065370968
    },
    {
      "index": 33,
      "grpId": 4065370968,
      "nextGrpId": 4065370969
    },
    {
      "index": 34,
      "grpId": 4065370969,
      "nextGrpId": 4065370970
    },
    {
      "index": 35,
      "grpId": 4065370970,
      "nextGrpId": 4065370971
    },
    {
      "index": 36,
      "grpId": 4065370971,
      "nextGrpId": 4065370972
    },
    {
      "index": 37,
      "grpId": 4065370972,
      "nextGrpId": 4065370973
    },
    {
      "index": 38,
      "grpId": 4065370973,
      "nextGrpId": 4065370995
    },
    {
      "index": 39,
      "grpId": 4065370995,
      "nextGrpId": 4065370996
    },
    {
      "index": 40,
      "grpId": 4065370996,
      "nextGrpId": 4065370997
    },
    {
      "index": 41,
      "grpId": 4065370997,
      "nextGrpId": 4065370998
    },
    {
      "index": 42,
      "grpId": 4065370998,
      "nextGrpId": 4065370999
    },
    {
      "index": 43,
      "grpId": 4065370999,
      "nextGrpId": 4065371000
    },
    {
      "index": 44,
      "grpId": 4065371000,
      "nextGrpId": 4065371001
    },
    {
      "index": 45,
      "grpId": 4065371001,
      "nextGrpId": 4065371002
    },
    {
      "index": 46,
      "grpId": 4065371002,
      "nextGrpId": 4065371003
    },
    {
      "index": 47,
      "grpId": 4065371003,
      "nextGrpId": 4065371004
    },
    {
      "index": 48,
      "grpId": 4065371004,
      "nextGrpId": 4065371026
    },
    {
      "index": 49,
      "grpId": 4065371026,
      "nextGrpId": 4065371028
    },
    {
      "index": 50,
      "grpId": 4065371027,
      "nextGrpId": 4065371028
    },
    {
      "index": 51,
      "grpId": 4065371028,
      "nextGrpId": 4065371029
    },
    {
      "index": 52,
      "grpId": 4065371029,
      "nextGrpId": 4065371030
    },
    {
      "index": 53,
      "grpId": 4065371030,
      "nextGrpId": 4065371031
    },
    {
      "index": 54,
      "grpId": 4065371031,
      "nextGrpId": 4065371032
    },
    {
      "index": 55,
      "grpId": 4065371032,
      "nextGrpId": 4065371033
    },
    {
      "index": 56,
      "grpId": 4065371033,
      "nextGrpId": 4065371034
    },
    {
      "index": 57,
      "grpId": 4065371034,
      "nextGrpId": 4065371035
    },
    {
      "index": 58,
      "grpId": 4065371035,
      "nextGrpId": 4065371057
    },
    {
      "index": 59,
      "grpId": 4065371057,
      "nextGrpId": 4065371058
    },
    {
      "index": 60,
      "grpId": 4065371058,
      "nextGrpId": 4065371059
    },
    {
      "index": 61,
      "grpId": 4065371059,
      "nextGrpId": 4065371060
    },
    {
      "index": 62,
      "grpId": 4065371060,
      "nextGrpId": 4065371061
    },
    {
      "index": 63,
      "grpId": 4065371061,
      "nextGrpId": 4065371062
    },
    {
      "index": 64,
      "grpId": 4065371062,
      "nextGrpId": 4065371063
    },
    {
      "index": 65,
      "grpId": 4065371063,
      "nextGrpId": 4065371064
    },
    {
      "index": 66,
      "grpId": 4065371064,
      "nextGrpId": 4065371065
    },
    {
      "index": 67,
      "grpId": 4065371065,
      "nextGrpId": 4065371066
    },
    {
      "index": 68,
      "grpId": 4065371066,
      "nextGrpId": 4065371088
    },
    {
      "index": 69,
      "grpId": 4065371088,
      "nextGrpId": 4065371089
    }
  ],
  "freeStyleDic": {
    "1025": [],
    "1026": [],
    "21039": []
  }
}