{
  "luaDataPath": "",
  "dontUseDefaultFinish": true,
  "startBlackKeepTime": 0.5,
  "entityBan": "",
  "disableNpcLod": true,
  "isAutoBanNpc": true,
  "isBanWidgetPet": true,
  "protectNpcMobileLod": true,
  "talkFlag": 7,
  "startFade": {
    "startFadeInDuration": 0.5,
    "startFadeOutDuration": 0.5
  },
  "endFade": {
    "startFadeOutDuration": 0.0
  },
  "actors": [
    {
      "alias": "Avatar",
      "visible": true,
      "bornPointName": "[3_5989:4290.180,570.600,3480.622,0.000,98.419,0.000]",
      "relativePosType": "AVATAR_NEW",
      "relativePosNpcAlias": "",
      "_notDestroyInTalk": true,
      "_bindMovingTargetKey": ""
    },
    {
      "alias": "AvatarNpc",
      "visible": true,
      "bornPointName": "[3_5989:4290.180,570.600,3480.622,0.000,98.419,0.000]",
      "removeActorType": "NEW_REMOVE",
      "relativePosType": "AVATAR_NEW",
      "relativePosNpcAlias": "",
      "_notDestroyInTalk": true,
      "_bindMovingTargetKey": ""
    },
    {
      "configID": 1005,
      "alias": "1005",
      "visible": true,
      "bornPointName": "[3_5988:4290.589,570.600,3481.695,0.000,130.386,0.000]",
      "removeActorType": "NEW_REMOVE_WITH_DISAPPEAR",
      "relativePosType": "AVATAR_NEW",
      "relativePosNpcAlias": "",
      "_notDestroyInTalk": true,
      "_bindMovingTargetKey": ""
    },
    {
      "configID": 21040,
      "alias": "21040",
      "visible": true,
      "bornPointName": "[3_5990:4290.977,570.600,3478.273,0.000,58.050,0.000]",
      "removeActorType": "NEW_REMOVE",
      "relativePosType": "AVATAR_NEW",
      "relativePosNpcAlias": "",
      "_notDestroyInTalk": true,
      "_bindMovingTargetKey": ""
    },
    {
      "configID": 21039,
      "alias": "21039",
      "visible": true,
      "bornPointName": "[3_5991:4290.074,570.600,3479.113,0.000,70.500,0.000]",
      "relativePosType": "AVATAR_NEW",
      "relativePosNpcAlias": "",
      "_notDestroyInTalk": true,
      "_bindMovingTargetKey": ""
    }
  ],
  "group": [
    [
      {
        "$type": "MoleMole.Config.ConfigTimeProtectAction",
        "type": "TIME_PROTECT",
        "duration": 1.0,
        "actionId": 104
      },
      {
        "$type": "MoleMole.Config.ConfigBlackScreenAction",
        "type": "BLACK_SCREEN",
        "duration": 1.0,
        "actionId": 127,
        "_flag": 2048,
        "blackScreenType": "KEEP_BLACK",
        "durationToBlack": 0.5,
        "durationKeepBlack": 1.0,
        "durationFromBlack": 0.5,
        "inteePos": "",
        "textMapID": "",
        "useTextFade": true,
        "_changeAudioState": true
      },
      {
        "$type": "MoleMole.Config.ConfigSitOrStandAction",
        "type": "SIT_OR_STAND",
        "aliasList": [
          "Avatar"
        ],
        "actionId": 131,
        "banResetFreestyle": true
      },
      {
        "$type": "MoleMole.Config.ConfigVisibleInterAction",
        "type": "VISIBLE",
        "aliasList": [
          "Avatar"
        ],
        "actionId": 136,
        "_extraParam": ""
      },
      {
        "$type": "MoleMole.Config.ConfigPlayerNPCEnergyTypeAction",
        "type": "SET_PLAYER_NPC_ENERGY_TYPE",
        "aliasList": [
          "AvatarNpc"
        ],
        "actionId": 132,
        "setHeroEngergyType": true
      },
      {
        "$type": "FABLGECDBCH",
        "type": "BODY_LANG",
        "aliasList": [
          "AvatarNpc"
        ],
        "actionId": 133,
        "isContinue": true,
        "forceDoFreeStyle": true,
        "canDoRepeatFreeStyle": false,
        "eventPatternSuiteKey": "",
        "FOHHKFAIAAJ": ""
      },
      {
        "$type": "FABLGECDBCH",
        "type": "BODY_LANG",
        "aliasList": [
          "1005"
        ],
        "actionId": 121,
        "isContinue": true,
        "forceDoFreeStyle": true,
        "canDoRepeatFreeStyle": false,
        "eventPatternSuiteKey": "",
        "FOHHKFAIAAJ": ""
      },
      {
        "$type": "FABLGECDBCH",
        "type": "BODY_LANG",
        "aliasList": [
          "21040"
        ],
        "actionId": 123,
        "isContinue": true,
        "forceDoFreeStyle": true,
        "canDoRepeatFreeStyle": false,
        "eventPatternSuiteKey": "",
        "FOHHKFAIAAJ": ""
      },
      {
        "$type": "FABLGECDBCH",
        "type": "BODY_LANG",
        "aliasList": [
          "21039"
        ],
        "actionId": 125,
        "isContinue": true,
        "forceDoFreeStyle": true,
        "canDoRepeatFreeStyle": false,
        "eventPatternSuiteKey": "",
        "FOHHKFAIAAJ": ""
      }
    ],
    [
      {
        "$type": "MoleMole.Config.ConfigBlackScreenAction",
        "type": "BLACK_SCREEN",
        "duration": 0.5,
        "actionId": 128,
        "_flag": 2048,
        "blackScreenType": "FROM_BLACK",
        "durationToBlack": 0.5,
        "durationKeepBlack": 0.5,
        "durationFromBlack": 0.5,
        "inteePos": "",
        "textMapID": "",
        "useTextFade": true,
        "_changeAudioState": true
      },
      {
        "$type": "FJKIHHKJLMJ",
        "type": "CAMERA_MOVE",
        "duration": 1.0,
        "actionId": 157,
        "camPosOffset": {
          "x": 4289.81787109375,
          "y": 574.4089965820312,
          "z": 3475.656982421875
        },
        "camForwardTargetOffset": {
          "x": 4290.1279296875,
          "y": 573.7659912109375,
          "z": 3476.35693359375
        },
        "camFov": 40.0,
        "lerpPattern": 6,
        "cameraBlendType": "EaseInOutCubic",
        "NJBNNOMLKCK": {},
        "needZAxisRotate": true,
        "openCameraDither": false,
        "targetNpcAlias": "",
        "closeTreeLeafDither": true,
        "KJOEFBPOIIH": "",
        "IICFKKEBIEC": "",
        "EGEHEJEBLBJ": ""
      },
      {
        "$type": "LJLMDHDCAMK",
        "type": "LOOK_AT",
        "aliasList": [
          "Avatar"
        ],
        "actionId": 137,
        "_flag": 64,
        "enableHead": true,
        "headTurnTime": 0.5,
        "targetNpcAlias": "1005",
        "openBackProtect": true,
        "backProtectAngle": 10.0,
        "targetNpcLookAtPoint": "",
        "OAFJBHJHLJG": ""
      },
      {
        "$type": "LJLMDHDCAMK",
        "type": "LOOK_AT",
        "aliasList": [
          "AvatarNpc"
        ],
        "actionId": 138,
        "_flag": 64,
        "enableHead": true,
        "headTurnTime": 0.5,
        "targetNpcAlias": "1005",
        "openBackProtect": true,
        "backProtectAngle": 10.0,
        "targetNpcLookAtPoint": "",
        "OAFJBHJHLJG": ""
      },
      {
        "$type": "PKKMAMONGEO",
        "type": "DIALOG",
        "aliasList": [
          "1005"
        ],
        "actionId": 107,
        "dialogID": 740183501,
        "protectTime": 0.5
      },
      {
        "$type": "LJLMDHDCAMK",
        "type": "LOOK_AT",
        "aliasList": [
          "21040"
        ],
        "actionId": 139,
        "_flag": 64,
        "enableHead": true,
        "headTurnTime": 0.5,
        "targetNpcAlias": "1005",
        "openBackProtect": true,
        "backProtectAngle": 10.0,
        "targetNpcLookAtPoint": "",
        "OAFJBHJHLJG": ""
      },
      {
        "$type": "LJLMDHDCAMK",
        "type": "LOOK_AT",
        "aliasList": [
          "21039"
        ],
        "actionId": 140,
        "_flag": 64,
        "enableHead": true,
        "headTurnTime": 0.5,
        "targetNpcAlias": "1005",
        "openBackProtect": true,
        "backProtectAngle": 10.0,
        "targetNpcLookAtPoint": "",
        "OAFJBHJHLJG": ""
      },
      {
        "$type": "FJKIHHKJLMJ",
        "type": "CAMERA_MOVE",
        "delayTime": 0.10000000149011612,
        "duration": 6.900000095367432,
        "actionId": 163,
        "camPosOffset": {
          "x": 4290.044921875,
          "y": 574.4089965820312,
          "z": 3475.556884765625
        },
        "camForwardTargetOffset": {
          "x": 4290.35498046875,
          "y": 573.7659912109375,
          "z": 3476.257080078125
        },
        "camFov": 40.0,
        "NJBNNOMLKCK": {},
        "needZAxisRotate": true,
        "openCameraDither": false,
        "targetNpcAlias": "",
        "closeTreeLeafDither": true,
        "KJOEFBPOIIH": "",
        "IICFKKEBIEC": "",
        "EGEHEJEBLBJ": ""
      }
    ],
    [
      {
        "$type": "FJKIHHKJLMJ",
        "type": "CAMERA_MOVE",
        "duration": 1.0,
        "actionId": 158,
        "camPosOffset": {
          "x": 4289.9580078125,
          "y": 572.0449829101562,
          "z": 3479.364990234375
        },
        "camForwardTargetOffset": {
          "x": 4290.68310546875,
          "y": 571.8369750976562,
          "z": 3478.7080078125
        },
        "camFov": 20.062999725341797,
        "lerpPattern": 6,
        "cameraBlendType": "EaseInOutCubic",
        "NJBNNOMLKCK": {},
        "needZAxisRotate": true,
        "openCameraDither": false,
        "targetNpcAlias": "",
        "closeTreeLeafDither": true,
        "KJOEFBPOIIH": "",
        "IICFKKEBIEC": "",
        "EGEHEJEBLBJ": ""
      },
      {
        "$type": "LJLMDHDCAMK",
        "type": "LOOK_AT",
        "aliasList": [
          "Avatar"
        ],
        "actionId": 141,
        "_flag": 64,
        "enableHead": true,
        "headTurnTime": 0.5,
        "targetNpcAlias": "21040",
        "openBackProtect": true,
        "backProtectAngle": 10.0,
        "targetNpcLookAtPoint": "",
        "OAFJBHJHLJG": ""
      },
      {
        "$type": "LJLMDHDCAMK",
        "type": "LOOK_AT",
        "aliasList": [
          "AvatarNpc"
        ],
        "actionId": 142,
        "_flag": 64,
        "enableHead": true,
        "headTurnTime": 0.5,
        "targetNpcAlias": "21040",
        "openBackProtect": true,
        "backProtectAngle": 10.0,
        "targetNpcLookAtPoint": "",
        "OAFJBHJHLJG": ""
      },
      {
        "$type": "LJLMDHDCAMK",
        "type": "LOOK_AT",
        "aliasList": [
          "1005"
        ],
        "actionId": 143,
        "_flag": 64,
        "enableHead": true,
        "headTurnTime": 0.5,
        "targetNpcAlias": "21040",
        "openBackProtect": true,
        "backProtectAngle": 10.0,
        "targetNpcLookAtPoint": "",
        "OAFJBHJHLJG": ""
      },
      {
        "$type": "PKKMAMONGEO",
        "type": "DIALOG",
        "aliasList": [
          "21040"
        ],
        "actionId": 109,
        "dialogID": 740183502,
        "protectTime": 0.5
      },
      {
        "$type": "LJLMDHDCAMK",
        "type": "LOOK_AT",
        "aliasList": [
          "21039"
        ],
        "actionId": 144,
        "_flag": 64,
        "enableHead": true,
        "headTurnTime": 0.5,
        "targetNpcAlias": "21040",
        "openBackProtect": true,
        "backProtectAngle": 10.0,
        "targetNpcLookAtPoint": "",
        "OAFJBHJHLJG": ""
      },
      {
        "$type": "FJKIHHKJLMJ",
        "type": "CAMERA_MOVE",
        "delayTime": 0.10000000149011612,
        "duration": 7.275000095367432,
        "actionId": 164,
        "camPosOffset": {
          "x": 4289.89404296875,
          "y": 572.0449829101562,
          "z": 3479.2939453125
        },
        "camForwardTargetOffset": {
          "x": 4290.619140625,
          "y": 571.8369750976562,
          "z": 3478.637939453125
        },
        "camFov": 20.062999725341797,
        "NJBNNOMLKCK": {},
        "needZAxisRotate": true,
        "openCameraDither": false,
        "targetNpcAlias": "",
        "closeTreeLeafDither": true,
        "KJOEFBPOIIH": "",
        "IICFKKEBIEC": "",
        "EGEHEJEBLBJ": ""
      }
    ],
    [
      {
        "$type": "FJKIHHKJLMJ",
        "type": "CAMERA_MOVE",
        "duration": 1.0,
        "actionId": 159,
        "camPosOffset": {
          "x": 4292.81103515625,
          "y": 571.7890014648438,
          "z": 3484.66796875
        },
        "camForwardTargetOffset": {
          "x": 4292.6640625,
          "y": 571.5809936523438,
          "z": 3483.700927734375
        },
        "camFov": 40.0,
        "lerpPattern": 6,
        "cameraBlendType": "EaseInOutCubic",
        "NJBNNOMLKCK": {},
        "openCameraDither": false,
        "targetNpcAlias": "",
        "closeTreeLeafDither": true,
        "KJOEFBPOIIH": "",
        "IICFKKEBIEC": "",
        "EGEHEJEBLBJ": ""
      },
      {
        "$type": "LJLMDHDCAMK",
        "type": "LOOK_AT",
        "aliasList": [
          "AvatarNpc"
        ],
        "actionId": 171,
        "_flag": 64,
        "enableHead": true,
        "useTargetPos": true,
        "enableAbsolute": true,
        "targetPosition": {
          "x": 4293.69921875,
          "y": 572.5250244140625,
          "z": 3480.322021484375
        },
        "headTurnTime": 0.5,
        "targetNpcAlias": "",
        "lookAtTargetType": "NONE",
        "openBackProtect": true,
        "backProtectAngle": 10.0,
        "targetNpcLookAtPoint": "",
        "OAFJBHJHLJG": ""
      },
      {
        "$type": "LJLMDHDCAMK",
        "type": "LOOK_AT",
        "aliasList": [
          "1005"
        ],
        "actionId": 170,
        "_flag": 64,
        "enableHead": true,
        "useTargetPos": true,
        "enableAbsolute": true,
        "targetPosition": {
          "x": 4293.69921875,
          "y": 572.5250244140625,
          "z": 3480.322021484375
        },
        "headTurnTime": 0.5,
        "targetNpcAlias": "",
        "lookAtTargetType": "NONE",
        "openBackProtect": true,
        "backProtectAngle": 10.0,
        "targetNpcLookAtPoint": "",
        "OAFJBHJHLJG": ""
      },
      {
        "$type": "PKKMAMONGEO",
        "type": "DIALOG",
        "aliasList": [
          "21040"
        ],
        "actionId": 111,
        "dialogID": 740183503,
        "protectTime": 0.5
      },
      {
        "$type": "LJLMDHDCAMK",
        "type": "LOOK_AT",
        "aliasList": [
          "21039"
        ],
        "actionId": 169,
        "_flag": 64,
        "enableHead": true,
        "useTargetPos": true,
        "enableAbsolute": true,
        "targetPosition": {
          "x": 4293.69921875,
          "y": 572.5250244140625,
          "z": 3480.322021484375
        },
        "headTurnTime": 0.5,
        "targetNpcAlias": "",
        "lookAtTargetType": "NONE",
        "openBackProtect": true,
        "backProtectAngle": 10.0,
        "targetNpcLookAtPoint": "",
        "OAFJBHJHLJG": ""
      },
      {
        "$type": "FJKIHHKJLMJ",
        "type": "CAMERA_MOVE",
        "delayTime": 0.10000000149011612,
        "duration": 7.025000095367432,
        "actionId": 165,
        "camPosOffset": {
          "x": 4293.09716796875,
          "y": 571.7890014648438,
          "z": 3484.625
        },
        "camForwardTargetOffset": {
          "x": 4292.9501953125,
          "y": 571.5809936523438,
          "z": 3483.657958984375
        },
        "camFov": 40.0,
        "NJBNNOMLKCK": {},
        "needZAxisRotate": true,
        "openCameraDither": false,
        "targetNpcAlias": "",
        "closeTreeLeafDither": true,
        "KJOEFBPOIIH": "",
        "IICFKKEBIEC": "",
        "EGEHEJEBLBJ": ""
      }
    ],
    [
      {
        "$type": "FJKIHHKJLMJ",
        "type": "CAMERA_MOVE",
        "duration": 1.0,
        "actionId": 160,
        "camPosOffset": {
          "x": 4291.31201171875,
          "y": 571.5999755859375,
          "z": 3479.947021484375
        },
        "camForwardTargetOffset": {
          "x": 4290.9189453125,
          "y": 571.3930053710938,
          "z": 3480.843017578125
        },
        "camFov": 23.37299919128418,
        "lerpPattern": 6,
        "cameraBlendType": "EaseInOutCubic",
        "NJBNNOMLKCK": {},
        "openCameraDither": false,
        "targetNpcAlias": "",
        "closeTreeLeafDither": true,
        "KJOEFBPOIIH": "",
        "IICFKKEBIEC": "",
        "EGEHEJEBLBJ": ""
      },
      {
        "$type": "LJLMDHDCAMK",
        "type": "LOOK_AT",
        "aliasList": [
          "Avatar"
        ],
        "actionId": 145,
        "_flag": 64,
        "enableHead": true,
        "headTurnTime": 0.5,
        "targetNpcAlias": "1005",
        "openBackProtect": true,
        "backProtectAngle": 10.0,
        "targetNpcLookAtPoint": "",
        "OAFJBHJHLJG": ""
      },
      {
        "$type": "LJLMDHDCAMK",
        "type": "LOOK_AT",
        "aliasList": [
          "AvatarNpc"
        ],
        "actionId": 146,
        "_flag": 64,
        "enableHead": true,
        "headTurnTime": 0.5,
        "targetNpcAlias": "1005",
        "openBackProtect": true,
        "backProtectAngle": 10.0,
        "targetNpcLookAtPoint": "",
        "OAFJBHJHLJG": ""
      },
      {
        "$type": "PKKMAMONGEO",
        "type": "DIALOG",
        "aliasList": [
          "1005"
        ],
        "actionId": 113,
        "dialogID": 740183504,
        "protectTime": 0.5
      },
      {
        "$type": "FABLGECDBCH",
        "type": "BODY_LANG",
        "aliasList": [
          "1005"
        ],
        "actionId": 172,
        "bodyLangParam": 1110,
        "forceDoFreeStyle": true,
        "canDoRepeatFreeStyle": false,
        "cantBackToIdleWhenSitLoop": true,
        "eventPatternSuiteKey": "",
        "FOHHKFAIAAJ": ""
      },
      {
        "$type": "LJLMDHDCAMK",
        "type": "LOOK_AT",
        "aliasList": [
          "21040"
        ],
        "actionId": 147,
        "_flag": 64,
        "enableHead": true,
        "headTurnTime": 0.5,
        "targetNpcAlias": "1005",
        "openBackProtect": true,
        "backProtectAngle": 10.0,
        "targetNpcLookAtPoint": "",
        "OAFJBHJHLJG": ""
      },
      {
        "$type": "LJLMDHDCAMK",
        "type": "LOOK_AT",
        "aliasList": [
          "21039"
        ],
        "actionId": 148,
        "_flag": 64,
        "enableHead": true,
        "headTurnTime": 0.5,
        "targetNpcAlias": "1005",
        "openBackProtect": true,
        "backProtectAngle": 10.0,
        "targetNpcLookAtPoint": "",
        "OAFJBHJHLJG": ""
      },
      {
        "$type": "FJKIHHKJLMJ",
        "type": "CAMERA_MOVE",
        "delayTime": 0.10000000149011612,
        "duration": 5.025000095367432,
        "actionId": 166,
        "camPosOffset": {
          "x": 4291.412109375,
          "y": 571.5999755859375,
          "z": 3479.990966796875
        },
        "camForwardTargetOffset": {
          "x": 4291.01904296875,
          "y": 571.3930053710938,
          "z": 3480.886962890625
        },
        "camFov": 23.37299919128418,
        "NJBNNOMLKCK": {},
        "openCameraDither": false,
        "targetNpcAlias": "",
        "closeTreeLeafDither": true,
        "KJOEFBPOIIH": "",
        "IICFKKEBIEC": "",
        "EGEHEJEBLBJ": ""
      }
    ],
    [
      {
        "$type": "FJKIHHKJLMJ",
        "type": "CAMERA_MOVE",
        "duration": 1.0,
        "actionId": 161,
        "camPosOffset": {
          "x": 4288.26123046875,
          "y": 572.2230224609375,
          "z": 3482.989013671875
        },
        "camForwardTargetOffset": {
          "x": 4289.14306640625,
          "y": 572.1810302734375,
          "z": 3482.51904296875
        },
        "camFov": 16.97800064086914,
        "lerpPattern": 6,
        "cameraBlendType": "EaseInOutCubic",
        "NJBNNOMLKCK": {},
        "needZAxisRotate": true,
        "openCameraDither": false,
        "targetNpcAlias": "",
        "closeTreeLeafDither": true,
        "KJOEFBPOIIH": "",
        "IICFKKEBIEC": "",
        "EGEHEJEBLBJ": ""
      },
      {
        "$type": "MoleMole.Config.ConfigLocalGadgetOP",
        "type": "LOCAL_GADGET_OP",
        "actionId": 176,
        "gadgetId": 70210101,
        "oprCode": 1,
        "slotName": "",
        "sceneId": 3,
        "position": {
          "x": 4294.509765625,
          "y": 571.4959716796875,
          "z": 3479.4609375
        },
        "gvKey": "",
        "_stateOnCreate": 0
      },
      {
        "$type": "LJLMDHDCAMK",
        "type": "LOOK_AT",
        "aliasList": [
          "Avatar"
        ],
        "actionId": 149,
        "_flag": 64,
        "enableHead": true,
        "headTurnTime": 0.5,
        "targetNpcAlias": "21039",
        "openBackProtect": true,
        "backProtectAngle": 10.0,
        "targetNpcLookAtPoint": "",
        "OAFJBHJHLJG": ""
      },
      {
        "$type": "LJLMDHDCAMK",
        "type": "LOOK_AT",
        "aliasList": [
          "AvatarNpc"
        ],
        "actionId": 150,
        "_flag": 64,
        "enableHead": true,
        "headTurnTime": 0.5,
        "targetNpcAlias": "21039",
        "openBackProtect": true,
        "backProtectAngle": 10.0,
        "targetNpcLookAtPoint": "",
        "OAFJBHJHLJG": ""
      },
      {
        "$type": "LJLMDHDCAMK",
        "type": "LOOK_AT",
        "aliasList": [
          "1005"
        ],
        "actionId": 151,
        "_flag": 64,
        "enableHead": true,
        "headTurnTime": 0.5,
        "targetNpcAlias": "21039",
        "openBackProtect": true,
        "backProtectAngle": 10.0,
        "targetNpcLookAtPoint": "",
        "OAFJBHJHLJG": ""
      },
      {
        "$type": "LJLMDHDCAMK",
        "type": "LOOK_AT",
        "aliasList": [
          "21040"
        ],
        "actionId": 152,
        "_flag": 64,
        "enableHead": true,
        "headTurnTime": 0.5,
        "targetNpcAlias": "21039",
        "openBackProtect": true,
        "backProtectAngle": 10.0,
        "targetNpcLookAtPoint": "",
        "OAFJBHJHLJG": ""
      },
      {
        "$type": "PKKMAMONGEO",
        "type": "DIALOG",
        "aliasList": [
          "21039"
        ],
        "actionId": 115,
        "dialogID": 740183505,
        "protectTime": 0.5
      },
      {
        "$type": "FJKIHHKJLMJ",
        "type": "CAMERA_MOVE",
        "delayTime": 0.10000000149011612,
        "duration": 6.775000095367432,
        "actionId": 167,
        "camPosOffset": {
          "x": 4288.3017578125,
          "y": 572.2030029296875,
          "z": 3482.902099609375
        },
        "camForwardTargetOffset": {
          "x": 4289.18408203125,
          "y": 572.1610107421875,
          "z": 3482.431884765625
        },
        "camFov": 16.97800064086914,
        "NJBNNOMLKCK": {},
        "needZAxisRotate": true,
        "openCameraDither": false,
        "targetNpcAlias": "",
        "closeTreeLeafDither": true,
        "KJOEFBPOIIH": "",
        "IICFKKEBIEC": "",
        "EGEHEJEBLBJ": ""
      },
      {
        "$type": "HDGKHDNFMIM",
        "type": "DIALOG_SELECT",
        "delayTime": 0.4000000059604645,
        "aliasList": [
          "AvatarNpc"
        ],
        "actionId": 130,
        "dialogIDList": [
          740183506
        ],
        "grpIDList": [
          3040723388
        ],
        "useGrpId": true,
        "countDownGrpId": 3040723381
      }
    ],
    [
      {
        "$type": "FJKIHHKJLMJ",
        "type": "CAMERA_MOVE",
        "duration": 1.0,
        "actionId": 162,
        "camPosOffset": {
          "x": 4291.89697265625,
          "y": 571.7130126953125,
          "z": 3479.488037109375
        },
        "camForwardTargetOffset": {
          "x": 4291.2958984375,
          "y": 571.7130126953125,
          "z": 3478.68896484375
        },
        "camFov": 20.277999877929688,
        "lerpPattern": 6,
        "cameraBlendType": "EaseInOutCubic",
        "NJBNNOMLKCK": {},
        "openCameraDither": false,
        "targetNpcAlias": "",
        "closeTreeLeafDither": true,
        "KJOEFBPOIIH": "",
        "IICFKKEBIEC": "",
        "EGEHEJEBLBJ": ""
      },
      {
        "$type": "LJLMDHDCAMK",
        "type": "LOOK_AT",
        "aliasList": [
          "Avatar"
        ],
        "actionId": 153,
        "_flag": 64,
        "enableHead": true,
        "headTurnTime": 0.5,
        "targetNpcAlias": "21040",
        "openBackProtect": true,
        "backProtectAngle": 10.0,
        "targetNpcLookAtPoint": "",
        "OAFJBHJHLJG": ""
      },
      {
        "$type": "LJLMDHDCAMK",
        "type": "LOOK_AT",
        "aliasList": [
          "AvatarNpc"
        ],
        "actionId": 154,
        "_flag": 64,
        "enableHead": true,
        "headTurnTime": 0.5,
        "targetNpcAlias": "21040",
        "openBackProtect": true,
        "backProtectAngle": 10.0,
        "targetNpcLookAtPoint": "",
        "OAFJBHJHLJG": ""
      },
      {
        "$type": "LJLMDHDCAMK",
        "type": "LOOK_AT",
        "aliasList": [
          "1005"
        ],
        "actionId": 155,
        "_flag": 64,
        "enableHead": true,
        "headTurnTime": 0.5,
        "targetNpcAlias": "21040",
        "openBackProtect": true,
        "backProtectAngle": 10.0,
        "targetNpcLookAtPoint": "",
        "OAFJBHJHLJG": ""
      },
      {
        "$type": "PKKMAMONGEO",
        "type": "DIALOG",
        "aliasList": [
          "21040"
        ],
        "actionId": 118,
        "dialogID": 740183507,
        "protectTime": 0.5
      },
      {
        "$type": "LJLMDHDCAMK",
        "type": "LOOK_AT",
        "aliasList": [
          "21040"
        ],
        "actionId": 173,
        "_flag": 64,
        "headTurnTime": 0.5,
        "targetNpcAlias": "",
        "openBackProtect": true,
        "backProtectAngle": 10.0,
        "targetNpcLookAtPoint": "",
        "OAFJBHJHLJG": ""
      },
      {
        "$type": "FABLGECDBCH",
        "type": "BODY_LANG",
        "aliasList": [
          "21040"
        ],
        "actionId": 174,
        "bodyLangParam": 1190,
        "forceDoFreeStyle": true,
        "canDoRepeatFreeStyle": false,
        "cantBackToIdleWhenSitLoop": true,
        "eventPatternSuiteKey": "",
        "FOHHKFAIAAJ": ""
      },
      {
        "$type": "LJLMDHDCAMK",
        "type": "LOOK_AT",
        "aliasList": [
          "21039"
        ],
        "actionId": 156,
        "_flag": 64,
        "enableHead": true,
        "headTurnTime": 0.5,
        "targetNpcAlias": "21040",
        "openBackProtect": true,
        "backProtectAngle": 10.0,
        "targetNpcLookAtPoint": "",
        "OAFJBHJHLJG": ""
      },
      {
        "$type": "FJKIHHKJLMJ",
        "type": "CAMERA_MOVE",
        "delayTime": 0.10000000149011612,
        "duration": 7.400000095367432,
        "actionId": 168,
        "camPosOffset": {
          "x": 4291.81982421875,
          "y": 571.7130126953125,
          "z": 3479.5458984375
        },
        "camForwardTargetOffset": {
          "x": 4291.21923828125,
          "y": 571.7130126953125,
          "z": 3478.7470703125
        },
        "camFov": 20.277999877929688,
        "NJBNNOMLKCK": {},
        "openCameraDither": false,
        "targetNpcAlias": "",
        "closeTreeLeafDither": true,
        "KJOEFBPOIIH": "",
        "IICFKKEBIEC": "",
        "EGEHEJEBLBJ": ""
      }
    ],
    [
      {
        "$type": "MoleMole.Config.ConfigTimeProtectAction",
        "type": "TIME_PROTECT",
        "duration": 0.10000000149011612,
        "actionId": 105
      },
      {
        "$type": "MoleMole.Config.ConfigSimpleBlackScreenAction",
        "type": "SIMPLE_BLACK_SCREEN",
        "actionId": 119,
        "durationToBlack": 0.5,
        "durationKeepBlack": 1.5,
        "durationFromBlack": 0.5,
        "textMapID": ""
      },
      {
        "$type": "MoleMole.Config.ConfigTimeProtectAction",
        "type": "TIME_PROTECT",
        "duration": 0.699999988079071,
        "actionId": 120
      },
      {
        "$type": "FJKIHHKJLMJ",
        "type": "CAMERA_MOVE",
        "delayTime": 0.5,
        "duration": 0.10000000149011612,
        "actionId": 129,
        "cameraPosType": "EXIT",
        "camForwardTargetOffset": {
          "z": 1.0
        },
        "camFov": 30.0,
        "lerpPattern": 5,
        "cameraBlendType": "EaseInOutCubic",
        "NJBNNOMLKCK": {},
        "openCameraDither": false,
        "targetNpcAlias": "",
        "closeTreeLeafDither": true,
        "KJOEFBPOIIH": "",
        "IICFKKEBIEC": "",
        "EGEHEJEBLBJ": ""
      },
      {
        "$type": "MoleMole.Config.ConfigVisibleInterAction",
        "type": "VISIBLE",
        "delayTime": 0.6000000238418579,
        "aliasList": [
          "Avatar"
        ],
        "actionId": 135,
        "isVisible": true,
        "_extraParam": ""
      },
      {
        "$type": "FABLGECDBCH",
        "type": "BODY_LANG",
        "delayTime": 0.6000000238418579,
        "aliasList": [
          "AvatarNpc"
        ],
        "actionId": 134,
        "isContinue": true,
        "forceDoFreeStyle": true,
        "canDoRepeatFreeStyle": false,
        "eventPatternSuiteKey": "",
        "FOHHKFAIAAJ": ""
      },
      {
        "$type": "MoleMole.Config.ConfigVisibleInterAction",
        "type": "VISIBLE",
        "delayTime": 0.6000000238418579,
        "aliasList": [
          "AvatarNpc"
        ],
        "actionId": 177,
        "_extraParam": ""
      },
      {
        "$type": "FABLGECDBCH",
        "type": "BODY_LANG",
        "delayTime": 0.6000000238418579,
        "aliasList": [
          "1005"
        ],
        "actionId": 122,
        "isContinue": true,
        "forceDoFreeStyle": true,
        "canDoRepeatFreeStyle": false,
        "eventPatternSuiteKey": "",
        "FOHHKFAIAAJ": ""
      },
      {
        "$type": "FABLGECDBCH",
        "type": "BODY_LANG",
        "delayTime": 0.6000000238418579,
        "aliasList": [
          "21040"
        ],
        "actionId": 124,
        "isContinue": true,
        "forceDoFreeStyle": true,
        "canDoRepeatFreeStyle": false,
        "eventPatternSuiteKey": "",
        "FOHHKFAIAAJ": ""
      },
      {
        "$type": "FABLGECDBCH",
        "type": "BODY_LANG",
        "delayTime": 0.6000000238418579,
        "aliasList": [
          "21039"
        ],
        "actionId": 126,
        "isContinue": true,
        "forceDoFreeStyle": true,
        "canDoRepeatFreeStyle": false,
        "eventPatternSuiteKey": "",
        "FOHHKFAIAAJ": ""
      }
    ]
  ],
  "groupId": [
    {
      "grpId": 3040723382,
      "nextGrpId": 3040723383
    },
    {
      "index": 1,
      "grpId": 3040723383,
      "nextGrpId": 3040723384
    },
    {
      "index": 2,
      "grpId": 3040723384,
      "nextGrpId": 3040723385
    },
    {
      "index": 3,
      "grpId": 3040723385,
      "nextGrpId": 3040723386
    },
    {
      "index": 4,
      "grpId": 3040723386,
      "nextGrpId": 3040723387
    },
    {
      "index": 5,
      "grpId": 3040723387,
      "nextGrpId": 3040723388
    },
    {
      "index": 6,
      "grpId": 3040723388,
      "nextGrpId": 3040723389
    },
    {
      "index": 7,
      "grpId": 3040723389,
      "nextGrpId": 3040723390
    }
  ],
  "freeStyleDic": {
    "1025": [],
    "1026": [],
    "21040": [
      1190
    ],
    "21039": []
  },
  "EKFBDAIDEEF": {
    "21040": [
      "SitChat01AS",
      "SitHoldArm01AS",
      "SitPutArm01AS",
      "SitRaiseHand01AS",
      "SitRead01AS"
    ]
  }
}