{
  "luaDataPath": "",
  "startBlackKeepTime": 1.0,
  "entityBan": "",
  "disableNpcLod": true,
  "isAutoBanNpc": true,
  "isBanWidgetPet": true,
  "protectNpcMobileLod": true,
  "talkFlag": 7,
  "startFade": {
    "startFadeInDuration": 0.5,
    "startFadeOutDuration": 0.5
  },
  "endFade": {
    "startFadeOutDuration": 0.0
  },
  "actors": [
    {
      "alias": "Avatar",
      "visible": true,
      "bornPointName": "Q1905701_N10000005",
      "relativePosNpcAlias": "",
      "_notDestroyInTalk": true,
      "_bindMovingTargetKey": ""
    },
    {
      "configID": 1005,
      "alias": "1005",
      "visible": true,
      "bornPointName": "Q1905701_N1055",
      "removeActorType": "REMOVE_WITH_DISAPPEAR",
      "relativePosNpcAlias": "",
      "_notDestroyInTalk": true,
      "_bindMovingTargetKey": ""
    },
    {
      "configID": 511,
      "alias": "511",
      "visible": true,
      "bornPointName": "Q1905701_N511",
      "removeActorType": "REMOVE",
      "relativePosNpcAlias": "",
      "_notDestroyInTalk": true,
      "_bindMovingTargetKey": ""
    },
    {
      "configID": 3106,
      "alias": "3106",
      "visible": true,
      "bornPointName": "Q1905701_N3002",
      "relativePosNpcAlias": "",
      "_notDestroyInTalk": true,
      "_bindMovingTargetKey": ""
    },
    {
      "configID": 12552,
      "alias": "12552",
      "visible": true,
      "bornPointName": "Q1905701_N12552",
      "relativePosNpcAlias": "",
      "_notDestroyInTalk": true,
      "_bindMovingTargetKey": ""
    }
  ],
  "group": [
    [
      {
        "$type": "MoleMole.Config.ConfigTimeProtectAction",
        "type": "TIME_PROTECT",
        "duration": 0.10000000149011612
      },
      {
        "$type": "FJKIHHKJLMJ",
        "type": "CAMERA_MOVE",
        "duration": 0.10000000149011612,
        "cameraPosType": "RELATIVE_TO_TARGET_ENTITY",
        "camTargetType": "RELATIVE_TO_TARGET_ENTITY",
        "camFov": 30.0,
        "lerpPattern": 6,
        "cameraBlendType": "EaseInOutCubic",
        "NJBNNOMLKCK": {},
        "openCameraDither": false,
        "targetNpcAlias": "3106",
        "closeTreeLeafDither": true,
        "KJOEFBPOIIH": "",
        "IICFKKEBIEC": "",
        "EGEHEJEBLBJ": ""
      },
      {
        "$type": "MoleMole.Config.ConfigBlackScreenAction",
        "type": "BLACK_SCREEN",
        "actionId": 228,
        "_flag": 2048,
        "blackScreenType": "KEEP_BLACK",
        "durationKeepBlack": 0.5,
        "inteePos": "",
        "textMapID": "",
        "useTextFade": true
      },
      {
        "$type": "MoleMole.Config.ConfigVisibleInterAction",
        "type": "VISIBLE",
        "aliasList": [
          "Avatar"
        ],
        "actionId": 224,
        "_extraParam": ""
      },
      {
        "$type": "LJLMDHDCAMK",
        "type": "LOOK_AT",
        "aliasList": [
          "1005"
        ],
        "actionId": 226,
        "_flag": 64,
        "headTurnTime": 0.5,
        "targetNpcAlias": "",
        "targetNpcLookAtPoint": "",
        "OAFJBHJHLJG": ""
      },
      {
        "$type": "MoleMole.Config.ConfigTeleportToAction",
        "type": "TELEPORT_TO",
        "aliasList": [
          "1005"
        ],
        "actionId": 225,
        "position": {
          "x": -2489.4541015625,
          "y": 446.5870056152344,
          "z": -4412.8388671875
        },
        "forward": {
          "x": 0.3490000069141388,
          "z": -0.9369999766349792
        },
        "openLongDisTeleport": true,
        "_posBindMovingTargetKey": "",
        "_forwardBindMovingTargetKey": ""
      },
      {
        "$type": "LJLMDHDCAMK",
        "type": "LOOK_AT",
        "aliasList": [
          "511"
        ],
        "actionId": 226,
        "_flag": 64,
        "headTurnTime": 0.5,
        "targetNpcAlias": "",
        "targetNpcLookAtPoint": "",
        "OAFJBHJHLJG": ""
      },
      {
        "$type": "MoleMole.Config.ConfigTeleportToAction",
        "type": "TELEPORT_TO",
        "aliasList": [
          "511"
        ],
        "actionId": 225,
        "position": {
          "x": -2487.423095703125,
          "y": 446.5870056152344,
          "z": -4415.64990234375
        },
        "forward": {
          "x": -0.8999999761581421,
          "z": 0.4350000023841858
        },
        "openLongDisTeleport": true,
        "_posBindMovingTargetKey": "",
        "_forwardBindMovingTargetKey": ""
      },
      {
        "$type": "MoleMole.Config.ConfigTeleportToAction",
        "type": "TELEPORT_TO",
        "aliasList": [
          "3106"
        ],
        "actionId": 225,
        "position": {
          "x": -2489.903076171875,
          "y": 446.5870056152344,
          "z": -4415.73291015625
        },
        "forward": {
          "x": 0.7590000033378601,
          "z": 0.6510000228881836
        },
        "openLongDisTeleport": true,
        "_posBindMovingTargetKey": "",
        "_forwardBindMovingTargetKey": ""
      },
      {
        "$type": "LJLMDHDCAMK",
        "type": "LOOK_AT",
        "aliasList": [
          "3106"
        ],
        "actionId": 226,
        "_flag": 64,
        "headTurnTime": 0.5,
        "targetNpcAlias": "",
        "targetNpcLookAtPoint": "",
        "OAFJBHJHLJG": ""
      },
      {
        "$type": "EMEHNEMOMMM",
        "type": "LOOK_AT_EYECTRL",
        "aliasList": [
          "3106"
        ],
        "actionId": 236,
        "_flag": 4672,
        "useTargetPos": false,
        "eyeRotateVecLeft": {
          "z": 3.0
        },
        "eyeRotateVecRight": {
          "z": 3.0
        },
        "turnTime": 0.30000001192092896,
        "targetNpcAlias": "",
        "targetPoint": "Face"
      },
      {
        "$type": "LJLMDHDCAMK",
        "type": "LOOK_AT",
        "aliasList": [
          "12552"
        ],
        "actionId": 226,
        "_flag": 64,
        "headTurnTime": 0.5,
        "targetNpcAlias": "",
        "targetNpcLookAtPoint": "",
        "OAFJBHJHLJG": ""
      },
      {
        "$type": "MoleMole.Config.ConfigTeleportToAction",
        "type": "TELEPORT_TO",
        "aliasList": [
          "12552"
        ],
        "actionId": 225,
        "position": {
          "x": -2487.236083984375,
          "y": 446.5870056152344,
          "z": -4412.673828125
        },
        "forward": {
          "x": -0.6549999713897705,
          "z": -0.8980000019073486
        },
        "openLongDisTeleport": true,
        "_posBindMovingTargetKey": "",
        "_forwardBindMovingTargetKey": ""
      },
      {
        "$type": "EMEHNEMOMMM",
        "type": "LOOK_AT_EYECTRL",
        "aliasList": [
          "12552"
        ],
        "actionId": 295,
        "_flag": 4672,
        "useTargetPos": false,
        "eyeRotateVecLeft": {
          "z": 3.0
        },
        "eyeRotateVecRight": {
          "z": 3.0
        },
        "turnTime": 0.30000001192092896,
        "targetNpcAlias": "",
        "targetPoint": "Face"
      }
    ],
    [
      {
        "$type": "FJKIHHKJLMJ",
        "type": "CAMERA_MOVE",
        "duration": 1.0,
        "cameraPosType": "RELATIVE_TO_TARGET_ENTITY",
        "camTargetType": "RELATIVE_TO_TARGET_ENTITY",
        "camFov": 30.0,
        "lerpPattern": 6,
        "cameraBlendType": "EaseInOutCubic",
        "NJBNNOMLKCK": {},
        "openCameraDither": false,
        "targetNpcAlias": "3106",
        "closeTreeLeafDither": true,
        "KJOEFBPOIIH": "",
        "IICFKKEBIEC": "",
        "EGEHEJEBLBJ": ""
      },
      {
        "$type": "MoleMole.Config.ConfigBlackScreenAction",
        "type": "BLACK_SCREEN",
        "actionId": 228,
        "_flag": 2048,
        "blackScreenType": "FROM_BLACK",
        "durationFromBlack": 0.5,
        "inteePos": "",
        "textMapID": "",
        "useTextFade": true
      },
      {
        "$type": "MoleMole.Config.ConfigEmotionTemplateAction",
        "type": "EMOTION_TEMPLATE",
        "aliasList": [
          "511"
        ],
        "_flag": 384,
        "emoTemplateID": 10100
      },
      {
        "$type": "PKKMAMONGEO",
        "type": "DIALOG",
        "aliasList": [
          "3106"
        ],
        "dialogID": 190570101,
        "protectTime": 0.5
      },
      {
        "$type": "CPJKOIHIPBE",
        "type": "EMO_SYNC",
        "aliasList": [
          "3106"
        ],
        "_flag": 320,
        "dataPath": "Cs_Emo_Avatar_Simple_Common_Set/Cs_Emo_Avatar_Talk/Cs_Emo_Coop_Common/Cs_Emo_Coop_Heizo_01/Cs_Emo_190570101",
        "phonemePath": "",
        "emotionPath": "",
        "mateDataPath": "",
        "matePhonemePath": "",
        "mateEmotionPath": "",
        "dataPathHashList": [
          1497974306165775960,
          10005907794797009059,
          10602420949778648279,
          13291078786432369775
        ],
        "FMDPBECPELH": "",
        "ADKBLPOKGIK": ""
      },
      {
        "$type": "HDGKHDNFMIM",
        "type": "DIALOG_SELECT",
        "delayTime": 0.4000000059604645,
        "aliasList": [
          "Avatar"
        ],
        "dialogIDList": [
          190570102
        ],
        "grpIDList": [
          228006226
        ],
        "useGrpId": true,
        "countDownGrpId": 228006223
      }
    ],
    [
      {
        "$type": "FJKIHHKJLMJ",
        "type": "CAMERA_MOVE",
        "duration": 1.0,
        "cameraPosType": "RELATIVE_TO_TARGET_ENTITY",
        "camTargetType": "RELATIVE_TO_TARGET_ENTITY",
        "camFov": 30.0,
        "lerpPattern": 6,
        "cameraBlendType": "EaseInOutCubic",
        "NJBNNOMLKCK": {},
        "openCameraDither": false,
        "targetNpcAlias": "511",
        "closeTreeLeafDither": true,
        "KJOEFBPOIIH": "",
        "IICFKKEBIEC": "",
        "EGEHEJEBLBJ": ""
      },
      {
        "$type": "PKKMAMONGEO",
        "type": "DIALOG",
        "aliasList": [
          "511"
        ],
        "dialogID": 190570103,
        "protectTime": 0.5
      },
      {
        "$type": "CPJKOIHIPBE",
        "type": "EMO_SYNC",
        "aliasList": [
          "511"
        ],
        "_flag": 320,
        "dataPath": "Cs_Emo_Avatar_Simple_Common_Set/Cs_Emo_Avatar_Talk/Cs_Emo_Coop_Common/Cs_Emo_Coop_Heizo_01/Cs_Emo_190570103",
        "phonemePath": "",
        "emotionPath": "",
        "mateDataPath": "",
        "matePhonemePath": "",
        "mateEmotionPath": "",
        "dataPathHashList": [
          9256648393061045764,
          16959144820043904047,
          204438740968836853,
          14537062347578023038
        ],
        "FMDPBECPELH": "",
        "ADKBLPOKGIK": ""
      }
    ],
    [
      {
        "$type": "FJKIHHKJLMJ",
        "type": "CAMERA_MOVE",
        "duration": 1.0,
        "cameraPosType": "RELATIVE_TO_TARGET_ENTITY",
        "camTargetType": "RELATIVE_TO_TARGET_ENTITY",
        "camFov": 30.0,
        "lerpPattern": 6,
        "cameraBlendType": "EaseInOutCubic",
        "NJBNNOMLKCK": {},
        "openCameraDither": false,
        "targetNpcAlias": "3106",
        "closeTreeLeafDither": true,
        "KJOEFBPOIIH": "",
        "IICFKKEBIEC": "",
        "EGEHEJEBLBJ": ""
      },
      {
        "$type": "PKKMAMONGEO",
        "type": "DIALOG",
        "aliasList": [
          "3106"
        ],
        "dialogID": 190570104,
        "protectTime": 0.5
      },
      {
        "$type": "CPJKOIHIPBE",
        "type": "EMO_SYNC",
        "aliasList": [
          "3106"
        ],
        "_flag": 320,
        "dataPath": "Cs_Emo_Avatar_Simple_Common_Set/Cs_Emo_Avatar_Talk/Cs_Emo_Coop_Common/Cs_Emo_Coop_Heizo_01/Cs_Emo_190570104",
        "phonemePath": "",
        "emotionPath": "",
        "mateDataPath": "",
        "matePhonemePath": "",
        "mateEmotionPath": "",
        "dataPathHashList": [
          11235936286710992642,
          8118560276499831009,
          5962123911032737471,
          17505785466987891270
        ],
        "FMDPBECPELH": "",
        "ADKBLPOKGIK": ""
      }
    ],
    [
      {
        "$type": "FJKIHHKJLMJ",
        "type": "CAMERA_MOVE",
        "duration": 1.0,
        "cameraPosType": "RELATIVE_TO_TARGET_ENTITY",
        "camTargetType": "RELATIVE_TO_TARGET_ENTITY",
        "camFov": 30.0,
        "lerpPattern": 6,
        "cameraBlendType": "EaseInOutCubic",
        "NJBNNOMLKCK": {},
        "openCameraDither": false,
        "targetNpcAlias": "511",
        "closeTreeLeafDither": true,
        "KJOEFBPOIIH": "",
        "IICFKKEBIEC": "",
        "EGEHEJEBLBJ": ""
      },
      {
        "$type": "PKKMAMONGEO",
        "type": "DIALOG",
        "aliasList": [
          "511"
        ],
        "dialogID": 190570105,
        "protectTime": 0.5
      },
      {
        "$type": "CPJKOIHIPBE",
        "type": "EMO_SYNC",
        "aliasList": [
          "511"
        ],
        "_flag": 320,
        "dataPath": "Cs_Emo_Avatar_Simple_Common_Set/Cs_Emo_Avatar_Talk/Cs_Emo_Coop_Common/Cs_Emo_Coop_Heizo_01/Cs_Emo_190570105",
        "phonemePath": "",
        "emotionPath": "",
        "mateDataPath": "",
        "matePhonemePath": "",
        "mateEmotionPath": "",
        "dataPathHashList": [
          8105429335520094190,
          4479689241832084503,
          547167958513059786,
          4571461406436673488
        ],
        "FMDPBECPELH": "",
        "ADKBLPOKGIK": ""
      },
      {
        "$type": "HDGKHDNFMIM",
        "type": "DIALOG_SELECT",
        "delayTime": 0.4000000059604645,
        "aliasList": [
          "Avatar"
        ],
        "dialogIDList": [
          190570106
        ],
        "grpIDList": [
          228006229
        ],
        "useGrpId": true,
        "countDownGrpId": 228006223
      }
    ],
    [
      {
        "$type": "FJKIHHKJLMJ",
        "type": "CAMERA_MOVE",
        "duration": 1.0,
        "cameraPosType": "RELATIVE_TO_TARGET_ENTITY",
        "camTargetType": "RELATIVE_TO_TARGET_ENTITY",
        "camFov": 30.0,
        "lerpPattern": 6,
        "cameraBlendType": "EaseInOutCubic",
        "NJBNNOMLKCK": {},
        "openCameraDither": false,
        "targetNpcAlias": "3106",
        "closeTreeLeafDither": true,
        "KJOEFBPOIIH": "",
        "IICFKKEBIEC": "",
        "EGEHEJEBLBJ": ""
      },
      {
        "$type": "PKKMAMONGEO",
        "type": "DIALOG",
        "aliasList": [
          "3106"
        ],
        "dialogID": 190570107,
        "protectTime": 0.5
      },
      {
        "$type": "CPJKOIHIPBE",
        "type": "EMO_SYNC",
        "aliasList": [
          "3106"
        ],
        "_flag": 320,
        "dataPath": "Cs_Emo_Avatar_Simple_Common_Set/Cs_Emo_Avatar_Talk/Cs_Emo_Coop_Common/Cs_Emo_Coop_Heizo_01/Cs_Emo_190570107",
        "phonemePath": "",
        "emotionPath": "",
        "mateDataPath": "",
        "matePhonemePath": "",
        "mateEmotionPath": "",
        "dataPathHashList": [
          2812572149513099658,
          2659694927705628083,
          5481787051231935254,
          14749042367776425513
        ],
        "FMDPBECPELH": "",
        "ADKBLPOKGIK": ""
      }
    ],
    [
      {
        "$type": "FJKIHHKJLMJ",
        "type": "CAMERA_MOVE",
        "duration": 1.0,
        "cameraPosType": "RELATIVE_TO_TARGET_ENTITY",
        "camTargetType": "RELATIVE_TO_TARGET_ENTITY",
        "camFov": 30.0,
        "lerpPattern": 6,
        "cameraBlendType": "EaseInOutCubic",
        "NJBNNOMLKCK": {},
        "openCameraDither": false,
        "targetNpcAlias": "1005",
        "closeTreeLeafDither": true,
        "KJOEFBPOIIH": "",
        "IICFKKEBIEC": "",
        "EGEHEJEBLBJ": ""
      },
      {
        "$type": "PKKMAMONGEO",
        "type": "DIALOG",
        "aliasList": [
          "1005"
        ],
        "dialogID": 190570108,
        "protectTime": 0.5
      },
      {
        "$type": "FABLGECDBCH",
        "type": "BODY_LANG",
        "aliasList": [
          "1005"
        ],
        "actionId": 240,
        "bodyLangParam": 1050,
        "forceDoFreeStyle": true,
        "canDoRepeatFreeStyle": false,
        "eventPatternSuiteKey": "",
        "FOHHKFAIAAJ": ""
      },
      {
        "$type": "CPJKOIHIPBE",
        "type": "EMO_SYNC",
        "aliasList": [
          "1005"
        ],
        "_flag": 320,
        "dataPath": "Cs_Emo_Avatar_Simple_Common_Set/Cs_Emo_Avatar_Talk/Cs_Emo_Coop_Common/Cs_Emo_Coop_Heizo_01/Cs_Emo_190570108",
        "phonemePath": "",
        "emotionPath": "",
        "mateDataPath": "",
        "matePhonemePath": "",
        "mateEmotionPath": "",
        "dataPathHashList": [
          3577331064458347175,
          14548772524634854362,
          17924572835020491016,
          5354749773911953210
        ],
        "FMDPBECPELH": "",
        "ADKBLPOKGIK": ""
      },
      {
        "$type": "FABLGECDBCH",
        "type": "BODY_LANG",
        "delayTime": 1.61899995803833,
        "aliasList": [
          "1005"
        ],
        "actionId": 241,
        "isContinue": true,
        "forceDoFreeStyle": true,
        "canDoRepeatFreeStyle": false,
        "eventPatternSuiteKey": "",
        "FOHHKFAIAAJ": ""
      }
    ],
    [
      {
        "$type": "FJKIHHKJLMJ",
        "type": "CAMERA_MOVE",
        "duration": 1.0,
        "cameraPosType": "RELATIVE_TO_TARGET_ENTITY",
        "camTargetType": "RELATIVE_TO_TARGET_ENTITY",
        "camFov": 30.0,
        "lerpPattern": 6,
        "cameraBlendType": "EaseInOutCubic",
        "NJBNNOMLKCK": {},
        "openCameraDither": false,
        "targetNpcAlias": "511",
        "closeTreeLeafDither": true,
        "KJOEFBPOIIH": "",
        "IICFKKEBIEC": "",
        "EGEHEJEBLBJ": ""
      },
      {
        "$type": "FABLGECDBCH",
        "type": "BODY_LANG",
        "aliasList": [
          "1005"
        ],
        "actionId": 242,
        "isContinue": true,
        "forceDoFreeStyle": true,
        "canDoRepeatFreeStyle": false,
        "eventPatternSuiteKey": "",
        "FOHHKFAIAAJ": ""
      },
      {
        "$type": "PKKMAMONGEO",
        "type": "DIALOG",
        "aliasList": [
          "511"
        ],
        "dialogID": 190570109,
        "protectTime": 0.5
      },
      {
        "$type": "MoleMole.Config.ConfigEmotionTemplateAction",
        "type": "EMOTION_TEMPLATE",
        "aliasList": [
          "511"
        ],
        "_flag": 384,
        "emoTemplateID": 10801
      },
      {
        "$type": "CPJKOIHIPBE",
        "type": "EMO_SYNC",
        "aliasList": [
          "511"
        ],
        "_flag": 320,
        "dataPath": "Cs_Emo_Avatar_Simple_Common_Set/Cs_Emo_Avatar_Talk/Cs_Emo_Coop_Common/Cs_Emo_Coop_Heizo_01/Cs_Emo_190570109",
        "phonemePath": "",
        "emotionPath": "",
        "mateDataPath": "",
        "matePhonemePath": "",
        "mateEmotionPath": "",
        "dataPathHashList": [
          15435898170934147534,
          10208323856872769701,
          11896537397284640656,
          122342032251164499
        ],
        "FMDPBECPELH": "",
        "ADKBLPOKGIK": ""
      }
    ],
    [
      {
        "$type": "FJKIHHKJLMJ",
        "type": "CAMERA_MOVE",
        "duration": 1.0,
        "cameraPosType": "RELATIVE_TO_TARGET_ENTITY",
        "camTargetType": "RELATIVE_TO_TARGET_ENTITY",
        "camFov": 30.0,
        "lerpPattern": 6,
        "cameraBlendType": "EaseInOutCubic",
        "NJBNNOMLKCK": {},
        "openCameraDither": false,
        "targetNpcAlias": "1005",
        "closeTreeLeafDither": true,
        "KJOEFBPOIIH": "",
        "IICFKKEBIEC": "",
        "EGEHEJEBLBJ": ""
      },
      {
        "$type": "PKKMAMONGEO",
        "type": "DIALOG",
        "aliasList": [
          "1005"
        ],
        "dialogID": 190570110,
        "protectTime": 0.5
      },
      {
        "$type": "FABLGECDBCH",
        "type": "BODY_LANG",
        "aliasList": [
          "1005"
        ],
        "actionId": 243,
        "bodyLangParam": 1120,
        "forceDoFreeStyle": true,
        "canDoRepeatFreeStyle": false,
        "eventPatternSuiteKey": "",
        "FOHHKFAIAAJ": ""
      },
      {
        "$type": "CPJKOIHIPBE",
        "type": "EMO_SYNC",
        "aliasList": [
          "1005"
        ],
        "_flag": 320,
        "dataPath": "Cs_Emo_Avatar_Simple_Common_Set/Cs_Emo_Avatar_Talk/Cs_Emo_Coop_Common/Cs_Emo_Coop_Heizo_01/Cs_Emo_190570110_2",
        "phonemePath": "",
        "emotionPath": "",
        "mateDataPath": "Cs_Emo_Avatar_Simple_Common_Set/Cs_Emo_Avatar_Talk/Cs_Emo_Coop_Common/Cs_Emo_Coop_Heizo_01/Cs_Emo_190570110_1",
        "matePhonemePath": "",
        "mateEmotionPath": "",
        "dataPathHashList": [
          8417674143758305961,
          3495373636423852362,
          7276642896091340101,
          13475335502941026120
        ],
        "mateDataPathHashList": [
          17987778381123405682,
          17444819232632097463,
          13974289413957246473,
          4701036416772471075
        ],
        "FMDPBECPELH": "",
        "ADKBLPOKGIK": ""
      }
    ],
    [
      {
        "$type": "MoleMole.Config.ConfigSimpleBlackScreenAction",
        "type": "SIMPLE_BLACK_SCREEN",
        "durationToBlack": 0.5,
        "durationKeepBlack": 3.0,
        "durationFromBlack": 0.5,
        "textMapID": "",
        "useTextFade": true,
        "_dialogID": 190570111
      },
      {
        "$type": "PKKMAMONGEO",
        "type": "DIALOG_CLEAR",
        "dialogID": 190570110
      },
      {
        "$type": "MoleMole.Config.ConfigTimeProtectAction",
        "type": "TIME_PROTECT",
        "duration": 4.0,
        "actionId": 244
      },
      {
        "$type": "MoleMole.Config.ConfigAudioPlayAction",
        "type": "AUDIO_PLAY",
        "actionId": 361,
        "audioEventStr": "Play_sfx_quest_CoopGoro_1901811_foot_02"
      },
      {
        "$type": "MoleMole.Config.ConfigTeleportToAction",
        "type": "TELEPORT_TO",
        "delayTime": 1.0,
        "aliasList": [
          "1005"
        ],
        "actionId": 296,
        "position": {
          "x": -2490.48193359375,
          "y": 446.5870056152344,
          "z": -4413.26318359375
        },
        "forward": {
          "x": 0.9520000219345093,
          "z": -0.17399999499320984
        },
        "openLongDisTeleport": true,
        "_posBindMovingTargetKey": "",
        "_forwardBindMovingTargetKey": ""
      },
      {
        "$type": "MoleMole.Config.ConfigTeleportToAction",
        "type": "TELEPORT_TO",
        "delayTime": 1.0,
        "aliasList": [
          "511"
        ],
        "actionId": 296,
        "position": {
          "x": -2487.3759765625,
          "y": 446.5870056152344,
          "z": -4416.2490234375
        },
        "forward": {
          "x": -0.05299999937415123,
          "z": 1.222000002861023
        },
        "openLongDisTeleport": true,
        "_posBindMovingTargetKey": "",
        "_forwardBindMovingTargetKey": ""
      },
      {
        "$type": "FJKIHHKJLMJ",
        "type": "CAMERA_MOVE",
        "delayTime": 2.0,
        "duration": 1.0,
        "cameraPosType": "RELATIVE_TO_TARGET_ENTITY",
        "camTargetType": "RELATIVE_TO_TARGET_ENTITY",
        "camFov": 30.0,
        "lerpPattern": 6,
        "cameraBlendType": "EaseInOutCubic",
        "NJBNNOMLKCK": {},
        "openCameraDither": false,
        "targetNpcAlias": "12552",
        "closeTreeLeafDither": true,
        "KJOEFBPOIIH": "",
        "IICFKKEBIEC": "",
        "EGEHEJEBLBJ": ""
      }
    ],
    [
      {
        "$type": "FJKIHHKJLMJ",
        "type": "CAMERA_MOVE",
        "duration": 1.0,
        "cameraPosType": "RELATIVE_TO_TARGET_ENTITY",
        "camTargetType": "RELATIVE_TO_TARGET_ENTITY",
        "camFov": 30.0,
        "lerpPattern": 6,
        "cameraBlendType": "EaseInOutCubic",
        "NJBNNOMLKCK": {},
        "openCameraDither": false,
        "targetNpcAlias": "12552",
        "closeTreeLeafDither": true,
        "KJOEFBPOIIH": "",
        "IICFKKEBIEC": "",
        "EGEHEJEBLBJ": ""
      },
      {
        "$type": "MoleMole.Config.ConfigEmotionTemplateAction",
        "type": "EMOTION_TEMPLATE",
        "aliasList": [
          "511"
        ],
        "_flag": 384,
        "emoTemplateID": 10100
      },
      {
        "$type": "PKKMAMONGEO",
        "type": "DIALOG",
        "aliasList": [
          "12552"
        ],
        "dialogID": 190570112,
        "protectTime": 0.5
      },
      {
        "$type": "FABLGECDBCH",
        "type": "BODY_LANG",
        "aliasList": [
          "12552"
        ],
        "actionId": 248,
        "bodyLangParam": 1090,
        "forceDoFreeStyle": true,
        "canDoRepeatFreeStyle": false,
        "eventPatternSuiteKey": "",
        "FOHHKFAIAAJ": ""
      },
      {
        "$type": "CPJKOIHIPBE",
        "type": "EMO_SYNC",
        "aliasList": [
          "12552"
        ],
        "_flag": 320,
        "dataPath": "Cs_Emo_Avatar_Simple_Common_Set/Cs_Emo_Avatar_Talk/Cs_Emo_Coop_Common/Cs_Emo_Coop_Heizo_01/Cs_Emo_190570112",
        "phonemePath": "",
        "emotionPath": "",
        "mateDataPath": "",
        "matePhonemePath": "",
        "mateEmotionPath": "",
        "dataPathHashList": [
          16506712354338467176,
          1259519728990953948,
          4959250880115825831,
          16857110535604026302
        ],
        "FMDPBECPELH": "",
        "ADKBLPOKGIK": ""
      },
      {
        "$type": "FABLGECDBCH",
        "type": "BODY_LANG",
        "delayTime": 3.624000072479248,
        "aliasList": [
          "12552"
        ],
        "actionId": 247,
        "isContinue": true,
        "forceDoFreeStyle": true,
        "canDoRepeatFreeStyle": false,
        "eventPatternSuiteKey": "",
        "FOHHKFAIAAJ": ""
      },
      {
        "$type": "FABLGECDBCH",
        "type": "BODY_LANG",
        "delayTime": 4.816999912261963,
        "aliasList": [
          "12552"
        ],
        "actionId": 303,
        "bodyLangParam": 1110,
        "forceDoFreeStyle": true,
        "canDoRepeatFreeStyle": false,
        "eventPatternSuiteKey": "",
        "FOHHKFAIAAJ": ""
      },
      {
        "$type": "FABLGECDBCH",
        "type": "BODY_LANG",
        "delayTime": 6.389999866485596,
        "aliasList": [
          "12552"
        ],
        "actionId": 304,
        "isContinue": true,
        "forceDoFreeStyle": true,
        "canDoRepeatFreeStyle": false,
        "eventPatternSuiteKey": "",
        "FOHHKFAIAAJ": ""
      }
    ],
    [
      {
        "$type": "FJKIHHKJLMJ",
        "type": "CAMERA_MOVE",
        "duration": 1.0,
        "cameraPosType": "RELATIVE_TO_TARGET_ENTITY",
        "camTargetType": "RELATIVE_TO_TARGET_ENTITY",
        "camFov": 30.0,
        "lerpPattern": 6,
        "cameraBlendType": "EaseInOutCubic",
        "NJBNNOMLKCK": {},
        "openCameraDither": false,
        "targetNpcAlias": "511",
        "closeTreeLeafDither": true,
        "KJOEFBPOIIH": "",
        "IICFKKEBIEC": "",
        "EGEHEJEBLBJ": ""
      },
      {
        "$type": "PKKMAMONGEO",
        "type": "DIALOG",
        "aliasList": [
          "511"
        ],
        "dialogID": 190570113,
        "protectTime": 0.5
      },
      {
        "$type": "MoleMole.Config.ConfigEmotionTemplateAction",
        "type": "EMOTION_TEMPLATE",
        "aliasList": [
          "511"
        ],
        "_flag": 384,
        "emoTemplateID": 10101
      },
      {
        "$type": "CPJKOIHIPBE",
        "type": "EMO_SYNC",
        "aliasList": [
          "511"
        ],
        "_flag": 320,
        "dataPath": "Cs_Emo_Avatar_Simple_Common_Set/Cs_Emo_Avatar_Talk/Cs_Emo_Coop_Common/Cs_Emo_Coop_Heizo_01/Cs_Emo_190570113",
        "phonemePath": "",
        "emotionPath": "",
        "mateDataPath": "",
        "matePhonemePath": "",
        "mateEmotionPath": "",
        "dataPathHashList": [
          11505073509614743015,
          8987458108173490903,
          6077682437094852967,
          516045749396903246
        ],
        "FMDPBECPELH": "",
        "ADKBLPOKGIK": ""
      },
      {
        "$type": "FABLGECDBCH",
        "type": "BODY_LANG",
        "aliasList": [
          "12552"
        ],
        "actionId": 305,
        "isContinue": true,
        "forceDoFreeStyle": true,
        "canDoRepeatFreeStyle": false,
        "eventPatternSuiteKey": "",
        "FOHHKFAIAAJ": ""
      },
      {
        "$type": "HDGKHDNFMIM",
        "type": "DIALOG_SELECT",
        "delayTime": 0.4000000059604645,
        "aliasList": [
          "Avatar"
        ],
        "dialogIDList": [
          190570114
        ],
        "grpIDList": [
          2773225699
        ],
        "useGrpId": true,
        "countDownGrpId": 228006223
      }
    ],
    [
      {
        "$type": "FJKIHHKJLMJ",
        "type": "CAMERA_MOVE",
        "duration": 1.0,
        "cameraPosType": "RELATIVE_TO_TARGET_ENTITY",
        "camTargetType": "RELATIVE_TO_TARGET_ENTITY",
        "camFov": 30.0,
        "lerpPattern": 6,
        "cameraBlendType": "EaseInOutCubic",
        "NJBNNOMLKCK": {},
        "openCameraDither": false,
        "targetNpcAlias": "12552",
        "closeTreeLeafDither": true,
        "KJOEFBPOIIH": "",
        "IICFKKEBIEC": "",
        "EGEHEJEBLBJ": ""
      },
      {
        "$type": "PKKMAMONGEO",
        "type": "DIALOG",
        "aliasList": [
          "12552"
        ],
        "dialogID": 190570115,
        "protectTime": 0.5
      },
      {
        "$type": "FABLGECDBCH",
        "type": "BODY_LANG",
        "aliasList": [
          "12552"
        ],
        "actionId": 252,
        "isContinue": true,
        "forceDoFreeStyle": true,
        "canDoRepeatFreeStyle": false,
        "eventPatternSuiteKey": "",
        "FOHHKFAIAAJ": ""
      },
      {
        "$type": "CPJKOIHIPBE",
        "type": "EMO_SYNC",
        "aliasList": [
          "12552"
        ],
        "_flag": 320,
        "dataPath": "Cs_Emo_Avatar_Simple_Common_Set/Cs_Emo_Avatar_Talk/Cs_Emo_Coop_Common/Cs_Emo_Coop_Heizo_01/Cs_Emo_190570115",
        "phonemePath": "",
        "emotionPath": "",
        "mateDataPath": "",
        "matePhonemePath": "",
        "mateEmotionPath": "",
        "dataPathHashList": [
          12367078962835330210,
          13562008291132453096,
          375326806442426982,
          10484405891480665489
        ],
        "FMDPBECPELH": "",
        "ADKBLPOKGIK": ""
      },
      {
        "$type": "FABLGECDBCH",
        "type": "BODY_LANG",
        "delayTime": 0.746999979019165,
        "aliasList": [
          "12552"
        ],
        "actionId": 253,
        "bodyLangParam": 1171,
        "forceDoFreeStyle": true,
        "canDoRepeatFreeStyle": false,
        "eventPatternSuiteKey": "",
        "FOHHKFAIAAJ": ""
      },
      {
        "$type": "FABLGECDBCH",
        "type": "BODY_LANG",
        "delayTime": 5.185999870300293,
        "aliasList": [
          "12552"
        ],
        "actionId": 314,
        "bodyLangParam": 1050,
        "forceDoFreeStyle": true,
        "canDoRepeatFreeStyle": false,
        "eventPatternSuiteKey": "",
        "FOHHKFAIAAJ": ""
      },
      {
        "$type": "FABLGECDBCH",
        "type": "BODY_LANG",
        "delayTime": 7.8460001945495605,
        "aliasList": [
          "12552"
        ],
        "actionId": 315,
        "isContinue": true,
        "forceDoFreeStyle": true,
        "canDoRepeatFreeStyle": false,
        "eventPatternSuiteKey": "",
        "FOHHKFAIAAJ": ""
      }
    ],
    [
      {
        "$type": "FJKIHHKJLMJ",
        "type": "CAMERA_MOVE",
        "duration": 1.0,
        "cameraPosType": "RELATIVE_TO_TARGET_ENTITY",
        "camTargetType": "RELATIVE_TO_TARGET_ENTITY",
        "camFov": 30.0,
        "lerpPattern": 6,
        "cameraBlendType": "EaseInOutCubic",
        "NJBNNOMLKCK": {},
        "openCameraDither": false,
        "targetNpcAlias": "511",
        "closeTreeLeafDither": true,
        "KJOEFBPOIIH": "",
        "IICFKKEBIEC": "",
        "EGEHEJEBLBJ": ""
      },
      {
        "$type": "PKKMAMONGEO",
        "type": "DIALOG",
        "aliasList": [
          "511"
        ],
        "dialogID": 190570116,
        "protectTime": 0.5
      },
      {
        "$type": "MoleMole.Config.ConfigEmotionTemplateAction",
        "type": "EMOTION_TEMPLATE",
        "aliasList": [
          "511"
        ],
        "_flag": 384,
        "emoTemplateID": 10100
      },
      {
        "$type": "CPJKOIHIPBE",
        "type": "EMO_SYNC",
        "aliasList": [
          "511"
        ],
        "_flag": 320,
        "dataPath": "Cs_Emo_Avatar_Simple_Common_Set/Cs_Emo_Avatar_Talk/Cs_Emo_Coop_Common/Cs_Emo_Coop_Heizo_01/Cs_Emo_190570116",
        "phonemePath": "",
        "emotionPath": "",
        "mateDataPath": "",
        "matePhonemePath": "",
        "mateEmotionPath": "",
        "dataPathHashList": [
          359149450770118623,
          16021260161763889275,
          18060732623163099665,
          12081905605410891715
        ],
        "FMDPBECPELH": "",
        "ADKBLPOKGIK": ""
      },
      {
        "$type": "FABLGECDBCH",
        "type": "BODY_LANG",
        "aliasList": [
          "12552"
        ],
        "actionId": 316,
        "isContinue": true,
        "forceDoFreeStyle": true,
        "canDoRepeatFreeStyle": false,
        "eventPatternSuiteKey": "",
        "FOHHKFAIAAJ": ""
      }
    ],
    [
      {
        "$type": "FJKIHHKJLMJ",
        "type": "CAMERA_MOVE",
        "duration": 1.0,
        "cameraPosType": "RELATIVE_TO_TARGET_ENTITY",
        "camTargetType": "RELATIVE_TO_TARGET_ENTITY",
        "camFov": 30.0,
        "lerpPattern": 6,
        "cameraBlendType": "EaseInOutCubic",
        "NJBNNOMLKCK": {},
        "openCameraDither": false,
        "targetNpcAlias": "12552",
        "closeTreeLeafDither": true,
        "KJOEFBPOIIH": "",
        "IICFKKEBIEC": "",
        "EGEHEJEBLBJ": ""
      },
      {
        "$type": "PKKMAMONGEO",
        "type": "DIALOG",
        "aliasList": [
          "12552"
        ],
        "dialogID": 190570117,
        "protectTime": 0.5
      },
      {
        "$type": "FABLGECDBCH",
        "type": "BODY_LANG",
        "aliasList": [
          "12552"
        ],
        "actionId": 257,
        "bodyLangParam": 1173,
        "forceDoFreeStyle": true,
        "canDoRepeatFreeStyle": false,
        "eventPatternSuiteKey": "",
        "FOHHKFAIAAJ": ""
      },
      {
        "$type": "CPJKOIHIPBE",
        "type": "EMO_SYNC",
        "aliasList": [
          "12552"
        ],
        "_flag": 256,
        "dataPath": "Cs_Emo_Avatar_Simple_Common_Set/Cs_Emo_Avatar_Talk/Cs_Emo_Coop_Common/Cs_Emo_Coop_Heizo_01/Cs_Emo_190570117",
        "phonemePath": "",
        "emotionPath": "",
        "mateDataPath": "",
        "matePhonemePath": "",
        "mateEmotionPath": "",
        "enableBlink": false,
        "dataPathHashList": [
          7114617473516968032,
          16205191620439508701,
          3285790672607567424,
          14299648426328519910
        ],
        "FMDPBECPELH": "",
        "ADKBLPOKGIK": ""
      },
      {
        "$type": "FABLGECDBCH",
        "type": "BODY_LANG",
        "delayTime": 4.494999885559082,
        "aliasList": [
          "12552"
        ],
        "actionId": 258,
        "bodyLangParam": 1110,
        "forceDoFreeStyle": true,
        "canDoRepeatFreeStyle": false,
        "eventPatternSuiteKey": "",
        "FOHHKFAIAAJ": ""
      },
      {
        "$type": "FABLGECDBCH",
        "type": "BODY_LANG",
        "delayTime": 6.123000144958496,
        "aliasList": [
          "12552"
        ],
        "actionId": 256,
        "isContinue": true,
        "forceDoFreeStyle": true,
        "canDoRepeatFreeStyle": false,
        "eventPatternSuiteKey": "",
        "FOHHKFAIAAJ": ""
      },
      {
        "$type": "FABLGECDBCH",
        "type": "BODY_LANG",
        "delayTime": 6.984000205993652,
        "aliasList": [
          "12552"
        ],
        "actionId": 255,
        "bodyLangParam": 1160,
        "forceDoFreeStyle": true,
        "canDoRepeatFreeStyle": false,
        "eventPatternSuiteKey": "",
        "FOHHKFAIAAJ": ""
      }
    ],
    [
      {
        "$type": "FABLGECDBCH",
        "type": "BODY_LANG",
        "aliasList": [
          "1005"
        ],
        "actionId": 262,
        "isContinue": true,
        "forceDoFreeStyle": true,
        "canDoRepeatFreeStyle": false,
        "eventPatternSuiteKey": "",
        "FOHHKFAIAAJ": ""
      },
      {
        "$type": "PKKMAMONGEO",
        "type": "DIALOG",
        "aliasList": [
          "12552"
        ],
        "dialogID": 190570118,
        "protectTime": 0.5
      },
      {
        "$type": "FABLGECDBCH",
        "type": "BODY_LANG",
        "aliasList": [
          "12552"
        ],
        "actionId": 302,
        "isContinue": true,
        "forceDoFreeStyle": true,
        "canDoRepeatFreeStyle": false,
        "eventPatternSuiteKey": "",
        "FOHHKFAIAAJ": ""
      },
      {
        "$type": "CPJKOIHIPBE",
        "type": "EMO_SYNC",
        "aliasList": [
          "12552"
        ],
        "_flag": 320,
        "dataPath": "Cs_Emo_Avatar_Simple_Common_Set/Cs_Emo_Avatar_Talk/Cs_Emo_Coop_Common/Cs_Emo_Coop_Heizo_01/Cs_Emo_190570118",
        "phonemePath": "",
        "emotionPath": "",
        "mateDataPath": "",
        "matePhonemePath": "",
        "mateEmotionPath": "",
        "dataPathHashList": [
          2403805790338858824,
          7733202478411037358,
          9924004159746512211,
          4699084487275865833
        ],
        "FMDPBECPELH": "",
        "ADKBLPOKGIK": ""
      },
      {
        "$type": "FABLGECDBCH",
        "type": "BODY_LANG",
        "delayTime": 1.069000005722046,
        "aliasList": [
          "12552"
        ],
        "actionId": 259,
        "bodyLangParam": 1171,
        "forceDoFreeStyle": true,
        "canDoRepeatFreeStyle": false,
        "eventPatternSuiteKey": "",
        "FOHHKFAIAAJ": ""
      },
      {
        "$type": "FABLGECDBCH",
        "type": "BODY_LANG",
        "delayTime": 4.201000213623047,
        "aliasList": [
          "12552"
        ],
        "actionId": 260,
        "bodyLangParam": 1230,
        "forceDoFreeStyle": true,
        "canDoRepeatFreeStyle": false,
        "eventPatternSuiteKey": "",
        "FOHHKFAIAAJ": ""
      },
      {
        "$type": "FABLGECDBCH",
        "type": "BODY_LANG",
        "delayTime": 7.689000129699707,
        "aliasList": [
          "12552"
        ],
        "actionId": 320,
        "bodyLangParam": 1231,
        "forceDoFreeStyle": true,
        "canDoRepeatFreeStyle": false,
        "eventPatternSuiteKey": "",
        "FOHHKFAIAAJ": ""
      },
      {
        "$type": "FABLGECDBCH",
        "type": "BODY_LANG",
        "delayTime": 11.197999954223633,
        "aliasList": [
          "12552"
        ],
        "actionId": 321,
        "isContinue": true,
        "forceDoFreeStyle": true,
        "canDoRepeatFreeStyle": false,
        "eventPatternSuiteKey": "",
        "FOHHKFAIAAJ": ""
      }
    ],
    [
      {
        "$type": "FJKIHHKJLMJ",
        "type": "CAMERA_MOVE",
        "duration": 1.0,
        "cameraPosType": "RELATIVE_TO_TARGET_ENTITY",
        "camTargetType": "RELATIVE_TO_TARGET_ENTITY",
        "camFov": 30.0,
        "lerpPattern": 6,
        "cameraBlendType": "EaseInOutCubic",
        "NJBNNOMLKCK": {},
        "openCameraDither": false,
        "targetNpcAlias": "1005",
        "closeTreeLeafDither": true,
        "KJOEFBPOIIH": "",
        "IICFKKEBIEC": "",
        "EGEHEJEBLBJ": ""
      },
      {
        "$type": "PKKMAMONGEO",
        "type": "DIALOG",
        "aliasList": [
          "1005"
        ],
        "dialogID": 190570119,
        "protectTime": 0.5
      },
      {
        "$type": "FABLGECDBCH",
        "type": "BODY_LANG",
        "aliasList": [
          "1005"
        ],
        "actionId": 261,
        "bodyLangParam": 1060,
        "forceDoFreeStyle": true,
        "canDoRepeatFreeStyle": false,
        "eventPatternSuiteKey": "",
        "FOHHKFAIAAJ": ""
      },
      {
        "$type": "CPJKOIHIPBE",
        "type": "EMO_SYNC",
        "aliasList": [
          "1005"
        ],
        "_flag": 320,
        "dataPath": "Cs_Emo_Avatar_Simple_Common_Set/Cs_Emo_Avatar_Talk/Cs_Emo_Coop_Common/Cs_Emo_Coop_Heizo_01/Cs_Emo_190570119",
        "phonemePath": "",
        "emotionPath": "",
        "mateDataPath": "",
        "matePhonemePath": "",
        "mateEmotionPath": "",
        "dataPathHashList": [
          16005480306961201869,
          8601443366299019475,
          16384747314282298514,
          7343365678445114014
        ],
        "FMDPBECPELH": "",
        "ADKBLPOKGIK": ""
      },
      {
        "$type": "FABLGECDBCH",
        "type": "BODY_LANG",
        "aliasList": [
          "12552"
        ],
        "actionId": 322,
        "isContinue": true,
        "forceDoFreeStyle": true,
        "canDoRepeatFreeStyle": false,
        "eventPatternSuiteKey": "",
        "FOHHKFAIAAJ": ""
      },
      {
        "$type": "FABLGECDBCH",
        "type": "BODY_LANG",
        "delayTime": 1.375,
        "aliasList": [
          "1005"
        ],
        "actionId": 263,
        "isContinue": true,
        "forceDoFreeStyle": true,
        "canDoRepeatFreeStyle": false,
        "eventPatternSuiteKey": "",
        "FOHHKFAIAAJ": ""
      }
    ],
    [
      {
        "$type": "FJKIHHKJLMJ",
        "type": "CAMERA_MOVE",
        "duration": 1.0,
        "cameraPosType": "RELATIVE_TO_TARGET_ENTITY",
        "camTargetType": "RELATIVE_TO_TARGET_ENTITY",
        "camFov": 30.0,
        "lerpPattern": 6,
        "cameraBlendType": "EaseInOutCubic",
        "NJBNNOMLKCK": {},
        "openCameraDither": false,
        "targetNpcAlias": "12552",
        "closeTreeLeafDither": true,
        "KJOEFBPOIIH": "",
        "IICFKKEBIEC": "",
        "EGEHEJEBLBJ": ""
      },
      {
        "$type": "FABLGECDBCH",
        "type": "BODY_LANG",
        "aliasList": [
          "1005"
        ],
        "actionId": 264,
        "isContinue": true,
        "forceDoFreeStyle": true,
        "canDoRepeatFreeStyle": false,
        "eventPatternSuiteKey": "",
        "FOHHKFAIAAJ": ""
      },
      {
        "$type": "PKKMAMONGEO",
        "type": "DIALOG",
        "aliasList": [
          "12552"
        ],
        "dialogID": 190570120,
        "protectTime": 0.5
      },
      {
        "$type": "FABLGECDBCH",
        "type": "BODY_LANG",
        "aliasList": [
          "12552"
        ],
        "actionId": 267,
        "isContinue": true,
        "forceDoFreeStyle": true,
        "canDoRepeatFreeStyle": false,
        "eventPatternSuiteKey": "",
        "FOHHKFAIAAJ": ""
      },
      {
        "$type": "CPJKOIHIPBE",
        "type": "EMO_SYNC",
        "aliasList": [
          "12552"
        ],
        "_flag": 256,
        "dataPath": "Cs_Emo_Avatar_Simple_Common_Set/Cs_Emo_Avatar_Talk/Cs_Emo_Coop_Common/Cs_Emo_Coop_Heizo_01/Cs_Emo_190570120",
        "phonemePath": "",
        "emotionPath": "",
        "mateDataPath": "",
        "matePhonemePath": "",
        "mateEmotionPath": "",
        "dataPathHashList": [
          17749863082922342777,
          12891602779403644608,
          471416122296465775,
          7577955407459416603
        ],
        "FMDPBECPELH": "",
        "ADKBLPOKGIK": ""
      },
      {
        "$type": "FABLGECDBCH",
        "type": "BODY_LANG",
        "delayTime": 0.9879999756813049,
        "aliasList": [
          "12552"
        ],
        "actionId": 317,
        "bodyLangParam": 1171,
        "forceDoFreeStyle": true,
        "canDoRepeatFreeStyle": false,
        "eventPatternSuiteKey": "",
        "FOHHKFAIAAJ": ""
      },
      {
        "$type": "FABLGECDBCH",
        "type": "BODY_LANG",
        "delayTime": 6.788000106811523,
        "aliasList": [
          "12552"
        ],
        "actionId": 324,
        "bodyLangParam": 1173,
        "forceDoFreeStyle": true,
        "canDoRepeatFreeStyle": false,
        "eventPatternSuiteKey": "",
        "FOHHKFAIAAJ": ""
      }
    ],
    [
      {
        "$type": "PKKMAMONGEO",
        "type": "DIALOG",
        "aliasList": [
          "12552"
        ],
        "dialogID": 190570121,
        "protectTime": 0.5
      },
      {
        "$type": "FABLGECDBCH",
        "type": "BODY_LANG",
        "aliasList": [
          "12552"
        ],
        "actionId": 268,
        "bodyLangParam": 1160,
        "forceDoFreeStyle": true,
        "canDoRepeatFreeStyle": false,
        "eventPatternSuiteKey": "",
        "FOHHKFAIAAJ": ""
      },
      {
        "$type": "EMEHNEMOMMM",
        "type": "LOOK_AT_EYECTRL",
        "aliasList": [
          "12552"
        ],
        "actionId": 325,
        "_flag": 4672,
        "useTargetPos": false,
        "eyeRotateVecLeft": {
          "z": 5.0
        },
        "eyeRotateVecRight": {
          "z": 5.0
        },
        "turnTime": 0.5,
        "targetNpcAlias": "",
        "targetPoint": "Face"
      },
      {
        "$type": "CPJKOIHIPBE",
        "type": "EMO_SYNC",
        "aliasList": [
          "12552"
        ],
        "_flag": 256,
        "dataPath": "Cs_Emo_Avatar_Simple_Common_Set/Cs_Emo_Avatar_Talk/Cs_Emo_Coop_Common/Cs_Emo_Coop_Heizo_01/Cs_Emo_190570121",
        "phonemePath": "",
        "emotionPath": "",
        "mateDataPath": "",
        "matePhonemePath": "",
        "mateEmotionPath": "",
        "enableBlink": false,
        "dataPathHashList": [
          7454795200383442180,
          10421643883499105496,
          7927042979940067485,
          17972613794932282375
        ],
        "FMDPBECPELH": "",
        "ADKBLPOKGIK": ""
      }
    ],
    [
      {
        "$type": "PKKMAMONGEO",
        "type": "DIALOG",
        "aliasList": [
          "12552"
        ],
        "dialogID": 190570122,
        "protectTime": 0.5
      },
      {
        "$type": "FABLGECDBCH",
        "type": "BODY_LANG",
        "aliasList": [
          "12552"
        ],
        "actionId": 276,
        "isContinue": true,
        "forceDoFreeStyle": true,
        "canDoRepeatFreeStyle": false,
        "eventPatternSuiteKey": "",
        "FOHHKFAIAAJ": ""
      },
      {
        "$type": "EMEHNEMOMMM",
        "type": "LOOK_AT_EYECTRL",
        "aliasList": [
          "12552"
        ],
        "actionId": 295,
        "_flag": 4672,
        "useTargetPos": false,
        "eyeRotateVecLeft": {
          "z": 3.0
        },
        "eyeRotateVecRight": {
          "z": 3.0
        },
        "turnTime": 0.5,
        "targetNpcAlias": "",
        "targetPoint": "Face"
      },
      {
        "$type": "CPJKOIHIPBE",
        "type": "EMO_SYNC",
        "aliasList": [
          "12552"
        ],
        "_flag": 320,
        "dataPath": "Cs_Emo_Avatar_Simple_Common_Set/Cs_Emo_Avatar_Talk/Cs_Emo_Coop_Common/Cs_Emo_Coop_Heizo_01/Cs_Emo_190570122",
        "phonemePath": "",
        "emotionPath": "",
        "mateDataPath": "",
        "matePhonemePath": "",
        "mateEmotionPath": "",
        "dataPathHashList": [
          18073568593779519152,
          14983789192100148753,
          13141224593891732135,
          8942677019501191861
        ],
        "FMDPBECPELH": "",
        "ADKBLPOKGIK": ""
      },
      {
        "$type": "FABLGECDBCH",
        "type": "BODY_LANG",
        "delayTime": 0.4000000059604645,
        "aliasList": [
          "12552"
        ],
        "actionId": 272,
        "bodyLangParam": 1230,
        "forceDoFreeStyle": true,
        "canDoRepeatFreeStyle": false,
        "eventPatternSuiteKey": "",
        "FOHHKFAIAAJ": ""
      }
    ],
    [
      {
        "$type": "FJKIHHKJLMJ",
        "type": "CAMERA_MOVE",
        "duration": 1.0,
        "cameraPosType": "RELATIVE_TO_TARGET_ENTITY",
        "camTargetType": "RELATIVE_TO_TARGET_ENTITY",
        "camFov": 30.0,
        "lerpPattern": 6,
        "cameraBlendType": "EaseInOutCubic",
        "NJBNNOMLKCK": {},
        "openCameraDither": false,
        "targetNpcAlias": "511",
        "closeTreeLeafDither": true,
        "KJOEFBPOIIH": "",
        "IICFKKEBIEC": "",
        "EGEHEJEBLBJ": ""
      },
      {
        "$type": "PKKMAMONGEO",
        "type": "DIALOG",
        "aliasList": [
          "511"
        ],
        "dialogID": 190570123,
        "protectTime": 0.5
      },
      {
        "$type": "MoleMole.Config.ConfigEmotionTemplateAction",
        "type": "EMOTION_TEMPLATE",
        "aliasList": [
          "511"
        ],
        "_flag": 384,
        "emoTemplateID": 10601
      },
      {
        "$type": "CPJKOIHIPBE",
        "type": "EMO_SYNC",
        "aliasList": [
          "511"
        ],
        "_flag": 320,
        "dataPath": "Cs_Emo_Avatar_Simple_Common_Set/Cs_Emo_Avatar_Talk/Cs_Emo_Coop_Common/Cs_Emo_Coop_Heizo_01/Cs_Emo_190570123",
        "phonemePath": "",
        "emotionPath": "",
        "mateDataPath": "",
        "matePhonemePath": "",
        "mateEmotionPath": "",
        "dataPathHashList": [
          6696665994111298121,
          3440233064376432131,
          13568623132023363420,
          10227970686867699961
        ],
        "FMDPBECPELH": "",
        "ADKBLPOKGIK": ""
      }
    ],
    [
      {
        "$type": "FJKIHHKJLMJ",
        "type": "CAMERA_MOVE",
        "duration": 1.0,
        "cameraPosType": "RELATIVE_TO_TARGET_ENTITY",
        "camTargetType": "RELATIVE_TO_TARGET_ENTITY",
        "camFov": 30.0,
        "lerpPattern": 6,
        "cameraBlendType": "EaseInOutCubic",
        "NJBNNOMLKCK": {},
        "openCameraDither": false,
        "targetNpcAlias": "12552",
        "closeTreeLeafDither": true,
        "KJOEFBPOIIH": "",
        "IICFKKEBIEC": "",
        "EGEHEJEBLBJ": ""
      },
      {
        "$type": "PKKMAMONGEO",
        "type": "DIALOG",
        "aliasList": [
          "12552"
        ],
        "dialogID": 190570124,
        "protectTime": 0.5
      },
      {
        "$type": "FABLGECDBCH",
        "type": "BODY_LANG",
        "aliasList": [
          "12552"
        ],
        "actionId": 270,
        "bodyLangParam": 1231,
        "forceDoFreeStyle": true,
        "canDoRepeatFreeStyle": false,
        "eventPatternSuiteKey": "",
        "FOHHKFAIAAJ": ""
      },
      {
        "$type": "CPJKOIHIPBE",
        "type": "EMO_SYNC",
        "aliasList": [
          "12552"
        ],
        "_flag": 320,
        "dataPath": "Cs_Emo_Avatar_Simple_Common_Set/Cs_Emo_Avatar_Talk/Cs_Emo_Coop_Common/Cs_Emo_Coop_Heizo_01/Cs_Emo_190570124",
        "phonemePath": "",
        "emotionPath": "",
        "mateDataPath": "",
        "matePhonemePath": "",
        "mateEmotionPath": "",
        "dataPathHashList": [
          5924634492235852972,
          15037303554225962579,
          4384677750878875765,
          17270802417838225513
        ],
        "FMDPBECPELH": "",
        "ADKBLPOKGIK": ""
      }
    ],
    [
      {
        "$type": "FJKIHHKJLMJ",
        "type": "CAMERA_MOVE",
        "duration": 1.0,
        "cameraPosType": "RELATIVE_TO_TARGET_ENTITY",
        "camTargetType": "RELATIVE_TO_TARGET_ENTITY",
        "camFov": 30.0,
        "lerpPattern": 6,
        "cameraBlendType": "EaseInOutCubic",
        "NJBNNOMLKCK": {},
        "openCameraDither": false,
        "targetNpcAlias": "511",
        "closeTreeLeafDither": true,
        "KJOEFBPOIIH": "",
        "IICFKKEBIEC": "",
        "EGEHEJEBLBJ": ""
      },
      {
        "$type": "PKKMAMONGEO",
        "type": "DIALOG",
        "aliasList": [
          "511"
        ],
        "dialogID": 190570125,
        "protectTime": 1.0
      },
      {
        "$type": "MoleMole.Config.ConfigEmotionTemplateAction",
        "type": "EMOTION_TEMPLATE",
        "aliasList": [
          "511"
        ],
        "_flag": 384,
        "emoTemplateID": 10100
      },
      {
        "$type": "CPJKOIHIPBE",
        "type": "EMO_SYNC",
        "aliasList": [
          "511"
        ],
        "_flag": 320,
        "dataPath": "Cs_Emo_Avatar_Simple_Common_Set/Cs_Emo_Avatar_Talk/Cs_Emo_Coop_Common/Cs_Emo_Coop_Heizo_01/Cs_Emo_190570125",
        "phonemePath": "",
        "emotionPath": "",
        "mateDataPath": "",
        "matePhonemePath": "",
        "mateEmotionPath": "",
        "dataPathHashList": [
          2609463358965220891,
          14970436663538279893,
          14058894782646078081,
          11900369286088524562
        ],
        "FMDPBECPELH": "",
        "ADKBLPOKGIK": ""
      },
      {
        "$type": "FABLGECDBCH",
        "type": "BODY_LANG",
        "aliasList": [
          "12552"
        ],
        "actionId": 307,
        "isContinue": true,
        "forceDoFreeStyle": true,
        "canDoRepeatFreeStyle": false,
        "eventPatternSuiteKey": "",
        "FOHHKFAIAAJ": ""
      },
      {
        "$type": "FABLGECDBCH",
        "type": "BODY_LANG",
        "delayTime": 0.5,
        "aliasList": [
          "12552"
        ],
        "actionId": 307,
        "isContinue": true,
        "forceDoFreeStyle": true,
        "canDoRepeatFreeStyle": false,
        "eventPatternSuiteKey": "",
        "FOHHKFAIAAJ": ""
      }
    ],
    [
      {
        "$type": "FJKIHHKJLMJ",
        "type": "CAMERA_MOVE",
        "duration": 1.0,
        "cameraPosType": "RELATIVE_TO_TARGET_ENTITY",
        "camTargetType": "RELATIVE_TO_TARGET_ENTITY",
        "camFov": 30.0,
        "lerpPattern": 6,
        "cameraBlendType": "EaseInOutCubic",
        "NJBNNOMLKCK": {},
        "openCameraDither": false,
        "targetNpcAlias": "12552",
        "closeTreeLeafDither": true,
        "KJOEFBPOIIH": "",
        "IICFKKEBIEC": "",
        "EGEHEJEBLBJ": ""
      },
      {
        "$type": "PKKMAMONGEO",
        "type": "DIALOG",
        "aliasList": [
          "12552"
        ],
        "dialogID": 190570126,
        "protectTime": 0.5
      },
      {
        "$type": "FABLGECDBCH",
        "type": "BODY_LANG",
        "aliasList": [
          "12552"
        ],
        "actionId": 277,
        "bodyLangParam": 1110,
        "forceDoFreeStyle": true,
        "canDoRepeatFreeStyle": false,
        "eventPatternSuiteKey": "",
        "FOHHKFAIAAJ": ""
      },
      {
        "$type": "CPJKOIHIPBE",
        "type": "EMO_SYNC",
        "aliasList": [
          "12552"
        ],
        "_flag": 320,
        "dataPath": "Cs_Emo_Avatar_Simple_Common_Set/Cs_Emo_Avatar_Talk/Cs_Emo_Coop_Common/Cs_Emo_Coop_Heizo_01/Cs_Emo_190570126",
        "phonemePath": "",
        "emotionPath": "",
        "mateDataPath": "",
        "matePhonemePath": "",
        "mateEmotionPath": "",
        "dataPathHashList": [
          10875747863779445260,
          3318064619128408884,
          348547936303066013,
          2321505279891965297
        ],
        "FMDPBECPELH": "",
        "ADKBLPOKGIK": ""
      },
      {
        "$type": "FABLGECDBCH",
        "type": "BODY_LANG",
        "delayTime": 2.0799999237060547,
        "aliasList": [
          "12552"
        ],
        "actionId": 278,
        "isContinue": true,
        "forceDoFreeStyle": true,
        "canDoRepeatFreeStyle": false,
        "eventPatternSuiteKey": "",
        "FOHHKFAIAAJ": ""
      }
    ],
    [
      {
        "$type": "FJKIHHKJLMJ",
        "type": "CAMERA_MOVE",
        "duration": 1.0,
        "cameraPosType": "RELATIVE_TO_TARGET_ENTITY",
        "camTargetType": "RELATIVE_TO_TARGET_ENTITY",
        "camFov": 30.0,
        "lerpPattern": 6,
        "cameraBlendType": "EaseInOutCubic",
        "NJBNNOMLKCK": {},
        "openCameraDither": false,
        "targetNpcAlias": "511",
        "closeTreeLeafDither": true,
        "KJOEFBPOIIH": "",
        "IICFKKEBIEC": "",
        "EGEHEJEBLBJ": ""
      },
      {
        "$type": "PKKMAMONGEO",
        "type": "DIALOG",
        "aliasList": [
          "511"
        ],
        "dialogID": 190570127,
        "protectTime": 0.5
      },
      {
        "$type": "CPJKOIHIPBE",
        "type": "EMO_SYNC",
        "aliasList": [
          "511"
        ],
        "_flag": 320,
        "dataPath": "Cs_Emo_Avatar_Simple_Common_Set/Cs_Emo_Avatar_Talk/Cs_Emo_Coop_Common/Cs_Emo_Coop_Heizo_01/Cs_Emo_190570127",
        "phonemePath": "",
        "emotionPath": "",
        "mateDataPath": "",
        "matePhonemePath": "",
        "mateEmotionPath": "",
        "dataPathHashList": [
          9209371503325216798,
          1424084900639383843,
          11579370119902419641,
          8726815672395315580
        ],
        "FMDPBECPELH": "",
        "ADKBLPOKGIK": ""
      },
      {
        "$type": "FABLGECDBCH",
        "type": "BODY_LANG",
        "aliasList": [
          "12552"
        ],
        "actionId": 328,
        "isContinue": true,
        "forceDoFreeStyle": true,
        "canDoRepeatFreeStyle": false,
        "eventPatternSuiteKey": "",
        "FOHHKFAIAAJ": ""
      }
    ],
    [
      {
        "$type": "FJKIHHKJLMJ",
        "type": "CAMERA_MOVE",
        "duration": 1.0,
        "cameraPosType": "RELATIVE_TO_TARGET_ENTITY",
        "camTargetType": "RELATIVE_TO_TARGET_ENTITY",
        "camFov": 30.0,
        "lerpPattern": 6,
        "cameraBlendType": "EaseInOutCubic",
        "NJBNNOMLKCK": {},
        "openCameraDither": false,
        "targetNpcAlias": "12552",
        "closeTreeLeafDither": true,
        "KJOEFBPOIIH": "",
        "IICFKKEBIEC": "",
        "EGEHEJEBLBJ": ""
      },
      {
        "$type": "PKKMAMONGEO",
        "type": "DIALOG",
        "aliasList": [
          "12552"
        ],
        "dialogID": 190570128,
        "protectTime": 0.5
      },
      {
        "$type": "FABLGECDBCH",
        "type": "BODY_LANG",
        "aliasList": [
          "12552"
        ],
        "actionId": 279,
        "bodyLangParam": 1050,
        "forceDoFreeStyle": true,
        "canDoRepeatFreeStyle": false,
        "eventPatternSuiteKey": "",
        "FOHHKFAIAAJ": ""
      },
      {
        "$type": "CPJKOIHIPBE",
        "type": "EMO_SYNC",
        "aliasList": [
          "12552"
        ],
        "_flag": 320,
        "dataPath": "Cs_Emo_Avatar_Simple_Common_Set/Cs_Emo_Avatar_Talk/Cs_Emo_Coop_Common/Cs_Emo_Coop_Heizo_01/Cs_Emo_190570128",
        "phonemePath": "",
        "emotionPath": "",
        "mateDataPath": "",
        "matePhonemePath": "",
        "mateEmotionPath": "",
        "dataPathHashList": [
          3026574869160238425,
          8039987137474580996,
          12643120812135897669,
          17276589253361266094
        ],
        "FMDPBECPELH": "",
        "ADKBLPOKGIK": ""
      },
      {
        "$type": "FABLGECDBCH",
        "type": "BODY_LANG",
        "delayTime": 3.26200008392334,
        "aliasList": [
          "12552"
        ],
        "actionId": 280,
        "isContinue": true,
        "forceDoFreeStyle": true,
        "canDoRepeatFreeStyle": false,
        "eventPatternSuiteKey": "",
        "FOHHKFAIAAJ": ""
      }
    ],
    [
      {
        "$type": "FJKIHHKJLMJ",
        "type": "CAMERA_MOVE",
        "duration": 1.0,
        "cameraPosType": "RELATIVE_TO_TARGET_ENTITY",
        "camTargetType": "RELATIVE_TO_TARGET_ENTITY",
        "camFov": 30.0,
        "lerpPattern": 6,
        "cameraBlendType": "EaseInOutCubic",
        "NJBNNOMLKCK": {},
        "openCameraDither": false,
        "targetNpcAlias": "511",
        "closeTreeLeafDither": true,
        "KJOEFBPOIIH": "",
        "IICFKKEBIEC": "",
        "EGEHEJEBLBJ": ""
      },
      {
        "$type": "PKKMAMONGEO",
        "type": "DIALOG",
        "aliasList": [
          "511"
        ],
        "dialogID": 190570129,
        "protectTime": 0.5
      },
      {
        "$type": "CPJKOIHIPBE",
        "type": "EMO_SYNC",
        "aliasList": [
          "511"
        ],
        "_flag": 320,
        "dataPath": "Cs_Emo_Avatar_Simple_Common_Set/Cs_Emo_Avatar_Talk/Cs_Emo_Coop_Common/Cs_Emo_Coop_Heizo_01/Cs_Emo_190570129",
        "phonemePath": "",
        "emotionPath": "",
        "mateDataPath": "",
        "matePhonemePath": "",
        "mateEmotionPath": "",
        "dataPathHashList": [
          4136107706431949158,
          8855935811944638396,
          13702657750151141760,
          971868254527528758
        ],
        "FMDPBECPELH": "",
        "ADKBLPOKGIK": ""
      },
      {
        "$type": "FABLGECDBCH",
        "type": "BODY_LANG",
        "aliasList": [
          "12552"
        ],
        "actionId": 281,
        "isContinue": true,
        "forceDoFreeStyle": true,
        "canDoRepeatFreeStyle": false,
        "eventPatternSuiteKey": "",
        "FOHHKFAIAAJ": ""
      }
    ],
    [
      {
        "$type": "FJKIHHKJLMJ",
        "type": "CAMERA_MOVE",
        "duration": 1.0,
        "cameraPosType": "RELATIVE_TO_TARGET_ENTITY",
        "camTargetType": "RELATIVE_TO_TARGET_ENTITY",
        "camFov": 30.0,
        "lerpPattern": 6,
        "cameraBlendType": "EaseInOutCubic",
        "NJBNNOMLKCK": {},
        "openCameraDither": false,
        "targetNpcAlias": "12552",
        "closeTreeLeafDither": true,
        "KJOEFBPOIIH": "",
        "IICFKKEBIEC": "",
        "EGEHEJEBLBJ": ""
      },
      {
        "$type": "PKKMAMONGEO",
        "type": "DIALOG",
        "aliasList": [
          "12552"
        ],
        "dialogID": 190570130,
        "protectTime": 0.5
      },
      {
        "$type": "FABLGECDBCH",
        "type": "BODY_LANG",
        "aliasList": [
          "12552"
        ],
        "actionId": 282,
        "bodyLangParam": 1070,
        "forceDoFreeStyle": true,
        "canDoRepeatFreeStyle": false,
        "eventPatternSuiteKey": "",
        "FOHHKFAIAAJ": ""
      },
      {
        "$type": "CPJKOIHIPBE",
        "type": "EMO_SYNC",
        "aliasList": [
          "12552"
        ],
        "_flag": 256,
        "dataPath": "Cs_Emo_Avatar_Simple_Common_Set/Cs_Emo_Avatar_Talk/Cs_Emo_Coop_Common/Cs_Emo_Coop_Heizo_01/Cs_Emo_190570130",
        "phonemePath": "",
        "emotionPath": "",
        "mateDataPath": "",
        "matePhonemePath": "",
        "mateEmotionPath": "",
        "dataPathHashList": [
          606582647024317376,
          17853479614821564927,
          7417066472718325461,
          11814207171660650690
        ],
        "FMDPBECPELH": "",
        "ADKBLPOKGIK": ""
      },
      {
        "$type": "FABLGECDBCH",
        "type": "BODY_LANG",
        "delayTime": 2.6019999980926514,
        "aliasList": [
          "12552"
        ],
        "actionId": 283,
        "isContinue": true,
        "forceDoFreeStyle": true,
        "canDoRepeatFreeStyle": false,
        "eventPatternSuiteKey": "",
        "FOHHKFAIAAJ": ""
      }
    ],
    [
      {
        "$type": "PKKMAMONGEO",
        "type": "DIALOG",
        "aliasList": [
          "12552"
        ],
        "dialogID": 190570131,
        "protectTime": 0.5
      },
      {
        "$type": "FABLGECDBCH",
        "type": "BODY_LANG",
        "aliasList": [
          "12552"
        ],
        "actionId": 285,
        "isContinue": true,
        "forceDoFreeStyle": true,
        "canDoRepeatFreeStyle": false,
        "eventPatternSuiteKey": "",
        "FOHHKFAIAAJ": ""
      },
      {
        "$type": "CPJKOIHIPBE",
        "type": "EMO_SYNC",
        "aliasList": [
          "12552"
        ],
        "_flag": 256,
        "dataPath": "Cs_Emo_Avatar_Simple_Common_Set/Cs_Emo_Avatar_Talk/Cs_Emo_Coop_Common/Cs_Emo_Coop_Heizo_01/Cs_Emo_190570131",
        "phonemePath": "",
        "emotionPath": "",
        "mateDataPath": "",
        "matePhonemePath": "",
        "mateEmotionPath": "",
        "dataPathHashList": [
          2920754051232179926,
          3829512180299439875,
          14105716169821372760,
          15138646723451751812
        ],
        "FMDPBECPELH": "",
        "ADKBLPOKGIK": ""
      },
      {
        "$type": "HDGKHDNFMIM",
        "type": "DIALOG_SELECT",
        "delayTime": 0.4000000059604645,
        "aliasList": [
          "Avatar"
        ],
        "dialogIDList": [
          190570132
        ],
        "grpIDList": [
          2773225758
        ],
        "useGrpId": true,
        "countDownGrpId": 228006223
      },
      {
        "$type": "FABLGECDBCH",
        "type": "BODY_LANG",
        "delayTime": 0.949999988079071,
        "aliasList": [
          "12552"
        ],
        "actionId": 284,
        "bodyLangParam": 1171,
        "forceDoFreeStyle": true,
        "canDoRepeatFreeStyle": false,
        "eventPatternSuiteKey": "",
        "FOHHKFAIAAJ": ""
      }
    ],
    [
      {
        "$type": "PKKMAMONGEO",
        "type": "DIALOG",
        "aliasList": [
          "12552"
        ],
        "dialogID": 190570133,
        "protectTime": 0.5
      },
      {
        "$type": "FABLGECDBCH",
        "type": "BODY_LANG",
        "aliasList": [
          "12552"
        ],
        "actionId": 286,
        "bodyLangParam": 1230,
        "forceDoFreeStyle": true,
        "canDoRepeatFreeStyle": false,
        "eventPatternSuiteKey": "",
        "FOHHKFAIAAJ": ""
      },
      {
        "$type": "CPJKOIHIPBE",
        "type": "EMO_SYNC",
        "aliasList": [
          "12552"
        ],
        "_flag": 320,
        "dataPath": "Cs_Emo_Avatar_Simple_Common_Set/Cs_Emo_Avatar_Talk/Cs_Emo_Coop_Common/Cs_Emo_Coop_Heizo_01/Cs_Emo_190570133",
        "phonemePath": "",
        "emotionPath": "",
        "mateDataPath": "",
        "matePhonemePath": "",
        "mateEmotionPath": "",
        "dataPathHashList": [
          558854373974470331,
          10054933352446604330,
          14158249202120849394,
          6772667259407175913
        ],
        "FMDPBECPELH": "",
        "ADKBLPOKGIK": ""
      },
      {
        "$type": "FABLGECDBCH",
        "type": "BODY_LANG",
        "delayTime": 2.0250000953674316,
        "aliasList": [
          "12552"
        ],
        "actionId": 309,
        "bodyLangParam": 1231,
        "forceDoFreeStyle": true,
        "canDoRepeatFreeStyle": false,
        "eventPatternSuiteKey": "",
        "FOHHKFAIAAJ": ""
      },
      {
        "$type": "FABLGECDBCH",
        "type": "BODY_LANG",
        "delayTime": 5.968999862670898,
        "aliasList": [
          "12552"
        ],
        "actionId": 311,
        "isContinue": true,
        "forceDoFreeStyle": true,
        "canDoRepeatFreeStyle": false,
        "eventPatternSuiteKey": "",
        "FOHHKFAIAAJ": ""
      },
      {
        "$type": "FABLGECDBCH",
        "type": "BODY_LANG",
        "delayTime": 6.775000095367432,
        "aliasList": [
          "12552"
        ],
        "actionId": 319,
        "bodyLangParam": 4030,
        "forceDoFreeStyle": true,
        "canDoRepeatFreeStyle": false,
        "eventPatternSuiteKey": "",
        "FOHHKFAIAAJ": ""
      }
    ],
    [
      {
        "$type": "FJKIHHKJLMJ",
        "type": "CAMERA_MOVE",
        "duration": 1.0,
        "cameraPosType": "RELATIVE_TO_TARGET_ENTITY",
        "camTargetType": "RELATIVE_TO_TARGET_ENTITY",
        "camFov": 30.0,
        "lerpPattern": 6,
        "cameraBlendType": "EaseInOutCubic",
        "NJBNNOMLKCK": {},
        "openCameraDither": false,
        "targetNpcAlias": "511",
        "closeTreeLeafDither": true,
        "KJOEFBPOIIH": "",
        "IICFKKEBIEC": "",
        "EGEHEJEBLBJ": ""
      },
      {
        "$type": "PKKMAMONGEO",
        "type": "DIALOG",
        "aliasList": [
          "511"
        ],
        "dialogID": 190570134,
        "protectTime": 0.5
      },
      {
        "$type": "MoleMole.Config.ConfigEmotionTemplateAction",
        "type": "EMOTION_TEMPLATE",
        "aliasList": [
          "511"
        ],
        "_flag": 384,
        "emoTemplateID": 10501
      },
      {
        "$type": "CPJKOIHIPBE",
        "type": "EMO_SYNC",
        "aliasList": [
          "511"
        ],
        "_flag": 320,
        "dataPath": "Cs_Emo_Avatar_Simple_Common_Set/Cs_Emo_Avatar_Talk/Cs_Emo_Coop_Common/Cs_Emo_Coop_Heizo_01/Cs_Emo_190570134",
        "phonemePath": "",
        "emotionPath": "",
        "mateDataPath": "",
        "matePhonemePath": "",
        "mateEmotionPath": "",
        "dataPathHashList": [
          1082333508348151769,
          11058133560112803698,
          18388019021971510251,
          6627705698533053513
        ],
        "FMDPBECPELH": "",
        "ADKBLPOKGIK": ""
      },
      {
        "$type": "FABLGECDBCH",
        "type": "BODY_LANG",
        "aliasList": [
          "12552"
        ],
        "actionId": 312,
        "isContinue": true,
        "forceDoFreeStyle": true,
        "canDoRepeatFreeStyle": false,
        "eventPatternSuiteKey": "",
        "FOHHKFAIAAJ": ""
      },
      {
        "$type": "FABLGECDBCH",
        "type": "BODY_LANG",
        "delayTime": 0.30000001192092896,
        "aliasList": [
          "12552"
        ],
        "actionId": 313,
        "isContinue": true,
        "forceDoFreeStyle": true,
        "canDoRepeatFreeStyle": false,
        "eventPatternSuiteKey": "",
        "FOHHKFAIAAJ": ""
      }
    ],
    [
      {
        "$type": "FJKIHHKJLMJ",
        "type": "CAMERA_MOVE",
        "duration": 1.0,
        "cameraPosType": "RELATIVE_TO_TARGET_ENTITY",
        "camTargetType": "RELATIVE_TO_TARGET_ENTITY",
        "camFov": 30.0,
        "lerpPattern": 6,
        "cameraBlendType": "EaseInOutCubic",
        "NJBNNOMLKCK": {},
        "openCameraDither": false,
        "targetNpcAlias": "12552",
        "closeTreeLeafDither": true,
        "KJOEFBPOIIH": "",
        "IICFKKEBIEC": "",
        "EGEHEJEBLBJ": ""
      },
      {
        "$type": "PKKMAMONGEO",
        "type": "DIALOG",
        "aliasList": [
          "12552"
        ],
        "dialogID": 190570135,
        "protectTime": 0.5
      },
      {
        "$type": "FABLGECDBCH",
        "type": "BODY_LANG",
        "aliasList": [
          "12552"
        ],
        "actionId": 287,
        "bodyLangParam": 1050,
        "forceDoFreeStyle": true,
        "canDoRepeatFreeStyle": false,
        "eventPatternSuiteKey": "",
        "FOHHKFAIAAJ": ""
      },
      {
        "$type": "CPJKOIHIPBE",
        "type": "EMO_SYNC",
        "aliasList": [
          "12552"
        ],
        "_flag": 320,
        "dataPath": "Cs_Emo_Avatar_Simple_Common_Set/Cs_Emo_Avatar_Talk/Cs_Emo_Coop_Common/Cs_Emo_Coop_Heizo_01/Cs_Emo_190570135",
        "phonemePath": "",
        "emotionPath": "",
        "mateDataPath": "",
        "matePhonemePath": "",
        "mateEmotionPath": "",
        "dataPathHashList": [
          10262528294029173740,
          11033076086633618165,
          11218171311544918942,
          8501871400223280448
        ],
        "FMDPBECPELH": "",
        "ADKBLPOKGIK": ""
      },
      {
        "$type": "FABLGECDBCH",
        "type": "BODY_LANG",
        "delayTime": 3.3010001182556152,
        "aliasList": [
          "12552"
        ],
        "actionId": 288,
        "isContinue": true,
        "forceDoFreeStyle": true,
        "canDoRepeatFreeStyle": false,
        "eventPatternSuiteKey": "",
        "FOHHKFAIAAJ": ""
      }
    ],
    [
      {
        "$type": "FJKIHHKJLMJ",
        "type": "CAMERA_MOVE",
        "duration": 1.0,
        "cameraPosType": "RELATIVE_TO_TARGET_ENTITY",
        "camTargetType": "RELATIVE_TO_TARGET_ENTITY",
        "camFov": 30.0,
        "lerpPattern": 6,
        "cameraBlendType": "EaseInOutCubic",
        "NJBNNOMLKCK": {},
        "openCameraDither": false,
        "targetNpcAlias": "511",
        "closeTreeLeafDither": true,
        "KJOEFBPOIIH": "",
        "IICFKKEBIEC": "",
        "EGEHEJEBLBJ": ""
      },
      {
        "$type": "PKKMAMONGEO",
        "type": "DIALOG",
        "aliasList": [
          "511"
        ],
        "dialogID": 190570136,
        "protectTime": 0.5
      },
      {
        "$type": "MoleMole.Config.ConfigEmotionTemplateAction",
        "type": "EMOTION_TEMPLATE",
        "aliasList": [
          "511"
        ],
        "_flag": 384,
        "emoTemplateID": 10100
      },
      {
        "$type": "CPJKOIHIPBE",
        "type": "EMO_SYNC",
        "aliasList": [
          "511"
        ],
        "_flag": 256,
        "dataPath": "Cs_Emo_Avatar_Simple_Common_Set/Cs_Emo_Avatar_Talk/Cs_Emo_Coop_Common/Cs_Emo_Coop_Heizo_01/Cs_Emo_190570136",
        "phonemePath": "",
        "emotionPath": "",
        "mateDataPath": "",
        "matePhonemePath": "",
        "mateEmotionPath": "",
        "dataPathHashList": [
          15842570694655734554,
          10043281404608125670,
          3878439907783740949,
          4102791267055443504
        ],
        "FMDPBECPELH": "",
        "ADKBLPOKGIK": ""
      },
      {
        "$type": "FABLGECDBCH",
        "type": "BODY_LANG",
        "aliasList": [
          "12552"
        ],
        "actionId": 289,
        "isContinue": true,
        "forceDoFreeStyle": true,
        "canDoRepeatFreeStyle": false,
        "eventPatternSuiteKey": "",
        "FOHHKFAIAAJ": ""
      }
    ],
    [
      {
        "$type": "PKKMAMONGEO",
        "type": "DIALOG",
        "aliasList": [
          "511"
        ],
        "dialogID": 190570137,
        "protectTime": 0.5
      },
      {
        "$type": "CPJKOIHIPBE",
        "type": "EMO_SYNC",
        "aliasList": [
          "511"
        ],
        "_flag": 320,
        "dataPath": "Cs_Emo_Avatar_Simple_Common_Set/Cs_Emo_Avatar_Talk/Cs_Emo_Coop_Common/Cs_Emo_Coop_Heizo_01/Cs_Emo_190570137",
        "phonemePath": "",
        "emotionPath": "",
        "mateDataPath": "",
        "matePhonemePath": "",
        "mateEmotionPath": "",
        "dataPathHashList": [
          3441655518402337137,
          13033009788940505353,
          320918236457038216,
          3757690268743759213
        ],
        "FMDPBECPELH": "",
        "ADKBLPOKGIK": ""
      }
    ],
    [
      {
        "$type": "MoleMole.Config.ConfigTimeProtectAction",
        "type": "TIME_PROTECT",
        "duration": 0.699999988079071
      },
      {
        "$type": "MoleMole.Config.ConfigSimpleBlackScreenAction",
        "type": "SIMPLE_BLACK_SCREEN",
        "durationToBlack": 0.5,
        "durationKeepBlack": 1.0,
        "durationFromBlack": 0.5,
        "textMapID": "",
        "useTextFade": true
      },
      {
        "$type": "PKKMAMONGEO",
        "type": "DIALOG_CLEAR",
        "actionId": 219,
        "dialogID": 190570137
      },
      {
        "$type": "FJKIHHKJLMJ",
        "type": "CAMERA_MOVE",
        "delayTime": 0.6000000238418579,
        "duration": 0.10000000149011612,
        "actionId": 220,
        "camPosOffset": {
          "x": -2488.18896484375,
          "y": 447.9150085449219,
          "z": -4411.27392578125
        },
        "camForwardTargetOffset": {
          "x": -2488.385986328125,
          "y": 447.7149963378906,
          "z": -4412.23388671875
        },
        "lerpPattern": 6,
        "cameraBlendType": "EaseInOutCubic",
        "NJBNNOMLKCK": {},
        "needZAxisRotate": true,
        "openCameraDither": false,
        "targetNpcAlias": "",
        "closeTreeLeafDither": true,
        "KJOEFBPOIIH": "",
        "IICFKKEBIEC": "",
        "EGEHEJEBLBJ": ""
      },
      {
        "$type": "MoleMole.Config.ConfigTeleportToAction",
        "type": "TELEPORT_TO",
        "delayTime": 0.6000000238418579,
        "aliasList": [
          "Avatar"
        ],
        "actionId": 222,
        "position": {
          "x": -2488.635986328125,
          "y": 446.5870056152344,
          "z": -4413.498046875
        },
        "forward": {
          "x": -0.13300000131130219,
          "z": -0.9909999966621399
        },
        "openLongDisTeleport": true,
        "_posBindMovingTargetKey": "",
        "_forwardBindMovingTargetKey": ""
      },
      {
        "$type": "MoleMole.Config.ConfigVisibleInterAction",
        "type": "VISIBLE",
        "delayTime": 0.6000000238418579,
        "aliasList": [
          "Avatar"
        ],
        "actionId": 223,
        "isVisible": true,
        "_extraParam": ""
      },
      {
        "$type": "LJLMDHDCAMK",
        "type": "LOOK_AT",
        "delayTime": 0.6000000238418579,
        "aliasList": [
          "Avatar"
        ],
        "actionId": 299,
        "_flag": 64,
        "headTurnTime": 0.5,
        "targetNpcAlias": "",
        "targetNpcLookAtPoint": "",
        "OAFJBHJHLJG": ""
      },
      {
        "$type": "MoleMole.Config.ConfigTeleportToAction",
        "type": "TELEPORT_TO",
        "delayTime": 0.6000000238418579,
        "aliasList": [
          "1005"
        ],
        "actionId": 238,
        "position": {
          "x": -2489.492919921875,
          "y": 446.5870056152344,
          "z": -4413.30810546875
        },
        "forward": {
          "x": 0.3490000069141388,
          "z": -0.9369999766349792
        },
        "openLongDisTeleport": true,
        "_posBindMovingTargetKey": "",
        "_forwardBindMovingTargetKey": ""
      },
      {
        "$type": "LJLMDHDCAMK",
        "type": "LOOK_AT",
        "delayTime": 0.6000000238418579,
        "aliasList": [
          "1005"
        ],
        "actionId": 299,
        "_flag": 64,
        "headTurnTime": 0.5,
        "targetNpcAlias": "",
        "targetNpcLookAtPoint": "",
        "OAFJBHJHLJG": ""
      },
      {
        "$type": "MoleMole.Config.ConfigVisibleInterAction",
        "type": "VISIBLE",
        "delayTime": 0.6000000238418579,
        "aliasList": [
          "511"
        ],
        "_extraParam": ""
      }
    ],
    [
      {
        "$type": "EMEHNEMOMMM",
        "type": "LOOK_AT_EYECTRL",
        "aliasList": [
          "12552"
        ],
        "actionId": 608,
        "_flag": 4672,
        "_actionTagList": [
          "TalkSkip"
        ],
        "useTargetPos": false,
        "eyeRotateVecLeft": {
          "z": 3.0
        },
        "eyeRotateVecRight": {
          "z": 3.0
        },
        "turnTime": 0.5,
        "targetNpcAlias": "",
        "targetPoint": "Face"
      },
      {
        "$type": "LJLMDHDCAMK",
        "type": "LOOK_AT",
        "aliasList": [
          "511"
        ],
        "actionId": 603,
        "_flag": 64,
        "_actionTagList": [
          "TalkSkip"
        ],
        "headTurnTime": 0.5,
        "targetNpcAlias": "",
        "targetNpcLookAtPoint": "",
        "OAFJBHJHLJG": ""
      },
      {
        "$type": "PKKMAMONGEO",
        "type": "DIALOG",
        "aliasList": [
          "511"
        ],
        "actionId": 600,
        "_actionTagList": [
          "TalkSkip"
        ],
        "dialogID": 190570137,
        "protectTime": 0.5
      },
      {
        "$type": "LJLMDHDCAMK",
        "type": "LOOK_AT",
        "aliasList": [
          "3106"
        ],
        "actionId": 604,
        "_flag": 64,
        "_actionTagList": [
          "TalkSkip"
        ],
        "headTurnTime": 0.5,
        "targetNpcAlias": "",
        "targetNpcLookAtPoint": "",
        "OAFJBHJHLJG": ""
      },
      {
        "$type": "LJLMDHDCAMK",
        "type": "LOOK_AT",
        "aliasList": [
          "12552"
        ],
        "actionId": 605,
        "_flag": 64,
        "_actionTagList": [
          "TalkSkip"
        ],
        "headTurnTime": 0.5,
        "targetNpcAlias": "",
        "targetNpcLookAtPoint": "",
        "OAFJBHJHLJG": ""
      },
      {
        "$type": "EMEHNEMOMMM",
        "type": "LOOK_AT_EYECTRL",
        "aliasList": [
          "3106"
        ],
        "actionId": 607,
        "_flag": 4672,
        "_actionTagList": [
          "TalkSkip"
        ],
        "useTargetPos": false,
        "eyeRotateVecLeft": {
          "z": 3.0
        },
        "eyeRotateVecRight": {
          "z": 3.0
        },
        "turnTime": 0.30000001192092896,
        "targetNpcAlias": "",
        "targetPoint": "Face"
      },
      {
        "$type": "MoleMole.Config.ConfigTeleportToAction",
        "type": "TELEPORT_TO",
        "aliasList": [
          "511"
        ],
        "actionId": 589,
        "_actionTagList": [
          "TalkSkip"
        ],
        "position": {
          "x": -2487.3759765625,
          "y": 446.5870056152344,
          "z": -4416.2490234375
        },
        "forward": {
          "x": -0.05299999937415123,
          "z": 1.222000002861023
        },
        "openLongDisTeleport": true,
        "syncForward": true,
        "_posBindMovingTargetKey": "",
        "_forwardBindMovingTargetKey": ""
      },
      {
        "$type": "MoleMole.Config.ConfigVisibleInterAction",
        "type": "VISIBLE",
        "aliasList": [
          "511"
        ],
        "actionId": 609,
        "_actionTagList": [
          "TalkSkip"
        ],
        "_extraParam": ""
      },
      {
        "$type": "LJLMDHDCAMK",
        "type": "LOOK_AT",
        "aliasList": [
          "1005"
        ],
        "actionId": 602,
        "_flag": 64,
        "_actionTagList": [
          "TalkSkip"
        ],
        "headTurnTime": 0.5,
        "targetNpcAlias": "",
        "targetNpcLookAtPoint": "",
        "OAFJBHJHLJG": ""
      },
      {
        "$type": "MoleMole.Config.ConfigTeleportToAction",
        "type": "TELEPORT_TO",
        "aliasList": [
          "1005"
        ],
        "actionId": 588,
        "_actionTagList": [
          "TalkSkip"
        ],
        "position": {
          "x": -2489.492919921875,
          "y": 446.5870056152344,
          "z": -4413.30810546875
        },
        "forward": {
          "x": 0.3490000069141388,
          "z": -0.9369999766349792
        },
        "openLongDisTeleport": true,
        "syncForward": true,
        "_posBindMovingTargetKey": "",
        "_forwardBindMovingTargetKey": ""
      },
      {
        "$type": "MoleMole.Config.ConfigVisibleInterAction",
        "type": "VISIBLE",
        "aliasList": [
          "Avatar"
        ],
        "actionId": 610,
        "_actionTagList": [
          "TalkSkip"
        ],
        "isVisible": true,
        "_extraParam": ""
      },
      {
        "$type": "LJLMDHDCAMK",
        "type": "LOOK_AT",
        "aliasList": [
          "Avatar"
        ],
        "actionId": 606,
        "_flag": 64,
        "_actionTagList": [
          "TalkSkip"
        ],
        "headTurnTime": 0.5,
        "targetNpcAlias": "",
        "targetNpcLookAtPoint": "",
        "OAFJBHJHLJG": ""
      },
      {
        "$type": "MoleMole.Config.ConfigTeleportToAction",
        "type": "TELEPORT_TO",
        "aliasList": [
          "Avatar"
        ],
        "actionId": 592,
        "_actionTagList": [
          "TalkSkip"
        ],
        "position": {
          "x": -2488.635986328125,
          "y": 446.5870056152344,
          "z": -4413.498046875
        },
        "forward": {
          "x": -0.13300000131130219,
          "z": -0.9909999966621399
        },
        "openLongDisTeleport": true,
        "syncForward": true,
        "_posBindMovingTargetKey": "",
        "_forwardBindMovingTargetKey": ""
      },
      {
        "$type": "MoleMole.Config.ConfigBlackScreenAction",
        "type": "BLACK_SCREEN",
        "duration": 0.10000000149011612,
        "actionId": 601,
        "_flag": 2048,
        "_actionTagList": [
          "TalkSkip"
        ],
        "blackScreenType": "FROM_BLACK",
        "durationToBlack": 0.10000000149011612,
        "durationKeepBlack": 0.10000000149011612,
        "durationFromBlack": 0.10000000149011612,
        "inteePos": "",
        "textMapID": "",
        "showClickBtnDelayTime": 0.5,
        "waitClickBtnTipTime": 0.5
      },
      {
        "$type": "MoleMole.Config.ConfigTeleportToAction",
        "type": "TELEPORT_TO",
        "aliasList": [
          "12552"
        ],
        "actionId": 591,
        "_actionTagList": [
          "TalkSkip"
        ],
        "position": {
          "x": -2487.236083984375,
          "y": 446.5870056152344,
          "z": -4412.673828125
        },
        "forward": {
          "x": -0.6549999713897705,
          "z": -0.8980000019073486
        },
        "openLongDisTeleport": true,
        "syncForward": true,
        "_posBindMovingTargetKey": "",
        "_forwardBindMovingTargetKey": ""
      },
      {
        "$type": "MoleMole.Config.ConfigTeleportToAction",
        "type": "TELEPORT_TO",
        "aliasList": [
          "3106"
        ],
        "actionId": 590,
        "_actionTagList": [
          "TalkSkip"
        ],
        "position": {
          "x": -2489.903076171875,
          "y": 446.5870056152344,
          "z": -4415.73291015625
        },
        "forward": {
          "x": 0.7590000033378601,
          "z": 0.6510000228881836
        },
        "openLongDisTeleport": true,
        "syncForward": true,
        "_posBindMovingTargetKey": "",
        "_forwardBindMovingTargetKey": ""
      },
      {
        "$type": "CPJKOIHIPBE",
        "type": "EMO_SYNC",
        "delayTime": 0.5,
        "aliasList": [
          "12552"
        ],
        "actionId": 597,
        "_flag": 256,
        "_actionTagList": [
          "TalkSkip"
        ],
        "dataPath": "Cs_Emo_Avatar_Simple_Common_Set/Cs_Emo_Avatar_Talk/Cs_Emo_Coop_Common/Cs_Emo_Coop_Heizo_01/Cs_Emo_190570135",
        "phonemePath": "",
        "emotionPath": "",
        "mateDataPath": "",
        "matePhonemePath": "",
        "mateEmotionPath": "",
        "dataPathHashList": [
          10262528294029173740,
          11033076086633618165,
          11218171311544918942,
          8501871400223280448
        ],
        "FMDPBECPELH": "",
        "ADKBLPOKGIK": ""
      },
      {
        "$type": "FJKIHHKJLMJ",
        "type": "CAMERA_MOVE",
        "delayTime": 0.5,
        "duration": 0.10000000149011612,
        "actionId": 599,
        "_actionTagList": [
          "TalkSkip"
        ],
        "camPosOffset": {
          "x": -2488.18896484375,
          "y": 447.9150085449219,
          "z": -4411.27392578125
        },
        "camForwardTargetOffset": {
          "x": -2488.385986328125,
          "y": 447.7149963378906,
          "z": -4412.23388671875
        },
        "lerpPattern": 6,
        "cameraBlendType": "EaseInOutCubic",
        "NJBNNOMLKCK": {},
        "needZAxisRotate": true,
        "openCameraDither": false,
        "targetNpcAlias": "",
        "closeTreeLeafDither": true,
        "KJOEFBPOIIH": "",
        "IICFKKEBIEC": "",
        "EGEHEJEBLBJ": ""
      },
      {
        "$type": "CPJKOIHIPBE",
        "type": "EMO_SYNC",
        "delayTime": 0.5,
        "aliasList": [
          "511"
        ],
        "actionId": 594,
        "_flag": 256,
        "_actionTagList": [
          "TalkSkip"
        ],
        "dataPath": "Cs_Emo_Avatar_Simple_Common_Set/Cs_Emo_Avatar_Talk/Cs_Emo_Coop_Common/Cs_Emo_Coop_Avatar/Heizo/Cs_Emo_Avatar_Coop_Standby",
        "phonemePath": "",
        "emotionPath": "",
        "mateDataPath": "",
        "matePhonemePath": "",
        "mateEmotionPath": "",
        "dataPathHashList": [
          7345470818377105590,
          1605806107305990266,
          15289237361357052830,
          14907321439922855480
        ],
        "FMDPBECPELH": "",
        "ADKBLPOKGIK": ""
      },
      {
        "$type": "CPJKOIHIPBE",
        "type": "EMO_SYNC",
        "delayTime": 0.5,
        "aliasList": [
          "1005"
        ],
        "actionId": 593,
        "_flag": 256,
        "_actionTagList": [
          "TalkSkip"
        ],
        "dataPath": "Cs_Emo_Avatar_Simple_Common_Set/Cs_Emo_Avatar_Talk/Cs_Emo_Coop_Common/Cs_Emo_Coop_Heizo_01/Cs_Emo_190570119",
        "phonemePath": "",
        "emotionPath": "",
        "mateDataPath": "",
        "matePhonemePath": "",
        "mateEmotionPath": "",
        "dataPathHashList": [
          16005480306961201869,
          8601443366299019475,
          16384747314282298514,
          7343365678445114014
        ],
        "FMDPBECPELH": "",
        "ADKBLPOKGIK": ""
      },
      {
        "$type": "CPJKOIHIPBE",
        "type": "EMO_SYNC",
        "delayTime": 0.5,
        "aliasList": [
          "3106"
        ],
        "actionId": 596,
        "_flag": 256,
        "_actionTagList": [
          "TalkSkip"
        ],
        "dataPath": "Cs_Emo_Avatar_Simple_Common_Set/Cs_Emo_Avatar_Talk/Cs_Emo_Coop_Common/Cs_Emo_Coop_Heizo_01/Cs_Emo_190570107",
        "phonemePath": "",
        "emotionPath": "",
        "mateDataPath": "",
        "matePhonemePath": "",
        "mateEmotionPath": "",
        "dataPathHashList": [
          2812572149513099658,
          2659694927705628083,
          5481787051231935254,
          14749042367776425513
        ],
        "FMDPBECPELH": "",
        "ADKBLPOKGIK": ""
      },
      {
        "$type": "CPJKOIHIPBE",
        "type": "EMO_SYNC",
        "delayTime": 1.0,
        "aliasList": [
          "511"
        ],
        "actionId": 595,
        "_flag": 256,
        "_actionTagList": [
          "TalkSkip"
        ],
        "dataPath": "Cs_Emo_Avatar_Simple_Common_Set/Cs_Emo_Avatar_Talk/Cs_Emo_Coop_Common/Cs_Emo_Coop_Heizo_01/Cs_Emo_190570137",
        "phonemePath": "",
        "emotionPath": "",
        "mateDataPath": "",
        "matePhonemePath": "",
        "mateEmotionPath": "",
        "dataPathHashList": [
          3441655518402337137,
          13033009788940505353,
          320918236457038216,
          3757690268743759213
        ],
        "FMDPBECPELH": "",
        "ADKBLPOKGIK": ""
      },
      {
        "$type": "FABLGECDBCH",
        "type": "BODY_LANG",
        "delayTime": 1.5,
        "aliasList": [
          "511"
        ],
        "actionId": 598,
        "_actionTagList": [
          "TalkSkip"
        ],
        "bodyLangParam": 10100,
        "forceDoFreeStyle": true,
        "canDoRepeatFreeStyle": false,
        "cantBackToIdleWhenSitLoop": true,
        "eventPatternSuiteKey": "",
        "FOHHKFAIAAJ": ""
      },
      {
        "$type": "MoleMole.Config.ConfigSimpleBlackScreenAction",
        "type": "SIMPLE_BLACK_SCREEN",
        "delayTime": 1.5,
        "actionId": 611,
        "_actionTagList": [
          "TalkSkip"
        ],
        "durationToBlack": 0.5,
        "durationKeepBlack": 1.0,
        "durationFromBlack": 0.5,
        "textMapID": ""
      }
    ]
  ],
  "groupId": [
    {
      "grpId": 228006224,
      "nextGrpId": 228006225,
      "_noCircleNextGrpId": 228006225
    },
    {
      "index": 1,
      "grpId": 228006225,
      "nextGrpId": 228006226,
      "_noCircleNextGrpId": 228006226
    },
    {
      "index": 2,
      "grpId": 228006226,
      "nextGrpId": 228006227,
      "_noCircleNextGrpId": 228006227
    },
    {
      "index": 3,
      "grpId": 228006227,
      "nextGrpId": 228006228,
      "_noCircleNextGrpId": 228006228
    },
    {
      "index": 4,
      "grpId": 228006228,
      "nextGrpId": 228006229,
      "_noCircleNextGrpId": 228006229
    },
    {
      "index": 5,
      "grpId": 228006229,
      "nextGrpId": 228006230,
      "_noCircleNextGrpId": 228006230
    },
    {
      "index": 6,
      "grpId": 228006230,
      "nextGrpId": 228006231,
      "_noCircleNextGrpId": 228006231
    },
    {
      "index": 7,
      "grpId": 228006231,
      "nextGrpId": 228006232,
      "_noCircleNextGrpId": 228006232
    },
    {
      "index": 8,
      "grpId": 228006232,
      "nextGrpId": 2773225696,
      "_noCircleNextGrpId": 2773225696
    },
    {
      "index": 9,
      "grpId": 2773225696,
      "nextGrpId": 2773225697,
      "_noCircleNextGrpId": 2773225697
    },
    {
      "index": 10,
      "grpId": 2773225697,
      "nextGrpId": 2773225698,
      "_noCircleNextGrpId": 2773225698
    },
    {
      "index": 11,
      "grpId": 2773225698,
      "nextGrpId": 2773225699,
      "_noCircleNextGrpId": 2773225699
    },
    {
      "index": 12,
      "grpId": 2773225699,
      "nextGrpId": 2773225700,
      "_noCircleNextGrpId": 2773225700
    },
    {
      "index": 13,
      "grpId": 2773225700,
      "nextGrpId": 2773225701,
      "_noCircleNextGrpId": 2773225701
    },
    {
      "index": 14,
      "grpId": 2773225701,
      "nextGrpId": 2773225702,
      "_noCircleNextGrpId": 2773225702
    },
    {
      "index": 15,
      "grpId": 2773225702,
      "nextGrpId": 2773225703,
      "_noCircleNextGrpId": 2773225703
    },
    {
      "index": 16,
      "grpId": 2773225703,
      "nextGrpId": 2773225704,
      "_noCircleNextGrpId": 2773225704
    },
    {
      "index": 17,
      "grpId": 2773225704,
      "nextGrpId": 2773225705,
      "_noCircleNextGrpId": 2773225705
    },
    {
      "index": 18,
      "grpId": 2773225705,
      "nextGrpId": 2773225727,
      "_noCircleNextGrpId": 2773225727
    },
    {
      "index": 19,
      "grpId": 2773225727,
      "nextGrpId": 2773225728,
      "_noCircleNextGrpId": 2773225728
    },
    {
      "index": 20,
      "grpId": 2773225728,
      "nextGrpId": 2773225729,
      "_noCircleNextGrpId": 2773225729
    },
    {
      "index": 21,
      "grpId": 2773225729,
      "nextGrpId": 2773225730,
      "_noCircleNextGrpId": 2773225730
    },
    {
      "index": 22,
      "grpId": 2773225730,
      "nextGrpId": 2773225731,
      "_noCircleNextGrpId": 2773225731
    },
    {
      "index": 23,
      "grpId": 2773225731,
      "nextGrpId": 2773225732,
      "_noCircleNextGrpId": 2773225732
    },
    {
      "index": 24,
      "grpId": 2773225732,
      "nextGrpId": 2773225733,
      "_noCircleNextGrpId": 2773225733
    },
    {
      "index": 25,
      "grpId": 2773225733,
      "nextGrpId": 2773225734,
      "_noCircleNextGrpId": 2773225734
    },
    {
      "index": 26,
      "grpId": 2773225734,
      "nextGrpId": 2773225735,
      "_noCircleNextGrpId": 2773225735
    },
    {
      "index": 27,
      "grpId": 2773225735,
      "nextGrpId": 2773225736,
      "_noCircleNextGrpId": 2773225736
    },
    {
      "index": 28,
      "grpId": 2773225736,
      "nextGrpId": 2773225758,
      "_noCircleNextGrpId": 2773225758
    },
    {
      "index": 29,
      "grpId": 2773225758,
      "nextGrpId": 2773225759,
      "_noCircleNextGrpId": 2773225759
    },
    {
      "index": 30,
      "grpId": 2773225759,
      "nextGrpId": 2773225760,
      "_noCircleNextGrpId": 2773225760
    },
    {
      "index": 31,
      "grpId": 2773225760,
      "nextGrpId": 2773225761,
      "_noCircleNextGrpId": 2773225761
    },
    {
      "index": 32,
      "grpId": 2773225761,
      "nextGrpId": 2773225762,
      "_noCircleNextGrpId": 2773225762
    },
    {
      "index": 33,
      "grpId": 2773225762,
      "nextGrpId": 2773225763,
      "_noCircleNextGrpId": 2773225763
    },
    {
      "index": 34,
      "grpId": 2773225763,
      "nextGrpId": 2773225764,
      "_noCircleNextGrpId": 2773225764
    },
    {
      "index": 35,
      "grpId": 2773225764,
      "nextGrpId": 2773225765,
      "_noCircleNextGrpId": 2773225765
    }
  ],
  "freeStyleDic": {
    "511": [
      10100,
      10801,
      10101,
      10601,
      10501
    ],
    "3106": [],
    "12552": [
      1090,
      1110,
      1171,
      1050,
      1160,
      1173,
      1230,
      1231,
      1070,
      4030
    ]
  },
  "EKFBDAIDEEF": {
    "511": [
      "SitChat01AS",
      "SitHoldArm01AS",
      "SitShrug01AS",
      "SitThink01AS"
    ]
  },
  "GBPIKOLLKJH": {
    "KGFBJNAEBHO": "",
    "ADMLEHAKCPC": ""
  },
  "NPFDEBDMHJP": 2773225764,
  "KEAMPHGKKAG": {
    "ANJBPLIOPCP": ""
  }
}