[
  {
    "Default": {
      "$type": "CBPBEHLOHKI",
      "abilityName": "Avatar_Player_StaminaReduced_AbilityGroup",
      "modifiers": {
        "UNIQUE_Avatar_StaminaReduced_AbilityGroup": {
          "modifierName": "",
          "forceTriggerWhenChangeAuthority": true,
          "IPFJJJGABPL": 100.0,
          "modifierMixins": [
            {
              "$type": "EKMHJKDLBJH",
              "stateIDs": [
                "Fly"
              ],
              "modifierName": "Avatar_Flying_StaminaReduced",
              "DGFCLAIDIFI": ""
            },
            {
              "$type": "EJDKAKLFCPA",
              "stateIDs": [
                "Run"
              ],
              "modifierName": "Avatar_Flying_StaminaReduced",
              "DGFCLAIDIFI": ""
            }
          ]
        },
        "Avatar_Flying_StaminaReduced": {
          "modifierName": "",
          "IPFJJJGABPL": 100.0,
          "properties": {
            "Actor_CostStaminaRatio": -0.8999999761581421,
            "Actor_EndureDelta": 0.0
          },
          "onAdded": [
            {
              "$type": "OPAOGKPJLIG",
              "resistanceListID": 11002
            },
            {
              "$type": "IOLHMHNBICF",
              "overrideAvatarHitBucketSetting": {
                "rangedBucketCount": 4
              }
            }
          ]
        }
      },
      "onAdded": [
        {
          "$type": "JLDEMMJAMLC",
          "modifierName": "UNIQUE_Avatar_StaminaReduced_AbilityGroup"
        }
      ]
    }
  },
  {
    "Default": {
      "$type": "CBPBEHLOHKI",
      "abilityName": "Remove_Avatar_Player_StaminaReduced_AbilityGroup",
      "onAdded": [
        {
          "$type": "KBODPNEEFGD",
          "modifierName": "UNIQUE_Avatar_StaminaReduced_AbilityGroup"
        }
      ]
    }
  },
  {
    "Default": {
      "$type": "CBPBEHLOHKI",
      "abilityName": "Avatar_Player_QuestFireDrug_AbilityGroup",
      "modifiers": {
        "UNIQUE_AlbedoQuest_Fire_DrugWater": {
          "modifierName": "",
          "forceTriggerWhenChangeAuthority": true,
          "elementDurability": 8.0,
          "elementType": "Fire",
          "IPFJJJGABPL": 100.0,
          "thinkInterval": 1.0,
          "onAdded": [
            {
              "$type": "CCNPNMMONDO",
              "attackInfo": {
                "attackTag": "",
                "attenuationTag": "",
                "attenuationGroup": "default",
                "attackProperty": {
                  "actorWindSubHurtDelta": 0.0,
                  "elementType": "Fire",
                  "IPFJJJGABPL": 100.0,
                  "strikeType": "Default",
                  "enBreak": 0.0,
                  "HMBONGBFIAP": 10.0,
                  "GLKMCMDJBIK": 0.0
                },
                "hitPattern": {
                  "onHitEffectName": "",
                  "hitImpulseY": "",
                  "hitImpulseType": "LV0"
                }
              }
            }
          ],
          "onThinkInterval": [
            {
              "$type": "CCNPNMMONDO",
              "attackInfo": {
                "attackTag": "",
                "attenuationTag": "",
                "attenuationGroup": "default",
                "attackProperty": {
                  "actorWindSubHurtDelta": 0.0,
                  "elementType": "Fire",
                  "IPFJJJGABPL": 100.0,
                  "strikeType": "Default",
                  "enBreak": 0.0,
                  "HMBONGBFIAP": 10.0,
                  "GLKMCMDJBIK": 0.0
                },
                "hitPattern": {
                  "onHitEffectName": "",
                  "hitImpulseY": "",
                  "hitImpulseType": "LV0"
                }
              }
            }
          ]
        }
      },
      "onAdded": [
        {
          "$type": "JLDEMMJAMLC",
          "modifierName": "UNIQUE_AlbedoQuest_Fire_DrugWater"
        }
      ]
    }
  },
  {
    "Default": {
      "$type": "CBPBEHLOHKI",
      "abilityName": "Avatar_QuestAbility_XiaoTriggerElementalBurst",
      "modifiers": {
        "AutoTriggerAbility": {
          "stacking": "Multiple",
          "modifierName": "",
          "elementDurability": 1.0,
          "IPFJJJGABPL": 100.0,
          "onAdded": [
            {
              "$type": "BLCCGIPAOIP",
              "PLLJBINMGJK": "DoSkill"
            },
            {
              "$type": "AKEEDILMOJF",
              "intID": "SkillID",
              "param3": 5.0
            }
          ]
        },
        "UNIQUE_QuestBuff_DeductElemEnergy": {
          "stacking": "Unique",
          "modifierName": "",
          "forceTriggerWhenChangeAuthority": true,
          "IPFJJJGABPL": 100.0,
          "thinkInterval": 5.0,
          "modifierMixins": [
            {
              "$type": "BOHJKBIPDJG",
              "elementTypes": [
                "Water",
                "Rock",
                "Fire",
                "Electric",
                "Grass",
                "Wind",
                "Ice"
              ],
              "doWhenEnergyMax": true,
              "onGainEnergyByBall": [
                {
                  "$type": "FHGPOFDJDCO",
                  "CKDBFHCIJEK": 0.10000000149011612,
                  "cdRatio": ""
                }
              ]
            },
            {
              "$type": "PANEMHLJMHM",
              "period": 0.5,
              "baseEnergy": -30.0,
              "hpRatio": 1.0
            },
            {
              "$type": "EJNMIOFDIGF",
              "onStageReady": [
                {
                  "$type": "PELJALPANCA",
                  "target": "CurLocalAvatar",
                  "predicates": [
                    {
                      "$type": "BGMAGODJEMF",
                      "featureTagIDs": [
                        10026
                      ]
                    }
                  ],
                  "modifierName": "AutoTriggerAbility"
                }
              ]
            }
          ],
          "onAdded": [
            {
              "$type": "BOBCOJHOKKD",
              "param3": 1.0,
              "key": "QuestBuff_XiaoTriggerElementalBurst",
              "useLimitRange": true,
              "param2": 1.0,
              "repeatTimes": 0.0
            }
          ],
          "onRemoved": [
            {
              "$type": "HMKGPFBBDIC",
              "key": "QuestBuff_XiaoTriggerElementalBurst"
            }
          ],
          "onThinkInterval": [
            {
              "$type": "ODHJJKENLPE",
              "param3": 100.0,
              "modifierName": "UNIQUE_HowlingSoul_Main_Handler",
              "param2": 3.4028234663852886e+38
            }
          ]
        }
      },
      "onAbilityStart": [
        {
          "$type": "PELJALPANCA",
          "target": "CurLocalAvatar",
          "predicates": [
            {
              "$type": "BGMAGODJEMF",
              "featureTagIDs": [
                10026
              ]
            }
          ],
          "modifierName": "AutoTriggerAbility"
        },
        {
          "$type": "PELJALPANCA",
          "target": "CurLocalAvatar",
          "shieldHP": true,
          "predicates": [
            {
              "$type": "BGMAGODJEMF",
              "featureTagIDs": [
                10026
              ]
            }
          ],
          "modifierName": "UNIQUE_QuestBuff_DeductElemEnergy"
        }
      ],
      "isDynamicAbility": true
    }
  },
  {
    "Default": {
      "$type": "CBPBEHLOHKI",
      "abilityName": "Avatar_QuestAbility_ClearFollowPet",
      "abilityMixins": [
        {
          "$type": "CFBEHIHGLMG",
          "modifierName": "ClearFollowPet",
          "attachPriority": "QuestBlank"
        }
      ],
      "modifiers": {
        "ClearFollowPet": {
          "modifierName": "",
          "IPFJJJGABPL": 100.0
        }
      }
    }
  },
  {
    "Default": {
      "$type": "CBPBEHLOHKI",
      "abilityName": "Avatar_QuestAbility_ClearFollowPet02",
      "abilityMixins": [
        {
          "$type": "CFBEHIHGLMG",
          "modifierName": "ClearFollowPet02",
          "attachPriority": "QuestBlank"
        }
      ],
      "modifiers": {
        "ClearFollowPet02": {
          "modifierName": "",
          "IPFJJJGABPL": 100.0
        }
      }
    }
  },
  {
    "Default": {
      "$type": "CBPBEHLOHKI",
      "abilityName": "Avatar_QuestAbility_RandomDeadTime",
      "abilitySpecials": {
        "DeadTime_RandomInterval": 25.0
      },
      "modifiers": {
        "UNIQUE_QuestAbility_RandomDeadTime_Interval": {
          "modifierName": "",
          "forceTriggerWhenChangeAuthority": true,
          "elementDurability": "DeadTime_RandomInterval",
          "IPFJJJGABPL": 100.0,
          "onRemoved": [
            {
              "$type": "GJCAPCBELPA",
              "abilityName": "Avatar_QuestAbility_DeadTime"
            },
            {
              "$type": "GJCAPCBELPA",
              "abilityName": "Avatar_QuestAbility_RandomDeadTime"
            }
          ]
        }
      },
      "onAdded": [
        {
          "$type": "FLJLMOKONMB",
          "shieldHP": true,
          "valueRangeMax": 30.0,
          "valueRangeMin": 20.0,
          "overrideMapKey": "DeadTime_RandomInterval"
        },
        {
          "$type": "JLDEMMJAMLC",
          "shieldHP": true,
          "modifierName": "UNIQUE_QuestAbility_RandomDeadTime_Interval"
        }
      ],
      "onAbilityStart": [
        {
          "$type": "FLJLMOKONMB",
          "shieldHP": true,
          "valueRangeMax": 30.0,
          "valueRangeMin": 20.0,
          "overrideMapKey": "DeadTime_RandomInterval"
        },
        {
          "$type": "JLDEMMJAMLC",
          "shieldHP": true,
          "modifierName": "UNIQUE_QuestAbility_RandomDeadTime_Interval"
        }
      ],
      "isDynamicAbility": true
    }
  },
  {
    "Default": {
      "$type": "CBPBEHLOHKI",
      "abilityName": "Avatar_QuestAbility_DeadTime",
      "abilityMixins": [
        {
          "$type": "CLJDJFBAPFM",
          "onAbilityStateAdded": [
            {
              "abilityState": "ElementDeadTime",
              "actions": [
                {
                  "$type": "ELNHKGAPIBJ",
                  "shieldHP": true,
                  "content": "!!!!!!!!!!!SetAvatarCanShakeOn!!!!!!!!!!"
                },
                {
                  "$type": "LPBJEAHELAH",
                  "enable": true
                }
              ]
            }
          ],
          "onAbilityStateRemoved": [
            {
              "abilityState": "ElementDeadTime",
              "actions": [
                {
                  "$type": "ELNHKGAPIBJ",
                  "shieldHP": true,
                  "content": "!!!!!!!!!!!SetAvatarCanShakeOff!!!!!!!!!!"
                },
                {
                  "$type": "LPBJEAHELAH",
                  "shieldHP": true
                }
              ]
            }
          ],
          "costEnergyDeltaName": ""
        }
      ],
      "abilitySpecials": {
        "DeadTime": 5.0
      },
      "modifiers": {
        "UNIQUE_QuestAbility_DeadTime": {
          "modifierName": "",
          "forceTriggerWhenChangeAuthority": true,
          "elementDurability": "DeadTime",
          "IPFJJJGABPL": 350.0,
          "state": "ElementDeadTime",
          "onAdded": [
            {
              "$type": "MOEGJKJDPMB",
              "targetAlias": "12041",
              "valueString": "ShougunQuest_Timestop"
            }
          ],
          "onRemoved": [
            {
              "$type": "ELNHKGAPIBJ",
              "shieldHP": true,
              "content": "!!!!!!!!!!!SetAvatarCanShakeOff!!!!!!!!!!"
            },
            {
              "$type": "LPBJEAHELAH",
              "shieldHP": true
            }
          ]
        }
      },
      "onRemoved": [
        {
          "$type": "ELNHKGAPIBJ",
          "shieldHP": true,
          "content": "!!!!!!!!!!!SetAvatarCanShakeOff!!!!!!!!!!"
        },
        {
          "$type": "LPBJEAHELAH",
          "shieldHP": true
        }
      ],
      "onAbilityStart": [
        {
          "$type": "JLDEMMJAMLC",
          "modifierName": "UNIQUE_QuestAbility_DeadTime"
        }
      ],
      "isDynamicAbility": true
    }
  },
  {
    "Default": {
      "$type": "CBPBEHLOHKI",
      "abilityName": "Avatar_QuestAbility_ReviveEnergy",
      "onAdded": [
        {
          "$type": "AHCALEMEJPJ",
          "shieldHP": true,
          "param3": 100.0
        }
      ],
      "isDynamicAbility": true
    }
  },
  {
    "Default": {
      "$type": "CBPBEHLOHKI",
      "abilityName": "Avatar_QuestAbility_NilouFullMP",
      "modifiers": {
        "UNIQUE_Avatar_QuestAbility_NilouFullMP": {
          "modifierName": "",
          "forceTriggerWhenChangeAuthority": true,
          "elementDurability": 1.5,
          "IPFJJJGABPL": 100.0,
          "thinkInterval": 1.0,
          "onThinkInterval": [
            {
              "$type": "AHCALEMEJPJ",
              "shieldHP": true,
              "param3": 100.0
            }
          ]
        }
      },
      "onAdded": [
        {
          "$type": "JLDEMMJAMLC",
          "shieldHP": true,
          "predicates": [
            {
              "$type": "BGMAGODJEMF",
              "featureTagIDs": [
                10070
              ]
            }
          ],
          "modifierName": "UNIQUE_Avatar_QuestAbility_NilouFullMP"
        },
        {
          "$type": "ELNHKGAPIBJ",
          "shieldHP": true,
          "predicates": [
            {
              "$type": "BGMAGODJEMF",
              "featureTagIDs": [
                10070
              ]
            }
          ],
          "content": "!!!!!!!!!Avatar_QuestAbility_NilouFullMP!!!!!!!!!!!"
        }
      ],
      "isDynamicAbility": true
    }
  },
  {
    "Default": {
      "$type": "CBPBEHLOHKI",
      "abilityName": "QuestAbility_WisdomBattle",
      "abilityMixins": [
        {
          "$type": "JPPFBGJICKI",
          "key": "SGV_QUESTABILITY_WISDOMBATTLE",
          "useLimitRange": true,
          "param2": 3.0,
          "repeatTimes": 1.0
        },
        {
          "$type": "PHLKCMFKFIN",
          "globalValueKey": "SGV_QUESTABILITY_WISDOMBATTLE",
          "valueSteps": [
            0.5,
            1.5,
            2.5,
            3.5
          ],
          "modifierNameSteps": [
            "Avatar_QuestAbility_WisdomBattle_Lv1_OnTeam",
            "Avatar_QuestAbility_WisdomBattle_Lv2_OnTeam",
            "Avatar_QuestAbility_WisdomBattle_Lv3_OnTeam"
          ]
        }
      ],
      "abilitySpecials": {
        "System_Damage": 0.0,
        "CJB_Ratio": 0.0,
        "CJB_Interval": 0.0,
        "Resistance_Ratio": 0.0,
        "Heal_Interval": 0.0,
        "Heal_MaxHpRatio": 0.0,
        "Atk_Ratio": 0.0,
        "Crit_Ratio": 0.0
      },
      "modifiers": {
        "Avatar_QuestAbility_WisdomBattle_Lv1_OnTeam": {
          "modifierName": "",
          "IPFJJJGABPL": 100.0,
          "thinkInterval": 2.0,
          "onAdded": [
            {
              "$type": "JLDEMMJAMLC",
              "target": "CurTeamAvatars",
              "modifierName": "Avatar_QuestAbility_WisdomBattle_Lv1_OnAvatar"
            }
          ],
          "onThinkInterval": [
            {
              "$type": "JLDEMMJAMLC",
              "target": "CurTeamAvatars",
              "modifierName": "Avatar_QuestAbility_WisdomBattle_Lv1_OnAvatar"
            }
          ]
        },
        "Avatar_QuestAbility_WisdomBattle_Lv2_OnTeam": {
          "modifierName": "",
          "IPFJJJGABPL": 100.0,
          "thinkInterval": 2.0,
          "onAdded": [
            {
              "$type": "JLDEMMJAMLC",
              "target": "CurTeamAvatars",
              "modifierName": "Avatar_QuestAbility_WisdomBattle_Lv1_OnAvatar"
            },
            {
              "$type": "JLDEMMJAMLC",
              "target": "CurTeamAvatars",
              "modifierName": "Avatar_QuestAbility_WisdomBattle_Lv2_OnAvatar"
            }
          ],
          "onThinkInterval": [
            {
              "$type": "JLDEMMJAMLC",
              "target": "CurTeamAvatars",
              "modifierName": "Avatar_QuestAbility_WisdomBattle_Lv1_OnAvatar"
            },
            {
              "$type": "JLDEMMJAMLC",
              "target": "CurTeamAvatars",
              "modifierName": "Avatar_QuestAbility_WisdomBattle_Lv2_OnAvatar"
            }
          ]
        },
        "Avatar_QuestAbility_WisdomBattle_Lv3_OnTeam": {
          "modifierName": "",
          "IPFJJJGABPL": 100.0,
          "thinkInterval": 2.0,
          "onAdded": [
            {
              "$type": "JLDEMMJAMLC",
              "target": "CurTeamAvatars",
              "modifierName": "Avatar_QuestAbility_WisdomBattle_Lv1_OnAvatar"
            },
            {
              "$type": "JLDEMMJAMLC",
              "target": "CurTeamAvatars",
              "modifierName": "Avatar_QuestAbility_WisdomBattle_Lv2_OnAvatar"
            },
            {
              "$type": "JLDEMMJAMLC",
              "target": "CurTeamAvatars",
              "modifierName": "Avatar_QuestAbility_WisdomBattle_Lv3_OnAvatar"
            }
          ],
          "onThinkInterval": [
            {
              "$type": "JLDEMMJAMLC",
              "target": "CurTeamAvatars",
              "modifierName": "Avatar_QuestAbility_WisdomBattle_Lv1_OnAvatar"
            },
            {
              "$type": "JLDEMMJAMLC",
              "target": "CurTeamAvatars",
              "modifierName": "Avatar_QuestAbility_WisdomBattle_Lv2_OnAvatar"
            },
            {
              "$type": "JLDEMMJAMLC",
              "target": "CurTeamAvatars",
              "modifierName": "Avatar_QuestAbility_WisdomBattle_Lv3_OnAvatar"
            }
          ]
        },
        "Avatar_QuestAbility_WisdomBattle_Lv1_OnAvatar": {
          "modifierName": "",
          "IPFJJJGABPL": 100.0,
          "onAttackLanded": [
            {
              "$type": "INBCDALOHMP",
              "target": "Other",
              "shieldHP": true,
              "targetPredicates": [
                {
                  "$type": "NIMAPECDNKD",
                  "entityTypes": [
                    "Monster"
                  ]
                },
                {
                  "$type": "CNGGLKHONAA",
                  "key": "_ANIMAL_ENTITY_TYPE",
                  "param3": 0.0,
                  "compareType": "NoneOrEqual"
                }
              ],
              "successActions": [
                {
                  "$type": "JLDEMMJAMLC",
                  "target": "Team",
                  "shieldHP": true,
                  "modifierName": "UNIQUE_WisdomBattle_TriggerCJB_OnTeam"
                }
              ]
            }
          ]
        },
        "UNIQUE_WisdomBattle_TriggerCJB_OnTeam": {
          "stacking": "Unique",
          "modifierName": "",
          "forceTriggerWhenChangeAuthority": true,
          "elementDurability": "CJB_Interval",
          "IPFJJJGABPL": 100.0,
          "onAdded": [
            {
              "$type": "KBFEIHEAMBM",
              "rotationDampTime": "Eff_EnergyDisk_ElementalBurst_Wave_R40",
              "PPPDJGDDOGD": 1.0,
              "AJDILHJFNKE": -1.0
            },
            {
              "$type": "AIFPLABJNMA",
              "target": "CurLocalAvatar",
              "attackEvent": {
                "attackPattern": {
                  "$type": "BELNOFAKNBA",
                  "triggerType": "TriggerNoRepeat",
                  "born": {
                    "$type": "IAENDIPDFKD",
                    "useRotation": true
                  },
                  "OAHPDLJIADP": 5.0
                },
                "attackInfo": {
                  "attackTag": "",
                  "attenuationTag": "",
                  "attenuationGroup": "default",
                  "attackProperty": {
                    "actorWindSubHurtDelta": 0.0,
                    "IPFJJJGABPL": 0.0,
                    "ignoreAttackerProperty": true,
                    "enBreak": 0.0,
                    "HMBONGBFIAP": [
                      "System_Damage",
                      "CJB_Ratio",
                      "MUL"
                    ],
                    "trueDamage": true,
                    "ignoreModifyDamage": true,
                    "GLKMCMDJBIK": 0.0
                  },
                  "hitPattern": {
                    "onHitEffectName": "",
                    "hitImpulseY": "",
                    "hitImpulseType": "LV1"
                  }
                }
              },
              "targetType": "Enemy"
            }
          ]
        },
        "Avatar_QuestAbility_WisdomBattle_Lv2_OnAvatar": {
          "modifierName": "",
          "IPFJJJGABPL": 100.0,
          "thinkInterval": "Heal_Interval",
          "properties": {
            "Actor_FireSubHurtDelta": "Resistance_Ratio",
            "Actor_ElecSubHurtDelta": "Resistance_Ratio",
            "Actor_WaterSubHurtDelta": "Resistance_Ratio",
            "Actor_GrassSubHurtDelta": "Resistance_Ratio",
            "Actor_WindSubHurtDelta": "Resistance_Ratio",
            "Actor_IceSubHurtDelta": "Resistance_Ratio",
            "Actor_RockSubHurtDelta": "Resistance_Ratio",
            "Actor_PhysicalSubHurtDelta": "Resistance_Ratio"
          },
          "onThinkInterval": [
            {
              "$type": "FHGPOFDJDCO",
              "shieldHP": true,
              "CKDBFHCIJEK": "Heal_MaxHpRatio",
              "cdRatio": ""
            }
          ],
          "isLimitedProperties": true
        },
        "Avatar_QuestAbility_WisdomBattle_Lv3_OnAvatar": {
          "modifierName": "",
          "IPFJJJGABPL": 100.0,
          "properties": {
            "Actor_AttackRatio": "Atk_Ratio",
            "Actor_CriticalDelta": "Crit_Ratio"
          },
          "isLimitedProperties": true
        }
      },
      "onAdded": [
        {
          "$type": "GDHGMAPPGHD",
          "key": "System_Damage",
          "damageRatio": "ElementLevelCo"
        }
      ],
      "isDynamicAbility": true
    }
  },
  {
    "Default": {
      "$type": "CBPBEHLOHKI",
      "abilityName": "Avatar_QuestAbility_Discover",
      "modifiers": {
        "QuestAbility_Discover_SwitchSkillButton": {
          "modifierName": "",
          "IPFJJJGABPL": 100.0,
          "thinkInterval": 2.0,
          "onAdded": [
            {
              "$type": "PDFENCBHHAI",
              "shieldHP": true,
              "skillID": 20070
            },
            {
              "$type": "JLDEMMJAMLC",
              "modifierName": "QuestAbility_Discover_SkillButton"
            }
          ],
          "onThinkInterval": [
            {
              "$type": "EACEDAKOMMM",
              "predicates": [
                {
                  "$type": "IHLMAOEHHOB",
                  "skillID": 20070
                }
              ],
              "rotationDampTime": "Eff_UI_BtnSprint_Ripples",
              "effectPattern": ""
            }
          ]
        },
        "QuestAbility_Discover_SkillButton": {
          "modifierName": "",
          "IPFJJJGABPL": 100.0,
          "modifierMixins": [
            {
              "$type": "BBDLKGEJDOJ",
              "priority": "Playmode",
              "skillIndex": 1,
              "skillID": 20070
            },
            {
              "$type": "KAIOONFFNHC",
              "slotType": "Slot5"
            }
          ]
        },
        "QuestAbility_Discover_Effect": {
          "modifierName": "",
          "elementDurability": 8.0,
          "IPFJJJGABPL": 100.0,
          "modifierMixins": [
            {
              "$type": "GNMKIKCAJMA",
              "rotationDampTime": "Eff_QuestDiscover_Tag_NPC_Once",
              "shapeName": "CircleR15"
            }
          ]
        }
      },
      "onAdded": [
        {
          "$type": "JLDEMMJAMLC",
          "modifierName": "QuestAbility_Discover_SwitchSkillButton"
        }
      ],
      "onAbilityStart": [
        {
          "$type": "KBFEIHEAMBM",
          "rotationDampTime": "Eff_QuestDiscover_TriggerSkill",
          "PPPDJGDDOGD": 1.0,
          "AJDILHJFNKE": -1.0
        },
        {
          "$type": "PFKNEFGOHIH",
          "shieldHP": true,
          "modifierName": "QuestAbility_Discover_Effect"
        },
        {
          "$type": "PELJALPANCA",
          "modifierName": "QuestAbility_Discover_Effect"
        },
        {
          "$type": "OCLNBBMMIOK",
          "skillID": 20070,
          "amountByTargetCurrentHPRatio": 1.0,
          "costStaminaRatio": 1.0
        }
      ],
      "isDynamicAbility": true
    }
  },
  {
    "Default": {
      "$type": "CBPBEHLOHKI",
      "abilityName": "Avatar_QuestAbility_TwinsQuest_CheckIsInRegion",
      "modifiers": {
        "TwinsQuest_CheckIsInRegion": {
          "modifierName": "",
          "IPFJJJGABPL": 100.0,
          "thinkInterval": 2.0,
          "onThinkInterval": [
            {
              "$type": "AHPEKICBIIL",
              "shieldHP": false,
              "luaCallType": "SpecificGroup",
              "callParamList": [
                166001079
              ],
              "funcName": "SLC_Quest_RegionLimit_Check",
              "param1": 0.0,
              "MGAMDEHMCOL": 0.0,
              "MMHOHAOGPLP": 0.0
            }
          ]
        }
      },
      "onAdded": [
        {
          "$type": "JLDEMMJAMLC",
          "modifierName": "TwinsQuest_CheckIsInRegion"
        }
      ],
      "isDynamicAbility": true
    }
  },
  {
    "Default": {
      "$type": "CBPBEHLOHKI",
      "abilityName": "Avatar_QuestAbility_DiscoverBig",
      "modifiers": {
        "QuestAbility_Discover_SwitchSkillButton": {
          "modifierName": "",
          "IPFJJJGABPL": 100.0,
          "thinkInterval": 2.0,
          "onAdded": [
            {
              "$type": "PDFENCBHHAI",
              "shieldHP": true,
              "skillID": 20080
            },
            {
              "$type": "JLDEMMJAMLC",
              "modifierName": "QuestAbility_Discover_SkillButton"
            }
          ],
          "onThinkInterval": [
            {
              "$type": "EACEDAKOMMM",
              "predicates": [
                {
                  "$type": "IHLMAOEHHOB",
                  "skillID": 20080
                }
              ],
              "rotationDampTime": "Eff_UI_BtnSprint_Ripples",
              "effectPattern": ""
            }
          ]
        },
        "QuestAbility_Discover_SkillButton": {
          "modifierName": "",
          "IPFJJJGABPL": 100.0,
          "modifierMixins": [
            {
              "$type": "BBDLKGEJDOJ",
              "priority": "Playmode",
              "skillIndex": 1,
              "skillID": 20080
            },
            {
              "$type": "KAIOONFFNHC",
              "slotType": "Slot5"
            }
          ]
        },
        "QuestAbility_Discover_Effect": {
          "modifierName": "",
          "elementDurability": 8.0,
          "IPFJJJGABPL": 100.0,
          "modifierMixins": [
            {
              "$type": "GNMKIKCAJMA",
              "rotationDampTime": "Eff_QuestDiscover_Tag_NPC_Once",
              "shapeName": "CircleR30"
            }
          ]
        }
      },
      "onAdded": [
        {
          "$type": "JLDEMMJAMLC",
          "modifierName": "QuestAbility_Discover_SwitchSkillButton"
        }
      ],
      "onAbilityStart": [
        {
          "$type": "KBFEIHEAMBM",
          "rotationDampTime": "Eff_QuestDiscover_TriggerSkill_R30",
          "PPPDJGDDOGD": 1.0,
          "AJDILHJFNKE": -1.0
        },
        {
          "$type": "PFKNEFGOHIH",
          "shieldHP": true,
          "modifierName": "QuestAbility_Discover_Effect"
        },
        {
          "$type": "PELJALPANCA",
          "modifierName": "QuestAbility_Discover_Effect"
        },
        {
          "$type": "OCLNBBMMIOK",
          "skillID": 20080,
          "amountByTargetCurrentHPRatio": 1.0,
          "costStaminaRatio": 1.0
        }
      ],
      "isDynamicAbility": true
    }
  },
  {
    "Default": {
      "$type": "CBPBEHLOHKI",
      "abilityName": "Avatar_QuestAbility_Clorinde_RollNormal",
      "abilitySpecials": {
        "Heal_Ratio": 0.019999999552965164,
        "Heal_Interval": 1.0
      },
      "modifiers": {
        "Avatar_QuestAbility_Clorinde_HealHp_Team": {
          "modifierName": "",
          "IPFJJJGABPL": 100.0,
          "thinkInterval": "Heal_Interval",
          "onThinkInterval": [
            {
              "$type": "PELJALPANCA",
              "target": "CurTeamAvatars",
              "shieldHP": true,
              "modifierName": "Avatar_QuestAbility_Clorinde_HealHp_Avatar"
            }
          ]
        },
        "Avatar_QuestAbility_Clorinde_HealHp_Avatar": {
          "modifierName": "",
          "elementDurability": 0.10000000149011612,
          "IPFJJJGABPL": 100.0,
          "onAdded": [
            {
              "$type": "FHGPOFDJDCO",
              "shieldHP": true,
              "CKDBFHCIJEK": "Heal_Ratio",
              "cdRatio": ""
            }
          ]
        }
      },
      "onAdded": [
        {
          "$type": "JLDEMMJAMLC",
          "modifierName": "Avatar_QuestAbility_Clorinde_HealHp_Team"
        }
      ],
      "isDynamicAbility": true
    }
  },
  {
    "Default": {
      "$type": "CBPBEHLOHKI",
      "abilityName": "Avatar_QuestAbility_Clorinde_RollSenior",
      "abilitySpecials": {
        "DamageHigh": 4.0,
        "CDTime": 3.0,
        "Heal_Ratio": 0.019999999552965164,
        "Heal_Interval": 1.0,
        "DamageSystemValue": 0.0
      },
      "modifiers": {
        "Avatar_QuestAbility_Clorinde_RollSenior_Handler": {
          "modifierName": "",
          "IPFJJJGABPL": 100.0,
          "onAttackLanded": [
            {
              "$type": "INBCDALOHMP",
              "target": "Other",
              "shieldHP": true,
              "targetPredicates": [
                {
                  "$type": "NIMAPECDNKD",
                  "entityTypes": [
                    "Monster"
                  ]
                },
                {
                  "$type": "CNGGLKHONAA",
                  "target": "Team",
                  "key": "_QuestAbility_Clorinde_RollSenior_CD",
                  "param3": 0.0,
                  "compareType": "NoneOrEqual"
                }
              ],
              "successActions": [
                {
                  "$type": "PELJALPANCA",
                  "target": "Team",
                  "shieldHP": true,
                  "modifierName": "UNIQUE_Avatar_QuestAbility_Clorinde_RollSenior_CD"
                },
                {
                  "$type": "JLDEMMJAMLC",
                  "target": "Other",
                  "shieldHP": true,
                  "modifierName": "Avatar_QuestAbility_Clorinde_RollSenior_CJB"
                }
              ]
            }
          ]
        },
        "Avatar_QuestAbility_Clorinde_RollSenior_CJB": {
          "modifierName": "",
          "elementDurability": 0.10000000149011612,
          "IPFJJJGABPL": 100.0,
          "onAdded": [
            {
              "$type": "KBFEIHEAMBM",
              "shieldHP": true,
              "rotationDampTime": "Eff_EnergyDisk_ElementalBurst_Wave_R40",
              "PPPDJGDDOGD": 1.0,
              "AJDILHJFNKE": -1.0
            },
            {
              "$type": "AIFPLABJNMA",
              "target": "CurLocalAvatar",
              "shieldHP": true,
              "attackEvent": {
                "attackPattern": {
                  "$type": "BELNOFAKNBA",
                  "triggerType": "TriggerNoRepeat",
                  "born": {
                    "$type": "IAENDIPDFKD",
                    "useRotation": true
                  },
                  "OAHPDLJIADP": 5.0
                },
                "attackInfo": {
                  "attackTag": "",
                  "attenuationTag": "",
                  "attenuationGroup": "default",
                  "attackProperty": {
                    "actorWindSubHurtDelta": 0.0,
                    "IPFJJJGABPL": 0.0,
                    "ignoreAttackerProperty": true,
                    "enBreak": 0.0,
                    "attackType": "Melee",
                    "HMBONGBFIAP": [
                      "DamageHigh",
                      "DamageSystemValue",
                      "MUL"
                    ],
                    "trueDamage": true,
                    "ignoreModifyDamage": true,
                    "GLKMCMDJBIK": 0.0
                  },
                  "hitPattern": {
                    "onHitEffectName": "default",
                    "hitImpulseY": "",
                    "hitImpulseType": "LV1",
                    "hitHaltTimeScale": 0.019999999552965164
                  },
                  "canBeModifiedBy": "OriginOwner"
                }
              },
              "targetType": "Enemy"
            }
          ]
        },
        "UNIQUE_Avatar_QuestAbility_Clorinde_RollSenior_CD": {
          "modifierName": "",
          "forceTriggerWhenChangeAuthority": true,
          "elementDurability": "CDTime",
          "IPFJJJGABPL": 100.0,
          "onAdded": [
            {
              "$type": "BOBCOJHOKKD",
              "target": "Team",
              "shieldHP": true,
              "param3": -1.0,
              "key": "_QuestAbility_Clorinde_RollSenior_CD",
              "param2": 0.0,
              "repeatTimes": 0.0
            }
          ],
          "onRemoved": [
            {
              "$type": "BOBCOJHOKKD",
              "target": "Team",
              "shieldHP": true,
              "param3": 0.0,
              "key": "_QuestAbility_Clorinde_RollSenior_CD",
              "param2": 0.0,
              "repeatTimes": 0.0
            }
          ]
        },
        "Avatar_QuestAbility_Clorinde_HealHp_Team": {
          "modifierName": "",
          "IPFJJJGABPL": 100.0,
          "thinkInterval": "Heal_Interval",
          "modifierMixins": [
            {
              "$type": "EEPKCGMKKJC",
              "modifierName": "Avatar_QuestAbility_Clorinde_RollSenior_Handler"
            }
          ],
          "onThinkInterval": [
            {
              "$type": "PELJALPANCA",
              "target": "CurTeamAvatars",
              "shieldHP": true,
              "modifierName": "Avatar_QuestAbility_Clorinde_HealHp_Avatar"
            }
          ]
        },
        "Avatar_QuestAbility_Clorinde_HealHp_Avatar": {
          "modifierName": "",
          "elementDurability": 0.10000000149011612,
          "IPFJJJGABPL": 100.0,
          "onAdded": [
            {
              "$type": "FHGPOFDJDCO",
              "shieldHP": true,
              "CKDBFHCIJEK": "Heal_Ratio",
              "cdRatio": ""
            }
          ]
        }
      },
      "onAdded": [
        {
          "$type": "BOBCOJHOKKD",
          "target": "Team",
          "shieldHP": true,
          "param3": 0.0,
          "key": "_QuestAbility_Clorinde_RollSenior_CD",
          "param2": 0.0,
          "repeatTimes": 0.0
        },
        {
          "$type": "GDHGMAPPGHD",
          "shieldHP": true,
          "key": "DamageSystemValue",
          "damageRatio": "ElementLevelCo"
        },
        {
          "$type": "JLDEMMJAMLC",
          "modifierName": "Avatar_QuestAbility_Clorinde_HealHp_Team"
        }
      ],
      "isDynamicAbility": true
    }
  },
  {
    "Default": {
      "$type": "CBPBEHLOHKI",
      "abilityName": "Avatar_QuestAbility_Kachina_CombatCheer",
      "abilitySpecials": {
        "CDTime": 10.0
      },
      "modifiers": {
        "UNIQUE_Avatar_Kachina_CombatCheer_CDHandler": {
          "modifierName": "",
          "forceTriggerWhenChangeAuthority": true,
          "elementDurability": "CDTime",
          "IPFJJJGABPL": 100.0,
          "onAdded": [
            {
              "$type": "BOBCOJHOKKD",
              "shieldHP": true,
              "param3": -1.0,
              "key": "_QuestAbility_Kachina_CombatCheer_CD",
              "param2": 0.0,
              "repeatTimes": 0.0
            }
          ],
          "onRemoved": [
            {
              "$type": "BOBCOJHOKKD",
              "shieldHP": true,
              "param3": 0.0,
              "key": "_QuestAbility_Kachina_CombatCheer_CD",
              "param2": 0.0,
              "repeatTimes": 0.0
            }
          ]
        },
        "Avatar_Kachina_CombatCheer_Handler": {
          "modifierName": "",
          "IPFJJJGABPL": 100.0,
          "properties": {
            "Actor_FallingDamageRatio": -1.0
          },
          "onAttackLanded": [
            {
              "$type": "INBCDALOHMP",
              "target": "Other",
              "shieldHP": true,
              "targetPredicates": [
                {
                  "$type": "NNEHDJHMING",
                  "attackTags": [
                    "Elemental_Art",
                    "Elemental_Art_Extra",
                    "Elemental_Art_Hold",
                    "Elemental_Burst"
                  ]
                },
                {
                  "$type": "NIMAPECDNKD",
                  "entityTypes": [
                    "Monster"
                  ]
                },
                {
                  "$type": "CNGGLKHONAA",
                  "key": "_ANIMAL_ENTITY_TYPE",
                  "param3": 0.0,
                  "compareType": "NoneOrEqual"
                },
                {
                  "$type": "CNGGLKHONAA",
                  "target": "Self",
                  "key": "_QuestAbility_Kachina_CombatCheer_CD",
                  "param3": 0.0,
                  "compareType": "NoneOrEqual"
                }
              ],
              "successActions": [
                {
                  "$type": "PELJALPANCA",
                  "shieldHP": true,
                  "modifierName": "UNIQUE_Avatar_Kachina_CombatCheer_CDHandler"
                },
                {
                  "$type": "HPIHJNIOBBL",
                  "operation": {
                    "$type": "AKCGGGOIJAO",
                    "operation": {
                      "text": "Play_Amb_JJC_Walla_Cheer_Long"
                    }
                  }
                }
              ]
            }
          ]
        },
        "Avatar_Kachina_CombatCheer_Limbo_Handler": {
          "modifierName": "",
          "IPFJJJGABPL": 100.0,
          "state": "Limbo"
        },
        "Avatar_Kachina_CombatCheer_RemoveLimbo_Handler": {
          "modifierName": "",
          "IPFJJJGABPL": 100.0,
          "modifierMixins": [
            {
              "$type": "CLJDJFBAPFM",
              "onEvent": "HPDown",
              "predicates": [
                {
                  "$type": "GIIADCNNLNI",
                  "logic": "Lesser",
                  "hp": 2.0
                }
              ],
              "actions": [
                {
                  "$type": "JLDEMMJAMLC",
                  "modifierName": "Avatar_QuestAbility_Kachina_HealHp"
                },
                {
                  "$type": "PFKNEFGOHIH",
                  "shieldHP": true,
                  "modifierName": "Avatar_Kachina_CombatCheer_Limbo_Handler"
                }
              ],
              "costEnergyDeltaName": ""
            }
          ]
        },
        "Avatar_QuestAbility_Kachina_HealHp": {
          "modifierName": "",
          "elementDurability": 5.0,
          "IPFJJJGABPL": 100.0,
          "thinkInterval": 1.0,
          "onAdded": [
            {
              "$type": "FHGPOFDJDCO",
              "shieldHP": true,
              "CKDBFHCIJEK": 0.20000000298023224,
              "cdRatio": ""
            }
          ],
          "onThinkInterval": [
            {
              "$type": "FHGPOFDJDCO",
              "shieldHP": true,
              "CKDBFHCIJEK": 0.20000000298023224,
              "cdRatio": ""
            }
          ]
        }
      },
      "onAdded": [
        {
          "$type": "BOBCOJHOKKD",
          "shieldHP": true,
          "param3": 0.0,
          "key": "_QuestAbility_Kachina_CombatCheer_CD",
          "param2": 0.0,
          "repeatTimes": 0.0
        },
        {
          "$type": "JLDEMMJAMLC",
          "modifierName": "Avatar_Kachina_CombatCheer_Handler"
        },
        {
          "$type": "JLDEMMJAMLC",
          "shieldHP": true,
          "modifierName": "Avatar_Kachina_CombatCheer_Limbo_Handler"
        },
        {
          "$type": "JLDEMMJAMLC",
          "shieldHP": true,
          "modifierName": "Avatar_Kachina_CombatCheer_RemoveLimbo_Handler"
        }
      ],
      "isDynamicAbility": true
    }
  }
]