{
  "luaDataPath": "",
  "entityBan": "",
  "disableNpcLod": true,
  "isBanWidgetPet": true,
  "protectNpcMobileLod": true,
  "talkFlag": 5,
  "startFade": {
    "startFadeOutDuration": 0.0
  },
  "endFade": {
    "startFadeOutDuration": 0.0
  },
  "actors": [
    {
      "alias": "Avatar",
      "visible": true,
      "bornPointName": "",
      "relativePosType": "AVATAR_NEW",
      "relativePosNpcAlias": "",
      "_bindMovingTargetKey": ""
    },
    {
      "configID": 20968,
      "alias": "20968",
      "visible": true,
      "bornPointName": "",
      "relativePosType": "AVATAR_NEW",
      "relativePosNpcAlias": "",
      "_bindMovingTargetKey": ""
    },
    {
      "configID": 20883,
      "alias": "20883",
      "visible": true,
      "bornPointName": "",
      "useRelativePos": true,
      "relativePos": {
        "x": 1.0,
        "z": 0.5
      },
      "removeActorType": "NEW_REMOVE_WITH_DISAPPEAR",
      "relativePosType": "AVATAR_NEW",
      "relativePosNpcAlias": "",
      "_bindMovingTargetKey": ""
    },
    {
      "configID": 1005,
      "alias": "1005",
      "visible": true,
      "bornPointName": "",
      "useRelativePos": true,
      "relativePos": {
        "x": -1.0,
        "z": 0.5
      },
      "removeActorType": "NEW_REMOVE_WITH_DISAPPEAR",
      "relativePosType": "AVATAR_NEW",
      "relativePosNpcAlias": "",
      "_bindMovingTargetKey": ""
    }
  ],
  "group": [
    [
      {
        "$type": "FJKIHHKJLMJ",
        "type": "CAMERA_FOCUS",
        "duration": 0.10000000149011612,
        "actionId": 103,
        "targetNpcAlias": "",
        "KJOEFBPOIIH": "",
        "IICFKKEBIEC": "",
        "EGEHEJEBLBJ": ""
      },
      {
        "$type": "MoleMole.Config.ConfigTimeProtectAction",
        "type": "TIME_PROTECT",
        "duration": 0.10000000149011612,
        "actionId": 104
      },
      {
        "$type": "LLGANGLOEEO",
        "type": "STEER_TO",
        "delayTime": 0.30000001192092896,
        "duration": 0.800000011920929,
        "aliasList": [
          "Avatar"
        ],
        "actionId": 164,
        "steerType": "TO_TARGET_ADVANCED",
        "useSteerAnim": true,
        "interruptFreestyle": true,
        "forceSteer": true,
        "targetNpcAlias": "20968",
        "fixInterNull": true,
        "OAFJBHJHLJG": ""
      },
      {
        "$type": "LLGANGLOEEO",
        "type": "STEER_TO",
        "delayTime": 0.30000001192092896,
        "duration": 0.800000011920929,
        "aliasList": [
          "20968"
        ],
        "actionId": 165,
        "steerType": "TO_LOCAL_AVATAR_ADVANCED",
        "useSteerAnim": true,
        "interruptFreestyle": true,
        "forceSteer": true,
        "targetNpcAlias": "",
        "fixInterNull": true,
        "OAFJBHJHLJG": ""
      },
      {
        "$type": "LLGANGLOEEO",
        "type": "STEER_TO",
        "delayTime": 0.30000001192092896,
        "duration": 0.800000011920929,
        "aliasList": [
          "20883"
        ],
        "actionId": 166,
        "steerType": "TO_TARGET_ADVANCED",
        "useSteerAnim": true,
        "interruptFreestyle": true,
        "forceSteer": true,
        "targetNpcAlias": "20968",
        "fixInterNull": true,
        "OAFJBHJHLJG": ""
      }
    ],
    [
      {
        "$type": "LJLMDHDCAMK",
        "type": "LOOK_AT",
        "aliasList": [
          "Avatar"
        ],
        "actionId": 167,
        "enableHead": true,
        "headTurnTime": 0.5,
        "targetNpcAlias": "20883",
        "openBackProtect": true,
        "targetNpcLookAtPoint": "",
        "OAFJBHJHLJG": ""
      },
      {
        "$type": "LJLMDHDCAMK",
        "type": "LOOK_AT",
        "aliasList": [
          "20968"
        ],
        "actionId": 168,
        "enableHead": true,
        "headTurnTime": 0.5,
        "targetNpcAlias": "20883",
        "openBackProtect": true,
        "targetNpcLookAtPoint": "",
        "OAFJBHJHLJG": ""
      },
      {
        "$type": "PKKMAMONGEO",
        "type": "DIALOG",
        "aliasList": [
          "20883"
        ],
        "actionId": 107,
        "dialogID": 733192701,
        "protectTime": 0.5
      },
      {
        "$type": "LJLMDHDCAMK",
        "type": "LOOK_AT",
        "aliasList": [
          "1005"
        ],
        "actionId": 169,
        "enableHead": true,
        "headTurnTime": 0.5,
        "targetNpcAlias": "20883",
        "openBackProtect": true,
        "targetNpcLookAtPoint": "",
        "OAFJBHJHLJG": ""
      }
    ],
    [
      {
        "$type": "PKKMAMONGEO",
        "type": "DIALOG",
        "aliasList": [
          "20883"
        ],
        "actionId": 109,
        "dialogID": 733192702,
        "protectTime": 0.5
      }
    ],
    [
      {
        "$type": "LJLMDHDCAMK",
        "type": "LOOK_AT",
        "aliasList": [
          "Avatar"
        ],
        "actionId": 170,
        "enableHead": true,
        "headTurnTime": 0.5,
        "targetNpcAlias": "1005",
        "openBackProtect": true,
        "targetNpcLookAtPoint": "",
        "OAFJBHJHLJG": ""
      },
      {
        "$type": "LJLMDHDCAMK",
        "type": "LOOK_AT",
        "aliasList": [
          "20968"
        ],
        "actionId": 171,
        "enableHead": true,
        "headTurnTime": 0.5,
        "targetNpcAlias": "1005",
        "openBackProtect": true,
        "targetNpcLookAtPoint": "",
        "OAFJBHJHLJG": ""
      },
      {
        "$type": "LJLMDHDCAMK",
        "type": "LOOK_AT",
        "aliasList": [
          "20883"
        ],
        "actionId": 172,
        "enableHead": true,
        "headTurnTime": 0.5,
        "targetNpcAlias": "1005",
        "openBackProtect": true,
        "targetNpcLookAtPoint": "",
        "OAFJBHJHLJG": ""
      },
      {
        "$type": "PKKMAMONGEO",
        "type": "DIALOG",
        "aliasList": [
          "1005"
        ],
        "actionId": 111,
        "dialogID": 733192703,
        "protectTime": 0.5
      }
    ],
    [
      {
        "$type": "LJLMDHDCAMK",
        "type": "LOOK_AT",
        "aliasList": [
          "Avatar"
        ],
        "actionId": 173,
        "enableHead": true,
        "headTurnTime": 0.5,
        "targetNpcAlias": "20968",
        "openBackProtect": true,
        "targetNpcLookAtPoint": "",
        "OAFJBHJHLJG": ""
      },
      {
        "$type": "PKKMAMONGEO",
        "type": "DIALOG",
        "aliasList": [
          "20968"
        ],
        "actionId": 113,
        "dialogID": 733192704,
        "protectTime": 0.5
      },
      {
        "$type": "LJLMDHDCAMK",
        "type": "LOOK_AT",
        "aliasList": [
          "20883"
        ],
        "actionId": 174,
        "enableHead": true,
        "headTurnTime": 0.5,
        "targetNpcAlias": "20968",
        "openBackProtect": true,
        "targetNpcLookAtPoint": "",
        "OAFJBHJHLJG": ""
      },
      {
        "$type": "LJLMDHDCAMK",
        "type": "LOOK_AT",
        "aliasList": [
          "1005"
        ],
        "actionId": 175,
        "enableHead": true,
        "headTurnTime": 0.5,
        "targetNpcAlias": "20968",
        "openBackProtect": true,
        "targetNpcLookAtPoint": "",
        "OAFJBHJHLJG": ""
      }
    ],
    [
      {
        "$type": "PKKMAMONGEO",
        "type": "DIALOG",
        "aliasList": [
          "20968"
        ],
        "actionId": 115,
        "dialogID": 733192705,
        "protectTime": 0.5
      }
    ],
    [
      {
        "$type": "PKKMAMONGEO",
        "type": "DIALOG",
        "aliasList": [
          "20968"
        ],
        "actionId": 117,
        "dialogID": 733192706,
        "protectTime": 0.5
      }
    ],
    [
      {
        "$type": "LJLMDHDCAMK",
        "type": "LOOK_AT",
        "aliasList": [
          "Avatar"
        ],
        "actionId": 176,
        "enableHead": true,
        "headTurnTime": 0.5,
        "targetNpcAlias": "20883",
        "openBackProtect": true,
        "targetNpcLookAtPoint": "",
        "OAFJBHJHLJG": ""
      },
      {
        "$type": "LJLMDHDCAMK",
        "type": "LOOK_AT",
        "aliasList": [
          "20968"
        ],
        "actionId": 177,
        "enableHead": true,
        "headTurnTime": 0.5,
        "targetNpcAlias": "20883",
        "openBackProtect": true,
        "targetNpcLookAtPoint": "",
        "OAFJBHJHLJG": ""
      },
      {
        "$type": "PKKMAMONGEO",
        "type": "DIALOG",
        "aliasList": [
          "20883"
        ],
        "actionId": 119,
        "dialogID": 733192707,
        "protectTime": 0.5
      },
      {
        "$type": "LJLMDHDCAMK",
        "type": "LOOK_AT",
        "aliasList": [
          "1005"
        ],
        "actionId": 178,
        "enableHead": true,
        "headTurnTime": 0.5,
        "targetNpcAlias": "20883",
        "openBackProtect": true,
        "targetNpcLookAtPoint": "",
        "OAFJBHJHLJG": ""
      },
      {
        "$type": "HDGKHDNFMIM",
        "type": "DIALOG_SELECT",
        "delayTime": 0.4000000059604645,
        "aliasList": [
          "Avatar"
        ],
        "actionId": 120,
        "dialogIDList": [
          733192708
        ],
        "grpIDList": [
          528368466
        ],
        "useGrpId": true,
        "countDownGrpId": 528368457
      }
    ],
    [
      {
        "$type": "LJLMDHDCAMK",
        "type": "LOOK_AT",
        "aliasList": [
          "Avatar"
        ],
        "actionId": 179,
        "enableHead": true,
        "headTurnTime": 0.5,
        "targetNpcAlias": "1005",
        "openBackProtect": true,
        "targetNpcLookAtPoint": "",
        "OAFJBHJHLJG": ""
      },
      {
        "$type": "LJLMDHDCAMK",
        "type": "LOOK_AT",
        "aliasList": [
          "20968"
        ],
        "actionId": 180,
        "enableHead": true,
        "headTurnTime": 0.5,
        "targetNpcAlias": "1005",
        "openBackProtect": true,
        "targetNpcLookAtPoint": "",
        "OAFJBHJHLJG": ""
      },
      {
        "$type": "LJLMDHDCAMK",
        "type": "LOOK_AT",
        "aliasList": [
          "20883"
        ],
        "actionId": 181,
        "enableHead": true,
        "headTurnTime": 0.5,
        "targetNpcAlias": "1005",
        "openBackProtect": true,
        "targetNpcLookAtPoint": "",
        "OAFJBHJHLJG": ""
      },
      {
        "$type": "PKKMAMONGEO",
        "type": "DIALOG",
        "aliasList": [
          "1005"
        ],
        "actionId": 122,
        "dialogID": 733192709,
        "protectTime": 0.5
      }
    ],
    [
      {
        "$type": "LJLMDHDCAMK",
        "type": "LOOK_AT",
        "aliasList": [
          "Avatar"
        ],
        "actionId": 182,
        "enableHead": true,
        "headTurnTime": 0.5,
        "targetNpcAlias": "20968",
        "openBackProtect": true,
        "targetNpcLookAtPoint": "",
        "OAFJBHJHLJG": ""
      },
      {
        "$type": "PKKMAMONGEO",
        "type": "DIALOG",
        "aliasList": [
          "20968"
        ],
        "actionId": 124,
        "dialogID": 733192710,
        "protectTime": 0.5
      },
      {
        "$type": "LJLMDHDCAMK",
        "type": "LOOK_AT",
        "aliasList": [
          "20883"
        ],
        "actionId": 183,
        "enableHead": true,
        "headTurnTime": 0.5,
        "targetNpcAlias": "20968",
        "openBackProtect": true,
        "targetNpcLookAtPoint": "",
        "OAFJBHJHLJG": ""
      },
      {
        "$type": "LJLMDHDCAMK",
        "type": "LOOK_AT",
        "aliasList": [
          "1005"
        ],
        "actionId": 184,
        "enableHead": true,
        "headTurnTime": 0.5,
        "targetNpcAlias": "20968",
        "openBackProtect": true,
        "targetNpcLookAtPoint": "",
        "OAFJBHJHLJG": ""
      }
    ],
    [
      {
        "$type": "PKKMAMONGEO",
        "type": "DIALOG",
        "aliasList": [
          "20968"
        ],
        "actionId": 126,
        "dialogID": 733192711,
        "protectTime": 0.5
      }
    ],
    [
      {
        "$type": "LJLMDHDCAMK",
        "type": "LOOK_AT",
        "aliasList": [
          "Avatar"
        ],
        "actionId": 185,
        "enableHead": true,
        "headTurnTime": 0.5,
        "targetNpcAlias": "20883",
        "openBackProtect": true,
        "targetNpcLookAtPoint": "",
        "OAFJBHJHLJG": ""
      },
      {
        "$type": "LJLMDHDCAMK",
        "type": "LOOK_AT",
        "aliasList": [
          "20968"
        ],
        "actionId": 186,
        "enableHead": true,
        "headTurnTime": 0.5,
        "targetNpcAlias": "20883",
        "openBackProtect": true,
        "targetNpcLookAtPoint": "",
        "OAFJBHJHLJG": ""
      },
      {
        "$type": "PKKMAMONGEO",
        "type": "DIALOG",
        "aliasList": [
          "20883"
        ],
        "actionId": 128,
        "dialogID": 733192712,
        "protectTime": 0.5
      },
      {
        "$type": "LJLMDHDCAMK",
        "type": "LOOK_AT",
        "aliasList": [
          "1005"
        ],
        "actionId": 187,
        "enableHead": true,
        "headTurnTime": 0.5,
        "targetNpcAlias": "20883",
        "openBackProtect": true,
        "targetNpcLookAtPoint": "",
        "OAFJBHJHLJG": ""
      }
    ],
    [
      {
        "$type": "PKKMAMONGEO",
        "type": "DIALOG",
        "aliasList": [
          "20883"
        ],
        "actionId": 130,
        "dialogID": 733192713,
        "protectTime": 0.5
      },
      {
        "$type": "HDGKHDNFMIM",
        "type": "DIALOG_SELECT",
        "delayTime": 0.4000000059604645,
        "aliasList": [
          "Avatar"
        ],
        "actionId": 131,
        "dialogIDList": [
          733192714,
          733192715
        ],
        "grpIDList": [
          3494520362,
          3494520362
        ],
        "useGrpId": true,
        "countDownGrpId": 528368457
      }
    ],
    [
      {
        "$type": "PKKMAMONGEO",
        "type": "DIALOG",
        "aliasList": [
          "20883"
        ],
        "actionId": 133,
        "dialogID": 733192716,
        "protectTime": 0.5
      }
    ],
    [
      {
        "$type": "PKKMAMONGEO",
        "type": "DIALOG",
        "aliasList": [
          "20883"
        ],
        "actionId": 135,
        "dialogID": 733192717,
        "protectTime": 0.5
      }
    ],
    [
      {
        "$type": "PKKMAMONGEO",
        "type": "DIALOG",
        "aliasList": [
          "20883"
        ],
        "actionId": 139,
        "dialogID": 733192719,
        "protectTime": 0.5
      },
      {
        "$type": "HDGKHDNFMIM",
        "type": "DIALOG_SELECT",
        "delayTime": 0.4000000059604645,
        "aliasList": [
          "Avatar"
        ],
        "actionId": 140,
        "dialogIDList": [
          733192720
        ],
        "grpIDList": [
          3494520365
        ],
        "useGrpId": true,
        "countDownGrpId": 528368457
      }
    ],
    [
      {
        "$type": "LJLMDHDCAMK",
        "type": "LOOK_AT",
        "aliasList": [
          "Avatar"
        ],
        "actionId": 188,
        "enableHead": true,
        "headTurnTime": 0.5,
        "targetNpcAlias": "1005",
        "openBackProtect": true,
        "targetNpcLookAtPoint": "",
        "OAFJBHJHLJG": ""
      },
      {
        "$type": "LJLMDHDCAMK",
        "type": "LOOK_AT",
        "aliasList": [
          "20968"
        ],
        "actionId": 189,
        "enableHead": true,
        "headTurnTime": 0.5,
        "targetNpcAlias": "1005",
        "openBackProtect": true,
        "targetNpcLookAtPoint": "",
        "OAFJBHJHLJG": ""
      },
      {
        "$type": "LJLMDHDCAMK",
        "type": "LOOK_AT",
        "aliasList": [
          "20883"
        ],
        "actionId": 190,
        "enableHead": true,
        "headTurnTime": 0.5,
        "targetNpcAlias": "1005",
        "openBackProtect": true,
        "targetNpcLookAtPoint": "",
        "OAFJBHJHLJG": ""
      },
      {
        "$type": "PKKMAMONGEO",
        "type": "DIALOG",
        "aliasList": [
          "1005"
        ],
        "actionId": 142,
        "dialogID": 733192721,
        "protectTime": 0.5
      }
    ],
    [
      {
        "$type": "LJLMDHDCAMK",
        "type": "LOOK_AT",
        "aliasList": [
          "Avatar"
        ],
        "actionId": 191,
        "enableHead": true,
        "headTurnTime": 0.5,
        "targetNpcAlias": "20968",
        "openBackProtect": true,
        "targetNpcLookAtPoint": "",
        "OAFJBHJHLJG": ""
      },
      {
        "$type": "PKKMAMONGEO",
        "type": "DIALOG",
        "aliasList": [
          "20968"
        ],
        "actionId": 144,
        "dialogID": 733192722,
        "protectTime": 0.5
      },
      {
        "$type": "LJLMDHDCAMK",
        "type": "LOOK_AT",
        "aliasList": [
          "20883"
        ],
        "actionId": 192,
        "enableHead": true,
        "headTurnTime": 0.5,
        "targetNpcAlias": "20968",
        "openBackProtect": true,
        "targetNpcLookAtPoint": "",
        "OAFJBHJHLJG": ""
      },
      {
        "$type": "LJLMDHDCAMK",
        "type": "LOOK_AT",
        "aliasList": [
          "1005"
        ],
        "actionId": 193,
        "enableHead": true,
        "headTurnTime": 0.5,
        "targetNpcAlias": "20968",
        "openBackProtect": true,
        "targetNpcLookAtPoint": "",
        "OAFJBHJHLJG": ""
      }
    ],
    [
      {
        "$type": "PKKMAMONGEO",
        "type": "DIALOG",
        "aliasList": [
          "20968"
        ],
        "actionId": 146,
        "dialogID": 733192723,
        "protectTime": 0.5
      }
    ],
    [
      {
        "$type": "LJLMDHDCAMK",
        "type": "LOOK_AT",
        "aliasList": [
          "Avatar"
        ],
        "actionId": 194,
        "enableHead": true,
        "headTurnTime": 0.5,
        "targetNpcAlias": "20883",
        "openBackProtect": true,
        "targetNpcLookAtPoint": "",
        "OAFJBHJHLJG": ""
      },
      {
        "$type": "LJLMDHDCAMK",
        "type": "LOOK_AT",
        "aliasList": [
          "20968"
        ],
        "actionId": 195,
        "enableHead": true,
        "headTurnTime": 0.5,
        "targetNpcAlias": "20883",
        "openBackProtect": true,
        "targetNpcLookAtPoint": "",
        "OAFJBHJHLJG": ""
      },
      {
        "$type": "PKKMAMONGEO",
        "type": "DIALOG",
        "aliasList": [
          "20883"
        ],
        "actionId": 148,
        "dialogID": 733192724,
        "protectTime": 0.5
      },
      {
        "$type": "LJLMDHDCAMK",
        "type": "LOOK_AT",
        "aliasList": [
          "1005"
        ],
        "actionId": 196,
        "enableHead": true,
        "headTurnTime": 0.5,
        "targetNpcAlias": "20883",
        "openBackProtect": true,
        "targetNpcLookAtPoint": "",
        "OAFJBHJHLJG": ""
      }
    ],
    [
      {
        "$type": "PKKMAMONGEO",
        "type": "DIALOG",
        "aliasList": [
          "20883"
        ],
        "actionId": 150,
        "dialogID": 733192725,
        "protectTime": 0.5
      }
    ],
    [
      {
        "$type": "LJLMDHDCAMK",
        "type": "LOOK_AT",
        "aliasList": [
          "Avatar"
        ],
        "actionId": 197,
        "enableHead": true,
        "headTurnTime": 0.5,
        "targetNpcAlias": "20968",
        "openBackProtect": true,
        "targetNpcLookAtPoint": "",
        "OAFJBHJHLJG": ""
      },
      {
        "$type": "PKKMAMONGEO",
        "type": "DIALOG",
        "aliasList": [
          "20968"
        ],
        "actionId": 152,
        "dialogID": 733192726,
        "protectTime": 0.5
      },
      {
        "$type": "LJLMDHDCAMK",
        "type": "LOOK_AT",
        "aliasList": [
          "20883"
        ],
        "actionId": 198,
        "enableHead": true,
        "headTurnTime": 0.5,
        "targetNpcAlias": "20968",
        "openBackProtect": true,
        "targetNpcLookAtPoint": "",
        "OAFJBHJHLJG": ""
      },
      {
        "$type": "LJLMDHDCAMK",
        "type": "LOOK_AT",
        "aliasList": [
          "1005"
        ],
        "actionId": 199,
        "enableHead": true,
        "headTurnTime": 0.5,
        "targetNpcAlias": "20968",
        "openBackProtect": true,
        "targetNpcLookAtPoint": "",
        "OAFJBHJHLJG": ""
      }
    ],
    [
      {
        "$type": "LJLMDHDCAMK",
        "type": "LOOK_AT",
        "aliasList": [
          "Avatar"
        ],
        "actionId": 200,
        "enableHead": true,
        "headTurnTime": 0.5,
        "targetNpcAlias": "20883",
        "openBackProtect": true,
        "targetNpcLookAtPoint": "",
        "OAFJBHJHLJG": ""
      },
      {
        "$type": "LJLMDHDCAMK",
        "type": "LOOK_AT",
        "aliasList": [
          "20968"
        ],
        "actionId": 201,
        "enableHead": true,
        "headTurnTime": 0.5,
        "targetNpcAlias": "20883",
        "openBackProtect": true,
        "targetNpcLookAtPoint": "",
        "OAFJBHJHLJG": ""
      },
      {
        "$type": "PKKMAMONGEO",
        "type": "DIALOG",
        "aliasList": [
          "20883"
        ],
        "actionId": 154,
        "dialogID": 733192727,
        "protectTime": 0.5
      },
      {
        "$type": "LJLMDHDCAMK",
        "type": "LOOK_AT",
        "aliasList": [
          "1005"
        ],
        "actionId": 202,
        "enableHead": true,
        "headTurnTime": 0.5,
        "targetNpcAlias": "20883",
        "openBackProtect": true,
        "targetNpcLookAtPoint": "",
        "OAFJBHJHLJG": ""
      }
    ],
    [
      {
        "$type": "LJLMDHDCAMK",
        "type": "LOOK_AT",
        "aliasList": [
          "Avatar"
        ],
        "actionId": 203,
        "enableHead": true,
        "headTurnTime": 0.5,
        "targetNpcAlias": "1005",
        "openBackProtect": true,
        "targetNpcLookAtPoint": "",
        "OAFJBHJHLJG": ""
      },
      {
        "$type": "LJLMDHDCAMK",
        "type": "LOOK_AT",
        "aliasList": [
          "20968"
        ],
        "actionId": 204,
        "enableHead": true,
        "headTurnTime": 0.5,
        "targetNpcAlias": "1005",
        "openBackProtect": true,
        "targetNpcLookAtPoint": "",
        "OAFJBHJHLJG": ""
      },
      {
        "$type": "LJLMDHDCAMK",
        "type": "LOOK_AT",
        "aliasList": [
          "20883"
        ],
        "actionId": 205,
        "enableHead": true,
        "headTurnTime": 0.5,
        "targetNpcAlias": "1005",
        "openBackProtect": true,
        "targetNpcLookAtPoint": "",
        "OAFJBHJHLJG": ""
      },
      {
        "$type": "PKKMAMONGEO",
        "type": "DIALOG",
        "aliasList": [
          "1005"
        ],
        "actionId": 156,
        "dialogID": 733192728,
        "protectTime": 0.5
      },
      {
        "$type": "HDGKHDNFMIM",
        "type": "DIALOG_SELECT",
        "delayTime": 0.4000000059604645,
        "aliasList": [
          "Avatar"
        ],
        "actionId": 157,
        "dialogIDList": [
          733192729,
          733192730
        ],
        "grpIDList": [
          3494520394,
          3494520394
        ],
        "useGrpId": true,
        "countDownGrpId": 528368457
      }
    ],
    [
      {
        "$type": "PKKMAMONGEO",
        "type": "DIALOG",
        "aliasList": [
          "1005"
        ],
        "actionId": 159,
        "dialogID": 733192731,
        "protectTime": 0.5
      }
    ],
    [
      {
        "$type": "PKKMAMONGEO",
        "type": "DIALOG",
        "aliasList": [
          "1005"
        ],
        "actionId": 161,
        "dialogID": 733192732,
        "protectTime": 0.5
      }
    ],
    [
      {
        "$type": "PKKMAMONGEO",
        "type": "DIALOG",
        "aliasList": [
          "1005"
        ],
        "actionId": 163,
        "dialogID": 733192733,
        "protectTime": 0.5
      }
    ],
    [
      {
        "$type": "MoleMole.Config.ConfigTimeProtectAction",
        "type": "TIME_PROTECT",
        "duration": 0.10000000149011612,
        "actionId": 105
      }
    ]
  ],
  "groupId": [
    {
      "grpId": 528368458,
      "nextGrpId": 528368459
    },
    {
      "index": 1,
      "grpId": 528368459,
      "nextGrpId": 528368460
    },
    {
      "index": 2,
      "grpId": 528368460,
      "nextGrpId": 528368461
    },
    {
      "index": 3,
      "grpId": 528368461,
      "nextGrpId": 528368462
    },
    {
      "index": 4,
      "grpId": 528368462,
      "nextGrpId": 528368463
    },
    {
      "index": 5,
      "grpId": 528368463,
      "nextGrpId": 528368464
    },
    {
      "index": 6,
      "grpId": 528368464,
      "nextGrpId": 528368465
    },
    {
      "index": 7,
      "grpId": 528368465,
      "nextGrpId": 528368466
    },
    {
      "index": 8,
      "grpId": 528368466,
      "nextGrpId": 3494520358
    },
    {
      "index": 9,
      "grpId": 3494520358,
      "nextGrpId": 3494520359
    },
    {
      "index": 10,
      "grpId": 3494520359,
      "nextGrpId": 3494520360
    },
    {
      "index": 11,
      "grpId": 3494520360,
      "nextGrpId": 3494520361
    },
    {
      "index": 12,
      "grpId": 3494520361,
      "nextGrpId": 3494520362
    },
    {
      "index": 13,
      "grpId": 3494520362,
      "nextGrpId": 3494520363
    },
    {
      "index": 14,
      "grpId": 3494520363,
      "nextGrpId": 3494520364
    },
    {
      "index": 15,
      "grpId": 3494520364,
      "nextGrpId": 3494520365
    },
    {
      "index": 16,
      "grpId": 3494520365,
      "nextGrpId": 3494520366
    },
    {
      "index": 17,
      "grpId": 3494520366,
      "nextGrpId": 3494520367
    },
    {
      "index": 18,
      "grpId": 3494520367,
      "nextGrpId": 3494520389
    },
    {
      "index": 19,
      "grpId": 3494520389,
      "nextGrpId": 3494520390
    },
    {
      "index": 20,
      "grpId": 3494520390,
      "nextGrpId": 3494520391
    },
    {
      "index": 21,
      "grpId": 3494520391,
      "nextGrpId": 3494520392
    },
    {
      "index": 22,
      "grpId": 3494520392,
      "nextGrpId": 3494520393
    },
    {
      "index": 23,
      "grpId": 3494520393,
      "nextGrpId": 3494520394
    },
    {
      "index": 24,
      "grpId": 3494520394,
      "nextGrpId": 3494520395
    },
    {
      "index": 25,
      "grpId": 3494520395,
      "nextGrpId": 3494520396
    },
    {
      "index": 26,
      "grpId": 3494520396,
      "nextGrpId": 3494520397
    },
    {
      "index": 27,
      "grpId": 3494520397,
      "nextGrpId": 3494520398
    }
  ],
  "freeStyleDic": {
    "20968": [],
    "20883": []
  }
}