{
  "luaDataPath": "",
  "startBlackKeepTime": 0.5,
  "entityBan": "",
  "disableNpcLod": true,
  "isAutoBanNpc": true,
  "isBanWidgetPet": true,
  "protectNpcMobileLod": true,
  "startFade": {
    "startFadeInDuration": 0.5,
    "startFadeOutDuration": 0.5
  },
  "endFade": {
    "startFadeOutDuration": 0.0
  },
  "actors": [
    {
      "alias": "Avatar",
      "visible": true,
      "bornPointName": "N10000005_T7328204",
      "relativePosType": "AVATAR_NEW",
      "relativePosNpcAlias": "",
      "_bindMovingTargetKey": ""
    },
    {
      "configID": 20842,
      "alias": "20842",
      "visible": true,
      "bornPointName": "Q7328206_guide",
      "removeActorType": "REMOVE_WITH_DISAPPEAR",
      "relativePosType": "AVATAR_NEW",
      "relativePosNpcAlias": "",
      "_bindMovingTargetKey": ""
    },
    {
      "configID": 1005,
      "alias": "1005",
      "visible": true,
      "bornPointName": "",
      "useRelativePos": true,
      "relativePos": {
        "x": 0.5,
        "z": -0.5
      },
      "removeActorType": "REMOVE_WITH_DISAPPEAR",
      "relativePosType": "AVATAR_NEW",
      "relativePosNpcAlias": "",
      "_bindMovingTargetKey": ""
    }
  ],
  "group": [
    [
      {
        "$type": "MoleMole.Config.ConfigTimeProtectAction",
        "type": "TIME_PROTECT",
        "duration": 1.0,
        "actionId": 104
      },
      {
        "$type": "MoleMole.Config.ConfigBlackScreenAction",
        "type": "BLACK_SCREEN",
        "duration": 1.0,
        "actionId": 126,
        "blackScreenType": "KEEP_BLACK",
        "durationToBlack": 0.5,
        "durationKeepBlack": 1.0,
        "durationFromBlack": 0.5,
        "inteePos": "",
        "textMapID": "",
        "useTextFade": true
      },
      {
        "$type": "MoleMole.Config.ConfigChangeTimeInterAction",
        "type": "CHANGE_TIME",
        "actionId": 147,
        "toTime": 18.200000762939453
      },
      {
        "$type": "MoleMole.Config.ConfigTeleportToAction",
        "type": "TELEPORT_TO",
        "aliasList": [
          "Avatar"
        ],
        "actionId": 130,
        "position": {
          "x": -1421.7750244140625,
          "y": -28.50200080871582,
          "z": 5594.4150390625
        },
        "forward": {
          "x": 2.1600000858306885,
          "z": 6.554999828338623
        },
        "openLongDisTeleport": true,
        "_posBindMovingTargetKey": "",
        "_forwardBindMovingTargetKey": ""
      },
      {
        "$type": "MoleMole.Config.ConfigTeleportToAction",
        "type": "TELEPORT_TO",
        "aliasList": [
          "20842"
        ],
        "actionId": 129,
        "position": {
          "x": -1417.8719482421875,
          "y": -28.50200080871582,
          "z": 5606.8798828125
        },
        "forward": {
          "x": 1.2710000276565552,
          "z": 2.257999897003174
        },
        "openLongDisTeleport": true,
        "_posBindMovingTargetKey": "",
        "_forwardBindMovingTargetKey": ""
      },
      {
        "$type": "LJLMDHDCAMK",
        "type": "LOOK_AT",
        "aliasList": [
          "20842"
        ],
        "actionId": 133,
        "enableHead": true,
        "useTargetPos": true,
        "enableAbsolute": true,
        "targetPosition": {
          "x": -1414.0179443359375,
          "y": -23.60700035095215,
          "z": 5613.68994140625
        },
        "headTurnTime": 0.5,
        "targetNpcAlias": "",
        "lookAtTargetType": "NONE",
        "openBackProtect": true,
        "targetNpcLookAtPoint": "",
        "OAFJBHJHLJG": ""
      },
      {
        "$type": "MoleMole.Config.ConfigTeleportToAction",
        "type": "TELEPORT_TO",
        "aliasList": [
          "1005"
        ],
        "actionId": 131,
        "position": {
          "x": -1422.4949951171875,
          "y": -28.434999465942383,
          "z": 5594.12890625
        },
        "forward": {
          "x": 1.7710000276565552,
          "z": 5.432000160217285
        },
        "openLongDisTeleport": true,
        "_posBindMovingTargetKey": "",
        "_forwardBindMovingTargetKey": ""
      }
    ],
    [
      {
        "$type": "MoleMole.Config.ConfigBlackScreenAction",
        "type": "BLACK_SCREEN",
        "duration": 0.5,
        "actionId": 127,
        "blackScreenType": "FROM_BLACK",
        "durationToBlack": 0.5,
        "durationKeepBlack": 0.5,
        "durationFromBlack": 0.5,
        "inteePos": "",
        "textMapID": "",
        "useTextFade": true
      },
      {
        "$type": "FJKIHHKJLMJ",
        "type": "CAMERA_MOVE",
        "duration": 0.5,
        "actionId": 135,
        "camPosOffset": {
          "x": -1422.3580322265625,
          "y": -27.790000915527344,
          "z": 5599.216796875
        },
        "camForwardTargetOffset": {
          "x": -1421.6610107421875,
          "y": -27.722999572753906,
          "z": 5599.93115234375
        },
        "lerpPattern": 6,
        "cameraBlendType": "EaseInOutCubic",
        "NJBNNOMLKCK": {},
        "needZAxisRotate": true,
        "openCameraDither": false,
        "targetNpcAlias": "",
        "closeTreeLeafDither": true,
        "KJOEFBPOIIH": "",
        "IICFKKEBIEC": "",
        "EGEHEJEBLBJ": ""
      },
      {
        "$type": "MoleMole.Config.ConfigMoveToAction",
        "type": "MOVE_TO",
        "aliasList": [
          "Avatar"
        ],
        "actionId": 138,
        "moveType": "WALK",
        "routeList": [
          {
            "x": -1420.60400390625,
            "y": -28.340999603271484,
            "z": 5598.4931640625
          }
        ],
        "exactlyMove": true,
        "closeNavMesh": true,
        "closeAvatarNavMesh": true,
        "openSetPos": true,
        "_bindMovingTargetKey": ""
      },
      {
        "$type": "LJLMDHDCAMK",
        "type": "LOOK_AT",
        "aliasList": [
          "Avatar"
        ],
        "actionId": 145,
        "enableHead": true,
        "useTargetPos": true,
        "enableAbsolute": true,
        "targetPosition": {
          "x": -1417.7969970703125,
          "y": -26.954999923706055,
          "z": 5607.09716796875
        },
        "headTurnTime": 0.5,
        "targetNpcAlias": "",
        "lookAtTargetType": "NONE",
        "openBackProtect": true,
        "targetNpcLookAtPoint": "",
        "OAFJBHJHLJG": ""
      },
      {
        "$type": "PKKMAMONGEO",
        "type": "DIALOG",
        "aliasList": [
          "20842"
        ],
        "actionId": 107,
        "dialogID": 732820401,
        "protectTime": 2.382999897003174
      },
      {
        "$type": "MoleMole.Config.ConfigMoveToAction",
        "type": "MOVE_TO",
        "aliasList": [
          "1005"
        ],
        "actionId": 139,
        "moveType": "WALK",
        "routeList": [
          {
            "x": -1421.3780517578125,
            "y": -28.340999603271484,
            "z": 5598.64599609375
          }
        ],
        "exactlyMove": true,
        "closeNavMesh": true,
        "openSetPos": true,
        "_bindMovingTargetKey": ""
      },
      {
        "$type": "LJLMDHDCAMK",
        "type": "LOOK_AT",
        "aliasList": [
          "1005"
        ],
        "actionId": 144,
        "enableHead": true,
        "useTargetPos": true,
        "enableAbsolute": true,
        "targetPosition": {
          "x": -1418.071044921875,
          "y": -26.98200035095215,
          "z": 5606.5517578125
        },
        "headTurnTime": 0.5,
        "targetNpcAlias": "",
        "lookAtTargetType": "NONE",
        "openBackProtect": true,
        "targetNpcLookAtPoint": "",
        "OAFJBHJHLJG": ""
      },
      {
        "$type": "FJKIHHKJLMJ",
        "type": "CAMERA_MOVE",
        "delayTime": 0.10000000149011612,
        "duration": 8.175000190734863,
        "actionId": 132,
        "camPosOffset": {
          "x": -1423.31201171875,
          "y": -27.756000518798828,
          "z": 5597.48779296875
        },
        "camForwardTargetOffset": {
          "x": -1422.614990234375,
          "y": -27.68899917602539,
          "z": 5598.2021484375
        },
        "lerpPattern": 2,
        "cameraBlendType": "EaseOutQuad",
        "NJBNNOMLKCK": {},
        "needZAxisRotate": true,
        "openCameraDither": false,
        "targetNpcAlias": "",
        "closeTreeLeafDither": true,
        "KJOEFBPOIIH": "",
        "IICFKKEBIEC": "",
        "EGEHEJEBLBJ": ""
      },
      {
        "$type": "HDGKHDNFMIM",
        "type": "DIALOG_SELECT",
        "delayTime": 2.007999897003174,
        "aliasList": [
          "Avatar"
        ],
        "actionId": 108,
        "dialogIDList": [
          732820402,
          732820403
        ],
        "grpIDList": [
          1677867563,
          1677867563
        ],
        "useGrpId": true,
        "countDownGrpId": 1677867560
      }
    ],
    [
      {
        "$type": "FJKIHHKJLMJ",
        "type": "CAMERA_MOVE",
        "duration": 0.5,
        "actionId": 140,
        "camPosOffset": {
          "x": -1417.7449951171875,
          "y": -27.070999145507812,
          "z": 5608.22705078125
        },
        "camForwardTargetOffset": {
          "x": -1417.9010009765625,
          "y": -27.034000396728516,
          "z": 5607.240234375
        },
        "camFov": 25.0,
        "lerpPattern": 6,
        "cameraBlendType": "EaseInOutCubic",
        "NJBNNOMLKCK": {},
        "needZAxisRotate": true,
        "openCameraDither": false,
        "targetNpcAlias": "",
        "closeTreeLeafDither": true,
        "KJOEFBPOIIH": "",
        "IICFKKEBIEC": "",
        "EGEHEJEBLBJ": ""
      },
      {
        "$type": "PKKMAMONGEO",
        "type": "DIALOG",
        "aliasList": [
          "20842"
        ],
        "actionId": 110,
        "dialogID": 732820404,
        "protectTime": 0.5
      },
      {
        "$type": "FJKIHHKJLMJ",
        "type": "CAMERA_MOVE",
        "delayTime": 0.10000000149011612,
        "duration": 5.75,
        "actionId": 141,
        "camPosOffset": {
          "x": -1417.8929443359375,
          "y": -27.072999954223633,
          "z": 5608.244140625
        },
        "camForwardTargetOffset": {
          "x": -1418.0489501953125,
          "y": -27.035999298095703,
          "z": 5607.2568359375
        },
        "camFov": 25.0,
        "lerpPattern": 2,
        "cameraBlendType": "EaseOutQuad",
        "NJBNNOMLKCK": {},
        "needZAxisRotate": true,
        "openCameraDither": false,
        "targetNpcAlias": "",
        "closeTreeLeafDither": true,
        "KJOEFBPOIIH": "",
        "IICFKKEBIEC": "",
        "EGEHEJEBLBJ": ""
      }
    ],
    [
      {
        "$type": "FJKIHHKJLMJ",
        "type": "CAMERA_MOVE",
        "duration": 0.5,
        "actionId": 142,
        "camPosOffset": {
          "x": -1417.1070556640625,
          "y": -26.13800048828125,
          "z": 5607.36181640625
        },
        "camForwardTargetOffset": {
          "x": -1417.553955078125,
          "y": -26.875999450683594,
          "z": 5606.85595703125
        },
        "camFov": 50.0,
        "lerpPattern": 6,
        "cameraBlendType": "EaseInOutCubic",
        "NJBNNOMLKCK": {},
        "needZAxisRotate": true,
        "openCameraDither": false,
        "targetNpcAlias": "",
        "closeTreeLeafDither": true,
        "KJOEFBPOIIH": "",
        "IICFKKEBIEC": "",
        "EGEHEJEBLBJ": ""
      },
      {
        "$type": "PKKMAMONGEO",
        "type": "DIALOG",
        "aliasList": [
          "20842"
        ],
        "actionId": 112,
        "dialogID": 732820405,
        "protectTime": 0.5
      },
      {
        "$type": "FJKIHHKJLMJ",
        "type": "CAMERA_MOVE",
        "delayTime": 0.10000000149011612,
        "duration": 5.75,
        "actionId": 143,
        "camPosOffset": {
          "x": -1416.864990234375,
          "y": -25.74799919128418,
          "z": 5607.56396484375
        },
        "camForwardTargetOffset": {
          "x": -1417.2740478515625,
          "y": -26.5,
          "z": 5607.046875
        },
        "camFov": 50.0,
        "lerpPattern": 2,
        "cameraBlendType": "EaseOutQuad",
        "NJBNNOMLKCK": {},
        "needZAxisRotate": true,
        "openCameraDither": false,
        "targetNpcAlias": "",
        "closeTreeLeafDither": true,
        "KJOEFBPOIIH": "",
        "IICFKKEBIEC": "",
        "EGEHEJEBLBJ": ""
      }
    ],
    [
      {
        "$type": "FJKIHHKJLMJ",
        "type": "CAMERA_MOVE",
        "duration": 0.5,
        "actionId": 148,
        "camPosOffset": {
          "x": -1389.0279541015625,
          "y": 30.54599952697754,
          "z": 5613.162109375
        },
        "camForwardTargetOffset": {
          "x": -1388.740966796875,
          "y": 30.687999725341797,
          "z": 5614.10888671875
        },
        "camFov": 55.0,
        "lerpPattern": 6,
        "cameraBlendType": "EaseInOutCubic",
        "NJBNNOMLKCK": {},
        "needZAxisRotate": true,
        "openCameraDither": false,
        "targetNpcAlias": "",
        "closeTreeLeafDither": true,
        "KJOEFBPOIIH": "",
        "IICFKKEBIEC": "",
        "EGEHEJEBLBJ": ""
      },
      {
        "$type": "MoleMole.Config.ConfigTeleportToAction",
        "type": "TELEPORT_TO",
        "aliasList": [
          "Avatar"
        ],
        "actionId": 150,
        "position": {
          "x": -1418.6619873046875,
          "y": -28.50200080871582,
          "z": 5602.18408203125
        },
        "forward": {
          "x": 0.9229999780654907,
          "y": 0.16099999845027924,
          "z": 4.513000011444092
        },
        "openLongDisTeleport": true,
        "_posBindMovingTargetKey": "",
        "_forwardBindMovingTargetKey": ""
      },
      {
        "$type": "PKKMAMONGEO",
        "type": "DIALOG",
        "aliasList": [
          "1005"
        ],
        "actionId": 114,
        "dialogID": 732820406,
        "protectTime": 0.5
      },
      {
        "$type": "MoleMole.Config.ConfigTeleportToAction",
        "type": "TELEPORT_TO",
        "aliasList": [
          "1005"
        ],
        "actionId": 151,
        "position": {
          "x": -1419.2950439453125,
          "y": -28.50200080871582,
          "z": 5602.3388671875
        },
        "forward": {
          "x": 0.3449999988079071,
          "z": 1.1119999885559082
        },
        "openLongDisTeleport": true,
        "_posBindMovingTargetKey": "",
        "_forwardBindMovingTargetKey": ""
      },
      {
        "$type": "FJKIHHKJLMJ",
        "type": "CAMERA_MOVE",
        "delayTime": 0.10000000149011612,
        "duration": 8.25,
        "actionId": 146,
        "camPosOffset": {
          "x": -1392.5469970703125,
          "y": 30.808000564575195,
          "z": 5614.18896484375
        },
        "camForwardTargetOffset": {
          "x": -1392.260009765625,
          "y": 30.950000762939453,
          "z": 5615.13623046875
        },
        "camFov": 55.0,
        "lerpPattern": 2,
        "cameraBlendType": "EaseOutQuad",
        "NJBNNOMLKCK": {},
        "needZAxisRotate": true,
        "openCameraDither": false,
        "targetNpcAlias": "",
        "closeTreeLeafDither": true,
        "KJOEFBPOIIH": "",
        "IICFKKEBIEC": "",
        "EGEHEJEBLBJ": ""
      }
    ],
    [
      {
        "$type": "FJKIHHKJLMJ",
        "type": "CAMERA_MOVE",
        "duration": 0.5,
        "actionId": 152,
        "camPosOffset": {
          "x": -1417.1610107421875,
          "y": -26.899999618530273,
          "z": 5607.9990234375
        },
        "camForwardTargetOffset": {
          "x": -1417.614990234375,
          "y": -27.02199935913086,
          "z": 5607.1162109375
        },
        "camFov": 30.0,
        "lerpPattern": 6,
        "cameraBlendType": "EaseInOutCubic",
        "NJBNNOMLKCK": {},
        "needZAxisRotate": true,
        "openCameraDither": false,
        "targetNpcAlias": "",
        "closeTreeLeafDither": true,
        "KJOEFBPOIIH": "",
        "IICFKKEBIEC": "",
        "EGEHEJEBLBJ": ""
      },
      {
        "$type": "PKKMAMONGEO",
        "type": "DIALOG",
        "aliasList": [
          "1005"
        ],
        "actionId": 116,
        "dialogID": 732820407,
        "protectTime": 0.5
      },
      {
        "$type": "LJLMDHDCAMK",
        "type": "LOOK_AT",
        "aliasList": [
          "1005"
        ],
        "actionId": 153,
        "enableHead": true,
        "useTargetPos": true,
        "enableAbsolute": true,
        "targetPosition": {
          "x": -1417.8590087890625,
          "y": -26.95599937438965,
          "z": 5606.9912109375
        },
        "headTurnTime": 0.5,
        "targetNpcAlias": "",
        "lookAtTargetType": "NONE",
        "openBackProtect": true,
        "targetNpcLookAtPoint": "",
        "OAFJBHJHLJG": ""
      },
      {
        "$type": "FABLGECDBCH",
        "type": "BODY_LANG",
        "aliasList": [
          "1005"
        ],
        "actionId": 154,
        "bodyLangParam": 1300,
        "forceDoFreeStyle": true,
        "canDoRepeatFreeStyle": false,
        "cantBackToIdleWhenSitLoop": true,
        "eventPatternSuiteKey": "",
        "FOHHKFAIAAJ": ""
      },
      {
        "$type": "FJKIHHKJLMJ",
        "type": "CAMERA_MOVE",
        "delayTime": 0.10000000149011612,
        "duration": 6.257999897003174,
        "actionId": 149,
        "camPosOffset": {
          "x": -1416.97998046875,
          "y": -26.89900016784668,
          "z": 5607.89599609375
        },
        "camForwardTargetOffset": {
          "x": -1417.4759521484375,
          "y": -27.020999908447266,
          "z": 5607.0361328125
        },
        "camFov": 30.0,
        "lerpPattern": 2,
        "cameraBlendType": "EaseOutQuad",
        "NJBNNOMLKCK": {},
        "needZAxisRotate": true,
        "openCameraDither": false,
        "targetNpcAlias": "",
        "closeTreeLeafDither": true,
        "KJOEFBPOIIH": "",
        "IICFKKEBIEC": "",
        "EGEHEJEBLBJ": ""
      },
      {
        "$type": "LJLMDHDCAMK",
        "type": "LOOK_AT",
        "delayTime": 0.382999986410141,
        "aliasList": [
          "20842"
        ],
        "actionId": 158,
        "enableHead": true,
        "useTargetPos": true,
        "enableAbsolute": true,
        "targetPosition": {
          "x": -1416.990966796875,
          "y": -27.106000900268555,
          "z": 5606.8837890625
        },
        "headTurnTime": 0.5,
        "targetNpcAlias": "",
        "lookAtTargetType": "NONE",
        "openBackProtect": true,
        "targetNpcLookAtPoint": "",
        "OAFJBHJHLJG": ""
      },
      {
        "$type": "FABLGECDBCH",
        "type": "BODY_LANG",
        "delayTime": 3.2079999446868896,
        "aliasList": [
          "1005"
        ],
        "actionId": 155,
        "bodyLangParam": 1110,
        "forceDoFreeStyle": true,
        "canDoRepeatFreeStyle": false,
        "cantBackToIdleWhenSitLoop": true,
        "eventPatternSuiteKey": "",
        "FOHHKFAIAAJ": ""
      },
      {
        "$type": "FABLGECDBCH",
        "type": "BODY_LANG",
        "delayTime": 5.007999897003174,
        "aliasList": [
          "1005"
        ],
        "actionId": 156,
        "isContinue": true,
        "forceDoFreeStyle": true,
        "canDoRepeatFreeStyle": false,
        "cantBackToIdleWhenSitLoop": true,
        "eventPatternSuiteKey": "",
        "FOHHKFAIAAJ": ""
      }
    ],
    [
      {
        "$type": "PKKMAMONGEO",
        "type": "DIALOG",
        "aliasList": [
          "20842"
        ],
        "actionId": 118,
        "dialogID": 732820408,
        "protectTime": 1.0
      },
      {
        "$type": "LLGANGLOEEO",
        "type": "STEER_TO",
        "duration": 1.0,
        "aliasList": [
          "20842"
        ],
        "actionId": 159,
        "steerType": "ABSOLUTE",
        "steerDir": {
          "x": -1418.7080078125,
          "y": -28.50200080871582,
          "z": 5604.14501953125
        },
        "useSteerAnim": true,
        "interruptFreestyle": true,
        "forceSteer": true,
        "targetNpcAlias": "",
        "ignoreY": true,
        "fixInterNull": true,
        "OAFJBHJHLJG": ""
      },
      {
        "$type": "LJLMDHDCAMK",
        "type": "LOOK_AT",
        "aliasList": [
          "20842"
        ],
        "actionId": 160,
        "enableHead": true,
        "useTargetPos": true,
        "enableAbsolute": true,
        "targetPosition": {
          "x": -1418.7020263671875,
          "y": -27.062999725341797,
          "z": 5602.080078125
        },
        "headTurnTime": 0.5,
        "targetNpcAlias": "",
        "lookAtTargetType": "NONE",
        "openBackProtect": true,
        "targetNpcLookAtPoint": "",
        "OAFJBHJHLJG": ""
      },
      {
        "$type": "FABLGECDBCH",
        "type": "BODY_LANG",
        "aliasList": [
          "1005"
        ],
        "actionId": 157,
        "isContinue": true,
        "forceDoFreeStyle": true,
        "canDoRepeatFreeStyle": false,
        "cantBackToIdleWhenSitLoop": true,
        "eventPatternSuiteKey": "",
        "FOHHKFAIAAJ": ""
      },
      {
        "$type": "FJKIHHKJLMJ",
        "type": "CAMERA_MOVE",
        "delayTime": 0.6330000162124634,
        "duration": 0.5,
        "actionId": 170,
        "camPosOffset": {
          "x": -1418.218994140625,
          "y": -28.07900047302246,
          "z": 5600.4521484375
        },
        "camForwardTargetOffset": {
          "x": -1418.383056640625,
          "y": -27.910999298095703,
          "z": 5601.423828125
        },
        "camFov": 50.0,
        "lerpPattern": 6,
        "cameraBlendType": "EaseInOutCubic",
        "NJBNNOMLKCK": {},
        "needZAxisRotate": true,
        "openCameraDither": false,
        "targetNpcAlias": "",
        "closeTreeLeafDither": true,
        "KJOEFBPOIIH": "",
        "IICFKKEBIEC": "",
        "EGEHEJEBLBJ": ""
      },
      {
        "$type": "FJKIHHKJLMJ",
        "type": "CAMERA_MOVE",
        "delayTime": 0.7329999804496765,
        "duration": 6.958000183105469,
        "actionId": 171,
        "camPosOffset": {
          "x": -1417.6209716796875,
          "y": -28.09000015258789,
          "z": 5600.4990234375
        },
        "camForwardTargetOffset": {
          "x": -1417.9620361328125,
          "y": -27.91900062561035,
          "z": 5601.4228515625
        },
        "camFov": 50.0,
        "lerpPattern": 2,
        "cameraBlendType": "EaseOutQuad",
        "NJBNNOMLKCK": {},
        "needZAxisRotate": true,
        "openCameraDither": false,
        "targetNpcAlias": "",
        "closeTreeLeafDither": true,
        "KJOEFBPOIIH": "",
        "IICFKKEBIEC": "",
        "EGEHEJEBLBJ": ""
      }
    ],
    [
      {
        "$type": "PKKMAMONGEO",
        "type": "DIALOG",
        "aliasList": [
          "20842"
        ],
        "actionId": 120,
        "dialogID": 732820409,
        "protectTime": 0.5
      },
      {
        "$type": "FABLGECDBCH",
        "type": "BODY_LANG",
        "aliasList": [
          "20842"
        ],
        "actionId": 163,
        "bodyLangParam": 1180,
        "forceDoFreeStyle": true,
        "canDoRepeatFreeStyle": false,
        "cantBackToIdleWhenSitLoop": true,
        "eventPatternSuiteKey": "",
        "FOHHKFAIAAJ": ""
      },
      {
        "$type": "HDGKHDNFMIM",
        "type": "DIALOG_SELECT",
        "delayTime": 0.4000000059604645,
        "aliasList": [
          "Avatar"
        ],
        "actionId": 121,
        "dialogIDList": [
          732820410
        ],
        "grpIDList": [
          1677867569
        ],
        "useGrpId": true,
        "countDownGrpId": 1677867560
      },
      {
        "$type": "FABLGECDBCH",
        "type": "BODY_LANG",
        "delayTime": 2.450000047683716,
        "aliasList": [
          "20842"
        ],
        "actionId": 164,
        "isContinue": true,
        "forceDoFreeStyle": true,
        "canDoRepeatFreeStyle": false,
        "cantBackToIdleWhenSitLoop": true,
        "eventPatternSuiteKey": "",
        "FOHHKFAIAAJ": ""
      }
    ],
    [
      {
        "$type": "FJKIHHKJLMJ",
        "type": "CAMERA_MOVE",
        "duration": 0.5,
        "actionId": 172,
        "camPosOffset": {
          "x": -1417.237060546875,
          "y": -26.511999130249023,
          "z": 5606.0439453125
        },
        "camForwardTargetOffset": {
          "x": -1417.866943359375,
          "y": -26.908000946044922,
          "z": 5606.7119140625
        },
        "camFov": 20.0,
        "lerpPattern": 6,
        "cameraBlendType": "EaseInOutCubic",
        "NJBNNOMLKCK": {},
        "needZAxisRotate": true,
        "openCameraDither": false,
        "targetNpcAlias": "",
        "closeTreeLeafDither": true,
        "KJOEFBPOIIH": "",
        "IICFKKEBIEC": "",
        "EGEHEJEBLBJ": ""
      },
      {
        "$type": "PKKMAMONGEO",
        "type": "DIALOG",
        "aliasList": [
          "20842"
        ],
        "actionId": 123,
        "dialogID": 732820411,
        "protectTime": 0.5
      },
      {
        "$type": "FABLGECDBCH",
        "type": "BODY_LANG",
        "aliasList": [
          "20842"
        ],
        "actionId": 166,
        "isContinue": true,
        "forceDoFreeStyle": true,
        "canDoRepeatFreeStyle": false,
        "cantBackToIdleWhenSitLoop": true,
        "eventPatternSuiteKey": "",
        "FOHHKFAIAAJ": ""
      },
      {
        "$type": "FJKIHHKJLMJ",
        "type": "CAMERA_MOVE",
        "delayTime": 0.10000000149011612,
        "duration": 4.150000095367432,
        "actionId": 168,
        "camPosOffset": {
          "x": -1417.239990234375,
          "y": -26.554000854492188,
          "z": 5606.18505859375
        },
        "camForwardTargetOffset": {
          "x": -1417.8699951171875,
          "y": -26.950000762939453,
          "z": 5606.85400390625
        },
        "camFov": 20.0,
        "lerpPattern": 2,
        "cameraBlendType": "EaseOutQuad",
        "NJBNNOMLKCK": {},
        "needZAxisRotate": true,
        "openCameraDither": false,
        "targetNpcAlias": "",
        "closeTreeLeafDither": true,
        "KJOEFBPOIIH": "",
        "IICFKKEBIEC": "",
        "EGEHEJEBLBJ": ""
      },
      {
        "$type": "FABLGECDBCH",
        "type": "BODY_LANG",
        "delayTime": 0.40799999237060547,
        "aliasList": [
          "20842"
        ],
        "actionId": 167,
        "bodyLangParam": 4040,
        "forceDoFreeStyle": true,
        "canDoRepeatFreeStyle": false,
        "cantBackToIdleWhenSitLoop": true,
        "eventPatternSuiteKey": "",
        "FOHHKFAIAAJ": ""
      }
    ],
    [
      {
        "$type": "MoleMole.Config.ConfigSimpleBlackScreenAction",
        "type": "SIMPLE_BLACK_SCREEN",
        "actionId": 124,
        "durationToBlack": 0.5,
        "durationKeepBlack": 1.0,
        "durationFromBlack": 0.5,
        "textMapID": ""
      },
      {
        "$type": "MoleMole.Config.ConfigTimeProtectAction",
        "type": "TIME_PROTECT",
        "duration": 0.699999988079071,
        "actionId": 125
      },
      {
        "$type": "FJKIHHKJLMJ",
        "type": "CAMERA_MOVE",
        "delayTime": 0.5,
        "duration": 0.10000000149011612,
        "actionId": 128,
        "camPosOffset": {
          "x": -1419.8349609375,
          "y": -26.850000381469727,
          "z": 5599.72216796875
        },
        "camForwardTargetOffset": {
          "x": -1419.406005859375,
          "y": -27.075000762939453,
          "z": 5600.59716796875
        },
        "lerpPattern": 6,
        "cameraBlendType": "EaseInOutCubic",
        "NJBNNOMLKCK": {},
        "needZAxisRotate": true,
        "openCameraDither": false,
        "targetNpcAlias": "",
        "closeTreeLeafDither": true,
        "KJOEFBPOIIH": "",
        "IICFKKEBIEC": "",
        "EGEHEJEBLBJ": ""
      },
      {
        "$type": "MoleMole.Config.ConfigVisibleInterAction",
        "type": "VISIBLE",
        "delayTime": 0.6000000238418579,
        "aliasList": [
          "20842"
        ],
        "actionId": 169,
        "_extraParam": ""
      }
    ]
  ],
  "groupId": [
    {
      "grpId": 1677867561,
      "nextGrpId": 1677867562
    },
    {
      "index": 1,
      "grpId": 1677867562,
      "nextGrpId": 1677867563
    },
    {
      "index": 2,
      "grpId": 1677867563,
      "nextGrpId": 1677867564
    },
    {
      "index": 3,
      "grpId": 1677867564,
      "nextGrpId": 1677867565
    },
    {
      "index": 4,
      "grpId": 1677867565,
      "nextGrpId": 1677867566
    },
    {
      "index": 5,
      "grpId": 1677867566,
      "nextGrpId": 1677867567
    },
    {
      "index": 6,
      "grpId": 1677867567,
      "nextGrpId": 1677867568
    },
    {
      "index": 7,
      "grpId": 1677867568,
      "nextGrpId": 1677867569
    },
    {
      "index": 8,
      "grpId": 1677867569,
      "nextGrpId": 474286887
    },
    {
      "index": 9,
      "grpId": 474286887,
      "nextGrpId": 474286888
    }
  ],
  "freeStyleDic": {
    "20842": [
      1180,
      4040
    ]
  }
}