{
  "luaDataPath": "",
  "entityBan": "",
  "disableNpcLod": true,
  "isAutoBanNpc": true,
  "startFade": {
    "startFadeOutDuration": 0.0
  },
  "endFade": {
    "startFadeOutDuration": 0.0
  },
  "actors": [
    {
      "alias": "Avatar",
      "visible": true,
      "bornPointName": "",
      "relativePosNpcAlias": "",
      "_bindMovingTargetKey": ""
    },
    {
      "configID": 1005,
      "alias": "1005",
      "visible": true,
      "bornPointName": "",
      "relativePos": {
        "x": 0.5,
        "z": -0.5
      },
      "relativePosNpcAlias": "",
      "_bindMovingTargetKey": ""
    },
    {
      "configID": 20611,
      "alias": "20611",
      "visible": true,
      "bornPointName": "",
      "relativePosNpcAlias": "",
      "_bindMovingTargetKey": ""
    }
  ],
  "group": [
    [
      {
        "$type": "MoleMole.Config.ConfigTimeProtectAction",
        "type": "TIME_PROTECT",
        "duration": 0.10000000149011612
      }
    ],
    [
      {
        "$type": "PKKMAMONGEO",
        "type": "DIALOG",
        "aliasList": [
          "20611"
        ],
        "dialogID": 790132901,
        "protectTime": 0.5
      }
    ],
    [
      {
        "$type": "PKKMAMONGEO",
        "type": "DIALOG",
        "aliasList": [
          "20611"
        ],
        "dialogID": 790132902,
        "protectTime": 0.5
      }
    ],
    [
      {
        "$type": "PKKMAMONGEO",
        "type": "DIALOG",
        "aliasList": [
          "20611"
        ],
        "dialogID": 790132903,
        "protectTime": 0.5
      }
    ],
    [
      {
        "$type": "PKKMAMONGEO",
        "type": "DIALOG",
        "aliasList": [
          "20611"
        ],
        "dialogID": 790132904,
        "protectTime": 0.5
      }
    ],
    [
      {
        "$type": "PKKMAMONGEO",
        "type": "DIALOG",
        "aliasList": [
          "20611"
        ],
        "dialogID": 790132905,
        "protectTime": 0.5
      }
    ],
    [
      {
        "$type": "PKKMAMONGEO",
        "type": "DIALOG",
        "aliasList": [
          "20611"
        ],
        "dialogID": 790132906,
        "protectTime": 0.5
      }
    ],
    [
      {
        "$type": "PKKMAMONGEO",
        "type": "DIALOG",
        "aliasList": [
          "20611"
        ],
        "dialogID": 790132907,
        "protectTime": 0.5
      }
    ],
    [
      {
        "$type": "PKKMAMONGEO",
        "type": "DIALOG",
        "aliasList": [
          "20611"
        ],
        "dialogID": 790132908,
        "protectTime": 0.5
      }
    ],
    [
      {
        "$type": "PKKMAMONGEO",
        "type": "DIALOG",
        "aliasList": [
          "20611"
        ],
        "dialogID": 790132909,
        "protectTime": 0.5
      }
    ],
    [
      {
        "$type": "MoleMole.Config.ConfigTimeProtectAction",
        "type": "TIME_PROTECT",
        "duration": 0.10000000149011612
      },
      {
        "$type": "MoleMole.Config.ConfigTimeProtectAction",
        "type": "TIME_PROTECT",
        "duration": 0.699999988079071
      }
    ]
  ],
  "groupId": [
    {
      "grpId": 1420430804,
      "nextGrpId": 1420430805
    },
    {
      "index": 1,
      "grpId": 1420430805,
      "nextGrpId": 1420430806
    },
    {
      "index": 2,
      "grpId": 1420430806,
      "nextGrpId": 1420430807
    },
    {
      "index": 3,
      "grpId": 1420430807,
      "nextGrpId": 1420430808
    },
    {
      "index": 4,
      "grpId": 1420430808,
      "nextGrpId": 1420430809
    },
    {
      "index": 5,
      "grpId": 1420430809,
      "nextGrpId": 1420430810
    },
    {
      "index": 6,
      "grpId": 1420430810,
      "nextGrpId": 1420430811
    },
    {
      "index": 7,
      "grpId": 1420430811,
      "nextGrpId": 1420430812
    },
    {
      "index": 8,
      "grpId": 1420430812,
      "nextGrpId": 1083682012
    },
    {
      "index": 9,
      "grpId": 1083682012,
      "nextGrpId": 1083682013
    },
    {
      "index": 10,
      "grpId": 1083682013,
      "nextGrpId": 1083682014
    }
  ]
}