{
  "luaDataPath": "",
  "entityBan": "",
  "group": [
    [
      {
        "$type": "AFKFCCGJEAO",
        "type": "CUTSCENE",
        "cutsceneCfg": {
          "$type": "IPDHCHPBOFB",
          "damageRatio": "TIME_LINE_PREFAB",
          "luaDataPath": "",
          "resPath": "ART/CameraAni/Quest/Ca_Quest_MQ305_ShowWendy",
          "castListPath": "",
          "entityBan": "",
          "startOffset": {
            "x": 2048.0,
            "z": -5120.0
          }
        }
      }
    ]
  ]
}