{
  "luaDataPath": "",
  "entityBan": "",
  "group": [
    [
      {
        "$type": "AFKFCCGJEAO",
        "type": "CUTSCENE",
        "cutsceneCfg": {
          "$type": "IPDHCHPBOFB",
          "damageRatio": "TIME_LINE_PREFAB",
          "luaDataPath": "",
          "resPath": "ART/CameraAni/Quest/Ca_Quest_AmborSQ_ShowEndPoint3",
          "castListPath": "",
          "entityBan": ""
        }
      }
    ]
  ]
}