{
  "name": "Tutorial_2_1",
  "tasks": [
    {
      "canOperateBeforeEnterTask": true,
      "enterCheck": {
        "$type": "KGLNGBGKBOE",
        "phaseType": "GcgPhaseOnStage"
      },
      "states": [
        {
          "action": {
            "$type": "MFLHLJEPKNI",
            "textPos": "BL",
            "textIDList": [
              30111011,
              30111012,
              30111013,
              30111014
            ],
            "iconID": 10000039
          }
        },
        {
          "action": {
            "$type": "GHJKNLFOHPA",
            "damageRatio": "CommonTips",
            "ANJBPLIOPCP": "UI_GCG_PHASE_CHOOSE_CHAR"
          }
        }
      ],
      "exitWhenFinishAll": true
    },
    {
      "canOperateBeforeEnterTask": true,
      "enterCheck": {
        "$type": "KGLNGBGKBOE",
        "phaseType": "GcgPhaseMain"
      },
      "states": [
        {
          "conditions": [
            {
              "$type": "EBGMCBFLGJD"
            }
          ],
          "action": {
            "$type": "HHELBPIIBOM",
            "textID": 30100013,
            "uiConfigList": [
              {
                "uiType": "UseHandHintRegion",
                "textID": 30100013,
                "textPos": "T"
              },
              {
                "uiType": "RebootHintRegion",
                "textID": 30100014,
                "textPos": "L"
              }
            ],
            "noFadeIn": true
          }
        }
      ],
      "noExit": true
    }
  ]
}