{
  "name": "Tutorial_1_5",
  "tasks": [
    {
      "enterCheck": {
        "$type": "MLAAIHBLJNA",
        "checkType": "SelfCardDeckToShow"
      },
      "states": [
        {
          "action": {
            "$type": "MFLHLJEPKNI",
            "textPos": "BL",
            "textIDList": [
              30105011,
              30105012
            ],
            "iconID": 10000039
          }
        },
        {
          "conditions": [
            {
              "$type": "DJACHDNIGJO"
            }
          ],
          "action": {
            "$type": "HHELBPIIBOM",
            "textID": 30100002,
            "textPos": "BL",
            "uiConfig": {
              "uiType": "TogSwitch"
            }
          }
        },
        {
          "conditions": [
            {
              "$type": "EOAPMADNOFP",
              "condition": {
                "$type": "COJOCHLAEEE",
                "cardConfigList": [
                  {
                    "configID": 321006,
                    "isSelf": true,
                    "zoneType": "GcgZoneHand"
                  },
                  {
                    "configID": 333005,
                    "isSelf": true,
                    "zoneType": "GcgZoneHand"
                  }
                ]
              }
            }
          ],
          "action": {
            "$type": "CMHHDPBGLEC",
            "textID": 30105013,
            "textPos": "B",
            "configIDList": [
              321006,
              333005
            ]
          }
        },
        {
          "conditions": [
            {
              "$type": "COJOCHLAEEE",
              "cardConfigList": [
                {
                  "configID": 321006,
                  "isSelf": true,
                  "zoneType": "GcgZoneHand"
                },
                {
                  "configID": 333005,
                  "isSelf": true,
                  "zoneType": "GcgZoneHand"
                }
              ]
            }
          ],
          "action": {
            "$type": "HHELBPIIBOM",
            "textID": 30105014,
            "textPos": "T",
            "uiConfig": {
              "uiType": "BtnOK"
            }
          }
        }
      ],
      "exitOperation": {
        "$type": "OLJFEHNAGNE",
        "errorID": 30105013,
        "configIDList": [
          321006,
          333005
        ]
      }
    },
    {
      "enterCheck": {
        "$type": "KGLNGBGKBOE",
        "phaseType": "GcgPhaseOnStage"
      },
      "states": [
        {
          "action": {
            "$type": "MFLHLJEPKNI",
            "textPos": "BL",
            "textIDList": [
              30105021,
              30105022,
              30105023
            ],
            "iconID": 10000039
          }
        },
        {
          "action": {
            "$type": "GHJKNLFOHPA",
            "damageRatio": "CommonTips",
            "ANJBPLIOPCP": "UI_GCG_PHASE_CHOOSE_CHAR"
          }
        }
      ],
      "exitWhenFinishAll": true
    },
    {
      "canOperateBeforeEnterTask": true,
      "enterCheck": {
        "$type": "KGLNGBGKBOE",
        "phaseType": "GcgPhaseMain"
      },
      "states": [
        {
          "action": {
            "$type": "MFLHLJEPKNI",
            "textPos": "BL",
            "textIDList": [
              30105031,
              30105032
            ],
            "iconID": 10000039
          }
        },
        {
          "conditions": [
            {
              "$type": "OBCLFMJKPAE",
              "uiConfig": {
                "uiType": "DetailPanelIntention"
              }
            }
          ],
          "action": {
            "$type": "MFLHLJEPKNI",
            "textPos": "BL",
            "textIDList": [
              30105035,
              30105036,
              30105037,
              30105038
            ],
            "iconID": 10000039
          }
        },
        {
          "conditions": [
            {
              "$type": "OBCLFMJKPAE",
              "uiConfig": {
                "uiType": "DetailPanelIntention"
              }
            }
          ],
          "action": {
            "$type": "GHJKNLFOHPA",
            "ANJBPLIOPCP": "UI_GCG_TURN_YOU"
          }
        },
        {
          "conditions": [
            {
              "$type": "EOAPMADNOFP",
              "condition": {
                "$type": "OBCLFMJKPAE",
                "uiConfig": {
                  "uiType": "DetailPanelIntention"
                }
              }
            }
          ],
          "action": {
            "$type": "HHELBPIIBOM",
            "textID": 30105034,
            "textPos": "L",
            "uiConfig": {
              "uiType": "BtnIntention"
            }
          }
        }
      ],
      "exitWhenFinishAll": true
    },
    {
      "canOperateBeforeEnterTask": true,
      "enterCheck": {
        "$type": "MLAAIHBLJNA",
        "checkType": "SelfCardDeckToShow"
      },
      "states": [
        {
          "action": {
            "$type": "MFLHLJEPKNI",
            "textIDList": [
              30105041,
              30105042,
              30105043
            ],
            "iconID": 10000039
          }
        }
      ],
      "exitWhenFinishAll": true
    },
    {
      "canOperateBeforeEnterTask": true,
      "enterCheck": {
        "$type": "KGLNGBGKBOE",
        "phaseType": "GcgPhaseMain"
      },
      "states": [
        {
          "conditions": [
            {
              "$type": "EBGMCBFLGJD"
            }
          ],
          "action": {
            "$type": "HHELBPIIBOM",
            "textID": 30100013,
            "uiConfigList": [
              {
                "uiType": "UseHandHintRegion",
                "textID": 30100013,
                "textPos": "T"
              },
              {
                "uiType": "RebootHintRegion",
                "textID": 30100014,
                "textPos": "L"
              }
            ],
            "noFadeIn": true
          }
        }
      ],
      "noExit": true
    }
  ]
}