{
  "1": {
    "name": "sample",
    "startEffect": "eff_in",
    "moveEffect": "eff_move",
    "stopEffect": "eff_out",
    "toPlayMode": "AvatarTransMove"
  },
  "10": {
    "name": "Old_MarkType_1",
    "startEffect": "Eff_Property_Ani_Prop_TeleportHighway_01_In",
    "moveEffect": "Eff_Property_Ani_Prop_TeleportHighway_01_Move",
    "stopEffect": "Eff_Property_Ani_Prop_TeleportHighway_01_Out",
    "canChangeAvatar": false,
    "canDoSkill": false,
    "toPlayMode": "AvatarTransMove"
  },
  "11": {
    "name": "Old_MarkType_1",
    "startEffect": "Eff_SceneObj_Singularity_01_In",
    "moveEffect": "Eff_SceneObj_Singularity_01_Move",
    "stopEffect": "Eff_SceneObj_Singularity_01_Out",
    "canChangeAvatar": false,
    "canDoSkill": false,
    "toPlayMode": "AvatarTransMove"
  },
  "100": {
    "name": "rotDungeon",
    "startEffect": "Eff_SceneObj_CYSingularity_01_In",
    "moveEffect": "Eff_SceneObj_CYSingularity_01_Move",
    "stopEffect": "Eff_SceneObj_CYSingularity_01_Out",
    "changeToEnterPlayModeWhenExit": true,
    "ignoreCollisionWhenEnter": true,
    "toPlayMode": "AvatarTransMove_NoJump",
    "MOKBIKEEHMJ": "Arc"
  },
  "300": {
    "name": "FlowerPortal",
    "startEffect": "",
    "moveEffect": "Eff_SceneObj_FlowerPortal_01_Self",
    "stopEffect": "Eff_SceneObj_FlowerPortal_01_Self_Recovery",
    "changeToEnterPlayModeWhenExit": true,
    "ignoreCollisionWhenEnter": true,
    "toPlayMode": "AvatarTransMove_NoJump"
  },
  "301": {
    "name": "FlowerPortalV3_6",
    "startEffect": "",
    "moveEffect": "Eff_SceneObj_FlowerPortal_01_Self",
    "stopEffect": "Eff_SceneObj_FlowerPortal_01_Self_Recovery",
    "changeToEnterPlayModeWhenExit": true,
    "hideAvatarCollision": true,
    "toPlayMode": "AvatarTransMove",
    "MOKBIKEEHMJ": "Rot",
    "AHOIELDDNJK": 75.0
  },
  "400": {
    "name": "PacMan_Die_Teleport",
    "startEffect": "Eff_SceneObj_CYSingularity_01_In",
    "moveEffect": "Eff_SceneObj_CYSingularity_01_Move",
    "stopEffect": "Eff_SceneObj_CYSingularity_01_Out",
    "changeToEnterPlayModeWhenExit": true,
    "ignoreCollision": true,
    "ignoreCollisionWhenEnter": true,
    "skipStateCheck": true,
    "canChangeAvatar": false,
    "toPlayMode": "AvatarTransMove_NoJump"
  },
  "401": {
    "name": "Bubble_Teleport",
    "startEffect": "",
    "moveEffect": "Eff_ScenObj_Prop_LSLittleBubble_01_MoveAvatar",
    "stopEffect": "Eff_ScenObj_Prop_LSLittleBubble_01_Die",
    "changeToEnterPlayModeWhenExit": true,
    "ignoreCollisionWhenEnter": true,
    "skipStateCheck": true,
    "canChangeAvatar": false,
    "canDoSkill": false,
    "toPlayMode": "AvatarTransMove_NoJump"
  },
  "402": {
    "name": "ArkheCannon",
    "BCFNEFHMIED": 5.0,
    "startEffect": "",
    "moveEffect": "Eff_SceneObj_FDCannon_03",
    "stopEffect": "Eff_SceneObj_FDCannon_04",
    "changeToEnterPlayModeWhenExit": true,
    "ignoreCollisionWhenEnter": true,
    "canChangeAvatar": false,
    "canDoSkill": false,
    "toPlayMode": "AvatarTransMove_NoJump",
    "MOKBIKEEHMJ": "Rot",
    "AHOIELDDNJK": 360.0
  },
  "431": {
    "name": "FilmfestBallGame",
    "startEffect": "Eff_SceneObj_CYSingularity_01_In",
    "moveEffect": "Eff_SceneObj_CYSingularity_01_Move",
    "stopEffect": "Eff_SceneObj_CYSingularity_01_Out",
    "changeToEnterPlayModeWhenExit": true,
    "ignoreCollision": true,
    "ignoreCollisionWhenEnter": true,
    "skipStateCheck": true,
    "canChangeAvatar": false,
    "toPlayMode": "AvatarTransMove_NoJump"
  },
  "440": {
    "name": "CarpCannon",
    "BCFNEFHMIED": 5.0,
    "startEffect": "",
    "moveEffect": "Eff_SceneObj_CarpJumpBall_01_Fish",
    "stopEffect": "Eff_SceneObj_CarpJumpBall_01_MoveOut",
    "changeToEnterPlayModeWhenExit": true,
    "ignoreCollisionWhenEnter": true,
    "canChangeAvatar": false,
    "canDoSkill": false,
    "toPlayMode": "AvatarTransMove_NoJump",
    "MOKBIKEEHMJ": "Rot",
    "AHOIELDDNJK": 360.0
  },
  "480": {
    "name": "TeleLineStick",
    "startEffect": "Eff_SceneObj_Telelinestick_01_Switch",
    "moveEffect": "Eff_SceneObj_Telelinestick_01_Follow",
    "stopEffect": "Eff_SceneObj_Telelinestick_01_Dis",
    "changeToEnterPlayModeWhenExit": true,
    "ignoreCollision": true,
    "ignoreCollisionWhenEnter": true,
    "skipStateCheck": true,
    "canChangeAvatar": false,
    "canDoSkill": false,
    "toPlayMode": "AvatarTransMove_NoJump"
  },
  "481": {
    "name": "FloatingTrans",
    "startEffect": "Eff_Property_Ani_Prop_TeleportHighway_01_In",
    "moveEffect": "Eff_Property_Ani_Prop_TeleportHighway_01_Move",
    "stopEffect": "Eff_Property_Ani_Prop_TeleportHighway_01_Out",
    "skipStateCheck": true,
    "canChangeAvatar": false,
    "canDoSkill": false,
    "toPlayMode": "AvatarTransMove_NoJump",
    "MOKBIKEEHMJ": "Rot"
  },
  "501": {
    "name": "PhlogistonCrack",
    "startEffect": "",
    "moveEffect": "Eff_SceneObj_Drillhead_PhlogistonCrack_Forward_01",
    "stopEffect": "",
    "changeToEnterPlayModeWhenExit": true,
    "ignoreCollision": true,
    "ignoreCollisionWhenEnter": true,
    "canChangeAvatar": false,
    "toPlayMode": "AvatarTransMove_NoJump"
  }
}