{
  "blocks": [
    {
      "min": {
        "y": -1000.0
      },
      "max": {
        "x": 1024.0,
        "y": 2000.0,
        "z": 1024.0
      },
      "levelAreas": [
        {
          "id": 1,
          "level": 20,
          "polygonData": {
            "minArea": {
              "x": -1148.478515625,
              "z": -1110.374267578125
            },
            "maxArea": {
              "x": 2129.739013671875,
              "z": 1211.4453125
            },
            "roadPoints": [
              {
                "x": 2129.739013671875,
                "z": 1211.4453125
              },
              {
                "x": 2117.708984375,
                "z": -1110.374267578125
              },
              {
                "x": -1148.478515625,
                "z": -1104.359375
              },
              {
                "x": -1146.054931640625,
                "z": 140.549072265625
              },
              {
                "x": -283.7010498046875,
                "z": 485.9620056152344
              },
              {
                "x": 776.4501953125,
                "z": 1193.254150390625
              }
            ]
          }
        }
      ]
    },
    {
      "min": {
        "y": -1000.0,
        "z": -1024.0
      },
      "max": {
        "x": 1024.0,
        "y": 2000.0
      },
      "levelAreas": [
        {
          "id": 1,
          "level": 20,
          "polygonData": {
            "minArea": {
              "x": -1148.478515625,
              "z": -1110.374267578125
            },
            "maxArea": {
              "x": 2129.739013671875,
              "z": 1211.4453125
            },
            "roadPoints": [
              {
                "x": 2129.739013671875,
                "z": 1211.4453125
              },
              {
                "x": 2117.708984375,
                "z": -1110.374267578125
              },
              {
                "x": -1148.478515625,
                "z": -1104.359375
              },
              {
                "x": -1146.054931640625,
                "z": 140.549072265625
              },
              {
                "x": -283.7010498046875,
                "z": 485.9620056152344
              },
              {
                "x": 776.4501953125,
                "z": 1193.254150390625
              }
            ]
          }
        }
      ]
    },
    {
      "min": {
        "x": -1024.0,
        "y": -1000.0,
        "z": -1024.0
      },
      "max": {
        "y": 2000.0
      },
      "levelAreas": [
        {
          "id": 1,
          "level": 20,
          "polygonData": {
            "minArea": {
              "x": -1148.478515625,
              "z": -1110.374267578125
            },
            "maxArea": {
              "x": 2129.739013671875,
              "z": 1211.4453125
            },
            "roadPoints": [
              {
                "x": 2129.739013671875,
                "z": 1211.4453125
              },
              {
                "x": 2117.708984375,
                "z": -1110.374267578125
              },
              {
                "x": -1148.478515625,
                "z": -1104.359375
              },
              {
                "x": -1146.054931640625,
                "z": 140.549072265625
              },
              {
                "x": -283.7010498046875,
                "z": 485.9620056152344
              },
              {
                "x": 776.4501953125,
                "z": 1193.254150390625
              }
            ]
          }
        }
      ]
    },
    {
      "min": {
        "x": -1024.0,
        "y": -1000.0
      },
      "max": {
        "y": 2000.0,
        "z": 1024.0
      },
      "levelAreas": [
        {
          "id": 1,
          "level": 20,
          "polygonData": {
            "minArea": {
              "x": -1148.478515625,
              "z": -1110.374267578125
            },
            "maxArea": {
              "x": 2129.739013671875,
              "z": 1211.4453125
            },
            "roadPoints": [
              {
                "x": 2129.739013671875,
                "z": 1211.4453125
              },
              {
                "x": 2117.708984375,
                "z": -1110.374267578125
              },
              {
                "x": -1148.478515625,
                "z": -1104.359375
              },
              {
                "x": -1146.054931640625,
                "z": 140.549072265625
              },
              {
                "x": -283.7010498046875,
                "z": 485.9620056152344
              },
              {
                "x": 776.4501953125,
                "z": 1193.254150390625
              }
            ]
          }
        }
      ]
    },
    {
      "min": {
        "x": -1024.0,
        "y": -1000.0,
        "z": 1024.0
      },
      "max": {
        "y": 2000.0,
        "z": 2048.0
      },
      "levelAreas": [
        {
          "id": 1,
          "level": 20,
          "polygonData": {
            "minArea": {
              "x": -1148.478515625,
              "z": -1110.374267578125
            },
            "maxArea": {
              "x": 2129.739013671875,
              "z": 1211.4453125
            },
            "roadPoints": [
              {
                "x": 2129.739013671875,
                "z": 1211.4453125
              },
              {
                "x": 2117.708984375,
                "z": -1110.374267578125
              },
              {
                "x": -1148.478515625,
                "z": -1104.359375
              },
              {
                "x": -1146.054931640625,
                "z": 140.549072265625
              },
              {
                "x": -283.7010498046875,
                "z": 485.9620056152344
              },
              {
                "x": 776.4501953125,
                "z": 1193.254150390625
              }
            ]
          }
        }
      ]
    },
    {
      "min": {
        "y": -1000.0,
        "z": 1024.0
      },
      "max": {
        "x": 1024.0,
        "y": 2000.0,
        "z": 2048.0
      },
      "levelAreas": [
        {
          "id": 1,
          "level": 20,
          "polygonData": {
            "minArea": {
              "x": -1148.478515625,
              "z": -1110.374267578125
            },
            "maxArea": {
              "x": 2129.739013671875,
              "z": 1211.4453125
            },
            "roadPoints": [
              {
                "x": 2129.739013671875,
                "z": 1211.4453125
              },
              {
                "x": 2117.708984375,
                "z": -1110.374267578125
              },
              {
                "x": -1148.478515625,
                "z": -1104.359375
              },
              {
                "x": -1146.054931640625,
                "z": 140.549072265625
              },
              {
                "x": -283.7010498046875,
                "z": 485.9620056152344
              },
              {
                "x": 776.4501953125,
                "z": 1193.254150390625
              }
            ]
          }
        }
      ]
    },
    {
      "min": {
        "x": 1024.0,
        "y": -1000.0,
        "z": 1024.0
      },
      "max": {
        "x": 2048.0,
        "y": 2000.0,
        "z": 2048.0
      },
      "levelAreas": [
        {
          "id": 1,
          "level": 20,
          "polygonData": {
            "minArea": {
              "x": -1148.478515625,
              "z": -1110.374267578125
            },
            "maxArea": {
              "x": 2129.739013671875,
              "z": 1211.4453125
            },
            "roadPoints": [
              {
                "x": 2129.739013671875,
                "z": 1211.4453125
              },
              {
                "x": 2117.708984375,
                "z": -1110.374267578125
              },
              {
                "x": -1148.478515625,
                "z": -1104.359375
              },
              {
                "x": -1146.054931640625,
                "z": 140.549072265625
              },
              {
                "x": -283.7010498046875,
                "z": 485.9620056152344
              },
              {
                "x": 776.4501953125,
                "z": 1193.254150390625
              }
            ]
          }
        }
      ]
    },
    {
      "min": {
        "x": 1024.0,
        "y": -1000.0
      },
      "max": {
        "x": 2048.0,
        "y": 2000.0,
        "z": 1024.0
      },
      "levelAreas": [
        {
          "id": 1,
          "level": 20,
          "polygonData": {
            "minArea": {
              "x": -1148.478515625,
              "z": -1110.374267578125
            },
            "maxArea": {
              "x": 2129.739013671875,
              "z": 1211.4453125
            },
            "roadPoints": [
              {
                "x": 2129.739013671875,
                "z": 1211.4453125
              },
              {
                "x": 2117.708984375,
                "z": -1110.374267578125
              },
              {
                "x": -1148.478515625,
                "z": -1104.359375
              },
              {
                "x": -1146.054931640625,
                "z": 140.549072265625
              },
              {
                "x": -283.7010498046875,
                "z": 485.9620056152344
              },
              {
                "x": 776.4501953125,
                "z": 1193.254150390625
              }
            ]
          }
        }
      ]
    },
    {
      "min": {
        "x": 1024.0,
        "y": -1000.0,
        "z": -1024.0
      },
      "max": {
        "x": 2048.0,
        "y": 2000.0
      },
      "levelAreas": [
        {
          "id": 1,
          "level": 20,
          "polygonData": {
            "minArea": {
              "x": -1148.478515625,
              "z": -1110.374267578125
            },
            "maxArea": {
              "x": 2129.739013671875,
              "z": 1211.4453125
            },
            "roadPoints": [
              {
                "x": 2129.739013671875,
                "z": 1211.4453125
              },
              {
                "x": 2117.708984375,
                "z": -1110.374267578125
              },
              {
                "x": -1148.478515625,
                "z": -1104.359375
              },
              {
                "x": -1146.054931640625,
                "z": 140.549072265625
              },
              {
                "x": -283.7010498046875,
                "z": 485.9620056152344
              },
              {
                "x": 776.4501953125,
                "z": 1193.254150390625
              }
            ]
          }
        }
      ]
    }
  ]
}