{
  "blocks": [
    {
      "min": {
        "y": -1000.0
      },
      "max": {
        "x": 1024.0,
        "y": 2000.0,
        "z": 1024.0
      },
      "levelAreas": [
        {
          "id": 1,
          "level": 20,
          "polygonData": {
            "minArea": {
              "x": -436.015869140625,
              "z": -508.99224853515625
            },
            "maxArea": {
              "x": 1086.3046875,
              "z": 1284.2696533203125
            },
            "roadPoints": [
              {
                "x": 1070.829833984375,
                "z": 1251.3857421875
              },
              {
                "x": -436.015869140625,
                "z": 1284.2696533203125
              },
              {
                "x": -407.60394287109375,
                "z": -508.99224853515625
              },
              {
                "x": 1086.3046875,
                "z": -508.857177734375
              }
            ]
          }
        }
      ]
    },
    {
      "min": {
        "y": -1000.0,
        "z": -1024.0
      },
      "max": {
        "x": 1024.0,
        "y": 2000.0
      },
      "levelAreas": [
        {
          "id": 1,
          "level": 20,
          "polygonData": {
            "minArea": {
              "x": -436.015869140625,
              "z": -508.99224853515625
            },
            "maxArea": {
              "x": 1086.3046875,
              "z": 1284.2696533203125
            },
            "roadPoints": [
              {
                "x": 1070.829833984375,
                "z": 1251.3857421875
              },
              {
                "x": -436.015869140625,
                "z": 1284.2696533203125
              },
              {
                "x": -407.60394287109375,
                "z": -508.99224853515625
              },
              {
                "x": 1086.3046875,
                "z": -508.857177734375
              }
            ]
          }
        }
      ]
    },
    {
      "min": {
        "x": -1024.0,
        "y": -1000.0
      },
      "max": {
        "y": 2000.0,
        "z": 1024.0
      },
      "levelAreas": [
        {
          "id": 1,
          "level": 20,
          "polygonData": {
            "minArea": {
              "x": -436.015869140625,
              "z": -508.99224853515625
            },
            "maxArea": {
              "x": 1086.3046875,
              "z": 1284.2696533203125
            },
            "roadPoints": [
              {
                "x": 1070.829833984375,
                "z": 1251.3857421875
              },
              {
                "x": -436.015869140625,
                "z": 1284.2696533203125
              },
              {
                "x": -407.60394287109375,
                "z": -508.99224853515625
              },
              {
                "x": 1086.3046875,
                "z": -508.857177734375
              }
            ]
          }
        }
      ]
    },
    {
      "min": {
        "x": -1024.0,
        "y": -1000.0,
        "z": -1024.0
      },
      "max": {
        "y": 2000.0
      },
      "levelAreas": [
        {
          "id": 1,
          "level": 20,
          "polygonData": {
            "minArea": {
              "x": -436.015869140625,
              "z": -508.99224853515625
            },
            "maxArea": {
              "x": 1086.3046875,
              "z": 1284.2696533203125
            },
            "roadPoints": [
              {
                "x": 1070.829833984375,
                "z": 1251.3857421875
              },
              {
                "x": -436.015869140625,
                "z": 1284.2696533203125
              },
              {
                "x": -407.60394287109375,
                "z": -508.99224853515625
              },
              {
                "x": 1086.3046875,
                "z": -508.857177734375
              }
            ]
          }
        }
      ]
    },
    {
      "min": {
        "y": -1000.0,
        "z": 1024.0
      },
      "max": {
        "x": 1024.0,
        "y": 2000.0,
        "z": 2048.0
      },
      "levelAreas": [
        {
          "id": 1,
          "level": 20,
          "polygonData": {
            "minArea": {
              "x": -436.015869140625,
              "z": -508.99224853515625
            },
            "maxArea": {
              "x": 1086.3046875,
              "z": 1284.2696533203125
            },
            "roadPoints": [
              {
                "x": 1070.829833984375,
                "z": 1251.3857421875
              },
              {
                "x": -436.015869140625,
                "z": 1284.2696533203125
              },
              {
                "x": -407.60394287109375,
                "z": -508.99224853515625
              },
              {
                "x": 1086.3046875,
                "z": -508.857177734375
              }
            ]
          }
        }
      ]
    },
    {
      "min": {
        "x": -1024.0,
        "y": -1000.0,
        "z": 1024.0
      },
      "max": {
        "y": 2000.0,
        "z": 2048.0
      },
      "levelAreas": [
        {
          "id": 1,
          "level": 20,
          "polygonData": {
            "minArea": {
              "x": -436.015869140625,
              "z": -508.99224853515625
            },
            "maxArea": {
              "x": 1086.3046875,
              "z": 1284.2696533203125
            },
            "roadPoints": [
              {
                "x": 1070.829833984375,
                "z": 1251.3857421875
              },
              {
                "x": -436.015869140625,
                "z": 1284.2696533203125
              },
              {
                "x": -407.60394287109375,
                "z": -508.99224853515625
              },
              {
                "x": 1086.3046875,
                "z": -508.857177734375
              }
            ]
          }
        }
      ]
    },
    {
      "min": {
        "x": 1024.0,
        "y": -1000.0,
        "z": -1024.0
      },
      "max": {
        "x": 2048.0,
        "y": 2000.0
      },
      "levelAreas": [
        {
          "id": 1,
          "level": 20,
          "polygonData": {
            "minArea": {
              "x": -436.015869140625,
              "z": -508.99224853515625
            },
            "maxArea": {
              "x": 1086.3046875,
              "z": 1284.2696533203125
            },
            "roadPoints": [
              {
                "x": 1070.829833984375,
                "z": 1251.3857421875
              },
              {
                "x": -436.015869140625,
                "z": 1284.2696533203125
              },
              {
                "x": -407.60394287109375,
                "z": -508.99224853515625
              },
              {
                "x": 1086.3046875,
                "z": -508.857177734375
              }
            ]
          }
        }
      ]
    },
    {
      "min": {
        "x": 1024.0,
        "y": -1000.0
      },
      "max": {
        "x": 2048.0,
        "y": 2000.0,
        "z": 1024.0
      },
      "levelAreas": [
        {
          "id": 1,
          "level": 20,
          "polygonData": {
            "minArea": {
              "x": -436.015869140625,
              "z": -508.99224853515625
            },
            "maxArea": {
              "x": 1086.3046875,
              "z": 1284.2696533203125
            },
            "roadPoints": [
              {
                "x": 1070.829833984375,
                "z": 1251.3857421875
              },
              {
                "x": -436.015869140625,
                "z": 1284.2696533203125
              },
              {
                "x": -407.60394287109375,
                "z": -508.99224853515625
              },
              {
                "x": 1086.3046875,
                "z": -508.857177734375
              }
            ]
          }
        }
      ]
    },
    {
      "min": {
        "x": 1024.0,
        "y": -1000.0,
        "z": 1024.0
      },
      "max": {
        "x": 2048.0,
        "y": 2000.0,
        "z": 2048.0
      },
      "levelAreas": [
        {
          "id": 1,
          "level": 20,
          "polygonData": {
            "minArea": {
              "x": -436.015869140625,
              "z": -508.99224853515625
            },
            "maxArea": {
              "x": 1086.3046875,
              "z": 1284.2696533203125
            },
            "roadPoints": [
              {
                "x": 1070.829833984375,
                "z": 1251.3857421875
              },
              {
                "x": -436.015869140625,
                "z": 1284.2696533203125
              },
              {
                "x": -407.60394287109375,
                "z": -508.99224853515625
              },
              {
                "x": 1086.3046875,
                "z": -508.857177734375
              }
            ]
          }
        }
      ]
    }
  ]
}