{
  "blocks": [
    {
      "min": {
        "x": 2048.0,
        "y": -1000.0,
        "z": -2048.0
      },
      "max": {
        "x": 3072.0,
        "y": 2000.0,
        "z": -1024.0
      },
      "levelAreas": [
        {
          "id": 1,
          "level": 1,
          "priority": 10,
          "polygonData": {
            "minArea": {
              "x": 2048.720458984375,
              "z": -2012.8701171875
            },
            "maxArea": {
              "x": 3052.8095703125,
              "z": -1027.76904296875
            },
            "roadPoints": [
              {
                "x": 3052.8095703125,
                "z": -1034.8074951171875
              },
              {
                "x": 2048.720458984375,
                "z": -1027.76904296875
              },
              {
                "x": 2092.227294921875,
                "z": -1946.465576171875
              },
              {
                "x": 3041.199951171875,
                "z": -2012.8701171875
              }
            ]
          }
        }
      ]
    },
    {
      "min": {
        "x": 1024.0,
        "y": -1000.0,
        "z": -2048.0
      },
      "max": {
        "x": 2048.0,
        "y": 2000.0,
        "z": -1024.0
      }
    },
    {
      "min": {
        "x": 2048.0,
        "y": -1000.0,
        "z": -3072.0
      },
      "max": {
        "x": 3072.0,
        "y": 2000.0,
        "z": -2048.0
      }
    },
    {
      "min": {
        "x": 2048.0,
        "y": -1000.0,
        "z": -1024.0
      },
      "max": {
        "x": 3072.0,
        "y": 2000.0
      }
    },
    {
      "min": {
        "x": 1024.0,
        "y": -1000.0,
        "z": -1024.0
      },
      "max": {
        "x": 2048.0,
        "y": 2000.0
      }
    },
    {
      "min": {
        "x": 2048.0,
        "y": -1000.0
      },
      "max": {
        "x": 3072.0,
        "y": 2000.0,
        "z": 1024.0
      }
    },
    {
      "min": {
        "x": 1024.0,
        "y": -1000.0
      },
      "max": {
        "x": 2048.0,
        "y": 2000.0,
        "z": 1024.0
      }
    },
    {
      "min": {
        "y": -1000.0
      },
      "max": {
        "x": 1024.0,
        "y": 2000.0,
        "z": 1024.0
      }
    },
    {
      "min": {
        "y": -1000.0,
        "z": 2048.0
      },
      "max": {
        "x": 1024.0,
        "y": 2000.0,
        "z": 3072.0
      }
    },
    {
      "min": {
        "x": -1024.0,
        "y": -1000.0,
        "z": 2048.0
      },
      "max": {
        "y": 2000.0,
        "z": 3072.0
      }
    },
    {
      "min": {
        "x": -3072.0,
        "y": -1000.0,
        "z": 5120.0
      },
      "max": {
        "x": -2048.0,
        "y": 2000.0,
        "z": 6144.0
      }
    },
    {
      "min": {
        "x": -3072.0,
        "y": -1000.0,
        "z": 4096.0
      },
      "max": {
        "x": -2048.0,
        "y": 2000.0,
        "z": 5120.0
      }
    },
    {
      "min": {
        "x": -2048.0,
        "y": -1000.0,
        "z": 5120.0
      },
      "max": {
        "x": -1024.0,
        "y": 2000.0,
        "z": 6144.0
      }
    },
    {
      "min": {
        "x": -2048.0,
        "y": -1000.0,
        "z": 4096.0
      },
      "max": {
        "x": -1024.0,
        "y": 2000.0,
        "z": 5120.0
      }
    },
    {
      "min": {
        "x": 3072.0,
        "y": -1000.0,
        "z": 4096.0
      },
      "max": {
        "x": 4096.0,
        "y": 2000.0,
        "z": 5120.0
      }
    },
    {
      "min": {
        "x": 3072.0,
        "y": -1000.0,
        "z": 3072.0
      },
      "max": {
        "x": 4096.0,
        "y": 2000.0,
        "z": 4096.0
      }
    },
    {
      "min": {
        "x": 2048.0,
        "y": -1000.0,
        "z": 4096.0
      },
      "max": {
        "x": 3072.0,
        "y": 2000.0,
        "z": 5120.0
      }
    },
    {
      "min": {
        "x": 2048.0,
        "y": -1000.0,
        "z": 3072.0
      },
      "max": {
        "x": 3072.0,
        "y": 2000.0,
        "z": 4096.0
      }
    },
    {
      "min": {
        "x": -1024.0,
        "y": -1000.0,
        "z": 7168.0
      },
      "max": {
        "y": 2000.0,
        "z": 8192.0
      }
    },
    {
      "min": {
        "x": -2048.0,
        "y": -1000.0,
        "z": 7168.0
      },
      "max": {
        "x": -1024.0,
        "y": 2000.0,
        "z": 8192.0
      }
    },
    {
      "min": {
        "x": -2048.0,
        "y": -1000.0,
        "z": 6144.0
      },
      "max": {
        "x": -1024.0,
        "y": 2000.0,
        "z": 7168.0
      }
    },
    {
      "min": {
        "x": -1024.0,
        "y": -1000.0,
        "z": 8192.0
      },
      "max": {
        "y": 2000.0,
        "z": 9216.0
      }
    },
    {
      "min": {
        "x": -2048.0,
        "y": -1000.0,
        "z": 8192.0
      },
      "max": {
        "x": -1024.0,
        "y": 2000.0,
        "z": 9216.0
      }
    },
    {
      "min": {
        "x": -3072.0,
        "y": -1000.0,
        "z": 8192.0
      },
      "max": {
        "x": -2048.0,
        "y": 2000.0,
        "z": 9216.0
      }
    },
    {
      "min": {
        "x": -3072.0,
        "y": -1000.0,
        "z": 7168.0
      },
      "max": {
        "x": -2048.0,
        "y": 2000.0,
        "z": 8192.0
      }
    }
  ]
}