{
  "CameraFocusLongShot": {
    "name": "Data/Camera/SShot/Ca_Combat_Avatar_Common_FocusLongShot"
  },
  "CameraSceneLookGroup": {
    "name": "Data/Camera/SShot/Ca_Scene_LookLongShot"
  },
  "CameraSceneLookGroup_Bellwort": {
    "name": "Data/Camera/SShot/Ca_Scene_LookLongShot_Bellwort"
  },
  "CameraWormhole": {
    "name": "Data/Camera/SShot/Ca_Scene_Wormhole"
  },
  "Camera_Ayaka_LiquidStrike01": {
    "name": "Data/Camera/SShot/Ca_Combat_Avatar_Girl_Sword_Ayaka_SprintSkill_01"
  },
  "Camera_Ayaka_LiquidStrike02": {
    "name": "Data/Camera/SShot/Ca_Combat_Avatar_Girl_Sword_Ayaka_SprintSkill_02"
  },
  "Camera_Barbara_IdolHeal": {
    "name": "Data/Camera/SShot/Ca_Combat_Avatar_Girl_Catalyst_Barbara_ElementalBurst"
  },
  "Camera_Diluc_FireCross": {
    "name": "Data/Camera/SShot/Ca_Combat_Avatar_Male_Claymore_Diluc_ElementalBurst"
  },
  "Camera_Venti_Hurricane": {
    "name": "Data/Camera/SShot/Ca_Combat_Avatar_Boy_Bow_Venti_ElementalBurst"
  },
  "Camera_Diluc_ExtraAttack": {
    "name": "Data/Camera/SShot/Ca_Combat_Avatar_Male_Claymore_Diluc_ExtraAttack"
  },
  "Camera_Razor_ExtraAttack": {
    "name": "Data/Camera/SShot/Ca_Combat_Avatar_Boy_Claymore_Razor_ExtraAttack"
  },
  "Camera_Razor_LycanMode_In": {
    "name": "Data/Camera/SShot/Ca_Combat_Avatar_Boy_Claymore_Razor_ElementalBurst_In"
  },
  "Camera_Razor_LycanMode_Out": {
    "name": "Data/Camera/SShot/Ca_Combat_Avatar_Boy_Claymore_Razor_ElementalBurst_Out"
  },
  "Camera_Qin_DandelionWind": {
    "name": "Data/Camera/SShot/Ca_Combat_Avatar_Lady_Sword_Qin_ElementalBurst"
  },
  "Camera_Elemental_Burst_In": {
    "name": "Data/Camera/SShot/Ca_Combat_Avatar_Common_ElementalBurst_In_01"
  },
  "Camera_Elemental_Burst_In_2": {
    "name": "Data/Camera/SShot/Ca_Combat_Avatar_Common_ElementalBurst_In_02"
  },
  "Camera_Elemental_Burst_Out": {
    "name": "Data/Camera/SShot/Ca_Combat_Avatar_Common_ElementalBurst_Out_01"
  },
  "Camera_Elemental_Burst_Restore": {
    "name": "Data/Camera/SShot/Ca_Combat_Avatar_Common_ElementalBurst_Restore"
  },
  "Camera_Kaeya_FrozenTrap_In": {
    "name": "Data/Camera/SShot/Ca_Combat_Avatar_Male_Sword_Kaeya_ElementalBurst_In"
  },
  "Camera_Kaeya_FrozenTrap_Out": {
    "name": "Data/Camera/SShot/Ca_Combat_Avatar_Male_Sword_Kaeya_ElementalBurst_Out"
  },
  "Camera_Xingqiu_Minazuki_In": {
    "name": "Data/Camera/SShot/Ca_Combat_Avatar_Boy_Sword_Xingqiu_ElementalBurst_In"
  },
  "Camera_Xingqiu_Minazuki_Out": {
    "name": "Data/Camera/SShot/Ca_Combat_Avatar_Boy_Sword_Xingqiu_ElementalBurst_Out"
  },
  "Camera_Elemental_Burst_Out_2": {
    "name": "Data/Camera/SShot/Ca_Combat_Avatar_Common_ElementalBurst_Out_02"
  },
  "Camera_Ayaka_Windmill": {
    "name": "Data/Camera/SShot/Ca_Combat_Avatar_Girl_Sword_Ayaka_ElementalBurst"
  },
  "Camera_Lisa_ElementBurst_In": {
    "name": "Data/Camera/SShot/Ca_Combat_Avatar_Lady_Catalyst_Lisa_ElementalBurst_In"
  },
  "Camera_Lisa_ElementBurst_Out": {
    "name": "Data/Camera/SShot/Ca_Combat_Avatar_Lady_Catalyst_Lisa_ElementalBurst_Out"
  },
  "Camera_Elemental_Burst_In_Angle": {
    "name": "Data/Camera/SShot/Ca_Combat_Avatar_Common_ElementalBurst_Angle_In"
  },
  "Camera_Elemental_Burst_Out_Angle": {
    "name": "Data/Camera/SShot/Ca_Combat_Avatar_Common_ElementalBurst_Angle_Out"
  },
  "CameraElementalBurst_In_Beidou": {
    "name": "Data/Camera/SShot/Ca_Combat_Avatar_Lady_Claymore_Beidou_ElementalBurst_In"
  },
  "CameraElementalBurst_Out_Beidou": {
    "name": "Data/Camera/SShot/Ca_Combat_Avatar_Lady_Claymore_Beidou_ElementalBurst_Out"
  },
  "CameraElementalBurst_In_Candace": {
    "name": "Data/Camera/SShot/Ca_Combat_Avatar_Lady_Pole_Candace_ElementalBurst_In"
  },
  "CameraElementalBurst_Out_Candace": {
    "name": "Data/Camera/SShot/Ca_Combat_Avatar_Lady_Pole_Candace_ElementalBurst_Out"
  },
  "Camera_Xiao_DevilDash": {
    "name": "Data/Camera/SShot/Ca_Combat_Avatar_Boy_Pole_Xiao_ElementalArt"
  },
  "Camera_Xiao_HowlingSoul": {
    "name": "Data/Camera/SShot/Ca_Combat_Avatar_Boy_Pole_Xiao_ElementalBurst"
  },
  "Camera_Zhongli_GeoOrder": {
    "name": "Data/Camera/SShot/Ca_Combat_Avatar_Male_Pole_Zhongli_ElementalBurst"
  },
  "Camera_Ganyu_UnbreakableIce": {
    "name": "Data/Camera/SShot/Ca_Combat_Avatar_Girl_Bow_Ganyu_ElementalBurst"
  },
  "Camera_Avatar_FlyingBomber": {
    "name": "Data/Camera/SShot/Ca_Combat_Avatar_Common_FlyingBomber"
  },
  "Camera_Ningguang_ElementalBurst": {
    "name": "Data/Camera/SShot/Ca_Combat_Avatar_Lady_Catalyst_Ningguang_ElementalBurst"
  },
  "Camera_Dungeon_Dvalin_S01_Overlook": {
    "name": "Data/Camera/SShot/Ca_Dungeon_Dvalin_S01_Overlook"
  },
  "Camera_Dungeon_Dvalin_S01_Backlook": {
    "name": "Data/Camera/SShot/Ca_Dungeon_Dvalin_S01_Backlook"
  },
  "Camera_Monster_Dvalin_S01_DvalinDisappear": {
    "name": "Data/Camera/SShot/Ca_Combat_Monster_Dvalin_S01_DvalinDisappear"
  },
  "Camera_Monster_Dvalin_S01_LookAtSeal": {
    "name": "Data/Camera/SShot/Ca_Combat_Monster_Dvalin_S01_LookAtSeal"
  },
  "Camera_Dungeon_Dvalin_S04": {
    "name": "Data/Camera/SShot/Ca_Dungeon_Dvalin_S04"
  },
  "Camera_Monster_Dvalin_Starfall": {
    "name": "Data/Camera/SShot/Ca_Combat_Monster_Dvalin_Starfall"
  },
  "Camera_Monster_Dvalin_WeakStart": {
    "name": "Data/Camera/SShot/Ca_Combat_Monster_Dvalin_WeakStart"
  },
  "Camera_Monster_LaSignora_Alert": {
    "name": "Data/Camera/SShot/Ca_Combat_Monster_LaSignora_Alert"
  },
  "Camera_Monster_LupiBoreas_Born": {
    "name": "Data/Camera/SShot/Ca_Combat_Monster_LupiBoreas_Born"
  },
  "Camera_Monster_LupiBoreas_Transform": {
    "name": "Data/Camera/SShot/Ca_Combat_Monster_LupiBoreas_Transform"
  },
  "Camera_Monster_Dahaka_Debut": {
    "name": "Data/Camera/SShot/Ca_Combat_Monster_Dahaka_Debut"
  },
  "Camera_Monster_Dahaka_Switch01": {
    "name": "Data/Camera/SShot/Ca_Combat_Monster_Dahaka_Switch01"
  },
  "Camera_Monster_Dahaka_Switch02": {
    "name": "Data/Camera/SShot/Ca_Combat_Monster_Dahaka_Switch02"
  },
  "Camera_Monster_Nada_Stage01_Alert": {
    "name": "Data/Camera/SShot/Ca_Combat_Monster_Nada_Stage01_Alert"
  },
  "Camera_Monster_Nada_Stage02_DoomBS": {
    "name": "Data/Camera/SShot/Ca_Combat_Monster_Nada_Stage02_DoomBS"
  },
  "Camera_Monster_Nada_Stage02_DoomAS": {
    "name": "Data/Camera/SShot/Ca_Combat_Monster_Nada_Stage02_DoomAS"
  },
  "Camera_Monster_Nada_Weak": {
    "name": "Data/Camera/SShot/Ca_Combat_Monster_Nada_Weak"
  },
  "Camera_Tartaglia_AquariaBlade_Melee": {
    "name": "Data/Camera/SShot/Ca_Combat_Avatar_Male_Bow_Tartaglia_ElementalBurst_Melee"
  },
  "Camera_Tartaglia_AquariaBlade_Range": {
    "name": "Data/Camera/SShot/Ca_Combat_Avatar_Male_Bow_Tartaglia_ElementalBurst_Range"
  },
  "CameraElementalBurst_In_Chongyun": {
    "name": "Data/Camera/SShot/Ca_Combat_Avatar_Boy_Claymore_Chongyun_ElementalBurst_In"
  },
  "CameraElementalBurst_Out_Chongyun": {
    "name": "Data/Camera/SShot/Ca_Combat_Avatar_Boy_Claymore_Chongyun_ElementalBurst_Out"
  },
  "Camera_Qiqi_ElementalBurst": {
    "name": "Data/Camera/SShot/Ca_Combat_Avatar_Loli_Sword_Qiqi_ElementalBurst"
  },
  "CameraElementalBurst_In_Noel": {
    "name": "Data/Camera/SShot/Ca_Combat_Avatar_Girl_Claymore_Noel_ElementalBurst_In"
  },
  "CameraElementalBurst_Out_Noel": {
    "name": "Data/Camera/SShot/Ca_Combat_Avatar_Girl_Claymore_Noel_ElementalBurst_Out"
  },
  "Camera_Klee_ElementalBurst": {
    "name": "Data/Camera/SShot/Ca_Combat_Avatar_Loli_Catalyst_Klee_ElementalBurst"
  },
  "Camera_Mona_StarChart": {
    "name": "Data/Camera/SShot/Ca_Combat_Avatar_Girl_Catalyst_Mona_ElementalBurst"
  },
  "Camera_Keqing_ElementalBurst": {
    "name": "Data/Camera/SShot/Ca_Combat_Avatar_Girl_Sword_Keqing_ElementalBurst"
  },
  "Camera_Albedo_AlchemicalBreakOut": {
    "name": "Data/Camera/SShot/Ca_Combat_Avatar_Boy_Sword_Albedo_ElementalBurst"
  },
  "Camera_Shougun_ElementalBurst": {
    "name": "Data/Camera/SShot/Ca_Combat_Avatar_Lady_Pole_Shougun_ElementalBurst"
  },
  "Camera_Furina_ElementalBurst": {
    "name": "Data/Camera/SShot/Ca_Combat_Avatar_Girl_Sword_Furina_ElementalBurst"
  },
  "Camera_Alhatham_ElementalBurst": {
    "name": "Data/Camera/SShot/Ca_Combat_Avatar_Male_Sword_Alhatham_ElementalBurst"
  },
  "CameraElementalBurst_In_Xinyan": {
    "name": "Data/Camera/SShot/Ca_Combat_Avatar_Girl_Claymore_Xinyan_ElementalBurst_In"
  },
  "CameraElementalBurst_Out_Xinyan": {
    "name": "Data/Camera/SShot/Ca_Combat_Avatar_Girl_Claymore_Xinyan_ElementalBurst_Out"
  },
  "Camera_Hutao_ElementalBurst": {
    "name": "Data/Camera/SShot/Ca_Combat_Avatar_Girl_Pole_Hutao_ElementalBurst"
  },
  "CameraElementalBurst_In_Rosaria": {
    "name": "Data/Camera/SShot/Ca_Combat_Avatar_Lady_Pole_Rosaria_ElementalBurst_In"
  },
  "Camera_Kazuha_ElementalBurst": {
    "name": "Data/Camera/SShot/Ca_Combat_Avatar_Boy_Sword_Kazuha_ElementalBurst"
  },
  "Camera_Hutao_ElementalArt_In": {
    "name": "Data/Camera/SShot/Ca_Combat_Avatar_Girl_Pole_Hutao_ElementalArt_In"
  },
  "Camera_Hutao_ElementalArt_Out": {
    "name": "Data/Camera/SShot/Ca_Combat_Avatar_Girl_Pole_Hutao_ElementalArt_Out"
  },
  "CameraElementalBurst_In_Feiyan": {
    "name": "Data/Camera/SShot/Ca_Combat_Avatar_Girl_Catalyst_Feiyan_ElementalBurst_In"
  },
  "CameraElementalBurst_Out_Feiyan": {
    "name": "Data/Camera/SShot/Ca_Combat_Avatar_Girl_Catalyst_Feiyan_ElementalBurst_Out"
  },
  "CameraElementalBurst_In_Player_Electric": {
    "name": "Data/Camera/SShot/Ca_Combat_Avatar_Boy_Sword_Player_Electric_ElementalBurst_In"
  },
  "CameraElementalBurst_Out_Player_Electric": {
    "name": "Data/Camera/SShot/Ca_Combat_Avatar_Boy_Sword_Player_Electric_ElementalBurst_Out"
  },
  "CameraElementalBurst_In_Player_Grass": {
    "name": "Data/Camera/SShot/Ca_Combat_Avatar_Boy_Sword_Player_Grass_ElementalBurst_In"
  },
  "CameraElementalBurst_Out_Player_Grass": {
    "name": "Data/Camera/SShot/Ca_Combat_Avatar_Boy_Sword_Player_Grass_ElementalBurst_Out"
  },
  "CameraElementalBurst_In_Player_Water": {
    "name": "Data/Camera/SShot/Ca_Combat_Avatar_Boy_Sword_Player_Water_ElementalBurst_In"
  },
  "CameraElementalBurst_Out_Player_Water": {
    "name": "Data/Camera/SShot/Ca_Combat_Avatar_Boy_Sword_Player_Water_ElementalBurst_Out"
  },
  "Camera_Eula_ElementalBurst": {
    "name": "Data/Camera/SShot/Ca_Combat_Avatar_Lady_Claymore_Eula_ElementalBurst"
  },
  "Camera_Yoimiya_ElementalBurst": {
    "name": "Data/Camera/SShot/Ca_Combat_Avatar_Girl_Bow_Yoimiya_ElementalBurst"
  },
  "Camera_LudiHarpastum_01": {
    "name": "Data/Camera/SShot/Ca_Combat_Activity_Camera_LudiHarpastum_01"
  },
  "Camera_Dungeon_MonaDreamland_Lookup_01": {
    "name": "Data/Camera/SShot/Ca_Combat_Dungeon_MonaDreamland_Lookup_01"
  },
  "CameraElementalBurst_In_Sayu": {
    "name": "Data/Camera/SShot/Ca_Combat_Avatar_Loli_Claymore_Sayu_ElementalBurst_In"
  },
  "CameraElementalBurst_Out_Sayu": {
    "name": "Data/Camera/SShot/Ca_Combat_Avatar_Loli_Claymore_Sayu_ElementalBurst_Out"
  },
  "Camera_Kokomi_ElementalBurst": {
    "name": "Data/Camera/SShot/Ca_Combat_Avatar_Girl_Catalyst_Kokomi_ElementalBurst"
  },
  "Camera_Aloy_ElementalBurst": {
    "name": "Data/Camera/SShot/Ca_Combat_Avatar_Girl_Bow_Aloy_ElementalBurst"
  },
  "Camera_Shenhe_ElementalBurst": {
    "name": "Data/Camera/SShot/Ca_Combat_Avatar_Lady_Pole_Shenhe_ElementalBurst"
  },
  "Ca_Combat_Movie_Field": {
    "name": "Data/Camera/SShot/Ca_Combat_Movie_Field"
  },
  "Ca_Combat_Movie_Field_02": {
    "name": "Data/Camera/SShot/Ca_Combat_Movie_Field_02"
  },
  "Ca_Combat_Movie_Field_SideScrolling": {
    "name": "Data/Camera/SShot/Ca_Combat_Movie_Field_SideScrolling"
  },
  "Ca_Dungeon_MonaDreamland_Topdown_01": {
    "name": "Data/Camera/SShot/Ca_Dungeon_MonaDreamland_Topdown_01"
  },
  "Ca_Dungeon_ScaramoucheFactory_Topdown_01": {
    "name": "Data/Camera/SShot/Ca_Dungeon_ScaramoucheFactory_Topdown_01"
  },
  "Ca_Scene_PainterWQ_Field_SideScrolling": {
    "name": "Data/Camera/SShot/Ca_Scene_PainterWQ_Field_SideScrolling"
  },
  "Ca_Scene_PainterWQ_Field_SideScrolling_02": {
    "name": "Data/Camera/SShot/Ca_Scene_PainterWQ_Field_SideScrolling_02"
  },
  "Ca_Scene_PainterWQ_Field_SideScrolling_03": {
    "name": "Data/Camera/SShot/Ca_Scene_PainterWQ_Field_SideScrolling_03"
  },
  "Ca_Scene_PainterWQ_Field_SideScrolling_04": {
    "name": "Data/Camera/SShot/Ca_Scene_PainterWQ_Field_SideScrolling_04"
  },
  "Ca_Scene_PainterWQ_Field_SideScrolling_05": {
    "name": "Data/Camera/SShot/Ca_Scene_PainterWQ_Field_SideScrolling_05"
  },
  "Ca_Scene_PainterWQ_Field_SideScrolling_06": {
    "name": "Data/Camera/SShot/Ca_Scene_PainterWQ_Field_SideScrolling_06"
  },
  "Camera_Tohma_ElementalBurst": {
    "name": "Data/Camera/SShot/Ca_Combat_Avatar_Male_Pole_Tohma_ElementalBurst"
  },
  "Camera_Itto_ElementalBurst": {
    "name": "Data/Camera/SShot/Ca_Combat_Avatar_Male_Claymore_Itto_ElementalBurst"
  },
  "Camera_Yae_ElementalBurst": {
    "name": "Data/Camera/SShot/Ca_Combat_Avatar_Lady_Catalyst_Yae_ElementalBurst"
  },
  "Camera_Ayato_ElementalBurst": {
    "name": "Data/Camera/SShot/Ca_Combat_Avatar_Male_Sword_Ayato_ElementalBurst"
  },
  "Camera_Yelan_ElementalBurst": {
    "name": "Data/Camera/SShot/Ca_Combat_Avatar_Lady_Bow_Yelan_ElementalBurst"
  },
  "Camera_Tighnari_ElementalBurst": {
    "name": "Data/Camera/SShot/Ca_Combat_Avatar_Boy_Bow_Tighnari_ElementalBurst"
  },
  "CameraElementalBurst_In_Yunjin": {
    "name": "Data/Camera/SShot/Ca_Combat_Avatar_Girl_Pole_Yunjin_ElementalBurst_In"
  },
  "CameraElementalBurst_Out_Yunjin": {
    "name": "Data/Camera/SShot/Ca_Combat_Avatar_Girl_Pole_Yunjin_ElementalBurst_Out"
  },
  "CameraElementalBurst_In_Shinobu": {
    "name": "Data/Camera/SShot/Ca_Combat_Avatar_Girl_Sword_Shinobu_ElementalBurst_In"
  },
  "CameraElementalBurst_Out_Shinobu": {
    "name": "Data/Camera/SShot/Ca_Combat_Avatar_Girl_Sword_Shinobu_ElementalBurst_Out"
  },
  "CameraElementalBurst_In_Heizo": {
    "name": "Data/Camera/SShot/Ca_Combat_Avatar_Boy_Catalyst_Heizo_ElementalBurst_In"
  },
  "CameraElementalBurst_Out_Heizo": {
    "name": "Data/Camera/SShot/Ca_Combat_Avatar_Boy_Catalyst_Heizo_ElementalBurst_Out"
  },
  "Camera_Monster_Eldritch_Minor_Alert": {
    "name": "Data/Camera/SShot/Ca_Combat_Monster_Eldritch_Minor_Alert"
  },
  "Camera_Nilou_ElementalBurst": {
    "name": "Data/Camera/SShot/Ca_Combat_Avatar_Girl_Sword_Nilou_ElementalBurst"
  },
  "Camera_Navia_ElementalBurst": {
    "name": "Data/Camera/SShot/Ca_Combat_Avatar_Lady_Claymore_Navia_ElementalBurst"
  },
  "Camera_Kinich_ElementalBurst": {
    "name": "Data/Camera/SShot/Ca_Combat_Avatar_Boy_Claymore_Kinich_ElementalBurst"
  },
  "Camera_Sigewinne_ElementalBurst": {
    "name": "Data/Camera/SShot/Ca_Combat_Avatar_Loli_Bow_Sigewinne_ElementalBurst"
  },
  "Camera_Cyno_ElementalBurst": {
    "name": "Data/Camera/SShot/Ca_Combat_Avatar_Boy_Pole_Cyno_ElementalBurst"
  },
  "Camera_Layla_ElementalBurst_Out": {
    "name": "Data/Camera/SShot/Ca_Combat_Avatar_Girl_Sword_Layla_ElementalBurst_Out"
  },
  "Camera_Layla_ElementalBurst_In": {
    "name": "Data/Camera/SShot/Ca_Combat_Avatar_Girl_Sword_Layla_ElementalBurst_In"
  },
  "Camera_Nahida_ElementalBurst": {
    "name": "Data/Camera/SShot/Ca_Combat_Avatar_Loli_Catalyst_Nahida_ElementalBurst"
  },
  "Camera_Wanderer_ElementalBurst": {
    "name": "Data/Camera/SShot/Ca_Combat_Avatar_Boy_Catalyst_Wanderer_ElementalBurst"
  },
  "Camera_Wanderer_ElementalBurst_Air": {
    "name": "Data/Camera/SShot/Ca_Combat_Avatar_Boy_Catalyst_Wanderer_ElementalBurst_Air"
  },
  "Camera_Faruzan_ElementalBurst_BS": {
    "name": "Data/Camera/SShot/Ca_Combat_Avatar_Girl_Bow_Faruzan_ElementalBurst_BS"
  },
  "Camera_Faruzan_ElementalBurst_In": {
    "name": "Data/Camera/SShot/Ca_Combat_Avatar_Girl_Bow_Faruzan_ElementalBurst_In"
  },
  "Camera_Faruzan_ElementalBurst_Out": {
    "name": "Data/Camera/SShot/Ca_Combat_Avatar_Girl_Bow_Faruzan_ElementalBurst_Out"
  },
  "Camera_Mika_ElementalBurst_In": {
    "name": "Data/Camera/SShot/Ca_Combat_Avatar_Boy_Pole_Mika_ElementalBurst_In"
  },
  "Camera_Mika_ElementalBurst_Out": {
    "name": "Data/Camera/SShot/Ca_Combat_Avatar_Boy_Pole_Mika_ElementalBurst_Out"
  },
  "Camera_Animal_Electrohercules_BattleReady": {
    "name": "Data/Camera/SShot/Ca_Combat_Camera_Animal_Electrohercules_BattleReady"
  },
  "Camera_OnikabutoBattle_Battle01": {
    "name": "Data/Camera/SShot/Ca_Combat_Activity_Camera_OnikabutoBattle_Battle01"
  },
  "Camera_Yaoyao_ElementalBurst_In": {
    "name": "Data/Camera/SShot/Ca_Combat_Avatar_Loli_Pole_Yaoyao_ElementalBurst_In"
  },
  "Camera_Yaoyao_ElementalBurst_Out": {
    "name": "Data/Camera/SShot/Ca_Combat_Avatar_Loli_Pole_Yaoyao_ElementalBurst_Out"
  },
  "Camera_Monster_Apep_Stage1_Alert": {
    "name": "Data/Camera/SShot/Ca_Combat_Monster_Apep_Stage1_Alert"
  },
  "Camera_Monster_Apep_GadgetChange": {
    "name": "Data/Camera/SShot/Ca_Combat_Monster_Apep_GadgetChange"
  },
  "Camera_Gadget_GoldenHall_1": {
    "name": "Data/Camera/SShot/Ca_Quest_Scene_GoldenHall_QTE_01"
  },
  "Camera_Gadget_GoldenHall_2": {
    "name": "Data/Camera/SShot/Ca_Quest_Scene_GoldenHall_QTE_02"
  },
  "Camera_Gadget_GoldenHall_3": {
    "name": "Data/Camera/SShot/Ca_Quest_Scene_GoldenHall_QTE_03"
  },
  "Camera_Gadget_GoldenHall_4": {
    "name": "Data/Camera/SShot/Ca_Quest_Scene_GoldenHall_QTE_04"
  },
  "Camera_Gadget_Golden_1": {
    "name": "Data/Camera/SShot/Ca_Quest_Scene_Golden_QTE_01"
  },
  "Camera_Gadget_Golden_2": {
    "name": "Data/Camera/SShot/Ca_Quest_Scene_Golden_QTE_02"
  },
  "Camera_Gadget_Golden_3": {
    "name": "Data/Camera/SShot/Ca_Quest_Scene_Golden_QTE_03"
  },
  "Camera_Gadget_Golden_4": {
    "name": "Data/Camera/SShot/Ca_Quest_Scene_Golden_QTE_04"
  },
  "Camera_Gadget_Golden_5": {
    "name": "Data/Camera/SShot/Ca_Quest_Scene_Golden_QTE_05"
  },
  "Camera_Gadget_Golden_6": {
    "name": "Data/Camera/SShot/Ca_Quest_Scene_Golden_QTE_06"
  },
  "Camera_Gadget_Golden_7": {
    "name": "Data/Camera/SShot/Ca_Quest_Scene_Golden_QTE_07"
  },
  "Camera_Gadget_Golden_8": {
    "name": "Data/Camera/SShot/Ca_Quest_Scene_Golden_QTE_08"
  },
  "Camera_Gadget_Golden_9": {
    "name": "Data/Camera/SShot/Ca_Quest_Scene_Golden_QTE_09"
  },
  "Camera_Gadget_Golden_10": {
    "name": "Data/Camera/SShot/Ca_Quest_Scene_Golden_QTE_10"
  },
  "Camera_Gadget_Golden_11": {
    "name": "Data/Camera/SShot/Ca_Quest_Scene_Golden_QTE_11"
  },
  "Camera_Gadget_Golden_12": {
    "name": "Data/Camera/SShot/Ca_Quest_Scene_Golden_QTE_12"
  },
  "Camera_Gadget_Golden_13": {
    "name": "Data/Camera/SShot/Ca_Quest_Scene_Golden_QTE_13"
  },
  "Camera_Gadget_WhaleSwim_1": {
    "name": "Data/Camera/SShot/Ca_Scene_WhaleSwim_01"
  },
  "Camera_Gadget_WhaleSwimTrench_01": {
    "name": "Data/Camera/SShot/Ca_Scene_WhaleSwimTrench_01"
  },
  "Camera_Gadget_WhaleSwimTrench_02": {
    "name": "Data/Camera/SShot/Ca_Scene_WhaleSwimTrench_02"
  },
  "Camera_Gadget_WhaleSwimTrench_03": {
    "name": "Data/Camera/SShot/Ca_Scene_WhaleSwimTrench_03"
  },
  "Camera_Gadget_WhaleSwimTrench_04": {
    "name": "Data/Camera/SShot/Ca_Scene_WhaleSwimTrench_04"
  },
  "Camera_Gadget_WhaleSwimKPM_01": {
    "name": "Data/Camera/SShot/Ca_Scene_WhaleSwimKPM_01"
  },
  "Camera_Gadget_WhaleSwimKPM_02": {
    "name": "Data/Camera/SShot/Ca_Scene_WhaleSwimKPM_02"
  },
  "Camera_Gadget_WhaleSwimKPM_03": {
    "name": "Data/Camera/SShot/Ca_Scene_WhaleSwimKPM_03"
  },
  "Camera_Gadget_WhaleSwimKPM_04": {
    "name": "Data/Camera/SShot/Ca_Scene_WhaleSwimKPM_04"
  },
  "Camera_Gadget_WhaleSwimKPM_05": {
    "name": "Data/Camera/SShot/Ca_Scene_WhaleSwimKPM_05"
  },
  "Camera_Gadget_WhaleSwimKPM_06": {
    "name": "Data/Camera/SShot/Ca_Scene_WhaleSwimKPM_06"
  },
  "Camera_Gadget_WhaleSwimKPM_07": {
    "name": "Data/Camera/SShot/Ca_Scene_WhaleSwimKPM_07"
  },
  "Camera_Gadget_WhaleSwimKPM_08": {
    "name": "Data/Camera/SShot/Ca_Scene_WhaleSwimKPM_08"
  },
  "Camera_Dehya_ElementalBurst": {
    "name": "Data/Camera/SShot/Ca_Combat_Avatar_Lady_Claymore_Dehya_ElementalBurst"
  },
  "Camera_Animal_Electrohercules_BattleReady_Tutorial": {
    "name": "Data/Camera/SShot/Ca_Combat_Camera_Animal_Electrohercules_BattleReady_Tutorial"
  },
  "Camera_Baizhuer_ElementalBurst": {
    "name": "Data/Camera/SShot/Ca_Combat_Avatar_Male_Catalyst_Baizhuer_ElementalBurst"
  },
  "CameraElementalBurst_In_Kaveh": {
    "name": "Data/Camera/SShot/Ca_Combat_Avatar_Male_Claymore_Kaveh_ElementalBurst_In"
  },
  "CameraElementalBurst_Out_Kaveh": {
    "name": "Data/Camera/SShot/Ca_Combat_Avatar_Male_Claymore_Kaveh_ElementalBurst_Out"
  },
  "CameraElementalBurst_In_Momoka": {
    "name": "Data/Camera/SShot/Ca_Combat_Avatar_Girl_Sword_Momoka_ElementalBurst_In"
  },
  "Camera_Liney_ElementalBurst": {
    "name": "Data/Camera/SShot/Ca_Combat_Avatar_Boy_Bow_Liney_ElementalBurst"
  },
  "CameraElementalBurst_In_Freminet": {
    "name": "Data/Camera/SShot/Ca_Combat_Avatar_Boy_Claymore_Freminet_ElementalBurst_In"
  },
  "CameraElementalBurst_Out_Freminet": {
    "name": "Data/Camera/SShot/Ca_Combat_Avatar_Boy_Claymore_Freminet_ElementalBurst_Out"
  },
  "Camera_Wriothesley_ElementalBurst": {
    "name": "Data/Camera/SShot/Ca_Combat_Avatar_Male_Catalyst_Wriothesley_ElementalBurst"
  },
  "Camera_Neuvillette_ElementalBurst": {
    "name": "Data/Camera/SShot/Ca_Combat_Avatar_Male_Catalyst_Neuvillette_ElementalBurst"
  },
  "Ca_Scene_PrimalKey": {
    "name": "Data/Camera/SShot/Ca_Scene_PrimalKey"
  },
  "Ca_Scene_Clockwork_01": {
    "name": "Data/Camera/SShot/Ca_Scene_Clockwork_01"
  },
  "Ca_Scene_Clockwork_02": {
    "name": "Data/Camera/SShot/Ca_Scene_Clockwork_02"
  },
  "Ca_Scene_Clockwork_03": {
    "name": "Data/Camera/SShot/Ca_Scene_Clockwork_03"
  },
  "Ca_Scene_GearRoom": {
    "name": "Data/Camera/SShot/Ca_Scene_GearRoom"
  },
  "Ca_Scene_HSDT_01": {
    "name": "Data/Camera/SShot/Ca_Scene_HSDT_01"
  },
  "Camera_Chevreuse_ElementalBurst_In": {
    "name": "Data/Camera/SShot/Ca_Combat_Avatar_Girl_Pole_Chevreuse_ElementalBurst_In"
  },
  "Camera_Chevreuse_ElementalBurst_Out": {
    "name": "Data/Camera/SShot/Ca_Combat_Avatar_Girl_Pole_Chevreuse_ElementalBurst_Out"
  },
  "Camera_Linette_ElementalBurst_In": {
    "name": "Data/Camera/SShot/Ca_Combat_Avatar_Girl_Sword_Linette_ElementalBurst_In"
  },
  "Camera_Linette_ElementalBurst_Out": {
    "name": "Data/Camera/SShot/Ca_Combat_Avatar_Girl_Sword_Linette_ElementalBurst_Out"
  },
  "Ca_Scene_LevelCamera": {
    "name": "Data/Camera/SShot/Ca_Scene_LevelCamera"
  },
  "Camera_Charlotte_ElementalBurst_In": {
    "name": "Data/Camera/SShot/Ca_Combat_Avatar_Girl_Catalyst_Charlotte_ElementalBurst_In"
  },
  "Camera_Charlotte_ElementalBurst_Out": {
    "name": "Data/Camera/SShot/Ca_Combat_Avatar_Girl_Catalyst_Charlotte_ElementalBurst_Out"
  },
  "Camera_Liuyun_ElementalBurst": {
    "name": "Data/Camera/SShot/Ca_Combat_Avatar_Lady_Catalyst_Liuyun_ElementalBurst"
  },
  "Camera_Chiori_ElementalBurst": {
    "name": "Data/Camera/SShot/Ca_Combat_Avatar_Girl_Sword_Chiori_ElementalBurst"
  },
  "Camera_Arlecchino_ElementalBurst": {
    "name": "Data/Camera/SShot/Ca_Combat_Avatar_Lady_Pole_Arlecchino_ElementalBurst"
  },
  "Camera_Clorinde_ElementalBurst": {
    "name": "Data/Camera/SShot/Ca_Combat_Avatar_Lady_Sword_Clorinde_ElementalBurst"
  },
  "Camera_Sethos_ElementalBurst_In": {
    "name": "Data/Camera/SShot/Ca_Combat_Avatar_Boy_Bow_Sethos_ElementalBurst_In"
  },
  "Camera_Sethos_ElementalBurst_Out": {
    "name": "Data/Camera/SShot/Ca_Combat_Avatar_Boy_Bow_Sethos_ElementalBurst_Out"
  },
  "Camera_Emilie_ElementalBurst": {
    "name": "Data/Camera/SShot/Ca_Combat_Avatar_Girl_Pole_Emilie_ElementalBurst"
  },
  "Camera_Kachina_ElementalBurst_In": {
    "name": "Data/Camera/SShot/Ca_Combat_Avatar_Loli_Pole_Kachina_ElementalBurst_In"
  },
  "Camera_Kachina_ElementalBurst_Out": {
    "name": "Data/Camera/SShot/Ca_Combat_Avatar_Loli_Pole_Kachina_ElementalBurst_Out"
  },
  "Camera_Mualani_ElementalBurst": {
    "name": "Data/Camera/SShot/Ca_Combat_Avatar_Girl_Catalyst_Mualani_ElementalBurst"
  }
}