{
  "luaDataPath": "",
  "isSimpleTalk": true,
  "entityBan": "",
  "disableNpcLod": true,
  "protectNpcMobileLod": true,
  "talkFlag": 1,
  "startFade": {
    "startFadeOutDuration": 0.0
  },
  "endFade": {
    "startFadeOutDuration": 0.0
  },
  "actors": [
    {
      "alias": "Avatar",
      "visible": true,
      "bornPointName": "",
      "relativePosType": "AVATAR_NEW",
      "relativePosNpcAlias": "",
      "_bindMovingTargetKey": ""
    },
    {
      "configID": 30046,
      "alias": "30046",
      "visible": true,
      "bornPointName": "",
      "relativePosType": "AVATAR_NEW",
      "relativePosNpcAlias": "",
      "_bindMovingTargetKey": ""
    }
  ],
  "group": [
    [
      {
        "$type": "FJKIHHKJLMJ",
        "type": "CAMERA_FOCUS",
        "duration": 0.10000000149011612,
        "actionId": 103,
        "targetNpcAlias": "",
        "KJOEFBPOIIH": "",
        "IICFKKEBIEC": "",
        "EGEHEJEBLBJ": ""
      },
      {
        "$type": "MoleMole.Config.ConfigTimeProtectAction",
        "type": "TIME_PROTECT",
        "duration": 0.10000000149011612,
        "actionId": 104
      },
      {
        "$type": "LLGANGLOEEO",
        "type": "STEER_TO",
        "delayTime": 0.30000001192092896,
        "duration": 0.800000011920929,
        "aliasList": [
          "Avatar"
        ],
        "actionId": 147,
        "steerType": "TO_TARGET_ADVANCED",
        "useSteerAnim": true,
        "interruptFreestyle": true,
        "forceSteer": true,
        "targetNpcAlias": "30046",
        "fixInterNull": true,
        "OAFJBHJHLJG": ""
      },
      {
        "$type": "LLGANGLOEEO",
        "type": "STEER_TO",
        "delayTime": 0.30000001192092896,
        "duration": 0.800000011920929,
        "aliasList": [
          "30046"
        ],
        "actionId": 148,
        "steerType": "TO_LOCAL_AVATAR_ADVANCED",
        "useSteerAnim": true,
        "interruptFreestyle": true,
        "forceSteer": true,
        "targetNpcAlias": "",
        "fixInterNull": true,
        "OAFJBHJHLJG": ""
      }
    ],
    [
      {
        "$type": "PKKMAMONGEO",
        "type": "DIALOG",
        "aliasList": [
          "30046"
        ],
        "actionId": 107,
        "dialogID": 705290201,
        "protectTime": 0.5
      },
      {
        "$type": "FABLGECDBCH",
        "type": "BODY_LANG",
        "aliasList": [
          "30046"
        ],
        "actionId": 157,
        "bodyLangParam": 1200,
        "forceDoFreeStyle": true,
        "canDoRepeatFreeStyle": false,
        "cantBackToIdleWhenSitLoop": true,
        "eventPatternSuiteKey": "",
        "FOHHKFAIAAJ": ""
      }
    ],
    [
      {
        "$type": "PKKMAMONGEO",
        "type": "DIALOG",
        "aliasList": [
          "30046"
        ],
        "actionId": 109,
        "dialogID": 705290202,
        "protectTime": 0.5
      },
      {
        "$type": "HDGKHDNFMIM",
        "type": "DIALOG_SELECT",
        "delayTime": 0.4000000059604645,
        "aliasList": [
          "Avatar"
        ],
        "actionId": 110,
        "dialogIDList": [
          705290203,
          705290204
        ],
        "grpIDList": [
          823608546,
          823608546
        ],
        "useGrpId": true,
        "countDownGrpId": 823608542
      }
    ],
    [
      {
        "$type": "PKKMAMONGEO",
        "type": "DIALOG",
        "aliasList": [
          "30046"
        ],
        "actionId": 112,
        "dialogID": 705290205,
        "protectTime": 0.5
      },
      {
        "$type": "FABLGECDBCH",
        "type": "BODY_LANG",
        "aliasList": [
          "30046"
        ],
        "actionId": 158,
        "bodyLangParam": 9000,
        "forceDoFreeStyle": true,
        "canDoRepeatFreeStyle": false,
        "cantBackToIdleWhenSitLoop": true,
        "eventPatternSuiteKey": "",
        "FOHHKFAIAAJ": ""
      }
    ],
    [
      {
        "$type": "PKKMAMONGEO",
        "type": "DIALOG",
        "aliasList": [
          "30046"
        ],
        "actionId": 114,
        "dialogID": 705290206,
        "protectTime": 0.5
      }
    ],
    [
      {
        "$type": "PKKMAMONGEO",
        "type": "DIALOG",
        "aliasList": [
          "30046"
        ],
        "actionId": 116,
        "dialogID": 705290207,
        "protectTime": 0.5
      }
    ],
    [
      {
        "$type": "PKKMAMONGEO",
        "type": "DIALOG",
        "aliasList": [
          "30046"
        ],
        "actionId": 118,
        "dialogID": 705290208,
        "protectTime": 0.5
      },
      {
        "$type": "FABLGECDBCH",
        "type": "BODY_LANG",
        "aliasList": [
          "30046"
        ],
        "actionId": 159,
        "bodyLangParam": 1030,
        "forceDoFreeStyle": true,
        "canDoRepeatFreeStyle": false,
        "cantBackToIdleWhenSitLoop": true,
        "eventPatternSuiteKey": "",
        "FOHHKFAIAAJ": ""
      }
    ],
    [
      {
        "$type": "PKKMAMONGEO",
        "type": "DIALOG",
        "aliasList": [
          "30046"
        ],
        "actionId": 120,
        "dialogID": 705290209,
        "protectTime": 0.5
      },
      {
        "$type": "HDGKHDNFMIM",
        "type": "DIALOG_SELECT",
        "delayTime": 0.4000000059604645,
        "aliasList": [
          "Avatar"
        ],
        "actionId": 121,
        "dialogIDList": [
          705290210
        ],
        "grpIDList": [
          823608551
        ],
        "useGrpId": true,
        "countDownGrpId": 823608542
      }
    ],
    [
      {
        "$type": "PKKMAMONGEO",
        "type": "DIALOG",
        "aliasList": [
          "30046"
        ],
        "actionId": 123,
        "dialogID": 705290211,
        "protectTime": 0.5
      }
    ],
    [
      {
        "$type": "PKKMAMONGEO",
        "type": "DIALOG",
        "aliasList": [
          "30046"
        ],
        "actionId": 125,
        "dialogID": 705290212,
        "protectTime": 0.5
      }
    ],
    [
      {
        "$type": "PKKMAMONGEO",
        "type": "DIALOG",
        "aliasList": [
          "30046"
        ],
        "actionId": 127,
        "dialogID": 705290213,
        "protectTime": 0.5
      },
      {
        "$type": "FABLGECDBCH",
        "type": "BODY_LANG",
        "aliasList": [
          "30046"
        ],
        "actionId": 160,
        "bodyLangParam": 1090,
        "forceDoFreeStyle": true,
        "canDoRepeatFreeStyle": false,
        "cantBackToIdleWhenSitLoop": true,
        "eventPatternSuiteKey": "",
        "FOHHKFAIAAJ": ""
      }
    ],
    [
      {
        "$type": "PKKMAMONGEO",
        "type": "DIALOG",
        "aliasList": [
          "30046"
        ],
        "actionId": 129,
        "dialogID": 705290214,
        "protectTime": 0.5
      },
      {
        "$type": "FABLGECDBCH",
        "type": "BODY_LANG",
        "aliasList": [
          "30046"
        ],
        "actionId": 161,
        "bodyLangParam": 1171,
        "forceDoFreeStyle": true,
        "canDoRepeatFreeStyle": false,
        "cantBackToIdleWhenSitLoop": true,
        "eventPatternSuiteKey": "",
        "FOHHKFAIAAJ": ""
      }
    ],
    [
      {
        "$type": "PKKMAMONGEO",
        "type": "DIALOG",
        "aliasList": [
          "30046"
        ],
        "actionId": 131,
        "dialogID": 705290215,
        "protectTime": 0.5
      }
    ],
    [
      {
        "$type": "PKKMAMONGEO",
        "type": "DIALOG",
        "aliasList": [
          "30046"
        ],
        "actionId": 133,
        "dialogID": 705290216,
        "protectTime": 0.5
      },
      {
        "$type": "FABLGECDBCH",
        "type": "BODY_LANG",
        "aliasList": [
          "30046"
        ],
        "actionId": 162,
        "isContinue": true,
        "forceDoFreeStyle": true,
        "canDoRepeatFreeStyle": false,
        "cantBackToIdleWhenSitLoop": true,
        "eventPatternSuiteKey": "",
        "FOHHKFAIAAJ": ""
      },
      {
        "$type": "HDGKHDNFMIM",
        "type": "DIALOG_SELECT",
        "delayTime": 0.4000000059604645,
        "aliasList": [
          "Avatar"
        ],
        "actionId": 134,
        "dialogIDList": [
          705290217,
          705290218,
          705290219
        ],
        "grpIDList": [
          4057028406,
          4057028407,
          4057028408
        ],
        "useGrpId": true,
        "countDownGrpId": 823608542
      }
    ],
    [
      {
        "$type": "MoleMole.Config.ConfigUITriggerInterAction",
        "type": "UI_TRIGGER",
        "duration": 0.0,
        "actionId": 152,
        "contextName": "MusicInstrument",
        "_param": "1"
      }
    ],
    [
      {
        "$type": "MoleMole.Config.ConfigUITriggerInterAction",
        "type": "UI_TRIGGER",
        "duration": 0.0,
        "actionId": 153,
        "contextName": "MusicInstrument",
        "_param": "2"
      }
    ],
    [
      {
        "$type": "MoleMole.Config.ConfigUITriggerInterAction",
        "type": "UI_TRIGGER",
        "duration": 0.0,
        "actionId": 154,
        "contextName": "MusicInstrument",
        "_param": "5"
      }
    ],
    [
      {
        "$type": "PKKMAMONGEO",
        "type": "DIALOG",
        "aliasList": [
          "30046"
        ],
        "actionId": 136,
        "dialogID": 705290220,
        "protectTime": 0.5
      }
    ],
    [
      {
        "$type": "PKKMAMONGEO",
        "type": "DIALOG",
        "aliasList": [
          "30046"
        ],
        "actionId": 138,
        "dialogID": 705290221,
        "protectTime": 0.5
      }
    ],
    [
      {
        "$type": "PKKMAMONGEO",
        "type": "DIALOG",
        "aliasList": [
          "30046"
        ],
        "actionId": 140,
        "dialogID": 705290222,
        "protectTime": 0.5
      }
    ],
    [
      {
        "$type": "PKKMAMONGEO",
        "type": "DIALOG",
        "aliasList": [
          "30046"
        ],
        "actionId": 142,
        "dialogID": 705290223,
        "protectTime": 0.5
      }
    ],
    [
      {
        "$type": "MoleMole.Config.ConfigUITriggerInterAction",
        "type": "UI_TRIGGER",
        "actionId": 156,
        "contextName": "MusicCalibration",
        "_param": ""
      }
    ],
    [
      {
        "$type": "PKKMAMONGEO",
        "type": "DIALOG",
        "aliasList": [
          "30046"
        ],
        "actionId": 144,
        "dialogID": 705290224,
        "protectTime": 0.5
      },
      {
        "$type": "FABLGECDBCH",
        "type": "BODY_LANG",
        "aliasList": [
          "30046"
        ],
        "actionId": 163,
        "bodyLangParam": 1260,
        "forceDoFreeStyle": true,
        "canDoRepeatFreeStyle": false,
        "cantBackToIdleWhenSitLoop": true,
        "eventPatternSuiteKey": "",
        "FOHHKFAIAAJ": ""
      }
    ],
    [
      {
        "$type": "PKKMAMONGEO",
        "type": "DIALOG",
        "aliasList": [
          "30046"
        ],
        "actionId": 146,
        "dialogID": 705290225,
        "protectTime": 0.5
      },
      {
        "$type": "FABLGECDBCH",
        "type": "BODY_LANG",
        "delayTime": 0.19200000166893005,
        "aliasList": [
          "30046"
        ],
        "actionId": 164,
        "isContinue": true,
        "forceDoFreeStyle": true,
        "canDoRepeatFreeStyle": false,
        "cantBackToIdleWhenSitLoop": true,
        "eventPatternSuiteKey": "",
        "FOHHKFAIAAJ": ""
      }
    ],
    [
      {
        "$type": "MoleMole.Config.ConfigUITriggerInterAction",
        "type": "UI_TRIGGER",
        "actionId": 168,
        "contextName": "MusicV3SelectPageContext",
        "_param": ""
      },
      {
        "$type": "MoleMole.Config.ConfigTimeProtectAction",
        "type": "TIME_PROTECT",
        "duration": 0.10000000149011612,
        "actionId": 166
      },
      {
        "$type": "PKKMAMONGEO",
        "type": "DIALOG_CLEAR",
        "actionId": 167
      }
    ],
    [
      {
        "$type": "MoleMole.Config.ConfigTimeProtectAction",
        "type": "TIME_PROTECT",
        "duration": 0.10000000149011612,
        "actionId": 105
      }
    ]
  ],
  "groupId": [
    {
      "grpId": 823608543,
      "nextGrpId": 823608544
    },
    {
      "index": 1,
      "grpId": 823608544,
      "nextGrpId": 823608545
    },
    {
      "index": 2,
      "grpId": 823608545,
      "nextGrpId": 823608546
    },
    {
      "index": 3,
      "grpId": 823608546,
      "nextGrpId": 823608547
    },
    {
      "index": 4,
      "grpId": 823608547,
      "nextGrpId": 823608548
    },
    {
      "index": 5,
      "grpId": 823608548,
      "nextGrpId": 823608549
    },
    {
      "index": 6,
      "grpId": 823608549,
      "nextGrpId": 823608550
    },
    {
      "index": 7,
      "grpId": 823608550,
      "nextGrpId": 823608551
    },
    {
      "index": 8,
      "grpId": 823608551,
      "nextGrpId": 4057028401
    },
    {
      "index": 9,
      "grpId": 4057028401,
      "nextGrpId": 4057028402
    },
    {
      "index": 10,
      "grpId": 4057028402,
      "nextGrpId": 4057028403
    },
    {
      "index": 11,
      "grpId": 4057028403,
      "nextGrpId": 4057028404
    },
    {
      "index": 12,
      "grpId": 4057028404,
      "nextGrpId": 4057028405
    },
    {
      "index": 13,
      "grpId": 4057028405,
      "nextGrpId": 4057028406
    },
    {
      "index": 14,
      "grpId": 4057028406,
      "nextGrpId": 4057028409
    },
    {
      "index": 15,
      "grpId": 4057028407,
      "nextGrpId": 4057028409
    },
    {
      "index": 16,
      "grpId": 4057028408,
      "nextGrpId": 4057028409
    },
    {
      "index": 17,
      "grpId": 4057028409,
      "nextGrpId": 4057028410
    },
    {
      "index": 18,
      "grpId": 4057028410,
      "nextGrpId": 4057028432
    },
    {
      "index": 19,
      "grpId": 4057028432,
      "nextGrpId": 4057028433
    },
    {
      "index": 20,
      "grpId": 4057028433,
      "nextGrpId": 4057028434
    },
    {
      "index": 21,
      "grpId": 4057028434,
      "nextGrpId": 4057028435
    },
    {
      "index": 22,
      "grpId": 4057028435,
      "nextGrpId": 4057028436
    },
    {
      "index": 23,
      "grpId": 4057028436,
      "nextGrpId": 4057028437
    },
    {
      "index": 24,
      "grpId": 4057028437,
      "nextGrpId": 4057028438
    },
    {
      "index": 25,
      "grpId": 4057028438,
      "nextGrpId": 4057028439
    }
  ],
  "freeStyleDic": {
    "30046": [
      1200,
      9000,
      1030,
      1090,
      1171,
      1260
    ]
  }
}