{
  "luaDataPath": "",
  "startBlackKeepTime": 0.5,
  "entityBan": "",
  "disableNpcLod": true,
  "startFade": {
    "startFadeInDuration": 0.5,
    "startFadeOutDuration": 0.5
  },
  "endFade": {
    "startFadeOutDuration": 0.0
  },
  "actors": [
    {
      "alias": "Avatar",
      "visible": true,
      "bornPointName": "Q40010Avatar2",
      "relativePosNpcAlias": "",
      "_bindMovingTargetKey": ""
    },
    {
      "configID": 1005,
      "alias": "1005",
      "visible": true,
      "bornPointName": "Q40010Paimon2",
      "removeActorType": "REMOVE_WITH_DISAPPEAR",
      "relativePosNpcAlias": "",
      "_bindMovingTargetKey": ""
    },
    {
      "configID": 143501,
      "alias": "143501",
      "visible": true,
      "bornPointName": "Q40010Marjorie",
      "removeActorType": "REMOVE",
      "relativePosNpcAlias": "",
      "_bindMovingTargetKey": ""
    },
    {
      "configID": 10090,
      "alias": "10090",
      "visible": true,
      "bornPointName": "Q40010Klee3",
      "removeActorType": "REMOVE",
      "relativePosNpcAlias": "",
      "_bindMovingTargetKey": ""
    }
  ],
  "group": [
    [
      {
        "$type": "MoleMole.Config.ConfigSimpleBlackScreenAction",
        "type": "SIMPLE_BLACK_SCREEN",
        "duration": 1.0,
        "durationToBlack": 0.5,
        "durationKeepBlack": 0.5,
        "durationFromBlack": 0.5,
        "textMapID": ""
      },
      {
        "$type": "MoleMole.Config.ConfigTimeProtectAction",
        "type": "TIME_PROTECT",
        "duration": 1.0
      },
      {
        "$type": "MoleMole.Config.ConfigTeleportToAction",
        "type": "TELEPORT_TO",
        "aliasList": [
          "Avatar"
        ],
        "position": {
          "x": 2247.580322265625,
          "y": 213.99000549316406,
          "z": -903.18212890625
        },
        "forward": {
          "x": 0.251708984375,
          "z": -1.091064453125
        },
        "_posBindMovingTargetKey": "",
        "_forwardBindMovingTargetKey": ""
      },
      {
        "$type": "LJLMDHDCAMK",
        "type": "LOOK_AT",
        "aliasList": [
          "Avatar"
        ],
        "enableHead": true,
        "useTargetPos": true,
        "enableAbsolute": true,
        "targetPosition": {
          "x": 2247.02099609375,
          "y": 215.21531677246094,
          "z": -904.7777099609375
        },
        "headTurnTime": 0.5,
        "targetNpcAlias": "",
        "targetNpcLookAtPoint": "",
        "OAFJBHJHLJG": ""
      },
      {
        "$type": "MoleMole.Config.ConfigTeleportToAction",
        "type": "TELEPORT_TO",
        "aliasList": [
          "1005"
        ],
        "position": {
          "x": 2247.02685546875,
          "y": 213.99000549316406,
          "z": -904.8021850585938
        },
        "forward": {
          "x": 0.5087890625,
          "z": 0.8343505859375
        },
        "_posBindMovingTargetKey": "",
        "_forwardBindMovingTargetKey": ""
      },
      {
        "$type": "LJLMDHDCAMK",
        "type": "LOOK_AT",
        "aliasList": [
          "1005"
        ],
        "enableHead": true,
        "useTargetPos": true,
        "enableAbsolute": true,
        "targetPosition": {
          "x": 2247.19873046875,
          "y": 215.29946899414062,
          "z": -903.9769897460938
        },
        "headTurnTime": 0.5,
        "targetNpcAlias": "",
        "targetNpcLookAtPoint": "",
        "OAFJBHJHLJG": ""
      },
      {
        "$type": "MoleMole.Config.ConfigTeleportToAction",
        "type": "TELEPORT_TO",
        "aliasList": [
          "10090"
        ],
        "position": {
          "x": 2247.01708984375,
          "y": 213.99000549316406,
          "z": -903.9349975585938
        },
        "forward": {
          "x": 1.340576171875,
          "z": -0.20831298828125
        },
        "_posBindMovingTargetKey": "",
        "_forwardBindMovingTargetKey": ""
      },
      {
        "$type": "LJLMDHDCAMK",
        "type": "LOOK_AT",
        "aliasList": [
          "10090"
        ],
        "enableHead": true,
        "useTargetPos": true,
        "enableAbsolute": true,
        "targetPosition": {
          "x": 2247.089111328125,
          "y": 215.21531677246094,
          "z": -904.6614379882812
        },
        "headTurnTime": 0.5,
        "targetNpcAlias": "",
        "targetNpcLookAtPoint": "",
        "OAFJBHJHLJG": ""
      }
    ],
    [
      {
        "$type": "FJKIHHKJLMJ",
        "type": "CAMERA_MOVE",
        "delayTime": 0.10474260151386261,
        "duration": 3.801870346069336,
        "camPosOffset": {
          "x": 2245.331787109375,
          "y": 222.07177734375,
          "z": -909.0098876953125
        },
        "camForwardTargetOffset": {
          "x": 2245.81494140625,
          "y": 221.30511474609375,
          "z": -908.5870971679688
        },
        "camFov": 42.5,
        "cameraBlendType": "EaseOutQuad",
        "NJBNNOMLKCK": {},
        "openCameraDither": false,
        "targetNpcAlias": "",
        "KJOEFBPOIIH": "",
        "IICFKKEBIEC": "",
        "EGEHEJEBLBJ": ""
      },
      {
        "$type": "FJKIHHKJLMJ",
        "type": "CAMERA_MOVE",
        "duration": 0.34535732865333557,
        "camPosOffset": {
          "x": 2245.491455078125,
          "y": 222.0846710205078,
          "z": -909.1605224609375
        },
        "camForwardTargetOffset": {
          "x": 2245.950927734375,
          "y": 221.3160858154297,
          "z": -908.7152709960938
        },
        "camFov": 42.5,
        "lerpPattern": 6,
        "cameraBlendType": "EaseInOutCubic",
        "NJBNNOMLKCK": {},
        "openCameraDither": false,
        "targetNpcAlias": "",
        "KJOEFBPOIIH": "",
        "IICFKKEBIEC": "",
        "EGEHEJEBLBJ": ""
      },
      {
        "$type": "FJKIHHKJLMJ",
        "type": "CAMERA_MOVE",
        "delayTime": 4.467869758605957,
        "duration": 0.9738143086433411,
        "camPosOffset": {
          "x": 2247.912841796875,
          "y": 215.5106964111328,
          "z": -905.3837890625
        },
        "camForwardTargetOffset": {
          "x": 2247.35498046875,
          "y": 215.25494384765625,
          "z": -904.5941772460938
        },
        "camFov": 42.5,
        "lerpPattern": 6,
        "cameraBlendType": "EaseInOutCubic",
        "NJBNNOMLKCK": {},
        "openCameraDither": false,
        "targetNpcAlias": "",
        "KJOEFBPOIIH": "",
        "IICFKKEBIEC": "",
        "EGEHEJEBLBJ": ""
      },
      {
        "$type": "FABLGECDBCH",
        "type": "BODY_LANG",
        "aliasList": [
          "1005"
        ],
        "bodyLangParam": 1170,
        "forceDoFreeStyle": true,
        "eventPatternSuiteKey": "",
        "FOHHKFAIAAJ": ""
      },
      {
        "$type": "PKKMAMONGEO",
        "type": "DIALOG",
        "aliasList": [
          "1005"
        ],
        "dialogID": 400100301,
        "protectTime": 0.5
      },
      {
        "$type": "FABLGECDBCH",
        "type": "BODY_LANG",
        "delayTime": 1.796927809715271,
        "aliasList": [
          "1005"
        ],
        "bodyLangParam": 1180,
        "forceDoFreeStyle": true,
        "eventPatternSuiteKey": "",
        "FOHHKFAIAAJ": ""
      },
      {
        "$type": "FABLGECDBCH",
        "type": "BODY_LANG",
        "delayTime": 5.184436321258545,
        "aliasList": [
          "1005"
        ],
        "bodyLangParam": 1110,
        "forceDoFreeStyle": true,
        "eventPatternSuiteKey": "",
        "FOHHKFAIAAJ": ""
      },
      {
        "$type": "CPJKOIHIPBE",
        "type": "EMO_SYNC",
        "aliasList": [
          "1005"
        ],
        "dataPath": "Cs_Emo_Avatar_Simple_Common_Set/Cs_Emo_Avatar_Talk/Cs_Emo_Avatar_Event/Cs_Emo_Summertime/Cs_Emo_400100301",
        "phonemePath": "",
        "emotionPath": "",
        "mateDataPath": "",
        "matePhonemePath": "",
        "mateEmotionPath": "",
        "dataPathHashList": [
          1428874712529578492,
          14885382458008676742,
          16380364860779355279,
          15154440561402983371
        ],
        "FMDPBECPELH": "",
        "ADKBLPOKGIK": ""
      },
      {
        "$type": "MoleMole.Config.ConfigTeleportToAction",
        "type": "TELEPORT_TO",
        "aliasList": [
          "10090"
        ],
        "position": {
          "x": 2246.582763671875,
          "y": 213.99000549316406,
          "z": -903.7654418945312
        },
        "forward": {
          "x": 1.42236328125,
          "z": -0.3231201171875
        },
        "_posBindMovingTargetKey": "",
        "_forwardBindMovingTargetKey": ""
      }
    ],
    [
      {
        "$type": "FJKIHHKJLMJ",
        "type": "CAMERA_MOVE",
        "delayTime": 0.15711398422718048,
        "duration": 10.662527084350586,
        "camPosOffset": {
          "x": 2245.3193359375,
          "y": 215.319091796875,
          "z": -904.3419189453125
        },
        "camForwardTargetOffset": {
          "x": 2246.30908203125,
          "y": 215.20770263671875,
          "z": -904.2537841796875
        },
        "camFov": 42.5,
        "cameraBlendType": "EaseOutQuad",
        "NJBNNOMLKCK": {},
        "openCameraDither": false,
        "targetNpcAlias": "",
        "KJOEFBPOIIH": "",
        "IICFKKEBIEC": "",
        "EGEHEJEBLBJ": ""
      },
      {
        "$type": "FJKIHHKJLMJ",
        "type": "CAMERA_MOVE",
        "duration": 0.4239144027233124,
        "camPosOffset": {
          "x": 2245.3095703125,
          "y": 215.319091796875,
          "z": -904.1947631835938
        },
        "camForwardTargetOffset": {
          "x": 2246.302490234375,
          "y": 215.20770263671875,
          "z": -904.1512451171875
        },
        "camFov": 42.5,
        "lerpPattern": 6,
        "cameraBlendType": "EaseInOutCubic",
        "NJBNNOMLKCK": {},
        "openCameraDither": false,
        "targetNpcAlias": "",
        "KJOEFBPOIIH": "",
        "IICFKKEBIEC": "",
        "EGEHEJEBLBJ": ""
      },
      {
        "$type": "LLGANGLOEEO",
        "type": "STEER_TO",
        "delayTime": 0.4451570510864258,
        "duration": 0.800000011920929,
        "aliasList": [
          "Avatar"
        ],
        "steerType": "ABSOLUTE",
        "steerDir": {
          "x": 2249.28271484375,
          "y": 215.56898498535156,
          "z": -904.9306030273438
        },
        "useSteerAnim": true,
        "targetNpcAlias": "",
        "OAFJBHJHLJG": ""
      },
      {
        "$type": "LJLMDHDCAMK",
        "type": "LOOK_AT",
        "delayTime": 0.9655112028121948,
        "aliasList": [
          "Avatar"
        ],
        "enableHead": true,
        "useTargetPos": true,
        "enableAbsolute": true,
        "targetPosition": {
          "x": 2248.3310546875,
          "y": 215.3916778564453,
          "z": -904.2808837890625
        },
        "headTurnTime": 0.5,
        "targetNpcAlias": "",
        "targetNpcLookAtPoint": "",
        "OAFJBHJHLJG": ""
      },
      {
        "$type": "LJLMDHDCAMK",
        "type": "LOOK_AT",
        "delayTime": 0.41561129689216614,
        "aliasList": [
          "Avatar"
        ],
        "enableHead": true,
        "useTargetPos": true,
        "enableAbsolute": true,
        "targetPosition": {
          "x": 2248.3310546875,
          "y": 215.3916778564453,
          "z": -904.2808837890625
        },
        "headTurnTime": 0.5,
        "targetNpcAlias": "",
        "targetNpcLookAtPoint": "",
        "OAFJBHJHLJG": ""
      },
      {
        "$type": "LLGANGLOEEO",
        "type": "STEER_TO",
        "delayTime": 0.6808284521102905,
        "duration": 0.800000011920929,
        "aliasList": [
          "1005"
        ],
        "steerType": "ABSOLUTE",
        "steerDir": {
          "x": 2249.7353515625,
          "y": 215.38795471191406,
          "z": -903.6067504882812
        },
        "useSteerAnim": true,
        "targetNpcAlias": "",
        "OAFJBHJHLJG": ""
      },
      {
        "$type": "LJLMDHDCAMK",
        "type": "LOOK_AT",
        "delayTime": 1.1259853839874268,
        "aliasList": [
          "1005"
        ],
        "enableHead": true,
        "useTargetPos": true,
        "enableAbsolute": true,
        "targetPosition": {
          "x": 2248.47265625,
          "y": 215.42556762695312,
          "z": -904.127685546875
        },
        "headTurnTime": 0.5,
        "targetNpcAlias": "",
        "targetNpcLookAtPoint": "",
        "OAFJBHJHLJG": ""
      },
      {
        "$type": "FABLGECDBCH",
        "type": "BODY_LANG",
        "aliasList": [
          "1005"
        ],
        "isContinue": true,
        "forceDoFreeStyle": true,
        "eventPatternSuiteKey": "",
        "FOHHKFAIAAJ": ""
      },
      {
        "$type": "LJLMDHDCAMK",
        "type": "LOOK_AT",
        "delayTime": 0.4451570510864258,
        "aliasList": [
          "1005"
        ],
        "enableHead": true,
        "useTargetPos": true,
        "enableAbsolute": true,
        "targetPosition": {
          "x": 2248.47265625,
          "y": 215.42556762695312,
          "z": -904.127685546875
        },
        "headTurnTime": 0.5,
        "targetNpcAlias": "",
        "targetNpcLookAtPoint": "",
        "OAFJBHJHLJG": ""
      },
      {
        "$type": "PKKMAMONGEO",
        "type": "DIALOG",
        "aliasList": [
          "143501"
        ],
        "dialogID": 400100302,
        "protectTime": 0.5
      },
      {
        "$type": "FABLGECDBCH",
        "type": "BODY_LANG",
        "aliasList": [
          "143501"
        ],
        "bodyLangParam": 1171,
        "forceDoFreeStyle": true,
        "eventPatternSuiteKey": "",
        "FOHHKFAIAAJ": ""
      },
      {
        "$type": "FABLGECDBCH",
        "type": "BODY_LANG",
        "delayTime": 1.7510827779769897,
        "aliasList": [
          "143501"
        ],
        "bodyLangParam": 1172,
        "forceDoFreeStyle": true,
        "eventPatternSuiteKey": "",
        "FOHHKFAIAAJ": ""
      },
      {
        "$type": "LJLMDHDCAMK",
        "type": "LOOK_AT",
        "aliasList": [
          "143501"
        ],
        "enableHead": true,
        "headTurnTime": 0.5,
        "targetNpcAlias": "1005",
        "targetNpcLookAtPoint": "",
        "OAFJBHJHLJG": ""
      },
      {
        "$type": "CPJKOIHIPBE",
        "type": "EMO_SYNC",
        "aliasList": [
          "143501"
        ],
        "dataPath": "Cs_Emo_Avatar_Simple_Common_Set/Cs_Emo_Avatar_Talk/Cs_Emo_Avatar_Event/Cs_Emo_Summertime/Cs_Emo_400100302",
        "phonemePath": "",
        "emotionPath": "",
        "mateDataPath": "",
        "matePhonemePath": "",
        "mateEmotionPath": "",
        "dataPathHashList": [
          8609570577033391328,
          8491177635700733238,
          11969103212088952966,
          17413989633652285259
        ],
        "FMDPBECPELH": "",
        "ADKBLPOKGIK": ""
      },
      {
        "$type": "MoleMole.Config.ConfigTeleportToAction",
        "type": "TELEPORT_TO",
        "aliasList": [
          "10090"
        ],
        "position": {
          "x": 2247.01708984375,
          "y": 213.99000549316406,
          "z": -903.9349975585938
        },
        "forward": {
          "x": 0.9881408214569092,
          "y": -9.092147479350388e-09,
          "z": -0.1535494327545166
        },
        "_posBindMovingTargetKey": "",
        "_forwardBindMovingTargetKey": ""
      },
      {
        "$type": "LJLMDHDCAMK",
        "type": "LOOK_AT",
        "aliasList": [
          "10090"
        ],
        "enableHead": true,
        "useTargetPos": true,
        "enableAbsolute": true,
        "targetPosition": {
          "x": 2248.289794921875,
          "y": 215.31045532226562,
          "z": -904.2214965820312
        },
        "headTurnTime": 0.5,
        "targetNpcAlias": "",
        "targetNpcLookAtPoint": "",
        "OAFJBHJHLJG": ""
      }
    ],
    [
      {
        "$type": "FJKIHHKJLMJ",
        "type": "CAMERA_MOVE",
        "delayTime": 0.20948567986488342,
        "duration": 10.40066909790039,
        "camPosOffset": {
          "x": 2249.220947265625,
          "y": 215.65365600585938,
          "z": -904.4476318359375
        },
        "camForwardTargetOffset": {
          "x": 2248.24462890625,
          "y": 215.438720703125,
          "z": -904.4253540039062
        },
        "camFov": 25.0,
        "cameraBlendType": "EaseOutQuad",
        "NJBNNOMLKCK": {},
        "openCameraDither": false,
        "targetNpcAlias": "",
        "KJOEFBPOIIH": "",
        "IICFKKEBIEC": "",
        "EGEHEJEBLBJ": ""
      },
      {
        "$type": "FJKIHHKJLMJ",
        "type": "CAMERA_MOVE",
        "duration": 0.5024715662002563,
        "camPosOffset": {
          "x": 2249.222412109375,
          "y": 215.65101623535156,
          "z": -904.4100341796875
        },
        "camForwardTargetOffset": {
          "x": 2248.24609375,
          "y": 215.4360809326172,
          "z": -904.3877563476562
        },
        "camFov": 25.0,
        "lerpPattern": 6,
        "cameraBlendType": "EaseInOutCubic",
        "NJBNNOMLKCK": {},
        "openCameraDither": false,
        "targetNpcAlias": "",
        "KJOEFBPOIIH": "",
        "IICFKKEBIEC": "",
        "EGEHEJEBLBJ": ""
      },
      {
        "$type": "LJLMDHDCAMK",
        "type": "LOOK_AT",
        "aliasList": [
          "Avatar"
        ],
        "enableHead": true,
        "useTargetPos": true,
        "enableAbsolute": true,
        "targetPosition": {
          "x": 2247.2685546875,
          "y": 215.42294311523438,
          "z": -904.7716674804688
        },
        "headTurnTime": 0.5,
        "targetNpcAlias": "",
        "targetNpcLookAtPoint": "",
        "OAFJBHJHLJG": ""
      },
      {
        "$type": "PKKMAMONGEO",
        "type": "DIALOG",
        "aliasList": [
          "1005"
        ],
        "dialogID": 400100303,
        "protectTime": 0.5
      },
      {
        "$type": "FABLGECDBCH",
        "type": "BODY_LANG",
        "delayTime": 0.8903141021728516,
        "aliasList": [
          "1005"
        ],
        "bodyLangParam": 1180,
        "forceDoFreeStyle": true,
        "eventPatternSuiteKey": "",
        "FOHHKFAIAAJ": ""
      },
      {
        "$type": "FABLGECDBCH",
        "type": "BODY_LANG",
        "aliasList": [
          "1005"
        ],
        "bodyLangParam": 1170,
        "forceDoFreeStyle": true,
        "eventPatternSuiteKey": "",
        "FOHHKFAIAAJ": ""
      },
      {
        "$type": "FABLGECDBCH",
        "type": "BODY_LANG",
        "delayTime": 4.373666286468506,
        "aliasList": [
          "1005"
        ],
        "bodyLangParam": 1090,
        "forceDoFreeStyle": true,
        "eventPatternSuiteKey": "",
        "FOHHKFAIAAJ": ""
      },
      {
        "$type": "CPJKOIHIPBE",
        "type": "EMO_SYNC",
        "aliasList": [
          "1005"
        ],
        "dataPath": "Cs_Emo_Avatar_Simple_Common_Set/Cs_Emo_Avatar_Talk/Cs_Emo_Avatar_Event/Cs_Emo_Summertime/Cs_Emo_400100303",
        "phonemePath": "",
        "emotionPath": "",
        "mateDataPath": "",
        "matePhonemePath": "",
        "mateEmotionPath": "",
        "dataPathHashList": [
          13350680740893790408,
          10148497089869649044,
          4962675147817380123,
          15222072964609048579
        ],
        "FMDPBECPELH": "",
        "ADKBLPOKGIK": ""
      },
      {
        "$type": "LJLMDHDCAMK",
        "type": "LOOK_AT",
        "aliasList": [
          "10090"
        ],
        "enableHead": true,
        "useTargetPos": true,
        "enableAbsolute": true,
        "targetPosition": {
          "x": 2247.29052734375,
          "y": 215.42294311523438,
          "z": -905.1336669921875
        },
        "headTurnTime": 0.5,
        "targetNpcAlias": "",
        "targetNpcLookAtPoint": "",
        "OAFJBHJHLJG": ""
      }
    ],
    [
      {
        "$type": "FJKIHHKJLMJ",
        "type": "CAMERA_MOVE",
        "duration": 1.0,
        "camPosOffset": {
          "x": 2247.498291015625,
          "y": 215.3791961669922,
          "z": -904.6044311523438
        },
        "camForwardTargetOffset": {
          "x": 2248.374755859375,
          "y": 215.50424194335938,
          "z": -904.139404296875
        },
        "camFov": 25.0,
        "lerpPattern": 6,
        "cameraBlendType": "EaseInOutCubic",
        "NJBNNOMLKCK": {},
        "openCameraDither": false,
        "targetNpcAlias": "",
        "KJOEFBPOIIH": "",
        "IICFKKEBIEC": "",
        "EGEHEJEBLBJ": ""
      },
      {
        "$type": "PKKMAMONGEO",
        "type": "DIALOG",
        "aliasList": [
          "143501"
        ],
        "dialogID": 400100304,
        "protectTime": 0.5
      },
      {
        "$type": "FABLGECDBCH",
        "type": "BODY_LANG",
        "delayTime": 1.8591850996017456,
        "aliasList": [
          "143501"
        ],
        "bodyLangParam": 1173,
        "forceDoFreeStyle": true,
        "eventPatternSuiteKey": "",
        "FOHHKFAIAAJ": ""
      },
      {
        "$type": "FABLGECDBCH",
        "type": "BODY_LANG",
        "aliasList": [
          "143501"
        ],
        "bodyLangParam": 1171,
        "forceDoFreeStyle": true,
        "eventPatternSuiteKey": "",
        "FOHHKFAIAAJ": ""
      },
      {
        "$type": "LJLMDHDCAMK",
        "type": "LOOK_AT",
        "delayTime": 2.307396173477173,
        "aliasList": [
          "143501"
        ],
        "enableHead": true,
        "useTargetPos": true,
        "enableAbsolute": true,
        "targetPosition": {
          "x": 2246.9443359375,
          "y": 215.0177764892578,
          "z": -904.3141479492188
        },
        "headTurnTime": 0.5,
        "targetNpcAlias": "",
        "targetNpcLookAtPoint": "",
        "OAFJBHJHLJG": ""
      },
      {
        "$type": "CPJKOIHIPBE",
        "type": "EMO_SYNC",
        "aliasList": [
          "143501"
        ],
        "dataPath": "Cs_Emo_Avatar_Simple_Common_Set/Cs_Emo_Avatar_Talk/Cs_Emo_Avatar_Event/Cs_Emo_Summertime/Cs_Emo_400100304",
        "phonemePath": "",
        "emotionPath": "",
        "mateDataPath": "",
        "matePhonemePath": "",
        "mateEmotionPath": "",
        "dataPathHashList": [
          15786946002725813728,
          4400494415940190547,
          6810773491485780432,
          4076997997612066515
        ],
        "FMDPBECPELH": "",
        "ADKBLPOKGIK": ""
      },
      {
        "$type": "EMEHNEMOMMM",
        "type": "LOOK_AT_EYECTRL",
        "aliasList": [
          "143501"
        ],
        "useTargetPos": false,
        "turnTime": 0.10000000149011612,
        "targetNpcAlias": "",
        "targetPoint": "Face"
      },
      {
        "$type": "LJLMDHDCAMK",
        "type": "LOOK_AT",
        "aliasList": [
          "10090"
        ],
        "enableHead": true,
        "useTargetPos": true,
        "enableAbsolute": true,
        "targetPosition": {
          "x": 2248.409912109375,
          "y": 215.3916778564453,
          "z": -904.192138671875
        },
        "headTurnTime": 0.5,
        "targetNpcAlias": "",
        "targetNpcLookAtPoint": "",
        "OAFJBHJHLJG": ""
      }
    ],
    [
      {
        "$type": "FJKIHHKJLMJ",
        "type": "CAMERA_MOVE",
        "duration": 0.303082674741745,
        "camPosOffset": {
          "x": 2248.47900390625,
          "y": 215.3840789794922,
          "z": -904.1686401367188
        },
        "camForwardTargetOffset": {
          "x": 2247.527587890625,
          "y": 215.12254333496094,
          "z": -904.0055541992188
        },
        "camFov": 25.0,
        "lerpPattern": 6,
        "cameraBlendType": "EaseOutQuad",
        "NJBNNOMLKCK": {},
        "openCameraDither": false,
        "targetNpcAlias": "",
        "KJOEFBPOIIH": "",
        "IICFKKEBIEC": "",
        "EGEHEJEBLBJ": ""
      },
      {
        "$type": "FJKIHHKJLMJ",
        "type": "CAMERA_MOVE",
        "delayTime": 0.1524505913257599,
        "duration": 1.0,
        "camPosOffset": {
          "x": 2248.19677734375,
          "y": 215.30645751953125,
          "z": -904.1202392578125
        },
        "camForwardTargetOffset": {
          "x": 2247.245361328125,
          "y": 215.044921875,
          "z": -903.9571533203125
        },
        "camFov": 25.0,
        "cameraBlendType": "EaseOutQuart",
        "NJBNNOMLKCK": {},
        "openCameraDither": false,
        "targetNpcAlias": "",
        "KJOEFBPOIIH": "",
        "IICFKKEBIEC": "",
        "EGEHEJEBLBJ": ""
      },
      {
        "$type": "PKKMAMONGEO",
        "type": "DIALOG",
        "aliasList": [
          "10090"
        ],
        "dialogID": 400100305,
        "protectTime": 0.5
      },
      {
        "$type": "LJLMDHDCAMK",
        "type": "LOOK_AT",
        "aliasList": [
          "10090"
        ],
        "enableHead": true,
        "useTargetPos": true,
        "enableAbsolute": true,
        "targetPosition": {
          "x": 2248.522705078125,
          "y": 215.42706298828125,
          "z": -904.1351928710938
        },
        "headTurnTime": 0.5,
        "targetNpcAlias": "",
        "targetNpcLookAtPoint": "",
        "OAFJBHJHLJG": ""
      },
      {
        "$type": "FABLGECDBCH",
        "type": "BODY_LANG",
        "aliasList": [
          "10090"
        ],
        "bodyLangParam": 1060,
        "forceDoFreeStyle": true,
        "eventPatternSuiteKey": "",
        "FOHHKFAIAAJ": ""
      },
      {
        "$type": "CPJKOIHIPBE",
        "type": "EMO_SYNC",
        "aliasList": [
          "10090"
        ],
        "dataPath": "Cs_Emo_Avatar_Simple_Common_Set/Cs_Emo_Avatar_Talk/Cs_Emo_Avatar_Event/Cs_Emo_Summertime/Cs_Emo_400100305",
        "phonemePath": "",
        "emotionPath": "",
        "mateDataPath": "",
        "matePhonemePath": "",
        "mateEmotionPath": "",
        "dataPathHashList": [
          6031224228416905375,
          10256707586800364639,
          17648959250054009816,
          53222784608568345
        ],
        "FMDPBECPELH": "",
        "ADKBLPOKGIK": ""
      }
    ],
    [
      {
        "$type": "FJKIHHKJLMJ",
        "type": "CAMERA_MOVE",
        "delayTime": 3.359140634536743,
        "duration": 7.250476360321045,
        "camPosOffset": {
          "x": 2249.24560546875,
          "y": 215.8076171875,
          "z": -904.5446166992188
        },
        "camForwardTargetOffset": {
          "x": 2248.31103515625,
          "y": 215.4829864501953,
          "z": -904.3988037109375
        },
        "camFov": 25.0,
        "cameraBlendType": "EaseOutQuad",
        "NJBNNOMLKCK": {},
        "openCameraDither": false,
        "targetNpcAlias": "",
        "KJOEFBPOIIH": "",
        "IICFKKEBIEC": "",
        "EGEHEJEBLBJ": ""
      },
      {
        "$type": "FJKIHHKJLMJ",
        "type": "CAMERA_MOVE",
        "delayTime": 0.6703474521636963,
        "duration": 2.5201520919799805,
        "camPosOffset": {
          "x": 2247.888916015625,
          "y": 215.5185546875,
          "z": -904.3500366210938
        },
        "camForwardTargetOffset": {
          "x": 2247.05126953125,
          "y": 215.251220703125,
          "z": -904.8264770507812
        },
        "camFov": 25.0,
        "cameraBlendType": "Linear",
        "NJBNNOMLKCK": {},
        "openCameraDither": false,
        "targetNpcAlias": "",
        "KJOEFBPOIIH": "",
        "IICFKKEBIEC": "",
        "EGEHEJEBLBJ": ""
      },
      {
        "$type": "FJKIHHKJLMJ",
        "type": "CAMERA_MOVE",
        "delayTime": 3.2295587062835693,
        "duration": 0.3248613774776459,
        "camPosOffset": {
          "x": 2249.23583984375,
          "y": 215.8115997314453,
          "z": -904.5982666015625
        },
        "camForwardTargetOffset": {
          "x": 2248.30126953125,
          "y": 215.48696899414062,
          "z": -904.4524536132812
        },
        "camFov": 25.0,
        "lerpPattern": 6,
        "cameraBlendType": "EaseInQuad",
        "NJBNNOMLKCK": {},
        "openCameraDither": false,
        "targetNpcAlias": "",
        "KJOEFBPOIIH": "",
        "IICFKKEBIEC": "",
        "EGEHEJEBLBJ": ""
      },
      {
        "$type": "FJKIHHKJLMJ",
        "type": "CAMERA_MOVE",
        "duration": 0.8619245290756226,
        "camPosOffset": {
          "x": 2247.888916015625,
          "y": 215.5185546875,
          "z": -904.3500366210938
        },
        "camForwardTargetOffset": {
          "x": 2247.05126953125,
          "y": 215.251220703125,
          "z": -904.8264770507812
        },
        "camFov": 25.0,
        "cameraBlendType": "EaseOutQuint",
        "NJBNNOMLKCK": {},
        "openCameraDither": false,
        "targetNpcAlias": "",
        "KJOEFBPOIIH": "",
        "IICFKKEBIEC": "",
        "EGEHEJEBLBJ": ""
      },
      {
        "$type": "PKKMAMONGEO",
        "type": "DIALOG",
        "aliasList": [
          "1005"
        ],
        "dialogID": 400100306,
        "protectTime": 0.5
      },
      {
        "$type": "FABLGECDBCH",
        "type": "BODY_LANG",
        "delayTime": 1.0997998714447021,
        "aliasList": [
          "1005"
        ],
        "bodyLangParam": 1150,
        "forceDoFreeStyle": true,
        "eventPatternSuiteKey": "",
        "FOHHKFAIAAJ": ""
      },
      {
        "$type": "FABLGECDBCH",
        "type": "BODY_LANG",
        "delayTime": 4.140140533447266,
        "aliasList": [
          "1005"
        ],
        "bodyLangParam": 1190,
        "forceDoFreeStyle": true,
        "eventPatternSuiteKey": "",
        "FOHHKFAIAAJ": ""
      },
      {
        "$type": "FABLGECDBCH",
        "type": "BODY_LANG",
        "delayTime": 2.8533451557159424,
        "aliasList": [
          "1005"
        ],
        "bodyLangParam": 1180,
        "forceDoFreeStyle": true,
        "eventPatternSuiteKey": "",
        "FOHHKFAIAAJ": ""
      },
      {
        "$type": "FABLGECDBCH",
        "type": "BODY_LANG",
        "aliasList": [
          "1005"
        ],
        "bodyLangParam": 1060,
        "forceDoFreeStyle": true,
        "eventPatternSuiteKey": "",
        "FOHHKFAIAAJ": ""
      },
      {
        "$type": "CPJKOIHIPBE",
        "type": "EMO_SYNC",
        "aliasList": [
          "1005"
        ],
        "dataPath": "Cs_Emo_Avatar_Simple_Common_Set/Cs_Emo_Avatar_Talk/Cs_Emo_Avatar_Event/Cs_Emo_Summertime/Cs_Emo_400100306",
        "phonemePath": "",
        "emotionPath": "",
        "mateDataPath": "",
        "matePhonemePath": "",
        "mateEmotionPath": "",
        "dataPathHashList": [
          18021264166904664348,
          7497609631246189648,
          10952810564385078692,
          13481684087354654058
        ],
        "FMDPBECPELH": "",
        "ADKBLPOKGIK": ""
      },
      {
        "$type": "FABLGECDBCH",
        "type": "BODY_LANG",
        "delayTime": 0.9800398349761963,
        "aliasList": [
          "10090"
        ],
        "isContinue": true,
        "forceDoFreeStyle": true,
        "eventPatternSuiteKey": "",
        "FOHHKFAIAAJ": ""
      },
      {
        "$type": "MoleMole.Config.ConfigTeleportToAction",
        "type": "TELEPORT_TO",
        "aliasList": [
          "10090"
        ],
        "position": {
          "x": 2246.98876953125,
          "y": 213.99000549316406,
          "z": -904.0367431640625
        },
        "forward": {
          "x": 1.016357421875,
          "y": 1.52587890625e-05,
          "z": -0.05181884765625
        },
        "_posBindMovingTargetKey": "",
        "_forwardBindMovingTargetKey": ""
      },
      {
        "$type": "CPJKOIHIPBE",
        "type": "EMO_SYNC",
        "aliasList": [
          "10090"
        ],
        "dataPath": "",
        "phonemePath": "Cs_Emo_Avatar_Common/Cs_Emo_Avatar_Default01",
        "emotionPath": "Cs_Emo_Avatar_Common/Cs_Emo_Avatar_Normal01",
        "mateDataPath": "",
        "matePhonemePath": "",
        "mateEmotionPath": "",
        "phonemePathHashList": [
          1010565500959774114,
          17914558573000180712,
          14498871351621154070,
          14348654671849899985
        ],
        "emotionPathHashList": [
          3341118736972784235,
          17518384881145547503,
          1737609680237640824,
          13896238032681170250
        ],
        "FMDPBECPELH": "",
        "ADKBLPOKGIK": ""
      }
    ],
    [
      {
        "$type": "FJKIHHKJLMJ",
        "type": "CAMERA_MOVE",
        "delayTime": 0.13067199289798737,
        "duration": 10.473721504211426,
        "camPosOffset": {
          "x": 2244.3056640625,
          "y": 214.69149780273438,
          "z": -904.6559448242188
        },
        "camForwardTargetOffset": {
          "x": 2245.265380859375,
          "y": 214.73886108398438,
          "z": -904.379150390625
        },
        "camFov": 50.0,
        "cameraBlendType": "EaseOutQuad",
        "NJBNNOMLKCK": {},
        "openCameraDither": false,
        "targetNpcAlias": "",
        "KJOEFBPOIIH": "",
        "IICFKKEBIEC": "",
        "EGEHEJEBLBJ": ""
      },
      {
        "$type": "FJKIHHKJLMJ",
        "type": "CAMERA_MOVE",
        "duration": 0.3901973366737366,
        "camPosOffset": {
          "x": 2244.260498046875,
          "y": 214.70387268066406,
          "z": -904.4886474609375
        },
        "camForwardTargetOffset": {
          "x": 2245.231201171875,
          "y": 214.7482452392578,
          "z": -904.2523193359375
        },
        "camFov": 50.0,
        "lerpPattern": 6,
        "cameraBlendType": "EaseInOutCubic",
        "NJBNNOMLKCK": {},
        "openCameraDither": false,
        "targetNpcAlias": "",
        "KJOEFBPOIIH": "",
        "IICFKKEBIEC": "",
        "EGEHEJEBLBJ": ""
      },
      {
        "$type": "FABLGECDBCH",
        "type": "BODY_LANG",
        "delayTime": 0.12013626098632812,
        "aliasList": [
          "1005"
        ],
        "isContinue": true,
        "forceDoFreeStyle": true,
        "eventPatternSuiteKey": "",
        "FOHHKFAIAAJ": ""
      },
      {
        "$type": "PKKMAMONGEO",
        "type": "DIALOG",
        "aliasList": [
          "143501"
        ],
        "dialogID": 400100307,
        "protectTime": 0.5
      },
      {
        "$type": "FABLGECDBCH",
        "type": "BODY_LANG",
        "aliasList": [
          "143501"
        ],
        "bodyLangParam": 1171,
        "forceDoFreeStyle": true,
        "eventPatternSuiteKey": "",
        "FOHHKFAIAAJ": ""
      },
      {
        "$type": "FABLGECDBCH",
        "type": "BODY_LANG",
        "delayTime": 1.5638298988342285,
        "aliasList": [
          "143501"
        ],
        "bodyLangParam": 1173,
        "forceDoFreeStyle": true,
        "eventPatternSuiteKey": "",
        "FOHHKFAIAAJ": ""
      },
      {
        "$type": "FABLGECDBCH",
        "type": "BODY_LANG",
        "delayTime": 4.365702152252197,
        "aliasList": [
          "143501"
        ],
        "bodyLangParam": 1172,
        "forceDoFreeStyle": true,
        "eventPatternSuiteKey": "",
        "FOHHKFAIAAJ": ""
      },
      {
        "$type": "CPJKOIHIPBE",
        "type": "EMO_SYNC",
        "aliasList": [
          "143501"
        ],
        "dataPath": "Cs_Emo_Avatar_Simple_Common_Set/Cs_Emo_Avatar_Talk/Cs_Emo_Avatar_Event/Cs_Emo_Summertime/Cs_Emo_400100307",
        "phonemePath": "",
        "emotionPath": "",
        "mateDataPath": "",
        "matePhonemePath": "",
        "mateEmotionPath": "",
        "dataPathHashList": [
          15727340680891192884,
          9261540836961007463,
          3632237120289571746,
          8077487748470301305
        ],
        "FMDPBECPELH": "",
        "ADKBLPOKGIK": ""
      },
      {
        "$type": "FABLGECDBCH",
        "type": "BODY_LANG",
        "aliasList": [
          "10090"
        ],
        "isContinue": true,
        "forceDoFreeStyle": true,
        "eventPatternSuiteKey": "",
        "FOHHKFAIAAJ": ""
      }
    ],
    [
      {
        "$type": "FJKIHHKJLMJ",
        "type": "CAMERA_MOVE",
        "delayTime": 0.17422933876514435,
        "duration": 11.88933277130127,
        "camPosOffset": {
          "x": 2230.026611328125,
          "y": 218.46588134765625,
          "z": -915.5547485351562
        },
        "camForwardTargetOffset": {
          "x": 2230.65185546875,
          "y": 218.3843536376953,
          "z": -914.7785034179688
        },
        "camFov": 42.5,
        "cameraBlendType": "EaseOutQuad",
        "NJBNNOMLKCK": {},
        "openCameraDither": false,
        "targetNpcAlias": "",
        "KJOEFBPOIIH": "",
        "IICFKKEBIEC": "",
        "EGEHEJEBLBJ": ""
      },
      {
        "$type": "FJKIHHKJLMJ",
        "type": "CAMERA_MOVE",
        "duration": 0.5208693146705627,
        "camPosOffset": {
          "x": 2229.7509765625,
          "y": 218.5120849609375,
          "z": -915.3277587890625
        },
        "camForwardTargetOffset": {
          "x": 2230.376220703125,
          "y": 218.43055725097656,
          "z": -914.551513671875
        },
        "camFov": 42.5,
        "lerpPattern": 6,
        "cameraBlendType": "EaseInOutCubic",
        "NJBNNOMLKCK": {},
        "openCameraDither": false,
        "targetNpcAlias": "",
        "KJOEFBPOIIH": "",
        "IICFKKEBIEC": "",
        "EGEHEJEBLBJ": ""
      },
      {
        "$type": "PKKMAMONGEO",
        "type": "DIALOG",
        "aliasList": [
          "143501"
        ],
        "dialogID": 400100308,
        "protectTime": 0.5
      },
      {
        "$type": "FABLGECDBCH",
        "type": "BODY_LANG",
        "aliasList": [
          "143501"
        ],
        "bodyLangParam": 1173,
        "forceDoFreeStyle": true,
        "eventPatternSuiteKey": "",
        "FOHHKFAIAAJ": ""
      },
      {
        "$type": "FABLGECDBCH",
        "type": "BODY_LANG",
        "delayTime": 1.908207893371582,
        "aliasList": [
          "143501"
        ],
        "bodyLangParam": 1172,
        "forceDoFreeStyle": true,
        "eventPatternSuiteKey": "",
        "FOHHKFAIAAJ": ""
      },
      {
        "$type": "FABLGECDBCH",
        "type": "BODY_LANG",
        "delayTime": 4.107806205749512,
        "aliasList": [
          "143501"
        ],
        "bodyLangParam": 1171,
        "forceDoFreeStyle": true,
        "eventPatternSuiteKey": "",
        "FOHHKFAIAAJ": ""
      },
      {
        "$type": "CPJKOIHIPBE",
        "type": "EMO_SYNC",
        "aliasList": [
          "143501"
        ],
        "dataPath": "Cs_Emo_Avatar_Simple_Common_Set/Cs_Emo_Avatar_Talk/Cs_Emo_Avatar_Event/Cs_Emo_Summertime/Cs_Emo_400100308",
        "phonemePath": "",
        "emotionPath": "",
        "mateDataPath": "",
        "matePhonemePath": "",
        "mateEmotionPath": "",
        "dataPathHashList": [
          13869407650414784803,
          9831080107288537140,
          9100761832634256334,
          11003090644527713040
        ],
        "FMDPBECPELH": "",
        "ADKBLPOKGIK": ""
      }
    ],
    [
      {
        "$type": "FJKIHHKJLMJ",
        "type": "CAMERA_MOVE",
        "delayTime": 0.13067197799682617,
        "duration": 5.116168022155762,
        "camPosOffset": {
          "x": 2249.14404296875,
          "y": 215.67906188964844,
          "z": -904.6456909179688
        },
        "camForwardTargetOffset": {
          "x": 2248.20947265625,
          "y": 215.38868713378906,
          "z": -904.4400634765625
        },
        "camFov": 30.0,
        "cameraBlendType": "EaseOutQuad",
        "NJBNNOMLKCK": {},
        "openCameraDither": false,
        "targetNpcAlias": "",
        "KJOEFBPOIIH": "",
        "IICFKKEBIEC": "",
        "EGEHEJEBLBJ": ""
      },
      {
        "$type": "FJKIHHKJLMJ",
        "type": "CAMERA_MOVE",
        "duration": 0.28130385279655457,
        "camPosOffset": {
          "x": 2249.14404296875,
          "y": 215.67906188964844,
          "z": -904.6456909179688
        },
        "camForwardTargetOffset": {
          "x": 2248.20947265625,
          "y": 215.38868713378906,
          "z": -904.4400634765625
        },
        "camFov": 30.0,
        "lerpPattern": 6,
        "cameraBlendType": "EaseInOutCubic",
        "NJBNNOMLKCK": {},
        "openCameraDither": false,
        "targetNpcAlias": "",
        "KJOEFBPOIIH": "",
        "IICFKKEBIEC": "",
        "EGEHEJEBLBJ": ""
      },
      {
        "$type": "PKKMAMONGEO",
        "type": "DIALOG",
        "aliasList": [
          "1005"
        ],
        "dialogID": 400100309,
        "protectTime": 0.5
      },
      {
        "$type": "FABLGECDBCH",
        "type": "BODY_LANG",
        "aliasList": [
          "1005"
        ],
        "bodyLangParam": 1170,
        "forceDoFreeStyle": true,
        "eventPatternSuiteKey": "",
        "FOHHKFAIAAJ": ""
      },
      {
        "$type": "FABLGECDBCH",
        "type": "BODY_LANG",
        "delayTime": 1.054980993270874,
        "aliasList": [
          "1005"
        ],
        "bodyLangParam": 1050,
        "forceDoFreeStyle": true,
        "eventPatternSuiteKey": "",
        "FOHHKFAIAAJ": ""
      },
      {
        "$type": "CPJKOIHIPBE",
        "type": "EMO_SYNC",
        "aliasList": [
          "1005"
        ],
        "dataPath": "Cs_Emo_Avatar_Simple_Common_Set/Cs_Emo_Avatar_Talk/Cs_Emo_Avatar_Event/Cs_Emo_Summertime/Cs_Emo_400100309",
        "phonemePath": "",
        "emotionPath": "",
        "mateDataPath": "",
        "matePhonemePath": "",
        "mateEmotionPath": "",
        "dataPathHashList": [
          13856622274138710861,
          13657324002058586501,
          12123850610437659360,
          17428541256142604560
        ],
        "FMDPBECPELH": "",
        "ADKBLPOKGIK": ""
      }
    ],
    [
      {
        "$type": "FJKIHHKJLMJ",
        "type": "CAMERA_MOVE",
        "duration": 0.4119759500026703,
        "camPosOffset": {
          "x": 2247.692626953125,
          "y": 215.34458923339844,
          "z": -904.5759887695312
        },
        "camForwardTargetOffset": {
          "x": 2246.732421875,
          "y": 215.31398010253906,
          "z": -904.8535766601562
        },
        "camFov": 30.0,
        "lerpPattern": 6,
        "cameraBlendType": "EaseInOutCubic",
        "NJBNNOMLKCK": {},
        "openCameraDither": false,
        "targetNpcAlias": "",
        "KJOEFBPOIIH": "",
        "IICFKKEBIEC": "",
        "EGEHEJEBLBJ": ""
      },
      {
        "$type": "PKKMAMONGEO",
        "type": "DIALOG",
        "aliasList": [
          "1005"
        ],
        "dialogID": 400100310,
        "protectTime": 0.5
      },
      {
        "$type": "FABLGECDBCH",
        "type": "BODY_LANG",
        "aliasList": [
          "1005"
        ],
        "isContinue": true,
        "forceDoFreeStyle": true,
        "eventPatternSuiteKey": "",
        "FOHHKFAIAAJ": ""
      },
      {
        "$type": "FABLGECDBCH",
        "type": "BODY_LANG",
        "delayTime": 0.6012603044509888,
        "aliasList": [
          "1005"
        ],
        "bodyLangParam": 1090,
        "forceDoFreeStyle": true,
        "eventPatternSuiteKey": "",
        "FOHHKFAIAAJ": ""
      },
      {
        "$type": "CPJKOIHIPBE",
        "type": "EMO_SYNC",
        "aliasList": [
          "1005"
        ],
        "dataPath": "Cs_Emo_Avatar_Simple_Common_Set/Cs_Emo_Avatar_Talk/Cs_Emo_Avatar_Event/Cs_Emo_Summertime/Cs_Emo_400100310",
        "phonemePath": "",
        "emotionPath": "",
        "mateDataPath": "",
        "matePhonemePath": "",
        "mateEmotionPath": "",
        "dataPathHashList": [
          8944801892853707922,
          8071909107440749161,
          15807179157954762607,
          17549568680089414741
        ],
        "FMDPBECPELH": "",
        "ADKBLPOKGIK": ""
      }
    ],
    [
      {
        "$type": "FJKIHHKJLMJ",
        "type": "CAMERA_MOVE",
        "duration": 1.0,
        "camPosOffset": {
          "x": 2247.801025390625,
          "y": 215.20726013183594,
          "z": -903.9736328125
        },
        "camForwardTargetOffset": {
          "x": 2246.843505859375,
          "y": 214.9197540283203,
          "z": -903.9902954101562
        },
        "camFov": 30.0,
        "lerpPattern": 6,
        "cameraBlendType": "EaseInOutCubic",
        "NJBNNOMLKCK": {},
        "openCameraDither": false,
        "targetNpcAlias": "",
        "KJOEFBPOIIH": "",
        "IICFKKEBIEC": "",
        "EGEHEJEBLBJ": ""
      },
      {
        "$type": "FABLGECDBCH",
        "type": "BODY_LANG",
        "delayTime": 0.04344390332698822,
        "aliasList": [
          "1005"
        ],
        "isContinue": true,
        "forceDoFreeStyle": true,
        "eventPatternSuiteKey": "",
        "FOHHKFAIAAJ": ""
      },
      {
        "$type": "PKKMAMONGEO",
        "type": "DIALOG",
        "aliasList": [
          "10090"
        ],
        "dialogID": 400100311,
        "protectTime": 0.5
      },
      {
        "$type": "FABLGECDBCH",
        "type": "BODY_LANG",
        "aliasList": [
          "10090"
        ],
        "bodyLangParam": 1090,
        "forceDoFreeStyle": true,
        "eventPatternSuiteKey": "",
        "FOHHKFAIAAJ": ""
      },
      {
        "$type": "CPJKOIHIPBE",
        "type": "EMO_SYNC",
        "aliasList": [
          "10090"
        ],
        "dataPath": "Cs_Emo_Avatar_Simple_Common_Set/Cs_Emo_Avatar_Talk/Cs_Emo_Avatar_Event/Cs_Emo_Summertime/Cs_Emo_400100311",
        "phonemePath": "",
        "emotionPath": "",
        "mateDataPath": "",
        "matePhonemePath": "",
        "mateEmotionPath": "",
        "dataPathHashList": [
          16510296570893035261,
          18359331171276427380,
          16693156156958507674,
          5541488344452090132
        ],
        "FMDPBECPELH": "",
        "ADKBLPOKGIK": ""
      },
      {
        "$type": "EMEHNEMOMMM",
        "type": "LOOK_AT_EYECTRL",
        "aliasList": [
          "10090"
        ],
        "useTargetPos": false,
        "eyeRotateVecLeft": {
          "z": 3.0
        },
        "eyeRotateVecRight": {
          "z": 3.0
        },
        "turnTime": 0.30000001192092896,
        "targetNpcAlias": "",
        "targetPoint": "Face"
      }
    ],
    [
      {
        "$type": "FJKIHHKJLMJ",
        "type": "CAMERA_MOVE",
        "delayTime": 0.23235896229743958,
        "duration": 7.837990760803223,
        "camPosOffset": {
          "x": 2247.693603515625,
          "y": 214.95606994628906,
          "z": -903.3256225585938
        },
        "camForwardTargetOffset": {
          "x": 2247.15283203125,
          "y": 215.0692138671875,
          "z": -904.1591796875
        },
        "camFov": 30.0,
        "cameraBlendType": "EaseOutQuad",
        "NJBNNOMLKCK": {},
        "openCameraDither": false,
        "targetNpcAlias": "",
        "KJOEFBPOIIH": "",
        "IICFKKEBIEC": "",
        "EGEHEJEBLBJ": ""
      },
      {
        "$type": "FJKIHHKJLMJ",
        "type": "CAMERA_MOVE",
        "duration": 0.5684763789176941,
        "camPosOffset": {
          "x": 2247.635009765625,
          "y": 214.96485900878906,
          "z": -903.2864379882812
        },
        "camForwardTargetOffset": {
          "x": 2247.09423828125,
          "y": 215.0780029296875,
          "z": -904.1199951171875
        },
        "camFov": 30.0,
        "lerpPattern": 6,
        "cameraBlendType": "EaseInOutCubic",
        "NJBNNOMLKCK": {},
        "openCameraDither": false,
        "targetNpcAlias": "",
        "KJOEFBPOIIH": "",
        "IICFKKEBIEC": "",
        "EGEHEJEBLBJ": ""
      },
      {
        "$type": "PKKMAMONGEO",
        "type": "DIALOG",
        "aliasList": [
          "1005"
        ],
        "dialogID": 400100312,
        "protectTime": 0.5
      },
      {
        "$type": "FABLGECDBCH",
        "type": "BODY_LANG",
        "aliasList": [
          "1005"
        ],
        "bodyLangParam": 1150,
        "forceDoFreeStyle": true,
        "eventPatternSuiteKey": "",
        "FOHHKFAIAAJ": ""
      },
      {
        "$type": "FABLGECDBCH",
        "type": "BODY_LANG",
        "delayTime": 2.27516508102417,
        "aliasList": [
          "1005"
        ],
        "bodyLangParam": 1170,
        "forceDoFreeStyle": true,
        "eventPatternSuiteKey": "",
        "FOHHKFAIAAJ": ""
      },
      {
        "$type": "FABLGECDBCH",
        "type": "BODY_LANG",
        "delayTime": 3.1219656467437744,
        "aliasList": [
          "1005"
        ],
        "bodyLangParam": 1180,
        "forceDoFreeStyle": true,
        "eventPatternSuiteKey": "",
        "FOHHKFAIAAJ": ""
      },
      {
        "$type": "LJLMDHDCAMK",
        "type": "LOOK_AT",
        "aliasList": [
          "1005"
        ],
        "enableHead": true,
        "useTargetPos": true,
        "enableAbsolute": true,
        "targetPosition": {
          "x": 2247.06201171875,
          "y": 214.9951171875,
          "z": -904.0592041015625
        },
        "headTurnTime": 0.5,
        "targetNpcAlias": "",
        "targetNpcLookAtPoint": "",
        "OAFJBHJHLJG": ""
      },
      {
        "$type": "LLGANGLOEEO",
        "type": "STEER_TO",
        "duration": 0.800000011920929,
        "aliasList": [
          "1005"
        ],
        "steerType": "ABSOLUTE",
        "steerDir": {
          "x": 2247.85400390625,
          "y": 215.00143432617188,
          "z": -903.3174438476562
        },
        "targetNpcAlias": "",
        "OAFJBHJHLJG": ""
      },
      {
        "$type": "CPJKOIHIPBE",
        "type": "EMO_SYNC",
        "aliasList": [
          "1005"
        ],
        "dataPath": "Cs_Emo_Avatar_Simple_Common_Set/Cs_Emo_Avatar_Talk/Cs_Emo_Avatar_Event/Cs_Emo_Summertime/Cs_Emo_400100312",
        "phonemePath": "",
        "emotionPath": "",
        "mateDataPath": "",
        "matePhonemePath": "",
        "mateEmotionPath": "",
        "dataPathHashList": [
          7976547753735182601,
          604797410334516735,
          14439726465364068282,
          14267731642354267507
        ],
        "FMDPBECPELH": "",
        "ADKBLPOKGIK": ""
      }
    ],
    [
      {
        "$type": "MoleMole.Config.ConfigTimeProtectAction",
        "type": "TIME_PROTECT",
        "duration": 0.10000000149011612
      },
      {
        "$type": "MoleMole.Config.ConfigSimpleBlackScreenAction",
        "type": "SIMPLE_BLACK_SCREEN",
        "durationToBlack": 0.5,
        "durationKeepBlack": 2.0,
        "durationFromBlack": 0.5,
        "textMapID": ""
      },
      {
        "$type": "MoleMole.Config.ConfigTimeProtectAction",
        "type": "TIME_PROTECT",
        "duration": 0.699999988079071
      },
      {
        "$type": "FJKIHHKJLMJ",
        "type": "CAMERA_MOVE",
        "delayTime": 0.5021117925643921,
        "duration": 0.2734404504299164,
        "camPosOffset": {
          "x": 2246.14404296875,
          "y": 215.43385314941406,
          "z": -901.530029296875
        },
        "camForwardTargetOffset": {
          "x": 2246.619384765625,
          "y": 215.325439453125,
          "z": -902.403076171875
        },
        "lerpPattern": 6,
        "cameraBlendType": "EaseInOutCubic",
        "NJBNNOMLKCK": {},
        "openCameraDither": false,
        "targetNpcAlias": "",
        "KJOEFBPOIIH": "",
        "IICFKKEBIEC": "",
        "EGEHEJEBLBJ": ""
      },
      {
        "$type": "MoleMole.Config.ConfigVisibleInterAction",
        "type": "VISIBLE",
        "delayTime": 0.550000011920929,
        "aliasList": [
          "143501"
        ],
        "_extraParam": ""
      },
      {
        "$type": "MoleMole.Config.ConfigVisibleInterAction",
        "type": "VISIBLE",
        "delayTime": 0.550000011920929,
        "aliasList": [
          "10090"
        ],
        "_extraParam": ""
      },
      {
        "$type": "FABLGECDBCH",
        "type": "BODY_LANG",
        "aliasList": [
          "10090"
        ],
        "isContinue": true,
        "forceDoFreeStyle": true,
        "canDoRepeatFreeStyle": false,
        "eventPatternSuiteKey": "",
        "FOHHKFAIAAJ": ""
      }
    ]
  ],
  "groupId": [
    {
      "grpId": 139788411,
      "nextGrpId": 139788412
    },
    {
      "index": 1,
      "grpId": 139788412,
      "nextGrpId": 139788413
    },
    {
      "index": 2,
      "grpId": 139788413,
      "nextGrpId": 139788414
    },
    {
      "index": 3,
      "grpId": 139788414,
      "nextGrpId": 139788415
    },
    {
      "index": 4,
      "grpId": 139788415,
      "nextGrpId": 139788416
    },
    {
      "index": 5,
      "grpId": 139788416,
      "nextGrpId": 139788417
    },
    {
      "index": 6,
      "grpId": 139788417,
      "nextGrpId": 139788418
    },
    {
      "index": 7,
      "grpId": 139788418,
      "nextGrpId": 139788419
    },
    {
      "index": 8,
      "grpId": 139788419,
      "nextGrpId": 38473493
    },
    {
      "index": 9,
      "grpId": 38473493,
      "nextGrpId": 38473494
    },
    {
      "index": 10,
      "grpId": 38473494,
      "nextGrpId": 38473495
    },
    {
      "index": 11,
      "grpId": 38473495,
      "nextGrpId": 38473496
    },
    {
      "index": 12,
      "grpId": 38473496,
      "nextGrpId": 38473497
    },
    {
      "index": 13,
      "grpId": 38473497,
      "nextGrpId": 38473498
    }
  ]
}