{
  "luaDataPath": "",
  "startBlackKeepTime": 0.5,
  "entityBan": "",
  "disableNpcLod": true,
  "isAutoBanNpc": true,
  "isBanWidgetPet": true,
  "protectNpcMobileLod": true,
  "startFade": {
    "startFadeInDuration": 0.5,
    "startFadeOutDuration": 0.5
  },
  "endFade": {
    "startFadeOutDuration": 0.0
  },
  "actors": [
    {
      "alias": "Avatar",
      "visible": true,
      "bornPointName": "Q4009601_N10000005",
      "relativePosType": "AVATAR_NEW",
      "relativePosNpcAlias": "",
      "_bindMovingTargetKey": ""
    },
    {
      "alias": "AvatarNpc",
      "visible": true,
      "bornPointName": "Q4009601_N10000005",
      "removeActorType": "NEW_REMOVE",
      "relativePosType": "AVATAR_NEW",
      "relativePosNpcAlias": "",
      "_bindMovingTargetKey": ""
    },
    {
      "configID": 10204,
      "alias": "10204",
      "visible": true,
      "bornPointName": "Q4009601_T4009601_N10204",
      "relativePosType": "AVATAR_NEW",
      "relativePosNpcAlias": "",
      "_bindMovingTargetKey": ""
    },
    {
      "configID": 1021,
      "alias": "1021",
      "visible": true,
      "bornPointName": "Q4009601_T4009601_N1021",
      "relativePosType": "AVATAR_NEW",
      "relativePosNpcAlias": "",
      "_bindMovingTargetKey": ""
    },
    {
      "configID": 10232,
      "alias": "10232",
      "visible": true,
      "bornPointName": "Q4009601_T4009601_N10232",
      "relativePosType": "AVATAR_NEW",
      "relativePosNpcAlias": "",
      "_bindMovingTargetKey": ""
    },
    {
      "configID": 1005,
      "alias": "1005",
      "visible": true,
      "bornPointName": "Q4009601_T4009601_N1005",
      "removeActorType": "NEW_REMOVE_WITH_DISAPPEAR",
      "relativePosType": "AVATAR_NEW",
      "relativePosNpcAlias": "",
      "_bindMovingTargetKey": ""
    },
    {
      "configID": 1023,
      "alias": "1023",
      "visible": true,
      "bornPointName": "Q4009601_T4009601_N1023",
      "relativePosType": "AVATAR_NEW",
      "relativePosNpcAlias": "",
      "_bindMovingTargetKey": ""
    },
    {
      "configID": 10045,
      "alias": "10045",
      "visible": true,
      "bornPointName": "Q4009601_T4009601_N10045",
      "relativePosType": "AVATAR_NEW",
      "relativePosNpcAlias": "",
      "_bindMovingTargetKey": ""
    },
    {
      "configID": 1012,
      "alias": "1012",
      "visible": true,
      "bornPointName": "Q4009601_T4009601_N1021",
      "relativePosType": "AVATAR_NEW",
      "relativePosNpcAlias": "",
      "_bindMovingTargetKey": ""
    }
  ],
  "group": [
    [
      {
        "$type": "MoleMole.Config.ConfigTimeProtectAction",
        "type": "TIME_PROTECT",
        "duration": 1.0,
        "actionId": 104
      },
      {
        "$type": "MoleMole.Config.ConfigTeleportToAction",
        "type": "TELEPORT_TO",
        "aliasList": [
          "1012"
        ],
        "actionId": 216,
        "position": {
          "x": 5.315000057220459,
          "y": 0.007000000216066837,
          "z": -0.8080000281333923
        },
        "forward": {
          "x": -0.9959999918937683,
          "z": -0.08500000089406967
        },
        "openLongDisTeleport": true,
        "_posBindMovingTargetKey": "",
        "_forwardBindMovingTargetKey": ""
      },
      {
        "$type": "LJLMDHDCAMK",
        "type": "LOOK_AT",
        "aliasList": [
          "10045"
        ],
        "actionId": 235,
        "enableHead": true,
        "headTurnTime": 0.5,
        "targetNpcAlias": "10204",
        "openBackProtect": true,
        "targetNpcLookAtPoint": "",
        "OAFJBHJHLJG": ""
      },
      {
        "$type": "MoleMole.Config.ConfigTeleportToAction",
        "type": "TELEPORT_TO",
        "aliasList": [
          "10045"
        ],
        "actionId": 215,
        "position": {
          "x": 4.494999885559082,
          "y": 0.007000000216066837,
          "z": -1.8250000476837158
        },
        "forward": {
          "x": -0.9890000224113464,
          "z": 0.14800000190734863
        },
        "openLongDisTeleport": true,
        "_posBindMovingTargetKey": "",
        "_forwardBindMovingTargetKey": ""
      },
      {
        "$type": "LJLMDHDCAMK",
        "type": "LOOK_AT",
        "aliasList": [
          "1023"
        ],
        "actionId": 234,
        "enableHead": true,
        "headTurnTime": 0.5,
        "targetNpcAlias": "10232",
        "openBackProtect": true,
        "targetNpcLookAtPoint": "",
        "OAFJBHJHLJG": ""
      },
      {
        "$type": "MoleMole.Config.ConfigTeleportToAction",
        "type": "TELEPORT_TO",
        "aliasList": [
          "1023"
        ],
        "actionId": 214,
        "position": {
          "x": 3.127000093460083,
          "y": 0.007000000216066837,
          "z": -1.7719999551773071
        },
        "forward": {
          "x": -1.0,
          "z": -0.010999999940395355
        },
        "openLongDisTeleport": true,
        "_posBindMovingTargetKey": "",
        "_forwardBindMovingTargetKey": ""
      },
      {
        "$type": "LJLMDHDCAMK",
        "type": "LOOK_AT",
        "aliasList": [
          "1005"
        ],
        "actionId": 233,
        "enableHead": true,
        "headTurnTime": 0.5,
        "targetNpcAlias": "10204",
        "openBackProtect": true,
        "targetNpcLookAtPoint": "",
        "OAFJBHJHLJG": ""
      },
      {
        "$type": "MoleMole.Config.ConfigTeleportToAction",
        "type": "TELEPORT_TO",
        "aliasList": [
          "1005"
        ],
        "actionId": 219,
        "position": {
          "x": 4.4730000495910645,
          "y": 0.007000000216066837,
          "z": 1.6030000448226929
        },
        "forward": {
          "x": -0.671999990940094,
          "z": -0.7409999966621399
        },
        "openLongDisTeleport": true,
        "_posBindMovingTargetKey": "",
        "_forwardBindMovingTargetKey": ""
      },
      {
        "$type": "LJLMDHDCAMK",
        "type": "LOOK_AT",
        "aliasList": [
          "10232"
        ],
        "actionId": 232,
        "enableHead": true,
        "headTurnTime": 0.5,
        "targetNpcAlias": "10204",
        "openBackProtect": true,
        "targetNpcLookAtPoint": "",
        "OAFJBHJHLJG": ""
      },
      {
        "$type": "MoleMole.Config.ConfigTeleportToAction",
        "type": "TELEPORT_TO",
        "aliasList": [
          "10232"
        ],
        "actionId": 225,
        "position": {
          "x": 2.0390000343322754,
          "y": 0.007000000216066837,
          "z": 0.6269999742507935
        },
        "forward": {
          "x": -0.4090000092983246,
          "z": -0.9120000004768372
        },
        "openLongDisTeleport": true,
        "_posBindMovingTargetKey": "",
        "_forwardBindMovingTargetKey": ""
      },
      {
        "$type": "LJLMDHDCAMK",
        "type": "LOOK_AT",
        "aliasList": [
          "1012"
        ],
        "actionId": 236,
        "enableHead": true,
        "headTurnTime": 0.5,
        "targetNpcAlias": "10204",
        "openBackProtect": true,
        "targetNpcLookAtPoint": "",
        "OAFJBHJHLJG": ""
      },
      {
        "$type": "LJLMDHDCAMK",
        "type": "LOOK_AT",
        "aliasList": [
          "1021"
        ],
        "actionId": 237,
        "enableHead": true,
        "headTurnTime": 0.5,
        "targetNpcAlias": "10204",
        "openBackProtect": true,
        "targetNpcLookAtPoint": "",
        "OAFJBHJHLJG": ""
      },
      {
        "$type": "LJLMDHDCAMK",
        "type": "LOOK_AT",
        "aliasList": [
          "10204"
        ],
        "actionId": 241,
        "enableHead": true,
        "headTurnTime": 0.5,
        "targetNpcAlias": "10232",
        "openBackProtect": true,
        "targetNpcLookAtPoint": "",
        "OAFJBHJHLJG": ""
      },
      {
        "$type": "MoleMole.Config.ConfigTeleportToAction",
        "type": "TELEPORT_TO",
        "aliasList": [
          "10204"
        ],
        "actionId": 223,
        "position": {
          "x": 0.847000002861023,
          "z": -2.3310000896453857
        },
        "forward": {
          "x": 0.25600001215934753,
          "z": 0.9670000076293945
        },
        "openLongDisTeleport": true,
        "_posBindMovingTargetKey": "",
        "_forwardBindMovingTargetKey": ""
      },
      {
        "$type": "LJLMDHDCAMK",
        "type": "LOOK_AT",
        "aliasList": [
          "AvatarNpc"
        ],
        "actionId": 238,
        "enableHead": true,
        "headTurnTime": 0.5,
        "targetNpcAlias": "10204",
        "openBackProtect": true,
        "targetNpcLookAtPoint": "",
        "OAFJBHJHLJG": ""
      },
      {
        "$type": "MoleMole.Config.ConfigTeleportToAction",
        "type": "TELEPORT_TO",
        "aliasList": [
          "AvatarNpc"
        ],
        "actionId": 212,
        "position": {
          "x": 5.27400016784668,
          "y": 0.007000000216066837,
          "z": 0.7409999966621399
        },
        "forward": {
          "x": -0.8149999976158142,
          "z": -0.5799999833106995
        },
        "openLongDisTeleport": true,
        "_posBindMovingTargetKey": "",
        "_forwardBindMovingTargetKey": ""
      },
      {
        "$type": "MoleMole.Config.ConfigPlayerNPCEnergyTypeAction",
        "type": "SET_PLAYER_NPC_ENERGY_TYPE",
        "aliasList": [
          "AvatarNpc"
        ],
        "actionId": 204,
        "setHeroEngergyType": true
      },
      {
        "$type": "MoleMole.Config.ConfigTeleportToAction",
        "type": "TELEPORT_TO",
        "aliasList": [
          "Avatar"
        ],
        "actionId": 472,
        "position": {
          "x": 5.27400016784668,
          "y": 0.007000000216066837,
          "z": 0.7409999966621399
        },
        "forward": {
          "x": -0.8149999976158142,
          "z": -0.5799999833106995
        },
        "openLongDisTeleport": true,
        "_posBindMovingTargetKey": "",
        "_forwardBindMovingTargetKey": ""
      },
      {
        "$type": "MoleMole.Config.ConfigVisibleInterAction",
        "type": "VISIBLE",
        "aliasList": [
          "Avatar"
        ],
        "actionId": 206,
        "_extraParam": ""
      },
      {
        "$type": "MoleMole.Config.ConfigChangeTimeInterAction",
        "type": "CHANGE_TIME",
        "duration": 0.5,
        "actionId": 393,
        "toTime": 20.0
      },
      {
        "$type": "MoleMole.Config.ConfigBlackScreenAction",
        "type": "BLACK_SCREEN",
        "duration": 1.0,
        "actionId": 198,
        "blackScreenType": "KEEP_BLACK",
        "durationToBlack": 0.5,
        "durationKeepBlack": 1.0,
        "durationFromBlack": 0.5,
        "inteePos": "",
        "textMapID": "",
        "useTextFade": true
      },
      {
        "$type": "MoleMole.Config.ConfigTeleportToAction",
        "type": "TELEPORT_TO",
        "aliasList": [
          "1021"
        ],
        "actionId": 221,
        "position": {
          "x": 0.6899999976158142,
          "z": -1.3580000400543213
        },
        "forward": {
          "x": 2.2890000343322754,
          "z": 1.7630000114440918
        },
        "openLongDisTeleport": true,
        "_posBindMovingTargetKey": "",
        "_forwardBindMovingTargetKey": ""
      },
      {
        "$type": "MoleMole.Config.ConfigSitOrStandAction",
        "type": "SIT_OR_STAND",
        "delayTime": 0.5,
        "aliasList": [
          "AvatarNpc"
        ],
        "actionId": 217,
        "designatedSeat": true,
        "chairPos": {
          "x": 5.008999824523926,
          "z": 1.2400000095367432
        },
        "chairEulerAngle": {
          "y": 225.0
        },
        "banResetFreestyle": true
      },
      {
        "$type": "MoleMole.Config.ConfigSitOrStandAction",
        "type": "SIT_OR_STAND",
        "delayTime": 0.5910000205039978,
        "aliasList": [
          "1012"
        ],
        "actionId": 458,
        "standDirection": "RIGHT",
        "designatedSeat": true,
        "chairPos": {
          "x": 4.982999801635742,
          "z": -1.2690000534057617
        },
        "chairEulerAngle": {
          "y": 315.0
        },
        "banResetFreestyle": true
      },
      {
        "$type": "MoleMole.Config.ConfigSitOrStandAction",
        "type": "SIT_OR_STAND",
        "delayTime": 0.6370000243186951,
        "aliasList": [
          "1023"
        ],
        "actionId": 456,
        "standDirection": "RIGHT",
        "designatedSeat": true,
        "chairPos": {
          "x": 2.5309998989105225,
          "z": -1.253999948501587
        },
        "chairEulerAngle": {
          "y": 45.0
        },
        "banResetFreestyle": true
      },
      {
        "$type": "MoleMole.Config.ConfigSitOrStandAction",
        "type": "SIT_OR_STAND",
        "delayTime": 0.6370000243186951,
        "aliasList": [
          "10045"
        ],
        "actionId": 457,
        "standDirection": "RIGHT",
        "designatedSeat": true,
        "chairPos": {
          "x": 3.7660000324249268,
          "z": -1.7610000371932983
        },
        "banResetFreestyle": true
      }
    ],
    [
      {
        "$type": "MoleMole.Config.ConfigBlackScreenAction",
        "type": "BLACK_SCREEN",
        "duration": 0.5,
        "actionId": 199,
        "blackScreenType": "FROM_BLACK",
        "durationToBlack": 0.5,
        "durationKeepBlack": 0.5,
        "durationFromBlack": 0.5,
        "inteePos": "",
        "textMapID": "",
        "useTextFade": true
      },
      {
        "$type": "FJKIHHKJLMJ",
        "type": "CAMERA_MOVE",
        "duration": 0.5,
        "actionId": 244,
        "camPosOffset": {
          "x": 1.315999984741211,
          "y": 1.4980000257492065,
          "z": -2.0899999141693115
        },
        "camForwardTargetOffset": {
          "x": 0.414000004529953,
          "y": 1.284000039100647,
          "z": -2.4660000801086426
        },
        "camFov": 25.0,
        "lerpPattern": 6,
        "cameraBlendType": "EaseInOutCubic",
        "NJBNNOMLKCK": {},
        "needZAxisRotate": true,
        "rotateAngle": 359.739990234375,
        "openCameraDither": false,
        "targetNpcAlias": "",
        "closeTreeLeafDither": true,
        "KJOEFBPOIIH": "",
        "IICFKKEBIEC": "",
        "EGEHEJEBLBJ": ""
      },
      {
        "$type": "PKKMAMONGEO",
        "type": "DIALOG",
        "aliasList": [
          "10204"
        ],
        "actionId": 107,
        "dialogID": 400960166,
        "protectTime": 0.5
      },
      {
        "$type": "LJLMDHDCAMK",
        "type": "LOOK_AT",
        "aliasList": [
          "10204"
        ],
        "actionId": 246,
        "enableHead": true,
        "headTurnTime": 0.5,
        "targetNpcAlias": "10232",
        "openBackProtect": true,
        "targetNpcLookAtPoint": "",
        "OAFJBHJHLJG": ""
      },
      {
        "$type": "EMEHNEMOMMM",
        "type": "LOOK_AT_EYECTRL",
        "aliasList": [
          "10204"
        ],
        "actionId": 250,
        "useTargetPos": false,
        "turnTime": 0.20000000298023224,
        "targetNpcAlias": "",
        "targetPoint": "Face"
      },
      {
        "$type": "CPJKOIHIPBE",
        "type": "EMO_SYNC",
        "aliasList": [
          "10204"
        ],
        "actionId": 338,
        "dataPath": "Cs_Emo_Avatar_Simple_Common_Set/Cs_Emo_Avatar_Talk/Cs_Emo_Avatar_Event/Cs_Emo_Avatar_HaiDeng03/Cs_Emo_400960166",
        "phonemePath": "",
        "emotionPath": "",
        "mateDataPath": "",
        "matePhonemePath": "",
        "mateEmotionPath": "",
        "dataPathHashList": [
          11196350355697545760,
          8310960460294550499,
          17906329115850926230,
          2149373826693806305
        ],
        "FMDPBECPELH": "",
        "ADKBLPOKGIK": ""
      },
      {
        "$type": "FJKIHHKJLMJ",
        "type": "CAMERA_MOVE",
        "delayTime": 0.10000000149011612,
        "duration": 8.0,
        "actionId": 242,
        "camPosOffset": {
          "x": 1.6699999570846558,
          "y": 1.562999963760376,
          "z": -1.934000015258789
        },
        "camForwardTargetOffset": {
          "x": 0.7680000066757202,
          "y": 1.3489999771118164,
          "z": -2.309999942779541
        },
        "camFov": 25.0,
        "cameraBlendType": "EaseOutQuad",
        "NJBNNOMLKCK": {},
        "needZAxisRotate": true,
        "rotateAngle": 359.739990234375,
        "openCameraDither": false,
        "targetNpcAlias": "",
        "closeTreeLeafDither": true,
        "KJOEFBPOIIH": "",
        "IICFKKEBIEC": "",
        "EGEHEJEBLBJ": ""
      },
      {
        "$type": "EMEHNEMOMMM",
        "type": "LOOK_AT_EYECTRL",
        "delayTime": 1.1820000410079956,
        "aliasList": [
          "10204"
        ],
        "actionId": 249,
        "useTargetPos": false,
        "eyeRotateVecLeft": {
          "z": 2.0
        },
        "eyeRotateVecRight": {
          "z": 2.0
        },
        "turnTime": 0.20000000298023224,
        "targetNpcAlias": "",
        "targetPoint": "Face"
      },
      {
        "$type": "LJLMDHDCAMK",
        "type": "LOOK_AT",
        "delayTime": 1.2699999809265137,
        "aliasList": [
          "10204"
        ],
        "actionId": 247,
        "enableHead": true,
        "useTargetPos": true,
        "enableAbsolute": true,
        "targetPosition": {
          "x": 1.2120000123977661,
          "y": 1.2999999523162842,
          "z": -1.9609999656677246
        },
        "headTurnTime": 0.5,
        "targetNpcAlias": "",
        "lookAtTargetType": "NONE",
        "openBackProtect": true,
        "targetNpcLookAtPoint": "",
        "OAFJBHJHLJG": ""
      },
      {
        "$type": "FABLGECDBCH",
        "type": "BODY_LANG",
        "delayTime": 2.1700000762939453,
        "aliasList": [
          "10204"
        ],
        "actionId": 245,
        "bodyLangParam": 1171,
        "forceDoFreeStyle": true,
        "canDoRepeatFreeStyle": false,
        "cantBackToIdleWhenSitLoop": true,
        "eventPatternSuiteKey": "",
        "FOHHKFAIAAJ": ""
      },
      {
        "$type": "EMEHNEMOMMM",
        "type": "LOOK_AT_EYECTRL",
        "delayTime": 2.4549999237060547,
        "aliasList": [
          "10204"
        ],
        "actionId": 251,
        "useTargetPos": false,
        "turnTime": 0.20000000298023224,
        "targetNpcAlias": "",
        "targetPoint": "Face"
      },
      {
        "$type": "LJLMDHDCAMK",
        "type": "LOOK_AT",
        "delayTime": 2.674999952316284,
        "aliasList": [
          "10204"
        ],
        "actionId": 248,
        "enableHead": true,
        "headTurnTime": 0.5,
        "targetNpcAlias": "10232",
        "openBackProtect": true,
        "targetNpcLookAtPoint": "",
        "OAFJBHJHLJG": ""
      }
    ],
    [
      {
        "$type": "FJKIHHKJLMJ",
        "type": "CAMERA_MOVE",
        "duration": 0.5,
        "actionId": 260,
        "camPosOffset": {
          "x": 2.8369998931884766,
          "y": 1.7649999856948853,
          "z": 1.2079999446868896
        },
        "camForwardTargetOffset": {
          "x": 2.1540000438690186,
          "y": 1.5859999656677246,
          "z": 0.5
        },
        "camFov": 25.0,
        "lerpPattern": 6,
        "cameraBlendType": "EaseInOutCubic",
        "NJBNNOMLKCK": {},
        "needZAxisRotate": true,
        "rotateAngle": 359.74200439453125,
        "openCameraDither": false,
        "targetNpcAlias": "",
        "closeTreeLeafDither": true,
        "KJOEFBPOIIH": "",
        "IICFKKEBIEC": "",
        "EGEHEJEBLBJ": ""
      },
      {
        "$type": "MoleMole.Config.ConfigTeleportToAction",
        "type": "TELEPORT_TO",
        "aliasList": [
          "10204"
        ],
        "actionId": 258,
        "position": {
          "x": 0.6520000100135803,
          "z": -2.2799999713897705
        },
        "forward": {
          "x": 0.25600001215934753,
          "z": 0.9670000076293945
        },
        "openLongDisTeleport": true,
        "_posBindMovingTargetKey": "",
        "_forwardBindMovingTargetKey": ""
      },
      {
        "$type": "FABLGECDBCH",
        "type": "BODY_LANG",
        "aliasList": [
          "10204"
        ],
        "actionId": 285,
        "isContinue": true,
        "forceDoFreeStyle": true,
        "canDoRepeatFreeStyle": false,
        "cantBackToIdleWhenSitLoop": true,
        "eventPatternSuiteKey": "",
        "FOHHKFAIAAJ": ""
      },
      {
        "$type": "LJLMDHDCAMK",
        "type": "LOOK_AT",
        "aliasList": [
          "10204"
        ],
        "actionId": 286,
        "enableHead": true,
        "useTargetPos": true,
        "enableAbsolute": true,
        "targetPosition": {
          "x": 0.8529999852180481,
          "y": 1.3839999437332153,
          "z": -1.2239999771118164
        },
        "headTurnTime": 0.5,
        "targetNpcAlias": "1021",
        "lookAtTargetType": "NONE",
        "openBackProtect": true,
        "targetNpcLookAtPoint": "",
        "OAFJBHJHLJG": ""
      },
      {
        "$type": "PKKMAMONGEO",
        "type": "DIALOG",
        "aliasList": [
          "1021"
        ],
        "actionId": 109,
        "dialogID": 400960167,
        "protectTime": 0.5
      },
      {
        "$type": "MoleMole.Config.ConfigTeleportToAction",
        "type": "TELEPORT_TO",
        "aliasList": [
          "1021"
        ],
        "actionId": 259,
        "position": {
          "x": 0.7129999995231628,
          "z": -1.3869999647140503
        },
        "forward": {
          "x": 0.7919999957084656,
          "z": 0.6100000143051147
        },
        "openLongDisTeleport": true,
        "_posBindMovingTargetKey": "",
        "_forwardBindMovingTargetKey": ""
      },
      {
        "$type": "LJLMDHDCAMK",
        "type": "LOOK_AT",
        "aliasList": [
          "1021"
        ],
        "actionId": 274,
        "enableHead": true,
        "headTurnTime": 0.5,
        "targetNpcAlias": "10232",
        "openBackProtect": true,
        "targetNpcLookAtPoint": "",
        "OAFJBHJHLJG": ""
      },
      {
        "$type": "CPJKOIHIPBE",
        "type": "EMO_SYNC",
        "aliasList": [
          "1021"
        ],
        "actionId": 339,
        "dataPath": "Cs_Emo_Avatar_Simple_Common_Set/Cs_Emo_Avatar_Talk/Cs_Emo_Avatar_Event/Cs_Emo_Avatar_HaiDeng03/Cs_Emo_400960167",
        "phonemePath": "",
        "emotionPath": "",
        "mateDataPath": "",
        "matePhonemePath": "",
        "mateEmotionPath": "",
        "dataPathHashList": [
          13281852199995368540,
          2905720581782756981,
          507394033017333153,
          10456675054107744301
        ],
        "FMDPBECPELH": "",
        "ADKBLPOKGIK": ""
      },
      {
        "$type": "LJLMDHDCAMK",
        "type": "LOOK_AT",
        "aliasList": [
          "10232"
        ],
        "actionId": 348,
        "enableHead": true,
        "headTurnTime": 0.5,
        "targetNpcAlias": "1021",
        "openBackProtect": true,
        "targetNpcLookAtPoint": "",
        "OAFJBHJHLJG": ""
      },
      {
        "$type": "LJLMDHDCAMK",
        "type": "LOOK_AT",
        "aliasList": [
          "1023"
        ],
        "actionId": 282,
        "enableHead": true,
        "headTurnTime": 0.5,
        "targetNpcAlias": "1021",
        "openBackProtect": true,
        "targetNpcLookAtPoint": "",
        "OAFJBHJHLJG": ""
      },
      {
        "$type": "EMEHNEMOMMM",
        "type": "LOOK_AT_EYECTRL",
        "aliasList": [
          "1023"
        ],
        "actionId": 283,
        "useTargetPos": false,
        "eyeRotateVecLeft": {
          "x": -4.0,
          "z": -2.0
        },
        "eyeRotateVecRight": {
          "x": -4.0,
          "z": -2.0
        },
        "turnTime": 0.20000000298023224,
        "targetNpcAlias": "",
        "targetPoint": "Face"
      },
      {
        "$type": "MoleMole.Config.ConfigTeleportToAction",
        "type": "TELEPORT_TO",
        "aliasList": [
          "1023"
        ],
        "actionId": 467,
        "position": {
          "x": 3.127000093460083,
          "y": 0.007000000216066837,
          "z": -1.7719999551773071
        },
        "forward": {
          "x": -1.0,
          "z": -0.010999999940395355
        },
        "openLongDisTeleport": true,
        "_posBindMovingTargetKey": "",
        "_forwardBindMovingTargetKey": ""
      },
      {
        "$type": "MoleMole.Config.ConfigTeleportToAction",
        "type": "TELEPORT_TO",
        "aliasList": [
          "10045"
        ],
        "actionId": 466,
        "position": {
          "x": 4.494999885559082,
          "y": 0.007000000216066837,
          "z": -1.8250000476837158
        },
        "forward": {
          "x": -0.9890000224113464,
          "z": 0.14800000190734863
        },
        "openLongDisTeleport": true,
        "_posBindMovingTargetKey": "",
        "_forwardBindMovingTargetKey": ""
      },
      {
        "$type": "MoleMole.Config.ConfigTeleportToAction",
        "type": "TELEPORT_TO",
        "aliasList": [
          "1012"
        ],
        "actionId": 465,
        "position": {
          "x": 5.315000057220459,
          "y": 0.007000000216066837,
          "z": -0.8080000281333923
        },
        "forward": {
          "x": -0.9959999918937683,
          "z": -0.08500000089406967
        },
        "openLongDisTeleport": true,
        "_posBindMovingTargetKey": "",
        "_forwardBindMovingTargetKey": ""
      },
      {
        "$type": "FJKIHHKJLMJ",
        "type": "CAMERA_MOVE",
        "delayTime": 0.10000000149011612,
        "duration": 8.0,
        "actionId": 252,
        "camPosOffset": {
          "x": 2.872999906539917,
          "y": 1.7660000324249268,
          "z": 1.1729999780654907
        },
        "camForwardTargetOffset": {
          "x": 2.190000057220459,
          "y": 1.5870000123977661,
          "z": 0.4650000035762787
        },
        "camFov": 25.0,
        "cameraBlendType": "EaseOutQuad",
        "NJBNNOMLKCK": {},
        "needZAxisRotate": true,
        "rotateAngle": 359.74200439453125,
        "openCameraDither": false,
        "targetNpcAlias": "",
        "closeTreeLeafDither": true,
        "KJOEFBPOIIH": "",
        "IICFKKEBIEC": "",
        "EGEHEJEBLBJ": ""
      },
      {
        "$type": "FABLGECDBCH",
        "type": "BODY_LANG",
        "delayTime": 0.10000000149011612,
        "aliasList": [
          "1021"
        ],
        "actionId": 254,
        "bodyLangParam": 1230,
        "forceDoFreeStyle": true,
        "canDoRepeatFreeStyle": false,
        "cantBackToIdleWhenSitLoop": true,
        "eventPatternSuiteKey": "",
        "FOHHKFAIAAJ": ""
      }
    ],
    [
      {
        "$type": "FJKIHHKJLMJ",
        "type": "CAMERA_MOVE",
        "duration": 0.5,
        "actionId": 266,
        "camPosOffset": {
          "x": -1.003999948501587,
          "y": 2.4159998893737793,
          "z": -4.919000148773193
        },
        "camForwardTargetOffset": {
          "x": -0.37400001287460327,
          "y": 2.1500000953674316,
          "z": -4.190000057220459
        },
        "camFov": 35.0,
        "lerpPattern": 6,
        "cameraBlendType": "EaseInOutCubic",
        "NJBNNOMLKCK": {},
        "needZAxisRotate": true,
        "rotateAngle": 359.73699951171875,
        "openCameraDither": false,
        "targetNpcAlias": "",
        "closeTreeLeafDither": true,
        "KJOEFBPOIIH": "",
        "IICFKKEBIEC": "",
        "EGEHEJEBLBJ": ""
      },
      {
        "$type": "MoleMole.Config.ConfigTeleportToAction",
        "type": "TELEPORT_TO",
        "aliasList": [
          "10204"
        ],
        "actionId": 350,
        "position": {
          "x": 0.777999997138977,
          "z": -2.427000045776367
        },
        "forward": {
          "x": 0.25600001215934753,
          "z": 0.9670000076293945
        },
        "openLongDisTeleport": true,
        "_posBindMovingTargetKey": "",
        "_forwardBindMovingTargetKey": ""
      },
      {
        "$type": "PKKMAMONGEO",
        "type": "DIALOG",
        "aliasList": [
          "1021"
        ],
        "actionId": 111,
        "dialogID": 400960168,
        "protectTime": 0.5
      },
      {
        "$type": "FABLGECDBCH",
        "type": "BODY_LANG",
        "aliasList": [
          "1021"
        ],
        "actionId": 261,
        "isContinue": true,
        "forceDoFreeStyle": true,
        "canDoRepeatFreeStyle": false,
        "cantBackToIdleWhenSitLoop": true,
        "eventPatternSuiteKey": "",
        "FOHHKFAIAAJ": ""
      },
      {
        "$type": "LJLMDHDCAMK",
        "type": "LOOK_AT",
        "aliasList": [
          "1021"
        ],
        "actionId": 269,
        "enableHead": true,
        "headTurnTime": 0.5,
        "targetNpcAlias": "1012",
        "openBackProtect": true,
        "targetNpcLookAtPoint": "",
        "OAFJBHJHLJG": ""
      },
      {
        "$type": "CPJKOIHIPBE",
        "type": "EMO_SYNC",
        "aliasList": [
          "1021"
        ],
        "actionId": 340,
        "dataPath": "Cs_Emo_Avatar_Simple_Common_Set/Cs_Emo_Avatar_Talk/Cs_Emo_Avatar_Event/Cs_Emo_Avatar_HaiDeng03/Cs_Emo_400960168",
        "phonemePath": "",
        "emotionPath": "",
        "mateDataPath": "",
        "matePhonemePath": "",
        "mateEmotionPath": "",
        "dataPathHashList": [
          14854924035486950259,
          10896931572451472077,
          5876100295059520713,
          2965863030698602791
        ],
        "FMDPBECPELH": "",
        "ADKBLPOKGIK": ""
      },
      {
        "$type": "LJLMDHDCAMK",
        "type": "LOOK_AT",
        "aliasList": [
          "1023"
        ],
        "actionId": 311,
        "enableHead": true,
        "headTurnTime": 0.5,
        "targetNpcAlias": "1021",
        "openBackProtect": true,
        "targetNpcLookAtPoint": "",
        "OAFJBHJHLJG": ""
      },
      {
        "$type": "EMEHNEMOMMM",
        "type": "LOOK_AT_EYECTRL",
        "aliasList": [
          "1023"
        ],
        "actionId": 406,
        "useTargetPos": false,
        "turnTime": 0.20000000298023224,
        "targetNpcAlias": "",
        "targetPoint": "Face"
      },
      {
        "$type": "LJLMDHDCAMK",
        "type": "LOOK_AT",
        "aliasList": [
          "10045"
        ],
        "actionId": 415,
        "enableHead": true,
        "headTurnTime": 0.5,
        "targetNpcAlias": "1021",
        "openBackProtect": true,
        "targetNpcLookAtPoint": "",
        "OAFJBHJHLJG": ""
      },
      {
        "$type": "LJLMDHDCAMK",
        "type": "LOOK_AT",
        "aliasList": [
          "1012"
        ],
        "actionId": 265,
        "enableHead": true,
        "headTurnTime": 0.5,
        "targetNpcAlias": "1021",
        "openBackProtect": true,
        "targetNpcLookAtPoint": "",
        "OAFJBHJHLJG": ""
      },
      {
        "$type": "FJKIHHKJLMJ",
        "type": "CAMERA_MOVE",
        "delayTime": 0.10000000149011612,
        "duration": 10.0,
        "actionId": 263,
        "camPosOffset": {
          "x": -0.9750000238418579,
          "y": 2.562999963760376,
          "z": -4.889999866485596
        },
        "camForwardTargetOffset": {
          "x": -0.3449999988079071,
          "y": 2.296999931335449,
          "z": -4.160999774932861
        },
        "camFov": 35.0,
        "cameraBlendType": "EaseOutQuad",
        "NJBNNOMLKCK": {},
        "needZAxisRotate": true,
        "rotateAngle": 359.73699951171875,
        "openCameraDither": false,
        "targetNpcAlias": "",
        "closeTreeLeafDither": true,
        "KJOEFBPOIIH": "",
        "IICFKKEBIEC": "",
        "EGEHEJEBLBJ": ""
      },
      {
        "$type": "FABLGECDBCH",
        "type": "BODY_LANG",
        "delayTime": 0.6489999890327454,
        "aliasList": [
          "1021"
        ],
        "actionId": 267,
        "bodyLangParam": 1172,
        "forceDoFreeStyle": true,
        "canDoRepeatFreeStyle": false,
        "cantBackToIdleWhenSitLoop": true,
        "eventPatternSuiteKey": "",
        "FOHHKFAIAAJ": ""
      },
      {
        "$type": "LJLMDHDCAMK",
        "type": "LOOK_AT",
        "delayTime": 3.2170000076293945,
        "aliasList": [
          "1021"
        ],
        "actionId": 271,
        "enableHead": true,
        "headTurnTime": 0.5,
        "targetNpcAlias": "AvatarNpc",
        "openBackProtect": true,
        "targetNpcLookAtPoint": "",
        "OAFJBHJHLJG": ""
      },
      {
        "$type": "LJLMDHDCAMK",
        "type": "LOOK_AT",
        "delayTime": 4.09499979019165,
        "aliasList": [
          "10204"
        ],
        "actionId": 293,
        "enableHead": true,
        "headTurnTime": 0.5,
        "targetNpcAlias": "10232",
        "openBackProtect": true,
        "targetNpcLookAtPoint": "",
        "OAFJBHJHLJG": ""
      },
      {
        "$type": "FABLGECDBCH",
        "type": "BODY_LANG",
        "delayTime": 5.059999942779541,
        "aliasList": [
          "1021"
        ],
        "actionId": 275,
        "bodyLangParam": 1173,
        "forceDoFreeStyle": true,
        "canDoRepeatFreeStyle": false,
        "cantBackToIdleWhenSitLoop": true,
        "eventPatternSuiteKey": "",
        "FOHHKFAIAAJ": ""
      },
      {
        "$type": "LJLMDHDCAMK",
        "type": "LOOK_AT",
        "delayTime": 6.004000186920166,
        "aliasList": [
          "1021"
        ],
        "actionId": 272,
        "enableHead": true,
        "headTurnTime": 0.5,
        "targetNpcAlias": "10232",
        "openBackProtect": true,
        "targetNpcLookAtPoint": "",
        "OAFJBHJHLJG": ""
      }
    ],
    [
      {
        "$type": "LJLMDHDCAMK",
        "type": "LOOK_AT",
        "aliasList": [
          "1012"
        ],
        "actionId": 387,
        "enableHead": true,
        "headTurnTime": 0.5,
        "targetNpcAlias": "1021",
        "openBackProtect": true,
        "targetNpcLookAtPoint": "",
        "OAFJBHJHLJG": ""
      },
      {
        "$type": "FJKIHHKJLMJ",
        "type": "CAMERA_MOVE",
        "duration": 0.5,
        "actionId": 280,
        "camPosOffset": {
          "x": 6.749000072479248,
          "y": 1.4240000247955322,
          "z": 0.7440000176429749
        },
        "camForwardTargetOffset": {
          "x": 5.7789998054504395,
          "y": 1.3170000314712524,
          "z": 0.5249999761581421
        },
        "camFov": 30.0,
        "lerpPattern": 6,
        "cameraBlendType": "EaseInOutCubic",
        "NJBNNOMLKCK": {},
        "needZAxisRotate": true,
        "rotateAngle": 359.7449951171875,
        "openCameraDither": false,
        "targetNpcAlias": "",
        "closeTreeLeafDither": true,
        "KJOEFBPOIIH": "",
        "IICFKKEBIEC": "",
        "EGEHEJEBLBJ": ""
      },
      {
        "$type": "LJLMDHDCAMK",
        "type": "LOOK_AT",
        "aliasList": [
          "10045"
        ],
        "actionId": 386,
        "enableHead": true,
        "headTurnTime": 0.5,
        "targetNpcAlias": "1021",
        "openBackProtect": true,
        "targetNpcLookAtPoint": "",
        "OAFJBHJHLJG": ""
      },
      {
        "$type": "EMEHNEMOMMM",
        "type": "LOOK_AT_EYECTRL",
        "aliasList": [
          "1023"
        ],
        "actionId": 290,
        "useTargetPos": false,
        "eyeRotateVecLeft": {
          "x": -5.0,
          "z": -3.0
        },
        "eyeRotateVecRight": {
          "x": -5.0,
          "z": -3.0
        },
        "turnTime": 0.20000000298023224,
        "targetNpcAlias": "",
        "targetPoint": "Face"
      },
      {
        "$type": "LJLMDHDCAMK",
        "type": "LOOK_AT",
        "aliasList": [
          "1023"
        ],
        "actionId": 289,
        "enableHead": true,
        "headTurnTime": 0.5,
        "targetNpcAlias": "1021",
        "openBackProtect": true,
        "targetNpcLookAtPoint": "",
        "OAFJBHJHLJG": ""
      },
      {
        "$type": "MoleMole.Config.ConfigTeleportToAction",
        "type": "TELEPORT_TO",
        "aliasList": [
          "10204"
        ],
        "actionId": 360,
        "position": {
          "x": 0.33000001311302185,
          "z": -2.309000015258789
        },
        "forward": {
          "x": 0.25600001215934753,
          "z": 0.9670000076293945
        },
        "openLongDisTeleport": true,
        "_posBindMovingTargetKey": "",
        "_forwardBindMovingTargetKey": ""
      },
      {
        "$type": "PKKMAMONGEO",
        "type": "DIALOG",
        "aliasList": [
          "1021"
        ],
        "actionId": 113,
        "dialogID": 400960169,
        "protectTime": 0.5
      },
      {
        "$type": "FABLGECDBCH",
        "type": "BODY_LANG",
        "aliasList": [
          "1021"
        ],
        "actionId": 276,
        "isContinue": true,
        "forceDoFreeStyle": true,
        "canDoRepeatFreeStyle": false,
        "cantBackToIdleWhenSitLoop": true,
        "eventPatternSuiteKey": "",
        "FOHHKFAIAAJ": ""
      },
      {
        "$type": "LJLMDHDCAMK",
        "type": "LOOK_AT",
        "aliasList": [
          "1021"
        ],
        "actionId": 277,
        "enableHead": true,
        "headTurnTime": 0.5,
        "targetNpcAlias": "AvatarNpc",
        "openBackProtect": true,
        "targetNpcLookAtPoint": "",
        "OAFJBHJHLJG": ""
      },
      {
        "$type": "LJLMDHDCAMK",
        "type": "LOOK_AT",
        "aliasList": [
          "1005"
        ],
        "actionId": 297,
        "enableHead": true,
        "headTurnTime": 0.5,
        "targetNpcAlias": "1021",
        "openBackProtect": true,
        "targetNpcLookAtPoint": "",
        "OAFJBHJHLJG": ""
      },
      {
        "$type": "CPJKOIHIPBE",
        "type": "EMO_SYNC",
        "aliasList": [
          "1021"
        ],
        "actionId": 341,
        "dataPath": "Cs_Emo_Avatar_Simple_Common_Set/Cs_Emo_Avatar_Talk/Cs_Emo_Avatar_Event/Cs_Emo_Avatar_HaiDeng03/Cs_Emo_400960169",
        "phonemePath": "",
        "emotionPath": "",
        "mateDataPath": "",
        "matePhonemePath": "",
        "mateEmotionPath": "",
        "dataPathHashList": [
          18362572814502087469,
          63159247582116173,
          6588824892859441159,
          3080092976682758567
        ],
        "FMDPBECPELH": "",
        "ADKBLPOKGIK": ""
      },
      {
        "$type": "FJKIHHKJLMJ",
        "type": "CAMERA_MOVE",
        "delayTime": 0.10000000149011612,
        "duration": 6.0,
        "actionId": 268,
        "camPosOffset": {
          "x": 6.73199987411499,
          "y": 1.4229999780654907,
          "z": 0.8220000267028809
        },
        "camForwardTargetOffset": {
          "x": 5.76200008392334,
          "y": 1.315999984741211,
          "z": 0.6029999852180481
        },
        "camFov": 30.0,
        "cameraBlendType": "EaseOutQuad",
        "NJBNNOMLKCK": {},
        "needZAxisRotate": true,
        "rotateAngle": 359.7449951171875,
        "openCameraDither": false,
        "targetNpcAlias": "",
        "closeTreeLeafDither": true,
        "KJOEFBPOIIH": "",
        "IICFKKEBIEC": "",
        "EGEHEJEBLBJ": ""
      },
      {
        "$type": "HDGKHDNFMIM",
        "type": "DIALOG_SELECT",
        "delayTime": 0.4000000059604645,
        "aliasList": [
          "AvatarNpc"
        ],
        "actionId": 201,
        "dialogIDList": [
          400960170
        ],
        "grpIDList": [
          2338601585
        ],
        "useGrpId": true,
        "countDownGrpId": 2338601579
      },
      {
        "$type": "FABLGECDBCH",
        "type": "BODY_LANG",
        "delayTime": 0.4569999873638153,
        "aliasList": [
          "1021"
        ],
        "actionId": 278,
        "bodyLangParam": 1172,
        "forceDoFreeStyle": true,
        "canDoRepeatFreeStyle": false,
        "cantBackToIdleWhenSitLoop": true,
        "eventPatternSuiteKey": "",
        "FOHHKFAIAAJ": ""
      },
      {
        "$type": "EMEHNEMOMMM",
        "type": "LOOK_AT_EYECTRL",
        "delayTime": 2.2119998931884766,
        "aliasList": [
          "1023"
        ],
        "actionId": 302,
        "useTargetPos": false,
        "turnTime": 0.20000000298023224,
        "targetNpcAlias": "",
        "targetPoint": "Face"
      },
      {
        "$type": "LJLMDHDCAMK",
        "type": "LOOK_AT",
        "delayTime": 2.299999952316284,
        "aliasList": [
          "1023"
        ],
        "actionId": 301,
        "enableHead": true,
        "headTurnTime": 0.5,
        "targetNpcAlias": "AvatarNpc",
        "openBackProtect": true,
        "targetNpcLookAtPoint": "",
        "OAFJBHJHLJG": ""
      },
      {
        "$type": "LJLMDHDCAMK",
        "type": "LOOK_AT",
        "delayTime": 2.7839999198913574,
        "aliasList": [
          "10204"
        ],
        "actionId": 335,
        "enableHead": true,
        "headTurnTime": 0.5,
        "targetNpcAlias": "AvatarNpc",
        "openBackProtect": true,
        "targetNpcLookAtPoint": "",
        "OAFJBHJHLJG": ""
      },
      {
        "$type": "LJLMDHDCAMK",
        "type": "LOOK_AT",
        "delayTime": 2.7950000762939453,
        "aliasList": [
          "1012"
        ],
        "actionId": 385,
        "enableHead": true,
        "headTurnTime": 0.5,
        "targetNpcAlias": "AvatarNpc",
        "openBackProtect": true,
        "targetNpcLookAtPoint": "",
        "OAFJBHJHLJG": ""
      },
      {
        "$type": "FABLGECDBCH",
        "type": "BODY_LANG",
        "delayTime": 3.0230000019073486,
        "aliasList": [
          "AvatarNpc"
        ],
        "actionId": 407,
        "bodyLangParam": 1130,
        "forceDoFreeStyle": true,
        "canDoRepeatFreeStyle": false,
        "cantBackToIdleWhenSitLoop": true,
        "eventPatternSuiteKey": "",
        "FOHHKFAIAAJ": ""
      },
      {
        "$type": "LJLMDHDCAMK",
        "type": "LOOK_AT",
        "delayTime": 3.2230000495910645,
        "aliasList": [
          "10045"
        ],
        "actionId": 384,
        "enableHead": true,
        "headTurnTime": 0.5,
        "targetNpcAlias": "AvatarNpc",
        "openBackProtect": true,
        "targetNpcLookAtPoint": "",
        "OAFJBHJHLJG": ""
      }
    ],
    [
      {
        "$type": "FJKIHHKJLMJ",
        "type": "CAMERA_MOVE",
        "duration": 0.5,
        "actionId": 291,
        "camPosOffset": {
          "x": 1.4809999465942383,
          "y": 1.1269999742507935,
          "z": -1.180999994277954
        },
        "camForwardTargetOffset": {
          "x": 0.515999972820282,
          "y": 1.3680000305175781,
          "z": -1.281999945640564
        },
        "camFov": 30.0,
        "lerpPattern": 6,
        "cameraBlendType": "EaseInOutCubic",
        "NJBNNOMLKCK": {},
        "needZAxisRotate": true,
        "rotateAngle": 359.739013671875,
        "openCameraDither": false,
        "targetNpcAlias": "",
        "closeTreeLeafDither": true,
        "KJOEFBPOIIH": "",
        "IICFKKEBIEC": "",
        "EGEHEJEBLBJ": ""
      },
      {
        "$type": "LJLMDHDCAMK",
        "type": "LOOK_AT",
        "aliasList": [
          "AvatarNpc"
        ],
        "actionId": 294,
        "enableHead": true,
        "headTurnTime": 0.5,
        "targetNpcAlias": "10204",
        "openBackProtect": true,
        "targetNpcLookAtPoint": "",
        "OAFJBHJHLJG": ""
      },
      {
        "$type": "FABLGECDBCH",
        "type": "BODY_LANG",
        "aliasList": [
          "AvatarNpc"
        ],
        "actionId": 408,
        "isContinue": true,
        "forceDoFreeStyle": true,
        "canDoRepeatFreeStyle": false,
        "cantBackToIdleWhenSitLoop": true,
        "eventPatternSuiteKey": "",
        "FOHHKFAIAAJ": ""
      },
      {
        "$type": "MoleMole.Config.ConfigTeleportToAction",
        "type": "TELEPORT_TO",
        "aliasList": [
          "10204"
        ],
        "actionId": 361,
        "position": {
          "x": 0.777999997138977,
          "z": -2.427000045776367
        },
        "forward": {
          "x": 0.25600001215934753,
          "z": 0.9670000076293945
        },
        "openLongDisTeleport": true,
        "_posBindMovingTargetKey": "",
        "_forwardBindMovingTargetKey": ""
      },
      {
        "$type": "PKKMAMONGEO",
        "type": "DIALOG",
        "aliasList": [
          "1021"
        ],
        "actionId": 116,
        "dialogID": 400960171,
        "protectTime": 0.5
      },
      {
        "$type": "FABLGECDBCH",
        "type": "BODY_LANG",
        "aliasList": [
          "1021"
        ],
        "actionId": 279,
        "isContinue": true,
        "forceDoFreeStyle": true,
        "canDoRepeatFreeStyle": false,
        "cantBackToIdleWhenSitLoop": true,
        "eventPatternSuiteKey": "",
        "FOHHKFAIAAJ": ""
      },
      {
        "$type": "CPJKOIHIPBE",
        "type": "EMO_SYNC",
        "aliasList": [
          "1021"
        ],
        "actionId": 342,
        "dataPath": "Cs_Emo_Avatar_Simple_Common_Set/Cs_Emo_Avatar_Talk/Cs_Emo_Avatar_Event/Cs_Emo_Avatar_HaiDeng03/Cs_Emo_400960171",
        "phonemePath": "",
        "emotionPath": "",
        "mateDataPath": "",
        "matePhonemePath": "",
        "mateEmotionPath": "",
        "dataPathHashList": [
          10347766893820222387,
          9890709949746503369,
          4331765524689934779,
          14193731378965549503
        ],
        "FMDPBECPELH": "",
        "ADKBLPOKGIK": ""
      },
      {
        "$type": "LJLMDHDCAMK",
        "type": "LOOK_AT",
        "aliasList": [
          "10232"
        ],
        "actionId": 295,
        "enableHead": true,
        "headTurnTime": 0.5,
        "targetNpcAlias": "10204",
        "openBackProtect": true,
        "targetNpcLookAtPoint": "",
        "OAFJBHJHLJG": ""
      },
      {
        "$type": "LJLMDHDCAMK",
        "type": "LOOK_AT",
        "aliasList": [
          "1005"
        ],
        "actionId": 296,
        "enableHead": true,
        "headTurnTime": 0.5,
        "targetNpcAlias": "10204",
        "openBackProtect": true,
        "targetNpcLookAtPoint": "",
        "OAFJBHJHLJG": ""
      },
      {
        "$type": "LJLMDHDCAMK",
        "type": "LOOK_AT",
        "aliasList": [
          "10045"
        ],
        "actionId": 388,
        "enableHead": true,
        "headTurnTime": 0.5,
        "targetNpcAlias": "1021",
        "openBackProtect": true,
        "targetNpcLookAtPoint": "",
        "OAFJBHJHLJG": ""
      },
      {
        "$type": "LJLMDHDCAMK",
        "type": "LOOK_AT",
        "aliasList": [
          "1012"
        ],
        "actionId": 389,
        "enableHead": true,
        "headTurnTime": 0.5,
        "targetNpcAlias": "1021",
        "openBackProtect": true,
        "targetNpcLookAtPoint": "",
        "OAFJBHJHLJG": ""
      },
      {
        "$type": "FJKIHHKJLMJ",
        "type": "CAMERA_MOVE",
        "delayTime": 0.10000000149011612,
        "duration": 6.0,
        "actionId": 287,
        "camPosOffset": {
          "x": 1.440000057220459,
          "y": 1.1369999647140503,
          "z": -1.184999942779541
        },
        "camForwardTargetOffset": {
          "x": 0.4749999940395355,
          "y": 1.378000020980835,
          "z": -1.2860000133514404
        },
        "camFov": 30.0,
        "cameraBlendType": "EaseOutQuad",
        "NJBNNOMLKCK": {},
        "needZAxisRotate": true,
        "rotateAngle": 359.739013671875,
        "openCameraDither": false,
        "targetNpcAlias": "",
        "closeTreeLeafDither": true,
        "KJOEFBPOIIH": "",
        "IICFKKEBIEC": "",
        "EGEHEJEBLBJ": ""
      },
      {
        "$type": "LJLMDHDCAMK",
        "type": "LOOK_AT",
        "delayTime": 0.10000000149011612,
        "aliasList": [
          "10204"
        ],
        "actionId": 336,
        "enableHead": true,
        "headTurnTime": 0.5,
        "targetNpcAlias": "AvatarNpc",
        "openBackProtect": true,
        "targetNpcLookAtPoint": "",
        "OAFJBHJHLJG": ""
      },
      {
        "$type": "FABLGECDBCH",
        "type": "BODY_LANG",
        "delayTime": 0.48899999260902405,
        "aliasList": [
          "1021"
        ],
        "actionId": 288,
        "bodyLangParam": 1220,
        "forceDoFreeStyle": true,
        "canDoRepeatFreeStyle": false,
        "cantBackToIdleWhenSitLoop": true,
        "eventPatternSuiteKey": "",
        "FOHHKFAIAAJ": ""
      }
    ],
    [
      {
        "$type": "FJKIHHKJLMJ",
        "type": "CAMERA_MOVE",
        "duration": 0.5,
        "actionId": 305,
        "camPosOffset": {
          "x": 2.9230000972747803,
          "y": 1.843999981880188,
          "z": 0.6850000023841858
        },
        "camForwardTargetOffset": {
          "x": 1.9600000381469727,
          "y": 1.5809999704360962,
          "z": 0.6299999952316284
        },
        "camFov": 30.0,
        "lerpPattern": 6,
        "cameraBlendType": "EaseInOutCubic",
        "NJBNNOMLKCK": {},
        "needZAxisRotate": true,
        "rotateAngle": 1.4210000038146973,
        "openCameraDither": false,
        "targetNpcAlias": "",
        "closeTreeLeafDither": true,
        "KJOEFBPOIIH": "",
        "IICFKKEBIEC": "",
        "EGEHEJEBLBJ": ""
      },
      {
        "$type": "MoleMole.Config.ConfigTeleportToAction",
        "type": "TELEPORT_TO",
        "aliasList": [
          "10204"
        ],
        "actionId": 363,
        "position": {
          "x": 0.6899999976158142,
          "z": -0.023000000044703484
        },
        "forward": {
          "x": 1.8630000352859497,
          "z": 1.9880000352859497
        },
        "openLongDisTeleport": true,
        "_posBindMovingTargetKey": "",
        "_forwardBindMovingTargetKey": ""
      },
      {
        "$type": "LJLMDHDCAMK",
        "type": "LOOK_AT",
        "aliasList": [
          "10204"
        ],
        "actionId": 372,
        "headTurnTime": 0.5,
        "targetNpcAlias": "",
        "openBackProtect": true,
        "targetNpcLookAtPoint": "",
        "OAFJBHJHLJG": ""
      },
      {
        "$type": "FABLGECDBCH",
        "type": "BODY_LANG",
        "aliasList": [
          "1021"
        ],
        "actionId": 292,
        "isContinue": true,
        "forceDoFreeStyle": true,
        "canDoRepeatFreeStyle": false,
        "cantBackToIdleWhenSitLoop": true,
        "eventPatternSuiteKey": "",
        "FOHHKFAIAAJ": ""
      },
      {
        "$type": "LJLMDHDCAMK",
        "type": "LOOK_AT",
        "aliasList": [
          "1021"
        ],
        "actionId": 362,
        "enableHead": true,
        "headTurnTime": 0.5,
        "targetNpcAlias": "10232",
        "openBackProtect": true,
        "targetNpcLookAtPoint": "",
        "OAFJBHJHLJG": ""
      },
      {
        "$type": "CPJKOIHIPBE",
        "type": "EMO_SYNC",
        "aliasList": [
          "1021"
        ],
        "actionId": 395,
        "dataPath": "",
        "phonemePath": "Cs_Emo_Avatar_Common/Cs_Emo_Avatar_Default01",
        "emotionPath": "Cs_Emo_Avatar_Common/Cs_Emo_Avatar_Default01_B",
        "mateDataPath": "",
        "matePhonemePath": "",
        "mateEmotionPath": "",
        "phonemePathHashList": [
          1010565500959774114,
          17914558573000180712,
          14498871351621154070,
          14348654671849899985
        ],
        "emotionPathHashList": [
          12199605016063642592,
          6659610500948409138,
          10783156204328777859,
          13383650154785247612
        ],
        "FMDPBECPELH": "",
        "ADKBLPOKGIK": ""
      },
      {
        "$type": "LJLMDHDCAMK",
        "type": "LOOK_AT",
        "aliasList": [
          "10232"
        ],
        "actionId": 303,
        "enableHead": true,
        "headTurnTime": 0.5,
        "targetNpcAlias": "10204",
        "openBackProtect": true,
        "targetNpcLookAtPoint": "",
        "OAFJBHJHLJG": ""
      },
      {
        "$type": "CPJKOIHIPBE",
        "type": "EMO_SYNC",
        "aliasList": [
          "10232"
        ],
        "actionId": 346,
        "dataPath": "Cs_Emo_Avatar_Simple_Common_Set/Cs_Emo_Avatar_Talk/Cs_Emo_Avatar_Event/Cs_Emo_Avatar_HaiDeng03/Cs_Emo_400960172",
        "phonemePath": "",
        "emotionPath": "",
        "mateDataPath": "",
        "matePhonemePath": "",
        "mateEmotionPath": "",
        "dataPathHashList": [
          9584998843952994530,
          4517018529536030771,
          9319876133296897844,
          12398368062376053245
        ],
        "FMDPBECPELH": "",
        "ADKBLPOKGIK": ""
      },
      {
        "$type": "LJLMDHDCAMK",
        "type": "LOOK_AT",
        "aliasList": [
          "1023"
        ],
        "actionId": 390,
        "enableHead": true,
        "headTurnTime": 0.5,
        "targetNpcAlias": "10232",
        "openBackProtect": true,
        "targetNpcLookAtPoint": "",
        "OAFJBHJHLJG": ""
      },
      {
        "$type": "EMEHNEMOMMM",
        "type": "LOOK_AT_EYECTRL",
        "aliasList": [
          "1023"
        ],
        "actionId": 391,
        "useTargetPos": false,
        "eyeRotateVecLeft": {
          "x": -4.0,
          "z": -2.0
        },
        "eyeRotateVecRight": {
          "x": -4.0,
          "z": -2.0
        },
        "turnTime": 0.20000000298023224,
        "targetNpcAlias": "",
        "targetPoint": "Face"
      },
      {
        "$type": "MoleMole.Config.ConfigMoveToAction",
        "type": "MOVE_TO",
        "delayTime": 0.2329999953508377,
        "aliasList": [
          "10204"
        ],
        "actionId": 370,
        "moveType": "WALK",
        "routeList": [
          {
            "x": 2.611999988555908,
            "z": 2.5899999141693115
          }
        ],
        "exactlyMove": true,
        "closeNavMesh": true,
        "openSetPos": true,
        "_bindMovingTargetKey": ""
      },
      {
        "$type": "FJKIHHKJLMJ",
        "type": "CAMERA_MOVE",
        "delayTime": 0.41200000047683716,
        "duration": 4.0,
        "actionId": 298,
        "camPosOffset": {
          "x": 2.7239999771118164,
          "y": 1.774999976158142,
          "z": 1.059000015258789
        },
        "camForwardTargetOffset": {
          "x": 1.9910000562667847,
          "y": 1.5779999494552612,
          "z": 0.40799999237060547
        },
        "camFov": 30.0,
        "cameraBlendType": "EaseInOutCubic",
        "NJBNNOMLKCK": {},
        "needZAxisRotate": true,
        "rotateAngle": 359.7409973144531,
        "openCameraDither": false,
        "targetNpcAlias": "",
        "closeTreeLeafDither": true,
        "KJOEFBPOIIH": "",
        "IICFKKEBIEC": "",
        "EGEHEJEBLBJ": ""
      },
      {
        "$type": "LJLMDHDCAMK",
        "type": "LOOK_AT",
        "delayTime": 1.0,
        "aliasList": [
          "10232"
        ],
        "actionId": 373,
        "enableHead": true,
        "headTurnTime": 0.5,
        "targetNpcAlias": "1021",
        "openBackProtect": true,
        "targetNpcLookAtPoint": "",
        "OAFJBHJHLJG": ""
      },
      {
        "$type": "FABLGECDBCH",
        "type": "BODY_LANG",
        "delayTime": 1.5180000066757202,
        "aliasList": [
          "10232"
        ],
        "actionId": 304,
        "bodyLangParam": 1171,
        "forceDoFreeStyle": true,
        "canDoRepeatFreeStyle": false,
        "cantBackToIdleWhenSitLoop": true,
        "eventPatternSuiteKey": "",
        "FOHHKFAIAAJ": ""
      },
      {
        "$type": "PKKMAMONGEO",
        "type": "DIALOG",
        "delayTime": 1.5880000591278076,
        "aliasList": [
          "10232"
        ],
        "actionId": 118,
        "dialogID": 400960172,
        "protectTime": 1.5
      }
    ],
    [
      {
        "$type": "LJLMDHDCAMK",
        "type": "LOOK_AT",
        "aliasList": [
          "10204"
        ],
        "actionId": 320,
        "enableHead": true,
        "headTurnTime": 0.5,
        "targetNpcAlias": "1021",
        "openBackProtect": true,
        "targetNpcLookAtPoint": "",
        "OAFJBHJHLJG": ""
      },
      {
        "$type": "EMEHNEMOMMM",
        "type": "LOOK_AT_EYECTRL",
        "aliasList": [
          "10204"
        ],
        "actionId": 322,
        "useTargetPos": false,
        "eyeRotateVecLeft": {
          "x": 4.0
        },
        "eyeRotateVecRight": {
          "x": 4.0
        },
        "turnTime": 0.20000000298023224,
        "targetNpcAlias": "",
        "targetPoint": "Face"
      },
      {
        "$type": "MoleMole.Config.ConfigTeleportToAction",
        "type": "TELEPORT_TO",
        "aliasList": [
          "10204"
        ],
        "actionId": 371,
        "position": {
          "x": 3.1700000762939453,
          "y": 0.007000000216066837,
          "z": 1.8420000076293945
        },
        "forward": {
          "x": 0.6209999918937683,
          "z": -0.7839999794960022
        },
        "openLongDisTeleport": true,
        "_posBindMovingTargetKey": "",
        "_forwardBindMovingTargetKey": ""
      },
      {
        "$type": "PKKMAMONGEO",
        "type": "DIALOG",
        "aliasList": [
          "1021"
        ],
        "actionId": 120,
        "dialogID": 400960173,
        "protectTime": 1.0
      },
      {
        "$type": "LJLMDHDCAMK",
        "type": "LOOK_AT",
        "aliasList": [
          "1021"
        ],
        "actionId": 307,
        "enableHead": true,
        "headTurnTime": 0.5,
        "targetNpcAlias": "10232",
        "openBackProtect": true,
        "targetNpcLookAtPoint": "",
        "OAFJBHJHLJG": ""
      },
      {
        "$type": "FABLGECDBCH",
        "type": "BODY_LANG",
        "aliasList": [
          "1021"
        ],
        "actionId": 309,
        "bodyLangParam": 1120,
        "forceDoFreeStyle": true,
        "canDoRepeatFreeStyle": false,
        "cantBackToIdleWhenSitLoop": true,
        "eventPatternSuiteKey": "",
        "FOHHKFAIAAJ": ""
      },
      {
        "$type": "CPJKOIHIPBE",
        "type": "EMO_SYNC",
        "aliasList": [
          "1021"
        ],
        "actionId": 343,
        "dataPath": "Cs_Emo_Avatar_Simple_Common_Set/Cs_Emo_Avatar_Talk/Cs_Emo_Avatar_Event/Cs_Emo_Avatar_HaiDeng03/Cs_Emo_400960173",
        "phonemePath": "",
        "emotionPath": "",
        "mateDataPath": "",
        "matePhonemePath": "",
        "mateEmotionPath": "",
        "dataPathHashList": [
          15624293715882758715,
          3074580765912428632,
          12823751910205387791,
          4032573397960469833
        ],
        "FMDPBECPELH": "",
        "ADKBLPOKGIK": ""
      },
      {
        "$type": "MoleMole.Config.ConfigSitOrStandAction",
        "type": "SIT_OR_STAND",
        "delayTime": 0.2770000100135803,
        "aliasList": [
          "10204"
        ],
        "actionId": 368,
        "isSit": true,
        "designatedSeat": true,
        "chairPos": {
          "x": 3.765000104904175,
          "z": 1.7599999904632568
        },
        "chairEulerAngle": {
          "y": 180.0
        },
        "banResetFreestyle": true
      }
    ],
    [
      {
        "$type": "FJKIHHKJLMJ",
        "type": "CAMERA_MOVE",
        "duration": 0.5,
        "actionId": 313,
        "camPosOffset": {
          "x": 1.9290000200271606,
          "y": 0.8140000104904175,
          "z": -0.9860000014305115
        },
        "camForwardTargetOffset": {
          "x": 0.9900000095367432,
          "y": 1.1269999742507935,
          "z": -1.128000020980835
        },
        "camFov": 30.0,
        "lerpPattern": 6,
        "cameraBlendType": "EaseInOutCubic",
        "NJBNNOMLKCK": {},
        "needZAxisRotate": true,
        "rotateAngle": 359.7330017089844,
        "openCameraDither": false,
        "targetNpcAlias": "",
        "closeTreeLeafDither": true,
        "KJOEFBPOIIH": "",
        "IICFKKEBIEC": "",
        "EGEHEJEBLBJ": ""
      },
      {
        "$type": "MoleMole.Config.ConfigTeleportToAction",
        "type": "TELEPORT_TO",
        "aliasList": [
          "Avatar"
        ],
        "actionId": 473,
        "position": {
          "x": 4.330999851226807,
          "y": 0.007000000216066837,
          "z": 1.5740000009536743
        },
        "forward": {
          "x": -0.3619999885559082,
          "z": -0.9319999814033508
        },
        "openLongDisTeleport": true,
        "_posBindMovingTargetKey": "",
        "_forwardBindMovingTargetKey": ""
      },
      {
        "$type": "MoleMole.Config.ConfigTeleportToAction",
        "type": "TELEPORT_TO",
        "aliasList": [
          "AvatarNpc"
        ],
        "actionId": 403,
        "position": {
          "x": 4.330999851226807,
          "y": 0.007000000216066837,
          "z": 1.5740000009536743
        },
        "forward": {
          "x": -0.3619999885559082,
          "z": -0.9319999814033508
        },
        "openLongDisTeleport": true,
        "_posBindMovingTargetKey": "",
        "_forwardBindMovingTargetKey": ""
      },
      {
        "$type": "PKKMAMONGEO",
        "type": "DIALOG",
        "aliasList": [
          "1021"
        ],
        "actionId": 122,
        "dialogID": 400960174,
        "protectTime": 6.0
      },
      {
        "$type": "FABLGECDBCH",
        "type": "BODY_LANG",
        "aliasList": [
          "1021"
        ],
        "actionId": 314,
        "isContinue": true,
        "forceDoFreeStyle": true,
        "canDoRepeatFreeStyle": false,
        "cantBackToIdleWhenSitLoop": true,
        "eventPatternSuiteKey": "",
        "FOHHKFAIAAJ": ""
      },
      {
        "$type": "MoleMole.Config.ConfigTeleportToAction",
        "type": "TELEPORT_TO",
        "aliasList": [
          "10045"
        ],
        "actionId": 449,
        "position": {
          "x": 4.494999885559082,
          "y": 0.007000000216066837,
          "z": -1.8250000476837158
        },
        "forward": {
          "x": -0.9890000224113464,
          "z": 0.14800000190734863
        },
        "openLongDisTeleport": true,
        "_posBindMovingTargetKey": "",
        "_forwardBindMovingTargetKey": ""
      },
      {
        "$type": "MoleMole.Config.ConfigTeleportToAction",
        "type": "TELEPORT_TO",
        "aliasList": [
          "1012"
        ],
        "actionId": 450,
        "position": {
          "x": 5.315000057220459,
          "y": 0.007000000216066837,
          "z": -0.8080000281333923
        },
        "forward": {
          "x": -0.9959999918937683,
          "z": -0.08500000089406967
        },
        "openLongDisTeleport": true,
        "_posBindMovingTargetKey": "",
        "_forwardBindMovingTargetKey": ""
      },
      {
        "$type": "LJLMDHDCAMK",
        "type": "LOOK_AT",
        "aliasList": [
          "1021"
        ],
        "actionId": 318,
        "enableHead": true,
        "headTurnTime": 0.5,
        "targetNpcAlias": "10232",
        "openBackProtect": true,
        "targetNpcLookAtPoint": "",
        "OAFJBHJHLJG": ""
      },
      {
        "$type": "CPJKOIHIPBE",
        "type": "EMO_SYNC",
        "aliasList": [
          "1021"
        ],
        "actionId": 344,
        "dataPath": "Cs_Emo_Avatar_Simple_Common_Set/Cs_Emo_Avatar_Talk/Cs_Emo_Avatar_Event/Cs_Emo_Avatar_HaiDeng03/Cs_Emo_400960174",
        "phonemePath": "",
        "emotionPath": "",
        "mateDataPath": "",
        "matePhonemePath": "",
        "mateEmotionPath": "",
        "dataPathHashList": [
          7054530191354826837,
          4806025404412235977,
          154865226576404889,
          7773991737004243733
        ],
        "FMDPBECPELH": "",
        "ADKBLPOKGIK": ""
      },
      {
        "$type": "MoleMole.Config.ConfigTeleportToAction",
        "type": "TELEPORT_TO",
        "aliasList": [
          "1021"
        ],
        "actionId": 375,
        "position": {
          "x": 0.7129999995231628,
          "z": -1.187999963760376
        },
        "forward": {
          "x": 0.8240000009536743,
          "z": 0.5659999847412109
        },
        "openLongDisTeleport": true,
        "_posBindMovingTargetKey": "",
        "_forwardBindMovingTargetKey": ""
      },
      {
        "$type": "MoleMole.Config.ConfigTeleportToAction",
        "type": "TELEPORT_TO",
        "aliasList": [
          "1023"
        ],
        "actionId": 448,
        "position": {
          "x": 3.127000093460083,
          "y": 0.007000000216066837,
          "z": -1.7719999551773071
        },
        "forward": {
          "x": -1.0,
          "z": -0.010999999940395355
        },
        "openLongDisTeleport": true,
        "_posBindMovingTargetKey": "",
        "_forwardBindMovingTargetKey": ""
      },
      {
        "$type": "FJKIHHKJLMJ",
        "type": "CAMERA_MOVE",
        "delayTime": 0.10000000149011612,
        "duration": 8.0,
        "actionId": 312,
        "camPosOffset": {
          "x": 1.9140000343322754,
          "y": 0.8119999766349792,
          "z": -0.8939999938011169
        },
        "camForwardTargetOffset": {
          "x": 0.9750000238418579,
          "y": 1.125,
          "z": -1.0360000133514404
        },
        "camFov": 30.0,
        "cameraBlendType": "EaseOutQuad",
        "NJBNNOMLKCK": {},
        "needZAxisRotate": true,
        "rotateAngle": 359.7330017089844,
        "openCameraDither": false,
        "targetNpcAlias": "",
        "closeTreeLeafDither": true,
        "KJOEFBPOIIH": "",
        "IICFKKEBIEC": "",
        "EGEHEJEBLBJ": ""
      },
      {
        "$type": "MoleMole.Config.ConfigSitOrStandAction",
        "type": "SIT_OR_STAND",
        "delayTime": 0.43700000643730164,
        "aliasList": [
          "1023"
        ],
        "actionId": 451,
        "isSit": true,
        "designatedSeat": true,
        "chairPos": {
          "x": 2.5309998989105225,
          "z": -1.253999948501587
        },
        "chairEulerAngle": {
          "y": 45.0
        },
        "banResetFreestyle": true
      },
      {
        "$type": "MoleMole.Config.ConfigSitOrStandAction",
        "type": "SIT_OR_STAND",
        "delayTime": 0.45899999141693115,
        "aliasList": [
          "10045"
        ],
        "actionId": 452,
        "isSit": true,
        "designatedSeat": true,
        "chairPos": {
          "x": 3.7660000324249268,
          "z": -1.7610000371932983
        },
        "banResetFreestyle": true
      },
      {
        "$type": "MoleMole.Config.ConfigSitOrStandAction",
        "type": "SIT_OR_STAND",
        "delayTime": 0.4819999933242798,
        "aliasList": [
          "1012"
        ],
        "actionId": 453,
        "isSit": true,
        "designatedSeat": true,
        "chairPos": {
          "x": 4.982999801635742,
          "z": -1.2690000534057617
        },
        "chairEulerAngle": {
          "y": 315.0
        },
        "banResetFreestyle": true
      },
      {
        "$type": "MoleMole.Config.ConfigSitOrStandAction",
        "type": "SIT_OR_STAND",
        "delayTime": 0.5,
        "aliasList": [
          "AvatarNpc"
        ],
        "actionId": 404,
        "isSit": true,
        "designatedSeat": true,
        "chairPos": {
          "x": 5.008999824523926,
          "z": 1.2400000095367432
        },
        "chairEulerAngle": {
          "y": 225.0
        },
        "banResetFreestyle": true
      },
      {
        "$type": "LJLMDHDCAMK",
        "type": "LOOK_AT",
        "delayTime": 1.9079999923706055,
        "aliasList": [
          "1021"
        ],
        "actionId": 317,
        "enableHead": true,
        "useTargetPos": true,
        "enableAbsolute": true,
        "targetPosition": {
          "x": 2.361999988555908,
          "y": 1.3179999589920044,
          "z": -1.9210000038146973
        },
        "headTurnTime": 0.5,
        "targetNpcAlias": "",
        "lookAtTargetType": "NONE",
        "openBackProtect": true,
        "targetNpcLookAtPoint": "",
        "OAFJBHJHLJG": ""
      },
      {
        "$type": "LLGANGLOEEO",
        "type": "STEER_TO",
        "delayTime": 2.0299999713897705,
        "duration": 1.0,
        "aliasList": [
          "1021"
        ],
        "actionId": 316,
        "steerType": "ABSOLUTE",
        "steerDir": {
          "x": 1.4249999523162842,
          "z": -1.784000039100647
        },
        "useSteerAnim": true,
        "interruptFreestyle": true,
        "forceSteer": true,
        "targetNpcAlias": "",
        "ignoreY": true,
        "fixInterNull": true,
        "OAFJBHJHLJG": ""
      },
      {
        "$type": "MoleMole.Config.ConfigMoveToAction",
        "type": "MOVE_TO",
        "delayTime": 3.1760001182556152,
        "aliasList": [
          "1021"
        ],
        "actionId": 315,
        "moveType": "WALK",
        "routeList": [
          {
            "x": 3.5429999828338623,
            "z": -3.265000104904175
          }
        ],
        "exactlyMove": true,
        "closeNavMesh": true,
        "openSetPos": true,
        "_bindMovingTargetKey": ""
      }
    ],
    [
      {
        "$type": "FJKIHHKJLMJ",
        "type": "CAMERA_MOVE",
        "duration": 0.5,
        "actionId": 333,
        "camPosOffset": {
          "x": -1.0160000324249268,
          "y": 4.427999973297119,
          "z": 3.7130000591278076
        },
        "camForwardTargetOffset": {
          "x": -0.3319999873638153,
          "y": 3.9140000343322754,
          "z": 3.196000099182129
        },
        "camFov": 30.0,
        "lerpPattern": 6,
        "cameraBlendType": "EaseInOutCubic",
        "NJBNNOMLKCK": {},
        "needZAxisRotate": true,
        "rotateAngle": 359.7040100097656,
        "openCameraDither": false,
        "targetNpcAlias": "",
        "closeTreeLeafDither": true,
        "KJOEFBPOIIH": "",
        "IICFKKEBIEC": "",
        "EGEHEJEBLBJ": ""
      },
      {
        "$type": "LJLMDHDCAMK",
        "type": "LOOK_AT",
        "aliasList": [
          "AvatarNpc"
        ],
        "actionId": 327,
        "enableHead": true,
        "headTurnTime": 0.5,
        "targetNpcAlias": "1021",
        "openBackProtect": true,
        "targetNpcLookAtPoint": "",
        "OAFJBHJHLJG": ""
      },
      {
        "$type": "LJLMDHDCAMK",
        "type": "LOOK_AT",
        "aliasList": [
          "10204"
        ],
        "actionId": 328,
        "enableHead": true,
        "headTurnTime": 0.5,
        "targetNpcAlias": "1021",
        "openBackProtect": true,
        "targetNpcLookAtPoint": "",
        "OAFJBHJHLJG": ""
      },
      {
        "$type": "PKKMAMONGEO",
        "type": "DIALOG",
        "aliasList": [
          "1021"
        ],
        "actionId": 124,
        "dialogID": 400960175,
        "protectTime": 2.0
      },
      {
        "$type": "MoleMole.Config.ConfigTeleportToAction",
        "type": "TELEPORT_TO",
        "aliasList": [
          "1021"
        ],
        "actionId": 324,
        "position": {
          "x": 5.692999839782715,
          "y": 0.007000000216066837,
          "z": -0.703000009059906
        },
        "forward": {
          "x": -0.9869999885559082,
          "z": 0.16200000047683716
        },
        "openLongDisTeleport": true,
        "_posBindMovingTargetKey": "",
        "_forwardBindMovingTargetKey": ""
      },
      {
        "$type": "CPJKOIHIPBE",
        "type": "EMO_SYNC",
        "aliasList": [
          "1021"
        ],
        "actionId": 345,
        "dataPath": "Cs_Emo_Avatar_Simple_Common_Set/Cs_Emo_Avatar_Talk/Cs_Emo_Avatar_Event/Cs_Emo_Avatar_HaiDeng03/Cs_Emo_400960175",
        "phonemePath": "",
        "emotionPath": "",
        "mateDataPath": "",
        "matePhonemePath": "",
        "mateEmotionPath": "",
        "dataPathHashList": [
          1104265802923512155,
          9501889448241094684,
          1863745558907425484,
          17086933761706538878
        ],
        "FMDPBECPELH": "",
        "ADKBLPOKGIK": ""
      },
      {
        "$type": "LJLMDHDCAMK",
        "type": "LOOK_AT",
        "aliasList": [
          "1021"
        ],
        "actionId": 380,
        "enableHead": true,
        "headTurnTime": 0.5,
        "targetNpcAlias": "10232",
        "openBackProtect": true,
        "targetNpcLookAtPoint": "",
        "OAFJBHJHLJG": ""
      },
      {
        "$type": "MoleMole.Config.ConfigTeleportToAction",
        "type": "TELEPORT_TO",
        "aliasList": [
          "10232"
        ],
        "actionId": 377,
        "position": {
          "x": 1.9800000190734863,
          "y": 0.007000000216066837,
          "z": 0.6029999852180481
        },
        "forward": {
          "x": -0.4320000112056732,
          "z": -2.177999973297119
        },
        "openLongDisTeleport": true,
        "_posBindMovingTargetKey": "",
        "_forwardBindMovingTargetKey": ""
      },
      {
        "$type": "LJLMDHDCAMK",
        "type": "LOOK_AT",
        "aliasList": [
          "1005"
        ],
        "actionId": 329,
        "enableHead": true,
        "headTurnTime": 0.5,
        "targetNpcAlias": "1021",
        "openBackProtect": true,
        "targetNpcLookAtPoint": "",
        "OAFJBHJHLJG": ""
      },
      {
        "$type": "LJLMDHDCAMK",
        "type": "LOOK_AT",
        "aliasList": [
          "1023"
        ],
        "actionId": 330,
        "enableHead": true,
        "headTurnTime": 0.5,
        "targetNpcAlias": "1021",
        "openBackProtect": true,
        "targetNpcLookAtPoint": "",
        "OAFJBHJHLJG": ""
      },
      {
        "$type": "LJLMDHDCAMK",
        "type": "LOOK_AT",
        "aliasList": [
          "10045"
        ],
        "actionId": 331,
        "enableHead": true,
        "headTurnTime": 0.5,
        "targetNpcAlias": "1021",
        "openBackProtect": true,
        "targetNpcLookAtPoint": "",
        "OAFJBHJHLJG": ""
      },
      {
        "$type": "LJLMDHDCAMK",
        "type": "LOOK_AT",
        "aliasList": [
          "1012"
        ],
        "actionId": 332,
        "enableHead": true,
        "headTurnTime": 0.5,
        "targetNpcAlias": "1021",
        "openBackProtect": true,
        "targetNpcLookAtPoint": "",
        "OAFJBHJHLJG": ""
      },
      {
        "$type": "FJKIHHKJLMJ",
        "type": "CAMERA_MOVE",
        "delayTime": 0.10000000149011612,
        "duration": 8.0,
        "actionId": 323,
        "camPosOffset": {
          "x": -1.5529999732971191,
          "y": 4.830999851226807,
          "z": 4.11899995803833
        },
        "camForwardTargetOffset": {
          "x": -0.8690000176429749,
          "y": 4.316999912261963,
          "z": 3.6019999980926514
        },
        "camFov": 30.0,
        "cameraBlendType": "EaseOutQuad",
        "NJBNNOMLKCK": {},
        "needZAxisRotate": true,
        "rotateAngle": 359.7040100097656,
        "openCameraDither": false,
        "targetNpcAlias": "",
        "closeTreeLeafDither": true,
        "KJOEFBPOIIH": "",
        "IICFKKEBIEC": "",
        "EGEHEJEBLBJ": ""
      },
      {
        "$type": "FABLGECDBCH",
        "type": "BODY_LANG",
        "delayTime": 0.10000000149011612,
        "aliasList": [
          "1021"
        ],
        "actionId": 381,
        "bodyLangParam": 1171,
        "forceDoFreeStyle": true,
        "canDoRepeatFreeStyle": false,
        "cantBackToIdleWhenSitLoop": true,
        "eventPatternSuiteKey": "",
        "FOHHKFAIAAJ": ""
      },
      {
        "$type": "LLGANGLOEEO",
        "type": "STEER_TO",
        "delayTime": 0.10000000149011612,
        "duration": 1.0,
        "aliasList": [
          "10232"
        ],
        "actionId": 379,
        "steerType": "ABSOLUTE",
        "steerDir": {
          "x": 3.1040000915527344,
          "y": 0.007000000216066837,
          "z": 0.3700000047683716
        },
        "useSteerAnim": true,
        "interruptFreestyle": true,
        "forceSteer": true,
        "targetNpcAlias": "",
        "ignoreY": true,
        "fixInterNull": true,
        "OAFJBHJHLJG": ""
      }
    ],
    [
      {
        "$type": "MoleMole.Config.ConfigTimeProtectAction",
        "type": "TIME_PROTECT",
        "duration": 0.10000000149011612,
        "actionId": 105
      },
      {
        "$type": "MoleMole.Config.ConfigSimpleBlackScreenAction",
        "type": "SIMPLE_BLACK_SCREEN",
        "actionId": 196,
        "durationToBlack": 0.5,
        "durationKeepBlack": 1.0,
        "durationFromBlack": 0.5,
        "textMapID": ""
      },
      {
        "$type": "MoleMole.Config.ConfigTimeProtectAction",
        "type": "TIME_PROTECT",
        "duration": 0.699999988079071,
        "actionId": 197
      },
      {
        "$type": "FJKIHHKJLMJ",
        "type": "CAMERA_MOVE",
        "delayTime": 0.5,
        "duration": 0.10000000149011612,
        "actionId": 200,
        "camForwardTargetOffset": {
          "z": 1.0
        },
        "camFov": 30.0,
        "lerpPattern": 5,
        "cameraBlendType": "EaseInOutCubic",
        "NJBNNOMLKCK": {},
        "openCameraDither": false,
        "targetNpcAlias": "",
        "closeTreeLeafDither": true,
        "KJOEFBPOIIH": "",
        "IICFKKEBIEC": "",
        "EGEHEJEBLBJ": ""
      },
      {
        "$type": "MoleMole.Config.ConfigVisibleInterAction",
        "type": "VISIBLE",
        "delayTime": 0.6000000238418579,
        "aliasList": [
          "Avatar"
        ],
        "actionId": 205,
        "isVisible": true,
        "_extraParam": ""
      },
      {
        "$type": "MoleMole.Config.ConfigVisibleInterAction",
        "type": "VISIBLE",
        "delayTime": 0.6000000238418579,
        "aliasList": [
          "AvatarNpc"
        ],
        "actionId": 207,
        "_extraParam": ""
      }
    ]
  ],
  "groupId": [
    {
      "grpId": 2338601580,
      "nextGrpId": 2338601581
    },
    {
      "index": 1,
      "grpId": 2338601581,
      "nextGrpId": 2338601582
    },
    {
      "index": 2,
      "grpId": 2338601582,
      "nextGrpId": 2338601583
    },
    {
      "index": 3,
      "grpId": 2338601583,
      "nextGrpId": 2338601584
    },
    {
      "index": 4,
      "grpId": 2338601584,
      "nextGrpId": 2338601585
    },
    {
      "index": 5,
      "grpId": 2338601585,
      "nextGrpId": 2338601586
    },
    {
      "index": 6,
      "grpId": 2338601586,
      "nextGrpId": 2338601587
    },
    {
      "index": 7,
      "grpId": 2338601587,
      "nextGrpId": 2338601588
    },
    {
      "index": 8,
      "grpId": 2338601588,
      "nextGrpId": 3777172292
    },
    {
      "index": 9,
      "grpId": 3777172292,
      "nextGrpId": 3777172293
    },
    {
      "index": 10,
      "grpId": 3777172293,
      "nextGrpId": 3777172294
    }
  ],
  "freeStyleDic": {
    "1025": [
      1130
    ],
    "1026": [
      1130
    ],
    "10204": [
      1171
    ],
    "1021": [
      1230,
      1172,
      1173,
      1220,
      1120,
      1171
    ],
    "10232": [
      1171
    ],
    "1023": [],
    "10045": [],
    "1012": []
  }
}