{
  "luaDataPath": "",
  "entityBan": "",
  "startFade": {
    "startFadeOutDuration": 0.0
  },
  "endFade": {
    "startFadeOutDuration": 0.0
  },
  "actors": [
    {
      "alias": "Avatar",
      "visible": true,
      "bornPointName": "",
      "relativePosNpcAlias": "",
      "_bindMovingTargetKey": ""
    },
    {
      "configID": 1517,
      "alias": "1517",
      "visible": true,
      "bornPointName": "",
      "relativePosNpcAlias": "",
      "_bindMovingTargetKey": ""
    }
  ],
  "group": [
    [
      {
        "$type": "MoleMole.Config.ConfigSpeechBubbleAction",
        "type": "SPEECH_BUBBLE",
        "delayTime": 0.20000000298023224,
        "duration": 2.0,
        "aliasList": [
          "1517"
        ],
        "_dialogID": 708102301,
        "_priority": 4,
        "holdOn": true
      },
      {
        "$type": "FABLGECDBCH",
        "type": "BODY_LANG",
        "delayTime": 0.20000000298023224,
        "aliasList": [
          "1517"
        ],
        "bodyLangParam": 1160,
        "eventPatternSuiteKey": "",
        "FOHHKFAIAAJ": ""
      }
    ]
  ],
  "groupId": [
    {
      "grpId": 4272554463,
      "nextGrpId": 4272554464
    }
  ],
  "freeStyleDic": {
    "1517": [
      1160
    ]
  }
}