{
  "luaDataPath": "",
  "entityBan": "",
  "disableNpcLod": true,
  "isAutoBanNpc": true,
  "isBanWidgetPet": true,
  "protectNpcMobileLod": true,
  "startFade": {
    "startFadeOutDuration": 0.0
  },
  "endFade": {
    "startFadeOutDuration": 0.0
  },
  "actors": [
    {
      "alias": "Avatar",
      "visible": true,
      "bornPointName": "",
      "relativePosNpcAlias": "",
      "_bindMovingTargetKey": ""
    },
    {
      "configID": 1005,
      "alias": "1005",
      "visible": true,
      "bornPointName": "",
      "useRelativePos": true,
      "relativePos": {
        "x": 0.5,
        "z": -0.5
      },
      "removeActorType": "REMOVE_WITH_DISAPPEAR",
      "relativePosNpcAlias": "",
      "_bindMovingTargetKey": ""
    },
    {
      "configID": 30192,
      "alias": "30192",
      "visible": true,
      "bornPointName": "",
      "removeActorType": "REMOVE",
      "relativePosNpcAlias": "",
      "_bindMovingTargetKey": ""
    }
  ],
  "group": [
    [
      {
        "$type": "MoleMole.Config.ConfigTimeProtectAction",
        "type": "TIME_PROTECT",
        "duration": 1.3450000286102295
      },
      {
        "$type": "LJLMDHDCAMK",
        "type": "LOOK_AT",
        "aliasList": [
          "Avatar"
        ],
        "actionId": 123,
        "enableHead": true,
        "useTargetPos": true,
        "enableAbsolute": true,
        "targetPosition": {
          "x": 7.039999961853027,
          "y": 0.8309999704360962,
          "z": 3.9549999237060547
        },
        "headTurnTime": 0.5,
        "targetNpcAlias": "30192",
        "lookAtTargetType": "NONE",
        "targetNpcLookAtPoint": "",
        "OAFJBHJHLJG": ""
      },
      {
        "$type": "LJLMDHDCAMK",
        "type": "LOOK_AT",
        "aliasList": [
          "1005"
        ],
        "actionId": 123,
        "enableHead": true,
        "useTargetPos": true,
        "enableAbsolute": true,
        "targetPosition": {
          "x": 7.039999961853027,
          "y": 0.8309999704360962,
          "z": 3.9549999237060547
        },
        "headTurnTime": 0.5,
        "targetNpcAlias": "30192",
        "lookAtTargetType": "NONE",
        "targetNpcLookAtPoint": "",
        "OAFJBHJHLJG": ""
      },
      {
        "$type": "FJKIHHKJLMJ",
        "type": "CAMERA_FOCUS",
        "delayTime": 0.008999999612569809,
        "duration": 0.10000000149011612,
        "actionId": 142,
        "targetNpcAlias": "",
        "KJOEFBPOIIH": "",
        "IICFKKEBIEC": "",
        "EGEHEJEBLBJ": ""
      },
      {
        "$type": "LLGANGLOEEO",
        "type": "STEER_TO",
        "delayTime": 0.15199999511241913,
        "duration": 1.0,
        "aliasList": [
          "Avatar"
        ],
        "actionId": 121,
        "steerType": "ABSOLUTE",
        "steerDir": {
          "x": 7.039999961853027,
          "z": 3.9549999237060547
        },
        "useSteerAnim": true,
        "interruptFreestyle": true,
        "forceSteer": true,
        "targetNpcAlias": "30192",
        "OAFJBHJHLJG": ""
      },
      {
        "$type": "LLGANGLOEEO",
        "type": "STEER_TO",
        "delayTime": 0.15199999511241913,
        "duration": 1.0,
        "aliasList": [
          "1005"
        ],
        "actionId": 121,
        "steerType": "ABSOLUTE",
        "steerDir": {
          "x": 7.039999961853027,
          "z": 3.9549999237060547
        },
        "useSteerAnim": true,
        "interruptFreestyle": true,
        "forceSteer": true,
        "targetNpcAlias": "30192",
        "OAFJBHJHLJG": ""
      },
      {
        "$type": "LJLMDHDCAMK",
        "type": "LOOK_AT",
        "delayTime": 0.7039999961853027,
        "aliasList": [
          "Avatar"
        ],
        "actionId": 123,
        "enableHead": true,
        "useTargetPos": true,
        "enableAbsolute": true,
        "targetPosition": {
          "x": 7.039999961853027,
          "y": 0.8309999704360962,
          "z": 3.9549999237060547
        },
        "headTurnTime": 0.5,
        "targetNpcAlias": "30192",
        "lookAtTargetType": "NONE",
        "targetNpcLookAtPoint": "",
        "OAFJBHJHLJG": ""
      },
      {
        "$type": "LJLMDHDCAMK",
        "type": "LOOK_AT",
        "delayTime": 0.7039999961853027,
        "aliasList": [
          "1005"
        ],
        "actionId": 123,
        "enableHead": true,
        "useTargetPos": true,
        "enableAbsolute": true,
        "targetPosition": {
          "x": 7.039999961853027,
          "y": 0.8309999704360962,
          "z": 3.9549999237060547
        },
        "headTurnTime": 0.5,
        "targetNpcAlias": "30192",
        "lookAtTargetType": "NONE",
        "targetNpcLookAtPoint": "",
        "OAFJBHJHLJG": ""
      }
    ],
    [
      {
        "$type": "PKKMAMONGEO",
        "type": "DIALOG",
        "aliasList": [
          "1005"
        ],
        "dialogID": 705160801,
        "protectTime": 0.5
      },
      {
        "$type": "FABLGECDBCH",
        "type": "BODY_LANG",
        "aliasList": [
          "1005"
        ],
        "actionId": 156,
        "bodyLangParam": 1090,
        "forceDoFreeStyle": true,
        "canDoRepeatFreeStyle": false,
        "eventPatternSuiteKey": "",
        "FOHHKFAIAAJ": ""
      },
      {
        "$type": "CPJKOIHIPBE",
        "type": "EMO_SYNC",
        "aliasList": [
          "1005"
        ],
        "dataPath": "Cs_Emo_Avatar_Simple_Common_Set/Cs_Emo_Avatar_Talk/Cs_Emo_Avatar_Event/Cs_Emo_HuangYingXinLiu/Cs_Emo_705160801",
        "phonemePath": "",
        "emotionPath": "",
        "mateDataPath": "",
        "matePhonemePath": "",
        "mateEmotionPath": "",
        "dataPathHashList": [
          2430294087111082464,
          2680962928321603957,
          10245643230633407387,
          14200044291821441414
        ],
        "FMDPBECPELH": "",
        "ADKBLPOKGIK": ""
      }
    ],
    [
      {
        "$type": "PKKMAMONGEO",
        "type": "DIALOG",
        "aliasList": [
          "1005"
        ],
        "dialogID": 705160802,
        "protectTime": 0.5
      },
      {
        "$type": "FABLGECDBCH",
        "type": "BODY_LANG",
        "aliasList": [
          "1005"
        ],
        "actionId": 157,
        "isContinue": true,
        "forceDoFreeStyle": true,
        "canDoRepeatFreeStyle": false,
        "eventPatternSuiteKey": "",
        "FOHHKFAIAAJ": ""
      },
      {
        "$type": "CPJKOIHIPBE",
        "type": "EMO_SYNC",
        "aliasList": [
          "1005"
        ],
        "dataPath": "Cs_Emo_Avatar_Simple_Common_Set/Cs_Emo_Avatar_Talk/Cs_Emo_Avatar_Event/Cs_Emo_HuangYingXinLiu/Cs_Emo_705160802",
        "phonemePath": "",
        "emotionPath": "",
        "mateDataPath": "",
        "matePhonemePath": "",
        "mateEmotionPath": "",
        "dataPathHashList": [
          17874982196472208722,
          5299749352336108175,
          17280307505408898268,
          14852721314418773629
        ],
        "FMDPBECPELH": "",
        "ADKBLPOKGIK": ""
      },
      {
        "$type": "FABLGECDBCH",
        "type": "BODY_LANG",
        "delayTime": 0.35199999809265137,
        "aliasList": [
          "1005"
        ],
        "actionId": 158,
        "bodyLangParam": 1230,
        "forceDoFreeStyle": true,
        "canDoRepeatFreeStyle": false,
        "eventPatternSuiteKey": "",
        "FOHHKFAIAAJ": ""
      },
      {
        "$type": "HDGKHDNFMIM",
        "type": "DIALOG_SELECT",
        "delayTime": 0.4000000059604645,
        "aliasList": [
          "Avatar"
        ],
        "dialogIDList": [
          705160803,
          705160810,
          705160816
        ],
        "grpIDList": [
          511201883,
          2962356440,
          2962356446
        ],
        "useGrpId": true
      }
    ],
    [
      {
        "$type": "FABLGECDBCH",
        "type": "BODY_LANG",
        "aliasList": [
          "1005"
        ],
        "actionId": 159,
        "isContinue": true,
        "forceDoFreeStyle": true,
        "canDoRepeatFreeStyle": false,
        "eventPatternSuiteKey": "",
        "FOHHKFAIAAJ": ""
      },
      {
        "$type": "PKKMAMONGEO",
        "type": "DIALOG",
        "aliasList": [
          "30192"
        ],
        "dialogID": 705160804,
        "protectTime": 0.5
      }
    ],
    [
      {
        "$type": "PKKMAMONGEO",
        "type": "DIALOG",
        "aliasList": [
          "30192"
        ],
        "dialogID": 705160805,
        "protectTime": 0.5
      }
    ],
    [
      {
        "$type": "PKKMAMONGEO",
        "type": "DIALOG",
        "aliasList": [
          "30192"
        ],
        "dialogID": 705160806,
        "protectTime": 0.5
      }
    ],
    [
      {
        "$type": "PKKMAMONGEO",
        "type": "DIALOG",
        "aliasList": [
          "30192"
        ],
        "dialogID": 705160807,
        "protectTime": 0.5
      }
    ],
    [
      {
        "$type": "PKKMAMONGEO",
        "type": "DIALOG",
        "aliasList": [
          "30192"
        ],
        "dialogID": 705160808,
        "protectTime": 0.5
      }
    ],
    [
      {
        "$type": "PKKMAMONGEO",
        "type": "DIALOG",
        "aliasList": [
          "30192"
        ],
        "dialogID": 705160809,
        "protectTime": 0.5
      }
    ],
    [
      {
        "$type": "PKKMAMONGEO",
        "type": "DIALOG",
        "aliasList": [
          "30192"
        ],
        "dialogID": 705160811,
        "protectTime": 0.5
      }
    ],
    [
      {
        "$type": "PKKMAMONGEO",
        "type": "DIALOG",
        "aliasList": [
          "30192"
        ],
        "dialogID": 705160812,
        "protectTime": 0.5
      }
    ],
    [
      {
        "$type": "PKKMAMONGEO",
        "type": "DIALOG",
        "aliasList": [
          "30192"
        ],
        "dialogID": 705160813,
        "protectTime": 0.5
      }
    ],
    [
      {
        "$type": "PKKMAMONGEO",
        "type": "DIALOG",
        "aliasList": [
          "30192"
        ],
        "dialogID": 705160814,
        "protectTime": 0.5
      }
    ],
    [
      {
        "$type": "PKKMAMONGEO",
        "type": "DIALOG",
        "aliasList": [
          "30192"
        ],
        "dialogID": 705160815,
        "protectTime": 0.5
      }
    ],
    [
      {
        "$type": "PKKMAMONGEO",
        "type": "DIALOG",
        "aliasList": [
          "30192"
        ],
        "dialogID": 705160823,
        "protectTime": 0.5
      }
    ],
    [
      {
        "$type": "PKKMAMONGEO",
        "type": "DIALOG",
        "aliasList": [
          "30192"
        ],
        "dialogID": 705160817,
        "protectTime": 0.5
      }
    ],
    [
      {
        "$type": "PKKMAMONGEO",
        "type": "DIALOG",
        "aliasList": [
          "30192"
        ],
        "dialogID": 705160818,
        "protectTime": 0.5
      }
    ],
    [
      {
        "$type": "PKKMAMONGEO",
        "type": "DIALOG",
        "aliasList": [
          "30192"
        ],
        "dialogID": 705160819,
        "protectTime": 0.5
      }
    ],
    [
      {
        "$type": "PKKMAMONGEO",
        "type": "DIALOG",
        "aliasList": [
          "30192"
        ],
        "dialogID": 705160820,
        "protectTime": 0.5
      }
    ],
    [
      {
        "$type": "PKKMAMONGEO",
        "type": "DIALOG",
        "aliasList": [
          "30192"
        ],
        "dialogID": 705160821,
        "protectTime": 0.5
      }
    ],
    [
      {
        "$type": "PKKMAMONGEO",
        "type": "DIALOG",
        "aliasList": [
          "30192"
        ],
        "dialogID": 705160822,
        "protectTime": 0.5
      }
    ],
    [
      {
        "$type": "MoleMole.Config.ConfigTimeProtectAction",
        "type": "TIME_PROTECT",
        "duration": 0.10000000149011612
      }
    ],
    [
      {
        "$type": "MoleMole.Config.ConfigTimeProtectAction",
        "type": "TIME_PROTECT",
        "duration": 0.10000000149011612
      },
      {
        "$type": "MoleMole.Config.ConfigVisibleInterAction",
        "type": "VISIBLE",
        "aliasList": [
          "30192"
        ],
        "_extraParam": ""
      }
    ]
  ],
  "groupId": [
    {
      "grpId": 511201880,
      "nextGrpId": 511201881
    },
    {
      "index": 1,
      "grpId": 511201881,
      "nextGrpId": 511201882
    },
    {
      "index": 2,
      "grpId": 511201882,
      "nextGrpId": 511201883
    },
    {
      "index": 3,
      "grpId": 511201883,
      "nextGrpId": 511201884
    },
    {
      "index": 4,
      "grpId": 511201884,
      "nextGrpId": 511201885
    },
    {
      "index": 5,
      "grpId": 511201885,
      "nextGrpId": 511201886
    },
    {
      "index": 6,
      "grpId": 511201886,
      "nextGrpId": 511201887
    },
    {
      "index": 7,
      "grpId": 511201887,
      "nextGrpId": 511201888
    },
    {
      "index": 8,
      "grpId": 511201888,
      "nextGrpId": 2962356473
    },
    {
      "index": 9,
      "grpId": 2962356440,
      "nextGrpId": 2962356441
    },
    {
      "index": 10,
      "grpId": 2962356441,
      "nextGrpId": 2962356442
    },
    {
      "index": 11,
      "grpId": 2962356442,
      "nextGrpId": 2962356443
    },
    {
      "index": 12,
      "grpId": 2962356443,
      "nextGrpId": 2962356444
    },
    {
      "index": 13,
      "grpId": 2962356444,
      "nextGrpId": 2962356445
    },
    {
      "index": 14,
      "grpId": 2962356445,
      "nextGrpId": 2962356473
    },
    {
      "index": 15,
      "grpId": 2962356446,
      "nextGrpId": 2962356447
    },
    {
      "index": 16,
      "grpId": 2962356447,
      "nextGrpId": 2962356448
    },
    {
      "index": 17,
      "grpId": 2962356448,
      "nextGrpId": 2962356449
    },
    {
      "index": 18,
      "grpId": 2962356449,
      "nextGrpId": 2962356471
    },
    {
      "index": 19,
      "grpId": 2962356471,
      "nextGrpId": 2962356472
    },
    {
      "index": 20,
      "grpId": 2962356472,
      "nextGrpId": 2962356473
    },
    {
      "index": 21,
      "grpId": 2962356473,
      "nextGrpId": 2962356474
    },
    {
      "index": 22,
      "grpId": 2962356474,
      "nextGrpId": 2962356475
    }
  ]
}