{
  "luaDataPath": "",
  "entityBan": "",
  "disableNpcLod": true,
  "isAutoBanNpc": true,
  "isBanWidgetPet": true,
  "protectNpcMobileLod": true,
  "startFade": {
    "startFadeOutDuration": 0.0
  },
  "endFade": {
    "startFadeOutDuration": 0.0
  },
  "actors": [
    {
      "alias": "Avatar",
      "visible": true,
      "bornPointName": "",
      "relativePosNpcAlias": "",
      "_bindMovingTargetKey": ""
    },
    {
      "configID": 30192,
      "alias": "30192",
      "visible": true,
      "bornPointName": "",
      "removeActorType": "REMOVE",
      "relativePosNpcAlias": "",
      "_bindMovingTargetKey": ""
    }
  ],
  "group": [
    [
      {
        "$type": "MoleMole.Config.ConfigTimeProtectAction",
        "type": "TIME_PROTECT",
        "duration": 0.3499999940395355
      },
      {
        "$type": "FJKIHHKJLMJ",
        "type": "CAMERA_FOCUS",
        "duration": 0.20000000298023224,
        "actionId": 117,
        "targetNpcAlias": "",
        "KJOEFBPOIIH": "",
        "IICFKKEBIEC": "",
        "EGEHEJEBLBJ": ""
      },
      {
        "$type": "LLGANGLOEEO",
        "type": "STEER_TO",
        "duration": 1.0,
        "aliasList": [
          "Avatar"
        ],
        "actionId": 118,
        "steerType": "ABSOLUTE",
        "steerDir": {
          "x": 15.178000450134277,
          "y": 0.5299999713897705,
          "z": 14.163999557495117
        },
        "useSteerAnim": true,
        "interruptFreestyle": true,
        "forceSteer": true,
        "targetNpcAlias": "",
        "OAFJBHJHLJG": ""
      },
      {
        "$type": "LJLMDHDCAMK",
        "type": "LOOK_AT",
        "aliasList": [
          "Avatar"
        ],
        "actionId": 119,
        "enableHead": true,
        "useTargetPos": true,
        "enableAbsolute": true,
        "targetPosition": {
          "x": 15.178000450134277,
          "y": 2.312000036239624,
          "z": 14.163999557495117
        },
        "headTurnTime": 0.5,
        "targetNpcAlias": "30192",
        "lookAtTargetType": "NONE",
        "targetNpcLookAtPoint": "",
        "OAFJBHJHLJG": ""
      },
      {
        "$type": "LJLMDHDCAMK",
        "type": "LOOK_AT",
        "delayTime": 0.5899999737739563,
        "aliasList": [
          "Avatar"
        ],
        "actionId": 119,
        "enableHead": true,
        "useTargetPos": true,
        "enableAbsolute": true,
        "targetPosition": {
          "x": 15.178000450134277,
          "y": 2.312000036239624,
          "z": 14.163999557495117
        },
        "headTurnTime": 0.5,
        "targetNpcAlias": "30192",
        "lookAtTargetType": "NONE",
        "targetNpcLookAtPoint": "",
        "OAFJBHJHLJG": ""
      }
    ],
    [
      {
        "$type": "PKKMAMONGEO",
        "type": "DIALOG",
        "aliasList": [
          "30192"
        ],
        "dialogID": 705161001,
        "protectTime": 0.5
      }
    ],
    [
      {
        "$type": "PKKMAMONGEO",
        "type": "DIALOG",
        "aliasList": [
          "30192"
        ],
        "dialogID": 705161002,
        "protectTime": 0.5
      }
    ],
    [
      {
        "$type": "PKKMAMONGEO",
        "type": "DIALOG",
        "aliasList": [
          "30192"
        ],
        "dialogID": 705161003,
        "protectTime": 0.5
      }
    ],
    [
      {
        "$type": "PKKMAMONGEO",
        "type": "DIALOG",
        "aliasList": [
          "30192"
        ],
        "dialogID": 705161004,
        "protectTime": 0.5
      }
    ],
    [
      {
        "$type": "PKKMAMONGEO",
        "type": "DIALOG",
        "aliasList": [
          "30192"
        ],
        "dialogID": 705161005,
        "protectTime": 0.5
      }
    ],
    [
      {
        "$type": "MoleMole.Config.ConfigTimeProtectAction",
        "type": "TIME_PROTECT",
        "duration": 0.10000000149011612
      },
      {
        "$type": "MoleMole.Config.ConfigVisibleInterAction",
        "type": "VISIBLE",
        "aliasList": [
          "30192"
        ],
        "_extraParam": ""
      }
    ]
  ],
  "groupId": [
    {
      "grpId": 511223983,
      "nextGrpId": 511223984
    },
    {
      "index": 1,
      "grpId": 511223984,
      "nextGrpId": 511223985
    },
    {
      "index": 2,
      "grpId": 511223985,
      "nextGrpId": 511223986
    },
    {
      "index": 3,
      "grpId": 511223986,
      "nextGrpId": 511223987
    },
    {
      "index": 4,
      "grpId": 511223987,
      "nextGrpId": 511223988
    },
    {
      "index": 5,
      "grpId": 511223988,
      "nextGrpId": 511223989
    },
    {
      "index": 6,
      "grpId": 511223989,
      "nextGrpId": 511223990
    }
  ]
}