{
  "luaDataPath": "",
  "isSimpleTalk": true,
  "dontUseDefaultFinish": true,
  "startBlackKeepTime": 0.5,
  "entityBan": "",
  "protectNpcMobileLod": true,
  "talkFlag": 7,
  "startFade": {
    "startFadeInDuration": 0.5,
    "startFadeOutDuration": 0.5
  },
  "endFade": {
    "startFadeOutDuration": 0.0
  },
  "actors": [
    {
      "alias": "Avatar",
      "visible": true,
      "bornPointName": "Q10101_Player",
      "relativePosType": "AVATAR_NEW",
      "relativePosNpcAlias": "",
      "_bindMovingTargetKey": ""
    },
    {
      "configID": 1007,
      "alias": "1007",
      "visible": true,
      "bornPointName": "RoutBookClue4",
      "relativePosType": "AVATAR_NEW",
      "relativePosNpcAlias": "",
      "_bindMovingTargetKey": ""
    }
  ],
  "group": [
    [
      {
        "$type": "MoleMole.Config.ConfigTimeProtectAction",
        "type": "TIME_PROTECT",
        "duration": 0.5,
        "actionId": 122
      },
      {
        "$type": "FJKIHHKJLMJ",
        "type": "CAMERA_FOCUS",
        "duration": 0.10000000149011612,
        "actionId": 123,
        "targetNpcAlias": "",
        "KJOEFBPOIIH": "",
        "IICFKKEBIEC": "",
        "EGEHEJEBLBJ": ""
      }
    ],
    [
      {
        "$type": "PKKMAMONGEO",
        "type": "DIALOG",
        "aliasList": [
          "1007"
        ],
        "actionId": 110,
        "dialogID": 101012001
      },
      {
        "$type": "FABLGECDBCH",
        "type": "BODY_LANG",
        "aliasList": [
          "1007"
        ],
        "actionId": 111,
        "bodyLangParam": 1190,
        "eventPatternSuiteKey": "",
        "FOHHKFAIAAJ": ""
      },
      {
        "$type": "CPJKOIHIPBE",
        "type": "EMO_SYNC",
        "aliasList": [
          "1007"
        ],
        "actionId": 112,
        "_flag": 256,
        "dataPath": "Cs_Emo_Avatar_Simple_Common_Set/Cs_Emo_Avatar_Talk/Cs_Emo_Avatar_MainLine/Cs_Emo_Avatar_MengDe/Cs_Emo_101012001",
        "phonemePath": "",
        "emotionPath": "",
        "mateDataPath": "",
        "matePhonemePath": "",
        "mateEmotionPath": "",
        "dataPathHashList": [
          10039947889046395067,
          11946195120819527420,
          17043798093209514746,
          10186579732229778098
        ],
        "FMDPBECPELH": "",
        "ADKBLPOKGIK": ""
      }
    ],
    [
      {
        "$type": "PKKMAMONGEO",
        "type": "DIALOG",
        "aliasList": [
          "1007"
        ],
        "actionId": 113,
        "dialogID": 101012002
      },
      {
        "$type": "FABLGECDBCH",
        "type": "BODY_LANG",
        "aliasList": [
          "1007"
        ],
        "actionId": 114,
        "isContinue": true,
        "eventPatternSuiteKey": "",
        "FOHHKFAIAAJ": ""
      },
      {
        "$type": "CPJKOIHIPBE",
        "type": "EMO_SYNC",
        "aliasList": [
          "1007"
        ],
        "actionId": 115,
        "_flag": 256,
        "dataPath": "Cs_Emo_Avatar_Simple_Common_Set/Cs_Emo_Avatar_Talk/Cs_Emo_Avatar_MainLine/Cs_Emo_Avatar_MengDe/Cs_Emo_101012002",
        "phonemePath": "",
        "emotionPath": "",
        "mateDataPath": "",
        "matePhonemePath": "",
        "mateEmotionPath": "",
        "dataPathHashList": [
          17315761130182740342,
          3810573573512659086,
          1588594352321877260,
          14011333770701887212
        ],
        "FMDPBECPELH": "",
        "ADKBLPOKGIK": ""
      }
    ],
    [
      {
        "$type": "PKKMAMONGEO",
        "type": "DIALOG",
        "aliasList": [
          "1007"
        ],
        "actionId": 116,
        "dialogID": 101012003
      },
      {
        "$type": "FABLGECDBCH",
        "type": "BODY_LANG",
        "aliasList": [
          "1007"
        ],
        "actionId": 117,
        "bodyLangParam": 1170,
        "eventPatternSuiteKey": "",
        "FOHHKFAIAAJ": ""
      },
      {
        "$type": "CPJKOIHIPBE",
        "type": "EMO_SYNC",
        "aliasList": [
          "1007"
        ],
        "actionId": 118,
        "_flag": 320,
        "dataPath": "Cs_Emo_Avatar_Simple_Common_Set/Cs_Emo_Avatar_Talk/Cs_Emo_Avatar_MainLine/Cs_Emo_Avatar_MengDe/Cs_Emo_101012003",
        "phonemePath": "",
        "emotionPath": "",
        "mateDataPath": "",
        "matePhonemePath": "",
        "mateEmotionPath": "",
        "dataPathHashList": [
          2948326915016298957,
          447161991718844179,
          6947754784360854998,
          14702175950658698296
        ],
        "FMDPBECPELH": "",
        "ADKBLPOKGIK": ""
      }
    ],
    [
      {
        "$type": "MoleMole.Config.ConfigBlackScreenAction",
        "type": "BLACK_SCREEN",
        "duration": 1.0,
        "actionId": 107,
        "_flag": 2048,
        "durationToBlack": 0.30000001192092896,
        "durationKeepBlack": 0.4000000059604645,
        "durationFromBlack": 0.30000001192092896,
        "inteePos": "",
        "textMapID": ""
      },
      {
        "$type": "MoleMole.Config.ConfigTimeProtectAction",
        "type": "TIME_PROTECT",
        "duration": 1.0,
        "actionId": 108
      },
      {
        "$type": "FABLGECDBCH",
        "type": "BODY_LANG",
        "aliasList": [
          "1007"
        ],
        "actionId": 120,
        "isContinue": true,
        "eventPatternSuiteKey": "",
        "FOHHKFAIAAJ": ""
      },
      {
        "$type": "PKKMAMONGEO",
        "type": "DIALOG_CLEAR",
        "delayTime": 0.30000001192092896,
        "actionId": 109
      },
      {
        "$type": "FJKIHHKJLMJ",
        "type": "CAMERA_MOVE",
        "delayTime": 0.5,
        "duration": 0.20000000298023224,
        "actionId": 106,
        "cameraPosType": "EXIT",
        "camTargetType": "TO_INTEE",
        "lerpPattern": 6,
        "cameraBlendType": "EaseInOutQuad",
        "NJBNNOMLKCK": {},
        "targetNpcAlias": "",
        "KJOEFBPOIIH": "",
        "IICFKKEBIEC": "",
        "EGEHEJEBLBJ": ""
      },
      {
        "$type": "MoleMole.Config.ConfigVisibleInterAction",
        "type": "VISIBLE",
        "delayTime": 0.5,
        "aliasList": [
          "1007"
        ],
        "actionId": 119,
        "_extraParam": ""
      }
    ],
    [
      {
        "$type": "LJLMDHDCAMK",
        "type": "LOOK_AT",
        "aliasList": [
          "Avatar"
        ],
        "targetNpcAlias": "",
        "targetNpcLookAtPoint": "",
        "OAFJBHJHLJG": ""
      },
      {
        "$type": "LJLMDHDCAMK",
        "type": "LOOK_AT",
        "aliasList": [
          "1007"
        ],
        "targetNpcAlias": "",
        "targetNpcLookAtPoint": "",
        "OAFJBHJHLJG": ""
      }
    ]
  ],
  "groupId": [
    {
      "grpId": 3839548809,
      "nextGrpId": 3839548810
    },
    {
      "index": 1,
      "grpId": 3839548810,
      "nextGrpId": 3839548811
    },
    {
      "index": 2,
      "grpId": 3839548811,
      "nextGrpId": 3839548812
    },
    {
      "index": 3,
      "grpId": 3839548812,
      "nextGrpId": 3839548813
    },
    {
      "index": 4,
      "grpId": 3839548813,
      "nextGrpId": 3839548814
    },
    {
      "index": 5,
      "grpId": 3839548814,
      "nextGrpId": 3839548815
    }
  ],
  "freeStyleDic": {
    "1007": [
      1190,
      1170
    ]
  }
}