{
  "SceneObj_Area_Common_Property_Ani_Prop_MvM_SandTable_01": {
    "$type": "PAAKDFFLFIN",
    "hasModel": true,
    "combatTemplate": "",
    "misc": {
      "escapeEffect": "",
      "guidePoint": true,
      "guidePointManagedByIndicator": true
    },
    "billboard": {
      "$type": "JIKICOMNFBF",
      "attachPoint": "BillboardAttach",
      "offset": {
        "y": 1.7999999523162842
      }
    }
  },
  "SceneObj_Area_Common_Property_Prop_MonsterVsMonster_Flag_01": {
    "$type": "PAAKDFFLFIN",
    "common": {
      "disableTickDistance": 100000.0
    },
    "globalValue": {
      "serverGlobalValues": [
        "SGV_MonsterVsMonster_TowerType"
      ],
      "initServerGlobalValues": {
        "SGV_MonsterVsMonster_TowerType": 0.0
      }
    },
    "hasModel": true,
    "combatTemplate": "canBeSelect",
    "abilities": [
      {
        "abilityID": "",
        "abilityName": "SceneObj_Area_Common_Property_Prop_MonsterVsMonster_Flag_01_Ability",
        "abilityOverride": ""
      },
      {
        "abilityID": "",
        "abilityName": "SceneObj_Area_Common_Property_Prop_MonsterVsMonster_Alert_Ability",
        "abilityOverride": ""
      },
      {
        "abilityID": "",
        "abilityName": "SceneObj_Area_Common_Property_Prop_MonsterVsMonster_Flag_Effect_Ability",
        "abilityOverride": ""
      }
    ],
    "billboard": {
      "$type": "GKHDPGNDPMJ",
      "attachPoint": "BillboardAttach",
      "offset": {
        "y": 3.0
      },
      "customKeyList": [
        "_Ability_MonsterVsMonster_FlagCount"
      ],
      "maxValue": 100.0,
      "prefabPluginName": "MvMBulidBuff",
      "KPGKDHAFHFE": "MvMArea"
    }
  },
  "SceneObj_Area_Common_Property_Prop_MonsterVsMonster_Flag_02": {
    "$type": "PAAKDFFLFIN",
    "common": {
      "disableTickDistance": 100000.0
    },
    "globalValue": {
      "serverGlobalValues": [
        "SGV_MonsterVsMonster_TowerType"
      ],
      "initServerGlobalValues": {
        "SGV_MonsterVsMonster_TowerType": 0.0
      }
    },
    "hasModel": true,
    "combatTemplate": "canBeSelect",
    "abilities": [
      {
        "abilityID": "",
        "abilityName": "SceneObj_Area_Common_Property_Prop_MonsterVsMonster_Flag_02_Ability",
        "abilityOverride": ""
      },
      {
        "abilityID": "",
        "abilityName": "SceneObj_Area_Common_Property_Prop_MonsterVsMonster_Alert_Ability",
        "abilityOverride": ""
      },
      {
        "abilityID": "",
        "abilityName": "SceneObj_Area_Common_Property_Prop_MonsterVsMonster_Construction_Effect_Ability",
        "abilityOverride": ""
      }
    ]
  },
  "SceneObj_Area_Common_Property_Prop_MonsterVsMonster_DropCard_01": {
    "$type": "PAAKDFFLFIN",
    "common": {
      "disableTickDistance": 100000.0
    },
    "globalValue": {
      "serverGlobalValues": [
        "SGV_MonsterVsMonster_CardType"
      ],
      "initServerGlobalValues": {
        "SGV_MonsterVsMonster_CardType": 0.0
      }
    },
    "combatTemplate": "",
    "abilities": [
      {
        "abilityID": "",
        "abilityName": "SceneObj_Area_Common_Property_Prop_MonsterVsMonster_DropCard_01_Ability",
        "abilityOverride": ""
      }
    ],
    "uiInteract": {
      "gadgetUIBtnCfgPath": "TEST/TEST_Chest_Btn",
      "uiName": "UI_MovedBattery_01",
      "onTouch": "WidgetMPSupport",
      "touchParams": [
        "SceneObj_Area_Common_Property_Prop_MonsterVsMonster_DropCard_01_Ability"
      ],
      "showCondTypes": [
        "HOST"
      ],
      "icon": "UI_Icon_Intee_PickUp",
      "groupName": "",
      "confirmDialogTitle": "",
      "confirmDialogContent": ""
    },
    "intee": {
      "triggerRadius": 2.0,
      "triggerHeight": 4.0,
      "JBKCBOIMBLB": ""
    }
  },
  "SceneObj_Area_Common_Property_Prop_MonsterVsMonster_DropCard_02": {
    "$type": "PAAKDFFLFIN",
    "common": {
      "disableTickDistance": 100000.0
    },
    "combatTemplate": "",
    "abilities": [
      {
        "abilityID": "",
        "abilityName": "SceneObj_Area_Common_Property_Prop_MonsterVsMonster_DropCard_02_Ability",
        "abilityOverride": ""
      }
    ]
  },
  "SceneObj_Gear_Operator_MvM_Mamolu": {
    "$type": "PAAKDFFLFIN",
    "specialPoint": {
      "elementAbsorb": "RootNode",
      "elementPendant": "",
      "elementDrop": "RootNode",
      "bulletAim": "bulletAim"
    },
    "hasModel": true,
    "combat": {
      "property": {
        "hp": 5000.0,
        "attack": 200.0,
        "weight": 50.0
      },
      "beHit": {
        "hitBloodEffect": "",
        "hitAutoRedirect": false
      },
      "combatLock": {
        "lockShape": "CircleLockEnemy",
        "denyLockOn": true,
        "lockType": "Gadget_Lv1"
      }
    },
    "combatTemplate": "",
    "abilities": [
      {
        "abilityID": "",
        "abilityName": "SceneObj_Gear_Operator_MvM_Mamolu_Ability",
        "abilityOverride": ""
      },
      {
        "abilityID": "",
        "abilityName": "SceneObj_Gear_Operator_Mamolu_Entity",
        "abilityOverride": ""
      }
    ],
    "billboard": {
      "$type": "IBDGIBAFPPH",
      "attachPoint": "RootNode",
      "offset": {
        "y": 2.5
      },
      "radiusOffset": 3.0,
      "showDistance": 48.0,
      "showHPBar": true,
      "forceShowDistance": 48.0,
      "size": "Grand"
    }
  },
  "SceneObj_Gear_Operator_MvM_Mamolu_02": {
    "$type": "PAAKDFFLFIN",
    "hasModel": true,
    "combatTemplate": "",
    "abilities": [
      {
        "abilityID": "",
        "abilityName": "SceneObj_Gear_Operator_Mamolu",
        "abilityOverride": ""
      },
      {
        "abilityID": "",
        "abilityName": "Scene_RockGadget_Summon_Detect",
        "abilityOverride": ""
      }
    ],
    "gadgetAction": {
      "gadgetStateActionList": [
        {
          "$type": "DPGGKEHEODN",
          "intID": "gadgetState",
          "syncState": true
        }
      ]
    }
  },
  "SceneObj_Gear_MvM_Trap": {
    "$type": "PAAKDFFLFIN",
    "globalValue": {
      "serverGlobalValues": [
        "SGV_AttackDamageLevel",
        "SGV_ElementMasteryLevel",
        "SGV_AttackSpeedLevel",
        "SGV_RangeLevel",
        "SGV_Trap_Extratime",
        "SGV_Trap_Extradamage",
        "SGV_Trap_Reset",
        "SGV_AttackRatioUp",
        "SGV_Trap_Multiple"
      ],
      "initServerGlobalValues": {
        "SGV_AttackDamageLevel": 1.0,
        "SGV_ElementMasteryLevel": 0.0,
        "SGV_AttackSpeedLevel": 0.0,
        "SGV_RangeLevel": 0.0,
        "SGV_Trap_Extratime": 0.0,
        "SGV_Trap_Extradamage": 0.0,
        "SGV_Trap_Reset": 0.0,
        "SGV_AttackRatioUp": 0.0,
        "SGV_Trap_Multiple": 0.0
      }
    },
    "hasModel": true,
    "combat": {
      "property": {
        "useAbilityProperty": true,
        "hp": 99999.0,
        "attack": 200.0,
        "weight": 50.0,
        "isLockHP": true,
        "ignorePurgeRate": true
      },
      "beHit": {
        "hitBloodEffect": "",
        "hitAutoRedirect": false,
        "muteAllHitText": true
      },
      "combatLock": {
        "lockShape": "CircleLockEnemy",
        "denyLockOn": true,
        "lockType": "Gadget_Lv1"
      },
      "die": {
        "dieForceDisappearTime": 3.0,
        "dieDisappearEffect": ""
      }
    },
    "combatTemplate": "",
    "abilities": [
      {
        "abilityID": "",
        "abilityName": "SceneObj_Gear_MvM_Trap_Ability",
        "abilityOverride": ""
      }
    ],
    "field": {
      "shape": "CircleR4H4",
      "fromShape": "",
      "triggerInfinite": true,
      "lifeInfinite": true,
      "checkInterval": 0.75,
      "overwriteCampType": true,
      "campType": "All",
      "colliderName": "",
      "fromColliderName": ""
    }
  },
  "SceneObj_Gear_MvM_Mine": {
    "$type": "PAAKDFFLFIN",
    "globalValue": {
      "serverGlobalValues": [
        "SGV_AttackDamageLevel",
        "SGV_ElementMasteryLevel",
        "SGV_AttackSpeedLevel",
        "SGV_RangeLevel",
        "SGV_Mine_Extradamage",
        "SGV_Mine_Extraexplosion",
        "SGV_Mine_Reset",
        "SGV_AttackRatioUp"
      ],
      "initServerGlobalValues": {
        "SGV_AttackDamageLevel": 0.0,
        "SGV_ElementMasteryLevel": 0.0,
        "SGV_AttackSpeedLevel": 0.0,
        "SGV_RangeLevel": 0.0,
        "SGV_Mine_Extradamage": 0.0,
        "SGV_Mine_Extraexplosion": 0.0,
        "SGV_Mine_Reset": 0.0,
        "SGV_AttackRatioUp": 0.0
      }
    },
    "hasModel": true,
    "combat": {
      "property": {
        "useAbilityProperty": true,
        "hp": 99999.0,
        "attack": 200.0,
        "weight": 50.0,
        "isLockHP": true,
        "ignorePurgeRate": true
      },
      "beHit": {
        "hitBloodEffect": "",
        "hitAutoRedirect": false,
        "muteAllHitText": true
      },
      "combatLock": {
        "lockShape": "CircleLockEnemy",
        "denyLockOn": true,
        "lockType": "Gadget_Lv1"
      }
    },
    "combatTemplate": "",
    "abilities": [
      {
        "abilityID": "",
        "abilityName": "SceneObj_Gear_MvM_Mine_Ability",
        "abilityOverride": ""
      }
    ],
    "field": {
      "shape": "CircleR4H4",
      "fromShape": "",
      "triggerInfinite": true,
      "lifeInfinite": true,
      "checkInterval": 0.75,
      "overwriteCampType": true,
      "campType": "All",
      "colliderName": "",
      "fromColliderName": ""
    }
  },
  "SceneObj_Level_Common_Property_Ani_Prop_TurntableGearGate_04": {
    "$type": "PAAKDFFLFIN",
    "common": {
      "disableTickDistance": 100000.0
    },
    "hasModel": true,
    "combatTemplate": "",
    "abilities": [
      {
        "abilityID": "",
        "abilityName": "SceneObj_Level_Common_Property_Ani_Prop_TurntableGearGate_04_Ability",
        "abilityOverride": ""
      },
      {
        "abilityID": "",
        "abilityName": "Scene_RockGadget_Summon_Detect",
        "abilityOverride": ""
      }
    ],
    "gadgetAction": {
      "gadgetStateActionList": [
        {
          "$type": "DPGGKEHEODN",
          "intID": "GadgetState",
          "syncState": true
        }
      ]
    }
  },
  "SceneObj_Level_Common_Property_Ani_Prop_TurntableGearGate_01": {
    "$type": "PAAKDFFLFIN",
    "common": {
      "disableTickDistance": 100000.0
    },
    "globalValue": {
      "serverGlobalValues": [
        "SGV_TurntableGearGate_Mark"
      ],
      "initServerGlobalValues": {
        "SGV_TurntableGearGate_Mark": 0.0
      }
    },
    "hasModel": true,
    "combatTemplate": "",
    "abilities": [
      {
        "abilityID": "",
        "abilityName": "SceneObj_Level_Common_Property_Ani_Prop_TurntableGearGate_01_Ability",
        "abilityOverride": ""
      }
    ],
    "stateLayers": {
      "defaultLayer": {
        "$type": "AEMHOACJLIB",
        "layerIndexName": "",
        "GCIDDLIDFAE": "",
        "stateIDs": {
          "All": {
            "$type": "EMHNNDOPLDB",
            "cullingModelAlwaysAnimate": true
          }
        }
      }
    },
    "gadgetAction": {
      "gadgetStateActionList": [
        {
          "$type": "DPGGKEHEODN",
          "intID": "GadgetState",
          "syncState": true
        }
      ]
    }
  },
  "SceneObj_Level_Common_Property_Ani_Prop_TurntableGearGate_02": {
    "$type": "PAAKDFFLFIN",
    "common": {
      "disableTickDistance": 100000.0
    },
    "hasModel": true,
    "combatTemplate": "",
    "abilities": [
      {
        "abilityID": "",
        "abilityName": "SceneObj_Level_Common_Property_Ani_Prop_TurntableGearGate_02_Ability",
        "abilityOverride": ""
      }
    ],
    "move": {
      "$type": "IGIJLNOIMEL",
      "MLDBFKEGPEF": "TargetKey",
      "followTargetEx": {
        "$type": "DKGNGEBNMCJ",
        "BHBHIEHIPFI": "_Ability_TurnableGearGate_FollowTarget"
      },
      "attachPoint": "",
      "followRotation": true,
      "syncTransToServer": true,
      "syncInterval": 0.20000000298023224,
      "EHCIGNEDGDO": ""
    }
  },
  "SceneObj_Level_Common_Property_Ani_Prop_TurntableGearGate_03": {
    "$type": "PAAKDFFLFIN",
    "common": {
      "disableTickDistance": 100000.0
    },
    "hasModel": true,
    "combatTemplate": "",
    "abilities": [
      {
        "abilityID": "",
        "abilityName": "SceneObj_Level_Common_Property_Ani_Prop_TurntableGearGate_02_Ability",
        "abilityOverride": ""
      },
      {
        "abilityID": "",
        "abilityName": "SceneObj_Level_Common_Property_Ani_Prop_TurntableGearGate_03_Ability",
        "abilityOverride": ""
      }
    ],
    "move": {
      "$type": "IGIJLNOIMEL",
      "MLDBFKEGPEF": "TargetKey",
      "followTargetEx": {
        "$type": "DKGNGEBNMCJ",
        "BHBHIEHIPFI": "_Ability_TurnableGearGate_FollowTarget"
      },
      "attachPoint": "",
      "followRotation": true,
      "syncTransToServer": true,
      "syncInterval": 0.20000000298023224,
      "EHCIGNEDGDO": ""
    }
  },
  "SceneObj_Level_Common_Property_Ani_Prop_LightGuideGear_01": {
    "$type": "PAAKDFFLFIN",
    "hasModel": true,
    "combatTemplate": "",
    "abilities": [
      {
        "abilityID": "",
        "abilityName": "SceneObj_Level_Common_Property_Ani_Prop_LightGuideGear_01_Ability",
        "abilityOverride": ""
      }
    ]
  },
  "SceneObj_Level_Common_Property_Ani_Prop_TurntableOperator_01": {
    "$type": "PAAKDFFLFIN",
    "hasModel": true,
    "combatTemplate": "",
    "abilities": [
      {
        "abilityID": "",
        "abilityName": "SceneObj_Level_Common_Property_Ani_Prop_TurntableOperator_01_Ability",
        "abilityOverride": ""
      },
      {
        "abilityID": "",
        "abilityName": "Scene_RockGadget_Summon_Detect",
        "abilityOverride": ""
      }
    ],
    "field": {
      "concernType": "LocalAvatar",
      "shape": "CircleR2H2",
      "fromShape": "",
      "triggerInfinite": true,
      "lifeInfinite": true,
      "checkInterval": 0.5,
      "overwriteCampType": true,
      "campType": "SelfCamp",
      "colliderName": "",
      "fromColliderName": ""
    },
    "misc": {
      "escapeEffect": "",
      "targetIndicatorYOffset": 1.350000023841858
    },
    "stateLayers": {
      "defaultLayer": {
        "$type": "AEMHOACJLIB",
        "layerIndexName": "",
        "GCIDDLIDFAE": "",
        "stateIDs": {
          "All": {
            "$type": "EMHNNDOPLDB",
            "animatorStates": {
              "Switch90": [],
              "Switch180": [],
              "Switch270": [],
              "Switch360": []
            },
            "cullingModelAlwaysAnimate": true
          }
        }
      }
    },
    "gadgetAction": {
      "gadgetStateActionList": [
        {
          "$type": "DPGGKEHEODN",
          "intID": "GadgetState",
          "syncState": true
        }
      ]
    }
  },
  "SceneObj_Level_Common_Property_Ani_Prop_FloorGateGear_01": {
    "$type": "PAAKDFFLFIN",
    "hasModel": true,
    "combatTemplate": "",
    "abilities": [
      {
        "abilityID": "",
        "abilityName": "SceneObj_Level_Common_Property_Ani_Prop_FloorGateGear_01_Ability",
        "abilityOverride": ""
      },
      {
        "abilityID": "",
        "abilityName": "Scene_RockGadget_Summon_Detect",
        "abilityOverride": ""
      }
    ],
    "gadgetAction": {
      "gadgetStateActionList": [
        {
          "$type": "DPGGKEHEODN",
          "intID": "GadgetState",
          "syncState": true
        }
      ]
    }
  },
  "SceneObj_Level_Common_Property_Ani_Prop_TurntableGearDoor_01": {
    "$type": "PAAKDFFLFIN",
    "hasModel": true,
    "combatTemplate": "",
    "gadgetAction": {
      "gadgetStateActionList": [
        {
          "$type": "DPGGKEHEODN",
          "intID": "GadgetState",
          "syncState": true
        }
      ]
    }
  },
  "SceneObj_Level_Common_Property_Ani_Prop_SgwTrackSwitcher_01": {
    "$type": "PAAKDFFLFIN",
    "hasModel": true,
    "combatTemplate": "",
    "abilities": [
      {
        "abilityID": "",
        "abilityName": "SceneObj_Level_Common_Property_Ani_Prop_SgwTrackSwitcher_01_Ability",
        "abilityOverride": ""
      }
    ],
    "field": {
      "concernType": "LocalAvatar",
      "shape": "CircleR2H2",
      "fromShape": "",
      "triggerInfinite": true,
      "lifeInfinite": true,
      "checkInterval": 0.5,
      "overwriteCampType": true,
      "campType": "SelfCamp",
      "colliderName": "",
      "fromColliderName": ""
    }
  },
  "SceneObj_Level_Common_Property_Ani_Prop_SgwTrackSwitcher_02": {
    "$type": "PAAKDFFLFIN",
    "hasModel": true,
    "combatTemplate": "",
    "move": {
      "$type": "EGIPFLCINDM"
    }
  },
  "SceneObj_Level_Common_Property_Ani_Prop_SgwDungeonTruck_01": {
    "$type": "PAAKDFFLFIN",
    "hasModel": true,
    "combatTemplate": "",
    "abilities": [
      {
        "abilityID": "",
        "abilityName": "SceneObj_Level_Common_Property_Ani_Prop_SgwDungeonTruck_01_Ability",
        "abilityOverride": ""
      }
    ],
    "move": {
      "$type": "EGIPFLCINDM"
    }
  },
  "SceneObj_Level_Common_Property_Ani_Prop_SgwDungeonTruck_02": {
    "$type": "PAAKDFFLFIN",
    "hasModel": true,
    "combatTemplate": "",
    "abilities": [
      {
        "abilityID": "",
        "abilityName": "SceneObj_Level_Common_Property_Ani_Prop_SgwDungeonTruck_01_Ability",
        "abilityOverride": ""
      }
    ],
    "move": {
      "$type": "EGIPFLCINDM"
    }
  },
  "SceneObj_Level_Common_Property_Ani_Prop_SgwDungeonTruck_03": {
    "$type": "PAAKDFFLFIN",
    "hasModel": true,
    "combatTemplate": "",
    "abilities": [
      {
        "abilityID": "",
        "abilityName": "SceneObj_Level_Common_Property_Ani_Prop_SgwDungeonTruck_03_Ability",
        "abilityOverride": ""
      }
    ],
    "field": {
      "concernType": "LocalAvatar",
      "shape": "CircleR2H2",
      "fromShape": "",
      "triggerInfinite": true,
      "lifeInfinite": true,
      "checkInterval": 0.5,
      "overwriteCampType": true,
      "campType": "SelfCamp",
      "colliderName": "",
      "fromColliderName": ""
    },
    "move": {
      "$type": "IGIJLNOIMEL",
      "MLDBFKEGPEF": "GroupGadgetEntity",
      "attachPoint": "",
      "syncTransToServer": true,
      "syncInterval": 0.5,
      "EHCIGNEDGDO": ""
    }
  },
  "SceneObj_Level_Common_Property_Ani_Prop_SgwTrackGate_01": {
    "$type": "PAAKDFFLFIN",
    "hasModel": true,
    "combatTemplate": "",
    "abilities": [
      {
        "abilityID": "",
        "abilityName": "SceneObj_Level_Common_Property_Ani_Prop_SgwTrackGate_01_Ability",
        "abilityOverride": ""
      }
    ],
    "gadgetAction": {
      "gadgetStateActionList": [
        {
          "$type": "DPGGKEHEODN",
          "intID": "GadgetState",
          "syncState": true
        }
      ]
    }
  },
  "SceneObj_Level_Common_Property_Ani_Prop_SgwTrackLight_01": {
    "$type": "PAAKDFFLFIN",
    "hasModel": true,
    "combatTemplate": "",
    "abilities": [
      {
        "abilityID": "",
        "abilityName": "SceneObj_Level_Common_Property_Ani_Prop_SgwTrackLight_01_Ability",
        "abilityOverride": ""
      }
    ]
  },
  "SceneObj_Level_Common_Property_Ani_Prop_SgwTrackGate_02": {
    "$type": "PAAKDFFLFIN",
    "hasModel": true,
    "combatTemplate": "",
    "abilities": [
      {
        "abilityID": "",
        "abilityName": "SceneObj_Level_Common_Property_Ani_Prop_SgwTrackGate_02_Ability",
        "abilityOverride": ""
      }
    ],
    "gadgetAction": {
      "gadgetStateActionList": [
        {
          "$type": "DPGGKEHEODN",
          "intID": "GadgetState",
          "syncState": true
        }
      ]
    }
  },
  "SceneObj_Level_Common_Property_Ani_Prop_BulletHellCoin_01": {
    "$type": "PAAKDFFLFIN",
    "model": {
      "bornEffect": "",
      "attachEffect": "Eff_SceneObj_AdventurerCoin_NoShadows_01"
    },
    "globalValue": {
      "serverGlobalValues": [
        "SGV_CoinType"
      ],
      "initServerGlobalValues": {
        "SGV_CoinType": 1.0
      }
    },
    "hasModel": true,
    "combat": {
      "property": {
        "hp": 99999.0,
        "weight": 50.0,
        "isInvincible": true,
        "isLockHP": true,
        "isGhostToAllied": true,
        "isGhostToEnemy": true,
        "canTriggerBullet": false
      },
      "beHit": {
        "hitBloodEffect": "",
        "hitAutoRedirect": false,
        "muteAllHit": true,
        "muteAllHitEffect": true,
        "muteAllHitText": true
      },
      "combatLock": {
        "lockShape": "CircleLockEnemy",
        "denyLockOn": true,
        "lockType": "Default"
      }
    },
    "combatTemplate": "",
    "abilities": [
      {
        "abilityID": "",
        "abilityName": "SceneObj_Level_Common_Property_Ani_Prop_BulletHellCoin_01",
        "abilityOverride": ""
      }
    ],
    "field": {
      "concernType": "LocalAvatar",
      "shape": "CircleR2H2",
      "fromShape": "",
      "triggerInfinite": true,
      "lifeInfinite": true,
      "checkInterval": 0.25,
      "overwriteCampType": true,
      "campType": "SelfCamp",
      "colliderName": "",
      "fromColliderName": ""
    }
  },
  "SceneObj_Level_Common_Property_Ani_Prop_BulletHellCoin_02": {
    "$type": "PAAKDFFLFIN",
    "model": {
      "bornEffect": "",
      "attachEffect": "Eff_SceneObj_AdventurerCoin_NoShadows_02"
    },
    "globalValue": {
      "serverGlobalValues": [
        "SGV_CoinType"
      ],
      "initServerGlobalValues": {
        "SGV_CoinType": 2.0
      }
    },
    "hasModel": true,
    "combat": {
      "property": {
        "hp": 99999.0,
        "weight": 50.0,
        "isInvincible": true,
        "isLockHP": true,
        "isGhostToAllied": true,
        "isGhostToEnemy": true,
        "canTriggerBullet": false
      },
      "beHit": {
        "hitBloodEffect": "",
        "hitAutoRedirect": false,
        "muteAllHit": true,
        "muteAllHitEffect": true,
        "muteAllHitText": true
      },
      "combatLock": {
        "lockShape": "CircleLockEnemy",
        "denyLockOn": true,
        "lockType": "Default"
      }
    },
    "combatTemplate": "",
    "abilities": [
      {
        "abilityID": "",
        "abilityName": "SceneObj_Level_Common_Property_Ani_Prop_BulletHellCoin_01",
        "abilityOverride": ""
      }
    ],
    "field": {
      "concernType": "LocalAvatar",
      "shape": "CircleR3H3",
      "fromShape": "",
      "triggerInfinite": true,
      "lifeInfinite": true,
      "checkInterval": 0.25,
      "overwriteCampType": true,
      "campType": "SelfCamp",
      "colliderName": "",
      "fromColliderName": ""
    }
  },
  "SceneObj_Activity_Common_Property_Ani_Prop_BulletHell_Barrage_Bullet_01": {
    "$type": "PAAKDFFLFIN",
    "common": {
      "effectAttachShape": {
        "$type": "AFBBHIMPGKH"
      },
      "affectedByWorld": true
    },
    "globalValue": {
      "serverGlobalValues": [
        "SGV_isBulletHellBullet",
        "SGV_CoinType"
      ],
      "initServerGlobalValues": {
        "SGV_isBulletHellBullet": 1.0,
        "SGV_CoinType": 1.0
      }
    },
    "combat": {
      "property": {
        "hp": 999999.0,
        "isGhostToAllied": true,
        "canTriggerBullet": false
      },
      "beHit": {
        "hitBloodEffect": "",
        "hitAutoRedirect": false,
        "muteAllHit": true,
        "muteAllHitText": true
      },
      "combatLock": {
        "lockShape": "CircleLockEnemy",
        "denyLockOn": true,
        "lockType": "Default"
      },
      "die": {
        "dieDisappearEffect": ""
      }
    },
    "combatTemplate": "",
    "abilities": [
      {
        "abilityID": "",
        "abilityName": "SceneObj_Activity_Common_Property_Ani_Prop_BulletHell_Barrage_Bullet_01",
        "abilityOverride": ""
      },
      {
        "abilityID": "",
        "abilityName": "SceneObj_Activity_Common_Property_Ani_Prop_BulletHell_Barrage_Bullet_toCoin",
        "abilityOverride": ""
      },
      {
        "abilityID": "",
        "abilityName": "SceneObj_Activity_Common_Property_Ani_Prop_BulletHell_Barrage_Bullet_killSelf",
        "abilityOverride": ""
      }
    ],
    "field": {
      "concernType": "LocalAvatar",
      "shape": "CircleR2H2",
      "fromShape": "",
      "triggerInfinite": true,
      "lifeInfinite": true,
      "checkInterval": 0.25,
      "overwriteCampType": true,
      "campType": "SelfCamp",
      "colliderName": "",
      "fromColliderName": ""
    },
    "timer": {
      "lifeInfinite": true
    },
    "move": {
      "$type": "AHGMNDFKPGD",
      "velocityForce": {
        "muteAll": true
      },
      "speed": 5.0
    },
    "gadget": {
      "$type": "INBEOAJKHGD",
      "collision": {
        "targetType": "Enemy"
      },
      "triggerActions": [
        {
          "$type": "HEAANEHEBIK",
          "abilityName": "SceneObj_Activity_Common_Property_Ani_Prop_BulletHell_Barrage_Bullet_01"
        }
      ],
      "killByOther": true,
      "dieDelayTime": 0.0
    }
  },
  "SceneObj_Activity_Common_Property_Ani_Prop_BulletHell_Barrage_Bullet_02": {
    "$type": "PAAKDFFLFIN",
    "common": {
      "effectAttachShape": {
        "$type": "AFBBHIMPGKH"
      },
      "affectedByWorld": true
    },
    "globalValue": {
      "serverGlobalValues": [
        "SGV_isBulletHellBullet",
        "SGV_CoinType"
      ],
      "initServerGlobalValues": {
        "SGV_isBulletHellBullet": 1.0,
        "SGV_CoinType": 1.0
      }
    },
    "combat": {
      "property": {
        "hp": 1000.0,
        "isGhostToAllied": true,
        "canTriggerBullet": false
      },
      "beHit": {
        "hitBloodEffect": "",
        "hitAutoRedirect": false,
        "muteAllHit": true,
        "muteAllHitText": true
      },
      "combatLock": {
        "lockShape": "CircleLockEnemy",
        "denyLockOn": true,
        "lockType": "Default"
      },
      "die": {
        "dieDisappearEffect": ""
      }
    },
    "combatTemplate": "",
    "abilities": [
      {
        "abilityID": "",
        "abilityName": "SceneObj_Activity_Common_Property_Ani_Prop_BulletHell_Barrage_Bullet_02",
        "abilityOverride": ""
      },
      {
        "abilityID": "",
        "abilityName": "SceneObj_Activity_Common_Property_Ani_Prop_BulletHell_Barrage_Bullet_toCoin",
        "abilityOverride": ""
      },
      {
        "abilityID": "",
        "abilityName": "SceneObj_Activity_Common_Property_Ani_Prop_BulletHell_Barrage_Bullet_killSelf",
        "abilityOverride": ""
      }
    ],
    "field": {
      "concernType": "LocalAvatar",
      "shape": "CircleR2H2",
      "fromShape": "",
      "triggerInfinite": true,
      "lifeInfinite": true,
      "checkInterval": 0.25,
      "overwriteCampType": true,
      "campType": "SelfCamp",
      "colliderName": "",
      "fromColliderName": ""
    },
    "timer": {
      "lifeInfinite": true
    },
    "move": {
      "$type": "MEFFBNAGNKM",
      "velocityForce": {
        "muteAll": true
      },
      "speed": 5.0,
      "maxSpeed": 18.0,
      "anglerVelocity": 30.0,
      "acceleration": 3.0,
      "LADLDOGAMLI": {
        "$type": "GLPIGCIKICP"
      },
      "delay": 0.10000000149011612,
      "traceOnYAxis": true
    },
    "gadget": {
      "$type": "INBEOAJKHGD",
      "collision": {
        "targetType": "Enemy"
      },
      "triggerActions": [
        {
          "$type": "HEAANEHEBIK",
          "abilityName": "SceneObj_Activity_Common_Property_Ani_Prop_BulletHell_Barrage_Bullet_02"
        }
      ],
      "killByOther": true,
      "dieDelayTime": 0.0
    }
  },
  "SceneObj_Level_Common_Property_Ani_Prop_CoinDummy_01": {
    "$type": "PAAKDFFLFIN",
    "globalValue": {
      "serverGlobalValues": [
        "SGV_maxCoinIndex",
        "SGV_createCoinPerHit",
        "SGV_costHealthPerHit"
      ],
      "initServerGlobalValues": {
        "SGV_maxCoinIndex": 3.0,
        "SGV_createCoinPerHit": 3.0,
        "SGV_costHealthPerHit": 100.0
      }
    },
    "hasModel": true,
    "combat": {
      "property": {
        "hp": 99999.0,
        "attack": 20.0,
        "weight": 50.0,
        "isLockHP": true,
        "isGhostToAllied": true,
        "ignoreDamageToSelf": true
      },
      "beHit": {
        "hitBloodEffect": "",
        "hitAutoRedirect": false,
        "muteAllHitText": true
      },
      "combatLock": {
        "lockShape": "CircleLockEnemy",
        "lockType": "Gadget_Lv1",
        "overrideRange": 10.0
      }
    },
    "combatTemplate": "",
    "abilities": [
      {
        "abilityID": "SceneObj_Level_Common_Property_Ani_Prop_CoinDummy_beHit",
        "abilityName": "SceneObj_Level_Common_Property_Ani_Prop_CoinDummy_beHit",
        "abilityOverride": ""
      },
      {
        "abilityID": "SceneObj_Level_Common_Property_Ani_Prop_CoinDummySmall_Eff",
        "abilityName": "SceneObj_Level_Common_Property_Ani_Prop_CoinDummySmall_Eff",
        "abilityOverride": ""
      }
    ],
    "billboard": {
      "$type": "IBDGIBAFPPH",
      "attachPoint": "BillboardAttach",
      "offset": {
        "y": 2.200000047683716
      },
      "radiusOffset": 1.0,
      "showHPBar": true,
      "shieldBarOnly": true
    }
  },
  "SceneObj_Level_Common_Property_Ani_Prop_CoinDummy_02": {
    "$type": "PAAKDFFLFIN",
    "globalValue": {
      "serverGlobalValues": [
        "SGV_maxCoinIndex",
        "SGV_createCoinPerHit",
        "SGV_costHealthPerHit"
      ],
      "initServerGlobalValues": {
        "SGV_maxCoinIndex": 12.0,
        "SGV_createCoinPerHit": 2.0,
        "SGV_costHealthPerHit": 17.0
      }
    },
    "hasModel": true,
    "combat": {
      "property": {
        "hp": 99999.0,
        "attack": 20.0,
        "weight": 50.0,
        "isLockHP": true,
        "isGhostToAllied": true,
        "ignoreDamageToSelf": true
      },
      "beHit": {
        "hitBloodEffect": "",
        "hitAutoRedirect": false,
        "muteAllHitText": true
      },
      "combatLock": {
        "lockShape": "CircleLockEnemy",
        "lockType": "Gadget_Lv1",
        "overrideRange": 10.0
      }
    },
    "combatTemplate": "",
    "abilities": [
      {
        "abilityID": "SceneObj_Level_Common_Property_Ani_Prop_CoinDummy_beHit",
        "abilityName": "SceneObj_Level_Common_Property_Ani_Prop_CoinDummy_beHit",
        "abilityOverride": ""
      },
      {
        "abilityID": "SceneObj_Level_Common_Property_Ani_Prop_CoinDummyBig_Eff",
        "abilityName": "SceneObj_Level_Common_Property_Ani_Prop_CoinDummyBig_Eff",
        "abilityOverride": ""
      }
    ],
    "billboard": {
      "$type": "IBDGIBAFPPH",
      "attachPoint": "BillboardAttach",
      "offset": {
        "y": 2.799999952316284
      },
      "radiusOffset": 1.0,
      "showHPBar": true,
      "shieldBarOnly": true
    }
  },
  "SceneObj_Level_Common_Property_Ani_Prop_BulletHell_StaticBullet_01": {
    "$type": "PAAKDFFLFIN",
    "common": {
      "effectAttachShape": {
        "$type": "AFBBHIMPGKH"
      },
      "affectedByWorld": true
    },
    "globalValue": {
      "serverGlobalValues": [
        "SGV_CoinType"
      ],
      "initServerGlobalValues": {
        "SGV_CoinType": 1.0
      }
    },
    "combat": {
      "property": {
        "hp": 999999.0,
        "isGhostToAllied": true,
        "canTriggerBullet": false
      },
      "beHit": {
        "hitBloodEffect": "",
        "hitAutoRedirect": false,
        "muteAllHit": true,
        "muteAllHitText": true
      },
      "combatLock": {
        "lockShape": "CircleLockEnemy",
        "denyLockOn": true,
        "lockType": "Default"
      },
      "die": {
        "dieEndTime": 1.0,
        "dieDisappearEffect": ""
      }
    },
    "combatTemplate": "",
    "abilities": [
      {
        "abilityID": "",
        "abilityName": "SceneObj_Level_Common_Property_Ani_Prop_BulletHell_StaticBullet_01",
        "abilityOverride": ""
      },
      {
        "abilityID": "",
        "abilityName": "SceneObj_Activity_Common_Property_Ani_Prop_BulletHell_Barrage_Bullet_toCoin",
        "abilityOverride": ""
      }
    ],
    "field": {
      "concernType": "LocalAvatar",
      "shape": "CircleR2H2",
      "fromShape": "",
      "triggerInfinite": true,
      "lifeInfinite": true,
      "checkInterval": 0.25,
      "overwriteCampType": true,
      "campType": "SelfCamp",
      "colliderName": "",
      "fromColliderName": ""
    },
    "timer": {
      "lifeInfinite": true
    },
    "move": {
      "$type": "EGIPFLCINDM"
    },
    "gadget": {
      "$type": "INBEOAJKHGD",
      "collision": {
        "targetType": "Enemy"
      },
      "triggerActions": [
        {
          "$type": "HEAANEHEBIK",
          "abilityName": "SceneObj_Level_Common_Property_Ani_Prop_BulletHell_StaticBullet_01"
        }
      ],
      "killByOther": true,
      "dieDelayTime": 0.0
    }
  },
  "SceneObj_Level_Common_Property_Ani_Prop_LeaserWall_01": {
    "$type": "PAAKDFFLFIN",
    "hasModel": true,
    "combatTemplate": "",
    "abilities": [
      {
        "abilityID": "",
        "abilityName": "SceneObj_Level_Common_Property_Ani_Prop_LeaserWall_01",
        "abilityOverride": ""
      }
    ],
    "field": {
      "concernType": "LocalAvatar",
      "shape": "",
      "fromShape": "",
      "triggerInfinite": true,
      "lifeInfinite": true,
      "checkInterval": 0.25,
      "overwriteCampType": true,
      "campType": "SelfCamp",
      "colliderName": "",
      "fromColliderName": ""
    }
  }
}