{
  "Invoker_Herald_Water_SlashAtk_Bullet": {
    "$type": "CJKJIENLOHD",
    "combat": {
      "property": {
        "useCreatorProperty": true,
        "isInvincible": true,
        "isGhostToAllied": true,
        "isGhostToEnemy": true,
        "canTriggerBullet": false
      },
      "beHit": {
        "hitBloodEffect": "",
        "muteAllHit": true,
        "muteAllHitEffect": true,
        "muteAllHitText": true
      },
      "combatLock": {
        "lockShape": "CircleLockEnemy",
        "denyLockOn": true,
        "lockType": "Default"
      }
    },
    "combatTemplate": "",
    "abilities": [
      {
        "abilityID": "Invoker_Herald_Water_SlashAtk_Bullet",
        "abilityName": "Invoker_Herald_Water_SlashAtk_Bullet",
        "abilityOverride": ""
      }
    ],
    "timer": {
      "lifeTime": 1.2000000476837158
    },
    "move": {
      "$type": "GONNMCBKAOC",
      "speed": 25.0,
      "DPAAFHNMHHN": {
        "$type": "IFAANDLLGLP"
      }
    },
    "gadget": {
      "$type": "JENBBNKGGJP",
      "collision": {
        "triggerType": "TriggerNoRepeat",
        "targetType": "Enemy"
      },
      "triggerActions": [
        {
          "$type": "AILPBJHDHDG",
          "abilityName": "Invoker_Herald_Water_SlashAtk_Bullet"
        }
      ]
    }
  },
  "Invoker_Herald_Water_ChargeAtk01_Bullet": {
    "$type": "CJKJIENLOHD",
    "combat": {
      "property": {
        "useCreatorProperty": true,
        "isInvincible": true,
        "isGhostToAllied": true,
        "isGhostToEnemy": true,
        "canTriggerBullet": false
      },
      "beHit": {
        "hitBloodEffect": "",
        "muteAllHit": true,
        "muteAllHitEffect": true,
        "muteAllHitText": true
      },
      "combatLock": {
        "lockShape": "CircleLockEnemy",
        "denyLockOn": true,
        "lockType": "Default"
      }
    },
    "combatTemplate": "",
    "abilities": [
      {
        "abilityID": "Invoker_Herald_Water_ChargeAtk01_Bullet",
        "abilityName": "Invoker_Herald_Water_ChargeAtk01_Bullet",
        "abilityOverride": ""
      }
    ],
    "timer": {
      "lifeTime": 1.2000000476837158
    },
    "move": {
      "$type": "GONNMCBKAOC",
      "speed": 25.0,
      "DPAAFHNMHHN": {
        "$type": "IFAANDLLGLP"
      }
    },
    "gadget": {
      "$type": "JENBBNKGGJP",
      "collision": {
        "triggerType": "TriggerNoRepeat",
        "targetType": "Enemy"
      },
      "triggerActions": [
        {
          "$type": "AILPBJHDHDG",
          "abilityName": "Invoker_Herald_Water_ChargeAtk01_Bullet"
        }
      ]
    }
  },
  "Invoker_Herald_Water_ChargeAtk02_Bullet": {
    "$type": "CJKJIENLOHD",
    "combat": {
      "property": {
        "useCreatorProperty": true,
        "isInvincible": true,
        "isGhostToAllied": true,
        "isGhostToEnemy": true,
        "canTriggerBullet": false
      },
      "beHit": {
        "hitBloodEffect": "",
        "muteAllHit": true,
        "muteAllHitEffect": true,
        "muteAllHitText": true
      },
      "combatLock": {
        "lockShape": "CircleLockEnemy",
        "denyLockOn": true,
        "lockType": "Default"
      }
    },
    "combatTemplate": "",
    "abilities": [
      {
        "abilityID": "Invoker_Herald_Water_ChargeAtk02_Bullet",
        "abilityName": "Invoker_Herald_Water_ChargeAtk02_Bullet",
        "abilityOverride": ""
      }
    ],
    "timer": {
      "lifeTime": 1.2000000476837158
    },
    "move": {
      "$type": "GONNMCBKAOC",
      "speed": 25.0,
      "DPAAFHNMHHN": {
        "$type": "IFAANDLLGLP"
      }
    },
    "gadget": {
      "$type": "JENBBNKGGJP",
      "collision": {
        "triggerType": "TriggerNoRepeat",
        "targetType": "Enemy"
      },
      "triggerActions": [
        {
          "$type": "AILPBJHDHDG",
          "abilityName": "Invoker_Herald_Water_ChargeAtk02_Bullet"
        }
      ]
    }
  },
  "Invoker_Deacon_Electric_RangeAtk_Bullet": {
    "$type": "CJKJIENLOHD",
    "combat": {
      "property": {
        "useCreatorProperty": true,
        "isInvincible": true,
        "isGhostToAllied": true,
        "isGhostToEnemy": true,
        "canTriggerBullet": false
      },
      "beHit": {
        "hitBloodEffect": "",
        "muteAllHit": true,
        "muteAllHitEffect": true,
        "muteAllHitText": true
      },
      "combatLock": {
        "lockShape": "CircleLockEnemy",
        "denyLockOn": true,
        "lockType": "Default"
      }
    },
    "combatTemplate": "",
    "abilities": [
      {
        "abilityID": "Invoker_Deacon_Electric_RangeAtk_Bullet",
        "abilityName": "Invoker_Deacon_Electric_RangeAtk_Bullet",
        "abilityOverride": ""
      }
    ],
    "timer": {
      "lifeTime": 3.0
    },
    "move": {
      "$type": "GONNMCBKAOC",
      "speed": 15.0,
      "DPAAFHNMHHN": {
        "$type": "IFAANDLLGLP"
      }
    }
  },
  "Invoker_Deacon_Electric_ChargeAtk01_Bullet": {
    "$type": "CJKJIENLOHD",
    "combat": {
      "property": {
        "useCreatorProperty": true,
        "isInvincible": true,
        "isGhostToAllied": true,
        "isGhostToEnemy": true,
        "canTriggerBullet": false
      },
      "beHit": {
        "hitBloodEffect": "",
        "muteAllHit": true,
        "muteAllHitEffect": true,
        "muteAllHitText": true
      },
      "combatLock": {
        "lockShape": "CircleLockEnemy",
        "denyLockOn": true,
        "lockType": "Default"
      }
    },
    "combatTemplate": "",
    "abilities": [
      {
        "abilityID": "Invoker_Deacon_Electric_ChargeAtk01_Bullet",
        "abilityName": "Invoker_Deacon_Electric_ChargeAtk01_Bullet",
        "abilityOverride": ""
      },
      {
        "abilityID": "Invoker_Deacon_Electric_ChargeAtk01_Explosion",
        "abilityName": "Invoker_Deacon_Electric_ChargeAtk01_Explosion",
        "abilityOverride": ""
      }
    ],
    "timer": {
      "lifeTime": 3.0
    },
    "move": {
      "$type": "DMLAFKAOGID",
      "speed": 20.0,
      "DPAAFHNMHHN": {
        "$type": "IFAANDLLGLP"
      },
      "delay": 1.5,
      "itanoCircusStartAngler": 3600.0,
      "guidanceMinAnglerVelocity": 3600.0,
      "guidanceDuration": 0.10000000149011612
    },
    "gadget": {
      "$type": "JENBBNKGGJP",
      "collision": {
        "targetType": "Enemy"
      },
      "triggerActions": [
        {
          "$type": "AILPBJHDHDG",
          "abilityName": "Invoker_Deacon_Electric_ChargeAtk01_Bullet"
        }
      ],
      "triggerLifeOverActions": [
        {
          "$type": "AILPBJHDHDG",
          "abilityName": "Invoker_Deacon_Electric_ChargeAtk01_Explosion"
        }
      ]
    }
  },
  "Invoker_Deacon_Electric_ChargeAtk02_Bullet": {
    "$type": "CJKJIENLOHD",
    "combat": {
      "property": {
        "useCreatorProperty": true,
        "isInvincible": true,
        "isGhostToAllied": true,
        "isGhostToEnemy": true,
        "canTriggerBullet": false
      },
      "beHit": {
        "hitBloodEffect": "",
        "muteAllHit": true,
        "muteAllHitEffect": true,
        "muteAllHitText": true
      },
      "combatLock": {
        "lockShape": "CircleLockEnemy",
        "denyLockOn": true,
        "lockType": "Default"
      }
    },
    "combatTemplate": "",
    "abilities": [
      {
        "abilityID": "Invoker_Deacon_Electric_ChargeAtk02_Bullet",
        "abilityName": "Invoker_Deacon_Electric_ChargeAtk02_Bullet",
        "abilityOverride": ""
      },
      {
        "abilityID": "Invoker_Deacon_Electric_ChargeAtk02_Explosion",
        "abilityName": "Invoker_Deacon_Electric_ChargeAtk02_Explosion",
        "abilityOverride": ""
      }
    ],
    "timer": {
      "lifeTime": 5.0
    },
    "move": {
      "$type": "GONNMCBKAOC",
      "speed": 20.0,
      "acceleration": -10.0,
      "DPAAFHNMHHN": {
        "$type": "IFAANDLLGLP"
      }
    },
    "gadget": {
      "$type": "JENBBNKGGJP",
      "collision": {
        "triggerType": "TriggerNoRepeat",
        "targetType": "Enemy"
      },
      "triggerActions": [
        {
          "$type": "AILPBJHDHDG",
          "abilityName": "Invoker_Deacon_Electric_ChargeAtk02_Bullet"
        }
      ],
      "triggerLifeOverActions": [
        {
          "$type": "AILPBJHDHDG",
          "abilityName": "Invoker_Deacon_Electric_ChargeAtk02_Explosion"
        }
      ]
    }
  },
  "Invoker_Deacon_Fire_NormalAtk_Bullet": {
    "$type": "CJKJIENLOHD",
    "common": {
      "effectAttachShape": {
        "$type": "OMIODKONOMG",
        "scaleZ": 0.4000000059604645
      }
    },
    "combat": {
      "property": {
        "useCreatorProperty": true,
        "hp": 999999.0,
        "attack": 10.0,
        "defense": 999999.0,
        "isLockHP": true
      },
      "beHit": {
        "hitBloodEffect": "",
        "muteAllHit": true,
        "muteAllHitEffect": true,
        "muteAllHitText": true
      },
      "combatLock": {
        "lockShape": "CircleLockEnemy",
        "denyLockOn": true,
        "lockType": "Default"
      }
    },
    "combatTemplate": "",
    "abilities": [
      {
        "abilityID": "Invoker_Deacon_Fire_NormalAtk_Bullet",
        "abilityName": "Invoker_Deacon_Fire_NormalAtk_Bullet",
        "abilityOverride": ""
      },
      {
        "abilityID": "Invoker_Deacon_Fire_NormalAtk_Explode",
        "abilityName": "Invoker_Deacon_Fire_NormalAtk_Explode",
        "abilityOverride": ""
      }
    ],
    "timer": {
      "lifeTime": 5.0
    },
    "move": {
      "$type": "DMLAFKAOGID",
      "speed": 10.0,
      "maxSpeed": 20.0,
      "acceleration": 7.0,
      "DPAAFHNMHHN": {
        "$type": "IFAANDLLGLP"
      },
      "delay": 1.2999999523162842,
      "itanoCircusStartAngler": 3600.0,
      "guidanceMinAnglerVelocity": 3600.0,
      "guidanceDuration": 0.10000000149011612
    },
    "gadget": {
      "$type": "JENBBNKGGJP",
      "collision": {
        "targetType": "Enemy"
      },
      "triggerActions": [
        {
          "$type": "AILPBJHDHDG",
          "abilityName": "Invoker_Deacon_Fire_NormalAtk_Explode"
        }
      ],
      "triggerLifeOverActions": [
        {
          "$type": "AILPBJHDHDG",
          "abilityName": "Invoker_Deacon_Fire_NormalAtk_Explode"
        }
      ],
      "killByOther": true
    }
  },
  "Invoker_Deacon_Fire_BurnAtk_Bullet": {
    "$type": "CJKJIENLOHD",
    "common": {
      "effectAttachShape": {
        "$type": "OMIODKONOMG",
        "scaleZ": 0.4000000059604645
      }
    },
    "combat": {
      "property": {
        "useCreatorProperty": true,
        "hp": 999999.0,
        "attack": 10.0,
        "defense": 999999.0,
        "isLockHP": true
      },
      "beHit": {
        "hitBloodEffect": "",
        "muteAllHit": true,
        "muteAllHitEffect": true,
        "muteAllHitText": true
      },
      "combatLock": {
        "lockShape": "CircleLockEnemy",
        "denyLockOn": true,
        "lockType": "Default"
      }
    },
    "combatTemplate": "",
    "abilities": [
      {
        "abilityID": "Invoker_Deacon_Fire_BurnAtk_Bullet",
        "abilityName": "Invoker_Deacon_Fire_BurnAtk_Bullet",
        "abilityOverride": ""
      },
      {
        "abilityID": "Bullet_Landed",
        "abilityName": "Invoker_Deacon_Fire_BurnAtk_Explosion",
        "abilityOverride": ""
      }
    ],
    "timer": {
      "lifeTime": 5.0
    },
    "move": {
      "$type": "GONNMCBKAOC",
      "speed": 3.0,
      "maxSpeed": 10.0,
      "acceleration": 5.0,
      "DPAAFHNMHHN": {
        "$type": "IFAANDLLGLP"
      }
    },
    "gadget": {
      "$type": "JENBBNKGGJP",
      "collision": {
        "targetType": "Enemy"
      },
      "triggerActions": [
        {
          "$type": "AILPBJHDHDG",
          "abilityName": "Invoker_Deacon_Fire_BurnAtk_Explosion"
        }
      ],
      "triggerLifeOverActions": [
        {
          "$type": "AILPBJHDHDG",
          "abilityName": "Invoker_Deacon_Fire_BurnAtk_Explosion"
        }
      ],
      "killByOther": true
    }
  },
  "Invoker_Deacon_Fire_BurnAtk_Pos": {
    "$type": "CJKJIENLOHD",
    "combat": {
      "property": {
        "useCreatorProperty": true,
        "hp": 100.0,
        "attack": 10.0,
        "isInvincible": true,
        "isGhostToAllied": true,
        "isGhostToEnemy": true,
        "canTriggerBullet": false
      },
      "combatLock": {
        "lockShape": "CircleLockEnemy",
        "denyLockOn": true,
        "lockType": "Default"
      }
    },
    "combatTemplate": "",
    "abilities": [
      {
        "abilityID": "Invoker_Deacon_Fire_BurnAtk_Pos",
        "abilityName": "Invoker_Deacon_Fire_BurnAtk_Pos",
        "abilityOverride": ""
      }
    ],
    "timer": {
      "lifeTime": 5.0
    },
    "canRemoveByClient": true
  },
  "Invoker_Deacon_Fire_FireCore": {
    "$type": "CJKJIENLOHD",
    "combat": {
      "property": {
        "useCreatorProperty": true,
        "hp": 999999.0,
        "attack": 15.0,
        "defense": 999999.0,
        "isLockHP": true
      },
      "beHit": {
        "hitBloodEffect": "",
        "muteAllHitEffect": true
      },
      "combatLock": {
        "lockShape": "CircleLockEnemy",
        "lockType": "Avatar&Monster_Lv4"
      },
      "die": {
        "dieForceDisappearTime": 2.0,
        "dieDisappearEffect": ""
      }
    },
    "combatTemplate": "",
    "abilities": [
      {
        "abilityID": "Invoker_Deacon_Fire_FireCoreAbilities",
        "abilityName": "Invoker_Deacon_Fire_FireCoreAbilities",
        "abilityOverride": ""
      }
    ],
    "timer": {
      "lifeInfinite": true
    },
    "billboard": {
      "$type": "DNGNMAJBCNP",
      "attachPoint": "BillboardAttach",
      "offset": {
        "y": 1.0
      },
      "radiusOffset": 0.5,
      "showDistance": 48.0,
      "showHPBar": true,
      "forceShowDistance": 30.0,
      "size": "Big",
      "shieldBarOnly": true
    }
  },
  "Invoker_Deacon_Fire_RangeAtk_Bullet": {
    "$type": "CJKJIENLOHD",
    "common": {
      "effectAttachShape": {
        "$type": "OMIODKONOMG",
        "scaleZ": 0.4000000059604645
      }
    },
    "combat": {
      "property": {
        "useCreatorProperty": true,
        "hp": 999999.0,
        "attack": 10.0,
        "defense": 999999.0,
        "isLockHP": true
      },
      "beHit": {
        "hitBloodEffect": "",
        "muteAllHit": true,
        "muteAllHitEffect": true,
        "muteAllHitText": true
      },
      "combatLock": {
        "lockShape": "CircleLockEnemy",
        "denyLockOn": true,
        "lockType": "Default"
      }
    },
    "combatTemplate": "",
    "abilities": [
      {
        "abilityID": "Invoker_Deacon_Fire_RangeAtk_Bullet",
        "abilityName": "Invoker_Deacon_Fire_RangeAtk_Bullet",
        "abilityOverride": ""
      },
      {
        "abilityID": "Invoker_Deacon_Fire_RangeAtk_Explosion",
        "abilityName": "Invoker_Deacon_Fire_RangeAtk_Explosion",
        "abilityOverride": ""
      }
    ],
    "timer": {
      "lifeTime": 5.0
    },
    "move": {
      "$type": "DMLAFKAOGID",
      "speed": 18.0,
      "maxSpeed": 23.0,
      "acceleration": 5.0,
      "DPAAFHNMHHN": {
        "$type": "IFAANDLLGLP"
      },
      "delay": 1.100000023841858,
      "itanoCircusStartAngler": 3600.0,
      "guidanceMinAnglerVelocity": 3600.0,
      "guidanceDuration": 0.10000000149011612
    },
    "gadget": {
      "$type": "JENBBNKGGJP",
      "collision": {
        "targetType": "Enemy"
      },
      "triggerActions": [
        {
          "$type": "AILPBJHDHDG",
          "abilityName": "Invoker_Deacon_Fire_RangeAtk_Explosion"
        }
      ],
      "triggerLifeOverActions": [
        {
          "$type": "AILPBJHDHDG",
          "abilityName": "Invoker_Deacon_Fire_RangeAtk_Explosion"
        }
      ],
      "killByOther": true
    }
  },
  "Invoker_Deacon_Fire_HitOwner_Bullet": {
    "$type": "CJKJIENLOHD",
    "common": {
      "effectAttachShape": {
        "$type": "OMIODKONOMG"
      }
    },
    "combat": {
      "property": {
        "useCreatorProperty": true,
        "hp": 999999.0,
        "attack": 10.0,
        "defense": 999999.0,
        "isInvincible": true,
        "isGhostToEnemy": true,
        "canTriggerBullet": false
      },
      "beHit": {
        "hitBloodEffect": "",
        "muteAllHit": true,
        "muteAllHitEffect": true,
        "muteAllHitText": true
      },
      "combatLock": {
        "lockShape": "CircleLockEnemy",
        "denyLockOn": true,
        "lockType": "Default"
      }
    },
    "combatTemplate": "",
    "abilities": [
      {
        "abilityID": "Invoker_Deacon_Fire_FiceCoreOwnerAtk_Hit",
        "abilityName": "Invoker_Deacon_Fire_FiceCoreOwnerAtk_Hit",
        "abilityOverride": ""
      }
    ],
    "timer": {
      "lifeTime": 5.0
    },
    "move": {
      "$type": "DMLAFKAOGID",
      "speed": 5.0,
      "maxSpeed": 12.0,
      "minSpeed": 0.20000000298023224,
      "anglerVelocity": 480.0,
      "acceleration": 5.0,
      "DPAAFHNMHHN": {
        "$type": "IFAANDLLGLP"
      },
      "delay": 0.3499999940395355,
      "guidanceMinAnglerVelocity": 180.0,
      "guidanceDuration": 35.0
    },
    "gadget": {
      "$type": "JENBBNKGGJP",
      "collision": {
        "triggerType": "TriggerNoRepeat",
        "targetType": "AllExceptSelf",
        "ignoreScene": true
      },
      "triggerActions": [
        {
          "$type": "AILPBJHDHDG",
          "abilityName": "Invoker_Deacon_Fire_FiceCoreOwnerAtk_Hit"
        }
      ]
    }
  },
  "Invoker_Deacon_Fire_FireCore_Bullet": {
    "$type": "CJKJIENLOHD",
    "common": {
      "effectAttachShape": {
        "$type": "OMIODKONOMG"
      }
    },
    "combat": {
      "property": {
        "useCreatorProperty": true,
        "hp": 999999.0,
        "attack": 10.0,
        "defense": 999999.0,
        "isInvincible": true,
        "isGhostToAllied": true,
        "isGhostToEnemy": true
      },
      "beHit": {
        "hitBloodEffect": "",
        "muteAllHit": true,
        "muteAllHitEffect": true,
        "muteAllHitText": true
      },
      "combatLock": {
        "lockShape": "CircleLockEnemy",
        "denyLockOn": true,
        "lockType": "Default"
      }
    },
    "combatTemplate": "",
    "abilities": [
      {
        "abilityID": "",
        "abilityName": "Invoker_Deacon_Fire_RangeAtk_Bullet",
        "abilityOverride": ""
      }
    ],
    "timer": {
      "lifeTime": 10.0
    },
    "move": {
      "$type": "DMLAFKAOGID",
      "speed": 1.5,
      "maxSpeed": 24.0,
      "minSpeed": 1.5,
      "anglerVelocity": 150.0,
      "acceleration": 32.0,
      "DPAAFHNMHHN": {
        "$type": "IFAANDLLGLP"
      },
      "delay": 0.5,
      "guidanceDelay": 0.20000000298023224,
      "guidanceSpeedChange": false,
      "guidanceMinAnglerVelocity": 150.0,
      "guidanceDuration": 1.0
    },
    "gadget": {
      "$type": "JENBBNKGGJP",
      "collision": {
        "targetType": "Enemy"
      },
      "triggerActions": [
        {
          "$type": "AILPBJHDHDG",
          "abilityName": "Invoker_Deacon_Fire_RangeAtk_Bullet"
        }
      ]
    }
  },
  "Invoker_Deacon_Fire_FireCoreRangePos": {
    "$type": "CJKJIENLOHD",
    "combat": {
      "property": {
        "useCreatorProperty": true,
        "hp": 999999.0,
        "attack": 10.0,
        "isInvincible": true,
        "isGhostToAllied": true,
        "isGhostToEnemy": true
      },
      "combatLock": {
        "lockShape": "CircleLockEnemy",
        "denyLockOn": true,
        "lockType": "Default"
      }
    },
    "combatTemplate": "",
    "abilities": [
      {
        "abilityID": "Invoker_Deacon_Fire_HellFire_Logic",
        "abilityName": "Invoker_Deacon_Fire_HellFire_Logic",
        "abilityOverride": ""
      }
    ],
    "timer": {
      "lifeTime": 5.0
    },
    "canRemoveByClient": true
  },
  "Invoker_Archdeacon_EmptyBallM": {
    "$type": "CJKJIENLOHD",
    "combat": {
      "property": {
        "useCreatorProperty": true,
        "isInvincible": true,
        "isGhostToEnemy": true
      },
      "combatLock": {
        "lockShape": "CircleLockEnemy",
        "denyLockOn": true,
        "lockType": "Default"
      }
    },
    "combatTemplate": "",
    "abilities": [
      {
        "abilityID": "",
        "abilityName": "Invoker_Archdeacon_EmptyBallM_Life",
        "abilityOverride": ""
      }
    ],
    "timer": {
      "lifeTime": 8.0
    },
    "move": {
      "$type": "MMAPEFIEGAL",
      "target": "TargetEntity",
      "attachPoint": "BallM",
      "handleInLateTick": true,
      "LFOHLEKJFBI": ""
    },
    "canRemoveByClient": true
  },
  "Invoker_Archdeacon_EmptyBallL": {
    "$type": "CJKJIENLOHD",
    "combat": {
      "property": {
        "useCreatorProperty": true,
        "isInvincible": true,
        "isGhostToEnemy": true
      },
      "combatLock": {
        "lockShape": "CircleLockEnemy",
        "denyLockOn": true,
        "lockType": "Default"
      }
    },
    "combatTemplate": "",
    "abilities": [
      {
        "abilityID": "",
        "abilityName": "Invoker_Archdeacon_EmptyBallL_Life",
        "abilityOverride": ""
      }
    ],
    "timer": {
      "lifeTime": 8.0
    },
    "move": {
      "$type": "MMAPEFIEGAL",
      "target": "TargetEntity",
      "attachPoint": "BallL",
      "handleInLateTick": true,
      "LFOHLEKJFBI": ""
    },
    "canRemoveByClient": true
  },
  "Invoker_Archdeacon_EmptyBallR": {
    "$type": "CJKJIENLOHD",
    "combat": {
      "property": {
        "useCreatorProperty": true,
        "isInvincible": true,
        "isGhostToEnemy": true
      },
      "combatLock": {
        "lockShape": "CircleLockEnemy",
        "denyLockOn": true,
        "lockType": "Default"
      }
    },
    "combatTemplate": "",
    "abilities": [
      {
        "abilityID": "",
        "abilityName": "Invoker_Archdeacon_EmptyBallR_Life",
        "abilityOverride": ""
      }
    ],
    "timer": {
      "lifeTime": 8.0
    },
    "move": {
      "$type": "MMAPEFIEGAL",
      "target": "TargetEntity",
      "attachPoint": "BallR",
      "handleInLateTick": true,
      "LFOHLEKJFBI": ""
    },
    "canRemoveByClient": true
  },
  "Invoker_Archdeacon_BornGate": {
    "$type": "CJKJIENLOHD",
    "combat": {
      "property": {
        "useCreatorProperty": true,
        "isInvincible": true,
        "isGhostToEnemy": true
      },
      "combatLock": {
        "lockShape": "CircleLockEnemy",
        "denyLockOn": true,
        "lockType": "Default"
      }
    },
    "combatTemplate": "",
    "abilities": [
      {
        "abilityID": "",
        "abilityName": "Invoker_Archdeacon_BornGate",
        "abilityOverride": ""
      }
    ],
    "timer": {
      "lifeTime": 3.0999999046325684
    },
    "canRemoveByClient": true
  },
  "Invoker_Archdeacon_BlinkGate": {
    "$type": "CJKJIENLOHD",
    "combat": {
      "property": {
        "useCreatorProperty": true,
        "isInvincible": true,
        "isGhostToEnemy": true
      },
      "combatLock": {
        "lockShape": "CircleLockEnemy",
        "denyLockOn": true,
        "lockType": "Default"
      }
    },
    "combatTemplate": "",
    "abilities": [
      {
        "abilityID": "",
        "abilityName": "Invoker_Archdeacon_BlinkGate",
        "abilityOverride": ""
      }
    ],
    "timer": {
      "lifeTime": 2.200000047683716
    },
    "canRemoveByClient": true
  },
  "Invoker_Archdeacon_OverCharge_CircleFire": {
    "$type": "CJKJIENLOHD",
    "specialPoint": {
      "elementAbsorb": "RootNode",
      "elementPendant": "",
      "elementDrop": "RootNode",
      "bulletAim": "BulletAim"
    },
    "combat": {
      "property": {
        "useCreatorProperty": true,
        "isLockHP": true
      },
      "combatLock": {
        "lockShape": "CircleLockEnemy",
        "lockType": "Avatar&Monster_Lv4"
      }
    },
    "combatTemplate": "",
    "abilities": [
      {
        "abilityID": "",
        "abilityName": "Invoker_Archdeacon_OverCharge_CircleFire",
        "abilityOverride": ""
      }
    ],
    "timer": {
      "lifeTime": 15.0
    },
    "billboard": {
      "$type": "DNGNMAJBCNP",
      "attachPoint": "BillboardAttach",
      "offset": {
        "y": 0.800000011920929
      },
      "showHPBar": true,
      "forceShowDistance": 50.0,
      "shieldBarOnly": true
    },
    "canRemoveByClient": true
  },
  "Invoker_Archdeacon_OverCharge_CircleThunder": {
    "$type": "CJKJIENLOHD",
    "specialPoint": {
      "elementAbsorb": "RootNode",
      "elementPendant": "",
      "elementDrop": "RootNode",
      "bulletAim": "BulletAim"
    },
    "combat": {
      "property": {
        "useCreatorProperty": true,
        "isLockHP": true
      },
      "combatLock": {
        "lockShape": "CircleLockEnemy",
        "lockType": "Avatar&Monster_Lv4"
      }
    },
    "combatTemplate": "",
    "abilities": [
      {
        "abilityID": "",
        "abilityName": "Invoker_Archdeacon_OverCharge_CircleThunder",
        "abilityOverride": ""
      }
    ],
    "timer": {
      "lifeTime": 15.0
    },
    "billboard": {
      "$type": "DNGNMAJBCNP",
      "attachPoint": "BillboardAttach",
      "offset": {
        "y": 0.800000011920929
      },
      "showHPBar": true,
      "forceShowDistance": 50.0,
      "shieldBarOnly": true
    },
    "canRemoveByClient": true
  },
  "Invoker_Archdeacon_OverCharge_CircleIce": {
    "$type": "CJKJIENLOHD",
    "specialPoint": {
      "elementAbsorb": "RootNode",
      "elementPendant": "",
      "elementDrop": "RootNode",
      "bulletAim": "BulletAim"
    },
    "combat": {
      "property": {
        "useCreatorProperty": true,
        "isLockHP": true
      },
      "combatLock": {
        "lockShape": "CircleLockEnemy",
        "lockType": "Avatar&Monster_Lv4"
      }
    },
    "combatTemplate": "",
    "abilities": [
      {
        "abilityID": "",
        "abilityName": "Invoker_Archdeacon_OverCharge_CircleIce",
        "abilityOverride": ""
      }
    ],
    "timer": {
      "lifeTime": 15.0
    },
    "billboard": {
      "$type": "DNGNMAJBCNP",
      "attachPoint": "BillboardAttach",
      "offset": {
        "y": 0.800000011920929
      },
      "showHPBar": true,
      "forceShowDistance": 50.0,
      "shieldBarOnly": true
    },
    "canRemoveByClient": true
  },
  "Invoker_Archdeacon_OverCharge_CircleWater": {
    "$type": "CJKJIENLOHD",
    "specialPoint": {
      "elementAbsorb": "RootNode",
      "elementPendant": "",
      "elementDrop": "RootNode",
      "bulletAim": "BulletAim"
    },
    "combat": {
      "property": {
        "useCreatorProperty": true,
        "isLockHP": true
      },
      "combatLock": {
        "lockShape": "CircleLockEnemy",
        "lockType": "Avatar&Monster_Lv4"
      }
    },
    "combatTemplate": "",
    "abilities": [
      {
        "abilityID": "",
        "abilityName": "Invoker_Archdeacon_OverCharge_CircleWater",
        "abilityOverride": ""
      }
    ],
    "timer": {
      "lifeTime": 15.0
    },
    "billboard": {
      "$type": "DNGNMAJBCNP",
      "attachPoint": "BillboardAttach",
      "offset": {
        "y": 0.800000011920929
      },
      "showHPBar": true,
      "forceShowDistance": 50.0,
      "shieldBarOnly": true
    },
    "canRemoveByClient": true
  },
  "Invoker_Archdeacon_SwitchBall_EnergyFire": {
    "$type": "CJKJIENLOHD",
    "common": {
      "effectAttachShape": {
        "$type": "OMIODKONOMG"
      },
      "mass": 100000.0
    },
    "combat": {
      "property": {
        "useCreatorProperty": true,
        "isLockHP": true,
        "canTriggerBullet": false
      },
      "beHit": {
        "hitBloodEffect": "",
        "muteAllHit": true,
        "muteAllHitEffect": true,
        "muteAllHitText": true
      },
      "combatLock": {
        "lockShape": "CircleLockEnemy",
        "denyLockOn": true,
        "lockType": "Default"
      },
      "simulatePhysics": {
        "enable": true
      }
    },
    "combatTemplate": "",
    "abilities": [
      {
        "abilityID": "",
        "abilityName": "Invoker_Archdeacon_SwitchBall_EnergyFire",
        "abilityOverride": ""
      }
    ],
    "timer": {
      "lifeTime": 3.0
    },
    "move": {
      "$type": "JGEFBHJPMOL"
    },
    "gadget": {
      "$type": "AKGCANNFFGI",
      "multiBulletConfig": {
        "$type": "OAKJCHGIBPC",
        "rotationDampTime": "Eff_Monster_Invoker_Archdeacon_SwitchBall_EngeryToHand_Fire"
      }
    }
  },
  "Invoker_Archdeacon_SwitchBall_EnergyThunder": {
    "$type": "CJKJIENLOHD",
    "common": {
      "effectAttachShape": {
        "$type": "OMIODKONOMG"
      },
      "mass": 100000.0
    },
    "combat": {
      "property": {
        "useCreatorProperty": true,
        "isLockHP": true,
        "canTriggerBullet": false
      },
      "beHit": {
        "hitBloodEffect": "",
        "muteAllHit": true,
        "muteAllHitEffect": true,
        "muteAllHitText": true
      },
      "combatLock": {
        "lockShape": "CircleLockEnemy",
        "denyLockOn": true,
        "lockType": "Default"
      },
      "simulatePhysics": {
        "enable": true
      }
    },
    "combatTemplate": "",
    "abilities": [
      {
        "abilityID": "",
        "abilityName": "Invoker_Archdeacon_SwitchBall_EnergyThunder",
        "abilityOverride": ""
      }
    ],
    "timer": {
      "lifeTime": 3.0
    },
    "move": {
      "$type": "JGEFBHJPMOL"
    },
    "gadget": {
      "$type": "AKGCANNFFGI",
      "multiBulletConfig": {
        "$type": "OAKJCHGIBPC",
        "rotationDampTime": "Eff_Monster_Invoker_Archdeacon_SwitchBall_EngeryToHand_Thunder"
      }
    }
  },
  "Invoker_Archdeacon_SwitchBall_EnergyIce": {
    "$type": "CJKJIENLOHD",
    "common": {
      "effectAttachShape": {
        "$type": "OMIODKONOMG"
      },
      "mass": 100000.0
    },
    "combat": {
      "property": {
        "useCreatorProperty": true,
        "isLockHP": true,
        "canTriggerBullet": false
      },
      "beHit": {
        "hitBloodEffect": "",
        "muteAllHit": true,
        "muteAllHitEffect": true,
        "muteAllHitText": true
      },
      "combatLock": {
        "lockShape": "CircleLockEnemy",
        "denyLockOn": true,
        "lockType": "Default"
      },
      "simulatePhysics": {
        "enable": true
      }
    },
    "combatTemplate": "",
    "abilities": [
      {
        "abilityID": "",
        "abilityName": "Invoker_Archdeacon_SwitchBall_EnergyIce",
        "abilityOverride": ""
      }
    ],
    "timer": {
      "lifeTime": 3.0
    },
    "move": {
      "$type": "JGEFBHJPMOL"
    },
    "gadget": {
      "$type": "AKGCANNFFGI",
      "multiBulletConfig": {
        "$type": "OAKJCHGIBPC",
        "rotationDampTime": "Eff_Monster_Invoker_Archdeacon_SwitchBall_EngeryToHand_Ice"
      }
    }
  },
  "Invoker_Archdeacon_SwitchBall_EnergyWater": {
    "$type": "CJKJIENLOHD",
    "common": {
      "effectAttachShape": {
        "$type": "OMIODKONOMG"
      },
      "mass": 100000.0
    },
    "combat": {
      "property": {
        "useCreatorProperty": true,
        "isLockHP": true,
        "canTriggerBullet": false
      },
      "beHit": {
        "hitBloodEffect": "",
        "muteAllHit": true,
        "muteAllHitEffect": true,
        "muteAllHitText": true
      },
      "combatLock": {
        "lockShape": "CircleLockEnemy",
        "denyLockOn": true,
        "lockType": "Default"
      },
      "simulatePhysics": {
        "enable": true
      }
    },
    "combatTemplate": "",
    "abilities": [
      {
        "abilityID": "",
        "abilityName": "Invoker_Archdeacon_SwitchBall_EnergyWater",
        "abilityOverride": ""
      }
    ],
    "timer": {
      "lifeTime": 3.0
    },
    "move": {
      "$type": "JGEFBHJPMOL"
    },
    "gadget": {
      "$type": "AKGCANNFFGI",
      "multiBulletConfig": {
        "$type": "OAKJCHGIBPC",
        "rotationDampTime": "Eff_Monster_Invoker_Archdeacon_SwitchBall_EngeryToHand_Water"
      }
    }
  },
  "Invoker_Archdeacon_SwitchBallAtk_BallFire": {
    "$type": "CJKJIENLOHD",
    "combat": {
      "property": {
        "useCreatorProperty": true,
        "isInvincible": true
      },
      "combatLock": {
        "lockShape": "CircleLockEnemy",
        "denyLockOn": true,
        "lockType": "Avatar&Monster_Lv4"
      }
    },
    "combatTemplate": "",
    "abilities": [
      {
        "abilityID": "",
        "abilityName": "Invoker_Archdeacon_SwitchBallAtk_BallFire",
        "abilityOverride": ""
      }
    ],
    "timer": {
      "lifeTime": 4.0
    },
    "canRemoveByClient": true
  },
  "Invoker_Archdeacon_SwitchBallAtk_BallThunder": {
    "$type": "CJKJIENLOHD",
    "combat": {
      "property": {
        "useCreatorProperty": true,
        "isInvincible": true
      },
      "combatLock": {
        "lockShape": "CircleLockEnemy",
        "denyLockOn": true,
        "lockType": "Avatar&Monster_Lv4"
      }
    },
    "combatTemplate": "",
    "abilities": [
      {
        "abilityID": "",
        "abilityName": "Invoker_Archdeacon_SwitchBallAtk_BallThunder",
        "abilityOverride": ""
      }
    ],
    "timer": {
      "lifeTime": 4.0
    },
    "canRemoveByClient": true
  },
  "Invoker_Archdeacon_SwitchBallAtk_BallIce": {
    "$type": "CJKJIENLOHD",
    "combat": {
      "property": {
        "useCreatorProperty": true,
        "isInvincible": true
      },
      "combatLock": {
        "lockShape": "CircleLockEnemy",
        "denyLockOn": true,
        "lockType": "Avatar&Monster_Lv4"
      }
    },
    "combatTemplate": "",
    "abilities": [
      {
        "abilityID": "",
        "abilityName": "Invoker_Archdeacon_SwitchBallAtk_BallIce",
        "abilityOverride": ""
      }
    ],
    "timer": {
      "lifeTime": 4.0
    },
    "canRemoveByClient": true
  },
  "Invoker_Archdeacon_SwitchBallAtk_BallWater": {
    "$type": "CJKJIENLOHD",
    "combat": {
      "property": {
        "useCreatorProperty": true,
        "isInvincible": true
      },
      "combatLock": {
        "lockShape": "CircleLockEnemy",
        "denyLockOn": true,
        "lockType": "Avatar&Monster_Lv4"
      }
    },
    "combatTemplate": "",
    "abilities": [
      {
        "abilityID": "",
        "abilityName": "Invoker_Archdeacon_SwitchBallAtk_BallWater",
        "abilityOverride": ""
      }
    ],
    "timer": {
      "lifeTime": 4.0
    },
    "canRemoveByClient": true
  },
  "Invoker_Archdeacon_FireRockWave_FireBallStandby": {
    "$type": "CJKJIENLOHD",
    "combat": {
      "property": {
        "useCreatorProperty": true,
        "isInvincible": true
      },
      "combatLock": {
        "lockShape": "CircleLockEnemy",
        "denyLockOn": true,
        "lockType": "Avatar&Monster_Lv4"
      }
    },
    "combatTemplate": "",
    "abilities": [
      {
        "abilityID": "",
        "abilityName": "Invoker_Archdeacon_FireRockWave_FireBallStandby",
        "abilityOverride": ""
      }
    ],
    "timer": {
      "lifeTime": 7.0
    },
    "move": {
      "$type": "MMAPEFIEGAL",
      "target": "TargetEntity",
      "attachPoint": "HandEffectL",
      "LFOHLEKJFBI": ""
    },
    "gadget": {
      "$type": "JENBBNKGGJP",
      "collision": {
        "triggerType": "TriggerAlways"
      },
      "triggerActions": [
        {
          "$type": "AILPBJHDHDG",
          "abilityName": "Invoker_Archdeacon_FireRockWave_FireBallStandby"
        }
      ]
    },
    "canRemoveByClient": true
  },
  "Invoker_Archdeacon_FireRockWave_FireBallStandby2": {
    "$type": "CJKJIENLOHD",
    "combat": {
      "property": {
        "useCreatorProperty": true,
        "isInvincible": true
      },
      "combatLock": {
        "lockShape": "CircleLockEnemy",
        "denyLockOn": true,
        "lockType": "Avatar&Monster_Lv4"
      }
    },
    "combatTemplate": "",
    "abilities": [
      {
        "abilityID": "",
        "abilityName": "Invoker_Archdeacon_FireRockWave_FireBallStandby",
        "abilityOverride": ""
      }
    ],
    "timer": {
      "lifeTime": 7.0
    },
    "move": {
      "$type": "MMAPEFIEGAL",
      "target": "TargetEntity",
      "attachPoint": "HandEffectR",
      "LFOHLEKJFBI": ""
    },
    "gadget": {
      "$type": "JENBBNKGGJP",
      "collision": {
        "triggerType": "TriggerNoRepeat"
      },
      "triggerActions": [
        {
          "$type": "AILPBJHDHDG",
          "abilityName": "Invoker_Archdeacon_FireRockWave_FireBallStandby"
        }
      ]
    },
    "canRemoveByClient": true
  },
  "Invoker_Archdeacon_FireRockWave_FireBallStandby3": {
    "$type": "CJKJIENLOHD",
    "combat": {
      "property": {
        "useCreatorProperty": true,
        "isInvincible": true
      },
      "combatLock": {
        "lockShape": "CircleLockEnemy",
        "denyLockOn": true,
        "lockType": "Avatar&Monster_Lv4"
      }
    },
    "combatTemplate": "",
    "abilities": [
      {
        "abilityID": "",
        "abilityName": "Invoker_Archdeacon_FireRockWave_FireBallStandby",
        "abilityOverride": ""
      }
    ],
    "timer": {
      "lifeTime": 7.0
    },
    "move": {
      "$type": "MMAPEFIEGAL",
      "target": "TargetEntity",
      "attachPoint": "BallSwitchL",
      "LFOHLEKJFBI": ""
    },
    "gadget": {
      "$type": "JENBBNKGGJP",
      "collision": {
        "triggerType": "TriggerAlways"
      },
      "triggerActions": [
        {
          "$type": "AILPBJHDHDG",
          "abilityName": "Invoker_Archdeacon_FireRockWave_FireBallStandby"
        }
      ]
    },
    "canRemoveByClient": true
  },
  "Invoker_Archdeacon_FireRockWave_FireBallStandby4": {
    "$type": "CJKJIENLOHD",
    "combat": {
      "property": {
        "useCreatorProperty": true,
        "isInvincible": true
      },
      "combatLock": {
        "lockShape": "CircleLockEnemy",
        "denyLockOn": true,
        "lockType": "Avatar&Monster_Lv4"
      }
    },
    "combatTemplate": "",
    "abilities": [
      {
        "abilityID": "",
        "abilityName": "Invoker_Archdeacon_FireRockWave_FireBallStandby",
        "abilityOverride": ""
      }
    ],
    "timer": {
      "lifeTime": 7.0
    },
    "move": {
      "$type": "MMAPEFIEGAL",
      "target": "TargetEntity",
      "attachPoint": "BallSwitchR",
      "LFOHLEKJFBI": ""
    },
    "gadget": {
      "$type": "JENBBNKGGJP",
      "collision": {
        "triggerType": "TriggerAlways"
      },
      "triggerActions": [
        {
          "$type": "AILPBJHDHDG",
          "abilityName": "Invoker_Archdeacon_FireRockWave_FireBallStandby"
        }
      ]
    },
    "canRemoveByClient": true
  },
  "Invoker_Archdeacon_FireRockWave_FireBallTrack": {
    "$type": "CJKJIENLOHD",
    "combat": {
      "property": {
        "useCreatorProperty": true,
        "isInvincible": true
      },
      "combatLock": {
        "lockShape": "CircleLockEnemy",
        "denyLockOn": true,
        "lockType": "Avatar&Monster_Lv4"
      }
    },
    "combatTemplate": "",
    "abilities": [
      {
        "abilityID": "",
        "abilityName": "Invoker_Archdeacon_FireRockWave_FireBallTrack",
        "abilityOverride": ""
      },
      {
        "abilityID": "",
        "abilityName": "Invoker_Archdeacon_FireRockWave_FireBallTrack_LifeOverExplode",
        "abilityOverride": ""
      }
    ],
    "timer": {
      "lifeTime": 4.0
    },
    "move": {
      "$type": "DMLAFKAOGID",
      "speed": 10.0,
      "maxSpeed": 15.0,
      "minSpeed": 12.0,
      "anglerVelocity": 300.0,
      "DPAAFHNMHHN": {
        "$type": "IFAANDLLGLP"
      },
      "guidanceMinAnglerVelocity": 300.0,
      "guidanceDuration": 0.5
    },
    "gadget": {
      "$type": "JENBBNKGGJP",
      "collision": {
        "targetType": "Enemy"
      },
      "triggerActions": [
        {
          "$type": "AILPBJHDHDG",
          "abilityName": "Invoker_Archdeacon_FireRockWave_FireBallTrack"
        }
      ],
      "triggerLifeOverActions": [
        {
          "$type": "AILPBJHDHDG",
          "abilityName": "Invoker_Archdeacon_FireRockWave_FireBallTrack_LifeOverExplode"
        }
      ]
    },
    "canRemoveByClient": true
  },
  "Invoker_Archdeacon_WaterBall_FireBallStandby": {
    "$type": "CJKJIENLOHD",
    "combat": {
      "property": {
        "useCreatorProperty": true,
        "isInvincible": true
      },
      "combatLock": {
        "lockShape": "CircleLockEnemy",
        "denyLockOn": true,
        "lockType": "Avatar&Monster_Lv4"
      }
    },
    "combatTemplate": "",
    "abilities": [
      {
        "abilityID": "",
        "abilityName": "Invoker_Archdeacon_WaterBall_FireBallStandby",
        "abilityOverride": ""
      }
    ],
    "timer": {
      "lifeTime": 7.0
    },
    "move": {
      "$type": "MMAPEFIEGAL",
      "target": "TargetEntity",
      "attachPoint": "HandEffectL",
      "LFOHLEKJFBI": ""
    },
    "gadget": {
      "$type": "JENBBNKGGJP",
      "collision": {
        "triggerType": "TriggerAlways"
      }
    },
    "canRemoveByClient": true
  },
  "Invoker_Archdeacon_WaterBall_FireBallStandby2": {
    "$type": "CJKJIENLOHD",
    "combat": {
      "property": {
        "useCreatorProperty": true,
        "isInvincible": true
      },
      "combatLock": {
        "lockShape": "CircleLockEnemy",
        "denyLockOn": true,
        "lockType": "Avatar&Monster_Lv4"
      }
    },
    "combatTemplate": "",
    "abilities": [
      {
        "abilityID": "",
        "abilityName": "Invoker_Archdeacon_WaterBall_FireBallStandby",
        "abilityOverride": ""
      }
    ],
    "timer": {
      "lifeTime": 7.0
    },
    "move": {
      "$type": "MMAPEFIEGAL",
      "target": "TargetEntity",
      "attachPoint": "HandEffectR",
      "LFOHLEKJFBI": ""
    },
    "gadget": {
      "$type": "JENBBNKGGJP",
      "collision": {
        "triggerType": "TriggerAlways"
      }
    },
    "canRemoveByClient": true
  },
  "Invoker_Archdeacon_WaterBall_FireBallStandby3": {
    "$type": "CJKJIENLOHD",
    "combat": {
      "property": {
        "useCreatorProperty": true,
        "isInvincible": true
      },
      "combatLock": {
        "lockShape": "CircleLockEnemy",
        "denyLockOn": true,
        "lockType": "Avatar&Monster_Lv4"
      }
    },
    "combatTemplate": "",
    "abilities": [
      {
        "abilityID": "",
        "abilityName": "Invoker_Archdeacon_WaterBall_FireBallStandby",
        "abilityOverride": ""
      }
    ],
    "timer": {
      "lifeTime": 7.0
    },
    "move": {
      "$type": "MMAPEFIEGAL",
      "target": "TargetEntity",
      "attachPoint": "BallSwitchL",
      "LFOHLEKJFBI": ""
    },
    "gadget": {
      "$type": "JENBBNKGGJP",
      "collision": {
        "triggerType": "TriggerAlways"
      }
    },
    "canRemoveByClient": true
  },
  "Invoker_Archdeacon_WaterBall_FireBallStandby4": {
    "$type": "CJKJIENLOHD",
    "combat": {
      "property": {
        "useCreatorProperty": true,
        "isInvincible": true
      },
      "combatLock": {
        "lockShape": "CircleLockEnemy",
        "denyLockOn": true,
        "lockType": "Avatar&Monster_Lv4"
      }
    },
    "combatTemplate": "",
    "abilities": [
      {
        "abilityID": "",
        "abilityName": "Invoker_Archdeacon_WaterBall_FireBallStandby",
        "abilityOverride": ""
      }
    ],
    "timer": {
      "lifeTime": 7.0
    },
    "move": {
      "$type": "MMAPEFIEGAL",
      "target": "TargetEntity",
      "attachPoint": "BallSwitchR",
      "LFOHLEKJFBI": ""
    },
    "gadget": {
      "$type": "JENBBNKGGJP",
      "collision": {
        "triggerType": "TriggerAlways"
      }
    },
    "canRemoveByClient": true
  },
  "Invoker_Archdeacon_WaterBall_FireBallTrack": {
    "$type": "CJKJIENLOHD",
    "combat": {
      "property": {
        "useCreatorProperty": true,
        "isInvincible": true
      },
      "combatLock": {
        "lockShape": "CircleLockEnemy",
        "denyLockOn": true,
        "lockType": "Avatar&Monster_Lv4"
      }
    },
    "combatTemplate": "",
    "abilities": [
      {
        "abilityID": "",
        "abilityName": "Invoker_Archdeacon_WaterBall_FireBallTrack",
        "abilityOverride": ""
      },
      {
        "abilityID": "",
        "abilityName": "Invoker_Archdeacon_WaterBall_FireBallTrack_LifeOverExplode",
        "abilityOverride": ""
      }
    ],
    "timer": {
      "lifeTime": 4.0
    },
    "move": {
      "$type": "DMLAFKAOGID",
      "speed": 10.0,
      "maxSpeed": 15.0,
      "minSpeed": 12.0,
      "anglerVelocity": 300.0,
      "DPAAFHNMHHN": {
        "$type": "IFAANDLLGLP"
      },
      "guidanceMinAnglerVelocity": 300.0,
      "guidanceDuration": 0.800000011920929
    },
    "gadget": {
      "$type": "JENBBNKGGJP",
      "collision": {
        "targetType": "Enemy"
      },
      "triggerActions": [
        {
          "$type": "AILPBJHDHDG",
          "abilityName": "Invoker_Archdeacon_WaterBall_FireBallTrack"
        }
      ],
      "triggerLifeOverActions": [
        {
          "$type": "AILPBJHDHDG",
          "abilityName": "Invoker_Archdeacon_WaterBall_FireBallTrack_LifeOverExplode"
        }
      ]
    },
    "canRemoveByClient": true
  },
  "Invoker_Archdeacon_WaterBladeAir1": {
    "$type": "CJKJIENLOHD",
    "combat": {
      "property": {
        "useCreatorProperty": true,
        "isInvincible": true
      },
      "combatLock": {
        "lockShape": "CircleLockEnemy",
        "denyLockOn": true,
        "lockType": "Avatar&Monster_Lv4"
      }
    },
    "combatTemplate": "",
    "abilities": [
      {
        "abilityID": "",
        "abilityName": "Invoker_Archdeacon_WaterBladeAir1",
        "abilityOverride": ""
      }
    ],
    "timer": {
      "lifeTime": 6.0
    },
    "move": {
      "$type": "GONNMCBKAOC",
      "speed": 25.0,
      "maxSpeed": 25.0,
      "acceleration": 5.0,
      "DPAAFHNMHHN": {
        "$type": "IFAANDLLGLP"
      }
    },
    "gadget": {
      "$type": "JENBBNKGGJP",
      "collision": {
        "triggerType": "TriggerNoRepeat",
        "targetType": "Enemy"
      },
      "triggerActions": [
        {
          "$type": "AILPBJHDHDG",
          "abilityName": "Invoker_Archdeacon_WaterBladeAir1"
        }
      ]
    },
    "canRemoveByClient": true
  },
  "Invoker_Archdeacon_WaterBladeAirCross": {
    "$type": "CJKJIENLOHD",
    "combat": {
      "property": {
        "useCreatorProperty": true,
        "isInvincible": true
      },
      "combatLock": {
        "lockShape": "CircleLockEnemy",
        "denyLockOn": true,
        "lockType": "Avatar&Monster_Lv4"
      }
    },
    "combatTemplate": "",
    "abilities": [
      {
        "abilityID": "",
        "abilityName": "Invoker_Archdeacon_WaterBladeAirCross",
        "abilityOverride": ""
      }
    ],
    "timer": {
      "lifeTime": 4.0
    },
    "move": {
      "$type": "GONNMCBKAOC",
      "speed": 25.0,
      "maxSpeed": 25.0,
      "acceleration": 5.0,
      "DPAAFHNMHHN": {
        "$type": "IFAANDLLGLP"
      }
    },
    "gadget": {
      "$type": "JENBBNKGGJP",
      "collision": {
        "triggerType": "TriggerNoRepeat",
        "targetType": "Enemy"
      },
      "triggerActions": [
        {
          "$type": "AILPBJHDHDG",
          "abilityName": "Invoker_Archdeacon_WaterBladeAirCross"
        }
      ]
    },
    "canRemoveByClient": true
  },
  "Invoker_Archdeacon_IceBladeAir1": {
    "$type": "CJKJIENLOHD",
    "combat": {
      "property": {
        "useCreatorProperty": true,
        "isInvincible": true
      },
      "combatLock": {
        "lockShape": "CircleLockEnemy",
        "denyLockOn": true,
        "lockType": "Avatar&Monster_Lv4"
      }
    },
    "combatTemplate": "",
    "abilities": [
      {
        "abilityID": "",
        "abilityName": "Invoker_Archdeacon_IceBladeAir1",
        "abilityOverride": ""
      }
    ],
    "timer": {
      "lifeTime": 4.0
    },
    "move": {
      "$type": "GONNMCBKAOC",
      "speed": 25.0,
      "maxSpeed": 25.0,
      "acceleration": 5.0,
      "DPAAFHNMHHN": {
        "$type": "IFAANDLLGLP"
      }
    },
    "gadget": {
      "$type": "JENBBNKGGJP",
      "collision": {
        "triggerType": "TriggerNoRepeat",
        "targetType": "Enemy"
      },
      "triggerActions": [
        {
          "$type": "AILPBJHDHDG",
          "abilityName": "Invoker_Archdeacon_IceBladeAir1"
        }
      ]
    },
    "canRemoveByClient": true
  },
  "Invoker_Archdeacon_IceBladeAirCross": {
    "$type": "CJKJIENLOHD",
    "combat": {
      "property": {
        "useCreatorProperty": true,
        "isInvincible": true
      },
      "combatLock": {
        "lockShape": "CircleLockEnemy",
        "denyLockOn": true,
        "lockType": "Avatar&Monster_Lv4"
      }
    },
    "combatTemplate": "",
    "abilities": [
      {
        "abilityID": "",
        "abilityName": "Invoker_Archdeacon_IceBladeAirCross",
        "abilityOverride": ""
      }
    ],
    "timer": {
      "lifeTime": 4.0
    },
    "move": {
      "$type": "GONNMCBKAOC",
      "speed": 25.0,
      "maxSpeed": 25.0,
      "acceleration": 5.0,
      "DPAAFHNMHHN": {
        "$type": "IFAANDLLGLP"
      }
    },
    "gadget": {
      "$type": "JENBBNKGGJP",
      "collision": {
        "triggerType": "TriggerNoRepeat",
        "targetType": "Enemy"
      },
      "triggerActions": [
        {
          "$type": "AILPBJHDHDG",
          "abilityName": "Invoker_Archdeacon_IceBladeAirCross"
        }
      ]
    },
    "canRemoveByClient": true
  },
  "Invoker_Archdeacon_Fire_BurnAtk_Pos": {
    "$type": "CJKJIENLOHD",
    "combat": {
      "property": {
        "useCreatorProperty": true,
        "hp": 100.0,
        "attack": 10.0,
        "isInvincible": true,
        "isGhostToAllied": true,
        "isGhostToEnemy": true,
        "canTriggerBullet": false
      },
      "combatLock": {
        "lockShape": "CircleLockEnemy",
        "denyLockOn": true,
        "lockType": "Default"
      }
    },
    "combatTemplate": "",
    "abilities": [
      {
        "abilityID": "",
        "abilityName": "Invoker_Archdeacon_Fire_BurnAtk_Pos",
        "abilityOverride": ""
      }
    ],
    "timer": {
      "lifeTime": 5.0
    },
    "canRemoveByClient": true
  },
  "Invoker_Archdeacon_ElectricBall_Bullet": {
    "$type": "CJKJIENLOHD",
    "combat": {
      "property": {
        "useCreatorProperty": true,
        "isInvincible": true,
        "isGhostToAllied": true,
        "isGhostToEnemy": true,
        "canTriggerBullet": false
      },
      "beHit": {
        "hitBloodEffect": "",
        "muteAllHit": true,
        "muteAllHitEffect": true,
        "muteAllHitText": true
      },
      "combatLock": {
        "lockShape": "CircleLockEnemy",
        "denyLockOn": true,
        "lockType": "Default"
      }
    },
    "combatTemplate": "",
    "abilities": [
      {
        "abilityID": "",
        "abilityName": "Invoker_Archdeacon_ElectricBall_Bullet",
        "abilityOverride": ""
      }
    ],
    "timer": {
      "lifeTime": 3.0
    },
    "move": {
      "$type": "GONNMCBKAOC",
      "speed": 20.0,
      "maxSpeed": 35.0,
      "acceleration": 5.0,
      "DPAAFHNMHHN": {
        "$type": "IFAANDLLGLP"
      }
    },
    "gadget": {
      "$type": "JENBBNKGGJP",
      "collision": {
        "targetType": "Enemy"
      },
      "triggerActions": [
        {
          "$type": "AILPBJHDHDG",
          "abilityName": "Invoker_Archdeacon_ElectricBall_Bullet"
        }
      ]
    }
  },
  "Invoker_Archdeacon_ThunderSpear": {
    "$type": "CJKJIENLOHD",
    "combat": {
      "property": {
        "useCreatorProperty": true,
        "isInvincible": true
      },
      "combatLock": {
        "lockShape": "CircleLockEnemy",
        "denyLockOn": true,
        "lockType": "Avatar&Monster_Lv4"
      }
    },
    "combatTemplate": "",
    "abilities": [
      {
        "abilityID": "",
        "abilityName": "Invoker_Archdeacon_ThunderSpear",
        "abilityOverride": ""
      }
    ],
    "timer": {
      "lifeTime": 4.0
    },
    "move": {
      "$type": "GONNMCBKAOC",
      "speed": 35.0,
      "maxSpeed": 40.0,
      "acceleration": 5.0,
      "DPAAFHNMHHN": {
        "$type": "IFAANDLLGLP"
      }
    },
    "gadget": {
      "$type": "JENBBNKGGJP",
      "collision": {
        "targetType": "Enemy"
      },
      "triggerActions": [
        {
          "$type": "AILPBJHDHDG",
          "abilityName": "Invoker_Archdeacon_ThunderSpear"
        }
      ]
    },
    "canRemoveByClient": true
  },
  "Invoker_Archdeacon_WaterShadow": {
    "$type": "CJKJIENLOHD",
    "hasModel": true,
    "combat": {
      "property": {
        "useCreatorProperty": true,
        "isLockHP": true
      },
      "combatLock": {
        "lockShape": "CircleLockEnemy",
        "lockType": "Avatar&Monster_Lv4"
      }
    },
    "combatTemplate": "",
    "abilities": [
      {
        "abilityID": "",
        "abilityName": "Invoker_Archdeacon_WaterShadow",
        "abilityOverride": ""
      }
    ],
    "timer": {
      "lifeTime": 25.0
    },
    "gadget": {
      "$type": "KKJCBNGMKBL",
      "thisColliderName": "Collider",
      "targetColliderName": "InteeTrigger"
    },
    "partControl": {
      "parts": [
        {
          "$type": "INCPGKCDCIO",
          "angularSpeed": 120.0,
          "partRootName": "RootNode",
          "forwardByTransName": "",
          "limitHorizontal": 360.0,
          "limitVertical": 360.0
        }
      ]
    },
    "billboard": {
      "$type": "DNGNMAJBCNP",
      "attachPoint": "BillboardAttach",
      "offset": {
        "y": 0.5
      },
      "showHPBar": true,
      "forceShowDistance": 50.0,
      "size": "Big",
      "shieldBarOnly": true
    },
    "canRemoveByClient": true
  },
  "Invoker_Archdeacon_IceBladeHell": {
    "$type": "CJKJIENLOHD",
    "common": {
      "effectAttachShape": {
        "$type": "OMIODKONOMG",
        "scaleX": 0.5,
        "scaleY": 0.5
      }
    },
    "combat": {
      "property": {
        "useCreatorProperty": true,
        "isInvincible": true,
        "canTriggerBullet": false
      },
      "combatLock": {
        "lockShape": "CircleLockEnemy",
        "denyLockOn": true,
        "lockType": "Default"
      }
    },
    "combatTemplate": "",
    "abilities": [
      {
        "abilityID": "",
        "abilityName": "Invoker_Archdeacon_ConeOfCold_Bullet",
        "abilityOverride": ""
      }
    ],
    "timer": {
      "lifeTime": 4.0
    },
    "move": {
      "$type": "DMLAFKAOGID",
      "speed": 20.0,
      "maxSpeed": 35.0,
      "minSpeed": 12.0,
      "anglerVelocity": 300.0,
      "acceleration": 20.0,
      "DPAAFHNMHHN": {
        "$type": "IFAANDLLGLP"
      },
      "delay": 1.7100000381469727,
      "guidanceMinAnglerVelocity": 300.0,
      "guidanceDuration": 0.30000001192092896
    },
    "gadget": {
      "$type": "JENBBNKGGJP",
      "collision": {
        "triggerType": "TriggerNoRepeat",
        "targetType": "Enemy"
      },
      "triggerActions": [
        {
          "$type": "AILPBJHDHDG",
          "abilityName": "Invoker_Archdeacon_ConeOfCold_Bullet"
        },
        {
          "$type": "HILFMFBKIKF",
          "attackInfo": {
            "attackTag": "EnchantIceBlade",
            "attenuationTag": "",
            "attenuationGroup": "default",
            "attackProperty": {
              "actorGrassSubHurtDelta": 0.7799999713897705,
              "actorWindSubHurtDelta": 0.0,
              "elementType": "Ice",
              "IPFJJJGABPL": 25.0,
              "strikeType": "Blunt",
              "enBreak": 200.0,
              "GLKMCMDJBIK": 0.0
            },
            "hitPattern": {
              "onHitEffectName": "",
              "hitImpulseY": "",
              "hitImpulseType": "",
              "overrideHitImpulse": {
                "hitLevel": "Heavy",
                "IMIJMPGJOGG": 500.0,
                "BPCDKKBKOBM": 0.0
              }
            }
          }
        }
      ]
    }
  },
  "Invoker_Archdeacon_IceBladeHell2": {
    "$type": "CJKJIENLOHD",
    "common": {
      "effectAttachShape": {
        "$type": "OMIODKONOMG",
        "scaleX": 0.5,
        "scaleY": 0.5
      }
    },
    "combat": {
      "property": {
        "useCreatorProperty": true,
        "isInvincible": true,
        "canTriggerBullet": false
      },
      "combatLock": {
        "lockShape": "CircleLockEnemy",
        "denyLockOn": true,
        "lockType": "Default"
      }
    },
    "combatTemplate": "",
    "abilities": [
      {
        "abilityID": "",
        "abilityName": "Invoker_Archdeacon_ConeOfCold_Bullet",
        "abilityOverride": ""
      }
    ],
    "timer": {
      "lifeTime": 4.599999904632568
    },
    "move": {
      "$type": "DMLAFKAOGID",
      "speed": 20.0,
      "maxSpeed": 35.0,
      "minSpeed": 12.0,
      "anglerVelocity": 300.0,
      "acceleration": 20.0,
      "DPAAFHNMHHN": {
        "$type": "IFAANDLLGLP"
      },
      "delay": 2.0899999141693115,
      "guidanceMinAnglerVelocity": 300.0,
      "guidanceDuration": 0.30000001192092896
    },
    "gadget": {
      "$type": "JENBBNKGGJP",
      "collision": {
        "triggerType": "TriggerNoRepeat",
        "targetType": "Enemy"
      },
      "triggerActions": [
        {
          "$type": "AILPBJHDHDG",
          "abilityName": "Invoker_Archdeacon_ConeOfCold_Bullet"
        },
        {
          "$type": "HILFMFBKIKF",
          "attackInfo": {
            "attackTag": "EnchantIceBlade",
            "attenuationTag": "",
            "attenuationGroup": "default",
            "attackProperty": {
              "actorGrassSubHurtDelta": 0.7799999713897705,
              "actorWindSubHurtDelta": 0.0,
              "elementType": "Ice",
              "IPFJJJGABPL": 25.0,
              "strikeType": "Blunt",
              "enBreak": 200.0,
              "GLKMCMDJBIK": 0.0
            },
            "hitPattern": {
              "onHitEffectName": "",
              "hitImpulseY": "",
              "hitImpulseType": "",
              "overrideHitImpulse": {
                "hitLevel": "Heavy",
                "IMIJMPGJOGG": 500.0,
                "BPCDKKBKOBM": 0.0
              }
            }
          }
        }
      ]
    }
  },
  "Invoker_Archdeacon_IceBladeHell3": {
    "$type": "CJKJIENLOHD",
    "common": {
      "effectAttachShape": {
        "$type": "OMIODKONOMG",
        "scaleX": 0.5,
        "scaleY": 0.5
      }
    },
    "combat": {
      "property": {
        "useCreatorProperty": true,
        "isInvincible": true,
        "canTriggerBullet": false
      },
      "combatLock": {
        "lockShape": "CircleLockEnemy",
        "denyLockOn": true,
        "lockType": "Default"
      }
    },
    "combatTemplate": "",
    "abilities": [
      {
        "abilityID": "",
        "abilityName": "Invoker_Archdeacon_ConeOfCold_Bullet",
        "abilityOverride": ""
      }
    ],
    "timer": {
      "lifeTime": 5.400000095367432
    },
    "move": {
      "$type": "DMLAFKAOGID",
      "speed": 20.0,
      "maxSpeed": 35.0,
      "minSpeed": 12.0,
      "anglerVelocity": 300.0,
      "acceleration": 20.0,
      "DPAAFHNMHHN": {
        "$type": "IFAANDLLGLP"
      },
      "delay": 2.700000047683716,
      "guidanceMinAnglerVelocity": 300.0,
      "guidanceDuration": 0.30000001192092896
    },
    "gadget": {
      "$type": "JENBBNKGGJP",
      "collision": {
        "triggerType": "TriggerNoRepeat",
        "targetType": "Enemy"
      },
      "triggerActions": [
        {
          "$type": "AILPBJHDHDG",
          "abilityName": "Invoker_Archdeacon_ConeOfCold_Bullet"
        },
        {
          "$type": "HILFMFBKIKF",
          "attackInfo": {
            "attackTag": "EnchantIceBlade",
            "attenuationTag": "",
            "attenuationGroup": "default",
            "attackProperty": {
              "actorGrassSubHurtDelta": 0.7799999713897705,
              "actorWindSubHurtDelta": 0.0,
              "elementType": "Ice",
              "IPFJJJGABPL": 25.0,
              "strikeType": "Blunt",
              "enBreak": 200.0,
              "GLKMCMDJBIK": 0.0
            },
            "hitPattern": {
              "onHitEffectName": "",
              "hitImpulseY": "",
              "hitImpulseType": "",
              "overrideHitImpulse": {
                "hitLevel": "Heavy",
                "IMIJMPGJOGG": 500.0,
                "BPCDKKBKOBM": 0.0
              }
            }
          }
        }
      ]
    }
  },
  "Invoker_Archdeacon_IceBladeHell4": {
    "$type": "CJKJIENLOHD",
    "common": {
      "effectAttachShape": {
        "$type": "OMIODKONOMG",
        "scaleX": 0.5,
        "scaleY": 0.5
      }
    },
    "combat": {
      "property": {
        "useCreatorProperty": true,
        "isInvincible": true,
        "canTriggerBullet": false
      },
      "combatLock": {
        "lockShape": "CircleLockEnemy",
        "denyLockOn": true,
        "lockType": "Default"
      }
    },
    "combatTemplate": "",
    "abilities": [
      {
        "abilityID": "",
        "abilityName": "Invoker_Archdeacon_ConeOfCold_Bullet",
        "abilityOverride": ""
      }
    ],
    "timer": {
      "lifeTime": 6.0
    },
    "move": {
      "$type": "DMLAFKAOGID",
      "speed": 20.0,
      "maxSpeed": 35.0,
      "minSpeed": 12.0,
      "anglerVelocity": 300.0,
      "acceleration": 20.0,
      "DPAAFHNMHHN": {
        "$type": "IFAANDLLGLP"
      },
      "delay": 3.390000104904175,
      "guidanceMinAnglerVelocity": 300.0,
      "guidanceDuration": 0.30000001192092896
    },
    "gadget": {
      "$type": "JENBBNKGGJP",
      "collision": {
        "triggerType": "TriggerNoRepeat",
        "targetType": "Enemy"
      },
      "triggerActions": [
        {
          "$type": "AILPBJHDHDG",
          "abilityName": "Invoker_Archdeacon_ConeOfCold_Bullet"
        },
        {
          "$type": "HILFMFBKIKF",
          "attackInfo": {
            "attackTag": "EnchantIceBlade",
            "attenuationTag": "",
            "attenuationGroup": "default",
            "attackProperty": {
              "actorGrassSubHurtDelta": 0.7799999713897705,
              "actorWindSubHurtDelta": 0.0,
              "elementType": "Ice",
              "IPFJJJGABPL": 25.0,
              "strikeType": "Blunt",
              "enBreak": 200.0,
              "GLKMCMDJBIK": 0.0
            },
            "hitPattern": {
              "onHitEffectName": "",
              "hitImpulseY": "",
              "hitImpulseType": "",
              "overrideHitImpulse": {
                "hitLevel": "Heavy",
                "IMIJMPGJOGG": 500.0,
                "BPCDKKBKOBM": 0.0
              }
            }
          }
        }
      ]
    }
  }
}