{
  "FauneAbyssale_Aplysia_Larva_Bubble": {
    "$type": "CJKJIENLOHD",
    "common": {
      "effectAttachShape": {
        "$type": "OMIODKONOMG",
        "scaleX": 0.5,
        "scaleY": 0.5,
        "scaleZ": 0.5
      }
    },
    "combat": {
      "property": {
        "useCreatorProperty": true,
        "isInvincible": true,
        "isGhostToEnemy": true,
        "canTriggerBullet": false
      },
      "combatLock": {
        "lockShape": "CircleLockEnemy",
        "denyLockOn": true,
        "lockType": "Default"
      }
    },
    "combatTemplate": "",
    "abilities": [
      {
        "abilityID": "",
        "abilityName": "FauneAbyssale_Aplysia_Larva_BubbleBullet",
        "abilityOverride": ""
      },
      {
        "abilityID": "",
        "abilityName": "FauneAbyssale_Aplysia_Larva_BubbleBullet_LifeTimeOverVFX",
        "abilityOverride": ""
      }
    ],
    "timer": {
      "lifeTime": 5.0
    },
    "move": {
      "$type": "DMLAFKAOGID",
      "speed": 8.600000381469727,
      "minSpeed": 6.0,
      "anglerVelocity": 40.0,
      "accelerationTime": 0.0,
      "DPAAFHNMHHN": {
        "$type": "IFAANDLLGLP"
      },
      "guidanceMinAnglerVelocity": 40.0,
      "guidanceDuration": 0.8999999761581421
    },
    "gadget": {
      "$type": "JENBBNKGGJP",
      "collision": {
        "targetType": "Enemy",
        "ignoreWater": true
      },
      "triggerActions": [
        {
          "$type": "AILPBJHDHDG",
          "abilityName": "FauneAbyssale_Aplysia_Larva_BubbleBullet"
        }
      ],
      "triggerLifeOverActions": [
        {
          "$type": "AILPBJHDHDG",
          "abilityName": "FauneAbyssale_Aplysia_Larva_BubbleBullet_LifeTimeOverVFX"
        }
      ]
    }
  },
  "FauneAbyssale_Aplysia_Larva_Frolic_Bubble": {
    "$type": "CJKJIENLOHD",
    "common": {
      "effectAttachShape": {
        "$type": "OMIODKONOMG",
        "scaleX": 0.5,
        "scaleY": 0.5,
        "scaleZ": 0.5
      }
    },
    "combat": {
      "property": {
        "useCreatorProperty": true,
        "isInvincible": true,
        "isGhostToEnemy": true,
        "canTriggerBullet": false
      },
      "combatLock": {
        "lockShape": "CircleLockEnemy",
        "denyLockOn": true,
        "lockType": "Default"
      }
    },
    "combatTemplate": "",
    "abilities": [
      {
        "abilityID": "",
        "abilityName": "FauneAbyssale_Aplysia_Larva_FrolicBubble",
        "abilityOverride": ""
      }
    ],
    "timer": {
      "lifeTime": 5.0
    },
    "move": {
      "$type": "DMLAFKAOGID",
      "speed": 9.0,
      "minSpeed": 6.0,
      "anglerVelocity": 2.0,
      "accelerationTime": 0.0,
      "DPAAFHNMHHN": {
        "$type": "IFAANDLLGLP"
      },
      "guidanceMinAnglerVelocity": 2.0,
      "guidanceDuration": 0.699999988079071
    },
    "gadget": {
      "$type": "JENBBNKGGJP",
      "collision": {
        "targetType": "AllExceptSelf",
        "ignoreWater": true,
        "bornWithTriggerEnabled": false
      },
      "colliderCheckOnInit": false,
      "triggerActions": [
        {
          "$type": "AILPBJHDHDG",
          "abilityName": "FauneAbyssale_Aplysia_Larva_FrolicBubble"
        }
      ],
      "triggerLifeOverActions": [
        {
          "$type": "AILPBJHDHDG",
          "abilityName": "FauneAbyssale_Aplysia_Larva_FrolicBubble"
        }
      ],
      "enableCollisionDelay": 0.22200000286102295,
      "resetLastPosOnDelayEnd": true
    }
  },
  "FauneAbyssale_Aplysia_Mature_IceBullet": {
    "$type": "CJKJIENLOHD",
    "common": {
      "effectAttachShape": {
        "$type": "OMIODKONOMG",
        "scaleX": 0.5,
        "scaleY": 0.5,
        "scaleZ": 0.5
      }
    },
    "combat": {
      "property": {
        "useCreatorProperty": true,
        "isInvincible": true,
        "isGhostToEnemy": true,
        "canTriggerBullet": false
      },
      "combatLock": {
        "lockShape": "CircleLockEnemy",
        "denyLockOn": true,
        "lockType": "Default"
      }
    },
    "combatTemplate": "",
    "abilities": [
      {
        "abilityID": "",
        "abilityName": "FauneAbyssale_Aplysia_Mature_IceBullet",
        "abilityOverride": ""
      },
      {
        "abilityID": "",
        "abilityName": "FauneAbyssale_Aplysia_Mature_IceBullet_LifeTimeOverVFX",
        "abilityOverride": ""
      }
    ],
    "timer": {
      "lifeTime": 3.0
    },
    "move": {
      "$type": "DMLAFKAOGID",
      "speed": 11.0,
      "minSpeed": 3.0,
      "anglerVelocity": 81.0,
      "acceleration": 2.0,
      "accelerationTime": 0.5,
      "DPAAFHNMHHN": {
        "$type": "IFAANDLLGLP"
      },
      "guidanceMinAnglerVelocity": 81.0,
      "guidanceDuration": 1.0
    },
    "gadget": {
      "$type": "JENBBNKGGJP",
      "collision": {
        "targetType": "Enemy"
      },
      "triggerActions": [
        {
          "$type": "AILPBJHDHDG",
          "abilityName": "FauneAbyssale_Aplysia_Mature_IceBullet"
        }
      ],
      "triggerLifeOverActions": [
        {
          "$type": "AILPBJHDHDG",
          "abilityName": "FauneAbyssale_Aplysia_Mature_IceBullet_LifeTimeOverVFX"
        }
      ]
    }
  },
  "FauneAbyssale_Aplysia_Mature_WaterBullet": {
    "$type": "CJKJIENLOHD",
    "common": {
      "effectAttachShape": {
        "$type": "OMIODKONOMG",
        "scaleX": 0.5,
        "scaleY": 0.5,
        "scaleZ": 0.5
      }
    },
    "combat": {
      "property": {
        "useCreatorProperty": true,
        "isInvincible": true,
        "isGhostToEnemy": true,
        "canTriggerBullet": false
      },
      "combatLock": {
        "lockShape": "CircleLockEnemy",
        "denyLockOn": true,
        "lockType": "Default"
      }
    },
    "combatTemplate": "",
    "abilities": [
      {
        "abilityID": "",
        "abilityName": "FauneAbyssale_Aplysia_Mature_WaterBullet",
        "abilityOverride": ""
      },
      {
        "abilityID": "",
        "abilityName": "FauneAbyssale_Aplysia_Mature_WaterBullet_LifeTimeOverVFX",
        "abilityOverride": ""
      }
    ],
    "timer": {
      "lifeTime": 5.0
    },
    "move": {
      "$type": "DMLAFKAOGID",
      "speed": 8.0,
      "minSpeed": 3.0,
      "anglerVelocity": 80.0,
      "acceleration": 2.0,
      "accelerationTime": 0.5,
      "DPAAFHNMHHN": {
        "$type": "IFAANDLLGLP"
      },
      "guidanceMinAnglerVelocity": 80.0,
      "guidanceDuration": 0.30000001192092896
    },
    "gadget": {
      "$type": "JENBBNKGGJP",
      "collision": {
        "targetType": "Enemy",
        "ignoreWater": true
      },
      "triggerActions": [
        {
          "$type": "AILPBJHDHDG",
          "abilityName": "FauneAbyssale_Aplysia_Mature_WaterBullet"
        }
      ],
      "triggerLifeOverActions": [
        {
          "$type": "AILPBJHDHDG",
          "abilityName": "FauneAbyssale_Aplysia_Mature_WaterBullet_LifeTimeOverVFX"
        }
      ]
    }
  },
  "FauneAbyssale_Aplysia_Mature_IcedJellyBlast_Dummy": {
    "$type": "CJKJIENLOHD",
    "combat": {
      "property": {
        "useCreatorProperty": true,
        "isInvincible": true,
        "isGhostToEnemy": true,
        "canTriggerBullet": false
      },
      "combatLock": {
        "lockShape": "CircleLockEnemy",
        "denyLockOn": true,
        "lockType": "Default"
      }
    },
    "combatTemplate": "",
    "abilities": [
      {
        "abilityID": "",
        "abilityName": "FauneAbyssale_Aplysia_Mature_IcedJellyBlast_DummyGadget",
        "abilityOverride": ""
      }
    ],
    "timer": {
      "lifeTime": 1.0
    }
  },
  "FauneAbyssale_Aplysia_Mature_Jelly": {
    "$type": "CJKJIENLOHD",
    "combat": {
      "property": {
        "useCreatorProperty": true,
        "isLockHP": true
      },
      "beHit": {
        "hitBloodEffect": "",
        "muteAllHitEffect": true,
        "muteAllHitText": true
      },
      "combatLock": {
        "lockShape": "CircleLockEnemy",
        "lockType": "Boss_Lv5"
      }
    },
    "combatTemplate": "",
    "timer": {
      "lifeInfinite": true
    },
    "move": {
      "$type": "MMAPEFIEGAL",
      "target": "TargetEntity",
      "attachPoint": "JellyGadget",
      "followRotation": true,
      "LFOHLEKJFBI": ""
    },
    "billboard": {
      "$type": "DNGNMAJBCNP",
      "attachPoint": "BillboardAttach",
      "offsetType": "Character",
      "radiusOffset": 0.5,
      "enableSelfAdapt": true,
      "showDistance": 32.0,
      "showHPBar": true,
      "forceShowDistance": 24.0,
      "shieldBarOnly": true
    }
  }
}