{
  "BossChallengeV2_WaterAmber_Mist": {
    "$type": "CJKJIENLOHD",
    "combat": {
      "property": {
        "isLockHP": true,
        "isGhostToAllied": true,
        "isGhostToEnemy": true,
        "canTriggerBullet": false
      }
    },
    "combatTemplate": "",
    "abilities": [
      {
        "abilityID": "BossChallengeV2_WaterAmber_Mist",
        "abilityName": "BossChallengeV2_WaterAmber_Mist",
        "abilityOverride": ""
      }
    ],
    "field": {
      "shape": "CircleR3",
      "fromShape": "",
      "triggerInfinite": true,
      "checkInterval": 0.5,
      "lifeTime": 4.0,
      "colliderName": "",
      "fromColliderName": ""
    }
  },
  "BossChallengeV2_WaterAmber_Mist_Big": {
    "$type": "CJKJIENLOHD",
    "combat": {
      "property": {
        "isLockHP": true,
        "isGhostToAllied": true,
        "isGhostToEnemy": true,
        "canTriggerBullet": false
      }
    },
    "combatTemplate": "",
    "abilities": [
      {
        "abilityID": "BossChallengeV2_WaterAmber_Mist_Big",
        "abilityName": "BossChallengeV2_WaterAmber_Mist_Big",
        "abilityOverride": ""
      }
    ],
    "field": {
      "shape": "CircleR9",
      "fromShape": "",
      "triggerInfinite": true,
      "checkInterval": 0.5,
      "lifeTime": 4.0,
      "colliderName": "",
      "fromColliderName": ""
    }
  },
  "BossChallengeV2__Rune_Fire": {
    "$type": "CJKJIENLOHD",
    "hasModel": true,
    "combat": {
      "property": {
        "useAbilityProperty": true,
        "levelOption": "DungeonLevel",
        "isInvincible": true,
        "isGhostToAllied": true,
        "isGhostToEnemy": true,
        "canTriggerBullet": false,
        "ignorePurgeRate": true
      },
      "beHit": {
        "hitBloodEffect": "",
        "hitAutoRedirect": false,
        "muteAllHitText": true
      },
      "combatLock": {
        "lockShape": "CircleLockEnemy",
        "denyLockOn": true,
        "lockType": "Gadget_Lv1"
      }
    },
    "combatTemplate": "",
    "abilities": [
      {
        "abilityID": "BossChallengeV2_Rune_Fire",
        "abilityName": "BossChallengeV2_Rune_Fire",
        "abilityOverride": ""
      }
    ],
    "field": {
      "concernType": "AllAvatars",
      "shape": "CircleR4",
      "fromShape": "",
      "triggerInfinite": true,
      "lifeInfinite": true,
      "checkInterval": 0.5,
      "lifeTime": 9.0,
      "overwriteCampType": true,
      "campType": "All",
      "colliderName": "",
      "fromColliderName": ""
    }
  }
}