{
  "Boar_RushAtk": {
    "$type": "CJKJIENLOHD",
    "combat": {
      "property": {
        "useCreatorProperty": true,
        "isLockHP": true,
        "isGhostToAllied": true,
        "isGhostToEnemy": true,
        "canTriggerBullet": false
      },
      "beHit": {
        "hitBloodEffect": "",
        "muteAllHit": true,
        "muteAllHitEffect": true,
        "muteAllHitText": true
      }
    },
    "combatTemplate": "",
    "abilities": [
      {
        "abilityID": "",
        "abilityName": "Boar_RushAtk_Attack",
        "abilityOverride": ""
      }
    ],
    "timer": {
      "lifeTime": 5.0
    },
    "move": {
      "$type": "HBMEJJEHPCI",
      "speed": 13.5,
      "clockwise": true,
      "radius": 0.009999999776482582,
      "traceOnYAxis": true,
      "destroyWhenTargetDie": true
    },
    "gadget": {
      "$type": "JENBBNKGGJP",
      "collision": {
        "targetType": "Enemy",
        "ignoreScene": true
      },
      "triggerActions": [
        {
          "$type": "AILPBJHDHDG",
          "abilityName": "Boar_RushAtk_Attack"
        }
      ]
    }
  },
  "Boar_BigSnowBall": {
    "$type": "CJKJIENLOHD",
    "common": {
      "effectAttachShape": {
        "$type": "OMIODKONOMG"
      },
      "affectedByWorld": true,
      "checkInSurface": true
    },
    "combat": {
      "property": {
        "useCreatorProperty": true,
        "hp": 999999.0,
        "attack": 15.0,
        "defense": 999999.0,
        "weight": 60.0,
        "isLockHP": true,
        "canTriggerBullet": false
      },
      "combatLock": {
        "lockShape": "CircleLockEnemy",
        "denyLockOn": true,
        "lockType": "Default"
      }
    },
    "combatTemplate": "",
    "abilities": [
      {
        "abilityID": "Boar_SnowBallExplode",
        "abilityName": "Animal_Boar_03_BigSnowBallExplode",
        "abilityOverride": ""
      }
    ],
    "timer": {
      "lifeTime": 5.0
    },
    "move": {
      "$type": "BFDBCCCADKH",
      "speed": 40.0,
      "DPAAFHNMHHN": {
        "$type": "IFAANDLLGLP"
      },
      "syncToRemote": true,
      "angleOffHor": 60.0,
      "gravityOfAcceleration": 40.0,
      "correction": {
        "$type": "FEHDIANJKBF",
        "deviation": 1.0,
        "fixAngleOfVer": 5.0,
        "minSpeed": 4.0,
        "maxSpeed": 40.0
      },
      "GEBCKKDCGDP": "",
      "NKPHOKHJKGC": ""
    },
    "gadget": {
      "$type": "JENBBNKGGJP",
      "collision": {
        "targetType": "Enemy",
        "bornWithTriggerEnabled": false
      },
      "triggerActions": [
        {
          "$type": "AILPBJHDHDG",
          "abilityName": "Animal_Boar_03_BigSnowBallExplode"
        }
      ]
    }
  },
  "Boar_SmallSnowBall": {
    "$type": "CJKJIENLOHD",
    "common": {
      "effectAttachShape": {
        "$type": "OMIODKONOMG"
      },
      "affectedByWorld": true,
      "checkInSurface": true
    },
    "combat": {
      "property": {
        "useCreatorProperty": true,
        "hp": 999999.0,
        "attack": 15.0,
        "defense": 999999.0,
        "weight": 60.0,
        "isLockHP": true,
        "canTriggerBullet": false
      },
      "combatLock": {
        "lockShape": "CircleLockEnemy",
        "denyLockOn": true,
        "lockType": "Default"
      }
    },
    "combatTemplate": "",
    "abilities": [
      {
        "abilityID": "SnowBallExplode",
        "abilityName": "Animal_Boar_03_SmallSnowBallExplode",
        "abilityOverride": ""
      }
    ],
    "timer": {
      "lifeTime": 10.0
    },
    "move": {
      "$type": "BFDBCCCADKH",
      "speed": 30.0,
      "DPAAFHNMHHN": {
        "$type": "IFAANDLLGLP"
      },
      "syncToRemote": true,
      "angleOffHor": 45.0,
      "gravityOfAcceleration": 40.0,
      "correction": {
        "$type": "FEHDIANJKBF",
        "deviation": 5.0,
        "fixAngleOfVer": 15.0,
        "minSpeed": 6.0,
        "maxSpeed": 24.0
      },
      "GEBCKKDCGDP": "",
      "NKPHOKHJKGC": ""
    },
    "gadget": {
      "$type": "JENBBNKGGJP",
      "collision": {
        "targetType": "Enemy",
        "bornWithTriggerEnabled": false
      },
      "triggerActions": [
        {
          "$type": "AILPBJHDHDG",
          "abilityName": "Animal_Boar_03_SmallSnowBallExplode"
        }
      ]
    }
  },
  "Boar_03_RushAtk": {
    "$type": "CJKJIENLOHD",
    "combat": {
      "property": {
        "useCreatorProperty": true,
        "isInvincible": true,
        "canTriggerBullet": false
      },
      "beHit": {
        "hitBloodEffect": "",
        "muteAllHit": true,
        "muteAllHitEffect": true,
        "muteAllHitText": true
      },
      "combatLock": {
        "lockShape": "CircleLockEnemy",
        "denyLockOn": true,
        "lockType": "Default"
      }
    },
    "combatTemplate": "",
    "abilities": [
      {
        "abilityID": "RushAtk",
        "abilityName": "Animal_Boar_03_RushAtkBulletDamage",
        "abilityOverride": ""
      }
    ],
    "timer": {
      "lifeTime": 1.0
    },
    "move": {
      "$type": "MMAPEFIEGAL",
      "target": "TargetEntity",
      "attachPoint": "",
      "followRotation": true,
      "LFOHLEKJFBI": ""
    },
    "gadget": {
      "$type": "JENBBNKGGJP",
      "collision": {
        "ccd": {
          "damageRatio": "Always"
        },
        "triggerType": "TriggerNoRepeat",
        "targetType": "Enemy",
        "ignoreScene": true
      },
      "triggerActions": [
        {
          "$type": "AILPBJHDHDG",
          "abilityName": "Animal_Boar_03_RushAtkBulletDamage"
        }
      ]
    }
  },
  "Boar_03_RushAtk_FunFightV3": {
    "$type": "CJKJIENLOHD",
    "combat": {
      "property": {
        "useCreatorProperty": true,
        "isInvincible": true,
        "canTriggerBullet": false
      },
      "beHit": {
        "hitBloodEffect": "",
        "muteAllHit": true,
        "muteAllHitEffect": true,
        "muteAllHitText": true
      },
      "combatLock": {
        "lockShape": "CircleLockEnemy",
        "denyLockOn": true,
        "lockType": "Default"
      }
    },
    "combatTemplate": "",
    "abilities": [
      {
        "abilityID": "",
        "abilityName": "Animal_Boar_03_RushAtkBulletDamage_FunFightV3",
        "abilityOverride": ""
      }
    ],
    "timer": {
      "lifeTime": 1.0
    },
    "move": {
      "$type": "MMAPEFIEGAL",
      "target": "TargetEntity",
      "attachPoint": "",
      "followRotation": true,
      "LFOHLEKJFBI": ""
    },
    "gadget": {
      "$type": "JENBBNKGGJP",
      "collision": {
        "ccd": {
          "damageRatio": "Always"
        },
        "triggerType": "TriggerNoRepeat",
        "targetType": "Enemy",
        "ignoreScene": true
      },
      "triggerActions": [
        {
          "$type": "AILPBJHDHDG",
          "abilityName": "Animal_Boar_03_RushAtkBulletDamage_FunFightV3"
        }
      ]
    }
  },
  "Boar_SnowDrop": {
    "$type": "CJKJIENLOHD",
    "combat": {
      "property": {
        "useCreatorProperty": true,
        "isLockHP": true,
        "isGhostToAllied": true,
        "isGhostToEnemy": true,
        "canTriggerBullet": false
      },
      "beHit": {
        "hitBloodEffect": "",
        "muteAllHit": true,
        "muteAllHitEffect": true,
        "muteAllHitText": true
      }
    },
    "combatTemplate": "",
    "abilities": [
      {
        "abilityID": "SnowDropAttack",
        "abilityName": "Animal_Boar_03_SnowDropAttack",
        "abilityOverride": ""
      }
    ],
    "timer": {
      "lifeTime": 5.0
    }
  },
  "Boar_SnowDrop_FunFightV3": {
    "$type": "CJKJIENLOHD",
    "combat": {
      "property": {
        "useCreatorProperty": true,
        "isLockHP": true,
        "isGhostToAllied": true,
        "isGhostToEnemy": true,
        "canTriggerBullet": false
      },
      "beHit": {
        "hitBloodEffect": "",
        "muteAllHit": true,
        "muteAllHitEffect": true,
        "muteAllHitText": true
      },
      "combatLock": {
        "lockShape": "CircleLockEnemy",
        "denyLockOn": true,
        "lockType": "Default"
      }
    },
    "combatTemplate": "",
    "abilities": [
      {
        "abilityID": "SnowDropAttack",
        "abilityName": "Animal_Boar_03_SnowDropAttack",
        "abilityOverride": ""
      }
    ],
    "timer": {
      "lifeTime": 5.0
    }
  },
  "Animal_Boar_02_DieShieldDrop": {
    "$type": "CJKJIENLOHD",
    "hasModel": true,
    "combat": {
      "property": {
        "hp": 99999.0,
        "isInvincible": true,
        "isLockHP": true
      },
      "combatLock": {
        "lockShape": "CircleLockEnemy",
        "denyLockOn": true,
        "lockType": "Default"
      }
    },
    "combatTemplate": "",
    "abilities": [
      {
        "abilityID": "",
        "abilityName": "Animal_Boar_02_DieShieldDrop",
        "abilityOverride": ""
      }
    ],
    "field": {
      "shape": "CircleR2",
      "fromShape": "",
      "triggerInfinite": true,
      "startCheckTime": 0.10000000149011612,
      "checkInterval": 0.10000000149011612,
      "lifeTime": 999999.0,
      "overwriteCampType": true,
      "campType": "All",
      "useCollider": false,
      "colliderName": "",
      "fromColliderName": ""
    }
  },
  "Inu_Shihandai_GrassWall": {
    "$type": "CJKJIENLOHD",
    "common": {
      "effectAttachShape": {
        "$type": "OMIODKONOMG"
      },
      "mass": 5.0,
      "affectedByWorld": true,
      "checkInSurface": true
    },
    "combat": {
      "property": {
        "hp": 99999.0,
        "defense": 999999.0,
        "isLockHP": true,
        "isGhostToAllied": true,
        "isGhostToEnemy": true,
        "canTriggerBullet": false
      },
      "combatLock": {
        "lockShape": "CircleLockEnemy",
        "denyLockOn": true,
        "lockType": "Default"
      }
    },
    "combatTemplate": "",
    "abilities": [
      {
        "abilityID": "",
        "abilityName": "Animal_Inu_Shihandai_GrassWall",
        "abilityOverride": ""
      }
    ],
    "timer": {
      "lifeTime": 43.0
    }
  },
  "Inu_Shihandai_Invisible_Wave": {
    "$type": "CJKJIENLOHD",
    "common": {
      "effectAttachShape": {
        "$type": "OMIODKONOMG"
      },
      "mass": 5.0,
      "affectedByWorld": true,
      "checkInSurface": true
    },
    "combat": {
      "property": {
        "useCreatorProperty": true,
        "hp": 9999.0,
        "defense": 999999.0,
        "isLockHP": true,
        "isGhostToAllied": true,
        "isGhostToEnemy": true,
        "canTriggerBullet": false
      },
      "combatLock": {
        "lockShape": "CircleLockEnemy",
        "denyLockOn": true,
        "lockType": "Default"
      }
    },
    "combatTemplate": "",
    "abilities": [
      {
        "abilityID": "",
        "abilityName": "Animal_Inu_Shihandai_Invisible_Wave",
        "abilityOverride": ""
      }
    ],
    "timer": {
      "lifeTime": 8.0
    }
  },
  "Inu_Shihandai_Blink_Hat": {
    "$type": "CJKJIENLOHD",
    "common": {
      "effectAttachShape": {
        "$type": "OMIODKONOMG"
      },
      "mass": 5.0,
      "affectedByWorld": true,
      "checkInSurface": true
    },
    "combat": {
      "property": {
        "useCreatorProperty": true,
        "hp": 9999.0,
        "defense": 999999.0,
        "isLockHP": true,
        "isGhostToEnemy": true,
        "canTriggerBullet": false
      },
      "combatLock": {
        "lockShape": "CircleLockEnemy",
        "denyLockOn": true,
        "lockType": "Default"
      }
    },
    "combatTemplate": "",
    "abilities": [
      {
        "abilityID": "",
        "abilityName": "Animal_Inu_Shihandai_Blink_HatBullet",
        "abilityOverride": ""
      }
    ],
    "timer": {
      "lifeTime": 5.0
    },
    "move": {
      "$type": "GONNMCBKAOC",
      "speed": 15.0
    },
    "gadget": {
      "$type": "JENBBNKGGJP",
      "collision": {
        "triggerType": "TriggerNoRepeat",
        "targetType": "All"
      },
      "triggerActions": [
        {
          "$type": "AILPBJHDHDG",
          "abilityName": "Animal_Inu_Shihandai_Blink_HatBullet"
        }
      ],
      "killByOther": true
    }
  },
  "Inu_Shihandai_Blink_HatTargetPos": {
    "$type": "CJKJIENLOHD",
    "common": {
      "effectAttachShape": {
        "$type": "OMIODKONOMG"
      },
      "affectedByWorld": true,
      "checkInSurface": true
    },
    "combat": {
      "property": {
        "useCreatorProperty": true,
        "hp": 9999.0,
        "defense": 999999.0,
        "isLockHP": true,
        "isGhostToEnemy": true
      },
      "combatLock": {
        "lockShape": "CircleLockEnemy",
        "denyLockOn": true,
        "lockType": "Default"
      }
    },
    "combatTemplate": "",
    "abilities": [
      {
        "abilityID": "",
        "abilityName": "Animal_Inu_Shihandai_Blink_TargetPos",
        "abilityOverride": ""
      }
    ],
    "timer": {
      "lifeTime": 5.0
    }
  },
  "Inu_Shihandai_CounterAttackBlade": {
    "$type": "CJKJIENLOHD",
    "common": {
      "effectAttachShape": {
        "$type": "OMIODKONOMG"
      },
      "mass": 5.0,
      "affectedByWorld": true,
      "checkInSurface": true
    },
    "combat": {
      "property": {
        "useCreatorProperty": true,
        "hp": 9999.0,
        "defense": 999999.0,
        "isLockHP": true,
        "isGhostToEnemy": true,
        "canTriggerBullet": false
      },
      "combatLock": {
        "lockShape": "CircleLockEnemy",
        "denyLockOn": true,
        "lockType": "Default"
      }
    },
    "combatTemplate": "",
    "abilities": [
      {
        "abilityID": "",
        "abilityName": "Animal_Inu_Shihandai_Blink_CounterAttackBlade",
        "abilityOverride": ""
      }
    ],
    "timer": {
      "lifeTime": 3.0
    },
    "move": {
      "$type": "GONNMCBKAOC",
      "speed": 15.0
    },
    "gadget": {
      "$type": "JENBBNKGGJP",
      "collision": {
        "triggerType": "TriggerNoRepeat",
        "targetType": "Enemy"
      },
      "triggerActions": [
        {
          "$type": "AILPBJHDHDG",
          "abilityName": "Animal_Inu_Shihandai_Blink_CounterAttackBlade"
        }
      ],
      "killByOther": true
    }
  },
  "Inu_Shihandai_CounterAttackBladeBig": {
    "$type": "CJKJIENLOHD",
    "common": {
      "effectAttachShape": {
        "$type": "OMIODKONOMG"
      },
      "mass": 5.0,
      "affectedByWorld": true,
      "checkInSurface": true
    },
    "combat": {
      "property": {
        "useCreatorProperty": true,
        "hp": 9999.0,
        "defense": 999999.0,
        "isLockHP": true,
        "isGhostToEnemy": true,
        "canTriggerBullet": false
      },
      "combatLock": {
        "lockShape": "CircleLockEnemy",
        "denyLockOn": true,
        "lockType": "Default"
      }
    },
    "combatTemplate": "",
    "abilities": [
      {
        "abilityID": "",
        "abilityName": "Animal_Inu_Shihandai_Blink_CounterAttackBladeBig",
        "abilityOverride": ""
      }
    ],
    "timer": {
      "lifeTime": 3.5
    },
    "move": {
      "$type": "GONNMCBKAOC",
      "speed": 15.0
    },
    "gadget": {
      "$type": "JENBBNKGGJP",
      "collision": {
        "triggerType": "TriggerNoRepeat",
        "targetType": "All"
      },
      "triggerActions": [
        {
          "$type": "AILPBJHDHDG",
          "abilityName": "Animal_Inu_Shihandai_Blink_CounterAttackBladeBig"
        }
      ],
      "killByOther": true
    }
  },
  "Inu_Shihandai_TrickDogExplode": {
    "$type": "CJKJIENLOHD",
    "common": {
      "effectAttachShape": {
        "$type": "OMIODKONOMG"
      },
      "affectedByWorld": true,
      "checkInSurface": true
    },
    "combat": {
      "property": {
        "useCreatorProperty": true,
        "hp": 9999.0,
        "defense": 999999.0,
        "isLockHP": true,
        "isGhostToAllied": true,
        "isGhostToEnemy": true,
        "canTriggerBullet": false
      },
      "combatLock": {
        "lockShape": "CircleLockEnemy",
        "denyLockOn": true,
        "lockType": "Default"
      }
    },
    "combatTemplate": "",
    "abilities": [
      {
        "abilityID": "",
        "abilityName": "Animal_Inu_Shihandai_TrickDogExplode",
        "abilityOverride": ""
      }
    ],
    "timer": {
      "lifeTime": 5.0
    }
  },
  "Inu_Shihandai_BossBuff_Attack": {
    "$type": "CJKJIENLOHD",
    "common": {
      "effectAttachShape": {
        "$type": "OMIODKONOMG"
      },
      "affectedByWorld": true,
      "checkInSurface": true
    },
    "combat": {
      "property": {
        "useCreatorProperty": true,
        "hp": 9999.0,
        "defense": 999999.0,
        "isLockHP": true,
        "isGhostToAllied": true,
        "canTriggerBullet": false
      },
      "combatLock": {
        "lockShape": "CircleLockEnemy",
        "lockType": "Avatar&Monster_Lv4"
      }
    },
    "combatTemplate": "",
    "abilities": [
      {
        "abilityID": "",
        "abilityName": "Animal_Inu_Shihandai_BossBuff_Attack",
        "abilityOverride": ""
      }
    ],
    "field": {
      "concernType": "AllAvatars",
      "shape": "CircleR0_5",
      "fromShape": "",
      "triggerInfinite": true,
      "checkInterval": 0.10000000149011612,
      "lifeTime": 40.0,
      "colliderName": "",
      "fromColliderName": ""
    },
    "timer": {
      "lifeTime": 40.0
    },
    "billboard": {
      "$type": "DNGNMAJBCNP",
      "attachPoint": "BillboardAttach",
      "offset": {
        "y": 0.699999988079071
      },
      "radiusOffset": 0.5,
      "showDistance": 48.0,
      "showHPBar": true,
      "shieldBarOnly": true
    }
  },
  "Inu_Shihandai_BossBuff_Defense": {
    "$type": "CJKJIENLOHD",
    "common": {
      "effectAttachShape": {
        "$type": "OMIODKONOMG"
      },
      "affectedByWorld": true,
      "checkInSurface": true
    },
    "combat": {
      "property": {
        "useCreatorProperty": true,
        "hp": 9999.0,
        "defense": 999999.0,
        "isLockHP": true,
        "isGhostToAllied": true,
        "isGhostToEnemy": true,
        "canTriggerBullet": false
      },
      "combatLock": {
        "lockShape": "CircleLockEnemy",
        "denyLockOn": true,
        "lockType": "Default"
      }
    },
    "combatTemplate": "",
    "abilities": [
      {
        "abilityID": "",
        "abilityName": "Animal_Inu_Shihandai_BossBuff_Defense",
        "abilityOverride": ""
      }
    ],
    "field": {
      "concernType": "AllAvatars",
      "shape": "CircleR0_5",
      "fromShape": "",
      "triggerInfinite": true,
      "checkInterval": 0.10000000149011612,
      "lifeTime": 40.0,
      "colliderName": "",
      "fromColliderName": ""
    },
    "timer": {
      "lifeTime": 40.0
    }
  },
  "Inu_Shihandai_BossBuff_MoveSpeed": {
    "$type": "CJKJIENLOHD",
    "common": {
      "effectAttachShape": {
        "$type": "OMIODKONOMG"
      },
      "affectedByWorld": true,
      "checkInSurface": true
    },
    "combat": {
      "property": {
        "useCreatorProperty": true,
        "hp": 9999.0,
        "defense": 999999.0,
        "isLockHP": true,
        "isGhostToAllied": true,
        "isGhostToEnemy": true,
        "canTriggerBullet": false
      },
      "combatLock": {
        "lockShape": "CircleLockEnemy",
        "denyLockOn": true,
        "lockType": "Default"
      }
    },
    "combatTemplate": "",
    "abilities": [
      {
        "abilityID": "",
        "abilityName": "Animal_Inu_Shihandai_BossBuff_MoveSpeed",
        "abilityOverride": ""
      }
    ],
    "field": {
      "concernType": "AllAvatars",
      "shape": "CircleR0_5",
      "fromShape": "",
      "triggerInfinite": true,
      "checkInterval": 0.10000000149011612,
      "lifeTime": 40.0,
      "colliderName": "",
      "fromColliderName": ""
    },
    "timer": {
      "lifeTime": 40.0
    }
  },
  "Inu_Shihandai_RangeBlade": {
    "$type": "CJKJIENLOHD",
    "common": {
      "effectAttachShape": {
        "$type": "OMIODKONOMG"
      },
      "mass": 5.0,
      "affectedByWorld": true,
      "checkInSurface": true
    },
    "combat": {
      "property": {
        "useCreatorProperty": true,
        "hp": 9999.0,
        "defense": 999999.0,
        "isLockHP": true,
        "canTriggerBullet": false
      },
      "combatLock": {
        "lockShape": "CircleLockEnemy",
        "denyLockOn": true,
        "lockType": "Default"
      }
    },
    "combatTemplate": "",
    "abilities": [
      {
        "abilityID": "",
        "abilityName": "Animal_Inu_Shihandai_Blink_RangeBlade",
        "abilityOverride": ""
      }
    ],
    "timer": {
      "lifeTime": 3.5
    },
    "move": {
      "$type": "GONNMCBKAOC",
      "speed": 15.0
    },
    "gadget": {
      "$type": "JENBBNKGGJP",
      "collision": {
        "triggerType": "TriggerNoRepeat",
        "targetType": "Enemy",
        "ignoreScene": true
      },
      "triggerActions": [
        {
          "$type": "AILPBJHDHDG",
          "abilityName": "Animal_Inu_Shihandai_Blink_RangeBlade"
        }
      ],
      "killByOther": true
    }
  },
  "Inu_Shihandai_RangeBlade_FunFightV3": {
    "$type": "CJKJIENLOHD",
    "common": {
      "effectAttachShape": {
        "$type": "OMIODKONOMG"
      },
      "mass": 5.0,
      "affectedByWorld": true,
      "checkInSurface": true
    },
    "combat": {
      "property": {
        "useCreatorProperty": true,
        "hp": 9999.0,
        "defense": 999999.0,
        "isLockHP": true,
        "canTriggerBullet": false
      },
      "combatLock": {
        "lockShape": "CircleLockEnemy",
        "denyLockOn": true,
        "lockType": "Default"
      }
    },
    "combatTemplate": "",
    "abilities": [
      {
        "abilityID": "",
        "abilityName": "Animal_Inu_Shihandai_Blink_RangeBlade_FunFightV3",
        "abilityOverride": ""
      }
    ],
    "timer": {
      "lifeTime": 3.5
    },
    "move": {
      "$type": "GONNMCBKAOC",
      "speed": 15.0
    },
    "gadget": {
      "$type": "JENBBNKGGJP",
      "collision": {
        "triggerType": "TriggerNoRepeat",
        "targetType": "Enemy",
        "ignoreScene": true
      },
      "triggerActions": [
        {
          "$type": "AILPBJHDHDG",
          "abilityName": "Animal_Inu_Shihandai_Blink_RangeBlade_FunFightV3"
        }
      ],
      "killByOther": true
    }
  },
  "Inu_Shihandai_RushBullet": {
    "$type": "CJKJIENLOHD",
    "common": {
      "effectAttachShape": {
        "$type": "OMIODKONOMG"
      },
      "mass": 5.0,
      "affectedByWorld": true,
      "checkInSurface": true
    },
    "combat": {
      "property": {
        "useCreatorProperty": true,
        "hp": 9999.0,
        "defense": 999999.0,
        "isLockHP": true,
        "canTriggerBullet": false
      },
      "combatLock": {
        "lockShape": "CircleLockEnemy",
        "denyLockOn": true,
        "lockType": "Default"
      }
    },
    "combatTemplate": "",
    "abilities": [
      {
        "abilityID": "",
        "abilityName": "Animal_Inu_Shihandai_RushBullet",
        "abilityOverride": ""
      }
    ],
    "timer": {
      "lifeTime": 3.0
    },
    "move": {
      "$type": "MMAPEFIEGAL",
      "target": "TargetEntity",
      "attachPoint": "",
      "followRotation": true,
      "LFOHLEKJFBI": ""
    },
    "gadget": {
      "$type": "JENBBNKGGJP",
      "collision": {
        "triggerType": "TriggerNoRepeat",
        "targetType": "All",
        "ignoreScene": true
      },
      "triggerActions": [
        {
          "$type": "AILPBJHDHDG",
          "abilityName": "Animal_Inu_Shihandai_RushBullet"
        }
      ],
      "killByOther": true
    }
  },
  "Inu_Shihandai_AirWall": {
    "$type": "CJKJIENLOHD",
    "model": {
      "bornEffect": "",
      "attachEffect": "Eff_Animal_Inu_Shihandai_AirWall",
      "BKPFGNPLDNJ": ""
    },
    "hasModel": true,
    "combatTemplate": ""
  },
  "Inu_Shihandai_StoneDog_FunFightV3": {
    "$type": "CJKJIENLOHD",
    "common": {
      "effectAttachShape": {
        "$type": "OMIODKONOMG"
      },
      "affectedByWorld": true,
      "checkInSurface": true
    },
    "combat": {
      "property": {
        "useCreatorProperty": true,
        "hp": 9999.0,
        "defense": 999999.0,
        "isLockHP": true
      },
      "combatLock": {
        "lockShape": "CircleLockEnemy",
        "denyLockOn": true,
        "lockType": "Default"
      }
    },
    "combatTemplate": "",
    "abilities": [
      {
        "abilityID": "",
        "abilityName": "Animal_Inu_Shihandai_TrickDog_FunFightV3",
        "abilityOverride": ""
      }
    ],
    "timer": {
      "lifeTime": 35.0
    }
  },
  "Boltbug_Scarab_Ball": {
    "$type": "CJKJIENLOHD",
    "common": {
      "effectAttachShape": {
        "$type": "OMIODKONOMG"
      }
    },
    "combat": {
      "property": {
        "endureType": "Monster_Boss_Other",
        "useCreatorProperty": true,
        "hp": 999999.0,
        "attack": 10.0,
        "defense": 999999.0,
        "isLockHP": true,
        "isGhostToAllied": true
      },
      "beHit": {
        "hitBloodEffect": "",
        "muteAllHitText": true
      },
      "combatLock": {
        "lockShape": "CircleLockEnemy",
        "denyLockOn": true,
        "lockType": "Gear_Lv3"
      }
    },
    "combatTemplate": "",
    "abilities": [
      {
        "abilityID": "",
        "abilityName": "Boltbug_Scarab_Ball",
        "abilityOverride": ""
      }
    ],
    "timer": {
      "lifeTime": 10.0
    },
    "gadget": {
      "$type": "JENBBNKGGJP",
      "collision": {
        "triggerType": "TriggerNoRepeat",
        "targetType": "Enemy",
        "ignoreScene": true
      },
      "triggerLifeOverActions": [
        {
          "$type": "AILPBJHDHDG",
          "abilityName": "Boltbug_Scarab_Ball"
        }
      ],
      "dieDelayTime": 0.5
    }
  },
  "Partner_Animal_Electrohercules_JumpAttack": {
    "$type": "CJKJIENLOHD",
    "combat": {
      "property": {
        "useCreatorProperty": true,
        "isLockHP": true,
        "isGhostToAllied": true,
        "isGhostToEnemy": true,
        "canTriggerBullet": false
      },
      "beHit": {
        "hitBloodEffect": "",
        "muteAllHit": true,
        "muteAllHitEffect": true,
        "muteAllHitText": true
      }
    },
    "combatTemplate": "",
    "abilities": [
      {
        "abilityID": "",
        "abilityName": "Partner_Animal_Electrohercules_JumpForward_Attack",
        "abilityOverride": ""
      }
    ],
    "timer": {
      "lifeTime": 5.0
    },
    "move": {
      "$type": "MMAPEFIEGAL",
      "target": "TargetEntity",
      "attachPoint": "",
      "followRotation": true,
      "LFOHLEKJFBI": ""
    },
    "gadget": {
      "$type": "JENBBNKGGJP",
      "collision": {
        "ccd": {
          "damageRatio": "Always"
        },
        "targetType": "Enemy",
        "ignoreScene": true
      },
      "triggerActions": [
        {
          "$type": "AILPBJHDHDG",
          "abilityName": "Partner_Animal_Electrohercules_JumpForward_Attack"
        }
      ],
      "killByOther": true
    }
  },
  "Partner_Animal_Electrohercules_JumpAttack_CriticalTrigger": {
    "$type": "CJKJIENLOHD",
    "combat": {
      "property": {
        "useCreatorProperty": true,
        "isLockHP": true,
        "isGhostToAllied": true,
        "isGhostToEnemy": true,
        "canTriggerBullet": false
      },
      "beHit": {
        "hitBloodEffect": "",
        "muteAllHit": true,
        "muteAllHitEffect": true,
        "muteAllHitText": true
      }
    },
    "combatTemplate": "",
    "abilities": [
      {
        "abilityID": "",
        "abilityName": "Partner_Animal_Electrohercules_JumpForward_CriticalTrigger",
        "abilityOverride": ""
      }
    ],
    "timer": {
      "lifeTime": 5.0
    },
    "move": {
      "$type": "MMAPEFIEGAL",
      "target": "TargetEntity",
      "attachPoint": "",
      "followRotation": true,
      "LFOHLEKJFBI": ""
    },
    "gadget": {
      "$type": "JENBBNKGGJP",
      "collision": {
        "ccd": {
          "damageRatio": "Always"
        },
        "targetType": "Enemy",
        "ignoreScene": true
      },
      "triggerActions": [
        {
          "$type": "AILPBJHDHDG",
          "abilityName": "Partner_Animal_Electrohercules_JumpForward_CriticalTrigger"
        }
      ],
      "killByOther": true
    }
  },
  "Animal_Electrohercules_RangedAttack01_Attack": {
    "$type": "CJKJIENLOHD",
    "common": {
      "effectAttachShape": {
        "$type": "OMIODKONOMG"
      }
    },
    "combat": {
      "property": {
        "useCreatorProperty": true,
        "hp": 999999.0,
        "attack": 10.0,
        "defense": 999999.0,
        "isInvincible": true,
        "isGhostToAllied": true,
        "isGhostToEnemy": true
      },
      "beHit": {
        "hitBloodEffect": "",
        "muteAllHit": true,
        "muteAllHitEffect": true,
        "muteAllHitText": true
      },
      "combatLock": {
        "lockShape": "CircleLockEnemy",
        "denyLockOn": true,
        "lockType": "Default"
      }
    },
    "combatTemplate": "",
    "abilities": [
      {
        "abilityID": "",
        "abilityName": "Animal_Electrohercules_Enemy_RangedAttack01_Attack",
        "abilityOverride": ""
      }
    ],
    "timer": {
      "lifeTime": 3.0
    },
    "move": {
      "$type": "GONNMCBKAOC",
      "speed": 25.0,
      "acceleration": 10.0,
      "DPAAFHNMHHN": {
        "$type": "IFAANDLLGLP"
      },
      "delay": 0.5
    },
    "gadget": {
      "$type": "JENBBNKGGJP",
      "killByOther": true
    }
  },
  "Animal_Electrohercules_MeleeAttack01_Attack": {
    "$type": "CJKJIENLOHD",
    "combat": {
      "property": {
        "useCreatorProperty": true,
        "isLockHP": true,
        "isGhostToAllied": true,
        "isGhostToEnemy": true,
        "canTriggerBullet": false
      },
      "beHit": {
        "hitBloodEffect": "",
        "muteAllHit": true,
        "muteAllHitEffect": true,
        "muteAllHitText": true
      }
    },
    "combatTemplate": "",
    "abilities": [
      {
        "abilityID": "",
        "abilityName": "Animal_Electrohercules_MeleeAttack01_Attack",
        "abilityOverride": ""
      }
    ],
    "timer": {
      "lifeTime": 5.0
    },
    "move": {
      "$type": "MMAPEFIEGAL",
      "target": "TargetEntity",
      "attachPoint": "",
      "followRotation": true,
      "LFOHLEKJFBI": ""
    },
    "gadget": {
      "$type": "JENBBNKGGJP",
      "collision": {
        "ccd": {
          "damageRatio": "Always"
        },
        "targetType": "Enemy",
        "ignoreScene": true
      },
      "triggerActions": [
        {
          "$type": "AILPBJHDHDG",
          "abilityName": "Animal_Electrohercules_MeleeAttack01_Attack"
        }
      ],
      "killByOther": true
    }
  },
  "Bullet_Animal_Electrohercules_ElectricBall_OnGround": {
    "$type": "CJKJIENLOHD",
    "common": {
      "effectAttachShape": {
        "$type": "OMIODKONOMG"
      }
    },
    "combat": {
      "property": {
        "endureType": "Monster_Boss_Other",
        "useCreatorProperty": true,
        "hp": 999999.0,
        "attack": 10.0,
        "defense": 999999.0,
        "isLockHP": true,
        "isGhostToAllied": true
      },
      "beHit": {
        "hitBloodEffect": "",
        "muteAllHitEffect": true,
        "muteAllHitText": true
      },
      "combatLock": {
        "lockShape": "CircleLockEnemy",
        "lockType": "Gear_Lv3"
      }
    },
    "combatTemplate": "",
    "abilities": [
      {
        "abilityID": "",
        "abilityName": "Bullet_Animal_Electrohercules_ElectricBall_OnGround",
        "abilityOverride": ""
      }
    ],
    "timer": {
      "lifeTime": 60.0
    },
    "gadget": {
      "$type": "JENBBNKGGJP",
      "collision": {
        "triggerType": "TriggerNoRepeat",
        "targetType": "Enemy",
        "ignoreScene": true
      },
      "triggerLifeOverActions": [
        {
          "$type": "AILPBJHDHDG",
          "abilityName": "Bullet_Animal_Electrohercules_ElectricBall_OnGround"
        }
      ],
      "killByOther": true
    }
  },
  "Bullet_Animal_Electrohercules_ElectricBall_Kicked": {
    "$type": "CJKJIENLOHD",
    "common": {
      "effectAttachShape": {
        "$type": "OMIODKONOMG"
      }
    },
    "combat": {
      "property": {
        "useCreatorProperty": true,
        "hp": 999999.0,
        "attack": 10.0,
        "defense": 999999.0,
        "isInvincible": true,
        "isGhostToAllied": true,
        "isGhostToEnemy": true,
        "canTriggerBullet": false
      },
      "beHit": {
        "hitBloodEffect": "",
        "muteAllHit": true,
        "muteAllHitEffect": true,
        "muteAllHitText": true
      },
      "combatLock": {
        "lockShape": "CircleLockEnemy",
        "denyLockOn": true,
        "lockType": "Default"
      }
    },
    "combatTemplate": "",
    "abilities": [
      {
        "abilityID": "",
        "abilityName": "Bullet_Animal_Electrohercules_ElectricBall_Kicked",
        "abilityOverride": ""
      }
    ],
    "timer": {
      "lifeTime": 3.0
    },
    "move": {
      "$type": "DMLAFKAOGID",
      "speed": 0.5,
      "maxSpeed": 1.0,
      "minSpeed": 0.009999999776482582,
      "anglerVelocity": 30.0,
      "DPAAFHNMHHN": {
        "$type": "IFAANDLLGLP",
        "traceLerpCoef": 360.0
      },
      "stickToGround": {
        "maxStepHeight": 0.10000000149011612,
        "heightToGround": 0.20000000298023224,
        "flexibleRange": 0.10000000149011612,
        "isStickToWater": true,
        "unstickWhenDownSlide": "Keep",
        "unstickWhenUpSlide": "Keep"
      },
      "guidanceSpeedChange": false,
      "guidanceMinAnglerVelocity": 30.0,
      "guidanceDuration": 1.0
    },
    "gadget": {
      "$type": "JENBBNKGGJP",
      "collision": {
        "triggerType": "TriggerNoRepeat",
        "targetType": "Enemy",
        "ignoreScene": true
      },
      "triggerActions": [
        {
          "$type": "AILPBJHDHDG",
          "abilityName": "Bullet_Animal_Electrohercules_ElectricBall_Kicked"
        }
      ],
      "triggerLifeOverActions": [
        {
          "$type": "AILPBJHDHDG",
          "abilityName": "Bullet_Animal_Electrohercules_ElectricBall_Kicked"
        }
      ],
      "killByOther": true,
      "enableCollisionDelay": 0.10000000149011612,
      "resetLastPosOnDelayEnd": true
    }
  },
  "Animal_Electrohercules_04_MeleeAttack01_Attack": {
    "$type": "CJKJIENLOHD",
    "combat": {
      "property": {
        "useCreatorProperty": true,
        "isLockHP": true,
        "isGhostToAllied": true,
        "isGhostToEnemy": true,
        "canTriggerBullet": false
      },
      "beHit": {
        "hitBloodEffect": "",
        "muteAllHit": true,
        "muteAllHitEffect": true,
        "muteAllHitText": true
      }
    },
    "combatTemplate": "",
    "abilities": [
      {
        "abilityID": "",
        "abilityName": "Animal_Electrohercules_MeleeAttack01_Attack",
        "abilityOverride": ""
      }
    ],
    "timer": {
      "lifeTime": 5.0
    },
    "move": {
      "$type": "MMAPEFIEGAL",
      "target": "TargetEntity",
      "attachPoint": "",
      "followRotation": true,
      "LFOHLEKJFBI": ""
    },
    "gadget": {
      "$type": "JENBBNKGGJP",
      "collision": {
        "ccd": {
          "damageRatio": "Always"
        },
        "targetType": "Enemy",
        "ignoreScene": true
      },
      "triggerActions": [
        {
          "$type": "AILPBJHDHDG",
          "abilityName": "Animal_Electrohercules_MeleeAttack01_Attack"
        }
      ],
      "killByOther": true
    }
  },
  "Animal_Electrohercules_06_CameraTarget": {
    "$type": "CJKJIENLOHD",
    "combat": {
      "property": {
        "hp": 99999.0,
        "weight": 50.0,
        "isLockHP": true,
        "isGhostToAllied": true,
        "isGhostToEnemy": true,
        "canTriggerBullet": false
      },
      "beHit": {
        "hitBloodEffect": "",
        "muteAllHit": true,
        "muteAllHitEffect": true,
        "muteAllHitText": true
      },
      "combatLock": {
        "lockShape": "CircleLockEnemy",
        "denyLockOn": true,
        "lockType": "Default"
      }
    },
    "combatTemplate": "",
    "abilities": [
      {
        "abilityID": "",
        "abilityName": "Animal_Electrohercules_06_CameraTarget",
        "abilityOverride": ""
      }
    ],
    "gadget": {
      "$type": "JENBBNKGGJP",
      "killByOther": true
    }
  },
  "Partner_Animal_Electrohercules_JumpBack": {
    "$type": "CJKJIENLOHD",
    "combat": {
      "property": {
        "useCreatorProperty": true,
        "isLockHP": true,
        "isGhostToAllied": true,
        "isGhostToEnemy": true,
        "canTriggerBullet": false
      },
      "beHit": {
        "hitBloodEffect": "",
        "muteAllHit": true,
        "muteAllHitEffect": true,
        "muteAllHitText": true
      }
    },
    "combatTemplate": "",
    "abilities": [
      {
        "abilityID": "",
        "abilityName": "Partner_Animal_Electrohercules_JumpBack",
        "abilityOverride": ""
      }
    ],
    "timer": {
      "lifeTime": 5.0
    },
    "move": {
      "$type": "MMAPEFIEGAL",
      "target": "TargetEntity",
      "attachPoint": "",
      "followRotation": true,
      "LFOHLEKJFBI": ""
    },
    "gadget": {
      "$type": "JENBBNKGGJP",
      "collision": {
        "ccd": {
          "damageRatio": "Always"
        },
        "targetType": "Enemy",
        "ignoreScene": true
      },
      "triggerActions": [
        {
          "$type": "AILPBJHDHDG",
          "abilityName": "Partner_Animal_Electrohercules_JumpBack"
        }
      ],
      "killByOther": true
    }
  },
  "Animal_Electrohercules_ElectricBall01": {
    "$type": "CJKJIENLOHD",
    "common": {
      "effectAttachShape": {
        "$type": "OMIODKONOMG"
      }
    },
    "combat": {
      "property": {
        "useCreatorProperty": true,
        "hp": 999999.0,
        "attack": 10.0,
        "defense": 999999.0,
        "isInvincible": true,
        "isGhostToAllied": true,
        "isGhostToEnemy": true
      },
      "beHit": {
        "hitBloodEffect": "",
        "muteAllHit": true,
        "muteAllHitEffect": true,
        "muteAllHitText": true
      },
      "combatLock": {
        "lockShape": "CircleLockEnemy",
        "denyLockOn": true,
        "lockType": "Default"
      }
    },
    "combatTemplate": "",
    "abilities": [
      {
        "abilityID": "",
        "abilityName": "Animal_Electrohercules_ElectricBall_Hit",
        "abilityOverride": ""
      }
    ],
    "timer": {
      "lifeTime": 15.0
    },
    "move": {
      "$type": "GONNMCBKAOC",
      "speed": 1.5
    },
    "gadget": {
      "$type": "JENBBNKGGJP",
      "collision": {
        "targetType": "Enemy",
        "ignoreScene": true
      },
      "triggerActions": [
        {
          "$type": "AILPBJHDHDG",
          "abilityName": "Animal_Electrohercules_ElectricBall_Hit"
        }
      ]
    }
  },
  "Animal_Electrohercules_ElectricBall02": {
    "$type": "CJKJIENLOHD",
    "common": {
      "effectAttachShape": {
        "$type": "OMIODKONOMG"
      }
    },
    "combat": {
      "property": {
        "useCreatorProperty": true,
        "hp": 999999.0,
        "attack": 10.0,
        "defense": 999999.0,
        "isInvincible": true,
        "isGhostToAllied": true,
        "isGhostToEnemy": true
      },
      "beHit": {
        "hitBloodEffect": "",
        "muteAllHit": true,
        "muteAllHitEffect": true,
        "muteAllHitText": true
      },
      "combatLock": {
        "lockShape": "CircleLockEnemy",
        "denyLockOn": true,
        "lockType": "Default"
      }
    },
    "combatTemplate": "",
    "abilities": [
      {
        "abilityID": "",
        "abilityName": "Animal_Electrohercules_ElectricBall_Hit",
        "abilityOverride": ""
      }
    ],
    "timer": {
      "lifeTime": 15.0
    },
    "move": {
      "$type": "GONNMCBKAOC",
      "speed": 2.0999999046325684
    },
    "gadget": {
      "$type": "JENBBNKGGJP",
      "collision": {
        "targetType": "Enemy",
        "ignoreScene": true
      },
      "triggerActions": [
        {
          "$type": "AILPBJHDHDG",
          "abilityName": "Animal_Electrohercules_ElectricBall_Hit"
        }
      ]
    }
  },
  "Animal_Electrohercules_ElectricBall03": {
    "$type": "CJKJIENLOHD",
    "common": {
      "effectAttachShape": {
        "$type": "OMIODKONOMG"
      }
    },
    "combat": {
      "property": {
        "useCreatorProperty": true,
        "hp": 999999.0,
        "attack": 10.0,
        "defense": 999999.0,
        "isInvincible": true,
        "isGhostToAllied": true,
        "isGhostToEnemy": true
      },
      "beHit": {
        "hitBloodEffect": "",
        "muteAllHit": true,
        "muteAllHitEffect": true,
        "muteAllHitText": true
      },
      "combatLock": {
        "lockShape": "CircleLockEnemy",
        "denyLockOn": true,
        "lockType": "Default"
      }
    },
    "combatTemplate": "",
    "abilities": [
      {
        "abilityID": "",
        "abilityName": "Animal_Electrohercules_ElectricBall_Hit",
        "abilityOverride": ""
      }
    ],
    "timer": {
      "lifeTime": 15.0
    },
    "move": {
      "$type": "GONNMCBKAOC",
      "speed": 2.700000047683716
    },
    "gadget": {
      "$type": "JENBBNKGGJP",
      "collision": {
        "targetType": "Enemy",
        "ignoreScene": true
      },
      "triggerActions": [
        {
          "$type": "AILPBJHDHDG",
          "abilityName": "Animal_Electrohercules_ElectricBall_Hit"
        }
      ]
    }
  },
  "Partner_Animal_Electrohercules_ReboundBullet": {
    "$type": "CJKJIENLOHD",
    "common": {
      "effectAttachShape": {
        "$type": "OMIODKONOMG"
      }
    },
    "combat": {
      "property": {
        "useCreatorProperty": true,
        "hp": 999999.0,
        "attack": 10.0,
        "defense": 999999.0,
        "isInvincible": true,
        "isGhostToAllied": true,
        "isGhostToEnemy": true
      },
      "beHit": {
        "hitBloodEffect": "",
        "muteAllHit": true,
        "muteAllHitEffect": true,
        "muteAllHitText": true
      },
      "combatLock": {
        "lockShape": "CircleLockEnemy",
        "denyLockOn": true,
        "lockType": "Default"
      }
    },
    "combatTemplate": "",
    "abilities": [
      {
        "abilityID": "",
        "abilityName": "Animal_Electrohercules_ReboundElectricBall_Hit",
        "abilityOverride": ""
      }
    ],
    "timer": {
      "lifeTime": 5.0
    },
    "move": {
      "$type": "GONNMCBKAOC",
      "speed": 4.5
    },
    "gadget": {
      "$type": "JENBBNKGGJP",
      "collision": {
        "targetType": "Enemy",
        "ignoreScene": true
      },
      "triggerActions": [
        {
          "$type": "AILPBJHDHDG",
          "abilityName": "Animal_Electrohercules_ReboundElectricBall_Hit"
        }
      ]
    }
  },
  "Animal_Electrohercules_Defend_Turorial": {
    "$type": "CJKJIENLOHD",
    "combat": {
      "property": {
        "useCreatorProperty": true,
        "hp": 100.0,
        "attack": 10.0,
        "weight": 9999.0,
        "isGhostToAllied": true
      },
      "beHit": {
        "hitBloodEffect": "",
        "muteAllHitText": true
      },
      "combatLock": {
        "lockShape": "CircleLockEnemy",
        "lockType": "Avatar&Monster_Lv4"
      }
    },
    "combatTemplate": "",
    "abilities": [
      {
        "abilityID": "Animal_Electrohercules_Tutorial_Gadget",
        "abilityName": "Animal_Electrohercules_Tutorial_Gadget",
        "abilityOverride": ""
      }
    ],
    "timer": {
      "lifeInfinite": true,
      "lifeTime": 120.0
    },
    "move": {
      "$type": "MMAPEFIEGAL",
      "target": "TargetEntity",
      "attachPoint": "RootNode",
      "followRotation": true,
      "LFOHLEKJFBI": ""
    }
  },
  "Partner_Animal_Electrohercules_LaserBullet": {
    "$type": "CJKJIENLOHD",
    "common": {
      "effectAttachShape": {
        "$type": "OMIODKONOMG"
      }
    },
    "combat": {
      "property": {
        "useCreatorProperty": true,
        "hp": 999999.0,
        "attack": 10.0,
        "defense": 999999.0,
        "isInvincible": true,
        "isGhostToAllied": true,
        "isGhostToEnemy": true
      },
      "beHit": {
        "hitBloodEffect": "",
        "muteAllHit": true,
        "muteAllHitEffect": true,
        "muteAllHitText": true
      },
      "combatLock": {
        "lockShape": "CircleLockEnemy",
        "denyLockOn": true,
        "lockType": "Default"
      },
      "simulatePhysics": {
        "enable": true,
        "radius": 0.10000000149011612
      }
    },
    "combatTemplate": "",
    "abilities": [
      {
        "abilityID": "",
        "abilityName": "Animal_Electrohercules_RangeAttack03_LaserBullet",
        "abilityOverride": ""
      }
    ],
    "timer": {
      "lifeTime": 10.0
    },
    "move": {
      "$type": "JGEFBHJPMOL"
    },
    "gadget": {
      "$type": "AKGCANNFFGI",
      "collision": {
        "targetType": "Enemy",
        "ignoreScene": true
      },
      "triggerActions": [
        {
          "$type": "AILPBJHDHDG",
          "abilityName": "Animal_Electrohercules_RangeAttack03_LaserBullet"
        }
      ],
      "killByOther": true,
      "multiBulletConfig": {
        "$type": "JKIGOIBCBME",
        "rotationDampTime": "Eff_Animal_Electrohercules_RangeAttack03",
        "NPJEKAMLKKF": "",
        "OIIFCKJNNFP": 0.30000001192092896
      }
    }
  },
  "Tortoise_Electric_ElectricBall": {
    "$type": "CJKJIENLOHD",
    "combat": {
      "property": {
        "useCreatorProperty": true,
        "hp": 100.0,
        "attack": 10.0,
        "isInvincible": true,
        "isGhostToAllied": true,
        "isGhostToEnemy": true,
        "canTriggerBullet": false
      },
      "combatLock": {
        "lockShape": "CircleLockEnemy",
        "denyLockOn": true,
        "lockType": "Default"
      }
    },
    "combatTemplate": "",
    "abilities": [
      {
        "abilityID": "",
        "abilityName": "Tortoise_Electric_ElectricBall_Hit",
        "abilityOverride": ""
      }
    ],
    "timer": {
      "lifeTime": 6.0
    },
    "move": {
      "$type": "GMOHNHFHLAO",
      "speed": 4.800000190734863,
      "DPAAFHNMHHN": {
        "$type": "IFAANDLLGLP"
      },
      "traceOnYAxis": true
    },
    "gadget": {
      "$type": "JENBBNKGGJP",
      "collision": {
        "targetType": "Enemy"
      },
      "triggerActions": [
        {
          "$type": "AILPBJHDHDG",
          "abilityName": "Tortoise_Electric_ElectricBall_Hit"
        }
      ]
    }
  },
  "Tortoise_Electric_ElectricArea_Random": {
    "$type": "CJKJIENLOHD",
    "common": {
      "effectAttachShape": {
        "$type": "OMIODKONOMG"
      }
    },
    "combat": {
      "property": {
        "useCreatorProperty": true,
        "hp": 999999.0,
        "attack": 10.0,
        "defense": 999999.0,
        "isInvincible": true,
        "isGhostToAllied": true,
        "isGhostToEnemy": true
      },
      "beHit": {
        "hitBloodEffect": "",
        "muteAllHit": true,
        "muteAllHitEffect": true,
        "muteAllHitText": true
      },
      "combatLock": {
        "lockShape": "CircleLockEnemy",
        "denyLockOn": true,
        "lockType": "Default"
      },
      "simulatePhysics": {
        "enable": true,
        "radius": 2.0,
        "delay": 0.4000000059604645
      }
    },
    "combatTemplate": "",
    "abilities": [
      {
        "abilityID": "",
        "abilityName": "Tortoise_Electric_ElectricArea_Random_Hit",
        "abilityOverride": ""
      }
    ],
    "timer": {
      "lifeTime": 10.0
    },
    "move": {
      "$type": "JGEFBHJPMOL",
      "velocityForce": {
        "excludeForces": [
          "WindZoneType"
        ]
      }
    },
    "gadget": {
      "$type": "AKGCANNFFGI",
      "collision": {
        "targetType": "Enemy",
        "ignoreScene": true
      },
      "triggerActions": [
        {
          "$type": "AILPBJHDHDG",
          "abilityName": "Tortoise_Electric_ElectricArea_Random_Hit"
        }
      ],
      "triggerLifeOverActions": [
        {
          "$type": "AILPBJHDHDG",
          "abilityName": "Tortoise_Electric_ElectricArea_Random_Hit"
        }
      ],
      "killByOther": true,
      "multiBulletConfig": {
        "$type": "OAKJCHGIBPC",
        "rotationDampTime": "Eff_Ani_Animal_Tortoise_Electric_ElectricAreaAtk_Area02"
      }
    }
  },
  "Tortoise_Electric_ElectricArea_Track": {
    "$type": "CJKJIENLOHD",
    "combat": {
      "property": {
        "useCreatorProperty": true,
        "hp": 100.0,
        "attack": 10.0,
        "isInvincible": true,
        "isGhostToAllied": true,
        "isGhostToEnemy": true,
        "canTriggerBullet": false
      },
      "combatLock": {
        "lockShape": "CircleLockEnemy",
        "denyLockOn": true,
        "lockType": "Default"
      }
    },
    "combatTemplate": "",
    "abilities": [
      {
        "abilityID": "",
        "abilityName": "Tortoise_Electric_ElectricArea_Track_Hit",
        "abilityOverride": ""
      }
    ],
    "timer": {
      "lifeTime": 5.0
    }
  },
  "Tortoise_Electric_RushAtk_ElectricBall": {
    "$type": "CJKJIENLOHD",
    "combat": {
      "property": {
        "useCreatorProperty": true,
        "hp": 100.0,
        "attack": 10.0,
        "isInvincible": true,
        "isGhostToAllied": true,
        "isGhostToEnemy": true,
        "canTriggerBullet": false
      },
      "combatLock": {
        "lockShape": "CircleLockEnemy",
        "denyLockOn": true,
        "lockType": "Default"
      },
      "simulatePhysics": {
        "enable": true,
        "radius": 0.5
      }
    },
    "combatTemplate": "",
    "abilities": [
      {
        "abilityID": "",
        "abilityName": "Tortoise_Electric_RushAtk_ElectricBall_Hit",
        "abilityOverride": ""
      }
    ],
    "timer": {
      "lifeTime": 7.0
    },
    "move": {
      "$type": "JGEFBHJPMOL",
      "velocityForce": {
        "excludeForces": [
          "WindZoneType"
        ]
      }
    },
    "gadget": {
      "$type": "AKGCANNFFGI",
      "collision": {
        "targetType": "Enemy",
        "ignoreScene": true
      },
      "triggerActions": [
        {
          "$type": "AILPBJHDHDG",
          "abilityName": "Tortoise_Electric_RushAtk_ElectricBall_Hit"
        }
      ],
      "triggerLifeOverActions": [
        {
          "$type": "AILPBJHDHDG",
          "abilityName": "Tortoise_Electric_RushAtk_ElectricBall_Hit"
        }
      ],
      "killByOther": true,
      "multiBulletConfig": {
        "$type": "OAKJCHGIBPC",
        "rotationDampTime": "Eff_Ani_Animal_Tortoise_Electric_RushAtk_ElectricBallLoop"
      }
    }
  },
  "Macrauchenia_01_HeadPlatform": {
    "$type": "CJKJIENLOHD",
    "common": {
      "disableTickDistance": 100000.0
    },
    "combat": {
      "property": {
        "useCreatorProperty": true,
        "hp": 100.0,
        "attack": 10.0,
        "isInvincible": true,
        "isGhostToAllied": true,
        "isGhostToEnemy": true,
        "canTriggerBullet": false
      },
      "combatLock": {
        "lockShape": "CircleLockEnemy",
        "denyLockOn": true,
        "lockType": "Default"
      }
    },
    "combatTemplate": "",
    "timer": {
      "lifeInfinite": true
    },
    "move": {
      "$type": "HHDHALCKCOD",
      "namedTransform": "Head",
      "useTarget": true,
      "target": "OwnerEntity",
      "FKPOFAFLEEM": "Follow",
      "FJPPBHMGFFJ": "Follow",
      "IKCDKIELNFI": "Follow",
      "ignoreCollision": {
        "selfColliders": [
          {
            "damageRatio": "ScenePropCollider"
          }
        ],
        "targetColliders": [
          {}
        ]
      }
    }
  },
  "Macrauchenia_01_SpinePlatform": {
    "$type": "CJKJIENLOHD",
    "common": {
      "disableTickDistance": 100000.0
    },
    "combat": {
      "property": {
        "useCreatorProperty": true,
        "hp": 100.0,
        "attack": 10.0,
        "isInvincible": true,
        "isGhostToAllied": true,
        "isGhostToEnemy": true,
        "canTriggerBullet": false
      },
      "combatLock": {
        "lockShape": "CircleLockEnemy",
        "denyLockOn": true,
        "lockType": "Default"
      }
    },
    "combatTemplate": "",
    "timer": {
      "lifeInfinite": true
    },
    "move": {
      "$type": "HHDHALCKCOD",
      "namedTransform": "Bone_Spine01_M",
      "useTarget": true,
      "target": "OwnerEntity",
      "FKPOFAFLEEM": "Follow",
      "FJPPBHMGFFJ": "Follow",
      "IKCDKIELNFI": "Follow",
      "ignoreCollision": {
        "selfColliders": [
          {
            "damageRatio": "ScenePropCollider"
          }
        ],
        "targetColliders": [
          {}
        ]
      }
    }
  },
  "Macrauchenia_01_NeckPlatform": {
    "$type": "CJKJIENLOHD",
    "common": {
      "disableTickDistance": 100000.0
    },
    "combat": {
      "property": {
        "useCreatorProperty": true,
        "hp": 100.0,
        "attack": 10.0,
        "isInvincible": true,
        "isGhostToAllied": true,
        "isGhostToEnemy": true,
        "canTriggerBullet": false
      },
      "combatLock": {
        "lockShape": "CircleLockEnemy",
        "denyLockOn": true,
        "lockType": "Default"
      }
    },
    "combatTemplate": "",
    "timer": {
      "lifeInfinite": true
    },
    "move": {
      "$type": "HHDHALCKCOD",
      "namedTransform": "Bone_Neck01_M",
      "useTarget": true,
      "target": "OwnerEntity",
      "FKPOFAFLEEM": "Follow",
      "FJPPBHMGFFJ": "Follow",
      "IKCDKIELNFI": "Follow",
      "ignoreCollision": {
        "selfColliders": [
          {
            "damageRatio": "ScenePropCollider"
          }
        ],
        "targetColliders": [
          {}
        ]
      }
    }
  },
  "Macrauchenia_01_CameraZoomOut_Field": {
    "$type": "CJKJIENLOHD",
    "combat": {
      "property": {
        "useCreatorProperty": true,
        "hp": 999999.0,
        "attack": 15.0,
        "defense": 999999.0,
        "isInvincible": true,
        "isGhostToAllied": true,
        "isGhostToEnemy": true,
        "canTriggerBullet": false
      },
      "combatLock": {
        "lockShape": "CircleLockEnemy",
        "denyLockOn": true,
        "lockType": "Default"
      }
    },
    "combatTemplate": "",
    "abilities": [
      {
        "abilityID": "",
        "abilityName": "Animal_Macrauchenia_CameraZoomOut_Field",
        "abilityOverride": ""
      }
    ],
    "field": {
      "concernType": "AllAvatars",
      "shape": "CircleR9H16",
      "fromShape": "",
      "triggerInfinite": true,
      "lifeInfinite": true,
      "checkInterval": 0.10000000149011612,
      "useCollider": false,
      "colliderName": "",
      "fromColliderName": "",
      "checkOnReconnect": true
    },
    "timer": {
      "lifeInfinite": true
    },
    "move": {
      "$type": "HHDHALCKCOD",
      "namedTransform": "SpecialCameraZone",
      "useTarget": true,
      "target": "OwnerEntity",
      "FKPOFAFLEEM": "Follow",
      "FJPPBHMGFFJ": "Follow",
      "IKCDKIELNFI": "Follow",
      "ignoreCollision": {
        "selfColliders": [
          {
            "damageRatio": "ScenePropCollider"
          }
        ],
        "targetColliders": [
          {}
        ]
      }
    }
  },
  "Capybara_Nyx_NormalAtk02_FollowBullet": {
    "$type": "CJKJIENLOHD",
    "common": {
      "effectAttachShape": {
        "$type": "OMIODKONOMG"
      }
    },
    "combat": {
      "property": {
        "useCreatorProperty": true,
        "hp": 999999.0,
        "attack": 30.0,
        "defense": 999999.0,
        "isLockHP": true,
        "canTriggerBullet": false
      },
      "beHit": {
        "hitBloodEffect": "",
        "muteAllHit": true,
        "muteAllHitEffect": true,
        "muteAllHitText": true
      },
      "combatLock": {
        "lockShape": "CircleLockEnemy",
        "denyLockOn": true,
        "lockType": "Default"
      }
    },
    "combatTemplate": "",
    "abilities": [
      {
        "abilityID": "",
        "abilityName": "Capybara_Nyx_NormalAtk02_FollowBullet_Hit",
        "abilityOverride": ""
      }
    ],
    "timer": {
      "lifeTime": 10.0
    },
    "move": {
      "$type": "MMAPEFIEGAL",
      "target": "TargetEntity",
      "attachPoint": "",
      "followRotation": true,
      "offset": {
        "z": -4.0
      },
      "HOMINCCNFHE": {
        "z": 0.30000001192092896
      },
      "LFOHLEKJFBI": ""
    },
    "gadget": {
      "$type": "JENBBNKGGJP",
      "collision": {
        "triggerType": "TriggerNoRepeat",
        "targetType": "Enemy",
        "ignoreScene": true
      },
      "triggerActions": [
        {
          "$type": "AILPBJHDHDG",
          "abilityName": "Capybara_Nyx_NormalAtk02_FollowBullet_Hit"
        }
      ]
    }
  },
  "Capybara_Nyx_NormalAtk04_FollowBullet": {
    "$type": "CJKJIENLOHD",
    "common": {
      "effectAttachShape": {
        "$type": "OMIODKONOMG"
      }
    },
    "combat": {
      "property": {
        "useCreatorProperty": true,
        "hp": 999999.0,
        "attack": 30.0,
        "defense": 999999.0,
        "isLockHP": true,
        "canTriggerBullet": false
      },
      "beHit": {
        "hitBloodEffect": "",
        "muteAllHit": true,
        "muteAllHitEffect": true,
        "muteAllHitText": true
      },
      "combatLock": {
        "lockShape": "CircleLockEnemy",
        "denyLockOn": true,
        "lockType": "Default"
      }
    },
    "combatTemplate": "",
    "abilities": [
      {
        "abilityID": "",
        "abilityName": "Capybara_Nyx_NormalAtk04_FollowBullet_Hit",
        "abilityOverride": ""
      }
    ],
    "timer": {
      "lifeTime": 10.0
    },
    "move": {
      "$type": "MMAPEFIEGAL",
      "target": "TargetEntity",
      "attachPoint": "",
      "followRotation": true,
      "offset": {
        "z": -4.0
      },
      "HOMINCCNFHE": {
        "z": 0.30000001192092896
      },
      "LFOHLEKJFBI": ""
    },
    "gadget": {
      "$type": "JENBBNKGGJP",
      "collision": {
        "triggerType": "TriggerNoRepeat",
        "targetType": "Enemy",
        "ignoreScene": true
      },
      "triggerActions": [
        {
          "$type": "AILPBJHDHDG",
          "abilityName": "Capybara_Nyx_NormalAtk04_FollowBullet_Hit"
        }
      ]
    }
  },
  "Capybara_Nyx_RageAtk_FollowBullet": {
    "$type": "CJKJIENLOHD",
    "common": {
      "effectAttachShape": {
        "$type": "OMIODKONOMG"
      }
    },
    "combat": {
      "property": {
        "useCreatorProperty": true,
        "hp": 999999.0,
        "attack": 30.0,
        "defense": 999999.0,
        "isLockHP": true,
        "canTriggerBullet": false
      },
      "beHit": {
        "hitBloodEffect": "",
        "muteAllHit": true,
        "muteAllHitEffect": true,
        "muteAllHitText": true
      },
      "combatLock": {
        "lockShape": "CircleLockEnemy",
        "denyLockOn": true,
        "lockType": "Default"
      }
    },
    "combatTemplate": "",
    "abilities": [
      {
        "abilityID": "",
        "abilityName": "Capybara_Nyx_RageAtk_FollowBullet",
        "abilityOverride": ""
      }
    ],
    "timer": {
      "lifeTime": 10.0
    },
    "move": {
      "$type": "MMAPEFIEGAL",
      "target": "TargetEntity",
      "attachPoint": "",
      "followRotation": true,
      "LFOHLEKJFBI": ""
    },
    "gadget": {
      "$type": "JENBBNKGGJP",
      "collision": {
        "ccd": {
          "damageRatio": "Always"
        },
        "triggerType": "TriggerNoRepeat",
        "targetType": "Enemy",
        "ignoreScene": true
      },
      "triggerActions": [
        {
          "$type": "AILPBJHDHDG",
          "abilityName": "Capybara_Nyx_RageAtk_FollowBullet"
        }
      ]
    }
  },
  "Capybara_Nyx_RageAtk_KillSummonBullet": {
    "$type": "CJKJIENLOHD",
    "common": {
      "effectAttachShape": {
        "$type": "OMIODKONOMG"
      }
    },
    "combat": {
      "property": {
        "useCreatorProperty": true,
        "hp": 999999.0,
        "attack": 30.0,
        "defense": 999999.0,
        "isLockHP": true,
        "canTriggerBullet": false
      },
      "beHit": {
        "hitBloodEffect": "",
        "muteAllHit": true,
        "muteAllHitEffect": true,
        "muteAllHitText": true
      },
      "combatLock": {
        "lockShape": "CircleLockEnemy",
        "denyLockOn": true,
        "lockType": "Default"
      }
    },
    "combatTemplate": "",
    "abilities": [
      {
        "abilityID": "",
        "abilityName": "Capybara_Nyx_RageAtk_KillSummonBullet",
        "abilityOverride": ""
      }
    ],
    "timer": {
      "lifeTime": 10.0
    },
    "move": {
      "$type": "MMAPEFIEGAL",
      "target": "TargetEntity",
      "attachPoint": "",
      "followRotation": true,
      "LFOHLEKJFBI": ""
    },
    "gadget": {
      "$type": "JENBBNKGGJP",
      "collision": {
        "ccd": {
          "damageRatio": "Always"
        },
        "triggerType": "TriggerAlways",
        "targetType": "All"
      },
      "triggerActions": [
        {
          "$type": "AILPBJHDHDG",
          "abilityName": "Capybara_Nyx_RageAtk_KillSummonBullet"
        }
      ]
    }
  },
  "Capybara_Nyx_RageAtk_InitialPos": {
    "$type": "CJKJIENLOHD",
    "combat": {
      "property": {
        "useCreatorProperty": true,
        "hp": 100.0,
        "attack": 10.0,
        "isInvincible": true,
        "isGhostToAllied": true,
        "isGhostToEnemy": true,
        "canTriggerBullet": false
      },
      "combatLock": {
        "lockShape": "CircleLockEnemy",
        "denyLockOn": true,
        "lockType": "Default"
      }
    },
    "combatTemplate": "",
    "timer": {
      "lifeInfinite": true
    }
  },
  "Penguin_RollingAttack": {
    "$type": "CJKJIENLOHD",
    "combat": {
      "property": {
        "useCreatorProperty": true,
        "isLockHP": true,
        "isGhostToAllied": true,
        "isGhostToEnemy": true,
        "canTriggerBullet": false
      },
      "beHit": {
        "hitBloodEffect": "",
        "muteAllHit": true,
        "muteAllHitEffect": true,
        "muteAllHitText": true
      }
    },
    "combatTemplate": "",
    "abilities": [
      {
        "abilityID": "",
        "abilityName": "Penguin_RollingAttack_Attack",
        "abilityOverride": ""
      }
    ],
    "timer": {
      "lifeTime": 30.0
    },
    "move": {
      "$type": "MMAPEFIEGAL",
      "target": "TargetEntity",
      "attachPoint": "",
      "followRotation": true,
      "LFOHLEKJFBI": ""
    },
    "gadget": {
      "$type": "JENBBNKGGJP",
      "collision": {
        "triggerType": "TriggerNoRepeat",
        "targetType": "AllExceptSelf",
        "ignoreWater": true
      },
      "triggerActions": [
        {
          "$type": "AILPBJHDHDG",
          "abilityName": "Penguin_RollingAttack_Attack"
        }
      ],
      "enableCollisionDelay": 0.20000000298023224,
      "resetLastPosOnDelayEnd": true,
      "reTriggerOnDelayEnd": true
    }
  }
}