{
  "Weapon_FishingRod": {
    "$type": "CJKJIENLOHD",
    "common": {
      "effectAttachShape": {
        "$type": "OMCHDAEMBOG",
        "mesh": "EffectMesh"
      },
      "affectedByWorld": true
    },
    "combat": {
      "property": {
        "hp": 9999999.0,
        "defense": 999999.0,
        "isInvincible": true,
        "isGhostToAllied": true
      },
      "beHit": {
        "hitBloodEffect": "",
        "muteAllHit": true,
        "muteAllHitEffect": true,
        "muteAllHitText": true
      },
      "combatLock": {
        "lockShape": "CircleLockEnemy",
        "denyLockOn": true,
        "lockType": "Default"
      }
    },
    "combatTemplate": "",
    "abilities": [
      {
        "abilityID": "Metal",
        "abilityName": "Avatar_Common_FishingRod",
        "abilityOverride": ""
      }
    ],
    "equipment": {
      "attachTo": "equip10",
      "subAttachTo": "",
      "auxToTrans": ""
    }
  },
  "Fishing_Rod_Normal_01": {
    "$type": "CJKJIENLOHD",
    "common": {
      "effectAttachShape": {
        "$type": "OMCHDAEMBOG",
        "mesh": "EffectMesh"
      },
      "affectedByWorld": true
    },
    "combat": {
      "property": {
        "hp": 9999999.0,
        "defense": 999999.0,
        "isInvincible": true,
        "isGhostToAllied": true
      },
      "beHit": {
        "hitBloodEffect": "",
        "muteAllHit": true,
        "muteAllHitEffect": true,
        "muteAllHitText": true
      },
      "combatLock": {
        "lockShape": "CircleLockEnemy",
        "denyLockOn": true,
        "lockType": "Default"
      }
    },
    "combatTemplate": "",
    "abilities": [
      {
        "abilityID": "Metal",
        "abilityName": "Avatar_Common_FishingRod",
        "abilityOverride": ""
      }
    ],
    "move": {
      "$type": "MMAPEFIEGAL",
      "velocityForce": {
        "muteAll": true
      },
      "attachPoint": "WeaponR",
      "followRotation": true,
      "handleInLateTick": true,
      "LFOHLEKJFBI": ""
    }
  },
  "Fishing_Aim_Bullet": {
    "$type": "CJKJIENLOHD",
    "common": {
      "effectAttachShape": {
        "$type": "OMIODKONOMG"
      },
      "affectedByWorld": true
    },
    "combat": {
      "property": {
        "useCreatorProperty": true
      },
      "combatLock": {
        "lockShape": "CircleLockEnemy",
        "denyLockOn": true,
        "lockType": "Default"
      }
    },
    "combatTemplate": "",
    "abilities": [
      {
        "abilityID": "Avatar_Common_Fishing_Cast_Bullet",
        "abilityName": "Avatar_Common_Fishing_Cast_Bullet",
        "abilityOverride": ""
      }
    ],
    "timer": {
      "lifeTime": 5.0
    },
    "move": {
      "$type": "JENGDHOFCKH",
      "syncToRemote": true,
      "globalValueKey": "_ABILITY_Fishing_Aim_Length"
    },
    "gadget": {
      "$type": "JENBBNKGGJP",
      "collision": {
        "ccd": {
          "damageRatio": "Always"
        },
        "targetType": "Enemy"
      },
      "triggerActions": [
        {
          "$type": "AILPBJHDHDG",
          "abilityName": "Avatar_Common_Fishing_Cast_Bullet"
        }
      ],
      "triggerLifeOverActions": [
        {
          "$type": "AILPBJHDHDG",
          "abilityName": "Avatar_Common_Fishing_Cast_Bullet"
        }
      ]
    }
  },
  "Fishing_Cork": {
    "$type": "CJKJIENLOHD",
    "common": {
      "effectAttachShape": {
        "$type": "OMIODKONOMG"
      },
      "affectedByWorld": true
    },
    "combat": {
      "property": {
        "useCreatorProperty": true
      },
      "combatLock": {
        "lockShape": "CircleLockEnemy",
        "denyLockOn": true,
        "lockType": "Default"
      }
    },
    "combatTemplate": "",
    "abilities": [
      {
        "abilityID": "Avatar_Common_Fishing_Cork",
        "abilityName": "Avatar_Common_Fishing_Cork",
        "abilityOverride": ""
      }
    ],
    "timer": {
      "lifeInfinite": true
    }
  }
}