{
  "SceneObj_Area_Fd_Property_Ani_Tree_EnergyStation_01": {
    "$type": "CJKJIENLOHD",
    "common": {
      "disableTickDistance": 1000000.0
    },
    "globalValue": {
      "serverGlobalValues": [
        "SGV_Is_Block",
        "SGV_RightPosition"
      ],
      "initServerGlobalValues": {
        "SGV_Is_Block": 0.0,
        "SGV_RightPosition": 0.0
      }
    },
    "hasModel": true,
    "combat": {
      "property": {
        "hp": 99999.0,
        "isInvincible": true,
        "isLockHP": true,
        "isGhostToEnemy": true
      },
      "combatLock": {
        "lockShape": "CircleLockEnemy",
        "denyLockOn": true,
        "lockType": "Default"
      }
    },
    "combatTemplate": "",
    "abilities": [
      {
        "abilityID": "SceneObj_Area_Fd_Property_Ani_Tree_EnergyStation_01",
        "abilityName": "SceneObj_Area_Fd_Property_Ani_Tree_EnergyStation_01",
        "abilityOverride": ""
      },
      {
        "abilityID": "Scene_RockGadget_Summon_Detect",
        "abilityName": "Scene_RockGadget_Summon_Detect",
        "abilityOverride": ""
      }
    ],
    "field": {
      "concernType": "AllAvatars",
      "shape": "CircleR2H2",
      "fromShape": "",
      "triggerInfinite": true,
      "lifeInfinite": true,
      "checkInterval": 0.5,
      "overwriteCampType": true,
      "campType": "All",
      "colliderName": "",
      "fromColliderName": ""
    },
    "stateLayers": {
      "defaultLayer": {
        "$type": "GBGJJIIEMBD",
        "layerIndexName": "",
        "CPAANEIJCGD": "",
        "stateIDs": {
          "Stay0": {
            "$type": "BEIEGKBABOF",
            "animatorStates": {
              "Stay0": []
            },
            "cullingModelAlwaysAnimate": true
          },
          "Rot0To90": {
            "$type": "BEIEGKBABOF",
            "animatorStates": {
              "Rot0To90": []
            },
            "cullingModelAlwaysAnimate": true
          },
          "Stay90": {
            "$type": "BEIEGKBABOF",
            "animatorStates": {
              "Stay90": []
            },
            "cullingModelAlwaysAnimate": true
          },
          "Rot90To180": {
            "$type": "BEIEGKBABOF",
            "animatorStates": {
              "Rot90To180": []
            },
            "cullingModelAlwaysAnimate": true
          },
          "Stay180": {
            "$type": "BEIEGKBABOF",
            "animatorStates": {
              "Stay180": []
            },
            "cullingModelAlwaysAnimate": true
          },
          "Rot180To270": {
            "$type": "BEIEGKBABOF",
            "animatorStates": {
              "Rot180To270": []
            },
            "cullingModelAlwaysAnimate": true
          },
          "Stay270": {
            "$type": "BEIEGKBABOF",
            "animatorStates": {
              "Stay270": []
            },
            "cullingModelAlwaysAnimate": true
          },
          "Rot270To360": {
            "$type": "BEIEGKBABOF",
            "animatorStates": {
              "Rot270To360": []
            },
            "cullingModelAlwaysAnimate": true
          }
        }
      }
    }
  },
  "SceneObj_Area_Fd_Property_Ani_Tree_EnergyTerminal_01": {
    "$type": "CJKJIENLOHD",
    "hasModel": true,
    "combat": {
      "property": {
        "hp": 99999.0,
        "isLockHP": true,
        "isGhostToEnemy": true
      },
      "combatLock": {
        "lockShape": "CircleLockEnemy",
        "denyLockOn": true,
        "lockType": "Default"
      }
    },
    "combatTemplate": "",
    "abilities": [
      {
        "abilityID": "SceneObj_Area_Fd_Property_Ani_Tree_EnergyTerminal_01",
        "abilityName": "SceneObj_Area_Fd_Property_Ani_Tree_EnergyTerminal_01",
        "abilityOverride": ""
      },
      {
        "abilityID": "Scene_RockGadget_Summon_Detect",
        "abilityName": "Scene_RockGadget_Summon_Detect",
        "abilityOverride": ""
      }
    ]
  },
  "SceneObj_Area_Fd_Property_Ani_Tree_EnergyTerminal_02": {
    "$type": "CJKJIENLOHD",
    "hasModel": true,
    "combat": {
      "property": {
        "hp": 99999.0,
        "isLockHP": true,
        "isGhostToEnemy": true
      },
      "combatLock": {
        "lockShape": "CircleLockEnemy",
        "denyLockOn": true,
        "lockType": "Default"
      }
    },
    "combatTemplate": "",
    "abilities": [
      {
        "abilityID": "SceneObj_Area_Fd_Property_Ani_Tree_EnergyTerminal_02",
        "abilityName": "SceneObj_Area_Fd_Property_Ani_Tree_EnergyTerminal_02",
        "abilityOverride": ""
      },
      {
        "abilityID": "Scene_RockGadget_Summon_Detect",
        "abilityName": "Scene_RockGadget_Summon_Detect",
        "abilityOverride": ""
      }
    ]
  },
  "SceneObj_Level_Fd_Property_Ani_Prop_GearTurntable_01": {
    "$type": "CJKJIENLOHD",
    "common": {
      "disableTickDistance": 1000000.0
    },
    "hasModel": true,
    "combat": {
      "property": {
        "hp": 1000.0,
        "attack": 100.0,
        "weight": 50.0,
        "isLockHP": true,
        "isGhostToAllied": true,
        "isGhostToEnemy": true
      },
      "beHit": {
        "hitBloodEffect": "",
        "hitAutoRedirect": false,
        "muteAllHitEffect": true,
        "muteAllHitText": true
      },
      "combatLock": {
        "lockShape": "CircleLockEnemy",
        "denyLockOn": true,
        "lockType": "Gadget_Lv1"
      },
      "die": {
        "dieForceDisappearTime": 0.0,
        "dieDisappearEffect": ""
      }
    },
    "combatTemplate": "",
    "abilities": [
      {
        "abilityID": "SceneObj_Level_Fd_Property_Ani_Prop_GearTurntable_01",
        "abilityName": "SceneObj_Level_Fd_Property_Ani_Prop_GearTurntable_01",
        "abilityOverride": ""
      }
    ],
    "move": {
      "$type": "OEFHHKHPMCJ"
    }
  },
  "SceneObj_Level_Fd_Property_Ani_Prop_BarrierGate_01": {
    "$type": "CJKJIENLOHD",
    "common": {
      "disableTickDistance": 100001.0
    },
    "hasModel": true,
    "combat": {
      "property": {
        "hp": 99999.0,
        "attack": 20.0,
        "weight": 50.0,
        "isLockHP": true,
        "isGhostToAllied": true,
        "isGhostToEnemy": true,
        "ignoreDamageToSelf": true
      },
      "beHit": {
        "hitBloodEffect": "",
        "hitAutoRedirect": false,
        "muteAllHitText": true
      },
      "combatLock": {
        "lockShape": "CircleLockEnemy",
        "denyLockOn": true,
        "lockType": "Gadget_Lv1"
      }
    },
    "combatTemplate": "",
    "abilities": [
      {
        "abilityID": "SceneObj_Level_Fd_Property_Ani_Prop_BarrierGate_01",
        "abilityName": "SceneObj_Level_Fd_Property_Ani_Prop_BarrierGate_01",
        "abilityOverride": ""
      }
    ]
  },
  "SceneObj_Level_Fd_Property_Ani_Prop_BarrierGate_02": {
    "$type": "CJKJIENLOHD",
    "common": {
      "disableTickDistance": 100001.0
    },
    "hasModel": true,
    "combat": {
      "property": {
        "hp": 99999.0,
        "attack": 20.0,
        "weight": 50.0,
        "isLockHP": true,
        "isGhostToAllied": true,
        "isGhostToEnemy": true,
        "ignoreDamageToSelf": true
      },
      "beHit": {
        "hitBloodEffect": "",
        "hitAutoRedirect": false,
        "muteAllHitText": true
      },
      "combatLock": {
        "lockShape": "CircleLockEnemy",
        "denyLockOn": true,
        "lockType": "Gadget_Lv1"
      }
    },
    "combatTemplate": "",
    "abilities": [
      {
        "abilityID": "SceneObj_Level_Fd_Property_Ani_Prop_BarrierGate_02",
        "abilityName": "SceneObj_Level_Fd_Property_Ani_Prop_BarrierGate_02",
        "abilityOverride": ""
      }
    ]
  },
  "SceneObj_Level_Fd_Property_Ani_Prop_EnergyOverlookCamera_01": {
    "$type": "CJKJIENLOHD",
    "hasModel": true,
    "combat": {
      "property": {
        "hp": 9999999.0,
        "isInvincible": true,
        "isLockHP": true,
        "isGhostToAllied": true,
        "isGhostToEnemy": true,
        "canTriggerBullet": false
      },
      "beHit": {
        "hitBloodEffect": "",
        "hitAutoRedirect": false,
        "muteAllHitText": true
      },
      "combatLock": {
        "lockShape": "CircleLockEnemy",
        "denyLockOn": true,
        "lockType": "Gadget_Lv1"
      }
    },
    "combatTemplate": "",
    "abilities": [
      {
        "abilityID": "SceneObj_Level_Fd_Property_Ani_Prop_EnergyOverlookCamera_01",
        "abilityName": "SceneObj_Level_Fd_Property_Ani_Prop_EnergyOverlookCamera_01",
        "abilityOverride": ""
      }
    ],
    "cameraAdjust": {
      "priority": 1.0,
      "enterRadius": 30.0,
      "exitRadius": 30.0,
      "heightAdjust": 1.2999999523162842,
      "fov": 60.0,
      "zoom": 9.0,
      "sphericalY": 15.0,
      "lockSphericalY": false,
      "sphericalYUp": 20.0,
      "autoTurnStartMin": 0.0,
      "autoTurnStartMax": 0.0,
      "autoTurnEndMin": 55.0,
      "autoTurnEndMax": 60.0,
      "enterShape": "CircleR30",
      "exitShape": "CircleR40",
      "enterAngle": 360.0,
      "exitAngle": 999.0,
      "OEAICACKIFD": 1.0
    }
  },
  "SceneObj_Level_Fd_Property_Ani_Prop_SealValveSwitch_02": {
    "$type": "CJKJIENLOHD",
    "hasModel": true,
    "combat": {
      "property": {
        "hp": 99999.0,
        "weight": 50.0,
        "isLockHP": true,
        "isGhostToAllied": true
      },
      "beHit": {
        "hitBloodEffect": "",
        "hitAutoRedirect": false,
        "muteAllHitText": true
      },
      "combatLock": {
        "lockShape": "CircleLockEnemy",
        "denyLockOn": true,
        "lockType": "Gadget_Lv1"
      }
    },
    "combatTemplate": "",
    "abilities": [
      {
        "abilityID": "SceneObj_Level_Fd_Property_Ani_Prop_SealValveSwitch_02",
        "abilityName": "SceneObj_Level_Fd_Property_Ani_Prop_SealValveSwitch_02",
        "abilityOverride": ""
      }
    ],
    "field": {
      "concernType": "AllAvatars",
      "shape": "CircleR1.5H3",
      "fromShape": "",
      "triggerInfinite": true,
      "lifeInfinite": true,
      "checkInterval": 0.20000000298023224,
      "overwriteCampType": true,
      "campType": "All",
      "colliderName": "",
      "fromColliderName": ""
    }
  },
  "SceneObj_Level_Common_Property_Ani_Prop_FDPipeDoorLargeWriothesley_01": {
    "$type": "CJKJIENLOHD",
    "common": {
      "disableTickDistance": 100001.0
    },
    "hasModel": true,
    "combat": {
      "property": {
        "hp": 99999.0,
        "attack": 20.0,
        "weight": 50.0,
        "isLockHP": true,
        "isGhostToAllied": true,
        "isGhostToEnemy": true,
        "ignoreDamageToSelf": true
      },
      "beHit": {
        "hitBloodEffect": "",
        "hitAutoRedirect": false,
        "muteAllHitText": true
      },
      "combatLock": {
        "lockShape": "CircleLockEnemy",
        "denyLockOn": true,
        "lockType": "Gadget_Lv1"
      }
    },
    "combatTemplate": "",
    "abilities": [
      {
        "abilityID": "SceneObj_Level_Common_Property_Ani_Prop_FDPipeDoorLargeWriothesley_01",
        "abilityName": "SceneObj_Level_Common_Property_Ani_Prop_FDPipeDoorLargeWriothesley_01",
        "abilityOverride": ""
      }
    ]
  },
  "SceneObj_Level_Common_Property_Ani_Prop_FDPipeDoorSmallWriothesley_01": {
    "$type": "CJKJIENLOHD",
    "common": {
      "disableTickDistance": 100001.0
    },
    "hasModel": true,
    "combat": {
      "property": {
        "hp": 99999.0,
        "attack": 20.0,
        "weight": 50.0,
        "isLockHP": true,
        "isGhostToAllied": true,
        "isGhostToEnemy": true,
        "ignoreDamageToSelf": true
      },
      "beHit": {
        "hitBloodEffect": "",
        "hitAutoRedirect": false,
        "muteAllHitText": true
      },
      "combatLock": {
        "lockShape": "CircleLockEnemy",
        "denyLockOn": true,
        "lockType": "Gadget_Lv1"
      }
    },
    "combatTemplate": "",
    "abilities": [
      {
        "abilityID": "SceneObj_Level_Common_Property_Ani_Prop_FDPipeDoorSmallWriothesley_01",
        "abilityName": "SceneObj_Level_Common_Property_Ani_Prop_FDPipeDoorSmallWriothesley_01",
        "abilityOverride": ""
      }
    ]
  },
  "SceneObj_Level_Fd_Property_Ani_Prop_SealValveSwitch_03": {
    "$type": "CJKJIENLOHD",
    "globalValue": {
      "serverGlobalValues": [
        "SGV_Rotate"
      ],
      "initServerGlobalValues": {
        "SGV_Rotate": 0.0
      }
    },
    "hasModel": true,
    "combat": {
      "property": {
        "hp": 99999.0,
        "weight": 50.0,
        "isLockHP": true,
        "isGhostToAllied": true,
        "isGhostToEnemy": true
      },
      "beHit": {
        "hitBloodEffect": "",
        "hitAutoRedirect": false,
        "muteAllHitText": true
      },
      "combatLock": {
        "lockShape": "CircleLockEnemy",
        "denyLockOn": true,
        "lockType": "Gadget_Lv1"
      }
    },
    "combatTemplate": "",
    "abilities": [
      {
        "abilityID": "SceneObj_Level_Fd_Property_Ani_Prop_SealValveSwitch_03",
        "abilityName": "SceneObj_Level_Fd_Property_Ani_Prop_SealValveSwitch_03",
        "abilityOverride": ""
      },
      {
        "abilityID": "Scene_RockGadget_Summon_Detect",
        "abilityName": "Scene_RockGadget_Summon_Detect",
        "abilityOverride": ""
      }
    ],
    "field": {
      "concernType": "AllAvatars",
      "shape": "CircleR1.5H3",
      "fromShape": "",
      "triggerInfinite": true,
      "lifeInfinite": true,
      "checkInterval": 0.20000000298023224,
      "overwriteCampType": true,
      "campType": "All",
      "colliderName": "",
      "fromColliderName": ""
    }
  }
}