{
  "SceneObj_Level_Common_Property_Prop_RunesParent_01": {
    "$type": "CJKJIENLOHD",
    "common": {
      "disableTickDistance": 100000.0
    },
    "combatTemplate": "",
    "abilities": [
      {
        "abilityID": "Ability_01",
        "abilityName": "SceneObj_Level_Common_Property_Prop_RunesParent_01_Ability",
        "abilityOverride": ""
      }
    ]
  },
  "SceneObj_Level_Common_Property_Prop_RunesParent_02": {
    "$type": "CJKJIENLOHD",
    "common": {
      "disableTickDistance": 100000.0
    },
    "hasModel": true,
    "combat": {
      "property": {
        "hp": 99999.0,
        "isInvincible": true,
        "isLockHP": true,
        "isGhostToAllied": true,
        "isGhostToEnemy": true
      }
    },
    "combatTemplate": "",
    "abilities": [
      {
        "abilityID": "Ability_01",
        "abilityName": "SceneObj_Level_Common_Property_Prop_RunesParent_02_Ability",
        "abilityOverride": ""
      }
    ],
    "field": {
      "concernType": "LocalAvatar",
      "shape": "CircleR2",
      "fromShape": "",
      "triggerInfinite": true,
      "lifeInfinite": true,
      "checkInterval": 0.5,
      "overwriteCampType": true,
      "campType": "SelfCamp",
      "colliderName": "",
      "fromColliderName": ""
    }
  },
  "SceneObj_Level_Common_Property_Prop_RunesChild_01": {
    "$type": "CJKJIENLOHD",
    "common": {
      "disableTickDistance": 100000.0
    },
    "combatTemplate": "",
    "abilities": [
      {
        "abilityID": "Ability_01",
        "abilityName": "SceneObj_Level_Common_Property_Prop_RunesChild_01_Ability",
        "abilityOverride": ""
      }
    ],
    "gadgetAction": {
      "gadgetStateActionList": [
        {
          "$type": "FJGKLJLPOGL",
          "intID": "State"
        },
        {
          "$type": "FJGKLJLPOGL",
          "triggerID": "GearStart",
          "intID": "State",
          "value": 201
        },
        {
          "$type": "FJGKLJLPOGL",
          "triggerID": "GearStop",
          "intID": "State",
          "value": 201
        }
      ]
    }
  },
  "SceneObj_Level_Common_Property_Prop_RunesChild_02": {
    "$type": "CJKJIENLOHD",
    "common": {
      "disableTickDistance": 100000.0
    },
    "combatTemplate": "",
    "abilities": [
      {
        "abilityID": "Ability_01",
        "abilityName": "SceneObj_Level_Common_Property_Prop_RunesChild_02_Ability",
        "abilityOverride": ""
      }
    ],
    "gadgetAction": {
      "gadgetStateActionList": [
        {
          "$type": "FJGKLJLPOGL",
          "intID": "State"
        },
        {
          "$type": "FJGKLJLPOGL",
          "triggerID": "GearStart",
          "intID": "State",
          "value": 201
        },
        {
          "$type": "FJGKLJLPOGL",
          "triggerID": "GearStop",
          "intID": "State",
          "value": 201
        }
      ]
    }
  },
  "SceneObj_Level_Common_Property_Prop_RunesChild_03": {
    "$type": "CJKJIENLOHD",
    "common": {
      "disableTickDistance": 100000.0
    },
    "combatTemplate": "",
    "abilities": [
      {
        "abilityID": "Ability_01",
        "abilityName": "SceneObj_Level_Common_Property_Prop_RunesChild_03_Ability",
        "abilityOverride": ""
      }
    ],
    "gadgetAction": {
      "gadgetStateActionList": [
        {
          "$type": "FJGKLJLPOGL",
          "intID": "State"
        },
        {
          "$type": "FJGKLJLPOGL",
          "triggerID": "GearStart",
          "intID": "State",
          "value": 201
        },
        {
          "$type": "FJGKLJLPOGL",
          "triggerID": "GearStop",
          "intID": "State",
          "value": 201
        }
      ]
    }
  },
  "SceneObj_Gear_Dungeon_MistTrial_Ball_AttackUp": {
    "$type": "CJKJIENLOHD",
    "hasModel": true,
    "combat": {
      "property": {
        "hp": 10000.0,
        "attack": 30.0,
        "isLockHP": true,
        "isGhostToAllied": true,
        "isGhostToEnemy": true,
        "ignorePurgeRate": true
      },
      "beHit": {
        "hitBloodEffect": "",
        "hitAutoRedirect": false,
        "muteAllHitText": true
      },
      "combatLock": {
        "lockShape": "CircleLockEnemy",
        "denyLockOn": true,
        "lockType": "Gadget_Lv1"
      }
    },
    "combatTemplate": "",
    "abilities": [
      {
        "abilityID": "Ability_01",
        "abilityName": "SceneObj_Gear_Dungeon_MistTrial_Ball_AttackUp",
        "abilityOverride": ""
      }
    ],
    "field": {
      "concernType": "AllAvatars",
      "shape": "CircleR1",
      "fromShape": "",
      "triggerInfinite": true,
      "lifeInfinite": true,
      "checkInterval": 0.5,
      "overwriteCampType": true,
      "campType": "All",
      "colliderName": "",
      "fromColliderName": ""
    }
  },
  "SceneObj_Gear_Dungeon_MistTrial_Ball_Heal": {
    "$type": "CJKJIENLOHD",
    "hasModel": true,
    "combat": {
      "property": {
        "hp": 10000.0,
        "attack": 30.0,
        "isLockHP": true,
        "isGhostToAllied": true,
        "isGhostToEnemy": true,
        "ignorePurgeRate": true
      },
      "beHit": {
        "hitBloodEffect": "",
        "hitAutoRedirect": false,
        "muteAllHitText": true
      },
      "combatLock": {
        "lockShape": "CircleLockEnemy",
        "denyLockOn": true,
        "lockType": "Gadget_Lv1"
      }
    },
    "combatTemplate": "",
    "abilities": [
      {
        "abilityID": "Ability_01",
        "abilityName": "SceneObj_Gear_Dungeon_MistTrial_Ball_Heal",
        "abilityOverride": ""
      }
    ],
    "field": {
      "concernType": "AllAvatars",
      "shape": "CircleR1",
      "fromShape": "",
      "triggerInfinite": true,
      "lifeInfinite": true,
      "checkInterval": 0.5,
      "overwriteCampType": true,
      "campType": "All",
      "colliderName": "",
      "fromColliderName": ""
    }
  },
  "SceneObj_Gear_Dungeon_MistTrial_Ball_SpeedUp": {
    "$type": "CJKJIENLOHD",
    "hasModel": true,
    "combat": {
      "property": {
        "hp": 10000.0,
        "attack": 30.0,
        "isLockHP": true,
        "isGhostToAllied": true,
        "isGhostToEnemy": true,
        "ignorePurgeRate": true
      },
      "beHit": {
        "hitBloodEffect": "",
        "hitAutoRedirect": false,
        "muteAllHitText": true
      },
      "combatLock": {
        "lockShape": "CircleLockEnemy",
        "denyLockOn": true,
        "lockType": "Gadget_Lv1"
      }
    },
    "combatTemplate": "",
    "abilities": [
      {
        "abilityID": "Ability_01",
        "abilityName": "SceneObj_Gear_Dungeon_MistTrial_Ball_SpeedUp",
        "abilityOverride": ""
      }
    ],
    "field": {
      "concernType": "AllAvatars",
      "shape": "CircleR1",
      "fromShape": "",
      "triggerInfinite": true,
      "lifeInfinite": true,
      "checkInterval": 0.5,
      "overwriteCampType": true,
      "campType": "All",
      "colliderName": "",
      "fromColliderName": ""
    }
  },
  "SceneObj_Level_Common_Property_Prop_TowerBridge_02": {
    "$type": "CJKJIENLOHD",
    "model": {
      "bornEffect": "",
      "attachEffect": "Eff_SceneObj_DungeonLightBridge_01",
      "BKPFGNPLDNJ": ""
    },
    "hasModel": true,
    "combat": {
      "property": {
        "hp": 99999.0,
        "attack": 200.0,
        "weight": 50.0,
        "isLockHP": true
      },
      "beHit": {
        "hitBloodEffect": "",
        "hitAutoRedirect": false,
        "muteAllHitText": true
      },
      "combatLock": {
        "lockShape": "CircleLockEnemy",
        "denyLockOn": true,
        "lockType": "Gadget_Lv1"
      }
    },
    "combatTemplate": "",
    "gadgetAction": {
      "gadgetStateActionList": [
        {
          "$type": "FJGKLJLPOGL",
          "intID": "gadgetState",
          "syncState": true
        },
        {
          "$type": "OLDOOKBEKJI",
          "parameter": "gadgetState",
          "damageRatio": "Int",
          "rotationDampTime": "Eff_SceneObj_DungeonLightBridge_01"
        },
        {
          "$type": "OLDOOKBEKJI",
          "triggerID": "GearStart",
          "parameter": "gadgetState",
          "damageRatio": "Int",
          "value": 201,
          "rotationDampTime": "Eff_SceneObj_DungeonLightBridge_01"
        }
      ]
    }
  },
  "SceneObj_Level_Common_Property_Ani_Prop_StageFireBasket_01": {
    "$type": "CJKJIENLOHD",
    "hasModel": true,
    "combat": {
      "property": {
        "hp": 99999.0,
        "attack": 200.0,
        "weight": 50.0,
        "isLockHP": true,
        "isGhostToAllied": true,
        "isGhostToEnemy": true
      },
      "beHit": {
        "hitBloodEffect": "",
        "hitAutoRedirect": false,
        "muteAllHitText": true
      },
      "combatLock": {
        "lockShape": "CircleLockEnemy",
        "denyLockOn": true,
        "lockType": "Gadget_Lv1"
      }
    },
    "combatTemplate": "",
    "abilities": [
      {
        "abilityID": "SceneObj_Level_Common_Property_Ani_Prop_StageFireBasket_01",
        "abilityName": "SceneObj_Level_Common_Property_Ani_Prop_StageFireBasket_01",
        "abilityOverride": ""
      }
    ]
  },
  "SceneObj_Level_Common_Property_Ani_Prop_StageSmallFireBasket_01": {
    "$type": "CJKJIENLOHD",
    "hasModel": true,
    "combat": {
      "property": {
        "hp": 99999.0,
        "attack": 200.0,
        "weight": 50.0,
        "isLockHP": true,
        "isGhostToAllied": true,
        "isGhostToEnemy": true
      },
      "beHit": {
        "hitBloodEffect": "",
        "hitAutoRedirect": false,
        "muteAllHitText": true
      },
      "combatLock": {
        "lockShape": "CircleLockEnemy",
        "denyLockOn": true,
        "lockType": "Gadget_Lv1"
      }
    },
    "combatTemplate": "",
    "abilities": [
      {
        "abilityID": "SceneObj_Level_Common_Property_Ani_Prop_StageSmallFireBasket_01",
        "abilityName": "SceneObj_Level_Common_Property_Ani_Prop_StageSmallFireBasket_01",
        "abilityOverride": ""
      }
    ]
  },
  "SceneObj_Level_Common_Property_Ani_Prop_StageHangLamp_01": {
    "$type": "CJKJIENLOHD",
    "hasModel": true,
    "combat": {
      "property": {
        "hp": 99999.0,
        "attack": 200.0,
        "weight": 50.0,
        "isLockHP": true,
        "isGhostToAllied": true,
        "isGhostToEnemy": true
      },
      "beHit": {
        "hitBloodEffect": "",
        "hitAutoRedirect": false,
        "muteAllHitText": true
      },
      "combatLock": {
        "lockShape": "CircleLockEnemy",
        "denyLockOn": true,
        "lockType": "Gadget_Lv1"
      }
    },
    "combatTemplate": "",
    "abilities": [
      {
        "abilityID": "SceneObj_Level_Common_Property_Ani_Prop_StageHangLamp_01",
        "abilityName": "SceneObj_Level_Common_Property_Ani_Prop_StageHangLamp_01",
        "abilityOverride": ""
      }
    ]
  },
  "SceneObj_Level_Common_Property_Prop_SumoAtmosphere": {
    "$type": "CJKJIENLOHD",
    "hasModel": true,
    "combat": {
      "property": {
        "hp": 99999.0,
        "attack": 200.0,
        "weight": 50.0,
        "isLockHP": true,
        "isGhostToAllied": true,
        "isGhostToEnemy": true
      },
      "beHit": {
        "hitBloodEffect": "",
        "hitAutoRedirect": false,
        "muteAllHitText": true
      },
      "combatLock": {
        "lockShape": "CircleLockEnemy",
        "denyLockOn": true,
        "lockType": "Gadget_Lv1"
      }
    },
    "combatTemplate": "",
    "abilities": [
      {
        "abilityID": "SceneObj_Level_Common_Property_Prop_SumoAtmosphere",
        "abilityName": "SceneObj_Level_Common_Property_Prop_SumoAtmosphere",
        "abilityOverride": ""
      }
    ]
  },
  "SceneObj_Level_Common_Property_Ani_Prop_EffectOperatorBattle_01": {
    "$type": "CJKJIENLOHD",
    "hasModel": true,
    "combat": {
      "property": {
        "hp": 99999.0,
        "isInvincible": true,
        "isLockHP": true,
        "isGhostToAllied": true,
        "isGhostToEnemy": true
      }
    },
    "combatTemplate": "",
    "abilities": [
      {
        "abilityID": "SceneObj_Level_Common_Property_Ani_Prop_EffectOperatorBattle_01_Ability",
        "abilityName": "SceneObj_Level_Common_Property_Ani_Prop_EffectOperatorBattle_01_Ability",
        "abilityOverride": ""
      }
    ],
    "field": {
      "concernType": "LocalAvatar",
      "shape": "CircleR2H2",
      "fromShape": "",
      "triggerInfinite": true,
      "lifeInfinite": true,
      "checkInterval": 0.5,
      "overwriteCampType": true,
      "campType": "SelfCamp",
      "colliderName": "",
      "fromColliderName": ""
    }
  },
  "SceneObj_Level_Common_Property_Ani_Prop_EffectOperatorRevive_01": {
    "$type": "CJKJIENLOHD",
    "hasModel": true,
    "combat": {
      "property": {
        "hp": 99999.0,
        "isInvincible": true,
        "isLockHP": true,
        "isGhostToAllied": true,
        "isGhostToEnemy": true
      }
    },
    "combatTemplate": "",
    "abilities": [
      {
        "abilityID": "SceneObj_Level_Common_Property_Ani_Prop_EffectOperatorRevive_01_Ability",
        "abilityName": "SceneObj_Level_Common_Property_Ani_Prop_EffectOperatorRevive_01_Ability",
        "abilityOverride": ""
      }
    ],
    "field": {
      "concernType": "LocalAvatar",
      "shape": "CircleR2H2",
      "fromShape": "",
      "triggerInfinite": true,
      "lifeInfinite": true,
      "checkInterval": 0.5,
      "overwriteCampType": true,
      "campType": "SelfCamp",
      "colliderName": "",
      "fromColliderName": ""
    }
  },
  "SceneObj_Level_Xm_Property_Prop_LostCityRunesParent_01": {
    "$type": "CJKJIENLOHD",
    "common": {
      "disableTickDistance": 100000.0
    },
    "hasModel": true,
    "combat": {
      "property": {
        "hp": 99999.0,
        "isInvincible": true,
        "isLockHP": true,
        "isGhostToAllied": true,
        "isGhostToEnemy": true
      }
    },
    "combatTemplate": "",
    "abilities": [
      {
        "abilityID": "Ability_01",
        "abilityName": "SceneObj_Level_Xm_Property_Prop_LostCityRunesParent_01_Ability",
        "abilityOverride": ""
      }
    ],
    "field": {
      "concernType": "LocalAvatar",
      "shape": "CircleR2",
      "fromShape": "",
      "triggerInfinite": true,
      "lifeInfinite": true,
      "checkInterval": 0.5,
      "overwriteCampType": true,
      "campType": "SelfCamp",
      "colliderName": "",
      "fromColliderName": ""
    }
  },
  "SceneObj_Level_Xm_Property_Prop_LostCityRunesChild_01": {
    "$type": "CJKJIENLOHD",
    "common": {
      "disableTickDistance": 100000.0
    },
    "combatTemplate": "",
    "abilities": [
      {
        "abilityID": "Ability_01",
        "abilityName": "SceneObj_Level_Xm_Property_Prop_LostCityRunesChild_01_Ability",
        "abilityOverride": ""
      }
    ],
    "gadgetAction": {
      "gadgetStateActionList": [
        {
          "$type": "FJGKLJLPOGL",
          "intID": "State"
        },
        {
          "$type": "FJGKLJLPOGL",
          "triggerID": "GearStart",
          "intID": "State",
          "value": 201
        },
        {
          "$type": "FJGKLJLPOGL",
          "triggerID": "GearStop",
          "intID": "State",
          "value": 201
        }
      ]
    }
  },
  "SceneObj_Level_Xm_Property_Prop_LostCityRunesChild_02": {
    "$type": "CJKJIENLOHD",
    "common": {
      "disableTickDistance": 100000.0
    },
    "combatTemplate": "",
    "abilities": [
      {
        "abilityID": "Ability_01",
        "abilityName": "SceneObj_Level_Xm_Property_Prop_LostCityRunesChild_02_Ability",
        "abilityOverride": ""
      }
    ],
    "gadgetAction": {
      "gadgetStateActionList": [
        {
          "$type": "FJGKLJLPOGL",
          "intID": "State"
        },
        {
          "$type": "FJGKLJLPOGL",
          "triggerID": "GearStart",
          "intID": "State",
          "value": 201
        },
        {
          "$type": "FJGKLJLPOGL",
          "triggerID": "GearStop",
          "intID": "State",
          "value": 201
        }
      ]
    }
  },
  "SceneObj_Level_Xm_Property_Prop_LostCityRunesChild_03": {
    "$type": "CJKJIENLOHD",
    "common": {
      "disableTickDistance": 100000.0
    },
    "combatTemplate": "",
    "abilities": [
      {
        "abilityID": "Ability_01",
        "abilityName": "SceneObj_Level_Xm_Property_Prop_LostCityRunesChild_03_Ability",
        "abilityOverride": ""
      }
    ],
    "gadgetAction": {
      "gadgetStateActionList": [
        {
          "$type": "FJGKLJLPOGL",
          "intID": "State"
        },
        {
          "$type": "FJGKLJLPOGL",
          "triggerID": "GearStart",
          "intID": "State",
          "value": 201
        },
        {
          "$type": "FJGKLJLPOGL",
          "triggerID": "GearStop",
          "intID": "State",
          "value": 201
        }
      ]
    }
  },
  "SceneObj_Level_Common_Property_Ani_Bridge_LyFloatingBridge_01": {
    "$type": "CJKJIENLOHD",
    "model": {
      "bornEffect": "",
      "attachEffect": "Eff_SceneObj_LyFloatingBridge",
      "BKPFGNPLDNJ": ""
    },
    "hasModel": true,
    "combat": {
      "property": {
        "hp": 99999.0,
        "attack": 200.0,
        "weight": 50.0,
        "isLockHP": true
      },
      "beHit": {
        "hitBloodEffect": "",
        "hitAutoRedirect": false,
        "muteAllHitText": true
      },
      "combatLock": {
        "lockShape": "CircleLockEnemy",
        "denyLockOn": true,
        "lockType": "Gadget_Lv1"
      }
    },
    "combatTemplate": "",
    "abilities": [
      {
        "abilityID": "SceneObj_Level_Common_Property_Ani_Bridge_LyFloatingBridge_01",
        "abilityName": "SceneObj_Level_Common_Property_Ani_Bridge_LyFloatingBridge_01",
        "abilityOverride": ""
      }
    ],
    "gadgetAction": {
      "gadgetStateActionList": [
        {
          "$type": "FJGKLJLPOGL",
          "intID": "gadgetState",
          "syncState": true
        },
        {
          "$type": "OLDOOKBEKJI",
          "parameter": "gadgetState",
          "damageRatio": "Int",
          "rotationDampTime": "Eff_SceneObj_LyFloatingBridge"
        },
        {
          "$type": "OLDOOKBEKJI",
          "triggerID": "GearStart",
          "parameter": "gadgetState",
          "damageRatio": "Int",
          "value": 201,
          "rotationDampTime": "Eff_SceneObj_LyFloatingBridge"
        }
      ]
    }
  },
  "SceneObj_Area_Cyg_Property_Ani_Water_BJCave_Waterplatform_01": {
    "$type": "CJKJIENLOHD",
    "common": {
      "disableTickDistance": 1500.0
    },
    "combat": {
      "property": {
        "hp": 1000.0,
        "attack": 100.0,
        "weight": 50.0,
        "isLockHP": true
      },
      "beHit": {
        "hitBloodEffect": "",
        "hitAutoRedirect": false,
        "muteAllHitEffect": true,
        "muteAllHitText": true
      },
      "combatLock": {
        "lockShape": "CircleLockEnemy",
        "denyLockOn": true,
        "lockType": "Gadget_Lv1"
      },
      "die": {
        "dieForceDisappearTime": 0.0,
        "dieDisappearEffect": ""
      }
    },
    "combatTemplate": "",
    "move": {
      "$type": "OEFHHKHPMCJ",
      "isMovingWater": true
    }
  }
}