{
  "SceneObj_Dehya_LaserGenerator": {
    "$type": "CJKJIENLOHD",
    "common": {},
    "hasModel": true,
    "combat": {
      "property": {
        "hp": 99999.0,
        "attack": 20.0,
        "weight": 0.0,
        "isLockHP": true,
        "ignoreDamageToSelf": true
      },
      "beHit": {
        "hitBloodEffect": "",
        "hitAutoRedirect": false,
        "muteAllHitText": true
      },
      "combatLock": {
        "lockShape": "CircleLockEnemy",
        "denyLockOn": true,
        "lockType": "Default"
      }
    },
    "combatTemplate": "",
    "abilities": [
      {
        "abilityID": "SceneObj_Dehya_LaserGenerator",
        "abilityName": "SceneObj_Dehya_LaserGenerator",
        "abilityOverride": ""
      },
      {
        "abilityID": "Ability_02",
        "abilityName": "Scene_RockGadget_Summon_Detect",
        "abilityOverride": ""
      }
    ],
    "field": {
      "concernType": "AllAvatars",
      "shape": "CircleR2H2",
      "fromShape": "",
      "triggerInfinite": true,
      "lifeInfinite": true,
      "checkInterval": 0.30000001192092896,
      "overwriteCampType": true,
      "campType": "All",
      "colliderName": "",
      "fromColliderName": ""
    },
    "gadgetAction": {
      "gadgetStateActionList": [
        {
          "$type": "FJGKLJLPOGL",
          "intID": "GadgetState",
          "syncState": true
        }
      ]
    }
  },
  "SceneObj_Dehya_LaserStoneBlocker": {
    "$type": "CJKJIENLOHD",
    "common": {},
    "hasModel": true,
    "combat": {
      "property": {
        "hp": 99999.0,
        "attack": 20.0,
        "weight": 0.0,
        "isLockHP": true,
        "ignoreDamageToSelf": true
      },
      "beHit": {
        "hitBloodEffect": "",
        "hitAutoRedirect": false,
        "muteAllHitText": true
      },
      "combatLock": {
        "lockShape": "CircleLockEnemy",
        "denyLockOn": true,
        "lockType": "Default"
      }
    },
    "combatTemplate": "",
    "abilities": [
      {
        "abilityID": "Ability_01",
        "abilityName": "SceneObj_Dehya_LaserStoneBlocker",
        "abilityOverride": ""
      },
      {
        "abilityID": "Ability_02",
        "abilityName": "Scene_RockGadget_Summon_Detect",
        "abilityOverride": ""
      }
    ],
    "field": {
      "concernType": "AllAvatars",
      "shape": "CircleR2H2",
      "fromShape": "",
      "triggerInfinite": true,
      "lifeInfinite": true,
      "checkInterval": 0.30000001192092896,
      "overwriteCampType": true,
      "campType": "All",
      "colliderName": "",
      "fromColliderName": ""
    },
    "move": {
      "$type": "OEFHHKHPMCJ"
    },
    "gadgetAction": {
      "gadgetStateActionList": [
        {
          "$type": "FJGKLJLPOGL",
          "intID": "GadgetState",
          "syncState": true
        }
      ]
    }
  },
  "SceneObj_Dehya_LaserRune": {
    "$type": "CJKJIENLOHD",
    "common": {},
    "hasModel": true,
    "combat": {
      "property": {
        "hp": 99999.0,
        "attack": 20.0,
        "weight": 0.0,
        "isLockHP": true,
        "ignoreDamageToSelf": true
      },
      "beHit": {
        "hitBloodEffect": "",
        "hitAutoRedirect": false,
        "muteAllHitText": true
      },
      "combatLock": {
        "lockShape": "CircleLockEnemy",
        "denyLockOn": true,
        "lockType": "Default"
      }
    },
    "combatTemplate": "",
    "abilities": [
      {
        "abilityID": "Ability_01",
        "abilityName": "SceneObj_Dehya_LaserRune",
        "abilityOverride": ""
      },
      {
        "abilityID": "Ability_02",
        "abilityName": "SceneObj_Dehya_Rune_Attribute_Purple",
        "abilityOverride": ""
      }
    ],
    "move": {
      "$type": "MMAPEFIEGAL",
      "target": "GroupGadgetEntity",
      "attachPoint": "",
      "followRotation": true,
      "handleInLateTick": true,
      "LFOHLEKJFBI": ""
    }
  },
  "SceneObj_Dehya_ProgressBar": {
    "$type": "CJKJIENLOHD",
    "common": {},
    "globalValue": {
      "serverGlobalValues": [
        "SGV_DEHYA_CUR_PROGRESS"
      ],
      "initServerGlobalValues": {
        "SGV_DEHYA_CUR_PROGRESS": 0.0
      }
    },
    "combat": {
      "property": {
        "hp": 99999.0,
        "attack": 20.0,
        "weight": 0.0,
        "isLockHP": true,
        "ignoreDamageToSelf": true
      },
      "beHit": {
        "hitBloodEffect": "",
        "hitAutoRedirect": false,
        "muteAllHitText": true
      },
      "combatLock": {
        "lockShape": "CircleLockEnemy",
        "denyLockOn": true,
        "lockType": "Default"
      }
    },
    "combatTemplate": "",
    "abilities": [
      {
        "abilityID": "Ability_01",
        "abilityName": "SceneObj_Dehya_ProgressBar",
        "abilityOverride": ""
      }
    ]
  },
  "SceneObj_Dehya_LaserRune_Purple": {
    "$type": "CJKJIENLOHD",
    "common": {},
    "hasModel": true,
    "combat": {
      "property": {
        "hp": 99999.0,
        "attack": 20.0,
        "weight": 0.0,
        "isLockHP": true,
        "ignoreDamageToSelf": true
      },
      "beHit": {
        "hitBloodEffect": "",
        "hitAutoRedirect": false,
        "muteAllHitText": true
      },
      "combatLock": {
        "lockShape": "CircleLockEnemy",
        "denyLockOn": true,
        "lockType": "Default"
      }
    },
    "combatTemplate": "",
    "abilities": [
      {
        "abilityID": "Ability_01",
        "abilityName": "SceneObj_Dehya_LaserRune",
        "abilityOverride": ""
      },
      {
        "abilityID": "Ability_02",
        "abilityName": "SceneObj_Dehya_Rune_Attribute_Purple",
        "abilityOverride": ""
      }
    ],
    "move": {
      "$type": "MMAPEFIEGAL",
      "target": "GroupGadgetEntity",
      "attachPoint": "",
      "followRotation": true,
      "handleInLateTick": true,
      "LFOHLEKJFBI": ""
    }
  },
  "SceneObj_Dehya_LaserRune_Orange": {
    "$type": "CJKJIENLOHD",
    "common": {},
    "hasModel": true,
    "combat": {
      "property": {
        "hp": 99999.0,
        "attack": 20.0,
        "weight": 0.0,
        "isLockHP": true,
        "ignoreDamageToSelf": true
      },
      "beHit": {
        "hitBloodEffect": "",
        "hitAutoRedirect": false,
        "muteAllHitText": true
      },
      "combatLock": {
        "lockShape": "CircleLockEnemy",
        "denyLockOn": true,
        "lockType": "Default"
      }
    },
    "combatTemplate": "",
    "abilities": [
      {
        "abilityID": "Ability_01",
        "abilityName": "SceneObj_Dehya_LaserRune",
        "abilityOverride": ""
      },
      {
        "abilityID": "Ability_02",
        "abilityName": "SceneObj_Dehya_Rune_Attribute_Orange",
        "abilityOverride": ""
      }
    ],
    "move": {
      "$type": "MMAPEFIEGAL",
      "target": "GroupGadgetEntity",
      "attachPoint": "",
      "followRotation": true,
      "handleInLateTick": true,
      "LFOHLEKJFBI": ""
    }
  },
  "SceneObj_Dehya_LaserReceiver_Purple": {
    "$type": "CJKJIENLOHD",
    "common": {},
    "hasModel": true,
    "combat": {
      "property": {
        "hp": 99999.0,
        "attack": 20.0,
        "weight": 0.0,
        "isLockHP": true,
        "ignoreDamageToSelf": true
      },
      "beHit": {
        "hitBloodEffect": "",
        "hitAutoRedirect": false,
        "muteAllHitText": true
      },
      "combatLock": {
        "lockShape": "CircleLockEnemy",
        "denyLockOn": true,
        "lockType": "Default"
      }
    },
    "combatTemplate": "",
    "abilities": [
      {
        "abilityID": "Ability_01",
        "abilityName": "SceneObj_Dehya_LaserReceiver",
        "abilityOverride": ""
      },
      {
        "abilityID": "Ability_02",
        "abilityName": "Scene_RockGadget_Summon_Detect",
        "abilityOverride": ""
      },
      {
        "abilityID": "Ability_03",
        "abilityName": "SceneObj_Dehya_Rune_Attribute_Purple",
        "abilityOverride": ""
      }
    ]
  },
  "SceneObj_Dehya_LaserReceiver_Orange": {
    "$type": "CJKJIENLOHD",
    "common": {},
    "hasModel": true,
    "combat": {
      "property": {
        "hp": 99999.0,
        "attack": 20.0,
        "weight": 0.0,
        "isLockHP": true,
        "ignoreDamageToSelf": true
      },
      "beHit": {
        "hitBloodEffect": "",
        "hitAutoRedirect": false,
        "muteAllHitText": true
      },
      "combatLock": {
        "lockShape": "CircleLockEnemy",
        "denyLockOn": true,
        "lockType": "Default"
      }
    },
    "combatTemplate": "",
    "abilities": [
      {
        "abilityID": "Ability_01",
        "abilityName": "SceneObj_Dehya_LaserReceiver",
        "abilityOverride": ""
      },
      {
        "abilityID": "Ability_02",
        "abilityName": "Scene_RockGadget_Summon_Detect",
        "abilityOverride": ""
      },
      {
        "abilityID": "Ability_03",
        "abilityName": "SceneObj_Dehya_Rune_Attribute_Orange",
        "abilityOverride": ""
      }
    ]
  }
}