{
  "SceneObj_Penumbra_Common_Property_Ani_Prop_Cannon_02": {
    "$type": "CJKJIENLOHD",
    "hasModel": true,
    "combat": {
      "property": {
        "hp": 99999.0,
        "attack": 20.0,
        "weight": 50.0,
        "isLockHP": true,
        "ignoreDamageToSelf": true
      },
      "beHit": {
        "hitBloodEffect": "",
        "hitAutoRedirect": false,
        "muteAllHitText": true
      },
      "combatLock": {
        "lockShape": "CircleLockEnemy",
        "denyLockOn": true,
        "lockType": "Gadget_Lv1"
      }
    },
    "combatTemplate": "",
    "abilities": [
      {
        "abilityID": "TargetShooting_Cannon_Init",
        "abilityName": "TargetShooting_Cannon_Init",
        "abilityOverride": ""
      },
      {
        "abilityID": "TargetShooting_Extra_Magzine",
        "abilityName": "TargetShooting_Extra_Magzine",
        "abilityOverride": ""
      },
      {
        "abilityID": "TargetShooting_Reload",
        "abilityName": "TargetShooting_Reload",
        "abilityOverride": ""
      },
      {
        "abilityID": "TargetShooting_Cannon_Shot",
        "abilityName": "TargetShooting_Cannon_Shot",
        "abilityOverride": ""
      },
      {
        "abilityID": "Scene_RockGadget_Summon_Detect",
        "abilityName": "Scene_RockGadget_Summon_Detect",
        "abilityOverride": ""
      }
    ],
    "field": {
      "concernType": "AllAvatars",
      "shape": "CircleR3H5",
      "fromShape": "",
      "triggerInfinite": true,
      "lifeInfinite": true,
      "checkInterval": 0.10000000149011612,
      "overwriteCampType": true,
      "campType": "SelfCamp",
      "colliderName": "",
      "fromColliderName": ""
    },
    "uiInteract": {
      "gadgetUIBtnCfgPath": "TEST/TEST_Chest_Btn",
      "uiName": "UI_GADGET_TargetShooting_Cannon_OPERATE",
      "onTouch": "WidgetMPSupport",
      "touchParams": [
        "TargetShooting_Cannon_Init"
      ],
      "icon": "",
      "groupName": "",
      "confirmDialogTitle": "",
      "confirmDialogContent": "",
      "canOnlyInteractInStandStill": true
    },
    "misc": {
      "customGadgetColliderControl": {
        "HOMPNNLMJLP": "CameraPivot",
        "BCPCMAOMAKM": {
          "y": 2.5,
          "z": -1.0
        },
        "IDLGDFOCOHC": 6.0,
        "OAHBBHBALIB": 50.0,
        "LAMAFBBJBID": 22,
        "NGHDIFANHHA": -55.0,
        "PHFPFCJFGNC": 25.0,
        "FCIODJCBFHE": -90.0,
        "GHKGNGLJGFA": 90.0,
        "HONBKBEPNEI": true,
        "MOBEEJIGMID": [
          70291144,
          70291145,
          70291146,
          70291147,
          70291148,
          70291149,
          70291150
        ],
        "PKGOEJGOCND": 4.411799907684326,
        "MFFLDKPAANM": 0.6499999761581421,
        "EDLFDNMJFOH": 0.44999998807907104,
        "AHBBCBLJGDI": "TargetShooting_Cannon_Shot",
        "INPMFOOMMAO": "TargetShooting_Reload",
        "HDBFKELDCCE": "_LOCAL_MAX_AMMO",
        "FHDHMHAKEMD": "_CURRENT_AMMO_NUMBER",
        "HNFLGPFJIBG": "_AMMO_RELOADING"
      },
      "escapeEffect": ""
    }
  },
  "Penumbra_CannonBall_01": {
    "$type": "CJKJIENLOHD",
    "common": {
      "disableTickDistance": 100000.0
    },
    "model": {
      "bornEffect": "",
      "attachEffect": "",
      "BKPFGNPLDNJ": ""
    },
    "hasModel": true,
    "combat": {
      "property": {
        "useCreatorProperty": true,
        "hp": 99999.0,
        "attack": 10000.0,
        "defense": 99999.0,
        "weight": 1.0,
        "canTriggerBullet": false
      },
      "beHit": {
        "hitBloodEffect": "",
        "muteAllHit": true,
        "muteAllHitEffect": true,
        "muteAllHitText": true
      },
      "combatLock": {
        "lockShape": "CircleLockEnemy",
        "denyLockOn": true,
        "lockType": "Gadget_Lv1"
      }
    },
    "combatTemplate": "",
    "abilities": [
      {
        "abilityID": "Bullet_TargetShooting_CannonBall",
        "abilityName": "Bullet_TargetShooting_CannonBall",
        "abilityOverride": ""
      }
    ],
    "timer": {
      "lifeTime": 50.0
    },
    "move": {
      "$type": "BFICFPAEFPB",
      "speed": 80.0,
      "DPAAFHNMHHN": {
        "$type": "IFAANDLLGLP"
      },
      "syncToRemote": true,
      "straightRange": 80.0,
      "gravityOfAcceleration": 20.0,
      "airResistance": 0.10000000149011612
    },
    "gadget": {
      "$type": "JENBBNKGGJP",
      "collision": {
        "targetType": "Enemy"
      },
      "triggerActions": [
        {
          "$type": "AILPBJHDHDG",
          "abilityName": "Bullet_TargetShooting_CannonBall"
        }
      ],
      "triggerLifeOverActions": [
        {
          "$type": "AILPBJHDHDG",
          "abilityName": "Bullet_TargetShooting_CannonBall"
        }
      ]
    }
  },
  "Penumbra_CannonBall_02": {
    "$type": "CJKJIENLOHD",
    "common": {
      "disableTickDistance": 100000.0
    },
    "model": {
      "bornEffect": "",
      "attachEffect": "",
      "BKPFGNPLDNJ": ""
    },
    "hasModel": true,
    "combat": {
      "property": {
        "useCreatorProperty": true,
        "hp": 99999.0,
        "attack": 10000.0,
        "defense": 99999.0,
        "weight": 1.0,
        "canTriggerBullet": false
      },
      "beHit": {
        "hitBloodEffect": "",
        "muteAllHit": true,
        "muteAllHitEffect": true,
        "muteAllHitText": true
      },
      "combatLock": {
        "lockShape": "CircleLockEnemy",
        "denyLockOn": true,
        "lockType": "Gadget_Lv1"
      }
    },
    "combatTemplate": "",
    "abilities": [
      {
        "abilityID": "Bullet_TargetShooting_ExplosiveCannonBall",
        "abilityName": "Bullet_TargetShooting_ExplosiveCannonBall",
        "abilityOverride": ""
      }
    ],
    "timer": {
      "lifeTime": 50.0
    },
    "move": {
      "$type": "BFICFPAEFPB",
      "speed": 120.0,
      "DPAAFHNMHHN": {
        "$type": "IFAANDLLGLP"
      },
      "syncToRemote": true,
      "straightRange": 80.0,
      "gravityOfAcceleration": 20.0,
      "airResistance": 0.10000000149011612
    },
    "gadget": {
      "$type": "JENBBNKGGJP",
      "collision": {
        "targetType": "Enemy"
      },
      "triggerActions": [
        {
          "$type": "AILPBJHDHDG",
          "abilityName": "Bullet_TargetShooting_ExplosiveCannonBall"
        }
      ],
      "triggerLifeOverActions": [
        {
          "$type": "AILPBJHDHDG",
          "abilityName": "Bullet_TargetShooting_ExplosiveCannonBall"
        }
      ]
    }
  }
}