{
  "Weapon_Sword_Metal": {
    "$type": "CJKJIENLOHD",
    "common": {
      "effectAttachShape": {
        "$type": "OMCHDAEMBOG",
        "mesh": "EffectMesh"
      },
      "affectedByWorld": true
    },
    "combat": {
      "property": {
        "hp": 9999999.0,
        "defense": 999999.0,
        "isInvincible": true,
        "isGhostToAllied": true,
        "isGhostToEnemy": true
      },
      "beHit": {
        "hitBloodEffect": "",
        "muteAllHit": true,
        "muteAllHitEffect": true,
        "muteAllHitText": true
      },
      "combatLock": {
        "lockShape": "CircleLockEnemy",
        "denyLockOn": true,
        "lockType": "Default"
      }
    },
    "combatTemplate": "",
    "abilities": [
      {
        "abilityID": "Metal",
        "abilityName": "Avatar_Weapon_Metal",
        "abilityOverride": ""
      }
    ],
    "equipment": {
      "attachTo": "equip01",
      "subAttachTo": "",
      "auxToTrans": "",
      "equipEntityType": "SwordOneHand"
    }
  },
  "Catalyst_Book": {
    "$type": "CJKJIENLOHD",
    "common": {
      "effectAttachShape": {
        "$type": "OMCHDAEMBOG",
        "mesh": "EffectMesh"
      },
      "affectedByWorld": true
    },
    "combat": {
      "property": {
        "hp": 9999999.0,
        "defense": 999999.0,
        "isInvincible": true,
        "isGhostToAllied": true,
        "isGhostToEnemy": true
      },
      "beHit": {
        "hitBloodEffect": "",
        "muteAllHit": true,
        "muteAllHitEffect": true,
        "muteAllHitText": true
      },
      "combatLock": {
        "lockShape": "CircleLockEnemy",
        "denyLockOn": true,
        "lockType": "Default"
      }
    },
    "combatTemplate": "",
    "abilities": [
      {
        "abilityID": "Metal",
        "abilityName": "Avatar_Weapon_Metal",
        "abilityOverride": ""
      }
    ],
    "equipment": {
      "attachTo": "equip02",
      "subAttachTo": "",
      "auxToTrans": "",
      "equipEntityType": "Catalyst"
    },
    "stateLayers": {
      "defaultLayer": {
        "$type": "GBGJJIIEMBD",
        "layerIndexName": "",
        "CPAANEIJCGD": "",
        "stateIDs": {
          "NormalMove": {
            "$type": "BEIEGKBABOF",
            "animatorStates": {
              "AttackLoop": [],
              "AttackToIdle": [],
              "Open": [],
              "Close": []
            }
          }
        }
      }
    },
    "audio": {
      "$type": "DEGGADLMEOK",
      "overrideEmitterName": "",
      "animAudio": {
        "onTransitionIn": [
          {
            "currentStateName": "AttackLoop",
            "audioEvent": {
              "text": "Play_sfx_weapon_catalyst_lady_move"
            }
          }
        ],
        "onTransitionOut": [
          {
            "currentStateName": "AttackLoop",
            "audioEvent": {
              "text": "Play_sfx_weapon_catalyst_lady_move_end"
            }
          },
          {
            "currentStateName": "Open",
            "audioEvent": {
              "text": "Play_sfx_weapon_catalyst_lady_close"
            },
            "otherStateNames": [
              "AttackLoop"
            ],
            "usage": "Except"
          }
        ]
      }
    }
  },
  "Catalyst_Ball": {
    "$type": "CJKJIENLOHD",
    "common": {
      "effectAttachShape": {
        "$type": "OMCHDAEMBOG",
        "mesh": "EffectMesh"
      },
      "affectedByWorld": true
    },
    "combat": {
      "property": {
        "hp": 9999999.0,
        "defense": 999999.0,
        "isInvincible": true,
        "isGhostToAllied": true,
        "isGhostToEnemy": true
      },
      "beHit": {
        "hitBloodEffect": "",
        "muteAllHit": true,
        "muteAllHitEffect": true,
        "muteAllHitText": true
      },
      "combatLock": {
        "lockShape": "CircleLockEnemy",
        "denyLockOn": true,
        "lockType": "Default"
      }
    },
    "combatTemplate": "",
    "abilities": [
      {
        "abilityID": "Metal",
        "abilityName": "Avatar_Weapon_Metal",
        "abilityOverride": ""
      }
    ],
    "equipment": {
      "attachTo": "equip02",
      "subAttachTo": "",
      "auxToTrans": "",
      "equipEntityType": "Catalyst"
    },
    "stateLayers": {
      "defaultLayer": {
        "$type": "GBGJJIIEMBD",
        "layerIndexName": "",
        "CPAANEIJCGD": "",
        "stateIDs": {
          "Close": {
            "$type": "BEIEGKBABOF",
            "animatorStates": {
              "Close": []
            }
          }
        }
      },
      "audioEventLayer": {
        "$type": "GBGJJIIEMBD",
        "layerIndex": 1,
        "layerIndexName": "AudioEventLayer",
        "CPAANEIJCGD": "",
        "stateIDs": {
          "NormalMove": {
            "$type": "BEIEGKBABOF",
            "animatorStates": {
              "AttackLoop": [],
              "Open": [],
              "CloseAudio": []
            }
          }
        }
      }
    },
    "audio": {
      "$type": "DEGGADLMEOK",
      "overrideEmitterName": "",
      "animAudio": {
        "onTransitionIn": [
          {
            "currentStateName": "AttackLoop",
            "audioEvent": {
              "text": "Play_sfx_weapon_catalyst_ball_common_attackLoop"
            }
          }
        ],
        "onTransitionOut": [
          {
            "currentStateName": "AttackLoop",
            "audioEvent": {
              "text": "Stop_sfx_weapon_catalyst_ball_common_attackLoop"
            },
            "otherStateNames": [
              "Open"
            ],
            "usage": "Except"
          },
          {
            "currentStateName": "Open",
            "audioEvent": {
              "text": "Play_sfx_weapon_catalyst_ball_common_close"
            },
            "otherStateNames": [
              "AttackLoop"
            ],
            "usage": "Except"
          }
        ]
      }
    }
  },
  "Catalyst_Ball_Mesh": {
    "$type": "CJKJIENLOHD",
    "common": {
      "effectAttachShape": {
        "$type": "OMCHDAEMBOG",
        "mesh": "EffectMesh"
      },
      "affectedByWorld": true
    },
    "combat": {
      "property": {
        "hp": 9999999.0,
        "defense": 999999.0,
        "isInvincible": true,
        "isGhostToAllied": true,
        "isGhostToEnemy": true
      },
      "beHit": {
        "hitBloodEffect": "",
        "muteAllHit": true,
        "muteAllHitEffect": true,
        "muteAllHitText": true
      },
      "combatLock": {
        "lockShape": "CircleLockEnemy",
        "denyLockOn": true,
        "lockType": "Default"
      }
    },
    "combatTemplate": "",
    "abilities": [
      {
        "abilityID": "Metal",
        "abilityName": "Avatar_Weapon_Metal",
        "abilityOverride": ""
      }
    ],
    "equipment": {
      "attachTo": "equip02",
      "subAttachTo": "",
      "auxToTrans": "",
      "equipEntityType": "Catalyst"
    },
    "stateLayers": {
      "defaultLayer": {
        "$type": "GBGJJIIEMBD",
        "layerIndexName": "",
        "CPAANEIJCGD": "",
        "stateIDs": {
          "Close": {
            "$type": "BEIEGKBABOF",
            "animatorStates": {
              "Close": []
            }
          }
        }
      },
      "audioEventLayer": {
        "$type": "GBGJJIIEMBD",
        "layerIndex": 1,
        "layerIndexName": "AudioEventLayer",
        "CPAANEIJCGD": "",
        "stateIDs": {
          "NormalMove": {
            "$type": "BEIEGKBABOF",
            "animatorStates": {
              "AttackLoop": [],
              "Open": [],
              "CloseAudio": []
            }
          }
        }
      },
      "meshLayer": {
        "$type": "GBGJJIIEMBD",
        "layerIndex": 2,
        "layerIndexName": "MeshLayer",
        "CPAANEIJCGD": "",
        "stateIDs": {
          "MeshMove": {
            "$type": "BEIEGKBABOF",
            "animatorStates": {
              "MeshMove": []
            }
          }
        }
      }
    },
    "audio": {
      "$type": "DEGGADLMEOK",
      "overrideEmitterName": "",
      "animAudio": {
        "onTransitionIn": [
          {
            "currentStateName": "AttackLoop",
            "audioEvent": {
              "text": "Play_sfx_weapon_catalyst_ball_common_attackLoop"
            }
          }
        ],
        "onTransitionOut": [
          {
            "currentStateName": "AttackLoop",
            "audioEvent": {
              "text": "Stop_sfx_weapon_catalyst_ball_common_attackLoop"
            },
            "otherStateNames": [
              "Open"
            ],
            "usage": "Except"
          },
          {
            "currentStateName": "Open",
            "audioEvent": {
              "text": "Play_sfx_weapon_catalyst_ball_common_close"
            },
            "otherStateNames": [
              "AttackLoop"
            ],
            "usage": "Except"
          }
        ]
      }
    }
  },
  "Weapon_Claymore_Metal": {
    "$type": "CJKJIENLOHD",
    "common": {
      "effectAttachShape": {
        "$type": "OMCHDAEMBOG",
        "mesh": "EffectMesh"
      },
      "affectedByWorld": true
    },
    "combat": {
      "property": {
        "hp": 9999999.0,
        "defense": 999999.0,
        "isInvincible": true,
        "isGhostToAllied": true,
        "isGhostToEnemy": true
      },
      "beHit": {
        "hitBloodEffect": "",
        "muteAllHit": true,
        "muteAllHitEffect": true,
        "muteAllHitText": true
      },
      "combatLock": {
        "lockShape": "CircleLockEnemy",
        "denyLockOn": true,
        "lockType": "Default"
      }
    },
    "combatTemplate": "",
    "abilities": [
      {
        "abilityID": "Metal",
        "abilityName": "Avatar_Weapon_Metal",
        "abilityOverride": ""
      }
    ],
    "equipment": {
      "attachTo": "equip01",
      "subAttachTo": "",
      "auxToTrans": "",
      "equipEntityType": "Claymore"
    }
  },
  "Weapon_Bow_Metal": {
    "$type": "CJKJIENLOHD",
    "common": {
      "effectAttachShape": {
        "$type": "OMCHDAEMBOG",
        "mesh": "EffectMesh"
      },
      "affectedByWorld": true
    },
    "combat": {
      "property": {
        "hp": 10.0,
        "isInvincible": true,
        "isGhostToAllied": true,
        "isGhostToEnemy": true
      },
      "beHit": {
        "hitBloodEffect": "",
        "muteAllHit": true,
        "muteAllHitEffect": true,
        "muteAllHitText": true
      },
      "combatLock": {
        "lockShape": "CircleLockEnemy",
        "denyLockOn": true,
        "lockType": "Default"
      },
      "die": {
        "dieDisappearEffect": "Eff_Monster_Undead_01_Shield_Broken"
      }
    },
    "combatTemplate": "",
    "abilities": [
      {
        "abilityID": "Metal",
        "abilityName": "Avatar_Weapon_Metal",
        "abilityOverride": ""
      }
    ],
    "equipment": {
      "attachTo": "equip02",
      "subAttachTo": "",
      "auxToTrans": "",
      "equipEntityType": "Bow",
      "bowData": {
        "bowRatioName": "BowRatio",
        "bowStringLoosePoint": {
          "x": 0.11999999731779099
        },
        "bowStringMaxLen": 0.41999998688697815
      }
    }
  },
  "Weapon_Pole_Metal": {
    "$type": "CJKJIENLOHD",
    "common": {
      "effectAttachShape": {
        "$type": "OMCHDAEMBOG",
        "mesh": "EffectMesh"
      },
      "affectedByWorld": true
    },
    "combat": {
      "property": {
        "hp": 9999999.0,
        "defense": 999999.0,
        "isInvincible": true,
        "isGhostToAllied": true,
        "isGhostToEnemy": true
      },
      "beHit": {
        "hitBloodEffect": "",
        "muteAllHit": true,
        "muteAllHitEffect": true,
        "muteAllHitText": true
      },
      "combatLock": {
        "lockShape": "CircleLockEnemy",
        "denyLockOn": true,
        "lockType": "Default"
      }
    },
    "combatTemplate": "",
    "abilities": [
      {
        "abilityID": "Metal",
        "abilityName": "Avatar_Weapon_Metal",
        "abilityOverride": ""
      }
    ],
    "equipment": {
      "attachTo": "equip01",
      "subAttachTo": "",
      "auxToTrans": "",
      "equipEntityType": "Pole"
    }
  },
  "Weapon_Sword_Wood_Normal": {
    "$type": "CJKJIENLOHD",
    "common": {
      "effectAttachShape": {
        "$type": "OMCHDAEMBOG",
        "mesh": "EffectMesh"
      },
      "affectedByWorld": true,
      "checkInSurface": true
    },
    "combat": {
      "property": {
        "hp": 9999999.0,
        "defense": 999999.0,
        "isInvincible": true,
        "isGhostToAllied": true
      },
      "beHit": {
        "hitBloodEffect": "",
        "muteAllHit": true,
        "muteAllHitEffect": true,
        "muteAllHitText": true
      },
      "combatLock": {
        "lockShape": "CircleLockEnemy",
        "denyLockOn": true,
        "lockType": "Default"
      }
    },
    "combatTemplate": "",
    "abilities": [
      {
        "abilityID": "Wood_Normal",
        "abilityName": "Avatar_Weapon_Wood_Normal",
        "abilityOverride": ""
      }
    ],
    "equipment": {
      "attachTo": "equip01",
      "subAttachTo": "",
      "auxToTrans": "",
      "equipEntityType": "SwordOneHand"
    }
  },
  "Weapon_Sword_Wood_Hard": {
    "$type": "CJKJIENLOHD",
    "common": {
      "effectAttachShape": {
        "$type": "OMCHDAEMBOG",
        "mesh": "EffectMesh"
      },
      "affectedByWorld": true,
      "checkInSurface": true
    },
    "combat": {
      "property": {
        "hp": 9999999.0,
        "defense": 999999.0,
        "isInvincible": true,
        "isGhostToAllied": true
      },
      "beHit": {
        "hitBloodEffect": "",
        "muteAllHit": true,
        "muteAllHitEffect": true,
        "muteAllHitText": true
      },
      "combatLock": {
        "lockShape": "CircleLockEnemy",
        "denyLockOn": true,
        "lockType": "Default"
      }
    },
    "combatTemplate": "",
    "abilities": [
      {
        "abilityID": "Wood_Hard",
        "abilityName": "Avatar_Weapon_Wood_Hard",
        "abilityOverride": ""
      }
    ],
    "equipment": {
      "attachTo": "equip01",
      "subAttachTo": "",
      "auxToTrans": "",
      "equipEntityType": "SwordOneHand"
    }
  },
  "Catalyst_Mute": {
    "$type": "CJKJIENLOHD",
    "common": {
      "effectAttachShape": {
        "$type": "OMCHDAEMBOG",
        "mesh": "EffectMesh"
      },
      "affectedByWorld": true
    },
    "combat": {
      "property": {
        "hp": 9999999.0,
        "defense": 999999.0,
        "isInvincible": true,
        "isGhostToAllied": true
      },
      "beHit": {
        "hitBloodEffect": "",
        "muteAllHit": true,
        "muteAllHitEffect": true,
        "muteAllHitText": true
      },
      "combatLock": {
        "lockShape": "CircleLockEnemy",
        "denyLockOn": true,
        "lockType": "Default"
      }
    },
    "combatTemplate": "",
    "abilities": [
      {
        "abilityID": "Metal",
        "abilityName": "Avatar_Weapon_Metal",
        "abilityOverride": ""
      }
    ],
    "equipment": {
      "attachTo": "equip02",
      "subAttachTo": "",
      "auxToTrans": "",
      "equipEntityType": "Catalyst"
    },
    "stateLayers": {
      "defaultLayer": {
        "$type": "GBGJJIIEMBD",
        "layerIndexName": "",
        "CPAANEIJCGD": "",
        "stateIDs": {
          "NormalMove": {
            "$type": "BEIEGKBABOF",
            "animatorStates": {
              "AttackLoop": [],
              "AttackToIdle": [],
              "Open": [],
              "Close": []
            }
          }
        }
      }
    },
    "audio": {
      "$type": "DEGGADLMEOK",
      "overrideEmitterName": "",
      "animAudio": {}
    }
  },
  "SubEquip_Feiyan_Steelyard": {
    "$type": "CJKJIENLOHD",
    "common": {
      "effectAttachShape": {
        "$type": "OMCHDAEMBOG",
        "mesh": "EffectMesh"
      },
      "affectedByWorld": true
    },
    "combat": {
      "property": {
        "hp": 9999999.0,
        "defense": 999999.0,
        "isInvincible": true,
        "isGhostToAllied": true,
        "isGhostToEnemy": true
      },
      "beHit": {
        "hitBloodEffect": "",
        "muteAllHit": true,
        "muteAllHitEffect": true,
        "muteAllHitText": true
      },
      "combatLock": {
        "lockShape": "CircleLockEnemy",
        "denyLockOn": true,
        "lockType": "Default"
      }
    },
    "combatTemplate": "",
    "equipment": {
      "attachTo": "equip03",
      "subAttachTo": "",
      "auxToTrans": ""
    }
  },
  "SubEquip_Shinobu_Mask": {
    "$type": "CJKJIENLOHD",
    "common": {},
    "combatTemplate": ""
  },
  "SubEquip_Heizo_Jitte": {
    "$type": "CJKJIENLOHD",
    "common": {
      "effectAttachShape": {
        "$type": "OMCHDAEMBOG",
        "mesh": "EffectMesh"
      }
    },
    "combatTemplate": ""
  }
}