{
  "Yoimiya_Arrow_01": {
    "$type": "CJKJIENLOHD",
    "common": {
      "effectAttachShape": {
        "$type": "OMIODKONOMG",
        "scaleX": 0.5,
        "scaleY": 0.5
      },
      "affectedByWorld": true
    },
    "combat": {
      "property": {
        "useCreatorProperty": true,
        "isInvincible": true,
        "canTriggerBullet": false
      },
      "beHit": {
        "hitBloodEffect": "",
        "muteAllHit": true,
        "muteAllHitEffect": true,
        "muteAllHitText": true
      },
      "combatLock": {
        "lockShape": "CircleLockEnemy",
        "denyLockOn": true,
        "lockType": "Default"
      },
      "animEvents": {
        "Arrow_ATK01": {
          "attackPattern": {
            "$type": "JHKEHNJBMOF",
            "triggerType": "TriggerNoRepeat",
            "checkHitLayerType": "Both",
            "born": {
              "$type": "JGEBAJLEBMO",
              "offset": {
                "KGEPIMHBMOL": 0.0,
                "JEBHCGDPFEJ": 0.0,
                "LPCHALMFFOD": -0.5
              }
            },
            "size": {
              "KGEPIMHBMOL": 0.10000000149011612,
              "JEBHCGDPFEJ": 0.10000000149011612,
              "LPCHALMFFOD": 1.0
            }
          },
          "attackInfo": {
            "attackTag": "NormalAttack_01",
            "attenuationTag": "",
            "attenuationGroup": "default",
            "attackProperty": {
              "actorGrassSubHurtDelta": 0.0,
              "actorWindSubHurtDelta": 0.0,
              "IPFJJJGABPL": 100.0,
              "strikeType": "Pierce",
              "enBreak": 8.158499717712402,
              "GLKMCMDJBIK": 0.0
            },
            "hitPattern": {
              "onHitEffectName": "default",
              "hitImpulseY": "",
              "hitImpulseType": "LV1"
            },
            "cameraShake": {
              "shakeRange": 0.019999999552965164,
              "shakeTime": 0.10000000149011612
            },
            "canBeModifiedBy": "OriginOwner"
          }
        }
      }
    },
    "combatTemplate": "",
    "abilities": [
      {
        "abilityID": "Bullet_Yoimiya_NormalAttack_Handler",
        "abilityName": "Bullet_Yoimiya_NormalAttack_Handler",
        "abilityOverride": ""
      },
      {
        "abilityID": "Bullet_Yoimiya_Arrow_Material_Small",
        "abilityName": "Bullet_Yoimiya_Arrow_Material_Small",
        "abilityOverride": ""
      }
    ],
    "timer": {
      "lifeTime": 8.0
    },
    "move": {
      "$type": "BFICFPAEFPB",
      "speed": 40.0,
      "DPAAFHNMHHN": {
        "$type": "IFAANDLLGLP"
      },
      "straightRange": 7.0,
      "gravityOfAcceleration": 15.0,
      "airResistance": 0.009999999776482582
    },
    "gadget": {
      "$type": "JENBBNKGGJP",
      "collision": {
        "targetType": "Enemy"
      },
      "triggerActions": [
        {
          "$type": "NMMEILICBAE",
          "attackEvent": "Arrow_ATK01"
        },
        {
          "$type": "AILPBJHDHDG",
          "abilityName": "Bullet_Yoimiya_Arrow_Material_Small"
        }
      ],
      "fireAISoundEvent": true
    }
  },
  "Yoimiya_Arrow_02": {
    "$type": "CJKJIENLOHD",
    "common": {
      "effectAttachShape": {
        "$type": "OMIODKONOMG",
        "scaleX": 0.5,
        "scaleY": 0.5
      },
      "affectedByWorld": true
    },
    "combat": {
      "property": {
        "useCreatorProperty": true,
        "isInvincible": true,
        "canTriggerBullet": false
      },
      "beHit": {
        "hitBloodEffect": "",
        "muteAllHit": true,
        "muteAllHitEffect": true,
        "muteAllHitText": true
      },
      "combatLock": {
        "lockShape": "CircleLockEnemy",
        "denyLockOn": true,
        "lockType": "Default"
      },
      "animEvents": {
        "Arrow_ATK02": {
          "attackPattern": {
            "$type": "JHKEHNJBMOF",
            "triggerType": "TriggerNoRepeat",
            "checkHitLayerType": "Both",
            "born": {
              "$type": "JGEBAJLEBMO",
              "offset": {
                "KGEPIMHBMOL": 0.0,
                "JEBHCGDPFEJ": 0.0,
                "LPCHALMFFOD": -0.5
              }
            },
            "size": {
              "KGEPIMHBMOL": 0.10000000149011612,
              "JEBHCGDPFEJ": 0.10000000149011612,
              "LPCHALMFFOD": 1.0
            }
          },
          "attackInfo": {
            "attackTag": "NormalAttack_02",
            "attenuationTag": "",
            "attenuationGroup": "default",
            "attackProperty": {
              "actorGrassSubHurtDelta": 0.0,
              "actorWindSubHurtDelta": 0.0,
              "IPFJJJGABPL": 100.0,
              "strikeType": "Pierce",
              "enBreak": 15.651000022888184,
              "GLKMCMDJBIK": 0.0
            },
            "hitPattern": {
              "onHitEffectName": "default",
              "hitImpulseY": "",
              "hitImpulseType": "LV1"
            },
            "cameraShake": {
              "shakeRange": 0.019999999552965164,
              "shakeTime": 0.10000000149011612
            },
            "canBeModifiedBy": "OriginOwner"
          }
        }
      }
    },
    "combatTemplate": "",
    "abilities": [
      {
        "abilityID": "Bullet_Yoimiya_NormalAttack_Handler",
        "abilityName": "Bullet_Yoimiya_NormalAttack_Handler",
        "abilityOverride": ""
      },
      {
        "abilityID": "Bullet_Yoimiya_Arrow_Material_Small",
        "abilityName": "Bullet_Yoimiya_Arrow_Material_Small",
        "abilityOverride": ""
      }
    ],
    "timer": {
      "lifeTime": 8.0
    },
    "move": {
      "$type": "BFICFPAEFPB",
      "speed": 40.0,
      "DPAAFHNMHHN": {
        "$type": "IFAANDLLGLP"
      },
      "straightRange": 7.0,
      "gravityOfAcceleration": 15.0,
      "airResistance": 0.009999999776482582
    },
    "gadget": {
      "$type": "JENBBNKGGJP",
      "collision": {
        "targetType": "Enemy"
      },
      "triggerActions": [
        {
          "$type": "NMMEILICBAE",
          "attackEvent": "Arrow_ATK02"
        },
        {
          "$type": "AILPBJHDHDG",
          "abilityName": "Bullet_Yoimiya_Arrow_Material_Small"
        }
      ],
      "fireAISoundEvent": true
    }
  },
  "Yoimiya_Arrow_03": {
    "$type": "CJKJIENLOHD",
    "common": {
      "effectAttachShape": {
        "$type": "OMIODKONOMG",
        "scaleX": 0.5,
        "scaleY": 0.5
      },
      "affectedByWorld": true
    },
    "combat": {
      "property": {
        "useCreatorProperty": true,
        "isInvincible": true,
        "canTriggerBullet": false
      },
      "beHit": {
        "hitBloodEffect": "",
        "muteAllHit": true,
        "muteAllHitEffect": true,
        "muteAllHitText": true
      },
      "combatLock": {
        "lockShape": "CircleLockEnemy",
        "denyLockOn": true,
        "lockType": "Default"
      },
      "animEvents": {
        "Arrow_ATK03": {
          "attackPattern": {
            "$type": "JHKEHNJBMOF",
            "triggerType": "TriggerNoRepeat",
            "checkHitLayerType": "Both",
            "born": {
              "$type": "JGEBAJLEBMO",
              "offset": {
                "KGEPIMHBMOL": 0.0,
                "JEBHCGDPFEJ": 0.0,
                "LPCHALMFFOD": -0.5
              }
            },
            "size": {
              "KGEPIMHBMOL": 0.10000000149011612,
              "JEBHCGDPFEJ": 0.10000000149011612,
              "LPCHALMFFOD": 1.0
            }
          },
          "attackInfo": {
            "attackTag": "NormalAttack_03",
            "attenuationTag": "",
            "attenuationGroup": "default",
            "attackProperty": {
              "actorGrassSubHurtDelta": 0.0,
              "actorWindSubHurtDelta": 0.0,
              "IPFJJJGABPL": 100.0,
              "strikeType": "Pierce",
              "enBreak": 19.979999542236328,
              "GLKMCMDJBIK": 0.0
            },
            "hitPattern": {
              "onHitEffectName": "default",
              "hitImpulseY": "",
              "hitImpulseType": "LV1"
            },
            "cameraShake": {
              "shakeRange": 0.019999999552965164,
              "shakeTime": 0.10000000149011612
            },
            "canBeModifiedBy": "OriginOwner"
          }
        }
      }
    },
    "combatTemplate": "",
    "abilities": [
      {
        "abilityID": "Bullet_Yoimiya_NormalAttack_Handler",
        "abilityName": "Bullet_Yoimiya_NormalAttack_Handler",
        "abilityOverride": ""
      },
      {
        "abilityID": "Bullet_Yoimiya_Arrow_Material_Small",
        "abilityName": "Bullet_Yoimiya_Arrow_Material_Small",
        "abilityOverride": ""
      }
    ],
    "timer": {
      "lifeTime": 8.0
    },
    "move": {
      "$type": "BFICFPAEFPB",
      "speed": 40.0,
      "DPAAFHNMHHN": {
        "$type": "IFAANDLLGLP"
      },
      "straightRange": 7.0,
      "gravityOfAcceleration": 15.0,
      "airResistance": 0.009999999776482582
    },
    "gadget": {
      "$type": "JENBBNKGGJP",
      "collision": {
        "targetType": "Enemy"
      },
      "triggerActions": [
        {
          "$type": "NMMEILICBAE",
          "attackEvent": "Arrow_ATK03"
        },
        {
          "$type": "AILPBJHDHDG",
          "abilityName": "Bullet_Yoimiya_Arrow_Material_Small"
        }
      ],
      "fireAISoundEvent": true
    }
  },
  "Yoimiya_Arrow_04": {
    "$type": "CJKJIENLOHD",
    "common": {
      "effectAttachShape": {
        "$type": "OMIODKONOMG",
        "scaleX": 0.5,
        "scaleY": 0.5
      },
      "affectedByWorld": true
    },
    "combat": {
      "property": {
        "useCreatorProperty": true,
        "isInvincible": true,
        "canTriggerBullet": false
      },
      "beHit": {
        "hitBloodEffect": "",
        "muteAllHit": true,
        "muteAllHitEffect": true,
        "muteAllHitText": true
      },
      "combatLock": {
        "lockShape": "CircleLockEnemy",
        "denyLockOn": true,
        "lockType": "Default"
      },
      "animEvents": {
        "Arrow_ATK04": {
          "attackPattern": {
            "$type": "JHKEHNJBMOF",
            "triggerType": "TriggerNoRepeat",
            "checkHitLayerType": "Both",
            "born": {
              "$type": "JGEBAJLEBMO",
              "offset": {
                "KGEPIMHBMOL": 0.0,
                "JEBHCGDPFEJ": 0.0,
                "LPCHALMFFOD": -0.5
              }
            },
            "size": {
              "KGEPIMHBMOL": 0.10000000149011612,
              "JEBHCGDPFEJ": 0.10000000149011612,
              "LPCHALMFFOD": 1.0
            }
          },
          "attackInfo": {
            "attackTag": "NormalAttack_04",
            "attenuationTag": "",
            "attenuationGroup": "default",
            "attackProperty": {
              "actorGrassSubHurtDelta": 0.0,
              "actorWindSubHurtDelta": 0.0,
              "IPFJJJGABPL": 100.0,
              "strikeType": "Pierce",
              "enBreak": 10.656000137329102,
              "GLKMCMDJBIK": 0.0
            },
            "hitPattern": {
              "onHitEffectName": "default",
              "hitImpulseY": "",
              "hitImpulseType": "LV1"
            },
            "cameraShake": {
              "shakeRange": 0.019999999552965164,
              "shakeTime": 0.10000000149011612
            },
            "canBeModifiedBy": "OriginOwner"
          }
        }
      }
    },
    "combatTemplate": "",
    "abilities": [
      {
        "abilityID": "Bullet_Yoimiya_NormalAttack_Handler",
        "abilityName": "Bullet_Yoimiya_NormalAttack_Handler",
        "abilityOverride": ""
      },
      {
        "abilityID": "Bullet_Yoimiya_Arrow_Material_Small",
        "abilityName": "Bullet_Yoimiya_Arrow_Material_Small",
        "abilityOverride": ""
      }
    ],
    "timer": {
      "lifeTime": 8.0
    },
    "move": {
      "$type": "BFICFPAEFPB",
      "speed": 40.0,
      "DPAAFHNMHHN": {
        "$type": "IFAANDLLGLP"
      },
      "straightRange": 7.0,
      "gravityOfAcceleration": 15.0,
      "airResistance": 0.009999999776482582
    },
    "gadget": {
      "$type": "JENBBNKGGJP",
      "collision": {
        "targetType": "Enemy"
      },
      "triggerActions": [
        {
          "$type": "NMMEILICBAE",
          "attackEvent": "Arrow_ATK04"
        },
        {
          "$type": "AILPBJHDHDG",
          "abilityName": "Bullet_Yoimiya_Arrow_Material_Small"
        }
      ],
      "fireAISoundEvent": true
    }
  },
  "Yoimiya_Arrow_05": {
    "$type": "CJKJIENLOHD",
    "common": {
      "effectAttachShape": {
        "$type": "OMIODKONOMG",
        "scaleX": 0.5,
        "scaleY": 0.5
      },
      "affectedByWorld": true
    },
    "combat": {
      "property": {
        "useCreatorProperty": true,
        "isInvincible": true,
        "canTriggerBullet": false
      },
      "beHit": {
        "hitBloodEffect": "",
        "muteAllHit": true,
        "muteAllHitEffect": true,
        "muteAllHitText": true
      },
      "combatLock": {
        "lockShape": "CircleLockEnemy",
        "denyLockOn": true,
        "lockType": "Default"
      },
      "animEvents": {
        "Arrow_ATK05": {
          "attackPattern": {
            "$type": "JHKEHNJBMOF",
            "triggerType": "TriggerNoRepeat",
            "checkHitLayerType": "Both",
            "born": {
              "$type": "JGEBAJLEBMO",
              "offset": {
                "KGEPIMHBMOL": 0.0,
                "JEBHCGDPFEJ": 0.0,
                "LPCHALMFFOD": -0.5
              }
            },
            "size": {
              "KGEPIMHBMOL": 0.10000000149011612,
              "JEBHCGDPFEJ": 0.10000000149011612,
              "LPCHALMFFOD": 1.0
            }
          },
          "attackInfo": {
            "attackTag": "NormalAttack_05",
            "attenuationTag": "",
            "attenuationGroup": "default",
            "attackProperty": {
              "actorGrassSubHurtDelta": 0.0,
              "actorWindSubHurtDelta": 0.0,
              "IPFJJJGABPL": 100.0,
              "strikeType": "Pierce",
              "enBreak": 23.84280014038086,
              "GLKMCMDJBIK": 0.0
            },
            "hitPattern": {
              "onHitEffectName": "default",
              "hitImpulseY": "",
              "hitImpulseType": "LV1"
            },
            "cameraShake": {
              "shakeRange": 0.019999999552965164,
              "shakeTime": 0.10000000149011612
            },
            "canBeModifiedBy": "OriginOwner"
          }
        }
      }
    },
    "combatTemplate": "",
    "abilities": [
      {
        "abilityID": "Bullet_Yoimiya_NormalAttack_Handler",
        "abilityName": "Bullet_Yoimiya_NormalAttack_Handler",
        "abilityOverride": ""
      },
      {
        "abilityID": "Bullet_Yoimiya_Arrow_Material_Big",
        "abilityName": "Bullet_Yoimiya_Arrow_Material_Big",
        "abilityOverride": ""
      }
    ],
    "timer": {
      "lifeTime": 8.0
    },
    "move": {
      "$type": "BFICFPAEFPB",
      "speed": 70.0,
      "DPAAFHNMHHN": {
        "$type": "IFAANDLLGLP"
      },
      "straightRange": 15.0,
      "gravityOfAcceleration": 30.0,
      "airResistance": 0.009999999776482582
    },
    "gadget": {
      "$type": "JENBBNKGGJP",
      "collision": {
        "targetType": "Enemy"
      },
      "triggerActions": [
        {
          "$type": "NMMEILICBAE",
          "attackEvent": "Arrow_ATK05"
        },
        {
          "$type": "AILPBJHDHDG",
          "abilityName": "Bullet_Yoimiya_Arrow_Material_Big"
        }
      ],
      "fireAISoundEvent": true
    }
  },
  "Yoimiya_Arrow_Art_01": {
    "$type": "CJKJIENLOHD",
    "common": {
      "effectAttachShape": {
        "$type": "OMIODKONOMG",
        "scaleX": 0.5,
        "scaleY": 0.5
      },
      "affectedByWorld": true
    },
    "combat": {
      "property": {
        "useCreatorProperty": true,
        "isInvincible": true,
        "canTriggerBullet": false
      },
      "beHit": {
        "hitBloodEffect": "",
        "muteAllHit": true,
        "muteAllHitEffect": true,
        "muteAllHitText": true
      },
      "combatLock": {
        "lockShape": "CircleLockEnemy",
        "denyLockOn": true,
        "lockType": "Default"
      },
      "animEvents": {
        "FireArrow_ATK01": {
          "attackPattern": {
            "$type": "JHKEHNJBMOF",
            "triggerType": "TriggerNoRepeat",
            "checkHitLayerType": "Both",
            "born": {
              "$type": "JGEBAJLEBMO",
              "offset": {
                "KGEPIMHBMOL": 0.0,
                "JEBHCGDPFEJ": 0.0,
                "LPCHALMFFOD": -0.5
              }
            },
            "size": {
              "KGEPIMHBMOL": 0.10000000149011612,
              "JEBHCGDPFEJ": 0.10000000149011612,
              "LPCHALMFFOD": 1.0
            }
          },
          "attackInfo": {
            "attackTag": "NormalAttack_01",
            "attenuationTag": "NormalAttack",
            "attenuationGroup": "default",
            "attackProperty": {
              "actorGrassSubHurtDelta": 0.0,
              "actorWindSubHurtDelta": 0.0,
              "elementType": "Fire",
              "IPFJJJGABPL": 25.0,
              "strikeType": "Pierce",
              "enBreak": 8.158499717712402,
              "attackType": "Range",
              "GLKMCMDJBIK": 0.0
            },
            "hitPattern": {
              "onHitEffectName": "Eff_Avatar_Girl_Bow_Yoimiya_ElementalArt_Bullet_HitEffect",
              "hitImpulseY": "",
              "hitImpulseType": "LV2"
            },
            "cameraShake": {
              "shakeRange": 0.019999999552965164,
              "shakeTime": 0.10000000149011612
            },
            "canBeModifiedBy": "OriginOwner"
          }
        }
      }
    },
    "combatTemplate": "",
    "abilities": [
      {
        "abilityID": "Bullet_Yoimiya_ElementalArt_Material",
        "abilityName": "Bullet_Yoimiya_ElementalArt_Material",
        "abilityOverride": ""
      },
      {
        "abilityID": "Bullet_Yoimiya_NormalAttack_Handler",
        "abilityName": "Bullet_Yoimiya_NormalAttack_Handler",
        "abilityOverride": ""
      }
    ],
    "timer": {
      "lifeTime": 8.0
    },
    "move": {
      "$type": "BFICFPAEFPB",
      "speed": 40.0,
      "DPAAFHNMHHN": {
        "$type": "IFAANDLLGLP"
      },
      "straightRange": 7.0,
      "gravityOfAcceleration": 15.0,
      "airResistance": 0.009999999776482582
    },
    "gadget": {
      "$type": "JENBBNKGGJP",
      "collision": {
        "targetType": "Enemy"
      },
      "triggerActions": [
        {
          "$type": "NMMEILICBAE",
          "attackEvent": "FireArrow_ATK01"
        },
        {
          "$type": "AILPBJHDHDG",
          "abilityName": "Bullet_Yoimiya_ElementalArt_Material"
        }
      ],
      "fireAISoundEvent": true
    }
  },
  "Yoimiya_Arrow_Art_02": {
    "$type": "CJKJIENLOHD",
    "common": {
      "effectAttachShape": {
        "$type": "OMIODKONOMG",
        "scaleX": 0.5,
        "scaleY": 0.5
      },
      "affectedByWorld": true
    },
    "combat": {
      "property": {
        "useCreatorProperty": true,
        "isInvincible": true,
        "canTriggerBullet": false
      },
      "beHit": {
        "hitBloodEffect": "",
        "muteAllHit": true,
        "muteAllHitEffect": true,
        "muteAllHitText": true
      },
      "combatLock": {
        "lockShape": "CircleLockEnemy",
        "denyLockOn": true,
        "lockType": "Default"
      },
      "animEvents": {
        "FireArrow_ATK02": {
          "attackPattern": {
            "$type": "JHKEHNJBMOF",
            "triggerType": "TriggerNoRepeat",
            "checkHitLayerType": "Both",
            "born": {
              "$type": "JGEBAJLEBMO",
              "offset": {
                "KGEPIMHBMOL": 0.0,
                "JEBHCGDPFEJ": 0.0,
                "LPCHALMFFOD": -0.5
              }
            },
            "size": {
              "KGEPIMHBMOL": 0.10000000149011612,
              "JEBHCGDPFEJ": 0.10000000149011612,
              "LPCHALMFFOD": 1.0
            }
          },
          "attackInfo": {
            "attackTag": "NormalAttack_02",
            "attenuationTag": "NormalAttack",
            "attenuationGroup": "default",
            "attackProperty": {
              "actorGrassSubHurtDelta": 0.0,
              "actorWindSubHurtDelta": 0.0,
              "elementType": "Fire",
              "IPFJJJGABPL": 25.0,
              "strikeType": "Pierce",
              "enBreak": 15.651000022888184,
              "attackType": "Range",
              "GLKMCMDJBIK": 0.0
            },
            "hitPattern": {
              "onHitEffectName": "Eff_Avatar_Girl_Bow_Yoimiya_ElementalArt_Bullet_HitEffect",
              "hitImpulseY": "",
              "hitImpulseType": "LV2"
            },
            "cameraShake": {
              "shakeRange": 0.019999999552965164,
              "shakeTime": 0.10000000149011612
            },
            "canBeModifiedBy": "OriginOwner"
          }
        }
      }
    },
    "combatTemplate": "",
    "abilities": [
      {
        "abilityID": "Bullet_Yoimiya_ElementalArt_Material",
        "abilityName": "Bullet_Yoimiya_ElementalArt_Material",
        "abilityOverride": ""
      },
      {
        "abilityID": "Bullet_Yoimiya_NormalAttack_Handler",
        "abilityName": "Bullet_Yoimiya_NormalAttack_Handler",
        "abilityOverride": ""
      }
    ],
    "timer": {
      "lifeTime": 8.0
    },
    "move": {
      "$type": "BFICFPAEFPB",
      "speed": 40.0,
      "DPAAFHNMHHN": {
        "$type": "IFAANDLLGLP"
      },
      "straightRange": 7.0,
      "gravityOfAcceleration": 15.0,
      "airResistance": 0.009999999776482582
    },
    "gadget": {
      "$type": "JENBBNKGGJP",
      "collision": {
        "targetType": "Enemy"
      },
      "triggerActions": [
        {
          "$type": "NMMEILICBAE",
          "attackEvent": "FireArrow_ATK02"
        },
        {
          "$type": "AILPBJHDHDG",
          "abilityName": "Bullet_Yoimiya_ElementalArt_Material"
        }
      ],
      "fireAISoundEvent": true
    }
  },
  "Yoimiya_Arrow_Art_03": {
    "$type": "CJKJIENLOHD",
    "common": {
      "effectAttachShape": {
        "$type": "OMIODKONOMG",
        "scaleX": 0.5,
        "scaleY": 0.5
      },
      "affectedByWorld": true
    },
    "combat": {
      "property": {
        "useCreatorProperty": true,
        "isInvincible": true,
        "canTriggerBullet": false
      },
      "beHit": {
        "hitBloodEffect": "",
        "muteAllHit": true,
        "muteAllHitEffect": true,
        "muteAllHitText": true
      },
      "combatLock": {
        "lockShape": "CircleLockEnemy",
        "denyLockOn": true,
        "lockType": "Default"
      },
      "animEvents": {
        "FireArrow_ATK03": {
          "attackPattern": {
            "$type": "JHKEHNJBMOF",
            "triggerType": "TriggerNoRepeat",
            "checkHitLayerType": "Both",
            "born": {
              "$type": "JGEBAJLEBMO",
              "offset": {
                "KGEPIMHBMOL": 0.0,
                "JEBHCGDPFEJ": 0.0,
                "LPCHALMFFOD": -0.5
              }
            },
            "size": {
              "KGEPIMHBMOL": 0.10000000149011612,
              "JEBHCGDPFEJ": 0.10000000149011612,
              "LPCHALMFFOD": 1.0
            }
          },
          "attackInfo": {
            "attackTag": "NormalAttack_03",
            "attenuationTag": "NormalAttack",
            "attenuationGroup": "default",
            "attackProperty": {
              "actorGrassSubHurtDelta": 0.0,
              "actorWindSubHurtDelta": 0.0,
              "elementType": "Fire",
              "IPFJJJGABPL": 25.0,
              "strikeType": "Pierce",
              "enBreak": 19.979999542236328,
              "attackType": "Range",
              "GLKMCMDJBIK": 0.0
            },
            "hitPattern": {
              "onHitEffectName": "Eff_Avatar_Girl_Bow_Yoimiya_ElementalArt_Bullet_HitEffect",
              "hitImpulseY": "",
              "hitImpulseType": "LV2"
            },
            "cameraShake": {
              "shakeRange": 0.019999999552965164,
              "shakeTime": 0.10000000149011612
            },
            "canBeModifiedBy": "OriginOwner"
          }
        }
      }
    },
    "combatTemplate": "",
    "abilities": [
      {
        "abilityID": "Bullet_Yoimiya_ElementalArt_Material",
        "abilityName": "Bullet_Yoimiya_ElementalArt_Material",
        "abilityOverride": ""
      },
      {
        "abilityID": "Bullet_Yoimiya_NormalAttack_Handler",
        "abilityName": "Bullet_Yoimiya_NormalAttack_Handler",
        "abilityOverride": ""
      }
    ],
    "timer": {
      "lifeTime": 8.0
    },
    "move": {
      "$type": "BFICFPAEFPB",
      "speed": 40.0,
      "DPAAFHNMHHN": {
        "$type": "IFAANDLLGLP"
      },
      "straightRange": 7.0,
      "gravityOfAcceleration": 15.0,
      "airResistance": 0.009999999776482582
    },
    "gadget": {
      "$type": "JENBBNKGGJP",
      "collision": {
        "targetType": "Enemy"
      },
      "triggerActions": [
        {
          "$type": "NMMEILICBAE",
          "attackEvent": "FireArrow_ATK03"
        },
        {
          "$type": "AILPBJHDHDG",
          "abilityName": "Bullet_Yoimiya_ElementalArt_Material"
        }
      ],
      "fireAISoundEvent": true
    }
  },
  "Yoimiya_Arrow_Art_04": {
    "$type": "CJKJIENLOHD",
    "common": {
      "effectAttachShape": {
        "$type": "OMIODKONOMG",
        "scaleX": 0.5,
        "scaleY": 0.5
      },
      "affectedByWorld": true
    },
    "combat": {
      "property": {
        "useCreatorProperty": true,
        "isInvincible": true,
        "canTriggerBullet": false
      },
      "beHit": {
        "hitBloodEffect": "",
        "muteAllHit": true,
        "muteAllHitEffect": true,
        "muteAllHitText": true
      },
      "combatLock": {
        "lockShape": "CircleLockEnemy",
        "denyLockOn": true,
        "lockType": "Default"
      },
      "animEvents": {
        "FireArrow_ATK04": {
          "attackPattern": {
            "$type": "JHKEHNJBMOF",
            "triggerType": "TriggerNoRepeat",
            "checkHitLayerType": "Both",
            "born": {
              "$type": "JGEBAJLEBMO",
              "offset": {
                "KGEPIMHBMOL": 0.0,
                "JEBHCGDPFEJ": 0.0,
                "LPCHALMFFOD": -0.5
              }
            },
            "size": {
              "KGEPIMHBMOL": 0.10000000149011612,
              "JEBHCGDPFEJ": 0.10000000149011612,
              "LPCHALMFFOD": 1.0
            }
          },
          "attackInfo": {
            "attackTag": "NormalAttack_04",
            "attenuationTag": "NormalAttack",
            "attenuationGroup": "default",
            "attackProperty": {
              "actorGrassSubHurtDelta": 0.0,
              "actorWindSubHurtDelta": 0.0,
              "elementType": "Fire",
              "IPFJJJGABPL": 25.0,
              "strikeType": "Pierce",
              "enBreak": 10.656000137329102,
              "attackType": "Range",
              "GLKMCMDJBIK": 0.0
            },
            "hitPattern": {
              "onHitEffectName": "Eff_Avatar_Girl_Bow_Yoimiya_ElementalArt_Bullet_HitEffect",
              "hitImpulseY": "",
              "hitImpulseType": "LV2"
            },
            "cameraShake": {
              "shakeRange": 0.019999999552965164,
              "shakeTime": 0.10000000149011612
            },
            "canBeModifiedBy": "OriginOwner"
          }
        }
      }
    },
    "combatTemplate": "",
    "abilities": [
      {
        "abilityID": "Bullet_Yoimiya_ElementalArt_Material",
        "abilityName": "Bullet_Yoimiya_ElementalArt_Material",
        "abilityOverride": ""
      },
      {
        "abilityID": "Bullet_Yoimiya_NormalAttack_Handler",
        "abilityName": "Bullet_Yoimiya_NormalAttack_Handler",
        "abilityOverride": ""
      }
    ],
    "timer": {
      "lifeTime": 8.0
    },
    "move": {
      "$type": "BFICFPAEFPB",
      "speed": 40.0,
      "DPAAFHNMHHN": {
        "$type": "IFAANDLLGLP"
      },
      "straightRange": 7.0,
      "gravityOfAcceleration": 15.0,
      "airResistance": 0.009999999776482582
    },
    "gadget": {
      "$type": "JENBBNKGGJP",
      "collision": {
        "targetType": "Enemy"
      },
      "triggerActions": [
        {
          "$type": "NMMEILICBAE",
          "attackEvent": "FireArrow_ATK04"
        },
        {
          "$type": "AILPBJHDHDG",
          "abilityName": "Bullet_Yoimiya_ElementalArt_Material"
        }
      ],
      "fireAISoundEvent": true
    }
  },
  "Yoimiya_Arrow_Art_05": {
    "$type": "CJKJIENLOHD",
    "common": {
      "effectAttachShape": {
        "$type": "OMIODKONOMG",
        "scaleX": 0.5,
        "scaleY": 0.5
      },
      "affectedByWorld": true
    },
    "combat": {
      "property": {
        "useCreatorProperty": true,
        "isInvincible": true,
        "canTriggerBullet": false
      },
      "beHit": {
        "hitBloodEffect": "",
        "muteAllHit": true,
        "muteAllHitEffect": true,
        "muteAllHitText": true
      },
      "combatLock": {
        "lockShape": "CircleLockEnemy",
        "denyLockOn": true,
        "lockType": "Default"
      },
      "animEvents": {
        "FireArrow_ATK05": {
          "attackPattern": {
            "$type": "JHKEHNJBMOF",
            "triggerType": "TriggerNoRepeat",
            "checkHitLayerType": "Both",
            "born": {
              "$type": "JGEBAJLEBMO",
              "offset": {
                "KGEPIMHBMOL": 0.0,
                "JEBHCGDPFEJ": 0.0,
                "LPCHALMFFOD": -0.5
              }
            },
            "size": {
              "KGEPIMHBMOL": 0.10000000149011612,
              "JEBHCGDPFEJ": 0.10000000149011612,
              "LPCHALMFFOD": 1.0
            }
          },
          "attackInfo": {
            "attackTag": "NormalAttack_05",
            "attenuationTag": "NormalAttack",
            "attenuationGroup": "default",
            "attackProperty": {
              "actorGrassSubHurtDelta": 0.0,
              "actorWindSubHurtDelta": 0.0,
              "elementType": "Fire",
              "IPFJJJGABPL": 25.0,
              "strikeType": "Pierce",
              "enBreak": 23.84280014038086,
              "attackType": "Range",
              "GLKMCMDJBIK": 0.0
            },
            "hitPattern": {
              "onHitEffectName": "Eff_Avatar_Girl_Bow_Yoimiya_ElementalArt_Bullet_HitEffect",
              "hitImpulseY": "",
              "hitImpulseType": "LV2"
            },
            "cameraShake": {
              "shakeRange": 0.019999999552965164,
              "shakeTime": 0.10000000149011612
            },
            "canBeModifiedBy": "OriginOwner"
          }
        }
      }
    },
    "combatTemplate": "",
    "abilities": [
      {
        "abilityID": "Bullet_Yoimiya_ElementalArt_Material",
        "abilityName": "Bullet_Yoimiya_ElementalArt_Material",
        "abilityOverride": ""
      },
      {
        "abilityID": "Bullet_Yoimiya_NormalAttack_Handler",
        "abilityName": "Bullet_Yoimiya_NormalAttack_Handler",
        "abilityOverride": ""
      }
    ],
    "timer": {
      "lifeTime": 8.0
    },
    "move": {
      "$type": "BFICFPAEFPB",
      "speed": 70.0,
      "DPAAFHNMHHN": {
        "$type": "IFAANDLLGLP"
      },
      "straightRange": 15.0,
      "gravityOfAcceleration": 30.0,
      "airResistance": 0.009999999776482582
    },
    "gadget": {
      "$type": "JENBBNKGGJP",
      "collision": {
        "targetType": "Enemy"
      },
      "triggerActions": [
        {
          "$type": "NMMEILICBAE",
          "attackEvent": "FireArrow_ATK05"
        },
        {
          "$type": "AILPBJHDHDG",
          "abilityName": "Bullet_Yoimiya_ElementalArt_Material"
        }
      ],
      "fireAISoundEvent": true
    }
  },
  "Yoimiya_AimingArrow_NoFire": {
    "$type": "CJKJIENLOHD",
    "common": {
      "effectAttachShape": {
        "$type": "OMIODKONOMG",
        "scaleX": 0.5,
        "scaleY": 0.5
      },
      "affectedByWorld": true
    },
    "combat": {
      "property": {
        "useCreatorProperty": true,
        "isInvincible": true,
        "canTriggerBullet": false
      },
      "beHit": {
        "hitBloodEffect": "",
        "muteAllHit": true,
        "muteAllHitEffect": true,
        "muteAllHitText": true
      },
      "combatLock": {
        "lockShape": "CircleLockEnemy",
        "denyLockOn": true,
        "lockType": "Default"
      }
    },
    "combatTemplate": "",
    "abilities": [
      {
        "abilityID": "Bullet_Yoimiya_Arrow_NoFire_Material",
        "abilityName": "Bullet_Yoimiya_Arrow_NoFire_Material",
        "abilityOverride": ""
      }
    ],
    "timer": {
      "lifeTime": 20.0
    },
    "move": {
      "$type": "BFICFPAEFPB",
      "speed": 50.0,
      "DPAAFHNMHHN": {
        "$type": "IFAANDLLGLP"
      },
      "straightRange": 25.0,
      "gravityOfAcceleration": 5.5,
      "airResistance": 0.009999999776482582
    },
    "gadget": {
      "$type": "JENBBNKGGJP",
      "collision": {
        "targetType": "Enemy"
      },
      "triggerActions": [
        {
          "$type": "AILPBJHDHDG",
          "abilityName": "Bullet_Yoimiya_Arrow_NoFire_Material"
        }
      ],
      "fireAISoundEvent": true
    }
  },
  "Yoimiya_AimingArrow_WithFire": {
    "$type": "CJKJIENLOHD",
    "common": {
      "effectAttachShape": {
        "$type": "OMIODKONOMG",
        "scaleX": 0.5,
        "scaleY": 0.5
      },
      "affectedByWorld": true
    },
    "combat": {
      "property": {
        "useCreatorProperty": true,
        "isInvincible": true,
        "canTriggerBullet": false
      },
      "beHit": {
        "hitBloodEffect": "",
        "muteAllHit": true,
        "muteAllHitEffect": true,
        "muteAllHitText": true
      },
      "combatLock": {
        "lockShape": "CircleLockEnemy",
        "denyLockOn": true,
        "lockType": "Default"
      }
    },
    "combatTemplate": "",
    "abilities": [
      {
        "abilityID": "Bullet_Yoimiya_Arrow_WithFire_Material",
        "abilityName": "Bullet_Yoimiya_Arrow_WithFire_Material",
        "abilityOverride": ""
      }
    ],
    "timer": {
      "lifeTime": 20.0
    },
    "move": {
      "$type": "BFICFPAEFPB",
      "speed": 50.0,
      "DPAAFHNMHHN": {
        "$type": "IFAANDLLGLP"
      },
      "straightRange": 25.0,
      "gravityOfAcceleration": 5.5,
      "airResistance": 0.009999999776482582
    },
    "gadget": {
      "$type": "JENBBNKGGJP",
      "collision": {
        "targetType": "Enemy"
      },
      "triggerActions": [
        {
          "$type": "AILPBJHDHDG",
          "abilityName": "Bullet_Yoimiya_Arrow_WithFire_Material"
        }
      ],
      "fireAISoundEvent": true
    }
  },
  "Yoimiya_FireRing": {
    "$type": "CJKJIENLOHD",
    "common": {
      "effectAttachShape": {
        "$type": "OMIODKONOMG"
      }
    },
    "combat": {
      "property": {
        "useCreatorProperty": true,
        "isInvincible": true,
        "isGhostToAllied": true,
        "isGhostToEnemy": true,
        "canTriggerBullet": false
      },
      "beHit": {
        "hitBloodEffect": "",
        "muteAllHit": true,
        "muteAllHitEffect": true,
        "muteAllHitText": true
      },
      "combatLock": {
        "lockShape": "CircleLockEnemy",
        "denyLockOn": true,
        "lockType": "Default"
      }
    },
    "combatTemplate": "",
    "abilities": [
      {
        "abilityID": "Bullet_Yoimiya_FireRing_Material",
        "abilityName": "Bullet_Yoimiya_FireRing_Material",
        "abilityOverride": ""
      }
    ],
    "timer": {
      "lifeTime": 12.0
    },
    "move": {
      "$type": "MMAPEFIEGAL",
      "velocityForce": {
        "muteAll": true
      },
      "attachPoint": "RootNode",
      "HOMINCCNFHE": {
        "z": 1.0
      },
      "followOwnerInvisible": true,
      "syncTransToServer": true,
      "LFOHLEKJFBI": ""
    },
    "gadget": {
      "$type": "JENBBNKGGJP",
      "killByOther": true,
      "dieDelayTime": 0.6000000238418579
    }
  },
  "Yoimiya_GoldFish": {
    "$type": "CJKJIENLOHD",
    "common": {
      "effectAttachShape": {
        "$type": "OMIODKONOMG",
        "scaleX": 0.5,
        "scaleY": 0.5
      },
      "affectedByWorld": true
    },
    "combat": {
      "property": {
        "useCreatorProperty": true,
        "isInvincible": true,
        "canTriggerBullet": false
      },
      "beHit": {
        "hitBloodEffect": "",
        "muteAllHit": true,
        "muteAllHitEffect": true,
        "muteAllHitText": true
      },
      "combatLock": {
        "lockShape": "CircleLockEnemy",
        "denyLockOn": true,
        "lockType": "Default"
      }
    },
    "combatTemplate": "",
    "abilities": [
      {
        "abilityID": "Bullet_Yoimiya_GoldFish_Material",
        "abilityName": "Bullet_Yoimiya_GoldFish_Material",
        "abilityOverride": ""
      }
    ],
    "timer": {
      "lifeTime": 2.5
    },
    "move": {
      "$type": "GMOHNHFHLAO",
      "speed": 10.0,
      "maxSpeed": 60.0,
      "anglerVelocity": 30.0,
      "acceleration": 5.0,
      "traceOnYAxis": true
    },
    "gadget": {
      "$type": "JENBBNKGGJP",
      "collision": {
        "targetType": "Enemy"
      },
      "triggerActions": [
        {
          "$type": "AILPBJHDHDG",
          "abilityName": "Bullet_Yoimiya_GoldFish_Material"
        }
      ],
      "triggerLifeOverActions": [
        {
          "$type": "AILPBJHDHDG",
          "abilityName": "Bullet_Yoimiya_GoldFish_Material"
        }
      ]
    }
  },
  "Yoimiya_ElementalBurst_Bullet": {
    "$type": "CJKJIENLOHD",
    "common": {
      "effectAttachShape": {
        "$type": "OMIODKONOMG",
        "scaleX": 0.5,
        "scaleY": 0.5
      },
      "affectedByWorld": true
    },
    "combat": {
      "property": {
        "useCreatorProperty": true,
        "isInvincible": true,
        "canTriggerBullet": false
      },
      "beHit": {
        "hitBloodEffect": "",
        "muteAllHit": true,
        "muteAllHitEffect": true,
        "muteAllHitText": true
      },
      "combatLock": {
        "lockShape": "CircleLockEnemy",
        "denyLockOn": true,
        "lockType": "Default"
      }
    },
    "combatTemplate": "",
    "abilities": [
      {
        "abilityID": "Bullet_Yoimiya_ElementalBurst_Material",
        "abilityName": "Bullet_Yoimiya_ElementalBurst_Material",
        "abilityOverride": ""
      }
    ],
    "timer": {
      "lifeTime": 3.0
    },
    "move": {
      "$type": "GONNMCBKAOC",
      "velocityForce": {
        "muteAll": true
      },
      "speed": 100.0,
      "DPAAFHNMHHN": {
        "$type": "IFAANDLLGLP"
      }
    },
    "gadget": {
      "$type": "JENBBNKGGJP",
      "collision": {
        "ccd": {
          "damageRatio": "Always"
        },
        "targetType": "Enemy"
      },
      "triggerActions": [
        {
          "$type": "AILPBJHDHDG",
          "abilityName": "Bullet_Yoimiya_ElementalBurst_Material"
        }
      ],
      "triggerLifeOverActions": [
        {
          "$type": "AILPBJHDHDG",
          "abilityName": "Bullet_Yoimiya_ElementalBurst_Material"
        }
      ]
    }
  },
  "Yoimiya_ElementalBurst_Gadget": {
    "$type": "CJKJIENLOHD",
    "common": {
      "effectAttachShape": {
        "$type": "OMIODKONOMG",
        "scaleX": 0.5,
        "scaleY": 0.5
      },
      "affectedByWorld": true
    },
    "combat": {
      "property": {
        "useCreatorProperty": true,
        "isInvincible": true,
        "isGhostToAllied": true,
        "isGhostToEnemy": true,
        "canTriggerBullet": false
      },
      "beHit": {
        "hitBloodEffect": "",
        "muteAllHit": true,
        "muteAllHitEffect": true,
        "muteAllHitText": true
      },
      "combatLock": {
        "lockShape": "CircleLockEnemy",
        "denyLockOn": true,
        "lockType": "Default"
      }
    },
    "combatTemplate": "",
    "timer": {
      "lifeTime": 4.0
    }
  },
  "Yoimiya_TalentArrow_01": {
    "$type": "CJKJIENLOHD",
    "common": {
      "effectAttachShape": {
        "$type": "OMIODKONOMG",
        "scaleX": 0.5,
        "scaleY": 0.5
      },
      "affectedByWorld": true
    },
    "combat": {
      "property": {
        "useCreatorProperty": true,
        "isInvincible": true,
        "canTriggerBullet": false
      },
      "beHit": {
        "hitBloodEffect": "",
        "muteAllHit": true,
        "muteAllHitEffect": true,
        "muteAllHitText": true
      },
      "combatLock": {
        "lockShape": "CircleLockEnemy",
        "denyLockOn": true,
        "lockType": "Default"
      },
      "animEvents": {
        "TalentArrow_ATK01": {
          "attackPattern": {
            "$type": "JHKEHNJBMOF",
            "triggerType": "TriggerNoRepeat",
            "checkHitLayerType": "Both",
            "born": {
              "$type": "JGEBAJLEBMO",
              "offset": {
                "KGEPIMHBMOL": 0.0,
                "JEBHCGDPFEJ": 0.0,
                "LPCHALMFFOD": -0.5
              }
            },
            "size": {
              "KGEPIMHBMOL": 0.10000000149011612,
              "JEBHCGDPFEJ": 0.10000000149011612,
              "LPCHALMFFOD": 1.0
            }
          },
          "attackInfo": {
            "attackTag": "NormalAttack_01",
            "attenuationTag": "NormalAttack",
            "attenuationGroup": "default",
            "attackProperty": {
              "actorGrassSubHurtDelta": 0.0,
              "actorWindSubHurtDelta": 0.0,
              "elementType": "Fire",
              "IPFJJJGABPL": 25.0,
              "strikeType": "Pierce",
              "enBreak": 15.0,
              "attackType": "Range",
              "GLKMCMDJBIK": 0.0
            },
            "hitPattern": {
              "onHitEffectName": "Eff_Avatar_Girl_Bow_Yoimiya_ElementalArt_Bullet_HitEffect",
              "hitImpulseY": "",
              "hitImpulseType": "LV2"
            },
            "cameraShake": {
              "shakeRange": 0.019999999552965164,
              "shakeTime": 0.10000000149011612
            },
            "canBeModifiedBy": "OriginOwner"
          }
        }
      }
    },
    "combatTemplate": "",
    "abilities": [
      {
        "abilityID": "Bullet_Yoimiya_ExtraBullet_Material",
        "abilityName": "Bullet_Yoimiya_ExtraBullet_Material",
        "abilityOverride": ""
      },
      {
        "abilityID": "Bullet_Yoimiya_NormalAttack_Handler",
        "abilityName": "Bullet_Yoimiya_NormalAttack_Handler",
        "abilityOverride": ""
      }
    ],
    "timer": {
      "lifeTime": 8.0
    },
    "move": {
      "$type": "BFICFPAEFPB",
      "speed": 30.0,
      "DPAAFHNMHHN": {
        "$type": "IFAANDLLGLP"
      },
      "delay": 0.20000000298023224,
      "straightRange": 7.0,
      "gravityOfAcceleration": 15.0,
      "airResistance": 0.009999999776482582
    },
    "gadget": {
      "$type": "JENBBNKGGJP",
      "collision": {
        "targetType": "Enemy"
      },
      "triggerActions": [
        {
          "$type": "NMMEILICBAE",
          "attackEvent": "TalentArrow_ATK01"
        },
        {
          "$type": "AILPBJHDHDG",
          "abilityName": "Bullet_Yoimiya_ExtraBullet_Material"
        }
      ],
      "fireAISoundEvent": true
    }
  },
  "Yoimiya_TalentArrow_02": {
    "$type": "CJKJIENLOHD",
    "common": {
      "effectAttachShape": {
        "$type": "OMIODKONOMG",
        "scaleX": 0.5,
        "scaleY": 0.5
      },
      "affectedByWorld": true
    },
    "combat": {
      "property": {
        "useCreatorProperty": true,
        "isInvincible": true,
        "canTriggerBullet": false
      },
      "beHit": {
        "hitBloodEffect": "",
        "muteAllHit": true,
        "muteAllHitEffect": true,
        "muteAllHitText": true
      },
      "combatLock": {
        "lockShape": "CircleLockEnemy",
        "denyLockOn": true,
        "lockType": "Default"
      },
      "animEvents": {
        "TalentArrow_ATK02": {
          "attackPattern": {
            "$type": "JHKEHNJBMOF",
            "triggerType": "TriggerNoRepeat",
            "checkHitLayerType": "Both",
            "born": {
              "$type": "JGEBAJLEBMO",
              "offset": {
                "KGEPIMHBMOL": 0.0,
                "JEBHCGDPFEJ": 0.0,
                "LPCHALMFFOD": -0.5
              }
            },
            "size": {
              "KGEPIMHBMOL": 0.10000000149011612,
              "JEBHCGDPFEJ": 0.10000000149011612,
              "LPCHALMFFOD": 1.0
            }
          },
          "attackInfo": {
            "attackTag": "NormalAttack_02",
            "attenuationTag": "NormalAttack",
            "attenuationGroup": "default",
            "attackProperty": {
              "actorGrassSubHurtDelta": 0.0,
              "actorWindSubHurtDelta": 0.0,
              "elementType": "Fire",
              "IPFJJJGABPL": 25.0,
              "strikeType": "Pierce",
              "enBreak": 15.0,
              "attackType": "Range",
              "GLKMCMDJBIK": 0.0
            },
            "hitPattern": {
              "onHitEffectName": "Eff_Avatar_Girl_Bow_Yoimiya_ElementalArt_Bullet_HitEffect",
              "hitImpulseY": "",
              "hitImpulseType": "LV2"
            },
            "cameraShake": {
              "shakeRange": 0.019999999552965164,
              "shakeTime": 0.10000000149011612
            },
            "canBeModifiedBy": "OriginOwner"
          }
        }
      }
    },
    "combatTemplate": "",
    "abilities": [
      {
        "abilityID": "Bullet_Yoimiya_ExtraBullet_Material",
        "abilityName": "Bullet_Yoimiya_ExtraBullet_Material",
        "abilityOverride": ""
      },
      {
        "abilityID": "Bullet_Yoimiya_NormalAttack_Handler",
        "abilityName": "Bullet_Yoimiya_NormalAttack_Handler",
        "abilityOverride": ""
      }
    ],
    "timer": {
      "lifeTime": 8.0
    },
    "move": {
      "$type": "BFICFPAEFPB",
      "speed": 30.0,
      "DPAAFHNMHHN": {
        "$type": "IFAANDLLGLP"
      },
      "delay": 0.20000000298023224,
      "straightRange": 7.0,
      "gravityOfAcceleration": 15.0,
      "airResistance": 0.009999999776482582
    },
    "gadget": {
      "$type": "JENBBNKGGJP",
      "collision": {
        "targetType": "Enemy"
      },
      "triggerActions": [
        {
          "$type": "NMMEILICBAE",
          "attackEvent": "TalentArrow_ATK02"
        },
        {
          "$type": "AILPBJHDHDG",
          "abilityName": "Bullet_Yoimiya_ExtraBullet_Material"
        }
      ],
      "fireAISoundEvent": true
    }
  },
  "Yoimiya_TalentArrow_03": {
    "$type": "CJKJIENLOHD",
    "common": {
      "effectAttachShape": {
        "$type": "OMIODKONOMG",
        "scaleX": 0.5,
        "scaleY": 0.5
      },
      "affectedByWorld": true
    },
    "combat": {
      "property": {
        "useCreatorProperty": true,
        "isInvincible": true,
        "canTriggerBullet": false
      },
      "beHit": {
        "hitBloodEffect": "",
        "muteAllHit": true,
        "muteAllHitEffect": true,
        "muteAllHitText": true
      },
      "combatLock": {
        "lockShape": "CircleLockEnemy",
        "denyLockOn": true,
        "lockType": "Default"
      },
      "animEvents": {
        "TalentArrow_ATK03": {
          "attackPattern": {
            "$type": "JHKEHNJBMOF",
            "triggerType": "TriggerNoRepeat",
            "checkHitLayerType": "Both",
            "born": {
              "$type": "JGEBAJLEBMO",
              "offset": {
                "KGEPIMHBMOL": 0.0,
                "JEBHCGDPFEJ": 0.0,
                "LPCHALMFFOD": -0.5
              }
            },
            "size": {
              "KGEPIMHBMOL": 0.10000000149011612,
              "JEBHCGDPFEJ": 0.10000000149011612,
              "LPCHALMFFOD": 1.0
            }
          },
          "attackInfo": {
            "attackTag": "NormalAttack_03",
            "attenuationTag": "NormalAttack",
            "attenuationGroup": "default",
            "attackProperty": {
              "actorGrassSubHurtDelta": 0.0,
              "actorWindSubHurtDelta": 0.0,
              "elementType": "Fire",
              "IPFJJJGABPL": 25.0,
              "strikeType": "Pierce",
              "enBreak": 15.0,
              "attackType": "Range",
              "GLKMCMDJBIK": 0.0
            },
            "hitPattern": {
              "onHitEffectName": "Eff_Avatar_Girl_Bow_Yoimiya_ElementalArt_Bullet_HitEffect",
              "hitImpulseY": "",
              "hitImpulseType": "LV2"
            },
            "cameraShake": {
              "shakeRange": 0.019999999552965164,
              "shakeTime": 0.10000000149011612
            },
            "canBeModifiedBy": "OriginOwner"
          }
        }
      }
    },
    "combatTemplate": "",
    "abilities": [
      {
        "abilityID": "Bullet_Yoimiya_ExtraBullet_Material",
        "abilityName": "Bullet_Yoimiya_ExtraBullet_Material",
        "abilityOverride": ""
      },
      {
        "abilityID": "Bullet_Yoimiya_NormalAttack_Handler",
        "abilityName": "Bullet_Yoimiya_NormalAttack_Handler",
        "abilityOverride": ""
      }
    ],
    "timer": {
      "lifeTime": 8.0
    },
    "move": {
      "$type": "BFICFPAEFPB",
      "speed": 30.0,
      "DPAAFHNMHHN": {
        "$type": "IFAANDLLGLP"
      },
      "delay": 0.20000000298023224,
      "straightRange": 7.0,
      "gravityOfAcceleration": 15.0,
      "airResistance": 0.009999999776482582
    },
    "gadget": {
      "$type": "JENBBNKGGJP",
      "collision": {
        "targetType": "Enemy"
      },
      "triggerActions": [
        {
          "$type": "NMMEILICBAE",
          "attackEvent": "TalentArrow_ATK03"
        },
        {
          "$type": "AILPBJHDHDG",
          "abilityName": "Bullet_Yoimiya_ExtraBullet_Material"
        }
      ],
      "fireAISoundEvent": true
    }
  },
  "Yoimiya_TalentArrow_04": {
    "$type": "CJKJIENLOHD",
    "common": {
      "effectAttachShape": {
        "$type": "OMIODKONOMG",
        "scaleX": 0.5,
        "scaleY": 0.5
      },
      "affectedByWorld": true
    },
    "combat": {
      "property": {
        "useCreatorProperty": true,
        "isInvincible": true,
        "canTriggerBullet": false
      },
      "beHit": {
        "hitBloodEffect": "",
        "muteAllHit": true,
        "muteAllHitEffect": true,
        "muteAllHitText": true
      },
      "combatLock": {
        "lockShape": "CircleLockEnemy",
        "denyLockOn": true,
        "lockType": "Default"
      },
      "animEvents": {
        "TalentArrow_ATK04": {
          "attackPattern": {
            "$type": "JHKEHNJBMOF",
            "triggerType": "TriggerNoRepeat",
            "checkHitLayerType": "Both",
            "born": {
              "$type": "JGEBAJLEBMO",
              "offset": {
                "KGEPIMHBMOL": 0.0,
                "JEBHCGDPFEJ": 0.0,
                "LPCHALMFFOD": -0.5
              }
            },
            "size": {
              "KGEPIMHBMOL": 0.10000000149011612,
              "JEBHCGDPFEJ": 0.10000000149011612,
              "LPCHALMFFOD": 1.0
            }
          },
          "attackInfo": {
            "attackTag": "NormalAttack_04",
            "attenuationTag": "NormalAttack",
            "attenuationGroup": "default",
            "attackProperty": {
              "actorGrassSubHurtDelta": 0.0,
              "actorWindSubHurtDelta": 0.0,
              "elementType": "Fire",
              "IPFJJJGABPL": 25.0,
              "strikeType": "Pierce",
              "enBreak": 15.0,
              "attackType": "Range",
              "GLKMCMDJBIK": 0.0
            },
            "hitPattern": {
              "onHitEffectName": "Eff_Avatar_Girl_Bow_Yoimiya_ElementalArt_Bullet_HitEffect",
              "hitImpulseY": "",
              "hitImpulseType": "LV2"
            },
            "cameraShake": {
              "shakeRange": 0.019999999552965164,
              "shakeTime": 0.10000000149011612
            },
            "canBeModifiedBy": "OriginOwner"
          }
        }
      }
    },
    "combatTemplate": "",
    "abilities": [
      {
        "abilityID": "Bullet_Yoimiya_ExtraBullet_Material",
        "abilityName": "Bullet_Yoimiya_ExtraBullet_Material",
        "abilityOverride": ""
      },
      {
        "abilityID": "Bullet_Yoimiya_NormalAttack_Handler",
        "abilityName": "Bullet_Yoimiya_NormalAttack_Handler",
        "abilityOverride": ""
      }
    ],
    "timer": {
      "lifeTime": 8.0
    },
    "move": {
      "$type": "BFICFPAEFPB",
      "speed": 30.0,
      "DPAAFHNMHHN": {
        "$type": "IFAANDLLGLP"
      },
      "delay": 0.20000000298023224,
      "straightRange": 7.0,
      "gravityOfAcceleration": 15.0,
      "airResistance": 0.009999999776482582
    },
    "gadget": {
      "$type": "JENBBNKGGJP",
      "collision": {
        "targetType": "Enemy"
      },
      "triggerActions": [
        {
          "$type": "NMMEILICBAE",
          "attackEvent": "TalentArrow_ATK04"
        },
        {
          "$type": "AILPBJHDHDG",
          "abilityName": "Bullet_Yoimiya_ExtraBullet_Material"
        }
      ],
      "fireAISoundEvent": true
    }
  },
  "Yoimiya_TalentArrow_05": {
    "$type": "CJKJIENLOHD",
    "common": {
      "effectAttachShape": {
        "$type": "OMIODKONOMG",
        "scaleX": 0.5,
        "scaleY": 0.5
      },
      "affectedByWorld": true
    },
    "combat": {
      "property": {
        "useCreatorProperty": true,
        "isInvincible": true,
        "canTriggerBullet": false
      },
      "beHit": {
        "hitBloodEffect": "",
        "muteAllHit": true,
        "muteAllHitEffect": true,
        "muteAllHitText": true
      },
      "combatLock": {
        "lockShape": "CircleLockEnemy",
        "denyLockOn": true,
        "lockType": "Default"
      },
      "animEvents": {
        "TalentArrow_ATK05": {
          "attackPattern": {
            "$type": "JHKEHNJBMOF",
            "triggerType": "TriggerNoRepeat",
            "checkHitLayerType": "Both",
            "born": {
              "$type": "JGEBAJLEBMO",
              "offset": {
                "KGEPIMHBMOL": 0.0,
                "JEBHCGDPFEJ": 0.0,
                "LPCHALMFFOD": -0.5
              }
            },
            "size": {
              "KGEPIMHBMOL": 0.10000000149011612,
              "JEBHCGDPFEJ": 0.10000000149011612,
              "LPCHALMFFOD": 1.0
            }
          },
          "attackInfo": {
            "attackTag": "NormalAttack_05",
            "attenuationTag": "NormalAttack",
            "attenuationGroup": "default",
            "attackProperty": {
              "actorGrassSubHurtDelta": 0.0,
              "actorWindSubHurtDelta": 0.0,
              "elementType": "Fire",
              "IPFJJJGABPL": 25.0,
              "strikeType": "Pierce",
              "enBreak": 15.0,
              "attackType": "Range",
              "GLKMCMDJBIK": 0.0
            },
            "hitPattern": {
              "onHitEffectName": "Eff_Avatar_Girl_Bow_Yoimiya_ElementalArt_Bullet_HitEffect",
              "hitImpulseY": "",
              "hitImpulseType": "LV2"
            },
            "cameraShake": {
              "shakeRange": 0.019999999552965164,
              "shakeTime": 0.10000000149011612
            },
            "canBeModifiedBy": "OriginOwner"
          }
        }
      }
    },
    "combatTemplate": "",
    "abilities": [
      {
        "abilityID": "Bullet_Yoimiya_ExtraBullet_Material",
        "abilityName": "Bullet_Yoimiya_ExtraBullet_Material",
        "abilityOverride": ""
      },
      {
        "abilityID": "Bullet_Yoimiya_NormalAttack_Handler",
        "abilityName": "Bullet_Yoimiya_NormalAttack_Handler",
        "abilityOverride": ""
      }
    ],
    "timer": {
      "lifeTime": 8.0
    },
    "move": {
      "$type": "BFICFPAEFPB",
      "speed": 30.0,
      "DPAAFHNMHHN": {
        "$type": "IFAANDLLGLP"
      },
      "delay": 0.20000000298023224,
      "straightRange": 15.0,
      "gravityOfAcceleration": 30.0,
      "airResistance": 0.009999999776482582
    },
    "gadget": {
      "$type": "JENBBNKGGJP",
      "collision": {
        "targetType": "Enemy"
      },
      "triggerActions": [
        {
          "$type": "NMMEILICBAE",
          "attackEvent": "TalentArrow_ATK05"
        },
        {
          "$type": "AILPBJHDHDG",
          "abilityName": "Bullet_Yoimiya_ExtraBullet_Material"
        }
      ],
      "fireAISoundEvent": true
    }
  }
}