{
  "Monster_Natsaurus_Hookwalker_Primo_FruitBullet": {
    "$type": "CJKJIENLOHD",
    "common": {
      "effectAttachShape": {
        "$type": "OMIODKONOMG"
      }
    },
    "combat": {
      "property": {
        "useCreatorProperty": true,
        "hp": 999999.0,
        "attack": 10.0,
        "defense": 999999.0,
        "isInvincible": true,
        "isGhostToAllied": true,
        "isGhostToEnemy": true
      },
      "beHit": {
        "hitBloodEffect": "",
        "muteAllHit": true,
        "muteAllHitEffect": true,
        "muteAllHitText": true
      },
      "combatLock": {
        "lockShape": "CircleLockEnemy",
        "denyLockOn": true,
        "lockType": "Default"
      }
    },
    "combatTemplate": "",
    "abilities": [
      {
        "abilityID": "Monster_Natsaurus_Hookwalker_Primo_FruitBullet",
        "abilityName": "Monster_Natsaurus_Hookwalker_Primo_FruitBullet",
        "abilityOverride": ""
      }
    ],
    "timer": {
      "lifeTime": 5.0
    },
    "move": {
      "$type": "BFDBCCCADKH",
      "velocityForce": {
        "muteAll": true
      },
      "speed": 20.0,
      "DPAAFHNMHHN": {
        "$type": "IFAANDLLGLP"
      },
      "angleOffHor": 45.0,
      "gravityOfAcceleration": 50.0,
      "correction": {
        "$type": "FEHDIANJKBF",
        "deviation": 0.75,
        "fixAngleOfVer": 180.0,
        "minSpeed": 7.0,
        "maxSpeed": 15.0
      },
      "GEBCKKDCGDP": "",
      "NKPHOKHJKGC": ""
    },
    "gadget": {
      "$type": "JENBBNKGGJP",
      "collision": {
        "targetType": "Enemy"
      },
      "triggerActions": [
        {
          "$type": "AILPBJHDHDG",
          "abilityName": "Monster_Natsaurus_Hookwalker_Primo_FruitBullet"
        }
      ],
      "triggerLifeOverActions": [
        {
          "$type": "AILPBJHDHDG",
          "abilityName": "Monster_Natsaurus_Hookwalker_Primo_FruitBullet"
        }
      ]
    }
  },
  "Monster_Natsaurus_Hookwalker_Primo_FruitGadget": {
    "$type": "CJKJIENLOHD",
    "common": {
      "effectAttachShape": {
        "$type": "OMIODKONOMG"
      },
      "mass": 100000.0
    },
    "combat": {
      "property": {
        "endureType": "Monster_Boss_Other",
        "useCreatorProperty": true,
        "hp": 999999.0,
        "attack": 10.0,
        "defense": 999999.0,
        "isLockHP": true
      },
      "beHit": {
        "hitBloodEffect": "",
        "hitAutoRedirect": false,
        "muteAllHitText": true
      },
      "combatLock": {
        "lockShape": "CircleLockEnemy",
        "lockType": "Boss_Lv5"
      }
    },
    "combatTemplate": "",
    "abilities": [
      {
        "abilityID": "",
        "abilityName": "Monster_Natsaurus_Hookwalker_Primo_FruitGadget",
        "abilityOverride": ""
      },
      {
        "abilityID": "",
        "abilityName": "Scene_RockGadget_Summon_Detect",
        "abilityOverride": ""
      },
      {
        "abilityID": "",
        "abilityName": "Monster_Natsaurus_Hookwalker_Primo_FireBall_01",
        "abilityOverride": ""
      }
    ],
    "timer": {
      "lifeTime": 15.0
    },
    "gadget": {
      "$type": "JENBBNKGGJP",
      "collision": {
        "triggerType": "TriggerNoRepeat",
        "targetType": "Enemy",
        "ignoreScene": true
      },
      "dieDelayTime": 0.5
    }
  },
  "Monster_Natsaurus_Hookwalker_Primo_ShootTarget1": {
    "$type": "CJKJIENLOHD",
    "combat": {
      "property": {
        "useCreatorProperty": true,
        "hp": 100.0,
        "attack": 10.0,
        "isInvincible": true,
        "isGhostToEnemy": true
      },
      "combatLock": {
        "lockShape": "CircleLockEnemy",
        "denyLockOn": true,
        "lockType": "Default"
      }
    },
    "combatTemplate": "",
    "abilities": [
      {
        "abilityID": "",
        "abilityName": "Monster_Natsaurus_Hookwalker_Primo_ShootTarget1",
        "abilityOverride": ""
      }
    ],
    "timer": {
      "lifeInfinite": true,
      "lifeTime": 9999.0
    }
  },
  "Monster_Natsaurus_Hookwalker_Primo_ShootTarget2": {
    "$type": "CJKJIENLOHD",
    "combat": {
      "property": {
        "useCreatorProperty": true,
        "hp": 100.0,
        "attack": 10.0,
        "isInvincible": true,
        "isGhostToEnemy": true
      },
      "combatLock": {
        "lockShape": "CircleLockEnemy",
        "denyLockOn": true,
        "lockType": "Default"
      }
    },
    "combatTemplate": "",
    "abilities": [
      {
        "abilityID": "",
        "abilityName": "Monster_Natsaurus_Hookwalker_Primo_ShootTarget2",
        "abilityOverride": ""
      }
    ],
    "timer": {
      "lifeInfinite": true,
      "lifeTime": 9999.0
    }
  },
  "Monster_Natsaurus_Hookwalker_Primo_ShootTarget3": {
    "$type": "CJKJIENLOHD",
    "combat": {
      "property": {
        "useCreatorProperty": true,
        "hp": 100.0,
        "attack": 10.0,
        "isInvincible": true,
        "isGhostToEnemy": true
      },
      "combatLock": {
        "lockShape": "CircleLockEnemy",
        "denyLockOn": true,
        "lockType": "Default"
      }
    },
    "combatTemplate": "",
    "abilities": [
      {
        "abilityID": "",
        "abilityName": "Monster_Natsaurus_Hookwalker_Primo_ShootTarget3",
        "abilityOverride": ""
      }
    ],
    "timer": {
      "lifeInfinite": true,
      "lifeTime": 9999.0
    }
  },
  "Monster_Natsaurus_Hookwalker_Primo_SingleFireBullet": {
    "$type": "CJKJIENLOHD",
    "common": {
      "effectAttachShape": {
        "$type": "OMIODKONOMG"
      }
    },
    "combat": {
      "property": {
        "useCreatorProperty": true,
        "hp": 999999.0,
        "attack": 15.0,
        "defense": 999999.0,
        "isLockHP": true,
        "isGhostToAllied": true,
        "isGhostToEnemy": true,
        "canTriggerBullet": false
      },
      "beHit": {
        "hitBloodEffect": "",
        "muteAllHit": true,
        "muteAllHitEffect": true,
        "muteAllHitText": true
      },
      "combatLock": {
        "lockShape": "CircleLockEnemy",
        "denyLockOn": true,
        "lockType": "Default"
      }
    },
    "combatTemplate": "",
    "abilities": [
      {
        "abilityID": "",
        "abilityName": "Monster_Natsaurus_Hookwalker_Primo_SingleFireBullet",
        "abilityOverride": ""
      }
    ],
    "timer": {
      "lifeTime": 5.0
    },
    "move": {
      "$type": "DMLAFKAOGID",
      "speed": 35.0,
      "maxSpeed": 50.0,
      "minSpeed": 35.0,
      "anglerVelocity": 0.0,
      "acceleration": 2.0,
      "DPAAFHNMHHN": {
        "$type": "IFAANDLLGLP"
      },
      "guidanceSpeedChange": false,
      "guidanceDuration": 0.0
    },
    "gadget": {
      "$type": "JENBBNKGGJP",
      "collision": {
        "targetType": "Enemy"
      },
      "triggerActions": [
        {
          "$type": "AILPBJHDHDG",
          "abilityName": "Monster_Natsaurus_Hookwalker_Primo_SingleFireBullet"
        }
      ],
      "killByOther": true
    }
  },
  "Monster_Natsaurus_Hookwalker_Primo_SingleGrassBullet": {
    "$type": "CJKJIENLOHD",
    "common": {
      "effectAttachShape": {
        "$type": "OMIODKONOMG"
      }
    },
    "combat": {
      "property": {
        "useCreatorProperty": true,
        "hp": 999999.0,
        "attack": 15.0,
        "defense": 999999.0,
        "isLockHP": true,
        "isGhostToAllied": true,
        "isGhostToEnemy": true,
        "canTriggerBullet": false
      },
      "beHit": {
        "hitBloodEffect": "",
        "muteAllHit": true,
        "muteAllHitEffect": true,
        "muteAllHitText": true
      },
      "combatLock": {
        "lockShape": "CircleLockEnemy",
        "denyLockOn": true,
        "lockType": "Default"
      }
    },
    "combatTemplate": "",
    "abilities": [
      {
        "abilityID": "",
        "abilityName": "Monster_Natsaurus_Hookwalker_Primo_SingleGrassBullet",
        "abilityOverride": ""
      }
    ],
    "timer": {
      "lifeTime": 5.0
    },
    "move": {
      "$type": "DMLAFKAOGID",
      "speed": 35.0,
      "maxSpeed": 50.0,
      "minSpeed": 35.0,
      "acceleration": 2.0,
      "DPAAFHNMHHN": {
        "$type": "IFAANDLLGLP"
      },
      "guidanceSpeedChange": false,
      "guidanceDuration": 0.0
    },
    "gadget": {
      "$type": "JENBBNKGGJP",
      "collision": {
        "targetType": "Enemy"
      },
      "triggerActions": [
        {
          "$type": "AILPBJHDHDG",
          "abilityName": "Monster_Natsaurus_Hookwalker_Primo_SingleGrassBullet"
        }
      ],
      "killByOther": true,
      "dieDelayTime": 0.0
    }
  },
  "Monster_Natsaurus_Hookwalker_Primo_FirePoint": {
    "$type": "CJKJIENLOHD",
    "combat": {
      "property": {
        "useCreatorProperty": true,
        "hp": 100.0,
        "attack": 10.0,
        "isInvincible": true,
        "isGhostToEnemy": true
      },
      "combatLock": {
        "lockShape": "CircleLockEnemy",
        "denyLockOn": true,
        "lockType": "Default"
      }
    },
    "combatTemplate": "",
    "abilities": [
      {
        "abilityID": "",
        "abilityName": "Monster_Natsaurus_Hookwalker_Primo_TriggerBulletToSelf",
        "abilityOverride": ""
      }
    ],
    "timer": {
      "lifeInfinite": true,
      "lifeTime": 9999.0
    }
  },
  "Monster_Natsaurus_Hookwalker_Primo_GrassPoint": {
    "$type": "CJKJIENLOHD",
    "combat": {
      "property": {
        "useCreatorProperty": true,
        "hp": 100.0,
        "attack": 10.0,
        "isInvincible": true,
        "isGhostToEnemy": true
      },
      "combatLock": {
        "lockShape": "CircleLockEnemy",
        "denyLockOn": true,
        "lockType": "Default"
      }
    },
    "combatTemplate": "",
    "abilities": [
      {
        "abilityID": "",
        "abilityName": "Monster_Natsaurus_Hookwalker_Primo_TriggerGrassBulletToSelf",
        "abilityOverride": ""
      }
    ],
    "timer": {
      "lifeInfinite": true,
      "lifeTime": 9999.0
    }
  }
}