{
  "SceneObj_Area_FD_Property_Ani_Build_PortElevator_01": {
    "$type": "CJKJIENLOHD",
    "common": {
      "disableTickDistance": 150000.0
    },
    "hasModel": true,
    "combat": {
      "property": {
        "hp": 99999.0,
        "isInvincible": true,
        "isLockHP": true,
        "isGhostToAllied": true,
        "isGhostToEnemy": true
      }
    },
    "combatTemplate": "",
    "abilities": [
      {
        "abilityID": "SceneObj_Area_FD_Property_Ani_Build_PortElevator_01",
        "abilityName": "SceneObj_Area_FD_Property_Ani_Build_PortElevator_01",
        "abilityOverride": ""
      }
    ],
    "move": {
      "$type": "OEFHHKHPMCJ"
    },
    "gadgetAction": {
      "gadgetStateActionList": [
        {
          "$type": "FJGKLJLPOGL",
          "intID": "GadgetState",
          "syncState": true
        }
      ]
    }
  },
  "SceneObj_Area_FD_Property_Ani_Build_PortElevatorDoor_01": {
    "$type": "CJKJIENLOHD",
    "hasModel": true,
    "combat": {
      "property": {
        "hp": 99999.0,
        "isInvincible": true,
        "isLockHP": true,
        "isGhostToAllied": true,
        "isGhostToEnemy": true
      }
    },
    "combatTemplate": "",
    "gadgetAction": {
      "gadgetStateActionList": [
        {
          "$type": "FJGKLJLPOGL",
          "intID": "GadgetState",
          "syncState": true
        }
      ]
    }
  },
  "SceneObj_Level_Fd_Property_Ani_Prop_Moving_Wall_01": {
    "$type": "CJKJIENLOHD",
    "hasModel": true,
    "combat": {
      "property": {
        "hp": 99999.0,
        "isInvincible": true,
        "isLockHP": true,
        "isGhostToAllied": true,
        "isGhostToEnemy": true
      }
    },
    "combatTemplate": "",
    "abilities": [
      {
        "abilityID": "SceneObj_Level_Fd_Property_Ani_Prop_Moving_Wall_01",
        "abilityName": "SceneObj_Level_Fd_Property_Ani_Prop_Moving_Wall_01",
        "abilityOverride": ""
      }
    ],
    "move": {
      "$type": "OEFHHKHPMCJ"
    }
  },
  "SceneObj_Area_Fd_Property_Ani_Prop_FdBalloon_01": {
    "$type": "CJKJIENLOHD",
    "hasModel": true,
    "combat": {
      "property": {
        "hp": 10.0,
        "attack": 80.0,
        "weight": 80.0,
        "isLockHP": true
      },
      "beHit": {
        "hitBloodEffect": "",
        "hitAutoRedirect": false,
        "muteAllHitText": true
      },
      "combatLock": {
        "lockShape": "CircleLockEnemy",
        "denyLockOn": true,
        "lockType": "Default"
      }
    },
    "combatTemplate": "",
    "abilities": [
      {
        "abilityID": "SceneObj_Area_Fd_Property_Ani_Prop_FdBalloon_01",
        "abilityName": "SceneObj_Area_Fd_Property_Ani_Prop_FdBalloon_01",
        "abilityOverride": ""
      }
    ]
  },
  "SceneObj_Area_Fd_Property_Ani_Prop_FdBalloon_02": {
    "$type": "CJKJIENLOHD",
    "common": {
      "disableTickDistance": 100001.0
    },
    "hasModel": true,
    "combat": {
      "property": {
        "hp": 10.0,
        "attack": 80.0,
        "weight": 80.0,
        "isLockHP": true
      },
      "beHit": {
        "hitBloodEffect": "",
        "hitAutoRedirect": false,
        "muteAllHitText": true
      },
      "combatLock": {
        "lockShape": "CircleLockEnemy",
        "denyLockOn": true,
        "lockType": "Default"
      }
    },
    "combatTemplate": "",
    "abilities": [
      {
        "abilityID": "SceneObj_Area_Fd_Property_Ani_Prop_FdBalloon_01",
        "abilityName": "SceneObj_Area_Fd_Property_Ani_Prop_FdBalloon_01",
        "abilityOverride": ""
      }
    ],
    "move": {
      "$type": "OEFHHKHPMCJ"
    }
  },
  "SceneObj_Area_Fd_Property_Ani_Prop_AbyssShell_01": {
    "$type": "CJKJIENLOHD",
    "specialPoint": {
      "elementAbsorb": "RootNode",
      "elementPendant": "",
      "elementDrop": "RootNode",
      "bulletAim": "AimPoint",
      "hitPoints": [
        "AimPoint"
      ],
      "selectedPoints": [
        "AimPoint"
      ]
    },
    "hasModel": true,
    "combat": {
      "property": {
        "hp": 99999.0
      },
      "beHit": {
        "hitBloodEffect": "",
        "muteAllHit": true,
        "muteAllHitEffect": true,
        "muteAllHitText": true
      },
      "combatLock": {
        "lockShape": "CircleLockEnemy",
        "denyLockOn": true,
        "lockType": "Default"
      }
    },
    "combatTemplate": "",
    "abilities": [
      {
        "abilityID": "SceneObj_Area_Fd_Property_Ani_Prop_AbyssShell_01",
        "abilityName": "SceneObj_Area_Fd_Property_Ani_Prop_AbyssShell_01",
        "abilityOverride": ""
      }
    ]
  },
  "SceneObj_Area_Common_Property_Ani_Prop_LSPortal_01": {
    "$type": "CJKJIENLOHD",
    "hasModel": true,
    "hasConnectTrigger": true,
    "combat": {
      "property": {
        "hp": 99999.0,
        "isLockHP": true,
        "isGhostToAllied": true,
        "isGhostToEnemy": true
      },
      "die": {
        "dieEndTime": 1.0,
        "dieForceDisappearTime": 1.0,
        "dieDisappearEffect": ""
      }
    },
    "combatTemplate": "",
    "abilities": [
      {
        "abilityID": "SceneObj_Area_Common_Property_Ani_Prop_LSPortal_01",
        "abilityName": "SceneObj_Area_Common_Property_Ani_Prop_LSPortal_01",
        "abilityOverride": ""
      }
    ],
    "gadgetAction": {
      "gadgetStateActionList": [
        {
          "$type": "FJGKLJLPOGL",
          "intID": "GadgetState",
          "syncState": true
        }
      ]
    }
  },
  "SceneObj_Area_FD_Property_Ani_Build_PortElevatorDoor_02": {
    "$type": "CJKJIENLOHD",
    "hasModel": true,
    "combat": {
      "property": {
        "hp": 99999.0,
        "isInvincible": true,
        "isLockHP": true,
        "isGhostToAllied": true,
        "isGhostToEnemy": true
      }
    },
    "combatTemplate": "",
    "abilities": [
      {
        "abilityID": "SceneObj_Area_FD_Property_Ani_Build_PortElevatorDoor_01",
        "abilityName": "SceneObj_Area_FD_Property_Ani_Build_PortElevatorDoor_01",
        "abilityOverride": ""
      }
    ],
    "field": {
      "concernType": "AllAvatars",
      "shape": "",
      "fromShape": "",
      "triggerInfinite": true,
      "lifeInfinite": true,
      "checkInterval": 0.5,
      "overwriteCampType": true,
      "campType": "All",
      "colliderName": "",
      "fromColliderName": "",
      "colliderCheckOnInit": true
    }
  },
  "SceneObj_Area_Fd_Property_Ani_Prop_FontaineDoor_01": {
    "$type": "CJKJIENLOHD",
    "hasModel": true,
    "combat": {
      "property": {
        "hp": 99999.0,
        "isInvincible": true,
        "isLockHP": true,
        "isGhostToAllied": true,
        "isGhostToEnemy": true
      }
    },
    "combatTemplate": "",
    "misc": {
      "CGHFFJELBHO": {
        "triggerDistance": 7.0
      },
      "escapeEffect": ""
    },
    "stateLayers": {
      "defaultLayer": {
        "$type": "GBGJJIIEMBD",
        "layerIndexName": "",
        "CPAANEIJCGD": "",
        "stateIDs": {
          "All": {
            "$type": "BEIEGKBABOF",
            "animatorStates": {
              "ClosingIn": [
                "Audio_SceneObj_Gear_KnightDoor_Close"
              ],
              "ClosingWait": [],
              "OpeningIn": [
                "Audio_SceneObj_Gear_KnightDoor_Open"
              ],
              "OpenIn": [],
              "OpeningOut": [
                "Audio_SceneObj_Gear_KnightDoor_Open"
              ],
              "OpenOut": [],
              "ClosingOut": [
                "Audio_SceneObj_Gear_KnightDoor_Close"
              ],
              "ClosingOutWait": [],
              "Opening": [
                "Audio_SceneObj_Gear_Room_Door_Open"
              ],
              "Closing": [
                "Audio_SceneObj_Gear_Room_Door_Close"
              ],
              "OpenInside": [
                "Audio_SceneObj_Gear_Ly_Room_Door_Open_02"
              ],
              "OpenOutside": [
                "Audio_SceneObj_Gear_Ly_Room_Door_Open_02"
              ],
              "InsideClosing": [
                "Audio_SceneObj_Gear_Md_Room_Door_Close_02"
              ],
              "OutsideClosing": [
                "Audio_SceneObj_Gear_Md_Room_Door_Close_02"
              ]
            },
            "cullingModelAlwaysAnimate": true
          }
        }
      }
    }
  },
  "SceneObj_Area_Fd_Property_Ani_Prop_FontaineDoor_02": {
    "$type": "CJKJIENLOHD",
    "hasModel": true,
    "combat": {
      "property": {
        "hp": 99999.0,
        "isInvincible": true,
        "isLockHP": true,
        "isGhostToAllied": true,
        "isGhostToEnemy": true
      }
    },
    "combatTemplate": "",
    "misc": {
      "CGHFFJELBHO": {
        "triggerDistance": 8.0
      },
      "escapeEffect": ""
    },
    "stateLayers": {
      "defaultLayer": {
        "$type": "GBGJJIIEMBD",
        "layerIndexName": "",
        "CPAANEIJCGD": "",
        "stateIDs": {
          "All": {
            "$type": "BEIEGKBABOF",
            "animatorStates": {
              "ClosingIn": [
                "Audio_SceneObj_Gear_KnightDoor_Close"
              ],
              "ClosingWait": [],
              "OpeningIn": [
                "Audio_SceneObj_Gear_KnightDoor_Open"
              ],
              "OpenIn": [],
              "OpeningOut": [
                "Audio_SceneObj_Gear_KnightDoor_Open"
              ],
              "OpenOut": [],
              "ClosingOut": [
                "Audio_SceneObj_Gear_KnightDoor_Close"
              ],
              "ClosingOutWait": [],
              "Opening": [
                "Audio_SceneObj_Gear_Room_Door_Open"
              ],
              "Closing": [
                "Audio_SceneObj_Gear_Room_Door_Close"
              ],
              "OpenInside": [
                "Audio_SceneObj_Gear_Ly_Room_Door_Open_02"
              ],
              "OpenOutside": [
                "Audio_SceneObj_Gear_Ly_Room_Door_Open_02"
              ],
              "InsideClosing": [
                "Audio_SceneObj_Gear_Md_Room_Door_Close_02"
              ],
              "OutsideClosing": [
                "Audio_SceneObj_Gear_Md_Room_Door_Close_02"
              ]
            },
            "cullingModelAlwaysAnimate": true
          }
        }
      }
    }
  },
  "SceneObj_Level_Fd_Property_Ani_Prop_EnergyMotor_01": {
    "$type": "CJKJIENLOHD",
    "model": {
      "bornEffect": "",
      "attachEffect": "Eff_SceneObj_EnergyMotor_Idle_N_01_FD",
      "BKPFGNPLDNJ": ""
    },
    "hasModel": true,
    "combat": {
      "property": {
        "hp": 99999.0,
        "isInvincible": true,
        "isLockHP": true,
        "isGhostToAllied": true,
        "isGhostToEnemy": true
      }
    },
    "combatTemplate": "",
    "abilities": [
      {
        "abilityID": "SceneObj_Level_Fd_Property_Ani_Prop_EnergyMotor_01",
        "abilityName": "SceneObj_Level_Fd_Property_Ani_Prop_EnergyMotor_01",
        "abilityOverride": ""
      },
      {
        "abilityID": "Scene_RockGadget_Summon_Detect",
        "abilityName": "Scene_RockGadget_Summon_Detect",
        "abilityOverride": ""
      }
    ],
    "field": {
      "shape": "CircleR2H2",
      "fromShape": "",
      "triggerInfinite": true,
      "lifeInfinite": true,
      "checkInterval": 0.30000001192092896,
      "overwriteCampType": true,
      "campType": "All",
      "colliderName": "",
      "fromColliderName": ""
    }
  },
  "SceneObj_Level_Fd_Property_Ani_Prop_EnergyMotor_02": {
    "$type": "CJKJIENLOHD",
    "model": {
      "bornEffect": "",
      "attachEffect": "Eff_SceneObj_EnergyMotor_Idle_N_01_FD",
      "BKPFGNPLDNJ": ""
    },
    "hasModel": true,
    "combat": {
      "property": {
        "hp": 99999.0,
        "isInvincible": true,
        "isLockHP": true,
        "isGhostToAllied": true,
        "isGhostToEnemy": true
      }
    },
    "combatTemplate": "",
    "abilities": [
      {
        "abilityID": "SceneObj_Level_Fd_Property_Ani_Prop_EnergyMotor_01",
        "abilityName": "SceneObj_Level_Fd_Property_Ani_Prop_EnergyMotor_01",
        "abilityOverride": ""
      },
      {
        "abilityID": "Scene_RockGadget_Summon_Detect",
        "abilityName": "Scene_RockGadget_Summon_Detect",
        "abilityOverride": ""
      }
    ],
    "field": {
      "shape": "CircleR2H2",
      "fromShape": "",
      "triggerInfinite": true,
      "lifeInfinite": true,
      "checkInterval": 0.30000001192092896,
      "overwriteCampType": true,
      "campType": "All",
      "colliderName": "",
      "fromColliderName": ""
    },
    "move": {
      "$type": "MMAPEFIEGAL",
      "target": "GroupGadgetEntity",
      "attachPoint": "RootNode",
      "followRotation": true,
      "handleInLateTick": true,
      "LFOHLEKJFBI": ""
    }
  },
  "SceneObj_Level_Fd_Property_Ani_Prop_CrackedWall_01": {
    "$type": "CJKJIENLOHD",
    "hasModel": true,
    "combat": {
      "property": {
        "hp": 99999.0,
        "weight": 50.0,
        "isLockHP": true,
        "isGhostToAllied": true
      },
      "beHit": {
        "hitBloodEffect": "",
        "hitAutoRedirect": false,
        "muteAllHitText": true
      },
      "combatLock": {
        "lockShape": "CircleLockEnemy",
        "denyLockOn": true,
        "lockType": "Default"
      },
      "die": {
        "dieEndTime": 0.30000001192092896,
        "dieForceDisappearTime": 0.30000001192092896,
        "dieDisappearEffect": ""
      }
    },
    "combatTemplate": "",
    "abilities": [
      {
        "abilityID": "SceneObj_Level_Fd_Property_Ani_Prop_CrackedWall_01",
        "abilityName": "SceneObj_Level_Fd_Property_Ani_Prop_CrackedWall_01",
        "abilityOverride": ""
      }
    ],
    "billboard": {
      "$type": "DNGNMAJBCNP",
      "attachPoint": "BillboardAttach",
      "offset": {
        "y": 1.5
      },
      "radiusOffset": 1.0,
      "showHPBar": true,
      "shieldBarOnly": true
    }
  },
  "SceneObj_Level_Fd_Property_Ani_Prop_FdDungeonPlatform_01": {
    "$type": "CJKJIENLOHD",
    "common": {
      "overrideCullBoundsRadius": 150.0,
      "disableTickDistance": 1500.0
    },
    "combat": {
      "property": {
        "hp": 99999.0,
        "isInvincible": true,
        "isLockHP": true,
        "isGhostToAllied": true,
        "isGhostToEnemy": true
      }
    },
    "combatTemplate": "",
    "move": {
      "$type": "OEFHHKHPMCJ"
    }
  },
  "SceneObj_Level_Fd_Property_Ani_Prop_LargeMobilePlatform_01": {
    "$type": "CJKJIENLOHD",
    "common": {
      "overrideCullBoundsRadius": 150.0,
      "disableTickDistance": 1500.0
    },
    "combat": {
      "property": {
        "hp": 99999.0,
        "isInvincible": true,
        "isLockHP": true,
        "isGhostToAllied": true,
        "isGhostToEnemy": true
      }
    },
    "combatTemplate": "",
    "move": {
      "$type": "OEFHHKHPMCJ"
    }
  },
  "SceneObj_Area_Fd_Property_Ani_Prop_EscapeMagicBox_01": {
    "$type": "CJKJIENLOHD",
    "hasModel": true,
    "combat": {
      "property": {
        "hp": 99999.0,
        "isInvincible": true,
        "isLockHP": true,
        "isGhostToAllied": true,
        "isGhostToEnemy": true
      },
      "combatLock": {
        "lockShape": "CircleLockEnemy",
        "denyLockOn": true,
        "lockType": "Default"
      }
    },
    "combatTemplate": "",
    "gadgetTurn": {
      "$type": "CNBENOJGNMD",
      "movePartAroundX": "TurnNode",
      "anchorPartAroundX": "TurnNode",
      "movePartAroundY": "TurnNode",
      "anchorPartAroundY": "TurnNode",
      "movePartAroundZ": "",
      "anchorPartAroundZ": "",
      "turnStateMap": {
        "0": {
          "lerpTime": 1.0
        },
        "201": {
          "angleAroundY": -95.5,
          "lerpTime": 1.0
        }
      }
    }
  },
  "SceneObj_Indoor_Fd_Property_Ani_Prop_Magic01_01": {
    "$type": "CJKJIENLOHD",
    "hasModel": true,
    "combat": {
      "property": {
        "hp": 99999.0,
        "isInvincible": true,
        "isLockHP": true,
        "isGhostToAllied": true,
        "isGhostToEnemy": true
      },
      "combatLock": {
        "lockShape": "CircleLockEnemy",
        "denyLockOn": true,
        "lockType": "Default"
      }
    },
    "combatTemplate": "",
    "gadgetAction": {
      "gadgetStateActionList": [
        {
          "$type": "FJGKLJLPOGL",
          "intID": "GadgetState",
          "syncState": true
        }
      ]
    }
  },
  "SceneObj_AvatarObj_Ani_Quest_Dadaliya_01": {
    "$type": "CJKJIENLOHD",
    "hasModel": true,
    "combat": {
      "property": {
        "hp": 99999.0,
        "isInvincible": true,
        "isLockHP": true,
        "isGhostToAllied": true,
        "isGhostToEnemy": true
      },
      "combatLock": {
        "lockShape": "CircleLockEnemy",
        "denyLockOn": true,
        "lockType": "Default"
      }
    },
    "combatTemplate": "",
    "gadgetAction": {
      "gadgetStateActionList": [
        {
          "$type": "FJGKLJLPOGL",
          "intID": "GadgetState",
          "syncState": true
        }
      ]
    }
  },
  "SceneObj_Level_Fd_Property_Ani_Prop_MechanicDoor_01": {
    "$type": "CJKJIENLOHD",
    "hasModel": true,
    "combat": {
      "property": {
        "hp": 99999.0,
        "isInvincible": true,
        "isLockHP": true,
        "isGhostToAllied": true,
        "isGhostToEnemy": true
      },
      "combatLock": {
        "lockShape": "CircleLockEnemy",
        "denyLockOn": true,
        "lockType": "Default"
      }
    },
    "combatTemplate": "",
    "abilities": [
      {
        "abilityID": "SceneObj_Level_Fd_Property_Ani_Prop_MechanicDoor_01",
        "abilityName": "SceneObj_Level_Fd_Property_Ani_Prop_MechanicDoor_01",
        "abilityOverride": ""
      }
    ],
    "gadgetAction": {
      "gadgetStateActionList": [
        {
          "$type": "FJGKLJLPOGL",
          "intID": "GadgetState",
          "syncState": true
        }
      ]
    }
  },
  "SceneObj_Level_Fd_Property_Ani_Prop_LargeMechanicDoor_01": {
    "$type": "CJKJIENLOHD",
    "hasModel": true,
    "combat": {
      "property": {
        "hp": 99999.0,
        "isInvincible": true,
        "isLockHP": true,
        "isGhostToAllied": true,
        "isGhostToEnemy": true
      },
      "combatLock": {
        "lockShape": "CircleLockEnemy",
        "denyLockOn": true,
        "lockType": "Default"
      }
    },
    "combatTemplate": "",
    "abilities": [
      {
        "abilityID": "SceneObj_Level_Fd_Property_Ani_Prop_LargeMechanicDoor_01",
        "abilityName": "SceneObj_Level_Fd_Property_Ani_Prop_LargeMechanicDoor_01",
        "abilityOverride": ""
      }
    ],
    "gadgetAction": {
      "gadgetStateActionList": [
        {
          "$type": "FJGKLJLPOGL",
          "intID": "GadgetState",
          "syncState": true
        }
      ]
    }
  },
  "SceneObj_Level_Fd_Property_Ani_Prop_MechanicDoor_02": {
    "$type": "CJKJIENLOHD",
    "hasModel": true,
    "combat": {
      "property": {
        "hp": 99999.0,
        "isInvincible": true,
        "isLockHP": true,
        "isGhostToAllied": true,
        "isGhostToEnemy": true
      },
      "combatLock": {
        "lockShape": "CircleLockEnemy",
        "denyLockOn": true,
        "lockType": "Default"
      }
    },
    "combatTemplate": "",
    "abilities": [
      {
        "abilityID": "SceneObj_Level_Fd_Property_Ani_Prop_MechanicDoor_02",
        "abilityName": "SceneObj_Level_Fd_Property_Ani_Prop_MechanicDoor_02",
        "abilityOverride": ""
      }
    ],
    "gadgetAction": {
      "gadgetStateActionList": [
        {
          "$type": "FJGKLJLPOGL",
          "intID": "GadgetState",
          "syncState": true
        }
      ]
    }
  },
  "SceneObj_Level_Fd_Property_Ani_Prop_LargeMechanicDoor_02": {
    "$type": "CJKJIENLOHD",
    "hasModel": true,
    "combat": {
      "property": {
        "hp": 99999.0,
        "isInvincible": true,
        "isLockHP": true,
        "isGhostToAllied": true,
        "isGhostToEnemy": true
      },
      "combatLock": {
        "lockShape": "CircleLockEnemy",
        "denyLockOn": true,
        "lockType": "Default"
      }
    },
    "combatTemplate": "",
    "abilities": [
      {
        "abilityID": "SceneObj_Level_Fd_Property_Ani_Prop_LargeMechanicDoor_02",
        "abilityName": "SceneObj_Level_Fd_Property_Ani_Prop_LargeMechanicDoor_02",
        "abilityOverride": ""
      }
    ],
    "gadgetAction": {
      "gadgetStateActionList": [
        {
          "$type": "FJGKLJLPOGL",
          "intID": "GadgetState",
          "syncState": true
        }
      ]
    }
  },
  "SceneObj_Level_Fd_Property_Ani_Prop_MechanicSeal_01": {
    "$type": "CJKJIENLOHD",
    "hasModel": true,
    "combat": {
      "property": {
        "hp": 99999.0,
        "isLockHP": true,
        "isGhostToAllied": true,
        "isGhostToEnemy": true
      },
      "combatLock": {
        "lockShape": "CircleLockEnemy",
        "denyLockOn": true,
        "lockType": "Default"
      }
    },
    "combatTemplate": "",
    "abilities": [
      {
        "abilityID": "SceneObj_Level_Fd_Property_Ani_Prop_MechanicSeal_01",
        "abilityName": "SceneObj_Level_Fd_Property_Ani_Prop_MechanicSeal_01",
        "abilityOverride": ""
      },
      {
        "abilityID": "Scene_RockGadget_Summon_Detect",
        "abilityName": "Scene_RockGadget_Summon_Detect",
        "abilityOverride": ""
      }
    ]
  },
  "SceneObj_Level_Fd_Property_Ani_Prop_MechanicSeal_02": {
    "$type": "CJKJIENLOHD",
    "hasModel": true,
    "combat": {
      "property": {
        "hp": 99999.0,
        "isLockHP": true,
        "isGhostToAllied": true,
        "isGhostToEnemy": true
      },
      "combatLock": {
        "lockShape": "CircleLockEnemy",
        "denyLockOn": true,
        "lockType": "Default"
      }
    },
    "combatTemplate": "",
    "abilities": [
      {
        "abilityID": "SceneObj_Level_Fd_Property_Ani_Prop_MechanicSeal_02",
        "abilityName": "SceneObj_Level_Fd_Property_Ani_Prop_MechanicSeal_02",
        "abilityOverride": ""
      },
      {
        "abilityID": "Scene_RockGadget_Summon_Detect",
        "abilityName": "Scene_RockGadget_Summon_Detect",
        "abilityOverride": ""
      }
    ]
  },
  "SceneObj_Level_Fd_Property_Ani_Prop_MechanicSeal_03": {
    "$type": "CJKJIENLOHD",
    "hasModel": true,
    "combat": {
      "property": {
        "hp": 99999.0,
        "isLockHP": true,
        "isGhostToAllied": true,
        "isGhostToEnemy": true
      },
      "combatLock": {
        "lockShape": "CircleLockEnemy",
        "denyLockOn": true,
        "lockType": "Default"
      }
    },
    "combatTemplate": "",
    "abilities": [
      {
        "abilityID": "SceneObj_Level_Fd_Property_Ani_Prop_MechanicSeal_03",
        "abilityName": "SceneObj_Level_Fd_Property_Ani_Prop_MechanicSeal_03",
        "abilityOverride": ""
      },
      {
        "abilityID": "Scene_RockGadget_Summon_Detect",
        "abilityName": "Scene_RockGadget_Summon_Detect",
        "abilityOverride": ""
      }
    ]
  },
  "SceneObj_Level_Fd_Property_Ani_Prop_TransformFloor_01": {
    "$type": "CJKJIENLOHD",
    "hasModel": true,
    "combat": {
      "property": {
        "hp": 99999.0,
        "isInvincible": true,
        "isLockHP": true,
        "isGhostToAllied": true,
        "isGhostToEnemy": true
      },
      "combatLock": {
        "lockShape": "CircleLockEnemy",
        "denyLockOn": true,
        "lockType": "Default"
      }
    },
    "combatTemplate": "",
    "abilities": [
      {
        "abilityID": "SceneObj_Level_Fd_Property_Ani_Prop_TransformFloor_01",
        "abilityName": "SceneObj_Level_Fd_Property_Ani_Prop_TransformFloor_01",
        "abilityOverride": ""
      }
    ],
    "gadgetAction": {
      "gadgetStateActionList": [
        {
          "$type": "FJGKLJLPOGL",
          "intID": "GadgetState",
          "syncState": true
        }
      ]
    }
  },
  "SceneObj_Area_Fd_Property_Ani_Prop_Cannon_01": {
    "$type": "CJKJIENLOHD",
    "combat": {
      "property": {
        "hp": 99999.0,
        "isLockHP": true,
        "isGhostToAllied": true,
        "isGhostToEnemy": true
      },
      "combatLock": {
        "lockShape": "CircleLockEnemy",
        "denyLockOn": true,
        "lockType": "Default"
      }
    },
    "combatTemplate": "",
    "abilities": [
      {
        "abilityID": "SceneObj_Area_Fd_Property_Ani_Prop_Cannon_01",
        "abilityName": "SceneObj_Area_Fd_Property_Ani_Prop_Cannon_01",
        "abilityOverride": ""
      }
    ],
    "uiInteract": {
      "gadgetUIBtnCfgPath": "TEST/TEST_Chest_Btn",
      "uiName": "",
      "onTouch": "WidgetMPSupport",
      "touchParams": [
        "SceneObj_Area_Fd_Property_Ani_Prop_Cannon_01"
      ],
      "icon": "",
      "groupName": "",
      "confirmDialogTitle": "",
      "confirmDialogContent": ""
    },
    "gadgetAction": {
      "gadgetStateActionList": [
        {
          "$type": "DEMJBAICBKO",
          "enable": true
        },
        {
          "$type": "DEMJBAICBKO",
          "triggerID": "GearStop"
        }
      ]
    },
    "intee": {
      "triggerHeight": 4.0,
      "triggerOffset": {
        "y": 1.0
      },
      "KAMIAMNMFCP": ""
    }
  },
  "SceneObj_Area_Fd_Property_Ani_Prop_Cannon_02": {
    "$type": "CJKJIENLOHD",
    "combat": {
      "property": {
        "hp": 99999.0,
        "isLockHP": true,
        "isGhostToAllied": true,
        "isGhostToEnemy": true
      },
      "combatLock": {
        "lockShape": "CircleLockEnemy",
        "denyLockOn": true,
        "lockType": "Default"
      }
    },
    "combatTemplate": "",
    "abilities": [
      {
        "abilityID": "SceneObj_Area_Fd_Property_Ani_Prop_Cannon_02",
        "abilityName": "SceneObj_Area_Fd_Property_Ani_Prop_Cannon_02",
        "abilityOverride": ""
      }
    ],
    "uiInteract": {
      "gadgetUIBtnCfgPath": "TEST/TEST_Chest_Btn",
      "uiName": "",
      "onTouch": "WidgetMPSupport",
      "touchParams": [
        "SceneObj_Area_Fd_Property_Ani_Prop_Cannon_02"
      ],
      "icon": "",
      "groupName": "",
      "confirmDialogTitle": "",
      "confirmDialogContent": ""
    },
    "gadgetAction": {
      "gadgetStateActionList": [
        {
          "$type": "DEMJBAICBKO",
          "enable": true
        },
        {
          "$type": "DEMJBAICBKO",
          "triggerID": "GearStop"
        }
      ]
    },
    "intee": {
      "triggerHeight": 4.0,
      "triggerOffset": {
        "y": 1.0
      },
      "KAMIAMNMFCP": ""
    }
  },
  "SceneObj_UnderSea_TalkGadget": {
    "$type": "CJKJIENLOHD",
    "common": {
      "affectedByWorld": true
    },
    "combatTemplate": "",
    "uiInteract": {
      "gadgetUIBtnCfgPath": "TEST/TEST_Chest_Btn",
      "uiName": "",
      "icon": "",
      "groupName": "",
      "confirmDialogTitle": "",
      "confirmDialogContent": "",
      "canInteractInCombat": false
    },
    "intee": {
      "triggerHeight": 3.0,
      "KAMIAMNMFCP": ""
    }
  },
  "SceneObj_Area_Fd_Property_Ani_Prop_OperatorRevive_01": {
    "$type": "CJKJIENLOHD",
    "model": {
      "bornEffect": "",
      "attachEffect": "Eff_SceneObj_DungeonWayPoint_01",
      "BKPFGNPLDNJ": ""
    },
    "hasModel": true,
    "combat": {
      "property": {
        "hp": 99999.0,
        "isInvincible": true,
        "isLockHP": true,
        "isGhostToAllied": true,
        "isGhostToEnemy": true
      }
    },
    "combatTemplate": ""
  },
  "SceneObj_Area_Fd_Property_Ani_Prop_PubBGMGadget": {
    "$type": "CJKJIENLOHD",
    "KJGJCNANPJP": true,
    "combat": {
      "property": {
        "hp": 99999.0,
        "isInvincible": true,
        "isLockHP": true,
        "isGhostToAllied": true,
        "isGhostToEnemy": true
      },
      "combatLock": {
        "lockShape": "CircleLockEnemy",
        "denyLockOn": true,
        "lockType": "Default"
      }
    },
    "combatTemplate": ""
  },
  "SceneObj_UnderSea_Nutcracker_BGMGadget": {
    "$type": "CJKJIENLOHD",
    "KJGJCNANPJP": true,
    "hasModel": true,
    "combat": {
      "property": {
        "hp": 99999.0,
        "isInvincible": true,
        "isLockHP": true,
        "isGhostToAllied": true,
        "isGhostToEnemy": true
      },
      "combatLock": {
        "lockShape": "CircleLockEnemy",
        "denyLockOn": true,
        "lockType": "Default"
      }
    },
    "combatTemplate": "",
    "abilities": [
      {
        "abilityID": "SceneObj_UnderSea_Nutcracker_BGMGadget",
        "abilityName": "SceneObj_UnderSea_Nutcracker_BGMGadget",
        "abilityOverride": ""
      }
    ]
  },
  "SceneObj_PainterWQ_CameraController_01": {
    "$type": "CJKJIENLOHD",
    "common": {
      "disableTickDistance": 100000.0
    },
    "combat": {
      "property": {
        "hp": 99999.0,
        "isInvincible": true,
        "isLockHP": true,
        "isGhostToAllied": true,
        "isGhostToEnemy": true
      }
    },
    "combatTemplate": "",
    "vodPlayer": {
      "configName": "Ca_Scene_PainterWQ_Field_SideScrolling",
      "enterRadius": 50.0,
      "exitRadius": 60.0,
      "EDLGIFNDCMM": true
    }
  },
  "SceneObj_PainterWQ_CameraController_02": {
    "$type": "CJKJIENLOHD",
    "common": {
      "disableTickDistance": 100000.0
    },
    "combat": {
      "property": {
        "hp": 99999.0,
        "isInvincible": true,
        "isLockHP": true,
        "isGhostToAllied": true,
        "isGhostToEnemy": true
      }
    },
    "combatTemplate": "",
    "vodPlayer": {
      "configName": "Ca_Scene_PainterWQ_Field_SideScrolling_02",
      "enterRadius": 50.0,
      "exitRadius": 60.0,
      "EDLGIFNDCMM": true
    }
  },
  "SceneObj_PainterWQ_CameraController_03": {
    "$type": "CJKJIENLOHD",
    "common": {
      "disableTickDistance": 100000.0
    },
    "combat": {
      "property": {
        "hp": 99999.0,
        "isInvincible": true,
        "isLockHP": true,
        "isGhostToAllied": true,
        "isGhostToEnemy": true
      }
    },
    "combatTemplate": "",
    "vodPlayer": {
      "configName": "Ca_Scene_PainterWQ_Field_SideScrolling_03",
      "enterRadius": 50.0,
      "exitRadius": 60.0,
      "EDLGIFNDCMM": true
    }
  },
  "SceneObj_PainterWQ_CameraController_04": {
    "$type": "CJKJIENLOHD",
    "common": {
      "disableTickDistance": 100000.0
    },
    "combat": {
      "property": {
        "hp": 99999.0,
        "isInvincible": true,
        "isLockHP": true,
        "isGhostToAllied": true,
        "isGhostToEnemy": true
      }
    },
    "combatTemplate": "",
    "vodPlayer": {
      "configName": "Ca_Scene_PainterWQ_Field_SideScrolling_04",
      "enterRadius": 50.0,
      "exitRadius": 60.0,
      "EDLGIFNDCMM": true
    }
  },
  "SceneObj_PainterWQ_CameraController_05": {
    "$type": "CJKJIENLOHD",
    "common": {
      "disableTickDistance": 100000.0
    },
    "combat": {
      "property": {
        "hp": 99999.0,
        "isInvincible": true,
        "isLockHP": true,
        "isGhostToAllied": true,
        "isGhostToEnemy": true
      }
    },
    "combatTemplate": "",
    "vodPlayer": {
      "configName": "Ca_Scene_PainterWQ_Field_SideScrolling_05",
      "enterRadius": 50.0,
      "exitRadius": 60.0,
      "EDLGIFNDCMM": true
    }
  },
  "SceneObj_PainterWQ_CameraController_06": {
    "$type": "CJKJIENLOHD",
    "common": {
      "disableTickDistance": 100000.0
    },
    "combat": {
      "property": {
        "hp": 99999.0,
        "isInvincible": true,
        "isLockHP": true,
        "isGhostToAllied": true,
        "isGhostToEnemy": true
      }
    },
    "combatTemplate": "",
    "vodPlayer": {
      "configName": "Ca_Scene_PainterWQ_Field_SideScrolling_06",
      "enterRadius": 50.0,
      "exitRadius": 60.0,
      "EDLGIFNDCMM": true
    }
  },
  "SceneObj_Area_Fd_Property_Ani_Prop_GearSoundGadget": {
    "$type": "CJKJIENLOHD",
    "KJGJCNANPJP": true,
    "combat": {
      "property": {
        "hp": 99999.0,
        "isInvincible": true,
        "isLockHP": true,
        "isGhostToAllied": true,
        "isGhostToEnemy": true
      },
      "combatLock": {
        "lockShape": "CircleLockEnemy",
        "denyLockOn": true,
        "lockType": "Default"
      }
    },
    "combatTemplate": "",
    "gadgetAction": {
      "gadgetStateActionList": [
        {
          "$type": "FJGKLJLPOGL",
          "intID": "State",
          "syncState": true
        }
      ]
    }
  },
  "SceneObj_Area_Fd_Property_Ani_Prop_GadgetGiving_01": {
    "$type": "CJKJIENLOHD",
    "hasModel": true,
    "combat": {
      "property": {
        "hp": 99999.0,
        "isInvincible": true,
        "isLockHP": true,
        "isGhostToAllied": true,
        "isGhostToEnemy": true
      }
    },
    "combatTemplate": "",
    "uiInteract": {
      "gadgetUIBtnCfgPath": "UI/open_gadget_giving_page",
      "uiName": "",
      "touchParams": [
        "10000133"
      ],
      "icon": "",
      "groupName": "",
      "confirmDialogTitle": "",
      "confirmDialogContent": ""
    },
    "intee": {
      "triggerHeight": 3.0,
      "KAMIAMNMFCP": ""
    }
  },
  "SceneObj_Level_Fd_Property_Ani_Prop_Present_Box_01": {
    "$type": "CJKJIENLOHD",
    "hasModel": true,
    "combat": {
      "property": {
        "hp": 99999.0,
        "isLockHP": true,
        "isGhostToAllied": true,
        "isGhostToEnemy": true
      }
    },
    "combatTemplate": "",
    "abilities": [
      {
        "abilityID": "",
        "abilityName": "SceneObj_Level_Fd_Property_Ani_Prop_Present_Box_01",
        "abilityOverride": ""
      }
    ],
    "move": {
      "$type": "OEFHHKHPMCJ"
    },
    "gadgetAction": {
      "gadgetStateActionList": [
        {
          "$type": "FJGKLJLPOGL",
          "intID": "GadgetState",
          "syncState": true
        }
      ]
    }
  },
  "SceneObj_Area_Fd_Property_Prop_WishingPond_01": {
    "$type": "CJKJIENLOHD",
    "common": {
      "disableTickDistance": 100000.0
    },
    "combatTemplate": "default",
    "abilities": [
      {
        "abilityID": "",
        "abilityName": "SceneObj_Area_Fd_Property_Prop_WishingPond_01",
        "abilityOverride": ""
      }
    ],
    "uiInteract": {
      "gadgetUIBtnCfgPath": "UI/open_wishingpondpage_page",
      "uiName": "UI_WISHINGPOND_OFFERING_TITLE",
      "icon": "",
      "groupName": "",
      "confirmDialogTitle": "",
      "confirmDialogContent": ""
    },
    "intee": {
      "triggerRadius": 2.5,
      "KAMIAMNMFCP": ""
    }
  },
  "SceneObj_Area_Common_Property_Ani_Prop_FdBalloonFruit_01": {
    "$type": "CJKJIENLOHD",
    "hasModel": true,
    "combat": {
      "property": {
        "hp": 99999.0,
        "isInvincible": true,
        "isLockHP": true,
        "isGhostToAllied": true,
        "isGhostToEnemy": true
      }
    },
    "combatTemplate": "",
    "abilities": [
      {
        "abilityID": "",
        "abilityName": "SceneObj_Area_Common_Property_Ani_Prop_FdBalloonFruit_01",
        "abilityOverride": ""
      }
    ],
    "uiInteract": {
      "gadgetUIBtnCfgPath": "TEST/TEST_Chest_Btn",
      "uiName": "",
      "onTouch": "WidgetMPSupport",
      "touchParams": [
        "SceneObj_Area_Common_Property_Ani_Prop_FdBalloonFruit_01"
      ],
      "icon": "",
      "groupName": "",
      "confirmDialogTitle": "",
      "confirmDialogContent": ""
    },
    "misc": {
      "escapeEffect": "",
      "targetIndicatorYOffset": 1.0
    },
    "gadgetAction": {
      "gadgetStateActionList": [
        {
          "$type": "DEMJBAICBKO",
          "enable": true
        },
        {
          "$type": "DEMJBAICBKO",
          "triggerID": "GearStop"
        },
        {
          "$type": "DEMJBAICBKO",
          "triggerID": "GearStart"
        }
      ]
    },
    "intee": {
      "triggerRadius": 4.0,
      "triggerHeight": 5.0,
      "KAMIAMNMFCP": ""
    }
  },
  "SceneObj_Area_Fd_Property_Ani_Prop_FDHintLine_01": {
    "$type": "CJKJIENLOHD",
    "model": {
      "bornEffect": "",
      "attachEffect": "Eff_SceneObj_FDHintLine_01_Active",
      "BKPFGNPLDNJ": ""
    },
    "hasModel": true,
    "combat": {
      "property": {
        "hp": 99999.0,
        "isLockHP": true,
        "isGhostToAllied": true,
        "isGhostToEnemy": true
      },
      "die": {
        "dieEndTime": 1.5,
        "dieForceDisappearTime": 1.5,
        "dieDisappearEffect": ""
      }
    },
    "combatTemplate": "",
    "abilities": [
      {
        "abilityID": "",
        "abilityName": "SceneObj_Area_Fd_Property_Ani_Prop_FDHintLine_01",
        "abilityOverride": ""
      }
    ]
  },
  "SceneObj_Area_Fd_Property_Ani_Prop_FDHintLine_02": {
    "$type": "CJKJIENLOHD",
    "model": {
      "bornEffect": "",
      "attachEffect": "Eff_SceneObj_FDHintLine_03_Active",
      "BKPFGNPLDNJ": ""
    },
    "hasModel": true,
    "combat": {
      "property": {
        "hp": 99999.0,
        "isLockHP": true,
        "isGhostToAllied": true,
        "isGhostToEnemy": true
      },
      "die": {
        "dieEndTime": 1.5,
        "dieForceDisappearTime": 1.5,
        "dieDisappearEffect": ""
      }
    },
    "combatTemplate": "",
    "abilities": [
      {
        "abilityID": "",
        "abilityName": "SceneObj_Area_Fd_Property_Ani_Prop_FDHintLine_02",
        "abilityOverride": ""
      }
    ]
  },
  "SceneObj_Area_Fd_Property_Ani_Prop_FDHintLine_03": {
    "$type": "CJKJIENLOHD",
    "model": {
      "bornEffect": "",
      "attachEffect": "Eff_SceneObj_FDHintLine_04_Active",
      "BKPFGNPLDNJ": ""
    },
    "hasModel": true,
    "combat": {
      "property": {
        "hp": 99999.0,
        "isLockHP": true,
        "isGhostToAllied": true,
        "isGhostToEnemy": true
      },
      "die": {
        "dieEndTime": 1.5,
        "dieForceDisappearTime": 1.5,
        "dieDisappearEffect": ""
      }
    },
    "combatTemplate": "",
    "abilities": [
      {
        "abilityID": "",
        "abilityName": "SceneObj_Area_Fd_Property_Ani_Prop_FDHintLine_03",
        "abilityOverride": ""
      }
    ]
  },
  "SceneObj_Area_Fd_Property_Ani_Prop_FDHintLine_07": {
    "$type": "CJKJIENLOHD",
    "model": {
      "bornEffect": "",
      "attachEffect": "Eff_SceneObj_FDHintLine_07_Active",
      "BKPFGNPLDNJ": ""
    },
    "hasModel": true,
    "combat": {
      "property": {
        "hp": 99999.0,
        "isLockHP": true,
        "isGhostToAllied": true,
        "isGhostToEnemy": true
      },
      "die": {
        "dieEndTime": 1.5,
        "dieForceDisappearTime": 1.5,
        "dieDisappearEffect": ""
      }
    },
    "combatTemplate": "",
    "abilities": [
      {
        "abilityID": "",
        "abilityName": "SceneObj_Area_Fd_Property_Ani_Prop_FDHintLine_07",
        "abilityOverride": ""
      }
    ]
  },
  "SceneObj_Area_Fd_Property_Ani_Prop_FDHintLine_08": {
    "$type": "CJKJIENLOHD",
    "model": {
      "bornEffect": "",
      "attachEffect": "Eff_SceneObj_FDHintLine_08_Active",
      "BKPFGNPLDNJ": ""
    },
    "hasModel": true,
    "combat": {
      "property": {
        "hp": 99999.0,
        "isLockHP": true,
        "isGhostToAllied": true,
        "isGhostToEnemy": true
      },
      "die": {
        "dieEndTime": 1.5,
        "dieForceDisappearTime": 1.5,
        "dieDisappearEffect": ""
      }
    },
    "combatTemplate": "",
    "abilities": [
      {
        "abilityID": "",
        "abilityName": "SceneObj_Area_Fd_Property_Ani_Prop_FDHintLine_08",
        "abilityOverride": ""
      }
    ]
  },
  "SceneObj_Area_Fd_Property_Ani_Prop_FDHintLine_09": {
    "$type": "CJKJIENLOHD",
    "model": {
      "bornEffect": "",
      "attachEffect": "Eff_SceneObj_FDHintLine_09_Active",
      "BKPFGNPLDNJ": ""
    },
    "hasModel": true,
    "combat": {
      "property": {
        "hp": 99999.0,
        "isLockHP": true,
        "isGhostToAllied": true,
        "isGhostToEnemy": true
      },
      "die": {
        "dieEndTime": 1.5,
        "dieForceDisappearTime": 1.5,
        "dieDisappearEffect": ""
      }
    },
    "combatTemplate": "",
    "abilities": [
      {
        "abilityID": "",
        "abilityName": "SceneObj_Area_Fd_Property_Ani_Prop_FDHintLine_09",
        "abilityOverride": ""
      }
    ]
  },
  "SceneObj_Area_Fd_Property_Prop_ConchBGM_01": {
    "$type": "CJKJIENLOHD",
    "common": {
      "disableTickDistance": 100000.0
    },
    "KJGJCNANPJP": true,
    "combat": {
      "property": {
        "hp": 99999.0,
        "isLockHP": true,
        "isGhostToAllied": true,
        "isGhostToEnemy": true
      }
    },
    "combatTemplate": "",
    "abilities": [
      {
        "abilityID": "",
        "abilityName": "SceneObj_Area_Fd_Property_Prop_ConchBGM_01",
        "abilityOverride": ""
      }
    ]
  },
  "SceneObj_Area_Fd_Property_Ani_Prop_FDHintLine_06": {
    "$type": "CJKJIENLOHD",
    "model": {
      "bornEffect": "",
      "attachEffect": "Eff_SceneObj_FDHintLine_06_Active",
      "BKPFGNPLDNJ": ""
    },
    "hasModel": true,
    "combat": {
      "property": {
        "hp": 99999.0,
        "isLockHP": true,
        "isGhostToAllied": true,
        "isGhostToEnemy": true
      },
      "die": {
        "dieEndTime": 1.5,
        "dieForceDisappearTime": 1.5,
        "dieDisappearEffect": ""
      }
    },
    "combatTemplate": "",
    "abilities": [
      {
        "abilityID": "",
        "abilityName": "SceneObj_Area_Fd_Property_Ani_Prop_FDHintLine_06",
        "abilityOverride": ""
      }
    ]
  },
  "SceneObj_Area_Fd_Property_Ani_Prop_FDHintLine_04": {
    "$type": "CJKJIENLOHD",
    "model": {
      "bornEffect": "",
      "attachEffect": "Eff_SceneObj_FDHintLine_05_Active",
      "BKPFGNPLDNJ": ""
    },
    "hasModel": true,
    "combat": {
      "property": {
        "hp": 99999.0,
        "isLockHP": true,
        "isGhostToAllied": true,
        "isGhostToEnemy": true
      },
      "die": {
        "dieEndTime": 1.5,
        "dieForceDisappearTime": 1.5,
        "dieDisappearEffect": ""
      }
    },
    "combatTemplate": "",
    "abilities": [
      {
        "abilityID": "",
        "abilityName": "SceneObj_Area_Fd_Property_Ani_Prop_FDHintLine_04",
        "abilityOverride": ""
      }
    ]
  },
  "SceneObj_Area_Fd_Property_Ani_Prop_FDHintLine_05": {
    "$type": "CJKJIENLOHD",
    "model": {
      "bornEffect": "",
      "attachEffect": "Eff_SceneObj_FDHintLine_02_Active",
      "BKPFGNPLDNJ": ""
    },
    "hasModel": true,
    "combat": {
      "property": {
        "hp": 99999.0,
        "isLockHP": true,
        "isGhostToAllied": true,
        "isGhostToEnemy": true
      },
      "die": {
        "dieEndTime": 1.5,
        "dieForceDisappearTime": 1.5,
        "dieDisappearEffect": ""
      }
    },
    "combatTemplate": "",
    "abilities": [
      {
        "abilityID": "",
        "abilityName": "SceneObj_Area_Fd_Property_Ani_Prop_FDHintLine_05",
        "abilityOverride": ""
      }
    ]
  },
  "SceneObj_Area_Fd_Property_Ani_Prop_SmallFountain_01": {
    "$type": "CJKJIENLOHD",
    "hasModel": true,
    "combat": {
      "property": {
        "hp": 99999.0,
        "isInvincible": true,
        "isLockHP": true,
        "isGhostToAllied": true,
        "isGhostToEnemy": true
      },
      "combatLock": {
        "lockShape": "CircleLockEnemy",
        "denyLockOn": true,
        "lockType": "Default"
      }
    },
    "combatTemplate": "",
    "abilities": [
      {
        "abilityID": "",
        "abilityName": "SceneObj_Area_Fd_Property_Ani_Prop_SmallFountain_01",
        "abilityOverride": ""
      }
    ]
  },
  "SceneObj_Area_Common_Property_Ani_Prop_Flying_Orb_Underwater_01": {
    "$type": "CJKJIENLOHD",
    "model": {
      "bornEffect": "",
      "attachEffect": "Eff_SceneObj_Flying_Orb_Underwater_01",
      "BKPFGNPLDNJ": ""
    },
    "hasModel": true,
    "combatTemplate": "default",
    "abilities": [
      {
        "abilityID": "",
        "abilityName": "SceneObj_Area_Common_Property_Ani_Prop_Flying_Orb_Underwater_01",
        "abilityOverride": ""
      }
    ],
    "field": {
      "shape": "",
      "fromShape": "",
      "triggerInfinite": true,
      "lifeInfinite": true,
      "checkInterval": 0.20000000298023224,
      "campType": "AllExceptSelf",
      "colliderName": "Trigger",
      "fromColliderName": ""
    },
    "move": {
      "$type": "OEFHHKHPMCJ",
      "avatarTriggerEventDistance": 20.0
    }
  },
  "SceneObj_Area_Common_Property_Ani_Prop_FdBalloonFruit_02": {
    "$type": "CJKJIENLOHD",
    "common": {
      "disableTickDistance": 1500.0
    },
    "hasModel": true,
    "combat": {
      "property": {
        "hp": 10.0,
        "attack": 80.0,
        "weight": 80.0
      },
      "beHit": {
        "hitBloodEffect": "",
        "hitAutoRedirect": false,
        "muteAllHitEffect": true,
        "muteAllHitText": true
      },
      "combatLock": {
        "lockShape": "CircleLockEnemy",
        "lockType": "Avatar&Monster_Lv4"
      },
      "die": {
        "hasAnimatorDie": true,
        "dieEndTime": 0.10000000149011612,
        "dieForceDisappearTime": 0.10000000149011612,
        "dieDisappearEffect": ""
      }
    },
    "combatTemplate": "",
    "abilities": [
      {
        "abilityID": "",
        "abilityName": "SceneObj_Area_Common_Property_Ani_Prop_FdBalloonFruit_02",
        "abilityOverride": ""
      }
    ],
    "move": {
      "$type": "OEFHHKHPMCJ"
    }
  },
  "SceneObj_Area_Common_Property_Ani_Prop_FdBalloonFruit_03": {
    "$type": "CJKJIENLOHD",
    "common": {
      "disableTickDistance": 1500.0
    },
    "hasModel": true,
    "combat": {
      "property": {
        "hp": 10.0,
        "attack": 80.0,
        "weight": 80.0
      },
      "beHit": {
        "hitBloodEffect": "",
        "hitAutoRedirect": false,
        "muteAllHitEffect": true,
        "muteAllHitText": true
      },
      "combatLock": {
        "lockShape": "CircleLockEnemy",
        "lockType": "Avatar&Monster_Lv4"
      },
      "die": {
        "hasAnimatorDie": true,
        "dieEndTime": 0.10000000149011612,
        "dieForceDisappearTime": 0.10000000149011612,
        "dieDisappearEffect": ""
      }
    },
    "combatTemplate": "",
    "abilities": [
      {
        "abilityID": "",
        "abilityName": "SceneObj_Area_Common_Property_Ani_Prop_FdBalloonFruit_03",
        "abilityOverride": ""
      }
    ],
    "move": {
      "$type": "OEFHHKHPMCJ"
    }
  },
  "SceneObj_Area_Fd_Property_Ani_Prop_RuinElevator_01": {
    "$type": "CJKJIENLOHD",
    "common": {
      "disableTickDistance": 150000.0
    },
    "hasModel": true,
    "combat": {
      "property": {
        "hp": 99999.0,
        "isInvincible": true,
        "isLockHP": true,
        "isGhostToAllied": true,
        "isGhostToEnemy": true
      }
    },
    "combatTemplate": "",
    "abilities": [
      {
        "abilityID": "SceneObj_Area_Fd_Property_Ani_Prop_RuinElevator_01",
        "abilityName": "SceneObj_Area_Fd_Property_Ani_Prop_RuinElevator_01",
        "abilityOverride": ""
      }
    ],
    "move": {
      "$type": "OEFHHKHPMCJ"
    }
  },
  "SceneObj_Property_Stages_Prop_ChallengestarterUnderWater_02": {
    "$type": "CJKJIENLOHD",
    "hasModel": true,
    "combat": {
      "property": {
        "hp": 99999.0,
        "attack": 50.0,
        "weight": 50.0,
        "isLockHP": true
      },
      "beHit": {
        "hitBloodEffect": "",
        "hitAutoRedirect": false,
        "muteAllHitText": true
      },
      "combatLock": {
        "lockShape": "CircleLockEnemy",
        "denyLockOn": true,
        "lockType": "Gadget_Lv1"
      }
    },
    "combatTemplate": "",
    "abilities": [
      {
        "abilityID": "SceneObj_Property_Stages_Prop_ChallengestarterUnderWater_02",
        "abilityName": "SceneObj_Property_Stages_Prop_ChallengestarterUnderWater_02",
        "abilityOverride": ""
      }
    ],
    "field": {
      "concernType": "AllAvatars",
      "shape": "",
      "fromShape": "",
      "triggerInfinite": true,
      "lifeInfinite": true,
      "checkInterval": 0.20000000298023224,
      "overwriteCampType": true,
      "campType": "All",
      "colliderName": "",
      "fromColliderName": ""
    },
    "misc": {
      "escapeEffect": "",
      "guidePoint": true,
      "guidePointManagedByIndicator": true,
      "targetIndicatorYOffset": 3.0
    },
    "gadgetAction": {
      "gadgetStateActionList": [
        {
          "$type": "FJGKLJLPOGL",
          "intID": "State",
          "syncState": true
        },
        {
          "$type": "OLDOOKBEKJI",
          "parameter": "State",
          "damageRatio": "Int",
          "rotationDampTime": "Eff_SceneObj_ChallengestarterUW_02"
        },
        {
          "$type": "OLDOOKBEKJI",
          "triggerID": "GearStart",
          "parameter": "State",
          "damageRatio": "Int",
          "value": 201,
          "rotationDampTime": "Eff_SceneObj_ChallengestarterUW_02"
        },
        {
          "$type": "OLDOOKBEKJI",
          "triggerID": "GearStop",
          "parameter": "State",
          "damageRatio": "Int",
          "value": 202,
          "rotationDampTime": "Eff_SceneObj_ChallengestarterUW_02"
        }
      ]
    },
    "billboard": {
      "$type": "KMCIKEIBFAH",
      "attachPoint": "BillboardAttach",
      "offset": {
        "y": 2.5
      },
      "forceHideAllBars": true
    }
  },
  "SceneObj_Property_Stages_Prop_ChallengestarterUnderWater_02_UW": {
    "$type": "CJKJIENLOHD",
    "hasModel": true,
    "combat": {
      "property": {
        "hp": 99999.0,
        "attack": 50.0,
        "weight": 50.0,
        "isLockHP": true
      },
      "beHit": {
        "hitBloodEffect": "",
        "hitAutoRedirect": false,
        "muteAllHitText": true
      },
      "combatLock": {
        "lockShape": "CircleLockEnemy",
        "denyLockOn": true,
        "lockType": "Gadget_Lv1"
      }
    },
    "combatTemplate": "",
    "abilities": [
      {
        "abilityID": "SceneObj_Property_Stages_Prop_ChallengestarterUnderWater_02_UW",
        "abilityName": "SceneObj_Property_Stages_Prop_ChallengestarterUnderWater_02_UW",
        "abilityOverride": ""
      }
    ],
    "field": {
      "concernType": "AllAvatars",
      "shape": "",
      "fromShape": "",
      "triggerInfinite": true,
      "lifeInfinite": true,
      "checkInterval": 0.20000000298023224,
      "overwriteCampType": true,
      "campType": "All",
      "colliderName": "",
      "fromColliderName": ""
    },
    "misc": {
      "escapeEffect": "",
      "guidePoint": true,
      "guidePointManagedByIndicator": true,
      "targetIndicatorYOffset": 3.0
    },
    "gadgetAction": {
      "gadgetStateActionList": [
        {
          "$type": "FJGKLJLPOGL",
          "intID": "State",
          "syncState": true
        },
        {
          "$type": "OLDOOKBEKJI",
          "parameter": "State",
          "damageRatio": "Int",
          "rotationDampTime": "Eff_SceneObj_Challengestarter_02_UW"
        },
        {
          "$type": "OLDOOKBEKJI",
          "triggerID": "GearStart",
          "parameter": "State",
          "damageRatio": "Int",
          "value": 201,
          "rotationDampTime": "Eff_SceneObj_Challengestarter_02_UW"
        },
        {
          "$type": "OLDOOKBEKJI",
          "triggerID": "GearStop",
          "parameter": "State",
          "damageRatio": "Int",
          "value": 202,
          "rotationDampTime": "Eff_SceneObj_Challengestarter_02_UW"
        }
      ]
    },
    "billboard": {
      "$type": "KMCIKEIBFAH",
      "attachPoint": "BillboardAttach",
      "offset": {
        "y": 2.5
      },
      "forceHideAllBars": true
    }
  },
  "SceneObj_Property_Stages_Prop_ChallengestarterUnderWater_03": {
    "$type": "CJKJIENLOHD",
    "hasModel": true,
    "combat": {
      "property": {
        "hp": 99999.0,
        "attack": 50.0,
        "weight": 50.0,
        "isLockHP": true
      },
      "beHit": {
        "hitBloodEffect": "",
        "hitAutoRedirect": false,
        "muteAllHitText": true
      },
      "combatLock": {
        "lockShape": "CircleLockEnemy",
        "denyLockOn": true,
        "lockType": "Gadget_Lv1"
      }
    },
    "combatTemplate": "",
    "abilities": [
      {
        "abilityID": "SceneObj_Property_Stages_Prop_ChallengestarterUnderWater_03",
        "abilityName": "SceneObj_Property_Stages_Prop_ChallengestarterUnderWater_03",
        "abilityOverride": ""
      }
    ],
    "field": {
      "concernType": "AllAvatars",
      "shape": "",
      "fromShape": "",
      "triggerInfinite": true,
      "lifeInfinite": true,
      "checkInterval": 0.20000000298023224,
      "overwriteCampType": true,
      "campType": "All",
      "colliderName": "",
      "fromColliderName": ""
    },
    "misc": {
      "escapeEffect": "",
      "guidePoint": true,
      "guidePointManagedByIndicator": true,
      "targetIndicatorYOffset": 3.0
    },
    "gadgetAction": {
      "gadgetStateActionList": [
        {
          "$type": "FJGKLJLPOGL",
          "intID": "State",
          "syncState": true
        },
        {
          "$type": "OLDOOKBEKJI",
          "parameter": "State",
          "damageRatio": "Int",
          "rotationDampTime": "Eff_SceneObj_ChallengestarterUW_03"
        },
        {
          "$type": "OLDOOKBEKJI",
          "triggerID": "GearStart",
          "parameter": "State",
          "damageRatio": "Int",
          "value": 201,
          "rotationDampTime": "Eff_SceneObj_ChallengestarterUW_03"
        },
        {
          "$type": "OLDOOKBEKJI",
          "triggerID": "GearStop",
          "parameter": "State",
          "damageRatio": "Int",
          "value": 202,
          "rotationDampTime": "Eff_SceneObj_ChallengestarterUW_03"
        }
      ]
    },
    "billboard": {
      "$type": "KMCIKEIBFAH",
      "attachPoint": "BillboardAttach",
      "offset": {
        "y": 2.5
      },
      "forceHideAllBars": true
    }
  },
  "SceneObj_Property_Stages_Prop_ChallengestarterUnderWater_03_UW": {
    "$type": "CJKJIENLOHD",
    "hasModel": true,
    "combat": {
      "property": {
        "hp": 99999.0,
        "attack": 50.0,
        "weight": 50.0,
        "isLockHP": true
      },
      "beHit": {
        "hitBloodEffect": "",
        "hitAutoRedirect": false,
        "muteAllHitText": true
      },
      "combatLock": {
        "lockShape": "CircleLockEnemy",
        "denyLockOn": true,
        "lockType": "Gadget_Lv1"
      }
    },
    "combatTemplate": "",
    "abilities": [
      {
        "abilityID": "SceneObj_Property_Stages_Prop_ChallengestarterUnderWater_03_UW",
        "abilityName": "SceneObj_Property_Stages_Prop_ChallengestarterUnderWater_03_UW",
        "abilityOverride": ""
      }
    ],
    "field": {
      "concernType": "AllAvatars",
      "shape": "",
      "fromShape": "",
      "triggerInfinite": true,
      "lifeInfinite": true,
      "checkInterval": 0.20000000298023224,
      "overwriteCampType": true,
      "campType": "All",
      "colliderName": "",
      "fromColliderName": ""
    },
    "misc": {
      "escapeEffect": "",
      "guidePoint": true,
      "guidePointManagedByIndicator": true,
      "targetIndicatorYOffset": 3.0
    },
    "gadgetAction": {
      "gadgetStateActionList": [
        {
          "$type": "FJGKLJLPOGL",
          "intID": "State",
          "syncState": true
        },
        {
          "$type": "OLDOOKBEKJI",
          "parameter": "State",
          "damageRatio": "Int",
          "rotationDampTime": "Eff_SceneObj_Challengestarter_03_UW"
        },
        {
          "$type": "OLDOOKBEKJI",
          "triggerID": "GearStart",
          "parameter": "State",
          "damageRatio": "Int",
          "value": 201,
          "rotationDampTime": "Eff_SceneObj_Challengestarter_03_UW"
        },
        {
          "$type": "OLDOOKBEKJI",
          "triggerID": "GearStop",
          "parameter": "State",
          "damageRatio": "Int",
          "value": 202,
          "rotationDampTime": "Eff_SceneObj_Challengestarter_03_UW"
        }
      ]
    },
    "billboard": {
      "$type": "KMCIKEIBFAH",
      "attachPoint": "BillboardAttach",
      "offset": {
        "y": 2.5
      },
      "forceHideAllBars": true
    }
  },
  "SceneObj_Property_Stages_Prop_ChallengestarterUnderWater_01": {
    "$type": "CJKJIENLOHD",
    "hasModel": true,
    "combat": {
      "property": {
        "hp": 99999.0,
        "attack": 50.0,
        "weight": 50.0,
        "isLockHP": true
      },
      "beHit": {
        "hitBloodEffect": "",
        "hitAutoRedirect": false,
        "muteAllHitText": true
      },
      "combatLock": {
        "lockShape": "CircleLockEnemy",
        "denyLockOn": true,
        "lockType": "Gadget_Lv1"
      }
    },
    "combatTemplate": "",
    "abilities": [
      {
        "abilityID": "SceneObj_Property_Stages_Prop_ChallengestarterUnderWater_01",
        "abilityName": "SceneObj_Property_Stages_Prop_ChallengestarterUnderWater_01",
        "abilityOverride": ""
      }
    ],
    "field": {
      "concernType": "AllAvatars",
      "shape": "",
      "fromShape": "",
      "triggerInfinite": true,
      "lifeInfinite": true,
      "checkInterval": 0.20000000298023224,
      "overwriteCampType": true,
      "campType": "All",
      "colliderName": "",
      "fromColliderName": ""
    },
    "misc": {
      "escapeEffect": "",
      "guidePoint": true,
      "guidePointManagedByIndicator": true,
      "targetIndicatorYOffset": 3.0
    },
    "gadgetAction": {
      "gadgetStateActionList": [
        {
          "$type": "FJGKLJLPOGL",
          "intID": "State",
          "syncState": true
        },
        {
          "$type": "OLDOOKBEKJI",
          "parameter": "State",
          "damageRatio": "Int",
          "rotationDampTime": "Eff_SceneObj_ChallengestarterUW_01"
        },
        {
          "$type": "OLDOOKBEKJI",
          "triggerID": "GearStart",
          "parameter": "State",
          "damageRatio": "Int",
          "value": 201,
          "rotationDampTime": "Eff_SceneObj_ChallengestarterUW_01"
        },
        {
          "$type": "OLDOOKBEKJI",
          "triggerID": "GearStop",
          "parameter": "State",
          "damageRatio": "Int",
          "value": 202,
          "rotationDampTime": "Eff_SceneObj_ChallengestarterUW_01"
        }
      ]
    },
    "billboard": {
      "$type": "KMCIKEIBFAH",
      "attachPoint": "BillboardAttach",
      "offset": {
        "y": 2.5
      },
      "forceHideAllBars": true
    }
  },
  "SceneObj_Property_Stages_Prop_ChallengestarterUnderWater_01_UW": {
    "$type": "CJKJIENLOHD",
    "hasModel": true,
    "combat": {
      "property": {
        "hp": 99999.0,
        "attack": 50.0,
        "weight": 50.0,
        "isLockHP": true
      },
      "beHit": {
        "hitBloodEffect": "",
        "hitAutoRedirect": false,
        "muteAllHitText": true
      },
      "combatLock": {
        "lockShape": "CircleLockEnemy",
        "denyLockOn": true,
        "lockType": "Gadget_Lv1"
      }
    },
    "combatTemplate": "",
    "abilities": [
      {
        "abilityID": "SceneObj_Property_Stages_Prop_ChallengestarterUnderWater_01_UW",
        "abilityName": "SceneObj_Property_Stages_Prop_ChallengestarterUnderWater_01_UW",
        "abilityOverride": ""
      }
    ],
    "field": {
      "concernType": "AllAvatars",
      "shape": "",
      "fromShape": "",
      "triggerInfinite": true,
      "lifeInfinite": true,
      "checkInterval": 0.20000000298023224,
      "overwriteCampType": true,
      "campType": "All",
      "colliderName": "",
      "fromColliderName": ""
    },
    "misc": {
      "escapeEffect": "",
      "guidePoint": true,
      "guidePointManagedByIndicator": true,
      "targetIndicatorYOffset": 3.0
    },
    "gadgetAction": {
      "gadgetStateActionList": [
        {
          "$type": "FJGKLJLPOGL",
          "intID": "State",
          "syncState": true
        },
        {
          "$type": "OLDOOKBEKJI",
          "parameter": "State",
          "damageRatio": "Int",
          "rotationDampTime": "Eff_SceneObj_Challengestarter_01_UW"
        },
        {
          "$type": "OLDOOKBEKJI",
          "triggerID": "GearStart",
          "parameter": "State",
          "damageRatio": "Int",
          "value": 201,
          "rotationDampTime": "Eff_SceneObj_Challengestarter_01_UW"
        },
        {
          "$type": "OLDOOKBEKJI",
          "triggerID": "GearStop",
          "parameter": "State",
          "damageRatio": "Int",
          "value": 202,
          "rotationDampTime": "Eff_SceneObj_Challengestarter_01_UW"
        }
      ]
    },
    "billboard": {
      "$type": "KMCIKEIBFAH",
      "attachPoint": "BillboardAttach",
      "offset": {
        "y": 2.5
      },
      "forceHideAllBars": true
    }
  },
  "SceneObj_Property_Stages_Prop_ChallengestarterUnderWater_05": {
    "$type": "CJKJIENLOHD",
    "hasModel": true,
    "combat": {
      "property": {
        "hp": 99999.0,
        "attack": 50.0,
        "weight": 50.0,
        "isLockHP": true
      },
      "beHit": {
        "hitBloodEffect": "",
        "hitAutoRedirect": false,
        "muteAllHitText": true
      },
      "combatLock": {
        "lockShape": "CircleLockEnemy",
        "denyLockOn": true,
        "lockType": "Gadget_Lv1"
      }
    },
    "combatTemplate": "",
    "abilities": [
      {
        "abilityID": "SceneObj_Property_Stages_Prop_ChallengestarterUnderWater_02",
        "abilityName": "SceneObj_Property_Stages_Prop_ChallengestarterUnderWater_02",
        "abilityOverride": ""
      }
    ],
    "field": {
      "concernType": "AllAvatars",
      "shape": "",
      "fromShape": "",
      "triggerInfinite": true,
      "lifeInfinite": true,
      "checkInterval": 0.20000000298023224,
      "overwriteCampType": true,
      "campType": "All",
      "colliderName": "",
      "fromColliderName": ""
    },
    "misc": {
      "escapeEffect": "",
      "guidePointManagedByIndicator": true,
      "targetIndicatorYOffset": 3.0
    },
    "gadgetAction": {
      "gadgetStateActionList": [
        {
          "$type": "FJGKLJLPOGL",
          "intID": "State",
          "syncState": true
        },
        {
          "$type": "OLDOOKBEKJI",
          "parameter": "State",
          "damageRatio": "Int",
          "rotationDampTime": "Eff_SceneObj_ChallengestarterUW_02"
        },
        {
          "$type": "OLDOOKBEKJI",
          "triggerID": "GearStart",
          "parameter": "State",
          "damageRatio": "Int",
          "value": 201,
          "rotationDampTime": "Eff_SceneObj_ChallengestarterUW_02"
        },
        {
          "$type": "OLDOOKBEKJI",
          "triggerID": "GearStop",
          "parameter": "State",
          "damageRatio": "Int",
          "value": 202,
          "rotationDampTime": "Eff_SceneObj_ChallengestarterUW_02"
        }
      ]
    },
    "billboard": {
      "$type": "KMCIKEIBFAH",
      "attachPoint": "BillboardAttach",
      "offset": {
        "y": 2.5
      },
      "forceHideAllBars": true
    }
  },
  "SceneObj_Property_Stages_Prop_ChallengestarterUnderWater_06": {
    "$type": "CJKJIENLOHD",
    "hasModel": true,
    "combat": {
      "property": {
        "hp": 99999.0,
        "attack": 50.0,
        "weight": 50.0,
        "isLockHP": true
      },
      "beHit": {
        "hitBloodEffect": "",
        "hitAutoRedirect": false,
        "muteAllHitText": true
      },
      "combatLock": {
        "lockShape": "CircleLockEnemy",
        "denyLockOn": true,
        "lockType": "Gadget_Lv1"
      }
    },
    "combatTemplate": "",
    "abilities": [
      {
        "abilityID": "SceneObj_Property_Stages_Prop_ChallengestarterUnderWater_03",
        "abilityName": "SceneObj_Property_Stages_Prop_ChallengestarterUnderWater_03",
        "abilityOverride": ""
      }
    ],
    "field": {
      "concernType": "AllAvatars",
      "shape": "",
      "fromShape": "",
      "triggerInfinite": true,
      "lifeInfinite": true,
      "checkInterval": 0.20000000298023224,
      "overwriteCampType": true,
      "campType": "All",
      "colliderName": "",
      "fromColliderName": ""
    },
    "misc": {
      "escapeEffect": "",
      "guidePointManagedByIndicator": true,
      "targetIndicatorYOffset": 3.0
    },
    "gadgetAction": {
      "gadgetStateActionList": [
        {
          "$type": "FJGKLJLPOGL",
          "intID": "State",
          "syncState": true
        },
        {
          "$type": "OLDOOKBEKJI",
          "parameter": "State",
          "damageRatio": "Int",
          "rotationDampTime": "Eff_SceneObj_ChallengestarterUW_03"
        },
        {
          "$type": "OLDOOKBEKJI",
          "triggerID": "GearStart",
          "parameter": "State",
          "damageRatio": "Int",
          "value": 201,
          "rotationDampTime": "Eff_SceneObj_ChallengestarterUW_03"
        },
        {
          "$type": "OLDOOKBEKJI",
          "triggerID": "GearStop",
          "parameter": "State",
          "damageRatio": "Int",
          "value": 202,
          "rotationDampTime": "Eff_SceneObj_ChallengestarterUW_03"
        }
      ]
    },
    "billboard": {
      "$type": "KMCIKEIBFAH",
      "attachPoint": "BillboardAttach",
      "offset": {
        "y": 2.5
      },
      "forceHideAllBars": true
    }
  },
  "SceneObj_Property_Stages_Prop_ChallengestarterUnderWater_04": {
    "$type": "CJKJIENLOHD",
    "hasModel": true,
    "combat": {
      "property": {
        "hp": 99999.0,
        "attack": 50.0,
        "weight": 50.0,
        "isLockHP": true
      },
      "beHit": {
        "hitBloodEffect": "",
        "hitAutoRedirect": false,
        "muteAllHitText": true
      },
      "combatLock": {
        "lockShape": "CircleLockEnemy",
        "denyLockOn": true,
        "lockType": "Gadget_Lv1"
      }
    },
    "combatTemplate": "",
    "abilities": [
      {
        "abilityID": "SceneObj_Property_Stages_Prop_ChallengestarterUnderWater_01",
        "abilityName": "SceneObj_Property_Stages_Prop_ChallengestarterUnderWater_01",
        "abilityOverride": ""
      }
    ],
    "field": {
      "concernType": "AllAvatars",
      "shape": "",
      "fromShape": "",
      "triggerInfinite": true,
      "lifeInfinite": true,
      "checkInterval": 0.20000000298023224,
      "overwriteCampType": true,
      "campType": "All",
      "colliderName": "",
      "fromColliderName": ""
    },
    "misc": {
      "escapeEffect": "",
      "guidePointManagedByIndicator": true,
      "targetIndicatorYOffset": 3.0
    },
    "gadgetAction": {
      "gadgetStateActionList": [
        {
          "$type": "FJGKLJLPOGL",
          "intID": "State",
          "syncState": true
        },
        {
          "$type": "OLDOOKBEKJI",
          "parameter": "State",
          "damageRatio": "Int",
          "rotationDampTime": "Eff_SceneObj_ChallengestarterUW_01"
        },
        {
          "$type": "OLDOOKBEKJI",
          "triggerID": "GearStart",
          "parameter": "State",
          "damageRatio": "Int",
          "value": 201,
          "rotationDampTime": "Eff_SceneObj_ChallengestarterUW_01"
        },
        {
          "$type": "OLDOOKBEKJI",
          "triggerID": "GearStop",
          "parameter": "State",
          "damageRatio": "Int",
          "value": 202,
          "rotationDampTime": "Eff_SceneObj_ChallengestarterUW_01"
        }
      ]
    },
    "billboard": {
      "$type": "KMCIKEIBFAH",
      "attachPoint": "BillboardAttach",
      "offset": {
        "y": 2.5
      },
      "forceHideAllBars": true
    }
  },
  "SceneObj_Area_Fd_Property_Ani_Light_ShelterLamp_01": {
    "$type": "CJKJIENLOHD",
    "globalValue": {
      "serverGlobalValues": [
        "SGV_ShelterLamp_Delay"
      ],
      "initServerGlobalValues": {
        "SGV_ShelterLamp_Delay": 0.0
      }
    },
    "hasModel": true,
    "combat": {
      "property": {
        "hp": 99999.0,
        "isInvincible": true,
        "isLockHP": true,
        "isGhostToAllied": true,
        "isGhostToEnemy": true
      }
    },
    "combatTemplate": "",
    "abilities": [
      {
        "abilityID": "SceneObj_Area_Fd_Property_Ani_Light_ShelterLamp_01",
        "abilityName": "SceneObj_Area_Fd_Property_Ani_Light_ShelterLamp_01",
        "abilityOverride": ""
      }
    ]
  },
  "SceneObj_Area_Fd_Property_Ani_Prop_LSLockBubble_01": {
    "$type": "CJKJIENLOHD",
    "hasModel": true,
    "combat": {
      "property": {
        "hp": 99999.0,
        "isLockHP": true,
        "isGhostToAllied": true,
        "isGhostToEnemy": true
      }
    },
    "combatTemplate": "",
    "abilities": [
      {
        "abilityID": "SceneObj_Area_Fd_Property_Ani_Prop_LSLockBubble_01",
        "abilityName": "SceneObj_Area_Fd_Property_Ani_Prop_LSLockBubble_01",
        "abilityOverride": ""
      }
    ]
  },
  "SceneObj_Area_Fd_Property_Ani_Prop_LSLockBubble_03": {
    "$type": "CJKJIENLOHD",
    "hasModel": true,
    "combat": {
      "property": {
        "hp": 99999.0,
        "isLockHP": true,
        "isGhostToAllied": true,
        "isGhostToEnemy": true
      }
    },
    "combatTemplate": "",
    "abilities": [
      {
        "abilityID": "SceneObj_Area_Fd_Property_Ani_Prop_LSLockBubble_03",
        "abilityName": "SceneObj_Area_Fd_Property_Ani_Prop_LSLockBubble_03",
        "abilityOverride": ""
      }
    ]
  },
  "SceneObj_Area_Fd_Property_Ani_Prop_LSLockBubble_02": {
    "$type": "CJKJIENLOHD",
    "hasModel": true,
    "combat": {
      "property": {
        "hp": 99999.0,
        "isLockHP": true,
        "isGhostToAllied": true,
        "isGhostToEnemy": true
      }
    },
    "combatTemplate": "",
    "abilities": [
      {
        "abilityID": "SceneObj_Area_Fd_Property_Ani_Prop_LSLockBubble_02",
        "abilityName": "SceneObj_Area_Fd_Property_Ani_Prop_LSLockBubble_02",
        "abilityOverride": ""
      }
    ]
  },
  "SceneObj_Area_Fd_Property_Ani_Prop_LSHallCover_01": {
    "$type": "CJKJIENLOHD",
    "hasModel": true,
    "combat": {
      "property": {
        "hp": 99999.0,
        "isInvincible": true,
        "isLockHP": true,
        "isGhostToAllied": true,
        "isGhostToEnemy": true
      }
    },
    "combatTemplate": "",
    "gadgetAction": {
      "gadgetStateActionList": [
        {
          "$type": "FJGKLJLPOGL",
          "intID": "GadgetState",
          "syncState": true
        }
      ]
    }
  },
  "SceneObj_Area_Common_Property_Ani_Prop_MLATea_01": {
    "$type": "CJKJIENLOHD",
    "hasModel": true,
    "combat": {
      "property": {
        "hp": 99999.0,
        "isInvincible": true,
        "isLockHP": true,
        "isGhostToAllied": true,
        "isGhostToEnemy": true
      }
    },
    "combatTemplate": "",
    "abilities": [
      {
        "abilityID": "SceneObj_Area_Common_Property_Ani_Prop_MLATea_01",
        "abilityName": "SceneObj_Area_Common_Property_Ani_Prop_MLATea_01",
        "abilityOverride": ""
      }
    ]
  },
  "SceneObj_Area_Fd_Property_Ani_Light_ShelterLamp_02": {
    "$type": "CJKJIENLOHD",
    "globalValue": {
      "serverGlobalValues": [
        "SGV_ShelterLamp_Delay"
      ],
      "initServerGlobalValues": {
        "SGV_ShelterLamp_Delay": 0.0
      }
    },
    "hasModel": true,
    "combat": {
      "property": {
        "hp": 99999.0,
        "isInvincible": true,
        "isLockHP": true,
        "isGhostToAllied": true,
        "isGhostToEnemy": true
      }
    },
    "combatTemplate": "",
    "abilities": [
      {
        "abilityID": "SceneObj_Area_Fd_Property_Ani_Light_ShelterLamp_02",
        "abilityName": "SceneObj_Area_Fd_Property_Ani_Light_ShelterLamp_02",
        "abilityOverride": ""
      }
    ]
  },
  "SceneObj_Area_Fd_Property_Ani_Prop_FdCommonGate_01": {
    "$type": "CJKJIENLOHD",
    "common": {
      "disableTickDistance": 150000.0
    },
    "hasModel": true,
    "combat": {
      "property": {
        "hp": 99999.0,
        "isInvincible": true,
        "isLockHP": true,
        "isGhostToAllied": true,
        "isGhostToEnemy": true
      }
    },
    "combatTemplate": "",
    "abilities": [
      {
        "abilityID": "SceneObj_Area_Fd_Property_Ani_Prop_FdCommonGate_01",
        "abilityName": "SceneObj_Area_Fd_Property_Ani_Prop_FdCommonGate_01",
        "abilityOverride": ""
      }
    ],
    "stateLayers": {
      "defaultLayer": {
        "$type": "GBGJJIIEMBD",
        "layerIndexName": "",
        "CPAANEIJCGD": "",
        "stateIDs": {
          "All": {
            "$type": "BEIEGKBABOF",
            "animatorStates": {
              "Open": [],
              "Close": []
            },
            "cullingModelAlwaysAnimate": true
          }
        }
      }
    },
    "gadgetAction": {
      "gadgetStateActionList": [
        {
          "$type": "FJGKLJLPOGL",
          "intID": "GadgetState",
          "syncState": true
        }
      ]
    }
  },
  "SceneObj_Area_Fd_Property_Ani_Build_ManholeCover_01": {
    "$type": "CJKJIENLOHD",
    "hasModel": true,
    "combat": {
      "property": {
        "hp": 99999.0,
        "isInvincible": true,
        "isLockHP": true,
        "isGhostToAllied": true,
        "isGhostToEnemy": true
      }
    },
    "combatTemplate": "",
    "abilities": [
      {
        "abilityID": "SceneObj_Area_Fd_Property_Ani_Build_ManholeCover_01",
        "abilityName": "SceneObj_Area_Fd_Property_Ani_Build_ManholeCover_01",
        "abilityOverride": ""
      }
    ],
    "gadgetAction": {
      "gadgetStateActionList": [
        {
          "$type": "FJGKLJLPOGL",
          "intID": "GadgetState",
          "syncState": true
        }
      ]
    }
  },
  "SceneObj_Area_Fd_Property_Ani_Prop_FdFenchGate_01": {
    "$type": "CJKJIENLOHD",
    "common": {
      "disableTickDistance": 150000.0
    },
    "hasModel": true,
    "combat": {
      "property": {
        "hp": 99999.0,
        "isInvincible": true,
        "isLockHP": true,
        "isGhostToAllied": true,
        "isGhostToEnemy": true
      }
    },
    "combatTemplate": "",
    "abilities": [
      {
        "abilityID": "SceneObj_Area_Fd_Property_Ani_Prop_FdFenchGate_01",
        "abilityName": "SceneObj_Area_Fd_Property_Ani_Prop_FdFenchGate_01",
        "abilityOverride": ""
      }
    ],
    "gadgetAction": {
      "gadgetStateActionList": [
        {
          "$type": "FJGKLJLPOGL",
          "intID": "GadgetState",
          "syncState": true
        }
      ]
    }
  },
  "SceneObj_Area_Fd_Property_Ani_Prop_CabalHand_01": {
    "$type": "CJKJIENLOHD",
    "common": {
      "disableTickDistance": 150000.0
    },
    "KJGJCNANPJP": true,
    "hasModel": true,
    "combat": {
      "property": {
        "hp": 99999.0,
        "isInvincible": true,
        "isLockHP": true,
        "isGhostToAllied": true,
        "isGhostToEnemy": true
      }
    },
    "combatTemplate": "",
    "abilities": [
      {
        "abilityID": "",
        "abilityName": "SceneObj_Area_Fd_Property_Ani_Prop_CabalHand_01",
        "abilityOverride": ""
      }
    ],
    "stateLayers": {
      "defaultLayer": {
        "$type": "GBGJJIIEMBD",
        "layerIndexName": "",
        "CPAANEIJCGD": "",
        "stateIDs": {
          "All": {
            "$type": "BEIEGKBABOF",
            "animatorStates": {
              "Ani_CabalHand_01_First": [
                "SceneObj_Area_Fd_Property_Ani_Prop_CabalHand_01_Tick"
              ],
              "Ani_CabalHand_01_Second": [
                "SceneObj_Area_Fd_Property_Ani_Prop_CabalHand_01_Tick"
              ],
              "Ani_CabalHand_01_Third": [
                "SceneObj_Area_Fd_Property_Ani_Prop_CabalHand_01_Tick"
              ],
              "Ani_CabalHand_01_Fourth": [
                "SceneObj_Area_Fd_Property_Ani_Prop_CabalHand_01_Tick"
              ]
            },
            "cullingModelAlwaysAnimate": true
          }
        }
      }
    },
    "gadgetAction": {
      "gadgetStateActionList": [
        {
          "$type": "FJGKLJLPOGL",
          "intID": "GadgetState",
          "syncState": true
        }
      ]
    }
  },
  "SceneObj_Level_Fd_Property_Ani_Prop_Changeable_Floor_04": {
    "$type": "CJKJIENLOHD",
    "combat": {
      "property": {
        "hp": 99999.0,
        "isInvincible": true,
        "isLockHP": true,
        "isGhostToAllied": true,
        "isGhostToEnemy": true
      }
    },
    "combatTemplate": "",
    "abilities": [
      {
        "abilityID": "",
        "abilityName": "SceneObj_Level_Fd_Property_Ani_Prop_Changeable_Floor_04",
        "abilityOverride": ""
      }
    ]
  },
  "SceneObj_Area_Fd_Property_Prop_WishingPond_01_LevelUp": {
    "$type": "CJKJIENLOHD",
    "combatTemplate": "default",
    "abilities": [
      {
        "abilityID": "",
        "abilityName": "SceneObj_Area_Fd_Property_Prop_WishingPond_01_LevelUp",
        "abilityOverride": ""
      }
    ]
  },
  "SceneObj_Level_Fd_Property_Ani_Prop_Magic_Gear_01": {
    "$type": "CJKJIENLOHD",
    "hasModel": true,
    "combat": {
      "property": {
        "hp": 99999.0,
        "isInvincible": true,
        "isLockHP": true,
        "isGhostToAllied": true,
        "isGhostToEnemy": true
      }
    },
    "combatTemplate": "",
    "abilities": [
      {
        "abilityID": "SceneObj_Level_Fd_Property_Ani_Prop_Magic_Gear_01",
        "abilityName": "SceneObj_Level_Fd_Property_Ani_Prop_Magic_Gear_01",
        "abilityOverride": ""
      },
      {
        "abilityID": "Scene_RockGadget_Summon_Detect",
        "abilityName": "Scene_RockGadget_Summon_Detect",
        "abilityOverride": ""
      }
    ],
    "field": {
      "concernType": "AllAvatars",
      "shape": "CircleR2H3",
      "fromShape": "",
      "triggerInfinite": true,
      "lifeInfinite": true,
      "checkInterval": 0.20000000298023224,
      "overwriteCampType": true,
      "campType": "All",
      "colliderName": "",
      "fromColliderName": ""
    },
    "gadgetAction": {
      "gadgetStateActionList": [
        {
          "$type": "FJGKLJLPOGL",
          "intID": "GadgetState",
          "syncState": true
        }
      ]
    }
  },
  "SceneObj_Area_Fd_Property_Ani_Prop_TheatreCrowd_01": {
    "$type": "CJKJIENLOHD",
    "hasModel": true,
    "combat": {
      "property": {
        "hp": 99999.0,
        "isInvincible": true,
        "isLockHP": true,
        "isGhostToAllied": true,
        "isGhostToEnemy": true
      }
    },
    "combatTemplate": "",
    "abilities": [
      {
        "abilityID": "SceneObj_Area_Fd_Property_Ani_Prop_TheatreCrowd_01",
        "abilityName": "SceneObj_Area_Fd_Property_Ani_Prop_TheatreCrowd_01",
        "abilityOverride": ""
      },
      {
        "abilityID": "Scene_RockGadget_Summon_Detect",
        "abilityName": "Scene_RockGadget_Summon_Detect",
        "abilityOverride": ""
      }
    ]
  },
  "SceneObj_Level_Fd_Property_Ani_Prop_Changeable_Floor_01": {
    "$type": "CJKJIENLOHD",
    "hasModel": true,
    "combat": {
      "property": {
        "hp": 99999.0,
        "isInvincible": true,
        "isLockHP": true
      }
    },
    "combatTemplate": "",
    "abilities": [
      {
        "abilityID": "SceneObj_Level_Fd_Property_Ani_Prop_Changeable_Floor_01",
        "abilityName": "SceneObj_Level_Fd_Property_Ani_Prop_Changeable_Floor_01",
        "abilityOverride": ""
      },
      {
        "abilityID": "Scene_RockGadget_Summon_Detect",
        "abilityName": "Scene_RockGadget_Summon_Detect",
        "abilityOverride": ""
      }
    ],
    "field": {
      "concernType": "AllAvatars",
      "shape": "",
      "fromShape": "",
      "triggerInfinite": true,
      "lifeInfinite": true,
      "checkInterval": 0.5,
      "overwriteCampType": true,
      "campType": "All",
      "colliderName": "",
      "fromColliderName": ""
    },
    "move": {
      "$type": "OEFHHKHPMCJ"
    },
    "gadgetAction": {
      "gadgetStateActionList": [
        {
          "$type": "FJGKLJLPOGL",
          "intID": "GadgetState",
          "syncState": true
        }
      ]
    }
  },
  "SceneObj_Level_Fd_Property_Ani_Prop_Changeable_Floor_03": {
    "$type": "CJKJIENLOHD",
    "hasModel": true,
    "combat": {
      "property": {
        "hp": 99999.0,
        "isInvincible": true,
        "isLockHP": true
      }
    },
    "combatTemplate": "",
    "abilities": [
      {
        "abilityID": "SceneObj_Level_Fd_Property_Ani_Prop_Changeable_Floor_03",
        "abilityName": "SceneObj_Level_Fd_Property_Ani_Prop_Changeable_Floor_03",
        "abilityOverride": ""
      }
    ]
  },
  "SceneObj_Level_Fd_Property_Ani_Prop_Changeable_Floor_02": {
    "$type": "CJKJIENLOHD",
    "hasModel": true,
    "combat": {
      "property": {
        "hp": 99999.0,
        "isInvincible": true,
        "isLockHP": true
      }
    },
    "combatTemplate": "",
    "abilities": [
      {
        "abilityID": "SceneObj_Level_Fd_Property_Ani_Prop_Changeable_Floor_02",
        "abilityName": "SceneObj_Level_Fd_Property_Ani_Prop_Changeable_Floor_02",
        "abilityOverride": ""
      }
    ],
    "move": {
      "$type": "OEFHHKHPMCJ"
    }
  },
  "SceneObj_Level_Fd_Property_Ani_Prop_Surprise_Box_02": {
    "$type": "CJKJIENLOHD",
    "hasModel": true,
    "combat": {
      "property": {
        "hp": 99999.0,
        "isInvincible": true,
        "isLockHP": true
      },
      "beHit": {
        "hitBloodEffect": "",
        "hitAutoRedirect": false
      },
      "combatLock": {
        "lockShape": "CircleLockEnemy",
        "lockType": "Gadget_Lv1"
      }
    },
    "combatTemplate": "",
    "abilities": [
      {
        "abilityID": "SceneObj_Level_Fd_Property_Ani_Prop_Surprise_Box_01",
        "abilityName": "SceneObj_Level_Fd_Property_Ani_Prop_Surprise_Box_01",
        "abilityOverride": ""
      },
      {
        "abilityID": "Scene_RockGadget_Summon_Detect",
        "abilityName": "Scene_RockGadget_Summon_Detect",
        "abilityOverride": ""
      }
    ],
    "move": {
      "$type": "OEFHHKHPMCJ"
    }
  },
  "SceneObj_Level_Fd_Property_Ani_Prop_Surprise_Box_01": {
    "$type": "CJKJIENLOHD",
    "hasModel": true,
    "combat": {
      "property": {
        "hp": 99999.0,
        "isInvincible": true,
        "isLockHP": true
      },
      "beHit": {
        "hitBloodEffect": "",
        "hitAutoRedirect": false
      },
      "combatLock": {
        "lockShape": "CircleLockEnemy",
        "lockType": "Gadget_Lv1"
      }
    },
    "combatTemplate": "",
    "abilities": [
      {
        "abilityID": "SceneObj_Level_Fd_Property_Ani_Prop_Surprise_Box_01",
        "abilityName": "SceneObj_Level_Fd_Property_Ani_Prop_Surprise_Box_01",
        "abilityOverride": ""
      },
      {
        "abilityID": "Scene_RockGadget_Summon_Detect",
        "abilityName": "Scene_RockGadget_Summon_Detect",
        "abilityOverride": ""
      }
    ]
  }
}