{
  "Tribalwarrior_Female_Slim_Slingshot_Mosasaurus_Elite_RangedAttack_Bullet": {
    "$type": "CJKJIENLOHD",
    "combat": {
      "property": {
        "useCreatorProperty": true,
        "isInvincible": true,
        "isGhostToAllied": true,
        "isGhostToEnemy": true,
        "canTriggerBullet": false
      },
      "beHit": {
        "hitBloodEffect": "",
        "muteAllHit": true,
        "muteAllHitEffect": true,
        "muteAllHitText": true
      },
      "combatLock": {
        "lockShape": "CircleLockEnemy",
        "denyLockOn": true,
        "lockType": "Default"
      }
    },
    "combatTemplate": "",
    "abilities": [
      {
        "abilityID": "",
        "abilityName": "Tribalwarrior_Female_Slim_Slingshot_Mosasaurus_Elite_RangedAttack_Bullet",
        "abilityOverride": ""
      }
    ],
    "timer": {
      "lifeTime": 4.0
    },
    "move": {
      "$type": "BFICFPAEFPB",
      "speed": 30.0,
      "DPAAFHNMHHN": {
        "$type": "IFAANDLLGLP"
      },
      "straightRange": 9.0,
      "gravityOfAcceleration": 30.0,
      "airResistance": 0.019999999552965164
    },
    "gadget": {
      "$type": "JENBBNKGGJP",
      "collision": {
        "ccd": {
          "damageRatio": "Always"
        },
        "targetType": "Enemy"
      },
      "triggerActions": [
        {
          "$type": "AILPBJHDHDG",
          "abilityName": "Tribalwarrior_Female_Slim_Slingshot_Mosasaurus_Elite_RangedAttack_Bullet"
        }
      ]
    }
  },
  "Tribalwarrior_Female_Slim_Slingshot_Mosasaurus_Elite_TribeUlt_FollowBullet": {
    "$type": "CJKJIENLOHD",
    "combat": {
      "property": {
        "useCreatorProperty": true,
        "isInvincible": true,
        "isGhostToEnemy": true,
        "canTriggerBullet": false
      },
      "beHit": {
        "hitBloodEffect": "",
        "muteAllHit": true,
        "muteAllHitEffect": true,
        "muteAllHitText": true
      },
      "combatLock": {
        "lockShape": "CircleLockEnemy",
        "denyLockOn": true,
        "lockType": "Default"
      }
    },
    "combatTemplate": "",
    "abilities": [
      {
        "abilityID": "",
        "abilityName": "Tribalwarrior_Female_Slim_Slingshot_Mosasaurus_Elite_Surfing_FollowBullet",
        "abilityOverride": ""
      }
    ],
    "timer": {
      "lifeTime": 10.0
    },
    "move": {
      "$type": "MMAPEFIEGAL",
      "target": "TargetEntity",
      "attachPoint": "MotionRoot",
      "followRotation": true,
      "LFOHLEKJFBI": ""
    },
    "gadget": {
      "$type": "JENBBNKGGJP",
      "collision": {
        "triggerType": "TriggerAlways",
        "triggerCD": 1.5,
        "targetType": "Enemy",
        "ignoreScene": true
      },
      "triggerActions": [
        {
          "$type": "AILPBJHDHDG",
          "abilityName": "Tribalwarrior_Female_Slim_Slingshot_Mosasaurus_Elite_Surfing_FollowBullet"
        }
      ]
    },
    "useRetreatType": true
  },
  "Tribalwarrior_Female_Slim_Slingshot_Mosasaurus_Elite_SprayPaintCan_Bullet": {
    "$type": "CJKJIENLOHD",
    "combat": {
      "property": {
        "useCreatorProperty": true,
        "isInvincible": true,
        "isLockHP": true,
        "isGhostToEnemy": true,
        "canTriggerBullet": false
      },
      "beHit": {
        "hitBloodEffect": "",
        "muteAllHit": true,
        "muteAllHitEffect": true,
        "muteAllHitText": true
      },
      "combatLock": {
        "lockShape": "CircleLockEnemy",
        "denyLockOn": true,
        "lockType": "Default"
      }
    },
    "combatTemplate": "",
    "abilities": [
      {
        "abilityID": "",
        "abilityName": "Monster_Tribalwarrior_Female_Slim_Slingshot_Mosasaurus_Elite_SprayPaintCan_Bullet",
        "abilityOverride": ""
      }
    ],
    "timer": {
      "lifeTime": 8.0
    },
    "move": {
      "$type": "BFDBCCCADKH",
      "speed": 14.0,
      "DPAAFHNMHHN": {
        "$type": "IFAANDLLGLP"
      },
      "angleOffHor": 1.0,
      "gravityOfAcceleration": 25.0,
      "correction": {
        "$type": "FEHDIANJKBF",
        "fixAngleOfVer": 45.0,
        "minSpeed": 7.0,
        "maxSpeed": 27.0
      },
      "GEBCKKDCGDP": "",
      "NKPHOKHJKGC": ""
    },
    "gadget": {
      "$type": "JENBBNKGGJP",
      "collision": {
        "targetType": "Enemy"
      },
      "triggerActions": [
        {
          "$type": "AILPBJHDHDG",
          "abilityName": "Monster_Tribalwarrior_Female_Slim_Slingshot_Mosasaurus_Elite_SprayPaintCan_Bullet"
        }
      ]
    }
  },
  "Tribalwarrior_Female_Slim_Slingshot_Mosasaurus_Elite_SprayPaintCan_Gadget": {
    "$type": "CJKJIENLOHD",
    "combat": {
      "property": {
        "useCreatorProperty": true,
        "isLockHP": true
      },
      "beHit": {
        "hitBloodEffect": "",
        "muteAllHit": true,
        "muteAllHitEffect": true,
        "muteAllHitText": true
      },
      "combatLock": {
        "lockShape": "CircleLockEnemy",
        "lockType": "Gear_Lv3"
      }
    },
    "combatTemplate": "",
    "abilities": [
      {
        "abilityID": "",
        "abilityName": "Monster_Tribalwarrior_Female_Slim_Slingshot_Mosasaurus_Elite_SprayPaintCan_Gadget",
        "abilityOverride": ""
      }
    ],
    "timer": {
      "lifeTime": 12.0
    },
    "billboard": {
      "$type": "DNGNMAJBCNP",
      "attachPoint": "BillboardAttach",
      "offset": {
        "y": 0.800000011920929
      },
      "showHPBar": true,
      "forceShowDistance": 25.0,
      "shieldBarOnly": true
    }
  },
  "Tribalwarrior_Female_Slim_Slingshot_Mosasaurus_Elite_SprayPaintCan_Ground": {
    "$type": "CJKJIENLOHD",
    "combat": {
      "property": {
        "useCreatorProperty": true,
        "isInvincible": true,
        "isGhostToEnemy": true,
        "canTriggerBullet": false
      },
      "beHit": {
        "hitBloodEffect": "",
        "muteAllHit": true,
        "muteAllHitEffect": true,
        "muteAllHitText": true
      },
      "combatLock": {
        "lockShape": "CircleLockEnemy",
        "denyLockOn": true,
        "lockType": "Default"
      }
    },
    "combatTemplate": "",
    "timer": {
      "lifeTime": 20.0
    }
  },
  "Tribalwarrior_Female_Slim_Slingshot_Mosasaurus_Elite_ShrapnelShoot_Bullet": {
    "$type": "CJKJIENLOHD",
    "common": {
      "effectAttachShape": {
        "$type": "OMIODKONOMG",
        "scaleZ": 0.4000000059604645
      }
    },
    "combat": {
      "property": {
        "useCreatorProperty": true,
        "isLockHP": true,
        "isGhostToAllied": true,
        "isGhostToEnemy": true,
        "canTriggerBullet": false
      },
      "beHit": {
        "hitBloodEffect": "",
        "muteAllHit": true,
        "muteAllHitEffect": true,
        "muteAllHitText": true
      },
      "combatLock": {
        "lockShape": "CircleLockEnemy",
        "denyLockOn": true,
        "lockType": "Default"
      },
      "simulatePhysics": {
        "enable": true,
        "radius": 0.20000000298023224,
        "NHHHFPLNPGJ": 0.05000000074505806
      }
    },
    "combatTemplate": "",
    "abilities": [
      {
        "abilityID": "",
        "abilityName": "Tribalwarrior_Female_Slim_Slingshot_Mosasaurus_Elite_ShrapnelShoot_Bullet",
        "abilityOverride": ""
      }
    ],
    "timer": {
      "lifeTime": 3.0
    },
    "move": {
      "$type": "JGEFBHJPMOL"
    },
    "gadget": {
      "$type": "AKGCANNFFGI",
      "collision": {
        "targetType": "Enemy"
      },
      "triggerActions": [
        {
          "$type": "AILPBJHDHDG",
          "abilityName": "Tribalwarrior_Female_Slim_Slingshot_Mosasaurus_Elite_ShrapnelShoot_Bullet"
        }
      ],
      "killByOther": true,
      "multiBulletConfig": {
        "$type": "OAKJCHGIBPC",
        "rotationDampTime": "Eff_Monster_Tribalwarrior_Female_Slim_SlingShot_Mosasaurus_ShrapnelShoot_WaterBullet"
      }
    }
  },
  "Tribalwarrior_Female_Standard_Launcher_Shamansaurus_RangedAttack_Bullet": {
    "$type": "CJKJIENLOHD",
    "combat": {
      "property": {
        "useCreatorProperty": true,
        "isInvincible": true,
        "isLockHP": true,
        "isGhostToEnemy": true
      },
      "combatLock": {
        "lockShape": "CircleLockEnemy",
        "denyLockOn": true,
        "lockType": "Default"
      }
    },
    "combatTemplate": "",
    "abilities": [
      {
        "abilityID": "",
        "abilityName": "Monster_Tribalwarrior_Female_Standard_Launcher_Shamansaurus_RangedAttack_Bullet",
        "abilityOverride": ""
      }
    ],
    "timer": {
      "lifeTime": 5.0
    },
    "move": {
      "$type": "BFICFPAEFPB",
      "speed": 27.0,
      "DPAAFHNMHHN": {
        "$type": "IFAANDLLGLP"
      },
      "straightRange": 15.0,
      "gravityOfAcceleration": 1.0,
      "airResistance": 0.20000000298023224
    },
    "gadget": {
      "$type": "JENBBNKGGJP",
      "collision": {
        "ccd": {},
        "targetType": "Enemy"
      },
      "triggerActions": [
        {
          "$type": "AILPBJHDHDG",
          "abilityName": "Monster_Tribalwarrior_Female_Standard_Launcher_Shamansaurus_RangedAttack_Bullet"
        }
      ],
      "killByOther": true
    }
  },
  "Tribalwarrior_Female_Standard_Launcher_Shamansaurus_GuidanceShot_MultiBullet": {
    "$type": "CJKJIENLOHD",
    "combat": {
      "property": {
        "useCreatorProperty": true,
        "isInvincible": true,
        "isGhostToAllied": true,
        "isGhostToEnemy": true
      },
      "beHit": {
        "hitBloodEffect": "",
        "muteAllHit": true,
        "muteAllHitEffect": true,
        "muteAllHitText": true
      },
      "combatLock": {
        "lockShape": "CircleLockEnemy",
        "denyLockOn": true,
        "lockType": "Default"
      },
      "simulatePhysics": {
        "enable": true,
        "radius": 0.15000000596046448,
        "NHHHFPLNPGJ": 0.02500000037252903
      }
    },
    "combatTemplate": "",
    "abilities": [
      {
        "abilityID": "",
        "abilityName": "Monster_Tribalwarrior_Female_Standard_Launcher_Shamansaurus_GuidanceShot_Hit",
        "abilityOverride": ""
      }
    ],
    "timer": {
      "lifeTime": 12.0
    },
    "move": {
      "$type": "JGEFBHJPMOL"
    },
    "gadget": {
      "$type": "AKGCANNFFGI",
      "collision": {
        "targetType": "Enemy"
      },
      "triggerActions": [
        {
          "$type": "AILPBJHDHDG",
          "abilityName": "Monster_Tribalwarrior_Female_Standard_Launcher_Shamansaurus_GuidanceShot_Hit"
        }
      ],
      "killByOther": true,
      "multiBulletConfig": {
        "$type": "OAKJCHGIBPC",
        "rotationDampTime": "Eff_Monster_Tribalwarrior_Female_Standard_Launcher_Shamansaurus_GuidanceShot_Bullet"
      }
    },
    "useRetreatType": true
  },
  "Tribalwarrior_Female_Standard_Launcher_Shamansaurus_FloatingAttack_Ring": {
    "$type": "CJKJIENLOHD",
    "combat": {
      "property": {
        "useCreatorProperty": true,
        "isInvincible": true,
        "isGhostToEnemy": true,
        "canTriggerBullet": false
      },
      "beHit": {
        "hitBloodEffect": "",
        "muteAllHit": true,
        "muteAllHitEffect": true,
        "muteAllHitText": true
      },
      "combatLock": {
        "lockShape": "CircleLockEnemy",
        "denyLockOn": true,
        "lockType": "Default"
      }
    },
    "combatTemplate": "",
    "abilities": [
      {
        "abilityID": "",
        "abilityName": "Monster_Tribalwarrior_Female_Standard_Launcher_Shamansaurus_FloatingAttack_GadgetLogic",
        "abilityOverride": ""
      }
    ],
    "timer": {
      "lifeTime": 6.0
    }
  },
  "Tribalwarrior_Female_Standard_Launcher_Shamansaurus_SpecialTarget": {
    "$type": "CJKJIENLOHD",
    "combat": {
      "property": {
        "useCreatorProperty": true,
        "isLockHP": true
      },
      "beHit": {
        "hitBloodEffect": "",
        "muteAllHitText": true
      },
      "combatLock": {
        "lockShape": "CircleLockEnemy",
        "lockType": "Avatar&Monster_Lv4"
      }
    },
    "combatTemplate": "",
    "abilities": [
      {
        "abilityID": "",
        "abilityName": "Monster_Tribalwarrior_Female_Standard_Launcher_Shamansaurus_Liliuo_UltimateA_GadgetLogic",
        "abilityOverride": ""
      }
    ],
    "timer": {
      "lifeInfinite": true
    },
    "misc": {
      "escapeEffect": "",
      "guidePoint": true,
      "isUIPoint": true
    },
    "billboard": {
      "$type": "DNGNMAJBCNP",
      "attachPoint": "BillboardAttach",
      "radiusOffset": 0.30000001192092896,
      "showDistance": 48.0,
      "showHPBar": true,
      "forceShowDistance": 36.0,
      "shieldBarOnly": true
    }
  },
  "Tribalwarrior_Female_Standard_Launcher_Shamansaurus_Ultimate_Ring": {
    "$type": "CJKJIENLOHD",
    "combat": {
      "property": {
        "useCreatorProperty": true,
        "isInvincible": true,
        "isGhostToEnemy": true,
        "canTriggerBullet": false
      },
      "beHit": {
        "hitBloodEffect": "",
        "muteAllHit": true,
        "muteAllHitEffect": true,
        "muteAllHitText": true
      },
      "combatLock": {
        "lockShape": "CircleLockEnemy",
        "denyLockOn": true,
        "lockType": "Default"
      }
    },
    "combatTemplate": "",
    "abilities": [
      {
        "abilityID": "",
        "abilityName": "Monster_Tribalwarrior_Female_Standard_Launcher_Shamansaurus_Ultimate_GadgetLogic",
        "abilityOverride": ""
      }
    ],
    "timer": {
      "lifeTime": 4.0
    }
  },
  "Tribalwarrior_Male_Strong_ChainSword_Drillhead_DodgeHandler": {
    "$type": "CJKJIENLOHD",
    "combat": {
      "property": {
        "hp": 999999.0,
        "attack": 15.0,
        "defense": 999999.0,
        "isLockHP": true,
        "isGhostToAllied": true
      },
      "beHit": {
        "hitBloodEffect": "",
        "muteAllHitEffect": true,
        "muteAllHitText": true
      },
      "combatLock": {
        "lockShape": "CircleLockEnemy",
        "denyLockOn": true,
        "lockType": "Default"
      }
    },
    "combatTemplate": "",
    "abilities": [
      {
        "abilityID": "",
        "abilityName": "Tribalwarrior_Male_Strong_ChainSword_Drillhead_DodgeHandlerState",
        "abilityOverride": ""
      }
    ],
    "timer": {
      "lifeTime": 0.5
    }
  },
  "Tribalwarrior_Female_Standard_Launcher_HookWalker_InAirAtkBullet": {
    "$type": "CJKJIENLOHD",
    "combat": {
      "property": {
        "useCreatorProperty": true,
        "hp": 100.0,
        "attack": 10.0,
        "isInvincible": true,
        "isGhostToAllied": true,
        "isGhostToEnemy": true,
        "canTriggerBullet": false
      },
      "combatLock": {
        "lockShape": "CircleLockEnemy",
        "denyLockOn": true,
        "lockType": "Default"
      }
    },
    "combatTemplate": "",
    "abilities": [
      {
        "abilityID": "Tribalwarrior_Female_Standard_Launcher_HookWalker_InAirAtkBulletHit",
        "abilityName": "Tribalwarrior_Female_Standard_Launcher_HookWalker_InAirAtkBulletHit",
        "abilityOverride": ""
      }
    ],
    "timer": {
      "lifeTime": 5.0
    },
    "move": {
      "$type": "GONNMCBKAOC",
      "speed": 40.0,
      "acceleration": 10.0,
      "DPAAFHNMHHN": {
        "$type": "IFAANDLLGLP"
      }
    },
    "gadget": {
      "$type": "JENBBNKGGJP",
      "collision": {
        "targetType": "Enemy"
      },
      "triggerActions": [
        {
          "$type": "AILPBJHDHDG",
          "abilityName": "Tribalwarrior_Female_Standard_Launcher_HookWalker_InAirAtkBulletHit"
        }
      ]
    }
  },
  "Tribalwarrior_Female_Standard_Launcher_HookWalker_HookLineBullet": {
    "$type": "CJKJIENLOHD",
    "combat": {
      "property": {
        "useCreatorProperty": true,
        "hp": 100.0,
        "attack": 10.0,
        "isInvincible": true,
        "isGhostToAllied": true,
        "isGhostToEnemy": true,
        "canTriggerBullet": false
      },
      "combatLock": {
        "lockShape": "CircleLockEnemy",
        "denyLockOn": true,
        "lockType": "Default"
      }
    },
    "combatTemplate": "",
    "timer": {
      "lifeTime": 1.0
    },
    "move": {
      "$type": "GMOHNHFHLAO",
      "speed": 13.0,
      "DPAAFHNMHHN": {
        "$type": "IFAANDLLGLP"
      }
    }
  },
  "Tribalwarrior_Female_Standard_Launcher_HookWalker_HookPoint": {
    "$type": "CJKJIENLOHD",
    "combat": {
      "property": {
        "useCreatorProperty": true,
        "hp": 100.0,
        "attack": 10.0,
        "weight": 9999.0,
        "isLockHP": true
      },
      "beHit": {
        "hitBloodEffect": "",
        "muteAllHitText": true
      },
      "combatLock": {
        "lockShape": "CircleLockEnemy",
        "lockType": "Gear_Lv3"
      },
      "die": {
        "muteAllShaderDieEff": true,
        "dieDisappearEffect": "",
        "ignoreElementDie": true
      }
    },
    "combatTemplate": "",
    "abilities": [
      {
        "abilityID": "",
        "abilityName": "Tribalwarrior_Female_Standard_Launcher_HookWalker_HookPointCommon",
        "abilityOverride": ""
      }
    ],
    "timer": {
      "lifeTime": 999.0
    },
    "billboard": {
      "$type": "DNGNMAJBCNP",
      "attachPoint": "BillboardAttach",
      "offset": {
        "y": 1.0
      },
      "radiusOffset": 0.5,
      "showDistance": 48.0,
      "showHPBar": true,
      "forceShowDistance": 48.0,
      "shieldBarOnly": true
    }
  },
  "Tribalwarrior_Female_Standard_Launcher_HookWalker_Anchor": {
    "$type": "CJKJIENLOHD",
    "combat": {
      "property": {
        "useCreatorProperty": true,
        "hp": 100.0,
        "attack": 10.0,
        "isInvincible": true,
        "isGhostToAllied": true,
        "isGhostToEnemy": true,
        "canTriggerBullet": false
      },
      "combatLock": {
        "lockShape": "CircleLockEnemy",
        "denyLockOn": true,
        "lockType": "Default"
      }
    },
    "combatTemplate": "",
    "timer": {
      "lifeInfinite": true,
      "lifeTime": 10.0
    }
  }
}