{
  "StandOnly": {
    "$type": "CJKJIENLOHD",
    "combatTemplate": "",
    "billboard": {
      "$type": "KMCIKEIBFAH",
      "attachPoint": "BillboardAttach",
      "offset": {
        "x": -0.09000000357627869,
        "y": 0.009999999776482582
      },
      "offsetType": "Character",
      "radiusOffset": 0.12999999523162842,
      "showDistance": 20.0,
      "markShowDistance": 60.0
    },
    "intee": {
      "KAMIAMNMFCP": ""
    }
  },
  "ReadableNPC": {
    "$type": "CJKJIENLOHD",
    "combatTemplate": "",
    "billboard": {
      "$type": "KMCIKEIBFAH",
      "attachPoint": "BillboardAttach",
      "offset": {
        "x": -0.09000000357627869,
        "y": 0.009999999776482582
      },
      "offsetType": "Character",
      "radiusOffset": 0.12999999523162842,
      "showDistance": 20.0,
      "markShowDistance": 60.0
    },
    "intee": {
      "triggerHeight": 5.0,
      "KAMIAMNMFCP": ""
    }
  },
  "ReadableNPC_Low": {
    "$type": "CJKJIENLOHD",
    "combatTemplate": "",
    "billboard": {
      "$type": "KMCIKEIBFAH",
      "attachPoint": "BillboardAttach",
      "offset": {
        "x": -0.09000000357627869,
        "y": 0.009999999776482582
      },
      "offsetType": "Character",
      "radiusOffset": 0.12999999523162842,
      "showDistance": 20.0,
      "markShowDistance": 60.0
    },
    "intee": {
      "triggerHeight": 4.0,
      "KAMIAMNMFCP": ""
    }
  },
  "ReadableNPC_Near": {
    "$type": "CJKJIENLOHD",
    "combatTemplate": "",
    "billboard": {
      "$type": "KMCIKEIBFAH",
      "attachPoint": "BillboardAttach",
      "offset": {
        "x": -0.09000000357627869,
        "y": 0.009999999776482582
      },
      "offsetType": "Character",
      "radiusOffset": 0.12999999523162842,
      "showDistance": 5.0,
      "markShowDistance": 20.0
    },
    "intee": {
      "triggerHeight": 4.0,
      "KAMIAMNMFCP": ""
    }
  },
  "ReadableNPC_Intee_StoneBoard": {
    "$type": "CJKJIENLOHD",
    "combatTemplate": "",
    "billboard": {
      "$type": "KMCIKEIBFAH",
      "attachPoint": "BillboardAttach",
      "offset": {
        "x": -0.09000000357627869,
        "y": 0.009999999776482582
      },
      "offsetType": "Character",
      "radiusOffset": 0.12999999523162842,
      "showDistance": 5.0,
      "markShowDistance": 20.0
    },
    "intee": {
      "triggerRadius": 1.5,
      "triggerHeight": 4.0,
      "KAMIAMNMFCP": ""
    }
  },
  "CanMove01": {
    "$type": "CJKJIENLOHD",
    "combatTemplate": "",
    "move": {
      "$type": "IPNMJMHDMPF",
      "PKHOMJHFAEE": "RootNode"
    },
    "billboard": {
      "$type": "KMCIKEIBFAH",
      "attachPoint": "BillboardAttach",
      "offset": {
        "x": -0.09000000357627869,
        "y": 0.009999999776482582
      },
      "offsetType": "Character",
      "radiusOffset": 0.12999999523162842,
      "showDistance": 20.0,
      "markShowDistance": 60.0
    },
    "intee": {
      "KAMIAMNMFCP": ""
    }
  },
  "DragonFeather": {
    "$type": "CJKJIENLOHD",
    "combat": {
      "property": {
        "hp": 1.0,
        "attack": 80.0
      },
      "beHit": {
        "hitBloodEffect": "",
        "hitAutoRedirect": false
      },
      "combatLock": {
        "lockShape": "CircleLockEnemy",
        "lockType": "Gadget_Lv1",
        "overrideRange": 5.0
      }
    },
    "combatTemplate": "",
    "abilities": [
      {
        "abilityID": "DragonFeather",
        "abilityName": "Test_DragonFeather",
        "abilityOverride": ""
      }
    ]
  },
  "DragonFeather_HP": {
    "$type": "CJKJIENLOHD",
    "combat": {
      "property": {
        "hp": 40.0,
        "attack": 80.0
      },
      "beHit": {
        "hitBloodEffect": "",
        "hitAutoRedirect": false
      },
      "combatLock": {
        "lockShape": "CircleLockEnemy",
        "lockType": "Gadget_Lv1",
        "overrideRange": 5.0
      },
      "die": {
        "dieEndTime": 0.10000000149011612,
        "dieForceDisappearTime": 0.20000000298023224,
        "dieDisappearEffect": ""
      }
    },
    "combatTemplate": "",
    "abilities": [
      {
        "abilityID": "Ability_01",
        "abilityName": "Test_DragonFeather_HP",
        "abilityOverride": ""
      }
    ],
    "billboard": {
      "$type": "DNGNMAJBCNP",
      "attachPoint": "attachPoint3",
      "offset": {
        "y": 1.600000023841858
      },
      "showDistance": 48.0,
      "showHPBar": true
    }
  },
  "DragonFeather_Move": {
    "$type": "CJKJIENLOHD",
    "combat": {
      "property": {
        "hp": 40.0,
        "attack": 80.0
      },
      "beHit": {
        "hitBloodEffect": "",
        "hitAutoRedirect": false
      },
      "combatLock": {
        "lockShape": "CircleLockEnemy",
        "lockType": "Gadget_Lv1",
        "overrideRange": 5.0
      },
      "die": {
        "dieEndTime": 0.10000000149011612,
        "dieForceDisappearTime": 0.20000000298023224,
        "dieDisappearEffect": ""
      }
    },
    "combatTemplate": "",
    "abilities": [
      {
        "abilityID": "Ability_01",
        "abilityName": "Test_DragonFeather_HP",
        "abilityOverride": ""
      }
    ],
    "move": {
      "$type": "OEFHHKHPMCJ"
    }
  },
  "TransparentHitSphere": {
    "$type": "CJKJIENLOHD",
    "combat": {
      "property": {
        "hp": 100.0
      },
      "beHit": {
        "hitBloodEffect": "",
        "hitAutoRedirect": false,
        "muteAllHit": true,
        "muteAllHitEffect": true,
        "muteAllHitText": true
      },
      "combatLock": {
        "lockShape": "CircleLockEnemy",
        "denyLockOn": true,
        "lockType": "Default"
      }
    },
    "combatTemplate": "",
    "abilities": [
      {
        "abilityID": "TransparentHitSphere",
        "abilityName": "TransparentHitSphere_Interact",
        "abilityOverride": ""
      }
    ]
  },
  "Env_Mengde_WindDragon_01": {
    "$type": "CJKJIENLOHD",
    "model": {
      "bornEffect": "",
      "attachEffect": "Eff_Env_Mengde_WindDragon_01",
      "BKPFGNPLDNJ": ""
    },
    "hasModel": true,
    "combat": {
      "property": {
        "hp": 100.0,
        "isInvincible": true,
        "isLockHP": true,
        "isGhostToAllied": true,
        "isGhostToEnemy": true,
        "canTriggerBullet": false
      },
      "beHit": {
        "hitBloodEffect": "",
        "hitAutoRedirect": false,
        "muteAllHit": true,
        "muteAllHitEffect": true,
        "muteAllHitText": true
      },
      "combatLock": {
        "lockShape": "CircleLockEnemy",
        "denyLockOn": true,
        "lockType": "Gadget_Lv1"
      }
    },
    "combatTemplate": ""
  },
  "ReadableNPC_offset": {
    "$type": "CJKJIENLOHD",
    "combatTemplate": "",
    "billboard": {
      "$type": "KMCIKEIBFAH",
      "attachPoint": "BillboardAttach",
      "offset": {
        "x": -0.09000000357627869,
        "y": 1.7000000476837158
      },
      "offsetType": "Character",
      "radiusOffset": 0.12999999523162842,
      "showDistance": 20.0,
      "markShowDistance": 60.0
    },
    "intee": {
      "triggerHeight": 5.0,
      "KAMIAMNMFCP": ""
    }
  }
}