{
  "SceneObj_Area_Dq_Property_Prop_SmokeDevice_01": {
    "$type": "CJKJIENLOHD",
    "hasModel": true,
    "combat": {
      "property": {
        "hp": 99999.0,
        "attack": 200.0,
        "weight": 50.0,
        "isLockHP": true,
        "isGhostToAllied": true
      },
      "beHit": {
        "hitBloodEffect": "",
        "hitAutoRedirect": false,
        "muteAllHitText": true
      },
      "combatLock": {
        "lockShape": "CircleLockEnemy",
        "lockType": "Gadget_Lv1"
      }
    },
    "combatTemplate": "",
    "abilities": [
      {
        "abilityID": "SceneObj_Area_Dq_Property_Prop_SmokeDevice_01",
        "abilityName": "SceneObj_Area_Dq_Property_Prop_SmokeDevice_01",
        "abilityOverride": ""
      }
    ],
    "field": {
      "concernType": "LocalAvatar",
      "shape": "CircleR2H2",
      "fromShape": "",
      "triggerInfinite": true,
      "lifeInfinite": true,
      "checkInterval": 0.5,
      "overwriteCampType": true,
      "campType": "SelfCamp",
      "colliderName": "",
      "fromColliderName": ""
    },
    "uiInteract": {
      "gadgetUIBtnCfgPath": "TEST/TEST_Chest_Btn",
      "uiName": "",
      "icon": "",
      "groupName": "",
      "confirmDialogTitle": "",
      "confirmDialogContent": ""
    },
    "gadgetAction": {
      "gadgetStateActionList": [
        {
          "$type": "DEMJBAICBKO",
          "enable": true
        },
        {
          "$type": "DEMJBAICBKO",
          "triggerID": "GearStop"
        },
        {
          "$type": "DEMJBAICBKO",
          "triggerID": "GearStart"
        }
      ]
    },
    "intee": {
      "triggerRadius": 2.0,
      "KAMIAMNMFCP": ""
    }
  },
  "SceneObj_Area_Dq_Property_Prop_NoisyBait_01": {
    "$type": "CJKJIENLOHD",
    "hasModel": true,
    "combat": {
      "property": {
        "hp": 99999.0,
        "attack": 200.0,
        "weight": 50.0,
        "isLockHP": true,
        "isGhostToAllied": true
      },
      "beHit": {
        "hitBloodEffect": "",
        "hitAutoRedirect": false,
        "muteAllHitText": true
      },
      "combatLock": {
        "lockShape": "CircleLockEnemy",
        "lockType": "Gadget_Lv1"
      }
    },
    "combatTemplate": "",
    "abilities": [
      {
        "abilityID": "SceneObj_Area_Dq_Property_Prop_NoisyBait_01",
        "abilityName": "SceneObj_Area_Dq_Property_Prop_NoisyBait_01",
        "abilityOverride": ""
      }
    ],
    "field": {
      "concernType": "LocalAvatar",
      "shape": "CircleR2H2",
      "fromShape": "",
      "triggerInfinite": true,
      "lifeInfinite": true,
      "checkInterval": 0.5,
      "overwriteCampType": true,
      "campType": "SelfCamp",
      "colliderName": "",
      "fromColliderName": ""
    },
    "uiInteract": {
      "gadgetUIBtnCfgPath": "TEST/TEST_Chest_Btn",
      "uiName": "",
      "icon": "",
      "groupName": "",
      "confirmDialogTitle": "",
      "confirmDialogContent": ""
    },
    "gadgetAction": {
      "gadgetStateActionList": [
        {
          "$type": "DEMJBAICBKO",
          "enable": true
        },
        {
          "$type": "DEMJBAICBKO",
          "triggerID": "GearStop"
        },
        {
          "$type": "DEMJBAICBKO",
          "triggerID": "GearStart"
        }
      ]
    },
    "intee": {
      "triggerRadius": 2.0,
      "KAMIAMNMFCP": ""
    }
  },
  "SceneObj_Area_Dq_Property_Prop_Shelter_01": {
    "$type": "CJKJIENLOHD",
    "hasModel": true,
    "combat": {
      "property": {
        "hp": 99999.0,
        "weight": 50.0,
        "isLockHP": true,
        "isGhostToAllied": true
      },
      "beHit": {
        "hitBloodEffect": "",
        "hitAutoRedirect": false,
        "muteAllHitText": true
      },
      "combatLock": {
        "lockShape": "CircleLockEnemy",
        "lockType": "Gadget_Lv1"
      }
    },
    "combatTemplate": ""
  },
  "SceneObj_Area_Dq_Property_Prop_HachiWayPoint_01": {
    "$type": "CJKJIENLOHD",
    "hasModel": true,
    "combatTemplate": "",
    "abilities": [
      {
        "abilityID": "SceneObj_Area_Dq_Property_Prop_HachiWayPoint_01",
        "abilityName": "SceneObj_Area_Dq_Property_Prop_HachiWayPoint_01",
        "abilityOverride": ""
      }
    ],
    "field": {
      "shape": "",
      "fromShape": "",
      "lifeInfinite": true,
      "checkInterval": 0.5,
      "campType": "Enemy",
      "colliderName": "",
      "fromColliderName": ""
    }
  },
  "SceneObj_Gear_Property_Ani_Prop_WoodenCage_01": {
    "$type": "CJKJIENLOHD",
    "hasModel": true,
    "combat": {
      "property": {
        "hp": 99999.0,
        "attack": 200.0,
        "weight": 50.0,
        "isLockHP": true
      },
      "beHit": {
        "hitBloodEffect": "",
        "hitAutoRedirect": false,
        "muteAllHitText": true
      },
      "combatLock": {
        "lockShape": "CircleLockEnemy",
        "denyLockOn": true,
        "lockType": "Gadget_Lv1"
      }
    },
    "combatTemplate": "",
    "abilities": [
      {
        "abilityID": "SceneObj_Gear_Property_Ani_Prop_WoodenCage_01",
        "abilityName": "SceneObj_Gear_Property_Ani_Prop_WoodenCage_01",
        "abilityOverride": ""
      }
    ],
    "uiInteract": {
      "gadgetUIBtnCfgPath": "TEST/TEST_Chest_Btn",
      "uiName": "",
      "icon": "",
      "groupName": "",
      "confirmDialogTitle": "",
      "confirmDialogContent": "",
      "canInteractInCombat": false
    },
    "gadgetAction": {
      "gadgetStateActionList": [
        {
          "$type": "FJGKLJLPOGL",
          "intID": "State",
          "syncState": true
        },
        {
          "$type": "DEMJBAICBKO",
          "enable": true
        },
        {
          "$type": "DEMJBAICBKO",
          "triggerID": "GearStart"
        },
        {
          "$type": "DEMJBAICBKO",
          "triggerID": "GearStop"
        },
        {
          "$type": "DEMJBAICBKO",
          "triggerID": "Action03"
        }
      ]
    }
  },
  "SceneObj_Area_Common_Property_Prop_HintPoint_01": {
    "$type": "CJKJIENLOHD",
    "hasModel": true,
    "combatTemplate": "",
    "abilities": [
      {
        "abilityID": "SceneObj_Area_Common_Property_Prop_HintPoint_01",
        "abilityName": "SceneObj_Area_Common_Property_Prop_HintPoint_01",
        "abilityOverride": ""
      }
    ],
    "misc": {
      "escapeEffect": "",
      "guidePoint": true,
      "guidePointManagedByIndicator": true
    },
    "billboard": {
      "$type": "KMCIKEIBFAH",
      "attachPoint": "BillboardAttach",
      "offset": {
        "y": 2.0
      }
    }
  }
}