{
  "Albedo_FuriousMonolith": {
    "$type": "CJKJIENLOHD",
    "common": {
      "effectAttachShape": {
        "$type": "OMIODKONOMG"
      }
    },
    "vodIntee": {
      "GIOMFJPNIDM": true,
      "FHNLFFCAKDM": true,
      "GHIJHHPHJLN": ""
    },
    "combat": {
      "property": {
        "endureType": "Monster_Boss_Humanoid",
        "useCreatorProperty": true
      },
      "beHit": {
        "hitBloodEffect": "",
        "muteAllHitText": true
      },
      "combatLock": {
        "lockShape": "CircleLockEnemy",
        "denyLockOn": true,
        "lockType": "Default"
      }
    },
    "combatTemplate": "",
    "abilities": [
      {
        "abilityID": "SkillObj_Albedo_FuriousMonolith",
        "abilityName": "SkillObj_Albedo_FuriousMonolith",
        "abilityOverride": ""
      },
      {
        "abilityID": "SkillObj_Albedo_ForceResetPlatform",
        "abilityName": "SkillObj_Albedo_ForceResetPlatform",
        "abilityOverride": ""
      },
      {
        "abilityID": "SkillObj_Albedo_FuriousMonolith_Field",
        "abilityName": "SkillObj_Albedo_FuriousMonolith_Field",
        "abilityOverride": ""
      },
      {
        "abilityID": "SkillObj_Albedo_FuriousMonolith_FullBloom",
        "abilityName": "SkillObj_Albedo_FuriousMonolith_FullBloom",
        "abilityOverride": ""
      },
      {
        "abilityID": "RockGadget_Summon_Detect",
        "abilityName": "Avatar_RockGadget_Summon_Detect",
        "abilityOverride": ""
      },
      {
        "abilityID": "WeightRatio",
        "abilityName": "RocketGadget_WeightRatio",
        "abilityOverride": ""
      }
    ],
    "timer": {
      "lifeTime": 35.0
    },
    "gadget": {
      "$type": "JENBBNKGGJP",
      "collision": {
        "triggerType": "TriggerAlways",
        "triggerCD": 0.30000001192092896,
        "targetType": "All",
        "ignoreScene": true,
        "ignoreWater": true,
        "bornWithTriggerEnabled": false
      },
      "triggerActions": [
        {
          "$type": "AILPBJHDHDG",
          "abilityName": "SkillObj_Albedo_FuriousMonolith"
        }
      ],
      "enableCollisionDelay": 0.6000000238418579
    },
    "canRemoveByClient": true
  },
  "Albedo_FuriousMonolith_Elevator": {
    "$type": "CJKJIENLOHD",
    "common": {
      "effectAttachShape": {
        "$type": "OMIODKONOMG"
      }
    },
    "vodIntee": {
      "GIOMFJPNIDM": true,
      "GHIJHHPHJLN": ""
    },
    "combat": {
      "property": {
        "useCreatorProperty": true,
        "isInvincible": true,
        "isGhostToAllied": true,
        "isGhostToEnemy": true
      },
      "beHit": {
        "hitBloodEffect": "",
        "muteAllHitText": true
      },
      "combatLock": {
        "lockShape": "CircleLockEnemy",
        "denyLockOn": true,
        "lockType": "Default"
      },
      "die": {
        "dieDisappearEffect": "Eff_Avatar_Boy_Sword_Albedo_FuriousMonolith_Elevator_Die"
      }
    },
    "combatTemplate": "",
    "abilities": [
      {
        "abilityID": "SkillObj_Albedo_FuriousMonolith_Elevator",
        "abilityName": "SkillObj_Albedo_FuriousMonolith_Elevator",
        "abilityOverride": ""
      }
    ],
    "timer": {
      "lifeTime": 31.0
    },
    "move": {
      "$type": "OEFHHKHPMCJ",
      "velocityForce": {
        "muteAll": true
      },
      "route": {
        "localId": 41038002,
        "_name": "Albedo_Elevator",
        "_points": [
          {
            "targetVelocity": 5.5
          },
          {
            "_pos": {
              "y": 4.0
            },
            "targetVelocity": 5.0
          }
        ]
      }
    },
    "canRemoveByClient": true
  },
  "Albedo_FuriousMonolith_Bullet": {
    "$type": "CJKJIENLOHD",
    "common": {
      "effectAttachShape": {
        "$type": "OMIODKONOMG",
        "scaleX": 2.4000000953674316,
        "scaleY": 2.4000000953674316,
        "scaleZ": 2.4000000953674316
      },
      "affectedByWorld": true
    },
    "combat": {
      "property": {
        "useCreatorProperty": true,
        "isGhostToAllied": true,
        "isGhostToEnemy": true
      },
      "combatLock": {
        "lockShape": "CircleLockEnemy",
        "denyLockOn": true,
        "lockType": "Default"
      }
    },
    "combatTemplate": "",
    "abilities": [
      {
        "abilityID": "Bullet_Albedo_FuriousMonolith_Bullet",
        "abilityName": "Bullet_Albedo_FuriousMonolith_Bullet",
        "abilityOverride": ""
      },
      {
        "abilityID": "Bullet_Albedo_FuriousMonolith_Bullet_LifeOver",
        "abilityName": "Bullet_Albedo_FuriousMonolith_Bullet_LifeOver",
        "abilityOverride": ""
      }
    ],
    "timer": {
      "lifeTime": 0.20000000298023224
    },
    "move": {
      "$type": "GONNMCBKAOC",
      "speed": 50.0,
      "syncToRemote": true
    },
    "gadget": {
      "$type": "JENBBNKGGJP",
      "collision": {
        "ccd": {
          "damageRatio": "Always"
        },
        "targetType": "Enemy",
        "ignoreWater": true
      },
      "triggerActions": [
        {
          "$type": "AILPBJHDHDG",
          "abilityName": "Bullet_Albedo_FuriousMonolith_Bullet"
        }
      ],
      "triggerLifeOverActions": [
        {
          "$type": "AILPBJHDHDG",
          "abilityName": "Bullet_Albedo_FuriousMonolith_Bullet_LifeOver"
        }
      ]
    }
  }
}