{
  "Chiori_NormalAttack_04": {
    "$type": "CJKJIENLOHD",
    "common": {
      "effectAttachShape": {
        "$type": "OMIODKONOMG"
      }
    },
    "combat": {
      "property": {
        "useCreatorProperty": true,
        "isInvincible": true,
        "isGhostToAllied": true,
        "isGhostToEnemy": true
      },
      "beHit": {
        "hitBloodEffect": "",
        "muteAllHit": true,
        "muteAllHitEffect": true,
        "muteAllHitText": true
      },
      "combatLock": {
        "lockShape": "CircleLockEnemy",
        "denyLockOn": true,
        "lockType": "Gadget_Lv1"
      }
    },
    "combatTemplate": "",
    "abilities": [
      {
        "abilityID": "Avatar_Chiori_NormalAttack_04",
        "abilityName": "Avatar_Chiori_NormalAttack_04",
        "abilityOverride": ""
      }
    ],
    "timer": {
      "lifeTime": 1.0
    }
  },
  "SkillObj_Chiori_ElementalArt_Turret": {
    "$type": "CJKJIENLOHD",
    "common": {
      "effectAttachShape": {
        "$type": "OMIODKONOMG"
      },
      "checkInSurface": true,
      "disableTickDistance": 100000.0,
      "enableCrashDamage": false
    },
    "combat": {
      "property": {
        "useCreatorProperty": true,
        "isLockHP": true,
        "isGhostToAllied": true,
        "isGhostToEnemy": true
      },
      "beHit": {
        "hitBloodEffect": "",
        "muteAllHit": true,
        "muteAllHitEffect": true,
        "muteAllHitText": true
      },
      "combatLock": {
        "lockShape": "CircleLockEnemy",
        "denyLockOn": true,
        "lockType": "Gadget_Lv1"
      }
    },
    "combatTemplate": "",
    "abilities": [
      {
        "abilityID": "",
        "abilityName": "SkillObj_Chiori_ElementalArt_Turret",
        "abilityOverride": ""
      }
    ],
    "timer": {
      "lifeTime": 30.0
    },
    "move": {
      "$type": "MGENMIHFEJO",
      "velocityForce": {
        "includeForces": [
          "WindZoneType",
          "RetreatType",
          "RetreatAirType"
        ]
      },
      "startCloseToGround": false
    }
  },
  "SkillObj_Chiori_ElementalArt_RockGadget_Turret": {
    "$type": "CJKJIENLOHD",
    "common": {
      "effectAttachShape": {
        "$type": "OMIODKONOMG"
      },
      "checkInSurface": true,
      "disableTickDistance": 100000.0,
      "enableCrashDamage": false
    },
    "combat": {
      "property": {
        "useCreatorProperty": true,
        "isLockHP": true,
        "isGhostToAllied": true,
        "isGhostToEnemy": true
      },
      "beHit": {
        "hitBloodEffect": "",
        "muteAllHit": true,
        "muteAllHitEffect": true,
        "muteAllHitText": true
      },
      "combatLock": {
        "lockShape": "CircleLockEnemy",
        "denyLockOn": true,
        "lockType": "Gadget_Lv1"
      }
    },
    "combatTemplate": "",
    "abilities": [
      {
        "abilityID": "",
        "abilityName": "SkillObj_Chiori_ElementalArt_RockGadget_Turret",
        "abilityOverride": ""
      }
    ],
    "timer": {
      "lifeTime": 30.0
    },
    "move": {
      "$type": "MGENMIHFEJO",
      "velocityForce": {
        "includeForces": [
          "WindZoneType",
          "RetreatType",
          "RetreatAirType"
        ]
      },
      "startCloseToGround": false
    }
  },
  "Bullet_Chiori_ElementalArt_Rush_Detect": {
    "$type": "CJKJIENLOHD",
    "common": {
      "effectAttachShape": {
        "$type": "OMIODKONOMG"
      }
    },
    "combat": {
      "property": {
        "useCreatorProperty": true,
        "isInvincible": true,
        "isGhostToAllied": true,
        "isGhostToEnemy": true,
        "canTriggerBullet": false
      },
      "beHit": {
        "hitBloodEffect": "",
        "muteAllHit": true,
        "muteAllHitEffect": true,
        "muteAllHitText": true
      },
      "combatLock": {
        "lockShape": "CircleLockEnemy",
        "denyLockOn": true,
        "lockType": "Default"
      }
    },
    "combatTemplate": "",
    "abilities": [
      {
        "abilityID": "Bullet_Chiori_ElementalArt_Rush_Detect",
        "abilityName": "Bullet_Chiori_ElementalArt_Rush_Detect",
        "abilityOverride": ""
      }
    ],
    "timer": {
      "lifeTime": 0.30000001192092896
    },
    "move": {
      "$type": "MMAPEFIEGAL",
      "attachPoint": "",
      "followRotation": true,
      "offset": {
        "y": 0.8999999761581421
      },
      "HOMINCCNFHE": {
        "z": 1.0
      },
      "LFOHLEKJFBI": ""
    },
    "gadget": {
      "$type": "JENBBNKGGJP",
      "collision": {
        "ccd": {
          "damageRatio": "Always"
        },
        "targetType": "Enemy",
        "ignoreScene": true
      },
      "triggerActions": [
        {
          "$type": "AILPBJHDHDG",
          "abilityName": "Bullet_Chiori_ElementalArt_Rush_Detect"
        }
      ]
    }
  },
  "SkillObj_Chiori_ElementalBurst_RockBomb": {
    "$type": "CJKJIENLOHD",
    "common": {
      "effectAttachShape": {
        "$type": "OMIODKONOMG"
      }
    },
    "combat": {
      "property": {
        "useCreatorProperty": true,
        "isInvincible": true,
        "isGhostToAllied": true,
        "isGhostToEnemy": true,
        "canTriggerBullet": false
      },
      "beHit": {
        "hitBloodEffect": "",
        "muteAllHit": true,
        "muteAllHitEffect": true,
        "muteAllHitText": true
      },
      "combatLock": {
        "lockShape": "CircleLockEnemy",
        "denyLockOn": true,
        "lockType": "Default"
      }
    },
    "combatTemplate": "",
    "abilities": [
      {
        "abilityID": "Bullet_Chiori_ElementalBurst_RockBomb",
        "abilityName": "Bullet_Chiori_ElementalBurst_RockBomb",
        "abilityOverride": ""
      }
    ],
    "timer": {
      "lifeTime": 4.0
    },
    "gadget": {
      "$type": "JENBBNKGGJP",
      "collision": {
        "ccd": {
          "damageRatio": "Always"
        },
        "triggerType": "TriggerNoRepeat",
        "targetType": "Enemy",
        "ignoreScene": true
      },
      "triggerActions": [
        {
          "$type": "AILPBJHDHDG",
          "abilityName": "Bullet_Chiori_ElementalBurst_RockBomb"
        }
      ]
    }
  },
  "SkillObj_Chiori_Turret_Constellation": {
    "$type": "CJKJIENLOHD",
    "common": {
      "effectAttachShape": {
        "$type": "OMIODKONOMG"
      },
      "checkInSurface": true,
      "disableTickDistance": 100000.0,
      "enableCrashDamage": false
    },
    "combat": {
      "property": {
        "useCreatorProperty": true,
        "isLockHP": true,
        "isGhostToAllied": true,
        "isGhostToEnemy": true
      },
      "beHit": {
        "hitBloodEffect": "",
        "muteAllHit": true,
        "muteAllHitEffect": true,
        "muteAllHitText": true
      },
      "combatLock": {
        "lockShape": "CircleLockEnemy",
        "denyLockOn": true,
        "lockType": "Gadget_Lv1"
      }
    },
    "combatTemplate": "",
    "abilities": [
      {
        "abilityID": "",
        "abilityName": "SkillObj_Chiori_Turret_Constellation",
        "abilityOverride": ""
      }
    ],
    "timer": {
      "lifeTime": 10.0
    },
    "move": {
      "$type": "MGENMIHFEJO",
      "velocityForce": {
        "includeForces": [
          "WindZoneType",
          "RetreatType",
          "RetreatAirType"
        ]
      },
      "startCloseToGround": false
    }
  }
}