{
  "Diluc_FireCross": {
    "$type": "CJKJIENLOHD",
    "common": {
      "effectAttachShape": {
        "$type": "OMIODKONOMG"
      }
    },
    "combat": {
      "property": {
        "useCreatorProperty": true,
        "isInvincible": true,
        "isGhostToEnemy": true
      },
      "beHit": {
        "hitBloodEffect": "",
        "muteAllHit": true,
        "muteAllHitEffect": true,
        "muteAllHitText": true
      },
      "combatLock": {
        "lockShape": "CircleLockEnemy",
        "denyLockOn": true,
        "lockType": "Gadget_Lv1"
      }
    },
    "combatTemplate": "",
    "abilities": [
      {
        "abilityID": "Avatar_Diluc_FireCross_Material",
        "abilityName": "Avatar_Diluc_FireCross_Material",
        "abilityOverride": ""
      },
      {
        "abilityID": "Avatar_Diluc_FireCross_Explode",
        "abilityName": "Avatar_Diluc_FireCross_Explode",
        "abilityOverride": ""
      }
    ],
    "timer": {
      "lifeTime": 1.7000000476837158
    },
    "move": {
      "$type": "GONNMCBKAOC",
      "velocityForce": {
        "muteAll": true
      },
      "speed": 14.0,
      "acceleration": -2.0,
      "accelerationTime": 1.0,
      "stickToGround": {
        "maxStepHeight": 3.0,
        "maxSlopeAngle": 30.0,
        "heightToGround": 1.600000023841858,
        "flexibleRange": 1.2000000476837158,
        "isStickToWater": true,
        "unstickWhenDownSlide": "Keep",
        "unstickWhenUpSlide": "Keep"
      }
    },
    "gadget": {
      "$type": "JENBBNKGGJP",
      "collision": {
        "triggerType": "TriggerNoRepeat",
        "triggerCD": 10.0,
        "targetType": "Enemy",
        "ignoreScene": true
      },
      "triggerLifeOverActions": [
        {
          "$type": "AILPBJHDHDG",
          "abilityName": "Avatar_Diluc_FireCross_Explode"
        }
      ]
    }
  }
}