{
  "Default_Weapon": {
    "$type": "CJKJIENLOHD",
    "combatTemplate": "",
    "misc": {
      "pickup": {
        "pickType": "Select",
        "bornEffect": "",
        "dropEffect": "",
        "lockYmove": true,
        "suspendHeight": 0.30000001192092896,
        "rotateSpeed": -45.0,
        "rotateVec": {
          "x": 3.0,
          "y": 3.0,
          "z": 10.0
        },
        "attractAudio": ""
      },
      "escapeEffect": ""
    }
  },
  "Lv1_Weapon": {
    "$type": "CJKJIENLOHD",
    "combatTemplate": "",
    "misc": {
      "pickup": {
        "pickType": "Select",
        "dropPointMinSpeed": 2.0,
        "dropPointMaxSpeed": 3.0,
        "bornEffect": "Eff_DropItem_Trail",
        "dropEffect": "Eff_DropWeapon_Lv1",
        "rotateVec": {
          "x": 5.0,
          "y": 5.0,
          "z": -3.0
        },
        "attractAudio": ""
      },
      "escapeEffect": ""
    }
  },
  "Lv2_Weapon": {
    "$type": "CJKJIENLOHD",
    "combatTemplate": "",
    "misc": {
      "pickup": {
        "pickType": "Select",
        "dropPointMinSpeed": 2.0,
        "dropPointMaxSpeed": 3.0,
        "bornEffect": "Eff_DropItem_Trail",
        "dropEffect": "Eff_DropWeapon_Lv2",
        "rotateVec": {
          "x": 5.0,
          "y": 5.0,
          "z": -3.0
        },
        "attractAudio": ""
      },
      "escapeEffect": ""
    }
  },
  "Lv3_Weapon": {
    "$type": "CJKJIENLOHD",
    "combatTemplate": "",
    "misc": {
      "pickup": {
        "pickType": "Select",
        "dropPointMinSpeed": 2.0,
        "dropPointMaxSpeed": 3.0,
        "bornEffect": "Eff_DropItem_Trail",
        "dropEffect": "Eff_DropWeapon_Lv3",
        "rotateVec": {
          "x": 5.0,
          "y": 5.0,
          "z": -3.0
        },
        "attractAudio": ""
      },
      "escapeEffect": ""
    }
  },
  "Lv4_Weapon": {
    "$type": "CJKJIENLOHD",
    "combatTemplate": "",
    "misc": {
      "pickup": {
        "pickType": "Select",
        "dropPointMinSpeed": 2.0,
        "dropPointMaxSpeed": 3.0,
        "bornEffect": "Eff_DropItem_Trail",
        "dropEffect": "Eff_DropWeapon_Lv4",
        "rotateVec": {
          "x": 5.0,
          "y": 5.0,
          "z": -3.0
        },
        "attractAudio": ""
      },
      "escapeEffect": ""
    }
  },
  "Lv5_Weapon": {
    "$type": "CJKJIENLOHD",
    "combatTemplate": "",
    "misc": {
      "pickup": {
        "pickType": "Select",
        "dropPointMinSpeed": 2.0,
        "dropPointMaxSpeed": 3.0,
        "bornEffect": "Eff_DropItem_Trail",
        "dropEffect": "Eff_DropWeapon_Lv5",
        "rotateVec": {
          "x": 5.0,
          "y": 5.0,
          "z": -3.0
        },
        "attractAudio": ""
      },
      "escapeEffect": ""
    }
  },
  "Lv1_Catalyst": {
    "$type": "CJKJIENLOHD",
    "combatTemplate": "",
    "misc": {
      "pickup": {
        "pickType": "Select",
        "dropPointMinSpeed": 2.0,
        "dropPointMaxSpeed": 3.0,
        "bornEffect": "Eff_DropItem_Trail",
        "dropEffect": "Eff_DropWeapon_Catalyst_Lv1",
        "rotateVec": {
          "x": 5.0,
          "y": 5.0,
          "z": -3.0
        },
        "attractAudio": ""
      },
      "escapeEffect": ""
    }
  },
  "Lv2_Catalyst": {
    "$type": "CJKJIENLOHD",
    "combatTemplate": "",
    "misc": {
      "pickup": {
        "pickType": "Select",
        "dropPointMinSpeed": 2.0,
        "dropPointMaxSpeed": 3.0,
        "bornEffect": "Eff_DropItem_Trail",
        "dropEffect": "Eff_DropWeapon_Catalyst_Lv2",
        "rotateVec": {
          "x": 5.0,
          "y": 5.0,
          "z": -3.0
        },
        "attractAudio": ""
      },
      "escapeEffect": ""
    }
  },
  "Lv3_Catalyst": {
    "$type": "CJKJIENLOHD",
    "combatTemplate": "",
    "misc": {
      "pickup": {
        "pickType": "Select",
        "dropPointMinSpeed": 2.0,
        "dropPointMaxSpeed": 3.0,
        "bornEffect": "Eff_DropItem_Trail",
        "dropEffect": "Eff_DropWeapon_Catalyst_Lv3",
        "rotateVec": {
          "x": 5.0,
          "y": 5.0,
          "z": -3.0
        },
        "attractAudio": ""
      },
      "escapeEffect": ""
    }
  },
  "Lv4_Catalyst": {
    "$type": "CJKJIENLOHD",
    "combatTemplate": "",
    "misc": {
      "pickup": {
        "pickType": "Select",
        "dropPointMinSpeed": 2.0,
        "dropPointMaxSpeed": 3.0,
        "bornEffect": "Eff_DropItem_Trail",
        "dropEffect": "Eff_DropWeapon_Catalyst_Lv4",
        "rotateVec": {
          "x": 5.0,
          "y": 5.0,
          "z": -3.0
        },
        "attractAudio": ""
      },
      "escapeEffect": ""
    }
  },
  "Lv5_Catalyst": {
    "$type": "CJKJIENLOHD",
    "combatTemplate": "",
    "misc": {
      "pickup": {
        "pickType": "Select",
        "dropPointMinSpeed": 2.0,
        "dropPointMaxSpeed": 3.0,
        "bornEffect": "Eff_DropItem_Trail",
        "dropEffect": "Eff_DropWeapon_Catalyst_Lv5",
        "rotateVec": {
          "x": 5.0,
          "y": 5.0,
          "z": -3.0
        },
        "attractAudio": ""
      },
      "escapeEffect": ""
    }
  },
  "Default_Item": {
    "$type": "CJKJIENLOHD",
    "combatTemplate": "",
    "misc": {
      "pickup": {
        "pickType": "Select",
        "bornEffect": "",
        "dropEffect": "Eff_Item_Hint_Small",
        "attractAudio": ""
      },
      "escapeEffect": ""
    }
  },
  "Lv1_Item": {
    "$type": "CJKJIENLOHD",
    "model": {
      "bornEffect": "",
      "attachEffect": "Eff_DropItem_Trail",
      "BKPFGNPLDNJ": ""
    },
    "hasModel": true,
    "combatTemplate": "",
    "misc": {
      "pickup": {
        "pickType": "Select",
        "dropPointMinSpeed": 2.0,
        "dropPointMaxSpeed": 3.0,
        "bornEffect": "",
        "dropEffect": "Eff_DropWeapon_Lv1",
        "rotateVec": {
          "x": 5.0,
          "y": 5.0,
          "z": -3.0
        },
        "attractAudio": ""
      },
      "escapeEffect": ""
    }
  },
  "Lv2_Item": {
    "$type": "CJKJIENLOHD",
    "model": {
      "bornEffect": "",
      "attachEffect": "Eff_DropItem_Trail",
      "BKPFGNPLDNJ": ""
    },
    "hasModel": true,
    "combatTemplate": "",
    "misc": {
      "pickup": {
        "pickType": "Select",
        "dropPointMinSpeed": 2.0,
        "dropPointMaxSpeed": 3.0,
        "bornEffect": "",
        "dropEffect": "Eff_DropWeapon_Lv2",
        "rotateVec": {
          "x": 5.0,
          "y": 5.0,
          "z": -3.0
        },
        "attractAudio": ""
      },
      "escapeEffect": ""
    }
  },
  "Lv3_Item": {
    "$type": "CJKJIENLOHD",
    "model": {
      "bornEffect": "",
      "attachEffect": "Eff_DropItem_Trail",
      "BKPFGNPLDNJ": ""
    },
    "hasModel": true,
    "combatTemplate": "",
    "misc": {
      "pickup": {
        "pickType": "Select",
        "dropPointMinSpeed": 2.0,
        "dropPointMaxSpeed": 3.0,
        "bornEffect": "",
        "dropEffect": "Eff_DropWeapon_Lv3",
        "rotateVec": {
          "x": 5.0,
          "y": 5.0,
          "z": -3.0
        },
        "attractAudio": ""
      },
      "escapeEffect": ""
    }
  },
  "Lv4_Item": {
    "$type": "CJKJIENLOHD",
    "model": {
      "bornEffect": "",
      "attachEffect": "Eff_DropItem_Trail",
      "BKPFGNPLDNJ": ""
    },
    "hasModel": true,
    "combatTemplate": "",
    "misc": {
      "pickup": {
        "pickType": "Select",
        "dropPointMinSpeed": 2.0,
        "dropPointMaxSpeed": 3.0,
        "bornEffect": "",
        "dropEffect": "Eff_DropWeapon_Lv4",
        "rotateVec": {
          "x": 5.0,
          "y": 5.0,
          "z": -3.0
        },
        "attractAudio": ""
      },
      "escapeEffect": ""
    }
  },
  "Lv5_Item": {
    "$type": "CJKJIENLOHD",
    "model": {
      "bornEffect": "",
      "attachEffect": "Eff_DropItem_Trail",
      "BKPFGNPLDNJ": ""
    },
    "hasModel": true,
    "combatTemplate": "",
    "misc": {
      "pickup": {
        "pickType": "Select",
        "dropPointMinSpeed": 2.0,
        "dropPointMaxSpeed": 3.0,
        "bornEffect": "",
        "dropEffect": "Eff_DropWeapon_Lv5",
        "rotateVec": {
          "x": 5.0,
          "y": 5.0,
          "z": -3.0
        },
        "attractAudio": ""
      },
      "escapeEffect": ""
    }
  },
  "Default_NoDrop_Item": {
    "$type": "CJKJIENLOHD",
    "combatTemplate": "",
    "misc": {
      "pickup": {
        "pickType": "Select",
        "isStatic": true,
        "bornEffect": "",
        "dropEffect": "",
        "attractAudio": ""
      },
      "escapeEffect": ""
    }
  },
  "Default_Task_Item": {
    "$type": "CJKJIENLOHD",
    "combatTemplate": "",
    "misc": {
      "pickup": {
        "pickType": "Attract",
        "bornEffect": "",
        "dropEffect": "",
        "dirVec": {
          "x": 2.0,
          "y": 6.0
        },
        "attractAudio": ""
      },
      "escapeEffect": ""
    }
  },
  "Default_MonsterWeapon": {
    "$type": "CJKJIENLOHD",
    "combatTemplate": "",
    "misc": {
      "pickup": {
        "pickType": "Monster",
        "bornEffect": "",
        "dropEffect": "",
        "attractAudio": ""
      },
      "escapeEffect": ""
    }
  },
  "Default_UncarvedGem": {
    "$type": "CJKJIENLOHD",
    "combatTemplate": "",
    "misc": {
      "pickup": {
        "pickType": "Attract",
        "bornEffect": "",
        "dropEffect": "SceneObj_Test_IceBall",
        "dirVec": {
          "x": 2.0,
          "y": 6.0
        },
        "attractAudio": ""
      },
      "escapeEffect": ""
    }
  },
  "Default_Mora": {
    "$type": "CJKJIENLOHD",
    "combatTemplate": "",
    "misc": {
      "pickup": {
        "pickType": "GroupAuto",
        "bornEffect": "",
        "dropEffect": "",
        "suspendHeight": 0.07000000029802322,
        "rotateVec": {
          "x": 3.0,
          "y": 3.0,
          "z": 10.0
        },
        "attractDelayTime": 1.5,
        "multi": {
          "dirMinVec": {
            "x": 0.800000011920929,
            "y": 5.0
          },
          "dirMaxVec": {
            "x": 1.0,
            "y": 6.0
          },
          "maxNum": 8,
          "minNum": 4
        },
        "attractAudio": ""
      },
      "escapeEffect": ""
    }
  },
  "Default_Item_WithQuest": {
    "$type": "CJKJIENLOHD",
    "model": {
      "bornEffect": "",
      "attachEffect": "Eff_Quest_SiteInteract",
      "BKPFGNPLDNJ": ""
    },
    "hasModel": true,
    "combatTemplate": "",
    "misc": {
      "pickup": {
        "pickType": "Select",
        "bornEffect": "",
        "dropEffect": "Eff_Item_Hint_Small",
        "attractAudio": ""
      },
      "escapeEffect": ""
    }
  },
  "SceneObj_Area_Common_Property_Prop_BlankCoin_01": {
    "$type": "CJKJIENLOHD",
    "combatTemplate": "",
    "misc": {
      "pickup": {
        "pickType": "Attract",
        "bornEffect": "",
        "dropEffect": "",
        "dirVec": {
          "x": 2.0,
          "y": 6.0
        },
        "attractAudio": ""
      },
      "escapeEffect": ""
    }
  },
  "Default_Attract_Item": {
    "$type": "CJKJIENLOHD",
    "combatTemplate": "",
    "misc": {
      "pickup": {
        "pickType": "Attract",
        "bornEffect": "",
        "dropEffect": "",
        "rotateVec": {
          "x": 600.0,
          "y": 600.0,
          "z": 600.0
        },
        "attractDelayTime": 2.0,
        "disableInitJump": true,
        "initBackSpeed": 3.0,
        "backFanAngle": 170.0,
        "backFanStartAngle": 150.0,
        "attractAccelerate": 2.0,
        "attractMaxDistance": 30.0,
        "heightOffset": 0.6000000238418579,
        "attractAudio": "Play_sfx_pickups_object_wood_get"
      },
      "escapeEffect": ""
    }
  },
  "Default_Attract_CatchAnimal": {
    "$type": "CJKJIENLOHD",
    "model": {
      "bornEffect": "",
      "attachEffect": "Eff_SceneObj_CatchAnimal_Bullet",
      "BKPFGNPLDNJ": ""
    },
    "hasModel": true,
    "combat": {
      "property": {
        "hp": 10.0,
        "isInvincible": true,
        "isGhostToAllied": true,
        "isGhostToEnemy": true
      },
      "beHit": {
        "hitBloodEffect": "",
        "muteAllHit": true,
        "muteAllHitEffect": true,
        "muteAllHitText": true
      },
      "combatLock": {
        "lockShape": "CircleLockEnemy",
        "denyLockOn": true,
        "lockType": "Default"
      },
      "die": {
        "dieDisappearEffect": "Eff_SceneObj_CatchAnimal_Shoot"
      }
    },
    "combatTemplate": "",
    "misc": {
      "pickup": {
        "pickType": "Attract",
        "bornEffect": "",
        "dropEffect": "Eff_SceneObj_CatchAnimal_Bullet",
        "rotateVec": {
          "x": 600.0,
          "y": 600.0,
          "z": 600.0
        },
        "attractDelayTime": 2.0,
        "initBackSpeed": 3.0,
        "backFanAngle": 170.0,
        "backFanStartAngle": 150.0,
        "attractAccelerate": 2.0,
        "attractMaxDistance": 30.0,
        "heightOffset": 0.6000000238418579,
        "attractAudio": ""
      },
      "escapeEffect": ""
    }
  },
  "Default_Attract_CatchAnimal_Activity": {
    "$type": "CJKJIENLOHD",
    "model": {
      "bornEffect": "",
      "attachEffect": "Eff_SceneObj_CatchAnimal_Bullet",
      "BKPFGNPLDNJ": ""
    },
    "hasModel": true,
    "combat": {
      "property": {
        "hp": 10.0,
        "isInvincible": true,
        "isGhostToAllied": true,
        "isGhostToEnemy": true
      },
      "beHit": {
        "hitBloodEffect": "",
        "muteAllHit": true,
        "muteAllHitEffect": true,
        "muteAllHitText": true
      },
      "combatLock": {
        "lockShape": "CircleLockEnemy",
        "denyLockOn": true,
        "lockType": "Default"
      },
      "die": {
        "dieDisappearEffect": "Eff_SceneObj_CatchAnimal_Shoot"
      }
    },
    "combatTemplate": "",
    "misc": {
      "pickup": {
        "pickType": "Attract",
        "bornEffect": "",
        "dropEffect": "Eff_SceneObj_CatchAnimal_Bullet",
        "rotateVec": {
          "x": 600.0,
          "y": 600.0,
          "z": 600.0
        },
        "attractDelayTime": 2.0,
        "initBackSpeed": 3.0,
        "backFanAngle": 170.0,
        "backFanStartAngle": 150.0,
        "attractAccelerate": 2.0,
        "attractMaxDistance": 30.0,
        "heightOffset": 0.6000000238418579,
        "attractAudio": "",
        "isDummyPick": true,
        "isPickDestroy": true
      },
      "escapeEffect": ""
    }
  },
  "Default_Attract_BoatRaceNitrogen_Activity": {
    "$type": "CJKJIENLOHD",
    "model": {
      "bornEffect": "",
      "attachEffect": "Eff_SceneObj_BoatRaceNitrogen_01_Trail",
      "BKPFGNPLDNJ": ""
    },
    "hasModel": true,
    "combat": {
      "property": {
        "hp": 10.0,
        "isInvincible": true,
        "isGhostToAllied": true,
        "isGhostToEnemy": true
      },
      "beHit": {
        "hitBloodEffect": "",
        "muteAllHit": true,
        "muteAllHitEffect": true,
        "muteAllHitText": true
      },
      "combatLock": {
        "lockShape": "CircleLockEnemy",
        "denyLockOn": true,
        "lockType": "Default"
      }
    },
    "combatTemplate": "",
    "misc": {
      "pickup": {
        "pickType": "Attract",
        "bornEffect": "",
        "dropEffect": "Eff_SceneObj_BoatRaceNitrogen_01_Trail",
        "attractDelayTime": 0.0,
        "disableInitJump": true,
        "initBackSpeed": 2.0999999046325684,
        "backDecelerate": 0.10000000149011612,
        "backFanAngle": 180.0,
        "backFanStartAngle": 180.0,
        "reboundTimes": 0,
        "attractAccelerate": 2.0999999046325684,
        "attractMaxDistance": 300.0,
        "attractAudio": "",
        "isDummyPick": true,
        "isPickDestroy": true
      },
      "escapeEffect": ""
    }
  }
}