{
  "SceneObj_Area_Fd_Property_Ani_Prop_EnergyCaster_Caster_01": {
    "$type": "CJKJIENLOHD",
    "globalValue": {
      "serverGlobalValues": [
        "SGV_EnergyCaster_Camera"
      ],
      "initServerGlobalValues": {
        "SGV_EnergyCaster_Camera": 0.0
      }
    },
    "hasModel": true,
    "combatTemplate": "default",
    "abilities": [
      {
        "abilityID": "",
        "abilityName": "SceneObj_Area_Fd_Property_Ani_Prop_EnergyCaster_Caster_01_Ability",
        "abilityOverride": ""
      }
    ]
  },
  "SceneObj_Area_Fd_Property_Ani_Prop_EnergyCaster_Operator_01": {
    "$type": "CJKJIENLOHD",
    "common": {
      "isForceRefreshAuthotiryToHost": true
    },
    "globalValue": {
      "serverGlobalValues": [
        "SGV_EnergyCaster_CurEnergy"
      ],
      "initServerGlobalValues": {
        "SGV_EnergyCaster_CurEnergy": 0.0
      }
    },
    "hasModel": true,
    "combatTemplate": "default",
    "abilities": [
      {
        "abilityID": "",
        "abilityName": "SceneObj_Area_Fd_Property_Ani_Prop_EnergyCaster_Operator_01_Ability",
        "abilityOverride": ""
      },
      {
        "abilityID": "",
        "abilityName": "SceneObj_Area_Fd_Property_Ani_Prop_EnergyCaster_Operator_01_CameraAim_Ability",
        "abilityOverride": ""
      },
      {
        "abilityID": "",
        "abilityName": "SceneObj_Area_Fd_Property_Ani_Prop_EnergyCaster_Operator_01_CellAim_Ability",
        "abilityOverride": ""
      },
      {
        "abilityID": "",
        "abilityName": "SceneObj_Area_Fd_Property_Ani_Prop_EnergyCaster_Operator_01_CellExit_Ability",
        "abilityOverride": ""
      },
      {
        "abilityID": "",
        "abilityName": "SceneObj_Area_Fd_Property_Ani_Prop_EnergyCaster_Operator_01_CellClick_Ability",
        "abilityOverride": ""
      },
      {
        "abilityID": "",
        "abilityName": "SceneObj_Area_Fd_Property_Ani_Prop_EnergyCaster_Operator_01_QRCode_Ability",
        "abilityOverride": ""
      },
      {
        "abilityID": "",
        "abilityName": "Scene_RockGadget_Summon_Detect",
        "abilityOverride": ""
      }
    ],
    "uiInteract": {
      "gadgetUIBtnCfgPath": "UI/open_energy_caster_page",
      "uiName": "UI_EnergyCaster_Intee_01",
      "icon": "UI_Icon_Intee_Mechanism",
      "groupName": "",
      "confirmDialogTitle": "",
      "confirmDialogContent": "",
      "canInteractInCombat": false
    },
    "gadgetAction": {
      "gadgetStateActionList": [
        {
          "$type": "FJGKLJLPOGL",
          "intID": "GadgetState",
          "syncState": true
        },
        {
          "$type": "DEMJBAICBKO"
        },
        {
          "$type": "DEMJBAICBKO",
          "triggerID": "GearStart",
          "enable": true
        },
        {
          "$type": "DEMJBAICBKO",
          "triggerID": "Action01"
        },
        {
          "$type": "DEMJBAICBKO",
          "triggerID": "Action02"
        }
      ]
    },
    "intee": {
      "triggerHeight": 3.0,
      "KAMIAMNMFCP": ""
    },
    "openWatcher": true
  },
  "SceneObj_Area_Fd_Property_Ani_Prop_EnergyCaster_NormalCell_01": {
    "$type": "CJKJIENLOHD",
    "specialPoint": {
      "elementAbsorb": "RootNode",
      "elementPendant": "",
      "elementDrop": "RootNode",
      "bulletAim": "AimPoint"
    },
    "globalValue": {
      "serverGlobalValues": [
        "SGV_EnergyCaster_Cell"
      ],
      "initServerGlobalValues": {
        "SGV_EnergyCaster_Cell": 0.0
      }
    },
    "hasModel": true,
    "combat": {
      "property": {
        "hp": 99999.0,
        "isLockHP": true,
        "isGhostToAllied": true
      },
      "beHit": {
        "hitBloodEffect": "",
        "hitAutoRedirect": false,
        "muteAllHitText": true
      },
      "combatLock": {
        "lockShape": "CircleLockEnemy",
        "lockType": "Gadget_Lv1"
      }
    },
    "combatTemplate": "",
    "abilities": [
      {
        "abilityID": "",
        "abilityName": "SceneObj_Area_Fd_Property_Ani_Prop_EnergyCaster_NormalCell_01_Ability",
        "abilityOverride": ""
      },
      {
        "abilityID": "",
        "abilityName": "SceneObj_Area_Fd_Property_Ani_Prop_EnergyCaster_CellIcon_Ability",
        "abilityOverride": ""
      },
      {
        "abilityID": "",
        "abilityName": "SceneObj_Fd_ArkheGadget",
        "abilityOverride": ""
      }
    ],
    "openWatcher": true
  },
  "SceneObj_Area_Fd_Property_Ani_Prop_EnergyCaster_PortableCell_01": {
    "$type": "CJKJIENLOHD",
    "common": {
      "isForceRefreshAuthotiryToHost": true
    },
    "globalValue": {
      "serverGlobalValues": [
        "SGV_EnergyCaster_Cell"
      ],
      "initServerGlobalValues": {
        "SGV_EnergyCaster_Cell": 0.0
      }
    },
    "hasModel": true,
    "combat": {
      "property": {
        "hp": 99999.0,
        "attack": 200.0,
        "weight": 50.0,
        "isLockHP": true
      },
      "die": {
        "dieEndTime": 1.0,
        "dieDisappearEffect": ""
      }
    },
    "combatTemplate": "",
    "abilities": [
      {
        "abilityID": "",
        "abilityName": "SceneObj_Area_Fd_Property_Ani_Prop_EnergyCaster_PortableCell_01_Ability",
        "abilityOverride": ""
      },
      {
        "abilityID": "",
        "abilityName": "SceneObj_Area_Fd_Property_Ani_Prop_EnergyCaster_CellIcon_Ability",
        "abilityOverride": ""
      }
    ],
    "uiInteract": {
      "gadgetUIBtnCfgPath": "TEST/TEST_Chest_Btn",
      "uiName": "UI_MovedBattery_01",
      "onTouch": "WidgetMPSupport",
      "touchParams": [
        "SceneObj_Area_Fd_Property_Ani_Prop_EnergyCaster_PortableCell_01_Ability"
      ],
      "showCondTypes": [
        "HOST"
      ],
      "icon": "UI_Icon_Intee_PickUp",
      "groupName": "",
      "confirmDialogTitle": "",
      "confirmDialogContent": "",
      "canInteractInCombat": false
    },
    "misc": {
      "escapeEffect": "",
      "guidePoint": true,
      "guidePointManagedByIndicator": true
    },
    "gadgetAction": {
      "gadgetStateActionList": [
        {
          "$type": "DEMJBAICBKO",
          "triggerID": "Action01"
        },
        {
          "$type": "DEMJBAICBKO",
          "triggerID": "GearStop"
        }
      ]
    },
    "intee": {
      "triggerRadius": 2.0,
      "triggerHeight": 4.0,
      "KAMIAMNMFCP": ""
    },
    "openWatcher": true
  },
  "SceneObj_Area_Fd_Property_Ani_Prop_EnergyCaster_QRCode_01": {
    "$type": "CJKJIENLOHD",
    "globalValue": {
      "serverGlobalValues": [
        "SGV_EnergyCaster_QRCode"
      ],
      "initServerGlobalValues": {
        "SGV_EnergyCaster_QRCode": 0.0
      }
    },
    "hasModel": true,
    "combatTemplate": "default",
    "abilities": [
      {
        "abilityID": "",
        "abilityName": "SceneObj_Area_Fd_Property_Ani_Prop_EnergyCaster_QRCode_01_Ability",
        "abilityOverride": ""
      }
    ]
  },
  "SceneObj_Area_Fd_Property_Ani_Prop_ResearchConsole_01": {
    "$type": "CJKJIENLOHD",
    "globalValue": {
      "serverGlobalValues": [
        "SGV_EnergyCaster_ChargedCount_NormalCell",
        "SGV_EnergyCaster_Mark"
      ],
      "initServerGlobalValues": {
        "SGV_EnergyCaster_ChargedCount_NormalCell": 0.0,
        "SGV_EnergyCaster_Mark": 0.0
      }
    },
    "hasModel": true,
    "combat": {
      "property": {
        "hp": 99999.0,
        "attack": 200.0,
        "weight": 50.0,
        "isInvincible": true,
        "isLockHP": true
      },
      "beHit": {
        "hitBloodEffect": "",
        "hitAutoRedirect": false,
        "muteAllHitText": true
      },
      "combatLock": {
        "lockShape": "CircleLockEnemy",
        "denyLockOn": true,
        "lockType": "Gadget_Lv1"
      }
    },
    "combatTemplate": "",
    "abilities": [
      {
        "abilityID": "",
        "abilityName": "SceneObj_Area_Fd_Property_Ani_Prop_ResearchConsole_01_Ability",
        "abilityOverride": ""
      },
      {
        "abilityID": "",
        "abilityName": "SceneObj_Area_Fd_Property_Ani_Prop_EnergyCaster_Charged_Ability",
        "abilityOverride": ""
      }
    ],
    "field": {
      "concernType": "AllAvatars",
      "shape": "CircleR3H3",
      "fromShape": "",
      "triggerInfinite": true,
      "lifeInfinite": true,
      "checkInterval": 0.20000000298023224,
      "overwriteCampType": true,
      "campType": "All",
      "colliderName": "",
      "fromColliderName": ""
    },
    "misc": {
      "escapeEffect": "",
      "targetIndicatorYOffset": 1.350000023841858
    },
    "gadgetAction": {
      "gadgetStateActionList": [
        {
          "$type": "FJGKLJLPOGL",
          "intID": "GadgetState",
          "syncState": true
        }
      ]
    }
  },
  "SceneObj_Area_Fd_Property_Ani_Prop_FactoryJukebox_01": {
    "$type": "CJKJIENLOHD",
    "globalValue": {
      "serverGlobalValues": [
        "SGV_Prison_MonsterAlert"
      ],
      "initServerGlobalValues": {
        "SGV_Prison_MonsterAlert": 0.0
      }
    },
    "hasModel": true,
    "combat": {
      "property": {
        "hp": 99999.0,
        "attack": 200.0,
        "weight": 50.0,
        "isLockHP": true
      }
    },
    "combatTemplate": "",
    "abilities": [
      {
        "abilityID": "",
        "abilityName": "SceneObj_Area_Fd_Property_Ani_Prop_FactoryJukebox_01_Ability",
        "abilityOverride": ""
      },
      {
        "abilityID": "",
        "abilityName": "SceneObj_Area_Fd_Property_Ani_Prop_EnergyCaster_Charged_Ability",
        "abilityOverride": ""
      }
    ],
    "field": {
      "concernType": "LocalAvatar",
      "shape": "CircleR3H3",
      "fromShape": "",
      "triggerInfinite": true,
      "lifeInfinite": true,
      "checkInterval": 0.20000000298023224,
      "overwriteCampType": true,
      "campType": "SelfCamp",
      "colliderName": "",
      "fromColliderName": ""
    }
  },
  "SceneObj_Area_Fd_Property_Ani_Prop_FactoryBoxingMachine_01": {
    "$type": "CJKJIENLOHD",
    "specialPoint": {
      "elementAbsorb": "RootNode",
      "elementPendant": "",
      "elementDrop": "RootNode",
      "bulletAim": "BulletAimPoint"
    },
    "hasModel": true,
    "combat": {
      "property": {
        "hp": 99999.0,
        "isLockHP": true
      },
      "beHit": {
        "hitBloodEffect": "",
        "hitAutoRedirect": false,
        "muteAllHitText": true
      },
      "combatLock": {
        "lockShape": "CircleLockEnemy",
        "lockType": "Gadget_Lv1",
        "overrideRange": 5.0
      }
    },
    "combatTemplate": "",
    "abilities": [
      {
        "abilityID": "",
        "abilityName": "SceneObj_Area_Fd_Property_Ani_Prop_FactoryBoxingMachine_01_Ability",
        "abilityOverride": ""
      },
      {
        "abilityID": "",
        "abilityName": "SceneObj_Area_Fd_Property_Ani_Prop_EnergyCaster_Charged_Ability",
        "abilityOverride": ""
      }
    ]
  }
}