{
  "SceneObj_Area_Xm_Property_Ani_Prop_ChargingBuff_02": {
    "$type": "CJKJIENLOHD",
    "hasModel": true,
    "combat": {
      "property": {
        "hp": 99999.0,
        "attack": 35.0,
        "weight": 50.0,
        "isLockHP": true,
        "canTriggerBullet": false
      },
      "beHit": {
        "hitBloodEffect": "",
        "hitAutoRedirect": false,
        "muteAllHitText": true
      },
      "combatLock": {
        "lockShape": "CircleLockEnemy",
        "lockType": "Gadget_Lv1"
      },
      "die": {
        "dieEndTime": 0.10000000149011612,
        "dieForceDisappearTime": 0.10000000149011612,
        "dieDisappearEffect": ""
      }
    },
    "combatTemplate": "",
    "abilities": [
      {
        "abilityID": "SceneObj_Area_Xm_Property_Ani_Prop_ChargingBuff_01",
        "abilityName": "SceneObj_Area_Xm_Property_Ani_Prop_ChargingBuff_01",
        "abilityOverride": ""
      }
    ],
    "field": {
      "concernType": "AllAvatars",
      "shape": "CircleR2",
      "fromShape": "",
      "triggerInfinite": true,
      "lifeInfinite": true,
      "checkInterval": 0.75,
      "overwriteCampType": true,
      "campType": "All",
      "colliderName": "",
      "fromColliderName": ""
    }
  },
  "SceneObj_Area_Xm_Property_Ani_Prop_ChargingBuff_03": {
    "$type": "CJKJIENLOHD",
    "hasModel": true,
    "combat": {
      "property": {
        "hp": 99999.0,
        "attack": 35.0,
        "weight": 50.0,
        "isLockHP": true,
        "isGhostToAllied": true,
        "isGhostToEnemy": true,
        "canTriggerBullet": false
      },
      "beHit": {
        "hitBloodEffect": "",
        "hitAutoRedirect": false,
        "muteAllHitText": true
      },
      "combatLock": {
        "lockShape": "CircleLockEnemy",
        "denyLockOn": true,
        "lockType": "Gadget_Lv1"
      },
      "die": {
        "dieEndTime": 0.10000000149011612,
        "dieForceDisappearTime": 0.10000000149011612,
        "dieDisappearEffect": ""
      }
    },
    "combatTemplate": "",
    "abilities": [
      {
        "abilityID": "SceneObj_Area_Xm_Property_Ani_Prop_ChargingBuff_03",
        "abilityName": "SceneObj_Area_Xm_Property_Ani_Prop_ChargingBuff_03",
        "abilityOverride": ""
      }
    ],
    "field": {
      "concernType": "AllAvatars",
      "shape": "CircleR1",
      "fromShape": "",
      "triggerInfinite": true,
      "lifeInfinite": true,
      "checkInterval": 0.75,
      "overwriteCampType": true,
      "campType": "All",
      "colliderName": "",
      "fromColliderName": ""
    }
  },
  "SceneObj_Area_Xm_Property_Ani_Prop_DirectAttackSandWorm_Sand_01": {
    "$type": "CJKJIENLOHD",
    "globalValue": {
      "serverGlobalValues": [
        "SGV_Attack_Times",
        "SGV_Target_Stragety"
      ],
      "initServerGlobalValues": {
        "SGV_Attack_Times": 0.0,
        "SGV_Target_Stragety": 0.0
      }
    },
    "hasModel": true,
    "combat": {
      "property": {
        "hp": 400.0,
        "attack": 1500.0,
        "weight": 50.0,
        "isInvincible": true,
        "isLockHP": true,
        "isGhostToAllied": true,
        "isGhostToEnemy": true,
        "canTriggerBullet": false
      },
      "beHit": {
        "hitBloodEffect": "",
        "hitAutoRedirect": false,
        "muteAllHit": true,
        "muteAllHitEffect": true,
        "muteAllHitText": true
      },
      "combatLock": {
        "lockShape": "CircleLockEnemy",
        "denyLockOn": true,
        "lockType": "Gadget_Lv1"
      }
    },
    "combatTemplate": "",
    "abilities": [
      {
        "abilityID": "SceneObj_Area_Xm_Property_Ani_Prop_DirectAttackSandWorm_Sand_01",
        "abilityName": "SceneObj_Area_Xm_Property_Ani_Prop_DirectAttackSandWorm_Sand_01",
        "abilityOverride": ""
      }
    ]
  },
  "SceneObj_Area_Ly_Property_Ani_Prop_ActivitySandWormMark_01": {
    "$type": "CJKJIENLOHD",
    "hasModel": true,
    "combatTemplate": "default",
    "field": {
      "concernType": "AllAvatars",
      "shape": "CircleR10",
      "fromShape": "",
      "triggerInfinite": true,
      "lifeInfinite": true,
      "checkInterval": 0.20000000298023224,
      "overwriteCampType": true,
      "campType": "All",
      "colliderName": "",
      "fromColliderName": ""
    },
    "misc": {
      "escapeEffect": "",
      "guidePoint": true,
      "targetIndicatorYOffset": 2.0,
      "guidePointConfig": {
        "uiIndicator": {
          "templateName": "ActivitySandwormCannon_Target_Icon"
        },
        "disableQuestArrow": true
      }
    }
  },
  "SceneObj_Area_Ly_Property_Ani_Prop_ActivitySandWormMark_02": {
    "$type": "CJKJIENLOHD",
    "hasModel": true,
    "combatTemplate": "default",
    "field": {
      "concernType": "AllAvatars",
      "shape": "CircleR10",
      "fromShape": "",
      "triggerInfinite": true,
      "lifeInfinite": true,
      "checkInterval": 0.20000000298023224,
      "overwriteCampType": true,
      "campType": "All",
      "colliderName": "",
      "fromColliderName": ""
    },
    "misc": {
      "escapeEffect": "",
      "guidePoint": true,
      "targetIndicatorYOffset": 3.0,
      "guidePointConfig": {
        "uiIndicator": {
          "templateName": "ActivitySandwormCannon_Target_Icon"
        },
        "disableQuestArrow": true
      }
    }
  },
  "SceneObj_Area_Xm_Property_Ani_Prop_ChargingStation_Sand_01": {
    "$type": "CJKJIENLOHD",
    "hasModel": true,
    "combat": {
      "property": {
        "hp": 99999.0,
        "weight": 50.0,
        "isLockHP": true,
        "isGhostToAllied": true,
        "isGhostToEnemy": true
      }
    },
    "combatTemplate": "",
    "abilities": [
      {
        "abilityID": "SceneObj_Area_Xm_Property_Ani_Prop_ChargingStation_Sand_01",
        "abilityName": "SceneObj_Area_Xm_Property_Ani_Prop_ChargingStation_Sand_01",
        "abilityOverride": ""
      },
      {
        "abilityID": "Scene_RockGadget_Summon_Detect",
        "abilityName": "Scene_RockGadget_Summon_Detect",
        "abilityOverride": ""
      }
    ],
    "field": {
      "concernType": "AllAvatars",
      "shape": "CircleR1.5",
      "fromShape": "",
      "triggerInfinite": true,
      "lifeInfinite": true,
      "checkInterval": 0.20000000298023224,
      "overwriteCampType": true,
      "campType": "All",
      "colliderName": "",
      "fromColliderName": ""
    }
  },
  "SceneObj_Area_Xm_Property_Ani_Prop_ChargingStation_Sand_02": {
    "$type": "CJKJIENLOHD",
    "specialPoint": {
      "elementAbsorb": "RootNode",
      "elementPendant": "",
      "elementDrop": "RootNode",
      "bulletAim": "AimPoint"
    },
    "hasModel": true,
    "combat": {
      "property": {
        "hp": 5000.0,
        "attack": 200.0,
        "weight": 50.0,
        "isGhostToAllied": true,
        "isGhostToEnemy": true
      },
      "beHit": {
        "hitBloodEffect": "",
        "hitAutoRedirect": false
      },
      "combatLock": {
        "lockShape": "CircleLockEnemy",
        "denyLockOn": true,
        "lockType": "Gadget_Lv1"
      }
    },
    "combatTemplate": "",
    "abilities": [
      {
        "abilityID": "SceneObj_Area_Xm_Property_Ani_Prop_ChargingStation_Sand_02",
        "abilityName": "SceneObj_Area_Xm_Property_Ani_Prop_ChargingStation_Sand_02",
        "abilityOverride": ""
      },
      {
        "abilityID": "Scene_RockGadget_Summon_Detect",
        "abilityName": "Scene_RockGadget_Summon_Detect",
        "abilityOverride": ""
      }
    ]
  },
  "SceneObj_Area_Xm_Property_Ani_Prop_ChargingStationHpBar_01": {
    "$type": "CJKJIENLOHD",
    "specialPoint": {
      "elementAbsorb": "RootNode",
      "elementPendant": "",
      "elementDrop": "RootNode",
      "bulletAim": "AimPoint"
    },
    "hasModel": true,
    "combat": {
      "property": {
        "hp": 50000.0,
        "attack": 200.0,
        "weight": 50.0
      },
      "beHit": {
        "hitBloodEffect": "",
        "hitAutoRedirect": false
      },
      "combatLock": {
        "lockShape": "CircleLockEnemy",
        "denyLockOn": true,
        "lockType": "Gadget_Lv1"
      }
    },
    "combatTemplate": "",
    "abilities": [
      {
        "abilityID": "SceneObj_Area_Xm_Property_Ani_Prop_ChargingStationHpBar_01",
        "abilityName": "SceneObj_Area_Xm_Property_Ani_Prop_ChargingStationHpBar_01",
        "abilityOverride": ""
      }
    ],
    "billboard": {
      "$type": "DNGNMAJBCNP",
      "attachPoint": "RootNode",
      "offset": {
        "y": 2.5
      },
      "radiusOffset": 3.0,
      "showDistance": 48.0,
      "showHPBar": true,
      "size": "Grand"
    }
  },
  "SceneObj_Area_Xm_Property_Ani_Prop_WormCannon_Sand_01": {
    "$type": "CJKJIENLOHD",
    "hasModel": true,
    "combat": {
      "property": {
        "hp": 99999.0,
        "weight": 50.0,
        "isLockHP": true,
        "isGhostToAllied": true,
        "isGhostToEnemy": true
      }
    },
    "combatTemplate": "",
    "abilities": [
      {
        "abilityID": "SceneObj_Area_Xm_Property_Ani_Prop_WormCannon_Sand_01",
        "abilityName": "SceneObj_Area_Xm_Property_Ani_Prop_WormCannon_Sand_01",
        "abilityOverride": ""
      },
      {
        "abilityID": "Scene_RockGadget_Summon_Detect",
        "abilityName": "Scene_RockGadget_Summon_Detect",
        "abilityOverride": ""
      }
    ],
    "field": {
      "concernType": "AllAvatars",
      "shape": "CircleR1.5",
      "fromShape": "",
      "triggerInfinite": true,
      "lifeInfinite": true,
      "checkInterval": 0.20000000298023224,
      "overwriteCampType": true,
      "campType": "All",
      "colliderName": "",
      "fromColliderName": ""
    }
  },
  "SceneObj_Area_Xm_Property_Ani_Prop_WormCannon_Sand_02": {
    "$type": "CJKJIENLOHD",
    "hasModel": true,
    "combat": {
      "property": {
        "hp": 99999.0,
        "weight": 50.0,
        "isLockHP": true,
        "isGhostToAllied": true,
        "isGhostToEnemy": true
      }
    },
    "combatTemplate": "",
    "abilities": [
      {
        "abilityID": "SceneObj_Area_Xm_Property_Ani_Prop_WormCannon_Sand_02",
        "abilityName": "SceneObj_Area_Xm_Property_Ani_Prop_WormCannon_Sand_02",
        "abilityOverride": ""
      },
      {
        "abilityID": "Scene_RockGadget_Summon_Detect",
        "abilityName": "Scene_RockGadget_Summon_Detect",
        "abilityOverride": ""
      }
    ],
    "field": {
      "concernType": "AllAvatars",
      "shape": "CircleR2.5",
      "fromShape": "",
      "triggerInfinite": true,
      "lifeInfinite": true,
      "checkInterval": 0.20000000298023224,
      "overwriteCampType": true,
      "campType": "All",
      "colliderName": "",
      "fromColliderName": ""
    },
    "partControl": {
      "parts": [
        {
          "$type": "INCPGKCDCIO",
          "angularSpeed": 3600.0,
          "partRootName": "LazerPoint_PartControl",
          "forwardByTransName": "",
          "limitHorizontal": 360.0,
          "limitVertical": 360.0
        }
      ]
    }
  },
  "SceneObj_Area_Xm_Property_Ani_Prop_WormBattleBuff_01": {
    "$type": "CJKJIENLOHD",
    "hasModel": true,
    "combat": {
      "property": {
        "hp": 99999.0,
        "attack": 35.0,
        "weight": 50.0,
        "isLockHP": true,
        "isGhostToAllied": true,
        "isGhostToEnemy": true,
        "canTriggerBullet": false
      },
      "beHit": {
        "hitBloodEffect": "",
        "hitAutoRedirect": false,
        "muteAllHitText": true
      },
      "combatLock": {
        "lockShape": "CircleLockEnemy",
        "denyLockOn": true,
        "lockType": "Gadget_Lv1"
      },
      "die": {
        "dieEndTime": 0.10000000149011612,
        "dieForceDisappearTime": 0.10000000149011612,
        "dieDisappearEffect": ""
      }
    },
    "combatTemplate": "",
    "abilities": [
      {
        "abilityID": "SceneObj_Area_Xm_Property_Ani_Prop_WormBattleBuff_01",
        "abilityName": "SceneObj_Area_Xm_Property_Ani_Prop_WormBattleBuff_01",
        "abilityOverride": ""
      }
    ],
    "field": {
      "concernType": "AllAvatars",
      "shape": "CircleR0_5",
      "fromShape": "",
      "triggerInfinite": true,
      "lifeInfinite": true,
      "checkInterval": 0.75,
      "overwriteCampType": true,
      "campType": "All",
      "colliderName": "",
      "fromColliderName": ""
    }
  },
  "SceneObj_Area_Xm_Property_Ani_Prop_ChargingBuff_01": {
    "$type": "CJKJIENLOHD",
    "hasModel": true,
    "combat": {
      "property": {
        "hp": 99999.0,
        "attack": 35.0,
        "weight": 50.0,
        "isLockHP": true,
        "canTriggerBullet": false
      },
      "beHit": {
        "hitBloodEffect": "",
        "hitAutoRedirect": false,
        "muteAllHitText": true
      },
      "combatLock": {
        "lockShape": "CircleLockEnemy",
        "lockType": "Gadget_Lv1"
      },
      "die": {
        "dieEndTime": 0.10000000149011612,
        "dieForceDisappearTime": 0.10000000149011612,
        "dieDisappearEffect": ""
      }
    },
    "combatTemplate": "",
    "abilities": [
      {
        "abilityID": "SceneObj_Area_Xm_Property_Ani_Prop_ChargingBuff_01",
        "abilityName": "SceneObj_Area_Xm_Property_Ani_Prop_ChargingBuff_01",
        "abilityOverride": ""
      }
    ],
    "field": {
      "concernType": "AllAvatars",
      "shape": "CircleR1",
      "fromShape": "",
      "triggerInfinite": true,
      "lifeInfinite": true,
      "checkInterval": 0.75,
      "overwriteCampType": true,
      "campType": "All",
      "colliderName": "",
      "fromColliderName": ""
    }
  },
  "SceneObj_Area_Xm_Property_Ani_Prop_WormSandPile_Sand_01": {
    "$type": "CJKJIENLOHD",
    "hasModel": true,
    "combat": {
      "property": {
        "hp": 400.0,
        "attack": 15.0,
        "weight": 50.0,
        "isInvincible": true,
        "isLockHP": true,
        "isGhostToAllied": true
      },
      "beHit": {
        "hitBloodEffect": "",
        "hitAutoRedirect": false,
        "muteAllHit": true,
        "muteAllHitEffect": true,
        "muteAllHitText": true
      },
      "combatLock": {
        "lockShape": "CircleLockEnemy",
        "denyLockOn": true,
        "lockType": "Gadget_Lv1"
      },
      "die": {
        "dieDisappearEffect": "Eff_Property_Stone_SandwormStone_02_Destroy"
      }
    },
    "combatTemplate": "",
    "abilities": [
      {
        "abilityID": "SceneObj_Area_Xm_Property_Ani_Prop_WormSandPile_Sand_01",
        "abilityName": "SceneObj_Area_Xm_Property_Ani_Prop_WormSandPile_Sand_01",
        "abilityOverride": ""
      }
    ]
  },
  "SceneObj_Area_Xm_Property_Ani_Prop_SandWormAirWall_Sand_01": {
    "$type": "CJKJIENLOHD",
    "hasModel": true,
    "combat": {
      "property": {
        "hp": 99999.0,
        "attack": 200.0,
        "weight": 50.0,
        "isInvincible": true,
        "isLockHP": true,
        "isGhostToAllied": true,
        "isGhostToEnemy": true
      },
      "beHit": {
        "hitBloodEffect": "",
        "hitAutoRedirect": false,
        "muteAllHitText": true
      },
      "combatLock": {
        "lockShape": "CircleLockEnemy",
        "denyLockOn": true,
        "lockType": "Gadget_Lv1"
      }
    },
    "combatTemplate": "",
    "abilities": [
      {
        "abilityID": "SceneObj_Area_Xm_Property_Ani_Prop_SandWormAirWall_Sand_01",
        "abilityName": "SceneObj_Area_Xm_Property_Ani_Prop_SandWormAirWall_Sand_01",
        "abilityOverride": ""
      }
    ]
  },
  "SceneObj_Area_Xm_Property_Ani_Prop_AbilitySandWorm_Sand_01": {
    "$type": "CJKJIENLOHD",
    "common": {
      "disableTickDistance": 1000000.0
    },
    "KJGJCNANPJP": true,
    "hasModel": true,
    "combat": {
      "property": {
        "hp": 99999.0,
        "attack": 35.0,
        "weight": 50.0,
        "isLockHP": true,
        "canTriggerBullet": false
      },
      "beHit": {
        "hitBloodEffect": "",
        "hitAutoRedirect": false,
        "muteAllHitText": true
      },
      "combatLock": {
        "lockShape": "CircleLockEnemy",
        "lockType": "Gadget_Lv1"
      },
      "die": {
        "dieEndTime": 0.10000000149011612,
        "dieForceDisappearTime": 0.10000000149011612,
        "dieDisappearEffect": ""
      }
    },
    "combatTemplate": "",
    "abilities": [
      {
        "abilityID": "",
        "abilityName": "SceneObj_Area_Xm_Property_Ani_Prop_AbilitySandWorm_Sand_01_Steer",
        "abilityOverride": ""
      },
      {
        "abilityID": "",
        "abilityName": "SceneObj_Area_Xm_Property_Ani_Prop_AbilitySandWorm_Sand_01",
        "abilityOverride": ""
      },
      {
        "abilityID": "",
        "abilityName": "SceneObj_Area_Xm_Property_Ani_Prop_SandWorm_SetEndState",
        "abilityOverride": ""
      },
      {
        "abilityID": "",
        "abilityName": "Monster_Sandworm_ShaderLight_Stage01On",
        "abilityOverride": ""
      },
      {
        "abilityID": "",
        "abilityName": "Monster_Sandworm_ShaderLight_Off",
        "abilityOverride": ""
      },
      {
        "abilityID": "",
        "abilityName": "Monster_Sandworm_Stage01_TailCenterEffect_On",
        "abilityOverride": ""
      },
      {
        "abilityID": "",
        "abilityName": "Monster_Sandworm_EffectMeshSandPlane_Show",
        "abilityOverride": ""
      },
      {
        "abilityID": "",
        "abilityName": "Monster_Sandworm_EffectMeshSandPlane_Hide",
        "abilityOverride": ""
      },
      {
        "abilityID": "",
        "abilityName": "SceneObj_Area_Xm_Property_Ani_Prop_AbilitySandWorm_Sand_01_TailGroundCover_Start",
        "abilityOverride": ""
      },
      {
        "abilityID": "",
        "abilityName": "SceneObj_Area_Xm_Property_Ani_Prop_AbilitySandWorm_Sand_01_TailGroundCover_End",
        "abilityOverride": ""
      },
      {
        "abilityID": "",
        "abilityName": "SceneObj_Area_Xm_Property_Ani_Prop_AbilitySandWorm_Sand_01_ShootAttack",
        "abilityOverride": ""
      },
      {
        "abilityID": "",
        "abilityName": "SceneObj_Area_Xm_Property_Ani_Prop_AbilitySandWorm_PartControl_Start",
        "abilityOverride": ""
      },
      {
        "abilityID": "",
        "abilityName": "SceneObj_Area_Xm_Property_Ani_Prop_AbilitySandWorm_PartControl_End",
        "abilityOverride": ""
      },
      {
        "abilityID": "",
        "abilityName": "SceneObj_Area_Xm_Property_Ani_Prop_AbilitySandWorm_DoEarthQuake",
        "abilityOverride": ""
      }
    ],
    "field": {
      "concernType": "AllAvatars",
      "shape": "CircleR1",
      "fromShape": "",
      "triggerInfinite": true,
      "lifeInfinite": true,
      "checkInterval": 0.75,
      "overwriteCampType": true,
      "campType": "All",
      "colliderName": "",
      "fromColliderName": ""
    },
    "stateLayers": {
      "defaultLayer": {
        "$type": "GBGJJIIEMBD",
        "layerIndexName": "",
        "CPAANEIJCGD": "",
        "stateIDs": {
          "Skill": {
            "$type": "BEIEGKBABOF",
            "animatorStates": {
              "Skill01": [
                "Prop_AbilitySandWorm_Skill01",
                "Prop_AbilitySandworm_DoEarthQuake",
                "Audio_Monster_Sandworm_Activity_DiveOut"
              ],
              "Skill02": [
                "Prop_AbilitySandWorm_Skill02",
                "Prop_AbilitySandWorm_01_ShootAttack",
                "Audio_Monster_Sandworm_Activity_ShootAttack"
              ],
              "Skill03": [
                "Prop_AbilitySandWorm_Skill02",
                "Prop_AbilitySandWorm_01_ShootAttack",
                "Audio_Monster_Sandworm_Activity_ShootAttack"
              ],
              "Skill04": [
                "Prop_AbilitySandWorm_Skill02",
                "Prop_AbilitySandWorm_01_ShootAttack",
                "Audio_Monster_Sandworm_Activity_ShootAttack"
              ]
            },
            "cullingModelAlwaysAnimate": true
          },
          "Idle": {
            "$type": "BEIEGKBABOF",
            "animatorStates": {
              "Idle01": [
                "Prop_AbilitySandWorm_Idle"
              ],
              "Idle02": [
                "Prop_AbilitySandWorm_Idle"
              ]
            },
            "cullingModelAlwaysAnimate": true
          },
          "End": {
            "$type": "BEIEGKBABOF",
            "animatorStates": {
              "End": [
                "Prop_SandWorm_CommonEnd",
                "Prop_AbilitySandWorm_End",
                "Audio_Monster_Sandworm_Activity_DiveIn"
              ]
            },
            "cullingModelAlwaysAnimate": true
          }
        }
      }
    },
    "aibeta": {
      "enable": true,
      "moveSetting": {
        "enable": false,
        "navMeshAgentName": "Undead01"
      },
      "sensing": {
        "settings": {
          "DefaultSetting": {
            "viewRange": 200.0,
            "horizontalFov": 360.0,
            "verticalFov": 360.0,
            "feelRange": 200.0
          }
        }
      },
      "threat": {
        "GHIJMOKOLMB": "",
        "clearThreatTargetDistance": 999.0,
        "clearThreatEdgeDistance": 999.0,
        "clearThreatByTargetOutOfZone": true,
        "clearThreatTimerByTargetOutOfZone": 999.0,
        "resistTauntLevel": "Monster_TauntLevel_5"
      },
      "defendArea": {
        "defendRange": 300.0
      }
    },
    "partControl": {
      "parts": [
        {
          "$type": "INCPGKCDCIO",
          "angularSpeed": 240.0,
          "partRootName": "PartControl",
          "forwardByTransName": "",
          "limitHorizontal": 360.0,
          "limitVertical": 0.0
        }
      ]
    },
    "billboard": {
      "$type": "DNGNMAJBCNP",
      "attachPoint": "RootNode",
      "offset": {
        "y": 2.0
      },
      "radiusOffset": 3.0,
      "enableSelfAdapt": true,
      "showDistance": 300.0,
      "showHPBar": true,
      "size": "Grand"
    }
  },
  "SceneObj_Area_Xm_Property_Ani_Prop_MoveSandWorm_Sand_01": {
    "$type": "CJKJIENLOHD",
    "hasModel": true,
    "combat": {
      "property": {
        "hp": 99999.0,
        "attack": 35.0,
        "weight": 50.0,
        "isLockHP": true,
        "canTriggerBullet": false
      },
      "beHit": {
        "hitBloodEffect": "",
        "hitAutoRedirect": false,
        "muteAllHitText": true
      },
      "combatLock": {
        "lockShape": "CircleLockEnemy",
        "lockType": "Gadget_Lv1"
      },
      "die": {
        "dieEndTime": 0.10000000149011612,
        "dieForceDisappearTime": 0.10000000149011612,
        "dieDisappearEffect": ""
      }
    },
    "combatTemplate": "",
    "abilities": [
      {
        "abilityID": "",
        "abilityName": "SceneObj_Area_Xm_Property_Ani_Prop_MoveSandWorm_Sand_01",
        "abilityOverride": ""
      },
      {
        "abilityID": "",
        "abilityName": "SceneObj_Area_Xm_Property_Ani_Prop_SandWorm_SetEndState",
        "abilityOverride": ""
      },
      {
        "abilityID": "",
        "abilityName": "Monster_Sandworm_ShaderLight_Off",
        "abilityOverride": ""
      }
    ],
    "field": {
      "concernType": "AllAvatars",
      "shape": "CircleR1",
      "fromShape": "",
      "triggerInfinite": true,
      "lifeInfinite": true,
      "checkInterval": 0.75,
      "overwriteCampType": true,
      "campType": "All",
      "colliderName": "",
      "fromColliderName": ""
    },
    "stateLayers": {
      "defaultLayer": {
        "$type": "GBGJJIIEMBD",
        "layerIndexName": "",
        "CPAANEIJCGD": "",
        "stateIDs": {
          "Skill": {
            "$type": "BEIEGKBABOF",
            "animatorStates": {
              "Skill01": [
                "Prop_SandWorm_CommonEnd",
                "Prop_MoveSandWorm_StandbyMove"
              ]
            },
            "cullingModelAlwaysAnimate": true
          },
          "End": {
            "$type": "BEIEGKBABOF",
            "animatorStates": {
              "End": []
            },
            "cullingModelAlwaysAnimate": true
          }
        }
      }
    }
  },
  "SceneObj_Area_Xm_Property_Ani_Prop_DieSandWorm_Sand_01": {
    "$type": "CJKJIENLOHD",
    "common": {
      "disableTickDistance": 1000000.0
    },
    "KJGJCNANPJP": true,
    "hasModel": true,
    "combat": {
      "property": {
        "hp": 801.0,
        "attack": 35.0,
        "weight": 50.0,
        "isInvincible": true,
        "canTriggerBullet": false
      },
      "beHit": {
        "hitBloodEffect": "",
        "hitAutoRedirect": false,
        "muteAllHitText": true
      },
      "combatLock": {
        "lockShape": "CircleLockEnemy",
        "lockType": "Gadget_Lv1"
      },
      "die": {
        "dieEndTime": 0.10000000149011612,
        "dieForceDisappearTime": 0.10000000149011612,
        "dieDisappearEffect": ""
      }
    },
    "combatTemplate": "",
    "abilities": [
      {
        "abilityID": "",
        "abilityName": "SceneObj_Area_Xm_Property_Ani_Prop_AbilitySandWorm_Sand_01_Steer",
        "abilityOverride": ""
      },
      {
        "abilityID": "",
        "abilityName": "SceneObj_Area_Xm_Property_Ani_Prop_DieSandWorm_Sand_01",
        "abilityOverride": ""
      },
      {
        "abilityID": "",
        "abilityName": "SceneObj_Area_Xm_Property_Ani_Prop_SandWorm_SetEndState",
        "abilityOverride": ""
      },
      {
        "abilityID": "",
        "abilityName": "Monster_Sandworm_ShaderLight_Stage01On",
        "abilityOverride": ""
      },
      {
        "abilityID": "",
        "abilityName": "Monster_Sandworm_ShaderLight_Off",
        "abilityOverride": ""
      },
      {
        "abilityID": "",
        "abilityName": "Monster_Sandworm_Stage01_TailCenterEffect_On",
        "abilityOverride": ""
      },
      {
        "abilityID": "",
        "abilityName": "Monster_Sandworm_Stage01_TailCenterEffect_Off",
        "abilityOverride": ""
      },
      {
        "abilityID": "",
        "abilityName": "Monster_Sandworm_EffectMeshSandPlane_Show",
        "abilityOverride": ""
      },
      {
        "abilityID": "",
        "abilityName": "Monster_Sandworm_EffectMeshSandPlane_Hide",
        "abilityOverride": ""
      },
      {
        "abilityID": "",
        "abilityName": "SceneObj_Area_Xm_Property_Ani_Prop_AbilitySandWorm_Sand_01_TailGroundCover_Start",
        "abilityOverride": ""
      },
      {
        "abilityID": "",
        "abilityName": "SceneObj_Area_Xm_Property_Ani_Prop_AbilitySandWorm_Sand_01_TailGroundCover_End",
        "abilityOverride": ""
      },
      {
        "abilityID": "",
        "abilityName": "SceneObj_Area_Xm_Property_Ani_Prop_AbilitySandWorm_Sand_01_ShootAttack",
        "abilityOverride": ""
      },
      {
        "abilityID": "",
        "abilityName": "SceneObj_Area_Xm_Property_Ani_Prop_AbilitySandWorm_Sand_02_ShootAttack",
        "abilityOverride": ""
      },
      {
        "abilityID": "",
        "abilityName": "SceneObj_Area_Xm_Property_Ani_Prop_DieSandworm_03_ShootAttack",
        "abilityOverride": ""
      },
      {
        "abilityID": "",
        "abilityName": "SceneObj_Area_Xm_Property_Ani_Prop_AbilitySandWorm_PartControl_Start",
        "abilityOverride": ""
      },
      {
        "abilityID": "",
        "abilityName": "SceneObj_Area_Xm_Property_Ani_Prop_AbilitySandWorm_PartControl_End",
        "abilityOverride": ""
      },
      {
        "abilityID": "",
        "abilityName": "SceneObj_Area_Xm_Property_Ani_Prop_AbilitySandWorm_Sand_ClearBullet",
        "abilityOverride": ""
      }
    ],
    "field": {
      "concernType": "AllAvatars",
      "shape": "CircleR1",
      "fromShape": "",
      "triggerInfinite": true,
      "lifeInfinite": true,
      "checkInterval": 0.75,
      "overwriteCampType": true,
      "campType": "All",
      "colliderName": "",
      "fromColliderName": ""
    },
    "stateLayers": {
      "defaultLayer": {
        "$type": "GBGJJIIEMBD",
        "layerIndexName": "",
        "CPAANEIJCGD": "",
        "stateIDs": {
          "Wait": {
            "$type": "BEIEGKBABOF",
            "animatorStates": {
              "Wait": [
                "Prop_DieSandworm_Wait"
              ]
            },
            "cullingModelAlwaysAnimate": true
          },
          "Skill01": {
            "$type": "BEIEGKBABOF",
            "animatorStates": {
              "Skill01": [
                "Prop_AbilitySandWorm_Skill01",
                "Audio_Monster_Sandworm_Activity_DiveOut"
              ],
              "Skill01_02": [
                "Prop_AbilitySandWorm_Skill02",
                "Prop_AbilitySandWorm_01_ShootAttack",
                "Audio_Monster_Sandworm_Activity_ShootAttack"
              ],
              "Skill01_03": [
                "Prop_AbilitySandWorm_Skill02",
                "Prop_AbilitySandWorm_01_ShootAttack",
                "Audio_Monster_Sandworm_Activity_ShootAttack"
              ]
            },
            "cullingModelAlwaysAnimate": true
          },
          "Skill02": {
            "$type": "BEIEGKBABOF",
            "animatorStates": {
              "Skill02": [
                "Prop_AbilitySandWorm_Skill01",
                "Audio_Monster_Sandworm_Activity_DiveOut"
              ],
              "Skill02_02": [
                "Prop_AbilitySandWorm_Skill02",
                "Prop_AbilitySandWorm_02_ShootAttack",
                "Audio_Monster_Sandworm_Activity_ShootAttack"
              ],
              "Skill02_03": [
                "Prop_AbilitySandWorm_Skill02",
                "Prop_AbilitySandWorm_02_ShootAttack",
                "Audio_Monster_Sandworm_Activity_ShootAttack"
              ]
            },
            "cullingModelAlwaysAnimate": true
          },
          "Skill03": {
            "$type": "BEIEGKBABOF",
            "animatorStates": {
              "Skill03": [
                "Prop_AbilitySandWorm_Skill01",
                "Audio_Monster_Sandworm_Activity_DiveOut"
              ],
              "Skill03_02": [
                "Prop_AbilitySandWorm_Skill02",
                "Prop_DieSandWorm_03_ShootAttack",
                "Audio_Monster_Sandworm_Activity_ShootAttack"
              ],
              "Skill03_03": [
                "Prop_AbilitySandWorm_Skill02",
                "Prop_DieSandWorm_03_ShootAttack",
                "Audio_Monster_Sandworm_Activity_ShootAttack"
              ]
            },
            "cullingModelAlwaysAnimate": true
          },
          "Idle": {
            "$type": "BEIEGKBABOF",
            "animatorStates": {
              "Skill01_Idle01": [
                "Prop_AbilitySandWorm_Idle"
              ],
              "Skill01_Idle02": [
                "Prop_AbilitySandWorm_Idle"
              ],
              "Skill02_Idle01": [
                "Prop_AbilitySandWorm_Idle"
              ],
              "Skill02_Idle02": [
                "Prop_AbilitySandWorm_Idle"
              ],
              "Skill03_Idle01": [
                "Prop_AbilitySandWorm_Idle"
              ],
              "Skill03_Idle02": [
                "Prop_AbilitySandWorm_Idle"
              ]
            },
            "cullingModelAlwaysAnimate": true
          },
          "End": {
            "$type": "BEIEGKBABOF",
            "animatorStates": {
              "End01": [
                "Prop_DieSandworm_End01",
                "Prop_SandWorm_CommonEnd",
                "Audio_Monster_Sandworm_Activity_Die_TailUp"
              ],
              "End02": [
                "Prop_DieSandworm_End01",
                "Prop_SandWorm_CommonEnd",
                "Audio_Monster_Sandworm_Activity_Die_TailUp"
              ],
              "End03": [
                "Prop_DieSandworm_End01",
                "Prop_SandWorm_CommonEnd",
                "Audio_Monster_Sandworm_Activity_Die_TailUp"
              ]
            },
            "cullingModelAlwaysAnimate": true
          }
        }
      }
    },
    "partControl": {
      "parts": [
        {
          "$type": "INCPGKCDCIO",
          "angularSpeed": 240.0,
          "partRootName": "PartControl",
          "forwardByTransName": "",
          "limitHorizontal": 360.0,
          "limitVertical": 0.0
        }
      ]
    },
    "billboard": {
      "$type": "DNGNMAJBCNP",
      "attachPoint": "RootNode",
      "offset": {
        "y": 2.0
      },
      "radiusOffset": 3.0,
      "enableSelfAdapt": true,
      "showDistance": 300.0,
      "showHPBar": true,
      "size": "Grand"
    }
  },
  "SceneObj_Area_Xm_Property_Ani_Prop_SmashSandWorm_Sand_01": {
    "$type": "CJKJIENLOHD",
    "hasModel": true,
    "combat": {
      "property": {
        "hp": 99999.0,
        "attack": 35.0,
        "weight": 50.0,
        "isLockHP": true,
        "canTriggerBullet": false
      },
      "beHit": {
        "hitBloodEffect": "",
        "hitAutoRedirect": false,
        "muteAllHitText": true
      },
      "combatLock": {
        "lockShape": "CircleLockEnemy",
        "lockType": "Gadget_Lv1"
      },
      "die": {
        "dieEndTime": 0.10000000149011612,
        "dieForceDisappearTime": 0.10000000149011612,
        "dieDisappearEffect": ""
      }
    },
    "combatTemplate": "",
    "abilities": [
      {
        "abilityID": "",
        "abilityName": "SceneObj_Area_Xm_Property_Ani_Prop_SmashSandWorm_Sand_01",
        "abilityOverride": ""
      },
      {
        "abilityID": "",
        "abilityName": "SceneObj_Area_Xm_Property_Ani_Prop_SandWorm_SetEndState",
        "abilityOverride": ""
      },
      {
        "abilityID": "",
        "abilityName": "SceneObj_Area_Xm_Property_Ani_Prop_SmashSandWorm_SetKilledEndState",
        "abilityOverride": ""
      },
      {
        "abilityID": "",
        "abilityName": "Monster_Sandworm_ShaderLight_Stage01On",
        "abilityOverride": ""
      },
      {
        "abilityID": "",
        "abilityName": "Monster_Sandworm_ShaderLight_Off",
        "abilityOverride": ""
      },
      {
        "abilityID": "",
        "abilityName": "Monster_Sandworm_Stage01_TailCenterEffect_On",
        "abilityOverride": ""
      },
      {
        "abilityID": "",
        "abilityName": "Monster_Sandworm_Stage01_TailCenterEffect_Off",
        "abilityOverride": ""
      },
      {
        "abilityID": "",
        "abilityName": "Monster_Sandworm_EffectMeshSandPlane_Show",
        "abilityOverride": ""
      },
      {
        "abilityID": "",
        "abilityName": "Monster_Sandworm_EffectMeshSandPlane_Hide",
        "abilityOverride": ""
      },
      {
        "abilityID": "",
        "abilityName": "SceneObj_Area_Xm_Property_Ani_Prop_AbilitySandWorm_Sand_01_TailGroundCover_Start",
        "abilityOverride": ""
      },
      {
        "abilityID": "",
        "abilityName": "SceneObj_Area_Xm_Property_Ani_Prop_AbilitySandWorm_Sand_01_TailGroundCover_End",
        "abilityOverride": ""
      }
    ],
    "field": {
      "concernType": "AllAvatars",
      "shape": "CircleR1",
      "fromShape": "",
      "triggerInfinite": true,
      "lifeInfinite": true,
      "checkInterval": 0.75,
      "overwriteCampType": true,
      "campType": "All",
      "colliderName": "",
      "fromColliderName": ""
    },
    "stateLayers": {
      "defaultLayer": {
        "$type": "GBGJJIIEMBD",
        "layerIndexName": "",
        "CPAANEIJCGD": "",
        "stateIDs": {
          "Skill": {
            "$type": "BEIEGKBABOF",
            "animatorStates": {
              "Skill01": [
                "Prop_SmashSandWorm_Skill01",
                "Audio_Monster_Sandworm_Alert"
              ],
              "Skill02": []
            },
            "cullingModelAlwaysAnimate": true
          },
          "End": {
            "$type": "BEIEGKBABOF",
            "animatorStates": {
              "End_Default": [
                "Prop_SmashSandWorm_End",
                "Audio_Monster_Sandworm_ReturnToBorn"
              ],
              "End_Default_Underground": [
                "Prop_SmashSandWorm_KilledEnd"
              ],
              "End_Killed": [
                "Prop_SmashSandWorm_End",
                "Audio_Monster_Sandworm_ReturnToBorn"
              ],
              "End_Killed_Underground": [
                "Prop_SandWorm_CommonEnd"
              ]
            },
            "cullingModelAlwaysAnimate": true
          }
        }
      }
    }
  },
  "SceneObj_Area_Xm_Property_Ani_Prop_AbilitySandWorm_Sand_02": {
    "$type": "CJKJIENLOHD",
    "common": {
      "disableTickDistance": 1000000.0
    },
    "KJGJCNANPJP": true,
    "hasModel": true,
    "combat": {
      "property": {
        "hp": 99999.0,
        "attack": 35.0,
        "weight": 50.0,
        "isLockHP": true,
        "canTriggerBullet": false
      },
      "beHit": {
        "hitBloodEffect": "",
        "hitAutoRedirect": false,
        "muteAllHitText": true
      },
      "combatLock": {
        "lockShape": "CircleLockEnemy",
        "lockType": "Gadget_Lv1"
      },
      "die": {
        "dieEndTime": 0.10000000149011612,
        "dieForceDisappearTime": 0.10000000149011612,
        "dieDisappearEffect": ""
      }
    },
    "combatTemplate": "",
    "abilities": [
      {
        "abilityID": "",
        "abilityName": "SceneObj_Area_Xm_Property_Ani_Prop_AbilitySandWorm_Sand_01_Steer",
        "abilityOverride": ""
      },
      {
        "abilityID": "",
        "abilityName": "SceneObj_Area_Xm_Property_Ani_Prop_AbilitySandWorm_Sand_02",
        "abilityOverride": ""
      },
      {
        "abilityID": "",
        "abilityName": "SceneObj_Area_Xm_Property_Ani_Prop_SandWorm_SetEndState",
        "abilityOverride": ""
      },
      {
        "abilityID": "",
        "abilityName": "Monster_Sandworm_ShaderLight_Stage01On",
        "abilityOverride": ""
      },
      {
        "abilityID": "",
        "abilityName": "Monster_Sandworm_ShaderLight_Off",
        "abilityOverride": ""
      },
      {
        "abilityID": "",
        "abilityName": "Monster_Sandworm_Stage01_TailCenterEffect_On",
        "abilityOverride": ""
      },
      {
        "abilityID": "",
        "abilityName": "Monster_Sandworm_EffectMeshSandPlane_Show",
        "abilityOverride": ""
      },
      {
        "abilityID": "",
        "abilityName": "Monster_Sandworm_EffectMeshSandPlane_Hide",
        "abilityOverride": ""
      },
      {
        "abilityID": "",
        "abilityName": "SceneObj_Area_Xm_Property_Ani_Prop_AbilitySandWorm_Sand_01_TailGroundCover_Start",
        "abilityOverride": ""
      },
      {
        "abilityID": "",
        "abilityName": "SceneObj_Area_Xm_Property_Ani_Prop_AbilitySandWorm_Sand_01_TailGroundCover_End",
        "abilityOverride": ""
      },
      {
        "abilityID": "",
        "abilityName": "SceneObj_Area_Xm_Property_Ani_Prop_AbilitySandWorm_Sand_02_ShootAttack",
        "abilityOverride": ""
      },
      {
        "abilityID": "",
        "abilityName": "SceneObj_Area_Xm_Property_Ani_Prop_AbilitySandWorm_PartControl_Start",
        "abilityOverride": ""
      },
      {
        "abilityID": "",
        "abilityName": "SceneObj_Area_Xm_Property_Ani_Prop_AbilitySandWorm_PartControl_End",
        "abilityOverride": ""
      },
      {
        "abilityID": "",
        "abilityName": "SceneObj_Area_Xm_Property_Ani_Prop_AbilitySandWorm_DoEarthQuake",
        "abilityOverride": ""
      }
    ],
    "field": {
      "concernType": "AllAvatars",
      "shape": "CircleR1",
      "fromShape": "",
      "triggerInfinite": true,
      "lifeInfinite": true,
      "checkInterval": 0.75,
      "overwriteCampType": true,
      "campType": "All",
      "colliderName": "",
      "fromColliderName": ""
    },
    "stateLayers": {
      "defaultLayer": {
        "$type": "GBGJJIIEMBD",
        "layerIndexName": "",
        "CPAANEIJCGD": "",
        "stateIDs": {
          "Skill": {
            "$type": "BEIEGKBABOF",
            "animatorStates": {
              "Skill01": [
                "Prop_AbilitySandWorm_Skill01",
                "Prop_AbilitySandworm_DoEarthQuake",
                "Audio_Monster_Sandworm_Activity_DiveOut"
              ],
              "Skill02": [
                "Prop_AbilitySandWorm_Skill02",
                "Prop_AbilitySandWorm_02_ShootAttack",
                "Audio_Monster_Sandworm_Activity_ShootAttack"
              ],
              "Skill03": [
                "Prop_AbilitySandWorm_Skill02",
                "Prop_AbilitySandWorm_02_ShootAttack",
                "Audio_Monster_Sandworm_Activity_ShootAttack"
              ],
              "Skill04": [
                "Prop_AbilitySandWorm_Skill02",
                "Prop_AbilitySandWorm_02_ShootAttack",
                "Audio_Monster_Sandworm_Activity_ShootAttack"
              ]
            },
            "cullingModelAlwaysAnimate": true
          },
          "Idle": {
            "$type": "BEIEGKBABOF",
            "animatorStates": {
              "Idle01": [
                "Prop_AbilitySandWorm_Idle"
              ],
              "Idle02": [
                "Prop_AbilitySandWorm_Idle"
              ]
            },
            "cullingModelAlwaysAnimate": true
          },
          "End": {
            "$type": "BEIEGKBABOF",
            "animatorStates": {
              "End": [
                "Prop_SandWorm_CommonEnd",
                "Prop_AbilitySandWorm_End",
                "Audio_Monster_Sandworm_Activity_DiveIn"
              ]
            },
            "cullingModelAlwaysAnimate": true
          }
        }
      }
    },
    "aibeta": {
      "enable": true,
      "moveSetting": {
        "enable": false,
        "navMeshAgentName": "Undead01"
      },
      "sensing": {
        "settings": {
          "DefaultSetting": {
            "viewRange": 200.0,
            "horizontalFov": 360.0,
            "verticalFov": 360.0,
            "feelRange": 200.0
          }
        }
      },
      "threat": {
        "GHIJMOKOLMB": "",
        "clearThreatTargetDistance": 999.0,
        "clearThreatEdgeDistance": 999.0,
        "clearThreatByTargetOutOfZone": true,
        "clearThreatTimerByTargetOutOfZone": 999.0,
        "resistTauntLevel": "Monster_TauntLevel_5"
      },
      "defendArea": {
        "defendRange": 300.0
      }
    },
    "partControl": {
      "parts": [
        {
          "$type": "INCPGKCDCIO",
          "angularSpeed": 240.0,
          "partRootName": "PartControl",
          "forwardByTransName": "",
          "limitHorizontal": 360.0,
          "limitVertical": 0.0
        }
      ]
    },
    "billboard": {
      "$type": "DNGNMAJBCNP",
      "attachPoint": "RootNode",
      "offset": {
        "y": 2.0
      },
      "radiusOffset": 3.0,
      "enableSelfAdapt": true,
      "showDistance": 300.0,
      "showHPBar": true,
      "size": "Grand"
    }
  },
  "SceneObj_Area_Xm_Property_Ani_Prop_AbilitySandWorm_Sand_03": {
    "$type": "CJKJIENLOHD",
    "common": {
      "disableTickDistance": 1000000.0
    },
    "KJGJCNANPJP": true,
    "hasModel": true,
    "combat": {
      "property": {
        "hp": 99999.0,
        "attack": 35.0,
        "weight": 50.0,
        "isLockHP": true,
        "canTriggerBullet": false
      },
      "beHit": {
        "hitBloodEffect": "",
        "hitAutoRedirect": false,
        "muteAllHitText": true
      },
      "combatLock": {
        "lockShape": "CircleLockEnemy",
        "lockType": "Gadget_Lv1"
      },
      "die": {
        "dieEndTime": 0.10000000149011612,
        "dieForceDisappearTime": 0.10000000149011612,
        "dieDisappearEffect": ""
      }
    },
    "combatTemplate": "",
    "abilities": [
      {
        "abilityID": "",
        "abilityName": "SceneObj_Area_Xm_Property_Ani_Prop_AbilitySandWorm_Sand_01_Steer",
        "abilityOverride": ""
      },
      {
        "abilityID": "",
        "abilityName": "SceneObj_Area_Xm_Property_Ani_Prop_AbilitySandWorm_Sand_03",
        "abilityOverride": ""
      },
      {
        "abilityID": "",
        "abilityName": "SceneObj_Area_Xm_Property_Ani_Prop_SandWorm_SetEndState",
        "abilityOverride": ""
      },
      {
        "abilityID": "",
        "abilityName": "Monster_Sandworm_ShaderLight_Stage01On",
        "abilityOverride": ""
      },
      {
        "abilityID": "",
        "abilityName": "Monster_Sandworm_ShaderLight_Off",
        "abilityOverride": ""
      },
      {
        "abilityID": "",
        "abilityName": "Monster_Sandworm_Stage01_TailCenterEffect_On",
        "abilityOverride": ""
      },
      {
        "abilityID": "",
        "abilityName": "Monster_Sandworm_EffectMeshSandPlane_Show",
        "abilityOverride": ""
      },
      {
        "abilityID": "",
        "abilityName": "Monster_Sandworm_EffectMeshSandPlane_Hide",
        "abilityOverride": ""
      },
      {
        "abilityID": "",
        "abilityName": "SceneObj_Area_Xm_Property_Ani_Prop_AbilitySandWorm_Sand_01_TailGroundCover_Start",
        "abilityOverride": ""
      },
      {
        "abilityID": "",
        "abilityName": "SceneObj_Area_Xm_Property_Ani_Prop_AbilitySandWorm_Sand_01_TailGroundCover_End",
        "abilityOverride": ""
      },
      {
        "abilityID": "",
        "abilityName": "SceneObj_Area_Xm_Property_Ani_Prop_AbilitySandWorm_Sand_03_ShootAttack",
        "abilityOverride": ""
      },
      {
        "abilityID": "",
        "abilityName": "SceneObj_Area_Xm_Property_Ani_Prop_AbilitySandWorm_PartControl_Start",
        "abilityOverride": ""
      },
      {
        "abilityID": "",
        "abilityName": "SceneObj_Area_Xm_Property_Ani_Prop_AbilitySandWorm_PartControl_End",
        "abilityOverride": ""
      },
      {
        "abilityID": "",
        "abilityName": "SceneObj_Area_Xm_Property_Ani_Prop_AbilitySandWorm_DoEarthQuake",
        "abilityOverride": ""
      }
    ],
    "field": {
      "concernType": "AllAvatars",
      "shape": "CircleR1",
      "fromShape": "",
      "triggerInfinite": true,
      "lifeInfinite": true,
      "checkInterval": 0.75,
      "overwriteCampType": true,
      "campType": "All",
      "colliderName": "",
      "fromColliderName": ""
    },
    "stateLayers": {
      "defaultLayer": {
        "$type": "GBGJJIIEMBD",
        "layerIndexName": "",
        "CPAANEIJCGD": "",
        "stateIDs": {
          "Skill": {
            "$type": "BEIEGKBABOF",
            "animatorStates": {
              "Skill01": [
                "Prop_AbilitySandWorm_Skill01",
                "Prop_AbilitySandworm_DoEarthQuake",
                "Audio_Monster_Sandworm_Activity_DiveOut"
              ],
              "Skill02": [
                "Prop_AbilitySandWorm_Skill02",
                "Prop_AbilitySandWorm_03_ShootAttack",
                "Audio_Monster_Sandworm_Activity_ShootAttack"
              ],
              "Skill03": [
                "Prop_AbilitySandWorm_Skill02",
                "Prop_AbilitySandWorm_03_ShootAttack",
                "Audio_Monster_Sandworm_Activity_ShootAttack"
              ],
              "Skill04": [
                "Prop_AbilitySandWorm_Skill02",
                "Prop_AbilitySandWorm_03_ShootAttack",
                "Audio_Monster_Sandworm_Activity_ShootAttack"
              ]
            },
            "cullingModelAlwaysAnimate": true
          },
          "Idle": {
            "$type": "BEIEGKBABOF",
            "animatorStates": {
              "Idle01": [
                "Prop_AbilitySandWorm_Idle"
              ],
              "Idle02": [
                "Prop_AbilitySandWorm_Idle"
              ]
            },
            "cullingModelAlwaysAnimate": true
          },
          "End": {
            "$type": "BEIEGKBABOF",
            "animatorStates": {
              "End": [
                "Prop_SandWorm_CommonEnd",
                "Prop_AbilitySandWorm_End",
                "Audio_Monster_Sandworm_Activity_DiveIn"
              ]
            },
            "cullingModelAlwaysAnimate": true
          }
        }
      }
    },
    "aibeta": {
      "enable": true,
      "moveSetting": {
        "enable": false,
        "navMeshAgentName": "Undead01"
      },
      "sensing": {
        "settings": {
          "DefaultSetting": {
            "viewRange": 200.0,
            "horizontalFov": 360.0,
            "verticalFov": 360.0,
            "feelRange": 200.0
          }
        }
      },
      "threat": {
        "GHIJMOKOLMB": "",
        "clearThreatTargetDistance": 999.0,
        "clearThreatEdgeDistance": 999.0,
        "clearThreatByTargetOutOfZone": true,
        "clearThreatTimerByTargetOutOfZone": 999.0,
        "resistTauntLevel": "Monster_TauntLevel_5"
      },
      "defendArea": {
        "defendRange": 300.0
      }
    },
    "partControl": {
      "parts": [
        {
          "$type": "INCPGKCDCIO",
          "angularSpeed": 240.0,
          "partRootName": "PartControl",
          "forwardByTransName": "",
          "limitHorizontal": 360.0,
          "limitVertical": 0.0
        }
      ]
    },
    "billboard": {
      "$type": "DNGNMAJBCNP",
      "attachPoint": "RootNode",
      "offset": {
        "y": 2.0
      },
      "radiusOffset": 3.0,
      "enableSelfAdapt": true,
      "showDistance": 300.0,
      "showHPBar": true,
      "size": "Grand"
    }
  },
  "SceneObj_Area_Xm_Property_Ani_Prop_DieSandWorm_Sand_01_PartcontrolTarget": {
    "$type": "CJKJIENLOHD",
    "combat": {
      "property": {
        "useCreatorProperty": true,
        "hp": 999999.0,
        "attack": 15.0,
        "defense": 999999.0,
        "isLockHP": true,
        "canTriggerBullet": false
      },
      "beHit": {
        "hitBloodEffect": "",
        "muteAllHitEffect": true
      },
      "combatLock": {
        "lockShape": "CircleLockEnemy",
        "lockType": "Boss_Lv5"
      }
    },
    "combatTemplate": "",
    "abilities": [
      {
        "abilityID": "",
        "abilityName": "SceneObj_Area_Xm_Property_Ani_Prop_DieSandWorm_Sand_01_PartcontrolTarget",
        "abilityOverride": ""
      }
    ],
    "timer": {
      "lifeInfinite": true
    },
    "move": {
      "$type": "MMAPEFIEGAL",
      "target": "TargetEntity",
      "attachPoint": "Body08",
      "followRotation": true,
      "LFOHLEKJFBI": ""
    }
  },
  "SceneObj_Area_Xm_Property_Ani_Prop_AbilitySandWorm_Sand_01_ShootAttackBullet": {
    "$type": "CJKJIENLOHD",
    "common": {
      "effectAttachShape": {
        "$type": "OMIODKONOMG",
        "scaleZ": 0.4000000059604645
      }
    },
    "combat": {
      "property": {
        "useCreatorProperty": true,
        "hp": 999999.0,
        "attack": 15.0,
        "defense": 999999.0,
        "isLockHP": true,
        "canTriggerBullet": false
      },
      "beHit": {
        "hitBloodEffect": "",
        "muteAllHit": true,
        "muteAllHitEffect": true,
        "muteAllHitText": true
      },
      "combatLock": {
        "lockShape": "CircleLockEnemy",
        "denyLockOn": true,
        "lockType": "Default"
      }
    },
    "combatTemplate": "",
    "abilities": [
      {
        "abilityID": "",
        "abilityName": "SceneObj_Area_Xm_Property_Ani_Prop_AbilitySandWorm_Sand_01_ShootAttack_Attack",
        "abilityOverride": ""
      }
    ],
    "timer": {
      "lifeTime": 5.0
    },
    "move": {
      "$type": "JGEFBHJPMOL"
    },
    "gadget": {
      "$type": "AKGCANNFFGI",
      "collision": {
        "targetType": "Enemy"
      },
      "triggerActions": [
        {
          "$type": "AILPBJHDHDG",
          "abilityName": "SceneObj_Area_Xm_Property_Ani_Prop_AbilitySandWorm_Sand_01_ShootAttack_Attack"
        }
      ],
      "triggerLifeOverActions": [
        {
          "$type": "AILPBJHDHDG",
          "abilityName": "SceneObj_Area_Xm_Property_Ani_Prop_AbilitySandWorm_Sand_01_ShootAttack_Attack"
        }
      ],
      "killByOther": true,
      "multiBulletConfig": {
        "$type": "OAKJCHGIBPC",
        "selectTargetDefaultType": "Loop",
        "rotationDampTime": "Eff_Monster_Sandworm_01_Stage02_FlyingAttack_MultiBullet_Activity"
      }
    }
  },
  "SceneObj_Area_Xm_Property_Ani_Prop_AbilitySandWorm_Sand_02_ShootAttackBullet": {
    "$type": "CJKJIENLOHD",
    "common": {
      "effectAttachShape": {
        "$type": "OMIODKONOMG",
        "scaleZ": 0.4000000059604645
      }
    },
    "combat": {
      "property": {
        "useCreatorProperty": true,
        "hp": 999999.0,
        "attack": 10.0,
        "defense": 999999.0,
        "isLockHP": true
      },
      "beHit": {
        "hitBloodEffect": "",
        "muteAllHit": true,
        "muteAllHitEffect": true,
        "muteAllHitText": true
      },
      "combatLock": {
        "lockShape": "CircleLockEnemy",
        "denyLockOn": true,
        "lockType": "Default"
      }
    },
    "combatTemplate": "",
    "abilities": [
      {
        "abilityID": "Loop",
        "abilityName": "SceneObj_Area_Xm_Property_Ani_Prop_AbilitySandWorm_Sand_02_ShootAttack_Bullet_Loop",
        "abilityOverride": ""
      },
      {
        "abilityID": "Explode",
        "abilityName": "SceneObj_Area_Xm_Property_Ani_Prop_AbilitySandWorm_Sand_02_ShootAttack_Bullet_Explode",
        "abilityOverride": ""
      }
    ],
    "timer": {
      "lifeTime": 10.0
    },
    "move": {
      "$type": "DMLAFKAOGID",
      "speed": 12.0,
      "maxSpeed": 60.0,
      "minSpeed": 12.0,
      "anglerVelocity": 0.0,
      "acceleration": -10.0,
      "DPAAFHNMHHN": {
        "$type": "IFAANDLLGLP"
      },
      "stickToGround": {
        "maxStepHeight": 20.0,
        "maxSlopeAngle": 90.0,
        "heightToGround": 0.75,
        "flexibleRange": 0.5,
        "isStickToWater": true,
        "unstickWhenDownSlide": "Keep",
        "unstickWhenUpSlide": "Keep"
      },
      "guidanceSpeedChange": false,
      "guidanceDuration": 0.0
    },
    "gadget": {
      "$type": "JENBBNKGGJP",
      "collision": {
        "triggerType": "TriggerNoRepeat",
        "targetType": "Enemy",
        "ignoreScene": true
      },
      "triggerActions": [
        {
          "$type": "AILPBJHDHDG",
          "abilityName": "SceneObj_Area_Xm_Property_Ani_Prop_AbilitySandWorm_Sand_02_ShootAttack_Bullet_Explode"
        }
      ],
      "triggerLifeOverActions": [
        {
          "$type": "AILPBJHDHDG",
          "abilityName": "SceneObj_Area_Xm_Property_Ani_Prop_AbilitySandWorm_Sand_02_ShootAttack_Bullet_Explode"
        }
      ]
    }
  },
  "SceneObj_Area_Xm_Property_Ani_Prop_AbilitySandWorm_Sand_03_ShootAttackBullet": {
    "$type": "CJKJIENLOHD",
    "combat": {
      "property": {
        "useCreatorProperty": true,
        "hp": 100.0,
        "attack": 10.0,
        "isInvincible": true,
        "isGhostToAllied": true,
        "isGhostToEnemy": true,
        "canTriggerBullet": false
      },
      "combatLock": {
        "lockShape": "CircleLockEnemy",
        "denyLockOn": true,
        "lockType": "Default"
      }
    },
    "combatTemplate": "",
    "abilities": [
      {
        "abilityID": "",
        "abilityName": "SceneObj_Area_Xm_Property_Ani_Prop_AbilitySandWorm_Sand_03_ShootAttack_Attack",
        "abilityOverride": ""
      }
    ],
    "timer": {
      "lifeTime": 5.0
    }
  }
}