{
  "SceneObj_Area_Xm_Property_Ani_Stone_AraraDreamStone_01": {
    "$type": "CJKJIENLOHD",
    "hasModel": true,
    "combatTemplate": "",
    "abilities": [
      {
        "abilityID": "",
        "abilityName": "SceneObj_Area_Xm_Property_Ani_Stone_AraraDreamStone_01_Ability",
        "abilityOverride": ""
      }
    ]
  },
  "SceneObj_Area_Xm_Property_Prop_HideMusicReciever_01": {
    "$type": "CJKJIENLOHD",
    "hasModel": true,
    "combatTemplate": "",
    "abilities": [
      {
        "abilityID": "",
        "abilityName": "SceneObj_Area_Xm_Property_Prop_HideMusicReciever_01_Ability",
        "abilityOverride": ""
      }
    ]
  },
  "SceneObj_Area_Xm_Property_Prop_HideMusicReciever_02": {
    "$type": "CJKJIENLOHD",
    "hasModel": true,
    "combatTemplate": "",
    "abilities": [
      {
        "abilityID": "",
        "abilityName": "SceneObj_Area_Xm_Property_Prop_HideMusicReciever_02_Ability",
        "abilityOverride": ""
      }
    ]
  },
  "SceneObj_Area_Xm_Property_Prop_HideMusicReciever_03": {
    "$type": "CJKJIENLOHD",
    "hasModel": true,
    "combatTemplate": "",
    "abilities": [
      {
        "abilityID": "",
        "abilityName": "SceneObj_Area_Xm_Property_Prop_HideMusicReciever_03_Ability",
        "abilityOverride": ""
      }
    ]
  },
  "SceneObj_Area_Xm_Property_Prop_HideMusicReciever_04": {
    "$type": "CJKJIENLOHD",
    "hasModel": true,
    "combatTemplate": "",
    "abilities": [
      {
        "abilityID": "",
        "abilityName": "SceneObj_Area_Xm_Property_Prop_HideMusicReciever_04_Ability",
        "abilityOverride": ""
      }
    ]
  },
  "SceneObj_Area_Xm_Property_Ani_Prop_VineBall_01": {
    "$type": "CJKJIENLOHD",
    "model": {
      "bornEffect": "",
      "attachEffect": "Eff_SceneObj_Property_Ani_Prop_VineBall_01_Parclose",
      "BKPFGNPLDNJ": ""
    },
    "hasModel": true,
    "combat": {
      "property": {
        "hp": 99999.0,
        "isLockHP": true
      },
      "beHit": {
        "hitBloodEffect": "",
        "hitAutoRedirect": false,
        "muteAllHitEffect": true
      },
      "combatLock": {
        "lockShape": "CircleLockEnemy",
        "denyLockOn": true,
        "lockType": "Gadget_Lv1"
      }
    },
    "combatTemplate": "",
    "abilities": [
      {
        "abilityID": "",
        "abilityName": "SceneObj_Area_Xm_Property_Ani_Prop_VineBall_01_Ability",
        "abilityOverride": ""
      }
    ],
    "move": {
      "$type": "OEFHHKHPMCJ"
    },
    "stateLayers": {
      "defaultLayer": {
        "$type": "GBGJJIIEMBD",
        "layerIndexName": "",
        "CPAANEIJCGD": "",
        "stateIDs": {
          "Idle": {
            "$type": "BEIEGKBABOF",
            "animatorStates": {
              "Rotate_0": [],
              "Rotate_90": [],
              "Rotate_180": [],
              "Rotate_270": []
            },
            "cullingModelAlwaysAnimate": true
          },
          "Rotate": {
            "$type": "BEIEGKBABOF",
            "animatorStates": {
              "Rotate_0To90": [],
              "Rotate_90To180": [],
              "Rotate_180To270": [],
              "Rotate_270To360": []
            },
            "cullingModelAlwaysAnimate": true
          }
        }
      }
    }
  },
  "SceneObj_Area_Xm_Property_Ani_Flower_DeleteHana_01": {
    "$type": "CJKJIENLOHD",
    "hasModel": true,
    "combatTemplate": "default",
    "abilities": [
      {
        "abilityID": "",
        "abilityName": "SceneObj_Area_Xm_Property_Ani_Flower_DeleteHana_01_Ability",
        "abilityOverride": ""
      }
    ]
  },
  "SceneObj_Area_Xm_Property_Ani_Flower_DramdoorFXiaoshi_01": {
    "$type": "CJKJIENLOHD",
    "hasModel": true,
    "combatTemplate": "default",
    "abilities": [
      {
        "abilityID": "",
        "abilityName": "SceneObj_Area_Xm_Property_Ani_Flower_DramdoorFXiaoshi_01_Ability",
        "abilityOverride": ""
      }
    ]
  },
  "SceneObj_Area_Xm_Property_Ani_Stone_AraraPortal_01": {
    "$type": "CJKJIENLOHD",
    "hasModel": true,
    "combatTemplate": "",
    "abilities": [
      {
        "abilityID": "",
        "abilityName": "SceneObj_Area_Xm_Property_Ani_Stone_AraraPortal_01_Ability",
        "abilityOverride": ""
      }
    ],
    "field": {
      "concernType": "AllAvatars",
      "shape": "",
      "fromShape": "",
      "triggerInfinite": true,
      "lifeInfinite": true,
      "checkInterval": 0.5,
      "overwriteCampType": true,
      "campType": "All",
      "colliderName": "",
      "fromColliderName": ""
    }
  }
}