{
  "ChongyunTest_TestConeDummy": {
    "$type": "CJKJIENLOHD",
    "combat": {
      "property": {
        "useCreatorProperty": true,
        "isGhostToAllied": true,
        "isGhostToEnemy": true
      },
      "beHit": {
        "hitBloodEffect": "",
        "muteAllHit": true,
        "muteAllHitEffect": true,
        "muteAllHitText": true
      },
      "combatLock": {
        "lockShape": "CircleLockEnemy",
        "denyLockOn": true,
        "lockType": "Default"
      },
      "die": {
        "dieForceDisappearTime": 0.5,
        "dieDisappearEffect": ""
      }
    },
    "combatTemplate": "",
    "abilities": [
      {
        "abilityID": "Avatar_Chongyun_IceCrystal_Dummy",
        "abilityName": "Avatar_Chongyun_IceCrystal_Dummy",
        "abilityOverride": ""
      }
    ],
    "field": {
      "concernType": "AllAvatars",
      "shape": "CircleR8",
      "fromShape": "",
      "lifeTime": 5.0,
      "colliderName": "",
      "fromColliderName": ""
    }
  },
  "Chongyun_IceCrystal": {
    "$type": "CJKJIENLOHD",
    "combat": {
      "property": {
        "useCreatorProperty": true,
        "isInvincible": true,
        "isGhostToAllied": true,
        "isGhostToEnemy": true
      },
      "beHit": {
        "hitBloodEffect": "",
        "muteAllHit": true,
        "muteAllHitEffect": true,
        "muteAllHitText": true
      },
      "combatLock": {
        "lockShape": "CircleLockEnemy",
        "denyLockOn": true,
        "lockType": "Default"
      },
      "die": {
        "dieForceDisappearTime": 0.5,
        "dieDisappearEffect": "Eff_Chongyun_ElementalSkill_IceCrystal_Disappear"
      }
    },
    "combatTemplate": "",
    "abilities": [
      {
        "abilityID": "Avatar_Chongyun_IceCrystal",
        "abilityName": "Avatar_Chongyun_IceCrystal",
        "abilityOverride": ""
      },
      {
        "abilityID": "Avatar_Chongyun_SoulUnleash_Single_Initiate",
        "abilityName": "Avatar_Chongyun_SoulUnleash_Single_Initiate",
        "abilityOverride": ""
      }
    ],
    "field": {
      "shape": "CircleR8",
      "fromShape": "",
      "lifeTime": 10.0,
      "colliderName": "",
      "fromColliderName": ""
    }
  },
  "ChongyunTest_TestBlade": {
    "$type": "CJKJIENLOHD",
    "common": {
      "effectAttachShape": {
        "$type": "OMIODKONOMG"
      }
    },
    "combat": {
      "property": {
        "useCreatorProperty": true,
        "isInvincible": true,
        "canTriggerBullet": false
      },
      "beHit": {
        "hitBloodEffect": "",
        "muteAllHit": true,
        "muteAllHitEffect": true,
        "muteAllHitText": true
      },
      "combatLock": {
        "lockShape": "CircleLockEnemy",
        "denyLockOn": true,
        "lockType": "Default"
      }
    },
    "combatTemplate": "",
    "abilities": [
      {
        "abilityID": "ChongyunTest_TestBlade_Hit",
        "abilityName": "ChongyunTest_TestBlade_Hit",
        "abilityOverride": ""
      }
    ],
    "timer": {
      "lifeTime": 0.6000000238418579
    },
    "move": {
      "$type": "GONNMCBKAOC",
      "velocityForce": {
        "muteAll": true
      },
      "speed": 20.0,
      "stickToGround": {
        "maxStepHeight": 1.5,
        "maxSlopeAngle": 40.0,
        "heightToGround": 0.800000011920929,
        "flexibleRange": 0.800000011920929,
        "isStickToWater": true,
        "unstickWhenDownSlide": "Keep",
        "unstickWhenUpSlide": "Keep"
      }
    },
    "gadget": {
      "$type": "JENBBNKGGJP",
      "collision": {
        "triggerType": "TriggerAlways",
        "triggerCD": 1.0,
        "targetType": "Enemy",
        "ignoreScene": true
      },
      "triggerActions": [
        {
          "$type": "HILFMFBKIKF",
          "attackInfo": {
            "attackTag": "IceBlades",
            "attenuationTag": "",
            "attenuationGroup": "default",
            "attackProperty": {
              "actorGrassSubHurtDelta": 0.0,
              "actorWindSubHurtDelta": 0.0,
              "elementType": "Ice",
              "IPFJJJGABPL": 25.0,
              "strikeType": "Default",
              "enBreak": 36.0,
              "GLKMCMDJBIK": 0.0
            },
            "hitPattern": {
              "onHitEffectName": "default",
              "hitImpulseY": "",
              "hitImpulseType": "",
              "overrideHitImpulse": {
                "hitLevel": "Heavy",
                "IMIJMPGJOGG": 200.0,
                "BPCDKKBKOBM": 0.0
              },
              "hitHaltTimeScale": 0.05000000074505806
            },
            "canBeModifiedBy": "OriginOwner"
          }
        }
      ]
    }
  }
}