{
  "SceneObj_Environment_Field_30": {
    "$type": "CJKJIENLOHD",
    "combat": {
      "property": {
        "hp": 99999.0,
        "attack": 20.0,
        "weight": 50.0,
        "isInvincible": true,
        "isLockHP": true
      },
      "beHit": {
        "hitBloodEffect": "",
        "hitAutoRedirect": false,
        "muteAllHitText": true
      },
      "combatLock": {
        "lockShape": "CircleLockEnemy",
        "denyLockOn": true,
        "lockType": "Gadget_Lv1"
      }
    },
    "combatTemplate": "",
    "abilities": [
      {
        "abilityID": "Ability_01",
        "abilityName": "SceneObj_Environment_Field_30",
        "abilityOverride": ""
      }
    ]
  },
  "SceneObj_Environment_Other_AreaGuardian": {
    "$type": "CJKJIENLOHD",
    "combat": {
      "property": {
        "hp": 99999.0,
        "attack": 20.0,
        "weight": 50.0,
        "isLockHP": true
      },
      "beHit": {
        "hitBloodEffect": "",
        "hitAutoRedirect": false,
        "muteAllHitText": true
      },
      "combatLock": {
        "lockShape": "CircleLockEnemy",
        "denyLockOn": true,
        "lockType": "Gadget_Lv1"
      }
    },
    "combatTemplate": ""
  },
  "SceneObj_Environment_Other_Formathr": {
    "$type": "CJKJIENLOHD",
    "combat": {
      "property": {
        "hp": 99999.0,
        "attack": 20.0,
        "weight": 50.0,
        "isLockHP": true
      },
      "beHit": {
        "hitBloodEffect": "",
        "hitAutoRedirect": false,
        "muteAllHitText": true
      },
      "combatLock": {
        "lockShape": "CircleLockEnemy",
        "denyLockOn": true,
        "lockType": "Gadget_Lv1"
      }
    },
    "combatTemplate": ""
  },
  "SceneObj_Environment_Bulletin1": {
    "$type": "CJKJIENLOHD",
    "combatTemplate": "",
    "uiInteract": {
      "gadgetUIBtnCfgPath": "TEST/TEST_Bulletin_Btn",
      "uiName": "UI_BULLETIN_QTE_TITLE1",
      "icon": "",
      "groupName": "",
      "confirmDialogTitle": "",
      "confirmDialogContent": ""
    }
  },
  "SceneObj_Environment_Bulletin2": {
    "$type": "CJKJIENLOHD",
    "combatTemplate": "",
    "uiInteract": {
      "gadgetUIBtnCfgPath": "TEST/TEST_Bulletin_Btn",
      "uiName": "UI_BULLETIN_QTE_TITLE2",
      "icon": "",
      "groupName": "",
      "confirmDialogTitle": "",
      "confirmDialogContent": ""
    }
  },
  "SceneObj_Environment_Bulletin3": {
    "$type": "CJKJIENLOHD",
    "combatTemplate": "",
    "uiInteract": {
      "gadgetUIBtnCfgPath": "TEST/TEST_Bulletin_Btn",
      "uiName": "UI_BULLETIN_QTE_TITLE3",
      "icon": "",
      "groupName": "",
      "confirmDialogTitle": "",
      "confirmDialogContent": ""
    }
  },
  "SceneObj_Environment_Bulletin6": {
    "$type": "CJKJIENLOHD",
    "combatTemplate": "",
    "uiInteract": {
      "gadgetUIBtnCfgPath": "TEST/TEST_Bulletin_Btn",
      "uiName": "UI_BULLETIN_QTE_TITLE6",
      "icon": "",
      "groupName": "",
      "confirmDialogTitle": "",
      "confirmDialogContent": ""
    }
  },
  "SceneObj_Environment_Bulletin9": {
    "$type": "CJKJIENLOHD",
    "combatTemplate": "",
    "uiInteract": {
      "gadgetUIBtnCfgPath": "TEST/TEST_Bulletin_Btn",
      "uiName": "UI_BULLETIN_QTE_34_TITLE9",
      "icon": "",
      "groupName": "",
      "confirmDialogTitle": "",
      "confirmDialogContent": "",
      "canInteractInCombat": false
    }
  },
  "SceneObj_Environment_Bulletin10": {
    "$type": "CJKJIENLOHD",
    "combatTemplate": "",
    "uiInteract": {
      "gadgetUIBtnCfgPath": "TEST/TEST_Bulletin_Btn",
      "uiName": "UI_BULLETIN_QTE_34_TITLE10",
      "icon": "",
      "groupName": "",
      "confirmDialogTitle": "",
      "confirmDialogContent": "",
      "canInteractInCombat": false
    }
  },
  "SceneObj_Environment_Bulletin11": {
    "$type": "CJKJIENLOHD",
    "combatTemplate": "",
    "uiInteract": {
      "gadgetUIBtnCfgPath": "TEST/TEST_Bulletin_Btn",
      "uiName": "UI_BULLETIN_QTE_34_TITLE11",
      "icon": "",
      "groupName": "",
      "confirmDialogTitle": "",
      "confirmDialogContent": "",
      "canInteractInCombat": false
    }
  },
  "SceneObj_Environment_Bulletin12": {
    "$type": "CJKJIENLOHD",
    "combatTemplate": "",
    "uiInteract": {
      "gadgetUIBtnCfgPath": "TEST/TEST_Bulletin_Btn",
      "uiName": "UI_BULLETIN_QTE_34_TITLE12",
      "icon": "",
      "groupName": "",
      "confirmDialogTitle": "",
      "confirmDialogContent": "",
      "canInteractInCombat": false
    }
  },
  "SceneObj_Environment_Bulletin13": {
    "$type": "CJKJIENLOHD",
    "combatTemplate": "",
    "uiInteract": {
      "gadgetUIBtnCfgPath": "TEST/TEST_Bulletin_Btn",
      "uiName": "UI_BULLETIN_QTE_34_TITLE13",
      "icon": "",
      "groupName": "",
      "confirmDialogTitle": "",
      "confirmDialogContent": "",
      "canInteractInCombat": false
    }
  },
  "SceneObj_Environment_Bulletin14": {
    "$type": "CJKJIENLOHD",
    "combatTemplate": "",
    "uiInteract": {
      "gadgetUIBtnCfgPath": "TEST/TEST_Bulletin_Btn",
      "uiName": "UI_BULLETIN_QTE_34_TITLE14",
      "icon": "",
      "groupName": "",
      "confirmDialogTitle": "",
      "confirmDialogContent": "",
      "canInteractInCombat": false
    }
  },
  "SceneObj_Environment_Bulletin15": {
    "$type": "CJKJIENLOHD",
    "combatTemplate": "",
    "uiInteract": {
      "gadgetUIBtnCfgPath": "TEST/TEST_Bulletin_Btn",
      "uiName": "UI_BULLETIN_QTE_34_TITLE15",
      "icon": "",
      "groupName": "",
      "confirmDialogTitle": "",
      "confirmDialogContent": ""
    }
  },
  "SceneObj_Environment_Bulletin16": {
    "$type": "CJKJIENLOHD",
    "combatTemplate": "",
    "uiInteract": {
      "gadgetUIBtnCfgPath": "TEST/TEST_Bulletin_Btn",
      "uiName": "UI_BULLETIN_QTE_34_TITLE16",
      "icon": "",
      "groupName": "",
      "confirmDialogTitle": "",
      "confirmDialogContent": ""
    }
  },
  "SceneObj_Environment_Bulletin17": {
    "$type": "CJKJIENLOHD",
    "combatTemplate": "",
    "uiInteract": {
      "gadgetUIBtnCfgPath": "TEST/TEST_Bulletin_Btn",
      "uiName": "UI_BULLETIN_QTE_34_TITLE17",
      "icon": "",
      "groupName": "",
      "confirmDialogTitle": "",
      "confirmDialogContent": ""
    }
  },
  "SceneObj_Environment_Bulletin18": {
    "$type": "CJKJIENLOHD",
    "combatTemplate": "",
    "uiInteract": {
      "gadgetUIBtnCfgPath": "TEST/TEST_Bulletin_Btn",
      "uiName": "UI_BULLETIN_QTE_34_TITLE18",
      "icon": "",
      "groupName": "",
      "confirmDialogTitle": "",
      "confirmDialogContent": ""
    }
  },
  "SceneObj_Environment_Bulletin19": {
    "$type": "CJKJIENLOHD",
    "combatTemplate": "",
    "uiInteract": {
      "gadgetUIBtnCfgPath": "TEST/TEST_Bulletin_Btn",
      "uiName": "UI_BULLETIN_QTE_34_TITLE19",
      "icon": "",
      "groupName": "",
      "confirmDialogTitle": "",
      "confirmDialogContent": ""
    }
  },
  "SceneObj_Environment_Bulletin20": {
    "$type": "CJKJIENLOHD",
    "combatTemplate": "",
    "uiInteract": {
      "gadgetUIBtnCfgPath": "TEST/TEST_Bulletin_Btn",
      "uiName": "UI_BULLETIN_QTE_34_TITLE20",
      "icon": "",
      "groupName": "",
      "confirmDialogTitle": "",
      "confirmDialogContent": ""
    }
  },
  "SceneObj_Environment_Bulletin21": {
    "$type": "CJKJIENLOHD",
    "combatTemplate": "",
    "uiInteract": {
      "gadgetUIBtnCfgPath": "TEST/TEST_Bulletin_Btn",
      "uiName": "UI_BULLETIN_QTE_34_TITLE21",
      "icon": "",
      "groupName": "",
      "confirmDialogTitle": "",
      "confirmDialogContent": ""
    }
  },
  "SceneObj_Environment_Bulletin22": {
    "$type": "CJKJIENLOHD",
    "combatTemplate": "",
    "uiInteract": {
      "gadgetUIBtnCfgPath": "TEST/TEST_Bulletin_Btn",
      "uiName": "UI_BULLETIN_QTE_34_TITLE22",
      "icon": "",
      "groupName": "",
      "confirmDialogTitle": "",
      "confirmDialogContent": ""
    }
  },
  "SceneObj_Environment_Bulletin23": {
    "$type": "CJKJIENLOHD",
    "combatTemplate": "",
    "uiInteract": {
      "gadgetUIBtnCfgPath": "TEST/TEST_Bulletin_Btn",
      "uiName": "UI_BULLETIN_QTE_34_TITLE23",
      "icon": "",
      "groupName": "",
      "confirmDialogTitle": "",
      "confirmDialogContent": ""
    }
  },
  "SceneObj_Environment_Bulletin24": {
    "$type": "CJKJIENLOHD",
    "combatTemplate": "",
    "uiInteract": {
      "gadgetUIBtnCfgPath": "TEST/TEST_Bulletin_Btn",
      "uiName": "UI_BULLETIN_QTE_34_TITLE24",
      "icon": "",
      "groupName": "",
      "confirmDialogTitle": "",
      "confirmDialogContent": ""
    }
  },
  "SceneObj_Environment_Bulletin25": {
    "$type": "CJKJIENLOHD",
    "combatTemplate": "",
    "uiInteract": {
      "gadgetUIBtnCfgPath": "TEST/TEST_Bulletin_Btn",
      "uiName": "UI_BULLETIN_QTE_34_TITLE25",
      "icon": "",
      "groupName": "",
      "confirmDialogTitle": "",
      "confirmDialogContent": ""
    }
  },
  "SceneObj_Environment_Bulletin26": {
    "$type": "CJKJIENLOHD",
    "combatTemplate": "",
    "uiInteract": {
      "gadgetUIBtnCfgPath": "TEST/TEST_Bulletin_Btn",
      "uiName": "UI_BULLETIN_QTE_34_TITLE26",
      "icon": "",
      "groupName": "",
      "confirmDialogTitle": "",
      "confirmDialogContent": ""
    }
  },
  "SceneObj_Environment_Bulletin27": {
    "$type": "CJKJIENLOHD",
    "combatTemplate": "",
    "uiInteract": {
      "gadgetUIBtnCfgPath": "TEST/TEST_Bulletin_Btn",
      "uiName": "UI_BULLETIN_QTE_34_TITLE27",
      "icon": "",
      "groupName": "",
      "confirmDialogTitle": "",
      "confirmDialogContent": ""
    }
  },
  "SceneObj_Environment_Bulletin28": {
    "$type": "CJKJIENLOHD",
    "combatTemplate": "",
    "uiInteract": {
      "gadgetUIBtnCfgPath": "TEST/TEST_Bulletin_Btn",
      "uiName": "UI_BULLETIN_QTE_34_TITLE28",
      "icon": "",
      "groupName": "",
      "confirmDialogTitle": "",
      "confirmDialogContent": ""
    }
  },
  "SceneObj_Environment_Bulletin29": {
    "$type": "CJKJIENLOHD",
    "combatTemplate": "",
    "uiInteract": {
      "gadgetUIBtnCfgPath": "TEST/TEST_Bulletin_Btn",
      "uiName": "UI_BULLETIN_QTE_34_TITLE29",
      "icon": "",
      "groupName": "",
      "confirmDialogTitle": "",
      "confirmDialogContent": ""
    }
  },
  "SceneObj_Environment_Bulletin30": {
    "$type": "CJKJIENLOHD",
    "combatTemplate": "",
    "uiInteract": {
      "gadgetUIBtnCfgPath": "TEST/TEST_Bulletin_Btn",
      "uiName": "UI_BULLETIN_QTE_34_TITLE30",
      "icon": "",
      "groupName": "",
      "confirmDialogTitle": "",
      "confirmDialogContent": ""
    }
  },
  "SceneObj_Environment_Bulletin31": {
    "$type": "CJKJIENLOHD",
    "combatTemplate": "",
    "uiInteract": {
      "gadgetUIBtnCfgPath": "TEST/TEST_Bulletin_Btn",
      "uiName": "UI_BULLETIN_QTE_34_TITLE31",
      "icon": "",
      "groupName": "",
      "confirmDialogTitle": "",
      "confirmDialogContent": ""
    }
  },
  "SceneObj_Environment_Bulletin32": {
    "$type": "CJKJIENLOHD",
    "combatTemplate": "",
    "uiInteract": {
      "gadgetUIBtnCfgPath": "TEST/TEST_Bulletin_Btn",
      "uiName": "UI_BULLETIN_QTE_34_TITLE32",
      "icon": "",
      "groupName": "",
      "confirmDialogTitle": "",
      "confirmDialogContent": ""
    }
  },
  "SceneObj_Environment_Bulletin33": {
    "$type": "CJKJIENLOHD",
    "combatTemplate": "",
    "uiInteract": {
      "gadgetUIBtnCfgPath": "TEST/TEST_Bulletin_Btn",
      "uiName": "UI_BULLETIN_QTE_34_TITLE33",
      "icon": "",
      "groupName": "",
      "confirmDialogTitle": "",
      "confirmDialogContent": ""
    }
  },
  "SceneObj_Environment_Bulletin34": {
    "$type": "CJKJIENLOHD",
    "combatTemplate": "",
    "uiInteract": {
      "gadgetUIBtnCfgPath": "TEST/TEST_Bulletin_Btn",
      "uiName": "UI_BULLETIN_QTE_34_TITLE34",
      "icon": "",
      "groupName": "",
      "confirmDialogTitle": "",
      "confirmDialogContent": ""
    }
  },
  "SceneObj_Environment_Bulletin35": {
    "$type": "CJKJIENLOHD",
    "combatTemplate": "",
    "uiInteract": {
      "gadgetUIBtnCfgPath": "TEST/TEST_Bulletin_Btn",
      "uiName": "UI_BULLETIN_QTE_34_TITLE35",
      "icon": "",
      "groupName": "",
      "confirmDialogTitle": "",
      "confirmDialogContent": ""
    }
  },
  "SceneObj_Environment_Bulletin36": {
    "$type": "CJKJIENLOHD",
    "combatTemplate": "",
    "uiInteract": {
      "gadgetUIBtnCfgPath": "TEST/TEST_Bulletin_Btn",
      "uiName": "UI_BULLETIN_QTE_34_TITLE36",
      "icon": "",
      "groupName": "",
      "confirmDialogTitle": "",
      "confirmDialogContent": ""
    }
  },
  "SceneObj_Environment_Bulletin37": {
    "$type": "CJKJIENLOHD",
    "combatTemplate": "",
    "uiInteract": {
      "gadgetUIBtnCfgPath": "TEST/TEST_Bulletin_Btn",
      "uiName": "UI_BULLETIN_QTE_34_TITLE37",
      "icon": "",
      "groupName": "",
      "confirmDialogTitle": "",
      "confirmDialogContent": ""
    }
  },
  "SceneObj_Environment_Bulletin38": {
    "$type": "CJKJIENLOHD",
    "combatTemplate": "",
    "uiInteract": {
      "gadgetUIBtnCfgPath": "TEST/TEST_Bulletin_Btn",
      "uiName": "UI_BULLETIN_QTE_34_TITLE38",
      "icon": "",
      "groupName": "",
      "confirmDialogTitle": "",
      "confirmDialogContent": ""
    }
  },
  "SceneObj_Environment_Bulletin39": {
    "$type": "CJKJIENLOHD",
    "combatTemplate": "",
    "uiInteract": {
      "gadgetUIBtnCfgPath": "TEST/TEST_Bulletin_Btn",
      "uiName": "UI_BULLETIN_QTE_34_TITLE39",
      "icon": "",
      "groupName": "",
      "confirmDialogTitle": "",
      "confirmDialogContent": ""
    }
  },
  "SceneObj_Environment_Bulletin40": {
    "$type": "CJKJIENLOHD",
    "combatTemplate": "",
    "uiInteract": {
      "gadgetUIBtnCfgPath": "TEST/TEST_Bulletin_Btn",
      "uiName": "UI_BULLETIN_QTE_34_TITLE40",
      "icon": "",
      "groupName": "",
      "confirmDialogTitle": "",
      "confirmDialogContent": ""
    }
  },
  "SceneObj_Environment_Bulletin41": {
    "$type": "CJKJIENLOHD",
    "combatTemplate": "",
    "uiInteract": {
      "gadgetUIBtnCfgPath": "TEST/TEST_Bulletin_Btn",
      "uiName": "UI_BULLETIN_QTE_34_TITLE41",
      "icon": "",
      "groupName": "",
      "confirmDialogTitle": "",
      "confirmDialogContent": ""
    }
  },
  "SceneObj_Environment_Bulletin42": {
    "$type": "CJKJIENLOHD",
    "combatTemplate": "",
    "uiInteract": {
      "gadgetUIBtnCfgPath": "TEST/TEST_Bulletin_Btn",
      "uiName": "UI_BULLETIN_QTE_34_TITLE42",
      "icon": "",
      "groupName": "",
      "confirmDialogTitle": "",
      "confirmDialogContent": ""
    }
  },
  "SceneObj_Environment_Bulletin43": {
    "$type": "CJKJIENLOHD",
    "combatTemplate": "",
    "uiInteract": {
      "gadgetUIBtnCfgPath": "TEST/TEST_Bulletin_Btn",
      "uiName": "UI_BULLETIN_QTE_34_TITLE43",
      "icon": "",
      "groupName": "",
      "confirmDialogTitle": "",
      "confirmDialogContent": ""
    }
  },
  "SceneObj_Environment_Bulletin44": {
    "$type": "CJKJIENLOHD",
    "combatTemplate": "",
    "uiInteract": {
      "gadgetUIBtnCfgPath": "TEST/TEST_Bulletin_Btn",
      "uiName": "UI_BULLETIN_QTE_34_TITLE44",
      "icon": "",
      "groupName": "",
      "confirmDialogTitle": "",
      "confirmDialogContent": ""
    }
  },
  "SceneObj_Environment_Bulletin45": {
    "$type": "CJKJIENLOHD",
    "combatTemplate": "",
    "uiInteract": {
      "gadgetUIBtnCfgPath": "TEST/TEST_Bulletin_Btn",
      "uiName": "UI_BULLETIN_QTE_34_TITLE45",
      "icon": "",
      "groupName": "",
      "confirmDialogTitle": "",
      "confirmDialogContent": ""
    }
  },
  "SceneObj_Environment_Bulletin46": {
    "$type": "CJKJIENLOHD",
    "combatTemplate": "",
    "uiInteract": {
      "gadgetUIBtnCfgPath": "TEST/TEST_Bulletin_Btn",
      "uiName": "UI_BULLETIN_QTE_34_TITLE46",
      "icon": "",
      "groupName": "",
      "confirmDialogTitle": "",
      "confirmDialogContent": ""
    }
  },
  "SceneObj_Environment_Bulletin47": {
    "$type": "CJKJIENLOHD",
    "combatTemplate": "",
    "uiInteract": {
      "gadgetUIBtnCfgPath": "TEST/TEST_Bulletin_Btn",
      "uiName": "UI_BULLETIN_QTE_34_TITLE47",
      "icon": "",
      "groupName": "",
      "confirmDialogTitle": "",
      "confirmDialogContent": "",
      "showCondTypesV2": [
        "HOST"
      ]
    }
  },
  "SceneObj_Environment_Bulletin48": {
    "$type": "CJKJIENLOHD",
    "combatTemplate": "",
    "uiInteract": {
      "gadgetUIBtnCfgPath": "TEST/TEST_Bulletin_Btn",
      "uiName": "UI_BULLETIN_QTE_34_TITLE48",
      "icon": "",
      "groupName": "",
      "confirmDialogTitle": "",
      "confirmDialogContent": ""
    }
  },
  "SceneObj_Environment_Bulletin49": {
    "$type": "CJKJIENLOHD",
    "combatTemplate": "",
    "uiInteract": {
      "gadgetUIBtnCfgPath": "TEST/TEST_Bulletin_Btn",
      "uiName": "UI_BULLETIN_QTE_34_TITLE49",
      "icon": "",
      "groupName": "",
      "confirmDialogTitle": "",
      "confirmDialogContent": ""
    }
  },
  "SceneObj_Environment_Bulletin50": {
    "$type": "CJKJIENLOHD",
    "combatTemplate": "",
    "uiInteract": {
      "gadgetUIBtnCfgPath": "TEST/TEST_Bulletin_Btn",
      "uiName": "UI_BULLETIN_QTE_34_TITLE50",
      "icon": "",
      "groupName": "",
      "confirmDialogTitle": "",
      "confirmDialogContent": ""
    }
  },
  "SceneObj_Environment_Bulletin51": {
    "$type": "CJKJIENLOHD",
    "combatTemplate": "",
    "uiInteract": {
      "gadgetUIBtnCfgPath": "TEST/TEST_Bulletin_Btn",
      "uiName": "UI_BULLETIN_QTE_34_TITLE51",
      "icon": "",
      "groupName": "",
      "confirmDialogTitle": "",
      "confirmDialogContent": ""
    }
  },
  "SceneObj_Environment_Bulletin52": {
    "$type": "CJKJIENLOHD",
    "combatTemplate": "",
    "uiInteract": {
      "gadgetUIBtnCfgPath": "TEST/TEST_Bulletin_Btn",
      "uiName": "UI_BULLETIN_QTE_34_TITLE52",
      "icon": "",
      "groupName": "",
      "confirmDialogTitle": "",
      "confirmDialogContent": ""
    }
  },
  "SceneObj_Environment_Bulletin53": {
    "$type": "CJKJIENLOHD",
    "combatTemplate": "",
    "uiInteract": {
      "gadgetUIBtnCfgPath": "TEST/TEST_Bulletin_Btn",
      "uiName": "UI_BULLETIN_QTE_34_TITLE53",
      "icon": "",
      "groupName": "",
      "confirmDialogTitle": "",
      "confirmDialogContent": ""
    }
  },
  "SceneObj_Environment_Bulletin54": {
    "$type": "CJKJIENLOHD",
    "combatTemplate": "",
    "uiInteract": {
      "gadgetUIBtnCfgPath": "TEST/TEST_Bulletin_Btn",
      "uiName": "UI_BULLETIN_QTE_34_TITLE54",
      "icon": "",
      "groupName": "",
      "confirmDialogTitle": "",
      "confirmDialogContent": ""
    }
  },
  "SceneObj_Environment_Bulletin55": {
    "$type": "CJKJIENLOHD",
    "combatTemplate": "",
    "uiInteract": {
      "gadgetUIBtnCfgPath": "TEST/TEST_Bulletin_Btn",
      "uiName": "UI_BULLETIN_QTE_34_TITLE55",
      "icon": "",
      "groupName": "",
      "confirmDialogTitle": "",
      "confirmDialogContent": ""
    }
  },
  "SceneObj_Environment_Bulletin56": {
    "$type": "CJKJIENLOHD",
    "combatTemplate": "",
    "uiInteract": {
      "gadgetUIBtnCfgPath": "TEST/TEST_Bulletin_Btn",
      "uiName": "UI_BULLETIN_QTE_34_TITLE56",
      "icon": "",
      "groupName": "",
      "confirmDialogTitle": "",
      "confirmDialogContent": ""
    }
  },
  "SceneObj_Environment_Bulletin57": {
    "$type": "CJKJIENLOHD",
    "combatTemplate": "",
    "uiInteract": {
      "gadgetUIBtnCfgPath": "TEST/TEST_Bulletin_Btn",
      "uiName": "UI_BULLETIN_QTE_34_TITLE57",
      "icon": "",
      "groupName": "",
      "confirmDialogTitle": "",
      "confirmDialogContent": ""
    }
  },
  "SceneObj_Environment_Bulletin58": {
    "$type": "CJKJIENLOHD",
    "combatTemplate": "",
    "uiInteract": {
      "gadgetUIBtnCfgPath": "TEST/TEST_Bulletin_Btn",
      "uiName": "UI_BULLETIN_QTE_34_TITLE58",
      "icon": "",
      "groupName": "",
      "confirmDialogTitle": "",
      "confirmDialogContent": ""
    }
  },
  "SceneObj_Environment_KleeBoard": {
    "$type": "CJKJIENLOHD",
    "combatTemplate": "",
    "uiInteract": {
      "gadgetUIBtnCfgPath": "TEST/TEST_Bulletin_Btn",
      "uiName": "UI_BULLETIN_QTE_TITLE4",
      "icon": "",
      "groupName": "",
      "confirmDialogTitle": "",
      "confirmDialogContent": ""
    }
  },
  "SceneObj_Environment_ChildLost": {
    "$type": "CJKJIENLOHD",
    "combatTemplate": "",
    "uiInteract": {
      "gadgetUIBtnCfgPath": "TEST/TEST_Bulletin_Btn",
      "uiName": "UI_BULLETIN_QTE_TITLE7",
      "icon": "",
      "groupName": "",
      "confirmDialogTitle": "",
      "confirmDialogContent": ""
    }
  },
  "SceneObj_Environment_DreamIsland_KazuhaLetter01": {
    "$type": "CJKJIENLOHD",
    "combatTemplate": "",
    "uiInteract": {
      "gadgetUIBtnCfgPath": "TEST/TEST_Bulletin_Btn",
      "uiName": "UI_BULLETIN_QTE_TITLE8",
      "icon": "",
      "groupName": "",
      "confirmDialogTitle": "",
      "confirmDialogContent": ""
    }
  },
  "SceneObj_Environment_DreamIsland_KazuhaLetter02": {
    "$type": "CJKJIENLOHD",
    "combatTemplate": "",
    "uiInteract": {
      "gadgetUIBtnCfgPath": "TEST/TEST_Bulletin_Btn",
      "uiName": "UI_BULLETIN_QTE_TITLE8",
      "icon": "",
      "groupName": "",
      "confirmDialogTitle": "",
      "confirmDialogContent": ""
    }
  },
  "SceneObj_Environment_DreamIsland_KazuhaLetter03": {
    "$type": "CJKJIENLOHD",
    "combatTemplate": "",
    "uiInteract": {
      "gadgetUIBtnCfgPath": "TEST/TEST_Bulletin_Btn",
      "uiName": "UI_BULLETIN_QTE_TITLE8",
      "icon": "",
      "groupName": "",
      "confirmDialogTitle": "",
      "confirmDialogContent": ""
    }
  },
  "SceneObj_Environment_DreamIsland_AlbedoNote": {
    "$type": "CJKJIENLOHD",
    "combatTemplate": "",
    "uiInteract": {
      "gadgetUIBtnCfgPath": "TEST/TEST_Bulletin_Btn",
      "uiName": "UI_BULLETIN_QTE_TITLE8",
      "icon": "",
      "groupName": "",
      "confirmDialogTitle": "",
      "confirmDialogContent": ""
    }
  },
  "SceneObj_Environment_MessageFromSamiel01": {
    "$type": "CJKJIENLOHD",
    "combatTemplate": "",
    "uiInteract": {
      "gadgetUIBtnCfgPath": "TEST/TEST_Bulletin_Btn",
      "uiName": "UI_BULLETIN_QTE_TITLE5",
      "icon": "",
      "groupName": "",
      "confirmDialogTitle": "",
      "confirmDialogContent": ""
    }
  },
  "SceneObj_Environment_MessageFromSamiel02": {
    "$type": "CJKJIENLOHD",
    "combatTemplate": "",
    "uiInteract": {
      "gadgetUIBtnCfgPath": "TEST/TEST_Bulletin_Btn",
      "uiName": "UI_BULLETIN_QTE_TITLE5",
      "icon": "",
      "groupName": "",
      "confirmDialogTitle": "",
      "confirmDialogContent": ""
    }
  },
  "SceneObj_Environment_Obelisk01": {
    "$type": "CJKJIENLOHD",
    "combatTemplate": "",
    "uiInteract": {
      "gadgetUIBtnCfgPath": "TEST/TEST_Bulletin_Btn",
      "uiName": "UI_BULLETIN_QTE_TITLE5",
      "icon": "",
      "groupName": "",
      "confirmDialogTitle": "",
      "confirmDialogContent": ""
    }
  },
  "SceneObj_Environment_Obelisk02": {
    "$type": "CJKJIENLOHD",
    "combatTemplate": "",
    "uiInteract": {
      "gadgetUIBtnCfgPath": "TEST/TEST_Bulletin_Btn",
      "uiName": "UI_BULLETIN_QTE_TITLE5",
      "icon": "",
      "groupName": "",
      "confirmDialogTitle": "",
      "confirmDialogContent": ""
    }
  },
  "SceneObj_Environment_Obelisk03": {
    "$type": "CJKJIENLOHD",
    "combatTemplate": "",
    "uiInteract": {
      "gadgetUIBtnCfgPath": "TEST/TEST_Bulletin_Btn",
      "uiName": "UI_BULLETIN_QTE_TITLE5",
      "icon": "",
      "groupName": "",
      "confirmDialogTitle": "",
      "confirmDialogContent": ""
    }
  },
  "SceneObj_Environment_Obelisk04": {
    "$type": "CJKJIENLOHD",
    "combatTemplate": "",
    "uiInteract": {
      "gadgetUIBtnCfgPath": "TEST/TEST_Bulletin_Btn",
      "uiName": "UI_BULLETIN_QTE_TITLE5",
      "icon": "",
      "groupName": "",
      "confirmDialogTitle": "",
      "confirmDialogContent": ""
    }
  },
  "SceneObj_Environment_Obelisk05": {
    "$type": "CJKJIENLOHD",
    "combatTemplate": "",
    "uiInteract": {
      "gadgetUIBtnCfgPath": "TEST/TEST_Bulletin_Btn",
      "uiName": "UI_BULLETIN_QTE_TITLE5",
      "icon": "",
      "groupName": "",
      "confirmDialogTitle": "",
      "confirmDialogContent": ""
    }
  },
  "SceneObj_Environment_Obelisk06": {
    "$type": "CJKJIENLOHD",
    "combatTemplate": "",
    "uiInteract": {
      "gadgetUIBtnCfgPath": "TEST/TEST_Bulletin_Btn",
      "uiName": "UI_BULLETIN_QTE_TITLE5",
      "icon": "",
      "groupName": "",
      "confirmDialogTitle": "",
      "confirmDialogContent": ""
    }
  },
  "SceneObj_Environment_Obelisk07": {
    "$type": "CJKJIENLOHD",
    "combatTemplate": "",
    "uiInteract": {
      "gadgetUIBtnCfgPath": "TEST/TEST_Bulletin_Btn",
      "uiName": "UI_BULLETIN_QTE_TITLE5",
      "icon": "",
      "groupName": "",
      "confirmDialogTitle": "",
      "confirmDialogContent": ""
    }
  },
  "SceneObj_Environment_Obelisk08": {
    "$type": "CJKJIENLOHD",
    "combatTemplate": "",
    "uiInteract": {
      "gadgetUIBtnCfgPath": "TEST/TEST_Bulletin_Btn",
      "uiName": "UI_BULLETIN_QTE_TITLE5",
      "icon": "",
      "groupName": "",
      "confirmDialogTitle": "",
      "confirmDialogContent": ""
    }
  },
  "SceneObj_Environment_Obelisk09": {
    "$type": "CJKJIENLOHD",
    "combatTemplate": "",
    "uiInteract": {
      "gadgetUIBtnCfgPath": "TEST/TEST_Bulletin_Btn",
      "uiName": "UI_BULLETIN_QTE_TITLE5",
      "icon": "",
      "groupName": "",
      "confirmDialogTitle": "",
      "confirmDialogContent": ""
    }
  },
  "SceneObj_Environment_Obelisk10": {
    "$type": "CJKJIENLOHD",
    "combatTemplate": "",
    "uiInteract": {
      "gadgetUIBtnCfgPath": "TEST/TEST_Bulletin_Btn",
      "uiName": "UI_BULLETIN_QTE_TITLE5",
      "icon": "",
      "groupName": "",
      "confirmDialogTitle": "",
      "confirmDialogContent": ""
    }
  },
  "SceneObj_Environment_Obelisk011": {
    "$type": "CJKJIENLOHD",
    "combatTemplate": "",
    "uiInteract": {
      "gadgetUIBtnCfgPath": "TEST/TEST_Bulletin_Btn",
      "uiName": "UI_BULLETIN_QTE_TITLE5",
      "icon": "",
      "groupName": "",
      "confirmDialogTitle": "",
      "confirmDialogContent": ""
    }
  },
  "SceneObj_Environment_Obelisk012": {
    "$type": "CJKJIENLOHD",
    "combatTemplate": "",
    "uiInteract": {
      "gadgetUIBtnCfgPath": "TEST/TEST_Bulletin_Btn",
      "uiName": "UI_BULLETIN_QTE_TITLE5",
      "icon": "",
      "groupName": "",
      "confirmDialogTitle": "",
      "confirmDialogContent": ""
    }
  },
  "SceneObj_Environment_Obelisk013": {
    "$type": "CJKJIENLOHD",
    "combatTemplate": "",
    "uiInteract": {
      "gadgetUIBtnCfgPath": "TEST/TEST_Bulletin_Btn",
      "uiName": "UI_BULLETIN_QTE_TITLE5",
      "icon": "",
      "groupName": "",
      "confirmDialogTitle": "",
      "confirmDialogContent": ""
    }
  },
  "SceneObj_Environment_Obelisk014": {
    "$type": "CJKJIENLOHD",
    "combatTemplate": "",
    "uiInteract": {
      "gadgetUIBtnCfgPath": "TEST/TEST_Bulletin_Btn",
      "uiName": "UI_BULLETIN_QTE_TITLE5",
      "icon": "",
      "groupName": "",
      "confirmDialogTitle": "",
      "confirmDialogContent": ""
    }
  },
  "SceneObj_Environment_Obelisk015": {
    "$type": "CJKJIENLOHD",
    "combatTemplate": "",
    "uiInteract": {
      "gadgetUIBtnCfgPath": "TEST/TEST_Bulletin_Btn",
      "uiName": "UI_BULLETIN_QTE_TITLE5",
      "icon": "",
      "groupName": "",
      "confirmDialogTitle": "",
      "confirmDialogContent": ""
    }
  },
  "SceneObj_Environment_Obelisk016": {
    "$type": "CJKJIENLOHD",
    "combatTemplate": "",
    "uiInteract": {
      "gadgetUIBtnCfgPath": "TEST/TEST_Bulletin_Btn",
      "uiName": "UI_BULLETIN_QTE_TITLE5",
      "icon": "",
      "groupName": "",
      "confirmDialogTitle": "",
      "confirmDialogContent": ""
    }
  },
  "SceneObj_Environment_Obelisk017": {
    "$type": "CJKJIENLOHD",
    "combatTemplate": "",
    "uiInteract": {
      "gadgetUIBtnCfgPath": "TEST/TEST_Bulletin_Btn",
      "uiName": "UI_BULLETIN_QTE_TITLE5",
      "icon": "",
      "groupName": "",
      "confirmDialogTitle": "",
      "confirmDialogContent": ""
    }
  },
  "SceneObj_Environment_Obelisk018": {
    "$type": "CJKJIENLOHD",
    "combatTemplate": "",
    "uiInteract": {
      "gadgetUIBtnCfgPath": "TEST/TEST_Bulletin_Btn",
      "uiName": "UI_BULLETIN_QTE_TITLE5",
      "icon": "",
      "groupName": "",
      "confirmDialogTitle": "",
      "confirmDialogContent": ""
    }
  },
  "SceneObj_Environment_BigRobot01": {
    "$type": "CJKJIENLOHD",
    "combatTemplate": "",
    "uiInteract": {
      "gadgetUIBtnCfgPath": "TEST/TEST_Bulletin_Btn",
      "uiName": "UI_BULLETIN_QTE_TITLE5",
      "icon": "",
      "groupName": "",
      "confirmDialogTitle": "",
      "confirmDialogContent": ""
    }
  },
  "SceneObj_Environment_BigRobot02": {
    "$type": "CJKJIENLOHD",
    "combatTemplate": "",
    "uiInteract": {
      "gadgetUIBtnCfgPath": "TEST/TEST_Bulletin_Btn",
      "uiName": "UI_BULLETIN_QTE_TITLE5",
      "icon": "",
      "groupName": "",
      "confirmDialogTitle": "",
      "confirmDialogContent": ""
    }
  },
  "SceneObj_Environment_BigRobot03": {
    "$type": "CJKJIENLOHD",
    "combatTemplate": "",
    "uiInteract": {
      "gadgetUIBtnCfgPath": "TEST/TEST_Bulletin_Btn",
      "uiName": "UI_BULLETIN_QTE_TITLE5",
      "icon": "",
      "groupName": "",
      "confirmDialogTitle": "",
      "confirmDialogContent": ""
    }
  },
  "SceneObj_Environment_BigRobot04": {
    "$type": "CJKJIENLOHD",
    "combatTemplate": "",
    "uiInteract": {
      "gadgetUIBtnCfgPath": "TEST/TEST_Bulletin_Btn",
      "uiName": "UI_BULLETIN_QTE_TITLE5",
      "icon": "",
      "groupName": "",
      "confirmDialogTitle": "",
      "confirmDialogContent": ""
    }
  },
  "SceneObj_Environment_Secret_letter01": {
    "$type": "CJKJIENLOHD",
    "combatTemplate": "",
    "uiInteract": {
      "gadgetUIBtnCfgPath": "TEST/TEST_Bulletin_Btn",
      "uiName": "UI_BULLETIN_QTE_TITLE5",
      "icon": "",
      "groupName": "",
      "confirmDialogTitle": "",
      "confirmDialogContent": ""
    }
  },
  "SceneObj_Environment_StatementFromClynes": {
    "$type": "CJKJIENLOHD",
    "combatTemplate": "",
    "uiInteract": {
      "gadgetUIBtnCfgPath": "TEST/TEST_Bulletin_Btn",
      "uiName": "UI_BULLETIN_QTE_TITLE5",
      "icon": "",
      "groupName": "",
      "confirmDialogTitle": "",
      "confirmDialogContent": ""
    }
  },
  "SceneObj_Environment_RotationUnits": {
    "$type": "CJKJIENLOHD",
    "combatTemplate": "",
    "uiInteract": {
      "gadgetUIBtnCfgPath": "TEST/TEST_Bulletin_Btn",
      "uiName": "UI_BULLETIN_QTE_TITLE5",
      "icon": "",
      "groupName": "",
      "confirmDialogTitle": "",
      "confirmDialogContent": ""
    }
  },
  "SceneObj_Environment_BoxingUnit": {
    "$type": "CJKJIENLOHD",
    "combatTemplate": "",
    "uiInteract": {
      "gadgetUIBtnCfgPath": "TEST/TEST_Bulletin_Btn",
      "uiName": "UI_BULLETIN_QTE_TITLE5",
      "icon": "",
      "groupName": "",
      "confirmDialogTitle": "",
      "confirmDialogContent": ""
    }
  },
  "SceneObj_Environment_DrinkingSolution": {
    "$type": "CJKJIENLOHD",
    "combatTemplate": "",
    "uiInteract": {
      "gadgetUIBtnCfgPath": "TEST/TEST_Bulletin_Btn",
      "uiName": "UI_BULLETIN_QTE_TITLE5",
      "icon": "",
      "groupName": "",
      "confirmDialogTitle": "",
      "confirmDialogContent": ""
    }
  },
  "SceneObj_Environment_Cure_Wind": {
    "$type": "CJKJIENLOHD",
    "common": {
      "disableTickDistance": 10000.0
    },
    "hasModel": true,
    "combat": {
      "property": {
        "hp": 99999.0,
        "attack": 100.0,
        "weight": 50.0,
        "isInvincible": true,
        "isLockHP": true
      },
      "beHit": {
        "hitBloodEffect": "",
        "hitAutoRedirect": false,
        "muteAllHit": true,
        "muteAllHitEffect": true,
        "muteAllHitText": true
      },
      "combatLock": {
        "lockShape": "CircleLockEnemy",
        "denyLockOn": true,
        "lockType": "Gadget_Lv1"
      }
    },
    "combatTemplate": "",
    "abilities": [
      {
        "abilityID": "SceneObj_Environment_Cure_Wind",
        "abilityName": "SceneObj_Environment_Cure_Wind",
        "abilityOverride": ""
      }
    ]
  },
  "SceneObj_Environment_ElementFootprint_Trail": {
    "$type": "CJKJIENLOHD",
    "model": {
      "bornEffect": "",
      "attachEffect": "Eff_ElementFootprint_Trail",
      "BKPFGNPLDNJ": ""
    },
    "hasModel": true,
    "combat": {
      "property": {
        "hp": 99999.0,
        "attack": 100.0,
        "weight": 50.0,
        "isInvincible": true,
        "isLockHP": true,
        "canTriggerBullet": false
      },
      "combatLock": {
        "lockShape": "CircleLockEnemy",
        "denyLockOn": true,
        "lockType": "Gadget_Lv1"
      }
    },
    "combatTemplate": "",
    "abilities": [
      {
        "abilityID": "SceneObj_Environment_ElementFootprint_Trail",
        "abilityName": "SceneObj_Environment_ElementFootprint_Trail",
        "abilityOverride": ""
      }
    ]
  },
  "SceneObj_Environment_ElementFootprint_TrailWater": {
    "$type": "CJKJIENLOHD",
    "model": {
      "bornEffect": "",
      "attachEffect": "Eff_ElementFootprint_TrailWater",
      "ignoreDistCheckWhenAttachEffect": true,
      "BKPFGNPLDNJ": ""
    },
    "hasModel": true,
    "combat": {
      "property": {
        "hp": 99999.0,
        "attack": 100.0,
        "weight": 50.0,
        "isInvincible": true,
        "isLockHP": true,
        "canTriggerBullet": false
      },
      "combatLock": {
        "lockShape": "CircleLockEnemy",
        "denyLockOn": true,
        "lockType": "Gadget_Lv1"
      }
    },
    "combatTemplate": "",
    "abilities": [
      {
        "abilityID": "SceneObj_Environment_ElementFootprint_TrailWater",
        "abilityName": "SceneObj_Environment_ElementFootprint_TrailWater",
        "abilityOverride": ""
      }
    ]
  },
  "SceneObj_Environment_Mona_Door_Sealed": {
    "$type": "CJKJIENLOHD",
    "hasModel": true,
    "combat": {
      "property": {
        "hp": 99999.0,
        "attack": 100.0,
        "weight": 50.0,
        "isInvincible": true,
        "isLockHP": true
      },
      "beHit": {
        "hitBloodEffect": "",
        "hitAutoRedirect": false,
        "muteAllHit": true,
        "muteAllHitEffect": true,
        "muteAllHitText": true
      },
      "combatLock": {
        "lockShape": "CircleLockEnemy",
        "denyLockOn": true,
        "lockType": "Gadget_Lv1"
      }
    },
    "combatTemplate": "",
    "abilities": [
      {
        "abilityID": "SceneObj_Environment_Mona_Door_Sealed",
        "abilityName": "SceneObj_Environment_Mona_Door_Sealed",
        "abilityOverride": ""
      }
    ]
  },
  "SceneObj_Item_PathNode_Red": {
    "$type": "CJKJIENLOHD",
    "hasModel": true,
    "combat": {
      "property": {
        "hp": 99999.0,
        "attack": 100.0,
        "weight": 50.0,
        "isInvincible": true,
        "isLockHP": true,
        "canTriggerBullet": false
      },
      "beHit": {
        "hitBloodEffect": "",
        "hitAutoRedirect": false,
        "muteAllHit": true,
        "muteAllHitEffect": true,
        "muteAllHitText": true
      },
      "combatLock": {
        "lockShape": "CircleLockEnemy",
        "denyLockOn": true,
        "lockType": "Gadget_Lv1"
      }
    },
    "combatTemplate": "",
    "abilities": [
      {
        "abilityID": "SceneObj_Item_PathNode_Red",
        "abilityName": "SceneObj_Item_PathNode_Red",
        "abilityOverride": ""
      }
    ],
    "field": {
      "concernType": "AllAvatars",
      "shape": "CircleR5",
      "fromShape": "",
      "triggerInfinite": true,
      "lifeInfinite": true,
      "checkInterval": 0.20000000298023224,
      "overwriteCampType": true,
      "campType": "All",
      "colliderName": "",
      "fromColliderName": ""
    }
  },
  "SceneObj_Item_PathNode_Yellow": {
    "$type": "CJKJIENLOHD",
    "hasModel": true,
    "combat": {
      "property": {
        "hp": 99999.0,
        "attack": 100.0,
        "weight": 50.0,
        "isInvincible": true,
        "isLockHP": true,
        "canTriggerBullet": false
      },
      "beHit": {
        "hitBloodEffect": "",
        "hitAutoRedirect": false,
        "muteAllHit": true,
        "muteAllHitEffect": true,
        "muteAllHitText": true
      },
      "combatLock": {
        "lockShape": "CircleLockEnemy",
        "denyLockOn": true,
        "lockType": "Gadget_Lv1"
      }
    },
    "combatTemplate": "",
    "abilities": [
      {
        "abilityID": "SceneObj_Item_PathNode_Yellow",
        "abilityName": "SceneObj_Item_PathNode_Yellow",
        "abilityOverride": ""
      }
    ],
    "field": {
      "concernType": "AllAvatars",
      "shape": "CircleR5",
      "fromShape": "",
      "triggerInfinite": true,
      "lifeInfinite": true,
      "checkInterval": 0.20000000298023224,
      "overwriteCampType": true,
      "campType": "All",
      "colliderName": "",
      "fromColliderName": ""
    }
  },
  "SceneObj_Item_PathNode_Green": {
    "$type": "CJKJIENLOHD",
    "hasModel": true,
    "combat": {
      "property": {
        "hp": 99999.0,
        "attack": 100.0,
        "weight": 50.0,
        "isInvincible": true,
        "isLockHP": true,
        "canTriggerBullet": false
      },
      "beHit": {
        "hitBloodEffect": "",
        "hitAutoRedirect": false,
        "muteAllHit": true,
        "muteAllHitEffect": true,
        "muteAllHitText": true
      },
      "combatLock": {
        "lockShape": "CircleLockEnemy",
        "denyLockOn": true,
        "lockType": "Gadget_Lv1"
      }
    },
    "combatTemplate": "",
    "abilities": [
      {
        "abilityID": "SceneObj_Item_PathNode_Green",
        "abilityName": "SceneObj_Item_PathNode_Green",
        "abilityOverride": ""
      }
    ],
    "field": {
      "concernType": "AllAvatars",
      "shape": "CircleR5",
      "fromShape": "",
      "triggerInfinite": true,
      "lifeInfinite": true,
      "checkInterval": 0.20000000298023224,
      "overwriteCampType": true,
      "campType": "All",
      "colliderName": "",
      "fromColliderName": ""
    }
  },
  "SceneObj_Eff_Eff_ThunderFall_03": {
    "$type": "CJKJIENLOHD",
    "model": {
      "bornEffect": "",
      "attachEffect": "",
      "BKPFGNPLDNJ": ""
    },
    "hasModel": true,
    "combat": {
      "property": {
        "hp": 99999.0,
        "attack": 100.0,
        "weight": 50.0,
        "isInvincible": true,
        "isLockHP": true
      },
      "beHit": {
        "hitBloodEffect": "",
        "hitAutoRedirect": false,
        "muteAllHit": true,
        "muteAllHitEffect": true,
        "muteAllHitText": true
      },
      "combatLock": {
        "lockShape": "CircleLockEnemy",
        "denyLockOn": true,
        "lockType": "Gadget_Lv1"
      }
    },
    "combatTemplate": "",
    "gadgetAction": {
      "gadgetStateActionList": [
        {
          "$type": "JJEOLOOMPPG",
          "rootName": "EffectNode",
          "rotationDampTime": "Eff_Lisa_ThunderFall"
        }
      ]
    }
  },
  "SceneObj_Eff_Eff_ThunderFall_Area": {
    "$type": "CJKJIENLOHD",
    "model": {
      "bornEffect": "",
      "attachEffect": "",
      "BKPFGNPLDNJ": ""
    },
    "hasModel": true,
    "combat": {
      "property": {
        "hp": 99999.0,
        "attack": 100.0,
        "weight": 50.0,
        "isInvincible": true,
        "isLockHP": true
      },
      "beHit": {
        "hitBloodEffect": "",
        "hitAutoRedirect": false,
        "muteAllHit": true,
        "muteAllHitEffect": true,
        "muteAllHitText": true
      },
      "combatLock": {
        "lockShape": "CircleLockEnemy",
        "denyLockOn": true,
        "lockType": "Gadget_Lv1"
      }
    },
    "combatTemplate": "",
    "gadgetAction": {
      "gadgetStateActionList": [
        {
          "$type": "JJEOLOOMPPG",
          "rootName": "EffectNode",
          "rotationDampTime": "Eff_ThunderFall_Area"
        }
      ]
    }
  },
  "SceneObj_Item_Default_Item": {
    "$type": "CJKJIENLOHD",
    "hasModel": true,
    "combat": {
      "property": {
        "hp": 99999.0,
        "attack": 100.0,
        "weight": 50.0,
        "isInvincible": true,
        "isLockHP": true,
        "isGhostToAllied": true,
        "isGhostToEnemy": true,
        "canTriggerBullet": false
      },
      "beHit": {
        "hitBloodEffect": "",
        "hitAutoRedirect": false,
        "muteAllHit": true,
        "muteAllHitEffect": true,
        "muteAllHitText": true
      },
      "combatLock": {
        "lockShape": "CircleLockEnemy",
        "denyLockOn": true,
        "lockType": "Gadget_Lv1"
      }
    },
    "combatTemplate": ""
  },
  "SceneObj_Environment_Bulletin59": {
    "$type": "CJKJIENLOHD",
    "combatTemplate": "",
    "uiInteract": {
      "gadgetUIBtnCfgPath": "TEST/TEST_Bulletin_Btn",
      "uiName": "UI_BULLETIN_QTE_36_TITLE59",
      "icon": "",
      "groupName": "",
      "confirmDialogTitle": "",
      "confirmDialogContent": ""
    }
  },
  "SceneObj_Environment_Bulletin60": {
    "$type": "CJKJIENLOHD",
    "combatTemplate": "",
    "uiInteract": {
      "gadgetUIBtnCfgPath": "TEST/TEST_Bulletin_Btn",
      "uiName": "UI_BULLETIN_QTE_36_TITLE60",
      "icon": "",
      "groupName": "",
      "confirmDialogTitle": "",
      "confirmDialogContent": ""
    }
  },
  "SceneObj_Environment_Bulletin61": {
    "$type": "CJKJIENLOHD",
    "combatTemplate": "",
    "uiInteract": {
      "gadgetUIBtnCfgPath": "TEST/TEST_Bulletin_Btn",
      "uiName": "UI_BULLETIN_QTE_36_TITLE61",
      "icon": "",
      "groupName": "",
      "confirmDialogTitle": "",
      "confirmDialogContent": ""
    }
  },
  "SceneObj_Environment_Bulletin62": {
    "$type": "CJKJIENLOHD",
    "combatTemplate": "",
    "uiInteract": {
      "gadgetUIBtnCfgPath": "TEST/TEST_Bulletin_Btn",
      "uiName": "UI_BULLETIN_QTE_36_TITLE62",
      "icon": "",
      "groupName": "",
      "confirmDialogTitle": "",
      "confirmDialogContent": ""
    }
  },
  "SceneObj_Environment_Bulletin63": {
    "$type": "CJKJIENLOHD",
    "combatTemplate": "",
    "uiInteract": {
      "gadgetUIBtnCfgPath": "TEST/TEST_Bulletin_Btn",
      "uiName": "UI_BULLETIN_QTE_36_TITLE63",
      "icon": "",
      "groupName": "",
      "confirmDialogTitle": "",
      "confirmDialogContent": ""
    }
  },
  "SceneObj_Environment_Bulletin64": {
    "$type": "CJKJIENLOHD",
    "combatTemplate": "",
    "uiInteract": {
      "gadgetUIBtnCfgPath": "TEST/TEST_Bulletin_Btn",
      "uiName": "UI_BULLETIN_QTE_36_TITLE64",
      "icon": "",
      "groupName": "",
      "confirmDialogTitle": "",
      "confirmDialogContent": ""
    }
  },
  "SceneObj_Environment_Bulletin65": {
    "$type": "CJKJIENLOHD",
    "combatTemplate": "",
    "uiInteract": {
      "gadgetUIBtnCfgPath": "TEST/TEST_Bulletin_Btn",
      "uiName": "UI_BULLETIN_QTE_36_TITLE65",
      "icon": "",
      "groupName": "",
      "confirmDialogTitle": "",
      "confirmDialogContent": ""
    }
  },
  "SceneObj_Environment_Bulletin66": {
    "$type": "CJKJIENLOHD",
    "combatTemplate": "",
    "uiInteract": {
      "gadgetUIBtnCfgPath": "TEST/TEST_Bulletin_Btn",
      "uiName": "UI_BULLETIN_QTE_36_TITLE66",
      "icon": "",
      "groupName": "",
      "confirmDialogTitle": "",
      "confirmDialogContent": ""
    }
  },
  "SceneObj_Environment_Bulletin67": {
    "$type": "CJKJIENLOHD",
    "combatTemplate": "",
    "uiInteract": {
      "gadgetUIBtnCfgPath": "TEST/TEST_Bulletin_Btn",
      "uiName": "UI_BULLETIN_QTE_36_TITLE67",
      "icon": "",
      "groupName": "",
      "confirmDialogTitle": "",
      "confirmDialogContent": ""
    }
  },
  "SceneObj_Environment_Bulletin68": {
    "$type": "CJKJIENLOHD",
    "combatTemplate": "",
    "uiInteract": {
      "gadgetUIBtnCfgPath": "TEST/TEST_Bulletin_Btn",
      "uiName": "UI_BULLETIN_QTE_36_TITLE68",
      "icon": "",
      "groupName": "",
      "confirmDialogTitle": "",
      "confirmDialogContent": ""
    }
  },
  "SceneObj_Environment_Bulletin69": {
    "$type": "CJKJIENLOHD",
    "combatTemplate": "",
    "uiInteract": {
      "gadgetUIBtnCfgPath": "TEST/TEST_Bulletin_Btn",
      "uiName": "UI_BULLETIN_QTE_36_TITLE69",
      "icon": "",
      "groupName": "",
      "confirmDialogTitle": "",
      "confirmDialogContent": ""
    }
  },
  "SceneObj_Environment_Bulletin70": {
    "$type": "CJKJIENLOHD",
    "combatTemplate": "",
    "uiInteract": {
      "gadgetUIBtnCfgPath": "TEST/TEST_Bulletin_Btn",
      "uiName": "UI_BULLETIN_QTE_36_TITLE70",
      "icon": "",
      "groupName": "",
      "confirmDialogTitle": "",
      "confirmDialogContent": ""
    }
  },
  "SceneObj_Environment_Bulletin71": {
    "$type": "CJKJIENLOHD",
    "combatTemplate": "",
    "uiInteract": {
      "gadgetUIBtnCfgPath": "TEST/TEST_Bulletin_Btn",
      "uiName": "UI_BULLETIN_QTE_36_TITLE71",
      "icon": "",
      "groupName": "",
      "confirmDialogTitle": "",
      "confirmDialogContent": ""
    }
  },
  "SceneObj_Environment_Bulletin72": {
    "$type": "CJKJIENLOHD",
    "combatTemplate": "",
    "uiInteract": {
      "gadgetUIBtnCfgPath": "TEST/TEST_Bulletin_Btn",
      "uiName": "UI_BULLETIN_QTE_36_TITLE72",
      "icon": "",
      "groupName": "",
      "confirmDialogTitle": "",
      "confirmDialogContent": ""
    }
  },
  "SceneObj_Environment_Bulletin73": {
    "$type": "CJKJIENLOHD",
    "combatTemplate": "",
    "uiInteract": {
      "gadgetUIBtnCfgPath": "TEST/TEST_Bulletin_Btn",
      "uiName": "UI_BULLETIN_QTE_36_TITLE73",
      "icon": "",
      "groupName": "",
      "confirmDialogTitle": "",
      "confirmDialogContent": ""
    }
  },
  "SceneObj_Environment_Bulletin74": {
    "$type": "CJKJIENLOHD",
    "combatTemplate": "",
    "uiInteract": {
      "gadgetUIBtnCfgPath": "TEST/TEST_Bulletin_Btn",
      "uiName": "UI_BULLETIN_QTE_36_TITLE74",
      "icon": "",
      "groupName": "",
      "confirmDialogTitle": "",
      "confirmDialogContent": ""
    }
  },
  "SceneObj_Environment_Bulletin75": {
    "$type": "CJKJIENLOHD",
    "combatTemplate": "",
    "uiInteract": {
      "gadgetUIBtnCfgPath": "TEST/TEST_Bulletin_Btn",
      "uiName": "UI_BULLETIN_QTE_36_TITLE75",
      "icon": "",
      "groupName": "",
      "confirmDialogTitle": "",
      "confirmDialogContent": ""
    }
  },
  "SceneObj_Environment_Bulletin76": {
    "$type": "CJKJIENLOHD",
    "combatTemplate": "",
    "uiInteract": {
      "gadgetUIBtnCfgPath": "TEST/TEST_Bulletin_Btn",
      "uiName": "UI_BULLETIN_QTE_36_TITLE76",
      "icon": "",
      "groupName": "",
      "confirmDialogTitle": "",
      "confirmDialogContent": ""
    }
  },
  "SceneObj_Environment_Bulletin77": {
    "$type": "CJKJIENLOHD",
    "combatTemplate": "",
    "uiInteract": {
      "gadgetUIBtnCfgPath": "TEST/TEST_Bulletin_Btn",
      "uiName": "UI_BULLETIN_QTE_36_TITLE77",
      "icon": "",
      "groupName": "",
      "confirmDialogTitle": "",
      "confirmDialogContent": ""
    }
  },
  "SceneObj_Environment_Bulletin78": {
    "$type": "CJKJIENLOHD",
    "combatTemplate": "",
    "uiInteract": {
      "gadgetUIBtnCfgPath": "TEST/TEST_Bulletin_Btn",
      "uiName": "UI_BULLETIN_QTE_36_TITLE78",
      "icon": "",
      "groupName": "",
      "confirmDialogTitle": "",
      "confirmDialogContent": ""
    }
  },
  "SceneObj_Environment_Bulletin79": {
    "$type": "CJKJIENLOHD",
    "combatTemplate": "",
    "uiInteract": {
      "gadgetUIBtnCfgPath": "TEST/TEST_Bulletin_Btn",
      "uiName": "UI_BULLETIN_QTE_36_TITLE79",
      "icon": "",
      "groupName": "",
      "confirmDialogTitle": "",
      "confirmDialogContent": ""
    }
  },
  "SceneObj_Environment_Bulletin80": {
    "$type": "CJKJIENLOHD",
    "combatTemplate": "",
    "uiInteract": {
      "gadgetUIBtnCfgPath": "TEST/TEST_Bulletin_Btn",
      "uiName": "UI_BULLETIN_QTE_36_TITLE80",
      "icon": "",
      "groupName": "",
      "confirmDialogTitle": "",
      "confirmDialogContent": ""
    }
  },
  "SceneObj_Environment_Bulletin81": {
    "$type": "CJKJIENLOHD",
    "combatTemplate": "",
    "uiInteract": {
      "gadgetUIBtnCfgPath": "TEST/TEST_Bulletin_Btn",
      "uiName": "UI_BULLETIN_QTE_36_TITLE81",
      "icon": "",
      "groupName": "",
      "confirmDialogTitle": "",
      "confirmDialogContent": ""
    }
  },
  "SceneObj_Environment_Bulletin82": {
    "$type": "CJKJIENLOHD",
    "combatTemplate": "",
    "uiInteract": {
      "gadgetUIBtnCfgPath": "TEST/TEST_Bulletin_Btn",
      "uiName": "UI_BULLETIN_QTE_36_TITLE82",
      "icon": "",
      "groupName": "",
      "confirmDialogTitle": "",
      "confirmDialogContent": ""
    }
  },
  "SceneObj_Environment_Bulletin83": {
    "$type": "CJKJIENLOHD",
    "combatTemplate": "",
    "uiInteract": {
      "gadgetUIBtnCfgPath": "TEST/TEST_Bulletin_Btn",
      "uiName": "UI_BULLETIN_QTE_36_TITLE83",
      "icon": "",
      "groupName": "",
      "confirmDialogTitle": "",
      "confirmDialogContent": ""
    }
  },
  "SceneObj_Environment_Bulletin92": {
    "$type": "CJKJIENLOHD",
    "combatTemplate": "",
    "uiInteract": {
      "gadgetUIBtnCfgPath": "TEST/TEST_Bulletin_Btn",
      "uiName": "UI_BULLETIN_QTE_36_TITLE92",
      "icon": "UI_Icon_Intee_Investigation",
      "groupName": "",
      "confirmDialogTitle": "",
      "confirmDialogContent": ""
    }
  },
  "SceneObj_Environment_Bulletin93": {
    "$type": "CJKJIENLOHD",
    "combatTemplate": "",
    "uiInteract": {
      "gadgetUIBtnCfgPath": "TEST/TEST_Bulletin_Btn",
      "uiName": "UI_BULLETIN_QTE_36_TITLE93",
      "icon": "UI_Icon_Intee_Investigation",
      "groupName": "",
      "confirmDialogTitle": "",
      "confirmDialogContent": ""
    },
    "intee": {
      "triggerRadius": 2.0,
      "KAMIAMNMFCP": ""
    }
  },
  "SceneObj_Environment_Bulletin84": {
    "$type": "CJKJIENLOHD",
    "combatTemplate": "",
    "uiInteract": {
      "gadgetUIBtnCfgPath": "TEST/TEST_Bulletin_Btn",
      "uiName": "UI_BULLETIN_QTE_42_TITLE1",
      "icon": "",
      "groupName": "",
      "confirmDialogTitle": "",
      "confirmDialogContent": ""
    }
  },
  "SceneObj_Environment_Bulletin85": {
    "$type": "CJKJIENLOHD",
    "combatTemplate": "",
    "uiInteract": {
      "gadgetUIBtnCfgPath": "TEST/TEST_Bulletin_Btn",
      "uiName": "UI_BULLETIN_QTE_42_TITLE2",
      "icon": "",
      "groupName": "",
      "confirmDialogTitle": "",
      "confirmDialogContent": ""
    }
  },
  "SceneObj_Environment_Bulletin86": {
    "$type": "CJKJIENLOHD",
    "combatTemplate": "",
    "uiInteract": {
      "gadgetUIBtnCfgPath": "TEST/TEST_Bulletin_Btn",
      "uiName": "UI_BULLETIN_QTE_42_TITLE3",
      "icon": "",
      "groupName": "",
      "confirmDialogTitle": "",
      "confirmDialogContent": ""
    }
  },
  "SceneObj_Environment_Bulletin87": {
    "$type": "CJKJIENLOHD",
    "combatTemplate": "",
    "uiInteract": {
      "gadgetUIBtnCfgPath": "TEST/TEST_Bulletin_Btn",
      "uiName": "UI_BULLETIN_QTE_42_TITLE4",
      "icon": "",
      "groupName": "",
      "confirmDialogTitle": "",
      "confirmDialogContent": ""
    }
  },
  "SceneObj_Environment_Bulletin88": {
    "$type": "CJKJIENLOHD",
    "combatTemplate": "",
    "uiInteract": {
      "gadgetUIBtnCfgPath": "TEST/TEST_Bulletin_Btn",
      "uiName": "UI_BULLETIN_QTE_42_TITLE5",
      "icon": "",
      "groupName": "",
      "confirmDialogTitle": "",
      "confirmDialogContent": ""
    }
  },
  "SceneObj_Environment_Bulletin89": {
    "$type": "CJKJIENLOHD",
    "combatTemplate": "",
    "uiInteract": {
      "gadgetUIBtnCfgPath": "TEST/TEST_Bulletin_Btn",
      "uiName": "UI_BULLETIN_QTE_42_TITLE6",
      "icon": "",
      "groupName": "",
      "confirmDialogTitle": "",
      "confirmDialogContent": ""
    }
  },
  "SceneObj_Environment_Bulletin90": {
    "$type": "CJKJIENLOHD",
    "combatTemplate": "",
    "uiInteract": {
      "gadgetUIBtnCfgPath": "TEST/TEST_Bulletin_Btn",
      "uiName": "UI_BULLETIN_QTE_42_TITLE7",
      "icon": "",
      "groupName": "",
      "confirmDialogTitle": "",
      "confirmDialogContent": ""
    }
  },
  "SceneObj_Environment_Bulletin91": {
    "$type": "CJKJIENLOHD",
    "combatTemplate": "",
    "uiInteract": {
      "gadgetUIBtnCfgPath": "TEST/TEST_Bulletin_Btn",
      "uiName": "UI_BULLETIN_QTE_42_TITLE8",
      "icon": "",
      "groupName": "",
      "confirmDialogTitle": "",
      "confirmDialogContent": ""
    }
  },
  "SceneObj_Environment_Bulletin94": {
    "$type": "CJKJIENLOHD",
    "combatTemplate": "",
    "uiInteract": {
      "gadgetUIBtnCfgPath": "TEST/TEST_Bulletin_Btn",
      "uiName": "UI_BULLETIN_QTE_47_TITLE1",
      "icon": "",
      "groupName": "",
      "confirmDialogTitle": "",
      "confirmDialogContent": ""
    }
  },
  "SceneObj_Environment_Bulletin95": {
    "$type": "CJKJIENLOHD",
    "combatTemplate": "",
    "uiInteract": {
      "gadgetUIBtnCfgPath": "TEST/TEST_Bulletin_Btn",
      "uiName": "UI_BULLETIN_QTE_47_TITLE2",
      "icon": "",
      "groupName": "",
      "confirmDialogTitle": "",
      "confirmDialogContent": ""
    }
  },
  "SceneObj_Environment_GraffitiCave": {
    "$type": "CJKJIENLOHD",
    "combatTemplate": "",
    "uiInteract": {
      "gadgetUIBtnCfgPath": "TEST/TEST_Bulletin_Btn",
      "uiName": "UI_BULLETIN_QTE_TITLE5",
      "icon": "",
      "groupName": "",
      "confirmDialogTitle": "",
      "confirmDialogContent": ""
    }
  },
  "SceneObj_Environment_Ameyalco": {
    "$type": "CJKJIENLOHD",
    "combatTemplate": "",
    "uiInteract": {
      "gadgetUIBtnCfgPath": "TEST/TEST_Bulletin_Btn",
      "uiName": "UI_BULLETIN_QTE_TITLE5",
      "icon": "",
      "groupName": "",
      "confirmDialogTitle": "",
      "confirmDialogContent": ""
    }
  }
}