{
  "SceneObj_Homeworld_Exterior_Common_Prop_Thing_TimerStart_01": {
    "$type": "CJKJIENLOHD",
    "hasModel": true,
    "combat": {
      "property": {
        "hp": 99999.0,
        "isLockHP": true,
        "ignoreDamageToSelf": true
      }
    },
    "combatTemplate": "",
    "uiInteract": {
      "gadgetUIBtnCfgPath": "UI/open_homeworld_racing_rank_dialog",
      "uiName": "UI_HOMEWOLRD_TIMER_CHECK_LIST_BUTTON",
      "icon": "",
      "groupName": "",
      "confirmDialogTitle": "",
      "confirmDialogContent": ""
    },
    "intee": {
      "triggerRadius": 2.5,
      "KAMIAMNMFCP": ""
    },
    "lowPriorityIntee": true
  },
  "SceneObj_Homeworld_Exterior_Common_Prop_Thing_TimerEnd_01": {
    "$type": "CJKJIENLOHD",
    "model": {
      "bornEffect": "",
      "attachEffect": "Eff_SceneObj_Thing_TimerEnd_01_Surround",
      "ignoreDistCheckWhenAttachEffect": true,
      "BKPFGNPLDNJ": ""
    },
    "hasModel": true,
    "combat": {
      "property": {
        "hp": 99999.0,
        "isLockHP": true,
        "ignoreDamageToSelf": true
      }
    },
    "combatTemplate": "",
    "abilities": [
      {
        "abilityID": "Ability_01",
        "abilityName": "SceneObj_Homeworld_Exterior_Common_Prop_Thing_TimerEnd_01_Ability",
        "abilityOverride": ""
      }
    ]
  },
  "SceneObj_Homeworld_Exterior_Common_Prop_Thing_TimerScoring_01": {
    "$type": "CJKJIENLOHD",
    "hasModel": true,
    "combat": {
      "property": {
        "hp": 99999.0,
        "isLockHP": true,
        "ignoreDamageToSelf": true
      }
    },
    "combatTemplate": "",
    "uiInteract": {
      "gadgetUIBtnCfgPath": "UI/open_homeworld_racing_rank_dialog",
      "uiName": "UI_HOMEWORLD_PICTURE_CHANGE_BUTTON",
      "icon": "",
      "groupName": "",
      "confirmDialogTitle": "",
      "confirmDialogContent": ""
    },
    "keepModifierOutSight": false,
    "intee": {
      "triggerRadius": 1.0,
      "KAMIAMNMFCP": ""
    },
    "lowPriorityIntee": true
  },
  "SceneObj_Homeworld_Exterior_Ly_Lamp_Build_ScoringShelf_01": {
    "$type": "CJKJIENLOHD",
    "globalValue": {
      "serverGlobalValues": [
        "SGV_ScoringShelf_01"
      ],
      "initServerGlobalValues": {
        "SGV_ScoringShelf_01": 0.0
      }
    },
    "hasModel": true,
    "combat": {
      "property": {
        "hp": 99999.0,
        "isLockHP": true,
        "ignoreDamageToSelf": true
      }
    },
    "combatTemplate": "",
    "abilities": [
      {
        "abilityID": "Ability_01",
        "abilityName": "SceneObj_Homeworld_Exterior_Ly_Lamp_Build_ScoringShelf_01_Ability",
        "abilityOverride": ""
      }
    ]
  },
  "SceneObj_Homeworld_Exterior_Ly_Thing_Build_Scoringpedal_01": {
    "$type": "CJKJIENLOHD",
    "hasModel": true,
    "combat": {
      "property": {
        "hp": 99999.0,
        "isInvincible": true,
        "isLockHP": true,
        "isGhostToAllied": true,
        "isGhostToEnemy": true
      },
      "combatLock": {
        "lockShape": "CircleLockEnemy",
        "denyLockOn": true,
        "lockType": "Default"
      }
    },
    "combatTemplate": "",
    "abilities": [
      {
        "abilityID": "Ability_01",
        "abilityName": "SceneObj_Homeworld_Exterior_Ly_Thing_Build_Scoringpedal_01_Green",
        "abilityOverride": ""
      },
      {
        "abilityID": "Ability_02",
        "abilityName": "SceneObj_Homeworld_Exterior_Ly_Thing_Build_Scoringpedal_01_Ability",
        "abilityOverride": ""
      },
      {
        "abilityID": "Ability_03",
        "abilityName": "Scene_RockGadget_Summon_Detect",
        "abilityOverride": ""
      }
    ],
    "field": {
      "shape": "",
      "fromShape": "",
      "triggerInfinite": true,
      "lifeInfinite": true,
      "overwriteCampType": true,
      "campType": "All",
      "colliderName": "",
      "fromColliderName": ""
    }
  },
  "SceneObj_Homeworld_Exterior_Ly_Thing_Build_Scoringpedal_02": {
    "$type": "CJKJIENLOHD",
    "hasModel": true,
    "combat": {
      "property": {
        "hp": 99999.0,
        "isInvincible": true,
        "isLockHP": true,
        "isGhostToAllied": true,
        "isGhostToEnemy": true
      },
      "combatLock": {
        "lockShape": "CircleLockEnemy",
        "denyLockOn": true,
        "lockType": "Default"
      }
    },
    "combatTemplate": "",
    "abilities": [
      {
        "abilityID": "Ability_03",
        "abilityName": "SceneObj_Homeworld_Exterior_Ly_Thing_Build_Scoringpedal_01_Blue",
        "abilityOverride": ""
      },
      {
        "abilityID": "Ability_01",
        "abilityName": "SceneObj_Homeworld_Exterior_Ly_Thing_Build_Scoringpedal_01_Ability",
        "abilityOverride": ""
      },
      {
        "abilityID": "Ability_02",
        "abilityName": "Scene_RockGadget_Summon_Detect",
        "abilityOverride": ""
      }
    ],
    "field": {
      "concernType": "CombatExcludeGWGO",
      "shape": "",
      "fromShape": "",
      "triggerInfinite": true,
      "lifeInfinite": true,
      "overwriteCampType": true,
      "campType": "All",
      "colliderName": "",
      "fromColliderName": ""
    }
  },
  "SceneObj_Homeworld_Exterior_Ly_Thing_Build_Scoringpedal_03": {
    "$type": "CJKJIENLOHD",
    "hasModel": true,
    "combat": {
      "property": {
        "hp": 99999.0,
        "isInvincible": true,
        "isLockHP": true,
        "isGhostToAllied": true,
        "isGhostToEnemy": true
      },
      "combatLock": {
        "lockShape": "CircleLockEnemy",
        "denyLockOn": true,
        "lockType": "Default"
      }
    },
    "combatTemplate": "",
    "abilities": [
      {
        "abilityID": "Ability_03",
        "abilityName": "SceneObj_Homeworld_Exterior_Ly_Thing_Build_Scoringpedal_01_Yellow",
        "abilityOverride": ""
      },
      {
        "abilityID": "Ability_01",
        "abilityName": "SceneObj_Homeworld_Exterior_Ly_Thing_Build_Scoringpedal_01_Ability",
        "abilityOverride": ""
      },
      {
        "abilityID": "Ability_02",
        "abilityName": "Scene_RockGadget_Summon_Detect",
        "abilityOverride": ""
      }
    ],
    "field": {
      "concernType": "CombatExcludeGWGO",
      "shape": "",
      "fromShape": "",
      "triggerInfinite": true,
      "lifeInfinite": true,
      "overwriteCampType": true,
      "campType": "All",
      "colliderName": "",
      "fromColliderName": ""
    }
  },
  "SceneObj_Homeworld_Exterior_Ly_Thing_Build_Scoringpedal_04": {
    "$type": "CJKJIENLOHD",
    "hasModel": true,
    "combat": {
      "property": {
        "hp": 99999.0,
        "isInvincible": true,
        "isLockHP": true,
        "isGhostToAllied": true,
        "isGhostToEnemy": true
      },
      "combatLock": {
        "lockShape": "CircleLockEnemy",
        "denyLockOn": true,
        "lockType": "Default"
      }
    },
    "combatTemplate": "",
    "abilities": [
      {
        "abilityID": "Ability_03",
        "abilityName": "SceneObj_Homeworld_Exterior_Ly_Thing_Build_Scoringpedal_01_Red",
        "abilityOverride": ""
      },
      {
        "abilityID": "Ability_01",
        "abilityName": "SceneObj_Homeworld_Exterior_Ly_Thing_Build_Scoringpedal_01_Ability",
        "abilityOverride": ""
      },
      {
        "abilityID": "Ability_02",
        "abilityName": "Scene_RockGadget_Summon_Detect",
        "abilityOverride": ""
      }
    ],
    "field": {
      "concernType": "CombatExcludeGWGO",
      "shape": "",
      "fromShape": "",
      "triggerInfinite": true,
      "lifeInfinite": true,
      "overwriteCampType": true,
      "campType": "All",
      "colliderName": "",
      "fromColliderName": ""
    }
  },
  "SceneObj_Homeworld_Exterior_Common_Thing_Prop_BalloonBoard_01": {
    "$type": "CJKJIENLOHD",
    "hasModel": true,
    "combat": {
      "property": {
        "hp": 99999.0,
        "isInvincible": true,
        "isLockHP": true,
        "isGhostToAllied": true,
        "isGhostToEnemy": true
      },
      "combatLock": {
        "lockShape": "CircleLockEnemy",
        "denyLockOn": true,
        "lockType": "Default"
      }
    },
    "combatTemplate": "",
    "uiInteract": {
      "gadgetUIBtnCfgPath": "TEST/TEST_Chest_Btn",
      "uiName": "UI_HOMEWORLD_BALLOON_CHALLENGE_BUTTON",
      "onTouch": "GeneralUIInteract",
      "touchParams": [
        "1"
      ],
      "icon": "UI_Icon_Intee_Mechanism",
      "groupName": "",
      "confirmDialogTitle": "",
      "confirmDialogContent": "",
      "gadgetUIExtraItems": [
        {
          "gadgetUIBtnCfgPath": "UI/open_homeworld_balloon_check",
          "uiName": "UI_HOMEWORLD_BALLOON_CHECK_BUTTON",
          "icon": "UI_Icon_Intee_Mechanism",
          "groupName": "",
          "confirmDialogTitle": "",
          "confirmDialogContent": "",
          "extraId": 2
        }
      ]
    },
    "gadgetAction": {
      "gadgetStateActionList": [
        {
          "$type": "DEMJBAICBKO",
          "triggerID": "GearStart"
        },
        {
          "$type": "DEMJBAICBKO",
          "enable": true
        }
      ]
    },
    "intee": {
      "triggerRadius": 1.0,
      "triggerHeight": 4.0,
      "KAMIAMNMFCP": ""
    }
  },
  "SceneObj_Homeworld_Exterior_Common_Thing_Prop_BalloonArea_01": {
    "$type": "CJKJIENLOHD",
    "hasModel": true,
    "combat": {
      "property": {
        "hp": 99999.0,
        "isInvincible": true,
        "isLockHP": true,
        "isGhostToAllied": true,
        "isGhostToEnemy": true
      },
      "combatLock": {
        "lockShape": "CircleLockEnemy",
        "denyLockOn": true,
        "lockType": "Default"
      }
    },
    "combatTemplate": "",
    "abilities": [
      {
        "abilityID": "SceneObj_Homeworld_Exterior_Common_Thing_Prop_BalloonArea_01",
        "abilityName": "SceneObj_Homeworld_Exterior_Common_Thing_Prop_BalloonArea_01",
        "abilityOverride": ""
      },
      {
        "abilityID": "Ability_02",
        "abilityName": "Scene_RockGadget_Summon_Detect",
        "abilityOverride": ""
      }
    ]
  },
  "SceneObj_Homeworld_Exterior_Common_Thing_Prop_BalloonLow_01": {
    "$type": "CJKJIENLOHD",
    "common": {
      "disableTickDistance": 100000.0
    },
    "combat": {
      "property": {
        "hp": 10.0,
        "attack": 80.0,
        "weight": 80.0,
        "isLockHP": true
      },
      "beHit": {
        "hitBloodEffect": "",
        "hitAutoRedirect": false,
        "muteAllHitText": true
      },
      "combatLock": {
        "lockShape": "CircleLockEnemy",
        "denyLockOn": true,
        "lockType": "Default"
      }
    },
    "combatTemplate": "",
    "abilities": [
      {
        "abilityID": "SceneObj_Homeworld_Exterior_Common_Thing_Prop_BalloonLow_01",
        "abilityName": "SceneObj_Homeworld_Exterior_Common_Thing_Prop_BalloonLow_01",
        "abilityOverride": ""
      }
    ],
    "timer": {
      "lifeTime": 20.0
    }
  },
  "SceneObj_Homeworld_Exterior_Common_Thing_Prop_BalloonHigh_01": {
    "$type": "CJKJIENLOHD",
    "common": {
      "disableTickDistance": 100000.0
    },
    "combat": {
      "property": {
        "hp": 10.0,
        "attack": 80.0,
        "weight": 80.0,
        "isLockHP": true
      },
      "beHit": {
        "hitBloodEffect": "",
        "hitAutoRedirect": false,
        "muteAllHitText": true
      },
      "combatLock": {
        "lockShape": "CircleLockEnemy",
        "denyLockOn": true,
        "lockType": "Default"
      }
    },
    "combatTemplate": "",
    "abilities": [
      {
        "abilityID": "SceneObj_Homeworld_Exterior_Common_Thing_Prop_BalloonHigh_01",
        "abilityName": "SceneObj_Homeworld_Exterior_Common_Thing_Prop_BalloonHigh_01",
        "abilityOverride": ""
      }
    ],
    "timer": {
      "lifeTime": 20.0
    }
  },
  "SceneObj_Homeworld_Exterior_Common_Thing_Prop_WoodenBoard_01": {
    "$type": "CJKJIENLOHD",
    "hasModel": true,
    "combat": {
      "property": {
        "hp": 99999.0,
        "isInvincible": true,
        "isLockHP": true,
        "isGhostToAllied": true,
        "isGhostToEnemy": true
      },
      "combatLock": {
        "lockShape": "CircleLockEnemy",
        "denyLockOn": true,
        "lockType": "Default"
      }
    },
    "combatTemplate": "",
    "uiInteract": {
      "gadgetUIBtnCfgPath": "UI/open_homeworld_balloon_check",
      "uiName": "UI_HOMEWORLD_BALLOON_CHECK_BUTTON",
      "icon": "",
      "groupName": "",
      "confirmDialogTitle": "",
      "confirmDialogContent": ""
    },
    "gadgetAction": {
      "gadgetStateActionList": [
        {
          "$type": "DEMJBAICBKO",
          "triggerID": "GearStart"
        },
        {
          "$type": "DEMJBAICBKO",
          "enable": true
        }
      ]
    },
    "intee": {
      "triggerRadius": 1.0,
      "triggerHeight": 4.0,
      "KAMIAMNMFCP": ""
    }
  },
  "SceneObj_Homeworld_Exterior_Common_Thing_Prop_WoodenStake_01": {
    "$type": "CJKJIENLOHD",
    "combat": {
      "property": {
        "hp": 12.0,
        "attack": 80.0,
        "weight": 80.0
      },
      "beHit": {
        "hitBloodEffect": "Eff_SceneObj_Homeworld_WoodenStake_01_Hit",
        "hitAutoRedirect": false,
        "muteAllHitText": true
      },
      "combatLock": {
        "lockShape": "CircleLockEnemy",
        "denyLockOn": true,
        "lockType": "Default"
      },
      "die": {
        "dieEndTime": 0.10000000149011612,
        "dieForceDisappearTime": 0.20000000298023224,
        "dieDisappearEffect": "Eff_SceneObj_Homeworld_WoodenStake_01_Destroy"
      }
    },
    "combatTemplate": "",
    "abilities": [
      {
        "abilityID": "SceneObj_Homeworld_Exterior_Common_Thing_Prop_WoodenStake_01",
        "abilityName": "SceneObj_Homeworld_Exterior_Common_Thing_Prop_WoodenStake_01",
        "abilityOverride": ""
      }
    ]
  }
}