{
  "Fungus_Trois_Ice_Bullet": {
    "$type": "CJKJIENLOHD",
    "common": {
      "effectAttachShape": {
        "$type": "OMIODKONOMG",
        "scaleX": 0.5,
        "scaleY": 0.5
      }
    },
    "combat": {
      "property": {
        "useCreatorProperty": true,
        "isInvincible": true,
        "canTriggerBullet": false
      },
      "combatLock": {
        "lockShape": "CircleLockEnemy",
        "denyLockOn": true,
        "lockType": "Default"
      }
    },
    "combatTemplate": "",
    "abilities": [
      {
        "abilityID": "Damage",
        "abilityName": "Fungus_Trois_BVB_Ice_Bullet",
        "abilityOverride": ""
      }
    ],
    "timer": {
      "lifeTime": 1.7999999523162842
    },
    "move": {
      "$type": "GONNMCBKAOC",
      "velocityForce": {
        "excludeForces": [
          "WindZoneType",
          "AirflowType"
        ]
      },
      "speed": 25.0,
      "maxSpeed": 50.0,
      "acceleration": 20.0,
      "accelerationTime": 0.20000000298023224,
      "DPAAFHNMHHN": {
        "$type": "IFAANDLLGLP"
      }
    },
    "gadget": {
      "$type": "JENBBNKGGJP",
      "collision": {
        "triggerType": "TriggerNoRepeat",
        "targetType": "Enemy",
        "ignoreScene": true
      },
      "triggerActions": [
        {
          "$type": "HILFMFBKIKF",
          "attackInfo": {
            "attackTag": "",
            "attenuationTag": "",
            "attenuationGroup": "default",
            "attackProperty": {
              "actorGrassSubHurtDelta": 11.539999961853027,
              "actorWindSubHurtDelta": 0.0,
              "elementType": "Ice",
              "IPFJJJGABPL": 100.0,
              "enBreak": 200.0,
              "GLKMCMDJBIK": 0.0
            },
            "hitPattern": {
              "onHitEffectName": "default",
              "hitImpulseY": "",
              "hitImpulseType": "LV4"
            },
            "canBeModifiedBy": "Owner"
          }
        }
      ]
    }
  },
  "Fungus_Trois_Ice_BlizzardPoint": {
    "$type": "CJKJIENLOHD",
    "combat": {
      "property": {
        "useCreatorProperty": true,
        "isInvincible": true,
        "isGhostToEnemy": true,
        "canTriggerBullet": false
      },
      "combatLock": {
        "lockShape": "CircleLockEnemy",
        "denyLockOn": true,
        "lockType": "Default"
      }
    },
    "combatTemplate": "",
    "abilities": [
      {
        "abilityID": "",
        "abilityName": "Fungus_Trois_BVB_Ice_Blizzard_Gadget",
        "abilityOverride": ""
      }
    ],
    "timer": {
      "lifeTime": 7.0
    }
  },
  "Fungus_Deux_Wind_Bullet": {
    "$type": "CJKJIENLOHD",
    "common": {
      "effectAttachShape": {
        "$type": "OMIODKONOMG",
        "scaleZ": 0.4000000059604645
      }
    },
    "combat": {
      "property": {
        "useCreatorProperty": true,
        "isInvincible": true,
        "canTriggerBullet": false
      },
      "combatLock": {
        "lockShape": "CircleLockEnemy",
        "denyLockOn": true,
        "lockType": "Default"
      }
    },
    "combatTemplate": "",
    "abilities": [
      {
        "abilityID": "",
        "abilityName": "Fungus_Deux_BVB_Wind_Bullet",
        "abilityOverride": ""
      }
    ],
    "timer": {
      "lifeTime": 4.0
    },
    "move": {
      "$type": "GMOHNHFHLAO",
      "speed": 10.0,
      "anglerVelocity": 240.0,
      "DPAAFHNMHHN": {
        "$type": "IFAANDLLGLP"
      },
      "traceOnYAxis": true
    },
    "gadget": {
      "$type": "JENBBNKGGJP",
      "collision": {
        "targetType": "Enemy"
      },
      "triggerActions": [
        {
          "$type": "AILPBJHDHDG",
          "abilityName": "Fungus_Deux_BVB_Wind_Bullet"
        }
      ]
    }
  },
  "Fungus_Deux_Wind_OverdoseBullet": {
    "$type": "CJKJIENLOHD",
    "common": {
      "effectAttachShape": {
        "$type": "OMIODKONOMG",
        "scaleZ": 0.4000000059604645
      }
    },
    "combat": {
      "property": {
        "useCreatorProperty": true,
        "isInvincible": true,
        "canTriggerBullet": false
      },
      "combatLock": {
        "lockShape": "CircleLockEnemy",
        "denyLockOn": true,
        "lockType": "Default"
      }
    },
    "combatTemplate": "",
    "abilities": [
      {
        "abilityID": "",
        "abilityName": "Fungus_Deux_BVB_Wind_OverdoseBullet",
        "abilityOverride": ""
      }
    ],
    "timer": {
      "lifeTime": 6.0
    },
    "move": {
      "$type": "DMLAFKAOGID",
      "speed": 15.0,
      "minSpeed": 5.0,
      "anglerVelocity": 360.0,
      "acceleration": -30.0,
      "accelerationTime": 0.699999988079071,
      "DPAAFHNMHHN": {
        "$type": "IFAANDLLGLP"
      },
      "guidanceDelay": 0.3499999940395355,
      "guidanceMinAnglerVelocity": 360.0,
      "guidanceDuration": 6.0
    },
    "gadget": {
      "$type": "JENBBNKGGJP",
      "collision": {
        "targetType": "Enemy",
        "ignoreScene": true
      },
      "triggerActions": [
        {
          "$type": "AILPBJHDHDG",
          "abilityName": "Fungus_Deux_BVB_Wind_OverdoseBullet"
        }
      ]
    }
  },
  "Fungus_Deux_Wind_HealingWavePoint": {
    "$type": "CJKJIENLOHD",
    "common": {
      "effectAttachShape": {
        "$type": "OMIODKONOMG",
        "scaleX": 0.5,
        "scaleY": 0.5
      }
    },
    "combat": {
      "property": {
        "useCreatorProperty": true,
        "isInvincible": true,
        "canTriggerBullet": false
      },
      "combatLock": {
        "lockShape": "CircleLockEnemy",
        "denyLockOn": true,
        "lockType": "Default"
      }
    },
    "combatTemplate": "",
    "abilities": [
      {
        "abilityID": "",
        "abilityName": "Fungus_Deux_BVB_HealingWaving_Gadget",
        "abilityOverride": ""
      }
    ],
    "timer": {
      "lifeTime": 7.0
    }
  },
  "Fungus_Un_Wind_Bullet": {
    "$type": "CJKJIENLOHD",
    "common": {
      "effectAttachShape": {
        "$type": "OMIODKONOMG",
        "scaleZ": 0.4000000059604645
      }
    },
    "combat": {
      "property": {
        "useCreatorProperty": true,
        "isInvincible": true,
        "canTriggerBullet": false
      },
      "combatLock": {
        "lockShape": "CircleLockEnemy",
        "denyLockOn": true,
        "lockType": "Default"
      }
    },
    "combatTemplate": "",
    "abilities": [
      {
        "abilityID": "",
        "abilityName": "Fungus_Un_BVB_Wind_Bullet",
        "abilityOverride": ""
      }
    ],
    "timer": {
      "lifeTime": 4.0
    },
    "move": {
      "$type": "GMOHNHFHLAO",
      "speed": 7.5,
      "anglerVelocity": 210.0,
      "DPAAFHNMHHN": {
        "$type": "IFAANDLLGLP"
      },
      "traceOnYAxis": true
    },
    "gadget": {
      "$type": "JENBBNKGGJP",
      "collision": {
        "targetType": "Enemy"
      },
      "triggerActions": [
        {
          "$type": "AILPBJHDHDG",
          "abilityName": "Fungus_Un_BVB_Wind_Bullet"
        }
      ]
    }
  },
  "Fungus_Un_WindImpact_Bullet": {
    "$type": "CJKJIENLOHD",
    "common": {
      "effectAttachShape": {
        "$type": "OMIODKONOMG",
        "scaleZ": 0.4000000059604645
      }
    },
    "combat": {
      "property": {
        "useCreatorProperty": true,
        "isInvincible": true,
        "canTriggerBullet": false
      },
      "combatLock": {
        "lockShape": "CircleLockEnemy",
        "denyLockOn": true,
        "lockType": "Default"
      }
    },
    "combatTemplate": "",
    "abilities": [
      {
        "abilityID": "",
        "abilityName": "Fungus_Un_BVB_Wind_WindImpact_Bullet",
        "abilityOverride": ""
      }
    ],
    "timer": {
      "lifeTime": 5.5
    },
    "move": {
      "$type": "GMOHNHFHLAO",
      "speed": 15.0,
      "anglerVelocity": 400.0,
      "DPAAFHNMHHN": {
        "$type": "IFAANDLLGLP"
      },
      "traceOnYAxis": true
    },
    "gadget": {
      "$type": "JENBBNKGGJP",
      "collision": {
        "targetType": "Enemy"
      },
      "colliderCheckOnInit": false,
      "triggerActions": [
        {
          "$type": "AILPBJHDHDG",
          "abilityName": "Fungus_Un_BVB_Wind_WindImpact_Bullet"
        }
      ],
      "enableCollisionDelay": 0.30000001192092896,
      "resetLastPosOnDelayEnd": true,
      "reTriggerOnDelayEnd": true
    }
  },
  "Fungus_Un_WindImpact_Point": {
    "$type": "CJKJIENLOHD",
    "common": {
      "effectAttachShape": {
        "$type": "OMIODKONOMG",
        "scaleX": 0.5,
        "scaleY": 0.5
      }
    },
    "combat": {
      "property": {
        "useCreatorProperty": true,
        "isInvincible": true,
        "canTriggerBullet": false
      },
      "combatLock": {
        "lockShape": "CircleLockEnemy",
        "denyLockOn": true,
        "lockType": "Default"
      }
    },
    "combatTemplate": "",
    "abilities": [
      {
        "abilityID": "",
        "abilityName": "Fungus_Un_BVB_Wind_WindImpact_Gadget",
        "abilityOverride": ""
      }
    ],
    "timer": {
      "lifeTime": 4.5
    }
  },
  "Fungus_Un_WindZone_Point": {
    "$type": "CJKJIENLOHD",
    "common": {
      "effectAttachShape": {
        "$type": "OMIODKONOMG",
        "scaleX": 0.5,
        "scaleY": 0.5
      }
    },
    "combat": {
      "property": {
        "useCreatorProperty": true,
        "isInvincible": true,
        "canTriggerBullet": false
      },
      "combatLock": {
        "lockShape": "CircleLockEnemy",
        "denyLockOn": true,
        "lockType": "Default"
      }
    },
    "combatTemplate": "",
    "abilities": [
      {
        "abilityID": "",
        "abilityName": "Fungus_Un_BVB_Wind_WindZone_Gadget",
        "abilityOverride": ""
      }
    ],
    "timer": {
      "lifeTime": 5.5
    }
  },
  "Fungus_Deux_Fire_Bullet": {
    "$type": "CJKJIENLOHD",
    "common": {
      "effectAttachShape": {
        "$type": "OMIODKONOMG",
        "scaleX": 0.5,
        "scaleY": 0.5
      }
    },
    "combat": {
      "property": {
        "useCreatorProperty": true,
        "isInvincible": true,
        "canTriggerBullet": false
      },
      "combatLock": {
        "lockShape": "CircleLockEnemy",
        "denyLockOn": true,
        "lockType": "Default"
      }
    },
    "combatTemplate": "",
    "abilities": [
      {
        "abilityID": "",
        "abilityName": "Fungus_Deux_BVB_Fire_FlameFountain_Gadget",
        "abilityOverride": ""
      }
    ],
    "timer": {
      "lifeTime": 4.199999809265137
    }
  },
  "Fungus_Deux_Fire_UBPoint": {
    "$type": "CJKJIENLOHD",
    "common": {
      "effectAttachShape": {
        "$type": "OMIODKONOMG",
        "scaleX": 0.5,
        "scaleY": 0.5
      }
    },
    "combat": {
      "property": {
        "useCreatorProperty": true,
        "isInvincible": true,
        "canTriggerBullet": false
      },
      "combatLock": {
        "lockShape": "CircleLockEnemy",
        "denyLockOn": true,
        "lockType": "Default"
      }
    },
    "combatTemplate": "",
    "abilities": [
      {
        "abilityID": "",
        "abilityName": "Fungus_Deux_BVB_Fire_FireBomb_Gadget",
        "abilityOverride": ""
      }
    ],
    "timer": {
      "lifeTime": 5.0
    }
  },
  "Fungus_Un_Water_Bullet": {
    "$type": "CJKJIENLOHD",
    "common": {
      "effectAttachShape": {
        "$type": "OMIODKONOMG",
        "scaleZ": 0.4000000059604645
      }
    },
    "combat": {
      "property": {
        "useCreatorProperty": true,
        "isInvincible": true,
        "canTriggerBullet": false
      },
      "combatLock": {
        "lockShape": "CircleLockEnemy",
        "denyLockOn": true,
        "lockType": "Default"
      }
    },
    "combatTemplate": "",
    "abilities": [
      {
        "abilityID": "",
        "abilityName": "Fungus_Un_BVB_Water_Bullet",
        "abilityOverride": ""
      }
    ],
    "timer": {
      "lifeTime": 5.0
    },
    "move": {
      "$type": "GMOHNHFHLAO",
      "speed": 9.0,
      "anglerVelocity": 270.0,
      "DPAAFHNMHHN": {
        "$type": "IFAANDLLGLP"
      },
      "traceOnYAxis": true
    },
    "gadget": {
      "$type": "JENBBNKGGJP",
      "collision": {
        "targetType": "Enemy"
      },
      "colliderCheckOnInit": false,
      "triggerActions": [
        {
          "$type": "AILPBJHDHDG",
          "abilityName": "Fungus_Un_BVB_Water_Bullet"
        }
      ],
      "enableCollisionDelay": 0.30000001192092896,
      "resetLastPosOnDelayEnd": true,
      "reTriggerOnDelayEnd": true
    }
  },
  "Fungus_Un_Water_Bubble": {
    "$type": "CJKJIENLOHD",
    "common": {
      "effectAttachShape": {
        "$type": "OMIODKONOMG",
        "scaleZ": 0.4000000059604645
      }
    },
    "combat": {
      "property": {
        "useCreatorProperty": true,
        "isInvincible": true,
        "canTriggerBullet": false
      },
      "combatLock": {
        "lockShape": "CircleLockEnemy",
        "denyLockOn": true,
        "lockType": "Default"
      }
    },
    "combatTemplate": "",
    "abilities": [
      {
        "abilityID": "",
        "abilityName": "Fungus_Un_BVB_Water_Bubble_Surrounding",
        "abilityOverride": ""
      },
      {
        "abilityID": "",
        "abilityName": "Fungus_Un_BVB_Water_Bubble",
        "abilityOverride": ""
      }
    ],
    "timer": {
      "lifeTime": 8.0
    },
    "move": {
      "$type": "GMOHNHFHLAO",
      "speed": 4.0,
      "anglerVelocity": 120.0,
      "DPAAFHNMHHN": {
        "$type": "IFAANDLLGLP"
      },
      "traceOnYAxis": true
    },
    "gadget": {
      "$type": "JENBBNKGGJP",
      "collision": {
        "targetType": "Enemy"
      },
      "triggerActions": [
        {
          "$type": "AILPBJHDHDG",
          "abilityName": "Fungus_Un_BVB_Water_Bubble"
        },
        {
          "$type": "AILPBJHDHDG",
          "abilityName": "Fungus_Un_BVB_Water_Bubble_Surrounding"
        }
      ]
    }
  },
  "Fungus_Un_Water_UBPoint": {
    "$type": "CJKJIENLOHD",
    "combat": {
      "property": {
        "useCreatorProperty": true,
        "isInvincible": true,
        "isGhostToEnemy": true,
        "canTriggerBullet": false
      },
      "combatLock": {
        "lockShape": "CircleLockEnemy",
        "denyLockOn": true,
        "lockType": "Default"
      }
    },
    "combatTemplate": "",
    "abilities": [
      {
        "abilityID": "",
        "abilityName": "Fungus_Un_BVB_Water_SprayBlooming_Gadget",
        "abilityOverride": ""
      }
    ],
    "timer": {
      "lifeTime": 3.0
    }
  },
  "Fungus_Un_Water_SuperWaterBullet": {
    "$type": "CJKJIENLOHD",
    "common": {
      "effectAttachShape": {
        "$type": "OMIODKONOMG",
        "scaleZ": 0.4000000059604645
      }
    },
    "combat": {
      "property": {
        "useCreatorProperty": true,
        "isInvincible": true,
        "canTriggerBullet": false
      },
      "combatLock": {
        "lockShape": "CircleLockEnemy",
        "denyLockOn": true,
        "lockType": "Default"
      }
    },
    "combatTemplate": "",
    "abilities": [
      {
        "abilityID": "",
        "abilityName": "Fungus_Un_BVB_Water_SuperWaterBullet",
        "abilityOverride": ""
      }
    ],
    "timer": {
      "lifeTime": 5.0
    },
    "move": {
      "$type": "GMOHNHFHLAO",
      "speed": 9.0,
      "anglerVelocity": 270.0,
      "DPAAFHNMHHN": {
        "$type": "IFAANDLLGLP"
      },
      "traceOnYAxis": true
    },
    "gadget": {
      "$type": "JENBBNKGGJP",
      "collision": {
        "targetType": "Enemy"
      },
      "colliderCheckOnInit": false,
      "triggerActions": [
        {
          "$type": "AILPBJHDHDG",
          "abilityName": "Fungus_Un_BVB_Water_SuperWaterBullet"
        }
      ],
      "enableCollisionDelay": 0.30000001192092896,
      "resetLastPosOnDelayEnd": true,
      "reTriggerOnDelayEnd": true
    }
  },
  "Fungus_Deux_Electro_Bullet": {
    "$type": "CJKJIENLOHD",
    "common": {
      "effectAttachShape": {
        "$type": "OMIODKONOMG",
        "scaleZ": 0.4000000059604645
      }
    },
    "combat": {
      "property": {
        "useCreatorProperty": true,
        "isInvincible": true,
        "canTriggerBullet": false
      },
      "combatLock": {
        "lockShape": "CircleLockEnemy",
        "denyLockOn": true,
        "lockType": "Default"
      }
    },
    "combatTemplate": "",
    "abilities": [
      {
        "abilityID": "",
        "abilityName": "Fungus_Deux_BVB_Electro_Bullet",
        "abilityOverride": ""
      }
    ],
    "timer": {
      "lifeTime": 4.0
    },
    "move": {
      "$type": "GMOHNHFHLAO",
      "speed": 6.599999904632568,
      "maxSpeed": 10.0,
      "anglerVelocity": 240.0,
      "acceleration": 1.0,
      "accelerationTime": 4.0,
      "DPAAFHNMHHN": {
        "$type": "IFAANDLLGLP"
      },
      "traceOnYAxis": true
    },
    "gadget": {
      "$type": "JENBBNKGGJP",
      "collision": {
        "targetType": "Enemy"
      },
      "triggerActions": [
        {
          "$type": "AILPBJHDHDG",
          "abilityName": "Fungus_Deux_BVB_Electro_Bullet"
        }
      ]
    }
  },
  "Fungus_Deux_Electro_ThunderPoint": {
    "$type": "CJKJIENLOHD",
    "combat": {
      "property": {
        "useCreatorProperty": true,
        "isInvincible": true,
        "isGhostToEnemy": true,
        "canTriggerBullet": false
      },
      "combatLock": {
        "lockShape": "CircleLockEnemy",
        "denyLockOn": true,
        "lockType": "Default"
      }
    },
    "combatTemplate": "",
    "abilities": [
      {
        "abilityID": "",
        "abilityName": "Fungus_Deux_BVB_Electro_ThunderStrike_Gadget",
        "abilityOverride": ""
      }
    ],
    "timer": {
      "lifeTime": 1.0
    }
  },
  "Fungus_Un_Dendro_Bullet": {
    "$type": "CJKJIENLOHD",
    "common": {
      "effectAttachShape": {
        "$type": "OMIODKONOMG",
        "scaleZ": 0.4000000059604645
      }
    },
    "combat": {
      "property": {
        "useCreatorProperty": true,
        "isInvincible": true,
        "canTriggerBullet": false
      },
      "combatLock": {
        "lockShape": "CircleLockEnemy",
        "denyLockOn": true,
        "lockType": "Default"
      }
    },
    "combatTemplate": "",
    "abilities": [
      {
        "abilityID": "",
        "abilityName": "Fungus_Un_BVB_Dendro_Bullet",
        "abilityOverride": ""
      }
    ],
    "timer": {
      "lifeTime": 4.0
    },
    "move": {
      "$type": "BFDBCCCADKH",
      "speed": 13.0,
      "DPAAFHNMHHN": {
        "$type": "IFAANDLLGLP"
      },
      "angleOffHor": 12.0,
      "gravityOfAcceleration": 16.5,
      "correction": {
        "$type": "FEHDIANJKBF",
        "deviation": 0.20000000298023224,
        "fixAngleOfVer": 15.0,
        "minSpeed": 2.0
      },
      "GEBCKKDCGDP": "",
      "NKPHOKHJKGC": ""
    },
    "gadget": {
      "$type": "JENBBNKGGJP",
      "collision": {
        "targetType": "Enemy"
      },
      "colliderCheckOnInit": false,
      "triggerActions": [
        {
          "$type": "AILPBJHDHDG",
          "abilityName": "Fungus_Un_BVB_Dendro_Bullet"
        }
      ],
      "killByOther": true,
      "enableCollisionDelay": 0.15000000596046448,
      "resetLastPosOnDelayEnd": true,
      "reTriggerOnDelayEnd": true
    }
  },
  "Fungus_Un_Dendro_Bullet_UB": {
    "$type": "CJKJIENLOHD",
    "common": {
      "effectAttachShape": {
        "$type": "OMIODKONOMG",
        "scaleZ": 0.4000000059604645
      }
    },
    "combat": {
      "property": {
        "useCreatorProperty": true,
        "isInvincible": true,
        "canTriggerBullet": false
      },
      "combatLock": {
        "lockShape": "CircleLockEnemy",
        "denyLockOn": true,
        "lockType": "Default"
      }
    },
    "combatTemplate": "",
    "abilities": [
      {
        "abilityID": "",
        "abilityName": "Fungus_Un_BVB_Dendro_Bullet_UB",
        "abilityOverride": ""
      }
    ],
    "timer": {
      "lifeTime": 4.0
    },
    "move": {
      "$type": "BFDBCCCADKH",
      "speed": 13.0,
      "DPAAFHNMHHN": {
        "$type": "IFAANDLLGLP"
      },
      "angleOffHor": 12.0,
      "gravityOfAcceleration": 16.5,
      "correction": {
        "$type": "FEHDIANJKBF",
        "deviation": 0.20000000298023224,
        "fixAngleOfVer": 15.0,
        "minSpeed": 2.0
      },
      "GEBCKKDCGDP": "",
      "NKPHOKHJKGC": ""
    },
    "gadget": {
      "$type": "JENBBNKGGJP",
      "collision": {
        "targetType": "Enemy"
      },
      "colliderCheckOnInit": false,
      "triggerActions": [
        {
          "$type": "AILPBJHDHDG",
          "abilityName": "Fungus_Un_BVB_Dendro_Bullet_UB"
        }
      ],
      "killByOther": true,
      "enableCollisionDelay": 0.15000000596046448,
      "resetLastPosOnDelayEnd": true,
      "reTriggerOnDelayEnd": true
    }
  },
  "Fungus_Un_Dendro_Plant": {
    "$type": "CJKJIENLOHD",
    "common": {
      "effectAttachShape": {
        "$type": "OMIODKONOMG",
        "scaleX": 0.5,
        "scaleY": 0.5
      }
    },
    "combat": {
      "property": {
        "useCreatorProperty": true,
        "isInvincible": true,
        "canTriggerBullet": false
      },
      "combatLock": {
        "lockShape": "CircleLockEnemy",
        "denyLockOn": true,
        "lockType": "Default"
      }
    },
    "combatTemplate": "",
    "timer": {
      "lifeTime": 9.0
    }
  }
}