{
  "SkillObj_Xingqiu_PhantomBurst1": {
    "$type": "CJKJIENLOHD",
    "common": {
      "effectAttachShape": {
        "$type": "OMIODKONOMG"
      }
    },
    "combat": {
      "property": {
        "useCreatorProperty": true,
        "isInvincible": true,
        "isGhostToAllied": true,
        "isGhostToEnemy": true,
        "canTriggerBullet": false
      },
      "beHit": {
        "hitBloodEffect": "",
        "muteAllHit": true,
        "muteAllHitEffect": true,
        "muteAllHitText": true
      },
      "combatLock": {
        "lockShape": "CircleLockEnemy",
        "denyLockOn": true,
        "lockType": "Default"
      }
    },
    "combatTemplate": "",
    "abilities": [
      {
        "abilityID": "SkillObj_Xingqiu_PhantomBurst1",
        "abilityName": "SkillObj_Xingqiu_PhantomBurst1",
        "abilityOverride": ""
      }
    ],
    "timer": {
      "lifeTime": 2.0
    },
    "move": {
      "$type": "GMOHNHFHLAO",
      "velocityForce": {
        "muteAll": true
      },
      "speed": 0.009999999776482582,
      "DPAAFHNMHHN": {
        "$type": "IFAANDLLGLP"
      },
      "traceOnYAxis": true
    }
  },
  "SkillObj_Xingqiu_PhantomBurst2": {
    "$type": "CJKJIENLOHD",
    "common": {
      "effectAttachShape": {
        "$type": "OMIODKONOMG"
      }
    },
    "combat": {
      "property": {
        "useCreatorProperty": true,
        "isInvincible": true,
        "isGhostToAllied": true,
        "isGhostToEnemy": true,
        "canTriggerBullet": false
      },
      "beHit": {
        "hitBloodEffect": "",
        "muteAllHit": true,
        "muteAllHitEffect": true,
        "muteAllHitText": true
      },
      "combatLock": {
        "lockShape": "CircleLockEnemy",
        "denyLockOn": true,
        "lockType": "Default"
      }
    },
    "combatTemplate": "",
    "abilities": [
      {
        "abilityID": "SkillObj_Xingqiu_PhantomBurst2",
        "abilityName": "SkillObj_Xingqiu_PhantomBurst2",
        "abilityOverride": ""
      }
    ],
    "timer": {
      "lifeTime": 2.0
    },
    "move": {
      "$type": "GMOHNHFHLAO",
      "velocityForce": {
        "muteAll": true
      },
      "speed": 0.009999999776482582,
      "DPAAFHNMHHN": {
        "$type": "IFAANDLLGLP"
      },
      "traceOnYAxis": true
    }
  },
  "SkillObj_Xingqiu_PhantomBurst3": {
    "$type": "CJKJIENLOHD",
    "common": {
      "effectAttachShape": {
        "$type": "OMIODKONOMG"
      }
    },
    "combat": {
      "property": {
        "useCreatorProperty": true,
        "isInvincible": true,
        "isGhostToAllied": true,
        "isGhostToEnemy": true,
        "canTriggerBullet": false
      },
      "beHit": {
        "hitBloodEffect": "",
        "muteAllHit": true,
        "muteAllHitEffect": true,
        "muteAllHitText": true
      },
      "combatLock": {
        "lockShape": "CircleLockEnemy",
        "denyLockOn": true,
        "lockType": "Default"
      }
    },
    "combatTemplate": "",
    "abilities": [
      {
        "abilityID": "SkillObj_Xingqiu_PhantomBurst3",
        "abilityName": "SkillObj_Xingqiu_PhantomBurst3",
        "abilityOverride": ""
      }
    ],
    "timer": {
      "lifeTime": 2.0
    },
    "move": {
      "$type": "GMOHNHFHLAO",
      "velocityForce": {
        "muteAll": true
      },
      "speed": 0.009999999776482582,
      "DPAAFHNMHHN": {
        "$type": "IFAANDLLGLP"
      },
      "traceOnYAxis": true
    }
  },
  "SkillObj_Xingqiu_PhantomBurstS1": {
    "$type": "CJKJIENLOHD",
    "common": {
      "effectAttachShape": {
        "$type": "OMIODKONOMG"
      }
    },
    "combat": {
      "property": {
        "useCreatorProperty": true,
        "isInvincible": true,
        "isGhostToAllied": true,
        "isGhostToEnemy": true,
        "canTriggerBullet": false
      },
      "beHit": {
        "hitBloodEffect": "",
        "muteAllHit": true,
        "muteAllHitEffect": true,
        "muteAllHitText": true
      },
      "combatLock": {
        "lockShape": "CircleLockEnemy",
        "denyLockOn": true,
        "lockType": "Default"
      }
    },
    "combatTemplate": "",
    "abilities": [
      {
        "abilityID": "SkillObj_Xingqiu_PhantomBurstS1",
        "abilityName": "SkillObj_Xingqiu_PhantomBurstS1",
        "abilityOverride": ""
      }
    ],
    "timer": {
      "lifeTime": 2.0
    },
    "move": {
      "$type": "GMOHNHFHLAO",
      "velocityForce": {
        "muteAll": true
      },
      "speed": 0.009999999776482582,
      "DPAAFHNMHHN": {
        "$type": "IFAANDLLGLP"
      },
      "traceOnYAxis": true
    }
  },
  "SkillObj_Xingqiu_PhantomBurstS2": {
    "$type": "CJKJIENLOHD",
    "common": {
      "effectAttachShape": {
        "$type": "OMIODKONOMG"
      }
    },
    "combat": {
      "property": {
        "useCreatorProperty": true,
        "isInvincible": true,
        "isGhostToAllied": true,
        "isGhostToEnemy": true,
        "canTriggerBullet": false
      },
      "beHit": {
        "hitBloodEffect": "",
        "muteAllHit": true,
        "muteAllHitEffect": true,
        "muteAllHitText": true
      },
      "combatLock": {
        "lockShape": "CircleLockEnemy",
        "denyLockOn": true,
        "lockType": "Default"
      }
    },
    "combatTemplate": "",
    "abilities": [
      {
        "abilityID": "SkillObj_Xingqiu_PhantomBurstS2",
        "abilityName": "SkillObj_Xingqiu_PhantomBurstS2",
        "abilityOverride": ""
      }
    ],
    "timer": {
      "lifeTime": 2.0
    },
    "move": {
      "$type": "GMOHNHFHLAO",
      "velocityForce": {
        "muteAll": true
      },
      "speed": 0.009999999776482582,
      "DPAAFHNMHHN": {
        "$type": "IFAANDLLGLP"
      },
      "traceOnYAxis": true
    }
  },
  "SkillObj_Xingqiu_PhantomBurstS3": {
    "$type": "CJKJIENLOHD",
    "common": {
      "effectAttachShape": {
        "$type": "OMIODKONOMG"
      }
    },
    "combat": {
      "property": {
        "useCreatorProperty": true,
        "isInvincible": true,
        "isGhostToAllied": true,
        "isGhostToEnemy": true,
        "canTriggerBullet": false
      },
      "beHit": {
        "hitBloodEffect": "",
        "muteAllHit": true,
        "muteAllHitEffect": true,
        "muteAllHitText": true
      },
      "combatLock": {
        "lockShape": "CircleLockEnemy",
        "denyLockOn": true,
        "lockType": "Default"
      }
    },
    "combatTemplate": "",
    "abilities": [
      {
        "abilityID": "SkillObj_Xingqiu_PhantomBurstS3",
        "abilityName": "SkillObj_Xingqiu_PhantomBurstS3",
        "abilityOverride": ""
      }
    ],
    "timer": {
      "lifeTime": 2.0
    },
    "move": {
      "$type": "GMOHNHFHLAO",
      "velocityForce": {
        "muteAll": true
      },
      "speed": 0.009999999776482582,
      "DPAAFHNMHHN": {
        "$type": "IFAANDLLGLP"
      },
      "traceOnYAxis": true
    }
  },
  "SkillObj_Xingqiu_PhantomBurstS4": {
    "$type": "CJKJIENLOHD",
    "common": {
      "effectAttachShape": {
        "$type": "OMIODKONOMG"
      }
    },
    "combat": {
      "property": {
        "useCreatorProperty": true,
        "isInvincible": true,
        "isGhostToAllied": true,
        "isGhostToEnemy": true,
        "canTriggerBullet": false
      },
      "beHit": {
        "hitBloodEffect": "",
        "muteAllHit": true,
        "muteAllHitEffect": true,
        "muteAllHitText": true
      },
      "combatLock": {
        "lockShape": "CircleLockEnemy",
        "denyLockOn": true,
        "lockType": "Default"
      }
    },
    "combatTemplate": "",
    "abilities": [
      {
        "abilityID": "SkillObj_Xingqiu_PhantomBurstS4",
        "abilityName": "SkillObj_Xingqiu_PhantomBurstS4",
        "abilityOverride": ""
      }
    ],
    "timer": {
      "lifeTime": 2.0
    },
    "move": {
      "$type": "GMOHNHFHLAO",
      "velocityForce": {
        "muteAll": true
      },
      "speed": 0.009999999776482582,
      "DPAAFHNMHHN": {
        "$type": "IFAANDLLGLP"
      },
      "traceOnYAxis": true
    }
  },
  "SkillObj_Xingqiu_PhantomBurstS5": {
    "$type": "CJKJIENLOHD",
    "common": {
      "effectAttachShape": {
        "$type": "OMIODKONOMG"
      }
    },
    "combat": {
      "property": {
        "useCreatorProperty": true,
        "isInvincible": true,
        "isGhostToAllied": true,
        "isGhostToEnemy": true,
        "canTriggerBullet": false
      },
      "beHit": {
        "hitBloodEffect": "",
        "muteAllHit": true,
        "muteAllHitEffect": true,
        "muteAllHitText": true
      },
      "combatLock": {
        "lockShape": "CircleLockEnemy",
        "denyLockOn": true,
        "lockType": "Default"
      }
    },
    "combatTemplate": "",
    "abilities": [
      {
        "abilityID": "SkillObj_Xingqiu_PhantomBurstS5",
        "abilityName": "SkillObj_Xingqiu_PhantomBurstS5",
        "abilityOverride": ""
      }
    ],
    "timer": {
      "lifeTime": 2.0
    },
    "move": {
      "$type": "GMOHNHFHLAO",
      "velocityForce": {
        "muteAll": true
      },
      "speed": 0.009999999776482582,
      "DPAAFHNMHHN": {
        "$type": "IFAANDLLGLP"
      },
      "traceOnYAxis": true
    }
  },
  "Bullet_Xingqiu_PhantomBurst1": {
    "$type": "CJKJIENLOHD",
    "common": {
      "effectAttachShape": {
        "$type": "OMIODKONOMG"
      }
    },
    "combat": {
      "property": {
        "useCreatorProperty": true,
        "isInvincible": true,
        "isGhostToAllied": true,
        "isGhostToEnemy": true,
        "canTriggerBullet": false
      },
      "beHit": {
        "hitBloodEffect": "",
        "muteAllHit": true,
        "muteAllHitEffect": true,
        "muteAllHitText": true
      },
      "combatLock": {
        "lockShape": "CircleLockEnemy",
        "denyLockOn": true,
        "lockType": "Default"
      }
    },
    "combatTemplate": "",
    "abilities": [
      {
        "abilityID": "Bullet_Xingqiu_PhantomBurst1",
        "abilityName": "Bullet_Xingqiu_PhantomBurst1",
        "abilityOverride": ""
      }
    ],
    "timer": {
      "lifeTime": 2.0
    },
    "move": {
      "$type": "GMOHNHFHLAO",
      "velocityForce": {
        "muteAll": true
      },
      "speed": 50.0,
      "DPAAFHNMHHN": {
        "$type": "IFAANDLLGLP"
      },
      "delay": 0.10000000149011612,
      "traceOnYAxis": true
    },
    "gadget": {
      "$type": "JENBBNKGGJP",
      "collision": {
        "targetType": "Enemy"
      },
      "triggerActions": [
        {
          "$type": "AILPBJHDHDG",
          "abilityName": "Bullet_Xingqiu_PhantomBurst1"
        }
      ]
    }
  },
  "Bullet_Xingqiu_PhantomBurst1_Shake": {
    "$type": "CJKJIENLOHD",
    "common": {
      "effectAttachShape": {
        "$type": "OMIODKONOMG"
      }
    },
    "combat": {
      "property": {
        "useCreatorProperty": true,
        "isInvincible": true,
        "isGhostToAllied": true,
        "isGhostToEnemy": true,
        "canTriggerBullet": false
      },
      "beHit": {
        "hitBloodEffect": "",
        "muteAllHit": true,
        "muteAllHitEffect": true,
        "muteAllHitText": true
      },
      "combatLock": {
        "lockShape": "CircleLockEnemy",
        "denyLockOn": true,
        "lockType": "Default"
      }
    },
    "combatTemplate": "",
    "abilities": [
      {
        "abilityID": "Bullet_Xingqiu_PhantomBurst1_Shake",
        "abilityName": "Bullet_Xingqiu_PhantomBurst1_Shake",
        "abilityOverride": ""
      }
    ],
    "timer": {
      "lifeTime": 2.0
    },
    "move": {
      "$type": "GMOHNHFHLAO",
      "velocityForce": {
        "muteAll": true
      },
      "speed": 50.0,
      "DPAAFHNMHHN": {
        "$type": "IFAANDLLGLP"
      },
      "delay": 0.10000000149011612,
      "traceOnYAxis": true
    },
    "gadget": {
      "$type": "JENBBNKGGJP",
      "collision": {
        "targetType": "Enemy"
      },
      "triggerActions": [
        {
          "$type": "AILPBJHDHDG",
          "abilityName": "Bullet_Xingqiu_PhantomBurst1_Shake"
        }
      ]
    }
  },
  "Bullet_Xingqiu_PhantomBurstS1": {
    "$type": "CJKJIENLOHD",
    "common": {
      "effectAttachShape": {
        "$type": "OMIODKONOMG"
      }
    },
    "combat": {
      "property": {
        "useCreatorProperty": true,
        "isInvincible": true,
        "isGhostToAllied": true,
        "isGhostToEnemy": true,
        "canTriggerBullet": false
      },
      "beHit": {
        "hitBloodEffect": "",
        "muteAllHit": true,
        "muteAllHitEffect": true,
        "muteAllHitText": true
      },
      "combatLock": {
        "lockShape": "CircleLockEnemy",
        "denyLockOn": true,
        "lockType": "Default"
      }
    },
    "combatTemplate": "",
    "abilities": [
      {
        "abilityID": "Bullet_Xingqiu_PhantomBurstS1",
        "abilityName": "Bullet_Xingqiu_PhantomBurstS1",
        "abilityOverride": ""
      }
    ],
    "timer": {
      "lifeTime": 2.0
    },
    "move": {
      "$type": "GMOHNHFHLAO",
      "velocityForce": {
        "muteAll": true
      },
      "speed": 50.0,
      "DPAAFHNMHHN": {
        "$type": "IFAANDLLGLP"
      },
      "delay": 0.10000000149011612,
      "traceOnYAxis": true
    },
    "gadget": {
      "$type": "JENBBNKGGJP",
      "collision": {
        "targetType": "Enemy"
      },
      "triggerActions": [
        {
          "$type": "AILPBJHDHDG",
          "abilityName": "Bullet_Xingqiu_PhantomBurstS1"
        }
      ]
    }
  },
  "Bullet_Xingqiu_PhantomBurstS1_Shake": {
    "$type": "CJKJIENLOHD",
    "common": {
      "effectAttachShape": {
        "$type": "OMIODKONOMG"
      }
    },
    "combat": {
      "property": {
        "useCreatorProperty": true,
        "isInvincible": true,
        "isGhostToAllied": true,
        "isGhostToEnemy": true,
        "canTriggerBullet": false
      },
      "beHit": {
        "hitBloodEffect": "",
        "muteAllHit": true,
        "muteAllHitEffect": true,
        "muteAllHitText": true
      },
      "combatLock": {
        "lockShape": "CircleLockEnemy",
        "denyLockOn": true,
        "lockType": "Default"
      }
    },
    "combatTemplate": "",
    "abilities": [
      {
        "abilityID": "Bullet_Xingqiu_PhantomBurstS1_Shake",
        "abilityName": "Bullet_Xingqiu_PhantomBurstS1_Shake",
        "abilityOverride": ""
      }
    ],
    "timer": {
      "lifeTime": 2.0
    },
    "move": {
      "$type": "GMOHNHFHLAO",
      "velocityForce": {
        "muteAll": true
      },
      "speed": 50.0,
      "DPAAFHNMHHN": {
        "$type": "IFAANDLLGLP"
      },
      "delay": 0.10000000149011612,
      "traceOnYAxis": true
    },
    "gadget": {
      "$type": "JENBBNKGGJP",
      "collision": {
        "targetType": "Enemy"
      },
      "triggerActions": [
        {
          "$type": "AILPBJHDHDG",
          "abilityName": "Bullet_Xingqiu_PhantomBurstS1_Shake"
        }
      ]
    }
  }
}