{
  "SceneObj_Area_Common_Property_Ani_Prop_HideAndSeekV4_Codemachine_01": {
    "$type": "CJKJIENLOHD",
    "common": {
      "disableTickDistance": 100000.0
    },
    "globalValue": {
      "serverGlobalValues": [
        "SGV_Notify_Val",
        "SGV_Fix_Player_Num"
      ],
      "initServerGlobalValues": {
        "SGV_Notify_Val": 0.0,
        "SGV_Fix_Player_Num": 0.0
      }
    },
    "hasModel": true,
    "combat": {
      "property": {
        "hp": 99999.0,
        "weight": 50.0,
        "isLockHP": true,
        "isGhostToAllied": true,
        "isGhostToEnemy": true
      },
      "beHit": {
        "hitBloodEffect": "",
        "hitAutoRedirect": false,
        "muteAllHitText": true
      },
      "combatLock": {
        "lockShape": "CircleLockEnemy",
        "denyLockOn": true,
        "lockType": "Gadget_Lv1"
      }
    },
    "combatTemplate": "",
    "abilities": [
      {
        "abilityID": "SceneObj_Area_Common_Property_Ani_Prop_HideAndSeekV4_Codemachine_01",
        "abilityName": "SceneObj_Area_Common_Property_Ani_Prop_HideAndSeekV4_Codemachine_01",
        "abilityOverride": ""
      }
    ],
    "field": {
      "concernType": "AllAvatars",
      "shape": "CircleR1_5H3_5",
      "fromShape": "",
      "triggerInfinite": true,
      "lifeInfinite": true,
      "checkInterval": 0.20000000298023224,
      "overwriteCampType": true,
      "campType": "All",
      "colliderName": "",
      "fromColliderName": ""
    },
    "radarHint": true,
    "forceSetEntityType": "Gadget",
    "uiSetting": {
      "NICINEOCPLL": {
        "GOCGPKIMLPH": {
          "showDistance": 80.0,
          "attachPointName": "BillboardAttach",
          "worldOffset": {
            "y": 2.5
          }
        },
        "HLDOGCADLNI": {
          "damageRatio": "HideAndSeekV4CodeMachine",
          "prefabName": "InLevelHideandSeekV4_Model_FixState",
          "iconPath": "",
          "BNAFLFDHLFF": 80.0,
          "HNEKAEMANAH": false
        }
      }
    }
  },
  "SceneObj_Area_Common_Property_Prop_HideAndSeekV4_Prison_01": {
    "$type": "CJKJIENLOHD",
    "common": {
      "disableTickDistance": 1000000.0
    },
    "hasModel": true,
    "combat": {
      "property": {
        "hp": 1000.0,
        "attack": 100.0,
        "weight": 50.0,
        "isLockHP": true,
        "isGhostToAllied": true,
        "isGhostToEnemy": true
      },
      "beHit": {
        "hitBloodEffect": "",
        "hitAutoRedirect": false,
        "muteAllHitEffect": true,
        "muteAllHitText": true
      },
      "combatLock": {
        "lockShape": "CircleLockEnemy",
        "denyLockOn": true,
        "lockType": "Gadget_Lv1"
      },
      "die": {
        "dieForceDisappearTime": 0.0,
        "dieDisappearEffect": ""
      }
    },
    "combatTemplate": "",
    "abilities": [
      {
        "abilityID": "SceneObj_Area_Common_Property_Prop_HideAndSeekV4_Prison_01",
        "abilityName": "SceneObj_Area_Common_Property_Prop_HideAndSeekV4_Prison_01",
        "abilityOverride": ""
      }
    ],
    "field": {
      "concernType": "AllAvatars",
      "shape": "CircleR1.5H3",
      "fromShape": "",
      "triggerInfinite": true,
      "lifeInfinite": true,
      "checkInterval": 0.20000000298023224,
      "overwriteCampType": true,
      "campType": "All",
      "colliderName": "",
      "fromColliderName": ""
    },
    "move": {
      "$type": "OEFHHKHPMCJ",
      "avatarTriggerEventDistance": 3.200000047683716
    },
    "forceSetEntityType": "Gadget"
  },
  "SkillObj_Activity_HideSeekV4_WardHere_01": {
    "$type": "CJKJIENLOHD",
    "hasModel": true,
    "combat": {
      "property": {
        "hp": 5000.0,
        "isLockHP": true,
        "canTriggerBullet": false
      },
      "beHit": {
        "hitBloodEffect": ""
      },
      "combatLock": {
        "lockShape": "CircleLockEnemy",
        "denyLockOn": true,
        "lockType": "Default"
      }
    },
    "combatTemplate": "",
    "abilities": [
      {
        "abilityID": "SkillObj_Activity_HideSeekV4_WardHere_01",
        "abilityName": "SkillObj_Activity_HideSeekV4_WardHere_01",
        "abilityOverride": ""
      }
    ]
  },
  "SkillObj_Activity_HideSeekV4_HuntRadarMark_01": {
    "$type": "CJKJIENLOHD",
    "common": {
      "effectAttachShape": {
        "$type": "OMCHDAEMBOG",
        "mesh": "EffectMesh"
      },
      "affectedByWorld": true
    },
    "combat": {
      "property": {
        "hp": 5000.0,
        "isLockHP": true,
        "isGhostToAllied": true,
        "canTriggerBullet": false
      },
      "beHit": {
        "hitBloodEffect": ""
      },
      "combatLock": {
        "lockShape": "CircleLockEnemy",
        "denyLockOn": true,
        "lockType": "Default"
      }
    },
    "combatTemplate": "",
    "move": {
      "$type": "MMAPEFIEGAL",
      "attachPoint": "",
      "followRotation": true,
      "LFOHLEKJFBI": ""
    },
    "radarHint": true
  },
  "SkillObj_Activity_HideSeekV4_WardHereMark_01": {
    "$type": "CJKJIENLOHD",
    "combatTemplate": "",
    "radarHint": true
  },
  "Activity_HideSeekV4_Skill_SuperPrison": {
    "$type": "CJKJIENLOHD",
    "common": {
      "effectAttachShape": {
        "$type": "OMIODKONOMG"
      }
    },
    "combat": {
      "property": {
        "hp": 99999.0,
        "isInvincible": true,
        "isLockHP": true,
        "isGhostToEnemy": true
      },
      "beHit": {
        "hitBloodEffect": "",
        "hitAutoRedirect": false,
        "muteAllHitText": true
      },
      "combatLock": {
        "lockShape": "CircleLockEnemy",
        "denyLockOn": true,
        "lockType": "Gadget_Lv1"
      }
    },
    "combatTemplate": "",
    "abilities": [
      {
        "abilityID": "Activity_HideSeekV4_Skill_SuperPrison",
        "abilityName": "Activity_HideSeekV4_Skill_SuperPrison",
        "abilityOverride": ""
      }
    ],
    "timer": {
      "lifeTime": 60.0
    }
  },
  "Activity_HideSeekV4_Execution_Target": {
    "$type": "CJKJIENLOHD",
    "common": {
      "effectAttachShape": {
        "$type": "OMIODKONOMG"
      }
    },
    "combat": {
      "property": {
        "hp": 99999.0,
        "isInvincible": true,
        "isLockHP": true,
        "isGhostToEnemy": true
      },
      "beHit": {
        "hitBloodEffect": "",
        "hitAutoRedirect": false,
        "muteAllHitText": true
      },
      "combatLock": {
        "lockShape": "CircleLockEnemy",
        "denyLockOn": true,
        "lockType": "Gadget_Lv1"
      }
    },
    "combatTemplate": "",
    "abilities": [
      {
        "abilityID": "Activity_HideSeekV4_Execution_Target",
        "abilityName": "Activity_HideSeekV4_Execution_Target",
        "abilityOverride": ""
      }
    ],
    "timer": {
      "lifeTime": 5.0
    }
  },
  "SceneObj_Area_Common_Property_Ani_Prop_HideAndSeekV4_EnterTable_01": {
    "$type": "CJKJIENLOHD",
    "hasModel": true,
    "combat": {
      "property": {
        "hp": 99999.0,
        "weight": 50.0,
        "isLockHP": true,
        "isGhostToAllied": true
      },
      "beHit": {
        "hitBloodEffect": "",
        "hitAutoRedirect": false,
        "muteAllHitText": true
      },
      "combatLock": {
        "lockShape": "CircleLockEnemy",
        "denyLockOn": true,
        "lockType": "Gadget_Lv1"
      }
    },
    "combatTemplate": "",
    "abilities": [
      {
        "abilityID": "Scene_RockGadget_Summon_Detect",
        "abilityName": "Scene_RockGadget_Summon_Detect",
        "abilityOverride": ""
      }
    ],
    "field": {
      "concernType": "AllAvatars",
      "shape": "CircleR1.5H3",
      "fromShape": "",
      "triggerInfinite": true,
      "lifeInfinite": true,
      "checkInterval": 0.20000000298023224,
      "overwriteCampType": true,
      "campType": "All",
      "colliderName": "",
      "fromColliderName": ""
    }
  },
  "Activity_HideSeekV4_Property_Prop_SeekerBattery_01": {
    "$type": "CJKJIENLOHD",
    "combat": {
      "property": {
        "hp": 50000.0,
        "canTriggerBullet": false
      },
      "combatLock": {
        "lockShape": "CircleLockEnemy",
        "denyLockOn": true,
        "lockType": "Gadget_Lv1"
      }
    },
    "combatTemplate": "",
    "abilities": [
      {
        "abilityID": "Activity_HideSeekV4_Property_Prop_SeekerBattery_01",
        "abilityName": "Activity_HideSeekV4_Property_Prop_SeekerBattery_01",
        "abilityOverride": ""
      }
    ],
    "field": {
      "concernType": "AllAvatars",
      "shape": "CircleR2H2",
      "fromShape": "",
      "triggerInfinite": true,
      "startCheckTime": 6.0,
      "checkInterval": 0.10000000149011612,
      "lifeTime": 300.0,
      "overwriteCampType": true,
      "campType": "All",
      "useCollider": false,
      "colliderName": "",
      "fromColliderName": ""
    },
    "timer": {
      "lifeInfinite": true
    },
    "radarHint": true
  },
  "Activity_HideSeekV4_HideType_InvisibleBait": {
    "$type": "CJKJIENLOHD",
    "common": {
      "effectAttachShape": {
        "$type": "OMCHDAEMBOG",
        "mesh": "EffectMesh"
      },
      "affectedByWorld": true,
      "disableTickDistance": 100000.0
    },
    "globalValue": {
      "serverGlobalValues": [
        "SGV_HideAndSeek_InvisibleBait_Transfer",
        "SGV_InvisibleBait_Display"
      ]
    },
    "hasModel": true,
    "combat": {
      "property": {
        "hp": 50000.0,
        "isLockHP": true,
        "canTriggerBullet": false
      },
      "beHit": {
        "hitBloodEffect": ""
      },
      "combatLock": {
        "lockShape": "CircleLockEnemy",
        "denyLockOn": true,
        "lockType": "Default"
      }
    },
    "combatTemplate": "",
    "abilities": [
      {
        "abilityID": "Activity_HideSeekV4_HideType_InvisibleBait",
        "abilityName": "Activity_HideSeekV4_HideType_InvisibleBait",
        "abilityOverride": ""
      },
      {
        "abilityID": "ActivityAbility_HideSeek_Invisible_Bait_OnExit_Check",
        "abilityName": "ActivityAbility_HideSeek_Invisible_Bait_OnExit_Check",
        "abilityOverride": ""
      }
    ],
    "field": {
      "concernType": "AllAvatars",
      "shape": "CircleLockEnemyR8H6HC",
      "fromShape": "",
      "triggerInfinite": true,
      "lifeInfinite": true,
      "checkInterval": 0.10000000149011612,
      "overwriteCampType": true,
      "campType": "All",
      "colliderName": "",
      "fromColliderName": ""
    }
  }
}