{
  "Player_Grass_Seed": {
    "$type": "CJKJIENLOHD",
    "common": {
      "effectAttachShape": {
        "$type": "OMIODKONOMG"
      },
      "affectedByWorld": true
    },
    "specialPoint": {
      "elementAbsorb": "RootNode",
      "elementPendant": "",
      "elementDrop": "RootNode",
      "bulletAim": "RootNode"
    },
    "combat": {
      "property": {
        "useCreatorProperty": true,
        "useAbilityProperty": true,
        "isInvincible": true,
        "isGhostToAllied": true,
        "isGhostToEnemy": true,
        "denyElementStick": true
      },
      "combatLock": {
        "lockShape": "CircleLockEnemy",
        "denyLockOn": true,
        "lockType": "Avatar&Monster_Lv4"
      }
    },
    "combatTemplate": "",
    "abilities": [
      {
        "abilityID": "",
        "abilityName": "Avatar_Player_Grass_Seed_Gadget",
        "abilityOverride": ""
      },
      {
        "abilityID": "",
        "abilityName": "Avatar_Player_Grass_Permanent_Skill_1",
        "abilityOverride": ""
      }
    ],
    "timer": {
      "lifeTime": 20.0
    }
  },
  "Player_Grass_Seed_HitFor_Ally": {
    "$type": "CJKJIENLOHD",
    "common": {
      "effectAttachShape": {
        "$type": "OMIODKONOMG"
      },
      "affectedByWorld": true,
      "checkInSurface": true,
      "useGrassDisplacement": true,
      "enableCrashDamage": false
    },
    "combat": {
      "property": {
        "endureType": "Monster_Boss_Humanoid",
        "useCreatorProperty": true,
        "weight": 200.0,
        "isLockHP": true
      },
      "beHit": {
        "hitBloodEffect": ""
      },
      "combatLock": {
        "lockShape": "CircleLockEnemy",
        "denyLockOn": true,
        "lockType": "Gadget_Lv1"
      }
    },
    "combatTemplate": "",
    "abilities": [
      {
        "abilityID": "",
        "abilityName": "Avatar_Player_Grass_Seed_Gadget_HitBox",
        "abilityOverride": ""
      }
    ],
    "timer": {
      "lifeTime": 20.0
    },
    "move": {
      "$type": "MGENMIHFEJO",
      "velocityForce": {
        "includeForces": [
          "RetreatType",
          "RetreatAirType",
          "WindZoneType"
        ]
      },
      "ignoreEnableRigidbodyDist": true
    },
    "canRemoveByClient": true
  }
}