{
  "SceneObj_Area_Xm_Property_Ani_Prop_AkaFesArchaeologyDetector_01": {
    "$type": "CJKJIENLOHD",
    "common": {
      "disableTickDistance": 100000.0
    },
    "hasModel": true,
    "combat": {
      "property": {
        "hp": 99999.0,
        "isInvincible": true,
        "isLockHP": true,
        "isGhostToAllied": true,
        "isGhostToEnemy": true
      },
      "combatLock": {
        "lockShape": "CircleLockEnemy",
        "denyLockOn": true,
        "lockType": "Default"
      },
      "die": {
        "dieEndTime": 0.5,
        "dieForceDisappearTime": 0.5,
        "dieDisappearEffect": ""
      }
    },
    "combatTemplate": "",
    "abilities": [
      {
        "abilityID": "SceneObj_Area_Xm_Property_Ani_Prop_AkaFesArchaeologyDetector_01",
        "abilityName": "SceneObj_Area_Xm_Property_Ani_Prop_AkaFesArchaeologyDetector_01",
        "abilityOverride": ""
      }
    ],
    "billboard": {
      "$type": "MCINMKADGHP",
      "attachPoint": "BillboardAttach",
      "offset": {
        "y": 1.5
      },
      "customKeyList": [
        "ArcheoScannerDistance"
      ],
      "maxValue": 60.0,
      "prefabPluginName": "MiracleRing",
      "damageRatio": "AkaFesArchaeology",
      "showText": true
    }
  },
  "SceneObj_Area_Common_Property_Ani_Prop_AkaFesArchaeologyNoiseHint_01": {
    "$type": "CJKJIENLOHD",
    "hasModel": true,
    "combat": {
      "property": {
        "hp": 99999.0,
        "isInvincible": true,
        "isLockHP": true,
        "isGhostToAllied": true,
        "isGhostToEnemy": true
      },
      "combatLock": {
        "lockShape": "CircleLockEnemy",
        "denyLockOn": true,
        "lockType": "Default"
      }
    },
    "combatTemplate": "",
    "abilities": [
      {
        "abilityID": "SceneObj_Area_Common_Property_Ani_Prop_AkaFesArchaeologyNoiseHint_01",
        "abilityName": "SceneObj_Area_Common_Property_Ani_Prop_AkaFesArchaeologyNoiseHint_01",
        "abilityOverride": ""
      }
    ],
    "billboard": {
      "$type": "KMCIKEIBFAH",
      "attachPoint": "BillboardAttach",
      "offset": {
        "y": 0.8999999761581421
      }
    }
  },
  "SceneObj_Area_Common_Property_Ani_Prop_AkaFesArchaeologyTreasure_01": {
    "$type": "CJKJIENLOHD",
    "hasModel": true,
    "combat": {
      "property": {
        "hp": 99999.0,
        "isInvincible": true,
        "isLockHP": true,
        "isGhostToEnemy": true
      },
      "combatLock": {
        "lockShape": "CircleLockEnemy",
        "denyLockOn": true,
        "lockType": "Default"
      }
    },
    "combatTemplate": "",
    "abilities": [
      {
        "abilityID": "SceneObj_Area_Common_Property_Ani_Prop_AkaFesArchaeologyTreasure_01",
        "abilityName": "SceneObj_Area_Common_Property_Ani_Prop_AkaFesArchaeologyTreasure_01",
        "abilityOverride": ""
      }
    ],
    "uiInteract": {
      "gadgetUIBtnCfgPath": "TEST/TEST_Chest_Btn",
      "uiName": "",
      "onTouch": "MultipleReward",
      "showCondTypes": [
        "HOST"
      ],
      "icon": "",
      "groupName": "",
      "confirmDialogTitle": "",
      "confirmDialogContent": "",
      "openRewardId": 4
    },
    "gadgetAction": {
      "gadgetStateActionList": [
        {
          "$type": "DEMJBAICBKO"
        },
        {
          "$type": "DEMJBAICBKO",
          "triggerID": "GearStart",
          "enable": true
        }
      ]
    }
  },
  "SceneObj_Area_Common_Property_Ani_Prop_AkaFesArchaeologyTreasureHint_01": {
    "$type": "CJKJIENLOHD",
    "globalValue": {
      "serverGlobalValues": [
        "SGV_Server_Show_Range"
      ]
    },
    "combat": {
      "property": {
        "hp": 99999.0,
        "isInvincible": true,
        "isLockHP": true,
        "isGhostToAllied": true,
        "isGhostToEnemy": true
      },
      "combatLock": {
        "lockShape": "CircleLockEnemy",
        "denyLockOn": true,
        "lockType": "Default"
      }
    },
    "combatTemplate": "",
    "abilities": [
      {
        "abilityID": "SceneObj_Area_Common_Property_Ani_Prop_AkaFesArchaeologyTreasureHint_01",
        "abilityName": "SceneObj_Area_Common_Property_Ani_Prop_AkaFesArchaeologyTreasureHint_01",
        "abilityOverride": ""
      }
    ],
    "mapMark": {
      "rangeCustomKey": "SGV_Server_Show_Range",
      "iconType": "GadgetRegionYellowArea"
    }
  },
  "SceneObj_Area_Common_Property_Ani_Prop_AkaFesArchaeologyNoisePoint_01": {
    "$type": "CJKJIENLOHD",
    "combat": {
      "property": {
        "hp": 99999.0,
        "isInvincible": true,
        "isLockHP": true,
        "isGhostToEnemy": true
      },
      "combatLock": {
        "lockShape": "CircleLockEnemy",
        "denyLockOn": true,
        "lockType": "Default"
      }
    },
    "combatTemplate": "",
    "abilities": [
      {
        "abilityID": "SceneObj_Area_Common_Property_Ani_Prop_AkaFesArchaeologyNoisePoint_01",
        "abilityName": "SceneObj_Area_Common_Property_Ani_Prop_AkaFesArchaeologyNoisePoint_01",
        "abilityOverride": ""
      }
    ]
  }
}