{
  "BossNarzissenkreuzBattle_PlayerSkill_Bullet_1": {
    "$type": "CJKJIENLOHD",
    "common": {
      "effectAttachShape": {
        "$type": "OMIODKONOMG"
      },
      "affectedByWorld": true
    },
    "combat": {
      "property": {
        "useCreatorProperty": true,
        "isInvincible": true,
        "canTriggerBullet": false
      },
      "beHit": {
        "hitBloodEffect": "",
        "muteAllHit": true,
        "muteAllHitEffect": true,
        "muteAllHitText": true
      },
      "combatLock": {
        "lockShape": "CircleLockEnemy",
        "denyLockOn": true,
        "lockType": "Gadget_Lv1"
      }
    },
    "combatTemplate": "",
    "abilities": [
      {
        "abilityID": "",
        "abilityName": "ActivityAbility_WQ_BossNarzissenkreuzBattle_Bullet_1",
        "abilityOverride": ""
      }
    ],
    "timer": {
      "lifeTime": 0.8500000238418579
    },
    "move": {
      "$type": "GMOHNHFHLAO",
      "velocityForce": {
        "muteAll": true
      },
      "speed": 35.0,
      "anglerVelocity": 360.0,
      "DPAAFHNMHHN": {
        "$type": "IFAANDLLGLP",
        "isSmoothRotation": true
      },
      "delay": 0.11999999731779099,
      "traceOnYAxis": true
    },
    "gadget": {
      "$type": "JENBBNKGGJP",
      "collision": {
        "targetType": "Enemy",
        "ignoreScene": true
      },
      "triggerActions": [
        {
          "$type": "AILPBJHDHDG",
          "abilityName": "ActivityAbility_WQ_BossNarzissenkreuzBattle_Bullet_1"
        }
      ],
      "triggerLifeOverActions": [
        {
          "$type": "AILPBJHDHDG",
          "abilityName": "ActivityAbility_WQ_BossNarzissenkreuzBattle_Bullet_1"
        }
      ]
    }
  },
  "BossNarzissenkreuzBattle_PlayerSkill_Bullet_2": {
    "$type": "CJKJIENLOHD",
    "common": {
      "effectAttachShape": {
        "$type": "OMIODKONOMG",
        "scaleZ": 0.4000000059604645
      },
      "affectedByWorld": true
    },
    "combat": {
      "property": {
        "useCreatorProperty": true,
        "isInvincible": true,
        "canTriggerBullet": false
      },
      "beHit": {
        "hitBloodEffect": "",
        "muteAllHit": true,
        "muteAllHitEffect": true,
        "muteAllHitText": true
      },
      "combatLock": {
        "lockShape": "CircleLockEnemy",
        "denyLockOn": true,
        "lockType": "Gadget_Lv1"
      }
    },
    "combatTemplate": "",
    "abilities": [
      {
        "abilityID": "",
        "abilityName": "ActivityAbility_WQ_BossNarzissenkreuzBattle_Bullet_2",
        "abilityOverride": ""
      }
    ],
    "timer": {
      "lifeTime": 0.6000000238418579
    },
    "move": {
      "$type": "GMOHNHFHLAO",
      "velocityForce": {
        "muteAll": true
      },
      "speed": 45.0,
      "anglerVelocity": 360.0,
      "DPAAFHNMHHN": {
        "$type": "IFAANDLLGLP",
        "isSmoothRotation": true
      },
      "traceOnYAxis": true
    },
    "gadget": {
      "$type": "JENBBNKGGJP",
      "collision": {
        "targetType": "Enemy"
      },
      "triggerActions": [
        {
          "$type": "AILPBJHDHDG",
          "abilityName": "ActivityAbility_WQ_BossNarzissenkreuzBattle_Bullet_2"
        }
      ],
      "triggerLifeOverActions": [
        {
          "$type": "AILPBJHDHDG",
          "abilityName": "ActivityAbility_WQ_BossNarzissenkreuzBattle_Bullet_2"
        }
      ]
    }
  },
  "SceneObj_Area_Common_Property_WQ_BossNarzissenkreuzBattle_Ball_Heal": {
    "$type": "CJKJIENLOHD",
    "hasModel": true,
    "combat": {
      "property": {
        "hp": 10000.0,
        "attack": 30.0,
        "isLockHP": true,
        "isGhostToAllied": true,
        "isGhostToEnemy": true,
        "ignorePurgeRate": true
      },
      "beHit": {
        "hitBloodEffect": "",
        "hitAutoRedirect": false,
        "muteAllHitText": true
      },
      "combatLock": {
        "lockShape": "CircleLockEnemy",
        "denyLockOn": true,
        "lockType": "Gadget_Lv1"
      }
    },
    "combatTemplate": "",
    "abilities": [
      {
        "abilityID": "Ability_01",
        "abilityName": "SceneObj_Area_Common_Property_WQ_BossNarzissenkreuzBattle_Ball_Heal",
        "abilityOverride": ""
      }
    ],
    "field": {
      "concernType": "AllAvatars",
      "shape": "",
      "fromShape": "",
      "triggerInfinite": true,
      "lifeInfinite": true,
      "checkInterval": 0.5,
      "overwriteCampType": true,
      "campType": "All",
      "colliderName": "",
      "fromColliderName": ""
    },
    "timer": {
      "lifeTime": 45.0
    }
  }
}