{
  "SceneObj_Area_Cyg_Property_Ani_Prop_BambooSlips_01": {
    "$type": "CJKJIENLOHD",
    "common": {
      "isForceRefreshAuthotiryToHost": true
    },
    "hasModel": true,
    "combat": {
      "property": {
        "hp": 99999.0,
        "isLockHP": true,
        "isGhostToAllied": true,
        "isGhostToEnemy": true
      },
      "combatLock": {
        "lockShape": "CircleLockEnemy",
        "denyLockOn": true,
        "lockType": "Default"
      }
    },
    "combatTemplate": "",
    "abilities": [
      {
        "abilityID": "ability_01",
        "abilityName": "SceneObj_Area_Cyg_Property_Ani_Prop_BambooSlips_01",
        "abilityOverride": ""
      }
    ]
  },
  "SceneObj_Area_Cyg_Property_Ani_Prop_BookcaseShell_01": {
    "$type": "CJKJIENLOHD",
    "hasModel": true,
    "combatTemplate": "",
    "abilities": [
      {
        "abilityID": "ability_01",
        "abilityName": "SceneObj_Area_Cyg_Property_Ani_Prop_BookcaseShell_01",
        "abilityOverride": ""
      }
    ]
  },
  "SceneObj_Area_Cyg_Property_Ani_Prop_BookcaseShell_02": {
    "$type": "CJKJIENLOHD",
    "hasModel": true,
    "combatTemplate": "",
    "abilities": [
      {
        "abilityID": "ability_01",
        "abilityName": "SceneObj_Area_Cyg_Property_Ani_Prop_BookcaseShell_02",
        "abilityOverride": ""
      }
    ]
  },
  "SceneObj_Area_Cyg_Property_Ani_Prop_BookcaseShell_03": {
    "$type": "CJKJIENLOHD",
    "hasModel": true,
    "combatTemplate": "",
    "abilities": [
      {
        "abilityID": "ability_01",
        "abilityName": "SceneObj_Area_Cyg_Property_Ani_Prop_BookcaseShell_03",
        "abilityOverride": ""
      }
    ]
  },
  "SceneObj_Area_Cyg_Property_Ani_Prop_BookcaseShell_04": {
    "$type": "CJKJIENLOHD",
    "hasModel": true,
    "combatTemplate": "",
    "abilities": [
      {
        "abilityID": "ability_01",
        "abilityName": "SceneObj_Area_Cyg_Property_Ani_Prop_BookcaseShell_04",
        "abilityOverride": ""
      }
    ]
  },
  "SceneObj_Area_Cyg_Property_Ani_Prop_WstPlatform_01": {
    "$type": "CJKJIENLOHD",
    "hasModel": true,
    "combat": {
      "property": {
        "hp": 99999.0,
        "isLockHP": true,
        "isGhostToAllied": true,
        "isGhostToEnemy": true
      },
      "combatLock": {
        "lockShape": "CircleLockEnemy",
        "denyLockOn": true,
        "lockType": "Default"
      }
    },
    "combatTemplate": "",
    "abilities": [
      {
        "abilityID": "ability_01",
        "abilityName": "SceneObj_Area_Cyg_Property_Ani_Prop_WstPlatform_01",
        "abilityOverride": ""
      }
    ],
    "move": {
      "$type": "OEFHHKHPMCJ"
    },
    "gadgetAction": {
      "gadgetStateActionList": [
        {
          "$type": "FJGKLJLPOGL",
          "intID": "GadgetState",
          "syncState": true
        }
      ]
    }
  },
  "SceneObj_Area_Cyg_Property_Ani_Prop_WstPlatform_02": {
    "$type": "CJKJIENLOHD",
    "hasModel": true,
    "combat": {
      "property": {
        "hp": 99999.0,
        "isLockHP": true,
        "isGhostToAllied": true,
        "isGhostToEnemy": true
      },
      "combatLock": {
        "lockShape": "CircleLockEnemy",
        "denyLockOn": true,
        "lockType": "Default"
      }
    },
    "combatTemplate": "",
    "abilities": [
      {
        "abilityID": "ability_01",
        "abilityName": "SceneObj_Area_Cyg_Property_Ani_Prop_WstPlatform_01",
        "abilityOverride": ""
      }
    ],
    "gadgetAction": {
      "gadgetStateActionList": [
        {
          "$type": "FJGKLJLPOGL",
          "intID": "GadgetState",
          "syncState": true
        }
      ]
    }
  },
  "SceneObj_Area_Cyg_Property_Ani_Prop_YdgJar_01": {
    "$type": "CJKJIENLOHD",
    "common": {
      "isForceRefreshAuthotiryToHost": true
    },
    "hasModel": true,
    "combat": {
      "property": {
        "hp": 99999.0,
        "isLockHP": true,
        "isGhostToAllied": true,
        "isGhostToEnemy": true
      },
      "combatLock": {
        "lockShape": "CircleLockEnemy",
        "denyLockOn": true,
        "lockType": "Default"
      }
    },
    "combatTemplate": "",
    "abilities": [
      {
        "abilityID": "ability_01",
        "abilityName": "SceneObj_Area_Cyg_Property_Ani_Prop_YdgJar_01",
        "abilityOverride": ""
      }
    ],
    "move": {
      "$type": "OEFHHKHPMCJ"
    },
    "gadgetAction": {
      "gadgetStateActionList": [
        {
          "$type": "FJGKLJLPOGL",
          "intID": "GadgetState",
          "syncState": true
        }
      ]
    }
  },
  "SceneObj_Area_Cyg_Property_Ani_Prop_YdgHangingJar_01": {
    "$type": "CJKJIENLOHD",
    "hasModel": true,
    "combat": {
      "property": {
        "hp": 99999.0,
        "isLockHP": true,
        "isGhostToAllied": true,
        "isGhostToEnemy": true
      },
      "combatLock": {
        "lockShape": "CircleLockEnemy",
        "denyLockOn": true,
        "lockType": "Default"
      }
    },
    "combatTemplate": "",
    "abilities": [
      {
        "abilityID": "ability_01",
        "abilityName": "SceneObj_Area_Cyg_Property_Ani_Prop_YdgHangingJar_01",
        "abilityOverride": ""
      }
    ],
    "move": {
      "$type": "OEFHHKHPMCJ"
    },
    "gadgetAction": {
      "gadgetStateActionList": [
        {
          "$type": "FJGKLJLPOGL",
          "intID": "GadgetState",
          "syncState": true
        }
      ]
    }
  },
  "SceneObj_Area_Cyg_Property_Ani_Prop_Herbpot_01": {
    "$type": "CJKJIENLOHD",
    "hasModel": true,
    "combat": {
      "property": {
        "hp": 99999.0,
        "isLockHP": true,
        "isGhostToAllied": true,
        "isGhostToEnemy": true
      },
      "combatLock": {
        "lockShape": "CircleLockEnemy",
        "denyLockOn": true,
        "lockType": "Default"
      }
    },
    "combatTemplate": "",
    "abilities": [
      {
        "abilityID": "ability_01",
        "abilityName": "SceneObj_Area_Cyg_Property_Ani_Prop_Herbpot_01",
        "abilityOverride": ""
      }
    ],
    "move": {
      "$type": "OEFHHKHPMCJ"
    },
    "gadgetAction": {
      "gadgetStateActionList": [
        {
          "$type": "FJGKLJLPOGL",
          "intID": "GadgetState",
          "syncState": true
        }
      ]
    }
  },
  "SceneObj_Area_Cyg_Property_Ani_Prop_ImmortalSeal_01": {
    "$type": "CJKJIENLOHD",
    "hasModel": true,
    "combat": {
      "property": {
        "hp": 99999.0,
        "isLockHP": true,
        "isGhostToAllied": true,
        "isGhostToEnemy": true
      },
      "combatLock": {
        "lockShape": "CircleLockEnemy",
        "denyLockOn": true,
        "lockType": "Default"
      }
    },
    "combatTemplate": "",
    "abilities": [
      {
        "abilityID": "ability_01",
        "abilityName": "SceneObj_Area_Cyg_Property_Ani_Prop_ImmortalSeal_01",
        "abilityOverride": ""
      }
    ],
    "gadgetAction": {
      "gadgetStateActionList": [
        {
          "$type": "FJGKLJLPOGL",
          "intID": "GadgetState",
          "syncState": true
        }
      ]
    }
  },
  "SceneObj_Area_Cyg_Property_Ani_Prop_ImmortalSeal_02": {
    "$type": "CJKJIENLOHD",
    "hasModel": true,
    "combat": {
      "property": {
        "hp": 99999.0,
        "isLockHP": true,
        "isGhostToAllied": true,
        "isGhostToEnemy": true
      },
      "combatLock": {
        "lockShape": "CircleLockEnemy",
        "denyLockOn": true,
        "lockType": "Default"
      }
    },
    "combatTemplate": "",
    "abilities": [
      {
        "abilityID": "ability_01",
        "abilityName": "SceneObj_Area_Cyg_Property_Ani_Prop_ImmortalSeal_02",
        "abilityOverride": ""
      }
    ]
  },
  "SceneObj_Area_Cyg_Property_Ani_Prop_HerbpotSeal_01": {
    "$type": "CJKJIENLOHD",
    "hasModel": true,
    "combat": {
      "property": {
        "hp": 99999.0,
        "isLockHP": true,
        "isGhostToAllied": true,
        "isGhostToEnemy": true
      },
      "combatLock": {
        "lockShape": "CircleLockEnemy",
        "denyLockOn": true,
        "lockType": "Default"
      }
    },
    "combatTemplate": "",
    "abilities": [
      {
        "abilityID": "ability_01",
        "abilityName": "SceneObj_Area_Cyg_Property_Ani_Prop_HerbpotSeal_01",
        "abilityOverride": ""
      }
    ]
  },
  "SceneObj_Area_Cyg_Property_Ani_Prop_HerbpotSeal_02": {
    "$type": "CJKJIENLOHD",
    "hasModel": true,
    "combat": {
      "property": {
        "hp": 99999.0,
        "isLockHP": true,
        "isGhostToAllied": true,
        "isGhostToEnemy": true
      },
      "combatLock": {
        "lockShape": "CircleLockEnemy",
        "denyLockOn": true,
        "lockType": "Default"
      }
    },
    "combatTemplate": "",
    "abilities": [
      {
        "abilityID": "ability_01",
        "abilityName": "SceneObj_Area_Cyg_Property_Ani_Prop_HerbpotSeal_02",
        "abilityOverride": ""
      }
    ]
  },
  "SceneObj_Area_Cyg_Property_Ani_Prop_Silong_01": {
    "$type": "CJKJIENLOHD",
    "common": {
      "disableTickDistance": 100000.0
    },
    "hasModel": true,
    "combat": {
      "property": {
        "hp": 99999.0,
        "isLockHP": true,
        "isGhostToAllied": true,
        "isGhostToEnemy": true
      },
      "combatLock": {
        "lockShape": "CircleLockEnemy",
        "denyLockOn": true,
        "lockType": "Default"
      }
    },
    "combatTemplate": "",
    "abilities": [
      {
        "abilityID": "ability_01",
        "abilityName": "SceneObj_Area_Cyg_Property_Ani_Prop_Silong_01",
        "abilityOverride": ""
      }
    ]
  },
  "SceneObj_Area_Cyg_Property_Ani_Prop_Silong_02": {
    "$type": "CJKJIENLOHD",
    "hasModel": true,
    "combat": {
      "property": {
        "hp": 99999.0,
        "isLockHP": true,
        "isGhostToAllied": true,
        "isGhostToEnemy": true
      },
      "combatLock": {
        "lockShape": "CircleLockEnemy",
        "denyLockOn": true,
        "lockType": "Default"
      }
    },
    "combatTemplate": "",
    "abilities": [
      {
        "abilityID": "ability_01",
        "abilityName": "SceneObj_Area_Cyg_Property_Ani_Prop_Silong_02",
        "abilityOverride": ""
      }
    ]
  },
  "SceneObj_Area_Cyg_Property_Ani_Prop_EscapePower_01": {
    "$type": "CJKJIENLOHD",
    "common": {
      "disableTickDistance": 100000.0
    },
    "hasModel": true,
    "combat": {
      "property": {
        "hp": 99999.0,
        "isLockHP": true,
        "isGhostToAllied": true,
        "isGhostToEnemy": true
      },
      "combatLock": {
        "lockShape": "CircleLockEnemy",
        "denyLockOn": true,
        "lockType": "Default"
      }
    },
    "combatTemplate": "",
    "abilities": [
      {
        "abilityID": "ability_01",
        "abilityName": "SceneObj_Area_Cyg_Property_Ani_Prop_EscapePower_01",
        "abilityOverride": ""
      }
    ],
    "move": {
      "$type": "OEFHHKHPMCJ"
    }
  },
  "SceneObj_Area_Cyg_Property_Ani_Prop_CupElemTablet_Water_01": {
    "$type": "CJKJIENLOHD",
    "hasModel": true,
    "combat": {
      "property": {
        "hp": 99999.0,
        "isLockHP": true,
        "isGhostToAllied": true,
        "isGhostToEnemy": true
      },
      "combatLock": {
        "lockShape": "CircleLockEnemy",
        "denyLockOn": true,
        "lockType": "Default"
      }
    },
    "combatTemplate": "",
    "abilities": [
      {
        "abilityID": "ability_01",
        "abilityName": "SceneObj_Area_Cyg_Property_Ani_Prop_CupElemTablet_Water_01",
        "abilityOverride": ""
      }
    ],
    "gadgetAction": {
      "gadgetStateActionList": [
        {
          "$type": "FJGKLJLPOGL",
          "intID": "GadgetState",
          "syncState": true
        }
      ]
    }
  },
  "SceneObj_Area_Cyg_Property_Ani_Prop_CupElemTablet_Wind_01": {
    "$type": "CJKJIENLOHD",
    "hasModel": true,
    "combat": {
      "property": {
        "hp": 99999.0,
        "isLockHP": true,
        "isGhostToAllied": true,
        "isGhostToEnemy": true
      },
      "combatLock": {
        "lockShape": "CircleLockEnemy",
        "denyLockOn": true,
        "lockType": "Default"
      }
    },
    "combatTemplate": "",
    "abilities": [
      {
        "abilityID": "ability_01",
        "abilityName": "SceneObj_Area_Cyg_Property_Ani_Prop_CupElemTablet_Wind_01",
        "abilityOverride": ""
      }
    ],
    "gadgetAction": {
      "gadgetStateActionList": [
        {
          "$type": "FJGKLJLPOGL",
          "intID": "GadgetState",
          "syncState": true
        }
      ]
    }
  },
  "SceneObj_Area_Cyg_Property_Ani_Prop_CupElemTablet_Fire_01": {
    "$type": "CJKJIENLOHD",
    "hasModel": true,
    "combat": {
      "property": {
        "hp": 99999.0,
        "isLockHP": true,
        "isGhostToAllied": true,
        "isGhostToEnemy": true
      },
      "combatLock": {
        "lockShape": "CircleLockEnemy",
        "denyLockOn": true,
        "lockType": "Default"
      }
    },
    "combatTemplate": "",
    "abilities": [
      {
        "abilityID": "ability_01",
        "abilityName": "SceneObj_Area_Cyg_Property_Ani_Prop_CupElemTablet_Fire_01",
        "abilityOverride": ""
      }
    ],
    "gadgetAction": {
      "gadgetStateActionList": [
        {
          "$type": "FJGKLJLPOGL",
          "intID": "GadgetState",
          "syncState": true
        }
      ]
    }
  },
  "SceneObj_Area_Cyg_Property_Ani_Prop_GuHuaSword_01": {
    "$type": "CJKJIENLOHD",
    "hasModel": true,
    "combat": {
      "property": {
        "hp": 99999.0,
        "isLockHP": true,
        "isGhostToAllied": true,
        "isGhostToEnemy": true
      },
      "combatLock": {
        "lockShape": "CircleLockEnemy",
        "denyLockOn": true,
        "lockType": "Default"
      }
    },
    "combatTemplate": "",
    "abilities": [
      {
        "abilityID": "SceneObj_Area_Cyg_Property_Ani_Prop_GuHuaSword_01",
        "abilityName": "SceneObj_Area_Cyg_Property_Ani_Prop_GuHuaSword_01",
        "abilityOverride": ""
      }
    ],
    "uiInteract": {
      "gadgetUIBtnCfgPath": "TEST/TEST_Chest_Btn",
      "uiName": "",
      "onTouch": "WidgetMPSupport",
      "touchParams": [
        "SceneObj_Area_Cyg_Property_Ani_Prop_GuHuaSword_01"
      ],
      "icon": "",
      "groupName": "",
      "confirmDialogTitle": "",
      "confirmDialogContent": "",
      "showCondTypesV2": [
        "HOST"
      ],
      "canInteractInCombat": false
    }
  },
  "SceneObj_Area_Cyg_Property_Ani_Prop_GuHuaSword_02": {
    "$type": "CJKJIENLOHD",
    "hasModel": true,
    "combat": {
      "property": {
        "hp": 99999.0,
        "isLockHP": true,
        "isGhostToAllied": true,
        "isGhostToEnemy": true
      },
      "combatLock": {
        "lockShape": "CircleLockEnemy",
        "denyLockOn": true,
        "lockType": "Default"
      }
    },
    "combatTemplate": "",
    "abilities": [
      {
        "abilityID": "SceneObj_Area_Cyg_Property_Ani_Prop_GuHuaSword_02",
        "abilityName": "SceneObj_Area_Cyg_Property_Ani_Prop_GuHuaSword_02",
        "abilityOverride": ""
      }
    ],
    "uiInteract": {
      "gadgetUIBtnCfgPath": "TEST/TEST_Chest_Btn",
      "uiName": "",
      "onTouch": "WidgetMPSupport",
      "touchParams": [
        "SceneObj_Area_Cyg_Property_Ani_Prop_GuHuaSword_02"
      ],
      "icon": "",
      "groupName": "",
      "confirmDialogTitle": "",
      "confirmDialogContent": "",
      "showCondTypesV2": [
        "HOST"
      ],
      "canInteractInCombat": false
    }
  },
  "SceneObj_Area_Cyg_Property_Ani_Prop_GuHuaSword_03": {
    "$type": "CJKJIENLOHD",
    "hasModel": true,
    "combat": {
      "property": {
        "hp": 99999.0,
        "isLockHP": true,
        "isGhostToAllied": true,
        "isGhostToEnemy": true
      },
      "combatLock": {
        "lockShape": "CircleLockEnemy",
        "denyLockOn": true,
        "lockType": "Default"
      }
    },
    "combatTemplate": "",
    "abilities": [
      {
        "abilityID": "SceneObj_Area_Cyg_Property_Ani_Prop_GuHuaSword_03",
        "abilityName": "SceneObj_Area_Cyg_Property_Ani_Prop_GuHuaSword_03",
        "abilityOverride": ""
      }
    ],
    "uiInteract": {
      "gadgetUIBtnCfgPath": "TEST/TEST_Chest_Btn",
      "uiName": "",
      "onTouch": "WidgetMPSupport",
      "touchParams": [
        "SceneObj_Area_Cyg_Property_Ani_Prop_GuHuaSword_03"
      ],
      "icon": "",
      "groupName": "",
      "confirmDialogTitle": "",
      "confirmDialogContent": "",
      "showCondTypesV2": [
        "HOST"
      ],
      "canInteractInCombat": false
    }
  },
  "SceneObj_Area_Cyg_Property_Ani_Prop_GuHuaSword_04": {
    "$type": "CJKJIENLOHD",
    "hasModel": true,
    "combat": {
      "property": {
        "hp": 99999.0,
        "isLockHP": true,
        "isGhostToAllied": true,
        "isGhostToEnemy": true
      },
      "combatLock": {
        "lockShape": "CircleLockEnemy",
        "denyLockOn": true,
        "lockType": "Default"
      }
    },
    "combatTemplate": "",
    "abilities": [
      {
        "abilityID": "SceneObj_Area_Cyg_Property_Ani_Prop_GuHuaSword_04",
        "abilityName": "SceneObj_Area_Cyg_Property_Ani_Prop_GuHuaSword_04",
        "abilityOverride": ""
      }
    ],
    "uiInteract": {
      "gadgetUIBtnCfgPath": "TEST/TEST_Chest_Btn",
      "uiName": "",
      "onTouch": "WidgetMPSupport",
      "touchParams": [
        "SceneObj_Area_Cyg_Property_Ani_Prop_GuHuaSword_04"
      ],
      "icon": "",
      "groupName": "",
      "confirmDialogTitle": "",
      "confirmDialogContent": "",
      "showCondTypesV2": [
        "HOST"
      ],
      "canInteractInCombat": false
    }
  },
  "SceneObj_Area_Cyg_Property_Ani_Prop_GuHuaSword_05": {
    "$type": "CJKJIENLOHD",
    "hasModel": true,
    "combat": {
      "property": {
        "hp": 99999.0,
        "isLockHP": true,
        "isGhostToAllied": true,
        "isGhostToEnemy": true
      },
      "combatLock": {
        "lockShape": "CircleLockEnemy",
        "denyLockOn": true,
        "lockType": "Default"
      }
    },
    "combatTemplate": "",
    "uiInteract": {
      "gadgetUIBtnCfgPath": "TEST/TEST_Chest_Btn",
      "uiName": "",
      "icon": "",
      "groupName": "",
      "confirmDialogTitle": "",
      "confirmDialogContent": "",
      "showCondTypesV2": [
        "HOST"
      ],
      "canInteractInCombat": false
    }
  },
  "SceneObj_Area_Cyg_Property_Ani_Prop_CygTeaSet_01": {
    "$type": "CJKJIENLOHD",
    "hasModel": true,
    "combat": {
      "property": {
        "hp": 99999.0,
        "isLockHP": true,
        "isGhostToEnemy": true
      },
      "combatLock": {
        "lockShape": "CircleLockEnemy",
        "denyLockOn": true,
        "lockType": "Default"
      }
    },
    "combatTemplate": "",
    "abilities": [
      {
        "abilityID": "ability_01",
        "abilityName": "SceneObj_Area_Cyg_Property_Ani_Prop_CygTeaSet_01",
        "abilityOverride": ""
      }
    ],
    "gadgetAction": {
      "gadgetStateActionList": [
        {
          "$type": "FJGKLJLPOGL",
          "intID": "GadgetState",
          "syncState": true
        }
      ]
    }
  },
  "SceneObj_Area_Cyg_Property_Ani_Prop_CygTeaPot_01": {
    "$type": "CJKJIENLOHD",
    "hasModel": true,
    "combat": {
      "property": {
        "hp": 99999.0,
        "isLockHP": true,
        "isGhostToEnemy": true
      },
      "combatLock": {
        "lockShape": "CircleLockEnemy",
        "denyLockOn": true,
        "lockType": "Default"
      }
    },
    "combatTemplate": "",
    "abilities": [
      {
        "abilityID": "ability_01",
        "abilityName": "SceneObj_Area_Cyg_Property_Ani_Prop_CygTeaPot_01",
        "abilityOverride": ""
      }
    ],
    "move": {
      "$type": "OEFHHKHPMCJ"
    },
    "gadgetAction": {
      "gadgetStateActionList": [
        {
          "$type": "FJGKLJLPOGL",
          "intID": "GadgetState",
          "syncState": true
        }
      ]
    }
  },
  "SceneObj_Area_Cyg_Property_Ani_Prop_GrainsOfGemstone_01": {
    "$type": "CJKJIENLOHD",
    "hasModel": true,
    "combat": {
      "property": {
        "hp": 99999.0,
        "isLockHP": true,
        "isGhostToAllied": true,
        "isGhostToEnemy": true
      },
      "combatLock": {
        "lockShape": "CircleLockEnemy",
        "denyLockOn": true,
        "lockType": "Default"
      }
    },
    "combatTemplate": "",
    "abilities": [
      {
        "abilityID": "ability_01",
        "abilityName": "SceneObj_Area_Cyg_Property_Ani_Prop_GrainsOfGemstone_01",
        "abilityOverride": ""
      }
    ]
  },
  "SceneObj_Area_Cyg_Property_Ani_Prop_CoverOfWallPainting_01": {
    "$type": "CJKJIENLOHD",
    "hasModel": true,
    "combat": {
      "property": {
        "hp": 99999.0,
        "isLockHP": true,
        "isGhostToAllied": true,
        "isGhostToEnemy": true
      },
      "combatLock": {
        "lockShape": "CircleLockEnemy",
        "denyLockOn": true,
        "lockType": "Default"
      }
    },
    "combatTemplate": "",
    "abilities": [
      {
        "abilityID": "ability_01",
        "abilityName": "SceneObj_Area_Cyg_Property_Ani_Prop_CoverOfWallPainting_01",
        "abilityOverride": ""
      }
    ],
    "gadgetAction": {
      "gadgetStateActionList": [
        {
          "$type": "FJGKLJLPOGL",
          "intID": "GadgetState",
          "syncState": true
        }
      ]
    }
  },
  "SceneObj_Area_Cyg_Property_Ani_Prop_CoverOfWallPainting_02": {
    "$type": "CJKJIENLOHD",
    "hasModel": true,
    "combat": {
      "property": {
        "hp": 99999.0,
        "isLockHP": true,
        "isGhostToAllied": true,
        "isGhostToEnemy": true
      },
      "combatLock": {
        "lockShape": "CircleLockEnemy",
        "denyLockOn": true,
        "lockType": "Default"
      }
    },
    "combatTemplate": "",
    "abilities": [
      {
        "abilityID": "ability_01",
        "abilityName": "SceneObj_Area_Cyg_Property_Ani_Prop_CoverOfWallPainting_02",
        "abilityOverride": ""
      }
    ],
    "gadgetAction": {
      "gadgetStateActionList": [
        {
          "$type": "FJGKLJLPOGL",
          "intID": "GadgetState",
          "syncState": true
        }
      ]
    }
  },
  "SceneObj_Area_Cyg_Property_Ani_Prop_CoverOfWallPainting_03": {
    "$type": "CJKJIENLOHD",
    "hasModel": true,
    "combat": {
      "property": {
        "hp": 99999.0,
        "isLockHP": true,
        "isGhostToAllied": true,
        "isGhostToEnemy": true
      },
      "combatLock": {
        "lockShape": "CircleLockEnemy",
        "denyLockOn": true,
        "lockType": "Default"
      }
    },
    "combatTemplate": "",
    "abilities": [
      {
        "abilityID": "ability_01",
        "abilityName": "SceneObj_Area_Cyg_Property_Ani_Prop_CoverOfWallPainting_03",
        "abilityOverride": ""
      }
    ],
    "gadgetAction": {
      "gadgetStateActionList": [
        {
          "$type": "FJGKLJLPOGL",
          "intID": "GadgetState",
          "syncState": true
        }
      ]
    }
  },
  "SceneObj_Area_Cyg_Property_Ani_Prop_TempleOfEarth_01": {
    "$type": "CJKJIENLOHD",
    "hasModel": true,
    "combat": {
      "property": {
        "hp": 99999.0,
        "isLockHP": true,
        "isGhostToAllied": true,
        "isGhostToEnemy": true
      },
      "combatLock": {
        "lockShape": "CircleLockEnemy",
        "denyLockOn": true,
        "lockType": "Default"
      }
    },
    "combatTemplate": "",
    "abilities": [
      {
        "abilityID": "ability_01",
        "abilityName": "SceneObj_Area_Cyg_Property_Ani_Prop_TempleOfEarth_01",
        "abilityOverride": ""
      }
    ],
    "gadgetAction": {
      "gadgetStateActionList": [
        {
          "$type": "FJGKLJLPOGL",
          "intID": "GadgetState",
          "syncState": true
        }
      ]
    }
  },
  "SceneObj_Area_Cyg_Property_Ani_Prop_GoldenFairySpirit_01": {
    "$type": "CJKJIENLOHD",
    "hasModel": true,
    "combat": {
      "property": {
        "hp": 99999.0,
        "isLockHP": true,
        "isGhostToAllied": true,
        "isGhostToEnemy": true
      },
      "combatLock": {
        "lockShape": "CircleLockEnemy",
        "denyLockOn": true,
        "lockType": "Default"
      }
    },
    "combatTemplate": "",
    "abilities": [
      {
        "abilityID": "ability_01",
        "abilityName": "SceneObj_Area_Cyg_Property_Ani_Prop_GoldenFairySpirit_01",
        "abilityOverride": ""
      }
    ],
    "move": {
      "$type": "OEFHHKHPMCJ"
    },
    "stateLayers": {
      "defaultLayer": {
        "$type": "GBGJJIIEMBD",
        "layerIndexName": "",
        "CPAANEIJCGD": "",
        "stateIDs": {
          "All": {
            "$type": "BEIEGKBABOF",
            "animatorStates": {
              "StandbyDown": [
                "StandbyDown"
              ],
              "JumpUp": [
                "JumpUp"
              ]
            }
          }
        }
      }
    }
  },
  "SceneObj_Area_Cyg_Property_Ani_Prop_WaterfallDoor_01": {
    "$type": "CJKJIENLOHD",
    "hasModel": true,
    "combat": {
      "property": {
        "hp": 99999.0,
        "isLockHP": true,
        "isGhostToAllied": true,
        "isGhostToEnemy": true
      },
      "combatLock": {
        "lockShape": "CircleLockEnemy",
        "denyLockOn": true,
        "lockType": "Default"
      }
    },
    "combatTemplate": "",
    "abilities": [
      {
        "abilityID": "ability_01",
        "abilityName": "SceneObj_Area_Cyg_Property_Ani_Prop_WaterfallDoor_01",
        "abilityOverride": ""
      }
    ],
    "gadgetAction": {
      "gadgetStateActionList": [
        {
          "$type": "FJGKLJLPOGL",
          "intID": "GadgetState",
          "syncState": true
        }
      ]
    }
  },
  "SceneObj_Area_Cyg_Property_Ani_Prop_CarpGemstone_01": {
    "$type": "CJKJIENLOHD",
    "common": {
      "isForceRefreshAuthotiryToHost": true
    },
    "hasModel": true,
    "combat": {
      "property": {
        "hp": 99999.0,
        "isLockHP": true,
        "isGhostToAllied": true,
        "isGhostToEnemy": true
      },
      "combatLock": {
        "lockShape": "CircleLockEnemy",
        "denyLockOn": true,
        "lockType": "Default"
      }
    },
    "combatTemplate": "",
    "abilities": [
      {
        "abilityID": "ability_01",
        "abilityName": "SceneObj_Area_Cyg_Property_Ani_Prop_CarpGemstone_01",
        "abilityOverride": ""
      }
    ]
  },
  "SceneObj_FengfuWave": {
    "$type": "CJKJIENLOHD",
    "hasModel": true,
    "combat": {
      "property": {
        "hp": 99999.0,
        "isLockHP": true,
        "isGhostToAllied": true,
        "isGhostToEnemy": true
      },
      "combatLock": {
        "lockShape": "CircleLockEnemy",
        "denyLockOn": true,
        "lockType": "Default"
      }
    },
    "combatTemplate": "",
    "abilities": [
      {
        "abilityID": "ability_01",
        "abilityName": "SceneObj_FengfuWave",
        "abilityOverride": ""
      }
    ],
    "gadgetAction": {
      "gadgetStateActionList": [
        {
          "$type": "FJGKLJLPOGL",
          "intID": "GadgetState",
          "syncState": true
        }
      ]
    }
  },
  "SceneObj_Area_Cyg_Property_Ani_Prop_WstWaterWave_01": {
    "$type": "CJKJIENLOHD",
    "common": {
      "isForceRefreshAuthotiryToHost": true
    },
    "hasModel": true,
    "combat": {
      "property": {
        "hp": 99999.0,
        "attack": 10000.0,
        "isLockHP": true,
        "isGhostToAllied": true,
        "isGhostToEnemy": true
      },
      "combatLock": {
        "lockShape": "CircleLockEnemy",
        "denyLockOn": true,
        "lockType": "Default"
      }
    },
    "combatTemplate": "",
    "abilities": [
      {
        "abilityID": "ability_01",
        "abilityName": "SceneObj_Area_Cyg_Property_Ani_Prop_WstWaterWave_01",
        "abilityOverride": ""
      }
    ],
    "gadgetAction": {
      "gadgetStateActionList": [
        {
          "$type": "FJGKLJLPOGL",
          "intID": "GadgetState",
          "syncState": true
        }
      ]
    }
  },
  "Bullet_WstWaterWave": {
    "$type": "CJKJIENLOHD",
    "common": {
      "effectAttachShape": {
        "$type": "OMIODKONOMG",
        "scaleX": 2.4000000953674316,
        "scaleY": 2.4000000953674316,
        "scaleZ": 2.4000000953674316
      },
      "affectedByWorld": true
    },
    "combat": {
      "property": {
        "useCreatorProperty": true,
        "attack": 10000.0,
        "isGhostToAllied": true,
        "isGhostToEnemy": true
      },
      "combatLock": {
        "lockShape": "CircleLockEnemy",
        "denyLockOn": true,
        "lockType": "Default"
      }
    },
    "combatTemplate": "",
    "abilities": [
      {
        "abilityID": "Bullet_WstWaterWave",
        "abilityName": "Bullet_WstWaterWave",
        "abilityOverride": ""
      }
    ],
    "timer": {
      "lifeTime": 5.0
    },
    "move": {
      "$type": "GONNMCBKAOC",
      "speed": 20.0,
      "anglerVelocity": 50000.0,
      "syncToRemote": true
    },
    "gadget": {
      "$type": "JENBBNKGGJP",
      "collision": {
        "ccd": {
          "damageRatio": "Always"
        },
        "triggerType": "TriggerNoRepeat",
        "targetType": "Enemy",
        "ignoreWater": true
      },
      "triggerActions": [
        {
          "$type": "AILPBJHDHDG",
          "abilityName": "Bullet_WstWaterWave"
        }
      ]
    }
  },
  "SceneObj_Area_Cyg_Property_Ani_Prop_ImmortalHairpinRock_01": {
    "$type": "CJKJIENLOHD",
    "common": {
      "disableTickDistance": 100000.0
    },
    "hasModel": true,
    "combat": {
      "property": {
        "hp": 99999.0,
        "isLockHP": true,
        "isGhostToAllied": true,
        "isGhostToEnemy": true
      },
      "combatLock": {
        "lockShape": "CircleLockEnemy",
        "denyLockOn": true,
        "lockType": "Default"
      }
    },
    "combatTemplate": "",
    "move": {
      "$type": "OEFHHKHPMCJ"
    },
    "gadgetAction": {
      "gadgetStateActionList": [
        {
          "$type": "FJGKLJLPOGL",
          "intID": "GadgetState",
          "syncState": true
        }
      ]
    }
  },
  "SceneObj_HairpinBase_FollowMove": {
    "$type": "CJKJIENLOHD",
    "common": {
      "disableTickDistance": 100000.0
    },
    "hasModel": true,
    "combat": {
      "property": {
        "hp": 99999.0,
        "isLockHP": true,
        "isGhostToAllied": true,
        "isGhostToEnemy": true
      },
      "combatLock": {
        "lockShape": "CircleLockEnemy",
        "denyLockOn": true,
        "lockType": "Default"
      }
    },
    "combatTemplate": "",
    "move": {
      "$type": "MMAPEFIEGAL",
      "target": "GroupGadgetEntity",
      "attachPoint": "",
      "followRotation": true,
      "handleInLateTick": true,
      "LFOHLEKJFBI": ""
    }
  },
  "SceneObj_Area_Cyg_Property_Ani_Decal_ImmortalHairpin_FollowMove_01": {
    "$type": "CJKJIENLOHD",
    "common": {
      "disableTickDistance": 100000.0
    },
    "hasModel": true,
    "combat": {
      "property": {
        "hp": 99999.0,
        "isLockHP": true,
        "isGhostToAllied": true,
        "isGhostToEnemy": true
      },
      "combatLock": {
        "lockShape": "CircleLockEnemy",
        "denyLockOn": true,
        "lockType": "Default"
      }
    },
    "combatTemplate": "",
    "move": {
      "$type": "MMAPEFIEGAL",
      "target": "GroupGadgetEntity",
      "attachPoint": "",
      "followRotation": true,
      "handleInLateTick": true,
      "LFOHLEKJFBI": ""
    }
  },
  "SceneObj_Area_LY_Property_Ani_Prop_ControlPlatform_OpenWaterFall": {
    "$type": "CJKJIENLOHD",
    "common": {
      "overrideCullBoundsRadius": 150.0,
      "disableTickDistance": 1500.0,
      "isForceRefreshAuthotiryToHost": true
    },
    "hasModel": true,
    "combat": {
      "property": {
        "hp": 1000.0,
        "attack": 100.0,
        "weight": 50.0,
        "isLockHP": true
      },
      "beHit": {
        "hitBloodEffect": "",
        "hitAutoRedirect": false,
        "muteAllHitEffect": true,
        "muteAllHitText": true
      },
      "combatLock": {
        "lockShape": "CircleLockEnemy",
        "denyLockOn": true,
        "lockType": "Gadget_Lv1"
      },
      "die": {
        "dieForceDisappearTime": 0.0,
        "dieDisappearEffect": ""
      }
    },
    "combatTemplate": "",
    "abilities": [
      {
        "abilityID": "SceneObj_Area_LY_Property_Ani_Prop_ControlPlatform_OpenWaterFall",
        "abilityName": "SceneObj_Area_LY_Property_Ani_Prop_ControlPlatform_OpenWaterFall",
        "abilityOverride": ""
      }
    ],
    "move": {
      "$type": "OEFHHKHPMCJ",
      "LIFBDKPAGKI": true
    }
  },
  "SceneObj_Area_Cyg_Property_Ani_Prop_CygMemories_01": {
    "$type": "CJKJIENLOHD",
    "model": {
      "bornEffect": "",
      "attachEffect": "Eff_SceneObj_CygMemories_01",
      "BKPFGNPLDNJ": ""
    },
    "hasModel": true,
    "hasAbility": true,
    "combatTemplate": "",
    "abilities": [
      {
        "abilityID": "SceneObj_Area_Cyg_Property_Ani_Prop_CygMemories_01",
        "abilityName": "SceneObj_Area_Cyg_Property_Ani_Prop_CygMemories_01",
        "abilityOverride": ""
      }
    ],
    "misc": {
      "pickup": {
        "pickType": "AutoSelect",
        "isStatic": true,
        "bornEffect": "",
        "dropEffect": "",
        "attractAudio": ""
      },
      "escapeEffect": ""
    },
    "audio": {
      "$type": "DEGGADLMEOK",
      "overrideEmitterName": "",
      "animAudio": {},
      "initEvent": {
        "text": "Play_amb_sceneObj_item_windCrystal_idle"
      },
      "disableEvent": {
        "text": "Stop_amb_sceneObj_item_windCrystal_idle"
      },
      "destroyEvent": {
        "text": "Stop_amb_sceneObj_item_windCrystal_idle"
      }
    },
    "radarHint": true,
    "gadgetAction": {
      "gadgetStateActionList": [
        {
          "$type": "DEMJBAICBKO",
          "enable": true
        },
        {
          "$type": "DEMJBAICBKO",
          "triggerID": "GearAction1"
        }
      ]
    }
  },
  "SceneObj_Gather_CygMemories_Fly_Gather": {
    "$type": "CJKJIENLOHD",
    "model": {
      "bornEffect": "",
      "attachEffect": "Eff_SceneObj_CygMemories_01_Bullet",
      "BKPFGNPLDNJ": ""
    },
    "hasModel": true,
    "combatTemplate": "",
    "abilities": [
      {
        "abilityID": "Ability_01",
        "abilityName": "SceneObj_Gather_CygMemories_Fly_Gather",
        "abilityOverride": ""
      }
    ]
  },
  "SceneObj_Area_Cyg_Property_Ani_Prop_Scarecrow_Red_01": {
    "$type": "CJKJIENLOHD",
    "hasModel": true,
    "combat": {
      "property": {
        "hp": 20.0,
        "attack": 15.0,
        "weight": 50.0
      },
      "beHit": {
        "hitBloodEffect": "",
        "hitAutoRedirect": false
      },
      "combatLock": {
        "lockShape": "CircleLockEnemy",
        "denyLockOn": true,
        "lockType": "Gadget_Lv1"
      },
      "die": {
        "dieForceDisappearTime": 0.019999999552965164,
        "dieDisappearEffect": "Eff_SceneObj_Scarecrow_02"
      }
    },
    "combatTemplate": "",
    "abilities": [
      {
        "abilityID": "Ability_01",
        "abilityName": "SceneObj_Area_Cyg_Property_Ani_Prop_Scarecrow_Red_01",
        "abilityOverride": ""
      }
    ],
    "billboard": {
      "$type": "DNGNMAJBCNP",
      "attachPoint": "BillboardAttach",
      "offset": {
        "y": 2.200000047683716
      },
      "radiusOffset": 1.0,
      "showDistance": 0.0
    }
  },
  "SceneObj_Area_Cyg_Property_Ani_Prop_Scarecrow_Blue_01": {
    "$type": "CJKJIENLOHD",
    "hasModel": true,
    "combat": {
      "property": {
        "hp": 20.0,
        "attack": 15.0,
        "weight": 50.0
      },
      "beHit": {
        "hitBloodEffect": "",
        "hitAutoRedirect": false
      },
      "combatLock": {
        "lockShape": "CircleLockEnemy",
        "denyLockOn": true,
        "lockType": "Gadget_Lv1"
      },
      "die": {
        "dieForceDisappearTime": 0.019999999552965164,
        "dieDisappearEffect": "Eff_SceneObj_Scarecrow_02"
      }
    },
    "combatTemplate": "",
    "abilities": [
      {
        "abilityID": "Ability_01",
        "abilityName": "SceneObj_Area_Cyg_Property_Ani_Prop_Scarecrow_Red_01",
        "abilityOverride": ""
      }
    ],
    "billboard": {
      "$type": "DNGNMAJBCNP",
      "attachPoint": "BillboardAttach",
      "offset": {
        "y": 2.200000047683716
      },
      "radiusOffset": 1.0,
      "showDistance": 0.0
    }
  },
  "SceneObj_Area_Cyg_Property_Ani_Prop_KoiLantern_01": {
    "$type": "CJKJIENLOHD",
    "hasModel": true,
    "combat": {
      "property": {
        "hp": 99999.0,
        "isLockHP": true,
        "isGhostToAllied": true,
        "isGhostToEnemy": true
      },
      "combatLock": {
        "lockShape": "CircleLockEnemy",
        "denyLockOn": true,
        "lockType": "Default"
      }
    },
    "combatTemplate": "",
    "abilities": [
      {
        "abilityID": "ability_01",
        "abilityName": "SceneObj_Area_Cyg_Property_Ani_Prop_KoiLantern_01",
        "abilityOverride": ""
      }
    ]
  },
  "SceneObj_Area_Cyg_Property_Ani_Prop_YdgCaveButterfly_01": {
    "$type": "CJKJIENLOHD",
    "hasModel": true,
    "combat": {
      "property": {
        "hp": 99999.0,
        "isLockHP": true,
        "isGhostToAllied": true,
        "isGhostToEnemy": true
      },
      "combatLock": {
        "lockShape": "CircleLockEnemy",
        "denyLockOn": true,
        "lockType": "Default"
      }
    },
    "combatTemplate": "",
    "abilities": [
      {
        "abilityID": "ability_01",
        "abilityName": "SceneObj_Area_Cyg_Property_Ani_Prop_YdgCaveButterfly_01",
        "abilityOverride": ""
      }
    ],
    "uiInteract": {
      "gadgetUIBtnCfgPath": "TEST/TEST_Chest_Btn",
      "uiName": "LEVEL_BUTTON_CATCH_A_BUTTERFLY",
      "onTouch": "WidgetMPSupport",
      "touchParams": [
        "SceneObj_Area_Cyg_Property_Ani_Prop_YdgCaveButterfly_01"
      ],
      "icon": "UI_Icon_Intee_PickUp",
      "groupName": "",
      "confirmDialogTitle": "",
      "confirmDialogContent": "",
      "showCondTypesV2": [
        "HOST"
      ]
    },
    "gadgetAction": {
      "gadgetStateActionList": [
        {
          "$type": "DEMJBAICBKO",
          "enable": true
        },
        {
          "$type": "DEMJBAICBKO",
          "triggerID": "ChestLocked",
          "enable": true
        },
        {
          "$type": "DEMJBAICBKO",
          "triggerID": "GearStart"
        }
      ]
    },
    "intee": {
      "triggerHeight": 5.0,
      "KAMIAMNMFCP": ""
    }
  },
  "SceneObj_Area_Cyg_Property_Ani_Prop_YunqiRoot_01": {
    "$type": "CJKJIENLOHD",
    "hasModel": true,
    "combat": {
      "property": {
        "hp": 99999.0,
        "isLockHP": true,
        "isGhostToAllied": true,
        "isGhostToEnemy": true
      },
      "combatLock": {
        "lockShape": "CircleLockEnemy",
        "denyLockOn": true,
        "lockType": "Default"
      }
    },
    "combatTemplate": "",
    "abilities": [
      {
        "abilityID": "ability_01",
        "abilityName": "SceneObj_Area_Cyg_Property_Ani_Prop_YunqiRoot_01",
        "abilityOverride": ""
      }
    ]
  },
  "SceneObj_Area_Cyg_Property_Ani_Prop_CarpPortal_01": {
    "$type": "CJKJIENLOHD",
    "hasModel": true,
    "combat": {
      "property": {
        "hp": 99999.0,
        "isLockHP": true,
        "isGhostToAllied": true,
        "isGhostToEnemy": true
      },
      "combatLock": {
        "lockShape": "CircleLockEnemy",
        "denyLockOn": true,
        "lockType": "Default"
      }
    },
    "combatTemplate": "",
    "abilities": [
      {
        "abilityID": "ability_01",
        "abilityName": "SceneObj_Area_Cyg_Property_Ani_Prop_CarpPortal_01",
        "abilityOverride": ""
      }
    ],
    "uiInteract": {
      "gadgetUIBtnCfgPath": "TEST/TEST_Chest_Btn",
      "uiName": "UI_GadgetUI_70292059",
      "onTouch": "WidgetMPSupport",
      "touchParams": [
        "SceneObj_Area_Cyg_Property_Ani_Prop_CarpPortal_01"
      ],
      "icon": "UI_Icon_Intee_Mechanism",
      "groupName": "",
      "confirmDialogTitle": "",
      "confirmDialogContent": ""
    },
    "gadgetAction": {
      "gadgetStateActionList": [
        {
          "$type": "DEMJBAICBKO",
          "enable": true
        },
        {
          "$type": "DEMJBAICBKO",
          "triggerID": "GearStop"
        }
      ]
    },
    "intee": {
      "KAMIAMNMFCP": ""
    }
  },
  "SceneObj_LXSJadeCore": {
    "$type": "CJKJIENLOHD",
    "common": {
      "disableTickDistance": 100000.0
    },
    "hasModel": true,
    "combat": {
      "property": {
        "hp": 99999.0,
        "isLockHP": true,
        "isGhostToAllied": true,
        "isGhostToEnemy": true
      },
      "combatLock": {
        "lockShape": "CircleLockEnemy",
        "denyLockOn": true,
        "lockType": "Default"
      }
    },
    "combatTemplate": "",
    "abilities": [
      {
        "abilityID": "ability_01",
        "abilityName": "SceneObj_LXSJadeCore",
        "abilityOverride": ""
      }
    ]
  },
  "SceneObj_LXSJadeCore_02": {
    "$type": "CJKJIENLOHD",
    "common": {
      "disableTickDistance": 100000.0
    },
    "hasModel": true,
    "combat": {
      "property": {
        "hp": 99999.0,
        "isLockHP": true,
        "isGhostToAllied": true,
        "isGhostToEnemy": true
      },
      "combatLock": {
        "lockShape": "CircleLockEnemy",
        "denyLockOn": true,
        "lockType": "Default"
      }
    },
    "combatTemplate": "",
    "abilities": [
      {
        "abilityID": "ability_01",
        "abilityName": "SceneObj_LXSJadeCore_02",
        "abilityOverride": ""
      }
    ]
  },
  "SceneObj_LXSJadeCore_Side": {
    "$type": "CJKJIENLOHD",
    "hasModel": true,
    "combat": {
      "property": {
        "hp": 99999.0,
        "isLockHP": true,
        "isGhostToAllied": true,
        "isGhostToEnemy": true
      },
      "combatLock": {
        "lockShape": "CircleLockEnemy",
        "denyLockOn": true,
        "lockType": "Default"
      }
    },
    "combatTemplate": ""
  },
  "SceneObj_Area_Cyg_Property_Ani_Prop_ImmortalizationalAquaticAnimals_01": {
    "$type": "CJKJIENLOHD",
    "common": {
      "disableTickDistance": 1500.0
    },
    "hasModel": true,
    "combat": {
      "property": {
        "hp": 1000.0,
        "attack": 100.0,
        "weight": 50.0,
        "isLockHP": true,
        "isGhostToAllied": true,
        "canTriggerBullet": false
      },
      "beHit": {
        "hitBloodEffect": "",
        "hitAutoRedirect": false,
        "muteAllHitEffect": true,
        "muteAllHitText": true
      },
      "combatLock": {
        "lockShape": "CircleLockEnemy",
        "denyLockOn": true,
        "lockType": "Gadget_Lv1"
      }
    },
    "combatTemplate": "",
    "abilities": [
      {
        "abilityID": "SceneObj_Area_Cyg_Property_Ani_Prop_ImmortalizationalAquaticAnimals_01",
        "abilityName": "SceneObj_Area_Cyg_Property_Ani_Prop_ImmortalizationalAquaticAnimals_01",
        "abilityOverride": ""
      }
    ],
    "field": {
      "concernType": "AllAvatars",
      "shape": "CircleR4",
      "fromShape": "",
      "triggerInfinite": true,
      "lifeInfinite": true,
      "checkInterval": 0.30000001192092896,
      "overwriteCampType": true,
      "campType": "All",
      "colliderName": "",
      "fromColliderName": ""
    },
    "move": {
      "$type": "OEFHHKHPMCJ",
      "avatarTriggerEventDistance": 4.0
    }
  },
  "SceneObj_Area_Cyg_Property_Ani_Prop_BambooRaft_MusicPlayer_FollowMove_01": {
    "$type": "CJKJIENLOHD",
    "common": {
      "disableTickDistance": 100000.0
    },
    "KJGJCNANPJP": true,
    "hasModel": true,
    "combat": {
      "property": {
        "hp": 99999.0,
        "isLockHP": true,
        "isGhostToAllied": true,
        "isGhostToEnemy": true
      },
      "combatLock": {
        "lockShape": "CircleLockEnemy",
        "denyLockOn": true,
        "lockType": "Default"
      }
    },
    "combatTemplate": "",
    "abilities": [
      {
        "abilityID": "ability_01",
        "abilityName": "SceneObj_Area_Cyg_Property_Ani_Prop_BambooRaft_MusicPlayer_01",
        "abilityOverride": ""
      }
    ],
    "move": {
      "$type": "MMAPEFIEGAL",
      "target": "GroupGadgetEntity",
      "attachPoint": "",
      "followRotation": true,
      "syncTransToServer": true,
      "handleInLateTick": true,
      "LFOHLEKJFBI": ""
    },
    "audio": {
      "$type": "DEGGADLMEOK",
      "overrideEmitterName": "",
      "behaviours": [
        {
          "$type": "NHOIGOEIOCB",
          "BACKPIDGIPJ": [
            {
              "$type": "DELPJNMAIHM",
              "OPEMPFCFHMO": "_DefaultSync_",
              "action": {
                "$type": "DACJCGLBKKE",
                "stateGroup": {
                  "text": "StateGroup_v44_barcarolla"
                },
                "stateValue": {
                  "text": "State_barcarolla_On"
                }
              }
            },
            {
              "$type": "DELPJNMAIHM",
              "OPEMPFCFHMO": "_DefaultSync_",
              "action": {
                "$type": "CPBMHBHJPKE",
                "eventName": {
                  "text": "Play_Music_Explore_Barcarolla"
                }
              }
            }
          ],
          "onDisable": [
            {
              "$type": "DELPJNMAIHM",
              "OPEMPFCFHMO": "_DefaultSync_",
              "action": {
                "$type": "CPBMHBHJPKE",
                "eventName": {
                  "text": "Stop_Music_Explore_Barcarolla"
                }
              }
            },
            {
              "$type": "DELPJNMAIHM",
              "OPEMPFCFHMO": "_DefaultSync_",
              "action": {
                "$type": "DACJCGLBKKE",
                "stateGroup": {
                  "text": "StateGroup_v44_barcarolla"
                },
                "stateValue": {
                  "text": "State_barcarolla_Off"
                }
              }
            }
          ]
        }
      ]
    }
  },
  "SceneObj_Area_Cyg_Property_Ani_Prop_BambooRaft_MusicPlayer_FollowMove_02": {
    "$type": "CJKJIENLOHD",
    "common": {
      "disableTickDistance": 100000.0
    },
    "KJGJCNANPJP": true,
    "hasModel": true,
    "combat": {
      "property": {
        "hp": 99999.0,
        "isLockHP": true,
        "isGhostToAllied": true,
        "isGhostToEnemy": true
      },
      "combatLock": {
        "lockShape": "CircleLockEnemy",
        "denyLockOn": true,
        "lockType": "Default"
      }
    },
    "combatTemplate": "",
    "abilities": [
      {
        "abilityID": "ability_01",
        "abilityName": "SceneObj_Area_Cyg_Property_Ani_Prop_BambooRaft_MusicPlayer_01",
        "abilityOverride": ""
      }
    ],
    "move": {
      "$type": "MMAPEFIEGAL",
      "target": "GroupGadgetEntity",
      "attachPoint": "",
      "followRotation": true,
      "syncTransToServer": true,
      "handleInLateTick": true,
      "LFOHLEKJFBI": ""
    },
    "audio": {
      "$type": "DEGGADLMEOK",
      "overrideEmitterName": "",
      "behaviours": [
        {
          "$type": "NHOIGOEIOCB",
          "BACKPIDGIPJ": [
            {
              "$type": "DELPJNMAIHM",
              "OPEMPFCFHMO": "_DefaultSync_",
              "action": {
                "$type": "DACJCGLBKKE",
                "stateGroup": {
                  "text": "StateGroup_v44_barcarolla_b"
                },
                "stateValue": {
                  "text": "State_barcarolla_b_On"
                }
              }
            },
            {
              "$type": "DELPJNMAIHM",
              "OPEMPFCFHMO": "_DefaultSync_",
              "action": {
                "$type": "CPBMHBHJPKE",
                "eventName": {
                  "text": "Play_Music_Explore_Barcarolla_b"
                }
              }
            }
          ],
          "onDisable": [
            {
              "$type": "DELPJNMAIHM",
              "OPEMPFCFHMO": "_DefaultSync_",
              "action": {
                "$type": "CPBMHBHJPKE",
                "eventName": {
                  "text": "Stop_Music_Explore_Barcarolla_b"
                }
              }
            },
            {
              "$type": "DELPJNMAIHM",
              "OPEMPFCFHMO": "_DefaultSync_",
              "action": {
                "$type": "DACJCGLBKKE",
                "stateGroup": {
                  "text": "StateGroup_v44_barcarolla_b"
                },
                "stateValue": {
                  "text": "State_barcarolla_b_Off"
                }
              }
            }
          ]
        }
      ]
    }
  },
  "SceneObj_Area_Cyg_Property_Ani_Prop_Empty_T_01": {
    "$type": "CJKJIENLOHD",
    "common": {
      "isForceRefreshAuthotiryToHost": true
    },
    "hasModel": true,
    "combat": {
      "property": {
        "hp": 99999.0,
        "isLockHP": true,
        "isGhostToAllied": true,
        "isGhostToEnemy": true
      },
      "combatLock": {
        "lockShape": "CircleLockEnemy",
        "denyLockOn": true,
        "lockType": "Default"
      }
    },
    "combatTemplate": "",
    "abilities": [
      {
        "abilityID": "ability_01",
        "abilityName": "SceneObj_Area_Cyg_Property_Ani_Prop_Empty_T_01",
        "abilityOverride": ""
      }
    ]
  },
  "SceneObj_Area_Cyg_Property_Ani_Prop_Empty_T_02": {
    "$type": "CJKJIENLOHD",
    "common": {
      "isForceRefreshAuthotiryToHost": true
    },
    "hasModel": true,
    "combat": {
      "property": {
        "hp": 99999.0,
        "isLockHP": true,
        "isGhostToAllied": true,
        "isGhostToEnemy": true
      },
      "combatLock": {
        "lockShape": "CircleLockEnemy",
        "denyLockOn": true,
        "lockType": "Default"
      }
    },
    "combatTemplate": "",
    "abilities": [
      {
        "abilityID": "ability_01",
        "abilityName": "SceneObj_Area_Cyg_Property_Ani_Prop_Empty_T_02",
        "abilityOverride": ""
      }
    ]
  },
  "SceneObj_Area_Cyg_Property_Ani_Prop_QingTongGuan_Small_01": {
    "$type": "CJKJIENLOHD",
    "hasModel": true,
    "combat": {
      "property": {
        "hp": 99999.0,
        "isLockHP": true,
        "isGhostToAllied": true,
        "isGhostToEnemy": true
      },
      "combatLock": {
        "lockShape": "CircleLockEnemy",
        "denyLockOn": true,
        "lockType": "Default"
      }
    },
    "combatTemplate": "",
    "abilities": [
      {
        "abilityID": "SceneObj_Area_Cyg_Property_Ani_Prop_QingTongGuan_Small_01",
        "abilityName": "SceneObj_Area_Cyg_Property_Ani_Prop_QingTongGuan_Small_01",
        "abilityOverride": ""
      }
    ]
  },
  "SceneObj_Area_Cyg_Property_Ani_Prop_QingTongGuan_Big_01": {
    "$type": "CJKJIENLOHD",
    "hasModel": true,
    "combat": {
      "property": {
        "hp": 99999.0,
        "isLockHP": true,
        "isGhostToAllied": true,
        "isGhostToEnemy": true
      },
      "combatLock": {
        "lockShape": "CircleLockEnemy",
        "denyLockOn": true,
        "lockType": "Default"
      }
    },
    "combatTemplate": "",
    "abilities": [
      {
        "abilityID": "SceneObj_Area_Cyg_Property_Ani_Prop_QingTongGuan_Big_01",
        "abilityName": "SceneObj_Area_Cyg_Property_Ani_Prop_QingTongGuan_Big_01",
        "abilityOverride": ""
      }
    ]
  },
  "SceneObj_Area_Cyg_Property_Ani_Prop_WaterWave_01": {
    "$type": "CJKJIENLOHD",
    "model": {
      "bornEffect": "",
      "attachEffect": "Eff_SceneObj_Waterwave_01",
      "BKPFGNPLDNJ": ""
    },
    "hasModel": true,
    "combat": {
      "property": {
        "hp": 99999.0,
        "isLockHP": true,
        "isGhostToAllied": true,
        "isGhostToEnemy": true
      },
      "combatLock": {
        "lockShape": "CircleLockEnemy",
        "denyLockOn": true,
        "lockType": "Default"
      }
    },
    "combatTemplate": ""
  },
  "SceneObj_Area_Cyg_Property_Ani_Prop_GasColorGrading_01": {
    "$type": "CJKJIENLOHD",
    "hasModel": true,
    "combat": {
      "property": {
        "hp": 99999.0,
        "isLockHP": true,
        "isGhostToAllied": true,
        "isGhostToEnemy": true
      },
      "combatLock": {
        "lockShape": "CircleLockEnemy",
        "denyLockOn": true,
        "lockType": "Default"
      }
    },
    "combatTemplate": "",
    "abilities": [
      {
        "abilityID": "SceneObj_Area_Cyg_Property_Ani_Prop_GasColorGrading_01",
        "abilityName": "SceneObj_Area_Cyg_Property_Ani_Prop_GasColorGrading_01",
        "abilityOverride": ""
      }
    ],
    "openWatcher": true
  },
  "SceneObj_Area_Cyg_Property_Ani_Prop_GasShockwave_01": {
    "$type": "CJKJIENLOHD",
    "hasModel": true,
    "combat": {
      "property": {
        "hp": 99999.0,
        "isLockHP": true,
        "isGhostToAllied": true,
        "isGhostToEnemy": true
      },
      "combatLock": {
        "lockShape": "CircleLockEnemy",
        "denyLockOn": true,
        "lockType": "Default"
      }
    },
    "combatTemplate": "",
    "abilities": [
      {
        "abilityID": "SceneObj_Area_Cyg_Property_Ani_Prop_GasShockwave_01",
        "abilityName": "SceneObj_Area_Cyg_Property_Ani_Prop_GasShockwave_01",
        "abilityOverride": ""
      }
    ]
  },
  "SceneObj_Area_Cyg_Property_Ani_Prop_CygTeacupMountain_01": {
    "$type": "CJKJIENLOHD",
    "hasModel": true,
    "combat": {
      "property": {
        "hp": 99999.0,
        "isLockHP": true,
        "isGhostToAllied": true,
        "isGhostToEnemy": true
      },
      "combatLock": {
        "lockShape": "CircleLockEnemy",
        "denyLockOn": true,
        "lockType": "Default"
      }
    },
    "combatTemplate": "",
    "abilities": [
      {
        "abilityID": "SceneObj_Area_Cyg_Property_Ani_Prop_CygTeacupMountain_01",
        "abilityName": "SceneObj_Area_Cyg_Property_Ani_Prop_CygTeacupMountain_01",
        "abilityOverride": ""
      }
    ],
    "field": {
      "concernType": "AllTeams",
      "shape": "CircleR10H10",
      "fromShape": "",
      "triggerInfinite": true,
      "lifeInfinite": true,
      "checkInterval": 0.30000001192092896,
      "overwriteCampType": true,
      "campType": "All",
      "useCollider": false,
      "colliderName": "",
      "fromColliderName": ""
    }
  },
  "SceneObj_Area_Cyg_Property_Ani_Prop_GasColorGrading_02": {
    "$type": "CJKJIENLOHD",
    "hasModel": true,
    "combat": {
      "property": {
        "hp": 99999.0,
        "isLockHP": true,
        "isGhostToAllied": true,
        "isGhostToEnemy": true
      },
      "combatLock": {
        "lockShape": "CircleLockEnemy",
        "denyLockOn": true,
        "lockType": "Default"
      }
    },
    "combatTemplate": "",
    "abilities": [
      {
        "abilityID": "SceneObj_Area_Cyg_Property_Ani_Prop_GasColorGrading_02",
        "abilityName": "SceneObj_Area_Cyg_Property_Ani_Prop_GasColorGrading_02",
        "abilityOverride": ""
      }
    ]
  },
  "SceneObj_Area_Common_Property_Ani_V4_4ColorGradingVolumeFaster_01": {
    "$type": "CJKJIENLOHD",
    "hasModel": true,
    "combat": {
      "property": {
        "hp": 99999.0,
        "attack": 50.0,
        "weight": 50.0,
        "isInvincible": true,
        "isLockHP": true
      },
      "beHit": {
        "hitBloodEffect": "",
        "hitAutoRedirect": false,
        "muteAllHitText": true
      },
      "combatLock": {
        "lockShape": "CircleLockEnemy",
        "denyLockOn": true,
        "lockType": "Gadget_Lv1"
      }
    },
    "combatTemplate": "",
    "abilities": [
      {
        "abilityID": "SceneObj_Area_Common_Property_Ani_V4_4ColorGradingVolumeFaster_01",
        "abilityName": "SceneObj_Area_Common_Property_Ani_V4_4ColorGradingVolumeFaster_01",
        "abilityOverride": ""
      }
    ],
    "gadgetAction": {
      "gadgetStateActionList": [
        {
          "$type": "FJGKLJLPOGL",
          "intID": "GadgetState",
          "syncState": true
        }
      ]
    }
  },
  "SceneObj_Area_Common_Property_Ani_Prop_SpiderWeb_01": {
    "$type": "CJKJIENLOHD",
    "common": {
      "effectAttachShape": {
        "$type": "OMCHDAEMBOG",
        "mesh": "EffectMesh"
      }
    },
    "hasModel": true,
    "combat": {
      "property": {
        "useCreatorProperty": true,
        "hp": 100.0,
        "attack": 20.0,
        "weight": 50.0
      },
      "beHit": {
        "hitBloodEffect": "",
        "hitAutoRedirect": false,
        "muteAllHitText": true
      },
      "combatLock": {
        "lockShape": "CircleLockEnemy",
        "lockType": "Avatar&Monster_Lv4"
      },
      "die": {
        "dieEndTime": 0.10000000149011612,
        "dieForceDisappearTime": 0.10000000149011612,
        "dieDisappearEffect": ""
      }
    },
    "combatTemplate": "",
    "abilities": [
      {
        "abilityID": "SceneObj_Area_Common_Property_Ani_Prop_SpiderWeb_01",
        "abilityName": "SceneObj_Area_Common_Property_Ani_Prop_SpiderWeb_01",
        "abilityOverride": ""
      }
    ],
    "stateLayers": {
      "defaultLayer": {
        "$type": "GBGJJIIEMBD",
        "layerIndexName": "",
        "CPAANEIJCGD": "",
        "stateIDs": {
          "All": {
            "$type": "BEIEGKBABOF",
            "animatorStates": {
              "Stay": [
                "Cobweb_Hit_Protect_Relieve"
              ],
              "Hit": [
                "Cobweb_Hit_Protect",
                "Cobweb_Hit_Refresh"
              ]
            }
          }
        }
      }
    },
    "billboard": {
      "$type": "DNGNMAJBCNP",
      "attachPoint": "AttachPoint",
      "offset": {
        "y": 0.8999999761581421
      },
      "radiusOffset": 1.0,
      "showDistance": 25.0,
      "showHPBar": true
    }
  },
  "SceneObj_Area_Cyg_Property_Ani_Prop_Silong_Small_01": {
    "$type": "CJKJIENLOHD",
    "hasModel": true,
    "combatTemplate": "",
    "abilities": [
      {
        "abilityID": "SceneObj_Area_Cyg_Property_Ani_Prop_Silong_Small_01",
        "abilityName": "SceneObj_Area_Cyg_Property_Ani_Prop_Silong_Small_01",
        "abilityOverride": ""
      }
    ]
  },
  "SceneObj_Area_Cyg_Property_Ani_Prop_YunqiRoot_02": {
    "$type": "CJKJIENLOHD",
    "hasModel": true,
    "combat": {
      "property": {
        "hp": 99999.0,
        "isLockHP": true,
        "isGhostToAllied": true,
        "isGhostToEnemy": true
      },
      "combatLock": {
        "lockShape": "CircleLockEnemy",
        "denyLockOn": true,
        "lockType": "Default"
      }
    },
    "combatTemplate": "",
    "abilities": [
      {
        "abilityID": "ability_01",
        "abilityName": "SceneObj_Area_Cyg_Property_Ani_Prop_YunqiRoot_02",
        "abilityOverride": ""
      }
    ]
  },
  "SceneObj_Area_Cyjy_Property_Ani_Prop_GeoGlideChampOrb_3R": {
    "$type": "CJKJIENLOHD",
    "model": {
      "bornEffect": "",
      "attachEffect": "Eff_SceneObj_GlideChampOrb_03",
      "BKPFGNPLDNJ": ""
    },
    "hasModel": true,
    "combat": {
      "property": {
        "hp": 99999.0,
        "attack": 50.0,
        "weight": 50.0,
        "isLockHP": true
      },
      "beHit": {
        "hitBloodEffect": "",
        "hitAutoRedirect": false,
        "muteAllHitText": true
      },
      "combatLock": {
        "lockShape": "CircleLockEnemy",
        "denyLockOn": true,
        "lockType": "Gadget_Lv1"
      }
    },
    "combatTemplate": "",
    "abilities": [
      {
        "abilityID": "SceneObj_Area_Cyjy_Property_Ani_Prop_GeoGlideChampOrb_01",
        "abilityName": "SceneObj_Area_Cyjy_Property_Ani_Prop_GeoGlideChampOrb_01",
        "abilityOverride": ""
      }
    ],
    "field": {
      "concernType": "AllAvatars",
      "shape": "CircleR3H5",
      "fromShape": "",
      "triggerInfinite": true,
      "lifeInfinite": true,
      "checkInterval": 0.20000000298023224,
      "overwriteCampType": true,
      "campType": "All",
      "colliderName": "",
      "fromColliderName": ""
    }
  },
  "SceneObj_Area_Cyg_Property_Ani_Prop_Ydgjar_Base": {
    "$type": "CJKJIENLOHD",
    "hasModel": true,
    "combat": {
      "property": {
        "hp": 99999.0,
        "isLockHP": true,
        "isGhostToAllied": true,
        "isGhostToEnemy": true
      },
      "combatLock": {
        "lockShape": "CircleLockEnemy",
        "denyLockOn": true,
        "lockType": "Default"
      }
    },
    "combatTemplate": ""
  },
  "Camera_Scene_Look_Fov_Override": {
    "$type": "CJKJIENLOHD",
    "hasModel": true,
    "combat": {
      "property": {
        "hp": 99999.0,
        "isLockHP": true,
        "isGhostToAllied": true,
        "isGhostToEnemy": true
      },
      "combatLock": {
        "lockShape": "CircleLockEnemy",
        "denyLockOn": true,
        "lockType": "Default"
      }
    },
    "combatTemplate": "",
    "abilities": [
      {
        "abilityID": "Camera_Scene_Look_Fov_Override",
        "abilityName": "Camera_Scene_Look_Fov_Override",
        "abilityOverride": ""
      }
    ]
  }
}