{
  "SceneObj_Gear_Common_Property_Prop_JumpUp_01": {
    "$type": "CJKJIENLOHD",
    "hasModel": true,
    "combat": {
      "property": {
        "hp": 10000.0,
        "attack": 30.0,
        "isLockHP": true,
        "isGhostToAllied": true,
        "isGhostToEnemy": true,
        "ignorePurgeRate": true
      },
      "beHit": {
        "hitBloodEffect": "",
        "hitAutoRedirect": false,
        "muteAllHitText": true
      },
      "combatLock": {
        "lockShape": "CircleLockEnemy",
        "denyLockOn": true,
        "lockType": "Gadget_Lv1"
      }
    },
    "combatTemplate": "",
    "abilities": [
      {
        "abilityID": "SceneObj_Gear_Common_Property_Prop_JumpUp_01",
        "abilityName": "SceneObj_Gear_Common_Property_Prop_JumpUp_01",
        "abilityOverride": ""
      }
    ],
    "field": {
      "concernType": "AllAvatars",
      "shape": "CircleR1",
      "fromShape": "",
      "triggerInfinite": true,
      "lifeInfinite": true,
      "checkInterval": 0.5,
      "overwriteCampType": true,
      "campType": "All",
      "colliderName": "",
      "fromColliderName": ""
    }
  },
  "SceneObj_Gear_Common_Property_Prop_ShieldPower_01": {
    "$type": "CJKJIENLOHD",
    "hasModel": true,
    "combat": {
      "property": {
        "hp": 10000.0,
        "attack": 30.0,
        "isLockHP": true,
        "isGhostToAllied": true,
        "isGhostToEnemy": true,
        "ignorePurgeRate": true
      },
      "beHit": {
        "hitBloodEffect": "",
        "hitAutoRedirect": false,
        "muteAllHitText": true
      },
      "combatLock": {
        "lockShape": "CircleLockEnemy",
        "denyLockOn": true,
        "lockType": "Gadget_Lv1"
      }
    },
    "combatTemplate": "",
    "abilities": [
      {
        "abilityID": "SceneObj_Gear_Common_Property_Prop_ShieldPower_01",
        "abilityName": "SceneObj_Gear_Common_Property_Prop_ShieldPower_01",
        "abilityOverride": ""
      }
    ],
    "field": {
      "concernType": "AllAvatars",
      "shape": "CircleR1",
      "fromShape": "",
      "triggerInfinite": true,
      "lifeInfinite": true,
      "checkInterval": 0.5,
      "overwriteCampType": true,
      "campType": "All",
      "colliderName": "",
      "fromColliderName": ""
    }
  },
  "SceneObj_Gear_Common_Property_Prop_BreakableIce_01": {
    "$type": "CJKJIENLOHD",
    "common": {
      "effectAttachShape": {
        "$type": "OMCHDAEMBOG",
        "mesh": "EffectMesh"
      }
    },
    "hasModel": true,
    "combat": {
      "property": {
        "hp": 5000.0,
        "weight": 50.0,
        "isLockHP": true
      },
      "beHit": {
        "hitBloodEffect": "",
        "hitAutoRedirect": false,
        "muteAllHitText": true
      },
      "combatLock": {
        "lockShape": "CircleLockEnemy",
        "denyLockOn": true,
        "lockType": "Gadget_Lv1"
      },
      "die": {
        "dieEndTime": 0.10000000149011612,
        "dieForceDisappearTime": 0.20000000298023224,
        "dieDisappearEffect": ""
      }
    },
    "combatTemplate": "",
    "abilities": [
      {
        "abilityID": "SceneObj_Gear_Common_Property_Prop_BreakableIce_01",
        "abilityName": "SceneObj_Gear_Common_Property_Prop_BreakableIce_01",
        "abilityOverride": ""
      }
    ]
  },
  "SceneObj_Gear_Common_Property_Prop_BreakableIceWithCoin_01": {
    "$type": "CJKJIENLOHD",
    "common": {
      "effectAttachShape": {
        "$type": "OMCHDAEMBOG",
        "mesh": "EffectMesh"
      }
    },
    "hasModel": true,
    "combat": {
      "property": {
        "hp": 5000.0,
        "weight": 50.0,
        "isLockHP": true
      },
      "beHit": {
        "hitBloodEffect": "",
        "hitAutoRedirect": false,
        "muteAllHitText": true
      },
      "combatLock": {
        "lockShape": "CircleLockEnemy",
        "denyLockOn": true,
        "lockType": "Gadget_Lv1"
      },
      "die": {
        "dieEndTime": 0.10000000149011612,
        "dieForceDisappearTime": 0.20000000298023224,
        "dieDisappearEffect": ""
      }
    },
    "combatTemplate": "",
    "abilities": [
      {
        "abilityID": "SceneObj_Gear_Common_Property_Prop_BreakableIceWithCoin_01",
        "abilityName": "SceneObj_Gear_Common_Property_Prop_BreakableIceWithCoin_01",
        "abilityOverride": ""
      }
    ]
  },
  "SceneObj_Gear_Common_Property_Prop_BreakableIce_02": {
    "$type": "CJKJIENLOHD",
    "common": {
      "effectAttachShape": {
        "$type": "OMCHDAEMBOG",
        "mesh": "EffectMesh"
      }
    },
    "hasModel": true,
    "combat": {
      "property": {
        "hp": 5000.0,
        "weight": 50.0,
        "isLockHP": true
      },
      "beHit": {
        "hitBloodEffect": "",
        "hitAutoRedirect": false,
        "muteAllHitText": true
      },
      "combatLock": {
        "lockShape": "CircleLockEnemy",
        "denyLockOn": true,
        "lockType": "Gadget_Lv1"
      },
      "die": {
        "dieEndTime": 0.10000000149011612,
        "dieForceDisappearTime": 0.20000000298023224,
        "dieDisappearEffect": ""
      }
    },
    "combatTemplate": "",
    "abilities": [
      {
        "abilityID": "SceneObj_Gear_Common_Property_Prop_BreakableIce_02",
        "abilityName": "SceneObj_Gear_Common_Property_Prop_BreakableIce_02",
        "abilityOverride": ""
      }
    ]
  },
  "SceneObj_Gear_Common_Property_Prop_BreakableIceWithCoin_02": {
    "$type": "CJKJIENLOHD",
    "common": {
      "effectAttachShape": {
        "$type": "OMCHDAEMBOG",
        "mesh": "EffectMesh"
      }
    },
    "hasModel": true,
    "combat": {
      "property": {
        "hp": 5000.0,
        "weight": 50.0,
        "isLockHP": true
      },
      "beHit": {
        "hitBloodEffect": "",
        "hitAutoRedirect": false,
        "muteAllHitText": true
      },
      "combatLock": {
        "lockShape": "CircleLockEnemy",
        "denyLockOn": true,
        "lockType": "Gadget_Lv1"
      },
      "die": {
        "dieEndTime": 0.10000000149011612,
        "dieForceDisappearTime": 0.20000000298023224,
        "dieDisappearEffect": ""
      }
    },
    "combatTemplate": "",
    "abilities": [
      {
        "abilityID": "SceneObj_Gear_Common_Property_Prop_BreakableIceWithCoin_02",
        "abilityName": "SceneObj_Gear_Common_Property_Prop_BreakableIceWithCoin_02",
        "abilityOverride": ""
      }
    ]
  },
  "SceneObj_Area_Common_Property_Ani_Prop_LargeFloatingIce_01": {
    "$type": "CJKJIENLOHD",
    "common": {
      "affectedByWorld": true
    },
    "hasModel": true,
    "combat": {
      "property": {
        "hp": 99999.0,
        "attack": 20.0,
        "weight": 50.0,
        "isLockHP": true,
        "ignoreDamageToSelf": true
      },
      "beHit": {
        "hitBloodEffect": "",
        "hitAutoRedirect": false,
        "muteAllHitText": true
      },
      "combatLock": {
        "lockShape": "CircleLockEnemy",
        "denyLockOn": true,
        "lockType": "Gadget_Lv1"
      }
    },
    "combatTemplate": "",
    "abilities": [
      {
        "abilityID": "SceneObj_Area_Common_Property_Ani_Prop_LargeFloatingIce_01",
        "abilityName": "SceneObj_Area_Common_Property_Ani_Prop_LargeFloatingIce_01",
        "abilityOverride": ""
      }
    ],
    "stateLayers": {
      "defaultLayer": {
        "$type": "GBGJJIIEMBD",
        "layerIndexName": "",
        "CPAANEIJCGD": "",
        "stateIDs": {
          "All": {
            "$type": "BEIEGKBABOF",
            "animatorStates": {
              "Broked": [
                "FloatingIce_Disappear"
              ],
              "Recover": [
                "FloatingIce_Appear"
              ]
            }
          }
        }
      }
    },
    "gadgetAction": {
      "gadgetStateActionList": [
        {
          "$type": "FJGKLJLPOGL",
          "intID": "State",
          "syncState": true
        }
      ]
    }
  },
  "SceneObj_Area_Ljxs_Property_Prop_LjxsCampMainDevice_01": {
    "$type": "CJKJIENLOHD",
    "hasModel": true,
    "combat": {
      "property": {
        "hp": 99999.0,
        "attack": 20.0,
        "weight": 50.0,
        "isLockHP": true,
        "ignoreDamageToSelf": true
      },
      "beHit": {
        "hitBloodEffect": "",
        "hitAutoRedirect": false,
        "muteAllHitText": true
      },
      "combatLock": {
        "lockShape": "CircleLockEnemy",
        "denyLockOn": true,
        "lockType": "Gadget_Lv1"
      }
    },
    "combatTemplate": "",
    "abilities": [
      {
        "abilityID": "SceneObj_Area_Ljxs_Property_Prop_LjxsCampMainDevice_01",
        "abilityName": "SceneObj_Area_Ljxs_Property_Prop_LjxsCampMainDevice_01",
        "abilityOverride": ""
      },
      {
        "abilityID": "LjxsCampMainDevice_01_MonsterPowerUp",
        "abilityName": "LjxsCampMainDevice_01_MonsterPowerUp",
        "abilityOverride": ""
      },
      {
        "abilityID": "LjxsCampMainDevice_01_Explode",
        "abilityName": "LjxsCampMainDevice_01_Explode",
        "abilityOverride": ""
      },
      {
        "abilityID": "Scene_RockGadget_Summon_Detect",
        "abilityName": "Scene_RockGadget_Summon_Detect",
        "abilityOverride": ""
      }
    ],
    "gadgetAction": {
      "gadgetStateActionList": [
        {
          "$type": "FJGKLJLPOGL",
          "intID": "state",
          "syncState": true
        }
      ]
    }
  },
  "SceneObj_Area_Ljxs_Property_Prop_LjxsCampBranchDevice_01": {
    "$type": "CJKJIENLOHD",
    "hasModel": true,
    "combat": {
      "property": {
        "hp": 99999.0,
        "attack": 20.0,
        "weight": 50.0,
        "isLockHP": true,
        "ignoreDamageToSelf": true
      },
      "beHit": {
        "hitBloodEffect": "",
        "hitAutoRedirect": false,
        "muteAllHitText": true
      },
      "combatLock": {
        "lockShape": "CircleLockEnemy",
        "denyLockOn": true,
        "lockType": "Gadget_Lv1"
      }
    },
    "combatTemplate": "",
    "abilities": [
      {
        "abilityID": "SceneObj_Area_Ljxs_Property_Prop_LjxsCampBranchDevice_01",
        "abilityName": "SceneObj_Area_Ljxs_Property_Prop_LjxsCampBranchDevice_01",
        "abilityOverride": ""
      },
      {
        "abilityID": "Scene_RockGadget_Summon_Detect",
        "abilityName": "Scene_RockGadget_Summon_Detect",
        "abilityOverride": ""
      }
    ],
    "gadgetAction": {
      "gadgetStateActionList": [
        {
          "$type": "FJGKLJLPOGL",
          "intID": "state",
          "syncState": true
        }
      ]
    }
  },
  "SceneObj_Area_Ljxs_Property_Ani_Prop_TriathlonCoin_01": {
    "$type": "CJKJIENLOHD",
    "model": {
      "bornEffect": "",
      "attachEffect": "Eff_SceneObj_TriathlonCoin_01",
      "BKPFGNPLDNJ": ""
    },
    "hasModel": true,
    "combat": {
      "property": {
        "hp": 10000.0,
        "attack": 30.0,
        "isLockHP": true,
        "isGhostToAllied": true,
        "isGhostToEnemy": true,
        "ignorePurgeRate": true
      },
      "beHit": {
        "hitBloodEffect": "",
        "hitAutoRedirect": false,
        "muteAllHitEffect": true,
        "muteAllHitText": true
      },
      "combatLock": {
        "lockShape": "CircleLockEnemy",
        "denyLockOn": true,
        "lockType": "Gadget_Lv1"
      },
      "die": {
        "dieForceDisappearTime": 0.30000001192092896,
        "dieDisappearEffect": ""
      }
    },
    "combatTemplate": "",
    "abilities": [
      {
        "abilityID": "SceneObj_Area_Ljxs_Property_Ani_Prop_TriathlonCoin_01",
        "abilityName": "SceneObj_Area_Ljxs_Property_Ani_Prop_TriathlonCoin_01",
        "abilityOverride": ""
      }
    ],
    "field": {
      "concernType": "LocalAvatar",
      "shape": "CircleR2H2",
      "fromShape": "",
      "triggerInfinite": true,
      "lifeInfinite": true,
      "checkInterval": 0.5,
      "overwriteCampType": true,
      "campType": "All",
      "colliderName": "",
      "fromColliderName": ""
    },
    "gadgetAction": {
      "gadgetStateActionList": [
        {
          "$type": "OLDOOKBEKJI",
          "parameter": "State",
          "damageRatio": "Int",
          "rotationDampTime": "Eff_SceneObj_TriathlonCoin_01"
        },
        {
          "$type": "OLDOOKBEKJI",
          "triggerID": "GearStart",
          "parameter": "State",
          "damageRatio": "Int",
          "value": 201,
          "rotationDampTime": "Eff_SceneObj_TriathlonCoin_01"
        }
      ]
    }
  },
  "SceneObj_Area_Ljxs_Property_Ani_Prop_TriathlonCoin_02": {
    "$type": "CJKJIENLOHD",
    "hasModel": true,
    "combat": {
      "property": {
        "hp": 10000.0,
        "attack": 30.0,
        "isLockHP": true,
        "isGhostToAllied": true,
        "isGhostToEnemy": true,
        "ignorePurgeRate": true
      },
      "beHit": {
        "hitBloodEffect": "",
        "hitAutoRedirect": false,
        "muteAllHitEffect": true,
        "muteAllHitText": true
      },
      "combatLock": {
        "lockShape": "CircleLockEnemy",
        "denyLockOn": true,
        "lockType": "Gadget_Lv1"
      },
      "die": {
        "dieForceDisappearTime": 0.30000001192092896,
        "dieDisappearEffect": ""
      }
    },
    "combatTemplate": "",
    "abilities": [
      {
        "abilityID": "SceneObj_Area_Ljxs_Property_Ani_Prop_TriathlonCoin_02",
        "abilityName": "SceneObj_Area_Ljxs_Property_Ani_Prop_TriathlonCoin_02",
        "abilityOverride": ""
      }
    ],
    "field": {
      "concernType": "LocalAvatar",
      "shape": "CircleR2H2",
      "fromShape": "",
      "triggerInfinite": true,
      "lifeInfinite": true,
      "checkInterval": 0.5,
      "overwriteCampType": true,
      "campType": "All",
      "colliderName": "",
      "fromColliderName": ""
    }
  },
  "SceneObj_Stages_Property_Ani_Prop_SnowPile_02": {
    "$type": "CJKJIENLOHD",
    "common": {
      "affectedByWorld": true
    },
    "hasModel": true,
    "combat": {
      "property": {
        "hp": 99999.0,
        "attack": 20.0,
        "weight": 50.0,
        "isLockHP": true,
        "ignoreDamageToSelf": true
      },
      "beHit": {
        "hitBloodEffect": "",
        "hitAutoRedirect": false,
        "muteAllHitText": true
      },
      "combatLock": {
        "lockShape": "CircleLockEnemy",
        "denyLockOn": true,
        "lockType": "Gadget_Lv1"
      }
    },
    "combatTemplate": "",
    "abilities": [
      {
        "abilityID": "SceneObj_Stages_Property_Ani_Prop_SnowPile_02",
        "abilityName": "SceneObj_Stages_Property_Ani_Prop_SnowPile_02",
        "abilityOverride": ""
      }
    ]
  },
  "SceneObj_Gear_Common_Property_Prop_DirectionSign_01": {
    "$type": "CJKJIENLOHD",
    "model": {
      "bornEffect": "",
      "attachEffect": "Eff_SceneObj_DirectionSign_Straight",
      "BKPFGNPLDNJ": ""
    },
    "hasModel": true,
    "combat": {
      "property": {
        "hp": 99999.0,
        "weight": 50.0,
        "isLockHP": true,
        "isGhostToAllied": true
      },
      "beHit": {
        "hitBloodEffect": "",
        "hitAutoRedirect": false,
        "muteAllHitText": true
      },
      "combatLock": {
        "lockShape": "CircleLockEnemy",
        "denyLockOn": true,
        "lockType": "Gadget_Lv1"
      }
    },
    "combatTemplate": ""
  },
  "SceneObj_Gear_Common_Property_Prop_DirectionSign_02": {
    "$type": "CJKJIENLOHD",
    "model": {
      "bornEffect": "",
      "attachEffect": "Eff_SceneObj_DirectionSign_Rightangle",
      "BKPFGNPLDNJ": ""
    },
    "hasModel": true,
    "combat": {
      "property": {
        "hp": 99999.0,
        "weight": 50.0,
        "isLockHP": true,
        "isGhostToAllied": true
      },
      "beHit": {
        "hitBloodEffect": "",
        "hitAutoRedirect": false,
        "muteAllHitText": true
      },
      "combatLock": {
        "lockShape": "CircleLockEnemy",
        "denyLockOn": true,
        "lockType": "Gadget_Lv1"
      }
    },
    "combatTemplate": ""
  },
  "SceneObj_Gear_Common_Property_Prop_ParkourStamina_01": {
    "$type": "CJKJIENLOHD",
    "model": {
      "bornEffect": "",
      "attachEffect": "Eff_SceneObj_FleurStamina_Float",
      "BKPFGNPLDNJ": ""
    },
    "hasModel": true,
    "combat": {
      "property": {
        "hp": 99999.0,
        "attack": 50.0,
        "weight": 50.0,
        "isLockHP": true
      },
      "beHit": {
        "hitBloodEffect": "",
        "hitAutoRedirect": false,
        "muteAllHitText": true
      },
      "combatLock": {
        "lockShape": "CircleLockEnemy",
        "denyLockOn": true,
        "lockType": "Gadget_Lv1"
      }
    },
    "combatTemplate": "",
    "abilities": [
      {
        "abilityID": "SceneObj_Gear_Common_Property_Prop_ParkourStamina_01",
        "abilityName": "SceneObj_Gear_Common_Property_Prop_ParkourStamina_01",
        "abilityOverride": ""
      }
    ],
    "field": {
      "concernType": "AllAvatars",
      "shape": "CircleR1.5",
      "fromShape": "",
      "triggerInfinite": true,
      "lifeInfinite": true,
      "checkInterval": 0.20000000298023224,
      "overwriteCampType": true,
      "campType": "All",
      "colliderName": "",
      "fromColliderName": ""
    }
  }
}