{
  "luaDataPath": "",
  "startBlackKeepTime": 0.5,
  "entityBan": "",
  "disableNpcLod": true,
  "isAutoBanNpc": true,
  "isBanWidgetPet": true,
  "protectNpcMobileLod": true,
  "startFade": {
    "startFadeInDuration": 0.5,
    "startFadeOutDuration": 0.5
  },
  "endFade": {
    "startFadeOutDuration": 0.0
  },
  "actors": [
    {
      "alias": "Avatar",
      "visible": true,
      "bornPointName": "Q1301102_N10000005",
      "relativePosType": "AVATAR_NEW",
      "relativePosNpcAlias": "",
      "_bindMovingTargetKey": ""
    },
    {
      "alias": "AvatarNpc",
      "visible": true,
      "bornPointName": "Q1301102_N10000005",
      "removeActorType": "REMOVE",
      "relativePosType": "AVATAR_NEW",
      "relativePosNpcAlias": "",
      "_bindMovingTargetKey": ""
    },
    {
      "configID": 12782,
      "alias": "12782",
      "visible": true,
      "bornPointName": "Q1301102_N12782",
      "relativePosType": "AVATAR_NEW",
      "relativePosNpcAlias": "",
      "_bindMovingTargetKey": ""
    },
    {
      "configID": 12772,
      "alias": "12772",
      "visible": true,
      "bornPointName": "Q1301102_N12772",
      "removeActorType": "REMOVE",
      "relativePosType": "AVATAR_NEW",
      "relativePosNpcAlias": "",
      "_bindMovingTargetKey": ""
    },
    {
      "configID": 1005,
      "alias": "1005",
      "visible": true,
      "bornPointName": "Q1301102_N1005",
      "relativePos": {
        "x": 0.5,
        "z": -0.5
      },
      "removeActorType": "REMOVE_WITH_DISAPPEAR",
      "relativePosType": "AVATAR_NEW",
      "relativePosNpcAlias": "",
      "_bindMovingTargetKey": ""
    }
  ],
  "group": [
    [
      {
        "$type": "MoleMole.Config.ConfigTimeProtectAction",
        "type": "TIME_PROTECT",
        "duration": 0.10000000149011612,
        "actionId": 104
      },
      {
        "$type": "MoleMole.Config.ConfigBlackScreenAction",
        "type": "BLACK_SCREEN",
        "actionId": 187,
        "blackScreenType": "KEEP_BLACK",
        "durationKeepBlack": 1.0,
        "inteePos": "",
        "textMapID": "",
        "useTextFade": true
      },
      {
        "$type": "MoleMole.Config.ConfigVisibleInterAction",
        "type": "VISIBLE",
        "aliasList": [
          "Avatar"
        ],
        "actionId": 119,
        "_extraParam": ""
      },
      {
        "$type": "MoleMole.Config.ConfigTeleportToAction",
        "type": "TELEPORT_TO",
        "aliasList": [
          "Avatar"
        ],
        "actionId": 192,
        "position": {
          "x": -395.5199890136719,
          "y": 274.60101318359375,
          "z": 2840.35009765625
        },
        "forward": {
          "x": 0.5709999799728394,
          "z": 0.9419999718666077
        },
        "openLongDisTeleport": true,
        "_posBindMovingTargetKey": "",
        "_forwardBindMovingTargetKey": ""
      },
      {
        "$type": "MoleMole.Config.ConfigTeleportToAction",
        "type": "TELEPORT_TO",
        "aliasList": [
          "AvatarNpc"
        ],
        "actionId": 123,
        "position": {
          "x": -395.5199890136719,
          "y": 274.60101318359375,
          "z": 2840.35009765625
        },
        "forward": {
          "x": 0.5709999799728394,
          "z": 0.9419999718666077
        },
        "openLongDisTeleport": true,
        "_posBindMovingTargetKey": "",
        "_forwardBindMovingTargetKey": ""
      },
      {
        "$type": "LJLMDHDCAMK",
        "type": "LOOK_AT",
        "aliasList": [
          "AvatarNpc"
        ],
        "actionId": 143,
        "enableHead": true,
        "headTurnTime": 0.5,
        "targetNpcAlias": "12782",
        "openBackProtect": true,
        "targetNpcLookAtPoint": "",
        "OAFJBHJHLJG": ""
      },
      {
        "$type": "MoleMole.Config.ConfigPlayerNPCEnergyTypeAction",
        "type": "SET_PLAYER_NPC_ENERGY_TYPE",
        "aliasList": [
          "AvatarNpc"
        ],
        "actionId": 185,
        "setHeroEngergyType": true
      },
      {
        "$type": "MoleMole.Config.ConfigTeleportToAction",
        "type": "TELEPORT_TO",
        "aliasList": [
          "12782"
        ],
        "actionId": 125,
        "position": {
          "x": -394.6610107421875,
          "y": 274.60101318359375,
          "z": 2841.655029296875
        },
        "forward": {
          "x": -1.0219999551773071,
          "z": 0.6209999918937683
        },
        "openLongDisTeleport": true,
        "_posBindMovingTargetKey": "",
        "_forwardBindMovingTargetKey": ""
      },
      {
        "$type": "LJLMDHDCAMK",
        "type": "LOOK_AT",
        "aliasList": [
          "12782"
        ],
        "actionId": 126,
        "enableHead": true,
        "headTurnTime": 0.5,
        "targetNpcAlias": "12772",
        "openBackProtect": true,
        "targetNpcLookAtPoint": "",
        "OAFJBHJHLJG": ""
      },
      {
        "$type": "MoleMole.Config.ConfigTeleportToAction",
        "type": "TELEPORT_TO",
        "aliasList": [
          "12772"
        ],
        "actionId": 124,
        "position": {
          "x": -395.6780090332031,
          "y": 274.60101318359375,
          "z": 2842.135986328125
        },
        "forward": {
          "x": 0.8849999904632568,
          "y": 0.05700000002980232,
          "z": -0.40400001406669617
        },
        "openLongDisTeleport": true,
        "_posBindMovingTargetKey": "",
        "_forwardBindMovingTargetKey": ""
      },
      {
        "$type": "LJLMDHDCAMK",
        "type": "LOOK_AT",
        "aliasList": [
          "12772"
        ],
        "actionId": 127,
        "enableHead": true,
        "headTurnTime": 0.5,
        "targetNpcAlias": "12782",
        "openBackProtect": true,
        "targetNpcLookAtPoint": "",
        "OAFJBHJHLJG": ""
      },
      {
        "$type": "MoleMole.Config.ConfigTeleportToAction",
        "type": "TELEPORT_TO",
        "aliasList": [
          "1005"
        ],
        "actionId": 128,
        "position": {
          "x": -396.1130065917969,
          "y": 274.60101318359375,
          "z": 2840.712890625
        },
        "forward": {
          "x": 1.1039999723434448,
          "z": 0.6769999861717224
        },
        "openLongDisTeleport": true,
        "_posBindMovingTargetKey": "",
        "_forwardBindMovingTargetKey": ""
      },
      {
        "$type": "LJLMDHDCAMK",
        "type": "LOOK_AT",
        "aliasList": [
          "1005"
        ],
        "actionId": 144,
        "enableHead": true,
        "headTurnTime": 0.5,
        "targetNpcAlias": "12782",
        "openBackProtect": true,
        "targetNpcLookAtPoint": "",
        "OAFJBHJHLJG": ""
      }
    ],
    [
      {
        "$type": "MoleMole.Config.ConfigSimpleBlackScreenAction",
        "type": "SIMPLE_BLACK_SCREEN",
        "actionId": 107,
        "durationToBlack": 0.5,
        "durationKeepBlack": 3.0,
        "durationFromBlack": 0.5,
        "textMapID": "",
        "useTextFade": true,
        "_dialogID": 130110201
      },
      {
        "$type": "PKKMAMONGEO",
        "type": "DIALOG_CLEAR",
        "actionId": 108
      },
      {
        "$type": "MoleMole.Config.ConfigTimeProtectAction",
        "type": "TIME_PROTECT",
        "duration": 4.0,
        "actionId": 120
      },
      {
        "$type": "FJKIHHKJLMJ",
        "type": "CAMERA_MOVE",
        "duration": 0.5,
        "actionId": 146,
        "camPosOffset": {
          "x": -396.9649963378906,
          "y": 276.2969970703125,
          "z": 2842.01904296875
        },
        "camForwardTargetOffset": {
          "x": -395.9670104980469,
          "y": 276.24798583984375,
          "z": 2841.992919921875
        },
        "camFov": 20.0,
        "lerpPattern": 6,
        "cameraBlendType": "EaseInOutCubic",
        "NJBNNOMLKCK": {},
        "needZAxisRotate": true,
        "openCameraDither": false,
        "targetNpcAlias": "",
        "closeTreeLeafDither": true,
        "KJOEFBPOIIH": "",
        "IICFKKEBIEC": "",
        "EGEHEJEBLBJ": ""
      },
      {
        "$type": "MoleMole.Config.ConfigBlackScreenAction",
        "type": "BLACK_SCREEN",
        "actionId": 188,
        "blackScreenType": "KEEP_BLACK",
        "durationKeepBlack": 0.5,
        "inteePos": "",
        "textMapID": "",
        "useTextFade": true
      },
      {
        "$type": "MoleMole.Config.ConfigBlackScreenAction",
        "type": "BLACK_SCREEN",
        "delayTime": 0.5,
        "actionId": 191,
        "blackScreenType": "FROM_BLACK",
        "durationFromBlack": 0.5,
        "inteePos": "",
        "textMapID": "",
        "useTextFade": true
      }
    ],
    [
      {
        "$type": "FJKIHHKJLMJ",
        "type": "CAMERA_MOVE",
        "duration": 9.781999588012695,
        "actionId": 141,
        "camPosOffset": {
          "x": -396.9649963378906,
          "y": 276.2969970703125,
          "z": 2841.986083984375
        },
        "camForwardTargetOffset": {
          "x": -395.9670104980469,
          "y": 276.24798583984375,
          "z": 2841.9599609375
        },
        "camFov": 20.0,
        "cameraBlendType": "EaseOutQuad",
        "NJBNNOMLKCK": {},
        "needZAxisRotate": true,
        "openCameraDither": false,
        "targetNpcAlias": "",
        "closeTreeLeafDither": true,
        "KJOEFBPOIIH": "",
        "IICFKKEBIEC": "",
        "EGEHEJEBLBJ": ""
      },
      {
        "$type": "PKKMAMONGEO",
        "type": "DIALOG",
        "aliasList": [
          "12782"
        ],
        "actionId": 110,
        "dialogID": 130110202,
        "protectTime": 0.5
      },
      {
        "$type": "FABLGECDBCH",
        "type": "BODY_LANG",
        "aliasList": [
          "12782"
        ],
        "actionId": 130,
        "bodyLangParam": 4030,
        "forceDoFreeStyle": true,
        "canDoRepeatFreeStyle": false,
        "cantBackToIdleWhenSitLoop": true,
        "eventPatternSuiteKey": "",
        "FOHHKFAIAAJ": ""
      },
      {
        "$type": "CPJKOIHIPBE",
        "type": "EMO_SYNC",
        "aliasList": [
          "12782"
        ],
        "actionId": 163,
        "dataPath": "Cs_Emo_Avatar_Simple_Common_Set/Cs_Emo_Avatar_Talk/Cs_Emo_Avatar_PersonalLine/Cs_Emo_Avatar_Cyno/Cs_Emo_130110202",
        "phonemePath": "",
        "emotionPath": "",
        "mateDataPath": "",
        "matePhonemePath": "",
        "mateEmotionPath": "",
        "dataPathHashList": [
          9349735047105895393,
          1578885623918164457,
          4701068206335440447,
          2334312580968537078
        ],
        "FMDPBECPELH": "",
        "ADKBLPOKGIK": ""
      }
    ],
    [
      {
        "$type": "MoleMole.Config.ConfigTimeProtectAction",
        "type": "TIME_PROTECT",
        "duration": 0.546999990940094,
        "actionId": 183
      },
      {
        "$type": "PKKMAMONGEO",
        "type": "DIALOG",
        "aliasList": [
          "12782"
        ],
        "actionId": 112,
        "dialogID": 130110203,
        "protectTime": 1.0
      },
      {
        "$type": "LLGANGLOEEO",
        "type": "STEER_TO",
        "duration": 1.0,
        "aliasList": [
          "12782"
        ],
        "actionId": 131,
        "steerType": "ABSOLUTE",
        "steerDir": {
          "x": -395.4849853515625,
          "y": 274.60101318359375,
          "z": 2840.737060546875
        },
        "useSteerAnim": true,
        "interruptFreestyle": true,
        "forceSteer": true,
        "targetNpcAlias": "",
        "OAFJBHJHLJG": ""
      },
      {
        "$type": "LJLMDHDCAMK",
        "type": "LOOK_AT",
        "aliasList": [
          "12782"
        ],
        "actionId": 133,
        "enableHead": true,
        "headTurnTime": 0.5,
        "targetNpcAlias": "1005",
        "openBackProtect": true,
        "targetNpcLookAtPoint": "",
        "OAFJBHJHLJG": ""
      },
      {
        "$type": "CPJKOIHIPBE",
        "type": "EMO_SYNC",
        "aliasList": [
          "12782"
        ],
        "actionId": 164,
        "dataPath": "Cs_Emo_Avatar_Simple_Common_Set/Cs_Emo_Avatar_Talk/Cs_Emo_Avatar_PersonalLine/Cs_Emo_Avatar_Cyno/Cs_Emo_130110203",
        "phonemePath": "",
        "emotionPath": "",
        "mateDataPath": "",
        "matePhonemePath": "",
        "mateEmotionPath": "",
        "dataPathHashList": [
          1540791767652902669,
          14560132410781486318,
          5690503322477457246,
          6712185610746424213
        ],
        "FMDPBECPELH": "",
        "ADKBLPOKGIK": ""
      },
      {
        "$type": "FJKIHHKJLMJ",
        "type": "CAMERA_MOVE",
        "delayTime": 0.30000001192092896,
        "duration": 0.5,
        "actionId": 142,
        "camPosOffset": {
          "x": -396.3450012207031,
          "y": 276.5660095214844,
          "z": 2837.659912109375
        },
        "camForwardTargetOffset": {
          "x": -396.0920104980469,
          "y": 276.40399169921875,
          "z": 2838.614013671875
        },
        "camFov": 20.0,
        "lerpPattern": 6,
        "cameraBlendType": "EaseInOutCubic",
        "NJBNNOMLKCK": {},
        "needZAxisRotate": true,
        "openCameraDither": false,
        "targetNpcAlias": "",
        "closeTreeLeafDither": true,
        "KJOEFBPOIIH": "",
        "IICFKKEBIEC": "",
        "EGEHEJEBLBJ": ""
      },
      {
        "$type": "FJKIHHKJLMJ",
        "type": "CAMERA_MOVE",
        "delayTime": 0.4000000059604645,
        "duration": 21.797000885009766,
        "actionId": 145,
        "camPosOffset": {
          "x": -396.3429870605469,
          "y": 276.4639892578125,
          "z": 2837.64208984375
        },
        "camForwardTargetOffset": {
          "x": -396.0899963378906,
          "y": 276.302001953125,
          "z": 2838.595947265625
        },
        "camFov": 20.0,
        "cameraBlendType": "EaseOutQuad",
        "NJBNNOMLKCK": {},
        "needZAxisRotate": true,
        "openCameraDither": false,
        "targetNpcAlias": "",
        "closeTreeLeafDither": true,
        "KJOEFBPOIIH": "",
        "IICFKKEBIEC": "",
        "EGEHEJEBLBJ": ""
      },
      {
        "$type": "LLGANGLOEEO",
        "type": "STEER_TO",
        "delayTime": 0.4350000023841858,
        "duration": 1.0,
        "aliasList": [
          "12772"
        ],
        "actionId": 132,
        "steerType": "ABSOLUTE",
        "steerDir": {
          "x": -395.4849853515625,
          "y": 274.60101318359375,
          "z": 2840.737060546875
        },
        "useSteerAnim": true,
        "interruptFreestyle": true,
        "forceSteer": true,
        "targetNpcAlias": "",
        "OAFJBHJHLJG": ""
      },
      {
        "$type": "LJLMDHDCAMK",
        "type": "LOOK_AT",
        "delayTime": 0.4350000023841858,
        "aliasList": [
          "12772"
        ],
        "actionId": 147,
        "enableHead": true,
        "headTurnTime": 0.5,
        "targetNpcAlias": "AvatarNpc",
        "openBackProtect": true,
        "targetNpcLookAtPoint": "",
        "OAFJBHJHLJG": ""
      },
      {
        "$type": "FABLGECDBCH",
        "type": "BODY_LANG",
        "delayTime": 1.0130000114440918,
        "aliasList": [
          "12782"
        ],
        "actionId": 134,
        "bodyLangParam": 1171,
        "forceDoFreeStyle": true,
        "canDoRepeatFreeStyle": false,
        "cantBackToIdleWhenSitLoop": true,
        "eventPatternSuiteKey": "",
        "FOHHKFAIAAJ": ""
      },
      {
        "$type": "LJLMDHDCAMK",
        "type": "LOOK_AT",
        "delayTime": 2.5969998836517334,
        "aliasList": [
          "12782"
        ],
        "actionId": 148,
        "enableHead": true,
        "headTurnTime": 0.5,
        "targetNpcAlias": "AvatarNpc",
        "openBackProtect": true,
        "targetNpcLookAtPoint": "",
        "OAFJBHJHLJG": ""
      },
      {
        "$type": "FABLGECDBCH",
        "type": "BODY_LANG",
        "delayTime": 5.203000068664551,
        "aliasList": [
          "12782"
        ],
        "actionId": 135,
        "bodyLangParam": 1130,
        "forceDoFreeStyle": true,
        "canDoRepeatFreeStyle": false,
        "cantBackToIdleWhenSitLoop": true,
        "eventPatternSuiteKey": "",
        "FOHHKFAIAAJ": ""
      },
      {
        "$type": "FABLGECDBCH",
        "type": "BODY_LANG",
        "delayTime": 7.257999897003174,
        "aliasList": [
          "12782"
        ],
        "actionId": 136,
        "isContinue": true,
        "forceDoFreeStyle": true,
        "canDoRepeatFreeStyle": false,
        "cantBackToIdleWhenSitLoop": true,
        "eventPatternSuiteKey": "",
        "FOHHKFAIAAJ": ""
      }
    ],
    [
      {
        "$type": "FJKIHHKJLMJ",
        "type": "CAMERA_MOVE",
        "duration": 0.5,
        "actionId": 153,
        "camPosOffset": {
          "x": -395.1199951171875,
          "y": 276.2669982910156,
          "z": 2840.451904296875
        },
        "camForwardTargetOffset": {
          "x": -394.7699890136719,
          "y": 276.22100830078125,
          "z": 2841.386962890625
        },
        "camFov": 20.0,
        "lerpPattern": 6,
        "cameraBlendType": "EaseInOutCubic",
        "NJBNNOMLKCK": {},
        "needZAxisRotate": true,
        "openCameraDither": false,
        "targetNpcAlias": "",
        "closeTreeLeafDither": true,
        "KJOEFBPOIIH": "",
        "IICFKKEBIEC": "",
        "EGEHEJEBLBJ": ""
      },
      {
        "$type": "PKKMAMONGEO",
        "type": "DIALOG",
        "aliasList": [
          "12782"
        ],
        "actionId": 114,
        "dialogID": 130110204,
        "protectTime": 0.5
      },
      {
        "$type": "FABLGECDBCH",
        "type": "BODY_LANG",
        "aliasList": [
          "12782"
        ],
        "actionId": 137,
        "isContinue": true,
        "forceDoFreeStyle": true,
        "canDoRepeatFreeStyle": false,
        "cantBackToIdleWhenSitLoop": true,
        "eventPatternSuiteKey": "",
        "FOHHKFAIAAJ": ""
      },
      {
        "$type": "FABLGECDBCH",
        "type": "BODY_LANG",
        "aliasList": [
          "12782"
        ],
        "actionId": 154,
        "bodyLangParam": 1230,
        "forceDoFreeStyle": true,
        "canDoRepeatFreeStyle": false,
        "cantBackToIdleWhenSitLoop": true,
        "eventPatternSuiteKey": "",
        "FOHHKFAIAAJ": ""
      },
      {
        "$type": "CPJKOIHIPBE",
        "type": "EMO_SYNC",
        "aliasList": [
          "12782"
        ],
        "actionId": 165,
        "dataPath": "Cs_Emo_Avatar_Simple_Common_Set/Cs_Emo_Avatar_Talk/Cs_Emo_Avatar_PersonalLine/Cs_Emo_Avatar_Cyno/Cs_Emo_130110204",
        "phonemePath": "",
        "emotionPath": "",
        "mateDataPath": "",
        "matePhonemePath": "",
        "mateEmotionPath": "",
        "dataPathHashList": [
          4002550426742261763,
          3669106166914682905,
          8675471147164331345,
          15887758362369387833
        ],
        "FMDPBECPELH": "",
        "ADKBLPOKGIK": ""
      },
      {
        "$type": "FJKIHHKJLMJ",
        "type": "CAMERA_MOVE",
        "delayTime": 0.10000000149011612,
        "duration": 5.603000164031982,
        "actionId": 156,
        "camPosOffset": {
          "x": -395.0899963378906,
          "y": 276.26300048828125,
          "z": 2840.532958984375
        },
        "camForwardTargetOffset": {
          "x": -394.739990234375,
          "y": 276.2170104980469,
          "z": 2841.468994140625
        },
        "camFov": 20.0,
        "cameraBlendType": "EaseOutQuad",
        "NJBNNOMLKCK": {},
        "needZAxisRotate": true,
        "openCameraDither": false,
        "targetNpcAlias": "",
        "closeTreeLeafDither": true,
        "KJOEFBPOIIH": "",
        "IICFKKEBIEC": "",
        "EGEHEJEBLBJ": ""
      },
      {
        "$type": "FJKIHHKJLMJ",
        "type": "CAMERA_MOVE",
        "delayTime": 2.0,
        "duration": 0.5,
        "actionId": 150,
        "camPosOffset": {
          "x": -393.1910095214844,
          "y": 276.60198974609375,
          "z": 2841.987060546875
        },
        "camForwardTargetOffset": {
          "x": -394.0580139160156,
          "y": 276.322998046875,
          "z": 2841.573974609375
        },
        "camFov": 20.0,
        "lerpPattern": 6,
        "cameraBlendType": "EaseInOutCubic",
        "NJBNNOMLKCK": {},
        "needZAxisRotate": true,
        "openCameraDither": false,
        "targetNpcAlias": "",
        "closeTreeLeafDither": true,
        "KJOEFBPOIIH": "",
        "IICFKKEBIEC": "",
        "EGEHEJEBLBJ": ""
      },
      {
        "$type": "FJKIHHKJLMJ",
        "type": "CAMERA_MOVE",
        "delayTime": 2.0999999046325684,
        "duration": 20.058000564575195,
        "actionId": 151,
        "camPosOffset": {
          "x": -393.09100341796875,
          "y": 276.6340026855469,
          "z": 2842.034912109375
        },
        "camForwardTargetOffset": {
          "x": -393.9580078125,
          "y": 276.3550109863281,
          "z": 2841.6220703125
        },
        "camFov": 20.0,
        "cameraBlendType": "EaseOutQuad",
        "NJBNNOMLKCK": {},
        "needZAxisRotate": true,
        "openCameraDither": false,
        "targetNpcAlias": "",
        "closeTreeLeafDither": true,
        "KJOEFBPOIIH": "",
        "IICFKKEBIEC": "",
        "EGEHEJEBLBJ": ""
      },
      {
        "$type": "LJLMDHDCAMK",
        "type": "LOOK_AT",
        "delayTime": 3.799999952316284,
        "aliasList": [
          "AvatarNpc"
        ],
        "actionId": 167,
        "enableHead": true,
        "headTurnTime": 0.5,
        "targetNpcAlias": "1005",
        "targetNpcRotateVecPlus": {
          "y": 347.989013671875
        },
        "openBackProtect": true,
        "targetNpcLookAtPoint": "",
        "OAFJBHJHLJG": ""
      },
      {
        "$type": "LJLMDHDCAMK",
        "type": "LOOK_AT",
        "delayTime": 4.124000072479248,
        "aliasList": [
          "1005"
        ],
        "actionId": 171,
        "enableHead": true,
        "headTurnTime": 0.5,
        "targetNpcAlias": "AvatarNpc",
        "targetNpcRotateVecPlus": {
          "y": 351.4280090332031
        },
        "openBackProtect": true,
        "targetNpcLookAtPoint": "",
        "OAFJBHJHLJG": ""
      },
      {
        "$type": "FABLGECDBCH",
        "type": "BODY_LANG",
        "delayTime": 4.165999889373779,
        "aliasList": [
          "12782"
        ],
        "actionId": 155,
        "bodyLangParam": 4040,
        "forceDoFreeStyle": true,
        "canDoRepeatFreeStyle": false,
        "cantBackToIdleWhenSitLoop": true,
        "eventPatternSuiteKey": "",
        "FOHHKFAIAAJ": ""
      },
      {
        "$type": "LJLMDHDCAMK",
        "type": "LOOK_AT",
        "delayTime": 6.1479997634887695,
        "aliasList": [
          "AvatarNpc"
        ],
        "actionId": 173,
        "enableHead": true,
        "headTurnTime": 0.5,
        "targetNpcAlias": "12782",
        "openBackProtect": true,
        "targetNpcLookAtPoint": "",
        "OAFJBHJHLJG": ""
      },
      {
        "$type": "LJLMDHDCAMK",
        "type": "LOOK_AT",
        "delayTime": 6.714000225067139,
        "aliasList": [
          "1005"
        ],
        "actionId": 174,
        "enableHead": true,
        "headTurnTime": 0.5,
        "targetNpcAlias": "12782",
        "openBackProtect": true,
        "targetNpcLookAtPoint": "",
        "OAFJBHJHLJG": ""
      }
    ],
    [
      {
        "$type": "MoleMole.Config.ConfigSimpleBlackScreenAction",
        "type": "SIMPLE_BLACK_SCREEN",
        "actionId": 115,
        "durationToBlack": 0.5,
        "durationKeepBlack": 3.0,
        "durationFromBlack": 0.5,
        "textMapID": ""
      },
      {
        "$type": "MoleMole.Config.ConfigTimeProtectAction",
        "type": "TIME_PROTECT",
        "duration": 0.699999988079071,
        "actionId": 116
      },
      {
        "$type": "PKKMAMONGEO",
        "type": "DIALOG_CLEAR",
        "actionId": 160
      },
      {
        "$type": "MoleMole.Config.ConfigAudioPlayAction",
        "type": "AUDIO_PLAY",
        "actionId": 176,
        "audioEventStr": "Play_sfx_quest_cyno_1301_door"
      },
      {
        "$type": "MoleMole.Config.ConfigVisibleInterAction",
        "type": "VISIBLE",
        "delayTime": 0.5669999718666077,
        "aliasList": [
          "12782"
        ],
        "actionId": 122,
        "_extraParam": ""
      },
      {
        "$type": "MoleMole.Config.ConfigVisibleInterAction",
        "type": "VISIBLE",
        "delayTime": 0.5830000042915344,
        "aliasList": [
          "AvatarNpc"
        ],
        "actionId": 121,
        "_extraParam": ""
      },
      {
        "$type": "FJKIHHKJLMJ",
        "type": "CAMERA_MOVE",
        "delayTime": 0.6000000238418579,
        "duration": 0.10000000149011612,
        "actionId": 158,
        "camPosOffset": {
          "x": -396.7550048828125,
          "y": 275.885986328125,
          "z": 2838.305908203125
        },
        "camForwardTargetOffset": {
          "x": -396.2560119628906,
          "y": 275.7359924316406,
          "z": 2839.158935546875
        },
        "lerpPattern": 6,
        "cameraBlendType": "EaseInOutCubic",
        "NJBNNOMLKCK": {},
        "needZAxisRotate": true,
        "openCameraDither": false,
        "targetNpcAlias": "",
        "closeTreeLeafDither": true,
        "KJOEFBPOIIH": "",
        "IICFKKEBIEC": "",
        "EGEHEJEBLBJ": ""
      },
      {
        "$type": "MoleMole.Config.ConfigVisibleInterAction",
        "type": "VISIBLE",
        "delayTime": 0.6000000238418579,
        "aliasList": [
          "Avatar"
        ],
        "actionId": 118,
        "isVisible": true,
        "_extraParam": ""
      },
      {
        "$type": "MoleMole.Config.ConfigVisibleInterAction",
        "type": "VISIBLE",
        "delayTime": 0.6000000238418579,
        "aliasList": [
          "12772"
        ],
        "actionId": 117,
        "_extraParam": ""
      }
    ]
  ],
  "groupId": [
    {
      "grpId": 628986840,
      "nextGrpId": 628986841
    },
    {
      "index": 1,
      "grpId": 628986841,
      "nextGrpId": 628986842
    },
    {
      "index": 2,
      "grpId": 628986842,
      "nextGrpId": 628986843
    },
    {
      "index": 3,
      "grpId": 628986843,
      "nextGrpId": 628986844
    },
    {
      "index": 4,
      "grpId": 628986844,
      "nextGrpId": 628986845
    },
    {
      "index": 5,
      "grpId": 628986845,
      "nextGrpId": 628986846
    }
  ],
  "freeStyleDic": {
    "1025": [],
    "1026": [],
    "12782": [
      4030,
      1171,
      1130,
      1230,
      4040
    ],
    "12772": []
  }
}