{
  "1a526cf4-0fd0-449e-ac94-e3124a46e597": {
    "guid": "1a526cf4-0fd0-449e-ac94-e3124a46e597",
    "playRate": 1.0,
    "gameTrigger": "Dialog",
    "gameTriggerArgs": 693770103,
    "parentID": "6ae7ef82-5777-4009-98ad-154e53ff4e26",
    "sourceNames": [
      {
        "sourceFileName": "VO_Tower\\vo_xianyun_saferoom_rest_03.wem",
        "rate": 1.0,
        "avatarName": "",
        "emotion": ""
      }
    ]
  },
  "36c385ea-e4c8-4e30-bec9-8273836365f6": {
    "guid": "36c385ea-e4c8-4e30-bec9-8273836365f6",
    "playRate": 1.0,
    "gameTrigger": "Dialog",
    "gameTriggerArgs": 693770303,
    "parentID": "6ae7ef82-5777-4009-98ad-154e53ff4e26",
    "sourceNames": [
      {
        "sourceFileName": "VO_Tower\\vo_xianyun_saferoom_others_03.wem",
        "rate": 1.0,
        "avatarName": "",
        "emotion": ""
      }
    ]
  },
  "38a98bcc-6b9e-4049-8953-3c624a50236a": {
    "guid": "38a98bcc-6b9e-4049-8953-3c624a50236a",
    "playRate": 1.0,
    "gameTrigger": "Dialog",
    "gameTriggerArgs": 693770101,
    "parentID": "6ae7ef82-5777-4009-98ad-154e53ff4e26",
    "sourceNames": [
      {
        "sourceFileName": "VO_Tower\\vo_xianyun_saferoom_rest_01.wem",
        "rate": 1.0,
        "avatarName": "",
        "emotion": ""
      }
    ]
  },
  "425e698f-8b24-4774-8447-57ffd068ac40": {
    "guid": "425e698f-8b24-4774-8447-57ffd068ac40",
    "playRate": 1.0,
    "gameTrigger": "Dialog",
    "gameTriggerArgs": 693770302,
    "parentID": "6ae7ef82-5777-4009-98ad-154e53ff4e26",
    "sourceNames": [
      {
        "sourceFileName": "VO_Tower\\vo_xianyun_saferoom_others_02.wem",
        "rate": 1.0,
        "avatarName": "",
        "emotion": ""
      }
    ]
  },
  "47a49c37-1929-47de-a855-7cc10f5565e7": {
    "guid": "47a49c37-1929-47de-a855-7cc10f5565e7",
    "playRate": 1.0,
    "gameTrigger": "Dialog",
    "gameTriggerArgs": 693770201,
    "parentID": "6ae7ef82-5777-4009-98ad-154e53ff4e26",
    "sourceNames": [
      {
        "sourceFileName": "VO_Tower\\vo_xianyun_saferoom_challenge_01.wem",
        "rate": 1.0,
        "avatarName": "",
        "emotion": ""
      }
    ]
  },
  "6cb3bb5d-5894-47f4-a227-a88e32c9a20e": {
    "guid": "6cb3bb5d-5894-47f4-a227-a88e32c9a20e",
    "playRate": 1.0,
    "gameTrigger": "Dialog",
    "gameTriggerArgs": 693770203,
    "parentID": "6ae7ef82-5777-4009-98ad-154e53ff4e26",
    "sourceNames": [
      {
        "sourceFileName": "VO_Tower\\vo_xianyun_saferoom_challenge_03.wem",
        "rate": 1.0,
        "avatarName": "",
        "emotion": ""
      }
    ]
  },
  "7a7b8e48-0311-4565-88cb-2fa70221b90b": {
    "guid": "7a7b8e48-0311-4565-88cb-2fa70221b90b",
    "playRate": 1.0,
    "gameTrigger": "Dialog",
    "gameTriggerArgs": 693770202,
    "parentID": "6ae7ef82-5777-4009-98ad-154e53ff4e26",
    "sourceNames": [
      {
        "sourceFileName": "VO_Tower\\vo_xianyun_saferoom_challenge_02.wem",
        "rate": 1.0,
        "avatarName": "",
        "emotion": ""
      }
    ]
  },
  "839e7350-8611-48bf-bd87-3979f7d8d5ea": {
    "guid": "839e7350-8611-48bf-bd87-3979f7d8d5ea",
    "playRate": 1.0,
    "gameTrigger": "Dialog",
    "gameTriggerArgs": 693770301,
    "parentID": "6ae7ef82-5777-4009-98ad-154e53ff4e26",
    "sourceNames": [
      {
        "sourceFileName": "VO_Tower\\vo_xianyun_saferoom_others_01.wem",
        "rate": 1.0,
        "avatarName": "",
        "emotion": ""
      }
    ]
  },
  "c14f66bc-e08e-4b82-8dbb-11c372510101": {
    "guid": "c14f66bc-e08e-4b82-8dbb-11c372510101",
    "playRate": 1.0,
    "gameTrigger": "Dialog",
    "gameTriggerArgs": 693770102,
    "parentID": "6ae7ef82-5777-4009-98ad-154e53ff4e26",
    "sourceNames": [
      {
        "sourceFileName": "VO_Tower\\vo_xianyun_saferoom_rest_02.wem",
        "rate": 1.0,
        "avatarName": "",
        "emotion": ""
      }
    ]
  }
}