{
  "16ba598d-3291-484f-b329-f321a4465dca": {
    "guid": "16ba598d-3291-484f-b329-f321a4465dca",
    "playRate": 1.0,
    "gameTrigger": "Dialog",
    "gameTriggerArgs": 10213105,
    "personalConfig": 2,
    "parentID": "edf25f7f-650f-4a1d-b50f-8c3571b2d657",
    "sourceNames": [
      {
        "sourceFileName": "VO_freetalk\\VO_ningguang\\vo_dialog_LYAQ202_ningguang_04.wem",
        "rate": 1.0,
        "avatarName": "",
        "emotion": ""
      }
    ]
  },
  "379f8371-e946-4a71-b4fa-2fc6d17e5249": {
    "guid": "379f8371-e946-4a71-b4fa-2fc6d17e5249",
    "playRate": 1.0,
    "gameTrigger": "Dialog",
    "gameTriggerArgs": 401113203,
    "personalConfig": 2,
    "parentID": "edf25f7f-650f-4a1d-b50f-8c3571b2d657",
    "sourceNames": [
      {
        "sourceFileName": "VO_freetalk\\VO_ningguang\\vo_dialog_DPEQ002_ningguang_03.wem",
        "rate": 1.0,
        "avatarName": "",
        "emotion": ""
      }
    ]
  },
  "551564f1-b5d8-4280-90fd-0d67910a9261": {
    "guid": "551564f1-b5d8-4280-90fd-0d67910a9261",
    "playRate": 1.0,
    "gameTrigger": "Dialog",
    "gameTriggerArgs": 400153001,
    "personalConfig": 2,
    "parentID": "edf25f7f-650f-4a1d-b50f-8c3571b2d657",
    "sourceNames": [
      {
        "sourceFileName": "VO_freetalk\\VO_ningguang\\vo_dialog_EQZYJ002_ningguang_01.wem",
        "rate": 1.0,
        "avatarName": "",
        "emotion": ""
      }
    ]
  },
  "565e5a61-bf53-47ed-b38d-9c213bef1d08": {
    "guid": "565e5a61-bf53-47ed-b38d-9c213bef1d08",
    "playRate": 1.0,
    "gameTrigger": "Dialog",
    "gameTriggerArgs": 400390101,
    "personalConfig": 2,
    "parentID": "edf25f7f-650f-4a1d-b50f-8c3571b2d657",
    "sourceNames": [
      {
        "sourceFileName": "VO_freetalk\\VO_ningguang\\vo_dialog_DLEQ001_ningguang_01.wem",
        "rate": 1.0,
        "avatarName": "",
        "emotion": ""
      }
    ]
  },
  "5f36bd47-d1ca-4ad5-9d75-228b4f9acbde": {
    "guid": "5f36bd47-d1ca-4ad5-9d75-228b4f9acbde",
    "playRate": 1.0,
    "gameTrigger": "Dialog",
    "gameTriggerArgs": 401113202,
    "personalConfig": 2,
    "parentID": "edf25f7f-650f-4a1d-b50f-8c3571b2d657",
    "sourceNames": [
      {
        "sourceFileName": "VO_freetalk\\VO_ningguang\\vo_dialog_DPEQ002_ningguang_02.wem",
        "rate": 1.0,
        "avatarName": "",
        "emotion": ""
      }
    ]
  },
  "673953f1-e505-4fda-82c9-c70d26cc1698": {
    "guid": "673953f1-e505-4fda-82c9-c70d26cc1698",
    "playRate": 1.0,
    "gameTrigger": "Dialog",
    "gameTriggerArgs": 110150602,
    "personalConfig": 2,
    "parentID": "edf25f7f-650f-4a1d-b50f-8c3571b2d657",
    "sourceNames": [
      {
        "sourceFileName": "VO_freetalk\\VO_ningguang\\vo_dialog_SHLQ004_ningguang_02.wem",
        "rate": 1.0,
        "avatarName": "",
        "emotion": ""
      }
    ]
  },
  "6fa56fa2-3a7f-4155-9d8a-184d79b2cd60": {
    "guid": "6fa56fa2-3a7f-4155-9d8a-184d79b2cd60",
    "playRate": 1.0,
    "gameTrigger": "Dialog",
    "gameTriggerArgs": 400145301,
    "personalConfig": 2,
    "parentID": "edf25f7f-650f-4a1d-b50f-8c3571b2d657",
    "sourceNames": [
      {
        "sourceFileName": "VO_freetalk\\VO_ningguang\\vo_dialog_EQZYJ001_ningguang_01.wem",
        "rate": 1.0,
        "avatarName": "",
        "emotion": ""
      }
    ]
  },
  "738e4ff4-13fe-46da-81b9-eff87d0c768c": {
    "guid": "738e4ff4-13fe-46da-81b9-eff87d0c768c",
    "playRate": 1.0,
    "gameTrigger": "Dialog",
    "gameTriggerArgs": 401113201,
    "personalConfig": 2,
    "parentID": "edf25f7f-650f-4a1d-b50f-8c3571b2d657",
    "sourceNames": [
      {
        "sourceFileName": "VO_freetalk\\VO_ningguang\\vo_dialog_DPEQ002_ningguang_01.wem",
        "rate": 1.0,
        "avatarName": "",
        "emotion": ""
      }
    ]
  },
  "749eb97b-419a-46dd-903e-4417a43bb28d": {
    "guid": "749eb97b-419a-46dd-903e-4417a43bb28d",
    "playRate": 1.0,
    "gameTrigger": "Dialog",
    "gameTriggerArgs": 10213103,
    "personalConfig": 2,
    "parentID": "edf25f7f-650f-4a1d-b50f-8c3571b2d657",
    "sourceNames": [
      {
        "sourceFileName": "VO_freetalk\\VO_ningguang\\vo_dialog_LYAQ202_ningguang_03.wem",
        "rate": 1.0,
        "avatarName": "",
        "emotion": ""
      }
    ]
  },
  "a97f7594-02d6-4b76-a7ae-2142b14710e5": {
    "guid": "a97f7594-02d6-4b76-a7ae-2142b14710e5",
    "playRate": 1.0,
    "gameTrigger": "Dialog",
    "gameTriggerArgs": 10213102,
    "personalConfig": 2,
    "parentID": "edf25f7f-650f-4a1d-b50f-8c3571b2d657",
    "sourceNames": [
      {
        "sourceFileName": "VO_freetalk\\VO_ningguang\\vo_dialog_LYAQ202_ningguang_02.wem",
        "rate": 1.0,
        "avatarName": "",
        "emotion": ""
      }
    ]
  },
  "bd3bcd2d-44dd-449b-b9d6-bb24c3cfd472": {
    "guid": "bd3bcd2d-44dd-449b-b9d6-bb24c3cfd472",
    "playRate": 1.0,
    "gameTrigger": "Dialog",
    "gameTriggerArgs": 110150601,
    "personalConfig": 2,
    "parentID": "edf25f7f-650f-4a1d-b50f-8c3571b2d657",
    "sourceNames": [
      {
        "sourceFileName": "VO_freetalk\\VO_ningguang\\vo_dialog_SHLQ004_ningguang_01.wem",
        "rate": 1.0,
        "avatarName": "",
        "emotion": ""
      }
    ]
  },
  "d11e8bf7-e1e2-4674-93bb-ec8658ffcf2d": {
    "guid": "d11e8bf7-e1e2-4674-93bb-ec8658ffcf2d",
    "playRate": 1.0,
    "gameTrigger": "Dialog",
    "gameTriggerArgs": 10213101,
    "personalConfig": 2,
    "parentID": "edf25f7f-650f-4a1d-b50f-8c3571b2d657",
    "sourceNames": [
      {
        "sourceFileName": "VO_freetalk\\VO_ningguang\\vo_dialog_LYAQ202_ningguang_01.wem",
        "rate": 1.0,
        "avatarName": "",
        "emotion": ""
      }
    ]
  },
  "d763d49a-12ac-4ba2-8755-9c5b8da00ad0": {
    "guid": "d763d49a-12ac-4ba2-8755-9c5b8da00ad0",
    "playRate": 1.0,
    "gameTrigger": "Dialog",
    "gameTriggerArgs": 10213107,
    "personalConfig": 2,
    "parentID": "edf25f7f-650f-4a1d-b50f-8c3571b2d657",
    "sourceNames": [
      {
        "sourceFileName": "VO_freetalk\\VO_ningguang\\vo_dialog_LYAQ202_ningguang_05.wem",
        "rate": 1.0,
        "avatarName": "",
        "emotion": ""
      }
    ]
  },
  "e937482c-cadb-4247-a997-1ae3166de889": {
    "guid": "e937482c-cadb-4247-a997-1ae3166de889",
    "playRate": 1.0,
    "gameTrigger": "Dialog",
    "gameTriggerArgs": 10251801,
    "personalConfig": 2,
    "parentID": "edf25f7f-650f-4a1d-b50f-8c3571b2d657",
    "sourceNames": [
      {
        "sourceFileName": "VO_freetalk\\VO_ningguang\\vo_dialog_LYAQ206_ningguang_01.wem",
        "rate": 1.0,
        "avatarName": "",
        "emotion": ""
      }
    ]
  }
}