{
  "3f6b1b53-123b-43bd-91fc-95fb32f678a8": {
    "guid": "3f6b1b53-123b-43bd-91fc-95fb32f678a8",
    "playRate": 1.0,
    "gameTrigger": "Fetter",
    "gameTriggerArgs": 5000003,
    "personalConfig": 2,
    "avoidRepeat": 1,
    "parentID": "e9a74547-f8a5-4f1e-8707-42abb19f0d69",
    "sourceNames": [
      {
        "sourceFileName": "VO_Costume\\VO_diluc\\vo_diluc_suit_aristocrat_01.wem",
        "rate": 1.0,
        "avatarName": "Switch_diluc",
        "emotion": ""
      },
      {
        "sourceFileName": "VO_Costume\\VO_diluc\\vo_diluc_suit_aristocrat_02.wem",
        "rate": 1.0,
        "avatarName": "Switch_diluc",
        "emotion": ""
      },
      {
        "sourceFileName": "VO_Costume\\VO_diluc\\vo_diluc_suit_aristocrat_03.wem",
        "rate": 1.0,
        "avatarName": "Switch_diluc",
        "emotion": ""
      },
      {
        "sourceFileName": "VO_Costume\\VO_fischl\\vo_fischl_suit_aristocrat_01.wem",
        "rate": 1.0,
        "avatarName": "Switch_fischl",
        "emotion": ""
      },
      {
        "sourceFileName": "VO_Costume\\VO_fischl\\vo_fischl_suit_aristocrat_02.wem",
        "rate": 1.0,
        "avatarName": "Switch_fischl",
        "emotion": ""
      },
      {
        "sourceFileName": "VO_Costume\\VO_fischl\\vo_fischl_suit_aristocrat_03.wem",
        "rate": 1.0,
        "avatarName": "Switch_fischl",
        "emotion": ""
      }
    ]
  },
  "6085149b-54b9-4bd4-8c8b-c8ac0e20f766": {
    "guid": "6085149b-54b9-4bd4-8c8b-c8ac0e20f766",
    "playRate": 1.0,
    "gameTrigger": "Fetter",
    "gameTriggerArgs": 5000001,
    "personalConfig": 2,
    "avoidRepeat": 1,
    "parentID": "e9a74547-f8a5-4f1e-8707-42abb19f0d69",
    "sourceNames": [
      {
        "sourceFileName": "VO_Costume\\VO_barbara\\vo_barbara_suit_swim_01.wem",
        "rate": 1.0,
        "avatarName": "Switch_barbara",
        "emotion": ""
      },
      {
        "sourceFileName": "VO_Costume\\VO_barbara\\vo_barbara_suit_swim_02.wem",
        "rate": 1.0,
        "avatarName": "Switch_barbara",
        "emotion": ""
      },
      {
        "sourceFileName": "VO_Costume\\VO_barbara\\vo_barbara_suit_swim_03.wem",
        "rate": 1.0,
        "avatarName": "Switch_barbara",
        "emotion": ""
      },
      {
        "sourceFileName": "VO_Costume\\VO_qin\\vo_qin_suit_swim_02.wem",
        "rate": 1.0,
        "avatarName": "Switch_qin",
        "emotion": ""
      },
      {
        "sourceFileName": "VO_Costume\\VO_qin\\vo_qin_suit_swim_03.wem",
        "rate": 1.0,
        "avatarName": "Switch_qin",
        "emotion": ""
      },
      {
        "sourceFileName": "VO_Costume\\VO_qin\\vo_qin_suit_swim_01.wem",
        "rate": 1.0,
        "avatarName": "Switch_qin",
        "emotion": ""
      },
      {
        "sourceFileName": "VO_Costume\\VO_ningguang\\vo_ningguang_suit_gown_01.wem",
        "rate": 1.0,
        "avatarName": "Switch_ningguang",
        "emotion": ""
      },
      {
        "sourceFileName": "VO_Costume\\VO_ningguang\\vo_ningguang_suit_gown_02.wem",
        "rate": 1.0,
        "avatarName": "Switch_ningguang",
        "emotion": ""
      },
      {
        "sourceFileName": "VO_Costume\\VO_ningguang\\vo_ningguang_suit_gown_03.wem",
        "rate": 1.0,
        "avatarName": "Switch_ningguang",
        "emotion": ""
      },
      {
        "sourceFileName": "VO_Costume\\VO_keqing\\vo_keqing_suit_gown_02.wem",
        "rate": 1.0,
        "avatarName": "Switch_keqing",
        "emotion": ""
      },
      {
        "sourceFileName": "VO_Costume\\VO_keqing\\vo_keqing_suit_gown_03.wem",
        "rate": 1.0,
        "avatarName": "Switch_keqing",
        "emotion": ""
      },
      {
        "sourceFileName": "VO_Costume\\VO_keqing\\vo_keqing_suit_gown_01.wem",
        "rate": 1.0,
        "avatarName": "Switch_keqing",
        "emotion": ""
      },
      {
        "sourceFileName": "VO_Costume\\VO_lisa\\vo_lisa_suit_studentin_02.wem",
        "rate": 1.0,
        "avatarName": "Switch_lisa",
        "emotion": ""
      },
      {
        "sourceFileName": "VO_Costume\\VO_lisa\\vo_lisa_suit_studentin_03.wem",
        "rate": 1.0,
        "avatarName": "Switch_lisa",
        "emotion": ""
      },
      {
        "sourceFileName": "VO_Costume\\VO_lisa\\vo_lisa_suit_studentin_01.wem",
        "rate": 1.0,
        "avatarName": "Switch_lisa",
        "emotion": ""
      },
      {
        "sourceFileName": "VO_Costume\\VO_ayaka\\vo_ayaka_suit_fruhling_02.wem",
        "rate": 1.0,
        "avatarName": "Switch_ayaka",
        "emotion": ""
      },
      {
        "sourceFileName": "VO_Costume\\VO_ayaka\\vo_ayaka_suit_fruhling_03.wem",
        "rate": 1.0,
        "avatarName": "Switch_ayaka",
        "emotion": ""
      },
      {
        "sourceFileName": "VO_Costume\\VO_ayaka\\vo_ayaka_suit_fruhling_01.wem",
        "rate": 1.0,
        "avatarName": "Switch_ayaka",
        "emotion": ""
      },
      {
        "sourceFileName": "VO_Costume\\VO_klee\\vo_klee_suit_witch_01.wem",
        "rate": 1.0,
        "avatarName": "Switch_klee",
        "emotion": ""
      },
      {
        "sourceFileName": "VO_Costume\\VO_klee\\vo_klee_suit_witch_02.wem",
        "rate": 1.0,
        "avatarName": "Switch_klee",
        "emotion": ""
      },
      {
        "sourceFileName": "VO_Costume\\VO_klee\\vo_klee_suit_witch_03.wem",
        "rate": 1.0,
        "avatarName": "Switch_klee",
        "emotion": ""
      },
      {
        "sourceFileName": "VO_Costume\\VO_kaeya\\vo_kaeya_suit_dancer_02.wem",
        "rate": 1.0,
        "avatarName": "Switch_kaeya",
        "emotion": ""
      },
      {
        "sourceFileName": "VO_Costume\\VO_kaeya\\vo_kaeya_suit_dancer_03.wem",
        "rate": 1.0,
        "avatarName": "Switch_kaeya",
        "emotion": ""
      },
      {
        "sourceFileName": "VO_Costume\\VO_kaeya\\vo_kaeya_suit_dancer_01.wem",
        "rate": 1.0,
        "avatarName": "Switch_kaeya",
        "emotion": ""
      },
      {
        "sourceFileName": "VO_Costume\\VO_xingqiu\\vo_xingqiu_suit_coat_02.wem",
        "rate": 1.0,
        "avatarName": "Switch_xingqiu",
        "emotion": ""
      },
      {
        "sourceFileName": "VO_Costume\\VO_xingqiu\\vo_xingqiu_suit_coat_03.wem",
        "rate": 1.0,
        "avatarName": "Switch_xingqiu",
        "emotion": ""
      },
      {
        "sourceFileName": "VO_Costume\\VO_xingqiu\\vo_xingqiu_suit_coat_01.wem",
        "rate": 1.0,
        "avatarName": "Switch_xingqiu",
        "emotion": ""
      },
      {
        "sourceFileName": "VO_Costume\\VO_ganyu\\vo_ganyu_suit_formal_03.wem",
        "rate": 1.0,
        "avatarName": "Switch_ganyu",
        "emotion": ""
      },
      {
        "sourceFileName": "VO_Costume\\VO_ganyu\\vo_ganyu_suit_formal_01.wem",
        "rate": 1.0,
        "avatarName": "Switch_ganyu",
        "emotion": ""
      },
      {
        "sourceFileName": "VO_Costume\\VO_ganyu\\vo_ganyu_suit_formal_02.wem",
        "rate": 1.0,
        "avatarName": "Switch_ganyu",
        "emotion": ""
      },
      {
        "sourceFileName": "VO_Costume\\VO_shenhe\\vo_shenhe_suit_formal_02.wem",
        "rate": 1.0,
        "avatarName": "Switch_shenhe",
        "emotion": ""
      },
      {
        "sourceFileName": "VO_Costume\\VO_shenhe\\vo_shenhe_suit_formal_03.wem",
        "rate": 1.0,
        "avatarName": "Switch_shenhe",
        "emotion": ""
      },
      {
        "sourceFileName": "VO_Costume\\VO_shenhe\\vo_shenhe_suit_formal_01.wem",
        "rate": 1.0,
        "avatarName": "Switch_shenhe",
        "emotion": ""
      },
      {
        "sourceFileName": "VO_Costume\\VO_kirara\\vo_kirara_suit_errantry_02.wem",
        "rate": 1.0,
        "avatarName": "Switch_kirara",
        "emotion": ""
      },
      {
        "sourceFileName": "VO_Costume\\VO_kirara\\vo_kirara_suit_errantry_03.wem",
        "rate": 1.0,
        "avatarName": "Switch_kirara",
        "emotion": ""
      },
      {
        "sourceFileName": "VO_Costume\\VO_kirara\\vo_kirara_suit_errantry_01.wem",
        "rate": 1.0,
        "avatarName": "Switch_kirara",
        "emotion": ""
      },
      {
        "sourceFileName": "VO_Costume\\VO_nilou\\vo_nilou_suit_fairy_02.wem",
        "rate": 1.0,
        "avatarName": "Switch_nilou",
        "emotion": ""
      },
      {
        "sourceFileName": "VO_Costume\\VO_nilou\\vo_nilou_suit_fairy_03.wem",
        "rate": 1.0,
        "avatarName": "Switch_nilou",
        "emotion": ""
      },
      {
        "sourceFileName": "VO_Costume\\VO_nilou\\vo_nilou_suit_fairy_01.wem",
        "rate": 1.0,
        "avatarName": "Switch_nilou",
        "emotion": ""
      }
    ]
  },
  "898e9ea6-75ec-4bda-9afb-86ee7dd54e89": {
    "guid": "898e9ea6-75ec-4bda-9afb-86ee7dd54e89",
    "playRate": 1.0,
    "gameTrigger": "Fetter",
    "gameTriggerArgs": 5000002,
    "personalConfig": 2,
    "avoidRepeat": 1,
    "parentID": "e9a74547-f8a5-4f1e-8707-42abb19f0d69",
    "sourceNames": [
      {
        "sourceFileName": "VO_Costume\\VO_qin\\vo_qin_suit_renew_01.wem",
        "rate": 1.0,
        "avatarName": "Switch_qin",
        "emotion": ""
      },
      {
        "sourceFileName": "VO_Costume\\VO_qin\\vo_qin_suit_renew_02.wem",
        "rate": 1.0,
        "avatarName": "Switch_qin",
        "emotion": ""
      },
      {
        "sourceFileName": "VO_Costume\\VO_qin\\vo_qin_suit_renew_03.wem",
        "rate": 1.0,
        "avatarName": "Switch_qin",
        "emotion": ""
      },
      {
        "sourceFileName": "VO_Costume\\VO_mona\\vo_mona_suit_renew_02.wem",
        "rate": 1.0,
        "avatarName": "Switch_mona",
        "emotion": ""
      },
      {
        "sourceFileName": "VO_Costume\\VO_mona\\vo_mona_suit_renew_03.wem",
        "rate": 1.0,
        "avatarName": "Switch_mona",
        "emotion": ""
      },
      {
        "sourceFileName": "VO_Costume\\VO_mona\\vo_mona_suit_renew_01.wem",
        "rate": 1.0,
        "avatarName": "Switch_mona",
        "emotion": ""
      },
      {
        "sourceFileName": "VO_Costume\\VO_ambor\\vo_ambor_suit_renew_01.wem",
        "rate": 1.0,
        "avatarName": "Switch_ambor",
        "emotion": ""
      },
      {
        "sourceFileName": "VO_Costume\\VO_ambor\\vo_ambor_suit_renew_02.wem",
        "rate": 1.0,
        "avatarName": "Switch_ambor",
        "emotion": ""
      },
      {
        "sourceFileName": "VO_Costume\\VO_ambor\\vo_ambor_suit_renew_03.wem",
        "rate": 1.0,
        "avatarName": "Switch_ambor",
        "emotion": ""
      },
      {
        "sourceFileName": "VO_Costume\\VO_rosaria\\vo_rosaria_suit_renew_02.wem",
        "rate": 1.0,
        "avatarName": "Switch_rosaria",
        "emotion": ""
      },
      {
        "sourceFileName": "VO_Costume\\VO_rosaria\\vo_rosaria_suit_renew_03.wem",
        "rate": 1.0,
        "avatarName": "Switch_rosaria",
        "emotion": ""
      },
      {
        "sourceFileName": "VO_Costume\\VO_rosaria\\vo_rosaria_suit_renew_01.wem",
        "rate": 1.0,
        "avatarName": "Switch_rosaria",
        "emotion": ""
      }
    ]
  }
}