{
  "019a81e6-1ec3-455a-9612-b2a36d9a45cc": {
    "guid": "019a81e6-1ec3-455a-9612-b2a36d9a45cc",
    "playRate": 1.0,
    "gameTrigger": "Dialog",
    "gameTriggerArgs": 693800302,
    "parentID": "ce53d646-e5d5-403b-b685-f58016b1bbf2",
    "sourceNames": [
      {
        "sourceFileName": "VO_Tower\\vo_clorinde_saferoom_others_02.wem",
        "rate": 1.0,
        "avatarName": "",
        "emotion": ""
      }
    ]
  },
  "072a396b-b48d-4d9c-8a55-4fc7ac482826": {
    "guid": "072a396b-b48d-4d9c-8a55-4fc7ac482826",
    "playRate": 1.0,
    "gameTrigger": "Dialog",
    "gameTriggerArgs": 693800102,
    "parentID": "ce53d646-e5d5-403b-b685-f58016b1bbf2",
    "sourceNames": [
      {
        "sourceFileName": "VO_Tower\\vo_clorinde_saferoom_rest_02.wem",
        "rate": 1.0,
        "avatarName": "",
        "emotion": ""
      }
    ]
  },
  "083ed603-2848-4d75-8f95-4f77f33f8618": {
    "guid": "083ed603-2848-4d75-8f95-4f77f33f8618",
    "playRate": 1.0,
    "gameTrigger": "Dialog",
    "gameTriggerArgs": 693800201,
    "parentID": "ce53d646-e5d5-403b-b685-f58016b1bbf2",
    "sourceNames": [
      {
        "sourceFileName": "VO_Tower\\vo_clorinde_saferoom_challenge_01.wem",
        "rate": 1.0,
        "avatarName": "",
        "emotion": ""
      }
    ]
  },
  "37160957-192f-4530-9f9b-edb25e2a1daa": {
    "guid": "37160957-192f-4530-9f9b-edb25e2a1daa",
    "playRate": 1.0,
    "gameTrigger": "Dialog",
    "gameTriggerArgs": 693800101,
    "parentID": "ce53d646-e5d5-403b-b685-f58016b1bbf2",
    "sourceNames": [
      {
        "sourceFileName": "VO_Tower\\vo_clorinde_saferoom_rest_01.wem",
        "rate": 1.0,
        "avatarName": "",
        "emotion": ""
      }
    ]
  },
  "550583f5-71f0-4bfa-a8e9-568a8d3655d0": {
    "guid": "550583f5-71f0-4bfa-a8e9-568a8d3655d0",
    "playRate": 1.0,
    "gameTrigger": "Dialog",
    "gameTriggerArgs": 693800301,
    "parentID": "ce53d646-e5d5-403b-b685-f58016b1bbf2",
    "sourceNames": [
      {
        "sourceFileName": "VO_Tower\\vo_clorinde_saferoom_others_01.wem",
        "rate": 1.0,
        "avatarName": "",
        "emotion": ""
      }
    ]
  },
  "6540c855-2558-4e4a-af83-e270acd9bd35": {
    "guid": "6540c855-2558-4e4a-af83-e270acd9bd35",
    "playRate": 1.0,
    "gameTrigger": "Dialog",
    "gameTriggerArgs": 693800103,
    "parentID": "ce53d646-e5d5-403b-b685-f58016b1bbf2",
    "sourceNames": [
      {
        "sourceFileName": "VO_Tower\\vo_clorinde_saferoom_rest_03.wem",
        "rate": 1.0,
        "avatarName": "",
        "emotion": ""
      }
    ]
  },
  "ad063d36-ce32-4aad-b82f-6e57396a0743": {
    "guid": "ad063d36-ce32-4aad-b82f-6e57396a0743",
    "playRate": 1.0,
    "gameTrigger": "Dialog",
    "gameTriggerArgs": 693800303,
    "parentID": "ce53d646-e5d5-403b-b685-f58016b1bbf2",
    "sourceNames": [
      {
        "sourceFileName": "VO_Tower\\vo_clorinde_saferoom_others_03.wem",
        "rate": 1.0,
        "avatarName": "",
        "emotion": ""
      }
    ]
  },
  "c1ae1332-bf84-479f-8b4b-7490d4d24fdd": {
    "guid": "c1ae1332-bf84-479f-8b4b-7490d4d24fdd",
    "playRate": 1.0,
    "gameTrigger": "Dialog",
    "gameTriggerArgs": 693800203,
    "parentID": "ce53d646-e5d5-403b-b685-f58016b1bbf2",
    "sourceNames": [
      {
        "sourceFileName": "VO_Tower\\vo_clorinde_saferoom_challenge_03.wem",
        "rate": 1.0,
        "avatarName": "",
        "emotion": ""
      }
    ]
  },
  "ee3b516d-3f54-462d-a181-0897b0dbcacc": {
    "guid": "ee3b516d-3f54-462d-a181-0897b0dbcacc",
    "playRate": 1.0,
    "gameTrigger": "Dialog",
    "gameTriggerArgs": 693800202,
    "parentID": "ce53d646-e5d5-403b-b685-f58016b1bbf2",
    "sourceNames": [
      {
        "sourceFileName": "VO_Tower\\vo_clorinde_saferoom_challenge_02.wem",
        "rate": 1.0,
        "avatarName": "",
        "emotion": ""
      }
    ]
  }
}