{
  "1d577d5a-f608-4c11-9dd2-8c8b2ef4b26b": {
    "guid": "1d577d5a-f608-4c11-9dd2-8c8b2ef4b26b",
    "playRate": 1.0,
    "gameTrigger": "Dialog",
    "gameTriggerArgs": 140330604,
    "personalConfig": 2,
    "parentID": "545ec27d-80c8-403f-bbf4-e6d4736e3c14",
    "sourceNames": [
      {
        "sourceFileName": "VO_LQ\\VO_clorinde\\vo_CLLQ003_3_clorinde_04.wem",
        "rate": 1.0,
        "avatarName": "",
        "emotion": ""
      }
    ]
  },
  "23c3ac5a-69ff-476f-800e-dd439aaac86c": {
    "guid": "23c3ac5a-69ff-476f-800e-dd439aaac86c",
    "playRate": 1.0,
    "gameTrigger": "Dialog",
    "gameTriggerArgs": 140330607,
    "personalConfig": 2,
    "parentID": "545ec27d-80c8-403f-bbf4-e6d4736e3c14",
    "sourceNames": [
      {
        "sourceFileName": "VO_LQ\\VO_paimon\\vo_CLLQ003_3_paimon_01.wem",
        "rate": 1.0,
        "avatarName": "",
        "emotion": ""
      }
    ]
  },
  "23f1c05d-1818-4cce-959a-ec34bc75e788": {
    "guid": "23f1c05d-1818-4cce-959a-ec34bc75e788",
    "playRate": 1.0,
    "gameTrigger": "Dialog",
    "gameTriggerArgs": 140330610,
    "personalConfig": 2,
    "parentID": "545ec27d-80c8-403f-bbf4-e6d4736e3c14",
    "sourceNames": [
      {
        "sourceFileName": "VO_LQ\\VO_clorinde\\vo_CLLQ003_3_clorinde_07.wem",
        "rate": 1.0,
        "avatarName": "",
        "emotion": ""
      }
    ]
  },
  "25ae53f1-7669-4fab-b972-914d9c221b4a": {
    "guid": "25ae53f1-7669-4fab-b972-914d9c221b4a",
    "playRate": 1.0,
    "gameTrigger": "Dialog",
    "gameTriggerArgs": 140330602,
    "personalConfig": 2,
    "parentID": "545ec27d-80c8-403f-bbf4-e6d4736e3c14",
    "sourceNames": [
      {
        "sourceFileName": "VO_LQ\\VO_clorinde\\vo_CLLQ003_3_clorinde_02.wem",
        "rate": 1.0,
        "avatarName": "",
        "emotion": ""
      }
    ]
  },
  "656607a9-212a-443b-9b29-38d17a07e0c7": {
    "guid": "656607a9-212a-443b-9b29-38d17a07e0c7",
    "playRate": 1.0,
    "gameTrigger": "Dialog",
    "gameTriggerArgs": 140330608,
    "personalConfig": 2,
    "parentID": "545ec27d-80c8-403f-bbf4-e6d4736e3c14",
    "sourceNames": [
      {
        "sourceFileName": "VO_LQ\\VO_clorinde\\vo_CLLQ003_3_clorinde_05.wem",
        "rate": 1.0,
        "avatarName": "",
        "emotion": ""
      }
    ]
  },
  "67c3354d-c2fa-4864-9cb3-4d5ec6109641": {
    "guid": "67c3354d-c2fa-4864-9cb3-4d5ec6109641",
    "playRate": 1.0,
    "gameTrigger": "Dialog",
    "gameTriggerArgs": 140330612,
    "personalConfig": 2,
    "parentID": "545ec27d-80c8-403f-bbf4-e6d4736e3c14",
    "sourceNames": [
      {
        "sourceFileName": "VO_LQ\\VO_clorinde\\vo_CLLQ003_3_clorinde_08.wem",
        "rate": 1.0,
        "avatarName": "",
        "emotion": ""
      }
    ]
  },
  "b76e9d2c-1370-4a77-bf62-771d3304d240": {
    "guid": "b76e9d2c-1370-4a77-bf62-771d3304d240",
    "playRate": 1.0,
    "gameTrigger": "Dialog",
    "gameTriggerArgs": 140330601,
    "personalConfig": 2,
    "parentID": "545ec27d-80c8-403f-bbf4-e6d4736e3c14",
    "sourceNames": [
      {
        "sourceFileName": "VO_LQ\\VO_clorinde\\vo_CLLQ003_3_clorinde_01.wem",
        "rate": 1.0,
        "avatarName": "",
        "emotion": ""
      }
    ]
  },
  "bb7b1bb0-ca02-494e-b406-a807a5b7c723": {
    "guid": "bb7b1bb0-ca02-494e-b406-a807a5b7c723",
    "playRate": 1.0,
    "gameTrigger": "Dialog",
    "gameTriggerArgs": 140330603,
    "personalConfig": 2,
    "parentID": "545ec27d-80c8-403f-bbf4-e6d4736e3c14",
    "sourceNames": [
      {
        "sourceFileName": "VO_LQ\\VO_clorinde\\vo_CLLQ003_3_clorinde_03.wem",
        "rate": 1.0,
        "avatarName": "",
        "emotion": ""
      }
    ]
  },
  "da43afd6-ca93-47cc-b5f3-c1891fe7c2ef": {
    "guid": "da43afd6-ca93-47cc-b5f3-c1891fe7c2ef",
    "playRate": 1.0,
    "gameTrigger": "Dialog",
    "gameTriggerArgs": 140330605,
    "personalConfig": 2,
    "KOLLNAMPBNN": 1,
    "parentID": "545ec27d-80c8-403f-bbf4-e6d4736e3c14",
    "sourceNames": [
      {
        "sourceFileName": "VO_LQ\\VO_furina\\vo_CLLQ003_3_furina_01.wem",
        "rate": 1.0,
        "avatarName": "",
        "emotion": ""
      }
    ]
  },
  "e11762ea-ce9a-42ac-9365-95243195d8ae": {
    "guid": "e11762ea-ce9a-42ac-9365-95243195d8ae",
    "playRate": 1.0,
    "gameTrigger": "Dialog",
    "gameTriggerArgs": 140330611,
    "personalConfig": 2,
    "parentID": "545ec27d-80c8-403f-bbf4-e6d4736e3c14",
    "sourceNames": [
      {
        "sourceFileName": "VO_LQ\\VO_navia\\vo_CLLQ003_3_navia_01.wem",
        "rate": 1.0,
        "avatarName": "",
        "emotion": ""
      }
    ]
  },
  "e993f2e6-7d73-44ee-85d1-397277a97b5f": {
    "guid": "e993f2e6-7d73-44ee-85d1-397277a97b5f",
    "playRate": 1.0,
    "gameTrigger": "Dialog",
    "gameTriggerArgs": 140330609,
    "personalConfig": 2,
    "parentID": "545ec27d-80c8-403f-bbf4-e6d4736e3c14",
    "sourceNames": [
      {
        "sourceFileName": "VO_LQ\\VO_clorinde\\vo_CLLQ003_3_clorinde_06.wem",
        "rate": 1.0,
        "avatarName": "",
        "emotion": ""
      }
    ]
  },
  "eaba855f-9a98-4df7-bc49-0d29b6b7fe28": {
    "guid": "eaba855f-9a98-4df7-bc49-0d29b6b7fe28",
    "playRate": 1.0,
    "gameTrigger": "Dialog",
    "gameTriggerArgs": 140330606,
    "personalConfig": 2,
    "parentID": "545ec27d-80c8-403f-bbf4-e6d4736e3c14",
    "sourceNames": [
      {
        "sourceFileName": "VO_LQ\\VO_lyney\\vo_CLLQ003_3_lyney_01.wem",
        "rate": 1.0,
        "avatarName": "",
        "emotion": ""
      }
    ]
  }
}