{
  "38bad8e6-3b19-442e-bc95-b2c3a08f91f7": {
    "guid": "38bad8e6-3b19-442e-bc95-b2c3a08f91f7",
    "playRate": 1.0,
    "gameTrigger": "Dialog",
    "gameTriggerArgs": 140331103,
    "personalConfig": 2,
    "parentID": "334fe6a3-5af1-46f6-99e8-4f489564583d",
    "sourceNames": [
      {
        "sourceFileName": "VO_LQ\\VO_clorinde\\vo_CLLQ003_10_clorinde_01.wem",
        "rate": 1.0,
        "avatarName": "",
        "emotion": ""
      }
    ]
  },
  "3cea2372-decf-4bca-ad65-2f8c337a91c9": {
    "guid": "3cea2372-decf-4bca-ad65-2f8c337a91c9",
    "playRate": 1.0,
    "gameTrigger": "Dialog",
    "gameTriggerArgs": 140331108,
    "personalConfig": 2,
    "parentID": "334fe6a3-5af1-46f6-99e8-4f489564583d",
    "sourceNames": [
      {
        "sourceFileName": "VO_LQ\\VO_clorinde\\vo_CLLQ003_10_clorinde_04.wem",
        "rate": 1.0,
        "avatarName": "",
        "emotion": ""
      }
    ]
  },
  "417c114b-6f56-408d-ba50-45ab89fc40bc": {
    "guid": "417c114b-6f56-408d-ba50-45ab89fc40bc",
    "playRate": 1.0,
    "gameTrigger": "Dialog",
    "gameTriggerArgs": 140331106,
    "personalConfig": 2,
    "parentID": "334fe6a3-5af1-46f6-99e8-4f489564583d",
    "sourceNames": [
      {
        "sourceFileName": "VO_LQ\\VO_navia\\vo_CLLQ003_10_navia_02.wem",
        "rate": 1.0,
        "avatarName": "",
        "emotion": ""
      }
    ]
  },
  "562e47fd-47d3-442a-9354-adc55c999e20": {
    "guid": "562e47fd-47d3-442a-9354-adc55c999e20",
    "playRate": 1.0,
    "gameTrigger": "Dialog",
    "gameTriggerArgs": 140331111,
    "personalConfig": 2,
    "parentID": "334fe6a3-5af1-46f6-99e8-4f489564583d",
    "sourceNames": [
      {
        "sourceFileName": "VO_LQ\\VO_navia\\vo_CLLQ003_10_navia_03.wem",
        "rate": 1.0,
        "avatarName": "",
        "emotion": ""
      }
    ]
  },
  "6180082f-0304-4f60-9e00-d0e221ab72a4": {
    "guid": "6180082f-0304-4f60-9e00-d0e221ab72a4",
    "playRate": 1.0,
    "gameTrigger": "Dialog",
    "gameTriggerArgs": 140331109,
    "personalConfig": 2,
    "parentID": "334fe6a3-5af1-46f6-99e8-4f489564583d",
    "sourceNames": [
      {
        "sourceFileName": "VO_LQ\\VO_paimon\\vo_CLLQ003_10_paimon_02.wem",
        "rate": 1.0,
        "avatarName": "",
        "emotion": ""
      }
    ]
  },
  "68c4f236-0f17-4db6-872c-8cd47ebc16da": {
    "guid": "68c4f236-0f17-4db6-872c-8cd47ebc16da",
    "playRate": 1.0,
    "gameTrigger": "Dialog",
    "gameTriggerArgs": 140331102,
    "personalConfig": 2,
    "parentID": "334fe6a3-5af1-46f6-99e8-4f489564583d",
    "sourceNames": [
      {
        "sourceFileName": "VO_LQ\\VO_furina\\vo_CLLQ003_10_furina_01.wem",
        "rate": 1.0,
        "avatarName": "",
        "emotion": ""
      }
    ]
  },
  "6c1e0d3a-3110-42c4-903a-37d62fc0f222": {
    "guid": "6c1e0d3a-3110-42c4-903a-37d62fc0f222",
    "playRate": 1.0,
    "gameTrigger": "Dialog",
    "gameTriggerArgs": 140331113,
    "personalConfig": 2,
    "parentID": "334fe6a3-5af1-46f6-99e8-4f489564583d",
    "sourceNames": [
      {
        "sourceFileName": "VO_LQ\\VO_clorinde\\vo_CLLQ003_10_clorinde_05.wem",
        "rate": 1.0,
        "avatarName": "",
        "emotion": ""
      }
    ]
  },
  "6f237c92-654e-41a2-9878-80a74551c08a": {
    "guid": "6f237c92-654e-41a2-9878-80a74551c08a",
    "playRate": 1.0,
    "gameTrigger": "Dialog",
    "gameTriggerArgs": 140331107,
    "personalConfig": 2,
    "parentID": "334fe6a3-5af1-46f6-99e8-4f489564583d",
    "sourceNames": [
      {
        "sourceFileName": "VO_LQ\\VO_clorinde\\vo_CLLQ003_10_clorinde_03.wem",
        "rate": 1.0,
        "avatarName": "",
        "emotion": ""
      }
    ]
  },
  "6fa7144d-d170-44ed-8906-2dca53c21309": {
    "guid": "6fa7144d-d170-44ed-8906-2dca53c21309",
    "playRate": 1.0,
    "gameTrigger": "Dialog",
    "gameTriggerArgs": 140331115,
    "personalConfig": 2,
    "KOLLNAMPBNN": 1,
    "parentID": "334fe6a3-5af1-46f6-99e8-4f489564583d",
    "sourceNames": [
      {
        "sourceFileName": "VO_LQ\\VO_clorinde\\vo_CLLQ003_10_clorinde_07.wem",
        "rate": 1.0,
        "avatarName": "",
        "emotion": ""
      }
    ]
  },
  "75340a63-f64e-4f38-a24b-b97d81782157": {
    "guid": "75340a63-f64e-4f38-a24b-b97d81782157",
    "playRate": 1.0,
    "gameTrigger": "Dialog",
    "gameTriggerArgs": 140331104,
    "personalConfig": 2,
    "parentID": "334fe6a3-5af1-46f6-99e8-4f489564583d",
    "sourceNames": [
      {
        "sourceFileName": "VO_LQ\\VO_navia\\vo_CLLQ003_10_navia_01.wem",
        "rate": 1.0,
        "avatarName": "",
        "emotion": ""
      }
    ]
  },
  "81714385-0b73-4519-b3e7-35d413188ff6": {
    "guid": "81714385-0b73-4519-b3e7-35d413188ff6",
    "playRate": 1.0,
    "gameTrigger": "Dialog",
    "gameTriggerArgs": 140331112,
    "personalConfig": 2,
    "parentID": "334fe6a3-5af1-46f6-99e8-4f489564583d",
    "sourceNames": [
      {
        "sourceFileName": "VO_LQ\\VO_navia\\vo_CLLQ003_10_navia_04.wem",
        "rate": 1.0,
        "avatarName": "",
        "emotion": ""
      }
    ]
  },
  "b977947e-6fd5-424d-ab00-0f3c10ff0dbe": {
    "guid": "b977947e-6fd5-424d-ab00-0f3c10ff0dbe",
    "playRate": 1.0,
    "gameTrigger": "Dialog",
    "gameTriggerArgs": 140331101,
    "personalConfig": 2,
    "parentID": "334fe6a3-5af1-46f6-99e8-4f489564583d",
    "sourceNames": [
      {
        "sourceFileName": "VO_LQ\\VO_paimon\\vo_CLLQ003_10_paimon_01.wem",
        "rate": 1.0,
        "avatarName": "",
        "emotion": ""
      }
    ]
  },
  "bf915a79-7ebd-4ecc-85d7-cd641b09ac1d": {
    "guid": "bf915a79-7ebd-4ecc-85d7-cd641b09ac1d",
    "playRate": 1.0,
    "gameTrigger": "Dialog",
    "gameTriggerArgs": 140331110,
    "personalConfig": 2,
    "parentID": "334fe6a3-5af1-46f6-99e8-4f489564583d",
    "sourceNames": [
      {
        "sourceFileName": "VO_LQ\\VO_lyney\\vo_CLLQ003_10_lyney_01.wem",
        "rate": 1.0,
        "avatarName": "",
        "emotion": ""
      }
    ]
  },
  "e52e08a9-dc14-499b-85d3-b71110a7a3d1": {
    "guid": "e52e08a9-dc14-499b-85d3-b71110a7a3d1",
    "playRate": 1.0,
    "gameTrigger": "Dialog",
    "gameTriggerArgs": 140331114,
    "personalConfig": 2,
    "parentID": "334fe6a3-5af1-46f6-99e8-4f489564583d",
    "sourceNames": [
      {
        "sourceFileName": "VO_LQ\\VO_clorinde\\vo_CLLQ003_10_clorinde_06.wem",
        "rate": 1.0,
        "avatarName": "",
        "emotion": ""
      }
    ]
  },
  "ebb4a7b1-ace2-47c4-9299-4d4786f65d81": {
    "guid": "ebb4a7b1-ace2-47c4-9299-4d4786f65d81",
    "playRate": 1.0,
    "gameTrigger": "Dialog",
    "gameTriggerArgs": 140331105,
    "personalConfig": 2,
    "KOLLNAMPBNN": 1,
    "parentID": "334fe6a3-5af1-46f6-99e8-4f489564583d",
    "sourceNames": [
      {
        "sourceFileName": "VO_LQ\\VO_clorinde\\vo_CLLQ003_10_clorinde_02.wem",
        "rate": 1.0,
        "avatarName": "",
        "emotion": ""
      }
    ]
  }
}