{
  "09898d82-422b-45f7-bf1a-fc1499f51c80": {
    "guid": "09898d82-422b-45f7-bf1a-fc1499f51c80",
    "playRate": 1.0,
    "gameTrigger": "Dialog",
    "gameTriggerArgs": 191539907,
    "personalConfig": 2,
    "DDNLACJICEC": 1,
    "parentID": "dfec4ab7-883e-42ae-960c-5bf9e8b9be67",
    "sourceNames": [
      {
        "sourceFileName": "VO_COOP\\VO_layla\\vo_LYLCOP001_1915302_layla_14.wem",
        "rate": 1.0,
        "avatarName": "",
        "emotion": ""
      }
    ]
  },
  "517d067d-7d19-473a-bedb-15b833727fe9": {
    "guid": "517d067d-7d19-473a-bedb-15b833727fe9",
    "playRate": 1.0,
    "gameTrigger": "Dialog",
    "gameTriggerArgs": 191539901,
    "personalConfig": 2,
    "DDNLACJICEC": 1,
    "isPlayOnTeam": true,
    "parentID": "dfec4ab7-883e-42ae-960c-5bf9e8b9be67",
    "sourceNames": [
      {
        "sourceFileName": "VO_COOP\\VO_layla\\vo_LYLCOP001_1915302_layla_01.wem",
        "rate": 1.0,
        "avatarName": "",
        "emotion": ""
      }
    ]
  },
  "60829f92-3a1c-424c-ada6-401d3b092180": {
    "guid": "60829f92-3a1c-424c-ada6-401d3b092180",
    "playRate": 1.0,
    "gameTrigger": "Dialog",
    "gameTriggerArgs": 191530808,
    "personalConfig": 2,
    "DDNLACJICEC": 1,
    "parentID": "dfec4ab7-883e-42ae-960c-5bf9e8b9be67",
    "sourceNames": [
      {
        "sourceFileName": "VO_COOP\\VO_layla\\vo_LYLCOP001_1915302_layla_08.wem",
        "rate": 1.0,
        "avatarName": "",
        "emotion": ""
      }
    ]
  },
  "650a9648-4e20-48c4-a6ce-bc662d7a4c67": {
    "guid": "650a9648-4e20-48c4-a6ce-bc662d7a4c67",
    "playRate": 1.0,
    "gameTrigger": "Dialog",
    "gameTriggerArgs": 191539902,
    "personalConfig": 2,
    "DDNLACJICEC": 1,
    "parentID": "dfec4ab7-883e-42ae-960c-5bf9e8b9be67",
    "sourceNames": [
      {
        "sourceFileName": "VO_COOP\\VO_layla\\vo_LYLCOP001_1915302_layla_09.wem",
        "rate": 1.0,
        "avatarName": "",
        "emotion": ""
      }
    ]
  },
  "6c64ea9a-bf9c-45b5-8c00-e1940fe054c1": {
    "guid": "6c64ea9a-bf9c-45b5-8c00-e1940fe054c1",
    "playRate": 1.0,
    "gameTrigger": "Dialog",
    "gameTriggerArgs": 191539903,
    "personalConfig": 2,
    "DDNLACJICEC": 1,
    "parentID": "dfec4ab7-883e-42ae-960c-5bf9e8b9be67",
    "sourceNames": [
      {
        "sourceFileName": "VO_COOP\\VO_layla\\vo_LYLCOP001_1915302_layla_10.wem",
        "rate": 1.0,
        "avatarName": "",
        "emotion": ""
      }
    ]
  },
  "72785160-bcbe-4286-b686-299b3aeb23b1": {
    "guid": "72785160-bcbe-4286-b686-299b3aeb23b1",
    "playRate": 1.0,
    "gameTrigger": "Dialog",
    "gameTriggerArgs": 191530801,
    "personalConfig": 2,
    "parentID": "dfec4ab7-883e-42ae-960c-5bf9e8b9be67",
    "sourceNames": [
      {
        "sourceFileName": "VO_COOP\\VO_layla\\vo_LYLCOP001_1915302_layla_02.wem",
        "rate": 1.0,
        "avatarName": "",
        "emotion": ""
      }
    ]
  },
  "766ed527-ce77-4960-86f9-fe1a00c4e1cb": {
    "guid": "766ed527-ce77-4960-86f9-fe1a00c4e1cb",
    "playRate": 1.0,
    "gameTrigger": "Dialog",
    "gameTriggerArgs": 191530802,
    "personalConfig": 2,
    "parentID": "dfec4ab7-883e-42ae-960c-5bf9e8b9be67",
    "sourceNames": [
      {
        "sourceFileName": "VO_COOP\\VO_layla\\vo_LYLCOP001_1915302_layla_03.wem",
        "rate": 1.0,
        "avatarName": "",
        "emotion": ""
      }
    ]
  },
  "82d585ed-e665-47d0-b25a-65dc77b3a3bb": {
    "guid": "82d585ed-e665-47d0-b25a-65dc77b3a3bb",
    "playRate": 1.0,
    "gameTrigger": "Dialog",
    "gameTriggerArgs": 191530806,
    "personalConfig": 2,
    "DDNLACJICEC": 1,
    "parentID": "dfec4ab7-883e-42ae-960c-5bf9e8b9be67",
    "sourceNames": [
      {
        "sourceFileName": "VO_COOP\\VO_layla\\vo_LYLCOP001_1915302_layla_06.wem",
        "rate": 1.0,
        "avatarName": "",
        "emotion": ""
      }
    ]
  },
  "9925e8fb-8a36-40a4-b407-3a8a3145b57a": {
    "guid": "9925e8fb-8a36-40a4-b407-3a8a3145b57a",
    "playRate": 1.0,
    "gameTrigger": "Dialog",
    "gameTriggerArgs": 191539905,
    "personalConfig": 2,
    "DDNLACJICEC": 1,
    "parentID": "dfec4ab7-883e-42ae-960c-5bf9e8b9be67",
    "sourceNames": [
      {
        "sourceFileName": "VO_COOP\\VO_layla\\vo_LYLCOP001_1915302_layla_12.wem",
        "rate": 1.0,
        "avatarName": "",
        "emotion": ""
      }
    ]
  },
  "9e00ba42-519a-40a3-aebd-7ced3bc4dbf3": {
    "guid": "9e00ba42-519a-40a3-aebd-7ced3bc4dbf3",
    "playRate": 1.0,
    "gameTrigger": "Dialog",
    "gameTriggerArgs": 191530804,
    "personalConfig": 2,
    "parentID": "dfec4ab7-883e-42ae-960c-5bf9e8b9be67",
    "sourceNames": [
      {
        "sourceFileName": "VO_COOP\\VO_layla\\vo_LYLCOP001_1915302_layla_04.wem",
        "rate": 1.0,
        "avatarName": "",
        "emotion": ""
      }
    ]
  },
  "a13d82e3-f0aa-46c5-b483-171f4b0456c5": {
    "guid": "a13d82e3-f0aa-46c5-b483-171f4b0456c5",
    "playRate": 1.0,
    "gameTrigger": "Dialog",
    "gameTriggerArgs": 191530807,
    "personalConfig": 2,
    "DDNLACJICEC": 1,
    "parentID": "dfec4ab7-883e-42ae-960c-5bf9e8b9be67",
    "sourceNames": [
      {
        "sourceFileName": "VO_COOP\\VO_layla\\vo_LYLCOP001_1915302_layla_07.wem",
        "rate": 1.0,
        "avatarName": "",
        "emotion": ""
      }
    ]
  },
  "b0142a70-6d48-4f28-8536-9b8642b486cb": {
    "guid": "b0142a70-6d48-4f28-8536-9b8642b486cb",
    "playRate": 1.0,
    "gameTrigger": "Dialog",
    "gameTriggerArgs": 191539908,
    "personalConfig": 2,
    "DDNLACJICEC": 1,
    "parentID": "dfec4ab7-883e-42ae-960c-5bf9e8b9be67",
    "sourceNames": [
      {
        "sourceFileName": "VO_COOP\\VO_layla\\vo_LYLCOP001_1915302_layla_15.wem",
        "rate": 1.0,
        "avatarName": "",
        "emotion": ""
      }
    ]
  },
  "e8c9127f-1d46-4353-a00e-458df7291ef2": {
    "guid": "e8c9127f-1d46-4353-a00e-458df7291ef2",
    "playRate": 1.0,
    "gameTrigger": "Dialog",
    "gameTriggerArgs": 191530805,
    "personalConfig": 2,
    "DDNLACJICEC": 1,
    "parentID": "dfec4ab7-883e-42ae-960c-5bf9e8b9be67",
    "sourceNames": [
      {
        "sourceFileName": "VO_COOP\\VO_layla\\vo_LYLCOP001_1915302_layla_05.wem",
        "rate": 1.0,
        "avatarName": "",
        "emotion": ""
      }
    ]
  },
  "f6afaf28-679a-4208-bac4-c4b277557fff": {
    "guid": "f6afaf28-679a-4208-bac4-c4b277557fff",
    "playRate": 1.0,
    "gameTrigger": "Dialog",
    "gameTriggerArgs": 191539904,
    "personalConfig": 2,
    "DDNLACJICEC": 1,
    "parentID": "dfec4ab7-883e-42ae-960c-5bf9e8b9be67",
    "sourceNames": [
      {
        "sourceFileName": "VO_COOP\\VO_layla\\vo_LYLCOP001_1915302_layla_11.wem",
        "rate": 1.0,
        "avatarName": "",
        "emotion": ""
      }
    ]
  },
  "f9a66d03-a29a-4a51-bd60-f11ef699ee85": {
    "guid": "f9a66d03-a29a-4a51-bd60-f11ef699ee85",
    "playRate": 1.0,
    "gameTrigger": "Dialog",
    "gameTriggerArgs": 191539906,
    "personalConfig": 2,
    "DDNLACJICEC": 1,
    "parentID": "dfec4ab7-883e-42ae-960c-5bf9e8b9be67",
    "sourceNames": [
      {
        "sourceFileName": "VO_COOP\\VO_layla\\vo_LYLCOP001_1915302_layla_13.wem",
        "rate": 1.0,
        "avatarName": "",
        "emotion": ""
      }
    ]
  }
}