{
  "11712023-6aa3-4774-80fe-ae4c9506f56a": {
    "guid": "11712023-6aa3-4774-80fe-ae4c9506f56a",
    "playRate": 1.0,
    "gameTrigger": "Dialog",
    "gameTriggerArgs": 40100309,
    "personalConfig": 2,
    "parentID": "c66e9c17-cf18-4377-a649-b9dd18b4f68e",
    "sourceNames": [
      {
        "sourceFileName": "VO_AQ\\VO_wriothesley\\vo_FDAQ108_9_wriothesley_04.wem",
        "rate": 1.0,
        "avatarName": "",
        "emotion": ""
      }
    ]
  },
  "2a64cb68-6d01-4ac0-85d0-afbfb2edbcde": {
    "guid": "2a64cb68-6d01-4ac0-85d0-afbfb2edbcde",
    "playRate": 1.0,
    "gameTrigger": "Dialog",
    "gameTriggerArgs": 40100305,
    "personalConfig": 2,
    "parentID": "c66e9c17-cf18-4377-a649-b9dd18b4f68e",
    "sourceNames": [
      {
        "sourceFileName": "VO_AQ\\VO_clorinde\\vo_FDAQ108_9_clorinde_02.wem",
        "rate": 1.0,
        "avatarName": "",
        "emotion": ""
      }
    ]
  },
  "38344f20-f574-4d87-9d98-19ceb8e8b0aa": {
    "guid": "38344f20-f574-4d87-9d98-19ceb8e8b0aa",
    "playRate": 1.0,
    "gameTrigger": "Dialog",
    "gameTriggerArgs": 40100308,
    "personalConfig": 2,
    "parentID": "c66e9c17-cf18-4377-a649-b9dd18b4f68e",
    "sourceNames": [
      {
        "sourceFileName": "VO_AQ\\VO_clorinde\\vo_FDAQ108_9_clorinde_03.wem",
        "rate": 1.0,
        "avatarName": "",
        "emotion": ""
      }
    ]
  },
  "4569ab78-48b9-49b5-9588-c604c699c26f": {
    "guid": "4569ab78-48b9-49b5-9588-c604c699c26f",
    "playRate": 1.0,
    "gameTrigger": "Dialog",
    "gameTriggerArgs": 40100304,
    "personalConfig": 2,
    "parentID": "c66e9c17-cf18-4377-a649-b9dd18b4f68e",
    "sourceNames": [
      {
        "sourceFileName": "VO_AQ\\VO_wriothesley\\vo_FDAQ108_9_wriothesley_02.wem",
        "rate": 1.0,
        "avatarName": "",
        "emotion": ""
      }
    ]
  },
  "46abd093-1438-419d-b4ef-d1428293dc81": {
    "guid": "46abd093-1438-419d-b4ef-d1428293dc81",
    "playRate": 1.0,
    "gameTrigger": "Dialog",
    "gameTriggerArgs": 40100312,
    "personalConfig": 2,
    "parentID": "c66e9c17-cf18-4377-a649-b9dd18b4f68e",
    "sourceNames": [
      {
        "sourceFileName": "VO_AQ\\VO_wriothesley\\vo_FDAQ108_9_wriothesley_05.wem",
        "rate": 1.0,
        "avatarName": "",
        "emotion": ""
      }
    ]
  },
  "490c0484-7b8a-4004-9895-4075fd765803": {
    "guid": "490c0484-7b8a-4004-9895-4075fd765803",
    "playRate": 1.0,
    "gameTrigger": "Dialog",
    "gameTriggerArgs": 40100303,
    "personalConfig": 2,
    "parentID": "c66e9c17-cf18-4377-a649-b9dd18b4f68e",
    "sourceNames": [
      {
        "sourceFileName": "VO_AQ\\VO_neuvillette\\vo_FDAQ108_9_neuvillette_01.wem",
        "rate": 1.0,
        "avatarName": "",
        "emotion": ""
      }
    ]
  },
  "521a66da-2877-4f8d-9c06-66ab7555cf1f": {
    "guid": "521a66da-2877-4f8d-9c06-66ab7555cf1f",
    "playRate": 1.0,
    "gameTrigger": "Dialog",
    "gameTriggerArgs": 40100301,
    "personalConfig": 2,
    "parentID": "c66e9c17-cf18-4377-a649-b9dd18b4f68e",
    "sourceNames": [
      {
        "sourceFileName": "VO_AQ\\VO_clorinde\\vo_FDAQ108_9_clorinde_01.wem",
        "rate": 1.0,
        "avatarName": "",
        "emotion": ""
      }
    ]
  },
  "52754659-bcc7-46a2-aba6-f3a95a479690": {
    "guid": "52754659-bcc7-46a2-aba6-f3a95a479690",
    "playRate": 1.0,
    "gameTrigger": "Dialog",
    "gameTriggerArgs": 40100315,
    "personalConfig": 2,
    "parentID": "c66e9c17-cf18-4377-a649-b9dd18b4f68e",
    "sourceNames": [
      {
        "sourceFileName": "VO_AQ\\VO_wriothesley\\vo_FDAQ108_9_wriothesley_06.wem",
        "rate": 1.0,
        "avatarName": "",
        "emotion": ""
      }
    ]
  },
  "6f58733e-1b99-44a8-8933-75704ac68624": {
    "guid": "6f58733e-1b99-44a8-8933-75704ac68624",
    "playRate": 1.0,
    "gameTrigger": "Dialog",
    "gameTriggerArgs": 40100317,
    "personalConfig": 2,
    "parentID": "c66e9c17-cf18-4377-a649-b9dd18b4f68e",
    "sourceNames": [
      {
        "sourceFileName": "VO_AQ\\VO_clorinde\\vo_FDAQ108_9_clorinde_06.wem",
        "rate": 1.0,
        "avatarName": "",
        "emotion": ""
      }
    ]
  },
  "813046e2-1c4d-4aa2-8aa6-42474f3c86ba": {
    "guid": "813046e2-1c4d-4aa2-8aa6-42474f3c86ba",
    "playRate": 1.0,
    "gameTrigger": "Dialog",
    "gameTriggerArgs": 40100307,
    "personalConfig": 2,
    "parentID": "c66e9c17-cf18-4377-a649-b9dd18b4f68e",
    "sourceNames": [
      {
        "sourceFileName": "VO_AQ\\VO_wriothesley\\vo_FDAQ108_9_wriothesley_03.wem",
        "rate": 1.0,
        "avatarName": "",
        "emotion": ""
      }
    ]
  },
  "8732cf94-9dff-4b3a-a79b-53ee9007f7cf": {
    "guid": "8732cf94-9dff-4b3a-a79b-53ee9007f7cf",
    "playRate": 1.0,
    "gameTrigger": "Dialog",
    "gameTriggerArgs": 40100310,
    "personalConfig": 2,
    "parentID": "c66e9c17-cf18-4377-a649-b9dd18b4f68e",
    "sourceNames": [
      {
        "sourceFileName": "VO_AQ\\VO_neuvillette\\vo_FDAQ108_9_neuvillette_03.wem",
        "rate": 1.0,
        "avatarName": "",
        "emotion": ""
      }
    ]
  },
  "a7e9c1ce-2506-4953-9972-a623dd69cc97": {
    "guid": "a7e9c1ce-2506-4953-9972-a623dd69cc97",
    "playRate": 1.0,
    "gameTrigger": "Dialog",
    "gameTriggerArgs": 40100316,
    "personalConfig": 2,
    "parentID": "c66e9c17-cf18-4377-a649-b9dd18b4f68e",
    "sourceNames": [
      {
        "sourceFileName": "VO_AQ\\VO_wriothesley\\vo_FDAQ108_9_wriothesley_07.wem",
        "rate": 1.0,
        "avatarName": "",
        "emotion": ""
      }
    ]
  },
  "ab9e52f3-7c7e-4952-9099-b76ac39c8c95": {
    "guid": "ab9e52f3-7c7e-4952-9099-b76ac39c8c95",
    "playRate": 1.0,
    "gameTrigger": "Dialog",
    "gameTriggerArgs": 40100302,
    "personalConfig": 2,
    "parentID": "c66e9c17-cf18-4377-a649-b9dd18b4f68e",
    "sourceNames": [
      {
        "sourceFileName": "VO_AQ\\VO_wriothesley\\vo_FDAQ108_9_wriothesley_01.wem",
        "rate": 1.0,
        "avatarName": "",
        "emotion": ""
      }
    ]
  },
  "c0d16104-d52d-4941-a6eb-9273cfe365dd": {
    "guid": "c0d16104-d52d-4941-a6eb-9273cfe365dd",
    "playRate": 1.0,
    "gameTrigger": "Dialog",
    "gameTriggerArgs": 40100306,
    "personalConfig": 2,
    "parentID": "c66e9c17-cf18-4377-a649-b9dd18b4f68e",
    "sourceNames": [
      {
        "sourceFileName": "VO_AQ\\VO_neuvillette\\vo_FDAQ108_9_neuvillette_02.wem",
        "rate": 1.0,
        "avatarName": "",
        "emotion": ""
      }
    ]
  },
  "d6c469f2-34d8-412b-bafd-33f0e0d2e918": {
    "guid": "d6c469f2-34d8-412b-bafd-33f0e0d2e918",
    "playRate": 1.0,
    "gameTrigger": "Dialog",
    "gameTriggerArgs": 40100318,
    "personalConfig": 2,
    "parentID": "c66e9c17-cf18-4377-a649-b9dd18b4f68e",
    "sourceNames": [
      {
        "sourceFileName": "VO_AQ\\VO_neuvillette\\vo_FDAQ108_9_neuvillette_05.wem",
        "rate": 1.0,
        "avatarName": "",
        "emotion": ""
      }
    ]
  },
  "dc83f782-3ee5-419e-a39c-156430b294c2": {
    "guid": "dc83f782-3ee5-419e-a39c-156430b294c2",
    "playRate": 1.0,
    "gameTrigger": "Dialog",
    "gameTriggerArgs": 40100314,
    "personalConfig": 2,
    "parentID": "c66e9c17-cf18-4377-a649-b9dd18b4f68e",
    "sourceNames": [
      {
        "sourceFileName": "VO_AQ\\VO_neuvillette\\vo_FDAQ108_9_neuvillette_04.wem",
        "rate": 1.0,
        "avatarName": "",
        "emotion": ""
      }
    ]
  },
  "e16299b2-270e-4144-ae8f-315d52d5baec": {
    "guid": "e16299b2-270e-4144-ae8f-315d52d5baec",
    "playRate": 1.0,
    "gameTrigger": "Dialog",
    "gameTriggerArgs": 40100311,
    "personalConfig": 2,
    "parentID": "c66e9c17-cf18-4377-a649-b9dd18b4f68e",
    "sourceNames": [
      {
        "sourceFileName": "VO_AQ\\VO_clorinde\\vo_FDAQ108_9_clorinde_04.wem",
        "rate": 1.0,
        "avatarName": "",
        "emotion": ""
      }
    ]
  },
  "e1e5305e-62d0-4eca-87b6-05b00c6dd90c": {
    "guid": "e1e5305e-62d0-4eca-87b6-05b00c6dd90c",
    "playRate": 1.0,
    "gameTrigger": "Dialog",
    "gameTriggerArgs": 40100313,
    "personalConfig": 2,
    "parentID": "c66e9c17-cf18-4377-a649-b9dd18b4f68e",
    "sourceNames": [
      {
        "sourceFileName": "VO_AQ\\VO_clorinde\\vo_FDAQ108_9_clorinde_05.wem",
        "rate": 1.0,
        "avatarName": "",
        "emotion": ""
      }
    ]
  },
  "e92e3d6e-3f0b-447d-9137-2d5b2b491acc": {
    "guid": "e92e3d6e-3f0b-447d-9137-2d5b2b491acc",
    "playRate": 1.0,
    "gameTrigger": "Dialog",
    "gameTriggerArgs": 40100319,
    "personalConfig": 2,
    "DDNLACJICEC": 1,
    "parentID": "c66e9c17-cf18-4377-a649-b9dd18b4f68e",
    "sourceNames": [
      {
        "sourceFileName": "VO_AQ\\VO_neuvillette\\vo_FDAQ108_9_neuvillette_06.wem",
        "rate": 1.0,
        "avatarName": "",
        "emotion": ""
      }
    ]
  }
}