{
  "1d4372f1-734e-4586-ab0d-3abe6bbc2e45": {
    "guid": "1d4372f1-734e-4586-ab0d-3abe6bbc2e45",
    "playRate": 1.0,
    "gameTrigger": "Dialog",
    "gameTriggerArgs": 693750303,
    "parentID": "0b8b852a-1c9c-415d-92dc-9707bf712be1",
    "sourceNames": [
      {
        "sourceFileName": "VO_Tower\\vo_navia_saferoom_others_03.wem",
        "rate": 1.0,
        "avatarName": "",
        "emotion": ""
      }
    ]
  },
  "34d60d1d-76df-4506-8501-1b4cc2d1f6d1": {
    "guid": "34d60d1d-76df-4506-8501-1b4cc2d1f6d1",
    "playRate": 1.0,
    "gameTrigger": "Dialog",
    "gameTriggerArgs": 693750101,
    "parentID": "0b8b852a-1c9c-415d-92dc-9707bf712be1",
    "sourceNames": [
      {
        "sourceFileName": "VO_Tower\\vo_navia_saferoom_rest_01.wem",
        "rate": 1.0,
        "avatarName": "",
        "emotion": ""
      }
    ]
  },
  "4493e698-4b8f-4ae9-82b5-98383fe8e267": {
    "guid": "4493e698-4b8f-4ae9-82b5-98383fe8e267",
    "playRate": 1.0,
    "gameTrigger": "Dialog",
    "gameTriggerArgs": 693750302,
    "parentID": "0b8b852a-1c9c-415d-92dc-9707bf712be1",
    "sourceNames": [
      {
        "sourceFileName": "VO_Tower\\vo_navia_saferoom_others_02.wem",
        "rate": 1.0,
        "avatarName": "",
        "emotion": ""
      }
    ]
  },
  "571c0b68-fb9f-426f-9ef8-b8fa1b96fc85": {
    "guid": "571c0b68-fb9f-426f-9ef8-b8fa1b96fc85",
    "playRate": 1.0,
    "gameTrigger": "Dialog",
    "gameTriggerArgs": 693750301,
    "parentID": "0b8b852a-1c9c-415d-92dc-9707bf712be1",
    "sourceNames": [
      {
        "sourceFileName": "VO_Tower\\vo_navia_saferoom_others_01.wem",
        "rate": 1.0,
        "avatarName": "",
        "emotion": ""
      }
    ]
  },
  "8f32e1cb-007d-4bfe-a3a1-23a5b89c2734": {
    "guid": "8f32e1cb-007d-4bfe-a3a1-23a5b89c2734",
    "playRate": 1.0,
    "gameTrigger": "Dialog",
    "gameTriggerArgs": 693750103,
    "parentID": "0b8b852a-1c9c-415d-92dc-9707bf712be1",
    "sourceNames": [
      {
        "sourceFileName": "VO_Tower\\vo_navia_saferoom_rest_03.wem",
        "rate": 1.0,
        "avatarName": "",
        "emotion": ""
      }
    ]
  },
  "96484cff-efa0-44c8-959f-c787e969bbb7": {
    "guid": "96484cff-efa0-44c8-959f-c787e969bbb7",
    "playRate": 1.0,
    "gameTrigger": "Dialog",
    "gameTriggerArgs": 693750102,
    "parentID": "0b8b852a-1c9c-415d-92dc-9707bf712be1",
    "sourceNames": [
      {
        "sourceFileName": "VO_Tower\\vo_navia_saferoom_rest_02.wem",
        "rate": 1.0,
        "avatarName": "",
        "emotion": ""
      }
    ]
  },
  "bcdffa4c-fbe5-48f0-80c9-956dfef02c35": {
    "guid": "bcdffa4c-fbe5-48f0-80c9-956dfef02c35",
    "playRate": 1.0,
    "gameTrigger": "Dialog",
    "gameTriggerArgs": 693750202,
    "parentID": "0b8b852a-1c9c-415d-92dc-9707bf712be1",
    "sourceNames": [
      {
        "sourceFileName": "VO_Tower\\vo_navia_saferoom_challenge_02.wem",
        "rate": 1.0,
        "avatarName": "",
        "emotion": ""
      }
    ]
  },
  "cb49166f-d8b1-4710-a23f-35d0e2b99de1": {
    "guid": "cb49166f-d8b1-4710-a23f-35d0e2b99de1",
    "playRate": 1.0,
    "gameTrigger": "Dialog",
    "gameTriggerArgs": 693750203,
    "parentID": "0b8b852a-1c9c-415d-92dc-9707bf712be1",
    "sourceNames": [
      {
        "sourceFileName": "VO_Tower\\vo_navia_saferoom_challenge_03.wem",
        "rate": 1.0,
        "avatarName": "",
        "emotion": ""
      }
    ]
  },
  "e0b6f4b8-888b-4715-b1f0-640b0d9acaf5": {
    "guid": "e0b6f4b8-888b-4715-b1f0-640b0d9acaf5",
    "playRate": 1.0,
    "gameTrigger": "Dialog",
    "gameTriggerArgs": 693750201,
    "parentID": "0b8b852a-1c9c-415d-92dc-9707bf712be1",
    "sourceNames": [
      {
        "sourceFileName": "VO_Tower\\vo_navia_saferoom_challenge_01.wem",
        "rate": 1.0,
        "avatarName": "",
        "emotion": ""
      }
    ]
  }
}