{
  "0e7f88c3-533a-40a5-b951-bffa3b98b91c": {
    "guid": "0e7f88c3-533a-40a5-b951-bffa3b98b91c",
    "playRate": 1.0,
    "gameTrigger": "Dialog",
    "gameTriggerArgs": 40066301,
    "personalConfig": 2,
    "parentID": "7ca7b0b6-87e5-4219-bca0-8fdaa4cf25fc",
    "sourceNames": [
      {
        "sourceFileName": "VO_AQ\\VO_furina\\vo_FDAQ003_44_furina_01.wem",
        "rate": 1.0,
        "avatarName": "",
        "emotion": ""
      }
    ]
  },
  "181c3785-96bb-4c6d-bdf9-65a962e13799": {
    "guid": "181c3785-96bb-4c6d-bdf9-65a962e13799",
    "playRate": 1.0,
    "gameTrigger": "Dialog",
    "gameTriggerArgs": 40066305,
    "personalConfig": 2,
    "parentID": "7ca7b0b6-87e5-4219-bca0-8fdaa4cf25fc",
    "sourceNames": [
      {
        "sourceFileName": "VO_AQ\\VO_furina\\vo_FDAQ003_44_furina_05.wem",
        "rate": 1.0,
        "avatarName": "",
        "emotion": ""
      }
    ]
  },
  "5af7de7a-a4f1-4238-acc8-c3857695eb1d": {
    "guid": "5af7de7a-a4f1-4238-acc8-c3857695eb1d",
    "playRate": 1.0,
    "gameTrigger": "Dialog",
    "gameTriggerArgs": 40066304,
    "personalConfig": 2,
    "parentID": "7ca7b0b6-87e5-4219-bca0-8fdaa4cf25fc",
    "sourceNames": [
      {
        "sourceFileName": "VO_AQ\\VO_furina\\vo_FDAQ003_44_furina_04.wem",
        "rate": 1.0,
        "avatarName": "",
        "emotion": ""
      }
    ]
  },
  "64002d1f-0de0-4754-903b-2b79e82a3801": {
    "guid": "64002d1f-0de0-4754-903b-2b79e82a3801",
    "playRate": 1.0,
    "gameTrigger": "Dialog",
    "gameTriggerArgs": 40066307,
    "personalConfig": 2,
    "DDNLACJICEC": 1,
    "parentID": "7ca7b0b6-87e5-4219-bca0-8fdaa4cf25fc",
    "sourceNames": [
      {
        "sourceFileName": "VO_AQ\\VO_hero\\vo_FDAQ003_44_hero_01.wem",
        "rate": 1.0,
        "avatarName": "Switch_hero",
        "emotion": "",
        "gender": 2
      },
      {
        "sourceFileName": "VO_AQ\\VO_heroine\\vo_FDAQ003_44_heroine_01.wem",
        "rate": 1.0,
        "avatarName": "Switch_heroine",
        "emotion": "",
        "gender": 1
      }
    ]
  },
  "7895819d-9807-4d94-82b7-3e3ee984990b": {
    "guid": "7895819d-9807-4d94-82b7-3e3ee984990b",
    "playRate": 1.0,
    "gameTrigger": "Dialog",
    "gameTriggerArgs": 40066306,
    "personalConfig": 2,
    "parentID": "7ca7b0b6-87e5-4219-bca0-8fdaa4cf25fc",
    "sourceNames": [
      {
        "sourceFileName": "VO_AQ\\VO_furina\\vo_FDAQ003_44_furina_06.wem",
        "rate": 1.0,
        "avatarName": "",
        "emotion": ""
      }
    ]
  },
  "c8565f55-d41e-45fd-b2cd-6f2b7bc12d41": {
    "guid": "c8565f55-d41e-45fd-b2cd-6f2b7bc12d41",
    "playRate": 1.0,
    "gameTrigger": "Dialog",
    "gameTriggerArgs": 40066303,
    "personalConfig": 2,
    "parentID": "7ca7b0b6-87e5-4219-bca0-8fdaa4cf25fc",
    "sourceNames": [
      {
        "sourceFileName": "VO_AQ\\VO_furina\\vo_FDAQ003_44_furina_03.wem",
        "rate": 1.0,
        "avatarName": "",
        "emotion": ""
      }
    ]
  },
  "c93787de-34c6-4f7e-b2b1-903c077c3f4c": {
    "guid": "c93787de-34c6-4f7e-b2b1-903c077c3f4c",
    "playRate": 1.0,
    "gameTrigger": "Dialog",
    "gameTriggerArgs": 40066308,
    "personalConfig": 2,
    "DDNLACJICEC": 1,
    "parentID": "7ca7b0b6-87e5-4219-bca0-8fdaa4cf25fc",
    "sourceNames": [
      {
        "sourceFileName": "VO_AQ\\VO_hero\\vo_FDAQ003_44_hero_02.wem",
        "rate": 1.0,
        "avatarName": "Switch_hero",
        "emotion": "",
        "gender": 2
      },
      {
        "sourceFileName": "VO_AQ\\VO_heroine\\vo_FDAQ003_44_heroine_02.wem",
        "rate": 1.0,
        "avatarName": "Switch_heroine",
        "emotion": "",
        "gender": 1
      }
    ]
  },
  "eacccae2-d495-4a01-ac93-c2df14ff3833": {
    "guid": "eacccae2-d495-4a01-ac93-c2df14ff3833",
    "playRate": 1.0,
    "gameTrigger": "Dialog",
    "gameTriggerArgs": 40066302,
    "personalConfig": 2,
    "parentID": "7ca7b0b6-87e5-4219-bca0-8fdaa4cf25fc",
    "sourceNames": [
      {
        "sourceFileName": "VO_AQ\\VO_furina\\vo_FDAQ003_44_furina_02.wem",
        "rate": 1.0,
        "avatarName": "",
        "emotion": ""
      }
    ]
  }
}