{
  "0e64e8b3-758e-4511-be6c-7f4978839f93": {
    "guid": "0e64e8b3-758e-4511-be6c-7f4978839f93",
    "playRate": 1.0,
    "gameTrigger": "Dialog",
    "gameTriggerArgs": 401015301,
    "personalConfig": 2,
    "parentID": "e23b0e76-7d98-4cb8-bff9-6cab881e96eb",
    "sourceNames": [
      {
        "sourceFileName": "VO_freetalk\\VO_wanderer\\vo_dialog_XYJEQ002_wanderer_01.wem",
        "rate": 1.0,
        "avatarName": "",
        "emotion": ""
      }
    ]
  },
  "1a62b490-bdd6-485c-af28-1d10d1876aac": {
    "guid": "1a62b490-bdd6-485c-af28-1d10d1876aac",
    "playRate": 1.0,
    "gameTrigger": "Dialog",
    "gameTriggerArgs": 401016204,
    "personalConfig": 2,
    "parentID": "e23b0e76-7d98-4cb8-bff9-6cab881e96eb",
    "sourceNames": [
      {
        "sourceFileName": "VO_freetalk\\VO_wanderer\\vo_dialog_XYJEQ002_wanderer_04.wem",
        "rate": 1.0,
        "avatarName": "",
        "emotion": ""
      }
    ]
  },
  "2adbd37b-b879-4a92-abec-0721b5da3fb6": {
    "guid": "2adbd37b-b879-4a92-abec-0721b5da3fb6",
    "playRate": 1.0,
    "gameTrigger": "Dialog",
    "gameTriggerArgs": 30312201,
    "personalConfig": 2,
    "parentID": "e23b0e76-7d98-4cb8-bff9-6cab881e96eb",
    "sourceNames": [
      {
        "sourceFileName": "VO_freetalk\\VO_wanderer\\vo_dialog_LLZAQ003_wanderer_01.wem",
        "rate": 1.0,
        "avatarName": "",
        "emotion": ""
      }
    ]
  },
  "2b57e400-9011-414f-a508-ec3d1861aa0c": {
    "guid": "2b57e400-9011-414f-a508-ec3d1861aa0c",
    "playRate": 1.0,
    "gameTrigger": "Dialog",
    "gameTriggerArgs": 401016701,
    "personalConfig": 2,
    "parentID": "e23b0e76-7d98-4cb8-bff9-6cab881e96eb",
    "sourceNames": [
      {
        "sourceFileName": "VO_freetalk\\VO_wanderer\\vo_dialog_XYJEQ002_wanderer_06.wem",
        "rate": 1.0,
        "avatarName": "",
        "emotion": ""
      }
    ]
  },
  "369d5cbb-8e4a-48ec-8346-80a2f779d069": {
    "guid": "369d5cbb-8e4a-48ec-8346-80a2f779d069",
    "playRate": 1.0,
    "gameTrigger": "Dialog",
    "gameTriggerArgs": 1018305980,
    "personalConfig": 2,
    "DDNLACJICEC": 1,
    "parentID": "e23b0e76-7d98-4cb8-bff9-6cab881e96eb",
    "sourceNames": [
      {
        "sourceFileName": "VO_freetalk\\VO_wanderer\\vo_dialog_YQEQ304_wanderer_07.wem",
        "rate": 1.0,
        "avatarName": "",
        "emotion": ""
      }
    ]
  },
  "47e539c1-8769-44da-8dc9-937349a6a3d1": {
    "guid": "47e539c1-8769-44da-8dc9-937349a6a3d1",
    "playRate": 1.0,
    "gameTrigger": "Dialog",
    "gameTriggerArgs": 401016202,
    "personalConfig": 2,
    "parentID": "e23b0e76-7d98-4cb8-bff9-6cab881e96eb",
    "sourceNames": [
      {
        "sourceFileName": "VO_freetalk\\VO_wanderer\\vo_dialog_XYJEQ002_wanderer_03.wem",
        "rate": 1.0,
        "avatarName": "",
        "emotion": ""
      }
    ]
  },
  "4a59efde-1ff8-4a70-9e0e-f895d8eff7e1": {
    "guid": "4a59efde-1ff8-4a70-9e0e-f895d8eff7e1",
    "playRate": 1.0,
    "gameTrigger": "Dialog",
    "gameTriggerArgs": 401651705,
    "personalConfig": 2,
    "parentID": "e23b0e76-7d98-4cb8-bff9-6cab881e96eb",
    "sourceNames": [
      {
        "sourceFileName": "VO_freetalk\\VO_wanderer\\vo_dialog_YQEQ304_wanderer_03.wem",
        "rate": 1.0,
        "avatarName": "",
        "emotion": ""
      }
    ]
  },
  "4d4f516c-d682-49cd-9996-60e0a12a5a2c": {
    "guid": "4d4f516c-d682-49cd-9996-60e0a12a5a2c",
    "playRate": 1.0,
    "gameTrigger": "Dialog",
    "gameTriggerArgs": 401005501,
    "personalConfig": 2,
    "parentID": "e23b0e76-7d98-4cb8-bff9-6cab881e96eb",
    "sourceNames": [
      {
        "sourceFileName": "VO_freetalk\\VO_wanderer\\vo_dialog_XYJEQ001_wanderer_03.wem",
        "rate": 1.0,
        "avatarName": "",
        "emotion": ""
      }
    ]
  },
  "4fc5d752-7a2b-4800-824d-3ce57c235269": {
    "guid": "4fc5d752-7a2b-4800-824d-3ce57c235269",
    "playRate": 1.0,
    "gameTrigger": "Dialog",
    "gameTriggerArgs": 401015901,
    "personalConfig": 2,
    "parentID": "e23b0e76-7d98-4cb8-bff9-6cab881e96eb",
    "sourceNames": [
      {
        "sourceFileName": "VO_freetalk\\VO_wanderer\\vo_dialog_XYJEQ002_wanderer_02.wem",
        "rate": 1.0,
        "avatarName": "",
        "emotion": ""
      }
    ]
  },
  "6104ee16-bd98-4894-acb7-ebcadfdbb4fa": {
    "guid": "6104ee16-bd98-4894-acb7-ebcadfdbb4fa",
    "playRate": 1.0,
    "gameTrigger": "Dialog",
    "gameTriggerArgs": 401003201,
    "personalConfig": 2,
    "parentID": "e23b0e76-7d98-4cb8-bff9-6cab881e96eb",
    "sourceNames": [
      {
        "sourceFileName": "VO_freetalk\\VO_wanderer\\vo_dialog_XYJEQ001_wanderer_01.wem",
        "rate": 1.0,
        "avatarName": "",
        "emotion": ""
      }
    ]
  },
  "6171fbad-07c2-42d4-8726-456942896940": {
    "guid": "6171fbad-07c2-42d4-8726-456942896940",
    "playRate": 1.0,
    "gameTrigger": "Dialog",
    "gameTriggerArgs": 401016205,
    "personalConfig": 2,
    "parentID": "e23b0e76-7d98-4cb8-bff9-6cab881e96eb",
    "sourceNames": [
      {
        "sourceFileName": "VO_freetalk\\VO_wanderer\\vo_dialog_XYJEQ002_wanderer_05.wem",
        "rate": 1.0,
        "avatarName": "",
        "emotion": ""
      }
    ]
  },
  "64834795-5fe7-43bb-a097-f700196e213b": {
    "guid": "64834795-5fe7-43bb-a097-f700196e213b",
    "playRate": 1.0,
    "gameTrigger": "Dialog",
    "gameTriggerArgs": 401651709,
    "personalConfig": 2,
    "parentID": "e23b0e76-7d98-4cb8-bff9-6cab881e96eb",
    "sourceNames": [
      {
        "sourceFileName": "VO_freetalk\\VO_wanderer\\vo_dialog_YQEQ304_wanderer_05.wem",
        "rate": 1.0,
        "avatarName": "",
        "emotion": ""
      }
    ]
  },
  "6953e91e-cf22-44e6-9fca-74c8559e8d4d": {
    "guid": "6953e91e-cf22-44e6-9fca-74c8559e8d4d",
    "playRate": 1.0,
    "gameTrigger": "Dialog",
    "gameTriggerArgs": 401641501,
    "personalConfig": 2,
    "parentID": "e23b0e76-7d98-4cb8-bff9-6cab881e96eb",
    "sourceNames": [
      {
        "sourceFileName": "VO_freetalk\\VO_wanderer\\vo_dialog_YQEQ303_wanderer_01.wem",
        "rate": 1.0,
        "avatarName": "",
        "emotion": ""
      }
    ]
  },
  "84b43413-7563-40bf-a05d-d5a807b6a3f8": {
    "guid": "84b43413-7563-40bf-a05d-d5a807b6a3f8",
    "playRate": 1.0,
    "gameTrigger": "Dialog",
    "gameTriggerArgs": 401651711,
    "personalConfig": 2,
    "parentID": "e23b0e76-7d98-4cb8-bff9-6cab881e96eb",
    "sourceNames": [
      {
        "sourceFileName": "VO_freetalk\\VO_wanderer\\vo_dialog_YQEQ304_wanderer_06.wem",
        "rate": 1.0,
        "avatarName": "",
        "emotion": ""
      }
    ]
  },
  "929c261c-730f-4cc8-8c48-30075bb9d6ac": {
    "guid": "929c261c-730f-4cc8-8c48-30075bb9d6ac",
    "playRate": 1.0,
    "gameTrigger": "Dialog",
    "gameTriggerArgs": 401005901,
    "personalConfig": 2,
    "parentID": "e23b0e76-7d98-4cb8-bff9-6cab881e96eb",
    "sourceNames": [
      {
        "sourceFileName": "VO_freetalk\\VO_wanderer\\vo_dialog_XYJEQ001_wanderer_04.wem",
        "rate": 1.0,
        "avatarName": "",
        "emotion": ""
      }
    ]
  },
  "9a407fde-e678-4e93-a823-921bf2eada23": {
    "guid": "9a407fde-e678-4e93-a823-921bf2eada23",
    "playRate": 1.0,
    "gameTrigger": "Dialog",
    "gameTriggerArgs": 401003203,
    "personalConfig": 2,
    "parentID": "e23b0e76-7d98-4cb8-bff9-6cab881e96eb",
    "sourceNames": [
      {
        "sourceFileName": "VO_freetalk\\VO_wanderer\\vo_dialog_XYJEQ001_wanderer_02.wem",
        "rate": 1.0,
        "avatarName": "",
        "emotion": ""
      }
    ]
  },
  "ae13fc0b-e1ab-4444-b850-7667c76efce1": {
    "guid": "ae13fc0b-e1ab-4444-b850-7667c76efce1",
    "playRate": 1.0,
    "gameTrigger": "Dialog",
    "gameTriggerArgs": 401651703,
    "personalConfig": 2,
    "parentID": "e23b0e76-7d98-4cb8-bff9-6cab881e96eb",
    "sourceNames": [
      {
        "sourceFileName": "VO_freetalk\\VO_wanderer\\vo_dialog_YQEQ304_wanderer_02.wem",
        "rate": 1.0,
        "avatarName": "",
        "emotion": ""
      }
    ]
  },
  "bfd0e8cc-9289-46f0-8888-a46d8bcecd95": {
    "guid": "bfd0e8cc-9289-46f0-8888-a46d8bcecd95",
    "playRate": 1.0,
    "gameTrigger": "Dialog",
    "gameTriggerArgs": 401651707,
    "personalConfig": 2,
    "parentID": "e23b0e76-7d98-4cb8-bff9-6cab881e96eb",
    "sourceNames": [
      {
        "sourceFileName": "VO_freetalk\\VO_wanderer\\vo_dialog_YQEQ304_wanderer_04.wem",
        "rate": 1.0,
        "avatarName": "",
        "emotion": ""
      }
    ]
  },
  "dae157a5-a687-49b6-b339-291f101a8c74": {
    "guid": "dae157a5-a687-49b6-b339-291f101a8c74",
    "playRate": 1.0,
    "gameTrigger": "Dialog",
    "gameTriggerArgs": 401651701,
    "personalConfig": 2,
    "parentID": "e23b0e76-7d98-4cb8-bff9-6cab881e96eb",
    "sourceNames": [
      {
        "sourceFileName": "VO_freetalk\\VO_wanderer\\vo_dialog_YQEQ304_wanderer_01.wem",
        "rate": 1.0,
        "avatarName": "",
        "emotion": ""
      }
    ]
  }
}