{
  "04913530-49e5-4f1b-8471-b7c896fd16da": {
    "guid": "04913530-49e5-4f1b-8471-b7c896fd16da",
    "playRate": 1.0,
    "gameTrigger": "Dialog",
    "gameTriggerArgs": 693450303,
    "parentID": "eaa68ec0-6e1e-47de-a310-1ddc4a4ceeef",
    "sourceNames": [
      {
        "sourceFileName": "VO_Tower\\vo_yaeMiko_saferoom_others_03.wem",
        "rate": 1.0,
        "avatarName": "",
        "emotion": ""
      }
    ]
  },
  "238c06a5-e388-4cde-b7b2-9df5135c7a3a": {
    "guid": "238c06a5-e388-4cde-b7b2-9df5135c7a3a",
    "playRate": 1.0,
    "gameTrigger": "Dialog",
    "gameTriggerArgs": 693450301,
    "parentID": "eaa68ec0-6e1e-47de-a310-1ddc4a4ceeef",
    "sourceNames": [
      {
        "sourceFileName": "VO_Tower\\vo_yaeMiko_saferoom_others_01.wem",
        "rate": 1.0,
        "avatarName": "",
        "emotion": ""
      }
    ]
  },
  "687c3e44-b0e3-4864-a9fb-9b48c1bd924c": {
    "guid": "687c3e44-b0e3-4864-a9fb-9b48c1bd924c",
    "playRate": 1.0,
    "gameTrigger": "Dialog",
    "gameTriggerArgs": 693450102,
    "parentID": "eaa68ec0-6e1e-47de-a310-1ddc4a4ceeef",
    "sourceNames": [
      {
        "sourceFileName": "VO_Tower\\vo_yaeMiko_saferoom_rest_02.wem",
        "rate": 1.0,
        "avatarName": "",
        "emotion": ""
      }
    ]
  },
  "7bb9b262-16b2-4279-a011-99a62bc3e669": {
    "guid": "7bb9b262-16b2-4279-a011-99a62bc3e669",
    "playRate": 1.0,
    "gameTrigger": "Dialog",
    "gameTriggerArgs": 693450203,
    "parentID": "eaa68ec0-6e1e-47de-a310-1ddc4a4ceeef",
    "sourceNames": [
      {
        "sourceFileName": "VO_Tower\\vo_yaeMiko_saferoom_challenge_03.wem",
        "rate": 1.0,
        "avatarName": "",
        "emotion": ""
      }
    ]
  },
  "8f03f340-438c-4677-a9a3-71e7ef16c0d3": {
    "guid": "8f03f340-438c-4677-a9a3-71e7ef16c0d3",
    "playRate": 1.0,
    "gameTrigger": "Dialog",
    "gameTriggerArgs": 693450103,
    "parentID": "eaa68ec0-6e1e-47de-a310-1ddc4a4ceeef",
    "sourceNames": [
      {
        "sourceFileName": "VO_Tower\\vo_yaeMiko_saferoom_rest_03.wem",
        "rate": 1.0,
        "avatarName": "",
        "emotion": ""
      }
    ]
  },
  "acabac53-6bef-434f-9eb1-12c8dc9e6182": {
    "guid": "acabac53-6bef-434f-9eb1-12c8dc9e6182",
    "playRate": 1.0,
    "gameTrigger": "Dialog",
    "gameTriggerArgs": 693450101,
    "parentID": "eaa68ec0-6e1e-47de-a310-1ddc4a4ceeef",
    "sourceNames": [
      {
        "sourceFileName": "VO_Tower\\vo_yaeMiko_saferoom_rest_01.wem",
        "rate": 1.0,
        "avatarName": "",
        "emotion": ""
      }
    ]
  },
  "c35d0b13-8d79-42ca-a42f-1cc8790595ed": {
    "guid": "c35d0b13-8d79-42ca-a42f-1cc8790595ed",
    "playRate": 1.0,
    "gameTrigger": "Dialog",
    "gameTriggerArgs": 693450202,
    "parentID": "eaa68ec0-6e1e-47de-a310-1ddc4a4ceeef",
    "sourceNames": [
      {
        "sourceFileName": "VO_Tower\\vo_yaeMiko_saferoom_challenge_02.wem",
        "rate": 1.0,
        "avatarName": "",
        "emotion": ""
      }
    ]
  },
  "e79e5ad7-58a4-4dc1-83f6-cefbb5835053": {
    "guid": "e79e5ad7-58a4-4dc1-83f6-cefbb5835053",
    "playRate": 1.0,
    "gameTrigger": "Dialog",
    "gameTriggerArgs": 693450302,
    "parentID": "eaa68ec0-6e1e-47de-a310-1ddc4a4ceeef",
    "sourceNames": [
      {
        "sourceFileName": "VO_Tower\\vo_yaeMiko_saferoom_others_02.wem",
        "rate": 1.0,
        "avatarName": "",
        "emotion": ""
      }
    ]
  },
  "eb7b4a02-facb-4642-857b-c64b206340ad": {
    "guid": "eb7b4a02-facb-4642-857b-c64b206340ad",
    "playRate": 1.0,
    "gameTrigger": "Dialog",
    "gameTriggerArgs": 693450201,
    "parentID": "eaa68ec0-6e1e-47de-a310-1ddc4a4ceeef",
    "sourceNames": [
      {
        "sourceFileName": "VO_Tower\\vo_yaeMiko_saferoom_challenge_01.wem",
        "rate": 1.0,
        "avatarName": "",
        "emotion": ""
      }
    ]
  }
}