{
  "07b47fa4-71ed-4158-bbe8-5801931bd93b": {
    "guid": "07b47fa4-71ed-4158-bbe8-5801931bd93b",
    "playRate": 1.0,
    "gameTrigger": "Dialog",
    "gameTriggerArgs": 130142512,
    "personalConfig": 2,
    "parentID": "aed7d589-b5a5-4227-b4f6-a03991407c5d",
    "sourceNames": [
      {
        "sourceFileName": "VO_LQ\\VO_npc\\vo_NHDLQ002_9_basimah_01.wem",
        "rate": 1.0,
        "avatarName": "",
        "emotion": ""
      }
    ]
  },
  "08a1be4d-0664-4c32-88b3-312fb0024bd8": {
    "guid": "08a1be4d-0664-4c32-88b3-312fb0024bd8",
    "playRate": 1.0,
    "gameTrigger": "Dialog",
    "gameTriggerArgs": 130142503,
    "personalConfig": 2,
    "DDNLACJICEC": 1,
    "parentID": "aed7d589-b5a5-4227-b4f6-a03991407c5d",
    "sourceNames": [
      {
        "sourceFileName": "VO_LQ\\VO_nahida\\vo_NHDLQ002_9_nahida_01.wem",
        "rate": 1.0,
        "avatarName": "",
        "emotion": ""
      }
    ]
  },
  "0d394957-30d4-4f66-85d6-8662b8da25ef": {
    "guid": "0d394957-30d4-4f66-85d6-8662b8da25ef",
    "playRate": 1.0,
    "gameTrigger": "Dialog",
    "gameTriggerArgs": 130142536,
    "personalConfig": 2,
    "parentID": "aed7d589-b5a5-4227-b4f6-a03991407c5d",
    "sourceNames": [
      {
        "sourceFileName": "VO_LQ\\VO_npc\\vo_NHDLQ002_9_debbi_14.wem",
        "rate": 1.0,
        "avatarName": "",
        "emotion": ""
      }
    ]
  },
  "1184b0a9-9389-45b4-83fc-7e931b92f04a": {
    "guid": "1184b0a9-9389-45b4-83fc-7e931b92f04a",
    "playRate": 1.0,
    "gameTrigger": "Dialog",
    "gameTriggerArgs": 130142529,
    "personalConfig": 2,
    "parentID": "aed7d589-b5a5-4227-b4f6-a03991407c5d",
    "sourceNames": [
      {
        "sourceFileName": "VO_LQ\\VO_nahida\\vo_NHDLQ002_9_nahida_10.wem",
        "rate": 1.0,
        "avatarName": "",
        "emotion": ""
      }
    ]
  },
  "1e967290-0ad6-4153-804a-8998d762c618": {
    "guid": "1e967290-0ad6-4153-804a-8998d762c618",
    "playRate": 1.0,
    "gameTrigger": "Dialog",
    "gameTriggerArgs": 130142515,
    "personalConfig": 2,
    "parentID": "aed7d589-b5a5-4227-b4f6-a03991407c5d",
    "sourceNames": [
      {
        "sourceFileName": "VO_LQ\\VO_nahida\\vo_NHDLQ002_9_nahida_06.wem",
        "rate": 1.0,
        "avatarName": "",
        "emotion": ""
      }
    ]
  },
  "235b33cf-9a0f-4b33-9b00-c0c2a12ca6f2": {
    "guid": "235b33cf-9a0f-4b33-9b00-c0c2a12ca6f2",
    "playRate": 1.0,
    "gameTrigger": "Dialog",
    "gameTriggerArgs": 130142523,
    "personalConfig": 2,
    "parentID": "aed7d589-b5a5-4227-b4f6-a03991407c5d",
    "sourceNames": [
      {
        "sourceFileName": "VO_LQ\\VO_npc\\vo_NHDLQ002_9_debbi_10.wem",
        "rate": 1.0,
        "avatarName": "",
        "emotion": ""
      }
    ]
  },
  "3ea1b72a-ac13-40d5-9bcc-516e921abf36": {
    "guid": "3ea1b72a-ac13-40d5-9bcc-516e921abf36",
    "playRate": 1.0,
    "gameTrigger": "Dialog",
    "gameTriggerArgs": 130142511,
    "personalConfig": 2,
    "parentID": "aed7d589-b5a5-4227-b4f6-a03991407c5d",
    "sourceNames": [
      {
        "sourceFileName": "VO_LQ\\VO_npc\\vo_NHDLQ002_9_debbi_04.wem",
        "rate": 1.0,
        "avatarName": "",
        "emotion": ""
      }
    ]
  },
  "4098cd59-be96-4baa-ad6e-6df7dcba4df4": {
    "guid": "4098cd59-be96-4baa-ad6e-6df7dcba4df4",
    "playRate": 1.0,
    "gameTrigger": "Dialog",
    "gameTriggerArgs": 130142526,
    "personalConfig": 2,
    "parentID": "aed7d589-b5a5-4227-b4f6-a03991407c5d",
    "sourceNames": [
      {
        "sourceFileName": "VO_LQ\\VO_nahida\\vo_NHDLQ002_9_nahida_08.wem",
        "rate": 1.0,
        "avatarName": "",
        "emotion": ""
      }
    ]
  },
  "415b4e5f-f1dc-4199-8c2d-1ffe1fbb90cd": {
    "guid": "415b4e5f-f1dc-4199-8c2d-1ffe1fbb90cd",
    "playRate": 1.0,
    "gameTrigger": "Dialog",
    "gameTriggerArgs": 130142514,
    "personalConfig": 2,
    "parentID": "aed7d589-b5a5-4227-b4f6-a03991407c5d",
    "sourceNames": [
      {
        "sourceFileName": "VO_LQ\\VO_npc\\vo_NHDLQ002_9_debbi_05.wem",
        "rate": 1.0,
        "avatarName": "",
        "emotion": ""
      }
    ]
  },
  "42efacfc-6b6a-46ec-8669-c49b646e9a96": {
    "guid": "42efacfc-6b6a-46ec-8669-c49b646e9a96",
    "playRate": 1.0,
    "gameTrigger": "Dialog",
    "gameTriggerArgs": 130142516,
    "personalConfig": 2,
    "parentID": "aed7d589-b5a5-4227-b4f6-a03991407c5d",
    "sourceNames": [
      {
        "sourceFileName": "VO_LQ\\VO_nahida\\vo_NHDLQ002_9_nahida_07.wem",
        "rate": 1.0,
        "avatarName": "",
        "emotion": ""
      }
    ]
  },
  "4d6eef80-be3f-42b4-86e2-e5ba4f851581": {
    "guid": "4d6eef80-be3f-42b4-86e2-e5ba4f851581",
    "playRate": 1.0,
    "gameTrigger": "Dialog",
    "gameTriggerArgs": 130142524,
    "personalConfig": 2,
    "parentID": "aed7d589-b5a5-4227-b4f6-a03991407c5d",
    "sourceNames": [
      {
        "sourceFileName": "VO_LQ\\VO_npc\\vo_NHDLQ002_9_debbi_11.wem",
        "rate": 1.0,
        "avatarName": "",
        "emotion": ""
      }
    ]
  },
  "5ac47e16-e3c9-4c4c-8bc9-154a565d514a": {
    "guid": "5ac47e16-e3c9-4c4c-8bc9-154a565d514a",
    "playRate": 1.0,
    "gameTrigger": "Dialog",
    "gameTriggerArgs": 130142504,
    "personalConfig": 2,
    "parentID": "aed7d589-b5a5-4227-b4f6-a03991407c5d",
    "sourceNames": [
      {
        "sourceFileName": "VO_LQ\\VO_nahida\\vo_NHDLQ002_9_nahida_02.wem",
        "rate": 1.0,
        "avatarName": "",
        "emotion": ""
      }
    ]
  },
  "5b8ceacc-3c5f-4deb-bd2f-f223d8e811d6": {
    "guid": "5b8ceacc-3c5f-4deb-bd2f-f223d8e811d6",
    "playRate": 1.0,
    "gameTrigger": "Dialog",
    "gameTriggerArgs": 130142513,
    "personalConfig": 2,
    "parentID": "aed7d589-b5a5-4227-b4f6-a03991407c5d",
    "sourceNames": [
      {
        "sourceFileName": "VO_LQ\\VO_npc\\vo_NHDLQ002_9_gaspar_01.wem",
        "rate": 1.0,
        "avatarName": "",
        "emotion": ""
      }
    ]
  },
  "6ffbc5d2-551a-4176-b2e2-31b9d68ff598": {
    "guid": "6ffbc5d2-551a-4176-b2e2-31b9d68ff598",
    "playRate": 1.0,
    "gameTrigger": "Dialog",
    "gameTriggerArgs": 130142501,
    "personalConfig": 2,
    "DDNLACJICEC": 1,
    "parentID": "aed7d589-b5a5-4227-b4f6-a03991407c5d",
    "sourceNames": [
      {
        "sourceFileName": "VO_LQ\\VO_npc\\vo_NHDLQ002_9_debbi_01.wem",
        "rate": 1.0,
        "avatarName": "",
        "emotion": ""
      }
    ]
  },
  "72af57a5-376f-4d84-aad8-c693271e71a0": {
    "guid": "72af57a5-376f-4d84-aad8-c693271e71a0",
    "playRate": 1.0,
    "gameTrigger": "Dialog",
    "gameTriggerArgs": 130142520,
    "personalConfig": 2,
    "parentID": "aed7d589-b5a5-4227-b4f6-a03991407c5d",
    "sourceNames": [
      {
        "sourceFileName": "VO_LQ\\VO_npc\\vo_NHDLQ002_9_basimah_02.wem",
        "rate": 1.0,
        "avatarName": "",
        "emotion": ""
      }
    ]
  },
  "76340e97-7640-44b9-b12c-0dd055f22d86": {
    "guid": "76340e97-7640-44b9-b12c-0dd055f22d86",
    "playRate": 1.0,
    "gameTrigger": "Dialog",
    "gameTriggerArgs": 130142527,
    "personalConfig": 2,
    "parentID": "aed7d589-b5a5-4227-b4f6-a03991407c5d",
    "sourceNames": [
      {
        "sourceFileName": "VO_LQ\\VO_nahida\\vo_NHDLQ002_9_nahida_09.wem",
        "rate": 1.0,
        "avatarName": "",
        "emotion": ""
      }
    ]
  },
  "76eeb757-3ea3-404f-bb0a-9bb5899e71cf": {
    "guid": "76eeb757-3ea3-404f-bb0a-9bb5899e71cf",
    "playRate": 1.0,
    "gameTrigger": "Dialog",
    "gameTriggerArgs": 130142531,
    "personalConfig": 2,
    "parentID": "aed7d589-b5a5-4227-b4f6-a03991407c5d",
    "sourceNames": [
      {
        "sourceFileName": "VO_LQ\\VO_npc\\vo_NHDLQ002_9_gaspar_03.wem",
        "rate": 1.0,
        "avatarName": "",
        "emotion": ""
      }
    ]
  },
  "7ff792b9-5c29-45dc-8576-de57a027a9fd": {
    "guid": "7ff792b9-5c29-45dc-8576-de57a027a9fd",
    "playRate": 1.0,
    "gameTrigger": "Dialog",
    "gameTriggerArgs": 130142532,
    "personalConfig": 2,
    "parentID": "aed7d589-b5a5-4227-b4f6-a03991407c5d",
    "sourceNames": [
      {
        "sourceFileName": "VO_LQ\\VO_paimon\\vo_NHDLQ002_9_paimon_04.wem",
        "rate": 1.0,
        "avatarName": "",
        "emotion": ""
      }
    ]
  },
  "8534fbaf-fca1-407d-afb8-e3789e578718": {
    "guid": "8534fbaf-fca1-407d-afb8-e3789e578718",
    "playRate": 1.0,
    "gameTrigger": "Dialog",
    "gameTriggerArgs": 130142508,
    "personalConfig": 2,
    "parentID": "aed7d589-b5a5-4227-b4f6-a03991407c5d",
    "sourceNames": [
      {
        "sourceFileName": "VO_LQ\\VO_nahida\\vo_NHDLQ002_9_nahida_04.wem",
        "rate": 1.0,
        "avatarName": "",
        "emotion": ""
      }
    ]
  },
  "8a0a1590-4120-418f-8329-f666709d910d": {
    "guid": "8a0a1590-4120-418f-8329-f666709d910d",
    "playRate": 1.0,
    "gameTrigger": "Dialog",
    "gameTriggerArgs": 130142528,
    "personalConfig": 2,
    "parentID": "aed7d589-b5a5-4227-b4f6-a03991407c5d",
    "sourceNames": [
      {
        "sourceFileName": "VO_LQ\\VO_npc\\vo_NHDLQ002_9_debbi_13.wem",
        "rate": 1.0,
        "avatarName": "",
        "emotion": ""
      }
    ]
  },
  "8f68e5b6-ec62-41fc-a2e9-797207d7555a": {
    "guid": "8f68e5b6-ec62-41fc-a2e9-797207d7555a",
    "playRate": 1.0,
    "gameTrigger": "Dialog",
    "gameTriggerArgs": 130142530,
    "personalConfig": 2,
    "parentID": "aed7d589-b5a5-4227-b4f6-a03991407c5d",
    "sourceNames": [
      {
        "sourceFileName": "VO_LQ\\VO_npc\\vo_NHDLQ002_9_gaspar_02.wem",
        "rate": 1.0,
        "avatarName": "",
        "emotion": ""
      }
    ]
  },
  "969bd3a6-f1e9-4c49-921a-9fb01df3e057": {
    "guid": "969bd3a6-f1e9-4c49-921a-9fb01df3e057",
    "playRate": 1.0,
    "gameTrigger": "Dialog",
    "gameTriggerArgs": 130142506,
    "personalConfig": 2,
    "parentID": "aed7d589-b5a5-4227-b4f6-a03991407c5d",
    "sourceNames": [
      {
        "sourceFileName": "VO_LQ\\VO_paimon\\vo_NHDLQ002_9_paimon_02.wem",
        "rate": 1.0,
        "avatarName": "",
        "emotion": ""
      }
    ]
  },
  "9cc8f586-903b-479f-b3f6-870c473d9353": {
    "guid": "9cc8f586-903b-479f-b3f6-870c473d9353",
    "playRate": 1.0,
    "gameTrigger": "Dialog",
    "gameTriggerArgs": 130142518,
    "personalConfig": 2,
    "parentID": "aed7d589-b5a5-4227-b4f6-a03991407c5d",
    "sourceNames": [
      {
        "sourceFileName": "VO_LQ\\VO_npc\\vo_NHDLQ002_9_debbi_07.wem",
        "rate": 1.0,
        "avatarName": "",
        "emotion": ""
      }
    ]
  },
  "9e6150d4-6e47-408c-985d-d57da2bdb2c7": {
    "guid": "9e6150d4-6e47-408c-985d-d57da2bdb2c7",
    "playRate": 1.0,
    "gameTrigger": "Dialog",
    "gameTriggerArgs": 130142522,
    "personalConfig": 2,
    "parentID": "aed7d589-b5a5-4227-b4f6-a03991407c5d",
    "sourceNames": [
      {
        "sourceFileName": "VO_LQ\\VO_npc\\vo_NHDLQ002_9_debbi_09.wem",
        "rate": 1.0,
        "avatarName": "",
        "emotion": ""
      }
    ]
  },
  "9e9693e2-ed47-4649-8358-9b99216f8a59": {
    "guid": "9e9693e2-ed47-4649-8358-9b99216f8a59",
    "playRate": 1.0,
    "gameTrigger": "Dialog",
    "gameTriggerArgs": 130142502,
    "personalConfig": 2,
    "DDNLACJICEC": 1,
    "parentID": "aed7d589-b5a5-4227-b4f6-a03991407c5d",
    "sourceNames": [
      {
        "sourceFileName": "VO_LQ\\VO_npc\\vo_NHDLQ002_9_debbi_02.wem",
        "rate": 1.0,
        "avatarName": "",
        "emotion": ""
      }
    ]
  },
  "aada646a-2301-4009-9328-d3fa9fd75d8a": {
    "guid": "aada646a-2301-4009-9328-d3fa9fd75d8a",
    "playRate": 1.0,
    "gameTrigger": "Dialog",
    "gameTriggerArgs": 130142505,
    "personalConfig": 2,
    "parentID": "aed7d589-b5a5-4227-b4f6-a03991407c5d",
    "sourceNames": [
      {
        "sourceFileName": "VO_LQ\\VO_paimon\\vo_NHDLQ002_9_paimon_01.wem",
        "rate": 1.0,
        "avatarName": "",
        "emotion": ""
      }
    ]
  },
  "b45351a3-6e27-4893-962d-fb22792def36": {
    "guid": "b45351a3-6e27-4893-962d-fb22792def36",
    "playRate": 1.0,
    "gameTrigger": "Dialog",
    "gameTriggerArgs": 130142537,
    "personalConfig": 2,
    "parentID": "aed7d589-b5a5-4227-b4f6-a03991407c5d",
    "sourceNames": [
      {
        "sourceFileName": "VO_LQ\\VO_nahida\\vo_NHDLQ002_9_nahida_11.wem",
        "rate": 1.0,
        "avatarName": "",
        "emotion": ""
      }
    ]
  },
  "bb09a2a7-fd46-4b7c-a33a-39c3f49adce6": {
    "guid": "bb09a2a7-fd46-4b7c-a33a-39c3f49adce6",
    "playRate": 1.0,
    "gameTrigger": "Dialog",
    "gameTriggerArgs": 130142507,
    "personalConfig": 2,
    "parentID": "aed7d589-b5a5-4227-b4f6-a03991407c5d",
    "sourceNames": [
      {
        "sourceFileName": "VO_LQ\\VO_nahida\\vo_NHDLQ002_9_nahida_03.wem",
        "rate": 1.0,
        "avatarName": "",
        "emotion": ""
      }
    ]
  },
  "c025df7c-5d91-4f01-90e4-779071b2f682": {
    "guid": "c025df7c-5d91-4f01-90e4-779071b2f682",
    "playRate": 1.0,
    "gameTrigger": "Dialog",
    "gameTriggerArgs": 130142521,
    "personalConfig": 2,
    "parentID": "aed7d589-b5a5-4227-b4f6-a03991407c5d",
    "sourceNames": [
      {
        "sourceFileName": "VO_LQ\\VO_paimon\\vo_NHDLQ002_9_paimon_03.wem",
        "rate": 1.0,
        "avatarName": "",
        "emotion": ""
      }
    ]
  },
  "c6b73ab2-4a71-49e2-9373-c76dc38df4ff": {
    "guid": "c6b73ab2-4a71-49e2-9373-c76dc38df4ff",
    "playRate": 1.0,
    "gameTrigger": "Dialog",
    "gameTriggerArgs": 130142539,
    "personalConfig": 2,
    "parentID": "aed7d589-b5a5-4227-b4f6-a03991407c5d",
    "sourceNames": [
      {
        "sourceFileName": "VO_LQ\\VO_npc\\vo_NHDLQ002_9_debbi_15.wem",
        "rate": 1.0,
        "avatarName": "",
        "emotion": ""
      }
    ]
  },
  "c8e17c39-abd2-4399-83e2-41498057274a": {
    "guid": "c8e17c39-abd2-4399-83e2-41498057274a",
    "playRate": 1.0,
    "gameTrigger": "Dialog",
    "gameTriggerArgs": 130142538,
    "personalConfig": 2,
    "parentID": "aed7d589-b5a5-4227-b4f6-a03991407c5d",
    "sourceNames": [
      {
        "sourceFileName": "VO_LQ\\VO_nahida\\vo_NHDLQ002_9_nahida_12.wem",
        "rate": 1.0,
        "avatarName": "",
        "emotion": ""
      }
    ]
  },
  "cc427a94-a7f7-4abd-8d9f-5a50202f87f5": {
    "guid": "cc427a94-a7f7-4abd-8d9f-5a50202f87f5",
    "playRate": 1.0,
    "gameTrigger": "Dialog",
    "gameTriggerArgs": 130142542,
    "personalConfig": 2,
    "parentID": "aed7d589-b5a5-4227-b4f6-a03991407c5d",
    "sourceNames": [
      {
        "sourceFileName": "VO_LQ\\VO_nahida\\vo_NHDLQ002_9_nahida_14.wem",
        "rate": 1.0,
        "avatarName": "",
        "emotion": ""
      }
    ]
  },
  "d937ab79-8cdf-48ec-9737-a80974211e41": {
    "guid": "d937ab79-8cdf-48ec-9737-a80974211e41",
    "playRate": 1.0,
    "gameTrigger": "Dialog",
    "gameTriggerArgs": 130142510,
    "personalConfig": 2,
    "parentID": "aed7d589-b5a5-4227-b4f6-a03991407c5d",
    "sourceNames": [
      {
        "sourceFileName": "VO_LQ\\VO_nahida\\vo_NHDLQ002_9_nahida_05.wem",
        "rate": 1.0,
        "avatarName": "",
        "emotion": ""
      }
    ]
  },
  "dcb2274b-ee6b-4ef0-a31b-bc39ca0167d6": {
    "guid": "dcb2274b-ee6b-4ef0-a31b-bc39ca0167d6",
    "playRate": 1.0,
    "gameTrigger": "Dialog",
    "gameTriggerArgs": 130142541,
    "personalConfig": 2,
    "parentID": "aed7d589-b5a5-4227-b4f6-a03991407c5d",
    "sourceNames": [
      {
        "sourceFileName": "VO_LQ\\VO_nahida\\vo_NHDLQ002_9_nahida_13.wem",
        "rate": 1.0,
        "avatarName": "",
        "emotion": ""
      }
    ]
  },
  "e186da9c-aa77-4bc4-a471-1888167b545b": {
    "guid": "e186da9c-aa77-4bc4-a471-1888167b545b",
    "playRate": 1.0,
    "gameTrigger": "Dialog",
    "gameTriggerArgs": 130142517,
    "personalConfig": 2,
    "parentID": "aed7d589-b5a5-4227-b4f6-a03991407c5d",
    "sourceNames": [
      {
        "sourceFileName": "VO_LQ\\VO_npc\\vo_NHDLQ002_9_debbi_06.wem",
        "rate": 1.0,
        "avatarName": "",
        "emotion": ""
      }
    ]
  },
  "e613f660-5808-495f-9a25-c1f9907cdba5": {
    "guid": "e613f660-5808-495f-9a25-c1f9907cdba5",
    "playRate": 1.0,
    "gameTrigger": "Dialog",
    "gameTriggerArgs": 130142540,
    "personalConfig": 2,
    "parentID": "aed7d589-b5a5-4227-b4f6-a03991407c5d",
    "sourceNames": [
      {
        "sourceFileName": "VO_LQ\\VO_npc\\vo_NHDLQ002_9_debbi_16.wem",
        "rate": 1.0,
        "avatarName": "",
        "emotion": ""
      }
    ]
  },
  "e7d2b0ce-9fb6-4ea8-96e6-9eba2d47ee14": {
    "guid": "e7d2b0ce-9fb6-4ea8-96e6-9eba2d47ee14",
    "playRate": 1.0,
    "gameTrigger": "Dialog",
    "gameTriggerArgs": 130142525,
    "personalConfig": 2,
    "parentID": "aed7d589-b5a5-4227-b4f6-a03991407c5d",
    "sourceNames": [
      {
        "sourceFileName": "VO_LQ\\VO_npc\\vo_NHDLQ002_9_debbi_12.wem",
        "rate": 1.0,
        "avatarName": "",
        "emotion": ""
      }
    ]
  },
  "fa75894b-1b31-40a6-84b6-743c5e23cab1": {
    "guid": "fa75894b-1b31-40a6-84b6-743c5e23cab1",
    "playRate": 1.0,
    "gameTrigger": "Dialog",
    "gameTriggerArgs": 130142535,
    "personalConfig": 2,
    "parentID": "aed7d589-b5a5-4227-b4f6-a03991407c5d",
    "sourceNames": [
      {
        "sourceFileName": "VO_LQ\\VO_paimon\\vo_NHDLQ002_9_paimon_05.wem",
        "rate": 1.0,
        "avatarName": "",
        "emotion": ""
      }
    ]
  },
  "fb15e3f9-c157-4c41-84a0-08cccc9f79a3": {
    "guid": "fb15e3f9-c157-4c41-84a0-08cccc9f79a3",
    "playRate": 1.0,
    "gameTrigger": "Dialog",
    "gameTriggerArgs": 130142519,
    "personalConfig": 2,
    "parentID": "aed7d589-b5a5-4227-b4f6-a03991407c5d",
    "sourceNames": [
      {
        "sourceFileName": "VO_LQ\\VO_npc\\vo_NHDLQ002_9_debbi_08.wem",
        "rate": 1.0,
        "avatarName": "",
        "emotion": ""
      }
    ]
  },
  "fb44c7cb-69f2-497c-bae4-90319036a09c": {
    "guid": "fb44c7cb-69f2-497c-bae4-90319036a09c",
    "playRate": 1.0,
    "gameTrigger": "Dialog",
    "gameTriggerArgs": 130142509,
    "personalConfig": 2,
    "parentID": "aed7d589-b5a5-4227-b4f6-a03991407c5d",
    "sourceNames": [
      {
        "sourceFileName": "VO_LQ\\VO_npc\\vo_NHDLQ002_9_debbi_03.wem",
        "rate": 1.0,
        "avatarName": "",
        "emotion": ""
      }
    ]
  }
}