{
  "0311c74e-da1a-4ae1-af8d-65b93ec003c7": {
    "guid": "0311c74e-da1a-4ae1-af8d-65b93ec003c7",
    "playRate": 1.0,
    "gameTrigger": "Dialog",
    "gameTriggerArgs": 30262505,
    "personalConfig": 2,
    "parentID": "8806cfd3-7987-4d42-83af-e3d99900f664",
    "sourceNames": [
      {
        "sourceFileName": "VO_freetalk\\VO_candace\\vo_dialog_XMAQ305_candace_04.wem",
        "rate": 1.0,
        "avatarName": "",
        "emotion": ""
      }
    ]
  },
  "040855e9-452f-47e4-abeb-4a57ef61017f": {
    "guid": "040855e9-452f-47e4-abeb-4a57ef61017f",
    "playRate": 1.0,
    "gameTrigger": "Dialog",
    "gameTriggerArgs": 30203104,
    "personalConfig": 2,
    "parentID": "8806cfd3-7987-4d42-83af-e3d99900f664",
    "sourceNames": [
      {
        "sourceFileName": "VO_freetalk\\VO_candace\\vo_dialog_XMAQ104_candace_03.wem",
        "rate": 1.0,
        "avatarName": "",
        "emotion": ""
      }
    ]
  },
  "0547c2f4-c10d-4d76-9adc-e284077c552d": {
    "guid": "0547c2f4-c10d-4d76-9adc-e284077c552d",
    "playRate": 1.0,
    "gameTrigger": "Dialog",
    "gameTriggerArgs": 30262501,
    "personalConfig": 2,
    "parentID": "8806cfd3-7987-4d42-83af-e3d99900f664",
    "sourceNames": [
      {
        "sourceFileName": "VO_freetalk\\VO_candace\\vo_dialog_XMAQ305_candace_01.wem",
        "rate": 1.0,
        "avatarName": "",
        "emotion": ""
      }
    ]
  },
  "1107ddcb-dea3-4e92-b3b0-74ddc87695fc": {
    "guid": "1107ddcb-dea3-4e92-b3b0-74ddc87695fc",
    "playRate": 1.0,
    "gameTrigger": "Dialog",
    "gameTriggerArgs": 401006602,
    "personalConfig": 2,
    "parentID": "8806cfd3-7987-4d42-83af-e3d99900f664",
    "sourceNames": [
      {
        "sourceFileName": "VO_freetalk\\VO_candace\\vo_dialog_XYJEQ001_candace_01.wem",
        "rate": 1.0,
        "avatarName": "",
        "emotion": ""
      }
    ]
  },
  "11612dbe-eb12-445d-8f1d-9eb9c0b0edd3": {
    "guid": "11612dbe-eb12-445d-8f1d-9eb9c0b0edd3",
    "playRate": 1.0,
    "gameTrigger": "Dialog",
    "gameTriggerArgs": 401045005,
    "personalConfig": 2,
    "parentID": "8806cfd3-7987-4d42-83af-e3d99900f664",
    "sourceNames": [
      {
        "sourceFileName": "VO_freetalk\\VO_candace\\vo_dialog_XYJEQ005_candace_01.wem",
        "rate": 1.0,
        "avatarName": "",
        "emotion": ""
      }
    ]
  },
  "120fbb7e-1b46-4d36-b4de-c46d46cd48b5": {
    "guid": "120fbb7e-1b46-4d36-b4de-c46d46cd48b5",
    "playRate": 1.0,
    "gameTrigger": "Dialog",
    "gameTriggerArgs": 30230304,
    "personalConfig": 2,
    "parentID": "8806cfd3-7987-4d42-83af-e3d99900f664",
    "sourceNames": [
      {
        "sourceFileName": "VO_freetalk\\VO_candace\\vo_dialog_XMAQ107_candace_04.wem",
        "rate": 1.0,
        "avatarName": "",
        "emotion": ""
      }
    ]
  },
  "177a5a1a-603a-4822-a107-3379ba97ca62": {
    "guid": "177a5a1a-603a-4822-a107-3379ba97ca62",
    "playRate": 1.0,
    "gameTrigger": "Dialog",
    "gameTriggerArgs": 30262504,
    "personalConfig": 2,
    "parentID": "8806cfd3-7987-4d42-83af-e3d99900f664",
    "sourceNames": [
      {
        "sourceFileName": "VO_freetalk\\VO_candace\\vo_dialog_XMAQ305_candace_03.wem",
        "rate": 1.0,
        "avatarName": "",
        "emotion": ""
      }
    ]
  },
  "27b42359-d38d-4e58-97fd-2e17d452c387": {
    "guid": "27b42359-d38d-4e58-97fd-2e17d452c387",
    "playRate": 1.0,
    "gameTrigger": "Dialog",
    "gameTriggerArgs": 400972206,
    "personalConfig": 2,
    "parentID": "8806cfd3-7987-4d42-83af-e3d99900f664",
    "sourceNames": [
      {
        "sourceFileName": "VO_freetalk\\VO_candace\\vo_dialog_EQFH101_candace_04.wem",
        "rate": 1.0,
        "avatarName": "",
        "emotion": ""
      }
    ]
  },
  "2948c98b-1f3f-49d5-82bc-814861ecac7a": {
    "guid": "2948c98b-1f3f-49d5-82bc-814861ecac7a",
    "playRate": 1.0,
    "gameTrigger": "Dialog",
    "gameTriggerArgs": 30241002,
    "personalConfig": 2,
    "parentID": "8806cfd3-7987-4d42-83af-e3d99900f664",
    "sourceNames": [
      {
        "sourceFileName": "VO_freetalk\\VO_candace\\vo_dialog_XMAQ301_candace_03.wem",
        "rate": 1.0,
        "avatarName": "",
        "emotion": ""
      }
    ]
  },
  "37f83942-f7a6-44e9-9c73-da016c0b7017": {
    "guid": "37f83942-f7a6-44e9-9c73-da016c0b7017",
    "playRate": 1.0,
    "gameTrigger": "Dialog",
    "gameTriggerArgs": 30240601,
    "personalConfig": 2,
    "parentID": "8806cfd3-7987-4d42-83af-e3d99900f664",
    "sourceNames": [
      {
        "sourceFileName": "VO_freetalk\\VO_candace\\vo_dialog_XMAQ301_candace_01.wem",
        "rate": 1.0,
        "avatarName": "",
        "emotion": ""
      }
    ]
  },
  "39123d26-a505-4c28-96fa-253f454412b8": {
    "guid": "39123d26-a505-4c28-96fa-253f454412b8",
    "playRate": 1.0,
    "gameTrigger": "Dialog",
    "gameTriggerArgs": 401025003,
    "personalConfig": 2,
    "parentID": "8806cfd3-7987-4d42-83af-e3d99900f664",
    "sourceNames": [
      {
        "sourceFileName": "VO_freetalk\\VO_candace\\vo_dialog_XYJEQ003_candace_01.wem",
        "rate": 1.0,
        "avatarName": "",
        "emotion": ""
      }
    ]
  },
  "43373e7a-4629-499f-a182-eaf7fb9c3277": {
    "guid": "43373e7a-4629-499f-a182-eaf7fb9c3277",
    "playRate": 1.0,
    "gameTrigger": "Dialog",
    "gameTriggerArgs": 400972202,
    "personalConfig": 2,
    "parentID": "8806cfd3-7987-4d42-83af-e3d99900f664",
    "sourceNames": [
      {
        "sourceFileName": "VO_freetalk\\VO_candace\\vo_dialog_EQFH101_candace_02.wem",
        "rate": 1.0,
        "avatarName": "",
        "emotion": ""
      }
    ]
  },
  "54d6ca9a-c559-4c1b-ab51-69bd0b25b64c": {
    "guid": "54d6ca9a-c559-4c1b-ab51-69bd0b25b64c",
    "playRate": 1.0,
    "gameTrigger": "Dialog",
    "gameTriggerArgs": 401006702,
    "personalConfig": 2,
    "parentID": "8806cfd3-7987-4d42-83af-e3d99900f664",
    "sourceNames": [
      {
        "sourceFileName": "VO_freetalk\\VO_candace\\vo_dialog_XYJEQ001_candace_02.wem",
        "rate": 1.0,
        "avatarName": "",
        "emotion": ""
      }
    ]
  },
  "58cc4654-0873-412f-8dc7-cbdfa642e2da": {
    "guid": "58cc4654-0873-412f-8dc7-cbdfa642e2da",
    "playRate": 1.0,
    "gameTrigger": "Dialog",
    "gameTriggerArgs": 400972201,
    "personalConfig": 2,
    "parentID": "8806cfd3-7987-4d42-83af-e3d99900f664",
    "sourceNames": [
      {
        "sourceFileName": "VO_freetalk\\VO_candace\\vo_dialog_EQFH101_candace_01.wem",
        "rate": 1.0,
        "avatarName": "",
        "emotion": ""
      }
    ]
  },
  "9943fd24-7023-4a86-8a20-62214247695e": {
    "guid": "9943fd24-7023-4a86-8a20-62214247695e",
    "playRate": 1.0,
    "gameTrigger": "Dialog",
    "gameTriggerArgs": 400972211,
    "personalConfig": 2,
    "parentID": "8806cfd3-7987-4d42-83af-e3d99900f664",
    "sourceNames": [
      {
        "sourceFileName": "VO_freetalk\\VO_candace\\vo_dialog_EQFH101_candace_07.wem",
        "rate": 1.0,
        "avatarName": "",
        "emotion": ""
      }
    ]
  },
  "9aad8b9c-52f9-42e0-9855-bf5ac8be6dc3": {
    "guid": "9aad8b9c-52f9-42e0-9855-bf5ac8be6dc3",
    "playRate": 1.0,
    "gameTrigger": "Dialog",
    "gameTriggerArgs": 130375102,
    "personalConfig": 2,
    "parentID": "8806cfd3-7987-4d42-83af-e3d99900f664",
    "sourceNames": [
      {
        "sourceFileName": "VO_freetalk\\VO_candace\\vo_dialog_CNLQ103_candace_01.wem",
        "rate": 1.0,
        "avatarName": "",
        "emotion": ""
      }
    ]
  },
  "9b6b0dab-349a-4b52-a868-dd3055677937": {
    "guid": "9b6b0dab-349a-4b52-a868-dd3055677937",
    "playRate": 1.0,
    "gameTrigger": "Dialog",
    "gameTriggerArgs": 401025005,
    "personalConfig": 2,
    "parentID": "8806cfd3-7987-4d42-83af-e3d99900f664",
    "sourceNames": [
      {
        "sourceFileName": "VO_freetalk\\VO_candace\\vo_dialog_XYJEQ003_candace_02.wem",
        "rate": 1.0,
        "avatarName": "",
        "emotion": ""
      }
    ]
  },
  "c107dfc4-e993-4f3a-bac2-70b62cea74c5": {
    "guid": "c107dfc4-e993-4f3a-bac2-70b62cea74c5",
    "playRate": 1.0,
    "gameTrigger": "Dialog",
    "gameTriggerArgs": 30192901,
    "personalConfig": 2,
    "parentID": "8806cfd3-7987-4d42-83af-e3d99900f664",
    "sourceNames": [
      {
        "sourceFileName": "VO_freetalk\\VO_candace\\vo_dialog_XMAQ104_candace_01.wem",
        "rate": 1.0,
        "avatarName": "",
        "emotion": ""
      }
    ]
  },
  "c605a362-66fe-400a-aa55-19ee32abeb94": {
    "guid": "c605a362-66fe-400a-aa55-19ee32abeb94",
    "playRate": 1.0,
    "gameTrigger": "Dialog",
    "gameTriggerArgs": 30203102,
    "personalConfig": 2,
    "parentID": "8806cfd3-7987-4d42-83af-e3d99900f664",
    "sourceNames": [
      {
        "sourceFileName": "VO_freetalk\\VO_candace\\vo_dialog_XMAQ104_candace_02.wem",
        "rate": 1.0,
        "avatarName": "",
        "emotion": ""
      }
    ]
  },
  "c6a7bfb9-ea8d-4371-bf98-d799150319fd": {
    "guid": "c6a7bfb9-ea8d-4371-bf98-d799150319fd",
    "playRate": 1.0,
    "gameTrigger": "Dialog",
    "gameTriggerArgs": 130379902,
    "personalConfig": 2,
    "DDNLACJICEC": 1,
    "parentID": "8806cfd3-7987-4d42-83af-e3d99900f664",
    "sourceNames": [
      {
        "sourceFileName": "VO_freetalk\\VO_candace\\vo_dialog_CNLQ103_candace_02.wem",
        "rate": 1.0,
        "avatarName": "",
        "emotion": ""
      }
    ]
  },
  "cfbdb44e-535e-4de3-bce0-7beeb905aa47": {
    "guid": "cfbdb44e-535e-4de3-bce0-7beeb905aa47",
    "playRate": 1.0,
    "gameTrigger": "Dialog",
    "gameTriggerArgs": 400972207,
    "personalConfig": 2,
    "parentID": "8806cfd3-7987-4d42-83af-e3d99900f664",
    "sourceNames": [
      {
        "sourceFileName": "VO_freetalk\\VO_candace\\vo_dialog_EQFH101_candace_05.wem",
        "rate": 1.0,
        "avatarName": "",
        "emotion": ""
      }
    ]
  },
  "d04c9a7e-282e-48f1-9be4-b365b86c5e1d": {
    "guid": "d04c9a7e-282e-48f1-9be4-b365b86c5e1d",
    "playRate": 1.0,
    "gameTrigger": "Dialog",
    "gameTriggerArgs": 400972210,
    "personalConfig": 2,
    "parentID": "8806cfd3-7987-4d42-83af-e3d99900f664",
    "sourceNames": [
      {
        "sourceFileName": "VO_freetalk\\VO_candace\\vo_dialog_EQFH101_candace_06.wem",
        "rate": 1.0,
        "avatarName": "",
        "emotion": ""
      }
    ]
  },
  "d7291c94-523f-44e0-a0b9-094f9ffc0869": {
    "guid": "d7291c94-523f-44e0-a0b9-094f9ffc0869",
    "playRate": 1.0,
    "gameTrigger": "Dialog",
    "gameTriggerArgs": 400972204,
    "personalConfig": 2,
    "parentID": "8806cfd3-7987-4d42-83af-e3d99900f664",
    "sourceNames": [
      {
        "sourceFileName": "VO_freetalk\\VO_candace\\vo_dialog_EQFH101_candace_03.wem",
        "rate": 1.0,
        "avatarName": "",
        "emotion": ""
      }
    ]
  },
  "db6656af-7a51-4a2a-bcb3-6004e847b121": {
    "guid": "db6656af-7a51-4a2a-bcb3-6004e847b121",
    "playRate": 1.0,
    "gameTrigger": "Dialog",
    "gameTriggerArgs": 30241001,
    "personalConfig": 2,
    "parentID": "8806cfd3-7987-4d42-83af-e3d99900f664",
    "sourceNames": [
      {
        "sourceFileName": "VO_freetalk\\VO_candace\\vo_dialog_XMAQ301_candace_02.wem",
        "rate": 1.0,
        "avatarName": "",
        "emotion": ""
      }
    ]
  },
  "dbbea12a-5a98-4d8f-bc37-c2b8884ad7e6": {
    "guid": "dbbea12a-5a98-4d8f-bc37-c2b8884ad7e6",
    "playRate": 1.0,
    "gameTrigger": "Dialog",
    "gameTriggerArgs": 401006704,
    "personalConfig": 2,
    "parentID": "8806cfd3-7987-4d42-83af-e3d99900f664",
    "sourceNames": [
      {
        "sourceFileName": "VO_freetalk\\VO_candace\\vo_dialog_XYJEQ001_candace_03.wem",
        "rate": 1.0,
        "avatarName": "",
        "emotion": ""
      }
    ]
  },
  "df2d256b-5755-4a14-98cb-ceb82690d288": {
    "guid": "df2d256b-5755-4a14-98cb-ceb82690d288",
    "playRate": 1.0,
    "gameTrigger": "Dialog",
    "gameTriggerArgs": 30202301,
    "personalConfig": 2,
    "parentID": "8806cfd3-7987-4d42-83af-e3d99900f664",
    "sourceNames": [
      {
        "sourceFileName": "VO_freetalk\\VO_candace\\vo_dialog_XMAQ105_candace_01.wem",
        "rate": 1.0,
        "avatarName": "",
        "emotion": ""
      }
    ]
  },
  "e01cac47-f2a5-46eb-9cf4-ea21815eba59": {
    "guid": "e01cac47-f2a5-46eb-9cf4-ea21815eba59",
    "playRate": 1.0,
    "gameTrigger": "Dialog",
    "gameTriggerArgs": 30262503,
    "personalConfig": 2,
    "parentID": "8806cfd3-7987-4d42-83af-e3d99900f664",
    "sourceNames": [
      {
        "sourceFileName": "VO_freetalk\\VO_candace\\vo_dialog_XMAQ305_candace_02.wem",
        "rate": 1.0,
        "avatarName": "",
        "emotion": ""
      }
    ]
  },
  "e6fb8ffe-87ff-44bb-8b97-4c4c400cbc2c": {
    "guid": "e6fb8ffe-87ff-44bb-8b97-4c4c400cbc2c",
    "playRate": 1.0,
    "gameTrigger": "Dialog",
    "gameTriggerArgs": 30230302,
    "personalConfig": 2,
    "parentID": "8806cfd3-7987-4d42-83af-e3d99900f664",
    "sourceNames": [
      {
        "sourceFileName": "VO_freetalk\\VO_candace\\vo_dialog_XMAQ107_candace_02.wem",
        "rate": 1.0,
        "avatarName": "",
        "emotion": ""
      }
    ]
  },
  "f116453c-4958-416b-92a5-5c30634668ff": {
    "guid": "f116453c-4958-416b-92a5-5c30634668ff",
    "playRate": 1.0,
    "gameTrigger": "Dialog",
    "gameTriggerArgs": 30230303,
    "personalConfig": 2,
    "parentID": "8806cfd3-7987-4d42-83af-e3d99900f664",
    "sourceNames": [
      {
        "sourceFileName": "VO_freetalk\\VO_candace\\vo_dialog_XMAQ107_candace_03.wem",
        "rate": 1.0,
        "avatarName": "",
        "emotion": ""
      }
    ]
  },
  "f77bf481-83a6-4635-8c5e-f9220856be07": {
    "guid": "f77bf481-83a6-4635-8c5e-f9220856be07",
    "playRate": 1.0,
    "gameTrigger": "Dialog",
    "gameTriggerArgs": 30230301,
    "personalConfig": 2,
    "parentID": "8806cfd3-7987-4d42-83af-e3d99900f664",
    "sourceNames": [
      {
        "sourceFileName": "VO_freetalk\\VO_candace\\vo_dialog_XMAQ107_candace_01.wem",
        "rate": 1.0,
        "avatarName": "",
        "emotion": ""
      }
    ]
  }
}