{
  "02d1ed09-9b03-4561-b0e4-eb9681741edf": {
    "guid": "02d1ed09-9b03-4561-b0e4-eb9681741edf",
    "playRate": 1.0,
    "gameTrigger": "Dialog",
    "gameTriggerArgs": 110150802,
    "personalConfig": 2,
    "parentID": "790b0f63-b5d8-4ed5-9e15-b99d879c194b",
    "sourceNames": [
      {
        "sourceFileName": "VO_freetalk\\VO_keqing\\vo_dialog_SHLQ004_keqing_02.wem",
        "rate": 1.0,
        "avatarName": "",
        "emotion": ""
      }
    ]
  },
  "18aa34d0-cac2-480d-a8de-86481602f144": {
    "guid": "18aa34d0-cac2-480d-a8de-86481602f144",
    "playRate": 1.0,
    "gameTrigger": "Dialog",
    "gameTriggerArgs": 110133001,
    "personalConfig": 2,
    "parentID": "790b0f63-b5d8-4ed5-9e15-b99d879c194b",
    "sourceNames": [
      {
        "sourceFileName": "VO_freetalk\\VO_keqing\\vo_dialog_SHLQ002_keqing_01.wem",
        "rate": 1.0,
        "avatarName": "",
        "emotion": ""
      }
    ]
  },
  "23217712-bfde-42a3-9fc6-69640294fa69": {
    "guid": "23217712-bfde-42a3-9fc6-69640294fa69",
    "playRate": 1.0,
    "gameTrigger": "Dialog",
    "gameTriggerArgs": 401415603,
    "personalConfig": 2,
    "parentID": "790b0f63-b5d8-4ed5-9e15-b99d879c194b",
    "sourceNames": [
      {
        "sourceFileName": "VO_freetalk\\VO_keqing\\vo_dialog_EQHDJ303_keqing_02.wem",
        "rate": 1.0,
        "avatarName": "",
        "emotion": ""
      }
    ]
  },
  "37d0b7ba-2e7d-414b-a664-8bca06f9fbd4": {
    "guid": "37d0b7ba-2e7d-414b-a664-8bca06f9fbd4",
    "playRate": 1.0,
    "gameTrigger": "Dialog",
    "gameTriggerArgs": 110150801,
    "personalConfig": 2,
    "parentID": "790b0f63-b5d8-4ed5-9e15-b99d879c194b",
    "sourceNames": [
      {
        "sourceFileName": "VO_freetalk\\VO_keqing\\vo_dialog_SHLQ004_keqing_01.wem",
        "rate": 1.0,
        "avatarName": "",
        "emotion": ""
      }
    ]
  },
  "45392b3c-2b8b-4797-8963-87247531a96c": {
    "guid": "45392b3c-2b8b-4797-8963-87247531a96c",
    "playRate": 1.0,
    "gameTrigger": "Dialog",
    "gameTriggerArgs": 10251902,
    "personalConfig": 2,
    "parentID": "790b0f63-b5d8-4ed5-9e15-b99d879c194b",
    "sourceNames": [
      {
        "sourceFileName": "VO_freetalk\\VO_keqing\\vo_dialog_LYAQ206_keqing_02.wem",
        "rate": 1.0,
        "avatarName": "",
        "emotion": ""
      }
    ]
  },
  "57d6d274-ea60-4f06-a7c3-20497963be77": {
    "guid": "57d6d274-ea60-4f06-a7c3-20497963be77",
    "playRate": 1.0,
    "gameTrigger": "Dialog",
    "gameTriggerArgs": 110150803,
    "personalConfig": 2,
    "parentID": "790b0f63-b5d8-4ed5-9e15-b99d879c194b",
    "sourceNames": [
      {
        "sourceFileName": "VO_freetalk\\VO_keqing\\vo_dialog_SHLQ004_keqing_03.wem",
        "rate": 1.0,
        "avatarName": "",
        "emotion": ""
      }
    ]
  },
  "5d7fe4ab-5cbe-4bc6-b019-1e91f8b8de94": {
    "guid": "5d7fe4ab-5cbe-4bc6-b019-1e91f8b8de94",
    "playRate": 1.0,
    "gameTrigger": "Dialog",
    "gameTriggerArgs": 401415607,
    "personalConfig": 2,
    "DDNLACJICEC": 1,
    "parentID": "790b0f63-b5d8-4ed5-9e15-b99d879c194b",
    "sourceNames": [
      {
        "sourceFileName": "VO_freetalk\\VO_keqing\\vo_dialog_EQHDJ303_keqing_04.wem",
        "rate": 1.0,
        "avatarName": "",
        "emotion": ""
      }
    ]
  },
  "5ebca504-b218-4659-b548-d895c1c6f886": {
    "guid": "5ebca504-b218-4659-b548-d895c1c6f886",
    "playRate": 1.0,
    "gameTrigger": "Dialog",
    "gameTriggerArgs": 400153301,
    "personalConfig": 2,
    "parentID": "790b0f63-b5d8-4ed5-9e15-b99d879c194b",
    "sourceNames": [
      {
        "sourceFileName": "VO_freetalk\\VO_keqing\\vo_dialog_EQZYJ002_keqing_02.wem",
        "rate": 1.0,
        "avatarName": "",
        "emotion": ""
      }
    ]
  },
  "6fd22448-7760-48d9-83c8-7b6408025170": {
    "guid": "6fd22448-7760-48d9-83c8-7b6408025170",
    "playRate": 1.0,
    "gameTrigger": "Dialog",
    "gameTriggerArgs": 401415602,
    "personalConfig": 2,
    "parentID": "790b0f63-b5d8-4ed5-9e15-b99d879c194b",
    "sourceNames": [
      {
        "sourceFileName": "VO_freetalk\\VO_keqing\\vo_dialog_EQHDJ303_keqing_01.wem",
        "rate": 1.0,
        "avatarName": "",
        "emotion": ""
      }
    ]
  },
  "71589fa5-2b9f-4687-b939-95aaabf0db81": {
    "guid": "71589fa5-2b9f-4687-b939-95aaabf0db81",
    "playRate": 1.0,
    "gameTrigger": "Dialog",
    "gameTriggerArgs": 10251901,
    "personalConfig": 2,
    "parentID": "790b0f63-b5d8-4ed5-9e15-b99d879c194b",
    "sourceNames": [
      {
        "sourceFileName": "VO_freetalk\\VO_keqing\\vo_dialog_LYAQ206_keqing_01.wem",
        "rate": 1.0,
        "avatarName": "",
        "emotion": ""
      }
    ]
  },
  "72353412-fabd-44f6-ac36-5eb9be32f7d5": {
    "guid": "72353412-fabd-44f6-ac36-5eb9be32f7d5",
    "playRate": 1.0,
    "gameTrigger": "Dialog",
    "gameTriggerArgs": 401415608,
    "personalConfig": 2,
    "parentID": "790b0f63-b5d8-4ed5-9e15-b99d879c194b",
    "sourceNames": [
      {
        "sourceFileName": "VO_freetalk\\VO_keqing\\vo_dialog_EQHDJ303_keqing_05.wem",
        "rate": 1.0,
        "avatarName": "",
        "emotion": ""
      }
    ]
  },
  "85cd02e7-8e21-4779-8f45-620d6c50c34e": {
    "guid": "85cd02e7-8e21-4779-8f45-620d6c50c34e",
    "playRate": 1.0,
    "gameTrigger": "Dialog",
    "gameTriggerArgs": 400923506,
    "personalConfig": 2,
    "parentID": "790b0f63-b5d8-4ed5-9e15-b99d879c194b",
    "sourceNames": [
      {
        "sourceFileName": "VO_freetalk\\VO_keqing\\vo_dialog_EQHDJ201_keqing_03.wem",
        "rate": 1.0,
        "avatarName": "",
        "emotion": ""
      }
    ]
  },
  "96d090ad-d89b-438b-ba0f-d6fe6d5d4457": {
    "guid": "96d090ad-d89b-438b-ba0f-d6fe6d5d4457",
    "playRate": 1.0,
    "gameTrigger": "Dialog",
    "gameTriggerArgs": 110133002,
    "personalConfig": 2,
    "parentID": "790b0f63-b5d8-4ed5-9e15-b99d879c194b",
    "sourceNames": [
      {
        "sourceFileName": "VO_freetalk\\VO_keqing\\vo_dialog_SHLQ002_keqing_02.wem",
        "rate": 1.0,
        "avatarName": "",
        "emotion": ""
      }
    ]
  },
  "adffa827-2431-4146-8a8e-bbf7e5dbdb87": {
    "guid": "adffa827-2431-4146-8a8e-bbf7e5dbdb87",
    "playRate": 1.0,
    "gameTrigger": "Dialog",
    "gameTriggerArgs": 110150804,
    "personalConfig": 2,
    "parentID": "790b0f63-b5d8-4ed5-9e15-b99d879c194b",
    "sourceNames": [
      {
        "sourceFileName": "VO_freetalk\\VO_keqing\\vo_dialog_SHLQ004_keqing_04.wem",
        "rate": 1.0,
        "avatarName": "",
        "emotion": ""
      }
    ]
  },
  "b350e7a4-074f-4a46-ac7b-14e851277829": {
    "guid": "b350e7a4-074f-4a46-ac7b-14e851277829",
    "playRate": 1.0,
    "gameTrigger": "Dialog",
    "gameTriggerArgs": 400923501,
    "personalConfig": 2,
    "parentID": "790b0f63-b5d8-4ed5-9e15-b99d879c194b",
    "sourceNames": [
      {
        "sourceFileName": "VO_freetalk\\VO_keqing\\vo_dialog_EQHDJ201_keqing_01.wem",
        "rate": 1.0,
        "avatarName": "",
        "emotion": ""
      }
    ]
  },
  "b5ca05dd-917a-4ed1-ac07-3b4ac5975cd6": {
    "guid": "b5ca05dd-917a-4ed1-ac07-3b4ac5975cd6",
    "playRate": 1.0,
    "gameTrigger": "Dialog",
    "gameTriggerArgs": 401415605,
    "personalConfig": 2,
    "parentID": "790b0f63-b5d8-4ed5-9e15-b99d879c194b",
    "sourceNames": [
      {
        "sourceFileName": "VO_freetalk\\VO_keqing\\vo_dialog_EQHDJ303_keqing_03.wem",
        "rate": 1.0,
        "avatarName": "",
        "emotion": ""
      }
    ]
  },
  "c8a4e821-20b9-43f2-a93a-d0835282e68b": {
    "guid": "c8a4e821-20b9-43f2-a93a-d0835282e68b",
    "playRate": 1.0,
    "gameTrigger": "Dialog",
    "gameTriggerArgs": 400153302,
    "personalConfig": 2,
    "parentID": "790b0f63-b5d8-4ed5-9e15-b99d879c194b",
    "sourceNames": [
      {
        "sourceFileName": "VO_freetalk\\VO_keqing\\vo_dialog_EQZYJ002_keqing_03.wem",
        "rate": 1.0,
        "avatarName": "",
        "emotion": ""
      }
    ]
  },
  "c90b6649-822a-4b9d-b300-474019f4b742": {
    "guid": "c90b6649-822a-4b9d-b300-474019f4b742",
    "playRate": 1.0,
    "gameTrigger": "Dialog",
    "gameTriggerArgs": 400923502,
    "personalConfig": 2,
    "parentID": "790b0f63-b5d8-4ed5-9e15-b99d879c194b",
    "sourceNames": [
      {
        "sourceFileName": "VO_freetalk\\VO_keqing\\vo_dialog_EQHDJ201_keqing_02.wem",
        "rate": 1.0,
        "avatarName": "",
        "emotion": ""
      }
    ]
  },
  "d0b0779e-3d98-4315-907e-0a0f15d59c0f": {
    "guid": "d0b0779e-3d98-4315-907e-0a0f15d59c0f",
    "playRate": 1.0,
    "gameTrigger": "Dialog",
    "gameTriggerArgs": 400145502,
    "personalConfig": 2,
    "parentID": "790b0f63-b5d8-4ed5-9e15-b99d879c194b",
    "sourceNames": [
      {
        "sourceFileName": "VO_freetalk\\VO_keqing\\vo_dialog_EQZYJ001_keqing_01.wem",
        "rate": 1.0,
        "avatarName": "",
        "emotion": ""
      }
    ]
  },
  "fbaef3d0-768c-4574-8ee7-a11fffbdc418": {
    "guid": "fbaef3d0-768c-4574-8ee7-a11fffbdc418",
    "playRate": 1.0,
    "gameTrigger": "Dialog",
    "gameTriggerArgs": 400155001,
    "personalConfig": 2,
    "parentID": "790b0f63-b5d8-4ed5-9e15-b99d879c194b",
    "sourceNames": [
      {
        "sourceFileName": "VO_freetalk\\VO_keqing\\vo_dialog_EQZYJ002_keqing_01.wem",
        "rate": 1.0,
        "avatarName": "",
        "emotion": ""
      }
    ]
  }
}