{
  "0366d313-3bfb-498f-a27a-244cbec339af": {
    "guid": "0366d313-3bfb-498f-a27a-244cbec339af",
    "playRate": 1.0,
    "gameTrigger": "Dialog",
    "gameTriggerArgs": 180003810,
    "personalConfig": 2,
    "parentID": "705b49f0-67e4-4ce2-b760-2c407590dc1f",
    "sourceNames": [
      {
        "sourceFileName": "VO_WQ\\VO_dainsleif\\vo_WQDY001_6_dainsleif_38.wem",
        "rate": 1.0,
        "avatarName": "",
        "emotion": ""
      }
    ]
  },
  "0367999a-7d65-403e-8252-6e0a8c6c30f2": {
    "guid": "0367999a-7d65-403e-8252-6e0a8c6c30f2",
    "playRate": 1.0,
    "gameTrigger": "Dialog",
    "gameTriggerArgs": 180003815,
    "personalConfig": 2,
    "parentID": "705b49f0-67e4-4ce2-b760-2c407590dc1f",
    "sourceNames": [
      {
        "sourceFileName": "VO_WQ\\VO_dainsleif\\vo_WQDY001_6_dainsleif_40.wem",
        "rate": 1.0,
        "avatarName": "",
        "emotion": ""
      }
    ]
  },
  "04a8035f-bcf2-4e0e-ba74-5847f83680de": {
    "guid": "04a8035f-bcf2-4e0e-ba74-5847f83680de",
    "playRate": 1.0,
    "gameTrigger": "Dialog",
    "gameTriggerArgs": 180000526,
    "personalConfig": 2,
    "parentID": "705b49f0-67e4-4ce2-b760-2c407590dc1f",
    "sourceNames": [
      {
        "sourceFileName": "VO_WQ\\VO_dainsleif\\vo_WQDY001_6_dainsleif_11.wem",
        "rate": 1.0,
        "avatarName": "",
        "emotion": ""
      }
    ]
  },
  "068a5ebd-f167-4278-85ba-9acb39f50848": {
    "guid": "068a5ebd-f167-4278-85ba-9acb39f50848",
    "playRate": 1.0,
    "gameTrigger": "Dialog",
    "gameTriggerArgs": 180000535,
    "personalConfig": 2,
    "parentID": "705b49f0-67e4-4ce2-b760-2c407590dc1f",
    "sourceNames": [
      {
        "sourceFileName": "VO_WQ\\VO_dainsleif\\vo_WQDY001_6_dainsleif_15.wem",
        "rate": 1.0,
        "avatarName": "",
        "emotion": ""
      }
    ]
  },
  "0a6c4a1e-127f-44ff-b2ea-e6ad131902e9": {
    "guid": "0a6c4a1e-127f-44ff-b2ea-e6ad131902e9",
    "playRate": 1.0,
    "gameTrigger": "Dialog",
    "gameTriggerArgs": 180000516,
    "personalConfig": 2,
    "parentID": "705b49f0-67e4-4ce2-b760-2c407590dc1f",
    "sourceNames": [
      {
        "sourceFileName": "VO_WQ\\VO_paimon\\vo_WQDY001_6_paimon_03b.wem",
        "rate": 1.0,
        "avatarName": "",
        "emotion": ""
      }
    ]
  },
  "0fbe6511-68dc-40a1-806e-d6364dc913cd": {
    "guid": "0fbe6511-68dc-40a1-806e-d6364dc913cd",
    "playRate": 1.0,
    "gameTrigger": "Dialog",
    "gameTriggerArgs": 180003816,
    "personalConfig": 2,
    "parentID": "705b49f0-67e4-4ce2-b760-2c407590dc1f",
    "sourceNames": [
      {
        "sourceFileName": "VO_WQ\\VO_paimon\\vo_WQDY001_6_paimon_10.wem",
        "rate": 1.0,
        "avatarName": "",
        "emotion": ""
      }
    ]
  },
  "1074cb87-5416-424f-820d-83f81ae13cde": {
    "guid": "1074cb87-5416-424f-820d-83f81ae13cde",
    "playRate": 1.0,
    "gameTrigger": "Dialog",
    "gameTriggerArgs": 180000511,
    "personalConfig": 2,
    "parentID": "705b49f0-67e4-4ce2-b760-2c407590dc1f",
    "sourceNames": [
      {
        "sourceFileName": "VO_WQ\\VO_paimon\\vo_WQDY001_6_paimon_02.wem",
        "rate": 1.0,
        "avatarName": "",
        "emotion": ""
      }
    ]
  },
  "183505e4-d835-48db-9b0e-b82e52342f36": {
    "guid": "183505e4-d835-48db-9b0e-b82e52342f36",
    "playRate": 1.0,
    "gameTrigger": "Dialog",
    "gameTriggerArgs": 180003820,
    "personalConfig": 2,
    "DDNLACJICEC": 1,
    "parentID": "705b49f0-67e4-4ce2-b760-2c407590dc1f",
    "sourceNames": [
      {
        "sourceFileName": "VO_WQ\\VO_dainsleif\\vo_WQDY001_6_dainsleif_41a.wem",
        "rate": 1.0,
        "avatarName": "",
        "emotion": "",
        "gender": 2
      },
      {
        "sourceFileName": "VO_WQ\\VO_dainsleif\\vo_WQDY001_6_dainsleif_41b.wem",
        "rate": 1.0,
        "avatarName": "",
        "emotion": "",
        "gender": 1
      }
    ]
  },
  "1f6a7745-129f-4498-a30a-f0186baa9d1b": {
    "guid": "1f6a7745-129f-4498-a30a-f0186baa9d1b",
    "playRate": 1.0,
    "gameTrigger": "Dialog",
    "gameTriggerArgs": 180000536,
    "personalConfig": 2,
    "parentID": "705b49f0-67e4-4ce2-b760-2c407590dc1f",
    "sourceNames": [
      {
        "sourceFileName": "VO_WQ\\VO_dainsleif\\vo_WQDY001_6_dainsleif_16.wem",
        "rate": 1.0,
        "avatarName": "",
        "emotion": ""
      }
    ]
  },
  "25153042-7164-4099-935d-12275afd5a76": {
    "guid": "25153042-7164-4099-935d-12275afd5a76",
    "playRate": 1.0,
    "gameTrigger": "Dialog",
    "gameTriggerArgs": 180000509,
    "personalConfig": 2,
    "parentID": "705b49f0-67e4-4ce2-b760-2c407590dc1f",
    "sourceNames": [
      {
        "sourceFileName": "VO_WQ\\VO_dainsleif\\vo_WQDY001_6_dainsleif_04.wem",
        "rate": 1.0,
        "avatarName": "",
        "emotion": ""
      }
    ]
  },
  "29b938cc-5dc6-458e-af99-7512a5e5325f": {
    "guid": "29b938cc-5dc6-458e-af99-7512a5e5325f",
    "playRate": 1.0,
    "gameTrigger": "Dialog",
    "gameTriggerArgs": 180003812,
    "personalConfig": 2,
    "parentID": "705b49f0-67e4-4ce2-b760-2c407590dc1f",
    "sourceNames": [
      {
        "sourceFileName": "VO_WQ\\VO_paimon\\vo_WQDY001_6_paimon_08.wem",
        "rate": 1.0,
        "avatarName": "",
        "emotion": ""
      }
    ]
  },
  "2afa6d29-7f71-44f3-8da1-326aa024d2e6": {
    "guid": "2afa6d29-7f71-44f3-8da1-326aa024d2e6",
    "playRate": 1.0,
    "gameTrigger": "Dialog",
    "gameTriggerArgs": 180003701,
    "personalConfig": 2,
    "parentID": "705b49f0-67e4-4ce2-b760-2c407590dc1f",
    "sourceNames": [
      {
        "sourceFileName": "VO_WQ\\VO_dainsleif\\vo_WQDY001_6_dainsleif_31a.wem",
        "rate": 1.0,
        "avatarName": "",
        "emotion": "",
        "gender": 2
      },
      {
        "sourceFileName": "VO_WQ\\VO_dainsleif\\vo_WQDY001_6_dainsleif_31b.wem",
        "rate": 1.0,
        "avatarName": "",
        "emotion": "",
        "gender": 1
      }
    ]
  },
  "2f2089ad-18ff-4be6-9de0-05cf315d1318": {
    "guid": "2f2089ad-18ff-4be6-9de0-05cf315d1318",
    "playRate": 1.0,
    "gameTrigger": "Dialog",
    "gameTriggerArgs": 180003601,
    "personalConfig": 2,
    "parentID": "705b49f0-67e4-4ce2-b760-2c407590dc1f",
    "sourceNames": [
      {
        "sourceFileName": "VO_WQ\\VO_dainsleif\\vo_WQDY001_6_dainsleif_30a.wem",
        "rate": 1.0,
        "avatarName": "",
        "emotion": "",
        "gender": 2
      },
      {
        "sourceFileName": "VO_WQ\\VO_dainsleif\\vo_WQDY001_6_dainsleif_30b.wem",
        "rate": 1.0,
        "avatarName": "",
        "emotion": "",
        "gender": 1
      }
    ]
  },
  "35720e3f-283c-4140-b482-3ce111ecb8dc": {
    "guid": "35720e3f-283c-4140-b482-3ce111ecb8dc",
    "playRate": 1.0,
    "gameTrigger": "Dialog",
    "gameTriggerArgs": 180000538,
    "personalConfig": 2,
    "parentID": "705b49f0-67e4-4ce2-b760-2c407590dc1f",
    "sourceNames": [
      {
        "sourceFileName": "VO_WQ\\VO_dainsleif\\vo_WQDY001_6_dainsleif_17.wem",
        "rate": 1.0,
        "avatarName": "",
        "emotion": ""
      }
    ]
  },
  "38ea9d74-04ff-4e2f-a3ba-663562978212": {
    "guid": "38ea9d74-04ff-4e2f-a3ba-663562978212",
    "playRate": 1.0,
    "gameTrigger": "Dialog",
    "gameTriggerArgs": 180000530,
    "personalConfig": 2,
    "parentID": "705b49f0-67e4-4ce2-b760-2c407590dc1f",
    "sourceNames": [
      {
        "sourceFileName": "VO_WQ\\VO_paimon\\vo_WQDY001_6_paimon_05.wem",
        "rate": 1.0,
        "avatarName": "",
        "emotion": ""
      }
    ]
  },
  "45893830-25cd-4e67-8c88-9fa700ebbb24": {
    "guid": "45893830-25cd-4e67-8c88-9fa700ebbb24",
    "playRate": 1.0,
    "gameTrigger": "Dialog",
    "gameTriggerArgs": 180000529,
    "personalConfig": 2,
    "parentID": "705b49f0-67e4-4ce2-b760-2c407590dc1f",
    "sourceNames": [
      {
        "sourceFileName": "VO_WQ\\VO_dainsleif\\vo_WQDY001_6_dainsleif_13.wem",
        "rate": 1.0,
        "avatarName": "",
        "emotion": ""
      }
    ]
  },
  "46f6b277-cb24-4b0e-ae8f-bb82c0dbea9b": {
    "guid": "46f6b277-cb24-4b0e-ae8f-bb82c0dbea9b",
    "playRate": 1.0,
    "gameTrigger": "Dialog",
    "gameTriggerArgs": 180003819,
    "personalConfig": 2,
    "parentID": "705b49f0-67e4-4ce2-b760-2c407590dc1f",
    "sourceNames": [
      {
        "sourceFileName": "VO_WQ\\VO_paimon\\vo_WQDY001_6_paimon_11.wem",
        "rate": 1.0,
        "avatarName": "",
        "emotion": ""
      }
    ]
  },
  "4c51b147-52e1-4454-9d0f-ca273b75a8a2": {
    "guid": "4c51b147-52e1-4454-9d0f-ca273b75a8a2",
    "playRate": 1.0,
    "gameTrigger": "Dialog",
    "gameTriggerArgs": 180000527,
    "personalConfig": 2,
    "parentID": "705b49f0-67e4-4ce2-b760-2c407590dc1f",
    "sourceNames": [
      {
        "sourceFileName": "VO_WQ\\VO_dainsleif\\vo_WQDY001_6_dainsleif_12.wem",
        "rate": 1.0,
        "avatarName": "",
        "emotion": ""
      }
    ]
  },
  "4c581f3c-cf9b-4233-9567-ed42a385cae1": {
    "guid": "4c581f3c-cf9b-4233-9567-ed42a385cae1",
    "playRate": 1.0,
    "gameTrigger": "Dialog",
    "gameTriggerArgs": 180003805,
    "personalConfig": 2,
    "parentID": "705b49f0-67e4-4ce2-b760-2c407590dc1f",
    "sourceNames": [
      {
        "sourceFileName": "VO_WQ\\VO_dainsleif\\vo_WQDY001_6_dainsleif_35.wem",
        "rate": 1.0,
        "avatarName": "",
        "emotion": ""
      }
    ]
  },
  "56aa5333-f596-4d54-88d9-01129759f49d": {
    "guid": "56aa5333-f596-4d54-88d9-01129759f49d",
    "playRate": 1.0,
    "gameTrigger": "Dialog",
    "gameTriggerArgs": 180000547,
    "personalConfig": 2,
    "parentID": "705b49f0-67e4-4ce2-b760-2c407590dc1f",
    "sourceNames": [
      {
        "sourceFileName": "VO_WQ\\VO_dainsleif\\vo_WQDY001_6_dainsleif_22.wem",
        "rate": 1.0,
        "avatarName": "",
        "emotion": ""
      }
    ]
  },
  "5d50adc1-0966-49cb-8d40-0e5dc01489e8": {
    "guid": "5d50adc1-0966-49cb-8d40-0e5dc01489e8",
    "playRate": 1.0,
    "gameTrigger": "Dialog",
    "gameTriggerArgs": 180003804,
    "personalConfig": 2,
    "parentID": "705b49f0-67e4-4ce2-b760-2c407590dc1f",
    "sourceNames": [
      {
        "sourceFileName": "VO_WQ\\VO_dainsleif\\vo_WQDY001_6_dainsleif_34.wem",
        "rate": 1.0,
        "avatarName": "",
        "emotion": ""
      }
    ]
  },
  "5e0f9ef5-7643-412d-9413-7e736cf42d07": {
    "guid": "5e0f9ef5-7643-412d-9413-7e736cf42d07",
    "playRate": 1.0,
    "gameTrigger": "Dialog",
    "gameTriggerArgs": 180000512,
    "personalConfig": 2,
    "parentID": "705b49f0-67e4-4ce2-b760-2c407590dc1f",
    "sourceNames": [
      {
        "sourceFileName": "VO_WQ\\VO_dainsleif\\vo_WQDY001_6_dainsleif_06.wem",
        "rate": 1.0,
        "avatarName": "",
        "emotion": ""
      }
    ]
  },
  "615e7a91-bddf-480e-8629-6f02ce00a620": {
    "guid": "615e7a91-bddf-480e-8629-6f02ce00a620",
    "playRate": 1.0,
    "gameTrigger": "Dialog",
    "gameTriggerArgs": 180003807,
    "personalConfig": 2,
    "parentID": "705b49f0-67e4-4ce2-b760-2c407590dc1f",
    "sourceNames": [
      {
        "sourceFileName": "VO_WQ\\VO_dainsleif\\vo_WQDY001_6_dainsleif_36.wem",
        "rate": 1.0,
        "avatarName": "",
        "emotion": ""
      }
    ]
  },
  "6258046e-3417-4f7d-a76d-270217b3926e": {
    "guid": "6258046e-3417-4f7d-a76d-270217b3926e",
    "playRate": 1.0,
    "gameTrigger": "Dialog",
    "gameTriggerArgs": 180000520,
    "personalConfig": 2,
    "parentID": "705b49f0-67e4-4ce2-b760-2c407590dc1f",
    "sourceNames": [
      {
        "sourceFileName": "VO_WQ\\VO_dainsleif\\vo_WQDY001_6_dainsleif_09.wem",
        "rate": 1.0,
        "avatarName": "",
        "emotion": ""
      }
    ]
  },
  "65052654-e3b5-40f8-aa69-e2a829919008": {
    "guid": "65052654-e3b5-40f8-aa69-e2a829919008",
    "playRate": 1.0,
    "gameTrigger": "Dialog",
    "gameTriggerArgs": 180000518,
    "personalConfig": 2,
    "parentID": "705b49f0-67e4-4ce2-b760-2c407590dc1f",
    "sourceNames": [
      {
        "sourceFileName": "VO_WQ\\VO_dainsleif\\vo_WQDY001_6_dainsleif_08.wem",
        "rate": 1.0,
        "avatarName": "",
        "emotion": ""
      }
    ]
  },
  "65d68d33-1c07-4339-bb40-1050cc9afb09": {
    "guid": "65d68d33-1c07-4339-bb40-1050cc9afb09",
    "playRate": 1.0,
    "gameTrigger": "Dialog",
    "gameTriggerArgs": 180003822,
    "personalConfig": 2,
    "parentID": "705b49f0-67e4-4ce2-b760-2c407590dc1f",
    "sourceNames": [
      {
        "sourceFileName": "VO_WQ\\VO_dainsleif\\vo_WQDY001_6_dainsleif_43.wem",
        "rate": 1.0,
        "avatarName": "",
        "emotion": ""
      }
    ]
  },
  "67a289ff-3a09-411a-bf40-4d0fe6f12cfd": {
    "guid": "67a289ff-3a09-411a-bf40-4d0fe6f12cfd",
    "playRate": 1.0,
    "gameTrigger": "Dialog",
    "gameTriggerArgs": 180000549,
    "personalConfig": 2,
    "parentID": "705b49f0-67e4-4ce2-b760-2c407590dc1f",
    "sourceNames": [
      {
        "sourceFileName": "VO_WQ\\VO_dainsleif\\vo_WQDY001_6_dainsleif_24.wem",
        "rate": 1.0,
        "avatarName": "",
        "emotion": ""
      }
    ]
  },
  "6c395523-0700-4996-a649-5b989e3d0f59": {
    "guid": "6c395523-0700-4996-a649-5b989e3d0f59",
    "playRate": 1.0,
    "gameTrigger": "Dialog",
    "gameTriggerArgs": 180000560,
    "personalConfig": 2,
    "parentID": "705b49f0-67e4-4ce2-b760-2c407590dc1f",
    "sourceNames": [
      {
        "sourceFileName": "VO_WQ\\VO_dainsleif\\vo_WQDY001_6_dainsleif_29.wem",
        "rate": 1.0,
        "avatarName": "",
        "emotion": ""
      }
    ]
  },
  "7882fe79-4cc8-48fb-8b84-ff0cdaec2c1c": {
    "guid": "7882fe79-4cc8-48fb-8b84-ff0cdaec2c1c",
    "playRate": 1.0,
    "gameTrigger": "Dialog",
    "gameTriggerArgs": 180000546,
    "personalConfig": 2,
    "parentID": "705b49f0-67e4-4ce2-b760-2c407590dc1f",
    "sourceNames": [
      {
        "sourceFileName": "VO_WQ\\VO_dainsleif\\vo_WQDY001_6_dainsleif_21.wem",
        "rate": 1.0,
        "avatarName": "",
        "emotion": ""
      }
    ]
  },
  "7c910140-8602-42db-a927-09ef6383aa91": {
    "guid": "7c910140-8602-42db-a927-09ef6383aa91",
    "playRate": 1.0,
    "gameTrigger": "Dialog",
    "gameTriggerArgs": 180003803,
    "personalConfig": 2,
    "parentID": "705b49f0-67e4-4ce2-b760-2c407590dc1f",
    "sourceNames": [
      {
        "sourceFileName": "VO_WQ\\VO_dainsleif\\vo_WQDY001_6_dainsleif_33.wem",
        "rate": 1.0,
        "avatarName": "",
        "emotion": ""
      }
    ]
  },
  "8c725fb0-53ce-4f10-b88b-56521bd02378": {
    "guid": "8c725fb0-53ce-4f10-b88b-56521bd02378",
    "playRate": 1.0,
    "gameTrigger": "Dialog",
    "gameTriggerArgs": 180000532,
    "personalConfig": 2,
    "parentID": "705b49f0-67e4-4ce2-b760-2c407590dc1f",
    "sourceNames": [
      {
        "sourceFileName": "VO_WQ\\VO_dainsleif\\vo_WQDY001_6_dainsleif_14.wem",
        "rate": 1.0,
        "avatarName": "",
        "emotion": ""
      }
    ]
  },
  "8ed7d987-9398-4f80-ad74-ffdc9ead5dff": {
    "guid": "8ed7d987-9398-4f80-ad74-ffdc9ead5dff",
    "playRate": 1.0,
    "gameTrigger": "Dialog",
    "gameTriggerArgs": 180003801,
    "personalConfig": 2,
    "parentID": "705b49f0-67e4-4ce2-b760-2c407590dc1f",
    "sourceNames": [
      {
        "sourceFileName": "VO_WQ\\VO_paimon\\vo_WQDY001_6_paimon_06a.wem",
        "rate": 1.0,
        "avatarName": "",
        "emotion": "",
        "gender": 2
      },
      {
        "sourceFileName": "VO_WQ\\VO_paimon\\vo_WQDY001_6_paimon_06b.wem",
        "rate": 1.0,
        "avatarName": "",
        "emotion": "",
        "gender": 1
      }
    ]
  },
  "9b8a0218-7b5a-482b-9a34-21c72c3fd2d7": {
    "guid": "9b8a0218-7b5a-482b-9a34-21c72c3fd2d7",
    "playRate": 1.0,
    "gameTrigger": "Dialog",
    "gameTriggerArgs": 180003808,
    "personalConfig": 2,
    "parentID": "705b49f0-67e4-4ce2-b760-2c407590dc1f",
    "sourceNames": [
      {
        "sourceFileName": "VO_WQ\\VO_dainsleif\\vo_WQDY001_6_dainsleif_37.wem",
        "rate": 1.0,
        "avatarName": "",
        "emotion": ""
      }
    ]
  },
  "9d06d857-d38e-4c9a-b286-3838454dba93": {
    "guid": "9d06d857-d38e-4c9a-b286-3838454dba93",
    "playRate": 1.0,
    "gameTrigger": "Dialog",
    "gameTriggerArgs": 180000510,
    "personalConfig": 2,
    "parentID": "705b49f0-67e4-4ce2-b760-2c407590dc1f",
    "sourceNames": [
      {
        "sourceFileName": "VO_WQ\\VO_dainsleif\\vo_WQDY001_6_dainsleif_05.wem",
        "rate": 1.0,
        "avatarName": "",
        "emotion": ""
      }
    ]
  },
  "9e79d7eb-aecf-495b-bd3c-7129544fcaec": {
    "guid": "9e79d7eb-aecf-495b-bd3c-7129544fcaec",
    "playRate": 1.0,
    "gameTrigger": "Dialog",
    "gameTriggerArgs": 180000542,
    "personalConfig": 2,
    "parentID": "705b49f0-67e4-4ce2-b760-2c407590dc1f",
    "sourceNames": [
      {
        "sourceFileName": "VO_WQ\\VO_dainsleif\\vo_WQDY001_6_dainsleif_20.wem",
        "rate": 1.0,
        "avatarName": "",
        "emotion": ""
      }
    ]
  },
  "a0d9c268-ec45-4e97-9d78-97fb188d8bd8": {
    "guid": "a0d9c268-ec45-4e97-9d78-97fb188d8bd8",
    "playRate": 1.0,
    "gameTrigger": "Dialog",
    "gameTriggerArgs": 180003821,
    "personalConfig": 2,
    "parentID": "705b49f0-67e4-4ce2-b760-2c407590dc1f",
    "sourceNames": [
      {
        "sourceFileName": "VO_WQ\\VO_dainsleif\\vo_WQDY001_6_dainsleif_42.wem",
        "rate": 1.0,
        "avatarName": "",
        "emotion": ""
      }
    ]
  },
  "abf5d289-5460-473a-8722-9fe718923aec": {
    "guid": "abf5d289-5460-473a-8722-9fe718923aec",
    "playRate": 1.0,
    "gameTrigger": "Dialog",
    "gameTriggerArgs": 180000522,
    "personalConfig": 2,
    "DDNLACJICEC": 1,
    "parentID": "705b49f0-67e4-4ce2-b760-2c407590dc1f",
    "sourceNames": [
      {
        "sourceFileName": "VO_WQ\\VO_paimon\\vo_WQDY001_6_paimon_04.wem",
        "rate": 1.0,
        "avatarName": "",
        "emotion": ""
      }
    ]
  },
  "acfbf0ad-3386-492e-a211-32539224064f": {
    "guid": "acfbf0ad-3386-492e-a211-32539224064f",
    "playRate": 1.0,
    "gameTrigger": "Dialog",
    "gameTriggerArgs": 180000554,
    "personalConfig": 2,
    "parentID": "705b49f0-67e4-4ce2-b760-2c407590dc1f",
    "sourceNames": [
      {
        "sourceFileName": "VO_WQ\\VO_dainsleif\\vo_WQDY001_6_dainsleif_26.wem",
        "rate": 1.0,
        "avatarName": "",
        "emotion": ""
      }
    ]
  },
  "ada2b4d5-b3a8-48ae-afa9-b6f1316ad67d": {
    "guid": "ada2b4d5-b3a8-48ae-afa9-b6f1316ad67d",
    "playRate": 1.0,
    "gameTrigger": "Dialog",
    "gameTriggerArgs": 180000523,
    "personalConfig": 2,
    "parentID": "705b49f0-67e4-4ce2-b760-2c407590dc1f",
    "sourceNames": [
      {
        "sourceFileName": "VO_WQ\\VO_dainsleif\\vo_WQDY001_6_dainsleif_10.wem",
        "rate": 1.0,
        "avatarName": "",
        "emotion": ""
      }
    ]
  },
  "b0a84bbe-a2fa-4a94-a78c-cc5f2f11a78d": {
    "guid": "b0a84bbe-a2fa-4a94-a78c-cc5f2f11a78d",
    "playRate": 1.0,
    "gameTrigger": "Dialog",
    "gameTriggerArgs": 180000553,
    "personalConfig": 2,
    "parentID": "705b49f0-67e4-4ce2-b760-2c407590dc1f",
    "sourceNames": [
      {
        "sourceFileName": "VO_WQ\\VO_dainsleif\\vo_WQDY001_6_dainsleif_25.wem",
        "rate": 1.0,
        "avatarName": "",
        "emotion": ""
      }
    ]
  },
  "b1cf8b7c-bae7-4b49-aafc-186a5d9f1dd3": {
    "guid": "b1cf8b7c-bae7-4b49-aafc-186a5d9f1dd3",
    "playRate": 1.0,
    "gameTrigger": "Dialog",
    "gameTriggerArgs": 180003813,
    "personalConfig": 2,
    "parentID": "705b49f0-67e4-4ce2-b760-2c407590dc1f",
    "sourceNames": [
      {
        "sourceFileName": "VO_WQ\\VO_paimon\\vo_WQDY001_6_paimon_09.wem",
        "rate": 1.0,
        "avatarName": "",
        "emotion": ""
      }
    ]
  },
  "b6da87d4-8cc4-4779-817d-c9ec0df39dc7": {
    "guid": "b6da87d4-8cc4-4779-817d-c9ec0df39dc7",
    "playRate": 1.0,
    "gameTrigger": "Dialog",
    "gameTriggerArgs": 180003802,
    "personalConfig": 2,
    "parentID": "705b49f0-67e4-4ce2-b760-2c407590dc1f",
    "sourceNames": [
      {
        "sourceFileName": "VO_WQ\\VO_dainsleif\\vo_WQDY001_6_dainsleif_32.wem",
        "rate": 1.0,
        "avatarName": "",
        "emotion": ""
      }
    ]
  },
  "b77459fb-2636-4560-b7ed-162802875c3a": {
    "guid": "b77459fb-2636-4560-b7ed-162802875c3a",
    "playRate": 1.0,
    "gameTrigger": "Dialog",
    "gameTriggerArgs": 180000539,
    "personalConfig": 2,
    "parentID": "705b49f0-67e4-4ce2-b760-2c407590dc1f",
    "sourceNames": [
      {
        "sourceFileName": "VO_WQ\\VO_dainsleif\\vo_WQDY001_6_dainsleif_18.wem",
        "rate": 1.0,
        "avatarName": "",
        "emotion": ""
      }
    ]
  },
  "c476d260-8dbc-4a3c-9a9b-7ed4aef3e9bd": {
    "guid": "c476d260-8dbc-4a3c-9a9b-7ed4aef3e9bd",
    "playRate": 1.0,
    "gameTrigger": "Dialog",
    "gameTriggerArgs": 180000507,
    "personalConfig": 2,
    "parentID": "705b49f0-67e4-4ce2-b760-2c407590dc1f",
    "sourceNames": [
      {
        "sourceFileName": "VO_WQ\\VO_dainsleif\\vo_WQDY001_6_dainsleif_03.wem",
        "rate": 1.0,
        "avatarName": "",
        "emotion": ""
      }
    ]
  },
  "c6339e80-03c4-4ceb-b0d4-2191bb291637": {
    "guid": "c6339e80-03c4-4ceb-b0d4-2191bb291637",
    "playRate": 1.0,
    "gameTrigger": "Dialog",
    "gameTriggerArgs": 180000556,
    "personalConfig": 2,
    "parentID": "705b49f0-67e4-4ce2-b760-2c407590dc1f",
    "sourceNames": [
      {
        "sourceFileName": "VO_WQ\\VO_dainsleif\\vo_WQDY001_6_dainsleif_28.wem",
        "rate": 1.0,
        "avatarName": "",
        "emotion": ""
      }
    ]
  },
  "c6ca93d1-433f-4ead-b82e-868a1e3b3cb1": {
    "guid": "c6ca93d1-433f-4ead-b82e-868a1e3b3cb1",
    "playRate": 1.0,
    "gameTrigger": "Dialog",
    "gameTriggerArgs": 180000541,
    "personalConfig": 2,
    "parentID": "705b49f0-67e4-4ce2-b760-2c407590dc1f",
    "sourceNames": [
      {
        "sourceFileName": "VO_WQ\\VO_dainsleif\\vo_WQDY001_6_dainsleif_19.wem",
        "rate": 1.0,
        "avatarName": "",
        "emotion": ""
      }
    ]
  },
  "c7c19a7c-92d0-4e31-b060-ed811d46a41e": {
    "guid": "c7c19a7c-92d0-4e31-b060-ed811d46a41e",
    "playRate": 1.0,
    "gameTrigger": "Dialog",
    "gameTriggerArgs": 180003814,
    "personalConfig": 2,
    "parentID": "705b49f0-67e4-4ce2-b760-2c407590dc1f",
    "sourceNames": [
      {
        "sourceFileName": "VO_WQ\\VO_dainsleif\\vo_WQDY001_6_dainsleif_39.wem",
        "rate": 1.0,
        "avatarName": "",
        "emotion": ""
      }
    ]
  },
  "cb534266-f8b9-47aa-a7c5-3bd4021b07df": {
    "guid": "cb534266-f8b9-47aa-a7c5-3bd4021b07df",
    "playRate": 1.0,
    "gameTrigger": "Dialog",
    "gameTriggerArgs": 180000505,
    "personalConfig": 2,
    "parentID": "705b49f0-67e4-4ce2-b760-2c407590dc1f",
    "sourceNames": [
      {
        "sourceFileName": "VO_WQ\\VO_paimon\\vo_WQDY001_6_paimon_01.wem",
        "rate": 1.0,
        "avatarName": "",
        "emotion": ""
      }
    ]
  },
  "d8fcc3d8-eb4c-4581-84d1-35cfc04e2f32": {
    "guid": "d8fcc3d8-eb4c-4581-84d1-35cfc04e2f32",
    "playRate": 1.0,
    "gameTrigger": "Dialog",
    "gameTriggerArgs": 180000555,
    "personalConfig": 2,
    "parentID": "705b49f0-67e4-4ce2-b760-2c407590dc1f",
    "sourceNames": [
      {
        "sourceFileName": "VO_WQ\\VO_dainsleif\\vo_WQDY001_6_dainsleif_27.wem",
        "rate": 1.0,
        "avatarName": "",
        "emotion": ""
      }
    ]
  },
  "db0f13f2-18c5-4c04-ae72-8ebec784f248": {
    "guid": "db0f13f2-18c5-4c04-ae72-8ebec784f248",
    "playRate": 1.0,
    "gameTrigger": "Dialog",
    "gameTriggerArgs": 180000517,
    "personalConfig": 2,
    "parentID": "705b49f0-67e4-4ce2-b760-2c407590dc1f",
    "sourceNames": [
      {
        "sourceFileName": "VO_WQ\\VO_dainsleif\\vo_WQDY001_6_dainsleif_07.wem",
        "rate": 1.0,
        "avatarName": "",
        "emotion": ""
      }
    ]
  },
  "e320d435-686f-47fa-8256-627923433b73": {
    "guid": "e320d435-686f-47fa-8256-627923433b73",
    "playRate": 1.0,
    "gameTrigger": "Dialog",
    "gameTriggerArgs": 180000548,
    "personalConfig": 2,
    "parentID": "705b49f0-67e4-4ce2-b760-2c407590dc1f",
    "sourceNames": [
      {
        "sourceFileName": "VO_WQ\\VO_dainsleif\\vo_WQDY001_6_dainsleif_23.wem",
        "rate": 1.0,
        "avatarName": "",
        "emotion": ""
      }
    ]
  },
  "f1c488a2-3ba3-473d-951e-d8e90224a46e": {
    "guid": "f1c488a2-3ba3-473d-951e-d8e90224a46e",
    "playRate": 1.0,
    "gameTrigger": "Dialog",
    "gameTriggerArgs": 180003809,
    "personalConfig": 2,
    "parentID": "705b49f0-67e4-4ce2-b760-2c407590dc1f",
    "sourceNames": [
      {
        "sourceFileName": "VO_WQ\\VO_paimon\\vo_WQDY001_6_paimon_07.wem",
        "rate": 1.0,
        "avatarName": "",
        "emotion": ""
      }
    ]
  },
  "fda903c9-e66d-41a0-bb86-8ffb61f38a90": {
    "guid": "fda903c9-e66d-41a0-bb86-8ffb61f38a90",
    "playRate": 1.0,
    "gameTrigger": "Dialog",
    "gameTriggerArgs": 180000514,
    "personalConfig": 2,
    "parentID": "705b49f0-67e4-4ce2-b760-2c407590dc1f",
    "sourceNames": [
      {
        "sourceFileName": "VO_WQ\\VO_paimon\\vo_WQDY001_6_paimon_03a.wem",
        "rate": 1.0,
        "avatarName": "",
        "emotion": ""
      }
    ]
  }
}