{
  "09e20317-ef4c-4b14-b3dd-57f20dcb4148": {
    "guid": "09e20317-ef4c-4b14-b3dd-57f20dcb4148",
    "playRate": 1.0,
    "gameTrigger": "Dialog",
    "gameTriggerArgs": 693420203,
    "parentID": "4edc6220-8946-4d4e-9d3f-395d14bf625e",
    "sourceNames": [
      {
        "sourceFileName": "VO_Tower\\vo_itto_saferoom_challenge_03.wem",
        "rate": 1.0,
        "avatarName": "",
        "emotion": ""
      }
    ]
  },
  "3b32710e-0f33-40bb-bbfb-876af86cbabd": {
    "guid": "3b32710e-0f33-40bb-bbfb-876af86cbabd",
    "playRate": 1.0,
    "gameTrigger": "Dialog",
    "gameTriggerArgs": 693420202,
    "parentID": "4edc6220-8946-4d4e-9d3f-395d14bf625e",
    "sourceNames": [
      {
        "sourceFileName": "VO_Tower\\vo_itto_saferoom_challenge_02.wem",
        "rate": 1.0,
        "avatarName": "",
        "emotion": ""
      }
    ]
  },
  "3d46c8e0-fd88-497d-9e02-5cfc134a63b0": {
    "guid": "3d46c8e0-fd88-497d-9e02-5cfc134a63b0",
    "playRate": 1.0,
    "gameTrigger": "Dialog",
    "gameTriggerArgs": 693420201,
    "parentID": "4edc6220-8946-4d4e-9d3f-395d14bf625e",
    "sourceNames": [
      {
        "sourceFileName": "VO_Tower\\vo_itto_saferoom_challenge_01.wem",
        "rate": 1.0,
        "avatarName": "",
        "emotion": ""
      }
    ]
  },
  "8011a763-3bd9-4a4f-98f1-859b2d717fd2": {
    "guid": "8011a763-3bd9-4a4f-98f1-859b2d717fd2",
    "playRate": 1.0,
    "gameTrigger": "Dialog",
    "gameTriggerArgs": 693420102,
    "parentID": "4edc6220-8946-4d4e-9d3f-395d14bf625e",
    "sourceNames": [
      {
        "sourceFileName": "VO_Tower\\vo_itto_saferoom_rest_02.wem",
        "rate": 1.0,
        "avatarName": "",
        "emotion": ""
      }
    ]
  },
  "9d5c20c6-5e47-447d-b458-517ced521c68": {
    "guid": "9d5c20c6-5e47-447d-b458-517ced521c68",
    "playRate": 1.0,
    "gameTrigger": "Dialog",
    "gameTriggerArgs": 693420101,
    "parentID": "4edc6220-8946-4d4e-9d3f-395d14bf625e",
    "sourceNames": [
      {
        "sourceFileName": "VO_Tower\\vo_itto_saferoom_rest_01.wem",
        "rate": 1.0,
        "avatarName": "",
        "emotion": ""
      }
    ]
  },
  "b4f23cd0-f516-45a5-8f35-b101905f0e36": {
    "guid": "b4f23cd0-f516-45a5-8f35-b101905f0e36",
    "playRate": 1.0,
    "gameTrigger": "Dialog",
    "gameTriggerArgs": 693420303,
    "parentID": "4edc6220-8946-4d4e-9d3f-395d14bf625e",
    "sourceNames": [
      {
        "sourceFileName": "VO_Tower\\vo_itto_saferoom_others_03.wem",
        "rate": 1.0,
        "avatarName": "",
        "emotion": ""
      }
    ]
  },
  "c38e7b65-3888-400d-a0ab-201f3dc996ea": {
    "guid": "c38e7b65-3888-400d-a0ab-201f3dc996ea",
    "playRate": 1.0,
    "gameTrigger": "Dialog",
    "gameTriggerArgs": 693420301,
    "parentID": "4edc6220-8946-4d4e-9d3f-395d14bf625e",
    "sourceNames": [
      {
        "sourceFileName": "VO_Tower\\vo_itto_saferoom_others_01.wem",
        "rate": 1.0,
        "avatarName": "",
        "emotion": ""
      }
    ]
  },
  "e0203b45-646b-4ca0-ad9c-19965853a587": {
    "guid": "e0203b45-646b-4ca0-ad9c-19965853a587",
    "playRate": 1.0,
    "gameTrigger": "Dialog",
    "gameTriggerArgs": 693420103,
    "parentID": "4edc6220-8946-4d4e-9d3f-395d14bf625e",
    "sourceNames": [
      {
        "sourceFileName": "VO_Tower\\vo_itto_saferoom_rest_03.wem",
        "rate": 1.0,
        "avatarName": "",
        "emotion": ""
      }
    ]
  },
  "ee317ef2-cbd1-459c-a9fc-cb13ab7d2917": {
    "guid": "ee317ef2-cbd1-459c-a9fc-cb13ab7d2917",
    "playRate": 1.0,
    "gameTrigger": "Dialog",
    "gameTriggerArgs": 693420302,
    "parentID": "4edc6220-8946-4d4e-9d3f-395d14bf625e",
    "sourceNames": [
      {
        "sourceFileName": "VO_Tower\\vo_itto_saferoom_others_02.wem",
        "rate": 1.0,
        "avatarName": "",
        "emotion": ""
      }
    ]
  }
}