{
  "041a35de-57d3-4ac2-8d8e-3df407cd4043": {
    "guid": "041a35de-57d3-4ac2-8d8e-3df407cd4043",
    "playRate": 1.0,
    "gameTrigger": "Dialog",
    "gameTriggerArgs": 693220103,
    "parentID": "d7521556-d146-479d-b764-901e4f7a9573",
    "sourceNames": [
      {
        "sourceFileName": "VO_Tower\\vo_diona_saferoom_rest_03.wem",
        "rate": 1.0,
        "avatarName": "",
        "emotion": ""
      }
    ]
  },
  "3a83a828-ebf0-480c-8f39-9150a28404c5": {
    "guid": "3a83a828-ebf0-480c-8f39-9150a28404c5",
    "playRate": 1.0,
    "gameTrigger": "Dialog",
    "gameTriggerArgs": 693220201,
    "parentID": "d7521556-d146-479d-b764-901e4f7a9573",
    "sourceNames": [
      {
        "sourceFileName": "VO_Tower\\vo_diona_saferoom_challenge_01.wem",
        "rate": 1.0,
        "avatarName": "",
        "emotion": ""
      }
    ]
  },
  "3cc848f1-327e-4335-8ec9-f195a353f1a5": {
    "guid": "3cc848f1-327e-4335-8ec9-f195a353f1a5",
    "playRate": 1.0,
    "gameTrigger": "Dialog",
    "gameTriggerArgs": 693220301,
    "parentID": "d7521556-d146-479d-b764-901e4f7a9573",
    "sourceNames": [
      {
        "sourceFileName": "VO_Tower\\vo_diona_saferoom_others_01.wem",
        "rate": 1.0,
        "avatarName": "",
        "emotion": ""
      }
    ]
  },
  "9167efc0-f1e4-4440-b107-f1c50f232cc8": {
    "guid": "9167efc0-f1e4-4440-b107-f1c50f232cc8",
    "playRate": 1.0,
    "gameTrigger": "Dialog",
    "gameTriggerArgs": 693220303,
    "parentID": "d7521556-d146-479d-b764-901e4f7a9573",
    "sourceNames": [
      {
        "sourceFileName": "VO_Tower\\vo_diona_saferoom_others_03.wem",
        "rate": 1.0,
        "avatarName": "",
        "emotion": ""
      }
    ]
  },
  "b7043eea-5d3d-4542-9539-ef44e1767bcc": {
    "guid": "b7043eea-5d3d-4542-9539-ef44e1767bcc",
    "playRate": 1.0,
    "gameTrigger": "Dialog",
    "gameTriggerArgs": 693220302,
    "parentID": "d7521556-d146-479d-b764-901e4f7a9573",
    "sourceNames": [
      {
        "sourceFileName": "VO_Tower\\vo_diona_saferoom_others_02.wem",
        "rate": 1.0,
        "avatarName": "",
        "emotion": ""
      }
    ]
  },
  "bc97373a-83db-4c17-9397-0c50e9cf0adf": {
    "guid": "bc97373a-83db-4c17-9397-0c50e9cf0adf",
    "playRate": 1.0,
    "gameTrigger": "Dialog",
    "gameTriggerArgs": 693220102,
    "parentID": "d7521556-d146-479d-b764-901e4f7a9573",
    "sourceNames": [
      {
        "sourceFileName": "VO_Tower\\vo_diona_saferoom_rest_02.wem",
        "rate": 1.0,
        "avatarName": "",
        "emotion": ""
      }
    ]
  },
  "c126366c-7341-4512-87ee-ebef16c8bf76": {
    "guid": "c126366c-7341-4512-87ee-ebef16c8bf76",
    "playRate": 1.0,
    "gameTrigger": "Dialog",
    "gameTriggerArgs": 693220101,
    "parentID": "d7521556-d146-479d-b764-901e4f7a9573",
    "sourceNames": [
      {
        "sourceFileName": "VO_Tower\\vo_diona_saferoom_rest_01.wem",
        "rate": 1.0,
        "avatarName": "",
        "emotion": ""
      }
    ]
  },
  "c3f83c3b-53b3-4448-876e-a19014978296": {
    "guid": "c3f83c3b-53b3-4448-876e-a19014978296",
    "playRate": 1.0,
    "gameTrigger": "Dialog",
    "gameTriggerArgs": 693220202,
    "parentID": "d7521556-d146-479d-b764-901e4f7a9573",
    "sourceNames": [
      {
        "sourceFileName": "VO_Tower\\vo_diona_saferoom_challenge_02.wem",
        "rate": 1.0,
        "avatarName": "",
        "emotion": ""
      }
    ]
  },
  "e7176dad-1e3b-4eb5-9920-e8e6026f467c": {
    "guid": "e7176dad-1e3b-4eb5-9920-e8e6026f467c",
    "playRate": 1.0,
    "gameTrigger": "Dialog",
    "gameTriggerArgs": 693220203,
    "parentID": "d7521556-d146-479d-b764-901e4f7a9573",
    "sourceNames": [
      {
        "sourceFileName": "VO_Tower\\vo_diona_saferoom_challenge_03.wem",
        "rate": 1.0,
        "avatarName": "",
        "emotion": ""
      }
    ]
  }
}