{
  "0e8a7bcd-7290-4b5d-aa4d-ae79f645a87e": {
    "guid": "0e8a7bcd-7290-4b5d-aa4d-ae79f645a87e",
    "playRate": 1.0,
    "gameTrigger": "Dialog",
    "gameTriggerArgs": 130300206,
    "personalConfig": 2,
    "parentID": "9a91fac0-b3cc-409d-b2a1-77eaebdf5bb4",
    "sourceNames": [
      {
        "sourceFileName": "VO_LQ\\VO_yoimiya\\vo_XGLQ201_2_yoimiya_03.wem",
        "rate": 1.0,
        "avatarName": "",
        "emotion": ""
      }
    ]
  },
  "244be03b-ddc7-4a54-9ed4-fe99dd015a13": {
    "guid": "244be03b-ddc7-4a54-9ed4-fe99dd015a13",
    "playRate": 1.0,
    "gameTrigger": "Dialog",
    "gameTriggerArgs": 130300221,
    "personalConfig": 2,
    "parentID": "9a91fac0-b3cc-409d-b2a1-77eaebdf5bb4",
    "sourceNames": [
      {
        "sourceFileName": "VO_LQ\\VO_yoimiya\\vo_XGLQ201_2_yoimiya_09.wem",
        "rate": 1.0,
        "avatarName": "",
        "emotion": ""
      }
    ]
  },
  "26f4ffd1-4520-440f-bf84-b5e70f7c7dbe": {
    "guid": "26f4ffd1-4520-440f-bf84-b5e70f7c7dbe",
    "playRate": 1.0,
    "gameTrigger": "Dialog",
    "gameTriggerArgs": 130300205,
    "personalConfig": 2,
    "parentID": "9a91fac0-b3cc-409d-b2a1-77eaebdf5bb4",
    "sourceNames": [
      {
        "sourceFileName": "VO_LQ\\VO_yoimiya\\vo_XGLQ201_2_yoimiya_02.wem",
        "rate": 1.0,
        "avatarName": "",
        "emotion": ""
      }
    ]
  },
  "496c6347-3be7-4c64-9d59-a84d6017cdc7": {
    "guid": "496c6347-3be7-4c64-9d59-a84d6017cdc7",
    "playRate": 1.0,
    "gameTrigger": "Dialog",
    "gameTriggerArgs": 130300220,
    "personalConfig": 2,
    "parentID": "9a91fac0-b3cc-409d-b2a1-77eaebdf5bb4",
    "sourceNames": [
      {
        "sourceFileName": "VO_LQ\\VO_yoimiya\\vo_XGLQ201_2_yoimiya_08c_1.wem",
        "rate": 1.0,
        "avatarName": "",
        "emotion": ""
      }
    ]
  },
  "4d8d09b9-34b2-4a02-ac6a-18d3ac6ff223": {
    "guid": "4d8d09b9-34b2-4a02-ac6a-18d3ac6ff223",
    "playRate": 1.0,
    "gameTrigger": "Dialog",
    "gameTriggerArgs": 130309901,
    "personalConfig": 2,
    "DDNLACJICEC": 1,
    "parentID": "9a91fac0-b3cc-409d-b2a1-77eaebdf5bb4",
    "sourceNames": [
      {
        "sourceFileName": "VO_LQ\\VO_npc\\vo_XGLQ201_2_fayez_01.wem",
        "rate": 1.0,
        "avatarName": "",
        "emotion": ""
      }
    ]
  },
  "64da3628-2757-4e88-a81e-d4aee0cfb3a0": {
    "guid": "64da3628-2757-4e88-a81e-d4aee0cfb3a0",
    "playRate": 1.0,
    "gameTrigger": "Dialog",
    "gameTriggerArgs": 130300210,
    "personalConfig": 2,
    "parentID": "9a91fac0-b3cc-409d-b2a1-77eaebdf5bb4",
    "sourceNames": [
      {
        "sourceFileName": "VO_LQ\\VO_yoimiya\\vo_XGLQ201_2_yoimiya_04.wem",
        "rate": 1.0,
        "avatarName": "",
        "emotion": ""
      }
    ]
  },
  "6d8a26f9-3e2f-4e4d-94cd-f1c0eb890e80": {
    "guid": "6d8a26f9-3e2f-4e4d-94cd-f1c0eb890e80",
    "playRate": 1.0,
    "gameTrigger": "Dialog",
    "gameTriggerArgs": 130300222,
    "personalConfig": 2,
    "parentID": "9a91fac0-b3cc-409d-b2a1-77eaebdf5bb4",
    "sourceNames": [
      {
        "sourceFileName": "VO_LQ\\VO_yoimiya\\vo_XGLQ201_2_yoimiya_10.wem",
        "rate": 1.0,
        "avatarName": "",
        "emotion": ""
      }
    ]
  },
  "78d80b8f-2094-49b3-9b3d-4dd735e48b85": {
    "guid": "78d80b8f-2094-49b3-9b3d-4dd735e48b85",
    "playRate": 1.0,
    "gameTrigger": "Dialog",
    "gameTriggerArgs": 130300211,
    "personalConfig": 2,
    "parentID": "9a91fac0-b3cc-409d-b2a1-77eaebdf5bb4",
    "sourceNames": [
      {
        "sourceFileName": "VO_LQ\\VO_yoimiya\\vo_XGLQ201_2_yoimiya_05.wem",
        "rate": 1.0,
        "avatarName": "",
        "emotion": ""
      }
    ]
  },
  "7b95dc15-a05e-4d45-a8aa-b73693c2d8ff": {
    "guid": "7b95dc15-a05e-4d45-a8aa-b73693c2d8ff",
    "playRate": 1.0,
    "gameTrigger": "Dialog",
    "gameTriggerArgs": 130300207,
    "personalConfig": 2,
    "parentID": "9a91fac0-b3cc-409d-b2a1-77eaebdf5bb4",
    "sourceNames": [
      {
        "sourceFileName": "VO_LQ\\VO_paimon\\vo_XGLQ201_2_paimon_01.wem",
        "rate": 1.0,
        "avatarName": "",
        "emotion": ""
      }
    ]
  },
  "7e934859-6f43-4f4f-b835-b5f46551fdc0": {
    "guid": "7e934859-6f43-4f4f-b835-b5f46551fdc0",
    "playRate": 1.0,
    "gameTrigger": "Dialog",
    "gameTriggerArgs": 130300223,
    "personalConfig": 2,
    "parentID": "9a91fac0-b3cc-409d-b2a1-77eaebdf5bb4",
    "sourceNames": [
      {
        "sourceFileName": "VO_LQ\\VO_paimon\\vo_XGLQ201_2_paimon_03.wem",
        "rate": 1.0,
        "avatarName": "",
        "emotion": ""
      }
    ]
  },
  "8d2f5081-d2ad-4b59-8470-f6deab18d335": {
    "guid": "8d2f5081-d2ad-4b59-8470-f6deab18d335",
    "playRate": 1.0,
    "gameTrigger": "Dialog",
    "gameTriggerArgs": 130300218,
    "personalConfig": 2,
    "parentID": "9a91fac0-b3cc-409d-b2a1-77eaebdf5bb4",
    "sourceNames": [
      {
        "sourceFileName": "VO_LQ\\VO_yoimiya\\vo_XGLQ201_2_yoimiya_08b_1.wem",
        "rate": 1.0,
        "avatarName": "",
        "emotion": ""
      }
    ]
  },
  "9b86f3e4-fd67-4cf3-83f1-3ebf6beb7100": {
    "guid": "9b86f3e4-fd67-4cf3-83f1-3ebf6beb7100",
    "playRate": 1.0,
    "gameTrigger": "Dialog",
    "gameTriggerArgs": 130300216,
    "personalConfig": 2,
    "parentID": "9a91fac0-b3cc-409d-b2a1-77eaebdf5bb4",
    "sourceNames": [
      {
        "sourceFileName": "VO_LQ\\VO_yoimiya\\vo_XGLQ201_2_yoimiya_08a_1.wem",
        "rate": 1.0,
        "avatarName": "",
        "emotion": ""
      }
    ]
  },
  "aca3a255-b1e6-472b-a589-43b2cd473e09": {
    "guid": "aca3a255-b1e6-472b-a589-43b2cd473e09",
    "playRate": 1.0,
    "gameTrigger": "Dialog",
    "gameTriggerArgs": 130300204,
    "personalConfig": 2,
    "parentID": "9a91fac0-b3cc-409d-b2a1-77eaebdf5bb4",
    "sourceNames": [
      {
        "sourceFileName": "VO_LQ\\VO_yoimiya\\vo_XGLQ201_2_yoimiya_01.wem",
        "rate": 1.0,
        "avatarName": "",
        "emotion": ""
      }
    ]
  },
  "b5cc8b2c-a007-4023-9ed2-b9535819f074": {
    "guid": "b5cc8b2c-a007-4023-9ed2-b9535819f074",
    "playRate": 1.0,
    "gameTrigger": "Dialog",
    "gameTriggerArgs": 130300213,
    "personalConfig": 2,
    "parentID": "9a91fac0-b3cc-409d-b2a1-77eaebdf5bb4",
    "sourceNames": [
      {
        "sourceFileName": "VO_LQ\\VO_paimon\\vo_XGLQ201_2_paimon_02.wem",
        "rate": 1.0,
        "avatarName": "",
        "emotion": ""
      }
    ]
  },
  "bf5375be-ef18-4662-870c-482e9f391b5c": {
    "guid": "bf5375be-ef18-4662-870c-482e9f391b5c",
    "playRate": 1.0,
    "gameTrigger": "Dialog",
    "gameTriggerArgs": 130300212,
    "personalConfig": 2,
    "parentID": "9a91fac0-b3cc-409d-b2a1-77eaebdf5bb4",
    "sourceNames": [
      {
        "sourceFileName": "VO_LQ\\VO_yoimiya\\vo_XGLQ201_2_yoimiya_06.wem",
        "rate": 1.0,
        "avatarName": "",
        "emotion": ""
      }
    ]
  },
  "e93cb7dd-4731-4e9a-a978-0e805166f679": {
    "guid": "e93cb7dd-4731-4e9a-a978-0e805166f679",
    "playRate": 1.0,
    "gameTrigger": "Dialog",
    "gameTriggerArgs": 130300214,
    "personalConfig": 2,
    "parentID": "9a91fac0-b3cc-409d-b2a1-77eaebdf5bb4",
    "sourceNames": [
      {
        "sourceFileName": "VO_LQ\\VO_yoimiya\\vo_XGLQ201_2_yoimiya_07.wem",
        "rate": 1.0,
        "avatarName": "",
        "emotion": ""
      }
    ]
  },
  "fb1e303b-2cff-40e2-b722-e78a781fdcfd": {
    "guid": "fb1e303b-2cff-40e2-b722-e78a781fdcfd",
    "playRate": 1.0,
    "gameTrigger": "Dialog",
    "gameTriggerArgs": 130300225,
    "personalConfig": 2,
    "parentID": "9a91fac0-b3cc-409d-b2a1-77eaebdf5bb4",
    "sourceNames": [
      {
        "sourceFileName": "VO_LQ\\VO_yoimiya\\vo_XGLQ201_2_yoimiya_11.wem",
        "rate": 1.0,
        "avatarName": "",
        "emotion": ""
      }
    ]
  },
  "fec96541-2925-431e-9c16-f8bfacedd045": {
    "guid": "fec96541-2925-431e-9c16-f8bfacedd045",
    "playRate": 1.0,
    "gameTrigger": "Dialog",
    "gameTriggerArgs": 130300226,
    "personalConfig": 2,
    "parentID": "9a91fac0-b3cc-409d-b2a1-77eaebdf5bb4",
    "sourceNames": [
      {
        "sourceFileName": "VO_LQ\\VO_yoimiya\\vo_XGLQ201_2_yoimiya_12.wem",
        "rate": 1.0,
        "avatarName": "",
        "emotion": ""
      }
    ]
  }
}