{
  "5b70263f-d1a3-4418-92ae-244364b6ea0d": {
    "guid": "5b70263f-d1a3-4418-92ae-244364b6ea0d",
    "playRate": 1.0,
    "gameTrigger": "JoinTeam",
    "gameTriggerArgs": 357,
    "parentID": "2ea6ebc3-3f11-4e62-a76d-98ad6d8e5bab",
    "sourceNames": [
      {
        "sourceFileName": "VO_teamJoin\\vo_ambor_teamJoin_01.wem",
        "rate": 1.0,
        "avatarName": "Switch_ambor",
        "emotion": ""
      },
      {
        "sourceFileName": "VO_teamJoin\\vo_ambor_teamJoin_02.wem",
        "rate": 1.0,
        "avatarName": "Switch_ambor",
        "emotion": ""
      },
      {
        "sourceFileName": "VO_teamJoin\\vo_ambor_teamJoin_03.wem",
        "rate": 1.0,
        "avatarName": "Switch_ambor",
        "emotion": ""
      },
      {
        "sourceFileName": "VO_teamJoin\\vo_ayaka_teamJoin_01.wem",
        "rate": 1.0,
        "avatarName": "Switch_ayaka",
        "emotion": ""
      },
      {
        "sourceFileName": "VO_teamJoin\\vo_ayaka_teamJoin_02.wem",
        "rate": 1.0,
        "avatarName": "Switch_ayaka",
        "emotion": ""
      },
      {
        "sourceFileName": "VO_teamJoin\\vo_ayaka_teamJoin_03.wem",
        "rate": 1.0,
        "avatarName": "Switch_ayaka",
        "emotion": ""
      },
      {
        "sourceFileName": "VO_teamJoin\\vo_barbara_teamJoin_01.wem",
        "rate": 1.0,
        "avatarName": "Switch_barbara",
        "emotion": ""
      },
      {
        "sourceFileName": "VO_teamJoin\\vo_barbara_teamJoin_02.wem",
        "rate": 1.0,
        "avatarName": "Switch_barbara",
        "emotion": ""
      },
      {
        "sourceFileName": "VO_teamJoin\\vo_barbara_teamJoin_03.wem",
        "rate": 1.0,
        "avatarName": "Switch_barbara",
        "emotion": ""
      },
      {
        "sourceFileName": "VO_teamJoin\\vo_beidou_teamJoin_01.wem",
        "rate": 1.0,
        "avatarName": "Switch_beidou",
        "emotion": ""
      },
      {
        "sourceFileName": "VO_teamJoin\\vo_beidou_teamJoin_02.wem",
        "rate": 1.0,
        "avatarName": "Switch_beidou",
        "emotion": ""
      },
      {
        "sourceFileName": "VO_teamJoin\\vo_beidou_teamJoin_03.wem",
        "rate": 1.0,
        "avatarName": "Switch_beidou",
        "emotion": ""
      },
      {
        "sourceFileName": "VO_teamJoin\\vo_bennett_teamJoin_01.wem",
        "rate": 1.0,
        "avatarName": "Switch_bennett",
        "emotion": ""
      },
      {
        "sourceFileName": "VO_teamJoin\\vo_bennett_teamJoin_02.wem",
        "rate": 1.0,
        "avatarName": "Switch_bennett",
        "emotion": ""
      },
      {
        "sourceFileName": "VO_teamJoin\\vo_bennett_teamJoin_03.wem",
        "rate": 1.0,
        "avatarName": "Switch_bennett",
        "emotion": ""
      },
      {
        "sourceFileName": "VO_teamJoin\\vo_chongyun_teamJoin_01.wem",
        "rate": 1.0,
        "avatarName": "Switch_chongyun",
        "emotion": ""
      },
      {
        "sourceFileName": "VO_teamJoin\\vo_chongyun_teamJoin_02.wem",
        "rate": 1.0,
        "avatarName": "Switch_chongyun",
        "emotion": ""
      },
      {
        "sourceFileName": "VO_teamJoin\\vo_chongyun_teamJoin_03.wem",
        "rate": 1.0,
        "avatarName": "Switch_chongyun",
        "emotion": ""
      },
      {
        "sourceFileName": "VO_teamJoin\\vo_diluc_teamJoin_01.wem",
        "rate": 1.0,
        "avatarName": "Switch_diluc",
        "emotion": ""
      },
      {
        "sourceFileName": "VO_teamJoin\\vo_diluc_teamJoin_02.wem",
        "rate": 1.0,
        "avatarName": "Switch_diluc",
        "emotion": ""
      },
      {
        "sourceFileName": "VO_teamJoin\\vo_diluc_teamJoin_03.wem",
        "rate": 1.0,
        "avatarName": "Switch_diluc",
        "emotion": ""
      },
      {
        "sourceFileName": "VO_teamJoin\\vo_fischl_teamJoin_01.wem",
        "rate": 1.0,
        "avatarName": "Switch_fischl",
        "emotion": ""
      },
      {
        "sourceFileName": "VO_teamJoin\\vo_fischl_teamJoin_02.wem",
        "rate": 1.0,
        "avatarName": "Switch_fischl",
        "emotion": ""
      },
      {
        "sourceFileName": "VO_teamJoin\\vo_fischl_teamJoin_03.wem",
        "rate": 1.0,
        "avatarName": "Switch_fischl",
        "emotion": ""
      },
      {
        "sourceFileName": "VO_teamJoin\\vo_ganyu_teamJoin_01.wem",
        "rate": 1.0,
        "avatarName": "Switch_ganyu",
        "emotion": ""
      },
      {
        "sourceFileName": "VO_teamJoin\\vo_ganyu_teamJoin_02.wem",
        "rate": 1.0,
        "avatarName": "Switch_ganyu",
        "emotion": ""
      },
      {
        "sourceFileName": "VO_teamJoin\\vo_ganyu_teamJoin_03.wem",
        "rate": 1.0,
        "avatarName": "Switch_ganyu",
        "emotion": ""
      },
      {
        "sourceFileName": "VO_teamJoin\\vo_hero_teamJoin_01.wem",
        "rate": 1.0,
        "avatarName": "Switch_hero",
        "emotion": ""
      },
      {
        "sourceFileName": "VO_teamJoin\\vo_hero_teamJoin_02.wem",
        "rate": 1.0,
        "avatarName": "Switch_hero",
        "emotion": ""
      },
      {
        "sourceFileName": "VO_teamJoin\\vo_hero_teamJoin_03.wem",
        "rate": 1.0,
        "avatarName": "Switch_hero",
        "emotion": ""
      },
      {
        "sourceFileName": "VO_teamJoin\\vo_heroine_teamJoin_01.wem",
        "rate": 1.0,
        "avatarName": "Switch_heroine",
        "emotion": ""
      },
      {
        "sourceFileName": "VO_teamJoin\\vo_heroine_teamJoin_02.wem",
        "rate": 1.0,
        "avatarName": "Switch_heroine",
        "emotion": ""
      },
      {
        "sourceFileName": "VO_teamJoin\\vo_heroine_teamJoin_03.wem",
        "rate": 1.0,
        "avatarName": "Switch_heroine",
        "emotion": ""
      },
      {
        "sourceFileName": "VO_teamJoin\\vo_kaeya_teamJoin_01.wem",
        "rate": 1.0,
        "avatarName": "Switch_kaeya",
        "emotion": ""
      },
      {
        "sourceFileName": "VO_teamJoin\\vo_kaeya_teamJoin_02.wem",
        "rate": 1.0,
        "avatarName": "Switch_kaeya",
        "emotion": ""
      },
      {
        "sourceFileName": "VO_teamJoin\\vo_kaeya_teamJoin_03.wem",
        "rate": 1.0,
        "avatarName": "Switch_kaeya",
        "emotion": ""
      },
      {
        "sourceFileName": "VO_teamJoin\\vo_klee_teamJoin_01.wem",
        "rate": 1.0,
        "avatarName": "Switch_klee",
        "emotion": ""
      },
      {
        "sourceFileName": "VO_teamJoin\\vo_klee_teamJoin_02.wem",
        "rate": 1.0,
        "avatarName": "Switch_klee",
        "emotion": ""
      },
      {
        "sourceFileName": "VO_teamJoin\\vo_klee_teamJoin_03.wem",
        "rate": 1.0,
        "avatarName": "Switch_klee",
        "emotion": ""
      },
      {
        "sourceFileName": "VO_teamJoin\\vo_lisa_teamJoin_01a.wem",
        "rate": 1.0,
        "avatarName": "Switch_lisa",
        "emotion": "",
        "gender": 2
      },
      {
        "sourceFileName": "VO_teamJoin\\vo_lisa_teamJoin_01b.wem",
        "rate": 1.0,
        "avatarName": "Switch_lisa",
        "emotion": "",
        "gender": 1
      },
      {
        "sourceFileName": "VO_teamJoin\\vo_lisa_teamJoin_02.wem",
        "rate": 1.0,
        "avatarName": "Switch_lisa",
        "emotion": ""
      },
      {
        "sourceFileName": "VO_teamJoin\\vo_lisa_teamJoin_03.wem",
        "rate": 1.0,
        "avatarName": "Switch_lisa",
        "emotion": ""
      },
      {
        "sourceFileName": "VO_teamJoin\\vo_mona_teamJoin_01.wem",
        "rate": 1.0,
        "avatarName": "Switch_mona",
        "emotion": ""
      },
      {
        "sourceFileName": "VO_teamJoin\\vo_mona_teamJoin_02.wem",
        "rate": 1.0,
        "avatarName": "Switch_mona",
        "emotion": ""
      },
      {
        "sourceFileName": "VO_teamJoin\\vo_mona_teamJoin_03.wem",
        "rate": 1.0,
        "avatarName": "Switch_mona",
        "emotion": ""
      },
      {
        "sourceFileName": "VO_teamJoin\\vo_noel_teamJoin_01.wem",
        "rate": 1.0,
        "avatarName": "Switch_noel",
        "emotion": ""
      },
      {
        "sourceFileName": "VO_teamJoin\\vo_noel_teamJoin_02.wem",
        "rate": 1.0,
        "avatarName": "Switch_noel",
        "emotion": ""
      },
      {
        "sourceFileName": "VO_teamJoin\\vo_noel_teamJoin_03.wem",
        "rate": 1.0,
        "avatarName": "Switch_noel",
        "emotion": ""
      },
      {
        "sourceFileName": "VO_teamJoin\\vo_qin_teamJoin_01.wem",
        "rate": 1.0,
        "avatarName": "Switch_qin",
        "emotion": ""
      },
      {
        "sourceFileName": "VO_teamJoin\\vo_qin_teamJoin_02.wem",
        "rate": 1.0,
        "avatarName": "Switch_qin",
        "emotion": ""
      },
      {
        "sourceFileName": "VO_teamJoin\\vo_qin_teamJoin_03.wem",
        "rate": 1.0,
        "avatarName": "Switch_qin",
        "emotion": ""
      },
      {
        "sourceFileName": "VO_teamJoin\\vo_qiqi_teamJoin_01.wem",
        "rate": 1.0,
        "avatarName": "Switch_qiqi",
        "emotion": ""
      },
      {
        "sourceFileName": "VO_teamJoin\\vo_qiqi_teamJoin_02.wem",
        "rate": 1.0,
        "avatarName": "Switch_qiqi",
        "emotion": ""
      },
      {
        "sourceFileName": "VO_teamJoin\\vo_qiqi_teamJoin_03.wem",
        "rate": 1.0,
        "avatarName": "Switch_qiqi",
        "emotion": ""
      },
      {
        "sourceFileName": "VO_teamJoin\\vo_razor_teamJoin_01.wem",
        "rate": 1.0,
        "avatarName": "Switch_razor",
        "emotion": ""
      },
      {
        "sourceFileName": "VO_teamJoin\\vo_razor_teamJoin_02.wem",
        "rate": 1.0,
        "avatarName": "Switch_razor",
        "emotion": ""
      },
      {
        "sourceFileName": "VO_teamJoin\\vo_razor_teamJoin_03.wem",
        "rate": 1.0,
        "avatarName": "Switch_razor",
        "emotion": ""
      },
      {
        "sourceFileName": "VO_teamJoin\\vo_tartaglia_teamJoin_01.wem",
        "rate": 1.0,
        "avatarName": "Switch_tartaglia",
        "emotion": ""
      },
      {
        "sourceFileName": "VO_teamJoin\\vo_tartaglia_teamJoin_02.wem",
        "rate": 1.0,
        "avatarName": "Switch_tartaglia",
        "emotion": ""
      },
      {
        "sourceFileName": "VO_teamJoin\\vo_tartaglia_teamJoin_03.wem",
        "rate": 1.0,
        "avatarName": "Switch_tartaglia",
        "emotion": ""
      },
      {
        "sourceFileName": "VO_teamJoin\\vo_venti_teamJoin_01.wem",
        "rate": 1.0,
        "avatarName": "Switch_venti",
        "emotion": ""
      },
      {
        "sourceFileName": "VO_teamJoin\\vo_venti_teamJoin_02.wem",
        "rate": 1.0,
        "avatarName": "Switch_venti",
        "emotion": ""
      },
      {
        "sourceFileName": "VO_teamJoin\\vo_venti_teamJoin_03.wem",
        "rate": 1.0,
        "avatarName": "Switch_venti",
        "emotion": ""
      },
      {
        "sourceFileName": "VO_teamJoin\\vo_xiangling_teamJoin_01.wem",
        "rate": 1.0,
        "avatarName": "Switch_xiangling",
        "emotion": ""
      },
      {
        "sourceFileName": "VO_teamJoin\\vo_xiangling_teamJoin_02.wem",
        "rate": 1.0,
        "avatarName": "Switch_xiangling",
        "emotion": ""
      },
      {
        "sourceFileName": "VO_teamJoin\\vo_xiangling_teamJoin_03.wem",
        "rate": 1.0,
        "avatarName": "Switch_xiangling",
        "emotion": ""
      },
      {
        "sourceFileName": "VO_teamJoin\\vo_xiao_teamJoin_01.wem",
        "rate": 1.0,
        "avatarName": "Switch_xiao",
        "emotion": ""
      },
      {
        "sourceFileName": "VO_teamJoin\\vo_xiao_teamJoin_02.wem",
        "rate": 1.0,
        "avatarName": "Switch_xiao",
        "emotion": ""
      },
      {
        "sourceFileName": "VO_teamJoin\\vo_xiao_teamJoin_03.wem",
        "rate": 1.0,
        "avatarName": "Switch_xiao",
        "emotion": ""
      },
      {
        "sourceFileName": "VO_teamJoin\\vo_xingqiu_teamJoin_01.wem",
        "rate": 1.0,
        "avatarName": "Switch_xingqiu",
        "emotion": ""
      },
      {
        "sourceFileName": "VO_teamJoin\\vo_xingqiu_teamJoin_02.wem",
        "rate": 1.0,
        "avatarName": "Switch_xingqiu",
        "emotion": ""
      },
      {
        "sourceFileName": "VO_teamJoin\\vo_xingqiu_teamJoin_03.wem",
        "rate": 1.0,
        "avatarName": "Switch_xingqiu",
        "emotion": ""
      },
      {
        "sourceFileName": "VO_teamJoin\\vo_zhongli_teamJoin_01.wem",
        "rate": 1.0,
        "avatarName": "Switch_zhongli",
        "emotion": ""
      },
      {
        "sourceFileName": "VO_teamJoin\\vo_zhongli_teamJoin_02.wem",
        "rate": 1.0,
        "avatarName": "Switch_zhongli",
        "emotion": ""
      },
      {
        "sourceFileName": "VO_teamJoin\\vo_zhongli_teamJoin_03.wem",
        "rate": 1.0,
        "avatarName": "Switch_zhongli",
        "emotion": ""
      },
      {
        "sourceFileName": "VO_teamJoin\\vo_keqing_teamJoin_03.wem",
        "rate": 1.0,
        "avatarName": "Switch_keqing",
        "emotion": ""
      },
      {
        "sourceFileName": "VO_teamJoin\\vo_ningguang_teamJoin_01.wem",
        "rate": 1.0,
        "avatarName": "Switch_ningguang",
        "emotion": ""
      },
      {
        "sourceFileName": "VO_teamJoin\\vo_ningguang_teamJoin_02.wem",
        "rate": 1.0,
        "avatarName": "Switch_ningguang",
        "emotion": ""
      },
      {
        "sourceFileName": "VO_teamJoin\\vo_ningguang_teamJoin_03.wem",
        "rate": 1.0,
        "avatarName": "Switch_ningguang",
        "emotion": ""
      },
      {
        "sourceFileName": "VO_teamJoin\\vo_sucrose_teamJoin_01.wem",
        "rate": 1.0,
        "avatarName": "Switch_sucrose",
        "emotion": ""
      },
      {
        "sourceFileName": "VO_teamJoin\\vo_sucrose_teamJoin_02.wem",
        "rate": 1.0,
        "avatarName": "Switch_sucrose",
        "emotion": ""
      },
      {
        "sourceFileName": "VO_teamJoin\\vo_sucrose_teamJoin_03.wem",
        "rate": 1.0,
        "avatarName": "Switch_sucrose",
        "emotion": ""
      },
      {
        "sourceFileName": "VO_teamJoin\\vo_keqing_teamJoin_01.wem",
        "rate": 1.0,
        "avatarName": "Switch_keqing",
        "emotion": ""
      },
      {
        "sourceFileName": "VO_teamJoin\\vo_keqing_teamJoin_02.wem",
        "rate": 1.0,
        "avatarName": "Switch_keqing",
        "emotion": ""
      },
      {
        "sourceFileName": "VO_teamJoin\\vo_diona_teamJoin_02.wem",
        "rate": 1.0,
        "avatarName": "Switch_diona",
        "emotion": ""
      },
      {
        "sourceFileName": "VO_teamJoin\\vo_diona_teamJoin_03.wem",
        "rate": 1.0,
        "avatarName": "Switch_diona",
        "emotion": ""
      },
      {
        "sourceFileName": "VO_teamJoin\\vo_diona_teamJoin_01.wem",
        "rate": 1.0,
        "avatarName": "Switch_diona",
        "emotion": ""
      },
      {
        "sourceFileName": "VO_teamJoin\\vo_xinyan_teamJoin_01.wem",
        "rate": 1.0,
        "avatarName": "Switch_xinyan",
        "emotion": ""
      },
      {
        "sourceFileName": "VO_teamJoin\\vo_xinyan_teamJoin_02.wem",
        "rate": 1.0,
        "avatarName": "Switch_xinyan",
        "emotion": ""
      },
      {
        "sourceFileName": "VO_teamJoin\\vo_xinyan_teamJoin_03.wem",
        "rate": 1.0,
        "avatarName": "Switch_xinyan",
        "emotion": ""
      },
      {
        "sourceFileName": "VO_teamJoin\\vo_albedo_teamJoin_01.wem",
        "rate": 1.0,
        "avatarName": "Switch_albedo",
        "emotion": ""
      },
      {
        "sourceFileName": "VO_teamJoin\\vo_albedo_teamJoin_02.wem",
        "rate": 1.0,
        "avatarName": "Switch_albedo",
        "emotion": ""
      },
      {
        "sourceFileName": "VO_teamJoin\\vo_albedo_teamJoin_03.wem",
        "rate": 1.0,
        "avatarName": "Switch_albedo",
        "emotion": ""
      },
      {
        "sourceFileName": "VO_teamJoin\\vo_rosaria_teamJoin_01.wem",
        "rate": 1.0,
        "avatarName": "Switch_rosaria",
        "emotion": ""
      },
      {
        "sourceFileName": "VO_teamJoin\\vo_rosaria_teamJoin_02.wem",
        "rate": 1.0,
        "avatarName": "Switch_rosaria",
        "emotion": ""
      },
      {
        "sourceFileName": "VO_teamJoin\\vo_rosaria_teamJoin_03.wem",
        "rate": 1.0,
        "avatarName": "Switch_rosaria",
        "emotion": ""
      },
      {
        "sourceFileName": "VO_teamJoin\\vo_hutao_teamJoin_01.wem",
        "rate": 1.0,
        "avatarName": "Switch_hutao",
        "emotion": ""
      },
      {
        "sourceFileName": "VO_teamJoin\\vo_hutao_teamJoin_02.wem",
        "rate": 1.0,
        "avatarName": "Switch_hutao",
        "emotion": ""
      },
      {
        "sourceFileName": "VO_teamJoin\\vo_hutao_teamJoin_03.wem",
        "rate": 1.0,
        "avatarName": "Switch_hutao",
        "emotion": ""
      },
      {
        "sourceFileName": "VO_teamJoin\\vo_yanfei_teamJoin_01.wem",
        "rate": 1.0,
        "avatarName": "Switch_yanfei",
        "emotion": ""
      },
      {
        "sourceFileName": "VO_teamJoin\\vo_yanfei_teamJoin_02.wem",
        "rate": 1.0,
        "avatarName": "Switch_yanfei",
        "emotion": ""
      },
      {
        "sourceFileName": "VO_teamJoin\\vo_yanfei_teamJoin_03.wem",
        "rate": 1.0,
        "avatarName": "Switch_yanfei",
        "emotion": ""
      },
      {
        "sourceFileName": "VO_teamJoin\\vo_eula_teamJoin_01.wem",
        "rate": 1.0,
        "avatarName": "Switch_eula",
        "emotion": ""
      },
      {
        "sourceFileName": "VO_teamJoin\\vo_eula_teamJoin_02.wem",
        "rate": 1.0,
        "avatarName": "Switch_eula",
        "emotion": ""
      },
      {
        "sourceFileName": "VO_teamJoin\\vo_eula_teamJoin_03.wem",
        "rate": 1.0,
        "avatarName": "Switch_eula",
        "emotion": ""
      },
      {
        "sourceFileName": "VO_teamJoin\\vo_kazuha_teamJoin_02.wem",
        "rate": 1.0,
        "avatarName": "Switch_kazuha",
        "emotion": ""
      },
      {
        "sourceFileName": "VO_teamJoin\\vo_kazuha_teamJoin_03.wem",
        "rate": 1.0,
        "avatarName": "Switch_kazuha",
        "emotion": ""
      },
      {
        "sourceFileName": "VO_teamJoin\\vo_kazuha_teamJoin_01.wem",
        "rate": 1.0,
        "avatarName": "Switch_kazuha",
        "emotion": ""
      },
      {
        "sourceFileName": "VO_teamJoin\\vo_yoimiya_teamJoin_01.wem",
        "rate": 1.0,
        "avatarName": "Switch_yoimiya",
        "emotion": ""
      },
      {
        "sourceFileName": "VO_teamJoin\\vo_yoimiya_teamJoin_02.wem",
        "rate": 1.0,
        "avatarName": "Switch_yoimiya",
        "emotion": ""
      },
      {
        "sourceFileName": "VO_teamJoin\\vo_yoimiya_teamJoin_03.wem",
        "rate": 1.0,
        "avatarName": "Switch_yoimiya",
        "emotion": ""
      },
      {
        "sourceFileName": "VO_teamJoin\\vo_sayu_teamJoin_03.wem",
        "rate": 1.0,
        "avatarName": "Switch_sayu",
        "emotion": ""
      },
      {
        "sourceFileName": "VO_teamJoin\\vo_sayu_teamJoin_01.wem",
        "rate": 1.0,
        "avatarName": "Switch_sayu",
        "emotion": ""
      },
      {
        "sourceFileName": "VO_teamJoin\\vo_sayu_teamJoin_02.wem",
        "rate": 1.0,
        "avatarName": "Switch_sayu",
        "emotion": ""
      },
      {
        "sourceFileName": "VO_teamJoin\\vo_kokomi_teamJoin_01.wem",
        "rate": 1.0,
        "avatarName": "Switch_kokomi",
        "emotion": ""
      },
      {
        "sourceFileName": "VO_teamJoin\\vo_kokomi_teamJoin_02.wem",
        "rate": 1.0,
        "avatarName": "Switch_kokomi",
        "emotion": ""
      },
      {
        "sourceFileName": "VO_teamJoin\\vo_kokomi_teamJoin_03.wem",
        "rate": 1.0,
        "avatarName": "Switch_kokomi",
        "emotion": ""
      },
      {
        "sourceFileName": "VO_teamJoin\\vo_kujouSara_teamJoin_01.wem",
        "rate": 1.0,
        "avatarName": "Switch_kujouSara",
        "emotion": ""
      },
      {
        "sourceFileName": "VO_teamJoin\\vo_kujouSara_teamJoin_02.wem",
        "rate": 1.0,
        "avatarName": "Switch_kujouSara",
        "emotion": ""
      },
      {
        "sourceFileName": "VO_teamJoin\\vo_kujouSara_teamJoin_03.wem",
        "rate": 1.0,
        "avatarName": "Switch_kujouSara",
        "emotion": ""
      },
      {
        "sourceFileName": "VO_teamJoin\\vo_raidenShogun_teamJoin_01.wem",
        "rate": 1.0,
        "avatarName": "Switch_raidenShogun",
        "emotion": ""
      },
      {
        "sourceFileName": "VO_teamJoin\\vo_raidenShogun_teamJoin_02.wem",
        "rate": 1.0,
        "avatarName": "Switch_raidenShogun",
        "emotion": ""
      },
      {
        "sourceFileName": "VO_teamJoin\\vo_raidenShogun_teamJoin_03.wem",
        "rate": 1.0,
        "avatarName": "Switch_raidenShogun",
        "emotion": ""
      },
      {
        "sourceFileName": "VO_teamJoin\\vo_aloy_teamJoin_01.wem",
        "rate": 1.0,
        "avatarName": "Switch_aloy",
        "emotion": ""
      },
      {
        "sourceFileName": "VO_teamJoin\\vo_aloy_teamJoin_02.wem",
        "rate": 1.0,
        "avatarName": "Switch_aloy",
        "emotion": ""
      },
      {
        "sourceFileName": "VO_teamJoin\\vo_aloy_teamJoin_03.wem",
        "rate": 1.0,
        "avatarName": "Switch_aloy",
        "emotion": ""
      },
      {
        "sourceFileName": "VO_teamJoin\\vo_thoma_teamJoin_02.wem",
        "rate": 1.0,
        "avatarName": "Switch_thoma",
        "emotion": ""
      },
      {
        "sourceFileName": "VO_teamJoin\\vo_thoma_teamJoin_03.wem",
        "rate": 1.0,
        "avatarName": "Switch_thoma",
        "emotion": ""
      },
      {
        "sourceFileName": "VO_teamJoin\\vo_thoma_teamJoin_01.wem",
        "rate": 1.0,
        "avatarName": "Switch_thoma",
        "emotion": ""
      },
      {
        "sourceFileName": "VO_teamJoin\\vo_itto_teamJoin_01.wem",
        "rate": 1.0,
        "avatarName": "Switch_itto",
        "emotion": ""
      },
      {
        "sourceFileName": "VO_teamJoin\\vo_itto_teamJoin_02.wem",
        "rate": 1.0,
        "avatarName": "Switch_itto",
        "emotion": ""
      },
      {
        "sourceFileName": "VO_teamJoin\\vo_itto_teamJoin_03.wem",
        "rate": 1.0,
        "avatarName": "Switch_itto",
        "emotion": ""
      },
      {
        "sourceFileName": "VO_teamJoin\\vo_gorou_teamJoin_01.wem",
        "rate": 1.0,
        "avatarName": "Switch_gorou",
        "emotion": ""
      },
      {
        "sourceFileName": "VO_teamJoin\\vo_gorou_teamJoin_02.wem",
        "rate": 1.0,
        "avatarName": "Switch_gorou",
        "emotion": ""
      },
      {
        "sourceFileName": "VO_teamJoin\\vo_gorou_teamJoin_03.wem",
        "rate": 1.0,
        "avatarName": "Switch_gorou",
        "emotion": ""
      },
      {
        "sourceFileName": "VO_teamJoin\\vo_yunjin_teamJoin_01.wem",
        "rate": 1.0,
        "avatarName": "Switch_yunjin",
        "emotion": ""
      },
      {
        "sourceFileName": "VO_teamJoin\\vo_yunjin_teamJoin_02.wem",
        "rate": 1.0,
        "avatarName": "Switch_yunjin",
        "emotion": ""
      },
      {
        "sourceFileName": "VO_teamJoin\\vo_yunjin_teamJoin_03.wem",
        "rate": 1.0,
        "avatarName": "Switch_yunjin",
        "emotion": ""
      },
      {
        "sourceFileName": "VO_teamJoin\\vo_shenhe_teamJoin_01.wem",
        "rate": 1.0,
        "avatarName": "Switch_shenhe",
        "emotion": ""
      },
      {
        "sourceFileName": "VO_teamJoin\\vo_shenhe_teamJoin_02.wem",
        "rate": 1.0,
        "avatarName": "Switch_shenhe",
        "emotion": ""
      },
      {
        "sourceFileName": "VO_teamJoin\\vo_shenhe_teamJoin_03.wem",
        "rate": 1.0,
        "avatarName": "Switch_shenhe",
        "emotion": ""
      },
      {
        "sourceFileName": "VO_teamJoin\\vo_yaeMiko_teamJoin_02.wem",
        "rate": 1.0,
        "avatarName": "Switch_yaeMiko",
        "emotion": ""
      },
      {
        "sourceFileName": "VO_teamJoin\\vo_yaeMiko_teamJoin_03.wem",
        "rate": 1.0,
        "avatarName": "Switch_yaeMiko",
        "emotion": ""
      },
      {
        "sourceFileName": "VO_teamJoin\\vo_yaeMiko_teamJoin_01.wem",
        "rate": 1.0,
        "avatarName": "Switch_yaeMiko",
        "emotion": ""
      },
      {
        "sourceFileName": "VO_teamJoin\\vo_ayato_teamJoin_01.wem",
        "rate": 1.0,
        "avatarName": "Switch_ayato",
        "emotion": ""
      },
      {
        "sourceFileName": "VO_teamJoin\\vo_ayato_teamJoin_02.wem",
        "rate": 1.0,
        "avatarName": "Switch_ayato",
        "emotion": ""
      },
      {
        "sourceFileName": "VO_teamJoin\\vo_ayato_teamJoin_03.wem",
        "rate": 1.0,
        "avatarName": "Switch_ayato",
        "emotion": ""
      },
      {
        "sourceFileName": "VO_teamJoin\\vo_yelan_teamJoin_01.wem",
        "rate": 1.0,
        "avatarName": "Switch_yelan",
        "emotion": ""
      },
      {
        "sourceFileName": "VO_teamJoin\\vo_yelan_teamJoin_02.wem",
        "rate": 1.0,
        "avatarName": "Switch_yelan",
        "emotion": ""
      },
      {
        "sourceFileName": "VO_teamJoin\\vo_yelan_teamJoin_03.wem",
        "rate": 1.0,
        "avatarName": "Switch_yelan",
        "emotion": ""
      },
      {
        "sourceFileName": "VO_teamJoin\\vo_shinobu_teamJoin_01.wem",
        "rate": 1.0,
        "avatarName": "Switch_shinobu",
        "emotion": ""
      },
      {
        "sourceFileName": "VO_teamJoin\\vo_shinobu_teamJoin_02.wem",
        "rate": 1.0,
        "avatarName": "Switch_shinobu",
        "emotion": ""
      },
      {
        "sourceFileName": "VO_teamJoin\\vo_shinobu_teamJoin_03.wem",
        "rate": 1.0,
        "avatarName": "Switch_shinobu",
        "emotion": ""
      },
      {
        "sourceFileName": "VO_teamJoin\\vo_heizou_teamJoin_01.wem",
        "rate": 1.0,
        "avatarName": "Switch_heizou",
        "emotion": ""
      },
      {
        "sourceFileName": "VO_teamJoin\\vo_heizou_teamJoin_02.wem",
        "rate": 1.0,
        "avatarName": "Switch_heizou",
        "emotion": ""
      },
      {
        "sourceFileName": "VO_teamJoin\\vo_heizou_teamJoin_03.wem",
        "rate": 1.0,
        "avatarName": "Switch_heizou",
        "emotion": ""
      },
      {
        "sourceFileName": "VO_teamJoin\\vo_collei_teamJoin_01.wem",
        "rate": 1.0,
        "avatarName": "Switch_collei",
        "emotion": ""
      },
      {
        "sourceFileName": "VO_teamJoin\\vo_collei_teamJoin_02.wem",
        "rate": 1.0,
        "avatarName": "Switch_collei",
        "emotion": ""
      },
      {
        "sourceFileName": "VO_teamJoin\\vo_collei_teamJoin_03.wem",
        "rate": 1.0,
        "avatarName": "Switch_collei",
        "emotion": ""
      },
      {
        "sourceFileName": "VO_teamJoin\\vo_tighnari_teamJoin_01.wem",
        "rate": 1.0,
        "avatarName": "Switch_tighnari",
        "emotion": ""
      },
      {
        "sourceFileName": "VO_teamJoin\\vo_tighnari_teamJoin_02.wem",
        "rate": 1.0,
        "avatarName": "Switch_tighnari",
        "emotion": ""
      },
      {
        "sourceFileName": "VO_teamJoin\\vo_tighnari_teamJoin_03.wem",
        "rate": 1.0,
        "avatarName": "Switch_tighnari",
        "emotion": ""
      },
      {
        "sourceFileName": "VO_teamJoin\\vo_dori_teamJoin_01.wem",
        "rate": 1.0,
        "avatarName": "Switch_dori",
        "emotion": ""
      },
      {
        "sourceFileName": "VO_teamJoin\\vo_dori_teamJoin_02.wem",
        "rate": 1.0,
        "avatarName": "Switch_dori",
        "emotion": ""
      },
      {
        "sourceFileName": "VO_teamJoin\\vo_dori_teamJoin_03.wem",
        "rate": 1.0,
        "avatarName": "Switch_dori",
        "emotion": ""
      },
      {
        "sourceFileName": "VO_teamJoin\\vo_nilou_teamJoin_01.wem",
        "rate": 1.0,
        "avatarName": "Switch_nilou",
        "emotion": ""
      },
      {
        "sourceFileName": "VO_teamJoin\\vo_nilou_teamJoin_02.wem",
        "rate": 1.0,
        "avatarName": "Switch_nilou",
        "emotion": ""
      },
      {
        "sourceFileName": "VO_teamJoin\\vo_nilou_teamJoin_03.wem",
        "rate": 1.0,
        "avatarName": "Switch_nilou",
        "emotion": ""
      },
      {
        "sourceFileName": "VO_teamJoin\\vo_candace_teamJoin_01.wem",
        "rate": 1.0,
        "avatarName": "Switch_candace",
        "emotion": ""
      },
      {
        "sourceFileName": "VO_teamJoin\\vo_candace_teamJoin_02.wem",
        "rate": 1.0,
        "avatarName": "Switch_candace",
        "emotion": ""
      },
      {
        "sourceFileName": "VO_teamJoin\\vo_candace_teamJoin_03.wem",
        "rate": 1.0,
        "avatarName": "Switch_candace",
        "emotion": ""
      },
      {
        "sourceFileName": "VO_teamJoin\\vo_cyno_teamJoin_01.wem",
        "rate": 1.0,
        "avatarName": "Switch_cyno",
        "emotion": ""
      },
      {
        "sourceFileName": "VO_teamJoin\\vo_cyno_teamJoin_02.wem",
        "rate": 1.0,
        "avatarName": "Switch_cyno",
        "emotion": ""
      },
      {
        "sourceFileName": "VO_teamJoin\\vo_cyno_teamJoin_03.wem",
        "rate": 1.0,
        "avatarName": "Switch_cyno",
        "emotion": ""
      },
      {
        "sourceFileName": "VO_teamJoin\\vo_layla_teamJoin_01.wem",
        "rate": 1.0,
        "avatarName": "Switch_layla",
        "emotion": ""
      },
      {
        "sourceFileName": "VO_teamJoin\\vo_layla_teamJoin_02.wem",
        "rate": 1.0,
        "avatarName": "Switch_layla",
        "emotion": ""
      },
      {
        "sourceFileName": "VO_teamJoin\\vo_layla_teamJoin_03.wem",
        "rate": 1.0,
        "avatarName": "Switch_layla",
        "emotion": ""
      },
      {
        "sourceFileName": "VO_teamJoin\\vo_nahida_teamJoin_01.wem",
        "rate": 1.0,
        "avatarName": "Switch_nahida",
        "emotion": ""
      },
      {
        "sourceFileName": "VO_teamJoin\\vo_nahida_teamJoin_02.wem",
        "rate": 1.0,
        "avatarName": "Switch_nahida",
        "emotion": ""
      },
      {
        "sourceFileName": "VO_teamJoin\\vo_nahida_teamJoin_03.wem",
        "rate": 1.0,
        "avatarName": "Switch_nahida",
        "emotion": ""
      },
      {
        "sourceFileName": "VO_teamJoin\\vo_faruzan_teamJoin_01.wem",
        "rate": 1.0,
        "avatarName": "Switch_faruzan",
        "emotion": ""
      },
      {
        "sourceFileName": "VO_teamJoin\\vo_faruzan_teamJoin_02.wem",
        "rate": 1.0,
        "avatarName": "Switch_faruzan",
        "emotion": ""
      },
      {
        "sourceFileName": "VO_teamJoin\\vo_faruzan_teamJoin_03.wem",
        "rate": 1.0,
        "avatarName": "Switch_faruzan",
        "emotion": ""
      },
      {
        "sourceFileName": "VO_teamJoin\\vo_wanderer_teamJoin_01.wem",
        "rate": 1.0,
        "avatarName": "Switch_wanderer",
        "emotion": ""
      },
      {
        "sourceFileName": "VO_teamJoin\\vo_wanderer_teamJoin_02.wem",
        "rate": 1.0,
        "avatarName": "Switch_wanderer",
        "emotion": ""
      },
      {
        "sourceFileName": "VO_teamJoin\\vo_wanderer_teamJoin_03.wem",
        "rate": 1.0,
        "avatarName": "Switch_wanderer",
        "emotion": ""
      },
      {
        "sourceFileName": "VO_teamJoin\\vo_alhaitham_teamJoin_01.wem",
        "rate": 1.0,
        "avatarName": "Switch_alhaitham",
        "emotion": ""
      },
      {
        "sourceFileName": "VO_teamJoin\\vo_alhaitham_teamJoin_02.wem",
        "rate": 1.0,
        "avatarName": "Switch_alhaitham",
        "emotion": ""
      },
      {
        "sourceFileName": "VO_teamJoin\\vo_alhaitham_teamJoin_03.wem",
        "rate": 1.0,
        "avatarName": "Switch_alhaitham",
        "emotion": ""
      },
      {
        "sourceFileName": "VO_teamJoin\\vo_yaoyao_teamJoin_01.wem",
        "rate": 1.0,
        "avatarName": "Switch_yaoyao",
        "emotion": ""
      },
      {
        "sourceFileName": "VO_teamJoin\\vo_yaoyao_teamJoin_02.wem",
        "rate": 1.0,
        "avatarName": "Switch_yaoyao",
        "emotion": ""
      },
      {
        "sourceFileName": "VO_teamJoin\\vo_yaoyao_teamJoin_03.wem",
        "rate": 1.0,
        "avatarName": "Switch_yaoyao",
        "emotion": ""
      },
      {
        "sourceFileName": "VO_teamJoin\\vo_dehya_teamJoin_01.wem",
        "rate": 1.0,
        "avatarName": "Switch_dehya",
        "emotion": ""
      },
      {
        "sourceFileName": "VO_teamJoin\\vo_dehya_teamJoin_02.wem",
        "rate": 1.0,
        "avatarName": "Switch_dehya",
        "emotion": ""
      },
      {
        "sourceFileName": "VO_teamJoin\\vo_dehya_teamJoin_03.wem",
        "rate": 1.0,
        "avatarName": "Switch_dehya",
        "emotion": ""
      },
      {
        "sourceFileName": "VO_friendship\\VO_mika\\vo_mika_teamJoin_01.wem",
        "rate": 1.0,
        "avatarName": "Switch_mika",
        "emotion": ""
      },
      {
        "sourceFileName": "VO_friendship\\VO_mika\\vo_mika_teamJoin_02.wem",
        "rate": 1.0,
        "avatarName": "Switch_mika",
        "emotion": ""
      },
      {
        "sourceFileName": "VO_friendship\\VO_mika\\vo_mika_teamJoin_03.wem",
        "rate": 1.0,
        "avatarName": "Switch_mika",
        "emotion": ""
      },
      {
        "sourceFileName": "VO_teamJoin\\vo_kaveh_teamJoin_01.wem",
        "rate": 1.0,
        "avatarName": "Switch_kaveh",
        "emotion": ""
      },
      {
        "sourceFileName": "VO_teamJoin\\vo_kaveh_teamJoin_02.wem",
        "rate": 1.0,
        "avatarName": "Switch_kaveh",
        "emotion": ""
      },
      {
        "sourceFileName": "VO_teamJoin\\vo_kaveh_teamJoin_03.wem",
        "rate": 1.0,
        "avatarName": "Switch_kaveh",
        "emotion": ""
      },
      {
        "sourceFileName": "VO_teamJoin\\vo_baizhu_teamJoin_01.wem",
        "rate": 1.0,
        "avatarName": "Switch_baizhu",
        "emotion": ""
      },
      {
        "sourceFileName": "VO_teamJoin\\vo_baizhu_teamJoin_02.wem",
        "rate": 1.0,
        "avatarName": "Switch_baizhu",
        "emotion": ""
      },
      {
        "sourceFileName": "VO_teamJoin\\vo_baizhu_teamJoin_03.wem",
        "rate": 1.0,
        "avatarName": "Switch_baizhu",
        "emotion": ""
      },
      {
        "sourceFileName": "VO_teamJoin\\vo_kirara_teamJoin_01.wem",
        "rate": 1.0,
        "avatarName": "Switch_kirara",
        "emotion": ""
      },
      {
        "sourceFileName": "VO_teamJoin\\vo_kirara_teamJoin_02.wem",
        "rate": 1.0,
        "avatarName": "Switch_kirara",
        "emotion": ""
      },
      {
        "sourceFileName": "VO_teamJoin\\vo_kirara_teamJoin_03.wem",
        "rate": 1.0,
        "avatarName": "Switch_kirara",
        "emotion": ""
      },
      {
        "sourceFileName": "VO_teamJoin\\vo_freminet_teamJoin_01.wem",
        "rate": 1.0,
        "avatarName": "Switch_freminet",
        "emotion": ""
      },
      {
        "sourceFileName": "VO_teamJoin\\vo_freminet_teamJoin_02.wem",
        "rate": 1.0,
        "avatarName": "Switch_freminet",
        "emotion": ""
      },
      {
        "sourceFileName": "VO_teamJoin\\vo_freminet_teamJoin_03.wem",
        "rate": 1.0,
        "avatarName": "Switch_freminet",
        "emotion": ""
      },
      {
        "sourceFileName": "VO_teamJoin\\vo_lynette_teamJoin_01.wem",
        "rate": 1.0,
        "avatarName": "Switch_lynette",
        "emotion": ""
      },
      {
        "sourceFileName": "VO_teamJoin\\vo_lynette_teamJoin_02.wem",
        "rate": 1.0,
        "avatarName": "Switch_lynette",
        "emotion": ""
      },
      {
        "sourceFileName": "VO_teamJoin\\vo_lynette_teamJoin_03.wem",
        "rate": 1.0,
        "avatarName": "Switch_lynette",
        "emotion": ""
      },
      {
        "sourceFileName": "VO_teamJoin\\vo_lyney_teamJoin_01.wem",
        "rate": 1.0,
        "avatarName": "Switch_lyney",
        "emotion": ""
      },
      {
        "sourceFileName": "VO_teamJoin\\vo_lyney_teamJoin_02.wem",
        "rate": 1.0,
        "avatarName": "Switch_lyney",
        "emotion": ""
      },
      {
        "sourceFileName": "VO_teamJoin\\vo_lyney_teamJoin_03.wem",
        "rate": 1.0,
        "avatarName": "Switch_lyney",
        "emotion": ""
      },
      {
        "sourceFileName": "VO_teamJoin\\vo_neuvillette_teamJoin_01.wem",
        "rate": 1.0,
        "avatarName": "Switch_neuvillette",
        "emotion": ""
      },
      {
        "sourceFileName": "VO_teamJoin\\vo_neuvillette_teamJoin_02.wem",
        "rate": 1.0,
        "avatarName": "Switch_neuvillette",
        "emotion": ""
      },
      {
        "sourceFileName": "VO_teamJoin\\vo_neuvillette_teamJoin_03.wem",
        "rate": 1.0,
        "avatarName": "Switch_neuvillette",
        "emotion": ""
      },
      {
        "sourceFileName": "VO_teamJoin\\vo_wriothesley_teamJoin_01.wem",
        "rate": 1.0,
        "avatarName": "Switch_wriothesley",
        "emotion": ""
      },
      {
        "sourceFileName": "VO_teamJoin\\vo_wriothesley_teamJoin_02.wem",
        "rate": 1.0,
        "avatarName": "Switch_wriothesley",
        "emotion": ""
      },
      {
        "sourceFileName": "VO_teamJoin\\vo_wriothesley_teamJoin_03.wem",
        "rate": 1.0,
        "avatarName": "Switch_wriothesley",
        "emotion": ""
      },
      {
        "sourceFileName": "VO_teamJoin\\vo_charlotte_teamJoin_01.wem",
        "rate": 1.0,
        "avatarName": "Switch_charlotte",
        "emotion": ""
      },
      {
        "sourceFileName": "VO_teamJoin\\vo_charlotte_teamJoin_02.wem",
        "rate": 1.0,
        "avatarName": "Switch_charlotte",
        "emotion": ""
      },
      {
        "sourceFileName": "VO_teamJoin\\vo_charlotte_teamJoin_03.wem",
        "rate": 1.0,
        "avatarName": "Switch_charlotte",
        "emotion": ""
      },
      {
        "sourceFileName": "VO_teamJoin\\vo_furina_teamJoin_01.wem",
        "rate": 1.0,
        "avatarName": "Switch_furina",
        "emotion": ""
      },
      {
        "sourceFileName": "VO_teamJoin\\vo_furina_teamJoin_02.wem",
        "rate": 1.0,
        "avatarName": "Switch_furina",
        "emotion": ""
      },
      {
        "sourceFileName": "VO_teamJoin\\vo_furina_teamJoin_03.wem",
        "rate": 1.0,
        "avatarName": "Switch_furina",
        "emotion": ""
      },
      {
        "sourceFileName": "VO_teamJoin\\vo_chevreuse_teamJoin_01.wem",
        "rate": 1.0,
        "avatarName": "Switch_chevreuse",
        "emotion": ""
      },
      {
        "sourceFileName": "VO_teamJoin\\vo_chevreuse_teamJoin_02.wem",
        "rate": 1.0,
        "avatarName": "Switch_chevreuse",
        "emotion": ""
      },
      {
        "sourceFileName": "VO_teamJoin\\vo_chevreuse_teamJoin_03.wem",
        "rate": 1.0,
        "avatarName": "Switch_chevreuse",
        "emotion": ""
      },
      {
        "sourceFileName": "VO_teamJoin\\vo_navia_teamJoin_01.wem",
        "rate": 1.0,
        "avatarName": "Switch_navia",
        "emotion": ""
      },
      {
        "sourceFileName": "VO_teamJoin\\vo_navia_teamJoin_02.wem",
        "rate": 1.0,
        "avatarName": "Switch_navia",
        "emotion": ""
      },
      {
        "sourceFileName": "VO_teamJoin\\vo_navia_teamJoin_03.wem",
        "rate": 1.0,
        "avatarName": "Switch_navia",
        "emotion": ""
      },
      {
        "sourceFileName": "VO_teamJoin\\vo_gaming_teamJoin_01.wem",
        "rate": 1.0,
        "avatarName": "Switch_gaming",
        "emotion": ""
      },
      {
        "sourceFileName": "VO_teamJoin\\vo_gaming_teamJoin_02.wem",
        "rate": 1.0,
        "avatarName": "Switch_gaming",
        "emotion": ""
      },
      {
        "sourceFileName": "VO_teamJoin\\vo_gaming_teamJoin_03.wem",
        "rate": 1.0,
        "avatarName": "Switch_gaming",
        "emotion": ""
      },
      {
        "sourceFileName": "VO_teamJoin\\vo_xianyun_teamJoin_01.wem",
        "rate": 1.0,
        "avatarName": "Switch_xianyun",
        "emotion": ""
      },
      {
        "sourceFileName": "VO_teamJoin\\vo_xianyun_teamJoin_02.wem",
        "rate": 1.0,
        "avatarName": "Switch_xianyun",
        "emotion": ""
      },
      {
        "sourceFileName": "VO_teamJoin\\vo_xianyun_teamJoin_03.wem",
        "rate": 1.0,
        "avatarName": "Switch_xianyun",
        "emotion": ""
      },
      {
        "sourceFileName": "VO_teamJoin\\vo_chiori_teamJoin_01.wem",
        "rate": 1.0,
        "avatarName": "Switch_chiori",
        "emotion": ""
      },
      {
        "sourceFileName": "VO_teamJoin\\vo_chiori_teamJoin_02.wem",
        "rate": 1.0,
        "avatarName": "Switch_chiori",
        "emotion": ""
      },
      {
        "sourceFileName": "VO_teamJoin\\vo_chiori_teamJoin_03.wem",
        "rate": 1.0,
        "avatarName": "Switch_chiori",
        "emotion": ""
      },
      {
        "sourceFileName": "VO_teamJoin\\vo_arlecchino_teamJoin_01.wem",
        "rate": 1.0,
        "avatarName": "Switch_arlecchino",
        "emotion": ""
      },
      {
        "sourceFileName": "VO_teamJoin\\vo_arlecchino_teamJoin_02.wem",
        "rate": 1.0,
        "avatarName": "Switch_arlecchino",
        "emotion": ""
      },
      {
        "sourceFileName": "VO_teamJoin\\vo_arlecchino_teamJoin_03.wem",
        "rate": 1.0,
        "avatarName": "Switch_arlecchino",
        "emotion": ""
      },
      {
        "sourceFileName": "VO_teamJoin\\vo_sethos_teamJoin_01.wem",
        "rate": 1.0,
        "avatarName": "Switch_sethos",
        "emotion": ""
      },
      {
        "sourceFileName": "VO_teamJoin\\vo_sethos_teamJoin_02.wem",
        "rate": 1.0,
        "avatarName": "Switch_sethos",
        "emotion": ""
      },
      {
        "sourceFileName": "VO_teamJoin\\vo_sethos_teamJoin_03.wem",
        "rate": 1.0,
        "avatarName": "Switch_sethos",
        "emotion": ""
      },
      {
        "sourceFileName": "VO_teamJoin\\vo_sigewinne_teamJoin_01.wem",
        "rate": 1.0,
        "avatarName": "Switch_sigewinne",
        "emotion": ""
      },
      {
        "sourceFileName": "VO_teamJoin\\vo_sigewinne_teamJoin_02.wem",
        "rate": 1.0,
        "avatarName": "Switch_sigewinne",
        "emotion": ""
      },
      {
        "sourceFileName": "VO_teamJoin\\vo_sigewinne_teamJoin_03.wem",
        "rate": 1.0,
        "avatarName": "Switch_sigewinne",
        "emotion": ""
      },
      {
        "sourceFileName": "VO_teamJoin\\vo_clorinde_teamJoin_01.wem",
        "rate": 1.0,
        "avatarName": "Switch_clorinde",
        "emotion": ""
      },
      {
        "sourceFileName": "VO_teamJoin\\vo_clorinde_teamJoin_02.wem",
        "rate": 1.0,
        "avatarName": "Switch_clorinde",
        "emotion": ""
      },
      {
        "sourceFileName": "VO_teamJoin\\vo_clorinde_teamJoin_03.wem",
        "rate": 1.0,
        "avatarName": "Switch_clorinde",
        "emotion": ""
      },
      {
        "sourceFileName": "VO_teamJoin\\vo_emelie_teamJoin_01.wem",
        "rate": 1.0,
        "avatarName": "Switch_emelie",
        "emotion": ""
      },
      {
        "sourceFileName": "VO_teamJoin\\vo_emelie_teamJoin_02.wem",
        "rate": 1.0,
        "avatarName": "Switch_emelie",
        "emotion": ""
      },
      {
        "sourceFileName": "VO_teamJoin\\vo_emelie_teamJoin_03.wem",
        "rate": 1.0,
        "avatarName": "Switch_emelie",
        "emotion": ""
      },
      {
        "sourceFileName": "VO_teamJoin\\vo_kachina_teamJoin_01.wem",
        "rate": 1.0,
        "avatarName": "Switch_kachina",
        "emotion": ""
      },
      {
        "sourceFileName": "VO_teamJoin\\vo_kachina_teamJoin_02.wem",
        "rate": 1.0,
        "avatarName": "Switch_kachina",
        "emotion": ""
      },
      {
        "sourceFileName": "VO_teamJoin\\vo_kachina_teamJoin_03.wem",
        "rate": 1.0,
        "avatarName": "Switch_kachina",
        "emotion": ""
      },
      {
        "sourceFileName": "VO_teamJoin\\vo_mualani_teamJoin_01.wem",
        "rate": 1.0,
        "avatarName": "Switch_mualani",
        "emotion": ""
      },
      {
        "sourceFileName": "VO_teamJoin\\vo_mualani_teamJoin_02.wem",
        "rate": 1.0,
        "avatarName": "Switch_mualani",
        "emotion": ""
      },
      {
        "sourceFileName": "VO_teamJoin\\vo_mualani_teamJoin_03.wem",
        "rate": 1.0,
        "avatarName": "Switch_mualani",
        "emotion": ""
      },
      {
        "sourceFileName": "VO_teamJoin\\vo_kinich_teamJoin_01.wem",
        "rate": 1.0,
        "avatarName": "Switch_kinich",
        "emotion": ""
      },
      {
        "sourceFileName": "VO_teamJoin\\vo_kinich_teamJoin_02.wem",
        "rate": 1.0,
        "avatarName": "Switch_kinich",
        "emotion": ""
      },
      {
        "sourceFileName": "VO_teamJoin\\vo_kinich_teamJoin_03.wem",
        "rate": 1.0,
        "avatarName": "Switch_kinich",
        "emotion": ""
      }
    ]
  }
}