{
  "285be459-e471-41a1-9d04-93ca1dcd1b7e": {
    "guid": "285be459-e471-41a1-9d04-93ca1dcd1b7e",
    "playRate": 1.0,
    "gameTrigger": "Dialog",
    "gameTriggerArgs": 693680302,
    "parentID": "98517fbb-22f1-4be8-a236-b4a4c5fd32d3",
    "sourceNames": [
      {
        "sourceFileName": "VO_Tower\\vo_lyney_saferoom_others_02.wem",
        "rate": 1.0,
        "avatarName": "",
        "emotion": ""
      }
    ]
  },
  "43e82b93-a249-4fdc-9e13-caa4c093f3de": {
    "guid": "43e82b93-a249-4fdc-9e13-caa4c093f3de",
    "playRate": 1.0,
    "gameTrigger": "Dialog",
    "gameTriggerArgs": 693680303,
    "parentID": "98517fbb-22f1-4be8-a236-b4a4c5fd32d3",
    "sourceNames": [
      {
        "sourceFileName": "VO_Tower\\vo_lyney_saferoom_others_03.wem",
        "rate": 1.0,
        "avatarName": "",
        "emotion": ""
      }
    ]
  },
  "5dec7f55-d49a-4ddc-adf5-027128dd31dd": {
    "guid": "5dec7f55-d49a-4ddc-adf5-027128dd31dd",
    "playRate": 1.0,
    "gameTrigger": "Dialog",
    "gameTriggerArgs": 693680203,
    "parentID": "98517fbb-22f1-4be8-a236-b4a4c5fd32d3",
    "sourceNames": [
      {
        "sourceFileName": "VO_Tower\\vo_lyney_saferoom_challenge_03.wem",
        "rate": 1.0,
        "avatarName": "",
        "emotion": ""
      }
    ]
  },
  "9672be96-bced-4877-a23d-18fa127fe1e2": {
    "guid": "9672be96-bced-4877-a23d-18fa127fe1e2",
    "playRate": 1.0,
    "gameTrigger": "Dialog",
    "gameTriggerArgs": 693680202,
    "parentID": "98517fbb-22f1-4be8-a236-b4a4c5fd32d3",
    "sourceNames": [
      {
        "sourceFileName": "VO_Tower\\vo_lyney_saferoom_challenge_02.wem",
        "rate": 1.0,
        "avatarName": "",
        "emotion": ""
      }
    ]
  },
  "a1e7ae8f-3b50-41ba-8cbd-7f4581f9fadc": {
    "guid": "a1e7ae8f-3b50-41ba-8cbd-7f4581f9fadc",
    "playRate": 1.0,
    "gameTrigger": "Dialog",
    "gameTriggerArgs": 693680103,
    "parentID": "98517fbb-22f1-4be8-a236-b4a4c5fd32d3",
    "sourceNames": [
      {
        "sourceFileName": "VO_Tower\\vo_lyney_saferoom_rest_03.wem",
        "rate": 1.0,
        "avatarName": "",
        "emotion": ""
      }
    ]
  },
  "aae68ef1-b280-4792-b1b7-24ed6c239537": {
    "guid": "aae68ef1-b280-4792-b1b7-24ed6c239537",
    "playRate": 1.0,
    "gameTrigger": "Dialog",
    "gameTriggerArgs": 693680101,
    "parentID": "98517fbb-22f1-4be8-a236-b4a4c5fd32d3",
    "sourceNames": [
      {
        "sourceFileName": "VO_Tower\\vo_lyney_saferoom_rest_01.wem",
        "rate": 1.0,
        "avatarName": "",
        "emotion": ""
      }
    ]
  },
  "ac74de25-7bd2-4a28-82be-4da57c8dc36c": {
    "guid": "ac74de25-7bd2-4a28-82be-4da57c8dc36c",
    "playRate": 1.0,
    "gameTrigger": "Dialog",
    "gameTriggerArgs": 693680301,
    "parentID": "98517fbb-22f1-4be8-a236-b4a4c5fd32d3",
    "sourceNames": [
      {
        "sourceFileName": "VO_Tower\\vo_lyney_saferoom_others_01.wem",
        "rate": 1.0,
        "avatarName": "",
        "emotion": ""
      }
    ]
  },
  "aef1450f-2126-4321-a3df-07f07bccb455": {
    "guid": "aef1450f-2126-4321-a3df-07f07bccb455",
    "playRate": 1.0,
    "gameTrigger": "Dialog",
    "gameTriggerArgs": 693680102,
    "parentID": "98517fbb-22f1-4be8-a236-b4a4c5fd32d3",
    "sourceNames": [
      {
        "sourceFileName": "VO_Tower\\vo_lyney_saferoom_rest_02.wem",
        "rate": 1.0,
        "avatarName": "",
        "emotion": ""
      }
    ]
  },
  "f15d8497-5e06-4070-b8f8-cc527f520892": {
    "guid": "f15d8497-5e06-4070-b8f8-cc527f520892",
    "playRate": 1.0,
    "gameTrigger": "Dialog",
    "gameTriggerArgs": 693680201,
    "parentID": "98517fbb-22f1-4be8-a236-b4a4c5fd32d3",
    "sourceNames": [
      {
        "sourceFileName": "VO_Tower\\vo_lyney_saferoom_challenge_01.wem",
        "rate": 1.0,
        "avatarName": "",
        "emotion": ""
      }
    ]
  }
}