{
  "027791a4-6aaa-4b1c-8a65-e807ff522478": {
    "guid": "027791a4-6aaa-4b1c-8a65-e807ff522478",
    "playRate": 1.0,
    "gameTrigger": "Dialog",
    "gameTriggerArgs": 693090101,
    "parentID": "9d6043c7-9bd0-4c31-8b5a-217711ef5aae",
    "sourceNames": [
      {
        "sourceFileName": "VO_Tower\\vo_ningguang_saferoom_rest_01.wem",
        "rate": 1.0,
        "avatarName": "",
        "emotion": ""
      }
    ]
  },
  "15122331-772b-4ad8-99db-a1878de6d212": {
    "guid": "15122331-772b-4ad8-99db-a1878de6d212",
    "playRate": 1.0,
    "gameTrigger": "Dialog",
    "gameTriggerArgs": 693090301,
    "parentID": "9d6043c7-9bd0-4c31-8b5a-217711ef5aae",
    "sourceNames": [
      {
        "sourceFileName": "VO_Tower\\vo_ningguang_saferoom_others_01.wem",
        "rate": 1.0,
        "avatarName": "",
        "emotion": ""
      }
    ]
  },
  "3d104d1c-1a0d-4ebb-a24e-4845d01b66c8": {
    "guid": "3d104d1c-1a0d-4ebb-a24e-4845d01b66c8",
    "playRate": 1.0,
    "gameTrigger": "Dialog",
    "gameTriggerArgs": 693090203,
    "parentID": "9d6043c7-9bd0-4c31-8b5a-217711ef5aae",
    "sourceNames": [
      {
        "sourceFileName": "VO_Tower\\vo_ningguang_saferoom_challenge_03.wem",
        "rate": 1.0,
        "avatarName": "",
        "emotion": ""
      }
    ]
  },
  "a78fab2e-d489-44ab-8165-8e8b7a3559b4": {
    "guid": "a78fab2e-d489-44ab-8165-8e8b7a3559b4",
    "playRate": 1.0,
    "gameTrigger": "Dialog",
    "gameTriggerArgs": 693090202,
    "parentID": "9d6043c7-9bd0-4c31-8b5a-217711ef5aae",
    "sourceNames": [
      {
        "sourceFileName": "VO_Tower\\vo_ningguang_saferoom_challenge_02.wem",
        "rate": 1.0,
        "avatarName": "",
        "emotion": ""
      }
    ]
  },
  "abbec490-eb98-43e2-a5a5-892a74db6cc4": {
    "guid": "abbec490-eb98-43e2-a5a5-892a74db6cc4",
    "playRate": 1.0,
    "gameTrigger": "Dialog",
    "gameTriggerArgs": 693090103,
    "parentID": "9d6043c7-9bd0-4c31-8b5a-217711ef5aae",
    "sourceNames": [
      {
        "sourceFileName": "VO_Tower\\vo_ningguang_saferoom_rest_03.wem",
        "rate": 1.0,
        "avatarName": "",
        "emotion": ""
      }
    ]
  },
  "ac8e3ced-0818-446a-ad81-dcdaaca1a987": {
    "guid": "ac8e3ced-0818-446a-ad81-dcdaaca1a987",
    "playRate": 1.0,
    "gameTrigger": "Dialog",
    "gameTriggerArgs": 693090302,
    "parentID": "9d6043c7-9bd0-4c31-8b5a-217711ef5aae",
    "sourceNames": [
      {
        "sourceFileName": "VO_Tower\\vo_ningguang_saferoom_others_02.wem",
        "rate": 1.0,
        "avatarName": "",
        "emotion": ""
      }
    ]
  },
  "b6a9ccdb-3ca9-44c7-a17e-957c96bb556d": {
    "guid": "b6a9ccdb-3ca9-44c7-a17e-957c96bb556d",
    "playRate": 1.0,
    "gameTrigger": "Dialog",
    "gameTriggerArgs": 693090102,
    "parentID": "9d6043c7-9bd0-4c31-8b5a-217711ef5aae",
    "sourceNames": [
      {
        "sourceFileName": "VO_Tower\\vo_ningguang_saferoom_rest_02.wem",
        "rate": 1.0,
        "avatarName": "",
        "emotion": ""
      }
    ]
  },
  "da249250-9b86-4b8e-a46f-8e52506037ad": {
    "guid": "da249250-9b86-4b8e-a46f-8e52506037ad",
    "playRate": 1.0,
    "gameTrigger": "Dialog",
    "gameTriggerArgs": 693090303,
    "parentID": "9d6043c7-9bd0-4c31-8b5a-217711ef5aae",
    "sourceNames": [
      {
        "sourceFileName": "VO_Tower\\vo_ningguang_saferoom_others_03.wem",
        "rate": 1.0,
        "avatarName": "",
        "emotion": ""
      }
    ]
  },
  "f154b88e-60ca-41f8-9e82-ebab880ceb6b": {
    "guid": "f154b88e-60ca-41f8-9e82-ebab880ceb6b",
    "playRate": 1.0,
    "gameTrigger": "Dialog",
    "gameTriggerArgs": 693090201,
    "parentID": "9d6043c7-9bd0-4c31-8b5a-217711ef5aae",
    "sourceNames": [
      {
        "sourceFileName": "VO_Tower\\vo_ningguang_saferoom_challenge_01.wem",
        "rate": 1.0,
        "avatarName": "",
        "emotion": ""
      }
    ]
  }
}