{
  "4575768c-17cd-447f-9a35-40f7867d95a1": {
    "guid": "4575768c-17cd-447f-9a35-40f7867d95a1",
    "playRate": 1.0,
    "gameTrigger": "Dialog",
    "gameTriggerArgs": 693470203,
    "parentID": "0ef23df1-8993-4e96-a99a-9e2f1008ab10",
    "sourceNames": [
      {
        "sourceFileName": "VO_Tower\\vo_yelan_saferoom_challenge_03.wem",
        "rate": 1.0,
        "avatarName": "",
        "emotion": ""
      }
    ]
  },
  "5cb3f1a1-c1ea-439b-aacb-d320d7b0931d": {
    "guid": "5cb3f1a1-c1ea-439b-aacb-d320d7b0931d",
    "playRate": 1.0,
    "gameTrigger": "Dialog",
    "gameTriggerArgs": 693470202,
    "parentID": "0ef23df1-8993-4e96-a99a-9e2f1008ab10",
    "sourceNames": [
      {
        "sourceFileName": "VO_Tower\\vo_yelan_saferoom_challenge_02.wem",
        "rate": 1.0,
        "avatarName": "",
        "emotion": ""
      }
    ]
  },
  "64909be9-2adb-4a8c-a444-3879cc079aa1": {
    "guid": "64909be9-2adb-4a8c-a444-3879cc079aa1",
    "playRate": 1.0,
    "gameTrigger": "Dialog",
    "gameTriggerArgs": 693470303,
    "parentID": "0ef23df1-8993-4e96-a99a-9e2f1008ab10",
    "sourceNames": [
      {
        "sourceFileName": "VO_Tower\\vo_yelan_saferoom_others_03.wem",
        "rate": 1.0,
        "avatarName": "",
        "emotion": ""
      }
    ]
  },
  "6f44169b-5d36-4a7c-8a20-00776b7edd5b": {
    "guid": "6f44169b-5d36-4a7c-8a20-00776b7edd5b",
    "playRate": 1.0,
    "gameTrigger": "Dialog",
    "gameTriggerArgs": 693470101,
    "parentID": "0ef23df1-8993-4e96-a99a-9e2f1008ab10",
    "sourceNames": [
      {
        "sourceFileName": "VO_Tower\\vo_yelan_saferoom_rest_01.wem",
        "rate": 1.0,
        "avatarName": "",
        "emotion": ""
      }
    ]
  },
  "853111c8-9fad-4cd0-b4c9-d0a25e68cad1": {
    "guid": "853111c8-9fad-4cd0-b4c9-d0a25e68cad1",
    "playRate": 1.0,
    "gameTrigger": "Dialog",
    "gameTriggerArgs": 693470201,
    "parentID": "0ef23df1-8993-4e96-a99a-9e2f1008ab10",
    "sourceNames": [
      {
        "sourceFileName": "VO_Tower\\vo_yelan_saferoom_challenge_01.wem",
        "rate": 1.0,
        "avatarName": "",
        "emotion": ""
      }
    ]
  },
  "99d734cd-aef8-463f-9125-5758da6f98f3": {
    "guid": "99d734cd-aef8-463f-9125-5758da6f98f3",
    "playRate": 1.0,
    "gameTrigger": "Dialog",
    "gameTriggerArgs": 693470302,
    "parentID": "0ef23df1-8993-4e96-a99a-9e2f1008ab10",
    "sourceNames": [
      {
        "sourceFileName": "VO_Tower\\vo_yelan_saferoom_others_02.wem",
        "rate": 1.0,
        "avatarName": "",
        "emotion": ""
      }
    ]
  },
  "a3736f2a-93ce-4efc-9f39-b22ab5041d69": {
    "guid": "a3736f2a-93ce-4efc-9f39-b22ab5041d69",
    "playRate": 1.0,
    "gameTrigger": "Dialog",
    "gameTriggerArgs": 693470301,
    "parentID": "0ef23df1-8993-4e96-a99a-9e2f1008ab10",
    "sourceNames": [
      {
        "sourceFileName": "VO_Tower\\vo_yelan_saferoom_others_01.wem",
        "rate": 1.0,
        "avatarName": "",
        "emotion": ""
      }
    ]
  },
  "b10768c2-cb8c-4c15-ab3f-0831fc3ee630": {
    "guid": "b10768c2-cb8c-4c15-ab3f-0831fc3ee630",
    "playRate": 1.0,
    "gameTrigger": "Dialog",
    "gameTriggerArgs": 693470103,
    "parentID": "0ef23df1-8993-4e96-a99a-9e2f1008ab10",
    "sourceNames": [
      {
        "sourceFileName": "VO_Tower\\vo_yelan_saferoom_rest_03.wem",
        "rate": 1.0,
        "avatarName": "",
        "emotion": ""
      }
    ]
  },
  "fe35ea02-a4f7-4b5f-b247-6ef6ae675952": {
    "guid": "fe35ea02-a4f7-4b5f-b247-6ef6ae675952",
    "playRate": 1.0,
    "gameTrigger": "Dialog",
    "gameTriggerArgs": 693470102,
    "parentID": "0ef23df1-8993-4e96-a99a-9e2f1008ab10",
    "sourceNames": [
      {
        "sourceFileName": "VO_Tower\\vo_yelan_saferoom_rest_02.wem",
        "rate": 1.0,
        "avatarName": "",
        "emotion": ""
      }
    ]
  }
}