{
  "0cbf8fdd-4716-4805-8058-b07770c477bf": {
    "guid": "0cbf8fdd-4716-4805-8058-b07770c477bf",
    "playRate": 1.0,
    "gameTrigger": "Dialog",
    "gameTriggerArgs": 130159908,
    "personalConfig": 2,
    "DDNLACJICEC": 1,
    "isPlayOnTeam": true,
    "parentID": "954acee0-d8c3-4207-a61e-9c7325edcbdf",
    "sourceNames": [
      {
        "sourceFileName": "VO_LQ\\VO_npc\\vo_NHDLQ003_5_ilman_01.wem",
        "rate": 1.0,
        "avatarName": "",
        "emotion": ""
      }
    ]
  },
  "16f5f4bb-2dae-4fbf-ab65-119ef5413d47": {
    "guid": "16f5f4bb-2dae-4fbf-ab65-119ef5413d47",
    "playRate": 1.0,
    "gameTrigger": "Dialog",
    "gameTriggerArgs": 130159917,
    "personalConfig": 2,
    "isPlayOnTeam": true,
    "parentID": "954acee0-d8c3-4207-a61e-9c7325edcbdf",
    "sourceNames": [
      {
        "sourceFileName": "VO_LQ\\VO_paimon\\vo_NHDLQ003_5_paimon_02.wem",
        "rate": 1.0,
        "avatarName": "",
        "emotion": ""
      }
    ]
  },
  "27bc82a4-bd60-42c9-ab45-61e8877ab540": {
    "guid": "27bc82a4-bd60-42c9-ab45-61e8877ab540",
    "playRate": 1.0,
    "gameTrigger": "Dialog",
    "gameTriggerArgs": 130159913,
    "personalConfig": 2,
    "DDNLACJICEC": 1,
    "isPlayOnTeam": true,
    "parentID": "954acee0-d8c3-4207-a61e-9c7325edcbdf",
    "sourceNames": [
      {
        "sourceFileName": "VO_LQ\\VO_npc\\vo_NHDLQ003_5_kian_01.wem",
        "rate": 1.0,
        "avatarName": "",
        "emotion": ""
      }
    ]
  },
  "5657a1bb-18d8-4893-8f93-3ad760a7f28f": {
    "guid": "5657a1bb-18d8-4893-8f93-3ad760a7f28f",
    "playRate": 1.0,
    "gameTrigger": "Dialog",
    "gameTriggerArgs": 130159907,
    "personalConfig": 2,
    "DDNLACJICEC": 1,
    "isPlayOnTeam": true,
    "parentID": "954acee0-d8c3-4207-a61e-9c7325edcbdf",
    "sourceNames": [
      {
        "sourceFileName": "VO_LQ\\VO_npc\\vo_NHDLQ003_5_pedrush_01.wem",
        "rate": 1.0,
        "avatarName": "",
        "emotion": ""
      }
    ]
  },
  "91eb4f88-9810-4cf5-a184-7e8bcc6c10b8": {
    "guid": "91eb4f88-9810-4cf5-a184-7e8bcc6c10b8",
    "playRate": 1.0,
    "gameTrigger": "Dialog",
    "gameTriggerArgs": 130159914,
    "personalConfig": 2,
    "DDNLACJICEC": 1,
    "isPlayOnTeam": true,
    "parentID": "954acee0-d8c3-4207-a61e-9c7325edcbdf",
    "sourceNames": [
      {
        "sourceFileName": "VO_LQ\\VO_npc\\vo_NHDLQ003_5_inas_01.wem",
        "rate": 1.0,
        "avatarName": "",
        "emotion": ""
      }
    ]
  },
  "afa32042-fd84-4bca-9f01-2ddcf4aabdfb": {
    "guid": "afa32042-fd84-4bca-9f01-2ddcf4aabdfb",
    "playRate": 1.0,
    "gameTrigger": "Dialog",
    "gameTriggerArgs": 130159911,
    "personalConfig": 2,
    "DDNLACJICEC": 1,
    "isPlayOnTeam": true,
    "parentID": "954acee0-d8c3-4207-a61e-9c7325edcbdf",
    "sourceNames": [
      {
        "sourceFileName": "VO_LQ\\VO_npc\\vo_NHDLQ003_5_debbi_01.wem",
        "rate": 1.0,
        "avatarName": "",
        "emotion": ""
      }
    ]
  },
  "d513ab47-0fda-4770-ab54-2800ad0e9363": {
    "guid": "d513ab47-0fda-4770-ab54-2800ad0e9363",
    "playRate": 1.0,
    "gameTrigger": "Dialog",
    "gameTriggerArgs": 130159915,
    "personalConfig": 2,
    "DDNLACJICEC": 1,
    "isPlayOnTeam": true,
    "parentID": "954acee0-d8c3-4207-a61e-9c7325edcbdf",
    "sourceNames": [
      {
        "sourceFileName": "VO_LQ\\VO_npc\\vo_NHDLQ003_5_thana_01.wem",
        "rate": 1.0,
        "avatarName": "",
        "emotion": ""
      }
    ]
  },
  "dedb190d-b47b-4fb9-a57c-74a07dca0372": {
    "guid": "dedb190d-b47b-4fb9-a57c-74a07dca0372",
    "playRate": 1.0,
    "gameTrigger": "Dialog",
    "gameTriggerArgs": 130159910,
    "personalConfig": 2,
    "DDNLACJICEC": 1,
    "isPlayOnTeam": true,
    "parentID": "954acee0-d8c3-4207-a61e-9c7325edcbdf",
    "sourceNames": [
      {
        "sourceFileName": "VO_LQ\\VO_npc\\vo_NHDLQ003_5_kathya_01.wem",
        "rate": 1.0,
        "avatarName": "",
        "emotion": ""
      }
    ]
  },
  "eb5fd980-087e-42ef-8240-68fc3ba215eb": {
    "guid": "eb5fd980-087e-42ef-8240-68fc3ba215eb",
    "playRate": 1.0,
    "gameTrigger": "Dialog",
    "gameTriggerArgs": 130159912,
    "personalConfig": 2,
    "DDNLACJICEC": 1,
    "isPlayOnTeam": true,
    "parentID": "954acee0-d8c3-4207-a61e-9c7325edcbdf",
    "sourceNames": [
      {
        "sourceFileName": "VO_LQ\\VO_npc\\vo_NHDLQ003_5_nasser_01.wem",
        "rate": 1.0,
        "avatarName": "",
        "emotion": ""
      }
    ]
  },
  "ec9a71d9-42ea-42ad-964d-e4e9e8e3a9d3": {
    "guid": "ec9a71d9-42ea-42ad-964d-e4e9e8e3a9d3",
    "playRate": 1.0,
    "gameTrigger": "Dialog",
    "gameTriggerArgs": 130159909,
    "personalConfig": 2,
    "DDNLACJICEC": 1,
    "isPlayOnTeam": true,
    "parentID": "954acee0-d8c3-4207-a61e-9c7325edcbdf",
    "sourceNames": [
      {
        "sourceFileName": "VO_LQ\\VO_npc\\vo_NHDLQ003_5_haydar_01.wem",
        "rate": 1.0,
        "avatarName": "",
        "emotion": ""
      }
    ]
  },
  "fa8b9dd6-e3b9-426a-9bb3-a0cbb95e2bac": {
    "guid": "fa8b9dd6-e3b9-426a-9bb3-a0cbb95e2bac",
    "playRate": 1.0,
    "gameTrigger": "Dialog",
    "gameTriggerArgs": 130159916,
    "personalConfig": 2,
    "isPlayOnTeam": true,
    "parentID": "954acee0-d8c3-4207-a61e-9c7325edcbdf",
    "sourceNames": [
      {
        "sourceFileName": "VO_LQ\\VO_paimon\\vo_NHDLQ003_5_paimon_01.wem",
        "rate": 1.0,
        "avatarName": "",
        "emotion": ""
      }
    ]
  }
}