{
  "0035bcca-592c-484a-af56-75a742dff0c0": {
    "guid": "0035bcca-592c-484a-af56-75a742dff0c0",
    "playRate": 1.0,
    "gameTrigger": "Dialog",
    "gameTriggerArgs": 130079916,
    "personalConfig": 2,
    "DDNLACJICEC": 1,
    "isPlayOnTeam": true,
    "parentID": "efd0a732-aa6e-462d-8620-015b151c2402",
    "sourceNames": [
      {
        "sourceFileName": "VO_LQ\\VO_nilou\\vo_NLLQ002_25_nilou_03.wem",
        "rate": 1.0,
        "avatarName": "",
        "emotion": ""
      }
    ]
  },
  "29ce53bb-f725-4ff7-8823-bb3ee374c4ad": {
    "guid": "29ce53bb-f725-4ff7-8823-bb3ee374c4ad",
    "playRate": 1.0,
    "gameTrigger": "Dialog",
    "gameTriggerArgs": 130079922,
    "personalConfig": 2,
    "DDNLACJICEC": 1,
    "isPlayOnTeam": true,
    "parentID": "efd0a732-aa6e-462d-8620-015b151c2402",
    "sourceNames": [
      {
        "sourceFileName": "VO_LQ\\VO_nilou\\vo_NLLQ002_25_nilou_07.wem",
        "rate": 1.0,
        "avatarName": "",
        "emotion": ""
      }
    ]
  },
  "4d848817-ae2e-4cda-9feb-843d2889fb7e": {
    "guid": "4d848817-ae2e-4cda-9feb-843d2889fb7e",
    "playRate": 1.0,
    "gameTrigger": "Dialog",
    "gameTriggerArgs": 130079920,
    "personalConfig": 2,
    "DDNLACJICEC": 1,
    "isPlayOnTeam": true,
    "parentID": "efd0a732-aa6e-462d-8620-015b151c2402",
    "sourceNames": [
      {
        "sourceFileName": "VO_LQ\\VO_nilou\\vo_NLLQ002_25_nilou_05.wem",
        "rate": 1.0,
        "avatarName": "",
        "emotion": ""
      }
    ]
  },
  "576b9d2e-659f-463d-bb36-b112d9b3a998": {
    "guid": "576b9d2e-659f-463d-bb36-b112d9b3a998",
    "playRate": 1.0,
    "gameTrigger": "Dialog",
    "gameTriggerArgs": 130079914,
    "personalConfig": 2,
    "DDNLACJICEC": 1,
    "isPlayOnTeam": true,
    "parentID": "efd0a732-aa6e-462d-8620-015b151c2402",
    "sourceNames": [
      {
        "sourceFileName": "VO_LQ\\VO_nilou\\vo_NLLQ002_25_nilou_01.wem",
        "rate": 1.0,
        "avatarName": "",
        "emotion": ""
      }
    ]
  },
  "627c3043-3886-4ee9-9c90-7e650ff5fd82": {
    "guid": "627c3043-3886-4ee9-9c90-7e650ff5fd82",
    "playRate": 1.0,
    "gameTrigger": "Dialog",
    "gameTriggerArgs": 130079915,
    "personalConfig": 2,
    "DDNLACJICEC": 1,
    "isPlayOnTeam": true,
    "parentID": "efd0a732-aa6e-462d-8620-015b151c2402",
    "sourceNames": [
      {
        "sourceFileName": "VO_LQ\\VO_nilou\\vo_NLLQ002_25_nilou_02.wem",
        "rate": 1.0,
        "avatarName": "",
        "emotion": ""
      }
    ]
  },
  "87a72baf-b8f3-4a4a-90cf-be2295470d06": {
    "guid": "87a72baf-b8f3-4a4a-90cf-be2295470d06",
    "playRate": 1.0,
    "gameTrigger": "Dialog",
    "gameTriggerArgs": 130079918,
    "personalConfig": 2,
    "isPlayOnTeam": true,
    "parentID": "efd0a732-aa6e-462d-8620-015b151c2402",
    "sourceNames": [
      {
        "sourceFileName": "VO_LQ\\VO_npc\\vo_NLLQ002_25_qasani_01.wem",
        "rate": 1.0,
        "avatarName": "",
        "emotion": ""
      }
    ]
  },
  "ac93497c-936c-4997-b0a2-5f6766b83575": {
    "guid": "ac93497c-936c-4997-b0a2-5f6766b83575",
    "playRate": 1.0,
    "gameTrigger": "Dialog",
    "gameTriggerArgs": 130079921,
    "personalConfig": 2,
    "DDNLACJICEC": 1,
    "isPlayOnTeam": true,
    "parentID": "efd0a732-aa6e-462d-8620-015b151c2402",
    "sourceNames": [
      {
        "sourceFileName": "VO_LQ\\VO_nilou\\vo_NLLQ002_25_nilou_06.wem",
        "rate": 1.0,
        "avatarName": "",
        "emotion": ""
      }
    ]
  },
  "b9318d4a-880f-43de-b71f-5355bd5d7da5": {
    "guid": "b9318d4a-880f-43de-b71f-5355bd5d7da5",
    "playRate": 1.0,
    "gameTrigger": "Dialog",
    "gameTriggerArgs": 130079917,
    "personalConfig": 2,
    "isPlayOnTeam": true,
    "parentID": "efd0a732-aa6e-462d-8620-015b151c2402",
    "sourceNames": [
      {
        "sourceFileName": "VO_LQ\\VO_npc\\vo_NLLQ002_25_rikard_01.wem",
        "rate": 1.0,
        "avatarName": "",
        "emotion": ""
      }
    ]
  },
  "daa42001-6b75-49a4-bc52-e21636615ec6": {
    "guid": "daa42001-6b75-49a4-bc52-e21636615ec6",
    "playRate": 1.0,
    "gameTrigger": "Dialog",
    "gameTriggerArgs": 130079919,
    "personalConfig": 2,
    "DDNLACJICEC": 1,
    "isPlayOnTeam": true,
    "parentID": "efd0a732-aa6e-462d-8620-015b151c2402",
    "sourceNames": [
      {
        "sourceFileName": "VO_LQ\\VO_nilou\\vo_NLLQ002_25_nilou_04.wem",
        "rate": 1.0,
        "avatarName": "",
        "emotion": ""
      }
    ]
  }
}