{
  "0da1c6ea-4ced-4609-a5a3-d758b8634b16": {
    "guid": "0da1c6ea-4ced-4609-a5a3-d758b8634b16",
    "playRate": 1.0,
    "gameTrigger": "Dialog",
    "gameTriggerArgs": 80219002,
    "personalConfig": 2,
    "NJKDHJOHKCM": 1,
    "parentID": "7cd4c7de-5a2f-4492-b559-73bfe0c10a57",
    "sourceNames": [
      {
        "sourceFileName": "VO_AQ\\VO_hero\\vo_SZAQ303_16_hero_02.wem",
        "rate": 1.0,
        "avatarName": "Switch_hero",
        "emotion": "",
        "gender": 2
      },
      {
        "sourceFileName": "VO_AQ\\VO_heroine\\vo_SZAQ303_16_heroine_02.wem",
        "rate": 1.0,
        "avatarName": "Switch_heroine",
        "emotion": "",
        "gender": 1
      }
    ]
  },
  "563aaea2-cc17-4c6e-b716-02c4d9559f0b": {
    "guid": "563aaea2-cc17-4c6e-b716-02c4d9559f0b",
    "playRate": 1.0,
    "gameTrigger": "Dialog",
    "gameTriggerArgs": 80218902,
    "personalConfig": 2,
    "NJKDHJOHKCM": 1,
    "parentID": "7cd4c7de-5a2f-4492-b559-73bfe0c10a57",
    "sourceNames": [
      {
        "sourceFileName": "VO_AQ\\VO_hero\\vo_SZAQ303_16_hero_01.wem",
        "rate": 1.0,
        "avatarName": "Switch_hero",
        "emotion": "",
        "gender": 2
      },
      {
        "sourceFileName": "VO_AQ\\VO_heroine\\vo_SZAQ303_16_heroine_01.wem",
        "rate": 1.0,
        "avatarName": "Switch_heroine",
        "emotion": "",
        "gender": 1
      }
    ]
  },
  "77c6135f-bb99-438e-84c4-d347bfd73e90": {
    "guid": "77c6135f-bb99-438e-84c4-d347bfd73e90",
    "playRate": 1.0,
    "gameTrigger": "Dialog",
    "gameTriggerArgs": 80219103,
    "personalConfig": 2,
    "NJKDHJOHKCM": 1,
    "parentID": "7cd4c7de-5a2f-4492-b559-73bfe0c10a57",
    "sourceNames": [
      {
        "sourceFileName": "VO_AQ\\VO_hero\\vo_SZAQ303_16_hero_04.wem",
        "rate": 1.0,
        "avatarName": "Switch_hero",
        "emotion": "",
        "gender": 2
      },
      {
        "sourceFileName": "VO_AQ\\VO_heroine\\vo_SZAQ303_16_heroine_04.wem",
        "rate": 1.0,
        "avatarName": "Switch_heroine",
        "emotion": "",
        "gender": 1
      }
    ]
  },
  "f9259026-2b5e-4106-b450-f1132f5d0665": {
    "guid": "f9259026-2b5e-4106-b450-f1132f5d0665",
    "playRate": 1.0,
    "gameTrigger": "Dialog",
    "gameTriggerArgs": 80219102,
    "personalConfig": 2,
    "NJKDHJOHKCM": 1,
    "parentID": "7cd4c7de-5a2f-4492-b559-73bfe0c10a57",
    "sourceNames": [
      {
        "sourceFileName": "VO_AQ\\VO_hero\\vo_SZAQ303_16_hero_03.wem",
        "rate": 1.0,
        "avatarName": "Switch_hero",
        "emotion": "",
        "gender": 2
      },
      {
        "sourceFileName": "VO_AQ\\VO_heroine\\vo_SZAQ303_16_heroine_03.wem",
        "rate": 1.0,
        "avatarName": "Switch_heroine",
        "emotion": "",
        "gender": 1
      }
    ]
  }
}