{
  "07f315a2-a594-4a20-80bc-974d2f39fd03": {
    "guid": "07f315a2-a594-4a20-80bc-974d2f39fd03",
    "playRate": 1.0,
    "gameTrigger": "Dialog",
    "gameTriggerArgs": 111230122,
    "personalConfig": 2,
    "parentID": "925f7c8a-83c3-4e27-b5a5-de591ddb5a35",
    "sourceNames": [
      {
        "sourceFileName": "VO_LQ\\VO_npc\\vo_ZLLQ104_2_kunjun_09.wem",
        "rate": 1.0,
        "avatarName": "",
        "emotion": ""
      }
    ]
  },
  "1e7f9b0e-7967-4384-8bcd-d9822b8a5a95": {
    "guid": "1e7f9b0e-7967-4384-8bcd-d9822b8a5a95",
    "playRate": 1.0,
    "gameTrigger": "Dialog",
    "gameTriggerArgs": 111230118,
    "personalConfig": 2,
    "parentID": "925f7c8a-83c3-4e27-b5a5-de591ddb5a35",
    "sourceNames": [
      {
        "sourceFileName": "VO_LQ\\VO_npc\\vo_ZLLQ104_2_kunjun_08.wem",
        "rate": 1.0,
        "avatarName": "",
        "emotion": ""
      }
    ]
  },
  "29b83784-58f0-4d3a-a739-c71f1e45f05c": {
    "guid": "29b83784-58f0-4d3a-a739-c71f1e45f05c",
    "playRate": 1.0,
    "gameTrigger": "Dialog",
    "gameTriggerArgs": 111230113,
    "personalConfig": 2,
    "parentID": "925f7c8a-83c3-4e27-b5a5-de591ddb5a35",
    "sourceNames": [
      {
        "sourceFileName": "VO_LQ\\VO_npc\\vo_ZLLQ104_2_kunjun_05.wem",
        "rate": 1.0,
        "avatarName": "",
        "emotion": ""
      }
    ]
  },
  "2cb2824a-68bc-4a93-aeb5-7263ffdcb11c": {
    "guid": "2cb2824a-68bc-4a93-aeb5-7263ffdcb11c",
    "playRate": 1.0,
    "gameTrigger": "Dialog",
    "gameTriggerArgs": 111230116,
    "personalConfig": 2,
    "parentID": "925f7c8a-83c3-4e27-b5a5-de591ddb5a35",
    "sourceNames": [
      {
        "sourceFileName": "VO_LQ\\VO_npc\\vo_ZLLQ104_2_kunjun_07.wem",
        "rate": 1.0,
        "avatarName": "",
        "emotion": ""
      }
    ]
  },
  "2cfd853a-753a-46fd-a94d-6e6f2be9703f": {
    "guid": "2cfd853a-753a-46fd-a94d-6e6f2be9703f",
    "playRate": 1.0,
    "gameTrigger": "Dialog",
    "gameTriggerArgs": 111230101,
    "personalConfig": 2,
    "parentID": "925f7c8a-83c3-4e27-b5a5-de591ddb5a35",
    "sourceNames": [
      {
        "sourceFileName": "VO_LQ\\VO_npc\\vo_ZLLQ104_2_kunjun_01.wem",
        "rate": 1.0,
        "avatarName": "",
        "emotion": ""
      }
    ]
  },
  "39332cc5-7f3c-42f8-a217-2d5f3a52d8f2": {
    "guid": "39332cc5-7f3c-42f8-a217-2d5f3a52d8f2",
    "playRate": 1.0,
    "gameTrigger": "Dialog",
    "gameTriggerArgs": 111230126,
    "personalConfig": 2,
    "parentID": "925f7c8a-83c3-4e27-b5a5-de591ddb5a35",
    "sourceNames": [
      {
        "sourceFileName": "VO_LQ\\VO_zhongli\\vo_ZLLQ104_2_zhongli_04.wem",
        "rate": 1.0,
        "avatarName": "",
        "emotion": ""
      }
    ]
  },
  "3d346358-4bb8-44d3-8d1f-9ac134ff6e20": {
    "guid": "3d346358-4bb8-44d3-8d1f-9ac134ff6e20",
    "playRate": 1.0,
    "gameTrigger": "Dialog",
    "gameTriggerArgs": 111230125,
    "personalConfig": 2,
    "parentID": "925f7c8a-83c3-4e27-b5a5-de591ddb5a35",
    "sourceNames": [
      {
        "sourceFileName": "VO_LQ\\VO_paimon\\vo_ZLLQ104_2_paimon_08.wem",
        "rate": 1.0,
        "avatarName": "",
        "emotion": ""
      }
    ]
  },
  "3dadcbbc-31fa-4053-9caa-24f63f7c1a57": {
    "guid": "3dadcbbc-31fa-4053-9caa-24f63f7c1a57",
    "playRate": 1.0,
    "gameTrigger": "Dialog",
    "gameTriggerArgs": 111230107,
    "personalConfig": 2,
    "parentID": "925f7c8a-83c3-4e27-b5a5-de591ddb5a35",
    "sourceNames": [
      {
        "sourceFileName": "VO_LQ\\VO_zhongli\\vo_ZLLQ104_2_zhongli_03.wem",
        "rate": 1.0,
        "avatarName": "",
        "emotion": ""
      }
    ]
  },
  "3f15dfec-27ed-4280-bd4f-b023378ebb6e": {
    "guid": "3f15dfec-27ed-4280-bd4f-b023378ebb6e",
    "playRate": 1.0,
    "gameTrigger": "Dialog",
    "gameTriggerArgs": 111230110,
    "personalConfig": 2,
    "parentID": "925f7c8a-83c3-4e27-b5a5-de591ddb5a35",
    "sourceNames": [
      {
        "sourceFileName": "VO_LQ\\VO_paimon\\vo_ZLLQ104_2_paimon_03.wem",
        "rate": 1.0,
        "avatarName": "",
        "emotion": ""
      }
    ]
  },
  "41744808-471a-44c9-b163-6e5b7c8235ce": {
    "guid": "41744808-471a-44c9-b163-6e5b7c8235ce",
    "playRate": 1.0,
    "gameTrigger": "Dialog",
    "gameTriggerArgs": 111230103,
    "personalConfig": 2,
    "parentID": "925f7c8a-83c3-4e27-b5a5-de591ddb5a35",
    "sourceNames": [
      {
        "sourceFileName": "VO_LQ\\VO_zhongli\\vo_ZLLQ104_2_zhongli_01.wem",
        "rate": 1.0,
        "avatarName": "",
        "emotion": ""
      }
    ]
  },
  "68c1a450-57c8-4124-a71f-c9fab4724285": {
    "guid": "68c1a450-57c8-4124-a71f-c9fab4724285",
    "playRate": 1.0,
    "gameTrigger": "Dialog",
    "gameTriggerArgs": 111230112,
    "personalConfig": 2,
    "parentID": "925f7c8a-83c3-4e27-b5a5-de591ddb5a35",
    "sourceNames": [
      {
        "sourceFileName": "VO_LQ\\VO_npc\\vo_ZLLQ104_2_kunjun_04.wem",
        "rate": 1.0,
        "avatarName": "",
        "emotion": ""
      }
    ]
  },
  "747711df-563a-41d0-aefe-18202f378fae": {
    "guid": "747711df-563a-41d0-aefe-18202f378fae",
    "playRate": 1.0,
    "gameTrigger": "Dialog",
    "gameTriggerArgs": 111230123,
    "personalConfig": 2,
    "parentID": "925f7c8a-83c3-4e27-b5a5-de591ddb5a35",
    "sourceNames": [
      {
        "sourceFileName": "VO_LQ\\VO_npc\\vo_ZLLQ104_2_kunjun_10.wem",
        "rate": 1.0,
        "avatarName": "",
        "emotion": ""
      }
    ]
  },
  "7d85ce06-bc24-4337-9d27-1c80e86bddc7": {
    "guid": "7d85ce06-bc24-4337-9d27-1c80e86bddc7",
    "playRate": 1.0,
    "gameTrigger": "Dialog",
    "gameTriggerArgs": 111230115,
    "personalConfig": 2,
    "parentID": "925f7c8a-83c3-4e27-b5a5-de591ddb5a35",
    "sourceNames": [
      {
        "sourceFileName": "VO_LQ\\VO_paimon\\vo_ZLLQ104_2_paimon_04.wem",
        "rate": 1.0,
        "avatarName": "",
        "emotion": ""
      }
    ]
  },
  "7ea0c657-c453-4e09-8671-bc2f0b27698c": {
    "guid": "7ea0c657-c453-4e09-8671-bc2f0b27698c",
    "playRate": 1.0,
    "gameTrigger": "Dialog",
    "gameTriggerArgs": 111230102,
    "personalConfig": 2,
    "parentID": "925f7c8a-83c3-4e27-b5a5-de591ddb5a35",
    "sourceNames": [
      {
        "sourceFileName": "VO_LQ\\VO_paimon\\vo_ZLLQ104_2_paimon_01.wem",
        "rate": 1.0,
        "avatarName": "",
        "emotion": ""
      }
    ]
  },
  "810581c9-7dd4-49cc-94a9-8a9bd90e1418": {
    "guid": "810581c9-7dd4-49cc-94a9-8a9bd90e1418",
    "playRate": 1.0,
    "gameTrigger": "Dialog",
    "gameTriggerArgs": 111230108,
    "personalConfig": 2,
    "parentID": "925f7c8a-83c3-4e27-b5a5-de591ddb5a35",
    "sourceNames": [
      {
        "sourceFileName": "VO_LQ\\VO_paimon\\vo_ZLLQ104_2_paimon_02.wem",
        "rate": 1.0,
        "avatarName": "",
        "emotion": ""
      }
    ]
  },
  "9b81d845-9959-41f0-aace-04dae291d888": {
    "guid": "9b81d845-9959-41f0-aace-04dae291d888",
    "playRate": 1.0,
    "gameTrigger": "Dialog",
    "gameTriggerArgs": 111230128,
    "personalConfig": 2,
    "parentID": "925f7c8a-83c3-4e27-b5a5-de591ddb5a35",
    "sourceNames": [
      {
        "sourceFileName": "VO_LQ\\VO_paimon\\vo_ZLLQ104_2_paimon_10.wem",
        "rate": 1.0,
        "avatarName": "",
        "emotion": ""
      }
    ]
  },
  "a39605b7-7d41-4f44-9ffa-759aa44dce0f": {
    "guid": "a39605b7-7d41-4f44-9ffa-759aa44dce0f",
    "playRate": 1.0,
    "gameTrigger": "Dialog",
    "gameTriggerArgs": 111230111,
    "personalConfig": 2,
    "parentID": "925f7c8a-83c3-4e27-b5a5-de591ddb5a35",
    "sourceNames": [
      {
        "sourceFileName": "VO_LQ\\VO_npc\\vo_ZLLQ104_2_kunjun_03.wem",
        "rate": 1.0,
        "avatarName": "",
        "emotion": ""
      }
    ]
  },
  "b6114105-965d-420e-b975-fd94a71038e6": {
    "guid": "b6114105-965d-420e-b975-fd94a71038e6",
    "playRate": 1.0,
    "gameTrigger": "Dialog",
    "gameTriggerArgs": 111230109,
    "personalConfig": 2,
    "parentID": "925f7c8a-83c3-4e27-b5a5-de591ddb5a35",
    "sourceNames": [
      {
        "sourceFileName": "VO_LQ\\VO_npc\\vo_ZLLQ104_2_kunjun_02.wem",
        "rate": 1.0,
        "avatarName": "",
        "emotion": ""
      }
    ]
  },
  "c1ccf98a-d01a-4719-b17a-00bde9d659c2": {
    "guid": "c1ccf98a-d01a-4719-b17a-00bde9d659c2",
    "playRate": 1.0,
    "gameTrigger": "Dialog",
    "gameTriggerArgs": 111230127,
    "personalConfig": 2,
    "parentID": "925f7c8a-83c3-4e27-b5a5-de591ddb5a35",
    "sourceNames": [
      {
        "sourceFileName": "VO_LQ\\VO_paimon\\vo_ZLLQ104_2_paimon_09.wem",
        "rate": 1.0,
        "avatarName": "",
        "emotion": ""
      }
    ]
  },
  "c46301d5-adcd-4e15-bd4f-84b630cae74b": {
    "guid": "c46301d5-adcd-4e15-bd4f-84b630cae74b",
    "playRate": 1.0,
    "gameTrigger": "Dialog",
    "gameTriggerArgs": 111230104,
    "personalConfig": 2,
    "parentID": "925f7c8a-83c3-4e27-b5a5-de591ddb5a35",
    "sourceNames": [
      {
        "sourceFileName": "VO_LQ\\VO_zhongli\\vo_ZLLQ104_2_zhongli_02.wem",
        "rate": 1.0,
        "avatarName": "",
        "emotion": ""
      }
    ]
  },
  "c46b81c4-acf8-465b-b8f8-df7af2036654": {
    "guid": "c46b81c4-acf8-465b-b8f8-df7af2036654",
    "playRate": 1.0,
    "gameTrigger": "Dialog",
    "gameTriggerArgs": 111230114,
    "personalConfig": 2,
    "DDNLACJICEC": 1,
    "parentID": "925f7c8a-83c3-4e27-b5a5-de591ddb5a35",
    "sourceNames": [
      {
        "sourceFileName": "VO_LQ\\VO_npc\\vo_ZLLQ104_2_kunjun_06.wem",
        "rate": 1.0,
        "avatarName": "",
        "emotion": ""
      }
    ]
  },
  "d2b25376-6893-4ae0-b49b-2d16a589a149": {
    "guid": "d2b25376-6893-4ae0-b49b-2d16a589a149",
    "playRate": 1.0,
    "gameTrigger": "Dialog",
    "gameTriggerArgs": 111230124,
    "personalConfig": 2,
    "parentID": "925f7c8a-83c3-4e27-b5a5-de591ddb5a35",
    "sourceNames": [
      {
        "sourceFileName": "VO_LQ\\VO_paimon\\vo_ZLLQ104_2_paimon_07.wem",
        "rate": 1.0,
        "avatarName": "",
        "emotion": ""
      }
    ]
  },
  "f3117563-1d55-4747-a266-eb50cfaa16dc": {
    "guid": "f3117563-1d55-4747-a266-eb50cfaa16dc",
    "playRate": 1.0,
    "gameTrigger": "Dialog",
    "gameTriggerArgs": 111230121,
    "personalConfig": 2,
    "parentID": "925f7c8a-83c3-4e27-b5a5-de591ddb5a35",
    "sourceNames": [
      {
        "sourceFileName": "VO_LQ\\VO_paimon\\vo_ZLLQ104_2_paimon_06.wem",
        "rate": 1.0,
        "avatarName": "",
        "emotion": ""
      }
    ]
  },
  "fa4d0161-1a9a-48d4-8e6d-27e98f44569b": {
    "guid": "fa4d0161-1a9a-48d4-8e6d-27e98f44569b",
    "playRate": 1.0,
    "gameTrigger": "Dialog",
    "gameTriggerArgs": 111230119,
    "personalConfig": 2,
    "parentID": "925f7c8a-83c3-4e27-b5a5-de591ddb5a35",
    "sourceNames": [
      {
        "sourceFileName": "VO_LQ\\VO_paimon\\vo_ZLLQ104_2_paimon_05.wem",
        "rate": 1.0,
        "avatarName": "",
        "emotion": ""
      }
    ]
  }
}