{
  "01931d09-5163-4213-97c7-71e2f74e2e64": {
    "guid": "01931d09-5163-4213-97c7-71e2f74e2e64",
    "playRate": 1.0,
    "gameTrigger": "DungeonReminder",
    "gameTriggerArgs": 1001690084,
    "personalConfig": 2,
    "parentID": "8d4624a2-9dff-4906-9330-386e1eb67509",
    "sourceNames": [
      {
        "sourceFileName": "VO_AQ\\VO_kachina\\vo_NTAQ002_6_kachina_08.wem",
        "rate": 1.0,
        "avatarName": "",
        "emotion": ""
      }
    ]
  },
  "0db1b945-e034-4c08-97c1-82143a790c46": {
    "guid": "0db1b945-e034-4c08-97c1-82143a790c46",
    "playRate": 1.0,
    "gameTrigger": "DungeonReminder",
    "gameTriggerArgs": 1001690082,
    "personalConfig": 2,
    "parentID": "8d4624a2-9dff-4906-9330-386e1eb67509",
    "sourceNames": [
      {
        "sourceFileName": "VO_AQ\\VO_kachina\\vo_NTAQ002_6_kachina_07.wem",
        "rate": 1.0,
        "avatarName": "",
        "emotion": ""
      }
    ]
  },
  "1b14d21c-9ee5-462f-8eb0-5b70f9f9d58d": {
    "guid": "1b14d21c-9ee5-462f-8eb0-5b70f9f9d58d",
    "playRate": 1.0,
    "gameTrigger": "DungeonReminder",
    "gameTriggerArgs": 1001690083,
    "personalConfig": 2,
    "parentID": "8d4624a2-9dff-4906-9330-386e1eb67509",
    "sourceNames": [
      {
        "sourceFileName": "VO_AQ\\VO_paimon\\vo_NTAQ002_6_paimon_02.wem",
        "rate": 1.0,
        "avatarName": "",
        "emotion": ""
      }
    ]
  },
  "1bd2ceab-d91c-4eb3-908f-249071020072": {
    "guid": "1bd2ceab-d91c-4eb3-908f-249071020072",
    "playRate": 1.0,
    "gameTrigger": "Dialog",
    "gameTriggerArgs": 50011203,
    "personalConfig": 2,
    "parentID": "8d4624a2-9dff-4906-9330-386e1eb67509",
    "sourceNames": [
      {
        "sourceFileName": "VO_AQ\\VO_NPC\\vo_NTAQ002_6_nkunga_03.wem",
        "rate": 1.0,
        "avatarName": "",
        "emotion": ""
      }
    ]
  },
  "1d4c06bd-0501-4224-8a6e-800b7d4637f2": {
    "guid": "1d4c06bd-0501-4224-8a6e-800b7d4637f2",
    "playRate": 1.0,
    "gameTrigger": "DungeonReminder",
    "gameTriggerArgs": 1001690070,
    "personalConfig": 2,
    "parentID": "8d4624a2-9dff-4906-9330-386e1eb67509",
    "sourceNames": [
      {
        "sourceFileName": "VO_AQ\\VO_NPC\\vo_NTAQ002_6_liliuo_08.wem",
        "rate": 1.0,
        "avatarName": "",
        "emotion": ""
      }
    ]
  },
  "1e88b185-bde0-4dfe-abbf-ee5af25e8f1c": {
    "guid": "1e88b185-bde0-4dfe-abbf-ee5af25e8f1c",
    "playRate": 1.0,
    "gameTrigger": "Dialog",
    "gameTriggerArgs": 50011506,
    "personalConfig": 2,
    "parentID": "8d4624a2-9dff-4906-9330-386e1eb67509",
    "sourceNames": [
      {
        "sourceFileName": "VO_AQ\\VO_NPC\\vo_NTAQ002_6_liliuo_01.wem",
        "rate": 1.0,
        "avatarName": "",
        "emotion": ""
      }
    ]
  },
  "221b77e8-7e23-4c1b-828a-078ed22c879a": {
    "guid": "221b77e8-7e23-4c1b-828a-078ed22c879a",
    "playRate": 1.0,
    "gameTrigger": "DungeonReminder",
    "gameTriggerArgs": 1001690075,
    "personalConfig": 2,
    "parentID": "8d4624a2-9dff-4906-9330-386e1eb67509",
    "sourceNames": [
      {
        "sourceFileName": "VO_AQ\\VO_NPC\\vo_NTAQ002_6_liliuo_13.wem",
        "rate": 1.0,
        "avatarName": "",
        "emotion": ""
      }
    ]
  },
  "23838df8-a958-40f5-8892-1c30a929db90": {
    "guid": "23838df8-a958-40f5-8892-1c30a929db90",
    "playRate": 1.0,
    "gameTrigger": "DungeonReminder",
    "gameTriggerArgs": 1001690081,
    "personalConfig": 2,
    "parentID": "8d4624a2-9dff-4906-9330-386e1eb67509",
    "sourceNames": [
      {
        "sourceFileName": "VO_AQ\\VO_kachina\\vo_NTAQ002_6_kachina_06.wem",
        "rate": 1.0,
        "avatarName": "",
        "emotion": ""
      }
    ]
  },
  "338ce7f8-070a-42ff-ab84-686ba974e6e2": {
    "guid": "338ce7f8-070a-42ff-ab84-686ba974e6e2",
    "playRate": 1.0,
    "gameTrigger": "Dialog",
    "gameTriggerArgs": 50011204,
    "personalConfig": 2,
    "parentID": "8d4624a2-9dff-4906-9330-386e1eb67509",
    "sourceNames": [
      {
        "sourceFileName": "VO_AQ\\VO_NPC\\vo_NTAQ002_6_nkunga_04.wem",
        "rate": 1.0,
        "avatarName": "",
        "emotion": ""
      }
    ]
  },
  "3c95caf9-5c44-4436-8fdd-314d31530b67": {
    "guid": "3c95caf9-5c44-4436-8fdd-314d31530b67",
    "playRate": 1.0,
    "gameTrigger": "Dialog",
    "gameTriggerArgs": 50011729,
    "personalConfig": 2,
    "parentID": "8d4624a2-9dff-4906-9330-386e1eb67509",
    "sourceNames": [
      {
        "sourceFileName": "VO_AQ\\VO_kachina\\vo_NTAQ002_6_kachina_09.wem",
        "rate": 1.0,
        "avatarName": "",
        "emotion": ""
      }
    ]
  },
  "46795369-5f38-4fa3-9d94-a12b648c91d7": {
    "guid": "46795369-5f38-4fa3-9d94-a12b648c91d7",
    "playRate": 1.0,
    "gameTrigger": "Dialog",
    "gameTriggerArgs": 50011507,
    "personalConfig": 2,
    "parentID": "8d4624a2-9dff-4906-9330-386e1eb67509",
    "sourceNames": [
      {
        "sourceFileName": "VO_AQ\\VO_NPC\\vo_NTAQ002_6_liliuo_02.wem",
        "rate": 1.0,
        "avatarName": "",
        "emotion": ""
      }
    ]
  },
  "4d19f998-336f-4268-bfd3-333cdf187b6f": {
    "guid": "4d19f998-336f-4268-bfd3-333cdf187b6f",
    "playRate": 1.0,
    "gameTrigger": "DungeonReminder",
    "gameTriggerArgs": 1001690071,
    "personalConfig": 2,
    "parentID": "8d4624a2-9dff-4906-9330-386e1eb67509",
    "sourceNames": [
      {
        "sourceFileName": "VO_AQ\\VO_NPC\\vo_NTAQ002_6_liliuo_09.wem",
        "rate": 1.0,
        "avatarName": "",
        "emotion": ""
      }
    ]
  },
  "4fb8e3db-d3b0-4e39-a949-71f5af65f4c9": {
    "guid": "4fb8e3db-d3b0-4e39-a949-71f5af65f4c9",
    "playRate": 1.0,
    "gameTrigger": "DungeonReminder",
    "gameTriggerArgs": 1001690074,
    "personalConfig": 2,
    "parentID": "8d4624a2-9dff-4906-9330-386e1eb67509",
    "sourceNames": [
      {
        "sourceFileName": "VO_AQ\\VO_NPC\\vo_NTAQ002_6_liliuo_12.wem",
        "rate": 1.0,
        "avatarName": "",
        "emotion": ""
      }
    ]
  },
  "580542f4-5a4a-49de-b68e-5f909bb32876": {
    "guid": "580542f4-5a4a-49de-b68e-5f909bb32876",
    "playRate": 1.0,
    "gameTrigger": "DungeonReminder",
    "gameTriggerArgs": 1001690073,
    "personalConfig": 2,
    "parentID": "8d4624a2-9dff-4906-9330-386e1eb67509",
    "sourceNames": [
      {
        "sourceFileName": "VO_AQ\\VO_NPC\\vo_NTAQ002_6_liliuo_11.wem",
        "rate": 1.0,
        "avatarName": "",
        "emotion": ""
      }
    ]
  },
  "61f28350-cbf7-420c-a64e-05c0411c2bcb": {
    "guid": "61f28350-cbf7-420c-a64e-05c0411c2bcb",
    "playRate": 1.0,
    "gameTrigger": "DungeonReminder",
    "gameTriggerArgs": 1001690076,
    "personalConfig": 2,
    "parentID": "8d4624a2-9dff-4906-9330-386e1eb67509",
    "sourceNames": [
      {
        "sourceFileName": "VO_AQ\\VO_NPC\\vo_NTAQ002_6_liliuo_14.wem",
        "rate": 1.0,
        "avatarName": "",
        "emotion": ""
      }
    ]
  },
  "66e76324-635d-4ec2-ac06-1dfe73a29586": {
    "guid": "66e76324-635d-4ec2-ac06-1dfe73a29586",
    "playRate": 1.0,
    "gameTrigger": "Dialog",
    "gameTriggerArgs": 50011501,
    "personalConfig": 2,
    "parentID": "8d4624a2-9dff-4906-9330-386e1eb67509",
    "sourceNames": [
      {
        "sourceFileName": "VO_AQ\\VO_NPC\\vo_NTAQ002_6_nkunga_07.wem",
        "rate": 1.0,
        "avatarName": "",
        "emotion": ""
      }
    ]
  },
  "693c7aef-8b57-4bcd-92a3-a0ffc607ee20": {
    "guid": "693c7aef-8b57-4bcd-92a3-a0ffc607ee20",
    "playRate": 1.0,
    "gameTrigger": "DungeonReminder",
    "gameTriggerArgs": 1001690069,
    "personalConfig": 2,
    "parentID": "8d4624a2-9dff-4906-9330-386e1eb67509",
    "sourceNames": [
      {
        "sourceFileName": "VO_AQ\\VO_NPC\\vo_NTAQ002_6_liliuo_07.wem",
        "rate": 1.0,
        "avatarName": "",
        "emotion": ""
      }
    ]
  },
  "70e68d70-771d-4e72-a4b6-3477ade1db73": {
    "guid": "70e68d70-771d-4e72-a4b6-3477ade1db73",
    "playRate": 1.0,
    "gameTrigger": "Dialog",
    "gameTriggerArgs": 50011202,
    "personalConfig": 2,
    "parentID": "8d4624a2-9dff-4906-9330-386e1eb67509",
    "sourceNames": [
      {
        "sourceFileName": "VO_AQ\\VO_NPC\\vo_NTAQ002_6_nkunga_02.wem",
        "rate": 1.0,
        "avatarName": "",
        "emotion": ""
      }
    ]
  },
  "775eef2f-16c8-457e-b84e-e8d9a6896812": {
    "guid": "775eef2f-16c8-457e-b84e-e8d9a6896812",
    "playRate": 1.0,
    "gameTrigger": "DungeonReminder",
    "gameTriggerArgs": 1001690077,
    "personalConfig": 2,
    "parentID": "8d4624a2-9dff-4906-9330-386e1eb67509",
    "sourceNames": [
      {
        "sourceFileName": "VO_AQ\\VO_NPC\\vo_NTAQ002_6_liliuo_15.wem",
        "rate": 1.0,
        "avatarName": "",
        "emotion": ""
      }
    ]
  },
  "7a6109d1-21b1-4390-ba95-6057d91f9e38": {
    "guid": "7a6109d1-21b1-4390-ba95-6057d91f9e38",
    "playRate": 1.0,
    "gameTrigger": "Dialog",
    "gameTriggerArgs": 50011201,
    "personalConfig": 2,
    "parentID": "8d4624a2-9dff-4906-9330-386e1eb67509",
    "sourceNames": [
      {
        "sourceFileName": "VO_AQ\\VO_NPC\\vo_NTAQ002_6_nkunga_01.wem",
        "rate": 1.0,
        "avatarName": "",
        "emotion": ""
      }
    ]
  },
  "7ce5b37b-f9cb-43b3-b8af-98f45301180d": {
    "guid": "7ce5b37b-f9cb-43b3-b8af-98f45301180d",
    "playRate": 1.0,
    "gameTrigger": "DungeonReminder",
    "gameTriggerArgs": 1001690064,
    "personalConfig": 2,
    "parentID": "8d4624a2-9dff-4906-9330-386e1eb67509",
    "sourceNames": [
      {
        "sourceFileName": "VO_AQ\\VO_NPC\\vo_NTAQ002_6_nkunga_05.wem",
        "rate": 1.0,
        "avatarName": "",
        "emotion": ""
      }
    ]
  },
  "89f5c301-c6d1-4224-a3bb-f6e4ba630fc9": {
    "guid": "89f5c301-c6d1-4224-a3bb-f6e4ba630fc9",
    "playRate": 1.0,
    "gameTrigger": "Dialog",
    "gameTriggerArgs": 50011730,
    "personalConfig": 2,
    "parentID": "8d4624a2-9dff-4906-9330-386e1eb67509",
    "sourceNames": [
      {
        "sourceFileName": "VO_AQ\\VO_NPC\\vo_NTAQ002_6_liliuo_13.wem",
        "rate": 1.0,
        "avatarName": "",
        "emotion": ""
      }
    ]
  },
  "89f6681a-c440-4145-9196-6265e9884e7e": {
    "guid": "89f6681a-c440-4145-9196-6265e9884e7e",
    "playRate": 1.0,
    "gameTrigger": "Dialog",
    "gameTriggerArgs": 50011510,
    "personalConfig": 2,
    "parentID": "8d4624a2-9dff-4906-9330-386e1eb67509",
    "sourceNames": [
      {
        "sourceFileName": "VO_AQ\\VO_NPC\\vo_NTAQ002_6_liliuo_04.wem",
        "rate": 1.0,
        "avatarName": "",
        "emotion": ""
      }
    ]
  },
  "8c1e10ec-381a-4b58-84e1-c8d63aa13f7a": {
    "guid": "8c1e10ec-381a-4b58-84e1-c8d63aa13f7a",
    "playRate": 1.0,
    "gameTrigger": "DungeonReminder",
    "gameTriggerArgs": 1001690079,
    "personalConfig": 2,
    "parentID": "8d4624a2-9dff-4906-9330-386e1eb67509",
    "sourceNames": [
      {
        "sourceFileName": "VO_AQ\\VO_kachina\\vo_NTAQ002_6_kachina_05.wem",
        "rate": 1.0,
        "avatarName": "",
        "emotion": ""
      }
    ]
  },
  "95bb85bd-c6f9-46fd-981b-650b2ce4baf7": {
    "guid": "95bb85bd-c6f9-46fd-981b-650b2ce4baf7",
    "playRate": 1.0,
    "gameTrigger": "DungeonReminder",
    "gameTriggerArgs": 1001690068,
    "personalConfig": 2,
    "parentID": "8d4624a2-9dff-4906-9330-386e1eb67509",
    "sourceNames": [
      {
        "sourceFileName": "VO_AQ\\VO_NPC\\vo_NTAQ002_6_liliuo_06.wem",
        "rate": 1.0,
        "avatarName": "",
        "emotion": ""
      }
    ]
  },
  "a34e7d3c-2961-4c4e-9c21-1687ef1eec0c": {
    "guid": "a34e7d3c-2961-4c4e-9c21-1687ef1eec0c",
    "playRate": 1.0,
    "gameTrigger": "Dialog",
    "gameTriggerArgs": 50011502,
    "personalConfig": 2,
    "parentID": "8d4624a2-9dff-4906-9330-386e1eb67509",
    "sourceNames": [
      {
        "sourceFileName": "VO_AQ\\VO_NPC\\vo_NTAQ002_6_balam_02.wem",
        "rate": 1.0,
        "avatarName": "",
        "emotion": ""
      }
    ]
  },
  "a7c28ef9-c77f-4f06-8ad8-5a6bed471ee1": {
    "guid": "a7c28ef9-c77f-4f06-8ad8-5a6bed471ee1",
    "playRate": 1.0,
    "gameTrigger": "Dialog",
    "gameTriggerArgs": 50011508,
    "personalConfig": 2,
    "parentID": "8d4624a2-9dff-4906-9330-386e1eb67509",
    "sourceNames": [
      {
        "sourceFileName": "VO_AQ\\VO_kachina\\vo_NTAQ002_6_kachina_03.wem",
        "rate": 1.0,
        "avatarName": "",
        "emotion": ""
      }
    ]
  },
  "b48aa733-e192-4d5f-afba-81f27bfb6459": {
    "guid": "b48aa733-e192-4d5f-afba-81f27bfb6459",
    "playRate": 1.0,
    "gameTrigger": "Dialog",
    "gameTriggerArgs": 50011503,
    "personalConfig": 2,
    "parentID": "8d4624a2-9dff-4906-9330-386e1eb67509",
    "sourceNames": [
      {
        "sourceFileName": "VO_AQ\\VO_paimon\\vo_NTAQ002_6_paimon_01.wem",
        "rate": 1.0,
        "avatarName": "",
        "emotion": ""
      }
    ]
  },
  "b5aa403b-0757-44e0-8646-029f142a9600": {
    "guid": "b5aa403b-0757-44e0-8646-029f142a9600",
    "playRate": 1.0,
    "gameTrigger": "Dialog",
    "gameTriggerArgs": 50011509,
    "personalConfig": 2,
    "parentID": "8d4624a2-9dff-4906-9330-386e1eb67509",
    "sourceNames": [
      {
        "sourceFileName": "VO_AQ\\VO_NPC\\vo_NTAQ002_6_liliuo_03.wem",
        "rate": 1.0,
        "avatarName": "",
        "emotion": ""
      }
    ]
  },
  "c3ec7bd2-60c2-4cac-94ec-797752ffe2b3": {
    "guid": "c3ec7bd2-60c2-4cac-94ec-797752ffe2b3",
    "playRate": 1.0,
    "gameTrigger": "DungeonReminder",
    "gameTriggerArgs": 1001690072,
    "personalConfig": 2,
    "parentID": "8d4624a2-9dff-4906-9330-386e1eb67509",
    "sourceNames": [
      {
        "sourceFileName": "VO_AQ\\VO_NPC\\vo_NTAQ002_6_liliuo_10.wem",
        "rate": 1.0,
        "avatarName": "",
        "emotion": ""
      }
    ]
  },
  "cee42018-6bc6-4d11-b2fc-6d3f51d8918f": {
    "guid": "cee42018-6bc6-4d11-b2fc-6d3f51d8918f",
    "playRate": 1.0,
    "gameTrigger": "Dialog",
    "gameTriggerArgs": 50011205,
    "personalConfig": 2,
    "parentID": "8d4624a2-9dff-4906-9330-386e1eb67509",
    "sourceNames": [
      {
        "sourceFileName": "VO_AQ\\VO_kachina\\vo_NTAQ002_6_kachina_01.wem",
        "rate": 1.0,
        "avatarName": "",
        "emotion": ""
      }
    ]
  },
  "d60b958a-c6e2-4fab-92b0-29840cee571d": {
    "guid": "d60b958a-c6e2-4fab-92b0-29840cee571d",
    "playRate": 1.0,
    "gameTrigger": "DungeonReminder",
    "gameTriggerArgs": 1001690065,
    "personalConfig": 2,
    "parentID": "8d4624a2-9dff-4906-9330-386e1eb67509",
    "sourceNames": [
      {
        "sourceFileName": "VO_AQ\\VO_NPC\\vo_NTAQ002_6_nkunga_06.wem",
        "rate": 1.0,
        "avatarName": "",
        "emotion": ""
      }
    ]
  },
  "d954bef8-371b-43e2-9d04-b6cde7b6def0": {
    "guid": "d954bef8-371b-43e2-9d04-b6cde7b6def0",
    "playRate": 1.0,
    "gameTrigger": "Dialog",
    "gameTriggerArgs": 50011206,
    "personalConfig": 2,
    "parentID": "8d4624a2-9dff-4906-9330-386e1eb67509",
    "sourceNames": [
      {
        "sourceFileName": "VO_AQ\\VO_kachina\\vo_NTAQ002_6_kachina_02.wem",
        "rate": 1.0,
        "avatarName": "",
        "emotion": ""
      }
    ]
  },
  "dc2e83f4-fe60-443d-b504-0a8dba763927": {
    "guid": "dc2e83f4-fe60-443d-b504-0a8dba763927",
    "playRate": 1.0,
    "gameTrigger": "Dialog",
    "gameTriggerArgs": 50011207,
    "personalConfig": 2,
    "parentID": "8d4624a2-9dff-4906-9330-386e1eb67509",
    "sourceNames": [
      {
        "sourceFileName": "VO_AQ\\VO_NPC\\vo_NTAQ002_6_balam_01.wem",
        "rate": 1.0,
        "avatarName": "",
        "emotion": ""
      }
    ]
  },
  "dcd01fa3-00f5-449b-9d82-597dac81f0e7": {
    "guid": "dcd01fa3-00f5-449b-9d82-597dac81f0e7",
    "playRate": 1.0,
    "gameTrigger": "DungeonReminder",
    "gameTriggerArgs": 1001690066,
    "personalConfig": 2,
    "parentID": "8d4624a2-9dff-4906-9330-386e1eb67509",
    "sourceNames": [
      {
        "sourceFileName": "VO_AQ\\VO_NPC\\vo_NTAQ002_6_together_01.wem",
        "rate": 1.0,
        "avatarName": "",
        "emotion": ""
      }
    ]
  },
  "e21a3b74-f51d-4ff3-b07b-eba7708cc672": {
    "guid": "e21a3b74-f51d-4ff3-b07b-eba7708cc672",
    "playRate": 1.0,
    "gameTrigger": "DungeonReminder",
    "gameTriggerArgs": 1001690067,
    "personalConfig": 2,
    "parentID": "8d4624a2-9dff-4906-9330-386e1eb67509",
    "sourceNames": [
      {
        "sourceFileName": "VO_AQ\\VO_NPC\\vo_NTAQ002_6_liliuo_05.wem",
        "rate": 1.0,
        "avatarName": "",
        "emotion": ""
      }
    ]
  },
  "e88b9d05-c7bf-45ed-8cb1-9c7c1eb39d29": {
    "guid": "e88b9d05-c7bf-45ed-8cb1-9c7c1eb39d29",
    "playRate": 1.0,
    "gameTrigger": "DungeonReminder",
    "gameTriggerArgs": 1001690080,
    "personalConfig": 2,
    "parentID": "8d4624a2-9dff-4906-9330-386e1eb67509",
    "sourceNames": [
      {
        "sourceFileName": "VO_AQ\\VO_NPC\\vo_NTAQ002_6_liliuo_16.wem",
        "rate": 1.0,
        "avatarName": "",
        "emotion": ""
      }
    ]
  },
  "f7fa4c22-d822-4692-9ad0-eacce6f95a8c": {
    "guid": "f7fa4c22-d822-4692-9ad0-eacce6f95a8c",
    "playRate": 1.0,
    "gameTrigger": "DungeonReminder",
    "gameTriggerArgs": 1001690078,
    "personalConfig": 2,
    "parentID": "8d4624a2-9dff-4906-9330-386e1eb67509",
    "sourceNames": [
      {
        "sourceFileName": "VO_AQ\\VO_kachina\\vo_NTAQ002_6_kachina_04.wem",
        "rate": 1.0,
        "avatarName": "",
        "emotion": ""
      }
    ]
  }
}