{
  "37d14be5-79c3-40e8-983f-ea095f68f3b0": {
    "guid": "37d14be5-79c3-40e8-983f-ea095f68f3b0",
    "playRate": 1.0,
    "gameTrigger": "Dialog",
    "gameTriggerArgs": 693840202,
    "parentID": "f250ab51-8c5c-4f5d-81be-10cb72af3108",
    "sourceNames": [
      {
        "sourceFileName": "VO_Tower\\vo_ajaw_saferoom_challenge_01.wem",
        "rate": 1.0,
        "avatarName": "",
        "emotion": ""
      }
    ]
  },
  "398ad8ec-8d5a-4397-bd3a-c9d17ce57233": {
    "guid": "398ad8ec-8d5a-4397-bd3a-c9d17ce57233",
    "playRate": 1.0,
    "gameTrigger": "Dialog",
    "gameTriggerArgs": 693840203,
    "parentID": "f250ab51-8c5c-4f5d-81be-10cb72af3108",
    "sourceNames": [
      {
        "sourceFileName": "VO_Tower\\vo_ajaw_saferoom_challenge_02.wem",
        "rate": 1.0,
        "avatarName": "",
        "emotion": ""
      }
    ]
  },
  "481acb1d-4dff-493d-977f-9963c9c34d5b": {
    "guid": "481acb1d-4dff-493d-977f-9963c9c34d5b",
    "playRate": 1.0,
    "gameTrigger": "Dialog",
    "gameTriggerArgs": 693840201,
    "parentID": "f250ab51-8c5c-4f5d-81be-10cb72af3108",
    "sourceNames": [
      {
        "sourceFileName": "VO_Tower\\vo_kinich_saferoom_challenge_01.wem",
        "rate": 1.0,
        "avatarName": "",
        "emotion": ""
      }
    ]
  },
  "4f4abd37-7f92-468c-88b5-6b8638e41a96": {
    "guid": "4f4abd37-7f92-468c-88b5-6b8638e41a96",
    "playRate": 1.0,
    "gameTrigger": "Dialog",
    "gameTriggerArgs": 693840101,
    "parentID": "f250ab51-8c5c-4f5d-81be-10cb72af3108",
    "sourceNames": [
      {
        "sourceFileName": "VO_Tower\\vo_ajaw_saferoom_rest_01.wem",
        "rate": 1.0,
        "avatarName": "",
        "emotion": ""
      }
    ]
  },
  "6331e8b0-132c-472f-8245-f8054c1515d6": {
    "guid": "6331e8b0-132c-472f-8245-f8054c1515d6",
    "playRate": 1.0,
    "gameTrigger": "Dialog",
    "gameTriggerArgs": 693840302,
    "parentID": "f250ab51-8c5c-4f5d-81be-10cb72af3108",
    "sourceNames": [
      {
        "sourceFileName": "VO_Tower\\vo_kinich_saferoom_others_01.wem",
        "rate": 1.0,
        "avatarName": "",
        "emotion": ""
      }
    ]
  },
  "7cde2908-23a2-4c69-878c-5f17501816b2": {
    "guid": "7cde2908-23a2-4c69-878c-5f17501816b2",
    "playRate": 1.0,
    "gameTrigger": "Dialog",
    "gameTriggerArgs": 693840303,
    "parentID": "f250ab51-8c5c-4f5d-81be-10cb72af3108",
    "sourceNames": [
      {
        "sourceFileName": "VO_Tower\\vo_kinich_saferoom_others_02.wem",
        "rate": 1.0,
        "avatarName": "",
        "emotion": ""
      }
    ]
  },
  "aa6e60f0-fcb5-4f3b-b13c-735e2cf81938": {
    "guid": "aa6e60f0-fcb5-4f3b-b13c-735e2cf81938",
    "playRate": 1.0,
    "gameTrigger": "Dialog",
    "gameTriggerArgs": 693840301,
    "parentID": "f250ab51-8c5c-4f5d-81be-10cb72af3108",
    "sourceNames": [
      {
        "sourceFileName": "VO_Tower\\vo_ajaw_saferoom_others_01.wem",
        "rate": 1.0,
        "avatarName": "",
        "emotion": ""
      }
    ]
  },
  "b87d0400-d270-4a11-bcc9-26f823f6228a": {
    "guid": "b87d0400-d270-4a11-bcc9-26f823f6228a",
    "playRate": 1.0,
    "gameTrigger": "Dialog",
    "gameTriggerArgs": 693840102,
    "parentID": "f250ab51-8c5c-4f5d-81be-10cb72af3108",
    "sourceNames": [
      {
        "sourceFileName": "VO_Tower\\vo_kinich_saferoom_rest_01.wem",
        "rate": 1.0,
        "avatarName": "",
        "emotion": ""
      }
    ]
  },
  "ec8c314c-31a8-4ea2-b47b-b9f926f7885f": {
    "guid": "ec8c314c-31a8-4ea2-b47b-b9f926f7885f",
    "playRate": 1.0,
    "gameTrigger": "Dialog",
    "gameTriggerArgs": 693840103,
    "parentID": "f250ab51-8c5c-4f5d-81be-10cb72af3108",
    "sourceNames": [
      {
        "sourceFileName": "VO_Tower\\vo_ajaw_saferoom_rest_02.wem",
        "rate": 1.0,
        "avatarName": "",
        "emotion": ""
      }
    ]
  }
}