{
  "3204f3c5-b3e3-4cbb-88d0-6b67c3265e73": {
    "guid": "3204f3c5-b3e3-4cbb-88d0-6b67c3265e73",
    "playRate": 1.0,
    "gameTrigger": "Dialog",
    "gameTriggerArgs": 693830202,
    "parentID": "d1135799-8f24-441b-868d-07879f1bedab",
    "sourceNames": [
      {
        "sourceFileName": "VO_Tower\\vo_emilie_saferoom_challenge_02.wem",
        "rate": 1.0,
        "avatarName": "",
        "emotion": ""
      }
    ]
  },
  "3663ea73-6940-4021-a3e4-acf3efcd327f": {
    "guid": "3663ea73-6940-4021-a3e4-acf3efcd327f",
    "playRate": 1.0,
    "gameTrigger": "Dialog",
    "gameTriggerArgs": 693830201,
    "parentID": "d1135799-8f24-441b-868d-07879f1bedab",
    "sourceNames": [
      {
        "sourceFileName": "VO_Tower\\vo_emilie_saferoom_challenge_01.wem",
        "rate": 1.0,
        "avatarName": "",
        "emotion": ""
      }
    ]
  },
  "40c84323-bffd-471e-ba56-e20ccfc9e92d": {
    "guid": "40c84323-bffd-471e-ba56-e20ccfc9e92d",
    "playRate": 1.0,
    "gameTrigger": "Dialog",
    "gameTriggerArgs": 693830301,
    "parentID": "d1135799-8f24-441b-868d-07879f1bedab",
    "sourceNames": [
      {
        "sourceFileName": "VO_Tower\\vo_emilie_saferoom_others_01.wem",
        "rate": 1.0,
        "avatarName": "",
        "emotion": ""
      }
    ]
  },
  "762280c9-6add-43af-92d6-9cb3c9949b00": {
    "guid": "762280c9-6add-43af-92d6-9cb3c9949b00",
    "playRate": 1.0,
    "gameTrigger": "Dialog",
    "gameTriggerArgs": 693830203,
    "parentID": "d1135799-8f24-441b-868d-07879f1bedab",
    "sourceNames": [
      {
        "sourceFileName": "VO_Tower\\vo_emilie_saferoom_challenge_03.wem",
        "rate": 1.0,
        "avatarName": "",
        "emotion": ""
      }
    ]
  },
  "81fc1fc6-034a-43a6-b3b2-5628c74b6270": {
    "guid": "81fc1fc6-034a-43a6-b3b2-5628c74b6270",
    "playRate": 1.0,
    "gameTrigger": "Dialog",
    "gameTriggerArgs": 693830303,
    "parentID": "d1135799-8f24-441b-868d-07879f1bedab",
    "sourceNames": [
      {
        "sourceFileName": "VO_Tower\\vo_emilie_saferoom_others_03.wem",
        "rate": 1.0,
        "avatarName": "",
        "emotion": ""
      }
    ]
  },
  "97980896-c449-4a41-b7d8-a6fcd59bcb29": {
    "guid": "97980896-c449-4a41-b7d8-a6fcd59bcb29",
    "playRate": 1.0,
    "gameTrigger": "Dialog",
    "gameTriggerArgs": 693830103,
    "parentID": "d1135799-8f24-441b-868d-07879f1bedab",
    "sourceNames": [
      {
        "sourceFileName": "VO_Tower\\vo_emilie_saferoom_rest_03.wem",
        "rate": 1.0,
        "avatarName": "",
        "emotion": ""
      }
    ]
  },
  "9ec35a86-f89d-429d-ab0a-b5b1dc2f79a6": {
    "guid": "9ec35a86-f89d-429d-ab0a-b5b1dc2f79a6",
    "playRate": 1.0,
    "gameTrigger": "Dialog",
    "gameTriggerArgs": 693830101,
    "parentID": "d1135799-8f24-441b-868d-07879f1bedab",
    "sourceNames": [
      {
        "sourceFileName": "VO_Tower\\vo_emilie_saferoom_rest_01.wem",
        "rate": 1.0,
        "avatarName": "",
        "emotion": ""
      }
    ]
  },
  "bfa489c1-82fc-406c-8748-a2aa1ddf4fa3": {
    "guid": "bfa489c1-82fc-406c-8748-a2aa1ddf4fa3",
    "playRate": 1.0,
    "gameTrigger": "Dialog",
    "gameTriggerArgs": 693830302,
    "parentID": "d1135799-8f24-441b-868d-07879f1bedab",
    "sourceNames": [
      {
        "sourceFileName": "VO_Tower\\vo_emilie_saferoom_others_02.wem",
        "rate": 1.0,
        "avatarName": "",
        "emotion": ""
      }
    ]
  },
  "c7002941-8475-4a57-906b-6b47490eb2b7": {
    "guid": "c7002941-8475-4a57-906b-6b47490eb2b7",
    "playRate": 1.0,
    "gameTrigger": "Dialog",
    "gameTriggerArgs": 693830102,
    "parentID": "d1135799-8f24-441b-868d-07879f1bedab",
    "sourceNames": [
      {
        "sourceFileName": "VO_Tower\\vo_emilie_saferoom_rest_02.wem",
        "rate": 1.0,
        "avatarName": "",
        "emotion": ""
      }
    ]
  }
}