{
  "9354547a-5b5c-4554-906c-72ea52964b64": {
    "guid": "9354547a-5b5c-4554-906c-72ea52964b64",
    "playRate": 1.0,
    "gameTrigger": "Dialog",
    "gameTriggerArgs": 191619906,
    "personalConfig": 2,
    "DDNLACJICEC": 1,
    "isPlayOnTeam": true,
    "parentID": "7160a70c-0d79-46d5-bd72-ab06c3958f24",
    "sourceNames": [
      {
        "sourceFileName": "VO_COOP\\VO_layla\\vo_LYLCOP001_1916104_layla_02.wem",
        "rate": 1.0,
        "avatarName": "",
        "emotion": ""
      }
    ]
  },
  "f34e950b-6e99-45f7-879d-8a286b3012b0": {
    "guid": "f34e950b-6e99-45f7-879d-8a286b3012b0",
    "playRate": 1.0,
    "gameTrigger": "Dialog",
    "gameTriggerArgs": 191610401,
    "personalConfig": 2,
    "parentID": "7160a70c-0d79-46d5-bd72-ab06c3958f24",
    "sourceNames": [
      {
        "sourceFileName": "VO_COOP\\VO_layla\\vo_LYLCOP001_1916104_layla_01.wem",
        "rate": 1.0,
        "avatarName": "",
        "emotion": ""
      }
    ]
  }
}