{
  "00a88dce-1a22-445b-a0ee-1a74c4cb8733": {
    "guid": "00a88dce-1a22-445b-a0ee-1a74c4cb8733",
    "playRate": 1.0,
    "gameTrigger": "Dialog",
    "gameTriggerArgs": 693740102,
    "parentID": "680bccae-7f4c-49b3-b745-c483f90434f2",
    "sourceNames": [
      {
        "sourceFileName": "VO_Tower\\vo_chevreuse_saferoom_rest_02.wem",
        "rate": 1.0,
        "avatarName": "",
        "emotion": ""
      }
    ]
  },
  "3402d3e9-2636-46ae-b32e-5960a0daf41e": {
    "guid": "3402d3e9-2636-46ae-b32e-5960a0daf41e",
    "playRate": 1.0,
    "gameTrigger": "Dialog",
    "gameTriggerArgs": 693740301,
    "parentID": "680bccae-7f4c-49b3-b745-c483f90434f2",
    "sourceNames": [
      {
        "sourceFileName": "VO_Tower\\vo_chevreuse_saferoom_others_01.wem",
        "rate": 1.0,
        "avatarName": "",
        "emotion": ""
      }
    ]
  },
  "42c944f1-3d90-4597-9a32-b30770f0cc00": {
    "guid": "42c944f1-3d90-4597-9a32-b30770f0cc00",
    "playRate": 1.0,
    "gameTrigger": "Dialog",
    "gameTriggerArgs": 693740303,
    "parentID": "680bccae-7f4c-49b3-b745-c483f90434f2",
    "sourceNames": [
      {
        "sourceFileName": "VO_Tower\\vo_chevreuse_saferoom_others_03.wem",
        "rate": 1.0,
        "avatarName": "",
        "emotion": ""
      }
    ]
  },
  "574ac729-68ff-4050-bfc2-43b70ade0b3d": {
    "guid": "574ac729-68ff-4050-bfc2-43b70ade0b3d",
    "playRate": 1.0,
    "gameTrigger": "Dialog",
    "gameTriggerArgs": 693740201,
    "parentID": "680bccae-7f4c-49b3-b745-c483f90434f2",
    "sourceNames": [
      {
        "sourceFileName": "VO_Tower\\vo_chevreuse_saferoom_challenge_01.wem",
        "rate": 1.0,
        "avatarName": "",
        "emotion": ""
      }
    ]
  },
  "9ff1a208-ec68-48cb-bb48-0b0a77128064": {
    "guid": "9ff1a208-ec68-48cb-bb48-0b0a77128064",
    "playRate": 1.0,
    "gameTrigger": "Dialog",
    "gameTriggerArgs": 693740101,
    "parentID": "680bccae-7f4c-49b3-b745-c483f90434f2",
    "sourceNames": [
      {
        "sourceFileName": "VO_Tower\\vo_chevreuse_saferoom_rest_01.wem",
        "rate": 1.0,
        "avatarName": "",
        "emotion": ""
      }
    ]
  },
  "af8e1cc4-5d10-40b6-8eb2-865c981ed73a": {
    "guid": "af8e1cc4-5d10-40b6-8eb2-865c981ed73a",
    "playRate": 1.0,
    "gameTrigger": "Dialog",
    "gameTriggerArgs": 693740302,
    "parentID": "680bccae-7f4c-49b3-b745-c483f90434f2",
    "sourceNames": [
      {
        "sourceFileName": "VO_Tower\\vo_chevreuse_saferoom_others_02.wem",
        "rate": 1.0,
        "avatarName": "",
        "emotion": ""
      }
    ]
  },
  "b2d34e13-8460-462c-8fb1-a67eebf9da3b": {
    "guid": "b2d34e13-8460-462c-8fb1-a67eebf9da3b",
    "playRate": 1.0,
    "gameTrigger": "Dialog",
    "gameTriggerArgs": 693740202,
    "parentID": "680bccae-7f4c-49b3-b745-c483f90434f2",
    "sourceNames": [
      {
        "sourceFileName": "VO_Tower\\vo_chevreuse_saferoom_challenge_02.wem",
        "rate": 1.0,
        "avatarName": "",
        "emotion": ""
      }
    ]
  },
  "b829c858-22f9-4fd7-a032-99790c20fcc5": {
    "guid": "b829c858-22f9-4fd7-a032-99790c20fcc5",
    "playRate": 1.0,
    "gameTrigger": "Dialog",
    "gameTriggerArgs": 693740203,
    "parentID": "680bccae-7f4c-49b3-b745-c483f90434f2",
    "sourceNames": [
      {
        "sourceFileName": "VO_Tower\\vo_chevreuse_saferoom_challenge_03.wem",
        "rate": 1.0,
        "avatarName": "",
        "emotion": ""
      }
    ]
  },
  "fee881fb-ecd2-4a24-a5e0-f32950853e6d": {
    "guid": "fee881fb-ecd2-4a24-a5e0-f32950853e6d",
    "playRate": 1.0,
    "gameTrigger": "Dialog",
    "gameTriggerArgs": 693740103,
    "parentID": "680bccae-7f4c-49b3-b745-c483f90434f2",
    "sourceNames": [
      {
        "sourceFileName": "VO_Tower\\vo_chevreuse_saferoom_rest_03.wem",
        "rate": 1.0,
        "avatarName": "",
        "emotion": ""
      }
    ]
  }
}