{
  "0d46304c-bafb-4d61-b98d-7a7321016ab5": {
    "guid": "0d46304c-bafb-4d61-b98d-7a7321016ab5",
    "playRate": 1.0,
    "gameTrigger": "Dialog",
    "gameTriggerArgs": 693030303,
    "parentID": "d5122646-d3e6-4048-8dc8-c5a779c91ff0",
    "sourceNames": [
      {
        "sourceFileName": "VO_Tower\\vo_lisa_saferoom_others_03.wem",
        "rate": 1.0,
        "avatarName": "",
        "emotion": ""
      }
    ]
  },
  "281eb71e-55e6-4ea2-b313-302df46059d6": {
    "guid": "281eb71e-55e6-4ea2-b313-302df46059d6",
    "playRate": 1.0,
    "gameTrigger": "Dialog",
    "gameTriggerArgs": 693030202,
    "parentID": "d5122646-d3e6-4048-8dc8-c5a779c91ff0",
    "sourceNames": [
      {
        "sourceFileName": "VO_Tower\\vo_lisa_saferoom_challenge_02.wem",
        "rate": 1.0,
        "avatarName": "",
        "emotion": ""
      }
    ]
  },
  "4acb9140-1853-4b53-9892-6ed82d7b2cd0": {
    "guid": "4acb9140-1853-4b53-9892-6ed82d7b2cd0",
    "playRate": 1.0,
    "gameTrigger": "Dialog",
    "gameTriggerArgs": 693030101,
    "parentID": "d5122646-d3e6-4048-8dc8-c5a779c91ff0",
    "sourceNames": [
      {
        "sourceFileName": "VO_Tower\\vo_lisa_saferoom_rest_01.wem",
        "rate": 1.0,
        "avatarName": "",
        "emotion": ""
      }
    ]
  },
  "4f6a0090-f0b2-4053-bbe0-847e7cccf151": {
    "guid": "4f6a0090-f0b2-4053-bbe0-847e7cccf151",
    "playRate": 1.0,
    "gameTrigger": "Dialog",
    "gameTriggerArgs": 693030102,
    "parentID": "d5122646-d3e6-4048-8dc8-c5a779c91ff0",
    "sourceNames": [
      {
        "sourceFileName": "VO_Tower\\vo_lisa_saferoom_rest_02.wem",
        "rate": 1.0,
        "avatarName": "",
        "emotion": ""
      }
    ]
  },
  "756e3f41-fa41-4014-9e21-31dc2c72add1": {
    "guid": "756e3f41-fa41-4014-9e21-31dc2c72add1",
    "playRate": 1.0,
    "gameTrigger": "Dialog",
    "gameTriggerArgs": 693030203,
    "parentID": "d5122646-d3e6-4048-8dc8-c5a779c91ff0",
    "sourceNames": [
      {
        "sourceFileName": "VO_Tower\\vo_lisa_saferoom_challenge_03.wem",
        "rate": 1.0,
        "avatarName": "",
        "emotion": ""
      }
    ]
  },
  "7c7267b9-42c2-49eb-bae4-1c1acf7c263b": {
    "guid": "7c7267b9-42c2-49eb-bae4-1c1acf7c263b",
    "playRate": 1.0,
    "gameTrigger": "Dialog",
    "gameTriggerArgs": 693030201,
    "parentID": "d5122646-d3e6-4048-8dc8-c5a779c91ff0",
    "sourceNames": [
      {
        "sourceFileName": "VO_Tower\\vo_lisa_saferoom_challenge_01.wem",
        "rate": 1.0,
        "avatarName": "",
        "emotion": ""
      }
    ]
  },
  "9ac3bdd5-48a6-4879-a4da-33de1d355f9d": {
    "guid": "9ac3bdd5-48a6-4879-a4da-33de1d355f9d",
    "playRate": 1.0,
    "gameTrigger": "Dialog",
    "gameTriggerArgs": 693030103,
    "parentID": "d5122646-d3e6-4048-8dc8-c5a779c91ff0",
    "sourceNames": [
      {
        "sourceFileName": "VO_Tower\\vo_lisa_saferoom_rest_03.wem",
        "rate": 1.0,
        "avatarName": "",
        "emotion": ""
      }
    ]
  },
  "b9e657dd-8ce1-4e2b-9e8b-acc4ead045cf": {
    "guid": "b9e657dd-8ce1-4e2b-9e8b-acc4ead045cf",
    "playRate": 1.0,
    "gameTrigger": "Dialog",
    "gameTriggerArgs": 693030302,
    "parentID": "d5122646-d3e6-4048-8dc8-c5a779c91ff0",
    "sourceNames": [
      {
        "sourceFileName": "VO_Tower\\vo_lisa_saferoom_others_02.wem",
        "rate": 1.0,
        "avatarName": "",
        "emotion": ""
      }
    ]
  },
  "e1a37cfe-0d99-44e4-a06c-b843c48e1dc4": {
    "guid": "e1a37cfe-0d99-44e4-a06c-b843c48e1dc4",
    "playRate": 1.0,
    "gameTrigger": "Dialog",
    "gameTriggerArgs": 693030301,
    "parentID": "d5122646-d3e6-4048-8dc8-c5a779c91ff0",
    "sourceNames": [
      {
        "sourceFileName": "VO_Tower\\vo_lisa_saferoom_others_01.wem",
        "rate": 1.0,
        "avatarName": "",
        "emotion": ""
      }
    ]
  }
}