{
  "01984690-5ad6-4b1e-bd1b-f69933d04f7e": {
    "guid": "01984690-5ad6-4b1e-bd1b-f69933d04f7e",
    "playRate": 1.0,
    "gameTrigger": "Dialog",
    "gameTriggerArgs": 693600302,
    "parentID": "3b42e8f6-1fdd-4502-ba1a-a7bd2d484e0b",
    "sourceNames": [
      {
        "sourceFileName": "VO_Tower\\vo_yaoyao_saferoom_others_02.wem",
        "rate": 1.0,
        "avatarName": "",
        "emotion": ""
      }
    ]
  },
  "18d12d7e-db50-499f-8ebb-8a413f526cdf": {
    "guid": "18d12d7e-db50-499f-8ebb-8a413f526cdf",
    "playRate": 1.0,
    "gameTrigger": "Dialog",
    "gameTriggerArgs": 693600303,
    "parentID": "3b42e8f6-1fdd-4502-ba1a-a7bd2d484e0b",
    "sourceNames": [
      {
        "sourceFileName": "VO_Tower\\vo_yaoyao_saferoom_others_03.wem",
        "rate": 1.0,
        "avatarName": "",
        "emotion": ""
      }
    ]
  },
  "31a9fd51-ec56-455e-9769-4fce68c73275": {
    "guid": "31a9fd51-ec56-455e-9769-4fce68c73275",
    "playRate": 1.0,
    "gameTrigger": "Dialog",
    "gameTriggerArgs": 693600103,
    "parentID": "3b42e8f6-1fdd-4502-ba1a-a7bd2d484e0b",
    "sourceNames": [
      {
        "sourceFileName": "VO_Tower\\vo_yaoyao_saferoom_rest_03.wem",
        "rate": 1.0,
        "avatarName": "",
        "emotion": ""
      }
    ]
  },
  "3bae263c-c92a-46a4-8236-e8cca7b1ade9": {
    "guid": "3bae263c-c92a-46a4-8236-e8cca7b1ade9",
    "playRate": 1.0,
    "gameTrigger": "Dialog",
    "gameTriggerArgs": 693600102,
    "parentID": "3b42e8f6-1fdd-4502-ba1a-a7bd2d484e0b",
    "sourceNames": [
      {
        "sourceFileName": "VO_Tower\\vo_yaoyao_saferoom_rest_02.wem",
        "rate": 1.0,
        "avatarName": "",
        "emotion": ""
      }
    ]
  },
  "5040c12f-643a-48a4-af6e-163acbfd6256": {
    "guid": "5040c12f-643a-48a4-af6e-163acbfd6256",
    "playRate": 1.0,
    "gameTrigger": "Dialog",
    "gameTriggerArgs": 693600202,
    "parentID": "3b42e8f6-1fdd-4502-ba1a-a7bd2d484e0b",
    "sourceNames": [
      {
        "sourceFileName": "VO_Tower\\vo_yaoyao_saferoom_challenge_02.wem",
        "rate": 1.0,
        "avatarName": "",
        "emotion": ""
      }
    ]
  },
  "94822703-887b-40d2-991a-e1ae4594d914": {
    "guid": "94822703-887b-40d2-991a-e1ae4594d914",
    "playRate": 1.0,
    "gameTrigger": "Dialog",
    "gameTriggerArgs": 693600201,
    "parentID": "3b42e8f6-1fdd-4502-ba1a-a7bd2d484e0b",
    "sourceNames": [
      {
        "sourceFileName": "VO_Tower\\vo_yaoyao_saferoom_challenge_01.wem",
        "rate": 1.0,
        "avatarName": "",
        "emotion": ""
      }
    ]
  },
  "9a9f992c-ed3a-4717-b7ef-1a3580503162": {
    "guid": "9a9f992c-ed3a-4717-b7ef-1a3580503162",
    "playRate": 1.0,
    "gameTrigger": "Dialog",
    "gameTriggerArgs": 693600203,
    "parentID": "3b42e8f6-1fdd-4502-ba1a-a7bd2d484e0b",
    "sourceNames": [
      {
        "sourceFileName": "VO_Tower\\vo_yaoyao_saferoom_challenge_03.wem",
        "rate": 1.0,
        "avatarName": "",
        "emotion": ""
      }
    ]
  },
  "a672de2c-3f43-473f-b570-84066ac2f587": {
    "guid": "a672de2c-3f43-473f-b570-84066ac2f587",
    "playRate": 1.0,
    "gameTrigger": "Dialog",
    "gameTriggerArgs": 693600101,
    "parentID": "3b42e8f6-1fdd-4502-ba1a-a7bd2d484e0b",
    "sourceNames": [
      {
        "sourceFileName": "VO_Tower\\vo_yaoyao_saferoom_rest_01.wem",
        "rate": 1.0,
        "avatarName": "",
        "emotion": ""
      }
    ]
  },
  "cbe86b03-eb0e-4665-9beb-7db3cf1ecf6a": {
    "guid": "cbe86b03-eb0e-4665-9beb-7db3cf1ecf6a",
    "playRate": 1.0,
    "gameTrigger": "Dialog",
    "gameTriggerArgs": 693600301,
    "parentID": "3b42e8f6-1fdd-4502-ba1a-a7bd2d484e0b",
    "sourceNames": [
      {
        "sourceFileName": "VO_Tower\\vo_yaoyao_saferoom_others_01.wem",
        "rate": 1.0,
        "avatarName": "",
        "emotion": ""
      }
    ]
  }
}