{
  "0f101426-4eaa-4f73-85b4-c1f2b1c13e62": {
    "guid": "0f101426-4eaa-4f73-85b4-c1f2b1c13e62",
    "playRate": 1.0,
    "gameTrigger": "Dialog",
    "gameTriggerArgs": 693200202,
    "parentID": "cc7b8068-9f0f-47a4-9537-88c9494e59db",
    "sourceNames": [
      {
        "sourceFileName": "VO_Tower\\vo_venti_saferoom_challenge_02.wem",
        "rate": 1.0,
        "avatarName": "",
        "emotion": ""
      }
    ]
  },
  "20666b36-3d7f-4290-a8ca-7136acf63c1a": {
    "guid": "20666b36-3d7f-4290-a8ca-7136acf63c1a",
    "playRate": 1.0,
    "gameTrigger": "Dialog",
    "gameTriggerArgs": 693200201,
    "parentID": "cc7b8068-9f0f-47a4-9537-88c9494e59db",
    "sourceNames": [
      {
        "sourceFileName": "VO_Tower\\vo_venti_saferoom_challenge_01.wem",
        "rate": 1.0,
        "avatarName": "",
        "emotion": ""
      }
    ]
  },
  "37dbb884-da2f-4aa9-8212-39edfea3d015": {
    "guid": "37dbb884-da2f-4aa9-8212-39edfea3d015",
    "playRate": 1.0,
    "gameTrigger": "Dialog",
    "gameTriggerArgs": 693200102,
    "parentID": "cc7b8068-9f0f-47a4-9537-88c9494e59db",
    "sourceNames": [
      {
        "sourceFileName": "VO_Tower\\vo_venti_saferoom_rest_02.wem",
        "rate": 1.0,
        "avatarName": "",
        "emotion": ""
      }
    ]
  },
  "4092e59e-a47c-4ce4-a893-4640eb161d71": {
    "guid": "4092e59e-a47c-4ce4-a893-4640eb161d71",
    "playRate": 1.0,
    "gameTrigger": "Dialog",
    "gameTriggerArgs": 693200103,
    "parentID": "cc7b8068-9f0f-47a4-9537-88c9494e59db",
    "sourceNames": [
      {
        "sourceFileName": "VO_Tower\\vo_venti_saferoom_rest_03.wem",
        "rate": 1.0,
        "avatarName": "",
        "emotion": ""
      }
    ]
  },
  "9342679d-64dd-40e3-ad86-0e91086d51c8": {
    "guid": "9342679d-64dd-40e3-ad86-0e91086d51c8",
    "playRate": 1.0,
    "gameTrigger": "Dialog",
    "gameTriggerArgs": 693200303,
    "parentID": "cc7b8068-9f0f-47a4-9537-88c9494e59db",
    "sourceNames": [
      {
        "sourceFileName": "VO_Tower\\vo_venti_saferoom_others_03.wem",
        "rate": 1.0,
        "avatarName": "",
        "emotion": ""
      }
    ]
  },
  "a09be137-3eaf-45a7-9ecf-ff16058bbe35": {
    "guid": "a09be137-3eaf-45a7-9ecf-ff16058bbe35",
    "playRate": 1.0,
    "gameTrigger": "Dialog",
    "gameTriggerArgs": 693200301,
    "parentID": "cc7b8068-9f0f-47a4-9537-88c9494e59db",
    "sourceNames": [
      {
        "sourceFileName": "VO_Tower\\vo_venti_saferoom_others_01.wem",
        "rate": 1.0,
        "avatarName": "",
        "emotion": ""
      }
    ]
  },
  "e5690014-2703-49b0-bd3e-69e3c268a7ca": {
    "guid": "e5690014-2703-49b0-bd3e-69e3c268a7ca",
    "playRate": 1.0,
    "gameTrigger": "Dialog",
    "gameTriggerArgs": 693200203,
    "parentID": "cc7b8068-9f0f-47a4-9537-88c9494e59db",
    "sourceNames": [
      {
        "sourceFileName": "VO_Tower\\vo_venti_saferoom_challenge_03.wem",
        "rate": 1.0,
        "avatarName": "",
        "emotion": ""
      }
    ]
  },
  "ec19347d-9bf3-4fdc-83fe-dc884e33c7b4": {
    "guid": "ec19347d-9bf3-4fdc-83fe-dc884e33c7b4",
    "playRate": 1.0,
    "gameTrigger": "Dialog",
    "gameTriggerArgs": 693200302,
    "parentID": "cc7b8068-9f0f-47a4-9537-88c9494e59db",
    "sourceNames": [
      {
        "sourceFileName": "VO_Tower\\vo_venti_saferoom_others_02.wem",
        "rate": 1.0,
        "avatarName": "",
        "emotion": ""
      }
    ]
  },
  "f604cfae-6a5c-43e5-b7e3-4c7a84d078e8": {
    "guid": "f604cfae-6a5c-43e5-b7e3-4c7a84d078e8",
    "playRate": 1.0,
    "gameTrigger": "Dialog",
    "gameTriggerArgs": 693200101,
    "parentID": "cc7b8068-9f0f-47a4-9537-88c9494e59db",
    "sourceNames": [
      {
        "sourceFileName": "VO_Tower\\vo_venti_saferoom_rest_01.wem",
        "rate": 1.0,
        "avatarName": "",
        "emotion": ""
      }
    ]
  }
}