{
  "1d535cee-f1ac-464d-baf1-d5d3110859cd": {
    "guid": "1d535cee-f1ac-464d-baf1-d5d3110859cd",
    "playRate": 1.0,
    "gameTrigger": "Dialog",
    "gameTriggerArgs": 693410101,
    "parentID": "95719299-d515-4393-9b52-48a500f4ca86",
    "sourceNames": [
      {
        "sourceFileName": "VO_Tower\\vo_gorou_saferoom_rest_01.wem",
        "rate": 1.0,
        "avatarName": "",
        "emotion": ""
      }
    ]
  },
  "2ccc940d-8391-45ef-91bd-fee3ede9c35b": {
    "guid": "2ccc940d-8391-45ef-91bd-fee3ede9c35b",
    "playRate": 1.0,
    "gameTrigger": "Dialog",
    "gameTriggerArgs": 693410102,
    "parentID": "95719299-d515-4393-9b52-48a500f4ca86",
    "sourceNames": [
      {
        "sourceFileName": "VO_Tower\\vo_gorou_saferoom_rest_02.wem",
        "rate": 1.0,
        "avatarName": "",
        "emotion": ""
      }
    ]
  },
  "5958d951-2c65-4f21-8a14-831d36df1086": {
    "guid": "5958d951-2c65-4f21-8a14-831d36df1086",
    "playRate": 1.0,
    "gameTrigger": "Dialog",
    "gameTriggerArgs": 693410202,
    "parentID": "95719299-d515-4393-9b52-48a500f4ca86",
    "sourceNames": [
      {
        "sourceFileName": "VO_Tower\\vo_gorou_saferoom_challenge_02.wem",
        "rate": 1.0,
        "avatarName": "",
        "emotion": ""
      }
    ]
  },
  "65b2a793-0184-4c29-8d78-607c1482dad4": {
    "guid": "65b2a793-0184-4c29-8d78-607c1482dad4",
    "playRate": 1.0,
    "gameTrigger": "Dialog",
    "gameTriggerArgs": 693410103,
    "parentID": "95719299-d515-4393-9b52-48a500f4ca86",
    "sourceNames": [
      {
        "sourceFileName": "VO_Tower\\vo_gorou_saferoom_rest_03.wem",
        "rate": 1.0,
        "avatarName": "",
        "emotion": ""
      }
    ]
  },
  "c4c3bf9e-effd-470c-b97b-39d0fce0d294": {
    "guid": "c4c3bf9e-effd-470c-b97b-39d0fce0d294",
    "playRate": 1.0,
    "gameTrigger": "Dialog",
    "gameTriggerArgs": 693410302,
    "parentID": "95719299-d515-4393-9b52-48a500f4ca86",
    "sourceNames": [
      {
        "sourceFileName": "VO_Tower\\vo_gorou_saferoom_others_02.wem",
        "rate": 1.0,
        "avatarName": "",
        "emotion": ""
      }
    ]
  },
  "cf662853-c55d-4f99-a629-abcac6d33783": {
    "guid": "cf662853-c55d-4f99-a629-abcac6d33783",
    "playRate": 1.0,
    "gameTrigger": "Dialog",
    "gameTriggerArgs": 693410201,
    "parentID": "95719299-d515-4393-9b52-48a500f4ca86",
    "sourceNames": [
      {
        "sourceFileName": "VO_Tower\\vo_gorou_saferoom_challenge_01.wem",
        "rate": 1.0,
        "avatarName": "",
        "emotion": ""
      }
    ]
  },
  "f87b84ac-c7aa-4549-8578-467d6de74ac1": {
    "guid": "f87b84ac-c7aa-4549-8578-467d6de74ac1",
    "playRate": 1.0,
    "gameTrigger": "Dialog",
    "gameTriggerArgs": 693410301,
    "parentID": "95719299-d515-4393-9b52-48a500f4ca86",
    "sourceNames": [
      {
        "sourceFileName": "VO_Tower\\vo_gorou_saferoom_others_01.wem",
        "rate": 1.0,
        "avatarName": "",
        "emotion": ""
      }
    ]
  },
  "fc55eb16-7d0c-401f-9be5-e08122fa7138": {
    "guid": "fc55eb16-7d0c-401f-9be5-e08122fa7138",
    "playRate": 1.0,
    "gameTrigger": "Dialog",
    "gameTriggerArgs": 693410203,
    "parentID": "95719299-d515-4393-9b52-48a500f4ca86",
    "sourceNames": [
      {
        "sourceFileName": "VO_Tower\\vo_gorou_saferoom_challenge_03.wem",
        "rate": 1.0,
        "avatarName": "",
        "emotion": ""
      }
    ]
  },
  "fefb892e-01a6-46a4-bd82-a2beb307b264": {
    "guid": "fefb892e-01a6-46a4-bd82-a2beb307b264",
    "playRate": 1.0,
    "gameTrigger": "Dialog",
    "gameTriggerArgs": 693410303,
    "parentID": "95719299-d515-4393-9b52-48a500f4ca86",
    "sourceNames": [
      {
        "sourceFileName": "VO_Tower\\vo_gorou_saferoom_others_03.wem",
        "rate": 1.0,
        "avatarName": "",
        "emotion": ""
      }
    ]
  }
}