{
  "05e89d77-adcb-4c95-b842-cb0960d4f0ae": {
    "guid": "05e89d77-adcb-4c95-b842-cb0960d4f0ae",
    "playRate": 1.0,
    "gameTrigger": "Dialog",
    "gameTriggerArgs": 401439602,
    "personalConfig": 2,
    "parentID": "bd5b0241-1bcd-4bb3-8162-2e1af3e70cb4",
    "sourceNames": [
      {
        "sourceFileName": "VO_freetalk\\VO_lyney\\vo_dialog_ZFEQ001_lyney_01.wem",
        "rate": 1.0,
        "avatarName": "",
        "emotion": ""
      }
    ]
  },
  "06fcd4cc-11f4-4baf-910d-48d79dcd17d6": {
    "guid": "06fcd4cc-11f4-4baf-910d-48d79dcd17d6",
    "playRate": 1.0,
    "gameTrigger": "Dialog",
    "gameTriggerArgs": 140011501,
    "personalConfig": 2,
    "parentID": "bd5b0241-1bcd-4bb3-8162-2e1af3e70cb4",
    "sourceNames": [
      {
        "sourceFileName": "VO_freetalk\\VO_lyney\\vo_dialog_LNLQ002_lyney_01.wem",
        "rate": 1.0,
        "avatarName": "",
        "emotion": ""
      }
    ]
  },
  "29b7873b-e060-40ec-bebb-84832e338b0e": {
    "guid": "29b7873b-e060-40ec-bebb-84832e338b0e",
    "playRate": 1.0,
    "gameTrigger": "Dialog",
    "gameTriggerArgs": 40102403,
    "personalConfig": 2,
    "parentID": "bd5b0241-1bcd-4bb3-8162-2e1af3e70cb4",
    "sourceNames": [
      {
        "sourceFileName": "VO_freetalk\\VO_lyney\\vo_dialog_FDAQ108_lyney_01.wem",
        "rate": 1.0,
        "avatarName": "",
        "emotion": ""
      }
    ]
  },
  "37b1df85-c0a3-4ec2-848c-43bafea2fd9d": {
    "guid": "37b1df85-c0a3-4ec2-848c-43bafea2fd9d",
    "playRate": 1.0,
    "gameTrigger": "Dialog",
    "gameTriggerArgs": 140250802,
    "personalConfig": 2,
    "parentID": "bd5b0241-1bcd-4bb3-8162-2e1af3e70cb4",
    "sourceNames": [
      {
        "sourceFileName": "VO_freetalk\\VO_lyney\\vo_dialog_ARLQ003_lyney_01.wem",
        "rate": 1.0,
        "avatarName": "",
        "emotion": ""
      }
    ]
  },
  "40dcfbe5-ff31-4bee-9119-e5b4d467d5b1": {
    "guid": "40dcfbe5-ff31-4bee-9119-e5b4d467d5b1",
    "playRate": 1.0,
    "gameTrigger": "Dialog",
    "gameTriggerArgs": 401439406,
    "personalConfig": 2,
    "parentID": "bd5b0241-1bcd-4bb3-8162-2e1af3e70cb4",
    "sourceNames": [
      {
        "sourceFileName": "VO_freetalk\\VO_lyney\\vo_dialog_ZFEQ001_lyney_05.wem",
        "rate": 1.0,
        "avatarName": "",
        "emotion": ""
      }
    ]
  },
  "42421b35-bca9-4457-918f-56d080112da7": {
    "guid": "42421b35-bca9-4457-918f-56d080112da7",
    "playRate": 1.0,
    "gameTrigger": "Dialog",
    "gameTriggerArgs": 140335401,
    "personalConfig": 2,
    "parentID": "bd5b0241-1bcd-4bb3-8162-2e1af3e70cb4",
    "sourceNames": [
      {
        "sourceFileName": "VO_freetalk\\VO_lyney\\vo_dialog_CLLQ003_lyney_01.wem",
        "rate": 1.0,
        "avatarName": "",
        "emotion": ""
      },
      {
        "sourceFileName": "VO_freetalk\\VO_lyney\\vo_dialog_CLLQ003_lyney_01.wem",
        "rate": 1.0,
        "avatarName": "",
        "emotion": ""
      },
      {
        "sourceFileName": "VO_freetalk\\VO_lyney\\vo_dialog_CLLQ003_lyney_01.wem",
        "rate": 1.0,
        "avatarName": "",
        "emotion": ""
      },
      {
        "sourceFileName": "VO_freetalk\\VO_lyney\\vo_dialog_CLLQ003_lyney_01.wem",
        "rate": 1.0,
        "avatarName": "",
        "emotion": ""
      }
    ]
  },
  "5959f410-af1e-43f5-b75e-ba33817848d1": {
    "guid": "5959f410-af1e-43f5-b75e-ba33817848d1",
    "playRate": 1.0,
    "gameTrigger": "Dialog",
    "gameTriggerArgs": 401439403,
    "personalConfig": 2,
    "parentID": "bd5b0241-1bcd-4bb3-8162-2e1af3e70cb4",
    "sourceNames": [
      {
        "sourceFileName": "VO_freetalk\\VO_lyney\\vo_dialog_ZFEQ001_lyney_04.wem",
        "rate": 1.0,
        "avatarName": "",
        "emotion": ""
      }
    ]
  },
  "864e4bf6-b5d6-4047-b452-69293db43b1b": {
    "guid": "864e4bf6-b5d6-4047-b452-69293db43b1b",
    "playRate": 1.0,
    "gameTrigger": "Dialog",
    "gameTriggerArgs": 401439402,
    "personalConfig": 2,
    "parentID": "bd5b0241-1bcd-4bb3-8162-2e1af3e70cb4",
    "sourceNames": [
      {
        "sourceFileName": "VO_freetalk\\VO_lyney\\vo_dialog_ZFEQ001_lyney_03.wem",
        "rate": 1.0,
        "avatarName": "",
        "emotion": ""
      }
    ]
  },
  "a30ad7a1-ac51-49c6-8cf4-0a687f743987": {
    "guid": "a30ad7a1-ac51-49c6-8cf4-0a687f743987",
    "playRate": 1.0,
    "gameTrigger": "Dialog",
    "gameTriggerArgs": 401439401,
    "personalConfig": 2,
    "parentID": "bd5b0241-1bcd-4bb3-8162-2e1af3e70cb4",
    "sourceNames": [
      {
        "sourceFileName": "VO_freetalk\\VO_lyney\\vo_dialog_ZFEQ001_lyney_02.wem",
        "rate": 1.0,
        "avatarName": "",
        "emotion": ""
      }
    ]
  },
  "ab331d25-7984-41d5-a59b-d8e315ec224a": {
    "guid": "ab331d25-7984-41d5-a59b-d8e315ec224a",
    "playRate": 1.0,
    "gameTrigger": "Dialog",
    "gameTriggerArgs": 140232201,
    "personalConfig": 2,
    "parentID": "bd5b0241-1bcd-4bb3-8162-2e1af3e70cb4",
    "sourceNames": [
      {
        "sourceFileName": "VO_freetalk\\VO_lyney\\vo_dialog_ARLQ001_lyney_01.wem",
        "rate": 1.0,
        "avatarName": "",
        "emotion": ""
      }
    ]
  },
  "b982cfe2-ca5c-46e9-967b-abb5fb52eedf": {
    "guid": "b982cfe2-ca5c-46e9-967b-abb5fb52eedf",
    "playRate": 1.0,
    "gameTrigger": "Dialog",
    "gameTriggerArgs": 40082101,
    "personalConfig": 2,
    "parentID": "bd5b0241-1bcd-4bb3-8162-2e1af3e70cb4",
    "sourceNames": [
      {
        "sourceFileName": "VO_freetalk\\VO_lyney\\vo_dialog_FDAQ106_lyney_01.wem",
        "rate": 1.0,
        "avatarName": "",
        "emotion": ""
      }
    ]
  },
  "e7657c88-dacd-4fbd-b270-da57e8c6edc5": {
    "guid": "e7657c88-dacd-4fbd-b270-da57e8c6edc5",
    "playRate": 1.0,
    "gameTrigger": "Dialog",
    "gameTriggerArgs": 40192202,
    "personalConfig": 2,
    "parentID": "bd5b0241-1bcd-4bb3-8162-2e1af3e70cb4",
    "sourceNames": [
      {
        "sourceFileName": "VO_freetalk\\VO_lyney\\vo_dialog_FDAQ109_lyney_01.wem",
        "rate": 1.0,
        "avatarName": "",
        "emotion": ""
      }
    ]
  }
}