{
  "0eb6ed8f-372c-4d76-b832-486433c8ab99": {
    "guid": "0eb6ed8f-372c-4d76-b832-486433c8ab99",
    "playRate": 1.0,
    "gameTrigger": "Dialog",
    "gameTriggerArgs": 130130106,
    "personalConfig": 2,
    "parentID": "8137464a-0905-4a5d-a63d-20cdacd3c1e0",
    "sourceNames": [
      {
        "sourceFileName": "VO_LQ\\VO_npc\\vo_NHDLQ001_1_pedrush_04.wem",
        "rate": 1.0,
        "avatarName": "",
        "emotion": ""
      }
    ]
  },
  "107071f0-7bac-466f-8930-1794005f7263": {
    "guid": "107071f0-7bac-466f-8930-1794005f7263",
    "playRate": 1.0,
    "gameTrigger": "Dialog",
    "gameTriggerArgs": 130130114,
    "personalConfig": 2,
    "parentID": "8137464a-0905-4a5d-a63d-20cdacd3c1e0",
    "sourceNames": [
      {
        "sourceFileName": "VO_LQ\\VO_paimon\\vo_NHDLQ001_1_paimon_04.wem",
        "rate": 1.0,
        "avatarName": "",
        "emotion": ""
      }
    ]
  },
  "20f069df-2ee2-4235-a76d-72d31ec81f65": {
    "guid": "20f069df-2ee2-4235-a76d-72d31ec81f65",
    "playRate": 1.0,
    "gameTrigger": "Dialog",
    "gameTriggerArgs": 130130127,
    "personalConfig": 2,
    "parentID": "8137464a-0905-4a5d-a63d-20cdacd3c1e0",
    "sourceNames": [
      {
        "sourceFileName": "VO_LQ\\VO_paimon\\vo_NHDLQ001_1_paimon_10.wem",
        "rate": 1.0,
        "avatarName": "",
        "emotion": ""
      }
    ]
  },
  "365c46a4-02f0-452a-bcac-372ff05fbd1a": {
    "guid": "365c46a4-02f0-452a-bcac-372ff05fbd1a",
    "playRate": 1.0,
    "gameTrigger": "Dialog",
    "gameTriggerArgs": 130130109,
    "personalConfig": 2,
    "parentID": "8137464a-0905-4a5d-a63d-20cdacd3c1e0",
    "sourceNames": [
      {
        "sourceFileName": "VO_LQ\\VO_npc\\vo_NHDLQ001_1_pedrush_06.wem",
        "rate": 1.0,
        "avatarName": "",
        "emotion": ""
      }
    ]
  },
  "3823fdca-ef01-4661-b242-30b13966a20b": {
    "guid": "3823fdca-ef01-4661-b242-30b13966a20b",
    "playRate": 1.0,
    "gameTrigger": "Dialog",
    "gameTriggerArgs": 130130123,
    "personalConfig": 2,
    "parentID": "8137464a-0905-4a5d-a63d-20cdacd3c1e0",
    "sourceNames": [
      {
        "sourceFileName": "VO_LQ\\VO_npc\\vo_NHDLQ001_1_pedrush_12.wem",
        "rate": 1.0,
        "avatarName": "",
        "emotion": ""
      }
    ]
  },
  "3a52c5fd-d114-4763-b321-f5190de91386": {
    "guid": "3a52c5fd-d114-4763-b321-f5190de91386",
    "playRate": 1.0,
    "gameTrigger": "Dialog",
    "gameTriggerArgs": 130130124,
    "personalConfig": 2,
    "parentID": "8137464a-0905-4a5d-a63d-20cdacd3c1e0",
    "sourceNames": [
      {
        "sourceFileName": "VO_LQ\\VO_npc\\vo_NHDLQ001_1_pedrush_13.wem",
        "rate": 1.0,
        "avatarName": "",
        "emotion": ""
      }
    ]
  },
  "3f78afd8-4de1-4714-8a3b-8cc11e2ec522": {
    "guid": "3f78afd8-4de1-4714-8a3b-8cc11e2ec522",
    "playRate": 1.0,
    "gameTrigger": "Dialog",
    "gameTriggerArgs": 130130105,
    "personalConfig": 2,
    "parentID": "8137464a-0905-4a5d-a63d-20cdacd3c1e0",
    "sourceNames": [
      {
        "sourceFileName": "VO_LQ\\VO_npc\\vo_NHDLQ001_1_pedrush_03.wem",
        "rate": 1.0,
        "avatarName": "",
        "emotion": ""
      }
    ]
  },
  "4f45755f-00fd-4f36-abbd-2a645a72b38e": {
    "guid": "4f45755f-00fd-4f36-abbd-2a645a72b38e",
    "playRate": 1.0,
    "gameTrigger": "Dialog",
    "gameTriggerArgs": 130139902,
    "personalConfig": 2,
    "isPlayOnTeam": true,
    "parentID": "8137464a-0905-4a5d-a63d-20cdacd3c1e0",
    "sourceNames": [
      {
        "sourceFileName": "VO_LQ\\VO_paimon\\vo_NHDLQ001_1_paimon_12.wem",
        "rate": 1.0,
        "avatarName": "",
        "emotion": ""
      }
    ]
  },
  "516ce7de-61c1-4584-96f4-51dfbea92e81": {
    "guid": "516ce7de-61c1-4584-96f4-51dfbea92e81",
    "playRate": 1.0,
    "gameTrigger": "Dialog",
    "gameTriggerArgs": 130130107,
    "personalConfig": 2,
    "parentID": "8137464a-0905-4a5d-a63d-20cdacd3c1e0",
    "sourceNames": [
      {
        "sourceFileName": "VO_LQ\\VO_npc\\vo_NHDLQ001_1_pedrush_05.wem",
        "rate": 1.0,
        "avatarName": "",
        "emotion": ""
      }
    ]
  },
  "626662e4-6e67-450a-b115-c2384cf0a5f5": {
    "guid": "626662e4-6e67-450a-b115-c2384cf0a5f5",
    "playRate": 1.0,
    "gameTrigger": "Dialog",
    "gameTriggerArgs": 130139905,
    "personalConfig": 2,
    "isPlayOnTeam": true,
    "parentID": "8137464a-0905-4a5d-a63d-20cdacd3c1e0",
    "sourceNames": [
      {
        "sourceFileName": "VO_LQ\\VO_npc\\vo_NHDLQ001_1_pedrush_16.wem",
        "rate": 1.0,
        "avatarName": "",
        "emotion": ""
      }
    ]
  },
  "695ae391-a4a8-4f97-a1f7-8264a4b9df03": {
    "guid": "695ae391-a4a8-4f97-a1f7-8264a4b9df03",
    "playRate": 1.0,
    "gameTrigger": "Dialog",
    "gameTriggerArgs": 130130122,
    "personalConfig": 2,
    "parentID": "8137464a-0905-4a5d-a63d-20cdacd3c1e0",
    "sourceNames": [
      {
        "sourceFileName": "VO_LQ\\VO_paimon\\vo_NHDLQ001_1_paimon_07.wem",
        "rate": 1.0,
        "avatarName": "",
        "emotion": ""
      }
    ]
  },
  "703e05ca-d6c8-4cf7-b4f5-88aeee0ffb4c": {
    "guid": "703e05ca-d6c8-4cf7-b4f5-88aeee0ffb4c",
    "playRate": 1.0,
    "gameTrigger": "Dialog",
    "gameTriggerArgs": 130130115,
    "personalConfig": 2,
    "parentID": "8137464a-0905-4a5d-a63d-20cdacd3c1e0",
    "sourceNames": [
      {
        "sourceFileName": "VO_LQ\\VO_paimon\\vo_NHDLQ001_1_paimon_05.wem",
        "rate": 1.0,
        "avatarName": "",
        "emotion": ""
      }
    ]
  },
  "7148be3e-6357-47c3-897c-9bf6283dea8d": {
    "guid": "7148be3e-6357-47c3-897c-9bf6283dea8d",
    "playRate": 1.0,
    "gameTrigger": "Dialog",
    "gameTriggerArgs": 130130101,
    "personalConfig": 2,
    "parentID": "8137464a-0905-4a5d-a63d-20cdacd3c1e0",
    "sourceNames": [
      {
        "sourceFileName": "VO_LQ\\VO_npc\\vo_NHDLQ001_1_pedrush_02.wem",
        "rate": 1.0,
        "avatarName": "",
        "emotion": ""
      }
    ]
  },
  "7325dd63-640d-495a-b147-40cdf64ba241": {
    "guid": "7325dd63-640d-495a-b147-40cdf64ba241",
    "playRate": 1.0,
    "gameTrigger": "Dialog",
    "gameTriggerArgs": 130130117,
    "personalConfig": 2,
    "parentID": "8137464a-0905-4a5d-a63d-20cdacd3c1e0",
    "sourceNames": [
      {
        "sourceFileName": "VO_LQ\\VO_paimon\\vo_NHDLQ001_1_paimon_06.wem",
        "rate": 1.0,
        "avatarName": "",
        "emotion": ""
      }
    ]
  },
  "83223ec6-5e63-490a-a38a-59fb50c5eaf8": {
    "guid": "83223ec6-5e63-490a-a38a-59fb50c5eaf8",
    "playRate": 1.0,
    "gameTrigger": "Dialog",
    "gameTriggerArgs": 130130112,
    "personalConfig": 2,
    "parentID": "8137464a-0905-4a5d-a63d-20cdacd3c1e0",
    "sourceNames": [
      {
        "sourceFileName": "VO_LQ\\VO_npc\\vo_NHDLQ001_1_pedrush_08.wem",
        "rate": 1.0,
        "avatarName": "",
        "emotion": ""
      }
    ]
  },
  "85de0b5c-d8ff-4a11-b763-f610bc34192e": {
    "guid": "85de0b5c-d8ff-4a11-b763-f610bc34192e",
    "playRate": 1.0,
    "gameTrigger": "Dialog",
    "gameTriggerArgs": 130130130,
    "personalConfig": 2,
    "parentID": "8137464a-0905-4a5d-a63d-20cdacd3c1e0",
    "sourceNames": [
      {
        "sourceFileName": "VO_LQ\\VO_paimon\\vo_NHDLQ001_1_paimon_11.wem",
        "rate": 1.0,
        "avatarName": "",
        "emotion": ""
      }
    ]
  },
  "a1af7884-3d28-4783-9ced-d4de8111131f": {
    "guid": "a1af7884-3d28-4783-9ced-d4de8111131f",
    "playRate": 1.0,
    "gameTrigger": "Dialog",
    "gameTriggerArgs": 130139901,
    "personalConfig": 2,
    "DDNLACJICEC": 1,
    "isPlayOnTeam": true,
    "parentID": "8137464a-0905-4a5d-a63d-20cdacd3c1e0",
    "sourceNames": [
      {
        "sourceFileName": "VO_LQ\\VO_npc\\vo_NHDLQ001_1_pedrush_01.wem",
        "rate": 1.0,
        "avatarName": "",
        "emotion": ""
      }
    ]
  },
  "a2a40df0-0ea0-456b-81eb-a465f68daa40": {
    "guid": "a2a40df0-0ea0-456b-81eb-a465f68daa40",
    "playRate": 1.0,
    "gameTrigger": "Dialog",
    "gameTriggerArgs": 130130119,
    "personalConfig": 2,
    "parentID": "8137464a-0905-4a5d-a63d-20cdacd3c1e0",
    "sourceNames": [
      {
        "sourceFileName": "VO_LQ\\VO_npc\\vo_NHDLQ001_1_pedrush_11.wem",
        "rate": 1.0,
        "avatarName": "",
        "emotion": ""
      }
    ]
  },
  "b2379a44-51f2-4114-a45c-ae1cf24b1675": {
    "guid": "b2379a44-51f2-4114-a45c-ae1cf24b1675",
    "playRate": 1.0,
    "gameTrigger": "Dialog",
    "gameTriggerArgs": 130130131,
    "personalConfig": 2,
    "parentID": "8137464a-0905-4a5d-a63d-20cdacd3c1e0",
    "sourceNames": [
      {
        "sourceFileName": "VO_LQ\\VO_npc\\vo_NHDLQ001_1_pedrush_14.wem",
        "rate": 1.0,
        "avatarName": "",
        "emotion": ""
      }
    ]
  },
  "c0814e5b-200a-4b4c-9b49-e77ccfca018f": {
    "guid": "c0814e5b-200a-4b4c-9b49-e77ccfca018f",
    "playRate": 1.0,
    "gameTrigger": "Dialog",
    "gameTriggerArgs": 130130104,
    "personalConfig": 2,
    "parentID": "8137464a-0905-4a5d-a63d-20cdacd3c1e0",
    "sourceNames": [
      {
        "sourceFileName": "VO_LQ\\VO_paimon\\vo_NHDLQ001_1_paimon_01.wem",
        "rate": 1.0,
        "avatarName": "",
        "emotion": ""
      }
    ]
  },
  "c7d3b667-7ce8-4ee5-a3ed-9cb409bac587": {
    "guid": "c7d3b667-7ce8-4ee5-a3ed-9cb409bac587",
    "playRate": 1.0,
    "gameTrigger": "Dialog",
    "gameTriggerArgs": 130139904,
    "personalConfig": 2,
    "isPlayOnTeam": true,
    "parentID": "8137464a-0905-4a5d-a63d-20cdacd3c1e0",
    "sourceNames": [
      {
        "sourceFileName": "VO_LQ\\VO_paimon\\vo_NHDLQ001_1_paimon_13.wem",
        "rate": 1.0,
        "avatarName": "",
        "emotion": ""
      }
    ]
  },
  "cc11a4fb-6a17-4e63-be22-77715b0fd015": {
    "guid": "cc11a4fb-6a17-4e63-be22-77715b0fd015",
    "playRate": 1.0,
    "gameTrigger": "Dialog",
    "gameTriggerArgs": 130130126,
    "personalConfig": 2,
    "parentID": "8137464a-0905-4a5d-a63d-20cdacd3c1e0",
    "sourceNames": [
      {
        "sourceFileName": "VO_LQ\\VO_paimon\\vo_NHDLQ001_1_paimon_09a.wem",
        "rate": 1.0,
        "avatarName": "",
        "emotion": "",
        "gender": 2
      },
      {
        "sourceFileName": "VO_LQ\\VO_paimon\\vo_NHDLQ001_1_paimon_09b.wem",
        "rate": 1.0,
        "avatarName": "",
        "emotion": "",
        "gender": 1
      }
    ]
  },
  "d184986a-0cac-4e36-a912-2a76c7a46359": {
    "guid": "d184986a-0cac-4e36-a912-2a76c7a46359",
    "playRate": 1.0,
    "gameTrigger": "Dialog",
    "gameTriggerArgs": 130130118,
    "personalConfig": 2,
    "parentID": "8137464a-0905-4a5d-a63d-20cdacd3c1e0",
    "sourceNames": [
      {
        "sourceFileName": "VO_LQ\\VO_npc\\vo_NHDLQ001_1_pedrush_10.wem",
        "rate": 1.0,
        "avatarName": "",
        "emotion": ""
      }
    ]
  },
  "d1f278e9-41c0-46ba-bd2e-190f188316e9": {
    "guid": "d1f278e9-41c0-46ba-bd2e-190f188316e9",
    "playRate": 1.0,
    "gameTrigger": "Dialog",
    "gameTriggerArgs": 130139903,
    "personalConfig": 2,
    "isPlayOnTeam": true,
    "parentID": "8137464a-0905-4a5d-a63d-20cdacd3c1e0",
    "sourceNames": [
      {
        "sourceFileName": "VO_LQ\\VO_npc\\vo_NHDLQ001_1_pedrush_15.wem",
        "rate": 1.0,
        "avatarName": "",
        "emotion": ""
      }
    ]
  },
  "d98db95c-1617-4b36-90dd-3b74aa8ab544": {
    "guid": "d98db95c-1617-4b36-90dd-3b74aa8ab544",
    "playRate": 1.0,
    "gameTrigger": "Dialog",
    "gameTriggerArgs": 130130125,
    "personalConfig": 2,
    "parentID": "8137464a-0905-4a5d-a63d-20cdacd3c1e0",
    "sourceNames": [
      {
        "sourceFileName": "VO_LQ\\VO_paimon\\vo_NHDLQ001_1_paimon_08.wem",
        "rate": 1.0,
        "avatarName": "",
        "emotion": ""
      }
    ]
  },
  "e7824919-6917-490f-9c7f-394ee099a981": {
    "guid": "e7824919-6917-490f-9c7f-394ee099a981",
    "playRate": 1.0,
    "gameTrigger": "Dialog",
    "gameTriggerArgs": 130130108,
    "personalConfig": 2,
    "parentID": "8137464a-0905-4a5d-a63d-20cdacd3c1e0",
    "sourceNames": [
      {
        "sourceFileName": "VO_LQ\\VO_paimon\\vo_NHDLQ001_1_paimon_02.wem",
        "rate": 1.0,
        "avatarName": "",
        "emotion": ""
      }
    ]
  },
  "ef102298-1e00-46c7-8686-c5ed1c30a3ff": {
    "guid": "ef102298-1e00-46c7-8686-c5ed1c30a3ff",
    "playRate": 1.0,
    "gameTrigger": "Dialog",
    "gameTriggerArgs": 130130111,
    "personalConfig": 2,
    "parentID": "8137464a-0905-4a5d-a63d-20cdacd3c1e0",
    "sourceNames": [
      {
        "sourceFileName": "VO_LQ\\VO_paimon\\vo_NHDLQ001_1_paimon_03.wem",
        "rate": 1.0,
        "avatarName": "",
        "emotion": ""
      }
    ]
  },
  "f6a5644b-f55c-4d07-bb4e-d223f2446999": {
    "guid": "f6a5644b-f55c-4d07-bb4e-d223f2446999",
    "playRate": 1.0,
    "gameTrigger": "Dialog",
    "gameTriggerArgs": 130130110,
    "personalConfig": 2,
    "parentID": "8137464a-0905-4a5d-a63d-20cdacd3c1e0",
    "sourceNames": [
      {
        "sourceFileName": "VO_LQ\\VO_npc\\vo_NHDLQ001_1_pedrush_07.wem",
        "rate": 1.0,
        "avatarName": "",
        "emotion": ""
      }
    ]
  },
  "fbda56f0-e388-47f7-b983-addeb6bbc955": {
    "guid": "fbda56f0-e388-47f7-b983-addeb6bbc955",
    "playRate": 1.0,
    "gameTrigger": "Dialog",
    "gameTriggerArgs": 130130116,
    "personalConfig": 2,
    "parentID": "8137464a-0905-4a5d-a63d-20cdacd3c1e0",
    "sourceNames": [
      {
        "sourceFileName": "VO_LQ\\VO_npc\\vo_NHDLQ001_1_pedrush_09.wem",
        "rate": 1.0,
        "avatarName": "",
        "emotion": ""
      }
    ]
  }
}