{
  "1080a6d2-a27d-47fb-ba2c-0213bb8e9f7b": {
    "guid": "1080a6d2-a27d-47fb-ba2c-0213bb8e9f7b",
    "playRate": 1.0,
    "gameTrigger": "Dialog",
    "gameTriggerArgs": 130089910,
    "personalConfig": 2,
    "isPlayOnTeam": true,
    "parentID": "8a5428a7-4b35-42fd-90b8-421dd2d34d6e",
    "sourceNames": [
      {
        "sourceFileName": "VO_LQ\\VO_npc\\vo_NLLQ003_8_rikard_01.wem",
        "rate": 1.0,
        "avatarName": "",
        "emotion": ""
      }
    ]
  },
  "2a31095f-c176-4575-983f-b80769aadfbf": {
    "guid": "2a31095f-c176-4575-983f-b80769aadfbf",
    "playRate": 1.0,
    "gameTrigger": "Dialog",
    "gameTriggerArgs": 130089913,
    "personalConfig": 2,
    "DDNLACJICEC": 1,
    "isPlayOnTeam": true,
    "parentID": "8a5428a7-4b35-42fd-90b8-421dd2d34d6e",
    "sourceNames": [
      {
        "sourceFileName": "VO_LQ\\VO_nilou\\vo_NLLQ003_8_nilou_07.wem",
        "rate": 1.0,
        "avatarName": "",
        "emotion": ""
      }
    ]
  },
  "39703dcf-8091-40f1-8c56-adf5b9ca6a7e": {
    "guid": "39703dcf-8091-40f1-8c56-adf5b9ca6a7e",
    "playRate": 1.0,
    "gameTrigger": "Dialog",
    "gameTriggerArgs": 130089906,
    "personalConfig": 2,
    "DDNLACJICEC": 1,
    "isPlayOnTeam": true,
    "parentID": "8a5428a7-4b35-42fd-90b8-421dd2d34d6e",
    "sourceNames": [
      {
        "sourceFileName": "VO_LQ\\VO_nilou\\vo_NLLQ003_8_nilou_02.wem",
        "rate": 1.0,
        "avatarName": "",
        "emotion": ""
      }
    ]
  },
  "4df8f36e-0d3c-41ac-88b8-123869c5f6c4": {
    "guid": "4df8f36e-0d3c-41ac-88b8-123869c5f6c4",
    "playRate": 1.0,
    "gameTrigger": "Dialog",
    "gameTriggerArgs": 130089915,
    "personalConfig": 2,
    "DDNLACJICEC": 1,
    "isPlayOnTeam": true,
    "parentID": "8a5428a7-4b35-42fd-90b8-421dd2d34d6e",
    "sourceNames": [
      {
        "sourceFileName": "VO_LQ\\VO_nilou\\vo_NLLQ003_8_nilou_09.wem",
        "rate": 1.0,
        "avatarName": "",
        "emotion": ""
      }
    ]
  },
  "8ae32afb-5143-4ab4-b984-d7ae6fb04fce": {
    "guid": "8ae32afb-5143-4ab4-b984-d7ae6fb04fce",
    "playRate": 1.0,
    "gameTrigger": "Dialog",
    "gameTriggerArgs": 130089907,
    "personalConfig": 2,
    "DDNLACJICEC": 1,
    "isPlayOnTeam": true,
    "parentID": "8a5428a7-4b35-42fd-90b8-421dd2d34d6e",
    "sourceNames": [
      {
        "sourceFileName": "VO_LQ\\VO_nilou\\vo_NLLQ003_8_nilou_03.wem",
        "rate": 1.0,
        "avatarName": "",
        "emotion": ""
      }
    ]
  },
  "90443587-bc29-4b48-99b9-c2a733282041": {
    "guid": "90443587-bc29-4b48-99b9-c2a733282041",
    "playRate": 1.0,
    "gameTrigger": "Dialog",
    "gameTriggerArgs": 130089908,
    "personalConfig": 2,
    "DDNLACJICEC": 1,
    "isPlayOnTeam": true,
    "parentID": "8a5428a7-4b35-42fd-90b8-421dd2d34d6e",
    "sourceNames": [
      {
        "sourceFileName": "VO_LQ\\VO_nilou\\vo_NLLQ003_8_nilou_04.wem",
        "rate": 1.0,
        "avatarName": "",
        "emotion": ""
      }
    ]
  },
  "9c31a9f6-3ea2-4073-86dd-9edf3953799c": {
    "guid": "9c31a9f6-3ea2-4073-86dd-9edf3953799c",
    "playRate": 1.0,
    "gameTrigger": "Dialog",
    "gameTriggerArgs": 130089909,
    "personalConfig": 2,
    "DDNLACJICEC": 1,
    "isPlayOnTeam": true,
    "parentID": "8a5428a7-4b35-42fd-90b8-421dd2d34d6e",
    "sourceNames": [
      {
        "sourceFileName": "VO_LQ\\VO_nilou\\vo_NLLQ003_8_nilou_05.wem",
        "rate": 1.0,
        "avatarName": "",
        "emotion": ""
      }
    ]
  },
  "9debdc60-1b54-4d74-9eb4-341f1c3b55b8": {
    "guid": "9debdc60-1b54-4d74-9eb4-341f1c3b55b8",
    "playRate": 1.0,
    "gameTrigger": "Dialog",
    "gameTriggerArgs": 130089912,
    "personalConfig": 2,
    "DDNLACJICEC": 1,
    "isPlayOnTeam": true,
    "parentID": "8a5428a7-4b35-42fd-90b8-421dd2d34d6e",
    "sourceNames": [
      {
        "sourceFileName": "VO_LQ\\VO_nilou\\vo_NLLQ003_8_nilou_06.wem",
        "rate": 1.0,
        "avatarName": "",
        "emotion": ""
      }
    ]
  },
  "c7d740a3-fdef-453b-84b5-9faf622c3845": {
    "guid": "c7d740a3-fdef-453b-84b5-9faf622c3845",
    "playRate": 1.0,
    "gameTrigger": "Dialog",
    "gameTriggerArgs": 130089905,
    "personalConfig": 2,
    "DDNLACJICEC": 1,
    "isPlayOnTeam": true,
    "parentID": "8a5428a7-4b35-42fd-90b8-421dd2d34d6e",
    "sourceNames": [
      {
        "sourceFileName": "VO_LQ\\VO_nilou\\vo_NLLQ003_8_nilou_01.wem",
        "rate": 1.0,
        "avatarName": "",
        "emotion": ""
      }
    ]
  },
  "d81d4783-6958-437a-a21c-7f8e9cfe2360": {
    "guid": "d81d4783-6958-437a-a21c-7f8e9cfe2360",
    "playRate": 1.0,
    "gameTrigger": "Dialog",
    "gameTriggerArgs": 130089911,
    "personalConfig": 2,
    "isPlayOnTeam": true,
    "parentID": "8a5428a7-4b35-42fd-90b8-421dd2d34d6e",
    "sourceNames": [
      {
        "sourceFileName": "VO_LQ\\VO_npc\\vo_NLLQ003_8_qasani_01.wem",
        "rate": 1.0,
        "avatarName": "",
        "emotion": ""
      }
    ]
  },
  "fcbbb757-ecd4-44af-8b76-7bf74b954310": {
    "guid": "fcbbb757-ecd4-44af-8b76-7bf74b954310",
    "playRate": 1.0,
    "gameTrigger": "Dialog",
    "gameTriggerArgs": 130089914,
    "personalConfig": 2,
    "DDNLACJICEC": 1,
    "isPlayOnTeam": true,
    "parentID": "8a5428a7-4b35-42fd-90b8-421dd2d34d6e",
    "sourceNames": [
      {
        "sourceFileName": "VO_LQ\\VO_nilou\\vo_NLLQ003_8_nilou_08.wem",
        "rate": 1.0,
        "avatarName": "",
        "emotion": ""
      }
    ]
  }
}