{
  "078e166a-98f9-4915-aa31-6611009c3fa1": {
    "guid": "078e166a-98f9-4915-aa31-6611009c3fa1",
    "playRate": 1.0,
    "gameTrigger": "Dialog",
    "gameTriggerArgs": 693350103,
    "parentID": "081b1394-d8a4-4a4c-a891-735effb1937b",
    "sourceNames": [
      {
        "sourceFileName": "VO_Tower\\vo_sayu_saferoom_rest_03.wem",
        "rate": 1.0,
        "avatarName": "",
        "emotion": ""
      }
    ]
  },
  "2f2ba43f-5ee4-4382-9e69-32311e7db23f": {
    "guid": "2f2ba43f-5ee4-4382-9e69-32311e7db23f",
    "playRate": 1.0,
    "gameTrigger": "Dialog",
    "gameTriggerArgs": 693350302,
    "parentID": "081b1394-d8a4-4a4c-a891-735effb1937b",
    "sourceNames": [
      {
        "sourceFileName": "VO_Tower\\vo_sayu_saferoom_others_02.wem",
        "rate": 1.0,
        "avatarName": "",
        "emotion": ""
      }
    ]
  },
  "6e9698cf-c925-426d-a178-05860f8efaa7": {
    "guid": "6e9698cf-c925-426d-a178-05860f8efaa7",
    "playRate": 1.0,
    "gameTrigger": "Dialog",
    "gameTriggerArgs": 693350303,
    "parentID": "081b1394-d8a4-4a4c-a891-735effb1937b",
    "sourceNames": [
      {
        "sourceFileName": "VO_Tower\\vo_sayu_saferoom_others_03.wem",
        "rate": 1.0,
        "avatarName": "",
        "emotion": ""
      }
    ]
  },
  "6f3b6cea-596e-4bd1-89c7-b08a17eb35dc": {
    "guid": "6f3b6cea-596e-4bd1-89c7-b08a17eb35dc",
    "playRate": 1.0,
    "gameTrigger": "Dialog",
    "gameTriggerArgs": 693350201,
    "parentID": "081b1394-d8a4-4a4c-a891-735effb1937b",
    "sourceNames": [
      {
        "sourceFileName": "VO_Tower\\vo_sayu_saferoom_challenge_01.wem",
        "rate": 1.0,
        "avatarName": "",
        "emotion": ""
      }
    ]
  },
  "7767d489-212d-4eee-b74e-e21283313d42": {
    "guid": "7767d489-212d-4eee-b74e-e21283313d42",
    "playRate": 1.0,
    "gameTrigger": "Dialog",
    "gameTriggerArgs": 693350301,
    "parentID": "081b1394-d8a4-4a4c-a891-735effb1937b",
    "sourceNames": [
      {
        "sourceFileName": "VO_Tower\\vo_sayu_saferoom_others_01.wem",
        "rate": 1.0,
        "avatarName": "",
        "emotion": ""
      }
    ]
  },
  "85f4b5cc-ba75-43c9-907c-0a668b1da568": {
    "guid": "85f4b5cc-ba75-43c9-907c-0a668b1da568",
    "playRate": 1.0,
    "gameTrigger": "Dialog",
    "gameTriggerArgs": 693350101,
    "parentID": "081b1394-d8a4-4a4c-a891-735effb1937b",
    "sourceNames": [
      {
        "sourceFileName": "VO_Tower\\vo_sayu_saferoom_rest_01.wem",
        "rate": 1.0,
        "avatarName": "",
        "emotion": ""
      }
    ]
  },
  "d49636f4-d1a3-482a-8c67-5f75692e04ce": {
    "guid": "d49636f4-d1a3-482a-8c67-5f75692e04ce",
    "playRate": 1.0,
    "gameTrigger": "Dialog",
    "gameTriggerArgs": 693350202,
    "parentID": "081b1394-d8a4-4a4c-a891-735effb1937b",
    "sourceNames": [
      {
        "sourceFileName": "VO_Tower\\vo_sayu_saferoom_challenge_02.wem",
        "rate": 1.0,
        "avatarName": "",
        "emotion": ""
      }
    ]
  },
  "f9d98020-fce1-409d-b6ff-d9e87b283a83": {
    "guid": "f9d98020-fce1-409d-b6ff-d9e87b283a83",
    "playRate": 1.0,
    "gameTrigger": "Dialog",
    "gameTriggerArgs": 693350102,
    "parentID": "081b1394-d8a4-4a4c-a891-735effb1937b",
    "sourceNames": [
      {
        "sourceFileName": "VO_Tower\\vo_sayu_saferoom_rest_02.wem",
        "rate": 1.0,
        "avatarName": "",
        "emotion": ""
      }
    ]
  },
  "fabbb48f-a18a-4ed3-afee-a63efef4320b": {
    "guid": "fabbb48f-a18a-4ed3-afee-a63efef4320b",
    "playRate": 1.0,
    "gameTrigger": "Dialog",
    "gameTriggerArgs": 693350203,
    "parentID": "081b1394-d8a4-4a4c-a891-735effb1937b",
    "sourceNames": [
      {
        "sourceFileName": "VO_Tower\\vo_sayu_saferoom_challenge_03.wem",
        "rate": 1.0,
        "avatarName": "",
        "emotion": ""
      }
    ]
  }
}