{
  "24e7ac66-3c63-4ab6-966a-2b9e26f7aaf7": {
    "guid": "24e7ac66-3c63-4ab6-966a-2b9e26f7aaf7",
    "playRate": 1.0,
    "gameTrigger": "Dialog",
    "gameTriggerArgs": 693690202,
    "parentID": "d0a2cf8b-d4f9-4ad4-aad3-45aeaea67b73",
    "sourceNames": [
      {
        "sourceFileName": "VO_Tower\\vo_freminet_saferoom_challenge_02.wem",
        "rate": 1.0,
        "avatarName": "",
        "emotion": ""
      }
    ]
  },
  "4cf44597-c50e-492f-97f4-672256b31122": {
    "guid": "4cf44597-c50e-492f-97f4-672256b31122",
    "playRate": 1.0,
    "gameTrigger": "Dialog",
    "gameTriggerArgs": 693690301,
    "parentID": "d0a2cf8b-d4f9-4ad4-aad3-45aeaea67b73",
    "sourceNames": [
      {
        "sourceFileName": "VO_Tower\\vo_freminet_saferoom_others_01.wem",
        "rate": 1.0,
        "avatarName": "",
        "emotion": ""
      }
    ]
  },
  "4d11da4c-4c1b-4d01-8232-6e1f82ec40fb": {
    "guid": "4d11da4c-4c1b-4d01-8232-6e1f82ec40fb",
    "playRate": 1.0,
    "gameTrigger": "Dialog",
    "gameTriggerArgs": 693690303,
    "parentID": "d0a2cf8b-d4f9-4ad4-aad3-45aeaea67b73",
    "sourceNames": [
      {
        "sourceFileName": "VO_Tower\\vo_freminet_saferoom_others_03.wem",
        "rate": 1.0,
        "avatarName": "",
        "emotion": ""
      }
    ]
  },
  "74507b80-fb49-41f0-ac71-c5b7734c05ff": {
    "guid": "74507b80-fb49-41f0-ac71-c5b7734c05ff",
    "playRate": 1.0,
    "gameTrigger": "Dialog",
    "gameTriggerArgs": 693690203,
    "parentID": "d0a2cf8b-d4f9-4ad4-aad3-45aeaea67b73",
    "sourceNames": [
      {
        "sourceFileName": "VO_Tower\\vo_freminet_saferoom_challenge_03.wem",
        "rate": 1.0,
        "avatarName": "",
        "emotion": ""
      }
    ]
  },
  "8d538cab-de06-4e49-b1f6-73635890dc3b": {
    "guid": "8d538cab-de06-4e49-b1f6-73635890dc3b",
    "playRate": 1.0,
    "gameTrigger": "Dialog",
    "gameTriggerArgs": 693690103,
    "parentID": "d0a2cf8b-d4f9-4ad4-aad3-45aeaea67b73",
    "sourceNames": [
      {
        "sourceFileName": "VO_Tower\\vo_freminet_saferoom_rest_03.wem",
        "rate": 1.0,
        "avatarName": "",
        "emotion": ""
      }
    ]
  },
  "8e9c0994-2d0e-4f7f-b75a-84504b01ffca": {
    "guid": "8e9c0994-2d0e-4f7f-b75a-84504b01ffca",
    "playRate": 1.0,
    "gameTrigger": "Dialog",
    "gameTriggerArgs": 693690102,
    "parentID": "d0a2cf8b-d4f9-4ad4-aad3-45aeaea67b73",
    "sourceNames": [
      {
        "sourceFileName": "VO_Tower\\vo_freminet_saferoom_rest_02.wem",
        "rate": 1.0,
        "avatarName": "",
        "emotion": ""
      }
    ]
  },
  "cac45c0a-a70c-46b8-bcbc-6097a939f6f6": {
    "guid": "cac45c0a-a70c-46b8-bcbc-6097a939f6f6",
    "playRate": 1.0,
    "gameTrigger": "Dialog",
    "gameTriggerArgs": 693690302,
    "parentID": "d0a2cf8b-d4f9-4ad4-aad3-45aeaea67b73",
    "sourceNames": [
      {
        "sourceFileName": "VO_Tower\\vo_freminet_saferoom_others_02.wem",
        "rate": 1.0,
        "avatarName": "",
        "emotion": ""
      }
    ]
  },
  "e2c0f2cf-1a86-40e9-bad5-a6b155f27a3b": {
    "guid": "e2c0f2cf-1a86-40e9-bad5-a6b155f27a3b",
    "playRate": 1.0,
    "gameTrigger": "Dialog",
    "gameTriggerArgs": 693690101,
    "parentID": "d0a2cf8b-d4f9-4ad4-aad3-45aeaea67b73",
    "sourceNames": [
      {
        "sourceFileName": "VO_Tower\\vo_freminet_saferoom_rest_01.wem",
        "rate": 1.0,
        "avatarName": "",
        "emotion": ""
      }
    ]
  },
  "e32fde6f-740a-4576-b090-e4170262578c": {
    "guid": "e32fde6f-740a-4576-b090-e4170262578c",
    "playRate": 1.0,
    "gameTrigger": "Dialog",
    "gameTriggerArgs": 693690201,
    "parentID": "d0a2cf8b-d4f9-4ad4-aad3-45aeaea67b73",
    "sourceNames": [
      {
        "sourceFileName": "VO_Tower\\vo_freminet_saferoom_challenge_01.wem",
        "rate": 1.0,
        "avatarName": "",
        "emotion": ""
      }
    ]
  }
}