{
  "0362c574-dc73-4e4a-848b-b711164d6ce9": {
    "guid": "0362c574-dc73-4e4a-848b-b711164d6ce9",
    "playRate": 1.0,
    "gameTrigger": "Dialog",
    "gameTriggerArgs": 40066410,
    "personalConfig": 2,
    "parentID": "97f0e41d-1ec3-4bce-bbc2-2a5426714233",
    "sourceNames": [
      {
        "sourceFileName": "VO_AQ\\VO_NPC\\vo_FDAQ003_45_audienceG_01.wem",
        "rate": 1.0,
        "avatarName": "",
        "emotion": ""
      }
    ]
  },
  "03658c12-0c8e-4485-b04e-ece94c1f23da": {
    "guid": "03658c12-0c8e-4485-b04e-ece94c1f23da",
    "playRate": 1.0,
    "gameTrigger": "Dialog",
    "gameTriggerArgs": 40066414,
    "personalConfig": 2,
    "parentID": "97f0e41d-1ec3-4bce-bbc2-2a5426714233",
    "sourceNames": [
      {
        "sourceFileName": "VO_AQ\\VO_navia\\vo_FDAQ003_45_navia_06.wem",
        "rate": 1.0,
        "avatarName": "",
        "emotion": ""
      }
    ]
  },
  "06efd518-33ef-451a-9b35-5b474adf9909": {
    "guid": "06efd518-33ef-451a-9b35-5b474adf9909",
    "playRate": 1.0,
    "gameTrigger": "Dialog",
    "gameTriggerArgs": 40066417,
    "personalConfig": 2,
    "parentID": "97f0e41d-1ec3-4bce-bbc2-2a5426714233",
    "sourceNames": [
      {
        "sourceFileName": "VO_AQ\\VO_lyney\\vo_FDAQ003_45_lyney_02.wem",
        "rate": 1.0,
        "avatarName": "",
        "emotion": ""
      }
    ]
  },
  "099eb0cf-07d6-46f1-b7c5-f0bb18567dab": {
    "guid": "099eb0cf-07d6-46f1-b7c5-f0bb18567dab",
    "playRate": 1.0,
    "gameTrigger": "Dialog",
    "gameTriggerArgs": 40066407,
    "personalConfig": 2,
    "parentID": "97f0e41d-1ec3-4bce-bbc2-2a5426714233",
    "sourceNames": [
      {
        "sourceFileName": "VO_AQ\\VO_neuvillette\\vo_FDAQ003_45_neuvillette_01.wem",
        "rate": 1.0,
        "avatarName": "",
        "emotion": ""
      }
    ]
  },
  "0e591ca2-a2d0-4575-aeec-4ab1adb4758c": {
    "guid": "0e591ca2-a2d0-4575-aeec-4ab1adb4758c",
    "playRate": 1.0,
    "gameTrigger": "Dialog",
    "gameTriggerArgs": 40066431,
    "personalConfig": 2,
    "parentID": "97f0e41d-1ec3-4bce-bbc2-2a5426714233",
    "sourceNames": [
      {
        "sourceFileName": "VO_AQ\\VO_NPC\\vo_FDAQ003_45_lilian_09.wem",
        "rate": 1.0,
        "avatarName": "",
        "emotion": ""
      }
    ]
  },
  "0eee6b0b-0c50-4766-984d-cb997d157c07": {
    "guid": "0eee6b0b-0c50-4766-984d-cb997d157c07",
    "playRate": 1.0,
    "gameTrigger": "Dialog",
    "gameTriggerArgs": 40066405,
    "personalConfig": 2,
    "parentID": "97f0e41d-1ec3-4bce-bbc2-2a5426714233",
    "sourceNames": [
      {
        "sourceFileName": "VO_AQ\\VO_furina\\vo_FDAQ003_45_furina_03.wem",
        "rate": 1.0,
        "avatarName": "",
        "emotion": ""
      }
    ]
  },
  "11a29d52-fd98-4abc-8565-837693245f63": {
    "guid": "11a29d52-fd98-4abc-8565-837693245f63",
    "playRate": 1.0,
    "gameTrigger": "Dialog",
    "gameTriggerArgs": 40066429,
    "personalConfig": 2,
    "parentID": "97f0e41d-1ec3-4bce-bbc2-2a5426714233",
    "sourceNames": [
      {
        "sourceFileName": "VO_AQ\\VO_NPC\\vo_FDAQ003_45_lilian_07.wem",
        "rate": 1.0,
        "avatarName": "",
        "emotion": ""
      }
    ]
  },
  "294756cf-6b9b-44e5-8669-73965c200652": {
    "guid": "294756cf-6b9b-44e5-8669-73965c200652",
    "playRate": 1.0,
    "gameTrigger": "Dialog",
    "gameTriggerArgs": 40066432,
    "personalConfig": 2,
    "parentID": "97f0e41d-1ec3-4bce-bbc2-2a5426714233",
    "sourceNames": [
      {
        "sourceFileName": "VO_AQ\\VO_paimon\\vo_FDAQ003_45_paimon_03.wem",
        "rate": 1.0,
        "avatarName": "",
        "emotion": ""
      }
    ]
  },
  "2c320aaf-d719-4b35-b6ed-77a1db0cfdda": {
    "guid": "2c320aaf-d719-4b35-b6ed-77a1db0cfdda",
    "playRate": 1.0,
    "gameTrigger": "Dialog",
    "gameTriggerArgs": 40066402,
    "personalConfig": 2,
    "parentID": "97f0e41d-1ec3-4bce-bbc2-2a5426714233",
    "sourceNames": [
      {
        "sourceFileName": "VO_AQ\\VO_paimon\\vo_FDAQ003_45_paimon_02.wem",
        "rate": 1.0,
        "avatarName": "",
        "emotion": ""
      }
    ]
  },
  "2cc12156-97a2-490a-b4ca-57dfe32f8214": {
    "guid": "2cc12156-97a2-490a-b4ca-57dfe32f8214",
    "playRate": 1.0,
    "gameTrigger": "Dialog",
    "gameTriggerArgs": 40066425,
    "personalConfig": 2,
    "parentID": "97f0e41d-1ec3-4bce-bbc2-2a5426714233",
    "sourceNames": [
      {
        "sourceFileName": "VO_AQ\\VO_navia\\vo_FDAQ003_45_navia_09.wem",
        "rate": 1.0,
        "avatarName": "",
        "emotion": ""
      }
    ]
  },
  "30a38b81-bbfa-4b25-ad77-dc4925a5b33a": {
    "guid": "30a38b81-bbfa-4b25-ad77-dc4925a5b33a",
    "playRate": 1.0,
    "gameTrigger": "Dialog",
    "gameTriggerArgs": 40066420,
    "personalConfig": 2,
    "parentID": "97f0e41d-1ec3-4bce-bbc2-2a5426714233",
    "sourceNames": [
      {
        "sourceFileName": "VO_AQ\\VO_NPC\\vo_FDAQ003_45_lilian_01.wem",
        "rate": 1.0,
        "avatarName": "",
        "emotion": ""
      }
    ]
  },
  "323b56f1-1c3c-439a-aee7-b03c2a70273b": {
    "guid": "323b56f1-1c3c-439a-aee7-b03c2a70273b",
    "playRate": 1.0,
    "gameTrigger": "Dialog",
    "gameTriggerArgs": 40066421,
    "personalConfig": 2,
    "parentID": "97f0e41d-1ec3-4bce-bbc2-2a5426714233",
    "sourceNames": [
      {
        "sourceFileName": "VO_AQ\\VO_NPC\\vo_FDAQ003_45_audienceB_01.wem",
        "rate": 1.0,
        "avatarName": "",
        "emotion": ""
      }
    ]
  },
  "348e62ba-7310-43d6-a33e-4350d8cafcf3": {
    "guid": "348e62ba-7310-43d6-a33e-4350d8cafcf3",
    "playRate": 1.0,
    "gameTrigger": "Dialog",
    "gameTriggerArgs": 40066419,
    "personalConfig": 2,
    "parentID": "97f0e41d-1ec3-4bce-bbc2-2a5426714233",
    "sourceNames": [
      {
        "sourceFileName": "VO_AQ\\VO_lynette\\vo_FDAQ003_45_lynette_01.wem",
        "rate": 1.0,
        "avatarName": "",
        "emotion": ""
      }
    ]
  },
  "37e7c811-a776-4b8f-a6b6-76f8db72a70f": {
    "guid": "37e7c811-a776-4b8f-a6b6-76f8db72a70f",
    "playRate": 1.0,
    "gameTrigger": "Dialog",
    "gameTriggerArgs": 40066437,
    "personalConfig": 2,
    "parentID": "97f0e41d-1ec3-4bce-bbc2-2a5426714233",
    "sourceNames": [
      {
        "sourceFileName": "VO_AQ\\VO_NPC\\vo_FDAQ003_45_lilian_13.wem",
        "rate": 1.0,
        "avatarName": "",
        "emotion": ""
      }
    ]
  },
  "44082a62-15c1-4ad2-809a-b719cc47f9ef": {
    "guid": "44082a62-15c1-4ad2-809a-b719cc47f9ef",
    "playRate": 1.0,
    "gameTrigger": "Dialog",
    "gameTriggerArgs": 40066403,
    "personalConfig": 2,
    "parentID": "97f0e41d-1ec3-4bce-bbc2-2a5426714233",
    "sourceNames": [
      {
        "sourceFileName": "VO_AQ\\VO_furina\\vo_FDAQ003_45_furina_01.wem",
        "rate": 1.0,
        "avatarName": "",
        "emotion": ""
      }
    ]
  },
  "49620f2b-5655-4dca-9416-bb4f1c45b30c": {
    "guid": "49620f2b-5655-4dca-9416-bb4f1c45b30c",
    "playRate": 1.0,
    "gameTrigger": "Dialog",
    "gameTriggerArgs": 40066411,
    "personalConfig": 2,
    "parentID": "97f0e41d-1ec3-4bce-bbc2-2a5426714233",
    "sourceNames": [
      {
        "sourceFileName": "VO_AQ\\VO_lyney\\vo_FDAQ003_45_lyney_01.wem",
        "rate": 1.0,
        "avatarName": "",
        "emotion": ""
      }
    ]
  },
  "4ad01321-343a-4655-8cbd-2095f22d1729": {
    "guid": "4ad01321-343a-4655-8cbd-2095f22d1729",
    "playRate": 1.0,
    "gameTrigger": "Dialog",
    "gameTriggerArgs": 40066447,
    "personalConfig": 2,
    "DDNLACJICEC": 1,
    "parentID": "97f0e41d-1ec3-4bce-bbc2-2a5426714233",
    "sourceNames": [
      {
        "sourceFileName": "VO_AQ\\VO_hero\\vo_FDAQ003_45_hero_01.wem",
        "rate": 1.0,
        "avatarName": "Switch_hero",
        "emotion": "",
        "gender": 2
      },
      {
        "sourceFileName": "VO_AQ\\VO_heroine\\vo_FDAQ003_45_heroine_01.wem",
        "rate": 1.0,
        "avatarName": "Switch_heroine",
        "emotion": "",
        "gender": 1
      }
    ]
  },
  "4f634f62-b3f2-4c97-8dd8-3776b680fba5": {
    "guid": "4f634f62-b3f2-4c97-8dd8-3776b680fba5",
    "playRate": 1.0,
    "gameTrigger": "Dialog",
    "gameTriggerArgs": 40066444,
    "personalConfig": 2,
    "parentID": "97f0e41d-1ec3-4bce-bbc2-2a5426714233",
    "sourceNames": [
      {
        "sourceFileName": "VO_AQ\\VO_NPC\\vo_FDAQ003_45_lilian_17.wem",
        "rate": 1.0,
        "avatarName": "",
        "emotion": ""
      }
    ]
  },
  "53baf5bb-40d0-4bd7-971b-891efb1a84f0": {
    "guid": "53baf5bb-40d0-4bd7-971b-891efb1a84f0",
    "playRate": 1.0,
    "gameTrigger": "Dialog",
    "gameTriggerArgs": 40066430,
    "personalConfig": 2,
    "parentID": "97f0e41d-1ec3-4bce-bbc2-2a5426714233",
    "sourceNames": [
      {
        "sourceFileName": "VO_AQ\\VO_NPC\\vo_FDAQ003_45_lilian_08.wem",
        "rate": 1.0,
        "avatarName": "",
        "emotion": ""
      }
    ]
  },
  "5419bf98-5517-4955-a666-c0e12e4d44d4": {
    "guid": "5419bf98-5517-4955-a666-c0e12e4d44d4",
    "playRate": 1.0,
    "gameTrigger": "Dialog",
    "gameTriggerArgs": 40066426,
    "personalConfig": 2,
    "parentID": "97f0e41d-1ec3-4bce-bbc2-2a5426714233",
    "sourceNames": [
      {
        "sourceFileName": "VO_AQ\\VO_NPC\\vo_FDAQ003_45_lilian_05.wem",
        "rate": 1.0,
        "avatarName": "",
        "emotion": ""
      }
    ]
  },
  "56c772bd-43e4-4efa-8996-d264a2af4d7a": {
    "guid": "56c772bd-43e4-4efa-8996-d264a2af4d7a",
    "playRate": 1.0,
    "gameTrigger": "Dialog",
    "gameTriggerArgs": 40066413,
    "personalConfig": 2,
    "parentID": "97f0e41d-1ec3-4bce-bbc2-2a5426714233",
    "sourceNames": [
      {
        "sourceFileName": "VO_AQ\\VO_navia\\vo_FDAQ003_45_navia_05.wem",
        "rate": 1.0,
        "avatarName": "",
        "emotion": ""
      }
    ]
  },
  "63a838f3-45ac-419d-a14c-0b3b27d829e4": {
    "guid": "63a838f3-45ac-419d-a14c-0b3b27d829e4",
    "playRate": 1.0,
    "gameTrigger": "Dialog",
    "gameTriggerArgs": 40066408,
    "personalConfig": 2,
    "parentID": "97f0e41d-1ec3-4bce-bbc2-2a5426714233",
    "sourceNames": [
      {
        "sourceFileName": "VO_AQ\\VO_navia\\vo_FDAQ003_45_navia_02.wem",
        "rate": 1.0,
        "avatarName": "",
        "emotion": ""
      }
    ]
  },
  "6436605d-d537-4a76-bd06-c5e2890cedd0": {
    "guid": "6436605d-d537-4a76-bd06-c5e2890cedd0",
    "playRate": 1.0,
    "gameTrigger": "Dialog",
    "gameTriggerArgs": 40066422,
    "personalConfig": 2,
    "parentID": "97f0e41d-1ec3-4bce-bbc2-2a5426714233",
    "sourceNames": [
      {
        "sourceFileName": "VO_AQ\\VO_NPC\\vo_FDAQ003_45_lilian_02.wem",
        "rate": 1.0,
        "avatarName": "",
        "emotion": ""
      }
    ]
  },
  "6751f602-61ac-4028-9d99-3b93b893602d": {
    "guid": "6751f602-61ac-4028-9d99-3b93b893602d",
    "playRate": 1.0,
    "gameTrigger": "Dialog",
    "gameTriggerArgs": 40066443,
    "personalConfig": 2,
    "parentID": "97f0e41d-1ec3-4bce-bbc2-2a5426714233",
    "sourceNames": [
      {
        "sourceFileName": "VO_AQ\\VO_NPC\\vo_FDAQ003_45_lilian_16.wem",
        "rate": 1.0,
        "avatarName": "",
        "emotion": ""
      }
    ]
  },
  "6ec5130b-00ec-4430-928b-30fd9898dd29": {
    "guid": "6ec5130b-00ec-4430-928b-30fd9898dd29",
    "playRate": 1.0,
    "gameTrigger": "Dialog",
    "gameTriggerArgs": 40066439,
    "personalConfig": 2,
    "parentID": "97f0e41d-1ec3-4bce-bbc2-2a5426714233",
    "sourceNames": [
      {
        "sourceFileName": "VO_AQ\\VO_NPC\\vo_FDAQ003_45_lilian_15.wem",
        "rate": 1.0,
        "avatarName": "",
        "emotion": ""
      }
    ]
  },
  "73a29bc0-2d01-48e4-8466-5e39a0ddd2d0": {
    "guid": "73a29bc0-2d01-48e4-8466-5e39a0ddd2d0",
    "playRate": 1.0,
    "gameTrigger": "Dialog",
    "gameTriggerArgs": 40066412,
    "personalConfig": 2,
    "parentID": "97f0e41d-1ec3-4bce-bbc2-2a5426714233",
    "sourceNames": [
      {
        "sourceFileName": "VO_AQ\\VO_navia\\vo_FDAQ003_45_navia_04.wem",
        "rate": 1.0,
        "avatarName": "",
        "emotion": ""
      }
    ]
  },
  "7e230b06-6328-4420-90b8-25cb66f53d87": {
    "guid": "7e230b06-6328-4420-90b8-25cb66f53d87",
    "playRate": 1.0,
    "gameTrigger": "Dialog",
    "gameTriggerArgs": 40066445,
    "personalConfig": 2,
    "parentID": "97f0e41d-1ec3-4bce-bbc2-2a5426714233",
    "sourceNames": [
      {
        "sourceFileName": "VO_AQ\\VO_paimon\\vo_FDAQ003_45_paimon_06.wem",
        "rate": 1.0,
        "avatarName": "",
        "emotion": ""
      }
    ]
  },
  "924b3c63-457e-4ccf-900e-2bf7769779db": {
    "guid": "924b3c63-457e-4ccf-900e-2bf7769779db",
    "playRate": 1.0,
    "gameTrigger": "Dialog",
    "gameTriggerArgs": 40066404,
    "personalConfig": 2,
    "parentID": "97f0e41d-1ec3-4bce-bbc2-2a5426714233",
    "sourceNames": [
      {
        "sourceFileName": "VO_AQ\\VO_furina\\vo_FDAQ003_45_furina_02.wem",
        "rate": 1.0,
        "avatarName": "",
        "emotion": ""
      }
    ]
  },
  "96496b69-00f0-48b1-92eb-26f87ab42c85": {
    "guid": "96496b69-00f0-48b1-92eb-26f87ab42c85",
    "playRate": 1.0,
    "gameTrigger": "Dialog",
    "gameTriggerArgs": 40066401,
    "personalConfig": 2,
    "parentID": "97f0e41d-1ec3-4bce-bbc2-2a5426714233",
    "sourceNames": [
      {
        "sourceFileName": "VO_AQ\\VO_paimon\\vo_FDAQ003_45_paimon_01.wem",
        "rate": 1.0,
        "avatarName": "",
        "emotion": ""
      }
    ]
  },
  "9f6768d0-e168-44df-8d79-545ef40f43c7": {
    "guid": "9f6768d0-e168-44df-8d79-545ef40f43c7",
    "playRate": 1.0,
    "gameTrigger": "Dialog",
    "gameTriggerArgs": 40066424,
    "personalConfig": 2,
    "parentID": "97f0e41d-1ec3-4bce-bbc2-2a5426714233",
    "sourceNames": [
      {
        "sourceFileName": "VO_AQ\\VO_NPC\\vo_FDAQ003_45_lilian_04.wem",
        "rate": 1.0,
        "avatarName": "",
        "emotion": ""
      }
    ]
  },
  "a5b0a7b3-cc8c-4ea3-a0a7-ebd47128ae6e": {
    "guid": "a5b0a7b3-cc8c-4ea3-a0a7-ebd47128ae6e",
    "playRate": 1.0,
    "gameTrigger": "Dialog",
    "gameTriggerArgs": 40066409,
    "personalConfig": 2,
    "parentID": "97f0e41d-1ec3-4bce-bbc2-2a5426714233",
    "sourceNames": [
      {
        "sourceFileName": "VO_AQ\\VO_navia\\vo_FDAQ003_45_navia_03.wem",
        "rate": 1.0,
        "avatarName": "",
        "emotion": ""
      }
    ]
  },
  "a9d413f8-596f-4ea6-ba71-e76391150fc9": {
    "guid": "a9d413f8-596f-4ea6-ba71-e76391150fc9",
    "playRate": 1.0,
    "gameTrigger": "Dialog",
    "gameTriggerArgs": 40066434,
    "personalConfig": 2,
    "parentID": "97f0e41d-1ec3-4bce-bbc2-2a5426714233",
    "sourceNames": [
      {
        "sourceFileName": "VO_AQ\\VO_NPC\\vo_FDAQ003_45_lilian_10.wem",
        "rate": 1.0,
        "avatarName": "",
        "emotion": ""
      }
    ]
  },
  "b27950e8-9886-48e6-b42c-91cd7c3c5dd7": {
    "guid": "b27950e8-9886-48e6-b42c-91cd7c3c5dd7",
    "playRate": 1.0,
    "gameTrigger": "Dialog",
    "gameTriggerArgs": 40066415,
    "personalConfig": 2,
    "parentID": "97f0e41d-1ec3-4bce-bbc2-2a5426714233",
    "sourceNames": [
      {
        "sourceFileName": "VO_AQ\\VO_navia\\vo_FDAQ003_45_navia_07.wem",
        "rate": 1.0,
        "avatarName": "",
        "emotion": ""
      }
    ]
  },
  "b2ade481-722b-47b6-9c83-7e81061c252a": {
    "guid": "b2ade481-722b-47b6-9c83-7e81061c252a",
    "playRate": 1.0,
    "gameTrigger": "Dialog",
    "gameTriggerArgs": 40066438,
    "personalConfig": 2,
    "parentID": "97f0e41d-1ec3-4bce-bbc2-2a5426714233",
    "sourceNames": [
      {
        "sourceFileName": "VO_AQ\\VO_NPC\\vo_FDAQ003_45_lilian_14.wem",
        "rate": 1.0,
        "avatarName": "",
        "emotion": ""
      }
    ]
  },
  "b7dd85be-6356-4eee-8be8-37f4c4d3b436": {
    "guid": "b7dd85be-6356-4eee-8be8-37f4c4d3b436",
    "playRate": 1.0,
    "gameTrigger": "Dialog",
    "gameTriggerArgs": 40066435,
    "personalConfig": 2,
    "parentID": "97f0e41d-1ec3-4bce-bbc2-2a5426714233",
    "sourceNames": [
      {
        "sourceFileName": "VO_AQ\\VO_NPC\\vo_FDAQ003_45_lilian_11.wem",
        "rate": 1.0,
        "avatarName": "",
        "emotion": ""
      }
    ]
  },
  "c9660dbe-69c7-4bfe-aa85-13cfbc7748b1": {
    "guid": "c9660dbe-69c7-4bfe-aa85-13cfbc7748b1",
    "playRate": 1.0,
    "gameTrigger": "Dialog",
    "gameTriggerArgs": 40066433,
    "personalConfig": 2,
    "parentID": "97f0e41d-1ec3-4bce-bbc2-2a5426714233",
    "sourceNames": [
      {
        "sourceFileName": "VO_AQ\\VO_paimon\\vo_FDAQ003_45_paimon_04.wem",
        "rate": 1.0,
        "avatarName": "",
        "emotion": ""
      }
    ]
  },
  "cc0bd823-0042-4e6d-9e03-6b4906d8fb27": {
    "guid": "cc0bd823-0042-4e6d-9e03-6b4906d8fb27",
    "playRate": 1.0,
    "gameTrigger": "Dialog",
    "gameTriggerArgs": 40066436,
    "personalConfig": 2,
    "parentID": "97f0e41d-1ec3-4bce-bbc2-2a5426714233",
    "sourceNames": [
      {
        "sourceFileName": "VO_AQ\\VO_NPC\\vo_FDAQ003_45_lilian_12.wem",
        "rate": 1.0,
        "avatarName": "",
        "emotion": ""
      }
    ]
  },
  "ccbe23b1-6b61-4939-8a13-ce9543ec2a4c": {
    "guid": "ccbe23b1-6b61-4939-8a13-ce9543ec2a4c",
    "playRate": 1.0,
    "gameTrigger": "Dialog",
    "gameTriggerArgs": 40066440,
    "personalConfig": 2,
    "parentID": "97f0e41d-1ec3-4bce-bbc2-2a5426714233",
    "sourceNames": [
      {
        "sourceFileName": "VO_AQ\\VO_paimon\\vo_FDAQ003_45_paimon_05.wem",
        "rate": 1.0,
        "avatarName": "",
        "emotion": ""
      }
    ]
  },
  "cd744d30-752e-4a6d-b402-3a3ae22238ce": {
    "guid": "cd744d30-752e-4a6d-b402-3a3ae22238ce",
    "playRate": 1.0,
    "gameTrigger": "Dialog",
    "gameTriggerArgs": 40066427,
    "personalConfig": 2,
    "parentID": "97f0e41d-1ec3-4bce-bbc2-2a5426714233",
    "sourceNames": [
      {
        "sourceFileName": "VO_AQ\\VO_furina\\vo_FDAQ003_45_furina_04.wem",
        "rate": 1.0,
        "avatarName": "",
        "emotion": ""
      }
    ]
  },
  "d49b22a4-202e-4f76-8eeb-e66d9503e428": {
    "guid": "d49b22a4-202e-4f76-8eeb-e66d9503e428",
    "playRate": 1.0,
    "gameTrigger": "Dialog",
    "gameTriggerArgs": 40066416,
    "personalConfig": 2,
    "parentID": "97f0e41d-1ec3-4bce-bbc2-2a5426714233",
    "sourceNames": [
      {
        "sourceFileName": "VO_AQ\\VO_navia\\vo_FDAQ003_45_navia_08.wem",
        "rate": 1.0,
        "avatarName": "",
        "emotion": ""
      }
    ]
  },
  "f2e6f17d-0062-4c6d-bd17-f7352a137a25": {
    "guid": "f2e6f17d-0062-4c6d-bd17-f7352a137a25",
    "playRate": 1.0,
    "gameTrigger": "Dialog",
    "gameTriggerArgs": 40066423,
    "personalConfig": 2,
    "parentID": "97f0e41d-1ec3-4bce-bbc2-2a5426714233",
    "sourceNames": [
      {
        "sourceFileName": "VO_AQ\\VO_NPC\\vo_FDAQ003_45_lilian_03.wem",
        "rate": 1.0,
        "avatarName": "",
        "emotion": ""
      }
    ]
  },
  "f3ef7274-8ba9-49bc-b3eb-a3a836393123": {
    "guid": "f3ef7274-8ba9-49bc-b3eb-a3a836393123",
    "playRate": 1.0,
    "gameTrigger": "Dialog",
    "gameTriggerArgs": 40066406,
    "personalConfig": 2,
    "parentID": "97f0e41d-1ec3-4bce-bbc2-2a5426714233",
    "sourceNames": [
      {
        "sourceFileName": "VO_AQ\\VO_navia\\vo_FDAQ003_45_navia_01.wem",
        "rate": 1.0,
        "avatarName": "",
        "emotion": ""
      }
    ]
  },
  "f3fa127c-2398-4d40-99a8-611e75e27dfd": {
    "guid": "f3fa127c-2398-4d40-99a8-611e75e27dfd",
    "playRate": 1.0,
    "gameTrigger": "Dialog",
    "gameTriggerArgs": 40066428,
    "personalConfig": 2,
    "parentID": "97f0e41d-1ec3-4bce-bbc2-2a5426714233",
    "sourceNames": [
      {
        "sourceFileName": "VO_AQ\\VO_NPC\\vo_FDAQ003_45_lilian_06.wem",
        "rate": 1.0,
        "avatarName": "",
        "emotion": ""
      }
    ]
  }
}