{
  "92ec951d-80bb-4fec-804b-2d585da5855b": {
    "guid": "92ec951d-80bb-4fec-804b-2d585da5855b",
    "playRate": 1.0,
    "gameTrigger": "Dialog",
    "gameTriggerArgs": 110195001,
    "personalConfig": 2,
    "parentID": "cceb335a-d3c8-484d-85be-cb86056f3630",
    "sourceNames": [
      {
        "sourceFileName": "VO_freetalk\\VO_yelan\\vo_dialog_YLLQ002_yelan_01.wem",
        "rate": 1.0,
        "avatarName": "",
        "emotion": ""
      }
    ]
  },
  "fe1ee405-def0-4669-833c-ec115f720b55": {
    "guid": "fe1ee405-def0-4669-833c-ec115f720b55",
    "playRate": 1.0,
    "gameTrigger": "Dialog",
    "gameTriggerArgs": 110181601,
    "personalConfig": 2,
    "parentID": "cceb335a-d3c8-484d-85be-cb86056f3630",
    "sourceNames": [
      {
        "sourceFileName": "VO_freetalk\\VO_yelan\\vo_dialog_YLLQ001_yelan_01.wem",
        "rate": 1.0,
        "avatarName": "",
        "emotion": ""
      }
    ]
  }
}