{
  "39a40617-b685-48d5-aab2-8bb3453cafc0": {
    "guid": "39a40617-b685-48d5-aab2-8bb3453cafc0",
    "playRate": 1.0,
    "gameTrigger": "Dialog",
    "gameTriggerArgs": 693170101,
    "parentID": "15e16a2f-05ec-48ff-bd64-d1af32fc6795",
    "sourceNames": [
      {
        "sourceFileName": "VO_Tower\\vo_qiqi_saferoom_rest_01.wem",
        "rate": 1.0,
        "avatarName": "",
        "emotion": ""
      }
    ]
  },
  "4416cedf-c761-40d0-89ad-08fcfb2adf87": {
    "guid": "4416cedf-c761-40d0-89ad-08fcfb2adf87",
    "playRate": 1.0,
    "gameTrigger": "Dialog",
    "gameTriggerArgs": 693170302,
    "parentID": "15e16a2f-05ec-48ff-bd64-d1af32fc6795",
    "sourceNames": [
      {
        "sourceFileName": "VO_Tower\\vo_qiqi_saferoom_others_02.wem",
        "rate": 1.0,
        "avatarName": "",
        "emotion": ""
      }
    ]
  },
  "731eb6c3-263a-407e-ab57-f183d93d3fa9": {
    "guid": "731eb6c3-263a-407e-ab57-f183d93d3fa9",
    "playRate": 1.0,
    "gameTrigger": "Dialog",
    "gameTriggerArgs": 693170301,
    "parentID": "15e16a2f-05ec-48ff-bd64-d1af32fc6795",
    "sourceNames": [
      {
        "sourceFileName": "VO_Tower\\vo_qiqi_saferoom_others_01.wem",
        "rate": 1.0,
        "avatarName": "",
        "emotion": ""
      }
    ]
  },
  "885bece4-9811-47d2-9adc-9f5283b10f01": {
    "guid": "885bece4-9811-47d2-9adc-9f5283b10f01",
    "playRate": 1.0,
    "gameTrigger": "Dialog",
    "gameTriggerArgs": 693170201,
    "parentID": "15e16a2f-05ec-48ff-bd64-d1af32fc6795",
    "sourceNames": [
      {
        "sourceFileName": "VO_Tower\\vo_qiqi_saferoom_challenge_01.wem",
        "rate": 1.0,
        "avatarName": "",
        "emotion": ""
      }
    ]
  },
  "a000a885-a5ac-410d-8a68-394a3c9a236a": {
    "guid": "a000a885-a5ac-410d-8a68-394a3c9a236a",
    "playRate": 1.0,
    "gameTrigger": "Dialog",
    "gameTriggerArgs": 693170103,
    "parentID": "15e16a2f-05ec-48ff-bd64-d1af32fc6795",
    "sourceNames": [
      {
        "sourceFileName": "VO_Tower\\vo_qiqi_saferoom_rest_03.wem",
        "rate": 1.0,
        "avatarName": "",
        "emotion": ""
      }
    ]
  },
  "c29191eb-cb04-41f0-a660-0936f050f682": {
    "guid": "c29191eb-cb04-41f0-a660-0936f050f682",
    "playRate": 1.0,
    "gameTrigger": "Dialog",
    "gameTriggerArgs": 693170202,
    "parentID": "15e16a2f-05ec-48ff-bd64-d1af32fc6795",
    "sourceNames": [
      {
        "sourceFileName": "VO_Tower\\vo_qiqi_saferoom_challenge_02.wem",
        "rate": 1.0,
        "avatarName": "",
        "emotion": ""
      }
    ]
  },
  "ce14c830-5315-4474-8595-d5e185354dc2": {
    "guid": "ce14c830-5315-4474-8595-d5e185354dc2",
    "playRate": 1.0,
    "gameTrigger": "Dialog",
    "gameTriggerArgs": 693170203,
    "parentID": "15e16a2f-05ec-48ff-bd64-d1af32fc6795",
    "sourceNames": [
      {
        "sourceFileName": "VO_Tower\\vo_qiqi_saferoom_challenge_03.wem",
        "rate": 1.0,
        "avatarName": "",
        "emotion": ""
      }
    ]
  },
  "e914a713-7920-4eae-bc7e-024516f43ec6": {
    "guid": "e914a713-7920-4eae-bc7e-024516f43ec6",
    "playRate": 1.0,
    "gameTrigger": "Dialog",
    "gameTriggerArgs": 693170102,
    "parentID": "15e16a2f-05ec-48ff-bd64-d1af32fc6795",
    "sourceNames": [
      {
        "sourceFileName": "VO_Tower\\vo_qiqi_saferoom_rest_02.wem",
        "rate": 1.0,
        "avatarName": "",
        "emotion": ""
      }
    ]
  },
  "f0dd3a15-0575-43a3-8465-b8d26e670bed": {
    "guid": "f0dd3a15-0575-43a3-8465-b8d26e670bed",
    "playRate": 1.0,
    "gameTrigger": "Dialog",
    "gameTriggerArgs": 693170303,
    "parentID": "15e16a2f-05ec-48ff-bd64-d1af32fc6795",
    "sourceNames": [
      {
        "sourceFileName": "VO_Tower\\vo_qiqi_saferoom_others_03.wem",
        "rate": 1.0,
        "avatarName": "",
        "emotion": ""
      }
    ]
  }
}