{
  "1a48ba51-db22-4a28-b3d0-f62b0a7f6b14": {
    "guid": "1a48ba51-db22-4a28-b3d0-f62b0a7f6b14",
    "playRate": 1.0,
    "gameTrigger": "Dialog",
    "gameTriggerArgs": 693650102,
    "parentID": "f5847f23-f862-42ad-886b-d909baab2340",
    "sourceNames": [
      {
        "sourceFileName": "VO_Tower\\vo_baizhu_saferoom_rest_02.wem",
        "rate": 1.0,
        "avatarName": "",
        "emotion": ""
      }
    ]
  },
  "1d6d7729-6bb4-4d59-9c7e-98f21207611d": {
    "guid": "1d6d7729-6bb4-4d59-9c7e-98f21207611d",
    "playRate": 1.0,
    "gameTrigger": "Dialog",
    "gameTriggerArgs": 693650302,
    "parentID": "f5847f23-f862-42ad-886b-d909baab2340",
    "sourceNames": [
      {
        "sourceFileName": "VO_Tower\\vo_changsheng_saferoom_others_01.wem",
        "rate": 1.0,
        "avatarName": "",
        "emotion": ""
      }
    ]
  },
  "6b2da3b7-4265-409b-8806-e4396a638c7a": {
    "guid": "6b2da3b7-4265-409b-8806-e4396a638c7a",
    "playRate": 1.0,
    "gameTrigger": "Dialog",
    "gameTriggerArgs": 693650101,
    "parentID": "f5847f23-f862-42ad-886b-d909baab2340",
    "sourceNames": [
      {
        "sourceFileName": "VO_Tower\\vo_baizhu_saferoom_rest_01.wem",
        "rate": 1.0,
        "avatarName": "",
        "emotion": ""
      }
    ]
  },
  "7432d3bb-5fa5-45cb-9a27-182f512cee01": {
    "guid": "7432d3bb-5fa5-45cb-9a27-182f512cee01",
    "playRate": 1.0,
    "gameTrigger": "Dialog",
    "gameTriggerArgs": 693650202,
    "parentID": "f5847f23-f862-42ad-886b-d909baab2340",
    "sourceNames": [
      {
        "sourceFileName": "VO_Tower\\vo_changsheng_saferoom_challenge_01.wem",
        "rate": 1.0,
        "avatarName": "",
        "emotion": ""
      }
    ]
  },
  "b509b282-b9f8-447f-9f9d-08670cdaf812": {
    "guid": "b509b282-b9f8-447f-9f9d-08670cdaf812",
    "playRate": 1.0,
    "gameTrigger": "Dialog",
    "gameTriggerArgs": 693650201,
    "parentID": "f5847f23-f862-42ad-886b-d909baab2340",
    "sourceNames": [
      {
        "sourceFileName": "VO_Tower\\vo_baizhu_saferoom_challenge_01.wem",
        "rate": 1.0,
        "avatarName": "",
        "emotion": ""
      }
    ]
  },
  "c1703250-a9ac-4939-830e-02bce03370d0": {
    "guid": "c1703250-a9ac-4939-830e-02bce03370d0",
    "playRate": 1.0,
    "gameTrigger": "Dialog",
    "gameTriggerArgs": 693650203,
    "parentID": "f5847f23-f862-42ad-886b-d909baab2340",
    "sourceNames": [
      {
        "sourceFileName": "VO_Tower\\vo_baizhu_saferoom_challenge_02.wem",
        "rate": 1.0,
        "avatarName": "",
        "emotion": ""
      }
    ]
  },
  "c2c14335-48e2-4557-97cd-b05650863f1a": {
    "guid": "c2c14335-48e2-4557-97cd-b05650863f1a",
    "playRate": 1.0,
    "gameTrigger": "Dialog",
    "gameTriggerArgs": 693650301,
    "parentID": "f5847f23-f862-42ad-886b-d909baab2340",
    "sourceNames": [
      {
        "sourceFileName": "VO_Tower\\vo_baizhu_saferoom_others_01.wem",
        "rate": 1.0,
        "avatarName": "",
        "emotion": ""
      }
    ]
  },
  "d9b7b2b7-46c6-4649-8054-42dd28d81c18": {
    "guid": "d9b7b2b7-46c6-4649-8054-42dd28d81c18",
    "playRate": 1.0,
    "gameTrigger": "Dialog",
    "gameTriggerArgs": 693650303,
    "parentID": "f5847f23-f862-42ad-886b-d909baab2340",
    "sourceNames": [
      {
        "sourceFileName": "VO_Tower\\vo_baizhu_saferoom_others_02.wem",
        "rate": 1.0,
        "avatarName": "",
        "emotion": ""
      }
    ]
  },
  "df846dff-302a-4548-9762-eef4d3b36587": {
    "guid": "df846dff-302a-4548-9762-eef4d3b36587",
    "playRate": 1.0,
    "gameTrigger": "Dialog",
    "gameTriggerArgs": 693650103,
    "parentID": "f5847f23-f862-42ad-886b-d909baab2340",
    "sourceNames": [
      {
        "sourceFileName": "VO_Tower\\vo_changsheng_saferoom_rest_01.wem",
        "rate": 1.0,
        "avatarName": "",
        "emotion": ""
      }
    ]
  }
}