{
  "9f80e93d-bd7b-406d-93d1-fba7dde36264": {
    "guid": "9f80e93d-bd7b-406d-93d1-fba7dde36264",
    "playRate": 1.0,
    "gameTrigger": "Dialog",
    "gameTriggerArgs": 1018105502,
    "personalConfig": 2,
    "DDNLACJICEC": 1,
    "parentID": "375c4098-7660-4b32-803b-249f4c84178f",
    "sourceNames": [
      {
        "sourceFileName": "VO_COOP\\VO_dori\\vo_KVCOP001_19074_dori_02.wem",
        "rate": 1.0,
        "avatarName": "",
        "emotion": ""
      }
    ]
  },
  "a4aad824-33a8-45dc-a74e-709938eb53a6": {
    "guid": "a4aad824-33a8-45dc-a74e-709938eb53a6",
    "playRate": 1.0,
    "gameTrigger": "Dialog",
    "gameTriggerArgs": 1018105503,
    "personalConfig": 2,
    "DDNLACJICEC": 1,
    "parentID": "375c4098-7660-4b32-803b-249f4c84178f",
    "sourceNames": [
      {
        "sourceFileName": "VO_COOP\\VO_dori\\vo_KVCOP001_19074_dori_03.wem",
        "rate": 1.0,
        "avatarName": "",
        "emotion": ""
      }
    ]
  },
  "c92cf910-78ee-4df0-93c6-2bf361c35642": {
    "guid": "c92cf910-78ee-4df0-93c6-2bf361c35642",
    "playRate": 1.0,
    "gameTrigger": "Dialog",
    "gameTriggerArgs": 1018105501,
    "personalConfig": 2,
    "DDNLACJICEC": 1,
    "parentID": "375c4098-7660-4b32-803b-249f4c84178f",
    "sourceNames": [
      {
        "sourceFileName": "VO_COOP\\VO_dori\\vo_KVCOP001_19074_dori_01.wem",
        "rate": 1.0,
        "avatarName": "",
        "emotion": ""
      }
    ]
  }
}