{
  "566a3db4-d136-4044-9359-92ccc0262f05": {
    "guid": "566a3db4-d136-4044-9359-92ccc0262f05",
    "playRate": 1.0,
    "gameTrigger": "Dialog",
    "gameTriggerArgs": 130379906,
    "personalConfig": 2,
    "DDNLACJICEC": 1,
    "parentID": "409ba38d-c978-4de6-ae08-75896ca0b18c",
    "sourceNames": [
      {
        "sourceFileName": "VO_LQ\\VO_tighnari\\vo_CNLQ103_7_tighnari_01.wem",
        "rate": 1.0,
        "avatarName": "",
        "emotion": ""
      }
    ]
  },
  "b95038b9-eaa7-48b3-afb6-dc6ba717076b": {
    "guid": "b95038b9-eaa7-48b3-afb6-dc6ba717076b",
    "playRate": 1.0,
    "gameTrigger": "Dialog",
    "gameTriggerArgs": 130379907,
    "personalConfig": 2,
    "DDNLACJICEC": 1,
    "parentID": "409ba38d-c978-4de6-ae08-75896ca0b18c",
    "sourceNames": [
      {
        "sourceFileName": "VO_LQ\\VO_sethos\\vo_CNLQ103_7_sethos_01.wem",
        "rate": 1.0,
        "avatarName": "",
        "emotion": ""
      }
    ]
  },
  "f0c162fd-8995-403b-9860-b66f7f7852ee": {
    "guid": "f0c162fd-8995-403b-9860-b66f7f7852ee",
    "playRate": 1.0,
    "gameTrigger": "Dialog",
    "gameTriggerArgs": 130379905,
    "personalConfig": 2,
    "DDNLACJICEC": 1,
    "parentID": "409ba38d-c978-4de6-ae08-75896ca0b18c",
    "sourceNames": [
      {
        "sourceFileName": "VO_LQ\\VO_cyno\\vo_CNLQ103_7_cyno_01.wem",
        "rate": 1.0,
        "avatarName": "",
        "emotion": ""
      }
    ]
  }
}