{
  "011d5ed0-de08-492a-b887-05aef30ea4e1": {
    "guid": "011d5ed0-de08-492a-b887-05aef30ea4e1",
    "playRate": 1.0,
    "gameTrigger": "Dialog",
    "gameTriggerArgs": 30230204,
    "personalConfig": 2,
    "parentID": "d7024375-750f-4506-8cb5-d2e0413cd4dc",
    "sourceNames": [
      {
        "sourceFileName": "VO_freetalk\\VO_alhaitham\\vo_dialog_XMAQ107_alhaitham_03.wem",
        "rate": 1.0,
        "avatarName": "",
        "emotion": ""
      }
    ]
  },
  "0d711f98-9d02-429f-8c84-019211d413da": {
    "guid": "0d711f98-9d02-429f-8c84-019211d413da",
    "playRate": 1.0,
    "gameTrigger": "Dialog",
    "gameTriggerArgs": 130365113,
    "personalConfig": 2,
    "parentID": "d7024375-750f-4506-8cb5-d2e0413cd4dc",
    "sourceNames": [
      {
        "sourceFileName": "VO_freetalk\\VO_alhaitham\\vo_dialog_CNLQ102_alhaitham_04.wem",
        "rate": 1.0,
        "avatarName": "",
        "emotion": ""
      }
    ]
  },
  "1af2414b-efdc-4c4b-94d5-b3aa595d0e11": {
    "guid": "1af2414b-efdc-4c4b-94d5-b3aa595d0e11",
    "playRate": 1.0,
    "gameTrigger": "Dialog",
    "gameTriggerArgs": 30230202,
    "personalConfig": 2,
    "parentID": "d7024375-750f-4506-8cb5-d2e0413cd4dc",
    "sourceNames": [
      {
        "sourceFileName": "VO_freetalk\\VO_alhaitham\\vo_dialog_XMAQ107_alhaitham_02.wem",
        "rate": 1.0,
        "avatarName": "",
        "emotion": ""
      }
    ]
  },
  "2ca19e07-b3d8-4b2d-b27b-b5ae73b9ffd7": {
    "guid": "2ca19e07-b3d8-4b2d-b27b-b5ae73b9ffd7",
    "playRate": 1.0,
    "gameTrigger": "Dialog",
    "gameTriggerArgs": 130365115,
    "personalConfig": 2,
    "parentID": "d7024375-750f-4506-8cb5-d2e0413cd4dc",
    "sourceNames": [
      {
        "sourceFileName": "VO_freetalk\\VO_alhaitham\\vo_dialog_CNLQ102_alhaitham_05.wem",
        "rate": 1.0,
        "avatarName": "",
        "emotion": ""
      }
    ]
  },
  "2e54835f-7bf7-464f-b262-fb92f15c29e6": {
    "guid": "2e54835f-7bf7-464f-b262-fb92f15c29e6",
    "playRate": 1.0,
    "gameTrigger": "Dialog",
    "gameTriggerArgs": 401060215,
    "personalConfig": 2,
    "parentID": "d7024375-750f-4506-8cb5-d2e0413cd4dc",
    "sourceNames": [
      {
        "sourceFileName": "VO_freetalk\\VO_alhaitham\\vo_dialog_XYJEQ006_alhaitham_06.wem",
        "rate": 1.0,
        "avatarName": "",
        "emotion": ""
      }
    ]
  },
  "2f532da4-678d-4611-9a77-4f12cc403502": {
    "guid": "2f532da4-678d-4611-9a77-4f12cc403502",
    "playRate": 1.0,
    "gameTrigger": "Dialog",
    "gameTriggerArgs": 401060218,
    "personalConfig": 2,
    "parentID": "d7024375-750f-4506-8cb5-d2e0413cd4dc",
    "sourceNames": [
      {
        "sourceFileName": "VO_freetalk\\VO_alhaitham\\vo_dialog_XYJEQ006_alhaitham_07.wem",
        "rate": 1.0,
        "avatarName": "",
        "emotion": ""
      }
    ]
  },
  "360199aa-81ea-4395-99e0-7e13e0e09800": {
    "guid": "360199aa-81ea-4395-99e0-7e13e0e09800",
    "playRate": 1.0,
    "gameTrigger": "Dialog",
    "gameTriggerArgs": 130230112,
    "personalConfig": 2,
    "parentID": "d7024375-750f-4506-8cb5-d2e0413cd4dc",
    "sourceNames": [
      {
        "sourceFileName": "VO_freetalk\\VO_alhaitham\\vo_dialog_AHLQ003_alhaitham_05.wem",
        "rate": 1.0,
        "avatarName": "",
        "emotion": ""
      }
    ]
  },
  "45db03a8-6739-4ecd-a2c9-5206e08b2c04": {
    "guid": "45db03a8-6739-4ecd-a2c9-5206e08b2c04",
    "playRate": 1.0,
    "gameTrigger": "Dialog",
    "gameTriggerArgs": 401015002,
    "personalConfig": 2,
    "parentID": "d7024375-750f-4506-8cb5-d2e0413cd4dc",
    "sourceNames": [
      {
        "sourceFileName": "VO_freetalk\\VO_alhaitham\\vo_dialog_XYJEQ002_alhaitham_01.wem",
        "rate": 1.0,
        "avatarName": "",
        "emotion": ""
      }
    ]
  },
  "46a9e2a6-a989-4d8d-a20d-4c614bb8c442": {
    "guid": "46a9e2a6-a989-4d8d-a20d-4c614bb8c442",
    "playRate": 1.0,
    "gameTrigger": "Dialog",
    "gameTriggerArgs": 130230122,
    "personalConfig": 2,
    "parentID": "d7024375-750f-4506-8cb5-d2e0413cd4dc",
    "sourceNames": [
      {
        "sourceFileName": "VO_freetalk\\VO_alhaitham\\vo_dialog_AHLQ003_alhaitham_10.wem",
        "rate": 1.0,
        "avatarName": "",
        "emotion": ""
      }
    ]
  },
  "49a8df1c-d860-4d2f-9271-7d2089743cba": {
    "guid": "49a8df1c-d860-4d2f-9271-7d2089743cba",
    "playRate": 1.0,
    "gameTrigger": "Dialog",
    "gameTriggerArgs": 130230118,
    "personalConfig": 2,
    "parentID": "d7024375-750f-4506-8cb5-d2e0413cd4dc",
    "sourceNames": [
      {
        "sourceFileName": "VO_freetalk\\VO_alhaitham\\vo_dialog_AHLQ003_alhaitham_08.wem",
        "rate": 1.0,
        "avatarName": "",
        "emotion": ""
      }
    ]
  },
  "4d4c6752-6f91-4e8c-a800-e6f2fa0b7a49": {
    "guid": "4d4c6752-6f91-4e8c-a800-e6f2fa0b7a49",
    "playRate": 1.0,
    "gameTrigger": "Dialog",
    "gameTriggerArgs": 130230116,
    "personalConfig": 2,
    "parentID": "d7024375-750f-4506-8cb5-d2e0413cd4dc",
    "sourceNames": [
      {
        "sourceFileName": "VO_freetalk\\VO_alhaitham\\vo_dialog_AHLQ003_alhaitham_07.wem",
        "rate": 1.0,
        "avatarName": "",
        "emotion": ""
      }
    ]
  },
  "4e645757-9bff-413f-af45-e09b5ec8d48f": {
    "guid": "4e645757-9bff-413f-af45-e09b5ec8d48f",
    "playRate": 1.0,
    "gameTrigger": "Dialog",
    "gameTriggerArgs": 401060229,
    "personalConfig": 2,
    "parentID": "d7024375-750f-4506-8cb5-d2e0413cd4dc",
    "sourceNames": [
      {
        "sourceFileName": "VO_freetalk\\VO_alhaitham\\vo_dialog_XYJEQ006_alhaitham_12.wem",
        "rate": 1.0,
        "avatarName": "",
        "emotion": ""
      }
    ]
  },
  "60f60397-90d5-406b-a66d-7fc5fdb36ade": {
    "guid": "60f60397-90d5-406b-a66d-7fc5fdb36ade",
    "playRate": 1.0,
    "gameTrigger": "Dialog",
    "gameTriggerArgs": 401015202,
    "personalConfig": 2,
    "parentID": "d7024375-750f-4506-8cb5-d2e0413cd4dc",
    "sourceNames": [
      {
        "sourceFileName": "VO_freetalk\\VO_alhaitham\\vo_dialog_XYJEQ002_alhaitham_03.wem",
        "rate": 1.0,
        "avatarName": "",
        "emotion": ""
      }
    ]
  },
  "61bca66d-6be1-46a6-ab14-245b950e999f": {
    "guid": "61bca66d-6be1-46a6-ab14-245b950e999f",
    "playRate": 1.0,
    "gameTrigger": "Dialog",
    "gameTriggerArgs": 130230120,
    "personalConfig": 2,
    "parentID": "d7024375-750f-4506-8cb5-d2e0413cd4dc",
    "sourceNames": [
      {
        "sourceFileName": "VO_freetalk\\VO_alhaitham\\vo_dialog_AHLQ003_alhaitham_09.wem",
        "rate": 1.0,
        "avatarName": "",
        "emotion": ""
      }
    ]
  },
  "62e54b70-75ab-4a05-ad6c-d4f12bd871e2": {
    "guid": "62e54b70-75ab-4a05-ad6c-d4f12bd871e2",
    "playRate": 1.0,
    "gameTrigger": "Dialog",
    "gameTriggerArgs": 130230102,
    "personalConfig": 2,
    "parentID": "d7024375-750f-4506-8cb5-d2e0413cd4dc",
    "sourceNames": [
      {
        "sourceFileName": "VO_freetalk\\VO_alhaitham\\vo_dialog_AHLQ003_alhaitham_01.wem",
        "rate": 1.0,
        "avatarName": "",
        "emotion": ""
      }
    ]
  },
  "6822904b-069c-4dd7-b10b-862d267074fa": {
    "guid": "6822904b-069c-4dd7-b10b-862d267074fa",
    "playRate": 1.0,
    "gameTrigger": "Dialog",
    "gameTriggerArgs": 401060204,
    "personalConfig": 2,
    "parentID": "d7024375-750f-4506-8cb5-d2e0413cd4dc",
    "sourceNames": [
      {
        "sourceFileName": "VO_freetalk\\VO_alhaitham\\vo_dialog_XYJEQ006_alhaitham_02.wem",
        "rate": 1.0,
        "avatarName": "",
        "emotion": ""
      }
    ]
  },
  "68fcf82f-1de6-4bf5-b1ca-a7a9edccc3b1": {
    "guid": "68fcf82f-1de6-4bf5-b1ca-a7a9edccc3b1",
    "playRate": 1.0,
    "gameTrigger": "Dialog",
    "gameTriggerArgs": 130365119,
    "personalConfig": 2,
    "parentID": "d7024375-750f-4506-8cb5-d2e0413cd4dc",
    "sourceNames": [
      {
        "sourceFileName": "VO_freetalk\\VO_alhaitham\\vo_dialog_CNLQ102_alhaitham_07.wem",
        "rate": 1.0,
        "avatarName": "",
        "emotion": ""
      }
    ]
  },
  "6d9561cc-226a-40d3-b60f-f8f0e6ed8069": {
    "guid": "6d9561cc-226a-40d3-b60f-f8f0e6ed8069",
    "playRate": 1.0,
    "gameTrigger": "Dialog",
    "gameTriggerArgs": 130230114,
    "personalConfig": 2,
    "parentID": "d7024375-750f-4506-8cb5-d2e0413cd4dc",
    "sourceNames": [
      {
        "sourceFileName": "VO_freetalk\\VO_alhaitham\\vo_dialog_AHLQ003_alhaitham_06.wem",
        "rate": 1.0,
        "avatarName": "",
        "emotion": ""
      }
    ]
  },
  "6ebfcc6f-bf23-43f0-80f1-108a860c08c0": {
    "guid": "6ebfcc6f-bf23-43f0-80f1-108a860c08c0",
    "playRate": 1.0,
    "gameTrigger": "Dialog",
    "gameTriggerArgs": 30262102,
    "personalConfig": 2,
    "parentID": "d7024375-750f-4506-8cb5-d2e0413cd4dc",
    "sourceNames": [
      {
        "sourceFileName": "VO_freetalk\\VO_alhaitham\\vo_dialog_XMAQ305_alhaitham_02.wem",
        "rate": 1.0,
        "avatarName": "",
        "emotion": ""
      }
    ]
  },
  "6ed10adf-3025-4d99-90c0-4bbf896ec76d": {
    "guid": "6ed10adf-3025-4d99-90c0-4bbf896ec76d",
    "playRate": 1.0,
    "gameTrigger": "Dialog",
    "gameTriggerArgs": 130369907,
    "personalConfig": 2,
    "DDNLACJICEC": 1,
    "parentID": "d7024375-750f-4506-8cb5-d2e0413cd4dc",
    "sourceNames": [
      {
        "sourceFileName": "VO_freetalk\\VO_alhaitham\\vo_dialog_CNLQ102_alhaitham_09.wem",
        "rate": 1.0,
        "avatarName": "",
        "emotion": ""
      }
    ]
  },
  "714e6580-4fd3-4912-83f1-169b989f8f69": {
    "guid": "714e6580-4fd3-4912-83f1-169b989f8f69",
    "playRate": 1.0,
    "gameTrigger": "Dialog",
    "gameTriggerArgs": 401060211,
    "personalConfig": 2,
    "parentID": "d7024375-750f-4506-8cb5-d2e0413cd4dc",
    "sourceNames": [
      {
        "sourceFileName": "VO_freetalk\\VO_alhaitham\\vo_dialog_XYJEQ006_alhaitham_05.wem",
        "rate": 1.0,
        "avatarName": "",
        "emotion": ""
      }
    ]
  },
  "7820d78f-cd12-459b-8339-cafda92695ee": {
    "guid": "7820d78f-cd12-459b-8339-cafda92695ee",
    "playRate": 1.0,
    "gameTrigger": "Dialog",
    "gameTriggerArgs": 130365117,
    "personalConfig": 2,
    "parentID": "d7024375-750f-4506-8cb5-d2e0413cd4dc",
    "sourceNames": [
      {
        "sourceFileName": "VO_freetalk\\VO_alhaitham\\vo_dialog_CNLQ102_alhaitham_06.wem",
        "rate": 1.0,
        "avatarName": "",
        "emotion": ""
      }
    ]
  },
  "784318da-f618-4d32-87e7-8aef54e5d292": {
    "guid": "784318da-f618-4d32-87e7-8aef54e5d292",
    "playRate": 1.0,
    "gameTrigger": "Dialog",
    "gameTriggerArgs": 130365110,
    "personalConfig": 2,
    "parentID": "d7024375-750f-4506-8cb5-d2e0413cd4dc",
    "sourceNames": [
      {
        "sourceFileName": "VO_freetalk\\VO_alhaitham\\vo_dialog_CNLQ102_alhaitham_03.wem",
        "rate": 1.0,
        "avatarName": "",
        "emotion": ""
      }
    ]
  },
  "7beb1b8b-87eb-4bdb-ae89-dcbed8ed2bba": {
    "guid": "7beb1b8b-87eb-4bdb-ae89-dcbed8ed2bba",
    "playRate": 1.0,
    "gameTrigger": "Dialog",
    "gameTriggerArgs": 30262215,
    "personalConfig": 2,
    "parentID": "d7024375-750f-4506-8cb5-d2e0413cd4dc",
    "sourceNames": [
      {
        "sourceFileName": "VO_freetalk\\VO_alhaitham\\vo_dialog_XMAQ305_alhaitham_08.wem",
        "rate": 1.0,
        "avatarName": "",
        "emotion": ""
      }
    ]
  },
  "7e2f5afb-1cd7-40c4-98bd-a9efa569b4a3": {
    "guid": "7e2f5afb-1cd7-40c4-98bd-a9efa569b4a3",
    "playRate": 1.0,
    "gameTrigger": "Dialog",
    "gameTriggerArgs": 401035104,
    "personalConfig": 2,
    "parentID": "d7024375-750f-4506-8cb5-d2e0413cd4dc",
    "sourceNames": [
      {
        "sourceFileName": "VO_freetalk\\VO_alhaitham\\vo_dialog_XYJEQ004_alhaitham_01.wem",
        "rate": 1.0,
        "avatarName": "",
        "emotion": ""
      }
    ]
  },
  "7e488c5e-0236-4009-b8a2-731a2360156f": {
    "guid": "7e488c5e-0236-4009-b8a2-731a2360156f",
    "playRate": 1.0,
    "gameTrigger": "Dialog",
    "gameTriggerArgs": 30262208,
    "personalConfig": 2,
    "parentID": "d7024375-750f-4506-8cb5-d2e0413cd4dc",
    "sourceNames": [
      {
        "sourceFileName": "VO_freetalk\\VO_alhaitham\\vo_dialog_XMAQ305_alhaitham_05.wem",
        "rate": 1.0,
        "avatarName": "",
        "emotion": ""
      }
    ]
  },
  "82b40ae0-78e6-4686-b818-21a0f4e1de9f": {
    "guid": "82b40ae0-78e6-4686-b818-21a0f4e1de9f",
    "playRate": 1.0,
    "gameTrigger": "Dialog",
    "gameTriggerArgs": 401060225,
    "personalConfig": 2,
    "parentID": "d7024375-750f-4506-8cb5-d2e0413cd4dc",
    "sourceNames": [
      {
        "sourceFileName": "VO_freetalk\\VO_alhaitham\\vo_dialog_XYJEQ006_alhaitham_10.wem",
        "rate": 1.0,
        "avatarName": "",
        "emotion": ""
      }
    ]
  },
  "877086f4-a816-4592-a5c6-d30447ebec04": {
    "guid": "877086f4-a816-4592-a5c6-d30447ebec04",
    "playRate": 1.0,
    "gameTrigger": "Dialog",
    "gameTriggerArgs": 130230124,
    "personalConfig": 2,
    "parentID": "d7024375-750f-4506-8cb5-d2e0413cd4dc",
    "sourceNames": [
      {
        "sourceFileName": "VO_freetalk\\VO_alhaitham\\vo_dialog_AHLQ003_alhaitham_11.wem",
        "rate": 1.0,
        "avatarName": "",
        "emotion": ""
      }
    ]
  },
  "8d5a6444-73d4-408e-a1e8-64c044ebfb2b": {
    "guid": "8d5a6444-73d4-408e-a1e8-64c044ebfb2b",
    "playRate": 1.0,
    "gameTrigger": "Dialog",
    "gameTriggerArgs": 401060227,
    "personalConfig": 2,
    "parentID": "d7024375-750f-4506-8cb5-d2e0413cd4dc",
    "sourceNames": [
      {
        "sourceFileName": "VO_freetalk\\VO_alhaitham\\vo_dialog_XYJEQ006_alhaitham_11.wem",
        "rate": 1.0,
        "avatarName": "",
        "emotion": ""
      }
    ]
  },
  "8df6269d-0456-41d0-8627-0dc45e1c0f5a": {
    "guid": "8df6269d-0456-41d0-8627-0dc45e1c0f5a",
    "playRate": 1.0,
    "gameTrigger": "Dialog",
    "gameTriggerArgs": 130365107,
    "personalConfig": 2,
    "parentID": "d7024375-750f-4506-8cb5-d2e0413cd4dc",
    "sourceNames": [
      {
        "sourceFileName": "VO_freetalk\\VO_alhaitham\\vo_dialog_CNLQ102_alhaitham_02.wem",
        "rate": 1.0,
        "avatarName": "",
        "emotion": ""
      }
    ]
  },
  "94a8f509-54cf-4c70-bb6e-1df6f622cffc": {
    "guid": "94a8f509-54cf-4c70-bb6e-1df6f622cffc",
    "playRate": 1.0,
    "gameTrigger": "Dialog",
    "gameTriggerArgs": 30230206,
    "personalConfig": 2,
    "parentID": "d7024375-750f-4506-8cb5-d2e0413cd4dc",
    "sourceNames": [
      {
        "sourceFileName": "VO_freetalk\\VO_alhaitham\\vo_dialog_XMAQ107_alhaitham_04.wem",
        "rate": 1.0,
        "avatarName": "",
        "emotion": ""
      }
    ]
  },
  "96c99c49-934a-4b31-b79c-65bbcf68376e": {
    "guid": "96c99c49-934a-4b31-b79c-65bbcf68376e",
    "playRate": 1.0,
    "gameTrigger": "Dialog",
    "gameTriggerArgs": 401005803,
    "personalConfig": 2,
    "parentID": "d7024375-750f-4506-8cb5-d2e0413cd4dc",
    "sourceNames": [
      {
        "sourceFileName": "VO_freetalk\\VO_alhaitham\\vo_dialog_XYJEQ001_alhaitham_02.wem",
        "rate": 1.0,
        "avatarName": "",
        "emotion": ""
      }
    ]
  },
  "a1f4143e-9834-40ab-af74-85ddaa2f5433": {
    "guid": "a1f4143e-9834-40ab-af74-85ddaa2f5433",
    "playRate": 1.0,
    "gameTrigger": "Dialog",
    "gameTriggerArgs": 30262202,
    "personalConfig": 2,
    "parentID": "d7024375-750f-4506-8cb5-d2e0413cd4dc",
    "sourceNames": [
      {
        "sourceFileName": "VO_freetalk\\VO_alhaitham\\vo_dialog_XMAQ305_alhaitham_03.wem",
        "rate": 1.0,
        "avatarName": "",
        "emotion": ""
      }
    ]
  },
  "a2e63ba1-8733-4920-93de-e51d415d8033": {
    "guid": "a2e63ba1-8733-4920-93de-e51d415d8033",
    "playRate": 1.0,
    "gameTrigger": "Dialog",
    "gameTriggerArgs": 401005806,
    "personalConfig": 2,
    "parentID": "d7024375-750f-4506-8cb5-d2e0413cd4dc",
    "sourceNames": [
      {
        "sourceFileName": "VO_freetalk\\VO_alhaitham\\vo_dialog_XYJEQ001_alhaitham_04.wem",
        "rate": 1.0,
        "avatarName": "",
        "emotion": ""
      }
    ]
  },
  "ac591492-6a94-413d-8e56-22b86c134031": {
    "guid": "ac591492-6a94-413d-8e56-22b86c134031",
    "playRate": 1.0,
    "gameTrigger": "Dialog",
    "gameTriggerArgs": 130365105,
    "personalConfig": 2,
    "parentID": "d7024375-750f-4506-8cb5-d2e0413cd4dc",
    "sourceNames": [
      {
        "sourceFileName": "VO_freetalk\\VO_alhaitham\\vo_dialog_CNLQ102_alhaitham_01.wem",
        "rate": 1.0,
        "avatarName": "",
        "emotion": ""
      }
    ]
  },
  "b3161eef-c23a-48d1-be78-573219dcd954": {
    "guid": "b3161eef-c23a-48d1-be78-573219dcd954",
    "playRate": 1.0,
    "gameTrigger": "Dialog",
    "gameTriggerArgs": 130230110,
    "personalConfig": 2,
    "parentID": "d7024375-750f-4506-8cb5-d2e0413cd4dc",
    "sourceNames": [
      {
        "sourceFileName": "VO_freetalk\\VO_alhaitham\\vo_dialog_AHLQ003_alhaitham_04.wem",
        "rate": 1.0,
        "avatarName": "",
        "emotion": ""
      }
    ]
  },
  "b7641450-15b2-4e3a-9f7a-5125fb15a576": {
    "guid": "b7641450-15b2-4e3a-9f7a-5125fb15a576",
    "playRate": 1.0,
    "gameTrigger": "Dialog",
    "gameTriggerArgs": 130369908,
    "personalConfig": 2,
    "DDNLACJICEC": 1,
    "parentID": "d7024375-750f-4506-8cb5-d2e0413cd4dc",
    "sourceNames": [
      {
        "sourceFileName": "VO_freetalk\\VO_alhaitham\\vo_dialog_CNLQ102_alhaitham_10.wem",
        "rate": 1.0,
        "avatarName": "",
        "emotion": ""
      }
    ]
  },
  "bade2393-e970-4b2f-a157-77995e711c5e": {
    "guid": "bade2393-e970-4b2f-a157-77995e711c5e",
    "playRate": 1.0,
    "gameTrigger": "Dialog",
    "gameTriggerArgs": 30262211,
    "personalConfig": 2,
    "parentID": "d7024375-750f-4506-8cb5-d2e0413cd4dc",
    "sourceNames": [
      {
        "sourceFileName": "VO_freetalk\\VO_alhaitham\\vo_dialog_XMAQ305_alhaitham_07.wem",
        "rate": 1.0,
        "avatarName": "",
        "emotion": ""
      }
    ]
  },
  "bb93172c-0c79-4dee-9b6e-74de55c1a3c3": {
    "guid": "bb93172c-0c79-4dee-9b6e-74de55c1a3c3",
    "playRate": 1.0,
    "gameTrigger": "Dialog",
    "gameTriggerArgs": 401015102,
    "personalConfig": 2,
    "parentID": "d7024375-750f-4506-8cb5-d2e0413cd4dc",
    "sourceNames": [
      {
        "sourceFileName": "VO_freetalk\\VO_alhaitham\\vo_dialog_XYJEQ002_alhaitham_02.wem",
        "rate": 1.0,
        "avatarName": "",
        "emotion": ""
      }
    ]
  },
  "bc0590ab-70e0-4f2f-87b9-ff40544ddb5a": {
    "guid": "bc0590ab-70e0-4f2f-87b9-ff40544ddb5a",
    "playRate": 1.0,
    "gameTrigger": "Dialog",
    "gameTriggerArgs": 401060202,
    "personalConfig": 2,
    "parentID": "d7024375-750f-4506-8cb5-d2e0413cd4dc",
    "sourceNames": [
      {
        "sourceFileName": "VO_freetalk\\VO_alhaitham\\vo_dialog_XYJEQ006_alhaitham_01.wem",
        "rate": 1.0,
        "avatarName": "",
        "emotion": ""
      }
    ]
  },
  "bf56f860-e773-4c3d-9216-a24f6dd59f39": {
    "guid": "bf56f860-e773-4c3d-9216-a24f6dd59f39",
    "playRate": 1.0,
    "gameTrigger": "Dialog",
    "gameTriggerArgs": 30262101,
    "personalConfig": 2,
    "parentID": "d7024375-750f-4506-8cb5-d2e0413cd4dc",
    "sourceNames": [
      {
        "sourceFileName": "VO_freetalk\\VO_alhaitham\\vo_dialog_XMAQ305_alhaitham_01.wem",
        "rate": 1.0,
        "avatarName": "",
        "emotion": ""
      }
    ]
  },
  "c17a3afe-535a-4325-9236-c2d4e47d8765": {
    "guid": "c17a3afe-535a-4325-9236-c2d4e47d8765",
    "playRate": 1.0,
    "gameTrigger": "Dialog",
    "gameTriggerArgs": 30262205,
    "personalConfig": 2,
    "parentID": "d7024375-750f-4506-8cb5-d2e0413cd4dc",
    "sourceNames": [
      {
        "sourceFileName": "VO_freetalk\\VO_alhaitham\\vo_dialog_XMAQ305_alhaitham_04.wem",
        "rate": 1.0,
        "avatarName": "",
        "emotion": ""
      }
    ]
  },
  "c1c4262d-6f3e-46a6-acdc-ff963f258043": {
    "guid": "c1c4262d-6f3e-46a6-acdc-ff963f258043",
    "playRate": 1.0,
    "gameTrigger": "Dialog",
    "gameTriggerArgs": 401060208,
    "personalConfig": 2,
    "parentID": "d7024375-750f-4506-8cb5-d2e0413cd4dc",
    "sourceNames": [
      {
        "sourceFileName": "VO_freetalk\\VO_alhaitham\\vo_dialog_XYJEQ006_alhaitham_03.wem",
        "rate": 1.0,
        "avatarName": "",
        "emotion": ""
      }
    ]
  },
  "c3733cfd-d640-416a-a452-3551af329f83": {
    "guid": "c3733cfd-d640-416a-a452-3551af329f83",
    "playRate": 1.0,
    "gameTrigger": "Dialog",
    "gameTriggerArgs": 30230201,
    "personalConfig": 2,
    "parentID": "d7024375-750f-4506-8cb5-d2e0413cd4dc",
    "sourceNames": [
      {
        "sourceFileName": "VO_freetalk\\VO_alhaitham\\vo_dialog_XMAQ107_alhaitham_01.wem",
        "rate": 1.0,
        "avatarName": "",
        "emotion": ""
      }
    ]
  },
  "c42d71a7-e1ae-42f3-ba74-4a53f991a88c": {
    "guid": "c42d71a7-e1ae-42f3-ba74-4a53f991a88c",
    "playRate": 1.0,
    "gameTrigger": "Dialog",
    "gameTriggerArgs": 130365121,
    "personalConfig": 2,
    "parentID": "d7024375-750f-4506-8cb5-d2e0413cd4dc",
    "sourceNames": [
      {
        "sourceFileName": "VO_freetalk\\VO_alhaitham\\vo_dialog_CNLQ102_alhaitham_08.wem",
        "rate": 1.0,
        "avatarName": "",
        "emotion": ""
      }
    ]
  },
  "c7319fb9-9a6d-4cd8-a6e1-630c11a10407": {
    "guid": "c7319fb9-9a6d-4cd8-a6e1-630c11a10407",
    "playRate": 1.0,
    "gameTrigger": "Dialog",
    "gameTriggerArgs": 401005804,
    "personalConfig": 2,
    "parentID": "d7024375-750f-4506-8cb5-d2e0413cd4dc",
    "sourceNames": [
      {
        "sourceFileName": "VO_freetalk\\VO_alhaitham\\vo_dialog_XYJEQ001_alhaitham_03.wem",
        "rate": 1.0,
        "avatarName": "",
        "emotion": ""
      }
    ]
  },
  "cbd07d2e-cf29-4a74-aef4-45c4028a791b": {
    "guid": "cbd07d2e-cf29-4a74-aef4-45c4028a791b",
    "playRate": 1.0,
    "gameTrigger": "Dialog",
    "gameTriggerArgs": 401060221,
    "personalConfig": 2,
    "parentID": "d7024375-750f-4506-8cb5-d2e0413cd4dc",
    "sourceNames": [
      {
        "sourceFileName": "VO_freetalk\\VO_alhaitham\\vo_dialog_XYJEQ006_alhaitham_08.wem",
        "rate": 1.0,
        "avatarName": "",
        "emotion": ""
      }
    ]
  },
  "d318ba26-795d-4e8a-abf2-3e71516351a2": {
    "guid": "d318ba26-795d-4e8a-abf2-3e71516351a2",
    "playRate": 1.0,
    "gameTrigger": "Dialog",
    "gameTriggerArgs": 130230106,
    "personalConfig": 2,
    "parentID": "d7024375-750f-4506-8cb5-d2e0413cd4dc",
    "sourceNames": [
      {
        "sourceFileName": "VO_freetalk\\VO_alhaitham\\vo_dialog_AHLQ003_alhaitham_02.wem",
        "rate": 1.0,
        "avatarName": "",
        "emotion": ""
      }
    ]
  },
  "e26dd72a-3e66-4567-bf79-90357ab63bd1": {
    "guid": "e26dd72a-3e66-4567-bf79-90357ab63bd1",
    "playRate": 1.0,
    "gameTrigger": "Dialog",
    "gameTriggerArgs": 30262209,
    "personalConfig": 2,
    "parentID": "d7024375-750f-4506-8cb5-d2e0413cd4dc",
    "sourceNames": [
      {
        "sourceFileName": "VO_freetalk\\VO_alhaitham\\vo_dialog_XMAQ305_alhaitham_06.wem",
        "rate": 1.0,
        "avatarName": "",
        "emotion": ""
      }
    ]
  },
  "e53e3328-82ae-4664-80d6-2fa7e312e714": {
    "guid": "e53e3328-82ae-4664-80d6-2fa7e312e714",
    "playRate": 1.0,
    "gameTrigger": "Dialog",
    "gameTriggerArgs": 130230108,
    "personalConfig": 2,
    "parentID": "d7024375-750f-4506-8cb5-d2e0413cd4dc",
    "sourceNames": [
      {
        "sourceFileName": "VO_freetalk\\VO_alhaitham\\vo_dialog_AHLQ003_alhaitham_03.wem",
        "rate": 1.0,
        "avatarName": "",
        "emotion": ""
      }
    ]
  },
  "e6b2dc6c-0256-422e-a845-b1ad5f82334c": {
    "guid": "e6b2dc6c-0256-422e-a845-b1ad5f82334c",
    "playRate": 1.0,
    "gameTrigger": "Dialog",
    "gameTriggerArgs": 401060222,
    "personalConfig": 2,
    "parentID": "d7024375-750f-4506-8cb5-d2e0413cd4dc",
    "sourceNames": [
      {
        "sourceFileName": "VO_freetalk\\VO_alhaitham\\vo_dialog_XYJEQ006_alhaitham_09.wem",
        "rate": 1.0,
        "avatarName": "",
        "emotion": ""
      }
    ]
  },
  "e6f4e16a-3708-465d-9ef6-6c0967b00d92": {
    "guid": "e6f4e16a-3708-465d-9ef6-6c0967b00d92",
    "playRate": 1.0,
    "gameTrigger": "Dialog",
    "gameTriggerArgs": 401005801,
    "personalConfig": 2,
    "parentID": "d7024375-750f-4506-8cb5-d2e0413cd4dc",
    "sourceNames": [
      {
        "sourceFileName": "VO_freetalk\\VO_alhaitham\\vo_dialog_XYJEQ001_alhaitham_01.wem",
        "rate": 1.0,
        "avatarName": "",
        "emotion": ""
      }
    ]
  },
  "fb68ce26-761c-4901-966c-25a37508ada5": {
    "guid": "fb68ce26-761c-4901-966c-25a37508ada5",
    "playRate": 1.0,
    "gameTrigger": "Dialog",
    "gameTriggerArgs": 401060209,
    "personalConfig": 2,
    "parentID": "d7024375-750f-4506-8cb5-d2e0413cd4dc",
    "sourceNames": [
      {
        "sourceFileName": "VO_freetalk\\VO_alhaitham\\vo_dialog_XYJEQ006_alhaitham_04.wem",
        "rate": 1.0,
        "avatarName": "",
        "emotion": ""
      }
    ]
  }
}