{
  "0081311a-a350-4796-8afe-5c1f58f3eda6": {
    "guid": "0081311a-a350-4796-8afe-5c1f58f3eda6",
    "playRate": 1.0,
    "gameTrigger": "Dialog",
    "gameTriggerArgs": 101229910,
    "personalConfig": 2,
    "isPlayOnTeam": true,
    "parentID": "53086577-9724-410f-8330-957bdcf52df8",
    "sourceNames": [
      {
        "sourceFileName": "VO_LQ\\VO_paimon\\vo_ELLQ003_6_paimon_01.wem",
        "rate": 1.0,
        "avatarName": "",
        "emotion": ""
      }
    ]
  },
  "052976b8-871f-4de7-850a-f7e7524f114d": {
    "guid": "052976b8-871f-4de7-850a-f7e7524f114d",
    "playRate": 1.0,
    "gameTrigger": "Dialog",
    "gameTriggerArgs": 101220525,
    "personalConfig": 2,
    "parentID": "53086577-9724-410f-8330-957bdcf52df8",
    "sourceNames": [
      {
        "sourceFileName": "VO_LQ\\VO_npc\\vo_ELLQ003_6_schubert_14.wem",
        "rate": 1.0,
        "avatarName": "",
        "emotion": ""
      }
    ]
  },
  "0d0fd5a5-07da-401f-a398-cb7561848b8c": {
    "guid": "0d0fd5a5-07da-401f-a398-cb7561848b8c",
    "playRate": 1.0,
    "gameTrigger": "Dialog",
    "gameTriggerArgs": 101220535,
    "personalConfig": 2,
    "parentID": "53086577-9724-410f-8330-957bdcf52df8",
    "sourceNames": [
      {
        "sourceFileName": "VO_LQ\\VO_npc\\vo_ELLQ003_6_schubert_18.wem",
        "rate": 1.0,
        "avatarName": "",
        "emotion": ""
      }
    ]
  },
  "1171162a-a0de-4bb5-9ad9-e5f3f0f55528": {
    "guid": "1171162a-a0de-4bb5-9ad9-e5f3f0f55528",
    "playRate": 1.0,
    "gameTrigger": "Dialog",
    "gameTriggerArgs": 101220542,
    "personalConfig": 2,
    "parentID": "53086577-9724-410f-8330-957bdcf52df8",
    "sourceNames": [
      {
        "sourceFileName": "VO_LQ\\VO_paimon\\vo_ELLQ003_6_paimon_06.wem",
        "rate": 1.0,
        "avatarName": "",
        "emotion": ""
      }
    ]
  },
  "17a49827-0e39-4209-8329-e41325aca03c": {
    "guid": "17a49827-0e39-4209-8329-e41325aca03c",
    "playRate": 1.0,
    "gameTrigger": "Dialog",
    "gameTriggerArgs": 101220530,
    "personalConfig": 2,
    "parentID": "53086577-9724-410f-8330-957bdcf52df8",
    "sourceNames": [
      {
        "sourceFileName": "VO_LQ\\VO_npc\\vo_ELLQ003_6_schubert_17.wem",
        "rate": 1.0,
        "avatarName": "",
        "emotion": ""
      }
    ]
  },
  "18e2a90d-b28c-446b-a9fc-a5b503430220": {
    "guid": "18e2a90d-b28c-446b-a9fc-a5b503430220",
    "playRate": 1.0,
    "gameTrigger": "Dialog",
    "gameTriggerArgs": 101220526,
    "personalConfig": 2,
    "parentID": "53086577-9724-410f-8330-957bdcf52df8",
    "sourceNames": [
      {
        "sourceFileName": "VO_LQ\\VO_npc\\vo_ELLQ003_6_sergey_11.wem",
        "rate": 1.0,
        "avatarName": "",
        "emotion": ""
      }
    ]
  },
  "18e85036-f8fc-4559-b980-163e2b480034": {
    "guid": "18e85036-f8fc-4559-b980-163e2b480034",
    "playRate": 1.0,
    "gameTrigger": "Dialog",
    "gameTriggerArgs": 101220532,
    "personalConfig": 2,
    "parentID": "53086577-9724-410f-8330-957bdcf52df8",
    "sourceNames": [
      {
        "sourceFileName": "VO_LQ\\VO_npc\\vo_ELLQ003_6_sergey_14.wem",
        "rate": 1.0,
        "avatarName": "",
        "emotion": ""
      }
    ]
  },
  "2129e27a-1977-463d-b643-fe7b7f46e78a": {
    "guid": "2129e27a-1977-463d-b643-fe7b7f46e78a",
    "playRate": 1.0,
    "gameTrigger": "Dialog",
    "gameTriggerArgs": 101220538,
    "personalConfig": 2,
    "parentID": "53086577-9724-410f-8330-957bdcf52df8",
    "sourceNames": [
      {
        "sourceFileName": "VO_LQ\\VO_paimon\\vo_ELLQ003_6_paimon_05a.wem",
        "rate": 1.0,
        "avatarName": "",
        "emotion": "",
        "gender": 2
      },
      {
        "sourceFileName": "VO_LQ\\VO_paimon\\vo_ELLQ003_6_paimon_05b.wem",
        "rate": 1.0,
        "avatarName": "",
        "emotion": "",
        "gender": 1
      }
    ]
  },
  "2a1ddba1-40fb-42a5-b42a-8ea6f4f9db39": {
    "guid": "2a1ddba1-40fb-42a5-b42a-8ea6f4f9db39",
    "playRate": 1.0,
    "gameTrigger": "Dialog",
    "gameTriggerArgs": 101220529,
    "personalConfig": 2,
    "parentID": "53086577-9724-410f-8330-957bdcf52df8",
    "sourceNames": [
      {
        "sourceFileName": "VO_LQ\\VO_npc\\vo_ELLQ003_6_schubert_16.wem",
        "rate": 1.0,
        "avatarName": "",
        "emotion": ""
      }
    ]
  },
  "2d9bbcfb-8d7f-43cf-bfee-2404d5e55656": {
    "guid": "2d9bbcfb-8d7f-43cf-bfee-2404d5e55656",
    "playRate": 1.0,
    "gameTrigger": "Dialog",
    "gameTriggerArgs": 101220528,
    "personalConfig": 2,
    "parentID": "53086577-9724-410f-8330-957bdcf52df8",
    "sourceNames": [
      {
        "sourceFileName": "VO_LQ\\VO_npc\\vo_ELLQ003_6_schubert_15.wem",
        "rate": 1.0,
        "avatarName": "",
        "emotion": ""
      }
    ]
  },
  "3308e900-3661-4d33-a67c-0a395728eabc": {
    "guid": "3308e900-3661-4d33-a67c-0a395728eabc",
    "playRate": 1.0,
    "gameTrigger": "Dialog",
    "gameTriggerArgs": 101220502,
    "personalConfig": 2,
    "parentID": "53086577-9724-410f-8330-957bdcf52df8",
    "sourceNames": [
      {
        "sourceFileName": "VO_LQ\\VO_npc\\vo_ELLQ003_6_sergey_02.wem",
        "rate": 1.0,
        "avatarName": "",
        "emotion": ""
      }
    ]
  },
  "3455f3b1-7734-4b8f-b17a-7ca69b46c0a6": {
    "guid": "3455f3b1-7734-4b8f-b17a-7ca69b46c0a6",
    "playRate": 1.0,
    "gameTrigger": "Dialog",
    "gameTriggerArgs": 101220521,
    "personalConfig": 2,
    "parentID": "53086577-9724-410f-8330-957bdcf52df8",
    "sourceNames": [
      {
        "sourceFileName": "VO_LQ\\VO_npc\\vo_ELLQ003_6_schubert_11.wem",
        "rate": 1.0,
        "avatarName": "",
        "emotion": ""
      }
    ]
  },
  "47a061a1-a8cf-4faa-b7f0-5fc080929613": {
    "guid": "47a061a1-a8cf-4faa-b7f0-5fc080929613",
    "playRate": 1.0,
    "gameTrigger": "Dialog",
    "gameTriggerArgs": 101220508,
    "personalConfig": 2,
    "parentID": "53086577-9724-410f-8330-957bdcf52df8",
    "sourceNames": [
      {
        "sourceFileName": "VO_LQ\\VO_npc\\vo_ELLQ003_6_schubert_05a.wem",
        "rate": 1.0,
        "avatarName": "",
        "emotion": "",
        "gender": 2
      },
      {
        "sourceFileName": "VO_LQ\\VO_npc\\vo_ELLQ003_6_schubert_05b.wem",
        "rate": 1.0,
        "avatarName": "",
        "emotion": "",
        "gender": 1
      }
    ]
  },
  "4e26f00a-07db-4fcd-bd42-df2b98d2330c": {
    "guid": "4e26f00a-07db-4fcd-bd42-df2b98d2330c",
    "playRate": 1.0,
    "gameTrigger": "Dialog",
    "gameTriggerArgs": 101220512,
    "personalConfig": 2,
    "parentID": "53086577-9724-410f-8330-957bdcf52df8",
    "sourceNames": [
      {
        "sourceFileName": "VO_LQ\\VO_npc\\vo_ELLQ003_6_schubert_07.wem",
        "rate": 1.0,
        "avatarName": "",
        "emotion": ""
      }
    ]
  },
  "4fac77aa-fe38-4adb-ad6c-354e846d995b": {
    "guid": "4fac77aa-fe38-4adb-ad6c-354e846d995b",
    "playRate": 1.0,
    "gameTrigger": "Dialog",
    "gameTriggerArgs": 101220520,
    "personalConfig": 2,
    "parentID": "53086577-9724-410f-8330-957bdcf52df8",
    "sourceNames": [
      {
        "sourceFileName": "VO_LQ\\VO_npc\\vo_ELLQ003_6_sergey_09.wem",
        "rate": 1.0,
        "avatarName": "",
        "emotion": ""
      }
    ]
  },
  "59fa730c-c430-49f5-b4d9-10342725b4aa": {
    "guid": "59fa730c-c430-49f5-b4d9-10342725b4aa",
    "playRate": 1.0,
    "gameTrigger": "Dialog",
    "gameTriggerArgs": 101220544,
    "personalConfig": 2,
    "parentID": "53086577-9724-410f-8330-957bdcf52df8",
    "sourceNames": [
      {
        "sourceFileName": "VO_LQ\\VO_npc\\vo_ELLQ003_6_sergey_15.wem",
        "rate": 1.0,
        "avatarName": "",
        "emotion": ""
      }
    ]
  },
  "610ee582-4845-4814-b5a8-5c726c89a6a4": {
    "guid": "610ee582-4845-4814-b5a8-5c726c89a6a4",
    "playRate": 1.0,
    "gameTrigger": "Dialog",
    "gameTriggerArgs": 101229913,
    "personalConfig": 2,
    "isPlayOnTeam": true,
    "parentID": "53086577-9724-410f-8330-957bdcf52df8",
    "sourceNames": [
      {
        "sourceFileName": "VO_LQ\\VO_npc\\vo_ELLQ003_6_schubert_03.wem",
        "rate": 1.0,
        "avatarName": "",
        "emotion": ""
      }
    ]
  },
  "7703a4e9-48d6-40ba-9a60-23125f2738c8": {
    "guid": "7703a4e9-48d6-40ba-9a60-23125f2738c8",
    "playRate": 1.0,
    "gameTrigger": "Dialog",
    "gameTriggerArgs": 101220524,
    "personalConfig": 2,
    "parentID": "53086577-9724-410f-8330-957bdcf52df8",
    "sourceNames": [
      {
        "sourceFileName": "VO_LQ\\VO_npc\\vo_ELLQ003_6_schubert_13.wem",
        "rate": 1.0,
        "avatarName": "",
        "emotion": ""
      }
    ]
  },
  "776ca327-b854-4a8e-9fdf-363797038263": {
    "guid": "776ca327-b854-4a8e-9fdf-363797038263",
    "playRate": 1.0,
    "gameTrigger": "Dialog",
    "gameTriggerArgs": 101220513,
    "personalConfig": 2,
    "parentID": "53086577-9724-410f-8330-957bdcf52df8",
    "sourceNames": [
      {
        "sourceFileName": "VO_LQ\\VO_npc\\vo_ELLQ003_6_schubert_08.wem",
        "rate": 1.0,
        "avatarName": "",
        "emotion": ""
      }
    ]
  },
  "87b2c35d-9992-4e10-b997-fcd9fab22bbf": {
    "guid": "87b2c35d-9992-4e10-b997-fcd9fab22bbf",
    "playRate": 1.0,
    "gameTrigger": "Dialog",
    "gameTriggerArgs": 101220541,
    "personalConfig": 2,
    "parentID": "53086577-9724-410f-8330-957bdcf52df8",
    "sourceNames": [
      {
        "sourceFileName": "VO_LQ\\VO_npc\\vo_ELLQ003_6_schubert_19.wem",
        "rate": 1.0,
        "avatarName": "",
        "emotion": ""
      }
    ]
  },
  "89ecb0e2-519f-41b0-950c-64c59492da9d": {
    "guid": "89ecb0e2-519f-41b0-950c-64c59492da9d",
    "playRate": 1.0,
    "gameTrigger": "Dialog",
    "gameTriggerArgs": 101220514,
    "personalConfig": 2,
    "parentID": "53086577-9724-410f-8330-957bdcf52df8",
    "sourceNames": [
      {
        "sourceFileName": "VO_LQ\\VO_npc\\vo_ELLQ003_6_schubert_09.wem",
        "rate": 1.0,
        "avatarName": "",
        "emotion": ""
      }
    ]
  },
  "8ad2fe22-4dc2-4b6d-9959-3625092e2ad7": {
    "guid": "8ad2fe22-4dc2-4b6d-9959-3625092e2ad7",
    "playRate": 1.0,
    "gameTrigger": "Dialog",
    "gameTriggerArgs": 101220501,
    "personalConfig": 2,
    "DDNLACJICEC": 1,
    "parentID": "53086577-9724-410f-8330-957bdcf52df8",
    "sourceNames": [
      {
        "sourceFileName": "VO_LQ\\VO_npc\\vo_ELLQ003_6_sergey_01.wem",
        "rate": 1.0,
        "avatarName": "",
        "emotion": ""
      }
    ]
  },
  "8b036865-4d21-4174-8f9e-04e266c9f449": {
    "guid": "8b036865-4d21-4174-8f9e-04e266c9f449",
    "playRate": 1.0,
    "gameTrigger": "Dialog",
    "gameTriggerArgs": 101220531,
    "personalConfig": 2,
    "parentID": "53086577-9724-410f-8330-957bdcf52df8",
    "sourceNames": [
      {
        "sourceFileName": "VO_LQ\\VO_npc\\vo_ELLQ003_6_sergey_13.wem",
        "rate": 1.0,
        "avatarName": "",
        "emotion": ""
      }
    ]
  },
  "8e79d378-3fc1-4819-90fe-5f30772113d1": {
    "guid": "8e79d378-3fc1-4819-90fe-5f30772113d1",
    "playRate": 1.0,
    "gameTrigger": "Dialog",
    "gameTriggerArgs": 101220507,
    "personalConfig": 2,
    "parentID": "53086577-9724-410f-8330-957bdcf52df8",
    "sourceNames": [
      {
        "sourceFileName": "VO_LQ\\VO_npc\\vo_ELLQ003_6_sergey_04.wem",
        "rate": 1.0,
        "avatarName": "",
        "emotion": ""
      }
    ]
  },
  "8eaecfd8-8f3f-45ae-b201-104e78ce277e": {
    "guid": "8eaecfd8-8f3f-45ae-b201-104e78ce277e",
    "playRate": 1.0,
    "gameTrigger": "Dialog",
    "gameTriggerArgs": 101220534,
    "personalConfig": 2,
    "parentID": "53086577-9724-410f-8330-957bdcf52df8",
    "sourceNames": [
      {
        "sourceFileName": "VO_LQ\\VO_paimon\\vo_ELLQ003_6_paimon_04.wem",
        "rate": 1.0,
        "avatarName": "",
        "emotion": ""
      }
    ]
  },
  "917794ba-8afc-4ed6-8c4e-fdb25535dbf3": {
    "guid": "917794ba-8afc-4ed6-8c4e-fdb25535dbf3",
    "playRate": 1.0,
    "gameTrigger": "Dialog",
    "gameTriggerArgs": 101229911,
    "personalConfig": 2,
    "isPlayOnTeam": true,
    "parentID": "53086577-9724-410f-8330-957bdcf52df8",
    "sourceNames": [
      {
        "sourceFileName": "VO_LQ\\VO_npc\\vo_ELLQ003_6_schubert_01.wem",
        "rate": 1.0,
        "avatarName": "",
        "emotion": ""
      }
    ]
  },
  "a661f30d-0194-4b39-9d11-1f98d6b27a98": {
    "guid": "a661f30d-0194-4b39-9d11-1f98d6b27a98",
    "playRate": 1.0,
    "gameTrigger": "Dialog",
    "gameTriggerArgs": 101220506,
    "personalConfig": 2,
    "parentID": "53086577-9724-410f-8330-957bdcf52df8",
    "sourceNames": [
      {
        "sourceFileName": "VO_LQ\\VO_npc\\vo_ELLQ003_6_sergey_03.wem",
        "rate": 1.0,
        "avatarName": "",
        "emotion": ""
      }
    ]
  },
  "af6dc416-031b-421d-9077-4dd18f7f6117": {
    "guid": "af6dc416-031b-421d-9077-4dd18f7f6117",
    "playRate": 1.0,
    "gameTrigger": "Dialog",
    "gameTriggerArgs": 101220510,
    "personalConfig": 2,
    "parentID": "53086577-9724-410f-8330-957bdcf52df8",
    "sourceNames": [
      {
        "sourceFileName": "VO_LQ\\VO_npc\\vo_ELLQ003_6_sergey_05.wem",
        "rate": 1.0,
        "avatarName": "",
        "emotion": ""
      }
    ]
  },
  "b2254a54-6127-437a-8eb0-2e7753287756": {
    "guid": "b2254a54-6127-437a-8eb0-2e7753287756",
    "playRate": 1.0,
    "gameTrigger": "Dialog",
    "gameTriggerArgs": 101220516,
    "personalConfig": 2,
    "parentID": "53086577-9724-410f-8330-957bdcf52df8",
    "sourceNames": [
      {
        "sourceFileName": "VO_LQ\\VO_npc\\vo_ELLQ003_6_sergey_07.wem",
        "rate": 1.0,
        "avatarName": "",
        "emotion": ""
      }
    ]
  },
  "c213e322-5053-46e0-bd63-7cba531b1e54": {
    "guid": "c213e322-5053-46e0-bd63-7cba531b1e54",
    "playRate": 1.0,
    "gameTrigger": "Dialog",
    "gameTriggerArgs": 101229912,
    "personalConfig": 2,
    "isPlayOnTeam": true,
    "parentID": "53086577-9724-410f-8330-957bdcf52df8",
    "sourceNames": [
      {
        "sourceFileName": "VO_LQ\\VO_npc\\vo_ELLQ003_6_schubert_02.wem",
        "rate": 1.0,
        "avatarName": "",
        "emotion": ""
      }
    ]
  },
  "c3e80a25-8622-4d81-bc61-47d99e89af0e": {
    "guid": "c3e80a25-8622-4d81-bc61-47d99e89af0e",
    "playRate": 1.0,
    "gameTrigger": "Dialog",
    "gameTriggerArgs": 101220527,
    "personalConfig": 2,
    "parentID": "53086577-9724-410f-8330-957bdcf52df8",
    "sourceNames": [
      {
        "sourceFileName": "VO_LQ\\VO_npc\\vo_ELLQ003_6_sergey_12.wem",
        "rate": 1.0,
        "avatarName": "",
        "emotion": ""
      }
    ]
  },
  "c5a539ff-e77f-4d34-95be-068302d34fb9": {
    "guid": "c5a539ff-e77f-4d34-95be-068302d34fb9",
    "playRate": 1.0,
    "gameTrigger": "Dialog",
    "gameTriggerArgs": 101220511,
    "personalConfig": 2,
    "parentID": "53086577-9724-410f-8330-957bdcf52df8",
    "sourceNames": [
      {
        "sourceFileName": "VO_LQ\\VO_paimon\\vo_ELLQ003_6_paimon_02.wem",
        "rate": 1.0,
        "avatarName": "",
        "emotion": ""
      }
    ]
  },
  "c72da46f-8813-4d4c-b1a7-1adedba7a759": {
    "guid": "c72da46f-8813-4d4c-b1a7-1adedba7a759",
    "playRate": 1.0,
    "gameTrigger": "Dialog",
    "gameTriggerArgs": 101220503,
    "personalConfig": 2,
    "parentID": "53086577-9724-410f-8330-957bdcf52df8",
    "sourceNames": [
      {
        "sourceFileName": "VO_LQ\\VO_npc\\vo_ELLQ003_6_schubert_04a.wem",
        "rate": 1.0,
        "avatarName": "",
        "emotion": "",
        "gender": 2
      },
      {
        "sourceFileName": "VO_LQ\\VO_npc\\vo_ELLQ003_6_schubert_04b.wem",
        "rate": 1.0,
        "avatarName": "",
        "emotion": "",
        "gender": 1
      }
    ]
  },
  "c9a7c7f6-e205-45b7-899f-0748ba0eea61": {
    "guid": "c9a7c7f6-e205-45b7-899f-0748ba0eea61",
    "playRate": 1.0,
    "gameTrigger": "Dialog",
    "gameTriggerArgs": 101220519,
    "personalConfig": 2,
    "parentID": "53086577-9724-410f-8330-957bdcf52df8",
    "sourceNames": [
      {
        "sourceFileName": "VO_LQ\\VO_npc\\vo_ELLQ003_6_schubert_10.wem",
        "rate": 1.0,
        "avatarName": "",
        "emotion": ""
      }
    ]
  },
  "cb15ecca-a3c5-4501-8d12-a6dbc6fbf30e": {
    "guid": "cb15ecca-a3c5-4501-8d12-a6dbc6fbf30e",
    "playRate": 1.0,
    "gameTrigger": "Dialog",
    "gameTriggerArgs": 101220515,
    "personalConfig": 2,
    "parentID": "53086577-9724-410f-8330-957bdcf52df8",
    "sourceNames": [
      {
        "sourceFileName": "VO_LQ\\VO_npc\\vo_ELLQ003_6_sergey_06.wem",
        "rate": 1.0,
        "avatarName": "",
        "emotion": ""
      }
    ]
  },
  "d87eeda5-d79f-4589-9912-9989e8799758": {
    "guid": "d87eeda5-d79f-4589-9912-9989e8799758",
    "playRate": 1.0,
    "gameTrigger": "Dialog",
    "gameTriggerArgs": 101220517,
    "personalConfig": 2,
    "parentID": "53086577-9724-410f-8330-957bdcf52df8",
    "sourceNames": [
      {
        "sourceFileName": "VO_LQ\\VO_npc\\vo_ELLQ003_6_sergey_08.wem",
        "rate": 1.0,
        "avatarName": "",
        "emotion": ""
      }
    ]
  },
  "edab5408-548b-4055-b098-0442d784adc2": {
    "guid": "edab5408-548b-4055-b098-0442d784adc2",
    "playRate": 1.0,
    "gameTrigger": "Dialog",
    "gameTriggerArgs": 101220522,
    "personalConfig": 2,
    "parentID": "53086577-9724-410f-8330-957bdcf52df8",
    "sourceNames": [
      {
        "sourceFileName": "VO_LQ\\VO_npc\\vo_ELLQ003_6_schubert_12.wem",
        "rate": 1.0,
        "avatarName": "",
        "emotion": ""
      }
    ]
  },
  "f2db114f-1b8c-40dd-8d49-0c4d10863f98": {
    "guid": "f2db114f-1b8c-40dd-8d49-0c4d10863f98",
    "playRate": 1.0,
    "gameTrigger": "Dialog",
    "gameTriggerArgs": 101220523,
    "personalConfig": 2,
    "parentID": "53086577-9724-410f-8330-957bdcf52df8",
    "sourceNames": [
      {
        "sourceFileName": "VO_LQ\\VO_npc\\vo_ELLQ003_6_sergey_10.wem",
        "rate": 1.0,
        "avatarName": "",
        "emotion": ""
      }
    ]
  },
  "f6834343-e783-4964-bd21-2cb216161270": {
    "guid": "f6834343-e783-4964-bd21-2cb216161270",
    "playRate": 1.0,
    "gameTrigger": "Dialog",
    "gameTriggerArgs": 101220509,
    "personalConfig": 2,
    "parentID": "53086577-9724-410f-8330-957bdcf52df8",
    "sourceNames": [
      {
        "sourceFileName": "VO_LQ\\VO_npc\\vo_ELLQ003_6_schubert_06.wem",
        "rate": 1.0,
        "avatarName": "",
        "emotion": ""
      }
    ]
  },
  "f70f4d4e-92d6-4b70-aaa6-69c2a1bc7500": {
    "guid": "f70f4d4e-92d6-4b70-aaa6-69c2a1bc7500",
    "playRate": 1.0,
    "gameTrigger": "Dialog",
    "gameTriggerArgs": 101220518,
    "personalConfig": 2,
    "DDNLACJICEC": 1,
    "parentID": "53086577-9724-410f-8330-957bdcf52df8",
    "sourceNames": [
      {
        "sourceFileName": "VO_LQ\\VO_paimon\\vo_ELLQ003_6_paimon_03.wem",
        "rate": 1.0,
        "avatarName": "",
        "emotion": ""
      }
    ]
  },
  "fe7136f8-d88d-4144-915d-7b070de4555d": {
    "guid": "fe7136f8-d88d-4144-915d-7b070de4555d",
    "playRate": 1.0,
    "gameTrigger": "Dialog",
    "gameTriggerArgs": 101220543,
    "personalConfig": 2,
    "parentID": "53086577-9724-410f-8330-957bdcf52df8",
    "sourceNames": [
      {
        "sourceFileName": "VO_LQ\\VO_npc\\vo_ELLQ003_6_schubert_20.wem",
        "rate": 1.0,
        "avatarName": "",
        "emotion": ""
      }
    ]
  },
  "ffa59332-d927-4c9a-ab49-4a0b2bd6b44e": {
    "guid": "ffa59332-d927-4c9a-ab49-4a0b2bd6b44e",
    "playRate": 1.0,
    "gameTrigger": "Dialog",
    "gameTriggerArgs": 101220545,
    "personalConfig": 2,
    "parentID": "53086577-9724-410f-8330-957bdcf52df8",
    "sourceNames": [
      {
        "sourceFileName": "VO_LQ\\VO_npc\\vo_ELLQ003_6_sergey_16.wem",
        "rate": 1.0,
        "avatarName": "",
        "emotion": ""
      }
    ]
  }
}