{
  "053f47d2-2de2-43c0-8152-268f81340207": {
    "guid": "053f47d2-2de2-43c0-8152-268f81340207",
    "playRate": 1.0,
    "gameTrigger": "Dialog",
    "gameTriggerArgs": 191821261,
    "personalConfig": 2,
    "parentID": "c71e0c47-0bfe-4a48-89e2-30e5420c9bf9",
    "sourceNames": [
      {
        "sourceFileName": "VO_COOP\\VO_npc\\vo_LNTCOP001_1918212_amaury_03.wem",
        "rate": 1.0,
        "avatarName": "",
        "emotion": ""
      }
    ]
  },
  "0c83a128-63d8-4922-9e5e-7164a99318d4": {
    "guid": "0c83a128-63d8-4922-9e5e-7164a99318d4",
    "playRate": 1.0,
    "gameTrigger": "Dialog",
    "gameTriggerArgs": 191821226,
    "personalConfig": 2,
    "parentID": "c71e0c47-0bfe-4a48-89e2-30e5420c9bf9",
    "sourceNames": [
      {
        "sourceFileName": "VO_COOP\\VO_npc\\vo_LNTCOP001_1918212_merieux_07.wem",
        "rate": 1.0,
        "avatarName": "",
        "emotion": ""
      }
    ]
  },
  "0ed333fd-0fb9-4979-9a6f-98f342086954": {
    "guid": "0ed333fd-0fb9-4979-9a6f-98f342086954",
    "playRate": 1.0,
    "gameTrigger": "Dialog",
    "gameTriggerArgs": 191821267,
    "personalConfig": 2,
    "parentID": "c71e0c47-0bfe-4a48-89e2-30e5420c9bf9",
    "sourceNames": [
      {
        "sourceFileName": "VO_COOP\\VO_lynette\\vo_LNTCOP001_1918212_lynette_12.wem",
        "rate": 1.0,
        "avatarName": "",
        "emotion": ""
      }
    ]
  },
  "10f6a820-e8ba-434f-8abc-54e98dec2e4e": {
    "guid": "10f6a820-e8ba-434f-8abc-54e98dec2e4e",
    "playRate": 1.0,
    "gameTrigger": "Dialog",
    "gameTriggerArgs": 191821281,
    "personalConfig": 2,
    "parentID": "c71e0c47-0bfe-4a48-89e2-30e5420c9bf9",
    "sourceNames": [
      {
        "sourceFileName": "VO_COOP\\VO_npc\\vo_LNTCOP001_1918212_maloney_05.wem",
        "rate": 1.0,
        "avatarName": "",
        "emotion": ""
      }
    ]
  },
  "11e53b3d-8bf3-40b1-8d81-1c310941b627": {
    "guid": "11e53b3d-8bf3-40b1-8d81-1c310941b627",
    "playRate": 1.0,
    "gameTrigger": "Dialog",
    "gameTriggerArgs": 191821227,
    "personalConfig": 2,
    "parentID": "c71e0c47-0bfe-4a48-89e2-30e5420c9bf9",
    "sourceNames": [
      {
        "sourceFileName": "VO_COOP\\VO_npc\\vo_LNTCOP001_1918212_merieux_08.wem",
        "rate": 1.0,
        "avatarName": "",
        "emotion": ""
      }
    ]
  },
  "12b9ca7a-1d77-4e1d-94e3-91b3d2996d76": {
    "guid": "12b9ca7a-1d77-4e1d-94e3-91b3d2996d76",
    "playRate": 1.0,
    "gameTrigger": "Dialog",
    "gameTriggerArgs": 191821276,
    "personalConfig": 2,
    "parentID": "c71e0c47-0bfe-4a48-89e2-30e5420c9bf9",
    "sourceNames": [
      {
        "sourceFileName": "VO_COOP\\VO_lynette\\vo_LNTCOP001_1918212_lynette_16.wem",
        "rate": 1.0,
        "avatarName": "",
        "emotion": ""
      }
    ]
  },
  "14116aae-23d5-4e8e-b424-cca0ddc18721": {
    "guid": "14116aae-23d5-4e8e-b424-cca0ddc18721",
    "playRate": 1.0,
    "gameTrigger": "Dialog",
    "gameTriggerArgs": 191821203,
    "personalConfig": 2,
    "parentID": "c71e0c47-0bfe-4a48-89e2-30e5420c9bf9",
    "sourceNames": [
      {
        "sourceFileName": "VO_COOP\\VO_npc\\vo_LNTCOP001_1918212_mimeaudiencea_01.wem",
        "rate": 1.0,
        "avatarName": "",
        "emotion": ""
      }
    ]
  },
  "179fa65a-812b-41b4-a12d-5f02bc8e4378": {
    "guid": "179fa65a-812b-41b4-a12d-5f02bc8e4378",
    "playRate": 1.0,
    "gameTrigger": "Dialog",
    "gameTriggerArgs": 191821274,
    "personalConfig": 2,
    "parentID": "c71e0c47-0bfe-4a48-89e2-30e5420c9bf9",
    "sourceNames": [
      {
        "sourceFileName": "VO_COOP\\VO_lynette\\vo_LNTCOP001_1918212_lynette_14.wem",
        "rate": 1.0,
        "avatarName": "",
        "emotion": ""
      }
    ]
  },
  "1d3af9eb-9886-4403-a79c-f8b7eb4f32b1": {
    "guid": "1d3af9eb-9886-4403-a79c-f8b7eb4f32b1",
    "playRate": 1.0,
    "gameTrigger": "Dialog",
    "gameTriggerArgs": 191821233,
    "personalConfig": 2,
    "parentID": "c71e0c47-0bfe-4a48-89e2-30e5420c9bf9",
    "sourceNames": [
      {
        "sourceFileName": "VO_COOP\\VO_npc\\vo_LNTCOP001_1918212_merieux_09.wem",
        "rate": 1.0,
        "avatarName": "",
        "emotion": ""
      }
    ]
  },
  "22b0ca1d-c847-4191-8d5b-56aaa8bdf9b9": {
    "guid": "22b0ca1d-c847-4191-8d5b-56aaa8bdf9b9",
    "playRate": 1.0,
    "gameTrigger": "Dialog",
    "gameTriggerArgs": 191821228,
    "personalConfig": 2,
    "parentID": "c71e0c47-0bfe-4a48-89e2-30e5420c9bf9",
    "sourceNames": [
      {
        "sourceFileName": "VO_COOP\\VO_npc\\vo_LNTCOP001_1918212_jacques_01.wem",
        "rate": 1.0,
        "avatarName": "",
        "emotion": ""
      }
    ]
  },
  "2492856f-aec9-4381-a5c2-e646be64350b": {
    "guid": "2492856f-aec9-4381-a5c2-e646be64350b",
    "playRate": 1.0,
    "gameTrigger": "Dialog",
    "gameTriggerArgs": 191821273,
    "personalConfig": 2,
    "parentID": "c71e0c47-0bfe-4a48-89e2-30e5420c9bf9",
    "sourceNames": [
      {
        "sourceFileName": "VO_COOP\\VO_npc\\vo_LNTCOP001_1918212_corentin_03.wem",
        "rate": 1.0,
        "avatarName": "",
        "emotion": ""
      }
    ]
  },
  "26ccfbf9-8b3e-4538-9c97-925a4b7722d1": {
    "guid": "26ccfbf9-8b3e-4538-9c97-925a4b7722d1",
    "playRate": 1.0,
    "gameTrigger": "Dialog",
    "gameTriggerArgs": 191821230,
    "personalConfig": 2,
    "parentID": "c71e0c47-0bfe-4a48-89e2-30e5420c9bf9",
    "sourceNames": [
      {
        "sourceFileName": "VO_COOP\\VO_npc\\vo_LNTCOP001_1918212_gillian_03.wem",
        "rate": 1.0,
        "avatarName": "",
        "emotion": ""
      }
    ]
  },
  "271268b3-27ad-47b0-900b-8ed4739997f3": {
    "guid": "271268b3-27ad-47b0-900b-8ed4739997f3",
    "playRate": 1.0,
    "gameTrigger": "Dialog",
    "gameTriggerArgs": 191821258,
    "personalConfig": 2,
    "parentID": "c71e0c47-0bfe-4a48-89e2-30e5420c9bf9",
    "sourceNames": [
      {
        "sourceFileName": "VO_COOP\\VO_npc\\vo_LNTCOP001_1918212_amaury_02.wem",
        "rate": 1.0,
        "avatarName": "",
        "emotion": ""
      }
    ]
  },
  "291a70b8-ff5e-455b-b93d-8294b6661c08": {
    "guid": "291a70b8-ff5e-455b-b93d-8294b6661c08",
    "playRate": 1.0,
    "gameTrigger": "Dialog",
    "gameTriggerArgs": 191821213,
    "personalConfig": 2,
    "parentID": "c71e0c47-0bfe-4a48-89e2-30e5420c9bf9",
    "sourceNames": [
      {
        "sourceFileName": "VO_COOP\\VO_npc\\vo_LNTCOP001_1918212_merieux_03.wem",
        "rate": 1.0,
        "avatarName": "",
        "emotion": ""
      }
    ]
  },
  "30727539-e9c0-4197-bd21-440091a523bc": {
    "guid": "30727539-e9c0-4197-bd21-440091a523bc",
    "playRate": 1.0,
    "gameTrigger": "Dialog",
    "gameTriggerArgs": 191821254,
    "personalConfig": 2,
    "parentID": "c71e0c47-0bfe-4a48-89e2-30e5420c9bf9",
    "sourceNames": [
      {
        "sourceFileName": "VO_COOP\\VO_npc\\vo_LNTCOP001_1918212_maloney_03.wem",
        "rate": 1.0,
        "avatarName": "",
        "emotion": ""
      }
    ]
  },
  "35a4c7fd-c344-4be9-a49d-cb56089032bc": {
    "guid": "35a4c7fd-c344-4be9-a49d-cb56089032bc",
    "playRate": 1.0,
    "gameTrigger": "Dialog",
    "gameTriggerArgs": 191821208,
    "personalConfig": 2,
    "parentID": "c71e0c47-0bfe-4a48-89e2-30e5420c9bf9",
    "sourceNames": [
      {
        "sourceFileName": "VO_COOP\\VO_lyney\\vo_LNTCOP001_1918212_lyney_01.wem",
        "rate": 1.0,
        "avatarName": "",
        "emotion": ""
      }
    ]
  },
  "38a27706-9e27-4d89-a708-9a4e2cac2f31": {
    "guid": "38a27706-9e27-4d89-a708-9a4e2cac2f31",
    "playRate": 1.0,
    "gameTrigger": "Dialog",
    "gameTriggerArgs": 191821263,
    "personalConfig": 2,
    "parentID": "c71e0c47-0bfe-4a48-89e2-30e5420c9bf9",
    "sourceNames": [
      {
        "sourceFileName": "VO_COOP\\VO_lyney\\vo_LNTCOP001_1918212_lyney_08.wem",
        "rate": 1.0,
        "avatarName": "",
        "emotion": ""
      }
    ]
  },
  "3ada25d5-84a5-4d56-b082-57e5ec761c98": {
    "guid": "3ada25d5-84a5-4d56-b082-57e5ec761c98",
    "playRate": 1.0,
    "gameTrigger": "Dialog",
    "gameTriggerArgs": 191821215,
    "personalConfig": 2,
    "parentID": "c71e0c47-0bfe-4a48-89e2-30e5420c9bf9",
    "sourceNames": [
      {
        "sourceFileName": "VO_COOP\\VO_npc\\vo_LNTCOP001_1918212_merieux_05.wem",
        "rate": 1.0,
        "avatarName": "",
        "emotion": ""
      }
    ]
  },
  "3e83b9df-018e-4ad3-8ee9-eee78cd672b7": {
    "guid": "3e83b9df-018e-4ad3-8ee9-eee78cd672b7",
    "playRate": 1.0,
    "gameTrigger": "Dialog",
    "gameTriggerArgs": 191821255,
    "personalConfig": 2,
    "parentID": "c71e0c47-0bfe-4a48-89e2-30e5420c9bf9",
    "sourceNames": [
      {
        "sourceFileName": "VO_COOP\\VO_lyney\\vo_LNTCOP001_1918212_lyney_06.wem",
        "rate": 1.0,
        "avatarName": "",
        "emotion": ""
      }
    ]
  },
  "40e9fd03-c0b0-4012-91b6-f29067670178": {
    "guid": "40e9fd03-c0b0-4012-91b6-f29067670178",
    "playRate": 1.0,
    "gameTrigger": "Dialog",
    "gameTriggerArgs": 191821248,
    "personalConfig": 2,
    "parentID": "c71e0c47-0bfe-4a48-89e2-30e5420c9bf9",
    "sourceNames": [
      {
        "sourceFileName": "VO_COOP\\VO_lynette\\vo_LNTCOP001_1918212_lynette_04.wem",
        "rate": 1.0,
        "avatarName": "",
        "emotion": ""
      }
    ]
  },
  "43f43a00-2456-4564-95c8-41579d1f1d82": {
    "guid": "43f43a00-2456-4564-95c8-41579d1f1d82",
    "playRate": 1.0,
    "gameTrigger": "Dialog",
    "gameTriggerArgs": 191825301,
    "personalConfig": 2,
    "parentID": "c71e0c47-0bfe-4a48-89e2-30e5420c9bf9",
    "sourceNames": [
      {
        "sourceFileName": "VO_COOP\\VO_npc\\vo_LNTCOP001_1918212_gillian_05.wem",
        "rate": 1.0,
        "avatarName": "",
        "emotion": ""
      }
    ]
  },
  "46002020-4bff-4fcd-9fa4-ddceac3abc4b": {
    "guid": "46002020-4bff-4fcd-9fa4-ddceac3abc4b",
    "playRate": 1.0,
    "gameTrigger": "Dialog",
    "gameTriggerArgs": 191821253,
    "personalConfig": 2,
    "parentID": "c71e0c47-0bfe-4a48-89e2-30e5420c9bf9",
    "sourceNames": [
      {
        "sourceFileName": "VO_COOP\\VO_lynette\\vo_LNTCOP001_1918212_lynette_08.wem",
        "rate": 1.0,
        "avatarName": "",
        "emotion": ""
      }
    ]
  },
  "4c387a17-3100-48a2-aa3c-c7edaca4192c": {
    "guid": "4c387a17-3100-48a2-aa3c-c7edaca4192c",
    "playRate": 1.0,
    "gameTrigger": "Dialog",
    "gameTriggerArgs": 191821223,
    "personalConfig": 2,
    "DDNLACJICEC": 1,
    "parentID": "c71e0c47-0bfe-4a48-89e2-30e5420c9bf9",
    "sourceNames": [
      {
        "sourceFileName": "VO_COOP\\VO_npc\\vo_LNTCOP001_1918212_gillian_01.wem",
        "rate": 1.0,
        "avatarName": "",
        "emotion": ""
      }
    ]
  },
  "581ba726-af07-4a8f-873b-b0ec18807cbd": {
    "guid": "581ba726-af07-4a8f-873b-b0ec18807cbd",
    "playRate": 1.0,
    "gameTrigger": "Dialog",
    "gameTriggerArgs": 191821249,
    "personalConfig": 2,
    "parentID": "c71e0c47-0bfe-4a48-89e2-30e5420c9bf9",
    "sourceNames": [
      {
        "sourceFileName": "VO_COOP\\VO_lynette\\vo_LNTCOP001_1918212_lynette_05.wem",
        "rate": 1.0,
        "avatarName": "",
        "emotion": ""
      }
    ]
  },
  "6076d001-dadc-46db-9737-6b4ccf19f54b": {
    "guid": "6076d001-dadc-46db-9737-6b4ccf19f54b",
    "playRate": 1.0,
    "gameTrigger": "Dialog",
    "gameTriggerArgs": 191825302,
    "personalConfig": 2,
    "parentID": "c71e0c47-0bfe-4a48-89e2-30e5420c9bf9",
    "sourceNames": [
      {
        "sourceFileName": "VO_COOP\\VO_npc\\vo_LNTCOP001_1918212_ginna_01.wem",
        "rate": 1.0,
        "avatarName": "",
        "emotion": ""
      }
    ]
  },
  "6755bd69-a9d1-43e7-b5c7-c9568af80131": {
    "guid": "6755bd69-a9d1-43e7-b5c7-c9568af80131",
    "playRate": 1.0,
    "gameTrigger": "Dialog",
    "gameTriggerArgs": 191821221,
    "personalConfig": 2,
    "parentID": "c71e0c47-0bfe-4a48-89e2-30e5420c9bf9",
    "sourceNames": [
      {
        "sourceFileName": "VO_COOP\\VO_npc\\vo_LNTCOP001_1918212_mimeaudiencea_03.wem",
        "rate": 1.0,
        "avatarName": "",
        "emotion": ""
      }
    ]
  },
  "73a9cce3-abda-492b-b2bf-52e54277aa75": {
    "guid": "73a9cce3-abda-492b-b2bf-52e54277aa75",
    "playRate": 1.0,
    "gameTrigger": "Dialog",
    "gameTriggerArgs": 191821256,
    "personalConfig": 2,
    "parentID": "c71e0c47-0bfe-4a48-89e2-30e5420c9bf9",
    "sourceNames": [
      {
        "sourceFileName": "VO_COOP\\VO_lynette\\vo_LNTCOP001_1918212_lynette_09.wem",
        "rate": 1.0,
        "avatarName": "",
        "emotion": ""
      }
    ]
  },
  "74c5375c-f746-4138-b463-103d1103d978": {
    "guid": "74c5375c-f746-4138-b463-103d1103d978",
    "playRate": 1.0,
    "gameTrigger": "Dialog",
    "gameTriggerArgs": 191821252,
    "personalConfig": 2,
    "parentID": "c71e0c47-0bfe-4a48-89e2-30e5420c9bf9",
    "sourceNames": [
      {
        "sourceFileName": "VO_COOP\\VO_lynette\\vo_LNTCOP001_1918212_lynette_07.wem",
        "rate": 1.0,
        "avatarName": "",
        "emotion": ""
      }
    ]
  },
  "74dce18d-39ae-43f3-ac85-b68ce1e277a0": {
    "guid": "74dce18d-39ae-43f3-ac85-b68ce1e277a0",
    "playRate": 1.0,
    "gameTrigger": "Dialog",
    "gameTriggerArgs": 191821259,
    "personalConfig": 2,
    "parentID": "c71e0c47-0bfe-4a48-89e2-30e5420c9bf9",
    "sourceNames": [
      {
        "sourceFileName": "VO_COOP\\VO_lynette\\vo_LNTCOP001_1918212_lynette_10.wem",
        "rate": 1.0,
        "avatarName": "",
        "emotion": ""
      }
    ]
  },
  "7a295add-2d9f-4762-93c8-24d7b1c7de56": {
    "guid": "7a295add-2d9f-4762-93c8-24d7b1c7de56",
    "playRate": 1.0,
    "gameTrigger": "Dialog",
    "gameTriggerArgs": 191821238,
    "personalConfig": 2,
    "parentID": "c71e0c47-0bfe-4a48-89e2-30e5420c9bf9",
    "sourceNames": [
      {
        "sourceFileName": "VO_COOP\\VO_npc\\vo_LNTCOP001_1918212_merieux_10.wem",
        "rate": 1.0,
        "avatarName": "",
        "emotion": ""
      }
    ]
  },
  "7bffc9ea-1e08-4f39-815f-a99277c64994": {
    "guid": "7bffc9ea-1e08-4f39-815f-a99277c64994",
    "playRate": 1.0,
    "gameTrigger": "Dialog",
    "gameTriggerArgs": 191821205,
    "personalConfig": 2,
    "parentID": "c71e0c47-0bfe-4a48-89e2-30e5420c9bf9",
    "sourceNames": [
      {
        "sourceFileName": "VO_COOP\\VO_npc\\vo_LNTCOP001_1918212_mimeaudiencea_02.wem",
        "rate": 1.0,
        "avatarName": "",
        "emotion": ""
      }
    ]
  },
  "7e650a2e-e145-4d85-8deb-8d427fd4901d": {
    "guid": "7e650a2e-e145-4d85-8deb-8d427fd4901d",
    "playRate": 1.0,
    "gameTrigger": "Dialog",
    "gameTriggerArgs": 191821241,
    "personalConfig": 2,
    "parentID": "c71e0c47-0bfe-4a48-89e2-30e5420c9bf9",
    "sourceNames": [
      {
        "sourceFileName": "VO_COOP\\VO_npc\\vo_LNTCOP001_1918212_merieux_12.wem",
        "rate": 1.0,
        "avatarName": "",
        "emotion": ""
      }
    ]
  },
  "830c6d8d-8ae7-48ba-82ce-0f2aa2b4efc6": {
    "guid": "830c6d8d-8ae7-48ba-82ce-0f2aa2b4efc6",
    "playRate": 1.0,
    "gameTrigger": "Dialog",
    "gameTriggerArgs": 191821235,
    "personalConfig": 2,
    "parentID": "c71e0c47-0bfe-4a48-89e2-30e5420c9bf9",
    "sourceNames": [
      {
        "sourceFileName": "VO_COOP\\VO_npc\\vo_LNTCOP001_1918212_amaury_01.wem",
        "rate": 1.0,
        "avatarName": "",
        "emotion": ""
      }
    ]
  },
  "856e23ef-3d1b-4d48-b879-520e65ee671c": {
    "guid": "856e23ef-3d1b-4d48-b879-520e65ee671c",
    "playRate": 1.0,
    "gameTrigger": "Dialog",
    "gameTriggerArgs": 191821279,
    "personalConfig": 2,
    "parentID": "c71e0c47-0bfe-4a48-89e2-30e5420c9bf9",
    "sourceNames": [
      {
        "sourceFileName": "VO_COOP\\VO_npc\\vo_LNTCOP001_1918212_corentin_04.wem",
        "rate": 1.0,
        "avatarName": "",
        "emotion": ""
      }
    ]
  },
  "8cf677cb-59f8-4aa7-a8d7-bb024cb3bbf6": {
    "guid": "8cf677cb-59f8-4aa7-a8d7-bb024cb3bbf6",
    "playRate": 1.0,
    "gameTrigger": "Dialog",
    "gameTriggerArgs": 191821245,
    "personalConfig": 2,
    "parentID": "c71e0c47-0bfe-4a48-89e2-30e5420c9bf9",
    "sourceNames": [
      {
        "sourceFileName": "VO_COOP\\VO_lyney\\vo_LNTCOP001_1918212_lyney_05.wem",
        "rate": 1.0,
        "avatarName": "",
        "emotion": ""
      }
    ]
  },
  "95a2ccbe-62aa-42cf-bd84-95869b760c1d": {
    "guid": "95a2ccbe-62aa-42cf-bd84-95869b760c1d",
    "playRate": 1.0,
    "gameTrigger": "Dialog",
    "gameTriggerArgs": 191821257,
    "personalConfig": 2,
    "parentID": "c71e0c47-0bfe-4a48-89e2-30e5420c9bf9",
    "sourceNames": [
      {
        "sourceFileName": "VO_COOP\\VO_lyney\\vo_LNTCOP001_1918212_lyney_07.wem",
        "rate": 1.0,
        "avatarName": "",
        "emotion": ""
      }
    ]
  },
  "9c702921-cd8e-45ab-aac0-640e73b5b249": {
    "guid": "9c702921-cd8e-45ab-aac0-640e73b5b249",
    "playRate": 1.0,
    "gameTrigger": "Dialog",
    "gameTriggerArgs": 191821240,
    "personalConfig": 2,
    "parentID": "c71e0c47-0bfe-4a48-89e2-30e5420c9bf9",
    "sourceNames": [
      {
        "sourceFileName": "VO_COOP\\VO_npc\\vo_LNTCOP001_1918212_maloney_01.wem",
        "rate": 1.0,
        "avatarName": "",
        "emotion": ""
      }
    ]
  },
  "9f19d668-f6d1-4a99-87e4-edd3c49b451e": {
    "guid": "9f19d668-f6d1-4a99-87e4-edd3c49b451e",
    "playRate": 1.0,
    "gameTrigger": "Dialog",
    "gameTriggerArgs": 191821229,
    "personalConfig": 2,
    "parentID": "c71e0c47-0bfe-4a48-89e2-30e5420c9bf9",
    "sourceNames": [
      {
        "sourceFileName": "VO_COOP\\VO_npc\\vo_LNTCOP001_1918212_cyril_01.wem",
        "rate": 1.0,
        "avatarName": "",
        "emotion": ""
      }
    ]
  },
  "aaab0116-933e-4e8d-84b3-1d482289ff5e": {
    "guid": "aaab0116-933e-4e8d-84b3-1d482289ff5e",
    "playRate": 1.0,
    "gameTrigger": "Dialog",
    "gameTriggerArgs": 191821224,
    "personalConfig": 2,
    "DDNLACJICEC": 1,
    "parentID": "c71e0c47-0bfe-4a48-89e2-30e5420c9bf9",
    "sourceNames": [
      {
        "sourceFileName": "VO_COOP\\VO_npc\\vo_LNTCOP001_1918212_gillian_02.wem",
        "rate": 1.0,
        "avatarName": "",
        "emotion": ""
      }
    ]
  },
  "adccf751-24c6-4df0-ae7c-603b22d9b45f": {
    "guid": "adccf751-24c6-4df0-ae7c-603b22d9b45f",
    "playRate": 1.0,
    "gameTrigger": "Dialog",
    "gameTriggerArgs": 191821262,
    "personalConfig": 2,
    "parentID": "c71e0c47-0bfe-4a48-89e2-30e5420c9bf9",
    "sourceNames": [
      {
        "sourceFileName": "VO_COOP\\VO_npc\\vo_LNTCOP001_1918212_merieux_13.wem",
        "rate": 1.0,
        "avatarName": "",
        "emotion": ""
      }
    ]
  },
  "af3ec9c1-5242-4995-8c91-4cede8506165": {
    "guid": "af3ec9c1-5242-4995-8c91-4cede8506165",
    "playRate": 1.0,
    "gameTrigger": "Dialog",
    "gameTriggerArgs": 191821225,
    "personalConfig": 2,
    "DDNLACJICEC": 1,
    "parentID": "c71e0c47-0bfe-4a48-89e2-30e5420c9bf9",
    "sourceNames": [
      {
        "sourceFileName": "VO_COOP\\VO_lynette\\vo_LNTCOP001_1918212_lynette_01.wem",
        "rate": 1.0,
        "avatarName": "",
        "emotion": ""
      }
    ]
  },
  "af4833d6-c80c-49c5-8263-8e7f0dc2e505": {
    "guid": "af4833d6-c80c-49c5-8263-8e7f0dc2e505",
    "playRate": 1.0,
    "gameTrigger": "Dialog",
    "gameTriggerArgs": 191821212,
    "personalConfig": 2,
    "parentID": "c71e0c47-0bfe-4a48-89e2-30e5420c9bf9",
    "sourceNames": [
      {
        "sourceFileName": "VO_COOP\\VO_npc\\vo_LNTCOP001_1918212_merieux_02.wem",
        "rate": 1.0,
        "avatarName": "",
        "emotion": ""
      }
    ]
  },
  "b051f943-2a72-40e5-b339-07578b790c84": {
    "guid": "b051f943-2a72-40e5-b339-07578b790c84",
    "playRate": 1.0,
    "gameTrigger": "Dialog",
    "gameTriggerArgs": 191821247,
    "personalConfig": 2,
    "parentID": "c71e0c47-0bfe-4a48-89e2-30e5420c9bf9",
    "sourceNames": [
      {
        "sourceFileName": "VO_COOP\\VO_lynette\\vo_LNTCOP001_1918212_lynette_03.wem",
        "rate": 1.0,
        "avatarName": "",
        "emotion": ""
      }
    ]
  },
  "b1d8ab76-59b5-4562-a217-34f9c8112569": {
    "guid": "b1d8ab76-59b5-4562-a217-34f9c8112569",
    "playRate": 1.0,
    "gameTrigger": "Dialog",
    "gameTriggerArgs": 191821207,
    "personalConfig": 2,
    "parentID": "c71e0c47-0bfe-4a48-89e2-30e5420c9bf9",
    "sourceNames": [
      {
        "sourceFileName": "VO_COOP\\VO_npc\\vo_LNTCOP001_1918212_merieux_01.wem",
        "rate": 1.0,
        "avatarName": "",
        "emotion": ""
      }
    ]
  },
  "b2d102a1-9394-47f6-9358-978111a18083": {
    "guid": "b2d102a1-9394-47f6-9358-978111a18083",
    "playRate": 1.0,
    "gameTrigger": "Dialog",
    "gameTriggerArgs": 191821209,
    "personalConfig": 2,
    "parentID": "c71e0c47-0bfe-4a48-89e2-30e5420c9bf9",
    "sourceNames": [
      {
        "sourceFileName": "VO_COOP\\VO_lyney\\vo_LNTCOP001_1918212_lyney_02.wem",
        "rate": 1.0,
        "avatarName": "",
        "emotion": ""
      }
    ]
  },
  "b622943d-9822-4722-a298-b8e1cca43c5f": {
    "guid": "b622943d-9822-4722-a298-b8e1cca43c5f",
    "playRate": 1.0,
    "gameTrigger": "Dialog",
    "gameTriggerArgs": 191821244,
    "personalConfig": 2,
    "parentID": "c71e0c47-0bfe-4a48-89e2-30e5420c9bf9",
    "sourceNames": [
      {
        "sourceFileName": "VO_COOP\\VO_lyney\\vo_LNTCOP001_1918212_lyney_04.wem",
        "rate": 1.0,
        "avatarName": "",
        "emotion": ""
      }
    ]
  },
  "b8089872-1454-42a1-ba6f-7606f51772d1": {
    "guid": "b8089872-1454-42a1-ba6f-7606f51772d1",
    "playRate": 1.0,
    "gameTrigger": "Dialog",
    "gameTriggerArgs": 191821237,
    "personalConfig": 2,
    "parentID": "c71e0c47-0bfe-4a48-89e2-30e5420c9bf9",
    "sourceNames": [
      {
        "sourceFileName": "VO_COOP\\VO_npc\\vo_LNTCOP001_1918212_jacques_02.wem",
        "rate": 1.0,
        "avatarName": "",
        "emotion": ""
      }
    ]
  },
  "ba755d77-5b8e-4ada-b72e-f7ff3bc5a020": {
    "guid": "ba755d77-5b8e-4ada-b72e-f7ff3bc5a020",
    "playRate": 1.0,
    "gameTrigger": "Dialog",
    "gameTriggerArgs": 191821250,
    "personalConfig": 2,
    "parentID": "c71e0c47-0bfe-4a48-89e2-30e5420c9bf9",
    "sourceNames": [
      {
        "sourceFileName": "VO_COOP\\VO_lynette\\vo_LNTCOP001_1918212_lynette_06.wem",
        "rate": 1.0,
        "avatarName": "",
        "emotion": ""
      }
    ]
  },
  "bb8f4d2f-e594-4b59-9759-1aa5cce7276f": {
    "guid": "bb8f4d2f-e594-4b59-9759-1aa5cce7276f",
    "playRate": 1.0,
    "gameTrigger": "Dialog",
    "gameTriggerArgs": 191825202,
    "personalConfig": 2,
    "parentID": "c71e0c47-0bfe-4a48-89e2-30e5420c9bf9",
    "sourceNames": [
      {
        "sourceFileName": "VO_COOP\\VO_npc\\vo_LNTCOP001_1918212_cyril_02.wem",
        "rate": 1.0,
        "avatarName": "",
        "emotion": ""
      }
    ]
  },
  "bc63ba59-2e41-49c3-a015-f3526f041585": {
    "guid": "bc63ba59-2e41-49c3-a015-f3526f041585",
    "playRate": 1.0,
    "gameTrigger": "Dialog",
    "gameTriggerArgs": 191825201,
    "personalConfig": 2,
    "parentID": "c71e0c47-0bfe-4a48-89e2-30e5420c9bf9",
    "sourceNames": [
      {
        "sourceFileName": "VO_COOP\\VO_npc\\vo_LNTCOP001_1918212_jacques_03.wem",
        "rate": 1.0,
        "avatarName": "",
        "emotion": ""
      }
    ]
  },
  "bc855c24-6aaa-4e37-beb6-0479f7f44be5": {
    "guid": "bc855c24-6aaa-4e37-beb6-0479f7f44be5",
    "playRate": 1.0,
    "gameTrigger": "Dialog",
    "gameTriggerArgs": 191821280,
    "personalConfig": 2,
    "parentID": "c71e0c47-0bfe-4a48-89e2-30e5420c9bf9",
    "sourceNames": [
      {
        "sourceFileName": "VO_COOP\\VO_lynette\\vo_LNTCOP001_1918212_lynette_17.wem",
        "rate": 1.0,
        "avatarName": "",
        "emotion": ""
      }
    ]
  },
  "c1af1f00-b6b7-4ddc-a95d-b1cd8cd8b835": {
    "guid": "c1af1f00-b6b7-4ddc-a95d-b1cd8cd8b835",
    "playRate": 1.0,
    "gameTrigger": "Dialog",
    "gameTriggerArgs": 191821204,
    "personalConfig": 2,
    "parentID": "c71e0c47-0bfe-4a48-89e2-30e5420c9bf9",
    "sourceNames": [
      {
        "sourceFileName": "VO_COOP\\VO_npc\\vo_LNTCOP001_1918212_mimeaudienceb_01.wem",
        "rate": 1.0,
        "avatarName": "",
        "emotion": ""
      }
    ]
  },
  "c1d4c77e-759a-4cd7-991e-9ecdd8f65d3a": {
    "guid": "c1d4c77e-759a-4cd7-991e-9ecdd8f65d3a",
    "playRate": 1.0,
    "gameTrigger": "Dialog",
    "gameTriggerArgs": 191821246,
    "personalConfig": 2,
    "parentID": "c71e0c47-0bfe-4a48-89e2-30e5420c9bf9",
    "sourceNames": [
      {
        "sourceFileName": "VO_COOP\\VO_npc\\vo_LNTCOP001_1918212_maloney_02.wem",
        "rate": 1.0,
        "avatarName": "",
        "emotion": ""
      }
    ]
  },
  "c2a65488-e389-4588-b843-cdfa92adee6d": {
    "guid": "c2a65488-e389-4588-b843-cdfa92adee6d",
    "playRate": 1.0,
    "gameTrigger": "Dialog",
    "gameTriggerArgs": 191821214,
    "personalConfig": 2,
    "parentID": "c71e0c47-0bfe-4a48-89e2-30e5420c9bf9",
    "sourceNames": [
      {
        "sourceFileName": "VO_COOP\\VO_npc\\vo_LNTCOP001_1918212_merieux_04.wem",
        "rate": 1.0,
        "avatarName": "",
        "emotion": ""
      }
    ]
  },
  "c606cb5e-5d69-4c89-9961-a39446e0715d": {
    "guid": "c606cb5e-5d69-4c89-9961-a39446e0715d",
    "playRate": 1.0,
    "gameTrigger": "Dialog",
    "gameTriggerArgs": 191821270,
    "personalConfig": 2,
    "parentID": "c71e0c47-0bfe-4a48-89e2-30e5420c9bf9",
    "sourceNames": [
      {
        "sourceFileName": "VO_COOP\\VO_lynette\\vo_LNTCOP001_1918212_lynette_13.wem",
        "rate": 1.0,
        "avatarName": "",
        "emotion": ""
      }
    ]
  },
  "c67b026f-f7d8-4fb8-8bee-c483c6aac7af": {
    "guid": "c67b026f-f7d8-4fb8-8bee-c483c6aac7af",
    "playRate": 1.0,
    "gameTrigger": "Dialog",
    "gameTriggerArgs": 191821265,
    "personalConfig": 2,
    "parentID": "c71e0c47-0bfe-4a48-89e2-30e5420c9bf9",
    "sourceNames": [
      {
        "sourceFileName": "VO_COOP\\VO_lyney\\vo_LNTCOP001_1918212_lyney_09.wem",
        "rate": 1.0,
        "avatarName": "",
        "emotion": ""
      }
    ]
  },
  "c9aa69da-fc09-4032-97d0-7f11da35e1d1": {
    "guid": "c9aa69da-fc09-4032-97d0-7f11da35e1d1",
    "playRate": 1.0,
    "gameTrigger": "Dialog",
    "gameTriggerArgs": 191821222,
    "personalConfig": 2,
    "parentID": "c71e0c47-0bfe-4a48-89e2-30e5420c9bf9",
    "sourceNames": [
      {
        "sourceFileName": "VO_COOP\\VO_npc\\vo_LNTCOP001_1918212_mimeaudiencec_02.wem",
        "rate": 1.0,
        "avatarName": "",
        "emotion": ""
      }
    ]
  },
  "d450684f-0ab5-48cd-b5fc-5695af2ea5c3": {
    "guid": "d450684f-0ab5-48cd-b5fc-5695af2ea5c3",
    "playRate": 1.0,
    "gameTrigger": "Dialog",
    "gameTriggerArgs": 191821218,
    "personalConfig": 2,
    "parentID": "c71e0c47-0bfe-4a48-89e2-30e5420c9bf9",
    "sourceNames": [
      {
        "sourceFileName": "VO_COOP\\VO_lyney\\vo_LNTCOP001_1918212_lyney_03.wem",
        "rate": 1.0,
        "avatarName": "",
        "emotion": ""
      }
    ]
  },
  "dd549718-ec0c-4100-8a83-2135484951f1": {
    "guid": "dd549718-ec0c-4100-8a83-2135484951f1",
    "playRate": 1.0,
    "gameTrigger": "Dialog",
    "gameTriggerArgs": 191821239,
    "personalConfig": 2,
    "parentID": "c71e0c47-0bfe-4a48-89e2-30e5420c9bf9",
    "sourceNames": [
      {
        "sourceFileName": "VO_COOP\\VO_npc\\vo_LNTCOP001_1918212_merieux_11.wem",
        "rate": 1.0,
        "avatarName": "",
        "emotion": ""
      }
    ]
  },
  "dedf11a1-6c85-4d4a-8307-b0b0a9dfe6f4": {
    "guid": "dedf11a1-6c85-4d4a-8307-b0b0a9dfe6f4",
    "playRate": 1.0,
    "gameTrigger": "Dialog",
    "gameTriggerArgs": 191821264,
    "personalConfig": 2,
    "parentID": "c71e0c47-0bfe-4a48-89e2-30e5420c9bf9",
    "sourceNames": [
      {
        "sourceFileName": "VO_COOP\\VO_lynette\\vo_LNTCOP001_1918212_lynette_11.wem",
        "rate": 1.0,
        "avatarName": "",
        "emotion": ""
      }
    ]
  },
  "dfc0a7f2-0511-47d4-bbde-c2626159a103": {
    "guid": "dfc0a7f2-0511-47d4-bbde-c2626159a103",
    "playRate": 1.0,
    "gameTrigger": "Dialog",
    "gameTriggerArgs": 191821234,
    "personalConfig": 2,
    "parentID": "c71e0c47-0bfe-4a48-89e2-30e5420c9bf9",
    "sourceNames": [
      {
        "sourceFileName": "VO_COOP\\VO_npc\\vo_LNTCOP001_1918212_corentin_01.wem",
        "rate": 1.0,
        "avatarName": "",
        "emotion": ""
      }
    ]
  },
  "e147cf0a-3286-4197-90c3-e288c47705c5": {
    "guid": "e147cf0a-3286-4197-90c3-e288c47705c5",
    "playRate": 1.0,
    "gameTrigger": "Dialog",
    "gameTriggerArgs": 191821275,
    "personalConfig": 2,
    "parentID": "c71e0c47-0bfe-4a48-89e2-30e5420c9bf9",
    "sourceNames": [
      {
        "sourceFileName": "VO_COOP\\VO_lynette\\vo_LNTCOP001_1918212_lynette_15.wem",
        "rate": 1.0,
        "avatarName": "",
        "emotion": ""
      }
    ]
  },
  "e26507dd-d2b8-4e49-9e64-2631663795df": {
    "guid": "e26507dd-d2b8-4e49-9e64-2631663795df",
    "playRate": 1.0,
    "gameTrigger": "Dialog",
    "gameTriggerArgs": 191821266,
    "personalConfig": 2,
    "parentID": "c71e0c47-0bfe-4a48-89e2-30e5420c9bf9",
    "sourceNames": [
      {
        "sourceFileName": "VO_COOP\\VO_npc\\vo_LNTCOP001_1918212_maloney_04.wem",
        "rate": 1.0,
        "avatarName": "",
        "emotion": ""
      }
    ]
  },
  "e597452d-a236-40de-af6d-593c291c6836": {
    "guid": "e597452d-a236-40de-af6d-593c291c6836",
    "playRate": 1.0,
    "gameTrigger": "Dialog",
    "gameTriggerArgs": 191821216,
    "personalConfig": 2,
    "parentID": "c71e0c47-0bfe-4a48-89e2-30e5420c9bf9",
    "sourceNames": [
      {
        "sourceFileName": "VO_COOP\\VO_npc\\vo_LNTCOP001_1918212_merieux_06.wem",
        "rate": 1.0,
        "avatarName": "",
        "emotion": ""
      }
    ]
  },
  "e5d6b5e1-50ec-4706-9c6f-5215f8f70610": {
    "guid": "e5d6b5e1-50ec-4706-9c6f-5215f8f70610",
    "playRate": 1.0,
    "gameTrigger": "Dialog",
    "gameTriggerArgs": 191821251,
    "personalConfig": 2,
    "parentID": "c71e0c47-0bfe-4a48-89e2-30e5420c9bf9",
    "sourceNames": [
      {
        "sourceFileName": "VO_COOP\\VO_npc\\vo_LNTCOP001_1918212_corentin_02.wem",
        "rate": 1.0,
        "avatarName": "",
        "emotion": ""
      }
    ]
  },
  "e63bcfdb-215b-46dd-a9de-437ab4426b14": {
    "guid": "e63bcfdb-215b-46dd-a9de-437ab4426b14",
    "playRate": 1.0,
    "gameTrigger": "Dialog",
    "gameTriggerArgs": 191821206,
    "personalConfig": 2,
    "parentID": "c71e0c47-0bfe-4a48-89e2-30e5420c9bf9",
    "sourceNames": [
      {
        "sourceFileName": "VO_COOP\\VO_npc\\vo_LNTCOP001_1918212_mimeaudiencec_01.wem",
        "rate": 1.0,
        "avatarName": "",
        "emotion": ""
      }
    ]
  },
  "e8363aed-09a8-4cf6-a79a-b37a6d3f5a18": {
    "guid": "e8363aed-09a8-4cf6-a79a-b37a6d3f5a18",
    "playRate": 1.0,
    "gameTrigger": "Dialog",
    "gameTriggerArgs": 191821236,
    "personalConfig": 2,
    "parentID": "c71e0c47-0bfe-4a48-89e2-30e5420c9bf9",
    "sourceNames": [
      {
        "sourceFileName": "VO_COOP\\VO_npc\\vo_LNTCOP001_1918212_gillian_04.wem",
        "rate": 1.0,
        "avatarName": "",
        "emotion": ""
      }
    ]
  },
  "f30723c3-a192-4bf5-a36c-b6607c83d5cf": {
    "guid": "f30723c3-a192-4bf5-a36c-b6607c83d5cf",
    "playRate": 1.0,
    "gameTrigger": "Dialog",
    "gameTriggerArgs": 191821231,
    "personalConfig": 2,
    "parentID": "c71e0c47-0bfe-4a48-89e2-30e5420c9bf9",
    "sourceNames": [
      {
        "sourceFileName": "VO_COOP\\VO_lynette\\vo_LNTCOP001_1918212_lynette_02.wem",
        "rate": 1.0,
        "avatarName": "",
        "emotion": ""
      }
    ]
  }
}