{
  "3cf3a08e-e3b1-4b1a-926a-1f79556bd34f": {
    "guid": "3cf3a08e-e3b1-4b1a-926a-1f79556bd34f",
    "playRate": 1.0,
    "gameTrigger": "Dialog",
    "gameTriggerArgs": 693510303,
    "parentID": "58dbc145-d3c8-42ff-82d5-aa20f698a431",
    "sourceNames": [
      {
        "sourceFileName": "VO_Tower\\vo_tighnari_saferoom_others_03.wem",
        "rate": 1.0,
        "avatarName": "",
        "emotion": ""
      }
    ]
  },
  "43734073-94d4-443f-a138-1d9cf002af30": {
    "guid": "43734073-94d4-443f-a138-1d9cf002af30",
    "playRate": 1.0,
    "gameTrigger": "Dialog",
    "gameTriggerArgs": 693510102,
    "parentID": "58dbc145-d3c8-42ff-82d5-aa20f698a431",
    "sourceNames": [
      {
        "sourceFileName": "VO_Tower\\vo_tighnari_saferoom_rest_02.wem",
        "rate": 1.0,
        "avatarName": "",
        "emotion": ""
      }
    ]
  },
  "7878044e-5496-4211-8a1a-942c857d4db3": {
    "guid": "7878044e-5496-4211-8a1a-942c857d4db3",
    "playRate": 1.0,
    "gameTrigger": "Dialog",
    "gameTriggerArgs": 693510302,
    "parentID": "58dbc145-d3c8-42ff-82d5-aa20f698a431",
    "sourceNames": [
      {
        "sourceFileName": "VO_Tower\\vo_tighnari_saferoom_others_02.wem",
        "rate": 1.0,
        "avatarName": "",
        "emotion": ""
      }
    ]
  },
  "7f20aa58-6e8d-46cd-bc4d-c23f4531b33b": {
    "guid": "7f20aa58-6e8d-46cd-bc4d-c23f4531b33b",
    "playRate": 1.0,
    "gameTrigger": "Dialog",
    "gameTriggerArgs": 693510101,
    "parentID": "58dbc145-d3c8-42ff-82d5-aa20f698a431",
    "sourceNames": [
      {
        "sourceFileName": "VO_Tower\\vo_tighnari_saferoom_rest_01.wem",
        "rate": 1.0,
        "avatarName": "",
        "emotion": ""
      }
    ]
  },
  "ee3e283b-a15c-4812-adf7-814f4e475424": {
    "guid": "ee3e283b-a15c-4812-adf7-814f4e475424",
    "playRate": 1.0,
    "gameTrigger": "Dialog",
    "gameTriggerArgs": 693510203,
    "parentID": "58dbc145-d3c8-42ff-82d5-aa20f698a431",
    "sourceNames": [
      {
        "sourceFileName": "VO_Tower\\vo_tighnari_saferoom_challenge_03.wem",
        "rate": 1.0,
        "avatarName": "",
        "emotion": ""
      }
    ]
  },
  "eea0fc06-fede-4c02-8e04-8676ae5e5b57": {
    "guid": "eea0fc06-fede-4c02-8e04-8676ae5e5b57",
    "playRate": 1.0,
    "gameTrigger": "Dialog",
    "gameTriggerArgs": 693510202,
    "parentID": "58dbc145-d3c8-42ff-82d5-aa20f698a431",
    "sourceNames": [
      {
        "sourceFileName": "VO_Tower\\vo_tighnari_saferoom_challenge_02.wem",
        "rate": 1.0,
        "avatarName": "",
        "emotion": ""
      }
    ]
  },
  "ef1fb238-c75f-48be-96a5-987d5271b974": {
    "guid": "ef1fb238-c75f-48be-96a5-987d5271b974",
    "playRate": 1.0,
    "gameTrigger": "Dialog",
    "gameTriggerArgs": 693510301,
    "parentID": "58dbc145-d3c8-42ff-82d5-aa20f698a431",
    "sourceNames": [
      {
        "sourceFileName": "VO_Tower\\vo_tighnari_saferoom_others_01.wem",
        "rate": 1.0,
        "avatarName": "",
        "emotion": ""
      }
    ]
  },
  "f2c42e50-3699-4c05-a88e-325356a7f070": {
    "guid": "f2c42e50-3699-4c05-a88e-325356a7f070",
    "playRate": 1.0,
    "gameTrigger": "Dialog",
    "gameTriggerArgs": 693510201,
    "parentID": "58dbc145-d3c8-42ff-82d5-aa20f698a431",
    "sourceNames": [
      {
        "sourceFileName": "VO_Tower\\vo_tighnari_saferoom_challenge_01.wem",
        "rate": 1.0,
        "avatarName": "",
        "emotion": ""
      }
    ]
  },
  "fd2400a0-48a7-4fd6-aa2d-0d241821556d": {
    "guid": "fd2400a0-48a7-4fd6-aa2d-0d241821556d",
    "playRate": 1.0,
    "gameTrigger": "Dialog",
    "gameTriggerArgs": 693510103,
    "parentID": "58dbc145-d3c8-42ff-82d5-aa20f698a431",
    "sourceNames": [
      {
        "sourceFileName": "VO_Tower\\vo_tighnari_saferoom_rest_03.wem",
        "rate": 1.0,
        "avatarName": "",
        "emotion": ""
      }
    ]
  }
}