{
  "00db2977-c7aa-4237-8991-53064370fc1d": {
    "guid": "00db2977-c7aa-4237-8991-53064370fc1d",
    "playRate": 1.0,
    "gameTrigger": "Dialog",
    "gameTriggerArgs": 130144703,
    "personalConfig": 2,
    "parentID": "8af7bafb-9e74-47ae-ab40-7de9ea063a59",
    "sourceNames": [
      {
        "sourceFileName": "VO_LQ\\VO_npc\\vo_NHDLQ002_21_thana_02.wem",
        "rate": 1.0,
        "avatarName": "",
        "emotion": ""
      }
    ]
  },
  "094ac9fd-cd57-485b-8b9d-ebba6ae28697": {
    "guid": "094ac9fd-cd57-485b-8b9d-ebba6ae28697",
    "playRate": 1.0,
    "gameTrigger": "Dialog",
    "gameTriggerArgs": 130144401,
    "personalConfig": 2,
    "parentID": "8af7bafb-9e74-47ae-ab40-7de9ea063a59",
    "sourceNames": [
      {
        "sourceFileName": "VO_LQ\\VO_npc\\vo_NHDLQ002_21_kian_01.wem",
        "rate": 1.0,
        "avatarName": "",
        "emotion": ""
      }
    ]
  },
  "1c015f6d-23d6-443c-815b-b298119d5c54": {
    "guid": "1c015f6d-23d6-443c-815b-b298119d5c54",
    "playRate": 1.0,
    "gameTrigger": "Dialog",
    "gameTriggerArgs": 130144403,
    "personalConfig": 2,
    "parentID": "8af7bafb-9e74-47ae-ab40-7de9ea063a59",
    "sourceNames": [
      {
        "sourceFileName": "VO_LQ\\VO_npc\\vo_NHDLQ002_21_kian_02.wem",
        "rate": 1.0,
        "avatarName": "",
        "emotion": ""
      }
    ]
  },
  "22698744-0e7f-41b4-a5a8-eda4c289f02c": {
    "guid": "22698744-0e7f-41b4-a5a8-eda4c289f02c",
    "playRate": 1.0,
    "gameTrigger": "Dialog",
    "gameTriggerArgs": 130144801,
    "personalConfig": 2,
    "parentID": "8af7bafb-9e74-47ae-ab40-7de9ea063a59",
    "sourceNames": [
      {
        "sourceFileName": "VO_LQ\\VO_npc\\vo_NHDLQ002_21_emir_01.wem",
        "rate": 1.0,
        "avatarName": "",
        "emotion": ""
      }
    ]
  },
  "2549cb12-9ae4-43f5-b5af-72df0afa40f7": {
    "guid": "2549cb12-9ae4-43f5-b5af-72df0afa40f7",
    "playRate": 1.0,
    "gameTrigger": "Dialog",
    "gameTriggerArgs": 130144603,
    "personalConfig": 2,
    "parentID": "8af7bafb-9e74-47ae-ab40-7de9ea063a59",
    "sourceNames": [
      {
        "sourceFileName": "VO_LQ\\VO_npc\\vo_NHDLQ002_21_ilman_01.wem",
        "rate": 1.0,
        "avatarName": "",
        "emotion": ""
      }
    ]
  },
  "401f772d-2106-4f2d-9eca-8c7bcf9c5169": {
    "guid": "401f772d-2106-4f2d-9eca-8c7bcf9c5169",
    "playRate": 1.0,
    "gameTrigger": "Dialog",
    "gameTriggerArgs": 130149928,
    "personalConfig": 2,
    "DDNLACJICEC": 1,
    "isPlayOnTeam": true,
    "parentID": "8af7bafb-9e74-47ae-ab40-7de9ea063a59",
    "sourceNames": [
      {
        "sourceFileName": "VO_LQ\\VO_npc\\vo_NHDLQ002_21_ilman_03.wem",
        "rate": 1.0,
        "avatarName": "",
        "emotion": ""
      }
    ]
  },
  "41b5e1ea-2f31-482b-88a6-60286d961d37": {
    "guid": "41b5e1ea-2f31-482b-88a6-60286d961d37",
    "playRate": 1.0,
    "gameTrigger": "Dialog",
    "gameTriggerArgs": 130149926,
    "personalConfig": 2,
    "DDNLACJICEC": 1,
    "isPlayOnTeam": true,
    "parentID": "8af7bafb-9e74-47ae-ab40-7de9ea063a59",
    "sourceNames": [
      {
        "sourceFileName": "VO_LQ\\VO_npc\\vo_NHDLQ002_21_inas_03.wem",
        "rate": 1.0,
        "avatarName": "",
        "emotion": ""
      }
    ]
  },
  "427732ee-dcfb-454b-a989-467285b9ba63": {
    "guid": "427732ee-dcfb-454b-a989-467285b9ba63",
    "playRate": 1.0,
    "gameTrigger": "Dialog",
    "gameTriggerArgs": 130149929,
    "personalConfig": 2,
    "isPlayOnTeam": true,
    "parentID": "8af7bafb-9e74-47ae-ab40-7de9ea063a59",
    "sourceNames": [
      {
        "sourceFileName": "VO_LQ\\VO_nahida\\vo_NHDLQ002_21_nahida_04.wem",
        "rate": 1.0,
        "avatarName": "",
        "emotion": ""
      }
    ]
  },
  "49f6dbf4-917b-4540-997b-a909a236b9b3": {
    "guid": "49f6dbf4-917b-4540-997b-a909a236b9b3",
    "playRate": 1.0,
    "gameTrigger": "Dialog",
    "gameTriggerArgs": 130144602,
    "personalConfig": 2,
    "parentID": "8af7bafb-9e74-47ae-ab40-7de9ea063a59",
    "sourceNames": [
      {
        "sourceFileName": "VO_LQ\\VO_npc\\vo_NHDLQ002_21_maynar_01.wem",
        "rate": 1.0,
        "avatarName": "",
        "emotion": ""
      }
    ]
  },
  "4f2f4037-f065-4994-8e21-30665bfa726c": {
    "guid": "4f2f4037-f065-4994-8e21-30665bfa726c",
    "playRate": 1.0,
    "gameTrigger": "Dialog",
    "gameTriggerArgs": 130144604,
    "personalConfig": 2,
    "parentID": "8af7bafb-9e74-47ae-ab40-7de9ea063a59",
    "sourceNames": [
      {
        "sourceFileName": "VO_LQ\\VO_paimon\\vo_NHDLQ002_21_paimon_01.wem",
        "rate": 1.0,
        "avatarName": "",
        "emotion": ""
      }
    ]
  },
  "5037ba64-c373-4a44-a546-97ab21235509": {
    "guid": "5037ba64-c373-4a44-a546-97ab21235509",
    "playRate": 1.0,
    "gameTrigger": "Dialog",
    "gameTriggerArgs": 130149927,
    "personalConfig": 2,
    "isPlayOnTeam": true,
    "parentID": "8af7bafb-9e74-47ae-ab40-7de9ea063a59",
    "sourceNames": [
      {
        "sourceFileName": "VO_LQ\\VO_nahida\\vo_NHDLQ002_21_nahida_02.wem",
        "rate": 1.0,
        "avatarName": "",
        "emotion": ""
      }
    ]
  },
  "50407c09-04ef-4d6c-8ded-ab10fabf3e36": {
    "guid": "50407c09-04ef-4d6c-8ded-ab10fabf3e36",
    "playRate": 1.0,
    "gameTrigger": "Dialog",
    "gameTriggerArgs": 130144702,
    "personalConfig": 2,
    "parentID": "8af7bafb-9e74-47ae-ab40-7de9ea063a59",
    "sourceNames": [
      {
        "sourceFileName": "VO_LQ\\VO_npc\\vo_NHDLQ002_21_rakesh_01.wem",
        "rate": 1.0,
        "avatarName": "",
        "emotion": ""
      }
    ]
  },
  "553672f5-6f80-4830-94ad-1b55d86b1b2d": {
    "guid": "553672f5-6f80-4830-94ad-1b55d86b1b2d",
    "playRate": 1.0,
    "gameTrigger": "Dialog",
    "gameTriggerArgs": 130149924,
    "personalConfig": 2,
    "DDNLACJICEC": 1,
    "isPlayOnTeam": true,
    "parentID": "8af7bafb-9e74-47ae-ab40-7de9ea063a59",
    "sourceNames": [
      {
        "sourceFileName": "VO_LQ\\VO_npc\\vo_NHDLQ002_21_kian_03.wem",
        "rate": 1.0,
        "avatarName": "",
        "emotion": ""
      }
    ]
  },
  "5c176c85-a188-4676-b444-9c115668d405": {
    "guid": "5c176c85-a188-4676-b444-9c115668d405",
    "playRate": 1.0,
    "gameTrigger": "Dialog",
    "gameTriggerArgs": 130144501,
    "personalConfig": 2,
    "parentID": "8af7bafb-9e74-47ae-ab40-7de9ea063a59",
    "sourceNames": [
      {
        "sourceFileName": "VO_LQ\\VO_npc\\vo_NHDLQ002_21_inas_01.wem",
        "rate": 1.0,
        "avatarName": "",
        "emotion": ""
      }
    ]
  },
  "819d8253-8e69-4f4c-9620-d3344d8e9e7d": {
    "guid": "819d8253-8e69-4f4c-9620-d3344d8e9e7d",
    "playRate": 1.0,
    "gameTrigger": "Dialog",
    "gameTriggerArgs": 130144606,
    "personalConfig": 2,
    "parentID": "8af7bafb-9e74-47ae-ab40-7de9ea063a59",
    "sourceNames": [
      {
        "sourceFileName": "VO_LQ\\VO_nahida\\vo_NHDLQ002_21_nahida_03.wem",
        "rate": 1.0,
        "avatarName": "",
        "emotion": ""
      }
    ]
  },
  "898afc32-ba8a-4a81-9643-7134bb2171d4": {
    "guid": "898afc32-ba8a-4a81-9643-7134bb2171d4",
    "playRate": 1.0,
    "gameTrigger": "Dialog",
    "gameTriggerArgs": 130149931,
    "personalConfig": 2,
    "DDNLACJICEC": 1,
    "isPlayOnTeam": true,
    "parentID": "8af7bafb-9e74-47ae-ab40-7de9ea063a59",
    "sourceNames": [
      {
        "sourceFileName": "VO_LQ\\VO_npc\\vo_NHDLQ002_21_thana_03.wem",
        "rate": 1.0,
        "avatarName": "",
        "emotion": ""
      }
    ]
  },
  "959ac3a3-436d-47a0-a69c-267d5ece1a85": {
    "guid": "959ac3a3-436d-47a0-a69c-267d5ece1a85",
    "playRate": 1.0,
    "gameTrigger": "Dialog",
    "gameTriggerArgs": 130149932,
    "personalConfig": 2,
    "isPlayOnTeam": true,
    "parentID": "8af7bafb-9e74-47ae-ab40-7de9ea063a59",
    "sourceNames": [
      {
        "sourceFileName": "VO_LQ\\VO_nahida\\vo_NHDLQ002_21_nahida_06.wem",
        "rate": 1.0,
        "avatarName": "",
        "emotion": ""
      }
    ]
  },
  "9faec9e0-d949-4092-836c-8170a04d54de": {
    "guid": "9faec9e0-d949-4092-836c-8170a04d54de",
    "playRate": 1.0,
    "gameTrigger": "Dialog",
    "gameTriggerArgs": 130144402,
    "personalConfig": 2,
    "parentID": "8af7bafb-9e74-47ae-ab40-7de9ea063a59",
    "sourceNames": [
      {
        "sourceFileName": "VO_LQ\\VO_npc\\vo_NHDLQ002_21_anisah_01.wem",
        "rate": 1.0,
        "avatarName": "",
        "emotion": ""
      }
    ]
  },
  "a1d3a580-53b5-438b-a5ca-0b70ed206edb": {
    "guid": "a1d3a580-53b5-438b-a5ca-0b70ed206edb",
    "playRate": 1.0,
    "gameTrigger": "Dialog",
    "gameTriggerArgs": 130144601,
    "personalConfig": 2,
    "parentID": "8af7bafb-9e74-47ae-ab40-7de9ea063a59",
    "sourceNames": [
      {
        "sourceFileName": "VO_LQ\\VO_npc\\vo_NHDLQ002_21_haydar_01.wem",
        "rate": 1.0,
        "avatarName": "",
        "emotion": ""
      }
    ]
  },
  "a52d47dc-5857-4619-81ee-fa97fa9a10b4": {
    "guid": "a52d47dc-5857-4619-81ee-fa97fa9a10b4",
    "playRate": 1.0,
    "gameTrigger": "Dialog",
    "gameTriggerArgs": 130144701,
    "personalConfig": 2,
    "parentID": "8af7bafb-9e74-47ae-ab40-7de9ea063a59",
    "sourceNames": [
      {
        "sourceFileName": "VO_LQ\\VO_npc\\vo_NHDLQ002_21_thana_01.wem",
        "rate": 1.0,
        "avatarName": "",
        "emotion": ""
      }
    ]
  },
  "b05a22d6-3edf-430f-9ca0-4fec7c2b2a93": {
    "guid": "b05a22d6-3edf-430f-9ca0-4fec7c2b2a93",
    "playRate": 1.0,
    "gameTrigger": "Dialog",
    "gameTriggerArgs": 130149925,
    "personalConfig": 2,
    "isPlayOnTeam": true,
    "parentID": "8af7bafb-9e74-47ae-ab40-7de9ea063a59",
    "sourceNames": [
      {
        "sourceFileName": "VO_LQ\\VO_nahida\\vo_NHDLQ002_21_nahida_01.wem",
        "rate": 1.0,
        "avatarName": "",
        "emotion": ""
      }
    ]
  },
  "b30e661a-206d-4b98-a9b4-5f01f79efe5e": {
    "guid": "b30e661a-206d-4b98-a9b4-5f01f79efe5e",
    "playRate": 1.0,
    "gameTrigger": "Dialog",
    "gameTriggerArgs": 130144502,
    "personalConfig": 2,
    "parentID": "8af7bafb-9e74-47ae-ab40-7de9ea063a59",
    "sourceNames": [
      {
        "sourceFileName": "VO_LQ\\VO_npc\\vo_NHDLQ002_21_shadiyah_01.wem",
        "rate": 1.0,
        "avatarName": "",
        "emotion": ""
      }
    ]
  },
  "c8a12a26-da91-45fe-b090-1829abbfffca": {
    "guid": "c8a12a26-da91-45fe-b090-1829abbfffca",
    "playRate": 1.0,
    "gameTrigger": "Dialog",
    "gameTriggerArgs": 130149930,
    "personalConfig": 2,
    "isPlayOnTeam": true,
    "parentID": "8af7bafb-9e74-47ae-ab40-7de9ea063a59",
    "sourceNames": [
      {
        "sourceFileName": "VO_LQ\\VO_nahida\\vo_NHDLQ002_21_nahida_05.wem",
        "rate": 1.0,
        "avatarName": "",
        "emotion": ""
      }
    ]
  },
  "d70afed8-616a-4921-9346-03d7e025a929": {
    "guid": "d70afed8-616a-4921-9346-03d7e025a929",
    "playRate": 1.0,
    "gameTrigger": "Dialog",
    "gameTriggerArgs": 130144503,
    "personalConfig": 2,
    "parentID": "8af7bafb-9e74-47ae-ab40-7de9ea063a59",
    "sourceNames": [
      {
        "sourceFileName": "VO_LQ\\VO_npc\\vo_NHDLQ002_21_inas_02.wem",
        "rate": 1.0,
        "avatarName": "",
        "emotion": ""
      }
    ]
  },
  "e09786f7-40b5-42fe-9f04-815dc30a0fb5": {
    "guid": "e09786f7-40b5-42fe-9f04-815dc30a0fb5",
    "playRate": 1.0,
    "gameTrigger": "Dialog",
    "gameTriggerArgs": 130144802,
    "personalConfig": 2,
    "parentID": "8af7bafb-9e74-47ae-ab40-7de9ea063a59",
    "sourceNames": [
      {
        "sourceFileName": "VO_LQ\\VO_npc\\vo_NHDLQ002_21_moseis_01.wem",
        "rate": 1.0,
        "avatarName": "",
        "emotion": ""
      }
    ]
  },
  "fea0e956-2162-4467-9cc5-5b070741da84": {
    "guid": "fea0e956-2162-4467-9cc5-5b070741da84",
    "playRate": 1.0,
    "gameTrigger": "Dialog",
    "gameTriggerArgs": 130144605,
    "personalConfig": 2,
    "parentID": "8af7bafb-9e74-47ae-ab40-7de9ea063a59",
    "sourceNames": [
      {
        "sourceFileName": "VO_LQ\\VO_npc\\vo_NHDLQ002_21_ilman_02.wem",
        "rate": 1.0,
        "avatarName": "",
        "emotion": ""
      }
    ]
  }
}