{
  "04cfd10f-db67-4a69-be64-f6fb5f33cd35": {
    "guid": "04cfd10f-db67-4a69-be64-f6fb5f33cd35",
    "playRate": 1.0,
    "gameTrigger": "Dialog",
    "gameTriggerArgs": 693070302,
    "parentID": "ad3a5dc4-d3cc-4ce8-a2c3-304dda05ccbf",
    "sourceNames": [
      {
        "sourceFileName": "VO_Tower\\vo_beidou_saferoom_others_02.wem",
        "rate": 1.0,
        "avatarName": "",
        "emotion": ""
      }
    ]
  },
  "1942c75a-145d-4a43-8abd-9215cc30f349": {
    "guid": "1942c75a-145d-4a43-8abd-9215cc30f349",
    "playRate": 1.0,
    "gameTrigger": "Dialog",
    "gameTriggerArgs": 693070202,
    "parentID": "ad3a5dc4-d3cc-4ce8-a2c3-304dda05ccbf",
    "sourceNames": [
      {
        "sourceFileName": "VO_Tower\\vo_beidou_saferoom_challenge_02.wem",
        "rate": 1.0,
        "avatarName": "",
        "emotion": ""
      }
    ]
  },
  "512a0138-99b4-420d-a0eb-5d2803ac23ca": {
    "guid": "512a0138-99b4-420d-a0eb-5d2803ac23ca",
    "playRate": 1.0,
    "gameTrigger": "Dialog",
    "gameTriggerArgs": 693070203,
    "parentID": "ad3a5dc4-d3cc-4ce8-a2c3-304dda05ccbf",
    "sourceNames": [
      {
        "sourceFileName": "VO_Tower\\vo_beidou_saferoom_challenge_03.wem",
        "rate": 1.0,
        "avatarName": "",
        "emotion": ""
      }
    ]
  },
  "7d9a0190-72aa-4247-b4ab-95b94ad5239a": {
    "guid": "7d9a0190-72aa-4247-b4ab-95b94ad5239a",
    "playRate": 1.0,
    "gameTrigger": "Dialog",
    "gameTriggerArgs": 693070201,
    "parentID": "ad3a5dc4-d3cc-4ce8-a2c3-304dda05ccbf",
    "sourceNames": [
      {
        "sourceFileName": "VO_Tower\\vo_beidou_saferoom_challenge_01.wem",
        "rate": 1.0,
        "avatarName": "",
        "emotion": ""
      }
    ]
  },
  "910ec2a4-179d-47d9-9f87-5b4dabdcafd4": {
    "guid": "910ec2a4-179d-47d9-9f87-5b4dabdcafd4",
    "playRate": 1.0,
    "gameTrigger": "Dialog",
    "gameTriggerArgs": 693070103,
    "parentID": "ad3a5dc4-d3cc-4ce8-a2c3-304dda05ccbf",
    "sourceNames": [
      {
        "sourceFileName": "VO_Tower\\vo_beidou_saferoom_rest_03.wem",
        "rate": 1.0,
        "avatarName": "",
        "emotion": ""
      }
    ]
  },
  "b7481e03-fc67-460d-9876-c93bb33288dd": {
    "guid": "b7481e03-fc67-460d-9876-c93bb33288dd",
    "playRate": 1.0,
    "gameTrigger": "Dialog",
    "gameTriggerArgs": 693070101,
    "parentID": "ad3a5dc4-d3cc-4ce8-a2c3-304dda05ccbf",
    "sourceNames": [
      {
        "sourceFileName": "VO_Tower\\vo_beidou_saferoom_rest_01.wem",
        "rate": 1.0,
        "avatarName": "",
        "emotion": ""
      }
    ]
  },
  "cc56736e-53ac-44bb-9c73-790e8498180e": {
    "guid": "cc56736e-53ac-44bb-9c73-790e8498180e",
    "playRate": 1.0,
    "gameTrigger": "Dialog",
    "gameTriggerArgs": 693070102,
    "parentID": "ad3a5dc4-d3cc-4ce8-a2c3-304dda05ccbf",
    "sourceNames": [
      {
        "sourceFileName": "VO_Tower\\vo_beidou_saferoom_rest_02.wem",
        "rate": 1.0,
        "avatarName": "",
        "emotion": ""
      }
    ]
  },
  "d21f2f0a-ff22-41cf-b824-e67d368d903d": {
    "guid": "d21f2f0a-ff22-41cf-b824-e67d368d903d",
    "playRate": 1.0,
    "gameTrigger": "Dialog",
    "gameTriggerArgs": 693070301,
    "parentID": "ad3a5dc4-d3cc-4ce8-a2c3-304dda05ccbf",
    "sourceNames": [
      {
        "sourceFileName": "VO_Tower\\vo_beidou_saferoom_others_01.wem",
        "rate": 1.0,
        "avatarName": "",
        "emotion": ""
      }
    ]
  },
  "e994add4-f30e-43d3-af4d-208bfbcff3d6": {
    "guid": "e994add4-f30e-43d3-af4d-208bfbcff3d6",
    "playRate": 1.0,
    "gameTrigger": "Dialog",
    "gameTriggerArgs": 693070303,
    "parentID": "ad3a5dc4-d3cc-4ce8-a2c3-304dda05ccbf",
    "sourceNames": [
      {
        "sourceFileName": "VO_Tower\\vo_beidou_saferoom_others_03.wem",
        "rate": 1.0,
        "avatarName": "",
        "emotion": ""
      }
    ]
  }
}