[
  {
    "Default": {
      "$type": "CBPBEHLOHKI",
      "abilityName": "Monster_Skirmisher_Male_Fat_SprayGun_Water_Improve",
      "abilityMixins": [
        {
          "$type": "MLJAPFBGEEH",
          "globalValueKey": "_MONSTER_SKIRMISHER_IMPROVED_",
          "gvInTalk": 0.0,
          "valueSteps": [
            -0.5,
            0.5,
            1.5
          ],
          "modifierNameSteps": [
            "EyeEffect_Normal",
            "EyeEffect_Improve"
          ]
        },
        {
          "$type": "EKMHJKDLBJH",
          "modifierName": "ImprovedConfig",
          "DGFCLAIDIFI": ""
        },
        {
          "$type": "LAPMOOFOPBM",
          "valueSteps": [
            0.5
          ],
          "modifierNameSteps": [
            "Empty",
            "Skirmisher_Male_Fat_SprayGun_Water_ForceImprove"
          ]
        },
        {
          "$type": "LEOGLBFIELL",
          "poseIDs": [
            901,
            902,
            903
          ],
          "modifierName": "RemoveImproveState"
        },
        {
          "$type": "LEOGLBFIELL",
          "poseIDs": [
            1,
            2
          ],
          "modifierName": "ResetMonsterSkill"
        }
      ],
      "modifiers": {
        "UNIQUE_Skirmisher_Male_Fat_SprayGun_Water_ImprovedState": {
          "modifierName": "",
          "forceTriggerWhenChangeAuthority": true,
          "elementType": "Water",
          "IPFJJJGABPL": 100.0,
          "modifierMixins": [
            {
              "$type": "BKAAGFNKMLF",
              "onShieldBroken": [
                {
                  "$type": "MCOBFPMHMHJ",
                  "predicates": [
                    {
                      "$type": "CNGGLKHONAA",
                      "key": "_SKIRMISHER_SPRAYGUN_WATER_SCITOWER_",
                      "param3": 1.0
                    }
                  ],
                  "luaCallType": "FromGroup",
                  "sourceName": "shieldCrack",
                  "param1": 0.0,
                  "MGAMDEHMCOL": 0.0,
                  "MMHOHAOGPLP": 0.0
                }
              ],
              "showDamageText": ""
            },
            {
              "$type": "CMACEIAOBPD",
              "group": "Monster_SingleElement_Method_Water"
            }
          ],
          "properties": {
            "Entity_WeightRatio": 5.0,
            "Actor_EndureDelta": 0.0,
            "Actor_PhysicalSubHurtDelta": 1.0,
            "Actor_FireSubHurtDelta": 1.0,
            "Actor_ElecSubHurtDelta": 1.0,
            "Actor_WaterSubHurtDelta": 1.0,
            "Actor_GrassSubHurtDelta": 1.0,
            "Actor_WindSubHurtDelta": 1.0,
            "Actor_IceSubHurtDelta": 1.0,
            "Actor_RockSubHurtDelta": 1.0
          },
          "onAdded": [
            {
              "$type": "IDNGFEEBPAM",
              "boolID": "ImprovedState",
              "param3": true
            },
            {
              "$type": "KBFEIHEAMBM",
              "rotationDampTime": "Eff_Monster_Skirmisher_Male_Fat_SprayGun_Water_ImproveBS",
              "PPPDJGDDOGD": 1.0,
              "AJDILHJFNKE": -1.0
            },
            {
              "$type": "IPMMJGMONCI",
              "skillIDs": [
                501
              ]
            },
            {
              "$type": "PELJALPANCA",
              "otherTargets": {
                "$type": "GAPFENEFKKE",
                "equipPartNames": [
                  "equip01"
                ]
              },
              "modifierName": "ImproveEffect_SprayGunEffect"
            },
            {
              "$type": "PELJALPANCA",
              "otherTargets": {
                "$type": "GAPFENEFKKE",
                "equipPartNames": [
                  "equip02"
                ]
              },
              "modifierName": "ImproveEffect_BackPackEffect"
            },
            {
              "$type": "LCOEFEMOHLP",
              "param3": 1.0,
              "key": "_MONSTER_SKIRMISHER_IMPROVED_",
              "useLimitRange": true,
              "param2": 1.0,
              "repeatTimes": 1.0
            },
            {
              "$type": "LCOEFEMOHLP",
              "param3": 1.0,
              "key": "_MONSTER_SKIRMISHER_IMPROVED_COUNT_",
              "useLimitRange": true,
              "param2": 99.0,
              "repeatTimes": 0.0
            }
          ],
          "onRemoved": [
            {
              "$type": "BLCCGIPAOIP",
              "predicates": [
                {
                  "$type": "CNGGLKHONAA",
                  "target": "Self",
                  "key": "_MOSNTER_SKIRMISHER_RETURNTOBORN_",
                  "param3": 0.0,
                  "compareType": "NoneOrEqual"
                }
              ],
              "PLLJBINMGJK": "WeakStart"
            },
            {
              "$type": "IDNGFEEBPAM",
              "canBeHandledOnRecover": true,
              "boolID": "ImprovedState"
            },
            {
              "$type": "KBFEIHEAMBM",
              "rotationDampTime": "Eff_Monster_Skirmisher_Male_Fat_SprayGun_Water_ImproveAS",
              "PPPDJGDDOGD": 1.0,
              "AJDILHJFNKE": -1.0
            },
            {
              "$type": "LCOEFEMOHLP",
              "param3": 0.0,
              "key": "_MONSTER_SKIRMISHER_IMPROVED_",
              "useLimitRange": true,
              "param2": 0.0,
              "repeatTimes": 0.0
            },
            {
              "$type": "PFKNEFGOHIH",
              "otherTargets": {
                "$type": "GAPFENEFKKE",
                "equipPartNames": [
                  "equip02"
                ]
              },
              "modifierName": "ImproveEffect_BackPackEffect"
            },
            {
              "$type": "PFKNEFGOHIH",
              "otherTargets": {
                "$type": "GAPFENEFKKE",
                "equipPartNames": [
                  "equip01"
                ]
              },
              "modifierName": "ImproveEffect_SprayGunEffect"
            }
          ]
        },
        "ImproveEffect_SprayGunEffect": {
          "modifierName": "",
          "IPFJJJGABPL": 100.0,
          "onAdded": [
            {
              "$type": "ANLOBBMKNIJ",
              "rotationDampTime": "Eff_Monster_Skirmisher_Male_Fat_SprayGun_Water_SprayGunImprove",
              "PPPDJGDDOGD": 1.0,
              "AJDILHJFNKE": -1.0
            },
            {
              "$type": "KJCHPDPBJHL",
              "boolID": "Improved",
              "param3": true
            }
          ],
          "onRemoved": [
            {
              "$type": "KJCHPDPBJHL",
              "canBeHandledOnRecover": true,
              "boolID": "Improved"
            }
          ]
        },
        "ImproveEffect_BackPackEffect": {
          "modifierName": "",
          "IPFJJJGABPL": 100.0,
          "onAdded": [
            {
              "$type": "ANLOBBMKNIJ",
              "rotationDampTime": "Eff_Monster_Skirmisher_Male_Fat_SprayGun_Water_BackPackImprove",
              "PPPDJGDDOGD": 1.0,
              "AJDILHJFNKE": -1.0
            },
            {
              "$type": "KJCHPDPBJHL",
              "boolID": "Improved",
              "param3": true
            }
          ],
          "onRemoved": [
            {
              "$type": "KJCHPDPBJHL",
              "canBeHandledOnRecover": true,
              "boolID": "Improved"
            }
          ]
        },
        "EyeEffect_Normal": {
          "modifierName": "",
          "IPFJJJGABPL": 100.0,
          "onAdded": [
            {
              "$type": "ANLOBBMKNIJ",
              "rotationDampTime": "Eff_Monster_Skirmisher_Male_Fat_SprayGun_Water_EyeNormal",
              "PPPDJGDDOGD": 1.0,
              "AJDILHJFNKE": -1.0
            }
          ]
        },
        "EyeEffect_Improve": {
          "modifierName": "",
          "IPFJJJGABPL": 100.0,
          "onAdded": [
            {
              "$type": "ANLOBBMKNIJ",
              "rotationDampTime": "Eff_Monster_Skirmisher_Male_Fat_SprayGun_Ice_EyeToImprove",
              "PPPDJGDDOGD": 1.0,
              "AJDILHJFNKE": -1.0
            }
          ],
          "onRemoved": [
            {
              "$type": "KBFEIHEAMBM",
              "rotationDampTime": "Eff_Monster_Skirmisher_Male_Fat_SprayGun_Ice_EyeToNormal",
              "PPPDJGDDOGD": 1.0,
              "AJDILHJFNKE": -1.0
            }
          ]
        },
        "ImprovedConfig": {
          "modifierName": "",
          "IPFJJJGABPL": 100.0,
          "properties": {
            "Actor_EndureDelta": 0.0,
            "Actor_SubHurtDelta": 0.949999988079071
          },
          "onAdded": [
            {
              "$type": "CDHOAGHMOEE"
            }
          ]
        },
        "Skirmisher_Male_Fat_SprayGun_Water_ForceImprove": {
          "stacking": "Unique",
          "modifierName": "",
          "IPFJJJGABPL": 100.0,
          "onAdded": [
            {
              "$type": "IDNGFEEBPAM",
              "canBeHandledOnRecover": true,
              "predicates": [
                {
                  "$type": "CNGGLKHONAA",
                  "target": "Self",
                  "key": "_MONSTER_SKIRMISHER_IMPROVED_COUNT_",
                  "param3": 0.0,
                  "compareType": "NoneOrEqual"
                }
              ],
              "boolID": "SpecaialState",
              "param3": true
            }
          ],
          "onRemoved": [
            {
              "$type": "IDNGFEEBPAM",
              "boolID": "SpecaialState"
            }
          ]
        },
        "RemoveImproveState": {
          "modifierName": "",
          "IPFJJJGABPL": 100.0,
          "state": "Invincible",
          "onAdded": [
            {
              "$type": "LCOEFEMOHLP",
              "param3": 1.0,
              "key": "_MOSNTER_SKIRMISHER_RETURNTOBORN_",
              "useLimitRange": true,
              "param2": 1.0,
              "repeatTimes": 1.0
            },
            {
              "$type": "KBODPNEEFGD",
              "modifierName": "UNIQUE_Skirmisher_Male_Fat_SprayGun_Water_ImprovedState"
            }
          ],
          "onRemoved": [
            {
              "$type": "LCOEFEMOHLP",
              "param3": 0.0,
              "key": "_MOSNTER_SKIRMISHER_RETURNTOBORN_",
              "useLimitRange": true,
              "param2": 0.0,
              "repeatTimes": 0.0
            }
          ]
        },
        "ResetMonsterSkill": {
          "modifierName": "",
          "IPFJJJGABPL": 100.0,
          "onAdded": [
            {
              "$type": "LCOEFEMOHLP",
              "param3": 0.0,
              "key": "_MONSTER_SKIRMISHER_IMPROVED_COUNT_",
              "useLimitRange": true,
              "param2": 0.0,
              "repeatTimes": 0.0
            },
            {
              "$type": "IPMMJGMONCI",
              "skillIDs": [
                401,
                403,
                404
              ]
            }
          ],
          "onRemoved": [
            {
              "$type": "DOANGHCALGB",
              "skillIDs": [
                401,
                404
              ]
            }
          ]
        },
        "Empty": {
          "modifierName": "",
          "IPFJJJGABPL": 100.0
        }
      },
      "onAbilityStart": [
        {
          "$type": "PELJALPANCA",
          "modifierName": "UNIQUE_Skirmisher_Male_Fat_SprayGun_Water_ImprovedState"
        }
      ]
    }
  },
  {
    "Default": {
      "$type": "CBPBEHLOHKI",
      "abilityName": "Monster_Skirmisher_Male_Fat_SprayGun_Water_Die",
      "onAbilityStart": [
        {
          "$type": "KBODPNEEFGD",
          "modifierName": "UNIQUE_Skirmisher_Male_Fat_SprayGun_Water_ImprovedState"
        }
      ]
    }
  },
  {
    "Default": {
      "$type": "CBPBEHLOHKI",
      "abilityName": "Monster_Skirmisher_Male_Fat_SprayGun_Water_EyeAlert",
      "onAbilityStart": [
        {
          "$type": "KBFEIHEAMBM",
          "predicates": [
            {
              "$type": "CNGGLKHONAA",
              "target": "Self",
              "key": "_MONSTER_SKIRMISHER_IMPROVED_",
              "param3": 0.0,
              "compareType": "NoneOrEqual"
            }
          ],
          "rotationDampTime": "Eff_Monster_Skirmisher_Male_Fat_SprayGun_Water_EyeImprove",
          "PPPDJGDDOGD": 1.0,
          "AJDILHJFNKE": -1.0
        }
      ]
    }
  },
  {
    "Default": {
      "$type": "CBPBEHLOHKI",
      "abilityName": "Monster_Skirmisher_Male_Fat_SprayGun_Water_DamageWave",
      "onAbilityStart": [
        {
          "$type": "CAKDDHLKOAB",
          "bulletID": 42301004,
          "born": {
            "$type": "KLPANPDGHHA",
            "offset": {
              "KGEPIMHBMOL": 0.0,
              "JEBHCGDPFEJ": 0.0,
              "LPCHALMFFOD": 0.0
            },
            "direction": {
              "$type": "MEADFIJAHPG",
              "maxAngle": 60.0,
              "startPoint": ""
            },
            "attachPointName": "WeaponEffect"
          }
        }
      ]
    }
  },
  {
    "Default": {
      "$type": "CBPBEHLOHKI",
      "abilityName": "Skirmisher_Fat_SprayGun_Water_DamageWave_Explode",
      "modifiers": {
        "ElementalFlag": {
          "modifierName": "",
          "elementDurability": 8.0,
          "IPFJJJGABPL": 100.0,
          "modifierMixins": [
            {
              "$type": "JJIHJPCPPGO",
              "abilityStates": [
                "ElementWet"
              ],
              "modifierName": "HasWater"
            }
          ]
        },
        "HasWater": {
          "modifierName": "",
          "IPFJJJGABPL": 100.0,
          "onAdded": [
            {
              "$type": "LCOEFEMOHLP",
              "param3": 1.0,
              "key": "_SKIRMISHER_ELEMENT_WATER_",
              "useLimitRange": true,
              "param2": 1.0,
              "repeatTimes": 1.0
            }
          ],
          "onRemoved": [
            {
              "$type": "LCOEFEMOHLP",
              "param3": 0.0,
              "key": "_SKIRMISHER_ELEMENT_WATER_",
              "useLimitRange": true,
              "param2": 0.0,
              "repeatTimes": 0.0
            }
          ]
        }
      },
      "onAdded": [
        {
          "$type": "ANLOBBMKNIJ",
          "rotationDampTime": "Eff_Monster_Skirmisher_Male_Fat_SprayGun_Water_DamageWaveLoop",
          "PPPDJGDDOGD": 1.0,
          "AJDILHJFNKE": -1.0
        }
      ],
      "onAbilityStart": [
        {
          "$type": "KBFEIHEAMBM",
          "rotationDampTime": "Eff_Monster_Skirmisher_Male_Fat_SprayGun_Water_DamageWaveAS",
          "born": {
            "$type": "JGEBAJLEBMO",
            "offset": {
              "KGEPIMHBMOL": 0.0,
              "JEBHCGDPFEJ": 0.0,
              "LPCHALMFFOD": 0.0
            }
          },
          "PPPDJGDDOGD": 1.0,
          "AJDILHJFNKE": -1.0
        },
        {
          "$type": "AIFPLABJNMA",
          "attackEvent": {
            "attackPattern": {
              "$type": "BELNOFAKNBA",
              "triggerType": "TriggerNoRepeat",
              "born": {
                "$type": "IAENDIPDFKD",
                "offset": {
                  "KGEPIMHBMOL": 0.0,
                  "JEBHCGDPFEJ": 0.0,
                  "LPCHALMFFOD": 0.0
                }
              },
              "OAHPDLJIADP": 1.0
            },
            "attackInfo": {
              "attackTag": "",
              "attenuationTag": "",
              "attenuationGroup": "default",
              "attackProperty": {
                "actorGrassSubHurtDelta": 1.0,
                "actorWindSubHurtDelta": 0.0,
                "elementType": "Water",
                "IPFJJJGABPL": 50.0,
                "strikeType": "Default",
                "enBreak": 50.0,
                "attackType": "Range",
                "GLKMCMDJBIK": 0.0
              },
              "hitPattern": {
                "onHitEffectName": "default",
                "hitImpulseY": "",
                "hitImpulseType": "LV2",
                "hitHaltTimeScale": 0.05000000074505806
              },
              "canBeModifiedBy": "OriginOwner"
            }
          },
          "targetType": "Enemy"
        },
        {
          "$type": "PELJALPANCA",
          "target": "Target",
          "modifierName": "ElementalFlag"
        },
        {
          "$type": "NCFFNDHGCMH"
        }
      ]
    }
  },
  {
    "Default": {
      "$type": "CBPBEHLOHKI",
      "abilityName": "Monster_Skirmisher_Male_Fat_SprayGun_Water_HealingWave",
      "abilitySpecials": {
        "HealHPRatio": 0.10000000149011612
      },
      "modifiers": {
        "Skirmisher_Male_Fat_SprayGun_Water_HealingDetect": {
          "modifierName": "",
          "IPFJJJGABPL": 100.0,
          "onAttackLanded": [
            {
              "$type": "PELJALPANCA",
              "target": "Target",
              "predicates": [
                {
                  "$type": "OFFCGHNCBCD",
                  "isTarget": false,
                  "ALBJEAMOFLG": ""
                },
                {
                  "$type": "NNEHDJHMING",
                  "attackTags": [
                    "Skirmisher_Fat_SprayGun_Water_HealingWave"
                  ]
                },
                {
                  "$type": "NIMAPECDNKD",
                  "entityTypes": [
                    "Monster"
                  ]
                }
              ],
              "modifierName": "HealingWave_HealHp"
            }
          ]
        },
        "HealingWave_HealHp": {
          "modifierName": "",
          "elementDurability": 5.099999904632568,
          "IPFJJJGABPL": 100.0,
          "thinkInterval": 1.0,
          "onAdded": [
            {
              "$type": "FHGPOFDJDCO",
              "CKDBFHCIJEK": "HealHPRatio",
              "cdRatio": ""
            },
            {
              "$type": "ANLOBBMKNIJ",
              "rotationDampTime": "Eff_Monster_Skirmisher_Male_Fat_SprayGun_Water_HealHp",
              "PPPDJGDDOGD": 1.0,
              "AJDILHJFNKE": -1.0
            }
          ],
          "onThinkInterval": [
            {
              "$type": "FHGPOFDJDCO",
              "CKDBFHCIJEK": "HealHPRatio",
              "cdRatio": ""
            },
            {
              "$type": "KBFEIHEAMBM",
              "rotationDampTime": "Eff_Monster_Shaman_Water_SupportAttack_Heal",
              "born": {
                "$type": "KLPANPDGHHA",
                "attachPointName": "RootNode"
              },
              "PPPDJGDDOGD": 1.0,
              "AJDILHJFNKE": -1.0
            }
          ]
        }
      },
      "onAdded": [
        {
          "$type": "PELJALPANCA",
          "modifierName": "Skirmisher_Male_Fat_SprayGun_Water_HealingDetect"
        }
      ],
      "onAbilityStart": [
        {
          "$type": "CAKDDHLKOAB",
          "bulletID": 42301005,
          "born": {
            "$type": "KLPANPDGHHA",
            "offset": {
              "KGEPIMHBMOL": 0.0,
              "JEBHCGDPFEJ": 0.0,
              "LPCHALMFFOD": 0.0
            },
            "direction": {
              "$type": "MEADFIJAHPG",
              "startPoint": ""
            },
            "attachPointName": "WeaponEffect"
          }
        }
      ]
    }
  },
  {
    "Default": {
      "$type": "CBPBEHLOHKI",
      "abilityName": "Skirmisher_Fat_SprayGun_Water_HealingWave_Explode",
      "modifiers": {
        "HealingWave_Handler": {
          "modifierName": "",
          "elementDurability": 1.0,
          "IPFJJJGABPL": 100.0,
          "onAdded": [
            {
              "$type": "AIFPLABJNMA",
              "target": "Caster",
              "attackEvent": {
                "attackPattern": {
                  "$type": "BELNOFAKNBA",
                  "triggerType": "TriggerNoRepeat",
                  "born": {
                    "$type": "ICKMMAHFNIM",
                    "offset": {
                      "KGEPIMHBMOL": 0.0,
                      "JEBHCGDPFEJ": 0.0,
                      "LPCHALMFFOD": 0.0
                    },
                    "positionKey": "_HealingWavePos_",
                    "directionKey": ""
                  },
                  "OAHPDLJIADP": 0.5
                },
                "attackInfo": {
                  "attackTag": "Skirmisher_Fat_SprayGun_Water_HealingWave",
                  "attenuationTag": "",
                  "attenuationGroup": "default",
                  "attackProperty": {
                    "actorGrassSubHurtDelta": 0.0,
                    "actorWindSubHurtDelta": 0.0,
                    "IPFJJJGABPL": 100.0,
                    "strikeType": "Default",
                    "GLKMCMDJBIK": 0.0
                  },
                  "hitPattern": {
                    "onHitEffectName": "none",
                    "hitImpulseY": "",
                    "hitImpulseType": "LV0",
                    "hitHaltTimeScale": 0.05000000074505806
                  }
                }
              },
              "targetType": "AllExceptSelf"
            }
          ]
        }
      },
      "onAdded": [
        {
          "$type": "ANLOBBMKNIJ",
          "rotationDampTime": "Eff_Monster_Skirmisher_Male_Fat_SprayGun_Water_HealingWaveLoop",
          "PPPDJGDDOGD": 1.0,
          "AJDILHJFNKE": -1.0
        }
      ],
      "onAbilityStart": [
        {
          "$type": "INBCDALOHMP",
          "target": "Target",
          "targetPredicates": [
            {
              "$type": "OFFCGHNCBCD",
              "isTarget": false,
              "ALBJEAMOFLG": ""
            },
            {
              "$type": "NIMAPECDNKD",
              "entityTypes": [
                "Monster"
              ]
            }
          ],
          "successActions": [
            {
              "$type": "MPAGCPPAIHJ",
              "target": "Target",
              "key": "_HealingWavePos_",
              "born": {
                "$type": "KLPANPDGHHA",
                "offset": {
                  "KGEPIMHBMOL": 0.0,
                  "JEBHCGDPFEJ": 0.0,
                  "LPCHALMFFOD": 0.0
                },
                "attachPointName": "RootNode"
              },
              "setTarget": false
            },
            {
              "$type": "PELJALPANCA",
              "target": "Owner",
              "modifierName": "HealingWave_Handler"
            }
          ]
        },
        {
          "$type": "KBFEIHEAMBM",
          "rotationDampTime": "Eff_Monster_Skirmisher_Male_Fat_SprayGun_Water_HealingWaveAS",
          "born": {
            "$type": "JGEBAJLEBMO",
            "offset": {
              "KGEPIMHBMOL": 0.0,
              "JEBHCGDPFEJ": 0.0,
              "LPCHALMFFOD": 0.0
            }
          },
          "PPPDJGDDOGD": 1.0,
          "AJDILHJFNKE": -1.0
        },
        {
          "$type": "NCFFNDHGCMH"
        }
      ]
    }
  },
  {
    "Default": {
      "$type": "CBPBEHLOHKI",
      "abilityName": "Monster_Skirmisher_Male_Fat_SprayGun_Water_ImprovedHealingWave",
      "abilityMixins": [
        {
          "$type": "EKMHJKDLBJH",
          "stateIDs": [
            "ImprovedHealingWave_AS",
            "HealingWave_AS",
            "RocketJump"
          ],
          "modifierName": "ResetSkillInitialCD",
          "DGFCLAIDIFI": ""
        }
      ],
      "modifiers": {
        "ResetSkillInitialCD": {
          "modifierName": "",
          "IPFJJJGABPL": 100.0,
          "onRemoved": [
            {
              "$type": "DOANGHCALGB",
              "skillIDs": [
                201
              ]
            }
          ]
        }
      },
      "onAbilityStart": [
        {
          "$type": "INBCDALOHMP",
          "otherTargets": {
            "$type": "IJOFJOGLDHE",
            "topLimit": 3,
            "shapeName": "CircleR20H6",
            "centerBasedOn": "SelfAttackTarget",
            "campTargetType": "Alliance",
            "doOffStage": 1.0
          },
          "targetPredicates": [
            {
              "$type": "OFFCGHNCBCD",
              "isTarget": false,
              "ALBJEAMOFLG": ""
            },
            {
              "$type": "NIMAPECDNKD",
              "entityTypes": [
                "Monster"
              ]
            }
          ],
          "successActions": [
            {
              "$type": "MDIAKCCDEAL",
              "target": "Target"
            },
            {
              "$type": "CAKDDHLKOAB",
              "bulletID": 42301006,
              "born": {
                "$type": "KLPANPDGHHA",
                "offset": {
                  "KGEPIMHBMOL": 0.0,
                  "JEBHCGDPFEJ": 0.0,
                  "LPCHALMFFOD": 0.0
                },
                "direction": {
                  "$type": "LHBLDEOLGKF",
                  "angleOffset": {
                    "KGEPIMHBMOL": 0.0,
                    "JEBHCGDPFEJ": 0.0,
                    "LPCHALMFFOD": 0.0
                  },
                  "randomAngleHor": 60.0,
                  "randomAngleVer": 20.0,
                  "attachPointName": "WeaponEffect"
                },
                "attachPointName": "WeaponEffect"
              }
            }
          ]
        },
        {
          "$type": "DOGDNJHJADD"
        }
      ]
    }
  },
  {
    "Default": {
      "$type": "CBPBEHLOHKI",
      "abilityName": "Skirmisher_Fat_SprayGun_Water_ImprovedHealingWave_Explode",
      "modifiers": {
        "HealingWave_Handler": {
          "modifierName": "",
          "elementDurability": 1.0,
          "IPFJJJGABPL": 100.0,
          "onAdded": [
            {
              "$type": "AIFPLABJNMA",
              "target": "Caster",
              "attackEvent": {
                "attackPattern": {
                  "$type": "BELNOFAKNBA",
                  "triggerType": "TriggerNoRepeat",
                  "born": {
                    "$type": "ICKMMAHFNIM",
                    "offset": {
                      "KGEPIMHBMOL": 0.0,
                      "JEBHCGDPFEJ": 0.0,
                      "LPCHALMFFOD": 0.0
                    },
                    "positionKey": "_HealingWavePos_",
                    "directionKey": ""
                  },
                  "OAHPDLJIADP": 0.5
                },
                "attackInfo": {
                  "attackTag": "Skirmisher_Fat_SprayGun_Water_HealingWave",
                  "attenuationTag": "",
                  "attenuationGroup": "default",
                  "attackProperty": {
                    "actorGrassSubHurtDelta": 0.0,
                    "actorWindSubHurtDelta": 0.0,
                    "IPFJJJGABPL": 100.0,
                    "strikeType": "Default",
                    "GLKMCMDJBIK": 0.0
                  },
                  "hitPattern": {
                    "onHitEffectName": "none",
                    "hitImpulseY": "",
                    "hitImpulseType": "LV0",
                    "hitHaltTimeScale": 0.05000000074505806
                  }
                }
              },
              "targetType": "AllExceptSelf"
            }
          ]
        }
      },
      "onAdded": [
        {
          "$type": "ANLOBBMKNIJ",
          "rotationDampTime": "Eff_Monster_Skirmisher_Male_Fat_SprayGun_Water_HealingWaveLoop",
          "PPPDJGDDOGD": 1.0,
          "AJDILHJFNKE": -1.0
        }
      ],
      "onAbilityStart": [
        {
          "$type": "INBCDALOHMP",
          "target": "Target",
          "targetPredicates": [
            {
              "$type": "OFFCGHNCBCD",
              "isTarget": false,
              "ALBJEAMOFLG": ""
            },
            {
              "$type": "NIMAPECDNKD",
              "entityTypes": [
                "Monster"
              ]
            }
          ],
          "successActions": [
            {
              "$type": "MPAGCPPAIHJ",
              "target": "Target",
              "key": "_HealingWavePos_",
              "born": {
                "$type": "KLPANPDGHHA",
                "offset": {
                  "KGEPIMHBMOL": 0.0,
                  "JEBHCGDPFEJ": 0.0,
                  "LPCHALMFFOD": 0.0
                },
                "attachPointName": "RootNode"
              },
              "setTarget": false
            },
            {
              "$type": "PELJALPANCA",
              "target": "Owner",
              "modifierName": "HealingWave_Handler"
            }
          ]
        },
        {
          "$type": "KBFEIHEAMBM",
          "rotationDampTime": "Eff_Monster_Skirmisher_Male_Fat_SprayGun_Water_HealingWaveAS",
          "born": {
            "$type": "JGEBAJLEBMO",
            "offset": {
              "KGEPIMHBMOL": 0.0,
              "JEBHCGDPFEJ": 0.0,
              "LPCHALMFFOD": 0.0
            }
          },
          "PPPDJGDDOGD": 1.0,
          "AJDILHJFNKE": -1.0
        },
        {
          "$type": "NCFFNDHGCMH"
        }
      ]
    }
  },
  {
    "Default": {
      "$type": "CBPBEHLOHKI",
      "abilityName": "Monster_Skirmisher_Male_Fat_SprayGun_Water_Weak",
      "abilityMixins": [
        {
          "$type": "EKMHJKDLBJH",
          "stateIDs": [
            "Weak"
          ],
          "modifierName": "WeakState",
          "DGFCLAIDIFI": ""
        },
        {
          "$type": "MLJAPFBGEEH",
          "globalValueKey": "_MONSTER_SKIRMISHER_RECOVER",
          "gvInTalk": 0.0,
          "valueSteps": [
            -0.5,
            0.5,
            1.5
          ],
          "modifierNameSteps": [
            "Empty",
            "Recover"
          ]
        }
      ],
      "modifiers": {
        "WeakState": {
          "modifierName": "",
          "IPFJJJGABPL": 100.0,
          "modifierMixins": [
            {
              "$type": "MLJAPFBGEEH",
              "globalValueKey": "_MONSTER_SKIRMISHER_RECOVER",
              "gvInTalk": 0.0,
              "valueSteps": [
                -0.5,
                0.5,
                1.5
              ],
              "modifierNameSteps": [
                "Empty",
                "Recover"
              ]
            }
          ],
          "onAdded": [
            {
              "$type": "IDNGFEEBPAM",
              "boolID": "WeakState",
              "param3": true
            },
            {
              "$type": "LCOEFEMOHLP",
              "param3": 0.0,
              "key": "_MONSTER_SKIRMISHER_RECOVER",
              "useLimitRange": true,
              "param2": 0.0,
              "repeatTimes": 0.0
            },
            {
              "$type": "LCOEFEMOHLP",
              "param3": 1.0,
              "key": "_MONSTER_SKIRMISHER_WEAK_",
              "useLimitRange": true,
              "param2": 1.0,
              "repeatTimes": 1.0
            }
          ],
          "onRemoved": [
            {
              "$type": "IDNGFEEBPAM",
              "canBeHandledOnRecover": true,
              "boolID": "WeakState"
            },
            {
              "$type": "INBCDALOHMP",
              "targetPredicates": [
                {
                  "$type": "CNGGLKHONAA",
                  "key": "_MONSTER_SKIRMISHER_RECOVER",
                  "param3": 1.0
                }
              ],
              "successActions": [
                {
                  "$type": "IPMMJGMONCI",
                  "skillIDs": [
                    402
                  ]
                }
              ],
              "failActions": [
                {
                  "$type": "DOANGHCALGB",
                  "skillIDs": [
                    402
                  ]
                }
              ]
            },
            {
              "$type": "LCOEFEMOHLP",
              "canBeHandledOnRecover": true,
              "param3": 0.0,
              "key": "_MONSTER_SKIRMISHER_RECOVER",
              "useLimitRange": true,
              "param2": 0.0,
              "repeatTimes": 0.0
            },
            {
              "$type": "LCOEFEMOHLP",
              "canBeHandledOnRecover": true,
              "param3": 0.0,
              "key": "_MONSTER_SKIRMISHER_WEAK_",
              "useLimitRange": true,
              "param2": 0.0,
              "repeatTimes": 0.0
            }
          ]
        },
        "Recover": {
          "modifierName": "",
          "IPFJJJGABPL": 100.0,
          "onAdded": [
            {
              "$type": "BLCCGIPAOIP",
              "PLLJBINMGJK": "Recover"
            }
          ]
        },
        "Empty": {
          "modifierName": "",
          "IPFJJJGABPL": 100.0
        }
      }
    }
  },
  {
    "Default": {
      "$type": "CBPBEHLOHKI",
      "abilityName": "Monster_Skirmisher_Male_Fat_SprayGun_Water_RocketJump",
      "abilityMixins": [
        {
          "$type": "EKMHJKDLBJH",
          "stateIDs": [
            "RocketJump"
          ],
          "modifierName": "RocketJumpState",
          "DGFCLAIDIFI": ""
        },
        {
          "$type": "NAFEDCNOIGL",
          "stateID": "RocketJump",
          "modifierName": "BackPackEffect",
          "normalizeStart": 0.47999998927116394,
          "normalizeEnd": 0.800000011920929,
          "DGFCLAIDIFI": ""
        }
      ],
      "modifiers": {
        "RocketJumpState": {
          "modifierName": "",
          "IPFJJJGABPL": 100.0,
          "onAdded": [
            {
              "$type": "INBCDALOHMP",
              "otherTargets": {
                "$type": "IJOFJOGLDHE",
                "topLimit": 1,
                "shapeName": "CircleR25",
                "campTargetType": "Alliance",
                "doOffStage": 1.0
              },
              "targetPredicates": [
                {
                  "$type": "OFFCGHNCBCD",
                  "isTarget": false,
                  "ALBJEAMOFLG": ""
                },
                {
                  "$type": "NIMAPECDNKD",
                  "entityTypes": [
                    "Monster"
                  ]
                }
              ],
              "successActions": [
                {
                  "$type": "MDIAKCCDEAL",
                  "target": "Target"
                }
              ]
            }
          ],
          "onRemoved": [
            {
              "$type": "DOGDNJHJADD"
            },
            {
              "$type": "IPMMJGMONCI",
              "skillIDs": [
                101
              ]
            }
          ]
        },
        "BackPackEffect": {
          "modifierName": "",
          "IPFJJJGABPL": 100.0,
          "onAdded": [
            {
              "$type": "JLDEMMJAMLC",
              "otherTargets": {
                "$type": "GAPFENEFKKE",
                "equipPartNames": [
                  "equip02"
                ]
              },
              "modifierName": "RocketJump_BackPackEffect"
            }
          ],
          "onRemoved": [
            {
              "$type": "CCNPNMMONDO",
              "otherTargets": {
                "$type": "IJOFJOGLDHE",
                "shapeName": "CircleR3.5H2",
                "campTargetType": "Enemy",
                "doOffStage": 1.0
              },
              "attackInfo": {
                "attackTag": "",
                "attenuationTag": "",
                "attenuationGroup": "default",
                "attackProperty": {
                  "actorGrassSubHurtDelta": 0.25,
                  "actorWindSubHurtDelta": 0.0,
                  "elementType": "Water",
                  "IPFJJJGABPL": 25.0,
                  "strikeType": "Blunt",
                  "enBreak": 200.0,
                  "GLKMCMDJBIK": 0.0
                },
                "hitPattern": {
                  "onHitEffectName": "default",
                  "hitImpulseY": "",
                  "hitImpulseType": "LV5",
                  "hitHaltTimeScale": 0.05000000074505806,
                  "muteHitText": true
                },
                "forceCameraShake": true,
                "cameraShake": {
                  "shakeType": "CustomVector",
                  "shakeRange": 0.800000011920929,
                  "shakeTime": 0.5,
                  "shakeDistance": 30.0,
                  "shakeDir": {
                    "y": 1.0,
                    "z": 1.0
                  }
                }
              }
            }
          ]
        },
        "RocketJump_BackPackEffect": {
          "modifierName": "",
          "IPFJJJGABPL": 100.0,
          "onAdded": [
            {
              "$type": "ANLOBBMKNIJ",
              "rotationDampTime": "Eff_Monster_Skirmisher_Male_Fat_SprayGun_Water_RocketJumpLoop1",
              "PPPDJGDDOGD": 1.0,
              "AJDILHJFNKE": -1.0
            },
            {
              "$type": "ANLOBBMKNIJ",
              "rotationDampTime": "Eff_Monster_Skirmisher_Male_Fat_SprayGun_Water_RocketJumpLoop2",
              "PPPDJGDDOGD": 1.0,
              "AJDILHJFNKE": -1.0
            }
          ]
        }
      }
    }
  },
  {
    "Default": {
      "$type": "CBPBEHLOHKI",
      "abilityName": "Monster_Skirmisher_Male_Fat_SprayGun_Water_SprayGunAlert",
      "onAbilityStart": [
        {
          "$type": "KBFEIHEAMBM",
          "otherTargets": {
            "$type": "GAPFENEFKKE",
            "equipPartNames": [
              "equip01"
            ]
          },
          "rotationDampTime": "Eff_Monster_Skirmisher_Male_Fat_SprayGun_Water_SprayGunAlert",
          "PPPDJGDDOGD": 1.0,
          "AJDILHJFNKE": -1.0
        }
      ]
    }
  },
  {
    "Default": {
      "$type": "CBPBEHLOHKI",
      "abilityName": "Monster_Skirmisher_Male_Fat_SprayGun_Water_BackPackAlert",
      "onAbilityStart": [
        {
          "$type": "KBFEIHEAMBM",
          "otherTargets": {
            "$type": "GAPFENEFKKE",
            "equipPartNames": [
              "equip02"
            ]
          },
          "rotationDampTime": "Eff_Monster_Skirmisher_Male_Fat_BackPack_Water_BackPackAlert",
          "PPPDJGDDOGD": 1.0,
          "AJDILHJFNKE": -1.0
        },
        {
          "$type": "KBFEIHEAMBM",
          "otherTargets": {
            "$type": "GAPFENEFKKE",
            "equipPartNames": [
              "equip02"
            ]
          },
          "rotationDampTime": "Eff_Monster_Skirmisher_Male_Fat_BackPack_Water_BackPackAlertR",
          "PPPDJGDDOGD": 1.0,
          "AJDILHJFNKE": -1.0
        }
      ]
    }
  },
  {
    "Default": {
      "$type": "CBPBEHLOHKI",
      "abilityName": "Monster_Skirmisher_Male_Fat_SprayGun_Water_WeaponSpecialElementState",
      "abilityMixins": [
        {
          "$type": "JJIHJPCPPGO",
          "abilityStates": [
            "ElementFreeze"
          ],
          "modifierName": "WeaponElementFreezeHandler"
        },
        {
          "$type": "JJIHJPCPPGO",
          "abilityStates": [
            "ElementPetrifaction"
          ],
          "modifierName": "WeaponElementPetrifactionHandler"
        }
      ],
      "modifiers": {
        "WeaponElementFreezeHandler": {
          "modifierName": "",
          "IPFJJJGABPL": 100.0,
          "onAdded": [
            {
              "$type": "JLDEMMJAMLC",
              "otherTargets": {
                "$type": "GAPFENEFKKE",
                "equipPartNames": [
                  "equip01",
                  "equip02"
                ]
              },
              "modifierName": "WeaponElementFreeze"
            }
          ]
        },
        "WeaponElementPetrifactionHandler": {
          "modifierName": "",
          "IPFJJJGABPL": 100.0,
          "onAdded": [
            {
              "$type": "JLDEMMJAMLC",
              "otherTargets": {
                "$type": "GAPFENEFKKE",
                "equipPartNames": [
                  "equip01",
                  "equip02"
                ]
              },
              "modifierName": "WeaponElementPetrifaction"
            }
          ]
        },
        "WeaponElementFreeze": {
          "modifierName": "",
          "IPFJJJGABPL": 100.0,
          "state": "ElementFreeze"
        },
        "WeaponElementPetrifaction": {
          "modifierName": "",
          "IPFJJJGABPL": 100.0,
          "state": "ElementPetrifaction"
        }
      }
    }
  },
  {
    "Default": {
      "$type": "CBPBEHLOHKI",
      "abilityName": "Monster_Skirmisher_Male_Fat_SprayGun_Water_Steer",
      "abilityMixins": [
        {
          "$type": "IILHMBGONGM",
          "steerStateIDs": [
            "Turn"
          ],
          "angularSpeed": 150.0,
          "attackTrigger": "",
          "attackDistance": 2.0,
          "DGFCLAIDIFI": ""
        },
        {
          "$type": "IILHMBGONGM",
          "steerStateIDs": [
            "MeleeAtk"
          ],
          "endNormalizedTime": 0.2800000011920929,
          "angularSpeed": 90.0,
          "attackTrigger": "",
          "attackDistance": 2.0,
          "DGFCLAIDIFI": ""
        },
        {
          "$type": "IILHMBGONGM",
          "steerStateIDs": [
            "RocketJump"
          ],
          "endNormalizedTime": 0.5299999713897705,
          "angularSpeed": 150.0,
          "attackTrigger": "",
          "attackDistance": 2.0,
          "DGFCLAIDIFI": ""
        },
        {
          "$type": "IILHMBGONGM",
          "steerStateIDs": [
            "ImprovedHealingWave_AS"
          ],
          "endNormalizedTime": 0.4000000059604645,
          "angularSpeed": 120.0,
          "attackTrigger": "",
          "attackDistance": 2.0,
          "DGFCLAIDIFI": ""
        },
        {
          "$type": "IILHMBGONGM",
          "steerStateIDs": [
            "HealingWave_AS"
          ],
          "endNormalizedTime": 0.4000000059604645,
          "angularSpeed": 120.0,
          "attackTrigger": "",
          "attackDistance": 2.0,
          "DGFCLAIDIFI": ""
        },
        {
          "$type": "IILHMBGONGM",
          "steerStateIDs": [
            "DamageWave_AS"
          ],
          "endNormalizedTime": 0.4000000059604645,
          "angularSpeed": 120.0,
          "attackTrigger": "",
          "attackDistance": 2.0,
          "DGFCLAIDIFI": ""
        }
      ]
    }
  }
]