[
  {
    "Default": {
      "$type": "CBPBEHLOHKI",
      "abilityName": "Monster_Wayob_Hookwalker_Initial",
      "abilityMixins": [
        {
          "$type": "AOKOIIHJJPJ",
          "alertness": [
            2
          ],
          "modifierName": "Monster_Wayob_GoBattle"
        }
      ],
      "modifiers": {
        "Monster_Wayob_GoBattle": {
          "modifierName": "",
          "IPFJJJGABPL": 100.0,
          "onAdded": [
            {
              "$type": "IDNGFEEBPAM",
              "boolID": "Show"
            }
          ]
        },
        "Monster_Wayob_Hookwalker_Initial": {
          "modifierName": "",
          "IPFJJJGABPL": 100.0,
          "onAdded": [
            {
              "$type": "BOBCOJHOKKD",
              "param3": 2.0,
              "key": "_WAYOB_ELEMENT",
              "param2": 0.0,
              "repeatTimes": 0.0
            },
            {
              "$type": "ANLOBBMKNIJ",
              "rotationDampTime": "Eff_Monster_Wayob_Hookwalker_Body",
              "PPPDJGDDOGD": 1.0,
              "AJDILHJFNKE": -1.0
            }
          ]
        }
      },
      "onAdded": [
        {
          "$type": "PELJALPANCA",
          "modifierName": "Monster_Wayob_Hookwalker_Initial"
        }
      ],
      "onKill": [
        {
          "$type": "PFKNEFGOHIH",
          "modifierName": "Monster_Wayob_Hookwalker_Initial"
        }
      ]
    }
  },
  {
    "Default": {
      "$type": "CBPBEHLOHKI",
      "abilityName": "Monster_Wayob_Hookwalker_CreateRangeAtk",
      "onAbilityStart": [
        {
          "$type": "MPAGCPPAIHJ",
          "target": "SelfAttackTarget",
          "key": "_WAYOB_GRASS_ATK_POS",
          "born": {
            "$type": "JHEBKCMEMLN",
            "onGround": true
          },
          "setTarget": false
        },
        {
          "$type": "KFCDMIMBBLD",
          "born": {
            "$type": "ICKMMAHFNIM",
            "positionKey": "_WAYOB_GRASS_ATK_POS",
            "directionKey": ""
          },
          "gadgetID": 42626016
        }
      ]
    }
  },
  {
    "Default": {
      "$type": "CBPBEHLOHKI",
      "abilityName": "Monster_Wayob_Hookwalker_RangeAtk_AOE",
      "modifiers": {
        "Monster_Wayob_Hookwalker_RangeAtk_AOE_Damage": {
          "modifierName": "",
          "elementDurability": 4.0,
          "IPFJJJGABPL": 100.0,
          "thinkInterval": 0.5,
          "onAdded": [
            {
              "$type": "BGLDIBDIEDJ"
            }
          ],
          "onThinkInterval": [
            {
              "$type": "AIFPLABJNMA",
              "attackEvent": {
                "attackPattern": {
                  "$type": "GMDIMKKHACA",
                  "triggerType": "TriggerNoRepeat",
                  "born": {
                    "$type": "IAENDIPDFKD",
                    "offset": {
                      "KGEPIMHBMOL": 0.0,
                      "JEBHCGDPFEJ": 0.0,
                      "LPCHALMFFOD": 0.0
                    },
                    "onGround": true,
                    "useRotation": true
                  },
                  "height": 3.0,
                  "OAHPDLJIADP": 2.5
                },
                "attackInfo": {
                  "attackTag": "",
                  "attenuationTag": "",
                  "attenuationGroup": "default",
                  "attackProperty": {
                    "actorGrassSubHurtDelta": 0.20000000298023224,
                    "actorWindSubHurtDelta": 0.0,
                    "elementType": "Grass",
                    "IPFJJJGABPL": 25.0,
                    "strikeType": "Blunt",
                    "enBreak": 0.0,
                    "GLKMCMDJBIK": 0.0
                  },
                  "hitPattern": {
                    "onHitEffectName": "default",
                    "hitImpulseY": "",
                    "hitImpulseType": "LV0"
                  }
                }
              },
              "targetType": "Enemy"
            }
          ]
        },
        "Monster_Wayob_Hookwalker_RangeAtk_AOE": {
          "modifierName": "",
          "elementDurability": 1.0,
          "IPFJJJGABPL": 100.0,
          "onAdded": [
            {
              "$type": "KBFEIHEAMBM",
              "rotationDampTime": "Eff_Monster_Wayob_RangeAtk2_Attack_Grass",
              "PPPDJGDDOGD": 1.0,
              "AJDILHJFNKE": -1.0
            }
          ],
          "onRemoved": [
            {
              "$type": "PELJALPANCA",
              "modifierName": "Monster_Wayob_Hookwalker_RangeAtk_AOE_Damage"
            }
          ]
        }
      },
      "onAdded": [
        {
          "$type": "PELJALPANCA",
          "modifierName": "Monster_Wayob_Hookwalker_RangeAtk_AOE"
        }
      ]
    }
  },
  {
    "Default": {
      "$type": "CBPBEHLOHKI",
      "abilityName": "Monster_Wayob_Hookwalker_CreateSummonAtk",
      "abilityMixins": [
        {
          "$type": "EKMHJKDLBJH",
          "stateIDs": [
            "SummonAttack1"
          ],
          "modifierName": "Monster_Wayob_Hookwalker_CreateSummonAtk_LockTarget",
          "DGFCLAIDIFI": ""
        },
        {
          "$type": "NAFEDCNOIGL",
          "stateID": "SummonAttack1",
          "modifierName": "Monster_Wayob_Hookwalker_CreateSummonAtk_LockTargetEff",
          "normalizeStart": 0.17299999296665192,
          "normalizeEnd": 0.367000013589859,
          "DGFCLAIDIFI": ""
        }
      ],
      "modifiers": {
        "Monster_Wayob_Hookwalker_CreateSummonAtk_LockTarget": {
          "modifierName": "",
          "IPFJJJGABPL": 100.0,
          "modifierMixins": [
            {
              "$type": "CIGJDPCDOEB",
              "onAdded": [
                {
                  "$type": "PDGGLHALCMK",
                  "target": "SelfAttackTarget",
                  "enable": true
                }
              ],
              "onRemoved": [
                {
                  "$type": "PDGGLHALCMK",
                  "target": "SelfAttackTarget"
                }
              ]
            }
          ]
        },
        "Monster_Wayob_Hookwalker_CreateSummonAtk_LockTargetEff": {
          "modifierName": "",
          "IPFJJJGABPL": 100.0,
          "onAdded": [
            {
              "$type": "PELJALPANCA",
              "target": "SelfAttackTarget",
              "modifierName": "Monster_Wayob_Hookwalker_CreateSummonAtk_LockTargetEff_Avatar"
            }
          ]
        },
        "Monster_Wayob_Hookwalker_CreateSummonAtk_LockTargetEff_Avatar": {
          "modifierName": "",
          "elementDurability": 0.10000000149011612,
          "IPFJJJGABPL": 100.0,
          "onAdded": [
            {
              "$type": "INBCDALOHMP",
              "targetPredicates": [
                {
                  "$type": "NIMAPECDNKD",
                  "entityTypes": [
                    "Avatar"
                  ]
                }
              ],
              "successActions": [
                {
                  "$type": "PELJALPANCA",
                  "target": "Team",
                  "modifierName": "Monster_Wayob_Hookwalker_CreateSummonAtk_LockTargetEff_Team"
                }
              ],
              "failActions": [
                {
                  "$type": "PELJALPANCA",
                  "modifierName": "Monster_Wayob_Hookwalker_CreateSummonAtk_LockTargetEff_Team"
                }
              ]
            }
          ]
        },
        "Monster_Wayob_Hookwalker_CreateSummonAtk_LockTargetEff_Team": {
          "modifierName": "",
          "elementDurability": 1.2400000095367432,
          "IPFJJJGABPL": 100.0,
          "onAdded": [
            {
              "$type": "ANLOBBMKNIJ",
              "rotationDampTime": "Eff_Monster_Wayob_SummonAttack1_Warning_Grass_02",
              "PPPDJGDDOGD": 1.0,
              "AJDILHJFNKE": -1.0
            }
          ]
        }
      },
      "onAbilityStart": [
        {
          "$type": "MPAGCPPAIHJ",
          "target": "SelfAttackTarget",
          "key": "_SUMMONATK_POS",
          "born": {
            "$type": "JHEBKCMEMLN",
            "onGround": true
          },
          "setTarget": false
        },
        {
          "$type": "KFCDMIMBBLD",
          "born": {
            "$type": "ICKMMAHFNIM",
            "positionKey": "_SUMMONATK_POS",
            "directionKey": ""
          },
          "gadgetID": 42626017
        }
      ]
    }
  },
  {
    "Default": {
      "$type": "CBPBEHLOHKI",
      "abilityName": "Monster_Wayob_Hookwalker_SummonAtk_Explode",
      "modifiers": {
        "Monster_Wayob_Mosasaurus_SummonAtk_Explode": {
          "modifierName": "",
          "elementDurability": 1.5,
          "IPFJJJGABPL": 100.0,
          "onAdded": [
            {
              "$type": "KBFEIHEAMBM",
              "rotationDampTime": "Eff_Monster_Wayob_SummonAttack1_Warning_Grass",
              "PPPDJGDDOGD": 1.0,
              "AJDILHJFNKE": -1.0
            }
          ],
          "onRemoved": [
            {
              "$type": "KBFEIHEAMBM",
              "rotationDampTime": "Eff_Monster_Wayob_SummonAttack1_Attack_Grass",
              "PPPDJGDDOGD": 1.0,
              "AJDILHJFNKE": -1.0
            },
            {
              "$type": "AIFPLABJNMA",
              "attackEvent": {
                "attackPattern": {
                  "$type": "GMDIMKKHACA",
                  "triggerType": "TriggerNoRepeat",
                  "born": {
                    "$type": "IAENDIPDFKD",
                    "offset": {
                      "KGEPIMHBMOL": 0.0,
                      "JEBHCGDPFEJ": 0.0,
                      "LPCHALMFFOD": 0.0
                    },
                    "onGround": true,
                    "useRotation": true
                  },
                  "height": 3.0,
                  "OAHPDLJIADP": 5.0
                },
                "attackInfo": {
                  "attackTag": "DebuffAtk",
                  "attenuationTag": "SummonAtkGrass",
                  "attenuationGroup": "Eremite_Oracle_FunneAttack",
                  "attackProperty": {
                    "actorGrassSubHurtDelta": 0.8999999761581421,
                    "actorWindSubHurtDelta": 0.0,
                    "elementType": "Grass",
                    "IPFJJJGABPL": 25.0,
                    "strikeType": "Blunt",
                    "enBreak": 120.0,
                    "GLKMCMDJBIK": 0.0
                  },
                  "hitPattern": {
                    "onHitEffectName": "default",
                    "hitImpulseY": "",
                    "hitImpulseType": "LV5"
                  }
                }
              },
              "targetType": "Enemy"
            },
            {
              "$type": "PELJALPANCA",
              "modifierName": "Monster_Wayob_Mosasaurus_SummonAtk_Explode2"
            }
          ]
        },
        "Monster_Wayob_Mosasaurus_SummonAtk_Explode2": {
          "modifierName": "",
          "elementDurability": 0.5,
          "IPFJJJGABPL": 100.0,
          "onRemoved": [
            {
              "$type": "AIFPLABJNMA",
              "attackEvent": {
                "attackPattern": {
                  "$type": "GMDIMKKHACA",
                  "triggerType": "TriggerNoRepeat",
                  "born": {
                    "$type": "IAENDIPDFKD",
                    "offset": {
                      "KGEPIMHBMOL": 0.0,
                      "JEBHCGDPFEJ": 0.0,
                      "LPCHALMFFOD": 0.0
                    },
                    "onGround": true,
                    "useRotation": true
                  },
                  "height": 3.0,
                  "OAHPDLJIADP": 7.0,
                  "MMBCLAEOEFB": 5.0
                },
                "attackInfo": {
                  "attackTag": "",
                  "attenuationTag": "SummonAtkGrass",
                  "attenuationGroup": "Eremite_Oracle_FunneAttack",
                  "attackProperty": {
                    "actorGrassSubHurtDelta": 0.8999999761581421,
                    "actorWindSubHurtDelta": 0.0,
                    "elementType": "Grass",
                    "IPFJJJGABPL": 25.0,
                    "strikeType": "Blunt",
                    "enBreak": 120.0,
                    "GLKMCMDJBIK": 0.0
                  },
                  "hitPattern": {
                    "onHitEffectName": "default",
                    "hitImpulseY": "",
                    "hitImpulseType": "LV5"
                  }
                }
              },
              "targetType": "Enemy"
            },
            {
              "$type": "PELJALPANCA",
              "modifierName": "Monster_Wayob_Mosasaurus_SummonAtk_Explode3"
            }
          ]
        },
        "Monster_Wayob_Mosasaurus_SummonAtk_Explode3": {
          "modifierName": "",
          "elementDurability": 0.5,
          "IPFJJJGABPL": 100.0,
          "onRemoved": [
            {
              "$type": "AIFPLABJNMA",
              "attackEvent": {
                "attackPattern": {
                  "$type": "GMDIMKKHACA",
                  "triggerType": "TriggerNoRepeat",
                  "born": {
                    "$type": "IAENDIPDFKD",
                    "offset": {
                      "KGEPIMHBMOL": 0.0,
                      "JEBHCGDPFEJ": 0.0,
                      "LPCHALMFFOD": 0.0
                    },
                    "onGround": true,
                    "useRotation": true
                  },
                  "height": 3.0,
                  "OAHPDLJIADP": 9.0,
                  "MMBCLAEOEFB": 7.0
                },
                "attackInfo": {
                  "attackTag": "",
                  "attenuationTag": "SummonAtkGrass",
                  "attenuationGroup": "Eremite_Oracle_FunneAttack",
                  "attackProperty": {
                    "actorGrassSubHurtDelta": 0.8999999761581421,
                    "actorWindSubHurtDelta": 0.0,
                    "elementType": "Grass",
                    "IPFJJJGABPL": 25.0,
                    "strikeType": "Blunt",
                    "enBreak": 120.0,
                    "GLKMCMDJBIK": 0.0
                  },
                  "hitPattern": {
                    "onHitEffectName": "default",
                    "hitImpulseY": "",
                    "hitImpulseType": "LV5"
                  }
                }
              },
              "targetType": "Enemy"
            }
          ]
        }
      },
      "onAdded": [
        {
          "$type": "PELJALPANCA",
          "modifierName": "Monster_Wayob_Mosasaurus_SummonAtk_Explode"
        }
      ]
    }
  },
  {
    "Default": {
      "$type": "CBPBEHLOHKI",
      "abilityName": "Monster_Wayob_Drillhead_FieldAttack_Grass",
      "abilityMixins": [
        {
          "$type": "EKMHJKDLBJH",
          "stateIDs": [
            "ReleaseField_BS",
            "ReleaseField_Loop"
          ],
          "modifierName": "Monster_Wayob_Drillhead_FieldAttack_Grass",
          "DGFCLAIDIFI": ""
        },
        {
          "$type": "EKMHJKDLBJH",
          "stateIDs": [
            "ReleaseField_BS"
          ],
          "modifierName": "Monster_Wayob_Drillhead_FieldDuration_SwitchHitBox",
          "DGFCLAIDIFI": ""
        },
        {
          "$type": "NAFEDCNOIGL",
          "stateID": "SummonAttack2_BS",
          "modifierName": "Monster_Wayob_Drillhead_SummonAtk_PlusAtk",
          "normalizeStart": 0.18000000715255737,
          "normalizeEnd": 0.5,
          "DGFCLAIDIFI": ""
        }
      ],
      "modifiers": {
        "Monster_Wayob_Drillhead_SummonAtk_PlusAtk": {
          "modifierName": "",
          "IPFJJJGABPL": 100.0,
          "onAdded": [
            {
              "$type": "CAKDDHLKOAB",
              "bulletID": 42626001,
              "born": {
                "$type": "IAENDIPDFKD",
                "direction": {
                  "$type": "LEIHCELGBNN",
                  "angleOffsetCorrect": {
                    "KGEPIMHBMOL": 0.0,
                    "JEBHCGDPFEJ": 45.0,
                    "LPCHALMFFOD": 0.0
                  },
                  "useCorrectDir": true
                },
                "useRotation": true
              },
              "lifeByOwnerV2": true
            },
            {
              "$type": "KBFEIHEAMBM",
              "rotationDampTime": "Eff_Monster_Wayob_Field_ChargeAttack_Rock",
              "born": {
                "$type": "IAENDIPDFKD",
                "direction": {
                  "$type": "LEIHCELGBNN",
                  "angleOffsetCorrect": {
                    "KGEPIMHBMOL": 0.0,
                    "JEBHCGDPFEJ": 45.0,
                    "LPCHALMFFOD": 0.0
                  },
                  "useCorrectDir": true
                },
                "useRotation": true
              },
              "PPPDJGDDOGD": 1.0,
              "AJDILHJFNKE": -1.0
            },
            {
              "$type": "KBFEIHEAMBM",
              "rotationDampTime": "Eff_Monster_Wayob_Field_ChargeAttack_BS_Rock",
              "PPPDJGDDOGD": 1.0,
              "AJDILHJFNKE": -1.0
            }
          ]
        },
        "Monster_Wayob_Drillhead_FieldDuration_SwitchHitBox": {
          "modifierName": "",
          "IPFJJJGABPL": 100.0,
          "modifierMixins": [
            {
              "$type": "CIGJDPCDOEB",
              "onAdded": [
                {
                  "$type": "AENLGPIPPAK",
                  "hitBoxNames": [
                    "HitBoxSP"
                  ],
                  "setEnable": true
                },
                {
                  "$type": "FDFGJPNDKEA",
                  "pushColliderNames": [
                    "PushColliderSP"
                  ],
                  "setEnable": true
                }
              ],
              "onRemoved": [
                {
                  "$type": "AENLGPIPPAK",
                  "hitBoxNames": [
                    "HitBoxSP"
                  ]
                },
                {
                  "$type": "FDFGJPNDKEA",
                  "pushColliderNames": [
                    "PushColliderSP"
                  ]
                }
              ]
            }
          ]
        },
        "Monster_Wayob_Drillhead_FieldAttack_Grass": {
          "modifierName": "",
          "IPFJJJGABPL": 100.0,
          "thinkInterval": 4.0,
          "onAdded": [
            {
              "$type": "BOBCOJHOKKD",
              "param3": 0.0,
              "key": "_WAYOB_FIELD_ATTACK_TYPE",
              "param2": 0.0,
              "repeatTimes": 0.0
            }
          ],
          "onThinkInterval": [
            {
              "$type": "INBCDALOHMP",
              "targetPredicates": [
                {
                  "$type": "CNGGLKHONAA",
                  "key": "_WAYOB_FIELD_ATTACK_TYPE",
                  "param3": 0.0
                }
              ],
              "successActions": [
                {
                  "$type": "CAKDDHLKOAB",
                  "bulletID": 42626011,
                  "born": {
                    "$type": "IAENDIPDFKD",
                    "direction": {
                      "$type": "LEIHCELGBNN",
                      "angleOffsetCorrect": {
                        "KGEPIMHBMOL": 0.0,
                        "JEBHCGDPFEJ": 45.0,
                        "LPCHALMFFOD": 0.0
                      },
                      "useCorrectDir": true
                    },
                    "useRotation": true
                  },
                  "lifeByOwnerV2": true
                }
              ]
            },
            {
              "$type": "INBCDALOHMP",
              "targetPredicates": [
                {
                  "$type": "CNGGLKHONAA",
                  "key": "_WAYOB_FIELD_ATTACK_TYPE",
                  "param3": 1.0
                }
              ],
              "successActions": [
                {
                  "$type": "CAKDDHLKOAB",
                  "bulletID": 42626011,
                  "born": {
                    "$type": "IAENDIPDFKD",
                    "useRotation": true
                  },
                  "lifeByOwnerV2": true
                }
              ]
            },
            {
              "$type": "LCOEFEMOHLP",
              "param3": 1.0,
              "key": "_WAYOB_FIELD_ATTACK_TYPE",
              "useLimitRange": true,
              "param2": 2.0,
              "repeatTimes": 0.0
            },
            {
              "$type": "BOBCOJHOKKD",
              "predicates": [
                {
                  "$type": "CNGGLKHONAA",
                  "key": "_WAYOB_FIELD_ATTACK_TYPE",
                  "param3": 2.0
                }
              ],
              "param3": 0.0,
              "key": "_WAYOB_FIELD_ATTACK_TYPE",
              "param2": 0.0,
              "repeatTimes": 0.0
            }
          ]
        }
      }
    }
  },
  {
    "Default": {
      "$type": "CBPBEHLOHKI",
      "abilityName": "Monster_Wayob_FieldAttack_Bullet_Grass",
      "onAbilityStart": [
        {
          "$type": "CCNPNMMONDO",
          "target": "Other",
          "doAfterDie": false,
          "born": {
            "$type": "JHEBKCMEMLN",
            "offset": {
              "KGEPIMHBMOL": 0.0,
              "JEBHCGDPFEJ": 1.5,
              "LPCHALMFFOD": 0.0
            }
          },
          "attackInfo": {
            "attackTag": "FieldAttack",
            "attenuationTag": "",
            "attenuationGroup": "default",
            "attackProperty": {
              "actorGrassSubHurtDelta": 0.5,
              "actorWindSubHurtDelta": 0.0,
              "elementType": "Grass",
              "IPFJJJGABPL": 25.0,
              "strikeType": "Blunt",
              "enBreak": 101.0,
              "attackType": "Melee",
              "GLKMCMDJBIK": 0.0
            },
            "hitPattern": {
              "onHitEffectName": "default",
              "hitImpulseY": "",
              "hitImpulseType": "LV4",
              "retreatType": "ByHitDirection"
            },
            "canBeModifiedBy": "OriginOwner"
          }
        }
      ]
    }
  },
  {
    "Default": {
      "$type": "CBPBEHLOHKI",
      "abilityName": "Monster_Wayob_FieldAttack_Bullet_GrassControl",
      "modifiers": {
        "Monster_Wayob_FieldAttack_Bullet_GrassControl": {
          "modifierName": "",
          "elementDurability": 1.5,
          "IPFJJJGABPL": 100.0,
          "onAdded": [
            {
              "$type": "KBFEIHEAMBM",
              "rotationDampTime": "Eff_Monster_Wayob_Field_ChargeAttack_Grass",
              "born": {
                "$type": "IAENDIPDFKD",
                "direction": {
                  "$type": "LEIHCELGBNN",
                  "angleOffset": {
                    "KGEPIMHBMOL": 0.0,
                    "JEBHCGDPFEJ": 90.0,
                    "LPCHALMFFOD": 0.0
                  },
                  "useCorrectDir": true
                },
                "useRotation": true
              },
              "PPPDJGDDOGD": 1.0,
              "AJDILHJFNKE": -1.0
            },
            {
              "$type": "KBFEIHEAMBM",
              "rotationDampTime": "Eff_Monster_Wayob_Field_ChargeAttack_Grass",
              "born": {
                "$type": "IAENDIPDFKD",
                "direction": {
                  "$type": "LEIHCELGBNN",
                  "angleOffset": {
                    "KGEPIMHBMOL": 0.0,
                    "JEBHCGDPFEJ": -90.0,
                    "LPCHALMFFOD": 0.0
                  },
                  "useCorrectDir": true
                },
                "useRotation": true
              },
              "PPPDJGDDOGD": 1.0,
              "AJDILHJFNKE": -1.0
            },
            {
              "$type": "KBFEIHEAMBM",
              "rotationDampTime": "Eff_Monster_Wayob_Field_ChargeAttack_Grass",
              "born": {
                "$type": "IAENDIPDFKD",
                "direction": {
                  "$type": "LEIHCELGBNN",
                  "angleOffset": {
                    "KGEPIMHBMOL": 0.0,
                    "JEBHCGDPFEJ": 180.0,
                    "LPCHALMFFOD": 0.0
                  },
                  "useCorrectDir": true
                },
                "useRotation": true
              },
              "PPPDJGDDOGD": 1.0,
              "AJDILHJFNKE": -1.0
            },
            {
              "$type": "KBFEIHEAMBM",
              "rotationDampTime": "Eff_Monster_Wayob_Field_ChargeAttack_Grass",
              "PPPDJGDDOGD": 1.0,
              "AJDILHJFNKE": -1.0
            },
            {
              "$type": "KBFEIHEAMBM",
              "rotationDampTime": "Eff_Monster_Wayob_Field_ChargeAttack_BS_Grass",
              "PPPDJGDDOGD": 1.0,
              "AJDILHJFNKE": -1.0
            }
          ],
          "onRemoved": [
            {
              "$type": "CAKDDHLKOAB",
              "doAfterDie": false,
              "bulletID": 42626013,
              "born": {
                "$type": "IAENDIPDFKD",
                "useRotation": true
              },
              "lifeByOwnerV2": true
            }
          ]
        }
      },
      "onAdded": [
        {
          "$type": "PELJALPANCA",
          "modifierName": "Monster_Wayob_FieldAttack_Bullet_GrassControl"
        }
      ]
    }
  }
]