[
  {
    "Default": {
      "$type": "CBPBEHLOHKI",
      "abilityName": "Monster_Fungus_Trois_Epsilon_Electric_Steer",
      "abilityMixins": [
        {
          "$type": "IILHMBGONGM",
          "steerStateIDs": [
            "MeleeAttackNormal_BS"
          ],
          "angularSpeed": 240.0,
          "attackTrigger": "",
          "DGFCLAIDIFI": ""
        },
        {
          "$type": "IILHMBGONGM",
          "steerStateIDs": [
            "MeleeAttackOverdose_BS"
          ],
          "angularSpeed": 720.0,
          "attackTrigger": "",
          "DGFCLAIDIFI": ""
        },
        {
          "$type": "IILHMBGONGM",
          "steerStateIDs": [
            "MeleeAttackDecay_BS"
          ],
          "angularSpeed": 120.0,
          "attackTrigger": "",
          "DGFCLAIDIFI": ""
        },
        {
          "$type": "IILHMBGONGM",
          "steerStateIDs": [
            "ChargeNormal_BS"
          ],
          "angularSpeed": 720.0,
          "attackTrigger": "",
          "DGFCLAIDIFI": ""
        },
        {
          "$type": "IILHMBGONGM",
          "steerStateIDs": [
            "ChargeNormal_Loop"
          ],
          "angularSpeed": 720.0,
          "attackTrigger": "",
          "DGFCLAIDIFI": ""
        },
        {
          "$type": "IILHMBGONGM",
          "steerStateIDs": [
            "ChargeOverdose_BS"
          ],
          "angularSpeed": 720.0,
          "attackTrigger": "",
          "DGFCLAIDIFI": ""
        },
        {
          "$type": "IILHMBGONGM",
          "steerStateIDs": [
            "ChargeOverdose_Loop"
          ],
          "angularSpeed": 720.0,
          "attackTrigger": "",
          "DGFCLAIDIFI": ""
        },
        {
          "$type": "IILHMBGONGM",
          "steerStateIDs": [
            "ChargeDecay_BS"
          ],
          "angularSpeed": 540.0,
          "attackTrigger": "",
          "DGFCLAIDIFI": ""
        },
        {
          "$type": "IILHMBGONGM",
          "steerStateIDs": [
            "ChargeDecay_Loop"
          ],
          "angularSpeed": 540.0,
          "attackTrigger": "",
          "DGFCLAIDIFI": ""
        },
        {
          "$type": "IILHMBGONGM",
          "steerStateIDs": [
            "ChargeNormal"
          ],
          "endNormalizedTime": 3.0,
          "angularSpeed": 60.0,
          "attackTrigger": "",
          "DGFCLAIDIFI": ""
        },
        {
          "$type": "IILHMBGONGM",
          "steerStateIDs": [
            "ChargeOverdose"
          ],
          "endNormalizedTime": 2.0,
          "angularSpeed": 60.0,
          "attackTrigger": "",
          "DGFCLAIDIFI": ""
        },
        {
          "$type": "IILHMBGONGM",
          "steerStateIDs": [
            "NormalIdle"
          ],
          "endNormalizedTime": 10.0,
          "angularSpeed": 180.0,
          "attackTrigger": "",
          "DGFCLAIDIFI": ""
        }
      ]
    }
  },
  {
    "Default": {
      "$type": "CBPBEHLOHKI",
      "abilityName": "Monster_Fungus_Trois_Epsilon_Electric_MeleeAttackNormal",
      "abilityMixins": [
        {
          "$type": "EJDKAKLFCPA",
          "stateIDs": [
            "MeleeAttackNormal_BS",
            "MeleeAttackNormal_Loop"
          ],
          "modifierName": "MeleeAttackBSEffect_Normal",
          "DGFCLAIDIFI": ""
        },
        {
          "$type": "EJDKAKLFCPA",
          "stateIDs": [
            "MeleeAttackOverdose_BS",
            "MeleeAttackOverdose_Loop"
          ],
          "modifierName": "MeleeAttackBSEffect_Overdose",
          "DGFCLAIDIFI": ""
        },
        {
          "$type": "EJDKAKLFCPA",
          "stateIDs": [
            "MeleeAttackDecay_Loop"
          ],
          "modifierName": "MeleeAttackBSEffect_Decayed",
          "DGFCLAIDIFI": ""
        }
      ],
      "modifiers": {
        "MeleeAttackBSEffect_Normal": {
          "modifierName": "",
          "IPFJJJGABPL": 100.0,
          "onAdded": [
            {
              "$type": "ANLOBBMKNIJ",
              "rotationDampTime": "Eff_Monster_Fungus_Trois_Gamma_Fire_MeleeAttackNormal_Loop",
              "PPPDJGDDOGD": 1.0,
              "AJDILHJFNKE": -1.0
            }
          ]
        },
        "MeleeAttackBSEffect_Overdose": {
          "modifierName": "",
          "IPFJJJGABPL": 100.0,
          "onAdded": [
            {
              "$type": "ANLOBBMKNIJ",
              "rotationDampTime": "Eff_Monster_Fungus_Trois_Gamma_Fire_MeleeAttackNormal_Loop",
              "PPPDJGDDOGD": 1.0,
              "AJDILHJFNKE": -1.0
            }
          ]
        },
        "MeleeAttackBSEffect_Decayed": {
          "modifierName": "",
          "IPFJJJGABPL": 100.0,
          "onAdded": [
            {
              "$type": "ANLOBBMKNIJ",
              "rotationDampTime": "Eff_Monster_Fungus_Trois_Gamma_Fire_MeleeAttackDecayed_Loop",
              "PPPDJGDDOGD": 1.0,
              "AJDILHJFNKE": -1.0
            }
          ]
        }
      }
    }
  },
  {
    "Default": {
      "$type": "CBPBEHLOHKI",
      "abilityName": "Monster_Fungus_Trois_Epsilon_Electric_ChargeLoop",
      "abilityMixins": [
        {
          "$type": "EJDKAKLFCPA",
          "stateIDs": [
            "ChargeNormal_BS",
            "ChargeNormal_Loop"
          ],
          "modifierName": "ChargeBSLoopEffect_Normal",
          "DGFCLAIDIFI": ""
        },
        {
          "$type": "EJDKAKLFCPA",
          "stateIDs": [
            "ChargeOverdose_BS01",
            "ChargeOverdose_BS02",
            "ChargeOverdose_BS03",
            "ChargeOverdose_Loop01",
            "ChargeOverdose_Loop02",
            "ChargeOverdose_Loop03"
          ],
          "modifierName": "ChargeBSLoopEffect_Overdose",
          "DGFCLAIDIFI": ""
        },
        {
          "$type": "EJDKAKLFCPA",
          "stateIDs": [
            "ChargeDecay_BS",
            "ChargeDecay_Loop"
          ],
          "modifierName": "ChargeBSLoopEffect_Decayed",
          "DGFCLAIDIFI": ""
        },
        {
          "$type": "EJDKAKLFCPA",
          "stateIDs": [
            "ChargeNormal_Attack"
          ],
          "modifierName": "ChargeLoopEffect_Normal",
          "DGFCLAIDIFI": ""
        },
        {
          "$type": "EJDKAKLFCPA",
          "stateIDs": [
            "ChargeOverdose_Attack01",
            "ChargeOverdose_Attack02",
            "ChargeOverdose_Attack03"
          ],
          "modifierName": "ChargeLoopEffect_Overdose",
          "DGFCLAIDIFI": ""
        },
        {
          "$type": "EJDKAKLFCPA",
          "stateIDs": [
            "ChargeDecay_Attack"
          ],
          "modifierName": "ChargeLoopEffect_Decayed",
          "DGFCLAIDIFI": ""
        }
      ],
      "modifiers": {
        "ChargeBSLoopEffect_Normal": {
          "modifierName": "",
          "IPFJJJGABPL": 100.0,
          "onAdded": [
            {
              "$type": "ANLOBBMKNIJ",
              "rotationDampTime": "Eff_Monster_Fungus_Trois_Epsilon_Electric_ChargeNormal_BSLoop",
              "PPPDJGDDOGD": 1.0,
              "AJDILHJFNKE": -1.0
            }
          ]
        },
        "ChargeBSLoopEffect_Overdose": {
          "modifierName": "",
          "IPFJJJGABPL": 100.0,
          "onAdded": [
            {
              "$type": "ANLOBBMKNIJ",
              "rotationDampTime": "Eff_Monster_Fungus_Trois_Epsilon_Electric_ChargeNormal_BSLoop",
              "PPPDJGDDOGD": 1.0,
              "AJDILHJFNKE": -1.0
            }
          ]
        },
        "ChargeBSLoopEffect_Decayed": {
          "modifierName": "",
          "IPFJJJGABPL": 100.0,
          "onAdded": [
            {
              "$type": "ANLOBBMKNIJ",
              "rotationDampTime": "Eff_Monster_Fungus_Trois_Epsilon_Electric_ChargeDecayed_BSLoop",
              "PPPDJGDDOGD": 1.0,
              "AJDILHJFNKE": -1.0
            }
          ]
        },
        "ChargeLoopEffect_Normal": {
          "modifierName": "",
          "IPFJJJGABPL": 100.0,
          "onAdded": [
            {
              "$type": "ANLOBBMKNIJ",
              "rotationDampTime": "Eff_Monster_Fungus_Trois_Epsilon_Electric_ChargeNormal_Loop",
              "PPPDJGDDOGD": 1.0,
              "AJDILHJFNKE": -1.0
            },
            {
              "$type": "ANLOBBMKNIJ",
              "rotationDampTime": "Eff_Monster_Fungus_Trois_Epsilon_Electric_ChargeNormal_Loop_Trail",
              "PPPDJGDDOGD": 1.0,
              "AJDILHJFNKE": -1.0
            }
          ]
        },
        "ChargeLoopEffect_Overdose": {
          "modifierName": "",
          "IPFJJJGABPL": 100.0,
          "onAdded": [
            {
              "$type": "ANLOBBMKNIJ",
              "rotationDampTime": "Eff_Monster_Fungus_Trois_Epsilon_Electric_ChargeNormal_Loop",
              "PPPDJGDDOGD": 1.0,
              "AJDILHJFNKE": -1.0
            },
            {
              "$type": "ANLOBBMKNIJ",
              "rotationDampTime": "Eff_Monster_Fungus_Trois_Epsilon_Electric_ChargeNormal_Loop_Trail",
              "PPPDJGDDOGD": 1.0,
              "AJDILHJFNKE": -1.0
            }
          ]
        },
        "ChargeLoopEffect_Decayed": {
          "modifierName": "",
          "IPFJJJGABPL": 100.0,
          "onAdded": [
            {
              "$type": "ANLOBBMKNIJ",
              "rotationDampTime": "Eff_Monster_Fungus_Trois_Epsilon_Electric_ChargeDecayed_Loop",
              "PPPDJGDDOGD": 1.0,
              "AJDILHJFNKE": -1.0
            },
            {
              "$type": "ANLOBBMKNIJ",
              "rotationDampTime": "Eff_Monster_Fungus_Trois_Epsilon_Electric_ChargeDecayed_Loop_Trail",
              "PPPDJGDDOGD": 1.0,
              "AJDILHJFNKE": -1.0
            }
          ]
        }
      }
    }
  },
  {
    "Default": {
      "$type": "CBPBEHLOHKI",
      "abilityName": "Monster_Fungus_Trois_Epsilon_Electric_HitThrowDropToGround",
      "onAbilityStart": [
        {
          "$type": "INBCDALOHMP",
          "targetPredicates": [
            {
              "$type": "JFLFAEAHLJM",
              "filters": [
                "Water"
              ]
            }
          ],
          "successActions": [
            {
              "$type": "KBFEIHEAMBM",
              "rotationDampTime": "Eff_Monster_Fungus_HitThrowToGround_Water",
              "PPPDJGDDOGD": 1.0,
              "AJDILHJFNKE": -1.0,
              "useRemoteSelfPos": true
            }
          ]
        }
      ]
    }
  }
]