[
  {
    "Default": {
      "$type": "CBPBEHLOHKI",
      "abilityName": "Monster_Shaman_Electric_TotemPose",
      "abilityMixins": [
        {
          "$type": "JCLLHEBBFON",
          "watcherId": 82094,
          "predicates": [
            {
              "$type": "CNGGLKHONAA",
              "target": "Self",
              "key": "_WATCHER_82094_",
              "param3": 1.0
            }
          ]
        }
      ],
      "modifiers": {
        "Pose_Detect": {
          "modifierName": "",
          "IPFJJJGABPL": 100.0,
          "modifierMixins": [
            {
              "$type": "MLJAPFBGEEH",
              "globalValueKey": "_Monster_Shaman_Electric_TotemCount_",
              "gvInTalk": 0.0,
              "valueSteps": [
                -0.5,
                0.5,
                3.5,
                4.5
              ],
              "modifierNameSteps": [
                "Pose_NoTotem",
                "Pose_LessTotem",
                "Pose_MaxTotem"
              ]
            }
          ]
        },
        "Pose_Elite_Detect": {
          "modifierName": "",
          "IPFJJJGABPL": 100.0,
          "modifierMixins": [
            {
              "$type": "MLJAPFBGEEH",
              "globalValueKey": "_Monster_Shaman_Electric_TotemCount_",
              "gvInTalk": 0.0,
              "valueSteps": [
                -0.5,
                0.5,
                5.5,
                10.5
              ],
              "modifierNameSteps": [
                "Pose_NoTotem",
                "Pose_LessTotem",
                "Pose_MaxTotem"
              ]
            }
          ]
        },
        "Pose_NoTotem": {
          "modifierName": "",
          "IPFJJJGABPL": 100.0,
          "onAdded": [
            {
              "$type": "IDNGFEEBPAM",
              "boolID": "HasTotem"
            },
            {
              "$type": "IPMMJGMONCI",
              "skillIDs": [
                201,
                202
              ]
            },
            {
              "$type": "BOBCOJHOKKD",
              "param3": 1.0,
              "key": "_WATCHER_82094_",
              "param2": 0.0,
              "repeatTimes": 0.0
            }
          ],
          "onRemoved": [
            {
              "$type": "BOBCOJHOKKD",
              "param3": 0.0,
              "key": "_WATCHER_82094_",
              "param2": 0.0,
              "repeatTimes": 0.0
            }
          ]
        },
        "Pose_LessTotem": {
          "modifierName": "",
          "IPFJJJGABPL": 100.0,
          "onAdded": [
            {
              "$type": "IDNGFEEBPAM",
              "boolID": "HasTotem",
              "param3": true
            },
            {
              "$type": "IDNGFEEBPAM",
              "boolID": "MaxTotem"
            }
          ]
        },
        "Pose_MaxTotem": {
          "modifierName": "",
          "IPFJJJGABPL": 100.0,
          "onAdded": [
            {
              "$type": "IDNGFEEBPAM",
              "boolID": "HasTotem",
              "param3": true
            },
            {
              "$type": "IDNGFEEBPAM",
              "boolID": "MaxTotem",
              "param3": true
            },
            {
              "$type": "IPMMJGMONCI",
              "skillIDs": [
                301,
                302
              ]
            }
          ]
        }
      },
      "onAdded": [
        {
          "$type": "PELJALPANCA",
          "predicates": [
            {
              "$type": "CNGGLKHONAA",
              "target": "Self",
              "key": "_ELITEAFFIX_SUPPORT_ENHANCE",
              "param3": 0.0,
              "compareType": "NoneOrEqual"
            }
          ],
          "modifierName": "Pose_Detect"
        },
        {
          "$type": "PELJALPANCA",
          "predicates": [
            {
              "$type": "CNGGLKHONAA",
              "target": "Self",
              "key": "_ELITEAFFIX_SUPPORT_ENHANCE",
              "param3": 1.0
            }
          ],
          "modifierName": "Pose_Elite_Detect"
        }
      ]
    }
  },
  {
    "Default": {
      "$type": "CBPBEHLOHKI",
      "abilityName": "Monster_Shaman_Electric_EscapePose",
      "abilityMixins": [
        {
          "$type": "MLJAPFBGEEH",
          "globalValueKey": "_Monster_Shaman_Electric_EscapeTag_",
          "gvInTalk": 0.0,
          "valueSteps": [
            -0.5,
            0.5,
            1.5
          ],
          "modifierNameSteps": [
            "Pose_EscapeOut",
            "Pose_EscapeIn"
          ]
        },
        {
          "$type": "EKMHJKDLBJH",
          "stateIDs": [
            "MeleeAttack"
          ],
          "modifierName": "EscapePoseHandler",
          "DGFCLAIDIFI": ""
        }
      ],
      "modifiers": {
        "EscapePoseHandler": {
          "modifierName": "",
          "IPFJJJGABPL": 100.0,
          "onAdded": [
            {
              "$type": "PELJALPANCA",
              "modifierName": "EscapePoseTimer"
            }
          ]
        },
        "EscapePoseTimer": {
          "modifierName": "",
          "elementDurability": 6.0,
          "IPFJJJGABPL": 100.0,
          "onAdded": [
            {
              "$type": "BOBCOJHOKKD",
              "param3": 1.0,
              "key": "_Monster_Shaman_Electric_EscapeTag_",
              "param2": 0.0,
              "repeatTimes": 0.0
            }
          ],
          "onRemoved": [
            {
              "$type": "BOBCOJHOKKD",
              "param3": 0.0,
              "key": "_Monster_Shaman_Electric_EscapeTag_",
              "param2": 0.0,
              "repeatTimes": 0.0
            }
          ],
          "onBeingHit": [
            {
              "$type": "BOBCOJHOKKD",
              "param3": 0.0,
              "key": "_Monster_Shaman_Electric_EscapeTag_",
              "param2": 0.0,
              "repeatTimes": 0.0
            },
            {
              "$type": "PFKNEFGOHIH",
              "modifierName": "EscapePoseHandler"
            }
          ]
        },
        "Pose_EscapeOut": {
          "modifierName": "",
          "IPFJJJGABPL": 100.0,
          "onAdded": [
            {
              "$type": "IDNGFEEBPAM",
              "boolID": "EscapeState"
            }
          ]
        },
        "Pose_EscapeIn": {
          "modifierName": "",
          "IPFJJJGABPL": 100.0,
          "onAdded": [
            {
              "$type": "IDNGFEEBPAM",
              "boolID": "EscapeState",
              "param3": true
            }
          ]
        }
      },
      "onAdded": [
        {
          "$type": "BOBCOJHOKKD",
          "param3": 0.0,
          "key": "_Monster_Shaman_Electric_EscapeTag_",
          "param2": 0.0,
          "repeatTimes": 0.0
        }
      ]
    }
  },
  {
    "Default": {
      "$type": "CBPBEHLOHKI",
      "abilityName": "Monster_Shaman_Electric_NormalAttack",
      "abilityMixins": [
        {
          "$type": "EKMHJKDLBJH",
          "stateIDs": [
            "NormalAttack_BS"
          ],
          "modifierName": "NormalAttack_SummonTotemHandler",
          "DGFCLAIDIFI": ""
        }
      ],
      "modifiers": {
        "NormalAttack_SummonTotemHandler": {
          "modifierName": "",
          "IPFJJJGABPL": 100.0,
          "onAdded": [
            {
              "$type": "PELJALPANCA",
              "modifierName": "NormalAttack_SummonTotemDelay"
            }
          ]
        },
        "NormalAttack_SummonTotemDelay": {
          "modifierName": "",
          "elementDurability": 0.3499999940395355,
          "IPFJJJGABPL": 100.0,
          "onRemoved": [
            {
              "$type": "PELJALPANCA",
              "modifierName": "NormalAttack_SummonTotem"
            }
          ]
        },
        "NormalAttack_SummonTotem": {
          "modifierName": "",
          "elementDurability": 0.20000000298023224,
          "IPFJJJGABPL": 100.0,
          "onAdded": [
            {
              "$type": "KFCDMIMBBLD",
              "target": "SelfAttackTarget",
              "predicates": [
                {
                  "$type": "CNGGLKHONAA",
                  "target": "Self",
                  "key": "_ELITEAFFIX_SUPPORT_ENHANCE",
                  "param3": 0.0,
                  "compareType": "NoneOrEqual"
                }
              ],
              "lifeByOwnerIsAlive": true,
              "born": {
                "$type": "JHEBKCMEMLN",
                "offset": {
                  "KGEPIMHBMOL": 0.0,
                  "JEBHCGDPFEJ": 0.0,
                  "LPCHALMFFOD": 3.5
                },
                "bornRandom": {
                  "$type": "OJKHDGHBNKP",
                  "minRandomRange": 0.0,
                  "maxRandomRange": 1.5
                },
                "onGround": true
              },
              "gadgetID": 42103016,
              "campID": 4001,
              "byServer": true
            },
            {
              "$type": "KFCDMIMBBLD",
              "target": "SelfAttackTarget",
              "predicates": [
                {
                  "$type": "CNGGLKHONAA",
                  "target": "Self",
                  "key": "_ELITEAFFIX_SUPPORT_ENHANCE",
                  "param3": 1.0
                }
              ],
              "lifeByOwnerIsAlive": true,
              "born": {
                "$type": "JHEBKCMEMLN",
                "offset": {
                  "KGEPIMHBMOL": 1.0,
                  "JEBHCGDPFEJ": 0.0,
                  "LPCHALMFFOD": 2.5
                },
                "bornRandom": {
                  "$type": "OJKHDGHBNKP",
                  "minRandomRange": 0.5,
                  "maxRandomRange": 2.5
                },
                "onGround": true
              },
              "gadgetID": 42103016,
              "campID": 4001,
              "byServer": true
            },
            {
              "$type": "KFCDMIMBBLD",
              "target": "SelfAttackTarget",
              "predicates": [
                {
                  "$type": "CNGGLKHONAA",
                  "target": "Self",
                  "key": "_ELITEAFFIX_SUPPORT_ENHANCE",
                  "param3": 1.0
                }
              ],
              "lifeByOwnerIsAlive": true,
              "born": {
                "$type": "JHEBKCMEMLN",
                "offset": {
                  "KGEPIMHBMOL": -1.5,
                  "JEBHCGDPFEJ": 0.0,
                  "LPCHALMFFOD": -1.2000000476837158
                },
                "bornRandom": {
                  "$type": "OJKHDGHBNKP",
                  "minRandomRange": 0.5,
                  "maxRandomRange": 2.5
                },
                "onGround": true
              },
              "gadgetID": 42103016,
              "campID": 4001,
              "byServer": true
            }
          ]
        }
      },
      "onAdded": [
        {
          "$type": "BOBCOJHOKKD",
          "param3": 0.0,
          "key": "_Monster_Shaman_Electric_TotemCount_",
          "param2": 0.0,
          "repeatTimes": 0.0
        }
      ]
    }
  },
  {
    "Default": {
      "$type": "CBPBEHLOHKI",
      "abilityName": "Shaman_Electric_TotemSummon",
      "modifiers": {
        "Eff_DamageAlert": {
          "modifierName": "",
          "elementDurability": 1.0,
          "IPFJJJGABPL": 100.0,
          "onAdded": [
            {
              "$type": "ANLOBBMKNIJ",
              "rotationDampTime": "Eff_Monster_Shaman_Electric_NormalAttack_Alert",
              "born": {
                "$type": "IAENDIPDFKD",
                "offset": {
                  "KGEPIMHBMOL": 0.0,
                  "JEBHCGDPFEJ": 0.0,
                  "LPCHALMFFOD": 0.0
                },
                "onGround": true,
                "alongGround": true
              },
              "PPPDJGDDOGD": 1.0,
              "AJDILHJFNKE": -1.0
            }
          ],
          "onRemoved": [
            {
              "$type": "PELJALPANCA",
              "modifierName": "TotemDamage_Summon"
            }
          ]
        },
        "TotemDamage_Summon": {
          "modifierName": "",
          "elementDurability": 0.15000000596046448,
          "IPFJJJGABPL": 100.0,
          "onAdded": [
            {
              "$type": "KBFEIHEAMBM",
              "rotationDampTime": "Eff_Monster_Shaman_Electric_NormalAttack_Thunder",
              "PPPDJGDDOGD": 1.0,
              "AJDILHJFNKE": -1.0
            }
          ],
          "onRemoved": [
            {
              "$type": "AIFPLABJNMA",
              "attackEvent": {
                "attackPattern": {
                  "$type": "BELNOFAKNBA",
                  "triggerType": "TriggerNoRepeat",
                  "ignoreMassive": true,
                  "born": {
                    "$type": "IAENDIPDFKD",
                    "offset": {
                      "KGEPIMHBMOL": 0.0,
                      "JEBHCGDPFEJ": 0.0,
                      "LPCHALMFFOD": 0.0
                    }
                  },
                  "OAHPDLJIADP": 1.0
                },
                "attackInfo": {
                  "attackTag": "",
                  "attenuationTag": "",
                  "attenuationGroup": "default",
                  "attackProperty": {
                    "actorGrassSubHurtDelta": 0.5,
                    "actorWindSubHurtDelta": 0.0,
                    "elementType": "Electric",
                    "IPFJJJGABPL": 25.0,
                    "strikeType": "Blunt",
                    "enBreak": 1.0,
                    "GLKMCMDJBIK": 0.0
                  },
                  "hitPattern": {
                    "onHitEffectName": "default",
                    "hitImpulseY": "",
                    "hitImpulseType": "LV3",
                    "hitHaltTimeScale": 0.009999999776482582
                  },
                  "cameraShake": {
                    "shakeRange": 0.05999999865889549,
                    "shakeTime": 0.09000000357627869
                  },
                  "canBeModifiedBy": "OriginOwner"
                }
              },
              "targetType": "Enemy"
            },
            {
              "$type": "PELJALPANCA",
              "modifierName": "Eff_TotemLoop"
            }
          ]
        },
        "Eff_TotemLoop": {
          "modifierName": "",
          "IPFJJJGABPL": 100.0,
          "onAdded": [
            {
              "$type": "ANLOBBMKNIJ",
              "rotationDampTime": "Eff_Monster_Shaman_Electric_TotemBS",
              "born": {
                "$type": "KLPANPDGHHA",
                "offset": {
                  "KGEPIMHBMOL": 0.0,
                  "JEBHCGDPFEJ": 0.0,
                  "LPCHALMFFOD": 0.0
                },
                "attachPointName": "RootNode"
              },
              "PPPDJGDDOGD": 1.0,
              "AJDILHJFNKE": -1.0
            },
            {
              "$type": "ANLOBBMKNIJ",
              "rotationDampTime": "Eff_Monster_Shaman_Electric_TotemLoop",
              "born": {
                "$type": "KLPANPDGHHA",
                "offset": {
                  "KGEPIMHBMOL": 0.0,
                  "JEBHCGDPFEJ": 0.0,
                  "LPCHALMFFOD": 0.0
                },
                "attachPointName": "RootNode"
              },
              "PPPDJGDDOGD": 1.0,
              "AJDILHJFNKE": -1.0
            }
          ]
        },
        "TotemLifeHandler": {
          "modifierName": "",
          "elementDurability": 35.0,
          "IPFJJJGABPL": 100.0,
          "onRemoved": [
            {
              "$type": "LCOEFEMOHLP",
              "target": "Owner",
              "predicates": [
                {
                  "$type": "CNGGLKHONAA",
                  "target": "Owner",
                  "key": "_ELITEAFFIX_SUPPORT_ENHANCE",
                  "param3": 0.0,
                  "compareType": "NoneOrEqual"
                }
              ],
              "param3": -1.0,
              "key": "_Monster_Shaman_Electric_TotemCount_",
              "useLimitRange": true,
              "param2": 4.0,
              "repeatTimes": 0.0
            },
            {
              "$type": "LCOEFEMOHLP",
              "target": "Owner",
              "predicates": [
                {
                  "$type": "CNGGLKHONAA",
                  "target": "Owner",
                  "key": "_ELITEAFFIX_SUPPORT_ENHANCE",
                  "param3": 1.0
                }
              ],
              "param3": -1.0,
              "key": "_Monster_Shaman_Electric_TotemCount_",
              "useLimitRange": true,
              "param2": 6.0,
              "repeatTimes": 0.0
            },
            {
              "$type": "NCFFNDHGCMH"
            }
          ]
        }
      },
      "onAdded": [
        {
          "$type": "PELJALPANCA",
          "modifierName": "Eff_DamageAlert"
        },
        {
          "$type": "PELJALPANCA",
          "modifierName": "TotemLifeHandler"
        },
        {
          "$type": "LCOEFEMOHLP",
          "target": "Owner",
          "predicates": [
            {
              "$type": "CNGGLKHONAA",
              "target": "Owner",
              "key": "_ELITEAFFIX_SUPPORT_ENHANCE",
              "param3": 0.0,
              "compareType": "NoneOrEqual"
            }
          ],
          "param3": 1.0,
          "key": "_Monster_Shaman_Electric_TotemCount_",
          "useLimitRange": true,
          "param2": 4.0,
          "repeatTimes": 0.0
        },
        {
          "$type": "LCOEFEMOHLP",
          "target": "Owner",
          "predicates": [
            {
              "$type": "CNGGLKHONAA",
              "target": "Owner",
              "key": "_ELITEAFFIX_SUPPORT_ENHANCE",
              "param3": 1.0
            }
          ],
          "param3": 1.0,
          "key": "_Monster_Shaman_Electric_TotemCount_",
          "useLimitRange": true,
          "param2": 6.0,
          "repeatTimes": 0.0
        }
      ],
      "onKill": [
        {
          "$type": "KBFEIHEAMBM",
          "rotationDampTime": "Eff_Monster_Shaman_Electric_TotemAS",
          "born": {
            "$type": "KLPANPDGHHA",
            "offset": {
              "KGEPIMHBMOL": 0.0,
              "JEBHCGDPFEJ": 0.0,
              "LPCHALMFFOD": 0.0
            },
            "attachPointName": "RootNode"
          },
          "PPPDJGDDOGD": 1.0,
          "AJDILHJFNKE": -1.0
        }
      ]
    }
  },
  {
    "Default": {
      "$type": "CBPBEHLOHKI",
      "abilityName": "Monster_Shaman_Electric_SupportAttack",
      "abilityMixins": [
        {
          "$type": "EKMHJKDLBJH",
          "stateIDs": [
            "SupportAttack_BS",
            "SupportAttack"
          ],
          "modifierName": "SupportAttack_Eff",
          "DGFCLAIDIFI": ""
        }
      ],
      "modifiers": {
        "SupportAttack_ActivatedTotem": {
          "modifierName": "",
          "elementDurability": 0.20000000298023224,
          "IPFJJJGABPL": 100.0,
          "onAdded": [
            {
              "$type": "GJCAPCBELPA",
              "otherTargets": {
                "$type": "MEOIGEJCJLB",
                "configID": 42103016
              },
              "abilityName": "Shaman_Electric_TotemDamage"
            }
          ]
        },
        "SupportAttack_Eff": {
          "modifierName": "",
          "IPFJJJGABPL": 100.0,
          "onAdded": [
            {
              "$type": "PELJALPANCA",
              "modifierName": "SupportAttack_GatherEffect"
            }
          ],
          "onRemoved": [
            {
              "$type": "GFOOGEIKGBI",
              "parameter": "GatherDie",
              "attachPoint": "",
              "rotationDampTime": "Eff_Monster_Shaman_Electric_SupportAttack_Gather"
            }
          ],
          "onKill": [
            {
              "$type": "PFKNEFGOHIH",
              "modifierName": "SupportAttack_Eff"
            }
          ]
        },
        "SupportAttack_GatherEffect": {
          "modifierName": "",
          "elementDurability": 10.0,
          "IPFJJJGABPL": 100.0,
          "onAdded": [
            {
              "$type": "ANLOBBMKNIJ",
              "rotationDampTime": "Eff_Monster_Shaman_Electric_SupportAttack_Gather",
              "born": {
                "$type": "IAENDIPDFKD",
                "onGround": true,
                "alongGround": true
              },
              "PPPDJGDDOGD": 1.0,
              "AJDILHJFNKE": -1.0
            }
          ]
        }
      },
      "onAbilityStart": [
        {
          "$type": "PELJALPANCA",
          "modifierName": "SupportAttack_ActivatedTotem"
        }
      ]
    }
  },
  {
    "Default": {
      "$type": "CBPBEHLOHKI",
      "abilityName": "Monster_Shaman_Electric_SupportAttack_SelfDamage",
      "modifiers": {
        "TotemDamage_SelfDamage_Handler": {
          "modifierName": "",
          "elementDurability": 0.20000000298023224,
          "IPFJJJGABPL": 100.0,
          "onAdded": [
            {
              "$type": "KBFEIHEAMBM",
              "rotationDampTime": "Eff_Monster_Shaman_Electric_WeaponBS",
              "PPPDJGDDOGD": 1.0,
              "AJDILHJFNKE": -1.0
            }
          ],
          "onRemoved": [
            {
              "$type": "KBFEIHEAMBM",
              "rotationDampTime": "Eff_Monster_Shaman_Electric_SupportAttack_Damage",
              "born": {
                "$type": "IAENDIPDFKD",
                "offset": {
                  "KGEPIMHBMOL": 0.0,
                  "JEBHCGDPFEJ": 0.0,
                  "LPCHALMFFOD": 0.0
                },
                "onGround": true,
                "alongGround": true
              },
              "PPPDJGDDOGD": 1.0,
              "AJDILHJFNKE": -1.0
            },
            {
              "$type": "AIFPLABJNMA",
              "attackEvent": {
                "attackPattern": {
                  "$type": "GMDIMKKHACA",
                  "triggerType": "TriggerNoRepeat",
                  "filterByFrame": true,
                  "ignoreMassive": true,
                  "born": {
                    "$type": "IAENDIPDFKD",
                    "offset": {
                      "KGEPIMHBMOL": 0.0,
                      "JEBHCGDPFEJ": 0.0,
                      "LPCHALMFFOD": 0.0
                    }
                  },
                  "height": 1.5,
                  "OAHPDLJIADP": 4.0
                },
                "attackInfo": {
                  "attackTag": "Shaman_Electric_TotemAtk",
                  "attenuationTag": "",
                  "attenuationGroup": "default",
                  "attackProperty": {
                    "actorGrassSubHurtDelta": 0.5,
                    "actorWindSubHurtDelta": 0.0,
                    "elementType": "Electric",
                    "IPFJJJGABPL": 25.0,
                    "strikeType": "Default",
                    "enBreak": 150.0,
                    "attackType": "Range",
                    "GLKMCMDJBIK": 0.0
                  },
                  "hitPattern": {
                    "onHitEffectName": "default",
                    "hitImpulseY": "",
                    "hitImpulseType": "LV3",
                    "overrideHitImpulse": {
                      "hitLevel": "Heavy",
                      "IMIJMPGJOGG": 100.0
                    },
                    "hitHaltTimeScale": 0.019999999552965164
                  },
                  "cameraShake": {
                    "shakeRange": 0.36000001430511475,
                    "shakeTime": 0.11999999731779099,
                    "shakeDistance": 30.0
                  }
                }
              },
              "targetType": "Enemy"
            }
          ]
        }
      },
      "onAbilityStart": [
        {
          "$type": "PELJALPANCA",
          "modifierName": "TotemDamage_SelfDamage_Handler"
        }
      ]
    }
  },
  {
    "Default": {
      "$type": "CBPBEHLOHKI",
      "abilityName": "Shaman_Electric_TotemDamage",
      "modifiers": {
        "TotemDamage_Activated_Handler": {
          "modifierName": "",
          "elementDurability": 0.20000000298023224,
          "IPFJJJGABPL": 100.0,
          "onAdded": [
            {
              "$type": "KBFEIHEAMBM",
              "rotationDampTime": "Eff_Monster_Shaman_Electric_TotemAlert",
              "born": {
                "$type": "KLPANPDGHHA",
                "offset": {
                  "KGEPIMHBMOL": 0.0,
                  "JEBHCGDPFEJ": 0.0,
                  "LPCHALMFFOD": 0.0
                },
                "attachPointName": "RootNode"
              },
              "PPPDJGDDOGD": 1.0,
              "AJDILHJFNKE": -1.0
            },
            {
              "$type": "GFOOGEIKGBI",
              "parameter": "TotemActivated",
              "attachPoint": "",
              "rotationDampTime": "Eff_Monster_Shaman_Electric_TotemBS"
            }
          ],
          "onRemoved": [
            {
              "$type": "PELJALPANCA",
              "modifierName": "TotemDamage_Activated"
            }
          ]
        },
        "TotemDamage_Activated": {
          "modifierName": "",
          "elementDurability": 0.20000000298023224,
          "IPFJJJGABPL": 100.0,
          "onAdded": [
            {
              "$type": "KBFEIHEAMBM",
              "rotationDampTime": "Eff_Monster_Shaman_Electric_SupportAttack_Damage",
              "born": {
                "$type": "IAENDIPDFKD",
                "offset": {
                  "KGEPIMHBMOL": 0.0,
                  "JEBHCGDPFEJ": 0.0,
                  "LPCHALMFFOD": 0.0
                },
                "onGround": true,
                "alongGround": true
              },
              "PPPDJGDDOGD": 1.0,
              "AJDILHJFNKE": -1.0
            },
            {
              "$type": "AIFPLABJNMA",
              "attackEvent": {
                "attackPattern": {
                  "$type": "GMDIMKKHACA",
                  "triggerType": "TriggerNoRepeat",
                  "ignoreMassive": true,
                  "born": {
                    "$type": "IAENDIPDFKD",
                    "offset": {
                      "KGEPIMHBMOL": 0.0,
                      "JEBHCGDPFEJ": 0.0,
                      "LPCHALMFFOD": 0.0
                    }
                  },
                  "height": 1.5,
                  "OAHPDLJIADP": 4.0
                },
                "attackInfo": {
                  "attackTag": "Shaman_Electric_TotemAtk",
                  "attenuationTag": "",
                  "attenuationGroup": "default",
                  "attackProperty": {
                    "actorGrassSubHurtDelta": 0.5,
                    "actorWindSubHurtDelta": 0.0,
                    "elementType": "Electric",
                    "IPFJJJGABPL": 25.0,
                    "strikeType": "Default",
                    "enBreak": 150.0,
                    "attackType": "Range",
                    "GLKMCMDJBIK": 0.0
                  },
                  "hitPattern": {
                    "onHitEffectName": "default",
                    "hitImpulseY": "",
                    "hitImpulseType": "LV3",
                    "overrideHitImpulse": {
                      "hitLevel": "Heavy",
                      "IMIJMPGJOGG": 100.0
                    },
                    "hitHaltTimeScale": 0.019999999552965164
                  },
                  "cameraShake": {
                    "shakeRange": 0.36000001430511475,
                    "shakeTime": 0.11999999731779099,
                    "shakeDistance": 30.0
                  },
                  "canBeModifiedBy": "OriginOwner"
                }
              },
              "targetType": "Enemy"
            }
          ]
        }
      },
      "onAbilityStart": [
        {
          "$type": "PELJALPANCA",
          "modifierName": "TotemDamage_Activated_Handler"
        }
      ]
    }
  },
  {
    "Default": {
      "$type": "CBPBEHLOHKI",
      "abilityName": "Monster_Shaman_Electric_AnimationSteer",
      "abilityMixins": [
        {
          "$type": "IILHMBGONGM",
          "steerStateIDs": [
            "NormalAttack_BS"
          ],
          "angularSpeed": 180.0,
          "attackTrigger": "",
          "attackDistance": 12.0,
          "DGFCLAIDIFI": ""
        },
        {
          "$type": "IILHMBGONGM",
          "steerStateIDs": [
            "SupportAttack_BS"
          ],
          "angularSpeed": 180.0,
          "attackTrigger": "",
          "attackDistance": 12.0,
          "DGFCLAIDIFI": ""
        },
        {
          "$type": "IILHMBGONGM",
          "steerStateIDs": [
            "MeleeAttack"
          ],
          "endNormalizedTime": 0.15000000596046448,
          "angularSpeed": 180.0,
          "attackTrigger": "",
          "attackDistance": 12.0,
          "DGFCLAIDIFI": ""
        },
        {
          "$type": "IILHMBGONGM",
          "steerStateIDs": [
            "Turn"
          ],
          "startNormalizedTime": 0.20000000298023224,
          "endNormalizedTime": 0.75,
          "angularSpeed": 120.0,
          "attackTrigger": "",
          "attackDistance": 12.0,
          "DGFCLAIDIFI": ""
        }
      ]
    }
  },
  {
    "Default": {
      "$type": "CBPBEHLOHKI",
      "abilityName": "Monster_Shaman_Electric_WeaponElementEffect",
      "abilityMixins": [
        {
          "$type": "EKMHJKDLBJH",
          "stateIDs": [
            "NormalAttack_AS"
          ],
          "modifierName": "WeaponEff_NormalAttack",
          "DGFCLAIDIFI": ""
        },
        {
          "$type": "EJDKAKLFCPA",
          "stateIDs": [
            "SupportAttack_Loop"
          ],
          "modifierName": "WeaponEff_SupportAttack",
          "DGFCLAIDIFI": ""
        },
        {
          "$type": "EKMHJKDLBJH",
          "stateIDs": [
            "MeleeAttack"
          ],
          "modifierName": "WeaponEff_MeleeAttack",
          "DGFCLAIDIFI": ""
        },
        {
          "$type": "LEOGLBFIELL",
          "poseIDs": [
            101,
            201,
            202,
            301
          ],
          "modifierName": "WeaponEff_Fight"
        }
      ],
      "modifiers": {
        "WeaponEff_NormalAttack": {
          "modifierName": "",
          "IPFJJJGABPL": 100.0,
          "onKill": [
            {
              "$type": "PFKNEFGOHIH",
              "modifierName": "WeaponEff_NormalAttack"
            }
          ]
        },
        "WeaponEff_SupportAttack": {
          "modifierName": "",
          "IPFJJJGABPL": 100.0,
          "onAdded": [
            {
              "$type": "ANLOBBMKNIJ",
              "rotationDampTime": "Eff_Monster_Shaman_Electric_WeaponLoop",
              "PPPDJGDDOGD": 1.0,
              "AJDILHJFNKE": -1.0
            }
          ],
          "onKill": [
            {
              "$type": "PFKNEFGOHIH",
              "modifierName": "WeaponEff_SupportAttack"
            }
          ]
        },
        "WeaponEff_MeleeAttack": {
          "modifierName": "",
          "IPFJJJGABPL": 100.0,
          "onKill": [
            {
              "$type": "PFKNEFGOHIH",
              "modifierName": "WeaponEff_MeleeAttack"
            }
          ]
        },
        "WeaponEff_Fight": {
          "modifierName": "",
          "IPFJJJGABPL": 100.0,
          "onAdded": [
            {
              "$type": "ANLOBBMKNIJ",
              "rotationDampTime": "Eff_Monster_Shaman_Electric_Weapon",
              "PPPDJGDDOGD": 1.0,
              "AJDILHJFNKE": -1.0
            }
          ],
          "onKill": [
            {
              "$type": "PFKNEFGOHIH",
              "modifierName": "WeaponEff_Fight"
            }
          ]
        }
      }
    }
  },
  {
    "Default": {
      "$type": "CBPBEHLOHKI",
      "abilityName": "Monster_Shaman_Electric_WeaponInit",
      "onAdded": [
        {
          "$type": "GJCAPCBELPA",
          "target": "Owner",
          "abilityName": "Monster_Shaman_Electric_WeaponElementEffect"
        }
      ]
    }
  },
  {
    "Default": {
      "$type": "CBPBEHLOHKI",
      "abilityName": "Monster_Shaman_Electric_EliteSet",
      "modifiers": {
        "UNIQUE_MonsterEliteAffix_DefaultState": {
          "modifierName": "",
          "forceTriggerWhenChangeAuthority": true,
          "IPFJJJGABPL": 100.0,
          "onAdded": [
            {
              "$type": "HNGKOKDJKDL",
              "skillEliteSetID": 1
            }
          ]
        }
      },
      "onAdded": [
        {
          "$type": "PELJALPANCA",
          "predicates": [
            {
              "$type": "CNGGLKHONAA",
              "key": "_ELITEAFFIX_SUPPORT_ENHANCE",
              "param3": 0.0,
              "compareType": "NoneOrEqual"
            }
          ],
          "modifierName": "UNIQUE_MonsterEliteAffix_DefaultState"
        }
      ]
    }
  }
]