[
  {
    "Default": {
      "$type": "CBPBEHLOHKI",
      "abilityName": "Monster_Tribalwarrior_Male_Fat_NoWeapon_SpearThrow_SpearManager",
      "abilityMixins": [
        {
          "$type": "CCNIOPJEHOE",
          "globalValueKey": "_WEAPON_HIDE",
          "valueSteps": [
            -0.5,
            0.5,
            1.5
          ],
          "modifierNameSteps": [
            "WeaponShow",
            "WeaponHide"
          ]
        },
        {
          "$type": "IILHMBGONGM",
          "steerStateIDs": [
            "SpearThrow"
          ],
          "endNormalizedTime": 0.07999999821186066,
          "angularSpeed": 600.0,
          "attackTrigger": "",
          "DGFCLAIDIFI": ""
        },
        {
          "$type": "IILHMBGONGM",
          "steerStateIDs": [
            "SpearThrow"
          ],
          "startNormalizedTime": 0.20999999344348907,
          "endNormalizedTime": 0.28999999165534973,
          "angularSpeed": 480.0,
          "attackTrigger": "",
          "DGFCLAIDIFI": ""
        }
      ],
      "modifiers": {
        "WeaponShow": {
          "modifierName": "",
          "IPFJJJGABPL": 100.0,
          "modifierMixins": [
            {
              "$type": "MLJAPFBGEEH",
              "globalValueKey": "_SPEAR_COUNT",
              "gvInTalk": 2.0,
              "valueSteps": [
                -0.5,
                0.5,
                1.5,
                2.5
              ],
              "modifierNameSteps": [
                "Spear_0",
                "Spear_1",
                "Spear_2"
              ]
            }
          ]
        },
        "WeaponHide": {
          "modifierName": "",
          "IPFJJJGABPL": 100.0,
          "onAdded": [
            {
              "$type": "HMIDGKNOHJM",
              "renderNames": [
                "Spear01",
                "Spear02"
              ]
            },
            {
              "$type": "IDNGFEEBPAM",
              "boolID": "NoSpear",
              "param3": true
            }
          ]
        },
        "Spear_2": {
          "modifierName": "",
          "IPFJJJGABPL": 100.0,
          "onAdded": [
            {
              "$type": "HMIDGKNOHJM",
              "renderNames": [
                "Spear01",
                "Spear02"
              ],
              "setEnable": true
            },
            {
              "$type": "IDNGFEEBPAM",
              "boolID": "NoSpear"
            }
          ]
        },
        "Spear_1": {
          "modifierName": "",
          "IPFJJJGABPL": 100.0,
          "onAdded": [
            {
              "$type": "HMIDGKNOHJM",
              "renderNames": [
                "Spear01"
              ],
              "setEnable": true
            },
            {
              "$type": "HMIDGKNOHJM",
              "renderNames": [
                "Spear02"
              ]
            },
            {
              "$type": "IDNGFEEBPAM",
              "boolID": "NoSpear"
            }
          ]
        },
        "Spear_0": {
          "modifierName": "",
          "IPFJJJGABPL": 100.0,
          "onAdded": [
            {
              "$type": "HMIDGKNOHJM",
              "renderNames": [
                "Spear01",
                "Spear02"
              ]
            },
            {
              "$type": "IDNGFEEBPAM",
              "boolID": "NoSpear",
              "param3": true
            }
          ]
        }
      },
      "onAdded": [
        {
          "$type": "BOBCOJHOKKD",
          "param3": 0.0,
          "key": "_WEAPON_HIDE",
          "param2": 0.0,
          "repeatTimes": 0.0
        }
      ],
      "onAbilityStart": [
        {
          "$type": "LCOEFEMOHLP",
          "param3": -1.0,
          "key": "_SPEAR_COUNT",
          "useLimitRange": true,
          "param2": 2.0,
          "repeatTimes": 0.0
        }
      ]
    }
  },
  {
    "Default": {
      "$type": "CBPBEHLOHKI",
      "abilityName": "Monster_Tribalwarrior_Male_Fat_NoWeapon_SpearThrow_DrillHead",
      "abilityMixins": [
        {
          "$type": "DIDNLIKKLLF",
          "stateIDs": [
            "SpearThrow"
          ],
          "enterActions": [
            {
              "$type": "CAKDDHLKOAB",
              "bulletID": 42555001,
              "born": {
                "$type": "KLPANPDGHHA",
                "useRotation": true,
                "attachPointName": "SpearLock"
              }
            }
          ],
          "DGFCLAIDIFI": ""
        },
        {
          "$type": "HCCJNFOGEKI",
          "oldPatterns": [
            "Monster_Tribalwarrior_Male_Fat_NoWeapon_SpearThrow_Dummy"
          ],
          "newPatterns": [
            "Monster_Tribalwarrior_Male_Fat_NoWeapon_SpearThrow_DrillHead"
          ]
        }
      ],
      "isDynamicAbility": true
    }
  },
  {
    "Default": {
      "$type": "CBPBEHLOHKI",
      "abilityName": "Monster_Tribalwarrior_Spear_Hit_Drillhead",
      "modifiers": {
        "Spear_Logic": {
          "modifierName": "",
          "IPFJJJGABPL": 100.0,
          "onAdded": [
            {
              "$type": "ANLOBBMKNIJ",
              "rotationDampTime": "Eff_Monster_Human_Male_Fat_NoWeapon_Spear_Drillhead_InHand",
              "PPPDJGDDOGD": 1.0,
              "AJDILHJFNKE": -1.0
            },
            {
              "$type": "ANLOBBMKNIJ",
              "rotationDampTime": "Eff_Monster_Human_Male_Fat_NoWeapon_Spear_Trail",
              "PPPDJGDDOGD": 1.0,
              "AJDILHJFNKE": -1.0
            }
          ]
        }
      },
      "onAdded": [
        {
          "$type": "PELJALPANCA",
          "modifierName": "Spear_Logic"
        }
      ],
      "onAbilityStart": [
        {
          "$type": "AIFPLABJNMA",
          "predicates": [
            {
              "$type": "BHFFBBOLCCP",
              "modifierName": "Spear_Logic"
            }
          ],
          "attackEvent": {
            "attackPattern": {
              "$type": "BELNOFAKNBA",
              "triggerType": "TriggerNoRepeat",
              "born": {
                "$type": "JGEBAJLEBMO"
              },
              "OAHPDLJIADP": 0.10000000149011612
            },
            "attackInfo": {
              "attackTag": "",
              "attenuationTag": "",
              "attenuationGroup": "default",
              "attackProperty": {
                "actorGrassSubHurtDelta": 1.0,
                "actorWindSubHurtDelta": 0.0,
                "IPFJJJGABPL": 100.0,
                "strikeType": "Pierce",
                "enBreak": 200.0,
                "attackType": "Melee",
                "GLKMCMDJBIK": 0.0
              },
              "hitPattern": {
                "onHitEffectName": "default",
                "hitImpulseY": "",
                "hitImpulseType": "LV3"
              }
            }
          },
          "targetType": "Enemy"
        },
        {
          "$type": "INBCDALOHMP",
          "target": "Target",
          "targetPredicates": [
            {
              "$type": "HHHMNCNPBDK",
              "predicates": [
                {
                  "$type": "CNGGLKHONAA",
                  "key": "_COMMON_GADGET_ISSUMMON",
                  "param3": 0.0,
                  "compareType": "MoreThan"
                },
                {
                  "$type": "NIMAPECDNKD",
                  "entityTypes": [
                    "Level"
                  ]
                }
              ]
            },
            {
              "$type": "BHFFBBOLCCP",
              "target": "Self",
              "modifierName": "Spear_Logic"
            }
          ],
          "successActions": [
            {
              "$type": "KBFEIHEAMBM",
              "rotationDampTime": "Eff_Monster_Human_Male_Fat_NoWeapon_Spear_Drillhead_HitSpear",
              "born": {
                "$type": "JGEBAJLEBMO",
                "direction": {
                  "$type": "AHGNBAPONLA"
                }
              },
              "PPPDJGDDOGD": 1.0,
              "AJDILHJFNKE": -1.0,
              "useRemoteSelfPos": true
            },
            {
              "$type": "KBFEIHEAMBM",
              "rotationDampTime": "Eff_Monster_Human_Male_Fat_NoWeapon_Spear_Hit",
              "born": {
                "$type": "JGEBAJLEBMO",
                "direction": {
                  "$type": "OANIBLLHFGH"
                }
              },
              "PPPDJGDDOGD": 1.0,
              "AJDILHJFNKE": -1.0,
              "useRemoteSelfPos": true
            },
            {
              "$type": "PFKNEFGOHIH",
              "modifierName": "Spear_Logic"
            }
          ]
        }
      ]
    }
  },
  {
    "Default": {
      "$type": "CBPBEHLOHKI",
      "abilityName": "Monster_Tribalwarrior_Male_Fat_NoWeapon_SpearThrow_Mosasaurus",
      "abilityMixins": [
        {
          "$type": "DIDNLIKKLLF",
          "stateIDs": [
            "SpearThrow"
          ],
          "enterActions": [
            {
              "$type": "CAKDDHLKOAB",
              "bulletID": 42555003,
              "born": {
                "$type": "KLPANPDGHHA",
                "useRotation": true,
                "attachPointName": "SpearLock"
              }
            }
          ],
          "DGFCLAIDIFI": ""
        },
        {
          "$type": "HCCJNFOGEKI",
          "oldPatterns": [
            "Monster_Tribalwarrior_Male_Fat_NoWeapon_SpearThrow_Dummy"
          ],
          "newPatterns": [
            "Monster_Tribalwarrior_Male_Fat_NoWeapon_SpearThrow_Mosasaurus"
          ]
        }
      ],
      "isDynamicAbility": true
    }
  },
  {
    "Default": {
      "$type": "CBPBEHLOHKI",
      "abilityName": "Monster_Tribalwarrior_Spear_Hit_Mosasaurus",
      "modifiers": {
        "Spear_Logic": {
          "modifierName": "",
          "IPFJJJGABPL": 100.0,
          "onAdded": [
            {
              "$type": "ANLOBBMKNIJ",
              "rotationDampTime": "Eff_Monster_Human_Male_Fat_NoWeapon_Spear_Mosasaurus_InHand",
              "PPPDJGDDOGD": 1.0,
              "AJDILHJFNKE": -1.0
            },
            {
              "$type": "ANLOBBMKNIJ",
              "rotationDampTime": "Eff_Monster_Human_Male_Fat_NoWeapon_Spear_Trail",
              "PPPDJGDDOGD": 1.0,
              "AJDILHJFNKE": -1.0
            }
          ]
        }
      },
      "onAdded": [
        {
          "$type": "PELJALPANCA",
          "modifierName": "Spear_Logic"
        }
      ],
      "onAbilityStart": [
        {
          "$type": "AIFPLABJNMA",
          "predicates": [
            {
              "$type": "BHFFBBOLCCP",
              "modifierName": "Spear_Logic"
            }
          ],
          "attackEvent": {
            "attackPattern": {
              "$type": "BELNOFAKNBA",
              "triggerType": "TriggerNoRepeat",
              "born": {
                "$type": "JGEBAJLEBMO"
              },
              "OAHPDLJIADP": 0.10000000149011612
            },
            "attackInfo": {
              "attackTag": "",
              "attenuationTag": "",
              "attenuationGroup": "default",
              "attackProperty": {
                "actorGrassSubHurtDelta": 1.0,
                "actorWindSubHurtDelta": 0.0,
                "IPFJJJGABPL": 100.0,
                "strikeType": "Pierce",
                "enBreak": 200.0,
                "attackType": "Melee",
                "GLKMCMDJBIK": 0.0
              },
              "hitPattern": {
                "onHitEffectName": "default",
                "hitImpulseY": "",
                "hitImpulseType": "LV3"
              }
            }
          },
          "targetType": "Enemy"
        },
        {
          "$type": "INBCDALOHMP",
          "target": "Target",
          "targetPredicates": [
            {
              "$type": "HHHMNCNPBDK",
              "predicates": [
                {
                  "$type": "CNGGLKHONAA",
                  "key": "_COMMON_GADGET_ISSUMMON",
                  "param3": 0.0,
                  "compareType": "MoreThan"
                },
                {
                  "$type": "NIMAPECDNKD",
                  "entityTypes": [
                    "Level"
                  ]
                }
              ]
            },
            {
              "$type": "BHFFBBOLCCP",
              "target": "Self",
              "modifierName": "Spear_Logic"
            }
          ],
          "successActions": [
            {
              "$type": "KBFEIHEAMBM",
              "rotationDampTime": "Eff_Monster_Human_Male_Fat_NoWeapon_Spear_Mosasaurus_HitSpear",
              "born": {
                "$type": "JGEBAJLEBMO",
                "direction": {
                  "$type": "AHGNBAPONLA"
                }
              },
              "PPPDJGDDOGD": 1.0,
              "AJDILHJFNKE": -1.0,
              "useRemoteSelfPos": true
            },
            {
              "$type": "KBFEIHEAMBM",
              "rotationDampTime": "Eff_Monster_Human_Male_Fat_NoWeapon_Spear_Hit",
              "born": {
                "$type": "JGEBAJLEBMO",
                "direction": {
                  "$type": "OANIBLLHFGH"
                }
              },
              "PPPDJGDDOGD": 1.0,
              "AJDILHJFNKE": -1.0,
              "useRemoteSelfPos": true
            },
            {
              "$type": "PFKNEFGOHIH",
              "modifierName": "Spear_Logic"
            }
          ]
        }
      ]
    }
  }
]