[
  {
    "Default": {
      "$type": "CBPBEHLOHKI",
      "abilityName": "Invoker_Herald_Water_AnimatorSteer",
      "abilityMixins": [
        {
          "$type": "IILHMBGONGM",
          "steerStateIDs": [
            "Alert"
          ],
          "endNormalizedTime": 0.30000001192092896,
          "angularSpeed": 180.0,
          "attackTrigger": "",
          "attackDistance": 12.0,
          "DGFCLAIDIFI": ""
        },
        {
          "$type": "IILHMBGONGM",
          "steerStateIDs": [
            "NormalAtkBS"
          ],
          "angularSpeed": 360.0,
          "attackTrigger": "",
          "attackDistance": 12.0,
          "DGFCLAIDIFI": ""
        },
        {
          "$type": "IILHMBGONGM",
          "steerStateIDs": [
            "NormalAtk01"
          ],
          "startNormalizedTime": 0.36000001430511475,
          "endNormalizedTime": 0.4000000059604645,
          "angularSpeed": 180.0,
          "attackTrigger": "",
          "attackDistance": 12.0,
          "DGFCLAIDIFI": ""
        },
        {
          "$type": "IILHMBGONGM",
          "steerStateIDs": [
            "NormalAtk02"
          ],
          "startNormalizedTime": 0.2800000011920929,
          "endNormalizedTime": 0.3050000071525574,
          "angularSpeed": 180.0,
          "attackTrigger": "",
          "attackDistance": 12.0,
          "DGFCLAIDIFI": ""
        },
        {
          "$type": "IILHMBGONGM",
          "steerStateIDs": [
            "NormalAtk03_01"
          ],
          "startNormalizedTime": 0.22499999403953552,
          "endNormalizedTime": 0.24500000476837158,
          "angularSpeed": 600.0,
          "attackTrigger": "",
          "attackDistance": 12.0,
          "DGFCLAIDIFI": ""
        },
        {
          "$type": "IILHMBGONGM",
          "steerStateIDs": [
            "NormalAtk03"
          ],
          "startNormalizedTime": 0.35499998927116394,
          "endNormalizedTime": 0.42500001192092896,
          "angularSpeed": 360.0,
          "attackTrigger": "",
          "attackDistance": 12.0,
          "DGFCLAIDIFI": ""
        },
        {
          "$type": "IILHMBGONGM",
          "steerStateIDs": [
            "SlashAtk01"
          ],
          "startNormalizedTime": 0.05000000074505806,
          "endNormalizedTime": 0.18000000715255737,
          "angularSpeed": 300.0,
          "attackTrigger": "",
          "attackDistance": 12.0,
          "DGFCLAIDIFI": ""
        },
        {
          "$type": "IILHMBGONGM",
          "steerStateIDs": [
            "SlashAtk02"
          ],
          "endNormalizedTime": 0.12999999523162842,
          "angularSpeed": 300.0,
          "attackTrigger": "",
          "attackDistance": 12.0,
          "DGFCLAIDIFI": ""
        },
        {
          "$type": "IILHMBGONGM",
          "steerStateIDs": [
            "ChargeAtk01BS",
            "ChargeAtk01"
          ],
          "endNormalizedTime": 0.2800000011920929,
          "angularSpeed": 180.0,
          "attackTrigger": "",
          "attackDistance": 12.0,
          "DGFCLAIDIFI": ""
        },
        {
          "$type": "IILHMBGONGM",
          "steerStateIDs": [
            "ChargeAtk02BS"
          ],
          "angularSpeed": 360.0,
          "attackTrigger": "",
          "attackDistance": 12.0,
          "DGFCLAIDIFI": ""
        },
        {
          "$type": "IILHMBGONGM",
          "steerStateIDs": [
            "WhirlWindBS"
          ],
          "angularSpeed": 360.0,
          "attackTrigger": "",
          "attackDistance": 12.0,
          "DGFCLAIDIFI": ""
        },
        {
          "$type": "IILHMBGONGM",
          "steerStateIDs": [
            "WhirlWindLoopBS"
          ],
          "startNormalizedTime": 0.75,
          "endNormalizedTime": 0.8849999904632568,
          "angularSpeed": 300.0,
          "attackTrigger": "",
          "attackDistance": 12.0,
          "DGFCLAIDIFI": ""
        },
        {
          "$type": "IILHMBGONGM",
          "steerStateIDs": [
            "WhirlWindAS"
          ],
          "startNormalizedTime": 0.10000000149011612,
          "endNormalizedTime": 0.12999999523162842,
          "angularSpeed": 1200.0,
          "attackTrigger": "",
          "attackDistance": 12.0,
          "DGFCLAIDIFI": ""
        },
        {
          "$type": "BEJLNHKNIKK",
          "steerStateIDs": [
            "RushMoveBS",
            "RushMove",
            "RushMoveAS"
          ],
          "endNormalizedTime": 0.5,
          "angularSpeed": 180.0,
          "attackTrigger": "",
          "attackDistance": 12.0,
          "DGFCLAIDIFI": ""
        }
      ]
    }
  },
  {
    "Default": {
      "$type": "CBPBEHLOHKI",
      "abilityName": "Invoker_Herald_Water_EquipController",
      "abilityMixins": [
        {
          "$type": "EKMHJKDLBJH",
          "stateIDs": [
            "NormalAtk01",
            "NormalAtk02",
            "NormalAtk03_02",
            "SlashAtk02",
            "ChargeAtk01",
            "ChargeAtk02",
            "WhirlWind",
            "WhirlWindLoopBS",
            "WhirlWindLoop",
            "WhirlWindAS",
            "Transform"
          ],
          "modifierName": "Invoker_Herald_Water_EquipControllerR",
          "DGFCLAIDIFI": ""
        },
        {
          "$type": "EKMHJKDLBJH",
          "stateIDs": [
            "NormalAtk03_01",
            "NormalAtk03_02",
            "SlashAtk01",
            "ChargeAtk01",
            "ChargeAtk02",
            "WhirlWind",
            "WhirlWindLoopBS",
            "WhirlWindLoop",
            "WhirlWindAS",
            "Transform"
          ],
          "modifierName": "Invoker_Herald_Water_EquipControllerL",
          "DGFCLAIDIFI": ""
        }
      ],
      "modifiers": {
        "Invoker_Herald_Water_EquipControllerR": {
          "modifierName": "",
          "IPFJJJGABPL": 100.0,
          "onAdded": [
            {
              "$type": "ANLOBBMKNIJ",
              "rotationDampTime": "Eff_Monster_Invoker_Herald_Water_WeaponR",
              "PPPDJGDDOGD": 1.0,
              "AJDILHJFNKE": -1.0
            }
          ],
          "onRemoved": [
            {
              "$type": "KBFEIHEAMBM",
              "rotationDampTime": "Eff_Monster_Invoker_Herald_Water_WeaponR_Disappear",
              "PPPDJGDDOGD": 1.0,
              "AJDILHJFNKE": -1.0
            }
          ]
        },
        "Invoker_Herald_Water_EquipControllerL": {
          "modifierName": "",
          "IPFJJJGABPL": 100.0,
          "onAdded": [
            {
              "$type": "ANLOBBMKNIJ",
              "rotationDampTime": "Eff_Monster_Invoker_Herald_Water_WeaponL",
              "PPPDJGDDOGD": 1.0,
              "AJDILHJFNKE": -1.0
            }
          ],
          "onRemoved": [
            {
              "$type": "KBFEIHEAMBM",
              "rotationDampTime": "Eff_Monster_Invoker_Herald_Water_WeaponL_Disappear",
              "PPPDJGDDOGD": 1.0,
              "AJDILHJFNKE": -1.0
            }
          ]
        }
      }
    }
  },
  {
    "Default": {
      "$type": "CBPBEHLOHKI",
      "abilityName": "Invoker_Herald_Water_Disappear",
      "abilityMixins": [
        {
          "$type": "LEOGLBFIELL",
          "poseIDs": [
            901,
            902,
            903
          ],
          "modifierName": "Invoker_Herald_Water_DisappearController"
        }
      ],
      "modifiers": {
        "Invoker_Herald_Water_DisappearController": {
          "modifierName": "",
          "IPFJJJGABPL": 100.0,
          "onAdded": [
            {
              "$type": "BOBCOJHOKKD",
              "param3": 1.0,
              "key": "_MONSTER_INVOKER_HERALD_WATER_DISAPPEAR",
              "param2": 0.0,
              "repeatTimes": 0.0
            },
            {
              "$type": "KBODPNEEFGD",
              "predicates": [
                {
                  "$type": "CNGGLKHONAA",
                  "key": "_MONSTERAFFIX_QUEST_ADJUST",
                  "param3": 0.0,
                  "compareType": "NoneOrEqual"
                }
              ],
              "modifierName": "UNIQUE_Invoker_Herald_Water_ElementShield"
            },
            {
              "$type": "KBODPNEEFGD",
              "predicates": [
                {
                  "$type": "CNGGLKHONAA",
                  "key": "_MONSTERAFFIX_QUEST_ADJUST",
                  "param3": 1.0
                }
              ],
              "modifierName": "UNIQUE_Invoker_Herald_Water_ElementShield_QuestAdjust"
            },
            {
              "$type": "IDNGFEEBPAM",
              "boolID": "ElementState"
            },
            {
              "$type": "INBCDALOHMP",
              "targetPredicates": [
                {
                  "$type": "CNGGLKHONAA",
                  "key": "_MONSTERAFFIX_QUEST_RETURNTOBORN",
                  "param3": 1.0
                }
              ],
              "successActions": [
                {
                  "$type": "JLDEMMJAMLC",
                  "modifierName": "Invoker_Herald_Water_ReturnToBornController"
                }
              ],
              "failActions": [
                {
                  "$type": "JLDEMMJAMLC",
                  "modifierName": "Invoker_Herald_Water_Disappear"
                }
              ]
            },
            {
              "$type": "BLCCGIPAOIP",
              "PLLJBINMGJK": "DisappearTrigger",
              "mpTriggerOnRemote": true
            },
            {
              "$type": "JLDEMMJAMLC",
              "modifierName": "Invoker_Herald_Water_Disappear_Invincible"
            },
            {
              "$type": "JLDEMMJAMLC",
              "modifierName": "Invoker_Herald_Water_Disappear_DenyLockOn"
            }
          ]
        },
        "Invoker_Herald_Water_Disappear_Invincible": {
          "modifierName": "",
          "IPFJJJGABPL": 100.0,
          "state": "Invincible"
        },
        "Invoker_Herald_Water_Disappear_DenyLockOn": {
          "modifierName": "",
          "IPFJJJGABPL": 100.0,
          "state": "DenyLockOn"
        },
        "Invoker_Herald_Water_Disappear": {
          "modifierName": "",
          "elementDurability": 1.0,
          "IPFJJJGABPL": 100.0,
          "onRemoved": [
            {
              "$type": "KJCHPDPBJHL",
              "boolID": "DisappearState",
              "param3": true
            },
            {
              "$type": "AKJOHBCCCIJ",
              "dieImmediately": true
            },
            {
              "$type": "NCFFNDHGCMH",
              "banHPPercentageDrop": true,
              "killSelfType": "Disappear",
              "value": true,
              "banExp": true
            }
          ]
        },
        "Invoker_Herald_Water_ReturnToBornController": {
          "modifierName": "",
          "IPFJJJGABPL": 100.0,
          "modifierMixins": [
            {
              "$type": "LEOGLBFIELL",
              "poseIDs": [
                902,
                903
              ],
              "modifierName": "Invoker_Herald_Water_ReturnToBorn"
            },
            {
              "$type": "MLJAPFBGEEH",
              "globalValueKey": "_HIDE_MODEL_",
              "gvInTalk": 0.0,
              "valueSteps": [
                -0.5,
                0.5,
                1.5
              ],
              "modifierNameSteps": [
                "Invoker_Show_Model",
                "Invoker_Blink_Disappear"
              ]
            }
          ],
          "onAdded": [
            {
              "$type": "IDNGFEEBPAM",
              "boolID": "WanderState",
              "param3": true
            }
          ]
        },
        "Invoker_Blink_Disappear": {
          "modifierName": "",
          "IPFJJJGABPL": 100.0,
          "onAdded": [
            {
              "$type": "PJENOLFAFMG",
              "canBeHandledOnRecover": true
            }
          ]
        },
        "Invoker_Show_Model": {
          "modifierName": "",
          "IPFJJJGABPL": 100.0,
          "onAdded": [
            {
              "$type": "PJENOLFAFMG",
              "canBeHandledOnRecover": true,
              "KGGEDGKGLDD": true
            }
          ]
        },
        "Invoker_Herald_Water_ReturnToBorn": {
          "modifierName": "",
          "IPFJJJGABPL": 100.0,
          "modifierMixins": [
            {
              "$type": "CIGJDPCDOEB",
              "onAdded": [
                {
                  "$type": "HBNEMPLJCMB",
                  "hide": true
                },
                {
                  "$type": "AENLGPIPPAK",
                  "hitBoxNames": [
                    "HitBox",
                    "HeadBox"
                  ]
                },
                {
                  "$type": "FDFGJPNDKEA",
                  "pushColliderNames": [
                    "PushCollider"
                  ]
                }
              ],
              "onRemoved": [
                {
                  "$type": "HBNEMPLJCMB"
                },
                {
                  "$type": "AENLGPIPPAK",
                  "hitBoxNames": [
                    "HitBox",
                    "HeadBox"
                  ],
                  "setEnable": true
                },
                {
                  "$type": "FDFGJPNDKEA",
                  "pushColliderNames": [
                    "PushCollider"
                  ],
                  "setEnable": true
                }
              ]
            }
          ],
          "onAdded": [
            {
              "$type": "KBFEIHEAMBM",
              "rotationDampTime": "Eff_Monster_Invoker_BornHigh",
              "PPPDJGDDOGD": 1.0,
              "AJDILHJFNKE": -1.0
            },
            {
              "$type": "BOBCOJHOKKD",
              "param3": 1.0,
              "key": "_HIDE_MODEL_",
              "param2": 0.0,
              "repeatTimes": 0.0
            }
          ],
          "onRemoved": [
            {
              "$type": "BLCCGIPAOIP",
              "PLLJBINMGJK": "ReturnToBornTrigger",
              "mpTriggerOnRemote": true
            },
            {
              "$type": "KBFEIHEAMBM",
              "rotationDampTime": "Eff_Monster_Invoker_BornHigh",
              "PPPDJGDDOGD": 1.0,
              "AJDILHJFNKE": -1.0
            },
            {
              "$type": "BOBCOJHOKKD",
              "param3": 0.0,
              "key": "_HIDE_MODEL_",
              "param2": 0.0,
              "repeatTimes": 0.0
            }
          ]
        }
      }
    }
  },
  {
    "Default": {
      "$type": "CBPBEHLOHKI",
      "abilityName": "Invoker_Herald_Water_SlashAtk01",
      "abilityMixins": [
        {
          "$type": "APJKOLPHCGH",
          "stateIDs": [
            "SlashAtk01",
            "SlashAtk02",
            "SlashAtkAS"
          ],
          "enterPredicates": [
            {
              "$type": "CNGGLKHONAA",
              "key": "_MONSTER_INVOKER_HERALD_WATER_STATE",
              "param3": 2.0,
              "compareType": "MoreThan"
            }
          ],
          "enterActions": [
            {
              "$type": "BOBCOJHOKKD",
              "param3": 0.0,
              "key": "_MONSTER_INVOKER_HERALD_WATER_SLASHATK",
              "param2": 0.0,
              "repeatTimes": 0.0
            },
            {
              "$type": "KNHHAJNCCBI",
              "param3": 2.0,
              "overrideMapKey": "Invoker_Herald_Water_SlashAtk_Count",
              "param2": 0.0,
              "repeatTimes": 0.0
            },
            {
              "$type": "KJCHPDPBJHL",
              "boolID": "AttackContinue",
              "param3": true
            }
          ],
          "DGFCLAIDIFI": ""
        }
      ],
      "abilitySpecials": {
        "Invoker_Herald_Water_SlashAtk_Count": 0.0
      },
      "onAbilityStart": [
        {
          "$type": "CAKDDHLKOAB",
          "bulletID": 42202001,
          "born": {
            "$type": "KLPANPDGHHA",
            "direction": {
              "$type": "LHBLDEOLGKF",
              "attachPointName": "SlashAtk01"
            },
            "useRotation": true,
            "attachPointName": "SlashAtk01"
          }
        },
        {
          "$type": "LCOEFEMOHLP",
          "param3": 1.0,
          "key": "_MONSTER_INVOKER_HERALD_WATER_SLASHATK",
          "param2": 0.0,
          "repeatTimes": 0.0
        },
        {
          "$type": "KJCHPDPBJHL",
          "predicates": [
            {
              "$type": "CNGGLKHONAA",
              "key": "_MONSTER_INVOKER_HERALD_WATER_SLASHATK",
              "param3": "Invoker_Herald_Water_SlashAtk_Count",
              "compareType": "MoreThanAndEqual"
            }
          ],
          "boolID": "AttackContinue"
        }
      ]
    }
  },
  {
    "Default": {
      "$type": "CBPBEHLOHKI",
      "abilityName": "Invoker_Herald_Water_SlashAtk02",
      "onAbilityStart": [
        {
          "$type": "CAKDDHLKOAB",
          "bulletID": 42202001,
          "born": {
            "$type": "KLPANPDGHHA",
            "direction": {
              "$type": "LHBLDEOLGKF",
              "attachPointName": "SlashAtk02"
            },
            "useRotation": true,
            "attachPointName": "SlashAtk02"
          }
        }
      ]
    }
  },
  {
    "Default": {
      "$type": "CBPBEHLOHKI",
      "abilityName": "Invoker_Herald_Water_SlashAtk_Bullet",
      "modifiers": {
        "Invoker_Herald_Water_SlashAtk_Bullet": {
          "modifierName": "",
          "IPFJJJGABPL": 100.0,
          "onAdded": [
            {
              "$type": "ANLOBBMKNIJ",
              "rotationDampTime": "Eff_Monster_Invoker_Herald_Water_SlashAtk_Bullet",
              "PPPDJGDDOGD": 1.0,
              "AJDILHJFNKE": -1.0
            }
          ]
        }
      },
      "onAdded": [
        {
          "$type": "PELJALPANCA",
          "modifierName": "Invoker_Herald_Water_SlashAtk_Bullet"
        }
      ],
      "onAbilityStart": [
        {
          "$type": "AIFPLABJNMA",
          "attackEvent": {
            "attackPattern": {
              "$type": "BELNOFAKNBA",
              "triggerType": "TriggerNoRepeat",
              "born": {
                "$type": "JGEBAJLEBMO"
              },
              "OAHPDLJIADP": 0.5
            },
            "attackInfo": {
              "attackTag": "",
              "attenuationTag": "",
              "attenuationGroup": "default",
              "attackProperty": {
                "actorGrassSubHurtDelta": 0.5,
                "actorWindSubHurtDelta": 0.0,
                "elementType": "Water",
                "IPFJJJGABPL": 50.0,
                "strikeType": "Default",
                "enBreak": 100.0,
                "GLKMCMDJBIK": 0.0
              },
              "hitPattern": {
                "onHitEffectName": "none",
                "hitImpulseY": "",
                "hitImpulseType": "LV4"
              },
              "canBeModifiedBy": "OriginOwner"
            }
          },
          "targetType": "Enemy"
        }
      ]
    }
  },
  {
    "Default": {
      "$type": "CBPBEHLOHKI",
      "abilityName": "Invoker_Herald_Water_ChargeAtk_Detect",
      "modifiers": {
        "Invoker_Herald_Water_ChargeAtk_Detect": {
          "modifierName": "",
          "IPFJJJGABPL": 100.0,
          "onAttackLanded": [
            {
              "$type": "INBCDALOHMP",
              "target": "Target",
              "targetPredicates": [
                {
                  "$type": "NNEHDJHMING",
                  "attackTags": [
                    "Invoker_Herald_Water_ChargeAtk"
                  ]
                },
                {
                  "$type": "NIMAPECDNKD",
                  "entityTypes": [
                    "Avatar"
                  ]
                },
                {
                  "$type": "GAGDDICMFEH",
                  "damage": 0.0
                }
              ],
              "successActions": [
                {
                  "$type": "PELJALPANCA",
                  "target": "TargetTeam",
                  "modifierName": "UNIQUE_Invoker_Herald_Water_ChargeAtk"
                }
              ]
            }
          ]
        },
        "UNIQUE_Invoker_Herald_Water_ChargeAtk": {
          "modifierName": "",
          "forceTriggerWhenChangeAuthority": true,
          "elementDurability": 1.0,
          "IPFJJJGABPL": 100.0,
          "onAdded": [
            {
              "$type": "KBFEIHEAMBM",
              "target": "CurLocalAvatar",
              "rotationDampTime": "Eff_Monster_Invoker_Debuff_Hit_Water",
              "PPPDJGDDOGD": 1.0,
              "AJDILHJFNKE": -1.0
            },
            {
              "$type": "CCMOJLPKHDN",
              "target": "CurTeamAvatars",
              "shieldHP": true,
              "skillSlot": [
                2,
                5
              ],
              "cdMin": 6.0
            },
            {
              "$type": "EACEDAKOMMM",
              "rotationDampTime": "Eff_UI_Debuff_IncreaseCD_Invoker_Water",
              "effectPattern": ""
            },
            {
              "$type": "EACEDAKOMMM",
              "rotationDampTime": "Eff_UI_Debuff_IncreaseCD_Invoker_Water",
              "effectSlot": "ElementBurst",
              "effectPattern": ""
            }
          ]
        }
      },
      "onAdded": [
        {
          "$type": "PELJALPANCA",
          "modifierName": "Invoker_Herald_Water_ChargeAtk_Detect"
        }
      ]
    }
  },
  {
    "Default": {
      "$type": "CBPBEHLOHKI",
      "abilityName": "Invoker_Herald_Water_ChargeAtk01",
      "onAbilityStart": [
        {
          "$type": "CAKDDHLKOAB",
          "bulletID": 42202002,
          "born": {
            "$type": "IAENDIPDFKD",
            "offset": {
              "KGEPIMHBMOL": 0.0,
              "JEBHCGDPFEJ": 2.0,
              "LPCHALMFFOD": 2.0
            }
          }
        }
      ]
    }
  },
  {
    "Default": {
      "$type": "CBPBEHLOHKI",
      "abilityName": "Invoker_Herald_Water_ChargeAtk02",
      "onAbilityStart": [
        {
          "$type": "CAKDDHLKOAB",
          "bulletID": 42202003,
          "born": {
            "$type": "KLPANPDGHHA",
            "direction": {
              "$type": "LHBLDEOLGKF",
              "attachPointName": "ChargeAtk02_01"
            },
            "useRotation": true,
            "attachPointName": "ChargeAtk02_01"
          }
        },
        {
          "$type": "CAKDDHLKOAB",
          "bulletID": 42202003,
          "born": {
            "$type": "KLPANPDGHHA",
            "direction": {
              "$type": "LHBLDEOLGKF",
              "attachPointName": "ChargeAtk02_02"
            },
            "useRotation": true,
            "attachPointName": "ChargeAtk02_02"
          }
        },
        {
          "$type": "CAKDDHLKOAB",
          "bulletID": 42202003,
          "born": {
            "$type": "KLPANPDGHHA",
            "direction": {
              "$type": "LHBLDEOLGKF",
              "attachPointName": "ChargeAtk02_03"
            },
            "useRotation": true,
            "attachPointName": "ChargeAtk02_03"
          }
        },
        {
          "$type": "CAKDDHLKOAB",
          "bulletID": 42202003,
          "born": {
            "$type": "KLPANPDGHHA",
            "direction": {
              "$type": "LHBLDEOLGKF",
              "attachPointName": "ChargeAtk02_04"
            },
            "useRotation": true,
            "attachPointName": "ChargeAtk02_04"
          }
        },
        {
          "$type": "CAKDDHLKOAB",
          "bulletID": 42202003,
          "born": {
            "$type": "KLPANPDGHHA",
            "direction": {
              "$type": "LHBLDEOLGKF",
              "attachPointName": "ChargeAtk02_05"
            },
            "useRotation": true,
            "attachPointName": "ChargeAtk02_05"
          }
        },
        {
          "$type": "CAKDDHLKOAB",
          "bulletID": 42202003,
          "born": {
            "$type": "KLPANPDGHHA",
            "direction": {
              "$type": "LHBLDEOLGKF",
              "attachPointName": "ChargeAtk02_06"
            },
            "useRotation": true,
            "attachPointName": "ChargeAtk02_06"
          }
        },
        {
          "$type": "CAKDDHLKOAB",
          "bulletID": 42202003,
          "born": {
            "$type": "KLPANPDGHHA",
            "direction": {
              "$type": "LHBLDEOLGKF",
              "attachPointName": "ChargeAtk02_07"
            },
            "useRotation": true,
            "attachPointName": "ChargeAtk02_07"
          }
        },
        {
          "$type": "CAKDDHLKOAB",
          "bulletID": 42202003,
          "born": {
            "$type": "KLPANPDGHHA",
            "direction": {
              "$type": "LHBLDEOLGKF",
              "attachPointName": "ChargeAtk02_08"
            },
            "useRotation": true,
            "attachPointName": "ChargeAtk02_08"
          }
        }
      ]
    }
  },
  {
    "Default": {
      "$type": "CBPBEHLOHKI",
      "abilityName": "Invoker_Herald_Water_ChargeAtk01_Bullet",
      "modifiers": {
        "Invoker_Herald_Water_ChargeAtk01_Bullet": {
          "modifierName": "",
          "IPFJJJGABPL": 100.0,
          "onAdded": [
            {
              "$type": "ANLOBBMKNIJ",
              "rotationDampTime": "Eff_Monster_Invoker_Herald_Water_ChargeAtk01_Bullet",
              "PPPDJGDDOGD": 1.0,
              "AJDILHJFNKE": -1.0
            }
          ]
        }
      },
      "onAdded": [
        {
          "$type": "PELJALPANCA",
          "modifierName": "Invoker_Herald_Water_ChargeAtk01_Bullet"
        }
      ],
      "onAbilityStart": [
        {
          "$type": "AIFPLABJNMA",
          "attackEvent": {
            "attackPattern": {
              "$type": "BELNOFAKNBA",
              "triggerType": "TriggerNoRepeat",
              "born": {
                "$type": "JGEBAJLEBMO"
              },
              "OAHPDLJIADP": 0.5
            },
            "attackInfo": {
              "attackTag": "Invoker_Herald_Water_ChargeAtk",
              "attenuationTag": "",
              "attenuationGroup": "default",
              "attackProperty": {
                "actorGrassSubHurtDelta": 0.25,
                "actorWindSubHurtDelta": 0.0,
                "elementType": "Water",
                "IPFJJJGABPL": 50.0,
                "strikeType": "Default",
                "enBreak": 200.0,
                "GLKMCMDJBIK": 0.0
              },
              "hitPattern": {
                "onHitEffectName": "none",
                "hitImpulseY": "",
                "hitImpulseType": "LV4"
              },
              "canBeModifiedBy": "OriginOwner"
            }
          },
          "targetType": "Enemy"
        }
      ]
    }
  },
  {
    "Default": {
      "$type": "CBPBEHLOHKI",
      "abilityName": "Invoker_Herald_Water_ChargeAtk02_Bullet",
      "modifiers": {
        "Invoker_Herald_Water_ChargeAtk02_Bullet": {
          "modifierName": "",
          "IPFJJJGABPL": 100.0,
          "onAdded": [
            {
              "$type": "ANLOBBMKNIJ",
              "rotationDampTime": "Eff_Monster_Invoker_Herald_Water_ChargeAtk02_Bullet",
              "PPPDJGDDOGD": 1.0,
              "AJDILHJFNKE": -1.0
            }
          ]
        }
      },
      "onAdded": [
        {
          "$type": "KBFEIHEAMBM",
          "rotationDampTime": "Eff_Monster_Invoker_Herald_Water_ChargeAtk02_BulletBS",
          "PPPDJGDDOGD": 1.0,
          "AJDILHJFNKE": -1.0
        },
        {
          "$type": "PELJALPANCA",
          "modifierName": "Invoker_Herald_Water_ChargeAtk02_Bullet"
        }
      ],
      "onAbilityStart": [
        {
          "$type": "AIFPLABJNMA",
          "attackEvent": {
            "attackPattern": {
              "$type": "BELNOFAKNBA",
              "triggerType": "TriggerNoRepeat",
              "born": {
                "$type": "JGEBAJLEBMO"
              },
              "OAHPDLJIADP": 0.5
            },
            "attackInfo": {
              "attackTag": "Invoker_Herald_Water_ChargeAtk",
              "attenuationTag": "",
              "attenuationGroup": "default",
              "attackProperty": {
                "actorGrassSubHurtDelta": 0.25,
                "actorWindSubHurtDelta": 0.0,
                "elementType": "Water",
                "IPFJJJGABPL": 50.0,
                "strikeType": "Default",
                "enBreak": 200.0,
                "GLKMCMDJBIK": 0.0
              },
              "hitPattern": {
                "onHitEffectName": "none",
                "hitImpulseY": "",
                "hitImpulseType": "LV4"
              },
              "canBeModifiedBy": "OriginOwner"
            }
          },
          "targetType": "Enemy"
        }
      ]
    }
  },
  {
    "Default": {
      "$type": "CBPBEHLOHKI",
      "abilityName": "Invoker_Herald_Water_WhirlWind",
      "abilityMixins": [
        {
          "$type": "EKMHJKDLBJH",
          "stateIDs": [
            "WhirlWindLoopBS",
            "WhirlWindLoop"
          ],
          "modifierName": "Invoker_Herald_Water_WhirlWind",
          "DGFCLAIDIFI": ""
        },
        {
          "$type": "APJKOLPHCGH",
          "stateIDs": [
            "WhirlWindBS",
            "WhirlWind",
            "WhirlWindLoopBS",
            "WhirlWindLoop",
            "WhirlWindAS",
            "WhirlWindOver"
          ],
          "enterActions": [
            {
              "$type": "BOBCOJHOKKD",
              "param3": 0.0,
              "key": "_MONSTER_INVOKER_HERALD_WATER_WHIRLWIND",
              "param2": 0.0,
              "repeatTimes": 0.0
            },
            {
              "$type": "KNHHAJNCCBI",
              "predicates": [
                {
                  "$type": "CNGGLKHONAA",
                  "key": "_MONSTER_INVOKER_HERALD_WATER_STATE",
                  "param3": 1.0
                }
              ],
              "param3": 1.0,
              "overrideMapKey": "Invoker_Herald_Water_WhirlWind_Count",
              "param2": 0.0,
              "repeatTimes": 0.0
            },
            {
              "$type": "KNHHAJNCCBI",
              "predicates": [
                {
                  "$type": "CNGGLKHONAA",
                  "key": "_MONSTER_INVOKER_HERALD_WATER_STATE",
                  "param3": 2.0
                }
              ],
              "param3": 2.0,
              "overrideMapKey": "Invoker_Herald_Water_WhirlWind_Count",
              "param2": 0.0,
              "repeatTimes": 0.0
            },
            {
              "$type": "KNHHAJNCCBI",
              "predicates": [
                {
                  "$type": "CNGGLKHONAA",
                  "key": "_MONSTER_INVOKER_HERALD_WATER_STATE",
                  "param3": 3.0
                }
              ],
              "param3": 3.0,
              "overrideMapKey": "Invoker_Herald_Water_WhirlWind_Count",
              "param2": 0.0,
              "repeatTimes": 0.0
            },
            {
              "$type": "KNHHAJNCCBI",
              "predicates": [
                {
                  "$type": "CNGGLKHONAA",
                  "key": "_MONSTER_INVOKER_HERALD_WATER_STATE",
                  "param3": 4.0
                }
              ],
              "param3": 4.0,
              "overrideMapKey": "Invoker_Herald_Water_WhirlWind_Count",
              "param2": 0.0,
              "repeatTimes": 0.0
            },
            {
              "$type": "KJCHPDPBJHL",
              "boolID": "AttackContinue",
              "param3": true
            }
          ],
          "DGFCLAIDIFI": ""
        }
      ],
      "abilitySpecials": {
        "Invoker_Herald_Water_WhirlWind_Count": 0.0
      },
      "modifiers": {
        "Invoker_Herald_Water_WhirlWind": {
          "modifierName": "",
          "IPFJJJGABPL": 100.0,
          "modifierMixins": [
            {
              "$type": "JJIHJPCPPGO",
              "abilityStates": [
                "ElementFrozen",
                "ElementPetrifaction"
              ],
              "reject": true,
              "modifierName": "Invoker_Herald_Water_WhirlWind_Effect"
            }
          ]
        },
        "Invoker_Herald_Water_WhirlWind_Effect": {
          "modifierName": "",
          "IPFJJJGABPL": 100.0,
          "onAdded": [
            {
              "$type": "ANLOBBMKNIJ",
              "rotationDampTime": "Eff_Monster_Invoker_Herald_Water_WhirlWind",
              "PPPDJGDDOGD": 1.0,
              "AJDILHJFNKE": -1.0
            }
          ]
        }
      },
      "onAbilityStart": [
        {
          "$type": "LCOEFEMOHLP",
          "param3": 1.0,
          "key": "_MONSTER_INVOKER_HERALD_WATER_WHIRLWIND",
          "param2": 0.0,
          "repeatTimes": 0.0
        },
        {
          "$type": "KJCHPDPBJHL",
          "predicates": [
            {
              "$type": "CNGGLKHONAA",
              "key": "_MONSTER_INVOKER_HERALD_WATER_WHIRLWIND",
              "param3": "Invoker_Herald_Water_WhirlWind_Count",
              "compareType": "MoreThanAndEqual"
            }
          ],
          "boolID": "AttackContinue"
        }
      ]
    }
  },
  {
    "Default": {
      "$type": "CBPBEHLOHKI",
      "abilityName": "Invoker_Herald_Water_StateControl",
      "abilityMixins": [
        {
          "$type": "LAPMOOFOPBM",
          "valueSteps": [
            0.6000000238418579,
            0.20000000298023224
          ],
          "modifierNameSteps": [
            "Invoker_Empty",
            "UNIQUE_Invoker_Herald_Water_Normal",
            "UNIQUE_Invoker_Herald_Water_Element"
          ]
        },
        {
          "$type": "EAKJOFAIAPH",
          "poseIDs": [
            301
          ],
          "enterActions": [
            {
              "$type": "BOBCOJHOKKD",
              "param3": 1.0,
              "key": "_MONSTER_INVOKER_HERALD_WATER_STATE",
              "param2": 0.0,
              "repeatTimes": 0.0
            }
          ]
        },
        {
          "$type": "EAKJOFAIAPH",
          "poseIDs": [
            302
          ],
          "enterActions": [
            {
              "$type": "BOBCOJHOKKD",
              "param3": 2.0,
              "key": "_MONSTER_INVOKER_HERALD_WATER_STATE",
              "param2": 0.0,
              "repeatTimes": 0.0
            }
          ]
        },
        {
          "$type": "EAKJOFAIAPH",
          "poseIDs": [
            401
          ],
          "enterActions": [
            {
              "$type": "BOBCOJHOKKD",
              "param3": 3.0,
              "key": "_MONSTER_INVOKER_HERALD_WATER_STATE",
              "param2": 0.0,
              "repeatTimes": 0.0
            }
          ]
        },
        {
          "$type": "EAKJOFAIAPH",
          "poseIDs": [
            402
          ],
          "enterActions": [
            {
              "$type": "BOBCOJHOKKD",
              "param3": 4.0,
              "key": "_MONSTER_INVOKER_HERALD_WATER_STATE",
              "param2": 0.0,
              "repeatTimes": 0.0
            }
          ]
        }
      ],
      "modifiers": {
        "UNIQUE_Invoker_Herald_Water_Limbo": {
          "modifierName": "",
          "forceTriggerWhenChangeAuthority": true,
          "IPFJJJGABPL": 100.0,
          "properties": {
            "Actor_HpThresholdRatio": 0.15000000596046448
          },
          "state": "Limbo"
        },
        "Invoker_Empty": {
          "modifierName": "",
          "IPFJJJGABPL": 100.0
        },
        "UNIQUE_Invoker_Herald_Water_Normal": {
          "modifierName": "",
          "forceTriggerWhenChangeAuthority": true,
          "IPFJJJGABPL": 100.0,
          "onAdded": [
            {
              "$type": "IDNGFEEBPAM",
              "boolID": "NormalStage",
              "param3": true
            }
          ],
          "onRemoved": [
            {
              "$type": "IDNGFEEBPAM",
              "boolID": "NormalStage"
            }
          ]
        },
        "UNIQUE_Invoker_Herald_Water_Element": {
          "modifierName": "",
          "forceTriggerWhenChangeAuthority": true,
          "IPFJJJGABPL": 100.0,
          "onAdded": [
            {
              "$type": "IDNGFEEBPAM",
              "boolID": "ElementState",
              "param3": true
            },
            {
              "$type": "CDHOAGHMOEE"
            }
          ]
        }
      },
      "onAdded": [
        {
          "$type": "PELJALPANCA",
          "modifierName": "UNIQUE_Invoker_Herald_Water_Limbo"
        }
      ]
    }
  },
  {
    "Default": {
      "$type": "CBPBEHLOHKI",
      "abilityName": "Invoker_Herald_Water_Transform",
      "abilityMixins": [
        {
          "$type": "LEOGLBFIELL",
          "poseIDs": [
            401,
            402
          ],
          "modifierName": "Invoker_Herald_Water_Transform"
        }
      ],
      "abilitySpecials": {
        "ElementShield_DurabilityImprove": 0.0
      },
      "modifiers": {
        "Invoker_Herald_Water_Transform": {
          "modifierName": "",
          "IPFJJJGABPL": 100.0,
          "thinkInterval": 5.0,
          "onAdded": [
            {
              "$type": "BLCCGIPAOIP",
              "PLLJBINMGJK": "TransformTrigger",
              "mpTriggerOnRemote": true
            },
            {
              "$type": "JLDEMMJAMLC",
              "modifierName": "Invoker_Herald_Water_Transform_LockHP"
            },
            {
              "$type": "JLDEMMJAMLC",
              "modifierName": "Invoker_Herald_Water_Transform_NoHeal"
            }
          ],
          "onThinkInterval": [
            {
              "$type": "PELJALPANCA",
              "predicates": [
                {
                  "$type": "CNGGLKHONAA",
                  "key": "_MONSTER_INVOKER_HERALD_WATER_ELEMENTSTATE",
                  "param3": 0.0,
                  "compareType": "NoneOrEqual"
                },
                {
                  "$type": "CNGGLKHONAA",
                  "key": "_MONSTERAFFIX_QUEST_ADJUST",
                  "param3": 0.0,
                  "compareType": "NoneOrEqual"
                }
              ],
              "modifierName": "UNIQUE_Invoker_Herald_Water_ElementShield"
            },
            {
              "$type": "PELJALPANCA",
              "predicates": [
                {
                  "$type": "CNGGLKHONAA",
                  "key": "_MONSTER_INVOKER_HERALD_WATER_ELEMENTSTATE",
                  "param3": 0.0,
                  "compareType": "NoneOrEqual"
                },
                {
                  "$type": "CNGGLKHONAA",
                  "key": "_MONSTERAFFIX_QUEST_ADJUST",
                  "param3": 1.0
                }
              ],
              "modifierName": "UNIQUE_Invoker_Herald_Water_ElementShield_QuestAdjust"
            }
          ],
          "onReconnect": [
            {
              "$type": "PELJALPANCA",
              "predicates": [
                {
                  "$type": "CNGGLKHONAA",
                  "key": "_MONSTERAFFIX_QUEST_ADJUST",
                  "param3": 0.0,
                  "compareType": "NoneOrEqual"
                }
              ],
              "modifierName": "UNIQUE_Invoker_Herald_Water_ElementShield"
            },
            {
              "$type": "PELJALPANCA",
              "predicates": [
                {
                  "$type": "CNGGLKHONAA",
                  "key": "_MONSTERAFFIX_QUEST_ADJUST",
                  "param3": 1.0
                }
              ],
              "modifierName": "UNIQUE_Invoker_Herald_Water_ElementShield_QuestAdjust"
            }
          ]
        },
        "Invoker_Herald_Water_Transform_LockHP": {
          "modifierName": "",
          "IPFJJJGABPL": 100.0,
          "state": "LockHP"
        },
        "Invoker_Herald_Water_Transform_NoHeal": {
          "modifierName": "",
          "IPFJJJGABPL": 100.0,
          "state": "NoHeal"
        },
        "UNIQUE_Invoker_Herald_Water_ElementShield": {
          "stacking": "Unique",
          "modifierName": "",
          "forceTriggerWhenChangeAuthority": true,
          "elementType": "Water",
          "IPFJJJGABPL": [
            900.0,
            "ElementShield_DurabilityImprove",
            "MUL",
            900.0,
            "ADD"
          ],
          "modifierMixins": [
            {
              "$type": "AAPIOACHKCI",
              "elementType": "Water",
              "showDamageText": "",
              "DLBHHADKGJN": 360.0,
              "maxShieldByHPRatio": 1.0,
              "shieldAngle": 0.20000000298023224,
              "useMutiPlayerFixData": true
            },
            {
              "$type": "CIBMLJJLANN",
              "excludeForces": [
                "WindZoneType"
              ]
            },
            {
              "$type": "CGGHGFIOCKN",
              "valueSteps": [
                0.5,
                [
                  300.0,
                  "ElementShield_DurabilityImprove",
                  "MUL",
                  300.0,
                  "ADD"
                ],
                [
                  900.0,
                  "ElementShield_DurabilityImprove",
                  "MUL",
                  900.0,
                  "ADD"
                ]
              ],
              "modifierNameSteps": [
                "UNIQUE_Invoker_Herald_Water_Transform",
                "Invoker_Empty"
              ]
            }
          ],
          "properties": {
            "Actor_EndureDelta": 0.0
          },
          "onAdded": [
            {
              "$type": "BOBCOJHOKKD",
              "param3": 1.0,
              "key": "_MONSTER_INVOKER_HERALD_WATER_ELEMENTSTATE",
              "param2": 0.0,
              "repeatTimes": 0.0
            },
            {
              "$type": "BOBCOJHOKKD",
              "param3": 0.0,
              "key": "_MONSTER_INVOKER_HERALD_WATER_DISAPPEAR",
              "param2": 0.0,
              "repeatTimes": 0.0
            },
            {
              "$type": "OPAOGKPJLIG",
              "resistanceListID": 14001
            },
            {
              "$type": "OPAOGKPJLIG",
              "resistanceListID": 14002,
              "durationRatio": 0.800000011920929
            }
          ],
          "onRemoved": [
            {
              "$type": "BOBCOJHOKKD",
              "param3": 0.0,
              "key": "_MONSTER_INVOKER_HERALD_WATER_ELEMENTSTATE",
              "param2": 0.0,
              "repeatTimes": 0.0
            },
            {
              "$type": "IDNGFEEBPAM",
              "boolID": "ElementState"
            },
            {
              "$type": "NCFFNDHGCMH",
              "predicates": [
                {
                  "$type": "CNGGLKHONAA",
                  "key": "_MONSTER_INVOKER_HERALD_WATER_DISAPPEAR",
                  "param3": 0.0,
                  "compareType": "NoneOrEqual"
                }
              ]
            }
          ]
        },
        "UNIQUE_Invoker_Herald_Water_ElementShield_QuestAdjust": {
          "stacking": "Unique",
          "modifierName": "",
          "forceTriggerWhenChangeAuthority": true,
          "elementType": "Water",
          "IPFJJJGABPL": [
            900.0,
            "ElementShield_DurabilityImprove",
            "MUL",
            900.0,
            "ADD"
          ],
          "isElementDurabilityMutable": false,
          "modifierMixins": [
            {
              "$type": "AAPIOACHKCI",
              "elementType": "Water",
              "showDamageText": "",
              "DLBHHADKGJN": 360.0,
              "maxShieldByHPRatio": 1.0,
              "shieldAngle": 0.0,
              "useMutiPlayerFixData": true
            },
            {
              "$type": "CIBMLJJLANN",
              "excludeForces": [
                "WindZoneType"
              ]
            },
            {
              "$type": "CGGHGFIOCKN",
              "valueSteps": [
                0.5,
                [
                  300.0,
                  "ElementShield_DurabilityImprove",
                  "MUL",
                  300.0,
                  "ADD"
                ],
                [
                  900.0,
                  "ElementShield_DurabilityImprove",
                  "MUL",
                  900.0,
                  "ADD"
                ]
              ],
              "modifierNameSteps": [
                "UNIQUE_Invoker_Herald_Water_Transform",
                "Invoker_Empty"
              ]
            }
          ],
          "properties": {
            "Actor_EndureDelta": 0.0
          },
          "onAdded": [
            {
              "$type": "BOBCOJHOKKD",
              "param3": 1.0,
              "key": "_MONSTER_INVOKER_HERALD_WATER_ELEMENTSTATE",
              "param2": 0.0,
              "repeatTimes": 0.0
            },
            {
              "$type": "BOBCOJHOKKD",
              "param3": 0.0,
              "key": "_MONSTER_INVOKER_HERALD_WATER_DISAPPEAR",
              "param2": 0.0,
              "repeatTimes": 0.0
            },
            {
              "$type": "OPAOGKPJLIG",
              "resistanceListID": 14001
            },
            {
              "$type": "OPAOGKPJLIG",
              "resistanceListID": 14002,
              "durationRatio": 0.800000011920929
            }
          ],
          "onRemoved": [
            {
              "$type": "BOBCOJHOKKD",
              "param3": 0.0,
              "key": "_MONSTER_INVOKER_HERALD_WATER_ELEMENTSTATE",
              "param2": 0.0,
              "repeatTimes": 0.0
            },
            {
              "$type": "IDNGFEEBPAM",
              "boolID": "ElementState"
            },
            {
              "$type": "NCFFNDHGCMH",
              "predicates": [
                {
                  "$type": "CNGGLKHONAA",
                  "key": "_MONSTER_INVOKER_HERALD_WATER_DISAPPEAR",
                  "param3": 0.0,
                  "compareType": "NoneOrEqual"
                }
              ]
            }
          ]
        },
        "Invoker_Empty": {
          "modifierName": "",
          "IPFJJJGABPL": 100.0
        },
        "UNIQUE_Invoker_Herald_Water_Transform": {
          "modifierName": "",
          "forceTriggerWhenChangeAuthority": true,
          "IPFJJJGABPL": 100.0,
          "onAdded": [
            {
              "$type": "IDNGFEEBPAM",
              "boolID": "TransformStage",
              "param3": true
            }
          ],
          "onRemoved": [
            {
              "$type": "IDNGFEEBPAM",
              "boolID": "TransformStage"
            }
          ]
        }
      },
      "onAdded": [
        {
          "$type": "LDIAIDLOPEE",
          "globalValueKey": "_MONSTERAFFIX_ELEMENTSHIELD_DURABILITYIMPROVE",
          "overrideMapKey": "ElementShield_DurabilityImprove"
        }
      ],
      "onAbilityStart": [
        {
          "$type": "PELJALPANCA",
          "predicates": [
            {
              "$type": "CNGGLKHONAA",
              "key": "_MONSTERAFFIX_QUEST_ADJUST",
              "param3": 0.0,
              "compareType": "NoneOrEqual"
            }
          ],
          "modifierName": "UNIQUE_Invoker_Herald_Water_ElementShield"
        },
        {
          "$type": "PELJALPANCA",
          "predicates": [
            {
              "$type": "CNGGLKHONAA",
              "key": "_MONSTERAFFIX_QUEST_ADJUST",
              "param3": 1.0
            }
          ],
          "modifierName": "UNIQUE_Invoker_Herald_Water_ElementShield_QuestAdjust"
        }
      ]
    }
  }
]