[
  {
    "Default": {
      "$type": "CBPBEHLOHKI",
      "abilityName": "Monster_Hilistray_Wind_Steer",
      "abilityMixins": [
        {
          "$type": "IILHMBGONGM",
          "steerStateIDs": [
            "Turn"
          ],
          "endNormalizedTime": 999.0,
          "angularSpeed": 120.0,
          "attackTrigger": "",
          "DGFCLAIDIFI": ""
        },
        {
          "$type": "IILHMBGONGM",
          "steerStateIDs": [
            "NormalAtk01"
          ],
          "startNormalizedTime": 0.0989999994635582,
          "endNormalizedTime": 0.13899999856948853,
          "angularSpeed": 180.0,
          "attackTrigger": "",
          "DGFCLAIDIFI": ""
        },
        {
          "$type": "IILHMBGONGM",
          "steerStateIDs": [
            "Syuriken02"
          ],
          "startNormalizedTime": 0.1120000034570694,
          "endNormalizedTime": 0.18700000643730164,
          "angularSpeed": 180.0,
          "attackTrigger": "",
          "DGFCLAIDIFI": ""
        },
        {
          "$type": "IILHMBGONGM",
          "steerStateIDs": [
            "Syuriken02"
          ],
          "startNormalizedTime": 0.06300000101327896,
          "endNormalizedTime": 0.10599999874830246,
          "angularSpeed": 270.0,
          "attackTrigger": "",
          "DGFCLAIDIFI": ""
        },
        {
          "$type": "IILHMBGONGM",
          "steerStateIDs": [
            "Syuriken02"
          ],
          "startNormalizedTime": 0.3580000102519989,
          "endNormalizedTime": 0.3840000033378601,
          "angularSpeed": 270.0,
          "attackTrigger": "",
          "DGFCLAIDIFI": ""
        },
        {
          "$type": "IILHMBGONGM",
          "steerStateIDs": [
            "SpecialAtk_JumpUp"
          ],
          "startNormalizedTime": 0.19599999487400055,
          "endNormalizedTime": 0.3089999854564667,
          "angularSpeed": 360.0,
          "attackTrigger": "",
          "DGFCLAIDIFI": ""
        }
      ]
    }
  },
  {
    "Default": {
      "$type": "CBPBEHLOHKI",
      "abilityName": "Monster_Hilistray_Wind_ExitBattle",
      "abilityMixins": [
        {
          "$type": "AOKOIIHJJPJ",
          "alertness": [
            2
          ],
          "modifierName": "ExitBattle"
        },
        {
          "$type": "LEOGLBFIELL",
          "poseIDs": [
            905
          ],
          "modifierName": "ExitBattle_AnimatorHandler"
        }
      ],
      "modifiers": {
        "ExitBattle": {
          "modifierName": "",
          "IPFJJJGABPL": 100.0
        },
        "ExitBattle_AnimatorHandler": {
          "modifierName": "",
          "IPFJJJGABPL": 100.0,
          "onAdded": [
            {
              "$type": "BLCCGIPAOIP",
              "canBeHandledOnRecover": true,
              "PLLJBINMGJK": "ReturnToBornTrigger"
            }
          ],
          "onRemoved": [
            {
              "$type": "GNAEJNBIFAC",
              "canBeHandledOnRecover": true,
              "PLLJBINMGJK": "ReturnToBornTrigger"
            }
          ]
        }
      }
    }
  },
  {
    "Default": {
      "$type": "CBPBEHLOHKI",
      "abilityName": "Monster_Hilistray_Wind_Alert",
      "onAbilityStart": [
        {
          "$type": "IDNGFEEBPAM",
          "boolID": "Box"
        },
        {
          "$type": "IDNGFEEBPAM",
          "boolID": "Sit"
        },
        {
          "$type": "IDNGFEEBPAM",
          "boolID": "Teach"
        },
        {
          "$type": "IDNGFEEBPAM",
          "boolID": "JumpAlert"
        },
        {
          "$type": "IDNGFEEBPAM",
          "boolID": "JumpForwardAlert"
        }
      ]
    }
  },
  {
    "Default": {
      "$type": "CBPBEHLOHKI",
      "abilityName": "Monster_Hilistray_Wind_NormalAtk01",
      "abilityMixins": [
        {
          "$type": "EKMHJKDLBJH",
          "stateIDs": [
            "NormalAtk01"
          ],
          "modifierName": "Hilistray_Wind_NormalAtk01_TriggerHandler",
          "DGFCLAIDIFI": ""
        }
      ],
      "modifiers": {
        "Hilistray_Wind_NormalAtk01_ComboDetect": {
          "modifierName": "",
          "elementDurability": 1.0,
          "IPFJJJGABPL": 100.0,
          "thinkInterval": 0.10000000149011612,
          "onAdded": [
            {
              "$type": "INBCDALOHMP",
              "target": "SelfAttackTarget",
              "targetPredicates": [
                {
                  "$type": "FMBJAJFLDIP",
                  "logic": "Lesser",
                  "param3": 8.5,
                  "DDALGNLEHOD": ""
                },
                {
                  "$type": "NDOONLLEPBJ",
                  "logic": "Lesser",
                  "param3": 110.0,
                  "namedTransform": ""
                }
              ],
              "successActions": [
                {
                  "$type": "BLCCGIPAOIP",
                  "PLLJBINMGJK": "NormalAtkCombo"
                }
              ]
            }
          ],
          "onRemoved": [
            {
              "$type": "GNAEJNBIFAC",
              "PLLJBINMGJK": "NormalAtkCombo"
            }
          ],
          "onThinkInterval": [
            {
              "$type": "INBCDALOHMP",
              "target": "SelfAttackTarget",
              "targetPredicates": [
                {
                  "$type": "FMBJAJFLDIP",
                  "logic": "Lesser",
                  "param3": 8.5,
                  "DDALGNLEHOD": ""
                },
                {
                  "$type": "NDOONLLEPBJ",
                  "logic": "Lesser",
                  "param3": 110.0,
                  "namedTransform": ""
                }
              ],
              "successActions": [
                {
                  "$type": "BLCCGIPAOIP",
                  "PLLJBINMGJK": "NormalAtkCombo"
                }
              ]
            }
          ]
        },
        "Hilistray_Wind_NormalAtk01_TriggerHandler": {
          "modifierName": "",
          "IPFJJJGABPL": 100.0,
          "onAdded": [
            {
              "$type": "GNAEJNBIFAC",
              "PLLJBINMGJK": "NormalAtkCombo"
            }
          ]
        }
      },
      "onAbilityStart": [
        {
          "$type": "PELJALPANCA",
          "modifierName": "Hilistray_Wind_NormalAtk01_ComboDetect"
        }
      ]
    }
  },
  {
    "Default": {
      "$type": "CBPBEHLOHKI",
      "abilityName": "Monster_Hilistray_Wind_NormalAtk01_RushMove",
      "abilityMixins": [
        {
          "$type": "EKMHJKDLBJH",
          "stateIDs": [
            "NormalAtk01"
          ],
          "modifierName": "Hilistray_Wind_NormalAtk01_RushMove_Handler",
          "DGFCLAIDIFI": ""
        }
      ],
      "modifiers": {
        "Hilistray_Wind_NormalAtk01_RushMove": {
          "modifierName": "",
          "IPFJJJGABPL": 100.0,
          "onAdded": [
            {
              "$type": "PAGFCBCKEBH",
              "toPos": {
                "$type": "IAENDIPDFKD",
                "offset": {
                  "KGEPIMHBMOL": 0.0,
                  "JEBHCGDPFEJ": 0.0,
                  "LPCHALMFFOD": 1.5
                },
                "onGround": true,
                "useRotation": true
              },
              "NKPCHMCNNOK": 0.25,
              "animatorStateIDs": [
                "NormalAtk01"
              ],
              "overrideMoveCollider": ""
            }
          ]
        },
        "Hilistray_Wind_NormalAtk01_RushMove_Handler": {
          "modifierName": "",
          "IPFJJJGABPL": 100.0,
          "onRemoved": [
            {
              "$type": "PFKNEFGOHIH",
              "modifierName": "Hilistray_Wind_NormalAtk01_RushMove"
            }
          ]
        }
      },
      "onAbilityStart": [
        {
          "$type": "PELJALPANCA",
          "modifierName": "Hilistray_Wind_NormalAtk01_RushMove"
        }
      ]
    }
  },
  {
    "Default": {
      "$type": "CBPBEHLOHKI",
      "abilityName": "Monster_Hilistray_Wind_NormalAtk02_RushMove",
      "abilityMixins": [
        {
          "$type": "EKMHJKDLBJH",
          "stateIDs": [
            "NormalAtk02"
          ],
          "modifierName": "Hilistray_Wind_NormalAtk02_RushMove_Handler",
          "DGFCLAIDIFI": ""
        }
      ],
      "modifiers": {
        "Hilistray_Wind_NormalAtk02_RushMove": {
          "modifierName": "",
          "IPFJJJGABPL": 100.0,
          "onAdded": [
            {
              "$type": "PAGFCBCKEBH",
              "toPos": {
                "$type": "IAENDIPDFKD",
                "offset": {
                  "KGEPIMHBMOL": 0.0,
                  "JEBHCGDPFEJ": 0.0,
                  "LPCHALMFFOD": 2.5
                },
                "onGround": true,
                "useRotation": true
              },
              "NKPCHMCNNOK": 0.15000000596046448,
              "animatorStateIDs": [
                "NormalAtk02"
              ],
              "overrideMoveCollider": ""
            }
          ]
        },
        "Hilistray_Wind_NormalAtk02_RushMove_Handler": {
          "modifierName": "",
          "IPFJJJGABPL": 100.0,
          "onRemoved": [
            {
              "$type": "PFKNEFGOHIH",
              "modifierName": "Hilistray_Wind_NormalAtk02_RushMove"
            }
          ]
        }
      },
      "onAbilityStart": [
        {
          "$type": "PELJALPANCA",
          "modifierName": "Hilistray_Wind_NormalAtk02_RushMove"
        }
      ]
    }
  },
  {
    "Default": {
      "$type": "CBPBEHLOHKI",
      "abilityName": "Monster_Hilistray_Wind_Syuriken01",
      "abilityMixins": [
        {
          "$type": "EKMHJKDLBJH",
          "stateIDs": [
            "Syuriken01"
          ],
          "modifierName": "Hilistray_Wind_Syuriken01_KillBullet",
          "DGFCLAIDIFI": ""
        }
      ],
      "modifiers": {
        "Hilistray_Wind_Syuriken01_KillBullet": {
          "modifierName": "",
          "IPFJJJGABPL": 100.0,
          "onAdded": [
            {
              "$type": "BOBCOJHOKKD",
              "param3": 0.0,
              "key": "_HILISTRAY_WIND_SYURIKEN_FOLLOWBULLET_",
              "param2": 0.0,
              "repeatTimes": 0.0
            }
          ],
          "onRemoved": [
            {
              "$type": "BOBCOJHOKKD",
              "param3": 1.0,
              "key": "_HILISTRAY_WIND_SYURIKEN_FOLLOWBULLET_",
              "param2": 0.0,
              "repeatTimes": 0.0
            }
          ]
        }
      },
      "onAdded": [
        {
          "$type": "BOBCOJHOKKD",
          "param3": 0.0,
          "key": "_HILISTRAY_WIND_SYURIKEN_FOLLOWBULLET_",
          "param2": 0.0,
          "repeatTimes": 0.0
        }
      ],
      "onAbilityStart": [
        {
          "$type": "KBFEIHEAMBM",
          "rotationDampTime": "Eff_Monster_Hilistray_Wind_Syuriken01_SyurikenBullet_AS",
          "born": {
            "$type": "KLPANPDGHHA",
            "offset": {
              "KGEPIMHBMOL": 0.0,
              "JEBHCGDPFEJ": 0.0,
              "LPCHALMFFOD": 0.0
            },
            "useRotation": true,
            "attachPointName": "RootNode"
          },
          "PPPDJGDDOGD": 1.0,
          "AJDILHJFNKE": -1.0
        },
        {
          "$type": "BOBCOJHOKKD",
          "param3": 1.0,
          "key": "_HILISTRAY_WIND_SYURIKEN_FOLLOWBULLET_",
          "param2": 0.0,
          "repeatTimes": 0.0
        }
      ]
    }
  },
  {
    "Default": {
      "$type": "CBPBEHLOHKI",
      "abilityName": "Monster_Hilistray_Wind_Syuriken01_Bullet",
      "onAbilityStart": [
        {
          "$type": "CAKDDHLKOAB",
          "bulletID": 42104005,
          "born": {
            "$type": "KLPANPDGHHA",
            "offset": {
              "KGEPIMHBMOL": 0.0,
              "JEBHCGDPFEJ": 0.0,
              "LPCHALMFFOD": 0.0
            },
            "useRotation": true,
            "attachPointName": "SyurikenBulletPoint"
          },
          "trackTarget": "Self",
          "lifeByOwnerV2": true
        }
      ]
    }
  },
  {
    "Default": {
      "$type": "CBPBEHLOHKI",
      "abilityName": "Hilistray_Wind_Syuriken01_Bullet",
      "abilityMixins": [
        {
          "$type": "CCNIOPJEHOE",
          "globalValueTarget": "Owner",
          "globalValueKey": "_HILISTRAY_WIND_SYURIKEN_FOLLOWBULLET_",
          "valueSteps": [
            -0.5,
            0.5,
            1.5
          ],
          "modifierNameSteps": [
            "Blank",
            "Hilistray_Wind_Syuriken01_Bullet_Kill"
          ]
        }
      ],
      "modifiers": {
        "Hilistray_Wind_Syuriken01_Bullet_Kill": {
          "modifierName": "",
          "IPFJJJGABPL": 100.0,
          "onAdded": [
            {
              "$type": "NCFFNDHGCMH"
            }
          ]
        },
        "Hilistray_Wind_Syuriken01_Bullet_Effect": {
          "modifierName": "",
          "IPFJJJGABPL": 100.0,
          "onAdded": [
            {
              "$type": "KBFEIHEAMBM",
              "rotationDampTime": "Eff_Monster_Hilistray_Wind_Syuriken01_SyurikenBullet_BS",
              "PPPDJGDDOGD": 1.0,
              "AJDILHJFNKE": -1.0
            },
            {
              "$type": "ANLOBBMKNIJ",
              "rotationDampTime": "Eff_Monster_Hilistray_Wind_Syuriken01_SyurikenBullet_Loop",
              "PPPDJGDDOGD": 1.0,
              "AJDILHJFNKE": -1.0
            }
          ]
        },
        "Hilistray_Wind_Syuriken01_Bullet_Move_Handler": {
          "stacking": "Unique",
          "modifierName": "",
          "IPFJJJGABPL": 100.0,
          "onAdded": [
            {
              "$type": "PELJALPANCA",
              "modifierName": "Bullet_Move_Angle_Handler_Liner"
            },
            {
              "$type": "PELJALPANCA",
              "modifierName": "Bullet_Move_Angle_Delay_Turn1"
            },
            {
              "$type": "PELJALPANCA",
              "modifierName": "Bullet_Move_Angle_Delay_Turn2"
            },
            {
              "$type": "PELJALPANCA",
              "modifierName": "Bullet_Move_Angle_Delay_Back"
            }
          ]
        },
        "Bullet_Move_Angle_Handler_Liner": {
          "modifierName": "",
          "elementDurability": 0.5,
          "IPFJJJGABPL": 100.0,
          "properties": {
            "Actor_BulletMoveAngularVelocityRatio": 0.009999999776482582
          }
        },
        "Bullet_Move_Angle_Delay_Turn1": {
          "modifierName": "",
          "elementDurability": 0.4000000059604645,
          "IPFJJJGABPL": 100.0,
          "onRemoved": [
            {
              "$type": "PELJALPANCA",
              "modifierName": "Bullet_Move_Angle_Handler_Turn1"
            }
          ]
        },
        "Bullet_Move_Angle_Handler_Turn1": {
          "modifierName": "",
          "elementDurability": 0.25,
          "IPFJJJGABPL": 100.0,
          "thinkInterval": 0.10000000149011612,
          "onAdded": [
            {
              "$type": "PELJALPANCA",
              "modifierName": "Bullet_Move_AngleUp_Turn1"
            }
          ],
          "onThinkInterval": [
            {
              "$type": "PELJALPANCA",
              "modifierName": "Bullet_Move_AngleUp_Turn1"
            }
          ]
        },
        "Bullet_Move_AngleUp_Turn1": {
          "stacking": "Multiple",
          "modifierName": "",
          "IPFJJJGABPL": 100.0,
          "properties": {
            "Actor_BulletMoveAngularVelocityRatio": 1.399999976158142
          }
        },
        "Bullet_Move_Angle_Delay_Turn2": {
          "modifierName": "",
          "elementDurability": 1.0,
          "IPFJJJGABPL": 100.0,
          "onRemoved": [
            {
              "$type": "PELJALPANCA",
              "modifierName": "Bullet_Move_Angle_Handler_Turn2"
            }
          ]
        },
        "Bullet_Move_Angle_Handler_Turn2": {
          "modifierName": "",
          "elementDurability": 0.25,
          "IPFJJJGABPL": 100.0,
          "thinkInterval": 0.10000000149011612,
          "onAdded": [
            {
              "$type": "PELJALPANCA",
              "modifierName": "Bullet_Move_AngleUp_Turn2"
            }
          ],
          "onThinkInterval": [
            {
              "$type": "PELJALPANCA",
              "modifierName": "Bullet_Move_AngleUp_Turn2"
            }
          ]
        },
        "Bullet_Move_AngleUp_Turn2": {
          "stacking": "Multiple",
          "modifierName": "",
          "IPFJJJGABPL": 100.0,
          "properties": {
            "Actor_BulletMoveAngularVelocityRatio": 0.699999988079071
          }
        },
        "Bullet_Move_Angle_Delay_Back": {
          "modifierName": "",
          "elementDurability": 0.8999999761581421,
          "IPFJJJGABPL": 100.0,
          "onRemoved": [
            {
              "$type": "PELJALPANCA",
              "modifierName": "Bullet_Move_Angle_Handler_Back"
            }
          ]
        },
        "Bullet_Move_Angle_Handler_Back": {
          "modifierName": "",
          "IPFJJJGABPL": 100.0,
          "thinkInterval": 0.20000000298023224,
          "onThinkInterval": [
            {
              "$type": "PELJALPANCA",
              "modifierName": "Bullet_Move_AngleUp_Back"
            }
          ]
        },
        "Bullet_Move_AngleUp_Back": {
          "stacking": "Multiple",
          "modifierName": "",
          "IPFJJJGABPL": 100.0,
          "properties": {
            "Actor_BulletMoveAngularVelocityRatio": 0.5
          }
        },
        "Bullet_Move_Speed_Handler_Pt1": {
          "modifierName": "",
          "elementDurability": 1.7000000476837158,
          "IPFJJJGABPL": 100.0,
          "thinkInterval": 0.30000001192092896,
          "onAdded": [
            {
              "$type": "BOBCOJHOKKD",
              "param3": 0.0,
              "key": "_HILISTRAY_SYURIKEN_BULLET_MARK_",
              "param2": 0.0,
              "repeatTimes": 0.0
            }
          ],
          "onThinkInterval": [
            {
              "$type": "PELJALPANCA",
              "predicates": [
                {
                  "$type": "CNGGLKHONAA",
                  "key": "_HILISTRAY_SYURIKEN_BULLET_MARK_",
                  "param3": 0.0
                }
              ],
              "modifierName": "Bullet_Move_SpeedDown_Pt1_1"
            },
            {
              "$type": "PELJALPANCA",
              "predicates": [
                {
                  "$type": "CNGGLKHONAA",
                  "key": "_HILISTRAY_SYURIKEN_BULLET_MARK_",
                  "param3": 1.0
                }
              ],
              "modifierName": "Bullet_Move_SpeedDown_Pt1_2"
            },
            {
              "$type": "PELJALPANCA",
              "predicates": [
                {
                  "$type": "CNGGLKHONAA",
                  "key": "_HILISTRAY_SYURIKEN_BULLET_MARK_",
                  "param3": 2.0
                }
              ],
              "modifierName": "Bullet_Move_SpeedDown_Pt1_3"
            },
            {
              "$type": "PELJALPANCA",
              "predicates": [
                {
                  "$type": "CNGGLKHONAA",
                  "key": "_HILISTRAY_SYURIKEN_BULLET_MARK_",
                  "param3": 3.0
                }
              ],
              "modifierName": "Bullet_Move_SpeedDown_Pt1_4"
            },
            {
              "$type": "LCOEFEMOHLP",
              "param3": 1.0,
              "key": "_HILISTRAY_SYURIKEN_BULLET_MARK_",
              "useLimitRange": true,
              "param2": 4.0,
              "repeatTimes": 0.0
            }
          ],
          "onThinkIntervalIsFixedUpdate": true
        },
        "Bullet_Move_SpeedDown_Pt1_1": {
          "modifierName": "",
          "elementDurability": 0.5,
          "IPFJJJGABPL": 100.0,
          "properties": {
            "Animator_OverallSpeedRatioMultiplied": 0.800000011920929
          }
        },
        "Bullet_Move_SpeedDown_Pt1_2": {
          "modifierName": "",
          "elementDurability": 0.699999988079071,
          "IPFJJJGABPL": 100.0,
          "properties": {
            "Animator_OverallSpeedRatioMultiplied": 0.4000000059604645
          }
        },
        "Bullet_Move_SpeedDown_Pt1_3": {
          "modifierName": "",
          "elementDurability": 0.699999988079071,
          "IPFJJJGABPL": 100.0,
          "properties": {
            "Animator_OverallSpeedRatioMultiplied": 0.4000000059604645
          }
        },
        "Bullet_Move_SpeedDown_Pt1_4": {
          "modifierName": "",
          "elementDurability": 0.6000000238418579,
          "IPFJJJGABPL": 100.0,
          "properties": {
            "Animator_OverallSpeedRatioMultiplied": 0.699999988079071
          },
          "onRemoved": [
            {
              "$type": "PELJALPANCA",
              "modifierName": "Bullet_Move_Speed_Handler_Pt2"
            }
          ]
        },
        "Bullet_Move_Speed_Handler_Pt2": {
          "modifierName": "",
          "IPFJJJGABPL": 100.0,
          "thinkInterval": 0.25,
          "onThinkInterval": [
            {
              "$type": "PELJALPANCA",
              "modifierName": "Bullet_Move_SpeedUp_Pt2"
            }
          ]
        },
        "Bullet_Move_SpeedUp_Pt2": {
          "stacking": "Multiple",
          "modifierName": "",
          "IPFJJJGABPL": 100.0,
          "properties": {
            "Animator_OverallSpeedRatioMultiplied": 0.8999999761581421
          }
        },
        "Blank": {
          "modifierName": "",
          "IPFJJJGABPL": 100.0
        }
      },
      "onAdded": [
        {
          "$type": "JLDEMMJAMLC",
          "modifierName": "Hilistray_Wind_Syuriken01_Bullet_Effect"
        },
        {
          "$type": "PELJALPANCA",
          "modifierName": "Hilistray_Wind_Syuriken01_Bullet_Move_Handler"
        },
        {
          "$type": "AIFPLABJNMA",
          "attackEvent": {
            "attackPattern": {
              "$type": "BELNOFAKNBA",
              "triggerType": "TriggerNoRepeat",
              "born": {
                "$type": "IAENDIPDFKD",
                "offset": {
                  "KGEPIMHBMOL": 0.0,
                  "JEBHCGDPFEJ": 0.0,
                  "LPCHALMFFOD": -1.2999999523162842
                },
                "useRotation": true
              },
              "OAHPDLJIADP": 1.399999976158142
            },
            "attackInfo": {
              "attackTag": "",
              "attenuationTag": "Hilistray_Wind_Syuriken01",
              "attenuationGroup": "Hilistray_Wind_Syuriken01",
              "attackProperty": {
                "actorGrassSubHurtDelta": 0.8500000238418579,
                "actorWindSubHurtDelta": 0.0,
                "elementType": "Wind",
                "IPFJJJGABPL": 25.0,
                "strikeType": "Blunt",
                "enBreak": 100.0,
                "GLKMCMDJBIK": 0.0
              },
              "hitPattern": {
                "onHitEffectName": "default",
                "hitImpulseY": "",
                "hitImpulseType": "LV3",
                "hitHaltTimeScale": 0.009999999776482582
              },
              "canBeModifiedBy": "OriginOwner"
            }
          },
          "targetType": "Enemy"
        }
      ],
      "onAbilityStart": [
        {
          "$type": "AIFPLABJNMA",
          "attackEvent": {
            "attackPattern": {
              "$type": "BELNOFAKNBA",
              "triggerType": "TriggerNoRepeat",
              "born": {
                "$type": "JGEBAJLEBMO"
              },
              "OAHPDLJIADP": 1.0
            },
            "attackInfo": {
              "attackTag": "",
              "attenuationTag": "Hilistray_Wind_Syuriken01",
              "attenuationGroup": "Hilistray_Wind_Syuriken01",
              "attackProperty": {
                "actorGrassSubHurtDelta": 0.8500000238418579,
                "actorWindSubHurtDelta": 0.0,
                "elementType": "Wind",
                "IPFJJJGABPL": 25.0,
                "strikeType": "Blunt",
                "enBreak": 100.0,
                "GLKMCMDJBIK": 0.0
              },
              "hitPattern": {
                "onHitEffectName": "default",
                "hitImpulseY": "",
                "hitImpulseType": "LV3",
                "hitHaltTimeScale": 0.009999999776482582
              },
              "canBeModifiedBy": "OriginOwner"
            }
          },
          "targetType": "Enemy"
        }
      ]
    }
  },
  {
    "Default": {
      "$type": "CBPBEHLOHKI",
      "abilityName": "Monster_Hilistray_Wind_Syuriken02_SmallBullet",
      "onAbilityStart": [
        {
          "$type": "CAKDDHLKOAB",
          "bulletID": 42104006,
          "born": {
            "$type": "KLPANPDGHHA",
            "offset": {
              "KGEPIMHBMOL": 0.0,
              "JEBHCGDPFEJ": 0.0,
              "LPCHALMFFOD": 0.0
            },
            "direction": {
              "$type": "MEADFIJAHPG",
              "maxAngle": 30.0,
              "startPoint": ""
            },
            "useRotation": true,
            "attachPointName": "SyurikenBulletPoint2"
          }
        }
      ]
    }
  },
  {
    "Default": {
      "$type": "CBPBEHLOHKI",
      "abilityName": "Monster_Hilistray_Wind_Syuriken02_BigBullet",
      "onAbilityStart": [
        {
          "$type": "CAKDDHLKOAB",
          "bulletID": 42104007,
          "born": {
            "$type": "KLPANPDGHHA",
            "offset": {
              "KGEPIMHBMOL": 0.0,
              "JEBHCGDPFEJ": 0.0,
              "LPCHALMFFOD": 0.0
            },
            "direction": {
              "$type": "MEADFIJAHPG",
              "maxAngle": 30.0,
              "startPoint": ""
            },
            "useRotation": true,
            "attachPointName": "SyurikenBulletPoint2"
          }
        }
      ]
    }
  },
  {
    "Default": {
      "$type": "CBPBEHLOHKI",
      "abilityName": "Hilistray_Wind_Syuriken02_SmallBullet",
      "modifiers": {
        "SmallBullet_Effect": {
          "modifierName": "",
          "IPFJJJGABPL": 100.0,
          "onAdded": [
            {
              "$type": "ANLOBBMKNIJ",
              "rotationDampTime": "Eff_Monster_Hilistray_Wind_Syuriken02_Bullet01_Loop",
              "PPPDJGDDOGD": 1.0,
              "AJDILHJFNKE": -1.0
            }
          ]
        }
      },
      "onAdded": [
        {
          "$type": "PELJALPANCA",
          "modifierName": "SmallBullet_Effect"
        }
      ],
      "onAbilityStart": [
        {
          "$type": "AIFPLABJNMA",
          "attackEvent": {
            "attackPattern": {
              "$type": "BELNOFAKNBA",
              "triggerType": "TriggerNoRepeat",
              "born": {
                "$type": "JGEBAJLEBMO"
              },
              "OAHPDLJIADP": 0.800000011920929
            },
            "attackInfo": {
              "attackTag": "",
              "attenuationTag": "",
              "attenuationGroup": "default",
              "attackProperty": {
                "actorGrassSubHurtDelta": 0.6000000238418579,
                "actorWindSubHurtDelta": 0.0,
                "elementType": "Wind",
                "IPFJJJGABPL": 25.0,
                "strikeType": "Slash",
                "enBreak": 20.0,
                "attackType": "Range",
                "GLKMCMDJBIK": 0.0
              },
              "hitPattern": {
                "onHitEffectName": "default",
                "hitImpulseY": "",
                "hitImpulseType": "LV2",
                "retreatType": "ByHitDirection",
                "hitHaltTimeScale": 0.05000000074505806
              },
              "canBeModifiedBy": "OriginOwner"
            }
          },
          "targetType": "Enemy"
        },
        {
          "$type": "PFKNEFGOHIH",
          "modifierName": "SmallBullet_Effect"
        },
        {
          "$type": "KBFEIHEAMBM",
          "rotationDampTime": "Eff_Monster_Hilistray_Wind_Syuriken02_Bullet01_AS",
          "born": {
            "$type": "JGEBAJLEBMO"
          },
          "PPPDJGDDOGD": 1.0,
          "AJDILHJFNKE": -1.0
        },
        {
          "$type": "NCFFNDHGCMH"
        }
      ],
      "onKill": [
        {
          "$type": "PFKNEFGOHIH",
          "modifierName": "SmallBullet_Effect"
        }
      ]
    }
  },
  {
    "Default": {
      "$type": "CBPBEHLOHKI",
      "abilityName": "Hilistray_Wind_Syuriken02_SmallBullet_LifeOver",
      "onAbilityStart": [
        {
          "$type": "AIFPLABJNMA",
          "attackEvent": {
            "attackPattern": {
              "$type": "BELNOFAKNBA",
              "triggerType": "TriggerNoRepeat",
              "born": {
                "$type": "IAENDIPDFKD",
                "useRotation": true
              },
              "OAHPDLJIADP": 0.800000011920929
            },
            "attackInfo": {
              "attackTag": "",
              "attenuationTag": "",
              "attenuationGroup": "default",
              "attackProperty": {
                "actorGrassSubHurtDelta": 0.6000000238418579,
                "actorWindSubHurtDelta": 0.0,
                "elementType": "Wind",
                "IPFJJJGABPL": 25.0,
                "strikeType": "Default",
                "enBreak": 20.0,
                "attackType": "Range",
                "GLKMCMDJBIK": 0.0
              },
              "hitPattern": {
                "onHitEffectName": "none",
                "hitImpulseY": "",
                "hitImpulseType": "LV2",
                "retreatType": "ByHitDirection",
                "hitHaltTimeScale": 0.05000000074505806
              },
              "canBeModifiedBy": "OriginOwner"
            }
          },
          "targetType": "Enemy"
        },
        {
          "$type": "KBFEIHEAMBM",
          "rotationDampTime": "Eff_Monster_Hilistray_Wind_Syuriken02_Bullet01_AS",
          "born": {
            "$type": "IAENDIPDFKD",
            "useRotation": true
          },
          "PPPDJGDDOGD": 1.0,
          "AJDILHJFNKE": -1.0
        },
        {
          "$type": "NCFFNDHGCMH"
        }
      ]
    }
  },
  {
    "Default": {
      "$type": "CBPBEHLOHKI",
      "abilityName": "Hilistray_Wind_Syuriken02_BigBullet",
      "modifiers": {
        "BigBullet_Effect": {
          "modifierName": "",
          "IPFJJJGABPL": 100.0,
          "onAdded": [
            {
              "$type": "ANLOBBMKNIJ",
              "rotationDampTime": "Eff_Monster_Hilistray_Wind_Syuriken02_Bullet02_Loop",
              "PPPDJGDDOGD": 1.0,
              "AJDILHJFNKE": -1.0
            }
          ]
        }
      },
      "onAdded": [
        {
          "$type": "PELJALPANCA",
          "modifierName": "BigBullet_Effect"
        }
      ],
      "onAbilityStart": [
        {
          "$type": "AIFPLABJNMA",
          "attackEvent": {
            "attackPattern": {
              "$type": "BELNOFAKNBA",
              "triggerType": "TriggerNoRepeat",
              "born": {
                "$type": "JGEBAJLEBMO"
              },
              "OAHPDLJIADP": 1.2000000476837158
            },
            "attackInfo": {
              "attackTag": "",
              "attenuationTag": "",
              "attenuationGroup": "default",
              "attackProperty": {
                "actorGrassSubHurtDelta": 0.8500000238418579,
                "actorWindSubHurtDelta": 0.0,
                "elementType": "Wind",
                "IPFJJJGABPL": 50.0,
                "strikeType": "Slash",
                "enBreak": 100.0,
                "attackType": "Range",
                "GLKMCMDJBIK": 0.0
              },
              "hitPattern": {
                "onHitEffectName": "default",
                "hitImpulseY": "",
                "hitImpulseType": "LV3",
                "retreatType": "ByHitDirection",
                "hitHaltTimeScale": 0.05000000074505806
              },
              "canBeModifiedBy": "OriginOwner"
            }
          },
          "targetType": "Enemy"
        },
        {
          "$type": "PFKNEFGOHIH",
          "modifierName": "BigBullet_Effect"
        },
        {
          "$type": "KBFEIHEAMBM",
          "rotationDampTime": "Eff_Monster_Hilistray_Wind_Syuriken02_Bullet02_AS",
          "born": {
            "$type": "JGEBAJLEBMO"
          },
          "PPPDJGDDOGD": 1.0,
          "AJDILHJFNKE": -1.0
        },
        {
          "$type": "NCFFNDHGCMH"
        }
      ],
      "onKill": [
        {
          "$type": "PFKNEFGOHIH",
          "modifierName": "BigBullet_Effect"
        }
      ]
    }
  },
  {
    "Default": {
      "$type": "CBPBEHLOHKI",
      "abilityName": "Hilistray_Wind_Syuriken02_BigBullet_LifeOver",
      "onAbilityStart": [
        {
          "$type": "AIFPLABJNMA",
          "attackEvent": {
            "attackPattern": {
              "$type": "BELNOFAKNBA",
              "triggerType": "TriggerNoRepeat",
              "born": {
                "$type": "IAENDIPDFKD",
                "useRotation": true
              },
              "OAHPDLJIADP": 1.2000000476837158
            },
            "attackInfo": {
              "attackTag": "",
              "attenuationTag": "",
              "attenuationGroup": "default",
              "attackProperty": {
                "actorGrassSubHurtDelta": 0.8500000238418579,
                "actorWindSubHurtDelta": 0.0,
                "elementType": "Wind",
                "IPFJJJGABPL": 50.0,
                "strikeType": "Default",
                "enBreak": 100.0,
                "attackType": "Range",
                "GLKMCMDJBIK": 0.0
              },
              "hitPattern": {
                "onHitEffectName": "none",
                "hitImpulseY": "",
                "hitImpulseType": "LV3",
                "retreatType": "ByHitDirection",
                "hitHaltTimeScale": 0.05000000074505806
              },
              "canBeModifiedBy": "OriginOwner"
            }
          },
          "targetType": "Enemy"
        },
        {
          "$type": "KBFEIHEAMBM",
          "rotationDampTime": "Eff_Monster_Hilistray_Wind_Syuriken02_Bullet02_AS",
          "born": {
            "$type": "IAENDIPDFKD",
            "useRotation": true
          },
          "PPPDJGDDOGD": 1.0,
          "AJDILHJFNKE": -1.0
        },
        {
          "$type": "NCFFNDHGCMH"
        }
      ]
    }
  },
  {
    "Default": {
      "$type": "CBPBEHLOHKI",
      "abilityName": "Monster_Hilistray_Wind_SpecialAtk_AirState",
      "abilityMixins": [
        {
          "$type": "EKMHJKDLBJH",
          "stateIDs": [
            "SpecialAtk_JumpUp",
            "SpecialAtk_InAir",
            "SpecialAtk_JumpDown"
          ],
          "modifierName": "Hilistray_Wind_SpecialAtk_AirState",
          "DGFCLAIDIFI": ""
        },
        {
          "$type": "MLJAPFBGEEH",
          "globalValueKey": "_HILISTRAY_WIND_STATE_",
          "gvInTalk": 0.0,
          "valueSteps": [
            -0.5,
            0.5,
            1.5
          ],
          "modifierNameSteps": [
            "Hilistray_Wind_OnGround",
            "Hilistray_Wind_InAir"
          ]
        },
        {
          "$type": "JJIHJPCPPGO",
          "abilityStates": [
            "ElementFreeze",
            "ElementPetrifaction"
          ],
          "modifierName": "Hilistray_Wind_SpecialAtk_SlimeStateHandler"
        }
      ],
      "modifiers": {
        "Hilistray_Wind_SpecialAtk_AirState": {
          "modifierName": "",
          "IPFJJJGABPL": 100.0,
          "onAdded": [
            {
              "$type": "DLEIPBPNAIM",
              "paramList": [
                0,
                0
              ]
            },
            {
              "$type": "BOBCOJHOKKD",
              "param3": 1.0,
              "key": "_HILISTRAY_WIND_STATE_",
              "param2": 0.0,
              "repeatTimes": 0.0
            }
          ],
          "onRemoved": [
            {
              "$type": "BOBCOJHOKKD",
              "param3": 0.0,
              "key": "_HILISTRAY_WIND_STATE_",
              "param2": 0.0,
              "repeatTimes": 0.0
            }
          ]
        },
        "Hilistray_Wind_OnGround": {
          "modifierName": "",
          "IPFJJJGABPL": 100.0,
          "onAdded": [
            {
              "$type": "IDNGFEEBPAM",
              "boolID": "AirState"
            },
            {
              "$type": "PELJALPANCA",
              "modifierName": "UNIQUE_Hilistray_Wind_SpecialAtk_AimPoint"
            }
          ]
        },
        "Hilistray_Wind_InAir": {
          "modifierName": "",
          "IPFJJJGABPL": 100.0,
          "properties": {
            "Actor_EndureDelta": 0.009999999776482582
          },
          "onAdded": [
            {
              "$type": "IDNGFEEBPAM",
              "boolID": "AirState",
              "param3": true
            },
            {
              "$type": "KBODPNEEFGD",
              "modifierName": "UNIQUE_Hilistray_Wind_SpecialAtk_AimPoint"
            }
          ]
        },
        "UNIQUE_Hilistray_Wind_SpecialAtk_AimPoint": {
          "modifierName": "",
          "forceTriggerWhenChangeAuthority": true,
          "IPFJJJGABPL": 100.0,
          "modifierMixins": [
            {
              "$type": "BFDNGLAIGLK",
              "overrideBulletAimPoint": "RootNode"
            }
          ]
        },
        "Hilistray_Wind_SpecialAtk_SlimeStateHandler": {
          "modifierName": "",
          "IPFJJJGABPL": 100.0,
          "onAdded": [
            {
              "$type": "FEKJDLHHOLE",
              "otherTargets": {
                "$type": "MEOIGEJCJLB",
                "topLimit": 1,
                "configID": 42104001
              },
              "floatID": "Speed",
              "param3": 0.0
            }
          ],
          "onRemoved": [
            {
              "$type": "FEKJDLHHOLE",
              "otherTargets": {
                "$type": "MEOIGEJCJLB",
                "topLimit": 1,
                "configID": 42104001
              },
              "floatID": "Speed",
              "param3": 1.0
            }
          ]
        }
      },
      "onAbilityStart": [
        {
          "$type": "PELJALPANCA",
          "modifierName": "UNIQUE_Hilistray_Wind_SpecialAtk_AimPoint"
        }
      ]
    }
  },
  {
    "Default": {
      "$type": "CBPBEHLOHKI",
      "abilityName": "Monster_Hilistray_Wind_SpecialAtk_AirState_End",
      "onAbilityStart": [
        {
          "$type": "BOBCOJHOKKD",
          "param3": 0.0,
          "key": "_HILISTRAY_WIND_STATE_",
          "param2": 0.0,
          "repeatTimes": 0.0
        }
      ]
    }
  },
  {
    "Default": {
      "$type": "CBPBEHLOHKI",
      "abilityName": "Monster_Hilistray_Wind_SpecialAtk_CreateSlime",
      "onAbilityStart": [
        {
          "$type": "GNGMFJBIDNA",
          "gadgetID": 42104001,
          "equipPart": "equip01"
        }
      ]
    }
  },
  {
    "Default": {
      "$type": "CBPBEHLOHKI",
      "abilityName": "Monster_Hilistray_Wind_SpecialAtk_RemoveSlime",
      "abilityMixins": [
        {
          "$type": "EKMHJKDLBJH",
          "stateIDs": [
            "SpecialAtk_JumpUp",
            "SpecialAtk_InAir",
            "SpecialAtk_JumpDown"
          ],
          "modifierName": "Hilistray_Wind_SpecialAtk_SlimeLife",
          "DGFCLAIDIFI": ""
        },
        {
          "$type": "EJDKAKLFCPA",
          "stateIDs": [
            "SpecialAtk_InAir"
          ],
          "modifierName": "Hilistray_Wind_SpecialAtk_SlimeInAir",
          "DGFCLAIDIFI": ""
        },
        {
          "$type": "EKMHJKDLBJH",
          "stateIDs": [
            "SpecialAtk_Drop"
          ],
          "modifierName": "Hilistray_Wind_SpecialAtk_SlimeClear",
          "DGFCLAIDIFI": ""
        }
      ],
      "modifiers": {
        "Hilistray_Wind_SpecialAtk_SlimeLife": {
          "modifierName": "",
          "IPFJJJGABPL": 100.0,
          "onAdded": [
            {
              "$type": "BOBCOJHOKKD",
              "param3": 0.0,
              "key": "_HILISTRAY_WIND_SLIMETAG_",
              "param2": 0.0,
              "repeatTimes": 0.0
            },
            {
              "$type": "GNAEJNBIFAC",
              "PLLJBINMGJK": "SpecialAtkEnd"
            }
          ],
          "onRemoved": [
            {
              "$type": "BLCCGIPAOIP",
              "otherTargets": {
                "$type": "MEOIGEJCJLB",
                "topLimit": 1,
                "configID": 42104001
              },
              "PLLJBINMGJK": "CanRemove",
              "mpTriggerOnRemote": true
            },
            {
              "$type": "BOBCOJHOKKD",
              "param3": 2.0,
              "key": "_HILISTRAY_WIND_SLIMETAG_",
              "param2": 0.0,
              "repeatTimes": 0.0
            }
          ]
        },
        "Hilistray_Wind_SpecialAtk_SlimeInAir": {
          "modifierName": "",
          "IPFJJJGABPL": 100.0,
          "onAdded": [
            {
              "$type": "BOBCOJHOKKD",
              "param3": 1.0,
              "key": "_HILISTRAY_WIND_SLIMETAG_",
              "param2": 0.0,
              "repeatTimes": 0.0
            }
          ],
          "onRemoved": [
            {
              "$type": "BLCCGIPAOIP",
              "otherTargets": {
                "$type": "MEOIGEJCJLB",
                "topLimit": 1,
                "configID": 42104001
              },
              "PLLJBINMGJK": "CanRemove",
              "mpTriggerOnRemote": true
            },
            {
              "$type": "BOBCOJHOKKD",
              "param3": 2.0,
              "key": "_HILISTRAY_WIND_SLIMETAG_",
              "param2": 0.0,
              "repeatTimes": 0.0
            }
          ]
        },
        "Hilistray_Wind_SpecialAtk_SlimeClear": {
          "modifierName": "",
          "IPFJJJGABPL": 100.0,
          "onAdded": [
            {
              "$type": "BLCCGIPAOIP",
              "otherTargets": {
                "$type": "MEOIGEJCJLB",
                "topLimit": 1,
                "configID": 42104001
              },
              "PLLJBINMGJK": "CanRemove",
              "mpTriggerOnRemote": true
            },
            {
              "$type": "BOBCOJHOKKD",
              "param3": 2.0,
              "key": "_HILISTRAY_WIND_SLIMETAG_",
              "param2": 0.0,
              "repeatTimes": 0.0
            }
          ]
        }
      },
      "onAbilityStart": [
        {
          "$type": "BOBCOJHOKKD",
          "param3": 1.0,
          "key": "_HILISTRAY_WIND_SLIMETAG_",
          "param2": 0.0,
          "repeatTimes": 0.0
        }
      ]
    }
  },
  {
    "Default": {
      "$type": "CBPBEHLOHKI",
      "abilityName": "Monster_Hilistray_Wind_SpecialAtk_WeaponEffectOn",
      "abilityMixins": [
        {
          "$type": "EJDKAKLFCPA",
          "stateIDs": [
            "SpecialAtk_InAir"
          ],
          "modifierName": "Hilistray_Wind_SpecialAtk_WeaponEffect_Handler",
          "DGFCLAIDIFI": ""
        }
      ],
      "modifiers": {
        "Hilistray_Wind_SpecialAtk_WeaponEffect_Handler": {
          "modifierName": "",
          "IPFJJJGABPL": 100.0,
          "onRemoved": [
            {
              "$type": "KBODPNEEFGD",
              "modifierName": "UNIQUE_Hilistray_Wind_SpecialAtk_WeaponEffect"
            }
          ]
        },
        "UNIQUE_Hilistray_Wind_SpecialAtk_WeaponEffect": {
          "modifierName": "",
          "forceTriggerWhenChangeAuthority": true,
          "IPFJJJGABPL": 100.0,
          "onAdded": [
            {
              "$type": "ANLOBBMKNIJ",
              "rotationDampTime": "Eff_Monster_Hilistray_Wind_SpecialAtk_Weapon",
              "PPPDJGDDOGD": 1.0,
              "AJDILHJFNKE": -1.0
            }
          ]
        }
      },
      "onAbilityStart": [
        {
          "$type": "PELJALPANCA",
          "modifierName": "UNIQUE_Hilistray_Wind_SpecialAtk_WeaponEffect"
        }
      ]
    }
  },
  {
    "Default": {
      "$type": "CBPBEHLOHKI",
      "abilityName": "Monster_Hilistray_Wind_SpecialAtk_WeaponEffectOff",
      "onAbilityStart": [
        {
          "$type": "KBODPNEEFGD",
          "modifierName": "UNIQUE_Hilistray_Wind_SpecialAtk_WeaponEffect"
        }
      ]
    }
  },
  {
    "Default": {
      "$type": "CBPBEHLOHKI",
      "abilityName": "Monster_Hilistray_Wind_SpecialAtk_Bullet_01",
      "onAbilityStart": [
        {
          "$type": "CAKDDHLKOAB",
          "bulletID": 42104002,
          "born": {
            "$type": "KLPANPDGHHA",
            "direction": {
              "$type": "MEADFIJAHPG",
              "maxAngle": 25.0,
              "startPoint": ""
            },
            "useRotation": true,
            "attachPointName": "SpecialAtkBullet01",
            "attachPointTargetType": "Self"
          }
        },
        {
          "$type": "JFAFIJFHNDM",
          "otherTargets": {
            "$type": "MEOIGEJCJLB",
            "topLimit": 1,
            "configID": 42104001
          },
          "faceAnimation": "Wind_WindBlade"
        }
      ]
    }
  },
  {
    "Default": {
      "$type": "CBPBEHLOHKI",
      "abilityName": "Monster_Hilistray_Wind_SpecialAtk_Bullet_02",
      "onAbilityStart": [
        {
          "$type": "CAKDDHLKOAB",
          "bulletID": 42104003,
          "born": {
            "$type": "KLPANPDGHHA",
            "direction": {
              "$type": "MEADFIJAHPG",
              "maxAngle": 25.0,
              "startPoint": ""
            },
            "useRotation": true,
            "attachPointName": "SpecialAtkBullet02",
            "attachPointTargetType": "Self"
          }
        },
        {
          "$type": "JFAFIJFHNDM",
          "otherTargets": {
            "$type": "MEOIGEJCJLB",
            "topLimit": 1,
            "configID": 42104001
          },
          "faceAnimation": "Wind_WindBlade"
        }
      ]
    }
  },
  {
    "Default": {
      "$type": "CBPBEHLOHKI",
      "abilityName": "Monster_Hilistray_Wind_SpecialAtk_Bullet_03",
      "onAbilityStart": [
        {
          "$type": "CAKDDHLKOAB",
          "bulletID": 42104004,
          "born": {
            "$type": "KLPANPDGHHA",
            "direction": {
              "$type": "MEADFIJAHPG",
              "maxAngle": 25.0,
              "startPoint": ""
            },
            "useRotation": true,
            "attachPointName": "SpecialAtkBullet03",
            "attachPointTargetType": "Self"
          }
        },
        {
          "$type": "JFAFIJFHNDM",
          "otherTargets": {
            "$type": "MEOIGEJCJLB",
            "topLimit": 1,
            "configID": 42104001
          },
          "faceAnimation": "Wind_WindBlade"
        }
      ]
    }
  },
  {
    "Default": {
      "$type": "CBPBEHLOHKI",
      "abilityName": "Hilistray_Wind_SpecialAtk_Slime",
      "abilityMixins": [
        {
          "$type": "CCNIOPJEHOE",
          "globalValueTarget": "Owner",
          "globalValueKey": "_HILISTRAY_WIND_SLIMETAG_",
          "valueSteps": [
            -0.5,
            0.5,
            1.5,
            2.5
          ],
          "modifierNameSteps": [
            "Hilistray_Wind_SpecialAtk_Slime_Normal",
            "Hilistray_Wind_SpecialAtk_Slime_InAir",
            "Hilistray_Wind_SpecialAtk_Slime_LifeOver"
          ]
        }
      ],
      "modifiers": {
        "Hilistray_Wind_SpecialAtk_Slime_Normal": {
          "modifierName": "",
          "IPFJJJGABPL": 100.0
        },
        "Hilistray_Wind_SpecialAtk_Slime_InAir": {
          "modifierName": "",
          "IPFJJJGABPL": 100.0,
          "properties": {
            "Actor_AddGravityScale": -1.899999976158142
          },
          "onAdded": [
            {
              "$type": "LBLNHEBGPJI",
              "forces": [
                "RetreatAirType"
              ]
            },
            {
              "$type": "AENLGPIPPAK",
              "hitBoxNames": [
                "HitBox_InAir"
              ],
              "setEnable": true
            }
          ],
          "onRemoved": [
            {
              "$type": "AENLGPIPPAK",
              "hitBoxNames": [
                "HitBox_InAir"
              ]
            }
          ],
          "onBeingHit": [
            {
              "$type": "INBCDALOHMP",
              "targetPredicates": [
                {
                  "$type": "EKJMHHOMFOP",
                  "hitImpulse": 0.0
                },
                {
                  "$type": "GAGDDICMFEH",
                  "damage": 0.0,
                  "useOriginDamage": true
                },
                {
                  "$type": "BCFNGJHILAG",
                  "predicates": [
                    {
                      "$type": "PNLEEOAGKLD",
                      "element": "Wind"
                    }
                  ]
                }
              ],
              "successActions": [
                {
                  "$type": "PELJALPANCA",
                  "target": "Owner",
                  "modifierName": "Hilistray_Wind_SpecialAtk_Log"
                },
                {
                  "$type": "BOBCOJHOKKD",
                  "param3": 1.0,
                  "key": "_SLIME_HITDIE_",
                  "param2": 0.0,
                  "repeatTimes": 0.0
                },
                {
                  "$type": "AENLGPIPPAK",
                  "hitBoxNames": [
                    "HitBox_InAir"
                  ]
                },
                {
                  "$type": "BLCCGIPAOIP",
                  "target": "Owner",
                  "PLLJBINMGJK": "SpecialAtkEnd"
                },
                {
                  "$type": "KJCHPDPBJHL",
                  "boolID": "HitDie",
                  "param3": true
                }
              ]
            }
          ]
        },
        "Hilistray_Wind_SpecialAtk_Log": {
          "modifierName": "",
          "elementDurability": 0.10000000149011612,
          "IPFJJJGABPL": 100.0,
          "onAdded": [
            {
              "$type": "DLEIPBPNAIM",
              "paramList": [
                0,
                1
              ]
            }
          ]
        },
        "Hilistray_Wind_SpecialAtk_Slime_LifeOver": {
          "stacking": "Unique",
          "modifierName": "",
          "IPFJJJGABPL": 100.0,
          "onAdded": [
            {
              "$type": "KBFEIHEAMBM",
              "target": "Caster",
              "predicates": [
                {
                  "$type": "CNGGLKHONAA",
                  "target": "Caster",
                  "key": "_SLIME_HITDIE_",
                  "param3": 0.0,
                  "compareType": "NoneOrEqual"
                }
              ],
              "rotationDampTime": "Eff_Monster_Hilistray_Wind_SpecialAtk_SlimeDisappear",
              "PPPDJGDDOGD": 1.0,
              "AJDILHJFNKE": -1.0
            },
            {
              "$type": "KBFEIHEAMBM",
              "target": "Caster",
              "predicates": [
                {
                  "$type": "CNGGLKHONAA",
                  "target": "Caster",
                  "key": "_SLIME_HITDIE_",
                  "param3": 1.0
                }
              ],
              "rotationDampTime": "Eff_Monster_Hilistray_Wind_SpecialAtk_SlimeHitDie",
              "PPPDJGDDOGD": 1.0,
              "AJDILHJFNKE": -1.0
            },
            {
              "$type": "NCFFNDHGCMH",
              "duration": 0.10000000149011612
            }
          ]
        },
        "Hilistray_Wind_SpecialAtk_Slime_Resistance": {
          "modifierName": "",
          "IPFJJJGABPL": 100.0,
          "properties": {
            "Actor_WindMuteHurtDelta": 1.0
          }
        }
      },
      "onAdded": [
        {
          "$type": "KJCHPDPBJHL",
          "boolID": "HitDie"
        },
        {
          "$type": "BOBCOJHOKKD",
          "param3": 0.0,
          "key": "_SLIME_HITDIE_",
          "param2": 0.0,
          "repeatTimes": 0.0
        },
        {
          "$type": "PELJALPANCA",
          "modifierName": "Hilistray_Wind_SpecialAtk_Slime_Resistance"
        }
      ]
    }
  },
  {
    "Default": {
      "$type": "CBPBEHLOHKI",
      "abilityName": "Hilistray_Wind_SpecialAtk_Slime_Effect",
      "abilityMixins": [
        {
          "$type": "EKMHJKDLBJH",
          "stateIDs": [
            "Born",
            "InAir"
          ],
          "modifierName": "Hilistray_Wind_SpecialAtk_Slime_Effect",
          "DGFCLAIDIFI": ""
        }
      ],
      "modifiers": {
        "Hilistray_Wind_SpecialAtk_Slime_Effect": {
          "modifierName": "",
          "IPFJJJGABPL": 100.0,
          "onAdded": [
            {
              "$type": "ANLOBBMKNIJ",
              "rotationDampTime": "Eff_Monster_Hilistray_Wind_SpecialAtk_SlimeExpand",
              "PPPDJGDDOGD": 1.0,
              "AJDILHJFNKE": -1.0
            }
          ]
        }
      }
    }
  },
  {
    "Default": {
      "$type": "CBPBEHLOHKI",
      "abilityName": "Hilistray_Wind_SpecialAtk_WindBlade_01",
      "modifiers": {
        "WindBlade_Effect": {
          "modifierName": "",
          "IPFJJJGABPL": 100.0,
          "onAdded": [
            {
              "$type": "ANLOBBMKNIJ",
              "rotationDampTime": "Eff_Monster_Hilistray_Wind_SpecialAtk_WindBlade_01",
              "PPPDJGDDOGD": 1.0,
              "AJDILHJFNKE": -1.0
            }
          ]
        }
      },
      "onAdded": [
        {
          "$type": "PELJALPANCA",
          "modifierName": "WindBlade_Effect"
        }
      ],
      "onAbilityStart": [
        {
          "$type": "AIFPLABJNMA",
          "attackEvent": {
            "attackPattern": {
              "$type": "BELNOFAKNBA",
              "triggerType": "TriggerNoRepeat",
              "born": {
                "$type": "JGEBAJLEBMO"
              },
              "OAHPDLJIADP": 0.5
            },
            "attackInfo": {
              "attackTag": "",
              "attenuationTag": "Hilistray_Wind_SpecialAtk",
              "attenuationGroup": "Hilistray_Wind_SpecialAtk",
              "attackProperty": {
                "actorGrassSubHurtDelta": 0.800000011920929,
                "actorWindSubHurtDelta": 0.0,
                "elementType": "Wind",
                "IPFJJJGABPL": 50.0,
                "strikeType": "Slash",
                "enBreak": 100.0,
                "GLKMCMDJBIK": 0.0
              },
              "hitPattern": {
                "onHitEffectName": "default",
                "hitImpulseY": "",
                "hitImpulseType": "LV4",
                "retreatType": "ByHitDirection",
                "hitHaltTimeScale": 0.05000000074505806
              },
              "canBeModifiedBy": "OriginOwner"
            }
          },
          "targetType": "Enemy"
        }
      ]
    }
  },
  {
    "Default": {
      "$type": "CBPBEHLOHKI",
      "abilityName": "Hilistray_Wind_SpecialAtk_WindBlade_02",
      "modifiers": {
        "WindBlade_Effect": {
          "modifierName": "",
          "IPFJJJGABPL": 100.0,
          "onAdded": [
            {
              "$type": "ANLOBBMKNIJ",
              "rotationDampTime": "Eff_Monster_Hilistray_Wind_SpecialAtk_WindBlade_02",
              "PPPDJGDDOGD": 1.0,
              "AJDILHJFNKE": -1.0
            }
          ]
        }
      },
      "onAdded": [
        {
          "$type": "PELJALPANCA",
          "modifierName": "WindBlade_Effect"
        }
      ],
      "onAbilityStart": [
        {
          "$type": "AIFPLABJNMA",
          "attackEvent": {
            "attackPattern": {
              "$type": "BELNOFAKNBA",
              "triggerType": "TriggerNoRepeat",
              "born": {
                "$type": "JGEBAJLEBMO"
              },
              "OAHPDLJIADP": 0.5
            },
            "attackInfo": {
              "attackTag": "",
              "attenuationTag": "Hilistray_Wind_SpecialAtk",
              "attenuationGroup": "Hilistray_Wind_SpecialAtk",
              "attackProperty": {
                "actorGrassSubHurtDelta": 0.800000011920929,
                "actorWindSubHurtDelta": 0.0,
                "elementType": "Wind",
                "IPFJJJGABPL": 50.0,
                "strikeType": "Slash",
                "enBreak": 100.0,
                "GLKMCMDJBIK": 0.0
              },
              "hitPattern": {
                "onHitEffectName": "default",
                "hitImpulseY": "",
                "hitImpulseType": "LV4",
                "retreatType": "ByHitDirection",
                "hitHaltTimeScale": 0.05000000074505806
              },
              "canBeModifiedBy": "OriginOwner"
            }
          },
          "targetType": "Enemy"
        }
      ]
    }
  },
  {
    "Default": {
      "$type": "CBPBEHLOHKI",
      "abilityName": "Hilistray_Wind_SpecialAtk_WindBlade_03",
      "modifiers": {
        "WindBlade_Effect": {
          "modifierName": "",
          "IPFJJJGABPL": 100.0,
          "onAdded": [
            {
              "$type": "ANLOBBMKNIJ",
              "rotationDampTime": "Eff_Monster_Hilistray_Wind_SpecialAtk_WindBlade_03",
              "PPPDJGDDOGD": 1.0,
              "AJDILHJFNKE": -1.0
            }
          ]
        }
      },
      "onAdded": [
        {
          "$type": "PELJALPANCA",
          "modifierName": "WindBlade_Effect"
        }
      ],
      "onAbilityStart": [
        {
          "$type": "AIFPLABJNMA",
          "attackEvent": {
            "attackPattern": {
              "$type": "BELNOFAKNBA",
              "triggerType": "TriggerNoRepeat",
              "born": {
                "$type": "JGEBAJLEBMO"
              },
              "OAHPDLJIADP": 0.5
            },
            "attackInfo": {
              "attackTag": "",
              "attenuationTag": "Hilistray_Wind_SpecialAtk",
              "attenuationGroup": "Hilistray_Wind_SpecialAtk",
              "attackProperty": {
                "actorGrassSubHurtDelta": 1.0,
                "actorWindSubHurtDelta": 0.0,
                "elementType": "Wind",
                "IPFJJJGABPL": 50.0,
                "strikeType": "Slash",
                "enBreak": 150.0,
                "GLKMCMDJBIK": 0.0
              },
              "hitPattern": {
                "onHitEffectName": "default",
                "hitImpulseY": "",
                "hitImpulseType": "LV4",
                "retreatType": "ByHitDirection",
                "hitHaltTimeScale": 0.05000000074505806
              },
              "canBeModifiedBy": "OriginOwner"
            }
          },
          "targetType": "Enemy"
        }
      ]
    }
  },
  {
    "Default": {
      "$type": "CBPBEHLOHKI",
      "abilityName": "Monster_Hilistray_Wind_JumpAlert",
      "abilityMixins": [
        {
          "$type": "EJDKAKLFCPA",
          "stateIDs": [
            "Alert02_BS",
            "Alert02_Forward_BS"
          ],
          "modifierName": "Hilistray_Wind_JumpAlert_AirHandler",
          "DGFCLAIDIFI": ""
        },
        {
          "$type": "AOKOIIHJJPJ",
          "alertness": [
            2
          ],
          "modifierName": "Hilistray_Wind_JumpAlert_Protect"
        }
      ],
      "modifiers": {
        "Hilistray_Wind_JumpAlert_AirHandler": {
          "modifierName": "",
          "IPFJJJGABPL": 100.0,
          "onAdded": [
            {
              "$type": "IDNGFEEBPAM",
              "boolID": "JumpAlertAir",
              "param3": true
            }
          ],
          "onRemoved": [
            {
              "$type": "IDNGFEEBPAM",
              "boolID": "JumpAlertAir"
            }
          ]
        },
        "Hilistray_Wind_JumpAlert_BeHit": {
          "modifierName": "",
          "IPFJJJGABPL": 100.0,
          "onBeingHit": [
            {
              "$type": "IDNGFEEBPAM",
              "boolID": "JumpAlert"
            },
            {
              "$type": "IDNGFEEBPAM",
              "boolID": "JumpForwardAlert"
            }
          ]
        },
        "Hilistray_Wind_JumpAlert_Protect": {
          "modifierName": "",
          "IPFJJJGABPL": 100.0,
          "onAdded": [
            {
              "$type": "PELJALPANCA",
              "modifierName": "Hilistray_Wind_JumpAlert_ForceChangePose"
            }
          ]
        },
        "Hilistray_Wind_JumpAlert_ForceChangePose": {
          "modifierName": "",
          "elementDurability": 1.0,
          "IPFJJJGABPL": 100.0,
          "onRemoved": [
            {
              "$type": "IDNGFEEBPAM",
              "boolID": "JumpAlert"
            },
            {
              "$type": "IDNGFEEBPAM",
              "boolID": "JumpForwardAlert"
            }
          ]
        }
      },
      "onAdded": [
        {
          "$type": "PELJALPANCA",
          "modifierName": "Hilistray_Wind_JumpAlert_BeHit"
        }
      ],
      "onAbilityStart": [
        {
          "$type": "IDNGFEEBPAM",
          "boolID": "JumpAlertAir"
        }
      ]
    }
  }
]