[
  {
    "Default": {
      "$type": "CBPBEHLOHKI",
      "abilityName": "Monster_Brute_NoWeapon_OutOfSit",
      "abilityMixins": [
        {
          "$type": "LEOGLBFIELL",
          "poseIDs": [
            401
          ],
          "modifierName": "Monster_Brute_NoWeapon_OutOfSit"
        }
      ],
      "modifiers": {
        "Monster_Brute_NoWeapon_OutOfSit": {
          "modifierName": "",
          "IPFJJJGABPL": 100.0,
          "onBeingHit": [
            {
              "$type": "IDNGFEEBPAM",
              "boolID": "Sit"
            }
          ]
        }
      }
    }
  },
  {
    "Default": {
      "$type": "CBPBEHLOHKI",
      "abilityName": "Monster_Brute_Ice_ResetBool",
      "onAbilityStart": [
        {
          "$type": "KJCHPDPBJHL",
          "boolID": "SkillHitState"
        }
      ]
    }
  },
  {
    "Default": {
      "$type": "CBPBEHLOHKI",
      "abilityName": "Monster_Brute_Rock_KillSoundEffect",
      "onAbilityStart": [
        {
          "$type": "KBODPNEEFGD",
          "modifierName": "UNIQUE_Monster_Brute_Rock_SoundEffect"
        }
      ]
    }
  },
  {
    "Default": {
      "$type": "CBPBEHLOHKI",
      "abilityName": "Monster_Brute_Rock_Die",
      "onAbilityStart": [
        {
          "$type": "KBODPNEEFGD",
          "modifierName": "UNIQUE_Brute_Rock_CoreOn"
        }
      ]
    }
  },
  {
    "Default": {
      "$type": "CBPBEHLOHKI",
      "abilityName": "Monster_Brute_Ice_JudgeDistanceToTarget",
      "modifiers": {
        "JudgeDistance": {
          "modifierName": "",
          "elementDurability": 0.10000000149011612,
          "IPFJJJGABPL": 100.0,
          "onRemoved": [
            {
              "$type": "BLCCGIPAOIP",
              "PLLJBINMGJK": "NextSkillTrigger"
            }
          ]
        }
      },
      "onAbilityStart": [
        {
          "$type": "JLDEMMJAMLC",
          "predicates": [
            {
              "$type": "FMBJAJFLDIP",
              "target": "SelfAttackTarget",
              "logic": "Lesser",
              "compareType": "XYZ",
              "param3": 5.0,
              "DDALGNLEHOD": ""
            }
          ],
          "modifierName": "JudgeDistance"
        }
      ]
    }
  },
  {
    "Default": {
      "$type": "CBPBEHLOHKI",
      "abilityName": "Monster_Brute_Rock_PowerSmash_RockWave",
      "onAbilityStart": [
        {
          "$type": "CAKDDHLKOAB",
          "bulletID": 42102007,
          "born": {
            "$type": "IAENDIPDFKD",
            "offset": {
              "KGEPIMHBMOL": 1.5,
              "JEBHCGDPFEJ": 0.0,
              "LPCHALMFFOD": 3.0
            },
            "direction": {
              "$type": "AHGNBAPONLA",
              "angleOffset": {
                "KGEPIMHBMOL": 0.0,
                "JEBHCGDPFEJ": 10.0,
                "LPCHALMFFOD": 0.0
              }
            }
          }
        },
        {
          "$type": "CAKDDHLKOAB",
          "bulletID": 42102007,
          "born": {
            "$type": "IAENDIPDFKD",
            "offset": {
              "KGEPIMHBMOL": -1.5,
              "JEBHCGDPFEJ": 0.0,
              "LPCHALMFFOD": 3.0
            },
            "direction": {
              "$type": "AHGNBAPONLA",
              "angleOffset": {
                "KGEPIMHBMOL": 0.0,
                "JEBHCGDPFEJ": -10.0,
                "LPCHALMFFOD": 0.0
              }
            }
          }
        }
      ]
    }
  },
  {
    "Default": {
      "$type": "CBPBEHLOHKI",
      "abilityName": "Brute_Rock_EarthWavePointAttack",
      "modifiers": {
        "Brute_RockWave_DelayRock": {
          "modifierName": "",
          "elementDurability": 0.20000000298023224,
          "IPFJJJGABPL": 100.0,
          "onAdded": [
            {
              "$type": "PELJALPANCA",
              "modifierName": "Brute_RockWave_NormalExplode"
            }
          ]
        },
        "Brute_RockWave_NormalExplode": {
          "modifierName": "",
          "elementDurability": 0.800000011920929,
          "IPFJJJGABPL": 100.0,
          "thinkInterval": 0.20000000298023224,
          "onThinkInterval": [
            {
              "$type": "KBFEIHEAMBM",
              "rotationDampTime": "Eff_Monster_Brute_Rock_None_ThumpAttack_Explode",
              "born": {
                "$type": "IAENDIPDFKD"
              },
              "PPPDJGDDOGD": 1.0,
              "AJDILHJFNKE": -1.0
            },
            {
              "$type": "AIFPLABJNMA",
              "attackEvent": {
                "attackPattern": {
                  "$type": "GMDIMKKHACA",
                  "triggerType": "TriggerNoRepeat",
                  "born": {
                    "$type": "IAENDIPDFKD",
                    "offset": {
                      "KGEPIMHBMOL": 0.0,
                      "JEBHCGDPFEJ": -1.0,
                      "LPCHALMFFOD": 0.0
                    }
                  },
                  "height": 3.0,
                  "OAHPDLJIADP": 2.0
                },
                "attackInfo": {
                  "attackTag": "",
                  "attenuationTag": "ThumpEarth_Damage",
                  "attenuationGroup": "Skirmisher_Fat_SprayGun_Ice",
                  "attackProperty": {
                    "actorGrassSubHurtDelta": 0.3330000042915344,
                    "actorWindSubHurtDelta": 0.0,
                    "elementType": "Rock",
                    "IPFJJJGABPL": 25.0,
                    "strikeType": "Blunt",
                    "enBreak": 100.0,
                    "GLKMCMDJBIK": 0.0
                  },
                  "hitPattern": {
                    "onHitEffectName": "default",
                    "hitImpulseY": "",
                    "hitImpulseType": "LV6",
                    "retreatType": "ByHitDirection",
                    "hitHaltTimeScale": 0.009999999776482582
                  },
                  "canBeModifiedBy": "OriginOwner"
                }
              },
              "targetType": "Enemy"
            }
          ]
        }
      },
      "onAdded": [
        {
          "$type": "KBFEIHEAMBM",
          "rotationDampTime": "Eff_Monster_Brute_Rock_None_ThumpAttackFinal_Explode",
          "born": {
            "$type": "IAENDIPDFKD"
          },
          "PPPDJGDDOGD": 1.0,
          "AJDILHJFNKE": -1.0
        },
        {
          "$type": "AIFPLABJNMA",
          "attackEvent": {
            "attackPattern": {
              "$type": "GMDIMKKHACA",
              "triggerType": "TriggerNoRepeat",
              "born": {
                "$type": "IAENDIPDFKD",
                "offset": {
                  "KGEPIMHBMOL": 0.0,
                  "JEBHCGDPFEJ": -1.0,
                  "LPCHALMFFOD": 0.0
                }
              },
              "height": 4.0,
              "OAHPDLJIADP": 2.5
            },
            "attackInfo": {
              "attackTag": "",
              "attenuationTag": "ThumpEarth_Damage",
              "attenuationGroup": "Skirmisher_Fat_SprayGun_Ice",
              "attackProperty": {
                "actorGrassSubHurtDelta": 0.3330000042915344,
                "actorWindSubHurtDelta": 0.0,
                "elementType": "Rock",
                "IPFJJJGABPL": 25.0,
                "strikeType": "Blunt",
                "enBreak": 100.0,
                "GLKMCMDJBIK": 0.0
              },
              "hitPattern": {
                "onHitEffectName": "default",
                "hitImpulseY": "",
                "hitImpulseType": "LV6",
                "retreatType": "ByHitDirection",
                "hitHaltTimeScale": 0.009999999776482582
              },
              "canBeModifiedBy": "OriginOwner"
            }
          },
          "targetType": "Enemy"
        },
        {
          "$type": "JLDEMMJAMLC",
          "modifierName": "Brute_RockWave_DelayRock"
        }
      ]
    }
  },
  {
    "Default": {
      "$type": "CBPBEHLOHKI",
      "abilityName": "Brute_Rock_EarthWavePointAttack_Final",
      "modifiers": {
        "Brute_RockWave_FinalExplode": {
          "modifierName": "",
          "elementDurability": 0.800000011920929,
          "IPFJJJGABPL": 100.0,
          "thinkInterval": 0.15000000596046448,
          "onThinkInterval": [
            {
              "$type": "KBFEIHEAMBM",
              "rotationDampTime": "Eff_Monster_Brute_Rock_None_ThumpAttackFinal_Explode",
              "born": {
                "$type": "IAENDIPDFKD"
              },
              "PPPDJGDDOGD": 1.0,
              "AJDILHJFNKE": -1.0
            },
            {
              "$type": "AIFPLABJNMA",
              "attackEvent": {
                "attackPattern": {
                  "$type": "GMDIMKKHACA",
                  "triggerType": "TriggerNoRepeat",
                  "born": {
                    "$type": "IAENDIPDFKD",
                    "offset": {
                      "KGEPIMHBMOL": 0.0,
                      "JEBHCGDPFEJ": -1.0,
                      "LPCHALMFFOD": 0.0
                    }
                  },
                  "height": 2.5,
                  "OAHPDLJIADP": 4.0
                },
                "attackInfo": {
                  "attackTag": "",
                  "attenuationTag": "ThumpEarth_Damage",
                  "attenuationGroup": "Skirmisher_Fat_SprayGun_Ice",
                  "attackProperty": {
                    "actorGrassSubHurtDelta": 0.3330000042915344,
                    "actorWindSubHurtDelta": 0.0,
                    "elementType": "Rock",
                    "IPFJJJGABPL": 25.0,
                    "strikeType": "Blunt",
                    "enBreak": 100.0,
                    "GLKMCMDJBIK": 0.0
                  },
                  "hitPattern": {
                    "onHitEffectName": "default",
                    "hitImpulseY": "",
                    "hitImpulseType": "LV6",
                    "retreatType": "ByHitDirection",
                    "hitHaltTimeScale": 0.009999999776482582
                  },
                  "canBeModifiedBy": "OriginOwner"
                }
              },
              "targetType": "Enemy"
            }
          ]
        }
      },
      "onAdded": [
        {
          "$type": "JLDEMMJAMLC",
          "modifierName": "Brute_RockWave_FinalExplode"
        }
      ]
    }
  },
  {
    "Default": {
      "$type": "CBPBEHLOHKI",
      "abilityName": "Brute_Rock_EarthWaveAttack",
      "modifiers": {
        "RockWave_Effect": {
          "modifierName": "",
          "IPFJJJGABPL": 100.0,
          "onAdded": [
            {
              "$type": "ANLOBBMKNIJ",
              "rotationDampTime": "Eff_Monster_Brute_Rock_None_ThumpAttack_Explode",
              "PPPDJGDDOGD": 1.0,
              "AJDILHJFNKE": -1.0
            }
          ]
        }
      },
      "onAdded": [
        {
          "$type": "JLDEMMJAMLC",
          "modifierName": "RockWave_Effect"
        }
      ],
      "onAbilityStart": [
        {
          "$type": "AIFPLABJNMA",
          "attackEvent": {
            "attackPattern": {
              "$type": "BELNOFAKNBA",
              "triggerType": "TriggerNoRepeat",
              "born": {
                "$type": "JGEBAJLEBMO"
              },
              "OAHPDLJIADP": 1.0
            },
            "attackInfo": {
              "attackTag": "",
              "attenuationTag": "ThumpEarth_Damage",
              "attenuationGroup": "Skirmisher_Fat_SprayGun_Ice",
              "attackProperty": {
                "actorGrassSubHurtDelta": 0.3330000042915344,
                "actorWindSubHurtDelta": 0.0,
                "elementType": "Rock",
                "IPFJJJGABPL": 25.0,
                "strikeType": "Blunt",
                "enBreak": 100.0,
                "GLKMCMDJBIK": 0.0
              },
              "hitPattern": {
                "onHitEffectName": "default",
                "hitImpulseY": "",
                "hitImpulseType": "LV6",
                "retreatType": "ByHitDirection",
                "hitHaltTimeScale": 0.009999999776482582
              },
              "canBeModifiedBy": "OriginOwner"
            }
          },
          "targetType": "Enemy"
        }
      ]
    }
  },
  {
    "Default": {
      "$type": "CBPBEHLOHKI",
      "abilityName": "Brute_Rock_EarthWaveAttackFinal",
      "modifiers": {
        "RockWave_Effect": {
          "modifierName": "",
          "IPFJJJGABPL": 100.0,
          "onAdded": [
            {
              "$type": "ANLOBBMKNIJ",
              "rotationDampTime": "Eff_Monster_Brute_Rock_None_ThumpAttackFinal_Explode",
              "PPPDJGDDOGD": 1.0,
              "AJDILHJFNKE": -1.0
            }
          ]
        }
      },
      "onAdded": [
        {
          "$type": "JLDEMMJAMLC",
          "modifierName": "RockWave_Effect"
        }
      ],
      "onAbilityStart": [
        {
          "$type": "AIFPLABJNMA",
          "attackEvent": {
            "attackPattern": {
              "$type": "BELNOFAKNBA",
              "triggerType": "TriggerNoRepeat",
              "born": {
                "$type": "JGEBAJLEBMO"
              },
              "OAHPDLJIADP": 1.0
            },
            "attackInfo": {
              "attackTag": "",
              "attenuationTag": "ThumpEarth_Damage",
              "attenuationGroup": "Skirmisher_Fat_SprayGun_Ice",
              "attackProperty": {
                "actorGrassSubHurtDelta": 0.3330000042915344,
                "actorWindSubHurtDelta": 0.0,
                "elementType": "Rock",
                "IPFJJJGABPL": 25.0,
                "strikeType": "Blunt",
                "enBreak": 100.0,
                "GLKMCMDJBIK": 0.0
              },
              "hitPattern": {
                "onHitEffectName": "default",
                "hitImpulseY": "",
                "hitImpulseType": "LV8",
                "retreatType": "ByHitDirection",
                "hitHaltTimeScale": 0.009999999776482582
              },
              "canBeModifiedBy": "OriginOwner"
            }
          },
          "targetType": "Enemy"
        }
      ]
    }
  },
  {
    "Default": {
      "$type": "CBPBEHLOHKI",
      "abilityName": "Monster_Brute_Ice_JudgeDistanceToTarget2",
      "modifiers": {
        "JudgeDistance": {
          "modifierName": "",
          "elementDurability": 0.009999999776482582,
          "IPFJJJGABPL": 100.0,
          "onRemoved": [
            {
              "$type": "BLCCGIPAOIP",
              "PLLJBINMGJK": "NextSkillTrigger"
            }
          ]
        }
      },
      "onAbilityStart": [
        {
          "$type": "JLDEMMJAMLC",
          "predicates": [
            {
              "$type": "FMBJAJFLDIP",
              "target": "SelfAttackTarget",
              "logic": "LesserOrEqual",
              "compareType": "XYZ",
              "param3": 5.0,
              "DDALGNLEHOD": ""
            }
          ],
          "modifierName": "JudgeDistance"
        }
      ]
    }
  },
  {
    "Default": {
      "$type": "CBPBEHLOHKI",
      "abilityName": "Brute_Ice_Turn",
      "abilityMixins": [
        {
          "$type": "LEOGLBFIELL",
          "poseIDs": [
            111,
            113,
            114,
            115
          ],
          "modifierName": "NoWeapon_Steer"
        }
      ],
      "modifiers": {
        "NoWeapon_Steer": {
          "modifierName": "",
          "IPFJJJGABPL": 100.0,
          "modifierMixins": [
            {
              "$type": "IILHMBGONGM",
              "steerStateIDs": [
                "NormalIdle"
              ],
              "attackTrigger": "",
              "DGFCLAIDIFI": ""
            },
            {
              "$type": "IILHMBGONGM",
              "steerStateIDs": [
                "NormalMove"
              ],
              "angularSpeed": 150.0,
              "attackTrigger": "",
              "DGFCLAIDIFI": ""
            },
            {
              "$type": "IILHMBGONGM",
              "steerStateIDs": [
                "TurnRight"
              ],
              "endNormalizedTime": 0.20000000298023224,
              "angularSpeed": 100.0,
              "attackTrigger": "",
              "DGFCLAIDIFI": ""
            },
            {
              "$type": "IILHMBGONGM",
              "steerStateIDs": [
                "TurnRight"
              ],
              "startNormalizedTime": 0.15000000596046448,
              "endNormalizedTime": 0.6000000238418579,
              "angularSpeed": 250.0,
              "attackTrigger": "",
              "DGFCLAIDIFI": ""
            },
            {
              "$type": "IILHMBGONGM",
              "steerStateIDs": [
                "TurnLeft"
              ],
              "endNormalizedTime": 0.20000000298023224,
              "angularSpeed": 100.0,
              "attackTrigger": "",
              "DGFCLAIDIFI": ""
            },
            {
              "$type": "IILHMBGONGM",
              "steerStateIDs": [
                "TurnLeft"
              ],
              "startNormalizedTime": 0.15000000596046448,
              "endNormalizedTime": 0.6000000238418579,
              "angularSpeed": 250.0,
              "attackTrigger": "",
              "DGFCLAIDIFI": ""
            },
            {
              "$type": "IILHMBGONGM",
              "steerStateIDs": [
                "Smash"
              ],
              "endNormalizedTime": 0.30000001192092896,
              "angularSpeed": 700.0,
              "attackTrigger": "",
              "attackDistance": 2.0,
              "DGFCLAIDIFI": ""
            },
            {
              "$type": "IILHMBGONGM",
              "steerStateIDs": [
                "BurstStrike"
              ],
              "endNormalizedTime": 0.20000000298023224,
              "angularSpeed": 400.0,
              "attackTrigger": "",
              "attackDistance": 2.0,
              "DGFCLAIDIFI": ""
            },
            {
              "$type": "IILHMBGONGM",
              "steerStateIDs": [
                "SmashHeavy"
              ],
              "endNormalizedTime": 0.20000000298023224,
              "angularSpeed": 400.0,
              "attackTrigger": "",
              "attackDistance": 2.0,
              "DGFCLAIDIFI": ""
            },
            {
              "$type": "IILHMBGONGM",
              "steerStateIDs": [
                "SmashHeavy_BS"
              ],
              "endNormalizedTime": 0.20000000298023224,
              "angularSpeed": 400.0,
              "attackTrigger": "",
              "attackDistance": 2.0,
              "DGFCLAIDIFI": ""
            },
            {
              "$type": "IILHMBGONGM",
              "steerStateIDs": [
                "RushCombo1_DoubleSmash",
                "DoubleSmash",
                "PowerDoubleSmash"
              ],
              "startNormalizedTime": 0.20000000298023224,
              "endNormalizedTime": 0.3400000035762787,
              "angularSpeed": 150.0,
              "attackTrigger": "",
              "attackDistance": 2.0,
              "DGFCLAIDIFI": ""
            },
            {
              "$type": "IILHMBGONGM",
              "steerStateIDs": [
                "RushCombo1_DoubleSmash",
                "DoubleSmash",
                "PowerDoubleSmash"
              ],
              "startNormalizedTime": 0.5199999809265137,
              "endNormalizedTime": 0.5699999928474426,
              "angularSpeed": 200.0,
              "attackTrigger": "",
              "attackDistance": 2.0,
              "DGFCLAIDIFI": ""
            },
            {
              "$type": "IILHMBGONGM",
              "steerStateIDs": [
                "RushCombo1_JumpAttack"
              ],
              "endNormalizedTime": 0.15000000596046448,
              "angularSpeed": 250.0,
              "attackTrigger": "",
              "attackDistance": 10.0,
              "DGFCLAIDIFI": ""
            },
            {
              "$type": "IILHMBGONGM",
              "steerStateIDs": [
                "JumpAttack"
              ],
              "endNormalizedTime": 0.15000000596046448,
              "angularSpeed": 400.0,
              "attackTrigger": "",
              "attackDistance": 10.0,
              "DGFCLAIDIFI": ""
            },
            {
              "$type": "IILHMBGONGM",
              "steerStateIDs": [
                "JumpAttack2to4"
              ],
              "endNormalizedTime": 0.09000000357627869,
              "angularSpeed": 500.0,
              "attackTrigger": "",
              "attackDistance": 10.0,
              "DGFCLAIDIFI": ""
            },
            {
              "$type": "IILHMBGONGM",
              "steerStateIDs": [
                "ThumpEarth"
              ],
              "startNormalizedTime": 0.10000000149011612,
              "endNormalizedTime": 0.20000000298023224,
              "angularSpeed": 600.0,
              "attackTrigger": "",
              "attackDistance": 10.0,
              "DGFCLAIDIFI": ""
            },
            {
              "$type": "IILHMBGONGM",
              "steerStateIDs": [
                "ThumpEarth2to4"
              ],
              "startNormalizedTime": 0.10000000149011612,
              "endNormalizedTime": 0.20000000298023224,
              "angularSpeed": 300.0,
              "attackTrigger": "",
              "attackDistance": 10.0,
              "DGFCLAIDIFI": ""
            },
            {
              "$type": "IILHMBGONGM",
              "steerStateIDs": [
                "ThrowBigSlime"
              ],
              "endNormalizedTime": 0.1599999964237213,
              "angularSpeed": 360.0,
              "attackTrigger": "",
              "attackDistance": 10.0,
              "DGFCLAIDIFI": ""
            },
            {
              "$type": "IILHMBGONGM",
              "steerStateIDs": [
                "ThrowSmallSlime"
              ],
              "endNormalizedTime": 0.1599999964237213,
              "angularSpeed": 360.0,
              "attackTrigger": "",
              "attackDistance": 10.0,
              "DGFCLAIDIFI": ""
            },
            {
              "$type": "IILHMBGONGM",
              "steerStateIDs": [
                "RushAttack_BS"
              ],
              "endNormalizedTime": 0.20000000298023224,
              "angularSpeed": 300.0,
              "attackTrigger": "",
              "attackDistance": 10.0,
              "DGFCLAIDIFI": ""
            },
            {
              "$type": "IILHMBGONGM",
              "steerStateIDs": [
                "RushCombo1_Rush_BS"
              ],
              "startNormalizedTime": 0.30000001192092896,
              "angularSpeed": 250.0,
              "attackTrigger": "",
              "DGFCLAIDIFI": ""
            },
            {
              "$type": "IILHMBGONGM",
              "steerStateIDs": [
                "RushCombo3_Rush_Loop"
              ],
              "startNormalizedTime": 0.25,
              "endNormalizedTime": 0.699999988079071,
              "angularSpeed": 300.0,
              "attackTrigger": "",
              "DGFCLAIDIFI": ""
            }
          ]
        }
      }
    }
  },
  {
    "Default": {
      "$type": "CBPBEHLOHKI",
      "abilityName": "Monster_Brute_Rock_Core",
      "abilityMixins": [
        {
          "$type": "LEOGLBFIELL",
          "poseIDs": [
            901,
            902,
            903
          ],
          "modifierName": "Monster_Brute_Rock_ExitBattle"
        },
        {
          "$type": "MLJAPFBGEEH",
          "globalValueKey": "_MONSTER_BRUTE_ROCK_POWER_STATE",
          "gvInTalk": 0.0,
          "valueSteps": [
            -0.5,
            0.5,
            1.5
          ],
          "modifierNameSteps": [
            "Monster_Brute_Rock_PowerStateOff",
            "Monster_Brute_Rock_PowerStateOn"
          ]
        }
      ],
      "modifiers": {
        "Monster_Brute_Rock_ExitBattle": {
          "modifierName": "",
          "IPFJJJGABPL": 100.0,
          "onAdded": [
            {
              "$type": "KBODPNEEFGD",
              "modifierName": "UNIQUE_Brute_Rock_CoreOn"
            },
            {
              "$type": "IPMMJGMONCI",
              "skillIDs": [
                1
              ]
            },
            {
              "$type": "GFFKENEJFFB",
              "target": "Caster",
              "intID": "CoreState"
            },
            {
              "$type": "LCOEFEMOHLP",
              "param3": -3.0,
              "key": "_MONSTER_BRUTE_ROCK_POSE",
              "useLimitRange": true,
              "param2": 2.0,
              "repeatTimes": 0.0
            },
            {
              "$type": "OHPMBBJIJFG",
              "value": 7.0
            },
            {
              "$type": "IDNGFEEBPAM",
              "boolID": "ExitPower"
            },
            {
              "$type": "BOBCOJHOKKD",
              "param3": 0.0,
              "key": "_MONSTER_BRUTE_ROCK_POWER_STATE",
              "param2": 0.0,
              "repeatTimes": 0.0
            }
          ]
        },
        "UNIQUE_Brute_Rock_CoreOn": {
          "modifierName": "",
          "forceTriggerWhenChangeAuthority": true,
          "elementDurability": 90.0,
          "elementType": "Rock",
          "IPFJJJGABPL": 500.0,
          "modifierMixins": [
            {
              "$type": "BKAAGFNKMLF",
              "showDamageText": ""
            }
          ],
          "properties": {
            "Actor_EndureDelta": 0.0
          },
          "onAdded": [
            {
              "$type": "GFFKENEJFFB",
              "target": "Caster",
              "intID": "CoreState",
              "value": 1
            },
            {
              "$type": "OHPMBBJIJFG",
              "target": "Caster",
              "value": 1.7000000476837158
            },
            {
              "$type": "LCOEFEMOHLP",
              "param3": 1.0,
              "key": "_MONSTER_BRUTE_ROCK_POSE",
              "useLimitRange": true,
              "param2": 2.0,
              "repeatTimes": 0.0
            },
            {
              "$type": "JLDEMMJAMLC",
              "modifierName": "UNIQUE_Monster_Brute_Rock_SoundEffect"
            },
            {
              "$type": "BOBCOJHOKKD",
              "param3": 1.0,
              "key": "_MONSTER_BRUTE_ROCK_POWER_STATE",
              "param2": 0.0,
              "repeatTimes": 0.0
            }
          ],
          "onRemoved": [
            {
              "$type": "IDNGFEEBPAM",
              "boolID": "ExitPower",
              "param3": true
            }
          ],
          "onKill": [
            {
              "$type": "HCLAKBJKPLE",
              "watcherId": 82017,
              "inThreatListOnly": true
            }
          ]
        },
        "UNIQUE_Monster_Brute_Rock_SoundEffect": {
          "modifierName": "",
          "forceTriggerWhenChangeAuthority": true,
          "IPFJJJGABPL": 100.0,
          "onAdded": [
            {
              "$type": "ANLOBBMKNIJ",
              "rotationDampTime": "Eff_Monster_Brute_Rock_PowerSound",
              "born": {
                "$type": "KLPANPDGHHA",
                "attachPointName": "RootNode"
              },
              "PPPDJGDDOGD": 1.0,
              "AJDILHJFNKE": -1.0
            }
          ]
        },
        "Monster_Brute_Rock_CoreOn_Handler": {
          "modifierName": "",
          "elementDurability": 1.2799999713897705,
          "IPFJJJGABPL": 100.0,
          "onAdded": [
            {
              "$type": "PELJALPANCA",
              "modifierName": "Monster_Brute_Rock_CoreOn_ForSure"
            }
          ],
          "onRemoved": [
            {
              "$type": "PELJALPANCA",
              "predicates": [
                {
                  "$type": "BCFNGJHILAG",
                  "predicates": [
                    {
                      "$type": "CNGGLKHONAA",
                      "key": "_MONSTER_BRUTE_ROCK_POWER_STATE",
                      "param3": 1.0
                    }
                  ]
                }
              ],
              "modifierName": "UNIQUE_Brute_Rock_CoreOn"
            },
            {
              "$type": "ONALKNNKKLH",
              "cameraShake": {
                "shakeRange": 8.0,
                "shakeTime": 0.4000000059604645,
                "shakeDistance": 40.0,
                "extension": {}
              },
              "born": {
                "$type": "IAENDIPDFKD"
              }
            }
          ]
        },
        "Monster_Brute_Rock_CoreOn_ForSure": {
          "modifierName": "",
          "elementDurability": 5.0,
          "IPFJJJGABPL": 100.0,
          "onReconnect": [
            {
              "$type": "PELJALPANCA",
              "predicates": [
                {
                  "$type": "BCFNGJHILAG",
                  "predicates": [
                    {
                      "$type": "CNGGLKHONAA",
                      "key": "_MONSTER_BRUTE_ROCK_POWER_STATE",
                      "param3": 1.0
                    }
                  ]
                }
              ],
              "modifierName": "UNIQUE_Brute_Rock_CoreOn"
            }
          ],
          "onChangeAuthority": [
            {
              "$type": "PELJALPANCA",
              "predicates": [
                {
                  "$type": "BCFNGJHILAG",
                  "predicates": [
                    {
                      "$type": "CNGGLKHONAA",
                      "key": "_MONSTER_BRUTE_ROCK_POWER_STATE",
                      "param3": 1.0
                    }
                  ]
                }
              ],
              "modifierName": "UNIQUE_Brute_Rock_CoreOn"
            }
          ]
        },
        "Monster_Brute_Rock_PowerStateOff": {
          "modifierName": "",
          "IPFJJJGABPL": 100.0,
          "onAdded": [
            {
              "$type": "KJCHPDPBJHL",
              "boolID": "PowerState"
            }
          ],
          "onReconnect": [
            {
              "$type": "KJCHPDPBJHL",
              "boolID": "PowerState"
            }
          ],
          "onChangeAuthority": [
            {
              "$type": "KJCHPDPBJHL",
              "boolID": "PowerState"
            }
          ]
        },
        "Monster_Brute_Rock_PowerStateOn": {
          "modifierName": "",
          "IPFJJJGABPL": 100.0,
          "onAdded": [
            {
              "$type": "KJCHPDPBJHL",
              "boolID": "PowerState",
              "param3": true
            }
          ],
          "onReconnect": [
            {
              "$type": "KJCHPDPBJHL",
              "boolID": "PowerState",
              "param3": true
            }
          ],
          "onChangeAuthority": [
            {
              "$type": "KJCHPDPBJHL",
              "boolID": "PowerState",
              "param3": true
            }
          ]
        }
      },
      "onAbilityStart": [
        {
          "$type": "PELJALPANCA",
          "modifierName": "Monster_Brute_Rock_CoreOn_Handler"
        }
      ]
    }
  },
  {
    "Default": {
      "$type": "CBPBEHLOHKI",
      "abilityName": "Monster_Brute_Rock_ExitPower",
      "modifiers": {
        "Monster_Brute_Rock_ExitPower_Handler": {
          "modifierName": "",
          "elementDurability": 0.800000011920929,
          "IPFJJJGABPL": 100.0,
          "onAdded": [
            {
              "$type": "PELJALPANCA",
              "modifierName": "Monster_Brute_Rock_ExitPower_ForSure"
            }
          ],
          "onRemoved": [
            {
              "$type": "PELJALPANCA",
              "modifierName": "Monster_Brute_Rock_ExitPower"
            }
          ]
        },
        "Monster_Brute_Rock_ExitPower_ForSure": {
          "modifierName": "",
          "elementDurability": 5.0,
          "IPFJJJGABPL": 100.0,
          "onReconnect": [
            {
              "$type": "PELJALPANCA",
              "modifierName": "Monster_Brute_Rock_ExitPower"
            }
          ],
          "onChangeAuthority": [
            {
              "$type": "PELJALPANCA",
              "modifierName": "Monster_Brute_Rock_ExitPower"
            }
          ]
        },
        "Monster_Brute_Rock_ExitPower": {
          "modifierName": "",
          "elementDurability": 1.0,
          "IPFJJJGABPL": 100.0,
          "onAdded": [
            {
              "$type": "GFFKENEJFFB",
              "target": "Caster",
              "intID": "CoreState"
            },
            {
              "$type": "LCOEFEMOHLP",
              "param3": -3.0,
              "key": "_MONSTER_BRUTE_ROCK_POSE",
              "useLimitRange": true,
              "param2": 2.0,
              "repeatTimes": 0.0
            },
            {
              "$type": "OHPMBBJIJFG",
              "value": 7.0
            },
            {
              "$type": "IDNGFEEBPAM",
              "boolID": "ExitPower"
            },
            {
              "$type": "BOBCOJHOKKD",
              "param3": 0.0,
              "key": "_MONSTER_BRUTE_ROCK_POWER_STATE",
              "param2": 0.0,
              "repeatTimes": 0.0
            }
          ]
        }
      },
      "onAbilityStart": [
        {
          "$type": "PELJALPANCA",
          "modifierName": "Monster_Brute_Rock_ExitPower_Handler"
        }
      ]
    }
  },
  {
    "Default": {
      "$type": "CBPBEHLOHKI",
      "abilityName": "Brute_Ice_Core",
      "modifiers": {
        "Core_Ice_Element": {
          "modifierName": "",
          "elementType": "Ice",
          "IPFJJJGABPL": 100.0,
          "onRemoved": [
            {
              "$type": "KBFEIHEAMBM",
              "rotationDampTime": "Eff_Monster_Brute_Shield_ShieldBroken",
              "PPPDJGDDOGD": 1.0,
              "AJDILHJFNKE": -1.0
            },
            {
              "$type": "NCFFNDHGCMH"
            }
          ]
        }
      },
      "onAdded": [
        {
          "$type": "GFFKENEJFFB",
          "target": "Owner",
          "intID": "CoreState"
        },
        {
          "$type": "LCOEFEMOHLP",
          "target": "Owner",
          "param3": 0.0,
          "key": "_CORE_IS_BREAK",
          "useLimitRange": true,
          "param2": 1.0,
          "repeatTimes": 0.0
        },
        {
          "$type": "PELJALPANCA",
          "modifierName": "Core_Ice_Element"
        }
      ],
      "onDetach": [
        {
          "$type": "GFFKENEJFFB",
          "target": "Owner",
          "intID": "CoreState",
          "value": 1
        },
        {
          "$type": "CCNPNMMONDO",
          "target": "Target",
          "attackInfo": {
            "attackTag": "",
            "attenuationTag": "",
            "attenuationGroup": "default",
            "attackProperty": {
              "actorGrassSubHurtDelta": 0.0,
              "actorWindSubHurtDelta": 0.0,
              "IPFJJJGABPL": 100.0,
              "strikeType": "Default",
              "enBreak": 1000.0,
              "GLKMCMDJBIK": 0.0
            },
            "hitPattern": {
              "onHitEffectName": "default",
              "hitImpulseY": "",
              "hitImpulseType": "LV4",
              "hitHaltTimeScale": 0.05000000074505806
            }
          }
        },
        {
          "$type": "ONALKNNKKLH",
          "cameraShake": {
            "shakeType": "CustomVector",
            "shakeRange": 0.20000000298023224,
            "shakeTime": 0.15000000596046448,
            "shakeDistance": 25.0,
            "shakeDir": {
              "y": 1.0,
              "z": 0.5
            }
          }
        }
      ]
    }
  },
  {
    "Default": {
      "$type": "CBPBEHLOHKI",
      "abilityName": "Brute_Ice_CoreSheild",
      "abilityMixins": [
        {
          "$type": "LEOGLBFIELL",
          "poseIDs": [
            111
          ],
          "modifierName": "Brute_Ice_AddCoreSheild"
        }
      ],
      "modifiers": {
        "Brute_Ice_AddCoreSheild": {
          "modifierName": "",
          "IPFJJJGABPL": 100.0
        }
      }
    }
  },
  {
    "Default": {
      "$type": "CBPBEHLOHKI",
      "abilityName": "Monster_Brute_Rock_PowerJumpAttack_RockWave",
      "onAbilityStart": [
        {
          "$type": "CAKDDHLKOAB",
          "bulletID": 42102007,
          "born": {
            "$type": "IAENDIPDFKD",
            "offset": {
              "KGEPIMHBMOL": -2.0,
              "JEBHCGDPFEJ": 0.0,
              "LPCHALMFFOD": 2.0
            },
            "direction": {
              "$type": "AHGNBAPONLA",
              "angleOffset": {
                "KGEPIMHBMOL": 0.0,
                "JEBHCGDPFEJ": -45.0,
                "LPCHALMFFOD": 0.0
              }
            }
          }
        },
        {
          "$type": "CAKDDHLKOAB",
          "bulletID": 42102007,
          "born": {
            "$type": "IAENDIPDFKD",
            "offset": {
              "KGEPIMHBMOL": 2.0,
              "JEBHCGDPFEJ": 0.0,
              "LPCHALMFFOD": 2.0
            },
            "direction": {
              "$type": "AHGNBAPONLA",
              "angleOffset": {
                "KGEPIMHBMOL": 0.0,
                "JEBHCGDPFEJ": 45.0,
                "LPCHALMFFOD": 0.0
              }
            }
          }
        },
        {
          "$type": "CAKDDHLKOAB",
          "bulletID": 42102007,
          "born": {
            "$type": "IAENDIPDFKD",
            "offset": {
              "KGEPIMHBMOL": 2.0,
              "JEBHCGDPFEJ": 0.0,
              "LPCHALMFFOD": -2.0
            },
            "direction": {
              "$type": "AHGNBAPONLA",
              "angleOffset": {
                "KGEPIMHBMOL": 0.0,
                "JEBHCGDPFEJ": 135.0,
                "LPCHALMFFOD": 0.0
              }
            }
          }
        },
        {
          "$type": "CAKDDHLKOAB",
          "bulletID": 42102007,
          "born": {
            "$type": "IAENDIPDFKD",
            "offset": {
              "KGEPIMHBMOL": -2.0,
              "JEBHCGDPFEJ": 0.0,
              "LPCHALMFFOD": -2.0
            },
            "direction": {
              "$type": "AHGNBAPONLA",
              "angleOffset": {
                "KGEPIMHBMOL": 0.0,
                "JEBHCGDPFEJ": -135.0,
                "LPCHALMFFOD": 0.0
              }
            }
          }
        }
      ]
    }
  },
  {
    "Default": {
      "$type": "CBPBEHLOHKI",
      "abilityName": "Monster_Brute_Rock_JumpRange",
      "onAbilityStart": [
        {
          "$type": "INBCDALOHMP",
          "target": "SelfAttackTarget",
          "targetPredicates": [
            {
              "$type": "FMBJAJFLDIP",
              "logic": "LesserOrEqual",
              "param3": 5.0,
              "DDALGNLEHOD": ""
            }
          ],
          "failActions": [
            {
              "$type": "BHPDPACKKNI",
              "target": "SelfAttackTarget",
              "born": {
                "$type": "GMLEDLAGLJM",
                "offset": {
                  "KGEPIMHBMOL": 0.0,
                  "JEBHCGDPFEJ": 0.0,
                  "LPCHALMFFOD": 0.0
                },
                "onGround": true,
                "linearOffset": -2.0,
                "linearXZ": false,
                "linearMin": 0.0,
                "linearMax": 20.0
              },
              "hitSceneType": "BlinkHitSceneTestByThreeSegments",
              "limitY": 2.5
            },
            {
              "$type": "PAGFCBCKEBH",
              "toPos": {
                "$type": "DNEKFAOHKBC"
              },
              "NKPCHMCNNOK": 0.8100000023841858,
              "animatorStateIDs": [
                "JumpAttack",
                "JumpAttack2",
                "PowerJumpAttack",
                "PowerJumpAttackFirst",
                "PowerJumpAttackSecond",
                "PowerJumpAttackThird",
                "PowerJumpAttackFourth"
              ],
              "overrideMoveCollider": "",
              "isInAir": true
            }
          ]
        }
      ]
    }
  },
  {
    "Default": {
      "$type": "CBPBEHLOHKI",
      "abilityName": "Brute_Rock_JumpAttack_Alert",
      "modifiers": {
        "JumpAttackAlertEffect": {
          "modifierName": "",
          "elementDurability": 1.0,
          "IPFJJJGABPL": 100.0,
          "onAdded": [
            {
              "$type": "INBCDALOHMP",
              "target": "SelfAttackTarget",
              "targetPredicates": [
                {
                  "$type": "FMBJAJFLDIP",
                  "logic": "LesserOrEqual",
                  "param3": 5.0,
                  "DDALGNLEHOD": ""
                }
              ],
              "successActions": [
                {
                  "$type": "KBFEIHEAMBM",
                  "rotationDampTime": "Eff_Monster_Brute_Rock_None_JumpAttack_Alert",
                  "born": {
                    "$type": "IAENDIPDFKD",
                    "offset": {
                      "KGEPIMHBMOL": 0.0,
                      "JEBHCGDPFEJ": 0.0,
                      "LPCHALMFFOD": 3.1500000953674316
                    }
                  },
                  "PPPDJGDDOGD": 1.0,
                  "AJDILHJFNKE": -1.0
                }
              ],
              "failActions": [
                {
                  "$type": "KBFEIHEAMBM",
                  "rotationDampTime": "Eff_Monster_Brute_Rock_None_JumpAttack_Alert",
                  "born": {
                    "$type": "HCHAOBKOELI",
                    "offset": {
                      "KGEPIMHBMOL": 0.0,
                      "JEBHCGDPFEJ": 0.0,
                      "LPCHALMFFOD": 0.0
                    }
                  },
                  "PPPDJGDDOGD": 1.0,
                  "AJDILHJFNKE": -1.0
                }
              ]
            }
          ]
        },
        "JumpCollider": {
          "modifierName": "",
          "elementDurability": 0.800000011920929,
          "IPFJJJGABPL": 100.0,
          "onAdded": [
            {
              "$type": "IEJIAEEJHGE"
            },
            {
              "$type": "FDFGJPNDKEA",
              "pushColliderNames": [
                "PushCollider"
              ]
            }
          ],
          "onRemoved": [
            {
              "$type": "IEJIAEEJHGE",
              "castShadow": true
            },
            {
              "$type": "FDFGJPNDKEA",
              "pushColliderNames": [
                "PushCollider"
              ],
              "setEnable": true
            }
          ]
        }
      },
      "onAbilityStart": [
        {
          "$type": "PELJALPANCA",
          "modifierName": "JumpAttackAlertEffect"
        },
        {
          "$type": "PELJALPANCA",
          "modifierName": "JumpCollider"
        }
      ]
    }
  },
  {
    "Default": {
      "$type": "CBPBEHLOHKI",
      "abilityName": "Brute_Rock_JumpAttack_Damage",
      "abilityMixins": [
        {
          "$type": "EKMHJKDLBJH",
          "stateIDs": [
            "JumpAttack"
          ],
          "modifierName": "SetJumpAttackHit",
          "DGFCLAIDIFI": ""
        }
      ],
      "modifiers": {
        "SetJumpAttackHit": {
          "modifierName": "",
          "IPFJJJGABPL": 100.0,
          "onAttackLanded": [
            {
              "$type": "KJCHPDPBJHL",
              "boolID": "SkillHitState",
              "param3": true
            }
          ]
        }
      },
      "onAbilityStart": [
        {
          "$type": "AIFPLABJNMA",
          "attackEvent": {
            "attackPattern": {
              "$type": "GMDIMKKHACA",
              "triggerType": "TriggerNoRepeat",
              "born": {
                "$type": "IAENDIPDFKD",
                "offset": {
                  "KGEPIMHBMOL": 0.0,
                  "JEBHCGDPFEJ": 0.0,
                  "LPCHALMFFOD": 2.0
                }
              },
              "height": 2.5,
              "OAHPDLJIADP": 4.0
            },
            "attackInfo": {
              "attackTag": "",
              "attenuationTag": "",
              "attenuationGroup": "default",
              "attackProperty": {
                "actorGrassSubHurtDelta": 1.0,
                "actorWindSubHurtDelta": 0.0,
                "IPFJJJGABPL": 100.0,
                "strikeType": "Blunt",
                "enBreak": 200.0,
                "GLKMCMDJBIK": 0.0
              },
              "hitPattern": {
                "onHitEffectName": "default",
                "hitImpulseY": "",
                "hitImpulseType": "LV8",
                "hitHaltTimeScale": 0.009999999776482582
              },
              "forceCameraShake": true,
              "cameraShake": {
                "shakeType": "CustomVector",
                "shakeRange": 5.0,
                "shakeTime": 0.20000000298023224,
                "shakeDistance": 35.0,
                "shakeDir": {
                  "y": 2.0
                },
                "extension": {}
              }
            }
          },
          "targetType": "Enemy"
        }
      ]
    }
  },
  {
    "Default": {
      "$type": "CBPBEHLOHKI",
      "abilityName": "Monster_Brute_Rock_GoEmptyPose",
      "modifiers": {
        "Brute_Rock_GoEmptyPose": {
          "modifierName": "",
          "elementDurability": 3.0,
          "IPFJJJGABPL": 100.0,
          "onAdded": [
            {
              "$type": "GFFKENEJFFB",
              "target": "Caster",
              "intID": "CoreState",
              "value": 2
            }
          ],
          "onRemoved": [
            {
              "$type": "INBCDALOHMP",
              "targetPredicates": [
                {
                  "$type": "CNGGLKHONAA",
                  "key": "_MONSTER_BRUTE_ROCK_POSE",
                  "param3": 0.0
                }
              ],
              "successActions": [
                {
                  "$type": "GFFKENEJFFB",
                  "target": "Caster",
                  "intID": "CoreState"
                }
              ],
              "failActions": [
                {
                  "$type": "GFFKENEJFFB",
                  "target": "Caster",
                  "intID": "CoreState",
                  "value": 1
                }
              ]
            }
          ]
        }
      },
      "onAdded": [
        {
          "$type": "LCOEFEMOHLP",
          "param3": -3.0,
          "key": "_MONSTER_BRUTE_ROCK_POSE",
          "useLimitRange": true,
          "param2": 2.0,
          "repeatTimes": 0.0
        }
      ],
      "onAbilityStart": [
        {
          "$type": "PELJALPANCA",
          "modifierName": "Brute_Rock_GoEmptyPose"
        }
      ]
    }
  },
  {
    "Default": {
      "$type": "CBPBEHLOHKI",
      "abilityName": "Brute_Rock_RushComboAttack",
      "abilityMixins": [
        {
          "$type": "EKMHJKDLBJH",
          "stateIDs": [
            "RushCombo1_Rush_Loop"
          ],
          "modifierName": "Rush",
          "DGFCLAIDIFI": ""
        },
        {
          "$type": "EKMHJKDLBJH",
          "stateIDs": [
            "RushCombo2_Rush_Loop"
          ],
          "modifierName": "Rush",
          "DGFCLAIDIFI": ""
        },
        {
          "$type": "EKMHJKDLBJH",
          "stateIDs": [
            "RushCombo3_Rush_Loop"
          ],
          "modifierName": "Rush",
          "DGFCLAIDIFI": ""
        },
        {
          "$type": "CGANCPEKBPF",
          "onHittingScene": [
            {
              "$type": "BLCCGIPAOIP",
              "PLLJBINMGJK": "CrashTrigger"
            }
          ],
          "animEventIDs": [
            "ShieldRush_HitScene"
          ]
        }
      ],
      "modifiers": {
        "Rush": {
          "modifierName": "",
          "IPFJJJGABPL": 100.0,
          "onAdded": [
            {
              "$type": "ANLOBBMKNIJ",
              "rotationDampTime": "Eff_Monster_Brute_Rock_None_RushAttack_Rush",
              "PPPDJGDDOGD": 1.0,
              "AJDILHJFNKE": -1.0
            }
          ],
          "onAttackLanded": [
            {
              "$type": "BLCCGIPAOIP",
              "predicates": [
                {
                  "$type": "NIMAPECDNKD",
                  "entityTypes": [
                    "Avatar",
                    "Vehicle",
                    "Partner"
                  ],
                  "useEventSource": true
                }
              ],
              "PLLJBINMGJK": "SkillHitTrigger"
            }
          ]
        },
        "RushAttack_Damage": {
          "modifierName": "",
          "elementDurability": 1.2000000476837158,
          "IPFJJJGABPL": 100.0,
          "thinkInterval": 0.4000000059604645
        }
      },
      "onAbilityStart": [
        {
          "$type": "JLDEMMJAMLC",
          "modifierName": "RushAttack_Damage"
        }
      ]
    }
  },
  {
    "Default": {
      "$type": "CBPBEHLOHKI",
      "abilityName": "Brute_Ice_RushComboAttack",
      "abilityMixins": [
        {
          "$type": "EKMHJKDLBJH",
          "stateIDs": [
            "RushCombo1_Rush_Loop"
          ],
          "modifierName": "Rush",
          "DGFCLAIDIFI": ""
        },
        {
          "$type": "EKMHJKDLBJH",
          "stateIDs": [
            "RushCombo2_Rush_Loop"
          ],
          "modifierName": "Rush",
          "DGFCLAIDIFI": ""
        },
        {
          "$type": "EKMHJKDLBJH",
          "stateIDs": [
            "RushCombo3_Rush_Loop"
          ],
          "modifierName": "Rush",
          "DGFCLAIDIFI": ""
        },
        {
          "$type": "CGANCPEKBPF",
          "onHittingScene": [
            {
              "$type": "BLCCGIPAOIP",
              "PLLJBINMGJK": "CrashTrigger"
            }
          ],
          "animEventIDs": [
            "ShieldRush_HitScene"
          ]
        }
      ],
      "modifiers": {
        "Rush": {
          "modifierName": "",
          "IPFJJJGABPL": 100.0,
          "onAdded": [
            {
              "$type": "ANLOBBMKNIJ",
              "rotationDampTime": "Eff_Monster_Brute_Rock_None_RushAttack_Rush",
              "PPPDJGDDOGD": 1.0,
              "AJDILHJFNKE": -1.0
            }
          ],
          "onAttackLanded": [
            {
              "$type": "BLCCGIPAOIP",
              "predicates": [
                {
                  "$type": "NIMAPECDNKD",
                  "entityTypes": [
                    "Avatar",
                    "Vehicle",
                    "Partner"
                  ],
                  "useEventSource": true
                }
              ],
              "PLLJBINMGJK": "SkillHitTrigger"
            }
          ]
        },
        "RushAttack_Damage": {
          "modifierName": "",
          "elementDurability": 1.2000000476837158,
          "IPFJJJGABPL": 100.0,
          "thinkInterval": 0.4000000059604645
        }
      },
      "onAbilityStart": [
        {
          "$type": "JLDEMMJAMLC",
          "modifierName": "RushAttack_Damage"
        }
      ]
    }
  },
  {
    "Default": {
      "$type": "CBPBEHLOHKI",
      "abilityName": "Monster_Brute_Rock_ChangeShader",
      "onAbilityStart": [
        {
          "$type": "KJCHPDPBJHL",
          "boolID": "SkinTrigger",
          "param3": true
        }
      ]
    }
  },
  {
    "Default": {
      "$type": "CBPBEHLOHKI",
      "abilityName": "Brute_Rock_ThumpEarth_Attack",
      "onAbilityStart": [
        {
          "$type": "MPAGCPPAIHJ",
          "key": "_MONSTER_BRUTE_ROCK_THUMPEARTH_POS",
          "born": {
            "$type": "IAENDIPDFKD",
            "offset": {
              "KGEPIMHBMOL": 0.0,
              "JEBHCGDPFEJ": 0.0,
              "LPCHALMFFOD": 15.0
            }
          },
          "setTarget": false
        },
        {
          "$type": "ONALKNNKKLH",
          "cameraShake": {
            "shakeType": "CustomVector",
            "shakeRange": 5.0,
            "shakeTime": 0.20000000298023224,
            "shakeDistance": 25.0,
            "shakeDir": {
              "y": 2.0
            }
          }
        },
        {
          "$type": "CAKDDHLKOAB",
          "bulletID": 42102007,
          "born": {
            "$type": "IAENDIPDFKD",
            "offset": {
              "KGEPIMHBMOL": 0.0,
              "JEBHCGDPFEJ": 0.0,
              "LPCHALMFFOD": 3.5
            },
            "direction": {
              "$type": "AHGNBAPONLA",
              "angleOffset": {
                "KGEPIMHBMOL": 0.0,
                "JEBHCGDPFEJ": 0.0,
                "LPCHALMFFOD": 0.0
              }
            }
          }
        },
        {
          "$type": "CAKDDHLKOAB",
          "bulletID": 42102007,
          "born": {
            "$type": "IAENDIPDFKD",
            "offset": {
              "KGEPIMHBMOL": 1.7000000476837158,
              "JEBHCGDPFEJ": 0.0,
              "LPCHALMFFOD": 3.0
            },
            "direction": {
              "$type": "AHGNBAPONLA",
              "angleOffset": {
                "KGEPIMHBMOL": 0.0,
                "JEBHCGDPFEJ": 30.0,
                "LPCHALMFFOD": 0.0
              }
            }
          }
        },
        {
          "$type": "CAKDDHLKOAB",
          "bulletID": 42102007,
          "born": {
            "$type": "IAENDIPDFKD",
            "offset": {
              "KGEPIMHBMOL": -1.7000000476837158,
              "JEBHCGDPFEJ": 0.0,
              "LPCHALMFFOD": 3.0
            },
            "direction": {
              "$type": "AHGNBAPONLA",
              "angleOffset": {
                "KGEPIMHBMOL": 0.0,
                "JEBHCGDPFEJ": -30.0,
                "LPCHALMFFOD": 0.0
              }
            }
          }
        }
      ]
    }
  },
  {
    "Default": {
      "$type": "CBPBEHLOHKI",
      "abilityName": "Monster_Brute_Rock_CloseShader",
      "onAbilityStart": [
        {
          "$type": "KJCHPDPBJHL",
          "boolID": "SkinTrigger"
        }
      ]
    }
  },
  {
    "Default": {
      "$type": "CBPBEHLOHKI",
      "abilityName": "Brute_Rock_ThumpEarth_AttackFinal",
      "modifiers": {
        "ActCameraShakeDelay": {
          "modifierName": "",
          "elementDurability": 0.20000000298023224,
          "IPFJJJGABPL": 100.0,
          "onRemoved": [
            {
              "$type": "ONALKNNKKLH",
              "cameraShake": {
                "shakeType": "CustomVector",
                "shakeRange": 5.0,
                "shakeTime": 0.20000000298023224,
                "shakeDistance": 25.0,
                "shakeDir": {
                  "y": 2.0
                }
              }
            }
          ]
        }
      },
      "onAbilityStart": [
        {
          "$type": "JLDEMMJAMLC",
          "modifierName": "ActCameraShakeDelay"
        },
        {
          "$type": "CAKDDHLKOAB",
          "bulletID": 42102008,
          "born": {
            "$type": "IAENDIPDFKD",
            "offset": {
              "KGEPIMHBMOL": 0.0,
              "JEBHCGDPFEJ": 0.0,
              "LPCHALMFFOD": 1.0
            },
            "direction": {
              "$type": "AHGNBAPONLA",
              "angleOffset": {
                "KGEPIMHBMOL": 0.0,
                "JEBHCGDPFEJ": 0.0,
                "LPCHALMFFOD": 0.0
              }
            }
          }
        },
        {
          "$type": "CAKDDHLKOAB",
          "bulletID": 42102008,
          "born": {
            "$type": "IAENDIPDFKD",
            "offset": {
              "KGEPIMHBMOL": 0.5,
              "JEBHCGDPFEJ": 0.0,
              "LPCHALMFFOD": 0.5
            },
            "direction": {
              "$type": "AHGNBAPONLA",
              "angleOffset": {
                "KGEPIMHBMOL": 0.0,
                "JEBHCGDPFEJ": 30.0,
                "LPCHALMFFOD": 0.0
              }
            }
          }
        },
        {
          "$type": "CAKDDHLKOAB",
          "bulletID": 42102008,
          "born": {
            "$type": "IAENDIPDFKD",
            "offset": {
              "KGEPIMHBMOL": -0.5,
              "JEBHCGDPFEJ": 0.0,
              "LPCHALMFFOD": 0.5
            },
            "direction": {
              "$type": "AHGNBAPONLA",
              "angleOffset": {
                "KGEPIMHBMOL": 0.0,
                "JEBHCGDPFEJ": -30.0,
                "LPCHALMFFOD": 0.0
              }
            }
          }
        }
      ]
    }
  },
  {
    "Default": {
      "$type": "CBPBEHLOHKI",
      "abilityName": "Monster_Brute_Rock_CreateSlime",
      "onAbilityStart": [
        {
          "$type": "ONALKNNKKLH",
          "cameraShake": {
            "shakeRange": 8.0,
            "shakeTime": 0.30000001192092896
          }
        }
      ]
    }
  },
  {
    "Default": {
      "$type": "CBPBEHLOHKI",
      "abilityName": "Monster_Brute_Rock_ThrowBigSlime",
      "onAbilityStart": [
        {
          "$type": "CAKDDHLKOAB",
          "bulletID": 42102009,
          "born": {
            "$type": "JHEBKCMEMLN",
            "offset": {
              "KGEPIMHBMOL": 0.0,
              "JEBHCGDPFEJ": 0.10000000149011612,
              "LPCHALMFFOD": 1.0
            }
          }
        }
      ]
    }
  },
  {
    "Default": {
      "$type": "CBPBEHLOHKI",
      "abilityName": "Monster_Brute_Rock_ThrowSmallSlime",
      "modifiers": {
        "Brute_ThrowSmallSlime_Two": {
          "modifierName": "",
          "elementDurability": 0.20000000298023224,
          "IPFJJJGABPL": 100.0,
          "onRemoved": [
            {
              "$type": "CAKDDHLKOAB",
              "bulletID": 42102010,
              "born": {
                "$type": "IAENDIPDFKD",
                "offset": {
                  "KGEPIMHBMOL": 0.0,
                  "JEBHCGDPFEJ": 0.10000000149011612,
                  "LPCHALMFFOD": 1.0
                }
              }
            }
          ]
        },
        "Brute_ThrowSmallSlime_Three": {
          "modifierName": "",
          "elementDurability": 0.30000001192092896,
          "IPFJJJGABPL": 100.0,
          "onRemoved": [
            {
              "$type": "CAKDDHLKOAB",
              "bulletID": 42102010,
              "born": {
                "$type": "IAENDIPDFKD",
                "offset": {
                  "KGEPIMHBMOL": 0.0,
                  "JEBHCGDPFEJ": 0.10000000149011612,
                  "LPCHALMFFOD": 1.0
                }
              }
            }
          ]
        }
      },
      "onAbilityStart": [
        {
          "$type": "CAKDDHLKOAB",
          "bulletID": 42102010,
          "born": {
            "$type": "IAENDIPDFKD",
            "offset": {
              "KGEPIMHBMOL": 0.0,
              "JEBHCGDPFEJ": 0.10000000149011612,
              "LPCHALMFFOD": 1.0
            }
          }
        },
        {
          "$type": "JLDEMMJAMLC",
          "modifierName": "Brute_ThrowSmallSlime_Two"
        },
        {
          "$type": "JLDEMMJAMLC",
          "modifierName": "Brute_ThrowSmallSlime_Three"
        }
      ]
    }
  },
  {
    "Default": {
      "$type": "CBPBEHLOHKI",
      "abilityName": "Brute_Rock_BigSlime_Explode",
      "modifiers": {
        "Trail": {
          "modifierName": "",
          "IPFJJJGABPL": 100.0,
          "onAdded": [
            {
              "$type": "ANLOBBMKNIJ",
              "rotationDampTime": "Eff_Monster_Brute_Rock_ThrowBig_Bullet",
              "PPPDJGDDOGD": 1.0,
              "AJDILHJFNKE": -1.0
            }
          ]
        },
        "OpenColliderDelay": {
          "modifierName": "",
          "elementDurability": 0.20000000298023224,
          "IPFJJJGABPL": 100.0,
          "onRemoved": [
            {
              "$type": "NKEFJJHHAPG",
              "setEnable": true
            }
          ]
        }
      },
      "onAdded": [
        {
          "$type": "JLDEMMJAMLC",
          "modifierName": "Trail"
        },
        {
          "$type": "JLDEMMJAMLC",
          "modifierName": "OpenColliderDelay"
        }
      ],
      "onAbilityStart": [
        {
          "$type": "PFKNEFGOHIH",
          "modifierName": "Trail"
        },
        {
          "$type": "AIFPLABJNMA",
          "attackEvent": {
            "attackPattern": {
              "$type": "BELNOFAKNBA",
              "triggerType": "TriggerNoRepeat",
              "born": {
                "$type": "JGEBAJLEBMO"
              },
              "OAHPDLJIADP": 4.0
            },
            "attackInfo": {
              "attackTag": "",
              "attenuationTag": "",
              "attenuationGroup": "default",
              "attackProperty": {
                "actorGrassSubHurtDelta": 0.8330000042915344,
                "actorWindSubHurtDelta": 0.0,
                "elementType": "Rock",
                "IPFJJJGABPL": 50.0,
                "strikeType": "Blunt",
                "enBreak": 200.0,
                "GLKMCMDJBIK": 0.0
              },
              "hitPattern": {
                "onHitEffectName": "default",
                "hitImpulseY": "",
                "hitImpulseType": "LV6",
                "retreatType": "ByHitDirection",
                "hitHaltTimeScale": 0.05000000074505806
              },
              "forceCameraShake": true,
              "cameraShake": {
                "shakeRange": 5.0,
                "shakeTime": 0.10000000149011612,
                "shakeDistance": 25.0,
                "extension": {
                  "rangeAttenuation": 0.8999999761581421
                }
              },
              "canBeModifiedBy": "OriginOwner"
            }
          },
          "targetType": "Enemy"
        },
        {
          "$type": "KBFEIHEAMBM",
          "rotationDampTime": "Eff_Monster_Brute_Rock_ThrowBig_Explode",
          "born": {
            "$type": "JGEBAJLEBMO",
            "alongGround": true
          },
          "PPPDJGDDOGD": 1.0,
          "AJDILHJFNKE": -1.0
        }
      ]
    }
  },
  {
    "Default": {
      "$type": "CBPBEHLOHKI",
      "abilityName": "Brute_Rock_SmallSlime_Explode",
      "modifiers": {
        "Trail": {
          "modifierName": "",
          "IPFJJJGABPL": 100.0,
          "onAdded": [
            {
              "$type": "ANLOBBMKNIJ",
              "rotationDampTime": "Eff_Monster_Brute_Rock_ThrowSmall_Bullet",
              "PPPDJGDDOGD": 1.0,
              "AJDILHJFNKE": -1.0
            }
          ]
        },
        "OpenColliderDelay": {
          "modifierName": "",
          "elementDurability": 0.20000000298023224,
          "IPFJJJGABPL": 100.0,
          "onRemoved": [
            {
              "$type": "NKEFJJHHAPG",
              "setEnable": true
            }
          ]
        }
      },
      "onAdded": [
        {
          "$type": "JLDEMMJAMLC",
          "modifierName": "Trail"
        },
        {
          "$type": "JLDEMMJAMLC",
          "modifierName": "OpenColliderDelay"
        }
      ],
      "onAbilityStart": [
        {
          "$type": "PFKNEFGOHIH",
          "modifierName": "Trail"
        },
        {
          "$type": "AIFPLABJNMA",
          "attackEvent": {
            "attackPattern": {
              "$type": "BELNOFAKNBA",
              "triggerType": "TriggerNoRepeat",
              "born": {
                "$type": "JGEBAJLEBMO"
              },
              "OAHPDLJIADP": 1.5
            },
            "attackInfo": {
              "attackTag": "",
              "attenuationTag": "",
              "attenuationGroup": "default",
              "attackProperty": {
                "actorGrassSubHurtDelta": 0.6660000085830688,
                "actorWindSubHurtDelta": 0.0,
                "elementType": "Rock",
                "IPFJJJGABPL": 50.0,
                "strikeType": "Blunt",
                "enBreak": 200.0,
                "GLKMCMDJBIK": 0.0
              },
              "hitPattern": {
                "onHitEffectName": "default",
                "hitImpulseY": "",
                "hitImpulseType": "LV4",
                "retreatType": "ByHitDirection",
                "hitHaltTimeScale": 0.05000000074505806
              },
              "forceCameraShake": true,
              "cameraShake": {
                "shakeRange": 0.20000000298023224,
                "shakeTime": 0.30000001192092896,
                "shakeDistance": 25.0,
                "extension": {
                  "rangeAttenuation": 0.8999999761581421
                }
              },
              "canBeModifiedBy": "OriginOwner"
            }
          },
          "targetType": "Enemy"
        },
        {
          "$type": "KBFEIHEAMBM",
          "rotationDampTime": "Eff_Monster_Brute_Rock_ThrowSmall_Explode",
          "born": {
            "$type": "JGEBAJLEBMO",
            "alongGround": true
          },
          "PPPDJGDDOGD": 1.0,
          "AJDILHJFNKE": -1.0
        }
      ]
    }
  },
  {
    "Default": {
      "$type": "CBPBEHLOHKI",
      "abilityName": "Monster_Brute_TowerDefence_Affix_PowerUp",
      "modifiers": {
        "Monster_Brute_TowerDefence_Affix_PowerUp": {
          "modifierName": "",
          "IPFJJJGABPL": 100.0,
          "onAdded": [
            {
              "$type": "INBCDALOHMP",
              "canBeHandledOnRecover": true,
              "targetPredicates": [
                {
                  "$type": "CNGGLKHONAA",
                  "key": "_MONSTERAFFIX_BRUTE_TOWER_POWERUP",
                  "param3": 1.0
                }
              ],
              "successActions": [
                {
                  "$type": "HNGKOKDJKDL",
                  "skillEliteSetID": 2
                }
              ],
              "failActions": [
                {
                  "$type": "HNGKOKDJKDL",
                  "skillEliteSetID": 1
                }
              ]
            }
          ]
        }
      },
      "onAdded": [
        {
          "$type": "LCOEFEMOHLP",
          "param3": 0.0,
          "key": "_MONSTERAFFIX_BRUTE_TOWER_POWERUP",
          "param2": 0.0,
          "repeatTimes": 0.0
        },
        {
          "$type": "PELJALPANCA",
          "modifierName": "Monster_Brute_TowerDefence_Affix_PowerUp"
        }
      ]
    }
  }
]