[
  {
    "Default": {
      "$type": "CBPBEHLOHKI",
      "abilityName": "Monster_MachinaIustitia_Probe_Pose",
      "abilityMixins": [
        {
          "$type": "MLJAPFBGEEH",
          "globalValueKey": "_MACHINAIUSTITIA_STATIC_STATE_",
          "gvInTalk": 0.0,
          "valueSteps": [
            -1.5,
            -0.5,
            0.5,
            1.5
          ],
          "modifierNameSteps": [
            "Pose_Init_Pneuma",
            "Pose_Init_Normal",
            "Pose_Init_Ousia"
          ]
        },
        {
          "$type": "MLJAPFBGEEH",
          "globalValueKey": "arkheGradeKey",
          "gvInTalk": 0.0,
          "valueSteps": [
            -1.5,
            -0.5,
            0.5,
            1.5
          ],
          "modifierNameSteps": [
            "Pose_Pneuma_1",
            "Pose_Normal",
            "Pose_Ousia_1"
          ]
        },
        {
          "$type": "CADNOOEAFHD",
          "actionQueue": [
            {
              "$type": "BLCCGIPAOIP",
              "predicates": [
                {
                  "$type": "CNGGLKHONAA",
                  "key": "arkheGradeKey",
                  "param3": 0.0
                },
                {
                  "$type": "IMPNKNCABJD",
                  "target": "Self"
                }
              ],
              "PLLJBINMGJK": "HitSpecialTrigger"
            }
          ]
        }
      ],
      "modifiers": {
        "Pose_Init_Pneuma": {
          "modifierName": "",
          "IPFJJJGABPL": 100.0,
          "onAdded": [
            {
              "$type": "BOBCOJHOKKD",
              "param3": -1.0,
              "key": "arkheGradeKey",
              "param2": 0.0,
              "repeatTimes": 0.0
            },
            {
              "$type": "AKEEDILMOJF",
              "intID": "StaticStateTag",
              "param3": -1.0
            }
          ]
        },
        "Pose_Init_Normal": {
          "modifierName": "",
          "IPFJJJGABPL": 100.0,
          "onAdded": [
            {
              "$type": "BOBCOJHOKKD",
              "param3": 0.0,
              "key": "arkheGradeKey",
              "param2": 0.0,
              "repeatTimes": 0.0
            },
            {
              "$type": "AKEEDILMOJF",
              "intID": "StaticStateTag",
              "param3": 0.0
            }
          ]
        },
        "Pose_Init_Ousia": {
          "modifierName": "",
          "IPFJJJGABPL": 100.0,
          "onAdded": [
            {
              "$type": "BOBCOJHOKKD",
              "param3": 1.0,
              "key": "arkheGradeKey",
              "param2": 0.0,
              "repeatTimes": 0.0
            },
            {
              "$type": "AKEEDILMOJF",
              "intID": "StaticStateTag",
              "param3": 1.0
            }
          ]
        },
        "Pose_Pneuma_1": {
          "modifierName": "",
          "IPFJJJGABPL": 100.0,
          "onAdded": [
            {
              "$type": "GFFKENEJFFB",
              "intID": "StateTag",
              "value": -1
            },
            {
              "$type": "AKEEDILMOJF",
              "intID": "StateTag",
              "param3": -1.0
            },
            {
              "$type": "AKEEDILMOJF",
              "intID": "EnergyTag1",
              "param3": -1.0
            },
            {
              "$type": "GNAEJNBIFAC",
              "PLLJBINMGJK": "HitSpecialTrigger"
            },
            {
              "$type": "BOBCOJHOKKD",
              "param3": 0.0,
              "key": "_MACHINAIUSTITIA_NEEDREPAIR_",
              "param2": 0.0,
              "repeatTimes": 0.0
            },
            {
              "$type": "PFKNEFGOHIH",
              "modifierName": "SelfRepair_Delay"
            }
          ]
        },
        "Pose_Normal": {
          "modifierName": "",
          "IPFJJJGABPL": 100.0,
          "onAdded": [
            {
              "$type": "DOANGHCALGB",
              "skillIDs": [
                501,
                511
              ]
            },
            {
              "$type": "GFFKENEJFFB",
              "intID": "StateTag"
            },
            {
              "$type": "AKEEDILMOJF",
              "intID": "StateTag",
              "param3": 0.0
            },
            {
              "$type": "AKEEDILMOJF",
              "intID": "EnergyTag1",
              "param3": 0.0
            },
            {
              "$type": "JLDEMMJAMLC",
              "modifierName": "Probe_NeedRepair_Delay"
            },
            {
              "$type": "JLDEMMJAMLC",
              "modifierName": "SelfRepair_Delay"
            }
          ]
        },
        "Pose_Ousia_1": {
          "modifierName": "",
          "IPFJJJGABPL": 100.0,
          "onAdded": [
            {
              "$type": "GFFKENEJFFB",
              "intID": "StateTag",
              "value": 1
            },
            {
              "$type": "AKEEDILMOJF",
              "intID": "StateTag",
              "param3": 1.0
            },
            {
              "$type": "AKEEDILMOJF",
              "intID": "EnergyTag1",
              "param3": 1.0
            },
            {
              "$type": "GNAEJNBIFAC",
              "PLLJBINMGJK": "HitSpecialTrigger"
            },
            {
              "$type": "BOBCOJHOKKD",
              "param3": 0.0,
              "key": "_MACHINAIUSTITIA_NEEDREPAIR_",
              "param2": 0.0,
              "repeatTimes": 0.0
            },
            {
              "$type": "PFKNEFGOHIH",
              "modifierName": "SelfRepair_Delay"
            }
          ]
        },
        "Probe_NeedRepair_Delay": {
          "modifierName": "",
          "elementDurability": 4.0,
          "IPFJJJGABPL": 100.0,
          "onRemoved": [
            {
              "$type": "BOBCOJHOKKD",
              "param3": 1.0,
              "key": "_MACHINAIUSTITIA_NEEDREPAIR_",
              "param2": 0.0,
              "repeatTimes": 0.0
            }
          ]
        },
        "SelfRepair_Delay": {
          "modifierName": "",
          "elementDurability": 25.0,
          "IPFJJJGABPL": 100.0,
          "onRemoved": [
            {
              "$type": "BOBCOJHOKKD",
              "predicates": [
                {
                  "$type": "BCFNGJHILAG",
                  "predicates": [
                    {
                      "$type": "NIFDMKMHAGJ",
                      "logic": "Equal",
                      "param3": 901.0,
                      "parameter": "PoseID"
                    },
                    {
                      "$type": "NIFDMKMHAGJ",
                      "logic": "Equal",
                      "param3": 801.0,
                      "parameter": "PoseID"
                    },
                    {
                      "$type": "NIFDMKMHAGJ",
                      "logic": "Equal",
                      "param3": 701.0,
                      "parameter": "PoseID"
                    },
                    {
                      "$type": "NIFDMKMHAGJ",
                      "logic": "Equal",
                      "param3": 1.0,
                      "parameter": "PoseID"
                    },
                    {
                      "$type": "NIFDMKMHAGJ",
                      "logic": "Equal",
                      "param3": 11.0,
                      "parameter": "PoseID"
                    },
                    {
                      "$type": "NIFDMKMHAGJ",
                      "logic": "Equal",
                      "param3": 21.0,
                      "parameter": "PoseID"
                    },
                    {
                      "$type": "NIFDMKMHAGJ",
                      "logic": "Equal",
                      "param3": 9001.0,
                      "parameter": "PoseID"
                    }
                  ]
                }
              ],
              "param3": 1.0,
              "key": "_MACHINAIUSTITIA_SELFRECOVER_",
              "param2": 0.0,
              "repeatTimes": 0.0
            }
          ]
        }
      }
    }
  },
  {
    "Default": {
      "$type": "CBPBEHLOHKI",
      "abilityName": "Monster_MachinaIustitia_Probe_ReturnToBorn",
      "abilityMixins": [
        {
          "$type": "LEOGLBFIELL",
          "poseIDs": [
            701,
            801,
            901,
            902,
            903
          ],
          "modifierName": "Monster_MachinaIustitia_Probe_ReturnToBorn"
        }
      ],
      "modifiers": {
        "Monster_MachinaIustitia_Probe_ReturnToBorn": {
          "modifierName": "",
          "IPFJJJGABPL": 100.0,
          "onAdded": [
            {
              "$type": "BLCCGIPAOIP",
              "predicates": [
                {
                  "$type": "CNGGLKHONAA",
                  "key": "_MACHINAIUSTITIA_STATIC_STATE_",
                  "param3": -1.0,
                  "compareType": "LessAndEqual"
                }
              ],
              "PLLJBINMGJK": "ReturnToBornTrigger"
            }
          ],
          "onRemoved": [
            {
              "$type": "BOBCOJHOKKD",
              "param3": 0.0,
              "key": "_MACHINAIUSTITIA_SELFRECOVER_",
              "param2": 0.0,
              "repeatTimes": 0.0
            },
            {
              "$type": "BOBCOJHOKKD",
              "param3": 0.0,
              "key": "_MACHINAIUSTITIA_NEEDREPAIR_",
              "param2": 0.0,
              "repeatTimes": 0.0
            },
            {
              "$type": "BOBCOJHOKKD",
              "param3": 0.0,
              "key": "_MACHINAIUSTITIA_CHARGED_",
              "param2": 0.0,
              "repeatTimes": 0.0
            },
            {
              "$type": "BOBCOJHOKKD",
              "predicates": [
                {
                  "$type": "CNGGLKHONAA",
                  "key": "_MACHINAIUSTITIA_STATIC_STATE_",
                  "param3": 0.0
                }
              ],
              "param3": 0.0,
              "key": "arkheGradeKey",
              "param2": 0.0,
              "repeatTimes": 0.0
            },
            {
              "$type": "BOBCOJHOKKD",
              "predicates": [
                {
                  "$type": "CNGGLKHONAA",
                  "key": "_MACHINAIUSTITIA_STATIC_STATE_",
                  "param3": -1.0,
                  "compareType": "LessAndEqual"
                }
              ],
              "param3": -1.0,
              "key": "arkheGradeKey",
              "param2": 0.0,
              "repeatTimes": 0.0
            },
            {
              "$type": "BOBCOJHOKKD",
              "predicates": [
                {
                  "$type": "CNGGLKHONAA",
                  "key": "_MACHINAIUSTITIA_STATIC_STATE_",
                  "param3": 1.0,
                  "compareType": "MoreThanAndEqual"
                }
              ],
              "param3": 1.0,
              "key": "arkheGradeKey",
              "param2": 0.0,
              "repeatTimes": 0.0
            }
          ]
        }
      }
    }
  },
  {
    "Default": {
      "$type": "CBPBEHLOHKI",
      "abilityName": "Monster_MachinaIustitia_Probe_Alert",
      "abilityMixins": [
        {
          "$type": "EKMHJKDLBJH",
          "stateIDs": [
            "Alert",
            "Alert_Pile",
            "Alert_Borehole"
          ],
          "modifierName": "AlertHandler",
          "DGFCLAIDIFI": ""
        },
        {
          "$type": "AOKOIIHJJPJ",
          "alertness": [
            2
          ],
          "modifierName": "ForceAlertDelay"
        }
      ],
      "modifiers": {
        "AlertHandler": {
          "modifierName": "",
          "IPFJJJGABPL": 100.0,
          "onRemoved": [
            {
              "$type": "GFFKENEJFFB",
              "intID": "FreePoseMark"
            },
            {
              "$type": "BOBCOJHOKKD",
              "param3": 1.0,
              "key": "_MACHINAIUSTITIA_PROBE_ALERT_",
              "param2": 0.0,
              "repeatTimes": 0.0
            }
          ]
        },
        "ForceAlertDelay": {
          "modifierName": "",
          "IPFJJJGABPL": 100.0,
          "onAdded": [
            {
              "$type": "PELJALPANCA",
              "predicates": [
                {
                  "$type": "CNGGLKHONAA",
                  "key": "_MACHINAIUSTITIA_PROBE_ALERT_",
                  "param3": 0.0,
                  "compareType": "NoneOrEqual"
                }
              ],
              "modifierName": "ForceAlert"
            }
          ],
          "onReconnect": [
            {
              "$type": "GFFKENEJFFB",
              "intID": "FreePoseMark"
            },
            {
              "$type": "BOBCOJHOKKD",
              "param3": 1.0,
              "key": "_MACHINAIUSTITIA_PROBE_ALERT_",
              "param2": 0.0,
              "repeatTimes": 0.0
            }
          ]
        },
        "ForceAlert": {
          "modifierName": "",
          "elementDurability": 2.0,
          "IPFJJJGABPL": 100.0,
          "onRemoved": [
            {
              "$type": "GFFKENEJFFB",
              "intID": "FreePoseMark"
            }
          ]
        },
        "ForceHitAlert": {
          "modifierName": "",
          "IPFJJJGABPL": 100.0,
          "modifierMixins": [
            {
              "$type": "APJKOLPHCGH",
              "stateIDs": [
                "BeHit"
              ],
              "enterActions": [
                {
                  "$type": "GFFKENEJFFB",
                  "predicates": [
                    {
                      "$type": "CNGGLKHONAA",
                      "key": "_MACHINAIUSTITIA_PROBE_ALERT_",
                      "param3": 0.0,
                      "compareType": "NoneOrEqual"
                    }
                  ],
                  "intID": "FreePoseMark"
                },
                {
                  "$type": "BOBCOJHOKKD",
                  "param3": 1.0,
                  "key": "_MACHINAIUSTITIA_PROBE_ALERT_",
                  "param2": 0.0,
                  "repeatTimes": 0.0
                }
              ],
              "DGFCLAIDIFI": ""
            }
          ]
        }
      },
      "onAdded": [
        {
          "$type": "BOBCOJHOKKD",
          "param3": 0.0,
          "key": "_MACHINAIUSTITIA_PROBE_ALERT_",
          "param2": 0.0,
          "repeatTimes": 0.0
        },
        {
          "$type": "PELJALPANCA",
          "modifierName": "ForceHitAlert"
        }
      ],
      "onAbilityStart": [
        {
          "$type": "GFFKENEJFFB",
          "intID": "FreePoseMark"
        }
      ]
    }
  },
  {
    "Default": {
      "$type": "CBPBEHLOHKI",
      "abilityName": "Monster_MachinaIustitia_Probe_RepairPose",
      "abilityMixins": [
        {
          "$type": "MLJAPFBGEEH",
          "globalValueKey": "_MACHINAIUSTITIA_CHARGED_",
          "gvInTalk": 0.0,
          "valueSteps": [
            -0.5,
            0.5,
            1.5
          ],
          "modifierNameSteps": [
            "Pose_NoRepair",
            "Pose_ReadyRepair"
          ]
        }
      ],
      "modifiers": {
        "Pose_NoRepair": {
          "modifierName": "",
          "IPFJJJGABPL": 100.0,
          "onAdded": [
            {
              "$type": "IDNGFEEBPAM",
              "boolID": "RepairTag"
            }
          ]
        },
        "Pose_ReadyRepair": {
          "modifierName": "",
          "IPFJJJGABPL": 100.0,
          "onAdded": [
            {
              "$type": "IDNGFEEBPAM",
              "boolID": "RepairTag",
              "param3": true
            },
            {
              "$type": "BOBCOJHOKKD",
              "param3": 0.0,
              "key": "_MACHINAIUSTITIA_NEEDREPAIR_",
              "param2": 0.0,
              "repeatTimes": 0.0
            }
          ]
        }
      },
      "onAdded": [
        {
          "$type": "BOBCOJHOKKD",
          "param3": 0.0,
          "key": "_MACHINAIUSTITIA_NEEDREPAIR_",
          "param2": 0.0,
          "repeatTimes": 0.0
        },
        {
          "$type": "BOBCOJHOKKD",
          "param3": 0.0,
          "key": "_MACHINAIUSTITIA_CHARGED_",
          "param2": 0.0,
          "repeatTimes": 0.0
        },
        {
          "$type": "BOBCOJHOKKD",
          "param3": 0.0,
          "key": "_MACHINAIUSTITIA_SELFRECOVER_",
          "param2": 0.0,
          "repeatTimes": 0.0
        }
      ]
    }
  },
  {
    "Default": {
      "$type": "CBPBEHLOHKI",
      "abilityName": "Monster_MachinaIustitia_Probe_CoilEffect",
      "abilityMixins": [
        {
          "$type": "MLJAPFBGEEH",
          "globalValueKey": "_MACHINAIUSTITIA_COIL_STATE_",
          "gvInTalk": 0.0,
          "valueSteps": [
            -0.5,
            0.5,
            1.5
          ],
          "modifierNameSteps": [
            "MachinaIustitia_Probe_CoilEffect01_Handler",
            "MachinaIustitia_Probe_CoilEffect02_Handler"
          ]
        }
      ],
      "modifiers": {
        "MachinaIustitia_Probe_CoilEffect01_Handler": {
          "modifierName": "",
          "IPFJJJGABPL": 100.0,
          "modifierMixins": [
            {
              "$type": "MLJAPFBGEEH",
              "globalValueKey": "arkheGradeKey",
              "gvInTalk": 0.0,
              "valueSteps": [
                -1.5,
                -0.5,
                0.5,
                1.5
              ],
              "modifierNameSteps": [
                "MachinaIustitia_Probe_CoilEffect01_Pneuma",
                "Blank",
                "MachinaIustitia_Probe_CoilEffect01_Ousia"
              ]
            }
          ]
        },
        "MachinaIustitia_Probe_CoilEffect02_Handler": {
          "modifierName": "",
          "IPFJJJGABPL": 100.0,
          "modifierMixins": [
            {
              "$type": "MLJAPFBGEEH",
              "globalValueKey": "arkheGradeKey",
              "gvInTalk": 0.0,
              "valueSteps": [
                -1.5,
                -0.5,
                0.5,
                1.5
              ],
              "modifierNameSteps": [
                "MachinaIustitia_Probe_CoilEffect02_Pneuma",
                "Blank",
                "MachinaIustitia_Probe_CoilEffect02_Ousia"
              ]
            }
          ]
        },
        "MachinaIustitia_Probe_CoilEffect01_Pneuma": {
          "modifierName": "",
          "IPFJJJGABPL": 100.0,
          "onAdded": [
            {
              "$type": "ANLOBBMKNIJ",
              "rotationDampTime": "Eff_Monster_MachinaIustitia_Coil01_Pneuma",
              "born": {
                "$type": "KLPANPDGHHA",
                "offset": {
                  "KGEPIMHBMOL": 0.0,
                  "JEBHCGDPFEJ": 0.0,
                  "LPCHALMFFOD": 0.0
                },
                "useRotation": true,
                "attachPointName": "CoilAttachPoint01"
              },
              "PPPDJGDDOGD": 1.5,
              "AJDILHJFNKE": -1.0
            }
          ]
        },
        "MachinaIustitia_Probe_CoilEffect01_Ousia": {
          "modifierName": "",
          "IPFJJJGABPL": 100.0,
          "onAdded": [
            {
              "$type": "ANLOBBMKNIJ",
              "rotationDampTime": "Eff_Monster_MachinaIustitia_Coil01_Ousia",
              "born": {
                "$type": "KLPANPDGHHA",
                "offset": {
                  "KGEPIMHBMOL": 0.0,
                  "JEBHCGDPFEJ": 0.0,
                  "LPCHALMFFOD": 0.0
                },
                "useRotation": true,
                "attachPointName": "CoilAttachPoint01"
              },
              "PPPDJGDDOGD": 1.5,
              "AJDILHJFNKE": -1.0
            }
          ]
        },
        "MachinaIustitia_Probe_CoilEffect02_Pneuma": {
          "modifierName": "",
          "IPFJJJGABPL": 100.0,
          "onAdded": [
            {
              "$type": "ANLOBBMKNIJ",
              "rotationDampTime": "Eff_Monster_MachinaIustitia_Coil02_Pneuma",
              "born": {
                "$type": "KLPANPDGHHA",
                "offset": {
                  "KGEPIMHBMOL": 0.0,
                  "JEBHCGDPFEJ": 0.0,
                  "LPCHALMFFOD": 0.0
                },
                "useRotation": true,
                "attachPointName": "CoilAttachPoint02"
              },
              "PPPDJGDDOGD": 1.5,
              "AJDILHJFNKE": -1.0
            }
          ]
        },
        "MachinaIustitia_Probe_CoilEffect02_Ousia": {
          "modifierName": "",
          "IPFJJJGABPL": 100.0,
          "onAdded": [
            {
              "$type": "ANLOBBMKNIJ",
              "rotationDampTime": "Eff_Monster_MachinaIustitia_Coil02_Ousia",
              "born": {
                "$type": "KLPANPDGHHA",
                "offset": {
                  "KGEPIMHBMOL": 0.0,
                  "JEBHCGDPFEJ": 0.0,
                  "LPCHALMFFOD": 0.0
                },
                "useRotation": true,
                "attachPointName": "CoilAttachPoint02"
              },
              "PPPDJGDDOGD": 1.5,
              "AJDILHJFNKE": -1.0
            }
          ]
        },
        "Blank": {
          "modifierName": "",
          "IPFJJJGABPL": 100.0
        }
      },
      "onKill": [
        {
          "$type": "PFKNEFGOHIH",
          "modifierName": "MachinaIustitia_Probe_CoilEffect01_Pneuma"
        },
        {
          "$type": "PFKNEFGOHIH",
          "modifierName": "MachinaIustitia_Probe_CoilEffect01_Ousia"
        },
        {
          "$type": "PFKNEFGOHIH",
          "modifierName": "MachinaIustitia_Probe_CoilEffect02_Pneuma"
        },
        {
          "$type": "PFKNEFGOHIH",
          "modifierName": "MachinaIustitia_Probe_CoilEffect02_Ousia"
        }
      ]
    }
  },
  {
    "Default": {
      "$type": "CBPBEHLOHKI",
      "abilityName": "Monster_MachinaIustitia_Probe_HitSpecial",
      "abilityMixins": [
        {
          "$type": "NAFEDCNOIGL",
          "stateID": "Overload",
          "modifierName": "Monster_MachinaIustitia_Probe_HitSpecial_Effect",
          "normalizeEnd": 0.5799999833106995,
          "DGFCLAIDIFI": ""
        }
      ],
      "modifiers": {
        "Monster_MachinaIustitia_Probe_HitSpecial_Effect": {
          "modifierName": "",
          "IPFJJJGABPL": 100.0,
          "onAdded": [
            {
              "$type": "ANLOBBMKNIJ",
              "rotationDampTime": "Eff_Monster_MachinaIustitia_HitSpecial",
              "PPPDJGDDOGD": 1.0,
              "AJDILHJFNKE": -1.0
            }
          ]
        }
      }
    }
  },
  {
    "Default": {
      "$type": "CBPBEHLOHKI",
      "abilityName": "Monster_MachinaIustitia_Probe_StreeHandle",
      "abilityMixins": [
        {
          "$type": "IILHMBGONGM",
          "steerStateIDs": [
            "Turn"
          ],
          "endNormalizedTime": 99.0,
          "angularSpeed": 150.0,
          "attackTrigger": "",
          "attackDistance": 2.0,
          "DGFCLAIDIFI": ""
        },
        {
          "$type": "IILHMBGONGM",
          "steerStateIDs": [
            "PileAttack01_BS"
          ],
          "startNormalizedTime": 0.4000000059604645,
          "endNormalizedTime": 0.5199999809265137,
          "angularSpeed": 180.0,
          "attackTrigger": "",
          "attackDistance": 2.0,
          "DGFCLAIDIFI": ""
        },
        {
          "$type": "IILHMBGONGM",
          "steerStateIDs": [
            "PileAttack02_BS"
          ],
          "startNormalizedTime": 0.4000000059604645,
          "endNormalizedTime": 0.5199999809265137,
          "angularSpeed": 180.0,
          "attackTrigger": "",
          "attackDistance": 2.0,
          "DGFCLAIDIFI": ""
        },
        {
          "$type": "IILHMBGONGM",
          "steerStateIDs": [
            "RangeAttack01_BS"
          ],
          "startNormalizedTime": 0.12999999523162842,
          "endNormalizedTime": 0.23999999463558197,
          "angularSpeed": 360.0,
          "attackTrigger": "",
          "attackDistance": 2.0,
          "DGFCLAIDIFI": ""
        },
        {
          "$type": "IILHMBGONGM",
          "steerStateIDs": [
            "Alert"
          ],
          "angularSpeed": 180.0,
          "attackTrigger": "",
          "attackDistance": 2.0,
          "DGFCLAIDIFI": ""
        },
        {
          "$type": "IILHMBGONGM",
          "steerStateIDs": [
            "Alert_Borehole"
          ],
          "startNormalizedTime": 0.5770000219345093,
          "endNormalizedTime": 0.6869999766349792,
          "angularSpeed": 500.0,
          "attackTrigger": "",
          "attackDistance": 2.0,
          "DGFCLAIDIFI": ""
        },
        {
          "$type": "IILHMBGONGM",
          "steerStateIDs": [
            "Alert_Pile"
          ],
          "startNormalizedTime": 0.5770000219345093,
          "endNormalizedTime": 0.6869999766349792,
          "angularSpeed": 500.0,
          "attackTrigger": "",
          "attackDistance": 2.0,
          "DGFCLAIDIFI": ""
        }
      ]
    }
  },
  {
    "Default": {
      "$type": "CBPBEHLOHKI",
      "abilityName": "Monster_MachinaIustitia_Probe_RangeAttack01",
      "abilityMixins": [
        {
          "$type": "EKMHJKDLBJH",
          "stateIDs": [
            "RangeAttack01_BS",
            "RangeAttack01_Loop",
            "RangeAttack01_AS",
            "Borehole_Loop"
          ],
          "modifierName": "Freeze",
          "DGFCLAIDIFI": ""
        }
      ],
      "modifiers": {
        "Freeze": {
          "modifierName": "",
          "IPFJJJGABPL": 100.0,
          "modifierMixins": [
            {
              "$type": "NIJGPDECHLC"
            }
          ]
        }
      },
      "onAbilityStart": [
        {
          "$type": "CAKDDHLKOAB",
          "bulletID": 42406021,
          "born": {
            "$type": "KLPANPDGHHA",
            "offset": {
              "KGEPIMHBMOL": 0.0,
              "JEBHCGDPFEJ": 0.0,
              "LPCHALMFFOD": 0.0
            },
            "direction": {
              "$type": "MEADFIJAHPG",
              "startPoint": ""
            },
            "useRotation": true,
            "attachPointName": "BulletSource"
          },
          "lifeByOwnerV2": true
        }
      ]
    }
  },
  {
    "Default": {
      "$type": "CBPBEHLOHKI",
      "abilityName": "Monster_MachinaIustitia_Probe_RangeAttack01_Bullet",
      "modifiers": {
        "Bullet_Effect": {
          "modifierName": "",
          "IPFJJJGABPL": 100.0,
          "onAdded": [
            {
              "$type": "ANLOBBMKNIJ",
              "rotationDampTime": "Eff_Monster_MachinaIustitia_Probe_Ousia_RangeAttack01_Bullet",
              "PPPDJGDDOGD": 1.0,
              "AJDILHJFNKE": -1.0
            },
            {
              "$type": "ANLOBBMKNIJ",
              "rotationDampTime": "Eff_Monster_MachinaIustitia_Probe_Ousia_RangeAttack01_Bullet_Tail",
              "PPPDJGDDOGD": 1.0,
              "AJDILHJFNKE": -1.0
            }
          ]
        }
      },
      "onAdded": [
        {
          "$type": "JLDEMMJAMLC",
          "modifierName": "Bullet_Effect"
        }
      ],
      "onAbilityStart": [
        {
          "$type": "KBFEIHEAMBM",
          "rotationDampTime": "Eff_Monster_MachinaIustitia_Probe_Ousia_RangeAttack01_Bullet_Damage",
          "born": {
            "$type": "JGEBAJLEBMO",
            "offset": {
              "KGEPIMHBMOL": 0.0,
              "JEBHCGDPFEJ": 0.0,
              "LPCHALMFFOD": 0.5
            }
          },
          "PPPDJGDDOGD": 1.0,
          "AJDILHJFNKE": -1.0
        },
        {
          "$type": "AIFPLABJNMA",
          "attackEvent": {
            "attackPattern": {
              "$type": "BELNOFAKNBA",
              "triggerType": "TriggerNoRepeat",
              "born": {
                "$type": "JGEBAJLEBMO",
                "offset": {
                  "KGEPIMHBMOL": 0.0,
                  "JEBHCGDPFEJ": 0.0,
                  "LPCHALMFFOD": 0.0
                }
              },
              "OAHPDLJIADP": 1.0
            },
            "attackInfo": {
              "attackTag": "",
              "attenuationTag": "",
              "attenuationGroup": "default",
              "attackProperty": {
                "actorGrassSubHurtDelta": 0.699999988079071,
                "actorWindSubHurtDelta": 0.0,
                "elementType": "Water",
                "IPFJJJGABPL": 25.0,
                "enBreak": 50.0,
                "GLKMCMDJBIK": 0.0
              },
              "hitPattern": {
                "onHitEffectName": "default",
                "hitImpulseY": "",
                "hitImpulseType": "LV2"
              },
              "canBeModifiedBy": "OriginOwner"
            }
          },
          "targetType": "Enemy"
        },
        {
          "$type": "PFKNEFGOHIH",
          "modifierName": "Bullet_Effect"
        }
      ]
    }
  },
  {
    "Default": {
      "$type": "CBPBEHLOHKI",
      "abilityName": "Monster_MachinaIustitia_Probe_RangeAttack01_Explode",
      "onAbilityStart": [
        {
          "$type": "KBFEIHEAMBM",
          "rotationDampTime": "Eff_Monster_MachinaIustitia_Probe_Ousia_RangeAttack01_Bullet_Damage",
          "born": {
            "$type": "IAENDIPDFKD",
            "useRotation": true
          },
          "PPPDJGDDOGD": 1.0,
          "AJDILHJFNKE": -1.0
        },
        {
          "$type": "AIFPLABJNMA",
          "attackEvent": {
            "attackPattern": {
              "$type": "JHKEHNJBMOF",
              "triggerType": "TriggerNoRepeat",
              "born": {
                "$type": "IAENDIPDFKD",
                "useRotation": true
              },
              "size": {
                "KGEPIMHBMOL": 0.10000000149011612,
                "JEBHCGDPFEJ": 0.10000000149011612,
                "LPCHALMFFOD": 1.0
              }
            },
            "attackInfo": {
              "attackTag": "",
              "attenuationTag": "",
              "attenuationGroup": "default",
              "attackProperty": {
                "actorGrassSubHurtDelta": 0.699999988079071,
                "actorWindSubHurtDelta": 0.0,
                "elementType": "Water",
                "IPFJJJGABPL": 25.0,
                "strikeType": "Default",
                "enBreak": 50.0,
                "GLKMCMDJBIK": 0.0
              },
              "hitPattern": {
                "onHitEffectName": "default",
                "hitImpulseY": "",
                "hitImpulseType": "LV2"
              },
              "canBeModifiedBy": "OriginOwner"
            }
          },
          "targetType": "Enemy"
        }
      ]
    }
  },
  {
    "Default": {
      "$type": "CBPBEHLOHKI",
      "abilityName": "Monster_MachinaIustitia_Probe_PileAttack01",
      "abilityMixins": [
        {
          "$type": "EKMHJKDLBJH",
          "stateIDs": [
            "PileAttack01_Loop"
          ],
          "modifierName": "Monster_MachinaIustitia_Probe_PileAttack01_Loop_Effect",
          "DGFCLAIDIFI": ""
        },
        {
          "$type": "NAFEDCNOIGL",
          "stateID": "PileAttack01_Loop",
          "modifierName": "Monster_MachinaIustitia_Probe_PileAttack01_DamageEffect_01",
          "normalizeStart": 0.20600000023841858,
          "DGFCLAIDIFI": ""
        },
        {
          "$type": "NAFEDCNOIGL",
          "stateID": "PileAttack01_Loop",
          "modifierName": "Monster_MachinaIustitia_Probe_PileAttack01_DamageEffect_02",
          "normalizeStart": 0.5220000147819519,
          "DGFCLAIDIFI": ""
        },
        {
          "$type": "NAFEDCNOIGL",
          "stateID": "PileAttack01_Loop",
          "modifierName": "Monster_MachinaIustitia_Probe_PileAttack01_DamageEffect_03",
          "normalizeStart": 0.921999990940094,
          "DGFCLAIDIFI": ""
        }
      ],
      "modifiers": {
        "Monster_MachinaIustitia_Probe_PileAttack01_DamageEffect_01": {
          "modifierName": "",
          "IPFJJJGABPL": 100.0,
          "onAdded": [
            {
              "$type": "ANLOBBMKNIJ",
              "rotationDampTime": "Eff_Monster_MachinaIustitia_Probe_Pneuma_PileAttack01_Damage",
              "born": {
                "$type": "IAENDIPDFKD",
                "offset": {
                  "KGEPIMHBMOL": 0.0,
                  "JEBHCGDPFEJ": 0.0,
                  "LPCHALMFFOD": 0.0
                },
                "onGround": true,
                "useRotation": true
              },
              "PPPDJGDDOGD": 1.0,
              "AJDILHJFNKE": -1.0
            }
          ]
        },
        "Monster_MachinaIustitia_Probe_PileAttack01_DamageEffect_02": {
          "modifierName": "",
          "IPFJJJGABPL": 100.0,
          "onAdded": [
            {
              "$type": "ANLOBBMKNIJ",
              "rotationDampTime": "Eff_Monster_MachinaIustitia_Probe_Pneuma_PileAttack01_Damage_02",
              "born": {
                "$type": "IAENDIPDFKD",
                "offset": {
                  "KGEPIMHBMOL": 0.0,
                  "JEBHCGDPFEJ": 0.0,
                  "LPCHALMFFOD": 0.0
                },
                "onGround": true,
                "useRotation": true
              },
              "PPPDJGDDOGD": 1.0,
              "AJDILHJFNKE": -1.0
            }
          ]
        },
        "Monster_MachinaIustitia_Probe_PileAttack01_DamageEffect_03": {
          "modifierName": "",
          "IPFJJJGABPL": 100.0,
          "onAdded": [
            {
              "$type": "ANLOBBMKNIJ",
              "rotationDampTime": "Eff_Monster_MachinaIustitia_Probe_Pneuma_PileAttack01_Damage_03",
              "born": {
                "$type": "IAENDIPDFKD",
                "offset": {
                  "KGEPIMHBMOL": 0.0,
                  "JEBHCGDPFEJ": 0.0,
                  "LPCHALMFFOD": 0.0
                },
                "onGround": true,
                "useRotation": true
              },
              "PPPDJGDDOGD": 1.0,
              "AJDILHJFNKE": -1.0
            }
          ]
        },
        "Monster_MachinaIustitia_Probe_PileAttack01_Damage": {
          "modifierName": "",
          "elementDurability": 0.10000000149011612,
          "IPFJJJGABPL": 100.0,
          "onAdded": [
            {
              "$type": "AIFPLABJNMA",
              "attackEvent": {
                "attackPattern": {
                  "$type": "GMDIMKKHACA",
                  "triggerType": "TriggerNoRepeat",
                  "born": {
                    "$type": "IAENDIPDFKD",
                    "offset": {
                      "KGEPIMHBMOL": 0.0,
                      "JEBHCGDPFEJ": 0.0,
                      "LPCHALMFFOD": 0.0
                    },
                    "onGround": true,
                    "direction": {
                      "$type": "AHGNBAPONLA"
                    },
                    "useRotation": true
                  },
                  "height": 1.2000000476837158,
                  "OAHPDLJIADP": 3.0
                },
                "attackInfo": {
                  "attackTag": "",
                  "attenuationTag": "",
                  "attenuationGroup": "default",
                  "attackProperty": {
                    "actorGrassSubHurtDelta": 0.800000011920929,
                    "actorWindSubHurtDelta": 0.0,
                    "elementType": "Rock",
                    "IPFJJJGABPL": 25.0,
                    "strikeType": "Blunt",
                    "enBreak": 100.0,
                    "GLKMCMDJBIK": 0.0
                  },
                  "hitPattern": {
                    "onHitEffectName": "default",
                    "hitImpulseY": "",
                    "hitImpulseType": "LV3",
                    "hitHaltTimeScale": 0.009999999776482582
                  }
                }
              },
              "targetType": "Enemy"
            }
          ]
        },
        "Monster_MachinaIustitia_Probe_PileAttack01_Loop_Effect": {
          "modifierName": "",
          "IPFJJJGABPL": 100.0,
          "onAdded": [
            {
              "$type": "ANLOBBMKNIJ",
              "rotationDampTime": "Eff_Monster_MachinaIustitia_Probe_Pneuma_PileAttack01_Effect",
              "PPPDJGDDOGD": 1.0,
              "AJDILHJFNKE": -1.0
            }
          ]
        }
      },
      "onAbilityStart": [
        {
          "$type": "PELJALPANCA",
          "modifierName": "Monster_MachinaIustitia_Probe_PileAttack01_Damage"
        }
      ]
    }
  },
  {
    "Default": {
      "$type": "CBPBEHLOHKI",
      "abilityName": "Monster_MachinaIustitia_Probe_Recover_Ousia",
      "onAbilityStart": [
        {
          "$type": "LCOEFEMOHLP",
          "param3": 1.0,
          "key": "arkheGradeKey",
          "useLimitRange": true,
          "param2": 1.0,
          "repeatTimes": 0.0
        },
        {
          "$type": "BOBCOJHOKKD",
          "param3": 0.0,
          "key": "_MACHINAIUSTITIA_CHARGED_",
          "param2": 0.0,
          "repeatTimes": 0.0
        },
        {
          "$type": "BOBCOJHOKKD",
          "param3": 0.0,
          "key": "_MACHINAIUSTITIA_SELFRECOVER_",
          "param2": 0.0,
          "repeatTimes": 0.0
        }
      ]
    }
  },
  {
    "Default": {
      "$type": "CBPBEHLOHKI",
      "abilityName": "Monster_MachinaIustitia_Probe_RecoverEffect_Pneuma",
      "onAbilityStart": [
        {
          "$type": "KBODPNEEFGD",
          "modifierName": "UNIQUE_MachinaIustitia_Charge_Effect_Pneuma"
        }
      ]
    }
  },
  {
    "Default": {
      "$type": "CBPBEHLOHKI",
      "abilityName": "Monster_MachinaIustitia_Probe_RecoverEffect_Ousia",
      "onAbilityStart": [
        {
          "$type": "KBODPNEEFGD",
          "modifierName": "UNIQUE_MachinaIustitia_Charge_Effect_Ousia"
        }
      ]
    }
  },
  {
    "Default": {
      "$type": "CBPBEHLOHKI",
      "abilityName": "Monster_MachinaIustitia_Probe_Recover_Pneuma",
      "onAbilityStart": [
        {
          "$type": "LCOEFEMOHLP",
          "param3": -1.0,
          "key": "arkheGradeKey",
          "useLimitRange": true,
          "param2": 0.0,
          "repeatTimes": -1.0
        },
        {
          "$type": "BOBCOJHOKKD",
          "param3": 0.0,
          "key": "_MACHINAIUSTITIA_CHARGED_",
          "param2": 0.0,
          "repeatTimes": 0.0
        },
        {
          "$type": "BOBCOJHOKKD",
          "param3": 0.0,
          "key": "_MACHINAIUSTITIA_SELFRECOVER_",
          "param2": 0.0,
          "repeatTimes": 0.0
        }
      ]
    }
  },
  {
    "Default": {
      "$type": "CBPBEHLOHKI",
      "abilityName": "Monster_MachinaIustitia_Probe_Pile_Effect",
      "abilityMixins": [
        {
          "$type": "EKMHJKDLBJH",
          "stateIDs": [
            "Piling_BS"
          ],
          "modifierName": "Monster_MachinaIustitia_Probe_Pile_BS",
          "DGFCLAIDIFI": ""
        }
      ],
      "modifiers": {
        "Monster_MachinaIustitia_Probe_Pile_BS": {
          "modifierName": "",
          "IPFJJJGABPL": 100.0,
          "onAdded": [
            {
              "$type": "ANLOBBMKNIJ",
              "rotationDampTime": "Eff_Monster_MachinaIustitia_Probe_Pneuma_PileEffect",
              "PPPDJGDDOGD": 1.0,
              "AJDILHJFNKE": -1.0
            }
          ]
        }
      }
    }
  },
  {
    "Default": {
      "$type": "CBPBEHLOHKI",
      "abilityName": "Monster_MachinaIustitia_Probe_Borehole_Effect",
      "abilityMixins": [
        {
          "$type": "NAFEDCNOIGL",
          "stateID": "Borehole_BS",
          "modifierName": "Monster_MachinaIustitia_Probe_Borehole_BS_Effect",
          "normalizeStart": 0.29100000858306885,
          "DGFCLAIDIFI": ""
        }
      ],
      "modifiers": {
        "Monster_MachinaIustitia_Probe_Borehole_BS_Effect": {
          "modifierName": "",
          "IPFJJJGABPL": 100.0,
          "onAdded": [
            {
              "$type": "ANLOBBMKNIJ",
              "rotationDampTime": "Eff_Monster_MachinaIustitia_Probe_Ousia_Borehole_BS",
              "PPPDJGDDOGD": 1.0,
              "AJDILHJFNKE": -1.0
            }
          ]
        }
      }
    }
  }
]