[
  {
    "Default": {
      "$type": "CBPBEHLOHKI",
      "abilityName": "FauneAbyssale_Aplysia_Mature_02",
      "abilityMixins": [
        {
          "$type": "MGIHAKAHDGP",
          "NCMKEPHAKCA": [
            "MoveCollider"
          ]
        },
        {
          "$type": "NAFEDCNOIGL",
          "stateID": "WaterBullet_BS00",
          "modifierName": "UNIQUE_FauneAbyssale_Aplysia_Mature_02",
          "normalizeStart": 0.800000011920929,
          "DGFCLAIDIFI": ""
        },
        {
          "$type": "NAFEDCNOIGL",
          "stateID": "WaterBullet_BS01",
          "modifierName": "UNIQUE_FauneAbyssale_Aplysia_Mature_02",
          "DGFCLAIDIFI": ""
        },
        {
          "$type": "NAFEDCNOIGL",
          "stateID": "WaterBullet_BS02",
          "modifierName": "UNIQUE_FauneAbyssale_Aplysia_Mature_02",
          "DGFCLAIDIFI": ""
        },
        {
          "$type": "NAFEDCNOIGL",
          "stateID": "WaterBullet_BS00",
          "modifierName": "FauneAbyssale_Aplysia_Mature_02_ShaderController",
          "normalizeStart": 0.6000000238418579,
          "DGFCLAIDIFI": ""
        },
        {
          "$type": "NAFEDCNOIGL",
          "stateID": "WaterBullet_BS01",
          "modifierName": "FauneAbyssale_Aplysia_Mature_02_ShaderController",
          "DGFCLAIDIFI": ""
        },
        {
          "$type": "NAFEDCNOIGL",
          "stateID": "WaterBullet_BS02",
          "modifierName": "FauneAbyssale_Aplysia_Mature_02_ShaderController",
          "normalizeEnd": 0.800000011920929,
          "DGFCLAIDIFI": ""
        },
        {
          "$type": "NAFEDCNOIGL",
          "stateID": "RushAttackInWater",
          "modifierName": "UNIQUE_FauneAbyssale_Aplysia_Mature_02",
          "normalizeStart": 0.20000000298023224,
          "DGFCLAIDIFI": ""
        },
        {
          "$type": "NAFEDCNOIGL",
          "stateID": "RushAttackInWater02",
          "modifierName": "UNIQUE_FauneAbyssale_Aplysia_Mature_02",
          "normalizeEnd": 0.75,
          "DGFCLAIDIFI": ""
        },
        {
          "$type": "NAFEDCNOIGL",
          "stateID": "RushAttackInWater",
          "modifierName": "FauneAbyssale_Aplysia_Mature_02_ShaderController",
          "normalizeStart": 0.15000000596046448,
          "DGFCLAIDIFI": ""
        },
        {
          "$type": "NAFEDCNOIGL",
          "stateID": "RushAttackInWater02",
          "modifierName": "FauneAbyssale_Aplysia_Mature_02_ShaderController",
          "normalizeEnd": 0.6000000238418579,
          "DGFCLAIDIFI": ""
        },
        {
          "$type": "MFGGKNJLABP",
          "PNAPPKMKAJP": [
            "RushAttackInWater"
          ],
          "endNormalizedTime": 0.36000001430511475,
          "GINJMMLNHIA": 45.0,
          "HIFACMDKHHK": -45.0,
          "angularSpeed": 360.0,
          "attackTrigger": "",
          "remoteSteerToLocalTarget": false,
          "PIOJJEEPDMM": true
        },
        {
          "$type": "MFGGKNJLABP",
          "PNAPPKMKAJP": [
            "RushAttackInWater02"
          ],
          "endNormalizedTime": 0.36000001430511475,
          "GINJMMLNHIA": 45.0,
          "HIFACMDKHHK": -45.0,
          "angularSpeed": 720.0,
          "attackTrigger": "",
          "remoteSteerToLocalTarget": false,
          "PIOJJEEPDMM": true
        },
        {
          "$type": "MFGGKNJLABP",
          "PNAPPKMKAJP": [
            "WaterBullet_BS00"
          ],
          "GINJMMLNHIA": 45.0,
          "HIFACMDKHHK": -45.0,
          "angularSpeed": 90.0,
          "attackTrigger": ""
        },
        {
          "$type": "MFGGKNJLABP",
          "PNAPPKMKAJP": [
            "WaterBullet_BS01"
          ],
          "GINJMMLNHIA": 45.0,
          "HIFACMDKHHK": -45.0,
          "angularSpeed": 90.0,
          "attackTrigger": ""
        },
        {
          "$type": "MFGGKNJLABP",
          "PNAPPKMKAJP": [
            "WaterBullet_BS02"
          ],
          "GINJMMLNHIA": 45.0,
          "HIFACMDKHHK": -45.0,
          "angularSpeed": 360.0,
          "attackTrigger": ""
        },
        {
          "$type": "MFGGKNJLABP",
          "PNAPPKMKAJP": [
            "SingleBullet_BS"
          ],
          "angularSpeed": 135.0,
          "attackTrigger": "",
          "JGOMHKMFHIO": true
        },
        {
          "$type": "MFGGKNJLABP",
          "PNAPPKMKAJP": [
            "SingleBullet"
          ],
          "endNormalizedTime": 0.2199999988079071,
          "angularSpeed": 135.0,
          "attackTrigger": "",
          "JGOMHKMFHIO": true
        },
        {
          "$type": "IILHMBGONGM",
          "steerStateIDs": [
            "Alert"
          ],
          "angularSpeed": 150.0,
          "attackTrigger": "",
          "DGFCLAIDIFI": ""
        },
        {
          "$type": "EJDKAKLFCPA",
          "stateIDs": [
            "RushAttackInWater",
            "RushAttackInWater02"
          ],
          "modifierName": "Monster_FauneAbyssale_Aplysia_Mature_ChargeCollider",
          "DGFCLAIDIFI": ""
        }
      ],
      "modifiers": {
        "Monster_FauneAbyssale_Aplysia_Mature_ChargeCollider": {
          "modifierName": "",
          "IPFJJJGABPL": 100.0,
          "modifierMixins": [
            {
              "$type": "CIGJDPCDOEB",
              "onAdded": [
                {
                  "$type": "FDFGJPNDKEA",
                  "pushColliderNames": [
                    "MoveCollider2"
                  ],
                  "setEnable": true
                }
              ],
              "onRemoved": [
                {
                  "$type": "FDFGJPNDKEA",
                  "pushColliderNames": [
                    "MoveCollider2"
                  ]
                }
              ]
            }
          ]
        },
        "FauneAbyssale_Aplysia_Mature_02_Endure": {
          "modifierName": "",
          "IPFJJJGABPL": 100.0,
          "properties": {
            "Actor_EndureDelta": 0.0
          }
        },
        "FauneAbyssale_Aplysia_Mature_02_ShaderController": {
          "modifierName": "",
          "IPFJJJGABPL": 100.0,
          "modifierMixins": [
            {
              "$type": "CIGJDPCDOEB",
              "onAdded": [
                {
                  "$type": "KJCHPDPBJHL",
                  "boolID": "EnhanceFlag",
                  "param3": true
                }
              ],
              "onRemoved": [
                {
                  "$type": "KJCHPDPBJHL",
                  "boolID": "EnhanceFlag"
                }
              ]
            }
          ]
        },
        "UNIQUE_FauneAbyssale_Aplysia_Mature_02": {
          "modifierName": "",
          "forceTriggerWhenChangeAuthority": true,
          "IPFJJJGABPL": 100.0,
          "onBeingHit": [
            {
              "$type": "INBCDALOHMP",
              "targetPredicates": [
                {
                  "$type": "NNEHDJHMING",
                  "attackTags": [
                    "JellyFish_Bomb"
                  ]
                }
              ],
              "successActions": [
                {
                  "$type": "PELJALPANCA",
                  "modifierName": "FauneAbyssale_Aplysia_Stop"
                },
                {
                  "$type": "GCHLGDKBHCC",
                  "gadgetInfo": {
                    "configID": 42615026
                  },
                  "forceKillTime": 0.10000000149011612
                },
                {
                  "$type": "DLLGNJPHFDE",
                  "ECOAIFKENNM": 0.15000000596046448,
                  "BJKGFBGEFPB": ""
                },
                {
                  "$type": "DLEIPBPNAIM",
                  "paramList": [
                    0,
                    0,
                    0
                  ]
                }
              ]
            }
          ]
        },
        "FauneAbyssale_Aplysia_Stop": {
          "modifierName": "",
          "elementDurability": 0.5,
          "IPFJJJGABPL": 100.0,
          "onAdded": [
            {
              "$type": "BLCCGIPAOIP",
              "PLLJBINMGJK": "WeakTrigger",
              "mpTriggerOnRemote": true
            }
          ]
        }
      },
      "onAdded": [
        {
          "$type": "PELJALPANCA",
          "modifierName": "FauneAbyssale_Aplysia_Mature_02_Endure"
        },
        {
          "$type": "BOBCOJHOKKD",
          "param3": 2.0,
          "key": "GV_EnvironmentType",
          "param2": 0.0,
          "repeatTimes": 0.0
        }
      ]
    }
  },
  {
    "Default": {
      "$type": "CBPBEHLOHKI",
      "abilityName": "FauneAbyssale_Aplysia_Mature_MultiWaterBullet_Trigger",
      "onAbilityStart": [
        {
          "$type": "CAKDDHLKOAB",
          "bulletID": 42615026,
          "trackTarget": "SelfAttackActiveTarget"
        }
      ]
    }
  },
  {
    "Default": {
      "$type": "CBPBEHLOHKI",
      "abilityName": "FauneAbyssale_Aplysia_Mature_EnhancedWaterBullet",
      "onAbilityStart": [
        {
          "$type": "KBFEIHEAMBM",
          "rotationDampTime": "Eff_Monster_FauneAbyssale_Aplysia_Mature_EnhancedWaterBullet_Broken",
          "born": {
            "$type": "JGEBAJLEBMO"
          },
          "PPPDJGDDOGD": 1.0,
          "AJDILHJFNKE": -1.0
        },
        {
          "$type": "AIFPLABJNMA",
          "attackEvent": {
            "attackPattern": {
              "$type": "BELNOFAKNBA",
              "triggerType": "TriggerNoRepeat",
              "born": {
                "$type": "JGEBAJLEBMO"
              },
              "OAHPDLJIADP": 1.2000000476837158
            },
            "attackInfo": {
              "attackTag": "",
              "attenuationTag": "",
              "attenuationGroup": "default",
              "attackProperty": {
                "actorGrassSubHurtDelta": 0.20000000298023224,
                "actorWindSubHurtDelta": 0.0,
                "elementType": "Water",
                "IPFJJJGABPL": 25.0,
                "strikeType": "Default",
                "enBreak": 50.0,
                "attackType": "Range",
                "GLKMCMDJBIK": 0.0
              },
              "hitPattern": {
                "onHitEffectName": "default",
                "hitImpulseY": "",
                "hitImpulseType": "LV2"
              },
              "canBeModifiedBy": "Owner"
            }
          },
          "targetType": "Enemy"
        }
      ]
    }
  },
  {
    "Default": {
      "$type": "CBPBEHLOHKI",
      "abilityName": "FauneAbyssale_Aplysia_Mature_EnhancedWaterBullet_LifeTimeOverVFX",
      "onAbilityStart": [
        {
          "$type": "GCHLGDKBHCC",
          "gadgetInfo": {
            "configID": 42615026
          },
          "forceKillTime": 0.10000000149011612
        }
      ]
    }
  },
  {
    "Default": {
      "$type": "CBPBEHLOHKI",
      "abilityName": "FauneAbyssale_Aplysia_Mature_SingleWaterBullet",
      "modifiers": {
        "WaterBullet_Display": {
          "modifierName": "",
          "elementType": "Water",
          "IPFJJJGABPL": 25.0,
          "onAdded": [
            {
              "$type": "ANLOBBMKNIJ",
              "rotationDampTime": "Eff_Monster_FauneAbyssale_Aplysia_Mature_EnhancedSingleWaterBullet",
              "PPPDJGDDOGD": 1.0,
              "AJDILHJFNKE": -1.0
            },
            {
              "$type": "ANLOBBMKNIJ",
              "rotationDampTime": "Eff_Monster_FauneAbyssale_Aplysia_Mature_EnhancedSingleWaterBullet_Trail",
              "PPPDJGDDOGD": 1.0,
              "AJDILHJFNKE": -1.0
            }
          ]
        }
      },
      "onAdded": [
        {
          "$type": "JLDEMMJAMLC",
          "modifierName": "WaterBullet_Display"
        }
      ],
      "onAbilityStart": [
        {
          "$type": "KBFEIHEAMBM",
          "rotationDampTime": "Eff_Monster_FauneAbyssale_Aplysia_Mature_WaterBullet_Broken",
          "born": {
            "$type": "JGEBAJLEBMO"
          },
          "PPPDJGDDOGD": 1.0,
          "AJDILHJFNKE": -1.0
        },
        {
          "$type": "AIFPLABJNMA",
          "attackEvent": {
            "attackPattern": {
              "$type": "BELNOFAKNBA",
              "triggerType": "TriggerNoRepeat",
              "born": {
                "$type": "JGEBAJLEBMO"
              },
              "OAHPDLJIADP": 1.2000000476837158
            },
            "attackInfo": {
              "attackTag": "",
              "attenuationTag": "",
              "attenuationGroup": "default",
              "attackProperty": {
                "actorGrassSubHurtDelta": 0.20000000298023224,
                "actorWindSubHurtDelta": 0.0,
                "elementType": "Water",
                "IPFJJJGABPL": 25.0,
                "strikeType": "Default",
                "enBreak": 50.0,
                "attackType": "Range",
                "GLKMCMDJBIK": 0.0
              },
              "hitPattern": {
                "onHitEffectName": "default",
                "hitImpulseY": "",
                "hitImpulseType": "LV2"
              },
              "canBeModifiedBy": "Owner"
            }
          },
          "targetType": "Enemy"
        }
      ]
    }
  },
  {
    "Default": {
      "$type": "CBPBEHLOHKI",
      "abilityName": "FauneAbyssale_Aplysia_Mature_SingleWaterBullet_LifeTimeOverVFX",
      "onAbilityStart": [
        {
          "$type": "KBFEIHEAMBM",
          "rotationDampTime": "Eff_Monster_FauneAbyssale_Aplysia_Mature_WaterBullet_Broken",
          "born": {
            "$type": "KLPANPDGHHA",
            "useRotation": true,
            "attachPointName": "RootNode"
          },
          "PPPDJGDDOGD": 1.0,
          "AJDILHJFNKE": -1.0
        },
        {
          "$type": "AIFPLABJNMA",
          "attackEvent": {
            "attackPattern": {
              "$type": "BELNOFAKNBA",
              "triggerType": "TriggerNoRepeat",
              "born": {
                "$type": "KLPANPDGHHA",
                "useRotation": true,
                "attachPointName": "RootNode"
              },
              "OAHPDLJIADP": 1.2000000476837158
            },
            "attackInfo": {
              "attackTag": "",
              "attenuationTag": "",
              "attenuationGroup": "default",
              "attackProperty": {
                "actorGrassSubHurtDelta": 0.20000000298023224,
                "actorWindSubHurtDelta": 0.0,
                "elementType": "Water",
                "IPFJJJGABPL": 25.0,
                "strikeType": "Default",
                "enBreak": 50.0,
                "attackType": "Range",
                "GLKMCMDJBIK": 0.0
              },
              "hitPattern": {
                "onHitEffectName": "default",
                "hitImpulseY": "",
                "hitImpulseType": "LV2"
              },
              "canBeModifiedBy": "Owner"
            }
          },
          "targetType": "Enemy"
        }
      ]
    }
  },
  {
    "Default": {
      "$type": "CBPBEHLOHKI",
      "abilityName": "FauneAbyssale_Aplysia_Mature_EnhancedSingleWaterBulletTrigger",
      "onAbilityStart": [
        {
          "$type": "CAKDDHLKOAB",
          "bulletID": 42615027,
          "born": {
            "$type": "KLPANPDGHHA",
            "direction": {
              "$type": "MEADFIJAHPG",
              "maxAngleType": "Vertical",
              "maxAngle": 20.0,
              "startPoint": ""
            },
            "useRotation": true,
            "attachPointName": "BornBubble",
            "attachPointTargetType": "Self"
          },
          "trackTarget": "SelfAttackActiveTarget"
        }
      ]
    }
  }
]