[
  {
    "Default": {
      "$type": "CBPBEHLOHKI",
      "abilityName": "Eremite_Gloves_AnimatorSteer",
      "abilityMixins": [
        {
          "$type": "IILHMBGONGM",
          "steerStateIDs": [
            "Slash01_BS"
          ],
          "startNormalizedTime": 0.041999999433755875,
          "endNormalizedTime": 0.07900000363588333,
          "angularSpeed": 340.0,
          "attackTrigger": "",
          "DGFCLAIDIFI": ""
        },
        {
          "$type": "IILHMBGONGM",
          "steerStateIDs": [
            "Slash01"
          ],
          "startNormalizedTime": 0.2529999911785126,
          "endNormalizedTime": 0.30799999833106995,
          "angularSpeed": 40.0,
          "attackTrigger": "",
          "DGFCLAIDIFI": ""
        },
        {
          "$type": "IILHMBGONGM",
          "steerStateIDs": [
            "Slash01_AS"
          ],
          "startNormalizedTime": 0.7369999885559082,
          "endNormalizedTime": 0.7789999842643738,
          "angularSpeed": 240.0,
          "attackTrigger": "",
          "DGFCLAIDIFI": ""
        },
        {
          "$type": "IILHMBGONGM",
          "steerStateIDs": [
            "Slash02_BS"
          ],
          "angularSpeed": 120.0,
          "attackTrigger": "",
          "DGFCLAIDIFI": ""
        },
        {
          "$type": "IILHMBGONGM",
          "steerStateIDs": [
            "Slash02_AS"
          ],
          "endNormalizedTime": 0.6399999856948853,
          "angularSpeed": 120.0,
          "attackTrigger": "",
          "DGFCLAIDIFI": ""
        },
        {
          "$type": "IILHMBGONGM",
          "steerStateIDs": [
            "Slash02"
          ],
          "angularSpeed": 42.0,
          "attackTrigger": "",
          "DGFCLAIDIFI": ""
        },
        {
          "$type": "IILHMBGONGM",
          "steerStateIDs": [
            "Slash02_AS"
          ],
          "startNormalizedTime": 0.25,
          "endNormalizedTime": 0.6729999780654907,
          "angularSpeed": 50.0,
          "attackTrigger": "",
          "DGFCLAIDIFI": ""
        },
        {
          "$type": "IILHMBGONGM",
          "steerStateIDs": [
            "ChargedAttack_BS"
          ],
          "endNormalizedTime": 0.13099999725818634,
          "angularSpeed": 180.0,
          "attackTrigger": "",
          "DGFCLAIDIFI": ""
        },
        {
          "$type": "BEJLNHKNIKK",
          "steerStateIDs": [
            "ChargedAttack"
          ],
          "startNormalizedTime": 0.36899998784065247,
          "endNormalizedTime": 0.38999998569488525,
          "angularSpeed": 450.0,
          "attackTrigger": "",
          "DGFCLAIDIFI": ""
        },
        {
          "$type": "BEJLNHKNIKK",
          "steerStateIDs": [
            "ChargedAttack"
          ],
          "startNormalizedTime": 0.4059999883174896,
          "endNormalizedTime": 0.47999998927116394,
          "angularSpeed": 120.0,
          "attackTrigger": "",
          "DGFCLAIDIFI": ""
        },
        {
          "$type": "IILHMBGONGM",
          "steerStateIDs": [
            "ChargedAttack_AS"
          ],
          "startNormalizedTime": 0.6890000104904175,
          "endNormalizedTime": 0.8190000057220459,
          "angularSpeed": 145.0,
          "attackTrigger": "",
          "DGFCLAIDIFI": ""
        },
        {
          "$type": "IILHMBGONGM",
          "steerStateIDs": [
            "Alert"
          ],
          "angularSpeed": 270.0,
          "attackTrigger": "",
          "DGFCLAIDIFI": ""
        },
        {
          "$type": "IILHMBGONGM",
          "steerStateIDs": [
            "Crossleg_Alert"
          ],
          "startNormalizedTime": 0.19499999284744263,
          "endNormalizedTime": 0.43799999356269836,
          "angularSpeed": 450.0,
          "attackTrigger": "",
          "DGFCLAIDIFI": ""
        },
        {
          "$type": "IILHMBGONGM",
          "steerStateIDs": [
            "Crossleg_Alert"
          ],
          "startNormalizedTime": 0.44999998807907104,
          "angularSpeed": 200.0,
          "attackTrigger": "",
          "DGFCLAIDIFI": ""
        }
      ]
    }
  },
  {
    "Default": {
      "$type": "CBPBEHLOHKI",
      "abilityName": "Eremite_Gloves_SlashCombo_Check",
      "onAbilityStart": [
        {
          "$type": "BLCCGIPAOIP",
          "predicates": [
            {
              "$type": "FMBJAJFLDIP",
              "target": "SelfAttackTarget",
              "logic": "Lesser",
              "param3": 5.0,
              "DDALGNLEHOD": ""
            }
          ],
          "PLLJBINMGJK": "ComboTrigger"
        }
      ]
    }
  },
  {
    "Default": {
      "$type": "CBPBEHLOHKI",
      "abilityName": "Eremite_Gloves_Equip_Display_Manager",
      "abilityMixins": [
        {
          "$type": "MLJAPFBGEEH",
          "globalValueKey": "_EREMITE_GLOVES_HIDE_WEAPON_",
          "gvInTalk": 1.0,
          "valueSteps": [
            -0.5,
            0.5,
            1.5
          ],
          "modifierNameSteps": [
            "UNIQUE_Eremite_Gloves_ShowWeapon",
            "UNIQUE_Eremite_Gloves_HideWeapon"
          ]
        },
        {
          "$type": "EKMHJKDLBJH",
          "stateIDs": [
            "Struggle"
          ],
          "modifierName": "UNIQUE_Eremite_Gloves_Struggle_Weapon",
          "DGFCLAIDIFI": ""
        },
        {
          "$type": "EJDKAKLFCPA",
          "stateIDs": [
            "SheathWeapon"
          ],
          "modifierName": "UNIQUE_Eremite_Gloves_ReturnToBorn",
          "DGFCLAIDIFI": ""
        },
        {
          "$type": "EAKJOFAIAPH",
          "poseIDs": [
            1
          ],
          "enterActions": [
            {
              "$type": "BOBCOJHOKKD",
              "param3": 1.0,
              "key": "_EREMITE_GLOVES_HIDE_WEAPON_",
              "param2": 0.0,
              "repeatTimes": 0.0
            }
          ]
        }
      ],
      "modifiers": {
        "UNIQUE_Eremite_Gloves_HideWeapon": {
          "modifierName": "",
          "forceTriggerWhenChangeAuthority": true,
          "IPFJJJGABPL": 100.0,
          "onAdded": [
            {
              "$type": "IDNGFEEBPAM",
              "canBeHandledOnRecover": true,
              "boolID": "WeaponInHand"
            }
          ],
          "onReconnect": [
            {
              "$type": "IDNGFEEBPAM",
              "boolID": "WeaponInHand"
            }
          ],
          "onChangeAuthority": [
            {
              "$type": "IDNGFEEBPAM",
              "boolID": "WeaponInHand"
            }
          ]
        },
        "UNIQUE_Eremite_Gloves_ShowWeapon": {
          "modifierName": "",
          "forceTriggerWhenChangeAuthority": true,
          "IPFJJJGABPL": 100.0,
          "onAdded": [
            {
              "$type": "IDNGFEEBPAM",
              "boolID": "WeaponInHand",
              "param3": true
            }
          ]
        },
        "UNIQUE_Eremite_Gloves_Struggle_Weapon": {
          "modifierName": "",
          "forceTriggerWhenChangeAuthority": true,
          "IPFJJJGABPL": 100.0,
          "onAdded": [
            {
              "$type": "BOBCOJHOKKD",
              "param3": 1.0,
              "key": "_EREMITE_GLOVES_HIDE_WEAPON_",
              "param2": 0.0,
              "repeatTimes": 0.0
            }
          ],
          "onRemoved": [
            {
              "$type": "BOBCOJHOKKD",
              "param3": 0.0,
              "key": "_EREMITE_GLOVES_HIDE_WEAPON_",
              "param2": 0.0,
              "repeatTimes": 0.0
            }
          ]
        },
        "UNIQUE_Eremite_Gloves_ReturnToBorn": {
          "modifierName": "",
          "forceTriggerWhenChangeAuthority": true,
          "IPFJJJGABPL": 100.0,
          "onRemoved": [
            {
              "$type": "BOBCOJHOKKD",
              "param3": 1.0,
              "key": "_EREMITE_GLOVES_HIDE_WEAPON_",
              "param2": 0.0,
              "repeatTimes": 0.0
            }
          ]
        }
      },
      "onAdded": [
        {
          "$type": "BOBCOJHOKKD",
          "param3": 1.0,
          "key": "_EREMITE_GLOVES_HIDE_WEAPON_",
          "param2": 0.0,
          "repeatTimes": 0.0
        }
      ],
      "onAbilityStart": [
        {
          "$type": "BOBCOJHOKKD",
          "param3": 0.0,
          "key": "_EREMITE_GLOVES_HIDE_WEAPON_",
          "param2": 0.0,
          "repeatTimes": 0.0
        },
        {
          "$type": "KBFEIHEAMBM",
          "otherTargets": {
            "$type": "GAPFENEFKKE",
            "equipPartNames": [
              "equip01",
              "equip02"
            ]
          },
          "rotationDampTime": "Eff_Monster_Eremite_Weapon_Disappear",
          "PPPDJGDDOGD": 1.0,
          "AJDILHJFNKE": -1.0
        }
      ]
    }
  },
  {
    "Default": {
      "$type": "CBPBEHLOHKI",
      "abilityName": "Eremite_Gloves_Equip_Hide",
      "onAbilityStart": [
        {
          "$type": "BOBCOJHOKKD",
          "param3": 0.0,
          "key": "_EREMITE_GLOVES_HIDE_WEAPON_",
          "param2": 0.0,
          "repeatTimes": 0.0
        }
      ]
    }
  },
  {
    "Default": {
      "$type": "CBPBEHLOHKI",
      "abilityName": "Eremite_Gloves_Equip_Display_Logic",
      "abilityMixins": [
        {
          "$type": "CCNIOPJEHOE",
          "globalValueTarget": "Owner",
          "globalValueKey": "_EREMITE_GLOVES_HIDE_WEAPON_",
          "valueSteps": [
            -0.5,
            0.5,
            1.5
          ],
          "modifierNameSteps": [
            "EremiteWeapon_Gloves_ShowWeapon",
            "EremiteWeapon_Gloves_HideWeapon"
          ]
        }
      ],
      "modifiers": {
        "EremiteWeapon_Gloves_ShowWeapon": {
          "modifierName": "",
          "IPFJJJGABPL": 100.0,
          "onAdded": [
            {
              "$type": "PJENOLFAFMG",
              "KGGEDGKGLDD": true
            }
          ]
        },
        "EremiteWeapon_Gloves_HideWeapon": {
          "modifierName": "",
          "IPFJJJGABPL": 100.0,
          "onAdded": [
            {
              "$type": "PJENOLFAFMG",
              "canBeHandledOnRecover": true
            }
          ],
          "onReconnect": [
            {
              "$type": "PJENOLFAFMG"
            }
          ],
          "onChangeAuthority": [
            {
              "$type": "PJENOLFAFMG"
            }
          ]
        }
      }
    }
  }
]