[
  {
    "Default": {
      "$type": "CBPBEHLOHKI",
      "abilityName": "Monster_Gator_Eremite_Rock_SteerControl",
      "abilityMixins": [
        {
          "$type": "IILHMBGONGM",
          "steerStateIDs": [
            "NormalAttack02"
          ],
          "endNormalizedTime": 0.30000001192092896,
          "angularSpeed": 200.0,
          "attackTrigger": "",
          "attackDistance": 2.0,
          "DGFCLAIDIFI": ""
        },
        {
          "$type": "IILHMBGONGM",
          "steerStateIDs": [
            "NormalAttack02"
          ],
          "startNormalizedTime": 0.5400000214576721,
          "endNormalizedTime": 0.7799999713897705,
          "angularSpeed": 100.0,
          "attackTrigger": "",
          "attackDistance": 2.0,
          "DGFCLAIDIFI": ""
        },
        {
          "$type": "IILHMBGONGM",
          "steerStateIDs": [
            "MeleeAttack01_BS"
          ],
          "startNormalizedTime": 0.3499999940395355,
          "angularSpeed": 180.0,
          "attackTrigger": "",
          "attackDistance": 2.0,
          "DGFCLAIDIFI": ""
        },
        {
          "$type": "IILHMBGONGM",
          "steerStateIDs": [
            "TurnRight"
          ],
          "angularSpeed": 150.0,
          "attackTrigger": "",
          "attackDistance": 2.0,
          "DGFCLAIDIFI": ""
        },
        {
          "$type": "IILHMBGONGM",
          "steerStateIDs": [
            "TurnLeft"
          ],
          "angularSpeed": 150.0,
          "attackTrigger": "",
          "attackDistance": 2.0,
          "DGFCLAIDIFI": ""
        }
      ]
    }
  },
  {
    "Default": {
      "$type": "CBPBEHLOHKI",
      "abilityName": "Monster_Gator_Eremite_Rock_StateControl",
      "abilityMixins": [
        {
          "$type": "EKMHJKDLBJH",
          "stateIDs": [
            "Alert"
          ],
          "modifierName": "Monster_Gator_Eremite_Rock_Alert",
          "DGFCLAIDIFI": ""
        },
        {
          "$type": "LEOGLBFIELL",
          "poseIDs": [
            1,
            102
          ],
          "modifierName": "Monster_Gator_Eremite_Rock_Disappear"
        },
        {
          "$type": "NAFEDCNOIGL",
          "stateID": "Alert",
          "modifierName": "Monster_Gator_Eremite_Rock_Visable",
          "normalizeEnd": 0.36000001430511475,
          "DGFCLAIDIFI": ""
        }
      ],
      "modifiers": {
        "Monster_Gator_Eremite_Rock_Alert": {
          "modifierName": "",
          "IPFJJJGABPL": 100.0,
          "onAdded": [
            {
              "$type": "KFCDMIMBBLD",
              "born": {
                "$type": "IAENDIPDFKD",
                "offset": {
                  "KGEPIMHBMOL": 0.0,
                  "JEBHCGDPFEJ": 2.6700000762939453,
                  "LPCHALMFFOD": -4.25
                }
              },
              "gadgetID": 42540002,
              "campID": 4001
            }
          ],
          "onRemoved": [
            {
              "$type": "NCFFNDHGCMH",
              "otherTargets": {
                "$type": "MEOIGEJCJLB",
                "configID": 42540002
              }
            },
            {
              "$type": "PFKNEFGOHIH",
              "modifierName": "Monster_Gator_Eremite_Rock_StateControl"
            },
            {
              "$type": "PELJALPANCA",
              "modifierName": "Monster_Gator_Eremite_Rock_DefenseDown_Effect"
            }
          ]
        },
        "Monster_Gator_Eremite_Rock_DefenseDown_Effect": {
          "modifierName": "",
          "IPFJJJGABPL": 100.0,
          "onAdded": [
            {
              "$type": "ANLOBBMKNIJ",
              "rotationDampTime": "Eff_Avatar_Properties_Defense_Down",
              "PPPDJGDDOGD": 1.0,
              "AJDILHJFNKE": -1.0
            }
          ]
        },
        "Monster_Gator_Eremite_Rock_Disappear": {
          "modifierName": "",
          "IPFJJJGABPL": 100.0,
          "modifierMixins": [
            {
              "$type": "CIGJDPCDOEB",
              "onAdded": [
                {
                  "$type": "HBNEMPLJCMB",
                  "hide": true
                },
                {
                  "$type": "FDFGJPNDKEA",
                  "pushColliderNames": [
                    "PushCollider"
                  ]
                },
                {
                  "$type": "AENLGPIPPAK",
                  "hitBoxNames": [
                    "HitBox"
                  ]
                },
                {
                  "$type": "CNMAKBJBODN",
                  "canBeHandledOnRecover": true,
                  "hdMeshKey": "Default"
                }
              ],
              "onRemoved": [
                {
                  "$type": "HBNEMPLJCMB"
                },
                {
                  "$type": "FDFGJPNDKEA",
                  "pushColliderNames": [
                    "PushCollider"
                  ],
                  "setEnable": true
                },
                {
                  "$type": "AENLGPIPPAK",
                  "hitBoxNames": [
                    "HitBox"
                  ],
                  "setEnable": true
                },
                {
                  "$type": "CNMAKBJBODN",
                  "enable": true,
                  "hdMeshKey": "Default"
                }
              ]
            }
          ],
          "properties": {
            "Actor_PhysicalSubHurtDelta": 2.0,
            "Actor_FireSubHurtDelta": 2.0,
            "Actor_ElecSubHurtDelta": 2.0,
            "Actor_WaterSubHurtDelta": 2.0,
            "Actor_GrassSubHurtDelta": 2.0,
            "Actor_WindSubHurtDelta": 2.0,
            "Actor_IceSubHurtDelta": 2.0,
            "Actor_RockSubHurtDelta": 2.0
          },
          "state": "DenyLockOn",
          "onAdded": [
            {
              "$type": "HBNEMPLJCMB",
              "hide": true
            },
            {
              "$type": "PJENOLFAFMG"
            },
            {
              "$type": "FDFGJPNDKEA",
              "pushColliderNames": [
                "PushCollider"
              ]
            },
            {
              "$type": "AENLGPIPPAK",
              "hitBoxNames": [
                "HitBox"
              ]
            },
            {
              "$type": "CNMAKBJBODN",
              "canBeHandledOnRecover": true,
              "hdMeshKey": "Default"
            }
          ],
          "onRemoved": [
            {
              "$type": "HBNEMPLJCMB"
            },
            {
              "$type": "PJENOLFAFMG",
              "KGGEDGKGLDD": true
            },
            {
              "$type": "FDFGJPNDKEA",
              "pushColliderNames": [
                "PushCollider"
              ],
              "setEnable": true
            },
            {
              "$type": "AENLGPIPPAK",
              "hitBoxNames": [
                "HitBox"
              ],
              "setEnable": true
            },
            {
              "$type": "CNMAKBJBODN",
              "enable": true,
              "hdMeshKey": "Default"
            },
            {
              "$type": "PFKNEFGOHIH",
              "modifierName": "Monster_Gator_Eremite_Rock_StateControl"
            }
          ]
        },
        "Monster_Gator_Eremite_Rock_Visable": {
          "modifierName": "",
          "IPFJJJGABPL": 100.0,
          "onRemoved": [
            {
              "$type": "PJENOLFAFMG",
              "canBeHandledOnRecover": true,
              "KGGEDGKGLDD": true
            }
          ]
        },
        "Monster_Gator_Eremite_Rock_StateControl": {
          "modifierName": "",
          "IPFJJJGABPL": 100.0,
          "onAdded": [
            {
              "$type": "IDNGFEEBPAM",
              "canBeHandledOnRecover": true,
              "boolID": "IsAppear"
            }
          ],
          "onRemoved": [
            {
              "$type": "IDNGFEEBPAM",
              "canBeHandledOnRecover": true,
              "boolID": "IsAppear",
              "param3": true
            }
          ],
          "onReconnect": [
            {
              "$type": "IDNGFEEBPAM",
              "boolID": "IsAppear",
              "param3": true
            }
          ],
          "onChangeAuthority": [
            {
              "$type": "IDNGFEEBPAM",
              "boolID": "IsAppear",
              "param3": true
            },
            {
              "$type": "PJENOLFAFMG",
              "canBeHandledOnRecover": true,
              "KGGEDGKGLDD": true
            }
          ]
        },
        "Monster_Gator_Eremite_BaseStateHeadle": {
          "modifierName": "",
          "elementDurability": 1.0,
          "IPFJJJGABPL": 100.0,
          "onAdded": [
            {
              "$type": "HBNEMPLJCMB",
              "hide": true
            },
            {
              "$type": "PJENOLFAFMG"
            },
            {
              "$type": "FDFGJPNDKEA",
              "pushColliderNames": [
                "PushCollider"
              ]
            },
            {
              "$type": "AENLGPIPPAK",
              "hitBoxNames": [
                "HitBox"
              ]
            },
            {
              "$type": "CNMAKBJBODN",
              "shieldHP": true,
              "canBeHandledOnRecover": true,
              "hdMeshKey": "Default"
            }
          ]
        }
      },
      "onAdded": [
        {
          "$type": "PELJALPANCA",
          "modifierName": "Monster_Gator_Eremite_BaseStateHeadle"
        },
        {
          "$type": "JLDEMMJAMLC",
          "modifierName": "Monster_Gator_Eremite_Rock_StateControl"
        }
      ]
    }
  },
  {
    "Default": {
      "$type": "CBPBEHLOHKI",
      "abilityName": "Monster_Gator_Eremite_Rock_ShaderCut",
      "modifiers": {
        "ChargeEndPos_ShaderCut": {
          "modifierName": "",
          "elementDurability": 3.0,
          "IPFJJJGABPL": 100.0,
          "modifierMixins": [
            {
              "$type": "JHIEJGLDEPG",
              "sendTarget": "Owner",
              "namedTransform": "",
              "sendRadius": 10.0,
              "PPPDJGDDOGD": {
                "x": 5.0,
                "y": 5.0,
                "z": 5.0
              },
              "AAMGGBMCCPP": "",
              "LLPELFLMNML": "",
              "KIAANCLFDJP": "",
              "BLKHAPDFHDF": ""
            }
          ],
          "onRemoved": [
            {
              "$type": "NCFFNDHGCMH"
            }
          ]
        }
      },
      "onAdded": [
        {
          "$type": "PELJALPANCA",
          "modifierName": "ChargeEndPos_ShaderCut"
        }
      ]
    }
  },
  {
    "Default": {
      "$type": "CBPBEHLOHKI",
      "abilityName": "Monster_Gator_Eremite_Rock_RangeAttack",
      "abilityMixins": [
        {
          "$type": "EKMHJKDLBJH",
          "stateIDs": [
            "NormalAttack01"
          ],
          "modifierName": "Monster_Gator_Eremite_Rock_RangeAttack_Effect",
          "DGFCLAIDIFI": ""
        }
      ],
      "modifiers": {
        "Monster_Gator_Eremite_Rock_RangeAttack": {
          "modifierName": "",
          "elementDurability": 1.0,
          "IPFJJJGABPL": 100.0,
          "onAdded": [
            {
              "$type": "KBFEIHEAMBM",
              "rotationDampTime": "Eff_Monster_Gator_Eremite_Rock_RangeAttack_Damage",
              "born": {
                "$type": "IAENDIPDFKD",
                "onGround": true,
                "alongGround": true
              },
              "PPPDJGDDOGD": 1.0,
              "AJDILHJFNKE": -1.0
            },
            {
              "$type": "AIFPLABJNMA",
              "attackEvent": {
                "attackPattern": {
                  "$type": "GMDIMKKHACA",
                  "triggerType": "TriggerNoRepeat",
                  "born": {
                    "$type": "IAENDIPDFKD"
                  },
                  "height": 1.399999976158142,
                  "OAHPDLJIADP": 5.5
                },
                "attackInfo": {
                  "attackTag": "",
                  "attenuationTag": "",
                  "attenuationGroup": "default",
                  "attackProperty": {
                    "actorGrassSubHurtDelta": 0.75,
                    "actorWindSubHurtDelta": 0.0,
                    "elementType": "Rock",
                    "IPFJJJGABPL": 25.0,
                    "strikeType": "Blunt",
                    "enBreak": 100.0,
                    "GLKMCMDJBIK": 0.0
                  },
                  "hitPattern": {
                    "onHitEffectName": "default",
                    "hitImpulseY": "",
                    "hitImpulseType": "LV4",
                    "retreatType": "ByHitDirection",
                    "hitHaltTimeScale": 0.009999999776482582
                  }
                }
              },
              "targetType": "Enemy"
            }
          ]
        },
        "Monster_Gator_Eremite_Rock_RangeAttack_Effect": {
          "modifierName": "",
          "IPFJJJGABPL": 100.0,
          "onAdded": [
            {
              "$type": "ANLOBBMKNIJ",
              "rotationDampTime": "Eff_Monster_Gator_Eremite_Rock_RangeAttack_Effect",
              "born": {
                "$type": "IAENDIPDFKD",
                "onGround": true,
                "alongGround": true
              },
              "PPPDJGDDOGD": 1.0,
              "AJDILHJFNKE": -1.0
            }
          ]
        }
      },
      "onAbilityStart": [
        {
          "$type": "PELJALPANCA",
          "modifierName": "Monster_Gator_Eremite_Rock_RangeAttack"
        }
      ]
    }
  },
  {
    "Default": {
      "$type": "CBPBEHLOHKI",
      "abilityName": "Monster_Gator_Eremite_Rock_TailAttack",
      "modifiers": {
        "Monster_Gator_Eremite_Rock_TailAttack": {
          "modifierName": "",
          "elementDurability": 1.0,
          "IPFJJJGABPL": 100.0,
          "onAdded": [
            {
              "$type": "KBFEIHEAMBM",
              "rotationDampTime": "Eff_Monster_Gator_Eremite_Rock_TailAttack_Damage",
              "born": {
                "$type": "IAENDIPDFKD",
                "offset": {
                  "KGEPIMHBMOL": 0.0,
                  "JEBHCGDPFEJ": 0.0,
                  "LPCHALMFFOD": 1.0
                },
                "onGround": true,
                "alongGround": true
              },
              "PPPDJGDDOGD": 1.0,
              "AJDILHJFNKE": -1.0
            },
            {
              "$type": "AIFPLABJNMA",
              "attackEvent": {
                "attackPattern": {
                  "$type": "JHKEHNJBMOF",
                  "triggerType": "TriggerAlways",
                  "born": {
                    "$type": "IAENDIPDFKD",
                    "offset": {
                      "KGEPIMHBMOL": 0.0,
                      "JEBHCGDPFEJ": 0.0,
                      "LPCHALMFFOD": 1.0
                    },
                    "onGround": true,
                    "alongGround": true
                  },
                  "size": {
                    "KGEPIMHBMOL": 3.0,
                    "JEBHCGDPFEJ": 3.0,
                    "LPCHALMFFOD": 5.5
                  }
                },
                "attackInfo": {
                  "attackTag": "",
                  "attenuationTag": "",
                  "attenuationGroup": "default",
                  "attackProperty": {
                    "actorGrassSubHurtDelta": 0.75,
                    "actorWindSubHurtDelta": 0.0,
                    "elementType": "Rock",
                    "IPFJJJGABPL": 25.0,
                    "strikeType": "Blunt",
                    "enBreak": 10000.0,
                    "GLKMCMDJBIK": 0.0
                  },
                  "hitPattern": {
                    "onHitEffectName": "default",
                    "hitImpulseY": "",
                    "hitImpulseType": "LV5",
                    "retreatType": "ByHitDirection",
                    "hitHaltTimeScale": 0.009999999776482582
                  }
                }
              },
              "targetType": "Enemy"
            }
          ]
        }
      },
      "onAbilityStart": [
        {
          "$type": "PELJALPANCA",
          "modifierName": "Monster_Gator_Eremite_Rock_TailAttack"
        },
        {
          "$type": "CAKDDHLKOAB",
          "bulletID": 42540005,
          "born": {
            "$type": "IAENDIPDFKD",
            "offset": {
              "KGEPIMHBMOL": 0.25,
              "JEBHCGDPFEJ": 2.200000047683716,
              "LPCHALMFFOD": 4.650000095367432
            },
            "direction": {
              "$type": "AHGNBAPONLA",
              "angleOffset": {
                "KGEPIMHBMOL": 0.0,
                "JEBHCGDPFEJ": 0.0,
                "LPCHALMFFOD": 0.0
              }
            }
          }
        },
        {
          "$type": "CAKDDHLKOAB",
          "bulletID": 42540005,
          "born": {
            "$type": "IAENDIPDFKD",
            "offset": {
              "KGEPIMHBMOL": 1.1399999856948853,
              "JEBHCGDPFEJ": 2.200000047683716,
              "LPCHALMFFOD": 4.650000095367432
            },
            "direction": {
              "$type": "AHGNBAPONLA",
              "angleOffset": {
                "KGEPIMHBMOL": 0.0,
                "JEBHCGDPFEJ": 25.0,
                "LPCHALMFFOD": 0.0
              }
            }
          }
        },
        {
          "$type": "CAKDDHLKOAB",
          "bulletID": 42540005,
          "born": {
            "$type": "IAENDIPDFKD",
            "offset": {
              "KGEPIMHBMOL": -1.1399999856948853,
              "JEBHCGDPFEJ": 2.200000047683716,
              "LPCHALMFFOD": 4.650000095367432
            },
            "direction": {
              "$type": "AHGNBAPONLA",
              "angleOffset": {
                "KGEPIMHBMOL": 0.0,
                "JEBHCGDPFEJ": -25.0,
                "LPCHALMFFOD": 0.0
              }
            }
          }
        }
      ]
    }
  },
  {
    "Default": {
      "$type": "CBPBEHLOHKI",
      "abilityName": "Monster_Gator_Eremite_Rock_TailAttack_RockBomb_Wave",
      "modifiers": {
        "Monster_Gator_Eremite_Rock_TailAttack_RockBomb_Wave_Delay": {
          "modifierName": "",
          "elementDurability": 0.20000000298023224,
          "IPFJJJGABPL": 100.0,
          "onAdded": [
            {
              "$type": "PELJALPANCA",
              "modifierName": "Monster_Gator_Eremite_Rock_TailAttack_RockBomb_Wave_Damage"
            }
          ]
        },
        "Monster_Gator_Eremite_Rock_TailAttack_RockBomb_Wave_Damage": {
          "modifierName": "",
          "elementDurability": 1.0,
          "IPFJJJGABPL": 100.0,
          "thinkInterval": 0.20000000298023224,
          "onThinkInterval": [
            {
              "$type": "EDNOMJCBPIM",
              "rotationDampTime": "Eff_Monster_Eremite_Male_Strong_Katar_Rock_RockBomb_Wave",
              "born": {
                "$type": "IAENDIPDFKD"
              }
            },
            {
              "$type": "AIFPLABJNMA",
              "attackEvent": {
                "attackPattern": {
                  "$type": "GMDIMKKHACA",
                  "triggerType": "TriggerNoRepeat",
                  "born": {
                    "$type": "IAENDIPDFKD"
                  },
                  "height": 1.7999999523162842,
                  "OAHPDLJIADP": 1.7999999523162842
                },
                "attackInfo": {
                  "attackTag": "",
                  "attenuationTag": "Eremite_Katar_RockBomb_Rock",
                  "attenuationGroup": "Eremite_Katar_RockBomb_Rock",
                  "attackProperty": {
                    "actorGrassSubHurtDelta": 0.5,
                    "actorWindSubHurtDelta": 0.0,
                    "elementType": "Rock",
                    "IPFJJJGABPL": 25.0,
                    "strikeType": "Blunt",
                    "enBreak": 100.0,
                    "GLKMCMDJBIK": 0.0
                  },
                  "hitPattern": {
                    "onHitEffectName": "default",
                    "hitImpulseY": "",
                    "hitImpulseType": "LV5",
                    "retreatType": "ByHitDirection",
                    "hitHaltTimeScale": 0.009999999776482582
                  },
                  "canBeModifiedBy": "OriginOwner"
                }
              },
              "targetType": "Enemy"
            }
          ]
        }
      },
      "onAdded": [
        {
          "$type": "EDNOMJCBPIM",
          "rotationDampTime": "Eff_Monster_Eremite_Male_Strong_Katar_Rock_RockBomb_Wave",
          "born": {
            "$type": "IAENDIPDFKD"
          }
        },
        {
          "$type": "AIFPLABJNMA",
          "attackEvent": {
            "attackPattern": {
              "$type": "GMDIMKKHACA",
              "triggerType": "TriggerNoRepeat",
              "born": {
                "$type": "IAENDIPDFKD"
              },
              "height": 2.0,
              "OAHPDLJIADP": 1.7999999523162842
            },
            "attackInfo": {
              "attackTag": "Eremite_Katar_RockBomb_Rock",
              "attenuationTag": "",
              "attenuationGroup": "Eremite_Katar_RockBomb_Rock",
              "attackProperty": {
                "actorGrassSubHurtDelta": 0.5,
                "actorWindSubHurtDelta": 0.0,
                "elementType": "Rock",
                "IPFJJJGABPL": 25.0,
                "strikeType": "Blunt",
                "enBreak": 100.0,
                "GLKMCMDJBIK": 0.0
              },
              "hitPattern": {
                "onHitEffectName": "default",
                "hitImpulseY": "",
                "hitImpulseType": "LV5",
                "retreatType": "ByHitDirection",
                "hitHaltTimeScale": 0.009999999776482582
              },
              "canBeModifiedBy": "OriginOwner"
            }
          },
          "targetType": "Enemy"
        },
        {
          "$type": "PELJALPANCA",
          "modifierName": "Monster_Gator_Eremite_Rock_TailAttack_RockBomb_Wave_Delay"
        }
      ]
    }
  },
  {
    "Default": {
      "$type": "CBPBEHLOHKI",
      "abilityName": "Monster_Gator_Eremite_Rock_MeleeAttack",
      "abilityMixins": [
        {
          "$type": "EKMHJKDLBJH",
          "stateIDs": [
            "MeleeAttack01_Loop"
          ],
          "modifierName": "Monster_Gator_Eremite_Rock_MeleeAttack01_Handle",
          "DGFCLAIDIFI": ""
        },
        {
          "$type": "EKMHJKDLBJH",
          "stateIDs": [
            "MeleeAttack01_Loop"
          ],
          "modifierName": "Monster_Gator_Eremite_Rock_MeleeAttack01_Effect",
          "DGFCLAIDIFI": ""
        },
        {
          "$type": "NAFEDCNOIGL",
          "stateID": "MeleeAttack01_AS",
          "modifierName": "Monster_Gator_Eremite_Rock_MeleeAttack01_Effect02",
          "normalizeStart": 0.125,
          "normalizeEnd": 0.8500000238418579,
          "DGFCLAIDIFI": ""
        }
      ],
      "modifiers": {
        "Monster_Gator_Eremite_Rock_MeleeAttack01_Handle": {
          "modifierName": "",
          "elementDurability": 1.0,
          "IPFJJJGABPL": 100.0,
          "onAdded": [
            {
              "$type": "CAKDDHLKOAB",
              "bulletID": 42540004,
              "born": {
                "$type": "KLPANPDGHHA",
                "attachPointName": "RootNode"
              },
              "trackTarget": "Self"
            },
            {
              "$type": "FDFGJPNDKEA",
              "pushColliderNames": [
                "PushCollider"
              ]
            }
          ],
          "onRemoved": [
            {
              "$type": "FDFGJPNDKEA",
              "pushColliderNames": [
                "PushCollider"
              ],
              "setEnable": true
            },
            {
              "$type": "NCFFNDHGCMH",
              "otherTargets": {
                "$type": "MEOIGEJCJLB",
                "configID": 42540004
              }
            }
          ],
          "onReconnect": [
            {
              "$type": "FDFGJPNDKEA",
              "pushColliderNames": [
                "PushCollider"
              ],
              "setEnable": true
            }
          ]
        },
        "Monster_Gator_Eremite_Rock_MeleeAttack01_Effect": {
          "modifierName": "",
          "IPFJJJGABPL": 100.0,
          "onAdded": [
            {
              "$type": "ANLOBBMKNIJ",
              "rotationDampTime": "Eff_Monster_Gator_Eremite_Rock_MeleeAttack_Loop",
              "PPPDJGDDOGD": 1.0,
              "AJDILHJFNKE": -1.0
            }
          ]
        },
        "Monster_Gator_Eremite_Rock_MeleeAttack01_Effect02": {
          "modifierName": "",
          "IPFJJJGABPL": 100.0,
          "onAdded": [
            {
              "$type": "ANLOBBMKNIJ",
              "rotationDampTime": "Eff_Monster_Gator_Eremite_Rock_MeleeAttack_Effect",
              "PPPDJGDDOGD": 1.0,
              "AJDILHJFNKE": -1.0
            }
          ]
        }
      }
    }
  },
  {
    "Default": {
      "$type": "CBPBEHLOHKI",
      "abilityName": "Monster_Gator_Eremite_Rock_MeleeAttack_Damage",
      "onAbilityStart": [
        {
          "$type": "AIFPLABJNMA",
          "attackEvent": {
            "attackPattern": {
              "$type": "BELNOFAKNBA",
              "triggerType": "TriggerNoRepeat",
              "born": {
                "$type": "JGEBAJLEBMO"
              },
              "OAHPDLJIADP": 0.5
            },
            "attackInfo": {
              "attackTag": "",
              "attenuationTag": "",
              "attenuationGroup": "default",
              "attackProperty": {
                "actorGrassSubHurtDelta": 0.800000011920929,
                "actorWindSubHurtDelta": 0.0,
                "elementType": "Rock",
                "IPFJJJGABPL": 25.0,
                "strikeType": "Blunt",
                "enBreak": 100.0,
                "GLKMCMDJBIK": 0.0
              },
              "hitPattern": {
                "onHitEffectName": "default",
                "hitImpulseY": "",
                "hitImpulseType": "LV4",
                "retreatType": "ByHitDirection",
                "hitHaltTimeScale": 0.009999999776482582
              },
              "canBeModifiedBy": "OriginOwner"
            }
          },
          "targetType": "Enemy"
        }
      ]
    }
  },
  {
    "Default": {
      "$type": "CBPBEHLOHKI",
      "abilityName": "Monster_Gator_Eremite_Rock_UnderGroundAttack_BS",
      "abilityMixins": [
        {
          "$type": "EKMHJKDLBJH",
          "stateIDs": [
            "UnderGroundAttack_Loop"
          ],
          "modifierName": "Monster_Gator_Eremite_Rock_UnderGroundAttack_PushColliderHandle",
          "DGFCLAIDIFI": ""
        },
        {
          "$type": "EKMHJKDLBJH",
          "stateIDs": [
            "UnderGroundAttack_BS"
          ],
          "modifierName": "Monster_Gator_Eremite_Rock_ComboTrigger",
          "target": "Owner",
          "DGFCLAIDIFI": ""
        }
      ],
      "modifiers": {
        "Monster_Gator_Eremite_Rock_UnderGroundAttack_PushColliderHandle": {
          "modifierName": "",
          "IPFJJJGABPL": 100.0,
          "onAdded": [
            {
              "$type": "CNMAKBJBODN",
              "canBeHandledOnRecover": true,
              "hdMeshKey": "Default"
            }
          ],
          "onRemoved": [
            {
              "$type": "FDFGJPNDKEA",
              "pushColliderNames": [
                "PushCollider"
              ],
              "setEnable": true
            },
            {
              "$type": "CNMAKBJBODN",
              "enable": true,
              "hdMeshKey": "Default"
            }
          ],
          "onReconnect": [
            {
              "$type": "FDFGJPNDKEA",
              "pushColliderNames": [
                "PushCollider"
              ],
              "setEnable": true
            }
          ]
        },
        "Monster_Gator_Eremite_Rock_ComboTrigger": {
          "modifierName": "",
          "elementDurability": 5.0,
          "IPFJJJGABPL": 100.0,
          "onAdded": [
            {
              "$type": "BLCCGIPAOIP",
              "PLLJBINMGJK": "ComboTrigger"
            }
          ]
        }
      },
      "onAbilityStart": [
        {
          "$type": "FDFGJPNDKEA",
          "pushColliderNames": [
            "PushCollider"
          ]
        },
        {
          "$type": "KBFEIHEAMBM",
          "rotationDampTime": "Eff_Monster_Gator_Eremite_Rock_UnderGroundAttack_Damage",
          "born": {
            "$type": "IAENDIPDFKD",
            "offset": {
              "KGEPIMHBMOL": 0.0,
              "JEBHCGDPFEJ": 0.0,
              "LPCHALMFFOD": 0.0
            },
            "onGround": true,
            "alongGround": true
          },
          "PPPDJGDDOGD": 1.0,
          "AJDILHJFNKE": -1.0
        },
        {
          "$type": "AIFPLABJNMA",
          "attackEvent": {
            "attackPattern": {
              "$type": "GMDIMKKHACA",
              "triggerType": "TriggerNoRepeat",
              "born": {
                "$type": "IAENDIPDFKD",
                "offset": {
                  "KGEPIMHBMOL": 0.0,
                  "JEBHCGDPFEJ": 0.0,
                  "LPCHALMFFOD": 1.5
                },
                "onGround": true,
                "alongGround": true
              },
              "height": 1.399999976158142,
              "OAHPDLJIADP": 2.0
            },
            "attackInfo": {
              "attackTag": "",
              "attenuationTag": "",
              "attenuationGroup": "default",
              "attackProperty": {
                "actorGrassSubHurtDelta": 0.3499999940395355,
                "actorWindSubHurtDelta": 0.0,
                "elementType": "Rock",
                "IPFJJJGABPL": 25.0,
                "strikeType": "Blunt",
                "enBreak": 100.0,
                "GLKMCMDJBIK": 0.0
              },
              "hitPattern": {
                "onHitEffectName": "default",
                "hitImpulseY": "",
                "hitImpulseType": "LV3",
                "retreatType": "ByHitDirection",
                "hitHaltTimeScale": 0.009999999776482582
              },
              "forceCameraShake": true,
              "cameraShake": {
                "shakeType": "CustomVector",
                "shakeRange": 0.25,
                "shakeTime": 1.0,
                "extension": {
                  "baseOnCamera": true,
                  "rangeAttenuation": 0.0
                }
              }
            }
          },
          "targetType": "Enemy"
        }
      ]
    }
  },
  {
    "Default": {
      "$type": "CBPBEHLOHKI",
      "abilityName": "Monster_Gator_Eremite_Rock_UnderGroundAttack_FindBlinkPoint",
      "onAbilityStart": [
        {
          "$type": "FIFEAMMHOIC",
          "target": "SelfAttackTarget",
          "maxRange": 1.0
        }
      ]
    }
  },
  {
    "Default": {
      "$type": "CBPBEHLOHKI",
      "abilityName": "Monster_Gator_Eremite_Rock_UnderGroundAttack_DoBlink",
      "onAbilityStart": [
        {
          "$type": "IFCMHHHOLCK"
        },
        {
          "$type": "KBFEIHEAMBM",
          "rotationDampTime": "Eff_Monster_Gator_Eremite_Rock_UnderGroundAttack_Alert",
          "born": {
            "$type": "IAENDIPDFKD",
            "onGround": true
          },
          "PPPDJGDDOGD": 1.0,
          "AJDILHJFNKE": -1.0
        }
      ]
    }
  },
  {
    "Default": {
      "$type": "CBPBEHLOHKI",
      "abilityName": "Monster_Gator_Eremite_Rock_UnderGroundAttack_DamageForUnderGround",
      "modifiers": {
        "Monster_Gator_Eremite_Rock_UnderGroundAttack_BreakGadget": {
          "modifierName": "",
          "elementDurability": 0.5,
          "IPFJJJGABPL": 100.0,
          "onAttackLanded": [
            {
              "$type": "PELJALPANCA",
              "target": "Target",
              "predicates": [
                {
                  "$type": "CNGGLKHONAA",
                  "key": "_COMMON_GADGET_ISSUMMON",
                  "param3": 0.0,
                  "compareType": "MoreThan"
                }
              ],
              "modifierName": "Kill_Summon_Gadget"
            }
          ]
        },
        "Kill_Summon_Gadget": {
          "modifierName": "",
          "IPFJJJGABPL": 100.0,
          "onAdded": [
            {
              "$type": "NCFFNDHGCMH"
            }
          ]
        }
      },
      "onAbilityStart": [
        {
          "$type": "PELJALPANCA",
          "modifierName": "Monster_Gator_Eremite_Rock_UnderGroundAttack_BreakGadget"
        },
        {
          "$type": "KBFEIHEAMBM",
          "rotationDampTime": "Eff_Monster_Gator_Eremite_Rock_UnderGroundAttack_DamageForUnderGround",
          "born": {
            "$type": "IAENDIPDFKD",
            "offset": {
              "KGEPIMHBMOL": 0.0,
              "JEBHCGDPFEJ": 0.0,
              "LPCHALMFFOD": 0.0
            },
            "onGround": true,
            "alongGround": true
          },
          "PPPDJGDDOGD": 1.0,
          "AJDILHJFNKE": -1.0
        },
        {
          "$type": "AIFPLABJNMA",
          "attackEvent": {
            "attackPattern": {
              "$type": "GMDIMKKHACA",
              "triggerType": "TriggerNoRepeat",
              "born": {
                "$type": "IAENDIPDFKD",
                "offset": {
                  "KGEPIMHBMOL": 0.0,
                  "JEBHCGDPFEJ": 0.0,
                  "LPCHALMFFOD": 0.0
                },
                "onGround": true,
                "alongGround": true
              },
              "height": 1.7999999523162842,
              "OAHPDLJIADP": 7.5
            },
            "attackInfo": {
              "attackTag": "",
              "attenuationTag": "",
              "attenuationGroup": "default",
              "attackProperty": {
                "actorGrassSubHurtDelta": 0.800000011920929,
                "actorWindSubHurtDelta": 0.0,
                "elementType": "Rock",
                "IPFJJJGABPL": 25.0,
                "strikeType": "Blunt",
                "enBreak": 10000.0,
                "GLKMCMDJBIK": 0.0
              },
              "hitPattern": {
                "onHitEffectName": "default",
                "hitImpulseY": "",
                "hitImpulseType": "LV4",
                "retreatType": "ByHitDirection",
                "hitHaltTimeScale": 0.009999999776482582
              },
              "forceCameraShake": true,
              "cameraShake": {
                "shakeRange": 0.25,
                "shakeTime": 1.0,
                "shakeDir": {
                  "y": 2.0
                },
                "extension": {
                  "baseOnCamera": true,
                  "rangeAttenuation": 0.0
                }
              }
            }
          },
          "targetType": "Enemy"
        }
      ]
    }
  },
  {
    "Default": {
      "$type": "CBPBEHLOHKI",
      "abilityName": "Monster_Gator_Eremite_Rock_UnderGroundAttack_DamageForDrop",
      "modifiers": {
        "Monster_Gator_Eremite_Rock_UnderGroundAttack_BreakGadget": {
          "modifierName": "",
          "elementDurability": 0.5,
          "IPFJJJGABPL": 100.0,
          "onAttackLanded": [
            {
              "$type": "PELJALPANCA",
              "target": "Target",
              "predicates": [
                {
                  "$type": "CNGGLKHONAA",
                  "key": "_COMMON_GADGET_ISSUMMON",
                  "param3": 0.0,
                  "compareType": "MoreThan"
                }
              ],
              "modifierName": "Kill_Summon_Gadget"
            }
          ]
        },
        "Kill_Summon_Gadget": {
          "modifierName": "",
          "IPFJJJGABPL": 100.0,
          "onAdded": [
            {
              "$type": "NCFFNDHGCMH"
            }
          ]
        }
      },
      "onAbilityStart": [
        {
          "$type": "FDFGJPNDKEA",
          "pushColliderNames": [
            "PushCollider"
          ],
          "setEnable": true
        },
        {
          "$type": "PELJALPANCA",
          "modifierName": "Monster_Gator_Eremite_Rock_UnderGroundAttack_BreakGadget"
        },
        {
          "$type": "KBFEIHEAMBM",
          "rotationDampTime": "Eff_Monster_Gator_Eremite_Rock_UnderGroundAttack_DamageForDrop",
          "born": {
            "$type": "IAENDIPDFKD",
            "offset": {
              "KGEPIMHBMOL": 0.0,
              "JEBHCGDPFEJ": 0.0,
              "LPCHALMFFOD": 0.0
            },
            "onGround": true,
            "alongGround": true
          },
          "PPPDJGDDOGD": 1.0,
          "AJDILHJFNKE": -1.0
        },
        {
          "$type": "AIFPLABJNMA",
          "attackEvent": {
            "attackPattern": {
              "$type": "GMDIMKKHACA",
              "triggerType": "TriggerNoRepeat",
              "born": {
                "$type": "IAENDIPDFKD",
                "offset": {
                  "KGEPIMHBMOL": 0.0,
                  "JEBHCGDPFEJ": 0.0,
                  "LPCHALMFFOD": 0.0
                },
                "onGround": true,
                "alongGround": true
              },
              "height": 1.7999999523162842,
              "OAHPDLJIADP": 7.5
            },
            "attackInfo": {
              "attackTag": "",
              "attenuationTag": "",
              "attenuationGroup": "default",
              "attackProperty": {
                "actorGrassSubHurtDelta": 1.0,
                "actorWindSubHurtDelta": 0.0,
                "elementType": "Rock",
                "IPFJJJGABPL": 25.0,
                "strikeType": "Blunt",
                "enBreak": 10000.0,
                "GLKMCMDJBIK": 0.0
              },
              "hitPattern": {
                "onHitEffectName": "default",
                "hitImpulseY": "",
                "hitImpulseType": "LV7",
                "retreatType": "ByHitDirection",
                "hitHaltTimeScale": 0.009999999776482582
              },
              "forceCameraShake": true,
              "cameraShake": {
                "shakeType": "CustomVector",
                "shakeRange": 0.25,
                "shakeTime": 2.0,
                "shakeDir": {
                  "y": 2.0
                },
                "extension": {
                  "baseOnCamera": true,
                  "rangeAttenuation": 0.0
                }
              }
            }
          },
          "targetType": "Enemy"
        }
      ]
    }
  },
  {
    "Default": {
      "$type": "CBPBEHLOHKI",
      "abilityName": "Monster_Gator_Eremite_Rock_Die",
      "modifiers": {
        "Empty_Modifier": {
          "modifierName": "",
          "IPFJJJGABPL": 100.0
        },
        "Monster_Gator_Eremite_Rock_Die": {
          "modifierName": "",
          "elementDurability": 1.0,
          "IPFJJJGABPL": 100.0,
          "onAdded": [
            {
              "$type": "BOBCOJHOKKD",
              "param3": 1.0,
              "key": "_EREMITE_SLAVE_DIE_",
              "useLimitRange": true,
              "param2": 1.0,
              "repeatTimes": 0.0
            }
          ]
        }
      },
      "onAdded": [
        {
          "$type": "BOBCOJHOKKD",
          "param3": 0.0,
          "key": "_EREMITE_SLAVE_RETURNTOBORN_",
          "useLimitRange": true,
          "param2": 1.0,
          "repeatTimes": 0.0
        }
      ],
      "onAbilityStart": [
        {
          "$type": "PELJALPANCA",
          "target": "Owner",
          "predicates": [
            {
              "$type": "CNGGLKHONAA",
              "target": "Self",
              "key": "_EREMITE_SLAVE_RETURNTOBORN_",
              "param3": 0.0
            }
          ],
          "modifierName": "Monster_Gator_Eremite_Rock_Die"
        }
      ]
    }
  }
]