[
  {
    "Default": {
      "$type": "CBPBEHLOHKI",
      "abilityName": "Monster_Equip_SelfDestroy",
      "onDetach": [
        {
          "$type": "NCFFNDHGCMH"
        },
        {
          "$type": "HBNEMPLJCMB",
          "hide": true
        }
      ]
    }
  },
  {
    "Default": {
      "$type": "CBPBEHLOHKI",
      "abilityName": "Monster_Weapon_Grass_5",
      "modifiers": {
        "GrassMaterial": {
          "modifierName": "",
          "elementType": "Wood",
          "IPFJJJGABPL": 50.0,
          "modifierMixins": [
            {
              "$type": "BKAAGFNKMLF",
              "showDamageText": ""
            },
            {
              "$type": "JJIHJPCPPGO",
              "abilityStates": [
                "ElementBurning"
              ],
              "modifierName": "ShieldOnFire"
            }
          ],
          "onRemoved": [
            {
              "$type": "NCFFNDHGCMH"
            }
          ]
        },
        "ShieldOnFire": {
          "modifierName": "",
          "IPFJJJGABPL": 100.0,
          "onAdded": [
            {
              "$type": "IDNGFEEBPAM",
              "target": "Owner",
              "boolID": "ShieldOnFire",
              "param3": true
            }
          ],
          "onRemoved": [
            {
              "$type": "IDNGFEEBPAM",
              "target": "Owner",
              "boolID": "ShieldOnFire"
            }
          ]
        }
      },
      "onAdded": [
        {
          "$type": "PELJALPANCA",
          "modifierName": "GrassMaterial"
        }
      ]
    }
  },
  {
    "Default": {
      "$type": "CBPBEHLOHKI",
      "abilityName": "Monster_Weapon_Grass_10",
      "modifiers": {
        "GrassMaterial": {
          "modifierName": "",
          "elementType": "Wood",
          "IPFJJJGABPL": 100.0,
          "modifierMixins": [
            {
              "$type": "BKAAGFNKMLF",
              "showDamageText": ""
            }
          ],
          "onRemoved": [
            {
              "$type": "NCFFNDHGCMH"
            }
          ]
        }
      },
      "onAdded": [
        {
          "$type": "PELJALPANCA",
          "modifierName": "GrassMaterial"
        }
      ]
    }
  },
  {
    "Default": {
      "$type": "CBPBEHLOHKI",
      "abilityName": "Monster_Weapon_Grass_30",
      "modifiers": {
        "GrassMaterial": {
          "modifierName": "",
          "elementType": "Wood",
          "IPFJJJGABPL": 300.0,
          "onRemoved": [
            {
              "$type": "PELJALPANCA",
              "target": "Owner",
              "modifierName": "WeaponBroken_Attack"
            },
            {
              "$type": "NCFFNDHGCMH"
            }
          ]
        },
        "WeaponBroken_Attack": {
          "modifierName": "",
          "elementDurability": 1.0,
          "IPFJJJGABPL": 100.0,
          "onAdded": [
            {
              "$type": "CCNPNMMONDO",
              "attackInfo": {
                "attackTag": "",
                "attenuationTag": "",
                "attenuationGroup": "default",
                "attackProperty": {
                  "actorGrassSubHurtDelta": 0.0,
                  "actorWindSubHurtDelta": 0.0,
                  "IPFJJJGABPL": 100.0,
                  "strikeType": "Default",
                  "GLKMCMDJBIK": 0.0
                },
                "hitPattern": {
                  "onHitEffectName": "default",
                  "hitImpulseY": "",
                  "hitImpulseType": "LV4",
                  "hitHaltTimeScale": 0.05000000074505806
                }
              }
            }
          ]
        }
      },
      "onAdded": [
        {
          "$type": "PELJALPANCA",
          "modifierName": "GrassMaterial"
        }
      ]
    }
  },
  {
    "Default": {
      "$type": "CBPBEHLOHKI",
      "abilityName": "Monster_Weapon_ShieldDefend",
      "modifiers": {
        "NormalDefend": {
          "modifierName": "",
          "IPFJJJGABPL": 100.0,
          "modifierMixins": [
            {
              "$type": "FMCNBDBHNHH",
              "stateIDs": [
                "NormalIdle",
                "NormalMove",
                "Turn",
                "ShieldSmash",
                "Defend",
                "Defend_AS"
              ],
              "defendTriggerID": "DefendTrigger",
              "defendAngle": 90.0,
              "defendProbability": 1.0,
              "defendProbabilityDelta": 0.0,
              "defendTimeInterval": 0.0,
              "KDIOGIHFGIL": 0
            }
          ]
        },
        "ForceDefend": {
          "modifierName": "",
          "IPFJJJGABPL": 100.0,
          "modifierMixins": [
            {
              "$type": "FMCNBDBHNHH",
              "stateIDs": [
                "BeHit",
                "BeHitThrow"
              ],
              "defendTriggerID": "DefendTrigger",
              "defendProbability": 1.0,
              "defendProbabilityDelta": 0.0,
              "defendTimeInterval": 4.0,
              "alwaysRecover": false,
              "KDIOGIHFGIL": 0
            }
          ]
        }
      },
      "onAdded": [
        {
          "$type": "PELJALPANCA",
          "target": "Owner",
          "modifierName": "NormalDefend"
        },
        {
          "$type": "PELJALPANCA",
          "target": "Owner",
          "modifierName": "ForceDefend"
        }
      ],
      "onAttach": [
        {
          "$type": "PELJALPANCA",
          "target": "Target",
          "modifierName": "NormalDefend"
        },
        {
          "$type": "PELJALPANCA",
          "target": "Target",
          "modifierName": "ForceDefend"
        }
      ],
      "onDetach": [
        {
          "$type": "PFKNEFGOHIH",
          "target": "Target",
          "modifierName": "NormalDefend"
        },
        {
          "$type": "PFKNEFGOHIH",
          "target": "Target",
          "modifierName": "ForceDefend"
        }
      ]
    }
  },
  {
    "Default": {
      "$type": "CBPBEHLOHKI",
      "abilityName": "Monster_Weapon_ShieldDefendAttack",
      "modifiers": {
        "ShieldBroken_Attack": {
          "modifierName": "",
          "elementDurability": 1.0,
          "IPFJJJGABPL": 100.0,
          "onAdded": [
            {
              "$type": "CCNPNMMONDO",
              "attackInfo": {
                "attackTag": "",
                "attenuationTag": "",
                "attenuationGroup": "default",
                "attackProperty": {
                  "actorGrassSubHurtDelta": 0.0,
                  "actorWindSubHurtDelta": 0.0,
                  "IPFJJJGABPL": 100.0,
                  "strikeType": "Default",
                  "enBreak": 1000.0,
                  "GLKMCMDJBIK": 0.0
                },
                "hitPattern": {
                  "onHitEffectName": "default",
                  "hitImpulseY": "",
                  "hitImpulseType": "LV4",
                  "hitHaltTimeScale": 0.05000000074505806
                }
              }
            }
          ]
        },
        "UNIQUE_Monster_Weapon_GrassMatrial": {
          "stacking": "Unique",
          "modifierName": "",
          "forceTriggerWhenChangeAuthority": true,
          "elementType": "Wood",
          "IPFJJJGABPL": 50.0,
          "modifierMixins": [
            {
              "$type": "AAPIOACHKCI",
              "elementType": "Grass",
              "showDamageText": "",
              "DLBHHADKGJN": 360.0,
              "maxShieldByHPRatio": 1.0,
              "shieldAngle": 0.20000000298023224
            }
          ],
          "onRemoved": [
            {
              "$type": "KBFEIHEAMBM",
              "rotationDampTime": "Eff_Monster_Undead_01_Shield_Broken",
              "PPPDJGDDOGD": 1.0,
              "AJDILHJFNKE": -1.0
            },
            {
              "$type": "NCFFNDHGCMH"
            }
          ]
        },
        "FreezeDetect": {
          "modifierName": "",
          "IPFJJJGABPL": 100.0,
          "modifierMixins": [
            {
              "$type": "JJIHJPCPPGO",
              "abilityStates": [
                "ElementFreeze"
              ],
              "modifierName": "BeFreezed"
            }
          ]
        },
        "BeFreezed": {
          "modifierName": "",
          "IPFJJJGABPL": 100.0,
          "onAdded": [
            {
              "$type": "PFKNEFGOHIH",
              "modifierName": "InDefend"
            }
          ],
          "onRemoved": [
            {
              "$type": "PELJALPANCA",
              "otherTargets": {
                "$type": "GAPFENEFKKE",
                "equipPartNames": [
                  "equip02"
                ]
              },
              "predicates": [
                {
                  "$type": "NFJHABGCNHE",
                  "element": "Grass"
                }
              ],
              "modifierName": "ReDefend"
            }
          ]
        },
        "BurningDetect": {
          "modifierName": "",
          "IPFJJJGABPL": 100.0,
          "modifierMixins": [
            {
              "$type": "JJIHJPCPPGO",
              "abilityStates": [
                "ElementBurning"
              ],
              "modifierName": "WeaponOnFire"
            }
          ]
        },
        "WeaponOnFire": {
          "modifierName": "",
          "IPFJJJGABPL": 100.0,
          "onAdded": [
            {
              "$type": "IDNGFEEBPAM",
              "target": "Owner",
              "boolID": "WeaponOnFire",
              "param3": true
            },
            {
              "$type": "PFKNEFGOHIH",
              "target": "Owner",
              "modifierName": "InDefend"
            }
          ],
          "onRemoved": [
            {
              "$type": "IDNGFEEBPAM",
              "target": "Owner",
              "boolID": "WeaponOnFire"
            },
            {
              "$type": "PELJALPANCA",
              "predicates": [
                {
                  "$type": "NFJHABGCNHE",
                  "element": "Grass"
                }
              ],
              "modifierName": "ReDefend"
            }
          ]
        },
        "ReDefend": {
          "modifierName": "",
          "elementDurability": 0.10000000149011612,
          "IPFJJJGABPL": 100.0,
          "onAdded": [
            {
              "$type": "PELJALPANCA",
              "target": "Owner",
              "modifierName": "InDefend"
            }
          ]
        },
        "InDefend": {
          "modifierName": "",
          "IPFJJJGABPL": 100.0,
          "onAdded": [
            {
              "$type": "JLDEMMJAMLC",
              "modifierName": "NormalDefend"
            },
            {
              "$type": "JLDEMMJAMLC",
              "modifierName": "ForceDefend"
            }
          ]
        },
        "NormalDefend": {
          "modifierName": "",
          "IPFJJJGABPL": 100.0,
          "modifierMixins": [
            {
              "$type": "FMCNBDBHNHH",
              "stateIDs": [
                "NormalIdle",
                "NormalMove",
                "Defend",
                "DefendAttack"
              ],
              "defendTriggerID": "DefendTrigger",
              "defendAngle": 90.0,
              "defendProbability": 1.0,
              "defendProbabilityDelta": 0.0,
              "defendTimeInterval": 0.0,
              "KDIOGIHFGIL": 0,
              "onDefendSucceded": [
                {
                  "$type": "KBFEIHEAMBM",
                  "rotationDampTime": "Eff_Monster_Hili_None_Block",
                  "PPPDJGDDOGD": 1.0,
                  "AJDILHJFNKE": -1.0
                },
                {
                  "$type": "ONALKNNKKLH",
                  "cameraShake": {
                    "shakeRange": 0.03999999910593033,
                    "shakeTime": 0.18000000715255737
                  }
                },
                {
                  "$type": "LCOEFEMOHLP",
                  "param3": 1.0,
                  "key": "_ABILITY_WEAPON_SHIELD_DEFEND_COUNT",
                  "useLimitRange": true,
                  "param2": 4.0,
                  "repeatTimes": 0.0
                }
              ]
            }
          ],
          "properties": {
            "Actor_EndureDelta": 0.5
          }
        },
        "DefendAttack": {
          "modifierName": "",
          "IPFJJJGABPL": 100.0,
          "modifierMixins": [
            {
              "$type": "FMCNBDBHNHH",
              "stateIDs": [
                "NormalIdle",
                "NormalMove",
                "Defend",
                "DefendAttack",
                "BeHit"
              ],
              "defendTriggerID": "DefendAttackTrigger",
              "defendAngle": 90.0,
              "defendProbability": 1.0,
              "defendProbabilityDelta": 0.0,
              "defendTimeInterval": 0.0,
              "KDIOGIHFGIL": 0,
              "attackType": "Melee",
              "onDefendSucceded": [
                {
                  "$type": "KBFEIHEAMBM",
                  "rotationDampTime": "Eff_Monster_Hili_None_Block",
                  "PPPDJGDDOGD": 1.0,
                  "AJDILHJFNKE": -1.0
                },
                {
                  "$type": "ONALKNNKKLH",
                  "cameraShake": {
                    "shakeRange": 0.03999999910593033,
                    "shakeTime": 0.18000000715255737
                  }
                },
                {
                  "$type": "LCOEFEMOHLP",
                  "param3": -5.0,
                  "key": "_ABILITY_WEAPON_SHIELD_DEFEND_COUNT",
                  "useLimitRange": true,
                  "param2": 4.0,
                  "repeatTimes": 0.0
                }
              ]
            }
          ],
          "onAdded": [
            {
              "$type": "ANLOBBMKNIJ",
              "rotationDampTime": "Eff_Monster_Hili_None_Shield",
              "PPPDJGDDOGD": 1.0,
              "AJDILHJFNKE": -1.0
            },
            {
              "$type": "ANLOBBMKNIJ",
              "rotationDampTime": "Eff_Monster_Hili_None_ShieldCreate",
              "PPPDJGDDOGD": 1.0,
              "AJDILHJFNKE": -1.0
            }
          ],
          "onRemoved": [
            {
              "$type": "KBFEIHEAMBM",
              "rotationDampTime": "Eff_Monster_Hili_None_ShieldDestroy",
              "PPPDJGDDOGD": 1.0,
              "AJDILHJFNKE": -1.0
            }
          ]
        },
        "ForceDefend": {
          "modifierName": "",
          "IPFJJJGABPL": 100.0,
          "modifierMixins": [
            {
              "$type": "FMCNBDBHNHH",
              "stateIDs": [
                "BeHit",
                "BeHitThrow"
              ],
              "defendTriggerID": "DefendTrigger",
              "defendProbability": 1.0,
              "defendProbabilityDelta": 0.0,
              "defendTimeInterval": 4.0,
              "alwaysRecover": false,
              "KDIOGIHFGIL": 0,
              "onDefendSucceded": [
                {
                  "$type": "ONALKNNKKLH",
                  "cameraShake": {
                    "shakeRange": 0.03999999910593033,
                    "shakeTime": 0.18000000715255737
                  }
                },
                {
                  "$type": "LCOEFEMOHLP",
                  "param3": 1.0,
                  "key": "_ABILITY_WEAPON_SHIELD_DEFEND_COUNT",
                  "useLimitRange": true,
                  "param2": 4.0,
                  "repeatTimes": 0.0
                }
              ]
            }
          ],
          "properties": {
            "Actor_EndureDelta": 0.5
          }
        }
      },
      "onAdded": [
        {
          "$type": "PELJALPANCA",
          "modifierName": "UNIQUE_Monster_Weapon_GrassMatrial"
        },
        {
          "$type": "PELJALPANCA",
          "target": "Owner",
          "modifierName": "InDefend"
        },
        {
          "$type": "PELJALPANCA",
          "modifierName": "BurningDetect"
        },
        {
          "$type": "PELJALPANCA",
          "target": "Owner",
          "modifierName": "FreezeDetect"
        },
        {
          "$type": "LCOEFEMOHLP",
          "target": "Owner",
          "param3": 0.0,
          "key": "_ABILITY_WEAPON_SHIELD_DEFEND_COUNT",
          "useLimitRange": true,
          "param2": 4.0,
          "repeatTimes": 0.0
        }
      ],
      "onAttach": [
        {
          "$type": "PELJALPANCA",
          "target": "Target",
          "modifierName": "InDefend"
        },
        {
          "$type": "PELJALPANCA",
          "modifierName": "BurningDetect"
        },
        {
          "$type": "PELJALPANCA",
          "target": "Target",
          "modifierName": "FreezeDetect"
        },
        {
          "$type": "LCOEFEMOHLP",
          "target": "Target",
          "param3": 0.0,
          "key": "_ABILITY_WEAPON_SHIELD_DEFEND_COUNT",
          "useLimitRange": true,
          "param2": 4.0,
          "repeatTimes": 0.0
        }
      ],
      "onDetach": [
        {
          "$type": "PFKNEFGOHIH",
          "target": "Target",
          "modifierName": "InDefend"
        },
        {
          "$type": "PFKNEFGOHIH",
          "modifierName": "BurningDetect"
        },
        {
          "$type": "PFKNEFGOHIH",
          "target": "Target",
          "modifierName": "FreezeDetect"
        },
        {
          "$type": "HMKGPFBBDIC",
          "target": "Target",
          "key": "_ABILITY_WEAPON_SHIELD_DEFEND_COUNT"
        },
        {
          "$type": "PELJALPANCA",
          "target": "Target",
          "modifierName": "ShieldBroken_Attack"
        },
        {
          "$type": "GNAEJNBIFAC",
          "target": "Target",
          "PLLJBINMGJK": "DefendTrigger"
        }
      ]
    }
  },
  {
    "Default": {
      "$type": "CBPBEHLOHKI",
      "abilityName": "Monster_Weapon_RockShield_DefendAttack",
      "modifiers": {
        "ShieldBroken_Attack": {
          "modifierName": "",
          "elementDurability": 1.0,
          "IPFJJJGABPL": 100.0,
          "onAdded": [
            {
              "$type": "CCNPNMMONDO",
              "attackInfo": {
                "attackTag": "",
                "attenuationTag": "",
                "attenuationGroup": "default",
                "attackProperty": {
                  "actorGrassSubHurtDelta": 0.0,
                  "actorWindSubHurtDelta": 0.0,
                  "IPFJJJGABPL": 100.0,
                  "strikeType": "Default",
                  "enBreak": 1000.0,
                  "GLKMCMDJBIK": 0.0
                },
                "hitPattern": {
                  "onHitEffectName": "default",
                  "hitImpulseY": "",
                  "hitImpulseType": "LV4",
                  "hitHaltTimeScale": 0.05000000074505806
                }
              }
            }
          ]
        },
        "UNIQUE_Monster_Weapon_RockMatrial": {
          "stacking": "Unique",
          "modifierName": "",
          "forceTriggerWhenChangeAuthority": true,
          "elementType": "Rock",
          "IPFJJJGABPL": 200.0,
          "modifierMixins": [
            {
              "$type": "AAPIOACHKCI",
              "elementType": "Rock",
              "showDamageText": "",
              "DLBHHADKGJN": 360.0,
              "maxShieldByHPRatio": 1.0,
              "shieldAngle": 0.20000000298023224,
              "onShieldFailed": [
                {
                  "$type": "KBFEIHEAMBM",
                  "target": "Owner",
                  "rotationDampTime": "Eff_Monster_Hili_Rock_BlockSuccess",
                  "PPPDJGDDOGD": 1.0,
                  "AJDILHJFNKE": -1.0
                }
              ]
            },
            {
              "$type": "CGGHGFIOCKN",
              "valueSteps": [
                0.5,
                100.5,
                200.5
              ],
              "modifierNameSteps": [
                "Empty",
                "Shield_Stage01"
              ]
            }
          ],
          "onRemoved": [
            {
              "$type": "KBFEIHEAMBM",
              "target": "Owner",
              "rotationDampTime": "Eff_Monster_Hili_Rock_ShieldDestroy",
              "PPPDJGDDOGD": 1.0,
              "AJDILHJFNKE": -1.0
            },
            {
              "$type": "PELJALPANCA",
              "target": "Owner",
              "modifierName": "ShiledActivityNotice"
            },
            {
              "$type": "NCFFNDHGCMH"
            }
          ]
        },
        "ShiledActivityNotice": {
          "modifierName": "",
          "elementDurability": 0.20000000298023224,
          "IPFJJJGABPL": 100.0,
          "onAdded": [
            {
              "$type": "AHPEKICBIIL",
              "predicates": [
                {
                  "$type": "CNGGLKHONAA",
                  "target": "Self",
                  "key": "ShieldActivity",
                  "param3": 0.0,
                  "compareType": "MoreThan"
                }
              ],
              "luaCallType": "FromGroup",
              "funcName": "SLC_BuffDungeon_50_Add_Counter",
              "param1": 0.0,
              "MGAMDEHMCOL": 0.0,
              "MMHOHAOGPLP": 0.0
            }
          ]
        },
        "Empty": {
          "modifierName": "",
          "IPFJJJGABPL": 100.0
        },
        "Shield_Stage01": {
          "modifierName": "",
          "IPFJJJGABPL": 100.0,
          "onAdded": [
            {
              "$type": "KJCHPDPBJHL",
              "boolID": "Damaged"
            }
          ],
          "onRemoved": [
            {
              "$type": "KBFEIHEAMBM",
              "target": "Owner",
              "rotationDampTime": "Eff_Monster_Hili_Rock_ShieldDamaged",
              "PPPDJGDDOGD": 1.0,
              "AJDILHJFNKE": -1.0
            },
            {
              "$type": "KJCHPDPBJHL",
              "boolID": "Damaged",
              "param3": true
            }
          ]
        },
        "FreezeDetect": {
          "modifierName": "",
          "IPFJJJGABPL": 100.0,
          "modifierMixins": [
            {
              "$type": "JJIHJPCPPGO",
              "abilityStates": [
                "ElementFreeze"
              ],
              "modifierName": "BeFreezed"
            }
          ]
        },
        "BeFreezed": {
          "modifierName": "",
          "IPFJJJGABPL": 100.0,
          "onAdded": [
            {
              "$type": "PFKNEFGOHIH",
              "modifierName": "InDefend"
            }
          ],
          "onRemoved": [
            {
              "$type": "PELJALPANCA",
              "otherTargets": {
                "$type": "GAPFENEFKKE",
                "equipPartNames": [
                  "equip02"
                ]
              },
              "predicates": [
                {
                  "$type": "NFJHABGCNHE",
                  "element": "Rock"
                }
              ],
              "modifierName": "ReDefend"
            }
          ]
        },
        "ReDefend": {
          "modifierName": "",
          "elementDurability": 0.10000000149011612,
          "IPFJJJGABPL": 100.0,
          "onAdded": [
            {
              "$type": "PELJALPANCA",
              "target": "Owner",
              "modifierName": "InDefend"
            }
          ]
        },
        "InDefend": {
          "modifierName": "",
          "IPFJJJGABPL": 100.0,
          "onAdded": [
            {
              "$type": "JLDEMMJAMLC",
              "modifierName": "NormalDefend"
            },
            {
              "$type": "JLDEMMJAMLC",
              "modifierName": "ForceDefend"
            }
          ]
        },
        "NormalDefend": {
          "modifierName": "",
          "IPFJJJGABPL": 100.0,
          "modifierMixins": [
            {
              "$type": "FMCNBDBHNHH",
              "stateIDs": [
                "NormalIdle",
                "NormalMove",
                "Defend",
                "DefendAttack"
              ],
              "defendTriggerID": "DefendTrigger",
              "defendAngle": 90.0,
              "defendProbability": 1.0,
              "defendProbabilityDelta": 0.0,
              "defendTimeInterval": 0.0,
              "KDIOGIHFGIL": 0,
              "onDefendSucceded": [
                {
                  "$type": "KBFEIHEAMBM",
                  "rotationDampTime": "Eff_Monster_Hili_Rock_Block",
                  "PPPDJGDDOGD": 1.0,
                  "AJDILHJFNKE": -1.0
                }
              ]
            }
          ],
          "properties": {
            "Actor_EndureDelta": 0.25
          }
        },
        "ForceDefend": {
          "modifierName": "",
          "IPFJJJGABPL": 100.0,
          "modifierMixins": [
            {
              "$type": "FMCNBDBHNHH",
              "stateIDs": [
                "BeHit",
                "BeHitThrow"
              ],
              "defendTriggerID": "DefendTrigger",
              "defendProbability": 1.0,
              "defendProbabilityDelta": 0.0,
              "defendTimeInterval": 4.0,
              "alwaysRecover": false,
              "KDIOGIHFGIL": 0,
              "onDefendSucceded": [
                {
                  "$type": "KBFEIHEAMBM",
                  "rotationDampTime": "Eff_Monster_Hili_Rock_Block",
                  "PPPDJGDDOGD": 1.0,
                  "AJDILHJFNKE": -1.0
                }
              ]
            }
          ],
          "properties": {
            "Actor_EndureDelta": 1.0
          }
        }
      },
      "onAdded": [
        {
          "$type": "PELJALPANCA",
          "modifierName": "UNIQUE_Monster_Weapon_RockMatrial"
        },
        {
          "$type": "PELJALPANCA",
          "target": "Owner",
          "modifierName": "InDefend"
        },
        {
          "$type": "PELJALPANCA",
          "target": "Owner",
          "modifierName": "FreezeDetect"
        }
      ],
      "onAttach": [
        {
          "$type": "PELJALPANCA",
          "target": "Target",
          "modifierName": "InDefend"
        },
        {
          "$type": "PELJALPANCA",
          "target": "Target",
          "modifierName": "FreezeDetect"
        }
      ],
      "onDetach": [
        {
          "$type": "PFKNEFGOHIH",
          "target": "Target",
          "modifierName": "InDefend"
        },
        {
          "$type": "PFKNEFGOHIH",
          "target": "Target",
          "modifierName": "FreezeDetect"
        },
        {
          "$type": "PELJALPANCA",
          "target": "Target",
          "modifierName": "ShieldBroken_Attack"
        },
        {
          "$type": "GNAEJNBIFAC",
          "target": "Target",
          "PLLJBINMGJK": "DefendTrigger"
        }
      ]
    }
  },
  {
    "Default": {
      "$type": "CBPBEHLOHKI",
      "abilityName": "Monster_Weapon_IceShield_DefendAttack",
      "modifiers": {
        "ShieldBroken_Attack": {
          "modifierName": "",
          "elementDurability": 1.0,
          "IPFJJJGABPL": 100.0,
          "onAdded": [
            {
              "$type": "CCNPNMMONDO",
              "attackInfo": {
                "attackTag": "",
                "attenuationTag": "",
                "attenuationGroup": "default",
                "attackProperty": {
                  "actorGrassSubHurtDelta": 0.0,
                  "actorWindSubHurtDelta": 0.0,
                  "IPFJJJGABPL": 100.0,
                  "strikeType": "Default",
                  "enBreak": 1000.0,
                  "GLKMCMDJBIK": 0.0
                },
                "hitPattern": {
                  "onHitEffectName": "default",
                  "hitImpulseY": "",
                  "hitImpulseType": "LV4",
                  "hitHaltTimeScale": 0.05000000074505806
                }
              }
            }
          ]
        },
        "UNIQUE_Monster_Weapon_IceMatrial": {
          "stacking": "Unique",
          "modifierName": "",
          "forceTriggerWhenChangeAuthority": true,
          "elementType": "Frozen",
          "IPFJJJGABPL": 200.0,
          "modifierMixins": [
            {
              "$type": "AAPIOACHKCI",
              "elementType": "Ice",
              "showDamageText": "",
              "DLBHHADKGJN": 360.0,
              "maxShieldByHPRatio": 1.0,
              "shieldAngle": 0.20000000298023224,
              "onShieldFailed": [
                {
                  "$type": "KBFEIHEAMBM",
                  "target": "Owner",
                  "rotationDampTime": "Eff_Monster_Hili_Rock_BlockSuccess",
                  "PPPDJGDDOGD": 1.0,
                  "AJDILHJFNKE": -1.0
                }
              ]
            },
            {
              "$type": "CGGHGFIOCKN",
              "valueSteps": [
                0.5,
                100.5,
                200.5
              ],
              "modifierNameSteps": [
                "Empty",
                "Shield_Stage01"
              ]
            }
          ],
          "onRemoved": [
            {
              "$type": "KBFEIHEAMBM",
              "target": "Owner",
              "rotationDampTime": "Eff_Monster_Hili_Rock_ShieldDestroy",
              "PPPDJGDDOGD": 1.0,
              "AJDILHJFNKE": -1.0
            },
            {
              "$type": "NCFFNDHGCMH"
            }
          ]
        },
        "Empty": {
          "modifierName": "",
          "IPFJJJGABPL": 100.0
        },
        "Shield_Stage01": {
          "modifierName": "",
          "IPFJJJGABPL": 100.0,
          "onAdded": [
            {
              "$type": "KJCHPDPBJHL",
              "boolID": "Damaged"
            }
          ],
          "onRemoved": [
            {
              "$type": "KBFEIHEAMBM",
              "target": "Owner",
              "rotationDampTime": "Eff_Monster_Hili_Rock_ShieldDamaged",
              "PPPDJGDDOGD": 1.0,
              "AJDILHJFNKE": -1.0
            },
            {
              "$type": "KJCHPDPBJHL",
              "boolID": "Damaged",
              "param3": true
            }
          ]
        },
        "FreezeDetect": {
          "modifierName": "",
          "IPFJJJGABPL": 100.0,
          "modifierMixins": [
            {
              "$type": "JJIHJPCPPGO",
              "abilityStates": [
                "ElementFreeze"
              ],
              "modifierName": "BeFreezed"
            }
          ]
        },
        "BeFreezed": {
          "modifierName": "",
          "IPFJJJGABPL": 100.0,
          "onAdded": [
            {
              "$type": "PFKNEFGOHIH",
              "modifierName": "InDefend"
            }
          ],
          "onRemoved": [
            {
              "$type": "PELJALPANCA",
              "otherTargets": {
                "$type": "GAPFENEFKKE",
                "equipPartNames": [
                  "equip02"
                ]
              },
              "predicates": [
                {
                  "$type": "NFJHABGCNHE",
                  "element": "Rock"
                }
              ],
              "modifierName": "ReDefend"
            }
          ]
        },
        "ReDefend": {
          "modifierName": "",
          "elementDurability": 0.10000000149011612,
          "IPFJJJGABPL": 100.0,
          "onAdded": [
            {
              "$type": "PELJALPANCA",
              "target": "Owner",
              "modifierName": "InDefend"
            }
          ]
        },
        "InDefend": {
          "modifierName": "",
          "IPFJJJGABPL": 100.0,
          "onAdded": [
            {
              "$type": "JLDEMMJAMLC",
              "modifierName": "NormalDefend"
            },
            {
              "$type": "JLDEMMJAMLC",
              "modifierName": "ForceDefend"
            }
          ]
        },
        "NormalDefend": {
          "modifierName": "",
          "IPFJJJGABPL": 100.0,
          "modifierMixins": [
            {
              "$type": "FMCNBDBHNHH",
              "stateIDs": [
                "NormalIdle",
                "NormalMove",
                "Defend",
                "DefendAttack"
              ],
              "defendTriggerID": "DefendTrigger",
              "defendAngle": 90.0,
              "defendProbability": 1.0,
              "defendProbabilityDelta": 0.0,
              "defendTimeInterval": 0.0,
              "KDIOGIHFGIL": 0,
              "onDefendSucceded": [
                {
                  "$type": "KBFEIHEAMBM",
                  "rotationDampTime": "Eff_Monster_Hili_Rock_Block",
                  "PPPDJGDDOGD": 1.0,
                  "AJDILHJFNKE": -1.0
                }
              ]
            }
          ],
          "properties": {
            "Actor_EndureDelta": 0.25
          }
        },
        "ForceDefend": {
          "modifierName": "",
          "IPFJJJGABPL": 100.0,
          "modifierMixins": [
            {
              "$type": "FMCNBDBHNHH",
              "stateIDs": [
                "BeHit",
                "BeHitThrow"
              ],
              "defendTriggerID": "DefendTrigger",
              "defendProbability": 1.0,
              "defendProbabilityDelta": 0.0,
              "defendTimeInterval": 4.0,
              "alwaysRecover": false,
              "KDIOGIHFGIL": 0,
              "onDefendSucceded": [
                {
                  "$type": "KBFEIHEAMBM",
                  "rotationDampTime": "Eff_Monster_Hili_Rock_Block",
                  "PPPDJGDDOGD": 1.0,
                  "AJDILHJFNKE": -1.0
                }
              ]
            }
          ],
          "properties": {
            "Actor_EndureDelta": 1.0
          }
        }
      },
      "onAdded": [
        {
          "$type": "PELJALPANCA",
          "modifierName": "UNIQUE_Monster_Weapon_IceMatrial"
        },
        {
          "$type": "PELJALPANCA",
          "target": "Owner",
          "modifierName": "InDefend"
        },
        {
          "$type": "PELJALPANCA",
          "target": "Owner",
          "modifierName": "FreezeDetect"
        }
      ],
      "onAttach": [
        {
          "$type": "PELJALPANCA",
          "target": "Target",
          "modifierName": "InDefend"
        },
        {
          "$type": "PELJALPANCA",
          "target": "Target",
          "modifierName": "FreezeDetect"
        }
      ],
      "onDetach": [
        {
          "$type": "PFKNEFGOHIH",
          "target": "Target",
          "modifierName": "InDefend"
        },
        {
          "$type": "PFKNEFGOHIH",
          "target": "Target",
          "modifierName": "FreezeDetect"
        },
        {
          "$type": "PELJALPANCA",
          "target": "Target",
          "modifierName": "ShieldBroken_Attack"
        },
        {
          "$type": "GNAEJNBIFAC",
          "target": "Target",
          "PLLJBINMGJK": "DefendTrigger"
        }
      ]
    }
  },
  {
    "Default": {
      "$type": "CBPBEHLOHKI",
      "abilityName": "Monster_Staff_Fire_WeaponInit",
      "onAdded": [
        {
          "$type": "GJCAPCBELPA",
          "target": "Owner",
          "abilityName": "Abyss_Fire_WeaponElement"
        }
      ]
    }
  },
  {
    "Default": {
      "$type": "CBPBEHLOHKI",
      "abilityName": "Monster_Staff_Ice_WeaponInit",
      "onAdded": [
        {
          "$type": "GJCAPCBELPA",
          "target": "Owner",
          "abilityName": "Abyss_Ice_WeaponElement"
        }
      ]
    }
  },
  {
    "Default": {
      "$type": "CBPBEHLOHKI",
      "abilityName": "Monster_Staff_Water_WeaponInit",
      "onAdded": [
        {
          "$type": "GJCAPCBELPA",
          "target": "Owner",
          "abilityName": "Abyss_Water_WeaponElement"
        }
      ]
    }
  },
  {
    "Default": {
      "$type": "CBPBEHLOHKI",
      "abilityName": "MonEquip_Torch_FireState",
      "modifiers": {
        "UNIQUE_Hili_Fire_Torch_FireState": {
          "modifierName": "",
          "forceTriggerWhenChangeAuthority": true,
          "elementType": "Fire",
          "IPFJJJGABPL": 50.0,
          "onAdded": [
            {
              "$type": "ANLOBBMKNIJ",
              "rotationDampTime": "Eff_Monster_Hili_Fire_Torch_FireElementLoop",
              "PPPDJGDDOGD": 1.0,
              "AJDILHJFNKE": -1.0
            },
            {
              "$type": "GJCAPCBELPA",
              "target": "Owner",
              "abilityName": "Hili_Torch_FireState_OnFire"
            }
          ],
          "onRemoved": [
            {
              "$type": "GJCAPCBELPA",
              "target": "Owner",
              "abilityName": "Hili_Torch_FireState_OffFire"
            },
            {
              "$type": "KBFEIHEAMBM",
              "rotationDampTime": "Eff_Monster_Hili_Fire_Torch_FireElementAS",
              "PPPDJGDDOGD": 1.0,
              "AJDILHJFNKE": -1.0
            }
          ]
        }
      },
      "onAdded": [
        {
          "$type": "JLDEMMJAMLC",
          "modifierName": "UNIQUE_Hili_Fire_Torch_FireState"
        }
      ],
      "onAbilityStart": [
        {
          "$type": "JLDEMMJAMLC",
          "modifierName": "UNIQUE_Hili_Fire_Torch_FireState"
        }
      ]
    }
  },
  {
    "Default": {
      "$type": "CBPBEHLOHKI",
      "abilityName": "MonEquip_WoodenClub_Grass_SetGlobalValue",
      "onAdded": [
        {
          "$type": "LCOEFEMOHLP",
          "target": "Owner",
          "param3": 5.0,
          "key": "_IS_CLUB_",
          "useLimitRange": true,
          "param2": 1.0,
          "repeatTimes": 0.0
        }
      ],
      "onAttach": [
        {
          "$type": "LCOEFEMOHLP",
          "target": "Owner",
          "param3": 5.0,
          "key": "_IS_CLUB_",
          "useLimitRange": true,
          "param2": 1.0,
          "repeatTimes": 0.0
        }
      ]
    }
  },
  {
    "Default": {
      "$type": "CBPBEHLOHKI",
      "abilityName": "MonEquip_Warglaive_Fire_01_IntoShadow",
      "onAbilityStart": [
        {
          "$type": "KMMLIOKPIKN",
          "renderNames": [
            "MonEquip_Warglaive_Fire_01"
          ]
        }
      ]
    }
  },
  {
    "Default": {
      "$type": "CBPBEHLOHKI",
      "abilityName": "MonEquip_Warglaive_Fire_01_OutOfShadow",
      "onAbilityStart": [
        {
          "$type": "KMMLIOKPIKN",
          "renderNames": [
            "MonEquip_Warglaive_Fire_01"
          ],
          "setEnable": true
        }
      ]
    }
  },
  {
    "Default": {
      "$type": "CBPBEHLOHKI",
      "abilityName": "Monster_Weapon_Gadget_Disappear",
      "onKill": [
        {
          "$type": "KBFEIHEAMBM",
          "rotationDampTime": "Eff_Monster_Weapon_Disappear",
          "PPPDJGDDOGD": 1.0,
          "AJDILHJFNKE": -1.0
        }
      ]
    }
  },
  {
    "Default": {
      "$type": "CBPBEHLOHKI",
      "abilityName": "Monster_Weapon_BeingHitDetect",
      "modifiers": {
        "UNIQUE_Weapon_BeingHitDetect": {
          "modifierName": "",
          "forceTriggerWhenChangeAuthority": true,
          "IPFJJJGABPL": 100.0,
          "onBeingHit": [
            {
              "$type": "BLCCGIPAOIP",
              "target": "Owner",
              "PLLJBINMGJK": "AwakeAlert"
            }
          ]
        }
      },
      "onAdded": [
        {
          "$type": "JLDEMMJAMLC",
          "modifierName": "UNIQUE_Weapon_BeingHitDetect"
        }
      ]
    }
  },
  {
    "Default": {
      "$type": "CBPBEHLOHKI",
      "abilityName": "MonEquip_WoodenClub_01_SetGlobalValue",
      "onAdded": [
        {
          "$type": "LCOEFEMOHLP",
          "target": "Owner",
          "param3": 1.0,
          "key": "_IS_CLUB_01",
          "useLimitRange": true,
          "param2": 1.0,
          "repeatTimes": 0.0
        }
      ],
      "onAttach": [
        {
          "$type": "LCOEFEMOHLP",
          "target": "Target",
          "param3": 1.0,
          "key": "_IS_CLUB_01",
          "useLimitRange": true,
          "param2": 1.0,
          "repeatTimes": 0.0
        }
      ]
    }
  },
  {
    "Default": {
      "$type": "CBPBEHLOHKI",
      "abilityName": "MonEquip_Shield_01_SetGlobalValue",
      "onAdded": [
        {
          "$type": "LCOEFEMOHLP",
          "target": "Owner",
          "param3": 1.0,
          "key": "_IS_SHIELD_01",
          "useLimitRange": true,
          "param2": 1.0,
          "repeatTimes": 0.0
        }
      ],
      "onAttach": [
        {
          "$type": "LCOEFEMOHLP",
          "target": "Target",
          "param3": 1.0,
          "key": "_IS_SHIELD_01",
          "useLimitRange": true,
          "param2": 1.0,
          "repeatTimes": 0.0
        }
      ]
    }
  },
  {
    "Default": {
      "$type": "CBPBEHLOHKI",
      "abilityName": "MonEquip_Crossbow_01_SetGlobalValue",
      "onAdded": [
        {
          "$type": "LCOEFEMOHLP",
          "target": "Owner",
          "param3": 1.0,
          "key": "_IS_CROSSBOW_01",
          "useLimitRange": true,
          "param2": 1.0,
          "repeatTimes": 0.0
        }
      ],
      "onAttach": [
        {
          "$type": "LCOEFEMOHLP",
          "target": "Target",
          "param3": 1.0,
          "key": "_IS_CROSSBOW_01",
          "useLimitRange": true,
          "param2": 1.0,
          "repeatTimes": 0.0
        }
      ]
    }
  },
  {
    "Default": {
      "$type": "CBPBEHLOHKI",
      "abilityName": "MonEquip_Shield_02_SetGlobalValue",
      "onAdded": [
        {
          "$type": "LCOEFEMOHLP",
          "target": "Owner",
          "param3": 1.0,
          "key": "_IS_CLUB_02",
          "useLimitRange": true,
          "param2": 1.0,
          "repeatTimes": 0.0
        }
      ],
      "onAttach": [
        {
          "$type": "LCOEFEMOHLP",
          "target": "Target",
          "param3": 1.0,
          "key": "_IS_CLUB_02",
          "useLimitRange": true,
          "param2": 1.0,
          "repeatTimes": 0.0
        }
      ]
    }
  },
  {
    "Default": {
      "$type": "CBPBEHLOHKI",
      "abilityName": "MonEquip_Torch_02_SetGlobalValue",
      "onAdded": [
        {
          "$type": "LCOEFEMOHLP",
          "target": "Owner",
          "param3": 1.0,
          "key": "_IS_TORCH_02",
          "useLimitRange": true,
          "param2": 1.0,
          "repeatTimes": 0.0
        }
      ],
      "onAttach": [
        {
          "$type": "LCOEFEMOHLP",
          "target": "Target",
          "param3": 1.0,
          "key": "_IS_TORCH_02",
          "useLimitRange": true,
          "param2": 1.0,
          "repeatTimes": 0.0
        }
      ]
    }
  },
  {
    "Default": {
      "$type": "CBPBEHLOHKI",
      "abilityName": "MonEquip_Axe_01_SetGlobalValue",
      "onAdded": [
        {
          "$type": "LCOEFEMOHLP",
          "target": "Owner",
          "param3": 1.0,
          "key": "_IS_Axe_01",
          "useLimitRange": true,
          "param2": 1.0,
          "repeatTimes": 0.0
        }
      ],
      "onAttach": [
        {
          "$type": "LCOEFEMOHLP",
          "target": "Target",
          "param3": 1.0,
          "key": "_IS_Axe_01",
          "useLimitRange": true,
          "param2": 1.0,
          "repeatTimes": 0.0
        }
      ]
    }
  },
  {
    "Default": {
      "$type": "CBPBEHLOHKI",
      "abilityName": "MonEquip_Skirmisher_Spraygun_Ice_ImproveState",
      "onAdded": [
        {
          "$type": "ANLOBBMKNIJ",
          "rotationDampTime": "Eff_Monster_Skirmisher_Male_Fat_SprayGun_Ice_SprayGunNormal",
          "PPPDJGDDOGD": 1.0,
          "AJDILHJFNKE": -1.0
        }
      ]
    }
  },
  {
    "Default": {
      "$type": "CBPBEHLOHKI",
      "abilityName": "MonEquip_Skirmisher_Backpack_Ice_ImproveState",
      "onAdded": [
        {
          "$type": "ANLOBBMKNIJ",
          "rotationDampTime": "Eff_Monster_Skirmisher_Male_Fat_SprayGun_Ice_BackPackNormal",
          "PPPDJGDDOGD": 1.0,
          "AJDILHJFNKE": -1.0
        }
      ]
    }
  },
  {
    "Default": {
      "$type": "CBPBEHLOHKI",
      "abilityName": "MonEquip_Skirmisher_Spraygun_Water_ImproveState",
      "onAdded": [
        {
          "$type": "ANLOBBMKNIJ",
          "rotationDampTime": "Eff_Monster_Skirmisher_Male_Fat_SprayGun_Water_SprayGunNormal",
          "PPPDJGDDOGD": 1.0,
          "AJDILHJFNKE": -1.0
        }
      ]
    }
  },
  {
    "Default": {
      "$type": "CBPBEHLOHKI",
      "abilityName": "MonEquip_Skirmisher_Backpack_Water_ImproveState",
      "onAdded": [
        {
          "$type": "ANLOBBMKNIJ",
          "rotationDampTime": "Eff_Monster_Skirmisher_Male_Fat_SprayGun_Water_BackPackNormal",
          "PPPDJGDDOGD": 1.0,
          "AJDILHJFNKE": -1.0
        }
      ]
    }
  },
  {
    "Default": {
      "$type": "CBPBEHLOHKI",
      "abilityName": "Monster_Shougun_Pole_Effect",
      "modifiers": {
        "UNIQUE_Monster_Shougun_Pole_Visable": {
          "modifierName": "",
          "forceTriggerWhenChangeAuthority": true,
          "IPFJJJGABPL": 100.0,
          "onAdded": [
            {
              "$type": "NAAJIHIKECC",
              "partNames": [
                "equip02"
              ]
            },
            {
              "$type": "NAAJIHIKECC",
              "KGGEDGKGLDD": true,
              "partNames": [
                "equip01"
              ]
            }
          ]
        },
        "Monster_Shougun_Pole_Effect": {
          "modifierName": "",
          "IPFJJJGABPL": 100.0,
          "onAdded": [
            {
              "$type": "ANLOBBMKNIJ",
              "rotationDampTime": "Eff_Monster_Shougun_Pole_WeaponLoopEffect",
              "PPPDJGDDOGD": 1.0,
              "AJDILHJFNKE": -1.0
            }
          ]
        }
      },
      "onAdded": [
        {
          "$type": "PELJALPANCA",
          "modifierName": "Monster_Shougun_Pole_Effect"
        },
        {
          "$type": "PELJALPANCA",
          "target": "Owner",
          "predicates": [
            {
              "$type": "CNGGLKHONAA",
              "target": "Owner",
              "key": "_MONSTER_SHOUGUN_MITAKENARUKAMI_WEAPONTYPE_",
              "param3": 0.0
            }
          ],
          "modifierName": "UNIQUE_Monster_Shougun_Pole_Visable"
        },
        {
          "$type": "PELJALPANCA",
          "target": "Owner",
          "predicates": [
            {
              "$type": "CNGGLKHONAA",
              "target": "Owner",
              "key": "_MONSTER_SHOUGUN_WEAPONTYPE_",
              "param3": 0.0
            }
          ],
          "modifierName": "UNIQUE_Monster_Shougun_Pole_Visable"
        }
      ],
      "onAttach": [
        {
          "$type": "PELJALPANCA",
          "target": "Owner",
          "predicates": [
            {
              "$type": "CNGGLKHONAA",
              "target": "Owner",
              "key": "_MONSTER_SHOUGUN_MITAKENARUKAMI_WEAPONTYPE_",
              "param3": 0.0
            }
          ],
          "modifierName": "UNIQUE_Monster_Shougun_Pole_Visable"
        },
        {
          "$type": "KBODPNEEFGD",
          "target": "Owner",
          "predicates": [
            {
              "$type": "CNGGLKHONAA",
              "target": "Owner",
              "key": "_MONSTER_SHOUGUN_MITAKENARUKAMI_WEAPONTYPE_",
              "param3": 0.0
            }
          ],
          "modifierName": "UNIQUE_Monster_Shougun_Tachi_Visable"
        }
      ]
    }
  },
  {
    "Default": {
      "$type": "CBPBEHLOHKI",
      "abilityName": "Monster_Shougun_Tachi_Effect",
      "modifiers": {
        "UNIQUE_Monster_Shougun_Tachi_Visable": {
          "modifierName": "",
          "forceTriggerWhenChangeAuthority": true,
          "IPFJJJGABPL": 100.0,
          "onAdded": [
            {
              "$type": "NAAJIHIKECC",
              "KGGEDGKGLDD": true,
              "partNames": [
                "equip02"
              ]
            },
            {
              "$type": "NAAJIHIKECC",
              "partNames": [
                "equip01"
              ]
            }
          ]
        },
        "Monster_Shougun_Tachi_Effect": {
          "modifierName": "",
          "IPFJJJGABPL": 100.0,
          "onAdded": [
            {
              "$type": "ANLOBBMKNIJ",
              "rotationDampTime": "Eff_Monster_Shougun_Tachi_WeaponLoopEffect",
              "PPPDJGDDOGD": 1.0,
              "AJDILHJFNKE": -1.0
            }
          ]
        }
      },
      "onAdded": [
        {
          "$type": "PELJALPANCA",
          "modifierName": "Monster_Shougun_Tachi_Effect"
        },
        {
          "$type": "PELJALPANCA",
          "target": "Owner",
          "predicates": [
            {
              "$type": "CNGGLKHONAA",
              "target": "Owner",
              "key": "_MONSTER_SHOUGUN_MITAKENARUKAMI_WEAPONTYPE_",
              "param3": 1.0
            }
          ],
          "modifierName": "UNIQUE_Monster_Shougun_Tachi_Visable"
        },
        {
          "$type": "PELJALPANCA",
          "target": "Owner",
          "predicates": [
            {
              "$type": "CNGGLKHONAA",
              "target": "Owner",
              "key": "_MONSTER_SHOUGUN_WEAPONTYPE_",
              "param3": 1.0
            }
          ],
          "modifierName": "UNIQUE_Monster_Shougun_Tachi_Visable"
        }
      ],
      "onAttach": [
        {
          "$type": "PELJALPANCA",
          "target": "Owner",
          "predicates": [
            {
              "$type": "CNGGLKHONAA",
              "target": "Owner",
              "key": "_MONSTER_SHOUGUN_MITAKENARUKAMI_WEAPONTYPE_",
              "param3": 1.0
            }
          ],
          "modifierName": "UNIQUE_Monster_Shougun_Tachi_Visable"
        },
        {
          "$type": "KBODPNEEFGD",
          "target": "Owner",
          "predicates": [
            {
              "$type": "CNGGLKHONAA",
              "target": "Owner",
              "key": "_MONSTER_SHOUGUN_MITAKENARUKAMI_WEAPONTYPE_",
              "param3": 1.0
            }
          ],
          "modifierName": "UNIQUE_Monster_Shougun_Pole_Visable"
        }
      ]
    }
  }
]