[
  {
    "Default": {
      "$type": "CBPBEHLOHKI",
      "abilityName": "Monster_Regisvine_Ice_Standy_Effect",
      "abilityMixins": [
        {
          "$type": "LEOGLBFIELL",
          "poseIDs": [
            1001,
            1002,
            1011,
            1012,
            1021,
            1022,
            1031,
            1032
          ],
          "modifierName": "StandbyEffect"
        }
      ],
      "modifiers": {
        "StandbyEffect": {
          "modifierName": "",
          "IPFJJJGABPL": 100.0,
          "onAdded": [
            {
              "$type": "ANLOBBMKNIJ",
              "rotationDampTime": "Eff_Monster_Regisvine_Ice_Standby_01",
              "PPPDJGDDOGD": 1.0,
              "AJDILHJFNKE": -1.0
            }
          ]
        }
      }
    }
  },
  {
    "Default": {
      "$type": "CBPBEHLOHKI",
      "abilityName": "Monster_Regisvine_Ice_BeHitEffect",
      "modifiers": {
        "UNIQUE_Regisvine_Ice_BeHitEffect": {
          "modifierName": "",
          "forceTriggerWhenChangeAuthority": true,
          "IPFJJJGABPL": 100.0,
          "onBeingHit": [
            {
              "$type": "INBCDALOHMP",
              "targetPredicates": [
                {
                  "$type": "OHKJOADLOBB",
                  "hitBoxNames": [
                    "HitBox_Core_Critical"
                  ]
                },
                {
                  "$type": "CNGGLKHONAA",
                  "key": "_MONSTER_REGISVINE_CORE",
                  "param3": 0.0,
                  "compareType": "LessAndEqual"
                },
                {
                  "$type": "CNGGLKHONAA",
                  "key": "_MONSTER_REGISVINE_CORE_ISSHATTERED",
                  "param3": 1.0,
                  "compareType": "MoreThanAndEqual"
                }
              ],
              "successActions": [
                {
                  "$type": "KBFEIHEAMBM",
                  "rotationDampTime": "Eff_Monster_Regisvine_Ice_Hit_Weakness",
                  "born": {
                    "$type": "DHDAAHGFPHK",
                    "direction": {
                      "$type": "OANIBLLHFGH"
                    }
                  },
                  "PPPDJGDDOGD": 1.0,
                  "AJDILHJFNKE": -1.0
                }
              ],
              "failActions": [
                {
                  "$type": "KBFEIHEAMBM",
                  "rotationDampTime": "Eff_Monster_Regisvine_Ice_Hit_Weakness_NoEffect",
                  "born": {
                    "$type": "DHDAAHGFPHK"
                  },
                  "PPPDJGDDOGD": 1.0,
                  "AJDILHJFNKE": -1.0
                }
              ]
            }
          ]
        }
      },
      "onAdded": [
        {
          "$type": "PELJALPANCA",
          "modifierName": "UNIQUE_Regisvine_Ice_BeHitEffect"
        }
      ]
    }
  },
  {
    "Default": {
      "$type": "CBPBEHLOHKI",
      "abilityName": "Monster_Regisvine_Ice_MissileAttack_Effect",
      "abilityMixins": [
        {
          "$type": "EJDKAKLFCPA",
          "stateIDs": [
            "MissileAttack_Loop"
          ],
          "modifierName": "Effect",
          "DGFCLAIDIFI": ""
        }
      ],
      "modifiers": {
        "Effect": {
          "modifierName": "",
          "IPFJJJGABPL": 100.0,
          "onAdded": [
            {
              "$type": "KJCHPDPBJHL",
              "boolID": "Shader_Skill_MissileAttack_Loop",
              "param3": true
            },
            {
              "$type": "ANLOBBMKNIJ",
              "rotationDampTime": "Eff_Monster_Regisvine_Ice_MissileAttack_02",
              "PPPDJGDDOGD": 1.0,
              "AJDILHJFNKE": -1.0
            }
          ],
          "onRemoved": [
            {
              "$type": "KJCHPDPBJHL",
              "boolID": "Shader_Skill_MissileAttack_Loop"
            }
          ]
        }
      }
    }
  },
  {
    "Default": {
      "$type": "CBPBEHLOHKI",
      "abilityName": "Monster_Regisvine_Ice_MissileAttack",
      "abilityMixins": [
        {
          "$type": "EJDKAKLFCPA",
          "stateIDs": [
            "MissileAttack_Loop"
          ],
          "modifierName": "MissileAttack_Ring01",
          "DGFCLAIDIFI": ""
        },
        {
          "$type": "EJDKAKLFCPA",
          "stateIDs": [
            "MissileAttack_Loop"
          ],
          "modifierName": "MissileAttack_Ring02",
          "DGFCLAIDIFI": ""
        },
        {
          "$type": "EJDKAKLFCPA",
          "stateIDs": [
            "MissileAttack_Loop"
          ],
          "modifierName": "MissileAttack_Ring03",
          "DGFCLAIDIFI": ""
        }
      ],
      "modifiers": {
        "MissileAttack_Ring01": {
          "modifierName": "",
          "IPFJJJGABPL": 100.0
        },
        "MissileAttack_Ring02": {
          "modifierName": "",
          "IPFJJJGABPL": 100.0,
          "thinkInterval": 1.2000000476837158,
          "onThinkInterval": [
            {
              "$type": "GJGCDHFJDKC",
              "IJMPMODENGI": 1,
              "actions": [
                {
                  "$type": "KFCDMIMBBLD",
                  "lifeByOwnerIsAlive": true,
                  "born": {
                    "$type": "IAENDIPDFKD",
                    "bornRandom": {
                      "$type": "OJKHDGHBNKP",
                      "minRandomRange": 16.0,
                      "maxRandomRange": 25.0
                    },
                    "onGround": true,
                    "onGroundRaycastUpDist": 0.20000000298023224
                  },
                  "gadgetID": 42602006,
                  "campID": 4001
                }
              ]
            },
            {
              "$type": "GJGCDHFJDKC",
              "IJMPMODENGI": 1,
              "actions": [
                {
                  "$type": "KFCDMIMBBLD",
                  "otherTargets": {
                    "$type": "IJOFJOGLDHE",
                    "topLimit": 1,
                    "shapeName": "CircleR15",
                    "campTargetType": "Enemy",
                    "doOffStage": 1.0
                  },
                  "predicates": [
                    {
                      "$type": "NIMAPECDNKD",
                      "entityTypes": [
                        "Avatar"
                      ]
                    },
                    {
                      "$type": "FMBJAJFLDIP",
                      "logic": "GreaterOrEqual",
                      "param3": 8.0,
                      "DDALGNLEHOD": ""
                    },
                    {
                      "$type": "CNGGLKHONAA",
                      "key": "_ABILITY_REGISVINE_ICE_MISSILEATTACK_HIT",
                      "param3": 0.0,
                      "compareType": "NoneOrEqual"
                    }
                  ],
                  "lifeByOwnerIsAlive": true,
                  "born": {
                    "$type": "MPCGPEHJNNH",
                    "bornRandom": {
                      "$type": "OJKHDGHBNKP",
                      "minRandomRange": 0.0,
                      "maxRandomRange": 1.0
                    },
                    "onGround": true,
                    "onGroundRaycastUpDist": 0.20000000298023224,
                    "timeForPredictive": 0.5
                  },
                  "gadgetID": 42602006,
                  "campID": 4001
                }
              ]
            }
          ]
        },
        "MissileAttack_Ring03": {
          "modifierName": "",
          "IPFJJJGABPL": 100.0,
          "thinkInterval": 0.699999988079071,
          "onThinkInterval": [
            {
              "$type": "GJGCDHFJDKC",
              "IJMPMODENGI": 1,
              "actions": [
                {
                  "$type": "KFCDMIMBBLD",
                  "otherTargets": {
                    "$type": "IJOFJOGLDHE",
                    "topLimit": 1,
                    "shapeName": "CircleR25",
                    "campTargetType": "Enemy",
                    "doOffStage": 1.0
                  },
                  "predicates": [
                    {
                      "$type": "NIMAPECDNKD",
                      "entityTypes": [
                        "Avatar"
                      ]
                    },
                    {
                      "$type": "FMBJAJFLDIP",
                      "logic": "GreaterOrEqual",
                      "param3": 15.0,
                      "DDALGNLEHOD": ""
                    },
                    {
                      "$type": "CNGGLKHONAA",
                      "key": "_ABILITY_REGISVINE_ICE_MISSILEATTACK_HIT",
                      "param3": 0.0,
                      "compareType": "NoneOrEqual"
                    }
                  ],
                  "lifeByOwnerIsAlive": true,
                  "born": {
                    "$type": "MPCGPEHJNNH",
                    "bornRandom": {
                      "$type": "OJKHDGHBNKP",
                      "minRandomRange": 0.0,
                      "maxRandomRange": 1.0
                    },
                    "onGround": true,
                    "onGroundRaycastUpDist": 0.20000000298023224,
                    "timeForPredictive": 0.5
                  },
                  "gadgetID": 42602006,
                  "campID": 4001
                }
              ]
            }
          ]
        }
      }
    }
  },
  {
    "Default": {
      "$type": "CBPBEHLOHKI",
      "abilityName": "Monster_Regisvine_Ice_BlizzardSpit_BlizzardBegin",
      "abilityMixins": [
        {
          "$type": "EJDKAKLFCPA",
          "stateIDs": [
            "BlizzardSpit_BS",
            "BlizzardSpit_Fire",
            "BlizzardSpit_Reverse_Fire"
          ],
          "modifierName": "BlizzardDuration",
          "DGFCLAIDIFI": ""
        },
        {
          "$type": "EJDKAKLFCPA",
          "stateIDs": [
            "BlizzardSpit_Fire"
          ],
          "modifierName": "UNIQUE_CreateIceFog",
          "DGFCLAIDIFI": ""
        },
        {
          "$type": "EJDKAKLFCPA",
          "stateIDs": [
            "BlizzardSpit_Reverse_Fire"
          ],
          "modifierName": "UNIQUE_CreateIceFog_Reverse",
          "DGFCLAIDIFI": ""
        }
      ],
      "modifiers": {
        "BlizzardDuration": {
          "modifierName": "",
          "IPFJJJGABPL": 100.0,
          "onAdded": [
            {
              "$type": "BOBCOJHOKKD",
              "param3": 1.0,
              "key": "_WATCHER_82081_",
              "param2": 0.0,
              "repeatTimes": 0.0
            }
          ],
          "onRemoved": [
            {
              "$type": "KBODPNEEFGD",
              "modifierName": "UNIQUE_Blizzard"
            },
            {
              "$type": "BOBCOJHOKKD",
              "param3": 0.0,
              "key": "_WATCHER_82081_",
              "param2": 0.0,
              "repeatTimes": 0.0
            }
          ],
          "onKill": [
            {
              "$type": "KBODPNEEFGD",
              "modifierName": "UNIQUE_Blizzard"
            }
          ]
        },
        "UNIQUE_CreateIceFog": {
          "stacking": "Unique",
          "modifierName": "",
          "forceTriggerWhenChangeAuthority": true,
          "IPFJJJGABPL": 100.0,
          "thinkInterval": 0.25,
          "onAdded": [
            {
              "$type": "KBFEIHEAMBM",
              "rotationDampTime": "Eff_Monster_Regisvine_Ice_BlizzardSpit_HitGround",
              "PPPDJGDDOGD": 1.0,
              "AJDILHJFNKE": -1.0
            },
            {
              "$type": "KFCDMIMBBLD",
              "born": {
                "$type": "KLPANPDGHHA",
                "offset": {
                  "KGEPIMHBMOL": 0.0,
                  "JEBHCGDPFEJ": 0.0,
                  "LPCHALMFFOD": 12.0
                },
                "onGround": true,
                "alongGround": true,
                "attachPointName": "BulletSourceCore"
              },
              "gadgetID": 42602015,
              "campID": 4001,
              "campTargetType": "Enemy"
            }
          ],
          "onThinkInterval": [
            {
              "$type": "KFCDMIMBBLD",
              "born": {
                "$type": "KLPANPDGHHA",
                "offset": {
                  "KGEPIMHBMOL": 0.0,
                  "JEBHCGDPFEJ": 0.0,
                  "LPCHALMFFOD": 12.0
                },
                "onGround": true,
                "alongGround": true,
                "attachPointName": "BulletSourceCore"
              },
              "gadgetID": 42602015,
              "campID": 4001,
              "campTargetType": "Enemy"
            }
          ]
        },
        "UNIQUE_CreateIceFog_Reverse": {
          "stacking": "Unique",
          "modifierName": "",
          "forceTriggerWhenChangeAuthority": true,
          "IPFJJJGABPL": 100.0,
          "thinkInterval": 0.25,
          "onAdded": [
            {
              "$type": "KBFEIHEAMBM",
              "rotationDampTime": "Eff_Monster_Regisvine_Ice_BlizzardSpit_Reverse_HitGround",
              "PPPDJGDDOGD": 1.0,
              "AJDILHJFNKE": -1.0
            },
            {
              "$type": "KFCDMIMBBLD",
              "born": {
                "$type": "KLPANPDGHHA",
                "offset": {
                  "KGEPIMHBMOL": 0.0,
                  "JEBHCGDPFEJ": 0.0,
                  "LPCHALMFFOD": 12.0
                },
                "onGround": true,
                "alongGround": true,
                "attachPointName": "BulletSourceCore"
              },
              "gadgetID": 42602015,
              "campID": 4001,
              "campTargetType": "Enemy"
            }
          ],
          "onThinkInterval": [
            {
              "$type": "KFCDMIMBBLD",
              "born": {
                "$type": "KLPANPDGHHA",
                "offset": {
                  "KGEPIMHBMOL": 0.0,
                  "JEBHCGDPFEJ": 0.0,
                  "LPCHALMFFOD": 12.0
                },
                "onGround": true,
                "alongGround": true,
                "attachPointName": "BulletSourceCore"
              },
              "gadgetID": 42602015,
              "campID": 4001,
              "campTargetType": "Enemy"
            }
          ]
        },
        "UNIQUE_Blizzard": {
          "modifierName": "",
          "forceTriggerWhenChangeAuthority": true,
          "IPFJJJGABPL": 100.0,
          "thinkInterval": 0.20000000298023224,
          "onAdded": [
            {
              "$type": "PELJALPANCA",
              "modifierName": "BlizzardEffect"
            }
          ],
          "onRemoved": [
            {
              "$type": "PELJALPANCA",
              "modifierName": "RemoveBlizzardEffect"
            },
            {
              "$type": "GJCAPCBELPA",
              "abilityName": "Monster_Regisvine_BlizzardSpitPushColliderOff"
            }
          ],
          "onThinkInterval": [
            {
              "$type": "AIFPLABJNMA",
              "attackEvent": {
                "attackPattern": {
                  "$type": "JHKEHNJBMOF",
                  "triggerType": "TriggerNoRepeat",
                  "checkHitLayerType": "Both",
                  "born": {
                    "$type": "KLPANPDGHHA",
                    "offset": {
                      "KGEPIMHBMOL": -0.25,
                      "JEBHCGDPFEJ": 0.0,
                      "LPCHALMFFOD": -4.75
                    },
                    "direction": {
                      "$type": "LHBLDEOLGKF",
                      "angleOffset": {
                        "KGEPIMHBMOL": 0.0,
                        "JEBHCGDPFEJ": 0.0,
                        "LPCHALMFFOD": 0.0
                      },
                      "attachPointName": "BulletSourceCore"
                    },
                    "attachPointName": "BulletSourceCore"
                  },
                  "size": {
                    "KGEPIMHBMOL": 4.0,
                    "JEBHCGDPFEJ": 8.0,
                    "LPCHALMFFOD": 30.0
                  },
                  "muteHitBehindScene": true
                },
                "attackInfo": {
                  "attackTag": "",
                  "attenuationTag": "Regisvine_Blizzard",
                  "attenuationGroup": "Skirmisher_Fat_SprayGun_Ice",
                  "attackProperty": {
                    "actorGrassSubHurtDelta": 0.5,
                    "actorWindSubHurtDelta": 0.0,
                    "elementType": "Ice",
                    "IPFJJJGABPL": 50.0,
                    "strikeType": "Blunt",
                    "enBreak": 200.0,
                    "attackType": "Melee",
                    "GLKMCMDJBIK": 0.0
                  },
                  "hitPattern": {
                    "onHitEffectName": "default",
                    "hitImpulseY": "",
                    "hitImpulseType": "LV4",
                    "hitHaltTimeScale": 0.009999999776482582
                  },
                  "forceCameraShake": true,
                  "canBeModifiedBy": "OriginOwner"
                }
              },
              "targetType": "Enemy"
            }
          ],
          "onKill": [
            {
              "$type": "PELJALPANCA",
              "modifierName": "RemoveBlizzardEffect"
            },
            {
              "$type": "FDFGJPNDKEA",
              "pushColliderNames": [
                "PushCollider_BlizzardSpit"
              ]
            },
            {
              "$type": "FDFGJPNDKEA",
              "pushColliderNames": [
                "PushCollider"
              ],
              "setEnable": true
            }
          ]
        },
        "BlizzardEffect": {
          "modifierName": "",
          "IPFJJJGABPL": 100.0,
          "onAdded": [
            {
              "$type": "ANLOBBMKNIJ",
              "rotationDampTime": "Eff_Monster_Regisvine_Ice_BlizzardSpit_Blizzard",
              "PPPDJGDDOGD": 1.0,
              "AJDILHJFNKE": -1.0
            }
          ]
        },
        "RemoveBlizzardEffect": {
          "modifierName": "",
          "elementDurability": 0.5,
          "IPFJJJGABPL": 100.0,
          "onAdded": [
            {
              "$type": "GFOOGEIKGBI",
              "parameter": "Die",
              "attachPoint": ""
            },
            {
              "$type": "GFOOGEIKGBI",
              "parameter": "Deactivate",
              "attachPoint": ""
            }
          ],
          "onRemoved": [
            {
              "$type": "PFKNEFGOHIH",
              "modifierName": "BlizzardEffect"
            }
          ]
        }
      },
      "onAbilityStart": [
        {
          "$type": "PELJALPANCA",
          "modifierName": "UNIQUE_Blizzard"
        }
      ],
      "onKill": [
        {
          "$type": "GFOOGEIKGBI",
          "parameter": "Disappear",
          "attachPoint": "",
          "rotationDampTime": "Eff_Monster_Regisvine_Ice_BlizzardSpit_HitGround"
        },
        {
          "$type": "GFOOGEIKGBI",
          "parameter": "Disappear",
          "attachPoint": "",
          "rotationDampTime": "Eff_Monster_Regisvine_Ice_BlizzardSpit_Reverse_HitGround"
        },
        {
          "$type": "JKFLDIKGJEF",
          "gadgetInfo": {
            "configID": 42602015
          }
        }
      ]
    }
  },
  {
    "Default": {
      "$type": "CBPBEHLOHKI",
      "abilityName": "Monster_Regisvine_Ice_BlizzardSpit_BlizzardEnd",
      "onAbilityStart": [
        {
          "$type": "KBODPNEEFGD",
          "modifierName": "UNIQUE_Blizzard"
        }
      ]
    }
  },
  {
    "Default": {
      "$type": "CBPBEHLOHKI",
      "abilityName": "Monster_Regisvine_Ice_BlizzardSpit_Hit",
      "modifiers": {
        "BlizzardSpit_Hit": {
          "modifierName": "",
          "IPFJJJGABPL": 100.0
        }
      },
      "onAbilityStart": [
        {
          "$type": "JLDEMMJAMLC",
          "modifierName": "BlizzardSpit_Hit"
        }
      ]
    }
  },
  {
    "Default": {
      "$type": "CBPBEHLOHKI",
      "abilityName": "Regisvine_BlizzardSpit_IceFog",
      "modifiers": {
        "Ice_Fog": {
          "modifierName": "",
          "elementDurability": 30.0,
          "IPFJJJGABPL": 100.0,
          "thinkInterval": 1.0,
          "onAdded": [
            {
              "$type": "AIFPLABJNMA",
              "attackEvent": {
                "attackPattern": {
                  "$type": "GMDIMKKHACA",
                  "triggerType": "TriggerNoRepeat",
                  "born": {
                    "$type": "IAENDIPDFKD",
                    "offset": {
                      "KGEPIMHBMOL": 0.0,
                      "JEBHCGDPFEJ": 0.0,
                      "LPCHALMFFOD": 0.0
                    }
                  },
                  "OAHPDLJIADP": 5.199999809265137
                },
                "attackInfo": {
                  "attackTag": "",
                  "attenuationTag": "Group1",
                  "attenuationGroup": "Regisvine_Common",
                  "attackProperty": {
                    "actorGrassSubHurtDelta": 0.30000001192092896,
                    "actorWindSubHurtDelta": 0.0,
                    "elementType": "Ice",
                    "IPFJJJGABPL": 25.0,
                    "enBreak": 0.0,
                    "GLKMCMDJBIK": 0.0
                  },
                  "hitPattern": {
                    "onHitEffectName": "",
                    "hitImpulseY": "",
                    "hitImpulseType": "LV1",
                    "hitHaltTimeScale": 0.05000000074505806
                  },
                  "canBeModifiedBy": "OriginOwner"
                }
              },
              "targetType": "Enemy"
            }
          ],
          "onThinkInterval": [
            {
              "$type": "AIFPLABJNMA",
              "attackEvent": {
                "attackPattern": {
                  "$type": "GMDIMKKHACA",
                  "triggerType": "TriggerNoRepeat",
                  "born": {
                    "$type": "IAENDIPDFKD",
                    "offset": {
                      "KGEPIMHBMOL": 0.0,
                      "JEBHCGDPFEJ": 0.0,
                      "LPCHALMFFOD": 0.0
                    }
                  },
                  "OAHPDLJIADP": 5.199999809265137
                },
                "attackInfo": {
                  "attackTag": "",
                  "attenuationTag": "Group1",
                  "attenuationGroup": "Regisvine_Common",
                  "attackProperty": {
                    "actorGrassSubHurtDelta": 0.30000001192092896,
                    "actorWindSubHurtDelta": 0.0,
                    "elementType": "Ice",
                    "IPFJJJGABPL": 25.0,
                    "enBreak": 0.0,
                    "GLKMCMDJBIK": 0.0
                  },
                  "hitPattern": {
                    "onHitEffectName": "",
                    "hitImpulseY": "",
                    "hitImpulseType": "LV1",
                    "hitHaltTimeScale": 0.05000000074505806
                  },
                  "canBeModifiedBy": "OriginOwner"
                }
              },
              "targetType": "Enemy"
            }
          ]
        }
      },
      "onAdded": [
        {
          "$type": "PELJALPANCA",
          "modifierName": "Ice_Fog"
        }
      ]
    }
  },
  {
    "Default": {
      "$type": "CBPBEHLOHKI",
      "abilityName": "Monster_Regisvine_Ice_BlizzardSpit_Activity_BlizzardBegin",
      "abilityMixins": [
        {
          "$type": "EJDKAKLFCPA",
          "stateIDs": [
            "BlizzardSpit_Activity_BS",
            "BlizzardSpit_Activity_Fire",
            "BlizzardSpit_Activity_AS"
          ],
          "modifierName": "BlizzardDuration_Activity",
          "DGFCLAIDIFI": ""
        },
        {
          "$type": "EJDKAKLFCPA",
          "stateIDs": [
            "BlizzardSpit_Activity_Fire"
          ],
          "modifierName": "UNIQUE_Blizzard_Activity_Fire",
          "DGFCLAIDIFI": ""
        },
        {
          "$type": "EJDKAKLFCPA",
          "stateIDs": [
            "MeleeAttackCombo_Wait",
            "MeleeAttack01_03"
          ],
          "modifierName": "Regisvine_Ice_Activity_MeleeAttackComboSpecial",
          "DGFCLAIDIFI": ""
        }
      ],
      "modifiers": {
        "BlizzardDuration_Activity": {
          "modifierName": "",
          "IPFJJJGABPL": 100.0,
          "onAdded": [
            {
              "$type": "IPMMJGMONCI",
              "skillIDs": [
                205,
                241
              ]
            },
            {
              "$type": "BAKEBEKLLAC",
              "id": 400022
            }
          ],
          "onRemoved": [
            {
              "$type": "BOBCOJHOKKD",
              "param3": 6.0,
              "key": "_SERVER_REGISVINE_ICE_ACTIVITY_PHASE",
              "param2": 0.0,
              "repeatTimes": 0.0
            }
          ]
        },
        "UNIQUE_Blizzard_Activity_Fire": {
          "stacking": "Unique",
          "modifierName": "",
          "forceTriggerWhenChangeAuthority": true,
          "IPFJJJGABPL": 100.0,
          "thinkInterval": 1.0,
          "onAdded": [
            {
              "$type": "BOBCOJHOKKD",
              "param3": 5.0,
              "key": "_SERVER_REGISVINE_ICE_ACTIVITY_PHASE",
              "param2": 0.0,
              "repeatTimes": 0.0
            },
            {
              "$type": "ANLOBBMKNIJ",
              "rotationDampTime": "Eff_Monster_Regisvine_Ice_BlizzardSpit_Activity_Storm",
              "PPPDJGDDOGD": 1.0,
              "AJDILHJFNKE": -1.0
            }
          ],
          "onRemoved": [
            {
              "$type": "KBFEIHEAMBM",
              "rotationDampTime": "Eff_Monster_Regisvine_Ice_BlizzardSpit_Activity_Storm_AS",
              "PPPDJGDDOGD": 1.0,
              "AJDILHJFNKE": -1.0
            }
          ],
          "onThinkInterval": [
            {
              "$type": "INBCDALOHMP",
              "otherTargets": {
                "$type": "IJOFJOGLDHE",
                "shapeName": "Circle_Regisvine_Ice_ActivityR25",
                "campTargetType": "Enemy",
                "doOffStage": 1.0
              },
              "targetPredicates": [
                {
                  "$type": "NIMAPECDNKD",
                  "entityTypes": [
                    "Avatar"
                  ]
                },
                {
                  "$type": "CNGGLKHONAA",
                  "target": "Self",
                  "key": "_IS_IN_SHIELD_AREA",
                  "param3": 0.0,
                  "compareType": "NoneOrEqual"
                }
              ],
              "successActions": [
                {
                  "$type": "CCNPNMMONDO",
                  "target": "Target",
                  "attackInfo": {
                    "attackTag": "Blizzard",
                    "attenuationTag": "",
                    "attenuationGroup": "default",
                    "attackProperty": {
                      "actorGrassSubHurtDelta": 1.0,
                      "actorWindSubHurtDelta": 0.0,
                      "elementType": "Ice",
                      "IPFJJJGABPL": 50.0,
                      "strikeType": "Blunt",
                      "enBreak": 1.0,
                      "GLKMCMDJBIK": 0.0
                    },
                    "hitPattern": {
                      "onHitEffectName": "",
                      "hitImpulseY": "",
                      "hitImpulseType": "LV1"
                    },
                    "forceCameraShake": true,
                    "cameraShake": {
                      "shakeRange": 1.5,
                      "shakeTime": 0.4000000059604645,
                      "shakeDistance": 50.0
                    }
                  }
                },
                {
                  "$type": "KBFEIHEAMBM",
                  "target": "Target",
                  "predicates": [
                    {
                      "$type": "CNGGLKHONAA",
                      "key": "_IS_IN_SHIELD_AREA",
                      "param3": 0.0,
                      "compareType": "NoneOrEqual"
                    }
                  ],
                  "rotationDampTime": "Eff_Monster_Regisvine_Ice_SpecialAttack_DamageOnce",
                  "born": {
                    "$type": "KLPANPDGHHA",
                    "offset": {
                      "KGEPIMHBMOL": 0.0,
                      "JEBHCGDPFEJ": 0.0,
                      "LPCHALMFFOD": 0.0
                    },
                    "attachPointName": "Neck"
                  },
                  "PPPDJGDDOGD": 1.0,
                  "AJDILHJFNKE": -1.0
                }
              ]
            }
          ]
        },
        "Regisvine_Ice_Activity_MeleeAttackComboSpecial": {
          "modifierName": "",
          "IPFJJJGABPL": 100.0,
          "onAdded": [
            {
              "$type": "BOBCOJHOKKD",
              "predicates": [
                {
                  "$type": "CNGGLKHONAA",
                  "target": "Self",
                  "key": "_SERVER_REGISVINE_ICE_ACTIVITY_PHASE",
                  "param3": 6.0
                }
              ],
              "param3": 4.0,
              "key": "_SERVER_REGISVINE_ICE_ACTIVITY_PHASE",
              "param2": 0.0,
              "repeatTimes": 0.0
            },
            {
              "$type": "IPMMJGMONCI",
              "skillIDs": [
                412
              ]
            }
          ]
        }
      }
    }
  },
  {
    "Default": {
      "$type": "CBPBEHLOHKI",
      "abilityName": "Monster_Regisvine_Ice_Activity_CombatPhaseManager",
      "abilityMixins": [
        {
          "$type": "MLJAPFBGEEH",
          "globalValueKey": "_MONSTERAFFIX_Regisvine_Ice_ActivityBoss",
          "gvInTalk": 0.0,
          "valueSteps": [
            -0.5,
            0.5,
            1.5
          ],
          "modifierNameSteps": [
            "Blank",
            "UNIQUE_Regisvine_Ice_Activity_CombatPhaseManager"
          ]
        },
        {
          "$type": "LEOGLBFIELL",
          "poseIDs": [
            2,
            3
          ],
          "modifierName": "1stPhaseInvicible"
        },
        {
          "$type": "LEOGLBFIELL",
          "poseIDs": [
            2,
            3
          ],
          "modifierName": "1stPhaseDenyLockOn"
        }
      ],
      "modifiers": {
        "Blank": {
          "modifierName": "",
          "IPFJJJGABPL": 100.0
        },
        "UNIQUE_Regisvine_Ice_Activity_CombatPhaseManager": {
          "modifierName": "",
          "forceTriggerWhenChangeAuthority": true,
          "IPFJJJGABPL": 100.0,
          "modifierMixins": [
            {
              "$type": "MLJAPFBGEEH",
              "globalValueKey": "_SERVER_REGISVINE_ICE_ACTIVITY_PHASE",
              "gvInTalk": 0.0,
              "valueSteps": [
                -0.5,
                1.5,
                10.5
              ],
              "modifierNameSteps": [
                "Regisvine_NoSensing",
                "Regisvine_HasSensing"
              ]
            },
            {
              "$type": "MLJAPFBGEEH",
              "globalValueKey": "_SERVER_REGISVINE_ICE_ACTIVITY_PHASE",
              "gvInTalk": 0.0,
              "valueSteps": [
                -0.5,
                0.5,
                1.5,
                2.5,
                3.5,
                4.5,
                5.5,
                6.5,
                7.5,
                8.5
              ],
              "modifierNameSteps": [
                "Regisvine_Ice_Activity_Phase0",
                "Regisvine_Ice_Activity_Phase1",
                "Regisvine_Ice_Activity_Phase2",
                "Regisvine_Ice_Activity_Phase3",
                "Regisvine_Ice_Activity_Phase4",
                "Regisvine_Ice_Activity_Phase5",
                "Regisvine_Ice_Activity_Phase6",
                "Regisvine_Ice_Activity_Phase7",
                "Regisvine_Ice_Activity_Phase8"
              ]
            },
            {
              "$type": "MLJAPFBGEEH",
              "globalValueKey": "_SERVER_REGISVINE_ICE_ACTIVITY_FLAG_PHASE01",
              "gvInTalk": 0.0,
              "valueSteps": [
                -0.5,
                0.5,
                1.5
              ],
              "modifierNameSteps": [
                "Blank",
                "Regisvine_Ice_Activity_SetPhase1"
              ]
            },
            {
              "$type": "MLJAPFBGEEH",
              "globalValueKey": "_SERVER_REGISVINE_ICE_ACTIVITY_FLAG_PHASE02",
              "gvInTalk": 0.0,
              "valueSteps": [
                -0.5,
                0.5,
                1.5
              ],
              "modifierNameSteps": [
                "Blank",
                "Regisvine_Ice_Activity_SetPhase2"
              ]
            }
          ],
          "onAdded": [
            {
              "$type": "IDNGFEEBPAM",
              "boolID": "IsActivityBoss",
              "param3": true
            }
          ]
        },
        "Regisvine_Ice_Activity_SetPhase1": {
          "modifierName": "",
          "IPFJJJGABPL": 100.0,
          "onAdded": [
            {
              "$type": "BOBCOJHOKKD",
              "predicates": [
                {
                  "$type": "CNGGLKHONAA",
                  "target": "Self",
                  "key": "_SERVER_REGISVINE_ICE_ACTIVITY_PHASE",
                  "param3": 0.0,
                  "compareType": "LessAndEqual"
                }
              ],
              "param3": 1.0,
              "key": "_SERVER_REGISVINE_ICE_ACTIVITY_PHASE",
              "param2": 0.0,
              "repeatTimes": 0.0
            }
          ]
        },
        "Regisvine_Ice_Activity_SetPhase2": {
          "modifierName": "",
          "IPFJJJGABPL": 100.0,
          "onAdded": [
            {
              "$type": "BOBCOJHOKKD",
              "predicates": [
                {
                  "$type": "CNGGLKHONAA",
                  "target": "Self",
                  "key": "_SERVER_REGISVINE_ICE_ACTIVITY_PHASE",
                  "param3": 1.0,
                  "compareType": "LessAndEqual"
                }
              ],
              "param3": 2.0,
              "key": "_SERVER_REGISVINE_ICE_ACTIVITY_PHASE",
              "param2": 0.0,
              "repeatTimes": 0.0
            }
          ]
        },
        "Regisvine_Ice_Activity_Phase0": {
          "modifierName": "",
          "IPFJJJGABPL": 100.0,
          "onAdded": [
            {
              "$type": "PELJALPANCA",
              "otherTargets": {
                "$type": "MEOIGEJCJLB",
                "configID": 42602029
              },
              "modifierName": "Regisvine_Ice_DropIce_Activity_KillSelf"
            },
            {
              "$type": "GFFKENEJFFB",
              "intID": "ActivityCombatPhase"
            }
          ]
        },
        "Regisvine_Ice_Activity_Phase1": {
          "modifierName": "",
          "IPFJJJGABPL": 100.0,
          "onAdded": [
            {
              "$type": "AHPEKICBIIL",
              "luaCallType": "FromGroup",
              "funcName": "MonsterPhaseOneCheck",
              "param1": 0.0,
              "MGAMDEHMCOL": 0.0,
              "MMHOHAOGPLP": 0.0
            },
            {
              "$type": "KFCDMIMBBLD",
              "lifeByOwnerIsAlive": true,
              "born": {
                "$type": "IAENDIPDFKD",
                "onGround": true,
                "alongGround": true
              },
              "sightGroupWithOwner": true,
              "gadgetID": 42602029,
              "campID": 4001,
              "campTargetType": "Enemy",
              "byServer": true
            },
            {
              "$type": "GFFKENEJFFB",
              "intID": "ActivityCombatPhase",
              "value": 1
            }
          ],
          "onRemoved": [
            {
              "$type": "PELJALPANCA",
              "otherTargets": {
                "$type": "MEOIGEJCJLB",
                "configID": 42602029
              },
              "modifierName": "Regisvine_Ice_DropIce_Activity_KillSelf"
            }
          ],
          "onKill": [
            {
              "$type": "PELJALPANCA",
              "otherTargets": {
                "$type": "MEOIGEJCJLB",
                "configID": 42602029
              },
              "modifierName": "Regisvine_Ice_DropIce_Activity_KillSelf"
            }
          ]
        },
        "Regisvine_Ice_Activity_Phase2": {
          "modifierName": "",
          "IPFJJJGABPL": 100.0,
          "onAdded": [
            {
              "$type": "AHPEKICBIIL",
              "luaCallType": "FromGroup",
              "funcName": "MonsterPhaseTwoCheck",
              "param1": 0.0,
              "MGAMDEHMCOL": 0.0,
              "MMHOHAOGPLP": 0.0
            },
            {
              "$type": "PELJALPANCA",
              "otherTargets": {
                "$type": "MEOIGEJCJLB",
                "configID": 42602029
              },
              "modifierName": "Regisvine_Ice_DropIce_Activity_KillSelf"
            },
            {
              "$type": "AHPEKICBIIL",
              "luaCallType": "FromGroup",
              "funcName": "DestoryIceShieldActivated",
              "param1": 0.0,
              "MGAMDEHMCOL": 0.0,
              "MMHOHAOGPLP": 0.0
            },
            {
              "$type": "AHPEKICBIIL",
              "luaCallType": "FromGroup",
              "funcName": "DistoryIceShield",
              "param1": 0.0,
              "MGAMDEHMCOL": 0.0,
              "MMHOHAOGPLP": 0.0
            },
            {
              "$type": "AHPEKICBIIL",
              "luaCallType": "FromGroup",
              "funcName": "CreateIceStorm",
              "param1": 0.0,
              "MGAMDEHMCOL": 0.0,
              "MMHOHAOGPLP": 0.0
            },
            {
              "$type": "AHPEKICBIIL",
              "luaCallType": "FromGroup",
              "funcName": "StartMonsterTide",
              "param1": 0.0,
              "MGAMDEHMCOL": 0.0,
              "MMHOHAOGPLP": 0.0
            },
            {
              "$type": "GFFKENEJFFB",
              "intID": "ActivityCombatPhase",
              "value": 2
            },
            {
              "$type": "LCOEFEMOHLP",
              "param3": -10.0,
              "key": "_MONSTER_REGISVINE_FRUIT_BEGIN_DISABLEDONTALERT",
              "useLimitRange": true,
              "param2": 1.0,
              "repeatTimes": 0.0
            },
            {
              "$type": "GJCAPCBELPA",
              "abilityName": "Regisvine_Fruit_Begin"
            }
          ]
        },
        "Regisvine_Ice_Activity_Phase3": {
          "modifierName": "",
          "IPFJJJGABPL": 100.0,
          "onAdded": [
            {
              "$type": "PELJALPANCA",
              "otherTargets": {
                "$type": "MEOIGEJCJLB",
                "configID": 42602029
              },
              "modifierName": "Regisvine_Ice_DropIce_Activity_KillSelf"
            },
            {
              "$type": "AHPEKICBIIL",
              "luaCallType": "FromGroup",
              "funcName": "DestoryIceStorm",
              "param1": 0.0,
              "MGAMDEHMCOL": 0.0,
              "MMHOHAOGPLP": 0.0
            },
            {
              "$type": "AHPEKICBIIL",
              "luaCallType": "FromGroup",
              "funcName": "PauseMonsterTide",
              "param1": 0.0,
              "MGAMDEHMCOL": 0.0,
              "MMHOHAOGPLP": 0.0
            },
            {
              "$type": "AHPEKICBIIL",
              "luaCallType": "FromGroup",
              "funcName": "KillAllMonsters",
              "param1": 0.0,
              "MGAMDEHMCOL": 0.0,
              "MMHOHAOGPLP": 0.0
            },
            {
              "$type": "PELJALPANCA",
              "modifierName": "Regisvine_Ice_Activity_CreateIceShield_Delayed"
            },
            {
              "$type": "GFFKENEJFFB",
              "intID": "ActivityCombatPhase",
              "value": 3
            },
            {
              "$type": "AHPEKICBIIL",
              "luaCallType": "FromGroup",
              "funcName": "DestoryIceShieldActivated",
              "param1": 0.0,
              "MGAMDEHMCOL": 0.0,
              "MMHOHAOGPLP": 0.0
            },
            {
              "$type": "AHPEKICBIIL",
              "luaCallType": "FromGroup",
              "funcName": "DistoryIceShield",
              "param1": 0.0,
              "MGAMDEHMCOL": 0.0,
              "MMHOHAOGPLP": 0.0
            }
          ]
        },
        "Regisvine_Ice_Activity_Phase4": {
          "modifierName": "",
          "IPFJJJGABPL": 100.0,
          "onAdded": [
            {
              "$type": "PELJALPANCA",
              "otherTargets": {
                "$type": "MEOIGEJCJLB",
                "configID": 42602029
              },
              "modifierName": "Regisvine_Ice_DropIce_Activity_KillSelf"
            },
            {
              "$type": "AHPEKICBIIL",
              "luaCallType": "FromGroup",
              "funcName": "CreateIceShield",
              "param1": 0.0,
              "MGAMDEHMCOL": 0.0,
              "MMHOHAOGPLP": 0.0
            },
            {
              "$type": "GFFKENEJFFB",
              "intID": "ActivityCombatPhase",
              "value": 4
            }
          ]
        },
        "Regisvine_Ice_Activity_Phase5": {
          "modifierName": "",
          "IPFJJJGABPL": 100.0,
          "onAdded": [
            {
              "$type": "PELJALPANCA",
              "otherTargets": {
                "$type": "MEOIGEJCJLB",
                "configID": 42602029
              },
              "modifierName": "Regisvine_Ice_DropIce_Activity_KillSelf"
            },
            {
              "$type": "GFFKENEJFFB",
              "intID": "ActivityCombatPhase",
              "value": 5
            }
          ],
          "onRemoved": [
            {
              "$type": "DOANGHCALGB",
              "skillIDs": [
                412
              ]
            }
          ]
        },
        "Regisvine_Ice_Activity_Phase6": {
          "modifierName": "",
          "IPFJJJGABPL": 100.0,
          "onAdded": [
            {
              "$type": "PELJALPANCA",
              "otherTargets": {
                "$type": "MEOIGEJCJLB",
                "configID": 42602029
              },
              "modifierName": "Regisvine_Ice_DropIce_Activity_KillSelf"
            },
            {
              "$type": "AHPEKICBIIL",
              "luaCallType": "FromGroup",
              "funcName": "DestoryIceShieldActivated",
              "param1": 0.0,
              "MGAMDEHMCOL": 0.0,
              "MMHOHAOGPLP": 0.0
            }
          ]
        },
        "Regisvine_Ice_Activity_Phase7": {
          "modifierName": "",
          "IPFJJJGABPL": 100.0,
          "onAdded": [
            {
              "$type": "PELJALPANCA",
              "otherTargets": {
                "$type": "MEOIGEJCJLB",
                "configID": 42602029
              },
              "modifierName": "Regisvine_Ice_DropIce_Activity_KillSelf"
            },
            {
              "$type": "AHPEKICBIIL",
              "luaCallType": "FromGroup",
              "funcName": "DestoryIceShieldActivated",
              "param1": 0.0,
              "MGAMDEHMCOL": 0.0,
              "MMHOHAOGPLP": 0.0
            },
            {
              "$type": "AHPEKICBIIL",
              "luaCallType": "FromGroup",
              "funcName": "DistoryIceShield",
              "param1": 0.0,
              "MGAMDEHMCOL": 0.0,
              "MMHOHAOGPLP": 0.0
            },
            {
              "$type": "GFFKENEJFFB",
              "intID": "ActivityCombatPhase",
              "value": 7
            }
          ]
        },
        "Regisvine_Ice_Activity_Phase8": {
          "modifierName": "",
          "IPFJJJGABPL": 100.0,
          "onAdded": [
            {
              "$type": "GFFKENEJFFB",
              "intID": "ActivityCombatPhase",
              "value": 8
            },
            {
              "$type": "AHPEKICBIIL",
              "luaCallType": "FromGroup",
              "funcName": "DestoryIceShieldActivated",
              "param1": 0.0,
              "MGAMDEHMCOL": 0.0,
              "MMHOHAOGPLP": 0.0
            },
            {
              "$type": "AHPEKICBIIL",
              "luaCallType": "FromGroup",
              "funcName": "DistoryIceShield",
              "param1": 0.0,
              "MGAMDEHMCOL": 0.0,
              "MMHOHAOGPLP": 0.0
            }
          ]
        },
        "Regisvine_Ice_Activity_CreateIceShield_Delayed": {
          "modifierName": "",
          "elementDurability": 12.0,
          "IPFJJJGABPL": 100.0,
          "onRemoved": [
            {
              "$type": "BOBCOJHOKKD",
              "predicates": [
                {
                  "$type": "CNGGLKHONAA",
                  "target": "Self",
                  "key": "_MONSTERAFFIX_Regisvine_Ice_ActivityBoss",
                  "param3": 1.0,
                  "compareType": "MoreThanAndEqual"
                }
              ],
              "param3": 4.0,
              "key": "_SERVER_REGISVINE_ICE_ACTIVITY_PHASE",
              "param2": 0.0,
              "repeatTimes": 0.0
            }
          ]
        },
        "Regisvine_NoSensing": {
          "modifierName": "",
          "IPFJJJGABPL": 100.0,
          "onAdded": [
            {
              "$type": "IDNGFEEBPAM",
              "boolID": "NoSensing",
              "param3": true
            },
            {
              "$type": "EOBAHJDPGPN"
            },
            {
              "$type": "JMAJPLCBAKM",
              "range": 0.0
            }
          ]
        },
        "Regisvine_HasSensing": {
          "modifierName": "",
          "IPFJJJGABPL": 100.0,
          "onAdded": [
            {
              "$type": "IDNGFEEBPAM",
              "boolID": "NoSensing"
            },
            {
              "$type": "EOBAHJDPGPN",
              "enable": true
            },
            {
              "$type": "JMAJPLCBAKM",
              "range": 12.0
            }
          ]
        },
        "1stPhaseInvicible": {
          "modifierName": "",
          "IPFJJJGABPL": 100.0,
          "state": "Invincible"
        },
        "1stPhaseDenyLockOn": {
          "modifierName": "",
          "IPFJJJGABPL": 100.0,
          "state": "DenyLockOn"
        },
        "Regisvine_Ice_DropIce_Activity_KillSelf": {
          "modifierName": "",
          "IPFJJJGABPL": 100.0,
          "onAdded": [
            {
              "$type": "NCFFNDHGCMH",
              "configIdArray": [
                42602029
              ]
            }
          ]
        }
      }
    }
  },
  {
    "Default": {
      "$type": "CBPBEHLOHKI",
      "abilityName": "Test_ShieldTag",
      "onAbilityStart": [
        {
          "$type": "INBCDALOHMP",
          "targetPredicates": [
            {
              "$type": "CNGGLKHONAA",
              "target": "Self",
              "key": "_IS_IN_SHIELD_AREA",
              "param3": 0.0,
              "compareType": "NoneOrEqual"
            }
          ],
          "successActions": [
            {
              "$type": "BOBCOJHOKKD",
              "param3": 1.0,
              "key": "_IS_IN_SHIELD_AREA",
              "param2": 0.0,
              "repeatTimes": 0.0
            }
          ],
          "failActions": [
            {
              "$type": "BOBCOJHOKKD",
              "param3": 0.0,
              "key": "_IS_IN_SHIELD_AREA",
              "param2": 0.0,
              "repeatTimes": 0.0
            }
          ]
        }
      ]
    }
  }
]