[
  {
    "Default": {
      "$type": "CBPBEHLOHKI",
      "abilityName": "Monster_Panther_Sacred_SteerAttack",
      "abilityMixins": [
        {
          "$type": "IILHMBGONGM",
          "steerStateIDs": [
            "Attack_02_Jump_Back"
          ],
          "startNormalizedTime": 0.20000000298023224,
          "endNormalizedTime": 0.5,
          "angularSpeed": 240.0,
          "attackTrigger": "",
          "DGFCLAIDIFI": ""
        },
        {
          "$type": "IILHMBGONGM",
          "steerStateIDs": [
            "Attack_02"
          ],
          "startNormalizedTime": 0.2800000011920929,
          "endNormalizedTime": 0.46000000834465027,
          "angularSpeed": 180.0,
          "attackTrigger": "",
          "DGFCLAIDIFI": ""
        },
        {
          "$type": "IILHMBGONGM",
          "steerStateIDs": [
            "Attack_02"
          ],
          "startNormalizedTime": 0.550000011920929,
          "endNormalizedTime": 0.6200000047683716,
          "angularSpeed": 180.0,
          "attackTrigger": "",
          "DGFCLAIDIFI": ""
        },
        {
          "$type": "IILHMBGONGM",
          "steerStateIDs": [
            "TurnRight"
          ],
          "startNormalizedTime": 0.10000000149011612,
          "endNormalizedTime": 0.44999998807907104,
          "angularSpeed": 240.0,
          "attackTrigger": "",
          "DGFCLAIDIFI": ""
        },
        {
          "$type": "IILHMBGONGM",
          "steerStateIDs": [
            "TurnLeft"
          ],
          "startNormalizedTime": 0.10000000149011612,
          "endNormalizedTime": 0.44999998807907104,
          "angularSpeed": 240.0,
          "attackTrigger": "",
          "DGFCLAIDIFI": ""
        },
        {
          "$type": "IILHMBGONGM",
          "steerStateIDs": [
            "Sacred_Attack01"
          ],
          "startNormalizedTime": 0.23000000417232513,
          "endNormalizedTime": 0.3400000035762787,
          "angularSpeed": 180.0,
          "attackTrigger": "",
          "DGFCLAIDIFI": ""
        },
        {
          "$type": "IILHMBGONGM",
          "steerStateIDs": [
            "Sacred_Attack01"
          ],
          "startNormalizedTime": 0.46799999475479126,
          "endNormalizedTime": 0.5180000066757202,
          "angularSpeed": 180.0,
          "attackTrigger": "",
          "DGFCLAIDIFI": ""
        },
        {
          "$type": "IILHMBGONGM",
          "steerStateIDs": [
            "Sacred_Attack01"
          ],
          "startNormalizedTime": 0.46799999475479126,
          "endNormalizedTime": 0.5180000066757202,
          "angularSpeed": 180.0,
          "attackTrigger": "",
          "DGFCLAIDIFI": ""
        },
        {
          "$type": "IILHMBGONGM",
          "steerStateIDs": [
            "Sacred_Attack01"
          ],
          "startNormalizedTime": 0.6539999842643738,
          "endNormalizedTime": 0.8640000224113464,
          "angularSpeed": 40.0,
          "attackTrigger": "",
          "DGFCLAIDIFI": ""
        },
        {
          "$type": "IILHMBGONGM",
          "steerStateIDs": [
            "Sacred_Attack02"
          ],
          "startNormalizedTime": 0.019999999552965164,
          "endNormalizedTime": 0.17000000178813934,
          "angularSpeed": 240.0,
          "attackTrigger": "",
          "DGFCLAIDIFI": ""
        },
        {
          "$type": "IILHMBGONGM",
          "steerStateIDs": [
            "Sacred_Attack02"
          ],
          "startNormalizedTime": 0.4300000071525574,
          "endNormalizedTime": 0.5199999809265137,
          "angularSpeed": 360.0,
          "attackTrigger": "",
          "DGFCLAIDIFI": ""
        },
        {
          "$type": "IILHMBGONGM",
          "steerStateIDs": [
            "Sacred_Attack03"
          ],
          "startNormalizedTime": 0.20000000298023224,
          "endNormalizedTime": 0.23000000417232513,
          "angularSpeed": 180.0,
          "attackTrigger": "",
          "DGFCLAIDIFI": ""
        },
        {
          "$type": "IILHMBGONGM",
          "steerStateIDs": [
            "Sacred_Attack03"
          ],
          "startNormalizedTime": 0.3199999928474426,
          "endNormalizedTime": 0.38999998569488525,
          "angularSpeed": 180.0,
          "attackTrigger": "",
          "DGFCLAIDIFI": ""
        },
        {
          "$type": "IILHMBGONGM",
          "steerStateIDs": [
            "Sacred_Attack03"
          ],
          "startNormalizedTime": 0.5,
          "endNormalizedTime": 0.5799999833106995,
          "angularSpeed": 240.0,
          "attackTrigger": "",
          "DGFCLAIDIFI": ""
        },
        {
          "$type": "IILHMBGONGM",
          "steerStateIDs": [
            "Sacred_Attack03"
          ],
          "startNormalizedTime": 0.5899999737739563,
          "endNormalizedTime": 0.6100000143051147,
          "angularSpeed": 180.0,
          "attackTrigger": "",
          "DGFCLAIDIFI": ""
        },
        {
          "$type": "IILHMBGONGM",
          "steerStateIDs": [
            "Sacred_Attack03"
          ],
          "startNormalizedTime": 0.6800000071525574,
          "endNormalizedTime": 0.7200000286102295,
          "angularSpeed": 180.0,
          "attackTrigger": "",
          "DGFCLAIDIFI": ""
        },
        {
          "$type": "IILHMBGONGM",
          "steerStateIDs": [
            "Sacred_Attack03"
          ],
          "startNormalizedTime": 0.8399999737739563,
          "endNormalizedTime": 0.8600000143051147,
          "angularSpeed": 180.0,
          "attackTrigger": "",
          "DGFCLAIDIFI": ""
        },
        {
          "$type": "IILHMBGONGM",
          "steerStateIDs": [
            "Sacred_Attack04_BS"
          ],
          "startNormalizedTime": 0.20000000298023224,
          "angularSpeed": 180.0,
          "attackTrigger": "",
          "DGFCLAIDIFI": ""
        },
        {
          "$type": "IILHMBGONGM",
          "steerStateIDs": [
            "Sacred_Attack04_Loop"
          ],
          "endNormalizedTime": 20.0,
          "angularSpeed": 240.0,
          "attackTrigger": "Attack04Target",
          "attackDistance": 7.0,
          "DGFCLAIDIFI": ""
        },
        {
          "$type": "IILHMBGONGM",
          "steerStateIDs": [
            "Sacred_Attack04_AS"
          ],
          "startNormalizedTime": 0.5460000038146973,
          "endNormalizedTime": 0.7009999752044678,
          "angularSpeed": 60.0,
          "attackTrigger": "",
          "DGFCLAIDIFI": ""
        },
        {
          "$type": "IILHMBGONGM",
          "steerStateIDs": [
            "Sacred_Attack05_BS"
          ],
          "startNormalizedTime": 0.2199999988079071,
          "angularSpeed": 60.0,
          "attackTrigger": "",
          "DGFCLAIDIFI": ""
        },
        {
          "$type": "IILHMBGONGM",
          "steerStateIDs": [
            "Sacred_Attack05_Loop"
          ],
          "startNormalizedTime": 0.10000000149011612,
          "endNormalizedTime": 0.25,
          "angularSpeed": 3600.0,
          "attackTrigger": "",
          "DGFCLAIDIFI": ""
        }
      ],
      "onAdded": [
        {
          "$type": "BOBCOJHOKKD",
          "param3": 1.0,
          "key": "Monster_Panther_Sacred",
          "param2": 0.0,
          "repeatTimes": 0.0
        }
      ]
    }
  },
  {
    "Default": {
      "$type": "CBPBEHLOHKI",
      "abilityName": "Monster_Panther_Sacred_Attack02_BulletHit",
      "onAbilityStart": [
        {
          "$type": "CAKDDHLKOAB",
          "bulletID": 42610041,
          "born": {
            "$type": "IAENDIPDFKD",
            "offset": {
              "KGEPIMHBMOL": -0.75,
              "JEBHCGDPFEJ": 1.0,
              "LPCHALMFFOD": 3.0
            },
            "direction": {
              "$type": "MEADFIJAHPG",
              "useCorrectDir": true,
              "maxAngleType": "Vertical",
              "maxAngle": 20.0,
              "startPoint": ""
            },
            "useRotation": true
          }
        }
      ]
    }
  },
  {
    "Default": {
      "$type": "CBPBEHLOHKI",
      "abilityName": "Monster_Panther_Sacred_Attack02_PlayBladeEffect",
      "onAbilityStart": [
        {
          "$type": "KBFEIHEAMBM",
          "rotationDampTime": "Eff_Monster_Panther_Sacred_SacredAttack02_Hit",
          "born": {
            "$type": "IAENDIPDFKD",
            "direction": {
              "$type": "MEADFIJAHPG",
              "useCorrectDir": true,
              "maxAngleType": "Vertical",
              "maxAngle": 20.0,
              "startPoint": ""
            },
            "useRotation": true
          },
          "PPPDJGDDOGD": 1.0,
          "AJDILHJFNKE": -1.0
        }
      ]
    }
  },
  {
    "Default": {
      "$type": "CBPBEHLOHKI",
      "abilityName": "Monster_Panther_Sacred_Attack02_GrassBlade",
      "modifiers": {
        "GrassBlade": {
          "modifierName": "",
          "IPFJJJGABPL": 100.0,
          "onAdded": [
            {
              "$type": "ANLOBBMKNIJ",
              "rotationDampTime": "Eff_Monster_Panther_Sacred_SacredAttack02_GrassBlade",
              "PPPDJGDDOGD": 1.0,
              "AJDILHJFNKE": -1.0
            }
          ]
        }
      },
      "onAdded": [
        {
          "$type": "PELJALPANCA",
          "modifierName": "GrassBlade"
        }
      ],
      "onAbilityStart": [
        {
          "$type": "INBCDALOHMP",
          "target": "Target",
          "targetPredicates": [
            {
              "$type": "NIMAPECDNKD",
              "entityTypes": [
                "Avatar",
                "Vehicle",
                "Partner"
              ]
            }
          ],
          "successActions": [
            {
              "$type": "AIFPLABJNMA",
              "attackEvent": {
                "attackPattern": {
                  "$type": "BELNOFAKNBA",
                  "triggerType": "TriggerNoRepeat",
                  "born": {
                    "$type": "JGEBAJLEBMO"
                  },
                  "OAHPDLJIADP": 1.0
                },
                "attackInfo": {
                  "attackTag": "",
                  "attenuationTag": "",
                  "attenuationGroup": "default",
                  "attackProperty": {
                    "actorGrassSubHurtDelta": 1.0,
                    "actorWindSubHurtDelta": 0.0,
                    "elementType": "Grass",
                    "IPFJJJGABPL": 30.0,
                    "strikeType": "Pierce",
                    "enBreak": 200.0,
                    "GLKMCMDJBIK": 0.0
                  },
                  "hitPattern": {
                    "onHitEffectName": "default",
                    "hitImpulseY": "",
                    "hitImpulseType": "LV5"
                  },
                  "canBeModifiedBy": "OriginOwner"
                }
              },
              "targetType": "Enemy"
            }
          ]
        }
      ]
    }
  },
  {
    "Default": {
      "$type": "CBPBEHLOHKI",
      "abilityName": "Monster_Panther_Sacred_Attack03_Hit3",
      "onAbilityStart": [
        {
          "$type": "CAKDDHLKOAB",
          "bulletID": 42610044,
          "born": {
            "$type": "IAENDIPDFKD",
            "offset": {
              "KGEPIMHBMOL": 0.0,
              "JEBHCGDPFEJ": 0.0,
              "LPCHALMFFOD": 0.0
            },
            "direction": {
              "$type": "AHGNBAPONLA",
              "angleOffset": {
                "KGEPIMHBMOL": 0.0,
                "JEBHCGDPFEJ": 0.0,
                "LPCHALMFFOD": 0.0
              }
            },
            "useRotation": true
          }
        },
        {
          "$type": "CAKDDHLKOAB",
          "bulletID": 42610044,
          "born": {
            "$type": "IAENDIPDFKD",
            "offset": {
              "KGEPIMHBMOL": 0.0,
              "JEBHCGDPFEJ": 0.0,
              "LPCHALMFFOD": 0.0
            },
            "direction": {
              "$type": "AHGNBAPONLA",
              "angleOffset": {
                "KGEPIMHBMOL": 0.0,
                "JEBHCGDPFEJ": 32.0,
                "LPCHALMFFOD": 0.0
              }
            },
            "useRotation": true
          }
        },
        {
          "$type": "CAKDDHLKOAB",
          "bulletID": 42610044,
          "born": {
            "$type": "IAENDIPDFKD",
            "offset": {
              "KGEPIMHBMOL": 0.0,
              "JEBHCGDPFEJ": 0.0,
              "LPCHALMFFOD": 0.0
            },
            "direction": {
              "$type": "AHGNBAPONLA",
              "angleOffset": {
                "KGEPIMHBMOL": 0.0,
                "JEBHCGDPFEJ": -32.0,
                "LPCHALMFFOD": 0.0
              }
            },
            "useRotation": true
          }
        },
        {
          "$type": "AIFPLABJNMA",
          "attackEvent": {
            "attackPattern": {
              "$type": "GMDIMKKHACA",
              "triggerType": "TriggerNoRepeat",
              "born": {
                "$type": "IAENDIPDFKD",
                "offset": {
                  "KGEPIMHBMOL": 0.0,
                  "JEBHCGDPFEJ": 0.0,
                  "LPCHALMFFOD": -0.5
                },
                "useRotation": true
              },
              "height": 2.0,
              "fanAngle": 90.0,
              "OAHPDLJIADP": 2.0
            },
            "attackInfo": {
              "attackTag": "",
              "attenuationTag": "",
              "attenuationGroup": "default",
              "attackProperty": {
                "actorGrassSubHurtDelta": 0.8999999761581421,
                "actorWindSubHurtDelta": 0.0,
                "elementType": "Grass",
                "IPFJJJGABPL": 30.0,
                "strikeType": "Pierce",
                "enBreak": 200.0,
                "GLKMCMDJBIK": 0.0
              },
              "hitPattern": {
                "onHitEffectName": "default",
                "hitImpulseY": "",
                "hitImpulseType": "LV4",
                "retreatType": "ByHitDirection",
                "hitHaltTimeScale": 0.009999999776482582
              }
            }
          },
          "targetType": "Enemy"
        }
      ]
    }
  },
  {
    "Default": {
      "$type": "CBPBEHLOHKI",
      "abilityName": "Monster_Panther_Sacred_Attack03_Explode",
      "modifiers": {
        "Monster_Panther_Attack03_HitSeq": {
          "modifierName": "",
          "elementDurability": 1.0,
          "IPFJJJGABPL": 100.0,
          "thinkInterval": 0.20000000298023224,
          "onAdded": [
            {
              "$type": "ANLOBBMKNIJ",
              "rotationDampTime": "Eff_Monster_Panther_Sacred_SacredAttack03_Hit3",
              "PPPDJGDDOGD": 1.0,
              "AJDILHJFNKE": -1.0
            }
          ],
          "onThinkInterval": [
            {
              "$type": "AIFPLABJNMA",
              "attackEvent": {
                "attackPattern": {
                  "$type": "GMDIMKKHACA",
                  "triggerType": "TriggerNoRepeat",
                  "born": {
                    "$type": "IAENDIPDFKD",
                    "useRotation": true
                  },
                  "height": 2.0,
                  "OAHPDLJIADP": 2.0
                },
                "attackInfo": {
                  "attackTag": "",
                  "attenuationTag": "Panther_Sacred_Attack03",
                  "attenuationGroup": "Panther_Sacred_Attack03",
                  "attackProperty": {
                    "actorGrassSubHurtDelta": 0.800000011920929,
                    "actorWindSubHurtDelta": 0.0,
                    "elementType": "Grass",
                    "IPFJJJGABPL": 30.0,
                    "strikeType": "Pierce",
                    "enBreak": 200.0,
                    "GLKMCMDJBIK": 0.0
                  },
                  "hitPattern": {
                    "onHitEffectName": "default",
                    "hitImpulseY": "",
                    "hitImpulseType": "LV4",
                    "retreatType": "ByHitDirection",
                    "hitHaltTimeScale": 0.009999999776482582
                  },
                  "canBeModifiedBy": "OriginOwner"
                }
              },
              "targetType": "Enemy"
            }
          ]
        }
      },
      "onAdded": [
        {
          "$type": "PELJALPANCA",
          "modifierName": "Monster_Panther_Attack03_HitSeq"
        }
      ]
    }
  },
  {
    "Default": {
      "$type": "CBPBEHLOHKI",
      "abilityName": "Monster_Panther_Sacred_SacredAttack04_SyncMove",
      "onAbilityStart": [
        {
          "$type": "NOKFLFEPBFJ",
          "normalizedTime": 0.8999999761581421
        }
      ]
    }
  },
  {
    "Default": {
      "$type": "CBPBEHLOHKI",
      "abilityName": "Monster_Panther_Sacred_SacredAttack04",
      "abilityMixins": [
        {
          "$type": "EKMHJKDLBJH",
          "stateIDs": [
            "Sacred_Attack04_Loop"
          ],
          "modifierName": "SacredAttack04HitCheck",
          "DGFCLAIDIFI": ""
        },
        {
          "$type": "EKMHJKDLBJH",
          "stateIDs": [
            "Sacred_Attack04_Loop"
          ],
          "modifierName": "SacredAttack04LoopEffect",
          "DGFCLAIDIFI": ""
        },
        {
          "$type": "EKMHJKDLBJH",
          "stateIDs": [
            "Sacred_Attack04_BS"
          ],
          "modifierName": "SacredAttack04ParamReset",
          "DGFCLAIDIFI": ""
        },
        {
          "$type": "EKMHJKDLBJH",
          "stateIDs": [
            "Sacred_Attack04_Loop"
          ],
          "modifierName": "SacredAttack04RunCheck",
          "DGFCLAIDIFI": ""
        }
      ],
      "modifiers": {
        "SacredAttack04LoopEffect": {
          "modifierName": "",
          "IPFJJJGABPL": 100.0,
          "onAdded": [
            {
              "$type": "ANLOBBMKNIJ",
              "rotationDampTime": "Eff_Monster_Panther_Sacred_SacredAttack04_Loop",
              "PPPDJGDDOGD": 1.0,
              "AJDILHJFNKE": -1.0
            }
          ]
        },
        "SacredAttack04ParamReset": {
          "modifierName": "",
          "elementDurability": 0.5,
          "IPFJJJGABPL": 100.0,
          "onAdded": [
            {
              "$type": "GNAEJNBIFAC",
              "PLLJBINMGJK": "Attack04Target"
            }
          ]
        },
        "SacredAttack04RunCheck": {
          "modifierName": "",
          "IPFJJJGABPL": 100.0,
          "thinkInterval": 0.10000000149011612,
          "onThinkInterval": [
            {
              "$type": "INBCDALOHMP",
              "target": "SelfAttackTarget",
              "targetPredicates": [
                {
                  "$type": "FMBJAJFLDIP",
                  "logic": "LesserOrEqual",
                  "param3": 7.0,
                  "DDALGNLEHOD": ""
                }
              ],
              "successActions": [
                {
                  "$type": "BLCCGIPAOIP",
                  "PLLJBINMGJK": "Attack04Target",
                  "mpTriggerOnRemote": true
                }
              ]
            }
          ]
        },
        "SacredAttack04HitCheck": {
          "modifierName": "",
          "IPFJJJGABPL": 100.0,
          "modifierMixins": [
            {
              "$type": "JJIHJPCPPGO",
              "abilityStates": [
                "ElementFrozen",
                "ElementPetrifaction"
              ],
              "reject": true,
              "modifierName": "SacredAttack04Hit"
            }
          ]
        },
        "SacredAttack04Hit": {
          "modifierName": "",
          "IPFJJJGABPL": 100.0,
          "thinkInterval": 0.10000000149011612,
          "onThinkInterval": [
            {
              "$type": "AIFPLABJNMA",
              "attackEvent": {
                "attackPattern": {
                  "$type": "JHKEHNJBMOF",
                  "triggerType": "TriggerNoRepeat",
                  "born": {
                    "$type": "IAENDIPDFKD",
                    "offset": {
                      "KGEPIMHBMOL": 0.0,
                      "JEBHCGDPFEJ": 0.0,
                      "LPCHALMFFOD": 0.0
                    },
                    "useRotation": true
                  },
                  "size": {
                    "KGEPIMHBMOL": 2.0,
                    "JEBHCGDPFEJ": 4.0,
                    "LPCHALMFFOD": 3.0
                  }
                },
                "attackInfo": {
                  "attackTag": "",
                  "attenuationTag": "",
                  "attenuationGroup": "default",
                  "attackProperty": {
                    "actorGrassSubHurtDelta": 0.10000000149011612,
                    "actorWindSubHurtDelta": 0.0,
                    "elementType": "Grass",
                    "IPFJJJGABPL": 30.0,
                    "strikeType": "Blunt",
                    "enBreak": 200.0,
                    "GLKMCMDJBIK": 0.0
                  },
                  "hitPattern": {
                    "onHitEffectName": "default",
                    "hitImpulseY": "",
                    "hitImpulseType": "LV3",
                    "retreatType": "ByTangent",
                    "hitHaltTimeScale": 0.05000000074505806
                  }
                }
              },
              "targetType": "Enemy"
            },
            {
              "$type": "INBCDALOHMP",
              "otherTargets": {
                "$type": "IJOFJOGLDHE",
                "shapeName": "CircleR3",
                "campTargetType": "Enemy",
                "doOffStage": 1.0
              },
              "targetPredicates": [
                {
                  "$type": "CNGGLKHONAA",
                  "key": "_COMMON_GADGET_ISSUMMON",
                  "param3": 0.0,
                  "compareType": "MoreThan"
                }
              ],
              "successActions": [
                {
                  "$type": "PELJALPANCA",
                  "target": "Target",
                  "modifierName": "Kill_Summon_Gadget"
                }
              ]
            }
          ]
        },
        "Kill_Summon_Gadget": {
          "modifierName": "",
          "IPFJJJGABPL": 100.0,
          "onAdded": [
            {
              "$type": "NCFFNDHGCMH"
            }
          ]
        }
      }
    }
  },
  {
    "Default": {
      "$type": "CBPBEHLOHKI",
      "abilityName": "Monster_Panther_Sacred_Attack05_Dither",
      "modifiers": {
        "DitherControl": {
          "modifierName": "",
          "elementDurability": 2.0,
          "IPFJJJGABPL": 100.0,
          "onAdded": [
            {
              "$type": "AKIIMECIGKE",
              "duration": 1.6670000553131104
            }
          ]
        }
      },
      "onAbilityStart": [
        {
          "$type": "PELJALPANCA",
          "modifierName": "DitherControl"
        }
      ]
    }
  },
  {
    "Default": {
      "$type": "CBPBEHLOHKI",
      "abilityName": "Monster_Panther_Sacred_Attack05_Collider",
      "modifiers": {
        "ColliderControl": {
          "modifierName": "",
          "elementDurability": 1.100000023841858,
          "IPFJJJGABPL": 100.0,
          "modifierMixins": [
            {
              "$type": "CIGJDPCDOEB",
              "onAdded": [
                {
                  "$type": "FDFGJPNDKEA",
                  "pushColliderNames": [
                    "PushCollider"
                  ]
                }
              ],
              "onRemoved": [
                {
                  "$type": "FDFGJPNDKEA",
                  "pushColliderNames": [
                    "PushCollider"
                  ],
                  "setEnable": true
                }
              ]
            }
          ]
        },
        "StateControl": {
          "modifierName": "",
          "elementDurability": 0.5,
          "IPFJJJGABPL": 100.0,
          "modifierMixins": [
            {
              "$type": "CIGJDPCDOEB",
              "onAdded": [
                {
                  "$type": "HBNEMPLJCMB",
                  "hide": true
                },
                {
                  "$type": "PELJALPANCA",
                  "modifierName": "UnderGround_Invincible"
                },
                {
                  "$type": "PELJALPANCA",
                  "modifierName": "UnderGround_DenyLockOn"
                }
              ],
              "onRemoved": [
                {
                  "$type": "HBNEMPLJCMB"
                },
                {
                  "$type": "PFKNEFGOHIH",
                  "modifierName": "UnderGround_Invincible"
                },
                {
                  "$type": "PFKNEFGOHIH",
                  "modifierName": "UnderGround_DenyLockOn"
                }
              ]
            }
          ],
          "onAdded": [
            {
              "$type": "PJENOLFAFMG"
            }
          ],
          "onRemoved": [
            {
              "$type": "PJENOLFAFMG",
              "KGGEDGKGLDD": true
            }
          ]
        },
        "UnderGround_Invincible": {
          "modifierName": "",
          "IPFJJJGABPL": 100.0,
          "state": "Invincible"
        },
        "UnderGround_DenyLockOn": {
          "modifierName": "",
          "IPFJJJGABPL": 100.0,
          "state": "DenyLockOn"
        }
      },
      "onAbilityStart": [
        {
          "$type": "PELJALPANCA",
          "modifierName": "StateControl"
        },
        {
          "$type": "PELJALPANCA",
          "modifierName": "ColliderControl"
        }
      ]
    }
  },
  {
    "Default": {
      "$type": "CBPBEHLOHKI",
      "abilityName": "Monster_Panther_Sacred_Attack05_Find",
      "onAbilityStart": [
        {
          "$type": "BHPDPACKKNI",
          "target": "SelfAttackTarget",
          "born": {
            "$type": "JHEBKCMEMLN",
            "offset": {
              "KGEPIMHBMOL": 0.0,
              "JEBHCGDPFEJ": 10.0,
              "LPCHALMFFOD": -7.71999979019165
            },
            "bornRandom": {
              "$type": "OJKHDGHBNKP",
              "minRandomRange": 0.05000000074505806,
              "maxRandomRange": 0.15000000596046448
            },
            "onGround": true
          },
          "hitSceneType": "BlinkHitSceneTestByThreeSegments",
          "limitY": 18.0
        },
        {
          "$type": "KBFEIHEAMBM",
          "rotationDampTime": "Eff_Monster_Panther_Sacred_SacredAttack05_AirFog",
          "born": {
            "$type": "DNEKFAOHKBC",
            "offset": {
              "KGEPIMHBMOL": 0.0,
              "JEBHCGDPFEJ": 2.0,
              "LPCHALMFFOD": 0.0
            }
          },
          "PPPDJGDDOGD": 1.0,
          "AJDILHJFNKE": -1.0
        },
        {
          "$type": "KBFEIHEAMBM",
          "target": "SelfAttackTarget",
          "rotationDampTime": "Eff_Monster_Panther_Sacred_SacredAttack05_Warning",
          "born": {
            "$type": "JHEBKCMEMLN",
            "onGround": true
          },
          "PPPDJGDDOGD": 1.0,
          "AJDILHJFNKE": -1.0
        }
      ]
    }
  },
  {
    "Default": {
      "$type": "CBPBEHLOHKI",
      "abilityName": "Monster_Panther_Sacred_Attack05_Blink",
      "onAbilityStart": [
        {
          "$type": "KBFEIHEAMBM",
          "rotationDampTime": "Eff_Monster_Panther_Sacred_SacredAttack05_AirFog_AS",
          "born": {
            "$type": "DNEKFAOHKBC"
          },
          "PPPDJGDDOGD": 1.0,
          "AJDILHJFNKE": -1.0
        },
        {
          "$type": "PAMDPDLLAPG",
          "toPos": {
            "$type": "DNEKFAOHKBC"
          }
        },
        {
          "$type": "IFCMHHHOLCK"
        }
      ]
    }
  },
  {
    "Default": {
      "$type": "CBPBEHLOHKI",
      "abilityName": "Monster_Panther_Sacred_Attack05_Hit",
      "onAbilityStart": [
        {
          "$type": "KFCDMIMBBLD",
          "born": {
            "$type": "IAENDIPDFKD",
            "onGround": true,
            "useRotation": true
          },
          "lifeByOwnerV2": true,
          "gadgetID": 42610043
        }
      ]
    }
  },
  {
    "Default": {
      "$type": "CBPBEHLOHKI",
      "abilityName": "Monster_Panther_Sacred_Attack05_Explode",
      "modifiers": {
        "Zone_Handler": {
          "modifierName": "",
          "elementDurability": 1.0,
          "IPFJJJGABPL": 100.0,
          "onAdded": [
            {
              "$type": "KBFEIHEAMBM",
              "rotationDampTime": "Eff_Monster_Panther_Sacred_SacredAttack05_Hit",
              "born": {
                "$type": "IAENDIPDFKD",
                "useRotation": true
              },
              "PPPDJGDDOGD": 1.0,
              "AJDILHJFNKE": -1.0
            },
            {
              "$type": "AIFPLABJNMA",
              "attackEvent": {
                "attackPattern": {
                  "$type": "GMDIMKKHACA",
                  "triggerType": "TriggerNoRepeat",
                  "born": {
                    "$type": "IAENDIPDFKD",
                    "offset": {
                      "KGEPIMHBMOL": 0.0,
                      "JEBHCGDPFEJ": -1.0,
                      "LPCHALMFFOD": 0.0
                    },
                    "useRotation": true
                  },
                  "height": 4.0,
                  "OAHPDLJIADP": 6.0
                },
                "attackInfo": {
                  "attackTag": "",
                  "attenuationTag": "",
                  "attenuationGroup": "default",
                  "attackProperty": {
                    "actorGrassSubHurtDelta": 0.800000011920929,
                    "actorWindSubHurtDelta": 0.0,
                    "elementType": "Grass",
                    "IPFJJJGABPL": 30.0,
                    "strikeType": "Blunt",
                    "enBreak": 200.0,
                    "attackType": "Melee",
                    "GLKMCMDJBIK": 0.0
                  },
                  "hitPattern": {
                    "onHitEffectName": "default",
                    "hitImpulseY": "",
                    "hitImpulseType": "LV4",
                    "hitHaltTimeScale": 0.009999999776482582
                  },
                  "canBeModifiedBy": "OriginOwner"
                }
              },
              "targetType": "Enemy"
            }
          ],
          "onRemoved": [
            {
              "$type": "KBFEIHEAMBM",
              "rotationDampTime": "Eff_Monster_Panther_Sacred_SacredAttack05_Hit02",
              "born": {
                "$type": "IAENDIPDFKD",
                "useRotation": true
              },
              "PPPDJGDDOGD": 1.0,
              "AJDILHJFNKE": -1.0
            },
            {
              "$type": "AIFPLABJNMA",
              "attackEvent": {
                "attackPattern": {
                  "$type": "GMDIMKKHACA",
                  "triggerType": "TriggerNoRepeat",
                  "born": {
                    "$type": "IAENDIPDFKD",
                    "offset": {
                      "KGEPIMHBMOL": 0.0,
                      "JEBHCGDPFEJ": -1.0,
                      "LPCHALMFFOD": 0.0
                    },
                    "useRotation": true
                  },
                  "height": 4.0,
                  "OAHPDLJIADP": 8.0
                },
                "attackInfo": {
                  "attackTag": "",
                  "attenuationTag": "",
                  "attenuationGroup": "default",
                  "attackProperty": {
                    "actorGrassSubHurtDelta": 1.0,
                    "actorWindSubHurtDelta": 0.0,
                    "elementType": "Grass",
                    "IPFJJJGABPL": 30.0,
                    "strikeType": "Blunt",
                    "enBreak": 200.0,
                    "attackType": "Melee",
                    "GLKMCMDJBIK": 0.0
                  },
                  "hitPattern": {
                    "onHitEffectName": "default",
                    "hitImpulseY": "",
                    "hitImpulseType": "LV5",
                    "hitHaltTimeScale": 0.009999999776482582
                  },
                  "canBeModifiedBy": "OriginOwner"
                }
              },
              "targetType": "Enemy"
            },
            {
              "$type": "NCFFNDHGCMH"
            }
          ]
        }
      },
      "onAdded": [
        {
          "$type": "PELJALPANCA",
          "modifierName": "Zone_Handler"
        }
      ]
    }
  },
  {
    "Default": {
      "$type": "CBPBEHLOHKI",
      "abilityName": "Monster_Panther_Sacred_HeadControlOff",
      "abilityMixins": [
        {
          "$type": "AOKOIIHJJPJ",
          "alertness": [
            0,
            1
          ],
          "modifierName": "HeadControl_Disable"
        }
      ],
      "modifiers": {
        "HeadControl_Disable": {
          "modifierName": "",
          "IPFJJJGABPL": 100.0,
          "onAdded": [
            {
              "$type": "GPGGCODEFIF"
            }
          ],
          "onRemoved": [
            {
              "$type": "GPGGCODEFIF",
              "enable": true
            }
          ]
        }
      }
    }
  },
  {
    "Default": {
      "$type": "CBPBEHLOHKI",
      "abilityName": "Monster_Panther_Sacred_SacredEnergy_Accum"
    }
  },
  {
    "Default": {
      "$type": "CBPBEHLOHKI",
      "abilityName": "Monster_Panther_Sacred_SacredEnergy_Detect",
      "onAbilityStart": [
        {
          "$type": "MPAGCPPAIHJ",
          "key": "_Sacred_SacredEnergy_Pos",
          "born": {
            "$type": "IAENDIPDFKD",
            "offset": {
              "KGEPIMHBMOL": 0.0,
              "JEBHCGDPFEJ": 0.0,
              "LPCHALMFFOD": 3.0
            },
            "useRotation": true
          }
        },
        {
          "$type": "CAKDDHLKOAB",
          "bulletID": 42610037,
          "born": {
            "$type": "IAENDIPDFKD",
            "offset": {
              "KGEPIMHBMOL": 0.0,
              "JEBHCGDPFEJ": 1.0,
              "LPCHALMFFOD": 2.0
            },
            "useRotation": true
          },
          "lifeByOwnerV2": true
        }
      ]
    }
  },
  {
    "Default": {
      "$type": "CBPBEHLOHKI",
      "abilityName": "Monster_Panther_Sacred_SacredEnergy_Create",
      "modifiers": {
        "CreateSacredEnergy": {
          "modifierName": "",
          "elementDurability": 0.10000000149011612,
          "IPFJJJGABPL": 100.0,
          "onAdded": [
            {
              "$type": "BEMPFJGAPHG",
              "target": "Applier",
              "dstTarget": "Self",
              "srcKey": "_Sacred_SacredEnergy_Pos_0",
              "dstKey": "_Sacred_SacredEnergy_Pos_0"
            },
            {
              "$type": "BEMPFJGAPHG",
              "target": "Applier",
              "dstTarget": "Self",
              "srcKey": "_Sacred_SacredEnergy_Pos_1",
              "dstKey": "_Sacred_SacredEnergy_Pos_1"
            },
            {
              "$type": "BEMPFJGAPHG",
              "target": "Applier",
              "dstTarget": "Self",
              "srcKey": "_Sacred_SacredEnergy_Pos_2",
              "dstKey": "_Sacred_SacredEnergy_Pos_2"
            }
          ],
          "onRemoved": [
            {
              "$type": "KFCDMIMBBLD",
              "born": {
                "$type": "ICKMMAHFNIM",
                "positionKey": "_Sacred_SacredEnergy_Pos",
                "directionKey": ""
              },
              "sightGroupWithOwner": true,
              "lifeByOwnerV2": true,
              "gadgetID": 42610039,
              "campID": 4001,
              "byServer": true
            }
          ]
        }
      },
      "onAbilityStart": [
        {
          "$type": "MPAGCPPAIHJ",
          "key": "_Sacred_SacredEnergy_Pos",
          "born": {
            "$type": "JGEBAJLEBMO",
            "onGround": true,
            "alongGround": true
          }
        },
        {
          "$type": "PELJALPANCA",
          "target": "OriginOwner",
          "modifierName": "CreateSacredEnergy"
        },
        {
          "$type": "NCFFNDHGCMH"
        }
      ]
    }
  },
  {
    "Default": {
      "$type": "CBPBEHLOHKI",
      "abilityName": "Monster_Panther_Sacred_SacredEnergy_CreateO",
      "modifiers": {
        "CreateSacredEnergy": {
          "modifierName": "",
          "elementDurability": 0.10000000149011612,
          "IPFJJJGABPL": 100.0,
          "onAdded": [
            {
              "$type": "BEMPFJGAPHG",
              "target": "Applier",
              "dstTarget": "Self",
              "srcKey": "_Sacred_SacredEnergy_Pos_0",
              "dstKey": "_Sacred_SacredEnergy_Pos_0"
            },
            {
              "$type": "BEMPFJGAPHG",
              "target": "Applier",
              "dstTarget": "Self",
              "srcKey": "_Sacred_SacredEnergy_Pos_1",
              "dstKey": "_Sacred_SacredEnergy_Pos_1"
            },
            {
              "$type": "BEMPFJGAPHG",
              "target": "Applier",
              "dstTarget": "Self",
              "srcKey": "_Sacred_SacredEnergy_Pos_2",
              "dstKey": "_Sacred_SacredEnergy_Pos_2"
            }
          ],
          "onRemoved": [
            {
              "$type": "KFCDMIMBBLD",
              "born": {
                "$type": "ICKMMAHFNIM",
                "positionKey": "_Sacred_SacredEnergy_Pos",
                "directionKey": ""
              },
              "sightGroupWithOwner": true,
              "lifeByOwnerV2": true,
              "gadgetID": 42610039,
              "campID": 4001,
              "byServer": true
            }
          ]
        }
      },
      "onAbilityStart": [
        {
          "$type": "MPAGCPPAIHJ",
          "key": "_Sacred_SacredEnergy_Pos",
          "born": {
            "$type": "IAENDIPDFKD",
            "onGround": true,
            "alongGround": true,
            "useRotation": true
          }
        },
        {
          "$type": "PELJALPANCA",
          "target": "OriginOwner",
          "modifierName": "CreateSacredEnergy"
        },
        {
          "$type": "NCFFNDHGCMH"
        }
      ]
    }
  },
  {
    "Default": {
      "$type": "CBPBEHLOHKI",
      "abilityName": "Monster_Panther_Sacred_SacredEnergy_Gadget",
      "modifiers": {
        "Create_Accum_Bullet": {
          "modifierName": "",
          "elementDurability": 0.800000011920929,
          "IPFJJJGABPL": 100.0,
          "onAdded": [
            {
              "$type": "KBFEIHEAMBM",
              "rotationDampTime": "Eff_Monster_Panther_Sacred_SacredAttack05_SacredEnergy",
              "PPPDJGDDOGD": 1.0,
              "AJDILHJFNKE": -1.0
            }
          ],
          "onRemoved": [
            {
              "$type": "MDIAKCCDEAL",
              "otherTargets": {
                "$type": "MEOIGEJCJLB",
                "topLimit": 1,
                "entityTypePriority": [
                  "Gadget"
                ],
                "configID": 42610039
              }
            },
            {
              "$type": "CAKDDHLKOAB",
              "target": "SelfAttackTarget",
              "bulletID": 42610038,
              "born": {
                "$type": "IAENDIPDFKD",
                "useRotation": true
              },
              "lifeByOwnerV2": true
            },
            {
              "$type": "DOGDNJHJADD"
            }
          ]
        },
        "DarkHoundGadget_DelayHandler_Effect": {
          "modifierName": "",
          "elementDurability": 1.9500000476837158,
          "IPFJJJGABPL": 100.0,
          "onRemoved": [
            {
              "$type": "KBFEIHEAMBM",
              "rotationDampTime": "Eff_Monster_Panther_Sacred_SacredAttack05_SacredEnergy_Hit",
              "PPPDJGDDOGD": 1.0,
              "AJDILHJFNKE": -1.0
            }
          ]
        },
        "DarkHoundGadget_DelayHandler": {
          "modifierName": "",
          "elementDurability": 2.0,
          "IPFJJJGABPL": 100.0,
          "onRemoved": [
            {
              "$type": "PELJALPANCA",
              "modifierName": "DarkHoundGadget_ChargeState"
            },
            {
              "$type": "FDFGJPNDKEA",
              "pushColliderNames": [
                "PushCollider"
              ],
              "setEnable": true
            }
          ]
        },
        "DarkHoundGadget_ChargeState": {
          "modifierName": "",
          "elementDurability": 6.0,
          "IPFJJJGABPL": 100.0,
          "modifierMixins": [
            {
              "$type": "HBPDEMIJCDL",
              "chargeBarElementType": "Grass",
              "initialValue": 0.0,
              "param2": 10.0
            },
            {
              "$type": "MLJAPFBGEEH",
              "globalValueKey": "_CHARGEBAR_VALUE",
              "gvInTalk": 0.0,
              "valueSteps": [
                9.5,
                10.5
              ],
              "modifierNameSteps": [
                "DarkHoundGadget_ChargeEnd"
              ]
            }
          ],
          "onAdded": [
            {
              "$type": "ANLOBBMKNIJ",
              "rotationDampTime": "Eff_Monster_Panther_Sacred_SacredEnergy",
              "PPPDJGDDOGD": 1.0,
              "AJDILHJFNKE": -1.0
            }
          ],
          "onRemoved": [
            {
              "$type": "AENLGPIPPAK",
              "hitBoxNames": [
                "HitBox"
              ]
            },
            {
              "$type": "FDFGJPNDKEA",
              "pushColliderNames": [
                "PushCollider_Occluder"
              ]
            },
            {
              "$type": "FDFGJPNDKEA",
              "pushColliderNames": [
                "PushCollider"
              ]
            },
            {
              "$type": "KBFEIHEAMBM",
              "predicates": [
                {
                  "$type": "CNGGLKHONAA",
                  "target": "Self",
                  "key": "_CHARGEBAR_VALUE",
                  "param3": 9.0,
                  "compareType": "LessAndEqual"
                }
              ],
              "rotationDampTime": "Eff_Monster_Panther_Sacred_SacredEnergyDisappear",
              "PPPDJGDDOGD": 1.0,
              "AJDILHJFNKE": -1.0
            },
            {
              "$type": "CAKDDHLKOAB",
              "target": "OriginOwner",
              "predicates": [
                {
                  "$type": "CNGGLKHONAA",
                  "target": "Self",
                  "key": "_CHARGEBAR_VALUE",
                  "param3": 9.0,
                  "compareType": "LessAndEqual"
                }
              ],
              "bulletID": 42610042,
              "born": {
                "$type": "KLPANPDGHHA",
                "offset": {
                  "KGEPIMHBMOL": 0.0,
                  "JEBHCGDPFEJ": 0.0,
                  "LPCHALMFFOD": 0.0
                },
                "direction": {
                  "$type": "LHBLDEOLGKF",
                  "angleOffset": {
                    "KGEPIMHBMOL": 0.0,
                    "JEBHCGDPFEJ": 0.0,
                    "LPCHALMFFOD": 0.0
                  },
                  "attachPointName": "RootNode",
                  "attachPointTargetType": "Self"
                },
                "useRotation": true,
                "attachPointName": "RootNode",
                "attachPointTargetType": "Self"
              },
              "trackTarget": "Target",
              "lifeByOwnerV2": true
            },
            {
              "$type": "PJENOLFAFMG"
            },
            {
              "$type": "PELJALPANCA",
              "modifierName": "Gadget_Invincible"
            },
            {
              "$type": "PELJALPANCA",
              "modifierName": "Gadget_DenyLockOn"
            },
            {
              "$type": "PELJALPANCA",
              "modifierName": "Gadget_IsGhostToEnemy"
            },
            {
              "$type": "PELJALPANCA",
              "modifierName": "Gadget_IsGhostToAllied"
            }
          ],
          "onBeingHit": [
            {
              "$type": "MDIAKCCDEAL",
              "target": "Target"
            },
            {
              "$type": "KBFEIHEAMBM",
              "rotationDampTime": "Eff_Monster_Panther_Sacred_SacredEnergyBeHit",
              "PPPDJGDDOGD": 1.0,
              "AJDILHJFNKE": -1.0
            },
            {
              "$type": "PMJJNECJCLE",
              "predicates": [
                {
                  "$type": "HHHMNCNPBDK",
                  "predicates": [
                    {
                      "$type": "PNLEEOAGKLD",
                      "element": "Grass"
                    }
                  ]
                }
              ],
              "param3": 10.0,
              "param2": 0.0,
              "repeatTimes": 0.0
            },
            {
              "$type": "PMJJNECJCLE",
              "predicates": [
                {
                  "$type": "HHHMNCNPBDK",
                  "predicates": [
                    {
                      "$type": "PNLEEOAGKLD",
                      "element": "Wind"
                    },
                    {
                      "$type": "PNLEEOAGKLD",
                      "element": "Fire"
                    },
                    {
                      "$type": "PNLEEOAGKLD",
                      "element": "Water"
                    },
                    {
                      "$type": "PNLEEOAGKLD",
                      "element": "Ice"
                    },
                    {
                      "$type": "PNLEEOAGKLD",
                      "element": "Electric"
                    },
                    {
                      "$type": "PNLEEOAGKLD",
                      "element": "Rock"
                    }
                  ]
                }
              ],
              "param3": 1.6699999570846558,
              "param2": 0.0,
              "repeatTimes": 0.0
            }
          ]
        },
        "Gadget_Invincible": {
          "modifierName": "",
          "IPFJJJGABPL": 100.0,
          "state": "Invincible"
        },
        "Gadget_DenyLockOn": {
          "modifierName": "",
          "IPFJJJGABPL": 100.0,
          "state": "DenyLockOn"
        },
        "Gadget_IsGhostToEnemy": {
          "modifierName": "",
          "IPFJJJGABPL": 100.0,
          "state": "IsGhostToEnemy"
        },
        "Gadget_IsGhostToAllied": {
          "modifierName": "",
          "IPFJJJGABPL": 100.0,
          "state": "IsGhostToAllied"
        },
        "DarkHoundGadget_ChargeEnd": {
          "modifierName": "",
          "IPFJJJGABPL": 100.0,
          "onAdded": [
            {
              "$type": "PELJALPANCA",
              "modifierName": "FireHolyHound_Timer"
            },
            {
              "$type": "AENLGPIPPAK",
              "hitBoxNames": [
                "HitBox"
              ]
            },
            {
              "$type": "PFKNEFGOHIH",
              "modifierName": "DarkHoundGadget_ChargeState"
            }
          ]
        },
        "FireHolyHound_Timer": {
          "modifierName": "",
          "elementDurability": 0.6499999761581421,
          "IPFJJJGABPL": 100.0,
          "onAdded": [
            {
              "$type": "KBFEIHEAMBM",
              "rotationDampTime": "Eff_Monster_Panther_Sacred_SacredEnergyTransform",
              "PPPDJGDDOGD": 1.0,
              "AJDILHJFNKE": -1.0
            },
            {
              "$type": "INBCDALOHMP",
              "target": "Other",
              "otherTargets": {
                "$type": "IJOFJOGLDHE",
                "topLimit": 1,
                "entityTypePriority": [
                  "Avatar"
                ],
                "sortType": "Nearest",
                "shapeName": "CircleR50",
                "campTargetType": "Enemy",
                "doOffStage": 1.0
              },
              "successActions": [
                {
                  "$type": "PELJALPANCA",
                  "target": "TargetTeam",
                  "modifierName": "UNIQUE_Panther_SacredEnergy_TargetTeam"
                },
                {
                  "$type": "CAKDDHLKOAB",
                  "target": "Target",
                  "bulletID": 42610040,
                  "born": {
                    "$type": "KLPANPDGHHA",
                    "offset": {
                      "KGEPIMHBMOL": 0.0,
                      "JEBHCGDPFEJ": 0.0,
                      "LPCHALMFFOD": 0.0
                    },
                    "direction": {
                      "$type": "LHBLDEOLGKF",
                      "angleOffset": {
                        "KGEPIMHBMOL": 0.0,
                        "JEBHCGDPFEJ": 0.0,
                        "LPCHALMFFOD": 0.0
                      },
                      "attachPointName": "RootNode",
                      "attachPointTargetType": "Self"
                    },
                    "useRotation": true,
                    "attachPointName": "RootNode",
                    "attachPointTargetType": "Self"
                  },
                  "trackTarget": "Target",
                  "lifeByOwnerV2": true
                }
              ]
            }
          ]
        },
        "UNIQUE_Panther_SacredEnergy_TargetTeam": {
          "stacking": "Unique",
          "modifierName": "",
          "forceTriggerWhenChangeAuthority": true,
          "elementDurability": 10.0,
          "IPFJJJGABPL": 100.0,
          "modifierMixins": [
            {
              "$type": "NKEPLGAIEJM",
              "modifierName": "Panther_SacredEnergy_Target"
            }
          ]
        },
        "Panther_SacredEnergy_Target": {
          "modifierName": "",
          "IPFJJJGABPL": 100.0,
          "onAdded": [
            {
              "$type": "BOBCOJHOKKD",
              "param3": 1.0,
              "key": "SacredEnergy_Target_Panther",
              "param2": 0.0,
              "repeatTimes": 0.0
            }
          ],
          "onRemoved": [
            {
              "$type": "BOBCOJHOKKD",
              "param3": 0.0,
              "key": "SacredEnergy_Target_Panther",
              "param2": 0.0,
              "repeatTimes": 0.0
            }
          ]
        }
      },
      "onAdded": [
        {
          "$type": "BOBCOJHOKKD",
          "param3": 1.0,
          "key": "Panther_SacredEnergy_Gadget",
          "param2": 0.0,
          "repeatTimes": 0.0
        },
        {
          "$type": "PELJALPANCA",
          "target": "OriginOwner",
          "modifierName": "Create_Accum_Bullet"
        },
        {
          "$type": "PELJALPANCA",
          "modifierName": "DarkHoundGadget_DelayHandler"
        },
        {
          "$type": "PELJALPANCA",
          "modifierName": "DarkHoundGadget_DelayHandler_Effect"
        },
        {
          "$type": "BOBCOJHOKKD",
          "param3": 0.0,
          "key": "_CHARGEBAR_VALUE",
          "param2": 0.0,
          "repeatTimes": 0.0
        },
        {
          "$type": "FDFGJPNDKEA",
          "pushColliderNames": [
            "PushCollider_Occluder"
          ],
          "setEnable": true
        },
        {
          "$type": "FDFGJPNDKEA",
          "pushColliderNames": [
            "PushCollider"
          ]
        }
      ]
    }
  },
  {
    "Default": {
      "$type": "CBPBEHLOHKI",
      "abilityName": "Monster_Panther_Sacred_SacredEnergy_BridgeToMonster",
      "modifiers": {
        "UNIQUE_Have_Panther_SacredEnergy_Team": {
          "timeScale": "Level",
          "stacking": "Unique",
          "modifierName": "",
          "forceTriggerWhenChangeAuthority": true,
          "elementDurability": 10.0,
          "IPFJJJGABPL": 100.0,
          "thinkInterval": 1.0,
          "modifierMixins": [
            {
              "$type": "NKEPLGAIEJM",
              "modifierName": "Have_Panther_SacredEnergy"
            },
            {
              "$type": "CCNIOPJEHOE",
              "globalValueTarget": "Applier",
              "globalValueKey": "SacredEntityDie",
              "valueSteps": [
                0.5,
                1.5
              ],
              "modifierNameSteps": [
                "ClearSacredBuff_Panther"
              ]
            }
          ],
          "state": "UnlockFrequencyLimit",
          "onAdded": [
            {
              "$type": "KBODPNEEFGD",
              "target": "Team",
              "modifierName": "UNIQUE_Panther_SacredEnergy_TargetTeam"
            }
          ],
          "onThinkInterval": [
            {
              "$type": "DLLGNJPHFDE",
              "target": "CurTeamAvatars",
              "shieldHP": true,
              "predicates": [
                {
                  "$type": "INGPMALFKLK"
                },
                {
                  "$type": "BCFNGJHILAG",
                  "predicates": [
                    {
                      "$type": "GEODPIOLLCI"
                    }
                  ]
                }
              ],
              "CKDBFHCIJEK": 0.019999999552965164,
              "lethal": false,
              "enableInvincible": true,
              "enableLockHP": true,
              "disableWhenLoading": true,
              "useMeta": true,
              "BJKGFBGEFPB": ""
            },
            {
              "$type": "KBODPNEEFGD",
              "predicates": [
                {
                  "$type": "BCFNGJHILAG",
                  "predicates": [
                    {
                      "$type": "IMPNKNCABJD",
                      "target": "Applier"
                    }
                  ]
                }
              ],
              "modifierName": "UNIQUE_Have_Panther_SacredEnergy_Team"
            }
          ],
          "onThinkIntervalIsFixedUpdate": true,
          "modifierTags": [
            "Corruption"
          ]
        },
        "ClearSacredBuff_Panther": {
          "modifierName": "",
          "elementDurability": 1.0,
          "IPFJJJGABPL": 100.0,
          "onAdded": [
            {
              "$type": "KBODPNEEFGD",
              "target": "Team",
              "modifierName": "UNIQUE_Panther_SacredEnergy_TargetTeam"
            },
            {
              "$type": "KBODPNEEFGD",
              "target": "Team",
              "modifierName": "UNIQUE_Have_Panther_SacredEnergy_Team"
            }
          ],
          "onRemoved": [
            {
              "$type": "KBODPNEEFGD",
              "target": "Team",
              "modifierName": "UNIQUE_Panther_SacredEnergy_TargetTeam"
            },
            {
              "$type": "KBODPNEEFGD",
              "target": "Team",
              "modifierName": "UNIQUE_Have_Panther_SacredEnergy_Team"
            }
          ]
        },
        "Have_Panther_SacredEnergy": {
          "modifierName": "",
          "IPFJJJGABPL": 100.0,
          "onAdded": [
            {
              "$type": "BOBCOJHOKKD",
              "param3": 1.0,
              "key": "SacredEnergy_Panther",
              "param2": 0.0,
              "repeatTimes": 0.0
            },
            {
              "$type": "ANLOBBMKNIJ",
              "rotationDampTime": "Eff_Monster_Panther_Sacred_SacredEnergyOnPlayer",
              "PPPDJGDDOGD": 1.0,
              "AJDILHJFNKE": -1.0
            }
          ],
          "onRemoved": [
            {
              "$type": "BOBCOJHOKKD",
              "param3": 0.0,
              "key": "SacredEnergy_Panther",
              "param2": 0.0,
              "repeatTimes": 0.0
            }
          ],
          "onAttackLanded": [
            {
              "$type": "INBCDALOHMP",
              "target": "Other",
              "targetPredicates": [
                {
                  "$type": "CNGGLKHONAA",
                  "key": "Monster_Panther_Sacred",
                  "param3": 1.0
                },
                {
                  "$type": "NIMAPECDNKD",
                  "entityTypes": [
                    "Monster"
                  ]
                },
                {
                  "$type": "NNEHDJHMING",
                  "attackTags": [
                    "NormalAttack_01",
                    "NormalAttack_02",
                    "NormalAttack_03",
                    "NormalAttack_04",
                    "NormalAttack_05",
                    "NormalAttack_06",
                    "ExtraAttack",
                    "FallingAttack",
                    "Elemental_Art",
                    "Elemental_Art_Hold",
                    "Elemental_Art_Extra",
                    "Elemental_Burst"
                  ]
                },
                {
                  "$type": "CNGGLKHONAA",
                  "target": "Self",
                  "key": "SacredEnergy_Panther",
                  "param3": 1.0
                }
              ],
              "successActions": [
                {
                  "$type": "IAKFMOEPFCD",
                  "watcherId": 82162,
                  "authorityOnly": true,
                  "stage": 1
                },
                {
                  "$type": "PELJALPANCA",
                  "target": "Other",
                  "modifierName": "UNIQUE_SacredBeHit_Panther"
                },
                {
                  "$type": "KBODPNEEFGD",
                  "target": "Team",
                  "modifierName": "UNIQUE_Have_Panther_SacredEnergy_Team"
                },
                {
                  "$type": "AHPEKICBIIL",
                  "shieldHP": true,
                  "predicates": [
                    {
                      "$type": "CNGGLKHONAA",
                      "key": "_MONSTER_RoleCombat_MonsterTag",
                      "param3": 1.0
                    }
                  ],
                  "luaCallType": "CurGalleryControlGroup",
                  "funcName": "SLC_RoleCombatET_PROCESS_Sacred_Lose_Energy",
                  "param1": 0.0,
                  "MGAMDEHMCOL": 0.0,
                  "MMHOHAOGPLP": 0.0
                }
              ]
            }
          ]
        },
        "UNIQUE_SacredBeHit_Panther": {
          "stacking": "Unique",
          "modifierName": "",
          "forceTriggerWhenChangeAuthority": true,
          "elementDurability": 0.20000000298023224,
          "IPFJJJGABPL": 100.0,
          "onAdded": [
            {
              "$type": "BLCCGIPAOIP",
              "predicates": [
                {
                  "$type": "BCFNGJHILAG",
                  "predicates": [
                    {
                      "$type": "NIFDMKMHAGJ",
                      "target": "Self",
                      "logic": "Equal",
                      "param3": 203.0,
                      "parameter": "PoseID"
                    }
                  ]
                }
              ],
              "PLLJBINMGJK": "WeakTrigger",
              "mpTriggerOnRemote": true
            },
            {
              "$type": "KBFEIHEAMBM",
              "rotationDampTime": "Eff_Monster_Panther_Sacred_ScaredBeHit",
              "PPPDJGDDOGD": 1.0,
              "AJDILHJFNKE": -1.0
            },
            {
              "$type": "DLLGNJPHFDE",
              "CKDBFHCIJEK": 0.15000000596046448,
              "BJKGFBGEFPB": ""
            }
          ]
        }
      },
      "onAbilityStart": [
        {
          "$type": "INBCDALOHMP",
          "otherTargets": {
            "$type": "IJOFJOGLDHE",
            "topLimit": 1,
            "entityTypePriority": [
              "Avatar"
            ],
            "sortType": "Nearest",
            "shapeName": "CircleR100",
            "campTargetType": "Enemy",
            "doOffStage": 1.0
          },
          "predicates": [
            {
              "$type": "CNGGLKHONAA",
              "key": "SacredEnergy_Target_Panther",
              "param3": 1.0
            }
          ],
          "successActions": [
            {
              "$type": "PELJALPANCA",
              "target": "TargetTeam",
              "modifierName": "UNIQUE_Have_Panther_SacredEnergy_Team"
            }
          ]
        }
      ]
    }
  },
  {
    "Default": {
      "$type": "CBPBEHLOHKI",
      "abilityName": "Monster_Panther_Sacred_SacredEnergy_Bullet",
      "modifiers": {
        "HolyHoundBullet_Effect": {
          "modifierName": "",
          "IPFJJJGABPL": 100.0,
          "onAdded": [
            {
              "$type": "ANLOBBMKNIJ",
              "rotationDampTime": "Eff_Monster_Panther_Sacred_SacredEnergyBullet",
              "PPPDJGDDOGD": 1.0,
              "AJDILHJFNKE": -1.0
            }
          ]
        },
        "TriggerLogicSacredEnergy": {
          "stacking": "Unique",
          "modifierName": "",
          "elementDurability": 1.0,
          "IPFJJJGABPL": 100.0,
          "onAdded": [
            {
              "$type": "GJCAPCBELPA",
              "abilityName": "Monster_Panther_Sacred_SacredEnergy_BridgeToMonster"
            }
          ]
        }
      },
      "onAdded": [
        {
          "$type": "PELJALPANCA",
          "modifierName": "HolyHoundBullet_Effect"
        }
      ],
      "onAbilityStart": [
        {
          "$type": "INBCDALOHMP",
          "target": "Target",
          "targetPredicates": [
            {
              "$type": "CNGGLKHONAA",
              "key": "SacredEnergy_Target_Panther",
              "param3": 1.0
            }
          ],
          "successActions": [
            {
              "$type": "PELJALPANCA",
              "target": "OriginOwner",
              "modifierName": "TriggerLogicSacredEnergy"
            },
            {
              "$type": "KBFEIHEAMBM",
              "target": "Target",
              "predicates": [
                {
                  "$type": "IMPNKNCABJD"
                }
              ],
              "rotationDampTime": "Eff_Monster_Panther_Sacred_SacredEnergyHitPlayer",
              "born": {
                "$type": "JHEBKCMEMLN",
                "useRotation": true
              },
              "PPPDJGDDOGD": 1.0,
              "AJDILHJFNKE": -1.0
            },
            {
              "$type": "PFKNEFGOHIH",
              "modifierName": "HolyHoundBullet_Effect"
            },
            {
              "$type": "NCFFNDHGCMH"
            }
          ]
        }
      ]
    }
  },
  {
    "Default": {
      "$type": "CBPBEHLOHKI",
      "abilityName": "Monster_Panther_Sacred_SacredEnergy_Bullet_ToMonster",
      "modifiers": {
        "SacredEnergyRecoverLabel": {
          "modifierName": "",
          "elementDurability": 0.20000000298023224,
          "IPFJJJGABPL": 100.0,
          "onAdded": [
            {
              "$type": "BOBCOJHOKKD",
              "predicates": [
                {
                  "$type": "HHHMNCNPBDK",
                  "predicates": [
                    {
                      "$type": "NIFDMKMHAGJ",
                      "target": "Self",
                      "logic": "Equal",
                      "param3": 201.0,
                      "parameter": "PoseID"
                    },
                    {
                      "$type": "NIFDMKMHAGJ",
                      "target": "Self",
                      "logic": "Equal",
                      "param3": 203.0,
                      "parameter": "PoseID"
                    }
                  ]
                }
              ],
              "param3": 1.0,
              "key": "SacredEnergy_Recover_Panther",
              "param2": 0.0,
              "repeatTimes": 0.0
            }
          ]
        },
        "HolyHoundBullet_Effect": {
          "modifierName": "",
          "IPFJJJGABPL": 100.0,
          "onAdded": [
            {
              "$type": "ANLOBBMKNIJ",
              "rotationDampTime": "Eff_Monster_Panther_Sacred_SacredEnergyBullet",
              "PPPDJGDDOGD": 1.0,
              "AJDILHJFNKE": -1.0
            }
          ]
        }
      },
      "onAdded": [
        {
          "$type": "PELJALPANCA",
          "modifierName": "HolyHoundBullet_Effect"
        }
      ],
      "onAbilityStart": [
        {
          "$type": "INBCDALOHMP",
          "target": "Target",
          "targetPredicates": [
            {
              "$type": "CNGGLKHONAA",
              "key": "Monster_Panther_Sacred",
              "param3": 1.0
            },
            {
              "$type": "CNGGLKHONAA",
              "key": "_SACRED_ENTITY_ALERTNESS_TAG_",
              "param3": 1.0
            }
          ],
          "successActions": [
            {
              "$type": "PELJALPANCA",
              "target": "Target",
              "modifierName": "SacredEnergyRecoverLabel"
            },
            {
              "$type": "KBFEIHEAMBM",
              "target": "Target",
              "rotationDampTime": "Eff_Monster_Panther_Sacred_SacredEnergyHitMonster",
              "PPPDJGDDOGD": 1.0,
              "AJDILHJFNKE": -1.0
            },
            {
              "$type": "NCFFNDHGCMH"
            }
          ]
        },
        {
          "$type": "INBCDALOHMP",
          "target": "Target",
          "targetPredicates": [
            {
              "$type": "CNGGLKHONAA",
              "key": "Monster_Panther_Sacred",
              "param3": 1.0
            },
            {
              "$type": "CNGGLKHONAA",
              "key": "_SACRED_ENTITY_ALERTNESS_TAG_",
              "param3": 0.0,
              "compareType": "NoneOrEqual"
            }
          ],
          "successActions": [
            {
              "$type": "NCFFNDHGCMH"
            }
          ]
        }
      ]
    }
  },
  {
    "Default": {
      "$type": "CBPBEHLOHKI",
      "abilityName": "Monster_Panther_Sacred_EnhanceDefence",
      "abilityMixins": [
        {
          "$type": "LEOGLBFIELL",
          "poseIDs": [
            202
          ],
          "modifierName": "Panther_Sacred_EnhanceDefence"
        }
      ],
      "modifiers": {
        "Panther_Sacred_FrozenResistance": {
          "modifierName": "",
          "IPFJJJGABPL": 100.0,
          "onAdded": [
            {
              "$type": "OPAOGKPJLIG",
              "resistanceListID": 14002,
              "durationRatio": 0.5
            }
          ]
        },
        "Panther_Sacred_EnhanceDefence": {
          "modifierName": "",
          "IPFJJJGABPL": 100.0,
          "properties": {
            "Actor_PhysicalSubHurtDelta": 0.30000001192092896,
            "Actor_FireSubHurtDelta": 0.30000001192092896,
            "Actor_ElecSubHurtDelta": 0.30000001192092896,
            "Actor_WaterSubHurtDelta": 0.30000001192092896,
            "Actor_GrassSubHurtDelta": 0.6000000238418579,
            "Actor_WindSubHurtDelta": 0.30000001192092896,
            "Actor_IceSubHurtDelta": 0.30000001192092896,
            "Actor_RockSubHurtDelta": 0.30000001192092896
          }
        }
      },
      "onAdded": [
        {
          "$type": "JLDEMMJAMLC",
          "modifierName": "Panther_Sacred_FrozenResistance"
        }
      ]
    }
  }
]