[
  {
    "Default": {
      "$type": "CBPBEHLOHKI",
      "abilityName": "Monster_Sylph_Ice_PoseHandler",
      "abilityMixins": [
        {
          "$type": "MLJAPFBGEEH",
          "globalValueKey": "_SYLPH_POSE_TAG_",
          "gvInTalk": 0.0,
          "valueSteps": [
            -0.5,
            0.5,
            1.5
          ],
          "modifierNameSteps": [
            "Pose_None",
            "Pose_Activated"
          ]
        },
        {
          "$type": "PDIMAGBFBIE",
          "valueSteps": [
            0.019999999552965164
          ],
          "modifierNameSteps": [
            "Sylph_Empty",
            "Sylph_DyingPoseState"
          ]
        }
      ],
      "modifiers": {
        "UNIQUE_Sylph_Limbo": {
          "modifierName": "",
          "forceTriggerWhenChangeAuthority": true,
          "IPFJJJGABPL": 100.0,
          "properties": {
            "Actor_HpThresholdRatio": 0.0
          },
          "state": "Limbo"
        },
        "Empty": {
          "modifierName": "",
          "IPFJJJGABPL": 100.0
        },
        "Achieve_Moniter": {
          "modifierName": "",
          "IPFJJJGABPL": 100.0,
          "onKill": [
            {
              "$type": "HCLAKBJKPLE",
              "watcherId": 82125,
              "inThreatListOnly": true
            }
          ]
        },
        "UNIQUE_Sylph_ChargeBar": {
          "modifierName": "",
          "forceTriggerWhenChangeAuthority": true,
          "IPFJJJGABPL": 100.0,
          "modifierMixins": [
            {
              "$type": "HBPDEMIJCDL",
              "chargeBarIconID": 2,
              "initialValue": 0.0,
              "param2": 100.0
            },
            {
              "$type": "MLJAPFBGEEH",
              "globalValueKey": "_CHARGEBAR_VALUE",
              "gvInTalk": 0.0,
              "valueSteps": [
                -0.5,
                0.5,
                99.5,
                100.5
              ],
              "modifierNameSteps": [
                "Achieve_Moniter",
                "Empty",
                "ChargeActivated"
              ]
            },
            {
              "$type": "OPOICDPJIPL",
              "valueMin": 0.1875,
              "valueMax": 0.3125,
              "actionQueue": [
                {
                  "$type": "PMJJNECJCLE",
                  "param3": 20.0,
                  "param2": 0.0,
                  "repeatTimes": 0.0
                }
              ]
            },
            {
              "$type": "OPOICDPJIPL",
              "valueMin": 0.3125,
              "valueMax": 0.4375,
              "actionQueue": [
                {
                  "$type": "PMJJNECJCLE",
                  "param3": 40.0,
                  "param2": 0.0,
                  "repeatTimes": 0.0
                }
              ]
            },
            {
              "$type": "OPOICDPJIPL",
              "valueMin": 0.4375,
              "valueMax": 0.5625,
              "actionQueue": [
                {
                  "$type": "PMJJNECJCLE",
                  "param3": 70.0,
                  "param2": 0.0,
                  "repeatTimes": 0.0
                }
              ]
            },
            {
              "$type": "OPOICDPJIPL",
              "valueMin": 0.5625,
              "valueMax": 3.4028234663852886e+38,
              "actionQueue": [
                {
                  "$type": "PMJJNECJCLE",
                  "param3": 100.0,
                  "param2": 0.0,
                  "repeatTimes": 0.0
                }
              ]
            }
          ],
          "onAdded": [
            {
              "$type": "FEJJABGNGHA",
              "param3": 0.0
            }
          ]
        },
        "ChargeActivated": {
          "modifierName": "",
          "IPFJJJGABPL": 100.0,
          "onAdded": [
            {
              "$type": "BOBCOJHOKKD",
              "param3": 1.0,
              "key": "_SYLPH_POSE_TAG_",
              "param2": 0.0,
              "repeatTimes": 0.0
            },
            {
              "$type": "BLCCGIPAOIP",
              "PLLJBINMGJK": "NormalToActivated"
            }
          ],
          "onRemoved": [
            {
              "$type": "BOBCOJHOKKD",
              "param3": 0.0,
              "key": "_SYLPH_POSE_TAG_",
              "param2": 0.0,
              "repeatTimes": 0.0
            },
            {
              "$type": "GNAEJNBIFAC",
              "PLLJBINMGJK": "NormalToActivated"
            }
          ]
        },
        "Pose_None": {
          "modifierName": "",
          "IPFJJJGABPL": 100.0,
          "onAdded": [
            {
              "$type": "IDNGFEEBPAM",
              "boolID": "ActivatedTag"
            },
            {
              "$type": "KJCHPDPBJHL",
              "boolID": "ActivatedTag"
            }
          ]
        },
        "Pose_Activated": {
          "modifierName": "",
          "IPFJJJGABPL": 100.0,
          "modifierMixins": [
            {
              "$type": "CIBMLJJLANN",
              "excludeForces": [
                "WindZoneType",
                "AirflowType",
                "RetreatAirType"
              ]
            }
          ],
          "properties": {
            "Entity_WeightRatio": 2.0
          },
          "onAdded": [
            {
              "$type": "IDNGFEEBPAM",
              "boolID": "ActivatedTag",
              "param3": true
            },
            {
              "$type": "KJCHPDPBJHL",
              "boolID": "ActivatedTag",
              "param3": true
            },
            {
              "$type": "IPMMJGMONCI",
              "skillIDs": [
                601
              ]
            },
            {
              "$type": "DOANGHCALGB",
              "skillIDs": [
                601
              ]
            },
            {
              "$type": "AENLGPIPPAK",
              "hitBoxNames": [
                "HitBoxBody"
              ]
            },
            {
              "$type": "AENLGPIPPAK",
              "hitBoxNames": [
                "HitBoxBody_Activated"
              ],
              "setEnable": true
            },
            {
              "$type": "FDFGJPNDKEA",
              "pushColliderNames": [
                "PushCollider"
              ]
            },
            {
              "$type": "FDFGJPNDKEA",
              "pushColliderNames": [
                "PushCollider_Activated"
              ],
              "setEnable": true
            }
          ]
        },
        "Sylph_DyingPoseState": {
          "modifierName": "",
          "IPFJJJGABPL": 100.0,
          "properties": {
            "Actor_EndureDelta": 0.0,
            "Actor_SubHurtDelta": 1.0
          },
          "state": "DenyLockOn",
          "onAdded": [
            {
              "$type": "IDNGFEEBPAM",
              "boolID": "DyingState",
              "param3": true
            },
            {
              "$type": "AENLGPIPPAK",
              "hitBoxNames": [
                "HitBoxBody"
              ]
            },
            {
              "$type": "AENLGPIPPAK",
              "hitBoxNames": [
                "HitBoxBody_Activated"
              ]
            },
            {
              "$type": "BOBCOJHOKKD",
              "param3": 1.0,
              "key": "_SYLPH_DEATH_TAG_",
              "param2": 0.0,
              "repeatTimes": 0.0
            },
            {
              "$type": "JLDEMMJAMLC",
              "modifierName": "Dying_IsGhostToAllied"
            },
            {
              "$type": "JLDEMMJAMLC",
              "modifierName": "Dying_IsGhostToEnemy"
            },
            {
              "$type": "JLDEMMJAMLC",
              "modifierName": "Dying_LockHP"
            },
            {
              "$type": "JLDEMMJAMLC",
              "modifierName": "Dying_NoHeal"
            }
          ],
          "onRemoved": [
            {
              "$type": "IDNGFEEBPAM",
              "boolID": "DyingState"
            },
            {
              "$type": "AENLGPIPPAK",
              "predicates": [
                {
                  "$type": "CNGGLKHONAA",
                  "key": "_SYLPH_POSE_TAG_",
                  "param3": 0.0,
                  "compareType": "NoneOrEqual"
                }
              ],
              "hitBoxNames": [
                "HitBoxBody"
              ],
              "setEnable": true
            },
            {
              "$type": "AENLGPIPPAK",
              "predicates": [
                {
                  "$type": "CNGGLKHONAA",
                  "key": "_SYLPH_POSE_TAG_",
                  "param3": 1.0
                }
              ],
              "hitBoxNames": [
                "HitBoxBody_Activated"
              ],
              "setEnable": true
            },
            {
              "$type": "BOBCOJHOKKD",
              "param3": 0.0,
              "key": "_SYLPH_DEATH_TAG_",
              "param2": 0.0,
              "repeatTimes": 0.0
            }
          ]
        },
        "Dying_IsGhostToAllied": {
          "modifierName": "",
          "IPFJJJGABPL": 100.0,
          "state": "IsGhostToAllied"
        },
        "Dying_IsGhostToEnemy": {
          "modifierName": "",
          "IPFJJJGABPL": 100.0,
          "state": "IsGhostToEnemy"
        },
        "Dying_LockHP": {
          "modifierName": "",
          "IPFJJJGABPL": 100.0,
          "state": "LockHP"
        },
        "Dying_NoHeal": {
          "modifierName": "",
          "IPFJJJGABPL": 100.0,
          "state": "NoHeal"
        },
        "Sylph_Empty": {
          "modifierName": "",
          "IPFJJJGABPL": 100.0,
          "onKill": [
            {
              "$type": "AHPEKICBIIL",
              "shieldHP": true,
              "predicates": [
                {
                  "$type": "CNGGLKHONAA",
                  "key": "_MONSTER_RoleCombat_MonsterTag",
                  "param3": 1.0
                }
              ],
              "luaCallType": "CurGalleryControlGroup",
              "funcName": "SLC_RoleCombatET_PROCESS_Sylph_Die_Peacefuly",
              "param1": 0.0,
              "MGAMDEHMCOL": 0.0,
              "MMHOHAOGPLP": 0.0
            }
          ]
        }
      },
      "onAdded": [
        {
          "$type": "PELJALPANCA",
          "modifierName": "UNIQUE_Sylph_Limbo"
        },
        {
          "$type": "PELJALPANCA",
          "modifierName": "UNIQUE_Sylph_ChargeBar"
        },
        {
          "$type": "BOBCOJHOKKD",
          "param3": 0.0,
          "key": "_SYLPH_DEATH_TAG_",
          "param2": 0.0,
          "repeatTimes": 0.0
        }
      ]
    }
  },
  {
    "Default": {
      "$type": "CBPBEHLOHKI",
      "abilityName": "Monster_Sylph_Ice_PoseAction",
      "abilityMixins": [
        {
          "$type": "LEOGLBFIELL",
          "poseIDs": [
            211,
            311
          ],
          "modifierName": "Sylph_DyingAnimState"
        }
      ],
      "modifiers": {
        "Sylph_DyingAnimState": {
          "modifierName": "",
          "IPFJJJGABPL": 100.0,
          "thinkInterval": 0.20000000298023224,
          "onAdded": [
            {
              "$type": "KJCHPDPBJHL",
              "predicates": [
                {
                  "$type": "CNGGLKHONAA",
                  "key": "_SYLPH_POSE_TAG_",
                  "param3": 0.0,
                  "compareType": "NoneOrEqual"
                }
              ],
              "boolID": "DeathTag",
              "param3": true
            },
            {
              "$type": "KJCHPDPBJHL",
              "predicates": [
                {
                  "$type": "CNGGLKHONAA",
                  "key": "_SYLPH_POSE_TAG_",
                  "param3": 1.0
                }
              ],
              "boolID": "ActivatedDeathTag",
              "param3": true
            },
            {
              "$type": "GOKILMDLLJD",
              "resistanceListID": 13002
            }
          ],
          "onRemoved": [
            {
              "$type": "KJCHPDPBJHL",
              "predicates": [
                {
                  "$type": "CNGGLKHONAA",
                  "key": "_SYLPH_POSE_TAG_",
                  "param3": 0.0,
                  "compareType": "NoneOrEqual"
                }
              ],
              "boolID": "DeathTag"
            },
            {
              "$type": "KJCHPDPBJHL",
              "predicates": [
                {
                  "$type": "CNGGLKHONAA",
                  "key": "_SYLPH_POSE_TAG_",
                  "param3": 1.0
                }
              ],
              "boolID": "ActivatedDeathTag"
            }
          ],
          "onThinkInterval": [
            {
              "$type": "GOKILMDLLJD",
              "resistanceListID": 13002
            }
          ]
        }
      }
    }
  },
  {
    "Default": {
      "$type": "CBPBEHLOHKI",
      "abilityName": "Monster_Sylph_Ice_Steer",
      "abilityMixins": [
        {
          "$type": "IILHMBGONGM",
          "steerStateIDs": [
            "Activated_Standby"
          ],
          "angularSpeed": 240.0,
          "attackTrigger": "",
          "DGFCLAIDIFI": ""
        },
        {
          "$type": "IILHMBGONGM",
          "steerStateIDs": [
            "Warning"
          ],
          "angularSpeed": 150.0,
          "attackTrigger": "",
          "DGFCLAIDIFI": ""
        },
        {
          "$type": "IILHMBGONGM",
          "steerStateIDs": [
            "IceBullet"
          ],
          "endNormalizedTime": 0.4399999976158142,
          "angularSpeed": 270.0,
          "attackTrigger": "",
          "DGFCLAIDIFI": ""
        },
        {
          "$type": "IILHMBGONGM",
          "steerStateIDs": [
            "IceBullet"
          ],
          "startNormalizedTime": 0.8999999761581421,
          "angularSpeed": 240.0,
          "attackTrigger": "",
          "DGFCLAIDIFI": ""
        },
        {
          "$type": "IILHMBGONGM",
          "steerStateIDs": [
            "FlyHigh"
          ],
          "endNormalizedTime": 0.30000001192092896,
          "angularSpeed": 120.0,
          "attackTrigger": "",
          "DGFCLAIDIFI": ""
        },
        {
          "$type": "IILHMBGONGM",
          "steerStateIDs": [
            "FlyBackHit"
          ],
          "startNormalizedTime": 0.6000000238418579,
          "endNormalizedTime": 0.8999999761581421,
          "angularSpeed": 180.0,
          "attackTrigger": "",
          "DGFCLAIDIFI": ""
        },
        {
          "$type": "IILHMBGONGM",
          "steerStateIDs": [
            "FlyBackHit"
          ],
          "endNormalizedTime": 0.4000000059604645,
          "angularSpeed": 180.0,
          "attackTrigger": "",
          "DGFCLAIDIFI": ""
        },
        {
          "$type": "IILHMBGONGM",
          "steerStateIDs": [
            "FlyHigh"
          ],
          "startNormalizedTime": 0.8999999761581421,
          "angularSpeed": 240.0,
          "attackTrigger": "",
          "DGFCLAIDIFI": ""
        },
        {
          "$type": "IILHMBGONGM",
          "steerStateIDs": [
            "Activated_AirGun_BS",
            "Activated_AirGun_Loop",
            "Activated_AirGun_AS"
          ],
          "endNormalizedTime": 0.30000001192092896,
          "angularSpeed": 120.0,
          "attackTrigger": "",
          "DGFCLAIDIFI": ""
        }
      ]
    }
  },
  {
    "Default": {
      "$type": "CBPBEHLOHKI",
      "abilityName": "Monster_Sylph_Ice_ExitBattle",
      "abilityMixins": [
        {
          "$type": "LEOGLBFIELL",
          "poseIDs": [
            901
          ],
          "modifierName": "ExitBattle"
        }
      ],
      "modifiers": {
        "ExitBattle": {
          "modifierName": "",
          "IPFJJJGABPL": 100.0,
          "onAdded": [
            {
              "$type": "BLCCGIPAOIP",
              "predicates": [
                {
                  "$type": "CNGGLKHONAA",
                  "key": "_SYLPH_POSE_TAG_",
                  "param3": 1.0
                }
              ],
              "PLLJBINMGJK": "ActivatedToNormal"
            }
          ],
          "onRemoved": [
            {
              "$type": "BOBCOJHOKKD",
              "param3": 0.0,
              "key": "_SYLPH_POSE_TAG_",
              "param2": 0.0,
              "repeatTimes": 0.0
            },
            {
              "$type": "IDNGFEEBPAM",
              "boolID": "DyingState"
            },
            {
              "$type": "IDNGFEEBPAM",
              "boolID": "ActivatedTag"
            },
            {
              "$type": "KJCHPDPBJHL",
              "boolID": "ActivatedTag"
            },
            {
              "$type": "FEJJABGNGHA",
              "param3": 0.0
            },
            {
              "$type": "KBODPNEEFGD",
              "modifierName": "UNIQUE_Sylph_Face"
            }
          ]
        }
      }
    }
  },
  {
    "Default": {
      "$type": "CBPBEHLOHKI",
      "abilityName": "Monster_Sylph_Ice_Bullet",
      "onAbilityStart": [
        {
          "$type": "CAKDDHLKOAB",
          "target": "SelfAttackTarget",
          "bulletID": 42006401,
          "born": {
            "$type": "KLPANPDGHHA",
            "attachPointName": "BulletAttachPoint1",
            "attachPointTargetType": "Caster"
          }
        }
      ]
    }
  },
  {
    "Default": {
      "$type": "CBPBEHLOHKI",
      "abilityName": "Sylph_Ice_IceBullet_Hit",
      "onAdded": [
        {
          "$type": "ANLOBBMKNIJ",
          "rotationDampTime": "Eff_Monster_Sylph_Ice_IceBullet_Loop",
          "PPPDJGDDOGD": 1.0,
          "AJDILHJFNKE": -1.0
        }
      ],
      "onAbilityStart": [
        {
          "$type": "AIFPLABJNMA",
          "attackEvent": {
            "attackPattern": {
              "$type": "BELNOFAKNBA",
              "triggerType": "TriggerNoRepeat",
              "born": {
                "$type": "JGEBAJLEBMO"
              },
              "OAHPDLJIADP": 0.5
            },
            "attackInfo": {
              "attackTag": "",
              "attenuationTag": "",
              "attenuationGroup": "default",
              "attackProperty": {
                "actorGrassSubHurtDelta": 0.800000011920929,
                "actorWindSubHurtDelta": 0.0,
                "elementType": "Ice",
                "IPFJJJGABPL": 30.0,
                "strikeType": "Blunt",
                "enBreak": 10.0,
                "GLKMCMDJBIK": 0.0
              },
              "hitPattern": {
                "onHitEffectName": "none",
                "hitImpulseY": "",
                "hitImpulseType": "LV2",
                "hitHaltTimeScale": 0.009999999776482582
              },
              "canBeModifiedBy": "OriginOwner"
            }
          },
          "targetType": "Enemy"
        },
        {
          "$type": "NCFFNDHGCMH"
        }
      ],
      "onKill": [
        {
          "$type": "KBFEIHEAMBM",
          "rotationDampTime": "Eff_Monster_Sylph_Ice_IceBullet_AS",
          "PPPDJGDDOGD": 1.0,
          "AJDILHJFNKE": -1.0
        }
      ]
    }
  },
  {
    "Default": {
      "$type": "CBPBEHLOHKI",
      "abilityName": "Monster_Sylph_Ice_FlyHor",
      "abilityMixins": [
        {
          "$type": "NAFEDCNOIGL",
          "stateID": "FlyBackHit",
          "modifierName": "IceRotation",
          "normalizeStart": 0.14000000059604645,
          "normalizeEnd": 0.7200000286102295,
          "DGFCLAIDIFI": ""
        }
      ],
      "modifiers": {
        "IceRotation": {
          "modifierName": "",
          "IPFJJJGABPL": 100.0,
          "onAdded": [
            {
              "$type": "ANLOBBMKNIJ",
              "rotationDampTime": "Eff_Monster_Sylph_Ice_Fly_Loop",
              "PPPDJGDDOGD": 1.0,
              "AJDILHJFNKE": -1.0
            }
          ]
        }
      },
      "onAbilityStart": [
        {
          "$type": "CAKDDHLKOAB",
          "bulletID": 42006402,
          "born": {
            "$type": "KLPANPDGHHA",
            "offset": {
              "KGEPIMHBMOL": 0.0,
              "JEBHCGDPFEJ": 0.0,
              "LPCHALMFFOD": 0.0
            },
            "attachPointName": "RootNode"
          }
        }
      ]
    }
  },
  {
    "Default": {
      "$type": "CBPBEHLOHKI",
      "abilityName": "Sylph_Ice_ElementBullet_Hit",
      "onAdded": [
        {
          "$type": "ANLOBBMKNIJ",
          "rotationDampTime": "Eff_Monster_Sylph_Ice_ElementBullet",
          "PPPDJGDDOGD": 1.0,
          "AJDILHJFNKE": -1.0
        }
      ],
      "onAbilityStart": [
        {
          "$type": "AIFPLABJNMA",
          "attackEvent": {
            "attackPattern": {
              "$type": "BELNOFAKNBA",
              "triggerType": "TriggerNoRepeat",
              "born": {
                "$type": "IAENDIPDFKD"
              },
              "OAHPDLJIADP": 2.5
            },
            "attackInfo": {
              "attackTag": "",
              "attenuationTag": "",
              "attenuationGroup": "default",
              "attackProperty": {
                "actorGrassSubHurtDelta": 0.800000011920929,
                "actorWindSubHurtDelta": 0.0,
                "elementType": "Ice",
                "IPFJJJGABPL": 30.0,
                "enBreak": 10.0,
                "GLKMCMDJBIK": 0.0
              },
              "hitPattern": {
                "onHitEffectName": "",
                "hitImpulseY": "",
                "hitImpulseType": "LV3",
                "retreatType": "ByHitDirection"
              },
              "canBeModifiedBy": "OriginOwner"
            }
          },
          "targetType": "Enemy"
        },
        {
          "$type": "KBFEIHEAMBM",
          "rotationDampTime": "Eff_Monster_Sylph_Ice_ElementBullet_AS",
          "PPPDJGDDOGD": 2.0,
          "AJDILHJFNKE": -1.0
        },
        {
          "$type": "NCFFNDHGCMH"
        }
      ]
    }
  },
  {
    "Default": {
      "$type": "CBPBEHLOHKI",
      "abilityName": "Monster_Sylph_Ice_Deathrattle",
      "abilityMixins": [
        {
          "$type": "EKMHJKDLBJH",
          "stateIDs": [
            "Deathrattle"
          ],
          "modifierName": "Deathrattle_Pos",
          "DGFCLAIDIFI": ""
        }
      ],
      "modifiers": {
        "Deathrattle_Pos": {
          "modifierName": "",
          "IPFJJJGABPL": 100.0,
          "onAdded": [
            {
              "$type": "KFCDMIMBBLD",
              "born": {
                "$type": "KLPANPDGHHA",
                "offset": {
                  "KGEPIMHBMOL": 0.0,
                  "JEBHCGDPFEJ": 0.0,
                  "LPCHALMFFOD": 0.0
                },
                "attachPointName": "RootNode"
              },
              "gadgetID": 42006406,
              "campID": 4001,
              "byServer": true
            }
          ],
          "onRemoved": [
            {
              "$type": "KBODPNEEFGD",
              "modifierName": "UNIQUE_Sylph_Limbo"
            },
            {
              "$type": "NCFFNDHGCMH"
            }
          ]
        }
      }
    }
  },
  {
    "Default": {
      "$type": "CBPBEHLOHKI",
      "abilityName": "Sylph_Ice_DeathPosAction",
      "modifiers": {
        "Deathrattle_Timer": {
          "modifierName": "",
          "elementDurability": 1.2000000476837158,
          "IPFJJJGABPL": 100.0,
          "onAdded": [
            {
              "$type": "KBFEIHEAMBM",
              "rotationDampTime": "Eff_Monster_Sylph_Ice_Deathrattle",
              "PPPDJGDDOGD": 1.0,
              "AJDILHJFNKE": -1.0
            }
          ],
          "onRemoved": [
            {
              "$type": "PELJALPANCA",
              "modifierName": "Deathrattle_Actions"
            }
          ]
        },
        "Deathrattle_Actions": {
          "modifierName": "",
          "elementDurability": 0.20000000298023224,
          "IPFJJJGABPL": 100.0,
          "onAdded": [
            {
              "$type": "AIFPLABJNMA",
              "attackEvent": {
                "attackPattern": {
                  "$type": "BELNOFAKNBA",
                  "triggerType": "TriggerNoRepeat",
                  "born": {
                    "$type": "KLPANPDGHHA",
                    "offset": {
                      "KGEPIMHBMOL": 0.0,
                      "JEBHCGDPFEJ": 0.0,
                      "LPCHALMFFOD": 0.0
                    },
                    "attachPointName": "RootNode"
                  },
                  "OAHPDLJIADP": 2.5
                },
                "attackInfo": {
                  "attackTag": "",
                  "attenuationTag": "",
                  "attenuationGroup": "default",
                  "attackProperty": {
                    "actorGrassSubHurtDelta": 1.0,
                    "actorWindSubHurtDelta": 0.0,
                    "elementType": "Ice",
                    "IPFJJJGABPL": 30.0,
                    "strikeType": "Blunt",
                    "enBreak": 10.0,
                    "GLKMCMDJBIK": 0.0
                  },
                  "hitPattern": {
                    "onHitEffectName": "default",
                    "hitImpulseY": "",
                    "hitImpulseType": "LV4",
                    "hitHaltTimeScale": 0.009999999776482582
                  }
                }
              },
              "targetType": "Enemy"
            }
          ]
        },
        "Deathrattle_LifeHandler": {
          "modifierName": "",
          "elementDurability": 5.0,
          "IPFJJJGABPL": 100.0,
          "onRemoved": [
            {
              "$type": "NCFFNDHGCMH"
            }
          ]
        }
      },
      "onAdded": [
        {
          "$type": "PELJALPANCA",
          "modifierName": "Deathrattle_Timer"
        },
        {
          "$type": "PELJALPANCA",
          "modifierName": "Deathrattle_LifeHandler"
        }
      ]
    }
  },
  {
    "Default": {
      "$type": "CBPBEHLOHKI",
      "abilityName": "Monster_Sylph_Ice_Activated_AirGun",
      "abilityMixins": [
        {
          "$type": "APJKOLPHCGH",
          "stateIDs": [
            "Activated_AirGun_BS"
          ],
          "exitActions": [
            {
              "$type": "PELJALPANCA",
              "modifierName": "Activated_AirGun_CountDown"
            }
          ],
          "DGFCLAIDIFI": ""
        }
      ],
      "modifiers": {
        "Activated_AirGun_CountDown": {
          "modifierName": "",
          "elementDurability": 10.699999809265137,
          "IPFJJJGABPL": 100.0,
          "thinkInterval": 0.10000000149011612,
          "onAdded": [
            {
              "$type": "KJCHPDPBJHL",
              "boolID": "ActiveAirGunEnd"
            }
          ],
          "onRemoved": [
            {
              "$type": "KJCHPDPBJHL",
              "boolID": "ActiveAirGunEnd",
              "param3": true
            }
          ],
          "onThinkInterval": [
            {
              "$type": "INBCDALOHMP",
              "target": "SelfAttackTarget",
              "targetPredicates": [
                {
                  "$type": "FMBJAJFLDIP",
                  "logic": "GreaterOrEqual",
                  "param3": 20.0,
                  "DDALGNLEHOD": ""
                }
              ],
              "successActions": [
                {
                  "$type": "PFKNEFGOHIH",
                  "modifierName": "Activated_AirGun_CountDown"
                }
              ]
            }
          ]
        },
        "Activated_AirGun": {
          "modifierName": "",
          "elementDurability": 0.10000000149011612,
          "IPFJJJGABPL": 100.0,
          "onAdded": [
            {
              "$type": "CAKDDHLKOAB",
              "bulletID": 42006403,
              "born": {
                "$type": "KLPANPDGHHA",
                "attachPointName": "BulletAttachPoint2",
                "attachPointTargetType": "Caster"
              }
            }
          ]
        }
      },
      "onAbilityStart": [
        {
          "$type": "PELJALPANCA",
          "modifierName": "Activated_AirGun"
        }
      ]
    }
  },
  {
    "Default": {
      "$type": "CBPBEHLOHKI",
      "abilityName": "Sylph_Ice_Activated_AirGun_Hit",
      "onAdded": [
        {
          "$type": "ANLOBBMKNIJ",
          "rotationDampTime": "Eff_Monster_Sylph_Ice_Activated_IceBall_Bullet",
          "PPPDJGDDOGD": 1.0,
          "AJDILHJFNKE": -1.0
        }
      ],
      "onAbilityStart": [
        {
          "$type": "AIFPLABJNMA",
          "attackEvent": {
            "attackPattern": {
              "$type": "BELNOFAKNBA",
              "triggerType": "TriggerNoRepeat",
              "born": {
                "$type": "JGEBAJLEBMO"
              },
              "OAHPDLJIADP": 1.7999999523162842
            },
            "attackInfo": {
              "attackTag": "",
              "attenuationTag": "",
              "attenuationGroup": "default",
              "attackProperty": {
                "actorGrassSubHurtDelta": 1.0,
                "actorWindSubHurtDelta": 0.0,
                "elementType": "Ice",
                "IPFJJJGABPL": 50.0,
                "strikeType": "Blunt",
                "enBreak": 100.0,
                "GLKMCMDJBIK": 0.0
              },
              "hitPattern": {
                "onHitEffectName": "none",
                "hitImpulseY": "",
                "hitImpulseType": "LV4",
                "hitHaltTimeScale": 0.009999999776482582
              },
              "canBeModifiedBy": "OriginOwner"
            }
          },
          "targetType": "Enemy"
        },
        {
          "$type": "NCFFNDHGCMH"
        }
      ],
      "onKill": [
        {
          "$type": "KBFEIHEAMBM",
          "rotationDampTime": "Eff_Monster_Sylph_Ice_Activated_IceBall_BulletExplode",
          "PPPDJGDDOGD": 1.0,
          "AJDILHJFNKE": -1.0
        }
      ]
    }
  },
  {
    "Default": {
      "$type": "CBPBEHLOHKI",
      "abilityName": "Monster_Sylph_Ice_Activated_Deathrattle",
      "abilityMixins": [
        {
          "$type": "EKMHJKDLBJH",
          "stateIDs": [
            "Activated_Deathrattle"
          ],
          "modifierName": "Activated_Deathrattle_Pos",
          "DGFCLAIDIFI": ""
        }
      ],
      "modifiers": {
        "Activated_Deathrattle_Pos": {
          "modifierName": "",
          "IPFJJJGABPL": 100.0,
          "onAdded": [
            {
              "$type": "KFCDMIMBBLD",
              "born": {
                "$type": "KLPANPDGHHA",
                "offset": {
                  "KGEPIMHBMOL": 0.0,
                  "JEBHCGDPFEJ": 0.0,
                  "LPCHALMFFOD": 0.0
                },
                "attachPointName": "RootNode"
              },
              "gadgetID": 42006405,
              "campID": 4001,
              "byServer": true
            }
          ],
          "onRemoved": [
            {
              "$type": "KBODPNEEFGD",
              "modifierName": "UNIQUE_Sylph_Limbo"
            },
            {
              "$type": "NCFFNDHGCMH"
            }
          ]
        }
      }
    }
  },
  {
    "Default": {
      "$type": "CBPBEHLOHKI",
      "abilityName": "Sylph_Ice_Activated_DeathPosAction",
      "modifiers": {
        "Activated_Deathrattle_Timer": {
          "modifierName": "",
          "elementDurability": 1.8700000047683716,
          "IPFJJJGABPL": 100.0,
          "onAdded": [
            {
              "$type": "KBFEIHEAMBM",
              "rotationDampTime": "Eff_Monster_Sylph_Ice_Activated_Deathrattle",
              "PPPDJGDDOGD": 1.0,
              "AJDILHJFNKE": -1.0
            }
          ],
          "onRemoved": [
            {
              "$type": "PELJALPANCA",
              "modifierName": "Activated_Deathrattle_Actions"
            }
          ]
        },
        "Activated_Deathrattle_Actions": {
          "modifierName": "",
          "elementDurability": 0.20000000298023224,
          "IPFJJJGABPL": 100.0,
          "onAdded": [
            {
              "$type": "AIFPLABJNMA",
              "attackEvent": {
                "attackPattern": {
                  "$type": "BELNOFAKNBA",
                  "triggerType": "TriggerNoRepeat",
                  "born": {
                    "$type": "KLPANPDGHHA",
                    "offset": {
                      "KGEPIMHBMOL": 0.0,
                      "JEBHCGDPFEJ": 0.0,
                      "LPCHALMFFOD": 0.0
                    },
                    "attachPointName": "RootNode"
                  },
                  "OAHPDLJIADP": 5.0
                },
                "attackInfo": {
                  "attackTag": "",
                  "attenuationTag": "",
                  "attenuationGroup": "default",
                  "attackProperty": {
                    "actorGrassSubHurtDelta": 1.2000000476837158,
                    "actorWindSubHurtDelta": 0.0,
                    "elementType": "Ice",
                    "IPFJJJGABPL": 25.0,
                    "strikeType": "Blunt",
                    "enBreak": 100.0,
                    "GLKMCMDJBIK": 0.0
                  },
                  "hitPattern": {
                    "onHitEffectName": "default",
                    "hitImpulseY": "",
                    "hitImpulseType": "LV0",
                    "hitHaltTimeScale": 0.009999999776482582
                  }
                }
              },
              "targetType": "Enemy"
            },
            {
              "$type": "KFCDMIMBBLD",
              "born": {
                "$type": "KLPANPDGHHA",
                "offset": {
                  "KGEPIMHBMOL": 0.0,
                  "JEBHCGDPFEJ": 0.0,
                  "LPCHALMFFOD": 0.0
                },
                "onGround": true,
                "attachPointName": "RootNode"
              },
              "gadgetID": 42006404,
              "campID": 4001,
              "byServer": true
            }
          ]
        },
        "Activated_Deathrattle_LifeHandler": {
          "modifierName": "",
          "elementDurability": 5.0,
          "IPFJJJGABPL": 100.0,
          "onRemoved": [
            {
              "$type": "NCFFNDHGCMH"
            }
          ]
        }
      },
      "onAdded": [
        {
          "$type": "PELJALPANCA",
          "modifierName": "Activated_Deathrattle_Timer"
        },
        {
          "$type": "PELJALPANCA",
          "modifierName": "Activated_Deathrattle_LifeHandler"
        }
      ]
    }
  },
  {
    "Default": {
      "$type": "CBPBEHLOHKI",
      "abilityName": "Sylph_Ice_Activated_Zone",
      "modifiers": {
        "Zone_Handler": {
          "modifierName": "",
          "elementDurability": 5.0,
          "IPFJJJGABPL": 100.0,
          "thinkInterval": 0.5,
          "onAdded": [
            {
              "$type": "ANLOBBMKNIJ",
              "rotationDampTime": "Eff_Monster_Sylph_Ice_Activated_Deathrattle_Area",
              "born": {
                "$type": "IAENDIPDFKD",
                "onGround": true
              },
              "PPPDJGDDOGD": 1.0,
              "AJDILHJFNKE": -1.0
            }
          ],
          "onRemoved": [
            {
              "$type": "NCFFNDHGCMH"
            }
          ],
          "onThinkInterval": [
            {
              "$type": "AIFPLABJNMA",
              "attackEvent": {
                "attackPattern": {
                  "$type": "GMDIMKKHACA",
                  "triggerType": "TriggerNoRepeat",
                  "born": {
                    "$type": "IAENDIPDFKD",
                    "offset": {
                      "KGEPIMHBMOL": 0.0,
                      "JEBHCGDPFEJ": 0.0,
                      "LPCHALMFFOD": 0.0
                    }
                  },
                  "height": 0.20000000298023224,
                  "OAHPDLJIADP": 2.5
                },
                "attackInfo": {
                  "attackTag": "",
                  "attenuationTag": "",
                  "attenuationGroup": "default",
                  "attackProperty": {
                    "actorGrassSubHurtDelta": 0.4000000059604645,
                    "actorWindSubHurtDelta": 0.0,
                    "elementType": "Ice",
                    "IPFJJJGABPL": 25.0,
                    "strikeType": "Default",
                    "enBreak": 0.0,
                    "GLKMCMDJBIK": 0.0
                  },
                  "hitPattern": {
                    "onHitEffectName": "default",
                    "hitImpulseY": "",
                    "hitImpulseType": "LV0",
                    "retreatType": "ByHitDirection",
                    "hitHaltTimeScale": 0.05000000074505806
                  },
                  "canBeModifiedBy": "OriginOwner"
                }
              },
              "targetType": "Enemy"
            }
          ]
        }
      },
      "onAdded": [
        {
          "$type": "JLDEMMJAMLC",
          "modifierName": "Zone_Handler"
        }
      ]
    }
  }
]