[
  {
    "Default": {
      "$type": "CBPBEHLOHKI",
      "abilityName": "FauneAbyssale_Seal_Larva_Born",
      "abilityMixins": [
        {
          "$type": "MFGGKNJLABP",
          "PNAPPKMKAJP": [
            "NormalAttack1_BS"
          ],
          "GINJMMLNHIA": 45.0,
          "HIFACMDKHHK": -45.0,
          "angularSpeed": 180.0,
          "attackTrigger": ""
        },
        {
          "$type": "MFGGKNJLABP",
          "PNAPPKMKAJP": [
            "NormalAttack1_Loop"
          ],
          "GINJMMLNHIA": 45.0,
          "HIFACMDKHHK": -45.0,
          "angularSpeed": 60.0,
          "attackTrigger": ""
        },
        {
          "$type": "EJDKAKLFCPA",
          "stateIDs": [
            "Personality4"
          ],
          "modifierName": "FauneAbyssale_Seal_Bubble",
          "DGFCLAIDIFI": ""
        },
        {
          "$type": "LEOGLBFIELL",
          "poseIDs": [
            12
          ],
          "modifierName": "FauneAbyssale_SpecialConfigOnFloor"
        },
        {
          "$type": "LEOGLBFIELL",
          "poseIDs": [
            18
          ],
          "modifierName": "FauneAbyssale_SpecialConfigInWater"
        },
        {
          "$type": "EJDKAKLFCPA",
          "stateIDs": [
            "Standby"
          ],
          "modifierName": "FauneAbyssale_Seal_WalkRandomOffset",
          "DGFCLAIDIFI": ""
        },
        {
          "$type": "LEOGLBFIELL",
          "poseIDs": [
            11,
            13,
            14,
            15,
            16,
            17,
            19,
            20,
            21,
            22,
            99,
            201,
            901
          ],
          "modifierName": "FauneAbyssale_Seal_CollisionInWater"
        },
        {
          "$type": "EJDKAKLFCPA",
          "stateIDs": [
            "Struggle_Absorbed"
          ],
          "modifierName": "FauneAbyssale_Seal_BeAbsorbedTurnStates",
          "DGFCLAIDIFI": ""
        }
      ],
      "modifiers": {
        "FauneAbyssale_Seal_Bubble": {
          "modifierName": "",
          "IPFJJJGABPL": 100.0,
          "onAdded": [
            {
              "$type": "ANLOBBMKNIJ",
              "rotationDampTime": "Eff_Monster_FauneAbyssale_Seal_Larva_Bubble",
              "PPPDJGDDOGD": 1.0,
              "AJDILHJFNKE": -1.0
            }
          ]
        },
        "FauneAbyssale_Seal_CollisionInWater": {
          "modifierName": "",
          "IPFJJJGABPL": 100.0,
          "modifierMixins": [
            {
              "$type": "MGIHAKAHDGP",
              "NCMKEPHAKCA": [
                "MoveCollider"
              ]
            }
          ],
          "onAdded": [
            {
              "$type": "GBJBFGPDBPL",
              "disableWeatherEffect": true
            },
            {
              "$type": "BOBCOJHOKKD",
              "param3": 2.0,
              "key": "GV_EnvironmentType",
              "param2": 0.0,
              "repeatTimes": 0.0
            }
          ]
        },
        "FauneAbyssale_SpecialConfigOnFloor": {
          "modifierName": "",
          "IPFJJJGABPL": 100.0,
          "modifierMixins": [
            {
              "$type": "NAOEBBPINOO",
              "hasAnimatorDie": true,
              "fallWhenAirDie": false,
              "dieForceDisappearTime": 0.0,
              "dieDisappearEffect": "Eff_Death_Common",
              "dieShaderData": "MonsterDie",
              "dieShaderEnableDurationTime": 0.05000000074505806,
              "muteHitBox": true,
              "dieDenyLockOn": true,
              "dieIsGhostToEnemy": true,
              "dieIgnoreTriggerBullet": true,
              "muteBillboard": true,
              "mutePushCollider": true
            },
            {
              "$type": "FPEBEMNFIPF",
              "attachPointName": "BillboardAttach2"
            }
          ],
          "state": "MuteTaunt",
          "onAdded": [
            {
              "$type": "FDFGJPNDKEA",
              "pushColliderNames": [
                "MoveCollider"
              ]
            },
            {
              "$type": "FDFGJPNDKEA",
              "pushColliderNames": [
                "MoveCollider2"
              ],
              "setEnable": true
            },
            {
              "$type": "FDFGJPNDKEA",
              "pushColliderNames": [
                "PushCollider2"
              ],
              "setEnable": true
            },
            {
              "$type": "FDFGJPNDKEA",
              "pushColliderNames": [
                "PushCollider"
              ]
            },
            {
              "$type": "FDFGJPNDKEA",
              "pushColliderNames": [
                "PushCollider_Occluder"
              ],
              "setEnable": true
            },
            {
              "$type": "FDFGJPNDKEA",
              "pushColliderNames": [
                "PushCollider_Extra"
              ],
              "setEnable": true
            },
            {
              "$type": "LEDCNKMFMOK",
              "canBeHandledOnRecover": true
            },
            {
              "$type": "HCJBFBBJCBH",
              "canBeHandledOnRecover": true
            },
            {
              "$type": "JMAJPLCBAKM",
              "canBeHandledOnRecover": true,
              "range": 0.0
            },
            {
              "$type": "EOBAHJDPGPN"
            }
          ],
          "onBeingHit": [
            {
              "$type": "INBCDALOHMP",
              "targetPredicates": [
                {
                  "$type": "COMDBBNFCIJ",
                  "logic": "Equal",
                  "parameter": "IsAbilityAnimal"
                },
                {
                  "$type": "COMDBBNFCIJ",
                  "logic": "Equal",
                  "parameter": "StopBeHitAttack"
                },
                {
                  "$type": "COMDBBNFCIJ",
                  "logic": "Equal",
                  "parameter": "StopBeHit"
                }
              ],
              "successActions": [
                {
                  "$type": "BLCCGIPAOIP",
                  "PLLJBINMGJK": "HitAttackTrigger",
                  "mpTriggerOnRemote": true
                }
              ]
            }
          ]
        },
        "FauneAbyssale_SpecialConfigInWater": {
          "modifierName": "",
          "IPFJJJGABPL": 100.0,
          "modifierMixins": [
            {
              "$type": "NAOEBBPINOO",
              "hasAnimatorDie": true,
              "fallWhenAirDie": false,
              "dieForceDisappearTime": 0.0,
              "dieDisappearEffect": "Eff_Death_InWater_Common",
              "dieShaderData": "MonsterDieInWater",
              "dieShaderEnableDurationTime": 0.05000000074505806,
              "muteHitBox": true,
              "dieDenyLockOn": true,
              "dieIsGhostToEnemy": true,
              "dieIgnoreTriggerBullet": true,
              "muteBillboard": true,
              "mutePushCollider": true
            },
            {
              "$type": "FPEBEMNFIPF",
              "attachPointName": "BillboardAttach2"
            }
          ],
          "state": "MuteTaunt",
          "onAdded": [
            {
              "$type": "FDFGJPNDKEA",
              "pushColliderNames": [
                "MoveCollider"
              ]
            },
            {
              "$type": "FDFGJPNDKEA",
              "pushColliderNames": [
                "MoveCollider2"
              ],
              "setEnable": true
            },
            {
              "$type": "FDFGJPNDKEA",
              "pushColliderNames": [
                "PushCollider2"
              ],
              "setEnable": true
            },
            {
              "$type": "FDFGJPNDKEA",
              "pushColliderNames": [
                "PushCollider"
              ]
            },
            {
              "$type": "FDFGJPNDKEA",
              "pushColliderNames": [
                "PushCollider_Occluder"
              ],
              "setEnable": true
            },
            {
              "$type": "FDFGJPNDKEA",
              "pushColliderNames": [
                "PushCollider_Extra"
              ],
              "setEnable": true
            },
            {
              "$type": "LEDCNKMFMOK",
              "canBeHandledOnRecover": true
            },
            {
              "$type": "HCJBFBBJCBH",
              "canBeHandledOnRecover": true
            },
            {
              "$type": "JMAJPLCBAKM",
              "canBeHandledOnRecover": true,
              "range": 0.0
            },
            {
              "$type": "EOBAHJDPGPN"
            }
          ],
          "onRemoved": [
            {
              "$type": "FDFGJPNDKEA",
              "pushColliderNames": [
                "MoveCollider"
              ],
              "setEnable": true
            },
            {
              "$type": "FDFGJPNDKEA",
              "pushColliderNames": [
                "MoveCollider2"
              ]
            },
            {
              "$type": "FDFGJPNDKEA",
              "pushColliderNames": [
                "PushCollider2"
              ]
            },
            {
              "$type": "FDFGJPNDKEA",
              "pushColliderNames": [
                "PushCollider"
              ],
              "setEnable": true
            },
            {
              "$type": "FDFGJPNDKEA",
              "pushColliderNames": [
                "PushCollider_Occluder"
              ]
            },
            {
              "$type": "FDFGJPNDKEA",
              "pushColliderNames": [
                "PushCollider_Extra"
              ]
            },
            {
              "$type": "LEDCNKMFMOK",
              "canBeHandledOnRecover": true,
              "setEnable": true
            },
            {
              "$type": "HCJBFBBJCBH",
              "canBeHandledOnRecover": true,
              "setEnable": true
            },
            {
              "$type": "JMAJPLCBAKM",
              "predicates": [
                {
                  "$type": "CNGGLKHONAA",
                  "key": "ABILITY_ANIMAL_CAN_BE_ABSORBED",
                  "param3": -999.0,
                  "compareType": "NoneOrEqual"
                }
              ],
              "range": 8.0
            }
          ],
          "onBeingHit": [
            {
              "$type": "INBCDALOHMP",
              "targetPredicates": [
                {
                  "$type": "COMDBBNFCIJ",
                  "logic": "Equal",
                  "parameter": "IsAbilityAnimal"
                },
                {
                  "$type": "COMDBBNFCIJ",
                  "logic": "Equal",
                  "parameter": "StopBeHitAttack"
                },
                {
                  "$type": "COMDBBNFCIJ",
                  "logic": "Equal",
                  "parameter": "StopBeHit"
                }
              ],
              "successActions": [
                {
                  "$type": "BLCCGIPAOIP",
                  "PLLJBINMGJK": "HitAttackTrigger",
                  "mpTriggerOnRemote": true
                }
              ]
            }
          ]
        },
        "FauneAbyssale_Seal_WalkRandomOffset": {
          "modifierName": "",
          "IPFJJJGABPL": 100.0,
          "onAdded": [
            {
              "$type": "BEIEKAHLNED",
              "chance": 0.5,
              "successActions": [
                {
                  "$type": "AKEEDILMOJF",
                  "intID": "RanmdomOffset",
                  "param3": 1.0
                }
              ],
              "failActions": [
                {
                  "$type": "BEIEKAHLNED",
                  "chance": 0.5,
                  "successActions": [
                    {
                      "$type": "AKEEDILMOJF",
                      "intID": "RanmdomOffset",
                      "param3": 2.0
                    }
                  ],
                  "failActions": [
                    {
                      "$type": "AKEEDILMOJF",
                      "intID": "RanmdomOffset",
                      "param3": 3.0
                    }
                  ]
                }
              ]
            }
          ]
        },
        "FauneAbyssale_Seal_BeAbsorbedTurnStates": {
          "modifierName": "",
          "IPFJJJGABPL": 100.0,
          "onAdded": [
            {
              "$type": "INBCDALOHMP",
              "targetPredicates": [
                {
                  "$type": "BHFFBBOLCCP",
                  "target": "Self",
                  "modifierName": "FauneAbyssale_SpecialConfigInWater"
                }
              ],
              "successActions": [
                {
                  "$type": "GFFKENEJFFB",
                  "intID": "FreeState"
                }
              ]
            }
          ]
        }
      }
    }
  },
  {
    "Default": {
      "$type": "CBPBEHLOHKI",
      "abilityName": "FauneAbyssale_Seal_HideUIBillBoard",
      "abilityMixins": [
        {
          "$type": "LEOGLBFIELL",
          "poseIDs": [
            12,
            18
          ],
          "modifierName": "FauneAbyssale_HideBillBoard"
        }
      ],
      "modifiers": {
        "FauneAbyssale_HideBillBoard": {
          "modifierName": "",
          "IPFJJJGABPL": 100.0,
          "onAdded": [
            {
              "$type": "HBNEMPLJCMB",
              "hide": true
            }
          ],
          "onRemoved": [
            {
              "$type": "HBNEMPLJCMB",
              "predicates": [
                {
                  "$type": "CNGGLKHONAA",
                  "key": "ABILITY_ANIMAL_CAN_BE_ABSORBED",
                  "param3": -999.0,
                  "compareType": "NoneOrEqual"
                }
              ]
            }
          ],
          "onBeingHit": [
            {
              "$type": "PFKNEFGOHIH",
              "modifierName": "FauneAbyssale_HideBillBoard"
            }
          ]
        }
      }
    }
  },
  {
    "Default": {
      "$type": "CBPBEHLOHKI",
      "abilityName": "Monster_FauneAbyssale_Seal_TriggerBullet",
      "onAbilityStart": [
        {
          "$type": "CAKDDHLKOAB",
          "bulletID": 42615004,
          "born": {
            "$type": "KLPANPDGHHA",
            "offset": {
              "KGEPIMHBMOL": 0.0,
              "JEBHCGDPFEJ": 0.0,
              "LPCHALMFFOD": 0.0
            },
            "direction": {
              "$type": "MEADFIJAHPG",
              "maxAngle": 15.0,
              "startPoint": ""
            },
            "useRotation": true,
            "attachPointName": "RootNode"
          }
        }
      ]
    }
  },
  {
    "Default": {
      "$type": "CBPBEHLOHKI",
      "abilityName": "Monster_FauneAbyssale_Seal_TriggerEnhanceBullet",
      "onAbilityStart": [
        {
          "$type": "CAKDDHLKOAB",
          "bulletID": 42615021,
          "born": {
            "$type": "KLPANPDGHHA",
            "offset": {
              "KGEPIMHBMOL": 0.0,
              "JEBHCGDPFEJ": 0.0,
              "LPCHALMFFOD": 0.0
            },
            "direction": {
              "$type": "MEADFIJAHPG",
              "maxAngle": 15.0,
              "startPoint": ""
            },
            "useRotation": true,
            "attachPointName": "RootNode"
          }
        }
      ]
    }
  },
  {
    "Default": {
      "$type": "CBPBEHLOHKI",
      "abilityName": "Monster_FauneAbyssale_Seal_Bullet_Loop",
      "modifiers": {
        "UNIQUE_Monster_FauneAbyssale_Seal_Bullet_Loop": {
          "modifierName": "",
          "forceTriggerWhenChangeAuthority": true,
          "IPFJJJGABPL": 100.0,
          "onAdded": [
            {
              "$type": "ANLOBBMKNIJ",
              "rotationDampTime": "Eff_Monster_FauneAbyssale_Seal_Larva_Attack",
              "PPPDJGDDOGD": 1.0,
              "AJDILHJFNKE": -1.0
            }
          ],
          "onRemoved": [
            {
              "$type": "NCFFNDHGCMH"
            }
          ]
        }
      },
      "onAdded": [
        {
          "$type": "JLDEMMJAMLC",
          "modifierName": "UNIQUE_Monster_FauneAbyssale_Seal_Bullet_Loop"
        }
      ]
    }
  },
  {
    "Default": {
      "$type": "CBPBEHLOHKI",
      "abilityName": "Monster_FauneAbyssale_Seal_Bullet_Explode",
      "onAbilityStart": [
        {
          "$type": "KBFEIHEAMBM",
          "rotationDampTime": "Eff_Monster_FauneAbyssale_Seal_Larva_Attack_Hit",
          "born": {
            "$type": "JGEBAJLEBMO"
          },
          "PPPDJGDDOGD": 1.0,
          "AJDILHJFNKE": -1.0
        },
        {
          "$type": "KBODPNEEFGD",
          "modifierName": "UNIQUE_Monster_FauneAbyssale_Seal_Bullet_Loop"
        },
        {
          "$type": "AIFPLABJNMA",
          "attackEvent": {
            "attackPattern": {
              "$type": "BELNOFAKNBA",
              "triggerType": "TriggerNoRepeat",
              "born": {
                "$type": "JGEBAJLEBMO"
              },
              "OAHPDLJIADP": 1.5
            },
            "attackInfo": {
              "attackTag": "",
              "attenuationTag": "FauneAbyssale_Seal_Attack",
              "attenuationGroup": "FauneAbyssale_Seal_Attack",
              "attackProperty": {
                "actorGrassSubHurtDelta": 1.0,
                "actorWindSubHurtDelta": 0.0,
                "IPFJJJGABPL": 25.0,
                "strikeType": "Default",
                "enBreak": 1.0,
                "attackType": "Range",
                "GLKMCMDJBIK": 0.0
              },
              "hitPattern": {
                "onHitEffectName": "default",
                "hitImpulseY": "",
                "hitImpulseType": "LV4",
                "hitHaltTimeScale": 0.05000000074505806
              },
              "canBeModifiedBy": "OriginOwner"
            }
          },
          "targetType": "Enemy"
        }
      ]
    }
  },
  {
    "Default": {
      "$type": "CBPBEHLOHKI",
      "abilityName": "FauneAbyssale_Seal_Larva_FreeSkillsBinding",
      "abilityMixins": [
        {
          "$type": "LEOGLBFIELL",
          "poseIDs": [
            13
          ],
          "modifierName": "FauneAbyssale_Seal_Larva_SyncSingSource"
        },
        {
          "$type": "LEOGLBFIELL",
          "poseIDs": [
            14
          ],
          "modifierName": "FauneAbyssale_Seal_Larva_SyncSingTarget"
        },
        {
          "$type": "LEOGLBFIELL",
          "poseIDs": [
            15
          ],
          "modifierName": "FauneAbyssale_Seal_Larva_AsyncSingSource"
        },
        {
          "$type": "LEOGLBFIELL",
          "poseIDs": [
            16
          ],
          "modifierName": "FauneAbyssale_Seal_Larva_AsyncSingTarget"
        },
        {
          "$type": "LEOGLBFIELL",
          "poseIDs": [
            19
          ],
          "modifierName": "FauneAbyssale_Seal_Larva_SyncSingSourceIdle"
        },
        {
          "$type": "LEOGLBFIELL",
          "poseIDs": [
            20
          ],
          "modifierName": "FauneAbyssale_Seal_Larva_SyncSingTargetIdle"
        },
        {
          "$type": "LEOGLBFIELL",
          "poseIDs": [
            21
          ],
          "modifierName": "FauneAbyssale_Seal_Larva_AsyncSingSourceIdle"
        },
        {
          "$type": "LEOGLBFIELL",
          "poseIDs": [
            22
          ],
          "modifierName": "FauneAbyssale_Seal_Larva_AsyncSingTargetIdle"
        },
        {
          "$type": "LEOGLBFIELL",
          "poseIDs": [
            17
          ],
          "modifierName": "FauneAbyssale_Seal_Larva_Circling"
        },
        {
          "$type": "LEOGLBFIELL",
          "poseIDs": [
            99
          ],
          "modifierName": "FauneAbyssale_Seal_Larva_MuteFreeSkill"
        },
        {
          "$type": "EKMHJKDLBJH",
          "stateIDs": [
            "Personality7_BS",
            "Personality7",
            "Personality7_AS",
            "Personality11_BS",
            "Personality11",
            "Personality11_AS"
          ],
          "modifierName": "FauneAbyssale_Seal_Larva_MuteSingTrigger",
          "DGFCLAIDIFI": ""
        }
      ],
      "modifiers": {
        "FauneAbyssale_Seal_Larva_SyncSingSource": {
          "modifierName": "",
          "IPFJJJGABPL": 100.0,
          "onAdded": [
            {
              "$type": "BOBCOJHOKKD",
              "param3": 2.0,
              "key": "_ABILITY_FauneAbyssale_Seal_SingState",
              "useLimitRange": true,
              "param2": 5.0,
              "repeatTimes": 0.0
            }
          ]
        },
        "FauneAbyssale_Seal_Larva_SyncSingTarget": {
          "modifierName": "",
          "IPFJJJGABPL": 100.0,
          "onAdded": [
            {
              "$type": "BOBCOJHOKKD",
              "param3": 3.0,
              "key": "_ABILITY_FauneAbyssale_Seal_SingState",
              "useLimitRange": true,
              "param2": 5.0,
              "repeatTimes": 0.0
            }
          ]
        },
        "FauneAbyssale_Seal_Larva_AsyncSingSource": {
          "modifierName": "",
          "IPFJJJGABPL": 100.0,
          "onAdded": [
            {
              "$type": "BOBCOJHOKKD",
              "param3": 4.0,
              "key": "_ABILITY_FauneAbyssale_Seal_SingState",
              "useLimitRange": true,
              "param2": 5.0,
              "repeatTimes": 0.0
            }
          ]
        },
        "FauneAbyssale_Seal_Larva_AsyncSingTarget": {
          "modifierName": "",
          "IPFJJJGABPL": 100.0,
          "onAdded": [
            {
              "$type": "BOBCOJHOKKD",
              "param3": 5.0,
              "key": "_ABILITY_FauneAbyssale_Seal_SingState",
              "useLimitRange": true,
              "param2": 5.0,
              "repeatTimes": 0.0
            }
          ]
        },
        "FauneAbyssale_Seal_Larva_SyncSingSourceIdle": {
          "modifierName": "",
          "IPFJJJGABPL": 100.0,
          "onAdded": [
            {
              "$type": "BOBCOJHOKKD",
              "param3": 19.0,
              "key": "_ABILITY_FauneAbyssale_Seal_SingState",
              "useLimitRange": true,
              "param2": 50.0,
              "repeatTimes": 0.0
            }
          ]
        },
        "FauneAbyssale_Seal_Larva_SyncSingTargetIdle": {
          "modifierName": "",
          "IPFJJJGABPL": 100.0,
          "onAdded": [
            {
              "$type": "BOBCOJHOKKD",
              "param3": 20.0,
              "key": "_ABILITY_FauneAbyssale_Seal_SingState",
              "useLimitRange": true,
              "param2": 50.0,
              "repeatTimes": 0.0
            }
          ]
        },
        "FauneAbyssale_Seal_Larva_AsyncSingSourceIdle": {
          "modifierName": "",
          "IPFJJJGABPL": 100.0,
          "onAdded": [
            {
              "$type": "BOBCOJHOKKD",
              "param3": 21.0,
              "key": "_ABILITY_FauneAbyssale_Seal_SingState",
              "useLimitRange": true,
              "param2": 50.0,
              "repeatTimes": 0.0
            }
          ]
        },
        "FauneAbyssale_Seal_Larva_AsyncSingTargetIdle": {
          "modifierName": "",
          "IPFJJJGABPL": 100.0,
          "onAdded": [
            {
              "$type": "BOBCOJHOKKD",
              "param3": 22.0,
              "key": "_ABILITY_FauneAbyssale_Seal_SingState",
              "useLimitRange": true,
              "param2": 50.0,
              "repeatTimes": 0.0
            }
          ]
        },
        "FauneAbyssale_Seal_Larva_Circling": {
          "modifierName": "",
          "IPFJJJGABPL": 100.0,
          "onAdded": [
            {
              "$type": "BOBCOJHOKKD",
              "param3": 6.0,
              "key": "_ABILITY_FauneAbyssale_Seal_SingState",
              "useLimitRange": true,
              "param2": 6.0,
              "repeatTimes": 0.0
            }
          ]
        },
        "FauneAbyssale_Seal_Larva_MuteFreeSkill": {
          "modifierName": "",
          "IPFJJJGABPL": 100.0,
          "onAdded": [
            {
              "$type": "BOBCOJHOKKD",
              "param3": 99.0,
              "key": "_ABILITY_FauneAbyssale_Seal_SingState",
              "useLimitRange": true,
              "param2": 99.0,
              "repeatTimes": 0.0
            }
          ]
        },
        "FauneAbyssale_Seal_Larva_MuteSingTrigger": {
          "modifierName": "",
          "IPFJJJGABPL": 100.0,
          "onAdded": [
            {
              "$type": "BOBCOJHOKKD",
              "param3": 1.0,
              "key": "_ABILITY_FauneAbyssale_Seal_MuteSingState",
              "useLimitRange": true,
              "param2": 5.0,
              "repeatTimes": 0.0
            }
          ],
          "onRemoved": [
            {
              "$type": "BOBCOJHOKKD",
              "param3": 0.0,
              "key": "_ABILITY_FauneAbyssale_Seal_MuteSingState",
              "useLimitRange": true,
              "param2": 5.0,
              "repeatTimes": 0.0
            }
          ]
        }
      },
      "onAdded": [
        {
          "$type": "BOBCOJHOKKD",
          "param3": 0.0,
          "key": "_ABILITY_FauneAbyssale_Seal_MuteSingState",
          "useLimitRange": true,
          "param2": 5.0,
          "repeatTimes": 0.0
        }
      ]
    }
  },
  {
    "Default": {
      "$type": "CBPBEHLOHKI",
      "abilityName": "FauneAbyssale_Seal_Larva_FreeSkillsBindingForPose14",
      "abilityMixins": [
        {
          "$type": "EJDKAKLFCPA",
          "stateIDs": [
            "Struggle_Absorbed"
          ],
          "modifierName": "UNIQUE_FauneAbyssale_Seal_BeAbsorbed",
          "DGFCLAIDIFI": ""
        }
      ],
      "modifiers": {
        "UNIQUE_FauneAbyssale_Seal_BeAbsorbed": {
          "modifierName": "",
          "forceTriggerWhenChangeAuthority": true,
          "IPFJJJGABPL": 100.0
        },
        "FauneAbyssale_Seal_Larva_SyncSingTrigger": {
          "modifierName": "",
          "elementDurability": 1.0,
          "IPFJJJGABPL": 100.0,
          "onAdded": [
            {
              "$type": "BLCCGIPAOIP",
              "target": "Target",
              "PLLJBINMGJK": "SyncSingTrigger"
            }
          ]
        }
      },
      "onAbilityStart": [
        {
          "$type": "INBCDALOHMP",
          "otherTargets": {
            "$type": "IJOFJOGLDHE",
            "topLimit": 10,
            "entityTypePriority": [
              "Monster"
            ],
            "shapeName": "CircleR20H20",
            "campTargetType": "AllExceptSelf",
            "doOffStage": 1.0
          },
          "predicates": [
            {
              "$type": "CNGGLKHONAA",
              "key": "_ABILITY_FauneAbyssale_Seal_SingState",
              "param3": 3.0
            },
            {
              "$type": "BCFNGJHILAG",
              "predicates": [
                {
                  "$type": "BHFFBBOLCCP",
                  "modifierName": "UNIQUE_FauneAbyssale_Seal_BeAbsorbed"
                }
              ]
            }
          ],
          "targetPredicates": [
            {
              "$type": "CNGGLKHONAA",
              "key": "_ABILITY_FauneAbyssale_Seal_SingState",
              "param3": 3.0
            },
            {
              "$type": "BCFNGJHILAG",
              "predicates": [
                {
                  "$type": "BHFFBBOLCCP",
                  "modifierName": "UNIQUE_FauneAbyssale_Seal_BeAbsorbed"
                }
              ]
            }
          ],
          "successActions": [
            {
              "$type": "PELJALPANCA",
              "target": "Target",
              "modifierName": "FauneAbyssale_Seal_Larva_SyncSingTrigger"
            }
          ]
        }
      ]
    }
  },
  {
    "Default": {
      "$type": "CBPBEHLOHKI",
      "abilityName": "FauneAbyssale_Seal_Larva_FreeSkillsBindingForPose20",
      "modifiers": {
        "FauneAbyssale_Seal_Larva_SyncSingIdleTrigger": {
          "modifierName": "",
          "elementDurability": 1.0,
          "IPFJJJGABPL": 100.0,
          "onAdded": [
            {
              "$type": "BLCCGIPAOIP",
              "target": "Target",
              "PLLJBINMGJK": "SyncSingIdleTrigger"
            }
          ]
        }
      },
      "onAbilityStart": [
        {
          "$type": "INBCDALOHMP",
          "otherTargets": {
            "$type": "IJOFJOGLDHE",
            "topLimit": 10,
            "entityTypePriority": [
              "Monster"
            ],
            "shapeName": "CircleR20H20",
            "campTargetType": "AllExceptSelf",
            "doOffStage": 1.0
          },
          "predicates": [
            {
              "$type": "CNGGLKHONAA",
              "key": "_ABILITY_FauneAbyssale_Seal_SingState",
              "param3": 20.0
            },
            {
              "$type": "BCFNGJHILAG",
              "predicates": [
                {
                  "$type": "BHFFBBOLCCP",
                  "modifierName": "UNIQUE_FauneAbyssale_Seal_BeAbsorbed"
                }
              ]
            }
          ],
          "targetPredicates": [
            {
              "$type": "CNGGLKHONAA",
              "key": "_ABILITY_FauneAbyssale_Seal_SingState",
              "param3": 20.0
            },
            {
              "$type": "BCFNGJHILAG",
              "predicates": [
                {
                  "$type": "BHFFBBOLCCP",
                  "modifierName": "UNIQUE_FauneAbyssale_Seal_BeAbsorbed"
                }
              ]
            }
          ],
          "successActions": [
            {
              "$type": "PELJALPANCA",
              "target": "Target",
              "modifierName": "FauneAbyssale_Seal_Larva_SyncSingIdleTrigger"
            }
          ]
        }
      ]
    }
  },
  {
    "Default": {
      "$type": "CBPBEHLOHKI",
      "abilityName": "FauneAbyssale_Seal_Larva_FreeSkillsBindingForPose16",
      "modifiers": {
        "FauneAbyssale_Seal_Larva_AsyncSingTrigger": {
          "modifierName": "",
          "elementDurability": 1.0,
          "IPFJJJGABPL": 100.0,
          "onAdded": [
            {
              "$type": "BLCCGIPAOIP",
              "target": "Target",
              "PLLJBINMGJK": "AsyncSingTrigger"
            }
          ]
        }
      },
      "onAbilityStart": [
        {
          "$type": "INBCDALOHMP",
          "otherTargets": {
            "$type": "IJOFJOGLDHE",
            "topLimit": 1,
            "entityTypePriority": [
              "Monster"
            ],
            "sortType": "Nearest",
            "shapeName": "CircleR20H20",
            "campTargetType": "AllExceptSelf",
            "doOffStage": 1.0
          },
          "predicates": [
            {
              "$type": "CNGGLKHONAA",
              "key": "_ABILITY_FauneAbyssale_Seal_SingState",
              "param3": 5.0
            },
            {
              "$type": "CNGGLKHONAA",
              "key": "_ABILITY_FauneAbyssale_Seal_MuteSingState",
              "param3": 0.0
            },
            {
              "$type": "BCFNGJHILAG",
              "predicates": [
                {
                  "$type": "BHFFBBOLCCP",
                  "modifierName": "UNIQUE_FauneAbyssale_Seal_BeAbsorbed"
                }
              ]
            }
          ],
          "targetPredicates": [
            {
              "$type": "CNGGLKHONAA",
              "key": "_ABILITY_FauneAbyssale_Seal_SingState",
              "param3": 5.0
            },
            {
              "$type": "CNGGLKHONAA",
              "key": "_ABILITY_FauneAbyssale_Seal_MuteSingState",
              "param3": 0.0
            },
            {
              "$type": "BCFNGJHILAG",
              "predicates": [
                {
                  "$type": "BHFFBBOLCCP",
                  "modifierName": "UNIQUE_FauneAbyssale_Seal_BeAbsorbed"
                }
              ]
            }
          ],
          "successActions": [
            {
              "$type": "PELJALPANCA",
              "target": "Target",
              "modifierName": "FauneAbyssale_Seal_Larva_AsyncSingTrigger"
            }
          ]
        }
      ]
    }
  },
  {
    "Default": {
      "$type": "CBPBEHLOHKI",
      "abilityName": "FauneAbyssale_Seal_Larva_FreeSkillsBindingForPose22",
      "modifiers": {
        "FauneAbyssale_Seal_Larva_AsyncSingIdleTrigger": {
          "modifierName": "",
          "elementDurability": 1.0,
          "IPFJJJGABPL": 100.0,
          "onAdded": [
            {
              "$type": "BLCCGIPAOIP",
              "target": "Target",
              "PLLJBINMGJK": "AsyncSingIdleTrigger"
            }
          ]
        }
      },
      "onAbilityStart": [
        {
          "$type": "INBCDALOHMP",
          "otherTargets": {
            "$type": "IJOFJOGLDHE",
            "topLimit": 1,
            "entityTypePriority": [
              "Monster"
            ],
            "sortType": "Nearest",
            "shapeName": "CircleR20H20",
            "campTargetType": "AllExceptSelf",
            "doOffStage": 1.0
          },
          "predicates": [
            {
              "$type": "CNGGLKHONAA",
              "key": "_ABILITY_FauneAbyssale_Seal_SingState",
              "param3": 22.0
            },
            {
              "$type": "CNGGLKHONAA",
              "key": "_ABILITY_FauneAbyssale_Seal_MuteSingState",
              "param3": 0.0
            },
            {
              "$type": "BCFNGJHILAG",
              "predicates": [
                {
                  "$type": "BHFFBBOLCCP",
                  "modifierName": "UNIQUE_FauneAbyssale_Seal_BeAbsorbed"
                }
              ]
            }
          ],
          "targetPredicates": [
            {
              "$type": "CNGGLKHONAA",
              "key": "_ABILITY_FauneAbyssale_Seal_SingState",
              "param3": 22.0
            },
            {
              "$type": "CNGGLKHONAA",
              "key": "_ABILITY_FauneAbyssale_Seal_MuteSingState",
              "param3": 0.0
            },
            {
              "$type": "BCFNGJHILAG",
              "predicates": [
                {
                  "$type": "BHFFBBOLCCP",
                  "modifierName": "UNIQUE_FauneAbyssale_Seal_BeAbsorbed"
                }
              ]
            }
          ],
          "successActions": [
            {
              "$type": "PELJALPANCA",
              "target": "Target",
              "modifierName": "FauneAbyssale_Seal_Larva_AsyncSingIdleTrigger"
            }
          ]
        }
      ]
    }
  },
  {
    "Default": {
      "$type": "CBPBEHLOHKI",
      "abilityName": "FauneAbyssale_Seal_Larva_SpecialSing",
      "abilityMixins": [
        {
          "$type": "MLJAPFBGEEH",
          "globalValueKey": "SGV_FauneAbyssale_Seal_Activity_SingState",
          "gvInTalk": 0.0,
          "valueSteps": [
            -0.5,
            0.5,
            1.5,
            2.5
          ],
          "modifierNameSteps": [
            "FauneAbyssale_Seal_Larva_SpecialSing_State0",
            "FauneAbyssale_Seal_Larva_SpecialSing_State1",
            "FauneAbyssale_Seal_Larva_SpecialSing_ChangeState"
          ],
          "NMCLMHFBALJ": true
        },
        {
          "$type": "EJDKAKLFCPA",
          "stateIDs": [
            "SpecialSing_BS"
          ],
          "modifierName": "FauneAbyssale_Seal_Larva_SpecialSing_State2",
          "DGFCLAIDIFI": ""
        }
      ],
      "modifiers": {
        "FauneAbyssale_Seal_Larva_SpecialSing_State0": {
          "modifierName": "",
          "IPFJJJGABPL": 100.0,
          "onAdded": [
            {
              "$type": "AKEEDILMOJF",
              "intID": "SpecialSingState",
              "param3": 0.0
            }
          ]
        },
        "FauneAbyssale_Seal_Larva_SpecialSing_State1": {
          "modifierName": "",
          "IPFJJJGABPL": 100.0,
          "onAdded": [
            {
              "$type": "AKEEDILMOJF",
              "intID": "SpecialSingState",
              "param3": 1.0
            }
          ]
        },
        "FauneAbyssale_Seal_Larva_SpecialSing_ChangeState": {
          "modifierName": "",
          "IPFJJJGABPL": 100.0,
          "onAdded": [
            {
              "$type": "GFFKENEJFFB",
              "intID": "FreeState",
              "value": 2
            }
          ]
        },
        "FauneAbyssale_Seal_Larva_SpecialSing_State2": {
          "modifierName": "",
          "IPFJJJGABPL": 100.0,
          "onAdded": [
            {
              "$type": "AKEEDILMOJF",
              "intID": "SpecialSingState",
              "param3": 2.0
            }
          ]
        }
      }
    }
  },
  {
    "Default": {
      "$type": "CBPBEHLOHKI",
      "abilityName": "Monster_FauneAbyssale_Seal_Large_Pace",
      "abilityMixins": [
        {
          "$type": "EJDKAKLFCPA",
          "stateIDs": [
            "Standby"
          ],
          "modifierName": "Monster_FauneAbyssale_Seal_Large_Pace",
          "DGFCLAIDIFI": ""
        },
        {
          "$type": "EJDKAKLFCPA",
          "stateIDs": [
            "StandbyFree"
          ],
          "modifierName": "Monster_FauneAbyssale_Seal_Large_Pace",
          "DGFCLAIDIFI": ""
        },
        {
          "$type": "EJDKAKLFCPA",
          "stateIDs": [
            "Walk"
          ],
          "modifierName": "Monster_FauneAbyssale_Seal_Large_Pace",
          "DGFCLAIDIFI": ""
        },
        {
          "$type": "EJDKAKLFCPA",
          "stateIDs": [
            "WalkFree"
          ],
          "modifierName": "Monster_FauneAbyssale_Seal_Large_Pace",
          "DGFCLAIDIFI": ""
        }
      ],
      "modifiers": {
        "Monster_FauneAbyssale_Seal_Large_Pace": {
          "modifierName": "",
          "IPFJJJGABPL": 100.0,
          "onAdded": [
            {
              "$type": "AKEEDILMOJF",
              "intID": "WalkPace",
              "param3": 1.0
            }
          ]
        }
      },
      "onAdded": [
        {
          "$type": "AKEEDILMOJF",
          "intID": "WalkPace",
          "param3": 1.0
        }
      ]
    }
  },
  {
    "Default": {
      "$type": "CBPBEHLOHKI",
      "abilityName": "Monster_FauneAbyssale_Seal_Enormous_Pace",
      "abilityMixins": [
        {
          "$type": "EJDKAKLFCPA",
          "stateIDs": [
            "Standby"
          ],
          "modifierName": "Monster_FauneAbyssale_Seal_Enormous_Pace",
          "DGFCLAIDIFI": ""
        },
        {
          "$type": "EJDKAKLFCPA",
          "stateIDs": [
            "StandbyFree"
          ],
          "modifierName": "Monster_FauneAbyssale_Seal_Enormous_Pace",
          "DGFCLAIDIFI": ""
        },
        {
          "$type": "EJDKAKLFCPA",
          "stateIDs": [
            "Walk"
          ],
          "modifierName": "Monster_FauneAbyssale_Seal_Enormous_Pace",
          "DGFCLAIDIFI": ""
        },
        {
          "$type": "EJDKAKLFCPA",
          "stateIDs": [
            "WalkFree"
          ],
          "modifierName": "Monster_FauneAbyssale_Seal_Enormous_Pace",
          "DGFCLAIDIFI": ""
        }
      ],
      "modifiers": {
        "Monster_FauneAbyssale_Seal_Enormous_Pace": {
          "modifierName": "",
          "IPFJJJGABPL": 100.0,
          "onAdded": [
            {
              "$type": "AKEEDILMOJF",
              "intID": "WalkPace",
              "param3": 2.0
            }
          ]
        }
      },
      "onAdded": [
        {
          "$type": "AKEEDILMOJF",
          "intID": "WalkPace",
          "param3": 2.0
        }
      ]
    }
  },
  {
    "Default": {
      "$type": "CBPBEHLOHKI",
      "abilityName": "Monster_FauneAbyssale_Seal_HideBody",
      "abilityMixins": [
        {
          "$type": "MLJAPFBGEEH",
          "globalValueKey": "_ABILITY_FauneAbyssale_Seal_HideState",
          "gvInTalk": 0.0,
          "valueSteps": [
            -0.5,
            0.5,
            1.5
          ],
          "modifierNameSteps": [
            "Monster_FauneAbyssale_Seal_ShowBody",
            "Monster_FauneAbyssale_Seal_HideBody"
          ]
        },
        {
          "$type": "EJDKAKLFCPA",
          "stateIDs": [
            "Personality1_AS"
          ],
          "modifierName": "Monster_FauneAbyssale_Seal_HideBodySkill",
          "DGFCLAIDIFI": ""
        },
        {
          "$type": "MFGGKNJLABP",
          "PNAPPKMKAJP": [
            "Personality4"
          ],
          "endNormalizedTime": 0.5,
          "angularSpeed": 360.0,
          "attackTrigger": ""
        },
        {
          "$type": "EJDKAKLFCPA",
          "stateIDs": [
            "Personality4"
          ],
          "modifierName": "Monster_FauneAbyssale_Seal_TriggerBulletWhileHide",
          "DGFCLAIDIFI": ""
        },
        {
          "$type": "LEOGLBFIELL",
          "poseIDs": [
            11,
            12,
            13,
            14,
            15,
            16,
            17,
            18,
            19,
            20,
            21,
            22,
            99,
            901
          ],
          "modifierName": "Monster_FauneAbyssale_Seal_ForceShow"
        }
      ],
      "modifiers": {
        "Monster_FauneAbyssale_Seal_ForceShow": {
          "modifierName": "",
          "IPFJJJGABPL": 100.0,
          "onAdded": [
            {
              "$type": "BOBCOJHOKKD",
              "param3": 0.0,
              "key": "_ABILITY_FauneAbyssale_Seal_HideState",
              "param2": 0.0,
              "repeatTimes": 0.0
            },
            {
              "$type": "KJCHPDPBJHL",
              "boolID": "HideState"
            }
          ]
        },
        "Monster_FauneAbyssale_Seal_ShowBody": {
          "modifierName": "",
          "IPFJJJGABPL": 100.0,
          "properties": {
            "Actor_EndureDelta": 0.0
          },
          "onAdded": [
            {
              "$type": "GFFKENEJFFB",
              "intID": "HideState"
            },
            {
              "$type": "HBNEMPLJCMB"
            }
          ]
        },
        "Monster_FauneAbyssale_Seal_HideBody": {
          "modifierName": "",
          "IPFJJJGABPL": 100.0,
          "modifierMixins": [
            {
              "$type": "HGGKNHLBMED",
              "damageRatio": "SealInvisible"
            }
          ],
          "properties": {
            "Actor_EndureDelta": 0.0
          },
          "state": "DenyLockOn",
          "onAdded": [
            {
              "$type": "GFFKENEJFFB",
              "intID": "HideState",
              "value": 1
            },
            {
              "$type": "KJCHPDPBJHL",
              "boolID": "HideState",
              "param3": true
            },
            {
              "$type": "HBNEMPLJCMB",
              "hide": true
            },
            {
              "$type": "ANLOBBMKNIJ",
              "rotationDampTime": "Eff_Monster_FauneAbyssale_Seal_Larva_Bubble",
              "PPPDJGDDOGD": 1.0,
              "AJDILHJFNKE": -1.0
            },
            {
              "$type": "PELJALPANCA",
              "modifierName": "Monster_FauneAbyssale_Seal_HideBodyDetectCD"
            }
          ],
          "onBeingHit": [
            {
              "$type": "INBCDALOHMP",
              "targetPredicates": [
                {
                  "$type": "NNEHDJHMING",
                  "attackTags": [
                    "Dive_Echo_Bullet"
                  ]
                },
                {
                  "$type": "BCFNGJHILAG",
                  "predicates": [
                    {
                      "$type": "BHFFBBOLCCP",
                      "modifierName": "Monster_FauneAbyssale_Seal_HideBodyDetectCD"
                    }
                  ]
                }
              ],
              "successActions": [
                {
                  "$type": "DLEIPBPNAIM",
                  "paramList": [
                    0,
                    0,
                    0
                  ]
                },
                {
                  "$type": "PELJALPANCA",
                  "modifierName": "Monster_FauneAbyssale_Seal_BeFindAttack"
                }
              ]
            }
          ]
        },
        "Monster_FauneAbyssale_Seal_HideBodySkill": {
          "modifierName": "",
          "IPFJJJGABPL": 100.0,
          "onAdded": [
            {
              "$type": "BOBCOJHOKKD",
              "param3": 1.0,
              "key": "_ABILITY_FauneAbyssale_Seal_HideState",
              "param2": 0.0,
              "repeatTimes": 0.0
            },
            {
              "$type": "GFFKENEJFFB",
              "intID": "HideState",
              "value": 1
            },
            {
              "$type": "CDHOAGHMOEE"
            }
          ]
        },
        "Monster_FauneAbyssale_Seal_HideBodyDetectCD": {
          "modifierName": "",
          "elementDurability": 4.0,
          "IPFJJJGABPL": 100.0,
          "modifierMixins": [
            {
              "$type": "JEBJLNFFPBC",
              "attackTags": [
                "Dive_Echo_Bullet"
              ]
            }
          ]
        },
        "Monster_FauneAbyssale_Seal_TriggerBulletWhileHide": {
          "modifierName": "",
          "IPFJJJGABPL": 100.0,
          "thinkInterval": 1.25,
          "onAdded": [
            {
              "$type": "PELJALPANCA",
              "modifierName": "Monster_FauneAbyssale_Seal_DelayTurn"
            }
          ],
          "onThinkInterval": [
            {
              "$type": "CAKDDHLKOAB",
              "bulletID": 42615021,
              "born": {
                "$type": "KLPANPDGHHA",
                "direction": {
                  "$type": "MEADFIJAHPG",
                  "startPoint": ""
                },
                "useRotation": true,
                "attachPointName": "RootNode"
              }
            }
          ]
        },
        "Monster_FauneAbyssale_Seal_DelayTurn": {
          "modifierName": "",
          "elementDurability": 0.550000011920929,
          "IPFJJJGABPL": 100.0,
          "onRemoved": [
            {
              "$type": "BEIEKAHLNED",
              "chance": 0.5,
              "successActions": [
                {
                  "$type": "PAMDPDLLAPG",
                  "toPos": {
                    "$type": "IAENDIPDFKD",
                    "offset": {
                      "KGEPIMHBMOL": -50.0,
                      "JEBHCGDPFEJ": 0.0,
                      "LPCHALMFFOD": 0.0
                    },
                    "useRotation": true
                  }
                }
              ],
              "failActions": [
                {
                  "$type": "PAMDPDLLAPG",
                  "toPos": {
                    "$type": "IAENDIPDFKD",
                    "offset": {
                      "KGEPIMHBMOL": 50.0,
                      "JEBHCGDPFEJ": 0.0,
                      "LPCHALMFFOD": 0.0
                    },
                    "useRotation": true
                  }
                }
              ]
            }
          ]
        },
        "Monster_FauneAbyssale_Seal_BeFindAttack": {
          "modifierName": "",
          "elementDurability": 5.0,
          "IPFJJJGABPL": 100.0,
          "onAdded": [
            {
              "$type": "BOBCOJHOKKD",
              "param3": 0.0,
              "key": "_ABILITY_FauneAbyssale_Seal_HideState",
              "param2": 0.0,
              "repeatTimes": 0.0
            },
            {
              "$type": "KJCHPDPBJHL",
              "boolID": "HideState"
            },
            {
              "$type": "DLLGNJPHFDE",
              "ECOAIFKENNM": 0.15000000596046448,
              "BJKGFBGEFPB": ""
            },
            {
              "$type": "CDHOAGHMOEE"
            },
            {
              "$type": "ONALKNNKKLH",
              "cameraShake": {
                "shakeRange": 0.20000000298023224,
                "shakeTime": 0.11999999731779099,
                "shakeDistance": 5.0,
                "extension": {
                  "baseOnCamera": true
                }
              }
            },
            {
              "$type": "BLCCGIPAOIP",
              "PLLJBINMGJK": "BeAbsorbed",
              "mpTriggerOnRemote": true
            },
            {
              "$type": "DOANGHCALGB",
              "skillIDs": [
                201
              ]
            },
            {
              "$type": "DOANGHCALGB",
              "skillIDs": [
                202
              ]
            }
          ]
        }
      },
      "onAdded": [
        {
          "$type": "BOBCOJHOKKD",
          "param3": 0.0,
          "key": "_ABILITY_FauneAbyssale_Seal_HideState",
          "useLimitRange": true,
          "param2": 1.0,
          "repeatTimes": 0.0
        }
      ],
      "onKill": [
        {
          "$type": "BOBCOJHOKKD",
          "param3": 0.0,
          "key": "_ABILITY_FauneAbyssale_Seal_HideState",
          "useLimitRange": true,
          "param2": 1.0,
          "repeatTimes": 0.0
        }
      ]
    }
  },
  {
    "Default": {
      "$type": "CBPBEHLOHKI",
      "abilityName": "Monster_FauneAbyssale_Seal_EnhanceBullet_Loop",
      "modifiers": {
        "UNIQUE_Monster_FauneAbyssale_Seal_EnhanceBullet_Loop": {
          "modifierName": "",
          "forceTriggerWhenChangeAuthority": true,
          "IPFJJJGABPL": 100.0,
          "onAdded": [
            {
              "$type": "ANLOBBMKNIJ",
              "rotationDampTime": "Eff_Monster_FauneAbyssale_Seal_Larva_EnhancedAttack",
              "PPPDJGDDOGD": 1.0,
              "AJDILHJFNKE": -1.0
            }
          ],
          "onRemoved": [
            {
              "$type": "NCFFNDHGCMH"
            }
          ]
        }
      },
      "onAdded": [
        {
          "$type": "JLDEMMJAMLC",
          "modifierName": "UNIQUE_Monster_FauneAbyssale_Seal_EnhanceBullet_Loop"
        }
      ]
    }
  },
  {
    "Default": {
      "$type": "CBPBEHLOHKI",
      "abilityName": "Monster_FauneAbyssale_Seal_EnhanceBullet_Explode",
      "onAbilityStart": [
        {
          "$type": "KBODPNEEFGD",
          "modifierName": "UNIQUE_Monster_FauneAbyssale_Seal_EnhanceBullet_Loop"
        },
        {
          "$type": "AIFPLABJNMA",
          "attackEvent": {
            "attackPattern": {
              "$type": "BELNOFAKNBA",
              "triggerType": "TriggerNoRepeat",
              "born": {
                "$type": "JGEBAJLEBMO"
              },
              "OAHPDLJIADP": 0.75
            },
            "attackInfo": {
              "attackTag": "",
              "attenuationTag": "FauneAbyssale_Seal_Attack",
              "attenuationGroup": "FauneAbyssale_Seal_Attack",
              "attackProperty": {
                "actorGrassSubHurtDelta": 1.0,
                "actorWindSubHurtDelta": 0.0,
                "elementType": "Water",
                "IPFJJJGABPL": 25.0,
                "strikeType": "Default",
                "enBreak": 1.0,
                "GLKMCMDJBIK": 0.0
              },
              "hitPattern": {
                "onHitEffectName": "default",
                "hitImpulseY": "",
                "hitImpulseType": "LV4",
                "hitHaltTimeScale": 0.05000000074505806
              },
              "canBeModifiedBy": "OriginOwner"
            }
          },
          "targetType": "Enemy"
        }
      ]
    }
  },
  {
    "Default": {
      "$type": "CBPBEHLOHKI",
      "abilityName": "Monster_FauneAbyssale_Seal_EnhanceBullet_AS",
      "onAbilityStart": [
        {
          "$type": "KBFEIHEAMBM",
          "rotationDampTime": "Eff_Monster_FauneAbyssale_Seal_Larva_EnhancedAttack_AS",
          "born": {
            "$type": "KLPANPDGHHA",
            "useRotation": true,
            "attachPointName": "RootNode"
          },
          "PPPDJGDDOGD": 1.0,
          "AJDILHJFNKE": -1.0
        }
      ]
    }
  },
  {
    "Default": {
      "$type": "CBPBEHLOHKI",
      "abilityName": "FauneAbyssale_Seal_SetAnimatorBool",
      "onAdded": [
        {
          "$type": "KJCHPDPBJHL",
          "boolID": "IsAbilityAnimal",
          "param3": true
        }
      ]
    }
  },
  {
    "Default": {
      "$type": "CBPBEHLOHKI",
      "abilityName": "FauneAbyssale_Seal_BeHitAttackCD",
      "abilityMixins": [
        {
          "$type": "EJDKAKLFCPA",
          "stateIDs": [
            "Hit_HOnFloorAttack",
            "Hit_HOnFloorAttackInWater"
          ],
          "modifierName": "FauneAbyssale_Seal_BeHitAttackState",
          "DGFCLAIDIFI": ""
        },
        {
          "$type": "EJDKAKLFCPA",
          "stateIDs": [
            "Hit_HOnFloorAttack",
            "Hit_HOnFloorAttackInWater",
            "Hit_HOnFloor",
            "Hit_HOnFloorInWater"
          ],
          "modifierName": "FauneAbyssale_Seal_BeHitState",
          "DGFCLAIDIFI": ""
        }
      ],
      "modifiers": {
        "FauneAbyssale_Seal_BeHitAttackState": {
          "modifierName": "",
          "IPFJJJGABPL": 100.0,
          "onRemoved": [
            {
              "$type": "PELJALPANCA",
              "modifierName": "FauneAbyssale_Seal_BeHitAttackCD"
            }
          ]
        },
        "FauneAbyssale_Seal_BeHitState": {
          "modifierName": "",
          "IPFJJJGABPL": 100.0,
          "modifierMixins": [
            {
              "$type": "CIGJDPCDOEB",
              "onAdded": [
                {
                  "$type": "KJCHPDPBJHL",
                  "boolID": "StopBeHit",
                  "param3": true
                }
              ],
              "onRemoved": [
                {
                  "$type": "KJCHPDPBJHL",
                  "boolID": "StopBeHit"
                }
              ]
            }
          ]
        },
        "FauneAbyssale_Seal_BeHitAttackCD": {
          "modifierName": "",
          "elementDurability": 8.0,
          "IPFJJJGABPL": 100.0,
          "onAdded": [
            {
              "$type": "KJCHPDPBJHL",
              "boolID": "StopBeHitAttack",
              "param3": true
            }
          ],
          "onRemoved": [
            {
              "$type": "KJCHPDPBJHL",
              "boolID": "StopBeHitAttack"
            }
          ]
        }
      }
    }
  }
]