[
  {
    "Default": {
      "$type": "CBPBEHLOHKI",
      "abilityName": "Eremite_Hatchet_AnimatorSteer",
      "abilityMixins": [
        {
          "$type": "IILHMBGONGM",
          "steerStateIDs": [
            "Slash01_AB"
          ],
          "endNormalizedTime": 0.8500000238418579,
          "angularSpeed": 150.0,
          "attackTrigger": "",
          "DGFCLAIDIFI": ""
        },
        {
          "$type": "BEJLNHKNIKK",
          "steerStateIDs": [
            "Slash02"
          ],
          "startNormalizedTime": 0.34299999475479126,
          "endNormalizedTime": 0.4129999876022339,
          "angularSpeed": 80.0,
          "attackTrigger": "",
          "DGFCLAIDIFI": ""
        },
        {
          "$type": "IILHMBGONGM",
          "steerStateIDs": [
            "Slash02_AB"
          ],
          "endNormalizedTime": 0.699999988079071,
          "angularSpeed": 150.0,
          "attackTrigger": "",
          "DGFCLAIDIFI": ""
        },
        {
          "$type": "IILHMBGONGM",
          "steerStateIDs": [
            "ThrowSand_BS"
          ],
          "startNormalizedTime": 0.0860000029206276,
          "endNormalizedTime": 0.1899999976158142,
          "angularSpeed": 400.0,
          "attackTrigger": "",
          "DGFCLAIDIFI": ""
        },
        {
          "$type": "IILHMBGONGM",
          "steerStateIDs": [
            "ThrowSand"
          ],
          "startNormalizedTime": 0.12099999934434891,
          "endNormalizedTime": 0.20000000298023224,
          "angularSpeed": 400.0,
          "attackTrigger": "",
          "DGFCLAIDIFI": ""
        },
        {
          "$type": "IILHMBGONGM",
          "steerStateIDs": [
            "Alert"
          ],
          "endNormalizedTime": 0.699999988079071,
          "angularSpeed": 300.0,
          "attackTrigger": "",
          "DGFCLAIDIFI": ""
        },
        {
          "$type": "IILHMBGONGM",
          "steerStateIDs": [
            "Crossleg_Alert"
          ],
          "startNormalizedTime": 0.07400000095367432,
          "endNormalizedTime": 0.15600000321865082,
          "angularSpeed": 420.0,
          "attackTrigger": "",
          "DGFCLAIDIFI": ""
        },
        {
          "$type": "IILHMBGONGM",
          "steerStateIDs": [
            "Crossleg_Alert"
          ],
          "startNormalizedTime": 0.42800000309944153,
          "angularSpeed": 270.0,
          "attackTrigger": "",
          "DGFCLAIDIFI": ""
        }
      ]
    }
  },
  {
    "Default": {
      "$type": "CBPBEHLOHKI",
      "abilityName": "Eremite_Hatchet_Slash_Dist_Calc",
      "onAbilityStart": [
        {
          "$type": "BLCCGIPAOIP",
          "predicates": [
            {
              "$type": "FMBJAJFLDIP",
              "target": "SelfAttackTarget",
              "logic": "Lesser",
              "param3": 5.5,
              "DDALGNLEHOD": ""
            }
          ],
          "PLLJBINMGJK": "ExtraSlashTrigger"
        }
      ]
    }
  },
  {
    "Default": {
      "$type": "CBPBEHLOHKI",
      "abilityName": "Eremite_Hatchet_ThrowSand",
      "modifiers": {
        "ThrowSand_Monitor": {
          "modifierName": "",
          "IPFJJJGABPL": 100.0,
          "onAttackLanded": [
            {
              "$type": "INBCDALOHMP",
              "target": "Target",
              "targetPredicates": [
                {
                  "$type": "NNEHDJHMING",
                  "attackTags": [
                    "EremiteThrowSand"
                  ]
                },
                {
                  "$type": "NIMAPECDNKD",
                  "entityTypes": [
                    "Avatar",
                    "Vehicle"
                  ]
                }
              ],
              "successActions": [
                {
                  "$type": "PELJALPANCA",
                  "target": "Target",
                  "modifierName": "Sand_ScreenBlur"
                }
              ]
            }
          ]
        },
        "Sand_ScreenBlur": {
          "stacking": "Unique",
          "modifierName": "",
          "elementDurability": 5.0,
          "IPFJJJGABPL": 100.0,
          "modifierMixins": [
            {
              "$type": "COEDOLJOHAK",
              "postEffectAssetName": "PostEffect_Monster_Eremite_Hatchet_ThrowSand_ScreenEffect",
              "duration": 5.0
            }
          ],
          "onAdded": [
            {
              "$type": "AKCJLBDMNDE",
              "muteRemoteAction": true,
              "enable": true,
              "cameraFogEffectName": "Eff_Monster_Eremite_Hatchet_ThrowSand_ScreenEffect",
              "playerFogEffectName": ""
            }
          ],
          "onRemoved": [
            {
              "$type": "AKCJLBDMNDE",
              "cameraFogEffectName": "",
              "playerFogEffectName": ""
            }
          ],
          "onKill": [
            {
              "$type": "AKCJLBDMNDE",
              "cameraFogEffectName": "",
              "playerFogEffectName": ""
            }
          ]
        }
      },
      "onAdded": [
        {
          "$type": "PELJALPANCA",
          "modifierName": "ThrowSand_Monitor"
        }
      ],
      "onAbilityStart": [
        {
          "$type": "AIFPLABJNMA",
          "attackEvent": {
            "attackPattern": {
              "$type": "GMDIMKKHACA",
              "triggerType": "TriggerNoRepeat",
              "born": {
                "$type": "IAENDIPDFKD",
                "offset": {
                  "KGEPIMHBMOL": 0.0,
                  "JEBHCGDPFEJ": 0.0,
                  "LPCHALMFFOD": -0.30000001192092896
                }
              },
              "height": 1.7000000476837158,
              "fanAngle": 70.0,
              "OAHPDLJIADP": 3.0
            },
            "attackInfo": {
              "attackTag": "EremiteThrowSand",
              "attenuationTag": "",
              "attenuationGroup": "default",
              "attackProperty": {
                "actorGrassSubHurtDelta": 0.0,
                "actorWindSubHurtDelta": 0.0,
                "IPFJJJGABPL": 0.0,
                "enBreak": 0.0,
                "GLKMCMDJBIK": 0.0
              },
              "hitPattern": {
                "onHitEffectName": "none",
                "hitImpulseY": "",
                "hitImpulseType": "LV1",
                "muteHitText": true
              },
              "canBeModifiedBy": "OriginOwner"
            }
          },
          "targetType": "Enemy"
        }
      ]
    }
  },
  {
    "Default": {
      "$type": "CBPBEHLOHKI",
      "abilityName": "Eremite_FreePose_Female_Display_Manager",
      "abilityMixins": [
        {
          "$type": "EJDKAKLFCPA",
          "stateIDs": [
            "Feeding_Idle",
            "Feeding_Skill"
          ],
          "modifierName": "FreePose_Display_Fodder",
          "DGFCLAIDIFI": ""
        },
        {
          "$type": "EJDKAKLFCPA",
          "stateIDs": [
            "Crossleg_OudIdle",
            "Crossleg_PlayOud_BS",
            "Crossleg_PlayOud_Loop",
            "Crossleg_PlayOud_AS"
          ],
          "modifierName": "FreePose_Display_Oud",
          "DGFCLAIDIFI": ""
        },
        {
          "$type": "NAFEDCNOIGL",
          "stateID": "CrosslegAlert",
          "modifierName": "FreePose_Display_Oud_BeforeBroken",
          "normalizeEnd": 0.2930000126361847,
          "DGFCLAIDIFI": ""
        },
        {
          "$type": "EAKJOFAIAPH",
          "poseIDs": [
            9555
          ],
          "enterActions": [
            {
              "$type": "IDNGFEEBPAM",
              "boolID": "StopPlayOud"
            }
          ]
        },
        {
          "$type": "DIDNLIKKLLF",
          "stateIDs": [
            "Crossleg_PlayOud_Loop"
          ],
          "exitActions": [
            {
              "$type": "IDNGFEEBPAM",
              "boolID": "StopPlayOud",
              "param3": true
            }
          ],
          "DGFCLAIDIFI": ""
        }
      ],
      "modifiers": {
        "FreePose_Display_Fodder": {
          "modifierName": "",
          "IPFJJJGABPL": 100.0,
          "onAdded": [
            {
              "$type": "ANLOBBMKNIJ",
              "rotationDampTime": "Eff_Monster_Eremite_Freepose_Fodder",
              "PPPDJGDDOGD": 1.0,
              "AJDILHJFNKE": -1.0
            }
          ]
        },
        "FreePose_Display_Oud": {
          "modifierName": "",
          "IPFJJJGABPL": 100.0,
          "onAdded": [
            {
              "$type": "ANLOBBMKNIJ",
              "rotationDampTime": "Eff_Monster_Eremite_Freepose_Oud_Female",
              "PPPDJGDDOGD": 1.0,
              "AJDILHJFNKE": -1.0
            }
          ]
        },
        "FreePose_Display_Oud_BeforeBroken": {
          "modifierName": "",
          "IPFJJJGABPL": 100.0,
          "onAdded": [
            {
              "$type": "ANLOBBMKNIJ",
              "rotationDampTime": "Eff_Monster_Eremite_Freepose_Oud_Female",
              "PPPDJGDDOGD": 1.0,
              "AJDILHJFNKE": -1.0
            }
          ]
        }
      }
    }
  }
]