[
  {
    "Default": {
      "$type": "CBPBEHLOHKI",
      "abilityName": "Fungus_Un_BVB_Dendro_Bullet_Trigger",
      "abilityMixins": [
        {
          "$type": "EJDKAKLFCPA",
          "stateIDs": [
            "Shoot_Loop"
          ],
          "modifierName": "DendroBullet_VFX_Display",
          "DGFCLAIDIFI": ""
        },
        {
          "$type": "IILHMBGONGM",
          "steerStateIDs": [
            "NormalAttack"
          ],
          "angularSpeed": 180.0,
          "attackTrigger": "",
          "DGFCLAIDIFI": ""
        }
      ],
      "modifiers": {
        "DendroBullet_VFX_Display": {
          "modifierName": "",
          "IPFJJJGABPL": 100.0,
          "onAdded": [
            {
              "$type": "ANLOBBMKNIJ",
              "rotationDampTime": "Eff_Monster_Fungus_Un_Delta_Grass_ShootDecayed_Loop",
              "PPPDJGDDOGD": 1.0,
              "AJDILHJFNKE": -1.0
            }
          ]
        }
      },
      "onAbilityStart": [
        {
          "$type": "CAKDDHLKOAB",
          "bulletID": 42609021,
          "born": {
            "$type": "KLPANPDGHHA",
            "direction": {
              "$type": "MEADFIJAHPG",
              "startPoint": ""
            },
            "attachPointName": "BulletSource",
            "attachPointTargetType": "Self"
          },
          "lifeByOwnerV2": true
        },
        {
          "$type": "KBFEIHEAMBM",
          "rotationDampTime": "Eff_Monster_Fungus_Un_Delta_Grass_ShootDecayed_Attack",
          "PPPDJGDDOGD": 1.0,
          "AJDILHJFNKE": -1.0
        },
        {
          "$type": "GJCAPCBELPA",
          "abilityName": "Fungus_Un_BVB_Dendro_LeafBlessing"
        }
      ]
    }
  },
  {
    "Default": {
      "$type": "CBPBEHLOHKI",
      "abilityName": "Fungus_Un_BVB_Dendro_Bullet",
      "modifiers": {
        "DendroBullet_Display": {
          "modifierName": "",
          "elementType": "Grass",
          "IPFJJJGABPL": 100.0,
          "onAdded": [
            {
              "$type": "ANLOBBMKNIJ",
              "rotationDampTime": "Eff_Monster_Fungus_Un_Delta_Grass_Shoot_BulletDecayed",
              "PPPDJGDDOGD": 1.0,
              "AJDILHJFNKE": -1.0
            },
            {
              "$type": "ANLOBBMKNIJ",
              "rotationDampTime": "Eff_Monster_Fungus_Un_Delta_Grass_Shoot_BulletDecayed_Trail",
              "PPPDJGDDOGD": 1.0,
              "AJDILHJFNKE": -1.0
            }
          ]
        }
      },
      "onAdded": [
        {
          "$type": "JLDEMMJAMLC",
          "modifierName": "DendroBullet_Display"
        }
      ],
      "onAbilityStart": [
        {
          "$type": "KBFEIHEAMBM",
          "rotationDampTime": "Eff_Monster_Fungus_Un_Delta_Grass_Shoot_HitDecayed",
          "born": {
            "$type": "KLPANPDGHHA",
            "attachPointName": "RootNode"
          },
          "PPPDJGDDOGD": 1.0,
          "AJDILHJFNKE": -1.0
        },
        {
          "$type": "AIFPLABJNMA",
          "attackEvent": {
            "attackPattern": {
              "$type": "BELNOFAKNBA",
              "triggerType": "TriggerNoRepeat",
              "born": {
                "$type": "JGEBAJLEBMO"
              },
              "OAHPDLJIADP": 1.600000023841858
            },
            "attackInfo": {
              "attackTag": "",
              "attenuationTag": "",
              "attenuationGroup": "default",
              "attackProperty": {
                "actorGrassSubHurtDelta": 3.0,
                "actorWindSubHurtDelta": 0.0,
                "elementType": "Grass",
                "IPFJJJGABPL": 25.0,
                "attackType": "Range",
                "GLKMCMDJBIK": 0.0
              },
              "hitPattern": {
                "onHitEffectName": "default",
                "hitImpulseY": "",
                "hitImpulseType": "LV2"
              },
              "canBeModifiedBy": "Owner"
            }
          },
          "targetType": "Enemy"
        }
      ]
    }
  },
  {
    "Default": {
      "$type": "CBPBEHLOHKI",
      "abilityName": "Fungus_Un_BVB_Dendro_LeafBlessing",
      "modifiers": {
        "LeafBlessing_HealEffect": {
          "modifierName": "",
          "elementDurability": 0.10000000149011612,
          "IPFJJJGABPL": 100.0,
          "onAdded": [
            {
              "$type": "KBFEIHEAMBM",
              "rotationDampTime": "Eff_Monster_Fungus_Un_Grass_LeafBlessing",
              "PPPDJGDDOGD": 1.0,
              "AJDILHJFNKE": -1.0
            }
          ],
          "onRemoved": [
            {
              "$type": "FHGPOFDJDCO",
              "CKDBFHCIJEK": 0.11999999731779099,
              "cdRatio": ""
            }
          ]
        }
      },
      "onAdded": [
        {
          "$type": "BOBCOJHOKKD",
          "param3": 1.0,
          "key": "_NORMAL_ATTACK_COUNT_",
          "param2": 0.0,
          "repeatTimes": 0.0
        }
      ],
      "onAbilityStart": [
        {
          "$type": "INBCDALOHMP",
          "targetPredicates": [
            {
              "$type": "CNGGLKHONAA",
              "target": "Self",
              "key": "_NORMAL_ATTACK_COUNT_",
              "param3": 2.0,
              "compareType": "MoreThanAndEqual"
            }
          ],
          "successActions": [
            {
              "$type": "PELJALPANCA",
              "otherTargets": {
                "$type": "IJOFJOGLDHE",
                "topLimit": 1,
                "sortType": "LowHpRatio",
                "shapeName": "CircleR30H10",
                "campTargetType": "SelfCamp",
                "doOffStage": 1.0
              },
              "predicates": [
                {
                  "$type": "NIMAPECDNKD",
                  "entityTypes": [
                    "Monster",
                    "Partner"
                  ]
                }
              ],
              "modifierName": "LeafBlessing_HealEffect"
            },
            {
              "$type": "BOBCOJHOKKD",
              "param3": 1.0,
              "key": "_NORMAL_ATTACK_COUNT_",
              "param2": 0.0,
              "repeatTimes": 0.0
            }
          ],
          "failActions": [
            {
              "$type": "LCOEFEMOHLP",
              "param3": 1.0,
              "key": "_NORMAL_ATTACK_COUNT_",
              "param2": 0.0,
              "repeatTimes": 0.0
            }
          ]
        }
      ]
    }
  },
  {
    "Default": {
      "$type": "CBPBEHLOHKI",
      "abilityName": "Fungus_Un_BVB_Dendro_Bullet_UnionBurstTrigger",
      "abilityMixins": [
        {
          "$type": "EJDKAKLFCPA",
          "stateIDs": [
            "Burst_BS",
            "Burst_Loop"
          ],
          "modifierName": "Burst_VFX_Display",
          "DGFCLAIDIFI": ""
        },
        {
          "$type": "IILHMBGONGM",
          "steerStateIDs": [
            "UnionBurst"
          ],
          "angularSpeed": 180.0,
          "attackTrigger": "",
          "DGFCLAIDIFI": ""
        }
      ],
      "modifiers": {
        "Burst_VFX_Display": {
          "modifierName": "",
          "IPFJJJGABPL": 100.0,
          "onAdded": [
            {
              "$type": "ANLOBBMKNIJ",
              "rotationDampTime": "Eff_Monster_Fungus_Un_Grass_UnionBurst_Loop",
              "PPPDJGDDOGD": 1.0,
              "AJDILHJFNKE": -1.0
            }
          ]
        }
      },
      "onAbilityStart": [
        {
          "$type": "CAKDDHLKOAB",
          "bulletID": 42609026,
          "born": {
            "$type": "KLPANPDGHHA",
            "direction": {
              "$type": "MEADFIJAHPG",
              "startPoint": ""
            },
            "attachPointName": "BulletSource",
            "attachPointTargetType": "Self"
          },
          "lifeByOwnerV2": true
        },
        {
          "$type": "GJCAPCBELPA",
          "abilityName": "Fungus_Un_BVB_Dendro_LeafBlessing"
        }
      ]
    }
  },
  {
    "Default": {
      "$type": "CBPBEHLOHKI",
      "abilityName": "Fungus_Un_BVB_Dendro_Bullet_UB",
      "modifiers": {
        "DendroBullet_Display": {
          "modifierName": "",
          "elementType": "Grass",
          "IPFJJJGABPL": 100.0,
          "onAdded": [
            {
              "$type": "ANLOBBMKNIJ",
              "rotationDampTime": "Eff_Monster_Fungus_Un_Delta_Grass_Shoot_BulletDecayed",
              "PPPDJGDDOGD": 1.0,
              "AJDILHJFNKE": -1.0
            },
            {
              "$type": "ANLOBBMKNIJ",
              "rotationDampTime": "Eff_Monster_Fungus_Un_Delta_Grass_Shoot_BulletDecayed_Trail",
              "PPPDJGDDOGD": 1.0,
              "AJDILHJFNKE": -1.0
            }
          ]
        }
      },
      "onAdded": [
        {
          "$type": "JLDEMMJAMLC",
          "modifierName": "DendroBullet_Display"
        }
      ],
      "onAbilityStart": [
        {
          "$type": "KBFEIHEAMBM",
          "rotationDampTime": "Eff_Monster_Fungus_Un_Delta_Grass_Shoot_HitDecayed",
          "born": {
            "$type": "KLPANPDGHHA",
            "attachPointName": "RootNode"
          },
          "PPPDJGDDOGD": 1.0,
          "AJDILHJFNKE": -1.0
        },
        {
          "$type": "AIFPLABJNMA",
          "attackEvent": {
            "attackPattern": {
              "$type": "BELNOFAKNBA",
              "triggerType": "TriggerNoRepeat",
              "born": {
                "$type": "JGEBAJLEBMO"
              },
              "OAHPDLJIADP": 1.600000023841858
            },
            "attackInfo": {
              "attackTag": "",
              "attenuationTag": "Dendro_Bullet",
              "attenuationGroup": "FungusFightV2_Seq2",
              "attackProperty": {
                "actorGrassSubHurtDelta": 2.0,
                "actorWindSubHurtDelta": 0.0,
                "elementType": "Grass",
                "IPFJJJGABPL": 25.0,
                "attackType": "Range",
                "GLKMCMDJBIK": 0.0
              },
              "hitPattern": {
                "onHitEffectName": "default",
                "hitImpulseY": "",
                "hitImpulseType": "LV2"
              },
              "canBeModifiedBy": "Owner"
            }
          },
          "targetType": "Enemy"
        }
      ]
    }
  }
]