[
  {
    "Default": {
      "$type": "CBPBEHLOHKI",
      "abilityName": "Monster_Lava_Solid_SteerAttack",
      "abilityMixins": [
        {
          "$type": "IILHMBGONGM",
          "steerStateIDs": [
            "TurnLeft"
          ],
          "endNormalizedTime": 0.699999988079071,
          "angularSpeed": 75.0,
          "attackTrigger": "",
          "DGFCLAIDIFI": ""
        },
        {
          "$type": "IILHMBGONGM",
          "steerStateIDs": [
            "TurnRight"
          ],
          "endNormalizedTime": 0.699999988079071,
          "angularSpeed": 75.0,
          "attackTrigger": "",
          "DGFCLAIDIFI": ""
        },
        {
          "$type": "IILHMBGONGM",
          "steerStateIDs": [
            "MeleeAttack"
          ],
          "endNormalizedTime": 0.30799999833106995,
          "angularSpeed": 180.0,
          "attackTrigger": "",
          "DGFCLAIDIFI": ""
        },
        {
          "$type": "IILHMBGONGM",
          "steerStateIDs": [
            "MeleeAttack"
          ],
          "startNormalizedTime": 0.3700000047683716,
          "endNormalizedTime": 0.5400000214576721,
          "angularSpeed": 180.0,
          "attackAngle": 30.0,
          "attackTrigger": "",
          "DGFCLAIDIFI": ""
        },
        {
          "$type": "IILHMBGONGM",
          "steerStateIDs": [
            "SmashAttack"
          ],
          "endNormalizedTime": 0.5,
          "angularSpeed": 180.0,
          "attackTrigger": "",
          "attackDistance": 1.5,
          "DGFCLAIDIFI": ""
        },
        {
          "$type": "IILHMBGONGM",
          "steerStateIDs": [
            "ThrowRock"
          ],
          "endNormalizedTime": 0.550000011920929,
          "angularSpeed": 180.0,
          "attackTrigger": "",
          "attackDistance": 1.5,
          "DGFCLAIDIFI": ""
        },
        {
          "$type": "IILHMBGONGM",
          "steerStateIDs": [
            "DashAttack_Loop"
          ],
          "endNormalizedTime": 20.0,
          "angularSpeed": 240.0,
          "attackTrigger": "DashEnd",
          "attackDistance": 7.0,
          "DGFCLAIDIFI": ""
        },
        {
          "$type": "IILHMBGONGM",
          "steerStateIDs": [
            "DashAttack_AS"
          ],
          "endNormalizedTime": 0.25,
          "angularSpeed": 90.0,
          "attackTrigger": "",
          "DGFCLAIDIFI": ""
        }
      ]
    }
  },
  {
    "Default": {
      "$type": "CBPBEHLOHKI",
      "abilityName": "Monster_Lava_Solid_StateControl",
      "abilityMixins": [
        {
          "$type": "AOKOIIHJJPJ",
          "alertness": [
            0
          ],
          "modifierName": "Monster_Lava_Solid_Reset"
        },
        {
          "$type": "EJDKAKLFCPA",
          "stateIDs": [
            "Alert",
            "Underground"
          ],
          "modifierName": "Monster_Lava_Solid_Foundation_Underground",
          "DGFCLAIDIFI": ""
        },
        {
          "$type": "EJDKAKLFCPA",
          "stateIDs": [
            "Alert"
          ],
          "modifierName": "Monster_Lava_Solid_Foundation_Alert",
          "DGFCLAIDIFI": ""
        },
        {
          "$type": "LEOGLBFIELL",
          "poseIDs": [
            202
          ],
          "modifierName": "Monster_Lava_Solid_Static"
        }
      ],
      "modifiers": {
        "Monster_Lava_Solid_Reset": {
          "modifierName": "",
          "IPFJJJGABPL": 100.0,
          "onAdded": [
            {
              "$type": "BOBCOJHOKKD",
              "param3": 0.0,
              "key": "_CHARGEBAR_VALUE",
              "param2": 0.0,
              "repeatTimes": 0.0
            }
          ]
        },
        "Monster_Lava_Solid_StateControl_ChargeBar": {
          "modifierName": "",
          "IPFJJJGABPL": 100.0,
          "modifierMixins": [
            {
              "$type": "HBPDEMIJCDL",
              "chargeBarElementType": "Fire",
              "chargeBarIconID": 2,
              "initialValue": 0.0,
              "param2": 1000.0
            },
            {
              "$type": "AICOKKKAMHO",
              "group": "Monster_Lava_Solid_StateChange"
            },
            {
              "$type": "MLJAPFBGEEH",
              "globalValueKey": "_CHARGEBAR_VALUE",
              "gvInTalk": 0.0,
              "valueSteps": [
                -0.5,
                199.5,
                399.5,
                599.5,
                999.5,
                1000.5
              ],
              "modifierNameSteps": [
                "Stage1",
                "Stage2",
                "Stage3",
                "Stage4",
                "KillSelf"
              ]
            }
          ],
          "onBeingHit": [
            {
              "$type": "INBCDALOHMP",
              "target": "Target",
              "targetPredicates": [
                {
                  "$type": "LBHMLHHIIOJ",
                  "element": "Fire"
                }
              ],
              "successActions": [
                {
                  "$type": "PMJJNECJCLE",
                  "param3": 7.0,
                  "param2": 0.0,
                  "repeatTimes": 0.0
                }
              ]
            }
          ]
        },
        "Stage1": {
          "modifierName": "",
          "IPFJJJGABPL": 100.0
        },
        "Stage2": {
          "modifierName": "",
          "IPFJJJGABPL": 100.0,
          "onAdded": [
            {
              "$type": "CCNPNMMONDO",
              "attackInfo": {
                "attackTag": "",
                "attenuationTag": "",
                "attenuationGroup": "default",
                "attackProperty": {
                  "actorGrassSubHurtDelta": 0.0,
                  "actorWindSubHurtDelta": 0.0,
                  "IPFJJJGABPL": 100.0,
                  "strikeType": "Blunt",
                  "enBreak": 100.0,
                  "HMBONGBFIAP": [
                    0.25,
                    "FIGHT_PROP_MAX_HP",
                    "MUL"
                  ],
                  "GLKMCMDJBIK": 0.0
                },
                "hitPattern": {
                  "onHitEffectName": "default",
                  "hitImpulseY": "",
                  "hitImpulseType": "LV0"
                }
              }
            },
            {
              "$type": "BLCCGIPAOIP",
              "PLLJBINMGJK": "ProcessTrigger",
              "mpTriggerOnRemote": true
            }
          ]
        },
        "Stage3": {
          "modifierName": "",
          "IPFJJJGABPL": 100.0,
          "onAdded": [
            {
              "$type": "CCNPNMMONDO",
              "attackInfo": {
                "attackTag": "",
                "attenuationTag": "",
                "attenuationGroup": "default",
                "attackProperty": {
                  "actorGrassSubHurtDelta": 0.0,
                  "actorWindSubHurtDelta": 0.0,
                  "IPFJJJGABPL": 100.0,
                  "strikeType": "Blunt",
                  "enBreak": 100.0,
                  "HMBONGBFIAP": [
                    0.20000000298023224,
                    "FIGHT_PROP_MAX_HP",
                    "MUL"
                  ],
                  "GLKMCMDJBIK": 0.0
                },
                "hitPattern": {
                  "onHitEffectName": "default",
                  "hitImpulseY": "",
                  "hitImpulseType": "LV0"
                }
              }
            },
            {
              "$type": "BLCCGIPAOIP",
              "PLLJBINMGJK": "ProcessTrigger",
              "mpTriggerOnRemote": true
            }
          ]
        },
        "Stage4": {
          "modifierName": "",
          "IPFJJJGABPL": 100.0,
          "onAdded": [
            {
              "$type": "CCNPNMMONDO",
              "attackInfo": {
                "attackTag": "",
                "attenuationTag": "",
                "attenuationGroup": "default",
                "attackProperty": {
                  "actorGrassSubHurtDelta": 0.0,
                  "actorWindSubHurtDelta": 0.0,
                  "IPFJJJGABPL": 100.0,
                  "strikeType": "Blunt",
                  "enBreak": 100.0,
                  "HMBONGBFIAP": [
                    0.15000000596046448,
                    "FIGHT_PROP_MAX_HP",
                    "MUL"
                  ],
                  "GLKMCMDJBIK": 0.0
                },
                "hitPattern": {
                  "onHitEffectName": "default",
                  "hitImpulseY": "",
                  "hitImpulseType": "LV0"
                }
              }
            },
            {
              "$type": "BLCCGIPAOIP",
              "PLLJBINMGJK": "ProcessTrigger",
              "mpTriggerOnRemote": true
            }
          ]
        },
        "KillSelf": {
          "modifierName": "",
          "IPFJJJGABPL": 100.0,
          "onAdded": [
            {
              "$type": "KJCHPDPBJHL",
              "boolID": "SpecialDie",
              "param3": true
            },
            {
              "$type": "NCFFNDHGCMH",
              "configIdArray": [
                26270201,
                26270202
              ]
            }
          ]
        },
        "Monster_Lava_Solid_Foundation_Underground": {
          "modifierName": "",
          "IPFJJJGABPL": 100.0,
          "modifierMixins": [
            {
              "$type": "NIJGPDECHLC"
            }
          ],
          "onAdded": [
            {
              "$type": "HBNEMPLJCMB",
              "hide": true
            },
            {
              "$type": "JLDEMMJAMLC",
              "modifierName": "Underground_Invincible"
            },
            {
              "$type": "JLDEMMJAMLC",
              "modifierName": "Underground_DenyLockOn"
            },
            {
              "$type": "JLDEMMJAMLC",
              "modifierName": "Underground_IsGhostToAllied"
            },
            {
              "$type": "JLDEMMJAMLC",
              "modifierName": "Underground_IsGhostToEnemy"
            },
            {
              "$type": "JLDEMMJAMLC",
              "modifierName": "Underground_MuteTaunt"
            }
          ],
          "onRemoved": [
            {
              "$type": "HBNEMPLJCMB"
            }
          ]
        },
        "Underground_Invincible": {
          "modifierName": "",
          "IPFJJJGABPL": 100.0,
          "state": "Invincible"
        },
        "Underground_DenyLockOn": {
          "modifierName": "",
          "IPFJJJGABPL": 100.0,
          "state": "DenyLockOn"
        },
        "Underground_IsGhostToAllied": {
          "modifierName": "",
          "IPFJJJGABPL": 100.0,
          "state": "IsGhostToAllied"
        },
        "Underground_IsGhostToEnemy": {
          "modifierName": "",
          "IPFJJJGABPL": 100.0,
          "state": "IsGhostToEnemy"
        },
        "Underground_MuteTaunt": {
          "modifierName": "",
          "IPFJJJGABPL": 100.0,
          "state": "MuteTaunt"
        },
        "Monster_Lava_Solid_Foundation_Alert": {
          "modifierName": "",
          "IPFJJJGABPL": 100.0,
          "onAdded": [
            {
              "$type": "IDNGFEEBPAM",
              "boolID": "Underground"
            }
          ]
        },
        "Monster_Lava_Solid_Static": {
          "modifierName": "",
          "IPFJJJGABPL": 100.0,
          "modifierMixins": [
            {
              "$type": "NIJGPDECHLC"
            }
          ]
        }
      },
      "onAdded": [
        {
          "$type": "PELJALPANCA",
          "modifierName": "Monster_Lava_Solid_StateControl_ChargeBar"
        }
      ]
    }
  },
  {
    "Default": {
      "$type": "CBPBEHLOHKI",
      "abilityName": "Monster_Lava_Solid_FoundationControl",
      "abilityMixins": [
        {
          "$type": "EJDKAKLFCPA",
          "stateIDs": [
            "Alert",
            "Die",
            "SpecialDie",
            "MeleeAttack",
            "SmashAttack",
            "ThrowRock",
            "DashAttack_BS",
            "DashAttack_Loop",
            "DashAttack_AS"
          ],
          "modifierName": "Monster_Lava_Solid_Foundation_Ani_Deactive",
          "DGFCLAIDIFI": ""
        }
      ],
      "modifiers": {
        "Monster_Lava_Solid_Foundation_Ani_Deactive": {
          "modifierName": "",
          "IPFJJJGABPL": 100.0,
          "onAdded": [
            {
              "$type": "KJCHPDPBJHL",
              "boolID": "LayerOn"
            }
          ],
          "onRemoved": [
            {
              "$type": "KJCHPDPBJHL",
              "boolID": "LayerOn",
              "param3": true
            }
          ]
        }
      }
    }
  },
  {
    "Default": {
      "$type": "CBPBEHLOHKI",
      "abilityName": "Monster_Lava_Solid_SmashAttack_Strike2_Burst1",
      "onAbilityStart": [
        {
          "$type": "KBFEIHEAMBM",
          "rotationDampTime": "Eff_Monster_Lava_Solid_SmashAttack_Strike2_Burst",
          "born": {
            "$type": "IAENDIPDFKD",
            "offset": {
              "KGEPIMHBMOL": 0.5,
              "JEBHCGDPFEJ": 0.0,
              "LPCHALMFFOD": 4.0
            },
            "useRotation": true
          },
          "PPPDJGDDOGD": 1.0,
          "AJDILHJFNKE": -1.0
        },
        {
          "$type": "AIFPLABJNMA",
          "attackEvent": {
            "attackPattern": {
              "$type": "GMDIMKKHACA",
              "triggerType": "TriggerNoRepeat",
              "born": {
                "$type": "IAENDIPDFKD",
                "offset": {
                  "KGEPIMHBMOL": 0.5,
                  "JEBHCGDPFEJ": 0.0,
                  "LPCHALMFFOD": 4.0
                },
                "useRotation": true
              },
              "OAHPDLJIADP": 3.0
            },
            "attackInfo": {
              "attackTag": "",
              "attenuationTag": "Lava_Solid_SmashAttack",
              "attenuationGroup": "Lava_Solid_SmashAttack",
              "attackProperty": {
                "actorGrassSubHurtDelta": 0.699999988079071,
                "actorWindSubHurtDelta": 0.0,
                "elementType": "Rock",
                "IPFJJJGABPL": 25.0,
                "strikeType": "Blunt",
                "enBreak": 80.0,
                "attackType": "Melee",
                "GLKMCMDJBIK": 0.0
              },
              "hitPattern": {
                "onHitEffectName": "default",
                "hitImpulseY": "",
                "hitImpulseType": "LV3"
              },
              "forceCameraShake": true,
              "cameraShake": {
                "shakeRange": 0.1599999964237213,
                "shakeTime": 0.11999999731779099,
                "shakeDistance": 25.0
              }
            }
          },
          "targetType": "Enemy"
        }
      ]
    }
  },
  {
    "Default": {
      "$type": "CBPBEHLOHKI",
      "abilityName": "Monster_Lava_Solid_SmashAttack_Strike2_Burst2",
      "onAbilityStart": [
        {
          "$type": "KBFEIHEAMBM",
          "rotationDampTime": "Eff_Monster_Lava_Solid_SmashAttack_Strike2_Burst",
          "born": {
            "$type": "IAENDIPDFKD",
            "offset": {
              "KGEPIMHBMOL": 0.5,
              "JEBHCGDPFEJ": 0.0,
              "LPCHALMFFOD": 7.0
            },
            "useRotation": true
          },
          "PPPDJGDDOGD": 1.0,
          "AJDILHJFNKE": -1.0
        },
        {
          "$type": "AIFPLABJNMA",
          "attackEvent": {
            "attackPattern": {
              "$type": "GMDIMKKHACA",
              "triggerType": "TriggerNoRepeat",
              "born": {
                "$type": "IAENDIPDFKD",
                "offset": {
                  "KGEPIMHBMOL": 0.5,
                  "JEBHCGDPFEJ": 0.0,
                  "LPCHALMFFOD": 8.0
                },
                "useRotation": true
              },
              "OAHPDLJIADP": 3.0
            },
            "attackInfo": {
              "attackTag": "",
              "attenuationTag": "Lava_Solid_SmashAttack",
              "attenuationGroup": "Lava_Solid_SmashAttack",
              "attackProperty": {
                "actorGrassSubHurtDelta": 0.699999988079071,
                "actorWindSubHurtDelta": 0.0,
                "elementType": "Rock",
                "IPFJJJGABPL": 25.0,
                "strikeType": "Blunt",
                "enBreak": 80.0,
                "attackType": "Melee",
                "GLKMCMDJBIK": 0.0
              },
              "hitPattern": {
                "onHitEffectName": "default",
                "hitImpulseY": "",
                "hitImpulseType": "LV4"
              },
              "forceCameraShake": true,
              "cameraShake": {
                "shakeRange": 0.1599999964237213,
                "shakeTime": 0.11999999731779099,
                "shakeDistance": 25.0
              }
            }
          },
          "targetType": "Enemy"
        }
      ]
    }
  },
  {
    "Default": {
      "$type": "CBPBEHLOHKI",
      "abilityName": "Monster_Lava_Solid_SmashAttack_Strike2_Burst3",
      "onAbilityStart": [
        {
          "$type": "KBFEIHEAMBM",
          "rotationDampTime": "Eff_Monster_Lava_Solid_SmashAttack_Strike2_Burst",
          "born": {
            "$type": "IAENDIPDFKD",
            "offset": {
              "KGEPIMHBMOL": 0.5,
              "JEBHCGDPFEJ": 0.0,
              "LPCHALMFFOD": 10.0
            },
            "useRotation": true
          },
          "PPPDJGDDOGD": 1.0,
          "AJDILHJFNKE": -1.0
        },
        {
          "$type": "AIFPLABJNMA",
          "attackEvent": {
            "attackPattern": {
              "$type": "GMDIMKKHACA",
              "triggerType": "TriggerNoRepeat",
              "born": {
                "$type": "IAENDIPDFKD",
                "offset": {
                  "KGEPIMHBMOL": 0.5,
                  "JEBHCGDPFEJ": 0.0,
                  "LPCHALMFFOD": 8.0
                },
                "useRotation": true
              },
              "OAHPDLJIADP": 3.0
            },
            "attackInfo": {
              "attackTag": "",
              "attenuationTag": "Lava_Solid_SmashAttack",
              "attenuationGroup": "Lava_Solid_SmashAttack",
              "attackProperty": {
                "actorGrassSubHurtDelta": 0.699999988079071,
                "actorWindSubHurtDelta": 0.0,
                "elementType": "Rock",
                "IPFJJJGABPL": 25.0,
                "strikeType": "Blunt",
                "enBreak": 80.0,
                "attackType": "Melee",
                "GLKMCMDJBIK": 0.0
              },
              "hitPattern": {
                "onHitEffectName": "default",
                "hitImpulseY": "",
                "hitImpulseType": "LV4"
              },
              "forceCameraShake": true,
              "cameraShake": {
                "shakeRange": 0.1599999964237213,
                "shakeTime": 0.11999999731779099,
                "shakeDistance": 25.0
              }
            }
          },
          "targetType": "Enemy"
        }
      ]
    }
  },
  {
    "Default": {
      "$type": "CBPBEHLOHKI",
      "abilityName": "Monster_Lava_Solid_ThrowRock",
      "onAbilityStart": [
        {
          "$type": "CAKDDHLKOAB",
          "target": "SelfAttackTarget",
          "bulletID": 42008004,
          "born": {
            "$type": "KLPANPDGHHA",
            "offset": {
              "KGEPIMHBMOL": 0.0,
              "JEBHCGDPFEJ": 0.0,
              "LPCHALMFFOD": 0.0
            },
            "direction": {
              "$type": "MEADFIJAHPG",
              "startPoint": ""
            },
            "useRotation": true,
            "attachPointName": "LeftHand",
            "attachPointTargetType": "Caster"
          },
          "lifeByOwnerV2": true
        }
      ]
    }
  },
  {
    "Default": {
      "$type": "CBPBEHLOHKI",
      "abilityName": "Monster_Lava_Solid_ThrowRock_Fire",
      "onAbilityStart": [
        {
          "$type": "KBFEIHEAMBM",
          "rotationDampTime": "Eff_Monster_Lava_Solid_ThrowRock_Fire",
          "born": {
            "$type": "KLPANPDGHHA",
            "offset": {
              "KGEPIMHBMOL": 0.0,
              "JEBHCGDPFEJ": 0.0,
              "LPCHALMFFOD": 0.0
            },
            "direction": {
              "$type": "MEADFIJAHPG",
              "startPoint": ""
            },
            "useRotation": true,
            "attachPointName": "ThrowRockPoint",
            "attachPointTargetType": "Caster"
          },
          "PPPDJGDDOGD": 1.0,
          "AJDILHJFNKE": -1.0
        }
      ]
    }
  },
  {
    "Default": {
      "$type": "CBPBEHLOHKI",
      "abilityName": "Lava_Solid_ThrowRock",
      "modifiers": {
        "Lava_Solid_ThrowRock_Eff": {
          "modifierName": "",
          "IPFJJJGABPL": 100.0,
          "onAdded": [
            {
              "$type": "ANLOBBMKNIJ",
              "rotationDampTime": "Eff_Monster_Lava_Solid_ThrowRock_RockBullet",
              "PPPDJGDDOGD": 1.0,
              "AJDILHJFNKE": -1.0
            },
            {
              "$type": "ANLOBBMKNIJ",
              "rotationDampTime": "Eff_Monster_Lava_Solid_ThrowRock_RockBullet_Trail",
              "PPPDJGDDOGD": 1.0,
              "AJDILHJFNKE": -1.0
            }
          ]
        }
      },
      "onAdded": [
        {
          "$type": "JLDEMMJAMLC",
          "modifierName": "Lava_Solid_ThrowRock_Eff"
        }
      ],
      "onAbilityStart": [
        {
          "$type": "AIFPLABJNMA",
          "attackEvent": {
            "attackPattern": {
              "$type": "BELNOFAKNBA",
              "triggerType": "TriggerNoRepeat",
              "born": {
                "$type": "JGEBAJLEBMO",
                "offset": {
                  "KGEPIMHBMOL": 0.0,
                  "JEBHCGDPFEJ": 0.0,
                  "LPCHALMFFOD": 0.0
                }
              },
              "OAHPDLJIADP": 3.0
            },
            "attackInfo": {
              "attackTag": "",
              "attenuationTag": "",
              "attenuationGroup": "default",
              "attackProperty": {
                "actorGrassSubHurtDelta": 1.0,
                "actorWindSubHurtDelta": 0.0,
                "elementType": "Rock",
                "IPFJJJGABPL": 25.0,
                "strikeType": "Default",
                "enBreak": 80.0,
                "GLKMCMDJBIK": 0.0
              },
              "hitPattern": {
                "onHitEffectName": "default",
                "hitImpulseY": "",
                "hitImpulseType": "LV2",
                "hitHaltTimeScale": 0.05000000074505806
              },
              "cameraShake": {
                "shakeType": "HitVector",
                "shakeRange": 0.05999999865889549,
                "shakeTime": 0.11999999731779099,
                "shakeDir": {
                  "z": 1.0
                }
              },
              "canBeModifiedBy": "OriginOwner"
            }
          },
          "targetType": "Enemy"
        },
        {
          "$type": "GFANIJMFNOJ",
          "hitEntity": "Eff_Monster_Lava_Solid_ThrowRock_RockExplode",
          "hitScene": {
            "defaultEffect": "Eff_Monster_Lava_Solid_ThrowRock_RockExplode_HitGround"
          }
        }
      ]
    }
  },
  {
    "Default": {
      "$type": "CBPBEHLOHKI",
      "abilityName": "Monster_Lava_Solid_DashAttack",
      "abilityMixins": [
        {
          "$type": "EJDKAKLFCPA",
          "stateIDs": [
            "DashAttack_BS",
            "DashAttack_Loop"
          ],
          "modifierName": "Monster_Lava_Solid_DashAttack_State",
          "DGFCLAIDIFI": ""
        },
        {
          "$type": "NAFEDCNOIGL",
          "stateID": "DashAttack_BS",
          "modifierName": "Monsster_Lava_Solid_DashAttack_LoopDust_Ground_Start",
          "normalizeStart": 0.8880000114440918,
          "DGFCLAIDIFI": ""
        },
        {
          "$type": "NAFEDCNOIGL",
          "stateID": "DashAttack_BS",
          "modifierName": "Monsster_Lava_Solid_DashAttack_LoopDust_Start",
          "normalizeStart": 0.8930000066757202,
          "DGFCLAIDIFI": ""
        }
      ],
      "modifiers": {
        "Monster_Lava_Solid_DashAttack_State": {
          "modifierName": "",
          "IPFJJJGABPL": 100.0,
          "modifierMixins": [
            {
              "$type": "MLJAPFBGEEH",
              "globalValueKey": "_MONSTER_Lava_Solid_DashAttack_LoopDust_Ground",
              "gvInTalk": 0.0,
              "valueSteps": [
                -0.5,
                0.5,
                1.5
              ],
              "modifierNameSteps": [
                "Blank",
                "Monsster_Lava_Solid_DashAttack_LoopDust_Ground"
              ]
            },
            {
              "$type": "MLJAPFBGEEH",
              "globalValueKey": "_MONSTER_Lava_Solid_DashAttack_LoopDust",
              "gvInTalk": 0.0,
              "valueSteps": [
                -0.5,
                0.5,
                1.5
              ],
              "modifierNameSteps": [
                "Blank",
                "Monsster_Lava_Solid_DashAttack_LoopDust"
              ]
            }
          ],
          "onRemoved": [
            {
              "$type": "BOBCOJHOKKD",
              "param3": 0.0,
              "key": "_MONSTER_Lava_Solid_DashAttack_LoopDust_Ground",
              "param2": 0.0,
              "repeatTimes": 0.0
            },
            {
              "$type": "BOBCOJHOKKD",
              "param3": 0.0,
              "key": "_MONSTER_Lava_Solid_DashAttack_LoopDust",
              "param2": 0.0,
              "repeatTimes": 0.0
            }
          ]
        },
        "Blank": {
          "modifierName": "",
          "IPFJJJGABPL": 100.0
        },
        "Monsster_Lava_Solid_DashAttack_LoopDust_Ground_Start": {
          "modifierName": "",
          "IPFJJJGABPL": 100.0,
          "onAdded": [
            {
              "$type": "BOBCOJHOKKD",
              "param3": 1.0,
              "key": "_MONSTER_Lava_Solid_DashAttack_LoopDust_Ground",
              "param2": 0.0,
              "repeatTimes": 0.0
            }
          ]
        },
        "Monsster_Lava_Solid_DashAttack_LoopDust_Ground": {
          "modifierName": "",
          "IPFJJJGABPL": 100.0,
          "onAdded": [
            {
              "$type": "ANLOBBMKNIJ",
              "rotationDampTime": "Eff_Monster_Lava_Solid_DashAttack_LoopDust_Ground",
              "PPPDJGDDOGD": 1.0,
              "AJDILHJFNKE": -1.0
            }
          ]
        },
        "Monsster_Lava_Solid_DashAttack_LoopDust_Start": {
          "modifierName": "",
          "IPFJJJGABPL": 100.0,
          "onAdded": [
            {
              "$type": "BOBCOJHOKKD",
              "param3": 1.0,
              "key": "_MONSTER_Lava_Solid_DashAttack_LoopDust",
              "param2": 0.0,
              "repeatTimes": 0.0
            }
          ]
        },
        "Monsster_Lava_Solid_DashAttack_LoopDust": {
          "modifierName": "",
          "IPFJJJGABPL": 100.0,
          "onAdded": [
            {
              "$type": "ANLOBBMKNIJ",
              "rotationDampTime": "Eff_Monster_Lava_Solid_DashAttack_LoopDust",
              "PPPDJGDDOGD": 1.0,
              "AJDILHJFNKE": -1.0
            }
          ]
        }
      }
    }
  }
]