[
  {
    "Default": {
      "$type": "CBPBEHLOHKI",
      "abilityName": "Brute_None_Turn",
      "abilityMixins": [
        {
          "$type": "IILHMBGONGM",
          "steerStateIDs": [
            "TurnRight"
          ],
          "startNormalizedTime": 0.27000001072883606,
          "endNormalizedTime": 0.7799999713897705,
          "angularSpeed": 150.0,
          "attackTrigger": "",
          "attackDistance": 2.0,
          "DGFCLAIDIFI": ""
        },
        {
          "$type": "IILHMBGONGM",
          "steerStateIDs": [
            "TurnLeft"
          ],
          "startNormalizedTime": 0.15000000596046448,
          "endNormalizedTime": 0.7099999785423279,
          "angularSpeed": 150.0,
          "attackTrigger": "",
          "attackDistance": 2.0,
          "DGFCLAIDIFI": ""
        }
      ]
    }
  },
  {
    "Default": {
      "$type": "CBPBEHLOHKI",
      "abilityName": "Brute_None_Alert",
      "onAbilityStart": [
        {
          "$type": "IDNGFEEBPAM",
          "boolID": "Sleep"
        },
        {
          "$type": "IDNGFEEBPAM",
          "boolID": "Sit"
        }
      ]
    }
  },
  {
    "Default": {
      "$type": "CBPBEHLOHKI",
      "abilityName": "Brute_None_RushAttack",
      "abilityMixins": [
        {
          "$type": "IILHMBGONGM",
          "steerStateIDs": [
            "RushAttack_BS"
          ],
          "startNormalizedTime": 0.75,
          "angularSpeed": 180.0,
          "attackTrigger": "",
          "attackDistance": 2.0,
          "DGFCLAIDIFI": ""
        },
        {
          "$type": "EKMHJKDLBJH",
          "stateIDs": [
            "RushAttack_Loop"
          ],
          "modifierName": "Rush",
          "DGFCLAIDIFI": ""
        },
        {
          "$type": "CGANCPEKBPF",
          "onHittingScene": [
            {
              "$type": "BLCCGIPAOIP",
              "PLLJBINMGJK": "CrashTrigger"
            }
          ],
          "animEventIDs": [
            "ShieldRush_HitScene"
          ]
        }
      ],
      "modifiers": {
        "Rush": {
          "modifierName": "",
          "IPFJJJGABPL": 100.0,
          "onAdded": [
            {
              "$type": "ANLOBBMKNIJ",
              "rotationDampTime": "Eff_Monster_Brute_None_NoWeapon_RushAttack_Dust",
              "PPPDJGDDOGD": 1.0,
              "AJDILHJFNKE": -1.0
            }
          ],
          "onAttackLanded": [
            {
              "$type": "BLCCGIPAOIP",
              "predicates": [
                {
                  "$type": "NIMAPECDNKD",
                  "entityTypes": [
                    "Avatar",
                    "Vehicle",
                    "Partner"
                  ],
                  "useEventSource": true
                }
              ],
              "PLLJBINMGJK": "NextSkillTrigger"
            }
          ]
        },
        "RushAttack_Roar": {
          "modifierName": "",
          "elementDurability": 0.4000000059604645,
          "IPFJJJGABPL": 100.0,
          "thinkInterval": 0.10000000149011612,
          "onThinkInterval": [
            {
              "$type": "ONALKNNKKLH",
              "cameraShake": {
                "shakeType": "CustomVector",
                "shakeRange": 0.03999999910593033,
                "shakeTime": 0.23999999463558197,
                "shakeDir": {
                  "y": 1.0,
                  "z": 0.5
                }
              }
            }
          ]
        }
      },
      "onAbilityStart": [
        {
          "$type": "PELJALPANCA",
          "modifierName": "RushAttack_Roar"
        }
      ]
    }
  }
]