[
  {
    "Default": {
      "$type": "CBPBEHLOHKI",
      "abilityName": "Monster_Gator_Sacred_SacredAttack06_Elite",
      "onAdded": [
        {
          "$type": "BOBCOJHOKKD",
          "param3": 1.0,
          "key": "_Monster_Gator_Sacred_Elite",
          "param2": 0.0,
          "repeatTimes": 0.0
        }
      ],
      "isDynamicAbility": true
    }
  },
  {
    "Default": {
      "$type": "CBPBEHLOHKI",
      "abilityName": "Monster_Gator_Sacred_HeadControlOff",
      "abilityMixins": [
        {
          "$type": "AOKOIIHJJPJ",
          "alertness": [
            0,
            1
          ],
          "modifierName": "HeadControl_Disable"
        }
      ],
      "modifiers": {
        "HeadControl_Disable": {
          "modifierName": "",
          "IPFJJJGABPL": 100.0,
          "onAdded": [
            {
              "$type": "GPGGCODEFIF"
            }
          ],
          "onRemoved": [
            {
              "$type": "GPGGCODEFIF",
              "enable": true
            }
          ]
        }
      }
    }
  },
  {
    "Default": {
      "$type": "CBPBEHLOHKI",
      "abilityName": "Monster_Gator_Sacred_SteerAttack",
      "abilityMixins": [
        {
          "$type": "IILHMBGONGM",
          "steerStateIDs": [
            "Attack_01_BS"
          ],
          "startNormalizedTime": 0.10000000149011612,
          "endNormalizedTime": 0.30000001192092896,
          "angularSpeed": 120.0,
          "attackTrigger": "",
          "DGFCLAIDIFI": ""
        },
        {
          "$type": "IILHMBGONGM",
          "steerStateIDs": [
            "Attack_01_Loop"
          ],
          "endNormalizedTime": 20.0,
          "angularSpeed": 90.0,
          "attackTrigger": "",
          "DGFCLAIDIFI": ""
        },
        {
          "$type": "IILHMBGONGM",
          "steerStateIDs": [
            "Attack_01_AS"
          ],
          "endNormalizedTime": 0.12999999523162842,
          "angularSpeed": 120.0,
          "attackTrigger": "",
          "DGFCLAIDIFI": ""
        },
        {
          "$type": "IILHMBGONGM",
          "steerStateIDs": [
            "Sacred_Attack01_BS"
          ],
          "startNormalizedTime": 0.10000000149011612,
          "endNormalizedTime": 0.5,
          "angularSpeed": 120.0,
          "attackTrigger": "",
          "DGFCLAIDIFI": ""
        },
        {
          "$type": "IILHMBGONGM",
          "steerStateIDs": [
            "Sacred_Attack01_BS"
          ],
          "startNormalizedTime": 0.75,
          "angularSpeed": 120.0,
          "attackTrigger": "",
          "DGFCLAIDIFI": ""
        },
        {
          "$type": "IILHMBGONGM",
          "steerStateIDs": [
            "Sacred_Attack01_Loop"
          ],
          "endNormalizedTime": 20.0,
          "angularSpeed": 90.0,
          "attackTrigger": "Attack01Target",
          "attackDistance": 8.0,
          "DGFCLAIDIFI": ""
        },
        {
          "$type": "IILHMBGONGM",
          "steerStateIDs": [
            "Sacred_Attack01_AS"
          ],
          "endNormalizedTime": 0.25,
          "angularSpeed": 120.0,
          "attackTrigger": "",
          "DGFCLAIDIFI": ""
        },
        {
          "$type": "IILHMBGONGM",
          "steerStateIDs": [
            "Sacred_Attack02"
          ],
          "startNormalizedTime": 0.029999999329447746,
          "endNormalizedTime": 0.10000000149011612,
          "angularSpeed": 120.0,
          "attackTrigger": "",
          "DGFCLAIDIFI": ""
        },
        {
          "$type": "IILHMBGONGM",
          "steerStateIDs": [
            "Sacred_Attack02"
          ],
          "startNormalizedTime": 0.2800000011920929,
          "endNormalizedTime": 0.44999998807907104,
          "angularSpeed": 120.0,
          "attackTrigger": "",
          "DGFCLAIDIFI": ""
        },
        {
          "$type": "IILHMBGONGM",
          "steerStateIDs": [
            "Sacred_Attack03"
          ],
          "endNormalizedTime": 0.05999999865889549,
          "angularSpeed": 60.0,
          "attackTrigger": "",
          "DGFCLAIDIFI": ""
        },
        {
          "$type": "IILHMBGONGM",
          "steerStateIDs": [
            "Sacred_Attack03"
          ],
          "startNormalizedTime": 0.1899999976158142,
          "endNormalizedTime": 0.2800000011920929,
          "angularSpeed": 60.0,
          "attackTrigger": "",
          "DGFCLAIDIFI": ""
        },
        {
          "$type": "IILHMBGONGM",
          "steerStateIDs": [
            "Sacred_Attack03"
          ],
          "startNormalizedTime": 0.3199999928474426,
          "endNormalizedTime": 0.3700000047683716,
          "angularSpeed": 60.0,
          "attackTrigger": "",
          "DGFCLAIDIFI": ""
        },
        {
          "$type": "IILHMBGONGM",
          "steerStateIDs": [
            "Sacred_Attack03"
          ],
          "startNormalizedTime": 0.4300000071525574,
          "endNormalizedTime": 0.49000000953674316,
          "angularSpeed": 240.0,
          "attackTrigger": "",
          "DGFCLAIDIFI": ""
        },
        {
          "$type": "IILHMBGONGM",
          "steerStateIDs": [
            "Sacred_Attack04"
          ],
          "startNormalizedTime": 0.019999999552965164,
          "endNormalizedTime": 0.10999999940395355,
          "angularSpeed": 75.0,
          "attackTrigger": "",
          "DGFCLAIDIFI": ""
        },
        {
          "$type": "IILHMBGONGM",
          "steerStateIDs": [
            "Sacred_Attack04"
          ],
          "startNormalizedTime": 0.18000000715255737,
          "endNormalizedTime": 0.2800000011920929,
          "angularSpeed": 120.0,
          "attackTrigger": "",
          "DGFCLAIDIFI": ""
        },
        {
          "$type": "IILHMBGONGM",
          "steerStateIDs": [
            "Sacred_Attack04"
          ],
          "startNormalizedTime": 0.41999998688697815,
          "endNormalizedTime": 0.5299999713897705,
          "angularSpeed": 240.0,
          "attackTrigger": "",
          "DGFCLAIDIFI": ""
        },
        {
          "$type": "IILHMBGONGM",
          "steerStateIDs": [
            "Sacred_Attack04"
          ],
          "startNormalizedTime": 0.5400000214576721,
          "endNormalizedTime": 0.6499999761581421,
          "angularSpeed": 120.0,
          "attackTrigger": "",
          "DGFCLAIDIFI": ""
        },
        {
          "$type": "IILHMBGONGM",
          "steerStateIDs": [
            "Sacred_Attack05"
          ],
          "startNormalizedTime": 0.05000000074505806,
          "endNormalizedTime": 0.10999999940395355,
          "angularSpeed": 120.0,
          "attackTrigger": "",
          "DGFCLAIDIFI": ""
        },
        {
          "$type": "IILHMBGONGM",
          "steerStateIDs": [
            "Sacred_Attack05"
          ],
          "startNormalizedTime": 0.5299999713897705,
          "endNormalizedTime": 0.699999988079071,
          "angularSpeed": 120.0,
          "attackTrigger": "",
          "DGFCLAIDIFI": ""
        },
        {
          "$type": "IILHMBGONGM",
          "steerStateIDs": [
            "Sacred_Attack06_AS2"
          ],
          "endNormalizedTime": 0.20000000298023224,
          "angularSpeed": 120.0,
          "attackTrigger": "",
          "DGFCLAIDIFI": ""
        },
        {
          "$type": "IILHMBGONGM",
          "steerStateIDs": [
            "TurnRight"
          ],
          "startNormalizedTime": 0.10000000149011612,
          "endNormalizedTime": 0.4300000071525574,
          "angularSpeed": 180.0,
          "attackTrigger": "",
          "DGFCLAIDIFI": ""
        },
        {
          "$type": "IILHMBGONGM",
          "steerStateIDs": [
            "TurnLeft"
          ],
          "startNormalizedTime": 0.10000000149011612,
          "endNormalizedTime": 0.4300000071525574,
          "angularSpeed": 180.0,
          "attackTrigger": "",
          "DGFCLAIDIFI": ""
        }
      ],
      "onAdded": [
        {
          "$type": "BOBCOJHOKKD",
          "param3": 1.0,
          "key": "Monster_Gator_Sacred",
          "param2": 0.0,
          "repeatTimes": 0.0
        }
      ]
    }
  },
  {
    "Default": {
      "$type": "CBPBEHLOHKI",
      "abilityName": "Monster_Gator_Sacred_Attack01",
      "abilityMixins": [
        {
          "$type": "EKMHJKDLBJH",
          "stateIDs": [
            "Attack_01_BS"
          ],
          "modifierName": "Attack01ParamReset",
          "DGFCLAIDIFI": ""
        },
        {
          "$type": "EKMHJKDLBJH",
          "stateIDs": [
            "Attack_01_Loop"
          ],
          "modifierName": "Attack01RunCheck",
          "DGFCLAIDIFI": ""
        }
      ],
      "modifiers": {
        "Attack01ParamReset": {
          "modifierName": "",
          "elementDurability": 0.5,
          "IPFJJJGABPL": 100.0,
          "onAdded": [
            {
              "$type": "AKEEDILMOJF",
              "intID": "NormalAttack01Target",
              "param3": 0.0
            }
          ]
        },
        "Attack01RunCheck": {
          "modifierName": "",
          "IPFJJJGABPL": 100.0,
          "thinkInterval": 0.10000000149011612,
          "onThinkInterval": [
            {
              "$type": "INBCDALOHMP",
              "target": "SelfAttackTarget",
              "targetPredicates": [
                {
                  "$type": "FMBJAJFLDIP",
                  "logic": "LesserOrEqual",
                  "param3": 6.0,
                  "DDALGNLEHOD": ""
                },
                {
                  "$type": "FMBJAJFLDIP",
                  "logic": "LesserOrEqual",
                  "compareType": "Y",
                  "param3": 3.0,
                  "DDALGNLEHOD": ""
                }
              ],
              "successActions": [
                {
                  "$type": "AKEEDILMOJF",
                  "intID": "NormalAttack01Target",
                  "param3": 1.0
                }
              ],
              "failActions": [
                {
                  "$type": "AKEEDILMOJF",
                  "intID": "NormalAttack01Target",
                  "param3": 0.0
                }
              ]
            }
          ]
        }
      }
    }
  },
  {
    "Default": {
      "$type": "CBPBEHLOHKI",
      "abilityName": "Monster_Gator_Sacred_SacredAttack06",
      "abilityMixins": [
        {
          "$type": "EKMHJKDLBJH",
          "stateIDs": [
            "Sacred_Attack06"
          ],
          "modifierName": "Attack06ParamReset",
          "DGFCLAIDIFI": ""
        },
        {
          "$type": "EKMHJKDLBJH",
          "stateIDs": [
            "Sacred_Attack06"
          ],
          "modifierName": "Attack06RunCheck",
          "DGFCLAIDIFI": ""
        }
      ],
      "modifiers": {
        "Attack06ParamReset": {
          "modifierName": "",
          "elementDurability": 0.5,
          "IPFJJJGABPL": 100.0,
          "onAdded": [
            {
              "$type": "AKEEDILMOJF",
              "intID": "BackHit",
              "param3": 0.0
            }
          ]
        },
        "Attack06RunCheck": {
          "modifierName": "",
          "IPFJJJGABPL": 100.0,
          "thinkInterval": 0.10000000149011612,
          "onThinkInterval": [
            {
              "$type": "INBCDALOHMP",
              "target": "SelfAttackTarget",
              "targetPredicates": [
                {
                  "$type": "FMBJAJFLDIP",
                  "logic": "LesserOrEqual",
                  "param3": 8.0,
                  "DDALGNLEHOD": ""
                },
                {
                  "$type": "CNGGLKHONAA",
                  "target": "Self",
                  "key": "_Monster_Gator_Sacred_Elite",
                  "param3": 1.0
                }
              ],
              "successActions": [
                {
                  "$type": "AKEEDILMOJF",
                  "intID": "BackHit",
                  "param3": 1.0
                }
              ],
              "failActions": [
                {
                  "$type": "AKEEDILMOJF",
                  "intID": "BackHit",
                  "param3": 0.0
                }
              ]
            }
          ]
        }
      }
    }
  },
  {
    "Default": {
      "$type": "CBPBEHLOHKI",
      "abilityName": "Monster_Gator_Sacred_SacredAttack01",
      "abilityMixins": [
        {
          "$type": "EKMHJKDLBJH",
          "stateIDs": [
            "Sacred_Attack01_Loop"
          ],
          "modifierName": "SacredAttack01HitCheck",
          "DGFCLAIDIFI": ""
        },
        {
          "$type": "EKMHJKDLBJH",
          "stateIDs": [
            "Sacred_Attack01_Loop"
          ],
          "modifierName": "SacredAttack01LoopEffect",
          "DGFCLAIDIFI": ""
        },
        {
          "$type": "NAFEDCNOIGL",
          "stateID": "Sacred_Attack01_AS",
          "modifierName": "SacredAttack01LoopEffect",
          "normalizeEnd": 0.10000000149011612,
          "DGFCLAIDIFI": ""
        },
        {
          "$type": "NAFEDCNOIGL",
          "stateID": "Sacred_Attack01_AS",
          "modifierName": "SacredAttack01HitCheck",
          "normalizeEnd": 0.12999999523162842,
          "DGFCLAIDIFI": ""
        },
        {
          "$type": "NAFEDCNOIGL",
          "stateID": "Sacred_Attack01_AS2",
          "modifierName": "SacredAttack01HitCheck",
          "normalizeEnd": 0.12999999523162842,
          "DGFCLAIDIFI": ""
        },
        {
          "$type": "EKMHJKDLBJH",
          "stateIDs": [
            "Sacred_Attack01_BS"
          ],
          "modifierName": "SacredAttack01ParamReset",
          "DGFCLAIDIFI": ""
        },
        {
          "$type": "EKMHJKDLBJH",
          "stateIDs": [
            "Sacred_Attack01_Loop"
          ],
          "modifierName": "SacredAttack01RunCheck",
          "DGFCLAIDIFI": ""
        }
      ],
      "modifiers": {
        "SacredAttack01LoopEffect": {
          "modifierName": "",
          "IPFJJJGABPL": 100.0,
          "onAdded": [
            {
              "$type": "ANLOBBMKNIJ",
              "rotationDampTime": "Eff_Monster_Gator_Sacred_SacredAttack01_Loop",
              "PPPDJGDDOGD": 1.0,
              "AJDILHJFNKE": -1.0
            }
          ]
        },
        "SacredAttack01ParamReset": {
          "modifierName": "",
          "elementDurability": 0.5,
          "IPFJJJGABPL": 100.0,
          "onAdded": [
            {
              "$type": "GNAEJNBIFAC",
              "PLLJBINMGJK": "Attack01Target"
            }
          ]
        },
        "SacredAttack01RunCheck": {
          "modifierName": "",
          "IPFJJJGABPL": 100.0,
          "thinkInterval": 0.10000000149011612,
          "onThinkInterval": [
            {
              "$type": "INBCDALOHMP",
              "target": "SelfAttackTarget",
              "targetPredicates": [
                {
                  "$type": "FMBJAJFLDIP",
                  "logic": "LesserOrEqual",
                  "param3": 8.0,
                  "DDALGNLEHOD": ""
                }
              ],
              "successActions": [
                {
                  "$type": "BLCCGIPAOIP",
                  "PLLJBINMGJK": "Attack01Target",
                  "mpTriggerOnRemote": true
                }
              ]
            }
          ]
        },
        "SacredAttack01HitCheck": {
          "modifierName": "",
          "IPFJJJGABPL": 100.0,
          "modifierMixins": [
            {
              "$type": "JJIHJPCPPGO",
              "abilityStates": [
                "ElementFrozen",
                "ElementPetrifaction"
              ],
              "reject": true,
              "modifierName": "SacredAttack01Hit"
            }
          ]
        },
        "SacredAttack01Hit": {
          "modifierName": "",
          "IPFJJJGABPL": 100.0,
          "thinkInterval": 0.10000000149011612,
          "onThinkInterval": [
            {
              "$type": "AIFPLABJNMA",
              "attackEvent": {
                "attackPattern": {
                  "$type": "JHKEHNJBMOF",
                  "triggerType": "TriggerNoRepeat",
                  "born": {
                    "$type": "IAENDIPDFKD",
                    "offset": {
                      "KGEPIMHBMOL": 0.0,
                      "JEBHCGDPFEJ": 0.0,
                      "LPCHALMFFOD": 1.0
                    },
                    "useRotation": true
                  },
                  "size": {
                    "KGEPIMHBMOL": 2.0,
                    "JEBHCGDPFEJ": 4.0,
                    "LPCHALMFFOD": 4.0
                  }
                },
                "attackInfo": {
                  "attackTag": "",
                  "attenuationTag": "",
                  "attenuationGroup": "default",
                  "attackProperty": {
                    "actorGrassSubHurtDelta": 0.10000000149011612,
                    "actorWindSubHurtDelta": 0.0,
                    "elementType": "Water",
                    "IPFJJJGABPL": 30.0,
                    "strikeType": "Blunt",
                    "enBreak": 200.0,
                    "GLKMCMDJBIK": 0.0
                  },
                  "hitPattern": {
                    "onHitEffectName": "default",
                    "hitImpulseY": "",
                    "hitImpulseType": "LV3",
                    "retreatType": "ByTangent",
                    "hitHaltTimeScale": 0.05000000074505806
                  }
                }
              },
              "targetType": "Enemy"
            },
            {
              "$type": "INBCDALOHMP",
              "otherTargets": {
                "$type": "IJOFJOGLDHE",
                "shapeName": "CircleR3",
                "campTargetType": "Enemy",
                "doOffStage": 1.0
              },
              "targetPredicates": [
                {
                  "$type": "CNGGLKHONAA",
                  "key": "_COMMON_GADGET_ISSUMMON",
                  "param3": 0.0,
                  "compareType": "MoreThan"
                }
              ],
              "successActions": [
                {
                  "$type": "PELJALPANCA",
                  "target": "Target",
                  "modifierName": "Kill_Summon_Gadget"
                }
              ]
            }
          ]
        },
        "Kill_Summon_Gadget": {
          "modifierName": "",
          "IPFJJJGABPL": 100.0,
          "onAdded": [
            {
              "$type": "NCFFNDHGCMH"
            }
          ]
        }
      }
    }
  },
  {
    "Default": {
      "$type": "CBPBEHLOHKI",
      "abilityName": "Monster_Gator_Sacred_SacredAttack02",
      "abilityMixins": [
        {
          "$type": "NAFEDCNOIGL",
          "stateID": "Sacred_Attack02",
          "modifierName": "SacredAttack02_FollowBullet",
          "normalizeStart": 0.46000000834465027,
          "normalizeEnd": 0.5400000214576721,
          "DGFCLAIDIFI": ""
        }
      ],
      "modifiers": {
        "SacredAttack02_FollowBullet": {
          "modifierName": "",
          "IPFJJJGABPL": 100.0,
          "modifierMixins": [
            {
              "$type": "CIGJDPCDOEB",
              "onAdded": [
                {
                  "$type": "FDFGJPNDKEA",
                  "pushColliderNames": [
                    "PushCollider"
                  ]
                },
                {
                  "$type": "FDFGJPNDKEA",
                  "pushColliderNames": [
                    "PushCollider_Dash"
                  ],
                  "setEnable": true
                }
              ],
              "onRemoved": [
                {
                  "$type": "FDFGJPNDKEA",
                  "pushColliderNames": [
                    "PushCollider"
                  ],
                  "setEnable": true
                },
                {
                  "$type": "FDFGJPNDKEA",
                  "pushColliderNames": [
                    "PushCollider_Dash"
                  ]
                }
              ]
            }
          ],
          "onAdded": [
            {
              "$type": "ANLOBBMKNIJ",
              "rotationDampTime": "Eff_Monster_Gator_Sacred_SacredAttack02_Hit2",
              "PPPDJGDDOGD": 1.0,
              "AJDILHJFNKE": -1.0
            },
            {
              "$type": "CAKDDHLKOAB",
              "bulletID": 42610008,
              "born": {
                "$type": "KLPANPDGHHA",
                "useRotation": true,
                "attachPointName": "RootNode",
                "attachPointTargetType": "Self"
              },
              "trackTarget": "Self",
              "lifeByOwnerV2": true
            }
          ],
          "onRemoved": [
            {
              "$type": "NCFFNDHGCMH",
              "otherTargets": {
                "$type": "MEOIGEJCJLB",
                "configID": 42610008
              }
            }
          ]
        }
      }
    }
  },
  {
    "Default": {
      "$type": "CBPBEHLOHKI",
      "abilityName": "Monster_Gator_Sacred_SacredAttack02_DashHit",
      "onAbilityStart": [
        {
          "$type": "AIFPLABJNMA",
          "attackEvent": {
            "attackPattern": {
              "$type": "BELNOFAKNBA",
              "triggerType": "TriggerNoRepeat",
              "born": {
                "$type": "JGEBAJLEBMO"
              },
              "OAHPDLJIADP": 0.5
            },
            "attackInfo": {
              "attackTag": "",
              "attenuationTag": "",
              "attenuationGroup": "default",
              "attackProperty": {
                "actorGrassSubHurtDelta": 0.8999999761581421,
                "actorWindSubHurtDelta": 0.0,
                "elementType": "Water",
                "IPFJJJGABPL": 30.0,
                "strikeType": "Blunt",
                "enBreak": 200.0,
                "GLKMCMDJBIK": 0.0
              },
              "hitPattern": {
                "onHitEffectName": "default",
                "hitImpulseY": "",
                "hitImpulseType": "LV5",
                "hitHaltTimeScale": 0.009999999776482582
              },
              "canBeModifiedBy": "OriginOwner"
            }
          },
          "targetType": "Enemy"
        },
        {
          "$type": "NCFFNDHGCMH"
        }
      ]
    }
  },
  {
    "Default": {
      "$type": "CBPBEHLOHKI",
      "abilityName": "Monster_Gator_Sacred_SacredAttack03_Hit1",
      "onAbilityStart": [
        {
          "$type": "CAKDDHLKOAB",
          "bulletID": 42610009,
          "born": {
            "$type": "IAENDIPDFKD",
            "offset": {
              "KGEPIMHBMOL": -0.2370000034570694,
              "JEBHCGDPFEJ": 0.7620000243186951,
              "LPCHALMFFOD": 2.4489998817443848
            },
            "direction": {
              "$type": "MEADFIJAHPG",
              "startPoint": ""
            },
            "useRotation": true
          }
        }
      ]
    }
  },
  {
    "Default": {
      "$type": "CBPBEHLOHKI",
      "abilityName": "Monster_Gator_Sacred_SacredAttack03_Hit2",
      "onAbilityStart": [
        {
          "$type": "CAKDDHLKOAB",
          "bulletID": 42610010,
          "born": {
            "$type": "IAENDIPDFKD",
            "offset": {
              "KGEPIMHBMOL": 0.8600000143051147,
              "JEBHCGDPFEJ": 0.546999990940094,
              "LPCHALMFFOD": 2.25
            },
            "direction": {
              "$type": "MEADFIJAHPG",
              "startPoint": ""
            },
            "useRotation": true
          }
        }
      ]
    }
  },
  {
    "Default": {
      "$type": "CBPBEHLOHKI",
      "abilityName": "Monster_Gator_Sacred_SacredAttack03_Hit3",
      "onAbilityStart": [
        {
          "$type": "CAKDDHLKOAB",
          "bulletID": 42610011,
          "born": {
            "$type": "IAENDIPDFKD",
            "offset": {
              "KGEPIMHBMOL": 4.3480000495910645,
              "JEBHCGDPFEJ": 3.0,
              "LPCHALMFFOD": -0.5849999785423279
            },
            "direction": {
              "$type": "MEADFIJAHPG",
              "startPoint": ""
            },
            "useRotation": true
          }
        }
      ]
    }
  },
  {
    "Default": {
      "$type": "CBPBEHLOHKI",
      "abilityName": "Monster_Gator_Sacred_SacredAttack03_Hit1Bullet",
      "modifiers": {
        "Attack03_Hit1Bullet": {
          "modifierName": "",
          "IPFJJJGABPL": 100.0,
          "onAdded": [
            {
              "$type": "ANLOBBMKNIJ",
              "rotationDampTime": "Eff_Monster_Gator_Sacred_SacredAttack03_Bullet1",
              "PPPDJGDDOGD": 1.0,
              "AJDILHJFNKE": -1.0
            }
          ]
        }
      },
      "onAdded": [
        {
          "$type": "PELJALPANCA",
          "modifierName": "Attack03_Hit1Bullet"
        }
      ],
      "onAbilityStart": [
        {
          "$type": "AIFPLABJNMA",
          "attackEvent": {
            "attackPattern": {
              "$type": "BELNOFAKNBA",
              "triggerType": "TriggerNoRepeat",
              "born": {
                "$type": "JGEBAJLEBMO"
              },
              "OAHPDLJIADP": 0.5
            },
            "attackInfo": {
              "attackTag": "",
              "attenuationTag": "",
              "attenuationGroup": "default",
              "attackProperty": {
                "actorGrassSubHurtDelta": 0.6000000238418579,
                "actorWindSubHurtDelta": 0.0,
                "elementType": "Water",
                "IPFJJJGABPL": 30.0,
                "strikeType": "Blunt",
                "enBreak": 200.0,
                "GLKMCMDJBIK": 0.0
              },
              "hitPattern": {
                "onHitEffectName": "default",
                "hitImpulseY": "",
                "hitImpulseType": "LV4",
                "hitHaltTimeScale": 0.009999999776482582
              },
              "canBeModifiedBy": "OriginOwner"
            }
          },
          "targetType": "Enemy"
        }
      ]
    }
  },
  {
    "Default": {
      "$type": "CBPBEHLOHKI",
      "abilityName": "Monster_Gator_Sacred_SacredAttack03_Hit2Bullet",
      "modifiers": {
        "Attack03_Hit2Bullet": {
          "modifierName": "",
          "IPFJJJGABPL": 100.0,
          "onAdded": [
            {
              "$type": "ANLOBBMKNIJ",
              "rotationDampTime": "Eff_Monster_Gator_Sacred_SacredAttack03_Bullet2",
              "PPPDJGDDOGD": 1.0,
              "AJDILHJFNKE": -1.0
            }
          ]
        }
      },
      "onAdded": [
        {
          "$type": "PELJALPANCA",
          "modifierName": "Attack03_Hit2Bullet"
        }
      ],
      "onAbilityStart": [
        {
          "$type": "AIFPLABJNMA",
          "attackEvent": {
            "attackPattern": {
              "$type": "BELNOFAKNBA",
              "triggerType": "TriggerNoRepeat",
              "born": {
                "$type": "JGEBAJLEBMO"
              },
              "OAHPDLJIADP": 0.5
            },
            "attackInfo": {
              "attackTag": "",
              "attenuationTag": "",
              "attenuationGroup": "default",
              "attackProperty": {
                "actorGrassSubHurtDelta": 0.6000000238418579,
                "actorWindSubHurtDelta": 0.0,
                "elementType": "Water",
                "IPFJJJGABPL": 30.0,
                "strikeType": "Blunt",
                "enBreak": 200.0,
                "GLKMCMDJBIK": 0.0
              },
              "hitPattern": {
                "onHitEffectName": "default",
                "hitImpulseY": "",
                "hitImpulseType": "LV4",
                "hitHaltTimeScale": 0.009999999776482582
              },
              "canBeModifiedBy": "OriginOwner"
            }
          },
          "targetType": "Enemy"
        }
      ]
    }
  },
  {
    "Default": {
      "$type": "CBPBEHLOHKI",
      "abilityName": "Monster_Gator_Sacred_SacredAttack03_Hit3Bullet",
      "modifiers": {
        "Attack03_Hit3Bullet": {
          "modifierName": "",
          "IPFJJJGABPL": 100.0,
          "onAdded": [
            {
              "$type": "ANLOBBMKNIJ",
              "rotationDampTime": "Eff_Monster_Gator_Sacred_SacredAttack03_Bullet3",
              "PPPDJGDDOGD": 1.0,
              "AJDILHJFNKE": -1.0
            }
          ]
        }
      },
      "onAdded": [
        {
          "$type": "PELJALPANCA",
          "modifierName": "Attack03_Hit3Bullet"
        }
      ],
      "onAbilityStart": [
        {
          "$type": "AIFPLABJNMA",
          "attackEvent": {
            "attackPattern": {
              "$type": "BELNOFAKNBA",
              "triggerType": "TriggerNoRepeat",
              "born": {
                "$type": "JGEBAJLEBMO"
              },
              "OAHPDLJIADP": 0.5
            },
            "attackInfo": {
              "attackTag": "",
              "attenuationTag": "",
              "attenuationGroup": "default",
              "attackProperty": {
                "actorGrassSubHurtDelta": 0.800000011920929,
                "actorWindSubHurtDelta": 0.0,
                "elementType": "Water",
                "IPFJJJGABPL": 30.0,
                "strikeType": "Blunt",
                "enBreak": 200.0,
                "GLKMCMDJBIK": 0.0
              },
              "hitPattern": {
                "onHitEffectName": "default",
                "hitImpulseY": "",
                "hitImpulseType": "LV5",
                "hitHaltTimeScale": 0.009999999776482582
              },
              "canBeModifiedBy": "OriginOwner"
            }
          },
          "targetType": "Enemy"
        }
      ]
    }
  },
  {
    "Default": {
      "$type": "CBPBEHLOHKI",
      "abilityName": "Monster_Gator_Sacred_SacredAttack04_SyncMove1",
      "onAbilityStart": [
        {
          "$type": "NOKFLFEPBFJ",
          "normalizedTime": 0.25999999046325684
        }
      ]
    }
  },
  {
    "Default": {
      "$type": "CBPBEHLOHKI",
      "abilityName": "Monster_Gator_Sacred_SacredAttack04_SyncMove2",
      "onAbilityStart": [
        {
          "$type": "NOKFLFEPBFJ",
          "normalizedTime": 0.38999998569488525
        }
      ]
    }
  },
  {
    "Default": {
      "$type": "CBPBEHLOHKI",
      "abilityName": "Monster_Gator_Sacred_SacredAttack04_SyncMove3",
      "onAbilityStart": [
        {
          "$type": "NOKFLFEPBFJ",
          "normalizedTime": 0.5799999833106995
        }
      ]
    }
  },
  {
    "Default": {
      "$type": "CBPBEHLOHKI",
      "abilityName": "Monster_Gator_Sacred_SacredAttack04_SyncMove4",
      "onAbilityStart": [
        {
          "$type": "NOKFLFEPBFJ",
          "normalizedTime": 0.7400000095367432
        }
      ]
    }
  },
  {
    "Default": {
      "$type": "CBPBEHLOHKI",
      "abilityName": "Monster_Gator_Sacred_SacredAttack05_BS",
      "onAbilityStart": [
        {
          "$type": "MPAGCPPAIHJ",
          "target": "SelfAttackTarget",
          "key": "ThunderPos1",
          "born": {
            "$type": "JHEBKCMEMLN",
            "offset": {
              "KGEPIMHBMOL": 0.0,
              "JEBHCGDPFEJ": 0.0,
              "LPCHALMFFOD": 0.0
            },
            "onGround": true,
            "useRotation": true
          },
          "setTarget": false
        },
        {
          "$type": "KBFEIHEAMBM",
          "rotationDampTime": "Eff_Monster_Gator_Sacred_SacredAttack05_Warning",
          "born": {
            "$type": "ICKMMAHFNIM",
            "positionKey": "ThunderPos1",
            "directionKey": ""
          },
          "PPPDJGDDOGD": 1.0,
          "AJDILHJFNKE": -1.0
        }
      ]
    }
  },
  {
    "Default": {
      "$type": "CBPBEHLOHKI",
      "abilityName": "Monster_Gator_Sacred_SacredAttack05_Hit1",
      "onAbilityStart": [
        {
          "$type": "ONALKNNKKLH",
          "cameraShake": {
            "shakeRange": 5.0,
            "shakeTime": 0.4000000059604645,
            "shakeDistance": 30.0
          },
          "born": {
            "$type": "ICKMMAHFNIM",
            "positionKey": "ThunderPos1",
            "directionKey": ""
          }
        },
        {
          "$type": "KBFEIHEAMBM",
          "rotationDampTime": "Eff_Monster_Gator_Sacred_SacredAttack05_Hit_1",
          "born": {
            "$type": "ICKMMAHFNIM",
            "positionKey": "ThunderPos1",
            "directionKey": ""
          },
          "PPPDJGDDOGD": 1.0,
          "AJDILHJFNKE": -1.0
        },
        {
          "$type": "AIFPLABJNMA",
          "attackEvent": {
            "attackPattern": {
              "$type": "GMDIMKKHACA",
              "triggerType": "TriggerNoRepeat",
              "born": {
                "$type": "ICKMMAHFNIM",
                "offset": {
                  "KGEPIMHBMOL": 0.0,
                  "JEBHCGDPFEJ": -0.25,
                  "LPCHALMFFOD": 0.0
                },
                "positionKey": "ThunderPos1",
                "directionKey": ""
              },
              "height": 3.0,
              "OAHPDLJIADP": 5.0
            },
            "attackInfo": {
              "attackTag": "",
              "attenuationTag": "",
              "attenuationGroup": "default",
              "attackProperty": {
                "actorGrassSubHurtDelta": 0.800000011920929,
                "actorWindSubHurtDelta": 0.0,
                "elementType": "Water",
                "IPFJJJGABPL": 30.0,
                "strikeType": "Blunt",
                "enBreak": 200.0,
                "GLKMCMDJBIK": 0.0
              },
              "hitPattern": {
                "onHitEffectName": "default",
                "hitImpulseY": "",
                "hitImpulseType": "LV6",
                "hitHaltTimeScale": 0.009999999776482582
              },
              "canBeModifiedBy": "OriginOwner"
            }
          },
          "targetType": "Enemy"
        }
      ]
    }
  },
  {
    "Default": {
      "$type": "CBPBEHLOHKI",
      "abilityName": "Monster_Gator_Sacred_SacredAttack05_Hit2",
      "onAbilityStart": [
        {
          "$type": "KBFEIHEAMBM",
          "rotationDampTime": "Eff_Monster_Gator_Sacred_SacredAttack05_Hit_2",
          "born": {
            "$type": "ICKMMAHFNIM",
            "positionKey": "ThunderPos1",
            "directionKey": ""
          },
          "PPPDJGDDOGD": 1.0,
          "AJDILHJFNKE": -1.0
        },
        {
          "$type": "AIFPLABJNMA",
          "attackEvent": {
            "attackPattern": {
              "$type": "GMDIMKKHACA",
              "triggerType": "TriggerNoRepeat",
              "born": {
                "$type": "ICKMMAHFNIM",
                "offset": {
                  "KGEPIMHBMOL": 0.0,
                  "JEBHCGDPFEJ": -0.25,
                  "LPCHALMFFOD": 0.0
                },
                "positionKey": "ThunderPos1",
                "directionKey": ""
              },
              "height": 3.0,
              "OAHPDLJIADP": 9.0,
              "MMBCLAEOEFB": 5.0
            },
            "attackInfo": {
              "attackTag": "",
              "attenuationTag": "",
              "attenuationGroup": "default",
              "attackProperty": {
                "actorGrassSubHurtDelta": 1.0,
                "actorWindSubHurtDelta": 0.0,
                "elementType": "Water",
                "IPFJJJGABPL": 30.0,
                "strikeType": "Blunt",
                "enBreak": 200.0,
                "GLKMCMDJBIK": 0.0
              },
              "hitPattern": {
                "onHitEffectName": "default",
                "hitImpulseY": "",
                "hitImpulseType": "LV4",
                "hitHaltTimeScale": 0.009999999776482582,
                "forceRetreat": true
              },
              "canBeModifiedBy": "OriginOwner"
            }
          },
          "targetType": "Enemy"
        }
      ]
    }
  },
  {
    "Default": {
      "$type": "CBPBEHLOHKI",
      "abilityName": "Monster_Gator_Sacred_SacredEnergy_Accum"
    }
  },
  {
    "Default": {
      "$type": "CBPBEHLOHKI",
      "abilityName": "Monster_Gator_Sacred_SacredEnergy_Detect",
      "onAbilityStart": [
        {
          "$type": "MPAGCPPAIHJ",
          "key": "_Sacred_SacredEnergy_Pos",
          "born": {
            "$type": "IAENDIPDFKD",
            "offset": {
              "KGEPIMHBMOL": 0.0,
              "JEBHCGDPFEJ": 0.0,
              "LPCHALMFFOD": 3.0
            },
            "useRotation": true
          }
        },
        {
          "$type": "CAKDDHLKOAB",
          "bulletID": 42610012,
          "born": {
            "$type": "IAENDIPDFKD",
            "offset": {
              "KGEPIMHBMOL": 0.0,
              "JEBHCGDPFEJ": 1.0,
              "LPCHALMFFOD": 2.0
            },
            "useRotation": true
          },
          "lifeByOwnerV2": true
        }
      ]
    }
  },
  {
    "Default": {
      "$type": "CBPBEHLOHKI",
      "abilityName": "Monster_Gator_Sacred_SacredEnergy_Create",
      "modifiers": {
        "CreateSacredEnergy": {
          "modifierName": "",
          "elementDurability": 0.10000000149011612,
          "IPFJJJGABPL": 100.0,
          "onAdded": [
            {
              "$type": "BEMPFJGAPHG",
              "target": "Applier",
              "dstTarget": "Self",
              "srcKey": "_Sacred_SacredEnergy_Pos_0",
              "dstKey": "_Sacred_SacredEnergy_Pos_0"
            },
            {
              "$type": "BEMPFJGAPHG",
              "target": "Applier",
              "dstTarget": "Self",
              "srcKey": "_Sacred_SacredEnergy_Pos_1",
              "dstKey": "_Sacred_SacredEnergy_Pos_1"
            },
            {
              "$type": "BEMPFJGAPHG",
              "target": "Applier",
              "dstTarget": "Self",
              "srcKey": "_Sacred_SacredEnergy_Pos_2",
              "dstKey": "_Sacred_SacredEnergy_Pos_2"
            }
          ],
          "onRemoved": [
            {
              "$type": "KFCDMIMBBLD",
              "born": {
                "$type": "ICKMMAHFNIM",
                "positionKey": "_Sacred_SacredEnergy_Pos",
                "directionKey": ""
              },
              "sightGroupWithOwner": true,
              "lifeByOwnerV2": true,
              "gadgetID": 42610014,
              "campID": 4001,
              "byServer": true
            }
          ]
        }
      },
      "onAbilityStart": [
        {
          "$type": "MPAGCPPAIHJ",
          "key": "_Sacred_SacredEnergy_Pos",
          "born": {
            "$type": "JGEBAJLEBMO",
            "onGround": true,
            "alongGround": true
          }
        },
        {
          "$type": "PELJALPANCA",
          "target": "OriginOwner",
          "modifierName": "CreateSacredEnergy"
        },
        {
          "$type": "NCFFNDHGCMH"
        }
      ]
    }
  },
  {
    "Default": {
      "$type": "CBPBEHLOHKI",
      "abilityName": "Monster_Gator_Sacred_SacredEnergy_CreateO",
      "modifiers": {
        "CreateSacredEnergy": {
          "modifierName": "",
          "elementDurability": 0.10000000149011612,
          "IPFJJJGABPL": 100.0,
          "onAdded": [
            {
              "$type": "BEMPFJGAPHG",
              "target": "Applier",
              "dstTarget": "Self",
              "srcKey": "_Sacred_SacredEnergy_Pos_0",
              "dstKey": "_Sacred_SacredEnergy_Pos_0"
            },
            {
              "$type": "BEMPFJGAPHG",
              "target": "Applier",
              "dstTarget": "Self",
              "srcKey": "_Sacred_SacredEnergy_Pos_1",
              "dstKey": "_Sacred_SacredEnergy_Pos_1"
            },
            {
              "$type": "BEMPFJGAPHG",
              "target": "Applier",
              "dstTarget": "Self",
              "srcKey": "_Sacred_SacredEnergy_Pos_2",
              "dstKey": "_Sacred_SacredEnergy_Pos_2"
            }
          ],
          "onRemoved": [
            {
              "$type": "KFCDMIMBBLD",
              "born": {
                "$type": "ICKMMAHFNIM",
                "positionKey": "_Sacred_SacredEnergy_Pos",
                "directionKey": ""
              },
              "sightGroupWithOwner": true,
              "lifeByOwnerV2": true,
              "gadgetID": 42610014,
              "campID": 4001,
              "byServer": true
            }
          ]
        }
      },
      "onAbilityStart": [
        {
          "$type": "MPAGCPPAIHJ",
          "key": "_Sacred_SacredEnergy_Pos",
          "born": {
            "$type": "IAENDIPDFKD",
            "onGround": true,
            "alongGround": true,
            "useRotation": true
          }
        },
        {
          "$type": "PELJALPANCA",
          "target": "OriginOwner",
          "modifierName": "CreateSacredEnergy"
        },
        {
          "$type": "NCFFNDHGCMH"
        }
      ]
    }
  },
  {
    "Default": {
      "$type": "CBPBEHLOHKI",
      "abilityName": "Monster_Gator_Sacred_SacredEnergy_Gadget",
      "modifiers": {
        "Create_Accum_Bullet": {
          "modifierName": "",
          "elementDurability": 1.0,
          "IPFJJJGABPL": 100.0,
          "onAdded": [
            {
              "$type": "KBFEIHEAMBM",
              "rotationDampTime": "Eff_Monster_Gator_Sacred_SacredAttack05_SacredEnergy",
              "PPPDJGDDOGD": 1.0,
              "AJDILHJFNKE": -1.0
            }
          ],
          "onRemoved": [
            {
              "$type": "MDIAKCCDEAL",
              "otherTargets": {
                "$type": "MEOIGEJCJLB",
                "topLimit": 1,
                "entityTypePriority": [
                  "Gadget"
                ],
                "configID": 42610014
              }
            },
            {
              "$type": "CAKDDHLKOAB",
              "target": "SelfAttackTarget",
              "bulletID": 42610013,
              "born": {
                "$type": "IAENDIPDFKD",
                "useRotation": true
              },
              "lifeByOwnerV2": true
            },
            {
              "$type": "DOGDNJHJADD"
            }
          ]
        },
        "DarkHoundGadget_DelayHandler_Effect": {
          "modifierName": "",
          "elementDurability": 2.049999952316284,
          "IPFJJJGABPL": 100.0,
          "onRemoved": [
            {
              "$type": "KBFEIHEAMBM",
              "rotationDampTime": "Eff_Monster_Gator_Sacred_SacredAttack05_SacredEnergy_Hit",
              "PPPDJGDDOGD": 1.0,
              "AJDILHJFNKE": -1.0
            }
          ]
        },
        "DarkHoundGadget_DelayHandler": {
          "modifierName": "",
          "elementDurability": 2.0999999046325684,
          "IPFJJJGABPL": 100.0,
          "onRemoved": [
            {
              "$type": "PELJALPANCA",
              "modifierName": "DarkHoundGadget_ChargeState"
            },
            {
              "$type": "FDFGJPNDKEA",
              "pushColliderNames": [
                "PushCollider"
              ],
              "setEnable": true
            }
          ]
        },
        "DarkHoundGadget_ChargeState": {
          "modifierName": "",
          "elementDurability": 6.0,
          "IPFJJJGABPL": 100.0,
          "modifierMixins": [
            {
              "$type": "HBPDEMIJCDL",
              "chargeBarElementType": "Water",
              "initialValue": 0.0,
              "param2": 10.0
            },
            {
              "$type": "MLJAPFBGEEH",
              "globalValueKey": "_CHARGEBAR_VALUE",
              "gvInTalk": 0.0,
              "valueSteps": [
                9.5,
                10.5
              ],
              "modifierNameSteps": [
                "DarkHoundGadget_ChargeEnd"
              ]
            }
          ],
          "onAdded": [
            {
              "$type": "ANLOBBMKNIJ",
              "rotationDampTime": "Eff_Monster_Gator_Sacred_SacredEnergy",
              "PPPDJGDDOGD": 1.0,
              "AJDILHJFNKE": -1.0
            }
          ],
          "onRemoved": [
            {
              "$type": "AENLGPIPPAK",
              "hitBoxNames": [
                "HitBox"
              ]
            },
            {
              "$type": "FDFGJPNDKEA",
              "pushColliderNames": [
                "PushCollider_Occluder"
              ]
            },
            {
              "$type": "FDFGJPNDKEA",
              "pushColliderNames": [
                "PushCollider"
              ]
            },
            {
              "$type": "KBFEIHEAMBM",
              "predicates": [
                {
                  "$type": "CNGGLKHONAA",
                  "target": "Self",
                  "key": "_CHARGEBAR_VALUE",
                  "param3": 9.0,
                  "compareType": "LessAndEqual"
                }
              ],
              "rotationDampTime": "Eff_Monster_Gator_Sacred_SacredEnergyDisappear",
              "PPPDJGDDOGD": 1.0,
              "AJDILHJFNKE": -1.0
            },
            {
              "$type": "CAKDDHLKOAB",
              "target": "OriginOwner",
              "predicates": [
                {
                  "$type": "CNGGLKHONAA",
                  "target": "Self",
                  "key": "_CHARGEBAR_VALUE",
                  "param3": 9.0,
                  "compareType": "LessAndEqual"
                }
              ],
              "bulletID": 42610016,
              "born": {
                "$type": "KLPANPDGHHA",
                "offset": {
                  "KGEPIMHBMOL": 0.0,
                  "JEBHCGDPFEJ": 0.0,
                  "LPCHALMFFOD": 0.0
                },
                "direction": {
                  "$type": "LHBLDEOLGKF",
                  "angleOffset": {
                    "KGEPIMHBMOL": 0.0,
                    "JEBHCGDPFEJ": 0.0,
                    "LPCHALMFFOD": 0.0
                  },
                  "attachPointName": "RootNode",
                  "attachPointTargetType": "Self"
                },
                "useRotation": true,
                "attachPointName": "RootNode",
                "attachPointTargetType": "Self"
              },
              "trackTarget": "Target",
              "lifeByOwnerV2": true
            },
            {
              "$type": "PJENOLFAFMG"
            },
            {
              "$type": "PELJALPANCA",
              "modifierName": "Gadget_Invincible"
            },
            {
              "$type": "PELJALPANCA",
              "modifierName": "Gadget_DenyLockOn"
            },
            {
              "$type": "PELJALPANCA",
              "modifierName": "Gadget_IsGhostToEnemy"
            },
            {
              "$type": "PELJALPANCA",
              "modifierName": "Gadget_IsGhostToAllied"
            }
          ],
          "onBeingHit": [
            {
              "$type": "MDIAKCCDEAL",
              "target": "Target"
            },
            {
              "$type": "KBFEIHEAMBM",
              "rotationDampTime": "Eff_Monster_Gator_Sacred_SacredEnergyBeHit",
              "PPPDJGDDOGD": 1.0,
              "AJDILHJFNKE": -1.0
            },
            {
              "$type": "PMJJNECJCLE",
              "predicates": [
                {
                  "$type": "HHHMNCNPBDK",
                  "predicates": [
                    {
                      "$type": "PNLEEOAGKLD",
                      "element": "Water"
                    }
                  ]
                }
              ],
              "param3": 10.0,
              "param2": 0.0,
              "repeatTimes": 0.0
            },
            {
              "$type": "PMJJNECJCLE",
              "predicates": [
                {
                  "$type": "HHHMNCNPBDK",
                  "predicates": [
                    {
                      "$type": "PNLEEOAGKLD",
                      "element": "Wind"
                    },
                    {
                      "$type": "PNLEEOAGKLD",
                      "element": "Fire"
                    },
                    {
                      "$type": "PNLEEOAGKLD",
                      "element": "Electric"
                    },
                    {
                      "$type": "PNLEEOAGKLD",
                      "element": "Ice"
                    },
                    {
                      "$type": "PNLEEOAGKLD",
                      "element": "Grass"
                    },
                    {
                      "$type": "PNLEEOAGKLD",
                      "element": "Rock"
                    }
                  ]
                }
              ],
              "param3": 1.6699999570846558,
              "param2": 0.0,
              "repeatTimes": 0.0
            }
          ]
        },
        "Gadget_Invincible": {
          "modifierName": "",
          "IPFJJJGABPL": 100.0,
          "state": "Invincible"
        },
        "Gadget_DenyLockOn": {
          "modifierName": "",
          "IPFJJJGABPL": 100.0,
          "state": "DenyLockOn"
        },
        "Gadget_IsGhostToEnemy": {
          "modifierName": "",
          "IPFJJJGABPL": 100.0,
          "state": "IsGhostToEnemy"
        },
        "Gadget_IsGhostToAllied": {
          "modifierName": "",
          "IPFJJJGABPL": 100.0,
          "state": "IsGhostToAllied"
        },
        "DarkHoundGadget_ChargeEnd": {
          "modifierName": "",
          "IPFJJJGABPL": 100.0,
          "onAdded": [
            {
              "$type": "PELJALPANCA",
              "modifierName": "FireHolyHound_Timer"
            },
            {
              "$type": "AENLGPIPPAK",
              "hitBoxNames": [
                "HitBox"
              ]
            },
            {
              "$type": "PFKNEFGOHIH",
              "modifierName": "DarkHoundGadget_ChargeState"
            }
          ]
        },
        "FireHolyHound_Timer": {
          "modifierName": "",
          "elementDurability": 0.6499999761581421,
          "IPFJJJGABPL": 100.0,
          "onAdded": [
            {
              "$type": "INBCDALOHMP",
              "target": "Other",
              "otherTargets": {
                "$type": "IJOFJOGLDHE",
                "topLimit": 1,
                "entityTypePriority": [
                  "Avatar"
                ],
                "sortType": "Nearest",
                "shapeName": "CircleR50",
                "campTargetType": "Enemy",
                "doOffStage": 1.0
              },
              "successActions": [
                {
                  "$type": "PELJALPANCA",
                  "target": "TargetTeam",
                  "modifierName": "UNIQUE_Gator_SacredEnergy_TargetTeam"
                },
                {
                  "$type": "CAKDDHLKOAB",
                  "target": "Target",
                  "bulletID": 42610015,
                  "born": {
                    "$type": "KLPANPDGHHA",
                    "offset": {
                      "KGEPIMHBMOL": 0.0,
                      "JEBHCGDPFEJ": 0.0,
                      "LPCHALMFFOD": 0.0
                    },
                    "direction": {
                      "$type": "LHBLDEOLGKF",
                      "angleOffset": {
                        "KGEPIMHBMOL": 0.0,
                        "JEBHCGDPFEJ": 0.0,
                        "LPCHALMFFOD": 0.0
                      },
                      "attachPointName": "RootNode",
                      "attachPointTargetType": "Self"
                    },
                    "useRotation": true,
                    "attachPointName": "RootNode",
                    "attachPointTargetType": "Self"
                  },
                  "trackTarget": "Target",
                  "lifeByOwnerV2": true
                }
              ]
            }
          ]
        },
        "UNIQUE_Gator_SacredEnergy_TargetTeam": {
          "stacking": "Unique",
          "modifierName": "",
          "forceTriggerWhenChangeAuthority": true,
          "elementDurability": 10.0,
          "IPFJJJGABPL": 100.0,
          "modifierMixins": [
            {
              "$type": "NKEPLGAIEJM",
              "modifierName": "Gator_SacredEnergy_Target"
            }
          ]
        },
        "Gator_SacredEnergy_Target": {
          "modifierName": "",
          "IPFJJJGABPL": 100.0,
          "onAdded": [
            {
              "$type": "BOBCOJHOKKD",
              "param3": 1.0,
              "key": "SacredEnergy_Target_Gator",
              "param2": 0.0,
              "repeatTimes": 0.0
            }
          ],
          "onRemoved": [
            {
              "$type": "BOBCOJHOKKD",
              "param3": 0.0,
              "key": "SacredEnergy_Target_Gator",
              "param2": 0.0,
              "repeatTimes": 0.0
            }
          ]
        }
      },
      "onAdded": [
        {
          "$type": "BOBCOJHOKKD",
          "param3": 1.0,
          "key": "Gator_SacredEnergy_Gadget",
          "param2": 0.0,
          "repeatTimes": 0.0
        },
        {
          "$type": "PELJALPANCA",
          "target": "OriginOwner",
          "modifierName": "Create_Accum_Bullet"
        },
        {
          "$type": "PELJALPANCA",
          "modifierName": "DarkHoundGadget_DelayHandler"
        },
        {
          "$type": "PELJALPANCA",
          "modifierName": "DarkHoundGadget_DelayHandler_Effect"
        },
        {
          "$type": "BOBCOJHOKKD",
          "param3": 0.0,
          "key": "_CHARGEBAR_VALUE",
          "param2": 0.0,
          "repeatTimes": 0.0
        },
        {
          "$type": "FDFGJPNDKEA",
          "pushColliderNames": [
            "PushCollider_Occluder"
          ],
          "setEnable": true
        },
        {
          "$type": "FDFGJPNDKEA",
          "pushColliderNames": [
            "PushCollider"
          ]
        }
      ]
    }
  },
  {
    "Default": {
      "$type": "CBPBEHLOHKI",
      "abilityName": "Monster_Gator_Sacred_SacredEnergy_BridgeToMonster",
      "modifiers": {
        "UNIQUE_Have_Gator_SacredEnergy_Team": {
          "timeScale": "Level",
          "stacking": "Unique",
          "modifierName": "",
          "forceTriggerWhenChangeAuthority": true,
          "elementDurability": 10.0,
          "IPFJJJGABPL": 100.0,
          "thinkInterval": 1.0,
          "modifierMixins": [
            {
              "$type": "NKEPLGAIEJM",
              "modifierName": "Have_Gator_SacredEnergy"
            },
            {
              "$type": "CCNIOPJEHOE",
              "globalValueTarget": "Applier",
              "globalValueKey": "SacredEntityDie",
              "valueSteps": [
                0.5,
                1.5
              ],
              "modifierNameSteps": [
                "ClearSacredBuff_Gator"
              ]
            }
          ],
          "state": "UnlockFrequencyLimit",
          "onAdded": [
            {
              "$type": "KBODPNEEFGD",
              "target": "Team",
              "modifierName": "UNIQUE_Gator_SacredEnergy_TargetTeam"
            }
          ],
          "onThinkInterval": [
            {
              "$type": "DLLGNJPHFDE",
              "target": "CurTeamAvatars",
              "shieldHP": true,
              "predicates": [
                {
                  "$type": "INGPMALFKLK"
                },
                {
                  "$type": "BCFNGJHILAG",
                  "predicates": [
                    {
                      "$type": "GEODPIOLLCI"
                    }
                  ]
                }
              ],
              "CKDBFHCIJEK": 0.019999999552965164,
              "lethal": false,
              "enableInvincible": true,
              "enableLockHP": true,
              "disableWhenLoading": true,
              "useMeta": true,
              "BJKGFBGEFPB": ""
            },
            {
              "$type": "KBODPNEEFGD",
              "predicates": [
                {
                  "$type": "BCFNGJHILAG",
                  "predicates": [
                    {
                      "$type": "IMPNKNCABJD",
                      "target": "Applier"
                    }
                  ]
                }
              ],
              "modifierName": "UNIQUE_Have_Gator_SacredEnergy_Team"
            }
          ],
          "onThinkIntervalIsFixedUpdate": true,
          "modifierTags": [
            "Corruption"
          ]
        },
        "ClearSacredBuff_Gator": {
          "modifierName": "",
          "elementDurability": 1.0,
          "IPFJJJGABPL": 100.0,
          "onAdded": [
            {
              "$type": "KBODPNEEFGD",
              "target": "Team",
              "modifierName": "UNIQUE_Gator_SacredEnergy_TargetTeam"
            },
            {
              "$type": "KBODPNEEFGD",
              "target": "Team",
              "modifierName": "UNIQUE_Have_Gator_SacredEnergy_Team"
            }
          ],
          "onRemoved": [
            {
              "$type": "KBODPNEEFGD",
              "target": "Team",
              "modifierName": "UNIQUE_Gator_SacredEnergy_TargetTeam"
            },
            {
              "$type": "KBODPNEEFGD",
              "target": "Team",
              "modifierName": "UNIQUE_Have_Gator_SacredEnergy_Team"
            }
          ]
        },
        "Have_Gator_SacredEnergy": {
          "modifierName": "",
          "IPFJJJGABPL": 100.0,
          "onAdded": [
            {
              "$type": "BOBCOJHOKKD",
              "param3": 1.0,
              "key": "SacredEnergy_Gator",
              "param2": 0.0,
              "repeatTimes": 0.0
            },
            {
              "$type": "ANLOBBMKNIJ",
              "rotationDampTime": "Eff_Monster_Gator_Sacred_SacredEnergyOnPlayer",
              "PPPDJGDDOGD": 1.0,
              "AJDILHJFNKE": -1.0
            }
          ],
          "onRemoved": [
            {
              "$type": "BOBCOJHOKKD",
              "param3": 0.0,
              "key": "SacredEnergy_Gator",
              "param2": 0.0,
              "repeatTimes": 0.0
            }
          ],
          "onAttackLanded": [
            {
              "$type": "INBCDALOHMP",
              "target": "Other",
              "targetPredicates": [
                {
                  "$type": "CNGGLKHONAA",
                  "key": "Monster_Gator_Sacred",
                  "param3": 1.0
                },
                {
                  "$type": "NIMAPECDNKD",
                  "entityTypes": [
                    "Monster"
                  ]
                },
                {
                  "$type": "NNEHDJHMING",
                  "attackTags": [
                    "NormalAttack_01",
                    "NormalAttack_02",
                    "NormalAttack_03",
                    "NormalAttack_04",
                    "NormalAttack_05",
                    "NormalAttack_06",
                    "ExtraAttack",
                    "FallingAttack",
                    "Elemental_Art",
                    "Elemental_Art_Hold",
                    "Elemental_Art_Extra",
                    "Elemental_Burst"
                  ]
                },
                {
                  "$type": "CNGGLKHONAA",
                  "target": "Self",
                  "key": "SacredEnergy_Gator",
                  "param3": 1.0
                }
              ],
              "successActions": [
                {
                  "$type": "IAKFMOEPFCD",
                  "watcherId": 82162,
                  "authorityOnly": true,
                  "stage": 3
                },
                {
                  "$type": "PELJALPANCA",
                  "target": "Other",
                  "modifierName": "UNIQUE_SacredBeHit_Gator"
                },
                {
                  "$type": "KBODPNEEFGD",
                  "target": "Team",
                  "modifierName": "UNIQUE_Have_Gator_SacredEnergy_Team"
                },
                {
                  "$type": "AHPEKICBIIL",
                  "shieldHP": true,
                  "predicates": [
                    {
                      "$type": "CNGGLKHONAA",
                      "key": "_MONSTER_RoleCombat_MonsterTag",
                      "param3": 1.0
                    }
                  ],
                  "luaCallType": "CurGalleryControlGroup",
                  "funcName": "SLC_RoleCombatET_PROCESS_Sacred_Lose_Energy",
                  "param1": 0.0,
                  "MGAMDEHMCOL": 0.0,
                  "MMHOHAOGPLP": 0.0
                }
              ]
            }
          ]
        },
        "UNIQUE_SacredBeHit_Gator": {
          "stacking": "Unique",
          "modifierName": "",
          "forceTriggerWhenChangeAuthority": true,
          "elementDurability": 0.20000000298023224,
          "IPFJJJGABPL": 100.0,
          "onAdded": [
            {
              "$type": "BLCCGIPAOIP",
              "predicates": [
                {
                  "$type": "BCFNGJHILAG",
                  "predicates": [
                    {
                      "$type": "NIFDMKMHAGJ",
                      "target": "Self",
                      "logic": "Equal",
                      "param3": 203.0,
                      "parameter": "PoseID"
                    }
                  ]
                }
              ],
              "PLLJBINMGJK": "WeakTrigger",
              "mpTriggerOnRemote": true
            },
            {
              "$type": "KBFEIHEAMBM",
              "rotationDampTime": "Eff_Monster_Gator_Sacred_ScaredBeHit",
              "PPPDJGDDOGD": 1.0,
              "AJDILHJFNKE": -1.0
            },
            {
              "$type": "DLLGNJPHFDE",
              "CKDBFHCIJEK": 0.15000000596046448,
              "BJKGFBGEFPB": ""
            }
          ]
        }
      },
      "onAbilityStart": [
        {
          "$type": "INBCDALOHMP",
          "otherTargets": {
            "$type": "IJOFJOGLDHE",
            "topLimit": 1,
            "entityTypePriority": [
              "Avatar"
            ],
            "sortType": "Nearest",
            "shapeName": "CircleR100",
            "campTargetType": "Enemy",
            "doOffStage": 1.0
          },
          "predicates": [
            {
              "$type": "CNGGLKHONAA",
              "key": "SacredEnergy_Target_Gator",
              "param3": 1.0
            }
          ],
          "successActions": [
            {
              "$type": "PELJALPANCA",
              "target": "TargetTeam",
              "modifierName": "UNIQUE_Have_Gator_SacredEnergy_Team"
            }
          ]
        }
      ]
    }
  },
  {
    "Default": {
      "$type": "CBPBEHLOHKI",
      "abilityName": "Monster_Gator_Sacred_SacredEnergy_Bullet",
      "modifiers": {
        "HolyHoundBullet_Effect": {
          "modifierName": "",
          "IPFJJJGABPL": 100.0,
          "onAdded": [
            {
              "$type": "ANLOBBMKNIJ",
              "rotationDampTime": "Eff_Monster_Gator_Sacred_SacredEnergyBullet",
              "PPPDJGDDOGD": 1.0,
              "AJDILHJFNKE": -1.0
            }
          ]
        },
        "TriggerLogicSacredEnergy": {
          "stacking": "Unique",
          "modifierName": "",
          "elementDurability": 1.0,
          "IPFJJJGABPL": 100.0,
          "onAdded": [
            {
              "$type": "GJCAPCBELPA",
              "abilityName": "Monster_Gator_Sacred_SacredEnergy_BridgeToMonster"
            }
          ]
        }
      },
      "onAdded": [
        {
          "$type": "PELJALPANCA",
          "modifierName": "HolyHoundBullet_Effect"
        }
      ],
      "onAbilityStart": [
        {
          "$type": "INBCDALOHMP",
          "target": "Target",
          "targetPredicates": [
            {
              "$type": "CNGGLKHONAA",
              "key": "SacredEnergy_Target_Gator",
              "param3": 1.0
            }
          ],
          "successActions": [
            {
              "$type": "PELJALPANCA",
              "target": "OriginOwner",
              "modifierName": "TriggerLogicSacredEnergy"
            },
            {
              "$type": "KBFEIHEAMBM",
              "target": "Target",
              "predicates": [
                {
                  "$type": "IMPNKNCABJD"
                }
              ],
              "rotationDampTime": "Eff_Monster_Gator_Sacred_SacredEnergyHitPlayer",
              "born": {
                "$type": "JHEBKCMEMLN",
                "useRotation": true
              },
              "PPPDJGDDOGD": 1.0,
              "AJDILHJFNKE": -1.0
            },
            {
              "$type": "PFKNEFGOHIH",
              "modifierName": "HolyHoundBullet_Effect"
            },
            {
              "$type": "NCFFNDHGCMH"
            }
          ]
        }
      ]
    }
  },
  {
    "Default": {
      "$type": "CBPBEHLOHKI",
      "abilityName": "Monster_Gator_Sacred_SacredEnergy_Bullet_ToMonster",
      "modifiers": {
        "SacredEnergyRecoverLabel": {
          "modifierName": "",
          "elementDurability": 0.20000000298023224,
          "IPFJJJGABPL": 100.0,
          "onAdded": [
            {
              "$type": "BOBCOJHOKKD",
              "predicates": [
                {
                  "$type": "HHHMNCNPBDK",
                  "predicates": [
                    {
                      "$type": "NIFDMKMHAGJ",
                      "target": "Self",
                      "logic": "Equal",
                      "param3": 201.0,
                      "parameter": "PoseID"
                    },
                    {
                      "$type": "NIFDMKMHAGJ",
                      "target": "Self",
                      "logic": "Equal",
                      "param3": 203.0,
                      "parameter": "PoseID"
                    }
                  ]
                }
              ],
              "param3": 1.0,
              "key": "SacredEnergy_Recover_Gator",
              "param2": 0.0,
              "repeatTimes": 0.0
            }
          ]
        },
        "HolyHoundBullet_Effect": {
          "modifierName": "",
          "IPFJJJGABPL": 100.0,
          "onAdded": [
            {
              "$type": "ANLOBBMKNIJ",
              "rotationDampTime": "Eff_Monster_Gator_Sacred_SacredEnergyBullet",
              "PPPDJGDDOGD": 1.0,
              "AJDILHJFNKE": -1.0
            }
          ]
        }
      },
      "onAdded": [
        {
          "$type": "PELJALPANCA",
          "modifierName": "HolyHoundBullet_Effect"
        }
      ],
      "onAbilityStart": [
        {
          "$type": "INBCDALOHMP",
          "target": "Target",
          "targetPredicates": [
            {
              "$type": "CNGGLKHONAA",
              "key": "Monster_Gator_Sacred",
              "param3": 1.0
            },
            {
              "$type": "CNGGLKHONAA",
              "key": "_SACRED_ENTITY_ALERTNESS_TAG_",
              "param3": 1.0
            }
          ],
          "successActions": [
            {
              "$type": "PELJALPANCA",
              "target": "Target",
              "modifierName": "SacredEnergyRecoverLabel"
            },
            {
              "$type": "KBFEIHEAMBM",
              "target": "Target",
              "rotationDampTime": "Eff_Monster_Gator_Sacred_SacredEnergyHitMonster",
              "PPPDJGDDOGD": 1.0,
              "AJDILHJFNKE": -1.0
            },
            {
              "$type": "NCFFNDHGCMH"
            }
          ]
        },
        {
          "$type": "INBCDALOHMP",
          "target": "Target",
          "targetPredicates": [
            {
              "$type": "CNGGLKHONAA",
              "key": "Monster_Gator_Sacred",
              "param3": 1.0
            },
            {
              "$type": "CNGGLKHONAA",
              "key": "_SACRED_ENTITY_ALERTNESS_TAG_",
              "param3": 0.0,
              "compareType": "NoneOrEqual"
            }
          ],
          "successActions": [
            {
              "$type": "NCFFNDHGCMH"
            }
          ]
        }
      ]
    }
  },
  {
    "Default": {
      "$type": "CBPBEHLOHKI",
      "abilityName": "Monster_Gator_Sacred_EnhanceDefence",
      "abilityMixins": [
        {
          "$type": "LEOGLBFIELL",
          "poseIDs": [
            202
          ],
          "modifierName": "Gator_Sacred_EnhanceDefence"
        }
      ],
      "modifiers": {
        "Gator_Sacred_FrozenResistance": {
          "modifierName": "",
          "IPFJJJGABPL": 100.0,
          "onAdded": [
            {
              "$type": "OPAOGKPJLIG",
              "resistanceListID": 14002,
              "durationRatio": 0.5
            }
          ]
        },
        "Gator_Sacred_EnhanceDefence": {
          "modifierName": "",
          "IPFJJJGABPL": 100.0,
          "properties": {
            "Actor_PhysicalSubHurtDelta": 0.30000001192092896,
            "Actor_FireSubHurtDelta": 0.30000001192092896,
            "Actor_ElecSubHurtDelta": 0.30000001192092896,
            "Actor_WaterSubHurtDelta": 0.6000000238418579,
            "Actor_GrassSubHurtDelta": 0.30000001192092896,
            "Actor_WindSubHurtDelta": 0.30000001192092896,
            "Actor_IceSubHurtDelta": 0.30000001192092896,
            "Actor_RockSubHurtDelta": 0.30000001192092896
          }
        }
      },
      "onAdded": [
        {
          "$type": "JLDEMMJAMLC",
          "modifierName": "Gator_Sacred_FrozenResistance"
        }
      ]
    }
  }
]