[
  {
    "Default": {
      "$type": "CBPBEHLOHKI",
      "abilityName": "Monster_Fungus_Trois_Alpha_Ice_Steer",
      "abilityMixins": [
        {
          "$type": "IILHMBGONGM",
          "steerStateIDs": [
            "MeleeAttackNormal_BS"
          ],
          "angularSpeed": 240.0,
          "attackTrigger": "",
          "DGFCLAIDIFI": ""
        },
        {
          "$type": "IILHMBGONGM",
          "steerStateIDs": [
            "MeleeAttackOverdose_BS"
          ],
          "angularSpeed": 720.0,
          "attackTrigger": "",
          "DGFCLAIDIFI": ""
        },
        {
          "$type": "IILHMBGONGM",
          "steerStateIDs": [
            "MeleeAttackDecay_BS"
          ],
          "angularSpeed": 120.0,
          "attackTrigger": "",
          "DGFCLAIDIFI": ""
        },
        {
          "$type": "IILHMBGONGM",
          "steerStateIDs": [
            "DigNormalMoveLoop"
          ],
          "angularSpeed": 30.0,
          "attackTrigger": "DigOutAttackTrigger",
          "attackDistance": 2.5,
          "DGFCLAIDIFI": ""
        },
        {
          "$type": "IILHMBGONGM",
          "steerStateIDs": [
            "DigDecayMoveLoop"
          ],
          "angularSpeed": 30.0,
          "attackTrigger": "DigOutAttackTrigger",
          "attackDistance": 2.5,
          "DGFCLAIDIFI": ""
        },
        {
          "$type": "IILHMBGONGM",
          "steerStateIDs": [
            "DigNormalMoveLoop"
          ],
          "startNormalizedTime": 1.0,
          "endNormalizedTime": 99.0,
          "angularSpeed": 240.0,
          "attackTrigger": "DigOutAttackTrigger",
          "attackDistance": 2.5,
          "DGFCLAIDIFI": ""
        },
        {
          "$type": "IILHMBGONGM",
          "steerStateIDs": [
            "DigDecayMoveLoop"
          ],
          "startNormalizedTime": 1.0,
          "endNormalizedTime": 99.0,
          "angularSpeed": 240.0,
          "attackTrigger": "DigOutAttackTrigger",
          "attackDistance": 2.5,
          "DGFCLAIDIFI": ""
        },
        {
          "$type": "IILHMBGONGM",
          "steerStateIDs": [
            "DigOverdoseMoveLoop"
          ],
          "endNormalizedTime": 99.0,
          "angularSpeed": 240.0,
          "attackTrigger": "DigOutAttackTrigger",
          "attackDistance": 2.5,
          "DGFCLAIDIFI": ""
        },
        {
          "$type": "IILHMBGONGM",
          "steerStateIDs": [
            "DigOutAttack"
          ],
          "endNormalizedTime": 0.10000000149011612,
          "angularSpeed": 240.0,
          "attackTrigger": "",
          "DGFCLAIDIFI": ""
        }
      ]
    }
  },
  {
    "Default": {
      "$type": "CBPBEHLOHKI",
      "abilityName": "Monster_Fungus_Trois_RotateManagerAndReset",
      "abilityMixins": [
        {
          "$type": "MLJAPFBGEEH",
          "globalValueKey": "_MONSTER_FUNGUS_TROIS_ROTATEFLAG_",
          "gvInTalk": 0.0,
          "valueSteps": [
            -0.5,
            0.5,
            1.5
          ],
          "modifierNameSteps": [
            "RotateStop",
            "RotateSpeed01"
          ]
        },
        {
          "$type": "EKMHJKDLBJH",
          "stateIDs": [
            "Born",
            "NormalIdle",
            "NormalMove"
          ],
          "modifierName": "RotatingState",
          "DGFCLAIDIFI": ""
        }
      ],
      "modifiers": {
        "RotateStop": {
          "modifierName": "",
          "IPFJJJGABPL": 100.0
        },
        "RotateSpeed01": {
          "modifierName": "",
          "IPFJJJGABPL": 100.0,
          "onAdded": [
            {
              "$type": "ANLOBBMKNIJ",
              "rotationDampTime": "Eff_Monster_Fungus_Trois_RotateIdle",
              "PPPDJGDDOGD": 1.0,
              "AJDILHJFNKE": -1.0
            }
          ]
        },
        "RotatingState": {
          "modifierName": "",
          "IPFJJJGABPL": 100.0,
          "onAdded": [
            {
              "$type": "BOBCOJHOKKD",
              "param3": 1.0,
              "key": "_MONSTER_FUNGUS_TROIS_ROTATEFLAG_",
              "param2": 0.0,
              "repeatTimes": 0.0
            }
          ]
        }
      },
      "onAbilityStart": [
        {
          "$type": "BOBCOJHOKKD",
          "param3": 0.0,
          "key": "_MONSTER_FUNGUS_TROIS_ROTATEFLAG_",
          "param2": 0.0,
          "repeatTimes": 0.0
        }
      ]
    }
  },
  {
    "Default": {
      "$type": "CBPBEHLOHKI",
      "abilityName": "Monster_Fungus_Trois_Alpha_Ice_MeleeAttackNormal",
      "abilityMixins": [
        {
          "$type": "EJDKAKLFCPA",
          "stateIDs": [
            "MeleeAttackNormal_BS",
            "MeleeAttackNormal_Loop"
          ],
          "modifierName": "MeleeAttackBSEffect_Normal",
          "DGFCLAIDIFI": ""
        },
        {
          "$type": "EJDKAKLFCPA",
          "stateIDs": [
            "MeleeAttackOverdose_BS",
            "MeleeAttackOverdose_Loop"
          ],
          "modifierName": "MeleeAttackBSEffect_Overdose",
          "DGFCLAIDIFI": ""
        },
        {
          "$type": "EJDKAKLFCPA",
          "stateIDs": [
            "MeleeAttackDecay_Loop"
          ],
          "modifierName": "MeleeAttackBSEffect_Decayed",
          "DGFCLAIDIFI": ""
        }
      ],
      "modifiers": {
        "MeleeAttackBSEffect_Normal": {
          "modifierName": "",
          "IPFJJJGABPL": 100.0,
          "onAdded": [
            {
              "$type": "ANLOBBMKNIJ",
              "rotationDampTime": "Eff_Monster_Fungus_Trois_Gamma_Fire_MeleeAttackNormal_Loop",
              "PPPDJGDDOGD": 1.0,
              "AJDILHJFNKE": -1.0
            }
          ]
        },
        "MeleeAttackBSEffect_Overdose": {
          "modifierName": "",
          "IPFJJJGABPL": 100.0,
          "onAdded": [
            {
              "$type": "ANLOBBMKNIJ",
              "rotationDampTime": "Eff_Monster_Fungus_Trois_Gamma_Fire_MeleeAttackNormal_Loop",
              "PPPDJGDDOGD": 1.0,
              "AJDILHJFNKE": -1.0
            }
          ]
        },
        "MeleeAttackBSEffect_Decayed": {
          "modifierName": "",
          "IPFJJJGABPL": 100.0,
          "onAdded": [
            {
              "$type": "ANLOBBMKNIJ",
              "rotationDampTime": "Eff_Monster_Fungus_Trois_Gamma_Fire_MeleeAttackDecayed_Loop",
              "PPPDJGDDOGD": 1.0,
              "AJDILHJFNKE": -1.0
            }
          ]
        }
      }
    }
  },
  {
    "Default": {
      "$type": "CBPBEHLOHKI",
      "abilityName": "Monster_Fungus_Trois_Alpha_Ice_DigMoveLoop",
      "abilityMixins": [
        {
          "$type": "EJDKAKLFCPA",
          "stateIDs": [
            "DigNormal_MoveLoop"
          ],
          "modifierName": "DigLoopEffect_Normal",
          "DGFCLAIDIFI": ""
        },
        {
          "$type": "EJDKAKLFCPA",
          "stateIDs": [
            "DigOverdose_MoveLoop",
            "DigOverdose_MoveLoopReady"
          ],
          "modifierName": "DigLoopEffect_Overdose",
          "DGFCLAIDIFI": ""
        },
        {
          "$type": "EJDKAKLFCPA",
          "stateIDs": [
            "DigDecay_MoveLoop"
          ],
          "modifierName": "DigLoopEffect_Decayed",
          "DGFCLAIDIFI": ""
        },
        {
          "$type": "EJDKAKLFCPA",
          "stateIDs": [
            "Standby",
            "StandbyFree"
          ],
          "modifierName": "DigOverdoseStartHandler",
          "DGFCLAIDIFI": ""
        },
        {
          "$type": "EJDKAKLFCPA",
          "stateIDs": [
            "DigOutAttackOverdose_Attack"
          ],
          "modifierName": "DigOutAttackOverdoseHandler",
          "DGFCLAIDIFI": ""
        },
        {
          "$type": "EJDKAKLFCPA",
          "stateIDs": [
            "DigNormal_MoveLoop",
            "DigOverdose_MoveLoopReady",
            "DigOverdose_MoveLoop",
            "DigDecay_MoveLoop"
          ],
          "modifierName": "DigMoveLoopHandler",
          "DGFCLAIDIFI": ""
        }
      ],
      "abilitySpecials": {
        "DigOverdoseCount": 0.0
      },
      "modifiers": {
        "DigLoopEffect_Normal": {
          "modifierName": "",
          "IPFJJJGABPL": 100.0,
          "onAdded": [
            {
              "$type": "ANLOBBMKNIJ",
              "rotationDampTime": "Eff_Monster_Fungus_Trois_Alpha_Ice_DigNormal_Trail",
              "PPPDJGDDOGD": 1.0,
              "AJDILHJFNKE": -1.0
            }
          ]
        },
        "DigLoopEffect_Overdose": {
          "modifierName": "",
          "IPFJJJGABPL": 100.0,
          "onAdded": [
            {
              "$type": "ANLOBBMKNIJ",
              "rotationDampTime": "Eff_Monster_Fungus_Trois_Alpha_Ice_DigNormal_Trail",
              "PPPDJGDDOGD": 1.0,
              "AJDILHJFNKE": -1.0
            }
          ]
        },
        "DigLoopEffect_Decayed": {
          "modifierName": "",
          "IPFJJJGABPL": 100.0,
          "onAdded": [
            {
              "$type": "ANLOBBMKNIJ",
              "rotationDampTime": "Eff_Monster_Fungus_Trois_Alpha_Ice_DigNormal_Trail",
              "PPPDJGDDOGD": 1.0,
              "AJDILHJFNKE": -1.0
            }
          ]
        },
        "DigOverdoseStartHandler": {
          "modifierName": "",
          "IPFJJJGABPL": 100.0,
          "onAdded": [
            {
              "$type": "BOBCOJHOKKD",
              "param3": 0.0,
              "key": "_MONSTER_FUNGUS_TROIS_ALPHA_ICE_DIGOVERDOSECOUNT_",
              "param2": 0.0,
              "repeatTimes": 0.0
            },
            {
              "$type": "LDIAIDLOPEE",
              "globalValueKey": "_MONSTER_FUNGUS_TROIS_ALPHA_ICE_DIGOVERDOSECOUNT_",
              "overrideMapKey": "DigOverdoseCount"
            },
            {
              "$type": "AKEEDILMOJF",
              "intID": "DigOverdoseCount",
              "param3": "DigOverdoseCount"
            }
          ]
        },
        "DigOutAttackOverdoseHandler": {
          "modifierName": "",
          "IPFJJJGABPL": 100.0,
          "onAdded": [
            {
              "$type": "LCOEFEMOHLP",
              "param3": 1.0,
              "key": "_MONSTER_FUNGUS_TROIS_ALPHA_ICE_DIGOVERDOSECOUNT_",
              "param2": 3.0,
              "repeatTimes": 0.0
            },
            {
              "$type": "LDIAIDLOPEE",
              "globalValueKey": "_MONSTER_FUNGUS_TROIS_ALPHA_ICE_DIGOVERDOSECOUNT_",
              "overrideMapKey": "DigOverdoseCount"
            },
            {
              "$type": "AKEEDILMOJF",
              "intID": "DigOverdoseCount",
              "param3": "DigOverdoseCount"
            }
          ]
        },
        "DigMoveLoopHandler": {
          "modifierName": "",
          "IPFJJJGABPL": 100.0,
          "onAdded": [
            {
              "$type": "IEJIAEEJHGE"
            },
            {
              "$type": "FDFGJPNDKEA",
              "pushColliderNames": [
                "PushCollider"
              ]
            },
            {
              "$type": "HBNEMPLJCMB",
              "hide": true
            },
            {
              "$type": "CNMAKBJBODN",
              "canBeHandledOnRecover": true,
              "hdMeshKey": "Default"
            }
          ],
          "onRemoved": [
            {
              "$type": "IEJIAEEJHGE",
              "castShadow": true
            },
            {
              "$type": "FDFGJPNDKEA",
              "pushColliderNames": [
                "PushCollider"
              ],
              "setEnable": true
            },
            {
              "$type": "HBNEMPLJCMB"
            },
            {
              "$type": "CNMAKBJBODN",
              "enable": true,
              "hdMeshKey": "Default"
            }
          ],
          "onBeingHit": [
            {
              "$type": "INBCDALOHMP",
              "target": "Target",
              "targetPredicates": [
                {
                  "$type": "KNBFJBFMGLD",
                  "enBreak": 0.0
                }
              ],
              "successActions": [
                {
                  "$type": "BLCCGIPAOIP",
                  "PLLJBINMGJK": "DigBreakTrigger"
                }
              ]
            }
          ]
        }
      }
    }
  },
  {
    "Default": {
      "$type": "CBPBEHLOHKI",
      "abilityName": "Monster_Fungus_Trois_Alpha_Ice_HitThrowDropToGround",
      "onAbilityStart": [
        {
          "$type": "INBCDALOHMP",
          "targetPredicates": [
            {
              "$type": "JFLFAEAHLJM",
              "filters": [
                "Water"
              ]
            }
          ],
          "successActions": [
            {
              "$type": "KBFEIHEAMBM",
              "rotationDampTime": "Eff_Monster_Fungus_HitThrowToGround_Water",
              "PPPDJGDDOGD": 1.0,
              "AJDILHJFNKE": -1.0,
              "useRemoteSelfPos": true
            }
          ]
        }
      ]
    }
  }
]