[
  {
    "Default": {
      "$type": "CBPBEHLOHKI",
      "abilityName": "Monster_Fungus_Deux_Epsilon_Wind_Steer",
      "abilityMixins": [
        {
          "$type": "IILHMBGONGM",
          "steerStateIDs": [
            "SpinningFan_BS"
          ],
          "angularSpeed": 720.0,
          "attackTrigger": "",
          "DGFCLAIDIFI": ""
        }
      ]
    }
  },
  {
    "Default": {
      "$type": "CBPBEHLOHKI",
      "abilityName": "Monster_Fungus_Deux_Epsilon_Wind_SpinningFanNormal",
      "abilityMixins": [
        {
          "$type": "EJDKAKLFCPA",
          "stateIDs": [
            "SpinningFanNormal_BS",
            "SpinningFanNormal_Loop",
            "SpinningFanOverdose_BS",
            "SpinningFanOverdose_Loop",
            "SpinningFanNormal_AttackLoop",
            "SpinningFanOverdose_AttackLoop01",
            "SpinningFanOverdose_AttackLoop02",
            "SpinningFanOverdose_AttackLoop03"
          ],
          "modifierName": "SpinningFanNormalBSEffect",
          "DGFCLAIDIFI": ""
        },
        {
          "$type": "EJDKAKLFCPA",
          "stateIDs": [
            "SpinningFanDecay_BS",
            "SpinningFanDecay_Loop",
            "SpinningFanDecay_AttackLoop"
          ],
          "modifierName": "SpinningFanDecayedBSEffect",
          "DGFCLAIDIFI": ""
        }
      ],
      "modifiers": {
        "SpinningFanNormalBSEffect": {
          "modifierName": "",
          "IPFJJJGABPL": 100.0,
          "onAdded": [
            {
              "$type": "ANLOBBMKNIJ",
              "rotationDampTime": "Eff_Monster_Fungus_Deux_Epsilon_Wind_SpinningFanNormal_Loop",
              "PPPDJGDDOGD": 1.0,
              "AJDILHJFNKE": -1.0
            }
          ]
        },
        "SpinningFanDecayedBSEffect": {
          "modifierName": "",
          "IPFJJJGABPL": 100.0,
          "onAdded": [
            {
              "$type": "ANLOBBMKNIJ",
              "rotationDampTime": "Eff_Monster_Fungus_Deux_Epsilon_Wind_SpinningFanDecayed_Loop",
              "PPPDJGDDOGD": 1.0,
              "AJDILHJFNKE": -1.0
            }
          ]
        },
        "SpinningFanNormalLoopEffect": {
          "modifierName": "",
          "IPFJJJGABPL": 100.0,
          "onAdded": [
            {
              "$type": "ANLOBBMKNIJ",
              "rotationDampTime": "Eff_Monster_Fungus_Deux_Epsilon_Wind_SpinningFanNormal_Loop",
              "PPPDJGDDOGD": 1.0,
              "AJDILHJFNKE": -1.0
            }
          ]
        },
        "SpinningFanDecayedLoopEffect": {
          "modifierName": "",
          "IPFJJJGABPL": 100.0,
          "onAdded": [
            {
              "$type": "ANLOBBMKNIJ",
              "rotationDampTime": "Eff_Monster_Fungus_Deux_Epsilon_Wind_SpinningFanDecayed_Loop",
              "PPPDJGDDOGD": 1.0,
              "AJDILHJFNKE": -1.0
            }
          ]
        }
      },
      "onAbilityStart": [
        {
          "$type": "CAKDDHLKOAB",
          "bulletID": 42609007,
          "born": {
            "$type": "KLPANPDGHHA",
            "attachPointName": "BulletSource"
          }
        }
      ]
    }
  },
  {
    "Default": {
      "$type": "CBPBEHLOHKI",
      "abilityName": "Monster_Fungus_Deux_Epsilon_Wind_SpinningFanOverdose",
      "onAbilityStart": [
        {
          "$type": "CAKDDHLKOAB",
          "bulletID": 42609007,
          "born": {
            "$type": "KLPANPDGHHA",
            "attachPointName": "BulletSource"
          }
        }
      ]
    }
  },
  {
    "Default": {
      "$type": "CBPBEHLOHKI",
      "abilityName": "Monster_Fungus_Deux_Epsilon_Wind_SpinningFanDecayed",
      "onAbilityStart": [
        {
          "$type": "CAKDDHLKOAB",
          "bulletID": 42609008,
          "born": {
            "$type": "KLPANPDGHHA",
            "attachPointName": "BulletSource"
          }
        }
      ]
    }
  },
  {
    "Default": {
      "$type": "CBPBEHLOHKI",
      "abilityName": "Monster_Fungus_Deux_Epsilon_Wind_HitThrowDropToGround",
      "onAbilityStart": [
        {
          "$type": "INBCDALOHMP",
          "targetPredicates": [
            {
              "$type": "JFLFAEAHLJM",
              "filters": [
                "Water"
              ]
            }
          ],
          "successActions": [
            {
              "$type": "KBFEIHEAMBM",
              "rotationDampTime": "Eff_Monster_Fungus_HitThrowToGround_Water",
              "PPPDJGDDOGD": 1.0,
              "AJDILHJFNKE": -1.0,
              "useRemoteSelfPos": true
            }
          ]
        }
      ]
    }
  },
  {
    "Default": {
      "$type": "CBPBEHLOHKI",
      "abilityName": "Fungus_Deux_Epsilon_Wind_BulletNormal_Loop",
      "modifiers": {
        "UNIQUE_BulletNormal_Loop": {
          "modifierName": "",
          "forceTriggerWhenChangeAuthority": true,
          "IPFJJJGABPL": 100.0,
          "onAdded": [
            {
              "$type": "ANLOBBMKNIJ",
              "rotationDampTime": "Eff_Monster_Fungus_Deux_Epsilon_Wind_SpinningFan_BulletNormal",
              "PPPDJGDDOGD": 1.0,
              "AJDILHJFNKE": -1.0
            },
            {
              "$type": "ANLOBBMKNIJ",
              "rotationDampTime": "Eff_Monster_Fungus_Deux_Epsilon_Wind_SpinningFan_BulletNormal_Trail",
              "PPPDJGDDOGD": 1.0,
              "AJDILHJFNKE": -1.0
            }
          ],
          "onRemoved": [
            {
              "$type": "NCFFNDHGCMH"
            }
          ],
          "onBeingHit": [
            {
              "$type": "GJCAPCBELPA",
              "predicates": [
                {
                  "$type": "EKJMHHOMFOP",
                  "hitImpulse": 0.0
                }
              ],
              "abilityName": "Fungus_Deux_Epsilon_Wind_BulletNormal_Explode"
            }
          ]
        }
      },
      "onAdded": [
        {
          "$type": "JLDEMMJAMLC",
          "modifierName": "UNIQUE_BulletNormal_Loop"
        }
      ]
    }
  },
  {
    "Default": {
      "$type": "CBPBEHLOHKI",
      "abilityName": "Fungus_Deux_Epsilon_Wind_BulletNormal_Explode",
      "onAbilityStart": [
        {
          "$type": "KBODPNEEFGD",
          "modifierName": "UNIQUE_BulletNormal_Loop"
        },
        {
          "$type": "KBFEIHEAMBM",
          "rotationDampTime": "Eff_Monster_Fungus_Deux_Epsilon_Wind_SpinningFan_HitNormal",
          "born": {
            "$type": "KLPANPDGHHA",
            "attachPointName": "RootNode"
          },
          "PPPDJGDDOGD": 1.0,
          "AJDILHJFNKE": -1.0
        },
        {
          "$type": "AIFPLABJNMA",
          "attackEvent": {
            "attackPattern": {
              "$type": "BELNOFAKNBA",
              "triggerType": "TriggerNoRepeat",
              "born": {
                "$type": "IAENDIPDFKD",
                "offset": {
                  "KGEPIMHBMOL": 0.0,
                  "JEBHCGDPFEJ": 0.0,
                  "LPCHALMFFOD": 0.0
                }
              },
              "OAHPDLJIADP": 1.5
            },
            "attackInfo": {
              "attackTag": "",
              "attenuationTag": "",
              "attenuationGroup": "default",
              "attackProperty": {
                "actorGrassSubHurtDelta": 0.6000000238418579,
                "actorWindSubHurtDelta": 0.0,
                "elementType": "Wind",
                "IPFJJJGABPL": 25.0,
                "strikeType": "Default",
                "enBreak": 150.0,
                "attackType": "Range",
                "GLKMCMDJBIK": 0.0
              },
              "hitPattern": {
                "onHitEffectName": "",
                "hitImpulseY": "",
                "hitImpulseType": "LV3",
                "hitHaltTimeScale": 0.05000000074505806
              },
              "canBeModifiedBy": "OriginOwner"
            }
          },
          "targetType": "Enemy"
        }
      ]
    }
  },
  {
    "Default": {
      "$type": "CBPBEHLOHKI",
      "abilityName": "Fungus_Deux_Epsilon_Wind_BulletDecayed_Loop",
      "modifiers": {
        "UNIQUE_BulletDecayed_Loop": {
          "modifierName": "",
          "forceTriggerWhenChangeAuthority": true,
          "IPFJJJGABPL": 100.0,
          "onAdded": [
            {
              "$type": "ANLOBBMKNIJ",
              "rotationDampTime": "Eff_Monster_Fungus_Deux_Epsilon_Wind_SpinningFan_BulletDecayed",
              "PPPDJGDDOGD": 1.0,
              "AJDILHJFNKE": -1.0
            },
            {
              "$type": "ANLOBBMKNIJ",
              "rotationDampTime": "Eff_Monster_Fungus_Deux_Epsilon_Wind_SpinningFan_BulletDecayed_Trail",
              "PPPDJGDDOGD": 1.0,
              "AJDILHJFNKE": -1.0
            }
          ]
        }
      },
      "onAdded": [
        {
          "$type": "JLDEMMJAMLC",
          "modifierName": "UNIQUE_BulletDecayed_Loop"
        }
      ]
    }
  },
  {
    "Default": {
      "$type": "CBPBEHLOHKI",
      "abilityName": "Fungus_Deux_Epsilon_Wind_BulletDecayed_Explode",
      "onAbilityStart": [
        {
          "$type": "KBODPNEEFGD",
          "modifierName": "UNIQUE_BulletDecayed_Loop"
        },
        {
          "$type": "KBFEIHEAMBM",
          "rotationDampTime": "Eff_Monster_Fungus_Deux_Epsilon_Wind_SpinningFan_HitDecayed",
          "born": {
            "$type": "KLPANPDGHHA",
            "attachPointName": "RootNode"
          },
          "PPPDJGDDOGD": 1.0,
          "AJDILHJFNKE": -1.0
        },
        {
          "$type": "AIFPLABJNMA",
          "attackEvent": {
            "attackPattern": {
              "$type": "BELNOFAKNBA",
              "triggerType": "TriggerNoRepeat",
              "born": {
                "$type": "IAENDIPDFKD",
                "offset": {
                  "KGEPIMHBMOL": 0.0,
                  "JEBHCGDPFEJ": 0.0,
                  "LPCHALMFFOD": 0.0
                }
              },
              "OAHPDLJIADP": 1.5
            },
            "attackInfo": {
              "attackTag": "",
              "attenuationTag": "",
              "attenuationGroup": "default",
              "attackProperty": {
                "actorGrassSubHurtDelta": 1.0,
                "actorWindSubHurtDelta": 0.0,
                "elementType": "Wind",
                "IPFJJJGABPL": 25.0,
                "strikeType": "Default",
                "enBreak": 200.0,
                "attackType": "Range",
                "GLKMCMDJBIK": 0.0
              },
              "hitPattern": {
                "onHitEffectName": "",
                "hitImpulseY": "",
                "hitImpulseType": "LV4",
                "hitHaltTimeScale": 0.05000000074505806
              },
              "canBeModifiedBy": "OriginOwner"
            }
          },
          "targetType": "Enemy"
        }
      ]
    }
  }
]