[
  {
    "Default": {
      "$type": "CBPBEHLOHKI",
      "abilityName": "MonsterAffix_Local_Legend_Mark",
      "onAdded": [
        {
          "$type": "BOBCOJHOKKD",
          "param3": 1.0,
          "key": "_IS_LOCAL_LEGEND",
          "param2": 0.0,
          "repeatTimes": 0.0
        }
      ],
      "isDynamicAbility": true
    }
  },
  {
    "Default": {
      "$type": "CBPBEHLOHKI",
      "abilityName": "Monster_Tribalwarrior_Female_Slim_Slingshot_Elite_SteerManager",
      "abilityMixins": [
        {
          "$type": "IILHMBGONGM",
          "steerStateIDs": [
            "Turn"
          ],
          "endNormalizedTime": 100.0,
          "angularSpeed": 165.0,
          "attackTrigger": "",
          "DGFCLAIDIFI": ""
        },
        {
          "$type": "IILHMBGONGM",
          "steerStateIDs": [
            "Alert"
          ],
          "endNormalizedTime": 0.25,
          "angularSpeed": 450.0,
          "attackTrigger": "",
          "DGFCLAIDIFI": ""
        },
        {
          "$type": "IILHMBGONGM",
          "steerStateIDs": [
            "RollingF"
          ],
          "endNormalizedTime": 0.11999999731779099,
          "angularSpeed": 700.0,
          "attackAngle": 90.0,
          "attackTrigger": "",
          "DGFCLAIDIFI": ""
        },
        {
          "$type": "IILHMBGONGM",
          "steerStateIDs": [
            "RollingF"
          ],
          "startNormalizedTime": 0.10999999940395355,
          "endNormalizedTime": 0.27000001072883606,
          "angularSpeed": 120.0,
          "attackTrigger": "",
          "DGFCLAIDIFI": ""
        },
        {
          "$type": "IILHMBGONGM",
          "steerStateIDs": [
            "RollingB"
          ],
          "endNormalizedTime": 0.11999999731779099,
          "angularSpeed": 700.0,
          "attackAngle": 90.0,
          "attackTrigger": "",
          "DGFCLAIDIFI": ""
        },
        {
          "$type": "IILHMBGONGM",
          "steerStateIDs": [
            "RollingB"
          ],
          "startNormalizedTime": 0.4000000059604645,
          "endNormalizedTime": 0.47600001096725464,
          "angularSpeed": 800.0,
          "attackTrigger": "",
          "DGFCLAIDIFI": ""
        },
        {
          "$type": "IILHMBGONGM",
          "steerStateIDs": [
            "MeleeAttack01"
          ],
          "endNormalizedTime": 0.20000000298023224,
          "angularSpeed": 600.0,
          "attackTrigger": "",
          "DGFCLAIDIFI": ""
        },
        {
          "$type": "IILHMBGONGM",
          "steerStateIDs": [
            "MeleeAttack01_AS"
          ],
          "startNormalizedTime": 0.2199999988079071,
          "endNormalizedTime": 0.4000000059604645,
          "angularSpeed": 240.0,
          "attackTrigger": "",
          "DGFCLAIDIFI": ""
        },
        {
          "$type": "IILHMBGONGM",
          "steerStateIDs": [
            "MeleeAttack02"
          ],
          "startNormalizedTime": 0.25999999046325684,
          "endNormalizedTime": 0.4560000002384186,
          "angularSpeed": 240.0,
          "attackTrigger": "",
          "DGFCLAIDIFI": ""
        },
        {
          "$type": "IILHMBGONGM",
          "steerStateIDs": [
            "MeleeAttack02_AS"
          ],
          "startNormalizedTime": 0.41999998688697815,
          "endNormalizedTime": 0.6069999933242798,
          "angularSpeed": 360.0,
          "attackTrigger": "",
          "DGFCLAIDIFI": ""
        },
        {
          "$type": "IILHMBGONGM",
          "steerStateIDs": [
            "MeleeAttack03"
          ],
          "endNormalizedTime": 0.11500000208616257,
          "angularSpeed": 360.0,
          "attackTrigger": "",
          "DGFCLAIDIFI": ""
        },
        {
          "$type": "IILHMBGONGM",
          "steerStateIDs": [
            "Rolling_RangeAttack"
          ],
          "endNormalizedTime": 0.11999999731779099,
          "angularSpeed": 600.0,
          "attackTrigger": "",
          "DGFCLAIDIFI": ""
        },
        {
          "$type": "IILHMBGONGM",
          "steerStateIDs": [
            "Rolling_RangeAttack"
          ],
          "startNormalizedTime": 0.12999999523162842,
          "endNormalizedTime": 0.5,
          "angularSpeed": 45.0,
          "attackTrigger": "",
          "DGFCLAIDIFI": ""
        },
        {
          "$type": "IILHMBGONGM",
          "steerStateIDs": [
            "Rolling_RangeAttack"
          ],
          "startNormalizedTime": 0.6660000085830688,
          "endNormalizedTime": 0.7429999709129333,
          "angularSpeed": 800.0,
          "attackTrigger": "",
          "DGFCLAIDIFI": ""
        },
        {
          "$type": "IILHMBGONGM",
          "steerStateIDs": [
            "RangedAttack_Attack"
          ],
          "endNormalizedTime": 0.574999988079071,
          "angularSpeed": 80.0,
          "attackTrigger": "",
          "DGFCLAIDIFI": ""
        },
        {
          "$type": "IILHMBGONGM",
          "steerStateIDs": [
            "RangedAttack_Attack"
          ],
          "startNormalizedTime": 1.0,
          "endNormalizedTime": 1.5750000476837158,
          "angularSpeed": 80.0,
          "attackTrigger": "",
          "DGFCLAIDIFI": ""
        },
        {
          "$type": "IILHMBGONGM",
          "steerStateIDs": [
            "RangedAttack_BS"
          ],
          "endNormalizedTime": 0.2199999988079071,
          "angularSpeed": 480.0,
          "attackTrigger": "",
          "DGFCLAIDIFI": ""
        },
        {
          "$type": "IILHMBGONGM",
          "steerStateIDs": [
            "RangedAttack_BS"
          ],
          "startNormalizedTime": 0.4099999964237213,
          "endNormalizedTime": 0.5199999809265137,
          "angularSpeed": 600.0,
          "attackTrigger": "",
          "DGFCLAIDIFI": ""
        },
        {
          "$type": "IILHMBGONGM",
          "steerStateIDs": [
            "RangedAttack_AS"
          ],
          "startNormalizedTime": 0.2199999988079071,
          "endNormalizedTime": 0.6299999952316284,
          "angularSpeed": 500.0,
          "attackTrigger": "",
          "DGFCLAIDIFI": ""
        },
        {
          "$type": "IILHMBGONGM",
          "steerStateIDs": [
            "RangedAttack_ShrapnelShoot_BS"
          ],
          "startNormalizedTime": 0.3700000047683716,
          "endNormalizedTime": 0.41999998688697815,
          "angularSpeed": 450.0,
          "attackTrigger": "",
          "DGFCLAIDIFI": ""
        },
        {
          "$type": "IILHMBGONGM",
          "steerStateIDs": [
            "RangedAttack_ShrapnelShoot_BS"
          ],
          "startNormalizedTime": 0.42100000381469727,
          "endNormalizedTime": 0.4699999988079071,
          "angularSpeed": 240.0,
          "attackTrigger": "",
          "DGFCLAIDIFI": ""
        },
        {
          "$type": "IILHMBGONGM",
          "steerStateIDs": [
            "RangedAttack_ShrapnelShoot_BS"
          ],
          "startNormalizedTime": 0.47099998593330383,
          "endNormalizedTime": 0.5299999713897705,
          "angularSpeed": 120.0,
          "attackTrigger": "",
          "DGFCLAIDIFI": ""
        },
        {
          "$type": "IILHMBGONGM",
          "steerStateIDs": [
            "RangedAttack_ShrapnelShoot_BS"
          ],
          "startNormalizedTime": 0.35100001096725464,
          "endNormalizedTime": 0.6370000243186951,
          "angularSpeed": 40.0,
          "attackTrigger": "",
          "DGFCLAIDIFI": ""
        },
        {
          "$type": "IILHMBGONGM",
          "steerStateIDs": [
            "TribalUlt_BS"
          ],
          "startNormalizedTime": 0.30300000309944153,
          "endNormalizedTime": 0.3790000081062317,
          "angularSpeed": 240.0,
          "attackTrigger": "",
          "remoteSteerToLocalTarget": false,
          "DGFCLAIDIFI": ""
        },
        {
          "$type": "IILHMBGONGM",
          "steerStateIDs": [
            "TribalUlt_BS"
          ],
          "startNormalizedTime": 0.3799999952316284,
          "endNormalizedTime": 0.41999998688697815,
          "angularSpeed": 600.0,
          "attackTrigger": "",
          "remoteSteerToLocalTarget": false,
          "DGFCLAIDIFI": ""
        },
        {
          "$type": "IILHMBGONGM",
          "steerStateIDs": [
            "TribalUlt_BS"
          ],
          "startNormalizedTime": 0.6700000166893005,
          "endNormalizedTime": 0.7400000095367432,
          "angularSpeed": 240.0,
          "attackTrigger": "",
          "remoteSteerToLocalTarget": false,
          "DGFCLAIDIFI": ""
        },
        {
          "$type": "IILHMBGONGM",
          "steerStateIDs": [
            "TribalUlt_BS"
          ],
          "startNormalizedTime": 0.7409999966621399,
          "angularSpeed": 76.0,
          "attackTrigger": "",
          "remoteSteerToLocalTarget": false,
          "DGFCLAIDIFI": ""
        },
        {
          "$type": "IILHMBGONGM",
          "steerStateIDs": [
            "TribalUlt_Loop_OverCharging"
          ],
          "startNormalizedTime": 1.100000023841858,
          "endNormalizedTime": 1.5,
          "angularSpeed": 90.0,
          "attackTrigger": "",
          "remoteSteerToLocalTarget": false,
          "DGFCLAIDIFI": ""
        },
        {
          "$type": "IILHMBGONGM",
          "steerStateIDs": [
            "TribalUlt_Loop_OverCharging"
          ],
          "startNormalizedTime": 1.5099999904632568,
          "endNormalizedTime": 2.0,
          "angularSpeed": 160.0,
          "attackTrigger": "",
          "remoteSteerToLocalTarget": false,
          "DGFCLAIDIFI": ""
        },
        {
          "$type": "IILHMBGONGM",
          "steerStateIDs": [
            "TribalUlt_Loop_Turning"
          ],
          "startNormalizedTime": 0.6600000262260437,
          "endNormalizedTime": 0.8100000023841858,
          "angularSpeed": 270.0,
          "attackTrigger": "",
          "remoteSteerToLocalTarget": false,
          "DGFCLAIDIFI": ""
        },
        {
          "$type": "IILHMBGONGM",
          "steerStateIDs": [
            "TribalUlt_Loop_Turning"
          ],
          "startNormalizedTime": 0.8109999895095825,
          "endNormalizedTime": 0.8600000143051147,
          "angularSpeed": 800.0,
          "attackTrigger": "",
          "remoteSteerToLocalTarget": false,
          "DGFCLAIDIFI": ""
        },
        {
          "$type": "IILHMBGONGM",
          "steerStateIDs": [
            "TribalUlt_Loop_Charging"
          ],
          "endNormalizedTime": 99.0,
          "angularSpeed": 66.0,
          "attackTrigger": "",
          "remoteSteerToLocalTarget": false,
          "DGFCLAIDIFI": ""
        },
        {
          "$type": "IILHMBGONGM",
          "steerStateIDs": [
            "TribalUlt_AS"
          ],
          "startNormalizedTime": 0.14000000059604645,
          "endNormalizedTime": 0.3799999952316284,
          "angularSpeed": 180.0,
          "attackTrigger": "",
          "remoteSteerToLocalTarget": false,
          "DGFCLAIDIFI": ""
        }
      ]
    }
  },
  {
    "Default": {
      "$type": "CBPBEHLOHKI",
      "abilityName": "Monster_Tribalwarrior_Female_Slim_Slingshot_Mosasaurus_Elite_StageControl",
      "abilityMixins": [
        {
          "$type": "LAPMOOFOPBM",
          "valueSteps": [
            0.8500000238418579,
            0.5
          ],
          "modifierNameSteps": [
            "HP_Stage1",
            "HP_Stage2",
            "HP_Stage3"
          ]
        },
        {
          "$type": "JCLLHEBBFON",
          "watcherId": 82228,
          "predicates": [
            {
              "$type": "CNGGLKHONAA",
              "target": "Self",
              "key": "_WATCHER_82228_NO_EXPLODE_FAILED",
              "param3": 0.0,
              "compareType": "NoneOrEqual"
            },
            {
              "$type": "CNGGLKHONAA",
              "target": "Self",
              "key": "_IS_LOCAL_LEGEND",
              "param3": 1.0
            }
          ],
          "predicatesForeach": [
            {
              "$type": "EBOHLEJJMIG",
              "IKILOJFBKMA": 82227
            }
          ]
        },
        {
          "$type": "JCLLHEBBFON",
          "watcherId": 82227,
          "predicates": [
            {
              "$type": "CNGGLKHONAA",
              "target": "Self",
              "key": "_WATCHER_82227_NO_FREEZE_FAILED",
              "param3": 0.0,
              "compareType": "NoneOrEqual"
            },
            {
              "$type": "CNGGLKHONAA",
              "target": "Self",
              "key": "_IS_LOCAL_LEGEND",
              "param3": 1.0
            }
          ],
          "predicatesForeach": [
            {
              "$type": "EBOHLEJJMIG",
              "IKILOJFBKMA": 82226
            }
          ]
        },
        {
          "$type": "JCLLHEBBFON",
          "watcherId": 82226,
          "predicates": [
            {
              "$type": "CNGGLKHONAA",
              "target": "Self",
              "key": "_IS_LOCAL_LEGEND",
              "param3": 1.0
            }
          ]
        }
      ],
      "modifiers": {
        "Property_Control": {
          "modifierName": "",
          "IPFJJJGABPL": 100.0,
          "onAdded": [
            {
              "$type": "OPAOGKPJLIG",
              "resistanceBuffDebuffs": [
                "ElementFreeze"
              ],
              "durationRatio": 0.8999999761581421
            }
          ]
        },
        "HP_Stage1": {
          "modifierName": "",
          "IPFJJJGABPL": 100.0,
          "onAdded": [
            {
              "$type": "GFFKENEJFFB",
              "intID": "Stage",
              "value": 1
            },
            {
              "$type": "BOBCOJHOKKD",
              "param3": 0.0,
              "key": "_WATCHER_82227_NO_FREEZE_FAILED",
              "param2": 0.0,
              "repeatTimes": 0.0
            },
            {
              "$type": "BOBCOJHOKKD",
              "param3": 0.0,
              "key": "_WATCHER_82228_NO_EXPLODE_FAILED",
              "param2": 0.0,
              "repeatTimes": 0.0
            }
          ]
        },
        "HP_Stage2": {
          "modifierName": "",
          "IPFJJJGABPL": 100.0,
          "onAdded": [
            {
              "$type": "GFFKENEJFFB",
              "intID": "Stage",
              "value": 2
            }
          ]
        },
        "HP_Stage3": {
          "modifierName": "",
          "IPFJJJGABPL": 100.0,
          "onAdded": [
            {
              "$type": "GFFKENEJFFB",
              "intID": "Stage",
              "value": 3
            }
          ]
        }
      },
      "onAdded": [
        {
          "$type": "PELJALPANCA",
          "modifierName": "Property_Control"
        }
      ]
    }
  },
  {
    "Default": {
      "$type": "CBPBEHLOHKI",
      "abilityName": "Monster_Tribalwarrior_Female_Slim_Slingshot_Mosasaurus_Elite_ComboManager",
      "abilityMixins": [
        {
          "$type": "DIDNLIKKLLF",
          "stateIDs": [
            "Standby"
          ],
          "exitActions": [
            {
              "$type": "KJCHPDPBJHL",
              "boolID": "ApplyRolling",
              "param3": true
            }
          ],
          "DGFCLAIDIFI": ""
        },
        {
          "$type": "DIDNLIKKLLF",
          "stateIDs": [
            "RollingF1"
          ],
          "exitActions": [
            {
              "$type": "KJCHPDPBJHL",
              "boolID": "ApplyRolling"
            }
          ],
          "DGFCLAIDIFI": ""
        }
      ],
      "modifiers": {
        "ComboMonitor": {
          "modifierName": "",
          "IPFJJJGABPL": 100.0,
          "onHittingOther": [
            {
              "$type": "INBCDALOHMP",
              "target": "Target",
              "targetPredicates": [
                {
                  "$type": "EGKHHMLPGLB",
                  "attackType": "Melee"
                }
              ],
              "successActions": [
                {
                  "$type": "KJCHPDPBJHL",
                  "boolID": "ApplyRolling"
                }
              ]
            }
          ]
        }
      },
      "onAdded": [
        {
          "$type": "PELJALPANCA",
          "modifierName": "ComboMonitor"
        }
      ]
    }
  },
  {
    "Default": {
      "$type": "CBPBEHLOHKI",
      "abilityName": "Monster_Tribalwarrior_Female_Slim_Slingshot_Mosasaurus_Elite_FrozenDetection",
      "abilityMixins": [
        {
          "$type": "LCMONECFEBO",
          "steerStateIDs": [
            "JumpStrike"
          ],
          "endNormalizedTime": 0.3499999940395355,
          "angularSpeed": 600.0,
          "attackTrigger": "",
          "DGFCLAIDIFI": "",
          "globalPosKey": "_JUMP_POS"
        },
        {
          "$type": "DIDNLIKKLLF",
          "stateIDs": [
            "JumpStrike1"
          ],
          "enterActions": [
            {
              "$type": "BOBCOJHOKKD",
              "param3": 1.0,
              "key": "_WATCHER_82227_NO_FREEZE_FAILED",
              "param2": 0.0,
              "repeatTimes": 0.0
            },
            {
              "$type": "DLEIPBPNAIM",
              "paramList": [
                0,
                0,
                1
              ]
            }
          ],
          "DGFCLAIDIFI": ""
        },
        {
          "$type": "DIDNLIKKLLF",
          "stateIDs": [
            "JumpStrike2"
          ],
          "enterActions": [
            {
              "$type": "PAGFCBCKEBH",
              "toPos": {
                "$type": "ICKMMAHFNIM",
                "positionKey": "_JUMP_POS",
                "directionKey": ""
              },
              "NKPCHMCNNOK": 0.09000000357627869,
              "maxRange": 0.75,
              "animatorStateIDs": [
                "JumpStrike2"
              ],
              "overrideMoveCollider": ""
            }
          ],
          "DGFCLAIDIFI": ""
        },
        {
          "$type": "JJFFOLOAJFO",
          "normalizedStateIDList": [
            {
              "stateID": "JumpStrike1",
              "normalizeStart": 0.2199999988079071
            },
            {
              "stateID": "JumpStrike2",
              "normalizeEnd": 0.4099999964237213
            }
          ],
          "modifierName": "ClosePush",
          "DGFCLAIDIFI": ""
        },
        {
          "$type": "AOKOIIHJJPJ",
          "alertness": [
            2
          ],
          "modifierName": "FrozenDetection"
        }
      ],
      "modifiers": {
        "FrozenDetection": {
          "modifierName": "",
          "IPFJJJGABPL": 100.0,
          "properties": {
            "Actor_ElemReactFrozenBrokenDelta": 5.0
          },
          "onAttackLanded": [
            {
              "$type": "INBCDALOHMP",
              "target": "Target",
              "targetPredicates": [
                {
                  "$type": "NFJHABGCNHE",
                  "element": "Frozen"
                },
                {
                  "$type": "FMBJAJFLDIP",
                  "logic": "Lesser",
                  "param3": 13.5,
                  "DDALGNLEHOD": ""
                },
                {
                  "$type": "NIMAPECDNKD",
                  "entityTypes": [
                    "Avatar",
                    "Vehicle"
                  ]
                }
              ],
              "successActions": [
                {
                  "$type": "PELJALPANCA",
                  "modifierName": "SetFrozenDetect"
                },
                {
                  "$type": "PDGGLHALCMK",
                  "target": "Target",
                  "enable": true
                }
              ]
            },
            {
              "$type": "INBCDALOHMP",
              "target": "Target",
              "targetPredicates": [
                {
                  "$type": "NFJHABGCNHE",
                  "element": "Frozen"
                },
                {
                  "$type": "NNEHDJHMING",
                  "attackTags": [
                    "FrozenBroken_Exc"
                  ]
                }
              ],
              "successActions": [
                {
                  "$type": "PELJALPANCA",
                  "modifierName": "SendServerLog"
                }
              ]
            }
          ]
        },
        "SendServerLog": {
          "modifierName": "",
          "elementDurability": 1.0,
          "IPFJJJGABPL": 100.0,
          "onAdded": [
            {
              "$type": "DLEIPBPNAIM",
              "paramList": [
                0,
                0,
                2
              ]
            }
          ]
        },
        "SetFrozenDetect": {
          "modifierName": "",
          "elementDurability": 0.5,
          "IPFJJJGABPL": 100.0,
          "onAdded": [
            {
              "$type": "BLCCGIPAOIP",
              "PLLJBINMGJK": "FrozenDetect"
            }
          ],
          "onRemoved": [
            {
              "$type": "GNAEJNBIFAC",
              "PLLJBINMGJK": "FrozenDetect"
            }
          ]
        },
        "ClosePush": {
          "modifierName": "",
          "IPFJJJGABPL": 100.0,
          "modifierMixins": [
            {
              "$type": "CIGJDPCDOEB",
              "onAdded": [
                {
                  "$type": "FDFGJPNDKEA",
                  "pushColliderNames": [
                    "PushCollider"
                  ]
                }
              ],
              "onRemoved": [
                {
                  "$type": "FDFGJPNDKEA",
                  "pushColliderNames": [
                    "PushCollider"
                  ],
                  "setEnable": true
                }
              ]
            }
          ]
        }
      },
      "onAdded": [
        {
          "$type": "MPAGCPPAIHJ",
          "key": "_JUMP_POS",
          "born": {
            "$type": "IAENDIPDFKD",
            "useRotation": true
          }
        }
      ],
      "onAbilityStart": [
        {
          "$type": "MPAGCPPAIHJ",
          "target": "SelfAttackActiveTarget",
          "key": "_JUMP_POS",
          "born": {
            "$type": "JHEBKCMEMLN",
            "useRotation": true
          },
          "setTarget": false
        },
        {
          "$type": "KBFEIHEAMBM",
          "rotationDampTime": "Eff_Monster_Tribalwarrior_Female_Slim_SlingShot_Mosasaurus_JumpStrike_Warning",
          "born": {
            "$type": "ICKMMAHFNIM",
            "positionKey": "_JUMP_POS",
            "directionKey": ""
          },
          "PPPDJGDDOGD": 1.0,
          "AJDILHJFNKE": -1.0
        }
      ]
    }
  },
  {
    "Default": {
      "$type": "CBPBEHLOHKI",
      "abilityName": "Monster_Tribalwarrior_Female_Slim_Slingshot_Mosasaurus_Elite_EndureManager",
      "abilityMixins": [
        {
          "$type": "MLJAPFBGEEH",
          "globalValueKey": "_WEAKEN_BREAK",
          "gvInTalk": 1.0,
          "valueSteps": [
            -0.5,
            0.5,
            1.5
          ],
          "modifierNameSteps": [
            "BreakCoolDown",
            "WeakenState"
          ]
        }
      ],
      "modifiers": {
        "WeakenState": {
          "modifierName": "",
          "IPFJJJGABPL": 100.0,
          "modifierMixins": [
            {
              "$type": "JJFFOLOAJFO",
              "normalizedStateIDList": [
                {
                  "stateID": "MeleeAttack01_AS",
                  "normalizeStart": 0.20000000298023224,
                  "normalizeEnd": 0.6399999856948853
                },
                {
                  "stateID": "MeleeAttack02_AS",
                  "normalizeStart": 0.10000000149011612,
                  "normalizeEnd": 0.6000000238418579
                },
                {
                  "stateID": "MeleeAttack03",
                  "normalizeStart": 0.3179999887943268,
                  "normalizeEnd": 0.699999988079071
                },
                {
                  "stateID": "RangedAttack_AS",
                  "normalizeEnd": 0.5099999904632568
                },
                {
                  "stateID": "RangedAttack_ShrapnelShoot",
                  "normalizeStart": 0.6600000262260437
                },
                {
                  "stateID": "JumpStrike2",
                  "normalizeStart": 0.4300000071525574
                },
                {
                  "stateID": "SprayPaintCanThrow",
                  "normalizeStart": 0.3779999911785126
                }
              ],
              "modifierName": "EndureWeaken",
              "DGFCLAIDIFI": ""
            },
            {
              "$type": "DIDNLIKKLLF",
              "stateIDs": [
                "Hit_L",
                "Hit_H",
                "HitThrow",
                "Struggle"
              ],
              "enterActions": [
                {
                  "$type": "BOBCOJHOKKD",
                  "param3": 0.0,
                  "key": "_WEAKEN_BREAK",
                  "param2": 0.0,
                  "repeatTimes": 0.0
                }
              ],
              "DGFCLAIDIFI": ""
            }
          ],
          "properties": {
            "Actor_EndureDelta": 0.07699999958276749
          }
        },
        "EndureWeaken": {
          "modifierName": "",
          "IPFJJJGABPL": 100.0,
          "properties": {
            "Actor_EndureDelta": 16.25
          }
        },
        "BreakCoolDown": {
          "modifierName": "",
          "IPFJJJGABPL": 100.0,
          "thinkInterval": 12.0,
          "properties": {
            "Actor_EndureDelta": 0.041999999433755875
          },
          "onThinkInterval": [
            {
              "$type": "BOBCOJHOKKD",
              "param3": 1.0,
              "key": "_WEAKEN_BREAK",
              "param2": 0.0,
              "repeatTimes": 0.0
            }
          ]
        }
      }
    }
  },
  {
    "Default": {
      "$type": "CBPBEHLOHKI",
      "abilityName": "Monster_Tribalwarrior_Female_Slim_Slingshot_Mosasaurus_Elite_ComboByDistance",
      "abilityMixins": [
        {
          "$type": "DIDNLIKKLLF",
          "stateIDs": [
            "Range_Rolling_Left",
            "RangedAttack_Start",
            "Range_Rolling_Right"
          ],
          "enterActions": [
            {
              "$type": "GJCAPCBELPA",
              "abilityName": "Monster_Tribalwarrior_Female_Slim_Slingshot_Mosasaurus_Elite_ComboByDistance"
            }
          ],
          "DGFCLAIDIFI": ""
        }
      ],
      "onAbilityStart": [
        {
          "$type": "INBCDALOHMP",
          "target": "SelfAttackActiveTarget",
          "targetPredicates": [
            {
              "$type": "FMBJAJFLDIP",
              "target": "SelfAttackActiveTarget",
              "logic": "Lesser",
              "param3": 6.199999809265137,
              "DDALGNLEHOD": ""
            }
          ],
          "successActions": [
            {
              "$type": "AKEEDILMOJF",
              "intID": "TargetDistantLevel",
              "param3": 0.0
            }
          ],
          "failActions": [
            {
              "$type": "INBCDALOHMP",
              "target": "SelfAttackActiveTarget",
              "targetPredicates": [
                {
                  "$type": "FMBJAJFLDIP",
                  "target": "SelfAttackActiveTarget",
                  "logic": "Lesser",
                  "param3": 12.0,
                  "DDALGNLEHOD": ""
                }
              ],
              "successActions": [
                {
                  "$type": "AKEEDILMOJF",
                  "intID": "TargetDistantLevel",
                  "param3": 1.0
                }
              ],
              "failActions": [
                {
                  "$type": "AKEEDILMOJF",
                  "intID": "TargetDistantLevel",
                  "param3": 2.0
                }
              ]
            }
          ]
        }
      ]
    }
  },
  {
    "Default": {
      "$type": "CBPBEHLOHKI",
      "abilityName": "Monster_Tribalwarrior_Female_Slim_Slingshot_Mosasaurus_Elite_Recovery",
      "abilityMixins": [
        {
          "$type": "MLJAPFBGEEH",
          "globalValueKey": "_CAN_RECOVERY",
          "gvInTalk": 1.0,
          "valueSteps": [
            -0.5,
            0.5,
            1.5
          ],
          "modifierNameSteps": [
            "CoolDownTimer",
            "CanRecovery"
          ]
        }
      ],
      "modifiers": {
        "CoolDownTimer": {
          "modifierName": "",
          "IPFJJJGABPL": 100.0,
          "thinkInterval": 17.5,
          "onThinkInterval": [
            {
              "$type": "BOBCOJHOKKD",
              "param3": 1.0,
              "key": "_CAN_RECOVERY",
              "param2": 0.0,
              "repeatTimes": 0.0
            }
          ]
        },
        "CanRecovery": {
          "modifierName": "",
          "IPFJJJGABPL": 100.0,
          "modifierMixins": [
            {
              "$type": "DIDNLIKKLLF",
              "stateIDs": [
                "RollingB_Recovery"
              ],
              "enterActions": [
                {
                  "$type": "CDHOAGHMOEE"
                },
                {
                  "$type": "BOBCOJHOKKD",
                  "param3": 0.0,
                  "key": "_CAN_RECOVERY",
                  "param2": 0.0,
                  "repeatTimes": 0.0
                }
              ],
              "DGFCLAIDIFI": ""
            }
          ],
          "onAdded": [
            {
              "$type": "KJCHPDPBJHL",
              "canBeHandledOnRecover": true,
              "boolID": "CanRecovery",
              "param3": true
            }
          ],
          "onRemoved": [
            {
              "$type": "KJCHPDPBJHL",
              "boolID": "CanRecovery"
            }
          ]
        }
      }
    }
  },
  {
    "Default": {
      "$type": "CBPBEHLOHKI",
      "abilityName": "Monster_Tribalwarrior_Female_Slim_Slingshot_Mosasaurus_Elite_ThrowSprayPaintCan",
      "abilityMixins": [
        {
          "$type": "DIDNLIKKLLF",
          "stateIDs": [
            "SprayPaintCanThrow"
          ],
          "enterActions": [
            {
              "$type": "CAKDDHLKOAB",
              "bulletID": 42551016,
              "born": {
                "$type": "KLPANPDGHHA",
                "direction": {
                  "$type": "LHBLDEOLGKF",
                  "attachPointName": "AimLock"
                },
                "useRotation": true,
                "attachPointName": "SprayCanPoint"
              }
            },
            {
              "$type": "KBFEIHEAMBM",
              "rotationDampTime": "Eff_Monster_Tribalwarrior_Female_Slim_SlingShot_Mosasaurus_SprayPaintCan_Fire",
              "PPPDJGDDOGD": 1.0,
              "AJDILHJFNKE": -1.0
            },
            {
              "$type": "DLEIPBPNAIM",
              "paramList": [
                0,
                0,
                0
              ]
            }
          ],
          "DGFCLAIDIFI": ""
        },
        {
          "$type": "IILHMBGONGM",
          "steerStateIDs": [
            "SprayPaintCanThrow_BS"
          ],
          "endNormalizedTime": 0.11999999731779099,
          "angularSpeed": 600.0,
          "attackTrigger": "",
          "DGFCLAIDIFI": ""
        }
      ],
      "onAbilityStart": [
        {
          "$type": "BOBCOJHOKKD",
          "param3": 1.0,
          "key": "_WATCHER_82228_NO_EXPLODE_FAILED",
          "param2": 0.0,
          "repeatTimes": 0.0
        }
      ]
    }
  },
  {
    "Default": {
      "$type": "CBPBEHLOHKI",
      "abilityName": "Monster_Tribalwarrior_Female_Slim_Slingshot_Mosasaurus_Elite_SprayPaintCan_Bullet",
      "modifiers": {
        "Bullet_VFX": {
          "modifierName": "",
          "IPFJJJGABPL": 100.0,
          "onAdded": [
            {
              "$type": "ANLOBBMKNIJ",
              "rotationDampTime": "Eff_Monster_Tribalwarrior_Female_Slim_SlingShot_Mosasaurus_SprayPaintCan_Bullet_02",
              "PPPDJGDDOGD": 1.0,
              "AJDILHJFNKE": -1.0
            }
          ]
        }
      },
      "onAdded": [
        {
          "$type": "JLDEMMJAMLC",
          "modifierName": "Bullet_VFX"
        }
      ],
      "onAbilityStart": [
        {
          "$type": "KFCDMIMBBLD",
          "ownerIs": "OriginOwner",
          "born": {
            "$type": "JGEBAJLEBMO",
            "onGround": true,
            "direction": {
              "$type": "FNKDGDKJHPC",
              "eularAngles": {
                "x": 1.0
              }
            }
          },
          "gadgetID": 42551017
        },
        {
          "$type": "PFKNEFGOHIH",
          "modifierName": "Bullet_VFX"
        }
      ]
    }
  },
  {
    "Default": {
      "$type": "CBPBEHLOHKI",
      "abilityName": "Monster_Tribalwarrior_Female_Slim_Slingshot_Mosasaurus_Elite_SprayPaintCan_Gadget",
      "modifiers": {
        "Gadget_Logic": {
          "modifierName": "",
          "elementType": "Frozen",
          "IPFJJJGABPL": 50.0,
          "modifierMixins": [
            {
              "$type": "BKAAGFNKMLF",
              "onShieldBroken": [
                {
                  "$type": "KBFEIHEAMBM",
                  "rotationDampTime": "Eff_Monster_Tribalwarrior_Female_Slim_SlingShot_Mosasaurus_SprayPaintCan_Broken",
                  "PPPDJGDDOGD": 1.0,
                  "AJDILHJFNKE": -1.0
                }
              ],
              "showDamageText": "",
              "barElementType": "Frozen"
            }
          ],
          "onAdded": [
            {
              "$type": "ANLOBBMKNIJ",
              "rotationDampTime": "Eff_Monster_Tribalwarrior_Female_Slim_SlingShot_Mosasaurus_SprayPaintCan_Gadget_Loop",
              "PPPDJGDDOGD": 1.0,
              "AJDILHJFNKE": -1.0
            },
            {
              "$type": "JLDEMMJAMLC",
              "modifierName": "Gadget_Stage1"
            }
          ],
          "onRemoved": [
            {
              "$type": "PFKNEFGOHIH",
              "modifierName": "Gadget_Stage2"
            },
            {
              "$type": "NCFFNDHGCMH",
              "target": "Caster"
            }
          ]
        },
        "Gadget_Stage1": {
          "modifierName": "",
          "IPFJJJGABPL": 100.0,
          "thinkInterval": 2.0,
          "onThinkInterval": [
            {
              "$type": "PELJALPANCA",
              "modifierName": "Gadget_Stage2"
            },
            {
              "$type": "PFKNEFGOHIH",
              "modifierName": "Gadget_Stage1"
            }
          ]
        },
        "Gadget_Stage2": {
          "modifierName": "",
          "IPFJJJGABPL": 100.0,
          "thinkInterval": 6.0,
          "modifierMixins": [
            {
              "$type": "DKEKMHHIDOB",
              "lockType": "Default",
              "overrideRange": 4.5,
              "overrideCombatPri": 0.800000011920929
            }
          ],
          "onAdded": [
            {
              "$type": "JLDEMMJAMLC",
              "modifierName": "Damage_Area"
            }
          ],
          "onThinkInterval": [
            {
              "$type": "AIFPLABJNMA",
              "attackEvent": {
                "attackPattern": {
                  "$type": "BELNOFAKNBA",
                  "triggerType": "TriggerNoRepeat",
                  "OAHPDLJIADP": 7.25
                },
                "attackInfo": {
                  "attackTag": "",
                  "attenuationTag": "",
                  "attenuationGroup": "default",
                  "attackProperty": {
                    "actorGrassSubHurtDelta": 1.0,
                    "actorWindSubHurtDelta": 0.0,
                    "elementType": "Ice",
                    "IPFJJJGABPL": 75.0,
                    "strikeType": "Default",
                    "enBreak": 250.0,
                    "attackType": "Range",
                    "GLKMCMDJBIK": 0.0
                  },
                  "hitPattern": {
                    "onHitEffectName": "default",
                    "hitImpulseY": "",
                    "hitImpulseType": "LV6"
                  },
                  "canBeModifiedBy": "OriginOwner"
                }
              },
              "targetType": "Enemy"
            },
            {
              "$type": "KBFEIHEAMBM",
              "rotationDampTime": "Eff_Monster_Tribalwarrior_Female_Slim_SlingShot_Mosasaurus_SprayPaintCan_Blast",
              "PPPDJGDDOGD": 1.0,
              "AJDILHJFNKE": -1.0
            },
            {
              "$type": "GJCAPCBELPA",
              "target": "OriginOwner",
              "abilityName": "Monster_Tribalwarrior_Female_Slim_Slingshot_Mosasaurus_Elite_ThrowSprayPaintCan"
            },
            {
              "$type": "PFKNEFGOHIH",
              "modifierName": "Gadget_Logic"
            }
          ]
        },
        "Damage_Area": {
          "modifierName": "",
          "IPFJJJGABPL": 100.0,
          "thinkInterval": 0.6600000262260437,
          "onAdded": [
            {
              "$type": "AIFPLABJNMA",
              "attackEvent": {
                "attackPattern": {
                  "$type": "GMDIMKKHACA",
                  "triggerType": "TriggerNoRepeat",
                  "born": {
                    "$type": "IAENDIPDFKD",
                    "offset": {
                      "JEBHCGDPFEJ": -2.0
                    },
                    "useRotation": true
                  },
                  "height": 4.0,
                  "OAHPDLJIADP": 7.849999904632568
                },
                "attackInfo": {
                  "attackTag": "",
                  "attenuationTag": "",
                  "attenuationGroup": "default",
                  "attackProperty": {
                    "actorGrassSubHurtDelta": 0.5,
                    "actorWindSubHurtDelta": 0.0,
                    "elementType": "Ice",
                    "IPFJJJGABPL": 75.0,
                    "strikeType": "Default",
                    "enBreak": 150.0,
                    "attackType": "Range",
                    "GLKMCMDJBIK": 0.0
                  },
                  "hitPattern": {
                    "onHitEffectName": "default",
                    "hitImpulseY": "",
                    "hitImpulseType": "",
                    "overrideHitImpulse": {
                      "hitLevel": "Light",
                      "IMIJMPGJOGG": 500.0
                    }
                  },
                  "canBeModifiedBy": "OriginOwner"
                }
              },
              "targetType": "Enemy"
            }
          ],
          "onThinkInterval": [
            {
              "$type": "AIFPLABJNMA",
              "attackEvent": {
                "attackPattern": {
                  "$type": "GMDIMKKHACA",
                  "triggerType": "TriggerNoRepeat",
                  "born": {
                    "$type": "IAENDIPDFKD",
                    "offset": {
                      "JEBHCGDPFEJ": -2.0
                    },
                    "useRotation": true
                  },
                  "height": 4.0,
                  "OAHPDLJIADP": 7.849999904632568
                },
                "attackInfo": {
                  "attackTag": "",
                  "attenuationTag": "",
                  "attenuationGroup": "default",
                  "attackProperty": {
                    "actorGrassSubHurtDelta": 0.10000000149011612,
                    "actorWindSubHurtDelta": 0.0,
                    "elementType": "Ice",
                    "IPFJJJGABPL": 75.0,
                    "strikeType": "Default",
                    "enBreak": 1.0,
                    "attackType": "Range",
                    "GLKMCMDJBIK": 0.0
                  },
                  "hitPattern": {
                    "onHitEffectName": "default",
                    "hitImpulseY": "",
                    "hitImpulseType": "LV0"
                  },
                  "canBeModifiedBy": "OriginOwner"
                }
              },
              "targetType": "Enemy"
            }
          ]
        }
      },
      "onAdded": [
        {
          "$type": "JLDEMMJAMLC",
          "modifierName": "Gadget_Logic"
        },
        {
          "$type": "AIFPLABJNMA",
          "attackEvent": {
            "attackPattern": {
              "$type": "BELNOFAKNBA",
              "triggerType": "TriggerNoRepeat",
              "OAHPDLJIADP": 1.0
            },
            "attackInfo": {
              "attackTag": "",
              "attenuationTag": "",
              "attenuationGroup": "default",
              "attackProperty": {
                "actorGrassSubHurtDelta": 0.4000000059604645,
                "actorWindSubHurtDelta": 0.0,
                "elementType": "Ice",
                "IPFJJJGABPL": 75.0,
                "strikeType": "Default",
                "enBreak": 20.0,
                "attackType": "Range",
                "GLKMCMDJBIK": 0.0
              },
              "hitPattern": {
                "onHitEffectName": "default",
                "hitImpulseY": "",
                "hitImpulseType": "LV2"
              },
              "canBeModifiedBy": "OriginOwner"
            }
          },
          "targetType": "Enemy"
        }
      ]
    }
  },
  {
    "Default": {
      "$type": "CBPBEHLOHKI",
      "abilityName": "Monster_Tribalwarrior_Female_Slim_Slingshot_Mosasaurus_Elite_Ukulele",
      "abilityMixins": [
        {
          "$type": "EJDKAKLFCPA",
          "stateIDs": [
            "Ukulele_Idle"
          ],
          "modifierName": "Ukulele_Model_Show",
          "DGFCLAIDIFI": ""
        },
        {
          "$type": "GLLGBKNIFII",
          "mass": 100000.0
        }
      ],
      "modifiers": {
        "Ukulele_Model_Show": {
          "modifierName": "",
          "IPFJJJGABPL": 100.0,
          "properties": {
            "Entity_MassRatio": 10000.0
          },
          "onAdded": [
            {
              "$type": "ANLOBBMKNIJ",
              "rotationDampTime": "Eff_Monster_Tribalwarrior_Female_Slim_SlingShot_Mosasaurus_Ukulele",
              "PPPDJGDDOGD": 1.0,
              "AJDILHJFNKE": -1.0
            }
          ]
        }
      }
    }
  },
  {
    "Default": {
      "$type": "CBPBEHLOHKI",
      "abilityName": "Tribalwarrior_Female_Slim_Slingshot_Mosasaurus_Elite_Surfing_FollowBullet",
      "onAbilityStart": [
        {
          "$type": "AIFPLABJNMA",
          "attackEvent": {
            "attackPattern": {
              "$type": "BELNOFAKNBA",
              "triggerType": "TriggerNoRepeat",
              "born": {
                "$type": "JGEBAJLEBMO"
              },
              "OAHPDLJIADP": 0.05000000074505806
            },
            "attackInfo": {
              "attackTag": "",
              "attenuationTag": "",
              "attenuationGroup": "default",
              "attackProperty": {
                "actorGrassSubHurtDelta": 0.800000011920929,
                "actorWindSubHurtDelta": 0.0,
                "elementType": "Water",
                "IPFJJJGABPL": 25.0,
                "strikeType": "Default",
                "enBreak": 250.0,
                "attackType": "Melee",
                "GLKMCMDJBIK": 0.0
              },
              "hitPattern": {
                "onHitEffectName": "default",
                "hitImpulseY": "",
                "hitImpulseType": "",
                "overrideHitImpulse": {
                  "hitLevel": "Air",
                  "IMIJMPGJOGG": 600.0,
                  "BPCDKKBKOBM": 500.0
                },
                "retreatType": "ByAttackerForward"
              },
              "cameraShake": {
                "shakeRange": 1.600000023841858,
                "shakeTime": 0.25,
                "extension": {
                  "baseCycle": 0.25,
                  "cycleDamping": 0.25
                }
              },
              "canBeModifiedBy": "Owner"
            }
          },
          "targetType": "Enemy"
        }
      ]
    }
  }
]