[
  {
    "Default": {
      "$type": "CBPBEHLOHKI",
      "abilityName": "Monster_Sylph_Rock_PoseHandler",
      "abilityMixins": [
        {
          "$type": "MLJAPFBGEEH",
          "globalValueKey": "_SYLPH_POSE_TAG_",
          "gvInTalk": 0.0,
          "valueSteps": [
            -0.5,
            0.5,
            1.5
          ],
          "modifierNameSteps": [
            "Pose_None",
            "Pose_Activated"
          ]
        },
        {
          "$type": "PDIMAGBFBIE",
          "valueSteps": [
            0.019999999552965164
          ],
          "modifierNameSteps": [
            "Sylph_Empty",
            "Sylph_DyingPoseState"
          ]
        }
      ],
      "modifiers": {
        "UNIQUE_Sylph_Limbo": {
          "modifierName": "",
          "forceTriggerWhenChangeAuthority": true,
          "IPFJJJGABPL": 100.0,
          "properties": {
            "Actor_HpThresholdRatio": 0.0
          },
          "state": "Limbo"
        },
        "Empty": {
          "modifierName": "",
          "IPFJJJGABPL": 100.0
        },
        "Achieve_Moniter": {
          "modifierName": "",
          "IPFJJJGABPL": 100.0,
          "onKill": [
            {
              "$type": "HCLAKBJKPLE",
              "watcherId": 82125,
              "inThreatListOnly": true
            }
          ]
        },
        "UNIQUE_Sylph_ChargeBar": {
          "modifierName": "",
          "forceTriggerWhenChangeAuthority": true,
          "IPFJJJGABPL": 100.0,
          "modifierMixins": [
            {
              "$type": "HBPDEMIJCDL",
              "chargeBarIconID": 2,
              "initialValue": 0.0,
              "param2": 100.0
            },
            {
              "$type": "MLJAPFBGEEH",
              "globalValueKey": "_CHARGEBAR_VALUE",
              "gvInTalk": 0.0,
              "valueSteps": [
                -0.5,
                0.5,
                99.5,
                100.5
              ],
              "modifierNameSteps": [
                "Achieve_Moniter",
                "Empty",
                "ChargeActivated"
              ]
            },
            {
              "$type": "OPOICDPJIPL",
              "valueMin": 0.1875,
              "valueMax": 0.3125,
              "actionQueue": [
                {
                  "$type": "PMJJNECJCLE",
                  "param3": 20.0,
                  "param2": 0.0,
                  "repeatTimes": 0.0
                }
              ]
            },
            {
              "$type": "OPOICDPJIPL",
              "valueMin": 0.3125,
              "valueMax": 0.4375,
              "actionQueue": [
                {
                  "$type": "PMJJNECJCLE",
                  "param3": 40.0,
                  "param2": 0.0,
                  "repeatTimes": 0.0
                }
              ]
            },
            {
              "$type": "OPOICDPJIPL",
              "valueMin": 0.4375,
              "valueMax": 0.5625,
              "actionQueue": [
                {
                  "$type": "PMJJNECJCLE",
                  "param3": 70.0,
                  "param2": 0.0,
                  "repeatTimes": 0.0
                }
              ]
            },
            {
              "$type": "OPOICDPJIPL",
              "valueMin": 0.5625,
              "valueMax": 3.4028234663852886e+38,
              "actionQueue": [
                {
                  "$type": "PMJJNECJCLE",
                  "param3": 100.0,
                  "param2": 0.0,
                  "repeatTimes": 0.0
                }
              ]
            }
          ],
          "onAdded": [
            {
              "$type": "FEJJABGNGHA",
              "param3": 0.0
            }
          ]
        },
        "ChargeActivated": {
          "modifierName": "",
          "IPFJJJGABPL": 100.0,
          "onAdded": [
            {
              "$type": "BOBCOJHOKKD",
              "param3": 1.0,
              "key": "_SYLPH_POSE_TAG_",
              "param2": 0.0,
              "repeatTimes": 0.0
            },
            {
              "$type": "BLCCGIPAOIP",
              "PLLJBINMGJK": "NormalToActivated"
            }
          ],
          "onRemoved": [
            {
              "$type": "BOBCOJHOKKD",
              "param3": 0.0,
              "key": "_SYLPH_POSE_TAG_",
              "param2": 0.0,
              "repeatTimes": 0.0
            },
            {
              "$type": "GNAEJNBIFAC",
              "PLLJBINMGJK": "NormalToActivated"
            }
          ]
        },
        "Pose_None": {
          "modifierName": "",
          "IPFJJJGABPL": 100.0,
          "onAdded": [
            {
              "$type": "IDNGFEEBPAM",
              "boolID": "ActivatedTag"
            },
            {
              "$type": "KJCHPDPBJHL",
              "boolID": "ActivatedTag"
            }
          ]
        },
        "Pose_Activated": {
          "modifierName": "",
          "IPFJJJGABPL": 100.0,
          "modifierMixins": [
            {
              "$type": "CIBMLJJLANN",
              "excludeForces": [
                "WindZoneType",
                "AirflowType",
                "RetreatAirType"
              ]
            }
          ],
          "properties": {
            "Entity_WeightRatio": 2.0
          },
          "onAdded": [
            {
              "$type": "IDNGFEEBPAM",
              "boolID": "ActivatedTag",
              "param3": true
            },
            {
              "$type": "KJCHPDPBJHL",
              "boolID": "ActivatedTag",
              "param3": true
            },
            {
              "$type": "IPMMJGMONCI",
              "skillIDs": [
                601
              ]
            },
            {
              "$type": "DOANGHCALGB",
              "skillIDs": [
                601
              ]
            },
            {
              "$type": "AENLGPIPPAK",
              "hitBoxNames": [
                "HitBoxBody"
              ]
            },
            {
              "$type": "AENLGPIPPAK",
              "hitBoxNames": [
                "HitBoxBody_Activated"
              ],
              "setEnable": true
            },
            {
              "$type": "FDFGJPNDKEA",
              "pushColliderNames": [
                "PushCollider"
              ]
            },
            {
              "$type": "FDFGJPNDKEA",
              "pushColliderNames": [
                "PushCollider_Activated"
              ],
              "setEnable": true
            }
          ]
        },
        "Sylph_DyingPoseState": {
          "modifierName": "",
          "IPFJJJGABPL": 100.0,
          "properties": {
            "Actor_EndureDelta": 0.0,
            "Actor_SubHurtDelta": 1.0
          },
          "state": "DenyLockOn",
          "onAdded": [
            {
              "$type": "IDNGFEEBPAM",
              "boolID": "DyingState",
              "param3": true
            },
            {
              "$type": "AENLGPIPPAK",
              "hitBoxNames": [
                "HitBoxBody"
              ]
            },
            {
              "$type": "AENLGPIPPAK",
              "hitBoxNames": [
                "HitBoxBody_Activated"
              ]
            },
            {
              "$type": "BOBCOJHOKKD",
              "param3": 1.0,
              "key": "_SYLPH_DEATH_TAG_",
              "param2": 0.0,
              "repeatTimes": 0.0
            },
            {
              "$type": "JLDEMMJAMLC",
              "modifierName": "Dying_IsGhostToAllied"
            },
            {
              "$type": "JLDEMMJAMLC",
              "modifierName": "Dying_IsGhostToEnemy"
            },
            {
              "$type": "JLDEMMJAMLC",
              "modifierName": "Dying_LockHP"
            },
            {
              "$type": "JLDEMMJAMLC",
              "modifierName": "Dying_NoHeal"
            }
          ],
          "onRemoved": [
            {
              "$type": "IDNGFEEBPAM",
              "boolID": "DyingState"
            },
            {
              "$type": "AENLGPIPPAK",
              "predicates": [
                {
                  "$type": "CNGGLKHONAA",
                  "key": "_SYLPH_POSE_TAG_",
                  "param3": 0.0,
                  "compareType": "NoneOrEqual"
                }
              ],
              "hitBoxNames": [
                "HitBoxBody"
              ],
              "setEnable": true
            },
            {
              "$type": "AENLGPIPPAK",
              "predicates": [
                {
                  "$type": "CNGGLKHONAA",
                  "key": "_SYLPH_POSE_TAG_",
                  "param3": 1.0
                }
              ],
              "hitBoxNames": [
                "HitBoxBody_Activated"
              ],
              "setEnable": true
            },
            {
              "$type": "BOBCOJHOKKD",
              "param3": 0.0,
              "key": "_SYLPH_DEATH_TAG_",
              "param2": 0.0,
              "repeatTimes": 0.0
            }
          ]
        },
        "Dying_IsGhostToAllied": {
          "modifierName": "",
          "IPFJJJGABPL": 100.0,
          "state": "IsGhostToAllied"
        },
        "Dying_IsGhostToEnemy": {
          "modifierName": "",
          "IPFJJJGABPL": 100.0,
          "state": "IsGhostToEnemy"
        },
        "Dying_LockHP": {
          "modifierName": "",
          "IPFJJJGABPL": 100.0,
          "state": "LockHP"
        },
        "Dying_NoHeal": {
          "modifierName": "",
          "IPFJJJGABPL": 100.0,
          "state": "NoHeal"
        },
        "Sylph_Empty": {
          "modifierName": "",
          "IPFJJJGABPL": 100.0,
          "onKill": [
            {
              "$type": "AHPEKICBIIL",
              "shieldHP": true,
              "predicates": [
                {
                  "$type": "CNGGLKHONAA",
                  "key": "_MONSTER_RoleCombat_MonsterTag",
                  "param3": 1.0
                }
              ],
              "luaCallType": "CurGalleryControlGroup",
              "funcName": "SLC_RoleCombatET_PROCESS_Sylph_Die_Peacefuly",
              "param1": 0.0,
              "MGAMDEHMCOL": 0.0,
              "MMHOHAOGPLP": 0.0
            }
          ]
        }
      },
      "onAdded": [
        {
          "$type": "PELJALPANCA",
          "modifierName": "UNIQUE_Sylph_Limbo"
        },
        {
          "$type": "PELJALPANCA",
          "modifierName": "UNIQUE_Sylph_ChargeBar"
        },
        {
          "$type": "BOBCOJHOKKD",
          "param3": 0.0,
          "key": "_SYLPH_DEATH_TAG_",
          "param2": 0.0,
          "repeatTimes": 0.0
        }
      ]
    }
  },
  {
    "Default": {
      "$type": "CBPBEHLOHKI",
      "abilityName": "Monster_Sylph_Rock_PoseAction",
      "abilityMixins": [
        {
          "$type": "LEOGLBFIELL",
          "poseIDs": [
            211,
            311
          ],
          "modifierName": "Sylph_DyingAnimState"
        }
      ],
      "modifiers": {
        "Sylph_DyingAnimState": {
          "modifierName": "",
          "IPFJJJGABPL": 100.0,
          "thinkInterval": 0.20000000298023224,
          "onAdded": [
            {
              "$type": "KJCHPDPBJHL",
              "predicates": [
                {
                  "$type": "CNGGLKHONAA",
                  "key": "_SYLPH_POSE_TAG_",
                  "param3": 0.0,
                  "compareType": "NoneOrEqual"
                }
              ],
              "boolID": "DeathTag",
              "param3": true
            },
            {
              "$type": "KJCHPDPBJHL",
              "predicates": [
                {
                  "$type": "CNGGLKHONAA",
                  "key": "_SYLPH_POSE_TAG_",
                  "param3": 1.0
                }
              ],
              "boolID": "ActivatedDeathTag",
              "param3": true
            },
            {
              "$type": "GOKILMDLLJD",
              "resistanceListID": 13002
            }
          ],
          "onRemoved": [
            {
              "$type": "KJCHPDPBJHL",
              "predicates": [
                {
                  "$type": "CNGGLKHONAA",
                  "key": "_SYLPH_POSE_TAG_",
                  "param3": 0.0,
                  "compareType": "NoneOrEqual"
                }
              ],
              "boolID": "DeathTag"
            },
            {
              "$type": "KJCHPDPBJHL",
              "predicates": [
                {
                  "$type": "CNGGLKHONAA",
                  "key": "_SYLPH_POSE_TAG_",
                  "param3": 1.0
                }
              ],
              "boolID": "ActivatedDeathTag"
            }
          ],
          "onThinkInterval": [
            {
              "$type": "GOKILMDLLJD",
              "resistanceListID": 13002
            }
          ]
        }
      }
    }
  },
  {
    "Default": {
      "$type": "CBPBEHLOHKI",
      "abilityName": "Monster_Sylph_Rock_Steer",
      "abilityMixins": [
        {
          "$type": "IILHMBGONGM",
          "steerStateIDs": [
            "Activated_Standby"
          ],
          "angularSpeed": 240.0,
          "attackTrigger": "",
          "DGFCLAIDIFI": ""
        },
        {
          "$type": "IILHMBGONGM",
          "steerStateIDs": [
            "Warning"
          ],
          "angularSpeed": 150.0,
          "attackTrigger": "",
          "DGFCLAIDIFI": ""
        },
        {
          "$type": "IILHMBGONGM",
          "steerStateIDs": [
            "RockBullet_BS"
          ],
          "endNormalizedTime": 0.800000011920929,
          "angularSpeed": 360.0,
          "attackTrigger": "",
          "DGFCLAIDIFI": ""
        },
        {
          "$type": "IILHMBGONGM",
          "steerStateIDs": [
            "RockBullet_Loop_01",
            "RockBullet_Loop_02",
            "RockBullet_Loop_03"
          ],
          "endNormalizedTime": 0.20000000298023224,
          "angularSpeed": 90.0,
          "attackTrigger": "",
          "DGFCLAIDIFI": ""
        },
        {
          "$type": "IILHMBGONGM",
          "steerStateIDs": [
            "RockBullet_AS"
          ],
          "startNormalizedTime": 0.699999988079071,
          "angularSpeed": 240.0,
          "attackTrigger": "",
          "DGFCLAIDIFI": ""
        },
        {
          "$type": "IILHMBGONGM",
          "steerStateIDs": [
            "FlyHor_BS"
          ],
          "endNormalizedTime": 0.5,
          "angularSpeed": 360.0,
          "attackTrigger": "",
          "DGFCLAIDIFI": ""
        },
        {
          "$type": "IILHMBGONGM",
          "steerStateIDs": [
            "FlyHor_AS"
          ],
          "startNormalizedTime": 0.5,
          "angularSpeed": 180.0,
          "attackTrigger": "",
          "DGFCLAIDIFI": ""
        },
        {
          "$type": "IILHMBGONGM",
          "steerStateIDs": [
            "Activated_Earthquake"
          ],
          "angularSpeed": 120.0,
          "attackTrigger": "",
          "DGFCLAIDIFI": ""
        }
      ]
    }
  },
  {
    "Default": {
      "$type": "CBPBEHLOHKI",
      "abilityName": "Monster_Sylph_Rock_ExitBattle",
      "abilityMixins": [
        {
          "$type": "LEOGLBFIELL",
          "poseIDs": [
            901
          ],
          "modifierName": "ExitBattle"
        }
      ],
      "modifiers": {
        "ExitBattle": {
          "modifierName": "",
          "IPFJJJGABPL": 100.0,
          "onAdded": [
            {
              "$type": "BLCCGIPAOIP",
              "predicates": [
                {
                  "$type": "CNGGLKHONAA",
                  "key": "_SYLPH_POSE_TAG_",
                  "param3": 1.0
                }
              ],
              "PLLJBINMGJK": "ActivatedToNormal"
            }
          ],
          "onRemoved": [
            {
              "$type": "BOBCOJHOKKD",
              "param3": 0.0,
              "key": "_SYLPH_POSE_TAG_",
              "param2": 0.0,
              "repeatTimes": 0.0
            },
            {
              "$type": "IDNGFEEBPAM",
              "boolID": "DyingState"
            },
            {
              "$type": "IDNGFEEBPAM",
              "boolID": "ActivatedTag"
            },
            {
              "$type": "KJCHPDPBJHL",
              "boolID": "ActivatedTag"
            },
            {
              "$type": "FEJJABGNGHA",
              "param3": 0.0
            },
            {
              "$type": "KBODPNEEFGD",
              "modifierName": "UNIQUE_Sylph_Face"
            }
          ]
        }
      }
    }
  },
  {
    "Default": {
      "$type": "CBPBEHLOHKI",
      "abilityName": "Monster_Sylph_Rock_RockBullet",
      "abilityMixins": [
        {
          "$type": "EJDKAKLFCPA",
          "stateIDs": [
            "RockBullet_Loop_01",
            "RockBullet_Loop_02",
            "RockBullet_Loop_03"
          ],
          "modifierName": "RockBullet_Eff",
          "DGFCLAIDIFI": ""
        }
      ],
      "modifiers": {
        "RockBullet_Eff": {
          "modifierName": "",
          "IPFJJJGABPL": 100.0,
          "onAdded": [
            {
              "$type": "ANLOBBMKNIJ",
              "rotationDampTime": "Eff_Monster_Sylph_Rock_RockBullet_Body",
              "PPPDJGDDOGD": 1.0,
              "AJDILHJFNKE": -1.0
            }
          ]
        }
      },
      "onAbilityStart": [
        {
          "$type": "CAKDDHLKOAB",
          "bulletID": 42006201,
          "born": {
            "$type": "KLPANPDGHHA",
            "attachPointName": "BulletAttachPoint"
          }
        }
      ]
    }
  },
  {
    "Default": {
      "$type": "CBPBEHLOHKI",
      "abilityName": "Sylph_Rock_RockBullet_Hit",
      "modifiers": {
        "RockBullet_Eff": {
          "modifierName": "",
          "IPFJJJGABPL": 100.0,
          "onAdded": [
            {
              "$type": "ANLOBBMKNIJ",
              "rotationDampTime": "Eff_Monster_Sylph_Rock_RockBullet_Loop",
              "PPPDJGDDOGD": 1.0,
              "AJDILHJFNKE": -1.0
            }
          ]
        }
      },
      "onAdded": [
        {
          "$type": "PELJALPANCA",
          "modifierName": "RockBullet_Eff"
        }
      ],
      "onAbilityStart": [
        {
          "$type": "AIFPLABJNMA",
          "attackEvent": {
            "attackPattern": {
              "$type": "BELNOFAKNBA",
              "triggerType": "TriggerNoRepeat",
              "born": {
                "$type": "JGEBAJLEBMO",
                "offset": {
                  "KGEPIMHBMOL": 0.0,
                  "JEBHCGDPFEJ": 0.0,
                  "LPCHALMFFOD": 0.0
                }
              },
              "OAHPDLJIADP": 0.5
            },
            "attackInfo": {
              "attackTag": "",
              "attenuationTag": "",
              "attenuationGroup": "default",
              "attackProperty": {
                "actorGrassSubHurtDelta": 0.800000011920929,
                "actorWindSubHurtDelta": 0.0,
                "elementType": "Rock",
                "IPFJJJGABPL": 25.0,
                "strikeType": "Blunt",
                "enBreak": 50.0,
                "GLKMCMDJBIK": 0.0
              },
              "hitPattern": {
                "onHitEffectName": "none",
                "hitImpulseY": "",
                "hitImpulseType": "LV3",
                "hitHaltTimeScale": 0.009999999776482582
              },
              "canBeModifiedBy": "OriginOwner"
            }
          },
          "targetType": "Enemy"
        },
        {
          "$type": "KBFEIHEAMBM",
          "rotationDampTime": "Eff_Monster_Sylph_Rock_RockBullet_AS",
          "PPPDJGDDOGD": 1.0,
          "AJDILHJFNKE": -1.0
        }
      ]
    }
  },
  {
    "Default": {
      "$type": "CBPBEHLOHKI",
      "abilityName": "Monster_Sylph_Rock_FlyHor",
      "abilityMixins": [
        {
          "$type": "EKMHJKDLBJH",
          "stateIDs": [
            "FlyHor_Loop"
          ],
          "modifierName": "FlyHor_FollowBullet",
          "DGFCLAIDIFI": ""
        }
      ],
      "modifiers": {
        "FlyHor_FollowBullet": {
          "modifierName": "",
          "IPFJJJGABPL": 100.0,
          "onAdded": [
            {
              "$type": "GNAEJNBIFAC",
              "PLLJBINMGJK": "FlyHorEnd"
            },
            {
              "$type": "CAKDDHLKOAB",
              "bulletID": 42006203,
              "born": {
                "$type": "IAENDIPDFKD"
              },
              "lifeByOwnerIsAlive": true,
              "trackTarget": "Self"
            }
          ],
          "onRemoved": [
            {
              "$type": "NCFFNDHGCMH",
              "otherTargets": {
                "$type": "MEOIGEJCJLB",
                "configID": 42006203
              }
            }
          ]
        }
      }
    }
  },
  {
    "Default": {
      "$type": "CBPBEHLOHKI",
      "abilityName": "Monster_Sylph_Rock_FlyHor_RushMove",
      "abilityMixins": [
        {
          "$type": "EKMHJKDLBJH",
          "stateIDs": [
            "FlyHor_Loop"
          ],
          "modifierName": "FlyHor_EffHandler",
          "DGFCLAIDIFI": ""
        }
      ],
      "modifiers": {
        "FlyHor_EffHandler": {
          "modifierName": "",
          "IPFJJJGABPL": 100.0,
          "onRemoved": [
            {
              "$type": "PFKNEFGOHIH",
              "modifierName": "FlyHor_Eff"
            }
          ]
        },
        "FlyHor_Eff": {
          "modifierName": "",
          "IPFJJJGABPL": 100.0,
          "onAdded": [
            {
              "$type": "ANLOBBMKNIJ",
              "rotationDampTime": "Eff_Monster_Sylph_Rock_Fly",
              "PPPDJGDDOGD": 1.0,
              "AJDILHJFNKE": -1.0
            }
          ]
        }
      },
      "onAbilityStart": [
        {
          "$type": "INBCDALOHMP",
          "target": "SelfAttackTarget",
          "targetPredicates": [
            {
              "$type": "FMBJAJFLDIP",
              "logic": "LesserOrEqual",
              "param3": 8.0,
              "DDALGNLEHOD": ""
            }
          ],
          "successActions": [
            {
              "$type": "PAMDPDLLAPG",
              "target": "SelfAttackTarget",
              "toPos": {
                "$type": "JHEBKCMEMLN"
              }
            },
            {
              "$type": "BHPDPACKKNI",
              "target": "SelfAttackTarget",
              "born": {
                "$type": "IAENDIPDFKD",
                "offset": {
                  "KGEPIMHBMOL": 0.0,
                  "JEBHCGDPFEJ": 0.0,
                  "LPCHALMFFOD": 8.0
                }
              },
              "hitSceneType": "BlinkHitSceneTestByThreeSegments",
              "limitY": 2.5
            },
            {
              "$type": "PAGFCBCKEBH",
              "toPos": {
                "$type": "DNEKFAOHKBC"
              },
              "NKPCHMCNNOK": 1.0,
              "animatorStateIDs": [
                "FlyHor_01_Loop",
                "FlyHor_02_Loop"
              ],
              "overrideMoveCollider": "",
              "isInAir": true
            }
          ],
          "failActions": [
            {
              "$type": "BHPDPACKKNI",
              "born": {
                "$type": "IAENDIPDFKD",
                "offset": {
                  "KGEPIMHBMOL": 0.0,
                  "JEBHCGDPFEJ": 0.0,
                  "LPCHALMFFOD": 8.0
                }
              },
              "hitSceneType": "BlinkHitSceneTestByThreeSegments",
              "limitY": 2.5
            },
            {
              "$type": "PAGFCBCKEBH",
              "toPos": {
                "$type": "DNEKFAOHKBC"
              },
              "NKPCHMCNNOK": 1.0,
              "animatorStateIDs": [
                "FlyHor_01_Loop",
                "FlyHor_02_Loop"
              ],
              "overrideMoveCollider": "",
              "isInAir": true
            }
          ]
        },
        {
          "$type": "PELJALPANCA",
          "modifierName": "FlyHor_Eff"
        }
      ]
    }
  },
  {
    "Default": {
      "$type": "CBPBEHLOHKI",
      "abilityName": "Sylph_Rock_FlyHor_FollowBullet_Hit",
      "onAbilityStart": [
        {
          "$type": "AIFPLABJNMA",
          "attackEvent": {
            "attackPattern": {
              "$type": "BELNOFAKNBA",
              "triggerType": "TriggerNoRepeat",
              "born": {
                "$type": "JGEBAJLEBMO"
              },
              "OAHPDLJIADP": 1.0
            },
            "attackInfo": {
              "attackTag": "",
              "attenuationTag": "",
              "attenuationGroup": "default",
              "attackProperty": {
                "actorGrassSubHurtDelta": 1.0,
                "actorWindSubHurtDelta": 0.0,
                "elementType": "Rock",
                "IPFJJJGABPL": 50.0,
                "strikeType": "Blunt",
                "enBreak": 100.0,
                "GLKMCMDJBIK": 0.0
              },
              "hitPattern": {
                "onHitEffectName": "default",
                "hitImpulseY": "",
                "hitImpulseType": "LV4",
                "hitHaltTimeScale": 0.009999999776482582
              },
              "canBeModifiedBy": "OriginOwner"
            }
          },
          "targetType": "Enemy"
        },
        {
          "$type": "BLCCGIPAOIP",
          "target": "Owner",
          "PLLJBINMGJK": "FlyHorEnd"
        },
        {
          "$type": "NCFFNDHGCMH"
        }
      ]
    }
  },
  {
    "Default": {
      "$type": "CBPBEHLOHKI",
      "abilityName": "Monster_Sylph_Rock_FlyHigh",
      "modifiers": {
        "FlyHigh_Bullet": {
          "modifierName": "",
          "elementDurability": 0.20000000298023224,
          "IPFJJJGABPL": 100.0,
          "onAdded": [
            {
              "$type": "CAKDDHLKOAB",
              "bulletID": 42006202,
              "born": {
                "$type": "IAENDIPDFKD",
                "offset": {
                  "KGEPIMHBMOL": 0.0,
                  "JEBHCGDPFEJ": 4.0,
                  "LPCHALMFFOD": 0.0
                }
              },
              "lifeByOwnerIsAlive": true
            }
          ]
        }
      },
      "onAbilityStart": [
        {
          "$type": "PELJALPANCA",
          "modifierName": "FlyHigh_Bullet"
        }
      ]
    }
  },
  {
    "Default": {
      "$type": "CBPBEHLOHKI",
      "abilityName": "Sylph_Rock_RockBall_Hit",
      "modifiers": {
        "RockBall_Eff": {
          "modifierName": "",
          "IPFJJJGABPL": 100.0,
          "onAdded": [
            {
              "$type": "ANLOBBMKNIJ",
              "rotationDampTime": "Eff_Monster_Sylph_Rock_RockBall",
              "PPPDJGDDOGD": 1.0,
              "AJDILHJFNKE": -1.0
            }
          ]
        }
      },
      "onAdded": [
        {
          "$type": "PELJALPANCA",
          "modifierName": "RockBall_Eff"
        }
      ],
      "onAbilityStart": [
        {
          "$type": "AIFPLABJNMA",
          "attackEvent": {
            "attackPattern": {
              "$type": "BELNOFAKNBA",
              "triggerType": "TriggerNoRepeat",
              "born": {
                "$type": "JGEBAJLEBMO"
              },
              "OAHPDLJIADP": 1.0
            },
            "attackInfo": {
              "attackTag": "",
              "attenuationTag": "",
              "attenuationGroup": "default",
              "attackProperty": {
                "actorGrassSubHurtDelta": 1.0,
                "actorWindSubHurtDelta": 0.0,
                "elementType": "Rock",
                "IPFJJJGABPL": 25.0,
                "strikeType": "Blunt",
                "enBreak": 100.0,
                "GLKMCMDJBIK": 0.0
              },
              "hitPattern": {
                "onHitEffectName": "none",
                "hitImpulseY": "",
                "hitImpulseType": "LV4",
                "hitHaltTimeScale": 0.009999999776482582
              },
              "canBeModifiedBy": "OriginOwner"
            }
          },
          "targetType": "Enemy"
        },
        {
          "$type": "PFKNEFGOHIH",
          "modifierName": "RockBall_Eff"
        },
        {
          "$type": "NCFFNDHGCMH"
        }
      ],
      "onKill": [
        {
          "$type": "KBFEIHEAMBM",
          "rotationDampTime": "Eff_Monster_Sylph_Rock_RockBall_AS",
          "PPPDJGDDOGD": 1.0,
          "AJDILHJFNKE": -1.0
        }
      ]
    }
  },
  {
    "Default": {
      "$type": "CBPBEHLOHKI",
      "abilityName": "Monster_Sylph_Rock_Deathrattle",
      "abilityMixins": [
        {
          "$type": "EKMHJKDLBJH",
          "stateIDs": [
            "Deathrattle"
          ],
          "modifierName": "Deathrattle_Pos",
          "DGFCLAIDIFI": ""
        }
      ],
      "modifiers": {
        "Deathrattle_Pos": {
          "modifierName": "",
          "IPFJJJGABPL": 100.0,
          "onAdded": [
            {
              "$type": "KFCDMIMBBLD",
              "born": {
                "$type": "KLPANPDGHHA",
                "offset": {
                  "KGEPIMHBMOL": 0.0,
                  "JEBHCGDPFEJ": 0.0,
                  "LPCHALMFFOD": 0.0
                },
                "attachPointName": "RootNode"
              },
              "gadgetID": 42006206,
              "campID": 4001,
              "byServer": true
            }
          ],
          "onRemoved": [
            {
              "$type": "KBODPNEEFGD",
              "modifierName": "UNIQUE_Sylph_Limbo"
            },
            {
              "$type": "NCFFNDHGCMH"
            }
          ]
        }
      }
    }
  },
  {
    "Default": {
      "$type": "CBPBEHLOHKI",
      "abilityName": "Sylph_Rock_DeathPosAction",
      "modifiers": {
        "Deathrattle_Timer": {
          "modifierName": "",
          "elementDurability": 1.2000000476837158,
          "IPFJJJGABPL": 100.0,
          "onAdded": [
            {
              "$type": "KBFEIHEAMBM",
              "rotationDampTime": "Eff_Monster_Sylph_Rock_Deathrattle",
              "PPPDJGDDOGD": 1.0,
              "AJDILHJFNKE": -1.0
            }
          ],
          "onRemoved": [
            {
              "$type": "PELJALPANCA",
              "modifierName": "Deathrattle_Actions"
            }
          ]
        },
        "Deathrattle_Actions": {
          "modifierName": "",
          "elementDurability": 0.20000000298023224,
          "IPFJJJGABPL": 100.0,
          "onAdded": [
            {
              "$type": "AIFPLABJNMA",
              "attackEvent": {
                "attackPattern": {
                  "$type": "BELNOFAKNBA",
                  "triggerType": "TriggerNoRepeat",
                  "born": {
                    "$type": "KLPANPDGHHA",
                    "offset": {
                      "KGEPIMHBMOL": 0.0,
                      "JEBHCGDPFEJ": 0.0,
                      "LPCHALMFFOD": 0.0
                    },
                    "attachPointName": "RootNode"
                  },
                  "OAHPDLJIADP": 2.5
                },
                "attackInfo": {
                  "attackTag": "",
                  "attenuationTag": "",
                  "attenuationGroup": "default",
                  "attackProperty": {
                    "actorGrassSubHurtDelta": 1.0,
                    "actorWindSubHurtDelta": 0.0,
                    "elementType": "Rock",
                    "IPFJJJGABPL": 25.0,
                    "strikeType": "Blunt",
                    "enBreak": 100.0,
                    "GLKMCMDJBIK": 0.0
                  },
                  "hitPattern": {
                    "onHitEffectName": "default",
                    "hitImpulseY": "",
                    "hitImpulseType": "LV4",
                    "hitHaltTimeScale": 0.009999999776482582
                  }
                }
              },
              "targetType": "Enemy"
            }
          ]
        },
        "Deathrattle_LifeHandler": {
          "modifierName": "",
          "elementDurability": 5.0,
          "IPFJJJGABPL": 100.0,
          "onRemoved": [
            {
              "$type": "NCFFNDHGCMH"
            }
          ]
        }
      },
      "onAdded": [
        {
          "$type": "PELJALPANCA",
          "modifierName": "Deathrattle_Timer"
        },
        {
          "$type": "PELJALPANCA",
          "modifierName": "Deathrattle_LifeHandler"
        }
      ]
    }
  },
  {
    "Default": {
      "$type": "CBPBEHLOHKI",
      "abilityName": "Monster_Sylph_Rock_Activated_Earthquake",
      "onAbilityStart": [
        {
          "$type": "CAKDDHLKOAB",
          "bulletID": 42006204,
          "born": {
            "$type": "KLPANPDGHHA",
            "offset": {
              "KGEPIMHBMOL": 0.0,
              "JEBHCGDPFEJ": 0.0,
              "LPCHALMFFOD": 0.0
            },
            "attachPointName": "BulletAttachPoint"
          }
        }
      ]
    }
  },
  {
    "Default": {
      "$type": "CBPBEHLOHKI",
      "abilityName": "Sylph_Rock_Activated_EarthquakeBullet_Hit",
      "modifiers": {
        "EarthquakeBullet_Eff": {
          "modifierName": "",
          "IPFJJJGABPL": 100.0,
          "onAdded": [
            {
              "$type": "ANLOBBMKNIJ",
              "rotationDampTime": "Eff_Monster_Sylph_Rock_Activated_Earthquake_EnergyBullet",
              "PPPDJGDDOGD": 1.0,
              "AJDILHJFNKE": -1.0
            }
          ]
        }
      },
      "onAdded": [
        {
          "$type": "PELJALPANCA",
          "modifierName": "EarthquakeBullet_Eff"
        }
      ],
      "onAbilityStart": [
        {
          "$type": "AIFPLABJNMA",
          "attackEvent": {
            "attackPattern": {
              "$type": "GMDIMKKHACA",
              "triggerType": "TriggerNoRepeat",
              "born": {
                "$type": "IAENDIPDFKD"
              },
              "OAHPDLJIADP": 6.0
            },
            "attackInfo": {
              "attackTag": "",
              "attenuationTag": "",
              "attenuationGroup": "default",
              "attackProperty": {
                "actorGrassSubHurtDelta": 1.0,
                "actorWindSubHurtDelta": 0.0,
                "elementType": "Rock",
                "IPFJJJGABPL": 25.0,
                "enBreak": 100.0,
                "HMBONGBFIAP": 0.0,
                "GLKMCMDJBIK": 0.0
              },
              "hitPattern": {
                "onHitEffectName": "default",
                "hitImpulseY": "",
                "hitImpulseType": "LV4",
                "hitHaltTimeScale": 0.009999999776482582
              },
              "canBeModifiedBy": "OriginOwner"
            }
          },
          "targetType": "Enemy"
        },
        {
          "$type": "KBFEIHEAMBM",
          "rotationDampTime": "Eff_Monster_Sylph_Rock_Activated_Earthquake_Damage",
          "born": {
            "$type": "IAENDIPDFKD",
            "onGround": true,
            "direction": {
              "$type": "LEIHCELGBNN",
              "angleOffset": {
                "KGEPIMHBMOL": 0.0,
                "JEBHCGDPFEJ": 0.0,
                "LPCHALMFFOD": 0.0
              }
            },
            "alongGround": true
          },
          "PPPDJGDDOGD": 1.0,
          "AJDILHJFNKE": -1.0
        },
        {
          "$type": "NCFFNDHGCMH"
        }
      ]
    }
  },
  {
    "Default": {
      "$type": "CBPBEHLOHKI",
      "abilityName": "Monster_Sylph_Rock_Activated_Deathrattle",
      "abilityMixins": [
        {
          "$type": "EKMHJKDLBJH",
          "stateIDs": [
            "Activated_Deathrattle"
          ],
          "modifierName": "Activated_Deathrattle_Pos",
          "DGFCLAIDIFI": ""
        }
      ],
      "modifiers": {
        "Activated_Deathrattle_Pos": {
          "modifierName": "",
          "IPFJJJGABPL": 100.0,
          "onAdded": [
            {
              "$type": "KFCDMIMBBLD",
              "predicates": [
                {
                  "$type": "CNGGLKHONAA",
                  "key": "_CHANNELLERSLAB_SYLPH_ELITETAG_",
                  "param3": 0.0,
                  "compareType": "NoneOrEqual"
                }
              ],
              "born": {
                "$type": "KLPANPDGHHA",
                "offset": {
                  "KGEPIMHBMOL": 0.0,
                  "JEBHCGDPFEJ": 0.0,
                  "LPCHALMFFOD": 0.0
                },
                "attachPointName": "RootNode"
              },
              "gadgetID": 42006205,
              "campID": 4001,
              "byServer": true
            },
            {
              "$type": "KFCDMIMBBLD",
              "predicates": [
                {
                  "$type": "CNGGLKHONAA",
                  "key": "_CHANNELLERSLAB_SYLPH_ELITETAG_",
                  "param3": 1.0
                }
              ],
              "born": {
                "$type": "KLPANPDGHHA",
                "offset": {
                  "KGEPIMHBMOL": 0.0,
                  "JEBHCGDPFEJ": 0.0,
                  "LPCHALMFFOD": 0.0
                },
                "attachPointName": "RootNode"
              },
              "gadgetID": 42006207,
              "campID": 4001,
              "byServer": true
            }
          ],
          "onRemoved": [
            {
              "$type": "KBODPNEEFGD",
              "modifierName": "UNIQUE_Sylph_Limbo"
            },
            {
              "$type": "NCFFNDHGCMH"
            }
          ]
        }
      }
    }
  },
  {
    "Default": {
      "$type": "CBPBEHLOHKI",
      "abilityName": "Sylph_Rock_Activated_DeathPosAction",
      "modifiers": {
        "Activated_Deathrattle_Timer": {
          "modifierName": "",
          "elementDurability": 1.7999999523162842,
          "IPFJJJGABPL": 100.0,
          "onAdded": [
            {
              "$type": "KBFEIHEAMBM",
              "rotationDampTime": "Eff_Monster_Sylph_Rock_Activated_Deathrattle",
              "PPPDJGDDOGD": 1.0,
              "AJDILHJFNKE": -1.0
            }
          ],
          "onRemoved": [
            {
              "$type": "PELJALPANCA",
              "modifierName": "Activated_Deathrattle_Actions"
            }
          ]
        },
        "Activated_Deathrattle_Actions": {
          "modifierName": "",
          "elementDurability": 0.20000000298023224,
          "IPFJJJGABPL": 100.0,
          "onAdded": [
            {
              "$type": "AIFPLABJNMA",
              "attackEvent": {
                "attackPattern": {
                  "$type": "BELNOFAKNBA",
                  "triggerType": "TriggerNoRepeat",
                  "born": {
                    "$type": "KLPANPDGHHA",
                    "offset": {
                      "KGEPIMHBMOL": 0.0,
                      "JEBHCGDPFEJ": 0.0,
                      "LPCHALMFFOD": 0.0
                    },
                    "attachPointName": "RootNode"
                  },
                  "OAHPDLJIADP": 7.0
                },
                "attackInfo": {
                  "attackTag": "",
                  "attenuationTag": "",
                  "attenuationGroup": "default",
                  "attackProperty": {
                    "actorGrassSubHurtDelta": 1.2000000476837158,
                    "actorWindSubHurtDelta": 0.0,
                    "elementType": "Rock",
                    "IPFJJJGABPL": 25.0,
                    "strikeType": "Blunt",
                    "enBreak": 150.0,
                    "GLKMCMDJBIK": 0.0
                  },
                  "hitPattern": {
                    "onHitEffectName": "default",
                    "hitImpulseY": "",
                    "hitImpulseType": "LV5",
                    "hitHaltTimeScale": 0.009999999776482582
                  }
                }
              },
              "targetType": "Enemy"
            }
          ]
        },
        "Activated_Deathrattle_LifeHandler": {
          "modifierName": "",
          "elementDurability": 5.0,
          "IPFJJJGABPL": 100.0,
          "onRemoved": [
            {
              "$type": "NCFFNDHGCMH"
            }
          ]
        }
      },
      "onAdded": [
        {
          "$type": "PELJALPANCA",
          "modifierName": "Activated_Deathrattle_Timer"
        },
        {
          "$type": "PELJALPANCA",
          "modifierName": "Activated_Deathrattle_LifeHandler"
        }
      ]
    }
  },
  {
    "Default": {
      "$type": "CBPBEHLOHKI",
      "abilityName": "Sylph_Rock_Elite_Activated_DeathPosAction",
      "abilitySpecials": {
        "DeathrattleDamage": 0.0,
        "DeathrattleChargeUp": 0.0
      },
      "modifiers": {
        "Activated_Deathrattle_Timer": {
          "modifierName": "",
          "elementDurability": 1.7999999523162842,
          "IPFJJJGABPL": 100.0,
          "onAdded": [
            {
              "$type": "KBFEIHEAMBM",
              "rotationDampTime": "Eff_Monster_Sylph_Rock_Activated_Deathrattle_Enhanced",
              "PPPDJGDDOGD": 1.0,
              "AJDILHJFNKE": -1.0
            }
          ],
          "onRemoved": [
            {
              "$type": "PELJALPANCA",
              "modifierName": "Activated_Deathrattle_Actions"
            }
          ]
        },
        "Activated_Deathrattle_Actions": {
          "modifierName": "",
          "elementDurability": 0.20000000298023224,
          "IPFJJJGABPL": 100.0,
          "onAdded": [
            {
              "$type": "AIFPLABJNMA",
              "attackEvent": {
                "attackPattern": {
                  "$type": "BELNOFAKNBA",
                  "triggerType": "TriggerNoRepeat",
                  "born": {
                    "$type": "KLPANPDGHHA",
                    "offset": {
                      "KGEPIMHBMOL": 0.0,
                      "JEBHCGDPFEJ": 0.0,
                      "LPCHALMFFOD": 0.0
                    },
                    "attachPointName": "RootNode"
                  },
                  "OAHPDLJIADP": 10.0
                },
                "attackInfo": {
                  "attackTag": "",
                  "attenuationTag": "",
                  "attenuationGroup": "default",
                  "attackProperty": {
                    "actorGrassSubHurtDelta": [
                      "DeathrattleDamage",
                      0.800000011920929,
                      "MUL"
                    ],
                    "actorWindSubHurtDelta": 0.0,
                    "elementType": "Rock",
                    "IPFJJJGABPL": 25.0,
                    "strikeType": "Blunt",
                    "enBreak": 150.0,
                    "GLKMCMDJBIK": 0.0
                  },
                  "hitPattern": {
                    "onHitEffectName": "default",
                    "hitImpulseY": "",
                    "hitImpulseType": "LV5",
                    "hitHaltTimeScale": 0.009999999776482582
                  }
                }
              },
              "targetType": "Enemy"
            },
            {
              "$type": "INBCDALOHMP",
              "otherTargets": {
                "$type": "IJOFJOGLDHE",
                "shapeName": "CircleR50",
                "campTargetType": "All",
                "doOffStage": 1.0
              },
              "targetPredicates": [
                {
                  "$type": "NIMAPECDNKD",
                  "entityTypes": [
                    "Monster"
                  ]
                },
                {
                  "$type": "CNGGLKHONAA",
                  "key": "_CHANNELLERSLAB_SYLPH_ELITETAG_",
                  "param3": 1.0
                },
                {
                  "$type": "CNGGLKHONAA",
                  "target": "Self",
                  "key": "_CHANNELLERSLAB_SYLPH_DEATHRATTLECHARGE_GADGETTAG_",
                  "param3": 1.0
                }
              ],
              "successActions": [
                {
                  "$type": "PELJALPANCA",
                  "target": "Target",
                  "modifierName": "Activated_Deathrattle_DeathrattleChargeUp"
                }
              ]
            }
          ]
        },
        "Activated_Deathrattle_DeathrattleChargeUp": {
          "modifierName": "",
          "elementDurability": 0.10000000149011612,
          "IPFJJJGABPL": 100.0,
          "onAdded": [
            {
              "$type": "PMJJNECJCLE",
              "param3": "DeathrattleChargeUp",
              "param2": 0.0,
              "repeatTimes": 0.0
            },
            {
              "$type": "KBFEIHEAMBM",
              "rotationDampTime": "Eff_Monster_Common_AddChargeValue",
              "PPPDJGDDOGD": 1.0,
              "AJDILHJFNKE": -1.0
            }
          ]
        },
        "Activated_Deathrattle_LifeHandler": {
          "modifierName": "",
          "elementDurability": 5.0,
          "IPFJJJGABPL": 100.0,
          "onRemoved": [
            {
              "$type": "NCFFNDHGCMH"
            }
          ]
        }
      },
      "onAdded": [
        {
          "$type": "PELJALPANCA",
          "modifierName": "Activated_Deathrattle_Timer"
        },
        {
          "$type": "PELJALPANCA",
          "modifierName": "Activated_Deathrattle_LifeHandler"
        },
        {
          "$type": "BOBCOJHOKKD",
          "predicates": [
            {
              "$type": "CNGGLKHONAA",
              "target": "Owner",
              "key": "_CHANNELLERSLAB_SYLPH_DEATHRATTLECHARGE_",
              "param3": 1.0
            }
          ],
          "param3": 1.0,
          "key": "_CHANNELLERSLAB_SYLPH_DEATHRATTLECHARGE_GADGETTAG_",
          "param2": 0.0,
          "repeatTimes": 0.0
        }
      ]
    }
  }
]