{
  "CCKPLBIEBAK": {
    "1803556608": [
      16956698694594931001,
      13980548425245093228
    ],
    "1803556610": [
      16956698694594931001,
      1851152350603842771
    ],
    "1803556611": [
      16956698694594931001,
      1851152350603842771,
      13980548425245093228
    ],
    "1803556614": [
      16956698694594931001,
      1851152350603842771
    ],
    "1803556629": [
      13980548425245093228
    ],
    "1803556630": [
      13980548425245093228
    ],
    "1803556631": [
      16956698694594931001,
      13980548425245093228
    ],
    "1803556642": [
      16956698694594931001,
      1851152350603842771
    ]
  }
}