{
  "HMJKBKBADFL": [
    {
      "APADDJJDABP": [
        109063884,
        109063935,
        109081133,
        109064018,
        109064089,
        109064090,
        109064097,
        109064098,
        109065001,
        109065002,
        109064186,
        109064218,
        109064237,
        109064669,
        109064265,
        109064266,
        109064271,
        109064675,
        109064680,
        109064681,
        109079805,
        109064035,
        109081586,
        109081587,
        109064053,
        109064147,
        109064635,
        109064663,
        109064664,
        109064665,
        109064676,
        109064678,
        109064679,
        109081134,
        109081135
      ]
    }
  ]
}