{
  "LHLJMFFCJHB": [
    201508145,
    201508143,
    201508141,
    201508140,
    201508194,
    201508193,
    201508192,
    201508191,
    201508189,
    201508188,
    201508187,
    201508186,
    201508185,
    201508184,
    201508180,
    201508179,
    201508178,
    201508177,
    201508176,
    201508175,
    201508174,
    201508173,
    201508172,
    201508171,
    201508170,
    201508169,
    201508168,
    201508167,
    201508166,
    201508165,
    201508164,
    201508163,
    201508162,
    201508161,
    201508160,
    201508159,
    201508158,
    201508157,
    201508156,
    201508155,
    201508154,
    201508153,
    201508152,
    201508151,
    201508150,
    201508149,
    201508148,
    201508147,
    201508146,
    201508139,
    201508138,
    201508137,
    201508136,
    201508133,
    201508132,
    201508131,
    201508130,
    201508129,
    201508128,
    201508127,
    201508126,
    201508125,
    201508124,
    201508123,
    201508122,
    201508121,
    201508120,
    201508119,
    201508118,
    201508117,
    201508116,
    201508115,
    201508114,
    201508113,
    201508112,
    201508110,
    201508109,
    201508108,
    201508107,
    201508106,
    201508105,
    201508104,
    201508103,
    201508102,
    201508101,
    201508100,
    201508099,
    201508098,
    201508097,
    201508096,
    201508095,
    201508094,
    201508093,
    201508092,
    201508091,
    201508090,
    201508089,
    201508088,
    201508087,
    201508086,
    201508085,
    201508084,
    201508083,
    201508082,
    201508081,
    201508080,
    201509746,
    201509745,
    201509744,
    201509743,
    201509742,
    201509741,
    201509740,
    201509739,
    201508370,
    201508369,
    201508368,
    201508367,
    201508366,
    201508365,
    201508364,
    201508363,
    201508362,
    201508361,
    201508360,
    201508359,
    201508358,
    201508357,
    201508356,
    201508355,
    201508354,
    201508353,
    201508352,
    201508351,
    201508350,
    201508349,
    201508348,
    201508347,
    201508346,
    201508345,
    201508344,
    201508343,
    201508342,
    201508341,
    201508340,
    201508339,
    201508338,
    201508337,
    201508336,
    201508335,
    201508334,
    201508333,
    201508332,
    201508331,
    201508330,
    201508329,
    201508328,
    201508327,
    201508326,
    201508325,
    201508324,
    201508323,
    201508322,
    201508321,
    201508320,
    201508319,
    201508318,
    201508317,
    201508316,
    201508315,
    201508314,
    201508313,
    201508312,
    201508311,
    201508310,
    201508309,
    201508308,
    201508307,
    201508306,
    201508305,
    201508304,
    201508303,
    201508302,
    201508301,
    201508300,
    201508299,
    201508298,
    201508297,
    201508296,
    201508295,
    201508294,
    201508293,
    201508292,
    201508291,
    201508290,
    201508289,
    201508288,
    201508287,
    201508286,
    201508285,
    201508284,
    201508283,
    201508282,
    201508281,
    201508280,
    201508279,
    201508278,
    201508277,
    201508276,
    201508275,
    201508274,
    201508273,
    201508272,
    201508271,
    201508270,
    201508269,
    201508268,
    201508267,
    201508266,
    201508265,
    201508264,
    201508263,
    201508262,
    201508261,
    201508260,
    201508259,
    201508258,
    201508257,
    201508256,
    201508255,
    201508254,
    201508253,
    201508252,
    201508251,
    201508250,
    201508249,
    201508248,
    201508247,
    201508246,
    201508245,
    201508244,
    201508243,
    201508242,
    201508241,
    201508240,
    201508239,
    201508238,
    201508237,
    201508236,
    201508235,
    201508234,
    201508233,
    201508231,
    201508230,
    201508229,
    201508228,
    201508227,
    201508226,
    201508225,
    201508224,
    201508223,
    201508222,
    201508221,
    201508220,
    201508219,
    201508218,
    201508217,
    201508215,
    201508214,
    201508213,
    201508212,
    201508211,
    201508210,
    201508209,
    201508206,
    201508205,
    201508204,
    201508203,
    201508202,
    201508201,
    201508200,
    201508199,
    201508198,
    201508197,
    201508196,
    201508195,
    201508190,
    201508183,
    201508182,
    201508181
  ]
}