{
  "LHLJMFFCJHB": [
    331350294,
    331350295,
    331350297,
    331409407,
    331413489,
    331413490,
    331413491,
    331413496,
    331413497,
    331413498,
    331413499,
    331413500,
    331413501,
    331413502,
    331413503,
    331413504,
    331413505,
    331440312,
    331440315
  ]
}