{
  "CCKPLBIEBAK": {
    "1807755991": [
      14826231731234765582
    ],
    "1807755992": [
      324548672921762175,
      14826231731234765582
    ],
    "1807755993": [
      14826231731234765582
    ],
    "1807755994": [
      324548672921762175,
      14826231731234765582
    ],
    "1807756072": [
      324548672921762175
    ],
    "1807756108": [
      324548672921762175
    ],
    "1807756109": [
      324548672921762175
    ],
    "1807756111": [
      324548672921762175
    ],
    "1807756112": [
      14826231731234765582
    ],
    "1807756113": [
      14826231731234765582
    ],
    "1807756114": [
      14826231731234765582
    ],
    "1807756115": [
      14826231731234765582
    ],
    "1807756116": [
      324548672921762175
    ],
    "1807756117": [
      324548672921762175
    ],
    "1807756118": [
      14826231731234765582
    ],
    "1807756119": [
      324548672921762175
    ],
    "1807756121": [
      14826231731234765582
    ],
    "1807756123": [
      14826231731234765582
    ],
    "1807756125": [
      324548672921762175
    ],
    "1807756126": [
      14826231731234765582
    ],
    "1807756128": [
      14826231731234765582
    ],
    "1807756130": [
      324548672921762175
    ],
    "1807756131": [
      14826231731234765582
    ],
    "1807756132": [
      14826231731234765582
    ],
    "1807756133": [
      324548672921762175
    ],
    "1807756135": [
      324548672921762175
    ],
    "1807756141": [
      324548672921762175
    ],
    "1807756170": [
      14826231731234765582
    ],
    "1807756172": [
      14826231731234765582
    ],
    "1807756173": [
      14826231731234765582
    ],
    "1807756174": [
      324548672921762175
    ],
    "1807756175": [
      324548672921762175
    ],
    "1807756176": [
      324548672921762175
    ],
    "1807756182": [
      14826231731234765582
    ],
    "1807756183": [
      324548672921762175
    ],
    "1807756184": [
      324548672921762175
    ],
    "1807756188": [
      14826231731234765582
    ],
    "1807756190": [
      14826231731234765582
    ],
    "1807756193": [
      324548672921762175
    ],
    "1807756195": [
      324548672921762175
    ],
    "1807756208": [
      324548672921762175
    ],
    "1807756221": [
      14826231731234765582
    ],
    "1807756633": [
      324548672921762175
    ],
    "1807757032": [
      324548672921762175
    ],
    "1807757491": [
      324548672921762175
    ],
    "1807757652": [
      14826231731234765582
    ],
    "1807757046": [
      324548672921762175
    ],
    "1807757118": [
      324548672921762175
    ],
    "1807757119": [
      324548672921762175
    ],
    "1807757271": [
      324548672921762175
    ],
    "1807757272": [
      324548672921762175
    ],
    "1807757273": [
      324548672921762175
    ],
    "1807757274": [
      324548672921762175
    ],
    "1807757492": [
      324548672921762175
    ],
    "1807757493": [
      324548672921762175
    ],
    "1807757496": [
      324548672921762175
    ],
    "1807757497": [
      324548672921762175
    ],
    "1807757563": [
      324548672921762175
    ],
    "1807757564": [
      324548672921762175
    ],
    "1807757073": [
      14826231731234765582
    ],
    "1807757673": [
      14826231731234765582
    ],
    "1807757674": [
      14826231731234765582
    ],
    "1807757237": [
      12439913428181024704,
      15635627134132393276,
      12128187570613427497
    ],
    "1807757183": [
      12439913428181024704,
      15635627134132393276,
      1608888540721408667
    ],
    "1807757182": [
      15635627134132393276
    ],
    "1807757165": [
      12439913428181024704,
      15635627134132393276,
      6406980373138937305
    ],
    "1807757164": [
      12439913428181024704,
      12128187570613427497
    ],
    "1807757160": [
      15635627134132393276,
      16142187664020559202,
      1608888540721408667
    ],
    "1807757084": [
      14826231731234765582
    ],
    "1807757072": [
      14826231731234765582
    ],
    "1807757071": [
      14826231731234765582
    ],
    "1807756964": [
      16142187664020559202,
      1608888540721408667,
      1903957618727548776
    ],
    "1807756963": [
      16142187664020559202,
      1608888540721408667,
      1903957618727548776
    ],
    "1807756920": [
      14826231731234765582
    ],
    "1807756919": [
      14826231731234765582
    ],
    "1807756918": [
      9912173944432221207,
      14826231731234765582
    ],
    "1807756917": [
      9912173944432221207
    ],
    "1807756916": [
      14826231731234765582
    ],
    "1807756915": [
      17414571701541835892,
      9912173944432221207
    ],
    "1807756914": [
      15635627134132393276,
      16142187664020559202,
      1608888540721408667,
      1903957618727548776
    ],
    "1807756913": [
      12439913428181024704,
      15635627134132393276,
      1608888540721408667
    ],
    "1807756912": [
      9912173944432221207,
      14826231731234765582
    ],
    "1807756911": [
      14826231731234765582
    ],
    "1807756910": [
      14826231731234765582
    ],
    "1807756909": [
      17414571701541835892,
      9912173944432221207
    ],
    "1807756908": [
      14826231731234765582
    ],
    "1807756907": [
      9912173944432221207
    ],
    "1807756906": [
      17414571701541835892,
      9912173944432221207
    ],
    "1807756905": [
      17414571701541835892,
      9912173944432221207
    ],
    "1807756904": [
      12439913428181024704,
      6406980373138937305,
      1608888540721408667
    ],
    "1807756903": [
      14826231731234765582
    ],
    "1807756902": [
      17414571701541835892,
      9912173944432221207
    ],
    "1807756901": [
      17414571701541835892,
      1608888540721408667,
      1903957618727548776,
      9912173944432221207
    ],
    "1807756900": [
      9912173944432221207
    ],
    "1807756899": [
      9912173944432221207
    ],
    "1807756898": [
      1608888540721408667,
      9912173944432221207
    ],
    "1807756897": [
      9912173944432221207,
      14826231731234765582
    ],
    "1807756896": [
      12439913428181024704,
      6406980373138937305,
      1608888540721408667,
      1903957618727548776
    ],
    "1807756895": [
      9912173944432221207
    ],
    "1807756894": [
      17414571701541835892,
      16142187664020559202,
      1903957618727548776,
      9912173944432221207
    ],
    "1807756893": [
      9912173944432221207,
      14826231731234765582
    ],
    "1807756892": [
      9912173944432221207,
      14826231731234765582
    ],
    "1807756891": [
      17414571701541835892,
      1608888540721408667,
      1903957618727548776,
      9912173944432221207
    ],
    "1807756890": [
      17414571701541835892,
      1608888540721408667,
      1903957618727548776,
      9912173944432221207
    ],
    "1807756889": [
      17414571701541835892,
      1903957618727548776,
      9912173944432221207
    ],
    "1807756888": [
      14826231731234765582
    ],
    "1807756887": [
      1903957618727548776,
      16142187664020559202,
      15635627134132393276,
      1608888540721408667
    ],
    "1807756886": [
      9912173944432221207
    ],
    "1807756885": [
      1608888540721408667,
      1903957618727548776,
      9912173944432221207
    ],
    "1807756884": [
      12439913428181024704,
      1608888540721408667,
      9912173944432221207
    ],
    "1807756883": [
      1608888540721408667,
      9912173944432221207
    ],
    "1807756882": [
      9912173944432221207,
      14826231731234765582
    ],
    "1807756881": [
      14826231731234765582
    ],
    "1807756880": [
      9912173944432221207,
      14826231731234765582
    ],
    "1807756879": [
      1608888540721408667,
      9912173944432221207,
      12439913428181024704,
      6406980373138937305
    ],
    "1807756878": [
      17414571701541835892,
      1608888540721408667,
      9912173944432221207
    ],
    "1807756877": [
      9912173944432221207
    ],
    "1807756876": [
      9912173944432221207,
      14826231731234765582
    ],
    "1807756875": [
      12439913428181024704,
      15635627134132393276,
      1608888540721408667
    ],
    "1807756874": [
      17414571701541835892,
      9912173944432221207
    ],
    "1807756873": [
      17414571701541835892,
      9912173944432221207
    ],
    "1807756872": [
      14826231731234765582
    ],
    "1807756871": [
      9912173944432221207,
      1608888540721408667,
      12439913428181024704,
      6406980373138937305
    ],
    "1807756870": [
      9912173944432221207,
      14826231731234765582
    ],
    "1807756869": [
      17414571701541835892,
      9912173944432221207
    ],
    "1807756868": [
      9912173944432221207
    ],
    "1807756867": [
      1608888540721408667,
      9912173944432221207
    ],
    "1807756866": [
      9912173944432221207,
      14826231731234765582
    ],
    "1807756865": [
      14826231731234765582
    ],
    "1807756864": [
      17414571701541835892,
      1608888540721408667,
      1903957618727548776,
      9912173944432221207
    ],
    "1807756863": [
      17414571701541835892,
      9912173944432221207
    ],
    "1807756862": [
      9912173944432221207
    ],
    "1807756861": [
      16142187664020559202,
      6406980373138937305,
      1903957618727548776
    ],
    "1807756860": [
      9912173944432221207
    ],
    "1807756859": [
      9912173944432221207,
      14826231731234765582
    ],
    "1807756858": [
      12439913428181024704,
      15635627134132393276,
      1608888540721408667
    ],
    "1807756857": [
      17414571701541835892,
      16142187664020559202,
      1903957618727548776,
      9912173944432221207
    ],
    "1807756855": [
      14826231731234765582
    ],
    "1807756854": [
      14826231731234765582
    ],
    "1807756853": [
      14826231731234765582
    ],
    "1807756852": [
      14826231731234765582
    ],
    "1807756851": [
      14826231731234765582
    ],
    "1807756850": [
      9912173944432221207,
      14826231731234765582
    ],
    "1807756849": [
      9912173944432221207,
      14826231731234765582
    ],
    "1807756848": [
      9912173944432221207
    ],
    "1807756847": [
      17414571701541835892,
      9912173944432221207
    ],
    "1807756846": [
      17414571701541835892,
      9912173944432221207
    ],
    "1807756845": [
      9912173944432221207
    ],
    "1807756844": [
      17414571701541835892,
      1608888540721408667,
      9912173944432221207
    ],
    "1807756843": [
      17414571701541835892,
      1608888540721408667,
      9912173944432221207
    ],
    "1807756842": [
      9912173944432221207
    ],
    "1807756841": [
      9912173944432221207
    ],
    "1807756840": [
      9912173944432221207
    ],
    "1807756839": [
      9912173944432221207
    ],
    "1807756838": [
      9912173944432221207
    ],
    "1807756837": [
      9912173944432221207
    ],
    "1807756836": [
      17414571701541835892,
      9912173944432221207
    ],
    "1807756835": [
      17414571701541835892,
      1608888540721408667,
      1903957618727548776,
      9912173944432221207
    ],
    "1807756834": [
      1608888540721408667,
      9912173944432221207
    ],
    "1807756833": [
      17414571701541835892,
      9912173944432221207
    ],
    "1807756832": [
      17414571701541835892,
      9912173944432221207
    ],
    "1807756831": [
      1608888540721408667,
      9912173944432221207
    ],
    "1807756830": [
      1608888540721408667,
      9912173944432221207
    ],
    "1807756829": [
      15635627134132393276,
      16142187664020559202,
      6406980373138937305,
      1903957618727548776
    ],
    "1807756828": [
      15635627134132393276,
      16142187664020559202,
      1903957618727548776
    ],
    "1807756827": [
      17414571701541835892,
      1608888540721408667,
      1903957618727548776,
      9912173944432221207
    ],
    "1807756826": [
      14826231731234765582
    ],
    "1807756825": [
      1608888540721408667,
      9912173944432221207
    ],
    "1807756824": [
      1608888540721408667,
      9912173944432221207
    ],
    "1807756823": [
      1608888540721408667,
      9912173944432221207
    ],
    "1807756822": [
      12439913428181024704,
      6406980373138937305,
      1608888540721408667
    ],
    "1807756821": [
      17414571701541835892,
      1608888540721408667,
      9912173944432221207
    ],
    "1807756820": [
      17414571701541835892,
      1608888540721408667,
      1903957618727548776,
      9912173944432221207
    ],
    "1807756819": [
      14826231731234765582
    ],
    "1807756818": [
      9912173944432221207
    ],
    "1807756817": [
      9912173944432221207,
      14826231731234765582
    ],
    "1807756816": [
      1903957618727548776,
      6406980373138937305,
      16142187664020559202,
      12439913428181024704
    ],
    "1807756815": [
      9912173944432221207,
      14826231731234765582
    ],
    "1807756814": [
      14826231731234765582
    ],
    "1807756813": [
      1903957618727548776,
      6406980373138937305,
      12439913428181024704,
      17414571701541835892
    ],
    "1807756812": [
      9912173944432221207,
      14826231731234765582
    ],
    "1807756811": [
      17414571701541835892,
      9912173944432221207
    ],
    "1807756810": [
      12439913428181024704,
      6406980373138937305,
      1608888540721408667,
      9912173944432221207
    ],
    "1807756809": [
      12439913428181024704,
      1608888540721408667
    ],
    "1807756808": [
      9912173944432221207
    ],
    "1807756807": [
      14826231731234765582
    ],
    "1807756806": [
      14826231731234765582
    ],
    "1807756805": [
      1608888540721408667,
      9912173944432221207
    ],
    "1807756804": [
      9912173944432221207
    ],
    "1807756803": [
      17414571701541835892,
      9912173944432221207
    ],
    "1807756802": [
      1608888540721408667,
      9912173944432221207
    ],
    "1807756801": [
      9912173944432221207,
      14826231731234765582
    ],
    "1807756800": [
      12439913428181024704,
      1608888540721408667,
      9912173944432221207
    ],
    "1807756799": [
      12439913428181024704,
      6406980373138937305,
      1608888540721408667
    ],
    "1807756798": [
      9912173944432221207
    ],
    "1807756797": [
      14826231731234765582
    ],
    "1807756796": [
      15635627134132393276,
      16142187664020559202,
      6406980373138937305,
      1903957618727548776
    ],
    "1807756795": [
      9912173944432221207,
      14826231731234765582
    ],
    "1807756794": [
      9912173944432221207,
      14826231731234765582
    ],
    "1807756793": [
      12439913428181024704,
      6406980373138937305,
      1608888540721408667,
      9912173944432221207
    ],
    "1807756792": [
      17414571701541835892,
      9912173944432221207
    ],
    "1807756791": [
      9912173944432221207
    ],
    "1807756790": [
      9912173944432221207
    ],
    "1807756789": [
      9912173944432221207
    ],
    "1807756788": [
      12439913428181024704,
      6406980373138937305,
      1608888540721408667
    ],
    "1807756787": [
      16142187664020559202,
      1608888540721408667,
      1903957618727548776
    ],
    "1807756786": [
      14826231731234765582
    ],
    "1807756495": [
      9912173944432221207,
      14826231731234765582
    ],
    "1807756315": [
      12439913428181024704,
      15635627134132393276,
      12128187570613427497
    ],
    "1807756220": [
      14826231731234765582
    ],
    "1807756200": [
      14826231731234765582
    ],
    "1807756185": [
      14826231731234765582
    ],
    "1807757349": [
      12128187570613427497
    ],
    "1807757244": [
      12439913428181024704
    ],
    "1807757243": [
      12439913428181024704,
      12128187570613427497
    ],
    "1807757186": [
      12439913428181024704,
      15635627134132393276,
      6406980373138937305
    ],
    "1807757178": [
      15635627134132393276,
      12128187570613427497
    ],
    "1807757175": [
      12128187570613427497
    ],
    "1807757174": [
      12128187570613427497
    ],
    "1807757172": [
      12128187570613427497
    ],
    "1807757171": [
      12439913428181024704,
      6406980373138937305
    ],
    "1807757170": [
      12439913428181024704,
      12128187570613427497
    ],
    "1807756936": [
      15635627134132393276
    ],
    "1807756563": [
      12439913428181024704,
      15635627134132393276,
      12128187570613427497
    ],
    "1807756353": [
      12128187570613427497
    ],
    "1807756313": [
      15635627134132393276,
      12128187570613427497
    ],
    "1807756106": [
      12128187570613427497
    ],
    "1807756105": [
      12439913428181024704,
      15635627134132393276
    ],
    "1807756103": [
      12439913428181024704,
      12128187570613427497
    ],
    "1807756102": [
      12439913428181024704,
      15635627134132393276,
      12128187570613427497
    ],
    "1807756101": [
      12439913428181024704,
      12128187570613427497
    ],
    "1807756082": [
      12128187570613427497
    ],
    "1807756081": [
      12128187570613427497
    ],
    "1807756075": [
      15635627134132393276,
      6406980373138937305
    ],
    "1807756074": [
      12439913428181024704,
      6406980373138937305
    ],
    "1807756035": [
      12439913428181024704,
      15635627134132393276,
      12128187570613427497
    ],
    "1807755997": [
      12439913428181024704,
      12128187570613427497,
      6406980373138937305
    ],
    "1807757301": [
      12439913428181024704
    ],
    "1807757300": [
      12439913428181024704
    ],
    "1807757298": [
      12128187570613427497
    ],
    "1807757232": [
      15635627134132393276
    ],
    "1807757230": [
      15635627134132393276
    ],
    "1807757093": [
      12439913428181024704
    ]
  }
}