{
  "IOKFLCPKINN": {
    "201393871": 2147483648,
    "201393962": 2147483660,
    "201393994": 2147483648,
    "201393995": 2147483648,
    "201394443": 3221225472,
    "201409969": 4177526783,
    "201506608": 4294967295,
    "201506609": 4294967295,
    "201386553": 4294967295,
    "201387060": 4294967295,
    "201387084": 4177526783,
    "201396857": 4294967295,
    "201398420": 4294967295,
    "201398898": 4294967295,
    "201398912": 4294967295,
    "201398915": 4294967295,
    "201398941": 4294967295,
    "201398942": 4294967295,
    "201398948": 4294967295,
    "201399185": 4294967295,
    "201399187": 4294967295,
    "201399284": 4294967295,
    "201399285": 4294967295,
    "201399602": 4294967295,
    "201399607": 4294967295,
    "201401590": 4294967295,
    "201402122": 4294967295,
    "201402572": 4294967295,
    "201402573": 4294967295,
    "201402574": 4294967295,
    "201402575": 4294967295,
    "201409775": 3758096384,
    "201413610": 4294967295,
    "201444594": 4294967295,
    "201445351": 4294967295,
    "201475597": 4294967295,
    "201475598": 4294967295,
    "201475603": 4294967295,
    "201475604": 4294967295,
    "201475605": 4294967295,
    "201500540": 4026531840,
    "201502631": 3758162943,
    "201506595": 4294967295,
    "201506596": 4294967295,
    "201506597": 4294967295,
    "201506614": 4089511935,
    "201506656": 4294967295,
    "201506657": 4294967295,
    "201506658": 4294967295,
    "201506659": 4294967295,
    "201506670": 4294967295,
    "201506671": 4294967295,
    "201506672": 4294967295,
    "201506673": 4294967295,
    "201506674": 4294967295,
    "201506675": 4294967295,
    "201506676": 4294967295,
    "201506677": 4294967295,
    "201506678": 4294967295,
    "201506679": 4294967295,
    "201507053": 4294967295,
    "201506680": 4294967295,
    "201506681": 3288440831,
    "201506682": 4291821567,
    "201506683": 4294967295,
    "201506684": 4294967295,
    "201506685": 4294967295,
    "201506698": 3758096384,
    "201506699": 4043170303,
    "201506700": 1610612736,
    "201506703": 4060079103,
    "201506704": 3758096384,
    "201506705": 3221225472,
    "201506706": 3354394624,
    "201401586": 4294967295,
    "201401595": 4294967295,
    "201402898": 4160749568,
    "201406664": 4294967295,
    "201506409": 3758096384,
    "201506618": 4294967295,
    "201506643": 3758096384,
    "201506644": 4165468160,
    "201507052": 3758112828,
    "201401594": 4294967295,
    "201401983": 4227858431,
    "201506645": 4294967295,
    "201506646": 4294967295,
    "201506702": 3758096384,
    "201507067": 3221225472,
    "201401678": 4278190080,
    "201499964": 4026531840
  }
}