{
  "IOKFLCPKINN": {
    "92390110": 1610643968,
    "92390111": 4294967295,
    "92390112": 4294967295,
    "92390113": 4294967295,
    "92390114": 4294967295,
    "92390118": 4294967295,
    "92390119": 4294967295,
    "92390120": 4294967295,
    "92390121": 4294967295,
    "92390122": 4294967295,
    "92390123": 4294967295,
    "92390124": 4294967295,
    "92390125": 4294967295,
    "92390126": 4294967295,
    "92390127": 4294967295,
    "92390128": 4294967295,
    "92390129": 4294967295,
    "92390130": 4294967295,
    "92390131": 4294967295,
    "92390132": 4294967295,
    "92390133": 4294967295,
    "92390134": 4294967295,
    "92390135": 4294967295,
    "92390136": 4294967295,
    "92390137": 4294967295,
    "92390138": 4294967295,
    "92390139": 4294967295,
    "92390140": 4294967295,
    "92390141": 4294967295,
    "92390142": 4294967295,
    "92390143": 4294967295,
    "92390144": 4294967295,
    "92390145": 4294967295,
    "92390146": 4294967295,
    "92390147": 4294967295,
    "92390148": 4294967295,
    "92390150": 4294967295,
    "92390151": 4294967295,
    "92390152": 4294967295,
    "92390153": 4294967295,
    "92390154": 4294967295,
    "92390155": 4294967295,
    "92390156": 4294967295,
    "92390157": 4294967295,
    "92390162": 4294967295,
    "92390163": 4294967295,
    "92390164": 4294967295,
    "92390166": 4294967295,
    "92390168": 4294967295,
    "92390171": 4294967295,
    "92390172": 4294967295,
    "92390173": 4294967295,
    "92390174": 4294967295,
    "92390175": 4294967295,
    "92390176": 4294967295,
    "92390177": 4294967295,
    "92390180": 4294967295,
    "92390181": 4294967295,
    "92390184": 4294967295,
    "92390185": 4294967295,
    "92390186": 4294967295,
    "92390189": 4294967295,
    "92390191": 4294967295,
    "92390192": 4294967295,
    "92390196": 4294967295,
    "92390198": 4294967295,
    "92390199": 4294967295,
    "92390203": 4294967295,
    "92390204": 4294967295,
    "92390205": 4294967295,
    "92390206": 4294967295,
    "92390207": 4294967295,
    "92390208": 4294967295,
    "92390209": 4294967295,
    "92390210": 4294967295,
    "92390211": 4294967295,
    "92390212": 4294967295,
    "92390214": 4294967295,
    "92390215": 4294967295,
    "92390218": 4294967295,
    "92390223": 4294967295,
    "92390224": 4294967295,
    "92390225": 4294967295,
    "92390227": 4294967295,
    "92390228": 4294967295,
    "92390229": 4294967295,
    "92390234": 4294967295,
    "92390235": 4294967295,
    "92390237": 4294967295,
    "92390238": 4294967295,
    "92390239": 4294967295,
    "92390240": 4294967295,
    "92390241": 4294967295,
    "92390244": 4294967295,
    "92390245": 4294967295,
    "92390247": 4294967295,
    "92390249": 4294967295,
    "92390250": 4294967295,
    "92390251": 4294967295,
    "92390255": 4294967295,
    "92390256": 4294967295,
    "92390257": 4294967295,
    "92390258": 4294967295,
    "92390265": 4294967295,
    "92390266": 4294967295,
    "92390267": 4294967295,
    "92390268": 4294967295,
    "92390269": 4294967295,
    "92390270": 4294967295,
    "92390271": 2147450879,
    "92390272": 2147483647,
    "92390273": 4294967295,
    "92390274": 2147450879,
    "92390275": 4294901758,
    "92390276": 2147483647,
    "92390277": 4294770684,
    "92390278": 2147434255,
    "92390279": 4160814113,
    "92390280": 2146992076,
    "92390281": 4294967295,
    "92390282": 4294967295,
    "92390283": 4294967295,
    "92390284": 4294967295,
    "92390285": 4294967295,
    "92390287": 4294967295,
    "92390289": 4294967295,
    "92390290": 4294967295,
    "92390291": 4294967295,
    "92390292": 4294967295,
    "92390293": 4294967295,
    "92390294": 4294967295,
    "92390295": 4294967295,
    "92390298": 4294967295,
    "92390308": 4294967295,
    "92390309": 4294967295,
    "92390310": 4294967295,
    "92390311": 4294967295,
    "92390312": 4294967295,
    "92390313": 4294967295,
    "92390314": 4294967295,
    "92390315": 4294967295,
    "92390316": 4294967295,
    "92390317": 4294967295,
    "92390318": 4294967295,
    "92390319": 4294967295,
    "92390320": 4294967295,
    "92390321": 4294967295,
    "92390322": 4294967295,
    "92390323": 4294967295,
    "92390324": 4294967295,
    "92390325": 4294967295,
    "92390326": 4294967295,
    "92390327": 4294967295,
    "92390328": 4294967295,
    "92390329": 4294967295,
    "92390330": 4294967295,
    "92390331": 4294967295,
    "92390332": 4294967295,
    "92390333": 4294967295,
    "92390334": 4294967295,
    "92390335": 4294967295,
    "92390336": 4294967295,
    "92390337": 4294967295,
    "92390338": 4294967295,
    "92390339": 4294967295,
    "92390340": 4294967295,
    "92390341": 4294967295,
    "92390342": 4294967295,
    "92390343": 4294967295,
    "92390344": 4294967295,
    "92390345": 4294967295,
    "92390346": 4294967295,
    "92390347": 4294967295,
    "92390348": 4294967295,
    "92390349": 4294967295,
    "92390350": 4294967295,
    "92390351": 4294967295,
    "92390352": 4294967295,
    "92390353": 4294967295,
    "92390354": 4294967295,
    "92390355": 4294967295,
    "92390356": 4294967295,
    "92390357": 4294967295,
    "92390358": 4294967295,
    "92390359": 4294967295,
    "92390360": 4294967295,
    "92390361": 4294967295,
    "92390362": 4294967295,
    "92390363": 4294967295,
    "92390364": 4294967295,
    "92390365": 4294967295,
    "92390366": 4294967295,
    "92390367": 4294967295,
    "92390368": 4294967295,
    "92390369": 4294967295,
    "92390370": 4294967295,
    "92390371": 4294967295,
    "92390372": 4294967295,
    "92390373": 4294967295,
    "92390374": 4294967295,
    "92390375": 4294967295,
    "92390376": 4294967295,
    "92390377": 4294967295,
    "92390378": 4294967295,
    "92390379": 4294967295,
    "92390380": 4294967295,
    "92390381": 4294967295,
    "92390382": 4294967295,
    "92390383": 4294967295,
    "92390384": 4294967295,
    "92390385": 4294967295,
    "92390386": 4294967295,
    "92390387": 4294967295,
    "92390388": 4294967295,
    "92390389": 4294967295,
    "92390390": 4294967295,
    "92390391": 4294967295,
    "92390392": 4294967295,
    "92390393": 4294967295,
    "92390394": 4294967295,
    "92390395": 4294967295,
    "92390396": 4294967295,
    "92390397": 4294967295,
    "92390398": 4294967295,
    "92390399": 4294967295,
    "92390400": 4294967295,
    "92390401": 4294967295,
    "92390402": 4294967295,
    "92390403": 4294967295,
    "92390404": 4294967295,
    "92390411": 4294967295,
    "92390412": 4294967295,
    "92390413": 4294967295,
    "92390414": 4294967295,
    "92390415": 4294967295,
    "92390416": 4294967295,
    "92390417": 4294967295,
    "92390418": 4294967295,
    "92390419": 4294967295,
    "92390420": 4294967295,
    "92390421": 4294967295,
    "92390422": 4294967295,
    "92390423": 4294967295,
    "92390424": 4294967295,
    "92390425": 4294967295,
    "92390426": 4294967295,
    "92390427": 4294967295,
    "92390428": 4294967295,
    "92390429": 4294967295,
    "92390430": 4294967295,
    "92390431": 4294967295,
    "92390432": 4294967295,
    "92390433": 4294967295,
    "92390434": 4294967295,
    "92390435": 4294967295,
    "92390436": 4294967295,
    "92390437": 4294967295,
    "92390438": 4294967295,
    "92390439": 4294967295,
    "92390440": 4294967295,
    "92390441": 4294967295,
    "92390442": 4294967295,
    "92390443": 4294967295,
    "92390444": 4294967295,
    "92390445": 4294967295,
    "92390446": 4294967295,
    "92390447": 4294967295,
    "92390448": 4294967295,
    "92390449": 4294967295,
    "92390450": 4294967295,
    "92390451": 4294967295,
    "92390452": 4294967295,
    "92390453": 4294967295,
    "92390454": 4294967295,
    "92390455": 4294967295,
    "92390456": 4294967295,
    "92390457": 4294967295,
    "92390458": 4294967295,
    "92390459": 4294967295,
    "92390460": 4294967295,
    "92390461": 4294967295,
    "92390462": 4294967295,
    "92390463": 4294967295,
    "92390464": 4294967295,
    "92390465": 4294967295,
    "92390466": 4294967295,
    "92390467": 4294967295,
    "92390468": 4294967295,
    "92390469": 4294967295,
    "92390470": 4294967295,
    "92390471": 4294967295,
    "92390472": 4294967295,
    "92390473": 4294967295,
    "92390474": 4294967295,
    "92390475": 4294967295,
    "92390476": 4294967295,
    "92390477": 4294967295,
    "92390478": 4294967295,
    "92390479": 4294967295,
    "92390480": 4294967295,
    "92390481": 4294967295,
    "92390482": 4294967295,
    "92390483": 4294967295,
    "92390484": 4294967295,
    "92390485": 4294967295,
    "92390486": 4294967295,
    "92390487": 4294967295,
    "92390488": 4294967295,
    "92390489": 4294967295,
    "92390490": 4294967295,
    "92390491": 4294967295,
    "92390492": 4294967295,
    "92390493": 4294967295,
    "92390494": 4294967295,
    "92390495": 4294967295,
    "92390496": 4294967295,
    "92390497": 4294967295,
    "92390498": 4294967295,
    "92390499": 4294967295,
    "92390500": 4294967295,
    "92390501": 4294967295,
    "92390502": 4294967295,
    "92390503": 4294967295,
    "92390504": 4294967295,
    "92390505": 4294967295,
    "92390506": 4294967295,
    "92390507": 4294967295,
    "92390508": 4294967295,
    "92390509": 4294967295,
    "92390510": 4294967295,
    "92390511": 4294967295,
    "92390512": 4294967295,
    "92390513": 4294967295,
    "92390514": 4294967295,
    "92390515": 4294967295,
    "92390516": 4294967295,
    "92390517": 4294967295,
    "92390518": 4294967295,
    "92390519": 4294967295,
    "92390520": 4294967295,
    "92390521": 4294967295,
    "92390522": 4294967295,
    "92390523": 4294967295,
    "92390524": 4294967295,
    "92390525": 4294967295,
    "92390526": 4294967295,
    "92390527": 4294967295,
    "92390528": 4294967295,
    "92390529": 4294967295,
    "92390530": 4294967295,
    "92390531": 4294967295,
    "92390532": 4294967295,
    "92390533": 4294967295,
    "92390534": 4294967295,
    "92390535": 4294967295,
    "92390536": 4294967295,
    "92390537": 4294967295,
    "92390538": 4294967295,
    "92390539": 4294967295,
    "92390540": 4294967295,
    "92390541": 4294967295,
    "92390542": 4294967295,
    "92390543": 4294967295,
    "92390544": 4294967295,
    "92390545": 4294967295,
    "92390546": 4294967295,
    "92390547": 4294967295,
    "92390548": 4294967295
  }
}