{
  "CCKPLBIEBAK": {
    "41975960": [
      16314062831648513676,
      2133207442460785825
    ],
    "41975961": [
      432120775781205600,
      16314062831648513676,
      2133207442460785825
    ],
    "41975962": [
      432120775781205600,
      16314062831648513676,
      2133207442460785825,
      2787951517152566637
    ],
    "41975963": [
      16314062831648513676,
      2133207442460785825
    ],
    "41975964": [
      16314062831648513676,
      2133207442460785825
    ],
    "41976063": [
      432120775781205600,
      16314062831648513676,
      2133207442460785825,
      2787951517152566637
    ]
  }
}