{
  "IOKFLCPKINN": {
    "4203272": 2080374784,
    "4203273": 4261412864,
    "4256689": 3221225472,
    "4262984": 1610612736,
    "4262985": 4294508536,
    "4267131": 66651135,
    "4201748": 266354560,
    "4201760": 25,
    "4201934": 536821759,
    "4205107": 3221225472,
    "4256482": 1024,
    "4256693": 3959422976,
    "4256694": 4227858432,
    "4262986": 4060118528,
    "4201717": 4261412864,
    "4201763": 393231,
    "4201926": 2131128335,
    "4203245": 16646207,
    "4270592": 2147483648,
    "4270947": 131079,
    "4274435": 3758112768,
    "4274459": 4194304000,
    "4206516": 1006632960,
    "4256483": 4290838400,
    "4256484": 4261412864,
    "4258632": 4261412864,
    "4201734": 4290772992,
    "4258633": 535838704,
    "4263334": 536870912,
    "4201725": 4292935616,
    "4201751": 2147385342,
    "4201950": 536821759,
    "4256511": 4294967295,
    "4258634": 16712655,
    "4201738": 3221225472,
    "4201739": 402665472,
    "4256512": 4278190080,
    "4256515": 4261412864,
    "4256691": 2281701376,
    "4262919": 3221225472,
    "4267576": 4026556416,
    "4267577": 4026548224,
    "4267578": 4160780288,
    "4267579": 4026556416,
    "4269244": 640,
    "4208160": 4160749568,
    "4208161": 4292902400,
    "4208162": 4060086272,
    "4208163": 4026531840,
    "4208164": 4227890176,
    "4208165": 4026662526,
    "4208166": 4261412864,
    "4256696": 4026531840,
    "4256697": 4261412864,
    "4259529": 2147483648,
    "4262920": 3355443200,
    "4262995": 4026531840,
    "4267580": 4286578688,
    "4267581": 4293984000,
    "4267582": 4227858432,
    "4267583": 4244635648,
    "4267584": 4160749568,
    "4274649": 3758096384,
    "4277095": 4160778240,
    "4259544": 4026531840,
    "4259545": 2163736576,
    "4259570": 4278190080,
    "4262997": 2147483648,
    "4263006": 2147483648,
    "4267403": 2147483648,
    "4267405": 3758096384,
    "4267585": 4227858432,
    "4267587": 4278190080,
    "4267590": 4227858432,
    "4271204": 2147483647,
    "4271235": 4261412864,
    "4271236": 4261412864,
    "4277098": 2147483648,
    "4277795": 3221225472,
    "4278934": 4227858432,
    "4278935": 4227858432,
    "4278936": 4227858432,
    "4278937": 4294967294,
    "4278938": 4261412864,
    "4262998": 260046848,
    "4267592": 4195352575,
    "4271207": 1073709055,
    "4271208": 3221225472,
    "4271210": 2147483648,
    "4271211": 4227858432,
    "4271237": 4261412864,
    "4271239": 4263410703,
    "4263013": 4261412864,
    "4263337": 4227858432,
    "4267593": 4280287231,
    "4271213": 4261412864,
    "4271308": 4026531840,
    "4277595": 4227858432,
    "4277596": 4294836224,
    "4277597": 4227858432,
    "4277598": 4261412864,
    "4277599": 4261412864
  }
}