{
  "IOKFLCPKINN": {
    "335554993": 4294967295,
    "335601703": 3758096384,
    "335555476": 4294967295,
    "335555477": 4294967295,
    "335642965": 4294967295,
    "335555170": 4294967295,
    "335555179": 4294967295,
    "335555180": 4294967295,
    "335555181": 4294967295,
    "335555191": 4294967295,
    "335655841": 4294967295,
    "335655842": 4294967295,
    "335555252": 4294967295,
    "335555254": 4294967295,
    "335555255": 4294967295,
    "335555256": 4294967295,
    "335555266": 4294967295,
    "335655193": 4294967295,
    "335655194": 4294967295,
    "335655575": 4294967295,
    "335655843": 4294967295,
    "335655844": 4294967295,
    "335557374": 2147483648,
    "335642956": 4294573959,
    "335654713": 4294967295,
    "335654717": 4294967295,
    "335654718": 4294967295,
    "335654719": 4294967295,
    "335654720": 4294967295,
    "335654721": 4294967295,
    "335654722": 4294967295,
    "335654723": 4294967295,
    "335654724": 4294967295,
    "335654714": 4294967295,
    "335654715": 4294967295,
    "335654716": 4294967295,
    "335676792": 4294967295,
    "335676793": 4294967295
  },
  "HMJKBKBADFL": [
    {
      "HICOKGMLEOP": "Tag_2",
      "APADDJJDABP": [
        335554993,
        335601703,
        335555476,
        335555477,
        335642965,
        335555170,
        335555179,
        335555180,
        335555181,
        335555191,
        335655841,
        335655842,
        335555252,
        335555254,
        335555255,
        335555256,
        335555266,
        335655193,
        335655194,
        335655575,
        335655843,
        335655844,
        335551114,
        335557374,
        335642956,
        335654713,
        335654717,
        335654718,
        335654719,
        335654720,
        335654721,
        335654722,
        335654723,
        335654724,
        335654714,
        335654715,
        335654716,
        335676792,
        335676793,
        335655562,
        335655563,
        335655564,
        335655565,
        335655566,
        335655567,
        335655568,
        335655569,
        335655570,
        335655571
      ]
    }
  ]
}