{
  "IOKFLCPKINN": {
    "1166167739": 4294967295,
    "1166167740": 4294967295,
    "1166073216": 4294967295,
    "1166077885": 4294967295,
    "1166080974": 4294967295,
    "1166080975": 4294967295,
    "1166080976": 4294967295,
    "1166181123": 4294967295,
    "1166181124": 4294967295,
    "1166181184": 4294967295,
    "1166073934": 4294967295,
    "1166073940": 4294967295,
    "1166073948": 4294934527,
    "1166073949": 1073692671,
    "1166073955": 4294967295,
    "1166073972": 1073709055,
    "1166073988": 4294967295,
    "1166073989": 4294967295,
    "1166073990": 4294967295,
    "1166073991": 4294967295,
    "1166073997": 4294967295,
    "1166073998": 4294967295,
    "1166074192": 4294967295,
    "1166078157": 4294967295,
    "1166080977": 4294967295,
    "1166080978": 4294967295,
    "1166088344": 4294967295,
    "1166104386": 4294967295,
    "1166104407": 4294967295,
    "1166104416": 4294967295,
    "1166158075": 4294967295,
    "1166162554": 4294967295,
    "1166162555": 4294967295,
    "1166162556": 4294967295,
    "1166163691": 4294967295,
    "1166163692": 4294967295,
    "1166168165": 4294967295,
    "1166168166": 4294967295,
    "1166168167": 4294967295,
    "1166168168": 4294967295,
    "1166168169": 4294967295,
    "1166181131": 4294967295,
    "1166181132": 4294967295,
    "1166181136": 4294967295,
    "1166181137": 3355381759,
    "1166181138": 4227858431,
    "1166191396": 4294967295,
    "1166194686": 4294967295,
    "1166195905": 4294967295,
    "1166195906": 1073709055,
    "1166195921": 4294967295,
    "1166195922": 4294967295,
    "1166073966": 4294967295,
    "1166080982": 4294967295,
    "1166104409": 4294967295,
    "1166104415": 4294967295,
    "1166181144": 4294967295,
    "1166181147": 4294967295,
    "1166080984": 4294967295,
    "1166080985": 4294967295,
    "1166180221": 4294967295,
    "1166167747": 4294961151,
    "1166192336": 4294967295,
    "1166192337": 3355381759,
    "1166192344": 4294967295,
    "1166192345": 4294967295,
    "1166192348": 4294967295,
    "1166192349": 4294967295,
    "1166192384": 4294967295,
    "1166192390": 4294967295,
    "1166192392": 4294967295,
    "1166192408": 4294967295,
    "1166192409": 4294967295,
    "1166192420": 4294967295,
    "1166192444": 3758096384,
    "1166192451": 4160749567,
    "1166195908": 1073709055,
    "1166195909": 4294967295,
    "1166195911": 4294967295,
    "1166195912": 4294967295,
    "1166195913": 4294967295,
    "1166195914": 4294967295,
    "1166195915": 4294967295,
    "1166195916": 4294967295,
    "1166195917": 4294967295,
    "1166070498": 4026556416,
    "1166072370": 4294967295,
    "1166072390": 4294967295,
    "1166072402": 4294967295,
    "1166072406": 4294967295,
    "1166072407": 4294967295,
    "1166090633": 4294967295,
    "1166191397": 4294967295
  },
  "CCKPLBIEBAK": {
    "1166192356": [
      2037501580077355505
    ],
    "1166072354": [
      4619500264885446895,
      17564039797163082334
    ],
    "1166074164": [
      17564039797163082334,
      3434511711488326269,
      9231777804604874112
    ],
    "1166090637": [
      4619500264885446895
    ]
  }
}