{
  "IOKFLCPKINN": {
    "339759473": 4294967295,
    "339765432": 4294967295,
    "339769148": 4294967295,
    "339769149": 4294967295,
    "339775541": 4294967295,
    "339775544": 4294967295,
    "339775545": 4294967295,
    "339775546": 4294967295,
    "339775555": 4294967295,
    "339775611": 4294967295,
    "339775617": 4294967295,
    "339775619": 4294967295,
    "339777888": 4294967295,
    "339777890": 4294967295,
    "339777891": 4294967295,
    "339777892": 4294967295,
    "339777893": 4294967295,
    "339788742": 4294967295,
    "339788743": 4294967295,
    "339827444": 4294967295,
    "339827972": 4294967295,
    "339827973": 4294967295,
    "339827974": 4294967295,
    "339827975": 4294967295,
    "339828071": 4294967295,
    "339828160": 4294967295,
    "339828628": 4294967295,
    "339828629": 4294967295,
    "339828630": 4294967295,
    "339828631": 4294967295,
    "339828632": 4294967295,
    "339828633": 4294967295,
    "339828637": 4294967295,
    "339828638": 4294967295,
    "339828640": 4294967295,
    "339829049": 4294967295,
    "339829309": 4294967295,
    "339829485": 4294967295,
    "339829487": 4294967295,
    "339829493": 4294967295,
    "339829494": 4294967295,
    "339829495": 4294967295,
    "339829496": 4294967295,
    "339829497": 4294967295,
    "339829604": 4294967295,
    "339829605": 4294967295,
    "339830325": 4294967295,
    "339830326": 4294967295,
    "339830694": 4294967295,
    "339830695": 4294967295,
    "339830697": 4294967295,
    "339838788": 4294967295,
    "339859209": 4294967295,
    "339866863": 4294967295,
    "339866864": 4294967295,
    "339866865": 4294967295,
    "339873579": 4294967295,
    "339786594": 4294967295,
    "339786595": 4294967295,
    "339828639": 4294967295,
    "339860534": 4294967295,
    "339759441": 4294967295,
    "339759443": 4294967295,
    "339775596": 4294967295,
    "339775621": 4294967295,
    "339829050": 4294967295,
    "339829051": 4294967295,
    "339771748": 4294967295,
    "339772440": 4294967295,
    "339774683": 1073642623,
    "339775229": 4294967295,
    "339786596": 4294967295,
    "339786598": 4294967295,
    "339786599": 4294967295,
    "339845378": 4294967295,
    "339845379": 3775906815,
    "339845380": 4294967295,
    "339845383": 4294967295,
    "339845384": 4294967295,
    "339845385": 4294967295,
    "339845386": 2675441279,
    "339845390": 4294967295,
    "339845391": 4294967295,
    "339845392": 3221225472,
    "339845393": 3759013888,
    "339845394": 4294967264,
    "339845395": 4279793664,
    "339845396": 2163212288,
    "339845397": 3776970751,
    "339845398": 4160749568,
    "339845399": 2143321600,
    "339845400": 4278059008,
    "339845401": 1879466015,
    "339845402": 939683849,
    "339845403": 972910979,
    "339845404": 2146500576,
    "339845407": 805724175,
    "339845408": 503316480,
    "339845409": 1006795777,
    "339845410": 1073248387,
    "339845411": 1040151011,
    "339845412": 3221225472,
    "339845413": 4294967295,
    "339845414": 523450175,
    "339845415": 507454208,
    "339845416": 253690015,
    "339845417": 3757096575,
    "339845418": 507387967,
    "339845419": 4294705151,
    "339845420": 473956352,
    "339845421": 4244634879,
    "339845422": 509820031,
    "339845423": 505356575,
    "339845427": 251854991,
    "339845428": 159383552,
    "339845430": 132120576,
    "339845432": 132251761,
    "339845439": 266739687,
    "339845440": 268378111,
    "339845441": 4294967295,
    "339845442": 4261412863,
    "339845443": 4294770687,
    "339845444": 4294967295,
    "339845446": 3775906815,
    "339845447": 4294967281,
    "339845448": 4244635646,
    "339845449": 4294967295,
    "339845451": 4275043583,
    "339845455": 2147483648,
    "339845456": 4294967295,
    "339845457": 4294967295,
    "339855457": 4294967295,
    "339859001": 4294967295,
    "339859002": 4294864903,
    "339859003": 4294967295,
    "339859005": 4292870079,
    "339832224": 4294967295,
    "339832240": 4294967295,
    "339832241": 4294967295,
    "339832242": 4294967295,
    "339832243": 4294967295,
    "339832244": 4294967295,
    "339832245": 4294967295,
    "339832246": 4294967295,
    "339832247": 4294967295,
    "339832248": 4294967295,
    "339832249": 4294967295,
    "339832250": 4294967295,
    "339832251": 4294967295,
    "339832252": 4294967295,
    "339832253": 4294967295,
    "339832254": 4294967295,
    "339832255": 4294967295,
    "339832256": 4294967295,
    "339832257": 4294967295,
    "339832258": 4294967295,
    "339832259": 4294967295,
    "339832260": 4294967295,
    "339832261": 4294967295,
    "339832265": 4294967295,
    "339832266": 4294967295,
    "339832267": 4294967295,
    "339832268": 4294967295,
    "339832270": 4294967295,
    "339832271": 4294967295,
    "339831106": 4294967295,
    "339831107": 4294967295,
    "339831108": 4294967295,
    "339831109": 4294967295,
    "339831112": 4294967295,
    "339831113": 4294967295,
    "339831116": 4294967295,
    "339831117": 4294967295,
    "339831118": 4294967295,
    "339831119": 4294967295,
    "339831120": 4294967295,
    "339873580": 4294967295,
    "339873581": 4294967295,
    "339873630": 4294967295,
    "339838789": 4294967295,
    "339838790": 4294967295,
    "339838791": 4294967295,
    "339838792": 4294967295,
    "339838793": 4294967295,
    "339838794": 4294967295,
    "339838795": 4294967295,
    "339838796": 4294967295,
    "339838799": 4294967295,
    "339838800": 4294967295,
    "339838802": 4294967295,
    "339838803": 4294967295,
    "339838804": 4294967295,
    "339838809": 4294967295,
    "339838810": 4294967295,
    "339838811": 4294967295,
    "339838812": 4294967295,
    "339838828": 4294967295,
    "339838829": 4294967295,
    "339838830": 4294967295,
    "339838831": 4294967295,
    "339838832": 4294967295,
    "339827978": 4294967295
  },
  "HMJKBKBADFL": [
    {
      "HICOKGMLEOP": "Tag_3",
      "APADDJJDABP": [
        339873641,
        339873642,
        339863263,
        339863264
      ]
    },
    {
      "HICOKGMLEOP": "Tag_4",
      "APADDJJDABP": [
        339859270
      ]
    }
  ]
}