{
  "IOKFLCPKINN": {
    "205596214": 4294967295,
    "205596215": 4294967295,
    "205596216": 4294967295,
    "205596229": 4294967295,
    "205596220": 4294967295,
    "205596222": 4294967295,
    "205597717": 4294967295,
    "205597718": 4294967295,
    "205600135": 4294967295,
    "205596226": 4294967295,
    "205596217": 4294967295,
    "205596224": 4294967295,
    "205596228": 4294967295,
    "205597716": 4294967295,
    "205600142": 4294967295,
    "205602682": 4294967295,
    "205602683": 4294967295,
    "205602684": 4294967295,
    "205602685": 4294967295,
    "205596290": 4294967295,
    "205597439": 4294967295,
    "205597440": 4294901758,
    "205597441": 4294901758,
    "205597450": 4294967295,
    "205597451": 4294967295,
    "205597452": 4294967295,
    "205597453": 4294967295,
    "205597736": 4294967295,
    "205597751": 4294967295,
    "205597752": 4294967295,
    "205596289": 4294967295,
    "205597788": 4294901756,
    "205597789": 4294836224,
    "205597791": 4294967295,
    "205597792": 4294967295,
    "205597793": 4294967295,
    "205597794": 4294967295,
    "205597795": 4294967295,
    "205600136": 4294967295,
    "205600137": 4294967295,
    "205600155": 4294967295,
    "205596278": 4294967295,
    "205596279": 4294967295,
    "205596280": 4294967295,
    "205596282": 4294967295,
    "205596283": 4294967295,
    "205596287": 4294967295,
    "205596291": 4294967295,
    "205597728": 4294967295,
    "205597729": 4294967295,
    "205597730": 4294967295,
    "205597731": 4294967295,
    "205597732": 4294967295,
    "205597734": 4294967295,
    "205600087": 4294967295,
    "205600156": 4294967295,
    "205600157": 4294967295,
    "205600158": 4294967295,
    "205600171": 4294967295,
    "205597722": 4294967295,
    "205600138": 4294967295,
    "205596270": 4294967295,
    "205596271": 4294967295,
    "205596272": 4294967295,
    "205596273": 4294967295,
    "205596276": 4294967295,
    "205597725": 4294967295,
    "205597726": 4294967295,
    "205600159": 4294967295,
    "205600160": 4294967295,
    "205596274": 4294967295,
    "205596281": 4294967295,
    "205596284": 4294967295,
    "205596285": 4294967295,
    "205596286": 4294967295,
    "205596288": 4294967295,
    "205597438": 4294967295,
    "205597723": 4294967295,
    "205597724": 4294967295,
    "205597727": 4294967295,
    "205600088": 4294967295,
    "205600089": 4294967295,
    "205596230": 4294967295,
    "205596257": 4294967295,
    "205596258": 4294967295,
    "205596259": 4294967295,
    "205596260": 4294967295,
    "205596261": 4294967295,
    "205596262": 4294967295,
    "205596264": 4294967295,
    "205596232": 4294967295,
    "205596233": 4294967295,
    "205596234": 4294967295,
    "205596235": 4294967295,
    "205596236": 4294967295,
    "205596237": 4294967295,
    "205596240": 4294967295,
    "205596241": 4294967295,
    "205597719": 4294967295,
    "205597720": 4294705152,
    "205597721": 4294967295,
    "205596242": 4294967295,
    "205596244": 4294967295,
    "205596245": 4294967295,
    "205596246": 4294967295,
    "205602177": 4294967295,
    "205596247": 4294508543,
    "205596248": 4294967295,
    "205596250": 4294967295,
    "205596251": 4294967295,
    "205596253": 4294967295,
    "205596254": 4294705152,
    "205596255": 4294967295,
    "205600095": 4294967295,
    "205602721": 4294443008,
    "205596183": 4294967295,
    "205596188": 469762048,
    "205596189": 2147524576,
    "205596190": 4294705152,
    "205596191": 4294475768,
    "205596192": 4293984224,
    "205596195": 2147483662,
    "205596196": 4294770656,
    "205596197": 535822336,
    "205596198": 4293984254,
    "205596199": 3758096383,
    "205596200": 2147483648,
    "205596201": 2147483646,
    "205596202": 2684248191,
    "205596204": 4294770656,
    "205596205": 4294967295,
    "205596208": 212486,
    "205596209": 4294967295,
    "205600090": 4294967295,
    "205600091": 2147532800,
    "205600092": 4294770624,
    "205600093": 4294967295,
    "205600097": 4294967295,
    "205600153": 4294967295,
    "205600154": 4294967295,
    "205600161": 4294967295,
    "205600172": 4294967295,
    "205600173": 3145728
  }
}