{
  "HMJKBKBADFL": [
    {
      "APADDJJDABP": [
        331390078,
        331390079,
        331390080,
        331390081,
        331390082,
        331390084,
        331444433,
        331444435,
        331444437,
        331444505,
        331444517,
        331444709,
        331476692,
        331476693,
        331476694,
        331476695,
        331476696,
        331476697,
        331476698,
        331476699,
        331476700,
        331476701,
        331476702,
        331476703,
        331476704,
        331444509,
        331444510,
        331444511,
        331444512,
        331444513,
        331444514,
        331444515,
        331444516,
        331444518,
        331444519,
        331444520,
        331444521,
        331444522,
        331444523,
        331444524,
        331444525,
        331444526,
        331444527,
        331444528,
        331444530,
        331444531,
        331444532,
        331444533,
        331444534,
        331444535,
        331444538,
        331444539,
        331444540,
        331449322,
        331449329,
        331449334,
        331449336,
        331449347,
        331449352,
        331449373,
        331449387,
        331449388,
        331449409,
        331449410,
        331449411,
        331449459,
        331449460,
        331449461,
        331449462,
        331449463,
        331449464,
        331469341,
        331469342,
        331469343,
        331469353,
        331469354,
        331469355,
        331476705,
        331476706,
        331476707,
        331476708,
        331476709,
        331476710,
        331418905,
        331418906
      ]
    }
  ]
}