{
  "IOKFLCPKINN": {
    "339860887": 4273995776,
    "339860888": 4294770456,
    "339860889": 4294506396,
    "339860890": 4077385606,
    "339860891": 4230282780,
    "339860892": 4292935672,
    "339860893": 4280221598,
    "339860896": 4279042040,
    "339860899": 4034983872,
    "339860900": 4286642624,
    "339860901": 4227923904,
    "339860902": 4286775232,
    "339860903": 4293984224,
    "339860904": 4227856377,
    "339860918": 4294049785,
    "339860922": 4286054400,
    "339860929": 4294967295,
    "339860931": 4294967295,
    "339860932": 4294967295,
    "339860933": 4294967295,
    "339860934": 4294967295,
    "339860935": 4294967295,
    "339860936": 4294967295,
    "339860937": 4294967295,
    "339860938": 4294967295,
    "339860939": 4294967295,
    "339860940": 4294967295,
    "339860941": 4294967295,
    "339860942": 4294967295,
    "339860946": 4294967295,
    "339860947": 4294770680,
    "339860948": 4294967295,
    "339860949": 4290772992,
    "339860950": 4294967294,
    "339860951": 4290707454,
    "339860952": 4294967295,
    "339860953": 4294967295,
    "339860955": 4294967295,
    "339860956": 4294967295,
    "339860957": 4294967295,
    "339860959": 4294967295,
    "339860960": 4294967295,
    "339860961": 4294967295,
    "339860962": 4294967295,
    "339860963": 4294967295,
    "339860964": 4294967295,
    "339861509": 4287430598,
    "339861911": 4287037383,
    "339861912": 4294508540,
    "339862874": 4294967295,
    "339860973": 4294967295,
    "339860974": 4294967295,
    "339860975": 4294967295,
    "339860976": 4294967295,
    "339860977": 4294967295,
    "339860978": 4294967295,
    "339860979": 4294967295,
    "339860980": 4294967295,
    "339860981": 4294967295,
    "339860988": 4294967295,
    "339861018": 4294967295,
    "339861019": 4294967295,
    "339861020": 4294967295,
    "339861021": 4294967295,
    "339861022": 4294967295,
    "339861023": 4294967295,
    "339861024": 4294967295,
    "339861025": 4294967295,
    "339861026": 4294967295,
    "339861027": 4294967295,
    "339861028": 4294967295,
    "339861029": 4294967295,
    "339861030": 4294967295,
    "339861031": 4294967295,
    "339861032": 4294967295,
    "339861033": 4294967295,
    "339861034": 4294967295,
    "339861035": 4294967295,
    "339861036": 4294967295,
    "339861037": 4294967295,
    "339861040": 4294967295,
    "339861042": 4294967295,
    "339861044": 4294967295,
    "339861046": 4294967295,
    "339861048": 4294967295,
    "339861050": 4294967295,
    "339861052": 4294967295,
    "339861053": 4294967295,
    "339861054": 4294967295,
    "339861055": 4294967295,
    "339861056": 4294967295,
    "339861057": 4294967295,
    "339861058": 4294967295,
    "339861059": 4294967295,
    "339861060": 4294967295,
    "339861061": 4294967295,
    "339861062": 4294967295,
    "339861063": 4294967295,
    "339861064": 4294967295,
    "339861071": 4294967295,
    "339861072": 4294967295,
    "339861075": 4294967295,
    "339861076": 4294967295,
    "339861077": 4294967295,
    "339861078": 4294967295,
    "339861079": 4294967295,
    "339861080": 4294967295,
    "339861081": 4294967295,
    "339861082": 4294967295,
    "339861083": 4294967295,
    "339861084": 4294967295,
    "339861085": 4294967295,
    "339861086": 4294967295,
    "339861087": 4294967295,
    "339861088": 4294967295,
    "339861089": 4294967295,
    "339861096": 4294967295,
    "339861114": 4294967295,
    "339861176": 4294967295,
    "339861206": 4294967295,
    "339861207": 4294967295,
    "339861208": 4294967295,
    "339861209": 4294967295,
    "339861210": 4294967295,
    "339861211": 4294967295,
    "339861212": 4294967295,
    "339861213": 4294967295,
    "339861215": 4294967295,
    "339861216": 4294967295,
    "339861217": 4294967295,
    "339861218": 4294967295,
    "339861219": 4294967295,
    "339861220": 4294967295,
    "339861221": 4294967295,
    "339861222": 4294967295,
    "339861223": 4294967295,
    "339861224": 4294967295,
    "339861225": 4294967295,
    "339861226": 4294967295,
    "339861227": 4294967295,
    "339861228": 4294967295,
    "339862784": 4294967295,
    "339862785": 4294967295,
    "339862786": 4294967295,
    "339862787": 4294967295,
    "339862788": 4294967295,
    "339862797": 4294967295,
    "339862798": 4294967295,
    "339862875": 4294967295,
    "339862876": 4294967295,
    "339862877": 4294967295,
    "339862878": 4294967295,
    "339862879": 4294967295,
    "339862881": 4294967295,
    "339862882": 4294967295,
    "339862883": 4294967295,
    "339862884": 4294967295,
    "339862885": 4294967295,
    "339862887": 4294967295,
    "339862888": 4294967295,
    "339862889": 4294967295,
    "339862890": 4294967295,
    "339862891": 4294967295,
    "339862893": 4294967295,
    "339862894": 4294967295,
    "339862895": 4294967295,
    "339862896": 4294967295,
    "339862923": 4294967295,
    "339862924": 4294967295,
    "339861255": 4294967295,
    "339861261": 4294967295,
    "339861302": 4294967295,
    "339861308": 4294967295,
    "339861367": 4294967295,
    "339861368": 4294967295,
    "339861371": 4294967295,
    "339861372": 4294967295,
    "339861373": 4294967295,
    "339861374": 4294967295,
    "339861375": 4294967295,
    "339861503": 4294967295,
    "339861504": 4294967295,
    "339862711": 4294967295,
    "339862712": 4294967295,
    "339862713": 4294967295,
    "339867918": 4294967295,
    "339867919": 4294967295,
    "339867920": 4294967295,
    "339826710": 4294967295
  },
  "HMJKBKBADFL": [
    {
      "HICOKGMLEOP": "Tag_2",
      "APADDJJDABP": [
        339861072,
        339861096,
        339861371,
        339861372
      ]
    },
    {
      "APADDJJDABP": [
        339860974,
        339860975,
        339860976,
        339860977,
        339860978,
        339861018,
        339861042,
        339861044,
        339861052,
        339861054,
        339861061,
        339861063,
        339861212,
        339862923,
        339861255,
        339861261,
        339861308,
        339861367,
        339861368
      ]
    }
  ],
  "LHLJMFFCJHB": [
    339860961,
    339860962,
    339860963,
    339861071,
    339861072,
    339861096,
    339861371,
    339861372,
    339861373,
    339861374,
    339861375
  ]
}