{
  "IOKFLCPKINN": {
    "901841432": 4294967295,
    "901841433": 4294967295,
    "901841434": 4294967295,
    "901841445": 4294967295,
    "901793908": 4294967295,
    "901795687": 4294967295,
    "901795689": 4294967295,
    "901795690": 4294967295,
    "901808834": 4294967295,
    "901808836": 4294967295,
    "901840077": 4294967295,
    "901808853": 4294967295,
    "901839189": 4294967295,
    "901839190": 4294967295,
    "901839191": 4294967295,
    "901839192": 4294967295,
    "901839203": 4294967295,
    "901839204": 4294967295,
    "901839205": 4294967295,
    "901840541": 4294967295,
    "901846058": 4294967295,
    "901846063": 4294967295,
    "901846064": 4294967295,
    "901846065": 4294967295,
    "901846066": 4294967295,
    "901846068": 4294967295,
    "901846070": 4294967295,
    "901836315": 4294967295,
    "901808840": 4294967295,
    "901847354": 4294967295,
    "901847355": 4294967295,
    "901795508": 4294967295,
    "901798311": 4294967295,
    "901798312": 4294967295,
    "901799087": 4294967295,
    "901808881": 4294967295,
    "901808882": 4294967295,
    "901808885": 4294967295,
    "901808886": 4294967295,
    "901808887": 4294967295,
    "901808888": 4294967295,
    "901808891": 4294967295,
    "901808895": 4294967295,
    "901837110": 4294967295,
    "901847342": 4294967295,
    "901798232": 4294967295,
    "901798233": 4294967295,
    "901798310": 4294967295,
    "901797776": 4294967295,
    "901797777": 4294967295,
    "901798524": 4294967295,
    "901798525": 4294967295,
    "901797793": 4294967295,
    "901798518": 4294967295,
    "901798523": 4294967295,
    "901808866": 4294967295,
    "901808867": 4294967295,
    "901808872": 4294967295,
    "901804502": 4294967295,
    "901804503": 4294967295,
    "901804504": 4294967295,
    "901804505": 4294967295,
    "901804506": 4294967295,
    "901804524": 4294967295,
    "901804525": 4294967295,
    "901804536": 4294967295,
    "901804537": 4294967295,
    "901798236": 4294967295,
    "901797769": 4294967295,
    "901797770": 4294967295,
    "901808865": 4294967295,
    "901808873": 4294967295,
    "901808875": 4294967295,
    "901798235": 4294967295,
    "901808876": 4294967295,
    "901804522": 4294967295,
    "901804523": 4294967295,
    "901804526": 4294967295,
    "901804527": 4294967295,
    "901804528": 4294967295,
    "901808869": 4294967295,
    "901840542": 4294967295,
    "901837112": 4294967295,
    "901837111": 4294967295,
    "901837113": 4294967295
  }
}