{
  "CCKPLBIEBAK": {
    "4194315": [
      2219382236770247757,
      17018527186203620206
    ],
    "4194318": [
      1349671947580433131
    ],
    "4194330": [
      1349671947580433131
    ],
    "4194343": [
      11006833288855317362
    ],
    "4194372": [
      594781323629937201
    ],
    "4194397": [
      11006833288855317362
    ],
    "4194403": [
      1349671947580433131
    ],
    "4194424": [
      2219382236770247757
    ],
    "4194469": [
      1349671947580433131
    ],
    "4194471": [
      11006833288855317362
    ],
    "4194476": [
      1349671947580433131
    ],
    "4194539": [
      2219382236770247757
    ],
    "4194617": [
      594781323629937201
    ],
    "4194795": [
      594781323629937201
    ],
    "4194815": [
      17018527186203620206
    ],
    "4194998": [
      1349671947580433131
    ],
    "4195000": [
      1349671947580433131
    ],
    "4195001": [
      1349671947580433131
    ],
    "4195002": [
      1349671947580433131
    ],
    "4194799": [
      14729218461615659550
    ],
    "4194800": [
      14729218461615659550
    ],
    "4194804": [
      14729218461615659550
    ],
    "4195005": [
      10202732739583349577
    ],
    "4194392": [
      10202732739583349577
    ],
    "4194395": [
      10202732739583349577
    ],
    "4194396": [
      10202732739583349577
    ],
    "4194421": [
      10202732739583349577
    ],
    "4194817": [
      10202732739583349577
    ],
    "4195008": [
      10202732739583349577
    ]
  }
}