{
  "HMJKBKBADFL": [
    {
      "APADDJJDABP": [
        335546920,
        335546926,
        335546927,
        335546928,
        335546929,
        335546991,
        335546992,
        335546993,
        335546995,
        335546996,
        335624832,
        335624841,
        335624842,
        335624843,
        335624844,
        335624845,
        335624846,
        335624847,
        335624848,
        335624851,
        335624853,
        335624854,
        335624856,
        335624859,
        335624860,
        335624861,
        335624862,
        335624863,
        335624864,
        335624865,
        335624866,
        335624867,
        335624868,
        335624874,
        335624875,
        335624876,
        335624878,
        335624879,
        335624880,
        335624881,
        335624882,
        335624884,
        335624885,
        335624889,
        335626295,
        335626296,
        335627929,
        335627932,
        335627933,
        335668927,
        335624850
      ]
    }
  ]
}