{
  "IOKFLCPKINN": {
    "201386575": 4294967295,
    "201386576": 4294967295,
    "201386577": 4294967295,
    "201386579": 4294967295,
    "201386581": 4294967295,
    "201387509": 4294967295,
    "201387511": 4294967295,
    "201387512": 4294967295,
    "201387513": 4294967295,
    "201387514": 4294967295,
    "201389716": 4294967295,
    "201390515": 201326592,
    "201392050": 4294967295,
    "201392051": 4294967295,
    "201392052": 4294967295,
    "201392053": 4294967295,
    "201392054": 4294967295,
    "201392117": 33497087,
    "201392898": 4294934527,
    "201392900": 1073709055,
    "201392903": 536821759,
    "201392904": 1073692671,
    "201393813": 4294967295,
    "201393815": 4294967295,
    "201394577": 4294967295,
    "201398235": 4294967295,
    "201398246": 4294967295,
    "201398247": 4294967295,
    "201402703": 4294967295,
    "201402704": 4294967295,
    "201402705": 4294967295,
    "201402760": 4294967295,
    "201402773": 4294967295,
    "201402777": 4294967295,
    "201402793": 4294967295,
    "201402795": 4294967295,
    "201402796": 4294967295,
    "201402797": 4294967295,
    "201402798": 4294967295,
    "201402799": 4294967295,
    "201402801": 4294967295,
    "201402802": 4294967295,
    "201402806": 4294967295,
    "201402807": 4294967295,
    "201402808": 4294967295,
    "201404176": 4294967295,
    "201405344": 4294967295,
    "201405347": 4294967295,
    "201406317": 1073561585,
    "201406318": 1073692671,
    "201406319": 1073676288,
    "201406320": 4294934527,
    "201406635": 4294967295,
    "201407332": 4294967295,
    "201407333": 4294967295,
    "201407334": 4294967295,
    "201407335": 4294967295,
    "201407338": 4294967295,
    "201407365": 4294967295,
    "201407366": 4294967295,
    "201407507": 4294967295,
    "201408281": 4294967295,
    "201408282": 4294967295,
    "201408407": 4294967295,
    "201408410": 4294967295,
    "201408412": 4294967295,
    "201408418": 2147483647,
    "201408420": 268378111,
    "201408422": 4294967295,
    "201408423": 4294967295,
    "201408424": 4294967295,
    "201408425": 1073692671,
    "201408427": 536690681,
    "201408480": 4294967295,
    "201409015": 4294967295,
    "201409016": 4294967295,
    "201409017": 4294967295,
    "201409127": 4294967295,
    "201409128": 4294967295,
    "201409129": 4294967295,
    "201409130": 4294967295,
    "201409131": 4294967295,
    "201409132": 4294967295,
    "201409133": 4294967295,
    "201409135": 4294967295,
    "201409136": 4294967295,
    "201409137": 4294967295,
    "201409138": 4294967295,
    "201409139": 4294967295,
    "201409539": 33425406,
    "201409540": 33489919,
    "201409542": 4294967295,
    "201409543": 536813561,
    "201409546": 4294967295,
    "201409547": 4294967295,
    "201409786": 4294967295,
    "201409787": 4294967295,
    "201409788": 536821759,
    "201409789": 2415861757,
    "201409790": 66979838,
    "201413562": 4294967295,
    "201413563": 4294967295,
    "201413565": 4294967295,
    "201413883": 4294967295,
    "201413884": 4294967295,
    "201413976": 4294967295,
    "201413981": 4294967295,
    "201413984": 4294967295,
    "201413985": 4294967295,
    "201414731": 4294967295,
    "201414733": 4294967295,
    "201414734": 4294967295,
    "201414896": 4294967295,
    "201415076": 4294967295,
    "201415083": 4294967295,
    "201415084": 4294967295,
    "201415086": 4294967295,
    "201415087": 4294967295,
    "201415203": 4294967295,
    "201415204": 66981886,
    "201415206": 4294967295,
    "201415208": 268173312,
    "201415209": 4294967295,
    "201415210": 4294967295,
    "201415211": 4294967295,
    "201415343": 4294967295,
    "201415344": 4294967295,
    "201415345": 4294967295,
    "201415347": 4294967295,
    "201415348": 4294967295,
    "201415349": 4294967295,
    "201415351": 4294967295,
    "201415352": 4294967295,
    "201415353": 4294967295,
    "201415355": 4294967295,
    "201415356": 4294967295,
    "201415357": 4294967295,
    "201415358": 4294967295,
    "201415360": 4294934527,
    "201415361": 4294967295,
    "201415362": 4294934527,
    "201415364": 4294967295,
    "201415366": 4294967295,
    "201415367": 4294967295,
    "201415368": 4294967295,
    "201415370": 4294967295,
    "201415371": 4294967295,
    "201415372": 4294967295,
    "201415373": 4294967295,
    "201415374": 4294967295,
    "201415375": 4294967295,
    "201415376": 4294967295,
    "201415378": 4294967295,
    "201415379": 4294967295,
    "201415380": 4294967295,
    "201416281": 4294967295,
    "201416289": 4294967295,
    "201416291": 4294967295,
    "201416292": 4294967295,
    "201416393": 4294967295,
    "201416394": 134160380,
    "201416529": 4294967295,
    "201416531": 4294967295,
    "201416532": 4294967295,
    "201416533": 4294967295,
    "201416534": 4294967295,
    "201416535": 4294967295,
    "201416538": 4294967295,
    "201416539": 4294934527,
    "201416540": 4294967295,
    "201416541": 4294967295,
    "201416574": 1073709055,
    "201416575": 4294967295,
    "201416576": 4294967295,
    "201416577": 4294967295,
    "201416580": 4294967295,
    "201416581": 4294967295,
    "201416644": 4294967295,
    "201416645": 4294967295,
    "201416647": 4294967295,
    "201416648": 4294967295,
    "201416649": 4294967295,
    "201416650": 4294967295,
    "201416651": 4294967295,
    "201416652": 4294967295,
    "201416653": 4294967295,
    "201416654": 4294967295,
    "201416655": 4294967295,
    "201416656": 4294967295,
    "201416657": 4294967295,
    "201416658": 4294967295,
    "201416659": 4294967295,
    "201416660": 4294967295,
    "201416662": 4294967295,
    "201416664": 4294967295,
    "201416665": 4294967295,
    "201416666": 4294967295,
    "201416705": 4294967295,
    "201416706": 4294967295,
    "201416707": 4294967295,
    "201416708": 4294967295,
    "201416709": 1073692671,
    "201416713": 268378111,
    "201416714": 4294967295,
    "201416715": 4294967295,
    "201416716": 4294967295,
    "201416717": 4294967295,
    "201416757": 4294967295,
    "201416758": 4294967295,
    "201416759": 4294967295,
    "201416760": 4294967295,
    "201416762": 4294967295,
    "201416766": 4294967295,
    "201416767": 4294967295,
    "201416768": 4294967295,
    "201416769": 4294967295,
    "201416770": 4294967295,
    "201416771": 4294967295,
    "201416772": 4294967295,
    "201416773": 2147483647,
    "201416774": 4294967295,
    "201416775": 4294967295,
    "201416776": 4294967295,
    "201416778": 1073709055,
    "201416779": 268378111,
    "201416780": 4294967295,
    "201416781": 134156287,
    "201416782": 268374015,
    "201416783": 4294967295,
    "201416784": 4294967295,
    "201416785": 4294967295,
    "201416786": 4294967295,
    "201416787": 4294967295,
    "201416885": 4294967295,
    "201416886": 4294967295,
    "201416887": 67047423,
    "201416888": 4294967295,
    "201416889": 4294967295,
    "201416890": 4294967295,
    "201416891": 4294967295,
    "201416892": 536838143,
    "201416893": 4294967295,
    "201416894": 4294967295,
    "201416895": 4294967295,
    "201416898": 4294967295,
    "201416899": 4294967295,
    "201418638": 4294967295,
    "201418640": 4294967295,
    "201418647": 4294967295,
    "201436435": 4294967295,
    "201436436": 4294967295,
    "201436437": 4294967295,
    "201436438": 4294967295,
    "201436439": 4294967295,
    "201436440": 4294967295,
    "201436442": 4294967295,
    "201436443": 4294967295,
    "201436444": 4294967295,
    "201436445": 4294967295,
    "201436446": 4294967295,
    "201436447": 4294967295,
    "201436448": 4294967295,
    "201436450": 4294967295,
    "201436451": 4294967295,
    "201436452": 4294967295,
    "201436454": 4294967295,
    "201436467": 4294967295,
    "201440389": 268312572,
    "201458221": 4294967295,
    "201458222": 4294967295,
    "201458223": 4294967295,
    "201458224": 4294967295,
    "201458226": 4294967295,
    "201458227": 4294967295,
    "201458228": 4294967295,
    "201458229": 4294967295,
    "201458230": 4294967295,
    "201458231": 4294967295,
    "201458232": 4294967295,
    "201458255": 4294967295,
    "201458256": 4294967295,
    "201458257": 4294967295,
    "201458258": 4294967295,
    "201458338": 4294967295,
    "201458339": 4294967295,
    "201460233": 536821757,
    "201460234": 4294967295,
    "201460235": 4294967295,
    "201460236": 4294967295,
    "201460237": 4294967295,
    "201460238": 4294967295,
    "201460239": 4294967295,
    "201460240": 4294967295,
    "201460241": 4294967295,
    "201460243": 4294967295,
    "201460244": 4294967295,
    "201460245": 4294967295,
    "201460246": 4294967295,
    "201460247": 4294967295,
    "201460248": 4294967295,
    "201460249": 4294967295,
    "201460250": 4294967295,
    "201460251": 4294967295,
    "201461006": 4294967295,
    "201461007": 4294967295,
    "201461008": 4294967295,
    "201461009": 4294967295,
    "201461010": 4294967295,
    "201461011": 4294967295,
    "201461013": 4294967295,
    "201461014": 4294967295,
    "201461050": 4294967295,
    "201461448": 4294967295,
    "201461456": 4294967295,
    "201461457": 4294967295,
    "201461458": 4294967295,
    "201464785": 4294967295,
    "201464786": 4294967295,
    "201464787": 4294967295,
    "201464788": 4294967295,
    "201464789": 4294967295,
    "201464860": 4294967295,
    "201466135": 4294967295,
    "201466136": 4294967295,
    "201466138": 4294967295,
    "201466139": 4294967295,
    "201466140": 4294967295,
    "201466141": 4294967295,
    "201466142": 4294967295,
    "201466143": 4294967295,
    "201466144": 4294967295,
    "201466146": 4294967295,
    "201466148": 4294967295,
    "201466149": 4294967295,
    "201466150": 4294967295,
    "201466151": 4294967295,
    "201466152": 4294967295,
    "201466153": 4294967295,
    "201466154": 4294967295,
    "201466155": 4294967295,
    "201466156": 4294967295,
    "201466159": 4294967295,
    "201466160": 4294967295,
    "201466221": 4294967295,
    "201466222": 536838143,
    "201466567": 4294967295,
    "201466568": 4294967295,
    "201468949": 4294967295,
    "201468950": 4294967295,
    "201468951": 4294967295,
    "201469017": 4294967295,
    "201469018": 4294967295,
    "201469170": 4294967295,
    "201470699": 4294967295,
    "201470977": 4294967295,
    "201470978": 4294967295,
    "201470979": 4294967295,
    "201476109": 4294967295,
    "201477143": 4294967295,
    "201477144": 4294967295,
    "201483184": 4294967295,
    "201483392": 4294967295,
    "201483393": 4294967295,
    "201483394": 4294967295,
    "201483395": 4294967295,
    "201483396": 4294967295,
    "201483397": 4294967295,
    "201483398": 4294967295,
    "201483399": 4294967295,
    "201483400": 4294967295,
    "201483401": 4294967295,
    "201483402": 4294967295,
    "201483403": 4294967295,
    "201483404": 4294967295,
    "201483405": 4294967295,
    "201483406": 4294967295,
    "201483408": 4294967295,
    "201483409": 4294967295,
    "201483410": 4294967295,
    "201483583": 4294967295,
    "201483584": 4294967295,
    "201483585": 4294967295,
    "201483586": 4294967295,
    "201483587": 4294967295,
    "201488100": 4294967295,
    "201488101": 4294967295,
    "201488102": 2415861757,
    "201488105": 33489919,
    "201488106": 33488896,
    "201488108": 33492991,
    "201488111": 1073692671,
    "201488112": 1073709055,
    "201488113": 536690687,
    "201488114": 4294967295,
    "201488115": 4294967295,
    "201488116": 66979838,
    "201488117": 4294967295,
    "201488120": 134156287,
    "201494945": 4294967295,
    "201494946": 4294967295,
    "201494947": 4294967295,
    "201494948": 4294967295,
    "201494949": 268378111,
    "201494950": 4294967295,
    "201495398": 4294967295,
    "201495399": 4294967295,
    "201495400": 4294967295,
    "201495401": 4294967295,
    "201495402": 4294967295,
    "201495403": 4294967295,
    "201495410": 4294967295,
    "201495411": 4294967295,
    "201495412": 4294967295,
    "201495413": 4294967295,
    "201495414": 4294967295,
    "201495424": 4294967295,
    "201495425": 4294967295,
    "201495426": 2147483647,
    "201495427": 2147483647,
    "201495428": 4294967295,
    "201495429": 4294967295,
    "201495430": 536838143,
    "201495442": 4294967295,
    "201495443": 4294967295,
    "201495444": 4294967295,
    "201495445": 4294967295,
    "201495591": 4294967295,
    "201495592": 4294967295,
    "201495593": 4294967295,
    "201495594": 4294967295,
    "201495595": 4294967295,
    "201495597": 4294967295,
    "201495598": 4294967295,
    "201495695": 4294967295,
    "201495696": 4294967295,
    "201495697": 4294967295,
    "201495698": 4294967295,
    "201495719": 4294967295,
    "201500351": 4294967295,
    "201500352": 4294967295,
    "201500353": 4294967295,
    "201500354": 4294967295,
    "201500355": 4294967295,
    "201500356": 4294967295,
    "201500357": 4294967295,
    "201500358": 4294967295,
    "201500359": 4294967295,
    "201500360": 4294967295,
    "201500361": 4294967295,
    "201500362": 4294967295,
    "201500363": 4294967295,
    "201500364": 4294967295,
    "201500365": 4294967295,
    "201500366": 4294967295,
    "201500367": 4294967295,
    "201500368": 4294967295,
    "201500369": 4294967295,
    "201500370": 4294967295,
    "201500372": 4294967295,
    "201502044": 4294967295,
    "201502045": 4294967295,
    "201502046": 4294967295,
    "201502405": 4294967295,
    "201502406": 4294967295,
    "201502407": 4294967295,
    "201502408": 4294967295,
    "201502409": 4294967295,
    "201502410": 4294967295,
    "201502411": 4294967295,
    "201502412": 4294967295,
    "201502446": 4294967295,
    "201502447": 4294967295,
    "201502448": 4294967295,
    "201502449": 4294967295,
    "201502450": 4294967295,
    "201502489": 4294967295,
    "201502490": 4294967295,
    "201502491": 4294967295,
    "201502492": 4294967295,
    "201502588": 4294967295,
    "201502589": 4294967295,
    "201505011": 4294967295,
    "201505012": 4294967295,
    "201505138": 4294967295,
    "201505139": 4294967295,
    "201505140": 4294967295,
    "201505703": 4294967295,
    "201505704": 4294967295,
    "201506445": 4294967295,
    "201506981": 4294967295,
    "201507008": 4294967295,
    "201507009": 4294967295,
    "201507010": 4294967295,
    "201507022": 4294967295,
    "201507029": 4294967295,
    "201409646": 4294967295,
    "201409648": 4294967295,
    "201409650": 4294967295,
    "201409651": 4294967295,
    "201409652": 4294967295,
    "201409653": 4294967295,
    "201409656": 4294967295,
    "201409657": 4294967295,
    "201409658": 4294967295,
    "201409660": 4294967295,
    "201409666": 4294967295,
    "201409671": 4294967295,
    "201409673": 4294967295,
    "201409675": 4294967295,
    "201409677": 4294967295,
    "201409678": 4294967295,
    "201409679": 4294967295,
    "201409683": 4294967295,
    "201409685": 4294967295,
    "201409687": 4294967295,
    "201409693": 4294967295,
    "201409795": 4294967295,
    "201409796": 4294967295,
    "201409797": 4294967295,
    "201409798": 4294967295,
    "201409800": 4294967295,
    "201416299": 4294967295,
    "201416303": 4294967295,
    "201416304": 4294967295,
    "201416306": 4294967295,
    "201416307": 4294967295,
    "201416309": 4294967295,
    "201416989": 4294967295,
    "201416991": 4294967295,
    "201418649": 4294967295,
    "201418857": 4294967295,
    "201436434": 4294967295,
    "201439392": 4294967295,
    "201439393": 4294967295,
    "201439394": 4294967295,
    "201443362": 4294967295,
    "201443363": 4294967295,
    "201443364": 4294967295,
    "201443365": 4294967295,
    "201443366": 4294967295,
    "201457160": 4294967295,
    "201457161": 4294967295,
    "201457162": 4294934527,
    "201457163": 4294967295,
    "201457164": 4294967295,
    "201457165": 4294967295,
    "201457166": 4294967295,
    "201457167": 4294967295,
    "201457168": 4294967295,
    "201457169": 4294967295,
    "201457170": 4294967295,
    "201457171": 4294967295,
    "201457172": 4294967295,
    "201457173": 4294967295,
    "201457174": 4294967295,
    "201457175": 4294967295,
    "201457176": 4294967295,
    "201457205": 4294967295,
    "201457206": 4294967295,
    "201457208": 4294967295,
    "201458233": 4294918143,
    "201472219": 4294967295,
    "201472220": 4294967295,
    "201472221": 4294967295,
    "201472222": 4294967295,
    "201472223": 4294967295,
    "201472224": 4294967295,
    "201472225": 4294967295,
    "201472226": 4294967295,
    "201472227": 4294967295,
    "201472228": 4294967295,
    "201472230": 4294967295,
    "201472231": 4294967295,
    "201472233": 4294967295,
    "201472234": 4294967295,
    "201472235": 4294967295,
    "201472236": 4294967295,
    "201472237": 4294967295,
    "201476111": 4294967295,
    "201476113": 4294967295,
    "201476114": 4294967295,
    "201476115": 4294967295,
    "201476116": 4294967295,
    "201476117": 4294967295,
    "201476119": 4294967295,
    "201476121": 4294967295,
    "201483042": 4294967295,
    "201483043": 4294967295,
    "201483044": 4294967295,
    "201483045": 4294967295,
    "201483046": 4294967295,
    "201483047": 4294967295,
    "201483215": 4294967295,
    "201483216": 4294967295,
    "201483229": 4294967295,
    "201483278": 4294967295,
    "201483411": 4294967295,
    "201483412": 4294967295,
    "201483413": 4294967295,
    "201483414": 4294967295,
    "201483415": 4294967295,
    "201483416": 4294967295,
    "201483417": 4294967295,
    "201483696": 4294967295,
    "201483803": 4294967295,
    "201483804": 4294967295,
    "201483806": 4294967295,
    "201483808": 4294967295,
    "201488121": 4294967295,
    "201488123": 4294967295,
    "201488124": 4294967295,
    "201495758": 4294967295,
    "201495759": 4294967295,
    "201501794": 4294967295,
    "201501795": 4294967295,
    "201506018": 4294967295,
    "201506446": 4294967295,
    "201506488": 4294967295,
    "201509873": 4294967295,
    "201509874": 4294967295,
    "201509875": 4294967295,
    "201418714": 4294967295,
    "201418715": 4294967295,
    "201418773": 4294967295,
    "201418774": 4294967295,
    "201418775": 4294967295,
    "201418776": 4294967295,
    "201418831": 4294967295,
    "201418832": 4294967295,
    "201418833": 4294967295,
    "201418834": 4294967295,
    "201418836": 4294967295,
    "201419275": 4294967295,
    "201442448": 4294967295,
    "201442449": 4294967295,
    "201442450": 4294967295,
    "201442451": 4294967295,
    "201442452": 4294967295,
    "201442453": 4294967295,
    "201442454": 4294967295,
    "201442455": 4294967295,
    "201442456": 4294967295,
    "201442457": 4294967295,
    "201442458": 4294967295,
    "201442459": 4294967295,
    "201442460": 4294967295,
    "201442461": 4294967295,
    "201442462": 4294967295,
    "201442463": 4294967295,
    "201442464": 4294967295,
    "201442465": 4294967295,
    "201442466": 4294967295,
    "201442467": 4294967295,
    "201442468": 4294967295,
    "201442469": 4294967295,
    "201442470": 4294967295,
    "201442471": 4294967295,
    "201442472": 4294967295,
    "201442473": 4294967295,
    "201442474": 4294967295,
    "201442475": 4294967295,
    "201442476": 4294967295,
    "201442477": 4294967295,
    "201442478": 4294967295,
    "201442480": 4294967295,
    "201442481": 4294967295,
    "201442482": 4294967295,
    "201442483": 4294967295,
    "201442484": 4294967295,
    "201442486": 4294967295,
    "201442487": 4294967295,
    "201442488": 4294967295,
    "201442489": 4294967295,
    "201442490": 4294967295,
    "201442491": 4294967295,
    "201442492": 4294967295,
    "201442493": 4294967295,
    "201442494": 4294967295,
    "201442495": 4294967295,
    "201442497": 4294967295,
    "201442498": 4294967295,
    "201442499": 4294967295,
    "201442500": 4294967295,
    "201442501": 4294967295,
    "201442502": 4294967295,
    "201442503": 4294967295,
    "201442504": 4294967295,
    "201442505": 4294967295,
    "201442506": 4294967295,
    "201442507": 4294967295,
    "201442509": 4294967295,
    "201442510": 4294967295,
    "201442511": 4294967295,
    "201442512": 4294967295,
    "201442513": 4294967295,
    "201442514": 4294967295,
    "201442515": 4294967295,
    "201442516": 4294967295,
    "201442517": 4294967295,
    "201442521": 4294967295,
    "201442522": 4294967295,
    "201442523": 4294967295,
    "201442524": 4294967295,
    "201442525": 4294967295,
    "201442526": 4294967295,
    "201442527": 4294967295,
    "201442528": 4294967295,
    "201442533": 4294967295,
    "201460252": 4294967295,
    "201464793": 4294967295,
    "201464794": 4294967295,
    "201464848": 4294967295,
    "201464849": 4294967295,
    "201464850": 4294967295,
    "201464861": 4294967295,
    "201468952": 4294967295,
    "201468954": 4294967295,
    "201468955": 4294967295,
    "201469024": 4294967295,
    "201469025": 4294967295,
    "201469026": 4294967295,
    "201469171": 4294967295,
    "201469556": 4294967295,
    "201469557": 4294967295,
    "201469558": 4294967295,
    "201469559": 4294967295,
    "201469560": 536821759,
    "201469561": 4294967295,
    "201469562": 4294967295,
    "201469563": 4294967295,
    "201469564": 4294967295,
    "201469669": 4294967295,
    "201469670": 4294967295,
    "201470701": 4294967295,
    "201470702": 4294967295,
    "201470703": 4294967295,
    "201483589": 4294967295,
    "201483590": 4294967295,
    "201483697": 4294967295,
    "201483698": 4294967295,
    "201483699": 4294967295,
    "201488125": 4294967295,
    "201488126": 4294967295,
    "201488127": 4294967295,
    "201488128": 4294967295,
    "201488129": 4294967295,
    "201488130": 4294967295,
    "201488131": 4294967295,
    "201488132": 4294967295,
    "201488133": 4294967295,
    "201488134": 4294967295,
    "201488135": 4294967295,
    "201488136": 4294967295,
    "201488137": 4294967295,
    "201488138": 4294967295,
    "201488139": 4294967295,
    "201488140": 4294967295,
    "201488142": 4294967295,
    "201488212": 4294967295,
    "201488213": 4294967295,
    "201488214": 4294967295,
    "201488215": 4294967295,
    "201488216": 4294967295,
    "201488217": 4294967295,
    "201494296": 4294967295,
    "201494297": 4294967295,
    "201494298": 4294967295,
    "201494299": 4294967295,
    "201494300": 4294967295,
    "201494301": 4294967295,
    "201494302": 4294967295,
    "201494303": 4294967295,
    "201494304": 4294967295,
    "201494814": 4294967295,
    "201494815": 4294967295,
    "201494816": 4294967295,
    "201494827": 4294967295,
    "201494828": 4294967295,
    "201495533": 4294967295,
    "201495554": 4294967295,
    "201495555": 4294967295,
    "201495599": 4294967295,
    "201495600": 4294967295,
    "201502451": 4294967295,
    "201502711": 4294967295,
    "201502753": 4294967295,
    "201510320": 4294967295,
    "201348289": 4294967295,
    "201348291": 4294967295,
    "201348295": 4294967295,
    "201348297": 4294967295,
    "201348301": 4294967295,
    "201348306": 4294967295,
    "201348307": 4294967295,
    "201352705": 4294967295,
    "201352707": 4294967295,
    "201352708": 4294967295,
    "201483418": 4294967295,
    "201506989": 4294967295,
    "201378429": 4294967295,
    "201398236": 4294967295,
    "201398237": 4294967295,
    "201414904": 4294967295,
    "201414905": 4294967295,
    "201415437": 4294967295,
    "201415439": 4294967295,
    "201415440": 4294967295,
    "201416550": 4294967295,
    "201416551": 4294967295,
    "201419346": 4294967295,
    "201348316": 4294967295,
    "201348317": 4294967295,
    "201348318": 4294967295,
    "201348319": 4294967295,
    "201348320": 4294967295,
    "201348321": 4093640703,
    "201348322": 3355381759,
    "201348324": 4294967295,
    "201348325": 134156287,
    "201348326": 3892299775,
    "201348327": 4294967295,
    "201348329": 4294967295,
    "201348333": 3825192959,
    "201348334": 4294967295,
    "201348335": 4294967295,
    "201348336": 4294967295,
    "201348337": 3355379711,
    "201348338": 4294967295,
    "201348339": 4294967295,
    "201348340": 4294967295,
    "201348341": 4294967295,
    "201348343": 134160383,
    "201353387": 4294967295,
    "201353388": 3355379711,
    "201353389": 3221225472,
    "201359646": 4294967295,
    "201359647": 4294967295,
    "201408482": 4294967295,
    "201409554": 4294967295,
    "201409776": 2214531071,
    "201414740": 4294967295,
    "201505991": 134156287,
    "201348346": 536838143,
    "201348347": 4294967295,
    "201348352": 4294967295,
    "201348353": 4294967295,
    "201348354": 4294967295,
    "201348355": 4294967295,
    "201348356": 4294967295,
    "201348357": 4293918719,
    "201348358": 4294967295,
    "201348359": 4294967295,
    "201348360": 4294967295,
    "201348361": 4294934527,
    "201348362": 4294967295,
    "201348363": 4294967295,
    "201348364": 4294967295,
    "201348366": 4294967295,
    "201348367": 4294967295,
    "201348369": 4294967295,
    "201348370": 4294967295,
    "201348375": 536838143,
    "201348378": 3825201151,
    "201348380": 4294967295,
    "201348382": 536805376,
    "201348387": 536838143,
    "201348390": 4294967295,
    "201348391": 4294967295,
    "201348393": 4294967295,
    "201348394": 4294967295,
    "201348396": 2147450879,
    "201348399": 4294967295,
    "201348400": 4293918719,
    "201348401": 4294967295,
    "201348404": 4294967295,
    "201348405": 4294967295,
    "201348407": 4294967295,
    "201348409": 4294967295,
    "201348410": 4294967295,
    "201348414": 4294967295,
    "201348419": 4294967295,
    "201348425": 4294967295,
    "201348427": 536838143,
    "201348428": 4026523647,
    "201348431": 4294967295,
    "201398719": 4294967295,
    "201404177": 4294967295,
    "201405355": 4293885951,
    "201405356": 134156287,
    "201405357": 4294967295,
    "201405359": 4294967295,
    "201405362": 4294967295,
    "201405364": 4294934527,
    "201405366": 4294967295,
    "201405370": 536838143,
    "201405375": 536821759,
    "201405377": 1073709055,
    "201407341": 4294967295,
    "201407342": 4294967295,
    "201407343": 4294967295,
    "201407344": 4294967295,
    "201407525": 4294967295,
    "201407526": 4294967295,
    "201409777": 4294967295,
    "201416552": 4294967295,
    "201416553": 4294967295,
    "201416718": 536838143,
    "201416719": 4294967295,
    "201444697": 4294967295,
    "201464795": 4294967295,
    "201464796": 4294967295,
    "201464797": 4294967295,
    "201464864": 1073709055,
    "201468956": 4294934527,
    "201481123": 4294967295,
    "201481124": 4294967295,
    "201506019": 4294967295,
    "201506476": 4294967295,
    "201348432": 4294967295,
    "201348441": 4294967295,
    "201348447": 3221225471,
    "201348448": 4294967295,
    "201348449": 4294967295,
    "201348450": 4294967295,
    "201348452": 4294967295,
    "201348453": 4294967295,
    "201348455": 4294967295,
    "201348460": 4294967295,
    "201348467": 4294967295,
    "201348471": 4294967295,
    "201348472": 4294967295,
    "201348482": 4294967295,
    "201348484": 4294967295,
    "201348487": 268378111,
    "201349404": 67047423,
    "201353392": 4294967295,
    "201353393": 4294967295,
    "201356302": 4294967295,
    "201356303": 4294967295,
    "201356304": 4294967295,
    "201356306": 4294967295,
    "201356307": 4294967295,
    "201356308": 4294967295,
    "201356310": 4294967295,
    "201356311": 4294967295,
    "201356314": 4294967295,
    "201356319": 4294967295,
    "201356320": 4294967295,
    "201356321": 4294967295,
    "201356323": 4294967295,
    "201356328": 4294967295,
    "201356329": 4294967295,
    "201356330": 4294967295,
    "201356331": 4294967295,
    "201359648": 4294967295,
    "201359649": 4294967295,
    "201359650": 4294967295,
    "201359651": 4294967295,
    "201389740": 67047423,
    "201390501": 4294967295,
    "201390502": 4294967295,
    "201390504": 4294967295,
    "201390505": 4294967295,
    "201390507": 4294967295,
    "201390508": 4294967295,
    "201390512": 4294967295,
    "201390513": 4294967295,
    "201390514": 4294967295,
    "201391263": 4294967295,
    "201391264": 4294967295,
    "201391265": 4294967295,
    "201392044": 4294967295,
    "201392046": 4294967295,
    "201392047": 4294967295,
    "201392048": 4294967295,
    "201392049": 4294967295,
    "201398196": 536690687,
    "201398197": 268312573,
    "201398249": 4294967295,
    "201405380": 4294967295,
    "201407346": 4294967295,
    "201407347": 4294967295,
    "201407348": 4294967295,
    "201407350": 4294967295,
    "201407367": 4294967295,
    "201407369": 4294967295,
    "201407371": 4294967295,
    "201506477": 4294967295,
    "201506478": 4294967295,
    "201506926": 4294967295,
    "201407370": 4294967295,
    "201407527": 4294967295,
    "201408222": 4294967295,
    "201408223": 4294967295,
    "201408224": 4294967295,
    "201408225": 4294967295,
    "201408491": 4294967295,
    "201408492": 4294967295,
    "201408493": 4294967295,
    "201408494": 4294967295,
    "201409019": 4294967295,
    "201474720": 4294967295,
    "201509876": 4294967295,
    "201408496": 4294967295,
    "201408498": 4294967295,
    "201408499": 4294967295,
    "201409043": 4294967295,
    "201409555": 4294967295,
    "201409557": 4294967295,
    "201419349": 4294967295,
    "201506448": 4294967295,
    "201506927": 4294967295,
    "201409774": 4294967295,
    "201413634": 4294967295,
    "201414088": 4294967295,
    "201414907": 4294967295,
    "201414997": 4294967295,
    "201415384": 4294967295,
    "201416720": 4294967295,
    "201416789": 3758079999,
    "201416790": 536821759,
    "201416995": 4294967295,
    "201416996": 4294967295,
    "201416997": 4294967295,
    "201419347": 4294967295,
    "201419350": 4294967295,
    "201419351": 4294967295,
    "201440423": 4294967295,
    "201457218": 4294967295,
    "201460253": 4294967295,
    "201460255": 4294967295,
    "201461449": 4294967295,
    "201461450": 4294967295,
    "201461451": 4294967295,
    "201468957": 4294967295,
    "201480128": 4294967295,
    "201496338": 4294967295,
    "201496339": 2147483647,
    "201496340": 4294967295,
    "201496341": 4294967295,
    "201496342": 4294967295,
    "201496343": 4294967295,
    "201496344": 4294967295,
    "201496345": 4294967295,
    "201496346": 4294967295,
    "201496348": 4294967295,
    "201496350": 4294967295,
    "201496352": 4294967295,
    "201496353": 4294967295,
    "201496354": 2147483647,
    "201496355": 4294967295,
    "201496357": 4294967295,
    "201496358": 4294967295,
    "201496359": 4294967295,
    "201496361": 4294967295,
    "201496362": 4294967295,
    "201496364": 4294967295,
    "201496365": 4294967295,
    "201496366": 4294967295,
    "201502718": 4294967295,
    "201502754": 4294967295,
    "201506400": 4294967295,
    "201506928": 4294967295,
    "201506998": 4294967295,
    "201348631": 4294967295,
    "201348632": 4294967295,
    "201348633": 4294967295,
    "201348634": 4294967295,
    "201348635": 4294967295,
    "201348636": 4294967295,
    "201348637": 4294967295,
    "201348642": 1073709055,
    "201348643": 3221192703,
    "201348644": 4294967295,
    "201348658": 4294967295,
    "201348659": 4294967295,
    "201348660": 4294967295,
    "201348661": 4294967295,
    "201348662": 4294967295,
    "201348663": 4294967295,
    "201348665": 268378111,
    "201348666": 4294967295,
    "201348672": 4294967295,
    "201348673": 4294967295,
    "201348681": 4294967295,
    "201348690": 4294967295,
    "201348691": 4294967295,
    "201348692": 4294967295,
    "201348693": 4294967295,
    "201348699": 1073709055,
    "201348702": 4294967295,
    "201348703": 4294967295,
    "201348704": 4294967295,
    "201348705": 4294967295,
    "201348706": 4294967295,
    "201348707": 4294967295,
    "201348718": 4294967295,
    "201348719": 4294967283,
    "201348720": 4294967295,
    "201348721": 4294967295,
    "201348722": 4294967295,
    "201348725": 268378111,
    "201348734": 536838143,
    "201348739": 1073250289,
    "201348740": 1073512435,
    "201348742": 4294967295,
    "201348747": 1073709055,
    "201348750": 2415861759,
    "201348751": 4294967295,
    "201348759": 268378111,
    "201348765": 4294967295,
    "201348766": 4294967295,
    "201348770": 4294967295,
    "201348786": 4294967295,
    "201348787": 4294967295,
    "201348790": 4294967295,
    "201348791": 4294967295,
    "201348792": 4294967295,
    "201348793": 4294967295,
    "201348795": 4294967295,
    "201348796": 4294967295,
    "201348809": 4294967295,
    "201348819": 4294967295,
    "201348821": 4294967295,
    "201348822": 4294967295,
    "201348823": 4294967295,
    "201348824": 4294967295,
    "201348825": 4294967295,
    "201348828": 4294967295,
    "201348831": 4294967295,
    "201348832": 4294967295,
    "201348833": 4294967295,
    "201348837": 134156287,
    "201348840": 4294967295,
    "201348841": 4294967295,
    "201348860": 4294967295,
    "201348863": 4294967295,
    "201348864": 4294967295,
    "201348867": 4294967295,
    "201353394": 4294967295,
    "201391266": 4294967295,
    "201391267": 4294967295,
    "201391268": 4294967295,
    "201391269": 4294967295,
    "201391270": 4294967295,
    "201391271": 4294967295,
    "201392890": 4294967295,
    "201405384": 4294967295,
    "201405385": 4294967295,
    "201405386": 4294967295,
    "201405387": 4294967295,
    "201405388": 4294967295,
    "201405389": 4294967295,
    "201405390": 4294967295,
    "201407353": 4294967295,
    "201407354": 4294967295,
    "201407355": 4293918719,
    "201407356": 4294967295,
    "201407357": 2147450879,
    "201407358": 4294934527,
    "201407359": 4294967295,
    "201407360": 4294967295,
    "201407361": 4294967295,
    "201407362": 4294967295,
    "201407363": 4294967295,
    "201407529": 268378111,
    "201407531": 4294967295,
    "201407533": 4026515455,
    "201408304": 4294967295,
    "201408305": 4294967295,
    "201408306": 4294967295,
    "201408307": 4294967295,
    "201414908": 4294967295,
    "201408429": 4294967295,
    "201415387": 1073709055,
    "201415388": 1073709055,
    "201416556": 4294967295,
    "201419352": 2147483647,
    "201419353": 4294967295,
    "201431680": 4294967295,
    "201495446": 536821759,
    "201502923": 268386303,
    "201504094": 4294967295,
    "201505992": 4294967295,
    "201505993": 4294967295,
    "201505994": 4294967295,
    "201506002": 4294967295,
    "201506076": 4294967295,
    "201506197": 4294967295,
    "201506296": 4294967295,
    "201506449": 1073709055,
    "201506450": 2147450879,
    "201506458": 4294967295,
    "201348842": 16715774,
    "201348843": 268181496,
    "201348844": 536756223,
    "201348852": 1073299455,
    "201348857": 33489919,
    "201348862": 268312572,
    "201348871": 4294967295,
    "201348872": 268378111,
    "201348873": 4294967295,
    "201348874": 4294967295,
    "201348876": 4294967295,
    "201348877": 2684297215,
    "201348878": 4294967295,
    "201348881": 4294967295,
    "201348882": 4294967295,
    "201348883": 4294967295,
    "201348884": 4026523647,
    "201348885": 4294967295,
    "201348886": 4294967293,
    "201391272": 268378111,
    "201474721": 2147287035,
    "201506479": 536690687,
    "201356156": 4294967295,
    "201356157": 4294967295,
    "201356158": 4294967295,
    "201356159": 4294967295,
    "201356160": 4294967295,
    "201356161": 3489644543,
    "201356162": 4294967295,
    "201356163": 4294967295,
    "201356164": 4294967295,
    "201356165": 4294967295,
    "201356166": 4294967295,
    "201356167": 4294967295,
    "201356168": 4294967295,
    "201356169": 4294967295,
    "201356170": 4294967295,
    "201356171": 4294967295,
    "201356174": 4294967295,
    "201356178": 4294967295,
    "201356179": 4294967295,
    "201356184": 4294967295,
    "201356185": 4294967295,
    "201356186": 4294967295,
    "201356188": 4294180847,
    "201356189": 4294967295,
    "201356191": 4294967295,
    "201356193": 4294967295,
    "201356194": 4294967295,
    "201356195": 4294967295,
    "201356196": 4294967295,
    "201356198": 4294967295,
    "201356199": 4294967295,
    "201356200": 4294967295,
    "201356202": 4294967295,
    "201356203": 3758096383,
    "201356204": 4294967295,
    "201356205": 2684305407,
    "201356206": 2684305407,
    "201356207": 4294967295,
    "201356208": 4294967295,
    "201356209": 4294967295,
    "201356210": 4294967295,
    "201356211": 4294967295,
    "201356213": 4294967295,
    "201356215": 4294967295,
    "201356216": 1073709055,
    "201356217": 4293918719,
    "201356218": 4294967295,
    "201356219": 4294967295,
    "201356220": 4294967295,
    "201356221": 4294967295,
    "201356222": 4294967295,
    "201356223": 4294967295,
    "201356224": 4294967295,
    "201356225": 4294967295,
    "201356230": 4294049791,
    "201356231": 4294934527,
    "201356233": 4294967295,
    "201356234": 4294967295,
    "201356236": 4294934527,
    "201356237": 4294967295,
    "201356239": 1073709055,
    "201356244": 4294967295,
    "201356245": 4294967295,
    "201356246": 4294967295,
    "201356247": 4294967295,
    "201356249": 4294967295,
    "201356250": 4294967295,
    "201356251": 4294967295,
    "201356252": 4294967295,
    "201356253": 4294967295,
    "201356254": 4294967295,
    "201356256": 4294967295,
    "201356257": 4294967295,
    "201356258": 4294967295,
    "201356259": 4294967295,
    "201356260": 4294967295,
    "201356261": 4294967295,
    "201356262": 1073709055,
    "201356263": 1073709055,
    "201356265": 4294901760,
    "201356266": 4294918143,
    "201356269": 4294967295,
    "201356270": 4294967295,
    "201356271": 4294967295,
    "201356272": 4294967295,
    "201356273": 4294967295,
    "201356275": 4294967295,
    "201356276": 4294967295,
    "201356277": 4294967295,
    "201356278": 4294967295,
    "201356279": 4294967295,
    "201356280": 3489644543,
    "201356281": 4294967295,
    "201356282": 4294049767,
    "201356283": 4294574055,
    "201356284": 4294967295,
    "201356285": 4294967295,
    "201356286": 4294967295,
    "201356287": 4294967295,
    "201356288": 4294967295,
    "201356289": 4293361663,
    "201356290": 4294967295,
    "201356291": 4294967295,
    "201356292": 4294967295,
    "201356293": 4294967295,
    "201356294": 4294967295,
    "201356295": 4294967295,
    "201356296": 4294967295,
    "201356297": 4294967295,
    "201356300": 4294967295,
    "201356301": 4294967295,
    "201359653": 4294967295,
    "201359654": 2684305407,
    "201398427": 4294967295,
    "201402699": 4294967295,
    "201404198": 4294967295,
    "201404199": 4294967295,
    "201404200": 4294967295,
    "201406322": 4294967295,
    "201413566": 2415869951,
    "201413567": 4294967295,
    "201413635": 4294967295,
    "201413636": 4294967295,
    "201413637": 4294967295,
    "201413638": 4294967295,
    "201414322": 4294967295,
    "201415389": 4294967295,
    "201415391": 4294967295,
    "201415392": 4294967295,
    "201415393": 4294967295,
    "201415394": 4294967295,
    "201415395": 4294967295,
    "201415400": 4294967295,
    "201431681": 4294967295,
    "201433054": 4294967295,
    "201457180": 1073709055,
    "201457181": 1073709055,
    "201457182": 4294967295,
    "201460256": 4294967295,
    "201482882": 4294967295,
    "201482883": 4294967295,
    "201505995": 4294967295,
    "201505996": 4294967295,
    "201506003": 4294967295,
    "201506004": 4294967295,
    "201506077": 4294967295,
    "201506451": 4294967295,
    "201510491": 536838143,
    "201382422": 4294967295,
    "201409577": 4294901759,
    "201409578": 4294967295,
    "201409579": 4294967295,
    "201409580": 4294967295,
    "201409581": 4294967295,
    "201409582": 4294967295,
    "201409583": 4294967295,
    "201409584": 4294967295,
    "201409585": 4294967295,
    "201409589": 4294967295,
    "201416315": 4294967295,
    "201416316": 4294967295,
    "201482884": 4294967295,
    "201482886": 4294967295,
    "201482887": 4294967295,
    "201483027": 4294967295,
    "201409835": 16712703,
    "201409875": 4294967295,
    "201409876": 4294967295,
    "201409893": 4294967295,
    "201409894": 4294967295,
    "201409897": 4294967295,
    "201409898": 4294967295,
    "201409899": 4294967295,
    "201419354": 1073709055,
    "201409909": 133955584,
    "201409911": 33425406,
    "201409912": 33425406,
    "201409916": 16713726,
    "201409917": 4294967295,
    "201409922": 4294967295,
    "201409923": 134156287,
    "201409924": 33425406,
    "201409925": 16711680,
    "201409926": 16712703,
    "201409927": 16712703,
    "201506480": 4294967295,
    "201414406": 4294967295,
    "201414407": 4294967295,
    "201414408": 4294967295,
    "201414409": 4294967295,
    "201414410": 4294967295,
    "201414411": 4294967295,
    "201415408": 4294967295,
    "201497415": 4294967295,
    "201497417": 4294967295,
    "201497418": 4294967295,
    "201497419": 4294967295,
    "201497420": 4294967295,
    "201497425": 4294967295,
    "201497427": 4294967295,
    "201497429": 4294967295,
    "201505895": 4294967295,
    "201505896": 4294967295,
    "201505897": 4294967295,
    "201505898": 4294967295,
    "201505899": 4294967295,
    "201505900": 4294967295,
    "201416327": 4294967295,
    "201433055": 33489407,
    "201449952": 16712703,
    "201457214": 4294967295,
    "201457215": 4294967295,
    "201457216": 4294967295,
    "201457217": 4294967295,
    "201495149": 4294967295,
    "201495150": 4294967295,
    "201495151": 4294967295,
    "201495152": 4294967295,
    "201495153": 4294967295,
    "201495154": 4294967295,
    "201495155": 4294967295,
    "201495156": 4294967295,
    "201495157": 4294967295,
    "201495158": 4294967295,
    "201495159": 4294967295,
    "201495160": 4294967295,
    "201495161": 4294967295,
    "201495162": 4294967295,
    "201495163": 4294967295,
    "201495164": 4294967295,
    "201495165": 4294967295,
    "201495166": 4294967295,
    "201495167": 4294967295,
    "201495168": 4294967295,
    "201495169": 4294967295,
    "201495170": 4294967295,
    "201495171": 4294967295,
    "201495172": 4294967295,
    "201495173": 4294967295,
    "201495174": 4294967295,
    "201495175": 4294967295,
    "201495176": 4294967295,
    "201495177": 4294967295,
    "201495178": 4294967295,
    "201495179": 4294967295,
    "201495180": 4294967295,
    "201495181": 4294967295,
    "201495182": 4294967295,
    "201495183": 4294967295,
    "201495184": 4294967295,
    "201495185": 4294967295,
    "201495186": 4294967295,
    "201495187": 4294967295,
    "201495188": 4294967295,
    "201495189": 4294967295,
    "201495190": 4294967295,
    "201495191": 4294967295,
    "201495192": 4294967295,
    "201495193": 4294967295,
    "201495194": 4294967295,
    "201495195": 4294967295,
    "201495196": 4294967295,
    "201495197": 4294967295,
    "201495198": 4294967295,
    "201495199": 4294967295,
    "201495200": 16712703,
    "201495201": 4294967295,
    "201495202": 4294967295,
    "201495237": 4294967295,
    "201495238": 4294967295,
    "201495239": 4294967295,
    "201495240": 4294967295,
    "201495241": 4294967295,
    "201495242": 4294967295,
    "201495243": 4294967295,
    "201495244": 4294967295,
    "201495245": 4294967295,
    "201495246": 4294967295,
    "201495247": 4294967295,
    "201495248": 4294967295,
    "201495249": 4294967295,
    "201495250": 4294967295,
    "201495251": 4294967295,
    "201495252": 4294967295,
    "201495136": 4294967295,
    "201495137": 4294967295,
    "201495138": 4294967295,
    "201495139": 4294967295,
    "201495140": 4294967295,
    "201495141": 4294967295,
    "201495142": 4294967295,
    "201495144": 4294967295,
    "201495146": 4294967295,
    "201495147": 4294967295,
    "201495148": 4294967295,
    "201495203": 4294967295,
    "201495204": 4294967295,
    "201495205": 4294967295,
    "201495206": 4294967295,
    "201495207": 4294967295,
    "201495208": 4294967295,
    "201495209": 4294967295,
    "201495210": 4294967295,
    "201495211": 4294967295,
    "201495212": 4294967295,
    "201495213": 4294967295,
    "201495214": 4294967295,
    "201495215": 4294967295,
    "201495216": 4294967295,
    "201495217": 4294967295,
    "201495218": 4294967295,
    "201495219": 4294967295,
    "201495220": 4294967295,
    "201495221": 4294967295,
    "201495222": 4294967295,
    "201495223": 4294967295,
    "201495224": 4294967295,
    "201495225": 4294967295,
    "201495226": 4294967295,
    "201495227": 4294967295,
    "201495228": 4294967295,
    "201495229": 4294967295,
    "201495230": 4294967295,
    "201495231": 4294967295,
    "201495232": 4294967295,
    "201495233": 4294967295,
    "201495234": 4294967295,
    "201495235": 4294967295,
    "201495236": 4294967295,
    "201495253": 4294967295,
    "201495254": 4294967295,
    "201495255": 4294967295,
    "201495256": 4294967295,
    "201495257": 4294967295,
    "201495258": 4294967295,
    "201495259": 4294967295,
    "201495260": 4294967295,
    "201495261": 4294967295,
    "201495262": 4294967295,
    "201495263": 4294967295,
    "201495264": 4294967295,
    "201495265": 4294967295,
    "201495266": 4294967295,
    "201495267": 4294967295,
    "201495268": 4294967295,
    "201495269": 4294967295,
    "201495270": 4294967295,
    "201495271": 4294967295,
    "201495272": 4294967295,
    "201495273": 4294967295,
    "201495274": 4294967295,
    "201495275": 4294967295,
    "201495276": 4294967295,
    "201495277": 4294967295,
    "201495278": 4294967295,
    "201496383": 4294967295,
    "201505706": 4294967295,
    "201505707": 4294967295,
    "201480102": 4294967295,
    "201480112": 4294967295,
    "201480114": 4294967295,
    "201480116": 4294967295,
    "201480117": 4294967295,
    "201480130": 4294967295,
    "201480132": 4294967295,
    "201480134": 4294967295,
    "201497421": 4294967295,
    "201497422": 4294967295,
    "201505141": 4294967295,
    "201505142": 4294967295,
    "201505143": 4294967295,
    "201505997": 33489407,
    "201349000": 4294442880,
    "201372034": 4294967295,
    "201404283": 2281639935,
    "201415411": 268378111,
    "201445268": 4294967295,
    "201445269": 67047423,
    "201445271": 4294967295,
    "201445272": 16712703,
    "201445275": 4294967295,
    "201445276": 4294967295,
    "201445277": 4294967295,
    "201445278": 4294967295,
    "201445280": 3222192255,
    "201445282": 4162740351,
    "201445283": 4294967295,
    "201445284": 4294967295,
    "201445289": 4294967295,
    "201445291": 33489407,
    "201445294": 1073709055,
    "201445295": 1073709055,
    "201445296": 268378111,
    "201445297": 1073217536,
    "201445298": 4294967295,
    "201445300": 4294967295,
    "201445301": 1879048192,
    "201445302": 4294967295,
    "201445303": 4261443584,
    "201445305": 4294967295,
    "201445306": 4294967295,
    "201445307": 4291297025,
    "201445308": 4294967295,
    "201445310": 4162744447,
    "201445312": 1073692671,
    "201445314": 1073709055,
    "201445317": 2415460352,
    "201445318": 134086656,
    "201445319": 4293001153,
    "201445323": 4294967295,
    "201445324": 1207697408,
    "201445326": 536821759,
    "201459506": 4294967295,
    "201464801": 536821758,
    "201464802": 2684305407,
    "201464803": 4294967295,
    "201469565": 2147483647,
    "201469567": 4294967295,
    "201482806": 917504,
    "201483123": 4294967295,
    "201483421": 536821759,
    "201483422": 4294967295,
    "201483423": 134160382,
    "201483424": 4294967295,
    "201483425": 4294967295,
    "201483426": 268378111,
    "201483427": 4294967295,
    "201483428": 4294967295,
    "201494951": 4261412864,
    "201494952": 4287102976,
    "201495396": 520108032,
    "201505705": 4294967295,
    "201506991": 4294967041,
    "201510217": 4286610435,
    "201510218": 4280287231,
    "201409608": 4059979779,
    "201445329": 4294967295,
    "201445330": 3783278592,
    "201445331": 3758112769,
    "201445332": 520237057,
    "201445333": 1073741824,
    "201445334": 4294967233,
    "201445336": 4294967295,
    "201445337": 4293950982,
    "201445338": 4286578688,
    "201445339": 1073643512,
    "201445341": 4294967295,
    "201445342": 4294901758,
    "201457183": 4294443008,
    "201459507": 4294901756,
    "201459511": 4294967295,
    "201459512": 4294180655,
    "201459514": 3489603583,
    "201482946": 4294967295,
    "201482947": 4294967295,
    "201506425": 4294967295,
    "201506489": 4294967295,
    "201457151": 4294967295,
    "201458235": 4294967295,
    "201458236": 4294967295,
    "201458237": 4294967295,
    "201458238": 4294967295,
    "201458239": 4294967295,
    "201458240": 4294967295,
    "201458241": 4294967295,
    "201458242": 4294967295,
    "201458243": 4294967295,
    "201458244": 4294967295,
    "201458245": 4294967295,
    "201458246": 4294967295,
    "201458247": 4294967295,
    "201458248": 4294967295,
    "201458340": 4294967295,
    "201458341": 4294967295,
    "201460257": 4294967295,
    "201460258": 4294967295,
    "201460259": 4294967295,
    "201460261": 4294967295,
    "201461018": 4294967295,
    "201461453": 4294967295,
    "201461459": 4294967295,
    "201461460": 4294967295,
    "201462829": 4294967295,
    "201462832": 4294967295,
    "201464805": 4294967295,
    "201464813": 4294967295,
    "201464816": 4294967295,
    "201464817": 4294967295,
    "201464818": 4294967295,
    "201464819": 4294967295,
    "201464820": 4294967295,
    "201464821": 4294967295,
    "201464852": 4294967295,
    "201464866": 4294967295,
    "201464867": 4294967295,
    "201464868": 4294967295,
    "201466228": 4294967295,
    "201466569": 4294967295,
    "201466570": 4294967295,
    "201466571": 4294967295,
    "201466572": 4294967295,
    "201466573": 4294967295,
    "201466574": 4294967295,
    "201466575": 4294967295,
    "201466576": 4294967295,
    "201466580": 4294967295,
    "201466581": 4294967295,
    "201466585": 4294967295,
    "201466590": 4294967295,
    "201466591": 4294967295,
    "201468972": 4294967295,
    "201469043": 4294967295,
    "201469045": 4294967295,
    "201469046": 4294967295,
    "201469047": 4294967295,
    "201469048": 4294967295,
    "201474722": 4294967295,
    "201483056": 4294967295,
    "201483057": 4294967295,
    "201483079": 4294967295,
    "201483080": 4294967295,
    "201483125": 4294967295,
    "201483703": 4294967295,
    "201488145": 4294967295,
    "201495415": 4294967295,
    "201499526": 4294967295,
    "201499528": 4294967295,
    "201499529": 4294967295,
    "201501833": 4294967295,
    "201502056": 4294967295,
    "201409571": 4294967295,
    "201409572": 4294967295,
    "201409573": 4294967295,
    "201409574": 4294967295,
    "201409698": 4294967295,
    "201413997": 4294967295,
    "201414015": 4294967295,
    "201414016": 4294967295,
    "201414095": 16712703,
    "201414097": 4294967295,
    "201414314": 4294967295,
    "201414750": 4294967295,
    "201414752": 4294967295,
    "201414922": 4294967295,
    "201414992": 4294967295,
    "201415101": 4294967295,
    "201415106": 4294967295,
    "201415218": 4294967295,
    "201415450": 4294967295,
    "201415451": 4294967295,
    "201415474": 536821759,
    "201416558": 4294967295,
    "201416677": 4294967295,
    "201416678": 4294967295,
    "201416722": 4294967295,
    "201416723": 4294967295,
    "201416725": 4294967295,
    "201416908": 4294967295,
    "201417008": 4294967295,
    "201417009": 4294967295,
    "201431687": 4294967295,
    "201431688": 4294967295,
    "201431689": 4294967295,
    "201431690": 4294967295,
    "201431692": 4294967295,
    "201431693": 4294967295,
    "201431694": 4294967295,
    "201431695": 4294967295,
    "201431696": 4294967295,
    "201431697": 4294967295,
    "201431698": 4294967295,
    "201431701": 4294967295,
    "201431702": 4294967295,
    "201431704": 2415869951,
    "201431705": 4294967295,
    "201431706": 4294967295,
    "201431707": 4294967295,
    "201431709": 4294967295,
    "201431712": 4294967295,
    "201431713": 4294967295,
    "201431714": 4294967295,
    "201440424": 4294967295,
    "201457190": 4294967295,
    "201457191": 4294967295,
    "201457192": 4294918143,
    "201457194": 4294967295,
    "201457196": 4294967295,
    "201457197": 4294967295,
    "201457199": 4294967295,
    "201457200": 4294918143,
    "201457211": 4294967295,
    "201483049": 4294967295,
    "201483050": 4294967295,
    "201506929": 4294967295,
    "201509878": 4294967295,
    "201509879": 4294967295,
    "201509884": 4294967295,
    "201510181": 4294967295,
    "201457213": 4294967295,
    "201458252": 4294967295,
    "201458253": 4294967295,
    "201460265": 4294967295,
    "201460266": 4294967295,
    "201460267": 4294967295,
    "201461024": 4294967295,
    "201461025": 4294967295,
    "201461026": 4294967295,
    "201464853": 4294967295,
    "201464854": 4294967295,
    "201466164": 4294967295,
    "201466168": 4294967295,
    "201466597": 4294967295,
    "201469570": 536821759,
    "201469571": 134153215,
    "201469575": 4294967295,
    "201469576": 4294967295,
    "201470704": 4294967295,
    "201470706": 4294967295,
    "201482807": 4294967295,
    "201483028": 4294967295,
    "201483029": 4294967295,
    "201483187": 4294967295,
    "201483284": 4294967295,
    "201483438": 4294967295,
    "201483441": 4294967295,
    "201483442": 4294967295,
    "201483443": 4294967295,
    "201483444": 3355414527,
    "201483595": 4294967295,
    "201483596": 4294967295,
    "201483704": 4294967295,
    "201488146": 4294967295,
    "201488147": 4294967295,
    "201494953": 4294967295,
    "201495431": 4294967295,
    "201495548": 4294967295,
    "201495552": 4294967295,
    "201495601": 4294967295,
    "201495602": 4294967295,
    "201495603": 4294967295,
    "201495604": 4294967295,
    "201495605": 4294967295,
    "201495699": 4294967295,
    "201502047": 4294967295,
    "201502048": 4294967295,
    "201502050": 4294967295,
    "201502051": 4294967295,
    "201502278": 4294967295,
    "201502279": 4294967295,
    "201502416": 4294967295,
    "201502417": 4294967295,
    "201502418": 4294967295,
    "201502419": 4294967295,
    "201502420": 4294967295,
    "201502421": 4294967295,
    "201502454": 4294967295,
    "201502455": 4294967295,
    "201502456": 4294967295,
    "201502457": 4294967295,
    "201502720": 4294967295,
    "201502721": 4294967295,
    "201502722": 4294967295,
    "201502756": 4294967295,
    "201502757": 4294967295,
    "201502758": 4294967295,
    "201502759": 4294967295,
    "201502760": 4294967295,
    "201502761": 4294967295,
    "201505014": 4294967295,
    "201505998": 4294967295,
    "201506005": 4294967295,
    "201506006": 4294967295,
    "201506078": 4294967295,
    "201506180": 4294967295,
    "201506181": 4294967295,
    "201506198": 4294967295,
    "201506199": 4294967295,
    "201506200": 4294967295,
    "201506459": 4294967295,
    "201506460": 4294967295,
    "201506461": 16712703,
    "201506462": 134156287,
    "201506481": 4294967295,
    "201506482": 4294967295,
    "201506930": 4294967295,
    "201506982": 4294967295,
    "201506983": 4294967295,
    "201506993": 4294967295,
    "201506994": 4294967295,
    "201507023": 4294967295,
    "201507024": 4294967295,
    "201509880": 4294967295,
    "201509886": 4294967295,
    "201510182": 4294967295,
    "201510274": 4294967295,
    "201510286": 4294967295,
    "201510287": 4294967295,
    "201510376": 4294967295,
    "201510451": 4294918143,
    "201510493": 4294967295,
    "201510494": 4294967295,
    "201500120": 4294967295,
    "201500121": 4294967295,
    "201500122": 4294967295,
    "201500123": 4294967295,
    "201500124": 4294967295,
    "201500125": 4294967295,
    "201500126": 4294967295,
    "201500127": 4294967295,
    "201500128": 4294967295,
    "201500129": 4294967295,
    "201500130": 4294967295,
    "201500131": 4294967295,
    "201500132": 4294967295,
    "201500133": 4294967295,
    "201500134": 4294967295,
    "201456581": 4294967295,
    "201456583": 1073709055,
    "201456584": 2147483647,
    "201456586": 4294967295,
    "201456587": 4294967295,
    "201456588": 4294967295,
    "201456589": 2147483647,
    "201456590": 4294967295,
    "201456591": 2147483647,
    "201456594": 4294967295,
    "201456595": 4294967295,
    "201456596": 268378111,
    "201456597": 2147483647,
    "201456598": 4294967295,
    "201456599": 4294967295,
    "201456600": 4294967295,
    "201456601": 4294967295,
    "201456602": 4294967295,
    "201456603": 4294967295,
    "201456604": 4294967295,
    "201456605": 268378111,
    "201456606": 4294967295,
    "201456660": 4294967295,
    "201456661": 4294967295,
    "201456662": 4294967295,
    "201456663": 4294967295,
    "201500156": 4294967295,
    "201500157": 4294967295,
    "201500158": 4294967295,
    "201475562": 4294967295,
    "201500135": 4294967295,
    "201500136": 4294967295,
    "201500137": 4294967295,
    "201500138": 4294967295,
    "201500139": 4294967295,
    "201500140": 4294967295,
    "201500141": 4294967295,
    "201500142": 4294967295,
    "201500143": 4294967295,
    "201500144": 4294967295,
    "201500145": 4294967295,
    "201500146": 4294967295,
    "201500147": 4294967295,
    "201500148": 4294967295,
    "201500149": 4294967295,
    "201500150": 4294967295,
    "201500151": 4294967295,
    "201500152": 4294967295,
    "201500153": 4294967295,
    "201500154": 4294967295,
    "201500155": 4294967295,
    "201456684": 4294967295,
    "201456685": 4294967295,
    "201456686": 4294967295,
    "201456687": 4294967295,
    "201456688": 4294967295,
    "201456689": 4294967295,
    "201456690": 4294967295,
    "201456691": 4294967295,
    "201456692": 4294967295,
    "201456693": 4294967295,
    "201456694": 4294967295,
    "201456695": 4294967295,
    "201456696": 4294967295,
    "201456697": 4294967295,
    "201456698": 4294967295,
    "201456699": 4294967295,
    "201456700": 4294967295,
    "201456701": 4294967295,
    "201456705": 4294967295,
    "201456706": 4294967295,
    "201456707": 4294967295,
    "201456708": 4294967295,
    "201456711": 4294967295,
    "201456737": 4294967295,
    "201456738": 4294967295,
    "201456739": 4294967295,
    "201456740": 4294967295,
    "201456741": 4294967295,
    "201456742": 4294967295,
    "201500159": 4294967295,
    "201500160": 4294967295,
    "201500161": 4294967295,
    "201500162": 4294967295,
    "201500163": 4294967295,
    "201500164": 4294967295,
    "201500165": 4294967295,
    "201500166": 4294967295,
    "201500167": 4294967295,
    "201500168": 4294967295,
    "201500169": 4294967295,
    "201500170": 4294967295,
    "201500171": 4294967295,
    "201500172": 4294967295,
    "201500173": 4294967295,
    "201500174": 4294967295,
    "201500175": 4294967295,
    "201500176": 4294967295,
    "201500177": 4294967295,
    "201500178": 4294967295,
    "201500179": 4294967295,
    "201500180": 4294967295,
    "201500181": 4294967295,
    "201500182": 4294967295,
    "201500183": 4294967295,
    "201500185": 4294967295
  },
  "HMJKBKBADFL": [
    {
      "HICOKGMLEOP": "Tag_2",
      "APADDJJDABP": [
        201416289,
        201416291,
        201416292,
        201436454,
        201458221,
        201483184,
        201506981,
        201409683,
        201409687,
        201409693,
        201409800,
        201416299,
        201416303,
        201416304,
        201416307,
        201416989,
        201476111,
        201476113,
        201483215,
        201483216,
        201483229,
        201483696,
        201483804,
        201483808,
        201506018,
        201416995,
        201416996,
        201416997,
        201419347,
        201496350,
        201445303,
        201482805,
        201482806,
        201458235,
        201458236,
        201462829,
        201462832,
        201502056,
        201417002,
        201417003,
        201417006,
        201483230,
        201483187
      ]
    }
  ],
  "LHLJMFFCJHB": [
    201409683,
    201409687,
    201409693,
    201416299,
    201416303,
    201416304,
    201476111,
    201483215,
    201483216,
    201483229,
    201445303,
    201482805,
    201482806
  ]
}