{
  "IOKFLCPKINN": {
    "906043149": 3758096384,
    "906043150": 4294967295,
    "906043151": 4294967295,
    "906043152": 4294967295,
    "906043153": 4294467584,
    "906043154": 268173312,
    "906043157": 4294967295,
    "906043158": 3221225472,
    "906043159": 4294967295,
    "906043186": 4294967295,
    "906043187": 4261478399,
    "906043188": 2147483648,
    "906043200": 2147483644,
    "906043202": 2147483648,
    "906043203": 3758096384,
    "906043207": 4294574079,
    "906043208": 4294967295,
    "906043210": 4294967295,
    "906043212": 4160749568,
    "906043213": 4294967295,
    "906043214": 4286644216,
    "906043284": 4294967295,
    "906043329": 4294967295,
    "906043330": 4294967295,
    "906043333": 2415656960,
    "906043334": 4294967295,
    "906043335": 4294967295,
    "906043336": 4127326207,
    "906043337": 4294967295,
    "906043338": 4294967295,
    "906043339": 4294967295,
    "906043340": 4294967295,
    "906043341": 4294967295,
    "906043342": 4294967295,
    "906043343": 2147483647,
    "906043344": 2147483647,
    "906043345": 4294967295,
    "906043346": 4294967295,
    "906043348": 3221225472,
    "906043349": 3221225472,
    "906043350": 3758096384,
    "906043353": 4294967295,
    "906043354": 4294967295,
    "906043355": 2147483647,
    "906043356": 4294967295,
    "906043357": 4294967295,
    "906043358": 4294967295,
    "906043359": 4294967295,
    "906043360": 4294967295,
    "906043361": 4294967295,
    "906043366": 2147483647,
    "906043371": 3489398784,
    "906043372": 4294705152,
    "906043374": 4294967295,
    "906043375": 3221225472,
    "906043376": 4294967295,
    "906043377": 4026400768,
    "906043378": 2415791104,
    "906043380": 3757997057,
    "906043381": 4294836224,
    "906043382": 4294836224,
    "906043383": 3221225472,
    "906043384": 3221225472,
    "906043385": 4294967295,
    "906043386": 4294967295,
    "906043387": 4294967295,
    "906043388": 4294967295,
    "906043389": 2147483647,
    "906048422": 4294967295,
    "906048427": 1073643008,
    "906050041": 2147483647,
    "906050483": 2164129855,
    "906050509": 2147483646,
    "906052084": 4261412864,
    "906052085": 4261412864,
    "906052086": 4271374336,
    "906052835": 4294967295,
    "906053609": 4294967295,
    "906053610": 4294967295,
    "906053612": 2147483647,
    "906055542": 4294967295,
    "906069363": 534790144,
    "906070259": 4294967295,
    "906070377": 4294967295,
    "906070378": 3221225472,
    "906070379": 4261412864,
    "906070457": 4294967295,
    "906070458": 4294967295,
    "906070811": 4294770687,
    "906070814": 4294967295,
    "906070815": 4294967295,
    "906070817": 536625088,
    "906070818": 2415788032,
    "906070843": 1072693248,
    "906070963": 4294705152,
    "906071070": 4294967295,
    "906071434": 2147483647,
    "906094999": 4026531840,
    "906106613": 4294918143,
    "906129985": 4177426687,
    "906153516": 4294967295,
    "906153517": 4294967295,
    "906158073": 4294967295,
    "906158074": 4294967295,
    "906158075": 4294967295,
    "906160601": 3221225472,
    "906167961": 3221225472,
    "906170611": 2147483632,
    "906170612": 2147483647,
    "906171032": 4294967295,
    "906177563": 3758096384,
    "906177564": 4026531840,
    "906177565": 4026531840,
    "906177566": 4160749568,
    "906177571": 4227858432,
    "906186532": 4060082431,
    "906043051": 2147483647,
    "906043052": 4294508543,
    "906043053": 4294967295,
    "906043054": 3225354627,
    "906043057": 2147483648,
    "906043058": 2147483647,
    "906043272": 2147483647,
    "906043292": 4293984255,
    "906050042": 2147483647,
    "906052390": 4282384335,
    "906052994": 4293918703,
    "906052995": 4294967295,
    "906171033": 4294967295,
    "906176703": 4294967295,
    "906176704": 4294967295,
    "906176705": 4294967295,
    "906176706": 4294967295,
    "906066893": 4227989503,
    "906066899": 2415794176,
    "906066908": 4026450936,
    "906066910": 4227923967,
    "906066915": 4227858432,
    "906066922": 937426944,
    "906066923": 4227858432,
    "906070380": 4294967295,
    "906070459": 4294967295,
    "906070965": 1073508352,
    "906070966": 536608768,
    "906070967": 4294705152,
    "906070968": 4294836224,
    "906070969": 4294836224,
    "906070970": 4294770687,
    "906070971": 4294443008,
    "906070975": 3221225472,
    "906071071": 4294967295,
    "906094997": 4026531840,
    "906177517": 3221225472,
    "906177518": 3221225472,
    "906177519": 4162846719,
    "906177520": 4294967295,
    "906177521": 4294967295,
    "906177522": 4294967295,
    "906177523": 4294967295,
    "906177524": 4160749568,
    "906177526": 3221225472,
    "906177527": 2147483648,
    "906177529": 4294967295,
    "906177530": 4294967295,
    "906177531": 4294967295,
    "906177532": 4294836224,
    "906177535": 2147483647,
    "906177536": 4026531840,
    "906177537": 3221225472,
    "906177538": 3758096384,
    "906177539": 4028522496,
    "906177540": 2147483648,
    "906177541": 3221225472,
    "906177542": 4227858432,
    "906177543": 2147483648,
    "906177544": 4294967295,
    "906177545": 10354688,
    "906177547": 64880640,
    "906177548": 536739840,
    "906177560": 4294967295,
    "906177561": 4294967295,
    "906177572": 536739840,
    "906177573": 536739840,
    "906177574": 4294864896,
    "906177575": 4294860800,
    "906177576": 1073610752,
    "906177577": 4294836224,
    "906177578": 4294867968,
    "906177579": 4294868000,
    "906177580": 4294836224,
    "906177581": 2147483648,
    "906177582": 2147352576,
    "906178898": 4294967295,
    "906178899": 4294967295,
    "906178900": 4294967295,
    "906178901": 4294967295,
    "906178902": 4294967295,
    "906178903": 4294967295,
    "906178904": 4294967295,
    "906178905": 4294967295,
    "906178906": 2147483647,
    "906178907": 4294967295,
    "906178908": 4294967295,
    "906178909": 4294967295,
    "906178910": 2147483647,
    "906178912": 4294967295,
    "906049840": 2147483647,
    "906049841": 4282384383,
    "906049843": 4294967295,
    "906049844": 4294934527,
    "906049847": 3221225472,
    "906173971": 4294967295,
    "906173974": 134154239,
    "906177567": 4294967295,
    "906177568": 4294967295,
    "906177583": 2147483647,
    "906180203": 4294967295,
    "906180204": 4294967295,
    "906180213": 4294967295,
    "906180208": 4177524991,
    "906180205": 268177656,
    "906180217": 4294967295,
    "906180207": 2147483647,
    "906180210": 2147483647,
    "906180202": 4292886527,
    "906180214": 4294967295,
    "906180216": 4294967295,
    "906180206": 3221422179,
    "906180211": 3489431552,
    "906180212": 536623104,
    "906180209": 4227858432,
    "906180215": 4294967295,
    "906180221": 4294967295,
    "906180222": 4294967295,
    "906180220": 4294967295,
    "906180224": 4294967295,
    "906180219": 536838143,
    "906180218": 4294967295,
    "906180223": 4294967295,
    "906180200": 4294967295,
    "906180201": 4294967295,
    "906180199": 4026531840,
    "906180196": 2147483647,
    "906180197": 2147483647,
    "906186392": 3221225472,
    "906186393": 3758096384,
    "906186537": 4294967295,
    "906051064": 4294967295,
    "906051735": 4294967295,
    "906052721": 4294967295,
    "906052738": 3221225472,
    "906052749": 4160815103,
    "906052997": 4293459967,
    "906053002": 4294967295,
    "906053615": 4294967295,
    "906053623": 4294967295,
    "906068014": 4294967295,
    "906069415": 4294967295,
    "906069416": 4294967295,
    "906069417": 4294967295,
    "906069433": 4294967295,
    "906069435": 4294967295,
    "906069436": 4294967295,
    "906069437": 4294967295,
    "906070151": 4293918720,
    "906071525": 4294967295,
    "906073524": 4177524736,
    "906043232": 4294934527,
    "906043233": 4236246143,
    "906174851": 2147483647,
    "906174853": 4294967295,
    "906174854": 2147483648,
    "906061889": 535691264,
    "906170345": 3221225472,
    "906170459": 4294967295,
    "906178610": 2147483407,
    "906052649": 4294967295,
    "906052650": 4294967295,
    "906163711": 4294967295,
    "906163712": 4294967232,
    "906163713": 4194301952,
    "906070465": 4294967295,
    "906070541": 4294967295,
    "906170526": 4294967295,
    "906171616": 4294967295,
    "906172023": 4294967295,
    "906173945": 4294967295,
    "906173946": 4294967295,
    "906069393": 4294967295,
    "906070150": 4294967295,
    "906070220": 4294967295,
    "906070466": 4294967295,
    "906070467": 4294967295,
    "906070542": 4294967295,
    "906070829": 4294705152,
    "906170462": 4294967295,
    "906170527": 4294967295,
    "906170528": 4294967295,
    "906170529": 4294967295,
    "906170530": 4294967295,
    "906171137": 4294967295,
    "906171138": 4294967295,
    "906172024": 4294967295,
    "906172025": 4294967295,
    "906172265": 4294967295,
    "906177585": 4294967295,
    "906177586": 4294443008,
    "906177587": 4294967295,
    "906182916": 4227858432,
    "906182917": 4294934527,
    "906070398": 4294967295,
    "906070988": 4294705152,
    "906070990": 4294508543,
    "906071029": 4294967295,
    "906177562": 4294967295,
    "906070399": 4026531840,
    "906070604": 3758096384,
    "906071470": 4294967295,
    "906071512": 4294967295,
    "906171649": 2683961344,
    "906070393": 4294078464,
    "906070475": 3758096384,
    "906070605": 4232052736,
    "906070606": 3758243840,
    "906071471": 4294967295,
    "906071472": 4294967295,
    "906071480": 4294967295,
    "906071481": 4294967295,
    "906071487": 4294967295,
    "906071513": 4294967295,
    "906071514": 4294967295,
    "906071579": 4294967295,
    "906172672": 2684239872,
    "906069432": 4294967295,
    "906069446": 4294967295,
    "906070139": 2147483648,
    "906070282": 4294967295,
    "906071457": 4261478368,
    "906071458": 4227858432,
    "906071459": 4278190080,
    "906071461": 4294967295,
    "906071462": 4294967295,
    "906071467": 4294967295,
    "906071486": 4294967295,
    "906071488": 3758096384,
    "906071495": 2147483648,
    "906071497": 4227858432,
    "906071498": 4261740543,
    "906071501": 3221225472,
    "906071502": 4294967295,
    "906071505": 2147483647,
    "906071584": 2147483648,
    "906129091": 2147483648,
    "906170839": 4294967295,
    "906171281": 4294967295,
    "906171282": 4294967295,
    "906171618": 535707650,
    "906171650": 3221356544,
    "906171673": 2147483648,
    "906172029": 4286578688,
    "906173068": 2147483647,
    "906173070": 4294967295,
    "906173071": 4294967295,
    "906173639": 3221225472,
    "906173744": 4294967295,
    "906173937": 4294967295,
    "906134716": 4294967295,
    "906134717": 4294967295,
    "906134718": 4294967295,
    "906134719": 4294967295,
    "906134720": 4294967295,
    "906134723": 2147483647,
    "906134725": 4026486784,
    "906134726": 3887595520,
    "906134729": 4294967295,
    "906134730": 4294967295,
    "906134732": 4294967295,
    "906134733": 4294967295,
    "906134734": 3221356544,
    "906051870": 4026531840,
    "906051898": 4293984255,
    "906051899": 4160749568,
    "906072688": 4152553216,
    "906072696": 4294967168,
    "906051876": 2415803648,
    "906051877": 4294966720,
    "906070833": 3489537664,
    "906072687": 4159700736,
    "906106617": 4294967040,
    "906178030": 4293918720,
    "906178613": 4160749568,
    "906178614": 4294967232,
    "906178615": 4026531840,
    "906070231": 4294967295,
    "906070232": 4294967295,
    "906052710": 4294967295,
    "906052731": 2147483647,
    "906128533": 4294967295,
    "906153540": 4294967295,
    "906069434": 4294967295,
    "906070546": 4026531840,
    "906171139": 4294967295,
    "906171140": 4294967295,
    "906171141": 4294967295,
    "906171142": 4294967295,
    "906172267": 4294967295,
    "906172268": 4294967295,
    "906172271": 4294967295,
    "906172272": 4286578688,
    "906172273": 4294967295,
    "906185751": 4294967295,
    "906185752": 4294967295,
    "906069438": 4294967295,
    "906069448": 4294967295,
    "906070550": 3758096384,
    "906171036": 4294967295,
    "906171143": 4294967295,
    "906172274": 4294705151,
    "906173847": 4294967295,
    "906052998": 2147483647,
    "906070544": 4261412864,
    "906171283": 4294967295,
    "906052648": 1073635328,
    "906052732": 1073639551,
    "906069394": 4294967295,
    "906070477": 4294967295,
    "906170841": 4294967295,
    "906171284": 4294967295,
    "906173701": 4294967295,
    "906173702": 4294967295,
    "906177549": 4294967295,
    "906071446": 4294967295,
    "906071447": 4294967295,
    "906052725": 4294967295,
    "906053614": 3221225472,
    "906069418": 4294967295,
    "906069419": 4294967295,
    "906070547": 4294967295,
    "906070548": 4294967295,
    "906070549": 4294967295,
    "906172275": 4294508543,
    "906172276": 4286644220,
    "906172277": 4287168511,
    "906070011": 2147483648,
    "906172278": 4294967295,
    "906069439": 4294967295,
    "906071581": 3758096384,
    "906172033": 3758096384,
    "906068019": 4294967295,
    "906068022": 4294967295,
    "906069440": 4294967295,
    "906070472": 3758096384,
    "906071484": 4294967295,
    "906071520": 4286578688,
    "906153529": 3221225472,
    "906153532": 4293394431,
    "906170463": 4294967295,
    "906170465": 4294967295,
    "906170948": 4294967295,
    "906170949": 4292870144,
    "906170950": 3221225472,
    "906171147": 4294967295,
    "906172034": 3891445760,
    "906172279": 4290772992,
    "906172280": 4294967295,
    "906172281": 4294967295,
    "906172282": 4294901759,
    "906172283": 4261412864,
    "906172674": 4294967295,
    "906173628": 4294967295,
    "906173629": 4278190080,
    "906173784": 4294967295,
    "906173922": 4294967295,
    "906173923": 4294967295,
    "906173924": 4294967295,
    "906173948": 4294967295,
    "906177590": 4269801472,
    "906177591": 4294967295,
    "906177592": 4294967295,
    "906177593": 4294967295,
    "906177594": 3758096384,
    "906177692": 4026531840,
    "906185753": 4294967295,
    "906185754": 4294967295,
    "906185984": 4294967295,
    "906186456": 4294967295,
    "906069442": 4294967295,
    "906071582": 4026531840,
    "906170951": 4293394431,
    "906171149": 4294967295,
    "906171150": 4294967295,
    "906171152": 4294967295,
    "906172036": 4294179840,
    "906172284": 4290772992,
    "906172285": 4294967295,
    "906172286": 4294967295,
    "906172287": 4294443008,
    "906173630": 4278190080,
    "906173849": 4294967295,
    "906177595": 4292870144,
    "906185755": 4294967295,
    "906185756": 4294967295,
    "906068021": 4294967295,
    "906069445": 4294967295,
    "906171153": 4294967295,
    "906171154": 4294967295,
    "906171155": 4294967295,
    "906171156": 4294967295,
    "906172288": 4294967295,
    "906172289": 4292870144,
    "906172290": 4294967295,
    "906172291": 4294967295,
    "906172292": 4294967295,
    "906173631": 3889299456,
    "906173851": 4294967295,
    "906173925": 4294967295,
    "906173949": 4294967295,
    "906177552": 4294967295,
    "906177596": 4294967295,
    "906177597": 4278190080,
    "906177598": 3774873600,
    "906185742": 3758096384,
    "906185757": 4294967295,
    "906052391": 4294836224,
    "906070088": 4292870144,
    "906052392": 4292870144,
    "906068013": 4294967295,
    "906170952": 3221225472,
    "906071493": 4294967295,
    "906071494": 4294967295,
    "906172293": 4261412864,
    "906173632": 3221225472,
    "906173950": 4294967295,
    "906070461": 3221225472,
    "906070473": 3221225472,
    "906071524": 4286578688,
    "906172294": 4261412864,
    "906173633": 3221225472,
    "906173640": 4286578688,
    "906069401": 4294967295,
    "906070390": 4294967295,
    "906071469": 4294967295,
    "906095016": 4294967295,
    "906172297": 4278190080,
    "906177946": 4294967295,
    "906177947": 4294967295,
    "906177948": 4294967295,
    "906177949": 4294967295,
    "906177950": 4294967295,
    "906177951": 4294967295,
    "906177952": 4294967295,
    "906129596": 4294967295,
    "906129597": 4294967295,
    "906129598": 4294967295,
    "906129599": 4294967295,
    "906129600": 4294967295,
    "906129601": 4294967295,
    "906061894": 4294967295,
    "906061895": 2147483647,
    "906070237": 4294967295,
    "906070238": 4294967295,
    "906070388": 3221225472,
    "906070389": 3221225472,
    "906071476": 4294967295,
    "906186012": 4290772992,
    "906186013": 4294967295,
    "906071475": 4294967295,
    "906071516": 4294967295,
    "906171037": 4294967295,
    "906171157": 4294967295,
    "906172675": 2147483648,
    "906172676": 2147483648,
    "906069403": 4294967295,
    "906069458": 4294967295,
    "906070392": 4294967295,
    "906070463": 4292870144,
    "906071468": 4294967295,
    "906095015": 4294967295,
    "906172298": 4286578688,
    "906172299": 4290772992,
    "906173786": 4294967295,
    "906173787": 4294967295,
    "906173788": 4294967295,
    "906173927": 4294967295,
    "906173951": 4294967295,
    "906177599": 4286578688,
    "906071585": 4294705151,
    "906052436": 4294967295,
    "906052442": 4294967295,
    "906052704": 4294967295,
    "906123165": 4294967295,
    "906174016": 3221225472,
    "906071453": 4294967295,
    "906073730": 3758096384,
    "906106615": 4026531840,
    "906106616": 4160749568,
    "906106618": 4026531840,
    "906051736": 3221225472,
    "906052088": 4294967295,
    "906052090": 2147483648,
    "906052091": 4294967295,
    "906052394": 2147483648,
    "906052404": 3221225472,
    "906052864": 4294967295,
    "906069358": 4294967295,
    "906070013": 2147483648,
    "906070281": 2147483648,
    "906070425": 1073709055,
    "906070827": 4261412864,
    "906071074": 4294967295,
    "906071086": 4294967295,
    "906071444": 4294967295,
    "906071448": 2147352576,
    "906071449": 1073610752,
    "906071454": 4294967295,
    "906071473": 4294967295,
    "906071491": 4294967295,
    "906072331": 4160749568,
    "906073358": 4227858432,
    "906073846": 4227858432,
    "906153526": 2147483647,
    "906171038": 2147483648,
    "906173928": 4294967295,
    "906174017": 4160749568,
    "906052696": 4294967295,
    "906052709": 3221225472,
    "906070014": 2147483648,
    "906071485": 4294967295,
    "906172300": 2147483648,
    "906123162": 4294967295,
    "906123163": 4294967295,
    "906123164": 4294967295,
    "906123166": 4294967295,
    "906123167": 4294967295,
    "906123169": 4294967295,
    "906123170": 4294967295,
    "906052714": 4294967295,
    "906061871": 4294967295,
    "906069355": 4294967295,
    "906069427": 4294967295,
    "906070274": 4294967295,
    "906070278": 4294967295,
    "906070478": 4294967295,
    "906070534": 4294967295,
    "906071450": 4294967295,
    "906071482": 4294967295,
    "906071586": 4294967295,
    "906071587": 4294967295,
    "906071588": 4294967295,
    "906170467": 4294967295,
    "906170468": 4294967295,
    "906170842": 4294967295,
    "906170846": 4294967295,
    "906170849": 4294967295,
    "906170850": 4294967295,
    "906170851": 4294967295,
    "906170852": 4294967295,
    "906170955": 2147483648,
    "906171039": 4294967295,
    "906171041": 2147483647,
    "906171160": 4294967295,
    "906171161": 4294967295,
    "906171162": 4294967295,
    "906171163": 4294967295,
    "906171289": 4294967295,
    "906171291": 4294967295,
    "906172301": 4294967295,
    "906172302": 4294967295,
    "906172303": 4294967295,
    "906173708": 4294967295,
    "906173852": 4294967295,
    "906173929": 4294967295,
    "906173930": 4294967295,
    "906174055": 4294967295,
    "906174056": 4294967295,
    "906174057": 2147483648,
    "906174058": 3221225472,
    "906174059": 4294967295,
    "906174060": 2147483648,
    "906174061": 2147483648,
    "906174062": 3221225472,
    "906174063": 4286840831,
    "906174064": 4294967295,
    "906174065": 4294967295,
    "906174066": 4294967295,
    "906174070": 4293394431,
    "906174071": 4289200127,
    "906174072": 4293394431,
    "906185985": 4294967295,
    "906052670": 4292870144,
    "906052673": 3221225472,
    "906052675": 3758096384,
    "906052676": 3221225472,
    "906052677": 3758096384,
    "906052683": 3221225472,
    "906052684": 3221225472,
    "906052685": 3221225472,
    "906068015": 4294967295,
    "906068018": 4294967295,
    "906069386": 4294967295,
    "906069410": 4294967295,
    "906069412": 4294967295,
    "906069454": 4294967295,
    "906069455": 4294967295,
    "906070142": 4286578688,
    "906070535": 4294967295,
    "906071088": 4294967295,
    "906071451": 4294967295,
    "906071452": 4294967295,
    "906071483": 4294967295,
    "906071511": 4294967295,
    "906071519": 4286578688,
    "906095010": 4294901760,
    "906095011": 4294901760,
    "906095014": 4160749568,
    "906106621": 4294967295,
    "906153528": 3221225472,
    "906170470": 4294967295,
    "906170471": 4294967295,
    "906170472": 4294967295,
    "906170473": 4294967295,
    "906170474": 2147483647,
    "906170957": 4293394431,
    "906170958": 4293918719,
    "906170959": 4292870144,
    "906171165": 4294967295,
    "906171166": 4294967295,
    "906171292": 4294967295,
    "906171293": 4294967295,
    "906171295": 4294967295,
    "906171296": 4294967295,
    "906171297": 3221225472,
    "906171298": 4294967295,
    "906172042": 4290772992,
    "906172307": 4294967295,
    "906172308": 4294967295,
    "906172309": 4294967295,
    "906172310": 4261412864,
    "906173709": 4294967295,
    "906173710": 4294967295,
    "906173711": 4294967295,
    "906173789": 4294967295,
    "906173931": 4294967295,
    "906173932": 4294967295,
    "906173933": 4294967295,
    "906177472": 2147483648,
    "906177553": 2147483647,
    "906177600": 4294967295,
    "906185986": 4294967295,
    "906185987": 4294967295,
    "906185988": 4294967295,
    "906186457": 4294967295,
    "906186458": 4294967295,
    "906055341": 4294967295,
    "906170476": 4294967295,
    "906170477": 2147483647,
    "906170613": 4294967295,
    "906172043": 4286578688,
    "906173641": 4294967295,
    "906173712": 4294967295,
    "906173746": 4294967295,
    "906173747": 4294967295,
    "906173790": 4294967295,
    "906173791": 4294967295,
    "906173934": 4294967295,
    "906053000": 3489645056,
    "906070985": 4294705152,
    "906170348": 3221225472,
    "906170531": 4290772992,
    "906177473": 4026531840,
    "906177474": 4294967288,
    "906177475": 4294900222,
    "906163718": 2147483647,
    "906167789": 2147483647,
    "906170349": 4294967295,
    "906170350": 2147483647,
    "906170398": 4294967295,
    "906170402": 134103040,
    "906170460": 2147483647,
    "906170532": 4294574079,
    "906170534": 4294967295,
    "906170535": 4294967295,
    "906170536": 4294967295,
    "906170537": 4294967295,
    "906170853": 4294967295,
    "906170854": 4294967295,
    "906170856": 4294967295,
    "906170857": 2147483647,
    "906170859": 2147483647,
    "906170861": 4294967295,
    "906170865": 4294967295,
    "906170961": 3221225472,
    "906170962": 4231952385,
    "906170965": 4292870144,
    "906171168": 4294967295,
    "906171169": 4294967295,
    "906171170": 4294967295,
    "906171171": 4294967295,
    "906171172": 4294967295,
    "906171302": 4294967295,
    "906171303": 4294967295,
    "906171958": 3758112768,
    "906172312": 4294967295,
    "906172314": 4294967295,
    "906172315": 4294967295,
    "906172316": 4294967295,
    "906172317": 4293394432,
    "906172318": 4294967295,
    "906172320": 4294967295,
    "906172321": 4291297280,
    "906172679": 4026563584,
    "906172680": 534773760,
    "906173634": 3758096384,
    "906173635": 3221225472,
    "906173713": 4294967295,
    "906173714": 4294967295,
    "906173715": 4294967295,
    "906173716": 4294967295,
    "906173748": 4294967295,
    "906173749": 4294967295,
    "906173750": 4294967295,
    "906173792": 4294967295,
    "906173793": 4294967295,
    "906173794": 4294967295,
    "906173796": 4294967295,
    "906173853": 4294967295,
    "906173854": 4294967295,
    "906173935": 4294967295,
    "906173938": 4294967295,
    "906173953": 4294967295,
    "906173954": 4294967295,
    "906173957": 4294967295,
    "906173958": 4294967295,
    "906173959": 4294967295,
    "906173960": 4294967295,
    "906173961": 4294967295,
    "906173962": 4294967295,
    "906173963": 4294967295,
    "906177477": 4294967295,
    "906177478": 4294967295,
    "906177479": 3758096384,
    "906177601": 4294967295,
    "906177602": 4294967295,
    "906177603": 4294967295,
    "906177604": 4294967295,
    "906177605": 4294967295,
    "906177606": 4294967295,
    "906177610": 4294967295,
    "906177611": 4294967295,
    "906177612": 4294967295,
    "906177613": 4294967295,
    "906177614": 4294967295,
    "906177615": 4294967295,
    "906177616": 4294967295,
    "906177617": 4292870144,
    "906177618": 4286578688,
    "906177619": 4294967295,
    "906177620": 4294967295,
    "906177621": 4294967295,
    "906177622": 4261412864,
    "906177693": 3758096384,
    "906177694": 3758096384,
    "906177953": 4294967295,
    "906178032": 2147483648,
    "906182918": 4294967295,
    "906182919": 4294967295,
    "906182920": 2147483648,
    "906182921": 4292870144,
    "906185525": 4286578688,
    "906185526": 4294967295,
    "906185527": 4294967295,
    "906185743": 4293394432,
    "906185744": 4294705151,
    "906185745": 3221225472,
    "906185746": 3221225472,
    "906185747": 3221225472,
    "906185748": 3758096384,
    "906185749": 3221225472,
    "906185758": 4294967295,
    "906185759": 4294967295,
    "906185760": 4294967295,
    "906186033": 4294967295,
    "906186034": 4294967295,
    "906186459": 4294967295,
    "906070266": 4294967295,
    "906070552": 4294967295,
    "906070825": 4294967295,
    "906071102": 4294967295,
    "906071103": 4294967295,
    "906071489": 4294967295,
    "906071490": 4294967295,
    "906071522": 4294967295,
    "906071523": 4294967295
  },
  "CCKPLBIEBAK": {
    "906043050": [
      8758235572899553544
    ],
    "906043051": [
      17401944194687580161
    ],
    "906043052": [
      17241193289360671778
    ],
    "906050042": [
      13148767885403560669,
      8758235572899553544
    ],
    "906052994": [
      13148767885403560669,
      8758235572899553544
    ],
    "906052995": [
      14136870863075793003
    ],
    "906053608": [
      13148767885403560669,
      8758235572899553544
    ],
    "906176706": [
      17241193289360671778
    ]
  }
}