{
  "IOKFLCPKINN": {
    "339838774": 4294967295,
    "339838775": 4294967295,
    "339838776": 4294967295,
    "339838777": 4294967295,
    "339838778": 4294967295,
    "339838779": 478098431,
    "339838780": 4294967295,
    "339838781": 4294967295,
    "339838782": 4294967295,
    "339838783": 4294967295,
    "339838784": 4294967295,
    "339838785": 4294967295,
    "339838786": 4294967295,
    "339838787": 4294967295,
    "339858032": 4294967295,
    "339860529": 4294967295,
    "339845353": 1056964608,
    "339845354": 536428529,
    "339845356": 8324095,
    "339845359": 251666176,
    "339845364": 8323326,
    "339845367": 60,
    "339845369": 8257662,
    "339845370": 8257599,
    "339845371": 4294934527,
    "339845374": 4293132263,
    "339824964": 4294967295,
    "339832690": 4291362752,
    "339832691": 1073692671,
    "339832694": 4294967295,
    "339832695": 4278321024,
    "339832696": 4294967295,
    "339832697": 4294967295,
    "339832698": 16712191,
    "339832699": 66978047,
    "339832700": 134154239,
    "339832702": 20907007,
    "339832703": 4294967295,
    "339832704": 4294967295,
    "339832705": 4294770628,
    "339832706": 1073708287,
    "339832707": 19333695,
    "339832708": 16646399,
    "339832709": 16713727,
    "339832715": 4294967295,
    "339832716": 4294967295,
    "339832717": 4294967295,
    "339832718": 4294967295,
    "339832719": 4294967295,
    "339832720": 4294967295,
    "339832721": 4294967295,
    "339832722": 4294967295,
    "339832723": 4294967295,
    "339845352": 262150640,
    "339845387": 67045375,
    "339845388": 4294967295,
    "339845425": 2147483647,
    "339845426": 133369849,
    "339845431": 4293853127,
    "339845434": 267263942,
    "339845438": 63049664,
    "339845452": 4294967295,
    "339845453": 268378111,
    "339845454": 268378111,
    "339856363": 4294967295,
    "339866882": 4294967295,
    "339866918": 4294967295,
    "339867499": 4294967295,
    "339867504": 4294967295,
    "339867505": 133173246,
    "339755620": 4294967295,
    "339755626": 4294967295,
    "339755627": 4294967295,
    "339755628": 4294967295,
    "339755630": 4294967295,
    "339755631": 4294967295,
    "339755638": 4294967295,
    "339757531": 4294967295,
    "339757938": 4294967295,
    "339759491": 4294967295,
    "339770887": 4294967295,
    "339770892": 4294967295,
    "339775603": 4294967295,
    "339777897": 4294967295,
    "339777899": 4294967295,
    "339783585": 4294967295,
    "339783588": 4294967295,
    "339783821": 4294967295,
    "339783822": 4294967295,
    "339783896": 4294967295,
    "339783897": 4294967295,
    "339783900": 4294967295,
    "339783902": 4294967295,
    "339783903": 4294967295,
    "339785353": 4294967295,
    "339785360": 4294967295,
    "339785361": 4294967295,
    "339828375": 4294967295,
    "339828376": 4294967295,
    "339828522": 4294967295,
    "339828523": 4294967295,
    "339828524": 4294967295,
    "339828525": 4294967295,
    "339828526": 4294967295,
    "339828874": 4294967295,
    "339828875": 4294967295,
    "339828878": 4294967295,
    "339828879": 4294967295,
    "339828880": 4294967295,
    "339828885": 4294967295,
    "339828888": 4294967295,
    "339828889": 4294967295,
    "339828890": 4294967295,
    "339828894": 4294967295,
    "339828895": 4294967295,
    "339828901": 4294967295,
    "339828902": 4294967295,
    "339828904": 4294967295,
    "339828915": 4294967295,
    "339829103": 4294967295,
    "339829104": 4294967295,
    "339829105": 4294967295,
    "339829107": 4294967295,
    "339829218": 4294967295,
    "339829401": 4294967295,
    "339829402": 4294967295,
    "339829734": 4294967295,
    "339829735": 4294967295,
    "339829736": 4294967295,
    "339829737": 4294967295,
    "339829913": 4294967295,
    "339829918": 4294967295,
    "339829919": 4294967295,
    "339829948": 4294967295,
    "339829949": 4294967295,
    "339829950": 4294967295,
    "339829951": 4294967295,
    "339829952": 4294967295,
    "339829953": 4294967295,
    "339830005": 4294967295,
    "339830036": 4294967295,
    "339830037": 4294967295,
    "339830040": 4294967295,
    "339830041": 4294967295,
    "339830071": 4294967295,
    "339830163": 4294967295,
    "339830176": 4294967295,
    "339830177": 4294967295,
    "339830178": 4294967295,
    "339830180": 4294967295,
    "339830181": 4294967295,
    "339830182": 4294967295,
    "339830183": 4294967295,
    "339830184": 4294967295,
    "339830185": 4294967295,
    "339830186": 4294967295,
    "339830237": 4294967295,
    "339830238": 4294967295,
    "339830242": 4294967295,
    "339830243": 4294967295,
    "339830244": 4294967295,
    "339830248": 4294967295,
    "339830249": 4294967295,
    "339830251": 4294967295,
    "339830252": 4294967295,
    "339830253": 4294967295,
    "339830254": 4294967295,
    "339830255": 4294967295,
    "339830304": 4294967295,
    "339830305": 4294967295,
    "339830306": 4294967295,
    "339830307": 4294967295,
    "339830308": 4294967295,
    "339830309": 4294967295,
    "339830310": 4294967295,
    "339830311": 4294967295,
    "339830312": 4294967295,
    "339830316": 4294967295,
    "339830317": 4294967295,
    "339830318": 4294967295,
    "339830319": 4294967295,
    "339830320": 4294967295,
    "339830321": 4294967295,
    "339830322": 4294967295,
    "339830323": 4294967295,
    "339830324": 4294967295,
    "339830685": 4294967295,
    "339830687": 4294967295,
    "339830691": 4294967295,
    "339830721": 4294967295,
    "339830724": 4294967295,
    "339830725": 4294967295,
    "339830726": 4294967295,
    "339830727": 4294967295,
    "339830740": 4294967295,
    "339831060": 4294967295,
    "339831068": 4294967295,
    "339831069": 4294967295,
    "339832331": 4294967295,
    "339832341": 4294967295,
    "339832343": 4294967295,
    "339832344": 4294967295,
    "339832350": 4294967295,
    "339833049": 4294967295,
    "339833050": 4294967295,
    "339833051": 4294967295,
    "339833052": 4294967295,
    "339833054": 4294967295,
    "339833055": 4294967295,
    "339833056": 4294967295,
    "339833057": 4294967295,
    "339833165": 4294967295,
    "339841514": 4294967295,
    "339841515": 4294967295,
    "339860530": 4294967295,
    "339860531": 4294967295,
    "339860603": 4294967295,
    "339866920": 4294967295,
    "339867589": 4294967295,
    "339873620": 4294967295,
    "339757534": 4294967295,
    "339829710": 4294967295,
    "339830690": 4294967295,
    "339829713": 4294967295,
    "339830240": 4294967295,
    "339830722": 4294967295,
    "339830718": 4294967295,
    "339830719": 4294967295,
    "339830720": 4294967295,
    "339830723": 4294967295,
    "339759450": 4294967295,
    "339759475": 4294967295,
    "339828884": 4294967295,
    "339874957": 4294967295,
    "339757939": 4294967295,
    "339757941": 4294967295,
    "339757942": 4294967295,
    "339830246": 4294967295,
    "339830689": 4294967295,
    "339832332": 4294967295,
    "339832444": 4294967295,
    "339783901": 4294967295,
    "339829077": 4294967295,
    "339829078": 4294967295,
    "339829200": 4294967295,
    "339830686": 4294967295,
    "339831062": 4294967295,
    "339832445": 4294967295,
    "339827898": 4294967295,
    "339827899": 4294967295,
    "339827900": 4294967295,
    "339827901": 4294967295,
    "339827902": 4294967295,
    "339827903": 4294967295,
    "339827905": 4294967295,
    "339827906": 4294967295,
    "339827907": 4294967295,
    "339827908": 4294967295,
    "339827909": 4294967295,
    "339827910": 4294967295,
    "339827911": 4294967295,
    "339827913": 4294967295,
    "339827915": 4294967295,
    "339827916": 4294967295,
    "339827917": 4294967295,
    "339827918": 4294967295,
    "339829979": 4294967295,
    "339829980": 4294967295,
    "339829981": 4294967295,
    "339854774": 4294967295,
    "339854775": 4294967295,
    "339854776": 4294967295,
    "339854777": 4294967295,
    "339854778": 4294967295,
    "339854779": 4294967295,
    "339854780": 4294967295,
    "339866921": 4294967295,
    "339866922": 4294967295,
    "339831111": 4294967295,
    "339831121": 4294967295,
    "339831124": 4294967295,
    "339832165": 4294967295,
    "339832166": 4294967295,
    "339832167": 4294967295,
    "339832168": 4294967295,
    "339832170": 4294967295,
    "339832171": 4294967295,
    "339832172": 4294967295,
    "339832173": 4294967295,
    "339832174": 4294967295,
    "339832175": 4294967295,
    "339832176": 4294967295,
    "339832177": 4294967295,
    "339832178": 4294967295,
    "339832181": 4294967295,
    "339832182": 4294967295,
    "339832183": 4294967295,
    "339832184": 4294967295,
    "339832185": 4294967295,
    "339832186": 4294967295,
    "339832187": 4294967295,
    "339832188": 4294967295,
    "339832189": 4294967295,
    "339832190": 4294967295,
    "339832192": 4294967295,
    "339832193": 4294967295,
    "339832194": 4294967295,
    "339832195": 4294967295,
    "339832196": 4294967295,
    "339832197": 4294967295,
    "339832199": 4294967295,
    "339832200": 4294967295,
    "339832204": 4294967295,
    "339832206": 4294967295,
    "339832210": 4294967295,
    "339832211": 4294967295,
    "339832212": 4294967295,
    "339832213": 4294967295,
    "339832214": 4294967295,
    "339832215": 4294967295,
    "339832216": 4294967295,
    "339832217": 4294967295,
    "339832219": 4294967295,
    "339832220": 4294967295,
    "339832222": 4294967295,
    "339832223": 4294967295,
    "339832333": 4294967295,
    "339832335": 4294967295,
    "339832425": 4294967295,
    "339832640": 4294967295,
    "339859625": 4294967295,
    "339860532": 4294967295,
    "339860562": 4294967295,
    "339866876": 4294967295,
    "339866883": 4294967295,
    "339832225": 4294967295,
    "339832226": 4294967295,
    "339832227": 4294967295,
    "339832228": 4294967295,
    "339832229": 4294967295,
    "339832230": 4294967295,
    "339832236": 4294967295,
    "339831100": 4294967295,
    "339832337": 4294967295,
    "339832338": 4294967295,
    "339832339": 4294967295,
    "339832340": 4294967295,
    "339832348": 4294967295,
    "339832349": 4294967295,
    "339832426": 4294967295,
    "339860533": 4294967295,
    "339832237": 4294967295,
    "339832238": 4294967295,
    "339832239": 4294967295,
    "339832262": 4294967295,
    "339832263": 4294967295,
    "339832264": 4294967295,
    "339832446": 4294967295,
    "339833090": 4294967295,
    "339838797": 4294967295,
    "339838798": 4294967295,
    "339838801": 4294967295,
    "339838805": 4294967295,
    "339838806": 4294967295,
    "339838807": 4294967295,
    "339838808": 4294967295,
    "339838813": 4294967295,
    "339838814": 4294967295,
    "339838815": 4294967295,
    "339838816": 4294967295,
    "339838817": 4294967295,
    "339838818": 4294967295,
    "339838819": 4294967295,
    "339838820": 4294967295,
    "339838821": 4294967295,
    "339838822": 4294967295,
    "339838823": 4294967295,
    "339838824": 4294967295,
    "339838825": 4294967295,
    "339838826": 4294967295,
    "339838827": 4294967295,
    "339838833": 4294967295,
    "339838834": 4294967295,
    "339838835": 4294967295,
    "339859655": 4294967295,
    "339860537": 4294967295,
    "339860538": 4294967295,
    "339860539": 4294967295,
    "339866877": 4294967295,
    "339866878": 4294967295,
    "339866879": 4294967295,
    "339866880": 4294967295,
    "339866881": 4294967295,
    "339867500": 4294967295,
    "339867506": 4294967295
  }
}