{
  "IOKFLCPKINN": {
    "339865517": 417333248,
    "339865519": 1139838898,
    "339865520": 519045120,
    "339865521": 417333248,
    "339865522": 4294967295,
    "339865523": 58720256,
    "339865524": 3220733951,
    "339865525": 4294967295,
    "339865535": 4294967295,
    "339865537": 4294967295,
    "339865538": 3237872127,
    "339865539": 4294967295,
    "339865540": 4294967295,
    "339865541": 4294967295,
    "339865542": 4294967295,
    "339865543": 4294967295,
    "339865544": 4294967295,
    "339865545": 4294967295,
    "339865546": 4294967295,
    "339865547": 4294967295,
    "339865548": 4294967295,
    "339865549": 4294967295,
    "339865550": 4294967295,
    "339865551": 4294967295,
    "339865552": 4294967295,
    "339865553": 4294967295,
    "339865559": 4294967295,
    "339865560": 4294967295,
    "339865566": 67045375,
    "339865567": 134156287,
    "339865568": 4294967295,
    "339865569": 134154239,
    "339865570": 33489919,
    "339865571": 4294967295,
    "339865572": 4294967295,
    "339865573": 4294967295,
    "339865574": 4294967295,
    "339865575": 4294967295,
    "339865576": 4294967295,
    "339865577": 4294967295,
    "339865578": 4294967295,
    "339865579": 4294967295,
    "339865580": 4294967295,
    "339865581": 4294967295,
    "339865582": 4294967295,
    "339865583": 4294967295,
    "339865584": 268378111,
    "339865585": 4294967295,
    "339865587": 16712191,
    "339865589": 2147352575,
    "339865592": 4294967295,
    "339865593": 4294967295,
    "339865594": 4294967295,
    "339865595": 536035323,
    "339865606": 4294967295,
    "339865607": 4294967295,
    "339865614": 4294967295,
    "339865622": 4293918720,
    "339865635": 4294967295,
    "339865643": 4294967295,
    "339865644": 4294967295,
    "339865645": 4294967295,
    "339865646": 4294967295,
    "339865647": 4294967295,
    "339865648": 4294967295,
    "339865649": 4294967295,
    "339865650": 4294967295,
    "339865651": 4294967295,
    "339865652": 4294967295,
    "339865653": 4294967295,
    "339865654": 4294967295,
    "339865655": 4294967295,
    "339865656": 4294967295,
    "339865657": 4294967295,
    "339865658": 4294967295,
    "339865659": 4294967295,
    "339865660": 4294967295,
    "339865661": 4294967295,
    "339865663": 2145451975,
    "339865664": 2682257408,
    "339865665": 2147483648,
    "339865669": 1048579,
    "339865673": 4294967295,
    "339865675": 4294967295,
    "339865676": 4294967295,
    "339865677": 4294967295,
    "339865678": 4063232,
    "339865679": 134086671,
    "339865680": 983567,
    "339865681": 2164228607,
    "339865682": 469762048,
    "339865683": 469762048,
    "339865684": 4294967295,
    "339865721": 4294967295,
    "339865738": 4294967295,
    "339865739": 4294967295,
    "339865740": 4294967295,
    "339865741": 4294967295,
    "339865742": 4294967295,
    "339865743": 4294967295,
    "339865744": 4294967295,
    "339865745": 4294967295,
    "339865746": 4294967295,
    "339865747": 4294967295,
    "339865748": 4294967295,
    "339865760": 4294967295,
    "339865761": 4293983462,
    "339865762": 4294967295,
    "339865763": 4294967295,
    "339865764": 4294967295,
    "339865765": 2683354342,
    "339865767": 4294967295,
    "339865768": 4294967295,
    "339865769": 4293951090,
    "339865770": 4294967295,
    "339865771": 4294967295,
    "339865772": 4294967295,
    "339865773": 4294967295,
    "339865774": 4294967295,
    "339865775": 4294967295,
    "339865776": 4294967295,
    "339865777": 4294967295,
    "339865778": 4294967295,
    "339865779": 4294967295,
    "339865783": 4294967295,
    "339865784": 4294967295,
    "339865789": 4294967295,
    "339865790": 4294967295,
    "339865791": 4294967295,
    "339865792": 4294967295,
    "339865793": 4294967295,
    "339865794": 4294967295,
    "339865795": 4294967295,
    "339865796": 4294967295,
    "339865797": 4294967295,
    "339865798": 4294967295,
    "339865799": 4294967295,
    "339865805": 4294967295,
    "339865859": 4294967295,
    "339865860": 4294967295,
    "339865861": 4294967295,
    "339865862": 4294967295,
    "339865863": 4294967295,
    "339873573": 4294967295,
    "339873574": 4294967295,
    "339873575": 4294967295,
    "339873576": 4294967295,
    "339873577": 8323072,
    "339865596": 4294967295,
    "339865597": 4294967295,
    "339865598": 4294967295,
    "339865599": 4294967295,
    "339865600": 4294967295,
    "339865601": 4294967295,
    "339865602": 4294967295,
    "339865603": 4294967295,
    "339865604": 4294967295,
    "339865605": 4294967295,
    "339865608": 4294967295,
    "339865609": 4294967295,
    "339865610": 4294967295,
    "339865611": 4294967295,
    "339865612": 4294967295,
    "339865613": 4294967295,
    "339865615": 4294967295,
    "339865616": 4294967295,
    "339865617": 4294967295,
    "339865618": 4294967295,
    "339875577": 4294967295,
    "339865702": 67044351,
    "339865703": 4294967295,
    "339865704": 4294967295,
    "339865705": 4294967295,
    "339865706": 4294967295,
    "339865707": 4294967295,
    "339865708": 4294967295,
    "339865718": 4294967295,
    "339865719": 67045375,
    "339865720": 4294967295,
    "339865723": 4294967295,
    "339865724": 536838143,
    "339865725": 4294967295,
    "339865727": 4294967295,
    "339865728": 4294967295,
    "339865730": 4294967295,
    "339865731": 4294967295,
    "339865732": 4294967295,
    "339865733": 4294967295,
    "339865734": 4294967295,
    "339865735": 4294967295,
    "339865749": 4294967295,
    "339873569": 4294967295,
    "339873570": 4294967295,
    "339873571": 4294967295,
    "339873572": 4294967295,
    "339865812": 4294967295,
    "339865873": 4294967295,
    "339865874": 4294967295,
    "339865875": 4294967295
  },
  "HMJKBKBADFL": [
    {
      "HICOKGMLEOP": "Tag_2",
      "APADDJJDABP": [
        339865523,
        339865667,
        339865668,
        339865669,
        339865670,
        339865525,
        339865535,
        339865536,
        339865537,
        339865538,
        339865539,
        339865540,
        339865541,
        339865542,
        339865543,
        339865544,
        339865545,
        339865546,
        339865547,
        339865548,
        339865549,
        339865550,
        339865551,
        339865552,
        339865553,
        339865559,
        339865560,
        339865566,
        339865567,
        339865568,
        339865569,
        339865570,
        339865571,
        339865572,
        339865573,
        339865574,
        339865575,
        339865576,
        339865577,
        339865578,
        339865579,
        339865580,
        339865581,
        339865582,
        339865583,
        339865584,
        339865585,
        339865586,
        339865587,
        339865588,
        339865589,
        339865592,
        339865593,
        339865594,
        339865595,
        339865606,
        339865607,
        339865614,
        339865635,
        339865643,
        339865644,
        339865645,
        339865646,
        339865647,
        339865648,
        339865649,
        339865650,
        339865651,
        339865652,
        339865653,
        339865654,
        339865655,
        339865656,
        339865657,
        339865658,
        339865659,
        339865660,
        339865661,
        339865673,
        339865675,
        339865676,
        339865677,
        339865678,
        339865679,
        339865680,
        339865681,
        339873573,
        339873574,
        339873575,
        339873576,
        339873577,
        339865596,
        339865597,
        339865598,
        339865599,
        339865600,
        339865601,
        339865602,
        339865603,
        339865604,
        339865605,
        339865608,
        339865609,
        339865610,
        339865611,
        339865612,
        339865613,
        339865615,
        339865616,
        339865617,
        339865618,
        339865702,
        339865703,
        339865704,
        339865705,
        339865706,
        339865707,
        339865708,
        339865718,
        339865719,
        339865720,
        339865722,
        339865723,
        339865724,
        339865725,
        339865727,
        339865728,
        339865730,
        339865731,
        339865732,
        339865733,
        339865734,
        339865735,
        339865749,
        339873569,
        339873570,
        339873571,
        339873572,
        339865812,
        339865873,
        339865874,
        339865875,
        339875044
      ]
    }
  ],
  "LHLJMFFCJHB": [
    339865523,
    339865524,
    339865525,
    339865535,
    339865536,
    339865537,
    339865538,
    339865539,
    339865540,
    339865541,
    339865542,
    339865543,
    339865544,
    339865545,
    339865546,
    339865547,
    339865548,
    339865549,
    339865550,
    339865551,
    339865552,
    339865553,
    339865559,
    339865560,
    339865566,
    339865567,
    339865568,
    339865569,
    339865570,
    339865571,
    339865572,
    339865573,
    339865574,
    339865575,
    339865576,
    339865577,
    339865578,
    339865579,
    339865580,
    339865581,
    339865582,
    339865583,
    339865584,
    339865585,
    339865586,
    339865587,
    339865588,
    339865589,
    339865592,
    339865593,
    339865594,
    339865595,
    339865606,
    339865607,
    339865614,
    339865635,
    339865643,
    339865644,
    339865645,
    339865646,
    339865647,
    339865648,
    339865649,
    339865650,
    339865651,
    339865652,
    339865653,
    339865654,
    339865655,
    339865656,
    339865657,
    339865658,
    339865659,
    339865660,
    339865661,
    339865667,
    339865668,
    339865669,
    339865670,
    339865673,
    339865675,
    339865676,
    339865677,
    339865678,
    339865679,
    339865680,
    339865681,
    339873573,
    339873574,
    339873575,
    339873576,
    339873577,
    339865596,
    339865597,
    339865598,
    339865599,
    339865600,
    339865601,
    339865602,
    339865603,
    339865604,
    339865605,
    339865608,
    339865609,
    339865610,
    339865611,
    339865612,
    339865613,
    339865615,
    339865616,
    339865617,
    339865618,
    339865702,
    339865703,
    339865704,
    339865705,
    339865706,
    339865707,
    339865708,
    339865718,
    339865719,
    339865720,
    339865722,
    339865723,
    339865724,
    339865725,
    339865727,
    339865728,
    339865730,
    339865731,
    339865732,
    339865733,
    339865734,
    339865735,
    339865749,
    339873569,
    339873570,
    339873571,
    339873572,
    339865812,
    339865873,
    339865874,
    339865875,
    339875044,
    339875045
  ]
}