{
  "LHLJMFFCJHB": [
    205570421,
    205570422,
    205570423,
    205547845,
    205547847,
    205548383,
    205548384,
    205548385,
    205548386,
    205524353,
    205524354,
    205524355,
    205538145,
    205538146,
    205538147,
    205538148,
    205538149,
    205538150
  ]
}