{
  "luaDataPath": "",
  "startBlackKeepTime": 1.0,
  "entityBan": "",
  "disableNpcLod": true,
  "startFade": {
    "startFadeInDuration": 0.30000001192092896,
    "startFadeOutDuration": 0.30000001192092896
  },
  "endFade": {
    "startFadeOutDuration": 0.0
  },
  "actors": [
    {
      "alias": "Avatar",
      "visible": true,
      "bornPointName": "Q11111_Player_Defense_Pos_2",
      "relativePosNpcAlias": "",
      "_bindMovingTargetKey": ""
    },
    {
      "configID": 1005,
      "alias": "1005",
      "visible": true,
      "bornPointName": "Q11111_Paimon_Defense_Pos_2",
      "relativePosNpcAlias": "",
      "_bindMovingTargetKey": ""
    },
    {
      "configID": 10345,
      "alias": "10345",
      "visible": true,
      "bornPointName": "Q11111_Luocheng_Defense_Pos_1",
      "relativePosNpcAlias": "",
      "_bindMovingTargetKey": ""
    },
    {
      "configID": 1021,
      "alias": "1021",
      "visible": true,
      "bornPointName": "Q11111_Hutao_Defense_Pos_2",
      "relativePosNpcAlias": "",
      "_bindMovingTargetKey": ""
    },
    {
      "configID": 10343,
      "alias": "10343",
      "visible": true,
      "bornPointName": "Q11111_Laomeng_Defense_Pos_1",
      "relativePosNpcAlias": "",
      "_bindMovingTargetKey": ""
    },
    {
      "configID": 10344,
      "alias": "10344",
      "visible": true,
      "bornPointName": "Q11112_Langge_Pos",
      "relativePosNpcAlias": "",
      "_bindMovingTargetKey": ""
    }
  ],
  "group": [
    [
      {
        "$type": "FJKIHHKJLMJ",
        "type": "CAMERA_MOVE",
        "delayTime": 0.10000000149011612,
        "duration": 30.0,
        "camPosOffset": {
          "x": -378.5294494628906,
          "y": 274.2943115234375,
          "z": 514.3738403320312
        },
        "camForwardTargetOffset": {
          "x": -377.73162841796875,
          "y": 274.11822509765625,
          "z": 514.950439453125
        },
        "camFov": 20.0,
        "cameraBlendType": "EaseOutQuad",
        "NJBNNOMLKCK": {},
        "targetNpcAlias": "",
        "KJOEFBPOIIH": "",
        "IICFKKEBIEC": "",
        "EGEHEJEBLBJ": ""
      },
      {
        "$type": "FJKIHHKJLMJ",
        "type": "CAMERA_MOVE",
        "duration": 1.0,
        "camPosOffset": {
          "x": -379.1776428222656,
          "y": 274.2762145996094,
          "z": 515.5516967773438
        },
        "camForwardTargetOffset": {
          "x": -378.2635498046875,
          "y": 274.1060485839844,
          "z": 515.9197387695312
        },
        "camFov": 20.0,
        "lerpPattern": 6,
        "cameraBlendType": "EaseInOutCubic",
        "NJBNNOMLKCK": {},
        "targetNpcAlias": "",
        "KJOEFBPOIIH": "",
        "IICFKKEBIEC": "",
        "EGEHEJEBLBJ": ""
      },
      {
        "$type": "MoleMole.Config.ConfigMoveToAction",
        "type": "MOVE_TO",
        "aliasList": [
          "Avatar"
        ],
        "routeList": [
          {
            "x": -375.3252258300781,
            "y": 272.229736328125,
            "z": 517.470703125
          }
        ],
        "_bindMovingTargetKey": ""
      },
      {
        "$type": "LJLMDHDCAMK",
        "type": "LOOK_AT",
        "aliasList": [
          "Avatar"
        ],
        "enableHead": true,
        "targetNpcAlias": "10345",
        "targetNpcLookAtPoint": "",
        "OAFJBHJHLJG": ""
      },
      {
        "$type": "MoleMole.Config.ConfigMoveToAction",
        "type": "MOVE_TO",
        "aliasList": [
          "1005"
        ],
        "routeList": [
          {
            "x": -374.59051513671875,
            "y": 272.1837463378906,
            "z": 518.3724975585938
          }
        ],
        "_bindMovingTargetKey": ""
      },
      {
        "$type": "LJLMDHDCAMK",
        "type": "LOOK_AT",
        "aliasList": [
          "1005"
        ],
        "enableHead": true,
        "targetNpcAlias": "10345",
        "targetNpcLookAtPoint": "",
        "OAFJBHJHLJG": ""
      },
      {
        "$type": "MoleMole.Config.ConfigMoveToAction",
        "type": "MOVE_TO",
        "aliasList": [
          "10345"
        ],
        "routeList": [
          {
            "x": -374.7464599609375,
            "y": 272.2677001953125,
            "z": 516.5413818359375
          }
        ],
        "_bindMovingTargetKey": ""
      },
      {
        "$type": "LJLMDHDCAMK",
        "type": "LOOK_AT",
        "aliasList": [
          "10345"
        ],
        "enableHead": true,
        "targetNpcAlias": "1021",
        "targetNpcLookAtPoint": "",
        "OAFJBHJHLJG": ""
      },
      {
        "$type": "PKKMAMONGEO",
        "type": "DIALOG",
        "aliasList": [
          "1021"
        ],
        "dialogID": 111110501,
        "protectTime": 0.5
      },
      {
        "$type": "CPJKOIHIPBE",
        "type": "EMO_SYNC",
        "aliasList": [
          "1021"
        ],
        "dataPath": "Cs_Emo_Avatar_Simple_Common_Set/Cs_Emo_Avatar_Talk/Cs_Emo_Avatar_PersonalLine/Cs_Emo_Avatar_HuTao/Cs_Emo_111110501",
        "phonemePath": "",
        "emotionPath": "",
        "mateDataPath": "",
        "matePhonemePath": "",
        "mateEmotionPath": "",
        "dataPathHashList": [
          17477229738053944853,
          17370793906160645294,
          17096378594468096644,
          9507749320222869228
        ],
        "FMDPBECPELH": "",
        "ADKBLPOKGIK": ""
      },
      {
        "$type": "MoleMole.Config.ConfigMoveToAction",
        "type": "MOVE_TO",
        "aliasList": [
          "1021"
        ],
        "routeList": [
          {
            "x": -373.4349060058594,
            "y": 272.43231201171875,
            "z": 518.2510375976562
          }
        ],
        "_bindMovingTargetKey": ""
      },
      {
        "$type": "LJLMDHDCAMK",
        "type": "LOOK_AT",
        "aliasList": [
          "1021"
        ],
        "enableHead": true,
        "targetNpcAlias": "10345",
        "targetNpcLookAtPoint": "",
        "OAFJBHJHLJG": ""
      },
      {
        "$type": "FABLGECDBCH",
        "type": "BODY_LANG",
        "aliasList": [
          "1021"
        ],
        "bodyLangParam": 1120,
        "forceDoFreeStyle": true,
        "eventPatternSuiteKey": "",
        "FOHHKFAIAAJ": ""
      },
      {
        "$type": "LJLMDHDCAMK",
        "type": "LOOK_AT",
        "aliasList": [
          "10343"
        ],
        "enableHead": true,
        "targetNpcAlias": "10345",
        "targetNpcLookAtPoint": "",
        "OAFJBHJHLJG": ""
      },
      {
        "$type": "MoleMole.Config.ConfigVisibleInterAction",
        "type": "VISIBLE",
        "aliasList": [
          "10344"
        ],
        "_extraParam": ""
      },
      {
        "$type": "LJLMDHDCAMK",
        "type": "LOOK_AT",
        "aliasList": [
          "10344"
        ],
        "targetNpcAlias": "",
        "lookAtTargetType": "NONE",
        "targetNpcLookAtPoint": "",
        "OAFJBHJHLJG": ""
      }
    ],
    [
      {
        "$type": "FJKIHHKJLMJ",
        "type": "CAMERA_MOVE",
        "duration": 1.0,
        "camPosOffset": {
          "x": -372.9261169433594,
          "y": 273.8199157714844,
          "z": 520.49755859375
        },
        "camForwardTargetOffset": {
          "x": -373.22564697265625,
          "y": 273.7330322265625,
          "z": 519.5474243164062
        },
        "camFov": 20.0,
        "lerpPattern": 6,
        "cameraBlendType": "EaseInOutCubic",
        "NJBNNOMLKCK": {},
        "targetNpcAlias": "",
        "KJOEFBPOIIH": "",
        "IICFKKEBIEC": "",
        "EGEHEJEBLBJ": ""
      },
      {
        "$type": "PKKMAMONGEO",
        "type": "DIALOG",
        "aliasList": [
          "10345"
        ],
        "dialogID": 111110502,
        "protectTime": 0.5
      },
      {
        "$type": "CPJKOIHIPBE",
        "type": "EMO_SYNC",
        "aliasList": [
          "10345"
        ],
        "dataPath": "Cs_Emo_Avatar_Simple_Common_Set/Cs_Emo_Avatar_Talk/Cs_Emo_Avatar_PersonalLine/Cs_Emo_Avatar_HuTao/Cs_Emo_111110502",
        "phonemePath": "",
        "emotionPath": "",
        "mateDataPath": "",
        "matePhonemePath": "",
        "mateEmotionPath": "",
        "dataPathHashList": [
          6501212996203726974,
          2321073659963251611,
          17114982897171297916,
          9901580121668264511
        ],
        "FMDPBECPELH": "",
        "ADKBLPOKGIK": ""
      },
      {
        "$type": "FABLGECDBCH",
        "type": "BODY_LANG",
        "aliasList": [
          "10345"
        ],
        "bodyLangParam": 4030,
        "forceDoFreeStyle": true,
        "eventPatternSuiteKey": "",
        "FOHHKFAIAAJ": ""
      },
      {
        "$type": "FABLGECDBCH",
        "type": "BODY_LANG",
        "delayTime": 1.8027273416519165,
        "aliasList": [
          "10345"
        ],
        "bodyLangParam": 1130,
        "forceDoFreeStyle": true,
        "eventPatternSuiteKey": "",
        "FOHHKFAIAAJ": ""
      }
    ],
    [
      {
        "$type": "FJKIHHKJLMJ",
        "type": "CAMERA_MOVE",
        "delayTime": 0.5,
        "duration": 1.0,
        "camPosOffset": {
          "x": -375.3106994628906,
          "y": 273.4541320800781,
          "z": 520.8011474609375
        },
        "camForwardTargetOffset": {
          "x": -375.15179443359375,
          "y": 273.44512939453125,
          "z": 519.8139038085938
        },
        "camFov": 20.0,
        "lerpPattern": 6,
        "cameraBlendType": "EaseInOutCubic",
        "NJBNNOMLKCK": {},
        "targetNpcAlias": "",
        "KJOEFBPOIIH": "",
        "IICFKKEBIEC": "",
        "EGEHEJEBLBJ": ""
      },
      {
        "$type": "PKKMAMONGEO",
        "type": "DIALOG",
        "aliasList": [
          "10345"
        ],
        "dialogID": 111110503,
        "protectTime": 1.0
      },
      {
        "$type": "CPJKOIHIPBE",
        "type": "EMO_SYNC",
        "aliasList": [
          "10345"
        ],
        "dataPath": "Cs_Emo_Avatar_Simple_Common_Set/Cs_Emo_Avatar_Talk/Cs_Emo_Avatar_PersonalLine/Cs_Emo_Avatar_HuTao/Cs_Emo_111110503",
        "phonemePath": "",
        "emotionPath": "",
        "mateDataPath": "",
        "matePhonemePath": "",
        "mateEmotionPath": "",
        "dataPathHashList": [
          8244861668597036510,
          3656274759028156914,
          8412447141008039358,
          16516880442119667886
        ],
        "FMDPBECPELH": "",
        "ADKBLPOKGIK": ""
      },
      {
        "$type": "FABLGECDBCH",
        "type": "BODY_LANG",
        "aliasList": [
          "10345"
        ],
        "bodyLangParam": 4030,
        "forceDoFreeStyle": true,
        "eventPatternSuiteKey": "",
        "FOHHKFAIAAJ": ""
      },
      {
        "$type": "LJLMDHDCAMK",
        "type": "LOOK_AT",
        "delayTime": 1.5492743253707886,
        "aliasList": [
          "10345"
        ],
        "enableHead": true,
        "headTurnTime": 0.6000000238418579,
        "targetNpcAlias": "Avatar",
        "targetNpcLookAtPoint": "",
        "OAFJBHJHLJG": ""
      },
      {
        "$type": "FABLGECDBCH",
        "type": "BODY_LANG",
        "delayTime": 1.428956389427185,
        "aliasList": [
          "10345"
        ],
        "isContinue": true,
        "forceDoFreeStyle": true,
        "eventPatternSuiteKey": "",
        "FOHHKFAIAAJ": ""
      },
      {
        "$type": "FABLGECDBCH",
        "type": "BODY_LANG",
        "delayTime": 2.633453845977783,
        "aliasList": [
          "10345"
        ],
        "bodyLangParam": 1173,
        "forceDoFreeStyle": true,
        "eventPatternSuiteKey": "",
        "FOHHKFAIAAJ": ""
      },
      {
        "$type": "FABLGECDBCH",
        "type": "BODY_LANG",
        "aliasList": [
          "1021"
        ],
        "isContinue": true,
        "forceDoFreeStyle": true,
        "eventPatternSuiteKey": "",
        "FOHHKFAIAAJ": ""
      }
    ],
    [
      {
        "$type": "FJKIHHKJLMJ",
        "type": "CAMERA_MOVE",
        "duration": 1.0,
        "camPosOffset": {
          "x": -374.8627014160156,
          "y": 273.7115478515625,
          "z": 517.282958984375
        },
        "camForwardTargetOffset": {
          "x": -373.98516845703125,
          "y": 273.69354248046875,
          "z": 517.7621459960938
        },
        "camFov": 20.0,
        "lerpPattern": 6,
        "cameraBlendType": "EaseInOutCubic",
        "NJBNNOMLKCK": {},
        "targetNpcAlias": "",
        "KJOEFBPOIIH": "",
        "IICFKKEBIEC": "",
        "EGEHEJEBLBJ": ""
      },
      {
        "$type": "LLGANGLOEEO",
        "type": "STEER_TO",
        "aliasList": [
          "10345"
        ],
        "steerType": "ABSOLUTE",
        "steerDir": {
          "x": -373.8819274902344,
          "y": 272.25274658203125,
          "z": 517.5130004882812
        },
        "targetNpcAlias": "",
        "OAFJBHJHLJG": ""
      },
      {
        "$type": "PKKMAMONGEO",
        "type": "DIALOG",
        "aliasList": [
          "1021"
        ],
        "dialogID": 111110504,
        "protectTime": 0.5
      },
      {
        "$type": "CPJKOIHIPBE",
        "type": "EMO_SYNC",
        "aliasList": [
          "1021"
        ],
        "dataPath": "Cs_Emo_Avatar_Simple_Common_Set/Cs_Emo_Avatar_Talk/Cs_Emo_Avatar_PersonalLine/Cs_Emo_Avatar_HuTao/Cs_Emo_111110504",
        "phonemePath": "",
        "emotionPath": "",
        "mateDataPath": "",
        "matePhonemePath": "",
        "mateEmotionPath": "",
        "enableBlink": false,
        "dataPathHashList": [
          12329830901516881691,
          5403518173181845539,
          1787290514127772961,
          13933618345352084379
        ],
        "FMDPBECPELH": "",
        "ADKBLPOKGIK": ""
      },
      {
        "$type": "FABLGECDBCH",
        "type": "BODY_LANG",
        "aliasList": [
          "1021"
        ],
        "bodyLangParam": 1220,
        "forceDoFreeStyle": true,
        "eventPatternSuiteKey": "",
        "FOHHKFAIAAJ": ""
      }
    ],
    [
      {
        "$type": "FJKIHHKJLMJ",
        "type": "CAMERA_MOVE",
        "duration": 1.0,
        "camPosOffset": {
          "x": -374.6796569824219,
          "y": 273.7391357421875,
          "z": 517.4552612304688
        },
        "camForwardTargetOffset": {
          "x": -373.8021240234375,
          "y": 273.72113037109375,
          "z": 517.9344482421875
        },
        "camFov": 20.0,
        "cameraBlendType": "EaseInOutCubic",
        "NJBNNOMLKCK": {},
        "targetNpcAlias": "",
        "KJOEFBPOIIH": "",
        "IICFKKEBIEC": "",
        "EGEHEJEBLBJ": ""
      },
      {
        "$type": "MoleMole.Config.ConfigAudioPlayAction",
        "type": "AUDIO_PLAY",
        "audioEventStr": "Play_quest_lineDiluc_emotion_common"
      },
      {
        "$type": "LJLMDHDCAMK",
        "type": "LOOK_AT",
        "aliasList": [
          "10345"
        ],
        "enableHead": true,
        "targetNpcAlias": "1021",
        "targetNpcLookAtPoint": "",
        "OAFJBHJHLJG": ""
      },
      {
        "$type": "PKKMAMONGEO",
        "type": "DIALOG",
        "aliasList": [
          "1021"
        ],
        "dialogID": 111110505,
        "protectTime": 0.5
      },
      {
        "$type": "CPJKOIHIPBE",
        "type": "EMO_SYNC",
        "aliasList": [
          "1021"
        ],
        "dataPath": "Cs_Emo_Avatar_Simple_Common_Set/Cs_Emo_Avatar_Talk/Cs_Emo_Avatar_PersonalLine/Cs_Emo_Avatar_HuTao/Cs_Emo_111110505",
        "phonemePath": "",
        "emotionPath": "",
        "mateDataPath": "",
        "matePhonemePath": "",
        "mateEmotionPath": "",
        "dataPathHashList": [
          15134537428584365138,
          10305843818897232308,
          17713913696366346008,
          11627911245230192446
        ],
        "FMDPBECPELH": "",
        "ADKBLPOKGIK": ""
      },
      {
        "$type": "FABLGECDBCH",
        "type": "BODY_LANG",
        "aliasList": [
          "1021"
        ],
        "bodyLangParam": 1060,
        "forceDoFreeStyle": true,
        "eventPatternSuiteKey": "",
        "FOHHKFAIAAJ": ""
      }
    ],
    [
      {
        "$type": "FJKIHHKJLMJ",
        "type": "CAMERA_MOVE",
        "duration": 1.0,
        "camPosOffset": {
          "x": -374.2557678222656,
          "y": 273.841552734375,
          "z": 518.1912231445312
        },
        "camForwardTargetOffset": {
          "x": -374.5247802734375,
          "y": 273.82354736328125,
          "z": 517.228271484375
        },
        "camFov": 20.0,
        "lerpPattern": 6,
        "cameraBlendType": "EaseInOutCubic",
        "NJBNNOMLKCK": {},
        "targetNpcAlias": "",
        "KJOEFBPOIIH": "",
        "IICFKKEBIEC": "",
        "EGEHEJEBLBJ": ""
      },
      {
        "$type": "PKKMAMONGEO",
        "type": "DIALOG",
        "aliasList": [
          "10345"
        ],
        "dialogID": 111110506,
        "protectTime": 0.5
      },
      {
        "$type": "CPJKOIHIPBE",
        "type": "EMO_SYNC",
        "aliasList": [
          "10345"
        ],
        "dataPath": "Cs_Emo_Avatar_Simple_Common_Set/Cs_Emo_Avatar_Talk/Cs_Emo_Avatar_PersonalLine/Cs_Emo_Avatar_HuTao/Cs_Emo_111110506",
        "phonemePath": "",
        "emotionPath": "",
        "mateDataPath": "",
        "matePhonemePath": "",
        "mateEmotionPath": "",
        "dataPathHashList": [
          9289076882933181861,
          12696273605484961079,
          17255550491646501937,
          1225688153983259526
        ],
        "FMDPBECPELH": "",
        "ADKBLPOKGIK": ""
      },
      {
        "$type": "FABLGECDBCH",
        "type": "BODY_LANG",
        "aliasList": [
          "10345"
        ],
        "bodyLangParam": 1040,
        "forceDoFreeStyle": true,
        "eventPatternSuiteKey": "",
        "FOHHKFAIAAJ": ""
      },
      {
        "$type": "LJLMDHDCAMK",
        "type": "LOOK_AT",
        "aliasList": [
          "10345"
        ],
        "enableHead": true,
        "targetNpcAlias": "1021",
        "targetNpcLookAtPoint": "",
        "OAFJBHJHLJG": ""
      }
    ],
    [
      {
        "$type": "FJKIHHKJLMJ",
        "type": "CAMERA_MOVE",
        "delayTime": 0.10000000149011612,
        "duration": 20.0,
        "camPosOffset": {
          "x": -390.72412109375,
          "y": 271.3785705566406,
          "z": 535.8870239257812
        },
        "camForwardTargetOffset": {
          "x": -390.13128662109375,
          "y": 271.4265441894531,
          "z": 535.0831298828125
        },
        "camFov": 20.0,
        "cameraBlendType": "EaseOutQuad",
        "NJBNNOMLKCK": {},
        "targetNpcAlias": "",
        "KJOEFBPOIIH": "",
        "IICFKKEBIEC": "",
        "EGEHEJEBLBJ": ""
      },
      {
        "$type": "FJKIHHKJLMJ",
        "type": "CAMERA_MOVE",
        "duration": 1.0,
        "camPosOffset": {
          "x": -390.7252197265625,
          "y": 271.2532958984375,
          "z": 535.8787841796875
        },
        "camForwardTargetOffset": {
          "x": -390.13238525390625,
          "y": 271.30126953125,
          "z": 535.0748901367188
        },
        "camFov": 20.0,
        "lerpPattern": 6,
        "cameraBlendType": "EaseInOutCubic",
        "NJBNNOMLKCK": {},
        "targetNpcAlias": "",
        "KJOEFBPOIIH": "",
        "IICFKKEBIEC": "",
        "EGEHEJEBLBJ": ""
      },
      {
        "$type": "MoleMole.Config.ConfigCameraDOFAction",
        "type": "CAMERA_DOF",
        "enabled": true,
        "focusDistance": 31.25,
        "focusRange": 5.300000190734863,
        "nearFocalDistance": 16.299999237060547,
        "nearFocalTransDistance": 14.100000381469727,
        "dofBlurAmount": 0.5
      },
      {
        "$type": "FABLGECDBCH",
        "type": "BODY_LANG",
        "aliasList": [
          "10345"
        ],
        "isContinue": true,
        "forceDoFreeStyle": true,
        "eventPatternSuiteKey": "",
        "FOHHKFAIAAJ": ""
      },
      {
        "$type": "PKKMAMONGEO",
        "type": "DIALOG",
        "aliasList": [
          "1021"
        ],
        "dialogID": 111110507,
        "protectTime": 0.5
      },
      {
        "$type": "CPJKOIHIPBE",
        "type": "EMO_SYNC",
        "aliasList": [
          "1021"
        ],
        "dataPath": "Cs_Emo_Avatar_Simple_Common_Set/Cs_Emo_Avatar_Talk/Cs_Emo_Avatar_PersonalLine/Cs_Emo_Avatar_HuTao/Cs_Emo_111110507",
        "phonemePath": "",
        "emotionPath": "",
        "mateDataPath": "",
        "matePhonemePath": "",
        "mateEmotionPath": "",
        "dataPathHashList": [
          9111907272645870429,
          7653763782277609270,
          4818371079815285459,
          4838033104586407380
        ],
        "FMDPBECPELH": "",
        "ADKBLPOKGIK": ""
      },
      {
        "$type": "FABLGECDBCH",
        "type": "BODY_LANG",
        "aliasList": [
          "1021"
        ],
        "bodyLangParam": 1171,
        "forceDoFreeStyle": true,
        "eventPatternSuiteKey": "",
        "FOHHKFAIAAJ": ""
      }
    ],
    [
      {
        "$type": "PKKMAMONGEO",
        "type": "DIALOG",
        "aliasList": [
          "1021"
        ],
        "dialogID": 111110508,
        "protectTime": 0.5
      },
      {
        "$type": "CPJKOIHIPBE",
        "type": "EMO_SYNC",
        "aliasList": [
          "1021"
        ],
        "dataPath": "Cs_Emo_Avatar_Simple_Common_Set/Cs_Emo_Avatar_Talk/Cs_Emo_Avatar_PersonalLine/Cs_Emo_Avatar_HuTao/Cs_Emo_111110508",
        "phonemePath": "",
        "emotionPath": "",
        "mateDataPath": "",
        "matePhonemePath": "",
        "mateEmotionPath": "",
        "dataPathHashList": [
          9409211562465220183,
          10205209277123789059,
          7580583153262242628,
          7608495464462208157
        ],
        "FMDPBECPELH": "",
        "ADKBLPOKGIK": ""
      },
      {
        "$type": "FABLGECDBCH",
        "type": "BODY_LANG",
        "aliasList": [
          "1021"
        ],
        "bodyLangParam": 1173,
        "forceDoFreeStyle": true,
        "eventPatternSuiteKey": "",
        "FOHHKFAIAAJ": ""
      }
    ],
    [
      {
        "$type": "FJKIHHKJLMJ",
        "type": "CAMERA_MOVE",
        "duration": 1.0,
        "camPosOffset": {
          "x": -376.7424621582031,
          "y": 274.1280517578125,
          "z": 515.6632080078125
        },
        "camForwardTargetOffset": {
          "x": -375.8975830078125,
          "y": 273.9578857421875,
          "z": 516.1703491210938
        },
        "camFov": 20.0,
        "lerpPattern": 6,
        "cameraBlendType": "EaseInOutCubic",
        "NJBNNOMLKCK": {},
        "targetNpcAlias": "",
        "KJOEFBPOIIH": "",
        "IICFKKEBIEC": "",
        "EGEHEJEBLBJ": ""
      },
      {
        "$type": "MoleMole.Config.ConfigCameraDOFAction",
        "type": "CAMERA_DOF"
      },
      {
        "$type": "LJLMDHDCAMK",
        "type": "LOOK_AT",
        "aliasList": [
          "10345"
        ],
        "enableHead": true,
        "targetNpcAlias": "1021",
        "targetNpcLookAtPoint": "",
        "OAFJBHJHLJG": ""
      },
      {
        "$type": "PKKMAMONGEO",
        "type": "DIALOG",
        "aliasList": [
          "1021"
        ],
        "dialogID": 111110509,
        "protectTime": 0.5
      },
      {
        "$type": "CPJKOIHIPBE",
        "type": "EMO_SYNC",
        "aliasList": [
          "1021"
        ],
        "dataPath": "Cs_Emo_Avatar_Simple_Common_Set/Cs_Emo_Avatar_Talk/Cs_Emo_Avatar_PersonalLine/Cs_Emo_Avatar_HuTao/Cs_Emo_111110509",
        "phonemePath": "",
        "emotionPath": "",
        "mateDataPath": "",
        "matePhonemePath": "",
        "mateEmotionPath": "",
        "dataPathHashList": [
          2900767020046512010,
          7635418855848786411,
          8480398945610584836,
          17402074490925021194
        ],
        "FMDPBECPELH": "",
        "ADKBLPOKGIK": ""
      },
      {
        "$type": "FABLGECDBCH",
        "type": "BODY_LANG",
        "aliasList": [
          "1021"
        ],
        "bodyLangParam": 1190,
        "forceDoFreeStyle": true,
        "eventPatternSuiteKey": "",
        "FOHHKFAIAAJ": ""
      },
      {
        "$type": "FABLGECDBCH",
        "type": "BODY_LANG",
        "delayTime": 5.903387546539307,
        "aliasList": [
          "1021"
        ],
        "bodyLangParam": 1110,
        "forceDoFreeStyle": true,
        "eventPatternSuiteKey": "",
        "FOHHKFAIAAJ": ""
      },
      {
        "$type": "FABLGECDBCH",
        "type": "BODY_LANG",
        "delayTime": 2.6432418823242188,
        "aliasList": [
          "1021"
        ],
        "bodyLangParam": 4040,
        "forceDoFreeStyle": true,
        "eventPatternSuiteKey": "",
        "FOHHKFAIAAJ": ""
      },
      {
        "$type": "FABLGECDBCH",
        "type": "BODY_LANG",
        "delayTime": 3.907022714614868,
        "aliasList": [
          "1021"
        ],
        "isContinue": true,
        "forceDoFreeStyle": true,
        "eventPatternSuiteKey": "",
        "FOHHKFAIAAJ": ""
      }
    ],
    [
      {
        "$type": "FJKIHHKJLMJ",
        "type": "CAMERA_MOVE",
        "duration": 1.0,
        "camPosOffset": {
          "x": -374.9634704589844,
          "y": 273.9551696777344,
          "z": 517.92041015625
        },
        "camForwardTargetOffset": {
          "x": -374.7414245605469,
          "y": 273.88922119140625,
          "z": 516.9476318359375
        },
        "camFov": 20.0,
        "lerpPattern": 6,
        "cameraBlendType": "EaseInOutCubic",
        "NJBNNOMLKCK": {},
        "targetNpcAlias": "",
        "KJOEFBPOIIH": "",
        "IICFKKEBIEC": "",
        "EGEHEJEBLBJ": ""
      },
      {
        "$type": "PKKMAMONGEO",
        "type": "DIALOG",
        "aliasList": [
          "10345"
        ],
        "dialogID": 111110510,
        "protectTime": 0.5
      },
      {
        "$type": "CPJKOIHIPBE",
        "type": "EMO_SYNC",
        "aliasList": [
          "10345"
        ],
        "dataPath": "Cs_Emo_Avatar_Simple_Common_Set/Cs_Emo_Avatar_Talk/Cs_Emo_Avatar_PersonalLine/Cs_Emo_Avatar_HuTao/Cs_Emo_111110510",
        "phonemePath": "",
        "emotionPath": "",
        "mateDataPath": "",
        "matePhonemePath": "",
        "mateEmotionPath": "",
        "dataPathHashList": [
          16355114566466256816,
          8080923495351003449,
          7776858775540606265,
          13107427986951970073
        ],
        "FMDPBECPELH": "",
        "ADKBLPOKGIK": ""
      },
      {
        "$type": "FABLGECDBCH",
        "type": "BODY_LANG",
        "aliasList": [
          "10345"
        ],
        "bodyLangParam": 1050,
        "forceDoFreeStyle": true,
        "eventPatternSuiteKey": "",
        "FOHHKFAIAAJ": ""
      },
      {
        "$type": "FABLGECDBCH",
        "type": "BODY_LANG",
        "aliasList": [
          "1021"
        ],
        "isContinue": true,
        "forceDoFreeStyle": true,
        "eventPatternSuiteKey": "",
        "FOHHKFAIAAJ": ""
      },
      {
        "$type": "LJLMDHDCAMK",
        "type": "LOOK_AT",
        "aliasList": [
          "10343"
        ],
        "enableHead": true,
        "targetNpcAlias": "Avatar",
        "targetNpcLookAtPoint": "",
        "OAFJBHJHLJG": ""
      }
    ],
    [
      {
        "$type": "PKKMAMONGEO",
        "type": "DIALOG",
        "aliasList": [
          "10345"
        ],
        "dialogID": 111110511,
        "protectTime": 0.5
      },
      {
        "$type": "CPJKOIHIPBE",
        "type": "EMO_SYNC",
        "aliasList": [
          "10345"
        ],
        "dataPath": "Cs_Emo_Avatar_Simple_Common_Set/Cs_Emo_Avatar_Talk/Cs_Emo_Avatar_PersonalLine/Cs_Emo_Avatar_HuTao/Cs_Emo_111110511",
        "phonemePath": "",
        "emotionPath": "",
        "mateDataPath": "",
        "matePhonemePath": "",
        "mateEmotionPath": "",
        "dataPathHashList": [
          6695794347446406688,
          9324211952896559716,
          10938935097447355369,
          8594061938955516484
        ],
        "FMDPBECPELH": "",
        "ADKBLPOKGIK": ""
      },
      {
        "$type": "FABLGECDBCH",
        "type": "BODY_LANG",
        "aliasList": [
          "10345"
        ],
        "isContinue": true,
        "forceDoFreeStyle": true,
        "eventPatternSuiteKey": "",
        "FOHHKFAIAAJ": ""
      },
      {
        "$type": "FABLGECDBCH",
        "type": "BODY_LANG",
        "delayTime": 1.4155738353729248,
        "aliasList": [
          "10345"
        ],
        "bodyLangParam": 1130,
        "forceDoFreeStyle": true,
        "eventPatternSuiteKey": "",
        "FOHHKFAIAAJ": ""
      }
    ],
    [
      {
        "$type": "FJKIHHKJLMJ",
        "type": "CAMERA_MOVE",
        "delayTime": 0.10000000149011612,
        "duration": 20.0,
        "camPosOffset": {
          "x": -374.9352111816406,
          "y": 273.72125244140625,
          "z": 517.5070190429688
        },
        "camForwardTargetOffset": {
          "x": -374.01055908203125,
          "y": 273.7122497558594,
          "z": 517.8877563476562
        },
        "camFov": 20.0,
        "cameraBlendType": "EaseOutQuad",
        "NJBNNOMLKCK": {},
        "targetNpcAlias": "",
        "KJOEFBPOIIH": "",
        "IICFKKEBIEC": "",
        "EGEHEJEBLBJ": ""
      },
      {
        "$type": "FJKIHHKJLMJ",
        "type": "CAMERA_MOVE",
        "duration": 1.0,
        "camPosOffset": {
          "x": -374.9349670410156,
          "y": 273.6475830078125,
          "z": 517.5047607421875
        },
        "camForwardTargetOffset": {
          "x": -374.01031494140625,
          "y": 273.6385803222656,
          "z": 517.885498046875
        },
        "camFov": 20.0,
        "lerpPattern": 6,
        "cameraBlendType": "EaseInOutCubic",
        "NJBNNOMLKCK": {},
        "targetNpcAlias": "",
        "KJOEFBPOIIH": "",
        "IICFKKEBIEC": "",
        "EGEHEJEBLBJ": ""
      },
      {
        "$type": "FABLGECDBCH",
        "type": "BODY_LANG",
        "aliasList": [
          "10345"
        ],
        "isContinue": true,
        "forceDoFreeStyle": true,
        "eventPatternSuiteKey": "",
        "FOHHKFAIAAJ": ""
      },
      {
        "$type": "PKKMAMONGEO",
        "type": "DIALOG",
        "aliasList": [
          "1021"
        ],
        "dialogID": 111110512,
        "protectTime": 0.5
      },
      {
        "$type": "CPJKOIHIPBE",
        "type": "EMO_SYNC",
        "aliasList": [
          "1021"
        ],
        "dataPath": "Cs_Emo_Avatar_Simple_Common_Set/Cs_Emo_Avatar_Talk/Cs_Emo_Avatar_PersonalLine/Cs_Emo_Avatar_HuTao/Cs_Emo_111110512",
        "phonemePath": "",
        "emotionPath": "",
        "mateDataPath": "",
        "matePhonemePath": "",
        "mateEmotionPath": "",
        "dataPathHashList": [
          10726791348434112704,
          15871259268601891010,
          121997912059562672,
          804263377935708506
        ],
        "FMDPBECPELH": "",
        "ADKBLPOKGIK": ""
      },
      {
        "$type": "FABLGECDBCH",
        "type": "BODY_LANG",
        "delayTime": 7.312315464019775,
        "aliasList": [
          "1021"
        ],
        "bodyLangParam": 1120,
        "forceDoFreeStyle": true,
        "eventPatternSuiteKey": "",
        "FOHHKFAIAAJ": ""
      },
      {
        "$type": "FABLGECDBCH",
        "type": "BODY_LANG",
        "aliasList": [
          "1021"
        ],
        "bodyLangParam": 1173,
        "forceDoFreeStyle": true,
        "eventPatternSuiteKey": "",
        "FOHHKFAIAAJ": ""
      },
      {
        "$type": "FABLGECDBCH",
        "type": "BODY_LANG",
        "delayTime": 3.51458477973938,
        "aliasList": [
          "1021"
        ],
        "bodyLangParam": 1171,
        "forceDoFreeStyle": true,
        "eventPatternSuiteKey": "",
        "FOHHKFAIAAJ": ""
      }
    ],
    [
      {
        "$type": "FJKIHHKJLMJ",
        "type": "CAMERA_MOVE",
        "duration": 1.0,
        "camPosOffset": {
          "x": -376.2513122558594,
          "y": 273.90997314453125,
          "z": 516.9681396484375
        },
        "camForwardTargetOffset": {
          "x": -375.25762939453125,
          "y": 273.86798095703125,
          "z": 516.864013671875
        },
        "camFov": 20.0,
        "lerpPattern": 6,
        "cameraBlendType": "EaseInOutCubic",
        "NJBNNOMLKCK": {},
        "targetNpcAlias": "",
        "KJOEFBPOIIH": "",
        "IICFKKEBIEC": "",
        "EGEHEJEBLBJ": ""
      },
      {
        "$type": "LJLMDHDCAMK",
        "type": "LOOK_AT",
        "aliasList": [
          "10345"
        ],
        "enableHead": true,
        "targetNpcAlias": "10343",
        "targetNpcLookAtPoint": "",
        "OAFJBHJHLJG": ""
      },
      {
        "$type": "FABLGECDBCH",
        "type": "BODY_LANG",
        "aliasList": [
          "1021"
        ],
        "isContinue": true,
        "forceDoFreeStyle": true,
        "eventPatternSuiteKey": "",
        "FOHHKFAIAAJ": ""
      },
      {
        "$type": "PKKMAMONGEO",
        "type": "DIALOG",
        "aliasList": [
          "10343"
        ],
        "dialogID": 111110513,
        "protectTime": 0.5
      },
      {
        "$type": "CPJKOIHIPBE",
        "type": "EMO_SYNC",
        "aliasList": [
          "10343"
        ],
        "dataPath": "Cs_Emo_Avatar_Simple_Common_Set/Cs_Emo_Avatar_Talk/Cs_Emo_Avatar_PersonalLine/Cs_Emo_Avatar_HuTao/Cs_Emo_111110513",
        "phonemePath": "",
        "emotionPath": "",
        "mateDataPath": "",
        "matePhonemePath": "",
        "mateEmotionPath": "",
        "dataPathHashList": [
          3165657593511512207,
          5338822376446320201,
          4752483967401556029,
          11409447228874221021
        ],
        "FMDPBECPELH": "",
        "ADKBLPOKGIK": ""
      },
      {
        "$type": "LJLMDHDCAMK",
        "type": "LOOK_AT",
        "aliasList": [
          "10343"
        ],
        "targetNpcAlias": "",
        "targetNpcLookAtPoint": "",
        "OAFJBHJHLJG": ""
      },
      {
        "$type": "FABLGECDBCH",
        "type": "BODY_LANG",
        "aliasList": [
          "10343"
        ],
        "bodyLangParam": 1190,
        "forceDoFreeStyle": true,
        "eventPatternSuiteKey": "",
        "FOHHKFAIAAJ": ""
      }
    ],
    [
      {
        "$type": "PKKMAMONGEO",
        "type": "DIALOG",
        "aliasList": [
          "10345"
        ],
        "dialogID": 111110514,
        "protectTime": 0.5
      },
      {
        "$type": "CPJKOIHIPBE",
        "type": "EMO_SYNC",
        "aliasList": [
          "10345"
        ],
        "dataPath": "Cs_Emo_Avatar_Simple_Common_Set/Cs_Emo_Avatar_Talk/Cs_Emo_Avatar_PersonalLine/Cs_Emo_Avatar_HuTao/Cs_Emo_111110514",
        "phonemePath": "",
        "emotionPath": "",
        "mateDataPath": "",
        "matePhonemePath": "",
        "mateEmotionPath": "",
        "dataPathHashList": [
          4880394071563207238,
          14597333804888130344,
          13749954499420810322,
          7763076972885352788
        ],
        "FMDPBECPELH": "",
        "ADKBLPOKGIK": ""
      },
      {
        "$type": "FABLGECDBCH",
        "type": "BODY_LANG",
        "aliasList": [
          "10345"
        ],
        "bodyLangParam": 1173,
        "forceDoFreeStyle": true,
        "eventPatternSuiteKey": "",
        "FOHHKFAIAAJ": ""
      },
      {
        "$type": "LJLMDHDCAMK",
        "type": "LOOK_AT",
        "delayTime": 2.241983413696289,
        "aliasList": [
          "10345"
        ],
        "enableHead": true,
        "headTurnTime": 0.5,
        "targetNpcAlias": "1021",
        "targetNpcLookAtPoint": "",
        "OAFJBHJHLJG": ""
      },
      {
        "$type": "LJLMDHDCAMK",
        "type": "LOOK_AT",
        "aliasList": [
          "10345"
        ],
        "enableHead": true,
        "headTurnTime": 0.4000000059604645,
        "targetNpcAlias": "10343",
        "targetNpcLookAtPoint": "",
        "OAFJBHJHLJG": ""
      }
    ],
    [
      {
        "$type": "FJKIHHKJLMJ",
        "type": "CAMERA_MOVE",
        "duration": 1.0,
        "camPosOffset": {
          "x": -376.7070007324219,
          "y": 274.1456298828125,
          "z": 515.4608154296875
        },
        "camForwardTargetOffset": {
          "x": -375.8950500488281,
          "y": 273.957763671875,
          "z": 516.0134887695312
        },
        "camFov": 20.0,
        "lerpPattern": 6,
        "cameraBlendType": "EaseInOutCubic",
        "NJBNNOMLKCK": {},
        "targetNpcAlias": "",
        "KJOEFBPOIIH": "",
        "IICFKKEBIEC": "",
        "EGEHEJEBLBJ": ""
      },
      {
        "$type": "LJLMDHDCAMK",
        "type": "LOOK_AT",
        "aliasList": [
          "10345"
        ],
        "enableHead": true,
        "headTurnTime": 0.5,
        "targetNpcAlias": "1021",
        "targetNpcLookAtPoint": "",
        "OAFJBHJHLJG": ""
      },
      {
        "$type": "PKKMAMONGEO",
        "type": "DIALOG",
        "aliasList": [
          "1021"
        ],
        "dialogID": 111110515,
        "protectTime": 0.5
      },
      {
        "$type": "CPJKOIHIPBE",
        "type": "EMO_SYNC",
        "aliasList": [
          "1021"
        ],
        "dataPath": "Cs_Emo_Avatar_Simple_Common_Set/Cs_Emo_Avatar_Talk/Cs_Emo_Avatar_PersonalLine/Cs_Emo_Avatar_HuTao/Cs_Emo_111110515",
        "phonemePath": "",
        "emotionPath": "",
        "mateDataPath": "",
        "matePhonemePath": "",
        "mateEmotionPath": "",
        "dataPathHashList": [
          8497798568211462850,
          2134415471272938798,
          9623894168105971263,
          16690477535742710113
        ],
        "FMDPBECPELH": "",
        "ADKBLPOKGIK": ""
      },
      {
        "$type": "FABLGECDBCH",
        "type": "BODY_LANG",
        "aliasList": [
          "1021"
        ],
        "bodyLangParam": 1172,
        "forceDoFreeStyle": true,
        "eventPatternSuiteKey": "",
        "FOHHKFAIAAJ": ""
      },
      {
        "$type": "FABLGECDBCH",
        "type": "BODY_LANG",
        "delayTime": 4.784047603607178,
        "aliasList": [
          "1021"
        ],
        "bodyLangParam": 1110,
        "forceDoFreeStyle": true,
        "eventPatternSuiteKey": "",
        "FOHHKFAIAAJ": ""
      }
    ],
    [
      {
        "$type": "PKKMAMONGEO",
        "type": "DIALOG",
        "aliasList": [
          "1021"
        ],
        "dialogID": 111110516,
        "protectTime": 0.5
      },
      {
        "$type": "CPJKOIHIPBE",
        "type": "EMO_SYNC",
        "aliasList": [
          "1021"
        ],
        "dataPath": "Cs_Emo_Avatar_Simple_Common_Set/Cs_Emo_Avatar_Talk/Cs_Emo_Avatar_PersonalLine/Cs_Emo_Avatar_HuTao/Cs_Emo_111110516",
        "phonemePath": "",
        "emotionPath": "",
        "mateDataPath": "",
        "matePhonemePath": "",
        "mateEmotionPath": "",
        "dataPathHashList": [
          10807386071667008029,
          12023418653495689526,
          17017960595017409800,
          18272166422514642176
        ],
        "FMDPBECPELH": "",
        "ADKBLPOKGIK": ""
      },
      {
        "$type": "FABLGECDBCH",
        "type": "BODY_LANG",
        "delayTime": 1.381881833076477,
        "aliasList": [
          "1021"
        ],
        "bodyLangParam": 1173,
        "forceDoFreeStyle": true,
        "eventPatternSuiteKey": "",
        "FOHHKFAIAAJ": ""
      },
      {
        "$type": "FABLGECDBCH",
        "type": "BODY_LANG",
        "aliasList": [
          "1021"
        ],
        "isContinue": true,
        "forceDoFreeStyle": true,
        "eventPatternSuiteKey": "",
        "FOHHKFAIAAJ": ""
      }
    ],
    [
      {
        "$type": "FJKIHHKJLMJ",
        "type": "CAMERA_MOVE",
        "duration": 1.0,
        "camPosOffset": {
          "x": -374.1856689453125,
          "y": 274.0995788574219,
          "z": 518.6414794921875
        },
        "camForwardTargetOffset": {
          "x": -374.4007568359375,
          "y": 273.9412536621094,
          "z": 517.6777954101562
        },
        "camFov": 20.0,
        "lerpPattern": 6,
        "cameraBlendType": "EaseInOutCubic",
        "NJBNNOMLKCK": {},
        "targetNpcAlias": "",
        "KJOEFBPOIIH": "",
        "IICFKKEBIEC": "",
        "EGEHEJEBLBJ": ""
      },
      {
        "$type": "PKKMAMONGEO",
        "type": "DIALOG",
        "aliasList": [
          "10345"
        ],
        "dialogID": 111110517,
        "protectTime": 0.5
      },
      {
        "$type": "CPJKOIHIPBE",
        "type": "EMO_SYNC",
        "aliasList": [
          "10345"
        ],
        "dataPath": "Cs_Emo_Avatar_Simple_Common_Set/Cs_Emo_Avatar_Talk/Cs_Emo_Avatar_PersonalLine/Cs_Emo_Avatar_HuTao/Cs_Emo_111110517",
        "phonemePath": "",
        "emotionPath": "",
        "mateDataPath": "",
        "matePhonemePath": "",
        "mateEmotionPath": "",
        "dataPathHashList": [
          11535266673421599309,
          17363343725830417643,
          2835509656261810316,
          15434701788157643529
        ],
        "FMDPBECPELH": "",
        "ADKBLPOKGIK": ""
      },
      {
        "$type": "FABLGECDBCH",
        "type": "BODY_LANG",
        "aliasList": [
          "10345"
        ],
        "bodyLangParam": 1050,
        "forceDoFreeStyle": true,
        "eventPatternSuiteKey": "",
        "FOHHKFAIAAJ": ""
      }
    ],
    [
      {
        "$type": "PKKMAMONGEO",
        "type": "DIALOG",
        "aliasList": [
          "10345"
        ],
        "dialogID": 111110518,
        "protectTime": 0.5
      },
      {
        "$type": "CPJKOIHIPBE",
        "type": "EMO_SYNC",
        "aliasList": [
          "10345"
        ],
        "dataPath": "Cs_Emo_Avatar_Simple_Common_Set/Cs_Emo_Avatar_Talk/Cs_Emo_Avatar_PersonalLine/Cs_Emo_Avatar_HuTao/Cs_Emo_111110518",
        "phonemePath": "",
        "emotionPath": "",
        "mateDataPath": "",
        "matePhonemePath": "",
        "mateEmotionPath": "",
        "dataPathHashList": [
          12185595995634193721,
          14345069360888505557,
          13325748405251800214,
          651790480183340699
        ],
        "FMDPBECPELH": "",
        "ADKBLPOKGIK": ""
      },
      {
        "$type": "MoleMole.Config.ConfigMoveToAction",
        "type": "MOVE_TO",
        "delayTime": 3.967512607574463,
        "aliasList": [
          "10345"
        ],
        "moveType": "WALK",
        "routeList": [
          {
            "x": -382.62811279296875,
            "y": 272.33538818359375,
            "z": 514.3312377929688
          }
        ],
        "_bindMovingTargetKey": ""
      },
      {
        "$type": "FABLGECDBCH",
        "type": "BODY_LANG",
        "aliasList": [
          "10345"
        ],
        "isContinue": true,
        "forceDoFreeStyle": true,
        "eventPatternSuiteKey": "",
        "FOHHKFAIAAJ": ""
      },
      {
        "$type": "FABLGECDBCH",
        "type": "BODY_LANG",
        "delayTime": 1.0681979656219482,
        "aliasList": [
          "10345"
        ],
        "bodyLangParam": 4210,
        "forceDoFreeStyle": true,
        "eventPatternSuiteKey": "",
        "FOHHKFAIAAJ": ""
      },
      {
        "$type": "LLGANGLOEEO",
        "type": "STEER_TO",
        "delayTime": 3.231753349304199,
        "duration": 0.800000011920929,
        "aliasList": [
          "10345"
        ],
        "steerType": "ABSOLUTE",
        "steerDir": {
          "x": -385.0719909667969,
          "y": 271.8192443847656,
          "z": 514.8914794921875
        },
        "targetNpcAlias": "",
        "OAFJBHJHLJG": ""
      },
      {
        "$type": "LJLMDHDCAMK",
        "type": "LOOK_AT",
        "delayTime": 3.3300485610961914,
        "aliasList": [
          "10345"
        ],
        "targetNpcAlias": "",
        "targetNpcLookAtPoint": "",
        "OAFJBHJHLJG": ""
      }
    ],
    [
      {
        "$type": "FJKIHHKJLMJ",
        "type": "CAMERA_MOVE",
        "duration": 1.0,
        "camPosOffset": {
          "x": -374.478271484375,
          "y": 273.6066589355469,
          "z": 519.6630249023438
        },
        "camForwardTargetOffset": {
          "x": -373.970458984375,
          "y": 273.6576232910156,
          "z": 518.8030395507812
        },
        "camFov": 20.0,
        "lerpPattern": 6,
        "cameraBlendType": "EaseInOutCubic",
        "NJBNNOMLKCK": {},
        "targetNpcAlias": "",
        "KJOEFBPOIIH": "",
        "IICFKKEBIEC": "",
        "EGEHEJEBLBJ": ""
      },
      {
        "$type": "MoleMole.Config.ConfigVisibleInterAction",
        "type": "VISIBLE",
        "delayTime": 0.2735356092453003,
        "aliasList": [
          "10345"
        ],
        "_extraParam": ""
      },
      {
        "$type": "MoleMole.Config.ConfigMoveToAction",
        "type": "MOVE_TO",
        "aliasList": [
          "10345"
        ],
        "routeList": [
          {
            "x": -382.62811279296875,
            "y": 272.33538818359375,
            "z": 514.3312377929688
          }
        ],
        "_bindMovingTargetKey": ""
      },
      {
        "$type": "LJLMDHDCAMK",
        "type": "LOOK_AT",
        "aliasList": [
          "1021"
        ],
        "enableHead": true,
        "headTurnTime": 0.4000000059604645,
        "targetNpcAlias": "10343",
        "targetNpcLookAtPoint": "",
        "OAFJBHJHLJG": ""
      },
      {
        "$type": "PKKMAMONGEO",
        "type": "DIALOG",
        "aliasList": [
          "10343"
        ],
        "dialogID": 111110519,
        "protectTime": 0.5
      },
      {
        "$type": "CPJKOIHIPBE",
        "type": "EMO_SYNC",
        "aliasList": [
          "10343"
        ],
        "dataPath": "Cs_Emo_Avatar_Simple_Common_Set/Cs_Emo_Avatar_Talk/Cs_Emo_Avatar_PersonalLine/Cs_Emo_Avatar_HuTao/Cs_Emo_111110519",
        "phonemePath": "",
        "emotionPath": "",
        "mateDataPath": "",
        "matePhonemePath": "",
        "mateEmotionPath": "",
        "dataPathHashList": [
          9473246206737458590,
          13695771268300968905,
          16604809254346361947,
          6131916415544647831
        ],
        "FMDPBECPELH": "",
        "ADKBLPOKGIK": ""
      },
      {
        "$type": "LLGANGLOEEO",
        "type": "STEER_TO",
        "duration": 1.0,
        "aliasList": [
          "10343"
        ],
        "steerType": "ABSOLUTE",
        "steerDir": {
          "x": -373.5304260253906,
          "y": 272.3820495605469,
          "z": 518.3970947265625
        },
        "useSteerAnim": true,
        "targetNpcAlias": "",
        "OAFJBHJHLJG": ""
      },
      {
        "$type": "LJLMDHDCAMK",
        "type": "LOOK_AT",
        "aliasList": [
          "10343"
        ],
        "enableHead": true,
        "headTurnTime": 0.5,
        "targetNpcAlias": "1021",
        "targetNpcLookAtPoint": "",
        "OAFJBHJHLJG": ""
      },
      {
        "$type": "FABLGECDBCH",
        "type": "BODY_LANG",
        "delayTime": 1.514818549156189,
        "aliasList": [
          "10343"
        ],
        "bodyLangParam": 1172,
        "forceDoFreeStyle": true,
        "eventPatternSuiteKey": "",
        "FOHHKFAIAAJ": ""
      },
      {
        "$type": "FABLGECDBCH",
        "type": "BODY_LANG",
        "delayTime": 4.88447380065918,
        "aliasList": [
          "10343"
        ],
        "bodyLangParam": 1190,
        "forceDoFreeStyle": true,
        "eventPatternSuiteKey": "",
        "FOHHKFAIAAJ": ""
      }
    ],
    [
      {
        "$type": "PKKMAMONGEO",
        "type": "DIALOG",
        "aliasList": [
          "10343"
        ],
        "dialogID": 111110520,
        "protectTime": 0.5
      },
      {
        "$type": "CPJKOIHIPBE",
        "type": "EMO_SYNC",
        "aliasList": [
          "10343"
        ],
        "dataPath": "Cs_Emo_Avatar_Simple_Common_Set/Cs_Emo_Avatar_Talk/Cs_Emo_Avatar_PersonalLine/Cs_Emo_Avatar_HuTao/Cs_Emo_111110520",
        "phonemePath": "",
        "emotionPath": "",
        "mateDataPath": "",
        "matePhonemePath": "",
        "mateEmotionPath": "",
        "dataPathHashList": [
          9797159103383889800,
          8532998786741595983,
          9028873610795865993,
          16351654963409199739
        ],
        "FMDPBECPELH": "",
        "ADKBLPOKGIK": ""
      },
      {
        "$type": "FABLGECDBCH",
        "type": "BODY_LANG",
        "delayTime": 1.6444629430770874,
        "aliasList": [
          "10343"
        ],
        "bodyLangParam": 1173,
        "forceDoFreeStyle": true,
        "eventPatternSuiteKey": "",
        "FOHHKFAIAAJ": ""
      },
      {
        "$type": "FABLGECDBCH",
        "type": "BODY_LANG",
        "aliasList": [
          "10343"
        ],
        "isContinue": true,
        "forceDoFreeStyle": true,
        "eventPatternSuiteKey": "",
        "FOHHKFAIAAJ": ""
      }
    ],
    [
      {
        "$type": "FJKIHHKJLMJ",
        "type": "CAMERA_MOVE",
        "duration": 1.0,
        "camPosOffset": {
          "x": -374.65411376953125,
          "y": 274.9457702636719,
          "z": 515.5765380859375
        },
        "camForwardTargetOffset": {
          "x": -374.1925354003906,
          "y": 274.4681091308594,
          "z": 516.3240356445312
        },
        "camFov": 20.0,
        "lerpPattern": 6,
        "cameraBlendType": "EaseInOutCubic",
        "NJBNNOMLKCK": {},
        "targetNpcAlias": "",
        "KJOEFBPOIIH": "",
        "IICFKKEBIEC": "",
        "EGEHEJEBLBJ": ""
      },
      {
        "$type": "FJKIHHKJLMJ",
        "type": "CAMERA_MOVE",
        "delayTime": 0.10000000149011612,
        "duration": 20.0,
        "camPosOffset": {
          "x": -374.51873779296875,
          "y": 274.9336853027344,
          "z": 515.4850463867188
        },
        "camForwardTargetOffset": {
          "x": -374.0571594238281,
          "y": 274.4560241699219,
          "z": 516.2325439453125
        },
        "camFov": 20.0,
        "cameraBlendType": "EaseOutQuad",
        "NJBNNOMLKCK": {},
        "targetNpcAlias": "",
        "KJOEFBPOIIH": "",
        "IICFKKEBIEC": "",
        "EGEHEJEBLBJ": ""
      },
      {
        "$type": "MoleMole.Config.ConfigVisibleInterAction",
        "type": "VISIBLE",
        "aliasList": [
          "1005"
        ],
        "_extraParam": ""
      },
      {
        "$type": "PKKMAMONGEO",
        "type": "DIALOG",
        "aliasList": [
          "1021"
        ],
        "dialogID": 111110521,
        "protectTime": 0.5
      },
      {
        "$type": "CPJKOIHIPBE",
        "type": "EMO_SYNC",
        "aliasList": [
          "1021"
        ],
        "dataPath": "Cs_Emo_Avatar_Simple_Common_Set/Cs_Emo_Avatar_Talk/Cs_Emo_Avatar_PersonalLine/Cs_Emo_Avatar_HuTao/Cs_Emo_111110521",
        "phonemePath": "",
        "emotionPath": "",
        "mateDataPath": "",
        "matePhonemePath": "",
        "mateEmotionPath": "",
        "enableBlink": false,
        "dataPathHashList": [
          17544259562604042653,
          4461661928252318387,
          4433596242705125891,
          2687407911516585048
        ],
        "FMDPBECPELH": "",
        "ADKBLPOKGIK": ""
      },
      {
        "$type": "FABLGECDBCH",
        "type": "BODY_LANG",
        "delayTime": 0.897050678730011,
        "aliasList": [
          "1021"
        ],
        "bodyLangParam": 4040,
        "forceDoFreeStyle": true,
        "eventPatternSuiteKey": "",
        "FOHHKFAIAAJ": ""
      },
      {
        "$type": "LJLMDHDCAMK",
        "type": "LOOK_AT",
        "aliasList": [
          "1021"
        ],
        "targetNpcAlias": "",
        "targetNpcLookAtPoint": "",
        "OAFJBHJHLJG": ""
      }
    ],
    [
      {
        "$type": "PKKMAMONGEO",
        "type": "DIALOG",
        "aliasList": [
          "1021"
        ],
        "dialogID": 111110522,
        "protectTime": 0.5
      },
      {
        "$type": "CPJKOIHIPBE",
        "type": "EMO_SYNC",
        "aliasList": [
          "1021"
        ],
        "dataPath": "Cs_Emo_Avatar_Simple_Common_Set/Cs_Emo_Avatar_Talk/Cs_Emo_Avatar_PersonalLine/Cs_Emo_Avatar_HuTao/Cs_Emo_111110522",
        "phonemePath": "",
        "emotionPath": "",
        "mateDataPath": "",
        "matePhonemePath": "",
        "mateEmotionPath": "",
        "dataPathHashList": [
          11338586181269266554,
          15231067425823956352,
          3213008004967575592,
          18230442508960183760
        ],
        "FMDPBECPELH": "",
        "ADKBLPOKGIK": ""
      },
      {
        "$type": "FABLGECDBCH",
        "type": "BODY_LANG",
        "aliasList": [
          "1021"
        ],
        "bodyLangParam": 1220,
        "forceDoFreeStyle": true,
        "eventPatternSuiteKey": "",
        "FOHHKFAIAAJ": ""
      },
      {
        "$type": "LJLMDHDCAMK",
        "type": "LOOK_AT",
        "aliasList": [
          "1021"
        ],
        "enableHead": true,
        "useTargetPos": true,
        "enableAbsolute": true,
        "targetPosition": {
          "x": -375.4002685546875,
          "y": 273.7273864746094,
          "z": 514.4970703125
        },
        "headTurnTime": 0.5,
        "targetNpcAlias": "",
        "targetNpcLookAtPoint": "",
        "OAFJBHJHLJG": ""
      },
      {
        "$type": "MoleMole.Config.ConfigVisibleInterAction",
        "type": "VISIBLE",
        "aliasList": [
          "10344"
        ],
        "isVisible": true,
        "_extraParam": ""
      }
    ],
    [
      {
        "$type": "MoleMole.Config.ConfigTimeProtectAction",
        "type": "TIME_PROTECT",
        "duration": 1.25
      },
      {
        "$type": "LLGANGLOEEO",
        "type": "STEER_TO",
        "duration": 1.0,
        "aliasList": [
          "1005"
        ],
        "steerType": "ABSOLUTE",
        "steerDir": {
          "x": -375.2413635253906,
          "y": 272.3591613769531,
          "z": 515.1806030273438
        },
        "useSteerAnim": true,
        "targetNpcAlias": "",
        "OAFJBHJHLJG": ""
      },
      {
        "$type": "LJLMDHDCAMK",
        "type": "LOOK_AT",
        "delayTime": 0.7839058041572571,
        "aliasList": [
          "1005"
        ],
        "enableHead": true,
        "targetNpcAlias": "10344",
        "targetNpcLookAtPoint": "",
        "OAFJBHJHLJG": ""
      },
      {
        "$type": "LJLMDHDCAMK",
        "type": "LOOK_AT",
        "aliasList": [
          "1005"
        ],
        "targetNpcAlias": "10344",
        "lookAtTargetType": "NONE",
        "targetNpcLookAtPoint": "",
        "OAFJBHJHLJG": ""
      },
      {
        "$type": "PKKMAMONGEO",
        "type": "DIALOG",
        "delayTime": 1.25,
        "aliasList": [
          "10343"
        ],
        "dialogID": 111110523,
        "protectTime": 0.5
      },
      {
        "$type": "CPJKOIHIPBE",
        "type": "EMO_SYNC",
        "delayTime": 1.25,
        "aliasList": [
          "10343"
        ],
        "dataPath": "Cs_Emo_Avatar_Simple_Common_Set/Cs_Emo_Avatar_Talk/Cs_Emo_Avatar_PersonalLine/Cs_Emo_Avatar_HuTao/Cs_Emo_111110523",
        "phonemePath": "",
        "emotionPath": "",
        "mateDataPath": "",
        "matePhonemePath": "",
        "mateEmotionPath": "",
        "dataPathHashList": [
          10340307622787436715,
          524380895977359257,
          10819900574844875926,
          4945891947423596153
        ],
        "FMDPBECPELH": "",
        "ADKBLPOKGIK": ""
      },
      {
        "$type": "FABLGECDBCH",
        "type": "BODY_LANG",
        "delayTime": 1.25,
        "aliasList": [
          "10343"
        ],
        "bodyLangParam": 1040,
        "forceDoFreeStyle": true,
        "eventPatternSuiteKey": "",
        "FOHHKFAIAAJ": ""
      },
      {
        "$type": "LLGANGLOEEO",
        "type": "STEER_TO",
        "duration": 1.0,
        "aliasList": [
          "10343"
        ],
        "steerType": "ABSOLUTE",
        "steerDir": {
          "x": -374.49078369140625,
          "y": 272.3820495605469,
          "z": 515.2392578125
        },
        "useSteerAnim": true,
        "targetNpcAlias": "",
        "OAFJBHJHLJG": ""
      },
      {
        "$type": "LJLMDHDCAMK",
        "type": "LOOK_AT",
        "delayTime": 0.9652078151702881,
        "aliasList": [
          "10343"
        ],
        "enableHead": true,
        "targetNpcAlias": "10344",
        "targetNpcLookAtPoint": "",
        "OAFJBHJHLJG": ""
      },
      {
        "$type": "LJLMDHDCAMK",
        "type": "LOOK_AT",
        "aliasList": [
          "10343"
        ],
        "targetNpcAlias": "",
        "targetNpcLookAtPoint": "",
        "OAFJBHJHLJG": ""
      },
      {
        "$type": "MoleMole.Config.ConfigMoveToAction",
        "type": "MOVE_TO",
        "aliasList": [
          "10344"
        ],
        "routeList": [
          {
            "x": -375.7247619628906,
            "y": 272.2689208984375,
            "z": 512.9825439453125
          }
        ],
        "_bindMovingTargetKey": ""
      },
      {
        "$type": "LLGANGLOEEO",
        "type": "STEER_TO",
        "delayTime": 0.20000000298023224,
        "aliasList": [
          "10344"
        ],
        "steerType": "ABSOLUTE",
        "steerDir": {
          "x": -374.97698974609375,
          "y": 272.3591613769531,
          "z": 515.1871337890625
        },
        "targetNpcAlias": "",
        "OAFJBHJHLJG": ""
      }
    ],
    [
      {
        "$type": "FJKIHHKJLMJ",
        "type": "CAMERA_MOVE",
        "delayTime": 0.10000000149011612,
        "duration": 20.0,
        "camPosOffset": {
          "x": -372.99957275390625,
          "y": 273.8113098144531,
          "z": 521.1458129882812
        },
        "camForwardTargetOffset": {
          "x": -373.2998962402344,
          "y": 273.71246337890625,
          "z": 520.1971435546875
        },
        "camFov": 20.0,
        "cameraBlendType": "EaseOutQuad",
        "NJBNNOMLKCK": {},
        "targetNpcAlias": "",
        "KJOEFBPOIIH": "",
        "IICFKKEBIEC": "",
        "EGEHEJEBLBJ": ""
      },
      {
        "$type": "FJKIHHKJLMJ",
        "type": "CAMERA_MOVE",
        "duration": 1.0,
        "camPosOffset": {
          "x": -372.7926940917969,
          "y": 273.8793640136719,
          "z": 521.7992553710938
        },
        "camForwardTargetOffset": {
          "x": -373.093017578125,
          "y": 273.780517578125,
          "z": 520.8505859375
        },
        "camFov": 20.0,
        "lerpPattern": 6,
        "cameraBlendType": "EaseInOutCubic",
        "NJBNNOMLKCK": {},
        "targetNpcAlias": "",
        "KJOEFBPOIIH": "",
        "IICFKKEBIEC": "",
        "EGEHEJEBLBJ": ""
      },
      {
        "$type": "MoleMole.Config.ConfigVisibleInterAction",
        "type": "VISIBLE",
        "aliasList": [
          "1005"
        ],
        "isVisible": true,
        "_extraParam": ""
      },
      {
        "$type": "PKKMAMONGEO",
        "type": "DIALOG",
        "aliasList": [
          "10344"
        ],
        "dialogID": 111110524,
        "protectTime": 0.5
      },
      {
        "$type": "CPJKOIHIPBE",
        "type": "EMO_SYNC",
        "aliasList": [
          "10344"
        ],
        "dataPath": "Cs_Emo_Avatar_Simple_Common_Set/Cs_Emo_Avatar_Talk/Cs_Emo_Avatar_PersonalLine/Cs_Emo_Avatar_HuTao/Cs_Emo_111110524",
        "phonemePath": "",
        "emotionPath": "",
        "mateDataPath": "",
        "matePhonemePath": "",
        "mateEmotionPath": "",
        "dataPathHashList": [
          18167777342395881531,
          4268400690806534504,
          15926516713238276454,
          11821253295995981619
        ],
        "FMDPBECPELH": "",
        "ADKBLPOKGIK": ""
      },
      {
        "$type": "FABLGECDBCH",
        "type": "BODY_LANG",
        "aliasList": [
          "10344"
        ],
        "bodyLangParam": 1171,
        "forceDoFreeStyle": true,
        "eventPatternSuiteKey": "",
        "FOHHKFAIAAJ": ""
      }
    ],
    [
      {
        "$type": "FJKIHHKJLMJ",
        "type": "CAMERA_MOVE",
        "duration": 1.0,
        "camPosOffset": {
          "x": -375.1307373046875,
          "y": 273.76434326171875,
          "z": 514.923095703125
        },
        "camForwardTargetOffset": {
          "x": -375.10577392578125,
          "y": 273.6357116699219,
          "z": 515.9144897460938
        },
        "camFov": 20.0,
        "lerpPattern": 6,
        "cameraBlendType": "EaseInOutCubic",
        "NJBNNOMLKCK": {},
        "targetNpcAlias": "",
        "KJOEFBPOIIH": "",
        "IICFKKEBIEC": "",
        "EGEHEJEBLBJ": ""
      },
      {
        "$type": "CPJKOIHIPBE",
        "type": "EMO_SYNC",
        "aliasList": [
          "Avatar"
        ],
        "dataPath": "",
        "phonemePath": "Cs_Emo_Avatar_Common/Cs_Emo_Avatar_Default01",
        "emotionPath": "Cs_Emo_Avatar_Common/Cs_Emo_Avatar_Surprise01",
        "mateDataPath": "",
        "matePhonemePath": "",
        "mateEmotionPath": "",
        "phonemePathHashList": [
          1010565500959774114,
          17914558573000180712,
          14498871351621154070,
          14348654671849899985
        ],
        "emotionPathHashList": [
          4182310212575606271,
          6835464291899426663,
          17873524174847999930,
          17017609319538373621
        ],
        "FMDPBECPELH": "",
        "ADKBLPOKGIK": ""
      },
      {
        "$type": "PKKMAMONGEO",
        "type": "DIALOG",
        "aliasList": [
          "1005"
        ],
        "dialogID": 111110525,
        "protectTime": 0.5
      },
      {
        "$type": "CPJKOIHIPBE",
        "type": "EMO_SYNC",
        "aliasList": [
          "1005"
        ],
        "dataPath": "Cs_Emo_Avatar_Simple_Common_Set/Cs_Emo_Avatar_Talk/Cs_Emo_Avatar_PersonalLine/Cs_Emo_Avatar_HuTao/Cs_Emo_111110525",
        "phonemePath": "",
        "emotionPath": "",
        "mateDataPath": "",
        "matePhonemePath": "",
        "mateEmotionPath": "",
        "dataPathHashList": [
          16341276341011503464,
          10023326496817659300,
          4296664811250259096,
          12784202043344233121
        ],
        "FMDPBECPELH": "",
        "ADKBLPOKGIK": ""
      },
      {
        "$type": "FABLGECDBCH",
        "type": "BODY_LANG",
        "aliasList": [
          "1005"
        ],
        "bodyLangParam": 1060,
        "forceDoFreeStyle": true,
        "eventPatternSuiteKey": "",
        "FOHHKFAIAAJ": ""
      },
      {
        "$type": "FABLGECDBCH",
        "type": "BODY_LANG",
        "aliasList": [
          "10343"
        ],
        "isContinue": true,
        "forceDoFreeStyle": true,
        "eventPatternSuiteKey": "",
        "FOHHKFAIAAJ": ""
      }
    ],
    [
      {
        "$type": "FJKIHHKJLMJ",
        "type": "CAMERA_MOVE",
        "duration": 1.0,
        "camPosOffset": {
          "x": -377.5949401855469,
          "y": 273.6516418457031,
          "z": 517.3585815429688
        },
        "camForwardTargetOffset": {
          "x": -376.6181640625,
          "y": 273.57373046875,
          "z": 517.5582275390625
        },
        "camFov": 20.0,
        "lerpPattern": 6,
        "cameraBlendType": "EaseInOutCubic",
        "NJBNNOMLKCK": {},
        "targetNpcAlias": "",
        "KJOEFBPOIIH": "",
        "IICFKKEBIEC": "",
        "EGEHEJEBLBJ": ""
      },
      {
        "$type": "LJLMDHDCAMK",
        "type": "LOOK_AT",
        "delayTime": 0.5,
        "aliasList": [
          "Avatar"
        ],
        "enableHead": true,
        "headTurnTime": 0.5,
        "targetNpcAlias": "1021",
        "targetNpcLookAtPoint": "",
        "OAFJBHJHLJG": ""
      },
      {
        "$type": "LLGANGLOEEO",
        "type": "STEER_TO",
        "delayTime": 0.5,
        "duration": 1.0,
        "aliasList": [
          "1005"
        ],
        "steerType": "ABSOLUTE",
        "steerDir": {
          "x": -372.3936462402344,
          "y": 272.1921081542969,
          "z": 518.081298828125
        },
        "useSteerAnim": true,
        "targetNpcAlias": "",
        "OAFJBHJHLJG": ""
      },
      {
        "$type": "LJLMDHDCAMK",
        "type": "LOOK_AT",
        "delayTime": 0.5,
        "aliasList": [
          "1005"
        ],
        "targetNpcAlias": "",
        "targetNpcLookAtPoint": "",
        "OAFJBHJHLJG": ""
      },
      {
        "$type": "PKKMAMONGEO",
        "type": "DIALOG",
        "aliasList": [
          "1021"
        ],
        "dialogID": 111110526,
        "protectTime": 0.5
      },
      {
        "$type": "CPJKOIHIPBE",
        "type": "EMO_SYNC",
        "aliasList": [
          "1021"
        ],
        "dataPath": "Cs_Emo_Avatar_Simple_Common_Set/Cs_Emo_Avatar_Talk/Cs_Emo_Avatar_PersonalLine/Cs_Emo_Avatar_HuTao/Cs_Emo_111110526",
        "phonemePath": "",
        "emotionPath": "",
        "mateDataPath": "",
        "matePhonemePath": "",
        "mateEmotionPath": "",
        "dataPathHashList": [
          18008968011830357459,
          16547743294456565130,
          9300310582722091436,
          6286141011224220099
        ],
        "FMDPBECPELH": "",
        "ADKBLPOKGIK": ""
      },
      {
        "$type": "LJLMDHDCAMK",
        "type": "LOOK_AT",
        "aliasList": [
          "1021"
        ],
        "enableHead": true,
        "headTurnTime": 0.5,
        "targetNpcAlias": "1005",
        "targetNpcLookAtPoint": "",
        "OAFJBHJHLJG": ""
      }
    ],
    [
      {
        "$type": "PKKMAMONGEO",
        "type": "DIALOG",
        "aliasList": [
          "1005"
        ],
        "dialogID": 111110527,
        "protectTime": 0.5
      },
      {
        "$type": "CPJKOIHIPBE",
        "type": "EMO_SYNC",
        "aliasList": [
          "1005"
        ],
        "dataPath": "Cs_Emo_Avatar_Simple_Common_Set/Cs_Emo_Avatar_Talk/Cs_Emo_Avatar_PersonalLine/Cs_Emo_Avatar_HuTao/Cs_Emo_111110527",
        "phonemePath": "",
        "emotionPath": "",
        "mateDataPath": "",
        "matePhonemePath": "",
        "mateEmotionPath": "",
        "dataPathHashList": [
          8162595534158365946,
          9492924937839720715,
          11510245340333058787,
          2760674076467868721
        ],
        "FMDPBECPELH": "",
        "ADKBLPOKGIK": ""
      },
      {
        "$type": "FABLGECDBCH",
        "type": "BODY_LANG",
        "aliasList": [
          "1005"
        ],
        "bodyLangParam": 1190,
        "forceDoFreeStyle": true,
        "eventPatternSuiteKey": "",
        "FOHHKFAIAAJ": ""
      },
      {
        "$type": "LJLMDHDCAMK",
        "type": "LOOK_AT",
        "aliasList": [
          "1005"
        ],
        "targetNpcAlias": "",
        "targetNpcLookAtPoint": "",
        "OAFJBHJHLJG": ""
      }
    ],
    [
      {
        "$type": "PKKMAMONGEO",
        "type": "DIALOG",
        "aliasList": [
          "1021"
        ],
        "dialogID": 111110528,
        "protectTime": 0.5
      },
      {
        "$type": "CPJKOIHIPBE",
        "type": "EMO_SYNC",
        "aliasList": [
          "1021"
        ],
        "dataPath": "Cs_Emo_Avatar_Simple_Common_Set/Cs_Emo_Avatar_Talk/Cs_Emo_Avatar_PersonalLine/Cs_Emo_Avatar_HuTao/Cs_Emo_111110528",
        "phonemePath": "",
        "emotionPath": "",
        "mateDataPath": "",
        "matePhonemePath": "",
        "mateEmotionPath": "",
        "dataPathHashList": [
          15770699427861705245,
          1041806502721829360,
          8474794259308796917,
          5453662503373512028
        ],
        "FMDPBECPELH": "",
        "ADKBLPOKGIK": ""
      },
      {
        "$type": "FABLGECDBCH",
        "type": "BODY_LANG",
        "aliasList": [
          "1021"
        ],
        "bodyLangParam": 1172,
        "forceDoFreeStyle": true,
        "eventPatternSuiteKey": "",
        "FOHHKFAIAAJ": ""
      },
      {
        "$type": "LJLMDHDCAMK",
        "type": "LOOK_AT",
        "aliasList": [
          "1021"
        ],
        "enableHead": true,
        "headTurnTime": 0.4000000059604645,
        "targetNpcAlias": "10344",
        "targetNpcLookAtPoint": "",
        "OAFJBHJHLJG": ""
      }
    ],
    [
      {
        "$type": "MoleMole.Config.ConfigSimpleBlackScreenAction",
        "type": "SIMPLE_BLACK_SCREEN",
        "durationToBlack": 0.5,
        "durationKeepBlack": 1.0,
        "durationFromBlack": 0.5,
        "textMapID": ""
      },
      {
        "$type": "MoleMole.Config.ConfigTimeProtectAction",
        "type": "TIME_PROTECT",
        "duration": 0.800000011920929
      },
      {
        "$type": "FJKIHHKJLMJ",
        "type": "CAMERA_MOVE",
        "delayTime": 0.6000000238418579,
        "duration": 0.10000000149011612,
        "camPosOffset": {
          "x": -386.04010009765625,
          "y": 273.3210754394531,
          "z": 520.9193115234375
        },
        "camForwardTargetOffset": {
          "x": -385.075439453125,
          "y": 273.30908203125,
          "z": 520.6560668945312
        },
        "lerpPattern": 6,
        "cameraBlendType": "EaseInOutCubic",
        "NJBNNOMLKCK": {},
        "targetNpcAlias": "",
        "KJOEFBPOIIH": "",
        "IICFKKEBIEC": "",
        "EGEHEJEBLBJ": ""
      },
      {
        "$type": "MoleMole.Config.ConfigVisibleInterAction",
        "type": "VISIBLE",
        "delayTime": 0.6000000238418579,
        "aliasList": [
          "1021"
        ],
        "_extraParam": ""
      },
      {
        "$type": "MoleMole.Config.ConfigVisibleInterAction",
        "type": "VISIBLE",
        "delayTime": 0.6000000238418579,
        "aliasList": [
          "10343"
        ],
        "_extraParam": ""
      },
      {
        "$type": "MoleMole.Config.ConfigVisibleInterAction",
        "type": "VISIBLE",
        "delayTime": 0.6000000238418579,
        "aliasList": [
          "10344"
        ],
        "_extraParam": ""
      }
    ]
  ],
  "groupId": [
    {
      "grpId": 1122526774,
      "nextGrpId": 1122526775
    },
    {
      "index": 1,
      "grpId": 1122526775,
      "nextGrpId": 1122526776
    },
    {
      "index": 2,
      "grpId": 1122526776,
      "nextGrpId": 1122526777
    },
    {
      "index": 3,
      "grpId": 1122526777,
      "nextGrpId": 1122526778
    },
    {
      "index": 4,
      "grpId": 1122526778,
      "nextGrpId": 1122526779
    },
    {
      "index": 5,
      "grpId": 1122526779,
      "nextGrpId": 1122526780
    },
    {
      "index": 6,
      "grpId": 1122526780,
      "nextGrpId": 1122526781
    },
    {
      "index": 7,
      "grpId": 1122526781,
      "nextGrpId": 1122526782
    },
    {
      "index": 8,
      "grpId": 1122526782,
      "nextGrpId": 438591674
    },
    {
      "index": 9,
      "grpId": 438591674,
      "nextGrpId": 438591675
    },
    {
      "index": 10,
      "grpId": 438591675,
      "nextGrpId": 438591676
    },
    {
      "index": 11,
      "grpId": 438591676,
      "nextGrpId": 438591677
    },
    {
      "index": 12,
      "grpId": 438591677,
      "nextGrpId": 438591678
    },
    {
      "index": 13,
      "grpId": 438591678,
      "nextGrpId": 438591679
    },
    {
      "index": 14,
      "grpId": 438591679,
      "nextGrpId": 438591680
    },
    {
      "index": 15,
      "grpId": 438591680,
      "nextGrpId": 438591681
    },
    {
      "index": 16,
      "grpId": 438591681,
      "nextGrpId": 438591682
    },
    {
      "index": 17,
      "grpId": 438591682,
      "nextGrpId": 438591683
    },
    {
      "index": 18,
      "grpId": 438591683,
      "nextGrpId": 438591705
    },
    {
      "index": 19,
      "grpId": 438591705,
      "nextGrpId": 438591706
    },
    {
      "index": 20,
      "grpId": 438591706,
      "nextGrpId": 438591707
    },
    {
      "index": 21,
      "grpId": 438591707,
      "nextGrpId": 438591708
    },
    {
      "index": 22,
      "grpId": 438591708,
      "nextGrpId": 438591709
    },
    {
      "index": 23,
      "grpId": 438591709,
      "nextGrpId": 438591710
    },
    {
      "index": 24,
      "grpId": 438591710,
      "nextGrpId": 438591711
    },
    {
      "index": 25,
      "grpId": 438591711,
      "nextGrpId": 438591712
    },
    {
      "index": 26,
      "grpId": 438591712,
      "nextGrpId": 438591713
    },
    {
      "index": 27,
      "grpId": 438591713,
      "nextGrpId": 438591714
    },
    {
      "index": 28,
      "grpId": 438591714,
      "nextGrpId": 438591736
    }
  ],
  "freeStyleDic": {
    "10345": [
      4030,
      1130,
      1173,
      1040,
      1050,
      4210
    ],
    "1021": [
      1120,
      1220,
      1060,
      1171,
      1173,
      1190,
      1110,
      4040,
      1172
    ],
    "10343": [
      1190,
      1172,
      1173,
      1040
    ],
    "10344": [
      1171
    ]
  }
}