{
  "perfRating": {
    "perfRating": {
      "GPU": [
        {
          "requirementArray": [
            {
              "info": "GraphicsMemorySize",
              "values": [
                "0",
                "1500"
              ]
            },
            {
              "info": "Combine",
              "values": [
                "DedicateGraphicCard"
              ],
              "GNKEMJKDNHO": 1,
              "DGCNMCJHMAM": true
            },
            {
              "info": "SaveUpgradeVersion",
              "values": [
                "2"
              ],
              "GNKEMJKDNHO": 1
            }
          ]
        },
        {
          "tier": 1,
          "requirementArray": [
            {
              "info": "GraphicsMemorySize",
              "values": [
                "1500",
                "3500"
              ]
            },
            {
              "info": "SaveUpgradeVersion",
              "values": [
                "2"
              ],
              "DGCNMCJHMAM": true
            },
            {
              "info": "GraphicsMemorySize",
              "values": [
                "1500",
                "3500"
              ],
              "GNKEMJKDNHO": 1
            },
            {
              "info": "Combine",
              "values": [
                "DedicateGraphicCard"
              ],
              "GNKEMJKDNHO": 1
            },
            {
              "info": "SaveUpgradeVersion",
              "values": [
                "2"
              ],
              "GNKEMJKDNHO": 1
            }
          ]
        },
        {
          "tier": 2,
          "requirementArray": [
            {
              "info": "GraphicsMemorySize",
              "values": [
                "3500",
                "5500"
              ]
            },
            {
              "info": "SaveUpgradeVersion",
              "values": [
                "2"
              ],
              "DGCNMCJHMAM": true
            },
            {
              "info": "GraphicsMemorySize",
              "values": [
                "3500",
                "5500"
              ],
              "GNKEMJKDNHO": 1
            },
            {
              "info": "Combine",
              "values": [
                "DedicateGraphicCard"
              ],
              "GNKEMJKDNHO": 1
            },
            {
              "info": "SaveUpgradeVersion",
              "values": [
                "2"
              ],
              "GNKEMJKDNHO": 1
            }
          ]
        },
        {
          "tier": 3,
          "requirementArray": [
            {
              "info": "GraphicsMemorySize",
              "values": [
                "5500",
                "6500"
              ]
            },
            {
              "info": "GraphicsDeviceName",
              "values": [
                "AMD.*Radeon.*RX \\d+.*",
                "AMD.*Radeon.*Pro \\d+.*",
                "AMD.*Radeon.*Pro W.*\\d+.*",
                "NVIDIA.*"
              ]
            }
          ]
        },
        {
          "tier": 4,
          "requirementArray": [
            {
              "info": "GraphicsMemorySize",
              "values": [
                "6500"
              ]
            },
            {
              "info": "GraphicsDeviceName",
              "values": [
                "AMD.*Radeon.*RX \\d+.*",
                "AMD.*Radeon.*Pro \\d+.*",
                "AMD.*Radeon.*Pro W.*\\d+.*",
                "NVIDIA.*"
              ]
            }
          ]
        }
      ],
      "BinaryDefault": [
        {
          "requirementArray": [
            {
              "info": "Default",
              "values": [
                "True"
              ]
            }
          ]
        },
        {
          "tier": 1,
          "requirementArray": [
            {
              "info": "Default",
              "values": [
                "False"
              ]
            }
          ]
        }
      ],
      "DeviceSpecific": [
        {}
      ],
      "Memory": [
        {
          "requirementArray": [
            {
              "info": "SystemMemorySize",
              "values": [
                "0",
                "4500"
              ]
            }
          ]
        },
        {
          "tier": 1,
          "requirementArray": [
            {
              "info": "SystemMemorySize",
              "values": [
                "4500",
                "6500"
              ]
            }
          ]
        },
        {
          "tier": 2,
          "requirementArray": [
            {
              "info": "SystemMemorySize",
              "values": [
                "6500",
                "8500"
              ]
            }
          ]
        },
        {
          "tier": 3,
          "requirementArray": [
            {
              "info": "SystemMemorySize",
              "values": [
                "8500",
                "16000"
              ]
            },
            {
              "info": "GraphicsDeviceName",
              "values": [
                "AMD.*Radeon.*RX \\d+.*",
                "AMD.*Radeon.*Pro \\d+.*",
                "AMD.*Radeon.*Pro W.*\\d+.*",
                "NVIDIA.*"
              ]
            }
          ]
        },
        {
          "tier": 4,
          "requirementArray": [
            {
              "info": "SystemMemorySize",
              "values": [
                "16000"
              ]
            },
            {
              "info": "GraphicsDeviceName",
              "values": [
                "AMD.*Radeon.*RX \\d+.*",
                "AMD.*Radeon.*Pro \\d+.*",
                "AMD.*Radeon.*Pro W.*\\d+.*",
                "NVIDIA.*"
              ]
            }
          ]
        }
      ]
    },
    "perfRatingCopyMap": {
      "General": "GPU",
      "CPU": "GPU",
      "GPUMemory": "GPU"
    },
    "perfRatingDefault": {
      "GPU": 2,
      "CPU": 2,
      "GPUMemory": 2,
      "Memory": 2
    }
  },
  "perfOptions": {
    "numberItems": {
      "targetFrameRate": {
        "categoryRatingMap": {
          "GPU": [
            0,
            0,
            1,
            1
          ]
        },
        "playerCustomOption": {
          "settingEntry": "TargetFrameRate",
          "customConfigMap": {
            "default": {
              "optionTextName": [
                "30",
                "60"
              ]
            },
            "enable45Frame": {
              "requirementArray": [
                {
                  "info": "SwitchNotEnable",
                  "values": [
                    "3078"
                  ]
                }
              ],
              "optionTextName": [
                "30",
                "60",
                "45"
              ]
            }
          },
          "optionNameType": "Literally",
          "sortType": "Num_Ascend"
        },
        "itemOptionMap": {
          "default": {
            "itemOptionArray": [
              30.0,
              60.0
            ]
          },
          "enable45Frame": {
            "requirementArray": [
              {
                "info": "SwitchNotEnable",
                "values": [
                  "3078"
                ]
              }
            ],
            "itemOptionArray": [
              30.0,
              60.0,
              45.0
            ]
          }
        }
      },
      "renderResolutionScale": {
        "categoryRatingMap": {
          "GPU": [
            1,
            8,
            8,
            3,
            3
          ]
        },
        "playerCustomOption": {
          "settingEntry": "RenderResolution",
          "customConfigMap": {
            "default": {
              "optionTextName": [
                "0.6",
                "0.8",
                "1.0",
                "1.1",
                "1.2",
                "1.3",
                "1.4",
                "1.5",
                "0.9"
              ]
            }
          },
          "optionNameType": "Literally",
          "sortType": "Num_Ascend"
        },
        "itemOptionMap": {
          "default": {
            "itemOptionArray": [
              0.6000000238418579,
              0.800000011920929,
              1.0,
              1.100000023841858,
              1.2000000476837158,
              1.2999999523162842,
              1.399999976158142,
              1.5,
              0.8999999761581421
            ]
          }
        }
      },
      "shaderLODDistance": {
        "categoryRatingMap": {
          "GPU": [
            0,
            1,
            2,
            3,
            3
          ]
        },
        "playerCustomOption": {},
        "itemOptionMap": {
          "default": {
            "itemOptionArray": [
              50.0,
              60.0,
              120.0,
              180.0,
              180.0
            ]
          }
        }
      },
      "particleDecreaseThresh": {
        "categoryRatingMap": {
          "GPU": [
            0,
            1,
            2,
            3,
            3
          ]
        },
        "playerCustomOption": {},
        "itemOptionMap": {
          "default": {
            "itemOptionArray": [
              70.0,
              120.0,
              150.0,
              220.0
            ]
          }
        }
      },
      "fsrScale": {
        "categoryRatingMap": {
          "GPU": [
            2,
            2,
            2,
            2,
            2
          ]
        },
        "itemOptionMap": {
          "default": {
            "itemOptionArray": [
              0.800000011920929,
              0.8999999761581421,
              1.0
            ]
          }
        }
      },
      "avatarMotionVectorStrategy": {
        "categoryRatingMap": {
          "GPU": [
            2,
            2,
            2,
            2,
            2
          ]
        },
        "itemOptionMap": {
          "default": {
            "itemOptionArray": [
              0.0,
              1.0,
              2.0
            ]
          }
        }
      },
      "shadowDistance": {
        "categoryRatingMap": {
          "GPU": [
            0,
            1,
            2,
            3,
            3
          ]
        },
        "playerCustomOption": {},
        "itemOptionMap": {
          "default": {
            "itemOptionArray": [
              300.0,
              300.0,
              300.0,
              800.0
            ]
          }
        }
      },
      "shadowCascadeSplitCount": {
        "categoryRatingMap": {
          "GPU": [
            0,
            1,
            2,
            3,
            3
          ]
        },
        "playerCustomOption": {},
        "itemOptionMap": {
          "default": {
            "itemOptionArray": [
              6.0,
              6.0,
              8.0,
              8.0
            ]
          }
        }
      },
      "perObjShadowQuality": {
        "categoryRatingMap": {
          "GPU": [
            0,
            1,
            2,
            3,
            3
          ]
        },
        "playerCustomOption": {},
        "itemOptionMap": {
          "default": {
            "itemOptionArray": [
              0.0,
              0.0,
              2.0,
              2.0
            ]
          }
        }
      },
      "waterSSR": {
        "categoryRatingMap": {
          "GPU": [
            0,
            0,
            0,
            0,
            0
          ]
        },
        "playerCustomOption": {},
        "itemOptionMap": {
          "default": {
            "itemOptionArray": [
              500.0
            ]
          }
        }
      },
      "terrainBlendDistance": {
        "categoryRatingMap": {
          "GPU": [
            0,
            1,
            2,
            3,
            3
          ]
        },
        "playerCustomOption": {},
        "itemOptionMap": {
          "default": {
            "itemOptionArray": [
              70.0,
              70.0,
              180.0,
              300.0,
              300.0
            ]
          }
        }
      },
      "lightViewDistanceRatio": {
        "categoryRatingMap": {
          "GPU": [
            0,
            1,
            2,
            3,
            3
          ]
        },
        "playerCustomOption": {},
        "itemOptionMap": {
          "default": {
            "itemOptionArray": [
              0.30000001192092896,
              0.800000011920929,
              1.0,
              1.2000000476837158,
              1.2000000476837158
            ]
          }
        }
      },
      "textureStreamingBudget": {
        "categoryRatingMap": {
          "GPU": [
            1,
            1,
            2,
            3,
            3
          ]
        },
        "playerCustomOption": {},
        "itemOptionMap": {
          "default": {
            "itemOptionArray": [
              512.0,
              512.0,
              512.0,
              512.0,
              512.0
            ]
          }
        },
        "overrideMap": {
          "LowGPUMemory": {
            "requirementArray": [
              {
                "info": "GraphicsMemorySize",
                "values": [
                  "0",
                  "1500"
                ]
              }
            ],
            "deviceOverrideRule": "Min",
            "overrideValue": 128.0
          }
        }
      },
      "terrainDistance": {
        "categoryRatingMap": {
          "GPU": [
            0,
            1,
            2,
            3,
            3
          ]
        },
        "playerCustomOption": {},
        "itemOptionMap": {
          "default": {
            "itemOptionArray": [
              720.0,
              800.0,
              800.0,
              900.0,
              1000.0
            ]
          }
        }
      },
      "shellCount": {
        "categoryRatingMap": {
          "GPU": [
            0,
            1,
            2,
            3,
            3
          ]
        },
        "playerCustomOption": {},
        "itemOptionMap": {
          "low": {
            "requirementArray": [
              {
                "info": "GraphicsDeviceName",
                "values": [
                  "^(?!(AMD.*Radeon.*RX \\d+.*))"
                ]
              },
              {
                "info": "GraphicsDeviceName",
                "values": [
                  "^(?!(AMD.*Radeon.*Pro \\d+.*))"
                ]
              },
              {
                "info": "GraphicsDeviceName",
                "values": [
                  "^(?!(AMD.*Radeon.*Pro W.*\\d+.*))"
                ]
              },
              {
                "info": "GraphicsDeviceName",
                "values": [
                  "^(?!(NVIDIA.*))"
                ]
              },
              {
                "info": "OperateSystem",
                "values": [
                  "Windows 7"
                ]
              }
            ],
            "itemOptionArray": [
              0.0,
              0.0,
              0.0,
              0.0,
              0.0
            ]
          },
          "default": {
            "itemOptionArray": [
              20.0,
              20.0,
              20.0,
              20.0,
              20.0
            ]
          }
        }
      },
      "shellMaxObjectsCount": {
        "categoryRatingMap": {
          "GPU": [
            0,
            1,
            2,
            3,
            3
          ]
        },
        "playerCustomOption": {},
        "itemOptionMap": {
          "default": {
            "itemOptionArray": [
              30.0,
              50.0,
              80.0,
              100.0,
              100.0
            ]
          }
        }
      },
      "gpuShoalBudget": {
        "categoryRatingMap": {
          "GPU": [
            1,
            1,
            0,
            0,
            0
          ]
        },
        "playerCustomOption": {},
        "itemOptionMap": {
          "default": {
            "itemOptionArray": [
              0.0005000000237487257,
              0.0010000000474974513,
              0.0020000000949949026,
              0.003000000026077032
            ]
          }
        }
      },
      "lyraQualityLevel": {
        "categoryRatingMap": {
          "GPU": [
            0,
            0,
            1,
            1,
            2
          ]
        },
        "playerCustomOption": {
          "settingEntry": "GlobalIllumination",
          "customConfigMap": {
            "default": {
              "optionTextName": [
                "UI_SETTING_CLOSE"
              ]
            },
            "dedicated4GAbove": {
              "requirementArray": [
                {
                  "info": "GraphicsDeviceName",
                  "values": [
                    "AMD.*Radeon.*RX \\d+.*",
                    "AMD.*Radeon.*RX\\d+.*",
                    "AMD.*Radeon.*Pro \\d+.*",
                    "AMD.*Radeon.*Pro W.*\\d+.*",
                    "AMD.*Radeon.*R9.*",
                    "Radeon.*RX \\d+.*",
                    "Radeon.*RX\\d+.*",
                    "Radeon.*Pro \\d+.*",
                    "Radeon.*Pro W.*\\d+.*",
                    "Radeon.*R9.*",
                    "NVIDIA.*"
                  ]
                },
                {
                  "info": "GraphicsMemorySize",
                  "values": [
                    "3500"
                  ]
                }
              ],
              "optionTextName": [
                "UI_SETTING_CLOSE",
                "UI_SETTING_MEDIUM",
                "UI_SETTING_HIGH",
                "UI_SETTING_VERY_HIGH"
              ]
            },
            "amdVega8GAbove": {
              "requirementArray": [
                {
                  "info": "GraphicsDeviceName",
                  "values": [
                    "AMD.*Radeon.*RX Vega.*",
                    "Radeon.*RX Vega.*"
                  ]
                },
                {
                  "info": "GraphicsMemorySize",
                  "values": [
                    "7500"
                  ]
                }
              ],
              "optionTextName": [
                "UI_SETTING_CLOSE",
                "UI_SETTING_MEDIUM",
                "UI_SETTING_HIGH",
                "UI_SETTING_VERY_HIGH"
              ]
            },
            "intel": {
              "requirementArray": [
                {
                  "info": "GraphicsDeviceIdHexHighBit",
                  "values": [
                    "0x56"
                  ]
                }
              ],
              "optionTextName": [
                "UI_SETTING_CLOSE",
                "UI_SETTING_MEDIUM",
                "UI_SETTING_HIGH",
                "UI_SETTING_VERY_HIGH"
              ]
            }
          },
          "optionNameType": "TextMap"
        },
        "itemOptionMap": {
          "default": {
            "itemOptionArray": [
              0.0
            ]
          },
          "dedicated4GAbove": {
            "requirementArray": [
              {
                "info": "GraphicsDeviceName",
                "values": [
                  "AMD.*Radeon.*RX \\d+.*",
                  "AMD.*Radeon.*RX\\d+.*",
                  "AMD.*Radeon.*Pro \\d+.*",
                  "AMD.*Radeon.*Pro W.*\\d+.*",
                  "AMD.*Radeon.*R9.*",
                  "Radeon.*RX \\d+.*",
                  "Radeon.*RX\\d+.*",
                  "Radeon.*Pro \\d+.*",
                  "Radeon.*Pro W.*\\d+.*",
                  "Radeon.*R9.*",
                  "NVIDIA.*"
                ]
              },
              {
                "info": "GraphicsMemorySize",
                "values": [
                  "3500"
                ]
              }
            ],
            "itemOptionArray": [
              0.0,
              1.0,
              2.0,
              3.0
            ]
          },
          "amdVega8GAbove": {
            "requirementArray": [
              {
                "info": "GraphicsDeviceName",
                "values": [
                  "AMD.*Radeon.*RX Vega.*",
                  "Radeon.*RX Vega.*"
                ]
              },
              {
                "info": "GraphicsMemorySize",
                "values": [
                  "7500"
                ]
              }
            ],
            "itemOptionArray": [
              0.0,
              1.0,
              2.0,
              3.0
            ]
          },
          "intel": {
            "requirementArray": [
              {
                "info": "GraphicsDeviceIdHexHighBit",
                "values": [
                  "0x56"
                ]
              }
            ],
            "itemOptionArray": [
              0.0,
              1.0,
              2.0,
              3.0
            ]
          }
        }
      },
      "sharedSliceFrameGameSystemTimeFor30Frame": {
        "categoryRatingMap": {
          "GPU": []
        },
        "itemOptionMap": {
          "default": {
            "itemOptionArray": [
              4.0,
              4.0,
              4.0,
              4.0,
              4.0
            ]
          }
        }
      },
      "sharedSliceFrameGameSystemTimeFor60Frame": {
        "categoryRatingMap": {
          "GPU": []
        },
        "itemOptionMap": {
          "default": {
            "itemOptionArray": [
              2.0,
              2.0,
              2.0,
              2.0,
              2.0
            ]
          }
        }
      },
      "sharedSliceFrameGameSystemTimeFor120Frame": {
        "categoryRatingMap": {
          "GPU": []
        },
        "itemOptionMap": {
          "default": {
            "itemOptionArray": [
              1.0,
              1.0,
              1.0,
              1.0,
              1.0
            ]
          }
        }
      },
      "crowdMaxScreenNum": {
        "categoryRatingMap": {
          "GPU": [
            0,
            1,
            2,
            3
          ]
        },
        "playerCustomOption": {},
        "itemOptionMap": {
          "default": {
            "itemOptionArray": [
              8.0,
              8.0,
              16.0,
              16.0,
              32.0
            ]
          },
          "dedicatedGraphicDevice": {
            "requirementArray": [
              {
                "info": "Combine",
                "values": [
                  "DedicateGraphicCard"
                ],
                "GNKEMJKDNHO": 1
              }
            ],
            "itemOptionArray": [
              16.0,
              16.0,
              32.0,
              64.0,
              64.0
            ]
          }
        }
      },
      "crowdConeViewUpdatePeriod": {
        "categoryRatingMap": {
          "DeviceSpecific": [
            0
          ]
        },
        "playerCustomOption": {},
        "itemOptionMap": {
          "default": {
            "itemOptionArray": [
              5.0
            ]
          }
        }
      },
      "particleSystemDynamicBudgetMemLowRatio": {
        "categoryRatingMap": {
          "Memory": []
        },
        "itemOptionMap": {
          "default": {
            "itemOptionArray": [
              0.4000000059604645,
              0.4000000059604645,
              0.4000000059604645,
              0.0,
              0.0
            ]
          }
        }
      },
      "particleSystemDynamicBudgetMemHighRatio": {
        "categoryRatingMap": {
          "Memory": []
        },
        "itemOptionMap": {
          "default": {
            "itemOptionArray": [
              0.5,
              0.5,
              0.5,
              0.0,
              0.0
            ]
          }
        }
      },
      "particleSystemDynamicBudgetMemClearRatio": {
        "categoryRatingMap": {
          "Memory": []
        },
        "itemOptionMap": {
          "default": {
            "itemOptionArray": [
              0.6000000238418579,
              0.6000000238418579,
              0.6000000238418579,
              0.0,
              0.0
            ]
          }
        }
      },
      "textureStreamingOffset": {
        "categoryRatingMap": {
          "Memory": []
        },
        "itemOptionMap": {
          "default": {
            "itemOptionArray": [
              0.0,
              0.0,
              0.0,
              0.0,
              0.0
            ]
          }
        }
      },
      "objectPoolSizeMemHighRatio": {
        "categoryRatingMap": {
          "Memory": []
        },
        "itemOptionMap": {
          "default": {
            "itemOptionArray": [
              0.5,
              0.5,
              0.5,
              0.0,
              0.0
            ]
          }
        }
      },
      "objectPoolSizeMemClearRatio": {
        "categoryRatingMap": {
          "Memory": []
        },
        "itemOptionMap": {
          "default": {
            "itemOptionArray": [
              0.6000000238418579,
              0.6000000238418579,
              0.6000000238418579,
              0.0,
              0.0
            ]
          }
        }
      },
      "particleSystemBudgetSize": {
        "categoryRatingMap": {
          "Memory": []
        },
        "itemOptionMap": {
          "default": {
            "itemOptionArray": [
              1000.0,
              2000.0,
              3000.0,
              4000.0,
              5000.0
            ]
          }
        }
      },
      "textureStreamingBudgetByMemoryLevel": {
        "categoryRatingMap": {
          "Memory": []
        },
        "itemOptionMap": {
          "default": {
            "itemOptionArray": [
              128.0,
              128.0,
              300.0,
              900.0,
              900.0
            ]
          }
        }
      },
      "textureStreamingBudgetByLowMemRegion": {
        "categoryRatingMap": {
          "Memory": []
        },
        "itemOptionMap": {
          "default": {
            "itemOptionArray": [
              128.0,
              128.0,
              300.0,
              900.0,
              900.0
            ]
          }
        }
      },
      "textureStreamingBudgetOnLowMem": {
        "categoryRatingMap": {
          "Memory": []
        },
        "itemOptionMap": {
          "default": {
            "itemOptionArray": [
              128.0,
              128.0,
              300.0,
              900.0,
              900.0
            ]
          }
        }
      },
      "renderResolutionScaleOnLowMem": {
        "categoryRatingMap": {
          "Memory": []
        },
        "itemOptionMap": {
          "default": {
            "itemOptionArray": [
              1.0,
              1.0,
              1.0,
              1.0,
              1.0
            ]
          }
        }
      },
      "particleSystemReleaseForBudgetTimeThreshold": {
        "categoryRatingMap": {
          "Memory": []
        },
        "itemOptionMap": {
          "default": {
            "itemOptionArray": [
              10.0,
              20.0,
              40.0,
              120.0,
              120.0
            ]
          }
        }
      },
      "UILRUCacheNum": {
        "categoryRatingMap": {
          "Memory": []
        },
        "itemOptionMap": {
          "default": {
            "itemOptionArray": [
              1.0,
              1.0,
              5.0,
              10.0,
              20.0
            ]
          }
        }
      },
      "objectPoolRetireSize": {
        "categoryRatingMap": {
          "Memory": []
        },
        "itemOptionMap": {
          "default": {
            "itemOptionArray": [
              50.0,
              50.0,
              50.0,
              50.0,
              50.0
            ]
          }
        }
      },
      "bundleUnloadLRUCapcity": {
        "categoryRatingMap": {
          "Memory": []
        },
        "itemOptionMap": {
          "default": {
            "itemOptionArray": [
              200.0,
              200.0,
              200.0,
              200.0,
              200.0
            ]
          }
        }
      },
      "bundleUnloadLRURetireSize": {
        "categoryRatingMap": {
          "Memory": []
        },
        "itemOptionMap": {
          "default": {
            "itemOptionArray": [
              50.0,
              50.0,
              50.0,
              50.0,
              50.0
            ]
          }
        }
      },
      "bundleUnloadLRURetireTime": {
        "categoryRatingMap": {
          "Memory": []
        },
        "itemOptionMap": {
          "default": {
            "itemOptionArray": [
              5.0,
              5.0,
              5.0,
              5.0,
              5.0
            ]
          }
        }
      },
      "gameObjectPoolCount": {
        "categoryRatingMap": {
          "Memory": []
        },
        "itemOptionMap": {
          "default": {
            "itemOptionArray": [
              2000.0,
              2000.0,
              2000.0,
              2000.0,
              2000.0
            ]
          }
        }
      },
      "maxAssetBundleCacheSizeMB": {
        "categoryRatingMap": {
          "Memory": []
        },
        "itemOptionMap": {
          "default": {
            "itemOptionArray": [
              0.0,
              0.0,
              4800.0,
              6300.0,
              14500.0
            ]
          }
        }
      },
      "assetBundleUnloadWarnningGPUMemoryRatio": {
        "categoryRatingMap": {
          "GPU": []
        },
        "itemOptionMap": {
          "default": {
            "itemOptionArray": [
              0.800000011920929,
              0.800000011920929,
              0.800000011920929,
              0.800000011920929,
              0.800000011920929
            ]
          }
        }
      },
      "assetBundleUnloadWarnningMemoryMB": {
        "categoryRatingMap": {
          "Memory": []
        },
        "itemOptionMap": {
          "default": {
            "itemOptionArray": [
              0.0,
              0.0,
              5300.0,
              7000.0,
              13500.0
            ]
          }
        }
      },
      "assetBundleSize2MemoryRatio": {
        "categoryRatingMap": {
          "Memory": []
        },
        "itemOptionMap": {
          "default": {
            "itemOptionArray": [
              1.0,
              1.0,
              1.0,
              1.0,
              1.100000023841858
            ]
          }
        }
      },
      "svoStreamingInitialExtentNumber": {
        "categoryRatingMap": {
          "Memory": []
        },
        "itemOptionMap": {
          "default": {
            "itemOptionArray": [
              5.0,
              5.0,
              5.0,
              5.0,
              5.0
            ]
          }
        }
      },
      "svoStreamingExtentNumber": {
        "categoryRatingMap": {
          "Memory": []
        },
        "itemOptionMap": {
          "default": {
            "itemOptionArray": [
              5.0,
              5.0,
              5.0,
              5.0,
              5.0
            ]
          }
        }
      },
      "svoSyncSegmentLimitPerAnchor": {
        "categoryRatingMap": {
          "Memory": []
        },
        "itemOptionMap": {
          "default": {
            "itemOptionArray": [
              1000.0,
              1000.0,
              1000.0,
              1000.0,
              1000.0
            ]
          }
        }
      },
      "svoMemoryDefaultDataCacheSize": {
        "categoryRatingMap": {
          "Memory": []
        },
        "itemOptionMap": {
          "default": {
            "itemOptionArray": [
              1000.0,
              1000.0,
              1000.0,
              1000.0,
              1000.0
            ]
          }
        }
      },
      "virtualJoystickRadius": {
        "categoryRatingMap": {
          "DeviceSpecific": [
            0
          ]
        },
        "playerCustomOption": {},
        "itemOptionMap": {
          "default": {
            "itemOptionArray": [
              0.5
            ]
          }
        }
      },
      "avatarOutlineThresh": {
        "categoryRatingMap": {
          "DeviceSpecific": [
            0
          ]
        },
        "playerCustomOption": {},
        "itemOptionMap": {
          "default": {
            "itemOptionArray": [
              300.0
            ]
          }
        }
      },
      "avatarShadowThresh": {
        "categoryRatingMap": {
          "DeviceSpecific": [
            0
          ]
        },
        "playerCustomOption": {},
        "itemOptionMap": {
          "default": {
            "itemOptionArray": [
              300.0
            ]
          }
        }
      },
      "avatarMotionVectorThresh": {
        "categoryRatingMap": {
          "DeviceSpecific": [
            0
          ]
        },
        "playerCustomOption": {},
        "itemOptionMap": {
          "default": {
            "itemOptionArray": [
              300.0
            ]
          }
        }
      },
      "viewDistanceRatio": {
        "categoryRatingMap": {
          "DeviceSpecific": [
            0
          ]
        },
        "playerCustomOption": {},
        "itemOptionMap": {
          "default": {
            "itemOptionArray": [
              120.0
            ]
          }
        }
      },
      "crowdSpawnDistance": {
        "categoryRatingMap": {
          "DeviceSpecific": [
            0
          ]
        },
        "playerCustomOption": {},
        "itemOptionMap": {
          "default": {
            "itemOptionArray": [
              60.0
            ]
          }
        }
      },
      "crowdDespawnDistance": {
        "categoryRatingMap": {
          "DeviceSpecific": [
            0
          ]
        },
        "playerCustomOption": {},
        "itemOptionMap": {
          "default": {
            "itemOptionArray": [
              70.0
            ]
          }
        }
      },
      "meshDepthBlendDistance": {
        "categoryRatingMap": {
          "DeviceSpecific": [
            0
          ]
        },
        "itemOptionMap": {
          "default": {
            "itemOptionArray": [
              0.0,
              15.0,
              20.0,
              30.0,
              40.0
            ]
          }
        }
      },
      "globalHizAABBScale": {
        "categoryRatingMap": {
          "GPU": [
            0,
            1,
            2,
            3,
            4
          ]
        },
        "itemOptionMap": {
          "default": {
            "itemOptionArray": [
              0.699999988079071,
              0.699999988079071,
              0.699999988079071,
              0.699999988079071,
              0.699999988079071
            ]
          }
        }
      },
      "softwareOcculusionResolutionWidth": {
        "categoryRatingMap": {
          "GPU": [
            0,
            0,
            0,
            0,
            0
          ]
        },
        "itemOptionMap": {
          "default": {
            "itemOptionArray": [
              1024.0
            ]
          }
        }
      },
      "softwareOcculusionResolutionHeight": {
        "categoryRatingMap": {
          "GPU": [
            0,
            0,
            0,
            0,
            0
          ]
        },
        "itemOptionMap": {
          "default": {
            "itemOptionArray": [
              256.0
            ]
          }
        }
      },
      "softwareOcculusionMaxTriangleCount": {
        "categoryRatingMap": {
          "GPU": [
            0,
            0,
            0,
            0,
            0
          ]
        },
        "itemOptionMap": {
          "default": {
            "itemOptionArray": [
              1024.0
            ]
          }
        }
      },
      "softwareOcculusionScreenProjWeight": {
        "categoryRatingMap": {
          "GPU": [
            0,
            0,
            0,
            0,
            0
          ]
        },
        "itemOptionMap": {
          "default": {
            "itemOptionArray": [
              0.10000000149011612
            ]
          }
        }
      }
    },
    "numberArrayItems": {
      "roomLightFrequency": {
        "categoryRatingMap": {
          "GPU": [
            0,
            0,
            0,
            0,
            0
          ]
        },
        "itemOptionMap": {
          "default": {
            "itemOptionArray": [
              [
                1.0,
                2.0,
                4.0,
                8.0
              ]
            ]
          }
        }
      },
      "roomLightFrequencyDistSqr": {
        "categoryRatingMap": {
          "GPU": [
            0,
            0,
            0,
            0,
            0
          ]
        },
        "itemOptionMap": {
          "default": {
            "itemOptionArray": [
              [
                1.0,
                400.0,
                1600.0,
                6400.0
              ]
            ]
          }
        }
      }
    },
    "stringKeyItems": {
      "antialiasingMethod": {
        "categoryRatingMap": {
          "GPU": [
            1,
            1,
            1,
            1
          ]
        },
        "playerCustomOption": {
          "settingEntry": "AntiAliasing",
          "customConfigMap": {
            "default": {
              "optionTextName": [
                "UI_SETTING_CLOSE",
                "UI_SETTING_FSR",
                "UI_SETTING_SMAA"
              ]
            }
          },
          "optionNameType": "TextMap"
        },
        "itemOptionMap": {
          "default": {
            "itemOptionArray": [
              "None",
              "FSR2",
              "SMAA"
            ]
          }
        }
      },
      "taaQuality": {
        "categoryRatingMap": {
          "GPU": [
            0,
            0,
            0,
            0
          ]
        },
        "playerCustomOption": {},
        "itemOptionMap": {
          "default": {
            "itemOptionArray": [
              "TAALow",
              "TAAHigh"
            ]
          }
        }
      },
      "smaaQuality": {
        "categoryRatingMap": {
          "GPU": [
            3,
            3,
            3,
            3,
            3
          ]
        },
        "playerCustomOption": {},
        "itemOptionMap": {
          "default": {
            "itemOptionArray": [
              "Low",
              "Medium",
              "High",
              "Ultra"
            ]
          }
        }
      },
      "onlineEffect": {
        "categoryRatingMap": {
          "GPU": [
            2,
            2,
            2,
            2,
            2
          ]
        },
        "playerCustomOption": {
          "settingEntry": "OnlineEffect",
          "customConfigMap": {
            "default": {
              "optionTextName": [
                "UI_SETTING_MULTIEFF_LOW",
                "UI_SETTING_MULTIEFF_MIDDLE",
                "UI_SETTING_MULTIEFF_HIGH"
              ]
            }
          },
          "optionNameType": "TextMap"
        },
        "itemOptionMap": {
          "default": {
            "itemOptionArray": [
              "Low",
              "Middle",
              "High"
            ]
          }
        }
      },
      "checkboardType": {
        "categoryRatingMap": {
          "GPU": [
            0,
            0,
            0,
            0,
            0
          ]
        },
        "playerCustomOption": {},
        "itemOptionMap": {
          "default": {
            "itemOptionArray": [
              "None",
              "MSAA2x",
              "LineHalf"
            ]
          }
        }
      },
      "aoMode": {
        "categoryRatingMap": {
          "GPU": [
            0,
            0,
            2,
            2,
            2
          ]
        },
        "playerCustomOption": {},
        "itemOptionMap": {
          "default": {
            "itemOptionArray": [
              "Disable",
              "SSAO",
              "HBAO"
            ]
          }
        }
      },
      "particleEmitLevel": {
        "categoryRatingMap": {
          "GPU": [
            0,
            1,
            2,
            3,
            3
          ]
        },
        "playerCustomOption": {},
        "itemOptionMap": {
          "default": {
            "itemOptionArray": [
              "ExtremeLow",
              "Low",
              "Middle",
              "High"
            ]
          }
        }
      },
      "shadowResolution": {
        "categoryRatingMap": {
          "GPU": [
            1,
            1,
            2,
            3,
            3
          ]
        },
        "playerCustomOption": {},
        "itemOptionMap": {
          "default": {
            "itemOptionArray": [
              "Low",
              "Medium",
              "High",
              "VeryHigh"
            ]
          }
        }
      },
      "levelStreamingConfig": {
        "categoryRatingMap": {
          "GPU": [
            0,
            1,
            2,
            3,
            4
          ]
        },
        "playerCustomOption": {},
        "itemOptionMap": {
          "default": {
            "itemOptionArray": [
              "PC_VeryLow",
              "PC_Low",
              "PC_Middle",
              "PC_High",
              "PC_VeryHigh"
            ]
          }
        },
        "overrideMap": {
          "PC_VeryLow": {
            "requirementArray": [
              {
                "info": "Device",
                "values": [
                  "PC VeryLow"
                ]
              }
            ],
            "overrideValue": "PC_VeryLow"
          },
          "PC_Low": {
            "requirementArray": [
              {
                "info": "Device",
                "values": [
                  "PC Low"
                ]
              }
            ],
            "overrideValue": "PC_Low"
          }
        }
      },
      "shaderQualityKeyword": {
        "categoryRatingMap": {
          "GPU": [
            0,
            1,
            1,
            2,
            2
          ]
        },
        "playerCustomOption": {},
        "itemOptionMap": {
          "default": {
            "itemOptionArray": [
              "MHY_SHADER_LOW",
              "MHY_SHADER_MIDDLE",
              "MHY_SHADER_HIGH"
            ]
          }
        }
      },
      "gpuShoalBudgetMode": {
        "categoryRatingMap": {
          "GPU": [
            3,
            3,
            3,
            3,
            3
          ]
        },
        "playerCustomOption": {},
        "itemOptionMap": {
          "default": {
            "itemOptionArray": [
              "Disabled",
              "FrameTime",
              "DynamicResolution",
              "Always"
            ]
          }
        }
      },
      "enviroConfig": {
        "categoryRatingMap": {
          "GPU": [
            0,
            0,
            0,
            0,
            0
          ]
        },
        "playerCustomOption": {},
        "itemOptionMap": {
          "default": {
            "itemOptionArray": [
              "PCDefault"
            ]
          }
        }
      },
      "uiCacheConfig": {
        "categoryRatingMap": {
          "DeviceSpecific": [
            0
          ]
        },
        "playerCustomOption": {},
        "itemOptionMap": {
          "default": {
            "itemOptionArray": [
              "PCDefault"
            ]
          }
        }
      },
      "crowdMaxSpawnGrade": {
        "categoryRatingMap": {
          "DeviceSpecific": [
            0
          ]
        },
        "playerCustomOption": {},
        "itemOptionMap": {
          "default": {
            "itemOptionArray": [
              "High"
            ]
          }
        }
      },
      "qualityLevel": {
        "categoryRatingMap": {
          "DeviceSpecific": [
            0
          ]
        },
        "playerCustomOption": {},
        "itemOptionMap": {
          "default": {
            "itemOptionArray": [
              "Fantastic"
            ]
          }
        }
      },
      "lightOnLevel": {
        "categoryRatingMap": {
          "GPU": [
            0,
            0,
            2,
            2,
            2
          ]
        },
        "playerCustomOption": {},
        "itemOptionMap": {
          "default": {
            "itemOptionArray": [
              "Low",
              "Middle",
              "High",
              "Invalid"
            ]
          }
        }
      },
      "entityLODConfig": {
        "categoryRatingMap": {
          "GPU": [
            0,
            1,
            2,
            3,
            3
          ]
        },
        "playerCustomOption": {},
        "itemOptionMap": {
          "default": {
            "itemOptionArray": [
              "PC_VeryLow",
              "PC_Low",
              "PC_Middle",
              "PC_High",
              "PC_VeryHigh"
            ]
          }
        }
      },
      "grassQuality": {
        "categoryRatingMap": {
          "GPU": [
            2,
            3,
            4,
            4,
            4
          ]
        },
        "playerCustomOption": {},
        "itemOptionMap": {
          "default": {
            "itemOptionArray": [
              "VeryLow",
              "Low",
              "Middle",
              "High",
              "VeryHigh",
              "UltraHigh",
              "Num"
            ]
          }
        }
      },
      "globalToken": {
        "categoryRatingMap": {
          "GPU": [
            0,
            0,
            0,
            0
          ]
        },
        "playerCustomOption": {},
        "itemOptionMap": {
          "default": {
            "itemOptionArray": [
              "PC"
            ]
          }
        }
      },
      "performanceQuality": {
        "categoryRatingMap": {
          "DeviceSpecific": [
            0
          ]
        },
        "playerCustomOption": {},
        "itemOptionMap": {
          "default": {
            "itemOptionArray": [
              "High"
            ]
          }
        }
      },
      "entityEffectPoolRemoveStrategy": {
        "categoryRatingMap": {
          "Memory": [
            0,
            0,
            1,
            1,
            1
          ]
        },
        "itemOptionMap": {
          "default": {
            "itemOptionArray": [
              "DelayRemove",
              "BudgetRemove",
              "NeverRemove"
            ]
          }
        }
      },
      "generalPerfLevel": {
        "categoryRatingMap": {
          "GPU": [
            0,
            1,
            2,
            3,
            4
          ]
        },
        "itemOptionMap": {
          "default": {
            "itemOptionArray": [
              "PC_VeryLow",
              "PC_Low",
              "PC_Middle",
              "PC_High",
              "PC_VeryHigh"
            ]
          }
        }
      }
    },
    "gradeItems": {
      "motionBlurGrade": {
        "categoryRatingMap": {
          "GPU": [
            0,
            0,
            2,
            3,
            3
          ]
        },
        "playerCustomOption": {
          "settingEntry": "MotionBlur",
          "customConfigMap": {
            "default": {
              "optionTextName": [
                "UI_SETTING_CLOSE",
                "UI_SETTING_LOW",
                "UI_SETTING_HIGH",
                "UI_SETTING_VERY_HIGH"
              ]
            }
          },
          "optionNameType": "TextMap"
        },
        "itemOptionMap": {
          "default": {
            "itemOptionArray": [
              1,
              2,
              3,
              4
            ]
          }
        }
      },
      "sssGrade": {
        "categoryRatingMap": {
          "GPU": [
            0,
            1,
            1,
            2,
            2
          ]
        },
        "playerCustomOption": {
          "settingEntry": "ScreenSubsurfaceScattering",
          "customConfigMap": {
            "default": {
              "optionTextName": [
                "UI_SETTING_CLOSE",
                "UI_SETTING_MEDIUM",
                "UI_SETTING_HIGH"
              ]
            }
          },
          "optionNameType": "TextMap"
        },
        "itemOptionMap": {
          "default": {
            "itemOptionArray": [
              1,
              2,
              3
            ]
          }
        }
      },
      "anisotropicFilteringGrade": {
        "categoryRatingMap": {
          "GPU": [
            0,
            1,
            2,
            3,
            3
          ]
        },
        "playerCustomOption": {
          "settingEntry": "AnisotropicFiltering",
          "customConfigMap": {
            "default": {
              "optionTextName": [
                "1x",
                "2x",
                "4x",
                "8x",
                "16x"
              ]
            }
          },
          "optionNameType": "Literally"
        },
        "itemOptionMap": {
          "default": {
            "itemOptionArray": [
              1,
              2,
              3,
              4,
              5
            ]
          }
        }
      },
      "volumetricFogGrade": {
        "categoryRatingMap": {
          "GPU": [
            0,
            0,
            1,
            1,
            1
          ]
        },
        "playerCustomOption": {
          "settingEntry": "VolumetricFog",
          "customConfigMap": {
            "default": {
              "optionTextName": [
                "UI_SETTING_CLOSE",
                "UI_SETTING_OPEN"
              ]
            }
          },
          "optionNameType": "TextMap"
        },
        "itemOptionMap": {
          "default": {
            "itemOptionArray": [
              1,
              2
            ]
          }
        }
      },
      "reflectionGrade": {
        "categoryRatingMap": {
          "GPU": [
            0,
            0,
            0,
            1,
            1
          ]
        },
        "playerCustomOption": {
          "settingEntry": "Reflection",
          "customConfigMap": {
            "default": {
              "optionTextName": [
                "UI_SETTING_CLOSE",
                "UI_SETTING_OPEN"
              ]
            }
          },
          "optionNameType": "TextMap"
        },
        "itemOptionMap": {
          "default": {
            "itemOptionArray": [
              1,
              2
            ]
          }
        }
      },
      "vSyncGrade": {
        "categoryRatingMap": {
          "BinaryDefault": [
            1
          ]
        },
        "playerCustomOption": {
          "settingEntry": "VSync",
          "customConfigMap": {
            "default": {
              "optionTextName": [
                "UI_SETTING_CLOSE",
                "UI_SETTING_OPEN"
              ]
            }
          },
          "optionNameType": "TextMap"
        },
        "itemOptionMap": {
          "default": {
            "itemOptionArray": [
              1,
              2
            ]
          }
        }
      },
      "crowdDensityGrade": {
        "categoryRatingMap": {
          "BinaryDefault": [
            1
          ]
        },
        "playerCustomOption": {
          "settingEntry": "CrowdDensity",
          "customConfigMap": {
            "default": {
              "optionTextName": [
                "UI_SETTING_LOW",
                "UI_SETTING_HIGH"
              ]
            }
          },
          "optionNameType": "TextMap"
        },
        "itemOptionMap": {
          "default": {
            "itemOptionArray": [
              1,
              2
            ]
          }
        }
      },
      "bloomGrade": {
        "categoryRatingMap": {
          "BinaryDefault": [
            1
          ]
        },
        "playerCustomOption": {
          "settingEntry": "Bloom",
          "customConfigMap": {
            "default": {
              "optionTextName": [
                "UI_SETTING_CLOSE",
                "UI_SETTING_OPEN"
              ]
            }
          },
          "optionNameType": "TextMap"
        },
        "itemOptionMap": {
          "default": {
            "itemOptionArray": [
              1,
              2
            ]
          }
        }
      }
    },
    "boolItems": {
      "useHalfShadows": {
        "categoryRatingMap": {
          "GPU": [
            0,
            0,
            0,
            0,
            0
          ]
        },
        "playerCustomOption": {},
        "itemOptionMap": {
          "default": {
            "itemOptionArray": [
              false,
              true
            ]
          }
        }
      },
      "useShadowCache": {
        "categoryRatingMap": {
          "GPU": [
            1,
            1,
            1,
            1,
            1
          ]
        },
        "playerCustomOption": {},
        "itemOptionMap": {
          "default": {
            "itemOptionArray": [
              false,
              true
            ]
          }
        }
      },
      "halfResolutionParticle": {
        "categoryRatingMap": {
          "GPU": [
            1,
            0,
            0,
            0,
            0
          ]
        },
        "playerCustomOption": {},
        "itemOptionMap": {
          "default": {
            "itemOptionArray": [
              false,
              true
            ]
          }
        }
      },
      "PerObjectPCF": {
        "categoryRatingMap": {
          "GPU": [
            0,
            0,
            1,
            1,
            1
          ]
        },
        "playerCustomOption": {},
        "itemOptionMap": {
          "default": {
            "itemOptionArray": [
              false,
              true
            ]
          }
        }
      },
      "shadowBlend": {
        "categoryRatingMap": {
          "GPU": [
            1,
            1,
            1,
            1,
            1
          ]
        },
        "playerCustomOption": {},
        "itemOptionMap": {
          "default": {
            "itemOptionArray": [
              false,
              true
            ]
          }
        }
      },
      "enableDynamicShadow": {
        "categoryRatingMap": {
          "GPU": [
            0,
            1,
            1,
            1,
            1
          ]
        },
        "playerCustomOption": {},
        "itemOptionMap": {
          "default": {
            "itemOptionArray": [
              false,
              true
            ]
          }
        }
      },
      "enablePcss": {
        "categoryRatingMap": {
          "GPU": [
            0,
            0,
            0,
            1,
            1
          ]
        },
        "playerCustomOption": {},
        "itemOptionMap": {
          "default": {
            "itemOptionArray": [
              false,
              true
            ]
          }
        }
      },
      "enableDistantShadow": {
        "categoryRatingMap": {
          "GPU": [
            1,
            1,
            1,
            1,
            1
          ]
        },
        "playerCustomOption": {},
        "itemOptionMap": {
          "default": {
            "itemOptionArray": [
              false,
              true
            ]
          }
        }
      },
      "enableShadowEdgeColor": {
        "categoryRatingMap": {
          "GPU": [
            0,
            0,
            1,
            1,
            1
          ]
        },
        "playerCustomOption": {},
        "itemOptionMap": {
          "default": {
            "itemOptionArray": [
              false,
              true
            ]
          }
        }
      },
      "enableColoredShadow": {
        "categoryRatingMap": {
          "GPU": [
            0,
            0,
            1,
            1,
            1
          ]
        },
        "playerCustomOption": {},
        "itemOptionMap": {
          "default": {
            "itemOptionArray": [
              false,
              true
            ]
          }
        }
      },
      "enableShadowPCSSHigh": {
        "categoryRatingMap": {
          "GPU": [
            0,
            0,
            0,
            0,
            1
          ]
        },
        "playerCustomOption": {},
        "itemOptionMap": {
          "default": {
            "itemOptionArray": [
              false,
              true
            ]
          }
        }
      },
      "enableWaterShadowCascadeOptimize": {
        "categoryRatingMap": {
          "GPU": [
            0,
            0,
            0,
            0,
            1
          ]
        },
        "playerCustomOption": {},
        "itemOptionMap": {
          "default": {
            "itemOptionArray": [
              false,
              true
            ]
          }
        }
      },
      "dynamicRoomLightFrequency": {
        "categoryRatingMap": {
          "GPU": [
            1,
            1,
            1,
            1,
            1
          ]
        },
        "playerCustomOption": {},
        "itemOptionMap": {
          "default": {
            "itemOptionArray": [
              false,
              true
            ]
          }
        }
      },
      "localLightingShadow": {
        "categoryRatingMap": {
          "GPU": [
            0,
            0,
            1,
            1,
            1
          ]
        },
        "playerCustomOption": {},
        "itemOptionMap": {
          "default": {
            "itemOptionArray": [
              false,
              true
            ]
          }
        }
      },
      "enableDynamicLight": {
        "categoryRatingMap": {
          "GPU": [
            1,
            1,
            1,
            1,
            1
          ]
        },
        "playerCustomOption": {},
        "itemOptionMap": {
          "default": {
            "itemOptionArray": [
              false,
              true
            ]
          }
        }
      },
      "useCrowdConeViewOptim": {
        "categoryRatingMap": {
          "GPU": [
            1,
            1,
            1,
            1
          ]
        },
        "playerCustomOption": {},
        "itemOptionMap": {
          "default": {
            "itemOptionArray": [
              false,
              true
            ]
          }
        }
      },
      "syncLoadCrowdOnLevelLoadFinished": {
        "categoryRatingMap": {
          "CPU": [
            1,
            1,
            1,
            1,
            1
          ]
        },
        "itemOptionMap": {
          "default": {
            "itemOptionArray": [
              false,
              true
            ]
          }
        }
      },
      "disableMaterialWarmup": {
        "categoryRatingMap": {
          "BinaryDefault": [
            0
          ]
        },
        "itemOptionMap": {
          "default": {
            "itemOptionArray": [
              false,
              true
            ]
          }
        },
        "overrideMap": {
          "AlwaysWarmup": {
            "requirementArray": [
              {
                "info": "GraphicsDeviceName",
                "values": [
                  "AMD.*Radeon.*RX \\d+.*",
                  "AMD.*Radeon.*Pro \\d+.*",
                  "AMD.*Radeon.*Pro W.*\\d+.*",
                  "NVIDIA.*"
                ]
              }
            ]
          },
          "DisableWarmup": {
            "requirementArray": [
              {
                "info": "OperateSystem",
                "values": [
                  "Windows 7"
                ]
              }
            ],
            "overrideValue": true
          }
        }
      },
      "mainLightCausticDiffusionEnabled": {
        "categoryRatingMap": {
          "GPU": [
            0,
            0,
            1,
            1,
            1
          ]
        },
        "playerCustomOption": {},
        "itemOptionMap": {
          "default": {
            "itemOptionArray": [
              false,
              true
            ]
          }
        }
      },
      "pcDedicatedGraphicCard": {
        "categoryRatingMap": {
          "BinaryDefault": [
            1
          ]
        },
        "playerCustomOption": {},
        "itemOptionMap": {
          "default": {
            "itemOptionArray": [
              true,
              false
            ]
          },
          "dedicateGraphicCard": {
            "requirementArray": [
              {
                "info": "Combine",
                "values": [
                  "DedicateGraphicCard"
                ]
              }
            ],
            "itemOptionArray": [
              true,
              true
            ]
          }
        }
      },
      "isNeedCheckLowMemoryDismisssDynamicPreload": {
        "categoryRatingMap": {
          "Memory": [
            1,
            1,
            0,
            0,
            0
          ]
        },
        "itemOptionMap": {
          "default": {
            "itemOptionArray": [
              false,
              true
            ]
          }
        }
      },
      "usePBDMesh": {
        "categoryRatingMap": {
          "GPU": [
            1,
            1,
            1,
            1,
            1
          ]
        },
        "playerCustomOption": {},
        "itemOptionMap": {
          "default": {
            "itemOptionArray": [
              false,
              true
            ]
          }
        }
      },
      "useAllOnCreatePreloadMapping": {
        "categoryRatingMap": {
          "Memory": [
            0,
            0,
            1,
            1,
            1
          ]
        },
        "itemOptionMap": {
          "default": {
            "itemOptionArray": [
              false,
              true
            ]
          }
        }
      },
      "useObjectPool": {
        "categoryRatingMap": {
          "Memory": [
            1,
            1,
            1,
            1,
            1
          ]
        },
        "itemOptionMap": {
          "default": {
            "itemOptionArray": [
              false,
              true
            ]
          }
        }
      },
      "disableCommonPreloadOnLowMem": {
        "categoryRatingMap": {
          "Memory": [
            0,
            0,
            0,
            0,
            0
          ]
        },
        "itemOptionMap": {
          "default": {
            "itemOptionArray": [
              false,
              true
            ]
          }
        }
      },
      "disableEntityPreloadEffect": {
        "categoryRatingMap": {
          "Memory": [
            0,
            0,
            0,
            0,
            0
          ]
        },
        "itemOptionMap": {
          "default": {
            "itemOptionArray": [
              false,
              true
            ]
          }
        }
      },
      "enableCutsceneTextureStreaming": {
        "categoryRatingMap": {
          "BinaryDefault": [
            0
          ]
        },
        "playerCustomOption": {},
        "deviceSpecItem": {
          "PC VeryHigh": true,
          "PC High": true,
          "PC Medium": true,
          "PC Low": true
        },
        "itemOptionMap": {
          "default": {
            "itemOptionArray": [
              true,
              false
            ]
          }
        }
      },
      "textureStreamingEnabled": {
        "categoryRatingMap": {
          "GPU": [
            1,
            1,
            1,
            1
          ]
        },
        "playerCustomOption": {},
        "deviceSpecItem": {
          "PC VeryLow": true
        },
        "itemOptionMap": {
          "default": {
            "itemOptionArray": [
              false,
              true
            ]
          }
        }
      },
      "enableUICameraFullResolution": {
        "categoryRatingMap": {
          "BinaryDefault": [
            0
          ]
        },
        "playerCustomOption": {},
        "itemOptionMap": {
          "default": {
            "itemOptionArray": [
              true,
              false
            ]
          }
        }
      },
      "preloadUIScene": {
        "categoryRatingMap": {
          "BinaryDefault": [
            0
          ]
        },
        "playerCustomOption": {},
        "itemOptionMap": {
          "default": {
            "itemOptionArray": [
              true,
              false
            ]
          }
        }
      },
      "disableDoF": {
        "categoryRatingMap": {
          "GPU": [
            0,
            0,
            0,
            0
          ]
        },
        "playerCustomOption": {},
        "deviceSpecItem": {
          "PC VeryHigh": false,
          "PC High": false,
          "PC Medium": false,
          "PC Low": false
        },
        "itemOptionMap": {
          "default": {
            "itemOptionArray": [
              false,
              true
            ]
          }
        }
      },
      "enableSubpass": {
        "categoryRatingMap": {
          "BinaryDefault": [
            1
          ]
        },
        "playerCustomOption": {},
        "deviceSpecItem": {
          "PC VeryLow": false
        },
        "itemOptionMap": {
          "default": {
            "itemOptionArray": [
              true,
              false
            ]
          }
        }
      },
      "pcEnableWaterSSRBlurFeature": {
        "categoryRatingMap": {
          "GPU": [
            0,
            0,
            0,
            0
          ]
        },
        "playerCustomOption": {},
        "itemOptionMap": {
          "default": {
            "itemOptionArray": [
              false,
              true
            ]
          }
        }
      },
      "usePerObjectLightInForward": {
        "categoryRatingMap": {
          "BinaryDefault": [
            1
          ]
        },
        "playerCustomOption": {},
        "deviceSpecItem": {
          "PC VeryLow": false
        },
        "itemOptionMap": {
          "default": {
            "itemOptionArray": [
              true,
              false
            ]
          }
        }
      },
      "forcePreloadUIContexts": {
        "categoryRatingMap": {
          "Memory": [
            0,
            0,
            0,
            1,
            1
          ]
        },
        "itemOptionMap": {
          "default": {
            "itemOptionArray": [
              false,
              true
            ]
          }
        }
      },
      "useMoreCache": {
        "categoryRatingMap": {
          "Memory": [
            0,
            0,
            0,
            0,
            1
          ]
        },
        "itemOptionMap": {
          "default": {
            "itemOptionArray": [
              false,
              true
            ]
          }
        }
      },
      "configUseLRUCache": {
        "categoryRatingMap": {
          "Memory": [
            1,
            1,
            1,
            0,
            0
          ]
        },
        "itemOptionMap": {
          "default": {
            "itemOptionArray": [
              false,
              true
            ]
          }
        }
      },
      "configBinaryWarmup": {
        "categoryRatingMap": {
          "Memory": [
            1,
            1,
            1,
            0,
            0
          ]
        },
        "itemOptionMap": {
          "default": {
            "itemOptionArray": [
              false,
              true
            ]
          }
        }
      },
      "isSetUnloadCPUVertexDataForSkinnedMesh": {
        "categoryRatingMap": {
          "Memory": [
            1,
            1,
            1,
            0,
            0
          ]
        },
        "itemOptionMap": {
          "default": {
            "itemOptionArray": [
              false,
              true
            ]
          }
        }
      },
      "teamSceneUIMemoryOptimize": {
        "categoryRatingMap": {
          "Memory": [
            0,
            0,
            0,
            0,
            0
          ]
        },
        "itemOptionMap": {
          "default": {
            "itemOptionArray": [
              false,
              true
            ]
          }
        }
      },
      "useTessellation": {
        "categoryRatingMap": {
          "GPU": [
            0,
            0,
            1,
            1,
            1
          ]
        },
        "playerCustomOption": {
          "settingEntry": "Tessellation",
          "customConfigMap": {
            "customTessellation": {
              "requirementArray": [
                {
                  "info": "Combine",
                  "values": [
                    "DedicateGraphicCard"
                  ],
                  "GNKEMJKDNHO": 1
                }
              ],
              "optionTextName": [
                "UI_SETTING_CLOSE",
                "UI_SETTING_OPEN"
              ]
            }
          },
          "optionNameType": "TextMap"
        },
        "itemOptionMap": {
          "default": {
            "itemOptionArray": [
              false,
              true
            ]
          }
        },
        "overrideMap": {
          "disableTessellation": {
            "requirementArray": [
              {
                "info": "Combine",
                "values": [
                  "DedicateGraphicCard"
                ],
                "GNKEMJKDNHO": 1,
                "DGCNMCJHMAM": true
              }
            ]
          }
        }
      },
      "platformTessellation": {
        "categoryRatingMap": {
          "GPU": [
            0,
            0,
            1,
            1,
            1
          ]
        },
        "itemOptionMap": {
          "default": {
            "itemOptionArray": [
              false,
              true
            ]
          }
        },
        "overrideMap": {
          "disableTessellation": {
            "requirementArray": [
              {
                "info": "Combine",
                "values": [
                  "DedicateGraphicCard"
                ],
                "GNKEMJKDNHO": 1,
                "DGCNMCJHMAM": true
              }
            ]
          }
        }
      }
    },
    "combinedItems": {
      "postprocessEffectOptions": {
        "categoryRatingMap": {
          "GPU": []
        },
        "playerCustomOption": {
          "settingEntry": "PostprocessEffect",
          "customConfigMap": {
            "default": {
              "optionTextName": [
                "VeryLow",
                "Low",
                "Medium",
                "High"
              ]
            }
          }
        },
        "itemOptionMap": {
          "default": {
            "includedOptions": [
              "useHalfShadows",
              "useShadowCache",
              "checkboardType",
              "aoMode",
              "fsrScale",
              "avatarMotionVectorStrategy",
              "pcEnableWaterSSRBlurFeature"
            ],
            "itemOptionArray": [
              [
                0,
                1,
                0,
                0,
                2,
                2,
                0
              ],
              [
                0,
                1,
                0,
                0,
                2,
                2,
                0
              ],
              [
                0,
                1,
                0,
                2,
                2,
                2,
                0
              ],
              [
                0,
                1,
                0,
                2,
                2,
                2,
                0
              ]
            ]
          }
        }
      },
      "particleEffectOptions": {
        "categoryRatingMap": {
          "GPU": []
        },
        "playerCustomOption": {
          "settingEntry": "ParticleEffect",
          "customConfigMap": {
            "default": {
              "optionTextName": [
                "VeryLow",
                "Low",
                "Medium",
                "High"
              ]
            }
          }
        },
        "itemOptionMap": {
          "default": {
            "includedOptions": [
              "halfResolutionParticle",
              "particleEmitLevel",
              "particleDecreaseThresh"
            ],
            "itemOptionArray": [
              [
                1,
                0,
                0
              ],
              [
                0,
                1,
                1
              ],
              [
                0,
                2,
                2
              ],
              [
                0,
                3,
                3
              ]
            ]
          }
        }
      },
      "shadowQualityOptions": {
        "categoryRatingMap": {
          "GPU": []
        },
        "playerCustomOption": {
          "settingEntry": "ShadowQuality",
          "customConfigMap": {
            "default": {
              "optionTextName": [
                "VeryLow",
                "Low",
                "Medium",
                "High"
              ]
            }
          }
        },
        "itemOptionMap": {
          "default": {
            "includedOptions": [
              "shadowDistance",
              "shadowResolution",
              "shadowCascadeSplitCount",
              "perObjShadowQuality",
              "shadowBlend",
              "PerObjectPCF",
              "enableDynamicShadow",
              "enablePcss",
              "enableDistantShadow",
              "enableShadowEdgeColor",
              "enableWaterShadowCascadeOptimize",
              "enableColoredShadow"
            ],
            "itemOptionArray": [
              [
                0,
                1,
                0,
                0,
                1,
                0,
                0,
                0,
                1,
                0,
                0,
                0
              ],
              [
                1,
                1,
                1,
                1,
                1,
                0,
                1,
                0,
                1,
                0,
                0,
                0
              ],
              [
                2,
                2,
                2,
                2,
                1,
                1,
                1,
                0,
                1,
                1,
                0,
                1
              ],
              [
                3,
                3,
                3,
                3,
                1,
                1,
                1,
                1,
                1,
                1,
                1,
                1
              ]
            ]
          }
        }
      },
      "comprehensiveSettingOptions": {
        "categoryRatingMap": {
          "GPU": []
        },
        "playerCustomOption": {
          "settingEntry": "ComprehensiveQuality",
          "customConfigMap": {
            "default": {
              "optionTextName": [
                "VeryLow",
                "Low",
                "Medium",
                "High",
                "VeryHigh"
              ]
            }
          }
        },
        "itemOptionMap": {
          "default": {
            "includedOptions": [
              "localLightingShadow",
              "terrainBlendDistance",
              "shaderLODDistance",
              "shaderQualityKeyword",
              "levelStreamingConfig",
              "enviroConfig",
              "lightViewDistanceRatio",
              "grassQuality",
              "lightOnLevel",
              "entityLODConfig",
              "enableDynamicLight",
              "textureStreamingBudget",
              "terrainDistance",
              "shellCount",
              "shellMaxObjectsCount",
              "useCrowdConeViewOptim",
              "crowdMaxScreenNum",
              "meshDepthBlendDistance",
              "enableShadowPCSSHigh"
            ],
            "itemOptionArray": [
              [
                0,
                0,
                0,
                0,
                0,
                0,
                0,
                2,
                0,
                0,
                1,
                1,
                0,
                0,
                0,
                1,
                0,
                0,
                0
              ],
              [
                0,
                1,
                1,
                1,
                1,
                0,
                1,
                3,
                0,
                1,
                1,
                1,
                1,
                1,
                1,
                1,
                1,
                1,
                0
              ],
              [
                1,
                2,
                2,
                1,
                2,
                0,
                2,
                4,
                2,
                2,
                1,
                2,
                2,
                2,
                2,
                1,
                2,
                3,
                0
              ],
              [
                1,
                3,
                3,
                2,
                3,
                0,
                3,
                4,
                2,
                3,
                1,
                3,
                3,
                3,
                3,
                1,
                3,
                4,
                0
              ],
              [
                1,
                4,
                4,
                2,
                4,
                0,
                4,
                5,
                2,
                3,
                1,
                4,
                4,
                4,
                4,
                1,
                4,
                4,
                1
              ]
            ]
          }
        }
      },
      "volatileSettingOptions": {
        "categoryRatingMap": {
          "GPU": [
            0,
            1,
            2,
            3,
            3
          ]
        },
        "playerCustomOption": {
          "settingEntry": "VolatileSetting",
          "customConfigMap": {
            "default": {
              "optionTextName": [
                "VeryLow",
                "Low",
                "Medium",
                "High"
              ]
            }
          }
        },
        "itemOptionMap": {
          "default": {
            "includedOptions": [
              "targetFrameRate",
              "vSyncGrade",
              "renderResolutionScale",
              "shadowQualityOptions",
              "postprocessEffectOptions",
              "particleEffectOptions",
              "comprehensiveSettingOptions",
              "antialiasingMethod",
              "volumetricFogGrade",
              "reflectionGrade",
              "motionBlurGrade",
              "bloomGrade",
              "crowdDensityGrade",
              "onlineEffect",
              "sssGrade",
              "anisotropicFilteringGrade",
              "lyraQualityLevel",
              "useTessellation"
            ],
            "itemOptionArray": [
              [
                0,
                1,
                1,
                0,
                0,
                0,
                0,
                0,
                0,
                0,
                0,
                1,
                1,
                2,
                0,
                0,
                0,
                0
              ],
              [
                0,
                1,
                8,
                1,
                1,
                1,
                1,
                1,
                0,
                0,
                0,
                1,
                1,
                2,
                1,
                1,
                0,
                0
              ],
              [
                1,
                1,
                8,
                2,
                2,
                2,
                2,
                1,
                1,
                0,
                2,
                1,
                1,
                2,
                1,
                2,
                0,
                1
              ],
              [
                1,
                1,
                2,
                3,
                3,
                3,
                3,
                1,
                1,
                1,
                3,
                1,
                1,
                2,
                2,
                3,
                0,
                1
              ]
            ]
          },
          "obsoleteDefaultOff": {
            "requirementArray": [
              {
                "info": "GraphicsDeviceName",
                "values": [
                  "AMD.*Radeon.*RX \\d+.*",
                  "AMD.*Radeon.*Pro \\d+.*",
                  "AMD.*Radeon.*Pro W.*\\d+.*",
                  "NVIDIA.*"
                ]
              },
              {
                "info": "GraphicsMemorySize",
                "values": [
                  "3500"
                ]
              },
              {
                "info": "OperateSystem",
                "values": [
                  "Windows 7",
                  "Windows 8"
                ]
              }
            ],
            "includedOptions": [
              "lyraQualityLevel"
            ],
            "itemOptionArray": [
              [
                0
              ],
              [
                0
              ],
              [
                0
              ],
              [
                0
              ]
            ]
          },
          "dedicated4GAbove": {
            "requirementArray": [
              {
                "info": "GraphicsDeviceName",
                "values": [
                  "AMD.*Radeon.*RX \\d+.*",
                  "AMD.*Radeon.*Pro \\d+.*",
                  "AMD.*Radeon.*Pro W.*\\d+.*",
                  "NVIDIA.*"
                ]
              },
              {
                "info": "GraphicsMemorySize",
                "values": [
                  "3500"
                ]
              }
            ],
            "includedOptions": [
              "lyraQualityLevel"
            ],
            "itemOptionArray": [
              [
                0
              ],
              [
                0
              ],
              [
                1
              ],
              [
                2
              ]
            ]
          }
        }
      }
    }
  },
  "playerCustomOptions": [
    "volatileSettingOptions",
    "targetFrameRate",
    "vSyncGrade",
    "renderResolutionScale",
    "shadowQualityOptions",
    "lyraQualityLevel",
    "postprocessEffectOptions",
    "particleEffectOptions",
    "comprehensiveSettingOptions",
    "antialiasingMethod",
    "volumetricFogGrade",
    "reflectionGrade",
    "motionBlurGrade",
    "bloomGrade",
    "crowdDensityGrade",
    "onlineEffect",
    "sssGrade",
    "anisotropicFilteringGrade",
    "useTessellation"
  ],
  "playerCloudGameCustomOptions": [
    "motionBlurGrade",
    "bloomGrade",
    "onlineEffect"
  ],
  "applyGlobalPerfForGraphicSetting": true,
  "debugDevices": [
    "Default",
    "PC VeryHigh",
    "PC High",
    "PC Medium",
    "PC Low",
    "PC VeryLow"
  ],
  "HNPANDPPFNB": {
    "DedicateGraphicCard": [
      {
        "info": "GraphicsDeviceName",
        "values": [
          "AMD.*Radeon.*RX \\d+.*",
          "AMD.*Radeon.*RX\\d+.*",
          "AMD.*Radeon.*Pro \\d+.*",
          "AMD.*Radeon.*Pro W.*\\d+.*",
          "AMD.*Radeon.*R9.*",
          "Radeon.*RX \\d+.*",
          "Radeon.*RX\\d+.*",
          "Radeon.*Pro \\d+.*",
          "Radeon.*Pro W.*\\d+.*",
          "Radeon.*R9.*",
          "NVIDIA.*"
        ]
      },
      {
        "info": "GraphicsDeviceName",
        "values": [
          "AMD.*Radeon.*RX Vega.*",
          "Radeon.*RX Vega.*"
        ],
        "GNKEMJKDNHO": 1
      },
      {
        "info": "GraphicsMemorySize",
        "values": [
          "7500"
        ],
        "GNKEMJKDNHO": 1
      },
      {
        "info": "GraphicsDeviceIdHexHighBit",
        "values": [
          "0x56"
        ],
        "GNKEMJKDNHO": 2
      }
    ]
  },
  "NAMJCIKIAND": [
    "TargetFrameRate",
    "GlobalIllumination",
    "Tessellation"
  ]
}