{
  "luaDataPath": "",
  "entityBan": "",
  "disableNpcLod": true,
  "startFade": {
    "startFadeOutDuration": 0.0
  },
  "endFade": {
    "startFadeOutDuration": 0.0
  },
  "actors": [
    {
      "alias": "Avatar",
      "visible": true,
      "bornPointName": "",
      "relativePosNpcAlias": "",
      "_bindMovingTargetKey": ""
    },
    {
      "configID": 9900,
      "alias": "9900",
      "visible": true,
      "bornPointName": "",
      "relativePosNpcAlias": "",
      "_bindMovingTargetKey": ""
    }
  ],
  "group": [
    [
      {
        "$type": "LJLMDHDCAMK",
        "type": "LOOK_AT",
        "aliasList": [
          "Avatar"
        ],
        "enableHead": true,
        "headTurnTime": 0.5,
        "targetNpcAlias": "9900",
        "targetNpcLookAtPoint": "",
        "OAFJBHJHLJG": ""
      },
      {
        "$type": "LJLMDHDCAMK",
        "type": "LOOK_AT",
        "aliasList": [
          "9900"
        ],
        "enableHead": true,
        "headTurnTime": 0.5,
        "targetNpcAlias": "Avatar",
        "targetNpcLookAtPoint": "",
        "OAFJBHJHLJG": ""
      },
      {
        "$type": "LLGANGLOEEO",
        "type": "STEER_TO",
        "duration": 0.800000011920929,
        "aliasList": [
          "Avatar"
        ],
        "steerType": "TO_TARGET_ADVANCED",
        "useSteerAnim": true,
        "interruptFreestyle": true,
        "forceSteer": true,
        "targetNpcAlias": "9900",
        "OAFJBHJHLJG": ""
      },
      {
        "$type": "FJKIHHKJLMJ",
        "type": "CAMERA_FOCUS",
        "duration": 0.10000000149011612,
        "targetNpcAlias": "",
        "KJOEFBPOIIH": "",
        "IICFKKEBIEC": "",
        "EGEHEJEBLBJ": ""
      },
      {
        "$type": "MoleMole.Config.ConfigTimeProtectAction",
        "type": "TIME_PROTECT",
        "duration": 0.5
      }
    ],
    [
      {
        "$type": "FABLGECDBCH",
        "type": "BODY_LANG",
        "aliasList": [
          "9900"
        ],
        "bodyLangParam": 1260,
        "forceDoFreeStyle": true,
        "canDoRepeatFreeStyle": false,
        "eventPatternSuiteKey": "",
        "FOHHKFAIAAJ": ""
      },
      {
        "$type": "LLGANGLOEEO",
        "type": "STEER_TO",
        "duration": 4.0,
        "aliasList": [
          "9900"
        ],
        "steerType": "TO_LOCAL_AVATAR",
        "interruptFreestyle": true,
        "forceSteer": true,
        "targetNpcAlias": "Avatar",
        "OAFJBHJHLJG": ""
      },
      {
        "$type": "PKKMAMONGEO",
        "type": "DIALOG",
        "aliasList": [
          "9900"
        ],
        "dialogID": 699000602,
        "protectTime": 0.5
      },
      {
        "$type": "CPJKOIHIPBE",
        "type": "EMO_SYNC",
        "aliasList": [
          "9900"
        ],
        "dataPath": "Cs_Emo_Avatar_Simple_Common_Set/Cs_Emo_Avatar_Talk/Cs_Emo_HomeWorld/Cs_Emo_Avatar_Paimon/Cs_Emo_699000602",
        "phonemePath": "",
        "emotionPath": "",
        "mateDataPath": "",
        "matePhonemePath": "",
        "mateEmotionPath": "",
        "enableBlink": false,
        "dataPathHashList": [
          17113322087079543204,
          3277422923621018321,
          5156928891547474258,
          16676073970628674535
        ],
        "FMDPBECPELH": "",
        "ADKBLPOKGIK": ""
      },
      {
        "$type": "FABLGECDBCH",
        "type": "BODY_LANG",
        "delayTime": 2.242000102996826,
        "aliasList": [
          "9900"
        ],
        "isContinue": true,
        "forceDoFreeStyle": true,
        "canDoRepeatFreeStyle": false,
        "eventPatternSuiteKey": "",
        "FOHHKFAIAAJ": ""
      }
    ],
    [
      {
        "$type": "CPJKOIHIPBE",
        "type": "EMO_SYNC",
        "aliasList": [
          "9900"
        ],
        "dataPath": "Cs_Emo_Avatar_Simple_Common_Set/Cs_Emo_Avatar_Talk/Cs_Emo_HomeWorld/Cs_Emo_Avatar_Paimon/Cs_Emo_699000603",
        "phonemePath": "",
        "emotionPath": "",
        "mateDataPath": "",
        "matePhonemePath": "",
        "mateEmotionPath": "",
        "dataPathHashList": [
          15316706788418556569,
          10095452078431205903,
          3393983474256402891,
          17344051715993483548
        ],
        "FMDPBECPELH": "",
        "ADKBLPOKGIK": ""
      },
      {
        "$type": "FABLGECDBCH",
        "type": "BODY_LANG",
        "aliasList": [
          "9900"
        ],
        "isContinue": true,
        "forceDoFreeStyle": true,
        "canDoRepeatFreeStyle": false,
        "eventPatternSuiteKey": "",
        "FOHHKFAIAAJ": ""
      },
      {
        "$type": "PKKMAMONGEO",
        "type": "DIALOG",
        "aliasList": [
          "9900"
        ],
        "dialogID": 699000603,
        "protectTime": 0.5
      },
      {
        "$type": "FABLGECDBCH",
        "type": "BODY_LANG",
        "delayTime": 0.164000004529953,
        "aliasList": [
          "9900"
        ],
        "bodyLangParam": 1170,
        "forceDoFreeStyle": true,
        "canDoRepeatFreeStyle": false,
        "eventPatternSuiteKey": "",
        "FOHHKFAIAAJ": ""
      },
      {
        "$type": "HDGKHDNFMIM",
        "type": "DIALOG_SELECT",
        "delayTime": 0.4000000059604645,
        "aliasList": [
          "Avatar"
        ],
        "dialogIDList": [
          699000604
        ],
        "grpIDList": [
          3146244232
        ],
        "useGrpId": true
      },
      {
        "$type": "FABLGECDBCH",
        "type": "BODY_LANG",
        "delayTime": 3.7309999465942383,
        "aliasList": [
          "9900"
        ],
        "isContinue": true,
        "forceDoFreeStyle": true,
        "canDoRepeatFreeStyle": false,
        "eventPatternSuiteKey": "",
        "FOHHKFAIAAJ": ""
      }
    ],
    [
      {
        "$type": "CPJKOIHIPBE",
        "type": "EMO_SYNC",
        "aliasList": [
          "9900"
        ],
        "dataPath": "Cs_Emo_Avatar_Simple_Common_Set/Cs_Emo_Avatar_Talk/Cs_Emo_HomeWorld/Cs_Emo_Avatar_Paimon/Cs_Emo_699000605",
        "phonemePath": "",
        "emotionPath": "",
        "mateDataPath": "",
        "matePhonemePath": "",
        "mateEmotionPath": "",
        "enableBlink": false,
        "dataPathHashList": [
          16878966478732587568,
          9247903124876224967,
          17930845674733172663,
          12400366044756359142
        ],
        "FMDPBECPELH": "",
        "ADKBLPOKGIK": ""
      },
      {
        "$type": "FABLGECDBCH",
        "type": "BODY_LANG",
        "aliasList": [
          "9900"
        ],
        "isContinue": true,
        "forceDoFreeStyle": true,
        "canDoRepeatFreeStyle": false,
        "eventPatternSuiteKey": "",
        "FOHHKFAIAAJ": ""
      },
      {
        "$type": "PKKMAMONGEO",
        "type": "DIALOG",
        "aliasList": [
          "9900"
        ],
        "dialogID": 699000605,
        "protectTime": 0.5
      },
      {
        "$type": "FABLGECDBCH",
        "type": "BODY_LANG",
        "delayTime": 0.1889999955892563,
        "aliasList": [
          "9900"
        ],
        "bodyLangParam": 1090,
        "forceDoFreeStyle": true,
        "canDoRepeatFreeStyle": false,
        "eventPatternSuiteKey": "",
        "FOHHKFAIAAJ": ""
      },
      {
        "$type": "HDGKHDNFMIM",
        "type": "DIALOG_SELECT",
        "delayTime": 0.4000000059604645,
        "aliasList": [
          "Avatar"
        ],
        "dialogIDList": [
          699000606,
          699000607
        ],
        "grpIDList": [
          3146244233,
          3146244233
        ],
        "useGrpId": true
      }
    ],
    [
      {
        "$type": "FABLGECDBCH",
        "type": "BODY_LANG",
        "aliasList": [
          "9900"
        ],
        "isContinue": true,
        "forceDoFreeStyle": true,
        "canDoRepeatFreeStyle": false,
        "eventPatternSuiteKey": "",
        "FOHHKFAIAAJ": ""
      },
      {
        "$type": "MoleMole.Config.ConfigTimeProtectAction",
        "type": "TIME_PROTECT",
        "duration": 0.10000000149011612
      }
    ],
    [
      {
        "$type": "MoleMole.Config.ConfigTimeProtectAction",
        "type": "TIME_PROTECT",
        "duration": 0.10000000149011612
      }
    ]
  ],
  "groupId": [
    {
      "grpId": 3146244229,
      "nextGrpId": 3146244230
    },
    {
      "index": 1,
      "grpId": 3146244230,
      "nextGrpId": 3146244231
    },
    {
      "index": 2,
      "grpId": 3146244231,
      "nextGrpId": 3146244232
    },
    {
      "index": 3,
      "grpId": 3146244232,
      "nextGrpId": 3146244233
    },
    {
      "index": 4,
      "grpId": 3146244233,
      "nextGrpId": 3146244234
    },
    {
      "index": 5,
      "grpId": 3146244234,
      "nextGrpId": 3146244235
    }
  ]
}