{
  "luaDataPath": "",
  "startBlackKeepTime": 0.800000011920929,
  "entityBan": "",
  "protectNpcMobileLod": true,
  "talkFlag": 7,
  "startFade": {
    "startFadeInDuration": 0.30000001192092896,
    "startFadeOutDuration": 0.30000001192092896
  },
  "endFade": {
    "startFadeOutDuration": 0.0
  },
  "actors": [
    {
      "alias": "Avatar",
      "visible": true,
      "bornPointName": "Q1050001AvatarSpawn",
      "relativePosType": "AVATAR_NEW",
      "relativePosNpcAlias": "",
      "_notDestroyInTalk": true,
      "_bindMovingTargetKey": ""
    },
    {
      "configID": 1005,
      "alias": "1005",
      "visible": true,
      "bornPointName": "Q1050001Paimon",
      "relativePosType": "AVATAR_NEW",
      "relativePosNpcAlias": "",
      "_notDestroyInTalk": true,
      "_bindMovingTargetKey": ""
    },
    {
      "configID": 10095,
      "alias": "10095",
      "visible": true,
      "bornPointName": "Q1050001Mona",
      "relativePosType": "AVATAR_NEW",
      "relativePosNpcAlias": "",
      "_notDestroyInTalk": true,
      "_bindMovingTargetKey": ""
    }
  ],
  "group": [
    [
      {
        "$type": "FJKIHHKJLMJ",
        "type": "CAMERA_MOVE",
        "delayTime": 0.5,
        "duration": 20.0,
        "actionId": 126,
        "camPosOffset": {
          "x": -221.85499572753906,
          "y": 259.6189880371094,
          "z": 296.5169982910156
        },
        "camForwardTargetOffset": {
          "x": -221.8489990234375,
          "y": 259.7969970703125,
          "z": 295.5329895019531
        },
        "camFov": 35.0,
        "lerpPattern": 1,
        "cameraBlendType": "EaseOutQuad",
        "targetNpcAlias": "",
        "KJOEFBPOIIH": "",
        "IICFKKEBIEC": "",
        "EGEHEJEBLBJ": ""
      },
      {
        "$type": "FJKIHHKJLMJ",
        "type": "CAMERA_MOVE",
        "duration": 1.0,
        "actionId": 127,
        "camPosOffset": {
          "x": -222.27200317382812,
          "y": 259.54901123046875,
          "z": 296.4339904785156
        },
        "camForwardTargetOffset": {
          "x": -222.0540008544922,
          "y": 259.7569885253906,
          "z": 295.4800109863281
        },
        "camFov": 35.0,
        "lerpPattern": 6,
        "cameraBlendType": "EaseInOutCubic",
        "targetNpcAlias": "",
        "KJOEFBPOIIH": "",
        "IICFKKEBIEC": "",
        "EGEHEJEBLBJ": ""
      },
      {
        "$type": "MoleMole.Config.ConfigTimeProtectAction",
        "type": "TIME_PROTECT",
        "duration": 2.0,
        "actionId": 128
      },
      {
        "$type": "MoleMole.Config.ConfigMoveToAction",
        "type": "MOVE_TO",
        "aliasList": [
          "Avatar"
        ],
        "actionId": 159,
        "routeList": [
          {
            "x": -222.39100646972656,
            "y": 258.7340087890625,
            "z": 294.2969970703125
          }
        ],
        "_bindMovingTargetKey": ""
      },
      {
        "$type": "LLGANGLOEEO",
        "type": "STEER_TO",
        "delayTime": 0.10000000149011612,
        "aliasList": [
          "Avatar"
        ],
        "actionId": 160,
        "_flag": 32,
        "steerDir": {
          "x": 0.8230000138282776,
          "z": -0.5690000057220459
        },
        "targetNpcAlias": "",
        "fixInterNull": true,
        "OAFJBHJHLJG": ""
      },
      {
        "$type": "LJLMDHDCAMK",
        "type": "LOOK_AT",
        "delayTime": 0.30000001192092896,
        "aliasList": [
          "Avatar"
        ],
        "actionId": 161,
        "_flag": 64,
        "enableHead": true,
        "headTurnTime": 0.5,
        "targetNpcAlias": "10095",
        "targetNpcLookAtPoint": "",
        "OAFJBHJHLJG": ""
      },
      {
        "$type": "HDGKHDNFMIM",
        "type": "DIALOG_SELECT",
        "delayTime": 0.4000000059604645,
        "aliasList": [
          "Avatar"
        ],
        "actionId": 162,
        "dialogIDList": [
          105000902,
          105000903
        ],
        "grpIDList": [
          2216474879,
          2216474879
        ],
        "useGrpId": true,
        "countDownGrpId": 2216474877
      },
      {
        "$type": "MoleMole.Config.ConfigMoveToAction",
        "type": "MOVE_TO",
        "aliasList": [
          "1005"
        ],
        "actionId": 177,
        "routeList": [
          {
            "x": -221.85000610351562,
            "y": 258.72601318359375,
            "z": 295.12799072265625
          }
        ],
        "_bindMovingTargetKey": ""
      },
      {
        "$type": "LLGANGLOEEO",
        "type": "STEER_TO",
        "delayTime": 0.4000000059604645,
        "aliasList": [
          "1005"
        ],
        "actionId": 178,
        "_flag": 32,
        "steerDir": {
          "x": 0.6209999918937683,
          "z": -0.7839999794960022
        },
        "targetNpcAlias": "",
        "fixInterNull": true,
        "OAFJBHJHLJG": ""
      },
      {
        "$type": "LJLMDHDCAMK",
        "type": "LOOK_AT",
        "delayTime": 0.4000000059604645,
        "aliasList": [
          "1005"
        ],
        "actionId": 179,
        "_flag": 64,
        "enableHead": true,
        "headTurnTime": 0.5,
        "targetNpcAlias": "10095",
        "targetNpcLookAtPoint": "",
        "OAFJBHJHLJG": ""
      },
      {
        "$type": "CPJKOIHIPBE",
        "type": "EMO_SYNC",
        "aliasList": [
          "1005"
        ],
        "actionId": 180,
        "_flag": 320,
        "dataPath": "",
        "phonemePath": "",
        "emotionPath": "",
        "mateDataPath": "",
        "matePhonemePath": "",
        "mateEmotionPath": "",
        "FMDPBECPELH": "",
        "ADKBLPOKGIK": ""
      },
      {
        "$type": "MoleMole.Config.ConfigMoveToAction",
        "type": "MOVE_TO",
        "aliasList": [
          "10095"
        ],
        "actionId": 211,
        "routeList": [
          {
            "x": -220.88900756835938,
            "y": 259.4280090332031,
            "z": 293.79901123046875
          }
        ],
        "_bindMovingTargetKey": ""
      },
      {
        "$type": "LLGANGLOEEO",
        "type": "STEER_TO",
        "delayTime": 0.30000001192092896,
        "aliasList": [
          "10095"
        ],
        "actionId": 212,
        "_flag": 32,
        "steerDir": {
          "x": -0.8180000185966492,
          "z": 0.574999988079071
        },
        "targetNpcAlias": "",
        "fixInterNull": true,
        "OAFJBHJHLJG": ""
      },
      {
        "$type": "LJLMDHDCAMK",
        "type": "LOOK_AT",
        "delayTime": 0.30000001192092896,
        "aliasList": [
          "10095"
        ],
        "actionId": 213,
        "_flag": 64,
        "enableHead": true,
        "headTurnTime": 0.4000000059604645,
        "targetNpcAlias": "1005",
        "targetNpcLookAtPoint": "",
        "OAFJBHJHLJG": ""
      },
      {
        "$type": "CPJKOIHIPBE",
        "type": "EMO_SYNC",
        "aliasList": [
          "10095"
        ],
        "actionId": 214,
        "_flag": 320,
        "dataPath": "Cs_Emo_Avatar_Simple_Common_Set/Cs_Emo_Avatar_Talk/Cs_Emo_Avatar_PersonalLine/Cs_Emo_Avatar_MoNa/Cs_Emo_105000901",
        "phonemePath": "",
        "emotionPath": "",
        "mateDataPath": "",
        "matePhonemePath": "",
        "mateEmotionPath": "",
        "dataPathHashList": [
          566503227364262424,
          7451401881662064330,
          12748978595674375914,
          8312414630738903805
        ],
        "FMDPBECPELH": "",
        "ADKBLPOKGIK": ""
      },
      {
        "$type": "PKKMAMONGEO",
        "type": "DIALOG",
        "aliasList": [
          "10095"
        ],
        "actionId": 215,
        "dialogID": 105000901,
        "protectTime": 2.0
      },
      {
        "$type": "FABLGECDBCH",
        "type": "BODY_LANG",
        "delayTime": 0.7590000033378601,
        "aliasList": [
          "10095"
        ],
        "actionId": 216,
        "_flag": 131072,
        "bodyLangParam": 1171,
        "eventPatternSuiteKey": "",
        "FOHHKFAIAAJ": ""
      }
    ],
    [
      {
        "$type": "LJLMDHDCAMK",
        "type": "LOOK_AT",
        "delayTime": 0.3400000035762787,
        "aliasList": [
          "Avatar"
        ],
        "actionId": 163,
        "_flag": 64,
        "enableHead": true,
        "enableBody": true,
        "bodyAngle": -10.0,
        "headTurnTime": 0.5,
        "bodyTurnTime": 0.4000000059604645,
        "targetNpcAlias": "1005",
        "targetNpcLookAtPoint": "",
        "OAFJBHJHLJG": ""
      },
      {
        "$type": "PKKMAMONGEO",
        "type": "DIALOG",
        "aliasList": [
          "1005"
        ],
        "actionId": 181,
        "dialogID": 105000904,
        "protectTime": 2.0
      },
      {
        "$type": "LLGANGLOEEO",
        "type": "STEER_TO",
        "duration": 0.699999988079071,
        "aliasList": [
          "1005"
        ],
        "actionId": 182,
        "_flag": 32,
        "steerDir": {
          "x": 0.16099999845027924,
          "z": -0.9869999885559082
        },
        "useSteerAnim": true,
        "targetNpcAlias": "",
        "fixInterNull": true,
        "OAFJBHJHLJG": ""
      },
      {
        "$type": "LJLMDHDCAMK",
        "type": "LOOK_AT",
        "aliasList": [
          "1005"
        ],
        "actionId": 183,
        "_flag": 64,
        "enableHead": true,
        "headTurnTime": 0.5,
        "targetNpcAlias": "Avatar",
        "targetNpcLookAtPoint": "",
        "OAFJBHJHLJG": ""
      },
      {
        "$type": "FABLGECDBCH",
        "type": "BODY_LANG",
        "delayTime": 1.371000051498413,
        "aliasList": [
          "1005"
        ],
        "actionId": 184,
        "_flag": 131072,
        "bodyLangParam": 1180,
        "eventPatternSuiteKey": "",
        "FOHHKFAIAAJ": ""
      },
      {
        "$type": "FABLGECDBCH",
        "type": "BODY_LANG",
        "delayTime": 3.4179999828338623,
        "aliasList": [
          "1005"
        ],
        "actionId": 185,
        "_flag": 131072,
        "isContinue": true,
        "eventPatternSuiteKey": "",
        "FOHHKFAIAAJ": ""
      }
    ],
    [
      {
        "$type": "LJLMDHDCAMK",
        "type": "LOOK_AT",
        "delayTime": 0.30000001192092896,
        "aliasList": [
          "Avatar"
        ],
        "actionId": 164,
        "_flag": 64,
        "enableHead": true,
        "headTurnTime": 0.5,
        "targetNpcAlias": "10095",
        "targetNpcLookAtPoint": "",
        "OAFJBHJHLJG": ""
      },
      {
        "$type": "LLGANGLOEEO",
        "type": "STEER_TO",
        "delayTime": 0.4000000059604645,
        "duration": 0.699999988079071,
        "aliasList": [
          "1005"
        ],
        "actionId": 186,
        "_flag": 32,
        "steerDir": {
          "x": 0.6209999918937683,
          "z": -0.7839999794960022
        },
        "useSteerAnim": true,
        "targetNpcAlias": "",
        "fixInterNull": true,
        "OAFJBHJHLJG": ""
      },
      {
        "$type": "LJLMDHDCAMK",
        "type": "LOOK_AT",
        "delayTime": 0.4000000059604645,
        "aliasList": [
          "1005"
        ],
        "actionId": 187,
        "_flag": 64,
        "enableHead": true,
        "headTurnTime": 0.5,
        "targetNpcAlias": "10095",
        "targetNpcLookAtPoint": "",
        "OAFJBHJHLJG": ""
      },
      {
        "$type": "PKKMAMONGEO",
        "type": "DIALOG",
        "aliasList": [
          "10095"
        ],
        "actionId": 217,
        "dialogID": 105000905,
        "protectTime": 2.0
      },
      {
        "$type": "FABLGECDBCH",
        "type": "BODY_LANG",
        "aliasList": [
          "10095"
        ],
        "actionId": 218,
        "_flag": 131072,
        "bodyLangParam": 1130,
        "eventPatternSuiteKey": "",
        "FOHHKFAIAAJ": ""
      },
      {
        "$type": "LJLMDHDCAMK",
        "type": "LOOK_AT",
        "aliasList": [
          "10095"
        ],
        "actionId": 219,
        "_flag": 64,
        "enableHead": true,
        "headTurnTime": 0.4000000059604645,
        "targetNpcAlias": "Avatar",
        "targetNpcLookAtPoint": "",
        "OAFJBHJHLJG": ""
      },
      {
        "$type": "CPJKOIHIPBE",
        "type": "EMO_SYNC",
        "aliasList": [
          "10095"
        ],
        "actionId": 220,
        "_flag": 256,
        "dataPath": "Cs_Emo_Avatar_Simple_Common_Set/Cs_Emo_Avatar_Talk/Cs_Emo_Avatar_PersonalLine/Cs_Emo_Avatar_MoNa/Cs_Emo_105000905",
        "phonemePath": "",
        "emotionPath": "",
        "mateDataPath": "",
        "matePhonemePath": "",
        "mateEmotionPath": "",
        "dataPathHashList": [
          17356498928304231311,
          18443341187599169124,
          3778255950291548076,
          12384520562635739133
        ],
        "FMDPBECPELH": "",
        "ADKBLPOKGIK": ""
      }
    ],
    [
      {
        "$type": "FJKIHHKJLMJ",
        "type": "CAMERA_MOVE",
        "duration": 6.535999774932861,
        "actionId": 129,
        "camPosOffset": {
          "x": -221.97999572753906,
          "y": 259.9159851074219,
          "z": 294.72698974609375
        },
        "camForwardTargetOffset": {
          "x": -221.343994140625,
          "y": 260.3420104980469,
          "z": 294.0840148925781
        },
        "camFov": 25.0,
        "lerpPattern": 6,
        "cameraBlendType": "EaseOutQuad",
        "targetNpcAlias": "",
        "KJOEFBPOIIH": "",
        "IICFKKEBIEC": "",
        "EGEHEJEBLBJ": ""
      },
      {
        "$type": "PKKMAMONGEO",
        "type": "DIALOG",
        "aliasList": [
          "10095"
        ],
        "actionId": 221,
        "dialogID": 105000906,
        "protectTime": 2.0
      },
      {
        "$type": "FABLGECDBCH",
        "type": "BODY_LANG",
        "aliasList": [
          "10095"
        ],
        "actionId": 222,
        "_flag": 131072,
        "isContinue": true,
        "eventPatternSuiteKey": "",
        "FOHHKFAIAAJ": ""
      },
      {
        "$type": "FABLGECDBCH",
        "type": "BODY_LANG",
        "delayTime": 1.319000005722046,
        "aliasList": [
          "10095"
        ],
        "actionId": 223,
        "_flag": 131072,
        "bodyLangParam": 1172,
        "eventPatternSuiteKey": "",
        "FOHHKFAIAAJ": ""
      },
      {
        "$type": "CPJKOIHIPBE",
        "type": "EMO_SYNC",
        "aliasList": [
          "10095"
        ],
        "actionId": 224,
        "_flag": 256,
        "dataPath": "Cs_Emo_Avatar_Simple_Common_Set/Cs_Emo_Avatar_Talk/Cs_Emo_Avatar_PersonalLine/Cs_Emo_Avatar_MoNa/Cs_Emo_105000906",
        "phonemePath": "",
        "emotionPath": "",
        "mateDataPath": "",
        "matePhonemePath": "",
        "mateEmotionPath": "",
        "dataPathHashList": [
          6883506542777539728,
          14368277440457350215,
          2973178891789304406,
          7217068768192779934
        ],
        "FMDPBECPELH": "",
        "ADKBLPOKGIK": ""
      }
    ],
    [
      {
        "$type": "PKKMAMONGEO",
        "type": "DIALOG",
        "aliasList": [
          "10095"
        ],
        "actionId": 225,
        "dialogID": 105000109,
        "protectTime": 2.0
      },
      {
        "$type": "FABLGECDBCH",
        "type": "BODY_LANG",
        "aliasList": [
          "10095"
        ],
        "actionId": 226,
        "_flag": 131072,
        "bodyLangParam": 1171,
        "eventPatternSuiteKey": "",
        "FOHHKFAIAAJ": ""
      },
      {
        "$type": "FABLGECDBCH",
        "type": "BODY_LANG",
        "delayTime": 7.375,
        "aliasList": [
          "10095"
        ],
        "actionId": 227,
        "_flag": 131072,
        "bodyLangParam": 1220,
        "eventPatternSuiteKey": "",
        "FOHHKFAIAAJ": ""
      },
      {
        "$type": "CPJKOIHIPBE",
        "type": "EMO_SYNC",
        "aliasList": [
          "10095"
        ],
        "actionId": 228,
        "_flag": 256,
        "dataPath": "Cs_Emo_Avatar_Simple_Common_Set/Cs_Emo_Avatar_Talk/Cs_Emo_Avatar_PersonalLine/Cs_Emo_Avatar_MoNa/Cs_Emo_105000109",
        "phonemePath": "",
        "emotionPath": "",
        "mateDataPath": "",
        "matePhonemePath": "",
        "mateEmotionPath": "",
        "dataPathHashList": [
          16422191209509458770,
          13567450352523700245,
          14489390160938062977,
          5911847327532251868
        ],
        "FMDPBECPELH": "",
        "ADKBLPOKGIK": ""
      }
    ],
    [
      {
        "$type": "FJKIHHKJLMJ",
        "type": "CAMERA_MOVE",
        "delayTime": 0.05000000074505806,
        "duration": 20.0,
        "actionId": 130,
        "camPosOffset": {
          "x": -220.58900451660156,
          "y": 260.385009765625,
          "z": 294.14898681640625
        },
        "camForwardTargetOffset": {
          "x": -221.49899291992188,
          "y": 260.1669921875,
          "z": 294.50299072265625
        },
        "camFov": 35.0,
        "lerpPattern": 1,
        "cameraBlendType": "EaseOutQuad",
        "targetNpcAlias": "",
        "KJOEFBPOIIH": "",
        "IICFKKEBIEC": "",
        "EGEHEJEBLBJ": ""
      },
      {
        "$type": "FJKIHHKJLMJ",
        "type": "CAMERA_MOVE",
        "duration": 1.0,
        "actionId": 131,
        "camPosOffset": {
          "x": -220.5469970703125,
          "y": 260.1600036621094,
          "z": 294.1189880371094
        },
        "camForwardTargetOffset": {
          "x": -221.45599365234375,
          "y": 259.9419860839844,
          "z": 294.4729919433594
        },
        "camFov": 35.0,
        "lerpPattern": 6,
        "cameraBlendType": "EaseInOutCubic",
        "targetNpcAlias": "",
        "KJOEFBPOIIH": "",
        "IICFKKEBIEC": "",
        "EGEHEJEBLBJ": ""
      },
      {
        "$type": "LJLMDHDCAMK",
        "type": "LOOK_AT",
        "delayTime": 6.133999824523926,
        "aliasList": [
          "Avatar"
        ],
        "actionId": 165,
        "_flag": 64,
        "enableHead": true,
        "headTurnTime": 0.5,
        "targetNpcAlias": "10095",
        "targetNpcLookAtPoint": "",
        "OAFJBHJHLJG": ""
      },
      {
        "$type": "LJLMDHDCAMK",
        "type": "LOOK_AT",
        "delayTime": 1.1419999599456787,
        "aliasList": [
          "Avatar"
        ],
        "actionId": 166,
        "_flag": 64,
        "enableHead": true,
        "headTurnTime": 0.6000000238418579,
        "targetNpcAlias": "1005",
        "targetNpcLookAtPoint": "",
        "OAFJBHJHLJG": ""
      },
      {
        "$type": "PKKMAMONGEO",
        "type": "DIALOG",
        "aliasList": [
          "1005"
        ],
        "actionId": 188,
        "dialogID": 105000110,
        "protectTime": 2.0
      },
      {
        "$type": "LJLMDHDCAMK",
        "type": "LOOK_AT",
        "aliasList": [
          "1005"
        ],
        "actionId": 189,
        "_flag": 64,
        "enableHead": true,
        "headTurnTime": 0.4000000059604645,
        "targetNpcAlias": "10095",
        "targetNpcLookAtPoint": "",
        "OAFJBHJHLJG": ""
      },
      {
        "$type": "FABLGECDBCH",
        "type": "BODY_LANG",
        "delayTime": 5.015999794006348,
        "aliasList": [
          "1005"
        ],
        "actionId": 190,
        "_flag": 131072,
        "bodyLangParam": 1110,
        "eventPatternSuiteKey": "",
        "FOHHKFAIAAJ": ""
      },
      {
        "$type": "FABLGECDBCH",
        "type": "BODY_LANG",
        "aliasList": [
          "1005"
        ],
        "actionId": 191,
        "_flag": 131072,
        "bodyLangParam": 1190,
        "eventPatternSuiteKey": "",
        "FOHHKFAIAAJ": ""
      },
      {
        "$type": "FABLGECDBCH",
        "type": "BODY_LANG",
        "delayTime": 2.9679999351501465,
        "aliasList": [
          "1005"
        ],
        "actionId": 192,
        "_flag": 131072,
        "isContinue": true,
        "eventPatternSuiteKey": "",
        "FOHHKFAIAAJ": ""
      },
      {
        "$type": "CPJKOIHIPBE",
        "type": "EMO_SYNC",
        "aliasList": [
          "1005"
        ],
        "actionId": 193,
        "_flag": 256,
        "dataPath": "Cs_Emo_Avatar_Simple_Common_Set/Cs_Emo_Avatar_Talk/Cs_Emo_Avatar_PersonalLine/Cs_Emo_Avatar_MoNa/Cs_Emo_105000110",
        "phonemePath": "",
        "emotionPath": "",
        "mateDataPath": "",
        "matePhonemePath": "",
        "mateEmotionPath": "",
        "dataPathHashList": [
          16509652186875069444,
          5753267783700748074,
          4860429235786329492,
          15928608125655333083
        ],
        "FMDPBECPELH": "",
        "ADKBLPOKGIK": ""
      },
      {
        "$type": "FABLGECDBCH",
        "type": "BODY_LANG",
        "aliasList": [
          "10095"
        ],
        "actionId": 229,
        "_flag": 131072,
        "isContinue": true,
        "eventPatternSuiteKey": "",
        "FOHHKFAIAAJ": ""
      },
      {
        "$type": "LJLMDHDCAMK",
        "type": "LOOK_AT",
        "delayTime": 0.04100000113248825,
        "aliasList": [
          "10095"
        ],
        "actionId": 230,
        "_flag": 64,
        "enableHead": true,
        "headRotateVec": {
          "y": 33.012001037597656
        },
        "targetNpcAlias": "",
        "targetNpcLookAtPoint": "",
        "OAFJBHJHLJG": ""
      },
      {
        "$type": "CPJKOIHIPBE",
        "type": "EMO_SYNC",
        "aliasList": [
          "10095"
        ],
        "actionId": 231,
        "_flag": 256,
        "dataPath": "Cs_Emo_Avatar_Simple_Common_Set/Cs_Emo_Avatar_Common_Normal",
        "phonemePath": "",
        "emotionPath": "",
        "mateDataPath": "",
        "matePhonemePath": "",
        "mateEmotionPath": "",
        "dataPathHashList": [
          1254595151211172457,
          11740135046283525816,
          13690962357574067534,
          4569976534232268451
        ],
        "FMDPBECPELH": "",
        "ADKBLPOKGIK": ""
      },
      {
        "$type": "MoleMole.Config.ConfigVisibleInterAction",
        "type": "VISIBLE",
        "aliasList": [
          "10095"
        ],
        "actionId": 316,
        "_extraParam": ""
      }
    ],
    [
      {
        "$type": "FJKIHHKJLMJ",
        "type": "CAMERA_MOVE",
        "delayTime": 0.3499999940395355,
        "duration": 15.0,
        "actionId": 132,
        "camPosOffset": {
          "x": -221.86300659179688,
          "y": 260.4880065917969,
          "z": 294.46099853515625
        },
        "camForwardTargetOffset": {
          "x": -221.04800415039062,
          "y": 260.6510009765625,
          "z": 293.9049987792969
        },
        "camFov": 15.0,
        "lerpPattern": 1,
        "cameraBlendType": "EaseOutQuad",
        "targetNpcAlias": "",
        "KJOEFBPOIIH": "",
        "IICFKKEBIEC": "",
        "EGEHEJEBLBJ": ""
      },
      {
        "$type": "FJKIHHKJLMJ",
        "type": "CAMERA_MOVE",
        "delayTime": 0.30000001192092896,
        "duration": 1.0,
        "actionId": 133,
        "camPosOffset": {
          "x": -222.0800018310547,
          "y": 260.4440002441406,
          "z": 294.6099853515625
        },
        "camForwardTargetOffset": {
          "x": -221.26600646972656,
          "y": 260.6080017089844,
          "z": 294.0539855957031
        },
        "camFov": 15.0,
        "lerpPattern": 6,
        "cameraBlendType": "EaseInOutCubic",
        "targetNpcAlias": "",
        "KJOEFBPOIIH": "",
        "IICFKKEBIEC": "",
        "EGEHEJEBLBJ": ""
      },
      {
        "$type": "LJLMDHDCAMK",
        "type": "LOOK_AT",
        "aliasList": [
          "Avatar"
        ],
        "actionId": 167,
        "_flag": 64,
        "enableHead": true,
        "headTurnTime": 0.4000000059604645,
        "targetNpcAlias": "10095",
        "targetNpcLookAtPoint": "",
        "OAFJBHJHLJG": ""
      },
      {
        "$type": "FABLGECDBCH",
        "type": "BODY_LANG",
        "aliasList": [
          "1005"
        ],
        "actionId": 194,
        "_flag": 131072,
        "isContinue": true,
        "eventPatternSuiteKey": "",
        "FOHHKFAIAAJ": ""
      },
      {
        "$type": "CPJKOIHIPBE",
        "type": "EMO_SYNC",
        "aliasList": [
          "1005"
        ],
        "actionId": 195,
        "_flag": 320,
        "dataPath": "Cs_Emo_Avatar_Simple_Common_Set/Cs_Emo_Avatar_Paimon/Cs_Emo_Pet_Paimon_Normal_01",
        "phonemePath": "",
        "emotionPath": "",
        "mateDataPath": "",
        "matePhonemePath": "",
        "mateEmotionPath": "",
        "dataPathHashList": [
          2327328236696044360,
          12338418010740210543,
          5776394525372018320,
          8916958471179128575
        ],
        "FMDPBECPELH": "",
        "ADKBLPOKGIK": ""
      },
      {
        "$type": "PKKMAMONGEO",
        "type": "DIALOG",
        "aliasList": [
          "10095"
        ],
        "actionId": 232,
        "dialogID": 105000111,
        "protectTime": 2.0
      },
      {
        "$type": "FABLGECDBCH",
        "type": "BODY_LANG",
        "aliasList": [
          "10095"
        ],
        "actionId": 233,
        "_flag": 131072,
        "isContinue": true,
        "eventPatternSuiteKey": "",
        "FOHHKFAIAAJ": ""
      },
      {
        "$type": "CPJKOIHIPBE",
        "type": "EMO_SYNC",
        "aliasList": [
          "10095"
        ],
        "actionId": 234,
        "_flag": 256,
        "dataPath": "Cs_Emo_Avatar_Simple_Common_Set/Cs_Emo_Avatar_Talk/Cs_Emo_Avatar_PersonalLine/Cs_Emo_Avatar_MoNa/Cs_Emo_105000111",
        "phonemePath": "",
        "emotionPath": "",
        "mateDataPath": "",
        "matePhonemePath": "",
        "mateEmotionPath": "",
        "dataPathHashList": [
          13421370854193570584,
          14967804501532566178,
          12841433926912794877,
          8216789171122265670
        ],
        "FMDPBECPELH": "",
        "ADKBLPOKGIK": ""
      },
      {
        "$type": "LJLMDHDCAMK",
        "type": "LOOK_AT",
        "delayTime": 1.5679999589920044,
        "aliasList": [
          "10095"
        ],
        "actionId": 235,
        "_flag": 64,
        "enableHead": true,
        "headRotateVec": {
          "y": 10.0
        },
        "headTurnTime": 0.800000011920929,
        "targetNpcAlias": "",
        "targetNpcLookAtPoint": "",
        "OAFJBHJHLJG": ""
      },
      {
        "$type": "MoleMole.Config.ConfigVisibleInterAction",
        "type": "VISIBLE",
        "delayTime": 0.30000001192092896,
        "aliasList": [
          "10095"
        ],
        "actionId": 317,
        "isVisible": true,
        "_extraParam": ""
      }
    ],
    [
      {
        "$type": "FJKIHHKJLMJ",
        "type": "CAMERA_MOVE",
        "delayTime": 0.05000000074505806,
        "duration": 20.0,
        "actionId": 134,
        "camPosOffset": {
          "x": -223.76100158691406,
          "y": 262.40899658203125,
          "z": 293.27398681640625
        },
        "camForwardTargetOffset": {
          "x": -222.92999267578125,
          "y": 261.8609924316406,
          "z": 293.3760070800781
        },
        "camFov": 15.0,
        "lerpPattern": 1,
        "cameraBlendType": "EaseOutQuad",
        "targetNpcAlias": "",
        "KJOEFBPOIIH": "",
        "IICFKKEBIEC": "",
        "EGEHEJEBLBJ": ""
      },
      {
        "$type": "FJKIHHKJLMJ",
        "type": "CAMERA_MOVE",
        "duration": 1.0,
        "actionId": 135,
        "camPosOffset": {
          "x": -223.84500122070312,
          "y": 262.3370056152344,
          "z": 293.572998046875
        },
        "camForwardTargetOffset": {
          "x": -223.01400756835938,
          "y": 261.7900085449219,
          "z": 293.67498779296875
        },
        "camFov": 15.0,
        "lerpPattern": 6,
        "cameraBlendType": "EaseInOutCubic",
        "targetNpcAlias": "",
        "KJOEFBPOIIH": "",
        "IICFKKEBIEC": "",
        "EGEHEJEBLBJ": ""
      },
      {
        "$type": "HDGKHDNFMIM",
        "type": "DIALOG_SELECT",
        "delayTime": 0.5,
        "aliasList": [
          "Avatar"
        ],
        "actionId": 168,
        "dialogIDList": [
          105000911,
          105000913
        ],
        "grpIDList": [
          2216474886,
          4286211826
        ],
        "useGrpId": true,
        "countDownGrpId": 2216474877
      },
      {
        "$type": "PKKMAMONGEO",
        "type": "DIALOG",
        "aliasList": [
          "10095"
        ],
        "actionId": 236,
        "dialogID": 105000112,
        "protectTime": 2.0
      },
      {
        "$type": "FABLGECDBCH",
        "type": "BODY_LANG",
        "delayTime": 5.183000087738037,
        "aliasList": [
          "10095"
        ],
        "actionId": 237,
        "_flag": 131072,
        "bodyLangParam": 1230,
        "eventPatternSuiteKey": "",
        "FOHHKFAIAAJ": ""
      },
      {
        "$type": "LJLMDHDCAMK",
        "type": "LOOK_AT",
        "delayTime": 6.986999988555908,
        "aliasList": [
          "10095"
        ],
        "actionId": 238,
        "_flag": 64,
        "enableHead": true,
        "headRotateVec": {
          "x": -10.0,
          "y": -15.0
        },
        "headTurnTime": 0.5,
        "targetNpcAlias": "",
        "targetNpcLookAtPoint": "",
        "OAFJBHJHLJG": ""
      },
      {
        "$type": "CPJKOIHIPBE",
        "type": "EMO_SYNC",
        "aliasList": [
          "10095"
        ],
        "actionId": 239,
        "_flag": 256,
        "dataPath": "Cs_Emo_Avatar_Simple_Common_Set/Cs_Emo_Avatar_Talk/Cs_Emo_Avatar_PersonalLine/Cs_Emo_Avatar_MoNa/Cs_Emo_105000112",
        "phonemePath": "",
        "emotionPath": "",
        "mateDataPath": "",
        "matePhonemePath": "",
        "mateEmotionPath": "",
        "enableBlink": false,
        "dataPathHashList": [
          9908542382518269751,
          7118933066716103635,
          5284996167116110213,
          1306153400774020247
        ],
        "FMDPBECPELH": "",
        "ADKBLPOKGIK": ""
      },
      {
        "$type": "FABLGECDBCH",
        "type": "BODY_LANG",
        "aliasList": [
          "10095"
        ],
        "actionId": 240,
        "_flag": 131072,
        "bodyLangParam": 1172,
        "eventPatternSuiteKey": "",
        "FOHHKFAIAAJ": ""
      },
      {
        "$type": "LJLMDHDCAMK",
        "type": "LOOK_AT",
        "aliasList": [
          "10095"
        ],
        "actionId": 241,
        "_flag": 64,
        "enableHead": true,
        "headRotateVec": {
          "y": 5.0
        },
        "headTurnTime": 0.800000011920929,
        "targetNpcAlias": "",
        "targetNpcLookAtPoint": "",
        "OAFJBHJHLJG": ""
      }
    ],
    [
      {
        "$type": "FJKIHHKJLMJ",
        "type": "CAMERA_MOVE",
        "duration": 1.0,
        "actionId": 136,
        "camPosOffset": {
          "x": -223.5850067138672,
          "y": 259.47900390625,
          "z": 295.781005859375
        },
        "camForwardTargetOffset": {
          "x": -222.7989959716797,
          "y": 259.6929931640625,
          "z": 295.2019958496094
        },
        "camFov": 35.0,
        "lerpPattern": 6,
        "cameraBlendType": "EaseInOutCubic",
        "targetNpcAlias": "",
        "KJOEFBPOIIH": "",
        "IICFKKEBIEC": "",
        "EGEHEJEBLBJ": ""
      },
      {
        "$type": "FJKIHHKJLMJ",
        "type": "CAMERA_MOVE",
        "delayTime": 0.05000000074505806,
        "duration": 20.0,
        "actionId": 137,
        "camPosOffset": {
          "x": -223.23199462890625,
          "y": 259.57501220703125,
          "z": 295.52099609375
        },
        "camForwardTargetOffset": {
          "x": -222.4459991455078,
          "y": 259.78900146484375,
          "z": 294.9410095214844
        },
        "camFov": 35.0,
        "lerpPattern": 1,
        "cameraBlendType": "EaseOutQuad",
        "targetNpcAlias": "",
        "KJOEFBPOIIH": "",
        "IICFKKEBIEC": "",
        "EGEHEJEBLBJ": ""
      },
      {
        "$type": "PKKMAMONGEO",
        "type": "DIALOG",
        "aliasList": [
          "10095"
        ],
        "actionId": 242,
        "dialogID": 105000114,
        "protectTime": 2.0
      },
      {
        "$type": "FABLGECDBCH",
        "type": "BODY_LANG",
        "delayTime": 2.440999984741211,
        "aliasList": [
          "10095"
        ],
        "actionId": 243,
        "_flag": 131072,
        "bodyLangParam": 1171,
        "eventPatternSuiteKey": "",
        "FOHHKFAIAAJ": ""
      },
      {
        "$type": "FABLGECDBCH",
        "type": "BODY_LANG",
        "aliasList": [
          "10095"
        ],
        "actionId": 244,
        "_flag": 131072,
        "isContinue": true,
        "bodyLangParam": 1190,
        "eventPatternSuiteKey": "",
        "FOHHKFAIAAJ": ""
      },
      {
        "$type": "LJLMDHDCAMK",
        "type": "LOOK_AT",
        "delayTime": 1.4600000381469727,
        "aliasList": [
          "10095"
        ],
        "actionId": 245,
        "_flag": 64,
        "enableHead": true,
        "headTurnTime": 0.4000000059604645,
        "targetNpcAlias": "Avatar",
        "targetNpcLookAtPoint": "",
        "OAFJBHJHLJG": ""
      },
      {
        "$type": "LJLMDHDCAMK",
        "type": "LOOK_AT",
        "aliasList": [
          "10095"
        ],
        "actionId": 246,
        "_flag": 64,
        "enableHead": true,
        "headRotateVec": {
          "y": 20.0
        },
        "headTurnTime": 0.30000001192092896,
        "targetNpcAlias": "",
        "targetNpcLookAtPoint": "",
        "OAFJBHJHLJG": ""
      },
      {
        "$type": "CPJKOIHIPBE",
        "type": "EMO_SYNC",
        "aliasList": [
          "10095"
        ],
        "actionId": 247,
        "_flag": 256,
        "dataPath": "Cs_Emo_Avatar_Simple_Common_Set/Cs_Emo_Avatar_Talk/Cs_Emo_Avatar_PersonalLine/Cs_Emo_Avatar_MoNa/Cs_Emo_105000114",
        "phonemePath": "",
        "emotionPath": "",
        "mateDataPath": "",
        "matePhonemePath": "",
        "mateEmotionPath": "",
        "dataPathHashList": [
          2913906274594618097,
          9489603401691099842,
          4706103658835295536,
          16128200112428167229
        ],
        "FMDPBECPELH": "",
        "ADKBLPOKGIK": ""
      }
    ],
    [
      {
        "$type": "FJKIHHKJLMJ",
        "type": "CAMERA_MOVE",
        "delayTime": 0.05000000074505806,
        "duration": 20.0,
        "actionId": 138,
        "camPosOffset": {
          "x": -223.23199462890625,
          "y": 259.57501220703125,
          "z": 295.52099609375
        },
        "camForwardTargetOffset": {
          "x": -222.4459991455078,
          "y": 259.78900146484375,
          "z": 294.9410095214844
        },
        "camFov": 35.0,
        "lerpPattern": 1,
        "cameraBlendType": "EaseOutQuad",
        "targetNpcAlias": "",
        "KJOEFBPOIIH": "",
        "IICFKKEBIEC": "",
        "EGEHEJEBLBJ": ""
      },
      {
        "$type": "FJKIHHKJLMJ",
        "type": "CAMERA_MOVE",
        "duration": 1.0,
        "actionId": 139,
        "camPosOffset": {
          "x": -223.5850067138672,
          "y": 259.47900390625,
          "z": 295.781005859375
        },
        "camForwardTargetOffset": {
          "x": -222.7989959716797,
          "y": 259.6929931640625,
          "z": 295.2019958496094
        },
        "camFov": 35.0,
        "lerpPattern": 6,
        "cameraBlendType": "EaseInOutCubic",
        "targetNpcAlias": "",
        "KJOEFBPOIIH": "",
        "IICFKKEBIEC": "",
        "EGEHEJEBLBJ": ""
      },
      {
        "$type": "PKKMAMONGEO",
        "type": "DIALOG",
        "aliasList": [
          "10095"
        ],
        "actionId": 248,
        "dialogID": 105000116,
        "protectTime": 2.0
      },
      {
        "$type": "LJLMDHDCAMK",
        "type": "LOOK_AT",
        "aliasList": [
          "10095"
        ],
        "actionId": 249,
        "_flag": 64,
        "enableHead": true,
        "headRotateVec": {
          "y": 10.0
        },
        "headTurnTime": 0.4000000059604645,
        "targetNpcAlias": "Avatar",
        "targetNpcLookAtPoint": "",
        "OAFJBHJHLJG": ""
      },
      {
        "$type": "FABLGECDBCH",
        "type": "BODY_LANG",
        "aliasList": [
          "10095"
        ],
        "actionId": 250,
        "_flag": 131072,
        "bodyLangParam": 1060,
        "eventPatternSuiteKey": "",
        "FOHHKFAIAAJ": ""
      },
      {
        "$type": "FABLGECDBCH",
        "type": "BODY_LANG",
        "delayTime": 3.5510001182556152,
        "aliasList": [
          "10095"
        ],
        "actionId": 251,
        "_flag": 131072,
        "bodyLangParam": 1230,
        "eventPatternSuiteKey": "",
        "FOHHKFAIAAJ": ""
      },
      {
        "$type": "LJLMDHDCAMK",
        "type": "LOOK_AT",
        "delayTime": 3.739000082015991,
        "aliasList": [
          "10095"
        ],
        "actionId": 252,
        "_flag": 64,
        "enableHead": true,
        "headRotateVec": {
          "y": 20.0
        },
        "targetNpcAlias": "",
        "targetNpcLookAtPoint": "",
        "OAFJBHJHLJG": ""
      },
      {
        "$type": "CPJKOIHIPBE",
        "type": "EMO_SYNC",
        "aliasList": [
          "10095"
        ],
        "actionId": 253,
        "_flag": 256,
        "dataPath": "Cs_Emo_Avatar_Simple_Common_Set/Cs_Emo_Avatar_Talk/Cs_Emo_Avatar_PersonalLine/Cs_Emo_Avatar_MoNa/Cs_Emo_105000116",
        "phonemePath": "",
        "emotionPath": "",
        "mateDataPath": "",
        "matePhonemePath": "",
        "mateEmotionPath": "",
        "dataPathHashList": [
          15515542096190127811,
          2251137024478082219,
          10996889025701852614,
          12859923594134143192
        ],
        "FMDPBECPELH": "",
        "ADKBLPOKGIK": ""
      },
      {
        "$type": "FABLGECDBCH",
        "type": "BODY_LANG",
        "delayTime": 1.8079999685287476,
        "aliasList": [
          "10095"
        ],
        "actionId": 254,
        "_flag": 131072,
        "isContinue": true,
        "eventPatternSuiteKey": "",
        "FOHHKFAIAAJ": ""
      }
    ],
    [
      {
        "$type": "PKKMAMONGEO",
        "type": "DIALOG",
        "aliasList": [
          "10095"
        ],
        "actionId": 255,
        "dialogID": 105000117,
        "protectTime": 2.0
      },
      {
        "$type": "FABLGECDBCH",
        "type": "BODY_LANG",
        "aliasList": [
          "10095"
        ],
        "actionId": 256,
        "_flag": 131072,
        "bodyLangParam": 1120,
        "eventPatternSuiteKey": "",
        "FOHHKFAIAAJ": ""
      },
      {
        "$type": "FABLGECDBCH",
        "type": "BODY_LANG",
        "delayTime": 6.408999919891357,
        "aliasList": [
          "10095"
        ],
        "actionId": 257,
        "_flag": 131072,
        "isContinue": true,
        "eventPatternSuiteKey": "",
        "FOHHKFAIAAJ": ""
      },
      {
        "$type": "CPJKOIHIPBE",
        "type": "EMO_SYNC",
        "aliasList": [
          "10095"
        ],
        "actionId": 258,
        "_flag": 256,
        "dataPath": "Cs_Emo_Avatar_Simple_Common_Set/Cs_Emo_Avatar_Talk/Cs_Emo_Avatar_PersonalLine/Cs_Emo_Avatar_MoNa/Cs_Emo_105000117",
        "phonemePath": "",
        "emotionPath": "",
        "mateDataPath": "",
        "matePhonemePath": "",
        "mateEmotionPath": "",
        "dataPathHashList": [
          9380407642223205713,
          1558063522828845181,
          16505105567769659963,
          16671124752106749966
        ],
        "FMDPBECPELH": "",
        "ADKBLPOKGIK": ""
      },
      {
        "$type": "LJLMDHDCAMK",
        "type": "LOOK_AT",
        "aliasList": [
          "10095"
        ],
        "actionId": 259,
        "_flag": 64,
        "enableHead": true,
        "headTurnTime": 0.4000000059604645,
        "targetNpcAlias": "1005",
        "targetNpcLookAtPoint": "",
        "OAFJBHJHLJG": ""
      },
      {
        "$type": "LJLMDHDCAMK",
        "type": "LOOK_AT",
        "delayTime": 3.5880000591278076,
        "aliasList": [
          "10095"
        ],
        "actionId": 260,
        "_flag": 64,
        "enableHead": true,
        "headTurnTime": 0.4000000059604645,
        "targetNpcAlias": "Avatar",
        "targetNpcLookAtPoint": "",
        "OAFJBHJHLJG": ""
      }
    ],
    [
      {
        "$type": "FJKIHHKJLMJ",
        "type": "CAMERA_MOVE",
        "duration": 1.0,
        "actionId": 140,
        "camPosOffset": {
          "x": -237.17999267578125,
          "y": 259.6839904785156,
          "z": 287.3009948730469
        },
        "camForwardTargetOffset": {
          "x": -236.26300048828125,
          "y": 259.6990051269531,
          "z": 287.697998046875
        },
        "camFov": 15.0,
        "lerpPattern": 6,
        "cameraBlendType": "EaseInOutCubic",
        "targetNpcAlias": "",
        "KJOEFBPOIIH": "",
        "IICFKKEBIEC": "",
        "EGEHEJEBLBJ": ""
      },
      {
        "$type": "FJKIHHKJLMJ",
        "type": "CAMERA_MOVE",
        "delayTime": 0.029999999329447746,
        "duration": 50.0,
        "actionId": 141,
        "camPosOffset": {
          "x": -237.4969940185547,
          "y": 260.15899658203125,
          "z": 288.0830078125
        },
        "camForwardTargetOffset": {
          "x": -236.56199645996094,
          "y": 260.14599609375,
          "z": 288.4360046386719
        },
        "camFov": 15.0,
        "lerpPattern": 1,
        "cameraBlendType": "EaseOutQuad",
        "targetNpcAlias": "",
        "KJOEFBPOIIH": "",
        "IICFKKEBIEC": "",
        "EGEHEJEBLBJ": ""
      },
      {
        "$type": "PKKMAMONGEO",
        "type": "DIALOG",
        "aliasList": [
          "10095"
        ],
        "actionId": 261,
        "dialogID": 105000118,
        "protectTime": 2.0
      },
      {
        "$type": "FABLGECDBCH",
        "type": "BODY_LANG",
        "aliasList": [
          "10095"
        ],
        "actionId": 262,
        "_flag": 131072,
        "bodyLangParam": 1130,
        "eventPatternSuiteKey": "",
        "FOHHKFAIAAJ": ""
      },
      {
        "$type": "FABLGECDBCH",
        "type": "BODY_LANG",
        "delayTime": 5.269999980926514,
        "aliasList": [
          "10095"
        ],
        "actionId": 263,
        "_flag": 131072,
        "bodyLangParam": 4040,
        "eventPatternSuiteKey": "",
        "FOHHKFAIAAJ": ""
      },
      {
        "$type": "CPJKOIHIPBE",
        "type": "EMO_SYNC",
        "aliasList": [
          "10095"
        ],
        "actionId": 264,
        "_flag": 256,
        "dataPath": "Cs_Emo_Avatar_Simple_Common_Set/Cs_Emo_Avatar_Talk/Cs_Emo_Avatar_PersonalLine/Cs_Emo_Avatar_MoNa/Cs_Emo_105000118",
        "phonemePath": "",
        "emotionPath": "",
        "mateDataPath": "",
        "matePhonemePath": "",
        "mateEmotionPath": "",
        "enableBlink": false,
        "dataPathHashList": [
          14765341757292656622,
          10979114247461319343,
          14012984030611397276,
          13729532856003019011
        ],
        "FMDPBECPELH": "",
        "ADKBLPOKGIK": ""
      },
      {
        "$type": "LJLMDHDCAMK",
        "type": "LOOK_AT",
        "aliasList": [
          "10095"
        ],
        "actionId": 265,
        "_flag": 64,
        "enableHead": true,
        "headRotateVec": {
          "y": -10.0
        },
        "targetNpcAlias": "",
        "targetNpcLookAtPoint": "",
        "OAFJBHJHLJG": ""
      }
    ],
    [
      {
        "$type": "HDGKHDNFMIM",
        "type": "DIALOG_SELECT",
        "delayTime": 0.4000000059604645,
        "aliasList": [
          "Avatar"
        ],
        "actionId": 169,
        "dialogIDList": [
          105000918,
          105000920
        ],
        "grpIDList": [
          4286211830,
          4286211831
        ],
        "useGrpId": true,
        "countDownGrpId": 2216474877
      },
      {
        "$type": "PKKMAMONGEO",
        "type": "DIALOG",
        "aliasList": [
          "10095"
        ],
        "actionId": 266,
        "dialogID": 105000119,
        "protectTime": 2.0
      },
      {
        "$type": "FABLGECDBCH",
        "type": "BODY_LANG",
        "aliasList": [
          "10095"
        ],
        "actionId": 267,
        "_flag": 131072,
        "bodyLangParam": 1171,
        "eventPatternSuiteKey": "",
        "FOHHKFAIAAJ": ""
      },
      {
        "$type": "FABLGECDBCH",
        "type": "BODY_LANG",
        "delayTime": 5.570000171661377,
        "aliasList": [
          "10095"
        ],
        "actionId": 268,
        "_flag": 131072,
        "bodyLangParam": 1110,
        "eventPatternSuiteKey": "",
        "FOHHKFAIAAJ": ""
      },
      {
        "$type": "CPJKOIHIPBE",
        "type": "EMO_SYNC",
        "aliasList": [
          "10095"
        ],
        "actionId": 269,
        "_flag": 320,
        "dataPath": "Cs_Emo_Avatar_Simple_Common_Set/Cs_Emo_Avatar_Talk/Cs_Emo_Avatar_PersonalLine/Cs_Emo_Avatar_MoNa/Cs_Emo_105000119",
        "phonemePath": "",
        "emotionPath": "",
        "mateDataPath": "",
        "matePhonemePath": "",
        "mateEmotionPath": "",
        "dataPathHashList": [
          11571063806345904222,
          7732965058435758856,
          17351095726182644223,
          1144926599521969315
        ],
        "FMDPBECPELH": "",
        "ADKBLPOKGIK": ""
      },
      {
        "$type": "LJLMDHDCAMK",
        "type": "LOOK_AT",
        "aliasList": [
          "10095"
        ],
        "actionId": 270,
        "_flag": 64,
        "enableHead": true,
        "headTurnTime": 0.4000000059604645,
        "targetNpcAlias": "Avatar",
        "targetNpcLookAtPoint": "",
        "OAFJBHJHLJG": ""
      },
      {
        "$type": "FABLGECDBCH",
        "type": "BODY_LANG",
        "delayTime": 7.770999908447266,
        "aliasList": [
          "10095"
        ],
        "actionId": 271,
        "_flag": 131072,
        "isContinue": true,
        "eventPatternSuiteKey": "",
        "FOHHKFAIAAJ": ""
      }
    ],
    [
      {
        "$type": "FJKIHHKJLMJ",
        "type": "CAMERA_MOVE",
        "duration": 1.0,
        "actionId": 142,
        "camPosOffset": {
          "x": -221.8820037841797,
          "y": 260.6090087890625,
          "z": 291.4110107421875
        },
        "camForwardTargetOffset": {
          "x": -221.9720001220703,
          "y": 260.4110107421875,
          "z": 292.3869934082031
        },
        "camFov": 15.0,
        "lerpPattern": 6,
        "cameraBlendType": "EaseInOutCubic",
        "targetNpcAlias": "",
        "KJOEFBPOIIH": "",
        "IICFKKEBIEC": "",
        "EGEHEJEBLBJ": ""
      },
      {
        "$type": "LJLMDHDCAMK",
        "type": "LOOK_AT",
        "delayTime": 0.5,
        "aliasList": [
          "Avatar"
        ],
        "actionId": 170,
        "_flag": 64,
        "enableHead": true,
        "headTurnTime": 0.5,
        "targetNpcAlias": "1005",
        "targetNpcLookAtPoint": "",
        "OAFJBHJHLJG": ""
      },
      {
        "$type": "PKKMAMONGEO",
        "type": "DIALOG",
        "aliasList": [
          "1005"
        ],
        "actionId": 196,
        "dialogID": 105000121,
        "protectTime": 2.0
      },
      {
        "$type": "LLGANGLOEEO",
        "type": "STEER_TO",
        "duration": 0.699999988079071,
        "aliasList": [
          "1005"
        ],
        "actionId": 197,
        "_flag": 32,
        "steerDir": {
          "x": 0.017000000923871994,
          "z": -1.0
        },
        "useSteerAnim": true,
        "targetNpcAlias": "",
        "fixInterNull": true,
        "OAFJBHJHLJG": ""
      },
      {
        "$type": "FABLGECDBCH",
        "type": "BODY_LANG",
        "delayTime": 0.7429999709129333,
        "aliasList": [
          "1005"
        ],
        "actionId": 198,
        "_flag": 131072,
        "bodyLangParam": 1190,
        "eventPatternSuiteKey": "",
        "FOHHKFAIAAJ": ""
      },
      {
        "$type": "LJLMDHDCAMK",
        "type": "LOOK_AT",
        "aliasList": [
          "1005"
        ],
        "actionId": 199,
        "_flag": 64,
        "enableHead": true,
        "headTurnTime": 0.4000000059604645,
        "targetNpcAlias": "Avatar",
        "targetNpcLookAtPoint": "",
        "OAFJBHJHLJG": ""
      },
      {
        "$type": "CPJKOIHIPBE",
        "type": "EMO_SYNC",
        "aliasList": [
          "1005"
        ],
        "actionId": 200,
        "_flag": 320,
        "dataPath": "Cs_Emo_Avatar_Simple_Common_Set/Cs_Emo_Avatar_Talk/Cs_Emo_Avatar_PersonalLine/Cs_Emo_Avatar_MoNa/Cs_Emo_105000121",
        "phonemePath": "",
        "emotionPath": "",
        "mateDataPath": "",
        "matePhonemePath": "",
        "mateEmotionPath": "",
        "dataPathHashList": [
          10388485075814037095,
          12071124574125803705,
          17166255192965913834,
          16231732782721041361
        ],
        "FMDPBECPELH": "",
        "ADKBLPOKGIK": ""
      }
    ],
    [
      {
        "$type": "FJKIHHKJLMJ",
        "type": "CAMERA_MOVE",
        "delayTime": 8.529000282287598,
        "duration": 40.0,
        "actionId": 143,
        "camPosOffset": {
          "x": -222.35800170898438,
          "y": 260.0299987792969,
          "z": 293.35198974609375
        },
        "camForwardTargetOffset": {
          "x": -221.468994140625,
          "y": 260.32501220703125,
          "z": 293.70098876953125
        },
        "camFov": 35.0,
        "lerpPattern": 1,
        "cameraBlendType": "EaseOutQuad",
        "targetNpcAlias": "",
        "KJOEFBPOIIH": "",
        "IICFKKEBIEC": "",
        "EGEHEJEBLBJ": ""
      },
      {
        "$type": "FJKIHHKJLMJ",
        "type": "CAMERA_MOVE",
        "delayTime": 1.0,
        "duration": 1.0,
        "actionId": 144,
        "camPosOffset": {
          "x": -222.26300048828125,
          "y": 259.697998046875,
          "z": 293.3909912109375
        },
        "camForwardTargetOffset": {
          "x": -221.37399291992188,
          "y": 259.99200439453125,
          "z": 293.739990234375
        },
        "camFov": 35.0,
        "lerpPattern": 6,
        "cameraBlendType": "EaseInOutCubic",
        "targetNpcAlias": "",
        "KJOEFBPOIIH": "",
        "IICFKKEBIEC": "",
        "EGEHEJEBLBJ": ""
      },
      {
        "$type": "FJKIHHKJLMJ",
        "type": "CAMERA_MOVE",
        "delayTime": 1.100000023841858,
        "duration": 10.0,
        "actionId": 145,
        "camPosOffset": {
          "x": -222.3070068359375,
          "y": 259.8550109863281,
          "z": 293.3680114746094
        },
        "camForwardTargetOffset": {
          "x": -221.41700744628906,
          "y": 260.1499938964844,
          "z": 293.7170104980469
        },
        "camFov": 35.0,
        "lerpPattern": 1,
        "cameraBlendType": "EaseOutQuad",
        "targetNpcAlias": "",
        "KJOEFBPOIIH": "",
        "IICFKKEBIEC": "",
        "EGEHEJEBLBJ": ""
      },
      {
        "$type": "LJLMDHDCAMK",
        "type": "LOOK_AT",
        "delayTime": 0.20000000298023224,
        "aliasList": [
          "Avatar"
        ],
        "actionId": 171,
        "_flag": 64,
        "enableHead": true,
        "headTurnTime": 0.5,
        "targetNpcAlias": "10095",
        "targetNpcLookAtPoint": "",
        "OAFJBHJHLJG": ""
      },
      {
        "$type": "LJLMDHDCAMK",
        "type": "LOOK_AT",
        "delayTime": 0.30000001192092896,
        "aliasList": [
          "1005"
        ],
        "actionId": 201,
        "_flag": 64,
        "enableHead": true,
        "headTurnTime": 0.4000000059604645,
        "targetNpcAlias": "10095",
        "targetNpcLookAtPoint": "",
        "OAFJBHJHLJG": ""
      },
      {
        "$type": "LLGANGLOEEO",
        "type": "STEER_TO",
        "delayTime": 1.4780000448226929,
        "duration": 0.699999988079071,
        "aliasList": [
          "1005"
        ],
        "actionId": 202,
        "_flag": 32,
        "steerDir": {
          "x": 0.4869999885559082,
          "z": -0.8740000128746033
        },
        "useSteerAnim": true,
        "targetNpcAlias": "",
        "fixInterNull": true,
        "OAFJBHJHLJG": ""
      },
      {
        "$type": "PKKMAMONGEO",
        "type": "DIALOG",
        "aliasList": [
          "10095"
        ],
        "actionId": 272,
        "dialogID": 105000123,
        "protectTime": 1.0
      },
      {
        "$type": "FABLGECDBCH",
        "type": "BODY_LANG",
        "aliasList": [
          "10095"
        ],
        "actionId": 273,
        "_flag": 131072,
        "bodyLangParam": 1173,
        "eventPatternSuiteKey": "",
        "FOHHKFAIAAJ": ""
      },
      {
        "$type": "CPJKOIHIPBE",
        "type": "EMO_SYNC",
        "aliasList": [
          "10095"
        ],
        "actionId": 274,
        "_flag": 256,
        "dataPath": "Cs_Emo_Avatar_Simple_Common_Set/Cs_Emo_Avatar_Talk/Cs_Emo_Avatar_PersonalLine/Cs_Emo_Avatar_MoNa/Cs_Emo_105000123",
        "phonemePath": "",
        "emotionPath": "",
        "mateDataPath": "",
        "matePhonemePath": "",
        "mateEmotionPath": "",
        "dataPathHashList": [
          11082754713790339247,
          17330164765358611175,
          8322642050806087881,
          5351912059552600877
        ],
        "FMDPBECPELH": "",
        "ADKBLPOKGIK": ""
      }
    ],
    [
      {
        "$type": "LLGANGLOEEO",
        "type": "STEER_TO",
        "duration": 0.699999988079071,
        "aliasList": [
          "1005"
        ],
        "actionId": 203,
        "_flag": 32,
        "steerDir": {
          "x": 0.4869999885559082,
          "z": -0.8740000128746033
        },
        "targetNpcAlias": "",
        "fixInterNull": true,
        "OAFJBHJHLJG": ""
      },
      {
        "$type": "PKKMAMONGEO",
        "type": "DIALOG",
        "aliasList": [
          "10095"
        ],
        "actionId": 275,
        "dialogID": 105000124,
        "protectTime": 1.0
      },
      {
        "$type": "FABLGECDBCH",
        "type": "BODY_LANG",
        "aliasList": [
          "10095"
        ],
        "actionId": 276,
        "_flag": 131072,
        "bodyLangParam": 1120,
        "eventPatternSuiteKey": "",
        "FOHHKFAIAAJ": ""
      },
      {
        "$type": "LJLMDHDCAMK",
        "type": "LOOK_AT",
        "delayTime": 4.059999942779541,
        "aliasList": [
          "10095"
        ],
        "actionId": 277,
        "_flag": 64,
        "enableHead": true,
        "headRotateVec": {
          "x": -10.0,
          "y": -10.0
        },
        "headTurnTime": 0.5,
        "targetNpcAlias": "",
        "targetNpcLookAtPoint": "",
        "OAFJBHJHLJG": ""
      },
      {
        "$type": "LJLMDHDCAMK",
        "type": "LOOK_AT",
        "aliasList": [
          "10095"
        ],
        "actionId": 278,
        "_flag": 64,
        "enableHead": true,
        "headRotateVec": {
          "y": 30.0
        },
        "headTurnTime": 0.4000000059604645,
        "targetNpcAlias": "",
        "targetNpcLookAtPoint": "",
        "OAFJBHJHLJG": ""
      },
      {
        "$type": "CPJKOIHIPBE",
        "type": "EMO_SYNC",
        "aliasList": [
          "10095"
        ],
        "actionId": 279,
        "_flag": 256,
        "dataPath": "Cs_Emo_Avatar_Simple_Common_Set/Cs_Emo_Avatar_Talk/Cs_Emo_Avatar_PersonalLine/Cs_Emo_Avatar_MoNa/Cs_Emo_105000124",
        "phonemePath": "",
        "emotionPath": "",
        "mateDataPath": "",
        "matePhonemePath": "",
        "mateEmotionPath": "",
        "dataPathHashList": [
          511595849941768260,
          13980001754668914159,
          1283995432329549289,
          3068551746602929475
        ],
        "FMDPBECPELH": "",
        "ADKBLPOKGIK": ""
      }
    ],
    [
      {
        "$type": "HDGKHDNFMIM",
        "type": "DIALOG_SELECT",
        "delayTime": 0.4000000059604645,
        "aliasList": [
          "Avatar"
        ],
        "actionId": 172,
        "dialogIDList": [
          105000924,
          105000925
        ],
        "grpIDList": [
          4286211834,
          4286211834
        ],
        "useGrpId": true,
        "countDownGrpId": 2216474877
      },
      {
        "$type": "LJLMDHDCAMK",
        "type": "LOOK_AT",
        "aliasList": [
          "Avatar"
        ],
        "actionId": 173,
        "_flag": 64,
        "enableHead": true,
        "headTurnTime": 0.5,
        "targetNpcAlias": "10095",
        "targetNpcLookAtPoint": "",
        "OAFJBHJHLJG": ""
      },
      {
        "$type": "PKKMAMONGEO",
        "type": "DIALOG",
        "aliasList": [
          "10095"
        ],
        "actionId": 280,
        "dialogID": 105000125,
        "protectTime": 1.0
      },
      {
        "$type": "LJLMDHDCAMK",
        "type": "LOOK_AT",
        "aliasList": [
          "10095"
        ],
        "actionId": 281,
        "_flag": 64,
        "enableHead": true,
        "headTurnTime": 0.4000000059604645,
        "targetNpcAlias": "Avatar",
        "targetNpcLookAtPoint": "",
        "OAFJBHJHLJG": ""
      },
      {
        "$type": "FABLGECDBCH",
        "type": "BODY_LANG",
        "aliasList": [
          "10095"
        ],
        "actionId": 282,
        "_flag": 131072,
        "isContinue": true,
        "eventPatternSuiteKey": "",
        "FOHHKFAIAAJ": ""
      },
      {
        "$type": "FABLGECDBCH",
        "type": "BODY_LANG",
        "delayTime": 2.7139999866485596,
        "aliasList": [
          "10095"
        ],
        "actionId": 283,
        "_flag": 131072,
        "bodyLangParam": 1130,
        "eventPatternSuiteKey": "",
        "FOHHKFAIAAJ": ""
      },
      {
        "$type": "CPJKOIHIPBE",
        "type": "EMO_SYNC",
        "aliasList": [
          "10095"
        ],
        "actionId": 284,
        "_flag": 256,
        "dataPath": "Cs_Emo_Avatar_Simple_Common_Set/Cs_Emo_Avatar_Talk/Cs_Emo_Avatar_PersonalLine/Cs_Emo_Avatar_MoNa/Cs_Emo_105000125",
        "phonemePath": "",
        "emotionPath": "",
        "mateDataPath": "",
        "matePhonemePath": "",
        "mateEmotionPath": "",
        "enableBlink": false,
        "dataPathHashList": [
          17424647512435905552,
          12266750535193738789,
          17133993822282687295,
          14167626502151833293
        ],
        "FMDPBECPELH": "",
        "ADKBLPOKGIK": ""
      }
    ],
    [
      {
        "$type": "FJKIHHKJLMJ",
        "type": "CAMERA_MOVE",
        "delayTime": 0.05000000074505806,
        "duration": 25.0,
        "actionId": 146,
        "camPosOffset": {
          "x": -221.4199981689453,
          "y": 261.0820007324219,
          "z": 291.0989990234375
        },
        "camForwardTargetOffset": {
          "x": -221.47000122070312,
          "y": 260.739990234375,
          "z": 292.0379943847656
        },
        "camFov": 35.0,
        "lerpPattern": 1,
        "cameraBlendType": "EaseOutQuad",
        "targetNpcAlias": "",
        "KJOEFBPOIIH": "",
        "IICFKKEBIEC": "",
        "EGEHEJEBLBJ": ""
      },
      {
        "$type": "FJKIHHKJLMJ",
        "type": "CAMERA_MOVE",
        "duration": 0.9580000042915344,
        "actionId": 147,
        "camPosOffset": {
          "x": -220.843994140625,
          "y": 261.22900390625,
          "z": 291.18701171875
        },
        "camForwardTargetOffset": {
          "x": -221.03700256347656,
          "y": 260.8399963378906,
          "z": 292.0880126953125
        },
        "camFov": 35.0,
        "lerpPattern": 6,
        "cameraBlendType": "EaseInOutCubic",
        "targetNpcAlias": "",
        "KJOEFBPOIIH": "",
        "IICFKKEBIEC": "",
        "EGEHEJEBLBJ": ""
      },
      {
        "$type": "PKKMAMONGEO",
        "type": "DIALOG",
        "aliasList": [
          "10095"
        ],
        "actionId": 285,
        "dialogID": 105000128,
        "protectTime": 1.0
      },
      {
        "$type": "FABLGECDBCH",
        "type": "BODY_LANG",
        "aliasList": [
          "10095"
        ],
        "actionId": 286,
        "_flag": 131072,
        "bodyLangParam": 1300,
        "eventPatternSuiteKey": "",
        "FOHHKFAIAAJ": ""
      },
      {
        "$type": "FABLGECDBCH",
        "type": "BODY_LANG",
        "delayTime": 2.565000057220459,
        "aliasList": [
          "10095"
        ],
        "actionId": 287,
        "_flag": 131072,
        "bodyLangParam": 1172,
        "eventPatternSuiteKey": "",
        "FOHHKFAIAAJ": ""
      },
      {
        "$type": "CPJKOIHIPBE",
        "type": "EMO_SYNC",
        "aliasList": [
          "10095"
        ],
        "actionId": 288,
        "_flag": 256,
        "dataPath": "Cs_Emo_Avatar_Simple_Common_Set/Cs_Emo_Avatar_Talk/Cs_Emo_Avatar_PersonalLine/Cs_Emo_Avatar_MoNa/Cs_Emo_105000128",
        "phonemePath": "",
        "emotionPath": "",
        "mateDataPath": "",
        "matePhonemePath": "",
        "mateEmotionPath": "",
        "dataPathHashList": [
          15873466711992728059,
          11000363164710127100,
          4280899038346060952,
          2890987914412282421
        ],
        "FMDPBECPELH": "",
        "ADKBLPOKGIK": ""
      }
    ],
    [
      {
        "$type": "PKKMAMONGEO",
        "type": "DIALOG",
        "aliasList": [
          "10095"
        ],
        "actionId": 289,
        "dialogID": 105000129,
        "protectTime": 1.0
      },
      {
        "$type": "FABLGECDBCH",
        "type": "BODY_LANG",
        "aliasList": [
          "10095"
        ],
        "actionId": 290,
        "_flag": 131072,
        "bodyLangParam": 1120,
        "eventPatternSuiteKey": "",
        "FOHHKFAIAAJ": ""
      },
      {
        "$type": "CPJKOIHIPBE",
        "type": "EMO_SYNC",
        "aliasList": [
          "10095"
        ],
        "actionId": 291,
        "_flag": 256,
        "dataPath": "Cs_Emo_Avatar_Simple_Common_Set/Cs_Emo_Avatar_Talk/Cs_Emo_Avatar_PersonalLine/Cs_Emo_Avatar_MoNa/Cs_Emo_105000129",
        "phonemePath": "",
        "emotionPath": "",
        "mateDataPath": "",
        "matePhonemePath": "",
        "mateEmotionPath": "",
        "dataPathHashList": [
          17944310183994918567,
          13833021374218137795,
          14479088611260066665,
          1678933713153354641
        ],
        "FMDPBECPELH": "",
        "ADKBLPOKGIK": ""
      }
    ],
    [
      {
        "$type": "FJKIHHKJLMJ",
        "type": "CAMERA_MOVE",
        "delayTime": 0.004999999888241291,
        "duration": 18.0,
        "actionId": 148,
        "camPosOffset": {
          "x": -221.93800354003906,
          "y": 260.3630065917969,
          "z": 293.75299072265625
        },
        "camForwardTargetOffset": {
          "x": -220.97500610351562,
          "y": 260.614013671875,
          "z": 293.8550109863281
        },
        "camFov": 25.0,
        "lerpPattern": 1,
        "cameraBlendType": "EaseOutQuad",
        "targetNpcAlias": "",
        "KJOEFBPOIIH": "",
        "IICFKKEBIEC": "",
        "EGEHEJEBLBJ": ""
      },
      {
        "$type": "FJKIHHKJLMJ",
        "type": "CAMERA_MOVE",
        "duration": 1.0,
        "actionId": 149,
        "camPosOffset": {
          "x": -222.10699462890625,
          "y": 260.3179931640625,
          "z": 293.7349853515625
        },
        "camForwardTargetOffset": {
          "x": -221.14500427246094,
          "y": 260.57000732421875,
          "z": 293.8380126953125
        },
        "camFov": 25.0,
        "lerpPattern": 6,
        "cameraBlendType": "EaseInOutCubic",
        "targetNpcAlias": "",
        "KJOEFBPOIIH": "",
        "IICFKKEBIEC": "",
        "EGEHEJEBLBJ": ""
      },
      {
        "$type": "PKKMAMONGEO",
        "type": "DIALOG",
        "aliasList": [
          "10095"
        ],
        "actionId": 292,
        "dialogID": 105000130,
        "protectTime": 1.0
      },
      {
        "$type": "FABLGECDBCH",
        "type": "BODY_LANG",
        "delayTime": 2.059999942779541,
        "aliasList": [
          "10095"
        ],
        "actionId": 293,
        "_flag": 131072,
        "isContinue": true,
        "eventPatternSuiteKey": "",
        "FOHHKFAIAAJ": ""
      },
      {
        "$type": "FABLGECDBCH",
        "type": "BODY_LANG",
        "delayTime": 5.254000186920166,
        "aliasList": [
          "10095"
        ],
        "actionId": 294,
        "_flag": 131072,
        "bodyLangParam": 1110,
        "eventPatternSuiteKey": "",
        "FOHHKFAIAAJ": ""
      },
      {
        "$type": "LJLMDHDCAMK",
        "type": "LOOK_AT",
        "aliasList": [
          "10095"
        ],
        "actionId": 295,
        "_flag": 64,
        "enableHead": true,
        "headRotateVec": {
          "y": -10.0
        },
        "headTurnTime": 0.4000000059604645,
        "targetNpcAlias": "",
        "targetNpcLookAtPoint": "",
        "OAFJBHJHLJG": ""
      },
      {
        "$type": "LJLMDHDCAMK",
        "type": "LOOK_AT",
        "delayTime": 5.328999996185303,
        "aliasList": [
          "10095"
        ],
        "actionId": 296,
        "_flag": 64,
        "enableHead": true,
        "headTurnTime": 0.4000000059604645,
        "targetNpcAlias": "Avatar",
        "targetNpcLookAtPoint": "",
        "OAFJBHJHLJG": ""
      },
      {
        "$type": "CPJKOIHIPBE",
        "type": "EMO_SYNC",
        "aliasList": [
          "10095"
        ],
        "actionId": 297,
        "_flag": 256,
        "dataPath": "Cs_Emo_Avatar_Simple_Common_Set/Cs_Emo_Avatar_Talk/Cs_Emo_Avatar_PersonalLine/Cs_Emo_Avatar_MoNa/Cs_Emo_105000130",
        "phonemePath": "",
        "emotionPath": "",
        "mateDataPath": "",
        "matePhonemePath": "",
        "mateEmotionPath": "",
        "dataPathHashList": [
          13937377146210317074,
          1515443597433885307,
          11254245753650826417,
          7850858560009356648
        ],
        "FMDPBECPELH": "",
        "ADKBLPOKGIK": ""
      }
    ],
    [
      {
        "$type": "FJKIHHKJLMJ",
        "type": "CAMERA_MOVE",
        "delayTime": 5.919000148773193,
        "duration": 5.0,
        "actionId": 150,
        "camPosOffset": {
          "x": -221.66299438476562,
          "y": 260.47900390625,
          "z": 293.7619934082031
        },
        "camForwardTargetOffset": {
          "x": -220.69500732421875,
          "y": 260.7040100097656,
          "z": 293.8739929199219
        },
        "camFov": 25.0,
        "lerpPattern": 1,
        "cameraBlendType": "EaseOutQuad",
        "targetNpcAlias": "",
        "KJOEFBPOIIH": "",
        "IICFKKEBIEC": "",
        "EGEHEJEBLBJ": ""
      },
      {
        "$type": "FJKIHHKJLMJ",
        "type": "CAMERA_MOVE",
        "delayTime": 4.894999980926514,
        "duration": 1.5149999856948853,
        "actionId": 151,
        "camPosOffset": {
          "x": -221.73800659179688,
          "y": 260.46600341796875,
          "z": 293.7550048828125
        },
        "camForwardTargetOffset": {
          "x": -220.77000427246094,
          "y": 260.6910095214844,
          "z": 293.86700439453125
        },
        "camFov": 25.0,
        "lerpPattern": 1,
        "cameraBlendType": "EaseOutQuad",
        "targetNpcAlias": "",
        "KJOEFBPOIIH": "",
        "IICFKKEBIEC": "",
        "EGEHEJEBLBJ": ""
      },
      {
        "$type": "PKKMAMONGEO",
        "type": "DIALOG",
        "aliasList": [
          "10095"
        ],
        "actionId": 298,
        "dialogID": 105000131,
        "protectTime": 1.0
      },
      {
        "$type": "FABLGECDBCH",
        "type": "BODY_LANG",
        "aliasList": [
          "10095"
        ],
        "actionId": 299,
        "_flag": 131072,
        "bodyLangParam": 1230,
        "eventPatternSuiteKey": "",
        "FOHHKFAIAAJ": ""
      },
      {
        "$type": "FABLGECDBCH",
        "type": "BODY_LANG",
        "delayTime": 4.915999889373779,
        "aliasList": [
          "10095"
        ],
        "actionId": 300,
        "_flag": 131072,
        "bodyLangParam": 1172,
        "eventPatternSuiteKey": "",
        "FOHHKFAIAAJ": ""
      },
      {
        "$type": "FABLGECDBCH",
        "type": "BODY_LANG",
        "delayTime": 3.4649999141693115,
        "aliasList": [
          "10095"
        ],
        "actionId": 301,
        "_flag": 131072,
        "isContinue": true,
        "eventPatternSuiteKey": "",
        "FOHHKFAIAAJ": ""
      },
      {
        "$type": "CPJKOIHIPBE",
        "type": "EMO_SYNC",
        "aliasList": [
          "10095"
        ],
        "actionId": 302,
        "_flag": 320,
        "dataPath": "Cs_Emo_Avatar_Simple_Common_Set/Cs_Emo_Avatar_Talk/Cs_Emo_Avatar_PersonalLine/Cs_Emo_Avatar_MoNa/Cs_Emo_105000131",
        "phonemePath": "",
        "emotionPath": "",
        "mateDataPath": "",
        "matePhonemePath": "",
        "mateEmotionPath": "",
        "dataPathHashList": [
          4259573911467401064,
          5150306116808094437,
          14569239420501376183,
          11648390276340963384
        ],
        "FMDPBECPELH": "",
        "ADKBLPOKGIK": ""
      }
    ],
    [
      {
        "$type": "FJKIHHKJLMJ",
        "type": "CAMERA_MOVE",
        "delayTime": 0.05000000074505806,
        "duration": 10.0,
        "actionId": 152,
        "camPosOffset": {
          "x": -221.8800048828125,
          "y": 260.16400146484375,
          "z": 293.34100341796875
        },
        "camForwardTargetOffset": {
          "x": -222.16200256347656,
          "y": 260.06201171875,
          "z": 294.2950134277344
        },
        "camFov": 35.0,
        "lerpPattern": 1,
        "cameraBlendType": "EaseOutQuad",
        "targetNpcAlias": "",
        "KJOEFBPOIIH": "",
        "IICFKKEBIEC": "",
        "EGEHEJEBLBJ": ""
      },
      {
        "$type": "FJKIHHKJLMJ",
        "type": "CAMERA_MOVE",
        "duration": 1.0,
        "actionId": 153,
        "camPosOffset": {
          "x": -221.8769989013672,
          "y": 260.0369873046875,
          "z": 293.3280029296875
        },
        "camForwardTargetOffset": {
          "x": -222.15899658203125,
          "y": 259.9339904785156,
          "z": 294.2820129394531
        },
        "camFov": 35.0,
        "lerpPattern": 6,
        "cameraBlendType": "EaseInOutCubic",
        "targetNpcAlias": "",
        "KJOEFBPOIIH": "",
        "IICFKKEBIEC": "",
        "EGEHEJEBLBJ": ""
      },
      {
        "$type": "HDGKHDNFMIM",
        "type": "DIALOG_SELECT",
        "delayTime": 0.4000000059604645,
        "aliasList": [
          "Avatar"
        ],
        "actionId": 174,
        "dialogIDList": [
          105000133,
          105000134
        ],
        "grpIDList": [
          4286211860,
          4286211860
        ],
        "useGrpId": true,
        "countDownGrpId": 2216474877
      },
      {
        "$type": "LJLMDHDCAMK",
        "type": "LOOK_AT",
        "delayTime": 1.0,
        "aliasList": [
          "Avatar"
        ],
        "actionId": 175,
        "_flag": 64,
        "enableHead": true,
        "headTurnTime": 0.5,
        "targetNpcAlias": "1005",
        "targetNpcLookAtPoint": "",
        "OAFJBHJHLJG": ""
      },
      {
        "$type": "PKKMAMONGEO",
        "type": "DIALOG",
        "aliasList": [
          "1005"
        ],
        "actionId": 204,
        "dialogID": 105000132,
        "protectTime": 2.0
      },
      {
        "$type": "FABLGECDBCH",
        "type": "BODY_LANG",
        "delayTime": 1.3919999599456787,
        "aliasList": [
          "1005"
        ],
        "actionId": 205,
        "_flag": 131072,
        "bodyLangParam": 1060,
        "eventPatternSuiteKey": "",
        "FOHHKFAIAAJ": ""
      },
      {
        "$type": "LJLMDHDCAMK",
        "type": "LOOK_AT",
        "delayTime": 0.800000011920929,
        "aliasList": [
          "1005"
        ],
        "actionId": 206,
        "_flag": 64,
        "enableHead": true,
        "headTurnTime": 0.30000001192092896,
        "targetNpcAlias": "Avatar",
        "targetNpcLookAtPoint": "",
        "OAFJBHJHLJG": ""
      },
      {
        "$type": "CPJKOIHIPBE",
        "type": "EMO_SYNC",
        "aliasList": [
          "1005"
        ],
        "actionId": 207,
        "_flag": 320,
        "dataPath": "Cs_Emo_Avatar_Simple_Common_Set/Cs_Emo_Avatar_Talk/Cs_Emo_Avatar_PersonalLine/Cs_Emo_Avatar_MoNa/Cs_Emo_105000132",
        "phonemePath": "",
        "emotionPath": "",
        "mateDataPath": "",
        "matePhonemePath": "",
        "mateEmotionPath": "",
        "dataPathHashList": [
          16831113390636319030,
          7866397812394943423,
          18322587715446935697,
          11894845877788195682
        ],
        "FMDPBECPELH": "",
        "ADKBLPOKGIK": ""
      },
      {
        "$type": "LLGANGLOEEO",
        "type": "STEER_TO",
        "duration": 0.800000011920929,
        "aliasList": [
          "1005"
        ],
        "actionId": 208,
        "_flag": 32,
        "steerDir": {
          "x": -0.1340000033378601,
          "z": -0.9909999966621399
        },
        "useSteerAnim": true,
        "targetNpcAlias": "",
        "fixInterNull": true,
        "OAFJBHJHLJG": ""
      }
    ],
    [
      {
        "$type": "FJKIHHKJLMJ",
        "type": "CAMERA_MOVE",
        "delayTime": 0.3499999940395355,
        "duration": 30.0,
        "actionId": 154,
        "camPosOffset": {
          "x": -220.1529998779297,
          "y": 260.9670104980469,
          "z": 292.89599609375
        },
        "camForwardTargetOffset": {
          "x": -220.8249969482422,
          "y": 260.5950012207031,
          "z": 293.5360107421875
        },
        "camFov": 25.0,
        "lerpPattern": 1,
        "cameraBlendType": "EaseOutQuad",
        "targetNpcAlias": "",
        "KJOEFBPOIIH": "",
        "IICFKKEBIEC": "",
        "EGEHEJEBLBJ": ""
      },
      {
        "$type": "FJKIHHKJLMJ",
        "type": "CAMERA_MOVE",
        "delayTime": 0.30000001192092896,
        "duration": 1.0,
        "actionId": 155,
        "camPosOffset": {
          "x": -220.1269989013672,
          "y": 260.54901123046875,
          "z": 292.93798828125
        },
        "camForwardTargetOffset": {
          "x": -220.84100341796875,
          "y": 260.302001953125,
          "z": 293.5929870605469
        },
        "camFov": 25.0,
        "lerpPattern": 6,
        "cameraBlendType": "EaseInOutCubic",
        "targetNpcAlias": "",
        "KJOEFBPOIIH": "",
        "IICFKKEBIEC": "",
        "EGEHEJEBLBJ": ""
      },
      {
        "$type": "LJLMDHDCAMK",
        "type": "LOOK_AT",
        "delayTime": 0.18299999833106995,
        "aliasList": [
          "Avatar"
        ],
        "actionId": 176,
        "_flag": 64,
        "enableHead": true,
        "headTurnTime": 0.30000001192092896,
        "targetNpcAlias": "10095",
        "targetNpcLookAtPoint": "",
        "OAFJBHJHLJG": ""
      },
      {
        "$type": "LJLMDHDCAMK",
        "type": "LOOK_AT",
        "delayTime": 0.20000000298023224,
        "aliasList": [
          "1005"
        ],
        "actionId": 209,
        "_flag": 64,
        "enableHead": true,
        "headTurnTime": 0.30000001192092896,
        "targetNpcAlias": "10095",
        "targetNpcLookAtPoint": "",
        "OAFJBHJHLJG": ""
      },
      {
        "$type": "FABLGECDBCH",
        "type": "BODY_LANG",
        "aliasList": [
          "1005"
        ],
        "actionId": 210,
        "_flag": 131072,
        "isContinue": true,
        "eventPatternSuiteKey": "",
        "FOHHKFAIAAJ": ""
      },
      {
        "$type": "PKKMAMONGEO",
        "type": "DIALOG",
        "aliasList": [
          "10095"
        ],
        "actionId": 303,
        "dialogID": 105000135,
        "protectTime": 1.0
      },
      {
        "$type": "FABLGECDBCH",
        "type": "BODY_LANG",
        "aliasList": [
          "10095"
        ],
        "actionId": 304,
        "_flag": 131072,
        "bodyLangParam": 1220,
        "eventPatternSuiteKey": "",
        "FOHHKFAIAAJ": ""
      },
      {
        "$type": "FABLGECDBCH",
        "type": "BODY_LANG",
        "delayTime": 2.75600004196167,
        "aliasList": [
          "10095"
        ],
        "actionId": 305,
        "_flag": 131072,
        "bodyLangParam": 1172,
        "eventPatternSuiteKey": "",
        "FOHHKFAIAAJ": ""
      },
      {
        "$type": "LJLMDHDCAMK",
        "type": "LOOK_AT",
        "aliasList": [
          "10095"
        ],
        "actionId": 306,
        "_flag": 64,
        "enableHead": true,
        "headTurnTime": 0.4000000059604645,
        "targetNpcAlias": "Avatar",
        "targetNpcLookAtPoint": "",
        "OAFJBHJHLJG": ""
      },
      {
        "$type": "CPJKOIHIPBE",
        "type": "EMO_SYNC",
        "aliasList": [
          "10095"
        ],
        "actionId": 307,
        "_flag": 256,
        "dataPath": "Cs_Emo_Avatar_Simple_Common_Set/Cs_Emo_Avatar_Talk/Cs_Emo_Avatar_PersonalLine/Cs_Emo_Avatar_MoNa/Cs_Emo_105000135",
        "phonemePath": "",
        "emotionPath": "",
        "mateDataPath": "",
        "matePhonemePath": "",
        "mateEmotionPath": "",
        "dataPathHashList": [
          1881739806282773459,
          12383069784675638352,
          14883132112612335533,
          9279583989629917807
        ],
        "FMDPBECPELH": "",
        "ADKBLPOKGIK": ""
      },
      {
        "$type": "LLGANGLOEEO",
        "type": "STEER_TO",
        "delayTime": 4.638000011444092,
        "duration": 1.0,
        "aliasList": [
          "10095"
        ],
        "actionId": 308,
        "_flag": 32,
        "steerDir": {
          "x": 0.7730000019073486,
          "z": -0.6340000033378601
        },
        "useSteerAnim": true,
        "targetNpcAlias": "",
        "fixInterNull": true,
        "OAFJBHJHLJG": ""
      },
      {
        "$type": "FABLGECDBCH",
        "type": "BODY_LANG",
        "delayTime": 4.020999908447266,
        "aliasList": [
          "10095"
        ],
        "actionId": 309,
        "_flag": 131072,
        "isContinue": true,
        "eventPatternSuiteKey": "",
        "FOHHKFAIAAJ": ""
      },
      {
        "$type": "LJLMDHDCAMK",
        "type": "LOOK_AT",
        "delayTime": 5.770999908447266,
        "aliasList": [
          "10095"
        ],
        "actionId": 310,
        "_flag": 64,
        "enableHead": true,
        "headTurnTime": 0.30000001192092896,
        "targetNpcAlias": "",
        "targetNpcLookAtPoint": "",
        "OAFJBHJHLJG": ""
      }
    ],
    [
      {
        "$type": "PKKMAMONGEO",
        "type": "DIALOG",
        "aliasList": [
          "10095"
        ],
        "actionId": 311,
        "dialogID": 105000136,
        "protectTime": 1.0
      },
      {
        "$type": "FABLGECDBCH",
        "type": "BODY_LANG",
        "aliasList": [
          "10095"
        ],
        "actionId": 312,
        "_flag": 131072,
        "isContinue": true,
        "eventPatternSuiteKey": "",
        "FOHHKFAIAAJ": ""
      },
      {
        "$type": "LJLMDHDCAMK",
        "type": "LOOK_AT",
        "aliasList": [
          "10095"
        ],
        "actionId": 313,
        "_flag": 64,
        "enableHead": true,
        "headRotateVec": {
          "x": 20.0,
          "y": 10.0
        },
        "headTurnTime": 0.5,
        "targetNpcAlias": "",
        "targetNpcLookAtPoint": "",
        "OAFJBHJHLJG": ""
      },
      {
        "$type": "CPJKOIHIPBE",
        "type": "EMO_SYNC",
        "aliasList": [
          "10095"
        ],
        "actionId": 314,
        "_flag": 320,
        "dataPath": "Cs_Emo_Avatar_Simple_Common_Set/Cs_Emo_Avatar_Talk/Cs_Emo_Avatar_PersonalLine/Cs_Emo_Avatar_MoNa/Cs_Emo_105000136",
        "phonemePath": "",
        "emotionPath": "",
        "mateDataPath": "",
        "matePhonemePath": "",
        "mateEmotionPath": "",
        "dataPathHashList": [
          16790351595146400845,
          1048659078784862465,
          1370040001041206720,
          503577459850062461
        ],
        "FMDPBECPELH": "",
        "ADKBLPOKGIK": ""
      }
    ],
    [
      {
        "$type": "MoleMole.Config.ConfigSimpleBlackScreenAction",
        "type": "SIMPLE_BLACK_SCREEN",
        "duration": 1.5,
        "actionId": 156,
        "durationToBlack": 0.4000000059604645,
        "durationKeepBlack": 0.4000000059604645,
        "durationFromBlack": 0.699999988079071,
        "textMapID": ""
      },
      {
        "$type": "MoleMole.Config.ConfigTimeProtectAction",
        "type": "TIME_PROTECT",
        "duration": 1.5,
        "actionId": 157
      },
      {
        "$type": "FJKIHHKJLMJ",
        "type": "CAMERA_MOVE",
        "delayTime": 0.5,
        "duration": 0.5,
        "actionId": 158,
        "cameraPosType": "EXIT",
        "camForwardTargetOffset": {
          "z": 1.0
        },
        "lerpPattern": 6,
        "cameraBlendType": "EaseInOutCubic",
        "targetNpcAlias": "",
        "KJOEFBPOIIH": "",
        "IICFKKEBIEC": "",
        "EGEHEJEBLBJ": ""
      },
      {
        "$type": "MoleMole.Config.ConfigVisibleInterAction",
        "type": "VISIBLE",
        "delayTime": 0.5,
        "aliasList": [
          "10095"
        ],
        "actionId": 315,
        "_extraParam": ""
      }
    ]
  ],
  "groupId": [
    {
      "grpId": 2216474878,
      "nextGrpId": 2216474879,
      "_noCircleNextGrpId": 2216474879
    },
    {
      "index": 1,
      "grpId": 2216474879,
      "nextGrpId": 2216474880,
      "_noCircleNextGrpId": 2216474880
    },
    {
      "index": 2,
      "grpId": 2216474880,
      "nextGrpId": 2216474881,
      "_noCircleNextGrpId": 2216474881
    },
    {
      "index": 3,
      "grpId": 2216474881,
      "nextGrpId": 2216474882,
      "_noCircleNextGrpId": 2216474882
    },
    {
      "index": 4,
      "grpId": 2216474882,
      "nextGrpId": 2216474883,
      "_noCircleNextGrpId": 2216474883
    },
    {
      "index": 5,
      "grpId": 2216474883,
      "nextGrpId": 2216474884,
      "_noCircleNextGrpId": 2216474884
    },
    {
      "index": 6,
      "grpId": 2216474884,
      "nextGrpId": 2216474885,
      "_noCircleNextGrpId": 2216474885
    },
    {
      "index": 7,
      "grpId": 2216474885,
      "nextGrpId": 2216474886,
      "_noCircleNextGrpId": 2216474886
    },
    {
      "index": 8,
      "grpId": 2216474886,
      "nextGrpId": 4286211827,
      "_noCircleNextGrpId": 4286211827
    },
    {
      "index": 9,
      "grpId": 4286211826,
      "nextGrpId": 4286211827,
      "_noCircleNextGrpId": 4286211827
    },
    {
      "index": 10,
      "grpId": 4286211827,
      "nextGrpId": 4286211828,
      "_noCircleNextGrpId": 4286211828
    },
    {
      "index": 11,
      "grpId": 4286211828,
      "nextGrpId": 4286211829,
      "_noCircleNextGrpId": 4286211829
    },
    {
      "index": 12,
      "grpId": 4286211829,
      "nextGrpId": 4286211830,
      "_noCircleNextGrpId": 4286211831
    },
    {
      "index": 13,
      "grpId": 4286211830,
      "nextGrpId": 4286211831,
      "_noCircleNextGrpId": 4286211831
    },
    {
      "index": 14,
      "grpId": 4286211831,
      "nextGrpId": 4286211832,
      "_noCircleNextGrpId": 4286211832
    },
    {
      "index": 15,
      "grpId": 4286211832,
      "nextGrpId": 4286211833,
      "_noCircleNextGrpId": 4286211833
    },
    {
      "index": 16,
      "grpId": 4286211833,
      "nextGrpId": 4286211834,
      "_noCircleNextGrpId": 4286211834
    },
    {
      "index": 17,
      "grpId": 4286211834,
      "nextGrpId": 4286211835,
      "_noCircleNextGrpId": 4286211835
    },
    {
      "index": 18,
      "grpId": 4286211835,
      "nextGrpId": 4286211857,
      "_noCircleNextGrpId": 4286211857
    },
    {
      "index": 19,
      "grpId": 4286211857,
      "nextGrpId": 4286211858,
      "_noCircleNextGrpId": 4286211858
    },
    {
      "index": 20,
      "grpId": 4286211858,
      "nextGrpId": 4286211859,
      "_noCircleNextGrpId": 4286211859
    },
    {
      "index": 21,
      "grpId": 4286211859,
      "nextGrpId": 4286211860,
      "_noCircleNextGrpId": 4286211860
    },
    {
      "index": 22,
      "grpId": 4286211860,
      "nextGrpId": 4286211861,
      "_noCircleNextGrpId": 4286211861
    },
    {
      "index": 23,
      "grpId": 4286211861,
      "nextGrpId": 4286211862,
      "_noCircleNextGrpId": 4286211862
    },
    {
      "index": 24,
      "grpId": 4286211862,
      "nextGrpId": 4286211863,
      "_noCircleNextGrpId": 4286211863
    }
  ],
  "freeStyleDic": {
    "10095": [
      1171,
      1130,
      1172,
      1220,
      1230,
      1190,
      1060,
      1120,
      4040,
      1110,
      1173,
      1300
    ]
  },
  "NPFDEBDMHJP": 4286211862
}