{
  "luaDataPath": "",
  "dontUseDefaultFinish": true,
  "entityBan": "",
  "disableNpcLod": true,
  "protectNpcMobileLod": true,
  "talkFlag": 7,
  "startFade": {
    "startFadeOutDuration": 0.0
  },
  "endFade": {
    "startFadeOutDuration": 0.0
  },
  "actors": [
    {
      "alias": "Avatar",
      "visible": true,
      "bornPointName": "",
      "relativePosType": "AVATAR_NEW",
      "relativePosNpcAlias": "",
      "_bindMovingTargetKey": ""
    },
    {
      "configID": 13507,
      "alias": "13507",
      "visible": true,
      "bornPointName": "",
      "relativePosType": "AVATAR_NEW",
      "relativePosNpcAlias": "",
      "_bindMovingTargetKey": ""
    }
  ],
  "group": [
    [
      {
        "$type": "FJKIHHKJLMJ",
        "type": "CAMERA_FOCUS",
        "duration": 0.10000000149011612,
        "actionId": 103,
        "targetNpcAlias": "",
        "KJOEFBPOIIH": "",
        "IICFKKEBIEC": "",
        "EGEHEJEBLBJ": ""
      },
      {
        "$type": "MoleMole.Config.ConfigTimeProtectAction",
        "type": "TIME_PROTECT",
        "duration": 0.10000000149011612,
        "actionId": 104
      },
      {
        "$type": "LLGANGLOEEO",
        "type": "STEER_TO",
        "delayTime": 0.30000001192092896,
        "duration": 0.800000011920929,
        "aliasList": [
          "Avatar"
        ],
        "actionId": 127,
        "_flag": 32,
        "steerType": "TO_TARGET_ADVANCED",
        "useSteerAnim": true,
        "interruptFreestyle": true,
        "forceSteer": true,
        "targetNpcAlias": "13507",
        "fixInterNull": true,
        "OAFJBHJHLJG": ""
      },
      {
        "$type": "LLGANGLOEEO",
        "type": "STEER_TO",
        "delayTime": 0.30000001192092896,
        "duration": 0.800000011920929,
        "aliasList": [
          "13507"
        ],
        "actionId": 132,
        "_flag": 32,
        "steerType": "TO_LOCAL_AVATAR_ADVANCED",
        "useSteerAnim": true,
        "interruptFreestyle": true,
        "forceSteer": true,
        "targetNpcAlias": "",
        "fixInterNull": true,
        "OAFJBHJHLJG": ""
      }
    ],
    [
      {
        "$type": "PKKMAMONGEO",
        "type": "DIALOG",
        "aliasList": [
          "13507"
        ],
        "actionId": 107,
        "dialogID": 240140801,
        "protectTime": 0.5
      },
      {
        "$type": "HDGKHDNFMIM",
        "type": "DIALOG_SELECT",
        "delayTime": 0.4000000059604645,
        "aliasList": [
          "Avatar"
        ],
        "actionId": 108,
        "dialogIDList": [
          240140802,
          240140803
        ],
        "grpIDList": [
          496997580,
          496997580
        ],
        "useGrpId": true,
        "countDownGrpId": 496997577
      }
    ],
    [
      {
        "$type": "PKKMAMONGEO",
        "type": "DIALOG",
        "aliasList": [
          "13507"
        ],
        "actionId": 110,
        "dialogID": 240140804,
        "protectTime": 0.5
      }
    ],
    [
      {
        "$type": "PKKMAMONGEO",
        "type": "DIALOG",
        "aliasList": [
          "13507"
        ],
        "actionId": 112,
        "dialogID": 240140805,
        "protectTime": 0.5
      },
      {
        "$type": "FABLGECDBCH",
        "type": "BODY_LANG",
        "aliasList": [
          "13507"
        ],
        "actionId": 130,
        "randomParamList": [
          1171
        ],
        "forceDoFreeStyle": true,
        "canDoRepeatFreeStyle": false,
        "eventPatternSuiteKey": "",
        "FOHHKFAIAAJ": ""
      }
    ],
    [
      {
        "$type": "PKKMAMONGEO",
        "type": "DIALOG",
        "aliasList": [
          "13507"
        ],
        "actionId": 114,
        "dialogID": 240140806,
        "protectTime": 0.5
      }
    ],
    [
      {
        "$type": "PKKMAMONGEO",
        "type": "DIALOG",
        "aliasList": [
          "13507"
        ],
        "actionId": 116,
        "dialogID": 240140807,
        "protectTime": 0.5
      }
    ],
    [
      {
        "$type": "PKKMAMONGEO",
        "type": "DIALOG",
        "aliasList": [
          "13507"
        ],
        "actionId": 118,
        "dialogID": 240140808,
        "protectTime": 0.5
      }
    ],
    [
      {
        "$type": "PKKMAMONGEO",
        "type": "DIALOG",
        "aliasList": [
          "13507"
        ],
        "actionId": 120,
        "dialogID": 240140809,
        "protectTime": 0.5
      },
      {
        "$type": "FABLGECDBCH",
        "type": "BODY_LANG",
        "aliasList": [
          "13507"
        ],
        "actionId": 131,
        "randomParamList": [
          1172
        ],
        "forceDoFreeStyle": true,
        "canDoRepeatFreeStyle": false,
        "eventPatternSuiteKey": "",
        "FOHHKFAIAAJ": ""
      }
    ],
    [
      {
        "$type": "PKKMAMONGEO",
        "type": "DIALOG",
        "aliasList": [
          "13507"
        ],
        "actionId": 122,
        "dialogID": 240140810,
        "protectTime": 0.5
      }
    ],
    [
      {
        "$type": "PKKMAMONGEO",
        "type": "DIALOG",
        "aliasList": [
          "13507"
        ],
        "actionId": 124,
        "dialogID": 240140811,
        "protectTime": 0.5
      }
    ],
    [
      {
        "$type": "PKKMAMONGEO",
        "type": "DIALOG",
        "aliasList": [
          "13507"
        ],
        "actionId": 126,
        "dialogID": 240140812,
        "protectTime": 0.5
      }
    ],
    [
      {
        "$type": "MoleMole.Config.ConfigTimeProtectAction",
        "type": "TIME_PROTECT",
        "duration": 0.10000000149011612,
        "actionId": 105
      }
    ]
  ],
  "groupId": [
    {
      "grpId": 496997578,
      "nextGrpId": 496997579
    },
    {
      "index": 1,
      "grpId": 496997579,
      "nextGrpId": 496997580
    },
    {
      "index": 2,
      "grpId": 496997580,
      "nextGrpId": 496997581
    },
    {
      "index": 3,
      "grpId": 496997581,
      "nextGrpId": 496997582
    },
    {
      "index": 4,
      "grpId": 496997582,
      "nextGrpId": 496997583
    },
    {
      "index": 5,
      "grpId": 496997583,
      "nextGrpId": 496997584
    },
    {
      "index": 6,
      "grpId": 496997584,
      "nextGrpId": 496997585
    },
    {
      "index": 7,
      "grpId": 496997585,
      "nextGrpId": 496997586
    },
    {
      "index": 8,
      "grpId": 496997586,
      "nextGrpId": 2522023078
    },
    {
      "index": 9,
      "grpId": 2522023078,
      "nextGrpId": 2522023079
    },
    {
      "index": 10,
      "grpId": 2522023079,
      "nextGrpId": 2522023080
    },
    {
      "index": 11,
      "grpId": 2522023080,
      "nextGrpId": 2522023081
    }
  ],
  "freeStyleDic": {
    "13507": [
      1171,
      1172
    ]
  }
}