{
  "common": {
    "effectAttachShape": {
      "$type": "FJNPJANPGGC",
      "mesh": "EffectMesh"
    },
    "mass": 10.0,
    "height": 1.7926000356674194,
    "modelHeight": 1.7861000299453735,
    "affectedByWorld": true,
    "checkInSurface": true
  },
  "headControl": {
    "$type": "KPIPDEBDPIH",
    "useHeadControl": true,
    "animStates": [
      "NormalStandby",
      "NormalMove/WalkToRun",
      "NormalMove/Walk",
      "NormalMove/RunToWalk",
      "NormalMove/Run",
      "NormalMove/RunToIdle",
      "NormalMove/WalkToIdle",
      "NormalMove/RunningTurn",
      "NormalMove/SprintToRun",
      "NormalMove/SprintToIdle",
      "Sprint",
      "Climb/ClimbIdle",
      "Ladder/LadderIdle",
      "Swim/SwimIdle",
      "NormalStandbyWeapon",
      "NormalMoveWeapon/WalkToRunWeapon",
      "NormalMoveWeapon/WalkWeapon",
      "NormalMoveWeapon/RunToWalkWeapon",
      "NormalMoveWeapon/RunWeapon",
      "NormalMoveWeapon/RunToIdleWeapon",
      "NormalMoveWeapon/WalkToIdleWeapon",
      "NormalMoveWeapon/RunningTurnWeapon"
    ]
  },
  "specialPoint": {
    "elementAbsorb": "PRIVATE_Pendant",
    "elementPendant": "PRIVATE_Pendant",
    "elementDrop": "RootNode",
    "bulletAim": "RootNode"
  },
  "combat": {
    "property": {
      "endureType": "Avatar_Sword",
      "weight": 75.0
    },
    "beHit": {
      "hitBloodEffect": ""
    },
    "combatLock": {
      "lockShape": "CircleLockEnemyClose",
      "lockWeightYaxisParam": 0.20000000298023224,
      "lockWeightYaxisThreshold": 2.0,
      "lockType": "Avatar&Monster_Lv4"
    },
    "die": {
      "hasAnimatorDie": true,
      "dieEndTime": 1.5,
      "dieForceDisappearTime": 2.5,
      "dieDisappearEffect": "Eff_Death_Avatar_Common",
      "dieShaderData": "AvatarDie",
      "useRagDoll": true,
      "ragDollDieEndTimeDelay": 0.4000000059604645
    },
    "animEvents": {
      "ATK01": {
        "attackPattern": {
          "$type": "GMDIMKKHACA",
          "triggerType": "TriggerNoRepeat",
          "born": {
            "$type": "IAENDIPDFKD",
            "offset": {
              "KGEPIMHBMOL": 0.0,
              "JEBHCGDPFEJ": 0.0,
              "LPCHALMFFOD": 1.100000023841858
            }
          },
          "height": 2.700000047683716,
          "OAHPDLJIADP": 1.7000000476837158
        },
        "attackInfo": {
          "attackTag": "NormalAttack_01",
          "attenuationTag": "NormalAttack",
          "attenuationGroup": "default",
          "attackProperty": {
            "actorGrassSubHurtDelta": 0.0,
            "actorWindSubHurtDelta": 0.0,
            "IPFJJJGABPL": 25.0,
            "overrideByWeapon": true,
            "strikeType": "Slash",
            "enBreak": 56.599998474121094,
            "attackType": "Melee",
            "GLKMCMDJBIK": 0.0
          },
          "hitPattern": {
            "onHitEffectName": "default",
            "hitImpulseY": "",
            "hitImpulseType": "LV3",
            "hitHaltTime": 0.029999999329447746,
            "hitHaltTimeScale": 0.009999999776482582,
            "canBeDefenceHalt": true
          },
          "cameraShake": {
            "shakeType": "CustomVector",
            "shakeRange": 0.11999999731779099,
            "shakeTime": 0.11999999731779099,
            "shakeDistance": 30.0,
            "shakeDir": {
              "x": 1.0,
              "y": 1.0
            }
          }
        }
      },
      "ATK02": {
        "attackPattern": {
          "$type": "GMDIMKKHACA",
          "triggerType": "TriggerNoRepeat",
          "born": {
            "$type": "IAENDIPDFKD",
            "offset": {
              "KGEPIMHBMOL": 0.0,
              "JEBHCGDPFEJ": 0.0,
              "LPCHALMFFOD": 1.2999999523162842
            }
          },
          "height": 2.0999999046325684,
          "OAHPDLJIADP": 1.899999976158142
        },
        "attackInfo": {
          "attackTag": "NormalAttack_02",
          "attenuationTag": "NormalAttack",
          "attenuationGroup": "default",
          "attackProperty": {
            "actorGrassSubHurtDelta": 0.0,
            "actorWindSubHurtDelta": 0.0,
            "IPFJJJGABPL": 25.0,
            "overrideByWeapon": true,
            "strikeType": "Slash",
            "enBreak": 54.0,
            "attackType": "Melee",
            "GLKMCMDJBIK": 0.0
          },
          "hitPattern": {
            "onHitEffectName": "default",
            "hitImpulseY": "",
            "hitImpulseType": "LV3",
            "hitHaltTime": 0.029999999329447746,
            "hitHaltTimeScale": 0.009999999776482582,
            "canBeDefenceHalt": true
          },
          "cameraShake": {
            "shakeType": "CustomVector",
            "shakeRange": 0.11999999731779099,
            "shakeTime": 0.11999999731779099,
            "shakeDistance": 30.0,
            "shakeDir": {
              "x": -1.0,
              "y": 0.5770000219345093
            }
          }
        }
      },
      "ATK03_01": {
        "attackPattern": {
          "$type": "GMDIMKKHACA",
          "triggerType": "TriggerNoRepeat",
          "born": {
            "$type": "IAENDIPDFKD",
            "offset": {
              "KGEPIMHBMOL": 0.0,
              "JEBHCGDPFEJ": 0.0,
              "LPCHALMFFOD": 1.2000000476837158
            }
          },
          "height": 2.0,
          "OAHPDLJIADP": 2.0999999046325684
        },
        "attackInfo": {
          "attackTag": "NormalAttack_03",
          "attenuationTag": "NormalAttack",
          "attenuationGroup": "default",
          "attackProperty": {
            "actorGrassSubHurtDelta": 0.0,
            "actorWindSubHurtDelta": 0.0,
            "IPFJJJGABPL": 25.0,
            "overrideByWeapon": true,
            "strikeType": "Slash",
            "enBreak": 35.79999923706055,
            "attackType": "Melee",
            "GLKMCMDJBIK": 0.0
          },
          "hitPattern": {
            "onHitEffectName": "default",
            "hitImpulseY": "",
            "hitImpulseType": "LV3",
            "overrideHitImpulse": {
              "hitLevel": "Heavy",
              "IMIJMPGJOGG": 300.0,
              "BPCDKKBKOBM": 0.0
            },
            "hitHaltTime": 0.029999999329447746,
            "hitHaltTimeScale": 0.009999999776482582,
            "canBeDefenceHalt": true
          }
        }
      },
      "ATK03_02": {
        "attackPattern": {
          "$type": "GMDIMKKHACA",
          "triggerType": "TriggerNoRepeat",
          "born": {
            "$type": "IAENDIPDFKD",
            "offset": {
              "KGEPIMHBMOL": 0.0,
              "JEBHCGDPFEJ": 0.0,
              "LPCHALMFFOD": 1.2000000476837158
            }
          },
          "height": 2.0,
          "OAHPDLJIADP": 2.0999999046325684
        },
        "attackInfo": {
          "attackTag": "NormalAttack_03",
          "attenuationTag": "NormalAttack",
          "attenuationGroup": "default",
          "attackProperty": {
            "actorGrassSubHurtDelta": 0.0,
            "actorWindSubHurtDelta": 0.0,
            "IPFJJJGABPL": 25.0,
            "overrideByWeapon": true,
            "strikeType": "Slash",
            "enBreak": 35.79999923706055,
            "attackType": "Melee",
            "GLKMCMDJBIK": 0.0
          },
          "hitPattern": {
            "onHitEffectName": "default",
            "hitImpulseY": "",
            "hitImpulseType": "LV3",
            "overrideHitImpulse": {
              "hitLevel": "Heavy",
              "IMIJMPGJOGG": 300.0,
              "BPCDKKBKOBM": 0.0
            },
            "retreatType": "ByAttackerForward",
            "hitHaltTime": 0.029999999329447746,
            "hitHaltTimeScale": 0.009999999776482582,
            "canBeDefenceHalt": true
          },
          "cameraShake": {
            "shakeType": "CustomVector",
            "shakeRange": 0.11999999731779099,
            "shakeTime": 0.11999999731779099,
            "shakeDistance": 30.0,
            "shakeDir": {
              "x": -1.0,
              "y": 0.5770000219345093
            }
          }
        }
      },
      "ATK04_01": {
        "attackPattern": {
          "$type": "JHKEHNJBMOF",
          "triggerType": "TriggerNoRepeat",
          "massiveAttackRatio": 0.4000000059604645,
          "born": {
            "$type": "IAENDIPDFKD",
            "offset": {
              "KGEPIMHBMOL": 0.0,
              "JEBHCGDPFEJ": 1.2999999523162842,
              "LPCHALMFFOD": 0.0
            },
            "useRotation": true
          },
          "size": {
            "KGEPIMHBMOL": 5.0,
            "JEBHCGDPFEJ": 2.0,
            "LPCHALMFFOD": 3.5
          }
        },
        "attackInfo": {
          "attackTag": "NormalAttack_04",
          "attenuationTag": "NormalAttack",
          "attenuationGroup": "default",
          "attackProperty": {
            "actorGrassSubHurtDelta": 0.0,
            "actorWindSubHurtDelta": 0.0,
            "IPFJJJGABPL": 25.0,
            "overrideByWeapon": true,
            "strikeType": "Slash",
            "enBreak": 24.233999252319336,
            "attackType": "Melee",
            "GLKMCMDJBIK": 0.0
          },
          "hitPattern": {
            "onHitEffectName": "default",
            "hitImpulseY": "",
            "hitImpulseType": "LV2",
            "hitHaltTime": 0.019999999552965164,
            "hitHaltTimeScale": 0.05000000074505806,
            "canBeDefenceHalt": true
          }
        }
      },
      "ATK04_02": {
        "attackPattern": {
          "$type": "JHKEHNJBMOF",
          "triggerType": "TriggerNoRepeat",
          "massiveAttackRatio": 0.4000000059604645,
          "born": {
            "$type": "IAENDIPDFKD",
            "offset": {
              "KGEPIMHBMOL": 0.0,
              "JEBHCGDPFEJ": 1.2999999523162842,
              "LPCHALMFFOD": 0.0
            },
            "useRotation": true
          },
          "size": {
            "KGEPIMHBMOL": 5.0,
            "JEBHCGDPFEJ": 2.0,
            "LPCHALMFFOD": 3.0
          }
        },
        "attackInfo": {
          "attackTag": "NormalAttack_04",
          "attenuationTag": "NormalAttack",
          "attenuationGroup": "default",
          "attackProperty": {
            "actorGrassSubHurtDelta": 0.0,
            "actorWindSubHurtDelta": 0.0,
            "IPFJJJGABPL": 25.0,
            "overrideByWeapon": true,
            "strikeType": "Slash",
            "enBreak": 24.233999252319336,
            "attackType": "Melee",
            "GLKMCMDJBIK": 0.0
          },
          "hitPattern": {
            "onHitEffectName": "default",
            "hitImpulseY": "",
            "hitImpulseType": "LV3",
            "hitHaltTime": 0.019999999552965164,
            "hitHaltTimeScale": 0.05000000074505806,
            "canBeDefenceHalt": true
          }
        }
      },
      "ATK04_03": {
        "attackPattern": {
          "$type": "JHKEHNJBMOF",
          "triggerType": "TriggerNoRepeat",
          "massiveAttackRatio": 0.4000000059604645,
          "born": {
            "$type": "IAENDIPDFKD",
            "offset": {
              "KGEPIMHBMOL": 0.0,
              "JEBHCGDPFEJ": 1.2999999523162842,
              "LPCHALMFFOD": 0.0
            },
            "useRotation": true
          },
          "size": {
            "KGEPIMHBMOL": 5.0,
            "JEBHCGDPFEJ": 2.0,
            "LPCHALMFFOD": 3.0
          }
        },
        "attackInfo": {
          "attackTag": "NormalAttack_04",
          "attenuationTag": "NormalAttack",
          "attenuationGroup": "default",
          "attackProperty": {
            "actorGrassSubHurtDelta": 0.0,
            "actorWindSubHurtDelta": 0.0,
            "IPFJJJGABPL": 25.0,
            "overrideByWeapon": true,
            "strikeType": "Slash",
            "enBreak": 24.233999252319336,
            "attackType": "Melee",
            "GLKMCMDJBIK": 0.0
          },
          "hitPattern": {
            "onHitEffectName": "default",
            "hitImpulseY": "",
            "hitImpulseType": "LV3",
            "hitHaltTime": 0.019999999552965164,
            "hitHaltTimeScale": 0.05000000074505806,
            "canBeDefenceHalt": true
          },
          "cameraShake": {
            "shakeType": "CustomVector",
            "shakeRange": 0.23999999463558197,
            "shakeTime": 0.11999999731779099,
            "shakeDistance": 30.0,
            "shakeDir": {
              "x": 1.0,
              "y": 0.5770000219345093
            }
          }
        }
      },
      "ATK05_01": {
        "attackPattern": {
          "$type": "GMDIMKKHACA",
          "triggerType": "TriggerNoRepeat",
          "born": {
            "$type": "IAENDIPDFKD",
            "offset": {
              "KGEPIMHBMOL": 0.0,
              "JEBHCGDPFEJ": 0.0,
              "LPCHALMFFOD": 1.399999976158142
            }
          },
          "height": 3.5,
          "OAHPDLJIADP": 2.5
        },
        "attackInfo": {
          "attackTag": "NormalAttack_05",
          "attenuationTag": "NormalAttack",
          "attenuationGroup": "default",
          "attackProperty": {
            "actorGrassSubHurtDelta": 0.0,
            "actorWindSubHurtDelta": 0.0,
            "IPFJJJGABPL": 25.0,
            "overrideByWeapon": true,
            "strikeType": "Slash",
            "enBreak": 94.19999694824219,
            "attackType": "Melee",
            "GLKMCMDJBIK": 0.0
          },
          "hitPattern": {
            "onHitEffectName": "default",
            "hitImpulseY": "",
            "hitImpulseType": "LV5",
            "hitHaltTime": 0.029999999329447746,
            "hitHaltTimeScale": 0.05000000074505806,
            "canBeDefenceHalt": true
          },
          "cameraShake": {
            "shakeType": "CustomVector",
            "shakeRange": 0.36000001430511475,
            "shakeTime": 0.11999999731779099,
            "shakeDistance": 30.0,
            "shakeDir": {
              "x": -1.0
            }
          }
        }
      },
      "ATK05_02": {
        "attackPattern": {
          "$type": "GMDIMKKHACA",
          "triggerType": "TriggerNoRepeat",
          "born": {
            "$type": "IAENDIPDFKD",
            "offset": {
              "KGEPIMHBMOL": 0.0,
              "JEBHCGDPFEJ": 0.0,
              "LPCHALMFFOD": 1.399999976158142
            }
          },
          "height": 3.5,
          "OAHPDLJIADP": 2.5
        },
        "attackInfo": {
          "attackTag": "NormalAttack_05",
          "attenuationTag": "NormalAttack",
          "attenuationGroup": "default",
          "attackProperty": {
            "actorGrassSubHurtDelta": 0.0,
            "actorWindSubHurtDelta": 0.0,
            "IPFJJJGABPL": 25.0,
            "overrideByWeapon": true,
            "strikeType": "Slash",
            "enBreak": 94.19999694824219,
            "attackType": "Melee",
            "GLKMCMDJBIK": 0.0
          },
          "hitPattern": {
            "onHitEffectName": "default",
            "hitImpulseY": "",
            "hitImpulseType": "LV5",
            "hitHaltTime": 0.029999999329447746,
            "hitHaltTimeScale": 0.05000000074505806,
            "canBeDefenceHalt": true
          },
          "cameraShake": {
            "shakeType": "CustomVector",
            "shakeRange": 0.36000001430511475,
            "shakeTime": 0.11999999731779099,
            "shakeDistance": 30.0,
            "shakeDir": {
              "x": -1.0
            }
          }
        }
      },
      "ATK05_03": {
        "attackPattern": {
          "$type": "GMDIMKKHACA",
          "triggerType": "TriggerNoRepeat",
          "born": {
            "$type": "IAENDIPDFKD",
            "offset": {
              "KGEPIMHBMOL": 0.0,
              "JEBHCGDPFEJ": 0.0,
              "LPCHALMFFOD": 1.399999976158142
            }
          },
          "height": 3.5,
          "OAHPDLJIADP": 2.5
        },
        "attackInfo": {
          "attackTag": "NormalAttack_05",
          "attenuationTag": "NormalAttack",
          "attenuationGroup": "default",
          "attackProperty": {
            "actorGrassSubHurtDelta": 0.0,
            "actorWindSubHurtDelta": 0.0,
            "IPFJJJGABPL": 25.0,
            "overrideByWeapon": true,
            "strikeType": "Slash",
            "enBreak": 94.19999694824219,
            "attackType": "Melee",
            "GLKMCMDJBIK": 0.0
          },
          "hitPattern": {
            "onHitEffectName": "default",
            "hitImpulseY": "",
            "hitImpulseType": "LV5",
            "hitHaltTime": 0.11999999731779099,
            "hitHaltTimeScale": 0.05000000074505806,
            "canBeDefenceHalt": true
          },
          "cameraShake": {
            "shakeType": "CustomVector",
            "shakeRange": 0.36000001430511475,
            "shakeTime": 0.10000000149011612,
            "shakeDistance": 30.0,
            "shakeDir": {
              "x": -1.0
            }
          }
        }
      },
      "ExtraAttack_2": {
        "attackPattern": {
          "$type": "GMDIMKKHACA",
          "triggerType": "TriggerNoRepeat",
          "born": {
            "$type": "IAENDIPDFKD",
            "offset": {
              "KGEPIMHBMOL": 0.0,
              "JEBHCGDPFEJ": 0.0,
              "LPCHALMFFOD": 0.0
            }
          },
          "height": 2.5,
          "fanAngle": 120.0,
          "OAHPDLJIADP": 4.099999904632568
        },
        "attackInfo": {
          "attackTag": "ExtraAttack",
          "attenuationTag": "NormalAttack",
          "attenuationGroup": "default",
          "attackProperty": {
            "actorGrassSubHurtDelta": 0.0,
            "actorWindSubHurtDelta": 0.0,
            "IPFJJJGABPL": 25.0,
            "overrideByWeapon": true,
            "strikeType": "Default",
            "enBreak": 120.0,
            "attackType": "Melee",
            "GLKMCMDJBIK": 0.0
          },
          "hitPattern": {
            "onHitEffectName": "default",
            "hitImpulseY": "",
            "hitImpulseType": "LV7",
            "overrideHitImpulse": {
              "hitLevel": "Air",
              "IMIJMPGJOGG": 250.0,
              "BPCDKKBKOBM": 650.0
            },
            "hitHaltTimeScale": 0.019999999552965164
          }
        }
      }
    }
  },
  "equipController": {
    "sheathPoint": "WeaponBackPut",
    "dissolveSheathFadeDelay": 0.07500000298023224,
    "dissolveSheathFadeTime": 2.0999999046325684,
    "attachPoints": {
      "equip01": "WeaponR",
      "equip02": "WeaponL",
      "equip03": "WeaponL"
    }
  },
  "abilities": [
    {
      "abilityID": "Avatar_Clorinde_ExtraAttack",
      "abilityName": "Avatar_Clorinde_ExtraAttack",
      "abilityOverride": ""
    },
    {
      "abilityID": "Avatar_Clorinde_ElementalArt_Activate",
      "abilityName": "Avatar_Clorinde_ElementalArt_Activate",
      "abilityOverride": ""
    },
    {
      "abilityID": "Avatar_Clorinde_ElementalArt_GunShot",
      "abilityName": "Avatar_Clorinde_ElementalArt_GunShot",
      "abilityOverride": ""
    },
    {
      "abilityID": "Avatar_Clorinde_ElementalArt_Dodge_Input",
      "abilityName": "Avatar_Clorinde_ElementalArt_Dodge_Input",
      "abilityOverride": ""
    },
    {
      "abilityID": "Avatar_Clorinde_ElementalArt_Dodge",
      "abilityName": "Avatar_Clorinde_ElementalArt_Dodge",
      "abilityOverride": ""
    },
    {
      "abilityID": "Avatar_Clorinde_ElementalBurst_Camera",
      "abilityName": "Avatar_Clorinde_ElementalBurst_Camera",
      "abilityOverride": ""
    },
    {
      "abilityID": "Avatar_Clorinde_ElementalBurst_Activate",
      "abilityName": "Avatar_Clorinde_ElementalBurst_Activate",
      "abilityOverride": ""
    },
    {
      "abilityID": "Avatar_Clorinde_FallingAnthem",
      "abilityName": "Avatar_Clorinde_FallingAnthem",
      "abilityOverride": ""
    },
    {
      "abilityID": "Avatar_Clorinde_Damage_Handler",
      "abilityName": "Avatar_Clorinde_Damage_Handler",
      "abilityOverride": ""
    },
    {
      "abilityID": "Avatar_Clorinde_Talent_PassiveSkill",
      "abilityName": "Avatar_Clorinde_Talent_PassiveSkill",
      "abilityOverride": ""
    },
    {
      "abilityID": "Avatar_Clorinde_Constellation_PassiveSkill",
      "abilityName": "Avatar_Clorinde_Constellation_PassiveSkill",
      "abilityOverride": ""
    }
  ],
  "stateLayers": {
    "defaultLayer": {
      "$type": "GBGJJIIEMBD",
      "layerIndexName": "",
      "CPAANEIJCGD": "",
      "stateIDs": {
        "NormalStandby": {
          "$type": "KBOPIKLCBOA",
          "animatorStates": {
            "Standby": []
          },
          "canDoSkill": true,
          "massRatio": 100.0,
          "setAnimatorBoolean": [
            {
              "name": "&CanUseSkill"
            }
          ],
          "canChangeAvatar": [
            {}
          ],
          "animatorTriggerOnLanded": "",
          "sheatheOnStart": true
        },
        "NormalMove": {
          "$type": "KBOPIKLCBOA",
          "animatorStates": {
            "ShowUp": [
              "Audio_Lady_Showup"
            ],
            "WalkToRun": [
              "Audio_Lady_WalkToRun"
            ],
            "Walk": [
              "Ani_WalkSprint01",
              "Audio_Lady_Walk",
              "WalkStepOnWater"
            ],
            "RunToWalk": [
              "Audio_Lady_RunToWalk"
            ],
            "Run": [
              "Ani_Run01",
              "Audio_Lady_Run"
            ],
            "RunToIdle": [
              "Audio_Lady_RunToIdle"
            ],
            "WalkToIdle": [
              "Audio_Lady_WalkToIdle"
            ],
            "RunningTurn": [],
            "SprintToRun": [
              "Audio_Lady_SprintToRun"
            ],
            "SprintToIdle": [
              "Audio_Lady_SprintToIdle",
              "Emo_Lady_Sprint_AS"
            ],
            "FallOnGround": [
              "Audio_Lady_FallOnGround"
            ],
            "FallOnGroundLit": [
              "Audio_Lady_FallOnGroundLit"
            ],
            "FallToGroundRun": [
              "Audio_Lady_FallToGroundRun"
            ],
            "FallToGroundRunHard": [
              "Audio_Lady_FallToGroundRunHard"
            ],
            "FallToGroundSprint": [
              "Audio_Lady_FallToGroundSprint"
            ]
          },
          "canDoSkill": true,
          "massRatio": 1.0,
          "setAnimatorBoolean": [
            {
              "name": "&CanUseSkill"
            }
          ],
          "canChangeAvatar": [
            {}
          ],
          "animatorTriggerOnLanded": "",
          "sheatheOnStart": true
        },
        "SprintBS": {
          "$type": "KBOPIKLCBOA",
          "animatorStates": {
            "SprintBS": [
              "Audio_Lady_RunToSprint",
              "SprintBS_Invincible",
              "Emo_Lady_Sprint_BS"
            ]
          },
          "canDoSkill": true,
          "resetAnimatorTriggerOnEnter": [
            "DoSkill",
            "AimEnd"
          ],
          "setAnimatorBoolean": [
            {
              "name": "&CanUseSkill",
              "normalizeStart": 0.25999999046325684
            }
          ],
          "canChangeAvatar": [
            {
              "normalizeStart": 0.25999999046325684
            }
          ],
          "animatorTriggerOnLanded": "",
          "sheatheOnStart": true
        },
        "Sprint": {
          "$type": "KBOPIKLCBOA",
          "animatorStates": {
            "Sprint": [
              "Ani_WalkSprint01",
              "Audio_Lady_Sprint",
              "Emo_Lady_Sprint_Loop"
            ]
          },
          "canDoSkill": true,
          "massRatio": 1.0,
          "setAnimatorBoolean": [
            {
              "name": "&CanUseSkill"
            }
          ],
          "canChangeAvatar": [
            {}
          ],
          "animatorTriggerOnLanded": "",
          "sheatheOnStart": true
        },
        "SkiffNormal": {
          "$type": "KBOPIKLCBOA",
          "animatorStates": {
            "SkiffNormal": []
          },
          "massRatio": 100.0,
          "resetAnimatorTriggerOnExit": [
            "BeHit",
            "DoSkill",
            "Jump"
          ],
          "animatorTriggerOnLanded": "",
          "sheatheOnStart": true
        },
        "Climb": {
          "$type": "KBOPIKLCBOA",
          "animatorStates": {
            "ClimbMove0": [
              "ClimbStep",
              "Audio_Lady_Climb",
              "Audio_Lady_Sword_Clorinde_ClimbMove0"
            ],
            "ClimbMove1": [
              "ClimbStep",
              "Audio_Lady_Climb"
            ],
            "ClimbIdle": [],
            "ClimbJump": [
              "Audio_Lady_ClimbDash"
            ],
            "JumpUpWallForStandby": [
              "Audio_Lady_JumpUpWallStandby"
            ],
            "Standby2ClimbB": [
              "Audio_Lady_Standby2ClimbB"
            ]
          },
          "resetAnimatorTriggerOnEnter": [
            "DoSkill"
          ],
          "actionPanelState": "Climb",
          "animatorTriggerOnLanded": "",
          "sheatheOnStart": true
        },
        "ClimbTransient": {
          "$type": "KBOPIKLCBOA",
          "animatorStates": {
            "JumpWallReady": [
              "Audio_Lady_JumpUpWallReady"
            ],
            "Standby2ClimbA": [
              "Audio_Lady_Standby2ClimbA"
            ]
          },
          "resetAnimatorTriggerOnEnter": [
            "DoSkill"
          ],
          "animatorTriggerOnLanded": "",
          "sheatheOnStart": true
        },
        "Upstairs": {
          "$type": "KBOPIKLCBOA",
          "animatorStates": {
            "Upstairs": [
              "Audio_Lady_Upstairs"
            ]
          },
          "resetAnimatorTriggerOnEnter": [
            "DoSkill"
          ],
          "setAnimatorBoolean": [
            {
              "name": "&CanUseSkill"
            }
          ],
          "animatorTriggerOnLanded": "",
          "sheatheOnStart": true
        },
        "Slip": {
          "$type": "KBOPIKLCBOA",
          "animatorStates": {
            "SlipFaceWall": [],
            "SlipBackWall": []
          },
          "resetAnimatorTriggerOnEnter": [
            "DoSkill"
          ],
          "animatorTriggerOnLanded": "",
          "sheatheOnStart": true
        },
        "Swim": {
          "$type": "KBOPIKLCBOA",
          "animatorStates": {
            "SwimIdle": [
              "Audio_Lady_SwimIdle"
            ],
            "SwimMove": [
              "SwimStep",
              "Audio_Lady_SwimMove"
            ],
            "SwimDash": [
              "Audio_Lady_SwimDash",
              "Avatar_Lady_SwimDash_Hand_Effect"
            ],
            "SwimJumpToWater": [
              "Audio_Lady_SwimJumpToWater"
            ]
          },
          "resetAnimatorTriggerOnEnter": [
            "DoSkill"
          ],
          "actionPanelState": "Swim",
          "animatorTriggerOnLanded": "",
          "sheatheOnStart": true
        },
        "Fly": {
          "$type": "KBOPIKLCBOA",
          "animatorStates": {
            "Fly": [],
            "FlyStart": [
              "Audio_Lady_FlyStart",
              "FlyStart_Weapon"
            ]
          },
          "canDoSkill": true,
          "resetAnimatorTriggerOnEnter": [
            "DoSkill"
          ],
          "setAnimatorBoolean": [
            {
              "name": "&CanUseAirSkill"
            }
          ],
          "actionPanelState": "Fly",
          "animatorTriggerOnLanded": "",
          "sheatheOnStart": true
        },
        "Jump": {
          "$type": "KBOPIKLCBOA",
          "animatorStates": {
            "Jump": [
              "Audio_Lady_Jump"
            ],
            "JumpForRun": [
              "Audio_Lady_Jump"
            ],
            "JumpForWalk": [
              "Audio_Lady_Jump"
            ],
            "JumpForSprint": [
              "Audio_Lady_Jump"
            ]
          },
          "canDoSkill": true,
          "resetAnimatorTriggerOnEnter": [
            "DoSkill",
            "AimEnd"
          ],
          "setAnimatorBoolean": [
            {
              "name": "&CanUseAirSkill"
            }
          ],
          "actionPanelState": "Jump",
          "animatorTriggerOnLanded": "",
          "sheatheOnStart": true
        },
        "Fall": {
          "$type": "KBOPIKLCBOA",
          "animatorStates": {
            "JumpOffWall": [
              "Audio_Lady_Jump"
            ],
            "SwimJump": [
              "Audio_Lady_SwimJump"
            ],
            "SwimJumpDrop": [],
            "DropDown": [
              "Audio_Lady_DropDown"
            ],
            "DropDownLit": [],
            "WalkDropDownLit": []
          },
          "canDoSkill": true,
          "resetAnimatorTriggerOnEnter": [
            "DoSkill"
          ],
          "setAnimatorBoolean": [
            {
              "name": "&CanUseAirSkill"
            }
          ],
          "animatorTriggerOnLanded": "",
          "sheatheOnStart": true
        },
        "NormalStandbyWeapon": {
          "$type": "KBOPIKLCBOA",
          "animatorStates": {
            "StandbyWeapon": []
          },
          "canDoSkill": true,
          "massRatio": 100.0,
          "setAnimatorBoolean": [
            {
              "name": "&CanUseSkill"
            }
          ],
          "canChangeAvatar": [
            {}
          ],
          "animatorTriggerOnLanded": "",
          "battouOnStart": true
        },
        "NormalMoveWeapon": {
          "$type": "KBOPIKLCBOA",
          "animatorStates": {
            "WalkToRunWeapon": [
              "Audio_Lady_WalkToRun"
            ],
            "WalkWeapon": [
              "Audio_Lady_Walk"
            ],
            "RunToWalkWeapon": [
              "Audio_Lady_RunToWalk"
            ],
            "RunWeapon": [
              "Audio_Lady_Run"
            ],
            "RunToIdleWeapon": [
              "Audio_Lady_RunToIdle"
            ],
            "WalkToIdleWeapon": [],
            "RunningTurnWeapon": [],
            "FallOnGroundWeapon": [
              "Audio_Lady_FallOnGround"
            ],
            "FallOnGroundLitWeapon": [
              "Audio_Lady_FallOnGroundLit"
            ],
            "FallOnGroundMiddleWeapon": [
              "Audio_Lady_FallOnGroundMiddle"
            ],
            "FallToGroundRunWeapon": [
              "Audio_Lady_FallToGroundRun"
            ],
            "FallToGroundRunHardWeapon": [
              "Audio_Lady_FallToGroundRunHard"
            ]
          },
          "canDoSkill": true,
          "massRatio": 2.0,
          "setAnimatorBoolean": [
            {
              "name": "&CanUseSkill"
            }
          ],
          "canChangeAvatar": [
            {}
          ],
          "animatorTriggerOnLanded": "",
          "battouOnStart": true
        },
        "NormalMoveWeaponPutaway": {
          "$type": "KBOPIKLCBOA",
          "animatorStates": {
            "StandbyPutaway": [
              "Lady_Sword_Putaway_Standby",
              "Audio_Lady_Sword_StandbyPutAway"
            ],
            "WalkPutaway": [
              "Lady_Sword_Putaway_Walk",
              "Audio_Lady_Sword_WalkPutAway"
            ],
            "RunPutaway": [
              "Lady_Sword_Putaway_Run",
              "Audio_Lady_Sword_RunPutAway"
            ],
            "RunToSprintWeapon": [
              "Lady_Sword_Putaway_Sprint",
              "Audio_Lady_Sword_RunToSprintWeapon"
            ]
          },
          "canDoSkill": true,
          "massRatio": 2.0,
          "setAnimatorBoolean": [
            {
              "name": "&CanUseSkill"
            }
          ],
          "canChangeAvatar": [
            {}
          ],
          "animatorTriggerOnLanded": "",
          "battouOnStart": true
        },
        "NormalMoveWeaponOver": {
          "$type": "KBOPIKLCBOA",
          "animatorStates": {
            "StandbyPutawayOver": [],
            "WalkPutawayOver": [],
            "RunPutawayOver": [
              "Audio_Lady_Sword_RunPutAwayOver"
            ],
            "RunToSprintWeaponOver": [
              "Audio_Lady_Sword_RunToSprintWeaponOver"
            ]
          },
          "canDoSkill": true,
          "massRatio": 2.0,
          "setAnimatorBoolean": [
            {
              "name": "&CanUseSkill"
            }
          ],
          "canChangeAvatar": [
            {}
          ],
          "animatorTriggerOnLanded": "",
          "sheatheOnStart": true
        },
        "JumpWeapon": {
          "$type": "KBOPIKLCBOA",
          "animatorStates": {
            "JumpWeapon": [
              "Audio_Lady_Jump"
            ],
            "JumpForRunWeapon": [
              "Audio_Lady_Jump"
            ],
            "JumpForWalkWeapon": [
              "Audio_Lady_Jump"
            ]
          },
          "canDoSkill": true,
          "resetAnimatorTriggerOnEnter": [
            "DoSkill"
          ],
          "setAnimatorBoolean": [
            {
              "name": "&CanUseAirSkill"
            }
          ],
          "canChangeAvatar": [
            {}
          ],
          "actionPanelState": "Jump",
          "animatorTriggerOnLanded": "",
          "battouOnStart": true
        },
        "FallWeapon": {
          "$type": "KBOPIKLCBOA",
          "animatorStates": {
            "DropDownWeapon": [],
            "DropDownLitWeapon": [],
            "WalkDropDownLitWeapon": []
          },
          "canDoSkill": true,
          "resetAnimatorTriggerOnEnter": [
            "DoSkill"
          ],
          "setAnimatorBoolean": [
            {
              "name": "&CanUseAirSkill"
            }
          ],
          "actionPanelState": "Fly",
          "animatorTriggerOnLanded": "",
          "battouOnStart": true
        },
        "BeHit": {
          "$type": "KBOPIKLCBOA",
          "animatorStates": {
            "Hit_L": [
              "Audio_Lady_Hit_L"
            ],
            "Hit_H": [
              "Audio_Lady_Hit_H"
            ]
          },
          "MOKBIKEEHMJ": "combatMove",
          "resetAnimatorTriggerOnEnter": [
            "BeHit",
            "HitAir2HitDrop"
          ],
          "resetAnimatorTriggerOnExit": [
            "DoSkill"
          ],
          "cameraType": "combatBeHit",
          "jumpCancelEnd": 0.0,
          "animatorTriggerOnLanded": "",
          "battouOnStart": true
        },
        "HitThrow": {
          "$type": "KBOPIKLCBOA",
          "animatorStates": {
            "Hit_Throw_Ground": [
              "BeHitAir_Weapon",
              "Audio_Lady_HitThrowGround"
            ]
          },
          "MOKBIKEEHMJ": "combatMove",
          "resetAnimatorTriggerOnEnter": [
            "BeHit",
            "HitAir2HitDrop"
          ],
          "resetAnimatorTriggerOnExit": [
            "DoSkill"
          ],
          "cameraType": "combatBeHit",
          "jumpCancelEnd": 0.0,
          "animatorTriggerOnLanded": "",
          "sheatheOnStart": true
        },
        "BeHitAir": {
          "$type": "KBOPIKLCBOA",
          "animatorStates": {
            "Hit_Throw": [
              "Audio_Lady_Hit_Throw",
              "BeHitAir_Weapon"
            ],
            "Hit_ThrowAir": [
              "Audio_Lady_DropDown",
              "BeHitAir_Weapon"
            ],
            "Struggle": [
              "BeHitAir_Weapon"
            ]
          },
          "MOKBIKEEHMJ": "combatAir",
          "resetAnimatorTriggerOnEnter": [
            "BeHit"
          ],
          "resetAnimatorTriggerOnExit": [
            "DoSkill"
          ],
          "cameraType": "combatBeHit",
          "actionPanelState": "CombatAir",
          "jumpCancelEnd": 0.0,
          "animatorTriggerOnLanded": "",
          "sheatheOnStart": true
        },
        "Die": {
          "$type": "KBOPIKLCBOA",
          "animatorStates": {
            "DiveDie": [
              "Die",
              "Audio_Lady_Dive_Die"
            ],
            "FallDie": [
              "Audio_Lady_NormalDie"
            ],
            "NormalDie": [
              "Die",
              "Audio_Lady_NormalDie"
            ],
            "SwimDie": [
              "Swim_Die",
              "Audio_Lady_SwimDie"
            ],
            "HitGroundDie": [
              "Die",
              "Audio_Lady_Death"
            ]
          },
          "animatorTriggerOnLanded": ""
        },
        "Die_RagDoll": {
          "$type": "KBOPIKLCBOA",
          "animatorStates": {
            "FallDie_AS": []
          },
          "enableRagDoll": true,
          "animatorTriggerOnLanded": ""
        },
        "Attack01": {
          "$type": "KBOPIKLCBOA",
          "animatorStates": {
            "Attack01": [
              "Clorinde_Attack01",
              "SetComboCount1",
              "Emo_Lady_Sword_Qin_NormalAttack01",
              "Interaction_Bad",
              "Audio_char_Clorinde_1HSword_Attack01"
            ]
          },
          "MOKBIKEEHMJ": "combatMove",
          "canDoSkill": true,
          "resetAnimatorTriggerOnExit": [
            "BeHit"
          ],
          "setAnimatorBoolean": [
            {
              "name": "&CanCancelSkill"
            }
          ],
          "cameraType": "combatNormal",
          "canChangeAvatar": [
            {}
          ],
          "animatorTriggerOnLanded": "",
          "battouOnStart": true,
          "ignorePreSheath": true
        },
        "Attack02": {
          "$type": "KBOPIKLCBOA",
          "animatorStates": {
            "Attack02": [
              "Clorinde_Attack02",
              "SetComboCount2",
              "Emo_Lady_Sword_Qin_NormalAttack02",
              "Interaction_Bad",
              "Audio_char_Clorinde_1HSword_Attack02"
            ]
          },
          "MOKBIKEEHMJ": "combatMove",
          "canDoSkill": true,
          "resetAnimatorTriggerOnExit": [
            "BeHit"
          ],
          "setAnimatorBoolean": [
            {
              "name": "&CanCancelSkill"
            }
          ],
          "cameraType": "combatNormal",
          "canChangeAvatar": [
            {}
          ],
          "animatorTriggerOnLanded": "",
          "battouOnStart": true,
          "ignorePreSheath": true
        },
        "Attack03": {
          "$type": "KBOPIKLCBOA",
          "animatorStates": {
            "Attack03": [
              "Clorinde_Attack03",
              "SetComboCount3",
              "Emo_Lady_Sword_Qin_NormalAttack03",
              "Interaction_Bad",
              "Audio_char_Clorinde_1HSword_Attack03"
            ]
          },
          "MOKBIKEEHMJ": "combatMove",
          "canDoSkill": true,
          "resetAnimatorTriggerOnExit": [
            "BeHit"
          ],
          "setAnimatorBoolean": [
            {
              "name": "&CanCancelSkill"
            }
          ],
          "cameraType": "combatNormal",
          "canChangeAvatar": [
            {}
          ],
          "animatorTriggerOnLanded": "",
          "battouOnStart": true,
          "ignorePreSheath": true
        },
        "Attack04": {
          "$type": "KBOPIKLCBOA",
          "animatorStates": {
            "Attack04": [
              "Clorinde_Attack04",
              "SetComboCount4",
              "Emo_Lady_Sword_Qin_NormalAttack04",
              "Interaction_Bad",
              "Audio_char_Clorinde_1HSword_Attack04"
            ]
          },
          "MOKBIKEEHMJ": "combatMove",
          "canDoSkill": true,
          "resetAnimatorTriggerOnExit": [
            "BeHit"
          ],
          "setAnimatorBoolean": [
            {
              "name": "&CanCancelSkill"
            }
          ],
          "cameraType": "combatNormal",
          "canChangeAvatar": [
            {}
          ],
          "animatorTriggerOnLanded": "",
          "battouOnStart": true,
          "ignorePreSheath": true
        },
        "Attack05": {
          "$type": "KBOPIKLCBOA",
          "animatorStates": {
            "Attack05": [
              "Clorinde_Attack05",
              "SetComboCount5",
              "Emo_Lady_Sword_Qin_NormalAttack05",
              "Interaction_Bad",
              "Audio_char_Clorinde_1HSword_Attack05"
            ]
          },
          "MOKBIKEEHMJ": "combatMove",
          "canDoSkill": true,
          "resetAnimatorTriggerOnExit": [
            "BeHit"
          ],
          "setAnimatorBoolean": [
            {
              "name": "&CanCancelSkill"
            }
          ],
          "cameraType": "combatNormal",
          "canChangeAvatar": [
            {}
          ],
          "animatorTriggerOnLanded": "",
          "battouOnStart": true,
          "ignorePreSheath": true
        },
        "ExtraAttack": {
          "$type": "KBOPIKLCBOA",
          "animatorStates": {
            "ExtraAttack": [
              "Clorinde_ExtraAttack",
              "Emo_Lady_Sword_Qin_Attack_ExtraAttack",
              "Interaction_Bad",
              "Audio_char_Clorinde_1HSword_ExtraAttack"
            ]
          },
          "MOKBIKEEHMJ": "combatMove",
          "resetAnimatorTriggerOnExit": [
            "BeHit"
          ],
          "cameraType": "combatNormal",
          "canChangeAvatar": [
            {
              "normalizeStart": 0.699999988079071
            }
          ],
          "animatorTriggerOnLanded": "",
          "battouOnStart": true,
          "ignorePreSheath": true
        },
        "ExtraAttack_AS": {
          "$type": "KBOPIKLCBOA",
          "animatorStates": {
            "ExtraAttack_AS": [
              "Clorinde_ExtraAttack_AS",
              "Emo_Lady_Sword_Qin_ExtraAttackAS",
              "Audio_char_Clorinde_1HSword_ExtraAttack_AS"
            ]
          },
          "MOKBIKEEHMJ": "combatMove",
          "canDoSkill": true,
          "resetAnimatorTriggerOnExit": [
            "BeHit"
          ],
          "setAnimatorBoolean": [
            {
              "name": "&CanCancelSkill"
            },
            {
              "name": "&CanUseSkill"
            }
          ],
          "cameraType": "combatNormal",
          "canChangeAvatar": [
            {}
          ],
          "animatorTriggerOnLanded": "",
          "battouOnStart": true,
          "sheatheOnEnd": true,
          "ignorePreSheath": true
        },
        "Clorinde_ElementalArt": {
          "$type": "KBOPIKLCBOA",
          "animatorStates": {
            "Clorinde_ElementalArt": [
              "Clorinde_ElementalArt",
              "Clorinde_ElementalArt_Activate",
              "Interaction_Bad",
              "Audio_char_Clorinde_1HSword_ElementArt"
            ]
          },
          "MOKBIKEEHMJ": "combatMove",
          "canDoSkill": true,
          "addEndure": 0.6000000238418579,
          "resetAnimatorTriggerOnExit": [
            "BeHit",
            "Jump"
          ],
          "cameraType": "combatNormal",
          "jumpCancelStart": 0.7009999752044678,
          "sprintCancelEnd": 0.7009999752044678,
          "animatorTriggerOnLanded": "",
          "battouOnStart": true
        },
        "Clorinde_ElementalArt_AS": {
          "$type": "KBOPIKLCBOA",
          "animatorStates": {
            "Clorinde_ElementalArt_AS": [
              "Clorinde_ElementalArt_AS",
              "Audio_char_Clorinde_1HSword_ElementArt_AS"
            ]
          },
          "MOKBIKEEHMJ": "combatMove",
          "canDoSkill": true,
          "resetAnimatorTriggerOnExit": [
            "BeHit",
            "Jump"
          ],
          "setAnimatorBoolean": [
            {
              "name": "&CanUseSkill"
            },
            {
              "name": "&CanCancelSkill"
            }
          ],
          "cameraType": "combatNormal",
          "canChangeAvatar": [
            {}
          ],
          "animatorTriggerOnLanded": "",
          "battouOnStart": true,
          "sheatheOnEnd": true
        },
        "Clorinde_ElementalBurst": {
          "$type": "KBOPIKLCBOA",
          "animatorStates": {
            "Clorinde_ElementalBurst": [
              "Clorinde_ElementalBurst",
              "Interaction_Bad",
              "Audio_char_Clorinde_1HSword_ElementalBurst"
            ]
          },
          "MOKBIKEEHMJ": "combatMove",
          "addEndure": 0.0,
          "resetAnimatorTriggerOnExit": [
            "BeHit"
          ],
          "jumpCancelEnd": -1.0,
          "sprintCancelEnd": -1.0,
          "animatorTriggerOnLanded": "",
          "battouOnStart": true
        },
        "Clorinde_ElementalBurst_AS": {
          "$type": "KBOPIKLCBOA",
          "animatorStates": {
            "Clorinde_ElementalBurst_AS": [
              "Clorinde_ElementalBurst_AS",
              "Audio_char_Clorinde_1HSword_ElementalBurst_AS"
            ]
          },
          "MOKBIKEEHMJ": "combatMove",
          "canDoSkill": true,
          "resetAnimatorTriggerOnExit": [
            "BeHit"
          ],
          "setAnimatorBoolean": [
            {
              "name": "&CanUseSkill",
              "normalizeStart": 0.09000000357627869
            }
          ],
          "canChangeAvatar": [
            {
              "normalizeStart": 0.09000000357627869
            }
          ],
          "jumpCancelStart": 0.09000000357627869,
          "sprintCancelStart": 0.09000000357627869,
          "animatorTriggerOnLanded": "",
          "battouOnStart": true,
          "sheatheOnEnd": true
        },
        "ElementalArt_Attack01": {
          "$type": "KBOPIKLCBOA",
          "animatorStates": {
            "Clorinde_ElementalArt_Attack01": [
              "Clorinde_ElementalArt_Attack01",
              "SetComboCount1",
              "Interaction_Bad",
              "Audio_char_Clorinde_1HSword_ElementArt_Attack01"
            ]
          },
          "MOKBIKEEHMJ": "combatMove",
          "canDoSkill": true,
          "resetAnimatorTriggerOnExit": [
            "BeHit"
          ],
          "setAnimatorBoolean": [
            {
              "name": "&CanCancelSkill",
              "normalizeStart": 0.11999999731779099
            },
            {
              "name": "&CanUseSkill",
              "normalizeStart": 0.05999999865889549
            }
          ],
          "cameraType": "combatNormal",
          "canChangeAvatar": [
            {}
          ],
          "animatorTriggerOnLanded": "",
          "battouOnStart": true,
          "sheatheOnEnd": true,
          "ignorePreSheath": true
        },
        "ElementalArt_Attack02": {
          "$type": "KBOPIKLCBOA",
          "animatorStates": {
            "Clorinde_ElementalArt_Attack02": [
              "Clorinde_ElementalArt_Attack02",
              "SetComboCount2",
              "Interaction_Bad",
              "Audio_char_Clorinde_1HSword_ElementArt_Attack02"
            ]
          },
          "MOKBIKEEHMJ": "combatMove",
          "canDoSkill": true,
          "resetAnimatorTriggerOnExit": [
            "BeHit"
          ],
          "setAnimatorBoolean": [
            {
              "name": "&CanCancelSkill",
              "normalizeStart": 0.10999999940395355
            },
            {
              "name": "&CanUseSkill",
              "normalizeStart": 0.05999999865889549
            }
          ],
          "cameraType": "combatNormal",
          "canChangeAvatar": [
            {}
          ],
          "animatorTriggerOnLanded": "",
          "battouOnStart": true,
          "sheatheOnEnd": true,
          "ignorePreSheath": true
        },
        "ElementalArt_Attack03": {
          "$type": "KBOPIKLCBOA",
          "animatorStates": {
            "Clorinde_ElementalArt_Attack03": [
              "Clorinde_ElementalArt_Attack03",
              "SetComboCount3",
              "Interaction_Bad",
              "Audio_char_Clorinde_1HSword_ElementArt_Attack03"
            ]
          },
          "MOKBIKEEHMJ": "combatMove",
          "canDoSkill": true,
          "resetAnimatorTriggerOnExit": [
            "BeHit"
          ],
          "setAnimatorBoolean": [
            {
              "name": "&CanCancelSkill",
              "normalizeStart": 0.11999999731779099
            },
            {
              "name": "&CanUseSkill",
              "normalizeStart": 0.05999999865889549
            },
            {
              "name": "&SpecialDodgeCancel",
              "normalizeStart": 0.05999999865889549
            }
          ],
          "cameraType": "combatNormal",
          "canChangeAvatar": [
            {}
          ],
          "animatorTriggerOnLanded": "",
          "battouOnStart": true,
          "sheatheOnEnd": true,
          "ignorePreSheath": true
        },
        "Clorinde_ElementalArt_Dodge": {
          "$type": "KBOPIKLCBOA",
          "animatorStates": {
            "Clorinde_ElementalArt_Dodge": [
              "Clorinde_ElementalArt_Dodge",
              "Interaction_Bad",
              "Audio_char_Clorinde_1HSword_ElementArt_ElementArtElementArt_Dodge"
            ]
          },
          "MOKBIKEEHMJ": "combatSkillMove",
          "canDoSkill": true,
          "resetAnimatorTriggerOnEnter": [
            "DoSkill"
          ],
          "resetAnimatorTriggerOnExit": [
            "BeHit",
            "Jump"
          ],
          "setAnimatorBoolean": [
            {
              "name": "&CanUseSkill",
              "normalizeStart": 0.44999998807907104
            },
            {
              "name": "&CanCancelSkill",
              "normalizeStart": 0.44999998807907104
            }
          ],
          "cameraType": "combatNormal",
          "jumpCancelStart": 0.44999998807907104,
          "sprintCancelStart": 0.44999998807907104,
          "animatorTriggerOnLanded": "",
          "battouOnStart": true,
          "sheatheOnEnd": true,
          "ignorePreSheath": true
        },
        "Clorinde_ElementalArt_Dodge_Special": {
          "$type": "KBOPIKLCBOA",
          "animatorStates": {
            "Clorinde_ElementalArt_Dodge_Special": [
              "Clorinde_ElementalArt_Dodge",
              "Interaction_Bad",
              "Audio_char_Clorinde_1HSword_ElementArt_ElementArtElementArt_Dodge"
            ]
          },
          "MOKBIKEEHMJ": "combatSkillMove",
          "canDoSkill": true,
          "resetAnimatorTriggerOnEnter": [
            "DoSkill"
          ],
          "resetAnimatorTriggerOnExit": [
            "BeHit",
            "Jump"
          ],
          "setAnimatorBoolean": [
            {
              "name": "&CanUseSkill",
              "normalizeStart": 0.44999998807907104
            },
            {
              "name": "&CanCancelSkill",
              "normalizeStart": 0.44999998807907104
            }
          ],
          "cameraType": "combatNormal",
          "jumpCancelStart": 0.44999998807907104,
          "sprintCancelStart": 0.44999998807907104,
          "animatorTriggerOnLanded": "",
          "battouOnStart": true,
          "ignorePreSheath": true
        },
        "Clorinde_ElementalArt_Dodge_AS": {
          "$type": "KBOPIKLCBOA",
          "animatorStates": {
            "Clorinde_ElementalArt_Dodge_AS": [
              "Clorinde_ElementalArt_Dodge_AS",
              "Audio_char_Clorinde_1HSword_ElementArt_ElementArtElementArt_Dodge_AS"
            ]
          },
          "MOKBIKEEHMJ": "combatSkillMove",
          "canDoSkill": true,
          "resetAnimatorTriggerOnExit": [
            "BeHit",
            "DoSkill",
            "Jump"
          ],
          "setAnimatorBoolean": [
            {
              "name": "&CanUseSkill"
            },
            {
              "name": "&CanCancelSkill"
            }
          ],
          "cameraType": "combatNormal",
          "canChangeAvatar": [
            {}
          ],
          "animatorTriggerOnLanded": "",
          "battouOnStart": true,
          "sheatheOnEnd": true,
          "ignorePreSheath": true
        },
        "FallingAnthem_BS": {
          "$type": "KBOPIKLCBOA",
          "animatorStates": {
            "FallingAnthem_BS_1": [
              "Audio_Lady_Clorinde_1HSword_FallingAnthem_BS_1",
              "Emo_Lady_Sword_FallingAttack_BS_01"
            ],
            "FallingAnthem_BS_2": [
              "Emo_Lady_Sword_FallingAttack_BS_02"
            ]
          },
          "MOKBIKEEHMJ": "combatAir",
          "addEndure": 0.0,
          "resetAnimatorTriggerOnExit": [
            "BeHit",
            "DoSkill",
            "Jump"
          ],
          "cameraType": "combatNormal",
          "actionPanelState": "Fly",
          "equipReattach": [
            {
              "equip": "equip01",
              "targetPoint": "WeaponR"
            }
          ],
          "jumpCancelEnd": -1.0,
          "animatorTriggerOnLanded": "HitAir2HitDrop",
          "battouOnStart": true
        },
        "FallingAnthem_Loop": {
          "$type": "KBOPIKLCBOA",
          "animatorStates": {
            "FallingAnthem_Loop": [],
            "FallingAnthem_Loop_Low": []
          },
          "MOKBIKEEHMJ": "combatAir",
          "addEndure": 0.0,
          "resetAnimatorTriggerOnExit": [
            "BeHit",
            "DoSkill",
            "Jump"
          ],
          "actionPanelState": "Fly",
          "equipReattach": [
            {
              "equip": "equip01",
              "targetPoint": "WeaponR"
            }
          ],
          "animatorTriggerOnLanded": "HitAir2HitDrop",
          "battouOnStart": true
        },
        "FallingAnthem_AS_1": {
          "$type": "KBOPIKLCBOA",
          "animatorStates": {
            "FallingAnthem_AS_1": [
              "Clorinde_FallingAnthem_Strike",
              "Interaction_Bad",
              "Audio_Lady_Clorinde_1HSword_FallingAnthem_AS_1",
              "Emo_Lady_Sword_FallingAttack_AS_01"
            ]
          },
          "MOKBIKEEHMJ": "combatMove",
          "canDoSkill": true,
          "resetAnimatorTriggerOnExit": [
            "BeHit",
            "DoSkill",
            "Jump"
          ],
          "setAnimatorBoolean": [
            {
              "name": "&CanUseSkill",
              "normalizeStart": 0.800000011920929
            }
          ],
          "equipReattach": [
            {
              "equip": "equip01",
              "targetPoint": "WeaponR"
            }
          ],
          "jumpCancelEnd": -1.0,
          "animatorTriggerOnLanded": "",
          "battouOnStart": true
        },
        "FallingAnthem_AS_2": {
          "$type": "KBOPIKLCBOA",
          "animatorStates": {
            "FallingAnthem_AS_2": [
              "Audio_Lady_Clorinde_1HSword_FallingAnthem_AS_2",
              "Emo_Lady_Sword_FallingAttack_AS_02"
            ]
          },
          "MOKBIKEEHMJ": "combatMove",
          "canDoSkill": true,
          "resetAnimatorTriggerOnExit": [
            "BeHit",
            "DoSkill",
            "Jump"
          ],
          "setAnimatorBoolean": [
            {
              "name": "&CanUseSkill"
            }
          ],
          "canChangeAvatar": [
            {}
          ],
          "equipReattach": [
            {
              "equip": "equip01",
              "targetPoint": "WeaponR"
            }
          ],
          "jumpCancelStart": 0.10000000149011612,
          "animatorTriggerOnLanded": "",
          "battouOnStart": true
        },
        "Sit": {
          "$type": "KBOPIKLCBOA",
          "animatorStates": {
            "SitDown": [
              "Audio_Girl_SitDown"
            ],
            "SitLoop": [],
            "SitUp": [
              "Audio_Girl_SitDown"
            ]
          },
          "MOKBIKEEHMJ": "performMove",
          "massRatio": 100.0,
          "actionPanelState": "Perform",
          "animatorTriggerOnLanded": "",
          "sheatheOnStart": true
        },
        "SitB": {
          "$type": "KBOPIKLCBOA",
          "animatorStates": {
            "SitBDown": [
              "Audio_Girl_SitDown"
            ],
            "SitBLoop": [],
            "SitBUp": [
              "Audio_Girl_SitDown"
            ]
          },
          "MOKBIKEEHMJ": "performMove",
          "massRatio": 100.0,
          "actionPanelState": "Perform",
          "animatorTriggerOnLanded": "",
          "sheatheOnStart": true
        },
        "StandbyShow": {
          "$type": "KBOPIKLCBOA",
          "animatorStates": {
            "StandbyVoice": [
              "Audio_Lady_StandbyVoice"
            ],
            "StandbyShow_01": [
              "Manekin_Clorinde_Show01",
              "Audio_char_Clorinde_1HSword_Standby01"
            ],
            "StandbyShow_02": [
              "Manekin_Clorinde_Show02",
              "Audio_char_Clorinde_1HSword_Standby02"
            ]
          },
          "MOKBIKEEHMJ": "performMove",
          "canDoSkill": true,
          "massRatio": 100.0,
          "setAnimatorBoolean": [
            {
              "name": "&CanUseSkill"
            }
          ],
          "canChangeAvatar": [
            {}
          ],
          "animatorTriggerOnLanded": "",
          "sheatheOnStart": true
        },
        "TakePhotos": {
          "$type": "KBOPIKLCBOA",
          "animatorStates": {
            "Think01BS": [],
            "Akimbo02BS": [],
            "Think01Loop": [],
            "Akimbo02Loop": [],
            "Think01AS": [],
            "Akimbo02AS": []
          },
          "animatorTriggerOnLanded": ""
        },
        "Channel_BS": {
          "$type": "KBOPIKLCBOA",
          "animatorStates": {
            "ChannelBS": [
              "Emo_Avatar_Common_Manekin_Default"
            ]
          },
          "MOKBIKEEHMJ": "combatMove",
          "canDoSkill": true,
          "massRatio": 100.0,
          "resetAnimatorTriggerOnExit": [
            "BeHit",
            "DoSkill",
            "Jump"
          ],
          "setAnimatorBoolean": [
            {
              "name": "&CanUseSkill"
            }
          ],
          "canChangeAvatar": [
            {}
          ],
          "animatorTriggerOnLanded": "",
          "sheatheOnStart": true
        },
        "Channel_Loop": {
          "$type": "KBOPIKLCBOA",
          "animatorStates": {
            "ChannelLoop": []
          },
          "MOKBIKEEHMJ": "combatMove",
          "canDoSkill": true,
          "massRatio": 100.0,
          "resetAnimatorTriggerOnExit": [
            "BeHit",
            "DoSkill",
            "Jump"
          ],
          "setAnimatorBoolean": [
            {
              "name": "&CanUseSkill"
            }
          ],
          "canChangeAvatar": [
            {}
          ],
          "animatorTriggerOnLanded": "",
          "sheatheOnStart": true
        },
        "Channel_AS": {
          "$type": "KBOPIKLCBOA",
          "animatorStates": {
            "ChannelAS": []
          },
          "MOKBIKEEHMJ": "combatMove",
          "canDoSkill": true,
          "massRatio": 100.0,
          "resetAnimatorTriggerOnExit": [
            "BeHit",
            "DoSkill",
            "Jump"
          ],
          "setAnimatorBoolean": [
            {
              "name": "&CanUseSkill"
            }
          ],
          "canChangeAvatar": [
            {}
          ],
          "animatorTriggerOnLanded": "",
          "sheatheOnStart": true
        },
        "PlayMusic_Lyre": {
          "$type": "KBOPIKLCBOA",
          "animatorStates": {
            "PlayMusic_Lyre_BS": [
              "PlayMusic_Lyre_Lady",
              "Audio_Char_Common_PlayMusic_Lyrc_BS"
            ],
            "PlayMusic_Lyre_Loop": [
              "PlayMusic_Lyre_Lady_Loop"
            ]
          },
          "MOKBIKEEHMJ": "combatMove",
          "massRatio": 100.0,
          "resetAnimatorTriggerOnExit": [
            "BeHit",
            "DoSkill",
            "Jump"
          ],
          "animatorTriggerOnLanded": "",
          "sheatheOnStart": true
        },
        "PlayMusic_Lyre_AS": {
          "$type": "KBOPIKLCBOA",
          "animatorStates": {
            "PlayMusic_Lyre_AS": [
              "PlayMusic_Lyre_Lady_AS",
              "Audio_Char_Common_PlayMusic_Lyrc_AS"
            ]
          },
          "MOKBIKEEHMJ": "combatMove",
          "canDoSkill": true,
          "massRatio": 100.0,
          "resetAnimatorTriggerOnExit": [
            "BeHit",
            "DoSkill",
            "Jump"
          ],
          "setAnimatorBoolean": [
            {
              "name": "&CanUseSkill"
            }
          ],
          "canChangeAvatar": [
            {}
          ],
          "animatorTriggerOnLanded": "",
          "sheatheOnStart": true
        },
        "PlayMusic_Qin": {
          "$type": "KBOPIKLCBOA",
          "animatorStates": {
            "PlayMusic_Qin_BS": [
              "PlayMusic_Qin_Lady"
            ],
            "PlayMusic_Qin_Loop": [
              "PlayMusic_Qin_Lady_Loop"
            ]
          },
          "MOKBIKEEHMJ": "combatMove",
          "massRatio": 100.0,
          "resetAnimatorTriggerOnExit": [
            "BeHit",
            "DoSkill",
            "Jump"
          ],
          "animatorTriggerOnLanded": "",
          "sheatheOnStart": true
        },
        "PlayMusic_Qin_AS": {
          "$type": "KBOPIKLCBOA",
          "animatorStates": {
            "PlayMusic_Qin_AS": [
              "PlayMusic_Qin_Lady_AS"
            ]
          },
          "MOKBIKEEHMJ": "combatMove",
          "canDoSkill": true,
          "massRatio": 100.0,
          "resetAnimatorTriggerOnExit": [
            "BeHit",
            "DoSkill",
            "Jump"
          ],
          "setAnimatorBoolean": [
            {
              "name": "&CanUseSkill"
            }
          ],
          "canChangeAvatar": [
            {}
          ],
          "animatorTriggerOnLanded": "",
          "sheatheOnStart": true
        },
        "PlayMusic_Drum": {
          "$type": "KBOPIKLCBOA",
          "animatorStates": {
            "PlayMusic_Drum_BS": [
              "PlayMusic_Drum_Lady"
            ],
            "PlayMusic_Drum_Loop": [
              "PlayMusic_Drum_Lady_Loop"
            ]
          },
          "MOKBIKEEHMJ": "combatMove",
          "massRatio": 100.0,
          "resetAnimatorTriggerOnExit": [
            "BeHit",
            "DoSkill",
            "Jump"
          ],
          "animatorTriggerOnLanded": "",
          "sheatheOnStart": true
        },
        "PlayMusic_Drum_AS": {
          "$type": "KBOPIKLCBOA",
          "animatorStates": {
            "PlayMusic_Drum_AS": [
              "PlayMusic_Drum_Lady_AS"
            ]
          },
          "MOKBIKEEHMJ": "combatMove",
          "canDoSkill": true,
          "massRatio": 100.0,
          "resetAnimatorTriggerOnExit": [
            "BeHit",
            "DoSkill",
            "Jump"
          ],
          "setAnimatorBoolean": [
            {
              "name": "&CanUseSkill"
            }
          ],
          "canChangeAvatar": [
            {}
          ],
          "animatorTriggerOnLanded": "",
          "sheatheOnStart": true
        },
        "PlayMusic_FrenchHorn": {
          "$type": "KBOPIKLCBOA",
          "animatorStates": {
            "PlayMusic_FrenchHorn_BS": [
              "PlayMusic_Frenchhorn_Lady"
            ],
            "PlayMusic_FrenchHorn_Loop": [
              "PlayMusic_Frenchhorn_Lady_Loop"
            ]
          },
          "MOKBIKEEHMJ": "combatMove",
          "massRatio": 100.0,
          "resetAnimatorTriggerOnExit": [
            "BeHit",
            "DoSkill",
            "Jump"
          ],
          "animatorTriggerOnLanded": "",
          "sheatheOnStart": true
        },
        "PlayMusic_FrenchHorn_AS": {
          "$type": "KBOPIKLCBOA",
          "animatorStates": {
            "PlayMusic_FrenchHorn_AS": [
              "PlayMusic_Frenchhorn_Lady_AS"
            ]
          },
          "MOKBIKEEHMJ": "combatMove",
          "canDoSkill": true,
          "massRatio": 100.0,
          "resetAnimatorTriggerOnExit": [
            "BeHit",
            "DoSkill",
            "Jump"
          ],
          "setAnimatorBoolean": [
            {
              "name": "&CanUseSkill"
            }
          ],
          "canChangeAvatar": [
            {}
          ],
          "animatorTriggerOnLanded": "",
          "sheatheOnStart": true
        },
        "ActivitySkill_ElectricCoreFly": {
          "$type": "KBOPIKLCBOA",
          "animatorStates": {
            "ActivitySkill_ElectricCoreFly": []
          },
          "MOKBIKEEHMJ": "combatAir",
          "massRatio": 100.0,
          "resetAnimatorTriggerOnEnter": [
            "ElectricCoreFly_End"
          ],
          "resetAnimatorTriggerOnExit": [
            "BeHit",
            "DoSkill",
            "Jump",
            "ElectricCoreFly_End"
          ],
          "animatorTriggerOnLanded": "",
          "sheatheOnStart": true
        },
        "ActivitySkill_GrapplingHook": {
          "$type": "KBOPIKLCBOA",
          "animatorStates": {
            "ActivitySkill_GrapplingHook": []
          },
          "MOKBIKEEHMJ": "combatAir",
          "massRatio": 100.0,
          "resetAnimatorTriggerOnEnter": [
            "GrapplingHook_Drop"
          ],
          "resetAnimatorTriggerOnExit": [
            "BeHit",
            "DoSkill",
            "Jump",
            "GrapplingHook_Drop"
          ],
          "animatorTriggerOnLanded": "",
          "sheatheOnStart": true
        },
        "ActivitySkill_CustomSkill01": {
          "$type": "KBOPIKLCBOA",
          "animatorStates": {
            "ActivitySkill_CustomSkill01": []
          },
          "MOKBIKEEHMJ": "combatAir",
          "canDoSkill": true,
          "massRatio": 100.0,
          "resetAnimatorTriggerOnEnter": [
            "CustomSkill_End_Fly",
            "CustomSkill_End_Drop"
          ],
          "resetAnimatorTriggerOnExit": [
            "BeHit",
            "DoSkill",
            "Jump",
            "CustomSkill_End_Fly",
            "CustomSkill_End_Drop"
          ],
          "animatorTriggerOnLanded": "",
          "sheatheOnStart": true
        },
        "ActivitySkill_CustomSkill02": {
          "$type": "KBOPIKLCBOA",
          "animatorStates": {
            "ActivitySkill_CustomSkill02": []
          },
          "MOKBIKEEHMJ": "combatAir",
          "canDoSkill": true,
          "massRatio": 100.0,
          "resetAnimatorTriggerOnEnter": [
            "CustomSkill_End_Fly",
            "CustomSkill_End_Drop"
          ],
          "resetAnimatorTriggerOnExit": [
            "BeHit",
            "DoSkill",
            "Jump",
            "CustomSkill_End_Fly",
            "CustomSkill_End_Drop"
          ],
          "animatorTriggerOnLanded": "",
          "sheatheOnStart": true
        },
        "ActivitySkill_CommonMove": {
          "$type": "KBOPIKLCBOA",
          "animatorStates": {
            "ActivitySkill_CommonMove": []
          },
          "addEndure": 0.0,
          "massRatio": 100.0,
          "resetAnimatorTriggerOnExit": [
            "BeHit",
            "DoSkill",
            "Jump"
          ],
          "enableBoneFollowMove": true,
          "jumpCancelStart": -1.0,
          "sprintCancelStart": -1.0,
          "animatorTriggerOnLanded": "",
          "sheatheOnStart": true
        },
        "DiveChannel_BS": {
          "$type": "KBOPIKLCBOA",
          "animatorStates": {
            "DiveChannelBS": [
              "Emo_Avatar_Common_Manekin_Default",
              "Audio_Lady_DiveChannel_BS"
            ]
          },
          "MOKBIKEEHMJ": "combatDive",
          "massRatio": 100.0,
          "resetAnimatorTriggerOnExit": [
            "BeHit",
            "DoSkill",
            "Jump"
          ],
          "setAnimatorBoolean": [
            {
              "name": "&CanUseSkill"
            }
          ],
          "canChangeAvatar": [
            {}
          ],
          "actionPanelState": "Dive",
          "sprintCancelEnd": -1.0,
          "animatorTriggerOnLanded": "",
          "sheatheOnStart": true
        },
        "DiveChannel_Loop": {
          "$type": "KBOPIKLCBOA",
          "animatorStates": {
            "DiveChannelLoop": []
          },
          "MOKBIKEEHMJ": "combatDive",
          "massRatio": 100.0,
          "resetAnimatorTriggerOnExit": [
            "BeHit",
            "DoSkill",
            "Jump"
          ],
          "setAnimatorBoolean": [
            {
              "name": "&CanUseSkill"
            }
          ],
          "canChangeAvatar": [
            {}
          ],
          "actionPanelState": "Dive",
          "sprintCancelEnd": -1.0,
          "animatorTriggerOnLanded": "",
          "sheatheOnStart": true
        },
        "DiveChannel_AS": {
          "$type": "KBOPIKLCBOA",
          "animatorStates": {
            "DiveChannelAS": [
              "Audio_Lady_DiveChannel_AS"
            ]
          },
          "MOKBIKEEHMJ": "combatDive",
          "canDoSkill": true,
          "canDoSkillStart": 0.30000001192092896,
          "massRatio": 100.0,
          "resetAnimatorTriggerOnExit": [
            "BeHit",
            "DoSkill",
            "Jump"
          ],
          "setAnimatorBoolean": [
            {
              "name": "&CanUseSkill"
            }
          ],
          "canChangeAvatar": [
            {}
          ],
          "actionPanelState": "Dive",
          "sprintCancelStart": 0.11999999731779099,
          "animatorTriggerOnLanded": "",
          "sheatheOnStart": true
        },
        "DiveCast_BS": {
          "$type": "KBOPIKLCBOA",
          "animatorStates": {
            "DiveCast_BS": [
              "Emo_Avatar_Common_Manekin_Default",
              "Audio_Lady_DiveCast_BS"
            ]
          },
          "MOKBIKEEHMJ": "combatDive",
          "massRatio": 100.0,
          "resetAnimatorTriggerOnExit": [
            "BeHit",
            "DoSkill",
            "Jump"
          ],
          "setAnimatorBoolean": [
            {
              "name": "&CanUseSkill"
            }
          ],
          "canChangeAvatar": [
            {}
          ],
          "actionPanelState": "Dive",
          "sprintCancelEnd": -1.0,
          "animatorTriggerOnLanded": "",
          "sheatheOnStart": true
        },
        "DiveCast_Loop": {
          "$type": "KBOPIKLCBOA",
          "animatorStates": {
            "DiveCast_Loop": []
          },
          "MOKBIKEEHMJ": "combatDive",
          "massRatio": 100.0,
          "resetAnimatorTriggerOnExit": [
            "BeHit",
            "DoSkill",
            "Jump"
          ],
          "setAnimatorBoolean": [
            {
              "name": "&CanUseSkill"
            }
          ],
          "canChangeAvatar": [
            {}
          ],
          "actionPanelState": "Dive",
          "sprintCancelEnd": -1.0,
          "animatorTriggerOnLanded": "",
          "sheatheOnStart": true
        },
        "DiveCast_AS": {
          "$type": "KBOPIKLCBOA",
          "animatorStates": {
            "DiveCast_AS": [
              "Audio_Lady_DiveCast_AS"
            ]
          },
          "MOKBIKEEHMJ": "combatDive",
          "canDoSkill": true,
          "canDoSkillStart": 0.10000000149011612,
          "massRatio": 100.0,
          "resetAnimatorTriggerOnExit": [
            "BeHit",
            "DoSkill",
            "Jump"
          ],
          "setAnimatorBoolean": [
            {
              "name": "&CanUseSkill"
            }
          ],
          "canChangeAvatar": [
            {}
          ],
          "actionPanelState": "Dive",
          "sprintCancelStart": 0.09000000357627869,
          "animatorTriggerOnLanded": "",
          "sheatheOnStart": true
        },
        "Dive": {
          "$type": "KBOPIKLCBOA",
          "animatorStates": {
            "DiveIdle": [],
            "DiveMoveBS": [
              "Audio_Lady_Dive_MoveBS"
            ],
            "DiveMoveAS": [
              "Audio_Lady_Dive_MoveAS"
            ],
            "DiveMoveU_A": [
              "Audio_Lady_Dive_MoveU_A"
            ],
            "DiveMoveU_B": [
              "Audio_Lady_Dive_MoveU_B"
            ],
            "DiveMoveF_A": [],
            "DiveMoveF_B": [
              "Audio_Lady_Dive_MoveF_B"
            ],
            "DiveMoveD_A": [
              "Audio_Lady_Dive_MoveD_A"
            ],
            "DiveMoveD_B": [
              "Audio_Lady_Dive_MoveD_B"
            ],
            "DiveTurn": [
              "Audio_Lady_Dive_Turn"
            ],
            "DiveTurnAS": [
              "Audio_Lady_Dive_Turn_AS"
            ],
            "DiveTurn2": [
              "Audio_Lady_Dive_Turn"
            ],
            "DiveTurnAS2": [
              "Audio_Lady_Dive_Turn_AS"
            ],
            "DiveDashBS": [
              "Audio_Lady_Dive_Dash_BS"
            ],
            "DiveDashAS": [
              "Audio_Lady_Dive_Dash_AS"
            ],
            "DiveDash": [],
            "DiveDashB": [
              "Audio_Lady_Dive_Out_DashB"
            ],
            "DiveSuperDash": [
              "Audio_Lady_Dive_SuperDash"
            ],
            "DiveSuperDash2": [
              "Audio_Lady_Dive_SuperDash2"
            ]
          },
          "canDoSkill": true,
          "resetAnimatorTriggerOnEnter": [
            "DoSkill"
          ],
          "setAnimatorBoolean": [
            {
              "name": "&CanUseSkill"
            }
          ],
          "canChangeAvatar": [
            {}
          ],
          "actionPanelState": "Dive",
          "animatorTriggerOnLanded": "",
          "sheatheOnStart": true
        },
        "Dive_In_Out": {
          "$type": "KBOPIKLCBOA",
          "animatorStates": {
            "Dive_In_Up": [
              "Audio_Lady_Dive_In_Up"
            ],
            "Dive_In_Side": [
              "Audio_Lady_Dive_In_Side"
            ],
            "Dive_In_Bottom": [
              "Audio_Lady_Dive_In_Bottom"
            ],
            "Dive_Out_Side": [
              "Audio_Lady_Dive_Out_Side"
            ],
            "Dive_Out_Bottom": [
              "Audio_Lady_Dive_Out_Bottom"
            ],
            "Dive_Out_Up": [
              "Audio_Lady_Dive_Out_Up"
            ]
          },
          "resetAnimatorTriggerOnEnter": [
            "DoSkill"
          ],
          "setAnimatorBoolean": [
            {
              "name": "&CanUseSkill"
            }
          ],
          "actionPanelState": "Dive",
          "animatorTriggerOnLanded": "",
          "sheatheOnStart": true
        },
        "DiveStream": {
          "$type": "KBOPIKLCBOA",
          "animatorStates": {
            "DiveStreamIn": [
              "Audio_Lady_Dive_Stream_In"
            ],
            "DiveStreamOut": [
              "Audio_Lady_Dive_Stream_Out"
            ],
            "DiveStream": [],
            "DiveStreamRoll_L": [
              "Audio_Lady_Dive_Stream_Roll_L"
            ],
            "DiveStreamRoll_R": [
              "Audio_Lady_Dive_Stream_Roll_R"
            ]
          },
          "canDoSkill": true,
          "resetAnimatorTriggerOnEnter": [
            "DoSkill"
          ],
          "setAnimatorBoolean": [
            {
              "name": "&CanUseSkill"
            }
          ],
          "actionPanelState": "Dive",
          "animatorTriggerOnLanded": "",
          "sheatheOnStart": true
        },
        "DiveJump": {
          "$type": "KBOPIKLCBOA",
          "animatorStates": {
            "Dive_Out_DashU": [
              "Audio_Lady_Dive_Out_DashU"
            ],
            "Dive_Out_DashD": [
              "Audio_Lady_Dive_Out_DashD"
            ],
            "Dive_Out_DashFBS": [
              "Audio_Lady_Dive_Out_DashFBS"
            ],
            "Dive_Out_DashFAS": [
              "Audio_Lady_Dive_Out_DashFAS"
            ],
            "Dive_Out_DashFLoop": []
          },
          "canDoSkill": true,
          "resetAnimatorTriggerOnEnter": [
            "DoSkill",
            "AimEnd"
          ],
          "setAnimatorBoolean": [
            {
              "name": "&CanUseAirSkill"
            }
          ],
          "actionPanelState": "Jump",
          "animatorTriggerOnLanded": "",
          "sheatheOnStart": true
        },
        "BeHitDive": {
          "$type": "KBOPIKLCBOA",
          "animatorStates": {
            "BeHitDive": [
              "Audio_Lady_Dive_beHit"
            ],
            "DiveStruggle": []
          },
          "MOKBIKEEHMJ": "combatDive",
          "resetAnimatorTriggerOnEnter": [
            "BeHit"
          ],
          "resetAnimatorTriggerOnExit": [
            "DoSkill"
          ],
          "cameraType": "combatBeHit",
          "actionPanelState": "Dive",
          "jumpCancelEnd": 0.0,
          "animatorTriggerOnLanded": "",
          "sheatheOnStart": true
        },
        "MultiOverride_01": {
          "$type": "KBOPIKLCBOA",
          "animatorStates": {
            "MultiOverrideBS_01": [],
            "MultiOverrideLoop_01": [],
            "MultiOverrideAS_01": []
          },
          "animatorTriggerOnLanded": ""
        },
        "MultiOverride2": {
          "$type": "KBOPIKLCBOA",
          "animatorStates": {
            "MultiOverrideBS_02": [],
            "MultiOverrideLoop_02": [],
            "MultiOverrideAS_02": []
          },
          "animatorTriggerOnLanded": ""
        },
        "MultiOverride3": {
          "$type": "KBOPIKLCBOA",
          "animatorStates": {
            "MultiOverrideBS_03": [],
            "MultiOverrideLoop_03": [],
            "MultiOverrideAS_03": []
          },
          "animatorTriggerOnLanded": ""
        },
        "MultiOverride": {
          "$type": "KBOPIKLCBOA",
          "INKINKDHODO": {
            "Ani_Avatar_Lady_Sword_Clorinde_Photo01BS": [],
            "Ani_Avatar_Lady_Sword_Clorinde_Photo01Loop": [],
            "Ani_Avatar_Lady_Sword_Clorinde_Photo01AS": [],
            "Ani_Avatar_Lady_Sword_Clorinde_Photo02BS": [],
            "Ani_Avatar_Lady_Sword_Clorinde_Photo02Loop": [],
            "Ani_Avatar_Lady_Sword_Clorinde_Photo02AS": []
          },
          "animatorTriggerOnLanded": ""
        }
      }
    },
    "diveLayer": {
      "$type": "GBGJJIIEMBD",
      "layerIndexName": "",
      "CPAANEIJCGD": "DiveLayer"
    }
  },
  "DADEGCDMOBD": false,
  "forceDontUseUpdateRigidbody": true,
  "audio": {
    "overrideEmitterName": "",
    "animAudio": {
      "onTransitionIn": [
        {
          "currentStateName": "SlipBackWall",
          "audioEvent": {
            "text": "Play_sfx_char_drop"
          }
        },
        {
          "currentStateName": "SlipBackWall",
          "audioEvent": {
            "text": "Play_sfx_char_slipWall"
          }
        },
        {
          "currentStateName": "SlipFaceWall",
          "audioEvent": {
            "text": "Play_sfx_char_slipWall"
          }
        },
        {
          "currentStateName": "SlipBackWall",
          "audioEvent": {
            "text": "Play_sfx_char_slipWall"
          }
        },
        {
          "currentStateName": "NormalDie",
          "audioEvent": {
            "text": "Play_sfx_char_land"
          },
          "otherStateNames": [
            "FallOnGround"
          ],
          "usage": "InSet"
        },
        {
          "currentStateName": "SprintBS",
          "audioEvent": {
            "text": "Play_sfx_char_foley_flutter_heavy"
          }
        },
        {
          "currentStateName": "SwimJumpToWater",
          "audioEvent": {
            "text": "Stop_sfx_char_swim_dive"
          }
        },
        {
          "currentStateName": "SwimDash",
          "audioEvent": {
            "text": "Play_sfx_char_swim_dash"
          }
        },
        {
          "currentStateName": "Standby",
          "audioEvent": {
            "text": "Stop_sfx_char_fly"
          }
        },
        {
          "currentStateName": "DiveDash",
          "audioEvent": {
            "text": "Play_sfx_char_dive_dash_lp"
          },
          "otherStateNames": [
            "DiveDashBS",
            "Dive_Out_DashFBS",
            "DiveSuperDash",
            "DiveSuperDash2"
          ],
          "usage": "InSet"
        },
        {
          "currentStateName": "DiveStream",
          "audioEvent": {
            "text": "Play_sfx_char_dive_stream_lp"
          }
        },
        {
          "currentStateName": "Dive_Out_DashFLoop",
          "audioEvent": {
            "text": "Play_sfx_char_dive_out_dashFLoop"
          }
        },
        {
          "currentStateName": "DiveMoveF_A",
          "audioEvent": {
            "text": "Play_sfx_char_dive_moveF_A"
          }
        },
        {
          "currentStateName": "DiveChannel_Loop",
          "audioEvent": {
            "text": "Play_vfx_Avatar_Diving_Channel_LP"
          }
        }
      ],
      "onTransitionOut": [
        {
          "currentStateName": "StandbyPutaway",
          "audioEvent": {
            "text": "Stop_sfx_weapon_1HSword_lady_putAwayStandby"
          }
        },
        {
          "currentStateName": "StandbyShow_01",
          "audioEvent": {
            "text": "Stop_sfx_char_Clorinde_1HSword_Standby01"
          }
        },
        {
          "currentStateName": "StandbyShow_02",
          "audioEvent": {
            "text": "Stop_sfx_char_Clorinde_1HSword_Standby02"
          }
        },
        {
          "currentStateName": "SlipFaceWall",
          "audioEvent": {
            "text": "Stop_sfx_char_drop"
          }
        },
        {
          "currentStateName": "SlipFaceWall",
          "audioEvent": {
            "text": "Stop_sfx_char_slipWall"
          }
        },
        {
          "currentStateName": "SlipBackWall",
          "audioEvent": {
            "text": "Stop_sfx_char_drop"
          }
        },
        {
          "currentStateName": "SlipBackWall",
          "audioEvent": {
            "text": "Stop_sfx_char_slipWall"
          }
        },
        {
          "currentStateName": "Attack01",
          "audioEvent": {
            "text": "Stop_sfx_char_Clorinde_1HSword_attack"
          },
          "otherStateNames": [
            "Attack02"
          ]
        },
        {
          "currentStateName": "Attack02",
          "audioEvent": {
            "text": "Stop_sfx_char_Clorinde_1HSword_attack"
          },
          "otherStateNames": [
            "Attack03"
          ],
          "usage": "Except"
        },
        {
          "currentStateName": "Attack03",
          "audioEvent": {
            "text": "Stop_sfx_char_Clorinde_1HSword_attack"
          },
          "otherStateNames": [
            "Attack04"
          ],
          "usage": "Except"
        },
        {
          "currentStateName": "Attack04",
          "audioEvent": {
            "text": "Stop_sfx_char_Clorinde_1HSword_attack"
          }
        },
        {
          "currentStateName": "Attack05",
          "audioEvent": {
            "text": "Stop_sfx_char_Clorinde_1HSword_attack"
          }
        },
        {
          "currentStateName": "Clorinde_ElementalArt_Dodge_AS",
          "audioEvent": {
            "text": "Stop_sfx_char_Clorinde_1HSword_ElementArt_ElementArtElementArt_Dodge_AS"
          }
        },
        {
          "currentStateName": "ExtraAttack",
          "audioEvent": {
            "text": "Stop_sfx_char_Clorinde_1HSword_ExtraAttack"
          },
          "otherStateNames": [
            "ExtraAttack_AS"
          ],
          "usage": "Except"
        },
        {
          "currentStateName": "ExtraAttack_AS",
          "audioEvent": {
            "text": "Stop_sfx_char_Clorinde_1HSword_ExtraAttack_AS"
          }
        },
        {
          "currentStateName": "WalkPutaway",
          "audioEvent": {
            "text": "Stop_sfx_weapon_1HSword_lady_putAwayStandby"
          }
        },
        {
          "currentStateName": "RunPutaway",
          "audioEvent": {
            "text": "Stop_sfx_weapon_1HSword_lady_putAwayStandby"
          }
        },
        {
          "currentStateName": "SwimJumpDrop",
          "audioEvent": {
            "text": "Stop_sfx_char_swim_drop"
          }
        },
        {
          "currentStateName": "SwimJump",
          "audioEvent": {
            "text": "Stop_sfx_char_swim_drop"
          },
          "otherStateNames": [
            "SwimJumpDrop"
          ],
          "usage": "Except"
        },
        {
          "currentStateName": "Fly",
          "audioEvent": {
            "text": "Play_sfx_char_land_climb"
          },
          "otherStateNames": [
            "ClimbIdle",
            "ClimbMove0",
            "ClimbMove1",
            "ClimbJump"
          ],
          "usage": "InSet"
        },
        {
          "currentStateName": "FlyStart",
          "audioEvent": {
            "text": "Play_sfx_char_land_climb"
          },
          "otherStateNames": [
            "ClimbIdle",
            "ClimbMove0",
            "ClimbMove1",
            "ClimbJump"
          ],
          "usage": "InSet"
        },
        {
          "currentStateName": "DropDownLit",
          "audioEvent": {
            "text": "Play_sfx_char_land_climb"
          },
          "otherStateNames": [
            "ClimbIdle",
            "ClimbMove0",
            "ClimbMove1",
            "ClimbJump"
          ],
          "usage": "InSet"
        },
        {
          "currentStateName": "DropDown",
          "audioEvent": {
            "text": "Play_sfx_char_land_climb"
          },
          "otherStateNames": [
            "ClimbIdle",
            "ClimbMove0",
            "ClimbMove1",
            "ClimbJump"
          ],
          "usage": "InSet"
        },
        {
          "currentStateName": "WalkDropDownLit",
          "audioEvent": {
            "text": "Play_sfx_char_land_climb"
          },
          "otherStateNames": [
            "ClimbIdle",
            "ClimbMove0",
            "ClimbMove1",
            "ClimbJump"
          ],
          "usage": "InSet"
        },
        {
          "currentStateName": "Jump",
          "audioEvent": {
            "text": "Play_sfx_char_land_climb"
          },
          "otherStateNames": [
            "ClimbIdle",
            "ClimbMove0",
            "ClimbMove1",
            "ClimbJump"
          ],
          "usage": "InSet"
        },
        {
          "currentStateName": "JumpForWalk",
          "audioEvent": {
            "text": "Play_sfx_char_land_climb"
          },
          "otherStateNames": [
            "ClimbIdle",
            "ClimbMove0",
            "ClimbMove1",
            "ClimbJump"
          ],
          "usage": "InSet"
        },
        {
          "currentStateName": "JumpForRun",
          "audioEvent": {
            "text": "Play_sfx_char_land_climb"
          },
          "otherStateNames": [
            "ClimbIdle",
            "ClimbMove0",
            "ClimbMove1",
            "ClimbJump"
          ],
          "usage": "InSet"
        },
        {
          "currentStateName": "JumpForSprint",
          "audioEvent": {
            "text": "Play_sfx_char_land_climb"
          },
          "otherStateNames": [
            "ClimbIdle",
            "ClimbMove0",
            "ClimbMove1",
            "ClimbJump"
          ],
          "usage": "InSet"
        },
        {
          "currentStateName": "JumpWeapon",
          "audioEvent": {
            "text": "Play_sfx_char_land_climb"
          },
          "otherStateNames": [
            "ClimbIdle",
            "ClimbMove0",
            "ClimbMove1",
            "ClimbJump"
          ],
          "usage": "InSet"
        },
        {
          "currentStateName": "JumpForWalkWeapon",
          "audioEvent": {
            "text": "Play_sfx_char_land_climb"
          },
          "otherStateNames": [
            "ClimbIdle",
            "ClimbMove0",
            "ClimbMove1",
            "ClimbJump"
          ],
          "usage": "InSet"
        },
        {
          "currentStateName": "JumpForRunWeapon",
          "audioEvent": {
            "text": "Play_sfx_char_land_climb"
          },
          "otherStateNames": [
            "ClimbIdle",
            "ClimbMove0",
            "ClimbMove1",
            "ClimbJump"
          ],
          "usage": "InSet"
        },
        {
          "currentStateName": "DropDownWeapon",
          "audioEvent": {
            "text": "Play_sfx_char_land_climb"
          },
          "otherStateNames": [
            "ClimbIdle",
            "ClimbMove0",
            "ClimbMove1",
            "ClimbJump"
          ],
          "usage": "InSet"
        },
        {
          "currentStateName": "DropDownLitWeapon",
          "audioEvent": {
            "text": "Play_sfx_char_land_climb"
          },
          "otherStateNames": [
            "ClimbIdle",
            "ClimbMove0",
            "ClimbMove1",
            "ClimbJump"
          ],
          "usage": "InSet"
        },
        {
          "currentStateName": "SwimMove",
          "audioEvent": {
            "text": "Stop_sfx_char_swim"
          }
        },
        {
          "currentStateName": "DiveDash",
          "audioEvent": {
            "text": "Stop_sfx_char_dive_dash_lp"
          },
          "otherStateNames": [
            "DiveDashB",
            "DiveTurn",
            "DiveTurn2"
          ],
          "usage": "Except"
        },
        {
          "currentStateName": "DiveStream",
          "audioEvent": {
            "text": "Stop_sfx_char_dive_stream_lp"
          },
          "otherStateNames": [
            "DiveStreamRoll_L",
            "DiveStreamRoll_R"
          ],
          "usage": "Except"
        },
        {
          "currentStateName": "DiveMoveAS",
          "audioEvent": {
            "text": "Stop_sfx_char_dive_move_AS"
          }
        },
        {
          "currentStateName": "Dive_Out_DashFLoop",
          "audioEvent": {
            "text": "Stop_sfx_char_dive_out_dashFLoop"
          }
        },
        {
          "currentStateName": "DiveIdle",
          "audioEvent": {
            "text": "Stop_sfx_char_dive_dash_lp"
          }
        },
        {
          "currentStateName": "Dive_Out_Up",
          "audioEvent": {
            "text": "Stop_sfx_char_dive_moveF_A"
          }
        },
        {
          "currentStateName": "DiveChannel_Loop",
          "audioEvent": {
            "text": "Stop_vfx_Avatar_Diving_Channel_LP"
          }
        },
        {
          "currentStateName": "DiveMoveU_A",
          "audioEvent": {
            "text": "Stop_sfx_char_dive_moveU_A"
          }
        },
        {
          "currentStateName": "DiveMoveF_A",
          "audioEvent": {
            "text": "Stop_sfx_char_dive_moveF_A"
          },
          "otherStateNames": [
            "DiveMoveF_B"
          ],
          "usage": "Except"
        }
      ],
      "recurrentSpeeches": {
        "Standby": {
          "start": {
            "upper": 28.0,
            "lower": 23.0
          },
          "interval": {
            "upper": 40.0,
            "lower": 34.0
          },
          "eventName": {
            "text": "Play_vo_char_explore_idle"
          }
        },
        "Walk": {
          "start": {
            "upper": 16.0,
            "lower": 13.0
          },
          "interval": {
            "upper": 14.0,
            "lower": 10.0
          },
          "eventName": {
            "text": ""
          }
        },
        "Run": {
          "start": {
            "upper": 13.0,
            "lower": 9.0
          },
          "interval": {
            "upper": 11.0,
            "lower": 8.0
          },
          "eventName": {
            "text": ""
          }
        },
        "Sprint": {
          "start": {
            "upper": 12.0,
            "lower": 7.0
          },
          "interval": {
            "upper": 9.0,
            "lower": 6.0
          },
          "eventName": {
            "text": ""
          }
        }
      }
    },
    "moveStateAudio": {
      "onStateBegin": [
        {
          "currentStateName": "Fly",
          "audioEvent": {
            "text": "Play_sfx_char_fly"
          }
        },
        {
          "currentStateName": "Air",
          "audioEvent": {
            "text": "Play_sfx_char_drop"
          },
          "otherStateNames": [
            "Fly"
          ],
          "usage": "InSet"
        },
        {
          "currentStateName": "Dive",
          "audioEvent": {
            "text": "Play_sfx_char_dive_move_swim_idle"
          },
          "otherStateNames": [
            "CombatDive"
          ],
          "usage": "Except"
        },
        {
          "currentStateName": "CombatDive",
          "audioEvent": {
            "text": "Play_sfx_char_dive_move_swim_idle"
          },
          "otherStateNames": [
            "Dive"
          ],
          "usage": "Except"
        }
      ],
      "onStateEnd": [
        {
          "currentStateName": "Fly",
          "audioEvent": {
            "text": "Stop_sfx_char_fly"
          }
        },
        {
          "currentStateName": "Air",
          "audioEvent": {
            "text": "Stop_sfx_char_drop"
          }
        },
        {
          "currentStateName": "Air",
          "audioEvent": {
            "text": "Stop_sfx_char_drop"
          },
          "otherStateNames": [
            "Fly"
          ],
          "usage": "InSet"
        },
        {
          "currentStateName": "Dive",
          "audioEvent": {
            "text": "Stop_sfx_char_dive_move_swim_idle"
          },
          "otherStateNames": [
            "CombatDive"
          ],
          "usage": "Except"
        },
        {
          "currentStateName": "CombatDive",
          "audioEvent": {
            "text": "Stop_sfx_char_dive_move_swim_idle"
          },
          "otherStateNames": [
            "Dive"
          ],
          "usage": "Except"
        }
      ]
    },
    "voiceSwitch": {
      "text": "Switch_Clorinde"
    },
    "bodyTypeSwitch": {
      "text": "Switch_Lady"
    },
    "listenerLiftup": 1.5,
    "surfaceProberLiftup": 1.5
  },
  "ONIAJBGGJHD": "AvatarLady",
  "perform": {
    "standby": {
      "minTime": 15.0,
      "maxTime": 25.0,
      "performIDs": [
        201,
        202,
        200,
        200
      ]
    }
  }
}