{
  "common": {
    "effectAttachShape": {
      "$type": "FJNPJANPGGC",
      "mesh": "EffectMesh"
    },
    "mass": 10.0
  },
  "stateLayers": {
    "defaultLayer": {
      "$type": "GBGJJIIEMBD",
      "layerIndexName": "",
      "CPAANEIJCGD": "",
      "stateIDs": {
        "MultiOverride": {
          "$type": "KBOPIKLCBOA",
          "INKINKDHODO": {
            "Ani_Avatar_Lady_Pole_Shougun_Photo01BS": [
              "PhotographPose_Photo01BS_Lady_Pole_Shougun"
            ],
            "Ani_Avatar_Lady_Pole_Shougun_Photo01Loop": [
              "PhotographPose_Photo01Loop_Lady_Pole_Shougun"
            ],
            "Ani_Avatar_Lady_Pole_Shougun_Photo01AS": [
              "PhotographPose_Photo01AS_Lady_Pole_Shougun"
            ],
            "Ani_Avatar_Lady_Pole_Shougun_Photo02BS": [],
            "Ani_Avatar_Lady_Pole_Shougun_Photo02Loop": [],
            "Ani_Avatar_Lady_Pole_Shougun_Photo02AS": []
          },
          "animatorTriggerOnLanded": ""
        }
      }
    }
  }
}