{
  "common": {
    "effectAttachShape": {
      "$type": "FJNPJANPGGC",
      "mesh": "EffectMesh"
    },
    "mass": 10.0
  },
  "stateLayers": {
    "defaultLayer": {
      "$type": "GBGJJIIEMBD",
      "layerIndexName": "",
      "CPAANEIJCGD": "",
      "stateIDs": {
        "MultiOverride": {
          "$type": "KBOPIKLCBOA",
          "INKINKDHODO": {
            "Ani_Avatar_Male_Sword_Ayato_Photo01BS": [],
            "Ani_Avatar_Male_Sword_Ayato_Photo01Loop": [],
            "Ani_Avatar_Male_Sword_Ayato_Photo01AS": [],
            "Ani_Avatar_Male_Sword_Ayato_Photo02BS": [
              "PhotographPose_Photo02BS_Male_Sword_Ayato"
            ],
            "Ani_Avatar_Male_Sword_Ayato_Photo02Loop": [
              "PhotographPose_Photo02Loop_Male_Sword_Ayato"
            ],
            "Ani_Avatar_Male_Sword_Ayato_Photo02AS": [
              "PhotographPose_Photo02AS_Male_Sword_Ayato"
            ]
          },
          "animatorTriggerOnLanded": ""
        }
      }
    }
  }
}