{
  "common": {
    "effectAttachShape": {
      "$type": "FJNPJANPGGC",
      "mesh": "EffectMesh"
    },
    "mass": 10.0
  },
  "headControl": {
    "$type": "KPIPDEBDPIH",
    "useHeadControl": true,
    "useWhiteAnimStates": false
  },
  "equipController": {
    "sheathPoint": "WeaponBackPut",
    "dissolveSheathFadeTime": 0.30000001192092896,
    "triggerToStates": [
      {
        "trigger": "Close",
        "floatID": ""
      },
      {
        "trigger": "Close",
        "states": [
          "ShowWeapon/ShowWeapon_AS"
        ],
        "floatID": ""
      },
      {
        "trigger": "Open",
        "states": [
          "ShowWeapon/ShowWeapon",
          "ShowWeapon_BS"
        ],
        "floatID": ""
      }
    ],
    "attachPoints": {
      "equip01": "WeaponR",
      "equip02": "WeaponL",
      "equip00": "WeaponBackPut"
    }
  },
  "stateLayers": {
    "defaultLayer": {
      "$type": "GBGJJIIEMBD",
      "layerIndexName": "",
      "CPAANEIJCGD": "",
      "stateIDs": {
        "TeamConfig_BS": {
          "$type": "KBOPIKLCBOA",
          "animatorStates": {
            "TeamConfig_BS": [
              "TeamConfig_BS_Lady_Catalyst_Ningguang",
              "Emo_Avatar_Ningguang_TeamConfig_01BS",
              "Audio_Lady_Catalyst_Ningguang_TeamConfig_BS_UI"
            ]
          },
          "animatorTriggerOnLanded": "",
          "sheatheOnStart": true
        },
        "TeamConfig": {
          "$type": "KBOPIKLCBOA",
          "animatorStates": {
            "TeamConfig_Loop": [
              "TeamConfig_Lady_Catalyst_Ningguang",
              "Emo_Avatar_Ningguang_TeamConfig_01Loop"
            ]
          },
          "animatorTriggerOnLanded": "",
          "sheatheOnStart": true
        },
        "TeamConfig_AS": {
          "$type": "KBOPIKLCBOA",
          "animatorStates": {
            "TeamConfig_AS": [
              "TeamConfig_AS_Lady_Catalyst_Ningguang",
              "Emo_Avatar_Ningguang_TeamConfig_01AS",
              "Audio_Lady_Catalyst_Ningguang_TeamConfig_AS_UI"
            ]
          },
          "setAnimatorBoolean": [
            {
              "name": "&GotoAnyState"
            }
          ],
          "animatorTriggerOnLanded": "",
          "sheatheOnStart": true
        },
        "ShowWeapon_BS": {
          "$type": "KBOPIKLCBOA",
          "animatorStates": {
            "ShowWeapon_BS": [
              "Lady_Catalyst_ShowWeapon_BS",
              "Emo_Avatar_Common_Lady_Catalyst_UI_ShowWeaponBS"
            ]
          },
          "setAnimatorBoolean": [
            {
              "name": "&GotoAnyState"
            }
          ],
          "animatorTriggerOnLanded": "",
          "sheatheOnStart": true
        },
        "ShowRelic_BS": {
          "$type": "KBOPIKLCBOA",
          "animatorStates": {
            "ShowRelic_BS": [
              "Emo_Avatar_Common_Manekin_RelicShowBS"
            ]
          },
          "setAnimatorBoolean": [
            {
              "name": "&GotoAnyState"
            }
          ],
          "animatorTriggerOnLanded": "",
          "sheatheOnStart": true
        },
        "ShowWeapon": {
          "$type": "KBOPIKLCBOA",
          "animatorStates": {
            "ShowWeapon": [
              "Emo_Avatar_Common_Lady_Catalyst_UI_ShowWeaponLoop"
            ],
            "ShowWeapon_AS": [
              "Lady_Catalyst_ShowWeapon_AS",
              "Emo_Avatar_Common_Lady_Catalyst_UI_ShowWeaponAS"
            ]
          },
          "animatorTriggerOnLanded": "",
          "battouOnStart": true
        },
        "ShowRelic": {
          "$type": "KBOPIKLCBOA",
          "animatorStates": {
            "ShowRelic": [
              "Emo_Avatar_Common_Manekin_RelicShowLoop"
            ],
            "ShowRelic_AS": [
              "Emo_Avatar_Common_Manekin_RelicShowAS"
            ]
          },
          "animatorTriggerOnLanded": "",
          "sheatheOnStart": true
        },
        "ShowCharacter": {
          "$type": "KBOPIKLCBOA",
          "animatorStates": {
            "ShowCharacter": [],
            "Show01": [
              "Manekin_Ningguang_Show01",
              "Audio_Lady_Ningguang_StandbyShow02_UI"
            ],
            "Show02": [
              "Manekin_Ningguang_Show02",
              "Audio_Lady_Ningguang_StandbyShow01_UI"
            ]
          },
          "setAnimatorBoolean": [
            {
              "name": "&GotoAnyState"
            }
          ],
          "animatorTriggerOnLanded": "",
          "sheatheOnStart": true
        },
        "Skill_BS": {
          "$type": "KBOPIKLCBOA",
          "animatorStates": {
            "Skill_BS": [
              "Emo_Avatar_NingGuang_UI_Talent_Think_01BS"
            ]
          },
          "setAnimatorBoolean": [
            {
              "name": "&GotoAnyState"
            }
          ],
          "animatorTriggerOnLanded": "",
          "sheatheOnStart": true
        },
        "Skill": {
          "$type": "KBOPIKLCBOA",
          "animatorStates": {
            "Skill": [
              "Emo_Avatar_NingGuang_UI_Talent_Think_01Loop"
            ]
          },
          "animatorTriggerOnLanded": ""
        },
        "Skill_AS": {
          "$type": "KBOPIKLCBOA",
          "animatorStates": {
            "Skill_AS": [
              "Emo_Avatar_NingGuang_UI_Talent_Think_01AS"
            ]
          },
          "animatorTriggerOnLanded": ""
        },
        "Story": {
          "$type": "KBOPIKLCBOA",
          "animatorStates": {
            "Story": []
          },
          "setAnimatorBoolean": [
            {
              "name": "&GotoAnyState"
            }
          ],
          "animatorTriggerOnLanded": "",
          "sheatheOnStart": true
        },
        "ShowFlycloak": {
          "$type": "KBOPIKLCBOA",
          "animatorStates": {
            "ShowFlycloak": []
          },
          "animatorTriggerOnLanded": "",
          "sheatheOnStart": true
        },
        "TrailEffect": {
          "$type": "KBOPIKLCBOA",
          "animatorStates": {
            "TrailEffect": []
          },
          "animatorTriggerOnLanded": "",
          "sheatheOnStart": true
        }
      }
    }
  },
  "audio": {
    "overrideEmitterName": "",
    "animAudio": {
      "onTransitionIn": [
        {
          "currentStateName": "ShowWeapon_BS",
          "audioEvent": {
            "text": "Play_ui_menu_weapon_show_ningguang"
          }
        },
        {
          "currentStateName": "ShowRelic_BS",
          "audioEvent": {
            "text": "Play_ui_menu_relic_show"
          }
        },
        {
          "currentStateName": "TrailEffect",
          "audioEvent": {
            "text": "Play_ui_menu_char_effectTrail"
          }
        }
      ],
      "onTransitionOut": [
        {
          "currentStateName": "ShowWeapon_BS",
          "audioEvent": {
            "text": "Stop_ui_menu_weapon_show_putAway_appear_long"
          }
        },
        {
          "currentStateName": "ShowWeapon",
          "audioEvent": {
            "text": "Play_ui_menu_weapon_show_foley_catalyst_close"
          }
        },
        {
          "currentStateName": "Show01",
          "audioEvent": {
            "text": "Stop_ui_standbyShow_ningguang_smoke_appear"
          }
        },
        {
          "currentStateName": "Show02",
          "audioEvent": {
            "text": "Stop_ui_standbyShow_ningguang_stone"
          }
        },
        {
          "currentStateName": "TrailEffect",
          "audioEvent": {
            "text": "Stop_ui_menu_char_effectTrail"
          }
        },
        {
          "currentStateName": "TeamConfig_BS",
          "audioEvent": {
            "text": "Stop_ui_menu_char_teamConfig_show"
          },
          "otherStateNames": [
            "TeamConfig_Loop"
          ],
          "usage": "Except"
        },
        {
          "currentStateName": "TeamConfig_Loop",
          "audioEvent": {
            "text": "Stop_ui_menu_char_teamConfig_show"
          }
        }
      ]
    },
    "disableEvent": {
      "text": "Stop_ui_standbyShow_ningguang_stone"
    },
    "destroyEvent": {
      "text": "Stop_ui_standbyShow_ningguang_stone"
    },
    "listenerLiftup": 1.5,
    "surfaceProberLiftup": 1.5
  }
}