{
  "common": {
    "effectAttachShape": {
      "$type": "FJNPJANPGGC",
      "mesh": "EffectMesh"
    },
    "mass": 10.0,
    "height": 1.3540000915527344,
    "modelHeight": 1.340000033378601,
    "affectedByWorld": true,
    "checkInSurface": true
  },
  "headControl": {
    "$type": "KPIPDEBDPIH",
    "useHeadControl": true,
    "animStates": [
      "NormalStandby",
      "NormalMove/WalkToRun",
      "NormalMove/Walk",
      "NormalMove/RunToWalk",
      "NormalMove/Run",
      "NormalMove/RunToIdle",
      "NormalMove/WalkToIdle",
      "NormalMove/RunningTurn",
      "NormalMove/SprintToRun",
      "NormalMove/SprintToIdle",
      "Sprint",
      "Climb/ClimbIdle",
      "Ladder/LadderIdle",
      "Swim/SwimIdle",
      "NormalStandbyWeapon",
      "NormalMoveWeapon/WalkToRunWeapon",
      "NormalMoveWeapon/WalkWeapon",
      "NormalMoveWeapon/RunToWalkWeapon",
      "NormalMoveWeapon/RunWeapon",
      "NormalMoveWeapon/RunToIdleWeapon",
      "NormalMoveWeapon/WalkToIdleWeapon",
      "NormalMoveWeapon/RunningTurnWeapon"
    ]
  },
  "specialPoint": {
    "elementAbsorb": "PRIVATE_Pendant",
    "elementPendant": "PRIVATE_Pendant",
    "elementDrop": "RootNode",
    "bulletAim": "RootNode"
  },
  "combat": {
    "property": {
      "endureType": "Avatar_Bow",
      "weight": 75.0
    },
    "beHit": {
      "hitBloodEffect": ""
    },
    "combatLock": {
      "lockShape": "CircleLockEnemyClose",
      "lockWeightYaxisParam": 0.20000000298023224,
      "lockWeightYaxisThreshold": 4.0,
      "lockType": "Avatar&Monster_Lv4"
    },
    "die": {
      "hasAnimatorDie": true,
      "dieEndTime": 1.5,
      "dieForceDisappearTime": 2.5,
      "dieDisappearEffect": "Eff_Death_Avatar_Common",
      "dieShaderData": "AvatarDie",
      "useRagDoll": true,
      "ragDollDieEndTimeDelay": 0.4000000059604645
    },
    "animEvents": {
      "ATK01": {
        "attackPattern": {
          "$type": "GMDIMKKHACA",
          "triggerType": "TriggerNoRepeat",
          "born": {
            "$type": "IAENDIPDFKD",
            "offset": {
              "KGEPIMHBMOL": 0.0,
              "JEBHCGDPFEJ": -0.20000000298023224,
              "LPCHALMFFOD": 1.0
            }
          },
          "height": 1.600000023841858,
          "fanAngle": 0.0,
          "OAHPDLJIADP": 2.0,
          "detectDirection": "Counterclockwise"
        },
        "attackInfo": {
          "attackTag": "NormalAttack_01",
          "attenuationTag": "",
          "attenuationGroup": "default",
          "attackProperty": {
            "actorGrassSubHurtDelta": 0.9100000262260437,
            "actorWindSubHurtDelta": 0.0,
            "IPFJJJGABPL": 10.0,
            "overrideByWeapon": true,
            "strikeType": "Blunt",
            "enBreak": 18.354000091552734,
            "attackType": "Melee",
            "GLKMCMDJBIK": 0.0
          },
          "hitPattern": {
            "onHitEffectName": "default",
            "hitImpulseY": "",
            "hitLevel": "Heavy",
            "IMIJMPGJOGG": 200.0,
            "BPCDKKBKOBM": 0.0,
            "hitImpulseType": "",
            "hitHaltTime": 0.10000000149011612,
            "hitHaltTimeScale": 0.009999999776482582,
            "canBeDefenceHalt": true
          },
          "cameraShake": {
            "shakeType": "CustomVector",
            "shakeRange": 0.23999999463558197,
            "shakeTime": 0.11999999731779099,
            "shakeDistance": 30.0,
            "shakeDir": {
              "x": 1.0,
              "y": 0.30000001192092896
            }
          }
        }
      }
    }
  },
  "equipController": {
    "sheathPoint": "WeaponBackPut",
    "dissolveSheathFadeDelay": 0.07500000298023224,
    "dissolveSheathFadeTime": 2.0999999046325684,
    "triggerToStates": [
      {
        "trigger": "Idle",
        "floatID": ""
      },
      {
        "trigger": "Attack",
        "playTime": 0.5,
        "states": [
          "Shoot/Attack01"
        ],
        "bowDrawTimes": [
          {
            "bowDrawEndNormTime": 0.05999999865889549,
            "bowStringOverridePoint": ""
          }
        ],
        "floatID": ""
      },
      {
        "trigger": "Attack",
        "playTime": 0.5,
        "states": [
          "Flask_Short/Flask_Short"
        ],
        "bowDrawTimes": [
          {
            "bowDrawEndNormTime": 0.13500000536441803,
            "bowStringOverridePoint": ""
          }
        ],
        "floatID": ""
      },
      {
        "trigger": "Attack",
        "playTime": 0.5,
        "states": [
          "Flask_Long/Flask_Long"
        ],
        "bowDrawTimes": [
          {
            "bowStringOverridePoint": ""
          }
        ],
        "floatID": ""
      },
      {
        "trigger": "AimAttack",
        "states": [
          "AimShoot"
        ],
        "bowDrawTimes": [
          {
            "bowDrawStartNormTime": 0.5199999809265137,
            "bowStringOverridePoint": ""
          }
        ],
        "floatID": ""
      },
      {
        "trigger": "AimLoop",
        "states": [
          "Aim/AimLoop"
        ],
        "bowDrawTimes": [
          {
            "bowStringOverridePoint": ""
          }
        ],
        "floatID": ""
      },
      {
        "trigger": "AimLoop",
        "states": [
          "FastAim/FastAimLoop"
        ],
        "bowDrawTimes": [
          {
            "bowStringOverridePoint": ""
          }
        ],
        "floatID": ""
      },
      {
        "trigger": "AimLoop",
        "playTime": 0.5,
        "states": [
          "Hurricane_BS"
        ],
        "bowDrawTimes": [
          {
            "bowDrawStartNormTime": 0.44999998807907104,
            "bowDrawEndNormTime": 0.9900000095367432,
            "bowStringOverridePoint": ""
          }
        ],
        "floatID": ""
      }
    ],
    "attachPoints": {
      "equip01": "WeaponR",
      "equip02": "WeaponL",
      "equip03": "WeaponL"
    }
  },
  "abilities": [
    {
      "abilityID": "Avatar_Sigewinne_ShootAimingArrow_Charge",
      "abilityName": "Avatar_Sigewinne_ShootAimingArrow_Charge",
      "abilityOverride": ""
    },
    {
      "abilityID": "Avatar_Sigewinne_PressShoot",
      "abilityName": "Avatar_Sigewinne_PressShoot",
      "abilityOverride": ""
    },
    {
      "abilityID": "Avatar_Sigewinne_Arrow_FX",
      "abilityName": "Avatar_Sigewinne_Arrow_FX",
      "abilityOverride": ""
    },
    {
      "abilityID": "Avatar_Sigewinne_ShootArrow_Aiming",
      "abilityName": "Avatar_Sigewinne_ShootArrow_Aiming",
      "abilityOverride": ""
    },
    {
      "abilityID": "Avatar_Sigewinne_AimPressShoot",
      "abilityName": "Avatar_Sigewinne_AimPressShoot",
      "abilityOverride": ""
    },
    {
      "abilityID": "Avatar_Sigewinne_ShootArrow_01",
      "abilityName": "Avatar_Sigewinne_ShootArrow_01",
      "abilityOverride": ""
    },
    {
      "abilityID": "Avatar_Sigewinne_ShootArrow_02",
      "abilityName": "Avatar_Sigewinne_ShootArrow_02",
      "abilityOverride": ""
    },
    {
      "abilityID": "Avatar_Sigewinne_ShootArrow_03",
      "abilityName": "Avatar_Sigewinne_ShootArrow_03",
      "abilityOverride": ""
    },
    {
      "abilityID": "Avatar_Sigewinne_ElementalArt",
      "abilityName": "Avatar_Sigewinne_ElementalArt",
      "abilityOverride": ""
    },
    {
      "abilityID": "Avatar_Sigewinne_EArt_Heal_Other",
      "abilityName": "Avatar_Sigewinne_EArt_Heal_Other",
      "abilityOverride": ""
    },
    {
      "abilityID": "Avatar_Sigewinne_EArt_Heal_Self",
      "abilityName": "Avatar_Sigewinne_EArt_Heal_Self",
      "abilityOverride": ""
    },
    {
      "abilityID": "Avatar_Sigewinne_ElementalArt_Core_Trigger_OnAvatar",
      "abilityName": "Avatar_Sigewinne_ElementalArt_Core_Trigger_OnAvatar",
      "abilityOverride": ""
    },
    {
      "abilityID": "Avatar_Sigewinne_ElementalArt_Shoot_Short",
      "abilityName": "Avatar_Sigewinne_ElementalArt_Shoot_Short",
      "abilityOverride": ""
    },
    {
      "abilityID": "Avatar_Sigewinne_ElementalArt_Shoot_Hold",
      "abilityName": "Avatar_Sigewinne_ElementalArt_Shoot_Hold",
      "abilityOverride": ""
    },
    {
      "abilityID": "Avatar_Sigewinne_ElementalArt_Pneuma",
      "abilityName": "Avatar_Sigewinne_ElementalArt_Pneuma",
      "abilityOverride": ""
    },
    {
      "abilityID": "Avatar_Sigewinne_ElementalBurst",
      "abilityName": "Avatar_Sigewinne_ElementalBurst",
      "abilityOverride": ""
    },
    {
      "abilityID": "Avatar_Sigewinne_PermanentSkill_2",
      "abilityName": "Avatar_Sigewinne_PermanentSkill_2",
      "abilityOverride": ""
    },
    {
      "abilityID": "Avatar_Sigewinne_ShootArrow_Damage",
      "abilityName": "Avatar_Sigewinne_ShootArrow_Damage",
      "abilityOverride": ""
    },
    {
      "abilityID": "Avatar_Sigewinne_FallingAnthem",
      "abilityName": "Avatar_Sigewinne_FallingAnthem",
      "abilityOverride": ""
    },
    {
      "abilityID": "Avatar_Sigewinne_ElementalArt_Core_Add_Debts",
      "abilityName": "Avatar_Sigewinne_ElementalArt_Core_Add_Debts",
      "abilityOverride": ""
    },
    {
      "abilityID": "Avatar_Sigewinne_EArt_Elemball_Driver",
      "abilityName": "Avatar_Sigewinne_EArt_Elemball_Driver",
      "abilityOverride": ""
    }
  ],
  "stateLayers": {
    "defaultLayer": {
      "$type": "GBGJJIIEMBD",
      "layerIndexName": "",
      "CPAANEIJCGD": "",
      "stateIDs": {
        "NormalStandby": {
          "$type": "KBOPIKLCBOA",
          "animatorStates": {
            "Standby": [
              "Avatar_ResetFreeStyle"
            ]
          },
          "canDoSkill": true,
          "massRatio": 100.0,
          "setAnimatorBoolean": [
            {
              "name": "&CanUseSkill"
            }
          ],
          "canChangeAvatar": [
            {}
          ],
          "animatorTriggerOnLanded": "",
          "sheatheOnStart": true
        },
        "NormalMove": {
          "$type": "KBOPIKLCBOA",
          "animatorStates": {
            "ShowUp": [
              "Audio_Loli_Showup"
            ],
            "WalkToRun": [
              "Audio_Loli_WalkToRun"
            ],
            "Walk": [
              "Ani_WalkSprint01",
              "Audio_Loli_Walk",
              "WalkStepOnWater"
            ],
            "RunToWalk": [
              "Audio_Loli_RunToWalk"
            ],
            "Run": [
              "Ani_Run01",
              "Audio_Loli_Run"
            ],
            "RunToIdle": [
              "Audio_Loli_RunToIdle"
            ],
            "WalkToIdle": [
              "Audio_Loli_WalkToIdle"
            ],
            "RunningTurn": [],
            "SprintToRun": [
              "Audio_Loli_SprintToRun"
            ],
            "SprintToIdle": [
              "Audio_Loli_SprintToIdle",
              "Emo_Loli_Sprint_AS"
            ],
            "FallOnGround": [
              "Audio_Loli_FallOnGround"
            ],
            "FallOnGroundLit": [
              "Audio_Loli_FallOnGroundLit"
            ],
            "FallToGroundRun": [
              "Audio_Loli_FallToGroundRun"
            ],
            "FallToGroundRunHard": [
              "Audio_Loli_FallToGroundRunHard"
            ],
            "FallToGroundSprint": [
              "Audio_Loli_FallToGroundSprint"
            ]
          },
          "canDoSkill": true,
          "massRatio": 1.0,
          "setAnimatorBoolean": [
            {
              "name": "&CanUseSkill"
            }
          ],
          "canChangeAvatar": [
            {}
          ],
          "animatorTriggerOnLanded": "",
          "sheatheOnStart": true
        },
        "SprintBS": {
          "$type": "KBOPIKLCBOA",
          "animatorStates": {
            "SprintBS": [
              "Audio_Loli_RunToSprint",
              "SprintBS_Invincible",
              "Emo_Loli_Sprint_BS"
            ]
          },
          "canDoSkill": true,
          "resetAnimatorTriggerOnEnter": [
            "DoSkill",
            "AimEnd"
          ],
          "setAnimatorBoolean": [
            {
              "name": "&CanUseSkill",
              "normalizeStart": 0.25999999046325684
            }
          ],
          "canChangeAvatar": [
            {
              "normalizeStart": 0.25999999046325684
            }
          ],
          "animatorTriggerOnLanded": "",
          "sheatheOnStart": true
        },
        "Sprint": {
          "$type": "KBOPIKLCBOA",
          "animatorStates": {
            "Sprint": [
              "Ani_WalkSprint01",
              "Audio_Loli_Sprint",
              "Emo_Loli_Sprint_Loop"
            ]
          },
          "canDoSkill": true,
          "massRatio": 1.0,
          "setAnimatorBoolean": [
            {
              "name": "&CanUseSkill"
            }
          ],
          "canChangeAvatar": [
            {}
          ],
          "animatorTriggerOnLanded": "",
          "sheatheOnStart": true
        },
        "SkiffNormal": {
          "$type": "KBOPIKLCBOA",
          "animatorStates": {
            "SkiffNormal": []
          },
          "massRatio": 100.0,
          "resetAnimatorTriggerOnExit": [
            "BeHit",
            "DoSkill",
            "Jump"
          ],
          "animatorTriggerOnLanded": "",
          "sheatheOnStart": true
        },
        "Climb": {
          "$type": "KBOPIKLCBOA",
          "animatorStates": {
            "ClimbMove0": [
              "ClimbStep",
              "Audio_Loli_Climb",
              "Audio_Lady_Sword_Sigewinne_ClimbMove0"
            ],
            "ClimbMove1": [
              "ClimbStep",
              "Audio_Loli_Climb"
            ],
            "ClimbIdle": [],
            "ClimbJump": [
              "Audio_Loli_ClimbDash"
            ],
            "JumpUpWallForStandby": [
              "Audio_Loli_JumpUpWallStandby"
            ],
            "Standby2ClimbB": [
              "Audio_Loli_Standby2ClimbB"
            ]
          },
          "resetAnimatorTriggerOnEnter": [
            "DoSkill"
          ],
          "actionPanelState": "Climb",
          "animatorTriggerOnLanded": "",
          "sheatheOnStart": true
        },
        "ClimbTransient": {
          "$type": "KBOPIKLCBOA",
          "animatorStates": {
            "JumpWallReady": [],
            "Standby2ClimbA": [
              "Audio_Loli_Standby2ClimbA"
            ]
          },
          "resetAnimatorTriggerOnEnter": [
            "DoSkill"
          ],
          "animatorTriggerOnLanded": "",
          "sheatheOnStart": true
        },
        "Upstairs": {
          "$type": "KBOPIKLCBOA",
          "animatorStates": {
            "Upstairs": [
              "Audio_Loli_Upstairs"
            ]
          },
          "resetAnimatorTriggerOnEnter": [
            "DoSkill"
          ],
          "setAnimatorBoolean": [
            {
              "name": "&CanUseSkill"
            }
          ],
          "animatorTriggerOnLanded": "",
          "sheatheOnStart": true
        },
        "Slip": {
          "$type": "KBOPIKLCBOA",
          "animatorStates": {
            "SlipFaceWall": [],
            "SlipBackWall": []
          },
          "resetAnimatorTriggerOnEnter": [
            "DoSkill"
          ],
          "animatorTriggerOnLanded": "",
          "sheatheOnStart": true
        },
        "Swim": {
          "$type": "KBOPIKLCBOA",
          "animatorStates": {
            "SwimIdle": [
              "Audio_Loli_SwimIdle"
            ],
            "SwimMove": [
              "Ani_Walk01",
              "SwimStep",
              "Audio_Loli_SwimMove",
              "Avatar_Loli_SwimDash_Hand_Effect"
            ],
            "SwimDash": [
              "Audio_Loli_SwimDash",
              "Avatar_Loli_SwimDash_Hand_Effect"
            ],
            "SwimJumpToWater": [
              "Audio_Loli_SwimJumpToWater"
            ]
          },
          "resetAnimatorTriggerOnEnter": [
            "DoSkill"
          ],
          "actionPanelState": "Swim",
          "animatorTriggerOnLanded": "",
          "sheatheOnStart": true
        },
        "Fly": {
          "$type": "KBOPIKLCBOA",
          "animatorStates": {
            "Fly": [
              "Audio_Loli_Fly"
            ],
            "FlyStart": [
              "Audio_Loli_FlyStart",
              "FlyStart_Weapon"
            ]
          },
          "canDoSkill": true,
          "resetAnimatorTriggerOnEnter": [
            "DoSkill"
          ],
          "setAnimatorBoolean": [
            {
              "name": "&CanUseAirSkill"
            }
          ],
          "actionPanelState": "Fly",
          "animatorTriggerOnLanded": "",
          "sheatheOnStart": true
        },
        "Jump": {
          "$type": "KBOPIKLCBOA",
          "animatorStates": {
            "Jump": [
              "Audio_Loli_Jump"
            ],
            "JumpForRun": [
              "Audio_Loli_Jump"
            ],
            "JumpForWalk": [
              "Audio_Loli_Jump"
            ],
            "JumpForSprint": [
              "Audio_Loli_Jump"
            ]
          },
          "canDoSkill": true,
          "resetAnimatorTriggerOnEnter": [
            "DoSkill",
            "AimEnd"
          ],
          "setAnimatorBoolean": [
            {
              "name": "&CanUseAirSkill"
            }
          ],
          "actionPanelState": "Jump",
          "animatorTriggerOnLanded": "",
          "sheatheOnStart": true
        },
        "Fall": {
          "$type": "KBOPIKLCBOA",
          "animatorStates": {
            "JumpOffWall": [
              "Audio_Loli_Jump"
            ],
            "SwimJump": [
              "Audio_Loli_SwimJump"
            ],
            "SwimJumpDrop": [],
            "DropDown": [
              "Audio_Loli_DropDown"
            ],
            "DropDownLit": [],
            "WalkDropDownLit": []
          },
          "canDoSkill": true,
          "resetAnimatorTriggerOnEnter": [
            "DoSkill"
          ],
          "setAnimatorBoolean": [
            {
              "name": "&CanUseAirSkill"
            }
          ],
          "animatorTriggerOnLanded": "",
          "sheatheOnStart": true
        },
        "NormalStandbyWeapon": {
          "$type": "KBOPIKLCBOA",
          "animatorStates": {
            "StandbyWeapon": []
          },
          "canDoSkill": true,
          "massRatio": 100.0,
          "setAnimatorBoolean": [
            {
              "name": "&CanUseSkill"
            }
          ],
          "canChangeAvatar": [
            {}
          ],
          "animatorTriggerOnLanded": "",
          "battouOnStart": true
        },
        "NormalMoveWeapon": {
          "$type": "KBOPIKLCBOA",
          "animatorStates": {
            "WalkToRunWeapon": [
              "Loli_Sword_Putaway_RunBS",
              "Audio_Loli_WalkToRun"
            ],
            "WalkWeapon": [
              "Audio_Loli_Walk"
            ],
            "RunToWalkWeapon": [
              "Audio_Loli_RunToWalk"
            ],
            "RunWeapon": [
              "Audio_Loli_Run"
            ],
            "RunToIdleWeapon": [],
            "WalkToIdleWeapon": [],
            "RunningTurnWeapon": [],
            "FallOnGroundWeapon": [
              "Audio_Loli_FallOnGround"
            ],
            "FallOnGroundLitWeapon": [
              "Audio_Loli_FallOnGroundLit"
            ],
            "FallOnGroundMiddleWeapon": [
              "Audio_Loli_FallOnGroundMiddle"
            ],
            "FallToGroundRunWeapon": [
              "Audio_Loli_FallToGroundRun"
            ],
            "FallToGroundRunHardWeapon": [
              "Audio_Loli_FallToGroundRunHard"
            ]
          },
          "canDoSkill": true,
          "massRatio": 2.0,
          "setAnimatorBoolean": [
            {
              "name": "&CanUseSkill"
            }
          ],
          "canChangeAvatar": [
            {}
          ],
          "animatorTriggerOnLanded": "",
          "battouOnStart": true
        },
        "NormalMoveWeaponPutaway": {
          "$type": "KBOPIKLCBOA",
          "animatorStates": {
            "StandbyPutaway": [
              "Loli_Bow_Putaway_Standby",
              "Audio_Loli_Bow_Diona_StandbyPutaway"
            ],
            "WalkPutaway": [
              "Loli_Sword_Putaway_Walk",
              "Audio_Loli_Sword_WalkPutAway"
            ],
            "RunPutaway": [
              "Loli_Sword_Putaway_Run",
              "Audio_Loli_Sword_RunPutAway"
            ],
            "RunToSprintWeapon": [
              "Loli_Sword_Putaway_Sprint",
              "Audio_Loli_Sword_RunToSprintWeapon"
            ]
          },
          "canDoSkill": true,
          "massRatio": 2.0,
          "setAnimatorBoolean": [
            {
              "name": "&CanUseSkill"
            }
          ],
          "canChangeAvatar": [
            {}
          ],
          "animatorTriggerOnLanded": "",
          "battouOnStart": true
        },
        "NormalMoveWeaponOver": {
          "$type": "KBOPIKLCBOA",
          "animatorStates": {
            "StandbyPutawayOver": [],
            "WalkPutawayOver": [
              "Audio_Loli_Sword_WalkPutAwayOver"
            ],
            "RunPutawayOver": [
              "Audio_Loli_Sword_RunPutAwayOver"
            ],
            "RunToSprintWeaponOver": [
              "Audio_Loli_Sword_RunToSprintWeaponOver"
            ]
          },
          "canDoSkill": true,
          "massRatio": 2.0,
          "setAnimatorBoolean": [
            {
              "name": "&CanUseSkill"
            }
          ],
          "canChangeAvatar": [
            {}
          ],
          "animatorTriggerOnLanded": "",
          "sheatheOnStart": true
        },
        "JumpWeapon": {
          "$type": "KBOPIKLCBOA",
          "animatorStates": {
            "JumpWeapon": [
              "Audio_Loli_Jump"
            ],
            "JumpForRunWeapon": [
              "Audio_Loli_Jump"
            ],
            "JumpForWalkWeapon": [
              "Audio_Loli_Jump"
            ]
          },
          "canDoSkill": true,
          "resetAnimatorTriggerOnEnter": [
            "DoSkill"
          ],
          "setAnimatorBoolean": [
            {
              "name": "&CanUseAirSkill"
            }
          ],
          "canChangeAvatar": [
            {}
          ],
          "actionPanelState": "Jump",
          "animatorTriggerOnLanded": "",
          "battouOnStart": true
        },
        "FallWeapon": {
          "$type": "KBOPIKLCBOA",
          "animatorStates": {
            "DropDownWeapon": [
              "Audio_Loli_DropDown"
            ],
            "DropDownLitWeapon": [],
            "WalkDropDownLitWeapon": []
          },
          "canDoSkill": true,
          "resetAnimatorTriggerOnEnter": [
            "DoSkill"
          ],
          "setAnimatorBoolean": [
            {
              "name": "&CanUseAirSkill"
            }
          ],
          "animatorTriggerOnLanded": "",
          "battouOnStart": true
        },
        "BeHit": {
          "$type": "KBOPIKLCBOA",
          "animatorStates": {
            "Hit_L": [
              "Audio_Loli_Hit_L"
            ],
            "Hit_H": [
              "Audio_Loli_Hit_H"
            ]
          },
          "MOKBIKEEHMJ": "combatMove",
          "resetAnimatorTriggerOnEnter": [
            "BeHit",
            "HitAir2HitDrop"
          ],
          "resetAnimatorTriggerOnExit": [
            "DoSkill"
          ],
          "cameraType": "combatBeHit",
          "jumpCancelEnd": 0.0,
          "animatorTriggerOnLanded": "",
          "battouOnStart": true
        },
        "HitThrow": {
          "$type": "KBOPIKLCBOA",
          "animatorStates": {
            "Hit_Throw_Ground": [
              "BeHitAir_Weapon",
              "Audio_Loli_HitThrowGround"
            ]
          },
          "MOKBIKEEHMJ": "combatMove",
          "resetAnimatorTriggerOnEnter": [
            "BeHit",
            "HitAir2HitDrop"
          ],
          "resetAnimatorTriggerOnExit": [
            "DoSkill"
          ],
          "cameraType": "combatBeHit",
          "jumpCancelEnd": 0.0,
          "animatorTriggerOnLanded": "",
          "sheatheOnStart": true
        },
        "BeHitAir": {
          "$type": "KBOPIKLCBOA",
          "animatorStates": {
            "Hit_Throw": [
              "Audio_Loli_Hit_Throw",
              "BeHitAir_Weapon"
            ],
            "Hit_ThrowAir": [
              "Audio_Loli_Hit_ThrowAir",
              "BeHitAir_Weapon"
            ],
            "Struggle": [
              "BeHitAir_Weapon"
            ]
          },
          "MOKBIKEEHMJ": "combatAir",
          "resetAnimatorTriggerOnEnter": [
            "BeHit"
          ],
          "resetAnimatorTriggerOnExit": [
            "DoSkill"
          ],
          "cameraType": "combatBeHit",
          "actionPanelState": "CombatAir",
          "jumpCancelEnd": 0.0,
          "animatorTriggerOnLanded": "",
          "sheatheOnStart": true
        },
        "Die": {
          "$type": "KBOPIKLCBOA",
          "animatorStates": {
            "DiveDie": [
              "Die",
              "Audio_Loli_Dive_Die"
            ],
            "FallDie": [
              "Audio_Loli_Death"
            ],
            "NormalDie": [
              "Die",
              "Audio_Loli_Death"
            ],
            "SwimDie": [
              "Swim_Die",
              "Audio_Loli_SwimDie"
            ],
            "HitGroundDie": [
              "Die",
              "Audio_Loli_Death"
            ]
          },
          "animatorTriggerOnLanded": ""
        },
        "Die_RagDoll": {
          "$type": "KBOPIKLCBOA",
          "animatorStates": {
            "FallDie_AS": []
          },
          "enableRagDoll": true,
          "animatorTriggerOnLanded": ""
        },
        "ShootBS": {
          "$type": "KBOPIKLCBOA",
          "animatorStates": {
            "ShootStandbyBS": [
              "Emo_Avatar_Sigewinne_Fight_AimBS"
            ],
            "ShootRunBS": [
              "Emo_Avatar_Sigewinne_Fight_AimBS"
            ]
          },
          "MOKBIKEEHMJ": "combatMove",
          "canDoSkill": true,
          "resetAnimatorTriggerOnExit": [
            "BeHit",
            "DoSkill",
            "Jump",
            "AimEnd"
          ],
          "setAnimatorBoolean": [
            {
              "name": "&CanCancelSkill"
            }
          ],
          "canChangeAvatar": [
            {}
          ],
          "animatorTriggerOnLanded": "",
          "battouOnStart": true
        },
        "Shoot": {
          "$type": "KBOPIKLCBOA",
          "animatorStates": {
            "Attack01": [
              "Sigewinne_Attack01",
              "Interaction_Bad",
              "Audio_char_Sigewinne_Attack01"
            ]
          },
          "MOKBIKEEHMJ": "combatMove",
          "canDoSkill": true,
          "resetAnimatorTriggerOnExit": [
            "BeHit",
            "DoSkill",
            "Jump"
          ],
          "setAnimatorBoolean": [
            {
              "name": "&CanCancelSkill"
            }
          ],
          "cameraType": "combatNormal",
          "cameraParam": {
            "radiusSpringRatio": 2.0
          },
          "canChangeAvatar": [
            {}
          ],
          "animatorTriggerOnLanded": "",
          "battouOnStart": true
        },
        "Shoot_02": {
          "$type": "KBOPIKLCBOA",
          "animatorStates": {
            "Attack02": [
              "Sigewinne_Attack02",
              "Interaction_Bad",
              "Audio_char_Sigewinne_Attack02"
            ]
          },
          "MOKBIKEEHMJ": "combatMove",
          "canDoSkill": true,
          "resetAnimatorTriggerOnExit": [
            "BeHit",
            "DoSkill",
            "Jump"
          ],
          "setAnimatorBoolean": [
            {
              "name": "&CanCancelSkill"
            }
          ],
          "cameraType": "combatNormal",
          "cameraParam": {
            "radiusSpringRatio": 2.0
          },
          "canChangeAvatar": [
            {}
          ],
          "animatorTriggerOnLanded": "",
          "battouOnStart": true,
          "sheatheOnEnd": true
        },
        "Shoot_03": {
          "$type": "KBOPIKLCBOA",
          "animatorStates": {
            "Attack03": [
              "Sigewinne_Attack03",
              "Interaction_Bad",
              "Audio_char_Sigewinne_Attack03"
            ]
          },
          "MOKBIKEEHMJ": "combatMove",
          "canDoSkill": true,
          "resetAnimatorTriggerOnExit": [
            "BeHit",
            "DoSkill",
            "Jump"
          ],
          "setAnimatorBoolean": [
            {
              "name": "&CanCancelSkill"
            }
          ],
          "cameraType": "combatNormal",
          "cameraParam": {
            "radiusSpringRatio": 2.0
          },
          "canChangeAvatar": [
            {}
          ],
          "animatorTriggerOnLanded": "",
          "battouOnStart": true,
          "sheatheOnEnd": true
        },
        "Aim": {
          "$type": "KBOPIKLCBOA",
          "priority": -2,
          "animatorStates": {
            "AimLoop": [
              "Emo_Avatar_Sigewinne_Fight_Aim",
              "Audio_Loli_Crossbow_Sigewinne_Aim_Loop"
            ]
          },
          "MOKBIKEEHMJ": "combatMove",
          "canDoSkill": true,
          "resetAnimatorTriggerOnExit": [
            "BeHit",
            "DoSkill",
            "Jump"
          ],
          "needFaceToAnimParam": true,
          "actionPanelState": "Aim",
          "animatorTriggerOnLanded": "",
          "battouOnStart": true
        },
        "FastAim": {
          "$type": "KBOPIKLCBOA",
          "priority": -2,
          "animatorStates": {
            "FastAimLoop": [
              "Emo_Avatar_Sigewinne_Fight_Aim",
              "Audio_Loli_Crossbow_Sigewinne_Aim_Loop"
            ]
          },
          "MOKBIKEEHMJ": "combatMove",
          "canDoSkill": true,
          "resetAnimatorTriggerOnExit": [
            "BeHit",
            "DoSkill",
            "Jump"
          ],
          "needFaceToAnimParam": true,
          "actionPanelState": "FastAim",
          "animatorTriggerOnLanded": "",
          "battouOnStart": true
        },
        "Sigewinne_ElementalArt_BS": {
          "$type": "KBOPIKLCBOA",
          "animatorStates": {
            "Sigewinne_ElementalArt_BS": [
              "Sigewinne_ElementalArt_BS",
              "Interaction_Bad"
            ]
          },
          "MOKBIKEEHMJ": "combatMove",
          "addEndure": 0.6000000238418579,
          "resetAnimatorTriggerOnExit": [
            "BeHit"
          ],
          "jumpCancelEnd": -1.0,
          "sprintCancelEnd": -1.0,
          "animatorTriggerOnLanded": "",
          "battouOnStart": true
        },
        "Sigewinne_ElementalArt": {
          "$type": "KBOPIKLCBOA",
          "animatorStates": {
            "Sigewinne_ElementalArt": [
              "Sigewinne_ElementalArt",
              "Interaction_Bad"
            ]
          },
          "MOKBIKEEHMJ": "combatMove",
          "addEndure": 0.6000000238418579,
          "resetAnimatorTriggerOnExit": [
            "BeHit"
          ],
          "jumpCancelEnd": -1.0,
          "sprintCancelEnd": -1.0,
          "animatorTriggerOnLanded": "",
          "battouOnStart": true
        },
        "Sigewinne_ElementalArt_ChargeLoop": {
          "$type": "KBOPIKLCBOA",
          "animatorStates": {
            "Sigewinne_ElementalArt_ChargeLoop": [
              "Interaction_Bad",
              "Audio_char_Sigewinne_ElementalArt_ChangeLoop"
            ]
          },
          "MOKBIKEEHMJ": "combatMove",
          "addEndure": 0.6000000238418579,
          "resetAnimatorTriggerOnExit": [
            "BeHit"
          ],
          "enableCCD": true,
          "cameraType": "combatNormal",
          "jumpCancelEnd": -1.0,
          "sprintCancelEnd": -1.0,
          "animatorTriggerOnLanded": "",
          "battouOnStart": true
        },
        "Sigewinne_ElementalArt_ChargeShoot": {
          "$type": "KBOPIKLCBOA",
          "animatorStates": {
            "Sigewinne_ElementalArt_ChargeShoot": [
              "Sigewinne_ElementalArt_ChargeShoot",
              "Interaction_Bad",
              "Audio_char_Sigewinne_ElementalArt_ChangeShoot"
            ]
          },
          "MOKBIKEEHMJ": "combatMove",
          "addEndure": 0.6000000238418579,
          "resetAnimatorTriggerOnExit": [
            "BeHit"
          ],
          "enableCCD": true,
          "cameraType": "combatNormal",
          "cameraParam": {
            "radiusSpringRatio": 10.0
          },
          "jumpCancelEnd": -1.0,
          "sprintCancelEnd": -1.0,
          "animatorTriggerOnLanded": "",
          "battouOnStart": true
        },
        "Sigewinne_ElementalArt_AS": {
          "$type": "KBOPIKLCBOA",
          "animatorStates": {
            "Sigewinne_ElementalArt_AS": [
              "Sigewinne_ElementalArt_AS",
              "Interaction_Bad",
              "Audio_char_Sigewinne_ElementalArt_AS"
            ]
          },
          "MOKBIKEEHMJ": "combatMove",
          "canDoSkill": true,
          "canDoSkillStart": 0.10000000149011612,
          "resetAnimatorTriggerOnExit": [
            "BeHit",
            "Jump",
            "DoSkill"
          ],
          "setAnimatorBoolean": [
            {
              "name": "&CanUseSkill",
              "normalizeStart": 0.10000000149011612
            },
            {
              "name": "&CanCancelSkill",
              "normalizeStart": 0.10000000149011612
            }
          ],
          "canChangeAvatar": [
            {
              "normalizeStart": 0.10000000149011612
            }
          ],
          "jumpCancelStart": 0.04500000178813934,
          "sprintCancelStart": 0.04500000178813934,
          "animatorTriggerOnLanded": "",
          "sheatheOnEnd": true
        },
        "Sigewinne_ElementalArt_AS_Heavy": {
          "$type": "KBOPIKLCBOA",
          "animatorStates": {
            "Sigewinne_ElementalArt_AS_Heavy": [
              "Sigewinne_ElementalArt_AS_Heavy",
              "Interaction_Bad",
              "Audio_char_Sigewinne_ElementalArt_AS_Heavy"
            ]
          },
          "MOKBIKEEHMJ": "combatMove",
          "canDoSkill": true,
          "canDoSkillStart": 0.10000000149011612,
          "resetAnimatorTriggerOnExit": [
            "BeHit",
            "Jump",
            "DoSkill"
          ],
          "setAnimatorBoolean": [
            {
              "name": "&CanUseSkill",
              "normalizeStart": 0.10000000149011612
            },
            {
              "name": "&CanCancelSkill",
              "normalizeStart": 0.10000000149011612
            }
          ],
          "canChangeAvatar": [
            {
              "normalizeStart": 0.10000000149011612
            }
          ],
          "jumpCancelStart": 0.04500000178813934,
          "sprintCancelStart": 0.04500000178813934,
          "animatorTriggerOnLanded": "",
          "sheatheOnEnd": true
        },
        "SigewinneElementalBurst": {
          "$type": "KBOPIKLCBOA",
          "animatorStates": {
            "SigewinneElementalBurst": [
              "Sigewinne_ElementalBurst",
              "Audio_Char_SigewinneElementalBurst",
              "Interaction_Bad"
            ]
          },
          "MOKBIKEEHMJ": "combatMove",
          "addEndure": 0.0,
          "resetAnimatorTriggerOnExit": [
            "BeHit"
          ],
          "cameraType": "combatNormal",
          "jumpCancelEnd": -1.0,
          "sprintCancelEnd": -1.0,
          "animatorTriggerOnLanded": "",
          "battouOnStart": true
        },
        "SigewinneElementalBurst_Trans": {
          "$type": "KBOPIKLCBOA",
          "animatorStates": {
            "SigewinneElementalBurst_Trans": [
              "Sigewinne_ElementalBurst_Trans"
            ]
          },
          "MOKBIKEEHMJ": "combatMove",
          "addEndure": 0.0,
          "resetAnimatorTriggerOnExit": [
            "BeHit"
          ],
          "cameraType": "combatNormal",
          "jumpCancelEnd": -1.0,
          "sprintCancelEnd": -1.0,
          "animatorTriggerOnLanded": "",
          "sheatheOnStart": true
        },
        "SigewinneElementalBurst_Loop": {
          "$type": "KBOPIKLCBOA",
          "animatorStates": {
            "SigewinneElementalBurst_Loop": [
              "Sigewinne_ElementalBurst_Loop",
              "Audio_Char_SigewinneElementalBurst_ElementalBurst_Shooting_T0",
              "Interaction_Bad"
            ]
          },
          "MOKBIKEEHMJ": "combatMove",
          "addEndure": 0.0,
          "resetAnimatorTriggerOnExit": [
            "BeHit"
          ],
          "cameraType": "combatNormal",
          "jumpCancelStart": 0.07999999821186066,
          "sprintCancelStart": 0.07999999821186066,
          "animatorTriggerOnLanded": ""
        },
        "SigewinneElementalBurst_AS": {
          "$type": "KBOPIKLCBOA",
          "animatorStates": {
            "SigewinneElementalBurst_AS": []
          },
          "MOKBIKEEHMJ": "combatMove",
          "canDoSkill": true,
          "canDoSkillStart": 0.14000000059604645,
          "resetAnimatorTriggerOnExit": [
            "BeHit"
          ],
          "setAnimatorBoolean": [
            {
              "name": "&CanCancelSkill",
              "normalizeStart": 0.14000000059604645
            },
            {
              "name": "&CanUseSkill",
              "normalizeStart": 0.14000000059604645
            }
          ],
          "cameraType": "combatNormal",
          "canChangeAvatar": [
            {}
          ],
          "animatorTriggerOnLanded": "",
          "sheatheOnEnd": true
        },
        "FallingAnthem_BS": {
          "$type": "KBOPIKLCBOA",
          "animatorStates": {
            "FallingAnthem_BS_1": [
              "Audio_Char_Sigewinne_FallingAnthem_BS_1",
              "Emo_Loli_Bow_FallingAttack_BS_01"
            ],
            "FallingAnthem_BS_2": [
              "Emo_Loli_Bow_FallingAttack_BS_02"
            ]
          },
          "MOKBIKEEHMJ": "combatAir",
          "addEndure": 0.0,
          "resetAnimatorTriggerOnExit": [
            "BeHit",
            "DoSkill",
            "Jump"
          ],
          "cameraType": "combatNormal",
          "actionPanelState": "Fly",
          "equipReattach": [
            {
              "equip": "equip01",
              "targetPoint": "WeaponR2"
            }
          ],
          "jumpCancelEnd": -1.0,
          "animatorTriggerOnLanded": "HitAir2HitDrop",
          "battouOnStart": true
        },
        "FallingAnthem_Loop": {
          "$type": "KBOPIKLCBOA",
          "animatorStates": {
            "FallingAnthem_Loop": [],
            "FallingAnthem_Loop_Low": []
          },
          "MOKBIKEEHMJ": "combatAir",
          "addEndure": 0.0,
          "resetAnimatorTriggerOnExit": [
            "BeHit",
            "DoSkill",
            "Jump"
          ],
          "actionPanelState": "Fly",
          "equipReattach": [
            {
              "equip": "equip01",
              "targetPoint": "WeaponR2"
            }
          ],
          "animatorTriggerOnLanded": "HitAir2HitDrop",
          "battouOnStart": true
        },
        "FallingAnthem_AS_1": {
          "$type": "KBOPIKLCBOA",
          "animatorStates": {
            "FallingAnthem_AS_1": [
              "Sigewinne_FallingAnthem_Strike",
              "Interaction_Bad",
              "Audio_Char_Sigewinne_FallingAnthem_AS_1"
            ]
          },
          "MOKBIKEEHMJ": "combatMove",
          "canDoSkill": true,
          "resetAnimatorTriggerOnExit": [
            "BeHit",
            "DoSkill",
            "Jump"
          ],
          "setAnimatorBoolean": [
            {
              "name": "&CanUseSkill",
              "normalizeStart": 0.8999999761581421
            }
          ],
          "equipReattach": [
            {
              "equip": "equip01",
              "targetPoint": "WeaponR2"
            }
          ],
          "jumpCancelEnd": -1.0,
          "animatorTriggerOnLanded": "",
          "battouOnStart": true
        },
        "FallingAnthem_AS_2": {
          "$type": "KBOPIKLCBOA",
          "animatorStates": {
            "FallingAnthem_AS_2": [
              "Audio_Char_Sigewinne_FallingAnthem_AS_2"
            ]
          },
          "MOKBIKEEHMJ": "combatMove",
          "canDoSkill": true,
          "resetAnimatorTriggerOnExit": [
            "BeHit",
            "DoSkill",
            "Jump"
          ],
          "setAnimatorBoolean": [
            {
              "name": "&CanUseSkill"
            }
          ],
          "canChangeAvatar": [
            {}
          ],
          "equipReattach": [
            {
              "equip": "equip01",
              "targetPoint": "WeaponR2"
            }
          ],
          "jumpCancelStart": 0.10000000149011612,
          "animatorTriggerOnLanded": "",
          "battouOnStart": true
        },
        "Sit": {
          "$type": "KBOPIKLCBOA",
          "animatorStates": {
            "SitDown": [
              "Audio_Loli_SitDown"
            ],
            "SitLoop": [],
            "SitUp": [
              "Audio_Loli_SitUp"
            ]
          },
          "MOKBIKEEHMJ": "performMove",
          "massRatio": 100.0,
          "actionPanelState": "Perform",
          "animatorTriggerOnLanded": "",
          "sheatheOnStart": true
        },
        "SitB": {
          "$type": "KBOPIKLCBOA",
          "animatorStates": {
            "SitBDown": [],
            "SitBLoop": [],
            "SitBUp": []
          },
          "MOKBIKEEHMJ": "performMove",
          "massRatio": 100.0,
          "actionPanelState": "Perform",
          "animatorTriggerOnLanded": "",
          "sheatheOnStart": true
        },
        "StandbyShow": {
          "$type": "KBOPIKLCBOA",
          "animatorStates": {
            "StandbyVoice": [
              "Audio_Loli_StandbyVoice"
            ],
            "StandbyShow_01": [
              "Manekin_Sigewinne_Show01",
              "Audio_Char_Sigewinne_StanbyShow01"
            ],
            "StandbyShow_02": [
              "Manekin_Sigewinne_Show02",
              "Audio_Char_Sigewinne_StanbyShow02"
            ]
          },
          "MOKBIKEEHMJ": "performMove",
          "canDoSkill": true,
          "massRatio": 100.0,
          "setAnimatorBoolean": [
            {
              "name": "&CanUseSkill"
            }
          ],
          "canChangeAvatar": [
            {}
          ],
          "animatorTriggerOnLanded": "",
          "sheatheOnStart": true
        },
        "TakePhotos": {
          "$type": "KBOPIKLCBOA",
          "animatorStates": {
            "Think01BS": [],
            "Akimbo02BS": [],
            "Think01Loop": [],
            "Akimbo02Loop": [],
            "Think01AS": [],
            "Akimbo02AS": []
          },
          "animatorTriggerOnLanded": ""
        },
        "Channel_BS": {
          "$type": "KBOPIKLCBOA",
          "animatorStates": {
            "ChannelBS": [
              "Emo_Avatar_Common_Manekin_Default"
            ]
          },
          "MOKBIKEEHMJ": "combatMove",
          "canDoSkill": true,
          "massRatio": 100.0,
          "resetAnimatorTriggerOnExit": [
            "BeHit",
            "DoSkill",
            "Jump"
          ],
          "setAnimatorBoolean": [
            {
              "name": "&CanUseSkill"
            }
          ],
          "canChangeAvatar": [
            {}
          ],
          "animatorTriggerOnLanded": "",
          "sheatheOnStart": true
        },
        "Channel_Loop": {
          "$type": "KBOPIKLCBOA",
          "animatorStates": {
            "ChannelLoop": []
          },
          "MOKBIKEEHMJ": "combatMove",
          "canDoSkill": true,
          "massRatio": 100.0,
          "resetAnimatorTriggerOnExit": [
            "BeHit",
            "DoSkill",
            "Jump"
          ],
          "setAnimatorBoolean": [
            {
              "name": "&CanUseSkill"
            }
          ],
          "canChangeAvatar": [
            {}
          ],
          "animatorTriggerOnLanded": "",
          "sheatheOnStart": true
        },
        "Channel_AS": {
          "$type": "KBOPIKLCBOA",
          "animatorStates": {
            "ChannelAS": []
          },
          "MOKBIKEEHMJ": "combatMove",
          "canDoSkill": true,
          "massRatio": 100.0,
          "resetAnimatorTriggerOnExit": [
            "BeHit",
            "DoSkill",
            "Jump"
          ],
          "setAnimatorBoolean": [
            {
              "name": "&CanUseSkill"
            }
          ],
          "canChangeAvatar": [
            {}
          ],
          "animatorTriggerOnLanded": "",
          "sheatheOnStart": true
        },
        "PlayMusic_Lyre": {
          "$type": "KBOPIKLCBOA",
          "animatorStates": {
            "PlayMusic_Lyre_BS": [
              "PlayMusic_Lyre_Loli"
            ],
            "PlayMusic_Lyre_Loop": [
              "PlayMusic_Lyre_Loli_Loop"
            ]
          },
          "MOKBIKEEHMJ": "combatMove",
          "massRatio": 100.0,
          "resetAnimatorTriggerOnExit": [
            "BeHit",
            "DoSkill",
            "Jump"
          ],
          "animatorTriggerOnLanded": "",
          "sheatheOnStart": true
        },
        "PlayMusic_Lyre_AS": {
          "$type": "KBOPIKLCBOA",
          "animatorStates": {
            "PlayMusic_Lyre_AS": [
              "PlayMusic_Lyre_Loli_AS"
            ]
          },
          "MOKBIKEEHMJ": "combatMove",
          "canDoSkill": true,
          "massRatio": 100.0,
          "resetAnimatorTriggerOnExit": [
            "BeHit",
            "DoSkill",
            "Jump"
          ],
          "setAnimatorBoolean": [
            {
              "name": "&CanUseSkill"
            }
          ],
          "canChangeAvatar": [
            {}
          ],
          "animatorTriggerOnLanded": "",
          "sheatheOnStart": true
        },
        "PlayMusic_Qin": {
          "$type": "KBOPIKLCBOA",
          "animatorStates": {
            "PlayMusic_Qin_BS": [
              "PlayMusic_Qin_Loli"
            ],
            "PlayMusic_Qin_Loop": [
              "PlayMusic_Qin_Loli_Loop"
            ]
          },
          "MOKBIKEEHMJ": "combatMove",
          "massRatio": 100.0,
          "resetAnimatorTriggerOnExit": [
            "BeHit",
            "DoSkill",
            "Jump"
          ],
          "animatorTriggerOnLanded": "",
          "sheatheOnStart": true
        },
        "PlayMusic_Qin_AS": {
          "$type": "KBOPIKLCBOA",
          "animatorStates": {
            "PlayMusic_Qin_AS": [
              "PlayMusic_Qin_Loli_AS"
            ]
          },
          "MOKBIKEEHMJ": "combatMove",
          "canDoSkill": true,
          "massRatio": 100.0,
          "resetAnimatorTriggerOnExit": [
            "BeHit",
            "DoSkill",
            "Jump"
          ],
          "setAnimatorBoolean": [
            {
              "name": "&CanUseSkill"
            }
          ],
          "canChangeAvatar": [
            {}
          ],
          "animatorTriggerOnLanded": "",
          "sheatheOnStart": true
        },
        "PlayMusic_Drum": {
          "$type": "KBOPIKLCBOA",
          "animatorStates": {
            "PlayMusic_Drum_BS": [
              "PlayMusic_Drum_Loli"
            ],
            "PlayMusic_Drum_Loop": [
              "PlayMusic_Drum_Loli_Loop"
            ]
          },
          "MOKBIKEEHMJ": "combatMove",
          "massRatio": 100.0,
          "resetAnimatorTriggerOnExit": [
            "BeHit",
            "DoSkill",
            "Jump"
          ],
          "animatorTriggerOnLanded": "",
          "sheatheOnStart": true
        },
        "PlayMusic_Drum_AS": {
          "$type": "KBOPIKLCBOA",
          "animatorStates": {
            "PlayMusic_Drum_AS": [
              "PlayMusic_Drum_Loli_AS"
            ]
          },
          "MOKBIKEEHMJ": "combatMove",
          "canDoSkill": true,
          "massRatio": 100.0,
          "resetAnimatorTriggerOnExit": [
            "BeHit",
            "DoSkill",
            "Jump"
          ],
          "setAnimatorBoolean": [
            {
              "name": "&CanUseSkill"
            }
          ],
          "canChangeAvatar": [
            {}
          ],
          "animatorTriggerOnLanded": "",
          "sheatheOnStart": true
        },
        "PlayMusic_FrenchHorn": {
          "$type": "KBOPIKLCBOA",
          "animatorStates": {
            "PlayMusic_FrenchHorn_BS": [
              "PlayMusic_Frenchhorn_Loli"
            ],
            "PlayMusic_FrenchHorn_Loop": [
              "PlayMusic_Frenchhorn_Loli_Loop"
            ]
          },
          "MOKBIKEEHMJ": "combatMove",
          "massRatio": 100.0,
          "resetAnimatorTriggerOnExit": [
            "BeHit",
            "DoSkill",
            "Jump"
          ],
          "animatorTriggerOnLanded": "",
          "sheatheOnStart": true
        },
        "PlayMusic_FrenchHorn_AS": {
          "$type": "KBOPIKLCBOA",
          "animatorStates": {
            "PlayMusic_FrenchHorn_AS": [
              "PlayMusic_Frenchhorn_Loli_AS"
            ]
          },
          "MOKBIKEEHMJ": "combatMove",
          "canDoSkill": true,
          "massRatio": 100.0,
          "resetAnimatorTriggerOnExit": [
            "BeHit",
            "DoSkill",
            "Jump"
          ],
          "setAnimatorBoolean": [
            {
              "name": "&CanUseSkill"
            }
          ],
          "canChangeAvatar": [
            {}
          ],
          "animatorTriggerOnLanded": "",
          "sheatheOnStart": true
        },
        "ActivitySkill_ElectricCoreFly": {
          "$type": "KBOPIKLCBOA",
          "animatorStates": {
            "ActivitySkill_ElectricCoreFly": []
          },
          "MOKBIKEEHMJ": "combatAir",
          "massRatio": 100.0,
          "resetAnimatorTriggerOnEnter": [
            "ElectricCoreFly_End"
          ],
          "resetAnimatorTriggerOnExit": [
            "BeHit",
            "DoSkill",
            "Jump",
            "ElectricCoreFly_End"
          ],
          "animatorTriggerOnLanded": "",
          "sheatheOnStart": true
        },
        "ActivitySkill_GrapplingHook": {
          "$type": "KBOPIKLCBOA",
          "animatorStates": {
            "ActivitySkill_GrapplingHook": []
          },
          "MOKBIKEEHMJ": "combatAir",
          "massRatio": 100.0,
          "resetAnimatorTriggerOnEnter": [
            "GrapplingHook_Drop"
          ],
          "resetAnimatorTriggerOnExit": [
            "BeHit",
            "DoSkill",
            "Jump",
            "GrapplingHook_Drop"
          ],
          "animatorTriggerOnLanded": "",
          "sheatheOnStart": true
        },
        "ActivitySkill_CustomSkill01": {
          "$type": "KBOPIKLCBOA",
          "animatorStates": {
            "ActivitySkill_CustomSkill01": []
          },
          "MOKBIKEEHMJ": "combatAir",
          "canDoSkill": true,
          "massRatio": 100.0,
          "resetAnimatorTriggerOnEnter": [
            "CustomSkill_End_Fly",
            "CustomSkill_End_Drop"
          ],
          "resetAnimatorTriggerOnExit": [
            "BeHit",
            "DoSkill",
            "Jump",
            "CustomSkill_End_Fly",
            "CustomSkill_End_Drop"
          ],
          "animatorTriggerOnLanded": "",
          "sheatheOnStart": true
        },
        "ActivitySkill_CustomSkill02": {
          "$type": "KBOPIKLCBOA",
          "animatorStates": {
            "ActivitySkill_CustomSkill02": []
          },
          "MOKBIKEEHMJ": "combatAir",
          "canDoSkill": true,
          "massRatio": 100.0,
          "resetAnimatorTriggerOnEnter": [
            "CustomSkill_End_Fly",
            "CustomSkill_End_Drop"
          ],
          "resetAnimatorTriggerOnExit": [
            "BeHit",
            "DoSkill",
            "Jump",
            "CustomSkill_End_Fly",
            "CustomSkill_End_Drop"
          ],
          "animatorTriggerOnLanded": "",
          "sheatheOnStart": true
        },
        "ActivitySkill_CommonMove": {
          "$type": "KBOPIKLCBOA",
          "animatorStates": {
            "ActivitySkill_CommonMove": []
          },
          "addEndure": 0.0,
          "massRatio": 100.0,
          "resetAnimatorTriggerOnExit": [
            "BeHit",
            "DoSkill",
            "Jump"
          ],
          "enableBoneFollowMove": true,
          "jumpCancelStart": -1.0,
          "sprintCancelStart": -1.0,
          "animatorTriggerOnLanded": "",
          "sheatheOnStart": true
        },
        "DiveChannel_BS": {
          "$type": "KBOPIKLCBOA",
          "animatorStates": {
            "DiveChannelBS": [
              "Emo_Avatar_Common_Manekin_Default",
              "Audio_Loli_DiveChannel_BS"
            ]
          },
          "MOKBIKEEHMJ": "combatDive",
          "massRatio": 100.0,
          "resetAnimatorTriggerOnExit": [
            "BeHit",
            "DoSkill",
            "Jump"
          ],
          "setAnimatorBoolean": [
            {
              "name": "&CanUseSkill"
            }
          ],
          "canChangeAvatar": [
            {}
          ],
          "actionPanelState": "Dive",
          "sprintCancelEnd": -1.0,
          "animatorTriggerOnLanded": "",
          "sheatheOnStart": true
        },
        "DiveChannel_Loop": {
          "$type": "KBOPIKLCBOA",
          "animatorStates": {
            "DiveChannelLoop": []
          },
          "MOKBIKEEHMJ": "combatDive",
          "massRatio": 100.0,
          "resetAnimatorTriggerOnExit": [
            "BeHit",
            "DoSkill",
            "Jump"
          ],
          "setAnimatorBoolean": [
            {
              "name": "&CanUseSkill"
            }
          ],
          "canChangeAvatar": [
            {}
          ],
          "actionPanelState": "Dive",
          "sprintCancelEnd": -1.0,
          "animatorTriggerOnLanded": "",
          "sheatheOnStart": true
        },
        "DiveChannel_AS": {
          "$type": "KBOPIKLCBOA",
          "animatorStates": {
            "DiveChannelAS": [
              "Audio_Loli_DiveChannel_AS"
            ]
          },
          "MOKBIKEEHMJ": "combatDive",
          "canDoSkill": true,
          "canDoSkillStart": 0.30000001192092896,
          "massRatio": 100.0,
          "resetAnimatorTriggerOnExit": [
            "BeHit",
            "DoSkill",
            "Jump"
          ],
          "setAnimatorBoolean": [
            {
              "name": "&CanUseSkill"
            }
          ],
          "canChangeAvatar": [
            {}
          ],
          "actionPanelState": "Dive",
          "sprintCancelStart": 0.11999999731779099,
          "animatorTriggerOnLanded": "",
          "sheatheOnStart": true
        },
        "DiveCast_BS": {
          "$type": "KBOPIKLCBOA",
          "animatorStates": {
            "DiveCast_BS": [
              "Emo_Avatar_Common_Manekin_Default",
              "Audio_Loli_DiveCast_BS"
            ]
          },
          "MOKBIKEEHMJ": "combatDive",
          "massRatio": 100.0,
          "resetAnimatorTriggerOnExit": [
            "BeHit",
            "DoSkill",
            "Jump"
          ],
          "setAnimatorBoolean": [
            {
              "name": "&CanUseSkill"
            }
          ],
          "canChangeAvatar": [
            {}
          ],
          "actionPanelState": "Dive",
          "sprintCancelEnd": -1.0,
          "animatorTriggerOnLanded": "",
          "sheatheOnStart": true
        },
        "DiveCast_Loop": {
          "$type": "KBOPIKLCBOA",
          "animatorStates": {
            "DiveCast_Loop": []
          },
          "MOKBIKEEHMJ": "combatDive",
          "canDoSkillStart": 0.30000001192092896,
          "massRatio": 100.0,
          "resetAnimatorTriggerOnExit": [
            "BeHit",
            "DoSkill",
            "Jump"
          ],
          "setAnimatorBoolean": [
            {
              "name": "&CanUseSkill"
            }
          ],
          "canChangeAvatar": [
            {}
          ],
          "actionPanelState": "Dive",
          "sprintCancelEnd": -1.0,
          "animatorTriggerOnLanded": "",
          "sheatheOnStart": true
        },
        "DiveCast_AS": {
          "$type": "KBOPIKLCBOA",
          "animatorStates": {
            "DiveCast_AS": [
              "Audio_Loli_DiveCast_AS"
            ]
          },
          "MOKBIKEEHMJ": "combatDive",
          "canDoSkill": true,
          "canDoSkillStart": 0.10000000149011612,
          "massRatio": 100.0,
          "resetAnimatorTriggerOnExit": [
            "BeHit",
            "DoSkill",
            "Jump"
          ],
          "setAnimatorBoolean": [
            {
              "name": "&CanUseSkill"
            }
          ],
          "canChangeAvatar": [
            {}
          ],
          "actionPanelState": "Dive",
          "sprintCancelStart": 0.09000000357627869,
          "animatorTriggerOnLanded": "",
          "sheatheOnStart": true
        },
        "Dive": {
          "$type": "KBOPIKLCBOA",
          "animatorStates": {
            "DiveIdle": [],
            "DiveMoveBS": [
              "Audio_Loli_Dive_MoveBS"
            ],
            "DiveMoveAS": [
              "Audio_Loli_Dive_MoveAS"
            ],
            "DiveMoveU_A": [
              "Audio_Loli_Dive_MoveU_A"
            ],
            "DiveMoveU_B": [
              "Audio_Loli_Dive_MoveU_B"
            ],
            "DiveMoveF_A": [],
            "DiveMoveF_B": [
              "Audio_Loli_Dive_MoveF_B"
            ],
            "DiveMoveD_A": [
              "Audio_Loli_Dive_MoveD_A"
            ],
            "DiveMoveD_B": [
              "Audio_Loli_Dive_MoveD_B"
            ],
            "DiveTurn": [
              "Audio_Loli_Dive_Turn"
            ],
            "DiveTurnAS": [
              "Audio_Loli_Dive_Turn_AS"
            ],
            "DiveTurn2": [
              "Audio_Loli_Dive_Turn"
            ],
            "DiveTurnAS2": [
              "Audio_Loli_Dive_Turn_AS"
            ],
            "DiveDashBS": [
              "Audio_Loli_Dive_Dash_BS"
            ],
            "DiveDashAS": [
              "Audio_Loli_Dive_Dash_AS"
            ],
            "DiveDash": [],
            "DiveDashB": [
              "Audio_Loli_Dive_Out_DashB"
            ],
            "DiveSuperDash": [
              "Audio_Loli_Dive_SuperDash"
            ],
            "DiveSuperDash2": [
              "Audio_Loli_Dive_SuperDash2"
            ]
          },
          "canDoSkill": true,
          "resetAnimatorTriggerOnEnter": [
            "DoSkill"
          ],
          "setAnimatorBoolean": [
            {
              "name": "&CanUseSkill"
            }
          ],
          "canChangeAvatar": [
            {}
          ],
          "actionPanelState": "Dive",
          "animatorTriggerOnLanded": "",
          "sheatheOnStart": true
        },
        "Dive_In_Out": {
          "$type": "KBOPIKLCBOA",
          "animatorStates": {
            "Dive_In_Up": [
              "Audio_Loli_Dive_In_Up"
            ],
            "Dive_In_Side": [
              "Audio_Loli_Dive_In_Side"
            ],
            "Dive_In_Bottom": [
              "Audio_Loli_Dive_In_Bottom"
            ],
            "Dive_Out_Side": [
              "Audio_Loli_Dive_Out_Side"
            ],
            "Dive_Out_Bottom": [
              "Audio_Loli_Dive_Out_Bottom"
            ],
            "Dive_Out_Up": [
              "Audio_Loli_Dive_Out_Up"
            ]
          },
          "resetAnimatorTriggerOnEnter": [
            "DoSkill"
          ],
          "setAnimatorBoolean": [
            {
              "name": "&CanUseSkill"
            }
          ],
          "actionPanelState": "Dive",
          "animatorTriggerOnLanded": "",
          "sheatheOnStart": true
        },
        "DiveStream": {
          "$type": "KBOPIKLCBOA",
          "animatorStates": {
            "DiveStreamIn": [
              "Audio_Loli_Dive_Stream_In"
            ],
            "DiveStreamOut": [
              "Audio_Loli_Dive_Stream_Out"
            ],
            "DiveStream": [],
            "DiveStreamRoll_L": [
              "Audio_Loli_Dive_Stream_Roll_L"
            ],
            "DiveStreamRoll_R": [
              "Audio_Loli_Dive_Stream_Roll_R"
            ]
          },
          "canDoSkill": true,
          "resetAnimatorTriggerOnEnter": [
            "DoSkill"
          ],
          "setAnimatorBoolean": [
            {
              "name": "&CanUseSkill"
            }
          ],
          "actionPanelState": "Dive",
          "animatorTriggerOnLanded": "",
          "sheatheOnStart": true
        },
        "DiveJump": {
          "$type": "KBOPIKLCBOA",
          "animatorStates": {
            "Dive_Out_DashU": [
              "Audio_Loli_Dive_Out_DashU"
            ],
            "Dive_Out_DashD": [
              "Audio_Loli_Dive_Out_DashD"
            ],
            "Dive_Out_DashFBS": [
              "Audio_Loli_Dive_Out_DashFBS"
            ],
            "Dive_Out_DashFAS": [
              "Audio_Loli_Dive_Out_DashFAS"
            ],
            "Dive_Out_DashFLoop": []
          },
          "canDoSkill": true,
          "resetAnimatorTriggerOnEnter": [
            "DoSkill",
            "AimEnd"
          ],
          "setAnimatorBoolean": [
            {
              "name": "&CanUseAirSkill"
            }
          ],
          "actionPanelState": "Jump",
          "animatorTriggerOnLanded": "",
          "sheatheOnStart": true
        },
        "BeHitDive": {
          "$type": "KBOPIKLCBOA",
          "animatorStates": {
            "BeHitDive": [
              "Audio_Loli_Dive_beHit"
            ],
            "DiveStruggle": []
          },
          "MOKBIKEEHMJ": "combatDive",
          "resetAnimatorTriggerOnEnter": [
            "BeHit"
          ],
          "resetAnimatorTriggerOnExit": [
            "DoSkill"
          ],
          "cameraType": "combatBeHit",
          "actionPanelState": "Dive",
          "jumpCancelEnd": 0.0,
          "animatorTriggerOnLanded": "",
          "sheatheOnStart": true
        },
        "MultiOverride_01": {
          "$type": "KBOPIKLCBOA",
          "animatorStates": {
            "MultiOverrideBS_01": [],
            "MultiOverrideLoop_01": [],
            "MultiOverrideAS_01": []
          },
          "animatorTriggerOnLanded": ""
        },
        "MultiOverride2": {
          "$type": "KBOPIKLCBOA",
          "animatorStates": {
            "MultiOverrideBS_02": [],
            "MultiOverrideLoop_02": [],
            "MultiOverrideAS_02": []
          },
          "animatorTriggerOnLanded": ""
        },
        "MultiOverride3": {
          "$type": "KBOPIKLCBOA",
          "animatorStates": {
            "MultiOverrideBS_03": [],
            "MultiOverrideLoop_03": [],
            "MultiOverrideAS_03": []
          },
          "animatorTriggerOnLanded": ""
        },
        "MultiOverride": {
          "$type": "KBOPIKLCBOA",
          "INKINKDHODO": {
            "Ani_Avatar_Loli_Bow_Sigewinne_Photo01BS": [],
            "Ani_Avatar_Loli_Bow_Sigewinne_Photo01Loop": [],
            "Ani_Avatar_Loli_Bow_Sigewinne_Photo01AS": [],
            "Ani_Avatar_Loli_Bow_Sigewinne_Photo02BS": [],
            "Ani_Avatar_Loli_Bow_Sigewinne_Photo02Loop": [],
            "Ani_Avatar_Loli_Bow_Sigewinne_Photo02AS": []
          },
          "animatorTriggerOnLanded": ""
        }
      }
    },
    "aimShootLayer": {
      "$type": "GBGJJIIEMBD",
      "layerIndexName": "",
      "CPAANEIJCGD": "AimShootLayer",
      "stateIDs": {
        "AimShoot": {
          "$type": "KBOPIKLCBOA",
          "priority": -1,
          "animatorStates": {
            "AimShoot": [
              "Sigewinne_AimShoot",
              "Audio_char_Sigewinne_AimShoot",
              "Audio_char_Sigewinne_fireArrow_charge_fire",
              "Emo_Avatar_Sigewinne_Fight_AimAttack"
            ]
          },
          "MOKBIKEEHMJ": "combatMove",
          "canDoSkill": true,
          "resetAnimatorTriggerOnExit": [
            "BeHit",
            "DoSkill",
            "Jump"
          ],
          "needFaceToAnimParam": true,
          "actionPanelState": "Aim",
          "animatorTriggerOnLanded": "",
          "battouOnStart": true
        },
        "FastAimShoot": {
          "$type": "KBOPIKLCBOA",
          "priority": -1,
          "animatorStates": {
            "FastAimShoot": [
              "Sigewinne_AimShoot",
              "Audio_char_Sigewinne_FastAimShoot",
              "Emo_Avatar_Sigewinne_Fight_AimAttack"
            ]
          },
          "MOKBIKEEHMJ": "combatMove",
          "canDoSkill": true,
          "resetAnimatorTriggerOnExit": [
            "BeHit",
            "DoSkill",
            "Jump"
          ],
          "needFaceToAnimParam": true,
          "actionPanelState": "FastAim",
          "animatorTriggerOnLanded": "",
          "battouOnStart": true
        }
      }
    },
    "diveLayer": {
      "$type": "GBGJJIIEMBD",
      "layerIndexName": "",
      "CPAANEIJCGD": "DiveLayer"
    },
    "talent6Layer": {
      "$type": "GBGJJIIEMBD",
      "layerIndexName": "",
      "CPAANEIJCGD": "Talent6Layer"
    }
  },
  "forceDontUseUpdateRigidbody": true,
  "shootConfig": {
    "normalShoot": {
      "bulletBornAttachPoint": "WeaponL",
      "detectRangeFromViewport": 100.0,
      "autoFocusMinRange": 2.0,
      "autoFocusMaxRange": 7.0
    },
    "aimingShoot": {
      "bulletBornAttachPoint": "FocusAnchor",
      "detectRangeFromViewport": 100.0,
      "detectRadiusFromViewport": 0.15000000596046448,
      "autoFocusMinRange": 2.0,
      "autoFocusMaxRange": 25.0
    }
  },
  "audio": {
    "overrideEmitterName": "",
    "animAudio": {
      "onTransitionIn": [
        {
          "currentStateName": "AimLoop",
          "audioEvent": {
            "text": "Play_sfx_weapon_bow_aimFocus"
          }
        },
        {
          "currentStateName": "FastAimLoop",
          "audioEvent": {
            "text": "Play_sfx_weapon_bow_aimFocus"
          }
        },
        {
          "currentStateName": "FastAimLoop",
          "audioEvent": {
            "text": "Play_Sfx_char_Sigewinne_FastAimLoop"
          }
        },
        {
          "currentStateName": "SlipBackWall",
          "audioEvent": {
            "text": "Play_sfx_char_slipWall"
          }
        },
        {
          "currentStateName": "SlipFaceWall",
          "audioEvent": {
            "text": "Play_sfx_char_slipWall"
          }
        },
        {
          "currentStateName": "NormalDie",
          "audioEvent": {
            "text": "Play_sfx_char_land"
          },
          "otherStateNames": [
            "FallOnGround"
          ],
          "usage": "InSet"
        },
        {
          "currentStateName": "Standby",
          "audioEvent": {
            "text": "Stop_sfx_char_fly"
          }
        },
        {
          "currentStateName": "SprintBS",
          "audioEvent": {
            "text": "Play_sfx_char_foley_flutter_heavy"
          }
        },
        {
          "currentStateName": "SwimJumpToWater",
          "audioEvent": {
            "text": "Stop_sfx_char_swim_dive"
          }
        },
        {
          "currentStateName": "SwimDash",
          "audioEvent": {
            "text": "Play_sfx_char_swim_dash"
          }
        },
        {
          "currentStateName": "DiveDash",
          "audioEvent": {
            "text": "Play_sfx_char_dive_dash_lp"
          },
          "otherStateNames": [
            "DiveDashBS"
          ],
          "usage": "InSet"
        },
        {
          "currentStateName": "DiveStream",
          "audioEvent": {
            "text": "Play_sfx_char_dive_stream_lp"
          }
        },
        {
          "currentStateName": "Dive_Out_DashFLoop",
          "audioEvent": {
            "text": "Play_sfx_char_dive_out_dashFLoop"
          }
        },
        {
          "currentStateName": "DiveMoveF_A",
          "audioEvent": {
            "text": "Play_sfx_char_dive_moveF_A"
          }
        },
        {
          "currentStateName": "DiveChannel_Loop",
          "audioEvent": {
            "text": "Play_vfx_Avatar_Diving_Channel_LP"
          }
        }
      ],
      "onTransitionOut": [
        {
          "currentStateName": "StandbyPutaway",
          "audioEvent": {
            "text": "Stop_sfx_weapon_1HSword_lady_putAwayStandby"
          }
        },
        {
          "currentStateName": "Attack01",
          "audioEvent": {
            "text": "Stop_Sfx_char_Sigewinne_Attack"
          },
          "otherStateNames": [
            "Attack02",
            "Attack03"
          ],
          "usage": "Except"
        },
        {
          "currentStateName": "Attack02",
          "audioEvent": {
            "text": "Stop_Sfx_char_Sigewinne_Attack"
          },
          "otherStateNames": [
            "Attack03"
          ],
          "usage": "Except"
        },
        {
          "currentStateName": "Attack03",
          "audioEvent": {
            "text": "Stop_Sfx_char_Sigewinne_Attack"
          },
          "otherStateNames": [
            "Attack01"
          ],
          "usage": "Except"
        },
        {
          "currentStateName": "FastAimLoop",
          "audioEvent": {
            "text": "Stop_Sfx_char_Sigewinne_FastAimLoop"
          }
        },
        {
          "currentStateName": "StandbyShow_01",
          "audioEvent": {
            "text": "Stop_sfx_standbyShow_Sigewinne_01"
          }
        },
        {
          "currentStateName": "StandbyShow_02",
          "audioEvent": {
            "text": "Stop_sfx_standbyShow_Sigewinne_02"
          }
        },
        {
          "currentStateName": "SlipFaceWall",
          "audioEvent": {
            "text": "Stop_sfx_char_slipWall"
          }
        },
        {
          "currentStateName": "SlipBackWall",
          "audioEvent": {
            "text": "Stop_sfx_char_slipWall"
          }
        },
        {
          "currentStateName": "WalkPutaway",
          "audioEvent": {
            "text": "Stop_sfx_weapon_1HSword_lady_putAwayStandby"
          }
        },
        {
          "currentStateName": "RunPutaway",
          "audioEvent": {
            "text": "Stop_sfx_weapon_1HSword_lady_putAwayStandby"
          }
        },
        {
          "currentStateName": "SwimJumpDrop",
          "audioEvent": {
            "text": "Stop_sfx_char_swim_drop"
          }
        },
        {
          "currentStateName": "SwimJump",
          "audioEvent": {
            "text": "Stop_sfx_char_swim_drop"
          },
          "otherStateNames": [
            "SwimJumpDrop"
          ],
          "usage": "Except"
        },
        {
          "currentStateName": "Fly",
          "audioEvent": {
            "text": "Play_sfx_char_land_climb"
          },
          "otherStateNames": [
            "ClimbIdle",
            "ClimbMove0",
            "ClimbMove1",
            "ClimbJump"
          ],
          "usage": "InSet"
        },
        {
          "currentStateName": "FlyStart",
          "audioEvent": {
            "text": "Play_sfx_char_land_climb"
          },
          "otherStateNames": [
            "ClimbIdle",
            "ClimbMove0",
            "ClimbMove1",
            "ClimbJump"
          ],
          "usage": "InSet"
        },
        {
          "currentStateName": "DropDownLit",
          "audioEvent": {
            "text": "Play_sfx_char_land_climb"
          },
          "otherStateNames": [
            "ClimbIdle",
            "ClimbMove0",
            "ClimbMove1",
            "ClimbJump"
          ],
          "usage": "InSet"
        },
        {
          "currentStateName": "DropDown",
          "audioEvent": {
            "text": "Play_sfx_char_land_climb"
          },
          "otherStateNames": [
            "ClimbIdle",
            "ClimbMove0",
            "ClimbMove1",
            "ClimbJump"
          ],
          "usage": "InSet"
        },
        {
          "currentStateName": "WalkDropDownLit",
          "audioEvent": {
            "text": "Play_sfx_char_land_climb"
          },
          "otherStateNames": [
            "ClimbIdle",
            "ClimbMove0",
            "ClimbMove1",
            "ClimbJump"
          ],
          "usage": "InSet"
        },
        {
          "currentStateName": "Jump",
          "audioEvent": {
            "text": "Play_sfx_char_land_climb"
          },
          "otherStateNames": [
            "ClimbIdle",
            "ClimbMove0",
            "ClimbMove1",
            "ClimbJump"
          ],
          "usage": "InSet"
        },
        {
          "currentStateName": "JumpForWalk",
          "audioEvent": {
            "text": "Play_sfx_char_land_climb"
          },
          "otherStateNames": [
            "ClimbIdle",
            "ClimbMove0",
            "ClimbMove1",
            "ClimbJump"
          ],
          "usage": "InSet"
        },
        {
          "currentStateName": "JumpForRun",
          "audioEvent": {
            "text": "Play_sfx_char_land_climb"
          },
          "otherStateNames": [
            "ClimbIdle",
            "ClimbMove0",
            "ClimbMove1",
            "ClimbJump"
          ],
          "usage": "InSet"
        },
        {
          "currentStateName": "JumpForSprint",
          "audioEvent": {
            "text": "Play_sfx_char_land_climb"
          },
          "otherStateNames": [
            "ClimbIdle",
            "ClimbMove0",
            "ClimbMove1",
            "ClimbJump"
          ],
          "usage": "InSet"
        },
        {
          "currentStateName": "JumpWeapon",
          "audioEvent": {
            "text": "Play_sfx_char_land_climb"
          },
          "otherStateNames": [
            "ClimbIdle",
            "ClimbMove0",
            "ClimbMove1",
            "ClimbJump"
          ],
          "usage": "InSet"
        },
        {
          "currentStateName": "JumpForWalkWeapon",
          "audioEvent": {
            "text": "Play_sfx_char_land_climb"
          },
          "otherStateNames": [
            "ClimbIdle",
            "ClimbMove0",
            "ClimbMove1",
            "ClimbJump"
          ],
          "usage": "InSet"
        },
        {
          "currentStateName": "JumpForRunWeapon",
          "audioEvent": {
            "text": "Play_sfx_char_land_climb"
          },
          "otherStateNames": [
            "ClimbIdle",
            "ClimbMove0",
            "ClimbMove1",
            "ClimbJump"
          ],
          "usage": "InSet"
        },
        {
          "currentStateName": "DropDownWeapon",
          "audioEvent": {
            "text": "Play_sfx_char_land_climb"
          },
          "otherStateNames": [
            "ClimbIdle",
            "ClimbMove0",
            "ClimbMove1",
            "ClimbJump"
          ],
          "usage": "InSet"
        },
        {
          "currentStateName": "DropDownLitWeapon",
          "audioEvent": {
            "text": "Play_sfx_char_land_climb"
          },
          "otherStateNames": [
            "ClimbIdle",
            "ClimbMove0",
            "ClimbMove1",
            "ClimbJump"
          ],
          "usage": "InSet"
        },
        {
          "currentStateName": "SwimMove",
          "audioEvent": {
            "text": "Stop_sfx_char_swim"
          }
        },
        {
          "currentStateName": "DiveDash",
          "audioEvent": {
            "text": "Stop_sfx_char_dive_dash_lp"
          },
          "otherStateNames": [
            "DiveDashB",
            "DiveTurn",
            "DiveTurn2"
          ],
          "usage": "Except"
        },
        {
          "currentStateName": "DiveStream",
          "audioEvent": {
            "text": "Stop_sfx_char_dive_stream_lp"
          },
          "otherStateNames": [
            "DiveStreamRoll_L",
            "DiveStreamRoll_R"
          ],
          "usage": "Except"
        },
        {
          "currentStateName": "DiveMoveAS",
          "audioEvent": {
            "text": "Stop_sfx_char_dive_move_AS"
          }
        },
        {
          "currentStateName": "Dive_Out_DashFLoop",
          "audioEvent": {
            "text": "Stop_sfx_char_dive_out_dashFLoop"
          }
        },
        {
          "currentStateName": "DiveIdle",
          "audioEvent": {
            "text": "Stop_sfx_char_dive_dash_lp"
          },
          "otherStateNames": [
            "Dive_Out_Up"
          ],
          "usage": "InSet"
        },
        {
          "currentStateName": "Dive_Out_Up",
          "audioEvent": {
            "text": "Stop_sfx_char_dive_moveF_A"
          }
        },
        {
          "currentStateName": "DiveChannel_Loop",
          "audioEvent": {
            "text": "Stop_vfx_Avatar_Diving_Channel_LP"
          }
        },
        {
          "currentStateName": "DiveMoveU_A",
          "audioEvent": {
            "text": "Stop_sfx_char_dive_moveU_A"
          }
        },
        {
          "currentStateName": "DiveMoveF_A",
          "audioEvent": {
            "text": "Stop_sfx_char_dive_moveF_A"
          },
          "otherStateNames": [
            "DiveMoveF_B"
          ],
          "usage": "Except"
        }
      ],
      "recurrentSpeeches": {
        "Standby": {
          "start": {
            "upper": 28.0,
            "lower": 23.0
          },
          "interval": {
            "upper": 40.0,
            "lower": 34.0
          },
          "eventName": {
            "text": "Play_vo_char_explore_idle"
          }
        },
        "Walk": {
          "start": {
            "upper": 16.0,
            "lower": 13.0
          },
          "interval": {
            "upper": 14.0,
            "lower": 10.0
          },
          "eventName": {
            "text": ""
          }
        },
        "Run": {
          "start": {
            "upper": 13.0,
            "lower": 9.0
          },
          "interval": {
            "upper": 11.0,
            "lower": 8.0
          },
          "eventName": {
            "text": ""
          }
        },
        "Sprint": {
          "start": {
            "upper": 12.0,
            "lower": 7.0
          },
          "interval": {
            "upper": 9.0,
            "lower": 6.0
          },
          "eventName": {
            "text": ""
          }
        }
      }
    },
    "moveStateAudio": {
      "onStateBegin": [
        {
          "currentStateName": "Fly",
          "audioEvent": {
            "text": "Play_sfx_char_fly"
          }
        },
        {
          "currentStateName": "Air",
          "audioEvent": {
            "text": "Play_sfx_char_drop"
          },
          "otherStateNames": [
            "Fly"
          ],
          "usage": "InSet"
        },
        {
          "currentStateName": "Dive",
          "audioEvent": {
            "text": "Play_sfx_char_dive_move_swim_idle"
          },
          "otherStateNames": [
            "CombatDive"
          ],
          "usage": "Except"
        },
        {
          "currentStateName": "CombatDive",
          "audioEvent": {
            "text": "Play_sfx_char_dive_move_swim_idle"
          },
          "otherStateNames": [
            "Dive"
          ],
          "usage": "Except"
        }
      ],
      "onStateEnd": [
        {
          "currentStateName": "Fly",
          "audioEvent": {
            "text": "Stop_sfx_char_fly"
          }
        },
        {
          "currentStateName": "Air",
          "audioEvent": {
            "text": "Stop_sfx_char_drop"
          }
        },
        {
          "currentStateName": "Dive",
          "audioEvent": {
            "text": "Stop_sfx_char_dive_move_swim_idle"
          },
          "otherStateNames": [
            "CombatDive"
          ],
          "usage": "Except"
        },
        {
          "currentStateName": "CombatDive",
          "audioEvent": {
            "text": "Stop_sfx_char_dive_move_swim_idle"
          },
          "otherStateNames": [
            "Dive"
          ],
          "usage": "Except"
        }
      ]
    },
    "voiceSwitch": {
      "text": "Switch_Sigewinne"
    },
    "bodyTypeSwitch": {
      "text": "Switch_Loli"
    },
    "listenerLiftup": 1.5,
    "surfaceProberLiftup": 1.5
  },
  "ONIAJBGGJHD": "AvatarLoli",
  "perform": {
    "standby": {
      "minTime": 10.0,
      "maxTime": 20.0,
      "performIDs": [
        201,
        202,
        200,
        200
      ]
    }
  }
}