{
  "common": {
    "effectAttachShape": {
      "$type": "FJNPJANPGGC",
      "mesh": "EffectMesh"
    },
    "mass": 10.0,
    "height": 1.6740000247955322,
    "modelHeight": 1.6449999809265137,
    "affectedByWorld": true,
    "checkInSurface": true
  },
  "headControl": {
    "$type": "KPIPDEBDPIH",
    "useHeadControl": true,
    "animStates": [
      "NormalStandby",
      "NormalMove/WalkToRun",
      "NormalMove/Walk",
      "NormalMove/RunToWalk",
      "NormalMove/Run",
      "NormalMove/RunToIdle",
      "NormalMove/WalkToIdle",
      "NormalMove/RunningTurn",
      "NormalMove/SprintToRun",
      "NormalMove/SprintToIdle",
      "Sprint",
      "Climb/ClimbIdle",
      "Ladder/LadderIdle",
      "Swim/SwimIdle",
      "NormalStandbyWeapon",
      "NormalMoveWeapon/WalkToRunWeapon",
      "NormalMoveWeapon/WalkWeapon",
      "NormalMoveWeapon/RunToWalkWeapon",
      "NormalMoveWeapon/RunWeapon",
      "NormalMoveWeapon/RunToIdleWeapon",
      "NormalMoveWeapon/WalkToIdleWeapon",
      "NormalMoveWeapon/RunningTurnWeapon"
    ]
  },
  "specialPoint": {
    "elementAbsorb": "PRIVATE_Pendant",
    "elementPendant": "PRIVATE_Pendant",
    "elementDrop": "RootNode",
    "bulletAim": "RootNode"
  },
  "combat": {
    "property": {
      "endureType": "Avatar_Catalyst",
      "weight": 75.0
    },
    "beHit": {
      "hitBloodEffect": ""
    },
    "combatLock": {
      "lockShape": "CircleLockEnemyClose",
      "lockWeightYaxisParam": 0.20000000298023224,
      "lockWeightYaxisThreshold": 6.0,
      "lockType": "Avatar&Monster_Lv4"
    },
    "die": {
      "hasAnimatorDie": true,
      "dieEndTime": 1.5,
      "dieForceDisappearTime": 2.5,
      "dieDisappearEffect": "Eff_Death_Avatar_Common",
      "dieShaderData": "AvatarDie",
      "useRagDoll": true,
      "ragDollDieEndTimeDelay": 0.4000000059604645
    }
  },
  "equipController": {
    "sheathPoint": "WeaponBackPut",
    "dissolveSheathFadeDelay": 0.07500000298023224,
    "dissolveSheathFadeTime": 2.0999999046325684,
    "triggerToStates": [
      {
        "trigger": "Close",
        "floatID": "PlaySpeed",
        "floatValue": 0.5
      },
      {
        "trigger": "Open",
        "states": [
          "NormalStandbyWeapon",
          "BeHit",
          "BeHitAir",
          "Die"
        ],
        "floatID": "PlaySpeed",
        "floatValue": 1.0
      },
      {
        "trigger": "Close",
        "states": [
          "NormalMoveWeaponPutaway/StandbyPutaway"
        ],
        "floatID": "PlaySpeed",
        "floatValue": 1.0
      },
      {
        "trigger": "PlayDone",
        "states": [
          "NormalMoveWeaponOver/StandbyPutawayOver"
        ],
        "floatID": "PlaySpeed",
        "floatValue": 0.5
      },
      {
        "trigger": "Attack",
        "playTime": 0.800000011920929,
        "states": [
          "Attack01/Attack01",
          "ExtraAttack_BS/ExtraAttack_BS",
          "ExtraAttack_Charge/ExtraAttack_Charge",
          "ExtraAttack/ExtraAttack",
          "ExtraAttack_AS/ExtraAttack_AS"
        ],
        "floatID": "PlaySpeed",
        "floatValue": 2.0
      },
      {
        "trigger": "Attack",
        "playTime": 1.2000000476837158,
        "states": [
          "Attack02/Attack02",
          "Attack03/Attack03"
        ],
        "floatID": "PlaySpeed",
        "floatValue": 2.0
      },
      {
        "trigger": "Attack",
        "states": [
          "FallingAnthem_AS_2/FallingAnthem_AS_2"
        ],
        "floatID": "PlaySpeed",
        "floatValue": 2.0
      }
    ],
    "attachPoints": {
      "equip01": "WeaponR",
      "equip02": "WeaponL",
      "equip03": "WeaponL"
    }
  },
  "abilities": [
    {
      "abilityID": "",
      "abilityName": "Avatar_Wanderer_Attack01",
      "abilityOverride": ""
    },
    {
      "abilityID": "",
      "abilityName": "Avatar_Wanderer_Attack02",
      "abilityOverride": ""
    },
    {
      "abilityID": "",
      "abilityName": "Avatar_Wanderer_Attack03",
      "abilityOverride": ""
    },
    {
      "abilityID": "",
      "abilityName": "Avatar_Wanderer_ExtraAttack",
      "abilityOverride": ""
    },
    {
      "abilityID": "",
      "abilityName": "Avatar_Wanderer_ExtraAttack_Charge",
      "abilityOverride": ""
    },
    {
      "abilityID": "",
      "abilityName": "Avatar_Wanderer_ExtraAttack_Initiate",
      "abilityOverride": ""
    },
    {
      "abilityID": "",
      "abilityName": "Avatar_Wanderer_ExtraAttack_Air_Charge",
      "abilityOverride": ""
    },
    {
      "abilityID": "",
      "abilityName": "Avatar_Wanderer_ExtraAttack_Air_Initiate",
      "abilityOverride": ""
    },
    {
      "abilityID": "",
      "abilityName": "Avatar_Wanderer_ElementalArt_Launch",
      "abilityOverride": ""
    },
    {
      "abilityID": "",
      "abilityName": "Avatar_Wanderer_ElementalArt_HoverAir",
      "abilityOverride": ""
    },
    {
      "abilityID": "",
      "abilityName": "Avatar_Wanderer_ElementalArt_Recovery",
      "abilityOverride": ""
    },
    {
      "abilityID": "",
      "abilityName": "Avatar_Wanderer_ElementalArt_Ring_Handler",
      "abilityOverride": ""
    },
    {
      "abilityID": "",
      "abilityName": "Avatar_Wanderer_ElementalArt_HoverAir_Shoot",
      "abilityOverride": ""
    },
    {
      "abilityID": "",
      "abilityName": "Avatar_Wanderer_ElementalArt_HoverAir_Shoot_1",
      "abilityOverride": ""
    },
    {
      "abilityID": "",
      "abilityName": "Avatar_Wanderer_ElementalArt_HoverAir_Shoot_2",
      "abilityOverride": ""
    },
    {
      "abilityID": "",
      "abilityName": "Avatar_Wanderer_ElementalArt_HoverAir_Shoot_3",
      "abilityOverride": ""
    },
    {
      "abilityID": "",
      "abilityName": "Avatar_Wanderer_ElementalArt_HoverAir_Dash",
      "abilityOverride": ""
    },
    {
      "abilityID": "",
      "abilityName": "Avatar_Wanderer_ElementalArt_HoverAir_Up",
      "abilityOverride": ""
    },
    {
      "abilityID": "",
      "abilityName": "Avatar_Wanderer_ElementalBurst",
      "abilityOverride": ""
    },
    {
      "abilityID": "",
      "abilityName": "Avatar_Wanderer_WeaponVisible",
      "abilityOverride": ""
    },
    {
      "abilityID": "",
      "abilityName": "Avatar_Wanderer_FallingAnthem",
      "abilityOverride": ""
    }
  ],
  "stateLayers": {
    "defaultLayer": {
      "$type": "GBGJJIIEMBD",
      "layerIndexName": "",
      "CPAANEIJCGD": "",
      "stateIDs": {
        "NormalStandby": {
          "$type": "KBOPIKLCBOA",
          "animatorStates": {
            "Standby": [
              "Avatar_ResetFreeStyle"
            ]
          },
          "canDoSkill": true,
          "massRatio": 100.0,
          "setAnimatorBoolean": [
            {
              "name": "&CanUseSkill"
            }
          ],
          "canChangeAvatar": [
            {}
          ],
          "animatorTriggerOnLanded": "",
          "sheatheOnStart": true
        },
        "NormalMove": {
          "$type": "KBOPIKLCBOA",
          "animatorStates": {
            "ShowUp": [
              "Audio_Boy_Showup"
            ],
            "WalkToRun": [
              "Audio_Boy_WalkToRun",
              "Audio_Boy_Foley_Twice_Wanderer"
            ],
            "Walk": [
              "Ani_WalkSprint01",
              "Audio_Boy_Walk",
              "WalkStepOnWater",
              "Audio_Boy_Foley_Walk_Wanderer"
            ],
            "RunToWalk": [
              "Audio_Boy_RunToWalk",
              "Audio_Boy_Foley_Twice_Wanderer"
            ],
            "Run": [
              "Ani_Run01",
              "Audio_Boy_Run",
              "Audio_Boy_Foley_Run_Wanderer"
            ],
            "RunToIdle": [
              "Audio_Boy_RunToIdle",
              "Audio_Boy_Foley_RunToIdle_Wanderer"
            ],
            "WalkToIdle": [
              "Audio_Boy_WalkToIdle"
            ],
            "RunningTurn": [],
            "SprintToRun": [
              "Audio_Boy_SprintToRun",
              "Audio_Boy_Foley_Once_Wanderer"
            ],
            "SprintToIdle": [
              "Audio_Boy_SprintToIdle",
              "Emo_Boy_Sprint_AS",
              "Audio_Boy_Foley_SprintToIdle_Wanderer"
            ],
            "FallOnGround": [
              "Audio_Boy_FallToGround",
              "Audio_Boy_Foley_Twice_Wanderer"
            ],
            "FallOnGroundLit": [
              "Audio_Boy_FallToGround",
              "Audio_Boy_Foley_Once_Wanderer"
            ],
            "FallToGroundRun": [
              "Audio_Boy_FallToGroundRun",
              "Audio_Boy_Foley_Twice_Wanderer"
            ],
            "FallToGroundRunHard": [
              "Audio_Boy_FallToGroundRunHard",
              "Audio_Boy_Foley_Twice_Wanderer"
            ],
            "FallToGroundSprint": [
              "Audio_Boy_FallToGroundSprint",
              "Audio_Boy_Foley_Twice_Wanderer"
            ]
          },
          "canDoSkill": true,
          "massRatio": 1.0,
          "setAnimatorBoolean": [
            {
              "name": "&CanUseSkill"
            }
          ],
          "canChangeAvatar": [
            {}
          ],
          "animatorTriggerOnLanded": "",
          "sheatheOnStart": true
        },
        "Sprint": {
          "$type": "KBOPIKLCBOA",
          "animatorStates": {
            "Sprint": [
              "Ani_WalkSprint01",
              "Audio_Boy_Sprint",
              "Emo_Boy_Sprint_Loop",
              "Audio_Boy_Foley_Twice_Wanderer"
            ]
          },
          "canDoSkill": true,
          "massRatio": 1.0,
          "setAnimatorBoolean": [
            {
              "name": "&CanUseSkill"
            }
          ],
          "canChangeAvatar": [
            {}
          ],
          "animatorTriggerOnLanded": "",
          "sheatheOnStart": true
        },
        "SprintBS": {
          "$type": "KBOPIKLCBOA",
          "animatorStates": {
            "SprintBS": [
              "Audio_Boy_RunToSprint",
              "SprintBS_Invincible",
              "Emo_Boy_Sprint_BS",
              "Audio_Boy_Foley_Sprint_BS_Wanderer"
            ]
          },
          "canDoSkill": true,
          "resetAnimatorTriggerOnEnter": [
            "DoSkill",
            "AimEnd"
          ],
          "setAnimatorBoolean": [
            {
              "name": "&CanUseSkill",
              "normalizeStart": 0.25999999046325684
            }
          ],
          "canChangeAvatar": [
            {
              "normalizeStart": 0.25999999046325684
            }
          ],
          "animatorTriggerOnLanded": "",
          "sheatheOnStart": true
        },
        "Crouch": {
          "$type": "KBOPIKLCBOA",
          "animatorStates": {
            "CrouchIdle": [],
            "CrouchMove": [
              "Audio_Boy_CrouchMove"
            ],
            "CrouchRoll": [
              "Audio_Boy_CrouchRoll",
              "Audio_Boy_Foley_Once_Wanderer"
            ]
          },
          "canDoSkill": true,
          "massRatio": 1.0,
          "setAnimatorBoolean": [
            {
              "name": "&CanUseSkill"
            }
          ],
          "canChangeAvatar": [
            {}
          ],
          "actionPanelState": "Squat",
          "animatorTriggerOnLanded": "",
          "sheatheOnStart": true
        },
        "CrouchToStandby": {
          "$type": "KBOPIKLCBOA",
          "animatorStates": {
            "CrouchToStandby": [
              "Audio_Boy_CrouchToStandby",
              "Audio_Boy_Foley_Once_Wanderer"
            ]
          },
          "resetAnimatorTriggerOnEnter": [
            "DoSkill"
          ],
          "animatorTriggerOnLanded": "",
          "sheatheOnStart": true
        },
        "SkiffNormal": {
          "$type": "KBOPIKLCBOA",
          "animatorStates": {
            "SkiffNormal": []
          },
          "massRatio": 100.0,
          "resetAnimatorTriggerOnExit": [
            "BeHit",
            "DoSkill",
            "Jump"
          ],
          "animatorTriggerOnLanded": "",
          "sheatheOnStart": true
        },
        "Climb": {
          "$type": "KBOPIKLCBOA",
          "animatorStates": {
            "ClimbMove0": [
              "ClimbStep",
              "Audio_Boy_Climb",
              "Audio_Boy_Foley_ClimbMove_Wanderer"
            ],
            "ClimbMove1": [
              "ClimbStep",
              "Audio_Boy_Climb_1",
              "Audio_Boy_Foley_Twice_Wanderer"
            ],
            "ClimbIdle": [],
            "ClimbJump": [
              "Audio_Boy_ClimbDash",
              "Audio_Boy_Foley_Once_Wanderer"
            ],
            "JumpUpWallForStandby": [
              "Audio_Boy_JumpUpWallStandby",
              "Audio_Boy_Foley_Once_Wanderer"
            ],
            "Standby2ClimbB": [
              "Audio_Boy_Standby2ClimbB",
              "Audio_Boy_Foley_Once_Wanderer"
            ]
          },
          "resetAnimatorTriggerOnEnter": [
            "DoSkill"
          ],
          "actionPanelState": "Climb",
          "animatorTriggerOnLanded": "",
          "sheatheOnStart": true
        },
        "ClimbTransient": {
          "$type": "KBOPIKLCBOA",
          "animatorStates": {
            "JumpWallReady": [],
            "Standby2ClimbA": [
              "Audio_Boy_Standby2ClimbA",
              "Audio_Boy_Foley_Once_Wanderer"
            ]
          },
          "resetAnimatorTriggerOnEnter": [
            "DoSkill"
          ],
          "animatorTriggerOnLanded": "",
          "sheatheOnStart": true
        },
        "Upstairs": {
          "$type": "KBOPIKLCBOA",
          "animatorStates": {
            "Upstairs": [
              "Audio_Boy_Upstairs",
              "Audio_Boy_Foley_Once_Wanderer"
            ]
          },
          "resetAnimatorTriggerOnEnter": [
            "DoSkill"
          ],
          "setAnimatorBoolean": [
            {
              "name": "&CanUseSkill"
            }
          ],
          "animatorTriggerOnLanded": "",
          "sheatheOnStart": true
        },
        "Slip": {
          "$type": "KBOPIKLCBOA",
          "animatorStates": {
            "SlipFaceWall": [
              "Audio_Boy_Foley_SlipFaceWall_Wanderer"
            ],
            "SlipBackWall": [
              "Audio_Boy_Foley_SlipBackWall_Wanderer"
            ]
          },
          "resetAnimatorTriggerOnEnter": [
            "DoSkill"
          ],
          "animatorTriggerOnLanded": "",
          "sheatheOnStart": true
        },
        "Swim": {
          "$type": "KBOPIKLCBOA",
          "animatorStates": {
            "SwimIdle": [
              "Audio_Boy_SwimIdle"
            ],
            "SwimMove": [
              "SwimStep",
              "Audio_Boy_SwimMove"
            ],
            "SwimDash": [
              "Audio_Boy_SwimDash",
              "Avatar_Boy_SwimDash_Hand_Effect"
            ],
            "SwimJumpToWater": [
              "Audio_Boy_SwimJumpToWater"
            ]
          },
          "resetAnimatorTriggerOnEnter": [
            "DoSkill"
          ],
          "actionPanelState": "Swim",
          "animatorTriggerOnLanded": "",
          "sheatheOnStart": true
        },
        "Fly": {
          "$type": "KBOPIKLCBOA",
          "animatorStates": {
            "Fly": [
              "Audio_Boy_Foley_Once_Wanderer"
            ],
            "FlyStart": [
              "Audio_Boy_FlyStart",
              "FlyStart_Weapon",
              "Audio_Boy_Foley_Fly_Start_Wanderer"
            ]
          },
          "canDoSkill": true,
          "resetAnimatorTriggerOnEnter": [
            "DoSkill"
          ],
          "setAnimatorBoolean": [
            {
              "name": "&CanUseAirSkill"
            }
          ],
          "actionPanelState": "Fly",
          "animatorTriggerOnLanded": "",
          "sheatheOnStart": true
        },
        "Jump": {
          "$type": "KBOPIKLCBOA",
          "animatorStates": {
            "Jump": [
              "Audio_Boy_Jump",
              "Audio_Boy_Foley_Jump_Wanderer"
            ],
            "JumpForRun": [
              "Audio_Boy_Jump",
              "Audio_Boy_Foley_Once_Wanderer"
            ],
            "JumpForWalk": [
              "Audio_Boy_Jump",
              "Audio_Boy_Foley_Once_Wanderer"
            ],
            "JumpForSprint": [
              "Audio_Boy_Jump",
              "Audio_Boy_Foley_Once_Wanderer"
            ]
          },
          "canDoSkill": true,
          "resetAnimatorTriggerOnEnter": [
            "DoSkill",
            "AimEnd"
          ],
          "setAnimatorBoolean": [
            {
              "name": "&CanUseAirSkill"
            }
          ],
          "actionPanelState": "Jump",
          "animatorTriggerOnLanded": "",
          "sheatheOnStart": true
        },
        "Fall": {
          "$type": "KBOPIKLCBOA",
          "animatorStates": {
            "JumpOffWall": [
              "Audio_Boy_Jump",
              "Audio_Boy_Foley_Once_Wanderer"
            ],
            "SwimJump": [
              "Audio_Boy_SwimJump",
              "Audio_Boy_Foley_Once_Wanderer"
            ],
            "SwimJumpDrop": [
              "Audio_Boy_Foley_ThreeTimes_Wanderer"
            ],
            "DropDown": [
              "Audio_Boy_DropDown",
              "Audio_Boy_Foley_ThreeTimes_Wanderer"
            ],
            "DropDownLit": [],
            "WalkDropDownLit": []
          },
          "canDoSkill": true,
          "resetAnimatorTriggerOnEnter": [
            "DoSkill"
          ],
          "setAnimatorBoolean": [
            {
              "name": "&CanUseAirSkill"
            }
          ],
          "animatorTriggerOnLanded": "",
          "sheatheOnStart": true
        },
        "NormalStandbyWeapon": {
          "$type": "KBOPIKLCBOA",
          "animatorStates": {
            "StandbyWeapon": []
          },
          "canDoSkill": true,
          "massRatio": 100.0,
          "setAnimatorBoolean": [
            {
              "name": "&CanUseSkill"
            }
          ],
          "canChangeAvatar": [
            {}
          ],
          "animatorTriggerOnLanded": "",
          "battouOnStart": true
        },
        "NormalMoveWeapon": {
          "$type": "KBOPIKLCBOA",
          "animatorStates": {
            "WalkToRunWeapon": [
              "Boy_Sword_Putaway_RunBS",
              "Audio_Boy_WalkToRun"
            ],
            "WalkWeapon": [
              "Audio_Boy_Walk",
              "Audio_Boy_Foley_Twice_Wanderer"
            ],
            "RunToWalkWeapon": [
              "Audio_Boy_RunToWalk"
            ],
            "RunWeapon": [
              "Audio_Boy_Run",
              "Audio_Boy_Foley_Twice_Wanderer"
            ],
            "RunToIdleWeapon": [
              "Audio_Boy_Foley_Twice_Wanderer"
            ],
            "WalkToIdleWeapon": [
              "Audio_Boy_Foley_Twice_Wanderer"
            ],
            "RunningTurnWeapon": [],
            "FallOnGroundWeapon": [
              "Audio_Boy_FallOnGround"
            ],
            "FallOnGroundLitWeapon": [
              "Audio_Boy_FallOnGroundLit"
            ],
            "FallOnGroundMiddleWeapon": [
              "Audio_Boy_FallOnGroundMiddle"
            ],
            "FallToGroundRunWeapon": [
              "Audio_Boy_FallToGroundRun"
            ],
            "FallToGroundRunHardWeapon": [
              "Audio_Boy_FallToGroundRunHard"
            ]
          },
          "canDoSkill": true,
          "massRatio": 2.0,
          "setAnimatorBoolean": [
            {
              "name": "&CanUseSkill"
            }
          ],
          "canChangeAvatar": [
            {}
          ],
          "animatorTriggerOnLanded": "",
          "battouOnStart": true
        },
        "NormalMoveWeaponPutaway": {
          "$type": "KBOPIKLCBOA",
          "animatorStates": {
            "StandbyPutaway": [
              "Boy_Catalyst_Putaway_Standby",
              "Audio_Boy_Sword_StandbyPutAway"
            ],
            "WalkPutaway": [
              "Boy_Sword_Putaway_Walk",
              "Audio_Boy_Sword_WalkPutAway",
              "Audio_Boy_Foley_Twice_Wanderer"
            ],
            "RunPutaway": [
              "Boy_Sword_Putaway_Run",
              "Audio_Boy_Sword_RunPutAway",
              "Audio_Boy_Foley_Twice_Wanderer"
            ],
            "RunToSprintWeapon": [
              "Boy_Sword_Putaway_Sprint",
              "Audio_Boy_Sword_RunToSprintWeapon"
            ]
          },
          "canDoSkill": true,
          "massRatio": 2.0,
          "setAnimatorBoolean": [
            {
              "name": "&CanUseSkill"
            }
          ],
          "canChangeAvatar": [
            {}
          ],
          "animatorTriggerOnLanded": "",
          "battouOnStart": true
        },
        "NormalMoveWeaponOver": {
          "$type": "KBOPIKLCBOA",
          "animatorStates": {
            "StandbyPutawayOver": [],
            "WalkPutawayOver": [
              "Audio_Boy_Sword_WalkPutAwayOver"
            ],
            "RunPutawayOver": [
              "Audio_Boy_Sword_RunPutAwayOver"
            ],
            "RunToSprintWeaponOver": [
              "Audio_Boy_Sword_RunToSprintWeaponOver"
            ]
          },
          "canDoSkill": true,
          "massRatio": 2.0,
          "setAnimatorBoolean": [
            {
              "name": "&CanUseSkill"
            }
          ],
          "canChangeAvatar": [
            {}
          ],
          "animatorTriggerOnLanded": "",
          "sheatheOnStart": true
        },
        "JumpWeapon": {
          "$type": "KBOPIKLCBOA",
          "animatorStates": {
            "JumpWeapon": [
              "Audio_Boy_Jump",
              "Audio_Boy_Foley_Once_Wanderer"
            ],
            "JumpForRunWeapon": [
              "Audio_Boy_Jump",
              "Audio_Boy_Foley_Once_Wanderer"
            ],
            "JumpForWalkWeapon": [
              "Audio_Boy_Jump",
              "Audio_Boy_Foley_Once_Wanderer"
            ]
          },
          "canDoSkill": true,
          "resetAnimatorTriggerOnEnter": [
            "DoSkill"
          ],
          "setAnimatorBoolean": [
            {
              "name": "&CanUseAirSkill"
            }
          ],
          "canChangeAvatar": [
            {}
          ],
          "actionPanelState": "Jump",
          "animatorTriggerOnLanded": "",
          "battouOnStart": true
        },
        "FallWeapon": {
          "$type": "KBOPIKLCBOA",
          "animatorStates": {
            "DropDownWeapon": [
              "Audio_Boy_DropDown",
              "Audio_Boy_Foley_ThreeTimes_Wanderer"
            ],
            "DropDownLitWeapon": [],
            "WalkDropDownLitWeapon": []
          },
          "canDoSkill": true,
          "resetAnimatorTriggerOnEnter": [
            "DoSkill"
          ],
          "setAnimatorBoolean": [
            {
              "name": "&CanUseAirSkill"
            }
          ],
          "animatorTriggerOnLanded": "",
          "battouOnStart": true
        },
        "BeHit": {
          "$type": "KBOPIKLCBOA",
          "animatorStates": {
            "Hit_L": [
              "Audio_Boy_Hit_L",
              "Audio_Boy_Foley_Once_Wanderer"
            ],
            "Hit_H": [
              "Audio_Boy_Hit_H",
              "Audio_Boy_Foley_Once_Wanderer"
            ]
          },
          "MOKBIKEEHMJ": "combatMove",
          "resetAnimatorTriggerOnEnter": [
            "BeHit",
            "HitAir2HitDrop"
          ],
          "resetAnimatorTriggerOnExit": [
            "DoSkill"
          ],
          "cameraType": "combatBeHit",
          "jumpCancelEnd": 0.0,
          "animatorTriggerOnLanded": "",
          "battouOnStart": true
        },
        "HitThrow": {
          "$type": "KBOPIKLCBOA",
          "animatorStates": {
            "Hit_Throw_Ground": [
              "BeHitAir_Weapon",
              "Audio_Boy_Hit_Throw_Ground_PlayerBoy"
            ]
          },
          "MOKBIKEEHMJ": "combatMove",
          "resetAnimatorTriggerOnEnter": [
            "BeHit",
            "HitAir2HitDrop"
          ],
          "resetAnimatorTriggerOnExit": [
            "DoSkill"
          ],
          "cameraType": "combatBeHit",
          "jumpCancelEnd": 0.0,
          "animatorTriggerOnLanded": "",
          "sheatheOnStart": true
        },
        "BeHitAir": {
          "$type": "KBOPIKLCBOA",
          "animatorStates": {
            "Hit_Throw": [
              "Audio_Boy_Hit_Throw",
              "BeHitAir_Weapon",
              "Audio_Boy_Foley_Once_Wanderer"
            ],
            "Hit_ThrowAir": [
              "Audio_Boy_DropDown",
              "BeHitAir_Weapon"
            ],
            "Struggle": [
              "BeHitAir_Weapon",
              "Audio_Boy_Foley_ThreeTimes_Wanderer"
            ]
          },
          "MOKBIKEEHMJ": "combatAir",
          "resetAnimatorTriggerOnEnter": [
            "BeHit"
          ],
          "resetAnimatorTriggerOnExit": [
            "DoSkill"
          ],
          "cameraType": "combatBeHit",
          "actionPanelState": "CombatAir",
          "jumpCancelEnd": 0.0,
          "animatorTriggerOnLanded": "",
          "sheatheOnStart": true
        },
        "Wanderer_ElementalArt_HoverAir_HitRetreat": {
          "$type": "KBOPIKLCBOA",
          "animatorStates": {
            "Wanderer_ElementalArt_HoverAir_HitRetreat": [
              "Audio_Boy_Hit_ThrowGround_Hover_Wanderer",
              "Interaction_Bad",
              "Emo_Boy_Catalyst_Wanderer_HoverAir_Recovery"
            ]
          },
          "MOKBIKEEHMJ": "combatAir",
          "canDoSkill": true,
          "canDoSkillStart": 0.25,
          "resetAnimatorTriggerOnExit": [
            "BeHit",
            "DoSkill"
          ],
          "setAnimatorBoolean": [
            {
              "name": "Hovering"
            },
            {
              "name": "MuteAirSkill",
              "normalizeEnd": 0.25
            },
            {
              "name": "&CanUseSkill",
              "normalizeStart": 0.25
            }
          ],
          "cameraType": "combatBeHit",
          "animatorTriggerOnLanded": ""
        },
        "Hit_Throw_Hover": {
          "$type": "KBOPIKLCBOA",
          "animatorStates": {
            "Hit_Throw_Hover": [
              "Audio_Boy_Hit_Throw"
            ],
            "Hit_ThrowAir_Hover": [
              "Audio_Boy_DropDown"
            ]
          },
          "MOKBIKEEHMJ": "combatAir",
          "resetAnimatorTriggerOnEnter": [
            "BeHit"
          ],
          "resetAnimatorTriggerOnExit": [
            "DoSkill"
          ],
          "setAnimatorBoolean": [
            {
              "name": "Hovering"
            }
          ],
          "cameraType": "combatBeHit",
          "jumpCancelEnd": 0.0,
          "animatorTriggerOnLanded": "",
          "sheatheOnStart": true,
          "enableHitAirRetreatInAir": true
        },
        "Struggle_Hover": {
          "$type": "KBOPIKLCBOA",
          "animatorStates": {
            "Struggle_Hover": [
              "Audio_Boy_Foley_ThreeTimes_Wanderer"
            ]
          },
          "MOKBIKEEHMJ": "combatAir",
          "resetAnimatorTriggerOnEnter": [
            "BeHit"
          ],
          "resetAnimatorTriggerOnExit": [
            "DoSkill"
          ],
          "setAnimatorBoolean": [
            {
              "name": "Hovering"
            }
          ],
          "cameraType": "combatBeHit",
          "jumpCancelEnd": 0.0,
          "animatorTriggerOnLanded": "",
          "sheatheOnStart": true
        },
        "Hit_ThrowGround_Hover": {
          "$type": "KBOPIKLCBOA",
          "animatorStates": {
            "Hit_ThrowGround_Hover": [
              "Audio_Boy_Hit_ThrowGround_Hover_Wanderer",
              "Interaction_Bad",
              "Emo_Boy_Catalyst_Wanderer_HoverAir_Recovery"
            ]
          },
          "MOKBIKEEHMJ": "combatAir",
          "canDoSkill": true,
          "canDoSkillStart": 0.25,
          "resetAnimatorTriggerOnEnter": [
            "BeHit",
            "HitAir2HitDrop"
          ],
          "resetAnimatorTriggerOnExit": [
            "DoSkill"
          ],
          "setAnimatorBoolean": [
            {
              "name": "Hovering"
            },
            {
              "name": "MuteAirSkill",
              "normalizeEnd": 0.25
            },
            {
              "name": "&CanUseSkill",
              "normalizeStart": 0.25
            }
          ],
          "cameraType": "combatBeHit",
          "jumpCancelEnd": 0.0,
          "animatorTriggerOnLanded": "",
          "sheatheOnStart": true
        },
        "Die": {
          "$type": "KBOPIKLCBOA",
          "animatorStates": {
            "DiveDie": [
              "Die",
              "Audio_Boy_Dive_Die"
            ],
            "FallDie": [
              "Audio_Boy_Death"
            ],
            "NormalDie": [
              "Die",
              "Audio_Boy_Death",
              "Audio_Boy_Foley_Once_Wanderer"
            ],
            "SwimDie": [
              "Swim_Die",
              "Audio_Boy_SwimDie"
            ],
            "HitGroundDie": [
              "Die",
              "Audio_Boy_Death"
            ]
          },
          "animatorTriggerOnLanded": ""
        },
        "Die_RagDoll": {
          "$type": "KBOPIKLCBOA",
          "animatorStates": {
            "NormalDie_AS": [],
            "FallDie_AS": []
          },
          "enableRagDoll": true,
          "animatorTriggerOnLanded": ""
        },
        "Attack01": {
          "$type": "KBOPIKLCBOA",
          "animatorStates": {
            "Attack01": [
              "Wanderer_Attack01",
              "SetComboCount1",
              "Interaction_Bad",
              "Audio_Boy_Wanderer_Attack01",
              "Emo_Boy_Catalyst_Wanderer_Attack01"
            ]
          },
          "MOKBIKEEHMJ": "combatMove",
          "canDoSkill": true,
          "resetAnimatorTriggerOnExit": [
            "BeHit"
          ],
          "setAnimatorBoolean": [
            {
              "name": "&CanUseExtra"
            },
            {
              "name": "&CanCancelSkill"
            }
          ],
          "cameraType": "combatNormal",
          "canChangeAvatar": [
            {}
          ],
          "animatorTriggerOnLanded": "",
          "battouOnStart": true,
          "sheatheOnEnd": true,
          "ignorePreSheath": true
        },
        "Attack02": {
          "$type": "KBOPIKLCBOA",
          "animatorStates": {
            "Attack02": [
              "Wanderer_Attack02",
              "SetComboCount2",
              "Interaction_Bad",
              "Audio_Boy_Wanderer_Attack02",
              "Emo_Boy_Catalyst_Wanderer_Attack02"
            ]
          },
          "MOKBIKEEHMJ": "combatMove",
          "canDoSkill": true,
          "resetAnimatorTriggerOnExit": [
            "BeHit"
          ],
          "setAnimatorBoolean": [
            {
              "name": "&CanUseExtra"
            },
            {
              "name": "&CanCancelSkill"
            }
          ],
          "cameraType": "combatNormal",
          "canChangeAvatar": [
            {}
          ],
          "animatorTriggerOnLanded": "",
          "battouOnStart": true,
          "ignorePreSheath": true
        },
        "Attack03": {
          "$type": "KBOPIKLCBOA",
          "animatorStates": {
            "Attack03": [
              "Wanderer_Attack03",
              "SetComboCount3",
              "Interaction_Bad",
              "Audio_Boy_Wanderer_Attack03",
              "Emo_Boy_Catalyst_Wanderer_Attack03"
            ]
          },
          "MOKBIKEEHMJ": "combatMove",
          "canDoSkill": true,
          "resetAnimatorTriggerOnExit": [
            "BeHit"
          ],
          "setAnimatorBoolean": [
            {
              "name": "&CanUseExtra",
              "normalizeEnd": 0.800000011920929
            },
            {
              "name": "&CanCancelSkill"
            }
          ],
          "cameraType": "combatNormal",
          "canChangeAvatar": [
            {}
          ],
          "animatorTriggerOnLanded": "",
          "battouOnStart": true,
          "sheatheOnEnd": true
        },
        "ExtraAttack_BS": {
          "$type": "KBOPIKLCBOA",
          "animatorStates": {
            "ExtraAttack_BS": [
              "Audio_Boy_Wanderer_ExtraAttack_BS"
            ]
          },
          "MOKBIKEEHMJ": "combatMove",
          "canDoSkill": true,
          "resetAnimatorTriggerOnExit": [
            "BeHit",
            "DoSkill",
            "Jump"
          ],
          "setAnimatorBoolean": [
            {
              "name": "&CanCancelSkill"
            }
          ],
          "cameraType": "combatNormal",
          "animatorTriggerOnLanded": "",
          "sheatheOnStart": true
        },
        "ExtraAttack_Charge": {
          "$type": "KBOPIKLCBOA",
          "animatorStates": {
            "ExtraAttack_Charge": [
              "Wanderer_ExtraAttack_Charge",
              "Emo_Boy_Catalyst_Wanderer_ExtraAttack_Charge"
            ]
          },
          "MOKBIKEEHMJ": "combatMove",
          "resetAnimatorTriggerOnExit": [
            "BeHit"
          ],
          "setAnimatorBoolean": [
            {
              "name": "&CanCancelSkill"
            }
          ],
          "cameraType": "combatNormal",
          "animatorTriggerOnLanded": "",
          "sheatheOnStart": true
        },
        "ExtraAttack": {
          "$type": "KBOPIKLCBOA",
          "animatorStates": {
            "ExtraAttack": [
              "Wanderer_ExtraAttack",
              "Interaction_Bad",
              "Emo_Boy_Catalyst_Wanderer_ExtraAttack",
              "Audio_Boy_Wanderer_ExtraAttack"
            ]
          },
          "MOKBIKEEHMJ": "combatMove",
          "resetAnimatorTriggerOnExit": [
            "BeHit",
            "DoSkill",
            "Jump"
          ],
          "setAnimatorBoolean": [
            {
              "name": "&CanCancelSkill"
            },
            {
              "name": "&CanUseSkill"
            }
          ],
          "cameraType": "combatNormal",
          "cameraParam": {
            "radiusSpringRatio": 2.0
          },
          "jumpCancelStart": 0.20000000298023224,
          "sprintCancelStart": 0.20000000298023224,
          "animatorTriggerOnLanded": "",
          "sheatheOnStart": true
        },
        "ExtraAttack_AS": {
          "$type": "KBOPIKLCBOA",
          "animatorStates": {
            "ExtraAttack_AS": [
              "Wanderer_ExtraAttack_AS",
              "Audio_Boy_Wanderer_ExtraAttack_AS",
              "Emo_Boy_Catalyst_Wanderer_ExtraAttack_AS"
            ]
          },
          "MOKBIKEEHMJ": "combatMove",
          "canDoSkill": true,
          "resetAnimatorTriggerOnExit": [
            "BeHit"
          ],
          "setAnimatorBoolean": [
            {
              "name": "&CanUseSkill"
            }
          ],
          "cameraType": "combatNormal",
          "canChangeAvatar": [
            {}
          ],
          "animatorTriggerOnLanded": "",
          "battouOnStart": true,
          "sheatheOnEnd": true
        },
        "Wanderer_ElementalArt_Attack01": {
          "$type": "KBOPIKLCBOA",
          "animatorStates": {
            "Wanderer_ElementalArt_Attack01": [
              "SetComboCount1",
              "Wanderer_ElementalArt_HoverAir_Shoot_1",
              "Interaction_Bad",
              "Audio_Boy_Wanderer_Air_Attack01",
              "Emo_Boy_Catalyst_Wanderer_HoverAir_Attack01"
            ]
          },
          "MOKBIKEEHMJ": "combatAir",
          "canDoSkill": true,
          "resetAnimatorTriggerOnExit": [
            "BeHit"
          ],
          "setAnimatorBoolean": [
            {
              "name": "isHoverAttacking",
              "normalizeEnd": 0.10000000149011612
            },
            {
              "name": "Hovering"
            }
          ],
          "cameraType": "combatNormal",
          "jumpCancelEnd": -1.0,
          "sprintCancelEnd": -1.0,
          "animatorTriggerOnLanded": ""
        },
        "Wanderer_ElementalArt_Attack02": {
          "$type": "KBOPIKLCBOA",
          "animatorStates": {
            "Wanderer_ElementalArt_Attack02": [
              "SetComboCount2",
              "Wanderer_ElementalArt_HoverAir_Shoot_2",
              "Audio_Boy_Wanderer_Air_Attack02",
              "Interaction_Bad",
              "Emo_Boy_Catalyst_Wanderer_HoverAir_Attack02"
            ]
          },
          "MOKBIKEEHMJ": "combatAir",
          "canDoSkill": true,
          "resetAnimatorTriggerOnExit": [
            "BeHit"
          ],
          "setAnimatorBoolean": [
            {
              "name": "isHoverAttacking",
              "normalizeEnd": 0.10000000149011612
            },
            {
              "name": "Hovering"
            }
          ],
          "cameraType": "combatNormal",
          "jumpCancelEnd": -1.0,
          "sprintCancelEnd": -1.0,
          "animatorTriggerOnLanded": ""
        },
        "Wanderer_ElementalArt_Attack03": {
          "$type": "KBOPIKLCBOA",
          "animatorStates": {
            "Wanderer_ElementalArt_Attack03": [
              "SetComboCount3",
              "Wanderer_ElementalArt_HoverAir_Shoot_3",
              "Audio_Boy_Wanderer_Air_Attack03",
              "Interaction_Bad",
              "Emo_Boy_Catalyst_Wanderer_HoverAir_Attack03"
            ]
          },
          "MOKBIKEEHMJ": "combatAir",
          "canDoSkill": true,
          "resetAnimatorTriggerOnExit": [
            "BeHit"
          ],
          "setAnimatorBoolean": [
            {
              "name": "isHoverAttacking",
              "normalizeEnd": 0.10000000149011612
            },
            {
              "name": "Hovering"
            }
          ],
          "cameraType": "combatNormal",
          "jumpCancelEnd": -1.0,
          "sprintCancelEnd": -1.0,
          "animatorTriggerOnLanded": ""
        },
        "Wanderer_ElementalArt_Attack03_AS": {
          "$type": "KBOPIKLCBOA",
          "animatorStates": {
            "Wanderer_ElementalArt_Attack03_AS": [
              "Audio_Boy_Wanderer_Air_Attack03_AS",
              "Emo_Boy_Catalyst_Wanderer_HoverAir_Attack03_AS"
            ]
          },
          "MOKBIKEEHMJ": "combatAir",
          "canDoSkill": true,
          "resetAnimatorTriggerOnExit": [
            "BeHit"
          ],
          "setAnimatorBoolean": [
            {
              "name": "isHoverAttacking",
              "normalizeEnd": 0.10000000149011612
            },
            {
              "name": "&CanUseSkill"
            },
            {
              "name": "Hovering"
            }
          ],
          "cameraType": "combatNormal",
          "jumpCancelEnd": -1.0,
          "sprintCancelEnd": -1.0,
          "animatorTriggerOnLanded": ""
        },
        "ExtraAttack_Air_BS": {
          "$type": "KBOPIKLCBOA",
          "animatorStates": {
            "ExtraAttack_Air_BS": [
              "Audio_Boy_Wanderer_ExtraAttack_Air_BS"
            ]
          },
          "MOKBIKEEHMJ": "combatAir",
          "canDoSkill": true,
          "resetAnimatorTriggerOnExit": [
            "BeHit",
            "DoSkill"
          ],
          "setAnimatorBoolean": [
            {
              "name": "&CanCancelSkill"
            },
            {
              "name": "isHoverAttacking"
            },
            {
              "name": "Hovering"
            }
          ],
          "cameraType": "combatNormal",
          "animatorTriggerOnLanded": ""
        },
        "ExtraAttack_Air_Charge": {
          "$type": "KBOPIKLCBOA",
          "animatorStates": {
            "ExtraAttack_Air_Charge": [
              "Wanderer_ExtraAttack_Air_Charge",
              "Emo_Boy_Catalyst_Wanderer_HoverAir_ExtraAttack_Charge"
            ]
          },
          "MOKBIKEEHMJ": "combatAir",
          "canDoSkill": true,
          "resetAnimatorTriggerOnExit": [
            "BeHit"
          ],
          "setAnimatorBoolean": [
            {
              "name": "&CanCancelSkill"
            },
            {
              "name": "isHoverAttacking"
            },
            {
              "name": "Hovering"
            }
          ],
          "cameraType": "combatNormal",
          "animatorTriggerOnLanded": ""
        },
        "ExtraAttack_Air": {
          "$type": "KBOPIKLCBOA",
          "animatorStates": {
            "ExtraAttack_Air": [
              "Wanderer_ExtraAttack_Air",
              "Emo_Boy_Catalyst_Wanderer_HoverAir_ExtraAttack",
              "Audio_Boy_Wanderer_ExtraAttack_Air",
              "Interaction_Bad"
            ]
          },
          "MOKBIKEEHMJ": "combatAir",
          "canDoSkill": true,
          "canDoSkillStart": 0.20000000298023224,
          "resetAnimatorTriggerOnExit": [
            "BeHit"
          ],
          "setAnimatorBoolean": [
            {
              "name": "&CanCancelSkill"
            },
            {
              "name": "&CanUseSkill",
              "normalizeStart": 0.8999999761581421
            },
            {
              "name": "isHoverAttacking"
            },
            {
              "name": "Hovering"
            }
          ],
          "cameraType": "combatNormal",
          "cameraParam": {
            "radiusSpringRatio": 2.0
          },
          "jumpCancelStart": 0.20000000298023224,
          "sprintCancelStart": 0.20000000298023224,
          "animatorTriggerOnLanded": ""
        },
        "ExtraAttack_Air_AS": {
          "$type": "KBOPIKLCBOA",
          "animatorStates": {
            "ExtraAttack_Air_AS": [
              "Audio_Boy_Wanderer_ExtraAttack_Air_AS",
              "Emo_Boy_Catalyst_Wanderer_HoverAir_ExtraAttack_AS"
            ]
          },
          "MOKBIKEEHMJ": "combatAir",
          "canDoSkill": true,
          "resetAnimatorTriggerOnExit": [
            "BeHit"
          ],
          "setAnimatorBoolean": [
            {
              "name": "&CanUseSkill"
            },
            {
              "name": "Hovering"
            }
          ],
          "cameraType": "combatNormal",
          "canChangeAvatar": [
            {}
          ],
          "animatorTriggerOnLanded": ""
        },
        "Wanderer_ElementalArt_Air_BS": {
          "$type": "KBOPIKLCBOA",
          "animatorStates": {
            "Wanderer_ElementalArt_Air_BS": [
              "Wanderer_ElementalArt_Launch",
              "CombatAir_Disable_Landavatar",
              "Audio_Boy_Wanderer_ElementalArt_Air_BS",
              "Emo_Boy_Catalyst_Wanderer_HoverAir_BS"
            ]
          },
          "MOKBIKEEHMJ": "combatAir",
          "canDoSkill": true,
          "canDoSkillStart": 0.20000000298023224,
          "resetAnimatorTriggerOnExit": [
            "BeHit"
          ],
          "setAnimatorBoolean": [
            {
              "name": "&CanUseSkill",
              "normalizeStart": 0.20000000298023224
            },
            {
              "name": "MuteAirSkill",
              "normalizeEnd": 0.20000000298023224
            },
            {
              "name": "Hovering",
              "normalizeStart": 0.20000000298023224
            },
            {
              "name": "isHoverAttacking"
            }
          ],
          "enableCCD": true,
          "cameraType": "combatNormal",
          "jumpCancelEnd": -1.0,
          "sprintCancelEnd": -1.0,
          "animatorTriggerOnLanded": "",
          "sheatheOnStart": true
        },
        "Wanderer_ElementalArt_HoverAir": {
          "$type": "KBOPIKLCBOA",
          "animatorStates": {
            "Wanderer_ElementalArt_HoverAir": []
          },
          "MOKBIKEEHMJ": "combatAir",
          "canDoSkill": true,
          "resetAnimatorTriggerOnExit": [
            "BeHit"
          ],
          "setAnimatorBoolean": [
            {
              "name": "&CanUseSkill"
            },
            {
              "name": "Hovering"
            }
          ],
          "cameraType": "combatNormal",
          "animatorTriggerOnLanded": "",
          "PFEFKNJCGHC": true
        },
        "Wanderer_ElementalArt_HoverAir_Move": {
          "$type": "KBOPIKLCBOA",
          "animatorStates": {
            "Wanderer_Hover_MoveAS": [
              "Audio_Boy_Wanderer_HoverAir_Move_AS"
            ],
            "Wanderer_Hover_MoveHold": [],
            "Wanderer_Hover_MoveBS": [
              "Audio_Boy_Wanderer_HoverAir_Move_BS"
            ]
          },
          "MOKBIKEEHMJ": "combatAir",
          "canDoSkill": true,
          "resetAnimatorTriggerOnExit": [
            "BeHit"
          ],
          "setAnimatorBoolean": [
            {
              "name": "&CanUseSkill"
            },
            {
              "name": "Hovering"
            }
          ],
          "cameraType": "combatNormal",
          "cameraParam": {
            "radiusSpringRatio": 5.0
          },
          "animatorTriggerOnLanded": "",
          "PFEFKNJCGHC": true
        },
        "Wanderer_ElementalArt_HoverAir_Dash_ToRun": {
          "$type": "KBOPIKLCBOA",
          "animatorStates": {
            "Wanderer_ElementalArt_HoverAir_Dash_ToRun": [
              "Audio_Boy_Wanderer_ElementalArt_Air_Dash_ToRun",
              "Emo_Boy_Catalyst_Wanderer_HoverAir_Dash_DashToMove"
            ]
          },
          "MOKBIKEEHMJ": "combatAir",
          "canDoSkill": true,
          "resetAnimatorTriggerOnExit": [
            "BeHit"
          ],
          "setAnimatorBoolean": [
            {
              "name": "&CanUseSkill"
            },
            {
              "name": "Hovering"
            }
          ],
          "cameraType": "combatNormal",
          "cameraParam": {
            "radiusSpringRatio": 10.0
          },
          "animatorTriggerOnLanded": "",
          "PFEFKNJCGHC": true
        },
        "Wanderer_ElementalArt_HoverAir_Dash_BS": {
          "$type": "KBOPIKLCBOA",
          "animatorStates": {
            "Wanderer_ElementalArt_HoverAir_Dash_BS": [
              "SprintBS_Invincible",
              "Wanderer_ElementalArt_HoverAir_Dash_BS",
              "Audio_Boy_Wanderer_ElementalArt_Air_Dash_BS",
              "Emo_Boy_Catalyst_Wanderer_HoverAir_Dash_BS"
            ]
          },
          "MOKBIKEEHMJ": "combatAir",
          "canDoSkill": true,
          "resetAnimatorTriggerOnExit": [
            "BeHit",
            "DoSkill",
            "Jump"
          ],
          "setAnimatorBoolean": [
            {
              "name": "&CanUseSkill",
              "normalizeStart": 0.18000000715255737
            },
            {
              "name": "Hovering"
            },
            {
              "name": "MuteAirSkill",
              "normalizeEnd": 0.20000000298023224
            },
            {
              "name": "isHoverAttacking",
              "normalizeEnd": 0.18000000715255737
            }
          ],
          "enableCCD": true,
          "cameraType": "combatNormal",
          "cameraParam": {
            "radiusSpringRatio": 10.0
          },
          "jumpCancelEnd": -1.0,
          "sprintCancelEnd": -1.0,
          "animatorTriggerOnLanded": "",
          "sheatheOnStart": true
        },
        "Wanderer_ElementalArt_HoverAir_Dash_Hold": {
          "$type": "KBOPIKLCBOA",
          "animatorStates": {
            "Wanderer_ElementalArt_HoverAir_Dash_Hold": [
              "Emo_Boy_Catalyst_Wanderer_HoverAir_Dash_Loop"
            ]
          },
          "MOKBIKEEHMJ": "combatAir",
          "canDoSkill": true,
          "resetAnimatorTriggerOnExit": [
            "BeHit",
            "DoSkill",
            "Jump"
          ],
          "setAnimatorBoolean": [
            {
              "name": "&CanUseSkill"
            },
            {
              "name": "Hovering"
            }
          ],
          "enableCCD": true,
          "cameraType": "combatNormal",
          "cameraParam": {
            "radiusSpringRatio": 10.0
          },
          "animatorTriggerOnLanded": "",
          "sheatheOnStart": true
        },
        "Wanderer_ElementalArt_HoverAir_Dash_AS": {
          "$type": "KBOPIKLCBOA",
          "animatorStates": {
            "Wanderer_ElementalArt_HoverAir_Dash_AS": [
              "Audio_Boy_Wanderer_ElementalArt_Air_Dash_AS",
              "Emo_Boy_Catalyst_Wanderer_HoverAir_Dash_AS"
            ]
          },
          "MOKBIKEEHMJ": "combatAir",
          "canDoSkill": true,
          "resetAnimatorTriggerOnExit": [
            "BeHit",
            "DoSkill",
            "Jump"
          ],
          "setAnimatorBoolean": [
            {
              "name": "&CanCancelSkill"
            },
            {
              "name": "&CanUseSkill"
            },
            {
              "name": "Hovering"
            }
          ],
          "cameraType": "combatNormal",
          "canChangeAvatar": [
            {}
          ],
          "animatorTriggerOnLanded": "",
          "sheatheOnStart": true
        },
        "Wanderer_ElementalArt_HoverAir_Up_BS": {
          "$type": "KBOPIKLCBOA",
          "animatorStates": {
            "Wanderer_ElementalArt_HoverAir_Up_BS": [
              "Audio_Boy_Wanderer_HoverAir_Up_BS",
              "Emo_Boy_Catalyst_Wanderer_HoverAir_Up_BS"
            ]
          },
          "MOKBIKEEHMJ": "combatAir",
          "canDoSkill": true,
          "resetAnimatorTriggerOnExit": [
            "BeHit",
            "DoSkill",
            "Jump"
          ],
          "setAnimatorBoolean": [
            {
              "name": "Hovering"
            },
            {
              "name": "isHoverAttacking"
            },
            {
              "name": "&CanUseSkill",
              "normalizeStart": 0.30000001192092896
            }
          ],
          "enableCCD": true,
          "cameraType": "combatNormal",
          "jumpCancelEnd": -1.0,
          "sprintCancelEnd": -1.0,
          "animatorTriggerOnLanded": "",
          "sheatheOnStart": true,
          "PFEFKNJCGHC": true
        },
        "Wanderer_ElementalArt_HoverAir_Up_Hold": {
          "$type": "KBOPIKLCBOA",
          "animatorStates": {
            "Wanderer_ElementalArt_HoverAir_Up_Hold": [
              "Emo_Boy_Catalyst_Wanderer_HoverAir_Up_Loop"
            ]
          },
          "MOKBIKEEHMJ": "combatAir",
          "canDoSkill": true,
          "resetAnimatorTriggerOnExit": [
            "BeHit",
            "DoSkill",
            "Jump"
          ],
          "setAnimatorBoolean": [
            {
              "name": "Hovering"
            }
          ],
          "enableCCD": true,
          "cameraType": "combatNormal",
          "animatorTriggerOnLanded": "",
          "sheatheOnStart": true,
          "PFEFKNJCGHC": true
        },
        "Wanderer_ElementalArt_HoverAir_Up_AS": {
          "$type": "KBOPIKLCBOA",
          "animatorStates": {
            "Wanderer_ElementalArt_HoverAir_Up_AS": [
              "Audio_Boy_Wanderer_HoverAir_Up_AS",
              "Emo_Boy_Catalyst_Wanderer_HoverAir_Up_AS"
            ]
          },
          "MOKBIKEEHMJ": "combatAir",
          "canDoSkill": true,
          "resetAnimatorTriggerOnExit": [
            "BeHit",
            "DoSkill",
            "Jump"
          ],
          "setAnimatorBoolean": [
            {
              "name": "Hovering"
            },
            {
              "name": "&CanUseSkill"
            }
          ],
          "cameraType": "combatNormal",
          "canChangeAvatar": [
            {}
          ],
          "animatorTriggerOnLanded": "",
          "sheatheOnStart": true,
          "PFEFKNJCGHC": true
        },
        "Wanderer_ElementalArt_Air_AS": {
          "$type": "KBOPIKLCBOA",
          "animatorStates": {
            "Wanderer_ElementalArt_Air_AS": [
              "Audio_Boy_Wanderer_ElementalArt_AS",
              "Emo_Boy_Catalyst_Wanderer_HoverAir_AS"
            ]
          },
          "MOKBIKEEHMJ": "combatAir",
          "canDoSkill": true,
          "resetAnimatorTriggerOnExit": [
            "BeHit"
          ],
          "setAnimatorBoolean": [
            {
              "name": "&CanUseAirSkill",
              "normalizeStart": 0.009999999776482582
            },
            {
              "name": "MuteAirSkill"
            }
          ],
          "cameraType": "combatNormal",
          "flyCancelEnd": 1.0,
          "animatorTriggerOnLanded": "HitAir2HitDrop"
        },
        "Wanderer_ElementalBurst_Leap": {
          "$type": "KBOPIKLCBOA",
          "animatorStates": {
            "Wanderer_ElementalBurst_Leap": [
              "Wanderer_ElementalBurst",
              "CombatAir_Disable_Landavatar",
              "Audio_Boy_Wanderer_ElementalBurst_Leap",
              "Emo_Boy_Catalyst_Heizo_ElementalBurst_Leap",
              "Interaction_Bad"
            ]
          },
          "MOKBIKEEHMJ": "combatMove",
          "resetAnimatorTriggerOnExit": [
            "BeHit",
            "DoSkill",
            "Jump"
          ],
          "cameraType": "combatNormal",
          "actionPanelState": "Jump",
          "jumpCancelEnd": -1.0,
          "sprintCancelEnd": -1.0,
          "animatorTriggerOnLanded": "",
          "sheatheOnStart": true
        },
        "Wanderer_ElementalBurst_Strike": {
          "$type": "KBOPIKLCBOA",
          "animatorStates": {
            "Wanderer_ElementalBurst_Strike": [
              "Wanderer_ElementalBurst_Cast",
              "Audio_Boy_Heizo_ElementalBurst_Strike",
              "Emo_Boy_Catalyst_Heizo_ElementalBurst_Strike"
            ]
          },
          "MOKBIKEEHMJ": "combatAir",
          "resetAnimatorTriggerOnExit": [
            "BeHit",
            "DoSkill",
            "Jump"
          ],
          "cameraType": "combatNormal",
          "actionPanelState": "Jump",
          "equipReattach": [
            {
              "equip": "equip01",
              "targetPoint": "WeaponR"
            }
          ],
          "jumpCancelEnd": -1.0,
          "animatorTriggerOnLanded": "HitAir2HitDrop",
          "sheatheOnStart": true
        },
        "Wanderer_ElementalBurst_Land": {
          "$type": "KBOPIKLCBOA",
          "animatorStates": {
            "Wanderer_ElementalBurst_Land": [
              "Wanderer_ElementalBurst_Cast",
              "Audio_Boy_Wanderer_ElementalBurst_Land",
              "Emo_Boy_Catalyst_Heizo_ElementalBurst_Land"
            ]
          },
          "MOKBIKEEHMJ": "combatMove",
          "canDoSkill": true,
          "resetAnimatorTriggerOnExit": [
            "BeHit",
            "DoSkill",
            "Jump"
          ],
          "setAnimatorBoolean": [
            {
              "name": "&CanUseSkill"
            },
            {
              "name": "&CanCancelSkill"
            }
          ],
          "cameraType": "combatNormal",
          "canChangeAvatar": [
            {}
          ],
          "animatorTriggerOnLanded": "",
          "battouOnStart": true,
          "sheatheOnEnd": true
        },
        "Wanderer_ElementalBurst_Air": {
          "$type": "KBOPIKLCBOA",
          "animatorStates": {
            "Wanderer_ElementalBurst_Air": [
              "Wanderer_ElementalBurst",
              "Audio_Boy_Wanderer_ElementalBurst_Air",
              "Interaction_Bad"
            ]
          },
          "MOKBIKEEHMJ": "combatAir",
          "resetAnimatorTriggerOnExit": [
            "BeHit"
          ],
          "setAnimatorBoolean": [
            {
              "name": "MuteAirSkill"
            }
          ],
          "cameraType": "combatNormal",
          "jumpCancelEnd": -1.0,
          "sprintCancelEnd": -1.0,
          "animatorTriggerOnLanded": ""
        },
        "Wanderer_ElementalBurst_Air_AS": {
          "$type": "KBOPIKLCBOA",
          "animatorStates": {
            "Wanderer_ElementalBurst_Air_AS": [
              "Audio_Boy_Wanderer_ElementalBurst_Air_AS"
            ]
          },
          "MOKBIKEEHMJ": "combatAir",
          "canDoSkill": true,
          "resetAnimatorTriggerOnExit": [
            "BeHit"
          ],
          "cameraType": "combatNormal",
          "jumpCancelEnd": -1.0,
          "sprintCancelEnd": -1.0,
          "animatorTriggerOnLanded": ""
        },
        "FallingAnthem_BS": {
          "$type": "KBOPIKLCBOA",
          "animatorStates": {
            "FallingAnthem_BS_1": [
              "Audio_Boy_Wanderer_FallingAnthem_BS_1",
              "Emo_Boy_Sword_FallingAttack_BS_01"
            ],
            "FallingAnthem_BS_2": []
          },
          "MOKBIKEEHMJ": "combatAir",
          "addEndure": 0.0,
          "resetAnimatorTriggerOnExit": [
            "BeHit",
            "DoSkill",
            "Jump"
          ],
          "cameraType": "combatNormal",
          "actionPanelState": "Fly",
          "jumpCancelEnd": -1.0,
          "animatorTriggerOnLanded": "HitAir2HitDrop",
          "sheatheOnStart": true
        },
        "FallingAnthem_Loop": {
          "$type": "KBOPIKLCBOA",
          "animatorStates": {
            "FallingAnthem_Loop": [],
            "FallingAnthem_Loop_Low": []
          },
          "MOKBIKEEHMJ": "combatAir",
          "addEndure": 0.0,
          "resetAnimatorTriggerOnExit": [
            "BeHit",
            "DoSkill",
            "Jump"
          ],
          "actionPanelState": "Fly",
          "animatorTriggerOnLanded": "HitAir2HitDrop",
          "sheatheOnStart": true
        },
        "FallingAnthem_AS_1": {
          "$type": "KBOPIKLCBOA",
          "animatorStates": {
            "FallingAnthem_AS_1": [
              "Wanderer_FallingAnthem_Strike",
              "Audio_Boy_Wanderer_FallingAnthem_AS_1",
              "Emo_Boy_Sword_FallingAttack_AS_01"
            ]
          },
          "MOKBIKEEHMJ": "combatMove",
          "canDoSkill": true,
          "resetAnimatorTriggerOnExit": [
            "BeHit",
            "DoSkill",
            "Jump"
          ],
          "jumpCancelEnd": -1.0,
          "animatorTriggerOnLanded": "",
          "battouOnStart": true
        },
        "FallingAnthem_AS_2": {
          "$type": "KBOPIKLCBOA",
          "animatorStates": {
            "FallingAnthem_AS_2": [
              "Audio_Boy_Wanderer_FallingAnthem_AS_2",
              "Emo_Boy_Sword_FallingAttack_AS_02"
            ]
          },
          "MOKBIKEEHMJ": "combatMove",
          "canDoSkill": true,
          "resetAnimatorTriggerOnExit": [
            "BeHit",
            "DoSkill",
            "Jump"
          ],
          "setAnimatorBoolean": [
            {
              "name": "&CanUseSkill",
              "normalizeStart": 0.05000000074505806
            }
          ],
          "canChangeAvatar": [
            {}
          ],
          "jumpCancelStart": 0.10000000149011612,
          "animatorTriggerOnLanded": "",
          "battouOnStart": true
        },
        "Sit": {
          "$type": "KBOPIKLCBOA",
          "animatorStates": {
            "SitDown": [
              "Audio_Girl_SitDown",
              "Audio_Boy_Sit_Wanderer"
            ],
            "SitLoop": [],
            "SitUp": [
              "Audio_Girl_SitDown",
              "Audio_Boy_Sit_Wanderer"
            ]
          },
          "MOKBIKEEHMJ": "performMove",
          "massRatio": 100.0,
          "actionPanelState": "Perform",
          "animatorTriggerOnLanded": "",
          "sheatheOnStart": true
        },
        "SitB": {
          "$type": "KBOPIKLCBOA",
          "animatorStates": {
            "SitBDown": [
              "Audio_Girl_SitDown",
              "Audio_Boy_Sit_Wanderer"
            ],
            "SitBLoop": [],
            "SitBUp": [
              "Audio_Girl_SitDown",
              "Audio_Boy_Sit_Wanderer"
            ]
          },
          "MOKBIKEEHMJ": "performMove",
          "massRatio": 100.0,
          "actionPanelState": "Perform",
          "animatorTriggerOnLanded": "",
          "sheatheOnStart": true
        },
        "StandbyShow": {
          "$type": "KBOPIKLCBOA",
          "animatorStates": {
            "StandbyVoice": [
              "Audio_Boy_StandbyVoice"
            ],
            "StandbyShow_01": [
              "Manekin_Wanderer_Show01",
              "Audio_Boy_Wanderer_StandbyShow_01_SFX"
            ],
            "StandbyShow_02": [
              "Manekin_Wanderer_Show02",
              "Audio_Boy_Wanderer_StandbyShow_02_SFX"
            ]
          },
          "MOKBIKEEHMJ": "performMove",
          "canDoSkill": true,
          "massRatio": 100.0,
          "setAnimatorBoolean": [
            {
              "name": "&CanUseSkill"
            }
          ],
          "canChangeAvatar": [
            {}
          ],
          "animatorTriggerOnLanded": "",
          "sheatheOnStart": true
        },
        "TakePhotos": {
          "$type": "KBOPIKLCBOA",
          "animatorStates": {
            "Think01BS": [],
            "Akimbo02BS": [],
            "Think01Loop": [],
            "Akimbo02Loop": [],
            "Think01AS": [],
            "Akimbo02AS": []
          },
          "animatorTriggerOnLanded": ""
        },
        "Channel_BS": {
          "$type": "KBOPIKLCBOA",
          "animatorStates": {
            "ChannelBS": [
              "Emo_Avatar_Common_Manekin_Default"
            ]
          },
          "MOKBIKEEHMJ": "combatMove",
          "canDoSkill": true,
          "massRatio": 100.0,
          "resetAnimatorTriggerOnExit": [
            "BeHit",
            "DoSkill",
            "Jump"
          ],
          "setAnimatorBoolean": [
            {
              "name": "&CanUseSkill"
            }
          ],
          "canChangeAvatar": [
            {}
          ],
          "animatorTriggerOnLanded": "",
          "sheatheOnStart": true
        },
        "Channel_Loop": {
          "$type": "KBOPIKLCBOA",
          "animatorStates": {
            "ChannelLoop": []
          },
          "MOKBIKEEHMJ": "combatMove",
          "canDoSkill": true,
          "massRatio": 100.0,
          "resetAnimatorTriggerOnExit": [
            "BeHit",
            "DoSkill",
            "Jump"
          ],
          "setAnimatorBoolean": [
            {
              "name": "&CanUseSkill"
            }
          ],
          "canChangeAvatar": [
            {}
          ],
          "animatorTriggerOnLanded": "",
          "sheatheOnStart": true
        },
        "Channel_AS": {
          "$type": "KBOPIKLCBOA",
          "animatorStates": {
            "ChannelAS": []
          },
          "MOKBIKEEHMJ": "combatMove",
          "canDoSkill": true,
          "massRatio": 100.0,
          "resetAnimatorTriggerOnExit": [
            "BeHit",
            "DoSkill",
            "Jump"
          ],
          "setAnimatorBoolean": [
            {
              "name": "&CanUseSkill"
            }
          ],
          "canChangeAvatar": [
            {}
          ],
          "animatorTriggerOnLanded": "",
          "sheatheOnStart": true
        },
        "PlayMusic_Lyre": {
          "$type": "KBOPIKLCBOA",
          "animatorStates": {
            "PlayMusic_Lyre_BS": [
              "PlayMusic_Lyre_Boy"
            ],
            "PlayMusic_Lyre_Loop": [
              "PlayMusic_Lyre_Boy_Loop"
            ]
          },
          "MOKBIKEEHMJ": "combatMove",
          "massRatio": 100.0,
          "resetAnimatorTriggerOnExit": [
            "BeHit",
            "DoSkill",
            "Jump"
          ],
          "animatorTriggerOnLanded": "",
          "sheatheOnStart": true
        },
        "PlayMusic_Lyre_AS": {
          "$type": "KBOPIKLCBOA",
          "animatorStates": {
            "PlayMusic_Lyre_AS": [
              "PlayMusic_Lyre_Boy_AS"
            ]
          },
          "MOKBIKEEHMJ": "combatMove",
          "canDoSkill": true,
          "massRatio": 100.0,
          "resetAnimatorTriggerOnExit": [
            "BeHit",
            "DoSkill",
            "Jump"
          ],
          "setAnimatorBoolean": [
            {
              "name": "&CanUseSkill"
            }
          ],
          "canChangeAvatar": [
            {}
          ],
          "animatorTriggerOnLanded": "",
          "sheatheOnStart": true
        },
        "PlayMusic_Qin": {
          "$type": "KBOPIKLCBOA",
          "animatorStates": {
            "PlayMusic_Qin_BS": [
              "PlayMusic_Qin_Boy"
            ],
            "PlayMusic_Qin_Loop": [
              "PlayMusic_Qin_Boy_Loop"
            ]
          },
          "MOKBIKEEHMJ": "combatMove",
          "massRatio": 100.0,
          "resetAnimatorTriggerOnExit": [
            "BeHit",
            "DoSkill",
            "Jump"
          ],
          "animatorTriggerOnLanded": "",
          "sheatheOnStart": true
        },
        "PlayMusic_Qin_AS": {
          "$type": "KBOPIKLCBOA",
          "animatorStates": {
            "PlayMusic_Qin_AS": [
              "PlayMusic_Qin_Boy_AS"
            ]
          },
          "MOKBIKEEHMJ": "combatMove",
          "canDoSkill": true,
          "massRatio": 100.0,
          "resetAnimatorTriggerOnExit": [
            "BeHit",
            "DoSkill",
            "Jump"
          ],
          "setAnimatorBoolean": [
            {
              "name": "&CanUseSkill"
            }
          ],
          "canChangeAvatar": [
            {}
          ],
          "animatorTriggerOnLanded": "",
          "sheatheOnStart": true
        },
        "PlayMusic_Drum": {
          "$type": "KBOPIKLCBOA",
          "animatorStates": {
            "PlayMusic_Drum_BS": [
              "PlayMusic_Drum_Boy"
            ],
            "PlayMusic_Drum_Loop": [
              "PlayMusic_Drum_Boy_Loop"
            ]
          },
          "MOKBIKEEHMJ": "combatMove",
          "massRatio": 100.0,
          "resetAnimatorTriggerOnExit": [
            "BeHit",
            "DoSkill",
            "Jump"
          ],
          "animatorTriggerOnLanded": "",
          "sheatheOnStart": true
        },
        "PlayMusic_Drum_AS": {
          "$type": "KBOPIKLCBOA",
          "animatorStates": {
            "PlayMusic_Drum_AS": [
              "PlayMusic_Drum_Boy_AS"
            ]
          },
          "MOKBIKEEHMJ": "combatMove",
          "canDoSkill": true,
          "massRatio": 100.0,
          "resetAnimatorTriggerOnExit": [
            "BeHit",
            "DoSkill",
            "Jump"
          ],
          "setAnimatorBoolean": [
            {
              "name": "&CanUseSkill"
            }
          ],
          "canChangeAvatar": [
            {}
          ],
          "animatorTriggerOnLanded": "",
          "sheatheOnStart": true
        },
        "PlayMusic_FrenchHorn": {
          "$type": "KBOPIKLCBOA",
          "animatorStates": {
            "PlayMusic_FrenchHorn_BS": [
              "PlayMusic_Frenchhorn_Boy"
            ],
            "PlayMusic_FrenchHorn_Loop": [
              "PlayMusic_Frenchhorn_Boy_Loop"
            ]
          },
          "MOKBIKEEHMJ": "combatMove",
          "massRatio": 100.0,
          "resetAnimatorTriggerOnExit": [
            "BeHit",
            "DoSkill",
            "Jump"
          ],
          "animatorTriggerOnLanded": "",
          "sheatheOnStart": true
        },
        "PlayMusic_FrenchHorn_AS": {
          "$type": "KBOPIKLCBOA",
          "animatorStates": {
            "PlayMusic_FrenchHorn_AS": [
              "PlayMusic_Frenchhorn_Boy_AS"
            ]
          },
          "MOKBIKEEHMJ": "combatMove",
          "canDoSkill": true,
          "massRatio": 100.0,
          "resetAnimatorTriggerOnExit": [
            "BeHit",
            "DoSkill",
            "Jump"
          ],
          "setAnimatorBoolean": [
            {
              "name": "&CanUseSkill"
            }
          ],
          "canChangeAvatar": [
            {}
          ],
          "animatorTriggerOnLanded": "",
          "sheatheOnStart": true
        },
        "ActivitySkill_ElectricCoreFly": {
          "$type": "KBOPIKLCBOA",
          "animatorStates": {
            "ActivitySkill_ElectricCoreFly": []
          },
          "MOKBIKEEHMJ": "combatAir",
          "massRatio": 100.0,
          "resetAnimatorTriggerOnEnter": [
            "ElectricCoreFly_End"
          ],
          "resetAnimatorTriggerOnExit": [
            "BeHit",
            "DoSkill",
            "Jump",
            "ElectricCoreFly_End"
          ],
          "animatorTriggerOnLanded": "",
          "sheatheOnStart": true
        },
        "ActivitySkill_GrapplingHook": {
          "$type": "KBOPIKLCBOA",
          "animatorStates": {
            "ActivitySkill_GrapplingHook": []
          },
          "MOKBIKEEHMJ": "combatAir",
          "massRatio": 100.0,
          "resetAnimatorTriggerOnEnter": [
            "GrapplingHook_Drop"
          ],
          "resetAnimatorTriggerOnExit": [
            "BeHit",
            "DoSkill",
            "Jump",
            "GrapplingHook_Drop"
          ],
          "animatorTriggerOnLanded": "",
          "sheatheOnStart": true
        },
        "ActivitySkill_CustomSkill01": {
          "$type": "KBOPIKLCBOA",
          "animatorStates": {
            "ActivitySkill_CustomSkill01": []
          },
          "MOKBIKEEHMJ": "combatAir",
          "canDoSkill": true,
          "massRatio": 100.0,
          "resetAnimatorTriggerOnEnter": [
            "CustomSkill_End_Fly",
            "CustomSkill_End_Drop"
          ],
          "resetAnimatorTriggerOnExit": [
            "BeHit",
            "DoSkill",
            "Jump",
            "CustomSkill_End_Fly",
            "CustomSkill_End_Drop"
          ],
          "animatorTriggerOnLanded": "",
          "sheatheOnStart": true
        },
        "ActivitySkill_CustomSkill02": {
          "$type": "KBOPIKLCBOA",
          "animatorStates": {
            "ActivitySkill_CustomSkill02": []
          },
          "MOKBIKEEHMJ": "combatAir",
          "canDoSkill": true,
          "massRatio": 100.0,
          "resetAnimatorTriggerOnEnter": [
            "CustomSkill_End_Fly",
            "CustomSkill_End_Drop"
          ],
          "resetAnimatorTriggerOnExit": [
            "BeHit",
            "DoSkill",
            "Jump",
            "CustomSkill_End_Fly",
            "CustomSkill_End_Drop"
          ],
          "animatorTriggerOnLanded": "",
          "sheatheOnStart": true
        },
        "ActivitySkill_CommonMove": {
          "$type": "KBOPIKLCBOA",
          "animatorStates": {
            "ActivitySkill_CommonMove": []
          },
          "addEndure": 0.0,
          "massRatio": 100.0,
          "resetAnimatorTriggerOnExit": [
            "BeHit",
            "DoSkill",
            "Jump"
          ],
          "enableBoneFollowMove": true,
          "jumpCancelStart": -1.0,
          "sprintCancelStart": -1.0,
          "animatorTriggerOnLanded": "",
          "sheatheOnStart": true
        },
        "DiveChannel_BS": {
          "$type": "KBOPIKLCBOA",
          "animatorStates": {
            "DiveChannelBS": [
              "Emo_Avatar_Common_Manekin_Default",
              "Audio_Boy_DiveChannel_BS"
            ]
          },
          "MOKBIKEEHMJ": "combatDive",
          "massRatio": 100.0,
          "resetAnimatorTriggerOnExit": [
            "BeHit",
            "DoSkill",
            "Jump"
          ],
          "setAnimatorBoolean": [
            {
              "name": "&CanUseSkill"
            }
          ],
          "canChangeAvatar": [
            {}
          ],
          "actionPanelState": "Dive",
          "sprintCancelEnd": -1.0,
          "animatorTriggerOnLanded": "",
          "sheatheOnStart": true
        },
        "DiveChannel_Loop": {
          "$type": "KBOPIKLCBOA",
          "animatorStates": {
            "DiveChannelLoop": []
          },
          "MOKBIKEEHMJ": "combatDive",
          "massRatio": 100.0,
          "resetAnimatorTriggerOnExit": [
            "BeHit",
            "DoSkill",
            "Jump"
          ],
          "setAnimatorBoolean": [
            {
              "name": "&CanUseSkill"
            }
          ],
          "canChangeAvatar": [
            {}
          ],
          "actionPanelState": "Dive",
          "sprintCancelEnd": -1.0,
          "animatorTriggerOnLanded": "",
          "sheatheOnStart": true
        },
        "DiveChannel_AS": {
          "$type": "KBOPIKLCBOA",
          "animatorStates": {
            "DiveChannelAS": [
              "Audio_Boy_DiveChannel_AS"
            ]
          },
          "MOKBIKEEHMJ": "combatDive",
          "canDoSkill": true,
          "canDoSkillStart": 0.30000001192092896,
          "massRatio": 100.0,
          "resetAnimatorTriggerOnExit": [
            "BeHit",
            "DoSkill",
            "Jump"
          ],
          "setAnimatorBoolean": [
            {
              "name": "&CanUseSkill"
            }
          ],
          "canChangeAvatar": [
            {}
          ],
          "actionPanelState": "Dive",
          "sprintCancelStart": 0.11999999731779099,
          "animatorTriggerOnLanded": "",
          "sheatheOnStart": true
        },
        "DiveCast_BS": {
          "$type": "KBOPIKLCBOA",
          "animatorStates": {
            "DiveCast_BS": [
              "Emo_Avatar_Common_Manekin_Default",
              "Audio_Boy_DiveCast_BS"
            ]
          },
          "MOKBIKEEHMJ": "combatDive",
          "massRatio": 100.0,
          "resetAnimatorTriggerOnExit": [
            "BeHit",
            "DoSkill",
            "Jump"
          ],
          "setAnimatorBoolean": [
            {
              "name": "&CanUseSkill"
            }
          ],
          "canChangeAvatar": [
            {}
          ],
          "actionPanelState": "Dive",
          "sprintCancelEnd": -1.0,
          "animatorTriggerOnLanded": "",
          "sheatheOnStart": true
        },
        "DiveCast_Loop": {
          "$type": "KBOPIKLCBOA",
          "animatorStates": {
            "DiveCast_Loop": []
          },
          "MOKBIKEEHMJ": "combatDive",
          "massRatio": 100.0,
          "resetAnimatorTriggerOnExit": [
            "BeHit",
            "DoSkill",
            "Jump"
          ],
          "setAnimatorBoolean": [
            {
              "name": "&CanUseSkill"
            }
          ],
          "canChangeAvatar": [
            {}
          ],
          "actionPanelState": "Dive",
          "sprintCancelEnd": -1.0,
          "animatorTriggerOnLanded": "",
          "sheatheOnStart": true
        },
        "DiveCast_AS": {
          "$type": "KBOPIKLCBOA",
          "animatorStates": {
            "DiveCast_AS": [
              "Audio_Boy_DiveCast_AS"
            ]
          },
          "MOKBIKEEHMJ": "combatDive",
          "canDoSkill": true,
          "canDoSkillStart": 0.10000000149011612,
          "massRatio": 100.0,
          "resetAnimatorTriggerOnExit": [
            "BeHit",
            "DoSkill",
            "Jump"
          ],
          "setAnimatorBoolean": [
            {
              "name": "&CanUseSkill"
            }
          ],
          "canChangeAvatar": [
            {}
          ],
          "actionPanelState": "Dive",
          "sprintCancelStart": 0.09000000357627869,
          "animatorTriggerOnLanded": "",
          "sheatheOnStart": true
        },
        "Dive": {
          "$type": "KBOPIKLCBOA",
          "animatorStates": {
            "DiveIdle": [],
            "DiveMoveBS": [
              "Audio_Boy_Dive_MoveBS"
            ],
            "DiveMoveAS": [
              "Audio_Boy_Dive_MoveAS"
            ],
            "DiveMoveU_A": [
              "Audio_Boy_Dive_MoveU_A"
            ],
            "DiveMoveU_B": [
              "Audio_Boy_Dive_MoveU_B"
            ],
            "DiveMoveF_A": [],
            "DiveMoveF_B": [
              "Audio_Boy_Dive_MoveF_B"
            ],
            "DiveMoveD_A": [
              "Audio_Boy_Dive_MoveD_A"
            ],
            "DiveMoveD_B": [
              "Audio_Boy_Dive_MoveD_B"
            ],
            "DiveTurn": [
              "Audio_Boy_Dive_Turn"
            ],
            "DiveTurnAS": [
              "Audio_Boy_Dive_Turn_AS"
            ],
            "DiveTurn2": [
              "Audio_Boy_Dive_Turn"
            ],
            "DiveTurnAS2": [
              "Audio_Boy_Dive_Turn_AS"
            ],
            "DiveDashBS": [
              "Audio_Boy_Dive_Dash_BS"
            ],
            "DiveDashAS": [
              "Audio_Boy_Dive_Dash_AS"
            ],
            "DiveDash": [],
            "DiveDashB": [
              "Audio_Boy_Dive_Out_DashB"
            ],
            "DiveSuperDash": [
              "Audio_Boy_Dive_SuperDash"
            ],
            "DiveSuperDash2": [
              "Audio_Boy_Dive_SuperDash2"
            ]
          },
          "canDoSkill": true,
          "resetAnimatorTriggerOnEnter": [
            "DoSkill"
          ],
          "setAnimatorBoolean": [
            {
              "name": "&CanUseSkill"
            }
          ],
          "canChangeAvatar": [
            {}
          ],
          "actionPanelState": "Dive",
          "animatorTriggerOnLanded": "",
          "sheatheOnStart": true
        },
        "Dive_In_Out": {
          "$type": "KBOPIKLCBOA",
          "animatorStates": {
            "Dive_In_Up": [
              "Audio_Boy_Dive_In_Up"
            ],
            "Dive_In_Side": [
              "Audio_Boy_Dive_In_Side"
            ],
            "Dive_In_Bottom": [
              "Audio_Boy_Dive_In_Bottom"
            ],
            "Dive_Out_Side": [
              "Audio_Boy_Dive_Out_Side"
            ],
            "Dive_Out_Bottom": [
              "Audio_Boy_Dive_Out_Bottom"
            ],
            "Dive_Out_Up": [
              "Audio_Boy_Dive_Out_Up"
            ]
          },
          "resetAnimatorTriggerOnEnter": [
            "DoSkill"
          ],
          "setAnimatorBoolean": [
            {
              "name": "&CanUseSkill"
            }
          ],
          "actionPanelState": "Dive",
          "animatorTriggerOnLanded": "",
          "sheatheOnStart": true
        },
        "DiveStream": {
          "$type": "KBOPIKLCBOA",
          "animatorStates": {
            "DiveStreamIn": [
              "Audio_Boy_Dive_Stream_In"
            ],
            "DiveStreamOut": [
              "Audio_Boy_Dive_Stream_Out"
            ],
            "DiveStream": [],
            "DiveStreamRoll_L": [
              "Audio_Boy_Dive_Stream_Roll_L"
            ],
            "DiveStreamRoll_R": [
              "Audio_Boy_Dive_Stream_Roll_R"
            ]
          },
          "canDoSkill": true,
          "resetAnimatorTriggerOnEnter": [
            "DoSkill"
          ],
          "setAnimatorBoolean": [
            {
              "name": "&CanUseSkill"
            }
          ],
          "actionPanelState": "Dive",
          "animatorTriggerOnLanded": "",
          "sheatheOnStart": true
        },
        "DiveJump": {
          "$type": "KBOPIKLCBOA",
          "animatorStates": {
            "Dive_Out_DashU": [
              "Audio_Boy_Dive_Out_DashU"
            ],
            "Dive_Out_DashD": [
              "Audio_Boy_Dive_Out_DashD"
            ],
            "Dive_Out_DashFBS": [
              "Audio_Boy_Dive_Out_DashFBS"
            ],
            "Dive_Out_DashFAS": [
              "Audio_Boy_Dive_Out_DashFAS"
            ],
            "Dive_Out_DashFLoop": []
          },
          "canDoSkill": true,
          "resetAnimatorTriggerOnEnter": [
            "DoSkill",
            "AimEnd"
          ],
          "setAnimatorBoolean": [
            {
              "name": "&CanUseAirSkill"
            }
          ],
          "actionPanelState": "Jump",
          "animatorTriggerOnLanded": "",
          "sheatheOnStart": true
        },
        "BeHitDive": {
          "$type": "KBOPIKLCBOA",
          "animatorStates": {
            "BeHitDive": [
              "Audio_Boy_Dive_beHit"
            ],
            "DiveStruggle": []
          },
          "MOKBIKEEHMJ": "combatDive",
          "resetAnimatorTriggerOnEnter": [
            "BeHit"
          ],
          "resetAnimatorTriggerOnExit": [
            "DoSkill"
          ],
          "cameraType": "combatBeHit",
          "actionPanelState": "Dive",
          "jumpCancelEnd": 0.0,
          "animatorTriggerOnLanded": "",
          "sheatheOnStart": true
        },
        "MultiOverride_01": {
          "$type": "KBOPIKLCBOA",
          "animatorStates": {
            "MultiOverrideBS_01": [],
            "MultiOverrideLoop_01": [],
            "MultiOverrideAS_01": []
          },
          "animatorTriggerOnLanded": ""
        },
        "MultiOverride2": {
          "$type": "KBOPIKLCBOA",
          "animatorStates": {
            "MultiOverrideBS_02": [],
            "MultiOverrideLoop_02": [],
            "MultiOverrideAS_02": []
          },
          "animatorTriggerOnLanded": ""
        },
        "MultiOverride3": {
          "$type": "KBOPIKLCBOA",
          "animatorStates": {
            "MultiOverrideBS_03": [],
            "MultiOverrideLoop_03": [],
            "MultiOverrideAS_03": []
          },
          "animatorTriggerOnLanded": ""
        },
        "MultiOverride": {
          "$type": "KBOPIKLCBOA",
          "INKINKDHODO": {
            "Ani_Avatar_Boy_Catalyst_Wanderer_Photo01BS": [],
            "Ani_Avatar_Boy_Catalyst_Wanderer_Photo01Loop": [],
            "Ani_Avatar_Boy_Catalyst_Wanderer_Photo01AS": [],
            "Ani_Avatar_Boy_Catalyst_Wanderer_Photo02BS": [],
            "Ani_Avatar_Boy_Catalyst_Wanderer_Photo02Loop": [],
            "Ani_Avatar_Boy_Catalyst_Wanderer_Photo02AS": []
          },
          "animatorTriggerOnLanded": ""
        }
      }
    },
    "diveLayer": {
      "$type": "GBGJJIIEMBD",
      "layerIndex": 6,
      "layerIndexName": "DiveLayer",
      "CPAANEIJCGD": ""
    }
  },
  "DADEGCDMOBD": false,
  "audio": {
    "overrideEmitterName": "",
    "animAudio": {
      "onTransitionIn": [
        {
          "currentStateName": "SlipFaceWall",
          "audioEvent": {
            "text": "Play_sfx_char_slipWall"
          }
        },
        {
          "currentStateName": "SlipBackWall",
          "audioEvent": {
            "text": "Play_sfx_char_slipWall"
          }
        },
        {
          "currentStateName": "SlipFaceWall",
          "audioEvent": {
            "text": "Play_sfx_char_drop"
          }
        },
        {
          "currentStateName": "SlipBackWall",
          "audioEvent": {
            "text": "Play_sfx_char_drop"
          }
        },
        {
          "currentStateName": "NormalDie",
          "audioEvent": {
            "text": "Play_sfx_char_land"
          },
          "otherStateNames": [
            "FallOnGround"
          ],
          "usage": "InSet"
        },
        {
          "currentStateName": "SwimJumpToWater",
          "audioEvent": {
            "text": "Stop_sfx_char_swim_dive"
          }
        },
        {
          "currentStateName": "SwimDash",
          "audioEvent": {
            "text": "Play_sfx_char_swim_dash"
          }
        },
        {
          "currentStateName": "Standby",
          "audioEvent": {
            "text": "Stop_sfx_char_fly"
          }
        },
        {
          "currentStateName": "DiveDash",
          "audioEvent": {
            "text": "Play_sfx_char_dive_dash_lp"
          },
          "otherStateNames": [
            "DiveDashBS"
          ],
          "usage": "InSet"
        },
        {
          "currentStateName": "DiveStream",
          "audioEvent": {
            "text": "Play_sfx_char_dive_stream_lp"
          }
        },
        {
          "currentStateName": "Dive_Out_DashFLoop",
          "audioEvent": {
            "text": "Play_sfx_char_dive_out_dashFLoop"
          }
        },
        {
          "currentStateName": "DiveMoveF_A",
          "audioEvent": {
            "text": "Play_sfx_char_dive_moveF_A"
          }
        },
        {
          "currentStateName": "DiveChannel_Loop",
          "audioEvent": {
            "text": "Play_vfx_Avatar_Diving_Channel_LP"
          }
        }
      ],
      "onTransitionOut": [
        {
          "currentStateName": "Attack01",
          "audioEvent": {
            "text": "Stop_sfx_char_wanderer_catalyst_attack"
          },
          "otherStateNames": [
            "Attack02"
          ],
          "usage": "Except"
        },
        {
          "currentStateName": "Attack02",
          "audioEvent": {
            "text": "Stop_sfx_char_wanderer_catalyst_attack"
          },
          "otherStateNames": [
            "Attack03"
          ],
          "usage": "Except"
        },
        {
          "currentStateName": "Attack03",
          "audioEvent": {
            "text": "Stop_sfx_char_wanderer_catalyst_attack"
          },
          "otherStateNames": [
            "ExtraAttack_BS"
          ],
          "usage": "Except"
        },
        {
          "currentStateName": "ElementalArt_Attack01",
          "audioEvent": {
            "text": "Stop_sfx_char_wanderer_hover_attack"
          }
        },
        {
          "currentStateName": "ElementalArt_Attack02",
          "audioEvent": {
            "text": "Stop_sfx_char_wanderer_hover_attack"
          }
        },
        {
          "currentStateName": "ElementalArt_Attack03",
          "audioEvent": {
            "text": "Stop_sfx_char_wanderer_hover_attack"
          }
        },
        {
          "currentStateName": "StandbyShow_01",
          "audioEvent": {
            "text": "Stop_sfx_wanderer_standbyShow_01"
          }
        },
        {
          "currentStateName": "StandbyShow_02",
          "audioEvent": {
            "text": "Stop_sfx_wanderer_standbyShow_02"
          }
        },
        {
          "currentStateName": "StandbyPutaway",
          "audioEvent": {
            "text": "Stop_sfx_weapon_1HSword_lady_putAwayStandby"
          }
        },
        {
          "currentStateName": "WalkPutaway",
          "audioEvent": {
            "text": "Stop_sfx_weapon_1HSword_lady_putAwayStandby"
          }
        },
        {
          "currentStateName": "RunPutaway",
          "audioEvent": {
            "text": "Stop_sfx_weapon_1HSword_lady_putAwayStandby"
          }
        },
        {
          "currentStateName": "SwimJumpDrop",
          "audioEvent": {
            "text": "Stop_sfx_char_swim_drop"
          }
        },
        {
          "currentStateName": "SwimJump",
          "audioEvent": {
            "text": "Stop_sfx_char_swim_drop"
          },
          "otherStateNames": [
            "SwimJumpDrop"
          ],
          "usage": "Except"
        },
        {
          "currentStateName": "Fly",
          "audioEvent": {
            "text": "Play_sfx_char_land_climb"
          },
          "otherStateNames": [
            "ClimbIdle",
            "ClimbMove0",
            "ClimbMove1",
            "ClimbJump"
          ],
          "usage": "InSet"
        },
        {
          "currentStateName": "FlyStart",
          "audioEvent": {
            "text": "Play_sfx_char_land_climb"
          },
          "otherStateNames": [
            "ClimbIdle",
            "ClimbMove0",
            "ClimbMove1",
            "ClimbJump"
          ],
          "usage": "InSet"
        },
        {
          "currentStateName": "DropDownLit",
          "audioEvent": {
            "text": "Play_sfx_char_land_climb"
          },
          "otherStateNames": [
            "ClimbIdle",
            "ClimbMove0",
            "ClimbMove1",
            "ClimbJump"
          ],
          "usage": "InSet"
        },
        {
          "currentStateName": "DropDown",
          "audioEvent": {
            "text": "Play_sfx_char_land_climb"
          },
          "otherStateNames": [
            "ClimbIdle",
            "ClimbMove0",
            "ClimbMove1",
            "ClimbJump"
          ],
          "usage": "InSet"
        },
        {
          "currentStateName": "WalkDropDownLit",
          "audioEvent": {
            "text": "Play_sfx_char_land_climb"
          },
          "otherStateNames": [
            "ClimbIdle",
            "ClimbMove0",
            "ClimbMove1",
            "ClimbJump"
          ],
          "usage": "InSet"
        },
        {
          "currentStateName": "Jump",
          "audioEvent": {
            "text": "Play_sfx_char_land_climb"
          },
          "otherStateNames": [
            "ClimbIdle",
            "ClimbMove0",
            "ClimbMove1",
            "ClimbJump"
          ],
          "usage": "InSet"
        },
        {
          "currentStateName": "JumpForWalk",
          "audioEvent": {
            "text": "Play_sfx_char_land_climb"
          },
          "otherStateNames": [
            "ClimbIdle",
            "ClimbMove0",
            "ClimbMove1",
            "ClimbJump"
          ],
          "usage": "InSet"
        },
        {
          "currentStateName": "JumpForRun",
          "audioEvent": {
            "text": "Play_sfx_char_land_climb"
          },
          "otherStateNames": [
            "ClimbIdle",
            "ClimbMove0",
            "ClimbMove1",
            "ClimbJump"
          ],
          "usage": "InSet"
        },
        {
          "currentStateName": "JumpForSprint",
          "audioEvent": {
            "text": "Play_sfx_char_land_climb"
          },
          "otherStateNames": [
            "ClimbIdle",
            "ClimbMove0",
            "ClimbMove1",
            "ClimbJump"
          ],
          "usage": "InSet"
        },
        {
          "currentStateName": "JumpWeapon",
          "audioEvent": {
            "text": "Play_sfx_char_land_climb"
          },
          "otherStateNames": [
            "ClimbIdle",
            "ClimbMove0",
            "ClimbMove1",
            "ClimbJump"
          ],
          "usage": "InSet"
        },
        {
          "currentStateName": "JumpForWalkWeapon",
          "audioEvent": {
            "text": "Play_sfx_char_land_climb"
          },
          "otherStateNames": [
            "ClimbIdle",
            "ClimbMove0",
            "ClimbMove1",
            "ClimbJump"
          ],
          "usage": "InSet"
        },
        {
          "currentStateName": "JumpForRunWeapon",
          "audioEvent": {
            "text": "Play_sfx_char_land_climb"
          },
          "otherStateNames": [
            "ClimbIdle",
            "ClimbMove0",
            "ClimbMove1",
            "ClimbJump"
          ],
          "usage": "InSet"
        },
        {
          "currentStateName": "DropDownWeapon",
          "audioEvent": {
            "text": "Play_sfx_char_land_climb"
          },
          "otherStateNames": [
            "ClimbIdle",
            "ClimbMove0",
            "ClimbMove1",
            "ClimbJump"
          ],
          "usage": "InSet"
        },
        {
          "currentStateName": "DropDownLitWeapon",
          "audioEvent": {
            "text": "Play_sfx_char_land_climb"
          },
          "otherStateNames": [
            "ClimbIdle",
            "ClimbMove0",
            "ClimbMove1",
            "ClimbJump"
          ],
          "usage": "InSet"
        },
        {
          "currentStateName": "SwimMove",
          "audioEvent": {
            "text": "Stop_sfx_char_swim"
          }
        },
        {
          "currentStateName": "SlipFaceWall",
          "audioEvent": {
            "text": "Stop_sfx_char_drop"
          }
        },
        {
          "currentStateName": "SlipFaceWall",
          "audioEvent": {
            "text": "Stop_sfx_char_slipWall"
          }
        },
        {
          "currentStateName": "SlipBackWall",
          "audioEvent": {
            "text": "Stop_sfx_char_drop"
          }
        },
        {
          "currentStateName": "SlipBackWall",
          "audioEvent": {
            "text": "Stop_sfx_char_slipWall"
          }
        },
        {
          "currentStateName": "DiveDash",
          "audioEvent": {
            "text": "Stop_sfx_char_dive_dash_lp"
          },
          "otherStateNames": [
            "DiveDashB",
            "DiveTurn",
            "DiveTurn2"
          ],
          "usage": "Except"
        },
        {
          "currentStateName": "DiveStream",
          "audioEvent": {
            "text": "Stop_sfx_char_dive_stream_lp"
          },
          "otherStateNames": [
            "DiveStreamRoll_L",
            "DiveStreamRoll_R"
          ],
          "usage": "Except"
        },
        {
          "currentStateName": "DiveMoveAS",
          "audioEvent": {
            "text": "Stop_sfx_char_dive_move_AS"
          }
        },
        {
          "currentStateName": "Dive_Out_DashFLoop",
          "audioEvent": {
            "text": "Stop_sfx_char_dive_out_dashFLoop"
          }
        },
        {
          "currentStateName": "DiveIdle",
          "audioEvent": {
            "text": "Stop_sfx_char_dive_dash_lp"
          }
        },
        {
          "currentStateName": "Dive_Out_Up",
          "audioEvent": {
            "text": "Stop_sfx_char_dive_moveF_A"
          }
        },
        {
          "currentStateName": "DiveChannel_Loop",
          "audioEvent": {
            "text": "Stop_vfx_Avatar_Diving_Channel_LP"
          }
        },
        {
          "currentStateName": "DiveMoveU_A",
          "audioEvent": {
            "text": "Stop_sfx_char_dive_moveU_A"
          }
        },
        {
          "currentStateName": "DiveMoveF_A",
          "audioEvent": {
            "text": "Stop_sfx_char_dive_moveF_A"
          }
        }
      ],
      "recurrentSpeeches": {
        "Standby": {
          "start": {
            "upper": 28.0,
            "lower": 23.0
          },
          "interval": {
            "upper": 40.0,
            "lower": 34.0
          },
          "eventName": {
            "text": ""
          }
        },
        "Walk": {
          "start": {
            "upper": 16.0,
            "lower": 13.0
          },
          "interval": {
            "upper": 14.0,
            "lower": 10.0
          },
          "eventName": {
            "text": ""
          }
        },
        "Run": {
          "start": {
            "upper": 13.0,
            "lower": 9.0
          },
          "interval": {
            "upper": 11.0,
            "lower": 8.0
          },
          "eventName": {
            "text": ""
          }
        },
        "Sprint": {
          "start": {
            "upper": 12.0,
            "lower": 7.0
          },
          "interval": {
            "upper": 9.0,
            "lower": 6.0
          },
          "eventName": {
            "text": ""
          }
        }
      }
    },
    "moveStateAudio": {
      "onStateBegin": [
        {
          "currentStateName": "Fly",
          "audioEvent": {
            "text": "Play_sfx_char_fly"
          }
        },
        {
          "currentStateName": "Air",
          "audioEvent": {
            "text": "Play_sfx_char_drop"
          },
          "otherStateNames": [
            "Fly"
          ],
          "usage": "InSet"
        },
        {
          "currentStateName": "CombatDive",
          "audioEvent": {
            "text": "Play_sfx_char_dive_move_swim_idle"
          },
          "otherStateNames": [
            "Dive"
          ],
          "usage": "Except"
        },
        {
          "currentStateName": "Dive",
          "audioEvent": {
            "text": "Play_sfx_char_dive_move_swim_idle"
          },
          "otherStateNames": [
            "CombatDive"
          ],
          "usage": "Except"
        }
      ],
      "onStateEnd": [
        {
          "currentStateName": "Fly",
          "audioEvent": {
            "text": "Stop_sfx_char_fly"
          }
        },
        {
          "currentStateName": "Air",
          "audioEvent": {
            "text": "Stop_sfx_char_drop"
          }
        },
        {
          "currentStateName": "Dive",
          "audioEvent": {
            "text": "Stop_sfx_char_dive_move_swim_idle"
          },
          "otherStateNames": [
            "CombatDive"
          ],
          "usage": "Except"
        },
        {
          "currentStateName": "CombatDive",
          "audioEvent": {
            "text": "Stop_sfx_char_dive_move_swim_idle"
          },
          "otherStateNames": [
            "Dive"
          ],
          "usage": "Except"
        }
      ]
    },
    "voiceSwitch": {
      "text": "Switch_Wanderer"
    },
    "bodyTypeSwitch": {
      "text": "Switch_Boy"
    },
    "listenerLiftup": 1.5,
    "surfaceProberLiftup": 1.5
  },
  "ONIAJBGGJHD": "AvatarBoy",
  "perform": {
    "standby": {
      "minTime": 10.0,
      "maxTime": 20.0,
      "performIDs": [
        201,
        202,
        200,
        200
      ]
    }
  }
}