{
  "common": {
    "effectAttachShape": {
      "$type": "FJNPJANPGGC",
      "mesh": "EffectMesh"
    },
    "mass": 10.0
  },
  "stateLayers": {
    "defaultLayer": {
      "$type": "GBGJJIIEMBD",
      "layerIndexName": "",
      "CPAANEIJCGD": "",
      "stateIDs": {
        "MultiOverride": {
          "$type": "KBOPIKLCBOA",
          "INKINKDHODO": {
            "Ani_Avatar_Girl_Sword_Ayaka_Photo01BS": [],
            "Ani_Avatar_Girl_Sword_Ayaka_Photo01Loop": [],
            "Ani_Avatar_Girl_Sword_Ayaka_Photo01AS": [],
            "Ani_Avatar_Girl_Sword_Ayaka_Photo02BS": [],
            "Ani_Avatar_Girl_Sword_Ayaka_Photo02Loop": [],
            "Ani_Avatar_Girl_Sword_Ayaka_Photo02AS": []
          },
          "animatorTriggerOnLanded": ""
        }
      }
    }
  }
}