{
  "common": {
    "effectAttachShape": {
      "$type": "FJNPJANPGGC",
      "mesh": "EffectMesh"
    },
    "mass": 10.0
  },
  "headControl": {
    "$type": "KPIPDEBDPIH",
    "useHeadControl": true,
    "useWhiteAnimStates": false
  },
  "equipController": {
    "sheathPoint": "WeaponBackPut",
    "dissolveSheathFadeDelay": 0.07500000298023224,
    "dissolveSheathFadeTime": 0.30000001192092896,
    "attachPoints": {
      "equip01": "WeaponR",
      "equip02": "WeaponL",
      "equip00": "WeaponBackPut"
    }
  },
  "stateLayers": {
    "defaultLayer": {
      "$type": "GBGJJIIEMBD",
      "layerIndexName": "",
      "CPAANEIJCGD": "",
      "stateIDs": {
        "TeamConfig_BS": {
          "$type": "KBOPIKLCBOA",
          "animatorStates": {
            "TeamConfig_BS": [
              "TeamConfig_BS_Girl_Pole_Emilie",
              "Emo_Avatar_Emilie_TeamConfig_01BS",
              "Audio_Char_Emilie_Pole_TeamConfig_BS"
            ]
          },
          "animatorTriggerOnLanded": "",
          "sheatheOnStart": true
        },
        "TeamConfig": {
          "$type": "KBOPIKLCBOA",
          "animatorStates": {
            "TeamConfig_Loop": [
              "TeamConfig_Girl_Pole_Emilie",
              "Emo_Avatar_Emilie_TeamConfig_01Loop"
            ]
          },
          "animatorTriggerOnLanded": "",
          "sheatheOnStart": true
        },
        "TeamConfig_AS": {
          "$type": "KBOPIKLCBOA",
          "animatorStates": {
            "TeamConfig_AS": [
              "TeamConfig_AS_Girl_Pole_Emilie",
              "Emo_Avatar_Emilie_TeamConfig_01AS"
            ]
          },
          "setAnimatorBoolean": [
            {
              "name": "&GotoAnyState"
            }
          ],
          "animatorTriggerOnLanded": "",
          "sheatheOnStart": true
        },
        "ShowWeapon_BS": {
          "$type": "KBOPIKLCBOA",
          "animatorStates": {
            "ShowWeapon_BS": [
              "Girl_Pole_ShowWeapon_BS",
              "Emo_Avatar_Emilie_UI_ShowWeaponBS"
            ]
          },
          "setAnimatorBoolean": [
            {
              "name": "&GotoAnyState"
            }
          ],
          "animatorTriggerOnLanded": "",
          "sheatheOnStart": true
        },
        "ShowRelic_BS": {
          "$type": "KBOPIKLCBOA",
          "animatorStates": {
            "ShowRelic_BS": [
              "Emo_Avatar_Common_Manekin_RelicShowBS"
            ]
          },
          "setAnimatorBoolean": [
            {
              "name": "&GotoAnyState"
            }
          ],
          "animatorTriggerOnLanded": "",
          "sheatheOnStart": true
        },
        "ShowWeapon": {
          "$type": "KBOPIKLCBOA",
          "animatorStates": {
            "ShowWeapon": [
              "Emo_Avatar_Emilie_UI_ShowWeaponLoop"
            ],
            "ShowWeapon_AS": [
              "Girl_Pole_ShowWeapon_AS",
              "Emo_Avatar_Emilie_UI_ShowWeaponAS"
            ]
          },
          "animatorTriggerOnLanded": "",
          "battouOnStart": true
        },
        "ShowRelic": {
          "$type": "KBOPIKLCBOA",
          "animatorStates": {
            "ShowRelic": [
              "Emo_Avatar_Common_Manekin_RelicShowLoop"
            ],
            "ShowRelic_AS": [
              "Emo_Avatar_Common_Manekin_RelicShowAS"
            ]
          },
          "animatorTriggerOnLanded": "",
          "sheatheOnStart": true
        },
        "ShowCharacter": {
          "$type": "KBOPIKLCBOA",
          "animatorStates": {
            "ShowCharacter": [],
            "Show01": [
              "Emilie_Show01",
              "Audio_Char_Emilie_Pole_StandbyShow_01_UI"
            ],
            "Show02": [
              "Emilie_Show02",
              "Audio_Char_Emilie_Pole_StandbyShow_02_UI"
            ]
          },
          "setAnimatorBoolean": [
            {
              "name": "&GotoAnyState"
            }
          ],
          "animatorTriggerOnLanded": "",
          "sheatheOnStart": true
        },
        "Skill_BS": {
          "$type": "KBOPIKLCBOA",
          "animatorStates": {
            "Skill_BS": [
              "Emo_Avatar_Emilie_UI_Talent_01BS"
            ]
          },
          "setAnimatorBoolean": [
            {
              "name": "&GotoAnyState"
            }
          ],
          "animatorTriggerOnLanded": "",
          "sheatheOnStart": true
        },
        "Skill": {
          "$type": "KBOPIKLCBOA",
          "animatorStates": {
            "Skill": [
              "Emo_Avatar_Emilie_UI_Talent_Loop"
            ]
          },
          "animatorTriggerOnLanded": ""
        },
        "Skill_AS": {
          "$type": "KBOPIKLCBOA",
          "animatorStates": {
            "Skill_AS": [
              "Emo_Avatar_Emilie_UI_Talent_AS"
            ]
          },
          "animatorTriggerOnLanded": ""
        },
        "Story": {
          "$type": "KBOPIKLCBOA",
          "animatorStates": {
            "Story": []
          },
          "setAnimatorBoolean": [
            {
              "name": "&GotoAnyState"
            }
          ],
          "animatorTriggerOnLanded": "",
          "sheatheOnStart": true
        },
        "ShowFlycloak": {
          "$type": "KBOPIKLCBOA",
          "animatorStates": {
            "ShowFlycloak": []
          },
          "animatorTriggerOnLanded": "",
          "sheatheOnStart": true
        },
        "TrailEffect": {
          "$type": "KBOPIKLCBOA",
          "animatorStates": {
            "TrailEffect": []
          },
          "animatorTriggerOnLanded": "",
          "sheatheOnStart": true
        }
      }
    }
  },
  "audio": {
    "overrideEmitterName": "",
    "animAudio": {
      "onTransitionIn": [
        {
          "currentStateName": "ShowWeapon_BS",
          "audioEvent": {
            "text": "Play_ui_menu_weapon_show_emilie"
          }
        },
        {
          "currentStateName": "ShowRelic_BS",
          "audioEvent": {
            "text": "Play_ui_menu_relic_show"
          }
        }
      ],
      "onTransitionOut": [
        {
          "currentStateName": "ShowWeapon_BS",
          "audioEvent": {
            "text": "Stop_ui_menu_weapon_show_putAway_appear_short"
          }
        },
        {
          "currentStateName": "Show01",
          "audioEvent": {
            "text": "Stop_ui_standbyShow_emilie_01"
          }
        },
        {
          "currentStateName": "Show02",
          "audioEvent": {
            "text": "Stop_ui_standbyShow_emilie_02"
          }
        },
        {
          "currentStateName": "TeamConfig_BS",
          "audioEvent": {
            "text": "Stop_ui_menu_char_teamConfig_show"
          }
        }
      ]
    },
    "listenerLiftup": 1.5,
    "surfaceProberLiftup": 1.5
  }
}