{
  "common": {
    "effectAttachShape": {
      "$type": "FJNPJANPGGC",
      "mesh": "EffectMesh"
    },
    "mass": 10.0,
    "affectedByWorld": true
  },
  "headControl": {
    "$type": "KPIPDEBDPIH",
    "useHeadControl": true,
    "useWhiteAnimStates": false
  },
  "hasAudio": true,
  "equipController": {
    "sheathPoint": "WeaponBackPut",
    "dissolveSheathFadeDelay": 0.07500000298023224,
    "dissolveSheathFadeTime": 2.0999999046325684,
    "attachPoints": {
      "equip01": "WeaponR",
      "equip02": "WeaponL"
    }
  },
  "stateLayers": {
    "defaultLayer": {
      "$type": "GBGJJIIEMBD",
      "layerIndexName": "",
      "CPAANEIJCGD": "",
      "stateIDs": {
        "TeamConfig_BS": {
          "$type": "KBOPIKLCBOA",
          "animatorStates": {
            "TeamConfig_BS": []
          },
          "animatorTriggerOnLanded": "",
          "sheatheOnStart": true
        },
        "TeamConfig": {
          "$type": "KBOPIKLCBOA",
          "animatorStates": {
            "TeamConfig_Loop": []
          },
          "animatorTriggerOnLanded": "",
          "sheatheOnStart": true
        },
        "TeamConfig_AS": {
          "$type": "KBOPIKLCBOA",
          "animatorStates": {
            "TeamConfig_AS": []
          },
          "setAnimatorBoolean": [
            {
              "name": "&GotoAnyState"
            }
          ],
          "animatorTriggerOnLanded": "",
          "sheatheOnStart": true
        },
        "ShowWeapon_BS": {
          "$type": "KBOPIKLCBOA",
          "animatorStates": {
            "ShowWeapon_BS": [
              "Common_ShowWeapon_BS"
            ]
          },
          "setAnimatorBoolean": [
            {
              "name": "&GotoAnyState"
            }
          ],
          "animatorTriggerOnLanded": "",
          "sheatheOnStart": true
        },
        "ShowRelic_BS": {
          "$type": "KBOPIKLCBOA",
          "animatorStates": {
            "ShowRelic_BS": [
              "Emo_Avatar_Common_Manekin_RelicShowBS"
            ]
          },
          "setAnimatorBoolean": [
            {
              "name": "&GotoAnyState"
            }
          ],
          "animatorTriggerOnLanded": "",
          "sheatheOnStart": true
        },
        "ShowWeapon": {
          "$type": "KBOPIKLCBOA",
          "animatorStates": {
            "ShowWeapon": [],
            "ShowWeapon_AS": [
              "Common_ShowWeapon_AS"
            ]
          },
          "animatorTriggerOnLanded": "",
          "battouOnStart": true
        },
        "ShowRelic": {
          "$type": "KBOPIKLCBOA",
          "animatorStates": {
            "ShowRelic": [
              "Emo_Avatar_Common_Manekin_RelicShowLoop"
            ],
            "ShowRelic_AS": [
              "Emo_Avatar_Common_Manekin_RelicShowAS"
            ]
          },
          "animatorTriggerOnLanded": "",
          "sheatheOnStart": true
        },
        "ShowCharacter": {
          "$type": "KBOPIKLCBOA",
          "animatorStates": {
            "ShowCharacter": [],
            "Show01": [],
            "Show02": []
          },
          "setAnimatorBoolean": [
            {
              "name": "&GotoAnyState"
            }
          ],
          "animatorTriggerOnLanded": "",
          "sheatheOnStart": true
        },
        "Skill": {
          "$type": "KBOPIKLCBOA",
          "animatorStates": {
            "Skill": []
          },
          "setAnimatorBoolean": [
            {
              "name": "&GotoAnyState"
            }
          ],
          "animatorTriggerOnLanded": "",
          "battouOnStart": true
        },
        "Story": {
          "$type": "KBOPIKLCBOA",
          "animatorStates": {
            "Story": []
          },
          "setAnimatorBoolean": [
            {
              "name": "&GotoAnyState"
            }
          ],
          "animatorTriggerOnLanded": "",
          "sheatheOnStart": true
        },
        "ShowFlycloak": {
          "$type": "KBOPIKLCBOA",
          "animatorStates": {
            "ShowFlycloak": []
          },
          "animatorTriggerOnLanded": "",
          "sheatheOnStart": true
        },
        "TrailEffect": {
          "$type": "KBOPIKLCBOA",
          "animatorStates": {
            "TrailEffect": []
          },
          "animatorTriggerOnLanded": "",
          "sheatheOnStart": true
        }
      }
    }
  }
}