{
  "luaDataPath": "",
  "dontUseDefaultFinish": true,
  "startBlackKeepTime": 0.5,
  "entityBan": "",
  "disableNpcLod": true,
  "isAutoBanNpc": true,
  "isBanWidgetPet": true,
  "protectNpcMobileLod": true,
  "talkFlag": 5,
  "startFade": {
    "startFadeInDuration": 0.5,
    "startFadeOutDuration": 0.5
  },
  "endFade": {
    "startFadeOutDuration": 0.0
  },
  "actors": [
    {
      "alias": "Avatar",
      "visible": true,
      "bornPointName": "Q7904610_N20977",
      "relativePosType": "AVATAR_NEW",
      "relativePosNpcAlias": "",
      "_bindMovingTargetKey": ""
    },
    {
      "alias": "AvatarNpc",
      "visible": true,
      "bornPointName": "Q7904610_N20977",
      "removeActorType": "NEW_REMOVE",
      "relativePosType": "AVATAR_NEW",
      "relativePosNpcAlias": "",
      "_bindMovingTargetKey": ""
    },
    {
      "configID": 21011,
      "alias": "21011",
      "visible": true,
      "bornPointName": "Q7904610_N20977",
      "removeActorType": "NEW_REMOVE",
      "relativePosType": "AVATAR_NEW",
      "relativePosNpcAlias": "",
      "_bindMovingTargetKey": ""
    },
    {
      "configID": 1005,
      "alias": "1005",
      "visible": true,
      "bornPointName": "",
      "useRelativePos": true,
      "relativePos": {
        "x": -0.5,
        "z": 0.5
      },
      "removeActorType": "NEW_REMOVE_WITH_DISAPPEAR",
      "relativePosType": "AVATAR_NEW",
      "relativePosNpcAlias": "",
      "_bindMovingTargetKey": ""
    },
    {
      "configID": 20977,
      "alias": "20977",
      "visible": true,
      "bornPointName": "Q7904610_N20977",
      "relativePosType": "AVATAR_NEW",
      "relativePosNpcAlias": "",
      "_bindMovingTargetKey": ""
    }
  ],
  "group": [
    [
      {
        "$type": "MoleMole.Config.ConfigTimeProtectAction",
        "type": "TIME_PROTECT",
        "duration": 1.0,
        "actionId": 104
      },
      {
        "$type": "MoleMole.Config.ConfigBlackScreenAction",
        "type": "BLACK_SCREEN",
        "duration": 1.0,
        "actionId": 157,
        "blackScreenType": "KEEP_BLACK",
        "durationToBlack": 0.5,
        "durationKeepBlack": 1.0,
        "durationFromBlack": 0.5,
        "inteePos": "",
        "textMapID": "",
        "useTextFade": true
      },
      {
        "$type": "MoleMole.Config.ConfigVisibleInterAction",
        "type": "VISIBLE",
        "aliasList": [
          "Avatar"
        ],
        "actionId": 167,
        "_extraParam": ""
      },
      {
        "$type": "MoleMole.Config.ConfigTeleportToAction",
        "type": "TELEPORT_TO",
        "aliasList": [
          "Avatar"
        ],
        "actionId": 257,
        "position": {
          "x": 559.4000244140625,
          "y": 294.8089904785156,
          "z": -38.310001373291016
        },
        "forward": {
          "x": -0.7940000295639038,
          "z": -0.6079999804496765
        },
        "openLongDisTeleport": true,
        "_posBindMovingTargetKey": "",
        "_forwardBindMovingTargetKey": ""
      },
      {
        "$type": "MoleMole.Config.ConfigPlayerNPCEnergyTypeAction",
        "type": "SET_PLAYER_NPC_ENERGY_TYPE",
        "aliasList": [
          "AvatarNpc"
        ],
        "actionId": 163,
        "setHeroEngergyType": true
      },
      {
        "$type": "FABLGECDBCH",
        "type": "BODY_LANG",
        "aliasList": [
          "AvatarNpc"
        ],
        "actionId": 164,
        "isContinue": true,
        "forceDoFreeStyle": true,
        "canDoRepeatFreeStyle": false,
        "eventPatternSuiteKey": "",
        "FOHHKFAIAAJ": ""
      },
      {
        "$type": "MoleMole.Config.ConfigTeleportToAction",
        "type": "TELEPORT_TO",
        "aliasList": [
          "AvatarNpc"
        ],
        "actionId": 172,
        "position": {
          "x": 559.4000244140625,
          "y": 294.8089904785156,
          "z": -38.310001373291016
        },
        "forward": {
          "x": -0.7940000295639038,
          "z": -0.6079999804496765
        },
        "openLongDisTeleport": true,
        "_posBindMovingTargetKey": "",
        "_forwardBindMovingTargetKey": ""
      },
      {
        "$type": "LJLMDHDCAMK",
        "type": "LOOK_AT",
        "aliasList": [
          "AvatarNpc"
        ],
        "actionId": 182,
        "_flag": 64,
        "enableHead": true,
        "useTargetPos": true,
        "enableAbsolute": true,
        "targetPosition": {
          "x": 556.4550170898438,
          "y": 296.1929931640625,
          "z": -39.62900161743164
        },
        "headTurnTime": 0.5,
        "targetNpcAlias": "",
        "lookAtTargetType": "NONE",
        "openBackProtect": true,
        "backProtectAngle": 60.0,
        "targetNpcLookAtPoint": "",
        "OAFJBHJHLJG": ""
      },
      {
        "$type": "MoleMole.Config.ConfigTeleportToAction",
        "type": "TELEPORT_TO",
        "aliasList": [
          "21011"
        ],
        "actionId": 171,
        "position": {
          "x": 557.3400268554688,
          "y": 294.8089904785156,
          "z": -39.400001525878906
        },
        "forward": {
          "x": 1.0,
          "z": 0.017000000923871994
        },
        "openLongDisTeleport": true,
        "_posBindMovingTargetKey": "",
        "_forwardBindMovingTargetKey": ""
      },
      {
        "$type": "FABLGECDBCH",
        "type": "BODY_LANG",
        "aliasList": [
          "1005"
        ],
        "actionId": 153,
        "isContinue": true,
        "forceDoFreeStyle": true,
        "canDoRepeatFreeStyle": false,
        "eventPatternSuiteKey": "",
        "FOHHKFAIAAJ": ""
      },
      {
        "$type": "MoleMole.Config.ConfigTeleportToAction",
        "type": "TELEPORT_TO",
        "aliasList": [
          "1005"
        ],
        "actionId": 170,
        "position": {
          "x": 559.7069702148438,
          "y": 294.8089904785156,
          "z": -39.314998626708984
        },
        "forward": {
          "x": -1.0110000371932983,
          "z": -0.19200000166893005
        },
        "openLongDisTeleport": true,
        "_posBindMovingTargetKey": "",
        "_forwardBindMovingTargetKey": ""
      },
      {
        "$type": "LJLMDHDCAMK",
        "type": "LOOK_AT",
        "aliasList": [
          "1005"
        ],
        "actionId": 183,
        "_flag": 64,
        "enableHead": true,
        "useTargetPos": true,
        "enableAbsolute": true,
        "targetPosition": {
          "x": 557.6400146484375,
          "y": 296.10101318359375,
          "z": -39.36899948120117
        },
        "headTurnTime": 0.5,
        "targetNpcAlias": "",
        "lookAtTargetType": "NONE",
        "openBackProtect": true,
        "backProtectAngle": 60.0,
        "targetNpcLookAtPoint": "",
        "OAFJBHJHLJG": ""
      },
      {
        "$type": "MoleMole.Config.ConfigTeleportToAction",
        "type": "TELEPORT_TO",
        "aliasList": [
          "20977"
        ],
        "actionId": 169,
        "position": {
          "x": 566.9099731445312,
          "y": 294.8089904785156,
          "z": -43.066001892089844
        },
        "forward": {
          "x": -8.838000297546387,
          "z": 6.316999912261963
        },
        "openLongDisTeleport": true,
        "_posBindMovingTargetKey": "",
        "_forwardBindMovingTargetKey": ""
      }
    ],
    [
      {
        "$type": "PKKMAMONGEO",
        "type": "DIALOG_CLEAR",
        "actionId": 108
      },
      {
        "$type": "MoleMole.Config.ConfigBlackScreenAction",
        "type": "BLACK_SCREEN",
        "duration": 0.5,
        "actionId": 158,
        "blackScreenType": "KEEP_BLACK",
        "durationToBlack": 0.5,
        "durationKeepBlack": 0.5,
        "durationFromBlack": 0.5,
        "inteePos": "",
        "textMapID": "",
        "useTextFade": true,
        "_dialogID": 790461101,
        "needWaitClick": true
      }
    ],
    [
      {
        "$type": "MoleMole.Config.ConfigBlackScreenAction",
        "type": "BLACK_SCREEN",
        "actionId": 176,
        "blackScreenType": "FROM_BLACK",
        "durationToBlack": 0.5,
        "durationKeepBlack": 0.5,
        "durationFromBlack": 0.5,
        "inteePos": "",
        "textMapID": "",
        "useTextFade": true
      },
      {
        "$type": "FJKIHHKJLMJ",
        "type": "CAMERA_MOVE",
        "duration": 1.0,
        "actionId": 221,
        "camPosOffset": {
          "x": 563.3679809570312,
          "y": 299.4219970703125,
          "z": -41.667999267578125
        },
        "camForwardTargetOffset": {
          "x": 562.6329956054688,
          "y": 298.8739929199219,
          "z": -41.268001556396484
        },
        "camFov": 40.0,
        "lerpPattern": 6,
        "cameraBlendType": "EaseInOutCubic",
        "NJBNNOMLKCK": {},
        "needZAxisRotate": true,
        "openCameraDither": false,
        "targetNpcAlias": "",
        "closeTreeLeafDither": true,
        "KJOEFBPOIIH": "",
        "IICFKKEBIEC": "",
        "EGEHEJEBLBJ": ""
      },
      {
        "$type": "PKKMAMONGEO",
        "type": "DIALOG",
        "aliasList": [
          "21011"
        ],
        "actionId": 110,
        "dialogID": 790461102,
        "protectTime": 0.5
      },
      {
        "$type": "FABLGECDBCH",
        "type": "BODY_LANG",
        "aliasList": [
          "21011"
        ],
        "actionId": 178,
        "bodyLangParam": 1,
        "forceDoFreeStyle": true,
        "canDoRepeatFreeStyle": false,
        "cantBackToIdleWhenSitLoop": true,
        "eventPatternSuiteKey": "",
        "FOHHKFAIAAJ": ""
      },
      {
        "$type": "FABLGECDBCH",
        "type": "BODY_LANG",
        "aliasList": [
          "1005"
        ],
        "actionId": 174,
        "isContinue": true,
        "forceDoFreeStyle": true,
        "canDoRepeatFreeStyle": false,
        "cantBackToIdleWhenSitLoop": true,
        "eventPatternSuiteKey": "",
        "FOHHKFAIAAJ": ""
      },
      {
        "$type": "FJKIHHKJLMJ",
        "type": "CAMERA_MOVE",
        "delayTime": 0.10000000149011612,
        "duration": 8.649999618530273,
        "actionId": 244,
        "camPosOffset": {
          "x": 563.2769775390625,
          "y": 299.4219970703125,
          "z": -41.801998138427734
        },
        "camForwardTargetOffset": {
          "x": 562.5679931640625,
          "y": 298.875,
          "z": -41.35599899291992
        },
        "camFov": 40.0,
        "NJBNNOMLKCK": {},
        "needZAxisRotate": true,
        "rotateAngle": 2.006999969482422,
        "openCameraDither": false,
        "targetNpcAlias": "",
        "closeTreeLeafDither": true,
        "KJOEFBPOIIH": "",
        "IICFKKEBIEC": "",
        "EGEHEJEBLBJ": ""
      }
    ],
    [
      {
        "$type": "FJKIHHKJLMJ",
        "type": "CAMERA_MOVE",
        "duration": 1.0,
        "actionId": 222,
        "camPosOffset": {
          "x": 555.1370239257812,
          "y": 296.4580078125,
          "z": -37.81100082397461
        },
        "camForwardTargetOffset": {
          "x": 556.0189819335938,
          "y": 296.3330078125,
          "z": -38.26499938964844
        },
        "camFov": 18.746999740600586,
        "lerpPattern": 6,
        "cameraBlendType": "EaseInOutCubic",
        "NJBNNOMLKCK": {},
        "openCameraDither": false,
        "targetNpcAlias": "",
        "closeTreeLeafDither": true,
        "KJOEFBPOIIH": "",
        "IICFKKEBIEC": "",
        "EGEHEJEBLBJ": ""
      },
      {
        "$type": "PKKMAMONGEO",
        "type": "DIALOG",
        "aliasList": [
          "1005"
        ],
        "actionId": 112,
        "dialogID": 790461103,
        "protectTime": 0.5
      },
      {
        "$type": "FJKIHHKJLMJ",
        "type": "CAMERA_MOVE",
        "delayTime": 0.10000000149011612,
        "duration": 7.775000095367432,
        "actionId": 245,
        "camPosOffset": {
          "x": 555.2050170898438,
          "y": 296.4580078125,
          "z": -37.678001403808594
        },
        "camForwardTargetOffset": {
          "x": 556.0869750976562,
          "y": 296.3330078125,
          "z": -38.13100051879883
        },
        "camFov": 18.746999740600586,
        "NJBNNOMLKCK": {},
        "openCameraDither": false,
        "targetNpcAlias": "",
        "closeTreeLeafDither": true,
        "KJOEFBPOIIH": "",
        "IICFKKEBIEC": "",
        "EGEHEJEBLBJ": ""
      },
      {
        "$type": "FABLGECDBCH",
        "type": "BODY_LANG",
        "delayTime": 0.20800000429153442,
        "aliasList": [
          "1005"
        ],
        "actionId": 179,
        "bodyLangParam": 1300,
        "forceDoFreeStyle": true,
        "canDoRepeatFreeStyle": false,
        "cantBackToIdleWhenSitLoop": true,
        "eventPatternSuiteKey": "",
        "FOHHKFAIAAJ": ""
      }
    ],
    [
      {
        "$type": "FJKIHHKJLMJ",
        "type": "CAMERA_MOVE",
        "duration": 1.0,
        "actionId": 223,
        "camPosOffset": {
          "x": 561.3040161132812,
          "y": 296.0150146484375,
          "z": -38.37300109863281
        },
        "camForwardTargetOffset": {
          "x": 560.3359985351562,
          "y": 295.9880065917969,
          "z": -38.624000549316406
        },
        "camFov": 30.0,
        "lerpPattern": 6,
        "cameraBlendType": "EaseInOutCubic",
        "NJBNNOMLKCK": {},
        "openCameraDither": false,
        "targetNpcAlias": "",
        "closeTreeLeafDither": true,
        "KJOEFBPOIIH": "",
        "IICFKKEBIEC": "",
        "EGEHEJEBLBJ": ""
      },
      {
        "$type": "PKKMAMONGEO",
        "type": "DIALOG",
        "aliasList": [
          "21011"
        ],
        "actionId": 114,
        "dialogID": 790461104,
        "protectTime": 0.5
      },
      {
        "$type": "FJKIHHKJLMJ",
        "type": "CAMERA_MOVE",
        "delayTime": 0.10000000149011612,
        "duration": 6.650000095367432,
        "actionId": 246,
        "camPosOffset": {
          "x": 561.0830078125,
          "y": 296.02398681640625,
          "z": -38.43000030517578
        },
        "camForwardTargetOffset": {
          "x": 560.114990234375,
          "y": 295.9960021972656,
          "z": -38.680999755859375
        },
        "camFov": 30.0,
        "NJBNNOMLKCK": {},
        "needZAxisRotate": true,
        "openCameraDither": false,
        "targetNpcAlias": "",
        "closeTreeLeafDither": true,
        "KJOEFBPOIIH": "",
        "IICFKKEBIEC": "",
        "EGEHEJEBLBJ": ""
      }
    ],
    [
      {
        "$type": "FJKIHHKJLMJ",
        "type": "CAMERA_MOVE",
        "duration": 1.0,
        "actionId": 224,
        "camPosOffset": {
          "x": 558.916015625,
          "y": 296.0480041503906,
          "z": -38.34400177001953
        },
        "camForwardTargetOffset": {
          "x": 558.14501953125,
          "y": 296.0480041503906,
          "z": -38.97999954223633
        },
        "camFov": 35.0,
        "lerpPattern": 6,
        "cameraBlendType": "EaseInOutCubic",
        "NJBNNOMLKCK": {},
        "openCameraDither": false,
        "targetNpcAlias": "",
        "closeTreeLeafDither": true,
        "KJOEFBPOIIH": "",
        "IICFKKEBIEC": "",
        "EGEHEJEBLBJ": ""
      },
      {
        "$type": "PKKMAMONGEO",
        "type": "DIALOG",
        "aliasList": [
          "21011"
        ],
        "actionId": 116,
        "dialogID": 790461105,
        "protectTime": 0.5
      },
      {
        "$type": "FJKIHHKJLMJ",
        "type": "CAMERA_MOVE",
        "delayTime": 0.10000000149011612,
        "duration": 6.525000095367432,
        "actionId": 247,
        "camPosOffset": {
          "x": 558.8330078125,
          "y": 296.0480041503906,
          "z": -38.24300003051758
        },
        "camForwardTargetOffset": {
          "x": 558.06201171875,
          "y": 296.0480041503906,
          "z": -38.880001068115234
        },
        "camFov": 35.0,
        "NJBNNOMLKCK": {},
        "openCameraDither": false,
        "targetNpcAlias": "",
        "closeTreeLeafDither": true,
        "KJOEFBPOIIH": "",
        "IICFKKEBIEC": "",
        "EGEHEJEBLBJ": ""
      },
      {
        "$type": "FABLGECDBCH",
        "type": "BODY_LANG",
        "delayTime": 0.28299999237060547,
        "aliasList": [
          "21011"
        ],
        "actionId": 181,
        "bodyLangParam": 3,
        "forceDoFreeStyle": true,
        "canDoRepeatFreeStyle": false,
        "cantBackToIdleWhenSitLoop": true,
        "eventPatternSuiteKey": "",
        "FOHHKFAIAAJ": ""
      }
    ],
    [
      {
        "$type": "FJKIHHKJLMJ",
        "type": "CAMERA_MOVE",
        "duration": 1.0,
        "actionId": 225,
        "camPosOffset": {
          "x": 553.6069946289062,
          "y": 297.84100341796875,
          "z": -37.44900131225586
        },
        "camForwardTargetOffset": {
          "x": 554.4990234375,
          "y": 297.489013671875,
          "z": -37.72999954223633
        },
        "camFov": 25.0,
        "lerpPattern": 6,
        "cameraBlendType": "EaseInOutCubic",
        "NJBNNOMLKCK": {},
        "needZAxisRotate": true,
        "openCameraDither": false,
        "targetNpcAlias": "",
        "closeTreeLeafDither": true,
        "KJOEFBPOIIH": "",
        "IICFKKEBIEC": "",
        "EGEHEJEBLBJ": ""
      },
      {
        "$type": "PKKMAMONGEO",
        "type": "DIALOG",
        "aliasList": [
          "21011"
        ],
        "actionId": 118,
        "dialogID": 790461106,
        "protectTime": 0.5
      },
      {
        "$type": "FJKIHHKJLMJ",
        "type": "CAMERA_MOVE",
        "delayTime": 0.10000000149011612,
        "duration": 9.274999618530273,
        "actionId": 248,
        "camPosOffset": {
          "x": 553.5560302734375,
          "y": 297.84100341796875,
          "z": -37.611000061035156
        },
        "camForwardTargetOffset": {
          "x": 554.447998046875,
          "y": 297.489013671875,
          "z": -37.891998291015625
        },
        "camFov": 25.0,
        "NJBNNOMLKCK": {},
        "needZAxisRotate": true,
        "openCameraDither": false,
        "targetNpcAlias": "",
        "closeTreeLeafDither": true,
        "KJOEFBPOIIH": "",
        "IICFKKEBIEC": "",
        "EGEHEJEBLBJ": ""
      }
    ],
    [
      {
        "$type": "FJKIHHKJLMJ",
        "type": "CAMERA_MOVE",
        "duration": 1.0,
        "actionId": 226,
        "camPosOffset": {
          "x": 558.0800170898438,
          "y": 296.2820129394531,
          "z": -37.49300003051758
        },
        "camForwardTargetOffset": {
          "x": 558.8590087890625,
          "y": 296.14599609375,
          "z": -38.10499954223633
        },
        "camFov": 30.0,
        "lerpPattern": 6,
        "cameraBlendType": "EaseInOutCubic",
        "NJBNNOMLKCK": {},
        "needZAxisRotate": true,
        "openCameraDither": false,
        "targetNpcAlias": "",
        "closeTreeLeafDither": true,
        "KJOEFBPOIIH": "",
        "IICFKKEBIEC": "",
        "EGEHEJEBLBJ": ""
      },
      {
        "$type": "PKKMAMONGEO",
        "type": "DIALOG",
        "aliasList": [
          "1005"
        ],
        "actionId": 120,
        "dialogID": 790461107,
        "protectTime": 1.2419999837875366
      },
      {
        "$type": "LLGANGLOEEO",
        "type": "STEER_TO",
        "duration": 1.0,
        "aliasList": [
          "1005"
        ],
        "actionId": 184,
        "_flag": 32,
        "steerType": "ABSOLUTE",
        "steerDir": {
          "x": 559.2130126953125,
          "y": 294.8089904785156,
          "z": -38.52399826049805
        },
        "useSteerAnim": true,
        "interruptFreestyle": true,
        "forceSteer": true,
        "targetNpcAlias": "",
        "ignoreY": true,
        "fixInterNull": true,
        "OAFJBHJHLJG": ""
      },
      {
        "$type": "LJLMDHDCAMK",
        "type": "LOOK_AT",
        "aliasList": [
          "1005"
        ],
        "actionId": 185,
        "_flag": 64,
        "enableHead": true,
        "useTargetPos": true,
        "enableAbsolute": true,
        "targetPosition": {
          "x": 559.3729858398438,
          "y": 296.18499755859375,
          "z": -38.34199905395508
        },
        "headTurnTime": 0.5,
        "targetNpcAlias": "",
        "lookAtTargetType": "NONE",
        "openBackProtect": true,
        "backProtectAngle": 60.0,
        "targetNpcLookAtPoint": "",
        "OAFJBHJHLJG": ""
      },
      {
        "$type": "FJKIHHKJLMJ",
        "type": "CAMERA_MOVE",
        "delayTime": 0.10000000149011612,
        "duration": 6.525000095367432,
        "actionId": 249,
        "camPosOffset": {
          "x": 558.0040283203125,
          "y": 296.2820129394531,
          "z": -37.59000015258789
        },
        "camForwardTargetOffset": {
          "x": 558.7830200195312,
          "y": 296.14599609375,
          "z": -38.20199966430664
        },
        "camFov": 30.0,
        "NJBNNOMLKCK": {},
        "needZAxisRotate": true,
        "openCameraDither": false,
        "targetNpcAlias": "",
        "closeTreeLeafDither": true,
        "KJOEFBPOIIH": "",
        "IICFKKEBIEC": "",
        "EGEHEJEBLBJ": ""
      },
      {
        "$type": "LJLMDHDCAMK",
        "type": "LOOK_AT",
        "delayTime": 0.375,
        "aliasList": [
          "AvatarNpc"
        ],
        "actionId": 186,
        "_flag": 64,
        "enableHead": true,
        "useTargetPos": true,
        "enableAbsolute": true,
        "targetPosition": {
          "x": 559.594970703125,
          "y": 296.18701171875,
          "z": -39.249000549316406
        },
        "headTurnTime": 0.5,
        "targetNpcAlias": "",
        "lookAtTargetType": "NONE",
        "openBackProtect": true,
        "backProtectAngle": 60.0,
        "targetNpcLookAtPoint": "",
        "OAFJBHJHLJG": ""
      },
      {
        "$type": "EMEHNEMOMMM",
        "type": "LOOK_AT_EYECTRL",
        "delayTime": 0.3919999897480011,
        "aliasList": [
          "AvatarNpc"
        ],
        "actionId": 187,
        "_flag": 64,
        "useTargetPos": false,
        "eyeRotateVecLeft": {
          "x": -2.0
        },
        "eyeRotateVecRight": {
          "x": -2.0
        },
        "turnTime": 0.20000000298023224,
        "targetNpcAlias": "",
        "targetPoint": "Face"
      },
      {
        "$type": "HDGKHDNFMIM",
        "type": "DIALOG_SELECT",
        "delayTime": 0.4000000059604645,
        "aliasList": [
          "AvatarNpc"
        ],
        "actionId": 160,
        "dialogIDList": [
          790461108,
          790461109
        ],
        "grpIDList": [
          1848271468,
          1848271468
        ],
        "useGrpId": true,
        "countDownGrpId": 1848271459
      },
      {
        "$type": "FABLGECDBCH",
        "type": "BODY_LANG",
        "delayTime": 1.3250000476837158,
        "aliasList": [
          "1005"
        ],
        "actionId": 192,
        "bodyLangParam": 1110,
        "forceDoFreeStyle": true,
        "canDoRepeatFreeStyle": false,
        "cantBackToIdleWhenSitLoop": true,
        "eventPatternSuiteKey": "",
        "FOHHKFAIAAJ": ""
      },
      {
        "$type": "FABLGECDBCH",
        "type": "BODY_LANG",
        "delayTime": 3.5999999046325684,
        "aliasList": [
          "1005"
        ],
        "actionId": 193,
        "isContinue": true,
        "forceDoFreeStyle": true,
        "canDoRepeatFreeStyle": false,
        "cantBackToIdleWhenSitLoop": true,
        "eventPatternSuiteKey": "",
        "FOHHKFAIAAJ": ""
      }
    ],
    [
      {
        "$type": "PKKMAMONGEO",
        "type": "DIALOG",
        "aliasList": [
          "1005"
        ],
        "actionId": 123,
        "dialogID": 790461110,
        "protectTime": 1.1169999837875366
      },
      {
        "$type": "FABLGECDBCH",
        "type": "BODY_LANG",
        "aliasList": [
          "1005"
        ],
        "actionId": 194,
        "isContinue": true,
        "forceDoFreeStyle": true,
        "canDoRepeatFreeStyle": false,
        "cantBackToIdleWhenSitLoop": true,
        "eventPatternSuiteKey": "",
        "FOHHKFAIAAJ": ""
      },
      {
        "$type": "FABLGECDBCH",
        "type": "BODY_LANG",
        "delayTime": 1.0920000076293945,
        "aliasList": [
          "1005"
        ],
        "actionId": 195,
        "bodyLangParam": 1090,
        "forceDoFreeStyle": true,
        "canDoRepeatFreeStyle": false,
        "cantBackToIdleWhenSitLoop": true,
        "eventPatternSuiteKey": "",
        "FOHHKFAIAAJ": ""
      }
    ],
    [
      {
        "$type": "FJKIHHKJLMJ",
        "type": "CAMERA_MOVE",
        "duration": 1.0,
        "actionId": 227,
        "camPosOffset": {
          "x": 554.7169799804688,
          "y": 296.5880126953125,
          "z": -37.744998931884766
        },
        "camForwardTargetOffset": {
          "x": 555.6389770507812,
          "y": 296.4200134277344,
          "z": -38.09400177001953
        },
        "camFov": 23.805999755859375,
        "lerpPattern": 6,
        "cameraBlendType": "EaseInOutCubic",
        "NJBNNOMLKCK": {},
        "needZAxisRotate": true,
        "openCameraDither": false,
        "targetNpcAlias": "",
        "closeTreeLeafDither": true,
        "KJOEFBPOIIH": "",
        "IICFKKEBIEC": "",
        "EGEHEJEBLBJ": ""
      },
      {
        "$type": "EMEHNEMOMMM",
        "type": "LOOK_AT_EYECTRL",
        "aliasList": [
          "AvatarNpc"
        ],
        "actionId": 237,
        "_flag": 64,
        "useTargetPos": false,
        "turnTime": 0.20000000298023224,
        "targetNpcAlias": "",
        "targetPoint": "Face"
      },
      {
        "$type": "LJLMDHDCAMK",
        "type": "LOOK_AT",
        "aliasList": [
          "AvatarNpc"
        ],
        "actionId": 238,
        "_flag": 64,
        "enableHead": true,
        "useTargetPos": true,
        "enableAbsolute": true,
        "targetPosition": {
          "x": 555.8259887695312,
          "y": 296.1929931640625,
          "z": -39.77199935913086
        },
        "headTurnTime": 0.5,
        "targetNpcAlias": "",
        "lookAtTargetType": "NONE",
        "openBackProtect": true,
        "backProtectAngle": 60.0,
        "targetNpcLookAtPoint": "",
        "OAFJBHJHLJG": ""
      },
      {
        "$type": "PKKMAMONGEO",
        "type": "DIALOG",
        "aliasList": [
          "1005"
        ],
        "actionId": 125,
        "dialogID": 790461111,
        "protectTime": 1.0
      },
      {
        "$type": "FABLGECDBCH",
        "type": "BODY_LANG",
        "aliasList": [
          "1005"
        ],
        "actionId": 196,
        "isContinue": true,
        "forceDoFreeStyle": true,
        "canDoRepeatFreeStyle": false,
        "cantBackToIdleWhenSitLoop": true,
        "eventPatternSuiteKey": "",
        "FOHHKFAIAAJ": ""
      },
      {
        "$type": "LLGANGLOEEO",
        "type": "STEER_TO",
        "duration": 1.0,
        "aliasList": [
          "1005"
        ],
        "actionId": 235,
        "_flag": 32,
        "steerType": "ABSOLUTE",
        "steerDir": {
          "x": 558.8930053710938,
          "y": 294.8089904785156,
          "z": -39.56100082397461
        },
        "useSteerAnim": true,
        "interruptFreestyle": true,
        "forceSteer": true,
        "targetNpcAlias": "",
        "ignoreY": true,
        "fixInterNull": true,
        "OAFJBHJHLJG": ""
      },
      {
        "$type": "LJLMDHDCAMK",
        "type": "LOOK_AT",
        "aliasList": [
          "1005"
        ],
        "actionId": 236,
        "_flag": 64,
        "enableHead": true,
        "useTargetPos": true,
        "enableAbsolute": true,
        "targetPosition": {
          "x": 556.7680053710938,
          "y": 296.0989990234375,
          "z": -39.41899871826172
        },
        "headTurnTime": 0.5,
        "targetNpcAlias": "",
        "lookAtTargetType": "NONE",
        "openBackProtect": true,
        "backProtectAngle": 60.0,
        "targetNpcLookAtPoint": "",
        "OAFJBHJHLJG": ""
      },
      {
        "$type": "FJKIHHKJLMJ",
        "type": "CAMERA_MOVE",
        "delayTime": 0.10000000149011612,
        "duration": 7.150000095367432,
        "actionId": 250,
        "camPosOffset": {
          "x": 554.780029296875,
          "y": 296.5880126953125,
          "z": -37.57699966430664
        },
        "camForwardTargetOffset": {
          "x": 555.7020263671875,
          "y": 296.4200134277344,
          "z": -37.92599868774414
        },
        "camFov": 23.805999755859375,
        "NJBNNOMLKCK": {},
        "needZAxisRotate": true,
        "openCameraDither": false,
        "targetNpcAlias": "",
        "closeTreeLeafDither": true,
        "KJOEFBPOIIH": "",
        "IICFKKEBIEC": "",
        "EGEHEJEBLBJ": ""
      },
      {
        "$type": "FABLGECDBCH",
        "type": "BODY_LANG",
        "delayTime": 1.5,
        "aliasList": [
          "1005"
        ],
        "actionId": 197,
        "bodyLangParam": 1300,
        "forceDoFreeStyle": true,
        "canDoRepeatFreeStyle": false,
        "cantBackToIdleWhenSitLoop": true,
        "eventPatternSuiteKey": "",
        "FOHHKFAIAAJ": ""
      }
    ],
    [
      {
        "$type": "FJKIHHKJLMJ",
        "type": "CAMERA_MOVE",
        "duration": 1.0,
        "actionId": 228,
        "camPosOffset": {
          "x": 562.8330078125,
          "y": 298.8059997558594,
          "z": -33.10300064086914
        },
        "camForwardTargetOffset": {
          "x": 562.3070068359375,
          "y": 298.41900634765625,
          "z": -33.86000061035156
        },
        "camFov": 22.009000778198242,
        "lerpPattern": 6,
        "cameraBlendType": "EaseInOutCubic",
        "NJBNNOMLKCK": {},
        "needZAxisRotate": true,
        "openCameraDither": false,
        "targetNpcAlias": "",
        "closeTreeLeafDither": true,
        "KJOEFBPOIIH": "",
        "IICFKKEBIEC": "",
        "EGEHEJEBLBJ": ""
      },
      {
        "$type": "PKKMAMONGEO",
        "type": "DIALOG",
        "aliasList": [
          "21011"
        ],
        "actionId": 127,
        "dialogID": 790461112,
        "protectTime": 0.5
      },
      {
        "$type": "FJKIHHKJLMJ",
        "type": "CAMERA_MOVE",
        "delayTime": 0.10000000149011612,
        "duration": 6.025000095367432,
        "actionId": 251,
        "camPosOffset": {
          "x": 562.6430053710938,
          "y": 298.8059997558594,
          "z": -32.970001220703125
        },
        "camForwardTargetOffset": {
          "x": 562.1170043945312,
          "y": 298.41900634765625,
          "z": -33.72700119018555
        },
        "camFov": 22.009000778198242,
        "NJBNNOMLKCK": {},
        "needZAxisRotate": true,
        "openCameraDither": false,
        "targetNpcAlias": "",
        "closeTreeLeafDither": true,
        "KJOEFBPOIIH": "",
        "IICFKKEBIEC": "",
        "EGEHEJEBLBJ": ""
      },
      {
        "$type": "FABLGECDBCH",
        "type": "BODY_LANG",
        "delayTime": 0.21699999272823334,
        "aliasList": [
          "21011"
        ],
        "actionId": 198,
        "bodyLangParam": 3,
        "forceDoFreeStyle": true,
        "canDoRepeatFreeStyle": false,
        "cantBackToIdleWhenSitLoop": true,
        "eventPatternSuiteKey": "",
        "FOHHKFAIAAJ": ""
      }
    ],
    [
      {
        "$type": "PKKMAMONGEO",
        "type": "DIALOG",
        "aliasList": [
          "21011"
        ],
        "actionId": 129,
        "dialogID": 790461113,
        "protectTime": 0.5
      },
      {
        "$type": "HDGKHDNFMIM",
        "type": "DIALOG_SELECT",
        "delayTime": 0.4000000059604645,
        "aliasList": [
          "AvatarNpc"
        ],
        "actionId": 161,
        "dialogIDList": [
          790461114,
          790461115
        ],
        "grpIDList": [
          1461840463,
          1461840463
        ],
        "useGrpId": true,
        "countDownGrpId": 1848271459
      },
      {
        "$type": "FABLGECDBCH",
        "type": "BODY_LANG",
        "delayTime": 3.0,
        "aliasList": [
          "AvatarNpc"
        ],
        "actionId": 199,
        "bodyLangParam": 1130,
        "forceDoFreeStyle": true,
        "canDoRepeatFreeStyle": false,
        "cantBackToIdleWhenSitLoop": true,
        "eventPatternSuiteKey": "",
        "FOHHKFAIAAJ": ""
      }
    ],
    [
      {
        "$type": "FJKIHHKJLMJ",
        "type": "CAMERA_MOVE",
        "duration": 1.0,
        "actionId": 229,
        "camPosOffset": {
          "x": 547.7470092773438,
          "y": 299.40899658203125,
          "z": -32.358001708984375
        },
        "camForwardTargetOffset": {
          "x": 548.573974609375,
          "y": 299.0780029296875,
          "z": -32.8120002746582
        },
        "camFov": 23.990999221801758,
        "lerpPattern": 6,
        "cameraBlendType": "EaseInOutCubic",
        "NJBNNOMLKCK": {},
        "needZAxisRotate": true,
        "openCameraDither": false,
        "targetNpcAlias": "",
        "closeTreeLeafDither": true,
        "KJOEFBPOIIH": "",
        "IICFKKEBIEC": "",
        "EGEHEJEBLBJ": ""
      },
      {
        "$type": "FABLGECDBCH",
        "type": "BODY_LANG",
        "aliasList": [
          "AvatarNpc"
        ],
        "actionId": 200,
        "isContinue": true,
        "forceDoFreeStyle": true,
        "canDoRepeatFreeStyle": false,
        "cantBackToIdleWhenSitLoop": true,
        "eventPatternSuiteKey": "",
        "FOHHKFAIAAJ": ""
      },
      {
        "$type": "PKKMAMONGEO",
        "type": "DIALOG",
        "aliasList": [
          "1005"
        ],
        "actionId": 132,
        "dialogID": 790461116,
        "protectTime": 0.5
      },
      {
        "$type": "FABLGECDBCH",
        "type": "BODY_LANG",
        "delayTime": 0.057999998331069946,
        "aliasList": [
          "1005"
        ],
        "actionId": 240,
        "bodyLangParam": 1230,
        "forceDoFreeStyle": true,
        "canDoRepeatFreeStyle": false,
        "cantBackToIdleWhenSitLoop": true,
        "eventPatternSuiteKey": "",
        "FOHHKFAIAAJ": ""
      },
      {
        "$type": "FJKIHHKJLMJ",
        "type": "CAMERA_MOVE",
        "delayTime": 0.10000000149011612,
        "duration": 5.150000095367432,
        "actionId": 252,
        "camPosOffset": {
          "x": 547.5859985351562,
          "y": 299.40899658203125,
          "z": -32.652000427246094
        },
        "camForwardTargetOffset": {
          "x": 548.4130249023438,
          "y": 299.0780029296875,
          "z": -33.10599899291992
        },
        "camFov": 23.990999221801758,
        "NJBNNOMLKCK": {},
        "needZAxisRotate": true,
        "openCameraDither": false,
        "targetNpcAlias": "",
        "closeTreeLeafDither": true,
        "KJOEFBPOIIH": "",
        "IICFKKEBIEC": "",
        "EGEHEJEBLBJ": ""
      },
      {
        "$type": "LJLMDHDCAMK",
        "type": "LOOK_AT",
        "delayTime": 0.21699999272823334,
        "aliasList": [
          "1005"
        ],
        "actionId": 239,
        "_flag": 64,
        "headTurnTime": 0.5,
        "targetNpcAlias": "",
        "openBackProtect": true,
        "backProtectAngle": 60.0,
        "targetNpcLookAtPoint": "",
        "OAFJBHJHLJG": ""
      }
    ],
    [
      {
        "$type": "PKKMAMONGEO",
        "type": "DIALOG",
        "aliasList": [
          "1005"
        ],
        "actionId": 134,
        "dialogID": 790461117,
        "protectTime": 0.5
      },
      {
        "$type": "FABLGECDBCH",
        "type": "BODY_LANG",
        "aliasList": [
          "1005"
        ],
        "actionId": 202,
        "isContinue": true,
        "forceDoFreeStyle": true,
        "canDoRepeatFreeStyle": false,
        "cantBackToIdleWhenSitLoop": true,
        "eventPatternSuiteKey": "",
        "FOHHKFAIAAJ": ""
      },
      {
        "$type": "FABLGECDBCH",
        "type": "BODY_LANG",
        "delayTime": 2.0,
        "aliasList": [
          "1005"
        ],
        "actionId": 203,
        "bodyLangParam": 1100,
        "forceDoFreeStyle": true,
        "canDoRepeatFreeStyle": false,
        "cantBackToIdleWhenSitLoop": true,
        "eventPatternSuiteKey": "",
        "FOHHKFAIAAJ": ""
      }
    ],
    [
      {
        "$type": "FJKIHHKJLMJ",
        "type": "CAMERA_MOVE",
        "duration": 1.0,
        "actionId": 230,
        "camPosOffset": {
          "x": 574.1740112304688,
          "y": 303.10198974609375,
          "z": -42.6870002746582
        },
        "camForwardTargetOffset": {
          "x": 573.2999877929688,
          "y": 302.62298583984375,
          "z": -42.60200119018555
        },
        "camFov": 29.513999938964844,
        "lerpPattern": 6,
        "cameraBlendType": "EaseInOutCubic",
        "NJBNNOMLKCK": {},
        "needZAxisRotate": true,
        "openCameraDither": false,
        "targetNpcAlias": "",
        "closeTreeLeafDither": true,
        "KJOEFBPOIIH": "",
        "IICFKKEBIEC": "",
        "EGEHEJEBLBJ": ""
      },
      {
        "$type": "LLGANGLOEEO",
        "type": "STEER_TO",
        "duration": 1.0,
        "aliasList": [
          "21011"
        ],
        "actionId": 209,
        "_flag": 32,
        "steerType": "ABSOLUTE",
        "steerDir": {
          "x": 565.031982421875,
          "y": 294.8089904785156,
          "z": -42.834999084472656
        },
        "useSteerAnim": true,
        "interruptFreestyle": true,
        "forceSteer": true,
        "targetNpcAlias": "",
        "ignoreY": true,
        "fixInterNull": true,
        "OAFJBHJHLJG": ""
      },
      {
        "$type": "LLGANGLOEEO",
        "type": "STEER_TO",
        "duration": 1.0,
        "aliasList": [
          "1005"
        ],
        "actionId": 204,
        "_flag": 32,
        "steerType": "ABSOLUTE",
        "steerDir": {
          "x": 566.2000122070312,
          "y": 294.8089904785156,
          "z": -43.05400085449219
        },
        "useSteerAnim": true,
        "interruptFreestyle": true,
        "forceSteer": true,
        "targetNpcAlias": "",
        "ignoreY": true,
        "fixInterNull": true,
        "OAFJBHJHLJG": ""
      },
      {
        "$type": "PKKMAMONGEO",
        "type": "DIALOG",
        "aliasList": [
          "20977"
        ],
        "actionId": 136,
        "dialogID": 790461118,
        "protectTime": 1.5169999599456787
      },
      {
        "$type": "LJLMDHDCAMK",
        "type": "LOOK_AT",
        "delayTime": 0.032999999821186066,
        "aliasList": [
          "1005"
        ],
        "actionId": 205,
        "_flag": 64,
        "enableHead": true,
        "useTargetPos": true,
        "enableAbsolute": true,
        "targetPosition": {
          "x": 566.6729736328125,
          "y": 299.68701171875,
          "z": -43.183998107910156
        },
        "headTurnTime": 0.5,
        "targetNpcAlias": "",
        "lookAtTargetType": "NONE",
        "openBackProtect": true,
        "backProtectAngle": 60.0,
        "targetNpcLookAtPoint": "",
        "OAFJBHJHLJG": ""
      },
      {
        "$type": "FJKIHHKJLMJ",
        "type": "CAMERA_MOVE",
        "delayTime": 0.10000000149011612,
        "duration": 10.274999618530273,
        "actionId": 253,
        "camPosOffset": {
          "x": 574.1480102539062,
          "y": 303.10198974609375,
          "z": -42.95100021362305
        },
        "camForwardTargetOffset": {
          "x": 573.2739868164062,
          "y": 302.62298583984375,
          "z": -42.867000579833984
        },
        "camFov": 29.513999938964844,
        "NJBNNOMLKCK": {},
        "needZAxisRotate": true,
        "openCameraDither": false,
        "targetNpcAlias": "",
        "closeTreeLeafDither": true,
        "KJOEFBPOIIH": "",
        "IICFKKEBIEC": "",
        "EGEHEJEBLBJ": ""
      },
      {
        "$type": "LJLMDHDCAMK",
        "type": "LOOK_AT",
        "delayTime": 0.2919999957084656,
        "aliasList": [
          "AvatarNpc"
        ],
        "actionId": 207,
        "_flag": 64,
        "enableHead": true,
        "useTargetPos": true,
        "enableAbsolute": true,
        "targetPosition": {
          "x": 566.7979736328125,
          "y": 299.7349853515625,
          "z": -42.604000091552734
        },
        "headTurnTime": 0.5,
        "targetNpcAlias": "",
        "lookAtTargetType": "NONE",
        "openBackProtect": true,
        "backProtectAngle": 60.0,
        "targetNpcLookAtPoint": "",
        "OAFJBHJHLJG": ""
      },
      {
        "$type": "LLGANGLOEEO",
        "type": "STEER_TO",
        "delayTime": 0.30799999833106995,
        "duration": 1.0,
        "aliasList": [
          "AvatarNpc"
        ],
        "actionId": 206,
        "_flag": 32,
        "steerType": "ABSOLUTE",
        "steerDir": {
          "x": 566.552001953125,
          "y": 294.8089904785156,
          "z": -43.04100036621094
        },
        "useSteerAnim": true,
        "interruptFreestyle": true,
        "forceSteer": true,
        "targetNpcAlias": "",
        "ignoreY": true,
        "fixInterNull": true,
        "OAFJBHJHLJG": ""
      }
    ],
    [
      {
        "$type": "PKKMAMONGEO",
        "type": "DIALOG",
        "aliasList": [
          "20977"
        ],
        "actionId": 138,
        "dialogID": 790461119,
        "protectTime": 1.25
      }
    ],
    [
      {
        "$type": "FJKIHHKJLMJ",
        "type": "CAMERA_MOVE",
        "duration": 1.0,
        "actionId": 256,
        "camPosOffset": {
          "x": 558.1790161132812,
          "y": 298.0429992675781,
          "z": -34.59600067138672
        },
        "camForwardTargetOffset": {
          "x": 558.8759765625,
          "y": 298.15899658203125,
          "z": -35.30400085449219
        },
        "camFov": 10.0,
        "lerpPattern": 6,
        "cameraBlendType": "EaseInOutCubic",
        "NJBNNOMLKCK": {},
        "needZAxisRotate": true,
        "openCameraDither": false,
        "targetNpcAlias": "",
        "closeTreeLeafDither": true,
        "KJOEFBPOIIH": "",
        "IICFKKEBIEC": "",
        "EGEHEJEBLBJ": ""
      },
      {
        "$type": "PKKMAMONGEO",
        "type": "DIALOG",
        "aliasList": [
          "20977"
        ],
        "actionId": 140,
        "dialogID": 790461120,
        "protectTime": 0.5
      },
      {
        "$type": "FJKIHHKJLMJ",
        "type": "CAMERA_MOVE",
        "delayTime": 0.1080000028014183,
        "duration": 5.0,
        "actionId": 241,
        "camPosOffset": {
          "x": 556.364013671875,
          "y": 298.1159973144531,
          "z": -36.86800003051758
        },
        "camForwardTargetOffset": {
          "x": 557.2109985351562,
          "y": 298.22900390625,
          "z": -37.387001037597656
        },
        "camFov": 10.0,
        "lerpPattern": 2,
        "cameraBlendType": "EaseOutQuad",
        "NJBNNOMLKCK": {},
        "needZAxisRotate": true,
        "openCameraDither": false,
        "targetNpcAlias": "",
        "closeTreeLeafDither": true,
        "KJOEFBPOIIH": "",
        "IICFKKEBIEC": "",
        "EGEHEJEBLBJ": ""
      }
    ],
    [
      {
        "$type": "PKKMAMONGEO",
        "type": "DIALOG",
        "aliasList": [
          "20977"
        ],
        "actionId": 142,
        "dialogID": 790461121,
        "protectTime": 0.5
      }
    ],
    [
      {
        "$type": "FJKIHHKJLMJ",
        "type": "CAMERA_MOVE",
        "duration": 1.0,
        "actionId": 233,
        "camPosOffset": {
          "x": 558.3280029296875,
          "y": 295.9840087890625,
          "z": -38.10100173950195
        },
        "camForwardTargetOffset": {
          "x": 559.2260131835938,
          "y": 296.1109924316406,
          "z": -38.52199935913086
        },
        "camFov": 35.0,
        "lerpPattern": 6,
        "cameraBlendType": "EaseInOutCubic",
        "NJBNNOMLKCK": {},
        "needZAxisRotate": true,
        "openCameraDither": false,
        "targetNpcAlias": "",
        "closeTreeLeafDither": true,
        "KJOEFBPOIIH": "",
        "IICFKKEBIEC": "",
        "EGEHEJEBLBJ": ""
      },
      {
        "$type": "PKKMAMONGEO",
        "type": "DIALOG",
        "aliasList": [
          "1005"
        ],
        "actionId": 144,
        "dialogID": 790461122,
        "protectTime": 1.3580000400543213
      },
      {
        "$type": "LLGANGLOEEO",
        "type": "STEER_TO",
        "duration": 1.0,
        "aliasList": [
          "1005"
        ],
        "actionId": 210,
        "_flag": 32,
        "steerType": "ABSOLUTE",
        "steerDir": {
          "x": 559.6420288085938,
          "y": 294.8089904785156,
          "z": -38.58000183105469
        },
        "useSteerAnim": true,
        "interruptFreestyle": true,
        "forceSteer": true,
        "targetNpcAlias": "",
        "ignoreY": true,
        "fixInterNull": true,
        "OAFJBHJHLJG": ""
      },
      {
        "$type": "LJLMDHDCAMK",
        "type": "LOOK_AT",
        "aliasList": [
          "1005"
        ],
        "actionId": 211,
        "_flag": 64,
        "enableHead": true,
        "useTargetPos": true,
        "enableAbsolute": true,
        "targetPosition": {
          "x": 559.2050170898438,
          "y": 296.2229919433594,
          "z": -38.0260009765625
        },
        "headTurnTime": 0.5,
        "targetNpcAlias": "",
        "lookAtTargetType": "NONE",
        "openBackProtect": true,
        "backProtectAngle": 60.0,
        "targetNpcLookAtPoint": "",
        "OAFJBHJHLJG": ""
      },
      {
        "$type": "FJKIHHKJLMJ",
        "type": "CAMERA_MOVE",
        "delayTime": 0.10000000149011612,
        "duration": 6.400000095367432,
        "actionId": 254,
        "camPosOffset": {
          "x": 558.2730102539062,
          "y": 295.9840087890625,
          "z": -38.21699905395508
        },
        "camForwardTargetOffset": {
          "x": 559.1719970703125,
          "y": 296.1109924316406,
          "z": -38.63800048828125
        },
        "camFov": 35.0,
        "NJBNNOMLKCK": {},
        "needZAxisRotate": true,
        "openCameraDither": false,
        "targetNpcAlias": "",
        "closeTreeLeafDither": true,
        "KJOEFBPOIIH": "",
        "IICFKKEBIEC": "",
        "EGEHEJEBLBJ": ""
      },
      {
        "$type": "LLGANGLOEEO",
        "type": "STEER_TO",
        "delayTime": 0.15000000596046448,
        "duration": 1.0,
        "aliasList": [
          "21011"
        ],
        "actionId": 212,
        "_flag": 32,
        "steerType": "ABSOLUTE",
        "steerDir": {
          "x": 559.0659790039062,
          "y": 294.8089904785156,
          "z": -39.10300064086914
        },
        "useSteerAnim": true,
        "interruptFreestyle": true,
        "forceSteer": true,
        "targetNpcAlias": "",
        "ignoreY": true,
        "fixInterNull": true,
        "OAFJBHJHLJG": ""
      },
      {
        "$type": "LLGANGLOEEO",
        "type": "STEER_TO",
        "delayTime": 0.20000000298023224,
        "duration": 1.0,
        "aliasList": [
          "AvatarNpc"
        ],
        "actionId": 242,
        "_flag": 32,
        "steerType": "ABSOLUTE",
        "steerDir": {
          "x": 560.051025390625,
          "y": 294.8089904785156,
          "z": -39.97600173950195
        },
        "useSteerAnim": true,
        "interruptFreestyle": true,
        "forceSteer": true,
        "targetNpcAlias": "",
        "ignoreY": true,
        "fixInterNull": true,
        "OAFJBHJHLJG": ""
      },
      {
        "$type": "LJLMDHDCAMK",
        "type": "LOOK_AT",
        "delayTime": 0.28299999237060547,
        "aliasList": [
          "AvatarNpc"
        ],
        "actionId": 213,
        "_flag": 64,
        "enableHead": true,
        "useTargetPos": true,
        "enableAbsolute": true,
        "targetPosition": {
          "x": 559.781982421875,
          "y": 296.1199951171875,
          "z": -39.499000549316406
        },
        "headTurnTime": 0.5,
        "targetNpcAlias": "",
        "lookAtTargetType": "NONE",
        "openBackProtect": true,
        "backProtectAngle": 60.0,
        "targetNpcLookAtPoint": "",
        "OAFJBHJHLJG": ""
      },
      {
        "$type": "FABLGECDBCH",
        "type": "BODY_LANG",
        "delayTime": 1.1169999837875366,
        "aliasList": [
          "1005"
        ],
        "actionId": 214,
        "bodyLangParam": 1090,
        "forceDoFreeStyle": true,
        "canDoRepeatFreeStyle": false,
        "cantBackToIdleWhenSitLoop": true,
        "eventPatternSuiteKey": "",
        "FOHHKFAIAAJ": ""
      }
    ],
    [
      {
        "$type": "PKKMAMONGEO",
        "type": "DIALOG",
        "aliasList": [
          "1005"
        ],
        "actionId": 146,
        "dialogID": 790461123,
        "protectTime": 0.5
      },
      {
        "$type": "FABLGECDBCH",
        "type": "BODY_LANG",
        "delayTime": 0.17499999701976776,
        "aliasList": [
          "1005"
        ],
        "actionId": 215,
        "isContinue": true,
        "forceDoFreeStyle": true,
        "canDoRepeatFreeStyle": false,
        "cantBackToIdleWhenSitLoop": true,
        "eventPatternSuiteKey": "",
        "FOHHKFAIAAJ": ""
      },
      {
        "$type": "FABLGECDBCH",
        "type": "BODY_LANG",
        "delayTime": 0.8830000162124634,
        "aliasList": [
          "1005"
        ],
        "actionId": 216,
        "bodyLangParam": 1300,
        "forceDoFreeStyle": true,
        "canDoRepeatFreeStyle": false,
        "cantBackToIdleWhenSitLoop": true,
        "eventPatternSuiteKey": "",
        "FOHHKFAIAAJ": ""
      }
    ],
    [
      {
        "$type": "FJKIHHKJLMJ",
        "type": "CAMERA_MOVE",
        "duration": 1.0,
        "actionId": 234,
        "camPosOffset": {
          "x": 559.0170288085938,
          "y": 296.1809997558594,
          "z": -40.99800109863281
        },
        "camForwardTargetOffset": {
          "x": 559.2789916992188,
          "y": 296.0989990234375,
          "z": -40.0359992980957
        },
        "camFov": 24.634000778198242,
        "lerpPattern": 6,
        "cameraBlendType": "EaseInOutCubic",
        "NJBNNOMLKCK": {},
        "needZAxisRotate": true,
        "openCameraDither": false,
        "targetNpcAlias": "",
        "closeTreeLeafDither": true,
        "KJOEFBPOIIH": "",
        "IICFKKEBIEC": "",
        "EGEHEJEBLBJ": ""
      },
      {
        "$type": "PKKMAMONGEO",
        "type": "DIALOG",
        "aliasList": [
          "1005"
        ],
        "actionId": 148,
        "dialogID": 790461124,
        "protectTime": 0.5
      },
      {
        "$type": "FABLGECDBCH",
        "type": "BODY_LANG",
        "delayTime": 0.08299999684095383,
        "aliasList": [
          "1005"
        ],
        "actionId": 218,
        "bodyLangParam": 1130,
        "forceDoFreeStyle": true,
        "canDoRepeatFreeStyle": false,
        "cantBackToIdleWhenSitLoop": true,
        "eventPatternSuiteKey": "",
        "FOHHKFAIAAJ": ""
      },
      {
        "$type": "FJKIHHKJLMJ",
        "type": "CAMERA_MOVE",
        "delayTime": 0.10000000149011612,
        "duration": 5.525000095367432,
        "actionId": 255,
        "camPosOffset": {
          "x": 559.1229858398438,
          "y": 296.1809997558594,
          "z": -41.027000427246094
        },
        "camForwardTargetOffset": {
          "x": 559.385009765625,
          "y": 296.0989990234375,
          "z": -40.064998626708984
        },
        "camFov": 24.634000778198242,
        "NJBNNOMLKCK": {},
        "needZAxisRotate": true,
        "openCameraDither": false,
        "targetNpcAlias": "",
        "closeTreeLeafDither": true,
        "KJOEFBPOIIH": "",
        "IICFKKEBIEC": "",
        "EGEHEJEBLBJ": ""
      },
      {
        "$type": "FABLGECDBCH",
        "type": "BODY_LANG",
        "delayTime": 2.0,
        "aliasList": [
          "AvatarNpc"
        ],
        "actionId": 219,
        "bodyLangParam": 4031,
        "forceDoFreeStyle": true,
        "canDoRepeatFreeStyle": false,
        "cantBackToIdleWhenSitLoop": true,
        "eventPatternSuiteKey": "",
        "FOHHKFAIAAJ": ""
      }
    ],
    [
      {
        "$type": "MoleMole.Config.ConfigTimeProtectAction",
        "type": "TIME_PROTECT",
        "duration": 0.10000000149011612,
        "actionId": 105
      },
      {
        "$type": "MoleMole.Config.ConfigSimpleBlackScreenAction",
        "type": "SIMPLE_BLACK_SCREEN",
        "actionId": 149,
        "durationToBlack": 0.5,
        "durationKeepBlack": 1.5,
        "durationFromBlack": 0.5,
        "textMapID": ""
      },
      {
        "$type": "MoleMole.Config.ConfigTimeProtectAction",
        "type": "TIME_PROTECT",
        "duration": 0.699999988079071,
        "actionId": 150
      },
      {
        "$type": "FABLGECDBCH",
        "type": "BODY_LANG",
        "aliasList": [
          "AvatarNpc"
        ],
        "actionId": 165,
        "isContinue": true,
        "forceDoFreeStyle": true,
        "canDoRepeatFreeStyle": false,
        "eventPatternSuiteKey": "",
        "FOHHKFAIAAJ": ""
      },
      {
        "$type": "FABLGECDBCH",
        "type": "BODY_LANG",
        "aliasList": [
          "1005"
        ],
        "actionId": 154,
        "isContinue": true,
        "forceDoFreeStyle": true,
        "canDoRepeatFreeStyle": false,
        "eventPatternSuiteKey": "",
        "FOHHKFAIAAJ": ""
      },
      {
        "$type": "FJKIHHKJLMJ",
        "type": "CAMERA_MOVE",
        "delayTime": 0.5,
        "duration": 0.10000000149011612,
        "actionId": 159,
        "cameraPosType": "EXIT",
        "camForwardTargetOffset": {
          "z": 1.0
        },
        "camFov": 30.0,
        "lerpPattern": 5,
        "cameraBlendType": "EaseInOutCubic",
        "NJBNNOMLKCK": {},
        "openCameraDither": false,
        "targetNpcAlias": "",
        "closeTreeLeafDither": true,
        "KJOEFBPOIIH": "",
        "IICFKKEBIEC": "",
        "EGEHEJEBLBJ": ""
      },
      {
        "$type": "MoleMole.Config.ConfigVisibleInterAction",
        "type": "VISIBLE",
        "delayTime": 0.6000000238418579,
        "aliasList": [
          "Avatar"
        ],
        "actionId": 166,
        "isVisible": true,
        "_extraParam": ""
      }
    ]
  ],
  "groupId": [
    {
      "grpId": 1848271460,
      "nextGrpId": 1848271461
    },
    {
      "index": 1,
      "grpId": 1848271461,
      "nextGrpId": 1848271462
    },
    {
      "index": 2,
      "grpId": 1848271462,
      "nextGrpId": 1848271463
    },
    {
      "index": 3,
      "grpId": 1848271463,
      "nextGrpId": 1848271464
    },
    {
      "index": 4,
      "grpId": 1848271464,
      "nextGrpId": 1848271465
    },
    {
      "index": 5,
      "grpId": 1848271465,
      "nextGrpId": 1848271466
    },
    {
      "index": 6,
      "grpId": 1848271466,
      "nextGrpId": 1848271467
    },
    {
      "index": 7,
      "grpId": 1848271467,
      "nextGrpId": 1848271468
    },
    {
      "index": 8,
      "grpId": 1848271468,
      "nextGrpId": 1461840460
    },
    {
      "index": 9,
      "grpId": 1461840460,
      "nextGrpId": 1461840461
    },
    {
      "index": 10,
      "grpId": 1461840461,
      "nextGrpId": 1461840462
    },
    {
      "index": 11,
      "grpId": 1461840462,
      "nextGrpId": 1461840463
    },
    {
      "index": 12,
      "grpId": 1461840463,
      "nextGrpId": 1461840464
    },
    {
      "index": 13,
      "grpId": 1461840464,
      "nextGrpId": 1461840465
    },
    {
      "index": 14,
      "grpId": 1461840465,
      "nextGrpId": 1461840466
    },
    {
      "index": 15,
      "grpId": 1461840466,
      "nextGrpId": 1461840467
    },
    {
      "index": 16,
      "grpId": 1461840467,
      "nextGrpId": 1461840468
    },
    {
      "index": 17,
      "grpId": 1461840468,
      "nextGrpId": 1461840469
    },
    {
      "index": 18,
      "grpId": 1461840469,
      "nextGrpId": 1461840491
    },
    {
      "index": 19,
      "grpId": 1461840491,
      "nextGrpId": 1461840492
    },
    {
      "index": 20,
      "grpId": 1461840492,
      "nextGrpId": 1461840493
    },
    {
      "index": 21,
      "grpId": 1461840493,
      "nextGrpId": 1461840494
    }
  ],
  "freeStyleDic": {
    "1025": [
      1130,
      4031
    ],
    "1026": [
      1130,
      4031
    ]
  },
  "EKFBDAIDEEF": {
    "AvatarNpc": [
      "SitChat01AS",
      "SitHoldArm01AS",
      "SitShrug01AS",
      "SitThink01AS"
    ]
  }
}