{
  "luaDataPath": "",
  "entityBan": "",
  "startFade": {
    "startFadeOutDuration": 0.0
  },
  "endFade": {
    "startFadeOutDuration": 0.0
  },
  "actors": [
    {
      "alias": "Avatar",
      "visible": true,
      "bornPointName": "",
      "relativePosNpcAlias": "",
      "_bindMovingTargetKey": ""
    },
    {
      "configID": 10092,
      "alias": "10092",
      "bornPointName": "",
      "relativePosNpcAlias": "",
      "_bindMovingTargetKey": ""
    }
  ],
  "group": [
    [
      {
        "$type": "PKKMAMONGEO",
        "type": "DIALOG",
        "aliasList": [
          "10092"
        ],
        "dialogID": 3180201
      }
    ],
    [
      {
        "$type": "PKKMAMONGEO",
        "type": "DIALOG",
        "aliasList": [
          "10092"
        ],
        "dialogID": 3180202
      }
    ],
    [
      {
        "$type": "PKKMAMONGEO",
        "type": "DIALOG",
        "aliasList": [
          "10092"
        ],
        "dialogID": 3180203
      }
    ],
    [
      {
        "$type": "PKKMAMONGEO",
        "type": "DIALOG",
        "aliasList": [
          "10092"
        ],
        "dialogID": 3180204
      }
    ],
    [
      {
        "$type": "PKKMAMONGEO",
        "type": "DIALOG",
        "aliasList": [
          "10092"
        ],
        "dialogID": 3180205
      }
    ],
    [
      {
        "$type": "LJLMDHDCAMK",
        "type": "LOOK_AT",
        "aliasList": [
          "Avatar"
        ],
        "targetNpcAlias": "",
        "targetNpcLookAtPoint": "",
        "OAFJBHJHLJG": ""
      }
    ]
  ],
  "groupId": [
    {
      "grpId": 1477877271,
      "nextGrpId": 1477877272
    },
    {
      "index": 1,
      "grpId": 1477877272,
      "nextGrpId": 1477877273
    },
    {
      "index": 2,
      "grpId": 1477877273,
      "nextGrpId": 1477877274
    },
    {
      "index": 3,
      "grpId": 1477877274,
      "nextGrpId": 1477877275
    },
    {
      "index": 4,
      "grpId": 1477877275,
      "nextGrpId": 1477877276
    },
    {
      "index": 5,
      "grpId": 1477877276,
      "nextGrpId": 1477877277
    }
  ]
}