{
  "71042": {
    "mainQuestID": 71042,
    "MPIIAFCDFLL": 7104201,
    "npcID": 2616,
    "sceneID": 6,
    "PLCKLJMFEBE": {
      "x": 1082.0799560546875,
      "y": 961.2774047851562,
      "z": 683.8104248046875
    },
    "MIEPEGCFGDF": true,
    "JCOGANHFFGI": "UI_MAPMARK_MarkTalk_DESC",
    "BNKPOLNLING": "",
    "condition": [
      [
        {
          "damageRatio": "QUEST_COND_STATE_EQUAL",
          "param": [
            7103716,
            3
          ]
        }
      ]
    ]
  },
  "71044": {
    "mainQuestID": 71044,
    "MPIIAFCDFLL": 7104405,
    "npcID": 2061,
    "NKICIBDHGGA": true,
    "sceneID": 3,
    "PLCKLJMFEBE": {
      "x": -767.5441284179688,
      "y": 205.0321044921875,
      "z": 1474.553955078125
    },
    "MIEPEGCFGDF": true,
    "JCOGANHFFGI": "UI_MAPMARK_MarkTalk_DESC",
    "BNKPOLNLING": "",
    "condition": [
      [
        {
          "damageRatio": "QUEST_COND_STATE_EQUAL",
          "param": [
            102510,
            3
          ]
        },
        {
          "damageRatio": "QUEST_COND_STATE_EQUAL",
          "param": [
            800402,
            0
          ]
        }
      ],
      [
        {
          "damageRatio": "QUEST_COND_STATE_EQUAL",
          "param": [
            102510,
            3
          ]
        },
        {
          "damageRatio": "QUEST_COND_STATE_EQUAL",
          "param": [
            800402,
            1
          ]
        }
      ],
      [
        {
          "damageRatio": "QUEST_COND_STATE_EQUAL",
          "param": [
            102510,
            3
          ]
        },
        {
          "damageRatio": "QUEST_COND_STATE_EQUAL",
          "param": [
            800402,
            2
          ]
        }
      ]
    ]
  },
  "71049": {
    "mainQuestID": 71049,
    "MPIIAFCDFLL": 7104430,
    "npcID": 2061,
    "NKICIBDHGGA": true,
    "sceneID": 3,
    "PLCKLJMFEBE": {
      "x": -767.5441284179688,
      "y": 205.0321044921875,
      "z": 1474.553955078125
    },
    "MIEPEGCFGDF": true,
    "JCOGANHFFGI": "UI_MAPMARK_MarkTalk_DESC",
    "BNKPOLNLING": "",
    "condition": [
      [
        {
          "damageRatio": "QUEST_COND_STATE_EQUAL",
          "param": [
            800402,
            3
          ]
        },
        {
          "damageRatio": "QUEST_COND_QUEST_GLOBAL_VAR_EQUAL",
          "param": [
            7104405,
            0
          ]
        }
      ]
    ]
  },
  "72106": {
    "mainQuestID": 72106,
    "MPIIAFCDFLL": 7210603,
    "npcID": 20222,
    "sceneID": 3,
    "PLCKLJMFEBE": {
      "x": -2640.14404296875,
      "y": 206.73370361328125,
      "z": -4058.9609375
    },
    "MIEPEGCFGDF": true,
    "JCOGANHFFGI": "UI_MAPMARK_MarkTalk_DESC",
    "BNKPOLNLING": "",
    "condition": [
      [
        {
          "damageRatio": "QUEST_COND_QUEST_GLOBAL_VAR_EQUAL",
          "param": [
            10007,
            1
          ]
        }
      ],
      [
        {
          "damageRatio": "QUEST_COND_LUA_NOTIFY",
          "param": [
            7210601
          ]
        }
      ]
    ]
  },
  "72114": {
    "mainQuestID": 72114,
    "MPIIAFCDFLL": 7211402,
    "npcID": 3185,
    "NKICIBDHGGA": true,
    "sceneID": 3,
    "PLCKLJMFEBE": {
      "x": -3293.366943359375,
      "y": 232.06680297851562,
      "z": -3429.7919921875
    },
    "MIEPEGCFGDF": true,
    "JCOGANHFFGI": "UI_MAPMARK_MarkTalk_DESC",
    "BNKPOLNLING": ""
  },
  "72143": {
    "mainQuestID": 72143,
    "MPIIAFCDFLL": 7214302,
    "npcID": 3193,
    "sceneID": 3,
    "PLCKLJMFEBE": {
      "x": -3812.825927734375,
      "y": 261.6405944824219,
      "z": -482.23779296875
    },
    "MIEPEGCFGDF": true,
    "JCOGANHFFGI": "UI_MAPMARK_MarkTalk_DESC",
    "BNKPOLNLING": "",
    "condition": [
      [
        {
          "damageRatio": "QUEST_COND_QUEST_GLOBAL_VAR_EQUAL",
          "param": [
            10007,
            1
          ]
        }
      ]
    ]
  },
  "72155": {
    "mainQuestID": 72155,
    "MPIIAFCDFLL": 7215502,
    "npcID": 3180,
    "sceneID": 3,
    "PLCKLJMFEBE": {
      "x": -4239.27197265625,
      "y": 200.7322998046875,
      "z": -4166.40380859375
    },
    "JCOGANHFFGI": "UI_MAPMARK_MarkTalk_DESC",
    "BNKPOLNLING": "",
    "condition": [
      [
        {
          "damageRatio": "QUEST_COND_STATE_EQUAL",
          "param": [
            201310,
            3
          ]
        },
        {
          "damageRatio": "QUEST_COND_STATE_EQUAL",
          "param": [
            7215517,
            2
          ]
        }
      ]
    ]
  },
  "73000": {
    "mainQuestID": 73000,
    "MPIIAFCDFLL": 7300002,
    "npcID": 20600,
    "sceneID": 3,
    "PLCKLJMFEBE": {
      "x": -1327.949951171875,
      "y": 174.4219970703125,
      "z": 2447.7109375
    },
    "MIEPEGCFGDF": true,
    "JCOGANHFFGI": "UI_MAPMARK_MarkTalk_DESC",
    "BNKPOLNLING": "",
    "condition": [
      [
        {
          "damageRatio": "QUEST_COND_STATE_EQUAL",
          "param": [
            7302515,
            3
          ]
        }
      ]
    ]
  },
  "73014": {
    "mainQuestID": 73014,
    "MPIIAFCDFLL": 7301402,
    "npcID": 4187,
    "sceneID": 3,
    "PLCKLJMFEBE": {
      "x": -1238.2130126953125,
      "y": 186.40550231933594,
      "z": 3464.14306640625
    },
    "MIEPEGCFGDF": true,
    "JCOGANHFFGI": "UI_MAPMARK_MarkTalk_DESC",
    "BNKPOLNLING": "",
    "condition": [
      [
        {
          "damageRatio": "QUEST_COND_STATE_EQUAL",
          "param": [
            7302515,
            3
          ]
        }
      ]
    ]
  },
  "73024": {
    "mainQuestID": 73024,
    "MPIIAFCDFLL": 7302402,
    "npcID": 4198,
    "sceneID": 3,
    "PLCKLJMFEBE": {
      "x": -838.5714111328125,
      "y": 196.31619262695312,
      "z": 2660.89990234375
    },
    "MIEPEGCFGDF": true,
    "JCOGANHFFGI": "UI_MAPMARK_MarkTalk_DESC",
    "BNKPOLNLING": "",
    "condition": [
      [
        {
          "damageRatio": "QUEST_COND_STATE_EQUAL",
          "param": [
            7300403,
            3
          ]
        }
      ],
      [
        {
          "damageRatio": "QUEST_COND_STATE_EQUAL",
          "param": [
            7301003,
            3
          ]
        }
      ],
      [
        {
          "damageRatio": "QUEST_COND_STATE_EQUAL",
          "param": [
            7301103,
            3
          ]
        }
      ],
      [
        {
          "damageRatio": "QUEST_COND_STATE_EQUAL",
          "param": [
            7301203,
            3
          ]
        }
      ],
      [
        {
          "damageRatio": "QUEST_COND_QUEST_GLOBAL_VAR_EQUAL",
          "param": [
            73101,
            1
          ]
        }
      ]
    ]
  },
  "73052": {
    "mainQuestID": 73052,
    "MPIIAFCDFLL": 7305204,
    "npcID": 1005,
    "sceneID": 3,
    "PLCKLJMFEBE": {
      "x": -2000.8790283203125,
      "y": 287.1794128417969,
      "z": 4080.3798828125
    },
    "MIEPEGCFGDF": true,
    "JCOGANHFFGI": "UI_MAPMARK_MarkTalk_DESC",
    "BNKPOLNLING": "",
    "condition": [
      [
        {
          "damageRatio": "QUEST_COND_QUEST_GLOBAL_VAR_EQUAL",
          "param": [
            10001,
            1
          ]
        },
        {
          "damageRatio": "QUEST_COND_STATE_EQUAL",
          "param": [
            7305201,
            2
          ]
        }
      ]
    ]
  },
  "73061": {
    "mainQuestID": 73061,
    "MPIIAFCDFLL": 7306105,
    "npcID": 20628,
    "sceneID": 3,
    "PLCKLJMFEBE": {
      "x": -789.77197265625,
      "y": 161.406005859375,
      "z": 2284.2451171875
    },
    "MIEPEGCFGDF": true,
    "JCOGANHFFGI": "UI_MAPMARK_MarkTalk_DESC",
    "BNKPOLNLING": "",
    "condition": [
      [
        {
          "damageRatio": "QUEST_COND_STATE_EQUAL",
          "param": [
            7306103,
            2
          ]
        }
      ]
    ]
  },
  "73238": {
    "mainQuestID": 73238,
    "MPIIAFCDFLL": 7323842,
    "sceneID": 3,
    "PLCKLJMFEBE": {
      "x": -316.68109130859375,
      "y": 138.05340576171875,
      "z": 5986.89208984375
    },
    "MIEPEGCFGDF": true,
    "JCOGANHFFGI": "UI_MAPMARK_MarkTalk_DESC",
    "BNKPOLNLING": "",
    "condition": [
      [
        {
          "damageRatio": "QUEST_COND_QUEST_GLOBAL_VAR_EQUAL",
          "param": [
            10001,
            1
          ]
        }
      ]
    ]
  },
  "73287": {
    "mainQuestID": 73287,
    "MPIIAFCDFLL": 7328704,
    "sceneID": 3,
    "PLCKLJMFEBE": {
      "x": -1519.3310546875,
      "y": 61.04829025268555,
      "z": 4990.07421875
    },
    "MIEPEGCFGDF": true,
    "JCOGANHFFGI": "UI_MAPMARK_MarkTalk_DESC",
    "BNKPOLNLING": "",
    "condition": [
      [
        {
          "damageRatio": "QUEST_COND_STATE_EQUAL",
          "param": [
            7328719,
            3
          ]
        },
        {
          "damageRatio": "QUEST_COND_STATE_EQUAL",
          "param": [
            7305508,
            3
          ]
        }
      ],
      [
        {
          "damageRatio": "QUEST_COND_STATE_EQUAL",
          "param": [
            7328721,
            3
          ]
        },
        {
          "damageRatio": "QUEST_COND_STATE_EQUAL",
          "param": [
            7305508,
            3
          ]
        }
      ]
    ]
  },
  "74001": {
    "mainQuestID": 74001,
    "MPIIAFCDFLL": 7400102,
    "npcID": 21146,
    "sceneID": 3,
    "PLCKLJMFEBE": {
      "x": 3390.154052734375,
      "y": 377.101806640625,
      "z": 4841.23681640625
    },
    "MIEPEGCFGDF": true,
    "JCOGANHFFGI": "UI_MAPMARK_MarkTalk_DESC",
    "BNKPOLNLING": "",
    "condition": [
      [
        {
          "damageRatio": "QUEST_COND_STATE_EQUAL",
          "param": [
            7400824,
            3
          ]
        }
      ]
    ]
  },
  "74005": {
    "mainQuestID": 74005,
    "MPIIAFCDFLL": 7400504,
    "npcID": 5301,
    "sceneID": 3,
    "PLCKLJMFEBE": {
      "x": 2675.968017578125,
      "y": 442.489013671875,
      "z": 4774.26416015625
    },
    "MIEPEGCFGDF": true,
    "JCOGANHFFGI": "UI_MAPMARK_MarkTalk_DESC",
    "BNKPOLNLING": "",
    "condition": [
      [
        {
          "damageRatio": "QUEST_COND_QUEST_GLOBAL_VAR_EQUAL",
          "param": [
            7400801,
            1
          ]
        }
      ]
    ]
  },
  "74008": {
    "mainQuestID": 74008,
    "MPIIAFCDFLL": 7400807,
    "npcID": 21027,
    "sceneID": 3,
    "PLCKLJMFEBE": {
      "x": 3586.65087890625,
      "y": 506.5350036621094,
      "z": 4625.93115234375
    },
    "MIEPEGCFGDF": true,
    "JCOGANHFFGI": "UI_MAPMARK_MarkTalk_DESC",
    "BNKPOLNLING": "",
    "condition": [
      [
        {
          "damageRatio": "QUEST_COND_QUEST_GLOBAL_VAR_EQUAL",
          "param": [
            10001,
            1
          ]
        }
      ]
    ]
  },
  "74025": {
    "mainQuestID": 74025,
    "MPIIAFCDFLL": 7402508,
    "npcID": 5201,
    "NKICIBDHGGA": true,
    "sceneID": 3,
    "PLCKLJMFEBE": {
      "x": 4426.48291015625,
      "y": 121.5999984741211,
      "z": 4577.44482421875
    },
    "MIEPEGCFGDF": true,
    "JCOGANHFFGI": "UI_MAPMARK_MarkTalk_DESC",
    "BNKPOLNLING": "",
    "condition": [
      [
        {
          "damageRatio": "QUEST_COND_STATE_EQUAL",
          "param": [
            7402507,
            2
          ]
        }
      ]
    ]
  },
  "74053": {
    "mainQuestID": 74053,
    "MPIIAFCDFLL": 7405303,
    "npcID": 5253,
    "sceneID": 3,
    "PLCKLJMFEBE": {
      "x": 4215.7998046875,
      "y": 466.3699951171875,
      "z": 4558.384765625
    },
    "MIEPEGCFGDF": true,
    "JCOGANHFFGI": "UI_MAPMARK_MarkTalk_DESC",
    "BNKPOLNLING": "",
    "condition": [
      [
        {
          "damageRatio": "QUEST_COND_QUEST_GLOBAL_VAR_EQUAL",
          "param": [
            10001,
            1
          ]
        },
        {
          "damageRatio": "QUEST_COND_STATE_EQUAL",
          "param": [
            7405301,
            2
          ]
        }
      ]
    ]
  },
  "74082": {
    "mainQuestID": 74082,
    "MPIIAFCDFLL": 7408214,
    "npcID": 5263,
    "sceneID": 3,
    "PLCKLJMFEBE": {
      "x": 3754.237060546875,
      "y": 480.02899169921875,
      "z": 3683.156982421875
    },
    "MIEPEGCFGDF": true,
    "JCOGANHFFGI": "UI_MAPMARK_MarkTalk_DESC",
    "BNKPOLNLING": "",
    "condition": [
      [
        {
          "damageRatio": "QUEST_COND_QUEST_GLOBAL_VAR_EQUAL",
          "param": [
            10001,
            1
          ]
        }
      ]
    ]
  },
  "74184": {
    "mainQuestID": 74184,
    "MPIIAFCDFLL": 7418402,
    "npcID": 21417,
    "sceneID": 3,
    "PLCKLJMFEBE": {
      "x": 1236.14794921875,
      "y": 283.4939880371094,
      "z": 4435.0029296875
    },
    "MIEPEGCFGDF": true,
    "JCOGANHFFGI": "UI_MAPMARK_MarkTalk_DESC",
    "BNKPOLNLING": "",
    "condition": [
      [
        {
          "damageRatio": "QUEST_COND_QUEST_GLOBAL_VAR_EQUAL",
          "param": [
            10003,
            1
          ]
        }
      ]
    ]
  },
  "75001": {
    "mainQuestID": 75001,
    "MPIIAFCDFLL": 7509301,
    "npcID": 6131,
    "sceneID": 3,
    "PLCKLJMFEBE": {
      "x": -1425.343994140625,
      "y": 65.44200134277344,
      "z": 8265.875
    },
    "MIEPEGCFGDF": true,
    "JCOGANHFFGI": "UI_MAPMARK_MarkTalk_DESC",
    "BNKPOLNLING": "",
    "condition": [
      [
        {
          "damageRatio": "QUEST_COND_QUEST_GLOBAL_VAR_EQUAL",
          "param": [
            7500001,
            1
          ]
        }
      ]
    ]
  },
  "75006": {
    "mainQuestID": 75006,
    "MPIIAFCDFLL": 7512301,
    "npcID": 21474,
    "sceneID": 3,
    "PLCKLJMFEBE": {
      "x": -2747.300048828125,
      "y": 119.78720092773438,
      "z": 8629.15234375
    },
    "MIEPEGCFGDF": true,
    "JCOGANHFFGI": "UI_MAPMARK_MarkTalk_DESC",
    "BNKPOLNLING": "",
    "condition": [
      [
        {
          "damageRatio": "QUEST_COND_STATE_EQUAL",
          "param": [
            7500008,
            3
          ]
        }
      ]
    ]
  },
  "79060": {
    "mainQuestID": 79060,
    "MPIIAFCDFLL": 7906028,
    "npcID": 21448,
    "sceneID": 100,
    "PLCKLJMFEBE": {
      "x": 1004.3300170898438,
      "y": 203.54519653320312,
      "z": 741.9265747070312
    },
    "MIEPEGCFGDF": true,
    "JCOGANHFFGI": "UI_MAPMARK_MarkTalk_DESC",
    "BNKPOLNLING": "",
    "condition": [
      [
        {
          "damageRatio": "QUEST_COND_STATE_EQUAL",
          "param": [
            7906001,
            2
          ]
        }
      ],
      [
        {
          "damageRatio": "QUEST_COND_STATE_EQUAL",
          "param": [
            7906002,
            2
          ]
        }
      ]
    ],
    "iconType": "MarkWQAcceptHint_1"
  },
  "79062": {
    "mainQuestID": 79062,
    "MPIIAFCDFLL": 7906202,
    "npcID": 2661,
    "sceneID": 100,
    "PLCKLJMFEBE": {
      "x": -2.4010000228881836,
      "y": 390.7330017089844,
      "z": 68.88500213623047
    },
    "MIEPEGCFGDF": true,
    "JCOGANHFFGI": "UI_MAPMARK_MarkTalk_DESC",
    "BNKPOLNLING": "",
    "condition": [
      [
        {
          "damageRatio": "QUEST_COND_STATE_EQUAL",
          "param": [
            7906201,
            2
          ]
        }
      ]
    ],
    "iconType": "MarkWQAcceptHint_1"
  },
  "79065": {
    "mainQuestID": 79065,
    "MPIIAFCDFLL": 7906506,
    "npcID": 21467,
    "sceneID": 100,
    "PLCKLJMFEBE": {
      "x": -216.62899780273438,
      "y": 522.031005859375,
      "z": -565.0189819335938
    },
    "MIEPEGCFGDF": true,
    "JCOGANHFFGI": "UI_MAPMARK_MarkTalk_DESC",
    "BNKPOLNLING": "",
    "condition": [
      [
        {
          "damageRatio": "QUEST_COND_STATE_EQUAL",
          "param": [
            7906501,
            2
          ]
        }
      ]
    ],
    "iconType": "MarkWQAcceptHint_1"
  },
  "79066": {
    "mainQuestID": 79066,
    "MPIIAFCDFLL": 7906605,
    "npcID": 21471,
    "sceneID": 100,
    "PLCKLJMFEBE": {
      "x": 111.33699798583984,
      "y": 468.2669982910156,
      "z": -679.0780029296875
    },
    "MIEPEGCFGDF": true,
    "JCOGANHFFGI": "UI_MAPMARK_MarkTalk_DESC",
    "BNKPOLNLING": "",
    "condition": [
      [
        {
          "damageRatio": "QUEST_COND_STATE_EQUAL",
          "param": [
            7906601,
            2
          ]
        }
      ]
    ],
    "iconType": "MarkWQAcceptHint_1"
  }
}