{
  "luaDataPath": "",
  "entityBan": "",
  "disableNpcLod": true,
  "protectNpcMobileLod": true,
  "talkFlag": 5,
  "startFade": {
    "startFadeOutDuration": 0.0
  },
  "endFade": {
    "startFadeOutDuration": 0.0
  },
  "actors": [
    {
      "alias": "Avatar",
      "visible": true,
      "bornPointName": "",
      "relativePosType": "AVATAR_NEW",
      "relativePosNpcAlias": "",
      "_bindMovingTargetKey": ""
    },
    {
      "configID": 13163,
      "alias": "13163",
      "visible": true,
      "bornPointName": "",
      "forceCreateDaily": true,
      "relativePosType": "AVATAR_NEW",
      "relativePosNpcAlias": "",
      "_bindMovingTargetKey": ""
    },
    {
      "configID": 1005,
      "alias": "1005",
      "visible": true,
      "bornPointName": "",
      "useRelativePos": true,
      "relativePos": {
        "x": 0.5,
        "z": 0.5
      },
      "removeActorType": "NEW_REMOVE_WITH_DISAPPEAR",
      "relativePosType": "AVATAR_NEW",
      "relativePosNpcAlias": "",
      "_bindMovingTargetKey": ""
    }
  ],
  "group": [
    [
      {
        "$type": "FJKIHHKJLMJ",
        "type": "CAMERA_FOCUS",
        "duration": 0.10000000149011612,
        "actionId": 103,
        "targetNpcAlias": "",
        "KJOEFBPOIIH": "",
        "IICFKKEBIEC": "",
        "EGEHEJEBLBJ": ""
      },
      {
        "$type": "MoleMole.Config.ConfigTimeProtectAction",
        "type": "TIME_PROTECT",
        "duration": 0.10000000149011612,
        "actionId": 104
      },
      {
        "$type": "LJLMDHDCAMK",
        "type": "LOOK_AT",
        "aliasList": [
          "Avatar"
        ],
        "actionId": 118,
        "enableHead": true,
        "headTurnTime": 0.5,
        "targetNpcAlias": "13163",
        "openBackProtect": true,
        "targetNpcLookAtPoint": "",
        "OAFJBHJHLJG": ""
      },
      {
        "$type": "LJLMDHDCAMK",
        "type": "LOOK_AT",
        "aliasList": [
          "1005"
        ],
        "actionId": 119,
        "enableHead": true,
        "headTurnTime": 0.5,
        "targetNpcAlias": "13163",
        "openBackProtect": true,
        "targetNpcLookAtPoint": "",
        "OAFJBHJHLJG": ""
      },
      {
        "$type": "LLGANGLOEEO",
        "type": "STEER_TO",
        "delayTime": 0.30000001192092896,
        "duration": 1.0,
        "aliasList": [
          "Avatar"
        ],
        "actionId": 112,
        "steerType": "TO_TARGET_ADVANCED",
        "useSteerAnim": true,
        "interruptFreestyle": true,
        "forceSteer": true,
        "targetNpcAlias": "13163",
        "fixInterNull": true,
        "OAFJBHJHLJG": ""
      },
      {
        "$type": "LLGANGLOEEO",
        "type": "STEER_TO",
        "delayTime": 0.30000001192092896,
        "duration": 1.0,
        "aliasList": [
          "13163"
        ],
        "actionId": 113,
        "steerType": "TO_TARGET",
        "useSteerAnim": true,
        "interruptFreestyle": true,
        "forceSteer": true,
        "targetNpcAlias": "Avatar",
        "fixInterNull": true,
        "OAFJBHJHLJG": ""
      }
    ],
    [
      {
        "$type": "PKKMAMONGEO",
        "type": "DIALOG",
        "aliasList": [
          "13163"
        ],
        "actionId": 107,
        "dialogID": 130191801,
        "protectTime": 0.5
      },
      {
        "$type": "CPJKOIHIPBE",
        "type": "EMO_SYNC",
        "aliasList": [
          "13163"
        ],
        "actionId": 117,
        "dataPath": "Cs_Emo_Avatar_Simple_Common_Set/Cs_Emo_Avatar_Talk/Cs_Emo_Avatar_PersonalLine/Cs_Emo_Avatar_Nahida/Cs_Emo_130191801",
        "phonemePath": "",
        "emotionPath": "",
        "mateDataPath": "",
        "matePhonemePath": "",
        "mateEmotionPath": "",
        "dataPathHashList": [
          16240142002007334297,
          7702861578174574974,
          17245686212151765900,
          7654258546382689961
        ],
        "FMDPBECPELH": "",
        "ADKBLPOKGIK": ""
      },
      {
        "$type": "FABLGECDBCH",
        "type": "BODY_LANG",
        "aliasList": [
          "13163"
        ],
        "actionId": 120,
        "bodyLangParam": 5,
        "canDoRepeatFreeStyle": false,
        "cantBackToIdleWhenSitLoop": true,
        "eventPatternSuiteKey": "",
        "FOHHKFAIAAJ": ""
      }
    ],
    [
      {
        "$type": "MoleMole.Config.ConfigTimeProtectAction",
        "type": "TIME_PROTECT",
        "duration": 0.10000000149011612,
        "actionId": 105
      },
      {
        "$type": "FABLGECDBCH",
        "type": "BODY_LANG",
        "aliasList": [
          "13163"
        ],
        "actionId": 121,
        "isContinue": true,
        "canDoRepeatFreeStyle": false,
        "cantBackToIdleWhenSitLoop": true,
        "eventPatternSuiteKey": "",
        "FOHHKFAIAAJ": ""
      },
      {
        "$type": "LLGANGLOEEO",
        "type": "STEER_TO",
        "delayTime": 0.10000000149011612,
        "duration": 1.0,
        "aliasList": [
          "13163"
        ],
        "actionId": 114,
        "steerType": "RETURN",
        "useSteerAnim": true,
        "interruptFreestyle": true,
        "forceSteer": true,
        "targetNpcAlias": "",
        "ignoreY": true,
        "fixInterNull": true,
        "OAFJBHJHLJG": ""
      }
    ]
  ],
  "groupId": [
    {
      "grpId": 1453405581,
      "nextGrpId": 1453405582
    },
    {
      "index": 1,
      "grpId": 1453405582,
      "nextGrpId": 1453405583
    },
    {
      "index": 2,
      "grpId": 1453405583,
      "nextGrpId": 1453405584
    }
  ]
}