{
  "luaDataPath": "",
  "startBlackKeepTime": 0.5,
  "entityBan": "",
  "disableNpcLod": true,
  "startFade": {
    "startFadeInDuration": 0.5,
    "startFadeOutDuration": 0.5
  },
  "endFade": {
    "startFadeOutDuration": 0.0
  },
  "actors": [
    {
      "alias": "Avatar",
      "visible": true,
      "bornPointName": "Q200907trans",
      "relativePosNpcAlias": "",
      "_bindMovingTargetKey": ""
    },
    {
      "configID": 12129,
      "alias": "12129",
      "visible": true,
      "bornPointName": "Q200907monster",
      "removeActorType": "REMOVE",
      "relativePosNpcAlias": "",
      "_bindMovingTargetKey": ""
    },
    {
      "configID": 1038,
      "alias": "1038",
      "visible": true,
      "bornPointName": "",
      "removeActorType": "REMOVE",
      "relativePosNpcAlias": "",
      "_bindMovingTargetKey": ""
    }
  ],
  "group": [
    [
      {
        "$type": "MoleMole.Config.ConfigTimeProtectAction",
        "type": "TIME_PROTECT",
        "duration": 2.0
      },
      {
        "$type": "MoleMole.Config.ConfigBlackScreenAction",
        "type": "BLACK_SCREEN",
        "delayTime": 1.0,
        "duration": 1.0,
        "blackScreenType": "KEEP_BLACK",
        "durationKeepBlack": 1.0,
        "inteePos": "",
        "textMapID": "",
        "useTextFade": true
      },
      {
        "$type": "MoleMole.Config.ConfigBlackScreenAction",
        "type": "BLACK_SCREEN",
        "duration": 1.0,
        "blackScreenType": "TO_BLACK",
        "durationToBlack": 1.0,
        "inteePos": "",
        "textMapID": "",
        "useTextFade": true
      },
      {
        "$type": "FJKIHHKJLMJ",
        "type": "CAMERA_MOVE",
        "delayTime": 0.6000000238418579,
        "duration": 0.10000000149011612,
        "checkNextImmediately": true,
        "camPosOffset": {
          "x": -3518.472900390625,
          "y": 200.03500366210938,
          "z": -2677.22802734375
        },
        "camForwardTargetOffset": {
          "x": -3517.80224609375,
          "y": 200.1590118408203,
          "z": -2676.49658203125
        },
        "camFov": 28.0,
        "lerpPattern": 6,
        "cameraBlendType": "EaseInOutCubic",
        "NJBNNOMLKCK": {},
        "needZAxisRotate": true,
        "rotateAngle": -2.1510358294563048e-07,
        "openCameraDither": false,
        "targetNpcAlias": "",
        "KJOEFBPOIIH": "",
        "IICFKKEBIEC": "",
        "EGEHEJEBLBJ": ""
      },
      {
        "$type": "MoleMole.Config.ConfigTeleportToAction",
        "type": "TELEPORT_TO",
        "aliasList": [
          "Avatar"
        ],
        "position": {
          "x": -3503.499267578125,
          "y": 200.09848022460938,
          "z": -2668.489990234375
        },
        "forward": {
          "x": -3.8720703125,
          "y": -0.0071563720703125,
          "z": 2.76806640625
        },
        "_posBindMovingTargetKey": "",
        "_forwardBindMovingTargetKey": ""
      },
      {
        "$type": "LJLMDHDCAMK",
        "type": "LOOK_AT",
        "aliasList": [
          "12129"
        ],
        "enableHead": true,
        "useTargetPos": true,
        "enableAbsolute": true,
        "targetPosition": {
          "x": -3503.49072265625,
          "y": 201.47296142578125,
          "z": -2668.531982421875
        },
        "headTurnTime": 0.5,
        "targetNpcAlias": "",
        "targetNpcLookAtPoint": "",
        "OAFJBHJHLJG": ""
      },
      {
        "$type": "MoleMole.Config.ConfigVisibleInterAction",
        "type": "VISIBLE",
        "duration": 0.0,
        "aliasList": [
          "12129"
        ],
        "isVisible": true,
        "_extraParam": ""
      },
      {
        "$type": "MoleMole.Config.ConfigTeleportToAction",
        "type": "TELEPORT_TO",
        "duration": 0.0,
        "aliasList": [
          "12129"
        ],
        "position": {
          "x": -3511.5439453125,
          "y": 200.16519165039062,
          "z": -2662.665771484375
        },
        "forward": {
          "x": 1.2578125,
          "y": 0.0028076171875,
          "z": -0.9501953125
        },
        "_posBindMovingTargetKey": "",
        "_forwardBindMovingTargetKey": ""
      },
      {
        "$type": "FABLGECDBCH",
        "type": "BODY_LANG",
        "aliasList": [
          "12129"
        ],
        "bodyLangParam": 4050,
        "forceDoFreeStyle": true,
        "canDoRepeatFreeStyle": false,
        "eventPatternSuiteKey": "",
        "FOHHKFAIAAJ": ""
      }
    ],
    [
      {
        "$type": "MoleMole.Config.ConfigTimeProtectAction",
        "type": "TIME_PROTECT",
        "duration": 15.993035316467285
      },
      {
        "$type": "FJKIHHKJLMJ",
        "type": "CAMERA_MOVE",
        "delayTime": 0.09293937683105469,
        "duration": 5.509756088256836,
        "camPosOffset": {
          "x": -3511.76708984375,
          "y": 200.98382568359375,
          "z": -2661.555908203125
        },
        "camForwardTargetOffset": {
          "x": -3511.879150390625,
          "y": 201.0778045654297,
          "z": -2662.545166015625
        },
        "camFov": 28.0,
        "cameraBlendType": "Linear",
        "NJBNNOMLKCK": {},
        "needZAxisRotate": true,
        "rotateAngle": -2.1510358294563048e-07,
        "openCameraDither": false,
        "targetNpcAlias": "",
        "KJOEFBPOIIH": "",
        "IICFKKEBIEC": "",
        "EGEHEJEBLBJ": ""
      },
      {
        "$type": "FJKIHHKJLMJ",
        "type": "CAMERA_MOVE",
        "delayTime": 5.756658554077148,
        "duration": 5.53740930557251,
        "camPosOffset": {
          "x": -3502.83251953125,
          "y": 200.96690368652344,
          "z": -2669.601806640625
        },
        "camForwardTargetOffset": {
          "x": -3503.54736328125,
          "y": 200.99502563476562,
          "z": -2668.903076171875
        },
        "camFov": 15.0,
        "cameraBlendType": "Linear",
        "NJBNNOMLKCK": {},
        "openCameraDither": false,
        "targetNpcAlias": "",
        "KJOEFBPOIIH": "",
        "IICFKKEBIEC": "",
        "EGEHEJEBLBJ": ""
      },
      {
        "$type": "MoleMole.Config.ConfigBlackScreenAction",
        "type": "BLACK_SCREEN",
        "duration": 2.0,
        "blackScreenType": "FROM_BLACK",
        "durationFromBlack": 2.0,
        "inteePos": "",
        "textMapID": "",
        "useTextFade": true
      },
      {
        "$type": "MoleMole.Config.ConfigSimpleUIShowInterAction",
        "type": "SIMPLE_UI_SHOW",
        "contextName": "LetterBoxDialog",
        "_param": ""
      },
      {
        "$type": "FJKIHHKJLMJ",
        "type": "CAMERA_MOVE",
        "duration": 1.0,
        "camPosOffset": {
          "x": -3511.900390625,
          "y": 200.99534606933594,
          "z": -2661.540283203125
        },
        "camForwardTargetOffset": {
          "x": -3512.012451171875,
          "y": 201.08932495117188,
          "z": -2662.529541015625
        },
        "camFov": 28.0,
        "lerpPattern": 6,
        "cameraBlendType": "EaseInOutCubic",
        "NJBNNOMLKCK": {},
        "needZAxisRotate": true,
        "rotateAngle": -2.1510358294563048e-07,
        "openCameraDither": false,
        "targetNpcAlias": "",
        "KJOEFBPOIIH": "",
        "IICFKKEBIEC": "",
        "EGEHEJEBLBJ": ""
      },
      {
        "$type": "FJKIHHKJLMJ",
        "type": "CAMERA_MOVE",
        "delayTime": 5.666658878326416,
        "duration": 0.902362585067749,
        "camPosOffset": {
          "x": -3502.72265625,
          "y": 200.94374084472656,
          "z": -2669.488525390625
        },
        "camForwardTargetOffset": {
          "x": -3503.4375,
          "y": 200.97186279296875,
          "z": -2668.789794921875
        },
        "camFov": 15.0,
        "lerpPattern": 6,
        "cameraBlendType": "EaseInOutCubic",
        "NJBNNOMLKCK": {},
        "openCameraDither": false,
        "targetNpcAlias": "",
        "KJOEFBPOIIH": "",
        "IICFKKEBIEC": "",
        "EGEHEJEBLBJ": ""
      },
      {
        "$type": "MoleMole.Config.ConfigCameraDOFAction",
        "type": "CAMERA_DOF",
        "delayTime": 5.610000133514404,
        "duration": 0.10000000149011612,
        "enabled": true,
        "focusDistance": 4.972701549530029,
        "focusRange": 6.498124122619629,
        "nearFocalDistance": 0.7463899850845337,
        "nearFocalTransDistance": 3.48980975151062,
        "dofBlurAmount": 3.0,
        "quality": 3
      },
      {
        "$type": "MoleMole.Config.ConfigCameraDOFAction",
        "type": "CAMERA_DOF",
        "quality": 3
      },
      {
        "$type": "MoleMole.Config.ConfigCameraDOFAction",
        "type": "CAMERA_DOF",
        "delayTime": 11.004195213317871,
        "quality": 3
      },
      {
        "$type": "MoleMole.Config.ConfigCameraDOFAction",
        "type": "CAMERA_DOF",
        "delayTime": 7.059411525726318,
        "duration": 2.5,
        "enabled": true,
        "focusDistance": 11.404577255249023,
        "focusRange": 6.990324020385742,
        "nearFocalDistance": 8.363720893859863,
        "nearFocalTransDistance": 4.67943000793457,
        "dofBlurAmount": 1.5,
        "quality": 3
      },
      {
        "$type": "MoleMole.Config.ConfigAudioPlayAction",
        "type": "AUDIO_PLAY",
        "audioEventStr": "Play_sfx_quest_DQAQ_200904_amb"
      },
      {
        "$type": "MoleMole.Config.ConfigAudioPlayAction",
        "type": "AUDIO_PLAY",
        "delayTime": 15.716654777526855,
        "audioEventStr": "Stop_sfx_quest_DQAQ_200904_amb"
      },
      {
        "$type": "FJKIHHKJLMJ",
        "type": "CAMERA_MOVE",
        "delayTime": 11.566167831420898,
        "duration": 4.42788553237915,
        "camPosOffset": {
          "x": -3518.447021484375,
          "y": 200.03977966308594,
          "z": -2677.19970703125
        },
        "camForwardTargetOffset": {
          "x": -3517.7763671875,
          "y": 200.16378784179688,
          "z": -2676.46826171875
        },
        "camFov": 28.0,
        "cameraBlendType": "EaseOutQuad",
        "NJBNNOMLKCK": {},
        "needZAxisRotate": true,
        "rotateAngle": -2.1510358294563048e-07,
        "openCameraDither": false,
        "targetNpcAlias": "",
        "KJOEFBPOIIH": "",
        "IICFKKEBIEC": "",
        "EGEHEJEBLBJ": ""
      },
      {
        "$type": "FJKIHHKJLMJ",
        "type": "CAMERA_MOVE",
        "delayTime": 11.39618968963623,
        "duration": 1.0,
        "camPosOffset": {
          "x": -3518.472900390625,
          "y": 200.03500366210938,
          "z": -2677.22802734375
        },
        "camForwardTargetOffset": {
          "x": -3517.80224609375,
          "y": 200.1590118408203,
          "z": -2676.49658203125
        },
        "camFov": 28.0,
        "lerpPattern": 6,
        "cameraBlendType": "EaseInOutCubic",
        "NJBNNOMLKCK": {},
        "needZAxisRotate": true,
        "rotateAngle": -2.1510358294563048e-07,
        "openCameraDither": false,
        "targetNpcAlias": "",
        "KJOEFBPOIIH": "",
        "IICFKKEBIEC": "",
        "EGEHEJEBLBJ": ""
      },
      {
        "$type": "MoleMole.Config.ConfigTeleportToAction",
        "type": "TELEPORT_TO",
        "aliasList": [
          "Avatar"
        ],
        "position": {
          "x": -3503.499267578125,
          "y": 200.09848022460938,
          "z": -2668.489990234375
        },
        "forward": {
          "x": -3.8720703125,
          "y": -0.0071563720703125,
          "z": 2.76806640625
        },
        "_posBindMovingTargetKey": "",
        "_forwardBindMovingTargetKey": ""
      },
      {
        "$type": "LJLMDHDCAMK",
        "type": "LOOK_AT",
        "aliasList": [
          "Avatar"
        ],
        "enableHead": true,
        "useTargetPos": true,
        "enableAbsolute": true,
        "targetPosition": {
          "x": -3511.544921875,
          "y": 201.47296142578125,
          "z": -2662.604736328125
        },
        "headTurnTime": 0.5,
        "targetNpcAlias": "",
        "targetNpcLookAtPoint": "",
        "OAFJBHJHLJG": ""
      },
      {
        "$type": "MoleMole.Config.ConfigVisibleInterAction",
        "type": "VISIBLE",
        "duration": 0.0,
        "aliasList": [
          "12129"
        ],
        "isVisible": true,
        "_extraParam": ""
      },
      {
        "$type": "MoleMole.Config.ConfigTeleportToAction",
        "type": "TELEPORT_TO",
        "duration": 0.0,
        "aliasList": [
          "12129"
        ],
        "position": {
          "x": -3511.5439453125,
          "y": 200.16519165039062,
          "z": -2662.665771484375
        },
        "forward": {
          "x": 1.2578125,
          "y": 0.0028076171875,
          "z": -0.9501953125
        },
        "_posBindMovingTargetKey": "",
        "_forwardBindMovingTargetKey": ""
      },
      {
        "$type": "LJLMDHDCAMK",
        "type": "LOOK_AT",
        "aliasList": [
          "12129"
        ],
        "enableHead": true,
        "useTargetPos": true,
        "enableAbsolute": true,
        "targetPosition": {
          "x": -3503.49072265625,
          "y": 201.47296142578125,
          "z": -2668.531982421875
        },
        "headTurnTime": 0.5,
        "targetNpcAlias": "",
        "targetNpcLookAtPoint": "",
        "OAFJBHJHLJG": ""
      }
    ],
    [
      {
        "$type": "MoleMole.Config.ConfigTimeProtectAction",
        "type": "TIME_PROTECT",
        "duration": 0.10000000149011612
      },
      {
        "$type": "MoleMole.Config.ConfigSimpleBlackScreenAction",
        "type": "SIMPLE_BLACK_SCREEN",
        "durationToBlack": 0.5,
        "durationKeepBlack": 1.0,
        "durationFromBlack": 0.5,
        "textMapID": ""
      },
      {
        "$type": "MoleMole.Config.ConfigTimeProtectAction",
        "type": "TIME_PROTECT",
        "duration": 0.699999988079071
      },
      {
        "$type": "FJKIHHKJLMJ",
        "type": "CAMERA_MOVE",
        "delayTime": 0.6000000238418579,
        "duration": 0.10000000149011612,
        "camPosOffset": {
          "x": -3500.080322265625,
          "y": 201.46820068359375,
          "z": -2670.70458984375
        },
        "camForwardTargetOffset": {
          "x": -3500.964111328125,
          "y": 201.4393310546875,
          "z": -2670.23779296875
        },
        "lerpPattern": 6,
        "cameraBlendType": "EaseInOutCubic",
        "NJBNNOMLKCK": {},
        "openCameraDither": false,
        "targetNpcAlias": "",
        "KJOEFBPOIIH": "",
        "IICFKKEBIEC": "",
        "EGEHEJEBLBJ": ""
      },
      {
        "$type": "MoleMole.Config.ConfigVisibleInterAction",
        "type": "VISIBLE",
        "delayTime": 0.6000000238418579,
        "aliasList": [
          "12129"
        ],
        "_extraParam": ""
      },
      {
        "$type": "MoleMole.Config.ConfigVisibleInterAction",
        "type": "VISIBLE",
        "delayTime": 0.5999995470046997,
        "aliasList": [
          "1038"
        ],
        "_extraParam": ""
      }
    ]
  ],
  "groupId": [
    {
      "grpId": 714912193,
      "nextGrpId": 714912194
    },
    {
      "index": 1,
      "grpId": 714912194,
      "nextGrpId": 714912195
    },
    {
      "index": 2,
      "grpId": 714912195,
      "nextGrpId": 714912196
    }
  ],
  "freeStyleDic": {
    "12129": [
      4050
    ],
    "1038": []
  }
}