{
  "npcId": 2006,
  "talks": [
    {
      "id": 7265202,
      "beginWay": "TALK_BEGIN_MANUAL",
      "beginCond": [
        {
          "type": "QUEST_COND_ACTIVITY_CLIENT_COND",
          "_param": [
            "2006",
            "2006006",
            "1"
          ]
        }
      ],
      "priority": 1,
      "initDialog": 726520201,
      "npcId": [
        30055
      ],
      "performCfg": "",
      "heroTalk": "TALK_HERO_MAIN",
      "loadType": "TALK_ACTIVITY",
      "questId": 2006,
      "assetIndex": 17171419715965803077,
      "prePerformCfg": ""
    },
    {
      "id": 7265302,
      "beginWay": "TALK_BEGIN_MANUAL",
      "activeMode": "PLAY_MODE_HOST",
      "beginCond": [
        {
          "type": "QUEST_COND_ACTIVITY_CLIENT_COND",
          "_param": [
            "2006",
            "2006007",
            "1"
          ]
        }
      ],
      "priority": 2,
      "initDialog": 726530201,
      "npcId": [
        30055
      ],
      "performCfg": "QuestDialogue/WQ/Daoqi_72653/Q7265302",
      "heroTalk": "TALK_HERO_MAIN",
      "loadType": "TALK_ACTIVITY",
      "questId": 2006,
      "assetIndex": 12579470692076631706,
      "prePerformCfg": ""
    },
    {
      "id": 7265402,
      "beginWay": "TALK_BEGIN_MANUAL",
      "activeMode": "PLAY_MODE_HOST",
      "beginCond": [
        {
          "type": "QUEST_COND_ACTIVITY_CLIENT_COND",
          "_param": [
            "2006",
            "2006008",
            "1"
          ]
        }
      ],
      "priority": 3,
      "initDialog": 726540201,
      "npcId": [
        30055
      ],
      "performCfg": "QuestDialogue/WQ/Daoqi_72654/Q7265402",
      "heroTalk": "TALK_HERO_MAIN",
      "loadType": "TALK_ACTIVITY",
      "questId": 2006,
      "assetIndex": 5302689224534062798,
      "prePerformCfg": ""
    },
    {
      "id": 7265504,
      "beginWay": "TALK_BEGIN_MANUAL",
      "activeMode": "PLAY_MODE_HOST",
      "beginCond": [
        {
          "type": "QUEST_COND_ACTIVITY_CLIENT_COND",
          "_param": [
            "2006",
            "2006009",
            "1"
          ]
        }
      ],
      "priority": 4,
      "initDialog": 726550401,
      "npcId": [
        30055
      ],
      "performCfg": "",
      "heroTalk": "TALK_HERO_MAIN",
      "loadType": "TALK_ACTIVITY",
      "questId": 2006,
      "assetIndex": 9037182802878712825,
      "prePerformCfg": ""
    }
  ]
}