{
  "npcId": 2014,
  "talks": [
    {
      "id": 4006411,
      "beginWay": "TALK_BEGIN_MANUAL",
      "beginCond": [
        {
          "type": "QUEST_COND_ACTIVITY_CLIENT_COND",
          "_param": [
            "2014",
            "2014022",
            "1"
          ]
        }
      ],
      "priority": 3,
      "initDialog": 400641101,
      "npcId": [
        30203,
        30204
      ],
      "performCfg": "QuestDialogue/EQ/DreamIsland_40064/Q4006411",
      "heroTalk": "TALK_HERO_MAIN",
      "loadType": "TALK_ACTIVITY",
      "questId": 2014,
      "assetIndex": 4379959055689996036,
      "prePerformCfg": "",
      "lowPriority": true
    },
    {
      "id": 4006412,
      "beginWay": "TALK_BEGIN_MANUAL",
      "beginCond": [
        {
          "type": "QUEST_COND_ACTIVITY_CLIENT_COND",
          "_param": [
            "2014",
            "2014022",
            "1"
          ]
        }
      ],
      "priority": 3,
      "initDialog": 400641201,
      "npcId": [
        30205,
        30206,
        30207
      ],
      "performCfg": "QuestDialogue/EQ/DreamIsland_40064/Q4006412",
      "heroTalk": "TALK_HERO_MAIN",
      "loadType": "TALK_ACTIVITY",
      "questId": 2014,
      "assetIndex": 5586794507945198302,
      "prePerformCfg": "",
      "lowPriority": true
    },
    {
      "id": 4006413,
      "beginWay": "TALK_BEGIN_MANUAL",
      "beginCond": [
        {
          "type": "QUEST_COND_ACTIVITY_CLIENT_COND",
          "_param": [
            "2014",
            "2014027",
            "1"
          ]
        }
      ],
      "priority": 3,
      "initDialog": 400641301,
      "npcId": [
        30208
      ],
      "performCfg": "QuestDialogue/EQ/DreamIsland_40064/Q4006413",
      "heroTalk": "TALK_HERO_MAIN",
      "loadType": "TALK_ACTIVITY",
      "questId": 2014,
      "assetIndex": 11588208878531583829,
      "prePerformCfg": "",
      "lowPriority": true
    },
    {
      "id": 4006707,
      "beginWay": "TALK_BEGIN_MANUAL",
      "beginCond": [
        {
          "type": "QUEST_COND_ACTIVITY_CLIENT_COND",
          "_param": [
            "2014",
            "2014023",
            "1"
          ]
        }
      ],
      "priority": 5,
      "initDialog": 400670701,
      "npcId": [
        30207
      ],
      "performCfg": "QuestDialogue/EQ/DreamIsland_40067/Q4006707",
      "heroTalk": "TALK_HERO_MAIN",
      "loadType": "TALK_ACTIVITY",
      "questId": 2014,
      "assetIndex": 6534578578858740309,
      "prePerformCfg": "",
      "lowPriority": true
    },
    {
      "id": 4006708,
      "beginWay": "TALK_BEGIN_MANUAL",
      "beginCond": [
        {
          "type": "QUEST_COND_ACTIVITY_CLIENT_COND",
          "_param": [
            "2014",
            "2014023",
            "1"
          ]
        }
      ],
      "priority": 5,
      "initDialog": 400670801,
      "npcId": [
        30204
      ],
      "performCfg": "QuestDialogue/EQ/DreamIsland_40067/Q4006708",
      "heroTalk": "TALK_HERO_MAIN",
      "loadType": "TALK_ACTIVITY",
      "questId": 2014,
      "assetIndex": 1515034881370424558,
      "prePerformCfg": "",
      "lowPriority": true
    },
    {
      "id": 4006709,
      "beginWay": "TALK_BEGIN_MANUAL",
      "beginCond": [
        {
          "type": "QUEST_COND_ACTIVITY_CLIENT_COND",
          "_param": [
            "2014",
            "2014023",
            "1"
          ]
        }
      ],
      "priority": 5,
      "initDialog": 400670901,
      "npcId": [
        30203
      ],
      "performCfg": "QuestDialogue/EQ/DreamIsland_40067/Q4006709",
      "heroTalk": "TALK_HERO_MAIN",
      "loadType": "TALK_ACTIVITY",
      "questId": 2014,
      "assetIndex": 9752864382305696101,
      "prePerformCfg": "",
      "lowPriority": true
    },
    {
      "id": 4007001,
      "beginWay": "TALK_BEGIN_MANUAL",
      "beginCond": [
        {
          "type": "QUEST_COND_ACTIVITY_CLIENT_COND",
          "_param": [
            "2014",
            "2014024",
            "1"
          ]
        }
      ],
      "priority": 5,
      "initDialog": 400700101,
      "npcId": [
        30207
      ],
      "performCfg": "QuestDialogue/EQ/DreamIsland_40070/Q4007001",
      "heroTalk": "TALK_HERO_MAIN",
      "loadType": "TALK_ACTIVITY",
      "questId": 2014,
      "assetIndex": 16913141455240273960,
      "prePerformCfg": "",
      "lowPriority": true
    },
    {
      "id": 4007002,
      "beginWay": "TALK_BEGIN_MANUAL",
      "beginCond": [
        {
          "type": "QUEST_COND_ACTIVITY_CLIENT_COND",
          "_param": [
            "2014",
            "2014024",
            "1"
          ]
        }
      ],
      "priority": 5,
      "initDialog": 400700201,
      "npcId": [
        30204
      ],
      "performCfg": "QuestDialogue/EQ/DreamIsland_40070/Q4007002",
      "heroTalk": "TALK_HERO_MAIN",
      "loadType": "TALK_ACTIVITY",
      "questId": 2014,
      "assetIndex": 4136390189373079633,
      "prePerformCfg": "",
      "lowPriority": true
    },
    {
      "id": 4007003,
      "beginWay": "TALK_BEGIN_MANUAL",
      "beginCond": [
        {
          "type": "QUEST_COND_ACTIVITY_CLIENT_COND",
          "_param": [
            "2014",
            "2014024",
            "1"
          ]
        }
      ],
      "priority": 5,
      "initDialog": 400700301,
      "npcId": [
        30203
      ],
      "performCfg": "QuestDialogue/EQ/DreamIsland_40070/Q4007003",
      "heroTalk": "TALK_HERO_MAIN",
      "loadType": "TALK_ACTIVITY",
      "questId": 2014,
      "assetIndex": 10243629083956193545,
      "prePerformCfg": "",
      "lowPriority": true
    },
    {
      "id": 4007006,
      "beginWay": "TALK_BEGIN_MANUAL",
      "beginCond": [
        {
          "type": "QUEST_COND_ACTIVITY_CLIENT_COND",
          "_param": [
            "2014",
            "2014024",
            "1"
          ]
        }
      ],
      "priority": 5,
      "initDialog": 400700601,
      "npcId": [
        12616
      ],
      "performCfg": "QuestDialogue/EQ/DreamIsland_40070/Q4007006",
      "heroTalk": "TALK_HERO_MAIN",
      "loadType": "TALK_ACTIVITY",
      "questId": 2014,
      "assetIndex": 1424007323877234626,
      "prePerformCfg": "",
      "lowPriority": true
    },
    {
      "id": 4007007,
      "beginWay": "TALK_BEGIN_MANUAL",
      "beginCond": [
        {
          "type": "QUEST_COND_ACTIVITY_CLIENT_COND",
          "_param": [
            "2014",
            "2014024",
            "1"
          ]
        }
      ],
      "priority": 5,
      "initDialog": 400700701,
      "npcId": [
        12623
      ],
      "performCfg": "QuestDialogue/EQ/DreamIsland_40070/Q4007007",
      "heroTalk": "TALK_HERO_MAIN",
      "loadType": "TALK_ACTIVITY",
      "questId": 2014,
      "assetIndex": 12792376161694066483,
      "prePerformCfg": "",
      "lowPriority": true
    },
    {
      "id": 4007301,
      "beginWay": "TALK_BEGIN_MANUAL",
      "beginCond": [
        {
          "type": "QUEST_COND_ACTIVITY_CLIENT_COND",
          "_param": [
            "2014",
            "2014025",
            "1"
          ]
        }
      ],
      "priority": 5,
      "initDialog": 400730101,
      "npcId": [
        30231,
        30206
      ],
      "performCfg": "QuestDialogue/EQ/DreamIsland_40073/Q4007301",
      "heroTalk": "TALK_HERO_MAIN",
      "loadType": "TALK_ACTIVITY",
      "questId": 2014,
      "assetIndex": 12403031951701676557,
      "prePerformCfg": "",
      "lowPriority": true
    },
    {
      "id": 4007303,
      "beginWay": "TALK_BEGIN_MANUAL",
      "beginCond": [
        {
          "type": "QUEST_COND_ACTIVITY_CLIENT_COND",
          "_param": [
            "2014",
            "2014025",
            "1"
          ]
        }
      ],
      "priority": 5,
      "initDialog": 400730301,
      "npcId": [
        30207
      ],
      "performCfg": "QuestDialogue/EQ/DreamIsland_40073/Q4007303",
      "heroTalk": "TALK_HERO_MAIN",
      "loadType": "TALK_ACTIVITY",
      "questId": 2014,
      "assetIndex": 1987024600314059575,
      "prePerformCfg": "",
      "lowPriority": true
    },
    {
      "id": 4007305,
      "beginWay": "TALK_BEGIN_MANUAL",
      "beginCond": [
        {
          "type": "QUEST_COND_ACTIVITY_CLIENT_COND",
          "_param": [
            "2014",
            "2014025",
            "1"
          ]
        }
      ],
      "priority": 5,
      "initDialog": 400730501,
      "npcId": [
        30204
      ],
      "performCfg": "QuestDialogue/EQ/DreamIsland_40073/Q4007305",
      "heroTalk": "TALK_HERO_MAIN",
      "loadType": "TALK_ACTIVITY",
      "questId": 2014,
      "assetIndex": 15180510793511882839,
      "prePerformCfg": "",
      "lowPriority": true
    },
    {
      "id": 4007307,
      "beginWay": "TALK_BEGIN_MANUAL",
      "beginCond": [
        {
          "type": "QUEST_COND_ACTIVITY_CLIENT_COND",
          "_param": [
            "2014",
            "2014025",
            "1"
          ]
        }
      ],
      "priority": 5,
      "initDialog": 400730701,
      "npcId": [
        30203
      ],
      "performCfg": "QuestDialogue/EQ/DreamIsland_40073/Q4007307",
      "heroTalk": "TALK_HERO_MAIN",
      "loadType": "TALK_ACTIVITY",
      "questId": 2014,
      "assetIndex": 5457236197094327428,
      "prePerformCfg": "",
      "lowPriority": true
    },
    {
      "id": 4007703,
      "beginWay": "TALK_BEGIN_MANUAL",
      "beginCond": [
        {
          "type": "QUEST_COND_ACTIVITY_CLIENT_COND",
          "_param": [
            "2014",
            "2014026",
            "1"
          ]
        }
      ],
      "priority": 5,
      "initDialog": 400770301,
      "npcId": [
        30205,
        30206
      ],
      "performCfg": "QuestDialogue/EQ/DreamIsland_40077/Q4007703",
      "heroTalk": "TALK_HERO_MAIN",
      "loadType": "TALK_ACTIVITY",
      "questId": 2014,
      "assetIndex": 16834802199123219058,
      "prePerformCfg": "",
      "lowPriority": true
    },
    {
      "id": 4007704,
      "beginWay": "TALK_BEGIN_MANUAL",
      "beginCond": [
        {
          "type": "QUEST_COND_ACTIVITY_CLIENT_COND",
          "_param": [
            "2014",
            "2014026",
            "1"
          ]
        }
      ],
      "priority": 5,
      "initDialog": 400770401,
      "npcId": [
        30207
      ],
      "performCfg": "QuestDialogue/EQ/DreamIsland_40077/Q4007704",
      "heroTalk": "TALK_HERO_MAIN",
      "loadType": "TALK_ACTIVITY",
      "questId": 2014,
      "assetIndex": 7147905237010651318,
      "prePerformCfg": "",
      "lowPriority": true
    },
    {
      "id": 4007705,
      "beginWay": "TALK_BEGIN_MANUAL",
      "beginCond": [
        {
          "type": "QUEST_COND_ACTIVITY_CLIENT_COND",
          "_param": [
            "2014",
            "2014026",
            "1"
          ]
        }
      ],
      "priority": 5,
      "initDialog": 400770501,
      "npcId": [
        30204
      ],
      "performCfg": "QuestDialogue/EQ/DreamIsland_40077/Q4007705",
      "heroTalk": "TALK_HERO_MAIN",
      "loadType": "TALK_ACTIVITY",
      "questId": 2014,
      "assetIndex": 16886869898700289987,
      "prePerformCfg": "",
      "lowPriority": true
    },
    {
      "id": 4007706,
      "beginWay": "TALK_BEGIN_MANUAL",
      "beginCond": [
        {
          "type": "QUEST_COND_ACTIVITY_CLIENT_COND",
          "_param": [
            "2014",
            "2014026",
            "1"
          ]
        }
      ],
      "priority": 5,
      "initDialog": 400770601,
      "npcId": [
        30203
      ],
      "performCfg": "QuestDialogue/EQ/DreamIsland_40077/Q4007706",
      "heroTalk": "TALK_HERO_MAIN",
      "loadType": "TALK_ACTIVITY",
      "questId": 2014,
      "assetIndex": 2671003631928067733,
      "prePerformCfg": "",
      "lowPriority": true
    }
  ]
}