{
  "npcId": 2028,
  "talks": [
    {
      "id": 4014151,
      "beginWay": "TALK_BEGIN_MANUAL",
      "beginCond": [
        {
          "type": "QUEST_COND_ACTIVITY_CLIENT_COND",
          "_param": [
            "2028",
            "2028802",
            "1"
          ]
        }
      ],
      "priority": 5,
      "initDialog": 401415101,
      "npcId": [
        30489
      ],
      "performCfg": "QuestDialogue/EQ/V4.4HdjV4_40141/Q4014151",
      "heroTalk": "TALK_HERO_MAIN",
      "loadType": "TALK_ACTIVITY",
      "questId": 2028,
      "assetIndex": 2071109901605167558,
      "prePerformCfg": "",
      "stayFreeStyle": true,
      "questIdleTalk": true,
      "forceNpcNotDestroy": true
    },
    {
      "id": 4014152,
      "beginWay": "TALK_BEGIN_MANUAL",
      "beginCond": [
        {
          "type": "QUEST_COND_ACTIVITY_CLIENT_COND",
          "_param": [
            "2028",
            "2028802",
            "1"
          ]
        }
      ],
      "priority": 5,
      "initDialog": 401415201,
      "npcId": [
        30490,
        30491
      ],
      "performCfg": "QuestDialogue/EQ/V4.4HdjV4_40141/Q4014152",
      "heroTalk": "TALK_HERO_MAIN",
      "loadType": "TALK_ACTIVITY",
      "questId": 2028,
      "assetIndex": 9398530278791071994,
      "prePerformCfg": "",
      "stayFreeStyle": true,
      "questIdleTalk": true,
      "forceNpcNotDestroy": true
    },
    {
      "id": 4014153,
      "beginWay": "TALK_BEGIN_MANUAL",
      "beginCond": [
        {
          "type": "QUEST_COND_ACTIVITY_CLIENT_COND",
          "_param": [
            "2028",
            "2028802",
            "1"
          ]
        }
      ],
      "priority": 5,
      "initDialog": 401415301,
      "npcId": [
        30492,
        30493
      ],
      "performCfg": "QuestDialogue/EQ/V4.4HdjV4_40141/Q4014153",
      "heroTalk": "TALK_HERO_MAIN",
      "loadType": "TALK_ACTIVITY",
      "questId": 2028,
      "assetIndex": 5451984943136965639,
      "prePerformCfg": "",
      "stayFreeStyle": true,
      "questIdleTalk": true,
      "forceNpcNotDestroy": true
    },
    {
      "id": 4014154,
      "beginWay": "TALK_BEGIN_MANUAL",
      "beginCond": [
        {
          "type": "QUEST_COND_ACTIVITY_CLIENT_COND",
          "_param": [
            "2028",
            "2028802",
            "1"
          ]
        }
      ],
      "priority": 5,
      "initDialog": 401415401,
      "npcId": [
        30494,
        30495
      ],
      "performCfg": "QuestDialogue/EQ/V4.4HdjV4_40141/Q4014154",
      "heroTalk": "TALK_HERO_MAIN",
      "loadType": "TALK_ACTIVITY",
      "questId": 2028,
      "assetIndex": 4093803095802215367,
      "prePerformCfg": "",
      "stayFreeStyle": true,
      "questIdleTalk": true,
      "forceNpcNotDestroy": true
    },
    {
      "id": 4014155,
      "beginWay": "TALK_BEGIN_MANUAL",
      "beginCond": [
        {
          "type": "QUEST_COND_ACTIVITY_CLIENT_COND",
          "_param": [
            "2028",
            "2028802",
            "1"
          ]
        }
      ],
      "priority": 5,
      "initDialog": 401415501,
      "npcId": [
        30496,
        30497
      ],
      "performCfg": "QuestDialogue/EQ/V4.4HdjV4_40141/Q4014155",
      "heroTalk": "TALK_HERO_MAIN",
      "loadType": "TALK_ACTIVITY",
      "questId": 2028,
      "assetIndex": 1857943172306979874,
      "prePerformCfg": "",
      "stayFreeStyle": true,
      "questIdleTalk": true,
      "forceNpcNotDestroy": true
    },
    {
      "id": 4014156,
      "beginWay": "TALK_BEGIN_MANUAL",
      "beginCond": [
        {
          "type": "QUEST_COND_ACTIVITY_CLIENT_COND",
          "_param": [
            "2028",
            "2028802",
            "1"
          ]
        }
      ],
      "priority": 5,
      "initDialog": 401415601,
      "npcId": [
        30498,
        30499
      ],
      "performCfg": "QuestDialogue/EQ/V4.4HdjV4_40141/Q4014156",
      "heroTalk": "TALK_HERO_MAIN",
      "loadType": "TALK_ACTIVITY",
      "questId": 2028,
      "assetIndex": 14895908477138160883,
      "prePerformCfg": "",
      "stayFreeStyle": true,
      "questIdleTalk": true,
      "forceNpcNotDestroy": true
    },
    {
      "id": 4014157,
      "beginWay": "TALK_BEGIN_MANUAL",
      "beginCondComb": "LOGIC_AND",
      "beginCond": [
        {
          "type": "QUEST_COND_QUEST_GLOBAL_VAR_EQUAL",
          "_param": [
            "4014102",
            "0"
          ]
        },
        {
          "type": "QUEST_COND_ACTIVITY_CLIENT_COND",
          "_param": [
            "2028",
            "2028802",
            "1"
          ]
        }
      ],
      "priority": 5,
      "initDialog": 401415701,
      "npcId": [
        30500
      ],
      "performCfg": "QuestDialogue/EQ/V4.4HdjV4_40141/Q4014157",
      "heroTalk": "TALK_HERO_MAIN",
      "loadType": "TALK_ACTIVITY",
      "questId": 2028,
      "assetIndex": 14251775596710961254,
      "prePerformCfg": "",
      "stayFreeStyle": true,
      "lockGameTime": true,
      "questIdleTalk": true,
      "finishExec": [
        {
          "damageRatio": "TALK_EXEC_SET_QUEST_GLOBAL_VAR",
          "param": [
            "4014102",
            "1"
          ]
        }
      ],
      "forceNpcNotDestroy": true,
      "CHAKPMBJNAJ": [
        "[3_7638:-782.659,218.272,719.730]",
        "[3_7639:-783.807,218.062,719.715]"
      ]
    },
    {
      "id": 4014158,
      "beginWay": "TALK_BEGIN_MANUAL",
      "beginCondComb": "LOGIC_AND",
      "beginCond": [
        {
          "type": "QUEST_COND_QUEST_GLOBAL_VAR_EQUAL",
          "_param": [
            "4014102",
            "1"
          ]
        },
        {
          "type": "QUEST_COND_ACTIVITY_CLIENT_COND",
          "_param": [
            "2028",
            "2028802",
            "1"
          ]
        }
      ],
      "priority": 5,
      "initDialog": 401415801,
      "npcId": [
        30500
      ],
      "performCfg": "QuestDialogue/EQ/V4.4HdjV4_40141/Q4014158",
      "heroTalk": "TALK_HERO_MAIN",
      "loadType": "TALK_ACTIVITY",
      "questId": 2028,
      "assetIndex": 6102844549533503339,
      "prePerformCfg": "",
      "stayFreeStyle": true,
      "questIdleTalk": true,
      "forceNpcNotDestroy": true
    },
    {
      "id": 4014161,
      "beginWay": "TALK_BEGIN_MANUAL",
      "beginCondComb": "LOGIC_AND",
      "beginCond": [
        {
          "type": "QUEST_COND_ACTIVITY_CLIENT_COND",
          "_param": [
            "2028",
            "2028001",
            "1"
          ]
        },
        {
          "type": "QUEST_COND_IS_DAYTIME",
          "_param": [
            "1"
          ]
        }
      ],
      "priority": 7,
      "nextTalks": [
        4014162,
        7227101,
        7227102,
        7101602,
        7101603,
        7100508,
        7100509,
        6202302,
        6202304,
        6202303
      ],
      "initDialog": 401416101,
      "npcId": [
        2023
      ],
      "performCfg": "",
      "loadType": "TALK_ACTIVITY",
      "questId": 2028,
      "assetIndex": 16514716511927036447,
      "prePerformCfg": ""
    },
    {
      "id": 4014162,
      "beginCondComb": "LOGIC_AND",
      "beginCond": [
        {
          "type": "QUEST_COND_ACTIVITY_CLIENT_COND",
          "_param": [
            "2028",
            "2028001",
            "1"
          ]
        },
        {
          "type": "QUEST_COND_IS_DAYTIME",
          "_param": [
            "1"
          ]
        }
      ],
      "priority": 5,
      "initDialog": 401416201,
      "npcId": [
        2023
      ],
      "performCfg": "",
      "loadType": "TALK_ACTIVITY",
      "questId": 2028,
      "assetIndex": 8629319922852117446,
      "prePerformCfg": ""
    },
    {
      "id": 4014163,
      "beginWay": "TALK_BEGIN_MANUAL",
      "beginCond": [
        {
          "type": "QUEST_COND_ACTIVITY_CLIENT_COND",
          "_param": [
            "2028",
            "2028001",
            "1"
          ]
        }
      ],
      "priority": 5,
      "initDialog": 401416301,
      "npcId": [
        2012
      ],
      "performCfg": "",
      "loadType": "TALK_ACTIVITY",
      "questId": 2028,
      "assetIndex": 3090092168259052527,
      "prePerformCfg": ""
    },
    {
      "id": 4014164,
      "beginWay": "TALK_BEGIN_MANUAL",
      "beginCondComb": "LOGIC_AND",
      "beginCond": [
        {
          "type": "QUEST_COND_ACTIVITY_CLIENT_COND",
          "_param": [
            "2028",
            "2028001",
            "1"
          ]
        },
        {
          "type": "QUEST_COND_QUEST_GLOBAL_VAR_EQUAL",
          "_param": [
            "4014101",
            "1"
          ]
        }
      ],
      "priority": 5,
      "initDialog": 401416401,
      "npcId": [
        2025
      ],
      "performCfg": "",
      "loadType": "TALK_ACTIVITY",
      "questId": 2028,
      "assetIndex": 2336059445697719579,
      "prePerformCfg": ""
    },
    {
      "id": 4014165,
      "beginWay": "TALK_BEGIN_MANUAL",
      "beginCond": [
        {
          "type": "QUEST_COND_ACTIVITY_CLIENT_COND",
          "_param": [
            "2028",
            "2028001",
            "1"
          ]
        }
      ],
      "priority": 5,
      "initDialog": 401416501,
      "npcId": [
        2014
      ],
      "performCfg": "",
      "loadType": "TALK_ACTIVITY",
      "questId": 2028,
      "assetIndex": 11112257104421250833,
      "prePerformCfg": ""
    },
    {
      "id": 4014166,
      "beginWay": "TALK_BEGIN_MANUAL",
      "beginCondComb": "LOGIC_AND",
      "beginCond": [
        {
          "type": "QUEST_COND_ACTIVITY_CLIENT_COND",
          "_param": [
            "2028",
            "2028001",
            "1"
          ]
        },
        {
          "type": "QUEST_COND_QUEST_GLOBAL_VAR_EQUAL",
          "_param": [
            "4014101",
            "1"
          ]
        }
      ],
      "priority": 5,
      "initDialog": 401416601,
      "npcId": [
        2059,
        2086
      ],
      "performCfg": "",
      "loadType": "TALK_ACTIVITY",
      "questId": 2028,
      "assetIndex": 3047879527493727302,
      "prePerformCfg": "",
      "stayFreeStyle": true
    },
    {
      "id": 4014167,
      "beginWay": "TALK_BEGIN_MANUAL",
      "beginCond": [
        {
          "type": "QUEST_COND_ACTIVITY_CLIENT_COND",
          "_param": [
            "2028",
            "2028001",
            "1"
          ]
        }
      ],
      "priority": 5,
      "nextTalks": [
        7192201
      ],
      "initDialog": 401416701,
      "npcId": [
        2072
      ],
      "performCfg": "",
      "loadType": "TALK_ACTIVITY",
      "questId": 2028,
      "assetIndex": 4952792042719492774,
      "prePerformCfg": ""
    },
    {
      "id": 4014168,
      "beginWay": "TALK_BEGIN_MANUAL",
      "beginCond": [
        {
          "type": "QUEST_COND_ACTIVITY_CLIENT_COND",
          "_param": [
            "2028",
            "2028001",
            "1"
          ]
        }
      ],
      "priority": 5,
      "initDialog": 401416801,
      "npcId": [
        2098,
        2099
      ],
      "performCfg": "",
      "loadType": "TALK_ACTIVITY",
      "questId": 2028,
      "assetIndex": 11935089197800562364,
      "prePerformCfg": "",
      "stayFreeStyle": true
    },
    {
      "id": 4014169,
      "beginWay": "TALK_BEGIN_MANUAL",
      "beginCond": [
        {
          "type": "QUEST_COND_ACTIVITY_CLIENT_COND",
          "_param": [
            "2028",
            "2028001",
            "1"
          ]
        }
      ],
      "priority": 5,
      "nextTalks": [
        4014170,
        6209205,
        6209202,
        6209204,
        6209203
      ],
      "initDialog": 401416901,
      "npcId": [
        2092
      ],
      "performCfg": "",
      "loadType": "TALK_ACTIVITY",
      "questId": 2028,
      "assetIndex": 1524493327790112873,
      "prePerformCfg": ""
    },
    {
      "id": 4014170,
      "beginCond": [
        {
          "type": "QUEST_COND_ACTIVITY_CLIENT_COND",
          "_param": [
            "2028",
            "2028001",
            "1"
          ]
        }
      ],
      "priority": 5,
      "initDialog": 401417001,
      "npcId": [
        2092
      ],
      "performCfg": "",
      "loadType": "TALK_ACTIVITY",
      "questId": 2028,
      "assetIndex": 13087247602264396012,
      "prePerformCfg": ""
    },
    {
      "id": 4014171,
      "beginWay": "TALK_BEGIN_MANUAL",
      "beginCond": [
        {
          "type": "QUEST_COND_ACTIVITY_CLIENT_COND",
          "_param": [
            "2028",
            "2028001",
            "1"
          ]
        }
      ],
      "priority": 5,
      "initDialog": 401417101,
      "npcId": [
        2056
      ],
      "performCfg": "",
      "loadType": "TALK_ACTIVITY",
      "questId": 2028,
      "assetIndex": 4980258970901003407,
      "prePerformCfg": ""
    },
    {
      "id": 4014172,
      "beginWay": "TALK_BEGIN_MANUAL",
      "beginCond": [
        {
          "type": "QUEST_COND_ACTIVITY_CLIENT_COND",
          "_param": [
            "2028",
            "2028001",
            "1"
          ]
        }
      ],
      "priority": 5,
      "initDialog": 401417201,
      "npcId": [
        2065
      ],
      "performCfg": "",
      "loadType": "TALK_ACTIVITY",
      "questId": 2028,
      "assetIndex": 16217846045582769443,
      "prePerformCfg": ""
    },
    {
      "id": 4014173,
      "beginWay": "TALK_BEGIN_MANUAL",
      "beginCond": [
        {
          "type": "QUEST_COND_ACTIVITY_CLIENT_COND",
          "_param": [
            "2028",
            "2028001",
            "1"
          ]
        }
      ],
      "priority": 5,
      "initDialog": 401417301,
      "npcId": [
        2017
      ],
      "performCfg": "",
      "loadType": "TALK_ACTIVITY",
      "questId": 2028,
      "assetIndex": 4542880405561449599,
      "prePerformCfg": ""
    },
    {
      "id": 4014174,
      "beginWay": "TALK_BEGIN_MANUAL",
      "beginCondComb": "LOGIC_AND",
      "beginCond": [
        {
          "type": "QUEST_COND_ACTIVITY_CLIENT_COND",
          "_param": [
            "2028",
            "2028001",
            "1"
          ]
        },
        {
          "type": "QUEST_COND_QUEST_GLOBAL_VAR_EQUAL",
          "_param": [
            "4014101",
            "1"
          ]
        },
        {
          "type": "QUEST_COND_IS_DAYTIME",
          "_param": [
            "0"
          ]
        }
      ],
      "priority": 5,
      "initDialog": 401417401,
      "npcId": [
        2067
      ],
      "performCfg": "",
      "loadType": "TALK_ACTIVITY",
      "questId": 2028,
      "assetIndex": 5550131949348690624,
      "prePerformCfg": ""
    },
    {
      "id": 4014175,
      "beginWay": "TALK_BEGIN_MANUAL",
      "beginCond": [
        {
          "type": "QUEST_COND_ACTIVITY_CLIENT_COND",
          "_param": [
            "2028",
            "2028001",
            "1"
          ]
        }
      ],
      "priority": 5,
      "initDialog": 401417501,
      "npcId": [
        2064
      ],
      "performCfg": "",
      "loadType": "TALK_ACTIVITY",
      "questId": 2028,
      "assetIndex": 6620886140956462385,
      "prePerformCfg": ""
    },
    {
      "id": 4014176,
      "beginWay": "TALK_BEGIN_MANUAL",
      "beginCond": [
        {
          "type": "QUEST_COND_ACTIVITY_CLIENT_COND",
          "_param": [
            "2028",
            "2028001",
            "1"
          ]
        }
      ],
      "priority": 5,
      "initDialog": 401417601,
      "npcId": [
        2085
      ],
      "performCfg": "",
      "loadType": "TALK_ACTIVITY",
      "questId": 2028,
      "assetIndex": 10588152023704774304,
      "prePerformCfg": ""
    },
    {
      "id": 4014177,
      "beginWay": "TALK_BEGIN_MANUAL",
      "beginCond": [
        {
          "type": "QUEST_COND_ACTIVITY_CLIENT_COND",
          "_param": [
            "2028",
            "2028001",
            "1"
          ]
        }
      ],
      "priority": 5,
      "initDialog": 401417701,
      "npcId": [
        2002
      ],
      "performCfg": "",
      "loadType": "TALK_ACTIVITY",
      "questId": 2028,
      "assetIndex": 10669042551097340795,
      "prePerformCfg": ""
    },
    {
      "id": 4014178,
      "beginWay": "TALK_BEGIN_MANUAL",
      "beginCond": [
        {
          "type": "QUEST_COND_ACTIVITY_CLIENT_COND",
          "_param": [
            "2028",
            "2028001",
            "1"
          ]
        }
      ],
      "priority": 5,
      "initDialog": 401417801,
      "npcId": [
        2083
      ],
      "performCfg": "",
      "loadType": "TALK_ACTIVITY",
      "questId": 2028,
      "assetIndex": 7362716156664722512,
      "prePerformCfg": ""
    },
    {
      "id": 4014181,
      "beginWay": "TALK_BEGIN_MANUAL",
      "beginCondComb": "LOGIC_AND",
      "beginCond": [
        {
          "type": "QUEST_COND_ACTIVITY_CLIENT_COND",
          "_param": [
            "2028",
            "2028803",
            "1"
          ]
        },
        {
          "type": "QUEST_COND_QUEST_GLOBAL_VAR_EQUAL",
          "_param": [
            "4013901",
            "1"
          ]
        }
      ],
      "priority": 5,
      "nextTalks": [
        4014182,
        4014183,
        4014184,
        4014185
      ],
      "initDialog": 401418101,
      "npcId": [
        30474
      ],
      "performCfg": "",
      "loadType": "TALK_ACTIVITY",
      "questId": 2028,
      "assetIndex": 17385067379420683802,
      "prePerformCfg": ""
    },
    {
      "id": 4014182,
      "beginCondComb": "LOGIC_AND",
      "beginCond": [
        {
          "type": "QUEST_COND_ACTIVITY_CLIENT_COND",
          "_param": [
            "2028",
            "2028803",
            "1"
          ]
        },
        {
          "type": "QUEST_COND_QUEST_GLOBAL_VAR_EQUAL",
          "_param": [
            "4013901",
            "1"
          ]
        }
      ],
      "priority": 5,
      "initDialog": 401418201,
      "npcId": [
        30474
      ],
      "performCfg": "",
      "loadType": "TALK_ACTIVITY",
      "questId": 2028,
      "assetIndex": 15769714563680928514,
      "prePerformCfg": ""
    },
    {
      "id": 4014183,
      "beginCondComb": "LOGIC_AND",
      "beginCond": [
        {
          "type": "QUEST_COND_ACTIVITY_CLIENT_COND",
          "_param": [
            "2028",
            "2028803",
            "1"
          ]
        },
        {
          "type": "QUEST_COND_QUEST_GLOBAL_VAR_EQUAL",
          "_param": [
            "4013901",
            "1"
          ]
        }
      ],
      "priority": 5,
      "initDialog": 401418301,
      "npcId": [
        30474
      ],
      "performCfg": "",
      "loadType": "TALK_ACTIVITY",
      "questId": 2028,
      "assetIndex": 6217463295474199756,
      "prePerformCfg": ""
    },
    {
      "id": 4014184,
      "beginCondComb": "LOGIC_AND",
      "beginCond": [
        {
          "type": "QUEST_COND_ACTIVITY_CLIENT_COND",
          "_param": [
            "2028",
            "2028803",
            "1"
          ]
        },
        {
          "type": "QUEST_COND_QUEST_GLOBAL_VAR_EQUAL",
          "_param": [
            "4013901",
            "1"
          ]
        }
      ],
      "priority": 5,
      "initDialog": 401418401,
      "npcId": [
        30474
      ],
      "performCfg": "",
      "loadType": "TALK_ACTIVITY",
      "questId": 2028,
      "assetIndex": 9431260636207107421,
      "prePerformCfg": ""
    },
    {
      "id": 4014185,
      "beginCondComb": "LOGIC_AND",
      "beginCond": [
        {
          "type": "QUEST_COND_ACTIVITY_CLIENT_COND",
          "_param": [
            "2028",
            "2028803",
            "1"
          ]
        },
        {
          "type": "QUEST_COND_QUEST_GLOBAL_VAR_EQUAL",
          "_param": [
            "4013901",
            "1"
          ]
        }
      ],
      "priority": 5,
      "initDialog": 401418501,
      "npcId": [
        30474
      ],
      "performCfg": "",
      "loadType": "TALK_ACTIVITY",
      "questId": 2028,
      "assetIndex": 2839362629949856006,
      "prePerformCfg": ""
    },
    {
      "id": 7153002,
      "beginWay": "TALK_BEGIN_MANUAL",
      "activeMode": "PLAY_MODE_HOST",
      "beginCond": [
        {
          "type": "QUEST_COND_ACTIVITY_CLIENT_COND",
          "_param": [
            "2028",
            "2028002",
            "1"
          ]
        },
        {
          "type": "QUEST_COND_STATE_EQUAL",
          "_param": [
            "7153001",
            "3"
          ]
        }
      ],
      "priority": 5,
      "initDialog": 715300201,
      "npcId": [
        30457
      ],
      "performCfg": "QuestDialogue/WQ/Liyue_71530/Q7153002",
      "heroTalk": "TALK_HERO_MAIN",
      "loadType": "TALK_ACTIVITY",
      "questId": 2028,
      "assetIndex": 10080037060370777171,
      "prePerformCfg": ""
    },
    {
      "id": 7153003,
      "beginWay": "TALK_BEGIN_MANUAL",
      "activeMode": "PLAY_MODE_HOST",
      "beginCondComb": "LOGIC_AND",
      "beginCond": [
        {
          "type": "QUEST_COND_ACTIVITY_CLIENT_COND",
          "_param": [
            "2028",
            "2028001",
            "1"
          ]
        },
        {
          "type": "QUEST_COND_ACTIVITY_CLIENT_COND",
          "_param": [
            "2028",
            "2028002",
            "0"
          ]
        }
      ],
      "priority": 5,
      "initDialog": 715300301,
      "npcId": [
        30457
      ],
      "performCfg": "",
      "heroTalk": "TALK_HERO_MAIN",
      "loadType": "TALK_ACTIVITY",
      "questId": 2028,
      "assetIndex": 16814715382954363062,
      "prePerformCfg": "",
      "stayFreeStyle": true
    },
    {
      "id": 7153103,
      "beginWay": "TALK_BEGIN_MANUAL",
      "beginCondComb": "LOGIC_AND",
      "beginCond": [
        {
          "type": "QUEST_COND_ACTIVITY_CLIENT_COND",
          "_param": [
            "2028",
            "2028001",
            "1"
          ]
        },
        {
          "type": "QUEST_COND_ACTIVITY_CLIENT_COND",
          "_param": [
            "2028",
            "2028002",
            "0"
          ]
        }
      ],
      "priority": 5,
      "initDialog": 715310301,
      "npcId": [
        30458
      ],
      "performCfg": "",
      "heroTalk": "TALK_HERO_MAIN",
      "loadType": "TALK_ACTIVITY",
      "questId": 2028,
      "assetIndex": 4472904657151093979,
      "prePerformCfg": "",
      "stayFreeStyle": true
    },
    {
      "id": 7153203,
      "beginWay": "TALK_BEGIN_MANUAL",
      "beginCondComb": "LOGIC_AND",
      "beginCond": [
        {
          "type": "QUEST_COND_ACTIVITY_CLIENT_COND",
          "_param": [
            "2028",
            "2028001",
            "1"
          ]
        },
        {
          "type": "QUEST_COND_ACTIVITY_CLIENT_COND",
          "_param": [
            "2028",
            "2028003",
            "0"
          ]
        }
      ],
      "priority": 5,
      "initDialog": 715320301,
      "npcId": [
        30459
      ],
      "performCfg": "",
      "heroTalk": "TALK_HERO_MAIN",
      "loadType": "TALK_ACTIVITY",
      "questId": 2028,
      "assetIndex": 1964073794826349570,
      "prePerformCfg": "",
      "stayFreeStyle": true
    }
  ]
}