{
  "npcId": 5079,
  "talks": [
    {
      "id": 7150105,
      "beginWay": "TALK_BEGIN_MANUAL",
      "activeMode": "PLAY_MODE_HOST",
      "beginCondComb": "LOGIC_AND",
      "beginCond": [
        {
          "type": "QUEST_COND_STATE_EQUAL",
          "_param": [
            "7150102",
            "3"
          ]
        },
        {
          "type": "QUEST_COND_ACTIVITY_CLIENT_COND",
          "_param": [
            "5079",
            "5079002",
            "1"
          ]
        }
      ],
      "priority": 5,
      "initDialog": 715010501,
      "npcId": [
        30181
      ],
      "performCfg": "",
      "heroTalk": "TALK_HERO_MAIN",
      "loadType": "TALK_ACTIVITY",
      "questId": 5079,
      "assetIndex": 6783376739620984396,
      "prePerformCfg": ""
    },
    {
      "id": 7150204,
      "beginWay": "TALK_BEGIN_MANUAL",
      "activeMode": "PLAY_MODE_HOST",
      "beginCondComb": "LOGIC_AND",
      "beginCond": [
        {
          "type": "QUEST_COND_STATE_EQUAL",
          "_param": [
            "7150201",
            "3"
          ]
        },
        {
          "type": "QUEST_COND_ACTIVITY_CLIENT_COND",
          "_param": [
            "5079",
            "5079005",
            "1"
          ]
        }
      ],
      "priority": 7,
      "initDialog": 715020401,
      "npcId": [
        30181
      ],
      "performCfg": "",
      "heroTalk": "TALK_HERO_MAIN",
      "loadType": "TALK_ACTIVITY",
      "questId": 5079,
      "assetIndex": 9279093525780471941,
      "prePerformCfg": ""
    },
    {
      "id": 7150304,
      "beginWay": "TALK_BEGIN_MANUAL",
      "activeMode": "PLAY_MODE_HOST",
      "beginCondComb": "LOGIC_AND",
      "beginCond": [
        {
          "type": "QUEST_COND_STATE_EQUAL",
          "_param": [
            "7150301",
            "3"
          ]
        },
        {
          "type": "QUEST_COND_ACTIVITY_CLIENT_COND",
          "_param": [
            "5079",
            "5079008",
            "1"
          ]
        }
      ],
      "priority": 9,
      "initDialog": 715030401,
      "npcId": [
        30181
      ],
      "performCfg": "",
      "heroTalk": "TALK_HERO_MAIN",
      "loadType": "TALK_ACTIVITY",
      "questId": 5079,
      "assetIndex": 17070530709077623186,
      "prePerformCfg": ""
    },
    {
      "id": 7150406,
      "beginWay": "TALK_BEGIN_MANUAL",
      "activeMode": "PLAY_MODE_HOST",
      "beginCondComb": "LOGIC_AND",
      "beginCond": [
        {
          "type": "QUEST_COND_STATE_EQUAL",
          "_param": [
            "7150402",
            "3"
          ]
        },
        {
          "type": "QUEST_COND_ACTIVITY_CLIENT_COND",
          "_param": [
            "5079",
            "5079011",
            "1"
          ]
        }
      ],
      "priority": 11,
      "initDialog": 715040601,
      "npcId": [
        30184,
        30183
      ],
      "performCfg": "QuestDialogue/WQ/TheChasmChallenge/Q7150406",
      "heroTalk": "TALK_HERO_MAIN",
      "loadType": "TALK_ACTIVITY",
      "questId": 5079,
      "assetIndex": 6126458961643806030,
      "prePerformCfg": ""
    },
    {
      "id": 7150407,
      "beginWay": "TALK_BEGIN_MANUAL",
      "activeMode": "PLAY_MODE_HOST",
      "beginCondComb": "LOGIC_AND",
      "beginCond": [
        {
          "type": "QUEST_COND_STATE_EQUAL",
          "_param": [
            "7150401",
            "3"
          ]
        }
      ],
      "priority": 11,
      "initDialog": 715040501,
      "npcId": [
        30181
      ],
      "performCfg": "",
      "heroTalk": "TALK_HERO_MAIN",
      "loadType": "TALK_ACTIVITY",
      "questId": 5079,
      "assetIndex": 8175311107944057368,
      "prePerformCfg": ""
    },
    {
      "id": 7150504,
      "beginWay": "TALK_BEGIN_MANUAL",
      "activeMode": "PLAY_MODE_HOST",
      "beginCondComb": "LOGIC_AND",
      "beginCond": [
        {
          "type": "QUEST_COND_STATE_EQUAL",
          "_param": [
            "7150501",
            "3"
          ]
        },
        {
          "type": "QUEST_COND_ACTIVITY_CLIENT_COND",
          "_param": [
            "5079",
            "5079014",
            "1"
          ]
        }
      ],
      "priority": 13,
      "initDialog": 715050401,
      "npcId": [
        30181
      ],
      "performCfg": "",
      "heroTalk": "TALK_HERO_MAIN",
      "loadType": "TALK_ACTIVITY",
      "questId": 5079,
      "assetIndex": 5549405927363151802,
      "prePerformCfg": ""
    },
    {
      "id": 7150606,
      "beginWay": "TALK_BEGIN_MANUAL",
      "activeMode": "PLAY_MODE_HOST",
      "beginCondComb": "LOGIC_AND",
      "beginCond": [
        {
          "type": "QUEST_COND_STATE_EQUAL",
          "_param": [
            "7150601",
            "3"
          ]
        },
        {
          "type": "QUEST_COND_ACTIVITY_CLIENT_COND",
          "_param": [
            "5079",
            "5079003",
            "1"
          ]
        }
      ],
      "priority": 6,
      "initDialog": 715060601,
      "npcId": [
        30181
      ],
      "performCfg": "",
      "heroTalk": "TALK_HERO_MAIN",
      "loadType": "TALK_ACTIVITY",
      "questId": 5079,
      "assetIndex": 16810543077841798924,
      "prePerformCfg": ""
    },
    {
      "id": 7150705,
      "beginWay": "TALK_BEGIN_MANUAL",
      "activeMode": "PLAY_MODE_HOST",
      "beginCondComb": "LOGIC_AND",
      "beginCond": [
        {
          "type": "QUEST_COND_STATE_EQUAL",
          "_param": [
            "7150701",
            "3"
          ]
        },
        {
          "type": "QUEST_COND_ACTIVITY_CLIENT_COND",
          "_param": [
            "5079",
            "5079006",
            "1"
          ]
        }
      ],
      "priority": 8,
      "initDialog": 715070501,
      "npcId": [
        30181
      ],
      "performCfg": "",
      "heroTalk": "TALK_HERO_MAIN",
      "loadType": "TALK_ACTIVITY",
      "questId": 5079,
      "assetIndex": 3744403239119248683,
      "prePerformCfg": ""
    },
    {
      "id": 7150805,
      "beginWay": "TALK_BEGIN_MANUAL",
      "activeMode": "PLAY_MODE_HOST",
      "beginCondComb": "LOGIC_AND",
      "beginCond": [
        {
          "type": "QUEST_COND_STATE_EQUAL",
          "_param": [
            "7150801",
            "3"
          ]
        },
        {
          "type": "QUEST_COND_ACTIVITY_CLIENT_COND",
          "_param": [
            "5079",
            "5079009",
            "1"
          ]
        }
      ],
      "priority": 10,
      "initDialog": 715080501,
      "npcId": [
        30181
      ],
      "performCfg": "",
      "heroTalk": "TALK_HERO_MAIN",
      "loadType": "TALK_ACTIVITY",
      "questId": 5079,
      "assetIndex": 3242900523970149049,
      "prePerformCfg": ""
    },
    {
      "id": 7150806,
      "beginWay": "TALK_BEGIN_MANUAL",
      "activeMode": "PLAY_MODE_HOST",
      "beginCondComb": "LOGIC_AND",
      "beginCond": [
        {
          "type": "QUEST_COND_STATE_EQUAL",
          "_param": [
            "7150801",
            "3"
          ]
        },
        {
          "type": "QUEST_COND_ACTIVITY_CLIENT_COND",
          "_param": [
            "5079",
            "5079009",
            "1"
          ]
        }
      ],
      "priority": 10,
      "initDialog": 715080601,
      "npcId": [
        30184
      ],
      "performCfg": "",
      "heroTalk": "TALK_HERO_MAIN",
      "loadType": "TALK_ACTIVITY",
      "questId": 5079,
      "assetIndex": 7703861529570445287,
      "prePerformCfg": ""
    },
    {
      "id": 7150807,
      "beginWay": "TALK_BEGIN_MANUAL",
      "activeMode": "PLAY_MODE_HOST",
      "beginCondComb": "LOGIC_AND",
      "beginCond": [
        {
          "type": "QUEST_COND_STATE_EQUAL",
          "_param": [
            "7150801",
            "3"
          ]
        },
        {
          "type": "QUEST_COND_ACTIVITY_CLIENT_COND",
          "_param": [
            "5079",
            "5079009",
            "1"
          ]
        }
      ],
      "priority": 10,
      "initDialog": 715080701,
      "npcId": [
        30183
      ],
      "performCfg": "",
      "heroTalk": "TALK_HERO_MAIN",
      "loadType": "TALK_ACTIVITY",
      "questId": 5079,
      "assetIndex": 2988795778912629539,
      "prePerformCfg": ""
    },
    {
      "id": 7150907,
      "beginWay": "TALK_BEGIN_MANUAL",
      "activeMode": "PLAY_MODE_HOST",
      "beginCondComb": "LOGIC_AND",
      "beginCond": [
        {
          "type": "QUEST_COND_STATE_EQUAL",
          "_param": [
            "7150901",
            "3"
          ]
        },
        {
          "type": "QUEST_COND_ACTIVITY_CLIENT_COND",
          "_param": [
            "5079",
            "5079012",
            "1"
          ]
        }
      ],
      "priority": 12,
      "initDialog": 715090701,
      "npcId": [
        30181
      ],
      "performCfg": "",
      "heroTalk": "TALK_HERO_MAIN",
      "loadType": "TALK_ACTIVITY",
      "questId": 5079,
      "assetIndex": 8290345608362467002,
      "prePerformCfg": ""
    },
    {
      "id": 7150908,
      "beginWay": "TALK_BEGIN_MANUAL",
      "activeMode": "PLAY_MODE_HOST",
      "beginCondComb": "LOGIC_AND",
      "beginCond": [
        {
          "type": "QUEST_COND_STATE_EQUAL",
          "_param": [
            "7150901",
            "3"
          ]
        },
        {
          "type": "QUEST_COND_ACTIVITY_CLIENT_COND",
          "_param": [
            "5079",
            "5079012",
            "1"
          ]
        }
      ],
      "priority": 12,
      "initDialog": 715090801,
      "npcId": [
        30184
      ],
      "performCfg": "",
      "heroTalk": "TALK_HERO_MAIN",
      "loadType": "TALK_ACTIVITY",
      "questId": 5079,
      "assetIndex": 12098581711678085809,
      "prePerformCfg": ""
    },
    {
      "id": 7150909,
      "beginWay": "TALK_BEGIN_MANUAL",
      "activeMode": "PLAY_MODE_HOST",
      "beginCondComb": "LOGIC_AND",
      "beginCond": [
        {
          "type": "QUEST_COND_STATE_EQUAL",
          "_param": [
            "7150901",
            "3"
          ]
        },
        {
          "type": "QUEST_COND_ACTIVITY_CLIENT_COND",
          "_param": [
            "5079",
            "5079012",
            "1"
          ]
        }
      ],
      "priority": 12,
      "initDialog": 715090901,
      "npcId": [
        30183
      ],
      "performCfg": "",
      "heroTalk": "TALK_HERO_MAIN",
      "loadType": "TALK_ACTIVITY",
      "questId": 5079,
      "assetIndex": 16365595014243220511,
      "prePerformCfg": ""
    },
    {
      "id": 7151005,
      "beginWay": "TALK_BEGIN_MANUAL",
      "activeMode": "PLAY_MODE_HOST",
      "beginCondComb": "LOGIC_AND",
      "beginCond": [
        {
          "type": "QUEST_COND_STATE_EQUAL",
          "_param": [
            "7151001",
            "3"
          ]
        },
        {
          "type": "QUEST_COND_ACTIVITY_CLIENT_COND",
          "_param": [
            "5079",
            "5079015",
            "1"
          ]
        }
      ],
      "priority": 14,
      "initDialog": 715100501,
      "npcId": [
        30181
      ],
      "performCfg": "",
      "heroTalk": "TALK_HERO_MAIN",
      "loadType": "TALK_ACTIVITY",
      "questId": 5079,
      "assetIndex": 10013685163839221219,
      "prePerformCfg": ""
    }
  ]
}