{
  "npcId": 5116,
  "talks": [
    {
      "id": 7350630,
      "beginWay": "TALK_BEGIN_MANUAL",
      "activeMode": "PLAY_MODE_HOST",
      "beginCondComb": "LOGIC_AND",
      "beginCond": [
        {
          "type": "QUEST_COND_STATE_EQUAL",
          "_param": [
            "7350603",
            "3"
          ]
        },
        {
          "type": "QUEST_COND_ACTIVITY_CLIENT_COND",
          "_param": [
            "5116",
            "5116021",
            "1"
          ]
        }
      ],
      "priority": 5,
      "initDialog": 735063001,
      "npcId": [
        30281
      ],
      "performCfg": "QuestDialogue/WQ/Sumeru_73506/Q7350630",
      "heroTalk": "TALK_HERO_MAIN",
      "loadType": "TALK_ACTIVITY",
      "questId": 5116,
      "assetIndex": 5261254849442849572,
      "prePerformCfg": ""
    },
    {
      "id": 7350631,
      "beginWay": "TALK_BEGIN_MANUAL",
      "activeMode": "PLAY_MODE_HOST",
      "beginCondComb": "LOGIC_AND",
      "beginCond": [
        {
          "type": "QUEST_COND_STATE_EQUAL",
          "_param": [
            "7350603",
            "3"
          ]
        },
        {
          "type": "QUEST_COND_ACTIVITY_CLIENT_COND",
          "_param": [
            "5116",
            "5116022",
            "1"
          ]
        }
      ],
      "priority": 5,
      "initDialog": 735063101,
      "npcId": [
        30281
      ],
      "performCfg": "QuestDialogue/WQ/Sumeru_73506/Q7350631",
      "heroTalk": "TALK_HERO_MAIN",
      "loadType": "TALK_ACTIVITY",
      "questId": 5116,
      "assetIndex": 16396377842412908548,
      "prePerformCfg": ""
    },
    {
      "id": 7350632,
      "beginWay": "TALK_BEGIN_MANUAL",
      "activeMode": "PLAY_MODE_HOST",
      "beginCondComb": "LOGIC_AND",
      "beginCond": [
        {
          "type": "QUEST_COND_STATE_EQUAL",
          "_param": [
            "7350603",
            "3"
          ]
        },
        {
          "type": "QUEST_COND_ACTIVITY_CLIENT_COND",
          "_param": [
            "5116",
            "5116023",
            "1"
          ]
        }
      ],
      "priority": 5,
      "initDialog": 735063201,
      "npcId": [
        30281
      ],
      "performCfg": "QuestDialogue/WQ/Sumeru_73506/Q7350632",
      "heroTalk": "TALK_HERO_MAIN",
      "loadType": "TALK_ACTIVITY",
      "questId": 5116,
      "assetIndex": 4033811816491198401,
      "prePerformCfg": ""
    },
    {
      "id": 7350633,
      "beginWay": "TALK_BEGIN_MANUAL",
      "activeMode": "PLAY_MODE_HOST",
      "beginCondComb": "LOGIC_AND",
      "beginCond": [
        {
          "type": "QUEST_COND_STATE_EQUAL",
          "_param": [
            "7350603",
            "3"
          ]
        },
        {
          "type": "QUEST_COND_ACTIVITY_CLIENT_COND",
          "_param": [
            "5116",
            "5116024",
            "1"
          ]
        }
      ],
      "priority": 5,
      "initDialog": 735063301,
      "npcId": [
        30281
      ],
      "performCfg": "QuestDialogue/WQ/Sumeru_73506/Q7350633",
      "heroTalk": "TALK_HERO_MAIN",
      "loadType": "TALK_ACTIVITY",
      "questId": 5116,
      "assetIndex": 9651708646571600567,
      "prePerformCfg": ""
    },
    {
      "id": 7350634,
      "beginWay": "TALK_BEGIN_MANUAL",
      "activeMode": "PLAY_MODE_HOST",
      "beginCondComb": "LOGIC_AND",
      "beginCond": [
        {
          "type": "QUEST_COND_STATE_EQUAL",
          "_param": [
            "7350603",
            "3"
          ]
        },
        {
          "type": "QUEST_COND_ACTIVITY_CLIENT_COND",
          "_param": [
            "5116",
            "5116025",
            "1"
          ]
        }
      ],
      "priority": 5,
      "initDialog": 735063401,
      "npcId": [
        30281
      ],
      "performCfg": "QuestDialogue/WQ/Sumeru_73506/Q7350634",
      "heroTalk": "TALK_HERO_MAIN",
      "loadType": "TALK_ACTIVITY",
      "questId": 5116,
      "assetIndex": 10562602899618221674,
      "prePerformCfg": ""
    },
    {
      "id": 7350635,
      "beginCondComb": "LOGIC_AND",
      "beginCond": [
        {
          "type": "QUEST_COND_STATE_EQUAL",
          "_param": [
            "7350603",
            "3"
          ]
        },
        {
          "type": "QUEST_COND_ACTIVITY_CLIENT_COND",
          "_param": [
            "5116",
            "5116025",
            "1"
          ]
        }
      ],
      "priority": 5,
      "initDialog": 735063501,
      "npcId": [
        4301
      ],
      "performCfg": "",
      "loadType": "TALK_ACTIVITY",
      "questId": 5116,
      "assetIndex": 16428453487870852413,
      "prePerformCfg": ""
    },
    {
      "id": 7350636,
      "beginWay": "TALK_BEGIN_MANUAL",
      "activeMode": "PLAY_MODE_HOST",
      "beginCondComb": "LOGIC_AND",
      "beginCond": [
        {
          "type": "QUEST_COND_STATE_EQUAL",
          "_param": [
            "7350603",
            "3"
          ]
        },
        {
          "type": "QUEST_COND_ACTIVITY_CLIENT_COND",
          "_param": [
            "5116",
            "5116026",
            "1"
          ]
        },
        {
          "type": "QUEST_COND_QUEST_GLOBAL_VAR_EQUAL",
          "_param": [
            "301409",
            "1"
          ]
        }
      ],
      "priority": 5,
      "initDialog": 735063601,
      "npcId": [
        30283,
        30281
      ],
      "performCfg": "QuestDialogue/WQ/Sumeru_73506/Q7350636",
      "heroTalk": "TALK_HERO_MAIN",
      "loadType": "TALK_ACTIVITY",
      "questId": 5116,
      "assetIndex": 16025025751060272789,
      "prePerformCfg": ""
    },
    {
      "id": 7350637,
      "beginWay": "TALK_BEGIN_MANUAL",
      "activeMode": "PLAY_MODE_HOST",
      "beginCondComb": "LOGIC_AND",
      "beginCond": [
        {
          "type": "QUEST_COND_STATE_EQUAL",
          "_param": [
            "7350603",
            "3"
          ]
        },
        {
          "type": "QUEST_COND_ACTIVITY_CLIENT_COND",
          "_param": [
            "5116",
            "5116026",
            "1"
          ]
        },
        {
          "type": "QUEST_COND_QUEST_GLOBAL_VAR_EQUAL",
          "_param": [
            "301409",
            "0"
          ]
        }
      ],
      "priority": 5,
      "initDialog": 735063701,
      "npcId": [
        30283,
        30281
      ],
      "performCfg": "QuestDialogue/WQ/Sumeru_73506/Q7350637",
      "heroTalk": "TALK_HERO_MAIN",
      "loadType": "TALK_ACTIVITY",
      "questId": 5116,
      "assetIndex": 4152980549557393,
      "prePerformCfg": ""
    },
    {
      "id": 7350640,
      "beginWay": "TALK_BEGIN_MANUAL",
      "beginCondComb": "LOGIC_AND",
      "beginCond": [
        {
          "type": "QUEST_COND_ACTIVITY_CLIENT_COND",
          "_param": [
            "5116",
            "5116012",
            "1"
          ]
        },
        {
          "type": "QUEST_COND_STATE_EQUAL",
          "_param": [
            "7350603",
            "3"
          ]
        }
      ],
      "priority": 5,
      "initDialog": 735064001,
      "npcId": [
        30279
      ],
      "performCfg": "",
      "heroTalk": "TALK_HERO_MAIN",
      "loadType": "TALK_ACTIVITY",
      "questId": 5116,
      "assetIndex": 5881717037140751015,
      "prePerformCfg": "",
      "freeStyleList": [
        1240,
        1171,
        1172,
        1173,
        4040,
        1110,
        1170,
        1180
      ]
    }
  ]
}