{
  "npcId": 5159,
  "talks": [
    {
      "id": 7467102,
      "beginWay": "TALK_BEGIN_MANUAL",
      "beginCondComb": "LOGIC_AND",
      "beginCond": [
        {
          "type": "QUEST_COND_STATE_EQUAL",
          "_param": [
            "7467101",
            "3"
          ]
        },
        {
          "type": "QUEST_COND_ACTIVITY_CLIENT_COND",
          "_param": [
            "5159",
            "5159001",
            "1"
          ]
        }
      ],
      "priority": 5,
      "initDialog": 746710201,
      "npcId": [
        30395
      ],
      "performCfg": "QuestDialogue/WQ/Fontaine_74671/Q7467102",
      "heroTalk": "TALK_HERO_MAIN",
      "loadType": "TALK_ACTIVITY",
      "questId": 5159,
      "assetIndex": 17562508505890963072,
      "prePerformCfg": ""
    }
  ]
}