{
  "npcId": 5204,
  "talks": [
    {
      "id": 7054604,
      "beginWay": "TALK_BEGIN_MANUAL",
      "beginCond": [
        {
          "type": "QUEST_COND_STATE_EQUAL",
          "_param": [
            "7054601",
            "3"
          ]
        }
      ],
      "priority": 5,
      "initDialog": 705460401,
      "npcId": [
        30610
      ],
      "performCfg": "QuestDialogue/WQ/Mengde_70546/Q7054604",
      "heroTalk": "TALK_HERO_MAIN",
      "loadType": "TALK_ACTIVITY",
      "questId": 5204,
      "assetIndex": 2519632472531507394,
      "prePerformCfg": "",
      "freeStyleList": [
        1200,
        4030,
        1171,
        1172,
        1173,
        1060
      ],
      "CHAKPMBJNAJ": [
        "[3_300401899:2207.455,230.089,-804.249,0.000,35.966,0.000]",
        "[3_9307:2208.641,230.088,-805.129,359.941,304.102,0.961]",
        "[3_9308:2208.811,230.089,-804.355,359.771,285.293,1.320]"
      ]
    },
    {
      "id": 7054605,
      "beginWay": "TALK_BEGIN_MANUAL",
      "beginCond": [
        {
          "type": "QUEST_COND_STATE_EQUAL",
          "_param": [
            "7054601",
            "3"
          ]
        }
      ],
      "priority": 5,
      "initDialog": 705460501,
      "npcId": [
        30617
      ],
      "performCfg": "QuestDialogue/WQ/Mengde_70546/Q7054605",
      "heroTalk": "TALK_HERO_MAIN",
      "loadType": "TALK_ACTIVITY",
      "questId": 5204,
      "assetIndex": 4784011998373060428,
      "prePerformCfg": "",
      "freeStyleList": [
        1171,
        1172,
        1173,
        1190
      ],
      "CHAKPMBJNAJ": [
        "[3_300401900:2207.931,230.089,-803.291,0.000,214.971,0.000]",
        "[3_9309:2209.083,230.089,-800.967,0.000,247.202,0.000]",
        "[3_9310:2209.086,230.089,-801.640,0.000,285.354,0.000]"
      ]
    }
  ]
}