{
  "sceneId": 20165,
  "gadgets": [
    {
      "groupId": 220165002,
      "mapInstId": 2023,
      "followMoveAttachPoint": "",
      "rotateCoreCityName": "",
      "OGNNEGCDJOF": [
        {
          "id": 1318070488,
          "BOEDGBKEFNH": {
            "x": 274.1133117675781,
            "y": 11.960000038146973,
            "z": 215.2808074951172
          }
        }
      ]
    },
    {
      "groupId": 220165003,
      "mapInstId": 3001,
      "followMoveAttachPoint": "",
      "trigger": {
        "overrideTriggerFlag": true,
        "triggerFlag": "TeleportV2",
        "useLocalTriggerLogic": true,
        "localTriggerMeta": {
          "$type": "ILABPPPELKA",
          "vectorParam": {
            "x": -551.63671875,
            "y": 22.615299224853516,
            "z": 181.78250122070312
          },
          "stringParam": "",
          "curtainType": "NahidaDungeon",
          "vfxPath": ""
        }
      },
      "rotateCoreCityName": ""
    },
    {
      "groupId": 220165003,
      "mapInstId": 3002,
      "followMoveAttachPoint": "",
      "trigger": {
        "overrideTriggerFlag": true,
        "triggerFlag": "TeleportV2",
        "useLocalTriggerLogic": true,
        "localTriggerMeta": {
          "$type": "ILABPPPELKA",
          "vectorParam": {
            "x": 293.3996887207031,
            "y": 27.517139434814453,
            "z": 218.70559692382812
          },
          "floatParam": 286.9989929199219,
          "stringParam": "",
          "curtainType": "NahidaDungeon",
          "vfxPath": ""
        }
      },
      "rotateCoreCityName": ""
    },
    {
      "groupId": 220165003,
      "mapInstId": 3003,
      "followMoveAttachPoint": "",
      "trigger": {
        "overrideTriggerFlag": true,
        "triggerFlag": "TeleportV2",
        "useLocalTriggerLogic": true,
        "localTriggerMeta": {
          "$type": "ILABPPPELKA",
          "vectorParam": {
            "x": 293.3996887207031,
            "y": 25.76445960998535,
            "z": 218.70559692382812
          },
          "floatParam": 286.9989929199219,
          "stringParam": "",
          "curtainType": "NahidaDungeon",
          "vfxPath": ""
        }
      },
      "rotateCoreCityName": ""
    },
    {
      "groupId": 220165003,
      "mapInstId": 3004,
      "followMoveAttachPoint": "",
      "trigger": {
        "overrideTriggerFlag": true,
        "triggerFlag": "TeleportV2",
        "useLocalTriggerLogic": true,
        "localTriggerMeta": {
          "$type": "ILABPPPELKA",
          "vectorParam": {
            "x": 886.4349975585938,
            "y": 24.974029541015625,
            "z": 211.67979431152344
          },
          "floatParam": 308.6400146484375,
          "stringParam": "",
          "curtainType": "NahidaDungeon",
          "vfxPath": ""
        }
      },
      "rotateCoreCityName": ""
    },
    {
      "groupId": 220165003,
      "mapInstId": 3005,
      "followMoveAttachPoint": "",
      "trigger": {
        "overrideTriggerFlag": true,
        "triggerFlag": "TeleportV2",
        "useLocalTriggerLogic": true,
        "localTriggerMeta": {
          "$type": "ILABPPPELKA",
          "vectorParam": {
            "x": 929.3280029296875,
            "y": 15.33965015411377,
            "z": 223.10000610351562
          },
          "floatParam": 290.837890625,
          "stringParam": "",
          "curtainType": "NahidaDungeon",
          "vfxPath": ""
        }
      },
      "rotateCoreCityName": ""
    },
    {
      "groupId": 220165003,
      "mapInstId": 3006,
      "followMoveAttachPoint": "",
      "trigger": {
        "overrideTriggerFlag": true,
        "triggerFlag": "TeleportV2",
        "useLocalTriggerLogic": true,
        "localTriggerMeta": {
          "$type": "ILABPPPELKA",
          "vectorParam": {
            "x": 546.6766967773438,
            "y": 51.15447998046875,
            "z": 801.7457885742188
          },
          "floatParam": 178.7969970703125,
          "stringParam": "",
          "curtainType": "NahidaDungeon",
          "vfxPath": ""
        }
      },
      "rotateCoreCityName": ""
    },
    {
      "groupId": 220165003,
      "mapInstId": 3007,
      "followMoveAttachPoint": "",
      "trigger": {
        "overrideTriggerFlag": true,
        "triggerFlag": "TeleportV2",
        "useLocalTriggerLogic": true,
        "localTriggerMeta": {
          "$type": "ILABPPPELKA",
          "vectorParam": {
            "x": -575.6419067382812,
            "y": 45.74298858642578,
            "z": 778.364501953125
          },
          "floatParam": 30.263139724731445,
          "stringParam": "",
          "curtainType": "NahidaDungeon",
          "vfxPath": ""
        }
      },
      "rotateCoreCityName": ""
    },
    {
      "groupId": 220165003,
      "mapInstId": 3016,
      "followMoveAttachPoint": "",
      "trigger": {
        "overrideTriggerFlag": true,
        "triggerFlag": "TeleportV2",
        "useLocalTriggerLogic": true,
        "localTriggerMeta": {
          "$type": "ILABPPPELKA",
          "vectorParam": {
            "x": 886.4349975585938,
            "y": 24.974029541015625,
            "z": 211.67979431152344
          },
          "floatParam": 308.6400146484375,
          "stringParam": "",
          "curtainType": "NahidaDungeon",
          "vfxPath": ""
        }
      },
      "rotateCoreCityName": ""
    },
    {
      "groupId": 220165003,
      "mapInstId": 3020,
      "followMoveAttachPoint": "",
      "trigger": {
        "overrideTriggerFlag": true,
        "triggerFlag": "TeleportV2",
        "useLocalTriggerLogic": true,
        "localTriggerMeta": {
          "$type": "ILABPPPELKA",
          "vectorParam": {
            "x": 323.5150146484375,
            "y": 17.137649536132812,
            "z": 234.65060424804688
          },
          "floatParam": 235.6717071533203,
          "stringParam": "",
          "curtainType": "NahidaDungeon",
          "vfxPath": ""
        }
      },
      "rotateCoreCityName": ""
    },
    {
      "groupId": 220165004,
      "mapInstId": 4020,
      "followMoveAttachPoint": "",
      "rotateCoreCityName": "",
      "OGNNEGCDJOF": [
        {
          "id": 355558850,
          "BOEDGBKEFNH": {
            "x": 892.951171875,
            "y": 7.272737979888916,
            "z": 213.4427947998047
          }
        },
        {
          "id": -103302466,
          "BOEDGBKEFNH": {
            "x": 892.951171875,
            "y": 10.782150268554688,
            "z": 213.4427947998047
          }
        }
      ]
    },
    {
      "groupId": 220165004,
      "mapInstId": 4034,
      "followMoveAttachPoint": "",
      "rotateCoreCityName": "",
      "OGNNEGCDJOF": [
        {
          "id": -2101098015,
          "BOEDGBKEFNH": {
            "x": 279.49639892578125,
            "y": 11.960000038146973,
            "z": 214.60459899902344
          }
        },
        {
          "id": 1648915111,
          "BOEDGBKEFNH": {
            "x": 279.49639892578125,
            "y": 3.580580949783325,
            "z": 214.60459899902344
          }
        }
      ]
    },
    {
      "groupId": 220165005,
      "mapInstId": 5010,
      "followMoveAttachPoint": "",
      "rotateCoreCityName": "",
      "OGNNEGCDJOF": [
        {
          "id": 548417548,
          "BOEDGBKEFNH": {
            "x": 279.49639892578125,
            "y": 3.580580949783325,
            "z": 214.60459899902344
          }
        },
        {
          "id": -705083681,
          "BOEDGBKEFNH": {
            "x": 279.49639892578125,
            "y": 11.960000038146973,
            "z": 214.60459899902344
          }
        }
      ]
    },
    {
      "groupId": 220165005,
      "mapInstId": 5012,
      "followMoveAttachPoint": "",
      "rotateCoreCityName": "",
      "OGNNEGCDJOF": [
        {
          "id": -469104415,
          "BOEDGBKEFNH": {
            "x": 892.951171875,
            "y": 10.782150268554688,
            "z": 213.4427947998047
          }
        },
        {
          "id": 1914079047,
          "BOEDGBKEFNH": {
            "x": 892.951171875,
            "y": 7.272737979888916,
            "z": 213.4427947998047
          }
        }
      ]
    }
  ]
}