{
  "sceneId": 1,
  "gadgets": [
    {
      "groupId": 111104029,
      "mapInstId": 29001,
      "followMoveAttachPoint": "",
      "rotateCoreCityName": "",
      "AEPAEJMFHGI": 110400002
    },
    {
      "groupId": 111104029,
      "mapInstId": 29003,
      "followMoveAttachPoint": "",
      "rotateCoreCityName": "",
      "AEPAEJMFHGI": 110100001
    }
  ]
}