{
  "sceneId": 3,
  "gadgets": [
    {
      "groupId": 133408004,
      "mapInstId": 4002,
      "followMoveAttachPoint": "",
      "IGGMJDGPILL": {
        "2": "UnderWaterFloat"
      },
      "uiIndicator": {
        "templateName": "Normal_Chest_Icon"
      },
      "rotateCoreCityName": ""
    },
    {
      "groupId": 133408006,
      "mapInstId": 6001,
      "followMoveAttachPoint": "",
      "uiIndicator": {
        "templateName": "GadgetCreate_Icon"
      },
      "rotateCoreCityName": ""
    },
    {
      "groupId": 133408006,
      "mapInstId": 6003,
      "followMoveAttachPoint": "",
      "uiIndicator": {
        "templateName": "Normal_Chest_Icon"
      },
      "rotateCoreCityName": ""
    },
    {
      "groupId": 133408006,
      "mapInstId": 6004,
      "followMoveAttachPoint": "",
      "uiIndicator": {
        "templateName": "GadgetCreate_Icon"
      },
      "rotateCoreCityName": ""
    },
    {
      "groupId": 133408006,
      "mapInstId": 6013,
      "followMoveAttachPoint": "",
      "uiIndicator": {
        "templateName": "GadgetCreate_Icon"
      },
      "rotateCoreCityName": ""
    },
    {
      "groupId": 133408006,
      "mapInstId": 6014,
      "followMoveAttachPoint": "",
      "uiIndicator": {
        "templateName": "GadgetCreate_Icon"
      },
      "rotateCoreCityName": ""
    },
    {
      "groupId": 133408006,
      "mapInstId": 6015,
      "followMoveAttachPoint": "",
      "uiIndicator": {
        "templateName": "GadgetCreate_Icon"
      },
      "rotateCoreCityName": ""
    },
    {
      "groupId": 133408006,
      "mapInstId": 6016,
      "followMoveAttachPoint": "",
      "uiIndicator": {
        "templateName": "GadgetCreate_Icon"
      },
      "rotateCoreCityName": ""
    },
    {
      "groupId": 133408006,
      "mapInstId": 6017,
      "followMoveAttachPoint": "",
      "uiIndicator": {
        "templateName": "GadgetCreate_Icon"
      },
      "rotateCoreCityName": ""
    },
    {
      "groupId": 133408006,
      "mapInstId": 6018,
      "followMoveAttachPoint": "",
      "uiIndicator": {
        "templateName": "GadgetCreate_Icon"
      },
      "rotateCoreCityName": ""
    },
    {
      "groupId": 133408006,
      "mapInstId": 6019,
      "followMoveAttachPoint": "",
      "uiIndicator": {
        "templateName": "GadgetCreate_Icon"
      },
      "rotateCoreCityName": ""
    },
    {
      "groupId": 133408006,
      "mapInstId": 6020,
      "followMoveAttachPoint": "",
      "uiIndicator": {
        "templateName": "GadgetCreate_Icon"
      },
      "rotateCoreCityName": ""
    },
    {
      "groupId": 133408006,
      "mapInstId": 6021,
      "followMoveAttachPoint": "",
      "uiIndicator": {
        "templateName": "GadgetCreate_Icon"
      },
      "rotateCoreCityName": ""
    },
    {
      "groupId": 133408007,
      "mapInstId": 7001,
      "followMoveAttachPoint": "",
      "billboardHasUIBar": true,
      "billboardShowUIBarDis": 85.0,
      "billboardHideUIBarDis": 85.0,
      "billboardHpBarStyle": "Boss",
      "rotateCoreCityName": ""
    },
    {
      "groupId": 133408007,
      "mapInstId": 7077,
      "followMoveAttachPoint": "",
      "IGGMJDGPILL": {
        "2": "UnderWaterFloat"
      },
      "uiIndicator": {
        "templateName": "Normal_Chest_Icon"
      },
      "rotateCoreCityName": ""
    },
    {
      "groupId": 133408015,
      "mapInstId": 15009,
      "followMoveAttachPoint": "",
      "uiIndicator": {
        "templateName": "Normal_Chest_Icon"
      },
      "rotateCoreCityName": ""
    },
    {
      "groupId": 133408019,
      "mapInstId": 19002,
      "followMoveAttachPoint": "",
      "uiIndicator": {
        "templateName": "Normal_Chest_Icon"
      },
      "rotateCoreCityName": ""
    },
    {
      "groupId": 133408026,
      "mapInstId": 26002,
      "followMoveAttachPoint": "",
      "uiIndicator": {
        "templateName": "Normal_Chest_Icon"
      },
      "rotateCoreCityName": ""
    },
    {
      "groupId": 133408028,
      "mapInstId": 28003,
      "followMoveAttachPoint": "",
      "IGGMJDGPILL": {
        "2": "UnderWaterFloat"
      },
      "uiIndicator": {
        "templateName": "Normal_Chest_Icon"
      },
      "rotateCoreCityName": ""
    },
    {
      "groupId": 133408029,
      "mapInstId": 29004,
      "followMoveAttachPoint": "",
      "IGGMJDGPILL": {
        "2": "UnderWaterFloat"
      },
      "uiIndicator": {
        "templateName": "Normal_Chest_Icon"
      },
      "rotateCoreCityName": ""
    },
    {
      "groupId": 133408033,
      "mapInstId": 33001,
      "followMoveAttachPoint": "",
      "IGGMJDGPILL": {
        "2": "UnderWater"
      },
      "uiIndicator": {
        "templateName": "Normal_Chest_Icon"
      },
      "rotateCoreCityName": ""
    },
    {
      "groupId": 133408033,
      "mapInstId": 33014,
      "followMoveAttachPoint": "",
      "rotateCoreCityName": "",
      "MDKMIMGLMLI": 15554385150675868598
    },
    {
      "groupId": 133408037,
      "mapInstId": 37010,
      "followMoveAttachPoint": "",
      "IGGMJDGPILL": {
        "2": "UnderWater"
      },
      "uiIndicator": {
        "templateName": "Normal_Chest_Icon"
      },
      "rotateCoreCityName": ""
    },
    {
      "groupId": 133408041,
      "mapInstId": 41011,
      "followMoveAttachPoint": "",
      "uiIndicator": {
        "templateName": "Normal_Chest_Icon"
      },
      "rotateCoreCityName": ""
    },
    {
      "groupId": 133408043,
      "mapInstId": 43004,
      "followMoveAttachPoint": "",
      "IGGMJDGPILL": {
        "2": "UnderWaterFloat"
      },
      "uiIndicator": {
        "templateName": "Normal_Chest_Icon"
      },
      "rotateCoreCityName": ""
    },
    {
      "groupId": 133408048,
      "mapInstId": 48006,
      "followMoveAttachPoint": "",
      "uiIndicator": {
        "templateName": "Normal_Chest_Icon"
      },
      "rotateCoreCityName": ""
    },
    {
      "groupId": 133408050,
      "mapInstId": 50025,
      "followMoveAttachPoint": "",
      "uiIndicator": {
        "templateName": "Normal_Chest_Icon"
      },
      "rotateCoreCityName": ""
    },
    {
      "groupId": 133408059,
      "mapInstId": 59001,
      "followMoveAttachPoint": "",
      "uiIndicator": {
        "templateName": "Normal_Chest_Icon"
      },
      "rotateCoreCityName": ""
    },
    {
      "groupId": 133408059,
      "mapInstId": 59002,
      "followMoveAttachPoint": "",
      "uiIndicator": {
        "templateName": "Normal_Chest_Icon"
      },
      "rotateCoreCityName": ""
    },
    {
      "groupId": 133408060,
      "mapInstId": 60002,
      "followMoveAttachPoint": "",
      "uiIndicator": {
        "templateName": "Normal_Chest_Icon"
      },
      "rotateCoreCityName": ""
    },
    {
      "groupId": 133408063,
      "mapInstId": 63006,
      "followMoveAttachPoint": "",
      "uiIndicator": {
        "templateName": "Normal_Chest_Icon"
      },
      "rotateCoreCityName": ""
    },
    {
      "groupId": 133408065,
      "mapInstId": 65006,
      "followMoveAttachPoint": "",
      "uiIndicator": {
        "templateName": "Normal_Chest_Icon"
      },
      "rotateCoreCityName": ""
    },
    {
      "groupId": 133408068,
      "mapInstId": 68001,
      "followMoveAttachPoint": "",
      "rotateCoreCityName": "",
      "routeID": 340800092
    },
    {
      "groupId": 133408068,
      "mapInstId": 68005,
      "followMoveAttachPoint": "",
      "IGGMJDGPILL": {
        "2": "UnderWater"
      },
      "uiIndicator": {
        "templateName": "Normal_Chest_Icon"
      },
      "rotateCoreCityName": ""
    },
    {
      "groupId": 133408070,
      "mapInstId": 70002,
      "followMoveAttachPoint": "",
      "IGGMJDGPILL": {
        "2": "UnderWaterFloat"
      },
      "uiIndicator": {
        "templateName": "Normal_Chest_Icon"
      },
      "rotateCoreCityName": ""
    },
    {
      "groupId": 133408087,
      "mapInstId": 87010,
      "followMoveAttachPoint": "",
      "uiIndicator": {
        "templateName": "Normal_Chest_Icon"
      },
      "rotateCoreCityName": ""
    },
    {
      "groupId": 133408090,
      "mapInstId": 90002,
      "followMoveAttachPoint": "",
      "IGGMJDGPILL": {
        "2": "UnderWaterFloat"
      },
      "uiIndicator": {
        "templateName": "Normal_Chest_Icon"
      },
      "rotateCoreCityName": ""
    },
    {
      "groupId": 133408100,
      "mapInstId": 100001,
      "followMoveAttachPoint": "",
      "uiIndicator": {
        "templateName": "GadgetCreate_Icon"
      },
      "rotateCoreCityName": ""
    },
    {
      "groupId": 133408100,
      "mapInstId": 100003,
      "followMoveAttachPoint": "",
      "IGGMJDGPILL": {
        "2": "UnderWaterFloat"
      },
      "uiIndicator": {
        "templateName": "Normal_Chest_Icon"
      },
      "rotateCoreCityName": ""
    },
    {
      "groupId": 133408100,
      "mapInstId": 100004,
      "followMoveAttachPoint": "",
      "uiIndicator": {
        "templateName": "GadgetCreate_Icon"
      },
      "rotateCoreCityName": ""
    },
    {
      "groupId": 133408100,
      "mapInstId": 100013,
      "followMoveAttachPoint": "",
      "uiIndicator": {
        "templateName": "GadgetCreate_Icon"
      },
      "rotateCoreCityName": ""
    },
    {
      "groupId": 133408100,
      "mapInstId": 100014,
      "followMoveAttachPoint": "",
      "uiIndicator": {
        "templateName": "GadgetCreate_Icon"
      },
      "rotateCoreCityName": ""
    },
    {
      "groupId": 133408100,
      "mapInstId": 100015,
      "followMoveAttachPoint": "",
      "uiIndicator": {
        "templateName": "GadgetCreate_Icon"
      },
      "rotateCoreCityName": ""
    },
    {
      "groupId": 133408105,
      "mapInstId": 105030,
      "followMoveAttachPoint": "",
      "uiIndicator": {
        "templateName": "Normal_Chest_Icon"
      },
      "rotateCoreCityName": ""
    },
    {
      "groupId": 133408108,
      "mapInstId": 108001,
      "followMoveAttachPoint": "",
      "uiIndicator": {
        "templateName": "Normal_Chest_Icon"
      },
      "rotateCoreCityName": ""
    },
    {
      "groupId": 133408113,
      "mapInstId": 113001,
      "followMoveAttachPoint": "",
      "uiIndicator": {
        "templateName": "GadgetCreate_Icon"
      },
      "rotateCoreCityName": ""
    },
    {
      "groupId": 133408113,
      "mapInstId": 113003,
      "followMoveAttachPoint": "",
      "IGGMJDGPILL": {
        "2": "UnderWaterFloat"
      },
      "uiIndicator": {
        "templateName": "Normal_Chest_Icon"
      },
      "rotateCoreCityName": ""
    },
    {
      "groupId": 133408113,
      "mapInstId": 113004,
      "followMoveAttachPoint": "",
      "uiIndicator": {
        "templateName": "GadgetCreate_Icon"
      },
      "rotateCoreCityName": ""
    },
    {
      "groupId": 133408113,
      "mapInstId": 113013,
      "followMoveAttachPoint": "",
      "uiIndicator": {
        "templateName": "GadgetCreate_Icon"
      },
      "rotateCoreCityName": ""
    },
    {
      "groupId": 133408113,
      "mapInstId": 113014,
      "followMoveAttachPoint": "",
      "uiIndicator": {
        "templateName": "GadgetCreate_Icon"
      },
      "rotateCoreCityName": ""
    },
    {
      "groupId": 133408113,
      "mapInstId": 113015,
      "followMoveAttachPoint": "",
      "uiIndicator": {
        "templateName": "GadgetCreate_Icon"
      },
      "rotateCoreCityName": ""
    },
    {
      "groupId": 133408113,
      "mapInstId": 113016,
      "followMoveAttachPoint": "",
      "uiIndicator": {
        "templateName": "GadgetCreate_Icon"
      },
      "rotateCoreCityName": ""
    },
    {
      "groupId": 133408113,
      "mapInstId": 113022,
      "followMoveAttachPoint": "",
      "uiIndicator": {
        "templateName": "GadgetCreate_Icon"
      },
      "rotateCoreCityName": ""
    },
    {
      "groupId": 133408113,
      "mapInstId": 113023,
      "followMoveAttachPoint": "",
      "uiIndicator": {
        "templateName": "GadgetCreate_Icon"
      },
      "rotateCoreCityName": ""
    },
    {
      "groupId": 133408113,
      "mapInstId": 113024,
      "followMoveAttachPoint": "",
      "uiIndicator": {
        "templateName": "GadgetCreate_Icon"
      },
      "rotateCoreCityName": ""
    },
    {
      "groupId": 133408113,
      "mapInstId": 113025,
      "followMoveAttachPoint": "",
      "uiIndicator": {
        "templateName": "GadgetCreate_Icon"
      },
      "rotateCoreCityName": ""
    },
    {
      "groupId": 133408113,
      "mapInstId": 113030,
      "followMoveAttachPoint": "",
      "uiIndicator": {
        "templateName": "GadgetCreate_Icon"
      },
      "rotateCoreCityName": ""
    },
    {
      "groupId": 133408114,
      "mapInstId": 114009,
      "followMoveAttachPoint": "",
      "uiIndicator": {
        "templateName": "Normal_Chest_Icon"
      },
      "rotateCoreCityName": ""
    },
    {
      "groupId": 133408123,
      "mapInstId": 123027,
      "followMoveAttachPoint": "",
      "uiIndicator": {
        "templateName": "Normal_Chest_Icon"
      },
      "rotateCoreCityName": ""
    },
    {
      "groupId": 133408128,
      "mapInstId": 128008,
      "followMoveAttachPoint": "",
      "IGGMJDGPILL": {
        "2": "UnderWater"
      },
      "uiIndicator": {
        "templateName": "Normal_Chest_Icon"
      },
      "rotateCoreCityName": ""
    },
    {
      "groupId": 133408132,
      "mapInstId": 132001,
      "followMoveAttachPoint": "",
      "IGGMJDGPILL": {
        "2": "UnderWaterFloat"
      },
      "uiIndicator": {
        "templateName": "Normal_Chest_Icon"
      },
      "rotateCoreCityName": ""
    },
    {
      "groupId": 133408134,
      "mapInstId": 134006,
      "followMoveAttachPoint": "",
      "IGGMJDGPILL": {
        "2": "UnderWater"
      },
      "uiIndicator": {
        "templateName": "Normal_Chest_Icon"
      },
      "rotateCoreCityName": ""
    },
    {
      "groupId": 133408135,
      "mapInstId": 135003,
      "followMoveAttachPoint": "",
      "uiIndicator": {
        "templateName": "Normal_Chest_Icon"
      },
      "rotateCoreCityName": ""
    },
    {
      "groupId": 133408138,
      "mapInstId": 138003,
      "followMoveAttachPoint": "",
      "IGGMJDGPILL": {
        "2": "UnderWaterFloat"
      },
      "uiIndicator": {
        "templateName": "Normal_Chest_Icon"
      },
      "rotateCoreCityName": ""
    },
    {
      "groupId": 133408141,
      "mapInstId": 141001,
      "followMoveAttachPoint": "",
      "uiIndicator": {
        "templateName": "Activity_UnderSeaCollection_Icon"
      },
      "rotateCoreCityName": ""
    },
    {
      "groupId": 133408145,
      "mapInstId": 145002,
      "followMoveAttachPoint": "",
      "uiIndicator": {
        "templateName": "Normal_Chest_Icon"
      },
      "rotateCoreCityName": ""
    },
    {
      "groupId": 133408147,
      "mapInstId": 147003,
      "followMoveAttachPoint": "",
      "IGGMJDGPILL": {
        "2": "UnderWaterFloat"
      },
      "uiIndicator": {
        "templateName": "Normal_Chest_Icon"
      },
      "rotateCoreCityName": ""
    },
    {
      "groupId": 133408174,
      "mapInstId": 174003,
      "followMoveAttachPoint": "",
      "uiIndicator": {
        "templateName": "Normal_Chest_Icon"
      },
      "rotateCoreCityName": ""
    },
    {
      "groupId": 133408178,
      "mapInstId": 178002,
      "followMoveAttachPoint": "",
      "uiIndicator": {
        "templateName": "Normal_Chest_Icon"
      },
      "rotateCoreCityName": ""
    },
    {
      "groupId": 133408180,
      "mapInstId": 180002,
      "followMoveAttachPoint": "",
      "uiIndicator": {
        "templateName": "Normal_Chest_Icon"
      },
      "rotateCoreCityName": ""
    },
    {
      "groupId": 133408193,
      "mapInstId": 193005,
      "followMoveAttachPoint": "",
      "IGGMJDGPILL": {
        "2": "UnderWater"
      },
      "rotateCoreCityName": ""
    },
    {
      "groupId": 133408194,
      "mapInstId": 194001,
      "followMoveAttachPoint": "",
      "uiIndicator": {
        "templateName": "Normal_Chest_Icon"
      },
      "rotateCoreCityName": ""
    },
    {
      "groupId": 133408196,
      "mapInstId": 196002,
      "followMoveAttachPoint": "",
      "uiIndicator": {
        "templateName": "Normal_Chest_Icon"
      },
      "rotateCoreCityName": ""
    },
    {
      "groupId": 133408221,
      "mapInstId": 221003,
      "followMoveAttachPoint": "",
      "uiIndicator": {
        "templateName": "Normal_Chest_Icon"
      },
      "rotateCoreCityName": ""
    },
    {
      "groupId": 133408240,
      "mapInstId": 240005,
      "followMoveAttachPoint": "",
      "uiIndicator": {
        "templateName": "Normal_Chest_Icon"
      },
      "rotateCoreCityName": ""
    },
    {
      "groupId": 133408250,
      "mapInstId": 250002,
      "followMoveAttachPoint": "",
      "uiIndicator": {
        "templateName": "Normal_Chest_Icon"
      },
      "rotateCoreCityName": ""
    },
    {
      "groupId": 133408251,
      "mapInstId": 251001,
      "followMoveAttachPoint": "",
      "rotateCoreCityName": "",
      "AEPAEJMFHGI": 340800001
    },
    {
      "groupId": 133408252,
      "mapInstId": 252001,
      "followMoveAttachPoint": "",
      "rotateCoreCityName": "",
      "AEPAEJMFHGI": 340800002
    },
    {
      "groupId": 133408256,
      "mapInstId": 256002,
      "followMoveAttachPoint": "",
      "uiIndicator": {
        "templateName": "Normal_Chest_Icon"
      },
      "rotateCoreCityName": ""
    },
    {
      "groupId": 133408258,
      "mapInstId": 258013,
      "followMoveAttachPoint": "",
      "uiIndicator": {
        "templateName": "Normal_Chest_Icon"
      },
      "rotateCoreCityName": ""
    },
    {
      "groupId": 133408261,
      "mapInstId": 261008,
      "followMoveAttachPoint": "",
      "uiIndicator": {
        "templateName": "Normal_Chest_Icon"
      },
      "rotateCoreCityName": ""
    },
    {
      "groupId": 133408262,
      "mapInstId": 262001,
      "followMoveAttachPoint": "",
      "uiIndicator": {
        "templateName": "Activity_UnderSeaCollection_Icon"
      },
      "rotateCoreCityName": ""
    },
    {
      "groupId": 133408263,
      "mapInstId": 263005,
      "followMoveAttachPoint": "",
      "uiIndicator": {
        "templateName": "Normal_Chest_Icon"
      },
      "rotateCoreCityName": ""
    },
    {
      "groupId": 133408264,
      "mapInstId": 264001,
      "followMoveAttachPoint": "",
      "rotateCoreCityName": "",
      "routeID": 340800078
    },
    {
      "groupId": 133408264,
      "mapInstId": 264005,
      "followMoveAttachPoint": "",
      "IGGMJDGPILL": {
        "2": "UnderWaterFloat"
      },
      "uiIndicator": {
        "templateName": "Normal_Chest_Icon"
      },
      "rotateCoreCityName": ""
    },
    {
      "groupId": 133408264,
      "mapInstId": 264014,
      "followMoveAttachPoint": "",
      "rotateCoreCityName": "",
      "routeID": 340800079
    },
    {
      "groupId": 133408265,
      "mapInstId": 265017,
      "followMoveAttachPoint": "",
      "uiIndicator": {
        "templateName": "Normal_Chest_Icon"
      },
      "rotateCoreCityName": ""
    },
    {
      "groupId": 133408285,
      "mapInstId": 285002,
      "followMoveAttachPoint": "",
      "uiIndicator": {
        "templateName": "GadgetCreate_Icon"
      },
      "rotateCoreCityName": ""
    },
    {
      "groupId": 133408285,
      "mapInstId": 285003,
      "followMoveAttachPoint": "",
      "uiIndicator": {
        "templateName": "GadgetCreate_Icon"
      },
      "rotateCoreCityName": ""
    },
    {
      "groupId": 133408285,
      "mapInstId": 285004,
      "followMoveAttachPoint": "",
      "uiIndicator": {
        "templateName": "GadgetCreate_Icon"
      },
      "rotateCoreCityName": ""
    },
    {
      "groupId": 133408285,
      "mapInstId": 285006,
      "followMoveAttachPoint": "",
      "uiIndicator": {
        "templateName": "GadgetCreate_Icon"
      },
      "rotateCoreCityName": ""
    },
    {
      "groupId": 133408285,
      "mapInstId": 285007,
      "followMoveAttachPoint": "",
      "uiIndicator": {
        "templateName": "GadgetCreate_Icon"
      },
      "rotateCoreCityName": ""
    },
    {
      "groupId": 133408285,
      "mapInstId": 285008,
      "followMoveAttachPoint": "",
      "uiIndicator": {
        "templateName": "GadgetCreate_Icon"
      },
      "rotateCoreCityName": ""
    },
    {
      "groupId": 133408285,
      "mapInstId": 285009,
      "followMoveAttachPoint": "",
      "uiIndicator": {
        "templateName": "GadgetCreate_Icon"
      },
      "rotateCoreCityName": ""
    },
    {
      "groupId": 133408285,
      "mapInstId": 285010,
      "followMoveAttachPoint": "",
      "uiIndicator": {
        "templateName": "GadgetCreate_Icon"
      },
      "rotateCoreCityName": ""
    },
    {
      "groupId": 133408285,
      "mapInstId": 285011,
      "followMoveAttachPoint": "",
      "uiIndicator": {
        "templateName": "GadgetCreate_Icon"
      },
      "rotateCoreCityName": ""
    },
    {
      "groupId": 133408285,
      "mapInstId": 285012,
      "followMoveAttachPoint": "",
      "uiIndicator": {
        "templateName": "GadgetCreate_Icon"
      },
      "rotateCoreCityName": ""
    },
    {
      "groupId": 133408285,
      "mapInstId": 285013,
      "followMoveAttachPoint": "",
      "uiIndicator": {
        "templateName": "GadgetCreate_Icon"
      },
      "rotateCoreCityName": ""
    },
    {
      "groupId": 133408285,
      "mapInstId": 285014,
      "followMoveAttachPoint": "",
      "uiIndicator": {
        "templateName": "GadgetCreate_Icon"
      },
      "rotateCoreCityName": ""
    },
    {
      "groupId": 133408291,
      "mapInstId": 291001,
      "followMoveAttachPoint": "",
      "rotateCoreCityName": "",
      "AEPAEJMFHGI": 340800006
    },
    {
      "groupId": 133408295,
      "mapInstId": 295006,
      "followMoveAttachPoint": "",
      "uiIndicator": {
        "templateName": "Normal_Chest_Icon"
      },
      "rotateCoreCityName": ""
    },
    {
      "groupId": 133408299,
      "mapInstId": 299001,
      "followMoveAttachPoint": "",
      "rotateCoreCityName": "",
      "routeID": 340800080
    },
    {
      "groupId": 133408299,
      "mapInstId": 299005,
      "followMoveAttachPoint": "",
      "IGGMJDGPILL": {
        "2": "UnderWaterFloat"
      },
      "uiIndicator": {
        "templateName": "Normal_Chest_Icon"
      },
      "rotateCoreCityName": ""
    },
    {
      "groupId": 133408300,
      "mapInstId": 300001,
      "followMoveAttachPoint": "",
      "rotateCoreCityName": "",
      "routeID": 340800081
    },
    {
      "groupId": 133408300,
      "mapInstId": 300005,
      "followMoveAttachPoint": "",
      "IGGMJDGPILL": {
        "2": "UnderWaterFloat"
      },
      "uiIndicator": {
        "templateName": "Normal_Chest_Icon"
      },
      "rotateCoreCityName": ""
    },
    {
      "groupId": 133408301,
      "mapInstId": 301002,
      "followMoveAttachPoint": "",
      "rotateCoreCityName": "",
      "routeID": 340800094
    },
    {
      "groupId": 133408301,
      "mapInstId": 301017,
      "followMoveAttachPoint": "",
      "IGGMJDGPILL": {
        "2": "UnderWaterFloat"
      },
      "uiIndicator": {
        "templateName": "Normal_Chest_Icon"
      },
      "rotateCoreCityName": ""
    },
    {
      "groupId": 133408305,
      "mapInstId": 305002,
      "followMoveAttachPoint": "",
      "uiIndicator": {
        "templateName": "Normal_Chest_Icon"
      },
      "rotateCoreCityName": ""
    },
    {
      "groupId": 133408314,
      "mapInstId": 314001,
      "followMoveAttachPoint": "",
      "uiIndicator": {
        "templateName": "Normal_Chest_Icon"
      },
      "rotateCoreCityName": ""
    },
    {
      "groupId": 133408322,
      "mapInstId": 322001,
      "followMoveAttachPoint": "",
      "uiIndicator": {
        "templateName": "Normal_Chest_Icon"
      },
      "rotateCoreCityName": ""
    },
    {
      "groupId": 133408325,
      "mapInstId": 325011,
      "followMoveAttachPoint": "",
      "uiIndicator": {
        "templateName": "Normal_Chest_Icon"
      },
      "rotateCoreCityName": ""
    },
    {
      "groupId": 133408330,
      "mapInstId": 330004,
      "followMoveAttachPoint": "",
      "IGGMJDGPILL": {
        "2": "UnderWaterFloat"
      },
      "uiIndicator": {
        "templateName": "Normal_Chest_Icon"
      },
      "rotateCoreCityName": ""
    },
    {
      "groupId": 133408335,
      "mapInstId": 335011,
      "followMoveAttachPoint": "",
      "IGGMJDGPILL": {
        "2": "UnderWaterFloat"
      },
      "uiIndicator": {
        "templateName": "Normal_Chest_Icon"
      },
      "rotateCoreCityName": ""
    },
    {
      "groupId": 133408337,
      "mapInstId": 337009,
      "followMoveAttachPoint": "",
      "uiIndicator": {
        "templateName": "Normal_Chest_Icon"
      },
      "rotateCoreCityName": ""
    },
    {
      "groupId": 133408338,
      "mapInstId": 338002,
      "followMoveAttachPoint": "",
      "uiIndicator": {
        "templateName": "Normal_Chest_Icon"
      },
      "rotateCoreCityName": ""
    },
    {
      "groupId": 133408351,
      "mapInstId": 351014,
      "followMoveAttachPoint": "",
      "IGGMJDGPILL": {
        "2": "UnderWaterFloat"
      },
      "rotateCoreCityName": ""
    },
    {
      "groupId": 133408352,
      "mapInstId": 352016,
      "followMoveAttachPoint": "",
      "IGGMJDGPILL": {
        "2": "UnderWaterFloat"
      },
      "uiIndicator": {
        "templateName": "Normal_Chest_Icon"
      },
      "rotateCoreCityName": ""
    },
    {
      "groupId": 133408357,
      "mapInstId": 357002,
      "followMoveAttachPoint": "",
      "IGGMJDGPILL": {
        "2": "UnderWaterFloat"
      },
      "uiIndicator": {
        "templateName": "Normal_Chest_Icon"
      },
      "rotateCoreCityName": ""
    },
    {
      "groupId": 133408359,
      "mapInstId": 359058,
      "followMoveAttachPoint": "RootNode",
      "followMoveTargetInstanceId": 359006,
      "rotateCoreCityName": ""
    },
    {
      "groupId": 133408359,
      "mapInstId": 359059,
      "followMoveAttachPoint": "RootNode",
      "followMoveTargetInstanceId": 359013,
      "rotateCoreCityName": ""
    },
    {
      "groupId": 133408359,
      "mapInstId": 359060,
      "followMoveAttachPoint": "RootNode",
      "followMoveTargetInstanceId": 359014,
      "rotateCoreCityName": ""
    },
    {
      "groupId": 133408359,
      "mapInstId": 359061,
      "followMoveAttachPoint": "RootNode",
      "followMoveTargetInstanceId": 359017,
      "rotateCoreCityName": ""
    },
    {
      "groupId": 133408359,
      "mapInstId": 359062,
      "followMoveAttachPoint": "RootNode",
      "followMoveTargetInstanceId": 359025,
      "rotateCoreCityName": ""
    },
    {
      "groupId": 133408362,
      "mapInstId": 362017,
      "followMoveAttachPoint": "",
      "IGGMJDGPILL": {
        "2": "UnderWaterFloat"
      },
      "uiIndicator": {
        "templateName": "Normal_Chest_Icon"
      },
      "rotateCoreCityName": ""
    },
    {
      "groupId": 133408363,
      "mapInstId": 363004,
      "followMoveAttachPoint": "",
      "uiIndicator": {
        "templateName": "Normal_Chest_Icon"
      },
      "rotateCoreCityName": ""
    },
    {
      "groupId": 133408372,
      "mapInstId": 372001,
      "followMoveAttachPoint": "",
      "IGGMJDGPILL": {
        "2": "UnderWaterFloat"
      },
      "uiIndicator": {
        "templateName": "Normal_Chest_Icon"
      },
      "rotateCoreCityName": ""
    },
    {
      "groupId": 133408378,
      "mapInstId": 378003,
      "followMoveAttachPoint": "",
      "uiIndicator": {
        "templateName": "Normal_Chest_Icon"
      },
      "rotateCoreCityName": ""
    },
    {
      "groupId": 133408384,
      "mapInstId": 384006,
      "followMoveAttachPoint": "",
      "uiIndicator": {
        "templateName": "Normal_Chest_Icon"
      },
      "rotateCoreCityName": ""
    },
    {
      "groupId": 133408387,
      "mapInstId": 387003,
      "followMoveAttachPoint": "",
      "uiIndicator": {
        "templateName": "Normal_Chest_Icon"
      },
      "rotateCoreCityName": ""
    },
    {
      "groupId": 133408409,
      "mapInstId": 409004,
      "followMoveAttachPoint": "",
      "uiIndicator": {
        "templateName": "Normal_Chest_Icon"
      },
      "rotateCoreCityName": ""
    },
    {
      "groupId": 133408412,
      "mapInstId": 412004,
      "followMoveAttachPoint": "",
      "uiIndicator": {
        "templateName": "Normal_Chest_Icon"
      },
      "rotateCoreCityName": ""
    },
    {
      "groupId": 133408413,
      "mapInstId": 413001,
      "followMoveAttachPoint": "",
      "uiIndicator": {
        "templateName": "Normal_Chest_Icon"
      },
      "rotateCoreCityName": ""
    },
    {
      "groupId": 133408428,
      "mapInstId": 428001,
      "followMoveAttachPoint": "",
      "IGGMJDGPILL": {
        "2": "UnderWaterFloat"
      },
      "uiIndicator": {
        "templateName": "Normal_Chest_Icon"
      },
      "rotateCoreCityName": ""
    },
    {
      "groupId": 133408430,
      "mapInstId": 430021,
      "followMoveAttachPoint": "",
      "uiIndicator": {
        "templateName": "Normal_Chest_Icon"
      },
      "rotateCoreCityName": ""
    },
    {
      "groupId": 133408432,
      "mapInstId": 432002,
      "followMoveAttachPoint": "",
      "uiIndicator": {
        "templateName": "Normal_Chest_Icon"
      },
      "rotateCoreCityName": ""
    },
    {
      "groupId": 133408434,
      "mapInstId": 434002,
      "followMoveAttachPoint": "",
      "uiIndicator": {
        "templateName": "Normal_Chest_Icon"
      },
      "rotateCoreCityName": ""
    },
    {
      "groupId": 133408437,
      "mapInstId": 437003,
      "followMoveAttachPoint": "",
      "uiIndicator": {
        "templateName": "Normal_Chest_Icon"
      },
      "rotateCoreCityName": ""
    },
    {
      "groupId": 133408463,
      "mapInstId": 463001,
      "followMoveAttachPoint": "",
      "uiIndicator": {
        "templateName": "GadgetCreate_Icon"
      },
      "rotateCoreCityName": ""
    },
    {
      "groupId": 133408463,
      "mapInstId": 463003,
      "followMoveAttachPoint": "",
      "IGGMJDGPILL": {
        "2": "UnderWaterFloat"
      },
      "uiIndicator": {
        "templateName": "Normal_Chest_Icon"
      },
      "rotateCoreCityName": ""
    },
    {
      "groupId": 133408463,
      "mapInstId": 463014,
      "followMoveAttachPoint": "",
      "uiIndicator": {
        "templateName": "GadgetCreate_Icon"
      },
      "rotateCoreCityName": ""
    },
    {
      "groupId": 133408466,
      "mapInstId": 466001,
      "followMoveAttachPoint": "",
      "uiIndicator": {
        "templateName": "Normal_Chest_Icon"
      },
      "rotateCoreCityName": ""
    },
    {
      "groupId": 133408472,
      "mapInstId": 472003,
      "followMoveAttachPoint": "",
      "uiIndicator": {
        "templateName": "Normal_Chest_Icon"
      },
      "rotateCoreCityName": ""
    },
    {
      "groupId": 133408476,
      "mapInstId": 476001,
      "followMoveAttachPoint": "",
      "IGGMJDGPILL": {
        "2": "UnderWaterFloat"
      },
      "rotateCoreCityName": ""
    },
    {
      "groupId": 133408491,
      "mapInstId": 491013,
      "followMoveAttachPoint": "",
      "uiIndicator": {
        "templateName": "Normal_Chest_Icon"
      },
      "rotateCoreCityName": ""
    },
    {
      "groupId": 133408509,
      "mapInstId": 509002,
      "followMoveAttachPoint": "",
      "IGGMJDGPILL": {
        "2": "UnderWaterFloat"
      },
      "uiIndicator": {
        "templateName": "Normal_Chest_Icon"
      },
      "rotateCoreCityName": ""
    },
    {
      "groupId": 133408519,
      "mapInstId": 519018,
      "followMoveAttachPoint": "",
      "uiIndicator": {
        "templateName": "Normal_Chest_Icon"
      },
      "rotateCoreCityName": ""
    },
    {
      "groupId": 133408532,
      "mapInstId": 532005,
      "followMoveAttachPoint": "",
      "uiIndicator": {
        "templateName": "Normal_WorldTask_Icon_Platform"
      },
      "rotateCoreCityName": ""
    },
    {
      "groupId": 133408537,
      "mapInstId": 537007,
      "followMoveAttachPoint": "",
      "uiIndicator": {
        "templateName": "Normal_Chest_Icon"
      },
      "rotateCoreCityName": ""
    },
    {
      "groupId": 133408548,
      "mapInstId": 548001,
      "followMoveAttachPoint": "",
      "uiIndicator": {
        "templateName": "Normal_Chest_Icon"
      },
      "rotateCoreCityName": ""
    },
    {
      "groupId": 133408551,
      "mapInstId": 551006,
      "followMoveAttachPoint": "",
      "uiIndicator": {
        "templateName": "Normal_DailyTask_Icon",
        "paramDatas": {
          "TaskDummy": "EVENT_32573"
        }
      },
      "rotateCoreCityName": ""
    },
    {
      "groupId": 133408553,
      "mapInstId": 553002,
      "followMoveAttachPoint": "",
      "IGGMJDGPILL": {
        "2": "UnderWater"
      },
      "uiIndicator": {
        "templateName": "Normal_Chest_Icon"
      },
      "rotateCoreCityName": ""
    },
    {
      "groupId": 133408558,
      "mapInstId": 558006,
      "followMoveAttachPoint": "",
      "uiIndicator": {
        "templateName": "Normal_Chest_Icon"
      },
      "rotateCoreCityName": ""
    },
    {
      "groupId": 133408559,
      "mapInstId": 559003,
      "followMoveAttachPoint": "",
      "IGGMJDGPILL": {
        "2": "UnderWater"
      },
      "uiIndicator": {
        "templateName": "Normal_Chest_Icon"
      },
      "rotateCoreCityName": ""
    },
    {
      "groupId": 133408588,
      "mapInstId": 588003,
      "followMoveAttachPoint": "",
      "uiIndicator": {
        "templateName": "Normal_Chest_Icon"
      },
      "rotateCoreCityName": ""
    },
    {
      "groupId": 133408591,
      "mapInstId": 591009,
      "followMoveAttachPoint": "",
      "uiIndicator": {
        "templateName": "Blossom_Chest_Icon"
      },
      "rotateCoreCityName": ""
    },
    {
      "groupId": 133408592,
      "mapInstId": 592007,
      "followMoveAttachPoint": "",
      "uiIndicator": {
        "templateName": "Blossom_Chest_Icon"
      },
      "rotateCoreCityName": ""
    },
    {
      "groupId": 133408594,
      "mapInstId": 594007,
      "followMoveAttachPoint": "",
      "uiIndicator": {
        "templateName": "Blossom_Chest_Icon"
      },
      "rotateCoreCityName": ""
    },
    {
      "groupId": 133408595,
      "mapInstId": 595006,
      "followMoveAttachPoint": "",
      "uiIndicator": {
        "templateName": "Blossom_Chest_Icon"
      },
      "rotateCoreCityName": ""
    },
    {
      "groupId": 133408597,
      "mapInstId": 597004,
      "followMoveAttachPoint": "",
      "IGGMJDGPILL": {
        "2": "UnderWater"
      },
      "uiIndicator": {
        "templateName": "Normal_Chest_Icon"
      },
      "rotateCoreCityName": ""
    },
    {
      "groupId": 133408598,
      "mapInstId": 598001,
      "followMoveAttachPoint": "",
      "trigger": {
        "overrideCheckCount": true
      },
      "rotateCoreCityName": ""
    },
    {
      "groupId": 133408599,
      "mapInstId": 599009,
      "followMoveAttachPoint": "",
      "uiIndicator": {
        "templateName": "Blossom_Chest_Icon"
      },
      "rotateCoreCityName": ""
    },
    {
      "groupId": 133408601,
      "mapInstId": 601009,
      "followMoveAttachPoint": "",
      "uiIndicator": {
        "templateName": "Blossom_Chest_Icon"
      },
      "rotateCoreCityName": ""
    },
    {
      "groupId": 133408602,
      "mapInstId": 602009,
      "followMoveAttachPoint": "",
      "uiIndicator": {
        "templateName": "Blossom_Chest_Icon"
      },
      "rotateCoreCityName": ""
    },
    {
      "groupId": 133408603,
      "mapInstId": 603009,
      "followMoveAttachPoint": "",
      "uiIndicator": {
        "templateName": "Blossom_Chest_Icon"
      },
      "rotateCoreCityName": ""
    },
    {
      "groupId": 133408608,
      "mapInstId": 608001,
      "followMoveAttachPoint": "",
      "rotateCoreCityName": "",
      "routeID": 340800196
    },
    {
      "groupId": 133408608,
      "mapInstId": 608005,
      "followMoveAttachPoint": "",
      "IGGMJDGPILL": {
        "2": "UnderWaterFloat"
      },
      "uiIndicator": {
        "templateName": "Normal_Chest_Icon"
      },
      "rotateCoreCityName": ""
    },
    {
      "groupId": 133408614,
      "mapInstId": 614009,
      "followMoveAttachPoint": "",
      "uiIndicator": {
        "templateName": "Normal_DailyTask_Icon",
        "paramDatas": {
          "TaskDummy": "EVENT_32554"
        }
      },
      "rotateCoreCityName": ""
    },
    {
      "groupId": 133408614,
      "mapInstId": 614010,
      "followMoveAttachPoint": "",
      "uiIndicator": {
        "templateName": "Normal_DailyTask_Icon",
        "paramDatas": {
          "TaskDummy": "EVENT_32554"
        }
      },
      "rotateCoreCityName": ""
    },
    {
      "groupId": 133408623,
      "mapInstId": 623011,
      "followMoveAttachPoint": "",
      "uiIndicator": {
        "templateName": "Normal_Chest_Icon"
      },
      "rotateCoreCityName": ""
    },
    {
      "groupId": 133408623,
      "mapInstId": 623026,
      "followMoveAttachPoint": "",
      "uiIndicator": {
        "templateName": "Normal_Chest_Icon"
      },
      "rotateCoreCityName": ""
    },
    {
      "groupId": 133408624,
      "mapInstId": 624006,
      "followMoveAttachPoint": "",
      "uiIndicator": {
        "templateName": "Normal_WorldTask_Icon_Platform"
      },
      "rotateCoreCityName": ""
    },
    {
      "groupId": 133408629,
      "mapInstId": 629005,
      "followMoveAttachPoint": "",
      "uiIndicator": {
        "templateName": "Normal_WorldTask_Icon_Platform"
      },
      "rotateCoreCityName": ""
    },
    {
      "groupId": 133408633,
      "mapInstId": 633005,
      "followMoveAttachPoint": "",
      "uiIndicator": {
        "templateName": "Normal_WorldTask_Icon_Platform"
      },
      "rotateCoreCityName": ""
    },
    {
      "groupId": 133408641,
      "mapInstId": 641001,
      "followMoveAttachPoint": "",
      "uiIndicator": {
        "templateName": "GadgetCreate_Icon"
      },
      "rotateCoreCityName": ""
    },
    {
      "groupId": 133408641,
      "mapInstId": 641003,
      "followMoveAttachPoint": "",
      "uiIndicator": {
        "templateName": "Normal_Chest_Icon"
      },
      "rotateCoreCityName": ""
    },
    {
      "groupId": 133408641,
      "mapInstId": 641004,
      "followMoveAttachPoint": "",
      "uiIndicator": {
        "templateName": "GadgetCreate_Icon"
      },
      "rotateCoreCityName": ""
    },
    {
      "groupId": 133408641,
      "mapInstId": 641013,
      "followMoveAttachPoint": "",
      "uiIndicator": {
        "templateName": "GadgetCreate_Icon"
      },
      "rotateCoreCityName": ""
    },
    {
      "groupId": 133408641,
      "mapInstId": 641014,
      "followMoveAttachPoint": "",
      "uiIndicator": {
        "templateName": "GadgetCreate_Icon"
      },
      "rotateCoreCityName": ""
    },
    {
      "groupId": 133408641,
      "mapInstId": 641015,
      "followMoveAttachPoint": "",
      "uiIndicator": {
        "templateName": "GadgetCreate_Icon"
      },
      "rotateCoreCityName": ""
    },
    {
      "groupId": 133408641,
      "mapInstId": 641016,
      "followMoveAttachPoint": "",
      "uiIndicator": {
        "templateName": "GadgetCreate_Icon"
      },
      "rotateCoreCityName": ""
    },
    {
      "groupId": 133408641,
      "mapInstId": 641017,
      "followMoveAttachPoint": "",
      "uiIndicator": {
        "templateName": "GadgetCreate_Icon"
      },
      "rotateCoreCityName": ""
    },
    {
      "groupId": 133408641,
      "mapInstId": 641018,
      "followMoveAttachPoint": "",
      "uiIndicator": {
        "templateName": "GadgetCreate_Icon"
      },
      "rotateCoreCityName": ""
    },
    {
      "groupId": 133408641,
      "mapInstId": 641019,
      "followMoveAttachPoint": "",
      "uiIndicator": {
        "templateName": "GadgetCreate_Icon"
      },
      "rotateCoreCityName": ""
    },
    {
      "groupId": 133408641,
      "mapInstId": 641020,
      "followMoveAttachPoint": "",
      "uiIndicator": {
        "templateName": "GadgetCreate_Icon"
      },
      "rotateCoreCityName": ""
    },
    {
      "groupId": 133408641,
      "mapInstId": 641021,
      "followMoveAttachPoint": "",
      "uiIndicator": {
        "templateName": "GadgetCreate_Icon"
      },
      "rotateCoreCityName": ""
    },
    {
      "groupId": 133408641,
      "mapInstId": 641022,
      "followMoveAttachPoint": "",
      "uiIndicator": {
        "templateName": "GadgetCreate_Icon"
      },
      "rotateCoreCityName": ""
    },
    {
      "groupId": 133408641,
      "mapInstId": 641023,
      "followMoveAttachPoint": "",
      "uiIndicator": {
        "templateName": "GadgetCreate_Icon"
      },
      "rotateCoreCityName": ""
    },
    {
      "groupId": 133408641,
      "mapInstId": 641024,
      "followMoveAttachPoint": "",
      "uiIndicator": {
        "templateName": "GadgetCreate_Icon"
      },
      "rotateCoreCityName": ""
    },
    {
      "groupId": 133408642,
      "mapInstId": 642004,
      "followMoveAttachPoint": "",
      "uiIndicator": {
        "templateName": "Normal_Chest_Icon"
      },
      "rotateCoreCityName": ""
    },
    {
      "groupId": 133408646,
      "mapInstId": 646004,
      "followMoveAttachPoint": "",
      "uiIndicator": {
        "templateName": "Normal_Chest_Icon"
      },
      "rotateCoreCityName": ""
    },
    {
      "groupId": 133408655,
      "mapInstId": 655002,
      "followMoveAttachPoint": "",
      "uiIndicator": {
        "templateName": "Normal_Chest_Icon"
      },
      "rotateCoreCityName": ""
    },
    {
      "groupId": 133408664,
      "mapInstId": 664012,
      "followMoveAttachPoint": "",
      "uiIndicator": {
        "templateName": "Normal_DailyTask_Icon_StateChange"
      },
      "rotateCoreCityName": ""
    },
    {
      "groupId": 133408688,
      "mapInstId": 688009,
      "followMoveAttachPoint": "",
      "uiIndicator": {
        "templateName": "Normal_DailyTask_Icon",
        "paramDatas": {
          "TaskDummy": "EVENT_32555"
        }
      },
      "rotateCoreCityName": ""
    },
    {
      "groupId": 133408688,
      "mapInstId": 688010,
      "followMoveAttachPoint": "",
      "uiIndicator": {
        "templateName": "Normal_DailyTask_Icon",
        "paramDatas": {
          "TaskDummy": "EVENT_32555"
        }
      },
      "rotateCoreCityName": ""
    },
    {
      "groupId": 133408703,
      "mapInstId": 703002,
      "followMoveAttachPoint": "",
      "IGGMJDGPILL": {
        "2": "UnderWater"
      },
      "rotateCoreCityName": ""
    },
    {
      "groupId": 133408706,
      "mapInstId": 706002,
      "followMoveAttachPoint": "",
      "uiIndicator": {
        "templateName": "Normal_DailyTask_Icon",
        "paramDatas": {
          "TaskDummy": "EVENT_32612"
        }
      },
      "rotateCoreCityName": ""
    },
    {
      "groupId": 133408712,
      "mapInstId": 712009,
      "followMoveAttachPoint": "",
      "uiIndicator": {
        "templateName": "Normal_Chest_Icon"
      },
      "rotateCoreCityName": ""
    },
    {
      "groupId": 133408714,
      "mapInstId": 714011,
      "followMoveAttachPoint": "",
      "uiIndicator": {
        "templateName": "Normal_Chest_Icon"
      },
      "rotateCoreCityName": ""
    },
    {
      "groupId": 133408747,
      "mapInstId": 747002,
      "followMoveAttachPoint": "",
      "IGGMJDGPILL": {
        "2": "UnderWater"
      },
      "uiIndicator": {
        "templateName": "Normal_Chest_Icon"
      },
      "rotateCoreCityName": ""
    },
    {
      "groupId": 133408748,
      "mapInstId": 748001,
      "followMoveAttachPoint": "",
      "IGGMJDGPILL": {
        "2": "UnderWaterFloat"
      },
      "uiIndicator": {
        "templateName": "Normal_Chest_Icon"
      },
      "rotateCoreCityName": ""
    },
    {
      "groupId": 133408761,
      "mapInstId": 761003,
      "followMoveAttachPoint": "",
      "uiIndicator": {
        "templateName": "Normal_Chest_Icon"
      },
      "rotateCoreCityName": ""
    },
    {
      "groupId": 133408765,
      "mapInstId": 765002,
      "followMoveAttachPoint": "",
      "IGGMJDGPILL": {
        "2": "UnderWater"
      },
      "uiIndicator": {
        "templateName": "Normal_Chest_Icon"
      },
      "rotateCoreCityName": ""
    },
    {
      "groupId": 133408771,
      "mapInstId": 771002,
      "followMoveAttachPoint": "",
      "uiIndicator": {
        "templateName": "Normal_Chest_Icon"
      },
      "rotateCoreCityName": ""
    },
    {
      "groupId": 133408773,
      "mapInstId": 773003,
      "followMoveAttachPoint": "",
      "uiIndicator": {
        "templateName": "Normal_Chest_Icon"
      },
      "rotateCoreCityName": ""
    },
    {
      "groupId": 133408790,
      "mapInstId": 790009,
      "followMoveAttachPoint": "",
      "uiIndicator": {
        "templateName": "Normal_Chest_Icon"
      },
      "rotateCoreCityName": ""
    },
    {
      "groupId": 133408791,
      "mapInstId": 791003,
      "followMoveAttachPoint": "",
      "IGGMJDGPILL": {
        "2": "UnderWater"
      },
      "uiIndicator": {
        "templateName": "Normal_Chest_Icon"
      },
      "rotateCoreCityName": ""
    },
    {
      "groupId": 133408795,
      "mapInstId": 795001,
      "followMoveAttachPoint": "",
      "uiIndicator": {
        "templateName": "Normal_Chest_Icon"
      },
      "rotateCoreCityName": ""
    },
    {
      "groupId": 133408799,
      "mapInstId": 799005,
      "followMoveAttachPoint": "",
      "IGGMJDGPILL": {
        "2": "UnderWater"
      },
      "rotateCoreCityName": ""
    },
    {
      "groupId": 133408808,
      "mapInstId": 808010,
      "followMoveAttachPoint": "",
      "uiIndicator": {
        "templateName": "Normal_Chest_Icon"
      },
      "rotateCoreCityName": ""
    },
    {
      "groupId": 133408818,
      "mapInstId": 818001,
      "followMoveAttachPoint": "",
      "IGGMJDGPILL": {
        "2": "UnderWaterFloat"
      },
      "rotateCoreCityName": ""
    },
    {
      "groupId": 133408826,
      "mapInstId": 826001,
      "followMoveAttachPoint": "",
      "uiIndicator": {
        "templateName": "GadgetCreate_Icon"
      },
      "rotateCoreCityName": ""
    },
    {
      "groupId": 133408826,
      "mapInstId": 826003,
      "followMoveAttachPoint": "",
      "IGGMJDGPILL": {
        "2": "UnderWaterFloat"
      },
      "uiIndicator": {
        "templateName": "Normal_Chest_Icon"
      },
      "rotateCoreCityName": ""
    },
    {
      "groupId": 133408826,
      "mapInstId": 826004,
      "followMoveAttachPoint": "",
      "uiIndicator": {
        "templateName": "GadgetCreate_Icon"
      },
      "rotateCoreCityName": ""
    },
    {
      "groupId": 133408826,
      "mapInstId": 826013,
      "followMoveAttachPoint": "",
      "uiIndicator": {
        "templateName": "GadgetCreate_Icon"
      },
      "rotateCoreCityName": ""
    },
    {
      "groupId": 133408826,
      "mapInstId": 826014,
      "followMoveAttachPoint": "",
      "uiIndicator": {
        "templateName": "GadgetCreate_Icon"
      },
      "rotateCoreCityName": ""
    },
    {
      "groupId": 133408826,
      "mapInstId": 826015,
      "followMoveAttachPoint": "",
      "uiIndicator": {
        "templateName": "GadgetCreate_Icon"
      },
      "rotateCoreCityName": ""
    },
    {
      "groupId": 133408826,
      "mapInstId": 826016,
      "followMoveAttachPoint": "",
      "uiIndicator": {
        "templateName": "GadgetCreate_Icon"
      },
      "rotateCoreCityName": ""
    },
    {
      "groupId": 133408826,
      "mapInstId": 826017,
      "followMoveAttachPoint": "",
      "uiIndicator": {
        "templateName": "GadgetCreate_Icon"
      },
      "rotateCoreCityName": ""
    },
    {
      "groupId": 133408826,
      "mapInstId": 826018,
      "followMoveAttachPoint": "",
      "uiIndicator": {
        "templateName": "GadgetCreate_Icon"
      },
      "rotateCoreCityName": ""
    },
    {
      "groupId": 133408826,
      "mapInstId": 826019,
      "followMoveAttachPoint": "",
      "uiIndicator": {
        "templateName": "GadgetCreate_Icon"
      },
      "rotateCoreCityName": ""
    },
    {
      "groupId": 133408826,
      "mapInstId": 826020,
      "followMoveAttachPoint": "",
      "uiIndicator": {
        "templateName": "GadgetCreate_Icon"
      },
      "rotateCoreCityName": ""
    },
    {
      "groupId": 133408826,
      "mapInstId": 826021,
      "followMoveAttachPoint": "",
      "uiIndicator": {
        "templateName": "GadgetCreate_Icon"
      },
      "rotateCoreCityName": ""
    },
    {
      "groupId": 133408826,
      "mapInstId": 826022,
      "followMoveAttachPoint": "",
      "uiIndicator": {
        "templateName": "GadgetCreate_Icon"
      },
      "rotateCoreCityName": ""
    },
    {
      "groupId": 133408826,
      "mapInstId": 826023,
      "followMoveAttachPoint": "",
      "uiIndicator": {
        "templateName": "GadgetCreate_Icon"
      },
      "rotateCoreCityName": ""
    },
    {
      "groupId": 133408826,
      "mapInstId": 826024,
      "followMoveAttachPoint": "",
      "uiIndicator": {
        "templateName": "GadgetCreate_Icon"
      },
      "rotateCoreCityName": ""
    },
    {
      "groupId": 133408826,
      "mapInstId": 826025,
      "followMoveAttachPoint": "",
      "uiIndicator": {
        "templateName": "GadgetCreate_Icon"
      },
      "rotateCoreCityName": ""
    },
    {
      "groupId": 133408826,
      "mapInstId": 826026,
      "followMoveAttachPoint": "",
      "uiIndicator": {
        "templateName": "GadgetCreate_Icon"
      },
      "rotateCoreCityName": ""
    },
    {
      "groupId": 133408826,
      "mapInstId": 826027,
      "followMoveAttachPoint": "",
      "uiIndicator": {
        "templateName": "GadgetCreate_Icon"
      },
      "rotateCoreCityName": ""
    },
    {
      "groupId": 133408826,
      "mapInstId": 826028,
      "followMoveAttachPoint": "",
      "uiIndicator": {
        "templateName": "GadgetCreate_Icon"
      },
      "rotateCoreCityName": ""
    },
    {
      "groupId": 133408826,
      "mapInstId": 826029,
      "followMoveAttachPoint": "",
      "uiIndicator": {
        "templateName": "GadgetCreate_Icon"
      },
      "rotateCoreCityName": ""
    },
    {
      "groupId": 133408826,
      "mapInstId": 826030,
      "followMoveAttachPoint": "",
      "uiIndicator": {
        "templateName": "GadgetCreate_Icon"
      },
      "rotateCoreCityName": ""
    },
    {
      "groupId": 133408826,
      "mapInstId": 826031,
      "followMoveAttachPoint": "",
      "uiIndicator": {
        "templateName": "GadgetCreate_Icon"
      },
      "rotateCoreCityName": ""
    },
    {
      "groupId": 133408826,
      "mapInstId": 826032,
      "followMoveAttachPoint": "",
      "uiIndicator": {
        "templateName": "GadgetCreate_Icon"
      },
      "rotateCoreCityName": ""
    },
    {
      "groupId": 133408826,
      "mapInstId": 826033,
      "followMoveAttachPoint": "",
      "uiIndicator": {
        "templateName": "GadgetCreate_Icon"
      },
      "rotateCoreCityName": ""
    },
    {
      "groupId": 133408826,
      "mapInstId": 826034,
      "followMoveAttachPoint": "",
      "uiIndicator": {
        "templateName": "GadgetCreate_Icon"
      },
      "rotateCoreCityName": ""
    },
    {
      "groupId": 133408826,
      "mapInstId": 826035,
      "followMoveAttachPoint": "",
      "uiIndicator": {
        "templateName": "GadgetCreate_Icon"
      },
      "rotateCoreCityName": ""
    },
    {
      "groupId": 133408826,
      "mapInstId": 826036,
      "followMoveAttachPoint": "",
      "uiIndicator": {
        "templateName": "GadgetCreate_Icon"
      },
      "rotateCoreCityName": ""
    },
    {
      "groupId": 133408826,
      "mapInstId": 826037,
      "followMoveAttachPoint": "",
      "uiIndicator": {
        "templateName": "GadgetCreate_Icon"
      },
      "rotateCoreCityName": ""
    },
    {
      "groupId": 133408829,
      "mapInstId": 829006,
      "followMoveAttachPoint": "",
      "IGGMJDGPILL": {
        "2": "UnderWaterFloat"
      },
      "uiIndicator": {
        "templateName": "Normal_Chest_Icon"
      },
      "rotateCoreCityName": ""
    },
    {
      "groupId": 133408836,
      "mapInstId": 836002,
      "followMoveAttachPoint": "",
      "IGGMJDGPILL": {
        "2": "UnderWaterFloat"
      },
      "uiIndicator": {
        "templateName": "Normal_Chest_Icon"
      },
      "rotateCoreCityName": ""
    },
    {
      "groupId": 133408838,
      "mapInstId": 838002,
      "followMoveAttachPoint": "",
      "IGGMJDGPILL": {
        "2": "UnderWaterFloat"
      },
      "uiIndicator": {
        "templateName": "Normal_Chest_Icon"
      },
      "rotateCoreCityName": ""
    },
    {
      "groupId": 133408839,
      "mapInstId": 839006,
      "followMoveAttachPoint": "",
      "IGGMJDGPILL": {
        "2": "UnderWaterFloat"
      },
      "uiIndicator": {
        "templateName": "Normal_Chest_Icon"
      },
      "rotateCoreCityName": ""
    },
    {
      "groupId": 133408841,
      "mapInstId": 841003,
      "followMoveAttachPoint": "",
      "IGGMJDGPILL": {
        "2": "UnderWaterFloat"
      },
      "uiIndicator": {
        "templateName": "Normal_Chest_Icon"
      },
      "rotateCoreCityName": ""
    },
    {
      "groupId": 133408843,
      "mapInstId": 843001,
      "followMoveAttachPoint": "",
      "rotateCoreCityName": "",
      "routeID": 340800202
    },
    {
      "groupId": 133408843,
      "mapInstId": 843005,
      "followMoveAttachPoint": "",
      "IGGMJDGPILL": {
        "2": "UnderWaterFloat"
      },
      "uiIndicator": {
        "templateName": "Normal_Chest_Icon"
      },
      "rotateCoreCityName": ""
    },
    {
      "groupId": 133408844,
      "mapInstId": 844003,
      "followMoveAttachPoint": "",
      "IGGMJDGPILL": {
        "2": "UnderWaterFloat"
      },
      "uiIndicator": {
        "templateName": "Normal_Chest_Icon"
      },
      "rotateCoreCityName": ""
    },
    {
      "groupId": 133408845,
      "mapInstId": 845017,
      "followMoveAttachPoint": "",
      "IGGMJDGPILL": {
        "2": "UnderWaterFloat"
      },
      "uiIndicator": {
        "templateName": "Normal_Chest_Icon"
      },
      "rotateCoreCityName": ""
    },
    {
      "groupId": 133408848,
      "mapInstId": 848002,
      "followMoveAttachPoint": "",
      "IGGMJDGPILL": {
        "2": "UnderWaterFloat"
      },
      "uiIndicator": {
        "templateName": "Normal_Chest_Icon"
      },
      "rotateCoreCityName": ""
    },
    {
      "groupId": 133408852,
      "mapInstId": 852002,
      "followMoveAttachPoint": "",
      "IGGMJDGPILL": {
        "2": "UnderWaterFloat"
      },
      "uiIndicator": {
        "templateName": "Normal_Chest_Icon"
      },
      "rotateCoreCityName": ""
    },
    {
      "groupId": 133408859,
      "mapInstId": 859002,
      "followMoveAttachPoint": "",
      "IGGMJDGPILL": {
        "2": "UnderWaterFloat"
      },
      "uiIndicator": {
        "templateName": "Normal_Chest_Icon"
      },
      "rotateCoreCityName": ""
    },
    {
      "groupId": 133408860,
      "mapInstId": 860009,
      "followMoveAttachPoint": "",
      "uiIndicator": {
        "templateName": "Normal_Chest_Icon"
      },
      "rotateCoreCityName": ""
    },
    {
      "groupId": 133408862,
      "mapInstId": 862003,
      "followMoveAttachPoint": "",
      "IGGMJDGPILL": {
        "2": "UnderWaterFloat"
      },
      "uiIndicator": {
        "templateName": "Normal_Chest_Icon"
      },
      "rotateCoreCityName": ""
    },
    {
      "groupId": 133408865,
      "mapInstId": 865004,
      "followMoveAttachPoint": "",
      "IGGMJDGPILL": {
        "2": "UnderWaterFloat"
      },
      "uiIndicator": {
        "templateName": "Normal_Chest_Icon"
      },
      "rotateCoreCityName": ""
    },
    {
      "groupId": 133408874,
      "mapInstId": 874002,
      "followMoveAttachPoint": "",
      "IGGMJDGPILL": {
        "2": "UnderWater"
      },
      "uiIndicator": {
        "templateName": "Normal_Chest_Icon"
      },
      "rotateCoreCityName": ""
    },
    {
      "groupId": 133408876,
      "mapInstId": 876005,
      "followMoveAttachPoint": "",
      "IGGMJDGPILL": {
        "2": "UnderWaterFloat"
      },
      "uiIndicator": {
        "templateName": "Normal_Chest_Icon"
      },
      "rotateCoreCityName": ""
    },
    {
      "groupId": 133408916,
      "mapInstId": 916011,
      "followMoveAttachPoint": "",
      "IGGMJDGPILL": {
        "2": "UnderWaterFloat"
      },
      "uiIndicator": {
        "templateName": "Normal_Chest_Icon"
      },
      "rotateCoreCityName": ""
    },
    {
      "groupId": 133408920,
      "mapInstId": 920002,
      "followMoveAttachPoint": "",
      "uiIndicator": {
        "templateName": "Normal_Chest_Icon"
      },
      "rotateCoreCityName": ""
    },
    {
      "groupId": 133408923,
      "mapInstId": 923001,
      "followMoveAttachPoint": "",
      "rotateCoreCityName": "",
      "routeID": 340800236
    },
    {
      "groupId": 133408924,
      "mapInstId": 924001,
      "followMoveAttachPoint": "",
      "rotateCoreCityName": "",
      "routeID": 340800237
    },
    {
      "groupId": 133408933,
      "mapInstId": 933010,
      "followMoveAttachPoint": "",
      "uiIndicator": {
        "templateName": "TreasureSeekingSeelie_Fontaine_EnergyBallMark"
      },
      "rotateCoreCityName": ""
    },
    {
      "groupId": 133408933,
      "mapInstId": 933019,
      "followMoveAttachPoint": "",
      "IGGMJDGPILL": {
        "2": "UnderWater"
      },
      "uiIndicator": {
        "templateName": "Normal_Chest_Icon"
      },
      "rotateCoreCityName": ""
    },
    {
      "groupId": 133408933,
      "mapInstId": 933052,
      "followMoveAttachPoint": "",
      "uiIndicator": {
        "templateName": "TreasureSeekingSeelie_Fontaine_EnergyBallMark"
      },
      "rotateCoreCityName": ""
    },
    {
      "groupId": 133408933,
      "mapInstId": 933069,
      "followMoveAttachPoint": "",
      "uiIndicator": {
        "templateName": "TreasureSeekingSeelie_Fontaine_EnergyBallMark"
      },
      "rotateCoreCityName": ""
    },
    {
      "groupId": 133408933,
      "mapInstId": 933070,
      "followMoveAttachPoint": "RootNode",
      "followMoveTargetInstanceId": 933001,
      "rotateCoreCityName": ""
    },
    {
      "groupId": 133408933,
      "mapInstId": 933071,
      "followMoveAttachPoint": "RootNode",
      "followMoveTargetInstanceId": 933002,
      "rotateCoreCityName": ""
    },
    {
      "groupId": 133408933,
      "mapInstId": 933072,
      "followMoveAttachPoint": "RootNode",
      "followMoveTargetInstanceId": 933003,
      "rotateCoreCityName": ""
    }
  ]
}