{
  "sceneId": 3,
  "gadgets": [
    {
      "groupId": 133003027,
      "mapInstId": 1353,
      "followMoveAttachPoint": "",
      "uiIndicator": {
        "templateName": "Normal_Chest_Icon"
      },
      "rotateCoreCityName": ""
    },
    {
      "groupId": 133003130,
      "mapInstId": 2609,
      "followMoveAttachPoint": "",
      "uiIndicator": {
        "templateName": "Normal_Chest_Icon"
      },
      "rotateCoreCityName": ""
    },
    {
      "groupId": 133003023,
      "mapInstId": 2612,
      "followMoveAttachPoint": "",
      "uiIndicator": {
        "templateName": "Normal_Chest_Icon"
      },
      "rotateCoreCityName": ""
    },
    {
      "groupId": 133003151,
      "mapInstId": 2616,
      "followMoveAttachPoint": "",
      "uiIndicator": {
        "templateName": "Normal_Chest_Icon"
      },
      "rotateCoreCityName": ""
    },
    {
      "groupId": 133003178,
      "mapInstId": 2845,
      "followMoveAttachPoint": "",
      "uiIndicator": {
        "templateName": "Normal_Chest_Icon"
      },
      "rotateCoreCityName": ""
    },
    {
      "groupId": 133003178,
      "mapInstId": 2847,
      "followMoveAttachPoint": "",
      "uiIndicator": {
        "templateName": "Normal_Chest_Icon"
      },
      "rotateCoreCityName": ""
    },
    {
      "groupId": 133003184,
      "mapInstId": 2857,
      "followMoveAttachPoint": "",
      "uiIndicator": {
        "templateName": "Normal_Chest_Icon"
      },
      "rotateCoreCityName": ""
    },
    {
      "groupId": 133003444,
      "mapInstId": 2858,
      "followMoveAttachPoint": "",
      "uiIndicator": {
        "templateName": "Normal_Chest_Icon"
      },
      "rotateCoreCityName": ""
    },
    {
      "groupId": 133003196,
      "mapInstId": 2910,
      "followMoveAttachPoint": "",
      "uiIndicator": {
        "templateName": "Normal_Chest_Icon"
      },
      "rotateCoreCityName": ""
    },
    {
      "groupId": 133003212,
      "mapInstId": 2972,
      "followMoveAttachPoint": "",
      "uiIndicator": {
        "templateName": "Normal_Chest_Icon"
      },
      "rotateCoreCityName": ""
    },
    {
      "groupId": 133003215,
      "mapInstId": 2975,
      "followMoveAttachPoint": "",
      "uiIndicator": {
        "templateName": "Normal_Chest_Icon"
      },
      "rotateCoreCityName": ""
    },
    {
      "groupId": 133003218,
      "mapInstId": 2978,
      "followMoveAttachPoint": "",
      "uiIndicator": {
        "templateName": "Normal_Chest_Icon"
      },
      "rotateCoreCityName": ""
    },
    {
      "groupId": 133003221,
      "mapInstId": 2993,
      "followMoveAttachPoint": "",
      "uiIndicator": {
        "templateName": "Normal_Chest_Icon"
      },
      "rotateCoreCityName": ""
    },
    {
      "groupId": 133003279,
      "mapInstId": 3029,
      "followMoveAttachPoint": "",
      "uiIndicator": {
        "templateName": "Normal_Chest_Icon"
      },
      "rotateCoreCityName": ""
    },
    {
      "groupId": 133003286,
      "mapInstId": 3138,
      "followMoveAttachPoint": "",
      "uiIndicator": {
        "templateName": "Normal_Chest_Icon"
      },
      "rotateCoreCityName": ""
    },
    {
      "groupId": 133003291,
      "mapInstId": 3143,
      "followMoveAttachPoint": "",
      "uiIndicator": {
        "templateName": "Normal_Chest_Icon"
      },
      "rotateCoreCityName": ""
    },
    {
      "groupId": 133003316,
      "mapInstId": 3286,
      "followMoveAttachPoint": "",
      "uiIndicator": {
        "templateName": "Normal_Chest_Icon"
      },
      "rotateCoreCityName": ""
    },
    {
      "groupId": 133003319,
      "mapInstId": 3301,
      "followMoveAttachPoint": "",
      "uiIndicator": {
        "templateName": "Normal_Chest_Icon"
      },
      "rotateCoreCityName": ""
    },
    {
      "groupId": 133003323,
      "mapInstId": 3310,
      "followMoveAttachPoint": "",
      "uiIndicator": {
        "templateName": "Normal_Chest_Icon"
      },
      "rotateCoreCityName": ""
    },
    {
      "groupId": 133003326,
      "mapInstId": 3331,
      "followMoveAttachPoint": "",
      "uiIndicator": {
        "templateName": "Normal_Chest_Icon"
      },
      "rotateCoreCityName": ""
    },
    {
      "groupId": 133003340,
      "mapInstId": 3388,
      "followMoveAttachPoint": "",
      "uiIndicator": {
        "templateName": "Normal_Chest_Icon"
      },
      "rotateCoreCityName": ""
    },
    {
      "groupId": 133003283,
      "mapInstId": 3401,
      "followMoveAttachPoint": "",
      "uiIndicator": {
        "templateName": "Normal_Chest_Icon"
      },
      "rotateCoreCityName": ""
    },
    {
      "groupId": 133003319,
      "mapInstId": 3417,
      "followMoveAttachPoint": "",
      "billboardHideUIBarDis": 107.80000305175781,
      "rotateCoreCityName": ""
    },
    {
      "groupId": 133003317,
      "mapInstId": 3426,
      "followMoveAttachPoint": "",
      "uiIndicator": {
        "templateName": "Normal_Chest_Icon"
      },
      "rotateCoreCityName": ""
    },
    {
      "groupId": 133003352,
      "mapInstId": 3483,
      "followMoveAttachPoint": "",
      "uiIndicator": {
        "templateName": "Normal_Chest_Icon"
      },
      "rotateCoreCityName": ""
    },
    {
      "groupId": 133003123,
      "mapInstId": 3814,
      "followMoveAttachPoint": "",
      "uiIndicator": {
        "templateName": "Normal_Chest_Icon"
      },
      "rotateCoreCityName": ""
    },
    {
      "groupId": 133003290,
      "mapInstId": 3960,
      "followMoveAttachPoint": "",
      "uiIndicator": {
        "templateName": "Normal_Chest_Icon"
      },
      "rotateCoreCityName": ""
    },
    {
      "groupId": 133003165,
      "mapInstId": 4038,
      "followMoveAttachPoint": "",
      "uiIndicator": {
        "templateName": "Normal_Chest_Icon"
      },
      "rotateCoreCityName": ""
    },
    {
      "groupId": 133003421,
      "mapInstId": 4048,
      "followMoveAttachPoint": "",
      "uiIndicator": {
        "templateName": "Normal_Chest_Icon"
      },
      "rotateCoreCityName": ""
    },
    {
      "groupId": 133003434,
      "mapInstId": 4109,
      "followMoveAttachPoint": "",
      "uiIndicator": {
        "templateName": "Normal_Chest_Icon"
      },
      "rotateCoreCityName": ""
    },
    {
      "groupId": 133003170,
      "mapInstId": 4110,
      "followMoveAttachPoint": "",
      "uiIndicator": {
        "templateName": "Normal_Chest_Icon"
      },
      "rotateCoreCityName": ""
    },
    {
      "groupId": 133003439,
      "mapInstId": 4115,
      "followMoveAttachPoint": "",
      "uiIndicator": {
        "templateName": "Normal_Chest_Icon"
      },
      "rotateCoreCityName": ""
    },
    {
      "groupId": 133003136,
      "mapInstId": 4125,
      "followMoveAttachPoint": "",
      "uiIndicator": {
        "templateName": "Normal_Chest_Icon"
      },
      "rotateCoreCityName": ""
    },
    {
      "groupId": 133003437,
      "mapInstId": 4140,
      "followMoveAttachPoint": "",
      "uiIndicator": {
        "templateName": "Normal_Chest_Icon"
      },
      "rotateCoreCityName": ""
    },
    {
      "groupId": 133003378,
      "mapInstId": 4156,
      "followMoveAttachPoint": "",
      "uiIndicator": {
        "templateName": "Normal_Chest_Icon"
      },
      "rotateCoreCityName": ""
    },
    {
      "groupId": 133003443,
      "mapInstId": 4182,
      "followMoveAttachPoint": "",
      "uiIndicator": {
        "templateName": "Normal_Chest_Icon"
      },
      "rotateCoreCityName": ""
    },
    {
      "groupId": 133003455,
      "mapInstId": 4286,
      "followMoveAttachPoint": "",
      "uiIndicator": {
        "templateName": "Normal_DailyTask_Icon",
        "paramDatas": {
          "TaskDummy": "Event_10301",
          "TaskDummyS": "30"
        }
      },
      "rotateCoreCityName": ""
    },
    {
      "groupId": 133003455,
      "mapInstId": 4287,
      "followMoveAttachPoint": "",
      "uiIndicator": {
        "templateName": "Normal_DailyTask_Icon",
        "paramDatas": {
          "TaskDummy": "Event_10301",
          "TaskDummyS": "30"
        }
      },
      "rotateCoreCityName": ""
    },
    {
      "groupId": 133003482,
      "mapInstId": 4352,
      "followMoveAttachPoint": "",
      "uiIndicator": {
        "templateName": "Normal_Chest_Icon"
      },
      "rotateCoreCityName": ""
    },
    {
      "groupId": 133003486,
      "mapInstId": 4471,
      "followMoveAttachPoint": "",
      "uiIndicator": {
        "templateName": "ChestUnlock_Icon"
      },
      "rotateCoreCityName": ""
    },
    {
      "groupId": 133003041,
      "mapInstId": 41036,
      "followMoveAttachPoint": "",
      "uiIndicator": {
        "templateName": "Normal_Chest_Icon"
      },
      "rotateCoreCityName": ""
    },
    {
      "groupId": 133003042,
      "mapInstId": 42047,
      "followMoveAttachPoint": "",
      "uiIndicator": {
        "templateName": "Normal_Chest_Icon"
      },
      "rotateCoreCityName": ""
    },
    {
      "groupId": 133003048,
      "mapInstId": 48059,
      "followMoveAttachPoint": "",
      "uiIndicator": {
        "templateName": "Normal_Chest_Icon"
      },
      "rotateCoreCityName": ""
    },
    {
      "groupId": 133003062,
      "mapInstId": 62001,
      "followMoveAttachPoint": "",
      "uiIndicator": {
        "templateName": "UI_NPCTopIcon_Blessing"
      },
      "rotateCoreCityName": ""
    },
    {
      "groupId": 133003075,
      "mapInstId": 75001,
      "followMoveAttachPoint": "",
      "billboardHasUIBar": true,
      "billboardShowUIBarDis": 39.0,
      "billboardHideUIBarDis": 40.0,
      "uiIndicator": {
        "templateName": "Normal_DailyTask_Icon_Platform"
      },
      "rotateCoreCityName": ""
    },
    {
      "groupId": 133003076,
      "mapInstId": 76001,
      "followMoveAttachPoint": "",
      "billboardHasUIBar": true,
      "billboardShowUIBarDis": 39.0,
      "billboardHideUIBarDis": 40.0,
      "uiIndicator": {
        "templateName": "Normal_DailyTask_Icon_Platform"
      },
      "rotateCoreCityName": ""
    },
    {
      "groupId": 133003080,
      "mapInstId": 80016,
      "followMoveAttachPoint": "",
      "billboardHasUIBar": true,
      "billboardShowUIBarDis": 39.0,
      "billboardHideUIBarDis": 40.0,
      "uiIndicator": {
        "templateName": "Normal_DailyTask_Icon_Platform"
      },
      "rotateCoreCityName": ""
    },
    {
      "groupId": 133003092,
      "mapInstId": 92006,
      "followMoveAttachPoint": "",
      "uiIndicator": {
        "templateName": "Normal_Chest_Icon"
      },
      "rotateCoreCityName": ""
    },
    {
      "groupId": 133003095,
      "mapInstId": 95002,
      "followMoveAttachPoint": "",
      "uiIndicator": {
        "templateName": "Normal_Chest_Icon"
      },
      "rotateCoreCityName": ""
    },
    {
      "groupId": 133003096,
      "mapInstId": 96005,
      "followMoveAttachPoint": "",
      "uiIndicator": {
        "templateName": "Normal_Chest_Icon"
      },
      "rotateCoreCityName": ""
    },
    {
      "groupId": 133003101,
      "mapInstId": 101001,
      "followMoveAttachPoint": "",
      "uiIndicator": {
        "templateName": "UI_NPCTopIcon_Blessing"
      },
      "rotateCoreCityName": ""
    },
    {
      "groupId": 133003112,
      "mapInstId": 112004,
      "followMoveAttachPoint": "",
      "uiIndicator": {
        "templateName": "Normal_Chest_Icon"
      },
      "rotateCoreCityName": ""
    },
    {
      "groupId": 133003127,
      "mapInstId": 127004,
      "followMoveAttachPoint": "",
      "uiIndicator": {
        "templateName": "Normal_Chest_Icon"
      },
      "rotateCoreCityName": ""
    },
    {
      "groupId": 133003174,
      "mapInstId": 174004,
      "followMoveAttachPoint": "",
      "uiIndicator": {
        "templateName": "Normal_Chest_Icon"
      },
      "rotateCoreCityName": ""
    },
    {
      "groupId": 133003280,
      "mapInstId": 280004,
      "followMoveAttachPoint": "",
      "uiIndicator": {
        "templateName": "Normal_Chest_Icon"
      },
      "rotateCoreCityName": ""
    },
    {
      "groupId": 133003280,
      "mapInstId": 280014,
      "followMoveAttachPoint": "",
      "uiIndicator": {
        "templateName": "GadgetCreate_Icon"
      },
      "rotateCoreCityName": ""
    },
    {
      "groupId": 133003315,
      "mapInstId": 315004,
      "followMoveAttachPoint": "",
      "uiIndicator": {
        "templateName": "Normal_Chest_Icon"
      },
      "rotateCoreCityName": ""
    },
    {
      "groupId": 133003336,
      "mapInstId": 336004,
      "followMoveAttachPoint": "",
      "uiIndicator": {
        "templateName": "Normal_Chest_Icon"
      },
      "rotateCoreCityName": ""
    },
    {
      "groupId": 133003381,
      "mapInstId": 381004,
      "followMoveAttachPoint": "",
      "uiIndicator": {
        "templateName": "Normal_Chest_Icon"
      },
      "rotateCoreCityName": ""
    },
    {
      "groupId": 133003396,
      "mapInstId": 396004,
      "followMoveAttachPoint": "",
      "uiIndicator": {
        "templateName": "Normal_Chest_Icon"
      },
      "rotateCoreCityName": ""
    },
    {
      "groupId": 133003402,
      "mapInstId": 402004,
      "followMoveAttachPoint": "",
      "uiIndicator": {
        "templateName": "Normal_Chest_Icon"
      },
      "rotateCoreCityName": ""
    },
    {
      "groupId": 133003411,
      "mapInstId": 411004,
      "followMoveAttachPoint": "",
      "uiIndicator": {
        "templateName": "Normal_Chest_Icon"
      },
      "rotateCoreCityName": ""
    },
    {
      "groupId": 133003427,
      "mapInstId": 427004,
      "followMoveAttachPoint": "",
      "uiIndicator": {
        "templateName": "Normal_Chest_Icon"
      },
      "rotateCoreCityName": ""
    },
    {
      "groupId": 133003506,
      "mapInstId": 506004,
      "followMoveAttachPoint": "",
      "uiIndicator": {
        "templateName": "Normal_Chest_Icon"
      },
      "rotateCoreCityName": ""
    },
    {
      "groupId": 133003509,
      "mapInstId": 509001,
      "followMoveAttachPoint": "",
      "billboardShowUIBarDis": 39.0,
      "billboardHideUIBarDis": 40.0,
      "uiIndicator": {
        "templateName": "Normal_DailyTask_Icon_Platform"
      },
      "rotateCoreCityName": ""
    },
    {
      "groupId": 133003511,
      "mapInstId": 511006,
      "followMoveAttachPoint": "",
      "uiIndicator": {
        "templateName": "Normal_Chest_Icon"
      },
      "rotateCoreCityName": ""
    },
    {
      "groupId": 133003513,
      "mapInstId": 513004,
      "followMoveAttachPoint": "",
      "uiIndicator": {
        "templateName": "Normal_Chest_Icon"
      },
      "rotateCoreCityName": ""
    },
    {
      "groupId": 133003515,
      "mapInstId": 515001,
      "followMoveAttachPoint": "",
      "uiIndicator": {
        "templateName": "Normal_Chest_Icon"
      },
      "rotateCoreCityName": ""
    },
    {
      "groupId": 133003516,
      "mapInstId": 516006,
      "followMoveAttachPoint": "",
      "uiIndicator": {
        "templateName": "Blossom_Chest_Icon"
      },
      "rotateCoreCityName": ""
    },
    {
      "groupId": 133003517,
      "mapInstId": 517006,
      "followMoveAttachPoint": "",
      "uiIndicator": {
        "templateName": "Blossom_Chest_Icon"
      },
      "rotateCoreCityName": ""
    },
    {
      "groupId": 133003521,
      "mapInstId": 521015,
      "followMoveAttachPoint": "",
      "billboardShowUIBarDis": 39.0,
      "billboardHideUIBarDis": 40.0,
      "uiIndicator": {
        "templateName": "Normal_DailyTask_Icon_HillCart"
      },
      "rotateCoreCityName": ""
    },
    {
      "groupId": 133003523,
      "mapInstId": 523006,
      "followMoveAttachPoint": "",
      "uiIndicator": {
        "templateName": "Normal_Chest_Icon"
      },
      "rotateCoreCityName": ""
    },
    {
      "groupId": 133003524,
      "mapInstId": 524002,
      "followMoveAttachPoint": "",
      "uiIndicator": {
        "templateName": "Normal_Chest_Icon"
      },
      "rotateCoreCityName": ""
    },
    {
      "groupId": 133003526,
      "mapInstId": 526005,
      "followMoveAttachPoint": "",
      "uiIndicator": {
        "templateName": "Normal_Chest_Icon"
      },
      "rotateCoreCityName": ""
    },
    {
      "groupId": 133003527,
      "mapInstId": 527004,
      "followMoveAttachPoint": "",
      "uiIndicator": {
        "templateName": "ChestUnlock_Icon"
      },
      "rotateCoreCityName": ""
    },
    {
      "groupId": 133003528,
      "mapInstId": 528005,
      "followMoveAttachPoint": "",
      "uiIndicator": {
        "templateName": "Normal_Chest_Icon"
      },
      "rotateCoreCityName": ""
    },
    {
      "groupId": 133003529,
      "mapInstId": 529004,
      "followMoveAttachPoint": "",
      "uiIndicator": {
        "templateName": "ChestUnlock_Icon"
      },
      "rotateCoreCityName": ""
    },
    {
      "groupId": 133003530,
      "mapInstId": 530002,
      "followMoveAttachPoint": "",
      "uiIndicator": {
        "templateName": "Normal_Chest_Icon"
      },
      "rotateCoreCityName": ""
    },
    {
      "groupId": 133003532,
      "mapInstId": 532014,
      "followMoveAttachPoint": "",
      "uiIndicator": {
        "templateName": "Normal_Chest_Icon"
      },
      "rotateCoreCityName": ""
    },
    {
      "groupId": 133003533,
      "mapInstId": 533005,
      "followMoveAttachPoint": "",
      "uiIndicator": {
        "templateName": "Normal_Chest_Icon"
      },
      "rotateCoreCityName": ""
    },
    {
      "groupId": 133003534,
      "mapInstId": 534004,
      "followMoveAttachPoint": "",
      "billboardHasUIBar": true,
      "billboardShowUIBarDis": 39.0,
      "billboardHideUIBarDis": 40.0,
      "uiIndicator": {
        "templateName": "Normal_DailyTask_Icon_Platform"
      },
      "rotateCoreCityName": ""
    },
    {
      "groupId": 133003535,
      "mapInstId": 535010,
      "followMoveAttachPoint": "",
      "uiIndicator": {
        "templateName": "Blossom_Chest_Icon"
      },
      "rotateCoreCityName": ""
    },
    {
      "groupId": 133003537,
      "mapInstId": 537011,
      "followMoveAttachPoint": "",
      "uiIndicator": {
        "templateName": "Blossom_Chest_Icon"
      },
      "rotateCoreCityName": ""
    },
    {
      "groupId": 133003539,
      "mapInstId": 539009,
      "followMoveAttachPoint": "",
      "uiIndicator": {
        "templateName": "Normal_DailyTask_Icon_GuidePoint"
      },
      "rotateCoreCityName": ""
    },
    {
      "groupId": 133003539,
      "mapInstId": 539011,
      "followMoveAttachPoint": "",
      "uiIndicator": {
        "templateName": "Normal_DailyTask_Icon_GuidePoint"
      },
      "rotateCoreCityName": ""
    },
    {
      "groupId": 133003539,
      "mapInstId": 539013,
      "followMoveAttachPoint": "",
      "uiIndicator": {
        "templateName": "Normal_DailyTask_Icon_GuidePoint"
      },
      "rotateCoreCityName": ""
    },
    {
      "groupId": 133003539,
      "mapInstId": 539015,
      "followMoveAttachPoint": "",
      "uiIndicator": {
        "templateName": "Normal_DailyTask_Icon_GuidePoint"
      },
      "rotateCoreCityName": ""
    },
    {
      "groupId": 133003539,
      "mapInstId": 539016,
      "followMoveAttachPoint": "",
      "uiIndicator": {
        "templateName": "Normal_DailyTask_Icon_GravityBoard"
      },
      "rotateCoreCityName": ""
    },
    {
      "groupId": 133003539,
      "mapInstId": 539032,
      "followMoveAttachPoint": "",
      "uiIndicator": {
        "templateName": "Normal_DailyTask_Icon_GuidePoint"
      },
      "rotateCoreCityName": ""
    },
    {
      "groupId": 133003539,
      "mapInstId": 539039,
      "followMoveAttachPoint": "",
      "uiIndicator": {
        "templateName": "Normal_DailyTask_Icon_GuidePoint"
      },
      "rotateCoreCityName": ""
    },
    {
      "groupId": 133003543,
      "mapInstId": 543003,
      "followMoveAttachPoint": "",
      "uiIndicator": {
        "templateName": "Normal_Chest_Icon"
      },
      "rotateCoreCityName": ""
    },
    {
      "groupId": 133003544,
      "mapInstId": 544006,
      "followMoveAttachPoint": "",
      "uiIndicator": {
        "templateName": "Blossom_Chest_Icon"
      },
      "rotateCoreCityName": ""
    },
    {
      "groupId": 133003564,
      "mapInstId": 564010,
      "followMoveAttachPoint": "",
      "uiIndicator": {
        "templateName": "Blossom_Chest_Icon"
      },
      "rotateCoreCityName": ""
    },
    {
      "groupId": 133003565,
      "mapInstId": 565010,
      "followMoveAttachPoint": "",
      "uiIndicator": {
        "templateName": "Blossom_Chest_Icon"
      },
      "rotateCoreCityName": ""
    },
    {
      "groupId": 133003566,
      "mapInstId": 566011,
      "followMoveAttachPoint": "",
      "uiIndicator": {
        "templateName": "Blossom_Chest_Icon"
      },
      "rotateCoreCityName": ""
    },
    {
      "groupId": 133003567,
      "mapInstId": 567011,
      "followMoveAttachPoint": "",
      "uiIndicator": {
        "templateName": "Blossom_Chest_Icon"
      },
      "rotateCoreCityName": ""
    },
    {
      "groupId": 133003569,
      "mapInstId": 569011,
      "followMoveAttachPoint": "",
      "uiIndicator": {
        "templateName": "Blossom_Chest_Icon"
      },
      "rotateCoreCityName": ""
    },
    {
      "groupId": 133003570,
      "mapInstId": 570010,
      "followMoveAttachPoint": "",
      "uiIndicator": {
        "templateName": "Blossom_Chest_Icon"
      },
      "rotateCoreCityName": ""
    },
    {
      "groupId": 133003571,
      "mapInstId": 571011,
      "followMoveAttachPoint": "",
      "uiIndicator": {
        "templateName": "Blossom_Chest_Icon"
      },
      "rotateCoreCityName": ""
    },
    {
      "groupId": 133003581,
      "mapInstId": 581006,
      "followMoveAttachPoint": "",
      "uiIndicator": {
        "templateName": "Blossom_Chest_Icon"
      },
      "rotateCoreCityName": ""
    },
    {
      "groupId": 133003586,
      "mapInstId": 586001,
      "followMoveAttachPoint": "",
      "uiIndicator": {
        "templateName": "Normal_Chest_Icon"
      },
      "rotateCoreCityName": ""
    },
    {
      "groupId": 133003587,
      "mapInstId": 587002,
      "followMoveAttachPoint": "",
      "uiIndicator": {
        "templateName": "Normal_Chest_Icon"
      },
      "rotateCoreCityName": ""
    },
    {
      "groupId": 133003588,
      "mapInstId": 588002,
      "followMoveAttachPoint": "",
      "uiIndicator": {
        "templateName": "Normal_Chest_Icon"
      },
      "rotateCoreCityName": ""
    },
    {
      "groupId": 133003590,
      "mapInstId": 590001,
      "followMoveAttachPoint": "",
      "uiIndicator": {
        "templateName": "GadgetCreate_Icon"
      },
      "rotateCoreCityName": ""
    },
    {
      "groupId": 133003591,
      "mapInstId": 591001,
      "followMoveAttachPoint": "",
      "uiIndicator": {
        "templateName": "GadgetCreate_Icon"
      },
      "rotateCoreCityName": ""
    },
    {
      "groupId": 133003592,
      "mapInstId": 592001,
      "followMoveAttachPoint": "",
      "uiIndicator": {
        "templateName": "GadgetCreate_Icon"
      },
      "rotateCoreCityName": ""
    },
    {
      "groupId": 133003592,
      "mapInstId": 592003,
      "followMoveAttachPoint": "",
      "uiIndicator": {
        "templateName": "Normal_Chest_Icon"
      },
      "rotateCoreCityName": ""
    },
    {
      "groupId": 133003592,
      "mapInstId": 592004,
      "followMoveAttachPoint": "",
      "uiIndicator": {
        "templateName": "GadgetCreate_Icon"
      },
      "rotateCoreCityName": ""
    },
    {
      "groupId": 133003592,
      "mapInstId": 592012,
      "followMoveAttachPoint": "",
      "uiIndicator": {
        "templateName": "GadgetCreate_Icon"
      },
      "rotateCoreCityName": ""
    },
    {
      "groupId": 133003592,
      "mapInstId": 592013,
      "followMoveAttachPoint": "",
      "uiIndicator": {
        "templateName": "GadgetCreate_Icon"
      },
      "rotateCoreCityName": ""
    },
    {
      "groupId": 133003593,
      "mapInstId": 593003,
      "followMoveAttachPoint": "",
      "uiIndicator": {
        "templateName": "Normal_Chest_Icon"
      },
      "rotateCoreCityName": ""
    },
    {
      "groupId": 133003594,
      "mapInstId": 594001,
      "followMoveAttachPoint": "",
      "uiIndicator": {
        "templateName": "GadgetCreate_Icon"
      },
      "rotateCoreCityName": ""
    },
    {
      "groupId": 133003595,
      "mapInstId": 595003,
      "followMoveAttachPoint": "",
      "uiIndicator": {
        "templateName": "Normal_Chest_Icon"
      },
      "rotateCoreCityName": ""
    },
    {
      "groupId": 133003596,
      "mapInstId": 596001,
      "followMoveAttachPoint": "",
      "uiIndicator": {
        "templateName": "GadgetCreate_Icon"
      },
      "rotateCoreCityName": ""
    },
    {
      "groupId": 133003597,
      "mapInstId": 597008,
      "followMoveAttachPoint": "",
      "billboardShowUIBarDis": 39.0,
      "billboardHideUIBarDis": 40.0,
      "uiIndicator": {
        "templateName": "Normal_DailyTask_Icon_HillCart"
      },
      "rotateCoreCityName": ""
    },
    {
      "groupId": 133003795,
      "mapInstId": 795001,
      "followMoveAttachPoint": "",
      "billboardShowUIBarDis": 40.0,
      "billboardHideUIBarDis": 40.0,
      "uiIndicator": {
        "templateName": "FleurFairBalloonGame_Icon",
        "paramDatas": {
          "show_distance": "40",
          "hide_distance": "40"
        }
      },
      "rotateCoreCityName": ""
    },
    {
      "groupId": 133003796,
      "mapInstId": 796001,
      "followMoveAttachPoint": "",
      "billboardShowUIBarDis": 40.0,
      "billboardHideUIBarDis": 40.0,
      "uiIndicator": {
        "templateName": "FleurFairBalloonGame_Icon",
        "paramDatas": {
          "show_distance": "40",
          "hide_distance": "40"
        }
      },
      "rotateCoreCityName": ""
    }
  ]
}