{
  "sceneId": 7,
  "gadgets": [
    {
      "groupId": 177009010,
      "mapInstId": 10002,
      "followMoveAttachPoint": "",
      "uiIndicator": {
        "templateName": "Normal_Chest_Icon"
      },
      "rotateCoreCityName": ""
    },
    {
      "groupId": 177009011,
      "mapInstId": 11001,
      "followMoveAttachPoint": "",
      "uiIndicator": {
        "templateName": "Normal_Chest_Icon"
      },
      "rotateCoreCityName": ""
    }
  ]
}