{
  "sceneId": 3,
  "gadgets": [
    {
      "groupId": 133113008,
      "mapInstId": 8008,
      "followMoveAttachPoint": "",
      "uiIndicator": {
        "templateName": "Normal_BigWorld_Icon_GuidePoint"
      },
      "rotateCoreCityName": ""
    },
    {
      "groupId": 133113008,
      "mapInstId": 8010,
      "followMoveAttachPoint": "",
      "uiIndicator": {
        "templateName": "Normal_BigWorld_Icon_GuidePoint"
      },
      "rotateCoreCityName": ""
    },
    {
      "groupId": 133113008,
      "mapInstId": 8012,
      "followMoveAttachPoint": "",
      "uiIndicator": {
        "templateName": "Normal_BigWorld_Icon_GuidePoint"
      },
      "rotateCoreCityName": ""
    },
    {
      "groupId": 133113008,
      "mapInstId": 8014,
      "followMoveAttachPoint": "",
      "uiIndicator": {
        "templateName": "Normal_BigWorld_Icon_GuidePoint"
      },
      "rotateCoreCityName": ""
    },
    {
      "groupId": 133113010,
      "mapInstId": 10001,
      "followMoveAttachPoint": "",
      "uiIndicator": {
        "templateName": "CoinCollect_Board_Icon"
      },
      "rotateCoreCityName": ""
    }
  ]
}