{
  "sceneId": 3,
  "gadgets": [
    {
      "groupId": 133401001,
      "mapInstId": 1018,
      "followMoveAttachPoint": "",
      "uiIndicator": {
        "templateName": "Normal_Chest_Icon"
      },
      "rotateCoreCityName": ""
    },
    {
      "groupId": 133401004,
      "mapInstId": 4002,
      "followMoveAttachPoint": "",
      "IGGMJDGPILL": {
        "2": "UnderWater"
      },
      "uiIndicator": {
        "templateName": "Normal_Chest_Icon"
      },
      "rotateCoreCityName": ""
    },
    {
      "groupId": 133401009,
      "mapInstId": 9014,
      "followMoveAttachPoint": "",
      "IGGMJDGPILL": {
        "2": "UnderWater"
      },
      "uiIndicator": {
        "templateName": "Normal_Chest_Icon"
      },
      "rotateCoreCityName": ""
    },
    {
      "groupId": 133401010,
      "mapInstId": 10001,
      "followMoveAttachPoint": "",
      "rotateCoreCityName": "",
      "AEPAEJMFHGI": 340100001
    },
    {
      "groupId": 133401014,
      "mapInstId": 14001,
      "followMoveAttachPoint": "",
      "IGGMJDGPILL": {
        "2": "UnderWater"
      },
      "uiIndicator": {
        "templateName": "Normal_Chest_Icon"
      },
      "rotateCoreCityName": ""
    },
    {
      "groupId": 133401020,
      "mapInstId": 20004,
      "followMoveAttachPoint": "",
      "IGGMJDGPILL": {
        "2": "UnderWater"
      },
      "uiIndicator": {
        "templateName": "Normal_Chest_Icon"
      },
      "rotateCoreCityName": ""
    },
    {
      "groupId": 133401021,
      "mapInstId": 21001,
      "followMoveAttachPoint": "",
      "uiIndicator": {
        "templateName": "Normal_Chest_Icon"
      },
      "rotateCoreCityName": ""
    },
    {
      "groupId": 133401033,
      "mapInstId": 33003,
      "followMoveAttachPoint": "",
      "IGGMJDGPILL": {
        "2": "UnderWater"
      },
      "rotateCoreCityName": ""
    },
    {
      "groupId": 133401033,
      "mapInstId": 33018,
      "followMoveAttachPoint": "",
      "IGGMJDGPILL": {
        "2": "UnderWater"
      },
      "rotateCoreCityName": ""
    },
    {
      "groupId": 133401034,
      "mapInstId": 34008,
      "followMoveAttachPoint": "",
      "IGGMJDGPILL": {
        "2": "UnderWaterFloat"
      },
      "uiIndicator": {
        "templateName": "Normal_Chest_Icon"
      },
      "rotateCoreCityName": ""
    },
    {
      "groupId": 133401040,
      "mapInstId": 40004,
      "followMoveAttachPoint": "",
      "uiIndicator": {
        "templateName": "Normal_Chest_Icon"
      },
      "rotateCoreCityName": ""
    },
    {
      "groupId": 133401042,
      "mapInstId": 42002,
      "followMoveAttachPoint": "",
      "uiIndicator": {
        "templateName": "Normal_Chest_Icon"
      },
      "rotateCoreCityName": ""
    },
    {
      "groupId": 133401043,
      "mapInstId": 43020,
      "followMoveAttachPoint": "",
      "uiIndicator": {
        "templateName": "Normal_Chest_Icon"
      },
      "rotateCoreCityName": ""
    },
    {
      "groupId": 133401050,
      "mapInstId": 50001,
      "followMoveAttachPoint": "",
      "IGGMJDGPILL": {
        "2": "UnderWaterFloat"
      },
      "rotateCoreCityName": ""
    },
    {
      "groupId": 133401050,
      "mapInstId": 50013,
      "followMoveAttachPoint": "",
      "IGGMJDGPILL": {
        "2": "UnderWaterFloat"
      },
      "rotateCoreCityName": ""
    },
    {
      "groupId": 133401057,
      "mapInstId": 57003,
      "followMoveAttachPoint": "",
      "IGGMJDGPILL": {
        "2": "UnderWaterFloat"
      },
      "uiIndicator": {
        "templateName": "Normal_Chest_Icon"
      },
      "rotateCoreCityName": ""
    },
    {
      "groupId": 133401058,
      "mapInstId": 58002,
      "followMoveAttachPoint": "",
      "uiIndicator": {
        "templateName": "Normal_DailyTask_Icon",
        "paramDatas": {
          "TaskDummy": "EVENT_32611"
        }
      },
      "rotateCoreCityName": ""
    },
    {
      "groupId": 133401073,
      "mapInstId": 73002,
      "followMoveAttachPoint": "",
      "uiIndicator": {
        "templateName": "Normal_Chest_Icon"
      },
      "rotateCoreCityName": ""
    },
    {
      "groupId": 133401074,
      "mapInstId": 74004,
      "followMoveAttachPoint": "",
      "IGGMJDGPILL": {
        "2": "UnderWaterFloat"
      },
      "uiIndicator": {
        "templateName": "Normal_Chest_Icon"
      },
      "rotateCoreCityName": ""
    },
    {
      "groupId": 133401076,
      "mapInstId": 76003,
      "followMoveAttachPoint": "",
      "IGGMJDGPILL": {
        "2": "UnderWater"
      },
      "uiIndicator": {
        "templateName": "Normal_Chest_Icon"
      },
      "rotateCoreCityName": ""
    },
    {
      "groupId": 133401078,
      "mapInstId": 78001,
      "followMoveAttachPoint": "",
      "IGGMJDGPILL": {
        "2": "UnderWater"
      },
      "rotateCoreCityName": ""
    },
    {
      "groupId": 133401078,
      "mapInstId": 78008,
      "followMoveAttachPoint": "",
      "IGGMJDGPILL": {
        "2": "UnderWaterFloat"
      },
      "rotateCoreCityName": ""
    },
    {
      "groupId": 133401078,
      "mapInstId": 78013,
      "followMoveAttachPoint": "",
      "IGGMJDGPILL": {
        "2": "UnderWaterFloat"
      },
      "rotateCoreCityName": ""
    },
    {
      "groupId": 133401090,
      "mapInstId": 90002,
      "followMoveAttachPoint": "",
      "IGGMJDGPILL": {
        "2": "UnderWater"
      },
      "uiIndicator": {
        "templateName": "Normal_Chest_Icon"
      },
      "rotateCoreCityName": ""
    },
    {
      "groupId": 133401094,
      "mapInstId": 94010,
      "followMoveAttachPoint": "",
      "uiIndicator": {
        "templateName": "Normal_Quest_Icon_GuidePoint"
      },
      "rotateCoreCityName": ""
    },
    {
      "groupId": 133401097,
      "mapInstId": 97001,
      "followMoveAttachPoint": "",
      "IGGMJDGPILL": {
        "2": "UnderWater"
      },
      "rotateCoreCityName": ""
    },
    {
      "groupId": 133401097,
      "mapInstId": 97002,
      "followMoveAttachPoint": "",
      "IGGMJDGPILL": {
        "2": "UnderWaterFloat"
      },
      "rotateCoreCityName": ""
    },
    {
      "groupId": 133401097,
      "mapInstId": 97003,
      "followMoveAttachPoint": "",
      "IGGMJDGPILL": {
        "2": "UnderWater"
      },
      "rotateCoreCityName": ""
    },
    {
      "groupId": 133401097,
      "mapInstId": 97004,
      "followMoveAttachPoint": "",
      "IGGMJDGPILL": {
        "2": "UnderWater"
      },
      "rotateCoreCityName": ""
    },
    {
      "groupId": 133401097,
      "mapInstId": 97005,
      "followMoveAttachPoint": "",
      "IGGMJDGPILL": {
        "2": "UnderWater"
      },
      "rotateCoreCityName": ""
    },
    {
      "groupId": 133401097,
      "mapInstId": 97006,
      "followMoveAttachPoint": "",
      "IGGMJDGPILL": {
        "2": "UnderWater"
      },
      "rotateCoreCityName": ""
    },
    {
      "groupId": 133401097,
      "mapInstId": 97007,
      "followMoveAttachPoint": "",
      "IGGMJDGPILL": {
        "2": "UnderWaterFloat"
      },
      "rotateCoreCityName": ""
    },
    {
      "groupId": 133401097,
      "mapInstId": 97008,
      "followMoveAttachPoint": "",
      "IGGMJDGPILL": {
        "2": "UnderWaterFloat"
      },
      "rotateCoreCityName": ""
    },
    {
      "groupId": 133401097,
      "mapInstId": 97009,
      "followMoveAttachPoint": "",
      "IGGMJDGPILL": {
        "2": "UnderWaterFloat"
      },
      "rotateCoreCityName": ""
    },
    {
      "groupId": 133401097,
      "mapInstId": 97010,
      "followMoveAttachPoint": "",
      "IGGMJDGPILL": {
        "2": "UnderWater"
      },
      "rotateCoreCityName": ""
    },
    {
      "groupId": 133401100,
      "mapInstId": 100006,
      "followMoveAttachPoint": "",
      "IGGMJDGPILL": {
        "2": "UnderWater"
      },
      "rotateCoreCityName": ""
    },
    {
      "groupId": 133401101,
      "mapInstId": 101008,
      "followMoveAttachPoint": "",
      "IGGMJDGPILL": {
        "2": "UnderWaterFloat"
      },
      "rotateCoreCityName": ""
    },
    {
      "groupId": 133401103,
      "mapInstId": 103002,
      "followMoveAttachPoint": "",
      "IGGMJDGPILL": {
        "2": "UnderWaterFloat"
      },
      "uiIndicator": {
        "templateName": "Normal_Chest_Icon"
      },
      "rotateCoreCityName": ""
    },
    {
      "groupId": 133401106,
      "mapInstId": 106002,
      "followMoveAttachPoint": "",
      "billboardUIBarNeedEnterCombat": true,
      "rotateCoreCityName": ""
    },
    {
      "groupId": 133401123,
      "mapInstId": 123004,
      "followMoveAttachPoint": "",
      "uiIndicator": {
        "templateName": "Normal_Chest_Icon"
      },
      "rotateCoreCityName": ""
    },
    {
      "groupId": 133401125,
      "mapInstId": 125004,
      "followMoveAttachPoint": "",
      "uiIndicator": {
        "templateName": "Normal_Chest_Icon"
      },
      "rotateCoreCityName": ""
    },
    {
      "groupId": 133401128,
      "mapInstId": 128002,
      "followMoveAttachPoint": "",
      "IGGMJDGPILL": {
        "2": "UnderWater"
      },
      "rotateCoreCityName": ""
    },
    {
      "groupId": 133401128,
      "mapInstId": 128003,
      "followMoveAttachPoint": "",
      "IGGMJDGPILL": {
        "2": "UnderWaterFloat"
      },
      "rotateCoreCityName": ""
    },
    {
      "groupId": 133401132,
      "mapInstId": 132006,
      "followMoveAttachPoint": "",
      "IGGMJDGPILL": {
        "2": "UnderWaterFloat"
      },
      "uiIndicator": {
        "templateName": "Normal_Chest_Icon"
      },
      "rotateCoreCityName": ""
    },
    {
      "groupId": 133401150,
      "mapInstId": 150013,
      "followMoveAttachPoint": "",
      "IGGMJDGPILL": {
        "2": "UnderWater"
      },
      "uiIndicator": {
        "templateName": "Normal_Chest_Icon"
      },
      "rotateCoreCityName": ""
    },
    {
      "groupId": 133401155,
      "mapInstId": 155001,
      "followMoveAttachPoint": "",
      "IGGMJDGPILL": {
        "2": "UnderWater"
      },
      "rotateCoreCityName": ""
    },
    {
      "groupId": 133401158,
      "mapInstId": 158001,
      "followMoveAttachPoint": "",
      "rotateCoreCityName": "",
      "AEPAEJMFHGI": 340100003
    },
    {
      "groupId": 133401159,
      "mapInstId": 159007,
      "followMoveAttachPoint": "",
      "rotateCoreCityName": "",
      "MDKMIMGLMLI": 7996542159237463336
    },
    {
      "groupId": 133401159,
      "mapInstId": 159011,
      "followMoveAttachPoint": "",
      "rotateCoreCityName": "",
      "MDKMIMGLMLI": 16714431742047300396
    },
    {
      "groupId": 133401160,
      "mapInstId": 160004,
      "followMoveAttachPoint": "",
      "uiIndicator": {
        "templateName": "Normal_Chest_Icon"
      },
      "rotateCoreCityName": ""
    },
    {
      "groupId": 133401162,
      "mapInstId": 162001,
      "followMoveAttachPoint": "",
      "uiIndicator": {
        "templateName": "Normal_Chest_Icon"
      },
      "rotateCoreCityName": ""
    },
    {
      "groupId": 133401164,
      "mapInstId": 164029,
      "followMoveAttachPoint": "",
      "IGGMJDGPILL": {
        "2": "UnderWaterFloat"
      },
      "rotateCoreCityName": ""
    },
    {
      "groupId": 133401169,
      "mapInstId": 169002,
      "followMoveAttachPoint": "",
      "IGGMJDGPILL": {
        "2": "UnderWater"
      },
      "uiIndicator": {
        "templateName": "Normal_Chest_Icon"
      },
      "rotateCoreCityName": ""
    },
    {
      "groupId": 133401171,
      "mapInstId": 171001,
      "followMoveAttachPoint": "",
      "IGGMJDGPILL": {
        "2": "UnderWater"
      },
      "uiIndicator": {
        "templateName": "Normal_Chest_Icon"
      },
      "rotateCoreCityName": ""
    },
    {
      "groupId": 133401179,
      "mapInstId": 179004,
      "followMoveAttachPoint": "",
      "uiIndicator": {
        "templateName": "Normal_Chest_Icon"
      },
      "rotateCoreCityName": ""
    },
    {
      "groupId": 133401180,
      "mapInstId": 180002,
      "followMoveAttachPoint": "",
      "IGGMJDGPILL": {
        "2": "UnderWaterFloat"
      },
      "rotateCoreCityName": ""
    },
    {
      "groupId": 133401182,
      "mapInstId": 182004,
      "followMoveAttachPoint": "",
      "uiIndicator": {
        "templateName": "Normal_Chest_Icon"
      },
      "rotateCoreCityName": ""
    },
    {
      "groupId": 133401184,
      "mapInstId": 184001,
      "followMoveAttachPoint": "",
      "IGGMJDGPILL": {
        "2": "UnderWaterFloat"
      },
      "uiIndicator": {
        "templateName": "Normal_Chest_Icon"
      },
      "rotateCoreCityName": ""
    },
    {
      "groupId": 133401185,
      "mapInstId": 185017,
      "followMoveAttachPoint": "",
      "IGGMJDGPILL": {
        "2": "UnderWaterFloat"
      },
      "uiIndicator": {
        "templateName": "Normal_Chest_Icon"
      },
      "rotateCoreCityName": ""
    },
    {
      "groupId": 133401189,
      "mapInstId": 189001,
      "followMoveAttachPoint": "",
      "IGGMJDGPILL": {
        "2": "UnderWater"
      },
      "uiIndicator": {
        "templateName": "Normal_Chest_Icon"
      },
      "rotateCoreCityName": ""
    },
    {
      "groupId": 133401190,
      "mapInstId": 190004,
      "followMoveAttachPoint": "",
      "uiIndicator": {
        "templateName": "Normal_Chest_Icon"
      },
      "rotateCoreCityName": ""
    },
    {
      "groupId": 133401196,
      "mapInstId": 196003,
      "followMoveAttachPoint": "",
      "uiIndicator": {
        "templateName": "Normal_Chest_Icon"
      },
      "rotateCoreCityName": ""
    },
    {
      "groupId": 133401203,
      "mapInstId": 203006,
      "followMoveAttachPoint": "",
      "uiIndicator": {
        "templateName": "Normal_Chest_Icon"
      },
      "rotateCoreCityName": ""
    },
    {
      "groupId": 133401207,
      "mapInstId": 207001,
      "followMoveAttachPoint": "",
      "uiIndicator": {
        "templateName": "ToyBattle_Current_Icon"
      },
      "rotateCoreCityName": ""
    },
    {
      "groupId": 133401211,
      "mapInstId": 211004,
      "followMoveAttachPoint": "",
      "uiIndicator": {
        "templateName": "Normal_Chest_Icon"
      },
      "rotateCoreCityName": ""
    },
    {
      "groupId": 133401214,
      "mapInstId": 214001,
      "followMoveAttachPoint": "",
      "uiIndicator": {
        "templateName": "Normal_Chest_Icon"
      },
      "rotateCoreCityName": ""
    },
    {
      "groupId": 133401219,
      "mapInstId": 219001,
      "followMoveAttachPoint": "",
      "uiIndicator": {
        "templateName": "GadgetCreate_Icon"
      },
      "rotateCoreCityName": ""
    },
    {
      "groupId": 133401221,
      "mapInstId": 221003,
      "followMoveAttachPoint": "",
      "uiIndicator": {
        "templateName": "GadgetCreate_Icon"
      },
      "rotateCoreCityName": ""
    },
    {
      "groupId": 133401221,
      "mapInstId": 221004,
      "followMoveAttachPoint": "",
      "uiIndicator": {
        "templateName": "GadgetCreate_Icon"
      },
      "rotateCoreCityName": ""
    },
    {
      "groupId": 133401221,
      "mapInstId": 221008,
      "followMoveAttachPoint": "",
      "uiIndicator": {
        "templateName": "GadgetCreate_Icon"
      },
      "rotateCoreCityName": ""
    },
    {
      "groupId": 133401221,
      "mapInstId": 221009,
      "followMoveAttachPoint": "",
      "uiIndicator": {
        "templateName": "GadgetCreate_Icon"
      },
      "rotateCoreCityName": ""
    },
    {
      "groupId": 133401221,
      "mapInstId": 221010,
      "followMoveAttachPoint": "",
      "uiIndicator": {
        "templateName": "GadgetCreate_Icon"
      },
      "rotateCoreCityName": ""
    },
    {
      "groupId": 133401221,
      "mapInstId": 221011,
      "followMoveAttachPoint": "",
      "uiIndicator": {
        "templateName": "GadgetCreate_Icon"
      },
      "rotateCoreCityName": ""
    },
    {
      "groupId": 133401221,
      "mapInstId": 221012,
      "followMoveAttachPoint": "",
      "IGGMJDGPILL": {
        "2": "UnderWaterFloat"
      },
      "uiIndicator": {
        "templateName": "Normal_Chest_Icon"
      },
      "rotateCoreCityName": ""
    },
    {
      "groupId": 133401221,
      "mapInstId": 221013,
      "followMoveAttachPoint": "",
      "uiIndicator": {
        "templateName": "GadgetCreate_Icon"
      },
      "rotateCoreCityName": ""
    },
    {
      "groupId": 133401221,
      "mapInstId": 221014,
      "followMoveAttachPoint": "",
      "uiIndicator": {
        "templateName": "GadgetCreate_Icon"
      },
      "rotateCoreCityName": ""
    },
    {
      "groupId": 133401221,
      "mapInstId": 221018,
      "followMoveAttachPoint": "",
      "uiIndicator": {
        "templateName": "GadgetCreate_Icon"
      },
      "rotateCoreCityName": ""
    },
    {
      "groupId": 133401221,
      "mapInstId": 221019,
      "followMoveAttachPoint": "",
      "uiIndicator": {
        "templateName": "GadgetCreate_Icon"
      },
      "rotateCoreCityName": ""
    },
    {
      "groupId": 133401221,
      "mapInstId": 221022,
      "followMoveAttachPoint": "",
      "uiIndicator": {
        "templateName": "GadgetCreate_Icon"
      },
      "rotateCoreCityName": ""
    },
    {
      "groupId": 133401221,
      "mapInstId": 221023,
      "followMoveAttachPoint": "",
      "uiIndicator": {
        "templateName": "GadgetCreate_Icon"
      },
      "rotateCoreCityName": ""
    },
    {
      "groupId": 133401221,
      "mapInstId": 221024,
      "followMoveAttachPoint": "",
      "uiIndicator": {
        "templateName": "GadgetCreate_Icon"
      },
      "rotateCoreCityName": ""
    },
    {
      "groupId": 133401221,
      "mapInstId": 221025,
      "followMoveAttachPoint": "",
      "uiIndicator": {
        "templateName": "GadgetCreate_Icon"
      },
      "rotateCoreCityName": ""
    },
    {
      "groupId": 133401221,
      "mapInstId": 221026,
      "followMoveAttachPoint": "",
      "uiIndicator": {
        "templateName": "GadgetCreate_Icon"
      },
      "rotateCoreCityName": ""
    },
    {
      "groupId": 133401221,
      "mapInstId": 221027,
      "followMoveAttachPoint": "",
      "uiIndicator": {
        "templateName": "GadgetCreate_Icon"
      },
      "rotateCoreCityName": ""
    },
    {
      "groupId": 133401221,
      "mapInstId": 221029,
      "followMoveAttachPoint": "",
      "uiIndicator": {
        "templateName": "GadgetCreate_Icon"
      },
      "rotateCoreCityName": ""
    },
    {
      "groupId": 133401221,
      "mapInstId": 221031,
      "followMoveAttachPoint": "",
      "uiIndicator": {
        "templateName": "GadgetCreate_Icon"
      },
      "rotateCoreCityName": ""
    },
    {
      "groupId": 133401228,
      "mapInstId": 228002,
      "followMoveAttachPoint": "",
      "uiIndicator": {
        "templateName": "Normal_DailyTask_Icon_GuidePoint"
      },
      "rotateCoreCityName": ""
    },
    {
      "groupId": 133401228,
      "mapInstId": 228005,
      "followMoveAttachPoint": "",
      "uiIndicator": {
        "templateName": "Normal_DailyTask_Icon_GuidePoint"
      },
      "rotateCoreCityName": ""
    },
    {
      "groupId": 133401228,
      "mapInstId": 228006,
      "followMoveAttachPoint": "",
      "uiIndicator": {
        "templateName": "Normal_DailyTask_Icon_GravityBoard"
      },
      "rotateCoreCityName": ""
    },
    {
      "groupId": 133401228,
      "mapInstId": 228008,
      "followMoveAttachPoint": "",
      "uiIndicator": {
        "templateName": "Normal_DailyTask_Icon_GuidePoint"
      },
      "rotateCoreCityName": ""
    },
    {
      "groupId": 133401228,
      "mapInstId": 228010,
      "followMoveAttachPoint": "",
      "uiIndicator": {
        "templateName": "Normal_DailyTask_Icon_GuidePoint"
      },
      "rotateCoreCityName": ""
    },
    {
      "groupId": 133401228,
      "mapInstId": 228014,
      "followMoveAttachPoint": "",
      "uiIndicator": {
        "templateName": "Normal_DailyTask_Icon_GuidePoint"
      },
      "rotateCoreCityName": ""
    },
    {
      "groupId": 133401229,
      "mapInstId": 229006,
      "followMoveAttachPoint": "",
      "rotateCoreCityName": "",
      "OGNNEGCDJOF": [
        {
          "id": 1646086849,
          "BOEDGBKEFNH": {
            "x": 3226.89990234375,
            "y": 251.49229431152344,
            "z": 4172.6201171875
          },
          "rotation": {
            "y": 356.0260009765625
          }
        }
      ]
    },
    {
      "groupId": 133401229,
      "mapInstId": 229007,
      "followMoveAttachPoint": "",
      "rotateCoreCityName": "",
      "OGNNEGCDJOF": [
        {
          "id": 3277292,
          "BOEDGBKEFNH": {
            "x": 3226.2080078125,
            "y": 251.4604034423828,
            "z": 4182.60302734375
          },
          "rotation": {
            "y": 356.0260009765625
          }
        }
      ]
    },
    {
      "groupId": 133401230,
      "mapInstId": 230030,
      "followMoveAttachPoint": "",
      "uiIndicator": {
        "templateName": "ToyBattle_Current_Icon"
      },
      "rotateCoreCityName": ""
    },
    {
      "groupId": 133401233,
      "mapInstId": 233015,
      "followMoveAttachPoint": "",
      "uiIndicator": {
        "templateName": "Normal_Chest_Icon"
      },
      "rotateCoreCityName": ""
    },
    {
      "groupId": 133401236,
      "mapInstId": 236001,
      "followMoveAttachPoint": "",
      "rotateCoreCityName": "",
      "AEPAEJMFHGI": 340100007
    },
    {
      "groupId": 133401239,
      "mapInstId": 239001,
      "followMoveAttachPoint": "",
      "uiIndicator": {
        "templateName": "ToyBattle_Current_Icon"
      },
      "rotateCoreCityName": ""
    },
    {
      "groupId": 133401244,
      "mapInstId": 244020,
      "followMoveAttachPoint": "",
      "IGGMJDGPILL": {
        "2": "UnderWaterFloat"
      },
      "uiIndicator": {
        "templateName": "Normal_Chest_Icon"
      },
      "rotateCoreCityName": ""
    },
    {
      "groupId": 133401247,
      "mapInstId": 247005,
      "followMoveAttachPoint": "",
      "uiIndicator": {
        "templateName": "Normal_Chest_Icon"
      },
      "rotateCoreCityName": ""
    },
    {
      "groupId": 133401249,
      "mapInstId": 249017,
      "followMoveAttachPoint": "",
      "IGGMJDGPILL": {
        "2": "UnderWater"
      },
      "rotateCoreCityName": ""
    },
    {
      "groupId": 133401249,
      "mapInstId": 249018,
      "followMoveAttachPoint": "",
      "IGGMJDGPILL": {
        "2": "UnderWater"
      },
      "rotateCoreCityName": ""
    },
    {
      "groupId": 133401249,
      "mapInstId": 249019,
      "followMoveAttachPoint": "",
      "IGGMJDGPILL": {
        "2": "UnderWater"
      },
      "rotateCoreCityName": ""
    },
    {
      "groupId": 133401249,
      "mapInstId": 249020,
      "followMoveAttachPoint": "",
      "IGGMJDGPILL": {
        "2": "UnderWaterFloat"
      },
      "rotateCoreCityName": ""
    },
    {
      "groupId": 133401249,
      "mapInstId": 249021,
      "followMoveAttachPoint": "",
      "IGGMJDGPILL": {
        "2": "UnderWater"
      },
      "rotateCoreCityName": ""
    },
    {
      "groupId": 133401249,
      "mapInstId": 249022,
      "followMoveAttachPoint": "",
      "IGGMJDGPILL": {
        "2": "UnderWater"
      },
      "rotateCoreCityName": ""
    },
    {
      "groupId": 133401249,
      "mapInstId": 249025,
      "followMoveAttachPoint": "",
      "IGGMJDGPILL": {
        "2": "UnderWater"
      },
      "rotateCoreCityName": ""
    },
    {
      "groupId": 133401256,
      "mapInstId": 256017,
      "followMoveAttachPoint": "",
      "IGGMJDGPILL": {
        "2": "UnderWaterFloat"
      },
      "uiIndicator": {
        "templateName": "Normal_Chest_Icon"
      },
      "rotateCoreCityName": ""
    },
    {
      "groupId": 133401269,
      "mapInstId": 269006,
      "followMoveAttachPoint": "",
      "followMoveTargetInstanceId": 269001,
      "rotateCoreCityName": ""
    },
    {
      "groupId": 133401269,
      "mapInstId": 269007,
      "followMoveAttachPoint": "",
      "followMoveTargetInstanceId": 269001,
      "rotateCoreCityName": ""
    },
    {
      "groupId": 133401269,
      "mapInstId": 269008,
      "followMoveAttachPoint": "",
      "followMoveTargetInstanceId": 269001,
      "rotateCoreCityName": ""
    },
    {
      "groupId": 133401269,
      "mapInstId": 269009,
      "followMoveAttachPoint": "",
      "followMoveTargetInstanceId": 269001,
      "rotateCoreCityName": ""
    },
    {
      "groupId": 133401272,
      "mapInstId": 272004,
      "followMoveAttachPoint": "",
      "IGGMJDGPILL": {
        "2": "UnderWater"
      },
      "uiIndicator": {
        "templateName": "Normal_Chest_Icon"
      },
      "rotateCoreCityName": ""
    },
    {
      "groupId": 133401274,
      "mapInstId": 274016,
      "followMoveAttachPoint": "",
      "IGGMJDGPILL": {
        "2": "UnderWaterFloat"
      },
      "uiIndicator": {
        "templateName": "Normal_Chest_Icon"
      },
      "rotateCoreCityName": ""
    },
    {
      "groupId": 133401276,
      "mapInstId": 276002,
      "followMoveAttachPoint": "",
      "IGGMJDGPILL": {
        "2": "UnderWaterFloat"
      },
      "rotateCoreCityName": ""
    },
    {
      "groupId": 133401280,
      "mapInstId": 280017,
      "followMoveAttachPoint": "",
      "IGGMJDGPILL": {
        "2": "UnderWaterFloat"
      },
      "uiIndicator": {
        "templateName": "Normal_Chest_Icon"
      },
      "rotateCoreCityName": ""
    },
    {
      "groupId": 133401282,
      "mapInstId": 282020,
      "followMoveAttachPoint": "",
      "IGGMJDGPILL": {
        "2": "UnderWaterFloat"
      },
      "uiIndicator": {
        "templateName": "Normal_Chest_Icon"
      },
      "rotateCoreCityName": ""
    },
    {
      "groupId": 133401284,
      "mapInstId": 284001,
      "followMoveAttachPoint": "",
      "IGGMJDGPILL": {
        "2": "UnderWaterFloat"
      },
      "uiIndicator": {
        "templateName": "Normal_Chest_Icon"
      },
      "rotateCoreCityName": ""
    },
    {
      "groupId": 133401284,
      "mapInstId": 284004,
      "followMoveAttachPoint": "",
      "uiIndicator": {
        "templateName": "GadgetCreate_Icon"
      },
      "rotateCoreCityName": ""
    },
    {
      "groupId": 133401284,
      "mapInstId": 284005,
      "followMoveAttachPoint": "",
      "uiIndicator": {
        "templateName": "GadgetCreate_Icon"
      },
      "rotateCoreCityName": ""
    },
    {
      "groupId": 133401284,
      "mapInstId": 284006,
      "followMoveAttachPoint": "",
      "uiIndicator": {
        "templateName": "GadgetCreate_Icon"
      },
      "rotateCoreCityName": ""
    },
    {
      "groupId": 133401284,
      "mapInstId": 284007,
      "followMoveAttachPoint": "",
      "uiIndicator": {
        "templateName": "GadgetCreate_Icon"
      },
      "rotateCoreCityName": ""
    },
    {
      "groupId": 133401284,
      "mapInstId": 284008,
      "followMoveAttachPoint": "",
      "uiIndicator": {
        "templateName": "GadgetCreate_Icon"
      },
      "rotateCoreCityName": ""
    },
    {
      "groupId": 133401284,
      "mapInstId": 284009,
      "followMoveAttachPoint": "",
      "uiIndicator": {
        "templateName": "GadgetCreate_Icon"
      },
      "rotateCoreCityName": ""
    },
    {
      "groupId": 133401284,
      "mapInstId": 284010,
      "followMoveAttachPoint": "",
      "uiIndicator": {
        "templateName": "GadgetCreate_Icon"
      },
      "rotateCoreCityName": ""
    },
    {
      "groupId": 133401284,
      "mapInstId": 284011,
      "followMoveAttachPoint": "",
      "uiIndicator": {
        "templateName": "GadgetCreate_Icon_Follow"
      },
      "rotateCoreCityName": ""
    },
    {
      "groupId": 133401284,
      "mapInstId": 284012,
      "followMoveAttachPoint": "",
      "uiIndicator": {
        "templateName": "GadgetCreate_Icon_Follow"
      },
      "rotateCoreCityName": ""
    },
    {
      "groupId": 133401284,
      "mapInstId": 284013,
      "followMoveAttachPoint": "",
      "uiIndicator": {
        "templateName": "GadgetCreate_Icon_Follow"
      },
      "rotateCoreCityName": ""
    },
    {
      "groupId": 133401284,
      "mapInstId": 284014,
      "followMoveAttachPoint": "",
      "uiIndicator": {
        "templateName": "GadgetCreate_Icon_Follow"
      },
      "rotateCoreCityName": ""
    },
    {
      "groupId": 133401287,
      "mapInstId": 287001,
      "followMoveAttachPoint": "",
      "rotateCoreCityName": "",
      "AEPAEJMFHGI": 340100016
    },
    {
      "groupId": 133401295,
      "mapInstId": 295003,
      "followMoveAttachPoint": "",
      "rotateCoreCityName": "",
      "MDKMIMGLMLI": 16332692029292992914
    },
    {
      "groupId": 133401306,
      "mapInstId": 306007,
      "followMoveAttachPoint": "",
      "uiIndicator": {
        "templateName": "Normal_DailyTask_Icon",
        "paramDatas": {
          "TaskDummy": "EVENT_32572"
        }
      },
      "rotateCoreCityName": ""
    },
    {
      "groupId": 133401321,
      "mapInstId": 321018,
      "followMoveAttachPoint": "",
      "IGGMJDGPILL": {
        "2": "UnderWaterFloat"
      },
      "rotateCoreCityName": ""
    },
    {
      "groupId": 133401326,
      "mapInstId": 326007,
      "followMoveAttachPoint": "",
      "uiIndicator": {
        "templateName": "Normal_Quest_Icon_GuidePoint"
      },
      "rotateCoreCityName": ""
    },
    {
      "groupId": 133401330,
      "mapInstId": 330001,
      "followMoveAttachPoint": "",
      "IGGMJDGPILL": {
        "2": "UnderWaterFloat"
      },
      "uiIndicator": {
        "templateName": "Normal_Chest_Icon"
      },
      "rotateCoreCityName": ""
    },
    {
      "groupId": 133401336,
      "mapInstId": 336001,
      "followMoveAttachPoint": "",
      "uiIndicator": {
        "templateName": "Normal_Chest_Icon"
      },
      "rotateCoreCityName": ""
    },
    {
      "groupId": 133401337,
      "mapInstId": 337012,
      "followMoveAttachPoint": "",
      "IGGMJDGPILL": {
        "2": "UnderWaterFloat"
      },
      "uiIndicator": {
        "templateName": "Normal_Chest_Icon"
      },
      "rotateCoreCityName": ""
    },
    {
      "groupId": 133401341,
      "mapInstId": 341006,
      "followMoveAttachPoint": "",
      "followMoveTargetInstanceId": 341001,
      "rotateCoreCityName": ""
    },
    {
      "groupId": 133401341,
      "mapInstId": 341007,
      "followMoveAttachPoint": "",
      "followMoveTargetInstanceId": 341001,
      "rotateCoreCityName": ""
    },
    {
      "groupId": 133401349,
      "mapInstId": 349001,
      "followMoveAttachPoint": "",
      "uiIndicator": {
        "templateName": "Normal_Chest_Icon"
      },
      "rotateCoreCityName": ""
    },
    {
      "groupId": 133401353,
      "mapInstId": 353006,
      "followMoveAttachPoint": "",
      "IGGMJDGPILL": {
        "2": "UnderWater"
      },
      "rotateCoreCityName": ""
    },
    {
      "groupId": 133401357,
      "mapInstId": 357028,
      "followMoveAttachPoint": "",
      "uiIndicator": {
        "templateName": "ToyBattle_Current_Icon"
      },
      "rotateCoreCityName": ""
    },
    {
      "groupId": 133401358,
      "mapInstId": 358004,
      "followMoveAttachPoint": "",
      "uiIndicator": {
        "templateName": "Normal_Chest_Icon"
      },
      "rotateCoreCityName": ""
    },
    {
      "groupId": 133401361,
      "mapInstId": 361002,
      "followMoveAttachPoint": "",
      "uiIndicator": {
        "templateName": "Normal_DailyTask_Icon",
        "paramDatas": {
          "TaskDummy": "EVENT_32581"
        }
      },
      "rotateCoreCityName": ""
    },
    {
      "groupId": 133401361,
      "mapInstId": 361003,
      "followMoveAttachPoint": "",
      "uiIndicator": {
        "templateName": "Normal_DailyTask_Icon",
        "paramDatas": {
          "TaskDummy": "EVENT_32581"
        }
      },
      "rotateCoreCityName": ""
    },
    {
      "groupId": 133401361,
      "mapInstId": 361004,
      "followMoveAttachPoint": "",
      "uiIndicator": {
        "templateName": "Normal_DailyTask_Icon",
        "paramDatas": {
          "TaskDummy": "EVENT_32581"
        }
      },
      "rotateCoreCityName": ""
    },
    {
      "groupId": 133401377,
      "mapInstId": 377001,
      "followMoveAttachPoint": "",
      "uiIndicator": {
        "templateName": "Normal_Chest_Icon"
      },
      "rotateCoreCityName": ""
    },
    {
      "groupId": 133401379,
      "mapInstId": 379005,
      "followMoveAttachPoint": "",
      "uiIndicator": {
        "templateName": "Normal_Chest_Icon"
      },
      "rotateCoreCityName": ""
    },
    {
      "groupId": 133401381,
      "mapInstId": 381001,
      "followMoveAttachPoint": "",
      "uiIndicator": {
        "templateName": "GadgetCreate_Icon"
      },
      "rotateCoreCityName": ""
    },
    {
      "groupId": 133401381,
      "mapInstId": 381003,
      "followMoveAttachPoint": "",
      "uiIndicator": {
        "templateName": "Normal_Chest_Icon"
      },
      "rotateCoreCityName": ""
    },
    {
      "groupId": 133401381,
      "mapInstId": 381004,
      "followMoveAttachPoint": "",
      "uiIndicator": {
        "templateName": "GadgetCreate_Icon"
      },
      "rotateCoreCityName": ""
    },
    {
      "groupId": 133401381,
      "mapInstId": 381013,
      "followMoveAttachPoint": "",
      "uiIndicator": {
        "templateName": "GadgetCreate_Icon"
      },
      "rotateCoreCityName": ""
    },
    {
      "groupId": 133401381,
      "mapInstId": 381014,
      "followMoveAttachPoint": "",
      "uiIndicator": {
        "templateName": "GadgetCreate_Icon"
      },
      "rotateCoreCityName": ""
    },
    {
      "groupId": 133401381,
      "mapInstId": 381015,
      "followMoveAttachPoint": "",
      "uiIndicator": {
        "templateName": "GadgetCreate_Icon"
      },
      "rotateCoreCityName": ""
    },
    {
      "groupId": 133401381,
      "mapInstId": 381016,
      "followMoveAttachPoint": "",
      "uiIndicator": {
        "templateName": "GadgetCreate_Icon"
      },
      "rotateCoreCityName": ""
    },
    {
      "groupId": 133401381,
      "mapInstId": 381020,
      "followMoveAttachPoint": "",
      "uiIndicator": {
        "templateName": "GadgetCreate_Icon"
      },
      "rotateCoreCityName": ""
    },
    {
      "groupId": 133401381,
      "mapInstId": 381021,
      "followMoveAttachPoint": "",
      "uiIndicator": {
        "templateName": "GadgetCreate_Icon"
      },
      "rotateCoreCityName": ""
    },
    {
      "groupId": 133401396,
      "mapInstId": 396013,
      "followMoveAttachPoint": "",
      "IGGMJDGPILL": {
        "2": "UnderWaterFloat"
      },
      "uiIndicator": {
        "templateName": "Normal_Chest_Icon"
      },
      "rotateCoreCityName": ""
    },
    {
      "groupId": 133401415,
      "mapInstId": 415001,
      "followMoveAttachPoint": "",
      "rotateCoreCityName": "",
      "routeID": 340100237
    },
    {
      "groupId": 133401417,
      "mapInstId": 417001,
      "followMoveAttachPoint": "",
      "rotateCoreCityName": "",
      "routeID": 340100238
    },
    {
      "groupId": 133401418,
      "mapInstId": 418003,
      "followMoveAttachPoint": "",
      "IGGMJDGPILL": {
        "2": "UnderWaterFloat"
      },
      "uiIndicator": {
        "templateName": "Normal_Chest_Icon"
      },
      "rotateCoreCityName": ""
    },
    {
      "groupId": 133401420,
      "mapInstId": 420043,
      "followMoveAttachPoint": "",
      "IGGMJDGPILL": {
        "2": "UnderWaterFloat"
      },
      "uiIndicator": {
        "templateName": "Normal_Chest_Icon"
      },
      "rotateCoreCityName": ""
    },
    {
      "groupId": 133401426,
      "mapInstId": 426003,
      "followMoveAttachPoint": "",
      "IGGMJDGPILL": {
        "2": "UnderWater"
      },
      "uiIndicator": {
        "templateName": "Normal_Chest_Icon"
      },
      "rotateCoreCityName": ""
    },
    {
      "groupId": 133401431,
      "mapInstId": 431004,
      "followMoveAttachPoint": "",
      "uiIndicator": {
        "templateName": "Normal_Chest_Icon"
      },
      "rotateCoreCityName": ""
    },
    {
      "groupId": 133401438,
      "mapInstId": 438002,
      "followMoveAttachPoint": "",
      "uiIndicator": {
        "templateName": "Normal_Chest_Icon"
      },
      "rotateCoreCityName": ""
    },
    {
      "groupId": 133401439,
      "mapInstId": 439008,
      "followMoveAttachPoint": "",
      "uiIndicator": {
        "templateName": "Normal_Chest_Icon"
      },
      "rotateCoreCityName": ""
    },
    {
      "groupId": 133401440,
      "mapInstId": 440001,
      "followMoveAttachPoint": "",
      "uiIndicator": {
        "templateName": "Normal_Chest_Icon"
      },
      "rotateCoreCityName": ""
    },
    {
      "groupId": 133401441,
      "mapInstId": 441004,
      "followMoveAttachPoint": "",
      "rotateCoreCityName": "",
      "AEPAEJMFHGI": 340100014
    },
    {
      "groupId": 133401448,
      "mapInstId": 448003,
      "followMoveAttachPoint": "",
      "IGGMJDGPILL": {
        "2": "UnderWaterFloat"
      },
      "uiIndicator": {
        "templateName": "Normal_Chest_Icon"
      },
      "rotateCoreCityName": ""
    },
    {
      "groupId": 133401463,
      "mapInstId": 463001,
      "followMoveAttachPoint": "",
      "uiIndicator": {
        "templateName": "GadgetCreate_Icon"
      },
      "rotateCoreCityName": ""
    },
    {
      "groupId": 133401484,
      "mapInstId": 484002,
      "followMoveAttachPoint": "",
      "uiIndicator": {
        "templateName": "Normal_Chest_Icon"
      },
      "rotateCoreCityName": ""
    },
    {
      "groupId": 133401485,
      "mapInstId": 485002,
      "followMoveAttachPoint": "",
      "IGGMJDGPILL": {
        "2": "UnderWaterFloat"
      },
      "rotateCoreCityName": ""
    },
    {
      "groupId": 133401487,
      "mapInstId": 487001,
      "followMoveAttachPoint": "",
      "uiIndicator": {
        "templateName": "Normal_Chest_Icon"
      },
      "rotateCoreCityName": ""
    },
    {
      "groupId": 133401488,
      "mapInstId": 488003,
      "followMoveAttachPoint": "",
      "IGGMJDGPILL": {
        "2": "UnderWater"
      },
      "rotateCoreCityName": ""
    },
    {
      "groupId": 133401490,
      "mapInstId": 490004,
      "followMoveAttachPoint": "",
      "IGGMJDGPILL": {
        "2": "UnderWaterFloat"
      },
      "uiIndicator": {
        "templateName": "Normal_Chest_Icon"
      },
      "rotateCoreCityName": ""
    },
    {
      "groupId": 133401491,
      "mapInstId": 491004,
      "followMoveAttachPoint": "",
      "IGGMJDGPILL": {
        "2": "UnderWaterFloat"
      },
      "uiIndicator": {
        "templateName": "Normal_Chest_Icon"
      },
      "rotateCoreCityName": ""
    },
    {
      "groupId": 133401493,
      "mapInstId": 493027,
      "followMoveAttachPoint": "",
      "uiIndicator": {
        "templateName": "Normal_Chest_Icon"
      },
      "rotateCoreCityName": ""
    },
    {
      "groupId": 133401494,
      "mapInstId": 494025,
      "followMoveAttachPoint": "",
      "uiIndicator": {
        "templateName": "Normal_Chest_Icon"
      },
      "rotateCoreCityName": ""
    },
    {
      "groupId": 133401495,
      "mapInstId": 495025,
      "followMoveAttachPoint": "",
      "uiIndicator": {
        "templateName": "Normal_Chest_Icon"
      },
      "rotateCoreCityName": ""
    },
    {
      "groupId": 133401499,
      "mapInstId": 499025,
      "followMoveAttachPoint": "",
      "uiIndicator": {
        "templateName": "Normal_Chest_Icon"
      },
      "rotateCoreCityName": ""
    },
    {
      "groupId": 133401506,
      "mapInstId": 506003,
      "followMoveAttachPoint": "",
      "IGGMJDGPILL": {
        "2": "UnderWater"
      },
      "uiIndicator": {
        "templateName": "Normal_Chest_Icon"
      },
      "rotateCoreCityName": ""
    },
    {
      "groupId": 133401513,
      "mapInstId": 513001,
      "followMoveAttachPoint": "",
      "uiIndicator": {
        "templateName": "Normal_Chest_Icon"
      },
      "rotateCoreCityName": ""
    },
    {
      "groupId": 133401514,
      "mapInstId": 514004,
      "followMoveAttachPoint": "",
      "IGGMJDGPILL": {
        "2": "UnderWaterFloat"
      },
      "uiIndicator": {
        "templateName": "Normal_Chest_Icon"
      },
      "rotateCoreCityName": ""
    },
    {
      "groupId": 133401516,
      "mapInstId": 516015,
      "followMoveAttachPoint": "RootNode",
      "followMoveTargetInstanceId": 516004,
      "rotateCoreCityName": ""
    },
    {
      "groupId": 133401516,
      "mapInstId": 516016,
      "followMoveAttachPoint": "RootNode",
      "followMoveTargetInstanceId": 516007,
      "rotateCoreCityName": ""
    },
    {
      "groupId": 133401516,
      "mapInstId": 516017,
      "followMoveAttachPoint": "RootNode",
      "followMoveTargetInstanceId": 516010,
      "rotateCoreCityName": ""
    },
    {
      "groupId": 133401516,
      "mapInstId": 516032,
      "followMoveAttachPoint": "RootNode",
      "followMoveTargetInstanceId": 516015,
      "rotateCoreCityName": ""
    },
    {
      "groupId": 133401516,
      "mapInstId": 516033,
      "followMoveAttachPoint": "RootNode",
      "followMoveTargetInstanceId": 516017,
      "rotateCoreCityName": ""
    },
    {
      "groupId": 133401516,
      "mapInstId": 516034,
      "followMoveAttachPoint": "RootNode",
      "followMoveTargetInstanceId": 516025,
      "rotateCoreCityName": ""
    },
    {
      "groupId": 133401516,
      "mapInstId": 516035,
      "followMoveAttachPoint": "RootNode",
      "followMoveTargetInstanceId": 516016,
      "rotateCoreCityName": ""
    },
    {
      "groupId": 133401516,
      "mapInstId": 516036,
      "followMoveAttachPoint": "RootNode",
      "followMoveTargetInstanceId": 516018,
      "rotateCoreCityName": ""
    },
    {
      "groupId": 133401524,
      "mapInstId": 524005,
      "followMoveAttachPoint": "",
      "uiIndicator": {
        "templateName": "Normal_Chest_Icon"
      },
      "rotateCoreCityName": ""
    },
    {
      "groupId": 133401528,
      "mapInstId": 528003,
      "followMoveAttachPoint": "",
      "IGGMJDGPILL": {
        "2": "UnderWaterFloat"
      },
      "uiIndicator": {
        "templateName": "Normal_Chest_Icon"
      },
      "rotateCoreCityName": ""
    },
    {
      "groupId": 133401529,
      "mapInstId": 529011,
      "followMoveAttachPoint": "",
      "IGGMJDGPILL": {
        "2": "UnderWater"
      },
      "uiIndicator": {
        "templateName": "Normal_Chest_Icon"
      },
      "rotateCoreCityName": ""
    },
    {
      "groupId": 133401533,
      "mapInstId": 533004,
      "followMoveAttachPoint": "",
      "uiIndicator": {
        "templateName": "Normal_Chest_Icon"
      },
      "rotateCoreCityName": ""
    },
    {
      "groupId": 133401535,
      "mapInstId": 535001,
      "followMoveAttachPoint": "",
      "rotateCoreCityName": "",
      "routeID": 340100239
    },
    {
      "groupId": 133401538,
      "mapInstId": 538003,
      "followMoveAttachPoint": "",
      "uiIndicator": {
        "templateName": "TreasureSeekingSeelie_Fontaine_EnergyBallMark"
      },
      "rotateCoreCityName": ""
    },
    {
      "groupId": 133401538,
      "mapInstId": 538013,
      "followMoveAttachPoint": "",
      "IGGMJDGPILL": {
        "2": "UnderWater"
      },
      "uiIndicator": {
        "templateName": "Normal_Chest_Icon"
      },
      "rotateCoreCityName": ""
    },
    {
      "groupId": 133401538,
      "mapInstId": 538048,
      "followMoveAttachPoint": "",
      "uiIndicator": {
        "templateName": "TreasureSeekingSeelie_Fontaine_EnergyBallMark"
      },
      "rotateCoreCityName": ""
    },
    {
      "groupId": 133401538,
      "mapInstId": 538067,
      "followMoveAttachPoint": "",
      "uiIndicator": {
        "templateName": "TreasureSeekingSeelie_Fontaine_EnergyBallMark"
      },
      "rotateCoreCityName": ""
    },
    {
      "groupId": 133401538,
      "mapInstId": 538073,
      "followMoveAttachPoint": "RootNode",
      "followMoveTargetInstanceId": 538016,
      "rotateCoreCityName": ""
    },
    {
      "groupId": 133401538,
      "mapInstId": 538079,
      "followMoveAttachPoint": "RootNode",
      "followMoveTargetInstanceId": 538050,
      "rotateCoreCityName": ""
    },
    {
      "groupId": 133401538,
      "mapInstId": 538080,
      "followMoveAttachPoint": "RootNode",
      "followMoveTargetInstanceId": 538069,
      "rotateCoreCityName": ""
    },
    {
      "groupId": 133401540,
      "mapInstId": 540012,
      "followMoveAttachPoint": "",
      "uiIndicator": {
        "templateName": "Normal_Chest_Icon"
      },
      "rotateCoreCityName": ""
    },
    {
      "groupId": 133401543,
      "mapInstId": 543011,
      "followMoveAttachPoint": "",
      "uiIndicator": {
        "templateName": "Normal_DailyTask_Icon_StateChange"
      },
      "rotateCoreCityName": ""
    },
    {
      "groupId": 133401544,
      "mapInstId": 544004,
      "followMoveAttachPoint": "",
      "uiIndicator": {
        "templateName": "Normal_Chest_Icon"
      },
      "rotateCoreCityName": ""
    },
    {
      "groupId": 133401555,
      "mapInstId": 555001,
      "followMoveAttachPoint": "",
      "uiIndicator": {
        "templateName": "Normal_DailyTask_Icon",
        "paramDatas": {
          "TaskDummy": "EVENT_32580"
        }
      },
      "rotateCoreCityName": ""
    },
    {
      "groupId": 133401555,
      "mapInstId": 555002,
      "followMoveAttachPoint": "",
      "uiIndicator": {
        "templateName": "Normal_DailyTask_Icon",
        "paramDatas": {
          "TaskDummy": "EVENT_32580"
        }
      },
      "rotateCoreCityName": ""
    },
    {
      "groupId": 133401555,
      "mapInstId": 555004,
      "followMoveAttachPoint": "",
      "uiIndicator": {
        "templateName": "Normal_DailyTask_Icon",
        "paramDatas": {
          "TaskDummy": "EVENT_32580"
        }
      },
      "rotateCoreCityName": ""
    },
    {
      "groupId": 133401570,
      "mapInstId": 570004,
      "followMoveAttachPoint": "",
      "IGGMJDGPILL": {
        "2": "UnderWater"
      },
      "uiIndicator": {
        "templateName": "Normal_Chest_Icon"
      },
      "rotateCoreCityName": ""
    },
    {
      "groupId": 133401573,
      "mapInstId": 573001,
      "followMoveAttachPoint": "",
      "uiIndicator": {
        "templateName": "Normal_Chest_Icon"
      },
      "rotateCoreCityName": ""
    },
    {
      "groupId": 133401574,
      "mapInstId": 574001,
      "followMoveAttachPoint": "",
      "IGGMJDGPILL": {
        "2": "UnderWaterFloat"
      },
      "uiIndicator": {
        "templateName": "Normal_Chest_Icon"
      },
      "rotateCoreCityName": ""
    },
    {
      "groupId": 133401575,
      "mapInstId": 575001,
      "followMoveAttachPoint": "",
      "rotateCoreCityName": "",
      "AEPAEJMFHGI": 340300030
    },
    {
      "groupId": 133401577,
      "mapInstId": 577020,
      "followMoveAttachPoint": "",
      "uiIndicator": {
        "templateName": "Normal_DailyTask_Icon",
        "paramDatas": {
          "TaskDummy": "EVENT_32571"
        }
      },
      "rotateCoreCityName": ""
    },
    {
      "groupId": 133401579,
      "mapInstId": 579006,
      "followMoveAttachPoint": "",
      "IGGMJDGPILL": {
        "2": "UnderWaterFloat"
      },
      "uiIndicator": {
        "templateName": "Normal_Chest_Icon"
      },
      "rotateCoreCityName": ""
    },
    {
      "groupId": 133401581,
      "mapInstId": 581013,
      "followMoveAttachPoint": "",
      "IGGMJDGPILL": {
        "2": "UnderWaterFloat"
      },
      "uiIndicator": {
        "templateName": "Normal_Chest_Icon"
      },
      "rotateCoreCityName": ""
    },
    {
      "groupId": 133401619,
      "mapInstId": 619004,
      "followMoveAttachPoint": "",
      "uiIndicator": {
        "templateName": "GadgetCreate_Icon"
      },
      "rotateCoreCityName": ""
    },
    {
      "groupId": 133401619,
      "mapInstId": 619007,
      "followMoveAttachPoint": "",
      "uiIndicator": {
        "templateName": "GadgetCreate_Icon"
      },
      "rotateCoreCityName": ""
    },
    {
      "groupId": 133401619,
      "mapInstId": 619008,
      "followMoveAttachPoint": "",
      "uiIndicator": {
        "templateName": "GadgetCreate_Icon"
      },
      "rotateCoreCityName": ""
    },
    {
      "groupId": 133401619,
      "mapInstId": 619009,
      "followMoveAttachPoint": "",
      "uiIndicator": {
        "templateName": "Normal_Chest_Icon"
      },
      "rotateCoreCityName": ""
    },
    {
      "groupId": 133401619,
      "mapInstId": 619012,
      "followMoveAttachPoint": "",
      "uiIndicator": {
        "templateName": "GadgetCreate_Icon"
      },
      "rotateCoreCityName": ""
    },
    {
      "groupId": 133401619,
      "mapInstId": 619016,
      "followMoveAttachPoint": "",
      "uiIndicator": {
        "templateName": "GadgetCreate_Icon"
      },
      "rotateCoreCityName": ""
    },
    {
      "groupId": 133401619,
      "mapInstId": 619017,
      "followMoveAttachPoint": "",
      "uiIndicator": {
        "templateName": "GadgetCreate_Icon"
      },
      "rotateCoreCityName": ""
    },
    {
      "groupId": 133401619,
      "mapInstId": 619024,
      "followMoveAttachPoint": "",
      "uiIndicator": {
        "templateName": "GadgetCreate_Icon"
      },
      "rotateCoreCityName": ""
    },
    {
      "groupId": 133401619,
      "mapInstId": 619025,
      "followMoveAttachPoint": "",
      "uiIndicator": {
        "templateName": "GadgetCreate_Icon"
      },
      "rotateCoreCityName": ""
    },
    {
      "groupId": 133401619,
      "mapInstId": 619028,
      "followMoveAttachPoint": "",
      "uiIndicator": {
        "templateName": "GadgetCreate_Icon"
      },
      "rotateCoreCityName": ""
    },
    {
      "groupId": 133401619,
      "mapInstId": 619029,
      "followMoveAttachPoint": "",
      "uiIndicator": {
        "templateName": "GadgetCreate_Icon"
      },
      "rotateCoreCityName": ""
    },
    {
      "groupId": 133401619,
      "mapInstId": 619030,
      "followMoveAttachPoint": "",
      "uiIndicator": {
        "templateName": "GadgetCreate_Icon"
      },
      "rotateCoreCityName": ""
    },
    {
      "groupId": 133401619,
      "mapInstId": 619031,
      "followMoveAttachPoint": "",
      "uiIndicator": {
        "templateName": "GadgetCreate_Icon"
      },
      "rotateCoreCityName": ""
    },
    {
      "groupId": 133401619,
      "mapInstId": 619032,
      "followMoveAttachPoint": "",
      "uiIndicator": {
        "templateName": "GadgetCreate_Icon"
      },
      "rotateCoreCityName": ""
    },
    {
      "groupId": 133401619,
      "mapInstId": 619033,
      "followMoveAttachPoint": "",
      "uiIndicator": {
        "templateName": "GadgetCreate_Icon"
      },
      "rotateCoreCityName": ""
    },
    {
      "groupId": 133401624,
      "mapInstId": 624005,
      "followMoveAttachPoint": "",
      "IGGMJDGPILL": {
        "2": "UnderWater"
      },
      "uiIndicator": {
        "templateName": "Normal_Chest_Icon"
      },
      "rotateCoreCityName": ""
    },
    {
      "groupId": 133401625,
      "mapInstId": 625003,
      "followMoveAttachPoint": "",
      "IGGMJDGPILL": {
        "2": "UnderWaterFloat"
      },
      "uiIndicator": {
        "templateName": "Normal_Chest_Icon"
      },
      "rotateCoreCityName": ""
    },
    {
      "groupId": 133401632,
      "mapInstId": 632001,
      "followMoveAttachPoint": "",
      "IGGMJDGPILL": {
        "2": "UnderWater"
      },
      "uiIndicator": {
        "templateName": "Normal_Chest_Icon"
      },
      "rotateCoreCityName": ""
    },
    {
      "groupId": 133401633,
      "mapInstId": 633002,
      "followMoveAttachPoint": "",
      "uiIndicator": {
        "templateName": "Normal_Chest_Icon"
      },
      "rotateCoreCityName": ""
    },
    {
      "groupId": 133401639,
      "mapInstId": 639008,
      "followMoveAttachPoint": "",
      "uiIndicator": {
        "templateName": "Normal_Chest_Icon"
      },
      "rotateCoreCityName": ""
    },
    {
      "groupId": 133401644,
      "mapInstId": 644013,
      "followMoveAttachPoint": "",
      "IGGMJDGPILL": {
        "2": "UnderWater"
      },
      "uiIndicator": {
        "templateName": "Normal_Chest_Icon"
      },
      "rotateCoreCityName": ""
    },
    {
      "groupId": 133401647,
      "mapInstId": 647001,
      "followMoveAttachPoint": "",
      "uiIndicator": {
        "templateName": "Activity_UnderSeaCollection_Icon"
      },
      "rotateCoreCityName": ""
    },
    {
      "groupId": 133401662,
      "mapInstId": 662017,
      "followMoveAttachPoint": "",
      "IGGMJDGPILL": {
        "2": "UnderWaterFloat"
      },
      "rotateCoreCityName": ""
    },
    {
      "groupId": 133401663,
      "mapInstId": 663002,
      "followMoveAttachPoint": "",
      "IGGMJDGPILL": {
        "2": "UnderWater"
      },
      "uiIndicator": {
        "templateName": "Normal_Chest_Icon"
      },
      "rotateCoreCityName": ""
    },
    {
      "groupId": 133401667,
      "mapInstId": 667003,
      "followMoveAttachPoint": "",
      "IGGMJDGPILL": {
        "2": "UnderWaterFloat"
      },
      "uiIndicator": {
        "templateName": "Normal_Chest_Icon"
      },
      "rotateCoreCityName": ""
    },
    {
      "groupId": 133401671,
      "mapInstId": 671001,
      "followMoveAttachPoint": "",
      "uiIndicator": {
        "templateName": "Activity_UnderSeaCollection_Icon"
      },
      "rotateCoreCityName": ""
    },
    {
      "groupId": 133401678,
      "mapInstId": 678016,
      "followMoveAttachPoint": "",
      "IGGMJDGPILL": {
        "2": "UnderWaterFloat"
      },
      "uiIndicator": {
        "templateName": "Normal_Chest_Icon"
      },
      "rotateCoreCityName": ""
    },
    {
      "groupId": 133401679,
      "mapInstId": 679003,
      "followMoveAttachPoint": "",
      "IGGMJDGPILL": {
        "2": "UnderWater"
      },
      "rotateCoreCityName": ""
    },
    {
      "groupId": 133401679,
      "mapInstId": 679005,
      "followMoveAttachPoint": "",
      "IGGMJDGPILL": {
        "2": "UnderWaterFloat"
      },
      "rotateCoreCityName": ""
    },
    {
      "groupId": 133401679,
      "mapInstId": 679019,
      "followMoveAttachPoint": "",
      "IGGMJDGPILL": {
        "2": "UnderWaterFloat"
      },
      "rotateCoreCityName": ""
    },
    {
      "groupId": 133401683,
      "mapInstId": 683001,
      "followMoveAttachPoint": "",
      "uiIndicator": {
        "templateName": "Normal_Chest_Icon"
      },
      "rotateCoreCityName": ""
    },
    {
      "groupId": 133401684,
      "mapInstId": 684001,
      "followMoveAttachPoint": "",
      "uiIndicator": {
        "templateName": "Normal_Chest_Icon"
      },
      "rotateCoreCityName": ""
    },
    {
      "groupId": 133401688,
      "mapInstId": 688001,
      "followMoveAttachPoint": "",
      "rotateCoreCityName": "",
      "routeID": 340100113
    },
    {
      "groupId": 133401688,
      "mapInstId": 688005,
      "followMoveAttachPoint": "",
      "IGGMJDGPILL": {
        "2": "UnderWaterFloat"
      },
      "rotateCoreCityName": ""
    },
    {
      "groupId": 133401689,
      "mapInstId": 689001,
      "followMoveAttachPoint": "",
      "rotateCoreCityName": "",
      "routeID": 340100114
    },
    {
      "groupId": 133401690,
      "mapInstId": 690001,
      "followMoveAttachPoint": "",
      "IGGMJDGPILL": {
        "2": "UnderWater"
      },
      "uiIndicator": {
        "templateName": "Normal_Chest_Icon"
      },
      "rotateCoreCityName": ""
    },
    {
      "groupId": 133401696,
      "mapInstId": 696007,
      "followMoveAttachPoint": "",
      "IGGMJDGPILL": {
        "2": "UnderWater"
      },
      "uiIndicator": {
        "templateName": "Normal_Chest_Icon"
      },
      "rotateCoreCityName": ""
    },
    {
      "groupId": 133401697,
      "mapInstId": 697001,
      "followMoveAttachPoint": "",
      "IGGMJDGPILL": {
        "2": "UnderWaterFloat"
      },
      "rotateCoreCityName": ""
    },
    {
      "groupId": 133401700,
      "mapInstId": 700003,
      "followMoveAttachPoint": "",
      "IGGMJDGPILL": {
        "2": "UnderWaterFloat"
      },
      "uiIndicator": {
        "templateName": "Normal_Chest_Icon"
      },
      "rotateCoreCityName": ""
    },
    {
      "groupId": 133401701,
      "mapInstId": 701003,
      "followMoveAttachPoint": "",
      "IGGMJDGPILL": {
        "2": "UnderWaterFloat"
      },
      "rotateCoreCityName": ""
    },
    {
      "groupId": 133401703,
      "mapInstId": 703007,
      "followMoveAttachPoint": "",
      "IGGMJDGPILL": {
        "2": "UnderWater"
      },
      "uiIndicator": {
        "templateName": "Normal_Chest_Icon"
      },
      "rotateCoreCityName": ""
    },
    {
      "groupId": 133401704,
      "mapInstId": 704002,
      "followMoveAttachPoint": "",
      "IGGMJDGPILL": {
        "2": "UnderWaterFloat"
      },
      "rotateCoreCityName": ""
    },
    {
      "groupId": 133401715,
      "mapInstId": 715006,
      "followMoveAttachPoint": "",
      "IGGMJDGPILL": {
        "2": "UnderWater"
      },
      "uiIndicator": {
        "templateName": "Normal_Chest_Icon"
      },
      "rotateCoreCityName": ""
    },
    {
      "groupId": 133401721,
      "mapInstId": 721002,
      "followMoveAttachPoint": "",
      "uiIndicator": {
        "templateName": "Normal_Chest_Icon"
      },
      "rotateCoreCityName": ""
    },
    {
      "groupId": 133401722,
      "mapInstId": 722009,
      "followMoveAttachPoint": "",
      "uiIndicator": {
        "templateName": "Normal_Chest_Icon"
      },
      "rotateCoreCityName": ""
    },
    {
      "groupId": 133401723,
      "mapInstId": 723004,
      "followMoveAttachPoint": "",
      "uiIndicator": {
        "templateName": "Normal_Chest_Icon"
      },
      "rotateCoreCityName": ""
    },
    {
      "groupId": 133401726,
      "mapInstId": 726006,
      "followMoveAttachPoint": "",
      "uiIndicator": {
        "templateName": "Normal_Chest_Icon"
      },
      "rotateCoreCityName": ""
    },
    {
      "groupId": 133401728,
      "mapInstId": 728001,
      "followMoveAttachPoint": "",
      "IGGMJDGPILL": {
        "2": "UnderWaterFloat"
      },
      "uiIndicator": {
        "templateName": "Normal_Chest_Icon"
      },
      "rotateCoreCityName": ""
    },
    {
      "groupId": 133401731,
      "mapInstId": 731006,
      "followMoveAttachPoint": "",
      "IGGMJDGPILL": {
        "2": "UnderWater"
      },
      "uiIndicator": {
        "templateName": "Normal_Chest_Icon"
      },
      "rotateCoreCityName": ""
    },
    {
      "groupId": 133401736,
      "mapInstId": 736003,
      "followMoveAttachPoint": "",
      "IGGMJDGPILL": {
        "2": "UnderWaterFloat"
      },
      "uiIndicator": {
        "templateName": "Normal_Chest_Icon"
      },
      "rotateCoreCityName": ""
    },
    {
      "groupId": 133401741,
      "mapInstId": 741003,
      "followMoveAttachPoint": "",
      "IGGMJDGPILL": {
        "2": "UnderWater"
      },
      "uiIndicator": {
        "templateName": "Normal_Chest_Icon"
      },
      "rotateCoreCityName": ""
    },
    {
      "groupId": 133401749,
      "mapInstId": 749001,
      "followMoveAttachPoint": "",
      "uiIndicator": {
        "templateName": "Normal_Chest_Icon"
      },
      "rotateCoreCityName": ""
    },
    {
      "groupId": 133401752,
      "mapInstId": 752001,
      "followMoveAttachPoint": "",
      "uiIndicator": {
        "templateName": "Normal_Chest_Icon"
      },
      "rotateCoreCityName": ""
    },
    {
      "groupId": 133401754,
      "mapInstId": 754001,
      "followMoveAttachPoint": "",
      "IGGMJDGPILL": {
        "2": "UnderWaterFloat"
      },
      "uiIndicator": {
        "templateName": "Normal_Chest_Icon"
      },
      "rotateCoreCityName": ""
    },
    {
      "groupId": 133401755,
      "mapInstId": 755003,
      "followMoveAttachPoint": "",
      "IGGMJDGPILL": {
        "2": "UnderWater"
      },
      "rotateCoreCityName": ""
    },
    {
      "groupId": 133401755,
      "mapInstId": 755004,
      "followMoveAttachPoint": "",
      "IGGMJDGPILL": {
        "2": "UnderWater"
      },
      "rotateCoreCityName": ""
    },
    {
      "groupId": 133401760,
      "mapInstId": 760001,
      "followMoveAttachPoint": "",
      "uiIndicator": {
        "templateName": "Normal_Chest_Icon"
      },
      "rotateCoreCityName": ""
    },
    {
      "groupId": 133401766,
      "mapInstId": 766004,
      "followMoveAttachPoint": "",
      "uiIndicator": {
        "templateName": "Normal_Chest_Icon"
      },
      "rotateCoreCityName": ""
    },
    {
      "groupId": 133401782,
      "mapInstId": 782005,
      "followMoveAttachPoint": "",
      "IGGMJDGPILL": {
        "2": "UnderWaterFloat"
      },
      "rotateCoreCityName": ""
    },
    {
      "groupId": 133401783,
      "mapInstId": 783013,
      "followMoveAttachPoint": "",
      "uiIndicator": {
        "templateName": "Normal_Chest_Icon"
      },
      "rotateCoreCityName": ""
    },
    {
      "groupId": 133401784,
      "mapInstId": 784001,
      "followMoveAttachPoint": "",
      "uiIndicator": {
        "templateName": "Normal_Chest_Icon"
      },
      "rotateCoreCityName": ""
    },
    {
      "groupId": 133401785,
      "mapInstId": 785005,
      "followMoveAttachPoint": "",
      "uiIndicator": {
        "templateName": "Normal_Chest_Icon"
      },
      "rotateCoreCityName": ""
    },
    {
      "groupId": 133401789,
      "mapInstId": 789001,
      "followMoveAttachPoint": "",
      "uiIndicator": {
        "templateName": "GadgetCreate_Icon"
      },
      "rotateCoreCityName": ""
    },
    {
      "groupId": 133401789,
      "mapInstId": 789003,
      "followMoveAttachPoint": "",
      "uiIndicator": {
        "templateName": "Normal_Chest_Icon"
      },
      "rotateCoreCityName": ""
    },
    {
      "groupId": 133401789,
      "mapInstId": 789004,
      "followMoveAttachPoint": "",
      "uiIndicator": {
        "templateName": "GadgetCreate_Icon"
      },
      "rotateCoreCityName": ""
    },
    {
      "groupId": 133401789,
      "mapInstId": 789013,
      "followMoveAttachPoint": "",
      "uiIndicator": {
        "templateName": "GadgetCreate_Icon"
      },
      "rotateCoreCityName": ""
    },
    {
      "groupId": 133401789,
      "mapInstId": 789014,
      "followMoveAttachPoint": "",
      "uiIndicator": {
        "templateName": "GadgetCreate_Icon"
      },
      "rotateCoreCityName": ""
    },
    {
      "groupId": 133401789,
      "mapInstId": 789015,
      "followMoveAttachPoint": "",
      "uiIndicator": {
        "templateName": "GadgetCreate_Icon"
      },
      "rotateCoreCityName": ""
    },
    {
      "groupId": 133401789,
      "mapInstId": 789016,
      "followMoveAttachPoint": "",
      "uiIndicator": {
        "templateName": "GadgetCreate_Icon"
      },
      "rotateCoreCityName": ""
    },
    {
      "groupId": 133401789,
      "mapInstId": 789017,
      "followMoveAttachPoint": "",
      "uiIndicator": {
        "templateName": "GadgetCreate_Icon"
      },
      "rotateCoreCityName": ""
    },
    {
      "groupId": 133401789,
      "mapInstId": 789021,
      "followMoveAttachPoint": "",
      "uiIndicator": {
        "templateName": "GadgetCreate_Icon"
      },
      "rotateCoreCityName": ""
    },
    {
      "groupId": 133401789,
      "mapInstId": 789022,
      "followMoveAttachPoint": "",
      "uiIndicator": {
        "templateName": "GadgetCreate_Icon"
      },
      "rotateCoreCityName": ""
    },
    {
      "groupId": 133401803,
      "mapInstId": 803001,
      "followMoveAttachPoint": "",
      "trigger": {
        "localTriggerMeta": {
          "$type": "FLBLKKOLBGA",
          "stringParam": "",
          "BJOHNNBIFPJ": {
            "AHDFGAGGPKK": {
              "CIJLABMEGDC": 0
            }
          }
        }
      },
      "rotateCoreCityName": ""
    },
    {
      "groupId": 133401811,
      "mapInstId": 811001,
      "followMoveAttachPoint": "",
      "trigger": {
        "useLocalTriggerLogic": true
      },
      "rotateCoreCityName": ""
    },
    {
      "groupId": 133401813,
      "mapInstId": 813001,
      "followMoveAttachPoint": "",
      "trigger": {
        "useLocalTriggerLogic": true
      },
      "rotateCoreCityName": ""
    },
    {
      "groupId": 133401821,
      "mapInstId": 821002,
      "followMoveAttachPoint": "",
      "rotateCoreCityName": "",
      "BOHCMANBOPG": {
        "GNAKMOLIPEM": 1
      }
    },
    {
      "groupId": 133401821,
      "mapInstId": 821008,
      "followMoveAttachPoint": "",
      "rotateCoreCityName": "",
      "BOHCMANBOPG": {
        "GNAKMOLIPEM": 1
      }
    },
    {
      "groupId": 133401826,
      "mapInstId": 826017,
      "followMoveAttachPoint": "",
      "uiIndicator": {
        "templateName": "GadgetCreate_Icon_HideOnKill"
      },
      "rotateCoreCityName": ""
    }
  ]
}