{
  "sceneId": 35901,
  "gadgets": [
    {
      "groupId": 235901001,
      "mapInstId": 1012,
      "followMoveAttachPoint": "",
      "trigger": {
        "overrideTriggerFlag": true,
        "triggerFlag": "TeleportV2",
        "rawShape": {
          "$type": "LCFGLDCOCOH",
          "useHeight": true,
          "height": 10.0,
          "heightType": "Bottom",
          "centerType": "Center",
          "width": 200.0,
          "length": 200.0
        },
        "useLocalTriggerLogic": true,
        "localTriggerMeta": {
          "$type": "ILABPPPELKA",
          "vectorParam": {
            "x": 376.2890930175781,
            "y": 76.0,
            "z": 492.0238952636719
          },
          "floatParam": 90.0,
          "stringParam": "",
          "curtainType": "CustomTimeBlackScreen",
          "vfxPath": "",
          "lerpInTime": 0.5,
          "stayTime": 1.0,
          "lerpOutTime": 1.0
        }
      },
      "rotateCoreCityName": ""
    },
    {
      "groupId": 235901001,
      "mapInstId": 1013,
      "followMoveAttachPoint": "",
      "trigger": {
        "overrideTriggerFlag": true,
        "triggerFlag": "TeleportV2",
        "rawShape": {
          "$type": "LCFGLDCOCOH",
          "useHeight": true,
          "height": 10.0,
          "heightType": "Bottom",
          "centerType": "Center",
          "width": 200.0,
          "length": 200.0
        },
        "useLocalTriggerLogic": true,
        "localTriggerMeta": {
          "$type": "ILABPPPELKA",
          "vectorParam": {
            "x": 442.0692138671875,
            "y": 82.99458312988281,
            "z": 500.5874938964844
          },
          "floatParam": 270.0,
          "stringParam": "",
          "curtainType": "CustomTimeBlackScreen",
          "vfxPath": "",
          "lerpInTime": 0.5,
          "stayTime": 1.0,
          "lerpOutTime": 1.0
        }
      },
      "rotateCoreCityName": ""
    },
    {
      "groupId": 235901001,
      "mapInstId": 1014,
      "followMoveAttachPoint": "",
      "trigger": {
        "overrideTriggerFlag": true,
        "triggerFlag": "TeleportV2",
        "rawShape": {
          "$type": "LCFGLDCOCOH",
          "useHeight": true,
          "height": 10.0,
          "heightType": "Bottom",
          "centerType": "Center",
          "width": 200.0,
          "length": 200.0
        },
        "useLocalTriggerLogic": true,
        "localTriggerMeta": {
          "$type": "ILABPPPELKA",
          "vectorParam": {
            "x": 407.92999267578125,
            "y": 80.99553680419922,
            "z": 518.36328125
          },
          "floatParam": 180.0,
          "stringParam": "",
          "curtainType": "CustomTimeBlackScreen",
          "vfxPath": "",
          "lerpInTime": 0.5,
          "stayTime": 1.0,
          "lerpOutTime": 1.0
        }
      },
      "rotateCoreCityName": ""
    },
    {
      "groupId": 235901001,
      "mapInstId": 1015,
      "followMoveAttachPoint": "",
      "trigger": {
        "overrideTriggerFlag": true,
        "triggerFlag": "TeleportV2",
        "rawShape": {
          "$type": "LCFGLDCOCOH",
          "useHeight": true,
          "height": 10.0,
          "heightType": "Bottom",
          "centerType": "Center",
          "width": 200.0,
          "length": 200.0
        },
        "useLocalTriggerLogic": true,
        "localTriggerMeta": {
          "$type": "ILABPPPELKA",
          "vectorParam": {
            "x": 442.7732849121094,
            "y": 82.9942626953125,
            "z": 458.1528015136719
          },
          "floatParam": 270.0,
          "stringParam": "",
          "curtainType": "CustomTimeBlackScreen",
          "vfxPath": "",
          "lerpInTime": 0.5,
          "stayTime": 1.0,
          "lerpOutTime": 1.0
        }
      },
      "rotateCoreCityName": ""
    },
    {
      "groupId": 235901001,
      "mapInstId": 1023,
      "followMoveAttachPoint": "",
      "trigger": {
        "overrideTriggerFlag": true,
        "triggerFlag": "TeleportV2",
        "rawShape": {
          "$type": "LCFGLDCOCOH",
          "useHeight": true,
          "height": 10.0,
          "heightType": "Bottom",
          "centerType": "Center",
          "width": 200.0,
          "length": 200.0
        },
        "useLocalTriggerLogic": true,
        "localTriggerMeta": {
          "$type": "ILABPPPELKA",
          "vectorParam": {
            "x": 409.5618896484375,
            "y": 75.00247192382812,
            "z": 465.76348876953125
          },
          "stringParam": "",
          "curtainType": "CustomTimeBlackScreen",
          "vfxPath": "",
          "lerpInTime": 0.5,
          "stayTime": 1.0,
          "lerpOutTime": 1.0
        }
      },
      "rotateCoreCityName": ""
    },
    {
      "groupId": 235901001,
      "mapInstId": 1029,
      "followMoveAttachPoint": "",
      "trigger": {
        "overrideTriggerFlag": true,
        "triggerFlag": "TeleportV2",
        "rawShape": {
          "$type": "LCFGLDCOCOH",
          "useHeight": true,
          "height": 2.0,
          "heightType": "Bottom",
          "centerType": "Center",
          "width": 70.0,
          "length": 20.0
        },
        "useLocalTriggerLogic": true,
        "localTriggerMeta": {
          "$type": "ILABPPPELKA",
          "vectorParam": {
            "x": 376.2890930175781,
            "y": 76.0,
            "z": 492.0238952636719
          },
          "floatParam": 90.0,
          "stringParam": "",
          "curtainType": "CustomTimeBlackScreen",
          "vfxPath": "",
          "lerpInTime": 0.5,
          "stayTime": 1.0,
          "lerpOutTime": 1.0
        }
      },
      "rotateCoreCityName": ""
    }
  ]
}