{
  "sceneId": 3,
  "gadgets": [
    {
      "groupId": 133405006,
      "mapInstId": 6002,
      "followMoveAttachPoint": "",
      "uiIndicator": {
        "templateName": "Normal_Chest_Icon"
      },
      "rotateCoreCityName": ""
    },
    {
      "groupId": 133405008,
      "mapInstId": 8002,
      "followMoveAttachPoint": "",
      "uiIndicator": {
        "templateName": "Normal_Chest_Icon"
      },
      "rotateCoreCityName": ""
    },
    {
      "groupId": 133405014,
      "mapInstId": 14002,
      "followMoveAttachPoint": "",
      "uiIndicator": {
        "templateName": "Normal_Chest_Icon"
      },
      "rotateCoreCityName": ""
    },
    {
      "groupId": 133405019,
      "mapInstId": 19011,
      "followMoveAttachPoint": "",
      "uiIndicator": {
        "templateName": "Normal_DailyTask_Icon_StateChange"
      },
      "rotateCoreCityName": ""
    },
    {
      "groupId": 133405040,
      "mapInstId": 40003,
      "followMoveAttachPoint": "",
      "IGGMJDGPILL": {
        "2": "UnderWater"
      },
      "rotateCoreCityName": ""
    },
    {
      "groupId": 133405041,
      "mapInstId": 41003,
      "followMoveAttachPoint": "",
      "IGGMJDGPILL": {
        "2": "UnderWater"
      },
      "rotateCoreCityName": ""
    },
    {
      "groupId": 133405055,
      "mapInstId": 55002,
      "followMoveAttachPoint": "",
      "uiIndicator": {
        "templateName": "Normal_Chest_Icon"
      },
      "rotateCoreCityName": ""
    },
    {
      "groupId": 133405057,
      "mapInstId": 57001,
      "followMoveAttachPoint": "",
      "rotateCoreCityName": "",
      "AEPAEJMFHGI": 340500001
    },
    {
      "groupId": 133405065,
      "mapInstId": 65001,
      "followMoveAttachPoint": "",
      "trigger": {
        "localTriggerMeta": {
          "$type": "FLBLKKOLBGA",
          "stringParam": "",
          "BJOHNNBIFPJ": {
            "AHDFGAGGPKK": {
              "CIJLABMEGDC": 0
            }
          }
        }
      },
      "rotateCoreCityName": ""
    },
    {
      "groupId": 133405067,
      "mapInstId": 67002,
      "followMoveAttachPoint": "",
      "uiIndicator": {
        "templateName": "ChestUnlock_Icon"
      },
      "rotateCoreCityName": ""
    },
    {
      "groupId": 133405068,
      "mapInstId": 68007,
      "followMoveAttachPoint": "",
      "uiIndicator": {
        "templateName": "Normal_Chest_Icon"
      },
      "rotateCoreCityName": ""
    },
    {
      "groupId": 133405070,
      "mapInstId": 70006,
      "followMoveAttachPoint": "",
      "uiIndicator": {
        "templateName": "ChestUnlock_Icon"
      },
      "rotateCoreCityName": ""
    },
    {
      "groupId": 133405072,
      "mapInstId": 72017,
      "followMoveAttachPoint": "",
      "uiIndicator": {
        "templateName": "Normal_Chest_Icon"
      },
      "rotateCoreCityName": ""
    },
    {
      "groupId": 133405073,
      "mapInstId": 73001,
      "followMoveAttachPoint": "",
      "uiIndicator": {
        "templateName": "Normal_Chest_Icon"
      },
      "rotateCoreCityName": ""
    },
    {
      "groupId": 133405075,
      "mapInstId": 75001,
      "followMoveAttachPoint": "",
      "uiIndicator": {
        "templateName": "Normal_Chest_Icon"
      },
      "rotateCoreCityName": ""
    },
    {
      "groupId": 133405079,
      "mapInstId": 79001,
      "followMoveAttachPoint": "",
      "uiIndicator": {
        "templateName": "ChestUnlock_Icon"
      },
      "rotateCoreCityName": ""
    },
    {
      "groupId": 133405084,
      "mapInstId": 84001,
      "followMoveAttachPoint": "",
      "billboardHpBarStyle": "Boss",
      "rotateCoreCityName": ""
    },
    {
      "groupId": 133405090,
      "mapInstId": 90001,
      "followMoveAttachPoint": "",
      "rotateCoreCityName": "",
      "AEPAEJMFHGI": 340500006
    },
    {
      "groupId": 133405099,
      "mapInstId": 99002,
      "followMoveAttachPoint": "",
      "uiIndicator": {
        "templateName": "Normal_Chest_Icon"
      },
      "rotateCoreCityName": ""
    },
    {
      "groupId": 133405099,
      "mapInstId": 99003,
      "followMoveAttachPoint": "",
      "uiIndicator": {
        "templateName": "Normal_Chest_Icon"
      },
      "rotateCoreCityName": ""
    },
    {
      "groupId": 133405099,
      "mapInstId": 99004,
      "followMoveAttachPoint": "",
      "uiIndicator": {
        "templateName": "Normal_Chest_Icon"
      },
      "rotateCoreCityName": ""
    },
    {
      "groupId": 133405099,
      "mapInstId": 99005,
      "followMoveAttachPoint": "",
      "uiIndicator": {
        "templateName": "Normal_Chest_Icon"
      },
      "rotateCoreCityName": ""
    },
    {
      "groupId": 133405114,
      "mapInstId": 114001,
      "followMoveAttachPoint": "",
      "uiIndicator": {
        "templateName": "UI_NPCTopIcon_Blessing"
      },
      "rotateCoreCityName": ""
    }
  ]
}