{
  "sceneId": 50101,
  "gadgets": [
    {
      "groupId": 250101007,
      "mapInstId": 7009,
      "followMoveAttachPoint": "",
      "uiIndicator": {
        "templateName": "ChestUnlock_Icon"
      },
      "rotateCoreCityName": ""
    },
    {
      "groupId": 250101008,
      "mapInstId": 8006,
      "followMoveAttachPoint": "",
      "uiIndicator": {
        "templateName": "ChestUnlock_Icon"
      },
      "rotateCoreCityName": ""
    },
    {
      "groupId": 250101009,
      "mapInstId": 9002,
      "followMoveAttachPoint": "",
      "uiIndicator": {
        "templateName": "ChestUnlock_Icon"
      },
      "rotateCoreCityName": ""
    },
    {
      "groupId": 250101013,
      "mapInstId": 13008,
      "followMoveAttachPoint": "",
      "uiIndicator": {
        "templateName": "Normal_Chest_Icon"
      },
      "rotateCoreCityName": ""
    },
    {
      "groupId": 250101016,
      "mapInstId": 16004,
      "followMoveAttachPoint": "",
      "uiIndicator": {
        "templateName": "ChestUnlock_Icon"
      },
      "rotateCoreCityName": ""
    },
    {
      "groupId": 250101020,
      "mapInstId": 20008,
      "followMoveAttachPoint": "",
      "uiIndicator": {
        "templateName": "ChestUnlock_Icon"
      },
      "rotateCoreCityName": ""
    },
    {
      "groupId": 250101022,
      "mapInstId": 22006,
      "followMoveAttachPoint": "",
      "uiIndicator": {
        "templateName": "ChestUnlock_Icon"
      },
      "rotateCoreCityName": ""
    },
    {
      "groupId": 250101024,
      "mapInstId": 24001,
      "followMoveAttachPoint": "",
      "uiIndicator": {
        "templateName": "Normal_Chest_Icon"
      },
      "rotateCoreCityName": ""
    },
    {
      "groupId": 250101029,
      "mapInstId": 29006,
      "followMoveAttachPoint": "",
      "uiIndicator": {
        "templateName": "GadgetCreate_Icon"
      },
      "rotateCoreCityName": ""
    },
    {
      "groupId": 250101032,
      "mapInstId": 32006,
      "followMoveAttachPoint": "",
      "uiIndicator": {
        "templateName": "ChestUnlock_Icon"
      },
      "rotateCoreCityName": ""
    },
    {
      "groupId": 250101033,
      "mapInstId": 33001,
      "followMoveAttachPoint": "",
      "rotateCoreCityName": "",
      "AEPAEJMFHGI": 50101001
    },
    {
      "groupId": 250101034,
      "mapInstId": 34004,
      "followMoveAttachPoint": "",
      "uiIndicator": {
        "templateName": "Normal_Chest_Icon"
      },
      "rotateCoreCityName": ""
    },
    {
      "groupId": 250101037,
      "mapInstId": 37001,
      "followMoveAttachPoint": "",
      "uiIndicator": {
        "templateName": "Normal_Chest_Icon"
      },
      "rotateCoreCityName": ""
    },
    {
      "groupId": 250101039,
      "mapInstId": 39002,
      "followMoveAttachPoint": "",
      "uiIndicator": {
        "templateName": "ChestUnlock_Icon"
      },
      "rotateCoreCityName": ""
    },
    {
      "groupId": 250101040,
      "mapInstId": 40002,
      "followMoveAttachPoint": "",
      "uiIndicator": {
        "templateName": "ChestUnlock_Icon"
      },
      "rotateCoreCityName": ""
    },
    {
      "groupId": 250101041,
      "mapInstId": 41002,
      "followMoveAttachPoint": "",
      "uiIndicator": {
        "templateName": "ChestUnlock_Icon"
      },
      "rotateCoreCityName": ""
    }
  ]
}