{
  "sceneId": 3,
  "gadgets": [
    {
      "groupId": 133222001,
      "mapInstId": 1002,
      "followMoveAttachPoint": "",
      "uiIndicator": {
        "templateName": "Normal_Chest_Icon"
      },
      "rotateCoreCityName": ""
    },
    {
      "groupId": 133222002,
      "mapInstId": 2002,
      "followMoveAttachPoint": "",
      "uiIndicator": {
        "templateName": "Normal_Chest_Icon"
      },
      "rotateCoreCityName": ""
    },
    {
      "groupId": 133222003,
      "mapInstId": 3002,
      "followMoveAttachPoint": "",
      "uiIndicator": {
        "templateName": "Normal_Chest_Icon"
      },
      "rotateCoreCityName": ""
    },
    {
      "groupId": 133222006,
      "mapInstId": 6002,
      "followMoveAttachPoint": "",
      "uiIndicator": {
        "templateName": "Normal_Chest_Icon"
      },
      "rotateCoreCityName": ""
    },
    {
      "groupId": 133222007,
      "mapInstId": 7006,
      "followMoveAttachPoint": "",
      "uiIndicator": {
        "templateName": "Normal_Chest_Icon"
      },
      "rotateCoreCityName": ""
    },
    {
      "groupId": 133222008,
      "mapInstId": 8002,
      "followMoveAttachPoint": "",
      "uiIndicator": {
        "templateName": "Normal_Chest_Icon"
      },
      "rotateCoreCityName": ""
    },
    {
      "groupId": 133222013,
      "mapInstId": 13020,
      "followMoveAttachPoint": "",
      "uiIndicator": {
        "templateName": "Normal_Chest_Icon"
      },
      "rotateCoreCityName": ""
    },
    {
      "groupId": 133222017,
      "mapInstId": 17002,
      "followMoveAttachPoint": "",
      "uiIndicator": {
        "templateName": "Normal_Chest_Icon"
      },
      "rotateCoreCityName": ""
    },
    {
      "groupId": 133222024,
      "mapInstId": 24002,
      "followMoveAttachPoint": "",
      "uiIndicator": {
        "templateName": "Normal_Chest_Icon"
      },
      "rotateCoreCityName": ""
    },
    {
      "groupId": 133222030,
      "mapInstId": 30002,
      "followMoveAttachPoint": "",
      "uiIndicator": {
        "templateName": "Normal_Chest_Icon"
      },
      "rotateCoreCityName": ""
    },
    {
      "groupId": 133222034,
      "mapInstId": 34005,
      "followMoveAttachPoint": "",
      "uiIndicator": {
        "templateName": "Normal_Chest_Icon"
      },
      "rotateCoreCityName": ""
    },
    {
      "groupId": 133222037,
      "mapInstId": 37002,
      "followMoveAttachPoint": "",
      "uiIndicator": {
        "templateName": "Normal_Chest_Icon"
      },
      "rotateCoreCityName": ""
    },
    {
      "groupId": 133222038,
      "mapInstId": 38005,
      "followMoveAttachPoint": "",
      "rotateCoreCityName": "",
      "OGNNEGCDJOF": [
        {
          "id": 38005,
          "BOEDGBKEFNH": {
            "x": -4612.712890625,
            "y": 200.0,
            "z": -4134.68798828125
          },
          "rotation": {
            "y": 337.0762023925781
          }
        }
      ]
    },
    {
      "groupId": 133222038,
      "mapInstId": 38015,
      "followMoveAttachPoint": "",
      "rotateCoreCityName": "",
      "OGNNEGCDJOF": [
        {
          "id": 38015,
          "BOEDGBKEFNH": {
            "x": -4612.712890625,
            "y": 161.0,
            "z": -4134.68798828125
          },
          "rotation": {
            "y": 337.0762023925781
          }
        }
      ]
    },
    {
      "groupId": 133222038,
      "mapInstId": 38016,
      "followMoveAttachPoint": "",
      "rotateCoreCityName": "",
      "OGNNEGCDJOF": [
        {
          "id": 38016,
          "BOEDGBKEFNH": {
            "x": -4612.712890625,
            "y": 119.5,
            "z": -4134.68798828125
          },
          "rotation": {
            "y": 337.0762023925781
          }
        }
      ]
    },
    {
      "groupId": 133222038,
      "mapInstId": 38017,
      "followMoveAttachPoint": "",
      "rotateCoreCityName": "",
      "OGNNEGCDJOF": [
        {
          "id": 38017,
          "BOEDGBKEFNH": {
            "x": -4612.712890625,
            "y": 100.0,
            "z": -4134.68798828125
          },
          "rotation": {
            "y": 337.0762023925781
          }
        }
      ]
    },
    {
      "groupId": 133222042,
      "mapInstId": 42005,
      "followMoveAttachPoint": "",
      "uiIndicator": {
        "templateName": "Normal_Chest_Icon"
      },
      "rotateCoreCityName": ""
    },
    {
      "groupId": 133222045,
      "mapInstId": 45002,
      "followMoveAttachPoint": "",
      "uiIndicator": {
        "templateName": "Normal_Chest_Icon"
      },
      "rotateCoreCityName": ""
    },
    {
      "groupId": 133222056,
      "mapInstId": 56015,
      "followMoveAttachPoint": "",
      "uiIndicator": {
        "templateName": "Normal_Chest_Icon"
      },
      "rotateCoreCityName": ""
    },
    {
      "groupId": 133222060,
      "mapInstId": 60014,
      "followMoveAttachPoint": "",
      "uiIndicator": {
        "templateName": "Normal_DailyTask_Icon_GuidePoint"
      },
      "rotateCoreCityName": ""
    },
    {
      "groupId": 133222060,
      "mapInstId": 60015,
      "followMoveAttachPoint": "",
      "uiIndicator": {
        "templateName": "Normal_DailyTask_Icon_GuidePoint"
      },
      "rotateCoreCityName": ""
    },
    {
      "groupId": 133222060,
      "mapInstId": 60016,
      "followMoveAttachPoint": "",
      "uiIndicator": {
        "templateName": "Normal_DailyTask_Icon_GuidePoint"
      },
      "rotateCoreCityName": ""
    },
    {
      "groupId": 133222061,
      "mapInstId": 61008,
      "followMoveAttachPoint": "",
      "uiIndicator": {
        "templateName": "Normal_DailyTask_Icon_StateChange"
      },
      "rotateCoreCityName": ""
    },
    {
      "groupId": 133222062,
      "mapInstId": 62011,
      "followMoveAttachPoint": "",
      "uiIndicator": {
        "templateName": "Normal_DailyTask_Icon_GuidePoint"
      },
      "rotateCoreCityName": ""
    },
    {
      "groupId": 133222100,
      "mapInstId": 100002,
      "followMoveAttachPoint": "",
      "uiIndicator": {
        "templateName": "Normal_Chest_Icon"
      },
      "rotateCoreCityName": ""
    },
    {
      "groupId": 133222119,
      "mapInstId": 119002,
      "followMoveAttachPoint": "",
      "uiIndicator": {
        "templateName": "Normal_Chest_Icon"
      },
      "rotateCoreCityName": ""
    },
    {
      "groupId": 133222126,
      "mapInstId": 126002,
      "followMoveAttachPoint": "",
      "uiIndicator": {
        "templateName": "Normal_Chest_Icon"
      },
      "rotateCoreCityName": ""
    },
    {
      "groupId": 133222136,
      "mapInstId": 136005,
      "followMoveAttachPoint": "",
      "uiIndicator": {
        "templateName": "Normal_Chest_Icon"
      },
      "rotateCoreCityName": ""
    },
    {
      "groupId": 133222138,
      "mapInstId": 138002,
      "followMoveAttachPoint": "",
      "uiIndicator": {
        "templateName": "Normal_Chest_Icon"
      },
      "rotateCoreCityName": ""
    },
    {
      "groupId": 133222141,
      "mapInstId": 141002,
      "followMoveAttachPoint": "",
      "uiIndicator": {
        "templateName": "Normal_Chest_Icon"
      },
      "rotateCoreCityName": ""
    },
    {
      "groupId": 133222142,
      "mapInstId": 142002,
      "followMoveAttachPoint": "",
      "uiIndicator": {
        "templateName": "Normal_Chest_Icon"
      },
      "rotateCoreCityName": ""
    },
    {
      "groupId": 133222143,
      "mapInstId": 143013,
      "followMoveAttachPoint": "",
      "uiIndicator": {
        "templateName": "Normal_Chest_Icon"
      },
      "rotateCoreCityName": ""
    },
    {
      "groupId": 133222149,
      "mapInstId": 149001,
      "followMoveAttachPoint": "",
      "uiIndicator": {
        "templateName": "GadgetCreate_Icon"
      },
      "rotateCoreCityName": ""
    },
    {
      "groupId": 133222149,
      "mapInstId": 149003,
      "followMoveAttachPoint": "",
      "uiIndicator": {
        "templateName": "Normal_Chest_Icon"
      },
      "rotateCoreCityName": ""
    },
    {
      "groupId": 133222149,
      "mapInstId": 149004,
      "followMoveAttachPoint": "",
      "uiIndicator": {
        "templateName": "GadgetCreate_Icon"
      },
      "rotateCoreCityName": ""
    },
    {
      "groupId": 133222149,
      "mapInstId": 149012,
      "followMoveAttachPoint": "",
      "uiIndicator": {
        "templateName": "GadgetCreate_Icon"
      },
      "rotateCoreCityName": ""
    },
    {
      "groupId": 133222149,
      "mapInstId": 149013,
      "followMoveAttachPoint": "",
      "uiIndicator": {
        "templateName": "GadgetCreate_Icon"
      },
      "rotateCoreCityName": ""
    },
    {
      "groupId": 133222149,
      "mapInstId": 149014,
      "followMoveAttachPoint": "",
      "uiIndicator": {
        "templateName": "GadgetCreate_Icon"
      },
      "rotateCoreCityName": ""
    },
    {
      "groupId": 133222149,
      "mapInstId": 149015,
      "followMoveAttachPoint": "",
      "uiIndicator": {
        "templateName": "GadgetCreate_Icon"
      },
      "rotateCoreCityName": ""
    },
    {
      "groupId": 133222149,
      "mapInstId": 149016,
      "followMoveAttachPoint": "",
      "uiIndicator": {
        "templateName": "GadgetCreate_Icon"
      },
      "rotateCoreCityName": ""
    },
    {
      "groupId": 133222157,
      "mapInstId": 157056,
      "followMoveAttachPoint": "",
      "uiIndicator": {
        "templateName": "Normal_Chest_Icon"
      },
      "rotateCoreCityName": ""
    },
    {
      "groupId": 133222171,
      "mapInstId": 171002,
      "followMoveAttachPoint": "",
      "uiIndicator": {
        "templateName": "Normal_Chest_Icon"
      },
      "rotateCoreCityName": ""
    },
    {
      "groupId": 133222181,
      "mapInstId": 181002,
      "followMoveAttachPoint": "",
      "uiIndicator": {
        "templateName": "Normal_Chest_Icon"
      },
      "rotateCoreCityName": ""
    },
    {
      "groupId": 133222188,
      "mapInstId": 188019,
      "followMoveAttachPoint": "",
      "uiIndicator": {
        "templateName": "Normal_Chest_Icon"
      },
      "rotateCoreCityName": ""
    },
    {
      "groupId": 133222203,
      "mapInstId": 203002,
      "followMoveAttachPoint": "",
      "uiIndicator": {
        "templateName": "Normal_Chest_Icon"
      },
      "rotateCoreCityName": ""
    },
    {
      "groupId": 133222207,
      "mapInstId": 207010,
      "followMoveAttachPoint": "",
      "uiIndicator": {
        "templateName": "Normal_Chest_Icon"
      },
      "rotateCoreCityName": ""
    },
    {
      "groupId": 133222231,
      "mapInstId": 231004,
      "followMoveAttachPoint": "",
      "uiIndicator": {
        "templateName": "Normal_Chest_Icon"
      },
      "rotateCoreCityName": ""
    },
    {
      "groupId": 133222234,
      "mapInstId": 234004,
      "followMoveAttachPoint": "",
      "uiIndicator": {
        "templateName": "Normal_Chest_Icon"
      },
      "rotateCoreCityName": ""
    },
    {
      "groupId": 133222235,
      "mapInstId": 235004,
      "followMoveAttachPoint": "",
      "uiIndicator": {
        "templateName": "Normal_Chest_Icon"
      },
      "rotateCoreCityName": ""
    },
    {
      "groupId": 133222241,
      "mapInstId": 241005,
      "followMoveAttachPoint": "",
      "uiIndicator": {
        "templateName": "Normal_Chest_Icon"
      },
      "rotateCoreCityName": ""
    },
    {
      "groupId": 133222242,
      "mapInstId": 242005,
      "followMoveAttachPoint": "",
      "uiIndicator": {
        "templateName": "Normal_Chest_Icon"
      },
      "rotateCoreCityName": ""
    },
    {
      "groupId": 133222244,
      "mapInstId": 244003,
      "followMoveAttachPoint": "",
      "uiIndicator": {
        "templateName": "Normal_Chest_Icon"
      },
      "rotateCoreCityName": ""
    },
    {
      "groupId": 133222244,
      "mapInstId": 244004,
      "followMoveAttachPoint": "",
      "uiIndicator": {
        "templateName": "Normal_Chest_Icon"
      },
      "rotateCoreCityName": ""
    },
    {
      "groupId": 133222250,
      "mapInstId": 250001,
      "followMoveAttachPoint": "",
      "uiIndicator": {
        "templateName": "Normal_Chest_Icon"
      },
      "rotateCoreCityName": ""
    },
    {
      "groupId": 133222256,
      "mapInstId": 256002,
      "followMoveAttachPoint": "",
      "uiIndicator": {
        "templateName": "Normal_Chest_Icon"
      },
      "rotateCoreCityName": ""
    },
    {
      "groupId": 133222269,
      "mapInstId": 269001,
      "followMoveAttachPoint": "",
      "uiIndicator": {
        "templateName": "Normal_Chest_Icon"
      },
      "rotateCoreCityName": ""
    },
    {
      "groupId": 133222270,
      "mapInstId": 270006,
      "followMoveAttachPoint": "",
      "uiIndicator": {
        "templateName": "Normal_Chest_Icon"
      },
      "rotateCoreCityName": ""
    },
    {
      "groupId": 133222273,
      "mapInstId": 273002,
      "followMoveAttachPoint": "",
      "uiIndicator": {
        "templateName": "Normal_Chest_Icon"
      },
      "rotateCoreCityName": ""
    },
    {
      "groupId": 133222301,
      "mapInstId": 301001,
      "followMoveAttachPoint": "",
      "uiIndicator": {
        "templateName": "Normal_Chest_Icon"
      },
      "rotateCoreCityName": ""
    },
    {
      "groupId": 133222318,
      "mapInstId": 318001,
      "followMoveAttachPoint": "",
      "uiIndicator": {
        "templateName": "GadgetCreate_Icon"
      },
      "rotateCoreCityName": ""
    },
    {
      "groupId": 133222318,
      "mapInstId": 318003,
      "followMoveAttachPoint": "",
      "uiIndicator": {
        "templateName": "Normal_Chest_Icon"
      },
      "rotateCoreCityName": ""
    },
    {
      "groupId": 133222318,
      "mapInstId": 318029,
      "followMoveAttachPoint": "",
      "uiIndicator": {
        "templateName": "GadgetCreate_Icon"
      },
      "rotateCoreCityName": ""
    },
    {
      "groupId": 133222318,
      "mapInstId": 318039,
      "followMoveAttachPoint": "",
      "uiIndicator": {
        "templateName": "GadgetCreate_Icon"
      },
      "rotateCoreCityName": ""
    },
    {
      "groupId": 133222331,
      "mapInstId": 331002,
      "followMoveAttachPoint": "",
      "uiIndicator": {
        "templateName": "Normal_Chest_Icon"
      },
      "rotateCoreCityName": ""
    },
    {
      "groupId": 133222332,
      "mapInstId": 332003,
      "followMoveAttachPoint": "",
      "uiIndicator": {
        "templateName": "Normal_Chest_Icon"
      },
      "rotateCoreCityName": ""
    },
    {
      "groupId": 133222338,
      "mapInstId": 338008,
      "followMoveAttachPoint": "",
      "uiIndicator": {
        "templateName": "Normal_Chest_Icon"
      },
      "rotateCoreCityName": ""
    },
    {
      "groupId": 133222343,
      "mapInstId": 343006,
      "followMoveAttachPoint": "",
      "uiIndicator": {
        "templateName": "Normal_Chest_Icon"
      },
      "rotateCoreCityName": ""
    },
    {
      "groupId": 133222344,
      "mapInstId": 344003,
      "followMoveAttachPoint": "",
      "uiIndicator": {
        "templateName": "Normal_Chest_Icon"
      },
      "rotateCoreCityName": ""
    },
    {
      "groupId": 133222345,
      "mapInstId": 345002,
      "followMoveAttachPoint": "",
      "uiIndicator": {
        "templateName": "Normal_Chest_Icon"
      },
      "rotateCoreCityName": ""
    },
    {
      "groupId": 133222347,
      "mapInstId": 347004,
      "followMoveAttachPoint": "",
      "uiIndicator": {
        "templateName": "Normal_Chest_Icon"
      },
      "rotateCoreCityName": ""
    },
    {
      "groupId": 133222348,
      "mapInstId": 348002,
      "followMoveAttachPoint": "",
      "uiIndicator": {
        "templateName": "Normal_Chest_Icon"
      },
      "rotateCoreCityName": ""
    },
    {
      "groupId": 133222349,
      "mapInstId": 349004,
      "followMoveAttachPoint": "",
      "uiIndicator": {
        "templateName": "Normal_Chest_Icon"
      },
      "rotateCoreCityName": ""
    },
    {
      "groupId": 133222352,
      "mapInstId": 352002,
      "followMoveAttachPoint": "",
      "uiIndicator": {
        "templateName": "Normal_Chest_Icon"
      },
      "rotateCoreCityName": ""
    }
  ]
}