{
  "sceneId": 47906,
  "gadgets": [
    {
      "groupId": 247906005,
      "mapInstId": 5001,
      "followMoveAttachPoint": "",
      "trigger": {
        "overrideTriggerFlag": true,
        "triggerFlag": "TeleportWithoutPaimonReminder",
        "rawShape": {
          "$type": "LCFGLDCOCOH",
          "useHeight": true,
          "height": 10.0,
          "centerType": "Center",
          "width": 10.0,
          "length": 10.0
        },
        "useLocalTriggerLogic": true,
        "localTriggerMeta": {
          "$type": "FLBLKKOLBGA",
          "vectorParam": {
            "x": 863.8599853515625,
            "y": 21.260000228881836,
            "z": 506.9100036621094
          },
          "stringParam": ""
        }
      },
      "rotateCoreCityName": ""
    },
    {
      "groupId": 247906005,
      "mapInstId": 5002,
      "followMoveAttachPoint": "",
      "trigger": {
        "overrideTriggerFlag": true,
        "triggerFlag": "TeleportWithoutPaimonReminder",
        "rawShape": {
          "$type": "LCFGLDCOCOH",
          "useHeight": true,
          "height": 10.0,
          "centerType": "Center",
          "width": 10.0,
          "length": 10.0
        },
        "useLocalTriggerLogic": true,
        "localTriggerMeta": {
          "$type": "FLBLKKOLBGA",
          "vectorParam": {
            "x": 108.0199966430664,
            "y": 21.68000030517578,
            "z": 784.27001953125
          },
          "floatParam": 90.0,
          "stringParam": ""
        }
      },
      "rotateCoreCityName": ""
    },
    {
      "groupId": 247906005,
      "mapInstId": 5003,
      "followMoveAttachPoint": "",
      "trigger": {
        "overrideTriggerFlag": true,
        "triggerFlag": "TeleportWithoutPaimonReminder",
        "rawShape": {
          "$type": "LCFGLDCOCOH",
          "useHeight": true,
          "height": 10.0,
          "centerType": "Center",
          "width": 10.0,
          "length": 10.0
        },
        "useLocalTriggerLogic": true,
        "localTriggerMeta": {
          "$type": "FLBLKKOLBGA",
          "vectorParam": {
            "x": 575.6300048828125,
            "y": 21.360000610351562,
            "z": 97.94000244140625
          },
          "stringParam": ""
        }
      },
      "rotateCoreCityName": ""
    },
    {
      "groupId": 247906005,
      "mapInstId": 5004,
      "followMoveAttachPoint": "",
      "trigger": {
        "overrideTriggerFlag": true,
        "triggerFlag": "TeleportWithoutPaimonReminder",
        "rawShape": {
          "$type": "LCFGLDCOCOH",
          "useHeight": true,
          "height": 10.0,
          "centerType": "Center",
          "width": 10.0,
          "length": 10.0
        },
        "useLocalTriggerLogic": true,
        "localTriggerMeta": {
          "$type": "FLBLKKOLBGA",
          "vectorParam": {
            "x": 170.9199981689453,
            "y": 17.420000076293945,
            "z": 365.8399963378906
          },
          "floatParam": 180.0,
          "stringParam": ""
        }
      },
      "rotateCoreCityName": ""
    },
    {
      "groupId": 247906005,
      "mapInstId": 5005,
      "followMoveAttachPoint": "",
      "trigger": {
        "overrideTriggerFlag": true,
        "triggerFlag": "TeleportWithoutPaimonReminder",
        "rawShape": {
          "$type": "LCFGLDCOCOH",
          "useHeight": true,
          "height": 10.0,
          "centerType": "Center",
          "width": 10.0,
          "length": 10.0
        },
        "useLocalTriggerLogic": true,
        "localTriggerMeta": {
          "$type": "FLBLKKOLBGA",
          "vectorParam": {
            "x": 190.74000549316406,
            "y": 17.530000686645508,
            "z": 323.29998779296875
          },
          "floatParam": 310.0,
          "stringParam": ""
        }
      },
      "rotateCoreCityName": ""
    },
    {
      "groupId": 247906005,
      "mapInstId": 5006,
      "followMoveAttachPoint": "",
      "trigger": {
        "overrideTriggerFlag": true,
        "triggerFlag": "TeleportWithoutPaimonReminder",
        "rawShape": {
          "$type": "LCFGLDCOCOH",
          "useHeight": true,
          "height": 10.0,
          "centerType": "Center",
          "width": 10.0,
          "length": 10.0
        },
        "useLocalTriggerLogic": true,
        "localTriggerMeta": {
          "$type": "FLBLKKOLBGA",
          "vectorParam": {
            "x": 150.5399932861328,
            "y": 17.6200008392334,
            "z": 324.4700012207031
          },
          "floatParam": 52.0,
          "stringParam": ""
        }
      },
      "rotateCoreCityName": ""
    }
  ]
}