{
  "sceneId": 35900,
  "gadgets": [
    {
      "groupId": 235900001,
      "mapInstId": 1012,
      "followMoveAttachPoint": "",
      "trigger": {
        "overrideTriggerFlag": true,
        "triggerFlag": "TeleportV2",
        "rawShape": {
          "$type": "LCFGLDCOCOH",
          "useHeight": true,
          "height": 10.0,
          "heightType": "Bottom",
          "centerType": "Center",
          "width": 200.0,
          "length": 200.0
        },
        "useLocalTriggerLogic": true,
        "localTriggerMeta": {
          "$type": "ILABPPPELKA",
          "vectorParam": {
            "x": 376.2890930175781,
            "y": 76.0,
            "z": 492.0238952636719
          },
          "floatParam": 90.0,
          "stringParam": "",
          "curtainType": "CustomTimeBlackScreen",
          "vfxPath": "",
          "lerpInTime": 0.5,
          "stayTime": 1.0,
          "lerpOutTime": 1.0
        }
      },
      "rotateCoreCityName": ""
    },
    {
      "groupId": 235900001,
      "mapInstId": 1013,
      "followMoveAttachPoint": "",
      "trigger": {
        "overrideTriggerFlag": true,
        "triggerFlag": "TeleportV2",
        "rawShape": {
          "$type": "LCFGLDCOCOH",
          "useHeight": true,
          "height": 10.0,
          "heightType": "Bottom",
          "centerType": "Center",
          "width": 200.0,
          "length": 200.0
        },
        "useLocalTriggerLogic": true,
        "localTriggerMeta": {
          "$type": "ILABPPPELKA",
          "vectorParam": {
            "x": 448.3214111328125,
            "y": 74.95481872558594,
            "z": 482.68109130859375
          },
          "floatParam": 270.0,
          "stringParam": "",
          "curtainType": "CustomTimeBlackScreen",
          "vfxPath": "",
          "lerpInTime": 0.5,
          "stayTime": 1.0,
          "lerpOutTime": 1.0
        }
      },
      "rotateCoreCityName": ""
    },
    {
      "groupId": 235900001,
      "mapInstId": 1014,
      "followMoveAttachPoint": "",
      "trigger": {
        "overrideTriggerFlag": true,
        "triggerFlag": "TeleportV2",
        "rawShape": {
          "$type": "LCFGLDCOCOH",
          "useHeight": true,
          "height": 10.0,
          "heightType": "Bottom",
          "centerType": "Center",
          "width": 200.0,
          "length": 200.0
        },
        "useLocalTriggerLogic": true,
        "localTriggerMeta": {
          "$type": "ILABPPPELKA",
          "vectorParam": {
            "x": 424.193115234375,
            "y": 74.95481872558594,
            "z": 523.0723266601562
          },
          "floatParam": 180.0,
          "stringParam": "",
          "curtainType": "CustomTimeBlackScreen",
          "vfxPath": "",
          "lerpInTime": 0.5,
          "stayTime": 1.0,
          "lerpOutTime": 1.0
        }
      },
      "rotateCoreCityName": ""
    },
    {
      "groupId": 235900001,
      "mapInstId": 1015,
      "followMoveAttachPoint": "",
      "trigger": {
        "overrideTriggerFlag": true,
        "triggerFlag": "TeleportV2",
        "rawShape": {
          "$type": "LCFGLDCOCOH",
          "useHeight": true,
          "height": 10.0,
          "heightType": "Bottom",
          "centerType": "Center",
          "width": 200.0,
          "length": 200.0
        },
        "useLocalTriggerLogic": true,
        "localTriggerMeta": {
          "$type": "ILABPPPELKA",
          "vectorParam": {
            "x": 411.1654052734375,
            "y": 74.95481872558594,
            "z": 458.8027038574219
          },
          "floatParam": 90.0,
          "stringParam": "",
          "curtainType": "CustomTimeBlackScreen",
          "vfxPath": "",
          "lerpInTime": 0.5,
          "stayTime": 1.0,
          "lerpOutTime": 1.0
        }
      },
      "rotateCoreCityName": ""
    },
    {
      "groupId": 235900001,
      "mapInstId": 1030,
      "followMoveAttachPoint": "",
      "trigger": {
        "overrideTriggerFlag": true,
        "triggerFlag": "TeleportV2",
        "rawShape": {
          "$type": "LCFGLDCOCOH",
          "useHeight": true,
          "height": 2.0,
          "heightType": "Bottom",
          "centerType": "Center",
          "width": 70.0,
          "length": 20.0
        },
        "useLocalTriggerLogic": true,
        "localTriggerMeta": {
          "$type": "ILABPPPELKA",
          "vectorParam": {
            "x": 376.2890930175781,
            "y": 76.0,
            "z": 492.0238952636719
          },
          "floatParam": 90.0,
          "stringParam": "",
          "curtainType": "CustomTimeBlackScreen",
          "vfxPath": "",
          "lerpInTime": 0.5,
          "stayTime": 1.0,
          "lerpOutTime": 1.0
        }
      },
      "rotateCoreCityName": ""
    }
  ]
}