{
  "sceneId": 20198,
  "gadgets": [
    {
      "groupId": 220198001,
      "mapInstId": 1003,
      "followMoveAttachPoint": "",
      "rotateCoreCityName": "",
      "OGNNEGCDJOF": [
        {
          "id": -2146057142
        }
      ]
    }
  ]
}