{
  "sceneId": 1,
  "gadgets": [
    {
      "groupId": 111404001,
      "mapInstId": 1001,
      "followMoveAttachPoint": "",
      "rotateCoreCityName": "",
      "AEPAEJMFHGI": 140400001
    },
    {
      "groupId": 111404002,
      "mapInstId": 2004,
      "followMoveAttachPoint": "Side23Node",
      "followMoveTargetInstanceId": 2003,
      "rotateCoreCityName": ""
    },
    {
      "groupId": 111404002,
      "mapInstId": 2005,
      "followMoveAttachPoint": "Side31Node",
      "followMoveTargetInstanceId": 2003,
      "rotateCoreCityName": ""
    }
  ]
}