{
  "sceneId": 9,
  "gadgets": [
    {
      "groupId": 199003002,
      "mapInstId": 2001,
      "followMoveAttachPoint": "",
      "uiIndicator": {
        "templateName": "GadgetCreate_Icon"
      },
      "rotateCoreCityName": ""
    },
    {
      "groupId": 199003002,
      "mapInstId": 2003,
      "followMoveAttachPoint": "",
      "uiIndicator": {
        "templateName": "Normal_Chest_Icon"
      },
      "rotateCoreCityName": ""
    },
    {
      "groupId": 199003002,
      "mapInstId": 2004,
      "followMoveAttachPoint": "",
      "uiIndicator": {
        "templateName": "GadgetCreate_Icon"
      },
      "rotateCoreCityName": ""
    },
    {
      "groupId": 199003002,
      "mapInstId": 2014,
      "followMoveAttachPoint": "",
      "uiIndicator": {
        "templateName": "SocialActivity_Target_Icon"
      },
      "rotateCoreCityName": ""
    },
    {
      "groupId": 199003002,
      "mapInstId": 2015,
      "followMoveAttachPoint": "",
      "uiIndicator": {
        "templateName": "SocialActivity_Target_Icon"
      },
      "rotateCoreCityName": ""
    },
    {
      "groupId": 199003002,
      "mapInstId": 2017,
      "followMoveAttachPoint": "",
      "uiIndicator": {
        "templateName": "SocialActivity_Target_Icon"
      },
      "rotateCoreCityName": ""
    },
    {
      "groupId": 199003002,
      "mapInstId": 2018,
      "followMoveAttachPoint": "",
      "uiIndicator": {
        "templateName": "SocialActivity_Target_Icon"
      },
      "rotateCoreCityName": ""
    },
    {
      "groupId": 199003002,
      "mapInstId": 2019,
      "followMoveAttachPoint": "",
      "uiIndicator": {
        "templateName": "SocialActivity_Target_Icon"
      },
      "rotateCoreCityName": ""
    },
    {
      "groupId": 199003002,
      "mapInstId": 2024,
      "followMoveAttachPoint": "",
      "uiIndicator": {
        "templateName": "SocialActivity_Target_Icon"
      },
      "rotateCoreCityName": ""
    },
    {
      "groupId": 199003002,
      "mapInstId": 2025,
      "followMoveAttachPoint": "",
      "uiIndicator": {
        "templateName": "SocialActivity_Target_Icon"
      },
      "rotateCoreCityName": ""
    },
    {
      "groupId": 199003002,
      "mapInstId": 2026,
      "followMoveAttachPoint": "",
      "uiIndicator": {
        "templateName": "SocialActivity_Target_Icon"
      },
      "rotateCoreCityName": ""
    },
    {
      "groupId": 199003007,
      "mapInstId": 7001,
      "followMoveAttachPoint": "",
      "uiIndicator": {
        "templateName": "GadgetCreate_Icon"
      },
      "rotateCoreCityName": ""
    },
    {
      "groupId": 199003007,
      "mapInstId": 7003,
      "followMoveAttachPoint": "",
      "uiIndicator": {
        "templateName": "Normal_Chest_Icon"
      },
      "rotateCoreCityName": ""
    },
    {
      "groupId": 199003007,
      "mapInstId": 7004,
      "followMoveAttachPoint": "",
      "uiIndicator": {
        "templateName": "GadgetCreate_Icon"
      },
      "rotateCoreCityName": ""
    },
    {
      "groupId": 199003007,
      "mapInstId": 7007,
      "followMoveAttachPoint": "",
      "uiIndicator": {
        "templateName": "SocialActivity_Target_Icon"
      },
      "rotateCoreCityName": ""
    },
    {
      "groupId": 199003007,
      "mapInstId": 7008,
      "followMoveAttachPoint": "",
      "uiIndicator": {
        "templateName": "SocialActivity_Target_Icon"
      },
      "rotateCoreCityName": ""
    },
    {
      "groupId": 199003007,
      "mapInstId": 7009,
      "followMoveAttachPoint": "",
      "uiIndicator": {
        "templateName": "SocialActivity_Target_Icon"
      },
      "rotateCoreCityName": ""
    },
    {
      "groupId": 199003007,
      "mapInstId": 7011,
      "followMoveAttachPoint": "",
      "uiIndicator": {
        "templateName": "SocialActivity_Target_Icon"
      },
      "rotateCoreCityName": ""
    },
    {
      "groupId": 199003019,
      "mapInstId": 19001,
      "followMoveAttachPoint": "",
      "uiIndicator": {
        "templateName": "Normal_Chest_Icon"
      },
      "rotateCoreCityName": ""
    },
    {
      "groupId": 199003025,
      "mapInstId": 25001,
      "followMoveAttachPoint": "",
      "uiIndicator": {
        "templateName": "SummerTimeV2_Race_Icon"
      },
      "rotateCoreCityName": ""
    },
    {
      "groupId": 199003025,
      "mapInstId": 25002,
      "followMoveAttachPoint": "",
      "uiIndicator": {
        "templateName": "SocialActivity_Target_Icon"
      },
      "rotateCoreCityName": ""
    },
    {
      "groupId": 199003025,
      "mapInstId": 25003,
      "followMoveAttachPoint": "",
      "uiIndicator": {
        "templateName": "SocialActivity_Target_Icon"
      },
      "rotateCoreCityName": ""
    },
    {
      "groupId": 199003025,
      "mapInstId": 25058,
      "followMoveAttachPoint": "",
      "uiIndicator": {
        "templateName": "SocialActivity_Target_Icon"
      },
      "rotateCoreCityName": ""
    },
    {
      "groupId": 199003025,
      "mapInstId": 25067,
      "followMoveAttachPoint": "",
      "uiIndicator": {
        "templateName": "SocialActivity_Target_Icon"
      },
      "rotateCoreCityName": ""
    },
    {
      "groupId": 199003025,
      "mapInstId": 25098,
      "followMoveAttachPoint": "",
      "uiIndicator": {
        "templateName": "SocialActivity_Target_Icon"
      },
      "rotateCoreCityName": ""
    },
    {
      "groupId": 199003025,
      "mapInstId": 25107,
      "followMoveAttachPoint": "",
      "uiIndicator": {
        "templateName": "SocialActivity_Target_Icon"
      },
      "rotateCoreCityName": ""
    },
    {
      "groupId": 199003025,
      "mapInstId": 25138,
      "followMoveAttachPoint": "",
      "uiIndicator": {
        "templateName": "SocialActivity_Target_Icon"
      },
      "rotateCoreCityName": ""
    },
    {
      "groupId": 199003025,
      "mapInstId": 25148,
      "followMoveAttachPoint": "",
      "uiIndicator": {
        "templateName": "SocialActivity_Target_Icon"
      },
      "rotateCoreCityName": ""
    },
    {
      "groupId": 199003025,
      "mapInstId": 25171,
      "followMoveAttachPoint": "",
      "uiIndicator": {
        "templateName": "SocialActivity_Target_Icon"
      },
      "rotateCoreCityName": ""
    },
    {
      "groupId": 199003025,
      "mapInstId": 25201,
      "followMoveAttachPoint": "",
      "uiIndicator": {
        "templateName": "SocialActivity_Target_Icon"
      },
      "rotateCoreCityName": ""
    },
    {
      "groupId": 199003044,
      "mapInstId": 44007,
      "followMoveAttachPoint": "",
      "uiIndicator": {
        "templateName": "Normal_Chest_Icon"
      },
      "rotateCoreCityName": ""
    },
    {
      "groupId": 199003048,
      "mapInstId": 48011,
      "followMoveAttachPoint": "",
      "uiIndicator": {
        "templateName": "Normal_Chest_Icon"
      },
      "rotateCoreCityName": ""
    },
    {
      "groupId": 199003051,
      "mapInstId": 51003,
      "followMoveAttachPoint": "",
      "uiIndicator": {
        "templateName": "Normal_Chest_Icon"
      },
      "rotateCoreCityName": ""
    },
    {
      "groupId": 199003053,
      "mapInstId": 53010,
      "followMoveAttachPoint": "",
      "uiIndicator": {
        "templateName": "Normal_Chest_Icon"
      },
      "rotateCoreCityName": ""
    },
    {
      "groupId": 199003055,
      "mapInstId": 55002,
      "followMoveAttachPoint": "",
      "uiIndicator": {
        "templateName": "Normal_Chest_Icon"
      },
      "rotateCoreCityName": ""
    },
    {
      "groupId": 199003060,
      "mapInstId": 60002,
      "followMoveAttachPoint": "",
      "uiIndicator": {
        "templateName": "Normal_Chest_Icon"
      },
      "rotateCoreCityName": ""
    },
    {
      "groupId": 199003062,
      "mapInstId": 62001,
      "followMoveAttachPoint": "",
      "uiIndicator": {
        "templateName": "Normal_Chest_Icon"
      },
      "rotateCoreCityName": ""
    },
    {
      "groupId": 199003065,
      "mapInstId": 65001,
      "followMoveAttachPoint": "",
      "uiIndicator": {
        "templateName": "SummerTimeV2_Race_Icon"
      },
      "rotateCoreCityName": ""
    },
    {
      "groupId": 199003065,
      "mapInstId": 65010,
      "followMoveAttachPoint": "",
      "uiIndicator": {
        "templateName": "SocialActivity_Target_Icon"
      },
      "rotateCoreCityName": ""
    },
    {
      "groupId": 199003065,
      "mapInstId": 65025,
      "followMoveAttachPoint": "",
      "uiIndicator": {
        "templateName": "SocialActivity_Target_Icon"
      },
      "rotateCoreCityName": ""
    },
    {
      "groupId": 199003065,
      "mapInstId": 65031,
      "followMoveAttachPoint": "",
      "uiIndicator": {
        "templateName": "SocialActivity_Target_Icon"
      },
      "rotateCoreCityName": ""
    },
    {
      "groupId": 199003065,
      "mapInstId": 65047,
      "followMoveAttachPoint": "",
      "uiIndicator": {
        "templateName": "SocialActivity_Target_Icon"
      },
      "rotateCoreCityName": ""
    },
    {
      "groupId": 199003065,
      "mapInstId": 65051,
      "followMoveAttachPoint": "",
      "uiIndicator": {
        "templateName": "SocialActivity_Target_Icon"
      },
      "rotateCoreCityName": ""
    },
    {
      "groupId": 199003065,
      "mapInstId": 65059,
      "followMoveAttachPoint": "",
      "uiIndicator": {
        "templateName": "SocialActivity_Target_Icon"
      },
      "rotateCoreCityName": ""
    },
    {
      "groupId": 199003065,
      "mapInstId": 65070,
      "followMoveAttachPoint": "",
      "uiIndicator": {
        "templateName": "SocialActivity_Target_Icon"
      },
      "rotateCoreCityName": ""
    },
    {
      "groupId": 199003065,
      "mapInstId": 65080,
      "followMoveAttachPoint": "",
      "uiIndicator": {
        "templateName": "SocialActivity_Target_Icon"
      },
      "rotateCoreCityName": ""
    },
    {
      "groupId": 199003068,
      "mapInstId": 68019,
      "followMoveAttachPoint": "",
      "uiIndicator": {
        "templateName": "Normal_Chest_Icon"
      },
      "rotateCoreCityName": ""
    },
    {
      "groupId": 199003069,
      "mapInstId": 69010,
      "followMoveAttachPoint": "",
      "uiIndicator": {
        "templateName": "Normal_Chest_Icon"
      },
      "rotateCoreCityName": ""
    },
    {
      "groupId": 199003070,
      "mapInstId": 70002,
      "followMoveAttachPoint": "",
      "uiIndicator": {
        "templateName": "Normal_Chest_Icon"
      },
      "rotateCoreCityName": ""
    },
    {
      "groupId": 199003071,
      "mapInstId": 71011,
      "followMoveAttachPoint": "",
      "uiIndicator": {
        "templateName": "Normal_Chest_Icon"
      },
      "rotateCoreCityName": ""
    },
    {
      "groupId": 199003076,
      "mapInstId": 76004,
      "followMoveAttachPoint": "",
      "rotateCoreCityName": "",
      "OGNNEGCDJOF": [
        {
          "id": 1314820343,
          "BOEDGBKEFNH": {
            "x": -721.4744873046875,
            "y": 93.0,
            "z": 403.39581298828125
          }
        },
        {
          "id": -867176133,
          "BOEDGBKEFNH": {
            "x": -721.4744873046875,
            "y": 86.59551239013672,
            "z": 403.395751953125
          }
        },
        {
          "id": 2066324520,
          "BOEDGBKEFNH": {
            "x": -721.4744873046875,
            "y": 86.59551239013672,
            "z": 403.395751953125
          }
        }
      ]
    },
    {
      "groupId": 199003077,
      "mapInstId": 77002,
      "followMoveAttachPoint": "",
      "uiIndicator": {
        "templateName": "Normal_Chest_Icon"
      },
      "rotateCoreCityName": ""
    },
    {
      "groupId": 199003078,
      "mapInstId": 78012,
      "followMoveAttachPoint": "",
      "uiIndicator": {
        "templateName": "Normal_Chest_Icon"
      },
      "rotateCoreCityName": ""
    },
    {
      "groupId": 199003080,
      "mapInstId": 80001,
      "followMoveAttachPoint": "",
      "uiIndicator": {
        "templateName": "Normal_Chest_Icon"
      },
      "rotateCoreCityName": ""
    },
    {
      "groupId": 199003081,
      "mapInstId": 81001,
      "followMoveAttachPoint": "",
      "uiIndicator": {
        "templateName": "SocialActivity_Target_Icon"
      },
      "rotateCoreCityName": ""
    },
    {
      "groupId": 199003088,
      "mapInstId": 88002,
      "followMoveAttachPoint": "",
      "uiIndicator": {
        "templateName": "Normal_Chest_Icon"
      },
      "rotateCoreCityName": ""
    },
    {
      "groupId": 199003093,
      "mapInstId": 93006,
      "followMoveAttachPoint": "",
      "uiIndicator": {
        "templateName": "Normal_Chest_Icon"
      },
      "rotateCoreCityName": ""
    },
    {
      "groupId": 199003097,
      "mapInstId": 97003,
      "followMoveAttachPoint": "",
      "uiIndicator": {
        "templateName": "Normal_Chest_Icon"
      },
      "rotateCoreCityName": ""
    },
    {
      "groupId": 199003099,
      "mapInstId": 99017,
      "followMoveAttachPoint": "",
      "uiIndicator": {
        "templateName": "Normal_Chest_Icon"
      },
      "rotateCoreCityName": ""
    },
    {
      "groupId": 199003102,
      "mapInstId": 102006,
      "followMoveAttachPoint": "",
      "uiIndicator": {
        "templateName": "Normal_Chest_Icon"
      },
      "rotateCoreCityName": ""
    },
    {
      "groupId": 199003104,
      "mapInstId": 104001,
      "followMoveAttachPoint": "",
      "uiIndicator": {
        "templateName": "Normal_Chest_Icon"
      },
      "rotateCoreCityName": ""
    },
    {
      "groupId": 199003108,
      "mapInstId": 108005,
      "followMoveAttachPoint": "",
      "uiIndicator": {
        "templateName": "Normal_Chest_Icon"
      },
      "rotateCoreCityName": ""
    },
    {
      "groupId": 199003114,
      "mapInstId": 114004,
      "followMoveAttachPoint": "",
      "uiIndicator": {
        "templateName": "Normal_Chest_Icon"
      },
      "rotateCoreCityName": ""
    },
    {
      "groupId": 199003117,
      "mapInstId": 117027,
      "followMoveAttachPoint": "",
      "uiIndicator": {
        "templateName": "Normal_Chest_Icon"
      },
      "rotateCoreCityName": ""
    },
    {
      "groupId": 199003126,
      "mapInstId": 126062,
      "followMoveAttachPoint": "",
      "uiIndicator": {
        "templateName": "SocialActivity_Engine_Icon"
      },
      "rotateCoreCityName": ""
    },
    {
      "groupId": 199003126,
      "mapInstId": 126073,
      "followMoveAttachPoint": "Part1",
      "followMoveTargetInstanceId": 126062,
      "rotateCoreCityName": ""
    },
    {
      "groupId": 199003126,
      "mapInstId": 126074,
      "followMoveAttachPoint": "Part2",
      "followMoveTargetInstanceId": 126062,
      "rotateCoreCityName": ""
    },
    {
      "groupId": 199003126,
      "mapInstId": 126075,
      "followMoveAttachPoint": "Part3",
      "followMoveTargetInstanceId": 126062,
      "rotateCoreCityName": ""
    },
    {
      "groupId": 199003126,
      "mapInstId": 126079,
      "followMoveAttachPoint": "Part4",
      "followMoveTargetInstanceId": 126062,
      "rotateCoreCityName": ""
    },
    {
      "groupId": 199003127,
      "mapInstId": 127096,
      "followMoveAttachPoint": "",
      "uiIndicator": {
        "templateName": "SocialActivity_Target_Icon"
      },
      "rotateCoreCityName": ""
    },
    {
      "groupId": 199003127,
      "mapInstId": 127097,
      "followMoveAttachPoint": "",
      "uiIndicator": {
        "templateName": "SocialActivity_Target_Icon"
      },
      "rotateCoreCityName": ""
    },
    {
      "groupId": 199003127,
      "mapInstId": 127098,
      "followMoveAttachPoint": "",
      "uiIndicator": {
        "templateName": "SocialActivity_Target_Icon"
      },
      "rotateCoreCityName": ""
    },
    {
      "groupId": 199003127,
      "mapInstId": 127099,
      "followMoveAttachPoint": "",
      "uiIndicator": {
        "templateName": "SocialActivity_Target_Icon"
      },
      "rotateCoreCityName": ""
    },
    {
      "groupId": 199003127,
      "mapInstId": 127100,
      "followMoveAttachPoint": "",
      "uiIndicator": {
        "templateName": "SocialActivity_Target_Icon"
      },
      "rotateCoreCityName": ""
    },
    {
      "groupId": 199003127,
      "mapInstId": 127101,
      "followMoveAttachPoint": "",
      "uiIndicator": {
        "templateName": "SocialActivity_Target_Icon"
      },
      "rotateCoreCityName": ""
    },
    {
      "groupId": 199003127,
      "mapInstId": 127117,
      "followMoveAttachPoint": "",
      "uiIndicator": {
        "templateName": "SocialActivity_Target_Icon"
      },
      "rotateCoreCityName": ""
    },
    {
      "groupId": 199003127,
      "mapInstId": 127118,
      "followMoveAttachPoint": "",
      "uiIndicator": {
        "templateName": "SocialActivity_Target_Icon"
      },
      "rotateCoreCityName": ""
    },
    {
      "groupId": 199003127,
      "mapInstId": 127119,
      "followMoveAttachPoint": "",
      "uiIndicator": {
        "templateName": "SocialActivity_Target_Icon"
      },
      "rotateCoreCityName": ""
    },
    {
      "groupId": 199003127,
      "mapInstId": 127135,
      "followMoveAttachPoint": "",
      "uiIndicator": {
        "templateName": "SocialActivity_Target_Icon"
      },
      "rotateCoreCityName": ""
    },
    {
      "groupId": 199003127,
      "mapInstId": 127136,
      "followMoveAttachPoint": "",
      "uiIndicator": {
        "templateName": "SocialActivity_Target_Icon"
      },
      "rotateCoreCityName": ""
    },
    {
      "groupId": 199003127,
      "mapInstId": 127158,
      "followMoveAttachPoint": "",
      "uiIndicator": {
        "templateName": "SocialActivity_Target_Icon"
      },
      "rotateCoreCityName": ""
    },
    {
      "groupId": 199003127,
      "mapInstId": 127204,
      "followMoveAttachPoint": "",
      "uiIndicator": {
        "templateName": "SocialActivity_Target_Icon"
      },
      "rotateCoreCityName": ""
    },
    {
      "groupId": 199003127,
      "mapInstId": 127205,
      "followMoveAttachPoint": "",
      "uiIndicator": {
        "templateName": "SocialActivity_Target_Icon"
      },
      "rotateCoreCityName": ""
    },
    {
      "groupId": 199003127,
      "mapInstId": 127206,
      "followMoveAttachPoint": "",
      "uiIndicator": {
        "templateName": "SocialActivity_Target_Icon"
      },
      "rotateCoreCityName": ""
    },
    {
      "groupId": 199003127,
      "mapInstId": 127207,
      "followMoveAttachPoint": "",
      "uiIndicator": {
        "templateName": "SocialActivity_Target_Icon"
      },
      "rotateCoreCityName": ""
    },
    {
      "groupId": 199003128,
      "mapInstId": 128004,
      "followMoveAttachPoint": "",
      "uiIndicator": {
        "templateName": "Normal_Chest_Icon"
      },
      "rotateCoreCityName": ""
    },
    {
      "groupId": 199003133,
      "mapInstId": 133004,
      "followMoveAttachPoint": "",
      "uiIndicator": {
        "templateName": "Normal_Chest_Icon"
      },
      "rotateCoreCityName": ""
    },
    {
      "groupId": 199003138,
      "mapInstId": 138011,
      "followMoveAttachPoint": "",
      "uiIndicator": {
        "templateName": "Normal_Chest_Icon"
      },
      "rotateCoreCityName": ""
    },
    {
      "groupId": 199003148,
      "mapInstId": 148002,
      "followMoveAttachPoint": "",
      "uiIndicator": {
        "templateName": "Normal_Chest_Icon"
      },
      "rotateCoreCityName": ""
    },
    {
      "groupId": 199003149,
      "mapInstId": 149006,
      "followMoveAttachPoint": "",
      "uiIndicator": {
        "templateName": "Normal_Chest_Icon"
      },
      "rotateCoreCityName": ""
    },
    {
      "groupId": 199003151,
      "mapInstId": 151002,
      "followMoveAttachPoint": "",
      "rotateCoreCityName": "",
      "OGNNEGCDJOF": [
        {
          "id": -1635036220,
          "BOEDGBKEFNH": {
            "x": -721.9710083007812,
            "y": 120.26709747314453,
            "z": -3.9120640754699707
          }
        }
      ]
    },
    {
      "groupId": 199003155,
      "mapInstId": 155027,
      "followMoveAttachPoint": "",
      "uiIndicator": {
        "templateName": "Normal_Chest_Icon"
      },
      "rotateCoreCityName": ""
    },
    {
      "groupId": 199003164,
      "mapInstId": 164001,
      "followMoveAttachPoint": "",
      "rotateCoreCityName": "",
      "OGNNEGCDJOF": [
        {
          "id": 1105572971,
          "BOEDGBKEFNH": {
            "x": -719.3524169921875,
            "y": 121.03399658203125,
            "z": 8.729114532470703
          }
        }
      ]
    }
  ]
}