{
  "luaDataPath": "",
  "isSimpleTalk": true,
  "entityBan": "",
  "disableNpcLod": true,
  "startFade": {
    "startFadeOutDuration": 0.0
  },
  "endFade": {
    "startFadeOutDuration": 0.0
  },
  "actors": [
    {
      "alias": "Avatar",
      "visible": true,
      "bornPointName": "",
      "relativePosNpcAlias": "",
      "_bindMovingTargetKey": ""
    },
    {
      "configID": 3162,
      "alias": "3162",
      "visible": true,
      "bornPointName": "",
      "relativePosNpcAlias": "",
      "_bindMovingTargetKey": ""
    }
  ],
  "group": [
    [
      {
        "$type": "FJKIHHKJLMJ",
        "type": "CAMERA_FOCUS",
        "duration": 0.10000000149011612,
        "targetNpcAlias": "",
        "KJOEFBPOIIH": "",
        "IICFKKEBIEC": "",
        "EGEHEJEBLBJ": ""
      },
      {
        "$type": "MoleMole.Config.ConfigTimeProtectAction",
        "type": "TIME_PROTECT",
        "duration": 0.10000000149011612
      }
    ],
    [
      {
        "$type": "HDGKHDNFMIM",
        "type": "DIALOG_SELECT",
        "delayTime": 0.4000000059604645,
        "aliasList": [
          "Avatar"
        ],
        "dialogIDList": [
          721140402
        ],
        "grpIDList": [
          2213944440
        ],
        "useGrpId": true
      },
      {
        "$type": "PKKMAMONGEO",
        "type": "DIALOG",
        "aliasList": [
          "3162"
        ],
        "dialogID": 721140401,
        "protectTime": 0.5
      },
      {
        "$type": "LLGANGLOEEO",
        "type": "STEER_TO",
        "duration": 0.800000011920929,
        "aliasList": [
          "3162"
        ],
        "steerType": "TO_TARGET",
        "useSteerAnim": true,
        "interruptFreestyle": true,
        "forceSteer": true,
        "targetNpcAlias": "Avatar",
        "OAFJBHJHLJG": ""
      }
    ],
    [
      {
        "$type": "PKKMAMONGEO",
        "type": "DIALOG",
        "aliasList": [
          "3162"
        ],
        "dialogID": 721140403,
        "protectTime": 0.5
      },
      {
        "$type": "FABLGECDBCH",
        "type": "BODY_LANG",
        "aliasList": [
          "3162"
        ],
        "bodyLangParam": 1171,
        "forceDoFreeStyle": true,
        "canDoRepeatFreeStyle": false,
        "eventPatternSuiteKey": "",
        "FOHHKFAIAAJ": ""
      }
    ],
    [
      {
        "$type": "PKKMAMONGEO",
        "type": "DIALOG",
        "aliasList": [
          "3162"
        ],
        "dialogID": 721140404,
        "protectTime": 0.5
      }
    ],
    [
      {
        "$type": "PKKMAMONGEO",
        "type": "DIALOG",
        "aliasList": [
          "3162"
        ],
        "dialogID": 721140405,
        "protectTime": 0.5
      }
    ],
    [
      {
        "$type": "PKKMAMONGEO",
        "type": "DIALOG",
        "aliasList": [
          "3162"
        ],
        "dialogID": 721140406,
        "protectTime": 0.5
      }
    ],
    [
      {
        "$type": "HDGKHDNFMIM",
        "type": "DIALOG_SELECT",
        "delayTime": 0.4000000059604645,
        "aliasList": [
          "Avatar"
        ],
        "dialogIDList": [
          721140408
        ],
        "grpIDList": [
          2213944445
        ],
        "useGrpId": true
      },
      {
        "$type": "PKKMAMONGEO",
        "type": "DIALOG",
        "aliasList": [
          "3162"
        ],
        "dialogID": 721140407,
        "protectTime": 0.5
      }
    ],
    [
      {
        "$type": "HDGKHDNFMIM",
        "type": "DIALOG_SELECT",
        "delayTime": 0.4000000059604645,
        "aliasList": [
          "Avatar"
        ],
        "dialogIDList": [
          721140410,
          721140412
        ],
        "grpIDList": [
          2213944446,
          4207768186
        ],
        "useGrpId": true
      },
      {
        "$type": "PKKMAMONGEO",
        "type": "DIALOG",
        "aliasList": [
          "3162"
        ],
        "dialogID": 721140409,
        "protectTime": 0.5
      }
    ],
    [
      {
        "$type": "PKKMAMONGEO",
        "type": "DIALOG",
        "aliasList": [
          "3162"
        ],
        "dialogID": 721140411,
        "protectTime": 0.5
      }
    ],
    [
      {
        "$type": "PKKMAMONGEO",
        "type": "DIALOG",
        "aliasList": [
          "3162"
        ],
        "dialogID": 721140413,
        "protectTime": 0.5
      }
    ],
    [
      {
        "$type": "PKKMAMONGEO",
        "type": "DIALOG",
        "aliasList": [
          "3162"
        ],
        "dialogID": 721140414,
        "protectTime": 0.5
      },
      {
        "$type": "FABLGECDBCH",
        "type": "BODY_LANG",
        "aliasList": [
          "3162"
        ],
        "bodyLangParam": 1172,
        "forceDoFreeStyle": true,
        "canDoRepeatFreeStyle": false,
        "eventPatternSuiteKey": "",
        "FOHHKFAIAAJ": ""
      }
    ],
    [
      {
        "$type": "PKKMAMONGEO",
        "type": "DIALOG",
        "aliasList": [
          "3162"
        ],
        "dialogID": 721140415,
        "protectTime": 0.5
      }
    ],
    [
      {
        "$type": "PKKMAMONGEO",
        "type": "DIALOG",
        "aliasList": [
          "3162"
        ],
        "dialogID": 721140416,
        "protectTime": 0.5
      }
    ],
    [
      {
        "$type": "PKKMAMONGEO",
        "type": "DIALOG",
        "aliasList": [
          "3162"
        ],
        "dialogID": 721140417,
        "protectTime": 0.5
      }
    ],
    [
      {
        "$type": "PKKMAMONGEO",
        "type": "DIALOG",
        "aliasList": [
          "3162"
        ],
        "dialogID": 721140418,
        "protectTime": 0.5
      }
    ],
    [
      {
        "$type": "HDGKHDNFMIM",
        "type": "DIALOG_SELECT",
        "delayTime": 0.4000000059604645,
        "aliasList": [
          "Avatar"
        ],
        "dialogIDList": [
          721140420,
          721140421
        ],
        "grpIDList": [
          4207768194,
          4207768193
        ],
        "useGrpId": true
      },
      {
        "$type": "PKKMAMONGEO",
        "type": "DIALOG",
        "aliasList": [
          "3162"
        ],
        "dialogID": 721140419,
        "protectTime": 0.5
      }
    ],
    [
      {
        "$type": "PKKMAMONGEO",
        "type": "DIALOG",
        "aliasList": [
          "3162"
        ],
        "dialogID": 721140422,
        "protectTime": 0.5
      }
    ],
    [
      {
        "$type": "PKKMAMONGEO",
        "type": "DIALOG",
        "aliasList": [
          "3162"
        ],
        "dialogID": 721140423,
        "protectTime": 0.5
      },
      {
        "$type": "FABLGECDBCH",
        "type": "BODY_LANG",
        "aliasList": [
          "3162"
        ],
        "bodyLangParam": 1173,
        "forceDoFreeStyle": true,
        "canDoRepeatFreeStyle": false,
        "eventPatternSuiteKey": "",
        "FOHHKFAIAAJ": ""
      }
    ],
    [
      {
        "$type": "PKKMAMONGEO",
        "type": "DIALOG",
        "aliasList": [
          "3162"
        ],
        "dialogID": 721140424,
        "protectTime": 0.5
      }
    ],
    [
      {
        "$type": "PKKMAMONGEO",
        "type": "DIALOG",
        "aliasList": [
          "3162"
        ],
        "dialogID": 721140425,
        "protectTime": 0.5
      }
    ],
    [
      {
        "$type": "HDGKHDNFMIM",
        "type": "DIALOG_SELECT",
        "delayTime": 0.4000000059604645,
        "aliasList": [
          "Avatar"
        ],
        "dialogIDList": [
          721140427
        ],
        "grpIDList": [
          4207768219
        ],
        "useGrpId": true
      },
      {
        "$type": "PKKMAMONGEO",
        "type": "DIALOG",
        "aliasList": [
          "3162"
        ],
        "dialogID": 721140426,
        "protectTime": 0.5
      }
    ],
    [
      {
        "$type": "PKKMAMONGEO",
        "type": "DIALOG",
        "aliasList": [
          "3162"
        ],
        "dialogID": 721140428,
        "protectTime": 0.5
      },
      {
        "$type": "FABLGECDBCH",
        "type": "BODY_LANG",
        "aliasList": [
          "3162"
        ],
        "bodyLangParam": 1171,
        "forceDoFreeStyle": true,
        "canDoRepeatFreeStyle": false,
        "eventPatternSuiteKey": "",
        "FOHHKFAIAAJ": ""
      }
    ],
    [
      {
        "$type": "HDGKHDNFMIM",
        "type": "DIALOG_SELECT",
        "delayTime": 0.4000000059604645,
        "aliasList": [
          "Avatar"
        ],
        "dialogIDList": [
          721140430,
          721140431
        ],
        "grpIDList": [
          4207768221,
          4207768221
        ],
        "useGrpId": true
      },
      {
        "$type": "PKKMAMONGEO",
        "type": "DIALOG",
        "aliasList": [
          "3162"
        ],
        "dialogID": 721140429,
        "protectTime": 0.5
      }
    ],
    [
      {
        "$type": "HDGKHDNFMIM",
        "type": "DIALOG_SELECT",
        "delayTime": 0.4000000059604645,
        "aliasList": [
          "Avatar"
        ],
        "dialogIDList": [
          721140433,
          721140434
        ],
        "grpIDList": [
          4207768222,
          4207768222
        ],
        "useGrpId": true
      },
      {
        "$type": "PKKMAMONGEO",
        "type": "DIALOG",
        "aliasList": [
          "3162"
        ],
        "dialogID": 721140432,
        "protectTime": 0.5
      }
    ],
    [
      {
        "$type": "HDGKHDNFMIM",
        "type": "DIALOG_SELECT",
        "delayTime": 0.4000000059604645,
        "aliasList": [
          "Avatar"
        ],
        "dialogIDList": [
          721140436
        ],
        "grpIDList": [
          4207768223
        ],
        "useGrpId": true
      },
      {
        "$type": "PKKMAMONGEO",
        "type": "DIALOG",
        "aliasList": [
          "3162"
        ],
        "dialogID": 721140435,
        "protectTime": 0.5
      }
    ],
    [
      {
        "$type": "PKKMAMONGEO",
        "type": "DIALOG",
        "aliasList": [
          "3162"
        ],
        "dialogID": 721140437,
        "protectTime": 0.5
      }
    ],
    [
      {
        "$type": "PKKMAMONGEO",
        "type": "DIALOG",
        "aliasList": [
          "3162"
        ],
        "dialogID": 721140438,
        "protectTime": 0.5
      }
    ],
    [
      {
        "$type": "PKKMAMONGEO",
        "type": "DIALOG",
        "aliasList": [
          "3162"
        ],
        "dialogID": 721140439,
        "protectTime": 0.5
      },
      {
        "$type": "FABLGECDBCH",
        "type": "BODY_LANG",
        "aliasList": [
          "3162"
        ],
        "bodyLangParam": 1173,
        "forceDoFreeStyle": true,
        "canDoRepeatFreeStyle": false,
        "eventPatternSuiteKey": "",
        "FOHHKFAIAAJ": ""
      }
    ],
    [
      {
        "$type": "PKKMAMONGEO",
        "type": "DIALOG",
        "aliasList": [
          "3162"
        ],
        "dialogID": 721140440,
        "protectTime": 0.5
      }
    ],
    [
      {
        "$type": "HDGKHDNFMIM",
        "type": "DIALOG_SELECT",
        "delayTime": 0.4000000059604645,
        "aliasList": [
          "Avatar"
        ],
        "dialogIDList": [
          721140442,
          721140443
        ],
        "grpIDList": [
          4207768250,
          4207768249
        ],
        "useGrpId": true
      },
      {
        "$type": "PKKMAMONGEO",
        "type": "DIALOG",
        "aliasList": [
          "3162"
        ],
        "dialogID": 721140441,
        "protectTime": 0.5
      }
    ],
    [
      {
        "$type": "PKKMAMONGEO",
        "type": "DIALOG",
        "aliasList": [
          "3162"
        ],
        "dialogID": 721140444,
        "protectTime": 0.5
      }
    ],
    [
      {
        "$type": "PKKMAMONGEO",
        "type": "DIALOG",
        "aliasList": [
          "3162"
        ],
        "dialogID": 721140445,
        "protectTime": 0.5
      },
      {
        "$type": "FABLGECDBCH",
        "type": "BODY_LANG",
        "aliasList": [
          "3162"
        ],
        "bodyLangParam": 1171,
        "forceDoFreeStyle": true,
        "canDoRepeatFreeStyle": false,
        "eventPatternSuiteKey": "",
        "FOHHKFAIAAJ": ""
      }
    ],
    [
      {
        "$type": "HDGKHDNFMIM",
        "type": "DIALOG_SELECT",
        "delayTime": 0.4000000059604645,
        "aliasList": [
          "Avatar"
        ],
        "dialogIDList": [
          721140447
        ],
        "grpIDList": [
          4207768252
        ],
        "useGrpId": true
      },
      {
        "$type": "PKKMAMONGEO",
        "type": "DIALOG",
        "aliasList": [
          "3162"
        ],
        "dialogID": 721140446,
        "protectTime": 0.5
      }
    ],
    [
      {
        "$type": "PKKMAMONGEO",
        "type": "DIALOG",
        "aliasList": [
          "3162"
        ],
        "dialogID": 721140448,
        "protectTime": 0.5
      }
    ],
    [
      {
        "$type": "PKKMAMONGEO",
        "type": "DIALOG",
        "aliasList": [
          "3162"
        ],
        "dialogID": 721140449,
        "protectTime": 0.5
      }
    ],
    [
      {
        "$type": "PKKMAMONGEO",
        "type": "DIALOG",
        "aliasList": [
          "3162"
        ],
        "dialogID": 721140450,
        "protectTime": 0.5
      }
    ],
    [
      {
        "$type": "PKKMAMONGEO",
        "type": "DIALOG",
        "aliasList": [
          "3162"
        ],
        "dialogID": 721140451,
        "protectTime": 0.5
      }
    ],
    [
      {
        "$type": "PKKMAMONGEO",
        "type": "DIALOG",
        "aliasList": [
          "3162"
        ],
        "dialogID": 721140452,
        "protectTime": 0.5
      }
    ],
    [
      {
        "$type": "PKKMAMONGEO",
        "type": "DIALOG",
        "aliasList": [
          "3162"
        ],
        "dialogID": 721140453,
        "protectTime": 0.5
      }
    ],
    [
      {
        "$type": "PKKMAMONGEO",
        "type": "DIALOG",
        "aliasList": [
          "3162"
        ],
        "dialogID": 721140454,
        "protectTime": 0.5
      }
    ],
    [
      {
        "$type": "PKKMAMONGEO",
        "type": "DIALOG",
        "aliasList": [
          "3162"
        ],
        "dialogID": 721140455,
        "protectTime": 0.5
      }
    ],
    [
      {
        "$type": "PKKMAMONGEO",
        "type": "DIALOG",
        "aliasList": [
          "3162"
        ],
        "dialogID": 721140456,
        "protectTime": 0.5
      }
    ],
    [
      {
        "$type": "PKKMAMONGEO",
        "type": "DIALOG",
        "aliasList": [
          "3162"
        ],
        "dialogID": 721140457,
        "protectTime": 0.5
      }
    ],
    [
      {
        "$type": "HDGKHDNFMIM",
        "type": "DIALOG_SELECT",
        "delayTime": 0.4000000059604645,
        "aliasList": [
          "Avatar"
        ],
        "dialogIDList": [
          721140459
        ],
        "grpIDList": [
          4207768284
        ],
        "useGrpId": true
      },
      {
        "$type": "PKKMAMONGEO",
        "type": "DIALOG",
        "aliasList": [
          "3162"
        ],
        "dialogID": 721140458,
        "protectTime": 0.5
      }
    ],
    [
      {
        "$type": "PKKMAMONGEO",
        "type": "DIALOG",
        "aliasList": [
          "3162"
        ],
        "dialogID": 721140460,
        "protectTime": 0.5
      }
    ],
    [
      {
        "$type": "PKKMAMONGEO",
        "type": "DIALOG",
        "aliasList": [
          "3162"
        ],
        "dialogID": 721140461,
        "protectTime": 0.5
      }
    ],
    [
      {
        "$type": "PKKMAMONGEO",
        "type": "DIALOG",
        "aliasList": [
          "3162"
        ],
        "dialogID": 721140462,
        "protectTime": 0.5
      },
      {
        "$type": "FABLGECDBCH",
        "type": "BODY_LANG",
        "aliasList": [
          "3162"
        ],
        "bodyLangParam": 1172,
        "forceDoFreeStyle": true,
        "canDoRepeatFreeStyle": false,
        "eventPatternSuiteKey": "",
        "FOHHKFAIAAJ": ""
      }
    ],
    [
      {
        "$type": "PKKMAMONGEO",
        "type": "DIALOG",
        "aliasList": [
          "3162"
        ],
        "dialogID": 721140463,
        "protectTime": 0.5
      }
    ],
    [
      {
        "$type": "HDGKHDNFMIM",
        "type": "DIALOG_SELECT",
        "delayTime": 0.4000000059604645,
        "aliasList": [
          "Avatar"
        ],
        "dialogIDList": [
          721140465,
          721140466
        ],
        "grpIDList": [
          4207768310,
          4207768310
        ],
        "useGrpId": true
      },
      {
        "$type": "PKKMAMONGEO",
        "type": "DIALOG",
        "aliasList": [
          "3162"
        ],
        "dialogID": 721140464,
        "protectTime": 0.5
      }
    ],
    [
      {
        "$type": "HDGKHDNFMIM",
        "type": "DIALOG_SELECT",
        "delayTime": 0.4000000059604645,
        "aliasList": [
          "Avatar"
        ],
        "dialogIDList": [
          721140468,
          721140469
        ],
        "grpIDList": [
          4207768311,
          4207768311
        ],
        "useGrpId": true
      },
      {
        "$type": "PKKMAMONGEO",
        "type": "DIALOG",
        "aliasList": [
          "3162"
        ],
        "dialogID": 721140467,
        "protectTime": 0.5
      }
    ],
    [
      {
        "$type": "PKKMAMONGEO",
        "type": "DIALOG",
        "aliasList": [
          "3162"
        ],
        "dialogID": 721140470,
        "protectTime": 0.5
      }
    ],
    [
      {
        "$type": "PKKMAMONGEO",
        "type": "DIALOG",
        "aliasList": [
          "3162"
        ],
        "dialogID": 721140471,
        "protectTime": 0.5
      }
    ],
    [
      {
        "$type": "PKKMAMONGEO",
        "type": "DIALOG",
        "aliasList": [
          "3162"
        ],
        "dialogID": 721140472,
        "protectTime": 0.5
      }
    ],
    [
      {
        "$type": "PKKMAMONGEO",
        "type": "DIALOG",
        "aliasList": [
          "3162"
        ],
        "dialogID": 721140473,
        "protectTime": 0.5
      }
    ],
    [
      {
        "$type": "PKKMAMONGEO",
        "type": "DIALOG",
        "aliasList": [
          "3162"
        ],
        "dialogID": 721140474,
        "protectTime": 0.5
      }
    ],
    [
      {
        "$type": "PKKMAMONGEO",
        "type": "DIALOG",
        "aliasList": [
          "3162"
        ],
        "dialogID": 721140475,
        "protectTime": 0.5
      },
      {
        "$type": "FABLGECDBCH",
        "type": "BODY_LANG",
        "aliasList": [
          "3162"
        ],
        "bodyLangParam": 1171,
        "forceDoFreeStyle": true,
        "canDoRepeatFreeStyle": false,
        "eventPatternSuiteKey": "",
        "FOHHKFAIAAJ": ""
      }
    ],
    [
      {
        "$type": "PKKMAMONGEO",
        "type": "DIALOG",
        "aliasList": [
          "3162"
        ],
        "dialogID": 721140476,
        "protectTime": 0.5
      }
    ],
    [
      {
        "$type": "PKKMAMONGEO",
        "type": "DIALOG",
        "aliasList": [
          "3162"
        ],
        "dialogID": 721140477,
        "protectTime": 0.5
      }
    ],
    [
      {
        "$type": "PKKMAMONGEO",
        "type": "DIALOG",
        "aliasList": [
          "3162"
        ],
        "dialogID": 721140478,
        "protectTime": 0.5
      }
    ],
    [
      {
        "$type": "MoleMole.Config.ConfigLuaAction",
        "type": "LUA_ACTION",
        "delayTime": 0.8999999761581421,
        "duration": 1.0,
        "invoke": true,
        "invokeAlias": "72114",
        "invokeParam": 1
      },
      {
        "$type": "HDGKHDNFMIM",
        "type": "DIALOG_SELECT",
        "delayTime": 1.0,
        "aliasList": [
          "Avatar"
        ],
        "dialogIDList": [
          721140480
        ],
        "grpIDList": [
          4207768342
        ],
        "useGrpId": true
      },
      {
        "$type": "PKKMAMONGEO",
        "type": "DIALOG",
        "aliasList": [
          "3162"
        ],
        "dialogID": 721140479,
        "protectTime": 1.100000023841858
      }
    ],
    [
      {
        "$type": "PKKMAMONGEO",
        "type": "DIALOG",
        "aliasList": [
          "3162"
        ],
        "dialogID": 721140481,
        "protectTime": 0.5
      }
    ],
    [
      {
        "$type": "PKKMAMONGEO",
        "type": "DIALOG",
        "aliasList": [
          "3162"
        ],
        "dialogID": 721140482,
        "protectTime": 0.5
      }
    ],
    [
      {
        "$type": "PKKMAMONGEO",
        "type": "DIALOG",
        "aliasList": [
          "3162"
        ],
        "dialogID": 721140483,
        "protectTime": 0.5
      },
      {
        "$type": "FABLGECDBCH",
        "type": "BODY_LANG",
        "aliasList": [
          "3162"
        ],
        "bodyLangParam": 1172,
        "forceDoFreeStyle": true,
        "canDoRepeatFreeStyle": false,
        "eventPatternSuiteKey": "",
        "FOHHKFAIAAJ": ""
      }
    ],
    [
      {
        "$type": "PKKMAMONGEO",
        "type": "DIALOG",
        "aliasList": [
          "3162"
        ],
        "dialogID": 721140484,
        "protectTime": 0.5
      }
    ],
    [
      {
        "$type": "HDGKHDNFMIM",
        "type": "DIALOG_SELECT",
        "delayTime": 0.4000000059604645,
        "aliasList": [
          "Avatar"
        ],
        "dialogIDList": [
          721140486,
          721140488
        ],
        "grpIDList": [
          4207768347,
          4207768348
        ],
        "useGrpId": true
      },
      {
        "$type": "PKKMAMONGEO",
        "type": "DIALOG",
        "aliasList": [
          "3162"
        ],
        "dialogID": 721140485,
        "protectTime": 0.5
      }
    ],
    [
      {
        "$type": "PKKMAMONGEO",
        "type": "DIALOG",
        "aliasList": [
          "3162"
        ],
        "dialogID": 721140487,
        "protectTime": 0.5
      }
    ],
    [
      {
        "$type": "PKKMAMONGEO",
        "type": "DIALOG",
        "aliasList": [
          "3162"
        ],
        "dialogID": 721140489,
        "protectTime": 0.5
      }
    ],
    [
      {
        "$type": "MoleMole.Config.ConfigTimeProtectAction",
        "type": "TIME_PROTECT",
        "duration": 0.10000000149011612
      }
    ],
    [
      {
        "$type": "MoleMole.Config.ConfigTimeProtectAction",
        "type": "TIME_PROTECT",
        "duration": 0.10000000149011612
      },
      {
        "$type": "LLGANGLOEEO",
        "type": "STEER_TO",
        "duration": 0.800000011920929,
        "aliasList": [
          "3162"
        ],
        "steerType": "RETURN",
        "useSteerAnim": true,
        "interruptFreestyle": true,
        "forceSteer": true,
        "targetNpcAlias": "",
        "OAFJBHJHLJG": ""
      }
    ]
  ],
  "groupId": [
    {
      "grpId": 2213944438,
      "nextGrpId": 2213944439
    },
    {
      "index": 1,
      "grpId": 2213944439,
      "nextGrpId": 2213944440
    },
    {
      "index": 2,
      "grpId": 2213944440,
      "nextGrpId": 2213944441
    },
    {
      "index": 3,
      "grpId": 2213944441,
      "nextGrpId": 2213944442
    },
    {
      "index": 4,
      "grpId": 2213944442,
      "nextGrpId": 2213944443
    },
    {
      "index": 5,
      "grpId": 2213944443,
      "nextGrpId": 2213944444
    },
    {
      "index": 6,
      "grpId": 2213944444,
      "nextGrpId": 2213944445
    },
    {
      "index": 7,
      "grpId": 2213944445,
      "nextGrpId": 2213944446
    },
    {
      "index": 8,
      "grpId": 2213944446,
      "nextGrpId": 4207768187
    },
    {
      "index": 9,
      "grpId": 4207768186,
      "nextGrpId": 4207768187
    },
    {
      "index": 10,
      "grpId": 4207768187,
      "nextGrpId": 4207768188
    },
    {
      "index": 11,
      "grpId": 4207768188,
      "nextGrpId": 4207768189
    },
    {
      "index": 12,
      "grpId": 4207768189,
      "nextGrpId": 4207768190
    },
    {
      "index": 13,
      "grpId": 4207768190,
      "nextGrpId": 4207768191
    },
    {
      "index": 14,
      "grpId": 4207768191,
      "nextGrpId": 4207768192
    },
    {
      "index": 15,
      "grpId": 4207768192,
      "nextGrpId": 4207768193
    },
    {
      "index": 16,
      "grpId": 4207768193,
      "nextGrpId": 4207768194
    },
    {
      "index": 17,
      "grpId": 4207768194,
      "nextGrpId": 4207768195
    },
    {
      "index": 18,
      "grpId": 4207768195,
      "nextGrpId": 4207768217
    },
    {
      "index": 19,
      "grpId": 4207768217,
      "nextGrpId": 4207768218
    },
    {
      "index": 20,
      "grpId": 4207768218,
      "nextGrpId": 4207768219
    },
    {
      "index": 21,
      "grpId": 4207768219,
      "nextGrpId": 4207768220
    },
    {
      "index": 22,
      "grpId": 4207768220,
      "nextGrpId": 4207768221
    },
    {
      "index": 23,
      "grpId": 4207768221,
      "nextGrpId": 4207768222
    },
    {
      "index": 24,
      "grpId": 4207768222,
      "nextGrpId": 4207768223
    },
    {
      "index": 25,
      "grpId": 4207768223,
      "nextGrpId": 4207768224
    },
    {
      "index": 26,
      "grpId": 4207768224,
      "nextGrpId": 4207768225
    },
    {
      "index": 27,
      "grpId": 4207768225,
      "nextGrpId": 4207768226
    },
    {
      "index": 28,
      "grpId": 4207768226,
      "nextGrpId": 4207768248
    },
    {
      "index": 29,
      "grpId": 4207768248,
      "nextGrpId": 4207768249
    },
    {
      "index": 30,
      "grpId": 4207768249,
      "nextGrpId": 4207768250
    },
    {
      "index": 31,
      "grpId": 4207768250,
      "nextGrpId": 4207768251
    },
    {
      "index": 32,
      "grpId": 4207768251,
      "nextGrpId": 4207768252
    },
    {
      "index": 33,
      "grpId": 4207768252,
      "nextGrpId": 4207768253
    },
    {
      "index": 34,
      "grpId": 4207768253,
      "nextGrpId": 4207768254
    },
    {
      "index": 35,
      "grpId": 4207768254,
      "nextGrpId": 4207768255
    },
    {
      "index": 36,
      "grpId": 4207768255,
      "nextGrpId": 4207768256
    },
    {
      "index": 37,
      "grpId": 4207768256,
      "nextGrpId": 4207768257
    },
    {
      "index": 38,
      "grpId": 4207768257,
      "nextGrpId": 4207768279
    },
    {
      "index": 39,
      "grpId": 4207768279,
      "nextGrpId": 4207768280
    },
    {
      "index": 40,
      "grpId": 4207768280,
      "nextGrpId": 4207768281
    },
    {
      "index": 41,
      "grpId": 4207768281,
      "nextGrpId": 4207768282
    },
    {
      "index": 42,
      "grpId": 4207768282,
      "nextGrpId": 4207768283
    },
    {
      "index": 43,
      "grpId": 4207768283,
      "nextGrpId": 4207768284
    },
    {
      "index": 44,
      "grpId": 4207768284,
      "nextGrpId": 4207768285
    },
    {
      "index": 45,
      "grpId": 4207768285,
      "nextGrpId": 4207768286
    },
    {
      "index": 46,
      "grpId": 4207768286,
      "nextGrpId": 4207768287
    },
    {
      "index": 47,
      "grpId": 4207768287,
      "nextGrpId": 4207768288
    },
    {
      "index": 48,
      "grpId": 4207768288,
      "nextGrpId": 4207768310
    },
    {
      "index": 49,
      "grpId": 4207768310,
      "nextGrpId": 4207768311
    },
    {
      "index": 50,
      "grpId": 4207768311,
      "nextGrpId": 4207768312
    },
    {
      "index": 51,
      "grpId": 4207768312,
      "nextGrpId": 4207768313
    },
    {
      "index": 52,
      "grpId": 4207768313,
      "nextGrpId": 4207768314
    },
    {
      "index": 53,
      "grpId": 4207768314,
      "nextGrpId": 4207768315
    },
    {
      "index": 54,
      "grpId": 4207768315,
      "nextGrpId": 4207768316
    },
    {
      "index": 55,
      "grpId": 4207768316,
      "nextGrpId": 4207768317
    },
    {
      "index": 56,
      "grpId": 4207768317,
      "nextGrpId": 4207768318
    },
    {
      "index": 57,
      "grpId": 4207768318,
      "nextGrpId": 4207768319
    },
    {
      "index": 58,
      "grpId": 4207768319,
      "nextGrpId": 4207768341
    },
    {
      "index": 59,
      "grpId": 4207768341,
      "nextGrpId": 4207768342
    },
    {
      "index": 60,
      "grpId": 4207768342,
      "nextGrpId": 4207768343
    },
    {
      "index": 61,
      "grpId": 4207768343,
      "nextGrpId": 4207768344
    },
    {
      "index": 62,
      "grpId": 4207768344,
      "nextGrpId": 4207768345
    },
    {
      "index": 63,
      "grpId": 4207768345,
      "nextGrpId": 4207768346
    },
    {
      "index": 64,
      "grpId": 4207768346,
      "nextGrpId": 4207768347
    },
    {
      "index": 65,
      "grpId": 4207768347,
      "nextGrpId": 4207768348
    },
    {
      "index": 66,
      "grpId": 4207768348,
      "nextGrpId": 4207768349
    },
    {
      "index": 67,
      "grpId": 4207768349,
      "nextGrpId": 4207768350
    },
    {
      "index": 68,
      "grpId": 4207768350,
      "nextGrpId": 4207768372
    }
  ],
  "freeStyleDic": {
    "3162": [
      1171,
      1172,
      1173
    ]
  }
}