{
  "luaDataPath": "",
  "isSimpleTalk": true,
  "entityBan": "",
  "disableNpcLod": true,
  "protectNpcMobileLod": true,
  "talkFlag": 5,
  "startFade": {
    "startFadeOutDuration": 0.0
  },
  "endFade": {
    "startFadeOutDuration": 0.0
  },
  "actors": [
    {
      "alias": "Avatar",
      "visible": true,
      "bornPointName": "",
      "relativePosType": "AVATAR_NEW",
      "relativePosNpcAlias": "",
      "_bindMovingTargetKey": ""
    },
    {
      "configID": 30342,
      "alias": "30342",
      "visible": true,
      "bornPointName": "",
      "forceCreateDaily": true,
      "relativePosType": "AVATAR_NEW",
      "relativePosNpcAlias": "",
      "_bindMovingTargetKey": ""
    }
  ],
  "group": [
    [
      {
        "$type": "FJKIHHKJLMJ",
        "type": "CAMERA_FOCUS",
        "duration": 0.10000000149011612,
        "actionId": 103,
        "targetNpcAlias": "",
        "KJOEFBPOIIH": "",
        "IICFKKEBIEC": "",
        "EGEHEJEBLBJ": ""
      },
      {
        "$type": "MoleMole.Config.ConfigTimeProtectAction",
        "type": "TIME_PROTECT",
        "duration": 0.10000000149011612,
        "actionId": 104
      },
      {
        "$type": "LLGANGLOEEO",
        "type": "STEER_TO",
        "delayTime": 0.30000001192092896,
        "duration": 0.800000011920929,
        "aliasList": [
          "Avatar"
        ],
        "actionId": 131,
        "steerType": "TO_TARGET_ADVANCED",
        "useSteerAnim": true,
        "interruptFreestyle": true,
        "forceSteer": true,
        "targetNpcAlias": "30342",
        "fixInterNull": true,
        "OAFJBHJHLJG": ""
      },
      {
        "$type": "LLGANGLOEEO",
        "type": "STEER_TO",
        "delayTime": 0.30000001192092896,
        "duration": 0.800000011920929,
        "aliasList": [
          "30342"
        ],
        "actionId": 132,
        "steerType": "TO_LOCAL_AVATAR_ADVANCED",
        "useSteerAnim": true,
        "interruptFreestyle": true,
        "forceSteer": true,
        "targetNpcAlias": "",
        "fixInterNull": true,
        "OAFJBHJHLJG": ""
      }
    ],
    [
      {
        "$type": "PKKMAMONGEO",
        "type": "DIALOG",
        "aliasList": [
          "30342"
        ],
        "actionId": 107,
        "dialogID": 735190101,
        "protectTime": 0.5
      },
      {
        "$type": "HDGKHDNFMIM",
        "type": "DIALOG_SELECT",
        "delayTime": 0.4000000059604645,
        "aliasList": [
          "Avatar"
        ],
        "actionId": 108,
        "dialogIDList": [
          735190102,
          735190103
        ],
        "grpIDList": [
          2850863460,
          2850863460
        ],
        "useGrpId": true,
        "countDownGrpId": 2850863457
      }
    ],
    [
      {
        "$type": "PKKMAMONGEO",
        "type": "DIALOG",
        "aliasList": [
          "30342"
        ],
        "actionId": 110,
        "dialogID": 735190104,
        "protectTime": 0.5
      }
    ],
    [
      {
        "$type": "PKKMAMONGEO",
        "type": "DIALOG",
        "aliasList": [
          "30342"
        ],
        "actionId": 112,
        "dialogID": 735190105,
        "protectTime": 0.5
      }
    ],
    [
      {
        "$type": "PKKMAMONGEO",
        "type": "DIALOG",
        "aliasList": [
          "30342"
        ],
        "actionId": 114,
        "dialogID": 735190106,
        "protectTime": 0.5
      }
    ],
    [
      {
        "$type": "PKKMAMONGEO",
        "type": "DIALOG",
        "aliasList": [
          "30342"
        ],
        "actionId": 116,
        "dialogID": 735190107,
        "protectTime": 0.5
      },
      {
        "$type": "HDGKHDNFMIM",
        "type": "DIALOG_SELECT",
        "delayTime": 0.4000000059604645,
        "aliasList": [
          "Avatar"
        ],
        "actionId": 117,
        "dialogIDList": [
          735190108
        ],
        "grpIDList": [
          2850863464
        ],
        "useGrpId": true,
        "countDownGrpId": 2850863457
      }
    ],
    [
      {
        "$type": "PKKMAMONGEO",
        "type": "DIALOG",
        "aliasList": [
          "30342"
        ],
        "actionId": 119,
        "dialogID": 735190109,
        "protectTime": 0.5
      }
    ],
    [
      {
        "$type": "PKKMAMONGEO",
        "type": "DIALOG",
        "aliasList": [
          "30342"
        ],
        "actionId": 121,
        "dialogID": 735190110,
        "protectTime": 0.5
      },
      {
        "$type": "HDGKHDNFMIM",
        "type": "DIALOG_SELECT",
        "delayTime": 0.4000000059604645,
        "aliasList": [
          "Avatar"
        ],
        "actionId": 122,
        "dialogIDList": [
          735190111,
          735190112
        ],
        "grpIDList": [
          2850863466,
          2850863466
        ],
        "useGrpId": true,
        "countDownGrpId": 2850863457
      }
    ],
    [
      {
        "$type": "PKKMAMONGEO",
        "type": "DIALOG",
        "aliasList": [
          "30342"
        ],
        "actionId": 124,
        "dialogID": 735190113,
        "protectTime": 0.5
      }
    ],
    [
      {
        "$type": "PKKMAMONGEO",
        "type": "DIALOG",
        "aliasList": [
          "30342"
        ],
        "actionId": 126,
        "dialogID": 735190114,
        "protectTime": 0.5
      }
    ],
    [
      {
        "$type": "PKKMAMONGEO",
        "type": "DIALOG",
        "aliasList": [
          "30342"
        ],
        "actionId": 128,
        "dialogID": 735190115,
        "protectTime": 0.5
      }
    ],
    [
      {
        "$type": "PKKMAMONGEO",
        "type": "DIALOG",
        "aliasList": [
          "30342"
        ],
        "actionId": 130,
        "dialogID": 735190116,
        "protectTime": 0.5
      }
    ],
    [
      {
        "$type": "MoleMole.Config.ConfigTimeProtectAction",
        "type": "TIME_PROTECT",
        "duration": 0.10000000149011612,
        "actionId": 105
      },
      {
        "$type": "MoleMole.Config.ConfigSimpleBlackScreenAction",
        "type": "SIMPLE_BLACK_SCREEN",
        "actionId": 135,
        "durationToBlack": 0.5,
        "durationKeepBlack": 1.0,
        "durationFromBlack": 0.5,
        "textMapID": "",
        "useTextFade": true
      },
      {
        "$type": "LLGANGLOEEO",
        "type": "STEER_TO",
        "duration": 1.0,
        "aliasList": [
          "30342"
        ],
        "actionId": 133,
        "steerType": "RETURN",
        "useSteerAnim": true,
        "interruptFreestyle": true,
        "forceSteer": true,
        "targetNpcAlias": "",
        "ignoreY": true,
        "fixInterNull": true,
        "OAFJBHJHLJG": ""
      },
      {
        "$type": "MoleMole.Config.ConfigVisibleInterAction",
        "type": "VISIBLE",
        "delayTime": 0.5,
        "aliasList": [
          "30342"
        ],
        "actionId": 134,
        "_extraParam": ""
      }
    ]
  ],
  "groupId": [
    {
      "grpId": 2850863458,
      "nextGrpId": 2850863459
    },
    {
      "index": 1,
      "grpId": 2850863459,
      "nextGrpId": 2850863460
    },
    {
      "index": 2,
      "grpId": 2850863460,
      "nextGrpId": 2850863461
    },
    {
      "index": 3,
      "grpId": 2850863461,
      "nextGrpId": 2850863462
    },
    {
      "index": 4,
      "grpId": 2850863462,
      "nextGrpId": 2850863463
    },
    {
      "index": 5,
      "grpId": 2850863463,
      "nextGrpId": 2850863464
    },
    {
      "index": 6,
      "grpId": 2850863464,
      "nextGrpId": 2850863465
    },
    {
      "index": 7,
      "grpId": 2850863465,
      "nextGrpId": 2850863466
    },
    {
      "index": 8,
      "grpId": 2850863466,
      "nextGrpId": 2477421326
    },
    {
      "index": 9,
      "grpId": 2477421326,
      "nextGrpId": 2477421327
    },
    {
      "index": 10,
      "grpId": 2477421327,
      "nextGrpId": 2477421328
    },
    {
      "index": 11,
      "grpId": 2477421328,
      "nextGrpId": 2477421329
    },
    {
      "index": 12,
      "grpId": 2477421329,
      "nextGrpId": 2477421330
    }
  ],
  "freeStyleDic": {
    "30342": []
  }
}