{
  "sceneId": 1015,
  "roomList": [
    {
      "name": "room_global",
      "reverbAuxBus": {
        "text": "aux_scene_dungeon_default"
      },
      "keepRegister": true
    },
    {
      "name": "room_dungeon_open_huge",
      "reverbAuxBus": {
        "text": "aux_scene_dungeon_open_huge"
      },
      "keepRegister": true,
      "boxRoomTriggers": [
        {
          "BOEDGBKEFNH": {
            "x": -70.0,
            "z": 30.0
          },
          "size": {
            "x": 120.0,
            "y": 80.0,
            "z": 120.0
          }
        }
      ]
    },
    {
      "name": "room_dungeon_close_small",
      "reverbAuxBus": {
        "text": "aux_scene_dungeon_close_small"
      },
      "keepRegister": true,
      "boxRoomTriggers": [
        {
          "BOEDGBKEFNH": {
            "x": 65.0,
            "y": 10.0,
            "z": 25.0
          },
          "size": {
            "x": 20.0,
            "y": 30.0,
            "z": 32.0
          }
        }
      ]
    },
    {
      "name": "room_dungeon_close_long",
      "reverbAuxBus": {
        "text": "aux_scene_dungeon_close_long"
      },
      "keepRegister": true,
      "boxRoomTriggers": [
        {
          "BOEDGBKEFNH": {
            "x": -85.0,
            "y": 40.0,
            "z": 130.0
          },
          "size": {
            "x": 35.0,
            "y": 40.0,
            "z": 60.0
          }
        }
      ]
    }
  ],
  "portalList": [
    {
      "name": "portal_room_dungeon_open_huge_to_outdoor_f",
      "BOEDGBKEFNH": {
        "x": -70.0,
        "z": 90.0
      },
      "size": {
        "x": 120.0,
        "y": 80.0,
        "z": 6.0
      },
      "frontRoomName": "room_global",
      "backRoomName": "room_dungeon_open_huge"
    },
    {
      "name": "portal_room_dungeon_open_huge_to_outdoor_r",
      "BOEDGBKEFNH": {
        "x": -10.0,
        "z": 30.0
      },
      "rotation": {
        "y": -90.0
      },
      "size": {
        "x": 120.0,
        "y": 80.0,
        "z": 10.0
      },
      "frontRoomName": "room_dungeon_open_huge",
      "backRoomName": "room_global"
    },
    {
      "name": "portal_room_dungeon_close_small_to_outdoor_l",
      "BOEDGBKEFNH": {
        "x": 58.0,
        "y": 10.0,
        "z": 17.0
      },
      "rotation": {
        "y": -90.0
      },
      "size": {
        "x": 18.0,
        "y": 20.0,
        "z": 8.0
      },
      "frontRoomName": "room_global",
      "backRoomName": "room_dungeon_close_small"
    },
    {
      "name": "portal_room_dungeon_close_small_to_outdoor_b",
      "BOEDGBKEFNH": {
        "x": 67.0,
        "y": 10.0,
        "z": 9.0
      },
      "size": {
        "x": 16.0,
        "y": 20.0,
        "z": 4.0
      },
      "frontRoomName": "room_dungeon_close_small",
      "backRoomName": "room_global"
    },
    {
      "name": "portal_room_dungeon_close_long_to_outdoor_b",
      "BOEDGBKEFNH": {
        "x": -85.0,
        "y": 40.0,
        "z": 100.0
      },
      "size": {
        "x": 35.0,
        "y": 40.0,
        "z": 6.0
      },
      "frontRoomName": "room_dungeon_close_long",
      "backRoomName": "room_global"
    }
  ],
  "globalRoom": "room_global"
}