{
  "luaDataPath": "",
  "startBlackKeepTime": 0.5,
  "entityBan": "",
  "disableNpcLod": true,
  "isAutoBanNpc": true,
  "isBanWidgetPet": true,
  "protectNpcMobileLod": true,
  "startFade": {
    "startFadeInDuration": 0.5,
    "startFadeOutDuration": 0.5
  },
  "endFade": {
    "startFadeOutDuration": 0.0
  },
  "actors": [
    {
      "alias": "Avatar",
      "visible": true,
      "bornPointName": "",
      "relativePosType": "AVATAR_NEW",
      "relativePosNpcAlias": "",
      "_bindMovingTargetKey": ""
    },
    {
      "configID": 20657,
      "alias": "20657",
      "visible": true,
      "bornPointName": "Q2301501_N20657",
      "relativePosType": "AVATAR_NEW",
      "relativePosNpcAlias": "",
      "_bindMovingTargetKey": ""
    },
    {
      "configID": 4042,
      "alias": "4042",
      "visible": true,
      "bornPointName": "Q2301501_N4042",
      "forceCreateDaily": true,
      "relativePosType": "AVATAR_NEW",
      "relativePosNpcAlias": "",
      "_bindMovingTargetKey": ""
    },
    {
      "configID": 20658,
      "alias": "20658",
      "visible": true,
      "bornPointName": "Q2301501_N20658",
      "relativePosType": "AVATAR_NEW",
      "relativePosNpcAlias": "",
      "_bindMovingTargetKey": ""
    }
  ],
  "group": [
    [
      {
        "$type": "MoleMole.Config.ConfigTimeProtectAction",
        "type": "TIME_PROTECT",
        "duration": 0.10000000149011612
      },
      {
        "$type": "MoleMole.Config.ConfigSimpleBlackScreenAction",
        "type": "SIMPLE_BLACK_SCREEN",
        "actionId": 137,
        "durationToBlack": 0.5,
        "durationKeepBlack": 1.0,
        "durationFromBlack": 0.5,
        "textMapID": "",
        "useTextFade": true
      },
      {
        "$type": "MoleMole.Config.ConfigTeleportToAction",
        "type": "TELEPORT_TO",
        "aliasList": [
          "Avatar"
        ],
        "actionId": 156,
        "position": {
          "x": -440.3710021972656,
          "y": 235.91700744628906,
          "z": 2774.908935546875
        },
        "forward": {
          "x": -3.367000102996826,
          "y": 0.31200000643730164,
          "z": 0.9049999713897705
        },
        "openLongDisTeleport": true,
        "_posBindMovingTargetKey": "",
        "_forwardBindMovingTargetKey": ""
      },
      {
        "$type": "MoleMole.Config.ConfigTeleportToAction",
        "type": "TELEPORT_TO",
        "aliasList": [
          "4042"
        ],
        "actionId": 182,
        "position": {
          "x": -443.2869873046875,
          "y": 235.91700744628906,
          "z": 2776.52490234375
        },
        "forward": {
          "x": 0.6990000009536743,
          "y": 0.0010000000474974513,
          "z": -1.0529999732971191
        },
        "openLongDisTeleport": true,
        "_posBindMovingTargetKey": "",
        "_forwardBindMovingTargetKey": ""
      }
    ],
    [
      {
        "$type": "FJKIHHKJLMJ",
        "type": "CAMERA_MOVE",
        "duration": 1.0,
        "actionId": 193,
        "camPosOffset": {
          "x": -438.1759948730469,
          "y": 238.51300048828125,
          "z": 2774.487060546875
        },
        "camForwardTargetOffset": {
          "x": -439.0979919433594,
          "y": 238.21200561523438,
          "z": 2774.73193359375
        },
        "camFov": 58.803001403808594,
        "lerpPattern": 6,
        "cameraBlendType": "EaseInOutCubic",
        "NJBNNOMLKCK": {},
        "needZAxisRotate": true,
        "openCameraDither": false,
        "targetNpcAlias": "",
        "closeTreeLeafDither": true,
        "KJOEFBPOIIH": "",
        "IICFKKEBIEC": "",
        "EGEHEJEBLBJ": ""
      },
      {
        "$type": "LJLMDHDCAMK",
        "type": "LOOK_AT",
        "aliasList": [
          "Avatar"
        ],
        "enableHead": true,
        "headTurnTime": 0.5,
        "targetNpcAlias": "20657",
        "targetNpcLookAtPoint": "",
        "OAFJBHJHLJG": ""
      },
      {
        "$type": "PKKMAMONGEO",
        "type": "DIALOG",
        "aliasList": [
          "20657"
        ],
        "dialogID": 230150101,
        "protectTime": 0.5
      },
      {
        "$type": "LJLMDHDCAMK",
        "type": "LOOK_AT",
        "aliasList": [
          "4042"
        ],
        "enableHead": true,
        "headTurnTime": 0.5,
        "targetNpcAlias": "20657",
        "targetNpcLookAtPoint": "",
        "OAFJBHJHLJG": ""
      },
      {
        "$type": "FABLGECDBCH",
        "type": "BODY_LANG",
        "aliasList": [
          "4042"
        ],
        "actionId": 159,
        "bodyLangParam": 1120,
        "forceDoFreeStyle": true,
        "canDoRepeatFreeStyle": false,
        "eventPatternSuiteKey": "",
        "FOHHKFAIAAJ": ""
      },
      {
        "$type": "FABLGECDBCH",
        "type": "BODY_LANG",
        "aliasList": [
          "20658"
        ],
        "actionId": 160,
        "bodyLangParam": 1240,
        "forceDoFreeStyle": true,
        "canDoRepeatFreeStyle": false,
        "eventPatternSuiteKey": "",
        "FOHHKFAIAAJ": ""
      },
      {
        "$type": "FJKIHHKJLMJ",
        "type": "CAMERA_MOVE",
        "delayTime": 0.10000000149011612,
        "duration": 8.0,
        "actionId": 193,
        "camPosOffset": {
          "x": -438.6090087890625,
          "y": 238.3719940185547,
          "z": 2774.60205078125
        },
        "camForwardTargetOffset": {
          "x": -439.531005859375,
          "y": 238.0709991455078,
          "z": 2774.846923828125
        },
        "camFov": 58.803001403808594,
        "cameraBlendType": "EaseOutQuad",
        "NJBNNOMLKCK": {},
        "needZAxisRotate": true,
        "openCameraDither": false,
        "targetNpcAlias": "",
        "closeTreeLeafDither": true,
        "KJOEFBPOIIH": "",
        "IICFKKEBIEC": "",
        "EGEHEJEBLBJ": ""
      },
      {
        "$type": "FABLGECDBCH",
        "type": "BODY_LANG",
        "delayTime": 0.18299999833106995,
        "aliasList": [
          "20657"
        ],
        "actionId": 158,
        "bodyLangParam": 1170,
        "forceDoFreeStyle": true,
        "canDoRepeatFreeStyle": false,
        "eventPatternSuiteKey": "",
        "FOHHKFAIAAJ": ""
      }
    ],
    [
      {
        "$type": "FJKIHHKJLMJ",
        "type": "CAMERA_MOVE",
        "duration": 1.0,
        "actionId": 194,
        "camPosOffset": {
          "x": -442.2650146484375,
          "y": 237.6020050048828,
          "z": 2776.166015625
        },
        "camForwardTargetOffset": {
          "x": -443.1579895019531,
          "y": 237.46200561523438,
          "z": 2776.593017578125
        },
        "camFov": 54.17399978637695,
        "lerpPattern": 6,
        "cameraBlendType": "EaseInOutCubic",
        "NJBNNOMLKCK": {},
        "needZAxisRotate": true,
        "openCameraDither": false,
        "targetNpcAlias": "",
        "closeTreeLeafDither": true,
        "KJOEFBPOIIH": "",
        "IICFKKEBIEC": "",
        "EGEHEJEBLBJ": ""
      },
      {
        "$type": "LJLMDHDCAMK",
        "type": "LOOK_AT",
        "aliasList": [
          "Avatar"
        ],
        "enableHead": true,
        "headTurnTime": 0.5,
        "targetNpcAlias": "4042",
        "targetNpcLookAtPoint": "",
        "OAFJBHJHLJG": ""
      },
      {
        "$type": "LJLMDHDCAMK",
        "type": "LOOK_AT",
        "aliasList": [
          "20657"
        ],
        "enableHead": true,
        "headTurnTime": 0.5,
        "targetNpcAlias": "4042",
        "targetNpcLookAtPoint": "",
        "OAFJBHJHLJG": ""
      },
      {
        "$type": "FABLGECDBCH",
        "type": "BODY_LANG",
        "aliasList": [
          "20657"
        ],
        "actionId": 226,
        "isContinue": true,
        "forceDoFreeStyle": true,
        "canDoRepeatFreeStyle": false,
        "eventPatternSuiteKey": "",
        "FOHHKFAIAAJ": ""
      },
      {
        "$type": "PKKMAMONGEO",
        "type": "DIALOG",
        "aliasList": [
          "4042"
        ],
        "dialogID": 230150102,
        "protectTime": 1.7170000076293945
      },
      {
        "$type": "FABLGECDBCH",
        "type": "BODY_LANG",
        "aliasList": [
          "4042"
        ],
        "actionId": 189,
        "bodyLangParam": 1120,
        "forceDoFreeStyle": true,
        "canDoRepeatFreeStyle": false,
        "eventPatternSuiteKey": "",
        "FOHHKFAIAAJ": ""
      },
      {
        "$type": "LJLMDHDCAMK",
        "type": "LOOK_AT",
        "aliasList": [
          "20658"
        ],
        "enableHead": true,
        "headTurnTime": 0.5,
        "targetNpcAlias": "4042",
        "targetNpcLookAtPoint": "",
        "OAFJBHJHLJG": ""
      },
      {
        "$type": "FJKIHHKJLMJ",
        "type": "CAMERA_MOVE",
        "delayTime": 0.10000000149011612,
        "duration": 16.0,
        "actionId": 194,
        "camPosOffset": {
          "x": -441.91900634765625,
          "y": 237.656005859375,
          "z": 2776.0
        },
        "camForwardTargetOffset": {
          "x": -442.81201171875,
          "y": 237.51600646972656,
          "z": 2776.427001953125
        },
        "camFov": 54.17399978637695,
        "cameraBlendType": "EaseOutQuad",
        "NJBNNOMLKCK": {},
        "needZAxisRotate": true,
        "openCameraDither": false,
        "targetNpcAlias": "",
        "closeTreeLeafDither": true,
        "KJOEFBPOIIH": "",
        "IICFKKEBIEC": "",
        "EGEHEJEBLBJ": ""
      },
      {
        "$type": "FABLGECDBCH",
        "type": "BODY_LANG",
        "delayTime": 1.6169999837875366,
        "aliasList": [
          "4042"
        ],
        "actionId": 190,
        "bodyLangParam": 1120,
        "forceDoFreeStyle": true,
        "canDoRepeatFreeStyle": false,
        "eventPatternSuiteKey": "",
        "FOHHKFAIAAJ": ""
      }
    ],
    [
      {
        "$type": "FJKIHHKJLMJ",
        "type": "CAMERA_MOVE",
        "duration": 1.0,
        "actionId": 195,
        "camPosOffset": {
          "x": -442.85198974609375,
          "y": 237.6909942626953,
          "z": 2776.48193359375
        },
        "camForwardTargetOffset": {
          "x": -442.3689880371094,
          "y": 237.447998046875,
          "z": 2775.64111328125
        },
        "camFov": 58.803001403808594,
        "lerpPattern": 6,
        "cameraBlendType": "EaseInOutCubic",
        "NJBNNOMLKCK": {},
        "needZAxisRotate": true,
        "openCameraDither": false,
        "targetNpcAlias": "",
        "closeTreeLeafDither": true,
        "KJOEFBPOIIH": "",
        "IICFKKEBIEC": "",
        "EGEHEJEBLBJ": ""
      },
      {
        "$type": "LJLMDHDCAMK",
        "type": "LOOK_AT",
        "aliasList": [
          "Avatar"
        ],
        "enableHead": true,
        "headTurnTime": 0.5,
        "targetNpcAlias": "20658",
        "targetNpcLookAtPoint": "",
        "OAFJBHJHLJG": ""
      },
      {
        "$type": "LJLMDHDCAMK",
        "type": "LOOK_AT",
        "aliasList": [
          "20657"
        ],
        "enableHead": true,
        "headTurnTime": 0.5,
        "targetNpcAlias": "20658",
        "targetNpcLookAtPoint": "",
        "OAFJBHJHLJG": ""
      },
      {
        "$type": "LJLMDHDCAMK",
        "type": "LOOK_AT",
        "aliasList": [
          "4042"
        ],
        "enableHead": true,
        "headTurnTime": 0.5,
        "targetNpcAlias": "20658",
        "targetNpcLookAtPoint": "",
        "OAFJBHJHLJG": ""
      },
      {
        "$type": "PKKMAMONGEO",
        "type": "DIALOG",
        "aliasList": [
          "20658"
        ],
        "dialogID": 230150103,
        "protectTime": 0.6420000195503235
      },
      {
        "$type": "FABLGECDBCH",
        "type": "BODY_LANG",
        "aliasList": [
          "20658"
        ],
        "actionId": 162,
        "bodyLangParam": 1171,
        "forceDoFreeStyle": true,
        "canDoRepeatFreeStyle": false,
        "eventPatternSuiteKey": "",
        "FOHHKFAIAAJ": ""
      },
      {
        "$type": "FJKIHHKJLMJ",
        "type": "CAMERA_MOVE",
        "delayTime": 0.10000000149011612,
        "duration": 16.0,
        "actionId": 195,
        "camPosOffset": {
          "x": -442.85198974609375,
          "y": 237.6909942626953,
          "z": 2776.48193359375
        },
        "camForwardTargetOffset": {
          "x": -442.260986328125,
          "y": 237.44500732421875,
          "z": 2775.714111328125
        },
        "camFov": 58.803001403808594,
        "cameraBlendType": "EaseOutQuad",
        "NJBNNOMLKCK": {},
        "needZAxisRotate": true,
        "openCameraDither": false,
        "targetNpcAlias": "",
        "closeTreeLeafDither": true,
        "KJOEFBPOIIH": "",
        "IICFKKEBIEC": "",
        "EGEHEJEBLBJ": ""
      },
      {
        "$type": "HDGKHDNFMIM",
        "type": "DIALOG_SELECT",
        "delayTime": 0.6420000195503235,
        "aliasList": [
          "Avatar"
        ],
        "dialogIDList": [
          230150104
        ],
        "grpIDList": [
          1428174297
        ],
        "useGrpId": true
      },
      {
        "$type": "LJLMDHDCAMK",
        "type": "LOOK_AT",
        "delayTime": 0.6430000066757202,
        "aliasList": [
          "Avatar"
        ],
        "actionId": 163,
        "enableHead": true,
        "headTurnTime": 0.5,
        "targetNpcAlias": "20657",
        "targetNpcLookAtPoint": "",
        "OAFJBHJHLJG": ""
      }
    ],
    [
      {
        "$type": "FJKIHHKJLMJ",
        "type": "CAMERA_MOVE",
        "duration": 1.0,
        "actionId": 196,
        "camPosOffset": {
          "x": -441.3330078125,
          "y": 238.8419952392578,
          "z": 2777.6669921875
        },
        "camForwardTargetOffset": {
          "x": -441.760986328125,
          "y": 238.2729949951172,
          "z": 2776.965087890625
        },
        "camFov": 55.85200119018555,
        "lerpPattern": 6,
        "cameraBlendType": "EaseInOutCubic",
        "NJBNNOMLKCK": {},
        "needZAxisRotate": true,
        "openCameraDither": false,
        "targetNpcAlias": "",
        "closeTreeLeafDither": true,
        "KJOEFBPOIIH": "",
        "IICFKKEBIEC": "",
        "EGEHEJEBLBJ": ""
      },
      {
        "$type": "FJKIHHKJLMJ",
        "type": "CAMERA_MOVE",
        "delayTime": 0.10000000149011612,
        "duration": 10.0,
        "actionId": 196,
        "camPosOffset": {
          "x": -441.3330078125,
          "y": 238.8419952392578,
          "z": 2777.6669921875
        },
        "camForwardTargetOffset": {
          "x": -441.6369934082031,
          "y": 238.27000427246094,
          "z": 2776.905029296875
        },
        "camFov": 55.85200119018555,
        "cameraBlendType": "EaseOutQuad",
        "NJBNNOMLKCK": {},
        "needZAxisRotate": true,
        "openCameraDither": false,
        "targetNpcAlias": "",
        "closeTreeLeafDither": true,
        "KJOEFBPOIIH": "",
        "IICFKKEBIEC": "",
        "EGEHEJEBLBJ": ""
      },
      {
        "$type": "LLGANGLOEEO",
        "type": "STEER_TO",
        "delayTime": 0.5830000042915344,
        "duration": 1.0,
        "aliasList": [
          "20657"
        ],
        "actionId": 164,
        "steerType": "TO_TARGET_ADVANCED",
        "useSteerAnim": true,
        "interruptFreestyle": true,
        "forceSteer": true,
        "targetNpcAlias": "Avatar",
        "OAFJBHJHLJG": ""
      },
      {
        "$type": "LJLMDHDCAMK",
        "type": "LOOK_AT",
        "delayTime": 0.6499999761581421,
        "aliasList": [
          "20657"
        ],
        "enableHead": true,
        "headTurnTime": 0.5,
        "targetNpcAlias": "Avatar",
        "targetNpcLookAtPoint": "",
        "OAFJBHJHLJG": ""
      },
      {
        "$type": "LLGANGLOEEO",
        "type": "STEER_TO",
        "delayTime": 1.4079999923706055,
        "duration": 1.0,
        "aliasList": [
          "20658"
        ],
        "actionId": 185,
        "steerType": "TO_TARGET_ADVANCED",
        "useSteerAnim": true,
        "interruptFreestyle": true,
        "forceSteer": true,
        "targetNpcAlias": "Avatar",
        "OAFJBHJHLJG": ""
      },
      {
        "$type": "LJLMDHDCAMK",
        "type": "LOOK_AT",
        "delayTime": 1.465999960899353,
        "aliasList": [
          "20658"
        ],
        "enableHead": true,
        "headTurnTime": 0.5,
        "targetNpcAlias": "Avatar",
        "targetNpcLookAtPoint": "",
        "OAFJBHJHLJG": ""
      },
      {
        "$type": "FABLGECDBCH",
        "type": "BODY_LANG",
        "delayTime": 1.753000020980835,
        "aliasList": [
          "20657"
        ],
        "actionId": 236,
        "bodyLangParam": 1200,
        "forceDoFreeStyle": true,
        "canDoRepeatFreeStyle": false,
        "eventPatternSuiteKey": "",
        "FOHHKFAIAAJ": ""
      },
      {
        "$type": "FABLGECDBCH",
        "type": "BODY_LANG",
        "delayTime": 2.677999973297119,
        "aliasList": [
          "20658"
        ],
        "actionId": 237,
        "bodyLangParam": 4030,
        "forceDoFreeStyle": true,
        "canDoRepeatFreeStyle": false,
        "eventPatternSuiteKey": "",
        "FOHHKFAIAAJ": ""
      }
    ],
    [
      {
        "$type": "FJKIHHKJLMJ",
        "type": "CAMERA_MOVE",
        "duration": 1.0,
        "actionId": 196,
        "camPosOffset": {
          "x": -442.1839904785156,
          "y": 237.427001953125,
          "z": 2776.18408203125
        },
        "camForwardTargetOffset": {
          "x": -443.12298583984375,
          "y": 237.5500030517578,
          "z": 2776.5048828125
        },
        "camFov": 30.0,
        "lerpPattern": 6,
        "cameraBlendType": "EaseInOutCubic",
        "NJBNNOMLKCK": {},
        "needZAxisRotate": true,
        "openCameraDither": false,
        "targetNpcAlias": "",
        "closeTreeLeafDither": true,
        "KJOEFBPOIIH": "",
        "IICFKKEBIEC": "",
        "EGEHEJEBLBJ": ""
      },
      {
        "$type": "LJLMDHDCAMK",
        "type": "LOOK_AT",
        "aliasList": [
          "Avatar"
        ],
        "enableHead": true,
        "headTurnTime": 0.5,
        "targetNpcAlias": "4042",
        "targetNpcLookAtPoint": "",
        "OAFJBHJHLJG": ""
      },
      {
        "$type": "PKKMAMONGEO",
        "type": "DIALOG",
        "aliasList": [
          "4042"
        ],
        "dialogID": 230150105,
        "protectTime": 2.818000078201294
      },
      {
        "$type": "LJLMDHDCAMK",
        "type": "LOOK_AT",
        "aliasList": [
          "4042"
        ],
        "actionId": 166,
        "enableHead": true,
        "headTurnTime": 0.5,
        "targetNpcAlias": "Avatar",
        "targetNpcLookAtPoint": "",
        "OAFJBHJHLJG": ""
      },
      {
        "$type": "FABLGECDBCH",
        "type": "BODY_LANG",
        "aliasList": [
          "4042"
        ],
        "actionId": 187,
        "bodyLangParam": 1171,
        "forceDoFreeStyle": true,
        "canDoRepeatFreeStyle": false,
        "eventPatternSuiteKey": "",
        "FOHHKFAIAAJ": ""
      },
      {
        "$type": "FJKIHHKJLMJ",
        "type": "CAMERA_MOVE",
        "delayTime": 0.10000000149011612,
        "duration": 10.0,
        "actionId": 196,
        "camPosOffset": {
          "x": -442.1839904785156,
          "y": 237.427001953125,
          "z": 2776.18408203125
        },
        "camForwardTargetOffset": {
          "x": -443.1199951171875,
          "y": 237.57699584960938,
          "z": 2776.50390625
        },
        "camFov": 30.0,
        "cameraBlendType": "EaseOutQuad",
        "NJBNNOMLKCK": {},
        "needZAxisRotate": true,
        "openCameraDither": false,
        "targetNpcAlias": "",
        "closeTreeLeafDither": true,
        "KJOEFBPOIIH": "",
        "IICFKKEBIEC": "",
        "EGEHEJEBLBJ": ""
      },
      {
        "$type": "FABLGECDBCH",
        "type": "BODY_LANG",
        "delayTime": 2.7179999351501465,
        "aliasList": [
          "4042"
        ],
        "actionId": 188,
        "bodyLangParam": 1120,
        "forceDoFreeStyle": true,
        "canDoRepeatFreeStyle": false,
        "eventPatternSuiteKey": "",
        "FOHHKFAIAAJ": ""
      }
    ],
    [
      {
        "$type": "FJKIHHKJLMJ",
        "type": "CAMERA_MOVE",
        "duration": 1.0,
        "actionId": 197,
        "camPosOffset": {
          "x": -437.7760009765625,
          "y": 240.03500366210938,
          "z": 2774.5419921875
        },
        "camForwardTargetOffset": {
          "x": -438.57000732421875,
          "y": 239.46800231933594,
          "z": 2774.760986328125
        },
        "camFov": 58.803001403808594,
        "lerpPattern": 6,
        "cameraBlendType": "EaseInOutCubic",
        "NJBNNOMLKCK": {},
        "needZAxisRotate": true,
        "openCameraDither": false,
        "targetNpcAlias": "",
        "closeTreeLeafDither": true,
        "KJOEFBPOIIH": "",
        "IICFKKEBIEC": "",
        "EGEHEJEBLBJ": ""
      },
      {
        "$type": "PKKMAMONGEO",
        "type": "DIALOG",
        "aliasList": [
          "4042"
        ],
        "dialogID": 230150106,
        "protectTime": 0.5
      },
      {
        "$type": "FJKIHHKJLMJ",
        "type": "CAMERA_MOVE",
        "delayTime": 0.10000000149011612,
        "duration": 16.0,
        "actionId": 197,
        "camPosOffset": {
          "x": -437.385986328125,
          "y": 240.31300354003906,
          "z": 2774.43505859375
        },
        "camForwardTargetOffset": {
          "x": -438.17999267578125,
          "y": 239.74600219726562,
          "z": 2774.654052734375
        },
        "camFov": 58.803001403808594,
        "cameraBlendType": "EaseInQuad",
        "NJBNNOMLKCK": {},
        "needZAxisRotate": true,
        "openCameraDither": false,
        "targetNpcAlias": "",
        "closeTreeLeafDither": true,
        "KJOEFBPOIIH": "",
        "IICFKKEBIEC": "",
        "EGEHEJEBLBJ": ""
      }
    ],
    [
      {
        "$type": "FJKIHHKJLMJ",
        "type": "CAMERA_MOVE",
        "duration": 1.0,
        "actionId": 198,
        "camPosOffset": {
          "x": -439.78399658203125,
          "y": 238.2449951171875,
          "z": 2776.6669921875
        },
        "camForwardTargetOffset": {
          "x": -440.739990234375,
          "y": 237.96400451660156,
          "z": 2776.5859375
        },
        "camFov": 58.803001403808594,
        "lerpPattern": 6,
        "cameraBlendType": "EaseInOutCubic",
        "NJBNNOMLKCK": {},
        "needZAxisRotate": true,
        "openCameraDither": false,
        "targetNpcAlias": "",
        "closeTreeLeafDither": true,
        "KJOEFBPOIIH": "",
        "IICFKKEBIEC": "",
        "EGEHEJEBLBJ": ""
      },
      {
        "$type": "PKKMAMONGEO",
        "type": "DIALOG",
        "aliasList": [
          "4042"
        ],
        "dialogID": 230150107,
        "protectTime": 0.5
      },
      {
        "$type": "FJKIHHKJLMJ",
        "type": "CAMERA_MOVE",
        "delayTime": 0.10000000149011612,
        "duration": 12.0,
        "actionId": 198,
        "camPosOffset": {
          "x": -440.2749938964844,
          "y": 238.1009979248047,
          "z": 2776.6259765625
        },
        "camForwardTargetOffset": {
          "x": -441.2309875488281,
          "y": 237.82000732421875,
          "z": 2776.544921875
        },
        "camFov": 58.803001403808594,
        "cameraBlendType": "EaseOutQuad",
        "NJBNNOMLKCK": {},
        "needZAxisRotate": true,
        "openCameraDither": false,
        "targetNpcAlias": "",
        "closeTreeLeafDither": true,
        "KJOEFBPOIIH": "",
        "IICFKKEBIEC": "",
        "EGEHEJEBLBJ": ""
      },
      {
        "$type": "LLGANGLOEEO",
        "type": "STEER_TO",
        "delayTime": 0.28299999237060547,
        "duration": 1.0,
        "aliasList": [
          "20657"
        ],
        "actionId": 170,
        "steerType": "TO_TARGET_ADVANCED",
        "useSteerAnim": true,
        "interruptFreestyle": true,
        "forceSteer": true,
        "targetNpcAlias": "4042",
        "OAFJBHJHLJG": ""
      },
      {
        "$type": "LJLMDHDCAMK",
        "type": "LOOK_AT",
        "delayTime": 0.3529999852180481,
        "aliasList": [
          "20657"
        ],
        "actionId": 225,
        "enableHead": true,
        "headTurnTime": 0.5,
        "targetNpcAlias": "4042",
        "targetNpcLookAtPoint": "",
        "OAFJBHJHLJG": ""
      }
    ],
    [
      {
        "$type": "FJKIHHKJLMJ",
        "type": "CAMERA_MOVE",
        "duration": 1.0,
        "actionId": 199,
        "camPosOffset": {
          "x": -440.656005859375,
          "y": 238.0330047607422,
          "z": 2777.589111328125
        },
        "camForwardTargetOffset": {
          "x": -441.2380065917969,
          "y": 237.69500732421875,
          "z": 2776.85009765625
        },
        "camFov": 58.803001403808594,
        "lerpPattern": 6,
        "cameraBlendType": "EaseInOutCubic",
        "NJBNNOMLKCK": {},
        "needZAxisRotate": true,
        "openCameraDither": false,
        "targetNpcAlias": "",
        "closeTreeLeafDither": true,
        "KJOEFBPOIIH": "",
        "IICFKKEBIEC": "",
        "EGEHEJEBLBJ": ""
      },
      {
        "$type": "LJLMDHDCAMK",
        "type": "LOOK_AT",
        "aliasList": [
          "Avatar"
        ],
        "enableHead": true,
        "headTurnTime": 0.5,
        "targetNpcAlias": "20657",
        "targetNpcLookAtPoint": "",
        "OAFJBHJHLJG": ""
      },
      {
        "$type": "PKKMAMONGEO",
        "type": "DIALOG",
        "aliasList": [
          "20657"
        ],
        "dialogID": 230150108,
        "protectTime": 0.5
      },
      {
        "$type": "LJLMDHDCAMK",
        "type": "LOOK_AT",
        "aliasList": [
          "4042"
        ],
        "enableHead": true,
        "headTurnTime": 0.5,
        "targetNpcAlias": "20657",
        "targetNpcLookAtPoint": "",
        "OAFJBHJHLJG": ""
      },
      {
        "$type": "LJLMDHDCAMK",
        "type": "LOOK_AT",
        "aliasList": [
          "20658"
        ],
        "enableHead": true,
        "headTurnTime": 0.5,
        "targetNpcAlias": "20657",
        "targetNpcLookAtPoint": "",
        "OAFJBHJHLJG": ""
      },
      {
        "$type": "FJKIHHKJLMJ",
        "type": "CAMERA_MOVE",
        "delayTime": 0.10000000149011612,
        "duration": 16.0,
        "actionId": 199,
        "camPosOffset": {
          "x": -440.656005859375,
          "y": 238.0330047607422,
          "z": 2777.589111328125
        },
        "camForwardTargetOffset": {
          "x": -441.1419982910156,
          "y": 237.68899536132812,
          "z": 2776.785888671875
        },
        "camFov": 58.803001403808594,
        "cameraBlendType": "EaseOutQuad",
        "NJBNNOMLKCK": {},
        "needZAxisRotate": true,
        "openCameraDither": false,
        "targetNpcAlias": "",
        "closeTreeLeafDither": true,
        "KJOEFBPOIIH": "",
        "IICFKKEBIEC": "",
        "EGEHEJEBLBJ": ""
      },
      {
        "$type": "HDGKHDNFMIM",
        "type": "DIALOG_SELECT",
        "delayTime": 0.4000000059604645,
        "aliasList": [
          "Avatar"
        ],
        "dialogIDList": [
          230150109
        ],
        "grpIDList": [
          1323730140
        ],
        "useGrpId": true
      }
    ],
    [
      {
        "$type": "FJKIHHKJLMJ",
        "type": "CAMERA_MOVE",
        "duration": 1.0,
        "actionId": 200,
        "camPosOffset": {
          "x": -440.9330139160156,
          "y": 237.3070068359375,
          "z": 2774.987060546875
        },
        "camForwardTargetOffset": {
          "x": -441.885009765625,
          "y": 237.2949981689453,
          "z": 2774.681884765625
        },
        "camFov": 58.803001403808594,
        "lerpPattern": 6,
        "cameraBlendType": "EaseInOutCubic",
        "NJBNNOMLKCK": {},
        "needZAxisRotate": true,
        "openCameraDither": false,
        "targetNpcAlias": "",
        "closeTreeLeafDither": true,
        "KJOEFBPOIIH": "",
        "IICFKKEBIEC": "",
        "EGEHEJEBLBJ": ""
      },
      {
        "$type": "LJLMDHDCAMK",
        "type": "LOOK_AT",
        "aliasList": [
          "Avatar"
        ],
        "enableHead": true,
        "headTurnTime": 0.5,
        "targetNpcAlias": "20658",
        "targetNpcLookAtPoint": "",
        "OAFJBHJHLJG": ""
      },
      {
        "$type": "FABLGECDBCH",
        "type": "BODY_LANG",
        "aliasList": [
          "20657"
        ],
        "actionId": 179,
        "bodyLangParam": 1170,
        "forceDoFreeStyle": true,
        "canDoRepeatFreeStyle": false,
        "eventPatternSuiteKey": "",
        "FOHHKFAIAAJ": ""
      },
      {
        "$type": "FABLGECDBCH",
        "type": "BODY_LANG",
        "aliasList": [
          "4042"
        ],
        "actionId": 180,
        "bodyLangParam": 1120,
        "forceDoFreeStyle": true,
        "canDoRepeatFreeStyle": false,
        "eventPatternSuiteKey": "",
        "FOHHKFAIAAJ": ""
      },
      {
        "$type": "PKKMAMONGEO",
        "type": "DIALOG",
        "aliasList": [
          "20658"
        ],
        "dialogID": 230150110,
        "protectTime": 1.2419999837875366
      },
      {
        "$type": "LJLMDHDCAMK",
        "type": "LOOK_AT",
        "aliasList": [
          "20658"
        ],
        "actionId": 210,
        "enableHead": true,
        "headTurnTime": 0.5,
        "targetNpcAlias": "Avatar",
        "targetNpcLookAtPoint": "",
        "OAFJBHJHLJG": ""
      },
      {
        "$type": "LLGANGLOEEO",
        "type": "STEER_TO",
        "duration": 1.0,
        "aliasList": [
          "20658"
        ],
        "actionId": 247,
        "steerType": "TO_LOCAL_AVATAR",
        "useSteerAnim": true,
        "interruptFreestyle": true,
        "forceSteer": true,
        "targetNpcAlias": "",
        "OAFJBHJHLJG": ""
      },
      {
        "$type": "FJKIHHKJLMJ",
        "type": "CAMERA_MOVE",
        "delayTime": 0.10000000149011612,
        "duration": 8.0,
        "actionId": 200,
        "camPosOffset": {
          "x": -440.97198486328125,
          "y": 237.3070068359375,
          "z": 2774.97509765625
        },
        "camForwardTargetOffset": {
          "x": -441.9219970703125,
          "y": 237.36399841308594,
          "z": 2774.66796875
        },
        "camFov": 58.803001403808594,
        "cameraBlendType": "EaseOutQuad",
        "NJBNNOMLKCK": {},
        "needZAxisRotate": true,
        "openCameraDither": false,
        "targetNpcAlias": "",
        "closeTreeLeafDither": true,
        "KJOEFBPOIIH": "",
        "IICFKKEBIEC": "",
        "EGEHEJEBLBJ": ""
      },
      {
        "$type": "LLGANGLOEEO",
        "type": "STEER_TO",
        "delayTime": 0.1420000046491623,
        "duration": 1.0,
        "aliasList": [
          "Avatar"
        ],
        "actionId": 201,
        "steerType": "TO_TARGET_ADVANCED",
        "useSteerAnim": true,
        "interruptFreestyle": true,
        "forceSteer": true,
        "targetNpcAlias": "20658",
        "OAFJBHJHLJG": ""
      }
    ],
    [
      {
        "$type": "FJKIHHKJLMJ",
        "type": "CAMERA_MOVE",
        "duration": 1.0,
        "actionId": 202,
        "camPosOffset": {
          "x": -439.8179931640625,
          "y": 238.5279998779297,
          "z": 2772.501953125
        },
        "camForwardTargetOffset": {
          "x": -440.26800537109375,
          "y": 238.0449981689453,
          "z": 2773.2529296875
        },
        "camFov": 58.803001403808594,
        "lerpPattern": 6,
        "cameraBlendType": "EaseInOutCubic",
        "NJBNNOMLKCK": {},
        "needZAxisRotate": true,
        "openCameraDither": false,
        "targetNpcAlias": "",
        "closeTreeLeafDither": true,
        "KJOEFBPOIIH": "",
        "IICFKKEBIEC": "",
        "EGEHEJEBLBJ": ""
      },
      {
        "$type": "PKKMAMONGEO",
        "type": "DIALOG",
        "aliasList": [
          "20658"
        ],
        "dialogID": 230150111,
        "protectTime": 1.6670000553131104
      },
      {
        "$type": "FABLGECDBCH",
        "type": "BODY_LANG",
        "aliasList": [
          "20658"
        ],
        "actionId": 183,
        "bodyLangParam": 1171,
        "forceDoFreeStyle": true,
        "canDoRepeatFreeStyle": false,
        "eventPatternSuiteKey": "",
        "FOHHKFAIAAJ": ""
      },
      {
        "$type": "FJKIHHKJLMJ",
        "type": "CAMERA_MOVE",
        "delayTime": 0.0949999988079071,
        "duration": 16.0,
        "actionId": 202,
        "camPosOffset": {
          "x": -439.625,
          "y": 238.73500061035156,
          "z": 2772.179931640625
        },
        "camForwardTargetOffset": {
          "x": -440.07501220703125,
          "y": 238.2519989013672,
          "z": 2772.930908203125
        },
        "camFov": 58.803001403808594,
        "cameraBlendType": "EaseOutQuad",
        "NJBNNOMLKCK": {},
        "needZAxisRotate": true,
        "openCameraDither": false,
        "targetNpcAlias": "",
        "closeTreeLeafDither": true,
        "KJOEFBPOIIH": "",
        "IICFKKEBIEC": "",
        "EGEHEJEBLBJ": ""
      },
      {
        "$type": "HDGKHDNFMIM",
        "type": "DIALOG_SELECT",
        "delayTime": 0.4000000059604645,
        "aliasList": [
          "Avatar"
        ],
        "dialogIDList": [
          230150112,
          230150113
        ],
        "grpIDList": [
          1323730142,
          1323730142
        ],
        "useGrpId": true
      }
    ],
    [
      {
        "$type": "FJKIHHKJLMJ",
        "type": "CAMERA_MOVE",
        "duration": 1.0,
        "actionId": 203,
        "camPosOffset": {
          "x": -435.85101318359375,
          "y": 243.76400756835938,
          "z": 2772.85498046875
        },
        "camForwardTargetOffset": {
          "x": -436.47100830078125,
          "y": 243.04600524902344,
          "z": 2773.172119140625
        },
        "camFov": 58.803001403808594,
        "lerpPattern": 6,
        "cameraBlendType": "EaseInOutCubic",
        "NJBNNOMLKCK": {},
        "needZAxisRotate": true,
        "openCameraDither": false,
        "targetNpcAlias": "",
        "closeTreeLeafDither": true,
        "KJOEFBPOIIH": "",
        "IICFKKEBIEC": "",
        "EGEHEJEBLBJ": ""
      },
      {
        "$type": "PKKMAMONGEO",
        "type": "DIALOG",
        "aliasList": [
          "20658"
        ],
        "dialogID": 230150114,
        "protectTime": 0.5
      },
      {
        "$type": "FABLGECDBCH",
        "type": "BODY_LANG",
        "aliasList": [
          "20658"
        ],
        "actionId": 176,
        "bodyLangParam": 1170,
        "forceDoFreeStyle": true,
        "canDoRepeatFreeStyle": false,
        "eventPatternSuiteKey": "",
        "FOHHKFAIAAJ": ""
      },
      {
        "$type": "FJKIHHKJLMJ",
        "type": "CAMERA_MOVE",
        "delayTime": 0.10000000149011612,
        "duration": 16.0,
        "actionId": 203,
        "camPosOffset": {
          "x": -435.4079895019531,
          "y": 243.76400756835938,
          "z": 2774.951904296875
        },
        "camForwardTargetOffset": {
          "x": -436.0409851074219,
          "y": 243.0019989013672,
          "z": 2775.0859375
        },
        "camFov": 58.803001403808594,
        "cameraBlendType": "EaseOutQuad",
        "NJBNNOMLKCK": {},
        "needZAxisRotate": true,
        "openCameraDither": false,
        "targetNpcAlias": "",
        "closeTreeLeafDither": true,
        "KJOEFBPOIIH": "",
        "IICFKKEBIEC": "",
        "EGEHEJEBLBJ": ""
      }
    ],
    [
      {
        "$type": "FJKIHHKJLMJ",
        "type": "CAMERA_MOVE",
        "duration": 1.0,
        "actionId": 204,
        "camPosOffset": {
          "x": -439.010009765625,
          "y": 239.21400451660156,
          "z": 2776.833984375
        },
        "camForwardTargetOffset": {
          "x": -439.72900390625,
          "y": 238.5989990234375,
          "z": 2776.510009765625
        },
        "camFov": 58.803001403808594,
        "lerpPattern": 6,
        "cameraBlendType": "EaseInOutCubic",
        "NJBNNOMLKCK": {},
        "needZAxisRotate": true,
        "openCameraDither": false,
        "targetNpcAlias": "",
        "closeTreeLeafDither": true,
        "KJOEFBPOIIH": "",
        "IICFKKEBIEC": "",
        "EGEHEJEBLBJ": ""
      },
      {
        "$type": "PKKMAMONGEO",
        "type": "DIALOG",
        "aliasList": [
          "20658"
        ],
        "dialogID": 230150115,
        "protectTime": 0.5
      },
      {
        "$type": "FABLGECDBCH",
        "type": "BODY_LANG",
        "aliasList": [
          "20658"
        ],
        "actionId": 248,
        "bodyLangParam": 1173,
        "forceDoFreeStyle": true,
        "canDoRepeatFreeStyle": false,
        "cantBackToIdleWhenSitLoop": true,
        "eventPatternSuiteKey": "",
        "FOHHKFAIAAJ": ""
      },
      {
        "$type": "FJKIHHKJLMJ",
        "type": "CAMERA_MOVE",
        "delayTime": 0.10000000149011612,
        "duration": 16.0,
        "actionId": 204,
        "camPosOffset": {
          "x": -439.010009765625,
          "y": 239.21400451660156,
          "z": 2776.833984375
        },
        "camForwardTargetOffset": {
          "x": -439.8219909667969,
          "y": 238.66000366210938,
          "z": 2776.64990234375
        },
        "camFov": 58.803001403808594,
        "cameraBlendType": "EaseOutQuad",
        "NJBNNOMLKCK": {},
        "needZAxisRotate": true,
        "openCameraDither": false,
        "targetNpcAlias": "",
        "closeTreeLeafDither": true,
        "KJOEFBPOIIH": "",
        "IICFKKEBIEC": "",
        "EGEHEJEBLBJ": ""
      }
    ],
    [
      {
        "$type": "FJKIHHKJLMJ",
        "type": "CAMERA_MOVE",
        "duration": 1.0,
        "actionId": 205,
        "camPosOffset": {
          "x": -442.22900390625,
          "y": 237.5469970703125,
          "z": 2778.580078125
        },
        "camForwardTargetOffset": {
          "x": -442.2250061035156,
          "y": 237.36500549316406,
          "z": 2777.596923828125
        },
        "camFov": 58.803001403808594,
        "lerpPattern": 6,
        "cameraBlendType": "EaseInOutCubic",
        "NJBNNOMLKCK": {},
        "needZAxisRotate": true,
        "openCameraDither": false,
        "targetNpcAlias": "",
        "closeTreeLeafDither": true,
        "KJOEFBPOIIH": "",
        "IICFKKEBIEC": "",
        "EGEHEJEBLBJ": ""
      },
      {
        "$type": "PKKMAMONGEO",
        "type": "DIALOG",
        "aliasList": [
          "20658"
        ],
        "dialogID": 230150116,
        "protectTime": 0.5
      },
      {
        "$type": "FABLGECDBCH",
        "type": "BODY_LANG",
        "aliasList": [
          "20658"
        ],
        "actionId": 227,
        "bodyLangParam": 1230,
        "forceDoFreeStyle": true,
        "canDoRepeatFreeStyle": false,
        "eventPatternSuiteKey": "",
        "FOHHKFAIAAJ": ""
      },
      {
        "$type": "FJKIHHKJLMJ",
        "type": "CAMERA_MOVE",
        "delayTime": 0.09200000017881393,
        "duration": 16.0,
        "actionId": 205,
        "camPosOffset": {
          "x": -443.9490051269531,
          "y": 237.5469970703125,
          "z": 2778.220947265625
        },
        "camForwardTargetOffset": {
          "x": -443.50299072265625,
          "y": 237.43099975585938,
          "z": 2777.3330078125
        },
        "camFov": 58.803001403808594,
        "cameraBlendType": "EaseOutQuad",
        "NJBNNOMLKCK": {},
        "needZAxisRotate": true,
        "openCameraDither": false,
        "targetNpcAlias": "",
        "closeTreeLeafDither": true,
        "KJOEFBPOIIH": "",
        "IICFKKEBIEC": "",
        "EGEHEJEBLBJ": ""
      }
    ],
    [
      {
        "$type": "FJKIHHKJLMJ",
        "type": "CAMERA_MOVE",
        "duration": 1.0,
        "actionId": 206,
        "camPosOffset": {
          "x": -440.0190124511719,
          "y": 237.9429931640625,
          "z": 2772.822021484375
        },
        "camForwardTargetOffset": {
          "x": -440.7489929199219,
          "y": 237.6219940185547,
          "z": 2773.425048828125
        },
        "camFov": 58.803001403808594,
        "lerpPattern": 6,
        "cameraBlendType": "EaseInOutCubic",
        "NJBNNOMLKCK": {},
        "needZAxisRotate": true,
        "openCameraDither": false,
        "targetNpcAlias": "",
        "closeTreeLeafDither": true,
        "KJOEFBPOIIH": "",
        "IICFKKEBIEC": "",
        "EGEHEJEBLBJ": ""
      },
      {
        "$type": "PKKMAMONGEO",
        "type": "DIALOG",
        "aliasList": [
          "20658"
        ],
        "dialogID": 230150117,
        "protectTime": 0.7250000238418579
      },
      {
        "$type": "FABLGECDBCH",
        "type": "BODY_LANG",
        "aliasList": [
          "20658"
        ],
        "actionId": 177,
        "bodyLangParam": 1231,
        "forceDoFreeStyle": true,
        "canDoRepeatFreeStyle": false,
        "eventPatternSuiteKey": "",
        "FOHHKFAIAAJ": ""
      },
      {
        "$type": "FJKIHHKJLMJ",
        "type": "CAMERA_MOVE",
        "delayTime": 0.10000000149011612,
        "duration": 16.0,
        "actionId": 206,
        "camPosOffset": {
          "x": -440.0190124511719,
          "y": 237.9429931640625,
          "z": 2772.822021484375
        },
        "camForwardTargetOffset": {
          "x": -440.677001953125,
          "y": 237.5709991455078,
          "z": 2773.47705078125
        },
        "camFov": 58.803001403808594,
        "cameraBlendType": "EaseOutQuad",
        "NJBNNOMLKCK": {},
        "needZAxisRotate": true,
        "openCameraDither": false,
        "targetNpcAlias": "",
        "closeTreeLeafDither": true,
        "KJOEFBPOIIH": "",
        "IICFKKEBIEC": "",
        "EGEHEJEBLBJ": ""
      },
      {
        "$type": "FABLGECDBCH",
        "type": "BODY_LANG",
        "delayTime": 0.3330000042915344,
        "aliasList": [
          "Avatar"
        ],
        "actionId": 207,
        "bodyLangParam": 1240,
        "forceDoFreeStyle": true,
        "canDoRepeatFreeStyle": false,
        "eventPatternSuiteKey": "",
        "FOHHKFAIAAJ": ""
      }
    ],
    [
      {
        "$type": "MoleMole.Config.ConfigTimeProtectAction",
        "type": "TIME_PROTECT",
        "duration": 0.5
      },
      {
        "$type": "MoleMole.Config.ConfigSimpleBlackScreenAction",
        "type": "SIMPLE_BLACK_SCREEN",
        "actionId": 209,
        "durationToBlack": 0.5,
        "durationKeepBlack": 1.0,
        "durationFromBlack": 0.5,
        "textMapID": "",
        "useTextFade": true
      },
      {
        "$type": "FABLGECDBCH",
        "type": "BODY_LANG",
        "duration": 0.5,
        "aliasList": [
          "Avatar"
        ],
        "actionId": 208,
        "isContinue": true,
        "forceDoFreeStyle": true,
        "canDoRepeatFreeStyle": false,
        "eventPatternSuiteKey": "",
        "FOHHKFAIAAJ": ""
      },
      {
        "$type": "FABLGECDBCH",
        "type": "BODY_LANG",
        "duration": 0.5,
        "aliasList": [
          "20658"
        ],
        "actionId": 181,
        "isContinue": true,
        "forceDoFreeStyle": true,
        "canDoRepeatFreeStyle": false,
        "eventPatternSuiteKey": "",
        "FOHHKFAIAAJ": ""
      }
    ]
  ],
  "groupId": [
    {
      "grpId": 1428174292,
      "nextGrpId": 1428174293
    },
    {
      "index": 1,
      "grpId": 1428174293,
      "nextGrpId": 1428174294
    },
    {
      "index": 2,
      "grpId": 1428174294,
      "nextGrpId": 1428174295
    },
    {
      "index": 3,
      "grpId": 1428174295,
      "nextGrpId": 1428174296
    },
    {
      "index": 4,
      "grpId": 1428174296,
      "nextGrpId": 1428174297
    },
    {
      "index": 5,
      "grpId": 1428174297,
      "nextGrpId": 1428174298
    },
    {
      "index": 6,
      "grpId": 1428174298,
      "nextGrpId": 1428174299
    },
    {
      "index": 7,
      "grpId": 1428174299,
      "nextGrpId": 1428174300
    },
    {
      "index": 8,
      "grpId": 1428174300,
      "nextGrpId": 1323730140
    },
    {
      "index": 9,
      "grpId": 1323730140,
      "nextGrpId": 1323730141
    },
    {
      "index": 10,
      "grpId": 1323730141,
      "nextGrpId": 1323730142
    },
    {
      "index": 11,
      "grpId": 1323730142,
      "nextGrpId": 1323730143
    },
    {
      "index": 12,
      "grpId": 1323730143,
      "nextGrpId": 1323730144
    },
    {
      "index": 13,
      "grpId": 1323730144,
      "nextGrpId": 1323730145
    },
    {
      "index": 14,
      "grpId": 1323730145,
      "nextGrpId": 1323730146
    },
    {
      "index": 15,
      "grpId": 1323730146,
      "nextGrpId": 1323730147
    }
  ],
  "freeStyleDic": {
    "20657": [
      1170,
      1200
    ],
    "4042": [
      1120,
      1171
    ],
    "20658": [
      1240,
      1171,
      4030,
      1170,
      1173,
      1230,
      1231
    ]
  }
}