[
  {
    "id": 1,
    "ADBPFFEAGOD": 88,
    "CCHLKPFOFFD": [
      {
        "FICCMEEHDJL": 10112,
        "reviseLevel": 88
      },
      {
        "FICCMEEHDJL": 10203,
        "reviseLevel": 88
      },
      {
        "FICCMEEHDJL": 10105,
        "reviseLevel": 88
      },
      {
        "FICCMEEHDJL": 10109,
        "reviseLevel": 88
      },
      {
        "FICCMEEHDJL": 10304,
        "reviseLevel": 88
      },
      {
        "FICCMEEHDJL": 10110,
        "reviseLevel": 88
      }
    ]
  },
  {
    "id": 2,
    "ADBPFFEAGOD": 88,
    "CCHLKPFOFFD": [
      {
        "FICCMEEHDJL": 61201,
        "reviseLevel": 88
      },
      {
        "FICCMEEHDJL": 61202,
        "reviseLevel": 88
      },
      {
        "FICCMEEHDJL": 61203,
        "reviseLevel": 88
      },
      {
        "FICCMEEHDJL": 61204,
        "reviseLevel": 88
      },
      {
        "FICCMEEHDJL": 61601,
        "reviseLevel": 88
      },
      {
        "FICCMEEHDJL": 61602,
        "reviseLevel": 88
      },
      {
        "FICCMEEHDJL": 61603,
        "reviseLevel": 88
      }
    ]
  },
  {
    "id": 3,
    "ADBPFFEAGOD": 90,
    "CCHLKPFOFFD": [
      {
        "FICCMEEHDJL": 61902,
        "reviseLevel": 90
      },
      {
        "FICCMEEHDJL": 40658,
        "reviseLevel": 90
      },
      {
        "FICCMEEHDJL": 40660,
        "reviseLevel": 90
      }
    ]
  },
  {
    "id": 4,
    "ADBPFFEAGOD": 90,
    "CCHLKPFOFFD": [
      {
        "FICCMEEHDJL": 61002,
        "reviseLevel": 90
      },
      {
        "FICCMEEHDJL": 61003,
        "reviseLevel": 90
      }
    ]
  },
  {
    "id": 5,
    "ADBPFFEAGOD": 92,
    "CCHLKPFOFFD": [
      {
        "FICCMEEHDJL": 514,
        "reviseLevel": 92
      },
      {
        "FICCMEEHDJL": 515,
        "reviseLevel": 92
      }
    ]
  },
  {
    "id": 6,
    "ADBPFFEAGOD": 92,
    "CCHLKPFOFFD": [
      {
        "FICCMEEHDJL": 40612,
        "reviseLevel": 92
      },
      {
        "FICCMEEHDJL": 40602,
        "reviseLevel": 92
      }
    ]
  },
  {
    "id": 7,
    "ADBPFFEAGOD": 95,
    "CCHLKPFOFFD": [
      {
        "FICCMEEHDJL": 30603,
        "reviseLevel": 95
      },
      {
        "FICCMEEHDJL": 30604,
        "reviseLevel": 95
      },
      {
        "FICCMEEHDJL": 21103,
        "reviseLevel": 95
      },
      {
        "FICCMEEHDJL": 20101,
        "reviseLevel": 95
      }
    ]
  },
  {
    "id": 8,
    "ADBPFFEAGOD": 95,
    "CCHLKPFOFFD": [
      {
        "FICCMEEHDJL": 61101,
        "reviseLevel": 95
      }
    ]
  },
  {
    "id": 9,
    "ADBPFFEAGOD": 98,
    "CCHLKPFOFFD": [
      {
        "FICCMEEHDJL": 606,
        "reviseLevel": 98
      },
      {
        "FICCMEEHDJL": 605,
        "reviseLevel": 98
      },
      {
        "FICCMEEHDJL": 607,
        "reviseLevel": 98
      },
      {
        "FICCMEEHDJL": 60102,
        "reviseLevel": 98
      },
      {
        "FICCMEEHDJL": 20702,
        "reviseLevel": 98
      },
      {
        "FICCMEEHDJL": 20703,
        "reviseLevel": 98
      },
      {
        "FICCMEEHDJL": 20701,
        "reviseLevel": 98
      },
      {
        "FICCMEEHDJL": 20802,
        "reviseLevel": 98
      }
    ]
  },
  {
    "id": 10,
    "ADBPFFEAGOD": 98,
    "CCHLKPFOFFD": [
      {
        "FICCMEEHDJL": 40211,
        "reviseLevel": 98
      }
    ]
  },
  {
    "id": 11,
    "ADBPFFEAGOD": 100,
    "CCHLKPFOFFD": [
      {
        "FICCMEEHDJL": 40702,
        "reviseLevel": 100
      }
    ]
  },
  {
    "id": 12,
    "ADBPFFEAGOD": 100,
    "CCHLKPFOFFD": [
      {
        "FICCMEEHDJL": 40613,
        "reviseLevel": 100
      }
    ]
  }
]