{
  "luaDataPath": "",
  "isSimpleTalk": true,
  "entityBan": "",
  "disableNpcLod": true,
  "isBanWidgetPet": true,
  "protectNpcMobileLod": true,
  "talkFlag": 5,
  "startFade": {
    "startFadeOutDuration": 0.0
  },
  "endFade": {
    "startFadeOutDuration": 0.0
  },
  "actors": [
    {
      "alias": "Avatar",
      "visible": true,
      "bornPointName": "N10000005_T7331003",
      "relativePosType": "AVATAR_NEW",
      "relativePosNpcAlias": "",
      "_bindMovingTargetKey": ""
    },
    {
      "configID": 20987,
      "alias": "20987",
      "visible": true,
      "bornPointName": "",
      "removeActorType": "NEW_REMOVE_WITH_DISAPPEAR",
      "relativePosType": "AVATAR_NEW",
      "relativePosNpcAlias": "",
      "_bindMovingTargetKey": ""
    },
    {
      "configID": 1005,
      "alias": "1005",
      "visible": true,
      "bornPointName": "",
      "useRelativePos": true,
      "relativePos": {
        "x": -0.6000000238418579,
        "z": -0.20000000298023224
      },
      "removeActorType": "NEW_REMOVE_WITH_DISAPPEAR",
      "relativePosType": "AVATAR_NEW",
      "relativePosNpcAlias": "",
      "_bindMovingTargetKey": ""
    }
  ],
  "group": [
    [
      {
        "$type": "FJKIHHKJLMJ",
        "type": "CAMERA_FOCUS",
        "duration": 0.10000000149011612,
        "actionId": 103,
        "targetNpcAlias": "",
        "KJOEFBPOIIH": "",
        "IICFKKEBIEC": "",
        "EGEHEJEBLBJ": ""
      },
      {
        "$type": "MoleMole.Config.ConfigTimeProtectAction",
        "type": "TIME_PROTECT",
        "duration": 0.10000000149011612,
        "actionId": 104
      },
      {
        "$type": "LLGANGLOEEO",
        "type": "STEER_TO",
        "delayTime": 0.30000001192092896,
        "duration": 0.800000011920929,
        "aliasList": [
          "Avatar"
        ],
        "actionId": 152,
        "steerType": "TO_TARGET_ADVANCED",
        "useSteerAnim": true,
        "interruptFreestyle": true,
        "forceSteer": true,
        "targetNpcAlias": "20987",
        "fixInterNull": true,
        "OAFJBHJHLJG": ""
      }
    ],
    [
      {
        "$type": "PKKMAMONGEO",
        "type": "DIALOG",
        "aliasList": [
          "20987"
        ],
        "actionId": 107,
        "dialogID": 733100201,
        "protectTime": 0.5
      }
    ],
    [
      {
        "$type": "PKKMAMONGEO",
        "type": "DIALOG",
        "aliasList": [
          "1005"
        ],
        "actionId": 109,
        "dialogID": 733100202,
        "protectTime": 0.5
      }
    ],
    [
      {
        "$type": "PKKMAMONGEO",
        "type": "DIALOG",
        "aliasList": [
          "20987"
        ],
        "actionId": 111,
        "dialogID": 733100203,
        "protectTime": 0.5
      }
    ],
    [
      {
        "$type": "PKKMAMONGEO",
        "type": "DIALOG",
        "aliasList": [
          "1005"
        ],
        "actionId": 113,
        "dialogID": 733100204,
        "protectTime": 0.5
      }
    ],
    [
      {
        "$type": "PKKMAMONGEO",
        "type": "DIALOG",
        "aliasList": [
          "1005"
        ],
        "actionId": 115,
        "dialogID": 733100205,
        "protectTime": 0.5
      },
      {
        "$type": "HDGKHDNFMIM",
        "type": "DIALOG_SELECT",
        "delayTime": 0.4000000059604645,
        "aliasList": [
          "Avatar"
        ],
        "actionId": 116,
        "dialogIDList": [
          733100206,
          733100207
        ],
        "grpIDList": [
          3653215213,
          3653215213
        ],
        "useGrpId": true,
        "countDownGrpId": 3653215206
      }
    ],
    [
      {
        "$type": "PKKMAMONGEO",
        "type": "DIALOG",
        "aliasList": [
          "1005"
        ],
        "actionId": 118,
        "dialogID": 733100208,
        "protectTime": 0.5
      }
    ],
    [
      {
        "$type": "PKKMAMONGEO",
        "type": "DIALOG",
        "aliasList": [
          "20987"
        ],
        "actionId": 120,
        "dialogID": 733100209,
        "protectTime": 0.5
      }
    ],
    [
      {
        "$type": "PKKMAMONGEO",
        "type": "DIALOG",
        "aliasList": [
          "1005"
        ],
        "actionId": 122,
        "dialogID": 733100210,
        "protectTime": 0.5
      }
    ],
    [
      {
        "$type": "PKKMAMONGEO",
        "type": "DIALOG",
        "aliasList": [
          "20987"
        ],
        "actionId": 124,
        "dialogID": 733100211,
        "protectTime": 0.5
      }
    ],
    [
      {
        "$type": "PKKMAMONGEO",
        "type": "DIALOG",
        "aliasList": [
          "20987"
        ],
        "actionId": 126,
        "dialogID": 733100212,
        "protectTime": 0.5
      }
    ],
    [
      {
        "$type": "PKKMAMONGEO",
        "type": "DIALOG",
        "aliasList": [
          "1005"
        ],
        "actionId": 128,
        "dialogID": 733100213,
        "protectTime": 0.5
      }
    ],
    [
      {
        "$type": "PKKMAMONGEO",
        "type": "DIALOG",
        "aliasList": [
          "20987"
        ],
        "actionId": 130,
        "dialogID": 733100214,
        "protectTime": 0.5
      }
    ],
    [
      {
        "$type": "PKKMAMONGEO",
        "type": "DIALOG",
        "aliasList": [
          "20987"
        ],
        "actionId": 132,
        "dialogID": 733100215,
        "protectTime": 0.5
      }
    ],
    [
      {
        "$type": "PKKMAMONGEO",
        "type": "DIALOG",
        "aliasList": [
          "20987"
        ],
        "actionId": 134,
        "dialogID": 733100216,
        "protectTime": 0.5
      }
    ],
    [
      {
        "$type": "PKKMAMONGEO",
        "type": "DIALOG",
        "aliasList": [
          "20987"
        ],
        "actionId": 136,
        "dialogID": 733100217,
        "protectTime": 0.5
      }
    ],
    [
      {
        "$type": "PKKMAMONGEO",
        "type": "DIALOG",
        "aliasList": [
          "20987"
        ],
        "actionId": 138,
        "dialogID": 733100218,
        "protectTime": 0.5
      },
      {
        "$type": "HDGKHDNFMIM",
        "type": "DIALOG_SELECT",
        "delayTime": 0.4000000059604645,
        "aliasList": [
          "Avatar"
        ],
        "actionId": 139,
        "dialogIDList": [
          733100219,
          733100220
        ],
        "grpIDList": [
          1580521777,
          1580521777
        ],
        "useGrpId": true,
        "countDownGrpId": 3653215206
      }
    ],
    [
      {
        "$type": "PKKMAMONGEO",
        "type": "DIALOG",
        "aliasList": [
          "1005"
        ],
        "actionId": 141,
        "dialogID": 733100221,
        "protectTime": 0.5
      }
    ],
    [
      {
        "$type": "PKKMAMONGEO",
        "type": "DIALOG",
        "aliasList": [
          "20987"
        ],
        "actionId": 143,
        "dialogID": 733100222,
        "protectTime": 0.5
      }
    ],
    [
      {
        "$type": "PKKMAMONGEO",
        "type": "DIALOG",
        "aliasList": [
          "1005"
        ],
        "actionId": 145,
        "dialogID": 733100223,
        "protectTime": 0.5
      }
    ],
    [
      {
        "$type": "PKKMAMONGEO",
        "type": "DIALOG",
        "aliasList": [
          "1005"
        ],
        "actionId": 147,
        "dialogID": 733100224,
        "protectTime": 0.5
      }
    ],
    [
      {
        "$type": "PKKMAMONGEO",
        "type": "DIALOG",
        "aliasList": [
          "20987"
        ],
        "actionId": 149,
        "dialogID": 733100225,
        "protectTime": 0.5
      }
    ],
    [
      {
        "$type": "PKKMAMONGEO",
        "type": "DIALOG",
        "aliasList": [
          "20987"
        ],
        "actionId": 151,
        "dialogID": 733100226,
        "protectTime": 0.5
      }
    ],
    [
      {
        "$type": "MoleMole.Config.ConfigTimeProtectAction",
        "type": "TIME_PROTECT",
        "duration": 0.10000000149011612,
        "actionId": 105
      }
    ]
  ],
  "groupId": [
    {
      "grpId": 3653215207,
      "nextGrpId": 3653215208
    },
    {
      "index": 1,
      "grpId": 3653215208,
      "nextGrpId": 3653215209
    },
    {
      "index": 2,
      "grpId": 3653215209,
      "nextGrpId": 3653215210
    },
    {
      "index": 3,
      "grpId": 3653215210,
      "nextGrpId": 3653215211
    },
    {
      "index": 4,
      "grpId": 3653215211,
      "nextGrpId": 3653215212
    },
    {
      "index": 5,
      "grpId": 3653215212,
      "nextGrpId": 3653215213
    },
    {
      "index": 6,
      "grpId": 3653215213,
      "nextGrpId": 3653215214
    },
    {
      "index": 7,
      "grpId": 3653215214,
      "nextGrpId": 3653215215
    },
    {
      "index": 8,
      "grpId": 3653215215,
      "nextGrpId": 1580521769
    },
    {
      "index": 9,
      "grpId": 1580521769,
      "nextGrpId": 1580521770
    },
    {
      "index": 10,
      "grpId": 1580521770,
      "nextGrpId": 1580521771
    },
    {
      "index": 11,
      "grpId": 1580521771,
      "nextGrpId": 1580521772
    },
    {
      "index": 12,
      "grpId": 1580521772,
      "nextGrpId": 1580521773
    },
    {
      "index": 13,
      "grpId": 1580521773,
      "nextGrpId": 1580521774
    },
    {
      "index": 14,
      "grpId": 1580521774,
      "nextGrpId": 1580521775
    },
    {
      "index": 15,
      "grpId": 1580521775,
      "nextGrpId": 1580521776
    },
    {
      "index": 16,
      "grpId": 1580521776,
      "nextGrpId": 1580521777
    },
    {
      "index": 17,
      "grpId": 1580521777,
      "nextGrpId": 1580521778
    },
    {
      "index": 18,
      "grpId": 1580521778,
      "nextGrpId": 1580521800
    },
    {
      "index": 19,
      "grpId": 1580521800,
      "nextGrpId": 1580521801
    },
    {
      "index": 20,
      "grpId": 1580521801,
      "nextGrpId": 1580521802
    },
    {
      "index": 21,
      "grpId": 1580521802,
      "nextGrpId": 1580521803
    },
    {
      "index": 22,
      "grpId": 1580521803,
      "nextGrpId": 1580521804
    },
    {
      "index": 23,
      "grpId": 1580521804,
      "nextGrpId": 1580521805
    }
  ],
  "freeStyleDic": {
    "20987": []
  }
}