[
  {
    "id": 20201002,
    "switchValue": {
      "text": "Switch_City_MengDe_Day"
    },
    "timeTransitions": {
      "interval": 30.0,
      "repetitives": {
        "shifters": [
          {
            "targetSongId": 20201004,
            "rootConditionId": 10010011
          }
        ]
      }
    },
    "stimulusHandlers": [
      {
        "$type": "JFLIHLLNMEI",
        "stimulus": "QuestBegin",
        "transitions": {
          "shifters": [
            {
              "targetSongId": 21000003,
              "rootConditionId": 10000001
            }
          ]
        },
        "uintParam": 35721
      },
      {
        "$type": "JFLIHLLNMEI",
        "stimulus": "QuestBegin",
        "transitions": {
          "shifters": [
            {
              "targetSongId": 20500012,
              "rootConditionId": 10000001
            }
          ]
        },
        "uintParam": 37202
      },
      {
        "$type": "JFLIHLLNMEI",
        "stimulus": "QuestBegin",
        "transitions": {
          "shifters": [
            {
              "targetSongId": 21000006,
              "rootConditionId": 10000001
            }
          ]
        },
        "uintParam": 37602
      },
      {
        "$type": "OODAICLENFH",
        "stimulus": "AreaChange",
        "transitions": {
          "shifters": [
            {
              "targetSongId": 20100009,
              "rootConditionId": 10320005
            },
            {
              "targetSongId": 20100002,
              "rootConditionId": 10000001
            }
          ]
        }
      },
      {
        "$type": "JFLIHLLNMEI",
        "stimulus": "DialogBegin",
        "transitions": {
          "shifters": [
            {
              "targetSongId": 20900201,
              "rootConditionId": 10000001
            }
          ]
        },
        "uintParam": 3700201
      },
      {
        "$type": "JFLIHLLNMEI",
        "stimulus": "DialogBegin",
        "transitions": {
          "shifters": [
            {
              "targetSongId": 20900204,
              "rootConditionId": 10000001
            }
          ]
        },
        "uintParam": 3710101
      },
      {
        "$type": "JFLIHLLNMEI",
        "stimulus": "DialogBegin",
        "transitions": {
          "shifters": [
            {
              "targetSongId": 20900207,
              "rootConditionId": 10000001
            }
          ]
        },
        "uintParam": 3740707
      },
      {
        "$type": "PDMNJNJBMHM",
        "stimulus": "CutsceneCustom",
        "transitions": {
          "shifters": [
            {
              "targetSongId": 20500011,
              "rootConditionId": 10000001
            }
          ]
        },
        "stringParam": "VentiShowBegin"
      },
      {
        "$type": "PDMNJNJBMHM",
        "stimulus": "CutsceneCustom",
        "transitions": {
          "shifters": [
            {
              "targetSongId": 20500013,
              "rootConditionId": 10000001
            }
          ]
        },
        "stringParam": "MDAQ41_CleanTearBegin"
      },
      {
        "$type": "PDMNJNJBMHM",
        "stimulus": "CutsceneCustom",
        "transitions": {
          "shifters": [
            {
              "targetSongId": 20500013,
              "rootConditionId": 10000001
            }
          ]
        },
        "stringParam": "MDAQ41_Cleantears02Begin"
      }
    ]
  },
  {
    "id": 20201004,
    "switchValue": {
      "text": "Switch_City_MengDe_Night"
    },
    "timeTransitions": {
      "interval": 30.0,
      "repetitives": {
        "shifters": [
          {
            "targetSongId": 20201002,
            "rootConditionId": 10010009
          }
        ]
      }
    },
    "stimulusHandlers": [
      {
        "$type": "JFLIHLLNMEI",
        "stimulus": "QuestBegin",
        "transitions": {
          "shifters": [
            {
              "targetSongId": 21000003,
              "rootConditionId": 10000001
            }
          ]
        },
        "uintParam": 35721
      },
      {
        "$type": "JFLIHLLNMEI",
        "stimulus": "QuestBegin",
        "transitions": {
          "shifters": [
            {
              "targetSongId": 20500012,
              "rootConditionId": 10000001
            }
          ]
        },
        "uintParam": 37202
      },
      {
        "$type": "JFLIHLLNMEI",
        "stimulus": "QuestBegin",
        "transitions": {
          "shifters": [
            {
              "targetSongId": 21000006,
              "rootConditionId": 10000001
            }
          ]
        },
        "uintParam": 37602
      },
      {
        "$type": "OODAICLENFH",
        "stimulus": "AreaChange",
        "transitions": {
          "shifters": [
            {
              "targetSongId": 20100009,
              "rootConditionId": 10320005
            },
            {
              "targetSongId": 20100003,
              "rootConditionId": 10000001
            }
          ]
        }
      },
      {
        "$type": "JFLIHLLNMEI",
        "stimulus": "DialogBegin",
        "transitions": {
          "shifters": [
            {
              "targetSongId": 20900201,
              "rootConditionId": 10000001
            }
          ]
        },
        "uintParam": 3700201
      },
      {
        "$type": "JFLIHLLNMEI",
        "stimulus": "DialogBegin",
        "transitions": {
          "shifters": [
            {
              "targetSongId": 20900204,
              "rootConditionId": 10000001
            }
          ]
        },
        "uintParam": 3710101
      },
      {
        "$type": "JFLIHLLNMEI",
        "stimulus": "DialogBegin",
        "transitions": {
          "shifters": [
            {
              "targetSongId": 20900207,
              "rootConditionId": 10000001
            }
          ]
        },
        "uintParam": 3740707
      },
      {
        "$type": "PDMNJNJBMHM",
        "stimulus": "CutsceneCustom",
        "transitions": {
          "shifters": [
            {
              "targetSongId": 20500011,
              "rootConditionId": 10000001
            }
          ]
        },
        "stringParam": "VentiShowBegin"
      },
      {
        "$type": "PDMNJNJBMHM",
        "stimulus": "CutsceneCustom",
        "transitions": {
          "shifters": [
            {
              "targetSongId": 20500013,
              "rootConditionId": 10000001
            }
          ]
        },
        "stringParam": "MDAQ41_CleanTearBegin"
      },
      {
        "$type": "PDMNJNJBMHM",
        "stimulus": "CutsceneCustom",
        "transitions": {
          "shifters": [
            {
              "targetSongId": 20500013,
              "rootConditionId": 10000001
            }
          ]
        },
        "stringParam": "MDAQ41_Cleantears02Begin"
      }
    ]
  },
  {
    "id": 20201005,
    "switchValue": {
      "text": "Switch_Quest_Agitated"
    },
    "stimulusHandlers": [
      {
        "$type": "JFLIHLLNMEI",
        "stimulus": "QuestEnd",
        "transitions": {
          "shifters": [
            {
              "targetSongId": 20201002,
              "rootConditionId": 10010009
            },
            {
              "targetSongId": 20201004,
              "rootConditionId": 10010011
            }
          ]
        },
        "uintParam": 35901
      },
      {
        "$type": "OODAICLENFH",
        "stimulus": "AreaChange",
        "transitions": {
          "shifters": [
            {
              "targetSongId": 20100009,
              "rootConditionId": 10320005
            },
            {
              "targetSongId": 20100002,
              "rootConditionId": 10010009
            },
            {
              "targetSongId": 20100003,
              "rootConditionId": 10010011
            }
          ]
        }
      }
    ]
  },
  {
    "id": 20201006,
    "switchValue": {
      "text": "Switch_Quest_Suspicious"
    },
    "stimulusHandlers": [
      {
        "$type": "JFLIHLLNMEI",
        "stimulus": "QuestEnd",
        "transitions": {
          "shifters": [
            {
              "targetSongId": 20201002,
              "rootConditionId": 10010009
            },
            {
              "targetSongId": 20201004,
              "rootConditionId": 10010011
            }
          ]
        },
        "uintParam": 37113
      },
      {
        "$type": "OODAICLENFH",
        "stimulus": "AreaChange",
        "transitions": {
          "shifters": [
            {
              "targetSongId": 20100009,
              "rootConditionId": 10320005
            },
            {
              "targetSongId": 20100002,
              "rootConditionId": 10010009
            },
            {
              "targetSongId": 20100003,
              "rootConditionId": 10010011
            }
          ]
        }
      }
    ]
  }
]