[
  {
    "id": 21000001,
    "switchValue": {
      "text": ""
    },
    "stimulusHandlers": [
      {
        "$type": "JFLIHLLNMEI",
        "stimulus": "QuestEnd",
        "transitions": {
          "shifters": [
            {
              "targetSongId": 20100001,
              "rootConditionId": 10000001
            }
          ]
        },
        "uintParam": 35404
      },
      {
        "$type": "OODAICLENFH",
        "stimulus": "AreaChange",
        "transitions": {
          "shifters": [
            {
              "targetSongId": 20100001,
              "rootConditionId": 10000001
            }
          ]
        }
      }
    ]
  },
  {
    "id": 21000002,
    "switchValue": {
      "text": ""
    },
    "stimulusHandlers": [
      {
        "$type": "JFLIHLLNMEI",
        "stimulus": "DialogBegin",
        "transitions": {
          "shifters": [
            {
              "targetSongId": 20201002,
              "rootConditionId": 10010009
            },
            {
              "targetSongId": 20201004,
              "rootConditionId": 10010011
            }
          ]
        },
        "uintParam": 3560101
      }
    ]
  },
  {
    "id": 21000003,
    "switchValue": {
      "text": ""
    }
  },
  {
    "id": 21000004,
    "switchValue": {
      "text": ""
    },
    "stimulusHandlers": [
      {
        "$type": "OODAICLENFH",
        "stimulus": "CutsceneEnd",
        "transitions": {
          "shifters": [
            {
              "targetSongId": 21000005,
              "rootConditionId": 10000001
            }
          ]
        }
      }
    ]
  },
  {
    "id": 21000005,
    "switchValue": {
      "text": ""
    },
    "timeTransitions": {
      "fixedTimes": [
        {
          "transitions": {
            "shifters": [
              {
                "targetSongId": 20100001,
                "rootConditionId": 10000001
              }
            ]
          },
          "fixedTime": 60.0
        }
      ]
    },
    "stimulusHandlers": [
      {
        "$type": "JFLIHLLNMEI",
        "stimulus": "QuestBegin",
        "transitions": {
          "shifters": [
            {
              "targetSongId": 21000006,
              "rootConditionId": 10000001
            }
          ]
        },
        "uintParam": 37602
      }
    ]
  },
  {
    "id": 21000006,
    "switchValue": {
      "text": "Switch_Quest_Playful"
    },
    "stimulusHandlers": [
      {
        "$type": "JFLIHLLNMEI",
        "stimulus": "QuestEnd",
        "transitions": {
          "shifters": [
            {
              "targetSongId": 20201002,
              "rootConditionId": 10010009
            },
            {
              "targetSongId": 20201004,
              "rootConditionId": 10010011
            }
          ]
        },
        "uintParam": 37602
      }
    ]
  }
]