{
  "name": "Char_Skill_34044",
  "declaredValueMap": {
    "-1197212178": {
      "$type": "PGBOMOMLLOA",
      "damageRatio": "EffectNum",
      "value": 1
    },
    "476224977": {
      "$type": "PHHPFHOHFOJ",
      "damageRatio": "Element",
      "param3": "GCG_ELEMENT_ELECTRO"
    }
  }
}