{
  "name": "Char_Skill_13103",
  "declaredValueMap": {
    "-2060930438": {
      "$type": "LLMAKHHKDOH",
      "value": 3
    },
    "476224977": {
      "$type": "PHHPFHOHFOJ",
      "damageRatio": "Element",
      "param3": "GCG_ELEMENT_PYRO"
    },
    "-1906859897": {
      "$type": "PGBOMOMLLOA",
      "damageRatio": "EffectNum",
      "value": 1
    },
    "-1906859898": {
      "$type": "PGBOMOMLLOA",
      "damageRatio": "EffectNum"
    }
  }
}