{
  "name": "Char_Skill_24034",
  "declaredValueMap": {
    "-1197212178": {
      "$type": "PGBOMOMLLOA",
      "damageRatio": "EffectNum",
      "value": 1
    },
    "2078994684": {
      "$type": "PGBOMOMLLOA",
      "damageRatio": "EffectNum",
      "value": 2
    },
    "2078994683": {
      "$type": "PGBOMOMLLOA",
      "damageRatio": "EffectNum",
      "value": 1
    }
  }
}