{
  "name": "Char_Skill_16082",
  "declaredValueMap": {
    "-2060930438": {
      "$type": "LLMAKHHKDOH",
      "value": 3
    },
    "476224977": {
      "$type": "PHHPFHOHFOJ",
      "damageRatio": "Element",
      "param3": "GCG_ELEMENT_GEO"
    },
    "-1197212178": {
      "$type": "PGBOMOMLLOA",
      "damageRatio": "EffectNum"
    },
    "601052326": {
      "$type": "LLMAKHHKDOH",
      "value": 8
    },
    "2078994687": {
      "$type": "PGBOMOMLLOA",
      "damageRatio": "EffectNum",
      "value": 5
    },
    "1756946870": {
      "$type": "PGBOMOMLLOA",
      "damageRatio": "EffectNum",
      "value": 2
    }
  }
}