{
  "name": "Char_Skill_22053_Ex_1",
  "declaredValueMap": {
    "-713033687": {
      "$type": "PGBOMOMLLOA",
      "damageRatio": "EffectNum"
    },
    "-1197212178": {
      "$type": "PGBOMOMLLOA",
      "damageRatio": "EffectNum",
      "value": 1
    }
  }
}