{
  "name": "Char_Skill_32034",
  "declaredValueMap": {
    "227162220": {
      "$type": "PGBOMOMLLOA",
      "damageRatio": "EffectNum",
      "value": 1
    },
    "-1197212178": {
      "$type": "PGBOMOMLLOA",
      "damageRatio": "EffectNum",
      "value": 2
    }
  }
}