{
  "name": "Char_Skill_23028",
  "declaredValueMap": {
    "25457495": {
      "$type": "PNIDELMCDHI",
      "damageRatio": "Heal",
      "value": 4
    },
    "-1412328892": {
      "$type": "LECAMMHLEEH",
      "damageRatio": "TokenType",
      "param3": "GCG_TOKEN_LIFE"
    }
  }
}