{
  "name": "Char_Skill_16023",
  "declaredValueMap": {
    "-2060930438": {
      "$type": "LLMAKHHKDOH",
      "value": 4
    },
    "476224977": {
      "$type": "PHHPFHOHFOJ",
      "damageRatio": "Element",
      "param3": "GCG_ELEMENT_GEO"
    }
  }
}