{
  "name": "Char_Skill_15101",
  "declaredValueMap": {
    "-2060930438": {
      "$type": "LLMAKHHKDOH",
      "value": 1
    },
    "476224977": {
      "$type": "PHHPFHOHFOJ",
      "damageRatio": "Element",
      "param3": "GCG_ELEMENT_ANEMO"
    },
    "-1197212178": {
      "$type": "PGBOMOMLLOA",
      "damageRatio": "EffectNum"
    }
  }
}