{
  "name": "Char_Skill_14073",
  "declaredValueMap": {
    "-2060930438": {
      "$type": "LLMAKHHKDOH",
      "value": 3
    },
    "476224977": {
      "$type": "PHHPFHOHFOJ",
      "damageRatio": "Element",
      "param3": "GCG_ELEMENT_ELECTRO"
    },
    "-1197212178": {
      "$type": "PGBOMOMLLOA",
      "damageRatio": "EffectNum",
      "value": 2
    }
  }
}