{
  "name": "Char_Skill_12053",
  "declaredValueMap": {
    "-2060930438": {
      "$type": "LLMAKHHKDOH",
      "value": 2
    },
    "476224977": {
      "$type": "PHHPFHOHFOJ",
      "damageRatio": "Element",
      "param3": "GCG_ELEMENT_HYDRO"
    },
    "25457495": {
      "$type": "PNIDELMCDHI",
      "damageRatio": "Heal",
      "value": 1
    },
    "-655016129": {
      "$type": "PGBOMOMLLOA",
      "damageRatio": "EffectNum",
      "value": 1
    },
    "92232043": {
      "$type": "PGBOMOMLLOA",
      "damageRatio": "EffectNum"
    },
    "-1186168532": {
      "$type": "PGBOMOMLLOA",
      "damageRatio": "EffectNum",
      "value": 1
    }
  }
}