{
  "name": "Char_Skill_12113",
  "declaredValueMap": {
    "-2060930438": {
      "$type": "LLNKPHOPKHH",
      "value": 2
    },
    "476224977": {
      "$type": "LFFKCHGMHAM",
      "KPGKDHAFHFE": "Element",
      "value": "GCG_ELEMENT_HYDRO"
    }
  }
}