{
  "name": "Char_Skill_11042",
  "declaredValueMap": {
    "-2060930438": {
      "$type": "LLMAKHHKDOH",
      "value": 3
    },
    "476224977": {
      "$type": "PHHPFHOHFOJ",
      "damageRatio": "Element",
      "param3": "GCG_ELEMENT_CRYO"
    }
  }
}