{
  "name": "Char_Skill_26022",
  "declaredValueMap": {
    "-2060930438": {
      "$type": "LLMAKHHKDOH",
      "value": 3
    },
    "476224977": {
      "$type": "PHHPFHOHFOJ",
      "damageRatio": "Element",
      "param3": "GCG_ELEMENT_GEO"
    },
    "-701726563": {
      "$type": "PGBOMOMLLOA",
      "damageRatio": "EffectNum",
      "value": 1
    },
    "582552293": {
      "$type": "PGBOMOMLLOA",
      "damageRatio": "EffectNum",
      "value": 2
    },
    "-1738506072": {
      "$type": "PGBOMOMLLOA",
      "damageRatio": "EffectNum",
      "value": 3
    },
    "-399007663": {
      "$type": "PGBOMOMLLOA",
      "damageRatio": "EffectNum",
      "value": 4
    },
    "-1197212178": {
      "$type": "PGBOMOMLLOA",
      "damageRatio": "EffectNum",
      "value": 1
    },
    "65925363": {
      "$type": "PGBOMOMLLOA",
      "damageRatio": "EffectNum"
    },
    "1733234167": {
      "$type": "PGBOMOMLLOA",
      "damageRatio": "EffectNum",
      "value": 1
    },
    "-2035188441": {
      "$type": "PGBOMOMLLOA",
      "damageRatio": "EffectNum",
      "value": 1
    },
    "-2035188440": {
      "$type": "PGBOMOMLLOA",
      "damageRatio": "EffectNum",
      "value": 2
    },
    "-2035188439": {
      "$type": "PGBOMOMLLOA",
      "damageRatio": "EffectNum",
      "value": 3
    },
    "-2035188438": {
      "$type": "PGBOMOMLLOA",
      "damageRatio": "EffectNum",
      "value": 4
    },
    "-2035188442": {
      "$type": "PGBOMOMLLOA",
      "damageRatio": "EffectNum"
    },
    "19039908": {
      "$type": "PGBOMOMLLOA",
      "damageRatio": "EffectNum",
      "value": 1
    }
  }
}