{
  "name": "Char_Skill_35025",
  "declaredValueMap": {
    "-2060930438": {
      "$type": "LLMAKHHKDOH",
      "value": 2
    },
    "476224977": {
      "$type": "PHHPFHOHFOJ",
      "damageRatio": "Element"
    }
  }
}