{
  "name": "Effect_Damage_Physic_6",
  "declaredValueMap": {
    "-2060930438": {
      "$type": "LLMAKHHKDOH",
      "value": 6
    },
    "476224977": {
      "$type": "PHHPFHOHFOJ",
      "damageRatio": "Element"
    }
  }
}