{
  "luaDataPath": "",
  "isSimpleTalk": true,
  "startBlackKeepTime": 0.5,
  "entityBan": "",
  "disableNpcLod": true,
  "isAutoBanNpc": true,
  "startFade": {
    "startFadeInDuration": 0.5,
    "startFadeOutDuration": 0.5
  },
  "endFade": {
    "startFadeOutDuration": 0.0
  },
  "actors": [
    {
      "alias": "Avatar",
      "bornPointName": "7228719_player",
      "relativePosNpcAlias": "",
      "_bindMovingTargetKey": ""
    },
    {
      "configID": 20642,
      "alias": "20642",
      "visible": true,
      "bornPointName": "7228719_wushi",
      "removeActorType": "REMOVE",
      "relativePosNpcAlias": "",
      "_bindMovingTargetKey": ""
    },
    {
      "configID": 20719,
      "alias": "20719",
      "visible": true,
      "bornPointName": "7228719_xiaoc",
      "removeActorType": "REMOVE",
      "relativePosNpcAlias": "",
      "_bindMovingTargetKey": ""
    },
    {
      "configID": 20721,
      "alias": "20721",
      "visible": true,
      "bornPointName": "7228719_hei",
      "removeActorType": "REMOVE",
      "relativePosNpcAlias": "",
      "_bindMovingTargetKey": ""
    },
    {
      "configID": 3162,
      "alias": "3162",
      "visible": true,
      "bornPointName": "7228716_zew",
      "forceCreateDaily": true,
      "relativePosNpcAlias": "",
      "_bindMovingTargetKey": ""
    }
  ],
  "group": [
    [
      {
        "$type": "MoleMole.Config.ConfigTimeProtectAction",
        "type": "TIME_PROTECT",
        "duration": 0.10000000149011612
      }
    ],
    [
      {
        "$type": "PKKMAMONGEO",
        "type": "DIALOG",
        "aliasList": [
          "20642"
        ],
        "dialogID": 722873001,
        "protectTime": 0.5
      },
      {
        "$type": "HDGKHDNFMIM",
        "type": "DIALOG_SELECT",
        "delayTime": 0.4000000059604645,
        "aliasList": [
          "Avatar"
        ],
        "dialogIDList": [
          722873002,
          722873003,
          722873004
        ],
        "grpIDList": [
          2608288784,
          3547540971,
          3547540971
        ],
        "useGrpId": true
      }
    ],
    [
      {
        "$type": "PKKMAMONGEO",
        "type": "DIALOG",
        "aliasList": [
          "20719"
        ],
        "dialogID": 722873005,
        "protectTime": 0.5
      }
    ],
    [
      {
        "$type": "PKKMAMONGEO",
        "type": "DIALOG",
        "aliasList": [
          "20719"
        ],
        "dialogID": 722873006,
        "protectTime": 0.5
      }
    ],
    [
      {
        "$type": "PKKMAMONGEO",
        "type": "DIALOG",
        "aliasList": [
          "20719"
        ],
        "dialogID": 722873007,
        "protectTime": 0.5
      }
    ],
    [
      {
        "$type": "PKKMAMONGEO",
        "type": "DIALOG",
        "aliasList": [
          "20719"
        ],
        "dialogID": 722873008,
        "protectTime": 0.5
      }
    ],
    [
      {
        "$type": "PKKMAMONGEO",
        "type": "DIALOG",
        "aliasList": [
          "20719"
        ],
        "dialogID": 722873009,
        "protectTime": 0.5
      }
    ],
    [
      {
        "$type": "PKKMAMONGEO",
        "type": "DIALOG",
        "aliasList": [
          "20719"
        ],
        "dialogID": 722873010,
        "protectTime": 0.5
      }
    ],
    [
      {
        "$type": "PKKMAMONGEO",
        "type": "DIALOG",
        "aliasList": [
          "20719"
        ],
        "dialogID": 722873011,
        "protectTime": 0.5
      },
      {
        "$type": "HDGKHDNFMIM",
        "type": "DIALOG_SELECT",
        "delayTime": 0.4000000059604645,
        "aliasList": [
          "Avatar"
        ],
        "dialogIDList": [
          722873012,
          722873013,
          722873014
        ],
        "grpIDList": [
          3547540962,
          3547540971,
          3547540971
        ],
        "useGrpId": true
      }
    ],
    [
      {
        "$type": "PKKMAMONGEO",
        "type": "DIALOG",
        "aliasList": [
          "20719"
        ],
        "dialogID": 722873015,
        "protectTime": 0.5
      }
    ],
    [
      {
        "$type": "PKKMAMONGEO",
        "type": "DIALOG",
        "aliasList": [
          "20719"
        ],
        "dialogID": 722873016,
        "protectTime": 0.5
      }
    ],
    [
      {
        "$type": "PKKMAMONGEO",
        "type": "DIALOG",
        "aliasList": [
          "20719"
        ],
        "dialogID": 722873017,
        "protectTime": 0.5
      }
    ],
    [
      {
        "$type": "PKKMAMONGEO",
        "type": "DIALOG",
        "aliasList": [
          "20721"
        ],
        "dialogID": 722873018,
        "protectTime": 0.5
      }
    ],
    [
      {
        "$type": "PKKMAMONGEO",
        "type": "DIALOG",
        "aliasList": [
          "20719"
        ],
        "dialogID": 722873019,
        "protectTime": 0.5
      }
    ],
    [
      {
        "$type": "PKKMAMONGEO",
        "type": "DIALOG",
        "aliasList": [
          "20721"
        ],
        "dialogID": 722873020,
        "protectTime": 0.5
      }
    ],
    [
      {
        "$type": "PKKMAMONGEO",
        "type": "DIALOG",
        "aliasList": [
          "20719"
        ],
        "dialogID": 722873021,
        "protectTime": 0.5
      }
    ],
    [
      {
        "$type": "PKKMAMONGEO",
        "type": "DIALOG",
        "aliasList": [
          "20642"
        ],
        "dialogID": 722873022,
        "protectTime": 0.5
      }
    ],
    [
      {
        "$type": "MoleMole.Config.ConfigLuaAction",
        "type": "LUA_ACTION",
        "duration": 0.10000000149011612,
        "invoke": true,
        "invokeAlias": "72287",
        "invokeParam": 2101
      }
    ],
    [
      {
        "$type": "PKKMAMONGEO",
        "type": "DIALOG",
        "aliasList": [
          "3162"
        ],
        "dialogID": 722873023,
        "protectTime": 0.5
      }
    ],
    [
      {
        "$type": "PKKMAMONGEO",
        "type": "DIALOG",
        "aliasList": [
          "3162"
        ],
        "dialogID": 722873024,
        "protectTime": 0.5
      }
    ],
    [
      {
        "$type": "MoleMole.Config.ConfigLuaAction",
        "type": "LUA_ACTION",
        "duration": 0.10000000149011612,
        "invoke": true,
        "invokeAlias": "72287",
        "invokeParam": 2102
      }
    ],
    [
      {
        "$type": "MoleMole.Config.ConfigTimeProtectAction",
        "type": "TIME_PROTECT",
        "duration": 0.10000000149011612
      }
    ],
    [
      {
        "$type": "MoleMole.Config.ConfigTimeProtectAction",
        "type": "TIME_PROTECT",
        "duration": 0.10000000149011612
      },
      {
        "$type": "MoleMole.Config.ConfigSimpleBlackScreenAction",
        "type": "SIMPLE_BLACK_SCREEN",
        "durationToBlack": 0.5,
        "durationKeepBlack": 1.0,
        "durationFromBlack": 0.5,
        "textMapID": ""
      },
      {
        "$type": "MoleMole.Config.ConfigTimeProtectAction",
        "type": "TIME_PROTECT",
        "duration": 0.699999988079071
      }
    ]
  ],
  "groupId": [
    {
      "grpId": 2608288782,
      "nextGrpId": 2608288783
    },
    {
      "index": 1,
      "grpId": 2608288783,
      "nextGrpId": 2608288784
    },
    {
      "index": 2,
      "grpId": 2608288784,
      "nextGrpId": 2608288785
    },
    {
      "index": 3,
      "grpId": 2608288785,
      "nextGrpId": 2608288786
    },
    {
      "index": 4,
      "grpId": 2608288786,
      "nextGrpId": 2608288787
    },
    {
      "index": 5,
      "grpId": 2608288787,
      "nextGrpId": 2608288788
    },
    {
      "index": 6,
      "grpId": 2608288788,
      "nextGrpId": 2608288789
    },
    {
      "index": 7,
      "grpId": 2608288789,
      "nextGrpId": 2608288790
    },
    {
      "index": 8,
      "grpId": 2608288790,
      "nextGrpId": 3547540962
    },
    {
      "index": 9,
      "grpId": 3547540962,
      "nextGrpId": 3547540963
    },
    {
      "index": 10,
      "grpId": 3547540963,
      "nextGrpId": 3547540964
    },
    {
      "index": 11,
      "grpId": 3547540964,
      "nextGrpId": 3547540965
    },
    {
      "index": 12,
      "grpId": 3547540965,
      "nextGrpId": 3547540966
    },
    {
      "index": 13,
      "grpId": 3547540966,
      "nextGrpId": 3547540967
    },
    {
      "index": 14,
      "grpId": 3547540967,
      "nextGrpId": 3547540968
    },
    {
      "index": 15,
      "grpId": 3547540968,
      "nextGrpId": 3547540969
    },
    {
      "index": 16,
      "grpId": 3547540969,
      "nextGrpId": 3547540970
    },
    {
      "index": 17,
      "grpId": 3547540970,
      "nextGrpId": 3547540995
    },
    {
      "index": 18,
      "grpId": 3547540971,
      "nextGrpId": 3547540993
    },
    {
      "index": 19,
      "grpId": 3547540993,
      "nextGrpId": 3547540994
    },
    {
      "index": 20,
      "grpId": 3547540994,
      "nextGrpId": 3547540995
    },
    {
      "index": 21,
      "grpId": 3547540995,
      "nextGrpId": 3547540996
    },
    {
      "index": 22,
      "grpId": 3547540996,
      "nextGrpId": 3547540997
    }
  ],
  "freeStyleDic": {
    "20642": [],
    "20719": [],
    "20721": [],
    "3162": []
  }
}