{
  "id": 1010,
  "resId": 1005,
  "series": 1101,
  "descTextMapHash": 3403721721,
  "EKEKACCODOE": 747522079,
  "luaPath": "Actor/Quest/MQ1010",
  "suggestTrackMainQuestList": [
    1011
  ],
  "rewardIdList": [
    101010
  ],
  "chapterId": 1102,
  "showRedPoint": true,
  "subQuests": [
    {
      "subId": 101001,
      "mainId": 1010,
      "order": 1,
      "descTextMapHash": 3256933974,
      "finishCond": [
        {
          "damageRatio": "QUEST_CONTENT_GAME_TIME_TICK",
          "param": [
            1,
            0
          ]
        }
      ],
      "guide": {
        "MLAHIFLGIGJ": ""
      },
      "guideHint": {
        "param1": ""
      },
      "isRewind": true,
      "versionBegin": "",
      "versionEnd": ""
    },
    {
      "subId": 101002,
      "mainId": 1010,
      "order": 2,
      "descTextMapHash": 2839051910,
      "finishCond": [
        {
          "damageRatio": "QUEST_CONTENT_COMPLETE_TALK",
          "param": [
            101002,
            0
          ]
        }
      ],
      "guide": {
        "damageRatio": "QUEST_GUIDE_NPC",
        "param": [
          "10235"
        ],
        "guideScene": 1033,
        "guideStyle": "QUEST_GUIDE_STYLE_TARGET",
        "guideLayer": "QUEST_GUIDE_LAYER_SCENE",
        "MLAHIFLGIGJ": ""
      },
      "guideHint": {
        "param1": ""
      },
      "isRewind": true,
      "versionBegin": "",
      "versionEnd": ""
    },
    {
      "subId": 101003,
      "mainId": 1010,
      "order": 3,
      "isMpBlock": true,
      "descTextMapHash": 3682043446,
      "finishCond": [
        {
          "damageRatio": "QUEST_CONTENT_COMPLETE_TALK",
          "param": [
            101003,
            0
          ]
        }
      ],
      "guide": {
        "damageRatio": "QUEST_GUIDE_NPC",
        "param": [
          "10200"
        ],
        "guideScene": 3,
        "guideStyle": "QUEST_GUIDE_STYLE_TARGET",
        "guideLayer": "QUEST_GUIDE_LAYER_SCENE",
        "MLAHIFLGIGJ": ""
      },
      "guideHint": {
        "param1": ""
      },
      "isRewind": true,
      "versionBegin": "",
      "versionEnd": ""
    },
    {
      "subId": 101004,
      "mainId": 1010,
      "order": 4,
      "isMpBlock": true,
      "descTextMapHash": 1841647094,
      "showType": "QUEST_HIDDEN",
      "finishCond": [
        {
          "damageRatio": "QUEST_CONTENT_FINISH_PLOT",
          "param": [
            101004,
            0
          ]
        }
      ],
      "guide": {
        "MLAHIFLGIGJ": ""
      },
      "guideHint": {
        "param1": ""
      },
      "versionBegin": "",
      "versionEnd": ""
    },
    {
      "subId": 101005,
      "mainId": 1010,
      "order": 7,
      "descTextMapHash": 1021935550,
      "finishCond": [
        {
          "damageRatio": "QUEST_CONTENT_COMPLETE_TALK",
          "param": [
            101005,
            0
          ]
        }
      ],
      "guide": {
        "damageRatio": "QUEST_GUIDE_NPC",
        "param": [
          "10232"
        ],
        "guideScene": 1034,
        "guideStyle": "QUEST_GUIDE_STYLE_TARGET",
        "guideLayer": "QUEST_GUIDE_LAYER_SCENE",
        "MLAHIFLGIGJ": ""
      },
      "guideHint": {
        "param1": ""
      },
      "versionBegin": "",
      "versionEnd": ""
    },
    {
      "subId": 101006,
      "mainId": 1010,
      "order": 8,
      "descTextMapHash": 2640720366,
      "finishCond": [
        {
          "damageRatio": "QUEST_CONTENT_COMPLETE_TALK",
          "param": [
            101006,
            0
          ]
        }
      ],
      "guide": {
        "damageRatio": "QUEST_GUIDE_NPC",
        "param": [
          "10232"
        ],
        "guideScene": 3,
        "guideStyle": "QUEST_GUIDE_STYLE_TARGET",
        "guideLayer": "QUEST_GUIDE_LAYER_SCENE",
        "MLAHIFLGIGJ": ""
      },
      "guideHint": {
        "param1": ""
      },
      "finishParent": true,
      "isRewind": true,
      "finishExec": [
        {
          "damageRatio": "QUEST_EXEC_REFRESH_GROUP_SUITE",
          "param": [
            "1034",
            "201034902,1"
          ]
        }
      ],
      "versionBegin": "",
      "versionEnd": ""
    },
    {
      "subId": 101007,
      "mainId": 1010,
      "order": 5,
      "isMpBlock": true,
      "descTextMapHash": 322488654,
      "showType": "QUEST_HIDDEN",
      "finishCond": [
        {
          "damageRatio": "QUEST_CONTENT_ENTER_ROOM",
          "param": [
            1034,
            0
          ]
        }
      ],
      "guide": {
        "MLAHIFLGIGJ": ""
      },
      "guideHint": {
        "param1": ""
      },
      "versionBegin": "",
      "versionEnd": ""
    },
    {
      "subId": 101008,
      "mainId": 1010,
      "order": 6,
      "isMpBlock": true,
      "descTextMapHash": 1417555518,
      "showType": "QUEST_HIDDEN",
      "finishCond": [
        {
          "damageRatio": "QUEST_CONTENT_FINISH_PLOT",
          "param": [
            101008,
            0
          ]
        }
      ],
      "guide": {
        "MLAHIFLGIGJ": ""
      },
      "guideHint": {
        "param1": ""
      },
      "versionBegin": "",
      "versionEnd": ""
    }
  ],
  "talks": [
    {
      "id": 101002,
      "beginWay": "TALK_BEGIN_MANUAL",
      "beginCond": [
        {
          "type": "QUEST_COND_STATE_EQUAL",
          "_param": [
            "101002",
            "2"
          ]
        }
      ],
      "priority": 6,
      "initDialog": 10100201,
      "npcId": [
        10235
      ],
      "performCfg": "QuestDialogue/AQ/Liyue1_1010/Q101002",
      "questId": 1010,
      "assetIndex": 1507410662743948571,
      "prePerformCfg": ""
    },
    {
      "id": 101003,
      "beginWay": "TALK_BEGIN_MANUAL",
      "beginCond": [
        {
          "type": "QUEST_COND_STATE_EQUAL",
          "_param": [
            "101003",
            "2"
          ]
        }
      ],
      "priority": 6,
      "initDialog": 10100301,
      "npcId": [
        10200
      ],
      "performCfg": "QuestDialogue/AQ/Liyue1_1010/Q101003",
      "questId": 1010,
      "assetIndex": 4253715899507944133,
      "prePerformCfg": ""
    },
    {
      "id": 101005,
      "beginWay": "TALK_BEGIN_AUTO",
      "beginCond": [
        {
          "type": "QUEST_COND_STATE_EQUAL",
          "_param": [
            "101005",
            "2"
          ]
        }
      ],
      "priority": 6,
      "initDialog": 10100501,
      "npcId": [
        10232
      ],
      "performCfg": "QuestDialogue/AQ/Liyue1_1010/Q101005",
      "questId": 1010,
      "assetIndex": 11262009815078739729,
      "prePerformCfg": ""
    },
    {
      "id": 101006,
      "beginWay": "TALK_BEGIN_MANUAL",
      "beginCond": [
        {
          "type": "QUEST_COND_STATE_EQUAL",
          "_param": [
            "101006",
            "2"
          ]
        }
      ],
      "priority": 6,
      "initDialog": 10100601,
      "npcId": [
        10232
      ],
      "performCfg": "QuestDialogue/AQ/Liyue1_1010/Q101006",
      "questId": 1010,
      "assetIndex": 16625457110387235813,
      "prePerformCfg": ""
    },
    {
      "id": 10100201,
      "beginWay": "TALK_BEGIN_MANUAL",
      "beginCond": [
        {
          "type": "QUEST_COND_STATE_EQUAL",
          "_param": [
            "101003",
            "2"
          ]
        }
      ],
      "priority": 6,
      "initDialog": 10100221,
      "npcId": [
        10235
      ],
      "performCfg": "QuestDialogue/AQ/Liyue1_1010/Q10100201",
      "heroTalk": "TALK_HERO_MAIN",
      "questId": 1010,
      "assetIndex": 15853032978208360378,
      "prePerformCfg": ""
    },
    {
      "id": 10100501,
      "beginWay": "TALK_BEGIN_MANUAL",
      "beginCondComb": "LOGIC_AND",
      "beginCond": [
        {
          "type": "QUEST_COND_STATE_EQUAL",
          "_param": [
            "101005",
            "3"
          ]
        },
        {
          "type": "QUEST_COND_STATE_EQUAL",
          "_param": [
            "101006",
            "2"
          ]
        }
      ],
      "priority": 6,
      "initDialog": 10100580,
      "npcId": [
        10200
      ],
      "performCfg": "QuestDialogue/AQ/Liyue1_1010/Q10100501",
      "heroTalk": "TALK_HERO_MAIN",
      "questId": 1010,
      "assetIndex": 17467320789209744977,
      "prePerformCfg": ""
    }
  ],
  "freeStyleDic": {
    "10232": [],
    "10200": []
  }
}