{
  "id": 10112,
  "resId": 2013,
  "series": 2013,
  "damageRatio": "LQ",
  "descTextMapHash": 3364109945,
  "EKEKACCODOE": 4038439759,
  "luaPath": "Actor/Quest/LQ10112",
  "suggestTrackMainQuestList": [
    10113
  ],
  "rewardIdList": [
    110112
  ],
  "chapterId": 2013,
  "subQuests": [
    {
      "subId": 1011200,
      "mainId": 10112,
      "order": 1,
      "descTextMapHash": 3732392470,
      "showType": "QUEST_HIDDEN",
      "finishCond": [
        {
          "damageRatio": "QUEST_CONTENT_FINISH_PLOT",
          "param": [
            1011200,
            0
          ]
        }
      ],
      "failCond": [
        {
          "damageRatio": "QUEST_CONTENT_NOT_FINISH_PLOT",
          "param": [
            1011200,
            0
          ]
        }
      ],
      "guide": {
        "MLAHIFLGIGJ": ""
      },
      "guideHint": {
        "param1": ""
      },
      "isRewind": true,
      "versionBegin": "",
      "versionEnd": ""
    },
    {
      "subId": 1011201,
      "mainId": 10112,
      "order": 2,
      "isMpBlock": true,
      "descTextMapHash": 3264928846,
      "finishCond": [
        {
          "damageRatio": "QUEST_CONTENT_FINISH_PLOT",
          "param": [
            1011201,
            0
          ]
        },
        {
          "damageRatio": "QUEST_CONTENT_LUA_NOTIFY",
          "param": [
            0,
            0
          ],
          "count": 1
        }
      ],
      "guide": {
        "damageRatio": "QUEST_GUIDE_LOCATION",
        "param": [
          "Q1011201Target",
          "80"
        ],
        "guideScene": 3,
        "guideStyle": "QUEST_GUIDE_STYLE_POINT",
        "guideLayer": "QUEST_GUIDE_LAYER_SCENE",
        "MLAHIFLGIGJ": ""
      },
      "guideHint": {
        "param1": ""
      },
      "isRewind": true,
      "versionBegin": "",
      "versionEnd": ""
    },
    {
      "subId": 1011202,
      "mainId": 10112,
      "order": 3,
      "isMpBlock": true,
      "descTextMapHash": 389626286,
      "finishCond": [
        {
          "damageRatio": "QUEST_CONTENT_LUA_NOTIFY",
          "param": [
            0,
            0
          ],
          "count": 1
        }
      ],
      "guide": {
        "damageRatio": "QUEST_GUIDE_LOCATION",
        "param": [
          "Q1011203Target",
          "30"
        ],
        "guideScene": 3,
        "guideStyle": "QUEST_GUIDE_STYLE_POINT",
        "guideLayer": "QUEST_GUIDE_LAYER_SCENE",
        "MLAHIFLGIGJ": ""
      },
      "guideHint": {
        "param1": ""
      },
      "finishExec": [
        {
          "damageRatio": "QUEST_EXEC_REFRESH_GROUP_SUITE",
          "param": [
            "3",
            "133001908,2"
          ]
        }
      ],
      "versionBegin": "",
      "versionEnd": ""
    },
    {
      "subId": 1011203,
      "mainId": 10112,
      "order": 4,
      "isMpBlock": true,
      "descTextMapHash": 2771400030,
      "finishCond": [
        {
          "damageRatio": "QUEST_CONTENT_LUA_NOTIFY",
          "param": [
            0,
            0
          ],
          "count": 1
        }
      ],
      "guide": {
        "damageRatio": "QUEST_GUIDE_LOCATION",
        "param": [
          "Q1011203Target"
        ],
        "guideScene": 3,
        "guideStyle": "QUEST_GUIDE_STYLE_TARGET",
        "guideLayer": "QUEST_GUIDE_LAYER_SCENE",
        "MLAHIFLGIGJ": ""
      },
      "guideHint": {
        "param1": ""
      },
      "isRewind": true,
      "versionBegin": "",
      "versionEnd": ""
    },
    {
      "subId": 1011204,
      "mainId": 10112,
      "order": 5,
      "isMpBlock": true,
      "descTextMapHash": 2635511894,
      "showType": "QUEST_HIDDEN",
      "finishCond": [
        {
          "damageRatio": "QUEST_CONTENT_COMPLETE_TALK",
          "param": [
            1011204,
            0
          ]
        }
      ],
      "guide": {
        "damageRatio": "QUEST_GUIDE_NPC",
        "param": [
          "1001"
        ],
        "guideScene": 3,
        "guideStyle": "QUEST_GUIDE_STYLE_TARGET",
        "guideLayer": "QUEST_GUIDE_LAYER_SCENE",
        "MLAHIFLGIGJ": ""
      },
      "guideHint": {
        "param1": ""
      },
      "isRewind": true,
      "versionBegin": "",
      "versionEnd": ""
    },
    {
      "subId": 1011205,
      "mainId": 10112,
      "order": 7,
      "descTextMapHash": 4184647758,
      "finishCond": [
        {
          "damageRatio": "QUEST_CONTENT_FINISH_PLOT",
          "param": [
            1011205,
            0
          ]
        }
      ],
      "guide": {
        "damageRatio": "QUEST_GUIDE_LOCATION",
        "param": [
          "Q1011205Target",
          "80"
        ],
        "guideScene": 3,
        "guideStyle": "QUEST_GUIDE_STYLE_TARGET",
        "guideLayer": "QUEST_GUIDE_LAYER_SCENE",
        "MLAHIFLGIGJ": ""
      },
      "guideHint": {
        "param1": ""
      },
      "isRewind": true,
      "finishExec": [
        {
          "damageRatio": "QUEST_EXEC_REFRESH_GROUP_SUITE",
          "param": [
            "3",
            "133001356,1"
          ]
        },
        {
          "damageRatio": "QUEST_EXEC_REFRESH_GROUP_SUITE",
          "param": [
            "3",
            "133001392,1"
          ]
        },
        {
          "damageRatio": "QUEST_EXEC_REFRESH_GROUP_SUITE",
          "param": [
            "3",
            "133001908,2"
          ]
        }
      ],
      "versionBegin": "",
      "versionEnd": ""
    },
    {
      "subId": 1011206,
      "mainId": 10112,
      "order": 8,
      "isMpBlock": true,
      "descTextMapHash": 3692450566,
      "finishCond": [
        {
          "damageRatio": "QUEST_CONTENT_COMPLETE_TALK",
          "param": [
            1011206,
            0
          ]
        }
      ],
      "guide": {
        "damageRatio": "QUEST_GUIDE_NPC",
        "param": [
          "10243"
        ],
        "guideScene": 3,
        "guideStyle": "QUEST_GUIDE_STYLE_TARGET",
        "guideLayer": "QUEST_GUIDE_LAYER_SCENE",
        "MLAHIFLGIGJ": ""
      },
      "guideHint": {
        "param1": ""
      },
      "isRewind": true,
      "versionBegin": "",
      "versionEnd": ""
    },
    {
      "subId": 1011207,
      "mainId": 10112,
      "order": 9,
      "isMpBlock": true,
      "descTextMapHash": 1428416622,
      "showType": "QUEST_HIDDEN",
      "finishCond": [
        {
          "damageRatio": "QUEST_CONTENT_FINISH_PLOT",
          "param": [
            1011207,
            0
          ]
        }
      ],
      "failCond": [
        {
          "damageRatio": "QUEST_CONTENT_NOT_FINISH_PLOT",
          "param": [
            1011207,
            0
          ]
        }
      ],
      "guide": {
        "damageRatio": "QUEST_GUIDE_NPC",
        "param": [
          "10243"
        ],
        "guideScene": 3,
        "guideStyle": "QUEST_GUIDE_STYLE_TARGET",
        "guideLayer": "QUEST_GUIDE_LAYER_SCENE",
        "MLAHIFLGIGJ": ""
      },
      "guideHint": {
        "param1": ""
      },
      "versionBegin": "",
      "versionEnd": ""
    },
    {
      "subId": 1011208,
      "mainId": 10112,
      "order": 10,
      "isMpBlock": true,
      "descTextMapHash": 1453985486,
      "showType": "QUEST_HIDDEN",
      "finishCond": [
        {
          "damageRatio": "QUEST_CONTENT_FINISH_PLOT",
          "param": [
            1011208,
            0
          ]
        }
      ],
      "failCond": [
        {
          "damageRatio": "QUEST_CONTENT_NOT_FINISH_PLOT",
          "param": [
            1011208,
            0
          ]
        }
      ],
      "guide": {
        "damageRatio": "QUEST_GUIDE_NPC",
        "param": [
          "10243"
        ],
        "guideScene": 3,
        "guideStyle": "QUEST_GUIDE_STYLE_TARGET",
        "guideLayer": "QUEST_GUIDE_LAYER_SCENE",
        "MLAHIFLGIGJ": ""
      },
      "guideHint": {
        "param1": ""
      },
      "versionBegin": "",
      "versionEnd": ""
    },
    {
      "subId": 1011209,
      "mainId": 10112,
      "order": 12,
      "isMpBlock": true,
      "descTextMapHash": 3528530718,
      "finishCond": [
        {
          "damageRatio": "QUEST_CONTENT_LUA_NOTIFY",
          "param": [
            0,
            0
          ],
          "count": 3
        }
      ],
      "guide": {
        "damageRatio": "QUEST_GUIDE_LOCATION",
        "param": [
          "Q1011205QQman",
          "30"
        ],
        "guideScene": 3,
        "guideStyle": "QUEST_GUIDE_STYLE_POINT",
        "guideLayer": "QUEST_GUIDE_LAYER_SCENE",
        "MLAHIFLGIGJ": ""
      },
      "guideHint": {
        "param1": ""
      },
      "isRewind": true,
      "finishExec": [
        {
          "damageRatio": "QUEST_EXEC_REFRESH_GROUP_SUITE",
          "param": [
            "3",
            "133001909,2"
          ]
        }
      ],
      "versionBegin": "",
      "versionEnd": ""
    },
    {
      "subId": 1011210,
      "mainId": 10112,
      "order": 13,
      "isMpBlock": true,
      "descTextMapHash": 3262464070,
      "finishCond": [
        {
          "damageRatio": "QUEST_CONTENT_COMPLETE_TALK",
          "param": [
            1011211,
            0
          ]
        }
      ],
      "guide": {
        "damageRatio": "QUEST_GUIDE_NPC",
        "param": [
          "10243"
        ],
        "guideScene": 3,
        "guideStyle": "QUEST_GUIDE_STYLE_TARGET",
        "guideLayer": "QUEST_GUIDE_LAYER_SCENE",
        "MLAHIFLGIGJ": ""
      },
      "guideHint": {
        "param1": ""
      },
      "isRewind": true,
      "versionBegin": "",
      "versionEnd": ""
    },
    {
      "subId": 1011211,
      "mainId": 10112,
      "order": 14,
      "isMpBlock": true,
      "descTextMapHash": 3300507558,
      "finishCond": [
        {
          "damageRatio": "QUEST_CONTENT_COMPLETE_TALK",
          "param": [
            1011210,
            0
          ]
        }
      ],
      "guide": {
        "damageRatio": "QUEST_GUIDE_NPC",
        "param": [
          "1001"
        ],
        "guideScene": 3,
        "guideStyle": "QUEST_GUIDE_STYLE_TARGET",
        "guideLayer": "QUEST_GUIDE_LAYER_SCENE",
        "MLAHIFLGIGJ": ""
      },
      "guideHint": {
        "param1": ""
      },
      "finishParent": true,
      "isRewind": true,
      "versionBegin": "",
      "versionEnd": ""
    },
    {
      "subId": 1011212,
      "mainId": 10112,
      "order": 6,
      "descTextMapHash": 2299179126,
      "showType": "QUEST_HIDDEN",
      "finishCond": [
        {
          "damageRatio": "QUEST_CONTENT_FINISH_PLOT",
          "param": [
            1011212,
            0
          ]
        }
      ],
      "guide": {
        "MLAHIFLGIGJ": ""
      },
      "guideHint": {
        "param1": ""
      },
      "finishExec": [
        {
          "damageRatio": "QUEST_EXEC_REFRESH_GROUP_SUITE",
          "param": [
            "3",
            "133001387,1"
          ]
        }
      ],
      "versionBegin": "",
      "versionEnd": ""
    },
    {
      "subId": 1011213,
      "mainId": 10112,
      "order": 11,
      "isMpBlock": true,
      "descTextMapHash": 2788765158,
      "showType": "QUEST_HIDDEN",
      "finishCond": [
        {
          "damageRatio": "QUEST_CONTENT_COMPLETE_TALK",
          "param": [
            1011208,
            0
          ]
        }
      ],
      "guide": {
        "MLAHIFLGIGJ": ""
      },
      "guideHint": {
        "param1": ""
      },
      "versionBegin": "",
      "versionEnd": ""
    }
  ],
  "talks": [
    {
      "id": 1011204,
      "beginWay": "TALK_BEGIN_MANUAL",
      "beginCond": [
        {
          "type": "QUEST_COND_STATE_EQUAL",
          "_param": [
            "1011204",
            "2"
          ]
        }
      ],
      "priority": 5,
      "initDialog": 101120401,
      "npcId": [
        1001
      ],
      "performCfg": "QuestDialogue/LQ/Wendy1_10112/Q1011204",
      "heroTalk": "TALK_HERO_MAIN",
      "questId": 10112,
      "assetIndex": 13663063104647952214,
      "prePerformCfg": ""
    },
    {
      "id": 1011206,
      "beginWay": "TALK_BEGIN_MANUAL",
      "beginCond": [
        {
          "type": "QUEST_COND_STATE_EQUAL",
          "_param": [
            "1011206",
            "2"
          ]
        }
      ],
      "priority": 5,
      "nextTalks": [
        1011207,
        1011208
      ],
      "initDialog": 101120601,
      "npcId": [
        10243
      ],
      "performCfg": "QuestDialogue/LQ/Wendy1_10112/Q1011206",
      "heroTalk": "TALK_HERO_MAIN",
      "questId": 10112,
      "assetIndex": 17468808143113339866,
      "prePerformCfg": ""
    },
    {
      "id": 1011207,
      "beginCond": [
        {
          "type": "QUEST_COND_QUEST_VAR_GREATER",
          "_param": [
            "0",
            "60",
            "10112"
          ]
        }
      ],
      "priority": 5,
      "nextTalks": [
        1011210
      ],
      "initDialog": 101120701,
      "npcId": [
        10243
      ],
      "performCfg": "QuestDialogue/LQ/Wendy1_10112/Q1011207",
      "heroTalk": "TALK_HERO_MAIN",
      "questId": 10112,
      "assetIndex": 6027984603043080339,
      "prePerformCfg": ""
    },
    {
      "id": 1011208,
      "beginCond": [
        {
          "type": "QUEST_COND_QUEST_VAR_LESS",
          "_param": [
            "0",
            "50",
            "10112"
          ]
        }
      ],
      "priority": 5,
      "initDialog": 101120801,
      "npcId": [
        10243
      ],
      "performCfg": "QuestDialogue/LQ/Wendy1_10112/Q1011208",
      "heroTalk": "TALK_HERO_MAIN",
      "questId": 10112,
      "assetIndex": 11214216885709781261,
      "prePerformCfg": ""
    },
    {
      "id": 1011210,
      "beginWay": "TALK_BEGIN_MANUAL",
      "beginCondComb": "LOGIC_OR",
      "beginCond": [
        {
          "type": "QUEST_COND_STATE_EQUAL",
          "_param": [
            "1011211",
            "2"
          ]
        },
        {
          "type": "QUEST_COND_STATE_EQUAL",
          "_param": [
            "1011206",
            "3"
          ]
        }
      ],
      "priority": 4,
      "initDialog": 101121001,
      "npcId": [
        1001
      ],
      "performCfg": "QuestDialogue/LQ/Wendy1_10112/Q1011210",
      "heroTalk": "TALK_HERO_MAIN",
      "questId": 10112,
      "assetIndex": 10739215878512569507,
      "prePerformCfg": ""
    },
    {
      "id": 1011211,
      "beginWay": "TALK_BEGIN_MANUAL",
      "beginCond": [
        {
          "type": "QUEST_COND_STATE_EQUAL",
          "_param": [
            "1011210",
            "2"
          ]
        }
      ],
      "priority": 5,
      "nextTalks": [
        1011210
      ],
      "initDialog": 101121101,
      "npcId": [
        10243
      ],
      "performCfg": "QuestDialogue/LQ/Wendy1_10112/Q1011211",
      "heroTalk": "TALK_HERO_MAIN",
      "questId": 10112,
      "assetIndex": 8229349936477849674,
      "prePerformCfg": ""
    }
  ],
  "preloadLuaList": [
    3088369788188086520,
    4494990888107171560,
    295878247015191334,
    13070112522617511375,
    13789890768209975310,
    14457059026087496718
  ],
  "forcePreloadLuaList": [
    1750957983020962545
  ],
  "freeStyleDic": {
    "1001": [
      4
    ],
    "10243": [
      4
    ]
  }
}