{
  "id": 1012,
  "resId": 1005,
  "series": 1101,
  "descTextMapHash": 156369657,
  "EKEKACCODOE": 3341844191,
  "luaPath": "Actor/Quest/MQ1012",
  "suggestTrackMainQuestList": [
    1014
  ],
  "rewardIdList": [
    101012
  ],
  "chapterId": 1102,
  "subQuests": [
    {
      "subId": 101201,
      "mainId": 1012,
      "order": 13,
      "descTextMapHash": 1373647526,
      "showType": "QUEST_HIDDEN",
      "finishCond": [
        {
          "damageRatio": "QUEST_CONTENT_ADD_QUEST_PROGRESS",
          "param": [
            10120101,
            0
          ],
          "count": 1
        }
      ],
      "guide": {
        "MLAHIFLGIGJ": ""
      },
      "guideHint": {
        "param1": ""
      },
      "isRewind": true,
      "versionBegin": "",
      "versionEnd": ""
    },
    {
      "subId": 101202,
      "mainId": 1012,
      "order": 1,
      "descTextMapHash": 362291814,
      "finishCond": [
        {
          "damageRatio": "QUEST_CONTENT_COMPLETE_TALK",
          "param": [
            101202,
            0
          ]
        }
      ],
      "guide": {
        "damageRatio": "QUEST_GUIDE_NPC",
        "param": [
          "201301"
        ],
        "guideScene": 3,
        "guideStyle": "QUEST_GUIDE_STYLE_TARGET",
        "guideLayer": "QUEST_GUIDE_LAYER_SCENE",
        "MLAHIFLGIGJ": ""
      },
      "guideHint": {
        "param1": ""
      },
      "isRewind": true,
      "versionBegin": "",
      "versionEnd": ""
    },
    {
      "subId": 101203,
      "mainId": 1012,
      "order": 3,
      "descTextMapHash": 2631170582,
      "finishCond": [
        {
          "damageRatio": "QUEST_CONTENT_COMPLETE_TALK",
          "param": [
            101203,
            0
          ]
        }
      ],
      "guide": {
        "damageRatio": "QUEST_GUIDE_NPC",
        "param": [
          "201601"
        ],
        "guideScene": 3,
        "guideStyle": "QUEST_GUIDE_STYLE_TARGET",
        "guideLayer": "QUEST_GUIDE_LAYER_SCENE",
        "MLAHIFLGIGJ": ""
      },
      "guideHint": {
        "param1": ""
      },
      "isRewind": true,
      "versionBegin": "",
      "versionEnd": ""
    },
    {
      "subId": 101204,
      "mainId": 1012,
      "order": 4,
      "descTextMapHash": 2178085694,
      "finishCond": [
        {
          "damageRatio": "QUEST_CONTENT_COMPLETE_TALK",
          "param": [
            101204,
            0
          ]
        }
      ],
      "guide": {
        "damageRatio": "QUEST_GUIDE_NPC",
        "param": [
          "201501"
        ],
        "guideScene": 3,
        "guideStyle": "QUEST_GUIDE_STYLE_TARGET",
        "guideLayer": "QUEST_GUIDE_LAYER_SCENE",
        "MLAHIFLGIGJ": ""
      },
      "guideHint": {
        "param1": ""
      },
      "isRewind": true,
      "versionBegin": "",
      "versionEnd": ""
    },
    {
      "subId": 101205,
      "mainId": 1012,
      "order": 5,
      "descTextMapHash": 918555366,
      "finishCond": [
        {
          "damageRatio": "QUEST_CONTENT_COMPLETE_TALK",
          "param": [
            101205,
            0
          ]
        }
      ],
      "guide": {
        "damageRatio": "QUEST_GUIDE_NPC",
        "param": [
          "208301"
        ],
        "guideScene": 3,
        "guideStyle": "QUEST_GUIDE_STYLE_TARGET",
        "guideLayer": "QUEST_GUIDE_LAYER_SCENE",
        "MLAHIFLGIGJ": ""
      },
      "guideHint": {
        "param1": ""
      },
      "isRewind": true,
      "versionBegin": "",
      "versionEnd": ""
    },
    {
      "subId": 101206,
      "mainId": 1012,
      "order": 7,
      "descTextMapHash": 3207253742,
      "finishCond": [
        {
          "damageRatio": "QUEST_CONTENT_LUA_NOTIFY",
          "param": [
            0,
            0
          ],
          "count": 1
        }
      ],
      "guide": {
        "damageRatio": "QUEST_GUIDE_LOCATION",
        "param": [
          "Q1012Bucket"
        ],
        "guideScene": 3,
        "guideStyle": "QUEST_GUIDE_STYLE_TARGET",
        "guideLayer": "QUEST_GUIDE_LAYER_SCENE",
        "MLAHIFLGIGJ": ""
      },
      "guideHint": {
        "param1": ""
      },
      "isRewind": true,
      "versionBegin": "",
      "versionEnd": ""
    },
    {
      "subId": 101207,
      "mainId": 1012,
      "order": 11,
      "descTextMapHash": 440999366,
      "showType": "QUEST_HIDDEN",
      "finishCond": [
        {
          "damageRatio": "QUEST_CONTENT_OBTAIN_ITEM",
          "param": [
            100491,
            0
          ]
        }
      ],
      "guide": {
        "MLAHIFLGIGJ": ""
      },
      "guideHint": {
        "param1": ""
      },
      "finishExec": [
        {
          "damageRatio": "QUEST_EXEC_ADD_QUEST_PROGRESS",
          "param": [
            "10121001",
            "1"
          ]
        }
      ],
      "versionBegin": "",
      "versionEnd": ""
    },
    {
      "subId": 101208,
      "mainId": 1012,
      "order": 12,
      "descTextMapHash": 2150692022,
      "showType": "QUEST_HIDDEN",
      "finishCond": [
        {
          "damageRatio": "QUEST_CONTENT_OBTAIN_ITEM",
          "param": [
            100492,
            0
          ]
        }
      ],
      "guide": {
        "MLAHIFLGIGJ": ""
      },
      "guideHint": {
        "param1": ""
      },
      "finishExec": [
        {
          "damageRatio": "QUEST_EXEC_ADD_QUEST_PROGRESS",
          "param": [
            "10121001",
            "1"
          ]
        }
      ],
      "versionBegin": "",
      "versionEnd": ""
    },
    {
      "subId": 101209,
      "mainId": 1012,
      "order": 15,
      "descTextMapHash": 1118582718,
      "finishCond": [
        {
          "damageRatio": "QUEST_CONTENT_COMPLETE_TALK",
          "param": [
            101208,
            0
          ]
        }
      ],
      "guide": {
        "damageRatio": "QUEST_GUIDE_NPC",
        "param": [
          "10232"
        ],
        "guideScene": 3,
        "guideStyle": "QUEST_GUIDE_STYLE_TARGET",
        "guideLayer": "QUEST_GUIDE_LAYER_SCENE",
        "MLAHIFLGIGJ": ""
      },
      "guideHint": {
        "param1": ""
      },
      "finishParent": true,
      "isRewind": true,
      "finishExec": [
        {
          "damageRatio": "QUEST_EXEC_DEL_PACK_ITEM_BATCH",
          "param": [
            "100497:999,100498:999,100499:999"
          ]
        },
        {
          "damageRatio": "QUEST_EXEC_REFRESH_GROUP_SUITE",
          "param": [
            "3",
            "133107095,1"
          ]
        }
      ],
      "versionBegin": "",
      "versionEnd": ""
    },
    {
      "subId": 101210,
      "mainId": 1012,
      "order": 9,
      "subIdSet": 1,
      "isMpBlock": true,
      "descTextMapHash": 3162982934,
      "finishCond": [
        {
          "damageRatio": "QUEST_CONTENT_ADD_QUEST_PROGRESS",
          "param": [
            10121001,
            0
          ],
          "count": 3
        }
      ],
      "guide": {
        "damageRatio": "QUEST_GUIDE_LOCATION",
        "param": [
          "Q101206Point01"
        ],
        "guideScene": 3,
        "guideStyle": "QUEST_GUIDE_STYLE_TARGET",
        "guideLayer": "QUEST_GUIDE_LAYER_UI",
        "MLAHIFLGIGJ": ""
      },
      "guideHint": {
        "param1": ""
      },
      "isRewind": true,
      "finishExec": [
        {
          "damageRatio": "QUEST_EXEC_ADD_QUEST_PROGRESS",
          "param": [
            "10120101",
            "1"
          ]
        }
      ],
      "versionBegin": "",
      "versionEnd": ""
    },
    {
      "subId": 101211,
      "mainId": 1012,
      "order": 10,
      "descTextMapHash": 284919390,
      "showType": "QUEST_HIDDEN",
      "finishCond": [
        {
          "damageRatio": "QUEST_CONTENT_OBTAIN_ITEM",
          "param": [
            100490,
            0
          ]
        }
      ],
      "guide": {
        "MLAHIFLGIGJ": ""
      },
      "guideHint": {
        "param1": ""
      },
      "finishExec": [
        {
          "damageRatio": "QUEST_EXEC_ADD_QUEST_PROGRESS",
          "param": [
            "10121001",
            "1"
          ]
        }
      ],
      "versionBegin": "",
      "versionEnd": ""
    },
    {
      "subId": 101212,
      "mainId": 1012,
      "order": 2,
      "descTextMapHash": 2175598750,
      "showType": "QUEST_HIDDEN",
      "finishCond": [
        {
          "damageRatio": "QUEST_CONTENT_COMPLETE_TALK",
          "param": [
            101206,
            0
          ]
        }
      ],
      "guide": {
        "damageRatio": "QUEST_GUIDE_NPC",
        "param": [
          "201301"
        ],
        "guideScene": 3,
        "guideStyle": "QUEST_GUIDE_STYLE_TARGET",
        "guideLayer": "QUEST_GUIDE_LAYER_SCENE",
        "MLAHIFLGIGJ": ""
      },
      "guideHint": {
        "param1": ""
      },
      "versionBegin": "",
      "versionEnd": ""
    },
    {
      "subId": 101213,
      "mainId": 1012,
      "order": 6,
      "descTextMapHash": 4215925614,
      "finishCond": [
        {
          "damageRatio": "QUEST_CONTENT_COMPLETE_TALK",
          "param": [
            101211,
            0
          ]
        }
      ],
      "guide": {
        "damageRatio": "QUEST_GUIDE_NPC",
        "param": [
          "208301"
        ],
        "guideScene": 3,
        "guideStyle": "QUEST_GUIDE_STYLE_TARGET",
        "guideLayer": "QUEST_GUIDE_LAYER_SCENE",
        "MLAHIFLGIGJ": ""
      },
      "guideHint": {
        "param1": ""
      },
      "isRewind": true,
      "versionBegin": "",
      "versionEnd": ""
    },
    {
      "subId": 101214,
      "mainId": 1012,
      "order": 8,
      "descTextMapHash": 2293379342,
      "finishCond": [
        {
          "damageRatio": "QUEST_CONTENT_COMPLETE_TALK",
          "param": [
            101212,
            0
          ]
        }
      ],
      "guide": {
        "damageRatio": "QUEST_GUIDE_NPC",
        "param": [
          "208301"
        ],
        "guideScene": 3,
        "guideStyle": "QUEST_GUIDE_STYLE_TARGET",
        "guideLayer": "QUEST_GUIDE_LAYER_SCENE",
        "MLAHIFLGIGJ": ""
      },
      "guideHint": {
        "param1": ""
      },
      "isRewind": true,
      "versionBegin": "",
      "versionEnd": ""
    },
    {
      "subId": 101215,
      "mainId": 1012,
      "order": 14,
      "descTextMapHash": 2214313726,
      "finishCond": [
        {
          "damageRatio": "QUEST_CONTENT_COMPLETE_TALK",
          "param": [
            101213,
            0
          ]
        }
      ],
      "guide": {
        "damageRatio": "QUEST_GUIDE_NPC",
        "param": [
          "208301"
        ],
        "guideScene": 3,
        "guideStyle": "QUEST_GUIDE_STYLE_TARGET",
        "guideLayer": "QUEST_GUIDE_LAYER_SCENE",
        "MLAHIFLGIGJ": ""
      },
      "guideHint": {
        "param1": ""
      },
      "isRewind": true,
      "finishExec": [
        {
          "damageRatio": "QUEST_EXEC_DEL_PACK_ITEM_BATCH",
          "param": [
            "100490:999,100491:999,100492:999"
          ]
        }
      ],
      "versionBegin": "",
      "versionEnd": ""
    }
  ],
  "talks": [
    {
      "id": 101202,
      "beginWay": "TALK_BEGIN_MANUAL",
      "beginCond": [
        {
          "type": "QUEST_COND_STATE_EQUAL",
          "_param": [
            "101202",
            "2"
          ]
        }
      ],
      "priority": 6,
      "nextTalks": [
        101206
      ],
      "initDialog": 10120201,
      "npcId": [
        201301
      ],
      "performCfg": "QuestDialogue/AQ/Liyue1_1012/Q101202",
      "questId": 1012,
      "assetIndex": 17041940691074245174,
      "prePerformCfg": ""
    },
    {
      "id": 101203,
      "beginWay": "TALK_BEGIN_MANUAL",
      "beginCond": [
        {
          "type": "QUEST_COND_STATE_EQUAL",
          "_param": [
            "101203",
            "2"
          ]
        }
      ],
      "priority": 6,
      "initDialog": 10120301,
      "npcId": [
        201601
      ],
      "performCfg": "QuestDialogue/AQ/Liyue1_1012/Q101203",
      "questId": 1012,
      "assetIndex": 14150916024209879508,
      "prePerformCfg": ""
    },
    {
      "id": 101204,
      "beginWay": "TALK_BEGIN_MANUAL",
      "beginCond": [
        {
          "type": "QUEST_COND_STATE_EQUAL",
          "_param": [
            "101204",
            "2"
          ]
        }
      ],
      "priority": 6,
      "initDialog": 10120401,
      "npcId": [
        201501
      ],
      "performCfg": "QuestDialogue/AQ/Liyue1_1012/Q101204",
      "questId": 1012,
      "assetIndex": 2537960564084654914,
      "prePerformCfg": ""
    },
    {
      "id": 101205,
      "beginWay": "TALK_BEGIN_MANUAL",
      "beginCond": [
        {
          "type": "QUEST_COND_STATE_EQUAL",
          "_param": [
            "101205",
            "2"
          ]
        }
      ],
      "priority": 6,
      "initDialog": 10120501,
      "npcId": [
        208301
      ],
      "performCfg": "QuestDialogue/AQ/Liyue1_1012/Q101205",
      "questId": 1012,
      "assetIndex": 18026090246548980032,
      "prePerformCfg": ""
    },
    {
      "id": 101206,
      "priority": 6,
      "initDialog": 10120601,
      "npcId": [
        10232
      ],
      "performCfg": "QuestDialogue/AQ/Liyue1_1012/Q101206",
      "questId": 1012,
      "assetIndex": 8804697365661977591,
      "prePerformCfg": ""
    },
    {
      "id": 101208,
      "beginWay": "TALK_BEGIN_MANUAL",
      "beginCond": [
        {
          "type": "QUEST_COND_STATE_EQUAL",
          "_param": [
            "101209",
            "2"
          ]
        }
      ],
      "priority": 6,
      "initDialog": 10120801,
      "npcId": [
        10232
      ],
      "performCfg": "QuestDialogue/AQ/Liyue1_1012/Q101208",
      "questId": 1012,
      "assetIndex": 3360318294334823109,
      "prePerformCfg": ""
    },
    {
      "id": 101209,
      "beginWay": "TALK_BEGIN_MANUAL",
      "beginCond": [
        {
          "type": "QUEST_COND_STATE_EQUAL",
          "_param": [
            "99902",
            "2"
          ]
        }
      ],
      "priority": 6,
      "initDialog": 10120901,
      "npcId": [
        1206
      ],
      "performCfg": "",
      "questId": 1012,
      "assetIndex": 5684655354979873886,
      "prePerformCfg": ""
    },
    {
      "id": 101211,
      "beginWay": "TALK_BEGIN_MANUAL",
      "beginCond": [
        {
          "type": "QUEST_COND_STATE_EQUAL",
          "_param": [
            "101213",
            "2"
          ]
        }
      ],
      "priority": 6,
      "initDialog": 10121101,
      "npcId": [
        208301
      ],
      "performCfg": "QuestDialogue/AQ/Liyue1_1012/Q101211",
      "questId": 1012,
      "assetIndex": 4900576433413872617,
      "prePerformCfg": ""
    },
    {
      "id": 101212,
      "beginWay": "TALK_BEGIN_MANUAL",
      "beginCond": [
        {
          "type": "QUEST_COND_STATE_EQUAL",
          "_param": [
            "101214",
            "2"
          ]
        }
      ],
      "priority": 6,
      "initDialog": 10121201,
      "npcId": [
        208301
      ],
      "performCfg": "QuestDialogue/AQ/Liyue1_1012/Q101212",
      "questId": 1012,
      "assetIndex": 15701376146010505850,
      "prePerformCfg": ""
    },
    {
      "id": 101213,
      "beginWay": "TALK_BEGIN_MANUAL",
      "beginCond": [
        {
          "type": "QUEST_COND_STATE_EQUAL",
          "_param": [
            "101215",
            "2"
          ]
        }
      ],
      "priority": 6,
      "initDialog": 10121301,
      "npcId": [
        208301
      ],
      "performCfg": "QuestDialogue/AQ/Liyue1_1012/Q101213",
      "questId": 1012,
      "assetIndex": 8311314776117973607,
      "prePerformCfg": ""
    },
    {
      "id": 101214,
      "beginWay": "TALK_BEGIN_MANUAL",
      "beginCond": [
        {
          "type": "QUEST_COND_STATE_EQUAL",
          "_param": [
            "101202",
            "3"
          ]
        }
      ],
      "priority": 5,
      "initDialog": 10121401,
      "npcId": [
        201301
      ],
      "performCfg": "QuestDialogue/AQ/Liyue1_1012/Q101214",
      "questId": 1012,
      "assetIndex": 5744832571240772668,
      "prePerformCfg": ""
    },
    {
      "id": 101215,
      "beginWay": "TALK_BEGIN_MANUAL",
      "beginCond": [
        {
          "type": "QUEST_COND_STATE_EQUAL",
          "_param": [
            "101203",
            "3"
          ]
        }
      ],
      "priority": 5,
      "initDialog": 10121501,
      "npcId": [
        201601
      ],
      "performCfg": "QuestDialogue/AQ/Liyue1_1012/Q101215",
      "questId": 1012,
      "assetIndex": 10140670438892979399,
      "prePerformCfg": ""
    },
    {
      "id": 101216,
      "beginWay": "TALK_BEGIN_MANUAL",
      "beginCond": [
        {
          "type": "QUEST_COND_STATE_EQUAL",
          "_param": [
            "101204",
            "3"
          ]
        }
      ],
      "priority": 5,
      "initDialog": 10121601,
      "npcId": [
        201501
      ],
      "performCfg": "QuestDialogue/AQ/Liyue1_1012/Q101216",
      "questId": 1012,
      "assetIndex": 5461992381677114433,
      "prePerformCfg": ""
    },
    {
      "id": 101218,
      "beginWay": "TALK_BEGIN_MANUAL",
      "beginCond": [
        {
          "type": "QUEST_COND_STATE_EQUAL",
          "_param": [
            "101210",
            "2"
          ]
        }
      ],
      "priority": 5,
      "initDialog": 10121801,
      "npcId": [
        208301
      ],
      "performCfg": "QuestDialogue/AQ/Liyue1_1012/Q101218",
      "questId": 1012,
      "assetIndex": 13624497752280119388,
      "prePerformCfg": ""
    },
    {
      "id": 101219,
      "beginWay": "TALK_BEGIN_MANUAL",
      "beginCond": [
        {
          "type": "QUEST_COND_STATE_EQUAL",
          "_param": [
            "101206",
            "2"
          ]
        }
      ],
      "priority": 5,
      "initDialog": 10121901,
      "npcId": [
        208301
      ],
      "performCfg": "QuestDialogue/AQ/Liyue1_1012/Q101219",
      "questId": 1012,
      "assetIndex": 14383274922613266606,
      "prePerformCfg": ""
    }
  ],
  "preloadLuaList": [
    14457059026087496718
  ]
}