{
  "id": 1014,
  "resId": 1005,
  "series": 1101,
  "descTextMapHash": 2414407745,
  "EKEKACCODOE": 1874674503,
  "luaPath": "Actor/Quest/MQ1014",
  "suggestTrackMainQuestList": [
    1013
  ],
  "rewardIdList": [
    101014
  ],
  "chapterId": 1102,
  "subQuests": [
    {
      "subId": 101401,
      "mainId": 1014,
      "order": 1,
      "descTextMapHash": 3851701478,
      "finishCond": [
        {
          "damageRatio": "QUEST_CONTENT_COMPLETE_TALK",
          "param": [
            101401,
            0
          ]
        }
      ],
      "guide": {
        "damageRatio": "QUEST_GUIDE_NPC",
        "param": [
          "209301"
        ],
        "guideScene": 3,
        "guideStyle": "QUEST_GUIDE_STYLE_TARGET",
        "guideLayer": "QUEST_GUIDE_LAYER_SCENE",
        "MLAHIFLGIGJ": ""
      },
      "guideHint": {
        "param1": ""
      },
      "isRewind": true,
      "finishExec": [
        {
          "damageRatio": "QUEST_EXEC_REFRESH_GROUP_SUITE",
          "param": [
            "3",
            "133107094,1"
          ]
        }
      ],
      "versionBegin": "",
      "versionEnd": ""
    },
    {
      "subId": 101402,
      "mainId": 1014,
      "order": 3,
      "isMpBlock": true,
      "descTextMapHash": 1113244550,
      "finishCond": [
        {
          "damageRatio": "QUEST_CONTENT_ENTER_DUNGEON",
          "param": [
            11,
            175
          ]
        }
      ],
      "failCond": [
        {
          "damageRatio": "QUEST_CONTENT_FAIL_DUNGEON",
          "param": [
            11,
            0
          ]
        }
      ],
      "guide": {
        "MLAHIFLGIGJ": ""
      },
      "guideHint": {
        "param1": ""
      },
      "isRewind": true,
      "failExec": [
        {
          "damageRatio": "QUEST_EXEC_ROLLBACK_QUEST",
          "param": [
            "101406"
          ]
        }
      ],
      "versionBegin": "",
      "versionEnd": ""
    },
    {
      "subId": 101403,
      "mainId": 1014,
      "order": 6,
      "descTextMapHash": 610283270,
      "finishCond": [
        {
          "damageRatio": "QUEST_CONTENT_COMPLETE_TALK",
          "param": [
            101403,
            0
          ]
        }
      ],
      "guide": {
        "damageRatio": "QUEST_GUIDE_NPC",
        "param": [
          "209301"
        ],
        "guideScene": 3,
        "guideStyle": "QUEST_GUIDE_STYLE_TARGET",
        "guideLayer": "QUEST_GUIDE_LAYER_SCENE",
        "MLAHIFLGIGJ": ""
      },
      "guideHint": {
        "param1": ""
      },
      "isRewind": true,
      "finishExec": [
        {
          "damageRatio": "QUEST_EXEC_LOCK_POINT",
          "param": [
            "3",
            "175"
          ]
        },
        {
          "damageRatio": "QUEST_EXEC_REFRESH_GROUP_SUITE",
          "param": [
            "3",
            "133107094,1"
          ]
        }
      ],
      "versionBegin": "",
      "versionEnd": ""
    },
    {
      "subId": 101404,
      "mainId": 1014,
      "order": 7,
      "isMpBlock": true,
      "descTextMapHash": 3041324158,
      "finishCond": [
        {
          "damageRatio": "QUEST_CONTENT_FINISH_PLOT",
          "param": [
            101404,
            0
          ]
        }
      ],
      "guide": {
        "damageRatio": "QUEST_GUIDE_NPC",
        "param": [
          "10232"
        ],
        "guideScene": 3,
        "guideStyle": "QUEST_GUIDE_STYLE_TARGET",
        "guideLayer": "QUEST_GUIDE_LAYER_SCENE",
        "MLAHIFLGIGJ": ""
      },
      "guideHint": {
        "param1": ""
      },
      "isRewind": true,
      "finishExec": [
        {
          "damageRatio": "QUEST_EXEC_NOTIFY_GROUP_LUA",
          "param": [
            "3",
            "133107089"
          ]
        }
      ],
      "versionBegin": "",
      "versionEnd": ""
    },
    {
      "subId": 101405,
      "mainId": 1014,
      "order": 4,
      "isMpBlock": true,
      "descTextMapHash": 1256087934,
      "showType": "QUEST_HIDDEN",
      "finishCond": [
        {
          "damageRatio": "QUEST_CONTENT_INTERACT_GADGET",
          "param": [
            71700099,
            0
          ]
        }
      ],
      "failCond": [
        {
          "damageRatio": "QUEST_CONTENT_FAIL_DUNGEON",
          "param": [
            11,
            0
          ]
        }
      ],
      "guide": {
        "MLAHIFLGIGJ": ""
      },
      "guideHint": {
        "param1": ""
      },
      "isRewind": true,
      "finishExec": [
        {
          "damageRatio": "QUEST_EXEC_NOTIFY_GROUP_LUA",
          "param": [
            "1017",
            "201017016"
          ]
        }
      ],
      "failExec": [
        {
          "damageRatio": "QUEST_EXEC_ROLLBACK_QUEST",
          "param": [
            "101406"
          ]
        }
      ],
      "versionBegin": "",
      "versionEnd": ""
    },
    {
      "subId": 101406,
      "mainId": 1014,
      "order": 2,
      "isMpBlock": true,
      "descTextMapHash": 2228815254,
      "finishCond": [
        {
          "damageRatio": "QUEST_CONTENT_COMPLETE_TALK",
          "param": [
            101406,
            0
          ]
        }
      ],
      "guide": {
        "damageRatio": "QUEST_GUIDE_LOCATION",
        "param": [
          "Q101402Pot"
        ],
        "guideScene": 3,
        "guideStyle": "QUEST_GUIDE_STYLE_TARGET",
        "guideLayer": "QUEST_GUIDE_LAYER_SCENE",
        "MLAHIFLGIGJ": ""
      },
      "guideHint": {
        "param1": ""
      },
      "isRewind": true,
      "finishExec": [
        {
          "damageRatio": "QUEST_EXEC_DEL_PACK_ITEM",
          "param": [
            "100501",
            "1"
          ]
        }
      ],
      "versionBegin": "",
      "versionEnd": ""
    },
    {
      "subId": 101407,
      "mainId": 1014,
      "order": 8,
      "isMpBlock": true,
      "descTextMapHash": 1926297478,
      "showType": "QUEST_HIDDEN",
      "finishCond": [
        {
          "damageRatio": "QUEST_CONTENT_COMPLETE_TALK",
          "param": [
            101404,
            0
          ]
        }
      ],
      "guide": {
        "damageRatio": "QUEST_GUIDE_NPC",
        "param": [
          "10232"
        ],
        "guideScene": 3,
        "guideStyle": "QUEST_GUIDE_STYLE_TARGET",
        "guideLayer": "QUEST_GUIDE_LAYER_SCENE",
        "MLAHIFLGIGJ": ""
      },
      "guideHint": {
        "param1": ""
      },
      "finishParent": true,
      "finishExec": [
        {
          "damageRatio": "QUEST_EXEC_DEL_PACK_ITEM",
          "param": [
            "100501",
            "1"
          ]
        }
      ],
      "versionBegin": "",
      "versionEnd": ""
    },
    {
      "subId": 101408,
      "mainId": 1014,
      "order": 5,
      "isMpBlock": true,
      "descTextMapHash": 3673603918,
      "showType": "QUEST_HIDDEN",
      "finishCond": [
        {
          "damageRatio": "QUEST_CONTENT_LUA_NOTIFY",
          "param": [
            0,
            0
          ]
        }
      ],
      "failCond": [
        {
          "damageRatio": "QUEST_CONTENT_FAIL_DUNGEON",
          "param": [
            11,
            0
          ]
        }
      ],
      "guide": {
        "MLAHIFLGIGJ": ""
      },
      "guideHint": {
        "param1": ""
      },
      "isRewind": true,
      "failExec": [
        {
          "damageRatio": "QUEST_EXEC_ROLLBACK_QUEST",
          "param": [
            "101406"
          ]
        }
      ],
      "versionBegin": "",
      "versionEnd": ""
    }
  ],
  "talks": [
    {
      "id": 101401,
      "beginWay": "TALK_BEGIN_MANUAL",
      "beginCond": [
        {
          "type": "QUEST_COND_STATE_EQUAL",
          "_param": [
            "101401",
            "2"
          ]
        }
      ],
      "priority": 6,
      "initDialog": 10140101,
      "npcId": [
        209301
      ],
      "performCfg": "QuestDialogue/AQ/Liyue1_1014/Q101401",
      "questId": 1014,
      "assetIndex": 18409296240648926093,
      "prePerformCfg": ""
    },
    {
      "id": 101402,
      "beginWay": "TALK_BEGIN_MANUAL",
      "beginCond": [
        {
          "type": "QUEST_COND_STATE_EQUAL",
          "_param": [
            "101406",
            "2"
          ]
        }
      ],
      "priority": 6,
      "initDialog": 10140201,
      "npcId": [
        209301
      ],
      "performCfg": "",
      "heroTalk": "TALK_HERO_MAIN",
      "questId": 1014,
      "assetIndex": 5398072988522876282,
      "prePerformCfg": ""
    },
    {
      "id": 101403,
      "beginWay": "TALK_BEGIN_AUTO",
      "beginCond": [
        {
          "type": "QUEST_COND_STATE_EQUAL",
          "_param": [
            "101403",
            "2"
          ]
        }
      ],
      "priority": 6,
      "initDialog": 10140301,
      "npcId": [
        209301
      ],
      "performCfg": "QuestDialogue/AQ/Liyue1_1014/Q101403",
      "questId": 1014,
      "assetIndex": 8538163139866916590,
      "prePerformCfg": ""
    },
    {
      "id": 101404,
      "beginWay": "TALK_BEGIN_MANUAL",
      "beginCond": [
        {
          "type": "QUEST_COND_STATE_EQUAL",
          "_param": [
            "101404",
            "2"
          ]
        }
      ],
      "priority": 6,
      "initDialog": 10140401,
      "npcId": [
        10232
      ],
      "performCfg": "QuestDialogue/AQ/Liyue1_1014/Q101404",
      "questId": 1014,
      "assetIndex": 11960521839387338110,
      "prePerformCfg": ""
    },
    {
      "id": 101406,
      "beginWay": "TALK_BEGIN_MANUAL",
      "beginCond": [
        {
          "type": "QUEST_COND_STATE_EQUAL",
          "_param": [
            "101406",
            "2"
          ]
        }
      ],
      "priority": 6,
      "initDialog": 10140601,
      "npcId": [
        10245
      ],
      "performCfg": "QuestDialogue/AQ/Liyue1_1014/Q101406",
      "questId": 1014,
      "assetIndex": 1700476303792436026,
      "prePerformCfg": ""
    },
    {
      "id": 101410,
      "beginWay": "TALK_BEGIN_MANUAL",
      "beginCond": [
        {
          "type": "QUEST_COND_STATE_EQUAL",
          "_param": [
            "101404",
            "2"
          ]
        }
      ],
      "priority": 6,
      "initDialog": 10141001,
      "npcId": [
        209301
      ],
      "performCfg": "",
      "heroTalk": "TALK_HERO_MAIN",
      "questId": 1014,
      "assetIndex": 11607440856396248179,
      "prePerformCfg": ""
    }
  ],
  "preloadLuaList": [
    14457059026087496718
  ]
}