{
  "id": 1031,
  "resId": 1014,
  "series": 1207,
  "descTextMapHash": 1491105359,
  "EKEKACCODOE": 2279272270,
  "luaPath": "Actor/Quest/AQ1031",
  "rewardIdList": [
    101031
  ],
  "chapterId": 1207,
  "subQuests": [
    {
      "subId": 103101,
      "mainId": 1031,
      "order": 1,
      "descTextMapHash": 4109162108,
      "finishCond": [
        {
          "damageRatio": "QUEST_CONTENT_COMPLETE_TALK",
          "param": [
            103101,
            0
          ]
        }
      ],
      "guide": {
        "damageRatio": "QUEST_GUIDE_NPC",
        "param": [
          "1048"
        ],
        "guideScene": 20130,
        "guideStyle": "QUEST_GUIDE_STYLE_TARGET",
        "guideLayer": "QUEST_GUIDE_LAYER_SCENE",
        "MLAHIFLGIGJ": ""
      },
      "guideHint": {
        "param1": ""
      },
      "isRewind": true,
      "versionBegin": "",
      "versionEnd": ""
    },
    {
      "subId": 103102,
      "mainId": 1031,
      "order": 2,
      "descTextMapHash": 1971786004,
      "finishCond": [
        {
          "damageRatio": "QUEST_CONTENT_COMPLETE_TALK",
          "param": [
            103102,
            0
          ]
        }
      ],
      "guide": {
        "damageRatio": "QUEST_GUIDE_NPC",
        "param": [
          "1049"
        ],
        "guideScene": 20130,
        "guideStyle": "QUEST_GUIDE_STYLE_TARGET",
        "guideLayer": "QUEST_GUIDE_LAYER_SCENE",
        "MLAHIFLGIGJ": ""
      },
      "guideHint": {
        "param1": ""
      },
      "isRewind": true,
      "finishExec": [
        {
          "damageRatio": "QUEST_EXEC_REFRESH_GROUP_SUITE",
          "param": [
            "20130",
            "220130010,1"
          ]
        }
      ],
      "versionBegin": "",
      "versionEnd": ""
    },
    {
      "subId": 103103,
      "mainId": 1031,
      "order": 4,
      "descTextMapHash": 841092860,
      "showType": "QUEST_HIDDEN",
      "finishCond": [
        {
          "damageRatio": "QUEST_CONTENT_FINISH_PLOT",
          "param": [
            103103,
            0
          ]
        }
      ],
      "guide": {
        "guideScene": 3,
        "guideStyle": "QUEST_GUIDE_STYLE_POINT",
        "guideLayer": "QUEST_GUIDE_LAYER_SCENE",
        "MLAHIFLGIGJ": ""
      },
      "showGuide": "QUEST_GUIDE_ITEM_DISABLE",
      "guideHint": {
        "param1": ""
      },
      "finishExec": [
        {
          "damageRatio": "QUEST_EXEC_DEL_SCENE_TAG",
          "param": [
            "6",
            "151"
          ]
        },
        {
          "damageRatio": "QUEST_EXEC_ADD_SCENE_TAG",
          "param": [
            "6",
            "146"
          ]
        },
        {
          "damageRatio": "QUEST_EXEC_LOCK_POINT",
          "param": [
            "6",
            "19"
          ]
        },
        {
          "damageRatio": "QUEST_EXEC_SET_GAME_TIME",
          "param": [
            "14"
          ]
        },
        {
          "damageRatio": "QUEST_EXEC_LOCK_POINT",
          "param": [
            "6",
            "20"
          ]
        }
      ],
      "versionBegin": "",
      "versionEnd": ""
    },
    {
      "subId": 103104,
      "mainId": 1031,
      "order": 5,
      "descTextMapHash": 1088778732,
      "finishCond": [
        {
          "damageRatio": "QUEST_CONTENT_COMPLETE_TALK",
          "param": [
            103104,
            0
          ]
        }
      ],
      "guide": {
        "damageRatio": "QUEST_GUIDE_NPC",
        "param": [
          "10204"
        ],
        "guideScene": 3,
        "guideStyle": "QUEST_GUIDE_STYLE_TARGET",
        "guideLayer": "QUEST_GUIDE_LAYER_SCENE",
        "MLAHIFLGIGJ": ""
      },
      "guideHint": {
        "param1": ""
      },
      "isRewind": true,
      "versionBegin": "",
      "versionEnd": ""
    },
    {
      "subId": 103105,
      "mainId": 1031,
      "order": 7,
      "descTextMapHash": 1803275228,
      "finishCond": [
        {
          "damageRatio": "QUEST_CONTENT_FINISH_PLOT",
          "param": [
            103105,
            0
          ]
        }
      ],
      "guide": {
        "damageRatio": "QUEST_GUIDE_LOCATION",
        "param": [
          "Q103106_N10204"
        ],
        "guideScene": 3,
        "guideStyle": "QUEST_GUIDE_STYLE_POINT",
        "guideLayer": "QUEST_GUIDE_LAYER_SCENE",
        "MLAHIFLGIGJ": ""
      },
      "guideHint": {
        "param1": ""
      },
      "isRewind": true,
      "versionBegin": "",
      "versionEnd": ""
    },
    {
      "subId": 103106,
      "mainId": 1031,
      "order": 8,
      "descTextMapHash": 4006987604,
      "finishCond": [
        {
          "damageRatio": "QUEST_CONTENT_COMPLETE_TALK",
          "param": [
            103106,
            0
          ]
        }
      ],
      "guide": {
        "damageRatio": "QUEST_GUIDE_NPC",
        "param": [
          "10204"
        ],
        "guideScene": 3,
        "guideStyle": "QUEST_GUIDE_STYLE_TARGET",
        "guideLayer": "QUEST_GUIDE_LAYER_SCENE",
        "MLAHIFLGIGJ": ""
      },
      "guideHint": {
        "param1": ""
      },
      "finishParent": true,
      "finishExec": [
        {
          "damageRatio": "QUEST_EXEC_SET_QUEST_GLOBAL_VAR",
          "param": [
            "103106",
            "1"
          ]
        }
      ],
      "versionBegin": "",
      "versionEnd": ""
    },
    {
      "subId": 103107,
      "mainId": 1031,
      "order": 3,
      "descTextMapHash": 3938038588,
      "showType": "QUEST_HIDDEN",
      "finishCond": [
        {
          "damageRatio": "QUEST_CONTENT_FINISH_PLOT",
          "param": [
            103107,
            0
          ]
        }
      ],
      "guide": {
        "guideScene": 20130,
        "guideStyle": "QUEST_GUIDE_STYLE_TARGET",
        "guideLayer": "QUEST_GUIDE_LAYER_SCENE",
        "MLAHIFLGIGJ": ""
      },
      "showGuide": "QUEST_GUIDE_ITEM_DISABLE",
      "guideHint": {
        "param1": ""
      },
      "finishExec": [
        {
          "damageRatio": "QUEST_EXEC_NOTIFY_GROUP_LUA",
          "param": [
            "20130",
            "220130010"
          ]
        }
      ],
      "versionBegin": "",
      "versionEnd": ""
    },
    {
      "subId": 103108,
      "mainId": 1031,
      "order": 9,
      "descTextMapHash": 3568812516,
      "showType": "QUEST_HIDDEN",
      "finishCond": [
        {
          "damageRatio": "QUEST_CONTENT_FINISH_PLOT",
          "param": [
            103108,
            0
          ]
        }
      ],
      "guide": {
        "guideScene": 3,
        "guideStyle": "QUEST_GUIDE_STYLE_TARGET",
        "guideLayer": "QUEST_GUIDE_LAYER_SCENE",
        "MLAHIFLGIGJ": ""
      },
      "showGuide": "QUEST_GUIDE_ITEM_DISABLE",
      "guideHint": {
        "param1": ""
      },
      "finishExec": [
        {
          "damageRatio": "QUEST_EXEC_SET_GAME_TIME",
          "param": [
            "18"
          ]
        }
      ],
      "versionBegin": "",
      "versionEnd": ""
    },
    {
      "subId": 103109,
      "mainId": 1031,
      "order": 6,
      "descTextMapHash": 3002174636,
      "showType": "QUEST_HIDDEN",
      "finishCond": [
        {
          "damageRatio": "QUEST_CONTENT_FINISH_PLOT",
          "param": [
            103109,
            0
          ]
        }
      ],
      "guide": {
        "guideScene": 3,
        "guideStyle": "QUEST_GUIDE_STYLE_TARGET",
        "guideLayer": "QUEST_GUIDE_LAYER_SCENE",
        "MLAHIFLGIGJ": ""
      },
      "showGuide": "QUEST_GUIDE_ITEM_DISABLE",
      "guideHint": {
        "param1": ""
      },
      "finishExec": [
        {
          "damageRatio": "QUEST_EXEC_SET_GAME_TIME",
          "param": [
            "14"
          ]
        }
      ],
      "versionBegin": "",
      "versionEnd": ""
    }
  ],
  "talks": [
    {
      "id": 103101,
      "beginWay": "TALK_BEGIN_MANUAL",
      "beginCond": [
        {
          "type": "QUEST_COND_STATE_EQUAL",
          "_param": [
            "103101",
            "2"
          ]
        }
      ],
      "priority": 5,
      "initDialog": 10310101,
      "npcId": [
        1048
      ],
      "performCfg": "QuestDialogue/AQ/Liyue5_1031/Q103101",
      "heroTalk": "TALK_HERO_MAIN",
      "questId": 1031,
      "assetIndex": 14067841383723266500,
      "prePerformCfg": ""
    },
    {
      "id": 103102,
      "beginWay": "TALK_BEGIN_MANUAL",
      "beginCond": [
        {
          "type": "QUEST_COND_STATE_EQUAL",
          "_param": [
            "103102",
            "2"
          ]
        }
      ],
      "priority": 5,
      "initDialog": 10310201,
      "npcId": [
        1049
      ],
      "performCfg": "QuestDialogue/AQ/Liyue5_1031/Q103102",
      "heroTalk": "TALK_HERO_MAIN",
      "questId": 1031,
      "assetIndex": 5290916512494680397,
      "prePerformCfg": ""
    },
    {
      "id": 103104,
      "beginWay": "TALK_BEGIN_MANUAL",
      "beginCond": [
        {
          "type": "QUEST_COND_STATE_EQUAL",
          "_param": [
            "103104",
            "2"
          ]
        }
      ],
      "priority": 5,
      "initDialog": 10310401,
      "npcId": [
        10204
      ],
      "performCfg": "QuestDialogue/AQ/Liyue5_1031/Q103104",
      "heroTalk": "TALK_HERO_MAIN",
      "questId": 1031,
      "assetIndex": 2730215671024983413,
      "prePerformCfg": "",
      "lockGameTime": true
    },
    {
      "id": 103106,
      "beginWay": "TALK_BEGIN_MANUAL",
      "beginCond": [
        {
          "type": "QUEST_COND_STATE_EQUAL",
          "_param": [
            "103106",
            "2"
          ]
        }
      ],
      "priority": 5,
      "initDialog": 10310601,
      "npcId": [
        10204
      ],
      "performCfg": "QuestDialogue/AQ/Liyue5_1031/Q103106",
      "heroTalk": "TALK_HERO_MAIN",
      "questId": 1031,
      "assetIndex": 16501037854427439590,
      "prePerformCfg": "",
      "lockGameTime": true
    }
  ],
  "preloadLuaList": [
    4260837498736252372,
    15523191428510031143,
    1414248400548140996
  ],
  "forcePreloadLuaList": [
    16814296916861914889
  ],
  "freeStyleDic": {
    "1044": [
      4100
    ],
    "1049": [
      8010
    ]
  }
}