{
  "id": 11008,
  "resId": 5002,
  "KPGKDHAFHFE": "WQ",
  "mainQuestTag": "MAINQUEST_TAG_GUIDE",
  "titleTextMapHash": 3548989711,
  "descTextMapHash": 299730286,
  "luaPath": "Actor/Quest/WQ11008",
  "suggestTrackMainQuestList": [
    71654
  ],
  "rewardIdList": [
    111008
  ],
  "subQuests": [
    {
      "subId": 1100801,
      "mainId": 11008,
      "order": 1,
      "descTextMapHash": 2962733276,
      "finishCond": [
        {
          "KPGKDHAFHFE": "QUEST_CONTENT_COMPLETE_TALK",
          "param": [
            1100801,
            0
          ]
        }
      ],
      "guide": {
        "KPGKDHAFHFE": "QUEST_GUIDE_NPC",
        "param": [
          "2093"
        ],
        "guideScene": 3,
        "guideStyle": "QUEST_GUIDE_STYLE_TARGET",
        "guideLayer": "QUEST_GUIDE_LAYER_SCENE"
      },
      "guideHint": {
        "param1": ""
      },
      "isRewind": true,
      "versionBegin": "",
      "versionEnd": ""
    },
    {
      "subId": 1100802,
      "mainId": 11008,
      "order": 2,
      "descTextMapHash": 610372180,
      "finishCond": [
        {
          "KPGKDHAFHFE": "QUEST_CONTENT_COMPLETE_TALK",
          "param": [
            1100802,
            0
          ]
        }
      ],
      "guide": {
        "KPGKDHAFHFE": "QUEST_GUIDE_NPC",
        "param": [
          "10014"
        ],
        "guideScene": 3,
        "guideStyle": "QUEST_GUIDE_STYLE_TARGET",
        "guideLayer": "QUEST_GUIDE_LAYER_SCENE"
      },
      "guideHint": {
        "param1": ""
      },
      "isRewind": true,
      "versionBegin": "",
      "versionEnd": ""
    },
    {
      "subId": 1100803,
      "mainId": 11008,
      "order": 3,
      "descTextMapHash": 1048790636,
      "showType": "QUEST_HIDDEN",
      "finishCond": [
        {
          "KPGKDHAFHFE": "QUEST_CONTENT_COMPLETE_TALK",
          "param": [
            1100803,
            0
          ]
        }
      ],
      "guide": {
        "KPGKDHAFHFE": "QUEST_GUIDE_NPC",
        "param": [
          "1030"
        ],
        "guideScene": 3,
        "guideStyle": "QUEST_GUIDE_STYLE_TARGET",
        "guideLayer": "QUEST_GUIDE_LAYER_SCENE"
      },
      "guideHint": {
        "param1": ""
      },
      "isRewind": true,
      "versionBegin": "",
      "versionEnd": ""
    },
    {
      "subId": 1100804,
      "mainId": 11008,
      "order": 4,
      "descTextMapHash": 2867304620,
      "finishCond": [
        {
          "KPGKDHAFHFE": "QUEST_CONTENT_COMPLETE_TALK",
          "param": [
            1100804,
            0
          ]
        }
      ],
      "guide": {
        "KPGKDHAFHFE": "QUEST_GUIDE_NPC",
        "param": [
          "10015"
        ],
        "guideScene": 3,
        "guideStyle": "QUEST_GUIDE_STYLE_TARGET",
        "guideLayer": "QUEST_GUIDE_LAYER_SCENE"
      },
      "guideHint": {
        "param1": ""
      },
      "isRewind": true,
      "versionBegin": "",
      "versionEnd": ""
    },
    {
      "subId": 1100805,
      "mainId": 11008,
      "order": 5,
      "descTextMapHash": 2838276748,
      "finishCond": [
        {
          "KPGKDHAFHFE": "QUEST_CONTENT_COMPLETE_TALK",
          "param": [
            1100805,
            0
          ]
        }
      ],
      "guide": {
        "KPGKDHAFHFE": "QUEST_GUIDE_NPC",
        "param": [
          "10014"
        ],
        "guideScene": 3,
        "guideStyle": "QUEST_GUIDE_STYLE_TARGET",
        "guideLayer": "QUEST_GUIDE_LAYER_SCENE"
      },
      "guideHint": {
        "param1": ""
      },
      "isRewind": true,
      "versionBegin": "",
      "versionEnd": ""
    },
    {
      "subId": 1100806,
      "mainId": 11008,
      "order": 8,
      "descTextMapHash": 3692219468,
      "finishCond": [
        {
          "KPGKDHAFHFE": "QUEST_CONTENT_COMPLETE_TALK",
          "param": [
            1100806,
            0
          ]
        }
      ],
      "guide": {
        "KPGKDHAFHFE": "QUEST_GUIDE_NPC",
        "param": [
          "2054"
        ],
        "guideScene": 3,
        "guideStyle": "QUEST_GUIDE_STYLE_TARGET",
        "guideLayer": "QUEST_GUIDE_LAYER_SCENE"
      },
      "guideHint": {
        "param1": ""
      },
      "isRewind": true,
      "versionBegin": "",
      "versionEnd": ""
    },
    {
      "subId": 1100807,
      "mainId": 11008,
      "order": 13,
      "descTextMapHash": 865909548,
      "finishCond": [
        {
          "KPGKDHAFHFE": "QUEST_CONTENT_COMPLETE_TALK",
          "param": [
            1100807,
            0
          ]
        }
      ],
      "guide": {
        "KPGKDHAFHFE": "QUEST_GUIDE_NPC",
        "param": [
          "2020"
        ],
        "guideScene": 3,
        "guideStyle": "QUEST_GUIDE_STYLE_TARGET",
        "guideLayer": "QUEST_GUIDE_LAYER_SCENE"
      },
      "guideHint": {
        "param1": ""
      },
      "isRewind": true,
      "versionBegin": "",
      "versionEnd": ""
    },
    {
      "subId": 1100808,
      "mainId": 11008,
      "order": 11,
      "descTextMapHash": 2819392460,
      "showType": "QUEST_HIDDEN",
      "finishCond": [
        {
          "KPGKDHAFHFE": "QUEST_CONTENT_COMPLETE_TALK",
          "param": [
            1100815,
            0
          ]
        }
      ],
      "guide": {},
      "showGuide": "QUEST_GUIDE_ITEM_DISABLE",
      "guideHint": {
        "param1": ""
      },
      "finishExec": [
        {
          "KPGKDHAFHFE": "QUEST_EXEC_NOTIFY_GROUP_LUA",
          "param": [
            "3",
            "133107042"
          ]
        }
      ],
      "versionBegin": "",
      "versionEnd": ""
    },
    {
      "subId": 1100809,
      "mainId": 11008,
      "order": 14,
      "descTextMapHash": 2334891396,
      "GMKDJFPEFFF": [
        310703
      ],
      "finishCond": [
        {
          "KPGKDHAFHFE": "QUEST_CONTENT_COMPLETE_TALK",
          "param": [
            1100809,
            0
          ]
        }
      ],
      "guide": {
        "KPGKDHAFHFE": "QUEST_GUIDE_NPC",
        "param": [
          "10234"
        ],
        "guideScene": 3,
        "guideStyle": "QUEST_GUIDE_STYLE_TARGET",
        "guideLayer": "QUEST_GUIDE_LAYER_SCENE"
      },
      "guideHint": {
        "param1": ""
      },
      "isRewind": true,
      "versionBegin": "",
      "versionEnd": ""
    },
    {
      "subId": 1100810,
      "mainId": 11008,
      "order": 15,
      "descTextMapHash": 2641628124,
      "GMKDJFPEFFF": [
        310703
      ],
      "finishCond": [
        {
          "KPGKDHAFHFE": "QUEST_CONTENT_COMPLETE_TALK",
          "param": [
            1100810,
            0
          ]
        }
      ],
      "guide": {
        "KPGKDHAFHFE": "QUEST_GUIDE_NPC",
        "param": [
          "10014"
        ],
        "guideScene": 3,
        "guideStyle": "QUEST_GUIDE_STYLE_TARGET",
        "guideLayer": "QUEST_GUIDE_LAYER_SCENE"
      },
      "guideHint": {
        "param1": ""
      },
      "isRewind": true,
      "finishExec": [
        {
          "KPGKDHAFHFE": "QUEST_EXEC_DEL_ALL_SPECIFIC_PACK_ITEM",
          "param": [
            "100836,100837,100838,100839"
          ]
        }
      ],
      "versionBegin": "",
      "versionEnd": ""
    },
    {
      "subId": 1100811,
      "mainId": 11008,
      "order": 16,
      "descTextMapHash": 1250708364,
      "finishCond": [
        {
          "KPGKDHAFHFE": "QUEST_CONTENT_COMPLETE_TALK",
          "param": [
            1100811,
            0
          ]
        }
      ],
      "guide": {
        "KPGKDHAFHFE": "QUEST_GUIDE_NPC",
        "param": [
          "2093"
        ],
        "guideScene": 3,
        "guideStyle": "QUEST_GUIDE_STYLE_TARGET",
        "guideLayer": "QUEST_GUIDE_LAYER_SCENE"
      },
      "guideHint": {
        "param1": ""
      },
      "finishParent": true,
      "isRewind": true,
      "finishExec": [
        {
          "KPGKDHAFHFE": "QUEST_EXEC_DEL_ALL_SPECIFIC_PACK_ITEM",
          "param": [
            "100835"
          ]
        },
        {
          "KPGKDHAFHFE": "QUEST_EXEC_SET_QUEST_GLOBAL_VAR",
          "param": [
            "11008",
            "0"
          ]
        }
      ],
      "versionBegin": "",
      "versionEnd": ""
    },
    {
      "subId": 1100812,
      "mainId": 11008,
      "order": 7,
      "descTextMapHash": 215544364,
      "showType": "QUEST_HIDDEN",
      "finishCond": [
        {
          "KPGKDHAFHFE": "QUEST_CONTENT_COMPLETE_TALK",
          "param": [
            1100812,
            0
          ]
        }
      ],
      "guide": {},
      "guideHint": {
        "param1": ""
      },
      "versionBegin": "",
      "versionEnd": ""
    },
    {
      "subId": 1100813,
      "mainId": 11008,
      "order": 9,
      "descTextMapHash": 2506953892,
      "finishCond": [
        {
          "KPGKDHAFHFE": "QUEST_CONTENT_INTERACT_GADGET",
          "param": [
            70710359,
            0
          ],
          "count": 1
        }
      ],
      "guide": {
        "KPGKDHAFHFE": "QUEST_GUIDE_LOCATION",
        "param": [
          "Q1100813Target"
        ],
        "guideScene": 3,
        "guideStyle": "QUEST_GUIDE_STYLE_TARGET",
        "guideLayer": "QUEST_GUIDE_LAYER_SCENE"
      },
      "showGuide": "QUEST_GUIDE_ITEM_DISABLE",
      "guideHint": {
        "param1": ""
      },
      "isRewind": true,
      "versionBegin": "",
      "versionEnd": ""
    },
    {
      "subId": 1100814,
      "mainId": 11008,
      "order": 12,
      "descTextMapHash": 1105326948,
      "finishCond": [
        {
          "KPGKDHAFHFE": "QUEST_CONTENT_COMPLETE_TALK",
          "param": [
            1100814,
            0
          ]
        }
      ],
      "guide": {
        "KPGKDHAFHFE": "QUEST_GUIDE_NPC",
        "param": [
          "2054",
          "SELECT_NPC_NONE"
        ],
        "guideScene": 3,
        "guideStyle": "QUEST_GUIDE_STYLE_TARGET",
        "guideLayer": "QUEST_GUIDE_LAYER_SCENE"
      },
      "guideHint": {
        "param1": ""
      },
      "isRewind": true,
      "versionBegin": "",
      "versionEnd": ""
    },
    {
      "subId": 1100815,
      "mainId": 11008,
      "order": 10,
      "descTextMapHash": 1312574156,
      "showType": "QUEST_HIDDEN",
      "finishCond": [
        {
          "KPGKDHAFHFE": "QUEST_CONTENT_COMPLETE_TALK",
          "param": [
            1100815,
            0
          ]
        }
      ],
      "guide": {},
      "guideHint": {
        "param1": ""
      },
      "versionBegin": "",
      "versionEnd": ""
    },
    {
      "subId": 1100816,
      "mainId": 11008,
      "order": 6,
      "descTextMapHash": 180800132,
      "finishCond": [
        {
          "KPGKDHAFHFE": "QUEST_CONTENT_FINISH_PLOT",
          "param": [
            1100816,
            0
          ]
        }
      ],
      "guide": {
        "KPGKDHAFHFE": "QUEST_GUIDE_LOCATION",
        "param": [
          "Q1100812Yanfei"
        ],
        "guideScene": 3,
        "guideStyle": "QUEST_GUIDE_STYLE_POINT"
      },
      "guideHint": {
        "param1": ""
      },
      "isRewind": true,
      "versionBegin": "",
      "versionEnd": ""
    }
  ],
  "talks": [
    {
      "id": 1100801,
      "beginWay": "TALK_BEGIN_MANUAL",
      "beginCond": [
        {
          "type": "QUEST_COND_STATE_EQUAL",
          "_param": [
            "1100801",
            "2"
          ]
        }
      ],
      "priority": 5,
      "initDialog": 110080101,
      "npcId": [
        2093,
        1005,
        1030
      ],
      "performCfg": "QuestDialogue/WQ/Homeworld_1100801/Q1100801",
      "heroTalk": "TALK_HERO_MAIN",
      "questId": 11008,
      "assetIndex": 7742069957240068083,
      "prePerformCfg": ""
    },
    {
      "id": 1100802,
      "beginWay": "TALK_BEGIN_MANUAL",
      "beginCond": [
        {
          "type": "QUEST_COND_STATE_EQUAL",
          "_param": [
            "1100802",
            "2"
          ]
        }
      ],
      "priority": 5,
      "initDialog": 110080201,
      "npcId": [
        1030,
        10014,
        1005
      ],
      "performCfg": "QuestDialogue/WQ/Homeworld_1100801/Q1100802",
      "heroTalk": "TALK_HERO_MAIN",
      "questId": 11008,
      "assetIndex": 17107321927575447190,
      "prePerformCfg": ""
    },
    {
      "id": 1100804,
      "beginWay": "TALK_BEGIN_AUTO",
      "beginCond": [
        {
          "type": "QUEST_COND_STATE_EQUAL",
          "_param": [
            "1100804",
            "2"
          ]
        }
      ],
      "priority": 5,
      "initDialog": 110080401,
      "npcId": [
        10015,
        1030,
        1005
      ],
      "performCfg": "QuestDialogue/WQ/Homeworld_1100801/Q1100804",
      "heroTalk": "TALK_HERO_MAIN",
      "questId": 11008,
      "assetIndex": 15657520888262723327,
      "prePerformCfg": ""
    },
    {
      "id": 1100805,
      "beginWay": "TALK_BEGIN_MANUAL",
      "beginCond": [
        {
          "type": "QUEST_COND_STATE_EQUAL",
          "_param": [
            "1100805",
            "2"
          ]
        }
      ],
      "priority": 5,
      "initDialog": 110080501,
      "npcId": [
        10014,
        10015,
        1005,
        1030
      ],
      "performCfg": "QuestDialogue/WQ/Homeworld_1100801/Q1100805",
      "heroTalk": "TALK_HERO_MAIN",
      "questId": 11008,
      "assetIndex": 14839952634160620910,
      "prePerformCfg": ""
    },
    {
      "id": 1100806,
      "beginWay": "TALK_BEGIN_MANUAL",
      "beginCond": [
        {
          "type": "QUEST_COND_STATE_EQUAL",
          "_param": [
            "1100806",
            "2"
          ]
        }
      ],
      "priority": 5,
      "initDialog": 110080601,
      "npcId": [
        2054,
        1030
      ],
      "performCfg": "QuestDialogue/WQ/Homeworld_1100801/Q1100806",
      "heroTalk": "TALK_HERO_MAIN",
      "questId": 11008,
      "assetIndex": 17689494198379017167,
      "prePerformCfg": ""
    },
    {
      "id": 1100807,
      "beginWay": "TALK_BEGIN_MANUAL",
      "beginCond": [
        {
          "type": "QUEST_COND_STATE_EQUAL",
          "_param": [
            "1100807",
            "2"
          ]
        }
      ],
      "priority": 5,
      "initDialog": 110080701,
      "npcId": [
        2020,
        1030,
        1005
      ],
      "performCfg": "QuestDialogue/WQ/Homeworld_1100801/Q1100807",
      "heroTalk": "TALK_HERO_MAIN",
      "questId": 11008,
      "assetIndex": 2392754854331946273,
      "prePerformCfg": ""
    },
    {
      "id": 1100809,
      "beginWay": "TALK_BEGIN_MANUAL",
      "beginCond": [
        {
          "type": "QUEST_COND_STATE_EQUAL",
          "_param": [
            "1100809",
            "2"
          ]
        }
      ],
      "priority": 5,
      "initDialog": 110080901,
      "npcId": [
        10234,
        1030,
        1005
      ],
      "performCfg": "QuestDialogue/WQ/Homeworld_1100801/Q1100809",
      "heroTalk": "TALK_HERO_MAIN",
      "questId": 11008,
      "assetIndex": 13743786169792565909,
      "prePerformCfg": ""
    },
    {
      "id": 1100810,
      "beginWay": "TALK_BEGIN_MANUAL",
      "beginCond": [
        {
          "type": "QUEST_COND_STATE_EQUAL",
          "_param": [
            "1100810",
            "2"
          ]
        }
      ],
      "priority": 5,
      "initDialog": 110081001,
      "npcId": [
        10014,
        1030,
        10015,
        1005
      ],
      "performCfg": "QuestDialogue/WQ/Homeworld_1100801/Q1100810",
      "heroTalk": "TALK_HERO_MAIN",
      "questId": 11008,
      "assetIndex": 12334637466071022385,
      "prePerformCfg": ""
    },
    {
      "id": 1100811,
      "beginWay": "TALK_BEGIN_MANUAL",
      "beginCond": [
        {
          "type": "QUEST_COND_STATE_EQUAL",
          "_param": [
            "1100811",
            "2"
          ]
        }
      ],
      "priority": 5,
      "initDialog": 110081101,
      "npcId": [
        2093,
        1030,
        1005
      ],
      "performCfg": "QuestDialogue/WQ/Homeworld_1100801/Q1100811",
      "heroTalk": "TALK_HERO_MAIN",
      "questId": 11008,
      "assetIndex": 1959381246118209449,
      "prePerformCfg": ""
    },
    {
      "id": 1100812,
      "beginWay": "TALK_BEGIN_MANUAL",
      "beginCond": [
        {
          "type": "QUEST_COND_STATE_EQUAL",
          "_param": [
            "1100812",
            "2"
          ]
        }
      ],
      "priority": 5,
      "initDialog": 110081201,
      "npcId": [
        10015,
        1030,
        1005
      ],
      "performCfg": "QuestDialogue/WQ/Homeworld_1100801/Q1100812",
      "heroTalk": "TALK_HERO_MAIN",
      "questId": 11008,
      "assetIndex": 11298706236251035229,
      "prePerformCfg": ""
    },
    {
      "id": 1100814,
      "beginWay": "TALK_BEGIN_MANUAL",
      "beginCond": [
        {
          "type": "QUEST_COND_STATE_EQUAL",
          "_param": [
            "1100814",
            "2"
          ]
        }
      ],
      "priority": 5,
      "initDialog": 110081401,
      "npcId": [
        2054,
        1030,
        1005
      ],
      "performCfg": "QuestDialogue/WQ/Homeworld_1100801/Q1100814",
      "heroTalk": "TALK_HERO_MAIN",
      "questId": 11008,
      "assetIndex": 7824199685501455981,
      "prePerformCfg": ""
    },
    {
      "id": 1100815,
      "beginWay": "TALK_BEGIN_MANUAL",
      "beginCond": [
        {
          "type": "QUEST_COND_STATE_EQUAL",
          "_param": [
            "1100815",
            "2"
          ]
        }
      ],
      "priority": 5,
      "initDialog": 110081501,
      "npcId": [
        10015,
        1005,
        1030
      ],
      "performCfg": "QuestDialogue/WQ/Homeworld_1100801/Q1100815",
      "heroTalk": "TALK_HERO_MAIN",
      "questId": 11008,
      "assetIndex": 4662215094505533300,
      "prePerformCfg": ""
    },
    {
      "id": 1100851,
      "beginWay": "TALK_BEGIN_MANUAL",
      "beginCond": [
        {
          "type": "QUEST_COND_STATE_EQUAL",
          "_param": [
            "1100802",
            "2"
          ]
        }
      ],
      "priority": 5,
      "initDialog": 110080175,
      "npcId": [
        2093
      ],
      "performCfg": "QuestDialogue/WQ/Homeworld_1100801/Q1100851",
      "heroTalk": "TALK_HERO_MAIN",
      "questId": 11008,
      "assetIndex": 11220663157309935844,
      "prePerformCfg": ""
    },
    {
      "id": 1100852,
      "beginWay": "TALK_BEGIN_MANUAL",
      "beginCond": [
        {
          "type": "QUEST_COND_STATE_EQUAL",
          "_param": [
            "1100804",
            "2"
          ]
        }
      ],
      "priority": 5,
      "initDialog": 110080216,
      "npcId": [
        10014
      ],
      "performCfg": "QuestDialogue/WQ/Homeworld_1100801/Q1100852",
      "heroTalk": "TALK_HERO_MAIN",
      "questId": 11008,
      "assetIndex": 3315216589472709129,
      "prePerformCfg": ""
    },
    {
      "id": 1100853,
      "beginWay": "TALK_BEGIN_MANUAL",
      "beginCondComb": "LOGIC_OR",
      "beginCond": [
        {
          "type": "QUEST_COND_STATE_EQUAL",
          "_param": [
            "1100816",
            "2"
          ]
        },
        {
          "type": "QUEST_COND_STATE_EQUAL",
          "_param": [
            "1100806",
            "2"
          ]
        },
        {
          "type": "QUEST_COND_STATE_EQUAL",
          "_param": [
            "1100813",
            "2"
          ]
        },
        {
          "type": "QUEST_COND_STATE_EQUAL",
          "_param": [
            "1100814",
            "2"
          ]
        },
        {
          "type": "QUEST_COND_STATE_EQUAL",
          "_param": [
            "1100807",
            "2"
          ]
        },
        {
          "type": "QUEST_COND_STATE_EQUAL",
          "_param": [
            "1100809",
            "2"
          ]
        }
      ],
      "priority": 5,
      "initDialog": 110080513,
      "npcId": [
        10014
      ],
      "performCfg": "QuestDialogue/WQ/Homeworld_1100801/Q1100853",
      "heroTalk": "TALK_HERO_MAIN",
      "questId": 11008,
      "assetIndex": 16916038665394898942,
      "prePerformCfg": ""
    },
    {
      "id": 1100854,
      "beginWay": "TALK_BEGIN_MANUAL",
      "beginCond": [
        {
          "type": "QUEST_COND_STATE_EQUAL",
          "_param": [
            "1100810",
            "2"
          ]
        }
      ],
      "priority": 5,
      "initDialog": 110080918,
      "npcId": [
        10234
      ],
      "performCfg": "QuestDialogue/WQ/Homeworld_1100801/Q1100854",
      "heroTalk": "TALK_HERO_MAIN",
      "questId": 11008,
      "assetIndex": 12896960408060189154,
      "prePerformCfg": ""
    },
    {
      "id": 1100855,
      "beginWay": "TALK_BEGIN_MANUAL",
      "beginCond": [
        {
          "type": "QUEST_COND_STATE_EQUAL",
          "_param": [
            "1100811",
            "2"
          ]
        }
      ],
      "priority": 5,
      "initDialog": 110081086,
      "npcId": [
        10014,
        10015
      ],
      "performCfg": "QuestDialogue/WQ/Homeworld_1100801/Q1100855",
      "heroTalk": "TALK_HERO_MAIN",
      "questId": 11008,
      "assetIndex": 12726947118096117546,
      "prePerformCfg": ""
    }
  ],
  "preloadLuaList": [
    9492692566537718830,
    3973305756765912822
  ],
  "forcePreloadLuaList": [
    4832030660849818147
  ],
  "freeStyleDic": {
    "10014": [
      1230,
      1190
    ],
    "10015": [
      1240,
      1170
    ],
    "10234": [
      1170
    ]
  }
}