{
  "id": 11028,
  "resId": 2037,
  "series": 2037,
  "damageRatio": "LQ",
  "descTextMapHash": 1534217159,
  "EKEKACCODOE": 3377278614,
  "luaPath": "Actor/Quest/LQ11028",
  "suggestTrackMainQuestList": [
    11029
  ],
  "rewardIdList": [
    111028
  ],
  "chapterId": 2037,
  "subQuests": [
    {
      "subId": 1102801,
      "mainId": 11028,
      "order": 1,
      "descTextMapHash": 1004405084,
      "JIFODJPFKDF": [
        310703
      ],
      "finishCond": [
        {
          "damageRatio": "QUEST_CONTENT_COMPLETE_TALK",
          "param": [
            1102801,
            0
          ]
        }
      ],
      "guide": {
        "damageRatio": "QUEST_GUIDE_LOCATION",
        "param": [
          "Q1102801_guide",
          "0"
        ],
        "guideScene": 3,
        "guideStyle": "QUEST_GUIDE_STYLE_POINT",
        "guideLayer": "QUEST_GUIDE_LAYER_SCENE",
        "MLAHIFLGIGJ": ""
      },
      "guideHint": {
        "param1": ""
      },
      "isRewind": true,
      "versionBegin": "",
      "versionEnd": ""
    },
    {
      "subId": 1102802,
      "mainId": 11028,
      "order": 2,
      "subIdSet": 1,
      "descTextMapHash": 951962156,
      "JIFODJPFKDF": [
        310703
      ],
      "finishCond": [
        {
          "damageRatio": "QUEST_CONTENT_COMPLETE_TALK",
          "param": [
            1102802,
            0
          ]
        }
      ],
      "failCond": [
        {
          "damageRatio": "QUEST_CONTENT_LEAVE_SCENE_RANGE",
          "param": [
            3,
            70
          ]
        }
      ],
      "guide": {
        "damageRatio": "QUEST_GUIDE_LOCATION",
        "param": [
          "[3_4027:1751.508,210.609,939.055]"
        ],
        "guideScene": 3,
        "guideStyle": "QUEST_GUIDE_STYLE_TARGET",
        "guideLayer": "QUEST_GUIDE_LAYER_SCENE",
        "MLAHIFLGIGJ": ""
      },
      "guideHint": {
        "param1": ""
      },
      "failExec": [
        {
          "damageRatio": "QUEST_EXEC_ROLLBACK_QUEST",
          "param": [
            "1102801"
          ]
        }
      ],
      "versionBegin": "",
      "versionEnd": ""
    },
    {
      "subId": 1102803,
      "mainId": 11028,
      "order": 3,
      "subIdSet": 1,
      "descTextMapHash": 3422423156,
      "JIFODJPFKDF": [
        310703
      ],
      "finishCond": [
        {
          "damageRatio": "QUEST_CONTENT_COMPLETE_TALK",
          "param": [
            1102803,
            0
          ]
        }
      ],
      "failCond": [
        {
          "damageRatio": "QUEST_CONTENT_LEAVE_SCENE_RANGE",
          "param": [
            3,
            70
          ]
        }
      ],
      "guide": {
        "damageRatio": "QUEST_GUIDE_LOCATION",
        "param": [
          "Q1102802_Q1102803_Q1102804_Q1102805_Q1102811_N13139"
        ],
        "guideScene": 3,
        "guideStyle": "QUEST_GUIDE_STYLE_TARGET",
        "guideLayer": "QUEST_GUIDE_LAYER_SCENE",
        "MLAHIFLGIGJ": ""
      },
      "guideHint": {
        "param1": ""
      },
      "failExec": [
        {
          "damageRatio": "QUEST_EXEC_ROLLBACK_QUEST",
          "param": [
            "1102801"
          ]
        }
      ],
      "versionBegin": "",
      "versionEnd": ""
    },
    {
      "subId": 1102804,
      "mainId": 11028,
      "order": 4,
      "subIdSet": 1,
      "descTextMapHash": 944472340,
      "JIFODJPFKDF": [
        310703
      ],
      "finishCond": [
        {
          "damageRatio": "QUEST_CONTENT_COMPLETE_TALK",
          "param": [
            1102804,
            0
          ]
        }
      ],
      "failCond": [
        {
          "damageRatio": "QUEST_CONTENT_LEAVE_SCENE_RANGE",
          "param": [
            3,
            70
          ]
        }
      ],
      "guide": {
        "damageRatio": "QUEST_GUIDE_LOCATION",
        "param": [
          "Q1102802_Q1102803_Q1102804_Q1102805_Q1102811_N13140"
        ],
        "guideScene": 3,
        "guideStyle": "QUEST_GUIDE_STYLE_TARGET",
        "guideLayer": "QUEST_GUIDE_LAYER_SCENE",
        "MLAHIFLGIGJ": ""
      },
      "guideHint": {
        "param1": ""
      },
      "failExec": [
        {
          "damageRatio": "QUEST_EXEC_ROLLBACK_QUEST",
          "param": [
            "1102801"
          ]
        }
      ],
      "versionBegin": "",
      "versionEnd": ""
    },
    {
      "subId": 1102805,
      "mainId": 11028,
      "order": 6,
      "descTextMapHash": 1747563764,
      "JIFODJPFKDF": [
        310703
      ],
      "finishCond": [
        {
          "damageRatio": "QUEST_CONTENT_COMPLETE_TALK",
          "param": [
            1102811,
            0
          ]
        }
      ],
      "guide": {
        "damageRatio": "QUEST_GUIDE_NPC",
        "param": [
          "1068"
        ],
        "guideScene": 3,
        "guideStyle": "QUEST_GUIDE_STYLE_TARGET",
        "guideLayer": "QUEST_GUIDE_LAYER_SCENE",
        "MLAHIFLGIGJ": ""
      },
      "guideHint": {
        "param1": ""
      },
      "isRewind": true,
      "versionBegin": "",
      "versionEnd": ""
    },
    {
      "subId": 1102806,
      "mainId": 11028,
      "order": 7,
      "descTextMapHash": 2046104740,
      "JIFODJPFKDF": [
        310703
      ],
      "finishCond": [
        {
          "damageRatio": "QUEST_CONTENT_COMPLETE_TALK",
          "param": [
            1102806,
            0
          ]
        }
      ],
      "guide": {
        "damageRatio": "QUEST_GUIDE_NPC",
        "param": [
          "10233"
        ],
        "guideScene": 3,
        "guideStyle": "QUEST_GUIDE_STYLE_TARGET",
        "guideLayer": "QUEST_GUIDE_LAYER_SCENE",
        "MLAHIFLGIGJ": ""
      },
      "guideHint": {
        "param1": ""
      },
      "isRewind": true,
      "finishExec": [
        {
          "damageRatio": "QUEST_EXEC_UNREGISTER_DYNAMIC_GROUP",
          "param": [
            "133102238"
          ]
        }
      ],
      "versionBegin": "",
      "versionEnd": ""
    },
    {
      "subId": 1102807,
      "mainId": 11028,
      "order": 8,
      "descTextMapHash": 1029071836,
      "JIFODJPFKDF": [
        310703
      ],
      "finishCond": [
        {
          "damageRatio": "QUEST_CONTENT_GAME_TIME_TICK",
          "param": [
            1,
            0
          ]
        }
      ],
      "guide": {
        "MLAHIFLGIGJ": ""
      },
      "guideHint": {
        "param1": ""
      },
      "isRewind": true,
      "versionBegin": "",
      "versionEnd": ""
    },
    {
      "subId": 1102808,
      "mainId": 11028,
      "order": 9,
      "descTextMapHash": 1221856028,
      "JIFODJPFKDF": [
        310703
      ],
      "finishCond": [
        {
          "damageRatio": "QUEST_CONTENT_COMPLETE_TALK",
          "param": [
            1102808,
            0
          ]
        }
      ],
      "guide": {
        "damageRatio": "QUEST_GUIDE_LOCATION",
        "param": [
          "T1102808_N10000005"
        ],
        "guideScene": 3,
        "guideStyle": "QUEST_GUIDE_STYLE_POINT",
        "guideLayer": "QUEST_GUIDE_LAYER_SCENE",
        "MLAHIFLGIGJ": ""
      },
      "guideHint": {
        "param1": ""
      },
      "isRewind": true,
      "versionBegin": "",
      "versionEnd": ""
    },
    {
      "subId": 1102809,
      "mainId": 11028,
      "order": 10,
      "descTextMapHash": 724532772,
      "JIFODJPFKDF": [
        310703
      ],
      "finishCond": [
        {
          "damageRatio": "QUEST_CONTENT_COMPLETE_TALK",
          "param": [
            1102809,
            0
          ]
        }
      ],
      "guide": {
        "damageRatio": "QUEST_GUIDE_LOCATION",
        "param": [
          "Q1102808_Q1102809_Q1102810_T1102809_N1068",
          "0"
        ],
        "guideScene": 1082,
        "guideStyle": "QUEST_GUIDE_STYLE_POINT",
        "MLAHIFLGIGJ": ""
      },
      "guideHint": {
        "param1": ""
      },
      "finishExec": [
        {
          "damageRatio": "QUEST_EXEC_UNLOCK_POINT",
          "param": [
            "3",
            "800"
          ]
        }
      ],
      "versionBegin": "",
      "versionEnd": ""
    },
    {
      "subId": 1102810,
      "mainId": 11028,
      "order": 11,
      "descTextMapHash": 1443423268,
      "JIFODJPFKDF": [
        310703
      ],
      "finishCond": [
        {
          "damageRatio": "QUEST_CONTENT_COMPLETE_TALK",
          "param": [
            1102810,
            0
          ]
        }
      ],
      "guide": {
        "damageRatio": "QUEST_GUIDE_LOCATION",
        "param": [
          "T1102810_N10000005",
          "0"
        ],
        "guideScene": 3,
        "guideStyle": "QUEST_GUIDE_STYLE_POINT",
        "MLAHIFLGIGJ": ""
      },
      "guideHint": {
        "param1": ""
      },
      "finishParent": true,
      "isRewind": true,
      "versionBegin": "",
      "versionEnd": ""
    },
    {
      "subId": 1102811,
      "mainId": 11028,
      "order": 5,
      "isMpBlock": true,
      "descTextMapHash": 1351555444,
      "showType": "QUEST_HIDDEN",
      "JIFODJPFKDF": [
        310703
      ],
      "finishCond": [
        {
          "damageRatio": "QUEST_CONTENT_QUEST_STATE_EQUAL",
          "param": [
            1102802,
            3
          ]
        },
        {
          "damageRatio": "QUEST_CONTENT_QUEST_STATE_EQUAL",
          "param": [
            1102803,
            3
          ]
        },
        {
          "damageRatio": "QUEST_CONTENT_QUEST_STATE_EQUAL",
          "param": [
            1102804,
            3
          ]
        }
      ],
      "guide": {
        "MLAHIFLGIGJ": ""
      },
      "guideHint": {
        "param1": ""
      },
      "versionBegin": "",
      "versionEnd": ""
    }
  ],
  "talks": [
    {
      "id": 1102801,
      "beginWay": "TALK_BEGIN_MANUAL",
      "beginCond": [
        {
          "type": "QUEST_COND_STATE_EQUAL",
          "_param": [
            "1102801",
            "2"
          ]
        }
      ],
      "priority": 5,
      "initDialog": 110280101,
      "npcId": [
        1068
      ],
      "performCfg": "QuestDialogue/LQ/Baizhu_11028/Q1102801",
      "heroTalk": "TALK_HERO_MAIN",
      "questId": 11028,
      "assetIndex": 6813274949797625273,
      "prePerformCfg": "",
      "lockGameTime": true
    },
    {
      "id": 1102802,
      "beginWay": "TALK_BEGIN_MANUAL",
      "beginCondComb": "LOGIC_OR",
      "beginCond": [
        {
          "type": "QUEST_COND_STATE_EQUAL",
          "_param": [
            "1102802",
            "2"
          ]
        },
        {
          "type": "QUEST_COND_STATE_EQUAL",
          "_param": [
            "1102803",
            "2"
          ]
        },
        {
          "type": "QUEST_COND_STATE_EQUAL",
          "_param": [
            "1102804",
            "2"
          ]
        }
      ],
      "priority": 5,
      "initDialog": 110280201,
      "npcId": [
        13138
      ],
      "performCfg": "",
      "heroTalk": "TALK_HERO_MAIN",
      "questId": 11028,
      "assetIndex": 13972804530488174517,
      "prePerformCfg": "",
      "lockGameTime": true
    },
    {
      "id": 1102803,
      "beginWay": "TALK_BEGIN_MANUAL",
      "beginCondComb": "LOGIC_OR",
      "beginCond": [
        {
          "type": "QUEST_COND_STATE_EQUAL",
          "_param": [
            "1102802",
            "2"
          ]
        },
        {
          "type": "QUEST_COND_STATE_EQUAL",
          "_param": [
            "1102803",
            "2"
          ]
        },
        {
          "type": "QUEST_COND_STATE_EQUAL",
          "_param": [
            "1102804",
            "2"
          ]
        }
      ],
      "priority": 5,
      "initDialog": 110280301,
      "npcId": [
        13139
      ],
      "performCfg": "",
      "heroTalk": "TALK_HERO_MAIN",
      "questId": 11028,
      "assetIndex": 6457773808112040454,
      "prePerformCfg": "",
      "lockGameTime": true
    },
    {
      "id": 1102804,
      "beginWay": "TALK_BEGIN_MANUAL",
      "beginCondComb": "LOGIC_OR",
      "beginCond": [
        {
          "type": "QUEST_COND_STATE_EQUAL",
          "_param": [
            "1102802",
            "2"
          ]
        },
        {
          "type": "QUEST_COND_STATE_EQUAL",
          "_param": [
            "1102803",
            "2"
          ]
        },
        {
          "type": "QUEST_COND_STATE_EQUAL",
          "_param": [
            "1102804",
            "2"
          ]
        }
      ],
      "priority": 5,
      "initDialog": 110280401,
      "npcId": [
        13140
      ],
      "performCfg": "",
      "heroTalk": "TALK_HERO_MAIN",
      "questId": 11028,
      "assetIndex": 8049885591338675180,
      "prePerformCfg": "",
      "lockGameTime": true
    },
    {
      "id": 1102805,
      "beginWay": "TALK_BEGIN_MANUAL",
      "beginCond": [
        {
          "type": "QUEST_COND_STATE_EQUAL",
          "_param": [
            "1102805",
            "2"
          ]
        }
      ],
      "priority": 5,
      "nextTalks": [
        1102811
      ],
      "initDialog": 110280501,
      "npcId": [
        1068
      ],
      "performCfg": "QuestDialogue/LQ/Baizhu_11028/Q1102805",
      "heroTalk": "TALK_HERO_MAIN",
      "questId": 11028,
      "assetIndex": 4602281931420971153,
      "prePerformCfg": "",
      "lockGameTime": true
    },
    {
      "id": 1102806,
      "beginWay": "TALK_BEGIN_MANUAL",
      "beginCond": [
        {
          "type": "QUEST_COND_STATE_EQUAL",
          "_param": [
            "1102806",
            "2"
          ]
        }
      ],
      "priority": 5,
      "initDialog": 110280601,
      "npcId": [
        13135,
        13136,
        10233,
        1068,
        2103
      ],
      "performCfg": "QuestDialogue/LQ/Baizhu_11028/Q1102806",
      "heroTalk": "TALK_HERO_MAIN",
      "questId": 11028,
      "assetIndex": 70148792090029855,
      "prePerformCfg": "",
      "lockGameTime": true
    },
    {
      "id": 1102807,
      "beginWay": "TALK_BEGIN_MANUAL",
      "beginCondComb": "LOGIC_OR",
      "beginCond": [
        {
          "type": "QUEST_COND_STATE_EQUAL",
          "_param": [
            "1102802",
            "2"
          ]
        },
        {
          "type": "QUEST_COND_STATE_EQUAL",
          "_param": [
            "1102803",
            "2"
          ]
        },
        {
          "type": "QUEST_COND_STATE_EQUAL",
          "_param": [
            "1102804",
            "2"
          ]
        }
      ],
      "priority": 5,
      "initDialog": 110280701,
      "npcId": [
        1068
      ],
      "performCfg": "QuestDialogue/LQ/Baizhu_11028/Q1102807",
      "heroTalk": "TALK_HERO_MAIN",
      "questId": 11028,
      "assetIndex": 13004956089097065125,
      "prePerformCfg": "",
      "stayFreeStyle": true,
      "lowPriority": true
    },
    {
      "id": 1102808,
      "beginWay": "TALK_BEGIN_MANUAL",
      "beginCond": [
        {
          "type": "QUEST_COND_STATE_EQUAL",
          "_param": [
            "1102808",
            "2"
          ]
        }
      ],
      "priority": 5,
      "initDialog": 110280801,
      "npcId": [
        13135,
        13136,
        2103
      ],
      "performCfg": "QuestDialogue/LQ/Baizhu_11028/Q1102808",
      "heroTalk": "TALK_HERO_MAIN",
      "questId": 11028,
      "assetIndex": 11788566098068440621,
      "prePerformCfg": "",
      "lockGameTime": true
    },
    {
      "id": 1102809,
      "beginWay": "TALK_BEGIN_MANUAL",
      "beginCond": [
        {
          "type": "QUEST_COND_STATE_EQUAL",
          "_param": [
            "1102809",
            "2"
          ]
        }
      ],
      "priority": 5,
      "initDialog": 110280901,
      "npcId": [
        1068
      ],
      "performCfg": "QuestDialogue/LQ/Baizhu_11028/Q1102809",
      "heroTalk": "TALK_HERO_MAIN",
      "questId": 11028,
      "assetIndex": 11576102499948438308,
      "prePerformCfg": "",
      "lockGameTime": true
    },
    {
      "id": 1102810,
      "beginWay": "TALK_BEGIN_MANUAL",
      "beginCond": [
        {
          "type": "QUEST_COND_STATE_EQUAL",
          "_param": [
            "1102810",
            "2"
          ]
        }
      ],
      "priority": 5,
      "initDialog": 110281001,
      "npcId": [
        1068,
        13136,
        10233
      ],
      "performCfg": "QuestDialogue/LQ/Baizhu_11028/Q1102810",
      "heroTalk": "TALK_HERO_MAIN",
      "questId": 11028,
      "assetIndex": 236087628505888604,
      "prePerformCfg": "",
      "lockGameTime": true
    },
    {
      "id": 1102811,
      "beginWay": "TALK_BEGIN_MANUAL",
      "beginCond": [
        {
          "type": "QUEST_COND_STATE_EQUAL",
          "_param": [
            "1102805",
            "2"
          ]
        }
      ],
      "priority": 4,
      "initDialog": 110281101,
      "npcId": [
        1068
      ],
      "performCfg": "QuestDialogue/LQ/Baizhu_11028/Q1102811",
      "heroTalk": "TALK_HERO_MAIN",
      "questId": 11028,
      "assetIndex": 6923504568151904487,
      "prePerformCfg": "",
      "lockGameTime": true
    },
    {
      "id": 1102812,
      "beginWay": "TALK_BEGIN_MANUAL",
      "beginCond": [
        {
          "type": "QUEST_COND_STATE_EQUAL",
          "_param": [
            "1102801",
            "2"
          ]
        }
      ],
      "priority": 5,
      "initDialog": 110281201,
      "npcId": [
        2103
      ],
      "performCfg": "QuestDialogue/LQ/Baizhu_11028/Q1102812",
      "heroTalk": "TALK_HERO_MAIN",
      "questId": 11028,
      "assetIndex": 14507824113225235038,
      "prePerformCfg": "",
      "lowPriority": true
    },
    {
      "id": 1102813,
      "beginWay": "TALK_BEGIN_MANUAL",
      "beginCond": [
        {
          "type": "QUEST_COND_STATE_EQUAL",
          "_param": [
            "1102801",
            "2"
          ]
        }
      ],
      "priority": 5,
      "initDialog": 110281301,
      "npcId": [
        10233
      ],
      "performCfg": "QuestDialogue/LQ/Baizhu_11028/Q1102813",
      "heroTalk": "TALK_HERO_MAIN",
      "questId": 11028,
      "assetIndex": 12959727978408822032,
      "prePerformCfg": "",
      "lowPriority": true
    },
    {
      "id": 1102814,
      "beginWay": "TALK_BEGIN_MANUAL",
      "beginCondComb": "LOGIC_AND",
      "beginCond": [
        {
          "type": "QUEST_COND_STATE_EQUAL",
          "_param": [
            "1102706",
            "3"
          ]
        },
        {
          "type": "QUEST_COND_STATE_EQUAL",
          "_param": [
            "1102908"
          ]
        }
      ],
      "priority": 5,
      "initDialog": 110281401,
      "npcId": [
        1021
      ],
      "performCfg": "QuestDialogue/LQ/Baizhu_11028/Q1102814",
      "heroTalk": "TALK_HERO_MAIN",
      "questId": 11028,
      "assetIndex": 2048075731533583993,
      "prePerformCfg": "",
      "lowPriority": true
    },
    {
      "id": 1102815,
      "beginWay": "TALK_BEGIN_MANUAL",
      "beginCond": [
        {
          "type": "QUEST_COND_STATE_EQUAL",
          "_param": [
            "1102801",
            "2"
          ]
        }
      ],
      "priority": 5,
      "initDialog": 110281501,
      "npcId": [
        13136,
        13135
      ],
      "performCfg": "QuestDialogue/LQ/Baizhu_11028/Q1102815",
      "heroTalk": "TALK_HERO_MAIN",
      "questId": 11028,
      "assetIndex": 15661262863706087294,
      "prePerformCfg": "",
      "lowPriority": true
    },
    {
      "id": 1102816,
      "beginWay": "TALK_BEGIN_MANUAL",
      "beginCond": [
        {
          "type": "QUEST_COND_STATE_EQUAL",
          "_param": [
            "1102807",
            "2"
          ]
        }
      ],
      "priority": 5,
      "initDialog": 110281601,
      "npcId": [
        10233,
        13135
      ],
      "performCfg": "QuestDialogue/LQ/Baizhu_11028/Q1102816",
      "heroTalk": "TALK_HERO_MAIN",
      "questId": 11028,
      "assetIndex": 17500058301583502857,
      "prePerformCfg": "",
      "lowPriority": true
    },
    {
      "id": 1102817,
      "beginWay": "TALK_BEGIN_MANUAL",
      "beginCond": [
        {
          "type": "QUEST_COND_STATE_EQUAL",
          "_param": [
            "1102807",
            "2"
          ]
        }
      ],
      "priority": 5,
      "initDialog": 110281701,
      "npcId": [
        2103
      ],
      "performCfg": "QuestDialogue/LQ/Baizhu_11028/Q1102817",
      "heroTalk": "TALK_HERO_MAIN",
      "questId": 11028,
      "assetIndex": 7147869581565248437,
      "prePerformCfg": "",
      "lowPriority": true
    }
  ],
  "freeStyleDic": {
    "1068": [
      1190,
      1280
    ],
    "1021": [
      1190
    ],
    "10233": [
      1280
    ],
    "13136": [
      4120
    ],
    "13135": [
      5030
    ]
  },
  "dialogList": [
    {
      "id": 110289801,
      "talkRole": {
        "type": "TALK_ROLE_BLACK_SCREEN",
        "_id": ""
      },
      "talkAssetPath": "",
      "talkAssetPathAlter": "",
      "talkAudioName": "",
      "actionBefore": "",
      "actionWhile": "",
      "actionAfter": "",
      "optionIcon": "",
      "iconPath": ""
    }
  ]
}