{
  "id": 11040,
  "resId": 2017,
  "series": 2017,
  "damageRatio": "LQ",
  "descTextMapHash": 2006835359,
  "EKEKACCODOE": 3860383334,
  "luaPath": "Actor/Quest/LQ11040",
  "suggestTrackMainQuestList": [
    11041
  ],
  "rewardIdList": [
    111040
  ],
  "chapterId": 2017,
  "subQuests": [
    {
      "subId": 1104001,
      "mainId": 11040,
      "order": 1,
      "descTextMapHash": 929764140,
      "finishCond": [
        {
          "damageRatio": "QUEST_CONTENT_FINISH_PLOT",
          "param": [
            1104001,
            0
          ]
        }
      ],
      "guide": {
        "damageRatio": "QUEST_GUIDE_LOCATION",
        "param": [
          "Q11040Shatang",
          "15"
        ],
        "guideScene": 3,
        "MLAHIFLGIGJ": ""
      },
      "guideHint": {
        "param1": ""
      },
      "isRewind": true,
      "versionBegin": "",
      "versionEnd": ""
    },
    {
      "subId": 1104002,
      "mainId": 11040,
      "order": 2,
      "descTextMapHash": 2140458292,
      "finishCond": [
        {
          "damageRatio": "QUEST_CONTENT_COMPLETE_TALK",
          "param": [
            1104002,
            0
          ]
        },
        {
          "damageRatio": "QUEST_CONTENT_COMPLETE_TALK",
          "param": [
            1104005,
            0
          ]
        }
      ],
      "guide": {
        "damageRatio": "QUEST_GUIDE_NPC",
        "param": [
          "1019"
        ],
        "guideScene": 3,
        "guideStyle": "QUEST_GUIDE_STYLE_START",
        "guideLayer": "QUEST_GUIDE_LAYER_SCENE",
        "MLAHIFLGIGJ": ""
      },
      "guideHint": {
        "param1": ""
      },
      "isRewind": true,
      "versionBegin": "",
      "versionEnd": ""
    },
    {
      "subId": 1104003,
      "mainId": 11040,
      "order": 3,
      "descTextMapHash": 582235108,
      "stepDescTextMapHash": 861016413,
      "finishCond": [
        {
          "damageRatio": "QUEST_CONTENT_FINISH_PLOT",
          "param": [
            1104003,
            0
          ]
        }
      ],
      "guide": {
        "damageRatio": "QUEST_GUIDE_LOCATION",
        "param": [
          "Q11040BBR",
          "25"
        ],
        "guideScene": 3,
        "MLAHIFLGIGJ": ""
      },
      "guideHint": {
        "param1": ""
      },
      "isRewind": true,
      "versionBegin": "",
      "versionEnd": ""
    },
    {
      "subId": 1104004,
      "mainId": 11040,
      "order": 4,
      "descTextMapHash": 2405628244,
      "finishCond": [
        {
          "damageRatio": "QUEST_CONTENT_COMPLETE_TALK",
          "param": [
            1104004,
            0
          ]
        }
      ],
      "guide": {
        "damageRatio": "QUEST_GUIDE_NPC",
        "param": [
          "1008"
        ],
        "guideScene": 3,
        "guideStyle": "QUEST_GUIDE_STYLE_START",
        "guideLayer": "QUEST_GUIDE_LAYER_SCENE",
        "MLAHIFLGIGJ": ""
      },
      "guideHint": {
        "param1": ""
      },
      "finishParent": true,
      "versionBegin": "",
      "versionEnd": ""
    }
  ],
  "talks": [
    {
      "id": 1104002,
      "beginWay": "TALK_BEGIN_MANUAL",
      "beginCondComb": "LOGIC_A_AND_ETCOR",
      "beginCond": [
        {
          "type": "QUEST_COND_STATE_EQUAL",
          "_param": [
            "1104002",
            "2"
          ]
        },
        {
          "type": "QUEST_COND_STATE_EQUAL",
          "_param": [
            "7066501"
          ]
        },
        {
          "type": "QUEST_COND_STATE_NOT_EQUAL",
          "_param": [
            "7066501",
            "3"
          ]
        }
      ],
      "initDialog": 110400201,
      "npcId": [
        1019
      ],
      "performCfg": "QuestDialogue/LQ/Albedo1_11040/Q1104002",
      "questId": 11040,
      "assetIndex": 3095084898717144881,
      "prePerformCfg": "",
      "lockGameTime": true,
      "finishExec": [
        {
          "damageRatio": "TALK_EXEC_SAVE_TALK_ID",
          "param": [
            "1104002"
          ]
        }
      ]
    },
    {
      "id": 1104003,
      "beginWay": "TALK_BEGIN_MANUAL",
      "beginCondComb": "LOGIC_AND",
      "beginCond": [
        {
          "type": "QUEST_COND_STATE_EQUAL",
          "_param": [
            "1104002",
            "3"
          ]
        },
        {
          "type": "QUEST_COND_STATE_EQUAL",
          "_param": [
            "1104003",
            "2"
          ]
        }
      ],
      "initDialog": 110400301,
      "npcId": [
        1019
      ],
      "performCfg": "QuestDialogue/LQ/Albedo1_11040/Q1104003",
      "questId": 11040,
      "assetIndex": 12133012297489893460,
      "prePerformCfg": "",
      "lockGameTime": true
    },
    {
      "id": 1104004,
      "beginWay": "TALK_BEGIN_MANUAL",
      "beginCond": [
        {
          "type": "QUEST_COND_STATE_EQUAL",
          "_param": [
            "1104004",
            "2"
          ]
        }
      ],
      "initDialog": 110400401,
      "npcId": [
        1020
      ],
      "performCfg": "QuestDialogue/LQ/Albedo1_11040/Q1104004",
      "questId": 11040,
      "assetIndex": 10921748867455116232,
      "prePerformCfg": "",
      "lockGameTime": true
    },
    {
      "id": 1104005,
      "beginWay": "TALK_BEGIN_MANUAL",
      "beginCondComb": "LOGIC_AND",
      "beginCond": [
        {
          "type": "QUEST_COND_STATE_EQUAL",
          "_param": [
            "1104002",
            "2"
          ]
        },
        {
          "type": "QUEST_COND_STATE_EQUAL",
          "_param": [
            "7066501",
            "3"
          ]
        }
      ],
      "initDialog": 110400501,
      "npcId": [
        1019
      ],
      "performCfg": "QuestDialogue/LQ/Albedo1_11040/Q1104005",
      "questId": 11040,
      "assetIndex": 8655799118504546915,
      "prePerformCfg": "",
      "lockGameTime": true,
      "finishExec": [
        {
          "damageRatio": "TALK_EXEC_SAVE_TALK_ID",
          "param": [
            "1104005"
          ]
        }
      ]
    }
  ],
  "preloadLuaList": [
    17842302238695143736,
    8532456326652717227,
    9477075229700922518
  ],
  "forcePreloadLuaList": [
    17337268152785795820
  ],
  "freeStyleDic": {
    "1020": [
      1120
    ]
  }
}