{
  "id": 11104,
  "resId": 2011,
  "series": 2011,
  "damageRatio": "LQ",
  "descTextMapHash": 3548681833,
  "EKEKACCODOE": 984234591,
  "luaPath": "Actor/Quest/LQ11104",
  "showType": "QUEST_HIDDEN",
  "subQuests": [
    {
      "subId": 1110401,
      "mainId": 11104,
      "order": 1,
      "descTextMapHash": 1504326622,
      "showType": "QUEST_HIDDEN",
      "finishCond": [
        {
          "damageRatio": "QUEST_CONTENT_GAME_TIME_TICK",
          "param": [
            1,
            0
          ]
        },
        {
          "damageRatio": "QUEST_CONTENT_LEAVE_SCENE_RANGE",
          "param": [
            3,
            30
          ]
        }
      ],
      "guide": {
        "MLAHIFLGIGJ": ""
      },
      "guideHint": {
        "param1": ""
      },
      "finishParent": true,
      "isRewind": true,
      "versionBegin": "",
      "versionEnd": ""
    }
  ],
  "talks": [
    {
      "id": 1110323,
      "beginWay": "TALK_BEGIN_MANUAL",
      "beginCond": [
        {
          "type": "QUEST_COND_STATE_EQUAL",
          "_param": [
            "1110401",
            "2"
          ]
        }
      ],
      "priority": 5,
      "initDialog": 111030810,
      "npcId": [
        10210
      ],
      "performCfg": "QuestDialogue/LQ/Xiao1_11103/Q1110323",
      "heroTalk": "TALK_HERO_MAIN",
      "questId": 11104,
      "assetIndex": 9520195250028965389,
      "prePerformCfg": ""
    }
  ],
  "preloadLuaList": [
    14457059026087496718,
    5575916732172504491
  ],
  "freeStyleDic": {
    "10210": [
      8010
    ]
  }
}