{
  "id": 11111,
  "resId": 2018,
  "series": 11110,
  "damageRatio": "LQ",
  "descTextMapHash": 2109944287,
  "EKEKACCODOE": 2993707934,
  "luaPath": "Actor/Quest/LQ11111",
  "suggestTrackMainQuestList": [
    11112
  ],
  "rewardIdList": [
    111111
  ],
  "chapterId": 2018,
  "subQuests": [
    {
      "subId": 1111101,
      "mainId": 11111,
      "order": 1,
      "descTextMapHash": 3026159284,
      "JIFODJPFKDF": [
        40014
      ],
      "finishCond": [
        {
          "damageRatio": "QUEST_CONTENT_COMPLETE_TALK",
          "param": [
            1111101,
            0
          ]
        }
      ],
      "guide": {
        "damageRatio": "QUEST_GUIDE_NPC",
        "param": [
          "10343"
        ],
        "guideScene": 3,
        "guideStyle": "QUEST_GUIDE_STYLE_TARGET",
        "guideLayer": "QUEST_GUIDE_LAYER_SCENE",
        "MLAHIFLGIGJ": ""
      },
      "guideHint": {
        "param1": ""
      },
      "isRewind": true,
      "versionBegin": "",
      "versionEnd": ""
    },
    {
      "subId": 1111102,
      "mainId": 11111,
      "order": 2,
      "descTextMapHash": 3448379740,
      "JIFODJPFKDF": [
        40014
      ],
      "finishCond": [
        {
          "damageRatio": "QUEST_CONTENT_COMPLETE_TALK",
          "param": [
            1111102,
            0
          ]
        }
      ],
      "guide": {
        "damageRatio": "QUEST_GUIDE_LOCATION",
        "param": [
          "Q11111_Hutao_Defense_Pos_1"
        ],
        "guideScene": 3,
        "guideStyle": "QUEST_GUIDE_STYLE_POINT",
        "guideLayer": "QUEST_GUIDE_LAYER_SCENE",
        "MLAHIFLGIGJ": ""
      },
      "guideHint": {
        "param1": ""
      },
      "isRewind": true,
      "versionBegin": "",
      "versionEnd": ""
    },
    {
      "subId": 1111104,
      "mainId": 11111,
      "order": 3,
      "isMpBlock": true,
      "descTextMapHash": 1347019492,
      "finishCond": [
        {
          "damageRatio": "QUEST_CONTENT_LUA_NOTIFY",
          "param": [
            0,
            0
          ],
          "count": 1
        }
      ],
      "failCond": [
        {
          "damageRatio": "QUEST_CONTENT_LEAVE_SCENE_RANGE",
          "param": [
            3,
            80
          ]
        }
      ],
      "guide": {
        "damageRatio": "QUEST_GUIDE_LOCATION",
        "param": [
          "Q11111_DefensePlay_Pos",
          "15"
        ],
        "guideScene": 3,
        "guideStyle": "QUEST_GUIDE_STYLE_TARGET",
        "guideLayer": "QUEST_GUIDE_LAYER_UI",
        "MLAHIFLGIGJ": ""
      },
      "guideHint": {
        "param1": ""
      },
      "isRewind": true,
      "finishExec": [
        {
          "damageRatio": "QUEST_EXEC_REFRESH_GROUP_SUITE",
          "param": [
            "3",
            "133107140,1"
          ]
        }
      ],
      "failExec": [
        {
          "damageRatio": "QUEST_EXEC_REFRESH_GROUP_SUITE",
          "param": [
            "3",
            "133107140,1"
          ]
        },
        {
          "damageRatio": "QUEST_EXEC_ROLLBACK_QUEST",
          "param": [
            "1111102"
          ]
        }
      ],
      "versionBegin": "",
      "versionEnd": ""
    },
    {
      "subId": 1111105,
      "mainId": 11111,
      "order": 4,
      "descTextMapHash": 3848805116,
      "finishCond": [
        {
          "damageRatio": "QUEST_CONTENT_COMPLETE_TALK",
          "param": [
            1111105,
            0
          ]
        }
      ],
      "guide": {
        "damageRatio": "QUEST_GUIDE_LOCATION",
        "param": [
          "Q11111_Hutao_Defense_Pos_2"
        ],
        "guideScene": 3,
        "guideStyle": "QUEST_GUIDE_STYLE_POINT",
        "guideLayer": "QUEST_GUIDE_LAYER_SCENE",
        "MLAHIFLGIGJ": ""
      },
      "guideHint": {
        "param1": ""
      },
      "finishParent": true,
      "isRewind": true,
      "finishExec": [
        {
          "damageRatio": "QUEST_EXEC_UNREGISTER_DYNAMIC_GROUP",
          "param": [
            "133107140"
          ]
        }
      ],
      "versionBegin": "",
      "versionEnd": ""
    }
  ],
  "talks": [
    {
      "id": 1111101,
      "beginWay": "TALK_BEGIN_MANUAL",
      "beginCond": [
        {
          "type": "QUEST_COND_STATE_EQUAL",
          "_param": [
            "1111101",
            "2"
          ]
        }
      ],
      "priority": 5,
      "initDialog": 111110101,
      "npcId": [
        10343
      ],
      "performCfg": "QuestDialogue/LQ/Hutao1_11111/Q1111101",
      "heroTalk": "TALK_HERO_MAIN",
      "questId": 11111,
      "assetIndex": 14904682871215899196,
      "prePerformCfg": ""
    },
    {
      "id": 1111102,
      "beginWay": "TALK_BEGIN_MANUAL",
      "beginCond": [
        {
          "type": "QUEST_COND_STATE_EQUAL",
          "_param": [
            "1111102",
            "2"
          ]
        }
      ],
      "priority": 5,
      "initDialog": 111110201,
      "npcId": [
        10366
      ],
      "performCfg": "QuestDialogue/LQ/Hutao1_11111/Q1111102",
      "heroTalk": "TALK_HERO_MAIN",
      "questId": 11111,
      "assetIndex": 17982092149961222481,
      "prePerformCfg": ""
    },
    {
      "id": 1111103,
      "beginWay": "TALK_BEGIN_MANUAL",
      "beginCondComb": "LOGIC_AND",
      "beginCond": [
        {
          "type": "QUEST_COND_STATE_EQUAL",
          "_param": [
            "1111101",
            "2"
          ]
        }
      ],
      "priority": 5,
      "initDialog": 111102101,
      "npcId": [
        10348
      ],
      "performCfg": "QuestDialogue/LQ/Hutao1_11110/Q1111021",
      "heroTalk": "TALK_HERO_MAIN",
      "questId": 11111,
      "assetIndex": 18284125134989614646,
      "prePerformCfg": ""
    },
    {
      "id": 1111105,
      "beginWay": "TALK_BEGIN_MANUAL",
      "beginCond": [
        {
          "type": "QUEST_COND_STATE_EQUAL",
          "_param": [
            "1111105",
            "2"
          ]
        }
      ],
      "priority": 5,
      "initDialog": 111110501,
      "npcId": [
        1021
      ],
      "performCfg": "QuestDialogue/LQ/Hutao1_11111/Q1111105",
      "heroTalk": "TALK_HERO_MAIN",
      "questId": 11111,
      "assetIndex": 3136733861381033890,
      "prePerformCfg": ""
    },
    {
      "id": 1111106,
      "beginWay": "TALK_BEGIN_MANUAL",
      "beginCond": [
        {
          "type": "QUEST_COND_STATE_EQUAL",
          "_param": [
            "1111102",
            "2"
          ]
        }
      ],
      "priority": 5,
      "initDialog": 111110601,
      "npcId": [
        10343,
        10345
      ],
      "performCfg": "QuestDialogue/LQ/Hutao1_11111/Q1111106",
      "heroTalk": "TALK_HERO_MAIN",
      "questId": 11111,
      "assetIndex": 13986788144776872504,
      "prePerformCfg": ""
    },
    {
      "id": 1111107,
      "beginWay": "TALK_BEGIN_MANUAL",
      "beginCondComb": "LOGIC_AND",
      "beginCond": [
        {
          "type": "QUEST_COND_STATE_EQUAL",
          "_param": [
            "1111102",
            "2"
          ]
        }
      ],
      "priority": 5,
      "initDialog": 111110701,
      "npcId": [
        10365
      ],
      "performCfg": "QuestDialogue/LQ/Hutao1_11111/Q1111107",
      "heroTalk": "TALK_HERO_MAIN",
      "questId": 11111,
      "assetIndex": 12769499913213157433,
      "prePerformCfg": ""
    }
  ],
  "preloadLuaList": [
    14457059026087496718,
    62035662246835063
  ],
  "forcePreloadLuaList": [
    14757253948321158328
  ]
}