{
  "id": 11114,
  "resId": 8005,
  "series": 11110,
  "damageRatio": "LQ",
  "activeMode": "PLAY_MODE_ALL",
  "descTextMapHash": 3045015799,
  "luaPath": "Actor/Quest/LQ11114",
  "showType": "QUEST_HIDDEN",
  "chapterId": 2018,
  "subQuests": [
    {
      "subId": 1111401,
      "mainId": 11114,
      "order": 1,
      "showType": "QUEST_HIDDEN",
      "finishCond": [
        {
          "damageRatio": "QUEST_CONTENT_FINISH_PLOT",
          "param": [
            1111401,
            0
          ]
        }
      ],
      "guide": {
        "MLAHIFLGIGJ": ""
      },
      "showGuide": "QUEST_GUIDE_ITEM_DISABLE",
      "guideHint": {
        "param1": ""
      },
      "finishParent": true,
      "isRewind": true,
      "versionBegin": "",
      "versionEnd": ""
    }
  ],
  "talks": [
    {
      "id": 1111401,
      "beginWay": "TALK_BEGIN_MANUAL",
      "beginCond": [
        {
          "type": "QUEST_COND_STATE_EQUAL",
          "_param": [
            "1111307",
            "3"
          ]
        }
      ],
      "priority": 5,
      "initDialog": 111130901,
      "npcId": [
        10343
      ],
      "performCfg": "QuestDialogue/LQ/Hutao1_11113/Q1111309",
      "heroTalk": "TALK_HERO_MAIN",
      "questId": 11114,
      "assetIndex": 15377921143642874508,
      "prePerformCfg": ""
    }
  ],
  "preloadLuaList": [
    16346232346354239727
  ],
  "forcePreloadLuaList": [
    5918319791684245016
  ]
}