{
  "id": 11121,
  "resId": 2015,
  "series": 1112,
  "damageRatio": "LQ",
  "descTextMapHash": 3010681655,
  "EKEKACCODOE": 731462214,
  "luaPath": "Actor/Quest/LQ11121",
  "suggestTrackMainQuestList": [
    11122
  ],
  "rewardIdList": [
    111121
  ],
  "chapterId": 2020,
  "subQuests": [
    {
      "subId": 1112101,
      "mainId": 11121,
      "order": 1,
      "descTextMapHash": 3394160724,
      "finishCond": [
        {
          "damageRatio": "QUEST_CONTENT_COMPLETE_TALK",
          "param": [
            1112101,
            0
          ]
        }
      ],
      "guide": {
        "damageRatio": "QUEST_GUIDE_NPC",
        "param": [
          "10377",
          "SELECT_NPC_NONE"
        ],
        "guideScene": 3,
        "guideStyle": "QUEST_GUIDE_STYLE_TARGET",
        "guideLayer": "QUEST_GUIDE_LAYER_UI",
        "MLAHIFLGIGJ": ""
      },
      "guideHint": {
        "param1": ""
      },
      "isRewind": true,
      "versionBegin": "",
      "versionEnd": ""
    },
    {
      "subId": 1112102,
      "mainId": 11121,
      "order": 3,
      "descTextMapHash": 2598054676,
      "finishCond": [
        {
          "damageRatio": "QUEST_CONTENT_COMPLETE_TALK",
          "param": [
            1112102,
            0
          ]
        }
      ],
      "guide": {
        "damageRatio": "QUEST_GUIDE_LOCATION",
        "param": [
          "Q11121_Kun_Pos",
          "25"
        ],
        "guideScene": 3,
        "guideStyle": "QUEST_GUIDE_STYLE_TARGET",
        "guideLayer": "QUEST_GUIDE_LAYER_SCENE",
        "MLAHIFLGIGJ": ""
      },
      "guideHint": {
        "param1": ""
      },
      "isRewind": true,
      "versionBegin": "",
      "versionEnd": ""
    },
    {
      "subId": 1112103,
      "mainId": 11121,
      "order": 4,
      "descTextMapHash": 3572549348,
      "finishCond": [
        {
          "damageRatio": "QUEST_CONTENT_COMPLETE_TALK",
          "param": [
            1112103,
            0
          ]
        }
      ],
      "guide": {
        "damageRatio": "QUEST_GUIDE_NPC",
        "param": [
          "10378",
          "SELECT_NPC_NONE"
        ],
        "guideScene": 3,
        "guideStyle": "QUEST_GUIDE_STYLE_TARGET",
        "guideLayer": "QUEST_GUIDE_LAYER_SCENE",
        "MLAHIFLGIGJ": ""
      },
      "guideHint": {
        "param1": ""
      },
      "isRewind": true,
      "versionBegin": "",
      "versionEnd": ""
    },
    {
      "subId": 1112104,
      "mainId": 11121,
      "order": 2,
      "descTextMapHash": 3694775644,
      "finishCond": [
        {
          "damageRatio": "QUEST_CONTENT_COMPLETE_TALK",
          "param": [
            1112104,
            0
          ]
        }
      ],
      "guide": {
        "damageRatio": "QUEST_GUIDE_LOCATION",
        "param": [
          "Q11121_Book_Pos"
        ],
        "guideScene": 3,
        "guideStyle": "QUEST_GUIDE_STYLE_POINT",
        "guideLayer": "QUEST_GUIDE_LAYER_SCENE",
        "MLAHIFLGIGJ": ""
      },
      "guideHint": {
        "param1": ""
      },
      "isRewind": true,
      "versionBegin": "",
      "versionEnd": ""
    },
    {
      "subId": 1112107,
      "mainId": 11121,
      "order": 5,
      "descTextMapHash": 1165076780,
      "finishCond": [
        {
          "damageRatio": "QUEST_CONTENT_COMPLETE_TALK",
          "param": [
            1112107,
            0
          ]
        }
      ],
      "guide": {
        "damageRatio": "QUEST_GUIDE_NPC",
        "param": [
          "10377",
          "SELECT_NPC_NONE"
        ],
        "guideScene": 3,
        "guideStyle": "QUEST_GUIDE_STYLE_TARGET",
        "guideLayer": "QUEST_GUIDE_LAYER_SCENE",
        "MLAHIFLGIGJ": ""
      },
      "guideHint": {
        "param1": ""
      },
      "isRewind": true,
      "versionBegin": "",
      "versionEnd": ""
    },
    {
      "subId": 1112108,
      "mainId": 11121,
      "order": 6,
      "descTextMapHash": 693704140,
      "finishCond": [
        {
          "damageRatio": "QUEST_CONTENT_COMPLETE_TALK",
          "param": [
            1112108,
            0
          ]
        }
      ],
      "guide": {
        "damageRatio": "QUEST_GUIDE_NPC",
        "param": [
          "10376",
          "SELECT_NPC_NONE"
        ],
        "guideScene": 3,
        "guideStyle": "QUEST_GUIDE_STYLE_TARGET",
        "guideLayer": "QUEST_GUIDE_LAYER_UI",
        "MLAHIFLGIGJ": ""
      },
      "guideHint": {
        "param1": ""
      },
      "finishParent": true,
      "isRewind": true,
      "finishExec": [
        {
          "damageRatio": "QUEST_EXEC_UNREGISTER_DYNAMIC_GROUP",
          "param": [
            "133106005"
          ]
        }
      ],
      "versionBegin": "",
      "versionEnd": ""
    }
  ],
  "talks": [
    {
      "id": 1112101,
      "beginWay": "TALK_BEGIN_MANUAL",
      "beginCond": [
        {
          "type": "QUEST_COND_STATE_EQUAL",
          "_param": [
            "1112101",
            "2"
          ]
        }
      ],
      "priority": 5,
      "initDialog": 111210101,
      "npcId": [
        10377
      ],
      "performCfg": "QuestDialogue/LQ/Zhongli2_11121/Q1112101",
      "heroTalk": "TALK_HERO_MAIN",
      "questId": 11121,
      "assetIndex": 4616404370091490588,
      "prePerformCfg": ""
    },
    {
      "id": 1112102,
      "beginWay": "TALK_BEGIN_AUTO",
      "beginCond": [
        {
          "type": "QUEST_COND_STATE_EQUAL",
          "_param": [
            "1112102",
            "2"
          ]
        }
      ],
      "priority": 5,
      "initDialog": 111210201,
      "npcId": [
        10376
      ],
      "performCfg": "QuestDialogue/LQ/Zhongli2_11121/Q1112102",
      "heroTalk": "TALK_HERO_MAIN",
      "questId": 11121,
      "assetIndex": 12832555668609266673,
      "prePerformCfg": ""
    },
    {
      "id": 1112103,
      "beginWay": "TALK_BEGIN_MANUAL",
      "beginCond": [
        {
          "type": "QUEST_COND_STATE_EQUAL",
          "_param": [
            "1112103",
            "2"
          ]
        }
      ],
      "priority": 5,
      "initDialog": 111210301,
      "npcId": [
        10378
      ],
      "performCfg": "QuestDialogue/LQ/Zhongli2_11121/Q1112103",
      "heroTalk": "TALK_HERO_MAIN",
      "questId": 11121,
      "assetIndex": 5651773648239203140,
      "prePerformCfg": ""
    },
    {
      "id": 1112104,
      "beginWay": "TALK_BEGIN_AUTO",
      "beginCond": [
        {
          "type": "QUEST_COND_STATE_EQUAL",
          "_param": [
            "1112104",
            "2"
          ]
        }
      ],
      "priority": 5,
      "initDialog": 111210401,
      "npcId": [
        10394
      ],
      "performCfg": "QuestDialogue/LQ/Zhongli2_11121/Q1112104",
      "heroTalk": "TALK_HERO_MAIN",
      "questId": 11121,
      "assetIndex": 3229862947793051450,
      "prePerformCfg": ""
    },
    {
      "id": 1112107,
      "beginWay": "TALK_BEGIN_MANUAL",
      "beginCond": [
        {
          "type": "QUEST_COND_STATE_EQUAL",
          "_param": [
            "1112107",
            "2"
          ]
        }
      ],
      "priority": 5,
      "initDialog": 111210701,
      "npcId": [
        10377
      ],
      "performCfg": "QuestDialogue/LQ/Zhongli2_11121/Q1112107",
      "heroTalk": "TALK_HERO_MAIN",
      "questId": 11121,
      "assetIndex": 172895722367653354,
      "prePerformCfg": ""
    },
    {
      "id": 1112108,
      "beginWay": "TALK_BEGIN_MANUAL",
      "beginCond": [
        {
          "type": "QUEST_COND_STATE_EQUAL",
          "_param": [
            "1112108",
            "2"
          ]
        }
      ],
      "priority": 5,
      "initDialog": 111210801,
      "npcId": [
        10376
      ],
      "performCfg": "QuestDialogue/LQ/Zhongli2_11121/Q1112108",
      "heroTalk": "TALK_HERO_MAIN",
      "questId": 11121,
      "assetIndex": 14686777810829129659,
      "prePerformCfg": ""
    },
    {
      "id": 1112109,
      "beginWay": "TALK_BEGIN_MANUAL",
      "beginCond": [
        {
          "type": "QUEST_COND_STATE_EQUAL",
          "_param": [
            "1112104",
            "2"
          ]
        }
      ],
      "priority": 5,
      "initDialog": 111210901,
      "npcId": [
        10376
      ],
      "performCfg": "QuestDialogue/LQ/Zhongli2_11121/Q1112109",
      "heroTalk": "TALK_HERO_MAIN",
      "questId": 11121,
      "assetIndex": 5409304213572276991,
      "prePerformCfg": ""
    },
    {
      "id": 1112110,
      "beginWay": "TALK_BEGIN_MANUAL",
      "beginCondComb": "LOGIC_OR",
      "beginCond": [
        {
          "type": "QUEST_COND_STATE_EQUAL",
          "_param": [
            "1112107",
            "2"
          ]
        },
        {
          "type": "QUEST_COND_STATE_EQUAL",
          "_param": [
            "1112108",
            "2"
          ]
        },
        {
          "type": "QUEST_COND_STATE_EQUAL",
          "_param": [
            "1112103",
            "2"
          ]
        }
      ],
      "priority": 5,
      "initDialog": 111211001,
      "npcId": [
        10424
      ],
      "performCfg": "QuestDialogue/LQ/Zhongli2_11121/Q1112110",
      "heroTalk": "TALK_HERO_MAIN",
      "questId": 11121,
      "assetIndex": 6892448517878116707,
      "prePerformCfg": ""
    },
    {
      "id": 1112121,
      "beginWay": "TALK_BEGIN_MANUAL",
      "beginCondComb": "LOGIC_OR",
      "beginCond": [
        {
          "type": "QUEST_COND_STATE_EQUAL",
          "_param": [
            "1112104",
            "2"
          ]
        },
        {
          "type": "QUEST_COND_STATE_EQUAL",
          "_param": [
            "1112102",
            "2"
          ]
        },
        {
          "type": "QUEST_COND_STATE_EQUAL",
          "_param": [
            "1112103",
            "2"
          ]
        }
      ],
      "priority": 5,
      "initDialog": 111212101,
      "npcId": [
        10377
      ],
      "performCfg": "QuestDialogue/LQ/Zhongli2_11121/Q1112121",
      "heroTalk": "TALK_HERO_MAIN",
      "questId": 11121,
      "assetIndex": 833808799714945922,
      "prePerformCfg": ""
    },
    {
      "id": 1112122,
      "beginWay": "TALK_BEGIN_MANUAL",
      "beginCondComb": "LOGIC_OR",
      "beginCond": [
        {
          "type": "QUEST_COND_STATE_EQUAL",
          "_param": [
            "1112103",
            "2"
          ]
        },
        {
          "type": "QUEST_COND_STATE_EQUAL",
          "_param": [
            "1112107",
            "2"
          ]
        }
      ],
      "priority": 5,
      "initDialog": 111212201,
      "npcId": [
        10376
      ],
      "performCfg": "QuestDialogue/LQ/Zhongli2_11121/Q1112122",
      "heroTalk": "TALK_HERO_MAIN",
      "questId": 11121,
      "assetIndex": 11318771997144985958,
      "prePerformCfg": ""
    },
    {
      "id": 1112123,
      "beginWay": "TALK_BEGIN_MANUAL",
      "beginCondComb": "LOGIC_OR",
      "beginCond": [
        {
          "type": "QUEST_COND_STATE_EQUAL",
          "_param": [
            "1112101",
            "2"
          ]
        },
        {
          "type": "QUEST_COND_STATE_EQUAL",
          "_param": [
            "1112102",
            "2"
          ]
        },
        {
          "type": "QUEST_COND_STATE_EQUAL",
          "_param": [
            "1112104",
            "2"
          ]
        },
        {
          "type": "QUEST_COND_STATE_EQUAL",
          "_param": [
            "1112107",
            "2"
          ]
        }
      ],
      "priority": 5,
      "initDialog": 111212301,
      "npcId": [
        10378
      ],
      "performCfg": "QuestDialogue/LQ/Zhongli2_11121/Q1112123",
      "heroTalk": "TALK_HERO_MAIN",
      "questId": 11121,
      "assetIndex": 13605400346409135134,
      "prePerformCfg": ""
    }
  ],
  "freeStyleDic": {
    "10376": [
      1190
    ]
  }
}