{
  "id": 11124,
  "resId": 8006,
  "series": 1112,
  "damageRatio": "LQ",
  "activeMode": "PLAY_MODE_ALL",
  "luaPath": "Actor/Quest/LQ11124",
  "showType": "QUEST_HIDDEN",
  "chapterId": 2020,
  "subQuests": [
    {
      "subId": 1112401,
      "mainId": 11124,
      "order": 1,
      "showType": "QUEST_HIDDEN",
      "finishCond": [
        {
          "damageRatio": "QUEST_CONTENT_FINISH_PLOT",
          "param": [
            1112401,
            0
          ]
        }
      ],
      "guide": {
        "MLAHIFLGIGJ": ""
      },
      "guideHint": {
        "param1": ""
      },
      "finishParent": true,
      "isRewind": true,
      "versionBegin": "",
      "versionEnd": ""
    },
    {
      "subId": 1112402,
      "mainId": 11124,
      "order": 2,
      "showType": "QUEST_HIDDEN",
      "finishCond": [
        {
          "damageRatio": "QUEST_CONTENT_FINISH_PLOT",
          "param": [
            1112402,
            0
          ]
        }
      ],
      "guide": {
        "MLAHIFLGIGJ": ""
      },
      "guideHint": {
        "param1": ""
      },
      "finishParent": true,
      "versionBegin": "",
      "versionEnd": ""
    }
  ],
  "talks": [
    {
      "id": 1112401,
      "beginWay": "TALK_BEGIN_MANUAL",
      "beginCondComb": "LOGIC_AND",
      "beginCond": [
        {
          "type": "QUEST_COND_STATE_EQUAL",
          "_param": [
            "1112401",
            "2"
          ]
        },
        {
          "type": "QUEST_COND_QUEST_VAR_EQUAL",
          "_param": [
            "0",
            "0",
            "11124"
          ]
        }
      ],
      "priority": 5,
      "initDialog": 111240101,
      "npcId": [
        10232
      ],
      "performCfg": "QuestDialogue/LQ/Zhongli2_11124/Q1112401",
      "heroTalk": "TALK_HERO_MAIN",
      "questId": 11124,
      "assetIndex": 14189360089067030407,
      "prePerformCfg": ""
    },
    {
      "id": 1112402,
      "beginWay": "TALK_BEGIN_MANUAL",
      "beginCondComb": "LOGIC_AND",
      "beginCond": [
        {
          "type": "QUEST_COND_STATE_EQUAL",
          "_param": [
            "1112401",
            "2"
          ]
        },
        {
          "type": "QUEST_COND_QUEST_VAR_GREATER",
          "_param": [
            "0",
            "1",
            "11124"
          ]
        }
      ],
      "priority": 5,
      "initDialog": 111240104,
      "npcId": [
        10232
      ],
      "performCfg": "QuestDialogue/LQ/Zhongli2_11124/Q1112402",
      "heroTalk": "TALK_HERO_MAIN",
      "questId": 11124,
      "assetIndex": 10956383544612110129,
      "prePerformCfg": ""
    }
  ],
  "preloadLuaList": [
    12149311325479998060
  ],
  "forcePreloadLuaList": [
    14553945338598661803
  ]
}