{
  "id": 12000,
  "resId": 2008,
  "series": 2008,
  "damageRatio": "LQ",
  "descTextMapHash": 289910673,
  "EKEKACCODOE": 521708159,
  "luaPath": "Actor/Quest/LQ12000",
  "suggestTrackMainQuestList": [
    12001
  ],
  "rewardIdList": [
    112000
  ],
  "chapterId": 2008,
  "showRedPoint": true,
  "subQuests": [
    {
      "subId": 1200001,
      "mainId": 12000,
      "order": 1,
      "descTextMapHash": 3373433000,
      "stepDescTextMapHash": 3686877948,
      "finishCond": [
        {
          "damageRatio": "QUEST_CONTENT_FINISH_PLOT",
          "param": [
            1200001,
            0
          ]
        }
      ],
      "guide": {
        "damageRatio": "QUEST_GUIDE_LOCATION",
        "param": [
          "Q1200001trigger"
        ],
        "guideScene": 3,
        "guideStyle": "QUEST_GUIDE_STYLE_START",
        "MLAHIFLGIGJ": ""
      },
      "guideHint": {
        "param1": ""
      },
      "isRewind": true,
      "versionBegin": "",
      "versionEnd": ""
    },
    {
      "subId": 1200003,
      "mainId": 12000,
      "order": 2,
      "descTextMapHash": 681982216,
      "finishCond": [
        {
          "damageRatio": "QUEST_CONTENT_COMPLETE_TALK",
          "param": [
            1200003,
            0
          ]
        }
      ],
      "guide": {
        "damageRatio": "QUEST_GUIDE_NPC",
        "param": [
          "1625"
        ],
        "guideScene": 3,
        "guideStyle": "QUEST_GUIDE_STYLE_TARGET",
        "MLAHIFLGIGJ": ""
      },
      "guideHint": {
        "param1": ""
      },
      "isRewind": true,
      "versionBegin": "",
      "versionEnd": ""
    },
    {
      "subId": 1200004,
      "mainId": 12000,
      "order": 3,
      "descTextMapHash": 635715352,
      "stepDescTextMapHash": 2336215556,
      "JIFODJPFKDF": [
        19054
      ],
      "finishCond": [
        {
          "damageRatio": "QUEST_CONTENT_FINISH_PLOT",
          "param": [
            1200004,
            0
          ]
        }
      ],
      "guide": {
        "damageRatio": "QUEST_GUIDE_LOCATION",
        "param": [
          "Q1200004Trigger",
          "80"
        ],
        "guideScene": 3,
        "guideStyle": "QUEST_GUIDE_STYLE_POINT",
        "MLAHIFLGIGJ": ""
      },
      "guideHint": {
        "param1": ""
      },
      "isRewind": true,
      "versionBegin": "",
      "versionEnd": ""
    },
    {
      "subId": 1200005,
      "mainId": 12000,
      "order": 4,
      "descTextMapHash": 4127383136,
      "JIFODJPFKDF": [
        19054
      ],
      "finishCond": [
        {
          "damageRatio": "QUEST_CONTENT_COMPLETE_TALK",
          "param": [
            1200005,
            0
          ]
        }
      ],
      "guide": {
        "damageRatio": "QUEST_GUIDE_NPC",
        "param": [
          "1624"
        ],
        "guideScene": 3,
        "guideStyle": "QUEST_GUIDE_STYLE_TARGET",
        "MLAHIFLGIGJ": ""
      },
      "guideHint": {
        "param1": ""
      },
      "isRewind": true,
      "versionBegin": "",
      "versionEnd": ""
    },
    {
      "subId": 1200006,
      "mainId": 12000,
      "order": 5,
      "descTextMapHash": 1628340592,
      "JIFODJPFKDF": [
        19054
      ],
      "finishCond": [
        {
          "damageRatio": "QUEST_CONTENT_COMPLETE_TALK",
          "param": [
            1200006,
            0
          ]
        }
      ],
      "guide": {
        "damageRatio": "QUEST_GUIDE_LOCATION",
        "param": [
          "Q1200005XQ",
          "30"
        ],
        "guideScene": 3,
        "guideStyle": "QUEST_GUIDE_STYLE_POINT",
        "MLAHIFLGIGJ": ""
      },
      "guideHint": {
        "param1": ""
      },
      "isRewind": true,
      "finishExec": [
        {
          "damageRatio": "QUEST_EXEC_GRANT_TRIAL_AVATAR",
          "param": [
            "12"
          ]
        },
        {
          "damageRatio": "QUEST_EXEC_REFRESH_GROUP_SUITE",
          "param": [
            "3",
            "133102274,1"
          ]
        }
      ],
      "versionBegin": "",
      "versionEnd": ""
    },
    {
      "subId": 1200009,
      "mainId": 12000,
      "order": 6,
      "isMpBlock": true,
      "descTextMapHash": 2568312904,
      "JIFODJPFKDF": [
        19054
      ],
      "AKLAGMDECEM": "BAN_GROUP_TRANSPORT_ONLY",
      "finishCond": [
        {
          "damageRatio": "QUEST_CONTENT_CLEAR_GROUP_MONSTER",
          "param": [
            133102274,
            0
          ]
        }
      ],
      "failCond": [
        {
          "damageRatio": "QUEST_CONTENT_NOT_FINISH_PLOT",
          "param": [
            1200009,
            0
          ]
        },
        {
          "damageRatio": "QUEST_CONTENT_TEAM_DEAD",
          "param": [
            0,
            0
          ]
        },
        {
          "damageRatio": "QUEST_CONTENT_LEAVE_SCENE_RANGE",
          "param": [
            3,
            100
          ]
        }
      ],
      "guide": {
        "MLAHIFLGIGJ": ""
      },
      "guideHint": {
        "param1": ""
      },
      "isRewind": true,
      "finishExec": [
        {
          "damageRatio": "QUEST_EXEC_REFRESH_GROUP_SUITE",
          "param": [
            "3",
            "133102274,1"
          ]
        }
      ],
      "failExec": [
        {
          "damageRatio": "QUEST_EXEC_REFRESH_GROUP_SUITE",
          "param": [
            "3",
            "133102274,1"
          ]
        }
      ],
      "versionBegin": "",
      "versionEnd": ""
    },
    {
      "subId": 1200010,
      "mainId": 12000,
      "order": 8,
      "isMpBlock": true,
      "descTextMapHash": 2142115352,
      "showType": "QUEST_HIDDEN",
      "finishCond": [
        {
          "damageRatio": "QUEST_CONTENT_COMPLETE_TALK",
          "param": [
            1200010,
            0
          ]
        }
      ],
      "guide": {
        "MLAHIFLGIGJ": ""
      },
      "guideHint": {
        "param1": ""
      },
      "finishParent": true,
      "isRewind": true,
      "finishExec": [
        {
          "damageRatio": "QUEST_EXEC_REMOVE_TRIAL_AVATAR",
          "param": [
            "12"
          ]
        }
      ],
      "versionBegin": "",
      "versionEnd": ""
    },
    {
      "subId": 1200011,
      "mainId": 12000,
      "order": 7,
      "isMpBlock": true,
      "descTextMapHash": 695552656,
      "showType": "QUEST_HIDDEN",
      "finishCond": [
        {
          "damageRatio": "QUEST_CONTENT_FINISH_PLOT",
          "param": [
            1200011,
            0
          ]
        }
      ],
      "guide": {
        "MLAHIFLGIGJ": ""
      },
      "guideHint": {
        "param1": ""
      },
      "finishExec": [
        {
          "damageRatio": "QUEST_EXEC_ROLLBACK_QUEST",
          "param": [
            "1200006"
          ]
        },
        {
          "damageRatio": "QUEST_EXEC_REFRESH_GROUP_SUITE",
          "param": [
            "3",
            "133102274,1"
          ]
        },
        {
          "damageRatio": "QUEST_EXEC_REMOVE_TRIAL_AVATAR",
          "param": [
            "12"
          ]
        }
      ],
      "versionBegin": "",
      "versionEnd": ""
    }
  ],
  "talks": [
    {
      "id": 1200002,
      "beginWay": "TALK_BEGIN_AUTO",
      "beginCond": [
        {
          "type": "QUEST_COND_STATE_EQUAL",
          "_param": [
            "1200002",
            "2"
          ]
        }
      ],
      "priority": 5,
      "initDialog": 120000201,
      "npcId": [
        1005
      ],
      "performCfg": "",
      "questId": 12000,
      "assetIndex": 11398598782301547064,
      "prePerformCfg": ""
    },
    {
      "id": 1200003,
      "beginWay": "TALK_BEGIN_AUTO",
      "beginCond": [
        {
          "type": "QUEST_COND_STATE_EQUAL",
          "_param": [
            "1200003",
            "2"
          ]
        }
      ],
      "priority": 5,
      "initDialog": 120000301,
      "npcId": [
        1625
      ],
      "performCfg": "QuestDialogue/LQ/Xingqiu1_12000/Q1200003",
      "questId": 12000,
      "assetIndex": 9539679247347547773,
      "prePerformCfg": ""
    },
    {
      "id": 1200005,
      "beginWay": "TALK_BEGIN_AUTO",
      "beginCond": [
        {
          "type": "QUEST_COND_STATE_EQUAL",
          "_param": [
            "1200005",
            "2"
          ]
        }
      ],
      "priority": 5,
      "initDialog": 120000501,
      "npcId": [
        1624
      ],
      "performCfg": "QuestDialogue/LQ/Xingqiu1_12000/Q1200005",
      "questId": 12000,
      "assetIndex": 2753236829590982594,
      "prePerformCfg": ""
    },
    {
      "id": 1200006,
      "beginWay": "TALK_BEGIN_AUTO",
      "beginCond": [
        {
          "type": "QUEST_COND_STATE_EQUAL",
          "_param": [
            "1200006",
            "2"
          ]
        }
      ],
      "priority": 5,
      "initDialog": 120000601,
      "npcId": [
        10045
      ],
      "performCfg": "QuestDialogue/LQ/Xingqiu1_12000/Q1200006",
      "questId": 12000,
      "assetIndex": 937107403987956246,
      "prePerformCfg": ""
    },
    {
      "id": 1200010,
      "beginWay": "TALK_BEGIN_AUTO",
      "beginCond": [
        {
          "type": "QUEST_COND_STATE_EQUAL",
          "_param": [
            "1200010",
            "2"
          ]
        }
      ],
      "priority": 5,
      "initDialog": 120001001,
      "npcId": [
        10045
      ],
      "performCfg": "QuestDialogue/LQ/Xingqiu1_12000/Q1200010",
      "questId": 12000,
      "assetIndex": 7886015057986166878,
      "prePerformCfg": ""
    },
    {
      "id": 1200012,
      "beginWay": "TALK_BEGIN_MANUAL",
      "beginCond": [
        {
          "type": "QUEST_COND_STATE_EQUAL",
          "_param": [
            "1200007",
            "2"
          ]
        }
      ],
      "priority": 3,
      "initDialog": 610045101,
      "npcId": [
        10045
      ],
      "performCfg": "",
      "heroTalk": "TALK_HERO_MAIN",
      "questId": 12000,
      "assetIndex": 8299720205613458063,
      "prePerformCfg": ""
    },
    {
      "id": 1200042,
      "beginWay": "TALK_BEGIN_MANUAL",
      "beginCond": [
        {
          "type": "QUEST_COND_STATE_EQUAL",
          "_param": [
            "1200004",
            "2"
          ]
        }
      ],
      "priority": 3,
      "initDialog": 120004201,
      "npcId": [
        10045
      ],
      "performCfg": "",
      "heroTalk": "TALK_HERO_MAIN",
      "questId": 12000,
      "assetIndex": 1479523883958587546,
      "prePerformCfg": ""
    }
  ],
  "preloadLuaList": [
    5575916732172504491,
    14457059026087496718,
    12284142534924588925,
    4413177792680139989,
    13096096635583267101,
    2497984098425785690
  ],
  "forcePreloadLuaList": [
    12774083386519736088
  ],
  "freeStyleDic": {
    "10045": [
      1330
    ]
  }
}