{
  "id": 12014,
  "resId": 8007,
  "series": 1201,
  "damageRatio": "LQ",
  "activeMode": "PLAY_MODE_ALL",
  "descTextMapHash": 1531423959,
  "luaPath": "Actor/Quest/LQ12014",
  "showType": "QUEST_HIDDEN",
  "chapterId": 2021,
  "subQuests": [
    {
      "subId": 1201401,
      "mainId": 12014,
      "order": 1,
      "showType": "QUEST_HIDDEN",
      "finishCond": [
        {
          "damageRatio": "QUEST_CONTENT_FINISH_PLOT",
          "param": [
            1201401,
            0
          ]
        }
      ],
      "guide": {
        "MLAHIFLGIGJ": ""
      },
      "guideHint": {
        "param1": ""
      },
      "finishParent": true,
      "isRewind": true,
      "versionBegin": "",
      "versionEnd": ""
    }
  ],
  "talks": [
    {
      "id": 1201401,
      "beginWay": "TALK_BEGIN_MANUAL",
      "beginCond": [
        {
          "type": "QUEST_COND_STATE_EQUAL",
          "_param": [
            "1201401",
            "2"
          ]
        }
      ],
      "priority": 5,
      "initDialog": 120140101,
      "npcId": [
        1035
      ],
      "performCfg": "QuestDialogue/LQ/Yoimiya_12014/Q1201401",
      "heroTalk": "TALK_HERO_MAIN",
      "questId": 12014,
      "assetIndex": 5934525164997707117,
      "prePerformCfg": ""
    }
  ],
  "preloadLuaList": [
    15165699434264582770
  ],
  "forcePreloadLuaList": [
    17902502738747045626
  ]
}