{
  "id": 12020,
  "resId": 2022,
  "series": 2024,
  "damageRatio": "LQ",
  "descTextMapHash": 3305493063,
  "EKEKACCODOE": 3155669390,
  "luaPath": "Actor/Quest/LQ12020",
  "suggestTrackMainQuestList": [
    12021
  ],
  "rewardIdList": [
    112020
  ],
  "chapterId": 2024,
  "showRedPoint": true,
  "subQuests": [
    {
      "subId": 1202001,
      "mainId": 12020,
      "order": 1,
      "descTextMapHash": 1284479508,
      "finishCond": [
        {
          "damageRatio": "QUEST_CONTENT_FINISH_PLOT",
          "param": [
            1202001,
            0
          ]
        }
      ],
      "guide": {
        "damageRatio": "QUEST_GUIDE_LOCATION",
        "param": [
          "Q12020_yurenzhong"
        ],
        "guideScene": 3,
        "guideStyle": "QUEST_GUIDE_STYLE_POINT",
        "MLAHIFLGIGJ": ""
      },
      "guideHint": {
        "param1": ""
      },
      "isRewind": true,
      "versionBegin": "",
      "versionEnd": ""
    },
    {
      "subId": 1202002,
      "mainId": 12020,
      "order": 3,
      "descTextMapHash": 3709997964,
      "finishCond": [
        {
          "damageRatio": "QUEST_CONTENT_LUA_NOTIFY",
          "param": [
            0,
            0
          ],
          "count": 1
        }
      ],
      "guide": {
        "damageRatio": "QUEST_GUIDE_LOCATION",
        "param": [
          "Q12020_battle",
          "30"
        ],
        "guideScene": 3,
        "guideStyle": "QUEST_GUIDE_STYLE_TARGET",
        "MLAHIFLGIGJ": ""
      },
      "guideHint": {
        "param1": ""
      },
      "finishExec": [
        {
          "damageRatio": "QUEST_EXEC_UNREGISTER_DYNAMIC_GROUP",
          "param": [
            "133211002",
            "1"
          ]
        }
      ],
      "versionBegin": "",
      "versionEnd": ""
    },
    {
      "subId": 1202003,
      "mainId": 12020,
      "order": 5,
      "descTextMapHash": 4138627348,
      "finishCond": [
        {
          "damageRatio": "QUEST_CONTENT_COMPLETE_TALK",
          "param": [
            1202001,
            0
          ]
        }
      ],
      "guide": {
        "damageRatio": "QUEST_GUIDE_NPC",
        "param": [
          "1039",
          "SELECT_NPC_NONE"
        ],
        "guideScene": 3,
        "guideStyle": "QUEST_GUIDE_STYLE_TARGET",
        "MLAHIFLGIGJ": ""
      },
      "guideHint": {
        "param1": ""
      },
      "isRewind": true,
      "versionBegin": "",
      "versionEnd": ""
    },
    {
      "subId": 1202004,
      "mainId": 12020,
      "order": 10,
      "descTextMapHash": 2729829012,
      "finishCond": [
        {
          "damageRatio": "QUEST_CONTENT_COMPLETE_TALK",
          "param": [
            1202002,
            0
          ]
        }
      ],
      "guide": {
        "damageRatio": "QUEST_GUIDE_NPC",
        "param": [
          "12059",
          "SELECT_NPC_NONE"
        ],
        "guideScene": 3,
        "guideStyle": "QUEST_GUIDE_STYLE_TARGET",
        "MLAHIFLGIGJ": ""
      },
      "guideHint": {
        "param1": ""
      },
      "isRewind": true,
      "versionBegin": "",
      "versionEnd": ""
    },
    {
      "subId": 1202005,
      "mainId": 12020,
      "order": 11,
      "descTextMapHash": 769613148,
      "finishCond": [
        {
          "damageRatio": "QUEST_CONTENT_COMPLETE_TALK",
          "param": [
            1202003,
            0
          ]
        }
      ],
      "guide": {
        "damageRatio": "QUEST_GUIDE_NPC",
        "param": [
          "12060",
          "SELECT_NPC_NONE"
        ],
        "guideScene": 3,
        "guideStyle": "QUEST_GUIDE_STYLE_TARGET",
        "MLAHIFLGIGJ": ""
      },
      "guideHint": {
        "param1": ""
      },
      "isRewind": true,
      "versionBegin": "",
      "versionEnd": ""
    },
    {
      "subId": 1202006,
      "mainId": 12020,
      "order": 12,
      "descTextMapHash": 3782996332,
      "finishCond": [
        {
          "damageRatio": "QUEST_CONTENT_COMPLETE_TALK",
          "param": [
            1202004,
            0
          ]
        }
      ],
      "guide": {
        "damageRatio": "QUEST_GUIDE_NPC",
        "param": [
          "12061",
          "SELECT_NPC_NONE"
        ],
        "guideScene": 3,
        "guideStyle": "QUEST_GUIDE_STYLE_TARGET",
        "MLAHIFLGIGJ": ""
      },
      "guideHint": {
        "param1": ""
      },
      "isRewind": true,
      "versionBegin": "",
      "versionEnd": ""
    },
    {
      "subId": 1202007,
      "mainId": 12020,
      "order": 13,
      "descTextMapHash": 2066585500,
      "finishCond": [
        {
          "damageRatio": "QUEST_CONTENT_FINISH_PLOT",
          "param": [
            1202007,
            0
          ]
        }
      ],
      "guide": {
        "damageRatio": "QUEST_GUIDE_LOCATION",
        "param": [
          "Q12020_xinhai",
          "20"
        ],
        "guideScene": 3,
        "guideStyle": "QUEST_GUIDE_STYLE_TARGET",
        "MLAHIFLGIGJ": ""
      },
      "guideHint": {
        "param1": ""
      },
      "isRewind": true,
      "versionBegin": "",
      "versionEnd": ""
    },
    {
      "subId": 1202008,
      "mainId": 12020,
      "order": 15,
      "descTextMapHash": 2739377372,
      "finishCond": [
        {
          "damageRatio": "QUEST_CONTENT_COMPLETE_TALK",
          "param": [
            1202005,
            0
          ]
        }
      ],
      "guide": {
        "damageRatio": "QUEST_GUIDE_NPC",
        "param": [
          "1037",
          "SELECT_NPC_NONE"
        ],
        "guideScene": 3,
        "guideStyle": "QUEST_GUIDE_STYLE_TARGET",
        "MLAHIFLGIGJ": ""
      },
      "guideHint": {
        "param1": ""
      },
      "finishParent": true,
      "versionBegin": "",
      "versionEnd": ""
    },
    {
      "subId": 1202009,
      "mainId": 12020,
      "order": 2,
      "descTextMapHash": 3925963068,
      "finishCond": [
        {
          "damageRatio": "QUEST_CONTENT_COMPLETE_TALK",
          "param": [
            1202006,
            0
          ]
        }
      ],
      "guide": {
        "damageRatio": "QUEST_GUIDE_NPC",
        "param": [
          "1039",
          "SELECT_NPC_NONE"
        ],
        "guideScene": 3,
        "guideStyle": "QUEST_GUIDE_STYLE_TARGET",
        "MLAHIFLGIGJ": ""
      },
      "guideHint": {
        "param1": ""
      },
      "versionBegin": "",
      "versionEnd": ""
    }
  ],
  "talks": [
    {
      "id": 1202001,
      "beginWay": "TALK_BEGIN_MANUAL",
      "beginCond": [
        {
          "type": "QUEST_COND_STATE_EQUAL",
          "_param": [
            "1202003",
            "2"
          ]
        }
      ],
      "priority": 5,
      "initDialog": 120200101,
      "npcId": [
        1039
      ],
      "performCfg": "QuestDialogue/LQ/Kokomi_12020/Q1202001",
      "questId": 12020,
      "assetIndex": 10099812579235060221,
      "prePerformCfg": ""
    },
    {
      "id": 1202002,
      "beginWay": "TALK_BEGIN_MANUAL",
      "beginCond": [
        {
          "type": "QUEST_COND_STATE_EQUAL",
          "_param": [
            "1202004",
            "2"
          ]
        }
      ],
      "priority": 5,
      "initDialog": 120200201,
      "npcId": [
        12059
      ],
      "performCfg": "QuestDialogue/LQ/Kokomi_12020/Q1202002",
      "questId": 12020,
      "assetIndex": 12547490457194951714,
      "prePerformCfg": ""
    },
    {
      "id": 1202003,
      "beginWay": "TALK_BEGIN_MANUAL",
      "beginCond": [
        {
          "type": "QUEST_COND_STATE_EQUAL",
          "_param": [
            "1202005",
            "2"
          ]
        }
      ],
      "priority": 5,
      "initDialog": 120200301,
      "npcId": [
        12060
      ],
      "performCfg": "QuestDialogue/LQ/Kokomi_12020/Q1202003",
      "questId": 12020,
      "assetIndex": 7933106562791815773,
      "prePerformCfg": ""
    },
    {
      "id": 1202004,
      "beginWay": "TALK_BEGIN_MANUAL",
      "beginCond": [
        {
          "type": "QUEST_COND_STATE_EQUAL",
          "_param": [
            "1202006",
            "2"
          ]
        }
      ],
      "priority": 5,
      "initDialog": 120200401,
      "npcId": [
        12061,
        12095
      ],
      "performCfg": "QuestDialogue/LQ/Kokomi_12020/Q1202004",
      "questId": 12020,
      "assetIndex": 17256303788525087846,
      "prePerformCfg": ""
    },
    {
      "id": 1202005,
      "beginWay": "TALK_BEGIN_MANUAL",
      "beginCond": [
        {
          "type": "QUEST_COND_STATE_EQUAL",
          "_param": [
            "1202008",
            "2"
          ]
        }
      ],
      "priority": 5,
      "initDialog": 120200501,
      "npcId": [
        3140,
        12062,
        12096,
        1037
      ],
      "performCfg": "QuestDialogue/LQ/Kokomi_12020/Q1202005",
      "questId": 12020,
      "assetIndex": 3967306247470206670,
      "prePerformCfg": "",
      "enableCameraDisplacement": true
    },
    {
      "id": 1202006,
      "beginWay": "TALK_BEGIN_MANUAL",
      "beginCond": [
        {
          "type": "QUEST_COND_STATE_EQUAL",
          "_param": [
            "1202009",
            "2"
          ]
        }
      ],
      "priority": 5,
      "initDialog": 120200601,
      "npcId": [
        1039
      ],
      "performCfg": "QuestDialogue/LQ/Kokomi_12020/Q1202006",
      "questId": 12020,
      "assetIndex": 5826841566752882320,
      "prePerformCfg": ""
    },
    {
      "id": 1202010,
      "beginWay": "TALK_BEGIN_MANUAL",
      "beginCondComb": "LOGIC_OR",
      "beginCond": [
        {
          "type": "QUEST_COND_STATE_EQUAL",
          "_param": [
            "1202005",
            "2"
          ]
        },
        {
          "type": "QUEST_COND_STATE_EQUAL",
          "_param": [
            "1202006",
            "2"
          ]
        },
        {
          "type": "QUEST_COND_STATE_EQUAL",
          "_param": [
            "1202007",
            "2"
          ]
        }
      ],
      "priority": 5,
      "initDialog": 120201001,
      "npcId": [
        12059
      ],
      "performCfg": "QuestDialogue/LQ/Kokomi_12020/Q1202010",
      "questId": 12020,
      "assetIndex": 2415587497188991922,
      "prePerformCfg": ""
    },
    {
      "id": 1202012,
      "beginWay": "TALK_BEGIN_MANUAL",
      "beginCondComb": "LOGIC_OR",
      "beginCond": [
        {
          "type": "QUEST_COND_STATE_EQUAL",
          "_param": [
            "1202006",
            "2"
          ]
        },
        {
          "type": "QUEST_COND_STATE_EQUAL",
          "_param": [
            "1202007",
            "2"
          ]
        }
      ],
      "priority": 5,
      "initDialog": 120201201,
      "npcId": [
        12060
      ],
      "performCfg": "QuestDialogue/LQ/Kokomi_12020/Q1202012",
      "questId": 12020,
      "assetIndex": 734753253357480264,
      "prePerformCfg": ""
    },
    {
      "id": 1202014,
      "beginWay": "TALK_BEGIN_MANUAL",
      "beginCond": [
        {
          "type": "QUEST_COND_STATE_EQUAL",
          "_param": [
            "1202007",
            "2"
          ]
        }
      ],
      "priority": 5,
      "initDialog": 120201401,
      "npcId": [
        12061,
        12095
      ],
      "performCfg": "QuestDialogue/LQ/Kokomi_12020/Q1202014",
      "questId": 12020,
      "assetIndex": 3597854065758901754,
      "prePerformCfg": ""
    }
  ],
  "preloadLuaList": [
    14457059026087496718,
    16581283973868217120,
    12839689447394317501,
    1018116273786797324
  ],
  "forcePreloadLuaList": [
    6465946121142026730
  ]
}