{
  "id": 12035,
  "resId": 2027,
  "series": 2028,
  "damageRatio": "LQ",
  "descTextMapHash": 1326383551,
  "EKEKACCODOE": 2239968270,
  "luaPath": "Actor/Quest/LQ12035",
  "rewardIdList": [
    112035
  ],
  "chapterId": 2028,
  "subQuests": [
    {
      "subId": 1203501,
      "mainId": 12035,
      "order": 1,
      "descTextMapHash": 2557503684,
      "JIFODJPFKDF": [
        72278
      ],
      "finishCond": [
        {
          "damageRatio": "QUEST_CONTENT_GAME_TIME_TICK",
          "param": [
            2,
            0
          ]
        }
      ],
      "guide": {
        "MLAHIFLGIGJ": ""
      },
      "showGuide": "QUEST_GUIDE_ITEM_DISABLE",
      "guideHint": {
        "param1": ""
      },
      "isRewind": true,
      "finishExec": [
        {
          "damageRatio": "QUEST_EXEC_UNREGISTER_DYNAMIC_GROUP",
          "param": [
            "133220754"
          ]
        },
        {
          "damageRatio": "QUEST_EXEC_UNREGISTER_DYNAMIC_GROUP",
          "param": [
            "133220755"
          ]
        },
        {
          "damageRatio": "QUEST_EXEC_UNREGISTER_DYNAMIC_GROUP",
          "param": [
            "133220756"
          ]
        },
        {
          "damageRatio": "QUEST_EXEC_REFRESH_GROUP_SUITE",
          "param": [
            "3",
            "133221075,1"
          ]
        }
      ],
      "versionBegin": "",
      "versionEnd": ""
    },
    {
      "subId": 1203502,
      "mainId": 12035,
      "order": 2,
      "descTextMapHash": 2921763268,
      "JIFODJPFKDF": [
        320905,
        72278
      ],
      "finishCond": [
        {
          "damageRatio": "QUEST_CONTENT_FINISH_PLOT",
          "param": [
            1203502,
            0
          ]
        }
      ],
      "guide": {
        "damageRatio": "QUEST_GUIDE_LOCATION",
        "param": [
          "Q1203502_guide",
          "10"
        ],
        "guideScene": 3,
        "guideStyle": "QUEST_GUIDE_STYLE_TARGET",
        "guideLayer": "QUEST_GUIDE_LAYER_SCENE",
        "MLAHIFLGIGJ": ""
      },
      "guideHint": {
        "param1": ""
      },
      "isRewind": true,
      "finishExec": [
        {
          "damageRatio": "QUEST_EXEC_UNREGISTER_DYNAMIC_GROUP",
          "param": [
            "133209068"
          ]
        }
      ],
      "versionBegin": "",
      "versionEnd": ""
    },
    {
      "subId": 1203503,
      "mainId": 12035,
      "order": 3,
      "subIdSet": 1,
      "descTextMapHash": 2588869524,
      "JIFODJPFKDF": [
        320905,
        72278
      ],
      "finishCond": [
        {
          "damageRatio": "QUEST_CONTENT_COMPLETE_TALK",
          "param": [
            1203501,
            0
          ]
        }
      ],
      "guide": {
        "damageRatio": "QUEST_GUIDE_NPC",
        "param": [
          "3073"
        ],
        "guideScene": 3,
        "guideStyle": "QUEST_GUIDE_STYLE_TARGET",
        "guideLayer": "QUEST_GUIDE_LAYER_SCENE",
        "MLAHIFLGIGJ": ""
      },
      "guideHint": {
        "param1": ""
      },
      "isRewind": true,
      "finishExec": [
        {
          "damageRatio": "QUEST_EXEC_ADD_QUEST_PROGRESS",
          "param": [
            "1203506",
            "1"
          ]
        }
      ],
      "versionBegin": "",
      "versionEnd": ""
    },
    {
      "subId": 1203504,
      "mainId": 12035,
      "order": 4,
      "subIdSet": 1,
      "descTextMapHash": 4182445468,
      "JIFODJPFKDF": [
        320905,
        72278
      ],
      "finishCond": [
        {
          "damageRatio": "QUEST_CONTENT_COMPLETE_TALK",
          "param": [
            1203503,
            0
          ]
        }
      ],
      "guide": {
        "damageRatio": "QUEST_GUIDE_NPC",
        "param": [
          "12450"
        ],
        "guideScene": 3,
        "guideStyle": "QUEST_GUIDE_STYLE_TARGET",
        "guideLayer": "QUEST_GUIDE_LAYER_SCENE",
        "MLAHIFLGIGJ": ""
      },
      "guideHint": {
        "param1": ""
      },
      "isRewind": true,
      "finishExec": [
        {
          "damageRatio": "QUEST_EXEC_ADD_QUEST_PROGRESS",
          "param": [
            "1203506",
            "1"
          ]
        }
      ],
      "versionBegin": "",
      "versionEnd": ""
    },
    {
      "subId": 1203505,
      "mainId": 12035,
      "order": 5,
      "subIdSet": 1,
      "descTextMapHash": 2983655228,
      "JIFODJPFKDF": [
        320905,
        72278
      ],
      "finishCond": [
        {
          "damageRatio": "QUEST_CONTENT_COMPLETE_TALK",
          "param": [
            1203505,
            0
          ]
        }
      ],
      "guide": {
        "damageRatio": "QUEST_GUIDE_NPC",
        "param": [
          "12449"
        ],
        "guideScene": 3,
        "guideStyle": "QUEST_GUIDE_STYLE_TARGET",
        "guideLayer": "QUEST_GUIDE_LAYER_SCENE",
        "MLAHIFLGIGJ": ""
      },
      "guideHint": {
        "param1": ""
      },
      "isRewind": true,
      "finishExec": [
        {
          "damageRatio": "QUEST_EXEC_ADD_QUEST_PROGRESS",
          "param": [
            "1203506",
            "1"
          ]
        }
      ],
      "versionBegin": "",
      "versionEnd": ""
    },
    {
      "subId": 1203506,
      "mainId": 12035,
      "order": 6,
      "showType": "QUEST_HIDDEN",
      "JIFODJPFKDF": [
        320905,
        72278
      ],
      "finishCond": [
        {
          "damageRatio": "QUEST_CONTENT_ADD_QUEST_PROGRESS",
          "param": [
            1203506,
            0
          ],
          "count": 3
        }
      ],
      "guide": {
        "MLAHIFLGIGJ": ""
      },
      "showGuide": "QUEST_GUIDE_ITEM_DISABLE",
      "guideHint": {
        "param1": ""
      },
      "finishExec": [
        {
          "damageRatio": "QUEST_EXEC_ADD_QUEST_PROGRESS",
          "param": [
            "1203507",
            "1"
          ]
        }
      ],
      "versionBegin": "",
      "versionEnd": ""
    },
    {
      "subId": 1203507,
      "mainId": 12035,
      "order": 7,
      "showType": "QUEST_HIDDEN",
      "JIFODJPFKDF": [
        320905,
        72278
      ],
      "finishCond": [
        {
          "damageRatio": "QUEST_CONTENT_ADD_QUEST_PROGRESS",
          "param": [
            1203507,
            0
          ],
          "count": 1
        }
      ],
      "guide": {
        "MLAHIFLGIGJ": ""
      },
      "showGuide": "QUEST_GUIDE_ITEM_DISABLE",
      "guideHint": {
        "param1": ""
      },
      "isRewind": true,
      "versionBegin": "",
      "versionEnd": ""
    },
    {
      "subId": 1203508,
      "mainId": 12035,
      "order": 8,
      "descTextMapHash": 2522790244,
      "JIFODJPFKDF": [
        320905,
        72278
      ],
      "finishCond": [
        {
          "damageRatio": "QUEST_CONTENT_COMPLETE_TALK",
          "param": [
            1203507,
            0
          ]
        }
      ],
      "guide": {
        "damageRatio": "QUEST_GUIDE_NPC",
        "param": [
          "3086"
        ],
        "guideScene": 3,
        "guideStyle": "QUEST_GUIDE_STYLE_TARGET",
        "guideLayer": "QUEST_GUIDE_LAYER_SCENE",
        "MLAHIFLGIGJ": ""
      },
      "guideHint": {
        "param1": ""
      },
      "isRewind": true,
      "versionBegin": "",
      "versionEnd": ""
    },
    {
      "subId": 1203509,
      "mainId": 12035,
      "order": 9,
      "descTextMapHash": 3020768196,
      "JIFODJPFKDF": [
        320905,
        72278
      ],
      "finishCond": [
        {
          "damageRatio": "QUEST_CONTENT_ENTER_ROOM",
          "param": [
            1061,
            0
          ]
        }
      ],
      "guide": {
        "damageRatio": "QUEST_GUIDE_NPC",
        "param": [
          "1047"
        ],
        "guideScene": 1061,
        "guideStyle": "QUEST_GUIDE_STYLE_TARGET",
        "guideLayer": "QUEST_GUIDE_LAYER_SCENE",
        "MLAHIFLGIGJ": ""
      },
      "guideHint": {
        "param1": ""
      },
      "isRewind": true,
      "versionBegin": "",
      "versionEnd": ""
    },
    {
      "subId": 1203510,
      "mainId": 12035,
      "order": 11,
      "descTextMapHash": 1623945972,
      "JIFODJPFKDF": [
        320905,
        72278
      ],
      "finishCond": [
        {
          "damageRatio": "QUEST_CONTENT_LEAVE_SCENE",
          "param": [
            1061,
            0
          ]
        }
      ],
      "guide": {
        "guideScene": 1061,
        "guideStyle": "QUEST_GUIDE_STYLE_TARGET",
        "guideLayer": "QUEST_GUIDE_LAYER_SCENE",
        "MLAHIFLGIGJ": ""
      },
      "showGuide": "QUEST_GUIDE_ITEM_DISABLE",
      "guideHint": {
        "param1": ""
      },
      "finishParent": true,
      "isRewind": true,
      "finishExec": [
        {
          "damageRatio": "QUEST_EXEC_SET_QUEST_GLOBAL_VAR",
          "param": [
            "12035",
            "1"
          ]
        },
        {
          "damageRatio": "QUEST_EXEC_UNREGISTER_DYNAMIC_GROUP",
          "param": [
            "133209074"
          ]
        }
      ],
      "versionBegin": "",
      "versionEnd": ""
    },
    {
      "subId": 1203511,
      "mainId": 12035,
      "order": 12,
      "showType": "QUEST_HIDDEN",
      "JIFODJPFKDF": [
        320905,
        72278
      ],
      "finishCond": [
        {
          "damageRatio": "QUEST_CONTENT_COMPLETE_TALK",
          "param": [
            1203510,
            0
          ]
        }
      ],
      "guide": {
        "MLAHIFLGIGJ": ""
      },
      "showGuide": "QUEST_GUIDE_ITEM_DISABLE",
      "guideHint": {
        "param1": ""
      },
      "versionBegin": "",
      "versionEnd": ""
    },
    {
      "subId": 1203512,
      "mainId": 12035,
      "order": 13,
      "showType": "QUEST_HIDDEN",
      "JIFODJPFKDF": [
        320905,
        72278
      ],
      "finishCond": [
        {
          "damageRatio": "QUEST_CONTENT_COMPLETE_TALK",
          "param": [
            1203509,
            0
          ]
        }
      ],
      "guide": {
        "MLAHIFLGIGJ": ""
      },
      "showGuide": "QUEST_GUIDE_ITEM_DISABLE",
      "guideHint": {
        "param1": ""
      },
      "versionBegin": "",
      "versionEnd": ""
    },
    {
      "subId": 1203513,
      "mainId": 12035,
      "order": 10,
      "descTextMapHash": 1578393284,
      "JIFODJPFKDF": [
        320905,
        72278
      ],
      "finishCond": [
        {
          "damageRatio": "QUEST_CONTENT_COMPLETE_TALK",
          "param": [
            1203508,
            0
          ]
        }
      ],
      "guide": {
        "damageRatio": "QUEST_GUIDE_NPC",
        "param": [
          "1047"
        ],
        "guideScene": 1061,
        "guideStyle": "QUEST_GUIDE_STYLE_TARGET",
        "guideLayer": "QUEST_GUIDE_LAYER_SCENE",
        "MLAHIFLGIGJ": ""
      },
      "guideHint": {
        "param1": ""
      },
      "isRewind": true,
      "versionBegin": "",
      "versionEnd": ""
    }
  ],
  "talks": [
    {
      "id": 1203410,
      "beginWay": "TALK_BEGIN_MANUAL",
      "beginCond": [
        {
          "type": "QUEST_COND_STATE_EQUAL",
          "_param": [
            "1203501",
            "2"
          ]
        }
      ],
      "priority": 5,
      "initDialog": 120341001,
      "npcId": [
        12492
      ],
      "performCfg": "QuestDialogue/LQ/Ayato1_12034/Q1203410",
      "heroTalk": "TALK_HERO_MAIN",
      "questId": 12035,
      "assetIndex": 14456896291707378431,
      "prePerformCfg": ""
    },
    {
      "id": 1203412,
      "beginWay": "TALK_BEGIN_MANUAL",
      "beginCondComb": "LOGIC_OR",
      "beginCond": [
        {
          "type": "QUEST_COND_STATE_EQUAL",
          "_param": [
            "1203501",
            "2"
          ]
        },
        {
          "type": "QUEST_COND_STATE_EQUAL",
          "_param": [
            "1203502",
            "2"
          ]
        }
      ],
      "priority": 5,
      "initDialog": 120341201,
      "npcId": [
        12449
      ],
      "performCfg": "QuestDialogue/LQ/Ayato1_12034/Q1203412",
      "heroTalk": "TALK_HERO_MAIN",
      "questId": 12035,
      "assetIndex": 13691900385898543334,
      "prePerformCfg": ""
    },
    {
      "id": 1203413,
      "beginWay": "TALK_BEGIN_MANUAL",
      "beginCond": [
        {
          "type": "QUEST_COND_STATE_EQUAL",
          "_param": [
            "1203501",
            "2"
          ]
        }
      ],
      "priority": 5,
      "initDialog": 120341301,
      "npcId": [
        12497
      ],
      "performCfg": "QuestDialogue/LQ/Ayato1_12034/Q1203413",
      "heroTalk": "TALK_HERO_MAIN",
      "questId": 12035,
      "assetIndex": 16097856666108816588,
      "prePerformCfg": ""
    },
    {
      "id": 1203501,
      "beginWay": "TALK_BEGIN_MANUAL",
      "beginCond": [
        {
          "type": "QUEST_COND_STATE_EQUAL",
          "_param": [
            "1203503",
            "2"
          ]
        }
      ],
      "priority": 5,
      "initDialog": 120350101,
      "npcId": [
        3073,
        3082
      ],
      "performCfg": "QuestDialogue/LQ/Ayato1_12035/Q1203501",
      "heroTalk": "TALK_HERO_MAIN",
      "questId": 12035,
      "assetIndex": 8553779353951010199,
      "prePerformCfg": ""
    },
    {
      "id": 1203502,
      "beginWay": "TALK_BEGIN_MANUAL",
      "beginCondComb": "LOGIC_A_AND_ETCOR",
      "beginCond": [
        {
          "type": "QUEST_COND_STATE_EQUAL",
          "_param": [
            "1203503",
            "3"
          ]
        },
        {
          "type": "QUEST_COND_STATE_EQUAL",
          "_param": [
            "1203507",
            "2"
          ]
        },
        {
          "type": "QUEST_COND_STATE_EQUAL",
          "_param": [
            "1203508",
            "2"
          ]
        },
        {
          "type": "QUEST_COND_STATE_EQUAL",
          "_param": [
            "1203509",
            "2"
          ]
        }
      ],
      "priority": 5,
      "initDialog": 120350201,
      "npcId": [
        3082,
        3073
      ],
      "performCfg": "QuestDialogue/LQ/Ayato1_12035/Q1203502",
      "heroTalk": "TALK_HERO_MAIN",
      "questId": 12035,
      "assetIndex": 16713015931051617074,
      "prePerformCfg": ""
    },
    {
      "id": 1203503,
      "beginWay": "TALK_BEGIN_MANUAL",
      "beginCond": [
        {
          "type": "QUEST_COND_STATE_EQUAL",
          "_param": [
            "1203504",
            "2"
          ]
        }
      ],
      "priority": 5,
      "initDialog": 120350301,
      "npcId": [
        12450,
        12448
      ],
      "performCfg": "QuestDialogue/LQ/Ayato1_12035/Q1203503",
      "heroTalk": "TALK_HERO_MAIN",
      "questId": 12035,
      "assetIndex": 2234960401504510397,
      "prePerformCfg": ""
    },
    {
      "id": 1203504,
      "beginWay": "TALK_BEGIN_MANUAL",
      "beginCondComb": "LOGIC_A_AND_ETCOR",
      "beginCond": [
        {
          "type": "QUEST_COND_STATE_EQUAL",
          "_param": [
            "1203504",
            "3"
          ]
        },
        {
          "type": "QUEST_COND_STATE_EQUAL",
          "_param": [
            "1203507",
            "2"
          ]
        },
        {
          "type": "QUEST_COND_STATE_EQUAL",
          "_param": [
            "1203508",
            "2"
          ]
        },
        {
          "type": "QUEST_COND_STATE_EQUAL",
          "_param": [
            "1203509",
            "2"
          ]
        },
        {
          "type": "QUEST_COND_STATE_EQUAL",
          "_param": [
            "1203510",
            "2"
          ]
        }
      ],
      "priority": 5,
      "initDialog": 120350401,
      "npcId": [
        12450,
        12448
      ],
      "performCfg": "QuestDialogue/LQ/Ayato1_12035/Q1203504",
      "heroTalk": "TALK_HERO_MAIN",
      "questId": 12035,
      "assetIndex": 13081482633052099024,
      "prePerformCfg": ""
    },
    {
      "id": 1203505,
      "beginWay": "TALK_BEGIN_MANUAL",
      "beginCond": [
        {
          "type": "QUEST_COND_STATE_EQUAL",
          "_param": [
            "1203505",
            "2"
          ]
        }
      ],
      "priority": 5,
      "initDialog": 120350501,
      "npcId": [
        12449
      ],
      "performCfg": "QuestDialogue/LQ/Ayato1_12035/Q1203505",
      "heroTalk": "TALK_HERO_MAIN",
      "questId": 12035,
      "assetIndex": 18009387476534306777,
      "prePerformCfg": ""
    },
    {
      "id": 1203506,
      "beginWay": "TALK_BEGIN_MANUAL",
      "beginCondComb": "LOGIC_A_AND_ETCOR",
      "beginCond": [
        {
          "type": "QUEST_COND_STATE_EQUAL",
          "_param": [
            "1203505",
            "3"
          ]
        },
        {
          "type": "QUEST_COND_STATE_EQUAL",
          "_param": [
            "1203507",
            "2"
          ]
        },
        {
          "type": "QUEST_COND_STATE_EQUAL",
          "_param": [
            "1203508",
            "2"
          ]
        },
        {
          "type": "QUEST_COND_STATE_EQUAL",
          "_param": [
            "1203509",
            "2"
          ]
        },
        {
          "type": "QUEST_COND_STATE_EQUAL",
          "_param": [
            "1203510",
            "2"
          ]
        }
      ],
      "priority": 5,
      "initDialog": 120350601,
      "npcId": [
        12449
      ],
      "performCfg": "QuestDialogue/LQ/Ayato1_12035/Q1203506",
      "heroTalk": "TALK_HERO_MAIN",
      "questId": 12035,
      "assetIndex": 18395446093829930887,
      "prePerformCfg": ""
    },
    {
      "id": 1203507,
      "beginWay": "TALK_BEGIN_MANUAL",
      "beginCond": [
        {
          "type": "QUEST_COND_STATE_EQUAL",
          "_param": [
            "1203508",
            "2"
          ]
        }
      ],
      "priority": 5,
      "initDialog": 120350701,
      "npcId": [
        3086
      ],
      "performCfg": "QuestDialogue/LQ/Ayato1_12035/Q1203507",
      "heroTalk": "TALK_HERO_MAIN",
      "questId": 12035,
      "assetIndex": 13968810552612161159,
      "prePerformCfg": ""
    },
    {
      "id": 1203508,
      "beginWay": "TALK_BEGIN_MANUAL",
      "beginCond": [
        {
          "type": "QUEST_COND_STATE_EQUAL",
          "_param": [
            "1203513",
            "2"
          ]
        }
      ],
      "priority": 5,
      "initDialog": 120350801,
      "npcId": [
        1047
      ],
      "performCfg": "QuestDialogue/LQ/Ayato1_12035/Q1203508",
      "heroTalk": "TALK_HERO_MAIN",
      "questId": 12035,
      "assetIndex": 10902866174305444411,
      "prePerformCfg": ""
    },
    {
      "id": 1203509,
      "beginWay": "TALK_BEGIN_MANUAL",
      "beginCondComb": "LOGIC_OR",
      "beginCond": [
        {
          "type": "QUEST_COND_STATE_EQUAL",
          "_param": [
            "1203502",
            "2"
          ]
        },
        {
          "type": "QUEST_COND_STATE_EQUAL",
          "_param": [
            "1203507",
            "2"
          ]
        },
        {
          "type": "QUEST_COND_STATE_EQUAL",
          "_param": [
            "1203508",
            "2"
          ]
        },
        {
          "type": "QUEST_COND_STATE_EQUAL",
          "_param": [
            "1203509",
            "2"
          ]
        },
        {
          "type": "QUEST_COND_STATE_EQUAL",
          "_param": [
            "1203513",
            "2"
          ]
        },
        {
          "type": "QUEST_COND_STATE_EQUAL",
          "_param": [
            "1203510",
            "2"
          ]
        }
      ],
      "priority": 5,
      "initDialog": 120350901,
      "npcId": [
        12492
      ],
      "performCfg": "QuestDialogue/LQ/Ayato1_12035/Q1203509",
      "heroTalk": "TALK_HERO_MAIN",
      "questId": 12035,
      "assetIndex": 240829827235338347,
      "prePerformCfg": ""
    },
    {
      "id": 1203510,
      "beginWay": "TALK_BEGIN_MANUAL",
      "beginCondComb": "LOGIC_OR",
      "beginCond": [
        {
          "type": "QUEST_COND_STATE_EQUAL",
          "_param": [
            "1203502",
            "2"
          ]
        },
        {
          "type": "QUEST_COND_STATE_EQUAL",
          "_param": [
            "1203507",
            "2"
          ]
        },
        {
          "type": "QUEST_COND_STATE_EQUAL",
          "_param": [
            "1203508",
            "2"
          ]
        },
        {
          "type": "QUEST_COND_STATE_EQUAL",
          "_param": [
            "1203509",
            "2"
          ]
        },
        {
          "type": "QUEST_COND_STATE_EQUAL",
          "_param": [
            "1203513",
            "2"
          ]
        },
        {
          "type": "QUEST_COND_STATE_EQUAL",
          "_param": [
            "1203510",
            "2"
          ]
        }
      ],
      "priority": 5,
      "initDialog": 120351001,
      "npcId": [
        12497
      ],
      "performCfg": "QuestDialogue/LQ/Ayato1_12035/Q1203510",
      "heroTalk": "TALK_HERO_MAIN",
      "questId": 12035,
      "assetIndex": 10569885868657518992,
      "prePerformCfg": ""
    },
    {
      "id": 1203511,
      "beginWay": "TALK_BEGIN_MANUAL",
      "beginCond": [
        {
          "type": "QUEST_COND_STATE_EQUAL",
          "_param": [
            "1203501",
            "2"
          ]
        }
      ],
      "priority": 5,
      "initDialog": 120341501,
      "npcId": [
        3173
      ],
      "performCfg": "QuestDialogue/LQ/Ayato1_12034/Q1203415",
      "heroTalk": "TALK_HERO_MAIN",
      "questId": 12035,
      "assetIndex": 17248438584762114536,
      "prePerformCfg": ""
    },
    {
      "id": 1203512,
      "beginWay": "TALK_BEGIN_MANUAL",
      "beginCondComb": "LOGIC_OR",
      "beginCond": [
        {
          "type": "QUEST_COND_STATE_EQUAL",
          "_param": [
            "1203502",
            "2"
          ]
        },
        {
          "type": "QUEST_COND_STATE_EQUAL",
          "_param": [
            "1203507",
            "2"
          ]
        },
        {
          "type": "QUEST_COND_STATE_EQUAL",
          "_param": [
            "1203508",
            "2"
          ]
        },
        {
          "type": "QUEST_COND_STATE_EQUAL",
          "_param": [
            "1203509",
            "2"
          ]
        },
        {
          "type": "QUEST_COND_STATE_EQUAL",
          "_param": [
            "1203510",
            "2"
          ]
        }
      ],
      "priority": 5,
      "initDialog": 120351201,
      "npcId": [
        3093
      ],
      "performCfg": "QuestDialogue/LQ/Ayato1_12035/Q1203512",
      "heroTalk": "TALK_HERO_MAIN",
      "questId": 12035,
      "assetIndex": 2429555807675655179,
      "prePerformCfg": ""
    },
    {
      "id": 1203513,
      "beginWay": "TALK_BEGIN_MANUAL",
      "beginCondComb": "LOGIC_OR",
      "beginCond": [
        {
          "type": "QUEST_COND_STATE_EQUAL",
          "_param": [
            "1203501",
            "2"
          ]
        },
        {
          "type": "QUEST_COND_STATE_EQUAL",
          "_param": [
            "1203502",
            "2"
          ]
        },
        {
          "type": "QUEST_COND_STATE_EQUAL",
          "_param": [
            "1203507",
            "2"
          ]
        },
        {
          "type": "QUEST_COND_STATE_EQUAL",
          "_param": [
            "1203508",
            "2"
          ]
        },
        {
          "type": "QUEST_COND_STATE_EQUAL",
          "_param": [
            "1203509",
            "2"
          ]
        },
        {
          "type": "QUEST_COND_STATE_EQUAL",
          "_param": [
            "1203510",
            "2"
          ]
        }
      ],
      "priority": 5,
      "initDialog": 120341701,
      "npcId": [
        12451,
        12523,
        12528,
        12529
      ],
      "performCfg": "",
      "heroTalk": "TALK_HERO_MAIN",
      "questId": 12035,
      "assetIndex": 12232215514111608158,
      "prePerformCfg": ""
    },
    {
      "id": 1203514,
      "beginWay": "TALK_BEGIN_MANUAL",
      "beginCond": [
        {
          "type": "QUEST_COND_STATE_EQUAL",
          "_param": [
            "1203510",
            "2"
          ]
        }
      ],
      "priority": 5,
      "initDialog": 120360101,
      "npcId": [
        1047,
        1033
      ],
      "performCfg": "QuestDialogue/LQ/Ayato1_12035/Q1203601",
      "heroTalk": "TALK_HERO_MAIN",
      "questId": 12035,
      "assetIndex": 2244809265732205727,
      "prePerformCfg": ""
    }
  ],
  "preloadLuaList": [
    11105989620854480992,
    6861002971299432322,
    9312195778334139388,
    3806599854523076886
  ],
  "forcePreloadLuaList": [
    392295632745137895
  ],
  "freeStyleDic": {
    "12497": [
      1190
    ],
    "12449": [
      1170
    ],
    "3073": [
      1170
    ],
    "12448": [
      1170
    ],
    "12450": [
      1170
    ],
    "3086": [
      1190
    ],
    "1047": [
      1120
    ],
    "12492": [
      1190
    ]
  }
}