{
  "id": 12042,
  "resId": 2026,
  "series": 2027,
  "damageRatio": "LQ",
  "descTextMapHash": 1170680967,
  "EKEKACCODOE": 2088595622,
  "luaPath": "Actor/Quest/LQ12042",
  "rewardIdList": [
    112042
  ],
  "chapterId": 2027,
  "subQuests": [
    {
      "subId": 1204201,
      "mainId": 12042,
      "order": 1,
      "descTextMapHash": 2261197724,
      "finishCond": [
        {
          "damageRatio": "QUEST_CONTENT_FINISH_PLOT",
          "param": [
            1204201,
            0
          ]
        }
      ],
      "guide": {
        "damageRatio": "QUEST_GUIDE_NPC",
        "param": [
          "1034"
        ],
        "guideScene": 3,
        "guideStyle": "QUEST_GUIDE_STYLE_POINT",
        "MLAHIFLGIGJ": ""
      },
      "showGuide": "QUEST_GUIDE_ITEM_DISABLE",
      "guideHint": {
        "param1": ""
      },
      "isRewind": true,
      "versionBegin": "",
      "versionEnd": ""
    },
    {
      "subId": 1204202,
      "mainId": 12042,
      "order": 2,
      "descTextMapHash": 3423817140,
      "finishCond": [
        {
          "damageRatio": "QUEST_CONTENT_COMPLETE_TALK",
          "param": [
            1204201,
            0
          ]
        }
      ],
      "guide": {
        "damageRatio": "QUEST_GUIDE_NPC",
        "param": [
          "1034"
        ],
        "guideScene": 3,
        "guideStyle": "QUEST_GUIDE_STYLE_TARGET",
        "MLAHIFLGIGJ": ""
      },
      "guideHint": {
        "param1": ""
      },
      "versionBegin": "",
      "versionEnd": ""
    },
    {
      "subId": 1204203,
      "mainId": 12042,
      "order": 3,
      "descTextMapHash": 1830787556,
      "finishCond": [
        {
          "damageRatio": "QUEST_CONTENT_FINISH_PLOT",
          "param": [
            1204203,
            0
          ]
        }
      ],
      "guide": {
        "damageRatio": "QUEST_GUIDE_LOCATION",
        "param": [
          "Q1204110_N1036_Q1204203"
        ],
        "guideScene": 3,
        "guideStyle": "QUEST_GUIDE_STYLE_TARGET",
        "MLAHIFLGIGJ": ""
      },
      "showGuide": "QUEST_GUIDE_ITEM_DISABLE",
      "guideHint": {
        "param1": ""
      },
      "isRewind": true,
      "versionBegin": "",
      "versionEnd": ""
    },
    {
      "subId": 1204204,
      "mainId": 12042,
      "order": 4,
      "descTextMapHash": 3757844884,
      "finishCond": [
        {
          "damageRatio": "QUEST_CONTENT_COMPLETE_TALK",
          "param": [
            1204202,
            0
          ]
        }
      ],
      "guide": {
        "damageRatio": "QUEST_GUIDE_NPC",
        "param": [
          "1034"
        ],
        "guideScene": 3,
        "guideStyle": "QUEST_GUIDE_STYLE_TARGET",
        "MLAHIFLGIGJ": ""
      },
      "guideHint": {
        "param1": ""
      },
      "versionBegin": "",
      "versionEnd": ""
    },
    {
      "subId": 1204205,
      "mainId": 12042,
      "order": 5,
      "descTextMapHash": 3465748156,
      "finishCond": [
        {
          "damageRatio": "QUEST_CONTENT_ENTER_DUNGEON",
          "param": [
            1129,
            454
          ]
        }
      ],
      "guide": {
        "guideScene": 3,
        "guideStyle": "QUEST_GUIDE_STYLE_POINT",
        "MLAHIFLGIGJ": ""
      },
      "showGuide": "QUEST_GUIDE_ITEM_DISABLE",
      "guideHint": {
        "param1": ""
      },
      "versionBegin": "",
      "versionEnd": ""
    },
    {
      "subId": 1204206,
      "mainId": 12042,
      "order": 10,
      "isMpBlock": true,
      "descTextMapHash": 821189140,
      "finishCond": [
        {
          "damageRatio": "QUEST_CONTENT_COMPLETE_TALK",
          "param": [
            1204203,
            0
          ]
        }
      ],
      "failCond": [
        {
          "damageRatio": "QUEST_CONTENT_LEAVE_SCENE",
          "param": [
            20122,
            0
          ]
        }
      ],
      "guide": {
        "damageRatio": "QUEST_GUIDE_NPC",
        "param": [
          "1036"
        ],
        "guideScene": 20122,
        "guideStyle": "QUEST_GUIDE_STYLE_TARGET",
        "MLAHIFLGIGJ": ""
      },
      "guideHint": {
        "param1": ""
      },
      "isRewind": true,
      "failExec": [
        {
          "damageRatio": "QUEST_EXEC_ROLLBACK_QUEST",
          "param": [
            "1204203"
          ]
        }
      ],
      "versionBegin": "",
      "versionEnd": ""
    },
    {
      "subId": 1204207,
      "mainId": 12042,
      "order": 11,
      "isMpBlock": true,
      "descTextMapHash": 4000377196,
      "finishCond": [
        {
          "damageRatio": "QUEST_CONTENT_LUA_NOTIFY",
          "param": [
            0,
            0
          ],
          "count": 1
        }
      ],
      "failCond": [
        {
          "damageRatio": "QUEST_CONTENT_TEAM_DEAD",
          "param": [
            0,
            0
          ]
        },
        {
          "damageRatio": "QUEST_CONTENT_LEAVE_SCENE",
          "param": [
            20122,
            0
          ]
        }
      ],
      "guide": {
        "guideScene": 3,
        "MLAHIFLGIGJ": ""
      },
      "showGuide": "QUEST_GUIDE_ITEM_DISABLE",
      "guideHint": {
        "param1": ""
      },
      "isRewind": true,
      "finishExec": [
        {
          "damageRatio": "QUEST_EXEC_REFRESH_GROUP_SUITE",
          "param": [
            "20122",
            "220122002,1"
          ]
        },
        {
          "damageRatio": "QUEST_EXEC_REMOVE_TRIAL_AVATAR",
          "param": [
            "36"
          ]
        },
        {
          "damageRatio": "QUEST_EXEC_UNLOCK_AVATAR_TEAM"
        }
      ],
      "failExec": [
        {
          "damageRatio": "QUEST_EXEC_ROLLBACK_QUEST",
          "param": [
            "1204203"
          ]
        },
        {
          "damageRatio": "QUEST_EXEC_REMOVE_TRIAL_AVATAR",
          "param": [
            "36"
          ]
        },
        {
          "damageRatio": "QUEST_EXEC_UNLOCK_AVATAR_TEAM"
        },
        {
          "damageRatio": "QUEST_EXEC_REFRESH_GROUP_SUITE",
          "param": [
            "20122",
            "220122002,1"
          ]
        }
      ],
      "versionBegin": "",
      "versionEnd": ""
    },
    {
      "subId": 1204208,
      "mainId": 12042,
      "order": 13,
      "isMpBlock": true,
      "descTextMapHash": 2086267788,
      "finishCond": [
        {
          "damageRatio": "QUEST_CONTENT_COMPLETE_TALK",
          "param": [
            1204204,
            0
          ]
        }
      ],
      "failCond": [
        {
          "damageRatio": "QUEST_CONTENT_LEAVE_SCENE",
          "param": [
            20122,
            0
          ]
        }
      ],
      "guide": {
        "damageRatio": "QUEST_GUIDE_NPC",
        "param": [
          "1036"
        ],
        "guideScene": 20122,
        "MLAHIFLGIGJ": ""
      },
      "guideHint": {
        "param1": ""
      },
      "isRewind": true,
      "failExec": [
        {
          "damageRatio": "QUEST_EXEC_ROLLBACK_QUEST",
          "param": [
            "1204203"
          ]
        }
      ],
      "versionBegin": "",
      "versionEnd": ""
    },
    {
      "subId": 1204209,
      "mainId": 12042,
      "order": 15,
      "descTextMapHash": 2598906972,
      "finishCond": [
        {
          "damageRatio": "QUEST_CONTENT_COMPLETE_TALK",
          "param": [
            1204205,
            0
          ]
        }
      ],
      "guide": {
        "damageRatio": "QUEST_GUIDE_NPC",
        "param": [
          "1036"
        ],
        "guideScene": 3,
        "guideStyle": "QUEST_GUIDE_STYLE_TARGET",
        "MLAHIFLGIGJ": ""
      },
      "guideHint": {
        "param1": ""
      },
      "finishParent": true,
      "isRewind": true,
      "finishExec": [
        {
          "damageRatio": "QUEST_EXEC_MODIFY_CLIMATE_AREA",
          "param": [
            "3",
            "4",
            "0"
          ]
        },
        {
          "damageRatio": "QUEST_EXEC_MODIFY_CLIMATE_AREA",
          "param": [
            "3",
            "5",
            "0"
          ]
        },
        {
          "damageRatio": "QUEST_EXEC_SET_WEATHER_GADGET",
          "param": [
            "3055",
            "0"
          ]
        },
        {
          "damageRatio": "QUEST_EXEC_UNLOCK_POINT",
          "param": [
            "3",
            "503"
          ]
        },
        {
          "damageRatio": "QUEST_EXEC_SET_QUEST_GLOBAL_VAR",
          "param": [
            "12042",
            "1"
          ]
        }
      ],
      "versionBegin": "",
      "versionEnd": ""
    },
    {
      "subId": 1204210,
      "mainId": 12042,
      "order": 14,
      "isMpBlock": true,
      "descTextMapHash": 2121507852,
      "finishCond": [
        {
          "damageRatio": "QUEST_CONTENT_ENTER_MY_WORLD",
          "param": [
            3,
            0
          ]
        }
      ],
      "guide": {
        "guideScene": 3,
        "MLAHIFLGIGJ": ""
      },
      "guideHint": {
        "param1": ""
      },
      "versionBegin": "",
      "versionEnd": ""
    },
    {
      "subId": 1204211,
      "mainId": 12042,
      "order": 6,
      "isMpBlock": true,
      "descTextMapHash": 4207440700,
      "finishCond": [
        {
          "damageRatio": "QUEST_CONTENT_FINISH_PLOT",
          "param": [
            1204211,
            0
          ]
        }
      ],
      "failCond": [
        {
          "damageRatio": "QUEST_CONTENT_LEAVE_SCENE",
          "param": [
            20122,
            0
          ]
        }
      ],
      "guide": {
        "guideScene": 3,
        "MLAHIFLGIGJ": ""
      },
      "showGuide": "QUEST_GUIDE_ITEM_DISABLE",
      "guideHint": {
        "param1": ""
      },
      "isRewind": true,
      "failExec": [
        {
          "damageRatio": "QUEST_EXEC_ROLLBACK_QUEST",
          "param": [
            "1204203"
          ]
        }
      ],
      "versionBegin": "",
      "versionEnd": ""
    }
  ],
  "talks": [
    {
      "id": 1204201,
      "beginWay": "TALK_BEGIN_MANUAL",
      "beginCond": [
        {
          "type": "QUEST_COND_STATE_EQUAL",
          "_param": [
            "1204202",
            "2"
          ]
        }
      ],
      "priority": 5,
      "initDialog": 120420101,
      "npcId": [
        1034
      ],
      "performCfg": "QuestDialogue/LQ/Shougun2_12042/Q1204201",
      "questId": 12042,
      "assetIndex": 1387205108603081654,
      "prePerformCfg": ""
    },
    {
      "id": 1204202,
      "beginWay": "TALK_BEGIN_MANUAL",
      "beginCond": [
        {
          "type": "QUEST_COND_STATE_EQUAL",
          "_param": [
            "1204204",
            "2"
          ]
        }
      ],
      "priority": 5,
      "initDialog": 120420201,
      "npcId": [
        1034
      ],
      "performCfg": "QuestDialogue/LQ/Shougun2_12042/Q1204202",
      "questId": 12042,
      "assetIndex": 17444327069467899981,
      "prePerformCfg": ""
    },
    {
      "id": 1204203,
      "beginWay": "TALK_BEGIN_MANUAL",
      "beginCond": [
        {
          "type": "QUEST_COND_STATE_EQUAL",
          "_param": [
            "1204206",
            "2"
          ]
        }
      ],
      "priority": 5,
      "initDialog": 120420301,
      "npcId": [
        1036
      ],
      "performCfg": "QuestDialogue/LQ/Shougun2_12042/Q1204203",
      "questId": 12042,
      "assetIndex": 11682938884961086202,
      "prePerformCfg": ""
    },
    {
      "id": 1204204,
      "beginWay": "TALK_BEGIN_MANUAL",
      "beginCond": [
        {
          "type": "QUEST_COND_STATE_EQUAL",
          "_param": [
            "1204208",
            "2"
          ]
        }
      ],
      "priority": 5,
      "initDialog": 120420401,
      "npcId": [
        1036
      ],
      "performCfg": "QuestDialogue/LQ/Shougun2_12042/Q1204204",
      "questId": 12042,
      "assetIndex": 10023510579451554062,
      "prePerformCfg": ""
    },
    {
      "id": 1204205,
      "beginWay": "TALK_BEGIN_MANUAL",
      "beginCond": [
        {
          "type": "QUEST_COND_STATE_EQUAL",
          "_param": [
            "1204209",
            "2"
          ]
        }
      ],
      "priority": 5,
      "initDialog": 120420501,
      "npcId": [
        1036
      ],
      "performCfg": "QuestDialogue/LQ/Shougun2_12042/Q1204205",
      "questId": 12042,
      "assetIndex": 3162198951843686321,
      "prePerformCfg": ""
    }
  ],
  "preloadLuaList": [
    18255299917896198617,
    9547905750610414685
  ],
  "forcePreloadLuaList": [
    17915023289184964302
  ]
}