{
  "id": 13009,
  "resId": 2032,
  "series": 2032,
  "damageRatio": "LQ",
  "descTextMapHash": 2539282631,
  "EKEKACCODOE": 2650266510,
  "luaPath": "Actor/Quest/LQ13009",
  "suggestTrackMainQuestList": [
    13010
  ],
  "rewardIdList": [
    113009
  ],
  "chapterId": 2032,
  "subQuests": [
    {
      "subId": 1300901,
      "mainId": 13009,
      "order": 1,
      "descTextMapHash": 1228835380,
      "JIFODJPFKDF": [
        330235
      ],
      "finishCond": [
        {
          "damageRatio": "QUEST_CONTENT_COMPLETE_TALK",
          "param": [
            1300901,
            0
          ]
        },
        {
          "damageRatio": "QUEST_CONTENT_COMPLETE_TALK",
          "param": [
            1300921,
            0
          ]
        }
      ],
      "guide": {
        "damageRatio": "QUEST_GUIDE_LOCATION",
        "param": [
          "Q1300901_N10000005",
          "15"
        ],
        "guideScene": 3,
        "guideStyle": "QUEST_GUIDE_STYLE_POINT",
        "guideLayer": "QUEST_GUIDE_LAYER_SCENE",
        "MLAHIFLGIGJ": ""
      },
      "guideHint": {
        "param1": ""
      },
      "isRewind": true,
      "versionBegin": "",
      "versionEnd": ""
    },
    {
      "subId": 1300902,
      "mainId": 13009,
      "order": 2,
      "finishCond": [
        {
          "damageRatio": "QUEST_CONTENT_FINISH_PLOT",
          "param": [
            1300902,
            0
          ]
        }
      ],
      "guide": {
        "MLAHIFLGIGJ": ""
      },
      "showGuide": "QUEST_GUIDE_ITEM_DISABLE",
      "guideHint": {
        "param1": ""
      },
      "versionBegin": "",
      "versionEnd": ""
    },
    {
      "subId": 1300903,
      "mainId": 13009,
      "order": 3,
      "descTextMapHash": 1372728484,
      "stepDescTextMapHash": 2373669805,
      "JIFODJPFKDF": [
        330241,
        330235
      ],
      "finishCond": [
        {
          "damageRatio": "QUEST_CONTENT_COMPLETE_TALK",
          "param": [
            1300902,
            0
          ]
        },
        {
          "damageRatio": "QUEST_CONTENT_COMPLETE_TALK",
          "param": [
            1300922,
            0
          ]
        }
      ],
      "guide": {
        "damageRatio": "QUEST_GUIDE_LOCATION",
        "param": [
          "Q1300902_N10000005",
          "30"
        ],
        "guideScene": 3,
        "guideStyle": "QUEST_GUIDE_STYLE_POINT",
        "guideLayer": "QUEST_GUIDE_LAYER_SCENE",
        "MLAHIFLGIGJ": ""
      },
      "guideHint": {
        "param1": ""
      },
      "isRewind": true,
      "versionBegin": "",
      "versionEnd": ""
    },
    {
      "subId": 1300904,
      "mainId": 13009,
      "order": 5,
      "descTextMapHash": 1414251396,
      "stepDescTextMapHash": 3065582869,
      "finishCond": [
        {
          "damageRatio": "QUEST_CONTENT_COMPLETE_TALK",
          "param": [
            1300904,
            0
          ]
        },
        {
          "damageRatio": "QUEST_CONTENT_COMPLETE_TALK",
          "param": [
            1300923,
            0
          ]
        }
      ],
      "guide": {
        "damageRatio": "QUEST_GUIDE_NPC",
        "param": [
          "1055"
        ],
        "guideScene": 3,
        "guideStyle": "QUEST_GUIDE_STYLE_TARGET",
        "guideLayer": "QUEST_GUIDE_LAYER_SCENE",
        "MLAHIFLGIGJ": ""
      },
      "guideHint": {
        "param1": ""
      },
      "isRewind": true,
      "versionBegin": "",
      "versionEnd": ""
    },
    {
      "subId": 1300905,
      "mainId": 13009,
      "order": 6,
      "descTextMapHash": 1105236332,
      "stepDescTextMapHash": 1661516469,
      "JIFODJPFKDF": [
        330309
      ],
      "finishCond": [
        {
          "damageRatio": "QUEST_CONTENT_COMPLETE_TALK",
          "param": [
            1300905,
            0
          ]
        }
      ],
      "guide": {
        "damageRatio": "QUEST_GUIDE_NPC",
        "param": [
          "1058"
        ],
        "guideScene": 3,
        "guideStyle": "QUEST_GUIDE_STYLE_TARGET",
        "guideLayer": "QUEST_GUIDE_LAYER_SCENE",
        "MLAHIFLGIGJ": ""
      },
      "guideHint": {
        "param1": ""
      },
      "isRewind": true,
      "versionBegin": "",
      "versionEnd": ""
    },
    {
      "subId": 1300906,
      "mainId": 13009,
      "order": 7,
      "descTextMapHash": 3798296516,
      "stepDescTextMapHash": 3442644941,
      "JIFODJPFKDF": [
        330310
      ],
      "finishCond": [
        {
          "damageRatio": "QUEST_CONTENT_FINISH_PLOT",
          "param": [
            1300906,
            0
          ]
        }
      ],
      "guide": {
        "damageRatio": "QUEST_GUIDE_LOCATION",
        "param": [
          "Q1300906_guide"
        ],
        "guideScene": 3,
        "guideStyle": "QUEST_GUIDE_STYLE_POINT",
        "guideLayer": "QUEST_GUIDE_LAYER_SCENE",
        "MLAHIFLGIGJ": ""
      },
      "guideHint": {
        "param1": ""
      },
      "isRewind": true,
      "versionBegin": "",
      "versionEnd": ""
    },
    {
      "subId": 1300907,
      "mainId": 13009,
      "order": 8,
      "descTextMapHash": 3841556124,
      "JIFODJPFKDF": [
        330310
      ],
      "finishCond": [
        {
          "damageRatio": "QUEST_CONTENT_COMPLETE_TALK",
          "param": [
            1300907,
            0
          ]
        }
      ],
      "guide": {
        "damageRatio": "QUEST_GUIDE_NPC",
        "param": [
          "1058"
        ],
        "guideScene": 3,
        "guideStyle": "QUEST_GUIDE_STYLE_TARGET",
        "guideLayer": "QUEST_GUIDE_LAYER_SCENE",
        "MLAHIFLGIGJ": ""
      },
      "guideHint": {
        "param1": ""
      },
      "versionBegin": "",
      "versionEnd": ""
    },
    {
      "subId": 1300908,
      "mainId": 13009,
      "order": 9,
      "isMpBlock": true,
      "descTextMapHash": 954053860,
      "JIFODJPFKDF": [
        330310
      ],
      "finishCond": [
        {
          "damageRatio": "QUEST_CONTENT_LUA_NOTIFY",
          "param": [
            0,
            0
          ],
          "count": 1
        }
      ],
      "failCond": [
        {
          "damageRatio": "QUEST_CONTENT_LEAVE_SCENE_RANGE",
          "param": [
            3,
            45
          ]
        },
        {
          "damageRatio": "QUEST_CONTENT_ANY_MANUAL_TRANSPORT",
          "param": [
            0,
            0
          ]
        },
        {
          "damageRatio": "QUEST_CONTENT_TEAM_DEAD",
          "param": [
            0,
            0
          ]
        }
      ],
      "guide": {
        "damageRatio": "QUEST_GUIDE_LOCATION",
        "param": [
          "Q1300906_guide",
          "30"
        ],
        "guideScene": 3,
        "guideStyle": "QUEST_GUIDE_STYLE_POINT",
        "guideLayer": "QUEST_GUIDE_LAYER_SCENE",
        "MLAHIFLGIGJ": ""
      },
      "guideHint": {
        "param1": ""
      },
      "finishExec": [
        {
          "damageRatio": "QUEST_EXEC_REMOVE_TRIAL_AVATAR",
          "param": [
            "52"
          ]
        },
        {
          "damageRatio": "QUEST_EXEC_REFRESH_GROUP_SUITE",
          "param": [
            "3",
            "133303394,2"
          ]
        }
      ],
      "failExec": [
        {
          "damageRatio": "QUEST_EXEC_REMOVE_TRIAL_AVATAR",
          "param": [
            "52"
          ]
        },
        {
          "damageRatio": "QUEST_EXEC_ROLLBACK_QUEST",
          "param": [
            "1300906"
          ]
        }
      ],
      "versionBegin": "",
      "versionEnd": ""
    },
    {
      "subId": 1300909,
      "mainId": 13009,
      "order": 10,
      "descTextMapHash": 3896561796,
      "JIFODJPFKDF": [
        330310
      ],
      "finishCond": [
        {
          "damageRatio": "QUEST_CONTENT_COMPLETE_TALK",
          "param": [
            1300909,
            0
          ]
        }
      ],
      "guide": {
        "damageRatio": "QUEST_GUIDE_LOCATION",
        "param": [
          "Q1300906_guide",
          "30"
        ],
        "guideScene": 3,
        "guideStyle": "QUEST_GUIDE_STYLE_POINT",
        "guideLayer": "QUEST_GUIDE_LAYER_SCENE",
        "MLAHIFLGIGJ": ""
      },
      "guideHint": {
        "param1": ""
      },
      "finishParent": true,
      "isRewind": true,
      "finishExec": [
        {
          "damageRatio": "QUEST_EXEC_UNREGISTER_DYNAMIC_GROUP",
          "param": [
            "133303394",
            "1"
          ]
        }
      ],
      "versionBegin": "",
      "versionEnd": ""
    },
    {
      "subId": 1300910,
      "mainId": 13009,
      "order": 4,
      "descTextMapHash": 2010328796,
      "stepDescTextMapHash": 2301257053,
      "JIFODJPFKDF": [
        330242
      ],
      "finishCond": [
        {
          "damageRatio": "QUEST_CONTENT_COMPLETE_TALK",
          "param": [
            1300903,
            0
          ]
        }
      ],
      "guide": {
        "damageRatio": "QUEST_GUIDE_LOCATION",
        "param": [
          "Q1300910_guide",
          "30"
        ],
        "guideScene": 3,
        "guideStyle": "QUEST_GUIDE_STYLE_POINT",
        "guideLayer": "QUEST_GUIDE_LAYER_SCENE",
        "MLAHIFLGIGJ": ""
      },
      "guideHint": {
        "param1": ""
      },
      "isRewind": true,
      "finishExec": [
        {
          "damageRatio": "QUEST_EXEC_UNREGISTER_DYNAMIC_GROUP",
          "param": [
            "133302418",
            "0"
          ]
        }
      ],
      "versionBegin": "",
      "versionEnd": ""
    }
  ],
  "talks": [
    {
      "id": 1300901,
      "beginWay": "TALK_BEGIN_MANUAL",
      "beginCondComb": "LOGIC_AND",
      "beginCond": [
        {
          "type": "QUEST_COND_STATE_EQUAL",
          "_param": [
            "1300901",
            "2"
          ]
        },
        {
          "type": "QUEST_COND_QUEST_GLOBAL_VAR_EQUAL",
          "_param": [
            "302821",
            "0"
          ]
        }
      ],
      "priority": 5,
      "initDialog": 130090101,
      "npcId": [
        12772
      ],
      "performCfg": "QuestDialogue/LQ/Cyno_13009/Q1300901",
      "heroTalk": "TALK_HERO_MAIN",
      "questId": 13009,
      "assetIndex": 11279766926188786373,
      "prePerformCfg": "",
      "finishExec": [
        {
          "damageRatio": "TALK_EXEC_SAVE_TALK_ID",
          "param": [
            "1300901"
          ]
        }
      ]
    },
    {
      "id": 1300902,
      "beginWay": "TALK_BEGIN_MANUAL",
      "beginCondComb": "LOGIC_AND",
      "beginCond": [
        {
          "type": "QUEST_COND_STATE_EQUAL",
          "_param": [
            "1300903",
            "2"
          ]
        },
        {
          "type": "QUEST_COND_QUEST_GLOBAL_VAR_EQUAL",
          "_param": [
            "302821",
            "0"
          ]
        }
      ],
      "priority": 5,
      "initDialog": 130090201,
      "npcId": [
        1058
      ],
      "performCfg": "QuestDialogue/LQ/Cyno_13009/Q1300902",
      "heroTalk": "TALK_HERO_MAIN",
      "questId": 13009,
      "assetIndex": 18254259227253265444,
      "prePerformCfg": "",
      "finishExec": [
        {
          "damageRatio": "TALK_EXEC_SAVE_TALK_ID",
          "param": [
            "1300902"
          ]
        }
      ]
    },
    {
      "id": 1300903,
      "beginWay": "TALK_BEGIN_MANUAL",
      "beginCond": [
        {
          "type": "QUEST_COND_STATE_EQUAL",
          "_param": [
            "1300910",
            "2"
          ]
        }
      ],
      "priority": 5,
      "initDialog": 130090301,
      "npcId": [
        12773,
        12774,
        12775,
        1058
      ],
      "performCfg": "QuestDialogue/LQ/Cyno_13009/Q1300903",
      "heroTalk": "TALK_HERO_MAIN",
      "questId": 13009,
      "assetIndex": 12505295075188058616,
      "prePerformCfg": ""
    },
    {
      "id": 1300904,
      "beginWay": "TALK_BEGIN_MANUAL",
      "beginCondComb": "LOGIC_AND",
      "beginCond": [
        {
          "type": "QUEST_COND_STATE_EQUAL",
          "_param": [
            "1300904",
            "2"
          ]
        },
        {
          "type": "QUEST_COND_QUEST_GLOBAL_VAR_EQUAL",
          "_param": [
            "302821",
            "0"
          ]
        }
      ],
      "priority": 5,
      "initDialog": 130090401,
      "npcId": [
        1055
      ],
      "performCfg": "QuestDialogue/LQ/Cyno_13009/Q1300904",
      "heroTalk": "TALK_HERO_MAIN",
      "questId": 13009,
      "assetIndex": 16427358639618323272,
      "prePerformCfg": "",
      "finishExec": [
        {
          "damageRatio": "TALK_EXEC_SAVE_TALK_ID",
          "param": [
            "1300904"
          ]
        }
      ]
    },
    {
      "id": 1300905,
      "beginWay": "TALK_BEGIN_MANUAL",
      "beginCond": [
        {
          "type": "QUEST_COND_STATE_EQUAL",
          "_param": [
            "1300905",
            "2"
          ]
        }
      ],
      "priority": 5,
      "initDialog": 130090501,
      "npcId": [
        1058
      ],
      "performCfg": "QuestDialogue/LQ/Cyno_13009/Q1300905",
      "heroTalk": "TALK_HERO_MAIN",
      "questId": 13009,
      "assetIndex": 17895773076481744988,
      "prePerformCfg": ""
    },
    {
      "id": 1300906,
      "beginWay": "TALK_BEGIN_MANUAL",
      "beginCond": [
        {
          "type": "QUEST_COND_STATE_EQUAL",
          "_param": [
            "1300905",
            "2"
          ]
        }
      ],
      "priority": 5,
      "initDialog": 130090601,
      "npcId": [
        1055
      ],
      "performCfg": "QuestDialogue/LQ/Cyno_13009/Q1300906",
      "heroTalk": "TALK_HERO_MAIN",
      "questId": 13009,
      "assetIndex": 11727740227655748428,
      "prePerformCfg": ""
    },
    {
      "id": 1300907,
      "beginWay": "TALK_BEGIN_MANUAL",
      "beginCond": [
        {
          "type": "QUEST_COND_STATE_EQUAL",
          "_param": [
            "1300907",
            "2"
          ]
        }
      ],
      "priority": 5,
      "initDialog": 130090701,
      "npcId": [
        12776,
        1058
      ],
      "performCfg": "QuestDialogue/LQ/Cyno_13009/Q1300907",
      "heroTalk": "TALK_HERO_MAIN",
      "questId": 13009,
      "assetIndex": 14487499097799793398,
      "prePerformCfg": "",
      "lockGameTime": true
    },
    {
      "id": 1300909,
      "beginWay": "TALK_BEGIN_MANUAL",
      "beginCond": [
        {
          "type": "QUEST_COND_STATE_EQUAL",
          "_param": [
            "1300909",
            "2"
          ]
        }
      ],
      "priority": 5,
      "initDialog": 130090901,
      "npcId": [
        12776,
        1058
      ],
      "performCfg": "QuestDialogue/LQ/Cyno_13009/Q1300909",
      "heroTalk": "TALK_HERO_MAIN",
      "questId": 13009,
      "assetIndex": 7134230202537734692,
      "prePerformCfg": "",
      "lockGameTime": true
    },
    {
      "id": 1300912,
      "beginWay": "TALK_BEGIN_MANUAL",
      "beginCond": [
        {
          "type": "QUEST_COND_STATE_EQUAL",
          "_param": [
            "1300903",
            "2"
          ]
        }
      ],
      "priority": 5,
      "initDialog": 130091201,
      "npcId": [
        12772
      ],
      "performCfg": "QuestDialogue/LQ/Cyno_13009/Q1300912",
      "heroTalk": "TALK_HERO_MAIN",
      "questId": 13009,
      "assetIndex": 940759561053041313,
      "prePerformCfg": ""
    },
    {
      "id": 1300921,
      "beginWay": "TALK_BEGIN_MANUAL",
      "beginCondComb": "LOGIC_AND",
      "beginCond": [
        {
          "type": "QUEST_COND_STATE_EQUAL",
          "_param": [
            "1300901",
            "2"
          ]
        },
        {
          "type": "QUEST_COND_QUEST_GLOBAL_VAR_EQUAL",
          "_param": [
            "302821",
            "1"
          ]
        }
      ],
      "priority": 5,
      "initDialog": 130092101,
      "npcId": [
        12772
      ],
      "performCfg": "QuestDialogue/LQ/Cyno_13009/Q1300921",
      "heroTalk": "TALK_HERO_MAIN",
      "questId": 13009,
      "assetIndex": 350386454671202433,
      "prePerformCfg": "",
      "finishExec": [
        {
          "damageRatio": "TALK_EXEC_SAVE_TALK_ID",
          "param": [
            "1300921"
          ]
        }
      ]
    },
    {
      "id": 1300922,
      "beginWay": "TALK_BEGIN_MANUAL",
      "beginCondComb": "LOGIC_AND",
      "beginCond": [
        {
          "type": "QUEST_COND_STATE_EQUAL",
          "_param": [
            "1300903",
            "2"
          ]
        },
        {
          "type": "QUEST_COND_QUEST_GLOBAL_VAR_EQUAL",
          "_param": [
            "302821",
            "1"
          ]
        }
      ],
      "priority": 5,
      "initDialog": 130092201,
      "npcId": [
        1058
      ],
      "performCfg": "QuestDialogue/LQ/Cyno_13009/Q1300922",
      "heroTalk": "TALK_HERO_MAIN",
      "questId": 13009,
      "assetIndex": 4851811476477518744,
      "prePerformCfg": "",
      "finishExec": [
        {
          "damageRatio": "TALK_EXEC_SAVE_TALK_ID",
          "param": [
            "1300922"
          ]
        }
      ]
    },
    {
      "id": 1300923,
      "beginWay": "TALK_BEGIN_MANUAL",
      "beginCondComb": "LOGIC_AND",
      "beginCond": [
        {
          "type": "QUEST_COND_STATE_EQUAL",
          "_param": [
            "1300904",
            "2"
          ]
        },
        {
          "type": "QUEST_COND_QUEST_GLOBAL_VAR_EQUAL",
          "_param": [
            "302821",
            "1"
          ]
        }
      ],
      "priority": 5,
      "initDialog": 130092301,
      "npcId": [
        1055
      ],
      "performCfg": "QuestDialogue/LQ/Cyno_13009/Q1300923",
      "heroTalk": "TALK_HERO_MAIN",
      "questId": 13009,
      "assetIndex": 8372853495357746343,
      "prePerformCfg": "",
      "finishExec": [
        {
          "damageRatio": "TALK_EXEC_SAVE_TALK_ID",
          "param": [
            "1300923"
          ]
        }
      ]
    }
  ],
  "preloadLuaList": [
    2199392453631741482,
    9574903716937293520,
    11606784285943065990,
    4219596388627645175,
    1768755407787475213
  ],
  "forcePreloadLuaList": [
    18446499234009584961
  ],
  "freeStyleDic": {
    "12772": [
      1240
    ],
    "1058": [
      1280,
      1190
    ],
    "12773": [
      1190
    ],
    "12774": [
      1120
    ],
    "12775": [
      1180
    ],
    "1055": [
      1120,
      1200
    ]
  },
  "dialogList": [
    {
      "id": 130092111,
      "nextDialogs": [
        130092112
      ],
      "talkRole": {
        "type": "TALK_ROLE_NPC",
        "_id": "1005"
      },
      "talkContentTextMapHash": 2641643810,
      "talkAssetPath": "",
      "talkAssetPathAlter": "",
      "talkAudioName": "",
      "actionBefore": "",
      "actionWhile": "",
      "actionAfter": "",
      "optionIcon": "",
      "iconPath": ""
    },
    {
      "id": 130092112,
      "nextDialogs": [
        130092113
      ],
      "talkShowType": "TALK_SHOW_FORCE_SELECT",
      "talkRole": {
        "type": "TALK_ROLE_PLAYER",
        "_id": ""
      },
      "talkContentTextMapHash": 1661273274,
      "talkAssetPath": "",
      "talkAssetPathAlter": "",
      "talkAudioName": "",
      "actionBefore": "",
      "actionWhile": "",
      "actionAfter": "",
      "optionIcon": "",
      "iconPath": ""
    },
    {
      "id": 130092114,
      "nextDialogs": [
        130092115
      ],
      "talkRole": {
        "type": "TALK_ROLE_NPC",
        "_id": "12772"
      },
      "talkContentTextMapHash": 3736269898,
      "talkAssetPath": "",
      "talkAssetPathAlter": "",
      "talkAudioName": "",
      "actionBefore": "",
      "actionWhile": "",
      "actionAfter": "",
      "optionIcon": "",
      "iconPath": ""
    },
    {
      "id": 130092115,
      "nextDialogs": [
        130092116
      ],
      "talkRole": {
        "type": "TALK_ROLE_NPC",
        "_id": "12772"
      },
      "talkContentTextMapHash": 557343826,
      "talkAssetPath": "",
      "talkAssetPathAlter": "",
      "talkAudioName": "",
      "actionBefore": "",
      "actionWhile": "",
      "actionAfter": "",
      "optionIcon": "",
      "iconPath": ""
    },
    {
      "id": 130092202,
      "nextDialogs": [
        130092203
      ],
      "talkRole": {
        "type": "TALK_ROLE_NPC",
        "_id": "1058"
      },
      "talkContentTextMapHash": 131744282,
      "talkAssetPath": "",
      "talkAssetPathAlter": "",
      "talkAudioName": "",
      "actionBefore": "",
      "actionWhile": "",
      "actionAfter": "",
      "optionIcon": "",
      "iconPath": ""
    },
    {
      "id": 130092207,
      "nextDialogs": [
        130092208
      ],
      "talkRole": {
        "type": "TALK_ROLE_NPC",
        "_id": "1058"
      },
      "talkContentTextMapHash": 1898377650,
      "talkAssetPath": "",
      "talkAssetPathAlter": "",
      "talkAudioName": "",
      "actionBefore": "",
      "actionWhile": "",
      "actionAfter": "",
      "optionIcon": "",
      "iconPath": ""
    },
    {
      "id": 130092208,
      "nextDialogs": [
        130092209
      ],
      "talkRole": {
        "type": "TALK_ROLE_NPC",
        "_id": "1058"
      },
      "talkContentTextMapHash": 1392295234,
      "talkAssetPath": "",
      "talkAssetPathAlter": "",
      "talkAudioName": "",
      "actionBefore": "",
      "actionWhile": "",
      "actionAfter": "",
      "optionIcon": "",
      "iconPath": ""
    }
  ]
}