{
  "id": 13007,
  "resId": 2033,
  "series": 2033,
  "damageRatio": "LQ",
  "descTextMapHash": 1055199231,
  "EKEKACCODOE": 3045191366,
  "luaPath": "Actor/Quest/LQ13007",
  "suggestTrackMainQuestList": [
    13008
  ],
  "rewardIdList": [
    113007
  ],
  "chapterId": 2033,
  "subQuests": [
    {
      "subId": 1300701,
      "mainId": 13007,
      "order": 1,
      "descTextMapHash": 811094700,
      "JIFODJPFKDF": [
        330228,
        330229
      ],
      "finishCond": [
        {
          "damageRatio": "QUEST_CONTENT_COMPLETE_TALK",
          "param": [
            1300701,
            0
          ]
        }
      ],
      "guide": {
        "damageRatio": "QUEST_GUIDE_LOCATION",
        "param": [
          "Q1300802_N12769",
          "20"
        ],
        "guideScene": 3,
        "guideStyle": "QUEST_GUIDE_STYLE_TARGET",
        "guideLayer": "QUEST_GUIDE_LAYER_SCENE",
        "MLAHIFLGIGJ": ""
      },
      "guideHint": {
        "param1": ""
      },
      "isRewind": true,
      "versionBegin": "",
      "versionEnd": ""
    },
    {
      "subId": 1300702,
      "mainId": 13007,
      "order": 2,
      "subIdSet": 1,
      "descTextMapHash": 2724781316,
      "JIFODJPFKDF": [
        330228,
        330229
      ],
      "finishCond": [
        {
          "damageRatio": "QUEST_CONTENT_COMPLETE_TALK",
          "param": [
            1300705,
            0
          ]
        }
      ],
      "guide": {
        "damageRatio": "QUEST_GUIDE_LOCATION",
        "param": [
          "Q1300802_N12711",
          "20"
        ],
        "guideScene": 3,
        "guideStyle": "QUEST_GUIDE_STYLE_TARGET",
        "guideLayer": "QUEST_GUIDE_LAYER_SCENE",
        "MLAHIFLGIGJ": ""
      },
      "guideHint": {
        "param1": ""
      },
      "isRewind": true,
      "finishExec": [
        {
          "damageRatio": "QUEST_EXEC_ADD_QUEST_PROGRESS",
          "param": [
            "1300711",
            "1"
          ]
        }
      ],
      "versionBegin": "",
      "versionEnd": ""
    },
    {
      "subId": 1300703,
      "mainId": 13007,
      "order": 3,
      "subIdSet": 1,
      "descTextMapHash": 4108075924,
      "JIFODJPFKDF": [
        330228,
        330229
      ],
      "finishCond": [
        {
          "damageRatio": "QUEST_CONTENT_COMPLETE_TALK",
          "param": [
            1300707,
            0
          ]
        }
      ],
      "guide": {
        "damageRatio": "QUEST_GUIDE_LOCATION",
        "param": [
          "Q1300802_N12711",
          "20"
        ],
        "guideScene": 3,
        "guideStyle": "QUEST_GUIDE_STYLE_TARGET",
        "guideLayer": "QUEST_GUIDE_LAYER_SCENE",
        "MLAHIFLGIGJ": ""
      },
      "guideHint": {
        "param1": ""
      },
      "isRewind": true,
      "finishExec": [
        {
          "damageRatio": "QUEST_EXEC_ADD_QUEST_PROGRESS",
          "param": [
            "1300711",
            "1"
          ]
        }
      ],
      "versionBegin": "",
      "versionEnd": ""
    },
    {
      "subId": 1300704,
      "mainId": 13007,
      "order": 4,
      "subIdSet": 1,
      "descTextMapHash": 2197910844,
      "JIFODJPFKDF": [
        330228,
        330229
      ],
      "finishCond": [
        {
          "damageRatio": "QUEST_CONTENT_COMPLETE_TALK",
          "param": [
            1300709,
            0
          ]
        }
      ],
      "guide": {
        "damageRatio": "QUEST_GUIDE_LOCATION",
        "param": [
          "Q1300802_N12711",
          "20"
        ],
        "guideScene": 3,
        "guideStyle": "QUEST_GUIDE_STYLE_TARGET",
        "guideLayer": "QUEST_GUIDE_LAYER_SCENE",
        "MLAHIFLGIGJ": ""
      },
      "guideHint": {
        "param1": ""
      },
      "isRewind": true,
      "finishExec": [
        {
          "damageRatio": "QUEST_EXEC_ADD_QUEST_PROGRESS",
          "param": [
            "1300711",
            "1"
          ]
        }
      ],
      "versionBegin": "",
      "versionEnd": ""
    },
    {
      "subId": 1300705,
      "mainId": 13007,
      "order": 7,
      "descTextMapHash": 3079531492,
      "JIFODJPFKDF": [
        330228,
        330229,
        330233
      ],
      "finishCond": [
        {
          "damageRatio": "QUEST_CONTENT_COMPLETE_TALK",
          "param": [
            1300711,
            0
          ]
        }
      ],
      "guide": {
        "damageRatio": "QUEST_GUIDE_NPC",
        "param": [
          "4057"
        ],
        "guideScene": 3,
        "guideStyle": "QUEST_GUIDE_STYLE_TARGET",
        "guideLayer": "QUEST_GUIDE_LAYER_SCENE",
        "MLAHIFLGIGJ": ""
      },
      "guideHint": {
        "param1": ""
      },
      "isRewind": true,
      "versionBegin": "",
      "versionEnd": ""
    },
    {
      "subId": 1300706,
      "mainId": 13007,
      "order": 8,
      "descTextMapHash": 1636818836,
      "JIFODJPFKDF": [
        330228,
        330229
      ],
      "finishCond": [
        {
          "damageRatio": "QUEST_CONTENT_COMPLETE_TALK",
          "param": [
            1300712,
            0
          ]
        }
      ],
      "guide": {
        "damageRatio": "QUEST_GUIDE_LOCATION",
        "param": [
          "Q1300702_N1054"
        ],
        "guideScene": 3,
        "guideStyle": "QUEST_GUIDE_STYLE_POINT",
        "guideLayer": "QUEST_GUIDE_LAYER_SCENE",
        "MLAHIFLGIGJ": ""
      },
      "guideHint": {
        "param1": ""
      },
      "isRewind": true,
      "finishExec": [
        {
          "damageRatio": "QUEST_EXEC_NOTIFY_GROUP_LUA",
          "param": [
            "3",
            "133304279"
          ]
        }
      ],
      "versionBegin": "",
      "versionEnd": ""
    },
    {
      "subId": 1300707,
      "mainId": 13007,
      "order": 10,
      "isMpBlock": true,
      "descTextMapHash": 1186857580,
      "JIFODJPFKDF": [
        330254
      ],
      "finishCond": [
        {
          "damageRatio": "QUEST_CONTENT_LUA_NOTIFY",
          "param": [
            0,
            0
          ],
          "count": 1
        }
      ],
      "failCond": [
        {
          "damageRatio": "QUEST_CONTENT_LUA_NOTIFY",
          "param": [
            0,
            0
          ],
          "count": 1
        },
        {
          "damageRatio": "QUEST_CONTENT_TEAM_DEAD",
          "param": [
            0,
            0
          ]
        },
        {
          "damageRatio": "QUEST_CONTENT_LEAVE_SCENE_RANGE",
          "param": [
            3,
            150
          ]
        },
        {
          "damageRatio": "QUEST_CONTENT_ANY_MANUAL_TRANSPORT",
          "param": [
            0,
            0
          ]
        }
      ],
      "guide": {
        "damageRatio": "QUEST_GUIDE_LOCATION",
        "param": [
          "Q1300713_guide",
          "200"
        ],
        "guideScene": 3,
        "guideStyle": "QUEST_GUIDE_STYLE_TARGET",
        "guideLayer": "QUEST_GUIDE_LAYER_SCENE",
        "MLAHIFLGIGJ": ""
      },
      "guideHint": {
        "param1": ""
      },
      "finishExec": [
        {
          "damageRatio": "QUEST_EXEC_REMOVE_TRIAL_AVATAR",
          "param": [
            "50"
          ]
        },
        {
          "damageRatio": "QUEST_EXEC_UNREGISTER_DYNAMIC_GROUP",
          "param": [
            "133302047",
            "1"
          ]
        },
        {
          "damageRatio": "QUEST_EXEC_NOTIFY_GROUP_LUA",
          "param": [
            "3",
            "133304279"
          ]
        }
      ],
      "failExec": [
        {
          "damageRatio": "QUEST_EXEC_REMOVE_TRIAL_AVATAR",
          "param": [
            "50"
          ]
        },
        {
          "damageRatio": "QUEST_EXEC_ROLLBACK_QUEST",
          "param": [
            "1300713"
          ]
        }
      ],
      "versionBegin": "",
      "versionEnd": ""
    },
    {
      "subId": 1300708,
      "mainId": 13007,
      "order": 13,
      "showType": "QUEST_HIDDEN",
      "guide": {
        "guideScene": 3,
        "guideStyle": "QUEST_GUIDE_STYLE_TARGET",
        "guideLayer": "QUEST_GUIDE_LAYER_SCENE",
        "MLAHIFLGIGJ": ""
      },
      "showGuide": "QUEST_GUIDE_ITEM_DISABLE",
      "guideHint": {
        "param1": ""
      },
      "versionBegin": "",
      "versionEnd": ""
    },
    {
      "subId": 1300709,
      "mainId": 13007,
      "order": 14,
      "showType": "QUEST_HIDDEN",
      "guide": {
        "guideScene": 3,
        "guideStyle": "QUEST_GUIDE_STYLE_TARGET",
        "guideLayer": "QUEST_GUIDE_LAYER_SCENE",
        "MLAHIFLGIGJ": ""
      },
      "showGuide": "QUEST_GUIDE_ITEM_DISABLE",
      "guideHint": {
        "param1": ""
      },
      "versionBegin": "",
      "versionEnd": ""
    },
    {
      "subId": 1300710,
      "mainId": 13007,
      "order": 11,
      "descTextMapHash": 1464489772,
      "JIFODJPFKDF": [
        330254
      ],
      "finishCond": [
        {
          "damageRatio": "QUEST_CONTENT_COMPLETE_TALK",
          "param": [
            1300719,
            0
          ]
        }
      ],
      "guide": {
        "damageRatio": "QUEST_GUIDE_NPC",
        "param": [
          "12713"
        ],
        "guideScene": 3,
        "guideStyle": "QUEST_GUIDE_STYLE_TARGET",
        "guideLayer": "QUEST_GUIDE_LAYER_SCENE",
        "MLAHIFLGIGJ": ""
      },
      "guideHint": {
        "param1": ""
      },
      "isRewind": true,
      "versionBegin": "",
      "versionEnd": ""
    },
    {
      "subId": 1300711,
      "mainId": 13007,
      "order": 5,
      "showType": "QUEST_HIDDEN",
      "JIFODJPFKDF": [
        330228,
        330229
      ],
      "finishCond": [
        {
          "damageRatio": "QUEST_CONTENT_ADD_QUEST_PROGRESS",
          "param": [
            1300711,
            0
          ],
          "count": 3
        }
      ],
      "guide": {
        "guideScene": 3,
        "guideStyle": "QUEST_GUIDE_STYLE_TARGET",
        "guideLayer": "QUEST_GUIDE_LAYER_SCENE",
        "MLAHIFLGIGJ": ""
      },
      "showGuide": "QUEST_GUIDE_ITEM_DISABLE",
      "guideHint": {
        "param1": ""
      },
      "finishExec": [
        {
          "damageRatio": "QUEST_EXEC_ADD_QUEST_PROGRESS",
          "param": [
            "1300714",
            "1"
          ]
        }
      ],
      "versionBegin": "",
      "versionEnd": ""
    },
    {
      "subId": 1300712,
      "mainId": 13007,
      "order": 12,
      "descTextMapHash": 2016878140,
      "JIFODJPFKDF": [
        330210
      ],
      "finishCond": [
        {
          "damageRatio": "QUEST_CONTENT_COMPLETE_TALK",
          "param": [
            1300720,
            0
          ]
        }
      ],
      "guide": {
        "damageRatio": "QUEST_GUIDE_LOCATION",
        "param": [
          "Q1300711_N1005"
        ],
        "guideScene": 3,
        "guideStyle": "QUEST_GUIDE_STYLE_POINT",
        "guideLayer": "QUEST_GUIDE_LAYER_SCENE",
        "MLAHIFLGIGJ": ""
      },
      "guideHint": {
        "param1": ""
      },
      "finishParent": true,
      "isRewind": true,
      "finishExec": [
        {
          "damageRatio": "QUEST_EXEC_UNREGISTER_DYNAMIC_GROUP",
          "param": [
            "133302533"
          ]
        }
      ],
      "versionBegin": "",
      "versionEnd": ""
    },
    {
      "subId": 1300713,
      "mainId": 13007,
      "order": 9,
      "isMpBlock": true,
      "descTextMapHash": 1577160796,
      "stepDescTextMapHash": 3623858285,
      "JIFODJPFKDF": [
        330254
      ],
      "finishCond": [
        {
          "damageRatio": "QUEST_CONTENT_COMPLETE_TALK",
          "param": [
            1300714,
            0
          ]
        }
      ],
      "guide": {
        "damageRatio": "QUEST_GUIDE_LOCATION",
        "param": [
          "Q1300713_guide"
        ],
        "guideScene": 3,
        "guideStyle": "QUEST_GUIDE_STYLE_POINT",
        "guideLayer": "QUEST_GUIDE_LAYER_SCENE",
        "MLAHIFLGIGJ": ""
      },
      "guideHint": {
        "param1": ""
      },
      "isRewind": true,
      "finishExec": [
        {
          "damageRatio": "QUEST_EXEC_GRANT_TRIAL_AVATAR",
          "param": [
            "50"
          ]
        }
      ],
      "versionBegin": "",
      "versionEnd": ""
    },
    {
      "subId": 1300714,
      "mainId": 13007,
      "order": 6,
      "showType": "QUEST_HIDDEN",
      "JIFODJPFKDF": [
        330228,
        330229
      ],
      "finishCond": [
        {
          "damageRatio": "QUEST_CONTENT_ADD_QUEST_PROGRESS",
          "param": [
            1300714,
            0
          ],
          "count": 1
        }
      ],
      "guide": {
        "MLAHIFLGIGJ": ""
      },
      "guideHint": {
        "param1": ""
      },
      "isRewind": true,
      "versionBegin": "",
      "versionEnd": ""
    }
  ],
  "talks": [
    {
      "id": 1300701,
      "beginWay": "TALK_BEGIN_MANUAL",
      "beginCond": [
        {
          "type": "QUEST_COND_STATE_EQUAL",
          "_param": [
            "1300701",
            "2"
          ]
        }
      ],
      "priority": 5,
      "initDialog": 130070101,
      "npcId": [
        4060,
        12711,
        12712,
        4061,
        4062,
        12713,
        12769,
        12770
      ],
      "performCfg": "QuestDialogue/LQ/Nilou1_13007/Q1300701",
      "heroTalk": "TALK_HERO_MAIN",
      "questId": 13007,
      "assetIndex": 15796823528090354967,
      "prePerformCfg": ""
    },
    {
      "id": 1300702,
      "beginWay": "TALK_BEGIN_MANUAL",
      "beginCondComb": "LOGIC_OR",
      "beginCond": [
        {
          "type": "QUEST_COND_STATE_EQUAL",
          "_param": [
            "1300714",
            "2"
          ]
        },
        {
          "type": "QUEST_COND_STATE_EQUAL",
          "_param": [
            "1300705",
            "2"
          ]
        },
        {
          "type": "QUEST_COND_STATE_EQUAL",
          "_param": [
            "1300706",
            "2"
          ]
        },
        {
          "type": "QUEST_COND_STATE_EQUAL",
          "_param": [
            "1300713",
            "2"
          ]
        }
      ],
      "priority": 5,
      "initDialog": 130070201,
      "npcId": [
        4062
      ],
      "performCfg": "QuestDialogue/LQ/Nilou1_13007/Q1300702",
      "heroTalk": "TALK_HERO_MAIN",
      "questId": 13007,
      "assetIndex": 3260982356750040149,
      "prePerformCfg": ""
    },
    {
      "id": 1300703,
      "beginWay": "TALK_BEGIN_MANUAL",
      "beginCondComb": "LOGIC_OR",
      "beginCond": [
        {
          "type": "QUEST_COND_STATE_EQUAL",
          "_param": [
            "1300714",
            "2"
          ]
        },
        {
          "type": "QUEST_COND_STATE_EQUAL",
          "_param": [
            "1300705",
            "2"
          ]
        },
        {
          "type": "QUEST_COND_STATE_EQUAL",
          "_param": [
            "1300706",
            "2"
          ]
        },
        {
          "type": "QUEST_COND_STATE_EQUAL",
          "_param": [
            "1300713",
            "2"
          ]
        }
      ],
      "priority": 5,
      "initDialog": 130070301,
      "npcId": [
        4061
      ],
      "performCfg": "QuestDialogue/LQ/Nilou1_13007/Q1300703",
      "heroTalk": "TALK_HERO_MAIN",
      "questId": 13007,
      "assetIndex": 17431582095238224229,
      "prePerformCfg": ""
    },
    {
      "id": 1300704,
      "beginWay": "TALK_BEGIN_MANUAL",
      "beginCondComb": "LOGIC_OR",
      "beginCond": [
        {
          "type": "QUEST_COND_STATE_EQUAL",
          "_param": [
            "1300714",
            "2"
          ]
        },
        {
          "type": "QUEST_COND_STATE_EQUAL",
          "_param": [
            "1300705",
            "2"
          ]
        },
        {
          "type": "QUEST_COND_STATE_EQUAL",
          "_param": [
            "1300713",
            "2"
          ]
        }
      ],
      "priority": 5,
      "initDialog": 130070401,
      "npcId": [
        12769,
        12770
      ],
      "performCfg": "QuestDialogue/LQ/Nilou1_13007/Q1300704",
      "heroTalk": "TALK_HERO_MAIN",
      "questId": 13007,
      "assetIndex": 13836338876568279282,
      "prePerformCfg": ""
    },
    {
      "id": 1300705,
      "beginWay": "TALK_BEGIN_MANUAL",
      "beginCond": [
        {
          "type": "QUEST_COND_STATE_EQUAL",
          "_param": [
            "1300702",
            "2"
          ]
        }
      ],
      "priority": 5,
      "initDialog": 130070501,
      "npcId": [
        12711
      ],
      "performCfg": "QuestDialogue/LQ/Nilou1_13007/Q1300705",
      "heroTalk": "TALK_HERO_MAIN",
      "questId": 13007,
      "assetIndex": 5882516318156226363,
      "prePerformCfg": ""
    },
    {
      "id": 1300706,
      "beginWay": "TALK_BEGIN_MANUAL",
      "beginCondComb": "LOGIC_A_AND_ETCOR",
      "beginCond": [
        {
          "type": "QUEST_COND_STATE_EQUAL",
          "_param": [
            "1300702",
            "3"
          ]
        },
        {
          "type": "QUEST_COND_STATE_EQUAL",
          "_param": [
            "1300714",
            "2"
          ]
        },
        {
          "type": "QUEST_COND_STATE_EQUAL",
          "_param": [
            "1300705",
            "2"
          ]
        },
        {
          "type": "QUEST_COND_STATE_EQUAL",
          "_param": [
            "1300706",
            "2"
          ]
        },
        {
          "type": "QUEST_COND_STATE_EQUAL",
          "_param": [
            "1300713",
            "2"
          ]
        }
      ],
      "priority": 5,
      "initDialog": 130070601,
      "npcId": [
        12711
      ],
      "performCfg": "QuestDialogue/LQ/Nilou1_13007/Q1300706",
      "heroTalk": "TALK_HERO_MAIN",
      "questId": 13007,
      "assetIndex": 17575715377445704638,
      "prePerformCfg": ""
    },
    {
      "id": 1300707,
      "beginWay": "TALK_BEGIN_MANUAL",
      "beginCond": [
        {
          "type": "QUEST_COND_STATE_EQUAL",
          "_param": [
            "1300703",
            "2"
          ]
        }
      ],
      "priority": 5,
      "initDialog": 130070701,
      "npcId": [
        12712
      ],
      "performCfg": "QuestDialogue/LQ/Nilou1_13007/Q1300707",
      "heroTalk": "TALK_HERO_MAIN",
      "questId": 13007,
      "assetIndex": 12796399102847592896,
      "prePerformCfg": ""
    },
    {
      "id": 1300708,
      "beginWay": "TALK_BEGIN_MANUAL",
      "beginCondComb": "LOGIC_A_AND_ETCOR",
      "beginCond": [
        {
          "type": "QUEST_COND_STATE_EQUAL",
          "_param": [
            "1300703",
            "3"
          ]
        },
        {
          "type": "QUEST_COND_STATE_EQUAL",
          "_param": [
            "1300714",
            "2"
          ]
        },
        {
          "type": "QUEST_COND_STATE_EQUAL",
          "_param": [
            "1300705",
            "2"
          ]
        },
        {
          "type": "QUEST_COND_STATE_EQUAL",
          "_param": [
            "1300706",
            "2"
          ]
        },
        {
          "type": "QUEST_COND_STATE_EQUAL",
          "_param": [
            "1300713",
            "2"
          ]
        }
      ],
      "priority": 5,
      "initDialog": 130070801,
      "npcId": [
        12712
      ],
      "performCfg": "QuestDialogue/LQ/Nilou1_13007/Q1300708",
      "heroTalk": "TALK_HERO_MAIN",
      "questId": 13007,
      "assetIndex": 1222205560811801927,
      "prePerformCfg": ""
    },
    {
      "id": 1300709,
      "beginWay": "TALK_BEGIN_MANUAL",
      "beginCond": [
        {
          "type": "QUEST_COND_STATE_EQUAL",
          "_param": [
            "1300704",
            "2"
          ]
        }
      ],
      "priority": 5,
      "initDialog": 130070901,
      "npcId": [
        4060
      ],
      "performCfg": "QuestDialogue/LQ/Nilou1_13007/Q1300709",
      "heroTalk": "TALK_HERO_MAIN",
      "questId": 13007,
      "assetIndex": 17833829755338622076,
      "prePerformCfg": ""
    },
    {
      "id": 1300710,
      "beginWay": "TALK_BEGIN_MANUAL",
      "beginCondComb": "LOGIC_A_AND_ETCOR",
      "beginCond": [
        {
          "type": "QUEST_COND_STATE_EQUAL",
          "_param": [
            "1300704",
            "3"
          ]
        },
        {
          "type": "QUEST_COND_STATE_EQUAL",
          "_param": [
            "1300714",
            "2"
          ]
        },
        {
          "type": "QUEST_COND_STATE_EQUAL",
          "_param": [
            "1300705",
            "2"
          ]
        },
        {
          "type": "QUEST_COND_STATE_EQUAL",
          "_param": [
            "1300706",
            "2"
          ]
        }
      ],
      "priority": 5,
      "initDialog": 130071001,
      "npcId": [
        4060
      ],
      "performCfg": "QuestDialogue/LQ/Nilou1_13007/Q1300710",
      "heroTalk": "TALK_HERO_MAIN",
      "questId": 13007,
      "assetIndex": 17001946750672159720,
      "prePerformCfg": ""
    },
    {
      "id": 1300711,
      "beginWay": "TALK_BEGIN_MANUAL",
      "beginCond": [
        {
          "type": "QUEST_COND_STATE_EQUAL",
          "_param": [
            "1300705",
            "2"
          ]
        }
      ],
      "priority": 5,
      "initDialog": 130071101,
      "npcId": [
        4059,
        4057,
        4055,
        4058
      ],
      "performCfg": "QuestDialogue/LQ/Nilou1_13007/Q1300711",
      "heroTalk": "TALK_HERO_MAIN",
      "questId": 13007,
      "assetIndex": 11102731482983599754,
      "prePerformCfg": ""
    },
    {
      "id": 1300712,
      "beginWay": "TALK_BEGIN_MANUAL",
      "beginCond": [
        {
          "type": "QUEST_COND_STATE_EQUAL",
          "_param": [
            "1300706",
            "2"
          ]
        }
      ],
      "priority": 5,
      "initDialog": 130071201,
      "npcId": [
        12770,
        12769
      ],
      "performCfg": "QuestDialogue/LQ/Nilou1_13007/Q1300712",
      "heroTalk": "TALK_HERO_MAIN",
      "questId": 13007,
      "assetIndex": 12567072742823641342,
      "prePerformCfg": "",
      "crowdLOD0List": [
        28
      ]
    },
    {
      "id": 1300713,
      "beginWay": "TALK_BEGIN_MANUAL",
      "beginCond": [
        {
          "type": "QUEST_COND_STATE_EQUAL",
          "_param": [
            "1300713",
            "2"
          ]
        }
      ],
      "priority": 5,
      "initDialog": 130071301,
      "npcId": [
        4060
      ],
      "performCfg": "QuestDialogue/LQ/Nilou1_13007/Q1300713",
      "heroTalk": "TALK_HERO_MAIN",
      "questId": 13007,
      "assetIndex": 1010509931232327933,
      "prePerformCfg": ""
    },
    {
      "id": 1300714,
      "beginWay": "TALK_BEGIN_MANUAL",
      "beginCond": [
        {
          "type": "QUEST_COND_STATE_EQUAL",
          "_param": [
            "1300713",
            "2"
          ]
        }
      ],
      "priority": 5,
      "initDialog": 130071401,
      "npcId": [
        1054
      ],
      "performCfg": "QuestDialogue/LQ/Nilou1_13007/Q1300714",
      "heroTalk": "TALK_HERO_MAIN",
      "questId": 13007,
      "assetIndex": 4466838252608606386,
      "prePerformCfg": ""
    },
    {
      "id": 1300715,
      "beginWay": "TALK_BEGIN_MANUAL",
      "beginCond": [
        {
          "type": "QUEST_COND_STATE_EQUAL",
          "_param": [
            "1300710",
            "2"
          ]
        }
      ],
      "priority": 5,
      "initDialog": 130071501,
      "npcId": [
        12713
      ],
      "performCfg": "QuestDialogue/LQ/Nilou1_13007/Q1300715",
      "heroTalk": "TALK_HERO_MAIN",
      "questId": 13007,
      "assetIndex": 16639828473192937602,
      "prePerformCfg": "",
      "lockGameTime": true
    },
    {
      "id": 1300716,
      "beginWay": "TALK_BEGIN_MANUAL",
      "beginCond": [
        {
          "type": "QUEST_COND_STATE_EQUAL",
          "_param": [
            "1300712",
            "2"
          ]
        }
      ],
      "priority": 5,
      "initDialog": 130071601,
      "npcId": [
        1054
      ],
      "performCfg": "QuestDialogue/LQ/Nilou1_13007/Q1300716",
      "heroTalk": "TALK_HERO_MAIN",
      "questId": 13007,
      "assetIndex": 17699939341381285162,
      "prePerformCfg": ""
    },
    {
      "id": 1300718,
      "beginWay": "TALK_BEGIN_MANUAL",
      "beginCondComb": "LOGIC_OR",
      "beginCond": [
        {
          "type": "QUEST_COND_STATE_EQUAL",
          "_param": [
            "1300706",
            "2"
          ]
        },
        {
          "type": "QUEST_COND_STATE_EQUAL",
          "_param": [
            "1300713",
            "2"
          ]
        }
      ],
      "priority": 5,
      "initDialog": 130071801,
      "npcId": [
        4059,
        4057,
        4055,
        4058
      ],
      "performCfg": "QuestDialogue/LQ/Nilou1_13007/Q1300718",
      "heroTalk": "TALK_HERO_MAIN",
      "questId": 13007,
      "assetIndex": 924214102100603826,
      "prePerformCfg": ""
    },
    {
      "id": 1300719,
      "beginCond": [
        {
          "type": "QUEST_COND_STATE_EQUAL",
          "_param": [
            "1300710",
            "2"
          ]
        }
      ],
      "priority": 5,
      "initDialog": 130071550,
      "npcId": [
        12713
      ],
      "performCfg": "QuestDialogue/LQ/Nilou1_13007/Q1300719",
      "heroTalk": "TALK_HERO_MAIN",
      "questId": 13007,
      "assetIndex": 12822705647861110761,
      "prePerformCfg": "",
      "lockGameTime": true
    },
    {
      "id": 1300720,
      "beginCond": [
        {
          "type": "QUEST_COND_STATE_EQUAL",
          "_param": [
            "1300712",
            "2"
          ]
        }
      ],
      "priority": 5,
      "initDialog": 130071623,
      "npcId": [
        1054
      ],
      "performCfg": "QuestDialogue/LQ/Nilou1_13007/Q1300720",
      "heroTalk": "TALK_HERO_MAIN",
      "questId": 13007,
      "assetIndex": 2244230232244184822,
      "prePerformCfg": ""
    },
    {
      "id": 1300721,
      "beginWay": "TALK_BEGIN_MANUAL",
      "beginCondComb": "LOGIC_OR",
      "beginCond": [
        {
          "type": "QUEST_COND_STATE_EQUAL",
          "_param": [
            "1300701",
            "2"
          ]
        },
        {
          "type": "QUEST_COND_STATE_EQUAL",
          "_param": [
            "1300714",
            "2"
          ]
        }
      ],
      "priority": 5,
      "initDialog": 130062801,
      "npcId": [
        4059,
        4057
      ],
      "performCfg": "QuestDialogue/LQ/Nilou1_13006/Q1300628",
      "heroTalk": "TALK_HERO_MAIN",
      "questId": 13007,
      "assetIndex": 4131642526086907802,
      "prePerformCfg": ""
    },
    {
      "id": 1300722,
      "beginWay": "TALK_BEGIN_MANUAL",
      "beginCondComb": "LOGIC_OR",
      "beginCond": [
        {
          "type": "QUEST_COND_STATE_EQUAL",
          "_param": [
            "1300701",
            "2"
          ]
        },
        {
          "type": "QUEST_COND_STATE_EQUAL",
          "_param": [
            "1300714",
            "2"
          ]
        },
        {
          "type": "QUEST_COND_STATE_EQUAL",
          "_param": [
            "1300705",
            "2"
          ]
        },
        {
          "type": "QUEST_COND_STATE_EQUAL",
          "_param": [
            "1300706",
            "2"
          ]
        },
        {
          "type": "QUEST_COND_STATE_EQUAL",
          "_param": [
            "1300713",
            "2"
          ]
        },
        {
          "type": "QUEST_COND_STATE_EQUAL",
          "_param": [
            "1300707",
            "2"
          ]
        }
      ],
      "priority": 5,
      "initDialog": 130062901,
      "npcId": [
        12880
      ],
      "performCfg": "",
      "heroTalk": "TALK_HERO_MAIN",
      "questId": 13007,
      "assetIndex": 1273173899789509881,
      "prePerformCfg": ""
    },
    {
      "id": 1300723,
      "beginWay": "TALK_BEGIN_MANUAL",
      "beginCondComb": "LOGIC_OR",
      "beginCond": [
        {
          "type": "QUEST_COND_STATE_EQUAL",
          "_param": [
            "1300710",
            "2"
          ]
        },
        {
          "type": "QUEST_COND_STATE_EQUAL",
          "_param": [
            "1300712",
            "2"
          ]
        }
      ],
      "priority": 5,
      "initDialog": 130062901,
      "npcId": [
        12880
      ],
      "performCfg": "",
      "heroTalk": "TALK_HERO_MAIN",
      "questId": 13007,
      "assetIndex": 16842553525289665890,
      "prePerformCfg": ""
    }
  ],
  "preloadLuaList": [
    16979048078378865524,
    5113174596282995910,
    18009365985632107539,
    6423918019057478863,
    10234847590306747447,
    8278318584459850882,
    2464905749141257602
  ],
  "forcePreloadLuaList": [
    13175432709898586179
  ],
  "freeStyleDic": {
    "12770": [
      1090
    ],
    "4060": [
      1120,
      1190
    ],
    "12712": [
      1190,
      1120
    ],
    "4062": [
      1120
    ],
    "4061": [
      1170
    ],
    "4057": [
      1120
    ],
    "4059": [
      1240
    ],
    "12769": [
      1060
    ],
    "12711": [
      1230
    ],
    "4055": [
      1170
    ],
    "4058": [
      1190
    ],
    "12713": [
      4190
    ]
  }
}