{
  "id": 13012,
  "resId": 8010,
  "series": 2032,
  "damageRatio": "LQ",
  "luaPath": "Actor/Quest/LQ13012",
  "showType": "QUEST_HIDDEN",
  "subQuests": [
    {
      "subId": 1301201,
      "mainId": 13012,
      "order": 1,
      "showType": "QUEST_HIDDEN",
      "finishCond": [
        {
          "damageRatio": "QUEST_CONTENT_LEAVE_SCENE_RANGE",
          "param": [
            3,
            80
          ]
        },
        {
          "damageRatio": "QUEST_CONTENT_ANY_MANUAL_TRANSPORT",
          "param": [
            0,
            0
          ]
        },
        {
          "damageRatio": "QUEST_CONTENT_QUEST_STATE_EQUAL",
          "param": [
            7380021,
            2
          ]
        },
        {
          "damageRatio": "QUEST_CONTENT_QUEST_STATE_EQUAL",
          "param": [
            302404,
            2
          ]
        },
        {
          "damageRatio": "QUEST_CONTENT_QUEST_STATE_EQUAL",
          "param": [
            302501,
            2
          ]
        }
      ],
      "guide": {
        "MLAHIFLGIGJ": ""
      },
      "showGuide": "QUEST_GUIDE_ITEM_DISABLE",
      "guideHint": {
        "param1": ""
      },
      "finishParent": true,
      "failParentShow": "QUEST_HIDDEN",
      "isRewind": true,
      "versionBegin": "",
      "versionEnd": ""
    },
    {
      "subId": 1301202,
      "mainId": 13012,
      "order": 2,
      "finishCond": [
        {
          "damageRatio": "QUEST_CONTENT_FINISH_PLOT",
          "param": [
            1301202,
            0
          ]
        }
      ],
      "guide": {
        "MLAHIFLGIGJ": ""
      },
      "showGuide": "QUEST_GUIDE_ITEM_DISABLE",
      "guideHint": {
        "param1": ""
      },
      "finishParent": true,
      "isRewind": true,
      "versionBegin": "",
      "versionEnd": ""
    }
  ],
  "talks": [
    {
      "id": 1301202,
      "beginWay": "TALK_BEGIN_MANUAL",
      "beginCond": [
        {
          "type": "QUEST_COND_STATE_EQUAL",
          "_param": [
            "1301201",
            "2"
          ]
        }
      ],
      "priority": 5,
      "initDialog": 130120201,
      "npcId": [
        1058
      ],
      "performCfg": "QuestDialogue/LQ/Cyno_13012/Q1301202",
      "heroTalk": "TALK_HERO_MAIN",
      "questId": 13012,
      "assetIndex": 12329415022983111064,
      "prePerformCfg": "",
      "questIdleTalk": true
    }
  ],
  "freeStyleDic": {
    "1058": [
      1190
    ]
  }
}