{
  "id": 13010,
  "resId": 2032,
  "series": 2032,
  "damageRatio": "LQ",
  "descTextMapHash": 1058219111,
  "EKEKACCODOE": 2158871038,
  "luaPath": "Actor/Quest/LQ13010",
  "suggestTrackMainQuestList": [
    13011
  ],
  "rewardIdList": [
    113010
  ],
  "chapterId": 2032,
  "subQuests": [
    {
      "subId": 1301001,
      "mainId": 13010,
      "order": 1,
      "descTextMapHash": 3745289508,
      "finishCond": [
        {
          "damageRatio": "QUEST_CONTENT_FINISH_PLOT",
          "param": [
            1301001,
            0
          ]
        }
      ],
      "guide": {
        "damageRatio": "QUEST_GUIDE_LOCATION",
        "param": [
          "Q1301001"
        ],
        "guideScene": 3,
        "guideStyle": "QUEST_GUIDE_STYLE_POINT",
        "guideLayer": "QUEST_GUIDE_LAYER_SCENE",
        "MLAHIFLGIGJ": ""
      },
      "guideHint": {
        "param1": ""
      },
      "isRewind": true,
      "finishExec": [
        {
          "damageRatio": "QUEST_EXEC_UNREGISTER_DYNAMIC_GROUP",
          "param": [
            "133308029",
            "0"
          ]
        }
      ],
      "versionBegin": "",
      "versionEnd": ""
    },
    {
      "subId": 1301002,
      "mainId": 13010,
      "order": 2,
      "descTextMapHash": 2215698748,
      "finishCond": [
        {
          "damageRatio": "QUEST_CONTENT_COMPLETE_TALK",
          "param": [
            1301002,
            0
          ]
        }
      ],
      "guide": {
        "damageRatio": "QUEST_GUIDE_NPC",
        "param": [
          "1058"
        ],
        "guideScene": 3,
        "guideStyle": "QUEST_GUIDE_STYLE_TARGET",
        "guideLayer": "QUEST_GUIDE_LAYER_SCENE",
        "MLAHIFLGIGJ": ""
      },
      "guideHint": {
        "param1": ""
      },
      "versionBegin": "",
      "versionEnd": ""
    },
    {
      "subId": 1301003,
      "mainId": 13010,
      "order": 4,
      "descTextMapHash": 1151375020,
      "stepDescTextMapHash": 1434308301,
      "finishCond": [
        {
          "damageRatio": "QUEST_CONTENT_LUA_NOTIFY",
          "param": [
            0,
            0
          ],
          "count": 1
        }
      ],
      "guide": {
        "damageRatio": "QUEST_GUIDE_LOCATION",
        "param": [
          "Q1301001",
          "30"
        ],
        "guideScene": 3,
        "guideStyle": "QUEST_GUIDE_STYLE_POINT",
        "guideLayer": "QUEST_GUIDE_LAYER_SCENE",
        "MLAHIFLGIGJ": ""
      },
      "guideHint": {
        "param1": ""
      },
      "finishExec": [
        {
          "damageRatio": "QUEST_EXEC_UNREGISTER_DYNAMIC_GROUP",
          "param": [
            "133308030",
            "0"
          ]
        }
      ],
      "versionBegin": "",
      "versionEnd": ""
    },
    {
      "subId": 1301004,
      "mainId": 13010,
      "order": 5,
      "descTextMapHash": 4192183588,
      "stepDescTextMapHash": 1849861677,
      "finishCond": [
        {
          "damageRatio": "QUEST_CONTENT_COMPLETE_TALK",
          "param": [
            1301004,
            0
          ]
        }
      ],
      "guide": {
        "damageRatio": "QUEST_GUIDE_LOCATION",
        "param": [
          "Q1301001",
          "30"
        ],
        "guideScene": 3,
        "guideStyle": "QUEST_GUIDE_STYLE_POINT",
        "guideLayer": "QUEST_GUIDE_LAYER_SCENE",
        "MLAHIFLGIGJ": ""
      },
      "guideHint": {
        "param1": ""
      },
      "isRewind": true,
      "finishExec": [
        {
          "damageRatio": "QUEST_EXEC_UNREGISTER_DYNAMIC_GROUP",
          "param": [
            "133308282",
            "1"
          ]
        }
      ],
      "versionBegin": "",
      "versionEnd": ""
    },
    {
      "subId": 1301005,
      "mainId": 13010,
      "order": 6,
      "descTextMapHash": 3610923036,
      "finishCond": [
        {
          "damageRatio": "QUEST_CONTENT_FINISH_PLOT",
          "param": [
            1301005,
            0
          ]
        }
      ],
      "guide": {
        "damageRatio": "QUEST_GUIDE_LOCATION",
        "param": [
          "C1301006_guide"
        ],
        "guideScene": 3,
        "guideStyle": "QUEST_GUIDE_STYLE_POINT",
        "guideLayer": "QUEST_GUIDE_LAYER_SCENE",
        "MLAHIFLGIGJ": ""
      },
      "guideHint": {
        "param1": ""
      },
      "isRewind": true,
      "versionBegin": "",
      "versionEnd": ""
    },
    {
      "subId": 1301006,
      "mainId": 13010,
      "order": 7,
      "descTextMapHash": 3073940972,
      "finishCond": [
        {
          "damageRatio": "QUEST_CONTENT_LUA_NOTIFY",
          "param": [
            0,
            0
          ],
          "count": 1
        }
      ],
      "guide": {
        "damageRatio": "QUEST_GUIDE_LOCATION",
        "param": [
          "C1301006_guide",
          "20"
        ],
        "guideScene": 3,
        "guideStyle": "QUEST_GUIDE_STYLE_POINT",
        "guideLayer": "QUEST_GUIDE_LAYER_SCENE",
        "MLAHIFLGIGJ": ""
      },
      "guideHint": {
        "param1": ""
      },
      "finishExec": [
        {
          "damageRatio": "QUEST_EXEC_UNREGISTER_DYNAMIC_GROUP",
          "param": [
            "133308281",
            "0"
          ]
        }
      ],
      "versionBegin": "",
      "versionEnd": ""
    },
    {
      "subId": 1301007,
      "mainId": 13010,
      "order": 17,
      "descTextMapHash": 2835783556,
      "stepDescTextMapHash": 2678864301,
      "JIFODJPFKDF": [
        330311
      ],
      "finishCond": [
        {
          "damageRatio": "QUEST_CONTENT_FINISH_PLOT",
          "param": [
            1301007,
            0
          ]
        }
      ],
      "guide": {
        "damageRatio": "QUEST_GUIDE_LOCATION",
        "param": [
          "Q1301011",
          "30"
        ],
        "guideScene": 3,
        "guideStyle": "QUEST_GUIDE_STYLE_POINT",
        "guideLayer": "QUEST_GUIDE_LAYER_SCENE",
        "MLAHIFLGIGJ": ""
      },
      "guideHint": {
        "param1": ""
      },
      "isRewind": true,
      "versionBegin": "",
      "versionEnd": ""
    },
    {
      "subId": 1301008,
      "mainId": 13010,
      "order": 18,
      "descTextMapHash": 4210764340,
      "JIFODJPFKDF": [
        330311
      ],
      "finishCond": [
        {
          "damageRatio": "QUEST_CONTENT_COMPLETE_TALK",
          "param": [
            1301008,
            0
          ]
        }
      ],
      "guide": {
        "damageRatio": "QUEST_GUIDE_NPC",
        "param": [
          "1058"
        ],
        "guideScene": 3,
        "guideStyle": "QUEST_GUIDE_STYLE_TARGET",
        "guideLayer": "QUEST_GUIDE_LAYER_SCENE",
        "MLAHIFLGIGJ": ""
      },
      "guideHint": {
        "param1": ""
      },
      "finishParent": true,
      "finishExec": [
        {
          "damageRatio": "QUEST_EXEC_UNREGISTER_DYNAMIC_GROUP",
          "param": [
            "133303402",
            "0"
          ]
        }
      ],
      "versionBegin": "",
      "versionEnd": ""
    },
    {
      "subId": 1301009,
      "mainId": 13010,
      "order": 8,
      "descTextMapHash": 1478253652,
      "finishCond": [
        {
          "damageRatio": "QUEST_CONTENT_COMPLETE_TALK",
          "param": [
            1301006,
            0
          ]
        }
      ],
      "guide": {
        "damageRatio": "QUEST_GUIDE_LOCATION",
        "param": [
          "Q1301008"
        ],
        "guideScene": 3,
        "guideStyle": "QUEST_GUIDE_STYLE_POINT",
        "guideLayer": "QUEST_GUIDE_LAYER_SCENE",
        "MLAHIFLGIGJ": ""
      },
      "guideHint": {
        "param1": ""
      },
      "isRewind": true,
      "versionBegin": "",
      "versionEnd": ""
    },
    {
      "subId": 1301010,
      "mainId": 13010,
      "order": 15,
      "descTextMapHash": 3717696924,
      "stepDescTextMapHash": 1108047877,
      "JIFODJPFKDF": [
        330811
      ],
      "finishCond": [
        {
          "damageRatio": "QUEST_CONTENT_COMPLETE_TALK",
          "param": [
            1301010,
            0
          ]
        }
      ],
      "guide": {
        "damageRatio": "QUEST_GUIDE_LOCATION",
        "param": [
          "Q1301010_N10000005"
        ],
        "guideScene": 3,
        "guideStyle": "QUEST_GUIDE_STYLE_POINT",
        "guideLayer": "QUEST_GUIDE_LAYER_SCENE",
        "MLAHIFLGIGJ": ""
      },
      "guideHint": {
        "param1": ""
      },
      "isRewind": true,
      "versionBegin": "",
      "versionEnd": ""
    },
    {
      "subId": 1301011,
      "mainId": 13010,
      "order": 16,
      "descTextMapHash": 3282109740,
      "stepDescTextMapHash": 1694117333,
      "finishCond": [
        {
          "damageRatio": "QUEST_CONTENT_COMPLETE_TALK",
          "param": [
            1301007,
            0
          ]
        }
      ],
      "guide": {
        "damageRatio": "QUEST_GUIDE_LOCATION",
        "param": [
          "Q1301008",
          "30"
        ],
        "guideScene": 3,
        "guideStyle": "QUEST_GUIDE_STYLE_POINT",
        "guideLayer": "QUEST_GUIDE_LAYER_SCENE",
        "MLAHIFLGIGJ": ""
      },
      "guideHint": {
        "param1": ""
      },
      "isRewind": true,
      "finishExec": [
        {
          "damageRatio": "QUEST_EXEC_UNREGISTER_DYNAMIC_GROUP",
          "param": [
            "133308031",
            "1"
          ]
        }
      ],
      "versionBegin": "",
      "versionEnd": ""
    },
    {
      "subId": 1301012,
      "mainId": 13010,
      "order": 3,
      "showType": "QUEST_HIDDEN",
      "finishCond": [
        {
          "damageRatio": "QUEST_CONTENT_FINISH_PLOT",
          "param": [
            1301012,
            0
          ]
        }
      ],
      "guide": {
        "MLAHIFLGIGJ": ""
      },
      "guideHint": {
        "param1": ""
      },
      "failParentShow": "QUEST_HIDDEN",
      "finishExec": [
        {
          "damageRatio": "QUEST_EXEC_REGISTER_DYNAMIC_GROUP_ONLY",
          "param": [
            "133308030"
          ]
        },
        {
          "damageRatio": "QUEST_EXEC_REFRESH_GROUP_SUITE",
          "param": [
            "3",
            "133308030,3"
          ]
        }
      ],
      "versionBegin": "",
      "versionEnd": ""
    },
    {
      "subId": 1301013,
      "mainId": 13010,
      "order": 14,
      "descTextMapHash": 836518068,
      "finishCond": [
        {
          "damageRatio": "QUEST_CONTENT_COMPLETE_TALK",
          "param": [
            1301012,
            0
          ]
        }
      ],
      "guide": {
        "damageRatio": "QUEST_GUIDE_LOCATION",
        "param": [
          "Q1301008",
          "30"
        ],
        "guideScene": 3,
        "guideStyle": "QUEST_GUIDE_STYLE_POINT",
        "guideLayer": "QUEST_GUIDE_LAYER_SCENE",
        "MLAHIFLGIGJ": ""
      },
      "guideHint": {
        "param1": ""
      },
      "isRewind": true,
      "versionBegin": "",
      "versionEnd": ""
    },
    {
      "subId": 1301014,
      "mainId": 13010,
      "order": 13,
      "showType": "QUEST_HIDDEN",
      "finishCond": [
        {
          "damageRatio": "QUEST_CONTENT_QUEST_STATE_EQUAL",
          "param": [
            1301018,
            3
          ]
        },
        {
          "damageRatio": "QUEST_CONTENT_QUEST_STATE_EQUAL",
          "param": [
            1301017,
            3
          ]
        },
        {
          "damageRatio": "QUEST_CONTENT_QUEST_STATE_EQUAL",
          "param": [
            1301016,
            3
          ]
        },
        {
          "damageRatio": "QUEST_CONTENT_QUEST_STATE_EQUAL",
          "param": [
            1301015,
            3
          ]
        }
      ],
      "guide": {
        "MLAHIFLGIGJ": ""
      },
      "guideHint": {
        "param1": ""
      },
      "failParentShow": "QUEST_HIDDEN",
      "isRewind": true,
      "finishExec": [
        {
          "damageRatio": "QUEST_EXEC_UNREGISTER_DYNAMIC_GROUP",
          "param": [
            "133308368",
            "0"
          ]
        }
      ],
      "versionBegin": "",
      "versionEnd": ""
    },
    {
      "subId": 1301015,
      "mainId": 13010,
      "order": 12,
      "subIdSet": 1,
      "descTextMapHash": 2769972932,
      "finishCond": [
        {
          "damageRatio": "QUEST_CONTENT_COMPLETE_TALK",
          "param": [
            1301016,
            0
          ]
        }
      ],
      "guide": {
        "damageRatio": "QUEST_GUIDE_LOCATION",
        "param": [
          "Q1301015"
        ],
        "guideScene": 3,
        "guideStyle": "QUEST_GUIDE_STYLE_TARGET",
        "guideLayer": "QUEST_GUIDE_LAYER_SCENE",
        "MLAHIFLGIGJ": ""
      },
      "guideHint": {
        "param1": ""
      },
      "isRewind": true,
      "versionBegin": "",
      "versionEnd": ""
    },
    {
      "subId": 1301016,
      "mainId": 13010,
      "order": 11,
      "subIdSet": 1,
      "descTextMapHash": 1993185748,
      "finishCond": [
        {
          "damageRatio": "QUEST_CONTENT_COMPLETE_TALK",
          "param": [
            1301015,
            0
          ]
        }
      ],
      "guide": {
        "damageRatio": "QUEST_GUIDE_LOCATION",
        "param": [
          "Q1301016"
        ],
        "guideScene": 3,
        "guideStyle": "QUEST_GUIDE_STYLE_TARGET",
        "guideLayer": "QUEST_GUIDE_LAYER_SCENE",
        "MLAHIFLGIGJ": ""
      },
      "guideHint": {
        "param1": ""
      },
      "isRewind": true,
      "versionBegin": "",
      "versionEnd": ""
    },
    {
      "subId": 1301017,
      "mainId": 13010,
      "order": 10,
      "subIdSet": 1,
      "descTextMapHash": 2090209732,
      "finishCond": [
        {
          "damageRatio": "QUEST_CONTENT_COMPLETE_TALK",
          "param": [
            1301014,
            0
          ]
        }
      ],
      "guide": {
        "damageRatio": "QUEST_GUIDE_LOCATION",
        "param": [
          "Q1301017"
        ],
        "guideScene": 3,
        "guideStyle": "QUEST_GUIDE_STYLE_TARGET",
        "guideLayer": "QUEST_GUIDE_LAYER_SCENE",
        "MLAHIFLGIGJ": ""
      },
      "guideHint": {
        "param1": ""
      },
      "isRewind": true,
      "versionBegin": "",
      "versionEnd": ""
    },
    {
      "subId": 1301018,
      "mainId": 13010,
      "order": 9,
      "subIdSet": 1,
      "descTextMapHash": 2369515676,
      "finishCond": [
        {
          "damageRatio": "QUEST_CONTENT_COMPLETE_TALK",
          "param": [
            1301013,
            0
          ]
        }
      ],
      "guide": {
        "damageRatio": "QUEST_GUIDE_LOCATION",
        "param": [
          "Q1301018"
        ],
        "guideScene": 3,
        "guideStyle": "QUEST_GUIDE_STYLE_TARGET",
        "guideLayer": "QUEST_GUIDE_LAYER_SCENE",
        "MLAHIFLGIGJ": ""
      },
      "guideHint": {
        "param1": ""
      },
      "isRewind": true,
      "finishExec": [
        {
          "damageRatio": "QUEST_EXEC_REFRESH_GROUP_SUITE",
          "param": [
            "3",
            "133308368,2"
          ]
        }
      ],
      "versionBegin": "",
      "versionEnd": ""
    },
    {
      "subId": 1301019,
      "mainId": 13010,
      "order": 19,
      "showType": "QUEST_HIDDEN",
      "finishCond": [
        {
          "damageRatio": "QUEST_CONTENT_FINISH_PLOT",
          "param": [
            1301019,
            0
          ]
        }
      ],
      "guide": {
        "MLAHIFLGIGJ": ""
      },
      "showGuide": "QUEST_GUIDE_ITEM_DISABLE",
      "guideHint": {
        "param1": ""
      },
      "failParentShow": "QUEST_HIDDEN",
      "finishExec": [
        {
          "damageRatio": "QUEST_EXEC_REFRESH_GROUP_SUITE",
          "param": [
            "3",
            "133303402,2"
          ]
        }
      ],
      "versionBegin": "",
      "versionEnd": ""
    }
  ],
  "talks": [
    {
      "id": 1301002,
      "beginWay": "TALK_BEGIN_MANUAL",
      "beginCond": [
        {
          "type": "QUEST_COND_STATE_EQUAL",
          "_param": [
            "1301002",
            "2"
          ]
        }
      ],
      "priority": 5,
      "initDialog": 130100201,
      "npcId": [
        1058
      ],
      "performCfg": "QuestDialogue/LQ/Cyno_13010/Q1301002",
      "heroTalk": "TALK_HERO_MAIN",
      "questId": 13010,
      "assetIndex": 6776711717331867081,
      "prePerformCfg": "",
      "lockGameTime": true
    },
    {
      "id": 1301004,
      "beginWay": "TALK_BEGIN_MANUAL",
      "beginCond": [
        {
          "type": "QUEST_COND_STATE_EQUAL",
          "_param": [
            "1301004",
            "2"
          ]
        }
      ],
      "priority": 5,
      "initDialog": 130100401,
      "npcId": [
        1058
      ],
      "performCfg": "QuestDialogue/LQ/Cyno_13010/Q1301004",
      "heroTalk": "TALK_HERO_MAIN",
      "questId": 13010,
      "assetIndex": 9667471630966076615,
      "prePerformCfg": "",
      "lockGameTime": true
    },
    {
      "id": 1301006,
      "beginWay": "TALK_BEGIN_MANUAL",
      "beginCond": [
        {
          "type": "QUEST_COND_STATE_EQUAL",
          "_param": [
            "1301009",
            "2"
          ]
        }
      ],
      "priority": 5,
      "initDialog": 130100601,
      "npcId": [
        1058
      ],
      "performCfg": "QuestDialogue/LQ/Cyno_13010/Q1301006",
      "heroTalk": "TALK_HERO_MAIN",
      "questId": 13010,
      "assetIndex": 7238727463196972436,
      "prePerformCfg": ""
    },
    {
      "id": 1301007,
      "beginWay": "TALK_BEGIN_MANUAL",
      "beginCond": [
        {
          "type": "QUEST_COND_STATE_EQUAL",
          "_param": [
            "1301011",
            "2"
          ]
        }
      ],
      "priority": 5,
      "initDialog": 130100701,
      "npcId": [
        1058,
        12780
      ],
      "performCfg": "QuestDialogue/LQ/Cyno_13010/Q1301007",
      "heroTalk": "TALK_HERO_MAIN",
      "questId": 13010,
      "assetIndex": 7136872935497349554,
      "prePerformCfg": ""
    },
    {
      "id": 1301008,
      "beginWay": "TALK_BEGIN_MANUAL",
      "beginCond": [
        {
          "type": "QUEST_COND_STATE_EQUAL",
          "_param": [
            "1301008",
            "2"
          ]
        }
      ],
      "priority": 5,
      "initDialog": 130100801,
      "npcId": [
        12781,
        12780,
        1058
      ],
      "performCfg": "QuestDialogue/LQ/Cyno_13010/Q1301008",
      "heroTalk": "TALK_HERO_MAIN",
      "questId": 13010,
      "assetIndex": 6374428583673944172,
      "prePerformCfg": ""
    },
    {
      "id": 1301010,
      "beginWay": "TALK_BEGIN_MANUAL",
      "beginCond": [
        {
          "type": "QUEST_COND_STATE_EQUAL",
          "_param": [
            "1301010",
            "2"
          ]
        }
      ],
      "priority": 5,
      "initDialog": 130101001,
      "npcId": [
        1005
      ],
      "performCfg": "QuestDialogue/LQ/Cyno_13010/Q1301010",
      "heroTalk": "TALK_HERO_MAIN",
      "questId": 13010,
      "assetIndex": 3501237780388276368,
      "prePerformCfg": ""
    },
    {
      "id": 1301011,
      "beginWay": "TALK_BEGIN_MANUAL",
      "beginCond": [
        {
          "type": "QUEST_COND_STATE_EQUAL",
          "_param": [
            "1301010",
            "2"
          ]
        }
      ],
      "priority": 5,
      "initDialog": 130101101,
      "npcId": [
        1058
      ],
      "performCfg": "QuestDialogue/LQ/Cyno_13010/Q1301011",
      "heroTalk": "TALK_HERO_MAIN",
      "questId": 13010,
      "assetIndex": 15651777472248314432,
      "prePerformCfg": ""
    },
    {
      "id": 1301012,
      "beginWay": "TALK_BEGIN_MANUAL",
      "beginCond": [
        {
          "type": "QUEST_COND_STATE_EQUAL",
          "_param": [
            "1301013",
            "2"
          ]
        }
      ],
      "priority": 5,
      "initDialog": 130100610,
      "npcId": [
        1058
      ],
      "performCfg": "QuestDialogue/LQ/Cyno_13010/Q1301012",
      "heroTalk": "TALK_HERO_MAIN",
      "questId": 13010,
      "assetIndex": 8678201538579700553,
      "prePerformCfg": ""
    },
    {
      "id": 1301013,
      "beginWay": "TALK_BEGIN_MANUAL",
      "beginCond": [
        {
          "type": "QUEST_COND_STATE_EQUAL",
          "_param": [
            "1301018",
            "2"
          ]
        }
      ],
      "priority": 5,
      "initDialog": 130101301,
      "npcId": [
        12946
      ],
      "performCfg": "",
      "heroTalk": "TALK_HERO_MAIN",
      "questId": 13010,
      "assetIndex": 13784095534922036942,
      "prePerformCfg": ""
    },
    {
      "id": 1301014,
      "beginWay": "TALK_BEGIN_MANUAL",
      "beginCond": [
        {
          "type": "QUEST_COND_STATE_EQUAL",
          "_param": [
            "1301017",
            "2"
          ]
        }
      ],
      "priority": 5,
      "initDialog": 130101401,
      "npcId": [
        12948
      ],
      "performCfg": "",
      "heroTalk": "TALK_HERO_MAIN",
      "questId": 13010,
      "assetIndex": 15223520729097481353,
      "prePerformCfg": ""
    },
    {
      "id": 1301015,
      "beginWay": "TALK_BEGIN_MANUAL",
      "beginCond": [
        {
          "type": "QUEST_COND_STATE_EQUAL",
          "_param": [
            "1301016",
            "2"
          ]
        }
      ],
      "priority": 5,
      "initDialog": 130101501,
      "npcId": [
        12949
      ],
      "performCfg": "",
      "heroTalk": "TALK_HERO_MAIN",
      "questId": 13010,
      "assetIndex": 15232001073371975369,
      "prePerformCfg": ""
    },
    {
      "id": 1301016,
      "beginWay": "TALK_BEGIN_MANUAL",
      "beginCond": [
        {
          "type": "QUEST_COND_STATE_EQUAL",
          "_param": [
            "1301015",
            "2"
          ]
        }
      ],
      "priority": 5,
      "initDialog": 130101601,
      "npcId": [
        12950
      ],
      "performCfg": "",
      "heroTalk": "TALK_HERO_MAIN",
      "questId": 13010,
      "assetIndex": 9635786166205047611,
      "prePerformCfg": ""
    }
  ],
  "preloadLuaList": [
    14457059026087496718,
    2858382785734765194,
    16193793900381630729,
    11605834080783451708,
    4079654459969517965
  ],
  "forcePreloadLuaList": [
    11978973506217311493
  ],
  "freeStyleDic": {
    "1058": [
      1120
    ],
    "12780": [
      1240
    ]
  }
}