{
  "id": 14006,
  "resId": 2042,
  "series": 2042,
  "damageRatio": "LQ",
  "descTextMapHash": 2587452823,
  "EKEKACCODOE": 3786452534,
  "luaPath": "Actor/Quest/LQ14006",
  "rewardIdList": [
    114006
  ],
  "chapterId": 2042,
  "BONJIMPOJLG": true,
  "subQuests": [
    {
      "subId": 1400601,
      "mainId": 14006,
      "order": 1,
      "descTextMapHash": 2403287788,
      "JIFODJPFKDF": [
        340819,
        340837
      ],
      "finishCond": [
        {
          "damageRatio": "QUEST_CONTENT_COMPLETE_TALK",
          "param": [
            1400601,
            0
          ]
        }
      ],
      "guide": {
        "damageRatio": "QUEST_GUIDE_LOCATION",
        "param": [
          "[3_5164:4497.419,121.603,4631.018]",
          "20"
        ],
        "guideScene": 3,
        "guideStyle": "QUEST_GUIDE_STYLE_POINT",
        "guideLayer": "QUEST_GUIDE_LAYER_SCENE",
        "MLAHIFLGIGJ": ""
      },
      "guideHint": {
        "param1": ""
      },
      "isRewind": true,
      "versionBegin": "",
      "versionEnd": ""
    },
    {
      "subId": 1400602,
      "mainId": 14006,
      "order": 4,
      "subIdSet": 1,
      "descTextMapHash": 4163231644,
      "JIFODJPFKDF": [
        340819,
        340837
      ],
      "finishCond": [
        {
          "damageRatio": "QUEST_CONTENT_COMPLETE_TALK",
          "param": [
            1400602,
            0
          ]
        }
      ],
      "guide": {
        "damageRatio": "QUEST_GUIDE_NPC",
        "autoGuide": "QUEST_GUIDE_AUTO_ENABLE",
        "param": [
          "1078"
        ],
        "guideScene": 3,
        "guideStyle": "QUEST_GUIDE_STYLE_TARGET",
        "guideLayer": "QUEST_GUIDE_LAYER_SCENE",
        "MLAHIFLGIGJ": ""
      },
      "guideHint": {
        "param1": ""
      },
      "versionBegin": "",
      "versionEnd": ""
    },
    {
      "subId": 1400603,
      "mainId": 14006,
      "order": 5,
      "subIdSet": 1,
      "descTextMapHash": 4023855228,
      "JIFODJPFKDF": [
        340819,
        340837
      ],
      "finishCond": [
        {
          "damageRatio": "QUEST_CONTENT_COMPLETE_TALK",
          "param": [
            1400603,
            0
          ]
        }
      ],
      "guide": {
        "damageRatio": "QUEST_GUIDE_LOCATION",
        "autoGuide": "QUEST_GUIDE_AUTO_ENABLE",
        "param": [
          "[3_6770:4505.727,123.355,4625.278]"
        ],
        "guideScene": 3,
        "guideStyle": "QUEST_GUIDE_STYLE_TARGET",
        "guideLayer": "QUEST_GUIDE_LAYER_SCENE",
        "MLAHIFLGIGJ": ""
      },
      "guideHint": {
        "param1": ""
      },
      "versionBegin": "",
      "versionEnd": ""
    },
    {
      "subId": 1400604,
      "mainId": 14006,
      "order": 6,
      "subIdSet": 1,
      "descTextMapHash": 3120085668,
      "JIFODJPFKDF": [
        340819,
        340837
      ],
      "finishCond": [
        {
          "damageRatio": "QUEST_CONTENT_COMPLETE_TALK",
          "param": [
            1400604,
            0
          ]
        }
      ],
      "guide": {
        "damageRatio": "QUEST_GUIDE_LOCATION",
        "autoGuide": "QUEST_GUIDE_AUTO_ENABLE",
        "param": [
          "[3_6582:4501.531,121.646,4628.607,0.000,245.354,0.000]"
        ],
        "guideScene": 3,
        "guideStyle": "QUEST_GUIDE_STYLE_POINT",
        "guideLayer": "QUEST_GUIDE_LAYER_SCENE",
        "MLAHIFLGIGJ": ""
      },
      "guideHint": {
        "param1": ""
      },
      "versionBegin": "",
      "versionEnd": ""
    },
    {
      "subId": 1400605,
      "mainId": 14006,
      "order": 7,
      "subIdSet": 1,
      "descTextMapHash": 1702233940,
      "JIFODJPFKDF": [
        340819,
        340837
      ],
      "finishCond": [
        {
          "damageRatio": "QUEST_CONTENT_QUEST_STATE_EQUAL",
          "param": [
            1400602,
            3
          ]
        },
        {
          "damageRatio": "QUEST_CONTENT_QUEST_STATE_EQUAL",
          "param": [
            1400603,
            3
          ]
        },
        {
          "damageRatio": "QUEST_CONTENT_QUEST_STATE_EQUAL",
          "param": [
            1400604,
            3
          ]
        }
      ],
      "guide": {
        "damageRatio": "QUEST_GUIDE_LOCATION",
        "param": [
          "[3_5163:4496.436,121.600,4627.008,0.584,58.033,359.508]",
          "30"
        ],
        "guideScene": 3,
        "guideStyle": "QUEST_GUIDE_STYLE_POINT",
        "guideLayer": "QUEST_GUIDE_LAYER_SCENE",
        "MLAHIFLGIGJ": ""
      },
      "guideHint": {
        "param1": ""
      },
      "isRewind": true,
      "versionBegin": "",
      "versionEnd": ""
    },
    {
      "subId": 1400606,
      "mainId": 14006,
      "order": 8,
      "descTextMapHash": 1723682644,
      "JIFODJPFKDF": [
        340819,
        340837
      ],
      "finishCond": [
        {
          "damageRatio": "QUEST_CONTENT_COMPLETE_TALK",
          "param": [
            1400606,
            0
          ]
        }
      ],
      "guide": {
        "damageRatio": "QUEST_GUIDE_LOCATION",
        "param": [
          "[3_5165:4499.266,121.600,4632.722]",
          "0"
        ],
        "guideScene": 3,
        "guideStyle": "QUEST_GUIDE_STYLE_POINT",
        "guideLayer": "QUEST_GUIDE_LAYER_SCENE",
        "MLAHIFLGIGJ": ""
      },
      "guideHint": {
        "param1": ""
      },
      "isRewind": true,
      "versionBegin": "",
      "versionEnd": ""
    },
    {
      "subId": 1400607,
      "mainId": 14006,
      "order": 11,
      "isMpBlock": true,
      "descTextMapHash": 1197208916,
      "JIFODJPFKDF": [
        340819,
        340838
      ],
      "finishCond": [
        {
          "damageRatio": "QUEST_CONTENT_COMPLETE_TALK",
          "param": [
            1400607,
            0
          ]
        }
      ],
      "failCond": [
        {
          "damageRatio": "QUEST_CONTENT_LEAVE_SCENE_RANGE",
          "param": [
            3,
            70
          ]
        },
        {
          "damageRatio": "QUEST_CONTENT_NOT_FINISH_PLOT",
          "param": [
            1400607,
            0
          ]
        }
      ],
      "guide": {
        "damageRatio": "QUEST_GUIDE_LOCATION",
        "param": [
          "[3_5166:4443.597,6.085,4638.485]",
          "50"
        ],
        "guideScene": 3,
        "guideStyle": "QUEST_GUIDE_STYLE_POINT",
        "guideLayer": "QUEST_GUIDE_LAYER_SCENE",
        "MLAHIFLGIGJ": ""
      },
      "guideHint": {
        "param1": ""
      },
      "failExec": [
        {
          "damageRatio": "QUEST_EXEC_ROLLBACK_QUEST",
          "param": [
            "1400631"
          ]
        },
        {
          "damageRatio": "QUEST_EXEC_UNLOCK_AVATAR_TEAM_V2"
        }
      ],
      "versionBegin": "",
      "versionEnd": ""
    },
    {
      "subId": 1400608,
      "mainId": 14006,
      "order": 12,
      "isMpBlock": true,
      "descTextMapHash": 1331871828,
      "JIFODJPFKDF": [
        340819,
        340838
      ],
      "finishCond": [
        {
          "damageRatio": "QUEST_CONTENT_FINISH_PLOT",
          "param": [
            1400608,
            0
          ]
        }
      ],
      "failCond": [
        {
          "damageRatio": "QUEST_CONTENT_LEAVE_SCENE_RANGE",
          "param": [
            3,
            70
          ]
        },
        {
          "damageRatio": "QUEST_CONTENT_NOT_FINISH_PLOT",
          "param": [
            1400608,
            0
          ]
        }
      ],
      "guide": {
        "damageRatio": "QUEST_GUIDE_NPC",
        "autoGuide": "QUEST_GUIDE_AUTO_ENABLE",
        "param": [
          "1078"
        ],
        "guideScene": 3,
        "guideStyle": "QUEST_GUIDE_STYLE_TARGET",
        "guideLayer": "QUEST_GUIDE_LAYER_SCENE",
        "MLAHIFLGIGJ": ""
      },
      "guideHint": {
        "param1": ""
      },
      "failExec": [
        {
          "damageRatio": "QUEST_EXEC_ROLLBACK_QUEST",
          "param": [
            "1400631"
          ]
        },
        {
          "damageRatio": "QUEST_EXEC_UNLOCK_AVATAR_TEAM_V2"
        }
      ],
      "versionBegin": "",
      "versionEnd": ""
    },
    {
      "subId": 1400609,
      "mainId": 14006,
      "order": 13,
      "isMpBlock": true,
      "descTextMapHash": 2957558916,
      "JIFODJPFKDF": [
        340819,
        340838
      ],
      "finishCond": [
        {
          "damageRatio": "QUEST_CONTENT_FINISH_PLOT",
          "param": [
            1400609,
            0
          ]
        }
      ],
      "failCond": [
        {
          "damageRatio": "QUEST_CONTENT_LEAVE_SCENE_RANGE",
          "param": [
            3,
            70
          ]
        },
        {
          "damageRatio": "QUEST_CONTENT_NOT_FINISH_PLOT",
          "param": [
            1400609,
            0
          ]
        }
      ],
      "guide": {
        "damageRatio": "QUEST_GUIDE_NPC",
        "autoGuide": "QUEST_GUIDE_AUTO_ENABLE",
        "param": [
          "13485"
        ],
        "guideScene": 3,
        "guideStyle": "QUEST_GUIDE_STYLE_TARGET",
        "guideLayer": "QUEST_GUIDE_LAYER_SCENE",
        "MLAHIFLGIGJ": ""
      },
      "guideHint": {
        "param1": ""
      },
      "failExec": [
        {
          "damageRatio": "QUEST_EXEC_ROLLBACK_QUEST",
          "param": [
            "1400631"
          ]
        },
        {
          "damageRatio": "QUEST_EXEC_UNLOCK_AVATAR_TEAM_V2"
        }
      ],
      "versionBegin": "",
      "versionEnd": ""
    },
    {
      "subId": 1400610,
      "mainId": 14006,
      "order": 14,
      "isMpBlock": true,
      "descTextMapHash": 2739427916,
      "JIFODJPFKDF": [
        340819,
        340838
      ],
      "finishCond": [
        {
          "damageRatio": "QUEST_CONTENT_COMPLETE_TALK",
          "param": [
            1400609,
            0
          ]
        },
        {
          "damageRatio": "QUEST_CONTENT_COMPLETE_TALK",
          "param": [
            1400610,
            0
          ]
        }
      ],
      "failCond": [
        {
          "damageRatio": "QUEST_CONTENT_LEAVE_SCENE_RANGE",
          "param": [
            3,
            70
          ]
        },
        {
          "damageRatio": "QUEST_CONTENT_NOT_FINISH_PLOT",
          "param": [
            1400610,
            0
          ]
        }
      ],
      "guide": {
        "damageRatio": "QUEST_GUIDE_LOCATION",
        "param": [
          "[3_5167:4478.728,6.018,4636.129,0.000,205.808,0.000]"
        ],
        "guideScene": 3,
        "guideStyle": "QUEST_GUIDE_STYLE_POINT",
        "guideLayer": "QUEST_GUIDE_LAYER_SCENE",
        "MLAHIFLGIGJ": ""
      },
      "guideHint": {
        "param1": ""
      },
      "isRewind": true,
      "finishExec": [
        {
          "damageRatio": "QUEST_EXEC_UNLOCK_AVATAR_TEAM_V2"
        },
        {
          "damageRatio": "QUEST_EXEC_UNREGISTER_DYNAMIC_GROUP",
          "param": [
            "133408932",
            "0"
          ]
        }
      ],
      "failExec": [
        {
          "damageRatio": "QUEST_EXEC_ROLLBACK_QUEST",
          "param": [
            "1400631"
          ]
        },
        {
          "damageRatio": "QUEST_EXEC_UNLOCK_AVATAR_TEAM_V2"
        }
      ],
      "versionBegin": "",
      "versionEnd": ""
    },
    {
      "subId": 1400611,
      "mainId": 14006,
      "order": 15,
      "descTextMapHash": 3474665532,
      "JIFODJPFKDF": [
        340819
      ],
      "finishCond": [
        {
          "damageRatio": "QUEST_CONTENT_ENTER_DUNGEON",
          "param": [
            1184,
            1000
          ]
        }
      ],
      "guide": {
        "damageRatio": "QUEST_GUIDE_LOCATION",
        "param": [
          "[3_5168:4510.931,-45.861,4619.178,0.000,42.833,0.000]",
          "0"
        ],
        "guideScene": 3,
        "guideStyle": "QUEST_GUIDE_STYLE_POINT",
        "guideLayer": "QUEST_GUIDE_LAYER_SCENE",
        "MLAHIFLGIGJ": ""
      },
      "guideHint": {
        "param1": ""
      },
      "isRewind": true,
      "versionBegin": "",
      "versionEnd": ""
    },
    {
      "subId": 1400612,
      "mainId": 14006,
      "order": 16,
      "descTextMapHash": 1502168676,
      "JIFODJPFKDF": [
        340819
      ],
      "finishCond": [
        {
          "damageRatio": "QUEST_CONTENT_COMPLETE_TALK",
          "param": [
            1400612,
            0
          ]
        }
      ],
      "failCond": [
        {
          "damageRatio": "QUEST_CONTENT_LEAVE_SCENE",
          "param": [
            20195,
            0
          ]
        },
        {
          "damageRatio": "QUEST_CONTENT_ENTER_MY_WORLD",
          "param": [
            3,
            0
          ]
        },
        {
          "damageRatio": "QUEST_CONTENT_FAIL_DUNGEON",
          "param": [
            1184,
            0
          ]
        }
      ],
      "guide": {
        "guideScene": 3,
        "MLAHIFLGIGJ": ""
      },
      "showGuide": "QUEST_GUIDE_ITEM_DISABLE",
      "guideHint": {
        "param1": ""
      },
      "isRewind": true,
      "failExec": [
        {
          "damageRatio": "QUEST_EXEC_ROLLBACK_QUEST",
          "param": [
            "1400611"
          ]
        },
        {
          "damageRatio": "QUEST_EXEC_REMOVE_TRIAL_AVATAR",
          "param": [
            "76"
          ]
        }
      ],
      "versionBegin": "",
      "versionEnd": ""
    },
    {
      "subId": 1400613,
      "mainId": 14006,
      "order": 17,
      "descTextMapHash": 3144381636,
      "JIFODJPFKDF": [
        340819
      ],
      "finishCond": [
        {
          "damageRatio": "QUEST_CONTENT_LUA_NOTIFY",
          "param": [
            0,
            0
          ],
          "count": 1
        }
      ],
      "failCond": [
        {
          "damageRatio": "QUEST_CONTENT_LEAVE_SCENE",
          "param": [
            20195,
            0
          ]
        },
        {
          "damageRatio": "QUEST_CONTENT_ENTER_MY_WORLD",
          "param": [
            3,
            0
          ]
        },
        {
          "damageRatio": "QUEST_CONTENT_FAIL_DUNGEON",
          "param": [
            1184,
            0
          ]
        }
      ],
      "guide": {
        "guideScene": 3,
        "MLAHIFLGIGJ": ""
      },
      "showGuide": "QUEST_GUIDE_ITEM_DISABLE",
      "guideHint": {
        "param1": ""
      },
      "isRewind": true,
      "failExec": [
        {
          "damageRatio": "QUEST_EXEC_ROLLBACK_QUEST",
          "param": [
            "1400611"
          ]
        },
        {
          "damageRatio": "QUEST_EXEC_REMOVE_TRIAL_AVATAR",
          "param": [
            "76"
          ]
        }
      ],
      "versionBegin": "",
      "versionEnd": ""
    },
    {
      "subId": 1400614,
      "mainId": 14006,
      "order": 25,
      "descTextMapHash": 3126232516,
      "JIFODJPFKDF": [
        340819
      ],
      "finishCond": [
        {
          "damageRatio": "QUEST_CONTENT_COMPLETE_TALK",
          "param": [
            1400614,
            0
          ]
        }
      ],
      "failCond": [
        {
          "damageRatio": "QUEST_CONTENT_LEAVE_SCENE",
          "param": [
            20195,
            0
          ]
        },
        {
          "damageRatio": "QUEST_CONTENT_ENTER_MY_WORLD",
          "param": [
            3,
            0
          ]
        },
        {
          "damageRatio": "QUEST_CONTENT_FAIL_DUNGEON",
          "param": [
            1184,
            0
          ]
        }
      ],
      "guide": {
        "guideScene": 3,
        "MLAHIFLGIGJ": ""
      },
      "showGuide": "QUEST_GUIDE_ITEM_DISABLE",
      "guideHint": {
        "param1": ""
      },
      "isRewind": true,
      "finishExec": [
        {
          "damageRatio": "QUEST_EXEC_REFRESH_GROUP_SUITE",
          "param": [
            "20195",
            "220195020,1"
          ]
        },
        {
          "damageRatio": "QUEST_EXEC_REFRESH_GROUP_SUITE",
          "param": [
            "20195",
            "220195018,1"
          ]
        }
      ],
      "failExec": [
        {
          "damageRatio": "QUEST_EXEC_ROLLBACK_QUEST",
          "param": [
            "1400611"
          ]
        },
        {
          "damageRatio": "QUEST_EXEC_REMOVE_TRIAL_AVATAR",
          "param": [
            "76"
          ]
        },
        {
          "damageRatio": "QUEST_EXEC_REFRESH_GROUP_SUITE",
          "param": [
            "20195",
            "220195020,1"
          ]
        }
      ],
      "versionBegin": "",
      "versionEnd": ""
    },
    {
      "subId": 1400615,
      "mainId": 14006,
      "order": 26,
      "descTextMapHash": 3374305444,
      "JIFODJPFKDF": [
        340819
      ],
      "finishCond": [
        {
          "damageRatio": "QUEST_CONTENT_LUA_NOTIFY",
          "param": [
            0,
            0
          ],
          "count": 1
        }
      ],
      "failCond": [
        {
          "damageRatio": "QUEST_CONTENT_LEAVE_SCENE",
          "param": [
            20195,
            0
          ]
        },
        {
          "damageRatio": "QUEST_CONTENT_ENTER_MY_WORLD",
          "param": [
            3,
            0
          ]
        },
        {
          "damageRatio": "QUEST_CONTENT_FAIL_DUNGEON",
          "param": [
            1184,
            0
          ]
        }
      ],
      "guide": {
        "guideScene": 3,
        "MLAHIFLGIGJ": ""
      },
      "showGuide": "QUEST_GUIDE_ITEM_DISABLE",
      "guideHint": {
        "param1": ""
      },
      "isRewind": true,
      "finishExec": [
        {
          "damageRatio": "QUEST_EXEC_REFRESH_GROUP_SUITE",
          "param": [
            "20195",
            "220195001,4"
          ]
        },
        {
          "damageRatio": "QUEST_EXEC_REMOVE_TRIAL_AVATAR",
          "param": [
            "76"
          ]
        }
      ],
      "failExec": [
        {
          "damageRatio": "QUEST_EXEC_ROLLBACK_QUEST",
          "param": [
            "1400611"
          ]
        },
        {
          "damageRatio": "QUEST_EXEC_REMOVE_TRIAL_AVATAR",
          "param": [
            "76"
          ]
        },
        {
          "damageRatio": "QUEST_EXEC_REFRESH_GROUP_SUITE",
          "param": [
            "20195",
            "220195001,4"
          ]
        }
      ],
      "versionBegin": "",
      "versionEnd": ""
    },
    {
      "subId": 1400616,
      "mainId": 14006,
      "order": 27,
      "isMpBlock": true,
      "descTextMapHash": 4002728188,
      "JIFODJPFKDF": [
        340819
      ],
      "finishCond": [
        {
          "damageRatio": "QUEST_CONTENT_COMPLETE_TALK",
          "param": [
            1400616,
            0
          ]
        }
      ],
      "failCond": [
        {
          "damageRatio": "QUEST_CONTENT_LEAVE_SCENE",
          "param": [
            20195,
            0
          ]
        },
        {
          "damageRatio": "QUEST_CONTENT_ENTER_MY_WORLD",
          "param": [
            3,
            0
          ]
        },
        {
          "damageRatio": "QUEST_CONTENT_FAIL_DUNGEON",
          "param": [
            1184,
            0
          ]
        }
      ],
      "guide": {
        "guideScene": 3,
        "MLAHIFLGIGJ": ""
      },
      "showGuide": "QUEST_GUIDE_ITEM_DISABLE",
      "guideHint": {
        "param1": ""
      },
      "isRewind": true,
      "finishExec": [
        {
          "damageRatio": "QUEST_EXEC_LOCK_POINT",
          "param": [
            "3",
            "1000"
          ]
        }
      ],
      "failExec": [
        {
          "damageRatio": "QUEST_EXEC_ROLLBACK_QUEST",
          "param": [
            "1400611"
          ]
        }
      ],
      "versionBegin": "",
      "versionEnd": ""
    },
    {
      "subId": 1400617,
      "mainId": 14006,
      "order": 28,
      "isMpBlock": true,
      "descTextMapHash": 2987966796,
      "JIFODJPFKDF": [
        340819
      ],
      "finishCond": [
        {
          "damageRatio": "QUEST_CONTENT_FINISH_PLOT",
          "param": [
            1400617,
            0
          ]
        }
      ],
      "guide": {
        "damageRatio": "QUEST_GUIDE_LOCATION",
        "param": [
          "[1086_20:1.715,17.082,4.176,0.000,80.560,0.000]",
          "0"
        ],
        "guideScene": 1086,
        "guideStyle": "QUEST_GUIDE_STYLE_POINT",
        "guideLayer": "QUEST_GUIDE_LAYER_SCENE",
        "MLAHIFLGIGJ": ""
      },
      "guideHint": {
        "param1": ""
      },
      "isRewind": true,
      "versionBegin": "",
      "versionEnd": ""
    },
    {
      "subId": 1400618,
      "mainId": 14006,
      "order": 29,
      "descTextMapHash": 1356855572,
      "JIFODJPFKDF": [
        340819,
        108601
      ],
      "finishCond": [
        {
          "damageRatio": "QUEST_CONTENT_COMPLETE_TALK",
          "param": [
            1400618,
            0
          ]
        }
      ],
      "guide": {
        "damageRatio": "QUEST_GUIDE_LOCATION",
        "param": [
          "[1086_20:1.715,17.082,4.176,0.000,80.560,0.000]",
          "0"
        ],
        "guideScene": 1086,
        "guideStyle": "QUEST_GUIDE_STYLE_POINT",
        "guideLayer": "QUEST_GUIDE_LAYER_SCENE",
        "MLAHIFLGIGJ": ""
      },
      "guideHint": {
        "param1": ""
      },
      "isRewind": true,
      "versionBegin": "",
      "versionEnd": ""
    },
    {
      "subId": 1400619,
      "mainId": 14006,
      "order": 30,
      "descTextMapHash": 2997882420,
      "stepDescTextMapHash": 1099933757,
      "JIFODJPFKDF": [
        340819
      ],
      "finishCond": [
        {
          "damageRatio": "QUEST_CONTENT_GAME_TIME_TICK",
          "param": [
            2,
            0
          ]
        }
      ],
      "guide": {
        "MLAHIFLGIGJ": ""
      },
      "showGuide": "QUEST_GUIDE_ITEM_DISABLE",
      "guideHint": {
        "param1": ""
      },
      "isRewind": true,
      "versionBegin": "",
      "versionEnd": ""
    },
    {
      "subId": 1400620,
      "mainId": 14006,
      "order": 31,
      "descTextMapHash": 4052969548,
      "JIFODJPFKDF": [
        340819,
        340813
      ],
      "finishCond": [
        {
          "damageRatio": "QUEST_CONTENT_COMPLETE_TALK",
          "param": [
            1400620,
            0
          ]
        }
      ],
      "guide": {
        "damageRatio": "QUEST_GUIDE_NPC",
        "param": [
          "1078"
        ],
        "guideScene": 3,
        "guideStyle": "QUEST_GUIDE_STYLE_TARGET",
        "guideLayer": "QUEST_GUIDE_LAYER_SCENE",
        "MLAHIFLGIGJ": ""
      },
      "guideHint": {
        "param1": ""
      },
      "finishParent": true,
      "isRewind": true,
      "finishExec": [
        {
          "damageRatio": "QUEST_EXEC_SET_QUEST_GLOBAL_VAR",
          "param": [
            "1400601",
            "1"
          ]
        },
        {
          "damageRatio": "QUEST_EXEC_UNREGISTER_DYNAMIC_GROUP",
          "param": [
            "133408423",
            "0"
          ]
        }
      ],
      "versionBegin": "",
      "versionEnd": ""
    },
    {
      "subId": 1400621,
      "mainId": 14006,
      "order": 18,
      "descTextMapHash": 629285508,
      "JIFODJPFKDF": [
        340819
      ],
      "finishCond": [
        {
          "damageRatio": "QUEST_CONTENT_COMPLETE_TALK",
          "param": [
            1400621,
            0
          ]
        }
      ],
      "failCond": [
        {
          "damageRatio": "QUEST_CONTENT_LEAVE_SCENE",
          "param": [
            20195,
            0
          ]
        },
        {
          "damageRatio": "QUEST_CONTENT_ENTER_MY_WORLD",
          "param": [
            3,
            0
          ]
        },
        {
          "damageRatio": "QUEST_CONTENT_FAIL_DUNGEON",
          "param": [
            1184,
            0
          ]
        }
      ],
      "guide": {
        "MLAHIFLGIGJ": ""
      },
      "showGuide": "QUEST_GUIDE_ITEM_DISABLE",
      "guideHint": {
        "param1": ""
      },
      "isRewind": true,
      "finishExec": [
        {
          "damageRatio": "QUEST_EXEC_NOTIFY_GROUP_LUA",
          "param": [
            "20195",
            "220195021"
          ]
        }
      ],
      "failExec": [
        {
          "damageRatio": "QUEST_EXEC_ROLLBACK_QUEST",
          "param": [
            "1400611"
          ]
        },
        {
          "damageRatio": "QUEST_EXEC_REMOVE_TRIAL_AVATAR",
          "param": [
            "76"
          ]
        }
      ],
      "versionBegin": "",
      "versionEnd": ""
    },
    {
      "subId": 1400622,
      "mainId": 14006,
      "order": 20,
      "descTextMapHash": 3493943564,
      "JIFODJPFKDF": [
        340819
      ],
      "finishCond": [
        {
          "damageRatio": "QUEST_CONTENT_LUA_NOTIFY",
          "param": [
            0,
            0
          ],
          "count": 1
        }
      ],
      "failCond": [
        {
          "damageRatio": "QUEST_CONTENT_LEAVE_SCENE",
          "param": [
            20195,
            0
          ]
        },
        {
          "damageRatio": "QUEST_CONTENT_ENTER_MY_WORLD",
          "param": [
            3,
            0
          ]
        },
        {
          "damageRatio": "QUEST_CONTENT_FAIL_DUNGEON",
          "param": [
            1184,
            0
          ]
        }
      ],
      "guide": {
        "MLAHIFLGIGJ": ""
      },
      "showGuide": "QUEST_GUIDE_ITEM_DISABLE",
      "guideHint": {
        "param1": ""
      },
      "isRewind": true,
      "failExec": [
        {
          "damageRatio": "QUEST_EXEC_ROLLBACK_QUEST",
          "param": [
            "1400611"
          ]
        },
        {
          "damageRatio": "QUEST_EXEC_REMOVE_TRIAL_AVATAR",
          "param": [
            "76"
          ]
        }
      ],
      "versionBegin": "",
      "versionEnd": ""
    },
    {
      "subId": 1400623,
      "mainId": 14006,
      "order": 19,
      "descTextMapHash": 463394220,
      "JIFODJPFKDF": [
        340819
      ],
      "finishCond": [
        {
          "damageRatio": "QUEST_CONTENT_COMPLETE_TALK",
          "param": [
            1400623,
            0
          ]
        }
      ],
      "failCond": [
        {
          "damageRatio": "QUEST_CONTENT_LEAVE_SCENE",
          "param": [
            20195,
            0
          ]
        },
        {
          "damageRatio": "QUEST_CONTENT_ENTER_MY_WORLD",
          "param": [
            3,
            0
          ]
        },
        {
          "damageRatio": "QUEST_CONTENT_FAIL_DUNGEON",
          "param": [
            1184,
            0
          ]
        }
      ],
      "guide": {
        "MLAHIFLGIGJ": ""
      },
      "showGuide": "QUEST_GUIDE_ITEM_DISABLE",
      "guideHint": {
        "param1": ""
      },
      "isRewind": true,
      "failExec": [
        {
          "damageRatio": "QUEST_EXEC_ROLLBACK_QUEST",
          "param": [
            "1400611"
          ]
        },
        {
          "damageRatio": "QUEST_EXEC_REMOVE_TRIAL_AVATAR",
          "param": [
            "76"
          ]
        }
      ],
      "versionBegin": "",
      "versionEnd": ""
    },
    {
      "subId": 1400624,
      "mainId": 14006,
      "order": 21,
      "descTextMapHash": 1792801916,
      "JIFODJPFKDF": [
        340819
      ],
      "finishCond": [
        {
          "damageRatio": "QUEST_CONTENT_COMPLETE_TALK",
          "param": [
            1400624,
            0
          ]
        }
      ],
      "failCond": [
        {
          "damageRatio": "QUEST_CONTENT_LEAVE_SCENE",
          "param": [
            20195,
            0
          ]
        },
        {
          "damageRatio": "QUEST_CONTENT_ENTER_MY_WORLD",
          "param": [
            3,
            0
          ]
        },
        {
          "damageRatio": "QUEST_CONTENT_FAIL_DUNGEON",
          "param": [
            1184,
            0
          ]
        }
      ],
      "guide": {
        "MLAHIFLGIGJ": ""
      },
      "showGuide": "QUEST_GUIDE_ITEM_DISABLE",
      "guideHint": {
        "param1": ""
      },
      "isRewind": true,
      "finishExec": [
        {
          "damageRatio": "QUEST_EXEC_NOTIFY_GROUP_LUA",
          "param": [
            "20195",
            "220195021"
          ]
        }
      ],
      "failExec": [
        {
          "damageRatio": "QUEST_EXEC_ROLLBACK_QUEST",
          "param": [
            "1400611"
          ]
        },
        {
          "damageRatio": "QUEST_EXEC_REMOVE_TRIAL_AVATAR",
          "param": [
            "76"
          ]
        }
      ],
      "versionBegin": "",
      "versionEnd": ""
    },
    {
      "subId": 1400625,
      "mainId": 14006,
      "order": 22,
      "descTextMapHash": 2256726028,
      "JIFODJPFKDF": [
        340819
      ],
      "finishCond": [
        {
          "damageRatio": "QUEST_CONTENT_LUA_NOTIFY",
          "param": [
            0,
            0
          ],
          "count": 1
        }
      ],
      "failCond": [
        {
          "damageRatio": "QUEST_CONTENT_LEAVE_SCENE",
          "param": [
            20195,
            0
          ]
        },
        {
          "damageRatio": "QUEST_CONTENT_ENTER_MY_WORLD",
          "param": [
            3,
            0
          ]
        },
        {
          "damageRatio": "QUEST_CONTENT_FAIL_DUNGEON",
          "param": [
            1184,
            0
          ]
        }
      ],
      "guide": {
        "MLAHIFLGIGJ": ""
      },
      "showGuide": "QUEST_GUIDE_ITEM_DISABLE",
      "guideHint": {
        "param1": ""
      },
      "isRewind": true,
      "failExec": [
        {
          "damageRatio": "QUEST_EXEC_ROLLBACK_QUEST",
          "param": [
            "1400611"
          ]
        },
        {
          "damageRatio": "QUEST_EXEC_REMOVE_TRIAL_AVATAR",
          "param": [
            "76"
          ]
        }
      ],
      "versionBegin": "",
      "versionEnd": ""
    },
    {
      "subId": 1400626,
      "mainId": 14006,
      "order": 23,
      "descTextMapHash": 467597108,
      "JIFODJPFKDF": [
        340819
      ],
      "finishCond": [
        {
          "damageRatio": "QUEST_CONTENT_COMPLETE_TALK",
          "param": [
            1400625,
            0
          ]
        }
      ],
      "failCond": [
        {
          "damageRatio": "QUEST_CONTENT_LEAVE_SCENE",
          "param": [
            20195,
            0
          ]
        },
        {
          "damageRatio": "QUEST_CONTENT_ENTER_MY_WORLD",
          "param": [
            3,
            0
          ]
        },
        {
          "damageRatio": "QUEST_CONTENT_FAIL_DUNGEON",
          "param": [
            1184,
            0
          ]
        }
      ],
      "guide": {
        "MLAHIFLGIGJ": ""
      },
      "showGuide": "QUEST_GUIDE_ITEM_DISABLE",
      "guideHint": {
        "param1": ""
      },
      "isRewind": true,
      "failExec": [
        {
          "damageRatio": "QUEST_EXEC_ROLLBACK_QUEST",
          "param": [
            "1400611"
          ]
        },
        {
          "damageRatio": "QUEST_EXEC_REMOVE_TRIAL_AVATAR",
          "param": [
            "76"
          ]
        }
      ],
      "versionBegin": "",
      "versionEnd": ""
    },
    {
      "subId": 1400627,
      "mainId": 14006,
      "order": 24,
      "descTextMapHash": 1728227492,
      "JIFODJPFKDF": [
        340819
      ],
      "finishCond": [
        {
          "damageRatio": "QUEST_CONTENT_LUA_NOTIFY",
          "param": [
            0,
            0
          ],
          "count": 1
        }
      ],
      "failCond": [
        {
          "damageRatio": "QUEST_CONTENT_LEAVE_SCENE",
          "param": [
            20195,
            0
          ]
        },
        {
          "damageRatio": "QUEST_CONTENT_ENTER_MY_WORLD",
          "param": [
            3,
            0
          ]
        },
        {
          "damageRatio": "QUEST_CONTENT_FAIL_DUNGEON",
          "param": [
            1184,
            0
          ]
        }
      ],
      "guide": {
        "MLAHIFLGIGJ": ""
      },
      "showGuide": "QUEST_GUIDE_ITEM_DISABLE",
      "guideHint": {
        "param1": ""
      },
      "isRewind": true,
      "failExec": [
        {
          "damageRatio": "QUEST_EXEC_ROLLBACK_QUEST",
          "param": [
            "1400611"
          ]
        },
        {
          "damageRatio": "QUEST_EXEC_REMOVE_TRIAL_AVATAR",
          "param": [
            "76"
          ]
        },
        {
          "damageRatio": "QUEST_EXEC_REFRESH_GROUP_SUITE",
          "param": [
            "20195",
            "220195019,1"
          ]
        }
      ],
      "versionBegin": "",
      "versionEnd": ""
    },
    {
      "subId": 1400628,
      "mainId": 14006,
      "order": 9,
      "descTextMapHash": 2279990900,
      "JIFODJPFKDF": [
        340819,
        340837
      ],
      "finishCond": [
        {
          "damageRatio": "QUEST_CONTENT_FINISH_PLOT",
          "param": [
            1400628,
            0
          ]
        }
      ],
      "guide": {
        "damageRatio": "QUEST_GUIDE_LOCATION",
        "param": [
          "[3_5166:4443.597,6.085,4638.485]",
          "55"
        ],
        "guideScene": 3,
        "guideStyle": "QUEST_GUIDE_STYLE_POINT",
        "guideLayer": "QUEST_GUIDE_LAYER_SCENE",
        "MLAHIFLGIGJ": ""
      },
      "guideHint": {
        "param1": ""
      },
      "isRewind": true,
      "finishExec": [
        {
          "damageRatio": "QUEST_EXEC_UNREGISTER_DYNAMIC_GROUP",
          "param": [
            "133408255",
            "0"
          ]
        },
        {
          "damageRatio": "QUEST_EXEC_UNREGISTER_DYNAMIC_GROUP",
          "param": [
            "133408819",
            "0"
          ]
        }
      ],
      "versionBegin": "",
      "versionEnd": ""
    },
    {
      "subId": 1400629,
      "mainId": 14006,
      "order": 2,
      "showType": "QUEST_HIDDEN",
      "JIFODJPFKDF": [
        340819,
        340837
      ],
      "finishCond": [
        {
          "damageRatio": "QUEST_CONTENT_FINISH_PLOT",
          "param": [
            1400629,
            0
          ]
        }
      ],
      "guide": {
        "MLAHIFLGIGJ": ""
      },
      "guideHint": {
        "param1": ""
      },
      "versionBegin": "",
      "versionEnd": ""
    },
    {
      "subId": 1400630,
      "mainId": 14006,
      "order": 3,
      "showType": "QUEST_HIDDEN",
      "JIFODJPFKDF": [
        340819,
        340837
      ],
      "finishCond": [
        {
          "damageRatio": "QUEST_CONTENT_FINISH_PLOT",
          "param": [
            1400630,
            0
          ]
        }
      ],
      "guide": {
        "MLAHIFLGIGJ": ""
      },
      "guideHint": {
        "param1": ""
      },
      "versionBegin": "",
      "versionEnd": ""
    },
    {
      "subId": 1400631,
      "mainId": 14006,
      "order": 10,
      "descTextMapHash": 2605047676,
      "JIFODJPFKDF": [
        340819,
        340838
      ],
      "finishCond": [
        {
          "damageRatio": "QUEST_CONTENT_FINISH_PLOT",
          "param": [
            1400631,
            0
          ]
        }
      ],
      "guide": {
        "damageRatio": "QUEST_GUIDE_LOCATION",
        "param": [
          "[3_5166:4443.597,6.085,4638.485]",
          "50"
        ],
        "guideScene": 3,
        "guideStyle": "QUEST_GUIDE_STYLE_POINT",
        "guideLayer": "QUEST_GUIDE_LAYER_SCENE",
        "MLAHIFLGIGJ": ""
      },
      "guideHint": {
        "param1": ""
      },
      "isRewind": true,
      "versionBegin": "",
      "versionEnd": ""
    }
  ],
  "talks": [
    {
      "id": 1400601,
      "beginWay": "TALK_BEGIN_MANUAL",
      "beginCond": [
        {
          "type": "QUEST_COND_STATE_EQUAL",
          "_param": [
            "1400601",
            "2"
          ]
        }
      ],
      "priority": 5,
      "initDialog": 140060101,
      "npcId": [
        1078
      ],
      "performCfg": "QuestDialogue/LQ/Wriothesley1_14006/Q1400601",
      "heroTalk": "TALK_HERO_MAIN",
      "questId": 14006,
      "assetIndex": 11299908884036119906,
      "prePerformCfg": "",
      "CHAKPMBJNAJ": [
        "[3_5164:4497.419,121.603,4631.018]",
        "[3_5224:4498.401,121.604,4631.367,0.000,44.497,0.000]",
        "[3_6213:4495.874,121.648,4632.526,0.000,84.047,0.000]",
        "[3_6355:4499.801,121.611,4634.525,0.061,240.600,359.232]",
        "[3_6356:4497.923,121.599,4635.326,1.286,182.234,357.592]",
        "[3_6357:4500.273,121.600,4632.083,0.000,282.743,0.000]",
        "[3_6358:4499.588,121.646,4630.424,0.000,306.739,0.000]",
        "[3_6433:4499.226,121.600,4633.683,0.000,129.613,0.000]",
        "[3_6434:4498.882,121.600,4632.664,-0.004,253.009,0.262]",
        "[3_6435:4497.482,121.600,4632.680,0.000,242.044,0.000]",
        "[3_6780:4497.911,121.600,4633.962,0.000,282.220,0.000]"
      ]
    },
    {
      "id": 1400602,
      "beginWay": "TALK_BEGIN_MANUAL",
      "beginCondComb": "LOGIC_AND",
      "beginCond": [
        {
          "type": "QUEST_COND_STATE_EQUAL",
          "_param": [
            "1400629",
            "3"
          ]
        },
        {
          "type": "QUEST_COND_STATE_EQUAL",
          "_param": [
            "1400602",
            "2"
          ]
        }
      ],
      "priority": 5,
      "initDialog": 140060201,
      "npcId": [
        1078
      ],
      "performCfg": "QuestDialogue/LQ/Wriothesley1_14006/Q1400602",
      "heroTalk": "TALK_HERO_MAIN",
      "questId": 14006,
      "assetIndex": 11611513367089661215,
      "prePerformCfg": "",
      "CHAKPMBJNAJ": [
        "[3_5225:4503.125,121.600,4639.570,0.000,148.037,0.000]",
        "[3_6354:4503.480,121.600,4640.063,0.000,153.898,0.000]"
      ]
    },
    {
      "id": 1400603,
      "beginWay": "TALK_BEGIN_MANUAL",
      "beginCondComb": "LOGIC_AND",
      "beginCond": [
        {
          "type": "QUEST_COND_STATE_EQUAL",
          "_param": [
            "1400630",
            "3"
          ]
        },
        {
          "type": "QUEST_COND_STATE_EQUAL",
          "_param": [
            "1400603",
            "2"
          ]
        }
      ],
      "priority": 5,
      "initDialog": 140060301,
      "npcId": [
        1005
      ],
      "performCfg": "QuestDialogue/LQ/Wriothesley1_14006/Q1400603",
      "heroTalk": "TALK_HERO_MAIN",
      "questId": 14006,
      "assetIndex": 5686802470437122713,
      "prePerformCfg": "",
      "CHAKPMBJNAJ": [
        "[3_5164:4497.419,121.603,4631.018]",
        "[3_5584:4505.653,121.660,4625.284,0.000,172.666,0.000]"
      ]
    },
    {
      "id": 1400604,
      "beginWay": "TALK_BEGIN_MANUAL",
      "beginCond": [
        {
          "type": "QUEST_COND_STATE_EQUAL",
          "_param": [
            "1400604",
            "2"
          ]
        }
      ],
      "initDialog": 140060401,
      "npcId": [
        13605
      ],
      "performCfg": "",
      "heroTalk": "TALK_HERO_MAIN",
      "questId": 14006,
      "assetIndex": 2657456927838916219,
      "prePerformCfg": ""
    },
    {
      "id": 1400606,
      "beginWay": "TALK_BEGIN_MANUAL",
      "beginCond": [
        {
          "type": "QUEST_COND_STATE_EQUAL",
          "_param": [
            "1400606",
            "2"
          ]
        }
      ],
      "priority": 5,
      "initDialog": 140060601,
      "npcId": [
        13483
      ],
      "performCfg": "QuestDialogue/LQ/Wriothesley1_14006/Q1400606",
      "heroTalk": "TALK_HERO_MAIN",
      "questId": 14006,
      "assetIndex": 17080494290386377230,
      "prePerformCfg": "",
      "CHAKPMBJNAJ": [
        "[3_5164:4497.419,121.603,4631.018]",
        "[3_5225:4503.125,121.600,4639.570,0.000,148.037,0.000]",
        "[3_5226:4497.584,121.600,4637.680,0.000,164.895,0.000]",
        "[3_6355:4499.801,121.611,4634.525,0.061,240.600,359.232]",
        "[3_6356:4497.923,121.599,4635.326,1.286,182.234,357.592]",
        "[3_6357:4500.273,121.600,4632.083,0.000,282.743,0.000]",
        "[3_6358:4499.588,121.646,4630.424,0.000,306.739,0.000]"
      ]
    },
    {
      "id": 1400607,
      "beginWay": "TALK_BEGIN_MANUAL",
      "beginCond": [
        {
          "type": "QUEST_COND_STATE_EQUAL",
          "_param": [
            "1400607",
            "2"
          ]
        }
      ],
      "priority": 5,
      "initDialog": 140060701,
      "npcId": [
        1078
      ],
      "performCfg": "QuestDialogue/LQ/Wriothesley1_14006/Q1400607",
      "heroTalk": "TALK_HERO_MAIN",
      "questId": 14006,
      "assetIndex": 7348572065933702065,
      "prePerformCfg": "",
      "CHAKPMBJNAJ": [
        "[3_5227:4440.883,5.808,4654.363,0.000,168.940,0.000]"
      ]
    },
    {
      "id": 1400609,
      "beginWay": "TALK_BEGIN_MANUAL",
      "beginCond": [
        {
          "type": "QUEST_COND_STATE_EQUAL",
          "_param": [
            "1400610",
            "2"
          ]
        }
      ],
      "priority": 4,
      "initDialog": 140060901,
      "npcId": [
        13485,
        13485,
        1078
      ],
      "performCfg": "QuestDialogue/LQ/Wriothesley1_14006/Q1400609",
      "heroTalk": "TALK_HERO_MAIN",
      "questId": 14006,
      "assetIndex": 7868774511911862601,
      "prePerformCfg": "",
      "CHAKPMBJNAJ": [
        "[3_5167:4478.728,6.018,4636.129,0.000,205.808,0.000]",
        "[3_5229:4489.564,4.660,4619.279,0.000,319.148,0.000]",
        "[3_5230:4488.000,4.660,4620.074,0.000,325.426,0.000]",
        "[3_5231:4479.659,5.600,4622.512,0.000,7.453,0.000]",
        "[3_6119:4451.263,5.600,4663.503,0.000,180.414,0.000]",
        "[3_6120:4463.333,4.660,4670.750,0.000,121.345,0.000]",
        "[3_6121:4459.709,5.600,4659.278,0.000,148.696,0.000]",
        "[3_6122:4468.264,5.600,4653.392,0.000,178.781,0.000]"
      ]
    },
    {
      "id": 1400610,
      "beginWay": "TALK_BEGIN_MANUAL",
      "beginCondComb": "LOGIC_A_OR_ETCAND",
      "beginCond": [
        {
          "type": "QUEST_COND_STATE_EQUAL",
          "_param": [
            "1400609",
            "2"
          ]
        },
        {
          "type": "QUEST_COND_STATE_EQUAL",
          "_param": [
            "1400610",
            "2"
          ]
        },
        {
          "type": "QUEST_COND_QUEST_VAR_EQUAL",
          "_param": [
            "1",
            "1",
            "14006"
          ]
        }
      ],
      "priority": 5,
      "initDialog": 140061001,
      "npcId": [
        13485
      ],
      "performCfg": "QuestDialogue/LQ/Wriothesley1_14006/Q1400610",
      "heroTalk": "TALK_HERO_MAIN",
      "questId": 14006,
      "assetIndex": 9820409880862304159,
      "prePerformCfg": "",
      "CHAKPMBJNAJ": [
        "[3_5167:4478.728,6.018,4636.129,0.000,205.808,0.000]",
        "[3_5229:4489.564,4.660,4619.279,0.000,319.148,0.000]",
        "[3_5230:4488.000,4.660,4620.074,0.000,325.426,0.000]",
        "[3_5231:4479.659,5.600,4622.512,0.000,7.453,0.000]",
        "[3_6119:4451.263,5.600,4663.503,0.000,180.414,0.000]",
        "[3_6120:4463.333,4.660,4670.750,0.000,121.345,0.000]",
        "[3_6121:4459.709,5.600,4659.278,0.000,148.696,0.000]",
        "[3_6122:4468.264,5.600,4653.392,0.000,178.781,0.000]"
      ]
    },
    {
      "id": 1400612,
      "beginWay": "TALK_BEGIN_MANUAL",
      "beginCond": [
        {
          "type": "QUEST_COND_STATE_EQUAL",
          "_param": [
            "1400612",
            "2"
          ]
        }
      ],
      "priority": 5,
      "initDialog": 140061201,
      "npcId": [
        1078
      ],
      "performCfg": "QuestDialogue/LQ/Wriothesley1_14006/Q1400612",
      "heroTalk": "TALK_HERO_MAIN",
      "questId": 14006,
      "assetIndex": 5656525736872585290,
      "prePerformCfg": "",
      "CHAKPMBJNAJ": [
        "[20195_1:927.855,28.848,336.398,0.000,266.385,0.000]"
      ]
    },
    {
      "id": 1400614,
      "beginWay": "TALK_BEGIN_MANUAL",
      "beginCond": [
        {
          "type": "QUEST_COND_STATE_EQUAL",
          "_param": [
            "1400614",
            "2"
          ]
        }
      ],
      "priority": 5,
      "initDialog": 140061401,
      "npcId": [
        13479,
        1078
      ],
      "performCfg": "QuestDialogue/LQ/Wriothesley1_14006/Q1400614",
      "heroTalk": "TALK_HERO_MAIN",
      "questId": 14006,
      "assetIndex": 12713532379993358946,
      "prePerformCfg": "",
      "CHAKPMBJNAJ": [
        "[20195_10:637.013,36.568,530.556,0.000,262.873,0.000]",
        "[20195_11:634.213,36.568,530.251,0.000,109.804,0.000]",
        "[20195_13:657.443,35.662,530.435,0.000,268.356,0.000]",
        "[20195_14:656.759,35.640,522.896,0.000,298.478,0.000]",
        "[20195_27:652.106,35.674,525.064,0.000,271.754,0.000]",
        "[20195_28:654.390,35.662,529.430,0.000,271.320,0.000]",
        "[20195_29:650.666,35.640,527.616,0.000,271.340,0.000]",
        "[20195_3:659.371,35.740,527.473,0.000,266.245,0.000]",
        "[20195_30:654.938,35.662,524.483,0.000,266.961,0.000]",
        "[20195_31:650.230,35.640,529.716,0.000,269.326,0.000]",
        "[20195_32:651.002,35.640,530.521,0.000,262.102,0.000]",
        "[20195_33:655.940,35.662,532.021,0.000,271.502,0.000]",
        "[20195_34:652.950,35.664,531.735,0.000,270.861,0.000]",
        "[20195_35:653.710,35.690,525.820,0.000,269.788,0.000]",
        "[20195_36:655.220,35.692,527.450,0.000,275.713,0.000]",
        "[20195_37:657.179,35.662,526.070,0.000,272.452,0.000]",
        "[20195_38:649.375,35.640,526.138,0.000,272.881,0.000]",
        "[20195_39:656.313,35.692,528.114,0.000,272.187,0.000]",
        "[20195_4:636.034,36.568,526.732,0.000,86.799,0.000]",
        "[20195_40:653.041,35.690,528.624,0.000,269.741,0.000]",
        "[20195_41:652.316,35.689,527.088,0.000,270.364,0.000]",
        "[20195_42:658.549,36.630,509.238]",
        "[20195_43:659.008,36.630,546.615,0.000,178.672,0.000]",
        "[20195_44:659.270,35.450,533.180,0.000,227.882,0.000]",
        "[20195_45:659.240,35.690,521.510,0.000,302.924,0.000]"
      ]
    },
    {
      "id": 1400616,
      "beginWay": "TALK_BEGIN_MANUAL",
      "beginCond": [
        {
          "type": "QUEST_COND_STATE_EQUAL",
          "_param": [
            "1400616",
            "2"
          ]
        }
      ],
      "priority": 5,
      "initDialog": 140061601,
      "npcId": [
        1078
      ],
      "performCfg": "QuestDialogue/LQ/Wriothesley1_14006/Q1400616",
      "questId": 14006,
      "assetIndex": 2448477160366361855,
      "prePerformCfg": "",
      "CHAKPMBJNAJ": [
        "[20195_47:660.087,35.692,530.668,0.000,257.981,0.000]"
      ]
    },
    {
      "id": 1400618,
      "beginWay": "TALK_BEGIN_MANUAL",
      "beginCond": [
        {
          "type": "QUEST_COND_STATE_EQUAL",
          "_param": [
            "1400618",
            "2"
          ]
        }
      ],
      "priority": 5,
      "initDialog": 140061801,
      "npcId": [
        1078
      ],
      "performCfg": "QuestDialogue/LQ/Wriothesley1_14006/Q1400618",
      "heroTalk": "TALK_HERO_MAIN",
      "questId": 14006,
      "assetIndex": 5127312277275894883,
      "prePerformCfg": "",
      "CHAKPMBJNAJ": [
        "[1086_20:1.715,17.082,4.176,0.000,80.560,0.000]",
        "[1086_22:0.282,8.546,-1.009,0.000,67.915,0.000]"
      ]
    },
    {
      "id": 1400620,
      "beginWay": "TALK_BEGIN_MANUAL",
      "beginCond": [
        {
          "type": "QUEST_COND_STATE_EQUAL",
          "_param": [
            "1400620",
            "2"
          ]
        }
      ],
      "priority": 5,
      "initDialog": 140062001,
      "npcId": [
        1078
      ],
      "performCfg": "QuestDialogue/LQ/Wriothesley1_14006/Q1400620",
      "heroTalk": "TALK_HERO_MAIN",
      "questId": 14006,
      "assetIndex": 15923882652361442610,
      "prePerformCfg": "",
      "CHAKPMBJNAJ": [
        "[3_5232:4487.800,121.600,4596.304,0.000,302.179,0.000]"
      ]
    },
    {
      "id": 1400621,
      "beginWay": "TALK_BEGIN_MANUAL",
      "beginCond": [
        {
          "type": "QUEST_COND_STATE_EQUAL",
          "_param": [
            "1400621",
            "2"
          ]
        }
      ],
      "priority": 5,
      "initDialog": 140062101,
      "npcId": [
        1078
      ],
      "performCfg": "QuestDialogue/LQ/Wriothesley1_14006/Q1400621",
      "heroTalk": "TALK_HERO_MAIN",
      "questId": 14006,
      "assetIndex": 1815683715672004900,
      "prePerformCfg": "",
      "CHAKPMBJNAJ": [
        "[20195_5:884.842,25.110,450.138]"
      ]
    },
    {
      "id": 1400623,
      "beginWay": "TALK_BEGIN_MANUAL",
      "beginCond": [
        {
          "type": "QUEST_COND_STATE_EQUAL",
          "_param": [
            "1400623",
            "2"
          ]
        }
      ],
      "priority": 5,
      "initDialog": 140062301,
      "npcId": [
        1078
      ],
      "performCfg": "QuestDialogue/LQ/Wriothesley1_14006/Q1400623",
      "heroTalk": "TALK_HERO_MAIN",
      "questId": 14006,
      "assetIndex": 2124263826858685177,
      "prePerformCfg": "",
      "CHAKPMBJNAJ": [
        "[20195_6:820.671,25.319,528.088,0.000,271.681,0.000]"
      ]
    },
    {
      "id": 1400624,
      "beginWay": "TALK_BEGIN_MANUAL",
      "beginCond": [
        {
          "type": "QUEST_COND_STATE_EQUAL",
          "_param": [
            "1400624",
            "2"
          ]
        }
      ],
      "priority": 5,
      "initDialog": 140062401,
      "npcId": [
        1078,
        13588
      ],
      "performCfg": "QuestDialogue/LQ/Wriothesley1_14006/Q1400624",
      "heroTalk": "TALK_HERO_MAIN",
      "questId": 14006,
      "assetIndex": 14315896501173600893,
      "prePerformCfg": "",
      "CHAKPMBJNAJ": [
        "[20195_15:810.560,23.987,383.290,0.000,345.265,0.000]",
        "[20195_16:785.047,25.730,403.208,0.000,343.207,0.000]",
        "[20195_7:809.172,23.873,383.089]"
      ]
    },
    {
      "id": 1400625,
      "beginWay": "TALK_BEGIN_MANUAL",
      "beginCond": [
        {
          "type": "QUEST_COND_STATE_EQUAL",
          "_param": [
            "1400626",
            "2"
          ]
        }
      ],
      "priority": 5,
      "initDialog": 140062501,
      "npcId": [
        1078,
        13523
      ],
      "performCfg": "QuestDialogue/LQ/Wriothesley1_14006/Q1400625",
      "heroTalk": "TALK_HERO_MAIN",
      "questId": 14006,
      "assetIndex": 6637735918174287470,
      "prePerformCfg": "",
      "CHAKPMBJNAJ": [
        "[20195_8:809.105,27.330,444.585]"
      ]
    },
    {
      "id": 1400650,
      "beginWay": "TALK_BEGIN_MANUAL",
      "beginCondComb": "LOGIC_OR",
      "beginCond": [
        {
          "type": "QUEST_COND_STATE_EQUAL",
          "_param": [
            "1400627",
            "2"
          ]
        },
        {
          "type": "QUEST_COND_STATE_EQUAL",
          "_param": [
            "1400614",
            "2"
          ]
        }
      ],
      "priority": 5,
      "initDialog": 140065001,
      "npcId": [
        13523,
        13588
      ],
      "performCfg": "QuestDialogue/LQ/Wriothesley1_14006/Q1400650",
      "heroTalk": "TALK_HERO_MAIN",
      "questId": 14006,
      "assetIndex": 10091005984165943,
      "prePerformCfg": ""
    },
    {
      "id": 1400651,
      "beginWay": "TALK_BEGIN_MANUAL",
      "beginCondComb": "LOGIC_AND",
      "beginCond": [
        {
          "type": "QUEST_COND_STATE_EQUAL",
          "_param": [
            "1400629",
            "3"
          ]
        },
        {
          "type": "QUEST_COND_STATE_EQUAL",
          "_param": [
            "1400605",
            "2"
          ]
        }
      ],
      "priority": 4,
      "initDialog": 140065101,
      "npcId": [
        1078
      ],
      "performCfg": "QuestDialogue/LQ/Wriothesley1_14006/Q1400651",
      "heroTalk": "TALK_HERO_MAIN",
      "questId": 14006,
      "assetIndex": 17821347248880876165,
      "prePerformCfg": ""
    },
    {
      "id": 1400652,
      "beginWay": "TALK_BEGIN_MANUAL",
      "beginCondComb": "LOGIC_OR",
      "beginCond": [
        {
          "type": "QUEST_COND_STATE_EQUAL",
          "_param": [
            "1400625",
            "2"
          ]
        },
        {
          "type": "QUEST_COND_STATE_EQUAL",
          "_param": [
            "1400626",
            "2"
          ]
        },
        {
          "type": "QUEST_COND_STATE_EQUAL",
          "_param": [
            "1400627",
            "2"
          ]
        },
        {
          "type": "QUEST_COND_STATE_EQUAL",
          "_param": [
            "1400614",
            "2"
          ]
        }
      ],
      "priority": 5,
      "initDialog": 140065201,
      "npcId": [
        13605
      ],
      "performCfg": "QuestDialogue/LQ/Wriothesley1_14006/Q1400652",
      "heroTalk": "TALK_HERO_MAIN",
      "questId": 14006,
      "assetIndex": 11016893002331107411,
      "prePerformCfg": "",
      "CHAKPMBJNAJ": [
        "[20195_19:820.406,28.260,455.358,0.000,69.596,0.000]",
        "[20195_20:820.510,28.260,456.500,0.000,97.098,0.000]",
        "[20195_21:821.269,28.260,454.737,0.000,13.723,0.000]"
      ]
    }
  ],
  "preloadLuaList": [
    14457059026087496718,
    10039131316051217457,
    7076536359932731851,
    6892535451243311864,
    463279232792987157,
    11406403492505244913
  ],
  "forcePreloadLuaList": [
    9255875808647520956
  ],
  "freeStyleDic": {
    "13483": [
      1120
    ],
    "13628": [
      1120
    ],
    "13629": [
      1230
    ],
    "13630": [
      1120
    ],
    "13631": [
      1230
    ],
    "13689": [
      4121
    ],
    "13690": [
      4120
    ],
    "13691": [
      4412
    ],
    "13619": [
      4190
    ],
    "13633": [
      4120
    ],
    "13588": [
      4190,
      1160
    ],
    "13804": [
      1160
    ],
    "13805": [
      4120
    ],
    "13806": [
      4100
    ],
    "13807": [
      4130
    ],
    "13523": [
      1170
    ],
    "13479": [
      1120
    ],
    "13618": [
      1070
    ],
    "1078": [
      0
    ]
  },
  "dialogList": [
    {
      "id": 140069906,
      "talkRole": {
        "type": "TALK_ROLE_BLACK_SCREEN",
        "_id": ""
      },
      "talkAssetPath": "",
      "talkAssetPathAlter": "",
      "talkAudioName": "",
      "actionBefore": "",
      "actionWhile": "",
      "actionAfter": "",
      "optionIcon": "",
      "iconPath": ""
    }
  ],
  "HGOMOKHCKND": [
    1
  ]
}