{
  "id": 14003,
  "resId": 2038,
  "series": 2038,
  "damageRatio": "LQ",
  "descTextMapHash": 3310525055,
  "EKEKACCODOE": 1409801118,
  "luaPath": "Actor/Quest/LQ14003",
  "rewardIdList": [
    114003
  ],
  "chapterId": 2040,
  "BONJIMPOJLG": true,
  "subQuests": [
    {
      "subId": 1400301,
      "mainId": 14003,
      "order": 1,
      "descTextMapHash": 1981010036,
      "finishCond": [
        {
          "damageRatio": "QUEST_CONTENT_GAME_TIME_TICK",
          "param": [
            1,
            0
          ]
        }
      ],
      "guide": {
        "MLAHIFLGIGJ": ""
      },
      "guideHint": {
        "param1": ""
      },
      "isRewind": true,
      "versionBegin": "",
      "versionEnd": ""
    },
    {
      "subId": 1400302,
      "mainId": 14003,
      "order": 2,
      "descTextMapHash": 407272484,
      "JIFODJPFKDF": [
        340115
      ],
      "finishCond": [
        {
          "damageRatio": "QUEST_CONTENT_COMPLETE_TALK",
          "param": [
            1400301,
            0
          ]
        }
      ],
      "guide": {
        "damageRatio": "QUEST_GUIDE_NPC",
        "autoGuide": "QUEST_GUIDE_AUTO_ENABLE",
        "param": [
          "1071"
        ],
        "guideScene": 3,
        "guideStyle": "QUEST_GUIDE_STYLE_TARGET",
        "guideLayer": "QUEST_GUIDE_LAYER_SCENE",
        "MLAHIFLGIGJ": ""
      },
      "guideHint": {
        "param1": ""
      },
      "finishParent": true,
      "isRewind": true,
      "finishExec": [
        {
          "damageRatio": "QUEST_EXEC_SET_QUEST_GLOBAL_VAR",
          "param": [
            "1400301",
            "1"
          ]
        }
      ],
      "versionBegin": "",
      "versionEnd": ""
    }
  ],
  "talks": [
    {
      "id": 1400301,
      "beginWay": "TALK_BEGIN_MANUAL",
      "beginCond": [
        {
          "type": "QUEST_COND_STATE_EQUAL",
          "_param": [
            "1400302",
            "2"
          ]
        }
      ],
      "priority": 5,
      "initDialog": 140030101,
      "npcId": [
        1071,
        1070,
        1072
      ],
      "performCfg": "QuestDialogue/LQ/Liney1_14003/Q1400301",
      "heroTalk": "TALK_HERO_MAIN",
      "questId": 14003,
      "assetIndex": 16545941860991223133,
      "prePerformCfg": "",
      "CHAKPMBJNAJ": [
        "[3_5205:3484.052,445.895,4641.803,0.000,253.330,0.000]",
        "[3_5206:3482.423,445.895,4641.343,0.000,80.730,0.000]",
        "[3_5207:3483.019,445.895,4640.656,0.000,37.936,0.000]",
        "[3_5464:3481.549,445.895,4642.570,0.000,156.936,0.000]",
        "[3_5465:3482.395,445.895,4642.602,0.000,194.825,0.000]"
      ]
    }
  ],
  "freeStyleDic": {
    "1070": [
      1060
    ],
    "1071": [
      1172
    ],
    "1072": [
      1190
    ]
  }
}