{
  "id": 14017,
  "resId": 2044,
  "series": 2044,
  "damageRatio": "LQ",
  "descTextMapHash": 2087043687,
  "EKEKACCODOE": 2156386054,
  "luaPath": "Actor/Quest/LQ14017",
  "rewardIdList": [
    114017
  ],
  "chapterId": 2044,
  "BONJIMPOJLG": true,
  "subQuests": [
    {
      "subId": 1401701,
      "mainId": 14017,
      "order": 1,
      "descTextMapHash": 2454091620,
      "JIFODJPFKDF": [
        340310,
        340303
      ],
      "finishCond": [
        {
          "damageRatio": "QUEST_CONTENT_COMPLETE_TALK",
          "param": [
            1401701,
            0
          ]
        }
      ],
      "guide": {
        "damageRatio": "QUEST_GUIDE_LOCATION",
        "param": [
          "[3_340300233:2756.664,379.553,4168.218,0.000,117.540,0.000]"
        ],
        "guideScene": 3,
        "guideStyle": "QUEST_GUIDE_STYLE_POINT",
        "guideLayer": "QUEST_GUIDE_LAYER_SCENE",
        "MLAHIFLGIGJ": ""
      },
      "guideHint": {
        "param1": ""
      },
      "isRewind": true,
      "finishExec": [
        {
          "damageRatio": "QUEST_EXEC_DEL_ALL_SPECIFIC_PACK_ITEM",
          "param": [
            "120715"
          ]
        }
      ],
      "versionBegin": "",
      "versionEnd": ""
    },
    {
      "subId": 1401702,
      "mainId": 14017,
      "order": 3,
      "isMpBlock": true,
      "descTextMapHash": 2661833532,
      "stepDescTextMapHash": 1947542093,
      "JIFODJPFKDF": [
        340310,
        340303
      ],
      "finishCond": [
        {
          "damageRatio": "QUEST_CONTENT_LUA_NOTIFY",
          "param": [
            0,
            0
          ],
          "count": 1
        }
      ],
      "failCond": [
        {
          "damageRatio": "QUEST_CONTENT_LEAVE_SCENE_RANGE",
          "param": [
            3,
            50
          ]
        },
        {
          "damageRatio": "QUEST_CONTENT_ANY_MANUAL_TRANSPORT",
          "param": [
            0,
            0
          ]
        },
        {
          "damageRatio": "QUEST_CONTENT_TEAM_DEAD",
          "param": [
            0,
            0
          ]
        }
      ],
      "guide": {
        "damageRatio": "QUEST_GUIDE_LOCATION",
        "param": [
          "[3_6575:2758.915,379.558,4165.113]",
          "20"
        ],
        "guideScene": 3,
        "guideStyle": "QUEST_GUIDE_STYLE_TARGET",
        "MLAHIFLGIGJ": ""
      },
      "guideHint": {
        "param1": ""
      },
      "finishExec": [
        {
          "damageRatio": "QUEST_EXEC_UNREGISTER_DYNAMIC_GROUP",
          "param": [
            "133403555"
          ]
        },
        {
          "damageRatio": "QUEST_EXEC_REMOVE_TRIAL_AVATAR",
          "param": [
            "81"
          ]
        },
        {
          "damageRatio": "QUEST_EXEC_UNLOCK_AVATAR_TEAM_V2"
        }
      ],
      "failExec": [
        {
          "damageRatio": "QUEST_EXEC_UNREGISTER_DYNAMIC_GROUP",
          "param": [
            "133403555"
          ]
        },
        {
          "damageRatio": "QUEST_EXEC_REMOVE_TRIAL_AVATAR",
          "param": [
            "81"
          ]
        },
        {
          "damageRatio": "QUEST_EXEC_UNLOCK_AVATAR_TEAM_V2"
        },
        {
          "damageRatio": "QUEST_EXEC_ROLLBACK_QUEST",
          "param": [
            "1401713"
          ]
        }
      ],
      "versionBegin": "",
      "versionEnd": ""
    },
    {
      "subId": 1401703,
      "mainId": 14017,
      "order": 4,
      "descTextMapHash": 2762721924,
      "JIFODJPFKDF": [
        340310,
        340303
      ],
      "finishCond": [
        {
          "damageRatio": "QUEST_CONTENT_COMPLETE_TALK",
          "param": [
            1401703,
            0
          ]
        }
      ],
      "guide": {
        "damageRatio": "QUEST_GUIDE_LOCATION",
        "param": [
          "[3_340300268:2760.513,379.598,4167.148,0.000,245.334,0.000]"
        ],
        "guideScene": 3,
        "guideStyle": "QUEST_GUIDE_STYLE_POINT",
        "guideLayer": "QUEST_GUIDE_LAYER_SCENE",
        "MLAHIFLGIGJ": ""
      },
      "guideHint": {
        "param1": ""
      },
      "isRewind": true,
      "finishExec": [
        {
          "damageRatio": "QUEST_EXEC_UNREGISTER_DYNAMIC_GROUP",
          "param": [
            "133407028"
          ]
        }
      ],
      "versionBegin": "",
      "versionEnd": ""
    },
    {
      "subId": 1401704,
      "mainId": 14017,
      "order": 5,
      "descTextMapHash": 3425353636,
      "stepDescTextMapHash": 3450397493,
      "JIFODJPFKDF": [
        340312
      ],
      "finishCond": [
        {
          "damageRatio": "QUEST_CONTENT_COMPLETE_TALK",
          "param": [
            1401704,
            0
          ]
        }
      ],
      "guide": {
        "damageRatio": "QUEST_GUIDE_LOCATION",
        "param": [
          "[3_340300248:2652.835,470.447,4226.692,0.000,175.347,0.000]"
        ],
        "guideScene": 3,
        "guideStyle": "QUEST_GUIDE_STYLE_POINT",
        "guideLayer": "QUEST_GUIDE_LAYER_SCENE",
        "MLAHIFLGIGJ": ""
      },
      "guideHint": {
        "param1": ""
      },
      "isRewind": true,
      "versionBegin": "",
      "versionEnd": ""
    },
    {
      "subId": 1401705,
      "mainId": 14017,
      "order": 6,
      "isMpBlock": true,
      "descTextMapHash": 3349288604,
      "JIFODJPFKDF": [
        340312
      ],
      "AKLAGMDECEM": "BAN_GROUP_COMMON",
      "finishCond": [
        {
          "damageRatio": "QUEST_CONTENT_LUA_NOTIFY",
          "param": [
            0,
            0
          ],
          "count": 1
        }
      ],
      "failCond": [
        {
          "damageRatio": "QUEST_CONTENT_NOT_FINISH_PLOT",
          "param": [
            1401705,
            0
          ]
        },
        {
          "damageRatio": "QUEST_CONTENT_TEAM_DEAD",
          "param": [
            0,
            0
          ]
        },
        {
          "damageRatio": "QUEST_CONTENT_LEAVE_SCENE_RANGE",
          "param": [
            3,
            100
          ]
        },
        {
          "damageRatio": "QUEST_CONTENT_LUA_NOTIFY",
          "param": [
            0,
            0
          ],
          "count": 1
        }
      ],
      "guide": {
        "damageRatio": "QUEST_GUIDE_LOCATION",
        "param": [
          "[3_6966:2676.234,473.138,4158.716]",
          "100"
        ],
        "guideScene": 3,
        "MLAHIFLGIGJ": ""
      },
      "guideHint": {
        "param1": ""
      },
      "MEMGANDALKN": "QUEST_HIDDEN",
      "finishExec": [
        {
          "damageRatio": "QUEST_EXEC_UNREGISTER_DYNAMIC_GROUP",
          "param": [
            "133403529"
          ]
        }
      ],
      "failExec": [
        {
          "damageRatio": "QUEST_EXEC_ROLLBACK_QUEST",
          "param": [
            "1401704"
          ]
        }
      ],
      "versionBegin": "",
      "versionEnd": ""
    },
    {
      "subId": 1401706,
      "mainId": 14017,
      "order": 9,
      "descTextMapHash": 2877407476,
      "JIFODJPFKDF": [
        340313
      ],
      "finishCond": [
        {
          "damageRatio": "QUEST_CONTENT_LUA_NOTIFY",
          "param": [
            0,
            0
          ],
          "count": 1
        }
      ],
      "guide": {
        "damageRatio": "QUEST_GUIDE_LOCATION",
        "param": [
          "[3_6577:2652.259,469.309,4123.114]"
        ],
        "guideScene": 3,
        "guideStyle": "QUEST_GUIDE_STYLE_TARGET",
        "MLAHIFLGIGJ": ""
      },
      "guideHint": {
        "param1": ""
      },
      "isRewind": true,
      "versionBegin": "",
      "versionEnd": ""
    },
    {
      "subId": 1401707,
      "mainId": 14017,
      "order": 10,
      "descTextMapHash": 3206373108,
      "JIFODJPFKDF": [
        340313
      ],
      "finishCond": [
        {
          "damageRatio": "QUEST_CONTENT_COMPLETE_TALK",
          "param": [
            1401707,
            0
          ]
        }
      ],
      "guide": {
        "damageRatio": "QUEST_GUIDE_LOCATION",
        "param": [
          "[3_340300252:2652.470,467.705,4129.778,0.000,203.357,0.000]"
        ],
        "guideScene": 3,
        "guideStyle": "QUEST_GUIDE_STYLE_POINT",
        "guideLayer": "QUEST_GUIDE_LAYER_SCENE",
        "MLAHIFLGIGJ": ""
      },
      "guideHint": {
        "param1": ""
      },
      "isRewind": true,
      "finishExec": [
        {
          "damageRatio": "QUEST_EXEC_UNREGISTER_DYNAMIC_GROUP",
          "param": [
            "133403558,133403575"
          ]
        }
      ],
      "versionBegin": "",
      "versionEnd": ""
    },
    {
      "subId": 1401708,
      "mainId": 14017,
      "order": 12,
      "descTextMapHash": 186823804,
      "stepDescTextMapHash": 4018748645,
      "JIFODJPFKDF": [
        340314,
        340310
      ],
      "finishCond": [
        {
          "damageRatio": "QUEST_CONTENT_COMPLETE_TALK",
          "param": [
            1401708,
            0
          ]
        }
      ],
      "guide": {
        "damageRatio": "QUEST_GUIDE_LOCATION",
        "param": [
          "[3_340300258:2589.436,440.438,4360.818,0.000,312.838,0.000]"
        ],
        "guideScene": 3,
        "guideStyle": "QUEST_GUIDE_STYLE_POINT",
        "guideLayer": "QUEST_GUIDE_LAYER_SCENE",
        "MLAHIFLGIGJ": ""
      },
      "guideHint": {
        "param1": ""
      },
      "MEMGANDALKN": "QUEST_HIDDEN",
      "isRewind": true,
      "finishExec": [
        {
          "damageRatio": "QUEST_EXEC_UNREGISTER_DYNAMIC_GROUP",
          "param": [
            "133403588"
          ]
        }
      ],
      "versionBegin": "",
      "versionEnd": ""
    },
    {
      "subId": 1401709,
      "mainId": 14017,
      "order": 14,
      "descTextMapHash": 485120020,
      "JIFODJPFKDF": [
        340310
      ],
      "finishCond": [
        {
          "damageRatio": "QUEST_CONTENT_COMPLETE_TALK",
          "param": [
            1401709,
            0
          ]
        }
      ],
      "guide": {
        "damageRatio": "QUEST_GUIDE_LOCATION",
        "param": [
          "[3_340300261:2724.672,440.362,4327.843,0.000,189.971,0.000]"
        ],
        "guideScene": 3,
        "guideStyle": "QUEST_GUIDE_STYLE_POINT",
        "guideLayer": "QUEST_GUIDE_LAYER_SCENE",
        "MLAHIFLGIGJ": ""
      },
      "guideHint": {
        "param1": ""
      },
      "MEMGANDALKN": "QUEST_HIDDEN",
      "isRewind": true,
      "finishExec": [
        {
          "damageRatio": "QUEST_EXEC_SET_WEATHER_GADGET",
          "param": [
            "5058",
            "0"
          ]
        }
      ],
      "versionBegin": "",
      "versionEnd": ""
    },
    {
      "subId": 1401710,
      "mainId": 14017,
      "order": 15,
      "descTextMapHash": 3504722300,
      "JIFODJPFKDF": [
        340307
      ],
      "finishCond": [
        {
          "damageRatio": "QUEST_CONTENT_COMPLETE_TALK",
          "param": [
            1401710,
            0
          ]
        }
      ],
      "guide": {
        "damageRatio": "QUEST_GUIDE_LOCATION",
        "param": [
          "[3_340300265:2842.714,398.004,4162.024,0.000,66.791,0.000]"
        ],
        "guideScene": 3,
        "guideStyle": "QUEST_GUIDE_STYLE_POINT",
        "guideLayer": "QUEST_GUIDE_LAYER_SCENE",
        "MLAHIFLGIGJ": ""
      },
      "guideHint": {
        "param1": ""
      },
      "finishParent": true,
      "isRewind": true,
      "finishExec": [
        {
          "damageRatio": "QUEST_EXEC_UNREGISTER_DYNAMIC_GROUP",
          "param": [
            "133407028"
          ]
        },
        {
          "damageRatio": "QUEST_EXEC_SET_QUEST_GLOBAL_VAR",
          "param": [
            "1401701",
            "1"
          ]
        }
      ],
      "versionBegin": "",
      "versionEnd": ""
    },
    {
      "subId": 1401711,
      "mainId": 14017,
      "order": 7,
      "descTextMapHash": 488755916,
      "JIFODJPFKDF": [
        340313
      ],
      "finishCond": [
        {
          "damageRatio": "QUEST_CONTENT_COMPLETE_TALK",
          "param": [
            1401711,
            0
          ]
        }
      ],
      "guide": {
        "damageRatio": "QUEST_GUIDE_LOCATION",
        "param": [
          "[3_340300252:2652.470,467.705,4129.778,0.000,203.357,0.000]"
        ],
        "guideScene": 3,
        "guideStyle": "QUEST_GUIDE_STYLE_POINT",
        "MLAHIFLGIGJ": ""
      },
      "guideHint": {
        "param1": ""
      },
      "isRewind": true,
      "versionBegin": "",
      "versionEnd": ""
    },
    {
      "subId": 1401712,
      "mainId": 14017,
      "order": 8,
      "descTextMapHash": 303173468,
      "JIFODJPFKDF": [
        340313
      ],
      "finishCond": [
        {
          "damageRatio": "QUEST_CONTENT_LUA_NOTIFY",
          "param": [
            0,
            0
          ],
          "count": 1
        }
      ],
      "guide": {
        "damageRatio": "QUEST_GUIDE_LOCATION",
        "param": [
          "[3_6576:2652.530,467.818,4128.040]",
          "35"
        ],
        "guideScene": 3,
        "guideStyle": "QUEST_GUIDE_STYLE_TARGET",
        "MLAHIFLGIGJ": ""
      },
      "guideHint": {
        "param1": ""
      },
      "isRewind": true,
      "versionBegin": "",
      "versionEnd": ""
    },
    {
      "subId": 1401713,
      "mainId": 14017,
      "order": 2,
      "descTextMapHash": 2361192676,
      "JIFODJPFKDF": [
        340303,
        340310
      ],
      "finishCond": [
        {
          "damageRatio": "QUEST_CONTENT_COMPLETE_TALK",
          "param": [
            1401713,
            0
          ]
        }
      ],
      "guide": {
        "damageRatio": "QUEST_GUIDE_NPC",
        "param": [
          "1075"
        ],
        "guideScene": 3,
        "guideStyle": "QUEST_GUIDE_STYLE_TARGET",
        "MLAHIFLGIGJ": ""
      },
      "guideHint": {
        "param1": ""
      },
      "MEMGANDALKN": "QUEST_HIDDEN",
      "isRewind": true,
      "versionBegin": "",
      "versionEnd": ""
    },
    {
      "subId": 1401714,
      "mainId": 14017,
      "order": 11,
      "descTextMapHash": 2247778868,
      "showType": "QUEST_HIDDEN",
      "finishCond": [
        {
          "damageRatio": "QUEST_CONTENT_FINISH_PLOT",
          "param": [
            1401714,
            0
          ]
        },
        {
          "damageRatio": "QUEST_CONTENT_COMPLETE_TALK",
          "param": [
            1401707,
            0
          ]
        }
      ],
      "guide": {
        "MLAHIFLGIGJ": ""
      },
      "guideHint": {
        "param1": ""
      },
      "failParentShow": "QUEST_HIDDEN",
      "MEMGANDALKN": "QUEST_HIDDEN",
      "finishExec": [
        {
          "damageRatio": "QUEST_EXEC_NOTIFY_GROUP_LUA",
          "param": [
            "3",
            "133403575"
          ]
        }
      ],
      "versionBegin": "",
      "versionEnd": ""
    },
    {
      "subId": 1401715,
      "mainId": 14017,
      "order": 13,
      "descTextMapHash": 3717000884,
      "showType": "QUEST_HIDDEN",
      "finishCond": [
        {
          "damageRatio": "QUEST_CONTENT_FINISH_PLOT",
          "param": [
            1401715,
            0
          ]
        },
        {
          "damageRatio": "QUEST_CONTENT_COMPLETE_TALK",
          "param": [
            1401708,
            0
          ]
        }
      ],
      "guide": {
        "MLAHIFLGIGJ": ""
      },
      "guideHint": {
        "param1": ""
      },
      "finishExec": [
        {
          "damageRatio": "QUEST_EXEC_NOTIFY_GROUP_LUA",
          "param": [
            "3",
            "133403588"
          ]
        }
      ],
      "versionBegin": "",
      "versionEnd": ""
    }
  ],
  "talks": [
    {
      "id": 1401701,
      "beginWay": "TALK_BEGIN_MANUAL",
      "beginCond": [
        {
          "type": "QUEST_COND_STATE_EQUAL",
          "_param": [
            "1401701",
            "2"
          ]
        }
      ],
      "priority": 8,
      "initDialog": 140170101,
      "npcId": [
        1075,
        13399,
        13321,
        13709,
        13323
      ],
      "performCfg": "QuestDialogue/LQ/Navia_14017/Q1401701",
      "heroTalk": "TALK_HERO_MAIN",
      "questId": 14017,
      "assetIndex": 17693347123293516162,
      "prePerformCfg": "",
      "CHAKPMBJNAJ": [
        "[3_340300232:2758.527,379.554,4166.958,0.000,308.256,0.000]",
        "[3_340300233:2756.664,379.553,4168.218,0.000,117.540,0.000]",
        "[3_340300234:2756.353,379.554,4167.696,0.000,86.083,0.000]",
        "[3_340300235:2758.224,379.551,4169.100,0.000,195.036,0.000]",
        "[3_340300236:2757.399,379.555,4166.349]",
        "[3_340300237:2760.527,379.556,4162.807,0.000,91.872,0.000]",
        "[3_340300315:2761.356,379.555,4163.088,0.000,212.244,0.000]"
      ]
    },
    {
      "id": 1401703,
      "beginWay": "TALK_BEGIN_MANUAL",
      "beginCond": [
        {
          "type": "QUEST_COND_STATE_EQUAL",
          "_param": [
            "1401703",
            "2"
          ]
        }
      ],
      "priority": 8,
      "initDialog": 140170301,
      "npcId": [
        1075,
        13323
      ],
      "performCfg": "QuestDialogue/LQ/Navia_14017/Q1401703",
      "heroTalk": "TALK_HERO_MAIN",
      "questId": 14017,
      "assetIndex": 1105097492307155527,
      "prePerformCfg": "",
      "CHAKPMBJNAJ": [
        "[3_340300238:2760.312,379.598,4167.709,0.000,290.015,0.000]",
        "[3_340300240:2759.492,379.598,4166.887]",
        "[3_340300268:2760.513,379.598,4167.148,0.000,245.334,0.000]",
        "[3_340300343:2753.784,379.508,4172.123,0.000,136.326,0.000]",
        "[3_340300344:2759.649,379.489,4170.031,0.000,217.308,0.000]"
      ]
    },
    {
      "id": 1401704,
      "beginWay": "TALK_BEGIN_MANUAL",
      "beginCond": [
        {
          "type": "QUEST_COND_STATE_EQUAL",
          "_param": [
            "1401704",
            "2"
          ]
        }
      ],
      "priority": 8,
      "initDialog": 140170401,
      "npcId": [
        13320
      ],
      "performCfg": "QuestDialogue/LQ/Navia_14017/Q1401704",
      "heroTalk": "TALK_HERO_MAIN",
      "questId": 14017,
      "assetIndex": 16087397616024629707,
      "prePerformCfg": "",
      "CHAKPMBJNAJ": [
        "[3_340300248:2652.835,470.447,4226.692,0.000,175.347,0.000]",
        "[3_340300249:2652.638,470.469,4225.040]"
      ]
    },
    {
      "id": 1401707,
      "beginWay": "TALK_BEGIN_MANUAL",
      "beginCond": [
        {
          "type": "QUEST_COND_STATE_EQUAL",
          "_param": [
            "1401707",
            "2"
          ]
        }
      ],
      "priority": 8,
      "initDialog": 140170701,
      "npcId": [
        1005
      ],
      "performCfg": "QuestDialogue/LQ/Navia_14017/Q1401707",
      "heroTalk": "TALK_HERO_MAIN",
      "questId": 14017,
      "assetIndex": 15482172115496354712,
      "prePerformCfg": "",
      "CHAKPMBJNAJ": [
        "[3_340300251:2651.519,468.106,4128.749,0.000,41.471,0.000]",
        "[3_340300252:2652.470,467.705,4129.778,0.000,203.357,0.000]"
      ]
    },
    {
      "id": 1401708,
      "beginWay": "TALK_BEGIN_MANUAL",
      "beginCond": [
        {
          "type": "QUEST_COND_STATE_EQUAL",
          "_param": [
            "1401708",
            "2"
          ]
        }
      ],
      "priority": 8,
      "initDialog": 140170801,
      "npcId": [
        13778,
        1075,
        13323,
        13709
      ],
      "performCfg": "QuestDialogue/LQ/Navia_14017/Q1401708",
      "heroTalk": "TALK_HERO_MAIN",
      "questId": 14017,
      "assetIndex": 16220181559886422806,
      "prePerformCfg": "",
      "lockGameTime": true,
      "CHAKPMBJNAJ": [
        "[3_340300257:2588.302,440.330,4361.969,0.000,132.391,0.000]",
        "[3_340300258:2589.436,440.438,4360.818,0.000,312.838,0.000]",
        "[3_340300259:2588.388,440.538,4360.461]",
        "[3_340300271:2585.626,440.627,4361.528,0.000,114.853,0.000]",
        "[3_340300316:2586.087,440.770,4360.004,0.000,19.615,0.000]",
        "[3_340300321:2587.117,440.270,4362.976,0.000,134.022,0.000]",
        "[3_7294:2575.206,440.929,4364.482]",
        "[3_7295:2586.586,440.520,4381.213,0.000,90.000,0.000]",
        "[3_7296:2574.603,440.339,4367.823,0.000,180.000,0.000]",
        "[3_7297:2576.481,440.730,4365.390]",
        "[3_7298:2573.927,440.525,4366.759,0.000,120.000,0.000]",
        "[3_7299:2587.714,440.520,4381.679,0.000,240.000,0.000]"
      ]
    },
    {
      "id": 1401709,
      "beginWay": "TALK_BEGIN_MANUAL",
      "beginCond": [
        {
          "type": "QUEST_COND_STATE_EQUAL",
          "_param": [
            "1401709",
            "2"
          ]
        }
      ],
      "priority": 8,
      "initDialog": 140170901,
      "npcId": [
        1075,
        13323
      ],
      "performCfg": "QuestDialogue/LQ/Navia_14017/Q1401709",
      "heroTalk": "TALK_HERO_MAIN",
      "questId": 14017,
      "assetIndex": 10625036424349831175,
      "prePerformCfg": "",
      "CHAKPMBJNAJ": [
        "[3_340300260:2724.560,440.532,4325.758]",
        "[3_340300261:2724.672,440.362,4327.843,0.000,189.971,0.000]",
        "[3_340300262:2723.527,440.348,4327.486,0.000,148.512,0.000]",
        "[3_340300263:2727.560,440.553,4325.896,0.000,289.132,0.000]"
      ]
    },
    {
      "id": 1401710,
      "beginWay": "TALK_BEGIN_MANUAL",
      "beginCond": [
        {
          "type": "QUEST_COND_STATE_EQUAL",
          "_param": [
            "1401710",
            "2"
          ]
        }
      ],
      "priority": 8,
      "initDialog": 140171001,
      "npcId": [
        1075,
        13323,
        13399,
        13321
      ],
      "performCfg": "QuestDialogue/LQ/Navia_14017/Q1401710",
      "heroTalk": "TALK_HERO_MAIN",
      "questId": 14017,
      "assetIndex": 1243482541176342745,
      "prePerformCfg": "",
      "CHAKPMBJNAJ": [
        "[3_340300264:2843.193,398.092,4163.716,0.000,74.657,0.000]",
        "[3_340300265:2842.714,398.004,4162.024,0.000,66.791,0.000]",
        "[3_340300266:2843.034,398.004,4164.954,0.000,108.048,0.000]",
        "[3_340300267:2848.115,398.004,4159.697,0.000,337.008,0.000]",
        "[3_340300312:2847.584,398.004,4161.628,0.000,307.146,0.000]",
        "[3_340300313:2848.105,398.004,4163.506,0.000,277.348,0.000]",
        "[3_340300314:2846.020,398.056,4161.238,0.000,309.859,0.000]",
        "[3_340300317:2846.692,398.004,4164.336,0.000,275.263,0.000]",
        "[3_340300318:2846.872,398.004,4164.935,359.485,265.802,359.956]"
      ]
    },
    {
      "id": 1401711,
      "beginWay": "TALK_BEGIN_MANUAL",
      "beginCond": [
        {
          "type": "QUEST_COND_STATE_EQUAL",
          "_param": [
            "1401711",
            "2"
          ]
        }
      ],
      "priority": 8,
      "initDialog": 140171101,
      "npcId": [
        13320
      ],
      "performCfg": "QuestDialogue/LQ/Navia_14017/Q1401711",
      "heroTalk": "TALK_HERO_MAIN",
      "questId": 14017,
      "assetIndex": 16303733430759011766,
      "prePerformCfg": "",
      "CHAKPMBJNAJ": [
        "[3_340300251:2651.519,468.106,4128.749,0.000,41.471,0.000]",
        "[3_340300252:2652.470,467.705,4129.778,0.000,203.357,0.000]"
      ]
    },
    {
      "id": 1401713,
      "beginWay": "TALK_BEGIN_MANUAL",
      "beginCond": [
        {
          "type": "QUEST_COND_STATE_EQUAL",
          "_param": [
            "1401713",
            "2"
          ]
        }
      ],
      "priority": 5,
      "initDialog": 140170147,
      "npcId": [
        1075
      ],
      "performCfg": "QuestDialogue/LQ/Navia_14017/Q1401713",
      "questId": 14017,
      "assetIndex": 3595812038874077234,
      "prePerformCfg": "",
      "CHAKPMBJNAJ": [
        "[3_340300232:2758.527,379.554,4166.958,0.000,308.256,0.000]",
        "[3_340300233:2756.664,379.553,4168.218,0.000,117.540,0.000]",
        "[3_340300235:2758.224,379.551,4169.100,0.000,195.036,0.000]",
        "[3_340300236:2757.399,379.555,4166.349]",
        "[3_340300237:2760.527,379.556,4162.807,0.000,91.872,0.000]"
      ]
    },
    {
      "id": 1401750,
      "beginWay": "TALK_BEGIN_MANUAL",
      "beginCond": [
        {
          "type": "QUEST_COND_STATE_EQUAL",
          "_param": [
            "1401712",
            "2"
          ]
        }
      ],
      "priority": 5,
      "initDialog": 140175001,
      "npcId": [
        1005
      ],
      "performCfg": "QuestDialogue/LQ/Navia_14017/Q1401750",
      "heroTalk": "TALK_HERO_MAIN",
      "questId": 14017,
      "assetIndex": 13554439086968712767,
      "prePerformCfg": "",
      "lowPriority": true
    },
    {
      "id": 1401751,
      "beginWay": "TALK_BEGIN_MANUAL",
      "beginCond": [
        {
          "type": "QUEST_COND_STATE_EQUAL",
          "_param": [
            "1401706",
            "2"
          ]
        }
      ],
      "priority": 5,
      "initDialog": 140175101,
      "npcId": [
        1005
      ],
      "performCfg": "QuestDialogue/LQ/Navia_14017/Q1401751",
      "heroTalk": "TALK_HERO_MAIN",
      "questId": 14017,
      "assetIndex": 15452880321892519605,
      "prePerformCfg": "",
      "lowPriority": true
    }
  ],
  "preloadLuaList": [
    14457059026087496718,
    9143107195229211923,
    12889748319411531478,
    15876750683534900704,
    16371858950303893626,
    3712743543658804516,
    9320100368884301306
  ],
  "forcePreloadLuaList": [
    7818859977490534907
  ],
  "freeStyleDic": {
    "13321": [
      1120,
      1060
    ],
    "13323": [
      1080
    ],
    "13399": [
      1060
    ],
    "13774": [
      4130
    ],
    "13775": [
      4121
    ],
    "13776": [
      4130
    ],
    "13777": [
      4121
    ]
  },
  "dialogList": [
    {
      "id": 140171026,
      "talkRole": {
        "type": "TALK_ROLE_PLAYER",
        "_id": ""
      },
      "talkRoleNameTextMapHash": 2307369659,
      "talkAssetPath": "",
      "talkAssetPathAlter": "",
      "talkAudioName": "",
      "actionBefore": "",
      "actionWhile": "",
      "actionAfter": "",
      "optionIcon": "",
      "iconPath": ""
    },
    {
      "id": 140171027,
      "talkRole": {
        "type": "TALK_ROLE_PLAYER",
        "_id": ""
      },
      "talkRoleNameTextMapHash": 533974515,
      "talkAssetPath": "",
      "talkAssetPathAlter": "",
      "talkAudioName": "",
      "actionBefore": "",
      "actionWhile": "",
      "actionAfter": "",
      "optionIcon": "",
      "iconPath": ""
    }
  ],
  "LNMELPHNIDD": true
}