{
  "id": 14019,
  "resId": 2038,
  "damageRatio": "LQ",
  "luaPath": "Actor/Quest/LQ14019",
  "showType": "QUEST_HIDDEN",
  "chapterId": 2040,
  "subQuests": [
    {
      "subId": 1401901,
      "mainId": 14019,
      "order": 1,
      "showType": "QUEST_HIDDEN",
      "finishCond": [
        {
          "damageRatio": "QUEST_CONTENT_FINISH_PLOT",
          "param": [
            1401901,
            0
          ]
        }
      ],
      "guide": {
        "MLAHIFLGIGJ": ""
      },
      "guideHint": {
        "param1": ""
      },
      "finishParent": true,
      "isRewind": true,
      "finishExec": [
        {
          "damageRatio": "QUEST_EXEC_REFRESH_GROUP_SUITE",
          "param": [
            "1085",
            "201085006,1"
          ]
        }
      ],
      "versionBegin": "",
      "versionEnd": ""
    }
  ]
}