{
  "id": 15010,
  "resId": 2057,
  "series": 2057,
  "damageRatio": "LQ",
  "mainQuestTag": "MAINQUEST_TAG_NATLAN_TRIBAL",
  "descTextMapHash": 3806739823,
  "EKEKACCODOE": 2133901030,
  "luaPath": "Actor/Quest/LQ15010",
  "rewardIdList": [
    115010
  ],
  "specialShowRewardId": [
    29005
  ],
  "chapterId": 2057,
  "NAOFGBNMCCI": true,
  "BONJIMPOJLG": true,
  "subQuests": [
    {
      "subId": 1501001,
      "mainId": 15010,
      "order": 1,
      "descTextMapHash": 4116037404,
      "finishCond": [
        {
          "damageRatio": "QUEST_CONTENT_COMPLETE_TALK",
          "param": [
            1501001,
            0
          ]
        }
      ],
      "guide": {
        "damageRatio": "QUEST_GUIDE_NPC",
        "param": [
          "1087"
        ],
        "guideScene": 3,
        "guideStyle": "QUEST_GUIDE_STYLE_TARGET",
        "guideLayer": "QUEST_GUIDE_LAYER_SCENE",
        "MLAHIFLGIGJ": ""
      },
      "guideHint": {
        "param1": ""
      },
      "isRewind": true,
      "versionBegin": "",
      "versionEnd": ""
    },
    {
      "subId": 1501002,
      "mainId": 15010,
      "order": 2,
      "descTextMapHash": 1317795644,
      "finishCond": [
        {
          "damageRatio": "QUEST_CONTENT_ENTER_DUNGEON",
          "param": [
            1218,
            1379
          ]
        }
      ],
      "guide": {
        "damageRatio": "QUEST_GUIDE_LOCATION",
        "param": [
          "[3_350200199:-2715.029,200.000,8274.494]"
        ],
        "guideScene": 3,
        "guideStyle": "QUEST_GUIDE_STYLE_TARGET",
        "guideLayer": "QUEST_GUIDE_LAYER_SCENE",
        "MLAHIFLGIGJ": ""
      },
      "guideHint": {
        "param1": ""
      },
      "isRewind": true,
      "finishExec": [
        {
          "damageRatio": "QUEST_EXEC_GRANT_TRIAL_AVATAR",
          "param": [
            "99"
          ]
        },
        {
          "damageRatio": "QUEST_EXEC_SET_WEATHER_GADGET",
          "param": [
            "6025",
            "0"
          ]
        },
        {
          "damageRatio": "QUEST_EXEC_UNREGISTER_DYNAMIC_GROUP",
          "param": [
            "133502491"
          ]
        },
        {
          "damageRatio": "QUEST_EXEC_UNREGISTER_DYNAMIC_GROUP",
          "param": [
            "133502180"
          ]
        },
        {
          "damageRatio": "QUEST_EXEC_UNREGISTER_DYNAMIC_GROUP",
          "param": [
            "133502336"
          ]
        }
      ],
      "versionBegin": "",
      "versionEnd": ""
    },
    {
      "subId": 1501003,
      "mainId": 15010,
      "order": 3,
      "descTextMapHash": 179056516,
      "finishCond": [
        {
          "damageRatio": "QUEST_CONTENT_COMPLETE_TALK",
          "param": [
            1501002,
            0
          ]
        }
      ],
      "failCond": [
        {
          "damageRatio": "QUEST_CONTENT_FAIL_DUNGEON",
          "param": [
            1218,
            0
          ]
        },
        {
          "damageRatio": "QUEST_CONTENT_ENTER_MY_WORLD",
          "param": [
            3,
            0
          ]
        },
        {
          "damageRatio": "QUEST_CONTENT_LEAVE_SCENE",
          "param": [
            20232,
            0
          ]
        }
      ],
      "guide": {
        "damageRatio": "QUEST_GUIDE_LOCATION",
        "param": [
          "[20232_1:108.314,159.136,414.034]"
        ],
        "guideScene": 20232,
        "guideStyle": "QUEST_GUIDE_STYLE_TARGET",
        "guideLayer": "QUEST_GUIDE_LAYER_SCENE",
        "MLAHIFLGIGJ": ""
      },
      "guideHint": {
        "param1": ""
      },
      "isRewind": true,
      "failExec": [
        {
          "damageRatio": "QUEST_EXEC_REMOVE_TRIAL_AVATAR",
          "param": [
            "99"
          ]
        },
        {
          "damageRatio": "QUEST_EXEC_ROLLBACK_QUEST",
          "param": [
            "1501002"
          ]
        }
      ],
      "versionBegin": "",
      "versionEnd": ""
    },
    {
      "subId": 1501004,
      "mainId": 15010,
      "order": 5,
      "descTextMapHash": 1516308660,
      "finishCond": [
        {
          "damageRatio": "QUEST_CONTENT_COMPLETE_TALK",
          "param": [
            1501003,
            0
          ]
        }
      ],
      "failCond": [
        {
          "damageRatio": "QUEST_CONTENT_FAIL_DUNGEON",
          "param": [
            1218,
            0
          ]
        },
        {
          "damageRatio": "QUEST_CONTENT_ENTER_MY_WORLD",
          "param": [
            3,
            0
          ]
        },
        {
          "damageRatio": "QUEST_CONTENT_LEAVE_SCENE",
          "param": [
            20232,
            0
          ]
        }
      ],
      "guide": {
        "damageRatio": "QUEST_GUIDE_LOCATION",
        "param": [
          "[20232_2:287.927,101.942,532.248,0.000,149.975,0.000]"
        ],
        "guideScene": 20232,
        "guideStyle": "QUEST_GUIDE_STYLE_TARGET",
        "guideLayer": "QUEST_GUIDE_LAYER_SCENE",
        "MLAHIFLGIGJ": ""
      },
      "guideHint": {
        "param1": ""
      },
      "isRewind": true,
      "failExec": [
        {
          "damageRatio": "QUEST_EXEC_REMOVE_TRIAL_AVATAR",
          "param": [
            "99"
          ]
        },
        {
          "damageRatio": "QUEST_EXEC_ROLLBACK_QUEST",
          "param": [
            "1501002"
          ]
        }
      ],
      "versionBegin": "",
      "versionEnd": ""
    },
    {
      "subId": 1501005,
      "mainId": 15010,
      "order": 10,
      "descTextMapHash": 3227051100,
      "finishCond": [
        {
          "damageRatio": "QUEST_CONTENT_COMPLETE_TALK",
          "param": [
            1501004,
            0
          ]
        }
      ],
      "failCond": [
        {
          "damageRatio": "QUEST_CONTENT_FAIL_DUNGEON",
          "param": [
            1218,
            0
          ]
        },
        {
          "damageRatio": "QUEST_CONTENT_ENTER_MY_WORLD",
          "param": [
            3,
            0
          ]
        },
        {
          "damageRatio": "QUEST_CONTENT_LEAVE_SCENE",
          "param": [
            20232,
            0
          ]
        }
      ],
      "guide": {
        "damageRatio": "QUEST_GUIDE_LOCATION",
        "param": [
          "[20232_6:334.472,94.423,552.650,0.000,78.959,0.000]"
        ],
        "guideScene": 20232,
        "guideStyle": "QUEST_GUIDE_STYLE_TARGET",
        "guideLayer": "QUEST_GUIDE_LAYER_SCENE",
        "MLAHIFLGIGJ": ""
      },
      "guideHint": {
        "param1": ""
      },
      "isRewind": true,
      "finishExec": [
        {
          "damageRatio": "QUEST_EXEC_NOTIFY_GROUP_LUA",
          "param": [
            "20232",
            "220232011"
          ]
        }
      ],
      "failExec": [
        {
          "damageRatio": "QUEST_EXEC_REMOVE_TRIAL_AVATAR",
          "param": [
            "99"
          ]
        },
        {
          "damageRatio": "QUEST_EXEC_ROLLBACK_QUEST",
          "param": [
            "1501002"
          ]
        }
      ],
      "versionBegin": "",
      "versionEnd": ""
    },
    {
      "subId": 1501006,
      "mainId": 15010,
      "order": 12,
      "descTextMapHash": 126344068,
      "finishCond": [
        {
          "damageRatio": "QUEST_CONTENT_LUA_NOTIFY",
          "param": [
            0,
            0
          ],
          "count": 1
        }
      ],
      "failCond": [
        {
          "damageRatio": "QUEST_CONTENT_FAIL_DUNGEON",
          "param": [
            1218,
            0
          ]
        },
        {
          "damageRatio": "QUEST_CONTENT_ENTER_MY_WORLD",
          "param": [
            3,
            0
          ]
        },
        {
          "damageRatio": "QUEST_CONTENT_LEAVE_SCENE",
          "param": [
            20232,
            0
          ]
        }
      ],
      "guide": {
        "damageRatio": "QUEST_GUIDE_LOCATION",
        "param": [
          "[20232_6:334.472,94.423,552.650,0.000,78.959,0.000]"
        ],
        "guideScene": 20232,
        "guideStyle": "QUEST_GUIDE_STYLE_TARGET",
        "guideLayer": "QUEST_GUIDE_LAYER_SCENE",
        "MLAHIFLGIGJ": ""
      },
      "guideHint": {
        "param1": ""
      },
      "isRewind": true,
      "finishExec": [
        {
          "damageRatio": "QUEST_EXEC_NOTIFY_GROUP_LUA",
          "param": [
            "20232",
            "220232009"
          ]
        }
      ],
      "failExec": [
        {
          "damageRatio": "QUEST_EXEC_REMOVE_TRIAL_AVATAR",
          "param": [
            "99"
          ]
        },
        {
          "damageRatio": "QUEST_EXEC_ROLLBACK_QUEST",
          "param": [
            "1501002"
          ]
        }
      ],
      "versionBegin": "",
      "versionEnd": ""
    },
    {
      "subId": 1501007,
      "mainId": 15010,
      "order": 13,
      "descTextMapHash": 2733148444,
      "finishCond": [
        {
          "damageRatio": "QUEST_CONTENT_COMPLETE_TALK",
          "param": [
            1501005,
            0
          ]
        }
      ],
      "failCond": [
        {
          "damageRatio": "QUEST_CONTENT_FAIL_DUNGEON",
          "param": [
            1218,
            0
          ]
        },
        {
          "damageRatio": "QUEST_CONTENT_ENTER_MY_WORLD",
          "param": [
            3,
            0
          ]
        },
        {
          "damageRatio": "QUEST_CONTENT_LEAVE_SCENE",
          "param": [
            20232,
            0
          ]
        }
      ],
      "guide": {
        "damageRatio": "QUEST_GUIDE_LOCATION",
        "param": [
          "[20232_10:352.796,92.877,555.262,0.000,261.490,0.000]"
        ],
        "guideScene": 20232,
        "guideStyle": "QUEST_GUIDE_STYLE_TARGET",
        "guideLayer": "QUEST_GUIDE_LAYER_SCENE",
        "MLAHIFLGIGJ": ""
      },
      "guideHint": {
        "param1": ""
      },
      "isRewind": true,
      "failExec": [
        {
          "damageRatio": "QUEST_EXEC_REMOVE_TRIAL_AVATAR",
          "param": [
            "99"
          ]
        },
        {
          "damageRatio": "QUEST_EXEC_ROLLBACK_QUEST",
          "param": [
            "1501002"
          ]
        }
      ],
      "versionBegin": "",
      "versionEnd": ""
    },
    {
      "subId": 1501008,
      "mainId": 15010,
      "order": 18,
      "descTextMapHash": 1799810852,
      "finishCond": [
        {
          "damageRatio": "QUEST_CONTENT_COMPLETE_TALK",
          "param": [
            1501006,
            0
          ]
        }
      ],
      "failCond": [
        {
          "damageRatio": "QUEST_CONTENT_FAIL_DUNGEON",
          "param": [
            1218,
            0
          ]
        },
        {
          "damageRatio": "QUEST_CONTENT_ENTER_MY_WORLD",
          "param": [
            3,
            0
          ]
        },
        {
          "damageRatio": "QUEST_CONTENT_LEAVE_SCENE",
          "param": [
            20232,
            0
          ]
        }
      ],
      "guide": {
        "damageRatio": "QUEST_GUIDE_LOCATION",
        "param": [
          "[20232_14:348.928,92.716,548.278,0.000,88.400,0.000]"
        ],
        "guideScene": 20232,
        "guideStyle": "QUEST_GUIDE_STYLE_TARGET",
        "guideLayer": "QUEST_GUIDE_LAYER_SCENE",
        "MLAHIFLGIGJ": ""
      },
      "guideHint": {
        "param1": ""
      },
      "isRewind": true,
      "finishExec": [
        {
          "damageRatio": "QUEST_EXEC_UNLOCK_MIRROR_AVATAR_TEAM"
        }
      ],
      "failExec": [
        {
          "damageRatio": "QUEST_EXEC_UNLOCK_MIRROR_AVATAR_TEAM"
        },
        {
          "damageRatio": "QUEST_EXEC_ROLLBACK_QUEST",
          "param": [
            "1501002"
          ]
        }
      ],
      "versionBegin": "",
      "versionEnd": ""
    },
    {
      "subId": 1501009,
      "mainId": 15010,
      "order": 20,
      "descTextMapHash": 2628501340,
      "finishCond": [
        {
          "damageRatio": "QUEST_CONTENT_COMPLETE_TALK",
          "param": [
            1501007,
            0
          ]
        }
      ],
      "guide": {
        "damageRatio": "QUEST_GUIDE_LOCATION",
        "param": [
          "[3_350200074:-2877.621,204.052,8807.765,0.000,188.688,0.000]"
        ],
        "guideScene": 3,
        "guideStyle": "QUEST_GUIDE_STYLE_POINT",
        "guideLayer": "QUEST_GUIDE_LAYER_SCENE",
        "MLAHIFLGIGJ": ""
      },
      "guideHint": {
        "param1": ""
      },
      "isRewind": true,
      "finishExec": [
        {
          "damageRatio": "QUEST_EXEC_SET_GAME_TIME",
          "param": [
            "14"
          ]
        }
      ],
      "versionBegin": "",
      "versionEnd": ""
    },
    {
      "subId": 1501010,
      "mainId": 15010,
      "order": 21,
      "descTextMapHash": 1912478604,
      "stepDescTextMapHash": 3986512237,
      "JIFODJPFKDF": [
        350231
      ],
      "finishCond": [
        {
          "damageRatio": "QUEST_CONTENT_COMPLETE_TALK",
          "param": [
            1501008,
            0
          ]
        }
      ],
      "guide": {
        "damageRatio": "QUEST_GUIDE_NPC",
        "param": [
          "14230"
        ],
        "guideScene": 3,
        "guideStyle": "QUEST_GUIDE_STYLE_TARGET",
        "guideLayer": "QUEST_GUIDE_LAYER_SCENE",
        "MLAHIFLGIGJ": ""
      },
      "guideHint": {
        "param1": ""
      },
      "isRewind": true,
      "finishExec": [
        {
          "damageRatio": "QUEST_EXEC_SET_GAME_TIME",
          "param": [
            "15"
          ]
        }
      ],
      "versionBegin": "",
      "versionEnd": ""
    },
    {
      "subId": 1501011,
      "mainId": 15010,
      "order": 6,
      "subIdSet": 1501011,
      "descTextMapHash": 1104934676,
      "finishCond": [
        {
          "damageRatio": "QUEST_CONTENT_COMPLETE_TALK",
          "param": [
            1501009,
            0
          ]
        }
      ],
      "failCond": [
        {
          "damageRatio": "QUEST_CONTENT_FAIL_DUNGEON",
          "param": [
            1218,
            0
          ]
        },
        {
          "damageRatio": "QUEST_CONTENT_ENTER_MY_WORLD",
          "param": [
            3,
            0
          ]
        },
        {
          "damageRatio": "QUEST_CONTENT_LEAVE_SCENE",
          "param": [
            20232,
            0
          ]
        }
      ],
      "guide": {
        "MLAHIFLGIGJ": ""
      },
      "guideHint": {
        "param1": ""
      },
      "failExec": [
        {
          "damageRatio": "QUEST_EXEC_REMOVE_TRIAL_AVATAR",
          "param": [
            "99"
          ]
        },
        {
          "damageRatio": "QUEST_EXEC_ROLLBACK_QUEST",
          "param": [
            "1501002"
          ]
        }
      ],
      "versionBegin": "",
      "versionEnd": ""
    },
    {
      "subId": 1501012,
      "mainId": 15010,
      "order": 7,
      "subIdSet": 1501011,
      "descTextMapHash": 1085103524,
      "finishCond": [
        {
          "damageRatio": "QUEST_CONTENT_COMPLETE_TALK",
          "param": [
            1501010,
            0
          ]
        }
      ],
      "failCond": [
        {
          "damageRatio": "QUEST_CONTENT_FAIL_DUNGEON",
          "param": [
            1218,
            0
          ]
        },
        {
          "damageRatio": "QUEST_CONTENT_ENTER_MY_WORLD",
          "param": [
            3,
            0
          ]
        },
        {
          "damageRatio": "QUEST_CONTENT_LEAVE_SCENE",
          "param": [
            20232,
            0
          ]
        }
      ],
      "guide": {
        "MLAHIFLGIGJ": ""
      },
      "guideHint": {
        "param1": ""
      },
      "failExec": [
        {
          "damageRatio": "QUEST_EXEC_REMOVE_TRIAL_AVATAR",
          "param": [
            "99"
          ]
        },
        {
          "damageRatio": "QUEST_EXEC_ROLLBACK_QUEST",
          "param": [
            "1501002"
          ]
        }
      ],
      "versionBegin": "",
      "versionEnd": ""
    },
    {
      "subId": 1501013,
      "mainId": 15010,
      "order": 8,
      "subIdSet": 1501011,
      "descTextMapHash": 161085468,
      "finishCond": [
        {
          "damageRatio": "QUEST_CONTENT_COMPLETE_TALK",
          "param": [
            1501011,
            0
          ]
        }
      ],
      "failCond": [
        {
          "damageRatio": "QUEST_CONTENT_FAIL_DUNGEON",
          "param": [
            1218,
            0
          ]
        },
        {
          "damageRatio": "QUEST_CONTENT_ENTER_MY_WORLD",
          "param": [
            3,
            0
          ]
        },
        {
          "damageRatio": "QUEST_CONTENT_LEAVE_SCENE",
          "param": [
            20232,
            0
          ]
        }
      ],
      "guide": {
        "MLAHIFLGIGJ": ""
      },
      "guideHint": {
        "param1": ""
      },
      "failExec": [
        {
          "damageRatio": "QUEST_EXEC_REMOVE_TRIAL_AVATAR",
          "param": [
            "99"
          ]
        },
        {
          "damageRatio": "QUEST_EXEC_ROLLBACK_QUEST",
          "param": [
            "1501002"
          ]
        }
      ],
      "versionBegin": "",
      "versionEnd": ""
    },
    {
      "subId": 1501014,
      "mainId": 15010,
      "order": 19,
      "descTextMapHash": 4050818676,
      "finishCond": [
        {
          "damageRatio": "QUEST_CONTENT_COMPLETE_TALK",
          "param": [
            1501012,
            0
          ]
        }
      ],
      "failCond": [
        {
          "damageRatio": "QUEST_CONTENT_FAIL_DUNGEON",
          "param": [
            1218,
            0
          ]
        },
        {
          "damageRatio": "QUEST_CONTENT_ENTER_MY_WORLD",
          "param": [
            3,
            0
          ]
        },
        {
          "damageRatio": "QUEST_CONTENT_LEAVE_SCENE",
          "param": [
            20232,
            0
          ]
        }
      ],
      "guide": {
        "damageRatio": "QUEST_GUIDE_LOCATION",
        "param": [
          "[20232_15:351.552,92.877,555.260,0.000,78.959,0.000]"
        ],
        "guideScene": 20232,
        "MLAHIFLGIGJ": ""
      },
      "guideHint": {
        "param1": ""
      },
      "isRewind": true,
      "finishExec": [
        {
          "damageRatio": "QUEST_EXEC_SET_GAME_TIME",
          "param": [
            "13"
          ]
        }
      ],
      "failExec": [
        {
          "damageRatio": "QUEST_EXEC_ROLLBACK_QUEST",
          "param": [
            "1501002"
          ]
        }
      ],
      "versionBegin": "",
      "versionEnd": ""
    },
    {
      "subId": 1501015,
      "mainId": 15010,
      "order": 24,
      "descTextMapHash": 2279784276,
      "stepDescTextMapHash": 3838029509,
      "JIFODJPFKDF": [
        350231,
        350236
      ],
      "finishCond": [
        {
          "damageRatio": "QUEST_CONTENT_COMPLETE_TALK",
          "param": [
            1501013,
            0
          ]
        }
      ],
      "guide": {
        "damageRatio": "QUEST_GUIDE_NPC",
        "param": [
          "1087"
        ],
        "guideScene": 3,
        "guideStyle": "QUEST_GUIDE_STYLE_TARGET",
        "guideLayer": "QUEST_GUIDE_LAYER_SCENE",
        "MLAHIFLGIGJ": ""
      },
      "guideHint": {
        "param1": ""
      },
      "finishParent": true,
      "isRewind": true,
      "finishExec": [
        {
          "damageRatio": "QUEST_EXEC_UNREGISTER_DYNAMIC_GROUP",
          "param": [
            "133502619"
          ]
        },
        {
          "damageRatio": "QUEST_EXEC_DEL_ALL_SPECIFIC_PACK_ITEM",
          "param": [
            "121028"
          ]
        },
        {
          "damageRatio": "QUEST_EXEC_SET_QUEST_GLOBAL_VAR",
          "param": [
            "1501001",
            "1"
          ]
        }
      ],
      "versionBegin": "",
      "versionEnd": ""
    },
    {
      "subId": 1501016,
      "mainId": 15010,
      "order": 15,
      "descTextMapHash": 2153695332,
      "showType": "QUEST_HIDDEN",
      "finishCond": [
        {
          "damageRatio": "QUEST_CONTENT_QUEST_STATE_EQUAL",
          "param": [
            1501008,
            3
          ]
        }
      ],
      "guide": {
        "MLAHIFLGIGJ": ""
      },
      "guideHint": {
        "param1": ""
      },
      "versionBegin": "",
      "versionEnd": ""
    },
    {
      "subId": 1501017,
      "mainId": 15010,
      "order": 4,
      "descTextMapHash": 1720222932,
      "finishCond": [
        {
          "damageRatio": "QUEST_CONTENT_COMPLETE_TALK",
          "param": [
            1501015,
            0
          ]
        }
      ],
      "failCond": [
        {
          "damageRatio": "QUEST_CONTENT_FAIL_DUNGEON",
          "param": [
            1218,
            0
          ]
        },
        {
          "damageRatio": "QUEST_CONTENT_ENTER_MY_WORLD",
          "param": [
            3,
            0
          ]
        },
        {
          "damageRatio": "QUEST_CONTENT_LEAVE_SCENE",
          "param": [
            20232,
            0
          ]
        }
      ],
      "guide": {
        "MLAHIFLGIGJ": ""
      },
      "guideHint": {
        "param1": ""
      },
      "isRewind": true,
      "failExec": [
        {
          "damageRatio": "QUEST_EXEC_REMOVE_TRIAL_AVATAR",
          "param": [
            "99"
          ]
        },
        {
          "damageRatio": "QUEST_EXEC_ROLLBACK_QUEST",
          "param": [
            "1501002"
          ]
        }
      ],
      "versionBegin": "",
      "versionEnd": ""
    },
    {
      "subId": 1501018,
      "mainId": 15010,
      "order": 16,
      "descTextMapHash": 1311987708,
      "showType": "QUEST_HIDDEN",
      "finishCond": [
        {
          "damageRatio": "QUEST_CONTENT_QUEST_STATE_EQUAL",
          "param": [
            1501008,
            3
          ]
        }
      ],
      "guide": {
        "MLAHIFLGIGJ": ""
      },
      "guideHint": {
        "param1": ""
      },
      "versionBegin": "",
      "versionEnd": ""
    },
    {
      "subId": 1501019,
      "mainId": 15010,
      "order": 25,
      "descTextMapHash": 2901976996,
      "showType": "QUEST_HIDDEN",
      "finishCond": [
        {
          "damageRatio": "QUEST_CONTENT_COMPLETE_TALK",
          "param": [
            1501014,
            0
          ]
        },
        {
          "damageRatio": "QUEST_CONTENT_QUEST_STATE_EQUAL",
          "param": [
            1501004,
            3
          ]
        }
      ],
      "guide": {
        "MLAHIFLGIGJ": ""
      },
      "guideHint": {
        "param1": ""
      },
      "versionBegin": "",
      "versionEnd": ""
    },
    {
      "subId": 1501020,
      "mainId": 15010,
      "order": 11,
      "descTextMapHash": 2756480660,
      "showType": "QUEST_HIDDEN",
      "finishCond": [
        {
          "damageRatio": "QUEST_CONTENT_FINISH_PLOT",
          "param": [
            1501020,
            0
          ]
        },
        {
          "damageRatio": "QUEST_CONTENT_QUEST_STATE_EQUAL",
          "param": [
            1501005,
            3
          ]
        }
      ],
      "guide": {
        "MLAHIFLGIGJ": ""
      },
      "guideHint": {
        "param1": ""
      },
      "finishExec": [
        {
          "damageRatio": "QUEST_EXEC_NOTIFY_GROUP_LUA",
          "param": [
            "20232",
            "220232009"
          ]
        }
      ],
      "versionBegin": "",
      "versionEnd": ""
    },
    {
      "subId": 1501021,
      "mainId": 15010,
      "order": 14,
      "descTextMapHash": 1511230892,
      "finishCond": [
        {
          "damageRatio": "QUEST_CONTENT_LUA_NOTIFY",
          "param": [
            0,
            0
          ],
          "count": 1
        }
      ],
      "failCond": [
        {
          "damageRatio": "QUEST_CONTENT_FAIL_DUNGEON",
          "param": [
            1218,
            0
          ]
        },
        {
          "damageRatio": "QUEST_CONTENT_ENTER_MY_WORLD",
          "param": [
            3,
            0
          ]
        },
        {
          "damageRatio": "QUEST_CONTENT_LEAVE_SCENE",
          "param": [
            20232,
            0
          ]
        }
      ],
      "guide": {
        "damageRatio": "QUEST_GUIDE_LOCATION",
        "param": [
          "[20232_10:352.796,92.877,555.262,0.000,261.490,0.000]"
        ],
        "guideScene": 20232,
        "guideStyle": "QUEST_GUIDE_STYLE_TARGET",
        "guideLayer": "QUEST_GUIDE_LAYER_SCENE",
        "MLAHIFLGIGJ": ""
      },
      "guideHint": {
        "param1": ""
      },
      "isRewind": true,
      "failExec": [
        {
          "damageRatio": "QUEST_EXEC_ROLLBACK_QUEST",
          "param": [
            "1501002"
          ]
        },
        {
          "damageRatio": "QUEST_EXEC_UNLOCK_MIRROR_AVATAR_TEAM"
        }
      ],
      "versionBegin": "",
      "versionEnd": ""
    },
    {
      "subId": 1501022,
      "mainId": 15010,
      "order": 23,
      "descTextMapHash": 40284332,
      "showType": "QUEST_HIDDEN",
      "finishCond": [
        {
          "damageRatio": "QUEST_CONTENT_COMPLETE_TALK",
          "param": [
            1501013,
            0
          ]
        },
        {
          "damageRatio": "QUEST_CONTENT_QUEST_STATE_EQUAL",
          "param": [
            1501015,
            3
          ]
        }
      ],
      "guide": {
        "MLAHIFLGIGJ": ""
      },
      "guideHint": {
        "param1": ""
      },
      "versionBegin": "",
      "versionEnd": ""
    },
    {
      "subId": 1501023,
      "mainId": 15010,
      "order": 22,
      "descTextMapHash": 3934956348,
      "showType": "QUEST_HIDDEN",
      "finishCond": [
        {
          "damageRatio": "QUEST_CONTENT_COMPLETE_TALK",
          "param": [
            1501013,
            0
          ]
        },
        {
          "damageRatio": "QUEST_CONTENT_QUEST_STATE_EQUAL",
          "param": [
            1501015,
            3
          ]
        }
      ],
      "guide": {
        "MLAHIFLGIGJ": ""
      },
      "guideHint": {
        "param1": ""
      },
      "versionBegin": "",
      "versionEnd": ""
    },
    {
      "subId": 1501024,
      "mainId": 15010,
      "order": 17,
      "descTextMapHash": 1512128316,
      "finishCond": [
        {
          "damageRatio": "QUEST_CONTENT_LUA_NOTIFY",
          "param": [
            0,
            0
          ],
          "count": 1
        }
      ],
      "failCond": [
        {
          "damageRatio": "QUEST_CONTENT_FAIL_DUNGEON",
          "param": [
            1218,
            0
          ]
        },
        {
          "damageRatio": "QUEST_CONTENT_ENTER_MY_WORLD",
          "param": [
            3,
            0
          ]
        },
        {
          "damageRatio": "QUEST_CONTENT_LEAVE_SCENE",
          "param": [
            20232,
            0
          ]
        },
        {
          "damageRatio": "QUEST_CONTENT_LUA_NOTIFY",
          "param": [
            0,
            0
          ],
          "count": 1
        }
      ],
      "guide": {
        "damageRatio": "QUEST_GUIDE_LOCATION",
        "param": [
          "[20232_14:348.928,92.716,548.278,0.000,88.400,0.000]"
        ],
        "guideScene": 20232,
        "guideStyle": "QUEST_GUIDE_STYLE_TARGET",
        "guideLayer": "QUEST_GUIDE_LAYER_SCENE",
        "MLAHIFLGIGJ": ""
      },
      "guideHint": {
        "param1": ""
      },
      "failExec": [
        {
          "damageRatio": "QUEST_EXEC_ROLLBACK_QUEST",
          "param": [
            "1501021"
          ]
        }
      ],
      "versionBegin": "",
      "versionEnd": ""
    },
    {
      "subId": 1501025,
      "mainId": 15010,
      "order": 9,
      "descTextMapHash": 4129234612,
      "showType": "QUEST_HIDDEN",
      "finishCond": [
        {
          "damageRatio": "QUEST_CONTENT_QUEST_STATE_EQUAL",
          "param": [
            1501011,
            3
          ]
        },
        {
          "damageRatio": "QUEST_CONTENT_QUEST_STATE_EQUAL",
          "param": [
            1501012,
            3
          ]
        },
        {
          "damageRatio": "QUEST_CONTENT_QUEST_STATE_EQUAL",
          "param": [
            1501013,
            3
          ]
        }
      ],
      "failCond": [
        {
          "damageRatio": "QUEST_CONTENT_FAIL_DUNGEON",
          "param": [
            1218,
            0
          ]
        },
        {
          "damageRatio": "QUEST_CONTENT_ENTER_MY_WORLD",
          "param": [
            3,
            0
          ]
        },
        {
          "damageRatio": "QUEST_CONTENT_LEAVE_SCENE",
          "param": [
            20232,
            0
          ]
        }
      ],
      "guide": {
        "MLAHIFLGIGJ": ""
      },
      "guideHint": {
        "param1": ""
      },
      "isRewind": true,
      "failExec": [
        {
          "damageRatio": "QUEST_EXEC_REMOVE_TRIAL_AVATAR",
          "param": [
            "99"
          ]
        },
        {
          "damageRatio": "QUEST_EXEC_ROLLBACK_QUEST",
          "param": [
            "1501002"
          ]
        }
      ],
      "versionBegin": "",
      "versionEnd": ""
    }
  ],
  "talks": [
    {
      "id": 1501001,
      "beginWay": "TALK_BEGIN_MANUAL",
      "beginCond": [
        {
          "type": "QUEST_COND_STATE_EQUAL",
          "_param": [
            "1501001",
            "2"
          ]
        }
      ],
      "priority": 5,
      "initDialog": 150100101,
      "npcId": [
        1087
      ],
      "performCfg": "QuestDialogue/LQ/Mualani_15010/Q1501001",
      "heroTalk": "TALK_HERO_MAIN",
      "questId": 15010,
      "assetIndex": 2992963627295656258,
      "prePerformCfg": "",
      "lockGameTime": true,
      "CHAKPMBJNAJ": [
        "[3_350200068:-2776.518,200.000,8288.749,0.000,226.498,0.000]",
        "[3_350200195:-2780.519,200.170,8289.888,0.000,96.318,0.000]",
        "[3_350200394:-2778.301,200.147,8288.073,0.000,93.979,0.000]",
        "[3_350200395:-2777.066,200.095,8286.851]",
        "[3_350200396:-2779.498,200.143,8290.917,0.000,120.984,0.000]"
      ]
    },
    {
      "id": 1501002,
      "beginWay": "TALK_BEGIN_MANUAL",
      "beginCond": [
        {
          "type": "QUEST_COND_STATE_EQUAL",
          "_param": [
            "1501003",
            "2"
          ]
        }
      ],
      "priority": 5,
      "initDialog": 150100201,
      "npcId": [
        1087
      ],
      "performCfg": "QuestDialogue/LQ/Mualani_15010/Q1501002",
      "heroTalk": "TALK_HERO_MAIN",
      "questId": 15010,
      "assetIndex": 15850909878665684162,
      "prePerformCfg": "",
      "lockGameTime": true,
      "CHAKPMBJNAJ": [
        "[20232_1:108.314,159.136,414.034]",
        "[20232_23:107.592,159.714,412.178]",
        "[20232_24:106.956,159.857,412.159]",
        "[20232_25:109.117,159.259,412.801]",
        "[20232_50:107.893,159.562,412.543]"
      ]
    },
    {
      "id": 1501003,
      "beginWay": "TALK_BEGIN_MANUAL",
      "beginCond": [
        {
          "type": "QUEST_COND_STATE_EQUAL",
          "_param": [
            "1501004",
            "2"
          ]
        }
      ],
      "priority": 5,
      "initDialog": 150100301,
      "npcId": [
        1087,
        14227,
        14228
      ],
      "performCfg": "QuestDialogue/LQ/Mualani_15010/Q1501003",
      "heroTalk": "TALK_HERO_MAIN",
      "questId": 15010,
      "assetIndex": 11120715382072228703,
      "prePerformCfg": "",
      "lockGameTime": true,
      "CHAKPMBJNAJ": [
        "[20232_2:287.927,101.942,532.248,0.000,149.975,0.000]",
        "[20232_34:311.342,99.444,541.258,0.000,131.187,0.000]",
        "[20232_35:292.504,102.112,534.689,0.000,200.482,0.000]",
        "[20232_7:333.703,94.185,553.108,0.000,87.620,0.000]",
        "[20232_8:333.938,94.054,551.819,0.000,87.620,0.000]"
      ]
    },
    {
      "id": 1501004,
      "beginWay": "TALK_BEGIN_MANUAL",
      "beginCond": [
        {
          "type": "QUEST_COND_STATE_EQUAL",
          "_param": [
            "1501005",
            "2"
          ]
        }
      ],
      "priority": 5,
      "initDialog": 150100401,
      "npcId": [
        1087,
        14227,
        14228
      ],
      "performCfg": "QuestDialogue/LQ/Mualani_15010/Q1501004",
      "heroTalk": "TALK_HERO_MAIN",
      "questId": 15010,
      "assetIndex": 8733757243009230552,
      "prePerformCfg": "",
      "lockGameTime": true,
      "CHAKPMBJNAJ": [
        "[20232_38:333.872,94.185,553.551,0.000,86.045,0.000]",
        "[20232_51:282.040,102.253,534.233,0.000,123.041,0.000]",
        "[20232_52:282.872,102.239,535.215,0.000,150.312,0.000]",
        "[20232_53:281.067,102.252,532.897,0.000,76.019,0.000]",
        "[20232_54:282.406,102.141,531.652]",
        "[20232_55:283.671,102.082,531.826]"
      ]
    },
    {
      "id": 1501005,
      "beginWay": "TALK_BEGIN_MANUAL",
      "beginCond": [
        {
          "type": "QUEST_COND_STATE_EQUAL",
          "_param": [
            "1501007",
            "2"
          ]
        }
      ],
      "priority": 5,
      "initDialog": 150100501,
      "npcId": [
        1087,
        14227,
        14228
      ],
      "performCfg": "QuestDialogue/LQ/Mualani_15010/Q1501005",
      "heroTalk": "TALK_HERO_MAIN",
      "questId": 15010,
      "assetIndex": 9100513209027111837,
      "prePerformCfg": "",
      "lockGameTime": true,
      "CHAKPMBJNAJ": [
        "[20232_10:352.796,92.877,555.262,0.000,261.490,0.000]",
        "[20232_11:352.015,92.849,554.931,0.000,140.483,0.000]",
        "[20232_12:349.750,92.938,551.878,0.000,110.907,0.000]",
        "[20232_13:350.393,92.899,552.918,0.000,133.115,0.000]"
      ]
    },
    {
      "id": 1501006,
      "beginWay": "TALK_BEGIN_MANUAL",
      "beginCond": [
        {
          "type": "QUEST_COND_STATE_EQUAL",
          "_param": [
            "1501008",
            "2"
          ]
        }
      ],
      "priority": 5,
      "initDialog": 150100601,
      "npcId": [
        14553,
        1087
      ],
      "performCfg": "QuestDialogue/LQ/Mualani_15010/Q1501006",
      "heroTalk": "TALK_HERO_MAIN",
      "questId": 15010,
      "assetIndex": 5979953763514302352,
      "prePerformCfg": "",
      "lockGameTime": true,
      "CHAKPMBJNAJ": [
        "[20232_42:577.370,51.296,383.442]",
        "[20232_43:578.287,51.146,381.554]",
        "[20232_44:576.317,51.048,381.416]"
      ]
    },
    {
      "id": 1501007,
      "beginWay": "TALK_BEGIN_MANUAL",
      "beginCond": [
        {
          "type": "QUEST_COND_STATE_EQUAL",
          "_param": [
            "1501009",
            "2"
          ]
        }
      ],
      "priority": 5,
      "initDialog": 150100701,
      "npcId": [
        1087
      ],
      "performCfg": "QuestDialogue/LQ/Mualani_15010/Q1501007",
      "heroTalk": "TALK_HERO_MAIN",
      "questId": 15010,
      "assetIndex": 3048228803907932429,
      "prePerformCfg": "",
      "lockGameTime": true,
      "CHAKPMBJNAJ": [
        "[3_350200074:-2877.621,204.052,8807.765,0.000,188.688,0.000]",
        "[3_350200397:-2879.322,203.316,8805.214,0.000,24.048,0.000]",
        "[3_350200398:-2880.045,203.348,8805.470,0.000,28.367,0.000]",
        "[3_350200399:-2877.372,203.369,8805.277,0.000,338.340,0.000]",
        "[3_350200400:-2876.443,203.561,8805.714,0.000,331.365,0.000]"
      ]
    },
    {
      "id": 1501008,
      "beginWay": "TALK_BEGIN_MANUAL",
      "beginCond": [
        {
          "type": "QUEST_COND_STATE_EQUAL",
          "_param": [
            "1501010",
            "2"
          ]
        }
      ],
      "priority": 5,
      "initDialog": 150100801,
      "npcId": [
        1087,
        14230
      ],
      "performCfg": "QuestDialogue/LQ/Mualani_15010/Q1501008",
      "heroTalk": "TALK_HERO_MAIN",
      "questId": 15010,
      "assetIndex": 1111801597532702191,
      "prePerformCfg": "",
      "lockGameTime": true,
      "CHAKPMBJNAJ": [
        "[3_350200075:-2887.188,202.288,9016.857]",
        "[3_350200401:-2884.769,202.284,9016.534,0.000,288.056,0.000]",
        "[3_350200402:-2884.727,202.286,9015.759,0.000,308.591,0.000]",
        "[3_350200403:-2885.068,202.283,9017.437,0.000,264.995,0.000]",
        "[3_350200404:-2888.276,202.284,9018.922,0.000,158.874,0.000]",
        "[3_350200405:-2886.747,202.281,9018.829,0.000,189.591,0.000]",
        "[3_350200412:-2882.411,202.279,9015.080,0.000,282.727,0.000]"
      ]
    },
    {
      "id": 1501009,
      "beginWay": "TALK_BEGIN_MANUAL",
      "beginCond": [
        {
          "type": "QUEST_COND_STATE_EQUAL",
          "_param": [
            "1501011",
            "2"
          ]
        }
      ],
      "priority": 5,
      "initDialog": 150100901,
      "npcId": [
        14319
      ],
      "performCfg": "QuestDialogue/LQ/Mualani_15010/Q1501009",
      "heroTalk": "TALK_HERO_MAIN",
      "questId": 15010,
      "assetIndex": 14548672080528063184,
      "prePerformCfg": "",
      "lockGameTime": true,
      "CHAKPMBJNAJ": [
        "[20232_2:287.927,101.942,532.248,0.000,149.975,0.000]",
        "[20232_35:292.504,102.112,534.689,0.000,200.482,0.000]",
        "[20232_59:288.865,102.019,533.003,0.000,185.886,0.000]",
        "[20232_60:290.187,102.035,532.897,0.000,205.357,0.000]"
      ]
    },
    {
      "id": 1501010,
      "beginWay": "TALK_BEGIN_MANUAL",
      "beginCond": [
        {
          "type": "QUEST_COND_STATE_EQUAL",
          "_param": [
            "1501012",
            "2"
          ]
        }
      ],
      "priority": 5,
      "initDialog": 150101001,
      "npcId": [
        14320
      ],
      "performCfg": "QuestDialogue/LQ/Mualani_15010/Q1501010",
      "heroTalk": "TALK_HERO_MAIN",
      "questId": 15010,
      "assetIndex": 15890543183067503153,
      "prePerformCfg": "",
      "lockGameTime": true,
      "CHAKPMBJNAJ": [
        "[20232_34:311.342,99.444,541.258,0.000,131.187,0.000]",
        "[20232_61:310.618,99.606,541.130,0.000,138.784,0.000]",
        "[20232_62:310.115,99.827,540.292,0.000,116.476,0.000]"
      ]
    },
    {
      "id": 1501011,
      "beginWay": "TALK_BEGIN_MANUAL",
      "beginCond": [
        {
          "type": "QUEST_COND_STATE_EQUAL",
          "_param": [
            "1501013",
            "2"
          ]
        }
      ],
      "priority": 5,
      "initDialog": 150101101,
      "npcId": [
        14321
      ],
      "performCfg": "QuestDialogue/LQ/Mualani_15010/Q1501011",
      "heroTalk": "TALK_HERO_MAIN",
      "questId": 15010,
      "assetIndex": 13776560771945549249,
      "prePerformCfg": "",
      "lockGameTime": true,
      "CHAKPMBJNAJ": [
        "[20232_36:332.787,94.216,551.588,0.000,88.779,0.000]",
        "[20232_37:332.279,94.284,553.125,0.000,85.351,0.000]",
        "[20232_63:333.334,94.159,550.410,0.000,67.205,0.000]",
        "[20232_7:333.703,94.185,553.108,0.000,87.620,0.000]",
        "[20232_8:333.938,94.054,551.819,0.000,87.620,0.000]"
      ]
    },
    {
      "id": 1501012,
      "beginWay": "TALK_BEGIN_MANUAL",
      "beginCond": [
        {
          "type": "QUEST_COND_STATE_EQUAL",
          "_param": [
            "1501014",
            "2"
          ]
        }
      ],
      "priority": 5,
      "initDialog": 150101201,
      "npcId": [
        14228,
        1087
      ],
      "performCfg": "QuestDialogue/LQ/Mualani_15010/Q1501012",
      "heroTalk": "TALK_HERO_MAIN",
      "questId": 15010,
      "assetIndex": 12409257889868972345,
      "prePerformCfg": "",
      "lockGameTime": true,
      "CHAKPMBJNAJ": [
        "[20232_45:349.264,93.042,555.569,0.000,157.982,0.000]",
        "[20232_46:348.268,93.082,555.318,0.000,126.292,0.000]",
        "[20232_47:350.672,92.934,554.498,0.000,255.440,0.000]",
        "[20232_48:350.813,92.903,553.423,0.000,296.708,0.000]",
        "[20232_49:349.597,92.976,552.998]"
      ]
    },
    {
      "id": 1501013,
      "beginWay": "TALK_BEGIN_MANUAL",
      "beginCond": [
        {
          "type": "QUEST_COND_STATE_EQUAL",
          "_param": [
            "1501015",
            "2"
          ]
        }
      ],
      "priority": 5,
      "initDialog": 150101301,
      "npcId": [
        1087
      ],
      "performCfg": "QuestDialogue/LQ/Mualani_15010/Q1501013",
      "heroTalk": "TALK_HERO_MAIN",
      "questId": 15010,
      "assetIndex": 3033486714459103224,
      "prePerformCfg": "",
      "lockGameTime": true,
      "CHAKPMBJNAJ": [
        "[3_350200121:-2854.697,202.055,9187.819]",
        "[3_350200406:-2852.761,201.447,9186.847,0.000,313.689,0.000]",
        "[3_350200407:-2854.135,201.634,9186.039,0.000,339.010,0.000]"
      ]
    },
    {
      "id": 1501014,
      "beginWay": "TALK_BEGIN_MANUAL",
      "beginCond": [
        {
          "type": "QUEST_COND_STATE_EQUAL",
          "_param": [
            "1501019",
            "2"
          ]
        }
      ],
      "priority": 5,
      "initDialog": 150101401,
      "npcId": [
        14317
      ],
      "performCfg": "QuestDialogue/LQ/Mualani_15010/Q1501014",
      "questId": 15010,
      "assetIndex": 280835026328839818,
      "prePerformCfg": "",
      "lockGameTime": true,
      "CHAKPMBJNAJ": [
        "[20232_58:192.693,130.780,532.559]"
      ],
      "HPEOPMFBIKA": true
    },
    {
      "id": 1501015,
      "beginWay": "TALK_BEGIN_MANUAL",
      "beginCond": [
        {
          "type": "QUEST_COND_STATE_EQUAL",
          "_param": [
            "1501017",
            "2"
          ]
        }
      ],
      "priority": 5,
      "initDialog": 150101501,
      "npcId": [
        1087
      ],
      "performCfg": "QuestDialogue/LQ/Mualani_15010/Q1501015",
      "heroTalk": "TALK_HERO_MAIN",
      "questId": 15010,
      "assetIndex": 8551856374088508804,
      "prePerformCfg": "",
      "lockGameTime": true,
      "CHAKPMBJNAJ": [
        "[20232_28:161.805,129.457,491.064,0.000,22.412,0.000]",
        "[20232_29:160.929,129.374,491.868,0.000,36.390,0.000]",
        "[20232_30:162.786,129.549,489.483,0.000,36.569,0.000]",
        "[20232_32:165.250,129.893,489.805,0.000,40.202,0.000]",
        "[20232_48:350.813,92.903,553.423,0.000,296.708,0.000]"
      ]
    },
    {
      "id": 1501016,
      "beginWay": "TALK_BEGIN_MANUAL",
      "beginCondComb": "LOGIC_A_AND_ETCOR",
      "beginCond": [
        {
          "type": "QUEST_COND_STATE_EQUAL",
          "_param": [
            "1501013",
            "3"
          ]
        },
        {
          "type": "QUEST_COND_STATE_EQUAL",
          "_param": [
            "1501011",
            "2"
          ]
        },
        {
          "type": "QUEST_COND_STATE_EQUAL",
          "_param": [
            "1501012",
            "2"
          ]
        }
      ],
      "priority": 5,
      "initDialog": 150101601,
      "npcId": [
        14227
      ],
      "performCfg": "QuestDialogue/LQ/Mualani_15010/Q1501016",
      "heroTalk": "TALK_HERO_MAIN",
      "questId": 15010,
      "assetIndex": 2730342098947778124,
      "prePerformCfg": "",
      "lockGameTime": true
    },
    {
      "id": 1501017,
      "beginWay": "TALK_BEGIN_MANUAL",
      "beginCondComb": "LOGIC_OR",
      "beginCond": [
        {
          "type": "QUEST_COND_STATE_EQUAL",
          "_param": [
            "1501008",
            "2"
          ]
        },
        {
          "type": "QUEST_COND_STATE_EQUAL",
          "_param": [
            "1501021",
            "2"
          ]
        },
        {
          "type": "QUEST_COND_STATE_EQUAL",
          "_param": [
            "1501024",
            "2"
          ]
        }
      ],
      "priority": 5,
      "initDialog": 150101701,
      "npcId": [
        1005
      ],
      "performCfg": "QuestDialogue/LQ/Mualani_15010/Q1501017",
      "heroTalk": "TALK_HERO_MAIN",
      "questId": 15010,
      "assetIndex": 16871680838218279974,
      "prePerformCfg": "",
      "lockGameTime": true
    },
    {
      "id": 1501025,
      "beginWay": "TALK_BEGIN_MANUAL",
      "beginCondComb": "LOGIC_OR",
      "beginCond": [
        {
          "type": "QUEST_COND_STATE_EQUAL",
          "_param": [
            "1501008",
            "2"
          ]
        },
        {
          "type": "QUEST_COND_STATE_EQUAL",
          "_param": [
            "1501021",
            "2"
          ]
        },
        {
          "type": "QUEST_COND_STATE_EQUAL",
          "_param": [
            "1501024",
            "2"
          ]
        }
      ],
      "priority": 5,
      "initDialog": 150102501,
      "npcId": [
        14228
      ],
      "performCfg": "QuestDialogue/LQ/Mualani_15010/Q1501025",
      "heroTalk": "TALK_HERO_MAIN",
      "questId": 15010,
      "assetIndex": 10569679885064929133,
      "prePerformCfg": "",
      "lockGameTime": true
    },
    {
      "id": 1501026,
      "beginWay": "TALK_BEGIN_MANUAL",
      "beginCond": [
        {
          "type": "QUEST_COND_STATE_EQUAL",
          "_param": [
            "1501015",
            "2"
          ]
        }
      ],
      "priority": 5,
      "initDialog": 150102601,
      "npcId": [
        14230
      ],
      "performCfg": "QuestDialogue/LQ/Mualani_15010/Q1501026",
      "heroTalk": "TALK_HERO_MAIN",
      "questId": 15010,
      "assetIndex": 5477688424464728083,
      "prePerformCfg": "",
      "lockGameTime": true
    },
    {
      "id": 1501028,
      "beginWay": "TALK_BEGIN_MANUAL",
      "beginCond": [
        {
          "type": "QUEST_COND_STATE_EQUAL",
          "_param": [
            "1501015",
            "3"
          ]
        }
      ],
      "priority": 5,
      "initDialog": 150102801,
      "npcId": [
        1087
      ],
      "performCfg": "QuestDialogue/LQ/Mualani_15010/Q1501028",
      "heroTalk": "TALK_HERO_MAIN",
      "questId": 15010,
      "assetIndex": 14981011142010589338,
      "prePerformCfg": "",
      "lockGameTime": true,
      "questIdleTalk": true
    }
  ],
  "preloadLuaList": [
    14461962557376299728,
    369680453665378441,
    9421863471841159073,
    8138834838409237737,
    2206919547672788583,
    10320950620875775728,
    10240525209099758985,
    11237516640177996002,
    13778519229271117376,
    16142616279610676630,
    1153157519686846510
  ],
  "forcePreloadLuaList": [
    648649298560863976
  ],
  "freeStyleDic": {
    "14228": [
      1050
    ],
    "14230": [
      1120
    ],
    "1087": [
      1220
    ]
  },
  "dialogList": [
    {
      "id": 150101404,
      "talkRole": {
        "_id": ""
      },
      "talkContentTextMapHash": 3276962610,
      "talkAssetPath": "",
      "talkAssetPathAlter": "",
      "talkAudioName": "",
      "actionBefore": "",
      "actionWhile": "",
      "actionAfter": "",
      "optionIcon": "",
      "iconPath": ""
    }
  ],
  "LNMELPHNIDD": true
}