{
  "id": 19017,
  "resId": 3011,
  "series": 106401,
  "damageRatio": "LQ",
  "descTextMapHash": 1724654151,
  "EKEKACCODOE": 669632902,
  "luaPath": "Actor/Quest/LQ19017",
  "suggestTrackMainQuestList": [
    19037,
    19047
  ],
  "suggestTrackOutOfOrder": true,
  "chapterId": 106401,
  "subQuests": [
    {
      "subId": 1901701,
      "mainId": 19017,
      "order": 1,
      "descTextMapHash": 957943140,
      "finishCond": [
        {
          "damageRatio": "QUEST_CONTENT_MAIN_COOP_ENTER_SAVE_POINT",
          "param": [
            106401,
            1901704
          ]
        }
      ],
      "guide": {
        "damageRatio": "QUEST_GUIDE_LOCATION",
        "param": [
          "Q19017_guide_310701442"
        ],
        "guideScene": 3,
        "guideStyle": "QUEST_GUIDE_STYLE_POINT",
        "guideLayer": "QUEST_GUIDE_LAYER_SCENE",
        "MLAHIFLGIGJ": ""
      },
      "guideHint": {
        "param1": ""
      },
      "isRewind": true,
      "versionBegin": "",
      "versionEnd": ""
    },
    {
      "subId": 1901702,
      "mainId": 19017,
      "order": 3,
      "descTextMapHash": 2873695724,
      "finishCond": [
        {
          "damageRatio": "QUEST_CONTENT_FINISH_PLOT",
          "param": [
            1901702,
            0
          ]
        }
      ],
      "guide": {
        "damageRatio": "QUEST_GUIDE_LOCATION",
        "param": [
          "Q1901702_guide_310701441",
          "30"
        ],
        "guideScene": 3,
        "MLAHIFLGIGJ": ""
      },
      "guideHint": {
        "param1": ""
      },
      "isRewind": true,
      "versionBegin": "",
      "versionEnd": ""
    },
    {
      "subId": 1901703,
      "mainId": 19017,
      "order": 4,
      "descTextMapHash": 433424164,
      "finishCond": [
        {
          "damageRatio": "QUEST_CONTENT_MAIN_COOP_ENTER_SAVE_POINT",
          "param": [
            106401,
            1901701
          ]
        }
      ],
      "guide": {
        "damageRatio": "QUEST_GUIDE_NPC",
        "param": [
          "509"
        ],
        "guideScene": 3,
        "guideStyle": "QUEST_GUIDE_STYLE_TARGET",
        "guideLayer": "QUEST_GUIDE_LAYER_SCENE",
        "MLAHIFLGIGJ": ""
      },
      "guideHint": {
        "param1": ""
      },
      "versionBegin": "",
      "versionEnd": ""
    },
    {
      "subId": 1901704,
      "mainId": 19017,
      "order": 5,
      "descTextMapHash": 1682866988,
      "finishCond": [
        {
          "damageRatio": "QUEST_CONTENT_LUA_NOTIFY",
          "param": [
            0,
            0
          ],
          "count": 1
        }
      ],
      "guide": {
        "damageRatio": "QUEST_GUIDE_LOCATION",
        "param": [
          "Q1901702_guide_310701441",
          "20"
        ],
        "guideScene": 3,
        "guideStyle": "QUEST_GUIDE_STYLE_POINT",
        "MLAHIFLGIGJ": ""
      },
      "guideHint": {
        "param1": ""
      },
      "isRewind": true,
      "versionBegin": "",
      "versionEnd": ""
    },
    {
      "subId": 1901705,
      "mainId": 19017,
      "order": 6,
      "descTextMapHash": 2132460676,
      "finishCond": [
        {
          "damageRatio": "QUEST_CONTENT_MAIN_COOP_ENTER_SAVE_POINT",
          "param": [
            106401,
            1901702
          ]
        }
      ],
      "guide": {
        "damageRatio": "QUEST_GUIDE_LOCATION",
        "param": [
          "Q1901702_C1901701_N509_310701437"
        ],
        "guideScene": 3,
        "guideStyle": "QUEST_GUIDE_STYLE_POINT",
        "MLAHIFLGIGJ": ""
      },
      "guideHint": {
        "param1": ""
      },
      "isRewind": true,
      "finishExec": [
        {
          "damageRatio": "QUEST_EXEC_UNREGISTER_DYNAMIC_GROUP",
          "param": [
            "133107194",
            "1"
          ]
        }
      ],
      "versionBegin": "",
      "versionEnd": ""
    },
    {
      "subId": 1901706,
      "mainId": 19017,
      "order": 7,
      "descTextMapHash": 4242504964,
      "finishCond": [
        {
          "damageRatio": "QUEST_CONTENT_MAIN_COOP_ENTER_SAVE_POINT",
          "param": [
            106401,
            19017031
          ]
        },
        {
          "damageRatio": "QUEST_CONTENT_MAIN_COOP_ENTER_SAVE_POINT",
          "param": [
            106401,
            19017032
          ]
        }
      ],
      "guide": {
        "damageRatio": "QUEST_GUIDE_LOCATION",
        "param": [
          "Q19017_guide_310701442"
        ],
        "guideScene": 3,
        "guideStyle": "QUEST_GUIDE_STYLE_POINT",
        "guideLayer": "QUEST_GUIDE_LAYER_SCENE",
        "MLAHIFLGIGJ": ""
      },
      "guideHint": {
        "param1": ""
      },
      "finishParent": true,
      "isRewind": true,
      "versionBegin": "",
      "versionEnd": ""
    }
  ],
  "talks": [
    {
      "id": 1901750,
      "beginWay": "TALK_BEGIN_MANUAL",
      "beginCondComb": "LOGIC_OR",
      "beginCond": [
        {
          "type": "QUEST_COND_STATE_EQUAL",
          "_param": [
            "1901702",
            "2"
          ]
        },
        {
          "type": "QUEST_COND_STATE_EQUAL",
          "_param": [
            "1901703",
            "2"
          ]
        },
        {
          "type": "QUEST_COND_STATE_EQUAL",
          "_param": [
            "1901704",
            "2"
          ]
        },
        {
          "type": "QUEST_COND_STATE_EQUAL",
          "_param": [
            "1901705",
            "2"
          ]
        }
      ],
      "priority": 5,
      "initDialog": 190175001,
      "npcId": [
        12318
      ],
      "performCfg": "QuestDialogue/COOP/CoopYunjin/Q1901750",
      "heroTalk": "TALK_HERO_MAIN",
      "questId": 19017,
      "assetIndex": 5150738980608153864,
      "prePerformCfg": ""
    }
  ],
  "preloadLuaList": [
    15170680321817820144,
    3009055203738900685,
    18400284873674455436
  ],
  "forcePreloadLuaList": [
    15074946475358740994
  ]
}