{
  "id": 19035,
  "resId": 3003,
  "series": 103601,
  "damageRatio": "LQ",
  "descTextMapHash": 1128455015,
  "EKEKACCODOE": 2381313206,
  "luaPath": "Actor/Quest/LQ19035",
  "suggestTrackMainQuestList": [
    19032
  ],
  "suggestTrackOutOfOrder": true,
  "chapterId": 103601,
  "subQuests": [
    {
      "subId": 1903501,
      "mainId": 19035,
      "order": 1,
      "isMpBlock": true,
      "descTextMapHash": 1750333716,
      "finishCond": [
        {
          "damageRatio": "QUEST_CONTENT_MAIN_COOP_ENTER_SAVE_POINT",
          "param": [
            103601,
            1903203
          ]
        },
        {
          "damageRatio": "QUEST_CONTENT_MAIN_COOP_ENTER_SAVE_POINT",
          "param": [
            103601,
            1903205
          ]
        }
      ],
      "guide": {
        "damageRatio": "QUEST_GUIDE_NPC",
        "autoGuide": "QUEST_GUIDE_AUTO_ENABLE",
        "param": [
          "1023"
        ],
        "guideScene": 3,
        "guideStyle": "QUEST_GUIDE_STYLE_TARGET",
        "guideLayer": "QUEST_GUIDE_LAYER_SCENE",
        "MLAHIFLGIGJ": ""
      },
      "guideHint": {
        "param1": ""
      },
      "finishParent": true,
      "isRewind": true,
      "versionBegin": "",
      "versionEnd": ""
    }
  ]
}