{
  "id": 19037,
  "resId": 3011,
  "series": 106401,
  "damageRatio": "LQ",
  "descTextMapHash": 870876311,
  "EKEKACCODOE": 30164230,
  "luaPath": "Actor/Quest/LQ19037",
  "suggestTrackMainQuestList": [
    19038,
    19040
  ],
  "suggestTrackOutOfOrder": true,
  "chapterId": 106401,
  "subQuests": [
    {
      "subId": 1903701,
      "mainId": 19037,
      "order": 1,
      "descTextMapHash": 4054003012,
      "finishCond": [
        {
          "damageRatio": "QUEST_CONTENT_GAME_TIME_TICK",
          "param": [
            1,
            0
          ]
        }
      ],
      "guide": {
        "MLAHIFLGIGJ": ""
      },
      "guideHint": {
        "param1": ""
      },
      "isRewind": true,
      "versionBegin": "",
      "versionEnd": ""
    },
    {
      "subId": 1903702,
      "mainId": 19037,
      "order": 2,
      "descTextMapHash": 3121919204,
      "finishCond": [
        {
          "damageRatio": "QUEST_CONTENT_MAIN_COOP_ENTER_SAVE_POINT",
          "param": [
            106401,
            1903701
          ]
        }
      ],
      "guide": {
        "damageRatio": "QUEST_GUIDE_NPC",
        "param": [
          "509"
        ],
        "guideScene": 3,
        "guideStyle": "QUEST_GUIDE_STYLE_TARGET",
        "guideLayer": "QUEST_GUIDE_LAYER_SCENE",
        "MLAHIFLGIGJ": ""
      },
      "guideHint": {
        "param1": ""
      },
      "isRewind": true,
      "versionBegin": "",
      "versionEnd": ""
    },
    {
      "subId": 1903703,
      "mainId": 19037,
      "order": 3,
      "descTextMapHash": 1179231588,
      "finishCond": [
        {
          "damageRatio": "QUEST_CONTENT_FINISH_PLOT",
          "param": [
            1903703,
            0
          ]
        }
      ],
      "guide": {
        "damageRatio": "QUEST_GUIDE_LOCATION",
        "param": [
          "Q1903703_guide"
        ],
        "guideScene": 3,
        "guideStyle": "QUEST_GUIDE_STYLE_POINT",
        "MLAHIFLGIGJ": ""
      },
      "guideHint": {
        "param1": ""
      },
      "isRewind": true,
      "finishExec": [
        {
          "damageRatio": "QUEST_EXEC_UNREGISTER_DYNAMIC_GROUP",
          "param": [
            "133107232",
            "0"
          ]
        }
      ],
      "versionBegin": "",
      "versionEnd": ""
    },
    {
      "subId": 1903704,
      "mainId": 19037,
      "order": 4,
      "descTextMapHash": 360517836,
      "finishCond": [
        {
          "damageRatio": "QUEST_CONTENT_MAIN_COOP_ENTER_SAVE_POINT",
          "param": [
            106401,
            19037021
          ]
        },
        {
          "damageRatio": "QUEST_CONTENT_MAIN_COOP_ENTER_SAVE_POINT",
          "param": [
            106401,
            19037022
          ]
        }
      ],
      "guide": {
        "damageRatio": "QUEST_GUIDE_NPC",
        "param": [
          "12319"
        ],
        "guideScene": 3,
        "guideStyle": "QUEST_GUIDE_STYLE_TARGET",
        "guideLayer": "QUEST_GUIDE_LAYER_SCENE",
        "MLAHIFLGIGJ": ""
      },
      "guideHint": {
        "param1": ""
      },
      "finishParent": true,
      "versionBegin": "",
      "versionEnd": ""
    }
  ],
  "talks": [
    {
      "id": 1903751,
      "beginWay": "TALK_BEGIN_MANUAL",
      "beginCondComb": "LOGIC_OR",
      "beginCond": [
        {
          "type": "QUEST_COND_STATE_EQUAL",
          "_param": [
            "1903702",
            "2"
          ]
        },
        {
          "type": "QUEST_COND_STATE_EQUAL",
          "_param": [
            "1903703",
            "2"
          ]
        }
      ],
      "priority": 5,
      "initDialog": 190375101,
      "npcId": [
        12319,
        12320
      ],
      "performCfg": "QuestDialogue/COOP/CoopYunjin/Q1903751",
      "questId": 19037,
      "assetIndex": 11646398970425197146,
      "prePerformCfg": "",
      "stayFreeStyle": true
    }
  ],
  "preloadLuaList": [
    11147175313483535268,
    11010362734276464491
  ],
  "forcePreloadLuaList": [
    11785239303941142402
  ],
  "freeStyleDic": {
    "509": [
      1190
    ],
    "1626": [
      1170
    ],
    "2444": [
      1120
    ],
    "12319": [
      1090
    ],
    "12320": [
      1190
    ]
  }
}