{
  "id": 19063,
  "resId": 3002,
  "series": 103401,
  "damageRatio": "LQ",
  "descTextMapHash": 3601757511,
  "EKEKACCODOE": 3512867222,
  "luaPath": "Actor/Quest/LQ19063",
  "chapterId": 103401,
  "subQuests": [
    {
      "subId": 1906301,
      "mainId": 19063,
      "order": 1,
      "descTextMapHash": 691401140,
      "showType": "QUEST_HIDDEN",
      "finishCond": [
        {
          "damageRatio": "QUEST_CONTENT_MAIN_COOP_ENTER_ANY_SAVE_POINT",
          "param": [
            103401,
            0
          ]
        }
      ],
      "guide": {
        "damageRatio": "QUEST_GUIDE_LOCATION",
        "autoGuide": "QUEST_GUIDE_AUTO_ENABLE",
        "param": [
          "Q19063LiarHENoel"
        ],
        "guideScene": 3,
        "guideStyle": "QUEST_GUIDE_STYLE_POINT",
        "guideLayer": "QUEST_GUIDE_LAYER_SCENE",
        "MLAHIFLGIGJ": ""
      },
      "guideHint": {
        "param1": ""
      },
      "finishParent": true,
      "failParentShow": "QUEST_HIDDEN",
      "versionBegin": "",
      "versionEnd": ""
    }
  ]
}