{
  "id": 19085,
  "resId": 3005,
  "series": 103402,
  "damageRatio": "LQ",
  "descTextMapHash": 1206724575,
  "EKEKACCODOE": 1112905558,
  "luaPath": "Actor/Quest/LQ19085",
  "suggestTrackMainQuestList": [
    19086
  ],
  "suggestTrackOutOfOrder": true,
  "chapterId": 103402,
  "subQuests": [
    {
      "subId": 1908501,
      "mainId": 19085,
      "order": 1,
      "descTextMapHash": 2105134660,
      "finishCond": [
        {
          "damageRatio": "QUEST_CONTENT_MAIN_COOP_ENTER_SAVE_POINT",
          "param": [
            103402,
            1908502
          ]
        }
      ],
      "guide": {
        "damageRatio": "QUEST_GUIDE_NPC",
        "param": [
          "151201",
          "SELECT_NPC_NONE"
        ],
        "guideScene": 3,
        "guideStyle": "QUEST_GUIDE_STYLE_TARGET",
        "guideLayer": "QUEST_GUIDE_LAYER_SCENE",
        "MLAHIFLGIGJ": ""
      },
      "guideHint": {
        "param1": ""
      },
      "isRewind": true,
      "versionBegin": "",
      "versionEnd": ""
    },
    {
      "subId": 1908502,
      "mainId": 19085,
      "order": 2,
      "descTextMapHash": 539958804,
      "stepDescTextMapHash": 1214739773,
      "finishCond": [
        {
          "damageRatio": "QUEST_CONTENT_MAIN_COOP_ENTER_SAVE_POINT",
          "param": [
            103402,
            1908504
          ]
        }
      ],
      "guide": {
        "damageRatio": "QUEST_GUIDE_NPC",
        "param": [
          "140901",
          "SELECT_NPC_NONE"
        ],
        "guideScene": 3,
        "guideStyle": "QUEST_GUIDE_STYLE_TARGET",
        "guideLayer": "QUEST_GUIDE_LAYER_SCENE",
        "MLAHIFLGIGJ": ""
      },
      "guideHint": {
        "param1": ""
      },
      "finishParent": true,
      "isRewind": true,
      "versionBegin": "",
      "versionEnd": ""
    },
    {
      "subId": 1908503,
      "mainId": 19085,
      "order": 4,
      "showType": "QUEST_HIDDEN",
      "guide": {
        "damageRatio": "QUEST_GUIDE_NPC",
        "param": [
          "140901",
          "SELECT_NPC_NONE"
        ],
        "guideScene": 3,
        "guideStyle": "QUEST_GUIDE_STYLE_TARGET",
        "guideLayer": "QUEST_GUIDE_LAYER_SCENE",
        "MLAHIFLGIGJ": ""
      },
      "guideHint": {
        "param1": ""
      },
      "versionBegin": "",
      "versionEnd": ""
    },
    {
      "subId": 1908504,
      "mainId": 19085,
      "order": 3,
      "showType": "QUEST_HIDDEN",
      "guide": {
        "damageRatio": "QUEST_GUIDE_NPC",
        "param": [
          "140901",
          "SELECT_NPC_NONE"
        ],
        "guideScene": 3,
        "guideStyle": "QUEST_GUIDE_STYLE_TARGET",
        "guideLayer": "QUEST_GUIDE_LAYER_SCENE",
        "MLAHIFLGIGJ": ""
      },
      "guideHint": {
        "param1": ""
      },
      "versionBegin": "",
      "versionEnd": ""
    },
    {
      "subId": 1908505,
      "mainId": 19085,
      "order": 5,
      "showType": "QUEST_HIDDEN",
      "guide": {
        "damageRatio": "QUEST_GUIDE_NPC",
        "param": [
          "140901",
          "SELECT_NPC_NONE"
        ],
        "guideScene": 3,
        "guideStyle": "QUEST_GUIDE_STYLE_TARGET",
        "guideLayer": "QUEST_GUIDE_LAYER_SCENE",
        "MLAHIFLGIGJ": ""
      },
      "guideHint": {
        "param1": ""
      },
      "versionBegin": "",
      "versionEnd": ""
    },
    {
      "subId": 1908506,
      "mainId": 19085,
      "order": 6,
      "showType": "QUEST_HIDDEN",
      "guide": {
        "damageRatio": "QUEST_GUIDE_NPC",
        "param": [
          "140901",
          "SELECT_NPC_NONE"
        ],
        "guideScene": 3,
        "guideStyle": "QUEST_GUIDE_STYLE_TARGET",
        "guideLayer": "QUEST_GUIDE_LAYER_SCENE",
        "MLAHIFLGIGJ": ""
      },
      "guideHint": {
        "param1": ""
      },
      "versionBegin": "",
      "versionEnd": ""
    },
    {
      "subId": 1908507,
      "mainId": 19085,
      "order": 8,
      "showType": "QUEST_HIDDEN",
      "guide": {
        "damageRatio": "QUEST_GUIDE_NPC",
        "param": [
          "140901",
          "SELECT_NPC_NONE"
        ],
        "guideScene": 3,
        "guideStyle": "QUEST_GUIDE_STYLE_TARGET",
        "guideLayer": "QUEST_GUIDE_LAYER_SCENE",
        "MLAHIFLGIGJ": ""
      },
      "guideHint": {
        "param1": ""
      },
      "versionBegin": "",
      "versionEnd": ""
    },
    {
      "subId": 1908508,
      "mainId": 19085,
      "order": 7,
      "showType": "QUEST_HIDDEN",
      "guide": {
        "damageRatio": "QUEST_GUIDE_NPC",
        "param": [
          "140901",
          "SELECT_NPC_NONE"
        ],
        "guideScene": 3,
        "guideStyle": "QUEST_GUIDE_STYLE_TARGET",
        "guideLayer": "QUEST_GUIDE_LAYER_SCENE",
        "MLAHIFLGIGJ": ""
      },
      "guideHint": {
        "param1": ""
      },
      "versionBegin": "",
      "versionEnd": ""
    }
  ],
  "preloadLuaList": [
    10710908387643394987,
    15990485191251446561
  ],
  "forcePreloadLuaList": [
    4471409279780799636
  ]
}