{
  "id": 19088,
  "resId": 8001,
  "damageRatio": "LQ",
  "descTextMapHash": 3410156575,
  "luaPath": "Actor/Quest/LQ19088",
  "subQuests": [
    {
      "subId": 1908801,
      "mainId": 19088,
      "order": 1,
      "showType": "QUEST_HIDDEN",
      "guide": {
        "damageRatio": "QUEST_GUIDE_NPC",
        "param": [
          "SELECT_NPC_NONE"
        ],
        "guideStyle": "QUEST_GUIDE_STYLE_TARGET",
        "guideLayer": "QUEST_GUIDE_LAYER_SCENE",
        "MLAHIFLGIGJ": ""
      },
      "showGuide": "QUEST_GUIDE_ITEM_DISABLE",
      "guideHint": {
        "param1": ""
      },
      "versionBegin": "",
      "versionEnd": ""
    },
    {
      "subId": 1908802,
      "mainId": 19088,
      "order": 2,
      "showType": "QUEST_HIDDEN",
      "guide": {
        "damageRatio": "QUEST_GUIDE_NPC",
        "param": [
          "SELECT_NPC_NONE"
        ],
        "guideStyle": "QUEST_GUIDE_STYLE_TARGET",
        "guideLayer": "QUEST_GUIDE_LAYER_SCENE",
        "MLAHIFLGIGJ": ""
      },
      "showGuide": "QUEST_GUIDE_ITEM_DISABLE",
      "guideHint": {
        "param1": ""
      },
      "versionBegin": "",
      "versionEnd": ""
    }
  ]
}