{
  "id": 19105,
  "resId": 3006,
  "series": 103901,
  "damageRatio": "LQ",
  "descTextMapHash": 1594882159,
  "EKEKACCODOE": 2493010390,
  "luaPath": "Actor/Quest/LQ19105",
  "suggestTrackOutOfOrder": true,
  "chapterId": 103901,
  "subQuests": [
    {
      "subId": 1910501,
      "mainId": 19105,
      "order": 1,
      "descTextMapHash": 3099575700,
      "finishCond": [
        {
          "damageRatio": "QUEST_CONTENT_MAIN_COOP_ENTER_SAVE_POINT",
          "param": [
            103901,
            50101
          ]
        }
      ],
      "guide": {
        "damageRatio": "QUEST_GUIDE_NPC",
        "autoGuide": "QUEST_GUIDE_AUTO_ENABLE",
        "param": [
          "502"
        ],
        "guideScene": 3,
        "guideStyle": "QUEST_GUIDE_STYLE_TARGET",
        "guideLayer": "QUEST_GUIDE_LAYER_SCENE",
        "MLAHIFLGIGJ": ""
      },
      "guideHint": {
        "param1": ""
      },
      "isRewind": true,
      "finishExec": [
        {
          "damageRatio": "QUEST_EXEC_UNREGISTER_DYNAMIC_GROUP",
          "param": [
            "133001609"
          ]
        }
      ],
      "versionBegin": "",
      "versionEnd": ""
    },
    {
      "subId": 1910502,
      "mainId": 19105,
      "order": 2,
      "isMpBlock": true,
      "descTextMapHash": 2743400932,
      "finishCond": [
        {
          "damageRatio": "QUEST_CONTENT_MAIN_COOP_ENTER_SAVE_POINT",
          "param": [
            103901,
            104
          ]
        }
      ],
      "guide": {
        "damageRatio": "QUEST_GUIDE_NPC",
        "autoGuide": "QUEST_GUIDE_AUTO_ENABLE",
        "param": [
          "153901"
        ],
        "guideScene": 3,
        "guideStyle": "QUEST_GUIDE_STYLE_TARGET",
        "guideLayer": "QUEST_GUIDE_LAYER_SCENE",
        "MLAHIFLGIGJ": ""
      },
      "guideHint": {
        "param1": ""
      },
      "finishParent": true,
      "isRewind": true,
      "finishExec": [
        {
          "damageRatio": "QUEST_EXEC_UNREGISTER_DYNAMIC_GROUP",
          "param": [
            "133001008"
          ]
        },
        {
          "damageRatio": "QUEST_EXEC_UNREGISTER_DYNAMIC_GROUP",
          "param": [
            "133001005"
          ]
        }
      ],
      "versionBegin": "",
      "versionEnd": ""
    }
  ],
  "talks": [
    {
      "id": 1910599,
      "beginWay": "TALK_BEGIN_MANUAL",
      "beginCondComb": "LOGIC_OR",
      "beginCond": [
        {
          "type": "QUEST_COND_STATE_EQUAL",
          "_param": [
            "1910501",
            "2"
          ]
        }
      ],
      "priority": 5,
      "initDialog": 191030501,
      "npcId": [
        153901
      ],
      "performCfg": "QuestDialogue/COOP/Coop103901SimpleTalk/Q1910305",
      "heroTalk": "TALK_HERO_MAIN",
      "questId": 19105,
      "assetIndex": 10083214307261782866,
      "prePerformCfg": ""
    }
  ],
  "preloadLuaList": [
    15057045351472635149,
    10779415762610319272
  ],
  "forcePreloadLuaList": [
    13137551047212764304
  ]
}