{
  "id": 19132,
  "resId": 3012,
  "series": 102701,
  "damageRatio": "LQ",
  "descTextMapHash": 203469975,
  "EKEKACCODOE": 3207227086,
  "luaPath": "Actor/Quest/LQ19132",
  "suggestTrackMainQuestList": [
    19133,
    19134
  ],
  "suggestTrackOutOfOrder": true,
  "chapterId": 102701,
  "subQuests": [
    {
      "subId": 1913201,
      "mainId": 19132,
      "order": 4,
      "descTextMapHash": 4113278804,
      "finishCond": [
        {
          "damageRatio": "QUEST_CONTENT_MAIN_COOP_ENTER_SAVE_POINT",
          "param": [
            102701,
            201
          ]
        }
      ],
      "failCond": [
        {
          "damageRatio": "QUEST_CONTENT_ANY_MANUAL_TRANSPORT",
          "param": [
            0,
            0
          ]
        }
      ],
      "guide": {
        "damageRatio": "QUEST_GUIDE_LOCATION",
        "autoGuide": "QUEST_GUIDE_AUTO_ENABLE",
        "param": [
          "Q1913201Ningguang03",
          "0"
        ],
        "guideScene": 1057,
        "guideStyle": "QUEST_GUIDE_STYLE_POINT",
        "guideLayer": "QUEST_GUIDE_LAYER_SCENE",
        "MLAHIFLGIGJ": ""
      },
      "guideHint": {
        "param1": ""
      },
      "failExec": [
        {
          "damageRatio": "QUEST_EXEC_ROLLBACK_QUEST",
          "param": [
            "1913208"
          ]
        }
      ],
      "versionBegin": "",
      "versionEnd": ""
    },
    {
      "subId": 1913202,
      "mainId": 19132,
      "order": 5,
      "descTextMapHash": 1155266700,
      "finishCond": [
        {
          "damageRatio": "QUEST_CONTENT_MAIN_COOP_ENTER_SAVE_POINT",
          "param": [
            102701,
            202
          ]
        }
      ],
      "guide": {
        "damageRatio": "QUEST_GUIDE_NPC",
        "param": [
          "507"
        ],
        "guideScene": 1057,
        "guideStyle": "QUEST_GUIDE_STYLE_TARGET",
        "guideLayer": "QUEST_GUIDE_LAYER_SCENE",
        "MLAHIFLGIGJ": ""
      },
      "guideHint": {
        "param1": ""
      },
      "isRewind": true,
      "versionBegin": "",
      "versionEnd": ""
    },
    {
      "subId": 1913203,
      "mainId": 19132,
      "order": 6,
      "descTextMapHash": 4207424548,
      "finishCond": [
        {
          "damageRatio": "QUEST_CONTENT_COMPLETE_TALK",
          "param": [
            1913204,
            0
          ]
        }
      ],
      "guide": {
        "damageRatio": "QUEST_GUIDE_NPC",
        "param": [
          "12310"
        ],
        "guideScene": 1057,
        "guideStyle": "QUEST_GUIDE_STYLE_TARGET",
        "guideLayer": "QUEST_GUIDE_LAYER_SCENE",
        "MLAHIFLGIGJ": ""
      },
      "guideHint": {
        "param1": ""
      },
      "isRewind": true,
      "versionBegin": "",
      "versionEnd": ""
    },
    {
      "subId": 1913204,
      "mainId": 19132,
      "order": 7,
      "descTextMapHash": 1183971372,
      "finishCond": [
        {
          "damageRatio": "QUEST_CONTENT_FINISH_ITEM_GIVING",
          "param": [
            1913204,
            0
          ]
        }
      ],
      "guide": {
        "damageRatio": "QUEST_GUIDE_LOCATION",
        "param": [
          "Q1913201Ningguang03"
        ],
        "guideScene": 1057,
        "guideStyle": "QUEST_GUIDE_STYLE_POINT",
        "guideLayer": "QUEST_GUIDE_LAYER_SCENE",
        "MLAHIFLGIGJ": ""
      },
      "guideHint": {
        "param1": ""
      },
      "versionBegin": "",
      "versionEnd": ""
    },
    {
      "subId": 1913205,
      "mainId": 19132,
      "order": 8,
      "descTextMapHash": 3144009540,
      "finishCond": [
        {
          "damageRatio": "QUEST_CONTENT_MAIN_COOP_ENTER_SAVE_POINT",
          "param": [
            102701,
            203
          ]
        }
      ],
      "guide": {
        "damageRatio": "QUEST_GUIDE_LOCATION",
        "param": [
          "Q1913201Ningguang03"
        ],
        "guideScene": 1057,
        "guideStyle": "QUEST_GUIDE_STYLE_TARGET",
        "guideLayer": "QUEST_GUIDE_LAYER_SCENE",
        "MLAHIFLGIGJ": ""
      },
      "guideHint": {
        "param1": ""
      },
      "finishExec": [
        {
          "damageRatio": "QUEST_EXEC_REFRESH_GROUP_SUITE",
          "param": [
            "1057",
            "201057005,1"
          ]
        }
      ],
      "versionBegin": "",
      "versionEnd": ""
    },
    {
      "subId": 1913206,
      "mainId": 19132,
      "order": 9,
      "descTextMapHash": 2683088092,
      "stepDescTextMapHash": 2232573413,
      "JIFODJPFKDF": [
        1034
      ],
      "finishCond": [
        {
          "damageRatio": "QUEST_CONTENT_MAIN_COOP_ENTER_SAVE_POINT",
          "param": [
            102701,
            20401
          ]
        },
        {
          "damageRatio": "QUEST_CONTENT_MAIN_COOP_ENTER_SAVE_POINT",
          "param": [
            102701,
            20402
          ]
        }
      ],
      "guide": {
        "damageRatio": "QUEST_GUIDE_NPC",
        "param": [
          "12297"
        ],
        "guideScene": 1034,
        "guideStyle": "QUEST_GUIDE_STYLE_TARGET",
        "guideLayer": "QUEST_GUIDE_LAYER_SCENE",
        "MLAHIFLGIGJ": ""
      },
      "guideHint": {
        "param1": ""
      },
      "finishParent": true,
      "isRewind": true,
      "versionBegin": "",
      "versionEnd": ""
    },
    {
      "subId": 1913207,
      "mainId": 19132,
      "order": 1,
      "descTextMapHash": 1104229940,
      "finishCond": [
        {
          "damageRatio": "QUEST_CONTENT_GAME_TIME_TICK",
          "param": [
            1,
            0
          ]
        }
      ],
      "guide": {
        "MLAHIFLGIGJ": ""
      },
      "showGuide": "QUEST_GUIDE_ITEM_DISABLE",
      "guideHint": {
        "param1": ""
      },
      "isRewind": true,
      "versionBegin": "",
      "versionEnd": ""
    },
    {
      "subId": 1913208,
      "mainId": 19132,
      "order": 3,
      "descTextMapHash": 2909200100,
      "finishCond": [
        {
          "damageRatio": "QUEST_CONTENT_LUA_NOTIFY",
          "param": [
            0,
            0
          ],
          "count": 1
        }
      ],
      "guide": {
        "damageRatio": "QUEST_GUIDE_LOCATION",
        "autoGuide": "QUEST_GUIDE_AUTO_ENABLE",
        "param": [
          "Q1913201Ningguang03"
        ],
        "guideScene": 1057,
        "guideStyle": "QUEST_GUIDE_STYLE_POINT",
        "guideLayer": "QUEST_GUIDE_LAYER_SCENE",
        "MLAHIFLGIGJ": ""
      },
      "guideHint": {
        "param1": ""
      },
      "isRewind": true,
      "versionBegin": "",
      "versionEnd": ""
    },
    {
      "subId": 1913209,
      "mainId": 19132,
      "order": 2,
      "descTextMapHash": 2780247156,
      "showType": "QUEST_HIDDEN",
      "finishCond": [
        {
          "damageRatio": "QUEST_CONTENT_QUEST_STATE_EQUAL",
          "param": [
            1913204,
            3
          ]
        }
      ],
      "guide": {
        "MLAHIFLGIGJ": ""
      },
      "guideHint": {
        "param1": ""
      },
      "versionBegin": "",
      "versionEnd": ""
    }
  ],
  "talks": [
    {
      "id": 1913203,
      "beginCond": [
        {
          "type": "QUEST_COND_STATE_EQUAL",
          "_param": [
            "99902",
            "2"
          ]
        }
      ],
      "priority": 5,
      "initDialog": 191320301,
      "npcId": [
        12311
      ],
      "performCfg": "",
      "questId": 19132,
      "assetIndex": 9359958138205290349,
      "prePerformCfg": ""
    },
    {
      "id": 1913204,
      "beginWay": "TALK_BEGIN_MANUAL",
      "beginCond": [
        {
          "type": "QUEST_COND_STATE_EQUAL",
          "_param": [
            "1913203",
            "2"
          ]
        }
      ],
      "priority": 5,
      "initDialog": 191320401,
      "npcId": [
        12310
      ],
      "performCfg": "QuestDialogue/COOP/CoopNingguang/Q1913204",
      "questId": 19132,
      "assetIndex": 7525292536231136467,
      "prePerformCfg": ""
    },
    {
      "id": 1913205,
      "beginWay": "TALK_BEGIN_MANUAL",
      "beginCondComb": "LOGIC_AND",
      "beginCond": [
        {
          "type": "QUEST_COND_STATE_EQUAL",
          "_param": [
            "1913204",
            "2"
          ]
        },
        {
          "type": "QUEST_COND_ITEM_GIVING_ACTIVED",
          "_param": [
            "1913204"
          ]
        }
      ],
      "priority": 5,
      "initDialog": 191320501,
      "npcId": [
        12311
      ],
      "performCfg": "QuestDialogue/COOP/CoopNingguang/Q1913205",
      "questId": 19132,
      "assetIndex": 17243030695166179330,
      "prePerformCfg": ""
    },
    {
      "id": 1913211,
      "beginWay": "TALK_BEGIN_MANUAL",
      "beginCond": [
        {
          "type": "QUEST_COND_STATE_EQUAL",
          "_param": [
            "1913204",
            "2"
          ]
        }
      ],
      "priority": 5,
      "initDialog": 191321101,
      "npcId": [
        12310
      ],
      "performCfg": "QuestDialogue/COOP/CoopNingguang/Q1913211",
      "heroTalk": "TALK_HERO_MAIN",
      "questId": 19132,
      "assetIndex": 11781301960202506204,
      "prePerformCfg": ""
    },
    {
      "id": 1913212,
      "beginWay": "TALK_BEGIN_MANUAL",
      "beginCondComb": "LOGIC_OR",
      "beginCond": [
        {
          "type": "QUEST_COND_STATE_EQUAL",
          "_param": [
            "99902",
            "3"
          ]
        }
      ],
      "priority": 5,
      "initDialog": 191321201,
      "npcId": [
        12310
      ],
      "performCfg": "",
      "heroTalk": "TALK_HERO_MAIN",
      "questId": 19132,
      "assetIndex": 8293796065189023226,
      "prePerformCfg": ""
    },
    {
      "id": 1913214,
      "beginWay": "TALK_BEGIN_MANUAL",
      "beginCond": [
        {
          "type": "QUEST_COND_STATE_EQUAL",
          "_param": [
            "1913206",
            "2"
          ]
        }
      ],
      "priority": 3,
      "initDialog": 191321401,
      "npcId": [
        2146
      ],
      "performCfg": "QuestDialogue/COOP/CoopNingguang/Q1913214",
      "heroTalk": "TALK_HERO_MAIN",
      "questId": 19132,
      "assetIndex": 11900002768842897064,
      "prePerformCfg": ""
    },
    {
      "id": 1913215,
      "beginWay": "TALK_BEGIN_MANUAL",
      "activeMode": "PLAY_MODE_ALL",
      "beginCond": [
        {
          "type": "QUEST_COND_STATE_EQUAL",
          "_param": [
            "99902",
            "3"
          ]
        }
      ],
      "priority": 3,
      "initDialog": 191321501,
      "npcId": [
        2146
      ],
      "performCfg": "QuestDialogue/COOP/CoopNingguang/Q1913215",
      "questId": 19132,
      "assetIndex": 12572041561540434011,
      "prePerformCfg": ""
    }
  ],
  "preloadLuaList": [
    17086082709081682458
  ],
  "forcePreloadLuaList": [
    13209093242610314447
  ]
}