{
  "id": 19138,
  "resId": 3012,
  "series": 102701,
  "damageRatio": "LQ",
  "descTextMapHash": 2885876271,
  "EKEKACCODOE": 996105742,
  "luaPath": "Actor/Quest/LQ19138",
  "suggestTrackMainQuestList": [
    19135,
    19136,
    19137
  ],
  "suggestTrackOutOfOrder": true,
  "chapterId": 102701,
  "subQuests": [
    {
      "subId": 1913801,
      "mainId": 19138,
      "order": 3,
      "descTextMapHash": 3929727548,
      "finishCond": [
        {
          "damageRatio": "QUEST_CONTENT_MAIN_COOP_ENTER_SAVE_POINT",
          "param": [
            102701,
            10301
          ]
        },
        {
          "damageRatio": "QUEST_CONTENT_MAIN_COOP_ENTER_SAVE_POINT",
          "param": [
            102701,
            10302
          ]
        },
        {
          "damageRatio": "QUEST_CONTENT_MAIN_COOP_ENTER_SAVE_POINT",
          "param": [
            102701,
            10303
          ]
        }
      ],
      "failCond": [
        {
          "damageRatio": "QUEST_CONTENT_ANY_MANUAL_TRANSPORT",
          "param": [
            0,
            0
          ]
        }
      ],
      "guide": {
        "damageRatio": "QUEST_GUIDE_LOCATION",
        "param": [
          "Q1913201Ningguang03"
        ],
        "guideScene": 1057,
        "guideStyle": "QUEST_GUIDE_STYLE_TARGET",
        "guideLayer": "QUEST_GUIDE_LAYER_SCENE",
        "MLAHIFLGIGJ": ""
      },
      "guideHint": {
        "param1": ""
      },
      "finishParent": true,
      "failExec": [
        {
          "damageRatio": "QUEST_EXEC_ROLLBACK_QUEST",
          "param": [
            "1913803"
          ]
        }
      ],
      "versionBegin": "",
      "versionEnd": ""
    },
    {
      "subId": 1913802,
      "mainId": 19138,
      "order": 1,
      "descTextMapHash": 1703131100,
      "finishCond": [
        {
          "damageRatio": "QUEST_CONTENT_GAME_TIME_TICK",
          "param": [
            1,
            0
          ]
        }
      ],
      "guide": {
        "MLAHIFLGIGJ": ""
      },
      "showGuide": "QUEST_GUIDE_ITEM_DISABLE",
      "guideHint": {
        "param1": ""
      },
      "isRewind": true,
      "versionBegin": "",
      "versionEnd": ""
    },
    {
      "subId": 1913803,
      "mainId": 19138,
      "order": 2,
      "descTextMapHash": 3199994692,
      "finishCond": [
        {
          "damageRatio": "QUEST_CONTENT_LUA_NOTIFY",
          "param": [
            0,
            0
          ],
          "count": 1
        }
      ],
      "guide": {
        "damageRatio": "QUEST_GUIDE_LOCATION",
        "param": [
          "Q1913201Ningguang03"
        ],
        "guideScene": 1057,
        "guideStyle": "QUEST_GUIDE_STYLE_POINT",
        "guideLayer": "QUEST_GUIDE_LAYER_SCENE",
        "MLAHIFLGIGJ": ""
      },
      "guideHint": {
        "param1": ""
      },
      "isRewind": true,
      "versionBegin": "",
      "versionEnd": ""
    }
  ],
  "preloadLuaList": [
    2557277229680180229
  ],
  "forcePreloadLuaList": [
    13143735671482661130
  ]
}