{
  "id": 19185,
  "resId": 3019,
  "series": 108301,
  "damageRatio": "LQ",
  "descTextMapHash": 3297641615,
  "EKEKACCODOE": 1199320390,
  "luaPath": "Actor/Quest/LQ19185",
  "suggestTrackMainQuestList": [
    19187
  ],
  "suggestTrackOutOfOrder": true,
  "chapterId": 108301,
  "BONJIMPOJLG": true,
  "subQuests": [
    {
      "subId": 1918501,
      "mainId": 19185,
      "order": 1,
      "descTextMapHash": 471987980,
      "stepDescTextMapHash": 1054581037,
      "JIFODJPFKDF": [
        340115
      ],
      "finishCond": [
        {
          "damageRatio": "QUEST_CONTENT_MAIN_COOP_ENTER_SAVE_POINT",
          "param": [
            108301,
            191850101
          ]
        }
      ],
      "guide": {
        "damageRatio": "QUEST_GUIDE_NPC",
        "param": [
          "5042"
        ],
        "guideScene": 3,
        "guideStyle": "QUEST_GUIDE_STYLE_TARGET",
        "guideLayer": "QUEST_GUIDE_LAYER_SCENE",
        "MLAHIFLGIGJ": ""
      },
      "guideHint": {
        "param1": ""
      },
      "isRewind": true,
      "versionBegin": "",
      "versionEnd": ""
    },
    {
      "subId": 1918502,
      "mainId": 19185,
      "order": 13,
      "showType": "QUEST_HIDDEN",
      "finishCond": [
        {
          "damageRatio": "QUEST_CONTENT_QUEST_STATE_EQUAL",
          "param": [
            1918510,
            3
          ]
        },
        {
          "damageRatio": "QUEST_CONTENT_QUEST_STATE_EQUAL",
          "param": [
            1918511,
            3
          ]
        },
        {
          "damageRatio": "QUEST_CONTENT_QUEST_STATE_EQUAL",
          "param": [
            1918512,
            3
          ]
        }
      ],
      "guide": {
        "MLAHIFLGIGJ": ""
      },
      "showGuide": "QUEST_GUIDE_ITEM_DISABLE",
      "guideHint": {
        "param1": ""
      },
      "isRewind": true,
      "versionBegin": "",
      "versionEnd": ""
    },
    {
      "subId": 1918503,
      "mainId": 19185,
      "order": 2,
      "descTextMapHash": 3178597020,
      "stepDescTextMapHash": 1099118453,
      "guideTipsTextMapHash": 2673091390,
      "finishCond": [
        {
          "damageRatio": "QUEST_CONTENT_GAME_TIME_TICK",
          "param": [
            1,
            0
          ]
        }
      ],
      "guide": {
        "param": [
          "30"
        ],
        "guideScene": 3,
        "MLAHIFLGIGJ": ""
      },
      "showGuide": "QUEST_GUIDE_ITEM_DISABLE",
      "guideHint": {
        "param1": ""
      },
      "isRewind": true,
      "versionBegin": "",
      "versionEnd": ""
    },
    {
      "subId": 1918504,
      "mainId": 19185,
      "order": 3,
      "descTextMapHash": 2501096012,
      "JIFODJPFKDF": [
        3340119
      ],
      "finishCond": [
        {
          "damageRatio": "QUEST_CONTENT_MAIN_COOP_ENTER_SAVE_POINT",
          "param": [
            108301,
            191850401
          ]
        }
      ],
      "guide": {
        "damageRatio": "QUEST_GUIDE_LOCATION",
        "param": [
          "[3_340100531:3491.142,429.834,4610.112]",
          "10"
        ],
        "guideScene": 3,
        "guideStyle": "QUEST_GUIDE_STYLE_POINT",
        "guideLayer": "QUEST_GUIDE_LAYER_SCENE",
        "MLAHIFLGIGJ": ""
      },
      "guideHint": {
        "param1": ""
      },
      "isRewind": true,
      "versionBegin": "",
      "versionEnd": ""
    },
    {
      "subId": 1918505,
      "mainId": 19185,
      "order": 4,
      "descTextMapHash": 3973871580,
      "JIFODJPFKDF": [
        3340119
      ],
      "finishCond": [
        {
          "damageRatio": "QUEST_CONTENT_MAIN_COOP_ENTER_SAVE_POINT",
          "param": [
            108301,
            191850501
          ]
        }
      ],
      "guide": {
        "damageRatio": "QUEST_GUIDE_NPC",
        "param": [
          "518"
        ],
        "guideScene": 3,
        "guideStyle": "QUEST_GUIDE_STYLE_TARGET",
        "guideLayer": "QUEST_GUIDE_LAYER_SCENE",
        "MLAHIFLGIGJ": ""
      },
      "guideHint": {
        "param1": ""
      },
      "MEMGANDALKN": "QUEST_HIDDEN",
      "isRewind": true,
      "versionBegin": "",
      "versionEnd": ""
    },
    {
      "subId": 1918506,
      "mainId": 19185,
      "order": 5,
      "descTextMapHash": 3260990876,
      "stepDescTextMapHash": 2169722469,
      "JIFODJPFKDF": [
        340846
      ],
      "finishCond": [
        {
          "damageRatio": "QUEST_CONTENT_MAIN_COOP_ENTER_SAVE_POINT",
          "param": [
            108301,
            191850601
          ]
        }
      ],
      "guide": {
        "damageRatio": "QUEST_GUIDE_LOCATION",
        "param": [
          "[3_340800434:4793.227,527.477,4301.678,0.000,37.660,0.000]",
          "15"
        ],
        "guideScene": 3,
        "guideStyle": "QUEST_GUIDE_STYLE_POINT",
        "guideLayer": "QUEST_GUIDE_LAYER_SCENE",
        "MLAHIFLGIGJ": ""
      },
      "guideHint": {
        "param1": ""
      },
      "isRewind": true,
      "finishExec": [
        {
          "damageRatio": "QUEST_EXEC_SET_QUEST_GLOBAL_VAR",
          "param": [
            "4013202",
            "1"
          ]
        }
      ],
      "versionBegin": "",
      "versionEnd": ""
    },
    {
      "subId": 1918507,
      "mainId": 19185,
      "order": 6,
      "descTextMapHash": 2672289604,
      "finishCond": [
        {
          "damageRatio": "QUEST_CONTENT_MAIN_COOP_ENTER_SAVE_POINT",
          "param": [
            108301,
            191850701
          ]
        }
      ],
      "guide": {
        "damageRatio": "QUEST_GUIDE_LOCATION",
        "param": [
          "[3_340100540:4011.520,447.786,4595.359]"
        ],
        "guideScene": 3,
        "guideStyle": "QUEST_GUIDE_STYLE_POINT",
        "guideLayer": "QUEST_GUIDE_LAYER_SCENE",
        "MLAHIFLGIGJ": ""
      },
      "guideHint": {
        "param1": ""
      },
      "isRewind": true,
      "versionBegin": "",
      "versionEnd": ""
    },
    {
      "subId": 1918508,
      "mainId": 19185,
      "order": 8,
      "isMpBlock": true,
      "descTextMapHash": 2993003460,
      "finishCond": [
        {
          "damageRatio": "QUEST_CONTENT_LUA_NOTIFY",
          "param": [
            0,
            0
          ],
          "count": 1
        }
      ],
      "guide": {
        "damageRatio": "QUEST_GUIDE_LOCATION",
        "param": [
          "[3_340100701:3958.448,440.462,4546.059]",
          "15"
        ],
        "guideScene": 3,
        "guideStyle": "QUEST_GUIDE_STYLE_POINT",
        "guideLayer": "QUEST_GUIDE_LAYER_SCENE",
        "MLAHIFLGIGJ": ""
      },
      "showGuide": "QUEST_GUIDE_ITEM_DISABLE",
      "guideHint": {
        "param1": ""
      },
      "finishExec": [
        {
          "damageRatio": "QUEST_EXEC_UNREGISTER_DYNAMIC_GROUP",
          "param": [
            "133401815"
          ]
        }
      ],
      "versionBegin": "",
      "versionEnd": ""
    },
    {
      "subId": 1918509,
      "mainId": 19185,
      "order": 9,
      "descTextMapHash": 1902148884,
      "stepDescTextMapHash": 3077865317,
      "finishCond": [
        {
          "damageRatio": "QUEST_CONTENT_MAIN_COOP_ENTER_SAVE_POINT",
          "param": [
            108301,
            191850901
          ]
        }
      ],
      "guide": {
        "damageRatio": "QUEST_GUIDE_LOCATION",
        "param": [
          "[3_340100544:3933.952,443.395,4552.796]"
        ],
        "guideScene": 3,
        "guideStyle": "QUEST_GUIDE_STYLE_POINT",
        "guideLayer": "QUEST_GUIDE_LAYER_SCENE",
        "MLAHIFLGIGJ": ""
      },
      "guideHint": {
        "param1": ""
      },
      "isRewind": true,
      "versionBegin": "",
      "versionEnd": ""
    },
    {
      "subId": 1918510,
      "mainId": 19185,
      "order": 11,
      "subIdSet": 1,
      "descTextMapHash": 851295572,
      "finishCond": [
        {
          "damageRatio": "QUEST_CONTENT_COMPLETE_TALK",
          "param": [
            1918510,
            0
          ]
        }
      ],
      "guide": {
        "damageRatio": "QUEST_GUIDE_LOCATION",
        "param": [
          "[3_340100551:3941.241,442.103,4544.659]"
        ],
        "guideScene": 3,
        "guideStyle": "QUEST_GUIDE_STYLE_TARGET",
        "guideLayer": "QUEST_GUIDE_LAYER_SCENE",
        "MLAHIFLGIGJ": ""
      },
      "guideHint": {
        "param1": ""
      },
      "versionBegin": "",
      "versionEnd": ""
    },
    {
      "subId": 1918511,
      "mainId": 19185,
      "order": 12,
      "subIdSet": 1,
      "descTextMapHash": 2698063460,
      "finishCond": [
        {
          "damageRatio": "QUEST_CONTENT_COMPLETE_TALK",
          "param": [
            1918511,
            0
          ]
        }
      ],
      "guide": {
        "damageRatio": "QUEST_GUIDE_LOCATION",
        "param": [
          "[3_340100549:3926.756,445.254,4549.461]"
        ],
        "guideScene": 3,
        "guideStyle": "QUEST_GUIDE_STYLE_TARGET",
        "guideLayer": "QUEST_GUIDE_LAYER_SCENE",
        "MLAHIFLGIGJ": ""
      },
      "guideHint": {
        "param1": ""
      },
      "versionBegin": "",
      "versionEnd": ""
    },
    {
      "subId": 1918512,
      "mainId": 19185,
      "order": 10,
      "subIdSet": 1,
      "descTextMapHash": 3055697508,
      "finishCond": [
        {
          "damageRatio": "QUEST_CONTENT_COMPLETE_TALK",
          "param": [
            1918512,
            0
          ]
        }
      ],
      "guide": {
        "damageRatio": "QUEST_GUIDE_LOCATION",
        "param": [
          "[3_340100550:3931.585,444.558,4555.367]"
        ],
        "guideScene": 3,
        "guideStyle": "QUEST_GUIDE_STYLE_TARGET",
        "guideLayer": "QUEST_GUIDE_LAYER_SCENE",
        "MLAHIFLGIGJ": ""
      },
      "guideHint": {
        "param1": ""
      },
      "versionBegin": "",
      "versionEnd": ""
    },
    {
      "subId": 1918513,
      "mainId": 19185,
      "order": 14,
      "descTextMapHash": 1474702204,
      "finishCond": [
        {
          "damageRatio": "QUEST_CONTENT_MAIN_COOP_ENTER_SAVE_POINT",
          "param": [
            108301,
            191851301
          ]
        }
      ],
      "guide": {
        "damageRatio": "QUEST_GUIDE_LOCATION",
        "param": [
          "[3_340100547:3938.201,443.660,4552.782,0.000,133.280,0.000]"
        ],
        "guideScene": 3,
        "guideStyle": "QUEST_GUIDE_STYLE_POINT",
        "guideLayer": "QUEST_GUIDE_LAYER_SCENE",
        "MLAHIFLGIGJ": ""
      },
      "guideHint": {
        "param1": ""
      },
      "isRewind": true,
      "versionBegin": "",
      "versionEnd": ""
    },
    {
      "subId": 1918514,
      "mainId": 19185,
      "order": 15,
      "descTextMapHash": 3382266252,
      "finishCond": [
        {
          "damageRatio": "QUEST_CONTENT_COMPLETE_TALK",
          "param": [
            1918523,
            0
          ]
        },
        {
          "damageRatio": "QUEST_CONTENT_LUA_NOTIFY",
          "param": [
            0,
            0
          ],
          "count": 1
        }
      ],
      "failCond": [
        {
          "damageRatio": "QUEST_CONTENT_NOT_FINISH_PLOT",
          "param": [
            1918514,
            0
          ]
        }
      ],
      "guide": {
        "damageRatio": "QUEST_GUIDE_LOCATION",
        "param": [
          "[3_340100552:3966.845,422.276,4443.119]",
          "45"
        ],
        "guideScene": 3,
        "guideStyle": "QUEST_GUIDE_STYLE_POINT",
        "guideLayer": "QUEST_GUIDE_LAYER_SCENE",
        "MLAHIFLGIGJ": ""
      },
      "showGuide": "QUEST_GUIDE_ITEM_DISABLE",
      "guideHint": {
        "param1": ""
      },
      "isRewind": true,
      "finishExec": [
        {
          "damageRatio": "QUEST_EXEC_UNREGISTER_DYNAMIC_GROUP",
          "param": [
            "133401826"
          ]
        }
      ],
      "versionBegin": "",
      "versionEnd": ""
    },
    {
      "subId": 1918515,
      "mainId": 19185,
      "order": 17,
      "descTextMapHash": 2544335748,
      "finishCond": [
        {
          "damageRatio": "QUEST_CONTENT_MAIN_COOP_ENTER_SAVE_POINT",
          "param": [
            108301,
            191851501
          ]
        }
      ],
      "guide": {
        "damageRatio": "QUEST_GUIDE_LOCATION",
        "param": [
          "[3_340100554:3934.379,443.501,4550.971,0.000,139.650,0.000]"
        ],
        "guideScene": 3,
        "guideStyle": "QUEST_GUIDE_STYLE_POINT",
        "guideLayer": "QUEST_GUIDE_LAYER_SCENE",
        "MLAHIFLGIGJ": ""
      },
      "guideHint": {
        "param1": ""
      },
      "isRewind": true,
      "versionBegin": "",
      "versionEnd": ""
    },
    {
      "subId": 1918516,
      "mainId": 19185,
      "order": 18,
      "descTextMapHash": 3541685460,
      "stepDescTextMapHash": 2516071901,
      "JIFODJPFKDF": [
        341201
      ],
      "finishCond": [
        {
          "damageRatio": "QUEST_CONTENT_MAIN_COOP_ENTER_SAVE_POINT",
          "param": [
            108301,
            191851601
          ]
        }
      ],
      "guide": {
        "damageRatio": "QUEST_GUIDE_NPC",
        "param": [
          "14016"
        ],
        "guideScene": 3,
        "guideStyle": "QUEST_GUIDE_STYLE_TARGET",
        "guideLayer": "QUEST_GUIDE_LAYER_SCENE",
        "MLAHIFLGIGJ": ""
      },
      "guideHint": {
        "param1": ""
      },
      "isRewind": true,
      "finishExec": [
        {
          "damageRatio": "QUEST_EXEC_UNREGISTER_DYNAMIC_GROUP",
          "param": [
            "133401825"
          ]
        },
        {
          "damageRatio": "QUEST_EXEC_UNREGISTER_DYNAMIC_GROUP",
          "param": [
            "133401814"
          ]
        }
      ],
      "versionBegin": "",
      "versionEnd": ""
    },
    {
      "subId": 1918517,
      "mainId": 19185,
      "order": 19,
      "descTextMapHash": 3150499284,
      "JIFODJPFKDF": [
        340128,
        340137,
        341201,
        340147,
        340106
      ],
      "finishCond": [
        {
          "damageRatio": "QUEST_CONTENT_MAIN_COOP_ENTER_SAVE_POINT",
          "param": [
            108301,
            191851701
          ]
        }
      ],
      "guide": {
        "damageRatio": "QUEST_GUIDE_LOCATION",
        "param": [
          "[3_340100558:3598.817,435.073,4534.858]",
          "15"
        ],
        "guideScene": 3,
        "guideStyle": "QUEST_GUIDE_STYLE_TARGET",
        "guideLayer": "QUEST_GUIDE_LAYER_SCENE",
        "MLAHIFLGIGJ": ""
      },
      "guideHint": {
        "param1": ""
      },
      "isRewind": true,
      "versionBegin": "",
      "versionEnd": ""
    },
    {
      "subId": 1918518,
      "mainId": 19185,
      "order": 22,
      "descTextMapHash": 982295564,
      "stepDescTextMapHash": 1021931245,
      "JIFODJPFKDF": [
        340128,
        340137,
        340106
      ],
      "finishCond": [
        {
          "damageRatio": "QUEST_CONTENT_FINISH_PLOT",
          "param": [
            1918518,
            0
          ]
        }
      ],
      "guide": {
        "damageRatio": "QUEST_GUIDE_LOCATION",
        "param": [
          "[3_340100586:3586.853,428.202,4600.064]",
          "15"
        ],
        "guideScene": 3,
        "guideStyle": "QUEST_GUIDE_STYLE_POINT",
        "guideLayer": "QUEST_GUIDE_LAYER_SCENE",
        "MLAHIFLGIGJ": ""
      },
      "showGuide": "QUEST_GUIDE_ITEM_DISABLE",
      "guideHint": {
        "param1": ""
      },
      "isRewind": true,
      "versionBegin": "",
      "versionEnd": ""
    },
    {
      "subId": 1918519,
      "mainId": 19185,
      "order": 23,
      "subIdSet": 2,
      "descTextMapHash": 3997219012,
      "JIFODJPFKDF": [
        340137,
        340106
      ],
      "finishCond": [
        {
          "damageRatio": "QUEST_CONTENT_COMPLETE_TALK",
          "param": [
            1918553,
            0
          ]
        },
        {
          "damageRatio": "QUEST_CONTENT_COMPLETE_TALK",
          "param": [
            1918542,
            0
          ]
        },
        {
          "damageRatio": "QUEST_CONTENT_MAIN_COOP_ENTER_SAVE_POINT",
          "param": [
            108301,
            191852001
          ]
        },
        {
          "damageRatio": "QUEST_CONTENT_MAIN_COOP_ENTER_SAVE_POINT",
          "param": [
            108301,
            191852002
          ]
        }
      ],
      "guide": {
        "damageRatio": "QUEST_GUIDE_NPC",
        "param": [
          "518"
        ],
        "guideScene": 3,
        "guideStyle": "QUEST_GUIDE_STYLE_TARGET",
        "guideLayer": "QUEST_GUIDE_LAYER_SCENE",
        "MLAHIFLGIGJ": ""
      },
      "guideHint": {
        "param1": ""
      },
      "versionBegin": "",
      "versionEnd": ""
    },
    {
      "subId": 1918520,
      "mainId": 19185,
      "order": 28,
      "subIdSet": 2,
      "descTextMapHash": 2717856340,
      "JIFODJPFKDF": [
        340137,
        340106
      ],
      "finishCond": [
        {
          "damageRatio": "QUEST_CONTENT_MAIN_COOP_ENTER_SAVE_POINT",
          "param": [
            108301,
            191852001
          ]
        },
        {
          "damageRatio": "QUEST_CONTENT_MAIN_COOP_ENTER_SAVE_POINT",
          "param": [
            108301,
            191852002
          ]
        }
      ],
      "guide": {
        "damageRatio": "QUEST_GUIDE_NPC",
        "param": [
          "14016"
        ],
        "guideScene": 3,
        "guideStyle": "QUEST_GUIDE_STYLE_TARGET",
        "guideLayer": "QUEST_GUIDE_LAYER_SCENE",
        "MLAHIFLGIGJ": ""
      },
      "guideHint": {
        "param1": ""
      },
      "finishParent": true,
      "isRewind": true,
      "versionBegin": "",
      "versionEnd": ""
    },
    {
      "subId": 1918521,
      "mainId": 19185,
      "order": 20,
      "descTextMapHash": 2035881484,
      "finishCond": [
        {
          "damageRatio": "QUEST_CONTENT_FINISH_PLOT",
          "param": [
            1918521,
            0
          ]
        }
      ],
      "guide": {
        "damageRatio": "QUEST_GUIDE_NPC",
        "param": [
          "13937"
        ],
        "guideScene": 3,
        "guideStyle": "QUEST_GUIDE_STYLE_POINT",
        "guideLayer": "QUEST_GUIDE_LAYER_SCENE",
        "MLAHIFLGIGJ": ""
      },
      "guideHint": {
        "param1": ""
      },
      "isRewind": true,
      "versionBegin": "",
      "versionEnd": ""
    },
    {
      "subId": 1918522,
      "mainId": 19185,
      "order": 21,
      "isMpBlock": true,
      "descTextMapHash": 1361587716,
      "JIFODJPFKDF": [
        340128,
        340137,
        341201,
        340147,
        340106
      ],
      "finishCond": [
        {
          "damageRatio": "QUEST_CONTENT_MAIN_COOP_ENTER_SAVE_POINT",
          "param": [
            108301,
            191852201
          ]
        }
      ],
      "failCond": [
        {
          "damageRatio": "QUEST_CONTENT_ANY_MANUAL_TRANSPORT",
          "param": [
            0,
            0
          ]
        },
        {
          "damageRatio": "QUEST_CONTENT_LEAVE_SCENE_RANGE",
          "param": [
            3,
            60
          ]
        }
      ],
      "guide": {
        "damageRatio": "QUEST_GUIDE_NPC",
        "param": [
          "14028"
        ],
        "guideScene": 3,
        "guideStyle": "QUEST_GUIDE_STYLE_TARGET",
        "guideLayer": "QUEST_GUIDE_LAYER_SCENE",
        "MLAHIFLGIGJ": ""
      },
      "guideHint": {
        "param1": ""
      },
      "finishExec": [
        {
          "damageRatio": "QUEST_EXEC_UNLOCK_MIRROR_AVATAR_TEAM"
        }
      ],
      "failExec": [
        {
          "damageRatio": "QUEST_EXEC_ROLLBACK_QUEST",
          "param": [
            "1918517"
          ]
        },
        {
          "damageRatio": "QUEST_EXEC_UNLOCK_MIRROR_AVATAR_TEAM"
        }
      ],
      "versionBegin": "",
      "versionEnd": ""
    },
    {
      "subId": 1918523,
      "mainId": 19185,
      "order": 7,
      "descTextMapHash": 1569065068,
      "finishCond": [
        {
          "damageRatio": "QUEST_CONTENT_FINISH_PLOT",
          "param": [
            1918523,
            0
          ]
        }
      ],
      "guide": {
        "damageRatio": "QUEST_GUIDE_NPC",
        "param": [
          "13942"
        ],
        "guideScene": 3,
        "guideStyle": "QUEST_GUIDE_STYLE_TARGET",
        "guideLayer": "QUEST_GUIDE_LAYER_SCENE",
        "MLAHIFLGIGJ": ""
      },
      "guideHint": {
        "param1": ""
      },
      "versionBegin": "",
      "versionEnd": ""
    },
    {
      "subId": 1918524,
      "mainId": 19185,
      "order": 24,
      "showType": "QUEST_HIDDEN",
      "finishCond": [
        {
          "damageRatio": "QUEST_CONTENT_COMPLETE_TALK",
          "param": [
            1918547,
            0
          ]
        }
      ],
      "failCond": [
        {
          "damageRatio": "QUEST_CONTENT_COMPLETE_TALK",
          "param": [
            1918556,
            0
          ]
        }
      ],
      "guide": {
        "MLAHIFLGIGJ": ""
      },
      "guideHint": {
        "param1": ""
      },
      "finishExec": [
        {
          "damageRatio": "QUEST_EXEC_SET_QUEST_GLOBAL_VAR",
          "param": [
            "1918501",
            "1"
          ]
        },
        {
          "damageRatio": "QUEST_EXEC_INC_QUEST_GLOBAL_VAR",
          "param": [
            "1918505",
            "1"
          ]
        },
        {
          "damageRatio": "QUEST_EXEC_INC_QUEST_GLOBAL_VAR",
          "param": [
            "1918506",
            "1"
          ]
        }
      ],
      "failExec": [
        {
          "damageRatio": "QUEST_EXEC_SET_QUEST_GLOBAL_VAR",
          "param": [
            "1918501",
            "2"
          ]
        },
        {
          "damageRatio": "QUEST_EXEC_INC_QUEST_GLOBAL_VAR",
          "param": [
            "1918505",
            "1"
          ]
        }
      ],
      "versionBegin": "",
      "versionEnd": ""
    },
    {
      "subId": 1918525,
      "mainId": 19185,
      "order": 25,
      "showType": "QUEST_HIDDEN",
      "finishCond": [
        {
          "damageRatio": "QUEST_CONTENT_COMPLETE_TALK",
          "param": [
            1918549,
            0
          ]
        }
      ],
      "failCond": [
        {
          "damageRatio": "QUEST_CONTENT_COMPLETE_TALK",
          "param": [
            1918557,
            0
          ]
        }
      ],
      "guide": {
        "MLAHIFLGIGJ": ""
      },
      "guideHint": {
        "param1": ""
      },
      "finishExec": [
        {
          "damageRatio": "QUEST_EXEC_SET_QUEST_GLOBAL_VAR",
          "param": [
            "1918502",
            "1"
          ]
        },
        {
          "damageRatio": "QUEST_EXEC_INC_QUEST_GLOBAL_VAR",
          "param": [
            "1918505",
            "1"
          ]
        },
        {
          "damageRatio": "QUEST_EXEC_INC_QUEST_GLOBAL_VAR",
          "param": [
            "1918506",
            "1"
          ]
        }
      ],
      "failExec": [
        {
          "damageRatio": "QUEST_EXEC_SET_QUEST_GLOBAL_VAR",
          "param": [
            "1918502",
            "2"
          ]
        },
        {
          "damageRatio": "QUEST_EXEC_INC_QUEST_GLOBAL_VAR",
          "param": [
            "1918505",
            "1"
          ]
        }
      ],
      "versionBegin": "",
      "versionEnd": ""
    },
    {
      "subId": 1918526,
      "mainId": 19185,
      "order": 26,
      "showType": "QUEST_HIDDEN",
      "finishCond": [
        {
          "damageRatio": "QUEST_CONTENT_COMPLETE_TALK",
          "param": [
            1918551,
            0
          ]
        }
      ],
      "failCond": [
        {
          "damageRatio": "QUEST_CONTENT_COMPLETE_TALK",
          "param": [
            1918558,
            0
          ]
        }
      ],
      "guide": {
        "MLAHIFLGIGJ": ""
      },
      "guideHint": {
        "param1": ""
      },
      "finishExec": [
        {
          "damageRatio": "QUEST_EXEC_SET_QUEST_GLOBAL_VAR",
          "param": [
            "1918503",
            "1"
          ]
        },
        {
          "damageRatio": "QUEST_EXEC_INC_QUEST_GLOBAL_VAR",
          "param": [
            "1918505",
            "1"
          ]
        },
        {
          "damageRatio": "QUEST_EXEC_INC_QUEST_GLOBAL_VAR",
          "param": [
            "1918506",
            "1"
          ]
        }
      ],
      "failExec": [
        {
          "damageRatio": "QUEST_EXEC_SET_QUEST_GLOBAL_VAR",
          "param": [
            "1918503",
            "2"
          ]
        },
        {
          "damageRatio": "QUEST_EXEC_INC_QUEST_GLOBAL_VAR",
          "param": [
            "1918505",
            "1"
          ]
        }
      ],
      "versionBegin": "",
      "versionEnd": ""
    },
    {
      "subId": 1918527,
      "mainId": 19185,
      "order": 27,
      "showType": "QUEST_HIDDEN",
      "finishCond": [
        {
          "damageRatio": "QUEST_CONTENT_COMPLETE_TALK",
          "param": [
            1918553,
            0
          ]
        }
      ],
      "guide": {
        "MLAHIFLGIGJ": ""
      },
      "guideHint": {
        "param1": ""
      },
      "finishExec": [
        {
          "damageRatio": "QUEST_EXEC_SET_QUEST_GLOBAL_VAR",
          "param": [
            "1918504",
            "1"
          ]
        }
      ],
      "versionBegin": "",
      "versionEnd": ""
    },
    {
      "subId": 1918528,
      "mainId": 19185,
      "order": 16,
      "descTextMapHash": 1708004692,
      "finishCond": [
        {
          "damageRatio": "QUEST_CONTENT_COMPLETE_TALK",
          "param": [
            1918523,
            0
          ]
        },
        {
          "damageRatio": "QUEST_CONTENT_LUA_NOTIFY",
          "param": [
            0,
            0
          ],
          "count": 1
        }
      ],
      "guide": {
        "damageRatio": "QUEST_GUIDE_LOCATION",
        "param": [
          "[3_340100694:3974.648,420.363,4429.443]",
          "23"
        ],
        "guideScene": 3,
        "guideStyle": "QUEST_GUIDE_STYLE_TARGET",
        "guideLayer": "QUEST_GUIDE_LAYER_SCENE",
        "MLAHIFLGIGJ": ""
      },
      "guideHint": {
        "param1": ""
      },
      "isRewind": true,
      "finishExec": [
        {
          "damageRatio": "QUEST_EXEC_UNREGISTER_DYNAMIC_GROUP",
          "param": [
            "133401826"
          ]
        }
      ],
      "versionBegin": "",
      "versionEnd": ""
    }
  ],
  "talks": [
    {
      "id": 1918510,
      "beginWay": "TALK_BEGIN_MANUAL",
      "beginCond": [
        {
          "type": "QUEST_COND_STATE_EQUAL",
          "_param": [
            "1918510",
            "2"
          ]
        }
      ],
      "priority": 5,
      "initDialog": 191851001,
      "npcId": [
        13938
      ],
      "performCfg": "QuestDialogue/COOP/CoopLynette/Q1918510",
      "heroTalk": "TALK_HERO_MAIN",
      "questId": 19185,
      "assetIndex": 6785893557783065879,
      "prePerformCfg": "",
      "CHAKPMBJNAJ": [
        "[3_340100545:3934.474,443.676,4556.253,0.000,119.300,0.000]",
        "[3_340100546:3938.103,443.774,4554.202,0.000,300.640,0.000]",
        "[3_340100652:3942.292,441.271,4545.010,0.000,249.550,0.000]"
      ]
    },
    {
      "id": 1918511,
      "beginWay": "TALK_BEGIN_MANUAL",
      "beginCond": [
        {
          "type": "QUEST_COND_STATE_EQUAL",
          "_param": [
            "1918511",
            "2"
          ]
        }
      ],
      "priority": 5,
      "initDialog": 191851101,
      "npcId": [
        13939
      ],
      "performCfg": "QuestDialogue/COOP/CoopLynette/Q1918511",
      "heroTalk": "TALK_HERO_MAIN",
      "questId": 19185,
      "assetIndex": 14203504501817596195,
      "prePerformCfg": "",
      "CHAKPMBJNAJ": [
        "[3_340100651:3926.022,443.657,4548.217,0.000,2.200,0.000]"
      ]
    },
    {
      "id": 1918512,
      "beginWay": "TALK_BEGIN_MANUAL",
      "beginCond": [
        {
          "type": "QUEST_COND_STATE_EQUAL",
          "_param": [
            "1918512",
            "2"
          ]
        }
      ],
      "priority": 5,
      "initDialog": 191851201,
      "npcId": [
        13940
      ],
      "performCfg": "QuestDialogue/COOP/CoopLynette/Q1918512",
      "heroTalk": "TALK_HERO_MAIN",
      "questId": 19185,
      "assetIndex": 11623204635735651885,
      "prePerformCfg": "",
      "CHAKPMBJNAJ": [
        "[3_340100650:3933.135,443.514,4555.693,0.000,260.020,0.000]"
      ]
    },
    {
      "id": 1918519,
      "beginWay": "TALK_BEGIN_MANUAL",
      "beginCond": [
        {
          "type": "QUEST_COND_STATE_EQUAL",
          "_param": [
            "99902",
            "3"
          ]
        }
      ],
      "priority": 5,
      "initDialog": 191851901,
      "npcId": [
        518
      ],
      "performCfg": "QuestDialogue/COOP/CoopLynette/Q1918519",
      "questId": 19185,
      "assetIndex": 11826032923324864130,
      "prePerformCfg": "",
      "CHAKPMBJNAJ": [
        "[3_340100584:3584.092,428.202,4606.388,0.000,53.600,0.000]",
        "[3_340100585:3586.832,428.202,4604.944,0.000,299.000,0.000]"
      ]
    },
    {
      "id": 1918523,
      "beginWay": "TALK_BEGIN_MANUAL",
      "beginCond": [
        {
          "type": "QUEST_COND_STATE_EQUAL",
          "_param": [
            "1918514",
            "2"
          ]
        }
      ],
      "priority": 5,
      "initDialog": 191852301,
      "npcId": [
        13941
      ],
      "performCfg": "",
      "questId": 19185,
      "assetIndex": 2397674514568144795,
      "prePerformCfg": ""
    },
    {
      "id": 1918524,
      "beginWay": "TALK_BEGIN_MANUAL",
      "beginCond": [
        {
          "type": "QUEST_COND_STATE_EQUAL",
          "_param": [
            "99902",
            "3"
          ]
        }
      ],
      "priority": 5,
      "initDialog": 191852401,
      "npcId": [
        13937
      ],
      "performCfg": "",
      "questId": 19185,
      "assetIndex": 15121322267651762890,
      "prePerformCfg": ""
    },
    {
      "id": 1918541,
      "beginWay": "TALK_BEGIN_MANUAL",
      "beginCond": [
        {
          "type": "QUEST_COND_STATE_EQUAL",
          "_param": [
            "1918519",
            "2"
          ]
        }
      ],
      "priority": 4,
      "nextTalks": [
        1918546,
        1918548,
        1918550,
        1918552
      ],
      "initDialog": 191854101,
      "npcId": [
        518
      ],
      "performCfg": "QuestDialogue/COOP/CoopLynette/Q1918541",
      "heroTalk": "TALK_HERO_MAIN",
      "questId": 19185,
      "assetIndex": 16190957700982069215,
      "prePerformCfg": "",
      "CHAKPMBJNAJ": [
        "[3_340100584:3584.092,428.202,4606.388,0.000,53.600,0.000]",
        "[3_340100585:3586.832,428.202,4604.944,0.000,299.000,0.000]"
      ]
    },
    {
      "id": 1918542,
      "beginCondComb": "LOGIC_AND",
      "beginCond": [
        {
          "type": "QUEST_COND_QUEST_GLOBAL_VAR_EQUAL",
          "_param": [
            "1918505",
            "3"
          ]
        },
        {
          "type": "QUEST_COND_QUEST_GLOBAL_VAR_NOT_EQUAL",
          "_param": [
            "1918506",
            "3"
          ]
        }
      ],
      "priority": 5,
      "initDialog": 191854201,
      "npcId": [
        518
      ],
      "performCfg": "QuestDialogue/COOP/CoopLynette/Q1918542",
      "questId": 19185,
      "assetIndex": 14283994481536513397,
      "prePerformCfg": ""
    },
    {
      "id": 1918543,
      "beginWay": "TALK_BEGIN_MANUAL",
      "beginCond": [
        {
          "type": "QUEST_COND_STATE_EQUAL",
          "_param": [
            "1918517",
            "2"
          ]
        }
      ],
      "priority": 5,
      "initDialog": 191854301,
      "npcId": [
        5191
      ],
      "performCfg": "QuestDialogue/COOP/CoopLynette/Q1918543",
      "heroTalk": "TALK_HERO_MAIN",
      "questId": 19185,
      "assetIndex": 12035313556869492220,
      "prePerformCfg": ""
    },
    {
      "id": 1918544,
      "beginWay": "TALK_BEGIN_MANUAL",
      "beginCondComb": "LOGIC_AND",
      "beginCond": [
        {
          "type": "QUEST_COND_STATE_EQUAL",
          "_param": [
            "1918520",
            "2"
          ]
        },
        {
          "type": "QUEST_COND_QUEST_GLOBAL_VAR_EQUAL",
          "_param": [
            "1918505",
            "3"
          ]
        },
        {
          "type": "QUEST_COND_QUEST_GLOBAL_VAR_NOT_EQUAL",
          "_param": [
            "1918506",
            "3"
          ]
        },
        {
          "type": "QUEST_COND_STATE_EQUAL",
          "_param": [
            "1918519",
            "3"
          ]
        }
      ],
      "priority": 5,
      "initDialog": 191854401,
      "npcId": [
        518
      ],
      "performCfg": "QuestDialogue/COOP/CoopLynette/Q1918544",
      "heroTalk": "TALK_HERO_MAIN",
      "questId": 19185,
      "assetIndex": 12598518914552817907,
      "prePerformCfg": ""
    },
    {
      "id": 1918546,
      "beginCond": [
        {
          "type": "QUEST_COND_QUEST_GLOBAL_VAR_EQUAL",
          "_param": [
            "1918501",
            "0"
          ]
        }
      ],
      "priority": 5,
      "initDialog": 191854601,
      "npcId": [
        518
      ],
      "performCfg": "QuestDialogue/COOP/CoopLynette/Q1918546",
      "heroTalk": "TALK_HERO_MAIN",
      "questId": 19185,
      "assetIndex": 12546913037519608721,
      "prePerformCfg": ""
    },
    {
      "id": 1918547,
      "priority": 5,
      "nextTalks": [
        1918546,
        1918548,
        1918550,
        1918552,
        1918542
      ],
      "initDialog": 191854701,
      "npcId": [
        518
      ],
      "performCfg": "QuestDialogue/COOP/CoopLynette/Q1918547",
      "heroTalk": "TALK_HERO_MAIN",
      "questId": 19185,
      "assetIndex": 11127188045541440934,
      "prePerformCfg": ""
    },
    {
      "id": 1918548,
      "beginCond": [
        {
          "type": "QUEST_COND_QUEST_GLOBAL_VAR_EQUAL",
          "_param": [
            "1918502",
            "0"
          ]
        }
      ],
      "priority": 5,
      "initDialog": 191854801,
      "npcId": [
        518
      ],
      "performCfg": "QuestDialogue/COOP/CoopLynette/Q1918548",
      "heroTalk": "TALK_HERO_MAIN",
      "questId": 19185,
      "assetIndex": 8174832780536493701,
      "prePerformCfg": ""
    },
    {
      "id": 1918549,
      "priority": 5,
      "nextTalks": [
        1918546,
        1918548,
        1918550,
        1918552,
        1918542
      ],
      "initDialog": 191854901,
      "npcId": [
        518
      ],
      "performCfg": "QuestDialogue/COOP/CoopLynette/Q1918549",
      "heroTalk": "TALK_HERO_MAIN",
      "questId": 19185,
      "assetIndex": 2030817013215207394,
      "prePerformCfg": ""
    },
    {
      "id": 1918550,
      "beginCond": [
        {
          "type": "QUEST_COND_QUEST_GLOBAL_VAR_EQUAL",
          "_param": [
            "1918503",
            "0"
          ]
        }
      ],
      "priority": 5,
      "initDialog": 191855001,
      "npcId": [
        518
      ],
      "performCfg": "QuestDialogue/COOP/CoopLynette/Q1918550",
      "heroTalk": "TALK_HERO_MAIN",
      "questId": 19185,
      "assetIndex": 2312140803016391772,
      "prePerformCfg": ""
    },
    {
      "id": 1918551,
      "priority": 5,
      "nextTalks": [
        1918546,
        1918548,
        1918550,
        1918552,
        1918542
      ],
      "initDialog": 191855101,
      "npcId": [
        518
      ],
      "performCfg": "QuestDialogue/COOP/CoopLynette/Q1918551",
      "heroTalk": "TALK_HERO_MAIN",
      "questId": 19185,
      "assetIndex": 10104595400476831029,
      "prePerformCfg": ""
    },
    {
      "id": 1918552,
      "beginCondComb": "LOGIC_AND",
      "beginCond": [
        {
          "type": "QUEST_COND_QUEST_GLOBAL_VAR_EQUAL",
          "_param": [
            "1918501",
            "1"
          ]
        },
        {
          "type": "QUEST_COND_QUEST_GLOBAL_VAR_EQUAL",
          "_param": [
            "1918502",
            "1"
          ]
        },
        {
          "type": "QUEST_COND_QUEST_GLOBAL_VAR_EQUAL",
          "_param": [
            "1918503",
            "1"
          ]
        },
        {
          "type": "QUEST_COND_QUEST_GLOBAL_VAR_EQUAL",
          "_param": [
            "1918504",
            "0"
          ]
        }
      ],
      "priority": 5,
      "initDialog": 191855201,
      "npcId": [
        518
      ],
      "performCfg": "QuestDialogue/COOP/CoopLynette/Q1918552",
      "heroTalk": "TALK_HERO_MAIN",
      "questId": 19185,
      "assetIndex": 16184616667881911067,
      "prePerformCfg": ""
    },
    {
      "id": 1918553,
      "priority": 5,
      "initDialog": 191855301,
      "npcId": [
        518
      ],
      "performCfg": "QuestDialogue/COOP/CoopLynette/Q1918553",
      "heroTalk": "TALK_HERO_MAIN",
      "questId": 19185,
      "assetIndex": 329569900473409479,
      "prePerformCfg": ""
    },
    {
      "id": 1918554,
      "beginWay": "TALK_BEGIN_MANUAL",
      "beginCondComb": "LOGIC_AND",
      "beginCond": [
        {
          "type": "QUEST_COND_STATE_EQUAL",
          "_param": [
            "1918520",
            "2"
          ]
        },
        {
          "type": "QUEST_COND_QUEST_GLOBAL_VAR_EQUAL",
          "_param": [
            "1918505",
            "3"
          ]
        },
        {
          "type": "QUEST_COND_QUEST_GLOBAL_VAR_EQUAL",
          "_param": [
            "1918506",
            "3"
          ]
        },
        {
          "type": "QUEST_COND_QUEST_GLOBAL_VAR_EQUAL",
          "_param": [
            "1918504",
            "1"
          ]
        },
        {
          "type": "QUEST_COND_STATE_EQUAL",
          "_param": [
            "1918519",
            "3"
          ]
        }
      ],
      "priority": 5,
      "initDialog": 191855401,
      "npcId": [
        518
      ],
      "performCfg": "QuestDialogue/COOP/CoopLynette/Q1918554",
      "heroTalk": "TALK_HERO_MAIN",
      "questId": 19185,
      "assetIndex": 10296662580326636804,
      "prePerformCfg": ""
    },
    {
      "id": 1918555,
      "priority": 5,
      "performCfg": "",
      "questId": 19185,
      "assetIndex": 4645353425830662321,
      "prePerformCfg": ""
    },
    {
      "id": 1918556,
      "priority": 5,
      "nextTalks": [
        1918546,
        1918548,
        1918550,
        1918552,
        1918542
      ],
      "initDialog": 191855601,
      "npcId": [
        518
      ],
      "performCfg": "QuestDialogue/COOP/CoopLynette/Q1918556",
      "heroTalk": "TALK_HERO_MAIN",
      "questId": 19185,
      "assetIndex": 2488463062661644871,
      "prePerformCfg": ""
    },
    {
      "id": 1918557,
      "priority": 5,
      "nextTalks": [
        1918546,
        1918548,
        1918550,
        1918552,
        1918542
      ],
      "initDialog": 191855601,
      "npcId": [
        518
      ],
      "performCfg": "QuestDialogue/COOP/CoopLynette/Q1918557",
      "heroTalk": "TALK_HERO_MAIN",
      "questId": 19185,
      "assetIndex": 8451200031131314886,
      "prePerformCfg": ""
    },
    {
      "id": 1918558,
      "priority": 5,
      "nextTalks": [
        1918546,
        1918548,
        1918550,
        1918552,
        1918542
      ],
      "initDialog": 191855601,
      "npcId": [
        518
      ],
      "performCfg": "QuestDialogue/COOP/CoopLynette/Q1918558",
      "heroTalk": "TALK_HERO_MAIN",
      "questId": 19185,
      "assetIndex": 14851355256694036508,
      "prePerformCfg": ""
    },
    {
      "id": 1918559,
      "beginWay": "TALK_BEGIN_MANUAL",
      "beginCondComb": "LOGIC_AND",
      "beginCond": [
        {
          "type": "QUEST_COND_STATE_EQUAL",
          "_param": [
            "1918502",
            "2"
          ]
        },
        {
          "type": "QUEST_COND_STATE_EQUAL",
          "_param": [
            "1918510",
            "3"
          ]
        }
      ],
      "priority": 5,
      "initDialog": 191855901,
      "npcId": [
        518
      ],
      "performCfg": "QuestDialogue/COOP/CoopLynette/Q1918559",
      "heroTalk": "TALK_HERO_MAIN",
      "questId": 19185,
      "assetIndex": 11818464804842936317,
      "prePerformCfg": ""
    },
    {
      "id": 1918560,
      "beginWay": "TALK_BEGIN_MANUAL",
      "beginCondComb": "LOGIC_AND",
      "beginCond": [
        {
          "type": "QUEST_COND_STATE_EQUAL",
          "_param": [
            "1918502",
            "2"
          ]
        },
        {
          "type": "QUEST_COND_STATE_EQUAL",
          "_param": [
            "1918512",
            "3"
          ]
        }
      ],
      "priority": 5,
      "initDialog": 191856001,
      "npcId": [
        1081
      ],
      "performCfg": "QuestDialogue/COOP/CoopLynette/Q1918560",
      "heroTalk": "TALK_HERO_MAIN",
      "questId": 19185,
      "assetIndex": 5035228057928314345,
      "prePerformCfg": ""
    },
    {
      "id": 1918561,
      "beginWay": "TALK_BEGIN_MANUAL",
      "beginCondComb": "LOGIC_AND",
      "beginCond": [
        {
          "type": "QUEST_COND_STATE_EQUAL",
          "_param": [
            "1918502",
            "2"
          ]
        },
        {
          "type": "QUEST_COND_STATE_EQUAL",
          "_param": [
            "1918511",
            "3"
          ]
        }
      ],
      "priority": 5,
      "initDialog": 191856101,
      "npcId": [
        1071
      ],
      "performCfg": "QuestDialogue/COOP/CoopLynette/Q1918561",
      "heroTalk": "TALK_HERO_MAIN",
      "questId": 19185,
      "assetIndex": 7680757078108313594,
      "prePerformCfg": ""
    },
    {
      "id": 1918562,
      "beginWay": "TALK_BEGIN_MANUAL",
      "beginCond": [
        {
          "type": "QUEST_COND_STATE_EQUAL",
          "_param": [
            "1918514",
            "2"
          ]
        }
      ],
      "priority": 5,
      "initDialog": 191856201,
      "npcId": [
        1081
      ],
      "performCfg": "QuestDialogue/COOP/CoopLynette/Q1918562",
      "heroTalk": "TALK_HERO_MAIN",
      "questId": 19185,
      "assetIndex": 17112669297316169392,
      "prePerformCfg": ""
    },
    {
      "id": 1918563,
      "beginWay": "TALK_BEGIN_MANUAL",
      "beginCond": [
        {
          "type": "QUEST_COND_STATE_EQUAL",
          "_param": [
            "1918514",
            "2"
          ]
        }
      ],
      "priority": 5,
      "initDialog": 191856301,
      "npcId": [
        1071
      ],
      "performCfg": "QuestDialogue/COOP/CoopLynette/Q1918563",
      "heroTalk": "TALK_HERO_MAIN",
      "questId": 19185,
      "assetIndex": 15766600678191640227,
      "prePerformCfg": ""
    }
  ],
  "preloadLuaList": [
    4641270747189361208,
    12220432868865121395,
    14299349924744000943,
    7996077631116816032,
    7027398348230007441,
    14246984239148585693,
    4617324443812871112,
    17017584535452539126,
    7042314686049053713,
    11212286880843958042,
    6112520716708909665,
    756977970032554773,
    483515260057708270,
    12320069942550231229
  ],
  "forcePreloadLuaList": [
    3340487469263950338
  ],
  "freeStyleDic": {
    "13930": [
      1120
    ],
    "13937": [
      1060,
      4109,
      1160
    ],
    "1071": [
      1190
    ],
    "1081": [
      1180,
      1190
    ],
    "13942": [
      3,
      7,
      1
    ],
    "518": [
      1190,
      1220
    ],
    "14016": [
      1120,
      1230
    ],
    "5191": [
      1172,
      1190
    ]
  },
  "dialogList": [
    {
      "id": 191850201,
      "nextDialogs": [
        191850202
      ],
      "talkRole": {
        "type": "TALK_ROLE_NPC",
        "_id": "518"
      },
      "talkContentTextMapHash": 4148541666,
      "talkAssetPath": "",
      "talkAssetPathAlter": "",
      "talkAudioName": "",
      "actionBefore": "",
      "actionWhile": "",
      "actionAfter": "",
      "optionIcon": "",
      "iconPath": ""
    },
    {
      "id": 191850202,
      "talkRole": {
        "type": "TALK_ROLE_NPC",
        "_id": "1071"
      },
      "talkContentTextMapHash": 4202016842,
      "talkAssetPath": "",
      "talkAssetPathAlter": "",
      "talkAudioName": "",
      "actionBefore": "",
      "actionWhile": "",
      "actionAfter": "",
      "optionIcon": "",
      "iconPath": ""
    },
    {
      "id": 191851635,
      "talkShowType": "TALK_SHOW_FORCE_SELECT",
      "talkRole": {
        "type": "TALK_ROLE_PLAYER",
        "_id": ""
      },
      "talkContentTextMapHash": 2152360594,
      "talkAssetPath": "",
      "talkAssetPathAlter": "",
      "talkAudioName": "",
      "actionBefore": "",
      "actionWhile": "",
      "actionAfter": "",
      "optionIcon": "UI_Icon_Intee_CoopNumCheck",
      "iconPath": ""
    },
    {
      "id": 191852698,
      "talkRole": {
        "type": "TALK_ROLE_PLAYER",
        "_id": ""
      },
      "talkContentTextMapHash": 808253514,
      "talkAssetPath": "",
      "talkAssetPathAlter": "",
      "talkAudioName": "",
      "actionBefore": "",
      "actionWhile": "",
      "actionAfter": "",
      "optionIcon": "UI_Icon_Intee_CoopNumCheck",
      "iconPath": ""
    },
    {
      "id": 191852699,
      "talkRole": {
        "type": "TALK_ROLE_PLAYER",
        "_id": ""
      },
      "talkContentTextMapHash": 2503338386,
      "talkAssetPath": "",
      "talkAssetPathAlter": "",
      "talkAudioName": "",
      "actionBefore": "",
      "actionWhile": "",
      "actionAfter": "",
      "optionIcon": "",
      "iconPath": ""
    },
    {
      "id": 191852801,
      "talkRole": {
        "type": "TALK_ROLE_BLACK_SCREEN",
        "_id": ""
      },
      "talkContentTextMapHash": 889033266,
      "talkAssetPath": "",
      "talkAssetPathAlter": "",
      "talkAudioName": "",
      "actionBefore": "",
      "actionWhile": "",
      "actionAfter": "",
      "optionIcon": "",
      "iconPath": ""
    },
    {
      "id": 191853201,
      "nextDialogs": [
        191853202
      ],
      "talkRole": {
        "type": "TALK_ROLE_PLAYER",
        "_id": ""
      },
      "talkContentTextMapHash": 2169869530,
      "talkAssetPath": "",
      "talkAssetPathAlter": "",
      "talkAudioName": "",
      "actionBefore": "",
      "actionWhile": "",
      "actionAfter": "",
      "optionIcon": "",
      "iconPath": ""
    },
    {
      "id": 191853202,
      "talkRole": {
        "type": "TALK_ROLE_NPC",
        "_id": "518"
      },
      "talkContentTextMapHash": 910012290,
      "talkAssetPath": "",
      "talkAssetPathAlter": "",
      "talkAudioName": "",
      "actionBefore": "",
      "actionWhile": "",
      "actionAfter": "",
      "optionIcon": "",
      "iconPath": ""
    },
    {
      "id": 191855401,
      "talkRole": {
        "type": "TALK_ROLE_NPC",
        "_id": "518"
      },
      "talkContentTextMapHash": 799238314,
      "talkAssetPath": "",
      "talkAssetPathAlter": "",
      "talkAudioName": "",
      "actionBefore": "",
      "actionWhile": "",
      "actionAfter": "",
      "optionIcon": "",
      "iconPath": ""
    }
  ],
  "HGOMOKHCKND": [
    2
  ],
  "LNMELPHNIDD": true
}