{
  "id": 20001,
  "damageRatio": "IQ",
  "activeMode": "PLAY_MODE_ALL",
  "descTextMapHash": 3127100673,
  "EKEKACCODOE": 3932506487,
  "luaPath": "Actor/Quest/IQ20001",
  "repeatable": true,
  "rewardIdList": [
    500011
  ],
  "taskID": 20500,
  "subQuests": [
    {
      "subId": 2000101,
      "mainId": 20001,
      "order": 1,
      "descTextMapHash": 2669295840,
      "finishCond": [
        {
          "damageRatio": "QUEST_CONTENT_GAME_TIME_TICK",
          "param": [
            0,
            0
          ]
        }
      ],
      "guide": {
        "damageRatio": "QUEST_GUIDE_LOCATION",
        "param": [
          "EventTest01",
          "20"
        ],
        "guideScene": 3,
        "guideStyle": "QUEST_GUIDE_STYLE_TARGET",
        "guideLayer": "QUEST_GUIDE_LAYER_SCENE",
        "MLAHIFLGIGJ": ""
      },
      "guideHint": {
        "param1": ""
      },
      "isRewind": true,
      "versionBegin": "",
      "versionEnd": ""
    },
    {
      "subId": 2000102,
      "mainId": 20001,
      "order": 2,
      "descTextMapHash": 3088380760,
      "showType": "QUEST_HIDDEN",
      "finishCond": [
        {
          "damageRatio": "QUEST_CONTENT_LUA_NOTIFY",
          "param": [
            0,
            0
          ],
          "count": 5
        }
      ],
      "guide": {
        "damageRatio": "QUEST_GUIDE_LOCATION",
        "param": [
          "EventTest01",
          "20"
        ],
        "guideScene": 3,
        "guideStyle": "QUEST_GUIDE_STYLE_TARGET",
        "guideLayer": "QUEST_GUIDE_LAYER_SCENE",
        "MLAHIFLGIGJ": ""
      },
      "guideHint": {
        "param1": ""
      },
      "versionBegin": "",
      "versionEnd": ""
    },
    {
      "subId": 2000103,
      "mainId": 20001,
      "order": 3,
      "descTextMapHash": 1593354312,
      "finishCond": [
        {
          "damageRatio": "QUEST_CONTENT_LUA_NOTIFY",
          "param": [
            0,
            0
          ],
          "count": 6
        }
      ],
      "guide": {
        "damageRatio": "QUEST_GUIDE_LOCATION",
        "param": [
          "EventTest01",
          "20"
        ],
        "guideScene": 3,
        "guideStyle": "QUEST_GUIDE_STYLE_TARGET",
        "guideLayer": "QUEST_GUIDE_LAYER_SCENE",
        "MLAHIFLGIGJ": ""
      },
      "guideHint": {
        "param1": ""
      },
      "versionBegin": "",
      "versionEnd": ""
    },
    {
      "subId": 2000104,
      "mainId": 20001,
      "order": 4,
      "descTextMapHash": 2253811400,
      "finishCond": [
        {
          "damageRatio": "QUEST_CONTENT_COMPLETE_TALK",
          "param": [
            2000110,
            0
          ]
        }
      ],
      "guide": {
        "damageRatio": "QUEST_GUIDE_NPC",
        "param": [
          "140301"
        ],
        "guideScene": 3,
        "guideStyle": "QUEST_GUIDE_STYLE_FINISH",
        "guideLayer": "QUEST_GUIDE_LAYER_SCENE",
        "MLAHIFLGIGJ": ""
      },
      "guideHint": {
        "param1": ""
      },
      "finishParent": true,
      "isRewind": true,
      "finishExec": [
        {
          "damageRatio": "QUEST_EXEC_NOTIFY_DAILY_TASK",
          "param": [
            "20500"
          ]
        }
      ],
      "versionBegin": "",
      "versionEnd": ""
    }
  ],
  "talks": [
    {
      "id": 2000102,
      "beginWay": "TALK_BEGIN_MANUAL",
      "activeMode": "PLAY_MODE_ALL",
      "beginCond": [
        {
          "type": "QUEST_COND_STATE_EQUAL",
          "_param": [
            "2000102",
            "2"
          ]
        }
      ],
      "priority": 5,
      "initDialog": 200010201,
      "npcId": [
        140301
      ],
      "performCfg": "",
      "questId": 20001,
      "assetIndex": 10755328778699006932,
      "prePerformCfg": ""
    },
    {
      "id": 2000109,
      "beginWay": "TALK_BEGIN_MANUAL",
      "activeMode": "PLAY_MODE_ALL",
      "beginCondComb": "LOGIC_AND",
      "beginCond": [
        {
          "type": "QUEST_COND_STATE_EQUAL",
          "_param": [
            "2000102",
            "3"
          ]
        },
        {
          "type": "QUEST_COND_STATE_EQUAL",
          "_param": [
            "2000103",
            "2"
          ]
        }
      ],
      "priority": 5,
      "initDialog": 200010901,
      "npcId": [
        140301
      ],
      "performCfg": "",
      "questId": 20001,
      "assetIndex": 4758282264017589252,
      "prePerformCfg": ""
    },
    {
      "id": 2000110,
      "beginWay": "TALK_BEGIN_MANUAL",
      "activeMode": "PLAY_MODE_ALL",
      "beginCond": [
        {
          "type": "QUEST_COND_STATE_EQUAL",
          "_param": [
            "2000104",
            "2"
          ]
        }
      ],
      "priority": 5,
      "initDialog": 200011001,
      "npcId": [
        140301
      ],
      "performCfg": "",
      "questId": 20001,
      "assetIndex": 1661782738958057527,
      "prePerformCfg": ""
    }
  ],
  "freeStyleDic": {
    "140301": [
      1300,
      4190
    ]
  }
}