{
  "id": 20025,
  "damageRatio": "IQ",
  "activeMode": "PLAY_MODE_ALL",
  "descTextMapHash": 1475502329,
  "EKEKACCODOE": 3312882303,
  "luaPath": "Actor/Quest/IQ20025",
  "repeatable": true,
  "taskID": 20401,
  "subQuests": [
    {
      "subId": 2002501,
      "mainId": 20025,
      "order": 1,
      "descTextMapHash": 244538056,
      "finishCond": [
        {
          "damageRatio": "QUEST_CONTENT_COMPLETE_TALK",
          "param": [
            2002501,
            0
          ]
        }
      ],
      "guide": {
        "damageRatio": "QUEST_GUIDE_NPC",
        "param": [
          "155101"
        ],
        "guideScene": 3,
        "guideStyle": "QUEST_GUIDE_STYLE_START",
        "guideLayer": "QUEST_GUIDE_LAYER_UI",
        "MLAHIFLGIGJ": ""
      },
      "guideHint": {
        "param1": ""
      },
      "isRewind": true,
      "finishExec": [
        {
          "damageRatio": "QUEST_EXEC_DEL_ALL_SPECIFIC_PACK_ITEM",
          "param": [
            "100302"
          ]
        }
      ],
      "versionBegin": "",
      "versionEnd": ""
    },
    {
      "subId": 2002503,
      "mainId": 20025,
      "order": 2,
      "descTextMapHash": 2909557648,
      "finishCond": [
        {
          "damageRatio": "QUEST_CONTENT_OBTAIN_ITEM",
          "param": [
            100302,
            0
          ]
        }
      ],
      "guide": {
        "damageRatio": "QUEST_GUIDE_LOCATION",
        "param": [
          "Q20025KEY02_Reminder",
          "80"
        ],
        "guideScene": 3,
        "guideStyle": "QUEST_GUIDE_STYLE_TARGET",
        "guideLayer": "QUEST_GUIDE_LAYER_SCENE",
        "MLAHIFLGIGJ": ""
      },
      "guideHint": {
        "param1": ""
      },
      "isRewind": true,
      "versionBegin": "",
      "versionEnd": ""
    },
    {
      "subId": 2002504,
      "mainId": 20025,
      "order": 3,
      "descTextMapHash": 2260510888,
      "finishCond": [
        {
          "damageRatio": "QUEST_CONTENT_COMPLETE_TALK",
          "param": [
            2002504,
            0
          ]
        }
      ],
      "guide": {
        "damageRatio": "QUEST_GUIDE_NPC",
        "param": [
          "155101"
        ],
        "guideScene": 3,
        "guideStyle": "QUEST_GUIDE_STYLE_FINISH",
        "guideLayer": "QUEST_GUIDE_LAYER_SCENE",
        "MLAHIFLGIGJ": ""
      },
      "guideHint": {
        "param1": ""
      },
      "finishParent": true,
      "isRewind": true,
      "finishExec": [
        {
          "damageRatio": "QUEST_EXEC_NOTIFY_DAILY_TASK",
          "param": [
            "20401"
          ]
        },
        {
          "damageRatio": "QUEST_EXEC_DEL_PACK_ITEM",
          "param": [
            "100302",
            "1"
          ]
        }
      ],
      "versionBegin": "",
      "versionEnd": ""
    }
  ],
  "talks": [
    {
      "id": 2002501,
      "beginWay": "TALK_BEGIN_MANUAL",
      "activeMode": "PLAY_MODE_ALL",
      "beginCond": [
        {
          "type": "QUEST_COND_STATE_EQUAL",
          "_param": [
            "2002501",
            "2"
          ]
        }
      ],
      "priority": 5,
      "initDialog": 200250101,
      "npcId": [
        155101
      ],
      "performCfg": "",
      "questId": 20025,
      "assetIndex": 65282318794641105,
      "prePerformCfg": ""
    },
    {
      "id": 2002502,
      "beginWay": "TALK_BEGIN_MANUAL",
      "activeMode": "PLAY_MODE_ALL",
      "beginCondComb": "LOGIC_AND",
      "beginCond": [
        {
          "type": "QUEST_COND_STATE_EQUAL",
          "_param": [
            "2002501",
            "3"
          ]
        },
        {
          "type": "QUEST_COND_STATE_EQUAL",
          "_param": [
            "2002503",
            "2"
          ]
        }
      ],
      "priority": 5,
      "initDialog": 200250201,
      "npcId": [
        155101
      ],
      "performCfg": "",
      "questId": 20025,
      "assetIndex": 16852246201920900315,
      "prePerformCfg": ""
    },
    {
      "id": 2002504,
      "beginWay": "TALK_BEGIN_MANUAL",
      "activeMode": "PLAY_MODE_ALL",
      "beginCond": [
        {
          "type": "QUEST_COND_STATE_EQUAL",
          "_param": [
            "2002503",
            "3"
          ]
        }
      ],
      "priority": 5,
      "initDialog": 200250401,
      "npcId": [
        155101
      ],
      "performCfg": "",
      "questId": 20025,
      "assetIndex": 771006098617748485,
      "prePerformCfg": ""
    }
  ],
  "freeStyleDic": {
    "155101": [
      1240,
      1300
    ]
  }
}