{
  "id": 20021,
  "damageRatio": "IQ",
  "activeMode": "PLAY_MODE_ALL",
  "descTextMapHash": 817929223,
  "EKEKACCODOE": 2782254270,
  "luaPath": "Actor/Quest/IQ20021",
  "repeatable": true,
  "taskID": 40030,
  "subQuests": [
    {
      "subId": 2002101,
      "mainId": 20021,
      "order": 1,
      "descTextMapHash": 2319484812,
      "finishCond": [
        {
          "damageRatio": "QUEST_CONTENT_COMPLETE_TALK",
          "param": [
            2002113,
            0
          ]
        }
      ],
      "guide": {
        "damageRatio": "QUEST_GUIDE_NPC",
        "param": [
          "1405"
        ],
        "guideScene": 3,
        "guideStyle": "QUEST_GUIDE_STYLE_START",
        "guideLayer": "QUEST_GUIDE_LAYER_SCENE",
        "MLAHIFLGIGJ": ""
      },
      "guideHint": {
        "param1": ""
      },
      "isRewind": true,
      "versionBegin": "",
      "versionEnd": ""
    },
    {
      "subId": 2002102,
      "mainId": 20021,
      "order": 2,
      "descTextMapHash": 940658148,
      "finishCond": [
        {
          "damageRatio": "QUEST_CONTENT_LUA_NOTIFY",
          "param": [
            0,
            0
          ],
          "count": 1
        }
      ],
      "guide": {
        "damageRatio": "QUEST_GUIDE_LOCATION",
        "param": [
          "Q2002105"
        ],
        "guideScene": 3,
        "guideStyle": "QUEST_GUIDE_STYLE_POINT",
        "guideLayer": "QUEST_GUIDE_LAYER_SCENE",
        "MLAHIFLGIGJ": ""
      },
      "guideHint": {
        "param1": ""
      },
      "isRewind": true,
      "versionBegin": "",
      "versionEnd": ""
    },
    {
      "subId": 2002103,
      "mainId": 20021,
      "order": 3,
      "descTextMapHash": 751193788,
      "finishCond": [
        {
          "damageRatio": "QUEST_CONTENT_LUA_NOTIFY",
          "param": [
            0,
            0
          ],
          "count": 1
        }
      ],
      "failCond": [
        {
          "damageRatio": "QUEST_CONTENT_LUA_NOTIFY",
          "param": [
            0,
            0
          ],
          "count": 1
        }
      ],
      "guide": {
        "MLAHIFLGIGJ": ""
      },
      "showGuide": "QUEST_GUIDE_ITEM_DISABLE",
      "guideHint": {
        "param1": ""
      },
      "finishExec": [
        {
          "damageRatio": "QUEST_EXEC_UNREGISTER_DYNAMIC_GROUP",
          "param": [
            "133003081",
            "0"
          ]
        }
      ],
      "failExec": [
        {
          "damageRatio": "QUEST_EXEC_ROLLBACK_QUEST",
          "param": [
            "2002102"
          ]
        }
      ],
      "versionBegin": "",
      "versionEnd": ""
    },
    {
      "subId": 2002104,
      "mainId": 20021,
      "order": 4,
      "descTextMapHash": 4008636788,
      "finishCond": [
        {
          "damageRatio": "QUEST_CONTENT_COMPLETE_TALK",
          "param": [
            2002114,
            0
          ]
        }
      ],
      "guide": {
        "damageRatio": "QUEST_GUIDE_NPC",
        "param": [
          "1405"
        ],
        "guideScene": 3,
        "guideStyle": "QUEST_GUIDE_STYLE_FINISH",
        "guideLayer": "QUEST_GUIDE_LAYER_SCENE",
        "MLAHIFLGIGJ": ""
      },
      "guideHint": {
        "param1": ""
      },
      "isRewind": true,
      "finishExec": [
        {
          "damageRatio": "QUEST_EXEC_UNREGISTER_DYNAMIC_GROUP",
          "param": [
            "133003081",
            "0"
          ]
        }
      ],
      "versionBegin": "",
      "versionEnd": ""
    },
    {
      "subId": 2002105,
      "mainId": 20021,
      "order": 5,
      "showType": "QUEST_HIDDEN",
      "finishCond": [
        {
          "damageRatio": "QUEST_CONTENT_QUEST_VAR_EQUAL",
          "param": [
            1,
            3
          ]
        }
      ],
      "guide": {
        "MLAHIFLGIGJ": ""
      },
      "showGuide": "QUEST_GUIDE_ITEM_DISABLE",
      "guideHint": {
        "param1": ""
      },
      "finishParent": true,
      "failParentShow": "QUEST_HIDDEN",
      "finishExec": [
        {
          "damageRatio": "QUEST_EXEC_SET_DAILY_TASK_VAR",
          "param": [
            "40040",
            "0",
            "1"
          ]
        },
        {
          "damageRatio": "QUEST_EXEC_NOTIFY_DAILY_TASK",
          "param": [
            "40030"
          ]
        }
      ],
      "versionBegin": "",
      "versionEnd": ""
    },
    {
      "subId": 2002106,
      "mainId": 20021,
      "order": 6,
      "showType": "QUEST_HIDDEN",
      "finishCond": [
        {
          "damageRatio": "QUEST_CONTENT_QUEST_VAR_EQUAL",
          "param": [
            1,
            2
          ]
        },
        {
          "damageRatio": "QUEST_CONTENT_QUEST_VAR_EQUAL",
          "param": [
            1,
            1
          ]
        },
        {
          "damageRatio": "QUEST_CONTENT_QUEST_VAR_EQUAL",
          "param": [
            1,
            0
          ]
        }
      ],
      "guide": {
        "MLAHIFLGIGJ": ""
      },
      "showGuide": "QUEST_GUIDE_ITEM_DISABLE",
      "guideHint": {
        "param1": ""
      },
      "finishParent": true,
      "failParentShow": "QUEST_HIDDEN",
      "finishExec": [
        {
          "damageRatio": "QUEST_EXEC_SET_DAILY_TASK_VAR",
          "param": [
            "40031",
            "0",
            "1"
          ]
        },
        {
          "damageRatio": "QUEST_EXEC_NOTIFY_DAILY_TASK",
          "param": [
            "40030"
          ]
        }
      ],
      "versionBegin": "",
      "versionEnd": ""
    }
  ],
  "talks": [
    {
      "id": 2002101,
      "beginWay": "TALK_BEGIN_MANUAL",
      "activeMode": "PLAY_MODE_HOST",
      "beginCond": [
        {
          "type": "QUEST_COND_STATE_EQUAL",
          "_param": [
            "2002101",
            "2"
          ]
        }
      ],
      "priority": 5,
      "nextTalks": [
        2002102,
        2002103,
        2002104
      ],
      "initDialog": 200210101,
      "npcId": [
        1405
      ],
      "performCfg": "",
      "heroTalk": "TALK_HERO_MAIN",
      "questId": 20021,
      "assetIndex": 2474496805622856899,
      "prePerformCfg": "",
      "finishExec": [
        {
          "damageRatio": "TALK_EXEC_SET_QUEST_VAR",
          "param": [
            "1",
            "0",
            "20021"
          ]
        }
      ],
      "freeStyleList": [
        1050,
        1230,
        1130,
        1090,
        1171,
        1172,
        1173,
        1260
      ]
    },
    {
      "id": 2002102,
      "activeMode": "PLAY_MODE_HOST",
      "priority": 5,
      "nextTalks": [
        2002105
      ],
      "initDialog": 200210201,
      "npcId": [
        1405
      ],
      "performCfg": "",
      "heroTalk": "TALK_HERO_MAIN",
      "questId": 20021,
      "assetIndex": 6128853329911393065,
      "prePerformCfg": "",
      "finishExec": [
        {
          "damageRatio": "TALK_EXEC_INC_QUEST_VAR",
          "param": [
            "1",
            "1",
            "20021"
          ]
        }
      ]
    },
    {
      "id": 2002103,
      "activeMode": "PLAY_MODE_HOST",
      "priority": 5,
      "nextTalks": [
        2002105
      ],
      "initDialog": 200210301,
      "npcId": [
        1405
      ],
      "performCfg": "",
      "heroTalk": "TALK_HERO_MAIN",
      "questId": 20021,
      "assetIndex": 5224746447248294701,
      "prePerformCfg": ""
    },
    {
      "id": 2002104,
      "activeMode": "PLAY_MODE_HOST",
      "priority": 5,
      "nextTalks": [
        2002105
      ],
      "initDialog": 200210401,
      "npcId": [
        1405
      ],
      "performCfg": "",
      "heroTalk": "TALK_HERO_MAIN",
      "questId": 20021,
      "assetIndex": 6707010666676739292,
      "prePerformCfg": ""
    },
    {
      "id": 2002105,
      "activeMode": "PLAY_MODE_HOST",
      "priority": 5,
      "nextTalks": [
        2002106,
        2002107,
        2002108
      ],
      "initDialog": 200210501,
      "npcId": [
        1405
      ],
      "performCfg": "",
      "heroTalk": "TALK_HERO_MAIN",
      "questId": 20021,
      "assetIndex": 15104006239146297951,
      "prePerformCfg": "",
      "freeStyleList": [
        1190
      ]
    },
    {
      "id": 2002106,
      "activeMode": "PLAY_MODE_HOST",
      "priority": 5,
      "nextTalks": [
        2002109
      ],
      "initDialog": 200210601,
      "npcId": [
        1405
      ],
      "performCfg": "",
      "heroTalk": "TALK_HERO_MAIN",
      "questId": 20021,
      "assetIndex": 14550443550112562870,
      "prePerformCfg": "",
      "finishExec": [
        {
          "damageRatio": "TALK_EXEC_INC_QUEST_VAR",
          "param": [
            "1",
            "1",
            "20021"
          ]
        }
      ]
    },
    {
      "id": 2002107,
      "activeMode": "PLAY_MODE_HOST",
      "priority": 5,
      "nextTalks": [
        2002109
      ],
      "initDialog": 200210701,
      "npcId": [
        1405
      ],
      "performCfg": "",
      "heroTalk": "TALK_HERO_MAIN",
      "questId": 20021,
      "assetIndex": 10369300558534331991,
      "prePerformCfg": ""
    },
    {
      "id": 2002108,
      "activeMode": "PLAY_MODE_HOST",
      "priority": 5,
      "nextTalks": [
        2002109
      ],
      "initDialog": 200210801,
      "npcId": [
        1405
      ],
      "performCfg": "",
      "heroTalk": "TALK_HERO_MAIN",
      "questId": 20021,
      "assetIndex": 4674475409715101135,
      "prePerformCfg": ""
    },
    {
      "id": 2002109,
      "activeMode": "PLAY_MODE_HOST",
      "priority": 5,
      "nextTalks": [
        2002110,
        2002111,
        2002112
      ],
      "initDialog": 200210901,
      "npcId": [
        1405
      ],
      "performCfg": "",
      "heroTalk": "TALK_HERO_MAIN",
      "questId": 20021,
      "assetIndex": 15234280570099470531,
      "prePerformCfg": "",
      "freeStyleList": [
        1130
      ]
    },
    {
      "id": 2002110,
      "activeMode": "PLAY_MODE_HOST",
      "priority": 5,
      "nextTalks": [
        2002113
      ],
      "initDialog": 200211001,
      "npcId": [
        1405
      ],
      "performCfg": "",
      "heroTalk": "TALK_HERO_MAIN",
      "questId": 20021,
      "assetIndex": 9152111876384370640,
      "prePerformCfg": "",
      "finishExec": [
        {
          "damageRatio": "TALK_EXEC_INC_QUEST_VAR",
          "param": [
            "1",
            "1",
            "20021"
          ]
        }
      ]
    },
    {
      "id": 2002111,
      "activeMode": "PLAY_MODE_HOST",
      "priority": 5,
      "nextTalks": [
        2002113
      ],
      "initDialog": 200211101,
      "npcId": [
        1405
      ],
      "performCfg": "",
      "heroTalk": "TALK_HERO_MAIN",
      "questId": 20021,
      "assetIndex": 9914605747451477228,
      "prePerformCfg": ""
    },
    {
      "id": 2002112,
      "activeMode": "PLAY_MODE_HOST",
      "priority": 5,
      "nextTalks": [
        2002113
      ],
      "initDialog": 200211201,
      "npcId": [
        1405
      ],
      "performCfg": "",
      "heroTalk": "TALK_HERO_MAIN",
      "questId": 20021,
      "assetIndex": 11503774709786259148,
      "prePerformCfg": ""
    },
    {
      "id": 2002113,
      "activeMode": "PLAY_MODE_HOST",
      "priority": 5,
      "initDialog": 200211301,
      "npcId": [
        1405
      ],
      "performCfg": "",
      "heroTalk": "TALK_HERO_MAIN",
      "questId": 20021,
      "assetIndex": 4747541500165007882,
      "prePerformCfg": "",
      "freeStyleList": [
        1171,
        1172,
        1173
      ]
    },
    {
      "id": 2002114,
      "beginWay": "TALK_BEGIN_MANUAL",
      "activeMode": "PLAY_MODE_HOST",
      "beginCond": [
        {
          "type": "QUEST_COND_STATE_EQUAL",
          "_param": [
            "2002104",
            "2"
          ]
        }
      ],
      "priority": 5,
      "initDialog": 200211401,
      "npcId": [
        1405
      ],
      "performCfg": "",
      "heroTalk": "TALK_HERO_MAIN",
      "questId": 20021,
      "assetIndex": 8344667517348364491,
      "prePerformCfg": ""
    }
  ]
}