{
  "id": 2003,
  "resId": 1009,
  "series": 1201,
  "descTextMapHash": 55039543,
  "EKEKACCODOE": 2497040806,
  "luaPath": "Actor/Quest/AQ2003",
  "suggestTrackMainQuestList": [
    2004
  ],
  "rewardIdList": [
    102003
  ],
  "chapterId": 1202,
  "subQuests": [
    {
      "subId": 200301,
      "mainId": 2003,
      "order": 2,
      "descTextMapHash": 1691568260,
      "finishCond": [
        {
          "damageRatio": "QUEST_CONTENT_COMPLETE_TALK",
          "param": [
            200301,
            0
          ]
        }
      ],
      "guide": {
        "damageRatio": "QUEST_GUIDE_LOCATION",
        "autoGuide": "QUEST_GUIDE_AUTO_ENABLE",
        "param": [
          "Q2003tuoma"
        ],
        "guideScene": 1060,
        "guideStyle": "QUEST_GUIDE_STYLE_TARGET",
        "guideLayer": "QUEST_GUIDE_LAYER_SCENE",
        "MLAHIFLGIGJ": ""
      },
      "guideHint": {
        "param1": ""
      },
      "isRewind": true,
      "versionBegin": "",
      "versionEnd": ""
    },
    {
      "subId": 200302,
      "mainId": 2003,
      "order": 3,
      "descTextMapHash": 4241962420,
      "finishCond": [
        {
          "damageRatio": "QUEST_CONTENT_COMPLETE_TALK",
          "param": [
            200302,
            0
          ]
        }
      ],
      "guide": {
        "damageRatio": "QUEST_GUIDE_LOCATION",
        "autoGuide": "QUEST_GUIDE_AUTO_ENABLE",
        "param": [
          "Q200302paimon"
        ],
        "guideScene": 3,
        "guideStyle": "QUEST_GUIDE_STYLE_POINT",
        "guideLayer": "QUEST_GUIDE_LAYER_SCENE",
        "MLAHIFLGIGJ": ""
      },
      "guideHint": {
        "param1": ""
      },
      "isRewind": true,
      "versionBegin": "",
      "versionEnd": ""
    },
    {
      "subId": 200303,
      "mainId": 2003,
      "order": 4,
      "descTextMapHash": 2754217284,
      "finishCond": [
        {
          "damageRatio": "QUEST_CONTENT_COMPLETE_TALK",
          "param": [
            200303,
            0
          ]
        }
      ],
      "guide": {
        "damageRatio": "QUEST_GUIDE_NPC",
        "autoGuide": "QUEST_GUIDE_AUTO_ENABLE",
        "param": [
          "12021"
        ],
        "guideScene": 3,
        "guideStyle": "QUEST_GUIDE_STYLE_TARGET",
        "guideLayer": "QUEST_GUIDE_LAYER_SCENE",
        "MLAHIFLGIGJ": ""
      },
      "guideHint": {
        "param1": ""
      },
      "isRewind": true,
      "versionBegin": "",
      "versionEnd": ""
    },
    {
      "subId": 200304,
      "mainId": 2003,
      "order": 5,
      "descTextMapHash": 2169017924,
      "finishCond": [
        {
          "damageRatio": "QUEST_CONTENT_COMPLETE_TALK",
          "param": [
            200304,
            0
          ]
        }
      ],
      "guide": {
        "damageRatio": "QUEST_GUIDE_LOCATION",
        "autoGuide": "QUEST_GUIDE_AUTO_ENABLE",
        "param": [
          "Q2004tuoma"
        ],
        "guideScene": 1061,
        "guideStyle": "QUEST_GUIDE_STYLE_TARGET",
        "guideLayer": "QUEST_GUIDE_LAYER_SCENE",
        "MLAHIFLGIGJ": ""
      },
      "guideHint": {
        "param1": ""
      },
      "finishParent": true,
      "isRewind": true,
      "versionBegin": "",
      "versionEnd": ""
    },
    {
      "subId": 200305,
      "mainId": 2003,
      "order": 1,
      "descTextMapHash": 104139516,
      "finishCond": [
        {
          "damageRatio": "QUEST_CONTENT_COMPLETE_TALK",
          "param": [
            200305,
            0
          ]
        }
      ],
      "guide": {
        "damageRatio": "QUEST_GUIDE_NPC",
        "autoGuide": "QUEST_GUIDE_AUTO_ENABLE",
        "param": [
          "3010"
        ],
        "guideScene": 3,
        "guideStyle": "QUEST_GUIDE_STYLE_TARGET",
        "guideLayer": "QUEST_GUIDE_LAYER_SCENE",
        "MLAHIFLGIGJ": ""
      },
      "guideHint": {
        "param1": ""
      },
      "isRewind": true,
      "versionBegin": "",
      "versionEnd": ""
    }
  ],
  "talks": [
    {
      "id": 200301,
      "beginWay": "TALK_BEGIN_MANUAL",
      "beginCond": [
        {
          "type": "QUEST_COND_STATE_EQUAL",
          "_param": [
            "200301",
            "2"
          ]
        }
      ],
      "priority": 5,
      "initDialog": 20030101,
      "npcId": [
        1005,
        1033
      ],
      "performCfg": "QuestDialogue/AQ/Inazuma1_2003/Q200301",
      "heroTalk": "TALK_HERO_MAIN",
      "questId": 2003,
      "assetIndex": 1497013765691029443,
      "prePerformCfg": ""
    },
    {
      "id": 200302,
      "beginWay": "TALK_BEGIN_MANUAL",
      "beginCond": [
        {
          "type": "QUEST_COND_STATE_EQUAL",
          "_param": [
            "200302",
            "2"
          ]
        }
      ],
      "priority": 5,
      "initDialog": 20030201,
      "npcId": [
        1033
      ],
      "performCfg": "QuestDialogue/AQ/Inazuma1_2003/Q200302",
      "heroTalk": "TALK_HERO_MAIN",
      "questId": 2003,
      "assetIndex": 10255572446056934481,
      "prePerformCfg": ""
    },
    {
      "id": 200303,
      "beginWay": "TALK_BEGIN_MANUAL",
      "beginCond": [
        {
          "type": "QUEST_COND_STATE_EQUAL",
          "_param": [
            "200303",
            "2"
          ]
        }
      ],
      "priority": 5,
      "initDialog": 20030301,
      "npcId": [
        12021
      ],
      "performCfg": "QuestDialogue/AQ/Inazuma1_2003/Q200303",
      "heroTalk": "TALK_HERO_MAIN",
      "questId": 2003,
      "assetIndex": 16499192244854132493,
      "prePerformCfg": ""
    },
    {
      "id": 200304,
      "beginWay": "TALK_BEGIN_AUTO",
      "beginCond": [
        {
          "type": "QUEST_COND_STATE_EQUAL",
          "_param": [
            "200304",
            "2"
          ]
        }
      ],
      "priority": 5,
      "initDialog": 20030401,
      "npcId": [
        1013
      ],
      "performCfg": "QuestDialogue/AQ/Inazuma1_2003/Q200304",
      "heroTalk": "TALK_HERO_MAIN",
      "questId": 2003,
      "assetIndex": 14600152336039492461,
      "prePerformCfg": ""
    },
    {
      "id": 200305,
      "beginWay": "TALK_BEGIN_AUTO",
      "beginCond": [
        {
          "type": "QUEST_COND_STATE_EQUAL",
          "_param": [
            "200305",
            "2"
          ]
        }
      ],
      "priority": 5,
      "initDialog": 20030501,
      "npcId": [
        3010,
        1005
      ],
      "performCfg": "QuestDialogue/AQ/Inazuma1_2003/Q200305",
      "heroTalk": "TALK_HERO_MAIN",
      "questId": 2003,
      "assetIndex": 3601803496206847225,
      "prePerformCfg": ""
    },
    {
      "id": 200306,
      "beginWay": "TALK_BEGIN_MANUAL",
      "beginCondComb": "LOGIC_AND",
      "beginCond": [
        {
          "type": "QUEST_COND_STATE_EQUAL",
          "_param": [
            "200304",
            "3"
          ]
        }
      ],
      "priority": 5,
      "initDialog": 20030601,
      "npcId": [
        1033
      ],
      "performCfg": "QuestDialogue/AQ/Inazuma1_2003/Q200306",
      "heroTalk": "TALK_HERO_MAIN",
      "questId": 2003,
      "assetIndex": 14542032418017682244,
      "prePerformCfg": "",
      "questIdleTalk": true,
      "lowPriority": true
    },
    {
      "id": 200307,
      "beginWay": "TALK_BEGIN_MANUAL",
      "beginCondComb": "LOGIC_AND",
      "beginCond": [
        {
          "type": "QUEST_COND_STATE_EQUAL",
          "_param": [
            "200305",
            "3"
          ]
        },
        {
          "type": "QUEST_COND_STATE_EQUAL",
          "_param": [
            "200301",
            "2"
          ]
        }
      ],
      "priority": 5,
      "initDialog": 20030701,
      "npcId": [
        3010
      ],
      "performCfg": "QuestDialogue/AQ/Inazuma1_2003/Q200307",
      "heroTalk": "TALK_HERO_MAIN",
      "questId": 2003,
      "assetIndex": 883088121221636882,
      "prePerformCfg": ""
    }
  ],
  "preloadLuaList": [
    14457059026087496718,
    11979119750132919924,
    15171274567631076351,
    4836875411990741521,
    5562642429489138982
  ],
  "forcePreloadLuaList": [
    7428875993721553365
  ]
}