{
  "id": 20049,
  "damageRatio": "IQ",
  "activeMode": "PLAY_MODE_ALL",
  "descTextMapHash": 1106223857,
  "EKEKACCODOE": 2198626967,
  "luaPath": "Actor/Quest/IQ20049",
  "repeatable": true,
  "taskID": 21900,
  "subQuests": [
    {
      "subId": 2004901,
      "mainId": 20049,
      "order": 1,
      "descTextMapHash": 2811948664,
      "finishCond": [
        {
          "damageRatio": "QUEST_CONTENT_COMPLETE_TALK",
          "param": [
            2004901,
            0
          ]
        }
      ],
      "guide": {
        "damageRatio": "QUEST_GUIDE_NPC",
        "param": [
          "146101"
        ],
        "guideScene": 1009,
        "guideStyle": "QUEST_GUIDE_STYLE_START",
        "guideLayer": "QUEST_GUIDE_LAYER_UI",
        "MLAHIFLGIGJ": ""
      },
      "guideHint": {
        "param1": ""
      },
      "isRewind": true,
      "versionBegin": "",
      "versionEnd": ""
    },
    {
      "subId": 2004902,
      "mainId": 20049,
      "order": 2,
      "descTextMapHash": 3504244424,
      "finishCond": [
        {
          "damageRatio": "QUEST_CONTENT_COMPLETE_TALK",
          "param": [
            2004902,
            0
          ]
        }
      ],
      "guide": {
        "damageRatio": "QUEST_GUIDE_NPC",
        "param": [
          "146301"
        ],
        "guideScene": 3,
        "guideStyle": "QUEST_GUIDE_STYLE_TARGET",
        "guideLayer": "QUEST_GUIDE_LAYER_SCENE",
        "MLAHIFLGIGJ": ""
      },
      "guideHint": {
        "param1": ""
      },
      "isRewind": true,
      "finishExec": [
        {
          "damageRatio": "QUEST_EXEC_REFRESH_GROUP_SUITE",
          "param": [
            "3",
            "133004912,1"
          ]
        }
      ],
      "versionBegin": "",
      "versionEnd": ""
    },
    {
      "subId": 2004903,
      "mainId": 20049,
      "order": 3,
      "subIdSet": 1,
      "descTextMapHash": 2904464000,
      "finishCond": [
        {
          "damageRatio": "QUEST_CONTENT_OBTAIN_ITEM",
          "param": [
            100002,
            0
          ],
          "count": 5
        }
      ],
      "guide": {
        "damageRatio": "QUEST_GUIDE_NPC",
        "param": [
          "1403"
        ],
        "guideScene": 3,
        "guideStyle": "QUEST_GUIDE_STYLE_TARGET",
        "guideLayer": "QUEST_GUIDE_LAYER_SCENE",
        "MLAHIFLGIGJ": ""
      },
      "guideHint": {
        "param1": ""
      },
      "isRewind": true,
      "finishExec": [
        {
          "damageRatio": "QUEST_EXEC_DEL_PACK_ITEM",
          "param": [
            "100002",
            "5"
          ]
        }
      ],
      "versionBegin": "",
      "versionEnd": ""
    },
    {
      "subId": 2004904,
      "mainId": 20049,
      "order": 4,
      "descTextMapHash": 4051481480,
      "finishCond": [
        {
          "damageRatio": "QUEST_CONTENT_COMPLETE_TALK",
          "param": [
            2004906,
            0
          ]
        }
      ],
      "guide": {
        "damageRatio": "QUEST_GUIDE_NPC",
        "param": [
          "1403"
        ],
        "guideScene": 3,
        "guideStyle": "QUEST_GUIDE_STYLE_TARGET",
        "guideLayer": "QUEST_GUIDE_LAYER_SCENE",
        "MLAHIFLGIGJ": ""
      },
      "guideHint": {
        "param1": ""
      },
      "isRewind": true,
      "versionBegin": "",
      "versionEnd": ""
    },
    {
      "subId": 2004905,
      "mainId": 20049,
      "order": 5,
      "descTextMapHash": 2159396736,
      "finishCond": [
        {
          "damageRatio": "QUEST_CONTENT_COMPLETE_TALK",
          "param": [
            2004908,
            0
          ]
        }
      ],
      "guide": {
        "damageRatio": "QUEST_GUIDE_NPC",
        "param": [
          "146101"
        ],
        "guideScene": 1009,
        "guideStyle": "QUEST_GUIDE_STYLE_FINISH",
        "guideLayer": "QUEST_GUIDE_LAYER_SCENE",
        "MLAHIFLGIGJ": ""
      },
      "guideHint": {
        "param1": ""
      },
      "finishParent": true,
      "isRewind": true,
      "finishExec": [
        {
          "damageRatio": "QUEST_EXEC_NOTIFY_DAILY_TASK",
          "param": [
            "21900"
          ]
        }
      ],
      "versionBegin": "",
      "versionEnd": ""
    }
  ],
  "talks": [
    {
      "id": 2004901,
      "beginWay": "TALK_BEGIN_MANUAL",
      "activeMode": "PLAY_MODE_ALL",
      "beginCond": [
        {
          "type": "QUEST_COND_STATE_EQUAL",
          "_param": [
            "2004901",
            "2"
          ]
        }
      ],
      "priority": 6,
      "initDialog": 200490101,
      "npcId": [
        146101
      ],
      "performCfg": "",
      "questId": 20049,
      "assetIndex": 6492022826670007714,
      "prePerformCfg": ""
    },
    {
      "id": 2004902,
      "beginWay": "TALK_BEGIN_MANUAL",
      "activeMode": "PLAY_MODE_ALL",
      "beginCondComb": "LOGIC_AND",
      "beginCond": [
        {
          "type": "QUEST_COND_STATE_EQUAL",
          "_param": [
            "2004901",
            "3"
          ]
        },
        {
          "type": "QUEST_COND_STATE_EQUAL",
          "_param": [
            "2004902",
            "2"
          ]
        }
      ],
      "priority": 6,
      "initDialog": 200490201,
      "npcId": [
        146301
      ],
      "performCfg": "",
      "questId": 20049,
      "assetIndex": 13862021990766592349,
      "prePerformCfg": ""
    },
    {
      "id": 2004903,
      "beginWay": "TALK_BEGIN_MANUAL",
      "activeMode": "PLAY_MODE_ALL",
      "beginCondComb": "LOGIC_AND",
      "beginCond": [
        {
          "type": "QUEST_COND_STATE_EQUAL",
          "_param": [
            "2004902",
            "3"
          ]
        },
        {
          "type": "QUEST_COND_STATE_EQUAL",
          "_param": [
            "2004903",
            "2"
          ]
        }
      ],
      "priority": 6,
      "initDialog": 200490301,
      "npcId": [
        1403
      ],
      "performCfg": "",
      "questId": 20049,
      "assetIndex": 12502167019754409096,
      "prePerformCfg": ""
    },
    {
      "id": 2004904,
      "beginWay": "TALK_BEGIN_MANUAL",
      "activeMode": "PLAY_MODE_ALL",
      "beginCondComb": "LOGIC_AND",
      "beginCond": [
        {
          "type": "QUEST_COND_STATE_EQUAL",
          "_param": [
            "2004902",
            "3"
          ]
        },
        {
          "type": "QUEST_COND_STATE_EQUAL",
          "_param": [
            "2004903",
            "2"
          ]
        }
      ],
      "priority": 6,
      "initDialog": 200490401,
      "npcId": [
        146301
      ],
      "performCfg": "",
      "questId": 20049,
      "assetIndex": 7808695282493379719,
      "prePerformCfg": ""
    },
    {
      "id": 2004905,
      "activeMode": "PLAY_MODE_ALL",
      "beginCondComb": "LOGIC_AND",
      "beginCond": [
        {
          "type": "QUEST_COND_STATE_EQUAL",
          "_param": [
            "2004902",
            "3"
          ]
        },
        {
          "type": "QUEST_COND_STATE_EQUAL",
          "_param": [
            "2004903",
            "2"
          ]
        }
      ],
      "priority": 6,
      "initDialog": 200490501,
      "npcId": [
        1005
      ],
      "performCfg": "",
      "questId": 20049,
      "assetIndex": 1418881234138150757,
      "prePerformCfg": ""
    },
    {
      "id": 2004906,
      "beginWay": "TALK_BEGIN_MANUAL",
      "activeMode": "PLAY_MODE_ALL",
      "beginCondComb": "LOGIC_AND",
      "beginCond": [
        {
          "type": "QUEST_COND_STATE_EQUAL",
          "_param": [
            "2004903",
            "3"
          ]
        },
        {
          "type": "QUEST_COND_STATE_EQUAL",
          "_param": [
            "2004904",
            "2"
          ]
        }
      ],
      "priority": 6,
      "initDialog": 200490601,
      "npcId": [
        1403
      ],
      "performCfg": "",
      "questId": 20049,
      "assetIndex": 11161313907916349294,
      "prePerformCfg": ""
    },
    {
      "id": 2004907,
      "activeMode": "PLAY_MODE_ALL",
      "beginCondComb": "LOGIC_AND",
      "beginCond": [
        {
          "type": "QUEST_COND_STATE_EQUAL",
          "_param": [
            "2004904",
            "3"
          ]
        },
        {
          "type": "QUEST_COND_STATE_EQUAL",
          "_param": [
            "2004905",
            "2"
          ]
        }
      ],
      "priority": 6,
      "initDialog": 200490701,
      "npcId": [
        1005
      ],
      "performCfg": "",
      "questId": 20049,
      "assetIndex": 9527182408122006635,
      "prePerformCfg": ""
    },
    {
      "id": 2004908,
      "beginWay": "TALK_BEGIN_MANUAL",
      "activeMode": "PLAY_MODE_ALL",
      "beginCondComb": "LOGIC_AND",
      "beginCond": [
        {
          "type": "QUEST_COND_STATE_EQUAL",
          "_param": [
            "2004904",
            "3"
          ]
        },
        {
          "type": "QUEST_COND_STATE_EQUAL",
          "_param": [
            "2004905",
            "2"
          ]
        }
      ],
      "priority": 6,
      "initDialog": 200490801,
      "npcId": [
        146101
      ],
      "performCfg": "",
      "questId": 20049,
      "assetIndex": 4895574436393061461,
      "prePerformCfg": ""
    }
  ],
  "freeStyleDic": {
    "146101": [
      8010
    ],
    "146301": [
      8010
    ]
  }
}