{
  "id": 2013,
  "resId": 1009,
  "descTextMapHash": 1388933119,
  "EKEKACCODOE": 2476400902,
  "luaPath": "Actor/Quest/AQ2013",
  "suggestTrackMainQuestList": [
    2003
  ],
  "rewardIdList": [
    102013
  ],
  "chapterId": 1202,
  "showRedPoint": true,
  "subQuests": [
    {
      "subId": 201301,
      "mainId": 2013,
      "order": 1,
      "descTextMapHash": 1786725396,
      "finishCond": [
        {
          "damageRatio": "QUEST_CONTENT_COMPLETE_TALK",
          "param": [
            201301,
            0
          ]
        }
      ],
      "guide": {
        "damageRatio": "QUEST_GUIDE_LOCATION",
        "param": [
          "Q2013Guard01",
          "20"
        ],
        "guideScene": 3,
        "guideStyle": "QUEST_GUIDE_STYLE_TARGET",
        "guideLayer": "QUEST_GUIDE_LAYER_SCENE",
        "MLAHIFLGIGJ": ""
      },
      "guideHint": {
        "param1": ""
      },
      "isRewind": true,
      "versionBegin": "",
      "versionEnd": ""
    },
    {
      "subId": 201302,
      "mainId": 2013,
      "order": 3,
      "descTextMapHash": 1743099124,
      "finishCond": [
        {
          "damageRatio": "QUEST_CONTENT_COMPLETE_TALK",
          "param": [
            201302,
            0
          ]
        }
      ],
      "guide": {
        "damageRatio": "QUEST_GUIDE_NPC",
        "param": [
          "3085"
        ],
        "guideScene": 3,
        "guideStyle": "QUEST_GUIDE_STYLE_TARGET",
        "guideLayer": "QUEST_GUIDE_LAYER_SCENE",
        "MLAHIFLGIGJ": ""
      },
      "guideHint": {
        "param1": ""
      },
      "isRewind": true,
      "versionBegin": "",
      "versionEnd": ""
    },
    {
      "subId": 201303,
      "mainId": 2013,
      "order": 4,
      "descTextMapHash": 3468278908,
      "finishCond": [
        {
          "damageRatio": "QUEST_CONTENT_FINISH_PLOT",
          "param": [
            201303,
            0
          ]
        }
      ],
      "guide": {
        "damageRatio": "QUEST_GUIDE_LOCATION",
        "param": [
          "Q2013Puren01"
        ],
        "guideScene": 3,
        "guideStyle": "QUEST_GUIDE_STYLE_POINT",
        "guideLayer": "QUEST_GUIDE_LAYER_SCENE",
        "MLAHIFLGIGJ": ""
      },
      "guideHint": {
        "param1": ""
      },
      "isRewind": true,
      "versionBegin": "",
      "versionEnd": ""
    },
    {
      "subId": 201304,
      "mainId": 2013,
      "order": 5,
      "descTextMapHash": 789119236,
      "finishCond": [
        {
          "damageRatio": "QUEST_CONTENT_COMPLETE_TALK",
          "param": [
            201304,
            0
          ]
        }
      ],
      "guide": {
        "damageRatio": "QUEST_GUIDE_NPC",
        "param": [
          "3016"
        ],
        "guideScene": 3,
        "guideStyle": "QUEST_GUIDE_STYLE_TARGET",
        "guideLayer": "QUEST_GUIDE_LAYER_SCENE",
        "MLAHIFLGIGJ": ""
      },
      "guideHint": {
        "param1": ""
      },
      "versionBegin": "",
      "versionEnd": ""
    },
    {
      "subId": 201305,
      "mainId": 2013,
      "order": 6,
      "descTextMapHash": 312395772,
      "showType": "QUEST_HIDDEN",
      "finishCond": [
        {
          "damageRatio": "QUEST_CONTENT_GAME_TIME_TICK",
          "param": [
            0,
            0
          ]
        }
      ],
      "guide": {
        "MLAHIFLGIGJ": ""
      },
      "guideHint": {
        "param1": ""
      },
      "isRewind": true,
      "versionBegin": "",
      "versionEnd": ""
    },
    {
      "subId": 201306,
      "mainId": 2013,
      "order": 7,
      "descTextMapHash": 2557114524,
      "finishCond": [
        {
          "damageRatio": "QUEST_CONTENT_GAME_TIME_TICK",
          "param": [
            0,
            0
          ]
        }
      ],
      "guide": {
        "MLAHIFLGIGJ": ""
      },
      "guideHint": {
        "param1": ""
      },
      "isRewind": true,
      "versionBegin": "",
      "versionEnd": ""
    },
    {
      "subId": 201307,
      "mainId": 2013,
      "order": 8,
      "descTextMapHash": 1153198380,
      "finishCond": [
        {
          "damageRatio": "QUEST_CONTENT_COMPLETE_TALK",
          "param": [
            201307,
            0
          ]
        }
      ],
      "failCond": [
        {
          "damageRatio": "QUEST_CONTENT_GAME_TIME_TICK",
          "param": [
            0,
            0
          ]
        }
      ],
      "guide": {
        "damageRatio": "QUEST_GUIDE_LOCATION",
        "param": [
          "Q2013Qianli01",
          "15"
        ],
        "guideScene": 3,
        "guideStyle": "QUEST_GUIDE_STYLE_TARGET",
        "guideLayer": "QUEST_GUIDE_LAYER_SCENE",
        "MLAHIFLGIGJ": ""
      },
      "guideHint": {
        "param1": ""
      },
      "isRewind": true,
      "failExec": [
        {
          "damageRatio": "QUEST_EXEC_ROLLBACK_QUEST",
          "param": [
            "201306"
          ]
        }
      ],
      "versionBegin": "",
      "versionEnd": ""
    },
    {
      "subId": 201308,
      "mainId": 2013,
      "order": 9,
      "isMpBlock": true,
      "descTextMapHash": 702384804,
      "finishCond": [
        {
          "damageRatio": "QUEST_CONTENT_COMPLETE_TALK",
          "param": [
            201308,
            0
          ]
        }
      ],
      "guide": {
        "damageRatio": "QUEST_GUIDE_LOCATION",
        "param": [
          "Q2013Guard01",
          "15"
        ],
        "guideScene": 3,
        "guideStyle": "QUEST_GUIDE_STYLE_TARGET",
        "guideLayer": "QUEST_GUIDE_LAYER_SCENE",
        "MLAHIFLGIGJ": ""
      },
      "guideHint": {
        "param1": ""
      },
      "isRewind": true,
      "finishExec": [
        {
          "damageRatio": "QUEST_EXEC_UNREGISTER_DYNAMIC_GROUP",
          "param": [
            "133209037"
          ]
        }
      ],
      "versionBegin": "",
      "versionEnd": ""
    },
    {
      "subId": 201309,
      "mainId": 2013,
      "order": 10,
      "isMpBlock": true,
      "descTextMapHash": 1126796300,
      "finishCond": [
        {
          "damageRatio": "QUEST_CONTENT_LUA_NOTIFY",
          "param": [
            0,
            0
          ],
          "count": 1
        }
      ],
      "failCond": [
        {
          "damageRatio": "QUEST_CONTENT_NOT_FINISH_PLOT",
          "param": [
            201309,
            0
          ]
        },
        {
          "damageRatio": "QUEST_CONTENT_LUA_NOTIFY",
          "param": [
            0,
            0
          ],
          "count": 1
        },
        {
          "damageRatio": "QUEST_CONTENT_TEAM_DEAD",
          "param": [
            0,
            0
          ]
        }
      ],
      "guide": {
        "damageRatio": "QUEST_GUIDE_GADGET",
        "autoGuide": "QUEST_GUIDE_AUTO_ENABLE",
        "param": [
          "133209024",
          "24004",
          "-2560:208:-3889"
        ],
        "guideScene": 3,
        "guideStyle": "QUEST_GUIDE_STYLE_TARGET",
        "guideLayer": "QUEST_GUIDE_LAYER_UI",
        "MLAHIFLGIGJ": ""
      },
      "guideHint": {
        "param1": ""
      },
      "isRewind": true,
      "versionBegin": "",
      "versionEnd": ""
    },
    {
      "subId": 201310,
      "mainId": 2013,
      "order": 12,
      "isMpBlock": true,
      "descTextMapHash": 2451095932,
      "finishCond": [
        {
          "damageRatio": "QUEST_CONTENT_COMPLETE_TALK",
          "param": [
            201310,
            0
          ]
        }
      ],
      "guide": {
        "damageRatio": "QUEST_GUIDE_LOCATION",
        "param": [
          "Q2013Stop01"
        ],
        "guideScene": 3,
        "guideStyle": "QUEST_GUIDE_STYLE_POINT",
        "guideLayer": "QUEST_GUIDE_LAYER_SCENE",
        "MLAHIFLGIGJ": ""
      },
      "guideHint": {
        "param1": ""
      },
      "finishParent": true,
      "isRewind": true,
      "finishExec": [
        {
          "damageRatio": "QUEST_EXEC_UNREGISTER_DYNAMIC_GROUP",
          "param": [
            "133209024"
          ]
        },
        {
          "damageRatio": "QUEST_EXEC_NOTIFY_GROUP_LUA",
          "param": [
            "3",
            "133220200"
          ]
        }
      ],
      "versionBegin": "",
      "versionEnd": ""
    },
    {
      "subId": 201311,
      "mainId": 2013,
      "order": 2,
      "descTextMapHash": 3533877508,
      "finishCond": [
        {
          "damageRatio": "QUEST_CONTENT_COMPLETE_TALK",
          "param": [
            201311,
            0
          ]
        }
      ],
      "guide": {
        "damageRatio": "QUEST_GUIDE_LOCATION",
        "param": [
          "Q2013Gate01",
          "15"
        ],
        "guideScene": 3,
        "guideStyle": "QUEST_GUIDE_STYLE_POINT",
        "guideLayer": "QUEST_GUIDE_LAYER_SCENE",
        "MLAHIFLGIGJ": ""
      },
      "guideHint": {
        "param1": ""
      },
      "isRewind": true,
      "versionBegin": "",
      "versionEnd": ""
    },
    {
      "subId": 201312,
      "mainId": 2013,
      "order": 11,
      "isMpBlock": true,
      "descTextMapHash": 3016999076,
      "showType": "QUEST_HIDDEN",
      "finishCond": [
        {
          "damageRatio": "QUEST_CONTENT_FINISH_PLOT",
          "param": [
            201312,
            0
          ]
        }
      ],
      "guide": {
        "MLAHIFLGIGJ": ""
      },
      "guideHint": {
        "param1": ""
      },
      "failParentShow": "QUEST_HIDDEN",
      "isRewind": true,
      "finishExec": [
        {
          "damageRatio": "QUEST_EXEC_UNREGISTER_DYNAMIC_GROUP",
          "param": [
            "133209024"
          ]
        },
        {
          "damageRatio": "QUEST_EXEC_ROLLBACK_QUEST",
          "param": [
            "201308"
          ]
        }
      ],
      "versionBegin": "",
      "versionEnd": ""
    }
  ],
  "talks": [
    {
      "id": 201301,
      "beginWay": "TALK_BEGIN_MANUAL",
      "beginCond": [
        {
          "type": "QUEST_COND_STATE_EQUAL",
          "_param": [
            "201301",
            "2"
          ]
        }
      ],
      "priority": 5,
      "initDialog": 20130101,
      "npcId": [
        3069,
        1005
      ],
      "performCfg": "QuestDialogue/AQ/Inazuma1_2013/Q201301",
      "heroTalk": "TALK_HERO_MAIN",
      "questId": 2013,
      "assetIndex": 10691144091170334719,
      "prePerformCfg": ""
    },
    {
      "id": 201302,
      "beginWay": "TALK_BEGIN_MANUAL",
      "beginCond": [
        {
          "type": "QUEST_COND_STATE_EQUAL",
          "_param": [
            "201302",
            "2"
          ]
        }
      ],
      "priority": 5,
      "initDialog": 20130201,
      "npcId": [
        3085,
        1005
      ],
      "performCfg": "QuestDialogue/AQ/Inazuma1_2013/Q201302",
      "heroTalk": "TALK_HERO_MAIN",
      "questId": 2013,
      "assetIndex": 18255137904810866430,
      "prePerformCfg": ""
    },
    {
      "id": 201304,
      "beginWay": "TALK_BEGIN_MANUAL",
      "beginCond": [
        {
          "type": "QUEST_COND_STATE_EQUAL",
          "_param": [
            "201304",
            "2"
          ]
        }
      ],
      "priority": 5,
      "initDialog": 20130401,
      "npcId": [
        3016
      ],
      "performCfg": "QuestDialogue/AQ/Inazuma1_2013/Q201304",
      "heroTalk": "TALK_HERO_MAIN",
      "questId": 2013,
      "assetIndex": 9467035952808650728,
      "prePerformCfg": ""
    },
    {
      "id": 201307,
      "beginWay": "TALK_BEGIN_MANUAL",
      "beginCond": [
        {
          "type": "QUEST_COND_STATE_EQUAL",
          "_param": [
            "201307",
            "2"
          ]
        }
      ],
      "priority": 5,
      "initDialog": 20130701,
      "npcId": [
        3086,
        1005
      ],
      "performCfg": "QuestDialogue/AQ/Inazuma1_2013/Q201307",
      "heroTalk": "TALK_HERO_MAIN",
      "questId": 2013,
      "assetIndex": 3427713625207414943,
      "prePerformCfg": "",
      "lockGameTime": true
    },
    {
      "id": 201308,
      "beginWay": "TALK_BEGIN_MANUAL",
      "beginCond": [
        {
          "type": "QUEST_COND_STATE_EQUAL",
          "_param": [
            "201308",
            "2"
          ]
        }
      ],
      "priority": 5,
      "initDialog": 20130801,
      "npcId": [
        3086,
        3016
      ],
      "performCfg": "QuestDialogue/AQ/Inazuma1_2013/Q201308",
      "heroTalk": "TALK_HERO_MAIN",
      "questId": 2013,
      "assetIndex": 15164966390047019017,
      "prePerformCfg": "",
      "enableCameraDisplacement": true
    },
    {
      "id": 201310,
      "beginWay": "TALK_BEGIN_MANUAL",
      "beginCond": [
        {
          "type": "QUEST_COND_STATE_EQUAL",
          "_param": [
            "201310",
            "2"
          ]
        }
      ],
      "priority": 5,
      "initDialog": 20131001,
      "npcId": [
        3086
      ],
      "performCfg": "QuestDialogue/AQ/Inazuma1_2013/Q201310",
      "heroTalk": "TALK_HERO_MAIN",
      "questId": 2013,
      "assetIndex": 12276627098973183018,
      "prePerformCfg": ""
    },
    {
      "id": 201311,
      "beginWay": "TALK_BEGIN_MANUAL",
      "beginCond": [
        {
          "type": "QUEST_COND_STATE_EQUAL",
          "_param": [
            "201311",
            "2"
          ]
        }
      ],
      "priority": 5,
      "initDialog": 20131101,
      "npcId": [
        3093,
        1005,
        3085
      ],
      "performCfg": "QuestDialogue/AQ/Inazuma1_2013/Q201311",
      "heroTalk": "TALK_HERO_MAIN",
      "questId": 2013,
      "assetIndex": 18217954062900572409,
      "prePerformCfg": ""
    },
    {
      "id": 201391,
      "beginWay": "TALK_BEGIN_MANUAL",
      "beginCond": [
        {
          "type": "QUEST_COND_STATE_EQUAL",
          "_param": [
            "201303",
            "2"
          ]
        }
      ],
      "priority": 5,
      "initDialog": 20139101,
      "npcId": [
        3085
      ],
      "performCfg": "QuestDialogue/AQ/Inazuma1_2013/Q201391",
      "heroTalk": "TALK_HERO_MAIN",
      "questId": 2013,
      "assetIndex": 12838442730921506089,
      "prePerformCfg": ""
    }
  ],
  "preloadLuaList": [
    6375645834097208930,
    8916932297458582655,
    1455757581911863692,
    16070101221953737750,
    16095752529973699305,
    8354352403323044086,
    13077594846547552218,
    7049310791040721762
  ],
  "forcePreloadLuaList": [
    5057791898752971675
  ]
}