{
  "id": 2015,
  "resId": 1011,
  "series": 1210,
  "descTextMapHash": 2156306839,
  "EKEKACCODOE": 2645944750,
  "luaPath": "Actor/Quest/AQ2015",
  "suggestTrackMainQuestList": [
    2016
  ],
  "rewardIdList": [
    102015
  ],
  "chapterId": 1204,
  "subQuests": [
    {
      "subId": 201501,
      "mainId": 2015,
      "order": 1,
      "descTextMapHash": 539189964,
      "finishCond": [
        {
          "damageRatio": "QUEST_CONTENT_COMPLETE_TALK",
          "param": [
            201501,
            0
          ]
        }
      ],
      "guide": {
        "damageRatio": "QUEST_GUIDE_NPC",
        "param": [
          "1037"
        ],
        "guideScene": 3,
        "guideStyle": "QUEST_GUIDE_STYLE_TARGET",
        "guideLayer": "QUEST_GUIDE_LAYER_SCENE",
        "MLAHIFLGIGJ": ""
      },
      "guideHint": {
        "param1": ""
      },
      "isRewind": true,
      "versionBegin": "",
      "versionEnd": ""
    },
    {
      "subId": 201502,
      "mainId": 2015,
      "order": 2,
      "descTextMapHash": 3543382964,
      "finishCond": [
        {
          "damageRatio": "QUEST_CONTENT_FINISH_PLOT",
          "param": [
            201502,
            0
          ]
        }
      ],
      "guide": {
        "damageRatio": "QUEST_GUIDE_LOCATION",
        "param": [
          "Q201502Target",
          "50"
        ],
        "guideScene": 3,
        "guideStyle": "QUEST_GUIDE_STYLE_TARGET",
        "guideLayer": "QUEST_GUIDE_LAYER_SCENE",
        "MLAHIFLGIGJ": ""
      },
      "guideHint": {
        "param1": ""
      },
      "isRewind": true,
      "versionBegin": "",
      "versionEnd": ""
    },
    {
      "subId": 201503,
      "mainId": 2015,
      "order": 3,
      "descTextMapHash": 4196096748,
      "finishCond": [
        {
          "damageRatio": "QUEST_CONTENT_ENTER_DUNGEON",
          "param": [
            1119,
            398
          ]
        }
      ],
      "guide": {
        "damageRatio": "QUEST_GUIDE_LOCATION",
        "param": [
          "Q201503Target"
        ],
        "guideScene": 3,
        "guideStyle": "QUEST_GUIDE_STYLE_POINT",
        "guideLayer": "QUEST_GUIDE_LAYER_SCENE",
        "MLAHIFLGIGJ": ""
      },
      "guideHint": {
        "param1": ""
      },
      "isRewind": true,
      "versionBegin": "",
      "versionEnd": ""
    },
    {
      "subId": 201504,
      "mainId": 2015,
      "order": 4,
      "isMpBlock": true,
      "descTextMapHash": 2737492820,
      "finishCond": [
        {
          "damageRatio": "QUEST_CONTENT_LUA_NOTIFY",
          "param": [
            0,
            0
          ],
          "count": 1
        }
      ],
      "failCond": [
        {
          "damageRatio": "QUEST_CONTENT_ENTER_MY_WORLD",
          "param": [
            3,
            0
          ]
        },
        {
          "damageRatio": "QUEST_CONTENT_FAIL_DUNGEON",
          "param": [
            1119,
            0
          ]
        }
      ],
      "guide": {
        "MLAHIFLGIGJ": ""
      },
      "guideHint": {
        "param1": ""
      },
      "isRewind": true,
      "failExec": [
        {
          "damageRatio": "QUEST_EXEC_ROLLBACK_QUEST",
          "param": [
            "201503"
          ]
        }
      ],
      "versionBegin": "",
      "versionEnd": ""
    },
    {
      "subId": 201505,
      "mainId": 2015,
      "order": 5,
      "isMpBlock": true,
      "descTextMapHash": 2006273268,
      "finishCond": [
        {
          "damageRatio": "QUEST_CONTENT_COMPLETE_TALK",
          "param": [
            201504,
            0
          ]
        },
        {
          "damageRatio": "QUEST_CONTENT_COMPLETE_TALK",
          "param": [
            201505,
            0
          ]
        }
      ],
      "failCond": [
        {
          "damageRatio": "QUEST_CONTENT_ENTER_MY_WORLD",
          "param": [
            3,
            0
          ]
        },
        {
          "damageRatio": "QUEST_CONTENT_FAIL_DUNGEON",
          "param": [
            1119,
            0
          ]
        }
      ],
      "guide": {
        "MLAHIFLGIGJ": ""
      },
      "guideHint": {
        "param1": ""
      },
      "finishParent": true,
      "isRewind": true,
      "finishExec": [
        {
          "damageRatio": "QUEST_EXEC_LOCK_POINT",
          "param": [
            "3",
            "398"
          ]
        }
      ],
      "failExec": [
        {
          "damageRatio": "QUEST_EXEC_ROLLBACK_QUEST",
          "param": [
            "201503"
          ]
        }
      ],
      "versionBegin": "",
      "versionEnd": ""
    }
  ],
  "talks": [
    {
      "id": 201501,
      "beginWay": "TALK_BEGIN_MANUAL",
      "beginCond": [
        {
          "type": "QUEST_COND_STATE_EQUAL",
          "_param": [
            "201501",
            "2"
          ]
        }
      ],
      "priority": 5,
      "initDialog": 20150101,
      "npcId": [
        1037,
        1039
      ],
      "performCfg": "QuestDialogue/AQ/Inazuma2_2015/Q201501",
      "heroTalk": "TALK_HERO_MAIN",
      "questId": 2015,
      "assetIndex": 8167464829228792286,
      "prePerformCfg": ""
    },
    {
      "id": 201504,
      "beginWay": "TALK_BEGIN_MANUAL",
      "beginCondComb": "LOGIC_AND",
      "beginCond": [
        {
          "type": "QUEST_COND_STATE_EQUAL",
          "_param": [
            "201505",
            "2"
          ]
        },
        {
          "type": "QUEST_COND_QUEST_GLOBAL_VAR_EQUAL",
          "_param": [
            "50001",
            "1"
          ]
        }
      ],
      "priority": 5,
      "initDialog": 20150401,
      "npcId": [
        10013
      ],
      "performCfg": "QuestDialogue/AQ/Inazuma2_2015/Q201504",
      "heroTalk": "TALK_HERO_MAIN",
      "questId": 2015,
      "assetIndex": 14893032590240755682,
      "prePerformCfg": ""
    },
    {
      "id": 201505,
      "beginWay": "TALK_BEGIN_MANUAL",
      "beginCondComb": "LOGIC_AND",
      "beginCond": [
        {
          "type": "QUEST_COND_STATE_EQUAL",
          "_param": [
            "201505",
            "2"
          ]
        },
        {
          "type": "QUEST_COND_QUEST_GLOBAL_VAR_EQUAL",
          "_param": [
            "50001",
            "0"
          ]
        }
      ],
      "priority": 5,
      "initDialog": 20150501,
      "npcId": [
        10013
      ],
      "performCfg": "QuestDialogue/AQ/Inazuma2_2015/Q201505",
      "heroTalk": "TALK_HERO_MAIN",
      "questId": 2015,
      "assetIndex": 16498848828709248671,
      "prePerformCfg": ""
    },
    {
      "id": 201552,
      "beginWay": "TALK_BEGIN_MANUAL",
      "beginCondComb": "LOGIC_OR",
      "beginCond": [
        {
          "type": "QUEST_COND_STATE_EQUAL",
          "_param": [
            "201501",
            "2"
          ]
        },
        {
          "type": "QUEST_COND_STATE_EQUAL",
          "_param": [
            "201502",
            "2"
          ]
        }
      ],
      "priority": 5,
      "initDialog": 20155201,
      "npcId": [
        12072
      ],
      "performCfg": "QuestDialogue/AQ/Inazuma2_2015/Q201552",
      "heroTalk": "TALK_HERO_MAIN",
      "questId": 2015,
      "assetIndex": 15142781546911082648,
      "prePerformCfg": ""
    },
    {
      "id": 201553,
      "beginWay": "TALK_BEGIN_MANUAL",
      "priority": 5,
      "initDialog": 20155325,
      "npcId": [
        12296
      ],
      "performCfg": "",
      "questId": 2015,
      "assetIndex": 7977697600999633739,
      "prePerformCfg": ""
    }
  ],
  "preloadLuaList": [
    7998658429186667010
  ],
  "forcePreloadLuaList": [
    11946527079452413649
  ],
  "freeStyleDic": {
    "1037": [
      1180
    ],
    "12072": [
      4110
    ],
    "1039": [
      1230
    ]
  }
}