{
  "id": 2017,
  "resId": 1011,
  "series": 1210,
  "descTextMapHash": 2528758855,
  "EKEKACCODOE": 1274332382,
  "luaPath": "Actor/Quest/AQ2017",
  "suggestTrackMainQuestList": [
    2018
  ],
  "rewardIdList": [
    102017
  ],
  "chapterId": 1204,
  "subQuests": [
    {
      "subId": 201701,
      "mainId": 2017,
      "order": 1,
      "descTextMapHash": 4098021572,
      "JIFODJPFKDF": [
        3001
      ],
      "finishCond": [
        {
          "damageRatio": "QUEST_CONTENT_FINISH_PLOT",
          "param": [
            201701,
            0
          ]
        }
      ],
      "guide": {
        "damageRatio": "QUEST_GUIDE_LOCATION",
        "param": [
          "Q201701Target",
          "50"
        ],
        "guideScene": 3,
        "guideStyle": "QUEST_GUIDE_STYLE_POINT",
        "guideLayer": "QUEST_GUIDE_LAYER_SCENE",
        "MLAHIFLGIGJ": ""
      },
      "guideHint": {
        "param1": ""
      },
      "isRewind": true,
      "versionBegin": "",
      "versionEnd": ""
    },
    {
      "subId": 201702,
      "mainId": 2017,
      "order": 2,
      "descTextMapHash": 872278548,
      "JIFODJPFKDF": [
        3001
      ],
      "finishCond": [
        {
          "damageRatio": "QUEST_CONTENT_COMPLETE_TALK",
          "param": [
            201702,
            0
          ]
        }
      ],
      "guide": {
        "damageRatio": "QUEST_GUIDE_LOCATION",
        "param": [
          "Q201701Target",
          "40"
        ],
        "guideScene": 3,
        "guideStyle": "QUEST_GUIDE_STYLE_POINT",
        "guideLayer": "QUEST_GUIDE_LAYER_SCENE",
        "MLAHIFLGIGJ": ""
      },
      "guideHint": {
        "param1": ""
      },
      "versionBegin": "",
      "versionEnd": ""
    },
    {
      "subId": 201703,
      "mainId": 2017,
      "order": 4,
      "descTextMapHash": 42192788,
      "finishCond": [
        {
          "damageRatio": "QUEST_CONTENT_ENTER_ROOM",
          "param": [
            1060,
            0
          ]
        }
      ],
      "guide": {
        "damageRatio": "QUEST_GUIDE_LOCATION",
        "param": [
          "Q201703Player"
        ],
        "guideScene": 1060,
        "guideStyle": "QUEST_GUIDE_STYLE_POINT",
        "guideLayer": "QUEST_GUIDE_LAYER_SCENE",
        "MLAHIFLGIGJ": ""
      },
      "guideHint": {
        "param1": ""
      },
      "isRewind": true,
      "versionBegin": "",
      "versionEnd": ""
    },
    {
      "subId": 201704,
      "mainId": 2017,
      "order": 5,
      "descTextMapHash": 2387951988,
      "finishCond": [
        {
          "damageRatio": "QUEST_CONTENT_COMPLETE_TALK",
          "param": [
            201704,
            0
          ]
        }
      ],
      "guide": {
        "damageRatio": "QUEST_GUIDE_NPC",
        "param": [
          "1033"
        ],
        "guideScene": 1060,
        "guideStyle": "QUEST_GUIDE_STYLE_TARGET",
        "guideLayer": "QUEST_GUIDE_LAYER_SCENE",
        "MLAHIFLGIGJ": ""
      },
      "guideHint": {
        "param1": ""
      },
      "isRewind": true,
      "versionBegin": "",
      "versionEnd": ""
    },
    {
      "subId": 201705,
      "mainId": 2017,
      "order": 7,
      "descTextMapHash": 417036212,
      "JIFODJPFKDF": [
        322105
      ],
      "finishCond": [
        {
          "damageRatio": "QUEST_CONTENT_GAME_TIME_TICK",
          "param": [
            0,
            0
          ]
        }
      ],
      "guide": {
        "MLAHIFLGIGJ": ""
      },
      "guideHint": {
        "param1": ""
      },
      "isRewind": true,
      "versionBegin": "",
      "versionEnd": ""
    },
    {
      "subId": 201706,
      "mainId": 2017,
      "order": 8,
      "descTextMapHash": 1428832532,
      "JIFODJPFKDF": [
        322105
      ],
      "finishCond": [
        {
          "damageRatio": "QUEST_CONTENT_FINISH_PLOT",
          "param": [
            201706,
            0
          ]
        }
      ],
      "failCond": [
        {
          "damageRatio": "QUEST_CONTENT_GAME_TIME_TICK",
          "param": [
            0,
            0
          ]
        }
      ],
      "guide": {
        "damageRatio": "QUEST_GUIDE_LOCATION",
        "param": [
          "Q201706Target"
        ],
        "guideScene": 3,
        "guideStyle": "QUEST_GUIDE_STYLE_POINT",
        "guideLayer": "QUEST_GUIDE_LAYER_SCENE",
        "MLAHIFLGIGJ": ""
      },
      "guideHint": {
        "param1": ""
      },
      "isRewind": true,
      "failExec": [
        {
          "damageRatio": "QUEST_EXEC_ROLLBACK_QUEST",
          "param": [
            "201705"
          ]
        }
      ],
      "versionBegin": "",
      "versionEnd": ""
    },
    {
      "subId": 201707,
      "mainId": 2017,
      "order": 9,
      "descTextMapHash": 2807673652,
      "JIFODJPFKDF": [
        322105
      ],
      "finishCond": [
        {
          "damageRatio": "QUEST_CONTENT_COMPLETE_TALK",
          "param": [
            201707,
            0
          ]
        }
      ],
      "failCond": [
        {
          "damageRatio": "QUEST_CONTENT_GAME_TIME_TICK",
          "param": [
            0,
            0
          ]
        }
      ],
      "guide": {
        "damageRatio": "QUEST_GUIDE_NPC",
        "param": [
          "1040"
        ],
        "guideScene": 3,
        "guideStyle": "QUEST_GUIDE_STYLE_TARGET",
        "guideLayer": "QUEST_GUIDE_LAYER_SCENE",
        "MLAHIFLGIGJ": ""
      },
      "guideHint": {
        "param1": ""
      },
      "isRewind": true,
      "failExec": [
        {
          "damageRatio": "QUEST_EXEC_ROLLBACK_QUEST",
          "param": [
            "201705"
          ]
        }
      ],
      "versionBegin": "",
      "versionEnd": ""
    },
    {
      "subId": 201708,
      "mainId": 2017,
      "order": 10,
      "descTextMapHash": 4268964404,
      "JIFODJPFKDF": [
        322105
      ],
      "finishCond": [
        {
          "damageRatio": "QUEST_CONTENT_INTERACT_GADGET",
          "param": [
            71700316,
            0
          ],
          "count": 1
        }
      ],
      "failCond": [
        {
          "damageRatio": "QUEST_CONTENT_GAME_TIME_TICK",
          "param": [
            0,
            0
          ]
        }
      ],
      "guide": {
        "damageRatio": "QUEST_GUIDE_LOCATION",
        "param": [
          "Q201708Yanhua"
        ],
        "guideScene": 3,
        "guideStyle": "QUEST_GUIDE_STYLE_POINT",
        "guideLayer": "QUEST_GUIDE_LAYER_SCENE",
        "MLAHIFLGIGJ": ""
      },
      "guideHint": {
        "param1": ""
      },
      "isRewind": true,
      "finishExec": [
        {
          "damageRatio": "QUEST_EXEC_DEL_ALL_SPECIFIC_PACK_ITEM",
          "param": [
            "101545"
          ]
        },
        {
          "damageRatio": "QUEST_EXEC_SET_QUEST_GLOBAL_VAR",
          "param": [
            "201701",
            "1"
          ]
        }
      ],
      "failExec": [
        {
          "damageRatio": "QUEST_EXEC_ROLLBACK_QUEST",
          "param": [
            "201705"
          ]
        }
      ],
      "versionBegin": "",
      "versionEnd": ""
    },
    {
      "subId": 201709,
      "mainId": 2017,
      "order": 16,
      "descTextMapHash": 2045881236,
      "finishCond": [
        {
          "damageRatio": "QUEST_CONTENT_COMPLETE_TALK",
          "param": [
            201709,
            0
          ]
        }
      ],
      "guide": {
        "damageRatio": "QUEST_GUIDE_NPC",
        "param": [
          "1013"
        ],
        "guideScene": 1060,
        "guideStyle": "QUEST_GUIDE_STYLE_TARGET",
        "guideLayer": "QUEST_GUIDE_LAYER_SCENE",
        "MLAHIFLGIGJ": ""
      },
      "guideHint": {
        "param1": ""
      },
      "finishParent": true,
      "isRewind": true,
      "versionBegin": "",
      "versionEnd": ""
    },
    {
      "subId": 201710,
      "mainId": 2017,
      "order": 6,
      "descTextMapHash": 3422274772,
      "finishCond": [
        {
          "damageRatio": "QUEST_CONTENT_COMPLETE_TALK",
          "param": [
            201710,
            0
          ]
        }
      ],
      "guide": {
        "damageRatio": "QUEST_GUIDE_NPC",
        "param": [
          "1035"
        ],
        "guideScene": 3,
        "MLAHIFLGIGJ": ""
      },
      "guideHint": {
        "param1": ""
      },
      "isRewind": true,
      "versionBegin": "",
      "versionEnd": ""
    },
    {
      "subId": 201711,
      "mainId": 2017,
      "order": 13,
      "isMpBlock": true,
      "descTextMapHash": 3445493492,
      "JIFODJPFKDF": [
        322105
      ],
      "AKLAGMDECEM": "BAN_GROUP_TRANSPORT_ONLY",
      "finishCond": [
        {
          "damageRatio": "QUEST_CONTENT_QUEST_STATE_EQUAL",
          "param": [
            201716,
            3
          ]
        }
      ],
      "failCond": [
        {
          "damageRatio": "QUEST_CONTENT_COMPLETE_ANY_TALK",
          "param": [
            0,
            0
          ]
        },
        {
          "damageRatio": "QUEST_CONTENT_NOT_FINISH_PLOT",
          "param": [
            201711,
            0
          ]
        },
        {
          "damageRatio": "QUEST_CONTENT_TEAM_DEAD",
          "param": [
            0,
            0
          ]
        }
      ],
      "guide": {
        "damageRatio": "QUEST_GUIDE_LOCATION",
        "param": [
          "Q201703Target"
        ],
        "guideScene": 3,
        "guideStyle": "QUEST_GUIDE_STYLE_POINT",
        "guideLayer": "QUEST_GUIDE_LAYER_SCENE",
        "MLAHIFLGIGJ": ""
      },
      "guideHint": {
        "param1": ""
      },
      "finishExec": [
        {
          "damageRatio": "QUEST_EXEC_UNREGISTER_DYNAMIC_GROUP",
          "param": [
            "133221059",
            "0"
          ]
        },
        {
          "damageRatio": "QUEST_EXEC_UNLOCK_AVATAR_TEAM"
        },
        {
          "damageRatio": "QUEST_EXEC_SET_IS_GAME_TIME_LOCKED",
          "param": [
            "0"
          ]
        },
        {
          "damageRatio": "QUEST_EXEC_SET_QUEST_GLOBAL_VAR",
          "param": [
            "201701",
            "0"
          ]
        }
      ],
      "versionBegin": "",
      "versionEnd": ""
    },
    {
      "subId": 201712,
      "mainId": 2017,
      "order": 3,
      "descTextMapHash": 3893820324,
      "showType": "QUEST_HIDDEN",
      "finishCond": [
        {
          "damageRatio": "QUEST_CONTENT_FINISH_PLOT",
          "param": [
            201712,
            0
          ]
        }
      ],
      "guide": {
        "MLAHIFLGIGJ": ""
      },
      "guideHint": {
        "param1": ""
      },
      "finishExec": [
        {
          "damageRatio": "QUEST_EXEC_UNREGISTER_DYNAMIC_GROUP",
          "param": [
            "133220685",
            "0"
          ]
        }
      ],
      "versionBegin": "",
      "versionEnd": ""
    },
    {
      "subId": 201713,
      "mainId": 2017,
      "order": 15,
      "isMpBlock": true,
      "descTextMapHash": 4193499724,
      "showType": "QUEST_HIDDEN",
      "JIFODJPFKDF": [
        322105
      ],
      "AKLAGMDECEM": "BAN_GROUP_TRANSPORT_ONLY",
      "finishCond": [
        {
          "damageRatio": "QUEST_CONTENT_FINISH_PLOT",
          "param": [
            201713,
            0
          ]
        }
      ],
      "guide": {
        "MLAHIFLGIGJ": ""
      },
      "guideHint": {
        "param1": ""
      },
      "finishExec": [
        {
          "damageRatio": "QUEST_EXEC_ROLLBACK_QUEST",
          "param": [
            "201714"
          ]
        }
      ],
      "versionBegin": "",
      "versionEnd": ""
    },
    {
      "subId": 201714,
      "mainId": 2017,
      "order": 12,
      "isMpBlock": true,
      "descTextMapHash": 51803180,
      "JIFODJPFKDF": [
        322105
      ],
      "AKLAGMDECEM": "BAN_GROUP_TRANSPORT_ONLY",
      "finishCond": [
        {
          "damageRatio": "QUEST_CONTENT_FINISH_PLOT",
          "param": [
            201714,
            0
          ]
        }
      ],
      "guide": {
        "damageRatio": "QUEST_GUIDE_LOCATION",
        "param": [
          "Q201708Yanhua"
        ],
        "guideScene": 3,
        "guideStyle": "QUEST_GUIDE_STYLE_POINT",
        "MLAHIFLGIGJ": ""
      },
      "guideHint": {
        "param1": ""
      },
      "isRewind": true,
      "versionBegin": "",
      "versionEnd": ""
    },
    {
      "subId": 201715,
      "mainId": 2017,
      "order": 14,
      "isMpBlock": true,
      "descTextMapHash": 1296033324,
      "JIFODJPFKDF": [
        322105
      ],
      "finishCond": [
        {
          "damageRatio": "QUEST_CONTENT_ENTER_ROOM",
          "param": [
            1060,
            0
          ]
        }
      ],
      "guide": {
        "damageRatio": "QUEST_GUIDE_LOCATION",
        "param": [
          "Q201703Player"
        ],
        "guideScene": 1060,
        "guideStyle": "QUEST_GUIDE_STYLE_POINT",
        "guideLayer": "QUEST_GUIDE_LAYER_SCENE",
        "MLAHIFLGIGJ": ""
      },
      "guideHint": {
        "param1": ""
      },
      "isRewind": true,
      "versionBegin": "",
      "versionEnd": ""
    },
    {
      "subId": 201716,
      "mainId": 2017,
      "order": 11,
      "isMpBlock": true,
      "descTextMapHash": 4245838092,
      "showType": "QUEST_HIDDEN",
      "AKLAGMDECEM": "BAN_GROUP_TRANSPORT_ONLY",
      "finishCond": [
        {
          "damageRatio": "QUEST_CONTENT_FINISH_PLOT",
          "param": [
            201716,
            0
          ]
        }
      ],
      "guide": {
        "MLAHIFLGIGJ": ""
      },
      "guideHint": {
        "param1": ""
      },
      "failParentShow": "QUEST_HIDDEN",
      "isRewind": true,
      "versionBegin": "",
      "versionEnd": ""
    }
  ],
  "talks": [
    {
      "id": 201702,
      "beginWay": "TALK_BEGIN_MANUAL",
      "beginCond": [
        {
          "type": "QUEST_COND_STATE_EQUAL",
          "_param": [
            "201702",
            "2"
          ]
        }
      ],
      "priority": 5,
      "initDialog": 20170201,
      "npcId": [
        1040,
        12240
      ],
      "performCfg": "QuestDialogue/AQ/Inazuma2_2017/Q201702",
      "heroTalk": "TALK_HERO_MAIN",
      "questId": 2017,
      "assetIndex": 7553375994280013399,
      "prePerformCfg": ""
    },
    {
      "id": 201704,
      "beginWay": "TALK_BEGIN_MANUAL",
      "beginCond": [
        {
          "type": "QUEST_COND_STATE_EQUAL",
          "_param": [
            "201704",
            "2"
          ]
        }
      ],
      "priority": 5,
      "initDialog": 20170403,
      "npcId": [
        1033
      ],
      "performCfg": "QuestDialogue/AQ/Inazuma2_2017/Q201704",
      "heroTalk": "TALK_HERO_MAIN",
      "questId": 2017,
      "assetIndex": 18174426862966765748,
      "prePerformCfg": ""
    },
    {
      "id": 201707,
      "beginWay": "TALK_BEGIN_MANUAL",
      "beginCond": [
        {
          "type": "QUEST_COND_STATE_EQUAL",
          "_param": [
            "201707",
            "2"
          ]
        }
      ],
      "priority": 5,
      "initDialog": 20170701,
      "npcId": [
        1040
      ],
      "performCfg": "QuestDialogue/AQ/Inazuma2_2017/Q201707",
      "heroTalk": "TALK_HERO_MAIN",
      "questId": 2017,
      "assetIndex": 9940340127487341996,
      "prePerformCfg": "",
      "lockGameTime": true
    },
    {
      "id": 201709,
      "beginWay": "TALK_BEGIN_MANUAL",
      "beginCond": [
        {
          "type": "QUEST_COND_STATE_EQUAL",
          "_param": [
            "201709",
            "2"
          ]
        }
      ],
      "priority": 5,
      "initDialog": 20170901,
      "npcId": [
        1013
      ],
      "performCfg": "QuestDialogue/AQ/Inazuma2_2017/Q201709",
      "heroTalk": "TALK_HERO_MAIN",
      "questId": 2017,
      "assetIndex": 18211669021958371825,
      "prePerformCfg": ""
    },
    {
      "id": 201710,
      "beginWay": "TALK_BEGIN_MANUAL",
      "beginCond": [
        {
          "type": "QUEST_COND_STATE_EQUAL",
          "_param": [
            "201710",
            "2"
          ]
        }
      ],
      "priority": 5,
      "initDialog": 20171000,
      "npcId": [
        1035
      ],
      "performCfg": "QuestDialogue/AQ/Inazuma2_2017/Q201710",
      "heroTalk": "TALK_HERO_MAIN",
      "questId": 2017,
      "assetIndex": 577064285702993478,
      "prePerformCfg": ""
    },
    {
      "id": 201750,
      "beginWay": "TALK_BEGIN_MANUAL",
      "beginCondComb": "LOGIC_OR",
      "beginCond": [
        {
          "type": "QUEST_COND_STATE_EQUAL",
          "_param": [
            "201710",
            "2"
          ]
        },
        {
          "type": "QUEST_COND_STATE_EQUAL",
          "_param": [
            "201705",
            "2"
          ]
        },
        {
          "type": "QUEST_COND_STATE_EQUAL",
          "_param": [
            "201706",
            "2"
          ]
        },
        {
          "type": "QUEST_COND_STATE_EQUAL",
          "_param": [
            "201707",
            "2"
          ]
        },
        {
          "type": "QUEST_COND_STATE_EQUAL",
          "_param": [
            "201708",
            "2"
          ]
        }
      ],
      "priority": 5,
      "initDialog": 20175001,
      "npcId": [
        1033
      ],
      "performCfg": "QuestDialogue/AQ/Inazuma2_2017/Q201750",
      "heroTalk": "TALK_HERO_MAIN",
      "questId": 2017,
      "assetIndex": 17748247727411032897,
      "prePerformCfg": ""
    },
    {
      "id": 201751,
      "beginWay": "TALK_BEGIN_MANUAL",
      "beginCondComb": "LOGIC_OR",
      "beginCond": [
        {
          "type": "QUEST_COND_STATE_EQUAL",
          "_param": [
            "201705",
            "2"
          ]
        },
        {
          "type": "QUEST_COND_STATE_EQUAL",
          "_param": [
            "201706",
            "2"
          ]
        },
        {
          "type": "QUEST_COND_STATE_EQUAL",
          "_param": [
            "201707",
            "2"
          ]
        }
      ],
      "priority": 5,
      "initDialog": 20175101,
      "npcId": [
        1035
      ],
      "performCfg": "QuestDialogue/AQ/Inazuma2_2017/Q201751",
      "heroTalk": "TALK_HERO_MAIN",
      "questId": 2017,
      "assetIndex": 17894343475126532011,
      "prePerformCfg": ""
    },
    {
      "id": 201752,
      "beginWay": "TALK_BEGIN_MANUAL",
      "beginCondComb": "LOGIC_OR",
      "beginCond": [
        {
          "type": "QUEST_COND_STATE_EQUAL",
          "_param": [
            "201710",
            "2"
          ]
        },
        {
          "type": "QUEST_COND_STATE_EQUAL",
          "_param": [
            "201705",
            "2"
          ]
        },
        {
          "type": "QUEST_COND_STATE_EQUAL",
          "_param": [
            "201706",
            "2"
          ]
        },
        {
          "type": "QUEST_COND_STATE_EQUAL",
          "_param": [
            "201707",
            "2"
          ]
        },
        {
          "type": "QUEST_COND_STATE_EQUAL",
          "_param": [
            "201708",
            "2"
          ]
        }
      ],
      "priority": 5,
      "initDialog": 20175201,
      "npcId": [
        1013
      ],
      "performCfg": "QuestDialogue/AQ/Inazuma2_2017/Q201752",
      "heroTalk": "TALK_HERO_MAIN",
      "questId": 2017,
      "assetIndex": 11329369524568567027,
      "prePerformCfg": ""
    },
    {
      "id": 201753,
      "beginWay": "TALK_BEGIN_MANUAL",
      "beginCond": [
        {
          "type": "QUEST_COND_STATE_EQUAL",
          "_param": [
            "201711",
            "2"
          ]
        }
      ],
      "initDialog": 20220101,
      "npcId": [
        12259,
        12260,
        12261,
        12262,
        12263,
        12264,
        12265,
        12266,
        12267
      ],
      "performCfg": "",
      "heroTalk": "TALK_HERO_MAIN",
      "questId": 2017,
      "assetIndex": 4730391909010554240,
      "prePerformCfg": ""
    },
    {
      "id": 201754,
      "beginWay": "TALK_BEGIN_MANUAL",
      "beginCond": [
        {
          "type": "QUEST_COND_STATE_EQUAL",
          "_param": [
            "201711",
            "2"
          ]
        }
      ],
      "initDialog": 20220201,
      "npcId": [
        12259,
        12260,
        12261,
        12262,
        12263,
        12264,
        12265,
        12266,
        12267
      ],
      "performCfg": "",
      "heroTalk": "TALK_HERO_MAIN",
      "questId": 2017,
      "assetIndex": 1927270045317821562,
      "prePerformCfg": ""
    },
    {
      "id": 201755,
      "beginWay": "TALK_BEGIN_MANUAL",
      "beginCond": [
        {
          "type": "QUEST_COND_STATE_EQUAL",
          "_param": [
            "201708",
            "2"
          ]
        }
      ],
      "initDialog": 20170702,
      "npcId": [
        1040
      ],
      "performCfg": "QuestDialogue/AQ/Inazuma2_2017/Q201755",
      "heroTalk": "TALK_HERO_MAIN",
      "questId": 2017,
      "assetIndex": 11025443043139693745,
      "prePerformCfg": "",
      "lockGameTime": true
    },
    {
      "id": 201756,
      "beginWay": "TALK_BEGIN_MANUAL",
      "beginCond": [
        {
          "type": "QUEST_COND_STATE_EQUAL",
          "_param": [
            "201708",
            "2"
          ]
        }
      ],
      "initDialog": 20170703,
      "npcId": [
        1040
      ],
      "performCfg": "QuestDialogue/AQ/Inazuma2_2017/Q201756",
      "heroTalk": "TALK_HERO_MAIN",
      "questId": 2017,
      "assetIndex": 11734168261073484242,
      "prePerformCfg": "",
      "lockGameTime": true
    },
    {
      "id": 201757,
      "beginWay": "TALK_BEGIN_MANUAL",
      "beginCond": [
        {
          "type": "QUEST_COND_STATE_EQUAL",
          "_param": [
            "201708",
            "2"
          ]
        }
      ],
      "initDialog": 20170706,
      "npcId": [
        1040
      ],
      "performCfg": "QuestDialogue/AQ/Inazuma2_2017/Q201757",
      "heroTalk": "TALK_HERO_MAIN",
      "questId": 2017,
      "assetIndex": 17217663584856427678,
      "prePerformCfg": "",
      "lockGameTime": true
    }
  ],
  "preloadLuaList": [
    7431193440819574587,
    6265471606266734611,
    15339586633827492821,
    11600574698216518134,
    1615834038889167954,
    9120559485279110112,
    4905296664560067610,
    17076271980328581746,
    16406922491498084825,
    9908536060710668854,
    8964659844482642474,
    11391445250242991916,
    2748653717795589723
  ],
  "forcePreloadLuaList": [
    13528929660721080567
  ],
  "freeStyleDic": {
    "1013": [],
    "1033": [],
    "1040": [
      1280
    ]
  }
}