{
  "id": 20507,
  "damageRatio": "WQ",
  "descTextMapHash": 1312342369,
  "luaPath": "Actor/Quest/IQ20507",
  "showType": "QUEST_HIDDEN",
  "subQuests": [
    {
      "subId": 2050701,
      "mainId": 20507,
      "order": 1,
      "descTextMapHash": 4074520088,
      "showType": "QUEST_HIDDEN",
      "finishCond": [
        {
          "damageRatio": "QUEST_CONTENT_UNLOCK_TRANS_POINT",
          "param": [
            3,
            10
          ]
        }
      ],
      "guide": {
        "MLAHIFLGIGJ": ""
      },
      "guideHint": {
        "param1": ""
      },
      "isRewind": true,
      "versionBegin": "",
      "versionEnd": ""
    },
    {
      "subId": 2050702,
      "mainId": 20507,
      "order": 2,
      "descTextMapHash": 2488198424,
      "showType": "QUEST_HIDDEN",
      "finishCond": [
        {
          "damageRatio": "QUEST_CONTENT_FINISH_PLOT",
          "param": [
            2050702,
            0
          ]
        }
      ],
      "guide": {
        "MLAHIFLGIGJ": ""
      },
      "guideHint": {
        "param1": ""
      },
      "finishParent": true,
      "isRewind": true,
      "versionBegin": "",
      "versionEnd": ""
    }
  ]
}