{
  "id": 20515,
  "damageRatio": "IQ",
  "activeMode": "PLAY_MODE_ALL",
  "descTextMapHash": 512777431,
  "EKEKACCODOE": 771942374,
  "luaPath": "Actor/Quest/IQ20515",
  "repeatable": true,
  "taskID": 24801,
  "subQuests": [
    {
      "subId": 2051501,
      "mainId": 20515,
      "order": 1,
      "descTextMapHash": 2952604916,
      "finishCond": [
        {
          "damageRatio": "QUEST_CONTENT_COMPLETE_TALK",
          "param": [
            2051501,
            0
          ]
        }
      ],
      "guide": {
        "damageRatio": "QUEST_GUIDE_NPC",
        "param": [
          "1408"
        ],
        "guideScene": 3,
        "guideStyle": "QUEST_GUIDE_STYLE_START",
        "guideLayer": "QUEST_GUIDE_LAYER_SCENE",
        "MLAHIFLGIGJ": ""
      },
      "guideHint": {
        "param1": ""
      },
      "isRewind": true,
      "versionBegin": "",
      "versionEnd": ""
    },
    {
      "subId": 2051502,
      "mainId": 20515,
      "order": 2,
      "descTextMapHash": 701630532,
      "finishCond": [
        {
          "damageRatio": "QUEST_CONTENT_COMPLETE_TALK",
          "param": [
            2051502,
            0
          ]
        }
      ],
      "failCond": [
        {
          "damageRatio": "QUEST_CONTENT_COMPLETE_TALK",
          "param": [
            2051504,
            0
          ]
        }
      ],
      "guide": {
        "damageRatio": "QUEST_GUIDE_LOCATION",
        "param": [
          "Q20515_Ana_Guide_Area",
          "20"
        ],
        "guideScene": 3,
        "guideStyle": "QUEST_GUIDE_STYLE_TARGET",
        "guideLayer": "QUEST_GUIDE_LAYER_SCENE",
        "MLAHIFLGIGJ": ""
      },
      "guideHint": {
        "param1": ""
      },
      "isRewind": true,
      "versionBegin": "",
      "versionEnd": ""
    },
    {
      "subId": 2051503,
      "mainId": 20515,
      "order": 3,
      "descTextMapHash": 162535908,
      "finishCond": [
        {
          "damageRatio": "QUEST_CONTENT_COMPLETE_TALK",
          "param": [
            2051503,
            0
          ]
        }
      ],
      "guide": {
        "damageRatio": "QUEST_GUIDE_NPC",
        "param": [
          "1408"
        ],
        "guideScene": 3,
        "guideStyle": "QUEST_GUIDE_STYLE_FINISH",
        "guideLayer": "QUEST_GUIDE_LAYER_SCENE",
        "MLAHIFLGIGJ": ""
      },
      "guideHint": {
        "param1": ""
      },
      "finishParent": true,
      "isRewind": true,
      "finishExec": [
        {
          "damageRatio": "QUEST_EXEC_NOTIFY_DAILY_TASK",
          "param": [
            "24801"
          ]
        }
      ],
      "versionBegin": "",
      "versionEnd": ""
    },
    {
      "subId": 2051504,
      "mainId": 20515,
      "order": 4,
      "descTextMapHash": 2924457812,
      "showType": "QUEST_HIDDEN",
      "finishCond": [
        {
          "damageRatio": "QUEST_CONTENT_COMPLETE_TALK",
          "param": [
            2051504,
            0
          ]
        }
      ],
      "failCond": [
        {
          "damageRatio": "QUEST_CONTENT_COMPLETE_TALK",
          "param": [
            2051502,
            0
          ]
        }
      ],
      "guide": {
        "guideScene": 3,
        "guideStyle": "QUEST_GUIDE_STYLE_TARGET",
        "guideLayer": "QUEST_GUIDE_LAYER_SCENE",
        "MLAHIFLGIGJ": ""
      },
      "showGuide": "QUEST_GUIDE_ITEM_DISABLE",
      "guideHint": {
        "param1": ""
      },
      "isRewind": true,
      "versionBegin": "",
      "versionEnd": ""
    },
    {
      "subId": 2051505,
      "mainId": 20515,
      "order": 5,
      "descTextMapHash": 663918060,
      "finishCond": [
        {
          "damageRatio": "QUEST_CONTENT_COMPLETE_TALK",
          "param": [
            2051505,
            0
          ]
        }
      ],
      "guide": {
        "damageRatio": "QUEST_GUIDE_NPC",
        "param": [
          "1405"
        ],
        "guideScene": 3,
        "guideStyle": "QUEST_GUIDE_STYLE_TARGET",
        "guideLayer": "QUEST_GUIDE_LAYER_SCENE",
        "MLAHIFLGIGJ": ""
      },
      "guideHint": {
        "param1": ""
      },
      "isRewind": true,
      "versionBegin": "",
      "versionEnd": ""
    },
    {
      "subId": 2051506,
      "mainId": 20515,
      "order": 6,
      "descTextMapHash": 3844348580,
      "finishCond": [
        {
          "damageRatio": "QUEST_CONTENT_COMPLETE_TALK",
          "param": [
            2051506,
            0
          ]
        }
      ],
      "guide": {
        "damageRatio": "QUEST_GUIDE_NPC",
        "param": [
          "1408"
        ],
        "guideScene": 3,
        "guideStyle": "QUEST_GUIDE_STYLE_FINISH",
        "guideLayer": "QUEST_GUIDE_LAYER_SCENE",
        "MLAHIFLGIGJ": ""
      },
      "guideHint": {
        "param1": ""
      },
      "finishParent": true,
      "isRewind": true,
      "finishExec": [
        {
          "damageRatio": "QUEST_EXEC_NOTIFY_DAILY_TASK",
          "param": [
            "24801"
          ]
        }
      ],
      "versionBegin": "",
      "versionEnd": ""
    }
  ],
  "talks": [
    {
      "id": 2051501,
      "beginWay": "TALK_BEGIN_MANUAL",
      "activeMode": "PLAY_MODE_ALL",
      "beginCond": [
        {
          "type": "QUEST_COND_STATE_EQUAL",
          "_param": [
            "2051501",
            "2"
          ]
        }
      ],
      "priority": 5,
      "initDialog": 205150101,
      "npcId": [
        1408
      ],
      "performCfg": "",
      "questId": 20515,
      "assetIndex": 4438934904841693831,
      "prePerformCfg": ""
    },
    {
      "id": 2051502,
      "beginWay": "TALK_BEGIN_MANUAL",
      "activeMode": "PLAY_MODE_ALL",
      "beginCond": [
        {
          "type": "QUEST_COND_STATE_EQUAL",
          "_param": [
            "2051502",
            "2"
          ]
        }
      ],
      "priority": 5,
      "initDialog": 205150201,
      "npcId": [
        1405
      ],
      "performCfg": "",
      "questId": 20515,
      "assetIndex": 7025717017932290395,
      "prePerformCfg": ""
    },
    {
      "id": 2051503,
      "beginWay": "TALK_BEGIN_MANUAL",
      "activeMode": "PLAY_MODE_ALL",
      "beginCond": [
        {
          "type": "QUEST_COND_STATE_EQUAL",
          "_param": [
            "2051503",
            "2"
          ]
        }
      ],
      "priority": 5,
      "initDialog": 205150301,
      "npcId": [
        1408
      ],
      "performCfg": "",
      "questId": 20515,
      "assetIndex": 14683695973901064034,
      "prePerformCfg": ""
    },
    {
      "id": 2051504,
      "beginWay": "TALK_BEGIN_MANUAL",
      "activeMode": "PLAY_MODE_ALL",
      "beginCond": [
        {
          "type": "QUEST_COND_STATE_EQUAL",
          "_param": [
            "2051504",
            "2"
          ]
        }
      ],
      "priority": 5,
      "initDialog": 205150401,
      "npcId": [
        1602
      ],
      "performCfg": "",
      "questId": 20515,
      "assetIndex": 14743395162167773537,
      "prePerformCfg": ""
    },
    {
      "id": 2051505,
      "beginWay": "TALK_BEGIN_MANUAL",
      "activeMode": "PLAY_MODE_ALL",
      "beginCond": [
        {
          "type": "QUEST_COND_STATE_EQUAL",
          "_param": [
            "2051505",
            "2"
          ]
        }
      ],
      "priority": 5,
      "initDialog": 205150501,
      "npcId": [
        1405
      ],
      "performCfg": "",
      "questId": 20515,
      "assetIndex": 6077169992108190633,
      "prePerformCfg": ""
    },
    {
      "id": 2051506,
      "beginWay": "TALK_BEGIN_MANUAL",
      "activeMode": "PLAY_MODE_ALL",
      "beginCond": [
        {
          "type": "QUEST_COND_STATE_EQUAL",
          "_param": [
            "2051506",
            "2"
          ]
        }
      ],
      "priority": 5,
      "initDialog": 205150601,
      "npcId": [
        1408
      ],
      "performCfg": "",
      "questId": 20515,
      "assetIndex": 1147800693148829932,
      "prePerformCfg": ""
    },
    {
      "id": 2051507,
      "beginWay": "TALK_BEGIN_MANUAL",
      "activeMode": "PLAY_MODE_ALL",
      "beginCondComb": "LOGIC_OR",
      "beginCond": [
        {
          "type": "QUEST_COND_STATE_EQUAL",
          "_param": [
            "2051504",
            "2"
          ]
        },
        {
          "type": "QUEST_COND_STATE_EQUAL",
          "_param": [
            "2051505",
            "2"
          ]
        }
      ],
      "priority": 5,
      "initDialog": 205150701,
      "npcId": [
        1408
      ],
      "performCfg": "",
      "questId": 20515,
      "assetIndex": 530352878067627495,
      "prePerformCfg": "",
      "lowPriority": true
    },
    {
      "id": 2051508,
      "beginWay": "TALK_BEGIN_MANUAL",
      "activeMode": "PLAY_MODE_ALL",
      "beginCondComb": "LOGIC_OR",
      "beginCond": [
        {
          "type": "QUEST_COND_STATE_EQUAL",
          "_param": [
            "2051501",
            "2"
          ]
        },
        {
          "type": "QUEST_COND_STATE_EQUAL",
          "_param": [
            "2051503",
            "2"
          ]
        },
        {
          "type": "QUEST_COND_STATE_EQUAL",
          "_param": [
            "2051506",
            "2"
          ]
        }
      ],
      "priority": 5,
      "initDialog": 205150801,
      "npcId": [
        1405
      ],
      "performCfg": "",
      "questId": 20515,
      "assetIndex": 7207181463133775507,
      "prePerformCfg": ""
    },
    {
      "id": 2051509,
      "beginWay": "TALK_BEGIN_MANUAL",
      "activeMode": "PLAY_MODE_ALL",
      "beginCondComb": "LOGIC_OR",
      "beginCond": [
        {
          "type": "QUEST_COND_STATE_EQUAL",
          "_param": [
            "2051505",
            "2"
          ]
        },
        {
          "type": "QUEST_COND_STATE_EQUAL",
          "_param": [
            "2051506",
            "2"
          ]
        }
      ],
      "priority": 5,
      "initDialog": 205150901,
      "npcId": [
        1602
      ],
      "performCfg": "",
      "questId": 20515,
      "assetIndex": 10071274270459203438,
      "prePerformCfg": ""
    }
  ]
}