{
  "id": 20516,
  "damageRatio": "IQ",
  "activeMode": "PLAY_MODE_ALL",
  "descTextMapHash": 3183514431,
  "EKEKACCODOE": 2322991638,
  "luaPath": "Actor/Quest/IQ20516",
  "repeatable": true,
  "taskID": 24802,
  "subQuests": [
    {
      "subId": 2051601,
      "mainId": 20516,
      "order": 1,
      "descTextMapHash": 2257921540,
      "JIFODJPFKDF": [
        7267605
      ],
      "finishCond": [
        {
          "damageRatio": "QUEST_CONTENT_COMPLETE_TALK",
          "param": [
            2051601,
            0
          ]
        }
      ],
      "guide": {
        "damageRatio": "QUEST_GUIDE_NPC",
        "param": [
          "1408"
        ],
        "guideScene": 3,
        "guideStyle": "QUEST_GUIDE_STYLE_START",
        "guideLayer": "QUEST_GUIDE_LAYER_SCENE",
        "MLAHIFLGIGJ": ""
      },
      "guideHint": {
        "param1": ""
      },
      "isRewind": true,
      "versionBegin": "",
      "versionEnd": ""
    },
    {
      "subId": 2051602,
      "mainId": 20516,
      "order": 2,
      "descTextMapHash": 3958855332,
      "JIFODJPFKDF": [
        7267605
      ],
      "finishCond": [
        {
          "damageRatio": "QUEST_CONTENT_COMPLETE_TALK",
          "param": [
            2051602,
            0
          ]
        }
      ],
      "failCond": [
        {
          "damageRatio": "QUEST_CONTENT_COMPLETE_TALK",
          "param": [
            2051604,
            0
          ]
        }
      ],
      "guide": {
        "damageRatio": "QUEST_GUIDE_LOCATION",
        "param": [
          "20516_Ana_Guide_Area",
          "20"
        ],
        "guideScene": 3,
        "guideStyle": "QUEST_GUIDE_STYLE_TARGET",
        "guideLayer": "QUEST_GUIDE_LAYER_SCENE",
        "MLAHIFLGIGJ": ""
      },
      "guideHint": {
        "param1": ""
      },
      "isRewind": true,
      "versionBegin": "",
      "versionEnd": ""
    },
    {
      "subId": 2051603,
      "mainId": 20516,
      "order": 3,
      "descTextMapHash": 2410139492,
      "JIFODJPFKDF": [
        7267605
      ],
      "finishCond": [
        {
          "damageRatio": "QUEST_CONTENT_COMPLETE_TALK",
          "param": [
            2051603,
            0
          ]
        }
      ],
      "guide": {
        "damageRatio": "QUEST_GUIDE_NPC",
        "param": [
          "1408"
        ],
        "guideScene": 3,
        "guideStyle": "QUEST_GUIDE_STYLE_FINISH",
        "guideLayer": "QUEST_GUIDE_LAYER_SCENE",
        "MLAHIFLGIGJ": ""
      },
      "guideHint": {
        "param1": ""
      },
      "finishParent": true,
      "isRewind": true,
      "finishExec": [
        {
          "damageRatio": "QUEST_EXEC_NOTIFY_DAILY_TASK",
          "param": [
            "24802"
          ]
        }
      ],
      "versionBegin": "",
      "versionEnd": ""
    },
    {
      "subId": 2051604,
      "mainId": 20516,
      "order": 4,
      "descTextMapHash": 2162678700,
      "showType": "QUEST_HIDDEN",
      "JIFODJPFKDF": [
        7267605
      ],
      "finishCond": [
        {
          "damageRatio": "QUEST_CONTENT_COMPLETE_TALK",
          "param": [
            2051604,
            0
          ]
        }
      ],
      "failCond": [
        {
          "damageRatio": "QUEST_CONTENT_COMPLETE_TALK",
          "param": [
            2051602,
            0
          ]
        }
      ],
      "guide": {
        "guideScene": 3,
        "guideStyle": "QUEST_GUIDE_STYLE_TARGET",
        "guideLayer": "QUEST_GUIDE_LAYER_SCENE",
        "MLAHIFLGIGJ": ""
      },
      "showGuide": "QUEST_GUIDE_ITEM_DISABLE",
      "guideHint": {
        "param1": ""
      },
      "isRewind": true,
      "versionBegin": "",
      "versionEnd": ""
    },
    {
      "subId": 2051605,
      "mainId": 20516,
      "order": 5,
      "descTextMapHash": 260944220,
      "JIFODJPFKDF": [
        7267605
      ],
      "finishCond": [
        {
          "damageRatio": "QUEST_CONTENT_COMPLETE_TALK",
          "param": [
            2051605,
            0
          ]
        }
      ],
      "guide": {
        "damageRatio": "QUEST_GUIDE_NPC",
        "param": [
          "1405"
        ],
        "guideScene": 3,
        "guideStyle": "QUEST_GUIDE_STYLE_TARGET",
        "guideLayer": "QUEST_GUIDE_LAYER_SCENE",
        "MLAHIFLGIGJ": ""
      },
      "guideHint": {
        "param1": ""
      },
      "isRewind": true,
      "versionBegin": "",
      "versionEnd": ""
    },
    {
      "subId": 2051606,
      "mainId": 20516,
      "order": 6,
      "descTextMapHash": 3815028028,
      "JIFODJPFKDF": [
        7267605
      ],
      "finishCond": [
        {
          "damageRatio": "QUEST_CONTENT_COMPLETE_TALK",
          "param": [
            2051606,
            0
          ]
        }
      ],
      "guide": {
        "damageRatio": "QUEST_GUIDE_NPC",
        "param": [
          "1408"
        ],
        "guideScene": 3,
        "guideStyle": "QUEST_GUIDE_STYLE_FINISH",
        "guideLayer": "QUEST_GUIDE_LAYER_SCENE",
        "MLAHIFLGIGJ": ""
      },
      "guideHint": {
        "param1": ""
      },
      "finishParent": true,
      "isRewind": true,
      "finishExec": [
        {
          "damageRatio": "QUEST_EXEC_NOTIFY_DAILY_TASK",
          "param": [
            "24802"
          ]
        }
      ],
      "versionBegin": "",
      "versionEnd": ""
    }
  ],
  "talks": [
    {
      "id": 2051601,
      "beginWay": "TALK_BEGIN_MANUAL",
      "activeMode": "PLAY_MODE_ALL",
      "beginCond": [
        {
          "type": "QUEST_COND_STATE_EQUAL",
          "_param": [
            "2051601",
            "2"
          ]
        }
      ],
      "priority": 5,
      "initDialog": 205160101,
      "npcId": [
        1408
      ],
      "performCfg": "",
      "questId": 20516,
      "assetIndex": 2937401580223102326,
      "prePerformCfg": ""
    },
    {
      "id": 2051602,
      "beginWay": "TALK_BEGIN_MANUAL",
      "activeMode": "PLAY_MODE_ALL",
      "beginCond": [
        {
          "type": "QUEST_COND_STATE_EQUAL",
          "_param": [
            "2051602",
            "2"
          ]
        }
      ],
      "priority": 5,
      "initDialog": 205160201,
      "npcId": [
        1405
      ],
      "performCfg": "",
      "questId": 20516,
      "assetIndex": 17020576281677717744,
      "prePerformCfg": ""
    },
    {
      "id": 2051603,
      "beginWay": "TALK_BEGIN_MANUAL",
      "activeMode": "PLAY_MODE_ALL",
      "beginCond": [
        {
          "type": "QUEST_COND_STATE_EQUAL",
          "_param": [
            "2051603",
            "2"
          ]
        }
      ],
      "priority": 5,
      "initDialog": 205160301,
      "npcId": [
        1408
      ],
      "performCfg": "",
      "questId": 20516,
      "assetIndex": 3663444476930800660,
      "prePerformCfg": ""
    },
    {
      "id": 2051604,
      "beginWay": "TALK_BEGIN_MANUAL",
      "activeMode": "PLAY_MODE_ALL",
      "beginCond": [
        {
          "type": "QUEST_COND_STATE_EQUAL",
          "_param": [
            "2051604",
            "2"
          ]
        }
      ],
      "priority": 5,
      "initDialog": 205160401,
      "npcId": [
        1429
      ],
      "performCfg": "",
      "questId": 20516,
      "assetIndex": 5321758981936778626,
      "prePerformCfg": ""
    },
    {
      "id": 2051605,
      "beginWay": "TALK_BEGIN_MANUAL",
      "activeMode": "PLAY_MODE_ALL",
      "beginCond": [
        {
          "type": "QUEST_COND_STATE_EQUAL",
          "_param": [
            "2051605",
            "2"
          ]
        }
      ],
      "priority": 5,
      "initDialog": 205160501,
      "npcId": [
        1405
      ],
      "performCfg": "",
      "questId": 20516,
      "assetIndex": 15111208123445659803,
      "prePerformCfg": ""
    },
    {
      "id": 2051606,
      "beginWay": "TALK_BEGIN_MANUAL",
      "activeMode": "PLAY_MODE_ALL",
      "beginCond": [
        {
          "type": "QUEST_COND_STATE_EQUAL",
          "_param": [
            "2051606",
            "2"
          ]
        }
      ],
      "priority": 5,
      "initDialog": 205160601,
      "npcId": [
        1408
      ],
      "performCfg": "",
      "questId": 20516,
      "assetIndex": 4593147982287432578,
      "prePerformCfg": ""
    },
    {
      "id": 2051607,
      "beginWay": "TALK_BEGIN_MANUAL",
      "activeMode": "PLAY_MODE_ALL",
      "beginCondComb": "LOGIC_OR",
      "beginCond": [
        {
          "type": "QUEST_COND_STATE_EQUAL",
          "_param": [
            "2051604",
            "2"
          ]
        },
        {
          "type": "QUEST_COND_STATE_EQUAL",
          "_param": [
            "2051605",
            "2"
          ]
        }
      ],
      "priority": 5,
      "initDialog": 205160701,
      "npcId": [
        1408
      ],
      "performCfg": "",
      "questId": 20516,
      "assetIndex": 14718499253719264260,
      "prePerformCfg": "",
      "lowPriority": true
    },
    {
      "id": 2051608,
      "beginWay": "TALK_BEGIN_MANUAL",
      "activeMode": "PLAY_MODE_ALL",
      "beginCondComb": "LOGIC_OR",
      "beginCond": [
        {
          "type": "QUEST_COND_STATE_EQUAL",
          "_param": [
            "2051601",
            "2"
          ]
        },
        {
          "type": "QUEST_COND_STATE_EQUAL",
          "_param": [
            "2051603",
            "2"
          ]
        },
        {
          "type": "QUEST_COND_STATE_EQUAL",
          "_param": [
            "2051606",
            "2"
          ]
        }
      ],
      "priority": 5,
      "initDialog": 205160801,
      "npcId": [
        1405
      ],
      "performCfg": "",
      "questId": 20516,
      "assetIndex": 17864828165798448924,
      "prePerformCfg": ""
    },
    {
      "id": 2051609,
      "beginWay": "TALK_BEGIN_MANUAL",
      "activeMode": "PLAY_MODE_ALL",
      "beginCondComb": "LOGIC_OR",
      "beginCond": [
        {
          "type": "QUEST_COND_STATE_EQUAL",
          "_param": [
            "2051605",
            "2"
          ]
        },
        {
          "type": "QUEST_COND_STATE_EQUAL",
          "_param": [
            "2051606",
            "2"
          ]
        }
      ],
      "priority": 5,
      "initDialog": 205160901,
      "npcId": [
        1429
      ],
      "performCfg": "",
      "questId": 20516,
      "assetIndex": 8734148819470705132,
      "prePerformCfg": ""
    }
  ]
}