{
  "id": 20601,
  "damageRatio": "WQ",
  "descTextMapHash": 1117430783,
  "EKEKACCODOE": 2701432350,
  "luaPath": "Actor/Quest/WQ20601",
  "rewardIdList": [
    120601
  ],
  "subQuests": [
    {
      "subId": 2060101,
      "mainId": 20601,
      "order": 1,
      "descTextMapHash": 3858725644,
      "guide": {
        "damageRatio": "QUEST_GUIDE_NPC",
        "param": [
          "1409"
        ],
        "guideScene": 3,
        "guideStyle": "QUEST_GUIDE_STYLE_START",
        "guideLayer": "QUEST_GUIDE_LAYER_SCENE",
        "MLAHIFLGIGJ": ""
      },
      "guideHint": {
        "param1": ""
      },
      "isRewind": true,
      "versionBegin": "",
      "versionEnd": ""
    },
    {
      "subId": 2060102,
      "mainId": 20601,
      "order": 2,
      "descTextMapHash": 4106619612,
      "finishCond": [
        {
          "damageRatio": "QUEST_CONTENT_LUA_NOTIFY",
          "param": [
            0,
            0
          ],
          "count": 1
        }
      ],
      "guide": {
        "damageRatio": "QUEST_GUIDE_LOCATION",
        "param": [
          "Q20601CluePos",
          "30"
        ],
        "guideScene": 3,
        "guideStyle": "QUEST_GUIDE_STYLE_TARGET",
        "guideLayer": "QUEST_GUIDE_LAYER_SCENE",
        "MLAHIFLGIGJ": ""
      },
      "guideHint": {
        "param1": ""
      },
      "isRewind": true,
      "versionBegin": "",
      "versionEnd": ""
    },
    {
      "subId": 2060103,
      "mainId": 20601,
      "order": 3,
      "descTextMapHash": 3460045636,
      "finishCond": [
        {
          "damageRatio": "QUEST_CONTENT_LUA_NOTIFY",
          "param": [
            0,
            0
          ],
          "count": 1
        }
      ],
      "guide": {
        "damageRatio": "QUEST_GUIDE_LOCATION",
        "param": [
          "Q20601JackRescue",
          "50"
        ],
        "guideScene": 3,
        "guideStyle": "QUEST_GUIDE_STYLE_TARGET",
        "guideLayer": "QUEST_GUIDE_LAYER_SCENE",
        "MLAHIFLGIGJ": ""
      },
      "guideHint": {
        "param1": ""
      },
      "isRewind": true,
      "versionBegin": "",
      "versionEnd": ""
    },
    {
      "subId": 2060104,
      "mainId": 20601,
      "order": 4,
      "descTextMapHash": 785324292,
      "finishCond": [
        {
          "damageRatio": "QUEST_CONTENT_LUA_NOTIFY",
          "param": [
            0,
            0
          ],
          "count": 1
        }
      ],
      "guide": {
        "damageRatio": "QUEST_GUIDE_LOCATION",
        "param": [
          "Q20601JackRescue",
          "50"
        ],
        "guideScene": 3,
        "guideStyle": "QUEST_GUIDE_STYLE_TARGET",
        "guideLayer": "QUEST_GUIDE_LAYER_SCENE",
        "MLAHIFLGIGJ": ""
      },
      "guideHint": {
        "param1": ""
      },
      "versionBegin": "",
      "versionEnd": ""
    },
    {
      "subId": 2060105,
      "mainId": 20601,
      "order": 5,
      "descTextMapHash": 1317918148,
      "finishCond": [
        {
          "damageRatio": "QUEST_CONTENT_COMPLETE_TALK",
          "param": [
            2060105,
            0
          ]
        }
      ],
      "guide": {
        "damageRatio": "QUEST_GUIDE_NPC",
        "param": [
          "1413"
        ],
        "guideScene": 3,
        "guideStyle": "QUEST_GUIDE_STYLE_TARGET",
        "guideLayer": "QUEST_GUIDE_LAYER_SCENE",
        "MLAHIFLGIGJ": ""
      },
      "guideHint": {
        "param1": ""
      },
      "isRewind": true,
      "versionBegin": "",
      "versionEnd": ""
    },
    {
      "subId": 2060106,
      "mainId": 20601,
      "order": 6,
      "descTextMapHash": 2782506492,
      "finishCond": [
        {
          "damageRatio": "QUEST_CONTENT_LUA_NOTIFY",
          "param": [
            0,
            0
          ],
          "count": 1
        }
      ],
      "guide": {
        "damageRatio": "QUEST_GUIDE_LOCATION",
        "param": [
          "Q20601CampPos",
          "50"
        ],
        "guideScene": 3,
        "guideStyle": "QUEST_GUIDE_STYLE_TARGET",
        "guideLayer": "QUEST_GUIDE_LAYER_SCENE",
        "MLAHIFLGIGJ": ""
      },
      "guideHint": {
        "param1": ""
      },
      "isRewind": true,
      "versionBegin": "",
      "versionEnd": ""
    },
    {
      "subId": 2060107,
      "mainId": 20601,
      "order": 7,
      "descTextMapHash": 1086454612,
      "finishCond": [
        {
          "damageRatio": "QUEST_CONTENT_COMPLETE_TALK",
          "param": [
            2060107,
            0
          ]
        }
      ],
      "failCond": [
        {
          "damageRatio": "QUEST_CONTENT_COMPLETE_TALK",
          "param": [
            2060106,
            0
          ]
        }
      ],
      "guide": {
        "damageRatio": "QUEST_GUIDE_NPC",
        "param": [
          "1409"
        ],
        "guideScene": 3,
        "guideStyle": "QUEST_GUIDE_STYLE_FINISH",
        "guideLayer": "QUEST_GUIDE_LAYER_SCENE",
        "MLAHIFLGIGJ": ""
      },
      "guideHint": {
        "param1": ""
      },
      "finishParent": true,
      "failParentShow": "QUEST_HIDDEN",
      "isRewind": true,
      "versionBegin": "",
      "versionEnd": ""
    },
    {
      "subId": 2060108,
      "mainId": 20601,
      "order": 8,
      "descTextMapHash": 96121988,
      "showType": "QUEST_HIDDEN",
      "finishCond": [
        {
          "damageRatio": "QUEST_CONTENT_COMPLETE_TALK",
          "param": [
            2060106,
            0
          ]
        }
      ],
      "failCond": [
        {
          "damageRatio": "QUEST_CONTENT_COMPLETE_TALK",
          "param": [
            2060107,
            0
          ]
        }
      ],
      "guide": {
        "MLAHIFLGIGJ": ""
      },
      "showGuide": "QUEST_GUIDE_ITEM_DISABLE",
      "guideHint": {
        "param1": ""
      },
      "failParentShow": "QUEST_HIDDEN",
      "isRewind": true,
      "versionBegin": "",
      "versionEnd": ""
    },
    {
      "subId": 2060109,
      "mainId": 20601,
      "order": 9,
      "descTextMapHash": 1928409348,
      "finishCond": [
        {
          "damageRatio": "QUEST_CONTENT_COMPLETE_TALK",
          "param": [
            2060108,
            0
          ]
        }
      ],
      "guide": {
        "damageRatio": "QUEST_GUIDE_NPC",
        "param": [
          "1409"
        ],
        "guideScene": 3,
        "guideStyle": "QUEST_GUIDE_STYLE_FINISH",
        "guideLayer": "QUEST_GUIDE_LAYER_SCENE",
        "MLAHIFLGIGJ": ""
      },
      "guideHint": {
        "param1": ""
      },
      "finishParent": true,
      "isRewind": true,
      "versionBegin": "",
      "versionEnd": ""
    }
  ],
  "talks": [
    {
      "id": 2060104,
      "beginWay": "TALK_BEGIN_MANUAL",
      "beginCondComb": "LOGIC_AND",
      "beginCond": [
        {
          "type": "QUEST_COND_STATE_EQUAL",
          "_param": [
            "2060101",
            "3"
          ]
        },
        {
          "type": "QUEST_COND_QUEST_NOT_RECEIVE",
          "_param": [
            "2060107",
            "1"
          ]
        }
      ],
      "priority": 5,
      "initDialog": 206010401,
      "npcId": [
        1409
      ],
      "performCfg": "",
      "heroTalk": "TALK_HERO_MAIN",
      "questId": 20601,
      "assetIndex": 17102668485548754406,
      "prePerformCfg": ""
    },
    {
      "id": 2060105,
      "beginWay": "TALK_BEGIN_MANUAL",
      "beginCondComb": "LOGIC_AND",
      "beginCond": [
        {
          "type": "QUEST_COND_STATE_EQUAL",
          "_param": [
            "2060105",
            "2"
          ]
        }
      ],
      "priority": 5,
      "initDialog": 206010501,
      "npcId": [
        1413
      ],
      "performCfg": "",
      "heroTalk": "TALK_HERO_MAIN",
      "questId": 20601,
      "assetIndex": 10793014841009375019,
      "prePerformCfg": ""
    },
    {
      "id": 2060106,
      "beginWay": "TALK_BEGIN_MANUAL",
      "beginCond": [
        {
          "type": "QUEST_COND_STATE_EQUAL",
          "_param": [
            "2060108",
            "2"
          ]
        }
      ],
      "priority": 5,
      "initDialog": 206010601,
      "npcId": [
        1413
      ],
      "performCfg": "",
      "heroTalk": "TALK_HERO_MAIN",
      "questId": 20601,
      "assetIndex": 1529828912184070150,
      "prePerformCfg": ""
    },
    {
      "id": 2060107,
      "beginWay": "TALK_BEGIN_MANUAL",
      "beginCondComb": "LOGIC_AND",
      "beginCond": [
        {
          "type": "QUEST_COND_STATE_EQUAL",
          "_param": [
            "2060108",
            "2"
          ]
        }
      ],
      "priority": 5,
      "initDialog": 206010701,
      "npcId": [
        1409
      ],
      "performCfg": "",
      "heroTalk": "TALK_HERO_MAIN",
      "questId": 20601,
      "assetIndex": 17897626608735758967,
      "prePerformCfg": ""
    },
    {
      "id": 2060108,
      "beginWay": "TALK_BEGIN_MANUAL",
      "beginCondComb": "LOGIC_AND",
      "beginCond": [
        {
          "type": "QUEST_COND_STATE_EQUAL",
          "_param": [
            "2060109",
            "2"
          ]
        }
      ],
      "priority": 5,
      "initDialog": 206010801,
      "npcId": [
        1409
      ],
      "performCfg": "",
      "heroTalk": "TALK_HERO_MAIN",
      "questId": 20601,
      "assetIndex": 2699621063707948560,
      "prePerformCfg": ""
    },
    {
      "id": 2060109,
      "beginWay": "TALK_BEGIN_MANUAL",
      "beginCond": [
        {
          "type": "QUEST_COND_STATE_EQUAL",
          "_param": [
            "2060109",
            "2"
          ]
        }
      ],
      "priority": 5,
      "initDialog": 206011001,
      "npcId": [
        1413
      ],
      "performCfg": "",
      "heroTalk": "TALK_HERO_MAIN",
      "questId": 20601,
      "assetIndex": 11285666307674743099,
      "prePerformCfg": ""
    }
  ],
  "freeStyleDic": {
    "1413": [
      4190,
      1300,
      1160
    ]
  }
}