{
  "id": 20702,
  "damageRatio": "IQ",
  "activeMode": "PLAY_MODE_ALL",
  "descTextMapHash": 3580628351,
  "EKEKACCODOE": 3461775254,
  "luaPath": "Actor/Quest/IQ20702",
  "repeatable": true,
  "rewardIdList": [
    500135,
    500136,
    500137
  ],
  "taskID": 24500,
  "subQuests": [
    {
      "subId": 2070201,
      "mainId": 20702,
      "order": 1,
      "descTextMapHash": 3578118052,
      "finishCond": [
        {
          "damageRatio": "QUEST_CONTENT_COMPLETE_TALK",
          "param": [
            2070202,
            0
          ]
        }
      ],
      "guide": {
        "damageRatio": "QUEST_GUIDE_NPC",
        "param": [
          "1437"
        ],
        "guideScene": 3,
        "guideStyle": "QUEST_GUIDE_STYLE_START",
        "guideLayer": "QUEST_GUIDE_LAYER_SCENE",
        "MLAHIFLGIGJ": ""
      },
      "guideHint": {
        "param1": ""
      },
      "isRewind": true,
      "versionBegin": "",
      "versionEnd": ""
    },
    {
      "subId": 2070202,
      "mainId": 20702,
      "order": 2,
      "descTextMapHash": 1648170644,
      "stepDescTextMapHash": 1850211581,
      "finishCond": [
        {
          "damageRatio": "QUEST_CONTENT_COMPLETE_TALK",
          "param": [
            2070291,
            0
          ]
        },
        {
          "damageRatio": "QUEST_CONTENT_COMPLETE_TALK",
          "param": [
            2070292,
            0
          ]
        },
        {
          "damageRatio": "QUEST_CONTENT_COMPLETE_TALK",
          "param": [
            2070294,
            0
          ]
        }
      ],
      "failCond": [
        {
          "damageRatio": "QUEST_CONTENT_COMPLETE_TALK",
          "param": [
            2070293,
            0
          ]
        }
      ],
      "guide": {
        "damageRatio": "QUEST_GUIDE_NPC",
        "param": [
          "1437"
        ],
        "guideScene": 3,
        "guideStyle": "QUEST_GUIDE_STYLE_TARGET",
        "guideLayer": "QUEST_GUIDE_LAYER_SCENE",
        "MLAHIFLGIGJ": ""
      },
      "guideHint": {
        "param1": ""
      },
      "finishParent": true,
      "isRewind": true,
      "finishExec": [
        {
          "damageRatio": "QUEST_EXEC_NOTIFY_DAILY_TASK",
          "param": [
            "24500"
          ]
        }
      ],
      "failExec": [
        {
          "damageRatio": "QUEST_EXEC_ROLLBACK_QUEST",
          "param": [
            "2070202"
          ]
        }
      ],
      "versionBegin": "",
      "versionEnd": ""
    },
    {
      "subId": 2070203,
      "mainId": 20702,
      "order": 3,
      "stepDescTextMapHash": 1214196181,
      "showType": "QUEST_HIDDEN",
      "finishCond": [
        {
          "damageRatio": "QUEST_CONTENT_COMPLETE_TALK",
          "param": [
            2070213,
            0
          ]
        }
      ],
      "failCond": [
        {
          "damageRatio": "QUEST_CONTENT_COMPLETE_TALK",
          "param": [
            2070211,
            0
          ]
        },
        {
          "damageRatio": "QUEST_CONTENT_COMPLETE_TALK",
          "param": [
            2070212,
            0
          ]
        }
      ],
      "guide": {
        "damageRatio": "QUEST_GUIDE_NPC",
        "param": [
          "1437"
        ],
        "guideScene": 3,
        "guideStyle": "QUEST_GUIDE_STYLE_TARGET",
        "guideLayer": "QUEST_GUIDE_LAYER_SCENE",
        "MLAHIFLGIGJ": ""
      },
      "showGuide": "QUEST_GUIDE_ITEM_DISABLE",
      "guideHint": {
        "param1": ""
      },
      "versionBegin": "",
      "versionEnd": ""
    },
    {
      "subId": 2070204,
      "mainId": 20702,
      "order": 4,
      "stepDescTextMapHash": 396703157,
      "showType": "QUEST_HIDDEN",
      "finishCond": [
        {
          "damageRatio": "QUEST_CONTENT_COMPLETE_TALK",
          "param": [
            2070222,
            0
          ]
        }
      ],
      "failCond": [
        {
          "damageRatio": "QUEST_CONTENT_COMPLETE_TALK",
          "param": [
            2070221,
            0
          ]
        },
        {
          "damageRatio": "QUEST_CONTENT_COMPLETE_TALK",
          "param": [
            2070223,
            0
          ]
        }
      ],
      "guide": {
        "damageRatio": "QUEST_GUIDE_NPC",
        "param": [
          "1437"
        ],
        "guideScene": 3,
        "guideStyle": "QUEST_GUIDE_STYLE_TARGET",
        "guideLayer": "QUEST_GUIDE_LAYER_SCENE",
        "MLAHIFLGIGJ": ""
      },
      "showGuide": "QUEST_GUIDE_ITEM_DISABLE",
      "guideHint": {
        "param1": ""
      },
      "versionBegin": "",
      "versionEnd": ""
    },
    {
      "subId": 2070205,
      "mainId": 20702,
      "order": 5,
      "stepDescTextMapHash": 3111222645,
      "showType": "QUEST_HIDDEN",
      "finishCond": [
        {
          "damageRatio": "QUEST_CONTENT_COMPLETE_TALK",
          "param": [
            2070232,
            0
          ]
        }
      ],
      "failCond": [
        {
          "damageRatio": "QUEST_CONTENT_COMPLETE_TALK",
          "param": [
            2070231,
            0
          ]
        },
        {
          "damageRatio": "QUEST_CONTENT_COMPLETE_TALK",
          "param": [
            2070233,
            0
          ]
        }
      ],
      "guide": {
        "damageRatio": "QUEST_GUIDE_NPC",
        "param": [
          "1437"
        ],
        "guideScene": 3,
        "guideStyle": "QUEST_GUIDE_STYLE_TARGET",
        "guideLayer": "QUEST_GUIDE_LAYER_SCENE",
        "MLAHIFLGIGJ": ""
      },
      "showGuide": "QUEST_GUIDE_ITEM_DISABLE",
      "guideHint": {
        "param1": ""
      },
      "versionBegin": "",
      "versionEnd": ""
    },
    {
      "subId": 2070206,
      "mainId": 20702,
      "order": 6,
      "stepDescTextMapHash": 3899582237,
      "showType": "QUEST_HIDDEN",
      "finishCond": [
        {
          "damageRatio": "QUEST_CONTENT_QUEST_VAR_EQUAL",
          "param": [
            1,
            1
          ]
        },
        {
          "damageRatio": "QUEST_CONTENT_QUEST_VAR_EQUAL",
          "param": [
            2,
            1
          ]
        },
        {
          "damageRatio": "QUEST_CONTENT_QUEST_VAR_EQUAL",
          "param": [
            3,
            1
          ]
        }
      ],
      "guide": {
        "damageRatio": "QUEST_GUIDE_NPC",
        "param": [
          "1437"
        ],
        "guideScene": 3,
        "guideStyle": "QUEST_GUIDE_STYLE_TARGET",
        "guideLayer": "QUEST_GUIDE_LAYER_SCENE",
        "MLAHIFLGIGJ": ""
      },
      "showGuide": "QUEST_GUIDE_ITEM_DISABLE",
      "guideHint": {
        "param1": ""
      },
      "finishExec": [
        {
          "damageRatio": "QUEST_EXEC_UPDATE_PARENT_QUEST_REWARD_INDEX",
          "param": [
            "0"
          ]
        }
      ],
      "versionBegin": "",
      "versionEnd": ""
    },
    {
      "subId": 2070207,
      "mainId": 20702,
      "order": 7,
      "stepDescTextMapHash": 1385425669,
      "showType": "QUEST_HIDDEN",
      "finishCond": [
        {
          "damageRatio": "QUEST_CONTENT_QUEST_VAR_EQUAL",
          "param": [
            1,
            2
          ]
        },
        {
          "damageRatio": "QUEST_CONTENT_QUEST_VAR_EQUAL",
          "param": [
            2,
            2
          ]
        },
        {
          "damageRatio": "QUEST_CONTENT_QUEST_VAR_EQUAL",
          "param": [
            3,
            2
          ]
        }
      ],
      "guide": {
        "damageRatio": "QUEST_GUIDE_NPC",
        "param": [
          "1437"
        ],
        "guideScene": 3,
        "guideStyle": "QUEST_GUIDE_STYLE_TARGET",
        "guideLayer": "QUEST_GUIDE_LAYER_SCENE",
        "MLAHIFLGIGJ": ""
      },
      "showGuide": "QUEST_GUIDE_ITEM_DISABLE",
      "guideHint": {
        "param1": ""
      },
      "versionBegin": "",
      "versionEnd": ""
    },
    {
      "subId": 2070208,
      "mainId": 20702,
      "order": 8,
      "stepDescTextMapHash": 3499945909,
      "showType": "QUEST_HIDDEN",
      "finishCond": [
        {
          "damageRatio": "QUEST_CONTENT_QUEST_VAR_EQUAL",
          "param": [
            1,
            1
          ]
        },
        {
          "damageRatio": "QUEST_CONTENT_QUEST_VAR_EQUAL",
          "param": [
            2,
            1
          ]
        },
        {
          "damageRatio": "QUEST_CONTENT_QUEST_VAR_EQUAL",
          "param": [
            3,
            2
          ]
        }
      ],
      "guide": {
        "damageRatio": "QUEST_GUIDE_NPC",
        "param": [
          "1437"
        ],
        "guideScene": 3,
        "guideStyle": "QUEST_GUIDE_STYLE_TARGET",
        "guideLayer": "QUEST_GUIDE_LAYER_SCENE",
        "MLAHIFLGIGJ": ""
      },
      "showGuide": "QUEST_GUIDE_ITEM_DISABLE",
      "guideHint": {
        "param1": ""
      },
      "finishExec": [
        {
          "damageRatio": "QUEST_EXEC_UPDATE_PARENT_QUEST_REWARD_INDEX",
          "param": [
            "1"
          ]
        }
      ],
      "versionBegin": "",
      "versionEnd": ""
    },
    {
      "subId": 2070209,
      "mainId": 20702,
      "order": 9,
      "stepDescTextMapHash": 614571781,
      "showType": "QUEST_HIDDEN",
      "finishCond": [
        {
          "damageRatio": "QUEST_CONTENT_QUEST_VAR_EQUAL",
          "param": [
            1,
            1
          ]
        },
        {
          "damageRatio": "QUEST_CONTENT_QUEST_VAR_EQUAL",
          "param": [
            2,
            2
          ]
        },
        {
          "damageRatio": "QUEST_CONTENT_QUEST_VAR_EQUAL",
          "param": [
            3,
            1
          ]
        }
      ],
      "guide": {
        "damageRatio": "QUEST_GUIDE_NPC",
        "param": [
          "1437"
        ],
        "guideScene": 3,
        "guideStyle": "QUEST_GUIDE_STYLE_TARGET",
        "guideLayer": "QUEST_GUIDE_LAYER_SCENE",
        "MLAHIFLGIGJ": ""
      },
      "showGuide": "QUEST_GUIDE_ITEM_DISABLE",
      "guideHint": {
        "param1": ""
      },
      "finishExec": [
        {
          "damageRatio": "QUEST_EXEC_UPDATE_PARENT_QUEST_REWARD_INDEX",
          "param": [
            "1"
          ]
        }
      ],
      "versionBegin": "",
      "versionEnd": ""
    },
    {
      "subId": 2070210,
      "mainId": 20702,
      "order": 10,
      "stepDescTextMapHash": 355282765,
      "showType": "QUEST_HIDDEN",
      "finishCond": [
        {
          "damageRatio": "QUEST_CONTENT_QUEST_VAR_EQUAL",
          "param": [
            1,
            2
          ]
        },
        {
          "damageRatio": "QUEST_CONTENT_QUEST_VAR_EQUAL",
          "param": [
            2,
            1
          ]
        },
        {
          "damageRatio": "QUEST_CONTENT_QUEST_VAR_EQUAL",
          "param": [
            3,
            1
          ]
        }
      ],
      "guide": {
        "damageRatio": "QUEST_GUIDE_NPC",
        "param": [
          "1437"
        ],
        "guideScene": 3,
        "guideStyle": "QUEST_GUIDE_STYLE_TARGET",
        "guideLayer": "QUEST_GUIDE_LAYER_SCENE",
        "MLAHIFLGIGJ": ""
      },
      "showGuide": "QUEST_GUIDE_ITEM_DISABLE",
      "guideHint": {
        "param1": ""
      },
      "finishExec": [
        {
          "damageRatio": "QUEST_EXEC_UPDATE_PARENT_QUEST_REWARD_INDEX",
          "param": [
            "1"
          ]
        }
      ],
      "versionBegin": "",
      "versionEnd": ""
    },
    {
      "subId": 2070211,
      "mainId": 20702,
      "order": 11,
      "stepDescTextMapHash": 2178531285,
      "showType": "QUEST_HIDDEN",
      "finishCond": [
        {
          "damageRatio": "QUEST_CONTENT_QUEST_VAR_EQUAL",
          "param": [
            1,
            1
          ]
        },
        {
          "damageRatio": "QUEST_CONTENT_QUEST_VAR_EQUAL",
          "param": [
            2,
            2
          ]
        },
        {
          "damageRatio": "QUEST_CONTENT_QUEST_VAR_EQUAL",
          "param": [
            3,
            2
          ]
        }
      ],
      "guide": {
        "damageRatio": "QUEST_GUIDE_NPC",
        "param": [
          "1437"
        ],
        "guideScene": 3,
        "guideStyle": "QUEST_GUIDE_STYLE_TARGET",
        "guideLayer": "QUEST_GUIDE_LAYER_SCENE",
        "MLAHIFLGIGJ": ""
      },
      "showGuide": "QUEST_GUIDE_ITEM_DISABLE",
      "guideHint": {
        "param1": ""
      },
      "finishExec": [
        {
          "damageRatio": "QUEST_EXEC_UPDATE_PARENT_QUEST_REWARD_INDEX",
          "param": [
            "2"
          ]
        }
      ],
      "versionBegin": "",
      "versionEnd": ""
    },
    {
      "subId": 2070212,
      "mainId": 20702,
      "order": 12,
      "stepDescTextMapHash": 1311401237,
      "showType": "QUEST_HIDDEN",
      "finishCond": [
        {
          "damageRatio": "QUEST_CONTENT_QUEST_VAR_EQUAL",
          "param": [
            1,
            2
          ]
        },
        {
          "damageRatio": "QUEST_CONTENT_QUEST_VAR_EQUAL",
          "param": [
            2,
            1
          ]
        },
        {
          "damageRatio": "QUEST_CONTENT_QUEST_VAR_EQUAL",
          "param": [
            3,
            2
          ]
        }
      ],
      "guide": {
        "damageRatio": "QUEST_GUIDE_NPC",
        "param": [
          "1437"
        ],
        "guideScene": 3,
        "guideStyle": "QUEST_GUIDE_STYLE_TARGET",
        "guideLayer": "QUEST_GUIDE_LAYER_SCENE",
        "MLAHIFLGIGJ": ""
      },
      "showGuide": "QUEST_GUIDE_ITEM_DISABLE",
      "guideHint": {
        "param1": ""
      },
      "finishExec": [
        {
          "damageRatio": "QUEST_EXEC_UPDATE_PARENT_QUEST_REWARD_INDEX",
          "param": [
            "2"
          ]
        }
      ],
      "versionBegin": "",
      "versionEnd": ""
    },
    {
      "subId": 2070213,
      "mainId": 20702,
      "order": 13,
      "stepDescTextMapHash": 2522285277,
      "showType": "QUEST_HIDDEN",
      "finishCond": [
        {
          "damageRatio": "QUEST_CONTENT_QUEST_VAR_EQUAL",
          "param": [
            1,
            2
          ]
        },
        {
          "damageRatio": "QUEST_CONTENT_QUEST_VAR_EQUAL",
          "param": [
            2,
            2
          ]
        },
        {
          "damageRatio": "QUEST_CONTENT_QUEST_VAR_EQUAL",
          "param": [
            3,
            1
          ]
        }
      ],
      "guide": {
        "damageRatio": "QUEST_GUIDE_NPC",
        "param": [
          "1437"
        ],
        "guideScene": 3,
        "guideStyle": "QUEST_GUIDE_STYLE_TARGET",
        "guideLayer": "QUEST_GUIDE_LAYER_SCENE",
        "MLAHIFLGIGJ": ""
      },
      "showGuide": "QUEST_GUIDE_ITEM_DISABLE",
      "guideHint": {
        "param1": ""
      },
      "finishExec": [
        {
          "damageRatio": "QUEST_EXEC_UPDATE_PARENT_QUEST_REWARD_INDEX",
          "param": [
            "2"
          ]
        }
      ],
      "versionBegin": "",
      "versionEnd": ""
    },
    {
      "subId": 2070214,
      "mainId": 20702,
      "order": 14,
      "stepDescTextMapHash": 449829757,
      "showType": "QUEST_HIDDEN",
      "finishCond": [
        {
          "damageRatio": "QUEST_CONTENT_ADD_QUEST_PROGRESS",
          "param": [
            2070214,
            0
          ],
          "count": 3
        }
      ],
      "guide": {
        "damageRatio": "QUEST_GUIDE_NPC",
        "param": [
          "1437"
        ],
        "guideScene": 3,
        "guideStyle": "QUEST_GUIDE_STYLE_TARGET",
        "guideLayer": "QUEST_GUIDE_LAYER_SCENE",
        "MLAHIFLGIGJ": ""
      },
      "showGuide": "QUEST_GUIDE_ITEM_DISABLE",
      "guideHint": {
        "param1": ""
      },
      "versionBegin": "",
      "versionEnd": ""
    }
  ],
  "talks": [
    {
      "id": 2070201,
      "beginWay": "TALK_BEGIN_MANUAL",
      "activeMode": "PLAY_MODE_ALL",
      "beginCondComb": "LOGIC_AND",
      "beginCond": [
        {
          "type": "QUEST_COND_STATE_EQUAL",
          "_param": [
            "2070201",
            "2"
          ]
        }
      ],
      "priority": 5,
      "nextTalks": [
        2070202,
        2070203
      ],
      "initDialog": 207020101,
      "npcId": [
        1437
      ],
      "performCfg": "",
      "questId": 20702,
      "assetIndex": 12865241268785773631,
      "prePerformCfg": ""
    },
    {
      "id": 2070202,
      "activeMode": "PLAY_MODE_ALL",
      "beginCondComb": "LOGIC_AND",
      "beginCond": [
        {
          "type": "QUEST_COND_STATE_EQUAL",
          "_param": [
            "2070201",
            "2"
          ]
        }
      ],
      "priority": 5,
      "initDialog": 207020201,
      "npcId": [
        1437
      ],
      "performCfg": "",
      "questId": 20702,
      "assetIndex": 13670181781663862033,
      "prePerformCfg": ""
    },
    {
      "id": 2070203,
      "activeMode": "PLAY_MODE_ALL",
      "beginCondComb": "LOGIC_AND",
      "beginCond": [
        {
          "type": "QUEST_COND_STATE_EQUAL",
          "_param": [
            "2070201",
            "2"
          ]
        }
      ],
      "priority": 5,
      "initDialog": 207020301,
      "npcId": [
        1437
      ],
      "performCfg": "",
      "questId": 20702,
      "assetIndex": 8173946340520673544,
      "prePerformCfg": ""
    },
    {
      "id": 2070210,
      "beginWay": "TALK_BEGIN_MANUAL",
      "activeMode": "PLAY_MODE_ALL",
      "beginCondComb": "LOGIC_AND",
      "beginCond": [
        {
          "type": "QUEST_COND_STATE_EQUAL",
          "_param": [
            "2070202",
            "2"
          ]
        }
      ],
      "priority": 5,
      "nextTalks": [
        2070211,
        2070212,
        2070213
      ],
      "initDialog": 207021001,
      "npcId": [
        1437
      ],
      "performCfg": "",
      "questId": 20702,
      "assetIndex": 13505446743625963701,
      "prePerformCfg": ""
    },
    {
      "id": 2070211,
      "activeMode": "PLAY_MODE_ALL",
      "beginCondComb": "LOGIC_AND",
      "beginCond": [
        {
          "type": "QUEST_COND_STATE_EQUAL",
          "_param": [
            "2070202",
            "2"
          ]
        }
      ],
      "priority": 5,
      "nextTalks": [
        2070215
      ],
      "initDialog": 207021101,
      "npcId": [
        1437
      ],
      "performCfg": "",
      "questId": 20702,
      "assetIndex": 8036366438934681330,
      "prePerformCfg": ""
    },
    {
      "id": 2070212,
      "activeMode": "PLAY_MODE_ALL",
      "beginCondComb": "LOGIC_AND",
      "beginCond": [
        {
          "type": "QUEST_COND_STATE_EQUAL",
          "_param": [
            "2070202",
            "2"
          ]
        }
      ],
      "priority": 5,
      "nextTalks": [
        2070215
      ],
      "initDialog": 207021201,
      "npcId": [
        1437
      ],
      "performCfg": "",
      "questId": 20702,
      "assetIndex": 8838409000777009079,
      "prePerformCfg": ""
    },
    {
      "id": 2070213,
      "activeMode": "PLAY_MODE_ALL",
      "beginCondComb": "LOGIC_AND",
      "beginCond": [
        {
          "type": "QUEST_COND_STATE_EQUAL",
          "_param": [
            "2070202",
            "2"
          ]
        }
      ],
      "priority": 5,
      "nextTalks": [
        2070214
      ],
      "initDialog": 207021301,
      "npcId": [
        1437
      ],
      "performCfg": "",
      "questId": 20702,
      "assetIndex": 6572238225737815609,
      "prePerformCfg": ""
    },
    {
      "id": 2070214,
      "activeMode": "PLAY_MODE_ALL",
      "beginCondComb": "LOGIC_AND",
      "beginCond": [
        {
          "type": "QUEST_COND_STATE_EQUAL",
          "_param": [
            "2070202",
            "2"
          ]
        }
      ],
      "priority": 5,
      "nextTalks": [
        2070220
      ],
      "initDialog": 207021401,
      "npcId": [
        1437
      ],
      "performCfg": "",
      "questId": 20702,
      "assetIndex": 9999342959543707590,
      "prePerformCfg": ""
    },
    {
      "id": 2070215,
      "activeMode": "PLAY_MODE_ALL",
      "beginCondComb": "LOGIC_AND",
      "beginCond": [
        {
          "type": "QUEST_COND_STATE_EQUAL",
          "_param": [
            "2070202",
            "2"
          ]
        }
      ],
      "priority": 5,
      "nextTalks": [
        2070220
      ],
      "initDialog": 207021501,
      "npcId": [
        1437
      ],
      "performCfg": "",
      "questId": 20702,
      "assetIndex": 11323289016243790167,
      "prePerformCfg": ""
    },
    {
      "id": 2070220,
      "activeMode": "PLAY_MODE_ALL",
      "beginCondComb": "LOGIC_AND",
      "beginCond": [
        {
          "type": "QUEST_COND_STATE_EQUAL",
          "_param": [
            "2070202",
            "2"
          ]
        }
      ],
      "priority": 5,
      "nextTalks": [
        2070221,
        2070222,
        2070223
      ],
      "initDialog": 207022001,
      "npcId": [
        1437
      ],
      "performCfg": "",
      "questId": 20702,
      "assetIndex": 11164586003594562642,
      "prePerformCfg": ""
    },
    {
      "id": 2070221,
      "activeMode": "PLAY_MODE_ALL",
      "beginCondComb": "LOGIC_AND",
      "beginCond": [
        {
          "type": "QUEST_COND_STATE_EQUAL",
          "_param": [
            "2070202",
            "2"
          ]
        }
      ],
      "priority": 5,
      "nextTalks": [
        2070225
      ],
      "initDialog": 207022101,
      "npcId": [
        1437
      ],
      "performCfg": "",
      "questId": 20702,
      "assetIndex": 14008301529856600344,
      "prePerformCfg": ""
    },
    {
      "id": 2070222,
      "activeMode": "PLAY_MODE_ALL",
      "beginCondComb": "LOGIC_AND",
      "beginCond": [
        {
          "type": "QUEST_COND_STATE_EQUAL",
          "_param": [
            "2070202",
            "2"
          ]
        }
      ],
      "priority": 5,
      "nextTalks": [
        2070224
      ],
      "initDialog": 207022201,
      "npcId": [
        1437
      ],
      "performCfg": "",
      "questId": 20702,
      "assetIndex": 2913743169251652237,
      "prePerformCfg": ""
    },
    {
      "id": 2070223,
      "activeMode": "PLAY_MODE_ALL",
      "beginCondComb": "LOGIC_AND",
      "beginCond": [
        {
          "type": "QUEST_COND_STATE_EQUAL",
          "_param": [
            "2070202",
            "2"
          ]
        }
      ],
      "priority": 5,
      "nextTalks": [
        2070225
      ],
      "initDialog": 207022301,
      "npcId": [
        1437
      ],
      "performCfg": "",
      "questId": 20702,
      "assetIndex": 7573652699228682204,
      "prePerformCfg": ""
    },
    {
      "id": 2070224,
      "activeMode": "PLAY_MODE_ALL",
      "beginCondComb": "LOGIC_AND",
      "beginCond": [
        {
          "type": "QUEST_COND_STATE_EQUAL",
          "_param": [
            "2070202",
            "2"
          ]
        }
      ],
      "priority": 5,
      "nextTalks": [
        2070230
      ],
      "initDialog": 207022401,
      "npcId": [
        1437
      ],
      "performCfg": "",
      "questId": 20702,
      "assetIndex": 10460358365638059332,
      "prePerformCfg": ""
    },
    {
      "id": 2070225,
      "activeMode": "PLAY_MODE_ALL",
      "beginCondComb": "LOGIC_AND",
      "beginCond": [
        {
          "type": "QUEST_COND_STATE_EQUAL",
          "_param": [
            "2070202",
            "2"
          ]
        }
      ],
      "priority": 5,
      "nextTalks": [
        2070230
      ],
      "initDialog": 207022501,
      "npcId": [
        1437
      ],
      "performCfg": "",
      "questId": 20702,
      "assetIndex": 1049705369625843844,
      "prePerformCfg": ""
    },
    {
      "id": 2070230,
      "activeMode": "PLAY_MODE_ALL",
      "beginCondComb": "LOGIC_AND",
      "beginCond": [
        {
          "type": "QUEST_COND_STATE_EQUAL",
          "_param": [
            "2070202",
            "2"
          ]
        }
      ],
      "priority": 5,
      "nextTalks": [
        2070231,
        2070232,
        2070233
      ],
      "initDialog": 207023001,
      "npcId": [
        1437
      ],
      "performCfg": "",
      "questId": 20702,
      "assetIndex": 6446925642135085249,
      "prePerformCfg": ""
    },
    {
      "id": 2070231,
      "activeMode": "PLAY_MODE_ALL",
      "beginCondComb": "LOGIC_AND",
      "beginCond": [
        {
          "type": "QUEST_COND_STATE_EQUAL",
          "_param": [
            "2070202",
            "2"
          ]
        }
      ],
      "priority": 5,
      "nextTalks": [
        2070235
      ],
      "initDialog": 207023101,
      "npcId": [
        1437
      ],
      "performCfg": "",
      "questId": 20702,
      "assetIndex": 17640231077428949629,
      "prePerformCfg": ""
    },
    {
      "id": 2070232,
      "activeMode": "PLAY_MODE_ALL",
      "beginCondComb": "LOGIC_AND",
      "beginCond": [
        {
          "type": "QUEST_COND_STATE_EQUAL",
          "_param": [
            "2070202",
            "2"
          ]
        }
      ],
      "priority": 5,
      "nextTalks": [
        2070234
      ],
      "initDialog": 207023201,
      "npcId": [
        1437
      ],
      "performCfg": "",
      "questId": 20702,
      "assetIndex": 4311238803798404880,
      "prePerformCfg": ""
    },
    {
      "id": 2070233,
      "activeMode": "PLAY_MODE_ALL",
      "beginCondComb": "LOGIC_AND",
      "beginCond": [
        {
          "type": "QUEST_COND_STATE_EQUAL",
          "_param": [
            "2070202",
            "2"
          ]
        }
      ],
      "priority": 5,
      "nextTalks": [
        2070235
      ],
      "initDialog": 207023301,
      "npcId": [
        1437
      ],
      "performCfg": "",
      "questId": 20702,
      "assetIndex": 1637810526041984038,
      "prePerformCfg": ""
    },
    {
      "id": 2070234,
      "activeMode": "PLAY_MODE_ALL",
      "beginCondComb": "LOGIC_AND",
      "beginCond": [
        {
          "type": "QUEST_COND_STATE_EQUAL",
          "_param": [
            "2070202",
            "2"
          ]
        }
      ],
      "priority": 5,
      "nextTalks": [
        2070290
      ],
      "initDialog": 207023401,
      "npcId": [
        1437
      ],
      "performCfg": "",
      "questId": 20702,
      "assetIndex": 12289037604022343254,
      "prePerformCfg": ""
    },
    {
      "id": 2070235,
      "activeMode": "PLAY_MODE_ALL",
      "beginCondComb": "LOGIC_AND",
      "beginCond": [
        {
          "type": "QUEST_COND_STATE_EQUAL",
          "_param": [
            "2070202",
            "2"
          ]
        }
      ],
      "priority": 5,
      "nextTalks": [
        2070290
      ],
      "initDialog": 207023501,
      "npcId": [
        1437
      ],
      "performCfg": "",
      "questId": 20702,
      "assetIndex": 11981309860347206929,
      "prePerformCfg": ""
    },
    {
      "id": 2070290,
      "activeMode": "PLAY_MODE_ALL",
      "beginCondComb": "LOGIC_AND",
      "beginCond": [
        {
          "type": "QUEST_COND_STATE_EQUAL",
          "_param": [
            "2070202",
            "2"
          ]
        }
      ],
      "priority": 5,
      "nextTalks": [
        2070291,
        2070292,
        2070293,
        2070294
      ],
      "initDialog": 207029001,
      "npcId": [
        1437
      ],
      "performCfg": "",
      "questId": 20702,
      "assetIndex": 11891828388565954017,
      "prePerformCfg": ""
    },
    {
      "id": 2070291,
      "activeMode": "PLAY_MODE_ALL",
      "beginCondComb": "LOGIC_AND",
      "beginCond": [
        {
          "type": "QUEST_COND_STATE_EQUAL",
          "_param": [
            "2070202",
            "2"
          ]
        },
        {
          "type": "QUEST_COND_STATE_EQUAL",
          "_param": [
            "2070206",
            "3"
          ]
        }
      ],
      "priority": 5,
      "initDialog": 207029101,
      "npcId": [
        1437
      ],
      "performCfg": "",
      "questId": 20702,
      "assetIndex": 3981703660586451253,
      "prePerformCfg": ""
    },
    {
      "id": 2070292,
      "activeMode": "PLAY_MODE_ALL",
      "beginCondComb": "LOGIC_OR",
      "beginCond": [
        {
          "type": "QUEST_COND_STATE_EQUAL",
          "_param": [
            "2070208",
            "3"
          ]
        },
        {
          "type": "QUEST_COND_STATE_EQUAL",
          "_param": [
            "2070209",
            "3"
          ]
        },
        {
          "type": "QUEST_COND_STATE_EQUAL",
          "_param": [
            "2070210",
            "3"
          ]
        }
      ],
      "priority": 5,
      "initDialog": 207029201,
      "npcId": [
        1437
      ],
      "performCfg": "",
      "questId": 20702,
      "assetIndex": 14933779368713769133,
      "prePerformCfg": ""
    },
    {
      "id": 2070293,
      "activeMode": "PLAY_MODE_ALL",
      "beginCondComb": "LOGIC_AND",
      "beginCond": [
        {
          "type": "QUEST_COND_STATE_EQUAL",
          "_param": [
            "2070202",
            "2"
          ]
        },
        {
          "type": "QUEST_COND_STATE_EQUAL",
          "_param": [
            "2070207",
            "3"
          ]
        }
      ],
      "priority": 5,
      "initDialog": 207029301,
      "npcId": [
        1437
      ],
      "performCfg": "",
      "questId": 20702,
      "assetIndex": 4482908648441521076,
      "prePerformCfg": ""
    },
    {
      "id": 2070294,
      "activeMode": "PLAY_MODE_ALL",
      "beginCondComb": "LOGIC_OR",
      "beginCond": [
        {
          "type": "QUEST_COND_STATE_EQUAL",
          "_param": [
            "2070211",
            "3"
          ]
        },
        {
          "type": "QUEST_COND_STATE_EQUAL",
          "_param": [
            "2070212",
            "3"
          ]
        },
        {
          "type": "QUEST_COND_STATE_EQUAL",
          "_param": [
            "2070213",
            "3"
          ]
        }
      ],
      "priority": 5,
      "initDialog": 207029401,
      "npcId": [
        1437
      ],
      "performCfg": "",
      "questId": 20702,
      "assetIndex": 2259610492939189434,
      "prePerformCfg": ""
    }
  ]
}