{
  "id": 21004,
  "damageRatio": "WQ",
  "activeMode": "PLAY_MODE_ALL",
  "descTextMapHash": 2148453177,
  "EKEKACCODOE": 2735147799,
  "luaPath": "Actor/Quest/IQ21004",
  "rewardIdList": [
    121004
  ],
  "subQuests": [
    {
      "subId": 2100401,
      "mainId": 21004,
      "order": 1,
      "descTextMapHash": 2009613322,
      "finishCond": [
        {
          "damageRatio": "QUEST_CONTENT_COMPLETE_TALK",
          "param": [
            2100401,
            0
          ]
        }
      ],
      "guide": {
        "damageRatio": "QUEST_GUIDE_NPC",
        "param": [
          "2211"
        ],
        "guideScene": 3,
        "guideStyle": "QUEST_GUIDE_STYLE_POINT",
        "guideLayer": "QUEST_GUIDE_LAYER_SCENE",
        "MLAHIFLGIGJ": ""
      },
      "guideHint": {
        "param1": ""
      },
      "versionBegin": "",
      "versionEnd": ""
    },
    {
      "subId": 2100402,
      "mainId": 21004,
      "order": 2,
      "descTextMapHash": 37780434,
      "showType": "QUEST_HIDDEN",
      "finishCond": [
        {
          "damageRatio": "QUEST_CONTENT_COMPLETE_TALK",
          "param": [
            2100402,
            0
          ]
        }
      ],
      "guide": {
        "MLAHIFLGIGJ": ""
      },
      "guideHint": {
        "param1": ""
      },
      "versionBegin": "",
      "versionEnd": ""
    },
    {
      "subId": 2100403,
      "mainId": 21004,
      "order": 5,
      "descTextMapHash": 3847950834,
      "stepDescTextMapHash": 4216331980,
      "showType": "QUEST_HIDDEN",
      "finishCond": [
        {
          "damageRatio": "QUEST_CONTENT_ADD_QUEST_PROGRESS",
          "param": [
            210040301,
            0
          ],
          "count": 4
        }
      ],
      "guide": {
        "MLAHIFLGIGJ": ""
      },
      "guideHint": {
        "param1": ""
      },
      "isRewind": true,
      "finishExec": [
        {
          "damageRatio": "QUEST_EXEC_ADD_QUEST_PROGRESS",
          "param": [
            "2100414",
            "1"
          ]
        }
      ],
      "versionBegin": "",
      "versionEnd": ""
    },
    {
      "subId": 2100410,
      "mainId": 21004,
      "order": 10,
      "subIdSet": 1,
      "descTextMapHash": 1707051570,
      "stepDescTextMapHash": 411077276,
      "finishCond": [
        {
          "damageRatio": "QUEST_CONTENT_LUA_NOTIFY",
          "param": [
            0,
            0
          ],
          "count": 1
        }
      ],
      "guide": {
        "MLAHIFLGIGJ": ""
      },
      "guideHint": {
        "param1": ""
      },
      "isRewind": true,
      "finishExec": [
        {
          "damageRatio": "QUEST_EXEC_ADD_QUEST_PROGRESS",
          "param": [
            "210040301",
            "1"
          ]
        }
      ],
      "versionBegin": "",
      "versionEnd": ""
    },
    {
      "subId": 2100411,
      "mainId": 21004,
      "order": 11,
      "subIdSet": 1,
      "descTextMapHash": 291765090,
      "stepDescTextMapHash": 1427466116,
      "finishCond": [
        {
          "damageRatio": "QUEST_CONTENT_LUA_NOTIFY",
          "param": [
            0,
            0
          ],
          "count": 1
        }
      ],
      "guide": {
        "MLAHIFLGIGJ": ""
      },
      "guideHint": {
        "param1": ""
      },
      "isRewind": true,
      "finishExec": [
        {
          "damageRatio": "QUEST_EXEC_ADD_QUEST_PROGRESS",
          "param": [
            "210040301",
            "1"
          ]
        }
      ],
      "versionBegin": "",
      "versionEnd": ""
    },
    {
      "subId": 2100412,
      "mainId": 21004,
      "order": 12,
      "subIdSet": 1,
      "descTextMapHash": 1814132866,
      "stepDescTextMapHash": 49379140,
      "finishCond": [
        {
          "damageRatio": "QUEST_CONTENT_LUA_NOTIFY",
          "param": [
            0,
            0
          ],
          "count": 1
        }
      ],
      "guide": {
        "damageRatio": "QUEST_GUIDE_LOCATION",
        "param": [
          "Q21004_ClueWind",
          "40"
        ],
        "guideScene": 3,
        "MLAHIFLGIGJ": ""
      },
      "guideHint": {
        "param1": ""
      },
      "isRewind": true,
      "finishExec": [
        {
          "damageRatio": "QUEST_EXEC_ADD_QUEST_PROGRESS",
          "param": [
            "210040301",
            "1"
          ]
        }
      ],
      "versionBegin": "",
      "versionEnd": ""
    },
    {
      "subId": 2100413,
      "mainId": 21004,
      "order": 13,
      "subIdSet": 1,
      "descTextMapHash": 1725616258,
      "stepDescTextMapHash": 80857620,
      "finishCond": [
        {
          "damageRatio": "QUEST_CONTENT_LUA_NOTIFY",
          "param": [
            0,
            0
          ],
          "count": 1
        }
      ],
      "guide": {
        "MLAHIFLGIGJ": ""
      },
      "guideHint": {
        "param1": ""
      },
      "isRewind": true,
      "finishExec": [
        {
          "damageRatio": "QUEST_EXEC_ADD_QUEST_PROGRESS",
          "param": [
            "210040301",
            "1"
          ]
        }
      ],
      "versionBegin": "",
      "versionEnd": ""
    },
    {
      "subId": 2100414,
      "mainId": 21004,
      "order": 14,
      "descTextMapHash": 688256730,
      "showType": "QUEST_HIDDEN",
      "finishCond": [
        {
          "damageRatio": "QUEST_CONTENT_ADD_QUEST_PROGRESS",
          "param": [
            2100414,
            0
          ],
          "count": 1
        }
      ],
      "guide": {
        "MLAHIFLGIGJ": ""
      },
      "guideHint": {
        "param1": ""
      },
      "isRewind": true,
      "versionBegin": "",
      "versionEnd": ""
    },
    {
      "subId": 2100420,
      "mainId": 21004,
      "order": 20,
      "descTextMapHash": 4118385106,
      "finishCond": [
        {
          "damageRatio": "QUEST_CONTENT_COMPLETE_TALK",
          "param": [
            2100420,
            0
          ]
        },
        {
          "damageRatio": "QUEST_CONTENT_ADD_QUEST_PROGRESS",
          "param": [
            210042001,
            0
          ],
          "count": 1
        }
      ],
      "guide": {
        "damageRatio": "QUEST_GUIDE_NPC",
        "param": [
          "2211"
        ],
        "guideScene": 3,
        "guideStyle": "QUEST_GUIDE_STYLE_POINT",
        "guideLayer": "QUEST_GUIDE_LAYER_SCENE",
        "MLAHIFLGIGJ": ""
      },
      "guideHint": {
        "param1": ""
      },
      "isRewind": true,
      "finishExec": [
        {
          "damageRatio": "QUEST_EXEC_NOTIFY_GROUP_LUA",
          "param": [
            "3",
            "133104053"
          ]
        }
      ],
      "versionBegin": "",
      "versionEnd": ""
    },
    {
      "subId": 2100421,
      "mainId": 21004,
      "order": 21,
      "descTextMapHash": 317586322,
      "showType": "QUEST_HIDDEN",
      "finishCond": [
        {
          "damageRatio": "QUEST_CONTENT_LUA_NOTIFY",
          "param": [
            0,
            0
          ],
          "count": 1
        }
      ],
      "guide": {
        "MLAHIFLGIGJ": ""
      },
      "guideHint": {
        "param1": ""
      },
      "isRewind": true,
      "finishExec": [
        {
          "damageRatio": "QUEST_EXEC_ADD_QUEST_PROGRESS",
          "param": [
            "210042001",
            "1"
          ]
        }
      ],
      "versionBegin": "",
      "versionEnd": ""
    },
    {
      "subId": 2100422,
      "mainId": 21004,
      "order": 22,
      "descTextMapHash": 634732378,
      "stepDescTextMapHash": 1199888348,
      "finishCond": [
        {
          "damageRatio": "QUEST_CONTENT_LUA_NOTIFY",
          "param": [
            0,
            0
          ],
          "count": 1
        }
      ],
      "guide": {
        "MLAHIFLGIGJ": ""
      },
      "guideHint": {
        "param1": ""
      },
      "isRewind": true,
      "versionBegin": "",
      "versionEnd": ""
    },
    {
      "subId": 2100430,
      "mainId": 21004,
      "order": 30,
      "descTextMapHash": 512767778,
      "stepDescTextMapHash": 609630212,
      "finishCond": [
        {
          "damageRatio": "QUEST_CONTENT_LUA_NOTIFY",
          "param": [
            0,
            0
          ],
          "count": 1
        },
        {
          "damageRatio": "QUEST_CONTENT_LUA_NOTIFY",
          "param": [
            0,
            0
          ],
          "count": 1
        }
      ],
      "guide": {
        "MLAHIFLGIGJ": ""
      },
      "guideHint": {
        "param1": ""
      },
      "isRewind": true,
      "versionBegin": "",
      "versionEnd": ""
    },
    {
      "subId": 2100431,
      "mainId": 21004,
      "order": 31,
      "descTextMapHash": 1864167914,
      "stepDescTextMapHash": 2655857844,
      "finishCond": [
        {
          "damageRatio": "QUEST_CONTENT_LUA_NOTIFY",
          "param": [
            0,
            0
          ],
          "count": 1
        }
      ],
      "guide": {
        "damageRatio": "QUEST_GUIDE_LOCATION",
        "param": [
          "Q21004_GurdianArea",
          "60"
        ],
        "guideScene": 3,
        "MLAHIFLGIGJ": ""
      },
      "guideHint": {
        "param1": ""
      },
      "isRewind": true,
      "versionBegin": "",
      "versionEnd": ""
    },
    {
      "subId": 2100432,
      "mainId": 21004,
      "order": 32,
      "descTextMapHash": 3328914610,
      "stepDescTextMapHash": 3893857220,
      "finishCond": [
        {
          "damageRatio": "QUEST_CONTENT_LUA_NOTIFY",
          "param": [
            0,
            0
          ],
          "count": 1
        }
      ],
      "guide": {
        "damageRatio": "QUEST_GUIDE_LOCATION",
        "param": [
          "Q21004_Center"
        ],
        "guideScene": 3,
        "MLAHIFLGIGJ": ""
      },
      "guideHint": {
        "param1": ""
      },
      "isRewind": true,
      "versionBegin": "",
      "versionEnd": ""
    },
    {
      "subId": 2100440,
      "mainId": 21004,
      "order": 40,
      "descTextMapHash": 2447160810,
      "stepDescTextMapHash": 3409268708,
      "finishCond": [
        {
          "damageRatio": "QUEST_CONTENT_LUA_NOTIFY",
          "param": [
            0,
            0
          ],
          "count": 1
        }
      ],
      "guide": {
        "damageRatio": "QUEST_GUIDE_LOCATION",
        "param": [
          "Q21004_TreasureBox",
          "30"
        ],
        "guideScene": 3,
        "MLAHIFLGIGJ": ""
      },
      "guideHint": {
        "param1": ""
      },
      "isRewind": true,
      "versionBegin": "",
      "versionEnd": ""
    },
    {
      "subId": 2100450,
      "mainId": 21004,
      "order": 50,
      "descTextMapHash": 1251952642,
      "finishCond": [
        {
          "damageRatio": "QUEST_CONTENT_COMPLETE_TALK",
          "param": [
            2100450,
            0
          ]
        }
      ],
      "guide": {
        "damageRatio": "QUEST_GUIDE_NPC",
        "param": [
          "2211"
        ],
        "guideScene": 3,
        "guideStyle": "QUEST_GUIDE_STYLE_FINISH",
        "guideLayer": "QUEST_GUIDE_LAYER_SCENE",
        "MLAHIFLGIGJ": ""
      },
      "guideHint": {
        "param1": ""
      },
      "finishParent": true,
      "isRewind": true,
      "finishExec": [
        {
          "damageRatio": "QUEST_EXEC_NOTIFY_GROUP_LUA",
          "param": [
            "3",
            "133104053"
          ]
        },
        {
          "damageRatio": "QUEST_EXEC_DEL_ALL_SPECIFIC_PACK_ITEM",
          "param": [
            "100442,100443,100444,100445"
          ]
        }
      ],
      "versionBegin": "",
      "versionEnd": ""
    },
    {
      "subId": 2100480,
      "mainId": 21004,
      "order": 3,
      "descTextMapHash": 263493218,
      "showType": "QUEST_HIDDEN",
      "finishCond": [
        {
          "damageRatio": "QUEST_CONTENT_LUA_NOTIFY",
          "param": [
            0,
            0
          ],
          "count": 1
        }
      ],
      "failCond": [
        {
          "damageRatio": "QUEST_CONTENT_COMPLETE_TALK",
          "param": [
            2100401,
            0
          ]
        }
      ],
      "guide": {
        "MLAHIFLGIGJ": ""
      },
      "guideHint": {
        "param1": ""
      },
      "isRewind": true,
      "versionBegin": "",
      "versionEnd": ""
    },
    {
      "subId": 2100481,
      "mainId": 21004,
      "order": 4,
      "descTextMapHash": 2171351674,
      "showType": "QUEST_HIDDEN",
      "finishCond": [
        {
          "damageRatio": "QUEST_CONTENT_COMPLETE_TALK",
          "param": [
            2100481,
            0
          ]
        }
      ],
      "failCond": [
        {
          "damageRatio": "QUEST_CONTENT_COMPLETE_TALK",
          "param": [
            2100401,
            0
          ]
        }
      ],
      "guide": {
        "MLAHIFLGIGJ": ""
      },
      "guideHint": {
        "param1": ""
      },
      "finishExec": [
        {
          "damageRatio": "QUEST_EXEC_ROLLBACK_QUEST",
          "param": [
            "2100480"
          ]
        },
        {
          "damageRatio": "QUEST_EXEC_NOTIFY_GROUP_LUA",
          "param": [
            "3",
            "133104053"
          ]
        }
      ],
      "versionBegin": "",
      "versionEnd": ""
    }
  ],
  "talks": [
    {
      "id": 2100401,
      "beginWay": "TALK_BEGIN_MANUAL",
      "activeMode": "PLAY_MODE_ALL",
      "beginCond": [
        {
          "type": "QUEST_COND_STATE_EQUAL",
          "_param": [
            "2100401",
            "2"
          ]
        }
      ],
      "priority": 5,
      "initDialog": 210040101,
      "npcId": [
        2211
      ],
      "performCfg": "",
      "questId": 21004,
      "assetIndex": 3111179883077206417,
      "prePerformCfg": ""
    },
    {
      "id": 2100402,
      "activeMode": "PLAY_MODE_ALL",
      "beginCond": [
        {
          "type": "QUEST_COND_STATE_EQUAL",
          "_param": [
            "99902",
            "3"
          ]
        }
      ],
      "priority": 5,
      "initDialog": 210040201,
      "npcId": [
        2211
      ],
      "performCfg": "",
      "questId": 21004,
      "assetIndex": 12540055265980756824,
      "prePerformCfg": ""
    },
    {
      "id": 2100403,
      "beginWay": "TALK_BEGIN_MANUAL",
      "activeMode": "PLAY_MODE_ALL",
      "beginCond": [
        {
          "type": "QUEST_COND_STATE_EQUAL",
          "_param": [
            "2100403",
            "2"
          ]
        }
      ],
      "priority": 5,
      "nextTalks": [
        2100492,
        2100493,
        2100496,
        2100497
      ],
      "initDialog": 210040301,
      "npcId": [
        2211
      ],
      "performCfg": "",
      "questId": 21004,
      "assetIndex": 7883273826977458636,
      "prePerformCfg": ""
    },
    {
      "id": 2100404,
      "activeMode": "PLAY_MODE_ALL",
      "beginCond": [
        {
          "type": "QUEST_COND_STATE_EQUAL",
          "_param": [
            "2100403",
            "2"
          ]
        }
      ],
      "priority": 5,
      "nextTalks": [
        2100492,
        2100493,
        2100496,
        2100497
      ],
      "initDialog": 210040301,
      "npcId": [
        2211
      ],
      "performCfg": "",
      "questId": 21004,
      "assetIndex": 8913474450502547935,
      "prePerformCfg": ""
    },
    {
      "id": 2100409,
      "activeMode": "PLAY_MODE_ALL",
      "beginCond": [
        {
          "type": "QUEST_COND_STATE_EQUAL",
          "_param": [
            "99902",
            "3"
          ]
        }
      ],
      "priority": 5,
      "initDialog": 210040901,
      "npcId": [
        2211
      ],
      "performCfg": "",
      "questId": 21004,
      "assetIndex": 15764313534483566905,
      "prePerformCfg": ""
    },
    {
      "id": 2100420,
      "beginWay": "TALK_BEGIN_MANUAL",
      "activeMode": "PLAY_MODE_ALL",
      "beginCond": [
        {
          "type": "QUEST_COND_STATE_EQUAL",
          "_param": [
            "2100420",
            "2"
          ]
        }
      ],
      "priority": 5,
      "initDialog": 210042001,
      "npcId": [
        2211
      ],
      "performCfg": "",
      "questId": 21004,
      "assetIndex": 10300488625895259235,
      "prePerformCfg": ""
    },
    {
      "id": 2100422,
      "beginWay": "TALK_BEGIN_MANUAL",
      "activeMode": "PLAY_MODE_ALL",
      "beginCond": [
        {
          "type": "QUEST_COND_STATE_EQUAL",
          "_param": [
            "2100422",
            "2"
          ]
        }
      ],
      "priority": 5,
      "initDialog": 210042201,
      "npcId": [
        2211
      ],
      "performCfg": "",
      "questId": 21004,
      "assetIndex": 3237357927165179010,
      "prePerformCfg": ""
    },
    {
      "id": 2100430,
      "beginWay": "TALK_BEGIN_MANUAL",
      "activeMode": "PLAY_MODE_ALL",
      "beginCond": [
        {
          "type": "QUEST_COND_STATE_EQUAL",
          "_param": [
            "2100430",
            "2"
          ]
        }
      ],
      "priority": 5,
      "initDialog": 210043001,
      "npcId": [
        2211
      ],
      "performCfg": "",
      "questId": 21004,
      "assetIndex": 14353828374355909456,
      "prePerformCfg": ""
    },
    {
      "id": 2100431,
      "beginWay": "TALK_BEGIN_MANUAL",
      "activeMode": "PLAY_MODE_ALL",
      "beginCond": [
        {
          "type": "QUEST_COND_STATE_EQUAL",
          "_param": [
            "2100431",
            "2"
          ]
        }
      ],
      "priority": 5,
      "initDialog": 210043001,
      "npcId": [
        2211
      ],
      "performCfg": "",
      "questId": 21004,
      "assetIndex": 13235438792769132662,
      "prePerformCfg": ""
    },
    {
      "id": 2100432,
      "beginWay": "TALK_BEGIN_MANUAL",
      "activeMode": "PLAY_MODE_ALL",
      "beginCond": [
        {
          "type": "QUEST_COND_STATE_EQUAL",
          "_param": [
            "2100432",
            "2"
          ]
        }
      ],
      "priority": 5,
      "initDialog": 210043001,
      "npcId": [
        2211
      ],
      "performCfg": "",
      "questId": 21004,
      "assetIndex": 10193373913472171410,
      "prePerformCfg": ""
    },
    {
      "id": 2100440,
      "beginWay": "TALK_BEGIN_MANUAL",
      "activeMode": "PLAY_MODE_ALL",
      "beginCond": [
        {
          "type": "QUEST_COND_STATE_EQUAL",
          "_param": [
            "2100440",
            "2"
          ]
        }
      ],
      "priority": 5,
      "initDialog": 210044001,
      "npcId": [
        2211
      ],
      "performCfg": "",
      "questId": 21004,
      "assetIndex": 15284294470993996414,
      "prePerformCfg": ""
    },
    {
      "id": 2100450,
      "beginWay": "TALK_BEGIN_MANUAL",
      "activeMode": "PLAY_MODE_ALL",
      "beginCond": [
        {
          "type": "QUEST_COND_STATE_EQUAL",
          "_param": [
            "2100450",
            "2"
          ]
        }
      ],
      "priority": 5,
      "initDialog": 210045001,
      "npcId": [
        2211
      ],
      "performCfg": "",
      "questId": 21004,
      "assetIndex": 4555455506320448783,
      "prePerformCfg": ""
    },
    {
      "id": 2100481,
      "beginWay": "TALK_BEGIN_MANUAL",
      "activeMode": "PLAY_MODE_ALL",
      "beginCond": [
        {
          "type": "QUEST_COND_STATE_EQUAL",
          "_param": [
            "2100481",
            "2"
          ]
        }
      ],
      "priority": 5,
      "initDialog": 210048101,
      "npcId": [
        1005
      ],
      "performCfg": "",
      "questId": 21004,
      "assetIndex": 6679591045621536025,
      "prePerformCfg": ""
    },
    {
      "id": 2100490,
      "activeMode": "PLAY_MODE_ALL",
      "beginCond": [
        {
          "type": "QUEST_COND_STATE_EQUAL",
          "_param": [
            "99902",
            "3"
          ]
        }
      ],
      "priority": 5,
      "initDialog": 210049001,
      "npcId": [
        2211
      ],
      "performCfg": "",
      "questId": 21004,
      "assetIndex": 16064767699490553256,
      "prePerformCfg": ""
    },
    {
      "id": 2100491,
      "beginWay": "TALK_BEGIN_MANUAL",
      "activeMode": "PLAY_MODE_ALL",
      "beginCond": [
        {
          "type": "QUEST_COND_STATE_EQUAL",
          "_param": [
            "99902",
            "3"
          ]
        }
      ],
      "priority": 5,
      "nextTalks": [
        2100402,
        2100409
      ],
      "initDialog": 210049001,
      "npcId": [
        2211
      ],
      "performCfg": "",
      "questId": 21004,
      "assetIndex": 3102348973185927035,
      "prePerformCfg": ""
    },
    {
      "id": 2100492,
      "activeMode": "PLAY_MODE_ALL",
      "beginCond": [
        {
          "type": "QUEST_COND_STATE_EQUAL",
          "_param": [
            "2100403",
            "2"
          ]
        }
      ],
      "priority": 5,
      "nextTalks": [
        2100404
      ],
      "initDialog": 210049201,
      "npcId": [
        2211
      ],
      "performCfg": "",
      "questId": 21004,
      "assetIndex": 3388851852949689544,
      "prePerformCfg": ""
    },
    {
      "id": 2100493,
      "activeMode": "PLAY_MODE_ALL",
      "beginCond": [
        {
          "type": "QUEST_COND_STATE_EQUAL",
          "_param": [
            "2100403",
            "2"
          ]
        }
      ],
      "priority": 5,
      "nextTalks": [
        2100404
      ],
      "initDialog": 210049301,
      "npcId": [
        2211
      ],
      "performCfg": "",
      "questId": 21004,
      "assetIndex": 1795366478712938534,
      "prePerformCfg": ""
    },
    {
      "id": 2100494,
      "activeMode": "PLAY_MODE_ALL",
      "beginCond": [
        {
          "type": "QUEST_COND_STATE_EQUAL",
          "_param": [
            "99902",
            "3"
          ]
        }
      ],
      "priority": 5,
      "nextTalks": [
        2100404
      ],
      "initDialog": 210049401,
      "npcId": [
        2211
      ],
      "performCfg": "",
      "questId": 21004,
      "assetIndex": 16739726314123202486,
      "prePerformCfg": ""
    },
    {
      "id": 2100495,
      "activeMode": "PLAY_MODE_ALL",
      "beginCond": [
        {
          "type": "QUEST_COND_STATE_EQUAL",
          "_param": [
            "99902",
            "3"
          ]
        }
      ],
      "priority": 5,
      "nextTalks": [
        2100404
      ],
      "initDialog": 210049501,
      "npcId": [
        2211
      ],
      "performCfg": "",
      "questId": 21004,
      "assetIndex": 8927824462053026299,
      "prePerformCfg": ""
    },
    {
      "id": 2100496,
      "activeMode": "PLAY_MODE_ALL",
      "beginCond": [
        {
          "type": "QUEST_COND_STATE_EQUAL",
          "_param": [
            "2100403",
            "2"
          ]
        }
      ],
      "priority": 5,
      "nextTalks": [
        2100404
      ],
      "initDialog": 210049601,
      "npcId": [
        2211
      ],
      "performCfg": "",
      "questId": 21004,
      "assetIndex": 13522697517030341394,
      "prePerformCfg": ""
    },
    {
      "id": 2100497,
      "activeMode": "PLAY_MODE_ALL",
      "beginCond": [
        {
          "type": "QUEST_COND_STATE_EQUAL",
          "_param": [
            "2100403",
            "2"
          ]
        }
      ],
      "priority": 5,
      "initDialog": 210049701,
      "npcId": [
        2211
      ],
      "performCfg": "",
      "questId": 21004,
      "assetIndex": 12679857910137388567,
      "prePerformCfg": ""
    }
  ],
  "preloadLuaList": [
    14457059026087496718
  ]
}