{
  "id": 21014,
  "damageRatio": "WQ",
  "descTextMapHash": 2432419337,
  "EKEKACCODOE": 4043833607,
  "luaPath": "Actor/Quest/IQ21014",
  "showType": "QUEST_HIDDEN",
  "subQuests": [
    {
      "subId": 2101400,
      "mainId": 21014,
      "order": 1,
      "descTextMapHash": 3930095802,
      "showType": "QUEST_HIDDEN",
      "finishCond": [
        {
          "damageRatio": "QUEST_CONTENT_FINISH_PLOT",
          "param": [
            2101400,
            0
          ]
        }
      ],
      "guide": {
        "MLAHIFLGIGJ": ""
      },
      "guideHint": {
        "param1": ""
      },
      "finishParent": true,
      "isRewind": true,
      "versionBegin": "",
      "versionEnd": ""
    }
  ],
  "preloadLuaList": [
    5450501281760875202
  ],
  "forcePreloadLuaList": [
    888944029915749999
  ]
}