{
  "id": 21034,
  "damageRatio": "IQ",
  "activeMode": "PLAY_MODE_ALL",
  "descTextMapHash": 1095454455,
  "EKEKACCODOE": 1158955950,
  "luaPath": "Actor/Quest/IQ21034",
  "repeatable": true,
  "taskID": 25004,
  "subQuests": [
    {
      "subId": 2103401,
      "mainId": 21034,
      "order": 1,
      "descTextMapHash": 3831761108,
      "finishCond": [
        {
          "damageRatio": "QUEST_CONTENT_COMPLETE_TALK",
          "param": [
            2103402,
            0
          ]
        },
        {
          "damageRatio": "QUEST_CONTENT_COMPLETE_TALK",
          "param": [
            2103403,
            0
          ]
        }
      ],
      "guide": {
        "damageRatio": "QUEST_GUIDE_NPC",
        "param": [
          "2016"
        ],
        "guideScene": 3,
        "guideStyle": "QUEST_GUIDE_STYLE_TARGET",
        "guideLayer": "QUEST_GUIDE_LAYER_SCENE",
        "MLAHIFLGIGJ": ""
      },
      "guideHint": {
        "param1": ""
      },
      "isRewind": true,
      "versionBegin": "",
      "versionEnd": ""
    },
    {
      "subId": 2103402,
      "mainId": 21034,
      "order": 4,
      "descTextMapHash": 3789150364,
      "finishCond": [
        {
          "damageRatio": "QUEST_CONTENT_LUA_NOTIFY",
          "param": [
            0,
            0
          ],
          "count": 1
        }
      ],
      "guide": {
        "damageRatio": "QUEST_GUIDE_LOCATION",
        "param": [
          "Q2103403",
          "35"
        ],
        "guideScene": 3,
        "guideStyle": "QUEST_GUIDE_STYLE_TARGET",
        "guideLayer": "QUEST_GUIDE_LAYER_SCENE",
        "MLAHIFLGIGJ": ""
      },
      "guideHint": {
        "param1": ""
      },
      "isRewind": true,
      "finishExec": [
        {
          "damageRatio": "QUEST_EXEC_UNREGISTER_DYNAMIC_GROUP",
          "param": [
            "133106060",
            "1"
          ]
        }
      ],
      "versionBegin": "",
      "versionEnd": ""
    },
    {
      "subId": 2103403,
      "mainId": 21034,
      "order": 5,
      "descTextMapHash": 3876861612,
      "finishCond": [
        {
          "damageRatio": "QUEST_CONTENT_LUA_NOTIFY",
          "param": [
            0,
            0
          ],
          "count": 1
        }
      ],
      "guide": {
        "damageRatio": "QUEST_GUIDE_LOCATION",
        "param": [
          "Q2103402",
          "30"
        ],
        "guideScene": 3,
        "guideStyle": "QUEST_GUIDE_STYLE_TARGET",
        "guideLayer": "QUEST_GUIDE_LAYER_SCENE",
        "MLAHIFLGIGJ": ""
      },
      "guideHint": {
        "param1": ""
      },
      "isRewind": true,
      "finishExec": [
        {
          "damageRatio": "QUEST_EXEC_UNREGISTER_DYNAMIC_GROUP",
          "param": [
            "133106078",
            "1"
          ]
        }
      ],
      "versionBegin": "",
      "versionEnd": ""
    },
    {
      "subId": 2103404,
      "mainId": 21034,
      "order": 6,
      "descTextMapHash": 1510202164,
      "finishCond": [
        {
          "damageRatio": "QUEST_CONTENT_COMPLETE_TALK",
          "param": [
            2103405,
            0
          ]
        }
      ],
      "guide": {
        "damageRatio": "QUEST_GUIDE_NPC",
        "param": [
          "2016"
        ],
        "guideScene": 3,
        "guideStyle": "QUEST_GUIDE_STYLE_TARGET",
        "guideLayer": "QUEST_GUIDE_LAYER_SCENE",
        "MLAHIFLGIGJ": ""
      },
      "guideHint": {
        "param1": ""
      },
      "finishParent": true,
      "isRewind": true,
      "finishExec": [
        {
          "damageRatio": "QUEST_EXEC_UNREGISTER_DYNAMIC_GROUP",
          "param": [
            "133106081",
            "1"
          ]
        },
        {
          "damageRatio": "QUEST_EXEC_SET_QUEST_GLOBAL_VAR",
          "param": [
            "2103401",
            "1"
          ]
        },
        {
          "damageRatio": "QUEST_EXEC_NOTIFY_DAILY_TASK",
          "param": [
            "25004"
          ]
        }
      ],
      "versionBegin": "",
      "versionEnd": ""
    },
    {
      "subId": 2103405,
      "mainId": 21034,
      "order": 7,
      "descTextMapHash": 1673493972,
      "finishCond": [
        {
          "damageRatio": "QUEST_CONTENT_COMPLETE_TALK",
          "param": [
            2103406,
            0
          ]
        }
      ],
      "guide": {
        "damageRatio": "QUEST_GUIDE_NPC",
        "param": [
          "2016"
        ],
        "guideScene": 3,
        "guideStyle": "QUEST_GUIDE_STYLE_TARGET",
        "guideLayer": "QUEST_GUIDE_LAYER_SCENE",
        "MLAHIFLGIGJ": ""
      },
      "guideHint": {
        "param1": ""
      },
      "finishParent": true,
      "isRewind": true,
      "finishExec": [
        {
          "damageRatio": "QUEST_EXEC_UNREGISTER_DYNAMIC_GROUP",
          "param": [
            "133106081",
            "1"
          ]
        },
        {
          "damageRatio": "QUEST_EXEC_DEL_PACK_ITEM",
          "param": [
            "120216",
            "1"
          ]
        },
        {
          "damageRatio": "QUEST_EXEC_SET_QUEST_GLOBAL_VAR",
          "param": [
            "2103401",
            "1"
          ]
        },
        {
          "damageRatio": "QUEST_EXEC_NOTIFY_DAILY_TASK",
          "param": [
            "25004"
          ]
        }
      ],
      "versionBegin": "",
      "versionEnd": ""
    },
    {
      "subId": 2103406,
      "mainId": 21034,
      "order": 2,
      "descTextMapHash": 1751480404,
      "showType": "QUEST_HIDDEN",
      "finishCond": [
        {
          "damageRatio": "QUEST_CONTENT_COMPLETE_TALK",
          "param": [
            2103402,
            0
          ]
        }
      ],
      "guide": {
        "guideScene": 3,
        "guideStyle": "QUEST_GUIDE_STYLE_TARGET",
        "guideLayer": "QUEST_GUIDE_LAYER_SCENE",
        "MLAHIFLGIGJ": ""
      },
      "showGuide": "QUEST_GUIDE_ITEM_DISABLE",
      "guideHint": {
        "param1": ""
      },
      "versionBegin": "",
      "versionEnd": ""
    },
    {
      "subId": 2103407,
      "mainId": 21034,
      "order": 3,
      "descTextMapHash": 926215068,
      "showType": "QUEST_HIDDEN",
      "finishCond": [
        {
          "damageRatio": "QUEST_CONTENT_COMPLETE_TALK",
          "param": [
            2103403,
            0
          ]
        }
      ],
      "guide": {
        "guideScene": 3,
        "guideStyle": "QUEST_GUIDE_STYLE_TARGET",
        "guideLayer": "QUEST_GUIDE_LAYER_SCENE",
        "MLAHIFLGIGJ": ""
      },
      "showGuide": "QUEST_GUIDE_ITEM_DISABLE",
      "guideHint": {
        "param1": ""
      },
      "versionBegin": "",
      "versionEnd": ""
    }
  ],
  "talks": [
    {
      "id": 2103401,
      "beginWay": "TALK_BEGIN_MANUAL",
      "activeMode": "PLAY_MODE_HOST",
      "beginCondComb": "LOGIC_AND",
      "beginCond": [
        {
          "type": "QUEST_COND_STATE_EQUAL",
          "_param": [
            "2103401",
            "2"
          ]
        },
        {
          "type": "QUEST_COND_QUEST_GLOBAL_VAR_EQUAL",
          "_param": [
            "2103401",
            "0"
          ]
        }
      ],
      "priority": 5,
      "nextTalks": [
        2103402,
        2103403
      ],
      "initDialog": 210340101,
      "npcId": [
        2016
      ],
      "performCfg": "",
      "heroTalk": "TALK_HERO_MAIN",
      "questId": 21034,
      "assetIndex": 8160039448446389397,
      "prePerformCfg": "",
      "freeStyleList": [
        1130,
        1120,
        1190,
        1030
      ]
    },
    {
      "id": 2103402,
      "activeMode": "PLAY_MODE_HOST",
      "beginCondComb": "LOGIC_AND",
      "beginCond": [
        {
          "type": "QUEST_COND_STATE_EQUAL",
          "_param": [
            "2103401",
            "2"
          ]
        }
      ],
      "priority": 5,
      "initDialog": 210340201,
      "npcId": [
        2016
      ],
      "performCfg": "",
      "heroTalk": "TALK_HERO_MAIN",
      "questId": 21034,
      "assetIndex": 13596164230512628188,
      "prePerformCfg": ""
    },
    {
      "id": 2103403,
      "activeMode": "PLAY_MODE_HOST",
      "beginCondComb": "LOGIC_AND",
      "beginCond": [
        {
          "type": "QUEST_COND_STATE_EQUAL",
          "_param": [
            "2103401",
            "2"
          ]
        }
      ],
      "priority": 5,
      "initDialog": 210340301,
      "npcId": [
        2016
      ],
      "performCfg": "",
      "heroTalk": "TALK_HERO_MAIN",
      "questId": 21034,
      "assetIndex": 1029776108265978290,
      "prePerformCfg": ""
    },
    {
      "id": 2103404,
      "beginWay": "TALK_BEGIN_MANUAL",
      "activeMode": "PLAY_MODE_HOST",
      "beginCondComb": "LOGIC_A_AND_ETCOR",
      "beginCond": [
        {
          "type": "QUEST_COND_STATE_EQUAL",
          "_param": [
            "2103401",
            "3"
          ]
        },
        {
          "type": "QUEST_COND_STATE_EQUAL",
          "_param": [
            "2103402",
            "2"
          ]
        },
        {
          "type": "QUEST_COND_STATE_EQUAL",
          "_param": [
            "2103403",
            "2"
          ]
        }
      ],
      "priority": 5,
      "initDialog": 210340401,
      "npcId": [
        2016
      ],
      "performCfg": "",
      "heroTalk": "TALK_HERO_MAIN",
      "questId": 21034,
      "assetIndex": 8635504065655395820,
      "prePerformCfg": "",
      "freeStyleList": [
        1120
      ]
    },
    {
      "id": 2103405,
      "beginWay": "TALK_BEGIN_MANUAL",
      "activeMode": "PLAY_MODE_HOST",
      "beginCond": [
        {
          "type": "QUEST_COND_STATE_EQUAL",
          "_param": [
            "2103404",
            "2"
          ]
        }
      ],
      "priority": 5,
      "initDialog": 210340501,
      "npcId": [
        2016
      ],
      "performCfg": "",
      "heroTalk": "TALK_HERO_MAIN",
      "questId": 21034,
      "assetIndex": 15400808411194128790,
      "prePerformCfg": "",
      "freeStyleList": [
        1030,
        1190
      ]
    },
    {
      "id": 2103406,
      "beginWay": "TALK_BEGIN_MANUAL",
      "activeMode": "PLAY_MODE_HOST",
      "beginCond": [
        {
          "type": "QUEST_COND_STATE_EQUAL",
          "_param": [
            "2103405",
            "2"
          ]
        }
      ],
      "priority": 5,
      "initDialog": 210340601,
      "npcId": [
        2016
      ],
      "performCfg": "",
      "heroTalk": "TALK_HERO_MAIN",
      "questId": 21034,
      "assetIndex": 4898716044847405168,
      "prePerformCfg": "",
      "freeStyleList": [
        1030,
        4030,
        1190
      ]
    },
    {
      "id": 2103407,
      "beginWay": "TALK_BEGIN_MANUAL",
      "activeMode": "PLAY_MODE_HOST",
      "beginCond": [
        {
          "type": "QUEST_COND_STATE_EQUAL",
          "_param": [
            "99902",
            "3"
          ]
        }
      ],
      "priority": 5,
      "npcId": [
        2016
      ],
      "performCfg": "",
      "heroTalk": "TALK_HERO_MAIN",
      "questId": 21034,
      "assetIndex": 6571674397396406231,
      "prePerformCfg": ""
    },
    {
      "id": 2103408,
      "beginWay": "TALK_BEGIN_MANUAL",
      "activeMode": "PLAY_MODE_HOST",
      "beginCondComb": "LOGIC_AND",
      "beginCond": [
        {
          "type": "QUEST_COND_STATE_EQUAL",
          "_param": [
            "2103401",
            "2"
          ]
        },
        {
          "type": "QUEST_COND_QUEST_GLOBAL_VAR_EQUAL",
          "_param": [
            "2103401",
            "1"
          ]
        }
      ],
      "priority": 5,
      "nextTalks": [
        2103402,
        2103403
      ],
      "initDialog": 210340801,
      "npcId": [
        2016
      ],
      "performCfg": "",
      "heroTalk": "TALK_HERO_MAIN",
      "questId": 21034,
      "assetIndex": 15428438899890229787,
      "prePerformCfg": "",
      "freeStyleList": [
        5010,
        1120,
        1030
      ]
    }
  ],
  "freeStyleDic": {
    "2016": [
      1190
    ]
  },
  "dialogList": [
    {
      "id": 210340701,
      "nextDialogs": [
        210340703
      ],
      "talkShowType": "TALK_SHOW_FORCE_SELECT",
      "talkRole": {
        "type": "TALK_ROLE_PLAYER",
        "_id": ""
      },
      "talkContentTextMapHash": 212127562,
      "talkAssetPath": "",
      "talkAssetPathAlter": "",
      "talkAudioName": "",
      "actionBefore": "",
      "actionWhile": "",
      "actionAfter": "",
      "optionIcon": "",
      "iconPath": ""
    },
    {
      "id": 210340702,
      "nextDialogs": [
        210340703
      ],
      "talkShowType": "TALK_SHOW_FORCE_SELECT",
      "talkRole": {
        "type": "TALK_ROLE_PLAYER",
        "_id": ""
      },
      "talkContentTextMapHash": 3300148330,
      "talkAssetPath": "",
      "talkAssetPathAlter": "",
      "talkAudioName": "",
      "actionBefore": "",
      "actionWhile": "",
      "actionAfter": "",
      "optionIcon": "",
      "iconPath": ""
    },
    {
      "id": 210340703,
      "nextDialogs": [
        210340704
      ],
      "talkRole": {
        "type": "TALK_ROLE_NPC",
        "_id": "2016"
      },
      "talkContentTextMapHash": 2056932618,
      "talkAssetPath": "",
      "talkAssetPathAlter": "",
      "talkAudioName": "",
      "actionBefore": "",
      "actionWhile": "",
      "actionAfter": "",
      "optionIcon": "",
      "iconPath": ""
    },
    {
      "id": 210340704,
      "nextDialogs": [
        210340705
      ],
      "talkRole": {
        "type": "TALK_ROLE_NPC",
        "_id": "2016"
      },
      "talkContentTextMapHash": 4193294786,
      "talkAssetPath": "",
      "talkAssetPathAlter": "",
      "talkAudioName": "",
      "actionBefore": "",
      "actionWhile": "",
      "actionAfter": "",
      "optionIcon": "",
      "iconPath": ""
    },
    {
      "id": 210340705,
      "nextDialogs": [
        210340706
      ],
      "talkShowType": "TALK_SHOW_FORCE_SELECT",
      "talkRole": {
        "type": "TALK_ROLE_PLAYER",
        "_id": ""
      },
      "talkContentTextMapHash": 3508444618,
      "talkAssetPath": "",
      "talkAssetPathAlter": "",
      "talkAudioName": "",
      "actionBefore": "",
      "actionWhile": "",
      "actionAfter": "",
      "optionIcon": "",
      "iconPath": ""
    },
    {
      "id": 210340706,
      "nextDialogs": [
        210340707
      ],
      "talkRole": {
        "type": "TALK_ROLE_NPC",
        "_id": "2016"
      },
      "talkContentTextMapHash": 1119095466,
      "talkAssetPath": "",
      "talkAssetPathAlter": "",
      "talkAudioName": "",
      "actionBefore": "",
      "actionWhile": "SimpleTalk/PutHand",
      "actionAfter": "",
      "optionIcon": "",
      "iconPath": ""
    },
    {
      "id": 210340707,
      "nextDialogs": [
        210340708,
        210340709
      ],
      "talkRole": {
        "type": "TALK_ROLE_NPC",
        "_id": "2016"
      },
      "talkContentTextMapHash": 3525354914,
      "talkAssetPath": "",
      "talkAssetPathAlter": "",
      "talkAudioName": "",
      "actionBefore": "",
      "actionWhile": "SimpleTalk/NodHead",
      "actionAfter": "",
      "optionIcon": "",
      "iconPath": ""
    },
    {
      "id": 210340708,
      "nextDialogs": [
        210340710
      ],
      "talkShowType": "TALK_SHOW_FORCE_SELECT",
      "talkRole": {
        "type": "TALK_ROLE_PLAYER",
        "_id": ""
      },
      "talkContentTextMapHash": 3979525738,
      "talkAssetPath": "",
      "talkAssetPathAlter": "",
      "talkAudioName": "",
      "actionBefore": "",
      "actionWhile": "",
      "actionAfter": "",
      "optionIcon": "",
      "iconPath": ""
    },
    {
      "id": 210340709,
      "nextDialogs": [
        210340710
      ],
      "talkShowType": "TALK_SHOW_FORCE_SELECT",
      "talkRole": {
        "type": "TALK_ROLE_PLAYER",
        "_id": ""
      },
      "talkContentTextMapHash": 1939220090,
      "talkAssetPath": "",
      "talkAssetPathAlter": "",
      "talkAudioName": "",
      "actionBefore": "",
      "actionWhile": "",
      "actionAfter": "",
      "optionIcon": "",
      "iconPath": ""
    },
    {
      "id": 210340710,
      "nextDialogs": [
        210340711
      ],
      "talkRole": {
        "type": "TALK_ROLE_NPC",
        "_id": "2016"
      },
      "talkContentTextMapHash": 513412346,
      "talkAssetPath": "",
      "talkAssetPathAlter": "",
      "talkAudioName": "",
      "actionBefore": "",
      "actionWhile": "SimpleTalk/Standby",
      "actionAfter": "",
      "optionIcon": "",
      "iconPath": ""
    },
    {
      "id": 210340711,
      "nextDialogs": [
        210340712
      ],
      "talkRole": {
        "type": "TALK_ROLE_NPC",
        "_id": "2016"
      },
      "talkContentTextMapHash": 2089655002,
      "talkAssetPath": "",
      "talkAssetPathAlter": "",
      "talkAudioName": "",
      "actionBefore": "",
      "actionWhile": "SimpleTalk/Think",
      "actionAfter": "",
      "optionIcon": "",
      "iconPath": ""
    },
    {
      "id": 210340712,
      "talkRole": {
        "type": "TALK_ROLE_NPC",
        "_id": "2016"
      },
      "talkContentTextMapHash": 996899298,
      "talkAssetPath": "",
      "talkAssetPathAlter": "",
      "talkAudioName": "",
      "actionBefore": "",
      "actionWhile": "",
      "actionAfter": "",
      "optionIcon": "",
      "iconPath": ""
    }
  ]
}