{
  "id": 21038,
  "damageRatio": "IQ",
  "activeMode": "PLAY_MODE_ALL",
  "descTextMapHash": 2241787199,
  "EKEKACCODOE": 817113726,
  "luaPath": "Actor/Quest/IQ21038",
  "repeatable": true,
  "taskID": 41363,
  "subQuests": [
    {
      "subId": 2103801,
      "mainId": 21038,
      "order": 1,
      "descTextMapHash": 4247641668,
      "finishCond": [
        {
          "damageRatio": "QUEST_CONTENT_COMPLETE_TALK",
          "param": [
            2103801,
            0
          ]
        }
      ],
      "guide": {
        "damageRatio": "QUEST_GUIDE_NPC",
        "param": [
          "2400"
        ],
        "guideScene": 3,
        "guideStyle": "QUEST_GUIDE_STYLE_TARGET",
        "guideLayer": "QUEST_GUIDE_LAYER_SCENE",
        "MLAHIFLGIGJ": ""
      },
      "guideHint": {
        "param1": ""
      },
      "isRewind": true,
      "versionBegin": "",
      "versionEnd": ""
    },
    {
      "subId": 2103802,
      "mainId": 21038,
      "order": 2,
      "descTextMapHash": 1459197548,
      "finishCond": [
        {
          "damageRatio": "QUEST_CONTENT_FINISH_PLOT",
          "param": [
            2103802,
            0
          ]
        }
      ],
      "guide": {
        "damageRatio": "QUEST_GUIDE_LOCATION",
        "param": [
          "Q21038_TAKEPHOTO"
        ],
        "guideScene": 3,
        "guideStyle": "QUEST_GUIDE_STYLE_POINT",
        "guideLayer": "QUEST_GUIDE_LAYER_SCENE",
        "MLAHIFLGIGJ": ""
      },
      "guideHint": {
        "param1": ""
      },
      "isRewind": true,
      "versionBegin": "",
      "versionEnd": ""
    },
    {
      "subId": 2103803,
      "mainId": 21038,
      "order": 3,
      "descTextMapHash": 4264872444,
      "finishCond": [
        {
          "damageRatio": "QUEST_CONTENT_COMPLETE_TALK",
          "param": [
            2103802,
            0
          ]
        }
      ],
      "guide": {
        "damageRatio": "QUEST_GUIDE_NPC",
        "param": [
          "2400"
        ],
        "guideScene": 3,
        "guideStyle": "QUEST_GUIDE_STYLE_TARGET",
        "guideLayer": "QUEST_GUIDE_LAYER_SCENE",
        "MLAHIFLGIGJ": ""
      },
      "guideHint": {
        "param1": ""
      },
      "finishParent": true,
      "isRewind": true,
      "finishExec": [
        {
          "damageRatio": "QUEST_EXEC_SET_QUEST_GLOBAL_VAR",
          "param": [
            "2103801",
            "1"
          ]
        },
        {
          "damageRatio": "QUEST_EXEC_NOTIFY_DAILY_TASK",
          "param": [
            "41363"
          ]
        }
      ],
      "versionBegin": "",
      "versionEnd": ""
    }
  ],
  "talks": [
    {
      "id": 2103801,
      "beginWay": "TALK_BEGIN_MANUAL",
      "activeMode": "PLAY_MODE_HOST",
      "beginCond": [
        {
          "type": "QUEST_COND_STATE_EQUAL",
          "_param": [
            "2103801",
            "2"
          ]
        }
      ],
      "priority": 5,
      "initDialog": 210380101,
      "npcId": [
        2400
      ],
      "performCfg": "",
      "heroTalk": "TALK_HERO_MAIN",
      "questId": 21038,
      "assetIndex": 7438821294504817643,
      "prePerformCfg": "",
      "freeStyleList": [
        1200,
        1130,
        1160
      ]
    },
    {
      "id": 2103802,
      "beginWay": "TALK_BEGIN_MANUAL",
      "activeMode": "PLAY_MODE_HOST",
      "beginCond": [
        {
          "type": "QUEST_COND_STATE_EQUAL",
          "_param": [
            "2103803",
            "2"
          ]
        }
      ],
      "priority": 5,
      "initDialog": 210380201,
      "npcId": [
        2400
      ],
      "performCfg": "",
      "heroTalk": "TALK_HERO_MAIN",
      "questId": 21038,
      "assetIndex": 2104894311704010744,
      "prePerformCfg": "",
      "freeStyleList": [
        1130,
        1240,
        1110,
        1160
      ]
    },
    {
      "id": 2103803,
      "beginWay": "TALK_BEGIN_MANUAL",
      "activeMode": "PLAY_MODE_HOST",
      "beginCond": [
        {
          "type": "QUEST_COND_STATE_EQUAL",
          "_param": [
            "2103802",
            "2"
          ]
        }
      ],
      "priority": 5,
      "npcId": [
        13057
      ],
      "performCfg": "QuestDialogue/Q2103803",
      "heroTalk": "TALK_HERO_MAIN",
      "questId": 21038,
      "assetIndex": 15429987618192395522,
      "prePerformCfg": ""
    },
    {
      "id": 2103804,
      "beginWay": "TALK_BEGIN_MANUAL",
      "activeMode": "PLAY_MODE_HOST",
      "beginCond": [
        {
          "type": "QUEST_COND_STATE_EQUAL",
          "_param": [
            "2103802",
            "2"
          ]
        }
      ],
      "priority": 5,
      "initDialog": 210380401,
      "npcId": [
        2400
      ],
      "performCfg": "",
      "heroTalk": "TALK_HERO_MAIN",
      "questId": 21038,
      "assetIndex": 3891701621271400051,
      "prePerformCfg": ""
    }
  ]
}