{
  "id": 22009,
  "damageRatio": "IQ",
  "activeMode": "PLAY_MODE_ALL",
  "descTextMapHash": 57308143,
  "EKEKACCODOE": 3743558150,
  "luaPath": "Actor/Quest/IQ22009",
  "repeatable": true,
  "taskID": 26900,
  "subQuests": [
    {
      "subId": 2200901,
      "mainId": 22009,
      "order": 1,
      "descTextMapHash": 1995090812,
      "finishCond": [
        {
          "damageRatio": "QUEST_CONTENT_COMPLETE_TALK",
          "param": [
            2200901,
            0
          ]
        }
      ],
      "guide": {
        "damageRatio": "QUEST_GUIDE_NPC",
        "param": [
          "2211"
        ],
        "guideScene": 3,
        "guideStyle": "QUEST_GUIDE_STYLE_START",
        "guideLayer": "QUEST_GUIDE_LAYER_SCENE",
        "MLAHIFLGIGJ": ""
      },
      "guideHint": {
        "param1": ""
      },
      "isRewind": true,
      "versionBegin": "",
      "versionEnd": ""
    },
    {
      "subId": 2200902,
      "mainId": 22009,
      "order": 2,
      "descTextMapHash": 1381568004,
      "finishCond": [
        {
          "damageRatio": "QUEST_CONTENT_LUA_NOTIFY",
          "param": [
            0,
            0
          ],
          "count": 1
        }
      ],
      "guide": {
        "damageRatio": "QUEST_GUIDE_LOCATION",
        "param": [
          "Q22009",
          "20"
        ],
        "guideScene": 3,
        "guideStyle": "QUEST_GUIDE_STYLE_TARGET",
        "guideLayer": "QUEST_GUIDE_LAYER_SCENE",
        "MLAHIFLGIGJ": ""
      },
      "guideHint": {
        "param1": ""
      },
      "isRewind": true,
      "versionBegin": "",
      "versionEnd": ""
    },
    {
      "subId": 2200903,
      "mainId": 22009,
      "order": 3,
      "descTextMapHash": 1026518692,
      "finishCond": [
        {
          "damageRatio": "QUEST_CONTENT_COMPLETE_TALK",
          "param": [
            2200903,
            0
          ]
        }
      ],
      "guide": {
        "damageRatio": "QUEST_GUIDE_NPC",
        "param": [
          "2211"
        ],
        "guideScene": 3,
        "guideStyle": "QUEST_GUIDE_STYLE_FINISH",
        "guideLayer": "QUEST_GUIDE_LAYER_SCENE",
        "MLAHIFLGIGJ": ""
      },
      "guideHint": {
        "param1": ""
      },
      "finishParent": true,
      "isRewind": true,
      "finishExec": [
        {
          "damageRatio": "QUEST_EXEC_NOTIFY_DAILY_TASK",
          "param": [
            "26900"
          ]
        },
        {
          "damageRatio": "QUEST_EXEC_DEL_ALL_SPECIFIC_PACK_ITEM",
          "param": [
            "100511"
          ]
        }
      ],
      "versionBegin": "",
      "versionEnd": ""
    }
  ],
  "talks": [
    {
      "id": 2200901,
      "beginWay": "TALK_BEGIN_MANUAL",
      "activeMode": "PLAY_MODE_ALL",
      "beginCond": [
        {
          "type": "QUEST_COND_STATE_EQUAL",
          "_param": [
            "2200901",
            "2"
          ]
        }
      ],
      "priority": 3,
      "initDialog": 220090101,
      "npcId": [
        2211
      ],
      "performCfg": "",
      "questId": 22009,
      "assetIndex": 1654793402071507402,
      "prePerformCfg": ""
    },
    {
      "id": 2200902,
      "beginWay": "TALK_BEGIN_MANUAL",
      "activeMode": "PLAY_MODE_ALL",
      "beginCond": [
        {
          "type": "QUEST_COND_STATE_EQUAL",
          "_param": [
            "2200902",
            "2"
          ]
        }
      ],
      "priority": 3,
      "initDialog": 220090201,
      "npcId": [
        2211
      ],
      "performCfg": "",
      "questId": 22009,
      "assetIndex": 17511434620924843907,
      "prePerformCfg": ""
    },
    {
      "id": 2200903,
      "beginWay": "TALK_BEGIN_MANUAL",
      "activeMode": "PLAY_MODE_ALL",
      "beginCond": [
        {
          "type": "QUEST_COND_STATE_EQUAL",
          "_param": [
            "2200903",
            "2"
          ]
        }
      ],
      "priority": 3,
      "initDialog": 220090301,
      "npcId": [
        2211
      ],
      "performCfg": "",
      "questId": 22009,
      "assetIndex": 14654638856411654154,
      "prePerformCfg": ""
    }
  ],
  "freeStyleDic": {
    "2211": [
      1190
    ]
  }
}