{
  "id": 22030,
  "damageRatio": "IQ",
  "activeMode": "PLAY_MODE_ALL",
  "descTextMapHash": 62175639,
  "EKEKACCODOE": 2037035806,
  "luaPath": "Actor/Quest/IQ22030",
  "repeatable": true,
  "taskID": 41230,
  "subQuests": [
    {
      "subId": 2203001,
      "mainId": 22030,
      "order": 1,
      "descTextMapHash": 746916300,
      "JIFODJPFKDF": [
        3001
      ],
      "finishCond": [
        {
          "damageRatio": "QUEST_CONTENT_COMPLETE_TALK",
          "param": [
            2203001,
            0
          ]
        }
      ],
      "guide": {
        "damageRatio": "QUEST_GUIDE_NPC",
        "autoGuide": "QUEST_GUIDE_AUTO_ENABLE",
        "param": [
          "20271"
        ],
        "guideScene": 3,
        "guideStyle": "QUEST_GUIDE_STYLE_START",
        "guideLayer": "QUEST_GUIDE_LAYER_UI",
        "MLAHIFLGIGJ": ""
      },
      "guideHint": {
        "param1": ""
      },
      "isRewind": true,
      "versionBegin": "",
      "versionEnd": ""
    },
    {
      "subId": 2203002,
      "mainId": 22030,
      "order": 2,
      "descTextMapHash": 236973596,
      "JIFODJPFKDF": [
        3001
      ],
      "finishCond": [
        {
          "damageRatio": "QUEST_CONTENT_FINISH_PLOT",
          "param": [
            2203002,
            0
          ]
        }
      ],
      "guide": {
        "damageRatio": "QUEST_GUIDE_LOCATION",
        "autoGuide": "QUEST_GUIDE_AUTO_ENABLE",
        "param": [
          "Q22030_01"
        ],
        "guideScene": 3,
        "guideStyle": "QUEST_GUIDE_STYLE_POINT",
        "guideLayer": "QUEST_GUIDE_LAYER_UI",
        "MLAHIFLGIGJ": ""
      },
      "guideHint": {
        "param1": ""
      },
      "isRewind": true,
      "versionBegin": "",
      "versionEnd": ""
    },
    {
      "subId": 2203003,
      "mainId": 22030,
      "order": 3,
      "descTextMapHash": 1928851044,
      "showType": "QUEST_HIDDEN",
      "finishCond": [
        {
          "damageRatio": "QUEST_CONTENT_COMPLETE_TALK",
          "param": [
            2203004,
            0
          ]
        }
      ],
      "failCond": [
        {
          "damageRatio": "QUEST_CONTENT_QUEST_STATE_EQUAL",
          "param": [
            2203004,
            3
          ]
        }
      ],
      "guide": {
        "MLAHIFLGIGJ": ""
      },
      "guideHint": {
        "param1": ""
      },
      "versionBegin": "",
      "versionEnd": ""
    },
    {
      "subId": 2203004,
      "mainId": 22030,
      "order": 4,
      "descTextMapHash": 408942068,
      "showType": "QUEST_HIDDEN",
      "finishCond": [
        {
          "damageRatio": "QUEST_CONTENT_COMPLETE_TALK",
          "param": [
            2203003,
            0
          ]
        }
      ],
      "failCond": [
        {
          "damageRatio": "QUEST_CONTENT_QUEST_STATE_EQUAL",
          "param": [
            2203003,
            3
          ]
        }
      ],
      "guide": {
        "MLAHIFLGIGJ": ""
      },
      "guideHint": {
        "param1": ""
      },
      "versionBegin": "",
      "versionEnd": ""
    },
    {
      "subId": 2203005,
      "mainId": 22030,
      "order": 5,
      "descTextMapHash": 4049331596,
      "finishCond": [
        {
          "damageRatio": "QUEST_CONTENT_LUA_NOTIFY",
          "param": [
            0,
            0
          ],
          "count": 1
        }
      ],
      "guide": {
        "damageRatio": "QUEST_GUIDE_LOCATION",
        "autoGuide": "QUEST_GUIDE_AUTO_ENABLE",
        "param": [
          "Q22030_02",
          "30"
        ],
        "guideScene": 3,
        "guideStyle": "QUEST_GUIDE_STYLE_TARGET",
        "guideLayer": "QUEST_GUIDE_LAYER_UI",
        "MLAHIFLGIGJ": ""
      },
      "guideHint": {
        "param1": ""
      },
      "isRewind": true,
      "versionBegin": "",
      "versionEnd": ""
    },
    {
      "subId": 2203006,
      "mainId": 22030,
      "order": 6,
      "descTextMapHash": 937390724,
      "finishCond": [
        {
          "damageRatio": "QUEST_CONTENT_LUA_NOTIFY",
          "param": [
            0,
            0
          ],
          "count": 1
        }
      ],
      "guide": {
        "damageRatio": "QUEST_GUIDE_LOCATION",
        "autoGuide": "QUEST_GUIDE_AUTO_ENABLE",
        "param": [
          "Q22030_03",
          "30"
        ],
        "guideScene": 3,
        "guideStyle": "QUEST_GUIDE_STYLE_TARGET",
        "guideLayer": "QUEST_GUIDE_LAYER_UI",
        "MLAHIFLGIGJ": ""
      },
      "guideHint": {
        "param1": ""
      },
      "isRewind": true,
      "versionBegin": "",
      "versionEnd": ""
    },
    {
      "subId": 2203007,
      "mainId": 22030,
      "order": 7,
      "descTextMapHash": 3763579996,
      "finishCond": [
        {
          "damageRatio": "QUEST_CONTENT_INTERACT_GADGET",
          "param": [
            70710041,
            0
          ],
          "count": 1
        }
      ],
      "guide": {
        "damageRatio": "QUEST_GUIDE_LOCATION",
        "autoGuide": "QUEST_GUIDE_AUTO_ENABLE",
        "param": [
          "Q22030_02",
          "20"
        ],
        "guideScene": 3,
        "guideStyle": "QUEST_GUIDE_STYLE_TARGET",
        "guideLayer": "QUEST_GUIDE_LAYER_UI",
        "MLAHIFLGIGJ": ""
      },
      "guideHint": {
        "param1": ""
      },
      "isRewind": true,
      "versionBegin": "",
      "versionEnd": ""
    },
    {
      "subId": 2203008,
      "mainId": 22030,
      "order": 8,
      "descTextMapHash": 4290411460,
      "finishCond": [
        {
          "damageRatio": "QUEST_CONTENT_INTERACT_GADGET",
          "param": [
            70710041,
            0
          ],
          "count": 1
        }
      ],
      "guide": {
        "damageRatio": "QUEST_GUIDE_LOCATION",
        "autoGuide": "QUEST_GUIDE_AUTO_ENABLE",
        "param": [
          "Q22030_03",
          "20"
        ],
        "guideScene": 3,
        "guideStyle": "QUEST_GUIDE_STYLE_TARGET",
        "guideLayer": "QUEST_GUIDE_LAYER_UI",
        "MLAHIFLGIGJ": ""
      },
      "guideHint": {
        "param1": ""
      },
      "isRewind": true,
      "versionBegin": "",
      "versionEnd": ""
    },
    {
      "subId": 2203009,
      "mainId": 22030,
      "order": 9,
      "descTextMapHash": 824110700,
      "finishCond": [
        {
          "damageRatio": "QUEST_CONTENT_FINISH_ITEM_GIVING",
          "param": [
            2203001,
            0
          ]
        }
      ],
      "guide": {
        "damageRatio": "QUEST_GUIDE_NPC",
        "autoGuide": "QUEST_GUIDE_AUTO_ENABLE",
        "param": [
          "20271"
        ],
        "guideScene": 3,
        "guideStyle": "QUEST_GUIDE_STYLE_TARGET",
        "guideLayer": "QUEST_GUIDE_LAYER_UI",
        "MLAHIFLGIGJ": ""
      },
      "guideHint": {
        "param1": ""
      },
      "isRewind": true,
      "versionBegin": "",
      "versionEnd": ""
    },
    {
      "subId": 2203010,
      "mainId": 22030,
      "order": 10,
      "descTextMapHash": 2427544788,
      "finishCond": [
        {
          "damageRatio": "QUEST_CONTENT_FINISH_ITEM_GIVING",
          "param": [
            2203001,
            0
          ]
        }
      ],
      "guide": {
        "damageRatio": "QUEST_GUIDE_NPC",
        "autoGuide": "QUEST_GUIDE_AUTO_ENABLE",
        "param": [
          "20271"
        ],
        "guideScene": 3,
        "guideStyle": "QUEST_GUIDE_STYLE_TARGET",
        "guideLayer": "QUEST_GUIDE_LAYER_UI",
        "MLAHIFLGIGJ": ""
      },
      "guideHint": {
        "param1": ""
      },
      "isRewind": true,
      "versionBegin": "",
      "versionEnd": ""
    },
    {
      "subId": 2203011,
      "mainId": 22030,
      "order": 12,
      "descTextMapHash": 4286755092,
      "finishCond": [
        {
          "damageRatio": "QUEST_CONTENT_COMPLETE_TALK",
          "param": [
            2203006,
            0
          ]
        }
      ],
      "guide": {
        "damageRatio": "QUEST_GUIDE_NPC",
        "autoGuide": "QUEST_GUIDE_AUTO_ENABLE",
        "param": [
          "20271"
        ],
        "guideScene": 3,
        "guideStyle": "QUEST_GUIDE_STYLE_FINISH",
        "guideLayer": "QUEST_GUIDE_LAYER_UI",
        "MLAHIFLGIGJ": ""
      },
      "guideHint": {
        "param1": ""
      },
      "finishParent": true,
      "isRewind": true,
      "finishExec": [
        {
          "damageRatio": "QUEST_EXEC_UNREGISTER_DYNAMIC_GROUP",
          "param": [
            "133220391",
            "1"
          ]
        },
        {
          "damageRatio": "QUEST_EXEC_UNREGISTER_DYNAMIC_GROUP",
          "param": [
            "133209020",
            "1"
          ]
        },
        {
          "damageRatio": "QUEST_EXEC_UNREGISTER_DYNAMIC_GROUP",
          "param": [
            "133209022",
            "1"
          ]
        },
        {
          "damageRatio": "QUEST_EXEC_SET_DAILY_TASK_VAR",
          "param": [
            "41230",
            "2",
            "50"
          ]
        },
        {
          "damageRatio": "QUEST_EXEC_NOTIFY_DAILY_TASK",
          "param": [
            "41230"
          ]
        }
      ],
      "versionBegin": "",
      "versionEnd": ""
    },
    {
      "subId": 2203012,
      "mainId": 22030,
      "order": 13,
      "descTextMapHash": 1525378460,
      "finishCond": [
        {
          "damageRatio": "QUEST_CONTENT_COMPLETE_TALK",
          "param": [
            2203007,
            0
          ]
        }
      ],
      "guide": {
        "damageRatio": "QUEST_GUIDE_NPC",
        "autoGuide": "QUEST_GUIDE_AUTO_ENABLE",
        "param": [
          "20271"
        ],
        "guideScene": 3,
        "guideStyle": "QUEST_GUIDE_STYLE_FINISH",
        "guideLayer": "QUEST_GUIDE_LAYER_UI",
        "MLAHIFLGIGJ": ""
      },
      "guideHint": {
        "param1": ""
      },
      "finishParent": true,
      "isRewind": true,
      "finishExec": [
        {
          "damageRatio": "QUEST_EXEC_UNREGISTER_DYNAMIC_GROUP",
          "param": [
            "133220390",
            "1"
          ]
        },
        {
          "damageRatio": "QUEST_EXEC_UNREGISTER_DYNAMIC_GROUP",
          "param": [
            "133209022",
            "1"
          ]
        },
        {
          "damageRatio": "QUEST_EXEC_UNREGISTER_DYNAMIC_GROUP",
          "param": [
            "133209020",
            "1"
          ]
        },
        {
          "damageRatio": "QUEST_EXEC_SET_DAILY_TASK_VAR",
          "param": [
            "41230",
            "3",
            "50"
          ]
        },
        {
          "damageRatio": "QUEST_EXEC_NOTIFY_DAILY_TASK",
          "param": [
            "41230"
          ]
        }
      ],
      "versionBegin": "",
      "versionEnd": ""
    },
    {
      "subId": 2203013,
      "mainId": 22030,
      "order": 11,
      "showType": "QUEST_HIDDEN",
      "finishCond": [
        {
          "damageRatio": "QUEST_CONTENT_FINISH_ITEM_GIVING",
          "param": [
            2203001,
            0
          ]
        }
      ],
      "guide": {
        "MLAHIFLGIGJ": ""
      },
      "guideHint": {
        "param1": ""
      },
      "versionBegin": "",
      "versionEnd": ""
    }
  ],
  "talks": [
    {
      "id": 2203001,
      "beginWay": "TALK_BEGIN_MANUAL",
      "activeMode": "PLAY_MODE_HOST",
      "beginCond": [
        {
          "type": "QUEST_COND_STATE_EQUAL",
          "_param": [
            "2203001",
            "2"
          ]
        }
      ],
      "priority": 5,
      "initDialog": 220300101,
      "npcId": [
        20271
      ],
      "performCfg": "",
      "heroTalk": "TALK_HERO_MAIN",
      "questId": 22030,
      "assetIndex": 12743765355681113747,
      "prePerformCfg": ""
    },
    {
      "id": 2203002,
      "beginWay": "TALK_BEGIN_MANUAL",
      "activeMode": "PLAY_MODE_HOST",
      "beginCond": [
        {
          "type": "QUEST_COND_STATE_EQUAL",
          "_param": [
            "2203003",
            "2"
          ]
        }
      ],
      "priority": 5,
      "nextTalks": [
        2203003,
        2203004
      ],
      "initDialog": 220300201,
      "npcId": [
        20271
      ],
      "performCfg": "QuestDialogue/IQ/Inazuma_22030/Q2203002",
      "heroTalk": "TALK_HERO_MAIN",
      "questId": 22030,
      "assetIndex": 2897553569477348756,
      "prePerformCfg": ""
    },
    {
      "id": 2203003,
      "activeMode": "PLAY_MODE_HOST",
      "beginCond": [
        {
          "type": "QUEST_COND_STATE_EQUAL",
          "_param": [
            "2203004",
            "2"
          ]
        }
      ],
      "priority": 5,
      "initDialog": 220300301,
      "npcId": [
        20271
      ],
      "performCfg": "QuestDialogue/IQ/Inazuma_22030/Q2203003",
      "heroTalk": "TALK_HERO_MAIN",
      "questId": 22030,
      "assetIndex": 16186660559207711493,
      "prePerformCfg": ""
    },
    {
      "id": 2203004,
      "activeMode": "PLAY_MODE_HOST",
      "beginCond": [
        {
          "type": "QUEST_COND_STATE_EQUAL",
          "_param": [
            "2203003",
            "2"
          ]
        }
      ],
      "priority": 5,
      "initDialog": 220300401,
      "npcId": [
        20271
      ],
      "performCfg": "QuestDialogue/IQ/Inazuma_22030/Q2203004",
      "heroTalk": "TALK_HERO_MAIN",
      "questId": 22030,
      "assetIndex": 17944498195345614554,
      "prePerformCfg": ""
    },
    {
      "id": 2203005,
      "beginWay": "TALK_BEGIN_MANUAL",
      "activeMode": "PLAY_MODE_HOST",
      "beginCondComb": "LOGIC_AND",
      "beginCond": [
        {
          "type": "QUEST_COND_STATE_EQUAL",
          "_param": [
            "2203013",
            "2"
          ]
        },
        {
          "type": "QUEST_COND_ITEM_GIVING_ACTIVED",
          "_param": [
            "2203001"
          ]
        }
      ],
      "priority": 5,
      "initDialog": 220300501,
      "npcId": [
        20271
      ],
      "performCfg": "",
      "heroTalk": "TALK_HERO_MAIN",
      "questId": 22030,
      "assetIndex": 17458010699185693008,
      "prePerformCfg": ""
    },
    {
      "id": 2203006,
      "beginWay": "TALK_BEGIN_AUTO",
      "activeMode": "PLAY_MODE_HOST",
      "beginCond": [
        {
          "type": "QUEST_COND_STATE_EQUAL",
          "_param": [
            "2203011",
            "2"
          ]
        }
      ],
      "priority": 5,
      "initDialog": 220300601,
      "npcId": [
        20271
      ],
      "performCfg": "",
      "heroTalk": "TALK_HERO_MAIN",
      "questId": 22030,
      "assetIndex": 9542873251729468548,
      "prePerformCfg": ""
    },
    {
      "id": 2203007,
      "beginWay": "TALK_BEGIN_AUTO",
      "activeMode": "PLAY_MODE_HOST",
      "beginCond": [
        {
          "type": "QUEST_COND_STATE_EQUAL",
          "_param": [
            "2203012",
            "2"
          ]
        }
      ],
      "priority": 5,
      "initDialog": 220300701,
      "npcId": [
        20271
      ],
      "performCfg": "",
      "heroTalk": "TALK_HERO_MAIN",
      "questId": 22030,
      "assetIndex": 15492048095413009709,
      "prePerformCfg": ""
    }
  ],
  "preloadLuaList": [
    5126145447215412030
  ],
  "forcePreloadLuaList": [
    18310609599474753965
  ]
}