{
  "id": 23000,
  "damageRatio": "IQ",
  "activeMode": "PLAY_MODE_ALL",
  "descTextMapHash": 2198761591,
  "EKEKACCODOE": 2857727406,
  "luaPath": "Actor/Quest/IQ23000",
  "repeatable": true,
  "taskID": 42090,
  "subQuests": [
    {
      "subId": 2300001,
      "mainId": 23000,
      "order": 1,
      "descTextMapHash": 1242085764,
      "finishCond": [
        {
          "damageRatio": "QUEST_CONTENT_COMPLETE_TALK",
          "param": [
            2300004,
            0
          ]
        },
        {
          "damageRatio": "QUEST_CONTENT_COMPLETE_TALK",
          "param": [
            2300005,
            0
          ]
        },
        {
          "damageRatio": "QUEST_CONTENT_COMPLETE_TALK",
          "param": [
            2300006,
            0
          ]
        }
      ],
      "guide": {
        "damageRatio": "QUEST_GUIDE_NPC",
        "param": [
          "4003"
        ],
        "guideScene": 3,
        "MLAHIFLGIGJ": ""
      },
      "guideHint": {
        "param1": ""
      },
      "isRewind": true,
      "versionBegin": "",
      "versionEnd": ""
    },
    {
      "subId": 2300002,
      "mainId": 23000,
      "order": 2,
      "descTextMapHash": 2101210052,
      "guideTipsTextMapHash": 1175811838,
      "finishCond": [
        {
          "damageRatio": "QUEST_CONTENT_GAME_TIME_TICK",
          "param": [
            1,
            0
          ]
        }
      ],
      "guide": {
        "MLAHIFLGIGJ": ""
      },
      "guideHint": {
        "param1": ""
      },
      "isRewind": true,
      "versionBegin": "",
      "versionEnd": ""
    },
    {
      "subId": 2300003,
      "mainId": 23000,
      "order": 3,
      "descTextMapHash": 1722139060,
      "JIFODJPFKDF": [
        107401
      ],
      "finishCond": [
        {
          "damageRatio": "QUEST_CONTENT_FINISH_PLOT",
          "param": [
            2300003,
            0
          ]
        },
        {
          "damageRatio": "QUEST_CONTENT_ENTER_ROOM",
          "param": [
            1074,
            0
          ]
        }
      ],
      "failCond": [
        {
          "damageRatio": "QUEST_CONTENT_GAME_TIME_TICK",
          "param": [
            0,
            0
          ]
        }
      ],
      "guide": {
        "damageRatio": "QUEST_GUIDE_NPC",
        "param": [
          "4003"
        ],
        "guideScene": 1074,
        "MLAHIFLGIGJ": ""
      },
      "guideHint": {
        "param1": ""
      },
      "isRewind": true,
      "failExec": [
        {
          "damageRatio": "QUEST_EXEC_ROLLBACK_QUEST",
          "param": [
            "2300002"
          ]
        }
      ],
      "versionBegin": "",
      "versionEnd": ""
    },
    {
      "subId": 2300004,
      "mainId": 23000,
      "order": 4,
      "descTextMapHash": 3812551244,
      "JIFODJPFKDF": [
        107401
      ],
      "finishCond": [
        {
          "damageRatio": "QUEST_CONTENT_COMPLETE_TALK",
          "param": [
            2300013,
            0
          ]
        },
        {
          "damageRatio": "QUEST_CONTENT_COMPLETE_TALK",
          "param": [
            2300017,
            0
          ]
        }
      ],
      "failCond": [
        {
          "damageRatio": "QUEST_CONTENT_GAME_TIME_TICK",
          "param": [
            0,
            0
          ]
        }
      ],
      "guide": {
        "damageRatio": "QUEST_GUIDE_NPC",
        "param": [
          "4003"
        ],
        "guideScene": 1074,
        "MLAHIFLGIGJ": ""
      },
      "guideHint": {
        "param1": ""
      },
      "finishParent": true,
      "finishExec": [
        {
          "damageRatio": "QUEST_EXEC_NOTIFY_DAILY_TASK",
          "param": [
            "42090"
          ]
        }
      ],
      "failExec": [
        {
          "damageRatio": "QUEST_EXEC_ROLLBACK_QUEST",
          "param": [
            "2300002"
          ]
        }
      ],
      "versionBegin": "",
      "versionEnd": ""
    }
  ],
  "talks": [
    {
      "id": 2300003,
      "beginWay": "TALK_BEGIN_MANUAL",
      "activeMode": "PLAY_MODE_HOST",
      "beginCond": [
        {
          "type": "QUEST_COND_STATE_EQUAL",
          "_param": [
            "2300001",
            "2"
          ]
        }
      ],
      "priority": 5,
      "nextTalks": [
        2300004,
        2300005,
        2300006
      ],
      "initDialog": 230000301,
      "npcId": [
        4003
      ],
      "performCfg": "QuestDialogue/IQ/Sumeru_23000/Q2300003",
      "heroTalk": "TALK_HERO_MAIN",
      "questId": 23000,
      "assetIndex": 11004553692493287259,
      "prePerformCfg": ""
    },
    {
      "id": 2300004,
      "activeMode": "PLAY_MODE_HOST",
      "beginCond": [
        {
          "type": "QUEST_COND_QUEST_GLOBAL_VAR_EQUAL",
          "_param": [
            "10003",
            "1"
          ]
        }
      ],
      "priority": 5,
      "nextTalks": [
        2300007,
        2300008
      ],
      "initDialog": 230000400,
      "npcId": [
        4003
      ],
      "performCfg": "QuestDialogue/IQ/Sumeru_23000/Q2300004",
      "heroTalk": "TALK_HERO_MAIN",
      "questId": 23000,
      "assetIndex": 16431404803078825002,
      "prePerformCfg": ""
    },
    {
      "id": 2300005,
      "activeMode": "PLAY_MODE_HOST",
      "beginCond": [
        {
          "type": "QUEST_COND_QUEST_GLOBAL_VAR_EQUAL",
          "_param": [
            "10006",
            "1"
          ]
        }
      ],
      "priority": 5,
      "nextTalks": [
        2300007,
        2300008
      ],
      "initDialog": 230000500,
      "npcId": [
        4003
      ],
      "performCfg": "QuestDialogue/IQ/Sumeru_23000/Q2300005",
      "heroTalk": "TALK_HERO_MAIN",
      "questId": 23000,
      "assetIndex": 15690220052900859259,
      "prePerformCfg": ""
    },
    {
      "id": 2300006,
      "activeMode": "PLAY_MODE_HOST",
      "beginCond": [
        {
          "type": "QUEST_COND_QUEST_GLOBAL_VAR_EQUAL",
          "_param": [
            "10014",
            "1"
          ]
        }
      ],
      "priority": 5,
      "nextTalks": [
        2300007,
        2300008
      ],
      "initDialog": 230000600,
      "npcId": [
        4003
      ],
      "performCfg": "QuestDialogue/IQ/Sumeru_23000/Q2300006",
      "heroTalk": "TALK_HERO_MAIN",
      "questId": 23000,
      "assetIndex": 5927504682031039761,
      "prePerformCfg": ""
    },
    {
      "id": 2300007,
      "activeMode": "PLAY_MODE_HOST",
      "beginCond": [
        {
          "type": "QUEST_COND_QUEST_VAR_GREATER",
          "_param": [
            "1",
            "1",
            "23000"
          ]
        }
      ],
      "priority": 5,
      "initDialog": 230000701,
      "npcId": [
        4003
      ],
      "performCfg": "QuestDialogue/IQ/Sumeru_23000/Q2300007",
      "heroTalk": "TALK_HERO_MAIN",
      "questId": 23000,
      "assetIndex": 887086098666665375,
      "prePerformCfg": ""
    },
    {
      "id": 2300008,
      "activeMode": "PLAY_MODE_HOST",
      "beginCond": [
        {
          "type": "QUEST_COND_QUEST_VAR_LESS",
          "_param": [
            "1",
            "2",
            "23000"
          ]
        }
      ],
      "priority": 5,
      "initDialog": 230000801,
      "npcId": [
        4003
      ],
      "performCfg": "QuestDialogue/IQ/Sumeru_23000/Q2300008",
      "heroTalk": "TALK_HERO_MAIN",
      "questId": 23000,
      "assetIndex": 9078567957738152263,
      "prePerformCfg": ""
    },
    {
      "id": 2300009,
      "beginWay": "TALK_BEGIN_MANUAL",
      "activeMode": "PLAY_MODE_HOST",
      "beginCondComb": "LOGIC_OR",
      "beginCond": [
        {
          "type": "QUEST_COND_STATE_EQUAL",
          "_param": [
            "2300002",
            "2"
          ]
        },
        {
          "type": "QUEST_COND_STATE_EQUAL",
          "_param": [
            "2300003",
            "2"
          ]
        }
      ],
      "priority": 5,
      "initDialog": 230000901,
      "npcId": [
        4003
      ],
      "performCfg": "",
      "heroTalk": "TALK_HERO_MAIN",
      "questId": 23000,
      "assetIndex": 13804368246069695271,
      "prePerformCfg": ""
    },
    {
      "id": 2300010,
      "beginWay": "TALK_BEGIN_MANUAL",
      "activeMode": "PLAY_MODE_HOST",
      "beginCondComb": "LOGIC_AND",
      "beginCond": [
        {
          "type": "QUEST_COND_QUEST_VAR_EQUAL",
          "_param": [
            "0",
            "0",
            "23000"
          ]
        },
        {
          "type": "QUEST_COND_QUEST_VAR_LESS",
          "_param": [
            "1",
            "2",
            "23000"
          ]
        },
        {
          "type": "QUEST_COND_STATE_EQUAL",
          "_param": [
            "2300004",
            "2"
          ]
        }
      ],
      "priority": 5,
      "nextTalks": [
        2300013
      ],
      "initDialog": 230001001,
      "npcId": [
        4003,
        4001,
        4005
      ],
      "performCfg": "QuestDialogue/IQ/Sumeru_23000/Q2300010",
      "heroTalk": "TALK_HERO_MAIN",
      "questId": 23000,
      "assetIndex": 11335931936768077657,
      "prePerformCfg": "",
      "lockGameTime": true
    },
    {
      "id": 2300011,
      "beginWay": "TALK_BEGIN_MANUAL",
      "activeMode": "PLAY_MODE_HOST",
      "beginCondComb": "LOGIC_AND",
      "beginCond": [
        {
          "type": "QUEST_COND_QUEST_VAR_EQUAL",
          "_param": [
            "0",
            "1",
            "23000"
          ]
        },
        {
          "type": "QUEST_COND_QUEST_VAR_LESS",
          "_param": [
            "1",
            "2",
            "23000"
          ]
        },
        {
          "type": "QUEST_COND_STATE_EQUAL",
          "_param": [
            "2300004",
            "2"
          ]
        }
      ],
      "priority": 5,
      "nextTalks": [
        2300013
      ],
      "initDialog": 230001101,
      "npcId": [
        4003,
        4001,
        4005
      ],
      "performCfg": "QuestDialogue/IQ/Sumeru_23000/Q2300011",
      "heroTalk": "TALK_HERO_MAIN",
      "questId": 23000,
      "assetIndex": 15989816465757124555,
      "prePerformCfg": "",
      "lockGameTime": true
    },
    {
      "id": 2300012,
      "beginWay": "TALK_BEGIN_MANUAL",
      "activeMode": "PLAY_MODE_HOST",
      "beginCondComb": "LOGIC_AND",
      "beginCond": [
        {
          "type": "QUEST_COND_QUEST_VAR_EQUAL",
          "_param": [
            "0",
            "2",
            "23000"
          ]
        },
        {
          "type": "QUEST_COND_QUEST_VAR_LESS",
          "_param": [
            "1",
            "2",
            "23000"
          ]
        },
        {
          "type": "QUEST_COND_STATE_EQUAL",
          "_param": [
            "2300004",
            "2"
          ]
        }
      ],
      "priority": 5,
      "nextTalks": [
        2300013
      ],
      "initDialog": 230001201,
      "npcId": [
        4003,
        4001,
        4005
      ],
      "performCfg": "QuestDialogue/IQ/Sumeru_23000/Q2300012",
      "heroTalk": "TALK_HERO_MAIN",
      "questId": 23000,
      "assetIndex": 13114130540612121777,
      "prePerformCfg": "",
      "lockGameTime": true
    },
    {
      "id": 2300013,
      "activeMode": "PLAY_MODE_HOST",
      "priority": 5,
      "initDialog": 230001301,
      "npcId": [
        4003
      ],
      "performCfg": "QuestDialogue/IQ/Sumeru_23000/Q2300013",
      "heroTalk": "TALK_HERO_MAIN",
      "questId": 23000,
      "assetIndex": 3044765584903347558,
      "prePerformCfg": "",
      "lockGameTime": true
    },
    {
      "id": 2300014,
      "beginWay": "TALK_BEGIN_MANUAL",
      "activeMode": "PLAY_MODE_HOST",
      "beginCondComb": "LOGIC_AND",
      "beginCond": [
        {
          "type": "QUEST_COND_QUEST_VAR_EQUAL",
          "_param": [
            "0",
            "0",
            "23000"
          ]
        },
        {
          "type": "QUEST_COND_QUEST_VAR_GREATER",
          "_param": [
            "1",
            "1",
            "23000"
          ]
        },
        {
          "type": "QUEST_COND_STATE_EQUAL",
          "_param": [
            "2300004",
            "2"
          ]
        }
      ],
      "priority": 5,
      "nextTalks": [
        2300017
      ],
      "initDialog": 230001401,
      "npcId": [
        4003,
        4001,
        4005
      ],
      "performCfg": "QuestDialogue/IQ/Sumeru_23000/Q2300014",
      "heroTalk": "TALK_HERO_MAIN",
      "questId": 23000,
      "assetIndex": 11589059511686721563,
      "prePerformCfg": "",
      "lockGameTime": true
    },
    {
      "id": 2300015,
      "beginWay": "TALK_BEGIN_MANUAL",
      "activeMode": "PLAY_MODE_HOST",
      "beginCondComb": "LOGIC_AND",
      "beginCond": [
        {
          "type": "QUEST_COND_QUEST_VAR_EQUAL",
          "_param": [
            "0",
            "1",
            "23000"
          ]
        },
        {
          "type": "QUEST_COND_QUEST_VAR_GREATER",
          "_param": [
            "1",
            "1",
            "23000"
          ]
        },
        {
          "type": "QUEST_COND_STATE_EQUAL",
          "_param": [
            "2300004",
            "2"
          ]
        }
      ],
      "priority": 5,
      "nextTalks": [
        2300017
      ],
      "initDialog": 230001501,
      "npcId": [
        4003,
        4001,
        4005
      ],
      "performCfg": "QuestDialogue/IQ/Sumeru_23000/Q2300015",
      "heroTalk": "TALK_HERO_MAIN",
      "questId": 23000,
      "assetIndex": 11430582215737425491,
      "prePerformCfg": "",
      "lockGameTime": true
    },
    {
      "id": 2300016,
      "beginWay": "TALK_BEGIN_MANUAL",
      "activeMode": "PLAY_MODE_HOST",
      "beginCondComb": "LOGIC_AND",
      "beginCond": [
        {
          "type": "QUEST_COND_QUEST_VAR_EQUAL",
          "_param": [
            "0",
            "2",
            "23000"
          ]
        },
        {
          "type": "QUEST_COND_QUEST_VAR_GREATER",
          "_param": [
            "1",
            "1",
            "23000"
          ]
        },
        {
          "type": "QUEST_COND_STATE_EQUAL",
          "_param": [
            "2300004",
            "2"
          ]
        }
      ],
      "priority": 5,
      "nextTalks": [
        2300017
      ],
      "initDialog": 230001601,
      "npcId": [
        4003,
        4001,
        4005
      ],
      "performCfg": "QuestDialogue/IQ/Sumeru_23000/Q2300016",
      "heroTalk": "TALK_HERO_MAIN",
      "questId": 23000,
      "assetIndex": 746612270259467579,
      "prePerformCfg": "",
      "lockGameTime": true
    },
    {
      "id": 2300017,
      "activeMode": "PLAY_MODE_HOST",
      "priority": 5,
      "initDialog": 230001701,
      "npcId": [
        4003
      ],
      "performCfg": "QuestDialogue/IQ/Sumeru_23000/Q2300017",
      "heroTalk": "TALK_HERO_MAIN",
      "questId": 23000,
      "assetIndex": 14052005559119689264,
      "prePerformCfg": "",
      "lockGameTime": true
    }
  ],
  "preloadLuaList": [
    9474340469270867911
  ],
  "forcePreloadLuaList": [
    16659034808816391666
  ],
  "freeStyleDic": {
    "4003": [
      1160
    ]
  }
}