{
  "id": 23008,
  "damageRatio": "IQ",
  "activeMode": "PLAY_MODE_ALL",
  "descTextMapHash": 753026527,
  "EKEKACCODOE": 4137112622,
  "luaPath": "Actor/Quest/IQ23008",
  "repeatable": true,
  "taskID": 42310,
  "subQuests": [
    {
      "subId": 2300801,
      "mainId": 23008,
      "order": 1,
      "descTextMapHash": 4012048732,
      "finishCond": [
        {
          "damageRatio": "QUEST_CONTENT_COMPLETE_TALK",
          "param": [
            2300801,
            0
          ]
        }
      ],
      "guide": {
        "damageRatio": "QUEST_GUIDE_NPC",
        "param": [
          "4016"
        ],
        "guideScene": 3,
        "guideStyle": "QUEST_GUIDE_STYLE_TARGET",
        "guideLayer": "QUEST_GUIDE_LAYER_SCENE",
        "MLAHIFLGIGJ": ""
      },
      "guideHint": {
        "param1": ""
      },
      "isRewind": true,
      "versionBegin": "",
      "versionEnd": ""
    },
    {
      "subId": 2300802,
      "mainId": 23008,
      "order": 2,
      "descTextMapHash": 133685396,
      "finishCond": [
        {
          "damageRatio": "QUEST_CONTENT_FINISH_ITEM_GIVING",
          "param": [
            2300802,
            0
          ]
        }
      ],
      "guide": {
        "damageRatio": "QUEST_GUIDE_NPC",
        "param": [
          "4016"
        ],
        "guideScene": 3,
        "guideStyle": "QUEST_GUIDE_STYLE_TARGET",
        "guideLayer": "QUEST_GUIDE_LAYER_SCENE",
        "MLAHIFLGIGJ": ""
      },
      "guideHint": {
        "param1": ""
      },
      "isRewind": true,
      "versionBegin": "",
      "versionEnd": ""
    },
    {
      "subId": 2300803,
      "mainId": 23008,
      "order": 3,
      "descTextMapHash": 1077697860,
      "finishCond": [
        {
          "damageRatio": "QUEST_CONTENT_COMPLETE_TALK",
          "param": [
            2300803,
            0
          ]
        }
      ],
      "guide": {
        "damageRatio": "QUEST_GUIDE_NPC",
        "param": [
          "4016"
        ],
        "guideScene": 3,
        "guideStyle": "QUEST_GUIDE_STYLE_TARGET",
        "guideLayer": "QUEST_GUIDE_LAYER_SCENE",
        "MLAHIFLGIGJ": ""
      },
      "guideHint": {
        "param1": ""
      },
      "finishParent": true,
      "isRewind": true,
      "finishExec": [
        {
          "damageRatio": "QUEST_EXEC_SET_DAILY_TASK_VAR",
          "param": [
            "42310",
            "0",
            "1"
          ]
        },
        {
          "damageRatio": "QUEST_EXEC_NOTIFY_DAILY_TASK",
          "param": [
            "42310"
          ]
        }
      ],
      "versionBegin": "",
      "versionEnd": ""
    }
  ],
  "talks": [
    {
      "id": 2300801,
      "beginWay": "TALK_BEGIN_MANUAL",
      "activeMode": "PLAY_MODE_ALL",
      "beginCond": [
        {
          "type": "QUEST_COND_STATE_EQUAL",
          "_param": [
            "2300801",
            "2"
          ]
        }
      ],
      "priority": 5,
      "initDialog": 230080101,
      "npcId": [
        4016
      ],
      "performCfg": "",
      "heroTalk": "TALK_HERO_MAIN",
      "questId": 23008,
      "assetIndex": 9679057690338063,
      "prePerformCfg": "",
      "freeStyleList": [
        1190,
        1170,
        1180,
        1250
      ]
    },
    {
      "id": 2300802,
      "beginWay": "TALK_BEGIN_MANUAL",
      "activeMode": "PLAY_MODE_ALL",
      "beginCondComb": "LOGIC_AND",
      "beginCond": [
        {
          "type": "QUEST_COND_STATE_EQUAL",
          "_param": [
            "2300802",
            "2"
          ]
        },
        {
          "type": "QUEST_COND_ITEM_GIVING_ACTIVED",
          "_param": [
            "2300802"
          ]
        }
      ],
      "priority": 5,
      "initDialog": 230080201,
      "npcId": [
        4016
      ],
      "performCfg": "",
      "heroTalk": "TALK_HERO_MAIN",
      "questId": 23008,
      "assetIndex": 16605743611930135150,
      "prePerformCfg": ""
    },
    {
      "id": 2300803,
      "beginWay": "TALK_BEGIN_AUTO",
      "activeMode": "PLAY_MODE_ALL",
      "beginCond": [
        {
          "type": "QUEST_COND_STATE_EQUAL",
          "_param": [
            "2300803",
            "2"
          ]
        }
      ],
      "priority": 5,
      "initDialog": 230080301,
      "npcId": [
        4016
      ],
      "performCfg": "QuestDialogue/IQ/Sumeru_23008/Q2300803",
      "heroTalk": "TALK_HERO_MAIN",
      "questId": 23008,
      "assetIndex": 126314031571636480,
      "prePerformCfg": ""
    }
  ]
}