{
  "id": 23029,
  "damageRatio": "IQ",
  "activeMode": "PLAY_MODE_ALL",
  "descTextMapHash": 332443887,
  "EKEKACCODOE": 15264758,
  "luaPath": "Actor/Quest/IQ23029",
  "repeatable": true,
  "taskID": 42032,
  "subQuests": [
    {
      "subId": 2302901,
      "mainId": 23029,
      "order": 1,
      "descTextMapHash": 2044661492,
      "finishCond": [
        {
          "damageRatio": "QUEST_CONTENT_COMPLETE_TALK",
          "param": [
            2302901,
            0
          ]
        }
      ],
      "guide": {
        "damageRatio": "QUEST_GUIDE_NPC",
        "param": [
          "4178"
        ],
        "guideScene": 3,
        "guideStyle": "QUEST_GUIDE_STYLE_TARGET",
        "guideLayer": "QUEST_GUIDE_LAYER_SCENE",
        "MLAHIFLGIGJ": ""
      },
      "guideHint": {
        "param1": ""
      },
      "isRewind": true,
      "versionBegin": "",
      "versionEnd": ""
    },
    {
      "subId": 2302902,
      "mainId": 23029,
      "order": 2,
      "descTextMapHash": 3482239500,
      "finishCond": [
        {
          "damageRatio": "QUEST_CONTENT_FINISH_PLOT",
          "param": [
            2302902,
            0
          ]
        }
      ],
      "guide": {
        "damageRatio": "QUEST_GUIDE_LOCATION",
        "param": [
          "Q2302902_guide",
          "0"
        ],
        "guideScene": 3,
        "guideStyle": "QUEST_GUIDE_STYLE_POINT",
        "guideLayer": "QUEST_GUIDE_LAYER_SCENE",
        "MLAHIFLGIGJ": ""
      },
      "guideHint": {
        "param1": ""
      },
      "isRewind": true,
      "versionBegin": "",
      "versionEnd": ""
    },
    {
      "subId": 2302903,
      "mainId": 23029,
      "order": 3,
      "descTextMapHash": 3192965116,
      "finishCond": [
        {
          "damageRatio": "QUEST_CONTENT_FINISH_PLOT",
          "param": [
            2302903,
            0
          ]
        }
      ],
      "guide": {
        "damageRatio": "QUEST_GUIDE_LOCATION",
        "param": [
          "Q2302902_guide",
          "0"
        ],
        "guideScene": 3,
        "guideStyle": "QUEST_GUIDE_STYLE_POINT",
        "guideLayer": "QUEST_GUIDE_LAYER_SCENE",
        "MLAHIFLGIGJ": ""
      },
      "guideHint": {
        "param1": ""
      },
      "isRewind": true,
      "versionBegin": "",
      "versionEnd": ""
    },
    {
      "subId": 2302904,
      "mainId": 23029,
      "order": 4,
      "descTextMapHash": 1031568724,
      "finishCond": [
        {
          "damageRatio": "QUEST_CONTENT_COMPLETE_TALK",
          "param": [
            2302904,
            0
          ]
        }
      ],
      "guide": {
        "damageRatio": "QUEST_GUIDE_NPC",
        "param": [
          "4178"
        ],
        "guideScene": 3,
        "guideStyle": "QUEST_GUIDE_STYLE_TARGET",
        "guideLayer": "QUEST_GUIDE_LAYER_SCENE",
        "MLAHIFLGIGJ": ""
      },
      "guideHint": {
        "param1": ""
      },
      "finishParent": true,
      "isRewind": true,
      "finishExec": [
        {
          "damageRatio": "QUEST_EXEC_INC_DAILY_TASK_VAR",
          "param": [
            "42032",
            "0"
          ]
        },
        {
          "damageRatio": "QUEST_EXEC_NOTIFY_DAILY_TASK",
          "param": [
            "42032"
          ]
        }
      ],
      "versionBegin": "",
      "versionEnd": ""
    }
  ],
  "talks": [
    {
      "id": 2302901,
      "beginWay": "TALK_BEGIN_MANUAL",
      "activeMode": "PLAY_MODE_HOST",
      "beginCond": [
        {
          "type": "QUEST_COND_STATE_EQUAL",
          "_param": [
            "2302901",
            "2"
          ]
        }
      ],
      "priority": 5,
      "initDialog": 230290101,
      "npcId": [
        4178
      ],
      "performCfg": "",
      "heroTalk": "TALK_HERO_MAIN",
      "questId": 23029,
      "assetIndex": 5571130898584411440,
      "prePerformCfg": "",
      "freeStyleList": [
        1190,
        1120,
        1170,
        1180,
        1171,
        1172,
        1173,
        1090,
        1160
      ]
    },
    {
      "id": 2302902,
      "beginWay": "TALK_BEGIN_MANUAL",
      "activeMode": "PLAY_MODE_HOST",
      "beginCondComb": "LOGIC_OR",
      "beginCond": [
        {
          "type": "QUEST_COND_STATE_EQUAL",
          "_param": [
            "2302902",
            "2"
          ]
        },
        {
          "type": "QUEST_COND_STATE_EQUAL",
          "_param": [
            "2302903",
            "2"
          ]
        }
      ],
      "priority": 5,
      "initDialog": 230290201,
      "npcId": [
        4178
      ],
      "performCfg": "",
      "heroTalk": "TALK_HERO_MAIN",
      "questId": 23029,
      "assetIndex": 7563991799387985436,
      "prePerformCfg": "",
      "freeStyleList": [
        1171,
        1172,
        1173
      ]
    },
    {
      "id": 2302903,
      "beginWay": "TALK_BEGIN_MANUAL",
      "activeMode": "PLAY_MODE_HOST",
      "beginCond": [
        {
          "type": "QUEST_COND_STATE_EQUAL",
          "_param": [
            "2302903",
            "2"
          ]
        }
      ],
      "priority": 5,
      "npcId": [
        12690
      ],
      "performCfg": "QuestDialogue/IQ/Sumeru_23029/Q2302903",
      "questId": 23029,
      "assetIndex": 1977891332986843076,
      "prePerformCfg": "",
      "enableCameraDisplacement": true
    },
    {
      "id": 2302904,
      "beginWay": "TALK_BEGIN_MANUAL",
      "activeMode": "PLAY_MODE_HOST",
      "beginCond": [
        {
          "type": "QUEST_COND_STATE_EQUAL",
          "_param": [
            "2302904",
            "2"
          ]
        }
      ],
      "priority": 5,
      "initDialog": 230290401,
      "npcId": [
        4178
      ],
      "performCfg": "",
      "heroTalk": "TALK_HERO_MAIN",
      "questId": 23029,
      "assetIndex": 11658684478584552952,
      "prePerformCfg": "",
      "freeStyleList": [
        1130,
        1190,
        1171,
        1172,
        1173
      ]
    }
  ],
  "preloadLuaList": [
    13878565543785082049
  ],
  "forcePreloadLuaList": [
    1106302828455774447
  ]
}