{
  "id": 23023,
  "damageRatio": "IQ",
  "activeMode": "PLAY_MODE_ALL",
  "descTextMapHash": 263758375,
  "EKEKACCODOE": 86231382,
  "luaPath": "Actor/Quest/IQ23023",
  "repeatable": true,
  "taskID": 42160,
  "subQuests": [
    {
      "subId": 2302301,
      "mainId": 23023,
      "order": 1,
      "descTextMapHash": 737162276,
      "finishCond": [
        {
          "damageRatio": "QUEST_CONTENT_COMPLETE_TALK",
          "param": [
            2302301,
            0
          ]
        }
      ],
      "guide": {
        "damageRatio": "QUEST_GUIDE_NPC",
        "param": [
          "4079"
        ],
        "guideScene": 3,
        "guideStyle": "QUEST_GUIDE_STYLE_TARGET",
        "guideLayer": "QUEST_GUIDE_LAYER_SCENE",
        "MLAHIFLGIGJ": ""
      },
      "guideHint": {
        "param1": ""
      },
      "isRewind": true,
      "versionBegin": "",
      "versionEnd": ""
    },
    {
      "subId": 2302302,
      "mainId": 23023,
      "order": 2,
      "descTextMapHash": 660576540,
      "finishCond": [
        {
          "damageRatio": "QUEST_CONTENT_FINISH_ITEM_GIVING",
          "param": [
            2302301,
            0
          ]
        }
      ],
      "guide": {
        "damageRatio": "QUEST_GUIDE_NPC",
        "param": [
          "4079"
        ],
        "guideScene": 3,
        "guideStyle": "QUEST_GUIDE_STYLE_TARGET",
        "guideLayer": "QUEST_GUIDE_LAYER_SCENE",
        "MLAHIFLGIGJ": ""
      },
      "guideHint": {
        "param1": ""
      },
      "isRewind": true,
      "versionBegin": "",
      "versionEnd": ""
    },
    {
      "subId": 2302303,
      "mainId": 23023,
      "order": 4,
      "descTextMapHash": 1413224060,
      "finishCond": [
        {
          "damageRatio": "QUEST_CONTENT_COMPLETE_TALK",
          "param": [
            2302303,
            0
          ]
        }
      ],
      "guide": {
        "damageRatio": "QUEST_GUIDE_NPC",
        "param": [
          "4079"
        ],
        "guideScene": 3,
        "guideStyle": "QUEST_GUIDE_STYLE_FINISH",
        "guideLayer": "QUEST_GUIDE_LAYER_SCENE",
        "MLAHIFLGIGJ": ""
      },
      "guideHint": {
        "param1": ""
      },
      "finishParent": true,
      "isRewind": true,
      "finishExec": [
        {
          "damageRatio": "QUEST_EXEC_NOTIFY_DAILY_TASK",
          "param": [
            "42160"
          ]
        }
      ],
      "versionBegin": "",
      "versionEnd": ""
    },
    {
      "subId": 2302304,
      "mainId": 23023,
      "order": 3,
      "descTextMapHash": 4123571364,
      "finishCond": [
        {
          "damageRatio": "QUEST_CONTENT_COMPLETE_TALK",
          "param": [
            2302304,
            0
          ]
        }
      ],
      "guide": {
        "damageRatio": "QUEST_GUIDE_NPC",
        "param": [
          "4079"
        ],
        "guideScene": 3,
        "guideStyle": "QUEST_GUIDE_STYLE_TARGET",
        "guideLayer": "QUEST_GUIDE_LAYER_SCENE",
        "MLAHIFLGIGJ": ""
      },
      "guideHint": {
        "param1": ""
      },
      "isRewind": true,
      "versionBegin": "",
      "versionEnd": ""
    },
    {
      "subId": 2302305,
      "mainId": 23023,
      "order": 5,
      "descTextMapHash": 3222374780,
      "finishCond": [
        {
          "damageRatio": "QUEST_CONTENT_LUA_NOTIFY",
          "param": [
            0,
            0
          ],
          "count": 1
        }
      ],
      "guide": {
        "damageRatio": "QUEST_GUIDE_LOCATION",
        "autoGuide": "QUEST_GUIDE_AUTO_ENABLE",
        "param": [
          "Q23023_JIAOSHUI"
        ],
        "guideScene": 3,
        "guideStyle": "QUEST_GUIDE_STYLE_POINT",
        "guideLayer": "QUEST_GUIDE_LAYER_UI",
        "MLAHIFLGIGJ": ""
      },
      "showGuide": "QUEST_GUIDE_ITEM_DISABLE",
      "guideHint": {
        "param1": ""
      },
      "isRewind": true,
      "finishExec": [
        {
          "damageRatio": "QUEST_EXEC_UNREGISTER_DYNAMIC_GROUP",
          "param": [
            "133302115",
            "1"
          ]
        }
      ],
      "versionBegin": "",
      "versionEnd": ""
    },
    {
      "subId": 2302306,
      "mainId": 23023,
      "order": 6,
      "descTextMapHash": 2256967196,
      "finishCond": [
        {
          "damageRatio": "QUEST_CONTENT_COMPLETE_TALK",
          "param": [
            2302306,
            0
          ]
        }
      ],
      "guide": {
        "damageRatio": "QUEST_GUIDE_NPC",
        "param": [
          "4079"
        ],
        "guideScene": 3,
        "guideStyle": "QUEST_GUIDE_STYLE_FINISH",
        "guideLayer": "QUEST_GUIDE_LAYER_SCENE",
        "MLAHIFLGIGJ": ""
      },
      "guideHint": {
        "param1": ""
      },
      "finishParent": true,
      "isRewind": true,
      "finishExec": [
        {
          "damageRatio": "QUEST_EXEC_NOTIFY_DAILY_TASK",
          "param": [
            "42160"
          ]
        }
      ],
      "versionBegin": "",
      "versionEnd": ""
    }
  ],
  "talks": [
    {
      "id": 2302301,
      "beginWay": "TALK_BEGIN_MANUAL",
      "activeMode": "PLAY_MODE_ALL",
      "beginCond": [
        {
          "type": "QUEST_COND_STATE_EQUAL",
          "_param": [
            "2302301",
            "2"
          ]
        }
      ],
      "priority": 5,
      "nextTalks": [
        2302302,
        2302304
      ],
      "initDialog": 230230101,
      "npcId": [
        4080,
        4079
      ],
      "performCfg": "QuestDialogue/IQ/Xumi_23023/Q2302301",
      "heroTalk": "TALK_HERO_MAIN",
      "questId": 23023,
      "assetIndex": 15851891177044801668,
      "prePerformCfg": ""
    },
    {
      "id": 2302302,
      "beginWay": "TALK_BEGIN_MANUAL",
      "activeMode": "PLAY_MODE_ALL",
      "beginCondComb": "LOGIC_AND",
      "beginCond": [
        {
          "type": "QUEST_COND_STATE_EQUAL",
          "_param": [
            "2302302",
            "2"
          ]
        },
        {
          "type": "QUEST_COND_ITEM_GIVING_ACTIVED",
          "_param": [
            "2302301"
          ]
        }
      ],
      "priority": 5,
      "initDialog": 230230201,
      "npcId": [
        4079
      ],
      "performCfg": "QuestDialogue/IQ/Xumi_23023/Q2302302",
      "heroTalk": "TALK_HERO_MAIN",
      "questId": 23023,
      "assetIndex": 8201054281525012142,
      "prePerformCfg": ""
    },
    {
      "id": 2302303,
      "beginWay": "TALK_BEGIN_AUTO",
      "activeMode": "PLAY_MODE_ALL",
      "beginCond": [
        {
          "type": "QUEST_COND_STATE_EQUAL",
          "_param": [
            "2302303",
            "2"
          ]
        }
      ],
      "priority": 5,
      "initDialog": 230230301,
      "npcId": [
        4079
      ],
      "performCfg": "QuestDialogue/IQ/Xumi_23023/Q2302303",
      "heroTalk": "TALK_HERO_MAIN",
      "questId": 23023,
      "assetIndex": 3084643090742884654,
      "prePerformCfg": ""
    },
    {
      "id": 2302304,
      "beginWay": "TALK_BEGIN_MANUAL",
      "activeMode": "PLAY_MODE_ALL",
      "beginCond": [
        {
          "type": "QUEST_COND_STATE_EQUAL",
          "_param": [
            "2302304",
            "2"
          ]
        }
      ],
      "priority": 5,
      "initDialog": 230230401,
      "npcId": [
        4079
      ],
      "performCfg": "QuestDialogue/IQ/Xumi_23023/Q2302304",
      "heroTalk": "TALK_HERO_MAIN",
      "questId": 23023,
      "assetIndex": 11589876630633758319,
      "prePerformCfg": ""
    },
    {
      "id": 2302306,
      "beginWay": "TALK_BEGIN_MANUAL",
      "activeMode": "PLAY_MODE_ALL",
      "beginCond": [
        {
          "type": "QUEST_COND_STATE_EQUAL",
          "_param": [
            "2302306",
            "2"
          ]
        }
      ],
      "priority": 5,
      "initDialog": 230230601,
      "npcId": [
        4079,
        4080
      ],
      "performCfg": "QuestDialogue/IQ/Xumi_23023/Q2302306",
      "heroTalk": "TALK_HERO_MAIN",
      "questId": 23023,
      "assetIndex": 1453326203370214337,
      "prePerformCfg": ""
    },
    {
      "id": 2302307,
      "beginWay": "TALK_BEGIN_MANUAL",
      "activeMode": "PLAY_MODE_ALL",
      "beginCond": [
        {
          "type": "QUEST_COND_STATE_EQUAL",
          "_param": [
            "2302305",
            "2"
          ]
        }
      ],
      "priority": 5,
      "initDialog": 230230701,
      "npcId": [
        4079,
        4080
      ],
      "performCfg": "",
      "heroTalk": "TALK_HERO_MAIN",
      "questId": 23023,
      "assetIndex": 8709520412824252207,
      "prePerformCfg": ""
    }
  ]
}