{
  "id": 23038,
  "damageRatio": "IQ",
  "activeMode": "PLAY_MODE_ALL",
  "descTextMapHash": 747678327,
  "EKEKACCODOE": 3843554406,
  "luaPath": "Actor/Quest/IQ23038",
  "repeatable": true,
  "taskID": 42350,
  "subQuests": [
    {
      "subId": 2303801,
      "mainId": 23038,
      "order": 1,
      "descTextMapHash": 1212062428,
      "finishCond": [
        {
          "damageRatio": "QUEST_CONTENT_COMPLETE_TALK",
          "param": [
            2303801,
            0
          ]
        },
        {
          "damageRatio": "QUEST_CONTENT_COMPLETE_TALK",
          "param": [
            2303802,
            0
          ]
        },
        {
          "damageRatio": "QUEST_CONTENT_COMPLETE_TALK",
          "param": [
            2303803,
            0
          ]
        }
      ],
      "guide": {
        "damageRatio": "QUEST_GUIDE_NPC",
        "autoGuide": "QUEST_GUIDE_AUTO_ENABLE",
        "param": [
          "4071"
        ],
        "guideScene": 3,
        "guideStyle": "QUEST_GUIDE_STYLE_TARGET",
        "guideLayer": "QUEST_GUIDE_LAYER_SCENE",
        "MLAHIFLGIGJ": ""
      },
      "guideHint": {
        "param1": ""
      },
      "isRewind": true,
      "versionBegin": "",
      "versionEnd": ""
    },
    {
      "subId": 2303802,
      "mainId": 23038,
      "order": 2,
      "descTextMapHash": 97798436,
      "finishCond": [
        {
          "damageRatio": "QUEST_CONTENT_FINISH_ITEM_GIVING",
          "param": [
            2303805,
            0
          ]
        }
      ],
      "guide": {
        "damageRatio": "QUEST_GUIDE_NPC",
        "autoGuide": "QUEST_GUIDE_AUTO_ENABLE",
        "param": [
          "4071"
        ],
        "guideScene": 3,
        "guideStyle": "QUEST_GUIDE_STYLE_TARGET",
        "guideLayer": "QUEST_GUIDE_LAYER_SCENE",
        "MLAHIFLGIGJ": ""
      },
      "guideHint": {
        "param1": ""
      },
      "isRewind": true,
      "versionBegin": "",
      "versionEnd": ""
    },
    {
      "subId": 2303803,
      "mainId": 23038,
      "order": 3,
      "descTextMapHash": 1155033932,
      "finishCond": [
        {
          "damageRatio": "QUEST_CONTENT_COMPLETE_TALK",
          "param": [
            2303806,
            0
          ]
        }
      ],
      "guide": {
        "damageRatio": "QUEST_GUIDE_NPC",
        "autoGuide": "QUEST_GUIDE_AUTO_ENABLE",
        "param": [
          "4071"
        ],
        "guideScene": 3,
        "guideStyle": "QUEST_GUIDE_STYLE_TARGET",
        "guideLayer": "QUEST_GUIDE_LAYER_SCENE",
        "MLAHIFLGIGJ": ""
      },
      "guideHint": {
        "param1": ""
      },
      "isRewind": true,
      "versionBegin": "",
      "versionEnd": ""
    },
    {
      "subId": 2303804,
      "mainId": 23038,
      "order": 4,
      "descTextMapHash": 1542249124,
      "finishCond": [
        {
          "damageRatio": "QUEST_CONTENT_FINISH_ITEM_GIVING",
          "param": [
            2303807,
            0
          ]
        }
      ],
      "guide": {
        "damageRatio": "QUEST_GUIDE_NPC",
        "autoGuide": "QUEST_GUIDE_AUTO_ENABLE",
        "param": [
          "4071"
        ],
        "guideScene": 3,
        "guideStyle": "QUEST_GUIDE_STYLE_TARGET",
        "guideLayer": "QUEST_GUIDE_LAYER_SCENE",
        "MLAHIFLGIGJ": ""
      },
      "guideHint": {
        "param1": ""
      },
      "isRewind": true,
      "versionBegin": "",
      "versionEnd": ""
    },
    {
      "subId": 2303805,
      "mainId": 23038,
      "order": 5,
      "descTextMapHash": 441143412,
      "finishCond": [
        {
          "damageRatio": "QUEST_CONTENT_COMPLETE_TALK",
          "param": [
            2303808,
            0
          ]
        }
      ],
      "guide": {
        "damageRatio": "QUEST_GUIDE_NPC",
        "autoGuide": "QUEST_GUIDE_AUTO_ENABLE",
        "param": [
          "4071"
        ],
        "guideScene": 3,
        "guideStyle": "QUEST_GUIDE_STYLE_TARGET",
        "guideLayer": "QUEST_GUIDE_LAYER_SCENE",
        "MLAHIFLGIGJ": ""
      },
      "guideHint": {
        "param1": ""
      },
      "isRewind": true,
      "versionBegin": "",
      "versionEnd": ""
    },
    {
      "subId": 2303806,
      "mainId": 23038,
      "order": 6,
      "descTextMapHash": 3714694292,
      "finishCond": [
        {
          "damageRatio": "QUEST_CONTENT_FINISH_ITEM_GIVING",
          "param": [
            2303809,
            0
          ]
        }
      ],
      "guide": {
        "damageRatio": "QUEST_GUIDE_NPC",
        "autoGuide": "QUEST_GUIDE_AUTO_ENABLE",
        "param": [
          "4071"
        ],
        "guideScene": 3,
        "guideStyle": "QUEST_GUIDE_STYLE_TARGET",
        "guideLayer": "QUEST_GUIDE_LAYER_SCENE",
        "MLAHIFLGIGJ": ""
      },
      "guideHint": {
        "param1": ""
      },
      "isRewind": true,
      "versionBegin": "",
      "versionEnd": ""
    },
    {
      "subId": 2303807,
      "mainId": 23038,
      "order": 7,
      "descTextMapHash": 3306692,
      "finishCond": [
        {
          "damageRatio": "QUEST_CONTENT_COMPLETE_TALK",
          "param": [
            2303810,
            0
          ]
        }
      ],
      "guide": {
        "damageRatio": "QUEST_GUIDE_NPC",
        "autoGuide": "QUEST_GUIDE_AUTO_ENABLE",
        "param": [
          "4071"
        ],
        "guideScene": 3,
        "guideStyle": "QUEST_GUIDE_STYLE_TARGET",
        "guideLayer": "QUEST_GUIDE_LAYER_SCENE",
        "MLAHIFLGIGJ": ""
      },
      "guideHint": {
        "param1": ""
      },
      "isRewind": true,
      "versionBegin": "",
      "versionEnd": ""
    },
    {
      "subId": 2303808,
      "mainId": 23038,
      "order": 8,
      "descTextMapHash": 3221858204,
      "finishCond": [
        {
          "damageRatio": "QUEST_CONTENT_COMPLETE_TALK",
          "param": [
            2303811,
            0
          ]
        }
      ],
      "guide": {
        "damageRatio": "QUEST_GUIDE_NPC",
        "autoGuide": "QUEST_GUIDE_AUTO_ENABLE",
        "param": [
          "4412"
        ],
        "guideScene": 3,
        "guideStyle": "QUEST_GUIDE_STYLE_TARGET",
        "guideLayer": "QUEST_GUIDE_LAYER_SCENE",
        "MLAHIFLGIGJ": ""
      },
      "guideHint": {
        "param1": ""
      },
      "finishParent": true,
      "isRewind": true,
      "finishExec": [
        {
          "damageRatio": "QUEST_EXEC_SET_DAILY_TASK_VAR",
          "param": [
            "42340",
            "1",
            "0"
          ]
        },
        {
          "damageRatio": "QUEST_EXEC_SET_DAILY_TASK_VAR",
          "param": [
            "42340",
            "2",
            "0"
          ]
        },
        {
          "damageRatio": "QUEST_EXEC_SET_DAILY_TASK_VAR",
          "param": [
            "42340",
            "3",
            "0"
          ]
        },
        {
          "damageRatio": "QUEST_EXEC_DEL_PACK_ITEM",
          "param": [
            "120056",
            "1"
          ]
        },
        {
          "damageRatio": "QUEST_EXEC_NOTIFY_DAILY_TASK",
          "param": [
            "42350"
          ]
        }
      ],
      "versionBegin": "",
      "versionEnd": ""
    }
  ],
  "talks": [
    {
      "id": 2303801,
      "beginWay": "TALK_BEGIN_MANUAL",
      "activeMode": "PLAY_MODE_HOST",
      "beginCondComb": "LOGIC_AND",
      "beginCond": [
        {
          "type": "QUEST_COND_STATE_EQUAL",
          "_param": [
            "2303801",
            "2"
          ]
        },
        {
          "type": "QUEST_COND_DAILY_TASK_VAR_EQ",
          "_param": [
            "42340",
            "1",
            "1"
          ]
        }
      ],
      "priority": 5,
      "nextTalks": [
        2303805
      ],
      "initDialog": 230380101,
      "npcId": [
        4071
      ],
      "performCfg": "",
      "heroTalk": "TALK_HERO_MAIN",
      "questId": 23038,
      "assetIndex": 4375024743629381352,
      "prePerformCfg": "",
      "freeStyleList": [
        1171,
        1172,
        1173,
        1120,
        1230,
        1240,
        1150,
        1170,
        1180
      ]
    },
    {
      "id": 2303802,
      "beginWay": "TALK_BEGIN_MANUAL",
      "activeMode": "PLAY_MODE_HOST",
      "beginCondComb": "LOGIC_AND",
      "beginCond": [
        {
          "type": "QUEST_COND_STATE_EQUAL",
          "_param": [
            "2303801",
            "2"
          ]
        },
        {
          "type": "QUEST_COND_DAILY_TASK_VAR_EQ",
          "_param": [
            "42340",
            "2",
            "1"
          ]
        }
      ],
      "priority": 5,
      "nextTalks": [
        2303807
      ],
      "initDialog": 230380201,
      "npcId": [
        4071
      ],
      "performCfg": "",
      "heroTalk": "TALK_HERO_MAIN",
      "questId": 23038,
      "assetIndex": 1616003938560094045,
      "prePerformCfg": "",
      "freeStyleList": [
        1171,
        1172,
        1173,
        1120,
        1230,
        1240,
        1150,
        1170,
        1180
      ]
    },
    {
      "id": 2303803,
      "beginWay": "TALK_BEGIN_MANUAL",
      "activeMode": "PLAY_MODE_HOST",
      "beginCondComb": "LOGIC_AND",
      "beginCond": [
        {
          "type": "QUEST_COND_STATE_EQUAL",
          "_param": [
            "2303801",
            "2"
          ]
        },
        {
          "type": "QUEST_COND_DAILY_TASK_VAR_EQ",
          "_param": [
            "42340",
            "3",
            "1"
          ]
        }
      ],
      "priority": 5,
      "nextTalks": [
        2303809
      ],
      "initDialog": 230380301,
      "npcId": [
        4071
      ],
      "performCfg": "",
      "heroTalk": "TALK_HERO_MAIN",
      "questId": 23038,
      "assetIndex": 1600055493134993835,
      "prePerformCfg": "",
      "freeStyleList": [
        1171,
        1172,
        1173,
        1120,
        1230,
        1240,
        1150,
        1170,
        1180
      ]
    },
    {
      "id": 2303804,
      "beginWay": "TALK_BEGIN_MANUAL",
      "activeMode": "PLAY_MODE_HOST",
      "beginCondComb": "LOGIC_A_AND_ETCOR",
      "beginCond": [
        {
          "type": "QUEST_COND_QUEST_NOT_RECEIVE",
          "_param": [
            "2303808",
            "1"
          ]
        },
        {
          "type": "QUEST_COND_STATE_EQUAL",
          "_param": [
            "2303801",
            "2"
          ]
        },
        {
          "type": "QUEST_COND_STATE_EQUAL",
          "_param": [
            "2303801",
            "3"
          ]
        }
      ],
      "priority": 5,
      "initDialog": 230380401,
      "npcId": [
        4412
      ],
      "performCfg": "",
      "heroTalk": "TALK_HERO_MAIN",
      "questId": 23038,
      "assetIndex": 14407128590466307699,
      "prePerformCfg": "",
      "lowPriority": true
    },
    {
      "id": 2303805,
      "beginWay": "TALK_BEGIN_MANUAL",
      "activeMode": "PLAY_MODE_HOST",
      "beginCondComb": "LOGIC_AND",
      "beginCond": [
        {
          "type": "QUEST_COND_STATE_EQUAL",
          "_param": [
            "2303802",
            "2"
          ]
        },
        {
          "type": "QUEST_COND_ITEM_GIVING_ACTIVED",
          "_param": [
            "2303805"
          ]
        }
      ],
      "priority": 5,
      "initDialog": 230380501,
      "npcId": [
        4071
      ],
      "performCfg": "",
      "heroTalk": "TALK_HERO_MAIN",
      "questId": 23038,
      "assetIndex": 857895956001048455,
      "prePerformCfg": "",
      "freeStyleList": [
        1171,
        1172,
        1173
      ]
    },
    {
      "id": 2303806,
      "beginWay": "TALK_BEGIN_AUTO",
      "activeMode": "PLAY_MODE_HOST",
      "beginCond": [
        {
          "type": "QUEST_COND_STATE_EQUAL",
          "_param": [
            "2303803",
            "2"
          ]
        }
      ],
      "priority": 5,
      "initDialog": 230380601,
      "npcId": [
        4071
      ],
      "performCfg": "",
      "heroTalk": "TALK_HERO_MAIN",
      "questId": 23038,
      "assetIndex": 6762736901895543000,
      "prePerformCfg": "",
      "freeStyleList": [
        1230
      ]
    },
    {
      "id": 2303807,
      "beginWay": "TALK_BEGIN_MANUAL",
      "activeMode": "PLAY_MODE_HOST",
      "beginCondComb": "LOGIC_AND",
      "beginCond": [
        {
          "type": "QUEST_COND_STATE_EQUAL",
          "_param": [
            "2303804",
            "2"
          ]
        },
        {
          "type": "QUEST_COND_ITEM_GIVING_ACTIVED",
          "_param": [
            "2303807"
          ]
        }
      ],
      "priority": 5,
      "initDialog": 230380701,
      "npcId": [
        4071
      ],
      "performCfg": "",
      "heroTalk": "TALK_HERO_MAIN",
      "questId": 23038,
      "assetIndex": 9350258831377603800,
      "prePerformCfg": "",
      "freeStyleList": [
        1171,
        1172,
        1173
      ]
    },
    {
      "id": 2303808,
      "beginWay": "TALK_BEGIN_AUTO",
      "activeMode": "PLAY_MODE_HOST",
      "beginCond": [
        {
          "type": "QUEST_COND_STATE_EQUAL",
          "_param": [
            "2303805",
            "2"
          ]
        }
      ],
      "priority": 5,
      "initDialog": 230380801,
      "npcId": [
        4071
      ],
      "performCfg": "",
      "heroTalk": "TALK_HERO_MAIN",
      "questId": 23038,
      "assetIndex": 3487748769732435208,
      "prePerformCfg": "",
      "freeStyleList": [
        1120
      ]
    },
    {
      "id": 2303809,
      "beginWay": "TALK_BEGIN_MANUAL",
      "activeMode": "PLAY_MODE_HOST",
      "beginCondComb": "LOGIC_AND",
      "beginCond": [
        {
          "type": "QUEST_COND_STATE_EQUAL",
          "_param": [
            "2303806",
            "2"
          ]
        },
        {
          "type": "QUEST_COND_ITEM_GIVING_ACTIVED",
          "_param": [
            "2303809"
          ]
        }
      ],
      "priority": 5,
      "initDialog": 230380901,
      "npcId": [
        4071
      ],
      "performCfg": "",
      "heroTalk": "TALK_HERO_MAIN",
      "questId": 23038,
      "assetIndex": 2687517890749294709,
      "prePerformCfg": ""
    },
    {
      "id": 2303810,
      "beginWay": "TALK_BEGIN_AUTO",
      "activeMode": "PLAY_MODE_HOST",
      "beginCond": [
        {
          "type": "QUEST_COND_STATE_EQUAL",
          "_param": [
            "2303807",
            "2"
          ]
        }
      ],
      "priority": 5,
      "initDialog": 230381001,
      "npcId": [
        4071
      ],
      "performCfg": "",
      "heroTalk": "TALK_HERO_MAIN",
      "questId": 23038,
      "assetIndex": 137352117860714093,
      "prePerformCfg": "",
      "freeStyleList": [
        1230
      ]
    },
    {
      "id": 2303811,
      "beginWay": "TALK_BEGIN_MANUAL",
      "activeMode": "PLAY_MODE_HOST",
      "beginCond": [
        {
          "type": "QUEST_COND_STATE_EQUAL",
          "_param": [
            "2303808",
            "2"
          ]
        }
      ],
      "priority": 5,
      "initDialog": 230381101,
      "npcId": [
        4412
      ],
      "performCfg": "QuestDialogue/IQ/Sumeru_23038/Q2303811",
      "questId": 23038,
      "assetIndex": 16828493524269370313,
      "prePerformCfg": ""
    }
  ],
  "freeStyleDic": {
    "4412": [
      4120
    ]
  }
}