{
  "id": 23035,
  "damageRatio": "WQ",
  "activeMode": "PLAY_MODE_ALL",
  "descTextMapHash": 438014359,
  "EKEKACCODOE": 3742687318,
  "luaPath": "Actor/Quest/WQ23035",
  "rewardIdList": [
    123035
  ],
  "subQuests": [
    {
      "subId": 2303501,
      "mainId": 23035,
      "order": 1,
      "descTextMapHash": 2857215084,
      "JIFODJPFKDF": [
        107401
      ],
      "finishCond": [
        {
          "damageRatio": "QUEST_CONTENT_COMPLETE_TALK",
          "param": [
            2303501,
            0
          ]
        }
      ],
      "guide": {
        "damageRatio": "QUEST_GUIDE_NPC",
        "autoGuide": "QUEST_GUIDE_AUTO_ENABLE",
        "param": [
          "12717"
        ],
        "guideScene": 3,
        "guideStyle": "QUEST_GUIDE_STYLE_TARGET",
        "guideLayer": "QUEST_GUIDE_LAYER_SCENE",
        "MLAHIFLGIGJ": ""
      },
      "guideHint": {
        "param1": ""
      },
      "isRewind": true,
      "versionBegin": "",
      "versionEnd": ""
    },
    {
      "subId": 2303502,
      "mainId": 23035,
      "order": 2,
      "descTextMapHash": 3844272780,
      "finishCond": [
        {
          "damageRatio": "QUEST_CONTENT_FINISH_PLOT",
          "param": [
            2303502,
            0
          ]
        }
      ],
      "guide": {
        "damageRatio": "QUEST_GUIDE_NPC",
        "autoGuide": "QUEST_GUIDE_AUTO_ENABLE",
        "param": [
          "12717"
        ],
        "guideScene": 1074,
        "guideStyle": "QUEST_GUIDE_STYLE_TARGET",
        "guideLayer": "QUEST_GUIDE_LAYER_SCENE",
        "MLAHIFLGIGJ": ""
      },
      "guideHint": {
        "param1": ""
      },
      "versionBegin": "",
      "versionEnd": ""
    },
    {
      "subId": 2303503,
      "mainId": 23035,
      "order": 3,
      "descTextMapHash": 982525404,
      "JIFODJPFKDF": [
        107401
      ],
      "finishCond": [
        {
          "damageRatio": "QUEST_CONTENT_COMPLETE_TALK",
          "param": [
            2303503,
            0
          ]
        }
      ],
      "guide": {
        "damageRatio": "QUEST_GUIDE_NPC",
        "autoGuide": "QUEST_GUIDE_AUTO_ENABLE",
        "param": [
          "12717"
        ],
        "guideScene": 1074,
        "guideStyle": "QUEST_GUIDE_STYLE_TARGET",
        "guideLayer": "QUEST_GUIDE_LAYER_SCENE",
        "MLAHIFLGIGJ": ""
      },
      "guideHint": {
        "param1": ""
      },
      "isRewind": true,
      "versionBegin": "",
      "versionEnd": ""
    },
    {
      "subId": 2303504,
      "mainId": 23035,
      "order": 4,
      "descTextMapHash": 1863272164,
      "JIFODJPFKDF": [
        107401
      ],
      "finishCond": [
        {
          "damageRatio": "QUEST_CONTENT_COMPLETE_TALK",
          "param": [
            2303504,
            0
          ]
        }
      ],
      "guide": {
        "damageRatio": "QUEST_GUIDE_NPC",
        "autoGuide": "QUEST_GUIDE_AUTO_ENABLE",
        "param": [
          "1058"
        ],
        "guideScene": 1074,
        "guideStyle": "QUEST_GUIDE_STYLE_TARGET",
        "guideLayer": "QUEST_GUIDE_LAYER_SCENE",
        "MLAHIFLGIGJ": ""
      },
      "guideHint": {
        "param1": ""
      },
      "isRewind": true,
      "versionBegin": "",
      "versionEnd": ""
    },
    {
      "subId": 2303505,
      "mainId": 23035,
      "order": 5,
      "descTextMapHash": 3914653348,
      "JIFODJPFKDF": [
        107401
      ],
      "finishCond": [
        {
          "damageRatio": "QUEST_CONTENT_FINISH_PLOT",
          "param": [
            2303505,
            0
          ]
        }
      ],
      "guide": {
        "damageRatio": "QUEST_GUIDE_LOCATION",
        "param": [
          "Q2303505_cameraspot"
        ],
        "guideScene": 1074,
        "guideStyle": "QUEST_GUIDE_STYLE_TARGET",
        "guideLayer": "QUEST_GUIDE_LAYER_SCENE",
        "MLAHIFLGIGJ": ""
      },
      "guideHint": {
        "param1": ""
      },
      "versionBegin": "",
      "versionEnd": ""
    },
    {
      "subId": 2303506,
      "mainId": 23035,
      "order": 6,
      "descTextMapHash": 1834965276,
      "JIFODJPFKDF": [
        107401
      ],
      "finishCond": [
        {
          "damageRatio": "QUEST_CONTENT_COMPLETE_TALK",
          "param": [
            2303506,
            0
          ]
        }
      ],
      "guide": {
        "damageRatio": "QUEST_GUIDE_NPC",
        "autoGuide": "QUEST_GUIDE_AUTO_ENABLE",
        "param": [
          "12717"
        ],
        "guideScene": 1074,
        "guideStyle": "QUEST_GUIDE_STYLE_TARGET",
        "guideLayer": "QUEST_GUIDE_LAYER_SCENE",
        "MLAHIFLGIGJ": ""
      },
      "guideHint": {
        "param1": ""
      },
      "finishParent": true,
      "isRewind": true,
      "finishExec": [
        {
          "damageRatio": "QUEST_EXEC_SET_QUEST_GLOBAL_VAR",
          "param": [
            "2303501",
            "1"
          ]
        }
      ],
      "versionBegin": "",
      "versionEnd": ""
    }
  ],
  "talks": [
    {
      "id": 2303501,
      "beginWay": "TALK_BEGIN_MANUAL",
      "activeMode": "PLAY_MODE_HOST",
      "beginCond": [
        {
          "type": "QUEST_COND_STATE_EQUAL",
          "_param": [
            "2303501",
            "2"
          ]
        }
      ],
      "priority": 5,
      "initDialog": 230350101,
      "npcId": [
        12717
      ],
      "performCfg": "",
      "heroTalk": "TALK_HERO_MAIN",
      "questId": 23035,
      "assetIndex": 6904543261047791656,
      "prePerformCfg": "",
      "freeStyleList": [
        1240,
        1171,
        1172,
        1173,
        1170,
        1180,
        1060,
        1030,
        4030,
        1150,
        4040,
        5010,
        1260
      ]
    },
    {
      "id": 2303503,
      "beginWay": "TALK_BEGIN_MANUAL",
      "activeMode": "PLAY_MODE_HOST",
      "beginCond": [
        {
          "type": "QUEST_COND_STATE_EQUAL",
          "_param": [
            "2303503",
            "2"
          ]
        }
      ],
      "priority": 5,
      "initDialog": 230350301,
      "npcId": [
        12717
      ],
      "performCfg": "",
      "heroTalk": "TALK_HERO_MAIN",
      "questId": 23035,
      "assetIndex": 12756661944741378123,
      "prePerformCfg": "",
      "freeStyleList": [
        1171,
        1172,
        1173,
        1190,
        1060,
        4030,
        5010
      ]
    },
    {
      "id": 2303504,
      "beginWay": "TALK_BEGIN_MANUAL",
      "activeMode": "PLAY_MODE_HOST",
      "beginCond": [
        {
          "type": "QUEST_COND_STATE_EQUAL",
          "_param": [
            "2303504",
            "2"
          ]
        }
      ],
      "priority": 5,
      "initDialog": 230350401,
      "npcId": [
        1058
      ],
      "performCfg": "QuestDialogue/IQ/Xumi_23035/Q2303504",
      "heroTalk": "TALK_HERO_MAIN",
      "questId": 23035,
      "assetIndex": 231616375051185866,
      "prePerformCfg": ""
    },
    {
      "id": 2303505,
      "beginWay": "TALK_BEGIN_MANUAL",
      "activeMode": "PLAY_MODE_HOST",
      "beginCond": [
        {
          "type": "QUEST_COND_STATE_EQUAL",
          "_param": [
            "2303505",
            "2"
          ]
        }
      ],
      "priority": 5,
      "initDialog": 230350501,
      "npcId": [
        13476
      ],
      "performCfg": "QuestDialogue/IQ/Xumi_23035/Q2303505",
      "heroTalk": "TALK_HERO_MAIN",
      "questId": 23035,
      "assetIndex": 1233981125499675724,
      "prePerformCfg": ""
    },
    {
      "id": 2303506,
      "beginWay": "TALK_BEGIN_MANUAL",
      "activeMode": "PLAY_MODE_HOST",
      "beginCond": [
        {
          "type": "QUEST_COND_STATE_EQUAL",
          "_param": [
            "2303506",
            "2"
          ]
        }
      ],
      "priority": 5,
      "initDialog": 230350601,
      "npcId": [
        12717,
        1058
      ],
      "performCfg": "QuestDialogue/IQ/Xumi_23035/Q2303506",
      "heroTalk": "TALK_HERO_MAIN",
      "questId": 23035,
      "assetIndex": 14298432414663599090,
      "prePerformCfg": ""
    },
    {
      "id": 2303507,
      "beginWay": "TALK_BEGIN_MANUAL",
      "activeMode": "PLAY_MODE_HOST",
      "beginCond": [
        {
          "type": "QUEST_COND_STATE_EQUAL",
          "_param": [
            "2303506",
            "3"
          ]
        }
      ],
      "priority": 5,
      "initDialog": 230350701,
      "npcId": [
        12717,
        1058
      ],
      "performCfg": "",
      "heroTalk": "TALK_HERO_MAIN",
      "questId": 23035,
      "assetIndex": 7175166058269904982,
      "prePerformCfg": "",
      "questIdleTalk": true
    }
  ],
  "freeStyleDic": {
    "12717": [
      0
    ],
    "1058": [
      0
    ]
  },
  "dialogList": [
    {
      "id": 230350125,
      "nextDialogs": [
        230350126
      ],
      "talkRole": {
        "type": "TALK_ROLE_NPC",
        "_id": "12717"
      },
      "talkContentTextMapHash": 3182637226,
      "talkAssetPath": "",
      "talkAssetPathAlter": "",
      "talkAudioName": "",
      "actionBefore": "",
      "actionWhile": "",
      "actionAfter": "",
      "optionIcon": "",
      "iconPath": ""
    },
    {
      "id": 230350126,
      "nextDialogs": [
        230350127
      ],
      "talkRole": {
        "type": "TALK_ROLE_NPC",
        "_id": "12717"
      },
      "talkContentTextMapHash": 95367770,
      "talkAssetPath": "",
      "talkAssetPathAlter": "",
      "talkAudioName": "",
      "actionBefore": "",
      "actionWhile": "SimpleTalk/Confuse",
      "actionAfter": "",
      "optionIcon": "",
      "iconPath": ""
    },
    {
      "id": 230350127,
      "nextDialogs": [
        230350128,
        230350129
      ],
      "talkRole": {
        "type": "TALK_ROLE_NPC",
        "_id": "12717"
      },
      "talkContentTextMapHash": 4143792698,
      "talkAssetPath": "",
      "talkAssetPathAlter": "",
      "talkAudioName": "",
      "actionBefore": "",
      "actionWhile": "SimpleTalk/RandomTalk",
      "actionAfter": "",
      "optionIcon": "",
      "iconPath": ""
    }
  ]
}