{
  "id": 24005,
  "damageRatio": "IQ",
  "activeMode": "PLAY_MODE_ALL",
  "descTextMapHash": 540868655,
  "EKEKACCODOE": 2766975646,
  "luaPath": "Actor/Quest/IQ24005",
  "repeatable": true,
  "taskID": 43130,
  "subQuests": [
    {
      "subId": 2400501,
      "mainId": 24005,
      "order": 1,
      "descTextMapHash": 3478671236,
      "JIFODJPFKDF": [
        340104
      ],
      "finishCond": [
        {
          "damageRatio": "QUEST_CONTENT_COMPLETE_TALK",
          "param": [
            2400501,
            0
          ]
        }
      ],
      "guide": {
        "damageRatio": "QUEST_GUIDE_NPC",
        "param": [
          "5021"
        ],
        "guideScene": 3,
        "guideStyle": "QUEST_GUIDE_STYLE_TARGET",
        "guideLayer": "QUEST_GUIDE_LAYER_SCENE",
        "MLAHIFLGIGJ": ""
      },
      "guideHint": {
        "param1": ""
      },
      "isRewind": true,
      "versionBegin": "",
      "versionEnd": ""
    },
    {
      "subId": 2400502,
      "mainId": 24005,
      "order": 2,
      "descTextMapHash": 768300900,
      "JIFODJPFKDF": [
        340133
      ],
      "finishCond": [
        {
          "damageRatio": "QUEST_CONTENT_COMPLETE_TALK",
          "param": [
            2400502,
            0
          ]
        }
      ],
      "guide": {
        "damageRatio": "QUEST_GUIDE_LOCATION",
        "param": [
          "[3_340100092:3500.934,426.624,4485.952,0.000,285.900,0.000]"
        ],
        "guideScene": 3,
        "guideStyle": "QUEST_GUIDE_STYLE_POINT",
        "guideLayer": "QUEST_GUIDE_LAYER_SCENE",
        "MLAHIFLGIGJ": ""
      },
      "guideHint": {
        "param1": ""
      },
      "isRewind": true,
      "versionBegin": "",
      "versionEnd": ""
    },
    {
      "subId": 2400503,
      "mainId": 24005,
      "order": 3,
      "descTextMapHash": 2300073260,
      "JIFODJPFKDF": [
        340115
      ],
      "finishCond": [
        {
          "damageRatio": "QUEST_CONTENT_COMPLETE_TALK",
          "param": [
            2400503,
            0
          ]
        }
      ],
      "guide": {
        "damageRatio": "QUEST_GUIDE_LOCATION",
        "param": [
          "[3_340100093:3516.875,451.240,4654.831,0.000,62.140,0.000]"
        ],
        "guideScene": 3,
        "guideStyle": "QUEST_GUIDE_STYLE_POINT",
        "guideLayer": "QUEST_GUIDE_LAYER_SCENE",
        "MLAHIFLGIGJ": ""
      },
      "guideHint": {
        "param1": ""
      },
      "isRewind": true,
      "versionBegin": "",
      "versionEnd": ""
    },
    {
      "subId": 2400504,
      "mainId": 24005,
      "order": 4,
      "descTextMapHash": 3036680132,
      "JIFODJPFKDF": [
        340121
      ],
      "finishCond": [
        {
          "damageRatio": "QUEST_CONTENT_COMPLETE_TALK",
          "param": [
            2400504,
            0
          ]
        }
      ],
      "guide": {
        "damageRatio": "QUEST_GUIDE_NPC",
        "param": [
          "5057"
        ],
        "guideScene": 3,
        "guideStyle": "QUEST_GUIDE_STYLE_POINT",
        "guideLayer": "QUEST_GUIDE_LAYER_SCENE",
        "MLAHIFLGIGJ": ""
      },
      "guideHint": {
        "param1": ""
      },
      "isRewind": true,
      "versionBegin": "",
      "versionEnd": ""
    },
    {
      "subId": 2400505,
      "mainId": 24005,
      "order": 5,
      "descTextMapHash": 3171417388,
      "JIFODJPFKDF": [
        340121
      ],
      "finishCond": [
        {
          "damageRatio": "QUEST_CONTENT_FINISH_ITEM_GIVING",
          "param": [
            2400505,
            0
          ]
        }
      ],
      "guide": {
        "damageRatio": "QUEST_GUIDE_NPC",
        "param": [
          "5057"
        ],
        "guideScene": 3,
        "guideLayer": "QUEST_GUIDE_LAYER_SCENE",
        "MLAHIFLGIGJ": ""
      },
      "guideHint": {
        "param1": ""
      },
      "isRewind": true,
      "finishExec": [
        {
          "damageRatio": "QUEST_EXEC_DEACTIVE_ITEM_GIVING",
          "param": [
            "2400505"
          ]
        }
      ],
      "versionBegin": "",
      "versionEnd": ""
    },
    {
      "subId": 2400506,
      "mainId": 24005,
      "order": 6,
      "descTextMapHash": 1316502076,
      "JIFODJPFKDF": [
        340121
      ],
      "finishCond": [
        {
          "damageRatio": "QUEST_CONTENT_COMPLETE_TALK",
          "param": [
            2400506,
            0
          ]
        }
      ],
      "guide": {
        "damageRatio": "QUEST_GUIDE_LOCATION",
        "param": [
          "[3_340100201:3476.306,424.865,4587.770,0.000,304.615,0.000]",
          "20"
        ],
        "guideScene": 3,
        "guideStyle": "QUEST_GUIDE_STYLE_POINT",
        "guideLayer": "QUEST_GUIDE_LAYER_SCENE",
        "MLAHIFLGIGJ": ""
      },
      "guideHint": {
        "param1": ""
      },
      "finishParent": true,
      "isRewind": true,
      "finishExec": [
        {
          "damageRatio": "QUEST_EXEC_NOTIFY_DAILY_TASK",
          "param": [
            "43130"
          ]
        }
      ],
      "versionBegin": "",
      "versionEnd": ""
    }
  ],
  "talks": [
    {
      "id": 2400501,
      "beginWay": "TALK_BEGIN_MANUAL",
      "activeMode": "PLAY_MODE_HOST",
      "beginCond": [
        {
          "type": "QUEST_COND_STATE_EQUAL",
          "_param": [
            "2400501",
            "2"
          ]
        }
      ],
      "priority": 5,
      "initDialog": 240050101,
      "npcId": [
        5062,
        5063,
        5021
      ],
      "performCfg": "QuestDialogue/IQ/Fontaine_24005/Q2400501",
      "heroTalk": "TALK_HERO_MAIN",
      "questId": 24005,
      "assetIndex": 17483148343837950321,
      "prePerformCfg": ""
    },
    {
      "id": 2400502,
      "beginWay": "TALK_BEGIN_MANUAL",
      "activeMode": "PLAY_MODE_HOST",
      "beginCond": [
        {
          "type": "QUEST_COND_STATE_EQUAL",
          "_param": [
            "2400502",
            "2"
          ]
        }
      ],
      "priority": 5,
      "initDialog": 240050201,
      "npcId": [
        5062,
        5063,
        5021
      ],
      "performCfg": "QuestDialogue/IQ/Fontaine_24005/Q2400502",
      "heroTalk": "TALK_HERO_MAIN",
      "questId": 24005,
      "assetIndex": 11461533150158806824,
      "prePerformCfg": "",
      "CHAKPMBJNAJ": [
        "[3_340100092:3500.934,426.624,4485.952,0.000,285.900,0.000]",
        "[3_340100211:3501.124,426.623,4486.746,0.000,267.400,0.000]",
        "[3_340100212:3500.759,426.624,4487.457,0.000,216.300,0.000]",
        "[3_340100213:3499.830,426.624,4485.469,0.000,342.500,0.000]"
      ]
    },
    {
      "id": 2400503,
      "beginWay": "TALK_BEGIN_MANUAL",
      "activeMode": "PLAY_MODE_HOST",
      "beginCond": [
        {
          "type": "QUEST_COND_STATE_EQUAL",
          "_param": [
            "2400503",
            "2"
          ]
        }
      ],
      "priority": 5,
      "initDialog": 240050301,
      "npcId": [
        5021,
        5062,
        5063
      ],
      "performCfg": "QuestDialogue/IQ/Fontaine_24005/Q2400503",
      "heroTalk": "TALK_HERO_MAIN",
      "questId": 24005,
      "assetIndex": 4491885390741685570,
      "prePerformCfg": "",
      "CHAKPMBJNAJ": [
        "[3_340100214:3517.604,451.240,4654.251,0.000,4.530,0.000]",
        "[3_340100215:3518.579,451.240,4654.796,0.000,281.800,0.000]",
        "[3_340100216:3517.420,451.240,4655.845,0.000,160.500,0.000]"
      ]
    },
    {
      "id": 2400504,
      "beginWay": "TALK_BEGIN_MANUAL",
      "activeMode": "PLAY_MODE_HOST",
      "beginCond": [
        {
          "type": "QUEST_COND_STATE_EQUAL",
          "_param": [
            "2400504",
            "2"
          ]
        }
      ],
      "priority": 5,
      "initDialog": 240050401,
      "npcId": [
        5057
      ],
      "performCfg": "QuestDialogue/IQ/Fontaine_24005/Q2400504",
      "heroTalk": "TALK_HERO_MAIN",
      "questId": 24005,
      "assetIndex": 11129911582567447751,
      "prePerformCfg": "",
      "CHAKPMBJNAJ": [
        "[3_340100094:3473.772,424.829,4587.013,0.000,111.370,0.000]",
        "[3_340100208:3473.898,424.829,4588.135,0.000,118.080,0.000]",
        "[3_340100209:3474.466,424.829,4588.971,0.000,122.700,0.000]",
        "[3_340100210:3475.691,424.829,4589.800,0.000,163.100,0.000]"
      ]
    },
    {
      "id": 2400505,
      "beginWay": "TALK_BEGIN_MANUAL",
      "activeMode": "PLAY_MODE_HOST",
      "beginCondComb": "LOGIC_AND",
      "beginCond": [
        {
          "type": "QUEST_COND_STATE_EQUAL",
          "_param": [
            "2400505",
            "2"
          ]
        },
        {
          "type": "QUEST_COND_ITEM_GIVING_ACTIVED",
          "_param": [
            "2400505"
          ]
        }
      ],
      "priority": 5,
      "initDialog": 240050501,
      "npcId": [
        5057
      ],
      "performCfg": "",
      "heroTalk": "TALK_HERO_MAIN",
      "questId": 24005,
      "assetIndex": 17152174140135408464,
      "prePerformCfg": ""
    },
    {
      "id": 2400506,
      "beginWay": "TALK_BEGIN_MANUAL",
      "activeMode": "PLAY_MODE_HOST",
      "beginCond": [
        {
          "type": "QUEST_COND_STATE_EQUAL",
          "_param": [
            "2400506",
            "2"
          ]
        }
      ],
      "priority": 5,
      "initDialog": 240050601,
      "npcId": [
        5057
      ],
      "performCfg": "QuestDialogue/IQ/Fontaine_24005/Q2400506",
      "heroTalk": "TALK_HERO_MAIN",
      "questId": 24005,
      "assetIndex": 496146665511211633,
      "prePerformCfg": "",
      "CHAKPMBJNAJ": [
        "[3_340100094:3473.772,424.829,4587.013,0.000,111.370,0.000]",
        "[3_340100201:3476.306,424.865,4587.770,0.000,304.615,0.000]",
        "[3_340100208:3473.898,424.829,4588.135,0.000,118.080,0.000]",
        "[3_340100209:3474.466,424.829,4588.971,0.000,122.700,0.000]",
        "[3_340100210:3475.691,424.829,4589.800,0.000,163.100,0.000]"
      ]
    },
    {
      "id": 2400511,
      "beginWay": "TALK_BEGIN_MANUAL",
      "activeMode": "PLAY_MODE_HOST",
      "beginCond": [
        {
          "type": "QUEST_COND_STATE_EQUAL",
          "_param": [
            "2400505",
            "2"
          ]
        }
      ],
      "priority": 5,
      "initDialog": 240051101,
      "npcId": [
        5021,
        5062
      ],
      "performCfg": "QuestDialogue/IQ/Fontaine_24005/Q2400511",
      "heroTalk": "TALK_HERO_MAIN",
      "questId": 24005,
      "assetIndex": 16897676202321473768,
      "prePerformCfg": ""
    },
    {
      "id": 2400512,
      "beginWay": "TALK_BEGIN_MANUAL",
      "activeMode": "PLAY_MODE_HOST",
      "beginCond": [
        {
          "type": "QUEST_COND_STATE_EQUAL",
          "_param": [
            "2400505",
            "2"
          ]
        }
      ],
      "priority": 5,
      "initDialog": 240051201,
      "npcId": [
        5063
      ],
      "performCfg": "",
      "heroTalk": "TALK_HERO_MAIN",
      "questId": 24005,
      "assetIndex": 9916558796715081083,
      "prePerformCfg": ""
    }
  ],
  "preloadLuaList": [
    17825223310918103036,
    776803595411214682,
    17325448186054176458,
    4385079034912356308
  ],
  "forcePreloadLuaList": [
    17792013091137111702
  ]
}