{
  "id": 24017,
  "damageRatio": "IQ",
  "activeMode": "PLAY_MODE_ALL",
  "descTextMapHash": 616495623,
  "EKEKACCODOE": 664149310,
  "luaPath": "Actor/Quest/IQ24017",
  "repeatable": true,
  "rewardIdList": [
    0,
    500189
  ],
  "taskID": 43080,
  "BONJIMPOJLG": true,
  "subQuests": [
    {
      "subId": 2401701,
      "mainId": 24017,
      "order": 1,
      "descTextMapHash": 4216154964,
      "finishCond": [
        {
          "damageRatio": "QUEST_CONTENT_COMPLETE_TALK",
          "param": [
            2401701,
            0
          ]
        },
        {
          "damageRatio": "QUEST_CONTENT_COMPLETE_TALK",
          "param": [
            2401702,
            0
          ]
        },
        {
          "damageRatio": "QUEST_CONTENT_COMPLETE_TALK",
          "param": [
            2401707,
            0
          ]
        }
      ],
      "guide": {
        "damageRatio": "QUEST_GUIDE_NPC",
        "autoGuide": "QUEST_GUIDE_AUTO_ENABLE",
        "param": [
          "5142"
        ],
        "guideScene": 3,
        "guideStyle": "QUEST_GUIDE_STYLE_TARGET",
        "MLAHIFLGIGJ": ""
      },
      "guideHint": {
        "param1": ""
      },
      "isRewind": true,
      "finishExec": [
        {
          "damageRatio": "QUEST_EXEC_RANDOM_CLOSED_QUEST_VAR",
          "param": [
            "0",
            "0",
            "2"
          ]
        }
      ],
      "versionBegin": "",
      "versionEnd": ""
    },
    {
      "subId": 2401702,
      "mainId": 24017,
      "order": 2,
      "descTextMapHash": 1476207604,
      "finishCond": [
        {
          "damageRatio": "QUEST_CONTENT_LUA_NOTIFY",
          "param": [
            0,
            0
          ],
          "count": 1
        }
      ],
      "guide": {
        "damageRatio": "QUEST_GUIDE_GADGET",
        "autoGuide": "QUEST_GUIDE_AUTO_ENABLE",
        "param": [
          "133403090",
          "90017",
          "2733.095:364.8897:4445.237"
        ],
        "guideScene": 3,
        "guideStyle": "QUEST_GUIDE_STYLE_TARGET",
        "MLAHIFLGIGJ": ""
      },
      "guideHint": {
        "param1": ""
      },
      "isRewind": true,
      "finishExec": [
        {
          "damageRatio": "QUEST_EXEC_UNREGISTER_DYNAMIC_GROUP",
          "param": [
            "133403090",
            "1"
          ]
        }
      ],
      "versionBegin": "",
      "versionEnd": ""
    },
    {
      "subId": 2401703,
      "mainId": 24017,
      "order": 4,
      "descTextMapHash": 1498134676,
      "finishCond": [
        {
          "damageRatio": "QUEST_CONTENT_FINISH_ITEM_GIVING",
          "param": [
            2401703,
            0
          ]
        }
      ],
      "guide": {
        "damageRatio": "QUEST_GUIDE_NPC",
        "autoGuide": "QUEST_GUIDE_AUTO_ENABLE",
        "param": [
          "5142"
        ],
        "guideScene": 3,
        "guideStyle": "QUEST_GUIDE_STYLE_TARGET",
        "MLAHIFLGIGJ": ""
      },
      "guideHint": {
        "param1": ""
      },
      "isRewind": true,
      "versionBegin": "",
      "versionEnd": ""
    },
    {
      "subId": 2401704,
      "mainId": 24017,
      "order": 5,
      "descTextMapHash": 2594170964,
      "finishCond": [
        {
          "damageRatio": "QUEST_CONTENT_COMPLETE_TALK",
          "param": [
            2401704,
            0
          ]
        }
      ],
      "guide": {
        "damageRatio": "QUEST_GUIDE_NPC",
        "autoGuide": "QUEST_GUIDE_AUTO_ENABLE",
        "param": [
          "5142"
        ],
        "guideScene": 3,
        "guideStyle": "QUEST_GUIDE_STYLE_TARGET",
        "MLAHIFLGIGJ": ""
      },
      "guideHint": {
        "param1": ""
      },
      "finishParent": true,
      "isRewind": true,
      "finishExec": [
        {
          "damageRatio": "QUEST_EXEC_NOTIFY_DAILY_TASK",
          "param": [
            "43080"
          ]
        }
      ],
      "versionBegin": "",
      "versionEnd": ""
    },
    {
      "subId": 2401705,
      "mainId": 24017,
      "order": 3,
      "descTextMapHash": 1497967468,
      "finishCond": [
        {
          "damageRatio": "QUEST_CONTENT_LUA_NOTIFY",
          "param": [
            0,
            0
          ],
          "count": 1
        }
      ],
      "guide": {
        "damageRatio": "QUEST_GUIDE_GADGET",
        "autoGuide": "QUEST_GUIDE_AUTO_ENABLE",
        "param": [
          "133403090",
          "90017",
          "2733.095:364.8897:4445.237"
        ],
        "guideScene": 3,
        "guideStyle": "QUEST_GUIDE_STYLE_TARGET",
        "MLAHIFLGIGJ": ""
      },
      "guideHint": {
        "param1": ""
      },
      "isRewind": true,
      "finishExec": [
        {
          "damageRatio": "QUEST_EXEC_UNREGISTER_DYNAMIC_GROUP",
          "param": [
            "133403090",
            "1"
          ]
        },
        {
          "damageRatio": "QUEST_EXEC_INC_QUEST_GLOBAL_VAR",
          "param": [
            "2401701",
            "1"
          ]
        }
      ],
      "versionBegin": "",
      "versionEnd": ""
    },
    {
      "subId": 2401706,
      "mainId": 24017,
      "order": 6,
      "descTextMapHash": 343198860,
      "finishCond": [
        {
          "damageRatio": "QUEST_CONTENT_COMPLETE_TALK",
          "param": [
            2401705,
            0
          ]
        }
      ],
      "guide": {
        "damageRatio": "QUEST_GUIDE_NPC",
        "autoGuide": "QUEST_GUIDE_AUTO_ENABLE",
        "param": [
          "5142"
        ],
        "guideScene": 3,
        "guideStyle": "QUEST_GUIDE_STYLE_TARGET",
        "MLAHIFLGIGJ": ""
      },
      "guideHint": {
        "param1": ""
      },
      "finishParent": true,
      "isRewind": true,
      "finishExec": [
        {
          "damageRatio": "QUEST_EXEC_NOTIFY_DAILY_TASK",
          "param": [
            "43080"
          ]
        },
        {
          "damageRatio": "QUEST_EXEC_UPDATE_PARENT_QUEST_REWARD_INDEX",
          "param": [
            "1"
          ]
        }
      ],
      "versionBegin": "",
      "versionEnd": ""
    }
  ],
  "talks": [
    {
      "id": 2401701,
      "beginWay": "TALK_BEGIN_MANUAL",
      "activeMode": "PLAY_MODE_HOST",
      "beginCondComb": "LOGIC_AND",
      "beginCond": [
        {
          "type": "QUEST_COND_STATE_EQUAL",
          "_param": [
            "2401701",
            "2"
          ]
        },
        {
          "type": "QUEST_COND_DAILY_TASK_VAR_EQ",
          "_param": [
            "43080",
            "2",
            "0"
          ]
        }
      ],
      "priority": 5,
      "initDialog": 240170101,
      "npcId": [
        5142
      ],
      "performCfg": "",
      "heroTalk": "TALK_HERO_MAIN",
      "questId": 24017,
      "assetIndex": 6838270286340297765,
      "prePerformCfg": ""
    },
    {
      "id": 2401702,
      "beginWay": "TALK_BEGIN_MANUAL",
      "activeMode": "PLAY_MODE_HOST",
      "beginCondComb": "LOGIC_AND",
      "beginCond": [
        {
          "type": "QUEST_COND_STATE_EQUAL",
          "_param": [
            "2401701",
            "2"
          ]
        },
        {
          "type": "QUEST_COND_DAILY_TASK_VAR_GT",
          "_param": [
            "43080",
            "2",
            "0"
          ]
        }
      ],
      "priority": 5,
      "initDialog": 240170201,
      "npcId": [
        5142
      ],
      "performCfg": "",
      "heroTalk": "TALK_HERO_MAIN",
      "questId": 24017,
      "assetIndex": 987249744022026718,
      "prePerformCfg": ""
    },
    {
      "id": 2401703,
      "beginWay": "TALK_BEGIN_MANUAL",
      "activeMode": "PLAY_MODE_HOST",
      "beginCondComb": "LOGIC_AND",
      "beginCond": [
        {
          "type": "QUEST_COND_STATE_EQUAL",
          "_param": [
            "2401703",
            "2"
          ]
        },
        {
          "type": "QUEST_COND_ITEM_GIVING_ACTIVED",
          "_param": [
            "2401703"
          ]
        }
      ],
      "priority": 5,
      "initDialog": 240170301,
      "npcId": [
        5142
      ],
      "performCfg": "",
      "heroTalk": "TALK_HERO_MAIN",
      "questId": 24017,
      "assetIndex": 5304971181446978768,
      "prePerformCfg": ""
    },
    {
      "id": 2401704,
      "beginWay": "TALK_BEGIN_AUTO",
      "activeMode": "PLAY_MODE_HOST",
      "beginCond": [
        {
          "type": "QUEST_COND_STATE_EQUAL",
          "_param": [
            "2401704",
            "2"
          ]
        }
      ],
      "priority": 5,
      "initDialog": 240170401,
      "npcId": [
        5142
      ],
      "performCfg": "",
      "heroTalk": "TALK_HERO_MAIN",
      "questId": 24017,
      "assetIndex": 15154510206745159684,
      "prePerformCfg": "",
      "stayFreeStyle": true
    },
    {
      "id": 2401705,
      "beginWay": "TALK_BEGIN_AUTO",
      "activeMode": "PLAY_MODE_HOST",
      "beginCond": [
        {
          "type": "QUEST_COND_STATE_EQUAL",
          "_param": [
            "2401706",
            "2"
          ]
        }
      ],
      "priority": 5,
      "initDialog": 240170501,
      "npcId": [
        5142
      ],
      "performCfg": "",
      "heroTalk": "TALK_HERO_MAIN",
      "questId": 24017,
      "assetIndex": 9901162212540769395,
      "prePerformCfg": "",
      "stayFreeStyle": true
    },
    {
      "id": 2401706,
      "beginWay": "TALK_BEGIN_MANUAL",
      "activeMode": "PLAY_MODE_HOST",
      "beginCondComb": "LOGIC_OR",
      "beginCond": [
        {
          "type": "QUEST_COND_STATE_EQUAL",
          "_param": [
            "2401705",
            "2"
          ]
        },
        {
          "type": "QUEST_COND_STATE_EQUAL",
          "_param": [
            "2401702",
            "2"
          ]
        }
      ],
      "priority": 5,
      "initDialog": 240170601,
      "npcId": [
        5142
      ],
      "performCfg": "",
      "heroTalk": "TALK_HERO_MAIN",
      "questId": 24017,
      "assetIndex": 12269167844733930897,
      "prePerformCfg": ""
    },
    {
      "id": 2401707,
      "beginWay": "TALK_BEGIN_MANUAL",
      "activeMode": "PLAY_MODE_HOST",
      "beginCondComb": "LOGIC_AND",
      "beginCond": [
        {
          "type": "QUEST_COND_STATE_EQUAL",
          "_param": [
            "2401701",
            "2"
          ]
        },
        {
          "type": "QUEST_COND_QUEST_GLOBAL_VAR_EQUAL",
          "_param": [
            "2401701",
            "2"
          ]
        }
      ],
      "priority": 8,
      "initDialog": 240170701,
      "npcId": [
        5142
      ],
      "performCfg": "",
      "heroTalk": "TALK_HERO_MAIN",
      "questId": 24017,
      "assetIndex": 357122978618540350,
      "prePerformCfg": "",
      "finishExec": [
        {
          "damageRatio": "TALK_EXEC_INC_QUEST_GLOBAL_VAR",
          "param": [
            "2401701",
            "1"
          ]
        }
      ]
    }
  ],
  "dialogList": [
    {
      "id": 240170202,
      "nextDialogs": [
        240170203
      ],
      "talkShowType": "TALK_SHOW_FORCE_SELECT",
      "talkRole": {
        "type": "TALK_ROLE_PLAYER",
        "_id": ""
      },
      "talkContentTextMapHash": 1242246034,
      "talkAssetPath": "",
      "talkAssetPathAlter": "",
      "talkAudioName": "",
      "actionBefore": "",
      "actionWhile": "",
      "actionAfter": "",
      "optionIcon": "",
      "iconPath": ""
    }
  ]
}