{
  "id": 25012,
  "damageRatio": "WQ",
  "descTextMapHash": 551662457,
  "EKEKACCODOE": 2286669311,
  "luaPath": "",
  "showType": "QUEST_HIDDEN",
  "subQuests": [
    {
      "subId": 2501201,
      "mainId": 25012,
      "order": 1,
      "descTextMapHash": 3309461039,
      "showType": "QUEST_HIDDEN",
      "finishCond": [
        {
          "damageRatio": "QUEST_CONTENT_PLAYER_LEVEL_UP",
          "param": [
            0,
            0
          ],
          "count": 55
        }
      ],
      "guide": {
        "MLAHIFLGIGJ": ""
      },
      "guideHint": {
        "param1": ""
      },
      "finishParent": true,
      "versionBegin": "",
      "versionEnd": ""
    }
  ]
}