{
  "id": 25028,
  "damageRatio": "IQ",
  "activeMode": "PLAY_MODE_ALL",
  "descTextMapHash": 2584290031,
  "EKEKACCODOE": 3256981190,
  "luaPath": "Actor/Quest/IQ25028",
  "taskID": 44011,
  "NAOFGBNMCCI": true,
  "BONJIMPOJLG": true,
  "subQuests": [
    {
      "subId": 2502801,
      "mainId": 25028,
      "order": 6,
      "descTextMapHash": 4178848876,
      "JIFODJPFKDF": [
        350225,
        350226
      ],
      "finishCond": [
        {
          "damageRatio": "QUEST_CONTENT_COMPLETE_TALK",
          "param": [
            2502801,
            0
          ]
        }
      ],
      "guide": {
        "damageRatio": "QUEST_GUIDE_NPC",
        "param": [
          "6068"
        ],
        "guideScene": 3,
        "guideStyle": "QUEST_GUIDE_STYLE_TARGET",
        "guideLayer": "QUEST_GUIDE_LAYER_SCENE",
        "MLAHIFLGIGJ": ""
      },
      "guideHint": {
        "param1": ""
      },
      "isRewind": true,
      "versionBegin": "",
      "versionEnd": ""
    },
    {
      "subId": 2502802,
      "mainId": 25028,
      "order": 8,
      "descTextMapHash": 3969306844,
      "JIFODJPFKDF": [
        350225,
        350226
      ],
      "finishCond": [
        {
          "damageRatio": "QUEST_CONTENT_LUA_NOTIFY",
          "param": [
            0,
            0
          ],
          "count": 1
        }
      ],
      "guide": {
        "damageRatio": "QUEST_GUIDE_LOCATION",
        "param": [
          "[3_350200114:-3022.758,200.678,8664.328]",
          "30"
        ],
        "guideScene": 3,
        "guideStyle": "QUEST_GUIDE_STYLE_POINT",
        "guideLayer": "QUEST_GUIDE_LAYER_SCENE",
        "MLAHIFLGIGJ": ""
      },
      "guideHint": {
        "param1": ""
      },
      "isRewind": true,
      "versionBegin": "",
      "versionEnd": ""
    },
    {
      "subId": 2502803,
      "mainId": 25028,
      "order": 9,
      "descTextMapHash": 2098125508,
      "showType": "QUEST_HIDDEN",
      "JIFODJPFKDF": [
        350225,
        350226
      ],
      "finishCond": [
        {
          "damageRatio": "QUEST_CONTENT_LUA_NOTIFY",
          "param": [
            0,
            0
          ],
          "count": 1
        }
      ],
      "failCond": [
        {
          "damageRatio": "QUEST_CONTENT_LUA_NOTIFY",
          "param": [
            0,
            0
          ],
          "count": 1
        }
      ],
      "guide": {
        "guideScene": 3,
        "guideStyle": "QUEST_GUIDE_STYLE_POINT",
        "guideLayer": "QUEST_GUIDE_LAYER_SCENE",
        "MLAHIFLGIGJ": ""
      },
      "showGuide": "QUEST_GUIDE_ITEM_DISABLE",
      "guideHint": {
        "param1": ""
      },
      "versionBegin": "",
      "versionEnd": ""
    },
    {
      "subId": 2502804,
      "mainId": 25028,
      "order": 5,
      "descTextMapHash": 3529633708,
      "JIFODJPFKDF": [
        350225,
        350226
      ],
      "finishCond": [
        {
          "damageRatio": "QUEST_CONTENT_COMPLETE_TALK",
          "param": [
            2502804,
            0
          ]
        },
        {
          "damageRatio": "QUEST_CONTENT_COMPLETE_TALK",
          "param": [
            2502812,
            0
          ]
        }
      ],
      "guide": {
        "damageRatio": "QUEST_GUIDE_NPC",
        "param": [
          "6068"
        ],
        "guideScene": 3,
        "guideStyle": "QUEST_GUIDE_STYLE_TARGET",
        "guideLayer": "QUEST_GUIDE_LAYER_SCENE",
        "MLAHIFLGIGJ": ""
      },
      "guideHint": {
        "param1": ""
      },
      "finishParent": true,
      "isRewind": true,
      "finishExec": [
        {
          "damageRatio": "QUEST_EXEC_SET_QUEST_GLOBAL_VAR",
          "param": [
            "2502802",
            "1"
          ]
        },
        {
          "damageRatio": "QUEST_EXEC_UNREGISTER_DYNAMIC_GROUP",
          "param": [
            "133502260,133502340"
          ]
        },
        {
          "damageRatio": "QUEST_EXEC_NOTIFY_DAILY_TASK",
          "param": [
            "44011"
          ]
        }
      ],
      "versionBegin": "",
      "versionEnd": ""
    },
    {
      "subId": 2502805,
      "mainId": 25028,
      "order": 10,
      "descTextMapHash": 298983852,
      "JIFODJPFKDF": [
        350225,
        350226
      ],
      "finishCond": [
        {
          "damageRatio": "QUEST_CONTENT_COMPLETE_TALK",
          "param": [
            2502806,
            0
          ]
        },
        {
          "damageRatio": "QUEST_CONTENT_COMPLETE_TALK",
          "param": [
            2502803,
            0
          ]
        }
      ],
      "guide": {
        "damageRatio": "QUEST_GUIDE_LOCATION",
        "param": [
          "[3_9240:-3023.690,200.847,8663.593,0.000,208.481,0.000]",
          "0"
        ],
        "guideScene": 3,
        "guideStyle": "QUEST_GUIDE_STYLE_POINT",
        "guideLayer": "QUEST_GUIDE_LAYER_SCENE",
        "MLAHIFLGIGJ": ""
      },
      "guideHint": {
        "param1": ""
      },
      "isRewind": true,
      "finishExec": [
        {
          "damageRatio": "QUEST_EXEC_NOTIFY_GROUP_LUA",
          "param": [
            "3",
            "133502260"
          ]
        }
      ],
      "versionBegin": "",
      "versionEnd": ""
    },
    {
      "subId": 2502806,
      "mainId": 25028,
      "order": 11,
      "descTextMapHash": 1289145980,
      "JIFODJPFKDF": [
        350225,
        350226
      ],
      "finishCond": [
        {
          "damageRatio": "QUEST_CONTENT_COMPLETE_TALK",
          "param": [
            2502805,
            0
          ]
        },
        {
          "damageRatio": "QUEST_CONTENT_COMPLETE_TALK",
          "param": [
            2502807,
            0
          ]
        }
      ],
      "guide": {
        "damageRatio": "QUEST_GUIDE_NPC",
        "param": [
          "6068"
        ],
        "guideScene": 3,
        "guideStyle": "QUEST_GUIDE_STYLE_TARGET",
        "guideLayer": "QUEST_GUIDE_LAYER_SCENE",
        "MLAHIFLGIGJ": ""
      },
      "guideHint": {
        "param1": ""
      },
      "finishParent": true,
      "isRewind": true,
      "finishExec": [
        {
          "damageRatio": "QUEST_EXEC_SET_QUEST_GLOBAL_VAR",
          "param": [
            "2502801",
            "1"
          ]
        },
        {
          "damageRatio": "QUEST_EXEC_UNREGISTER_DYNAMIC_GROUP",
          "param": [
            "133502259,133502260"
          ]
        },
        {
          "damageRatio": "QUEST_EXEC_NOTIFY_DAILY_TASK",
          "param": [
            "44011"
          ]
        }
      ],
      "versionBegin": "",
      "versionEnd": ""
    },
    {
      "subId": 2502807,
      "mainId": 25028,
      "order": 2,
      "descTextMapHash": 3211347284,
      "JIFODJPFKDF": [
        350225,
        350226
      ],
      "finishCond": [
        {
          "damageRatio": "QUEST_CONTENT_COMPLETE_TALK",
          "param": [
            2502802,
            0
          ]
        },
        {
          "damageRatio": "QUEST_CONTENT_COMPLETE_TALK",
          "param": [
            2502813,
            0
          ]
        }
      ],
      "guide": {
        "damageRatio": "QUEST_GUIDE_NPC",
        "param": [
          "6068"
        ],
        "guideScene": 3,
        "guideStyle": "QUEST_GUIDE_STYLE_TARGET",
        "guideLayer": "QUEST_GUIDE_LAYER_SCENE",
        "MLAHIFLGIGJ": ""
      },
      "guideHint": {
        "param1": ""
      },
      "isRewind": true,
      "versionBegin": "",
      "versionEnd": ""
    },
    {
      "subId": 2502808,
      "mainId": 25028,
      "order": 3,
      "descTextMapHash": 2171462940,
      "JIFODJPFKDF": [
        350225,
        350226
      ],
      "finishCond": [
        {
          "damageRatio": "QUEST_CONTENT_LUA_NOTIFY",
          "param": [
            0,
            0
          ],
          "count": 1
        }
      ],
      "guide": {
        "damageRatio": "QUEST_GUIDE_LOCATION",
        "param": [
          "[3_350200114:-3022.758,200.678,8664.328]",
          "30"
        ],
        "guideScene": 3,
        "guideStyle": "QUEST_GUIDE_STYLE_POINT",
        "guideLayer": "QUEST_GUIDE_LAYER_SCENE",
        "MLAHIFLGIGJ": ""
      },
      "guideHint": {
        "param1": ""
      },
      "isRewind": true,
      "versionBegin": "",
      "versionEnd": ""
    },
    {
      "subId": 2502809,
      "mainId": 25028,
      "order": 4,
      "descTextMapHash": 602016036,
      "showType": "QUEST_HIDDEN",
      "JIFODJPFKDF": [
        350225,
        350226
      ],
      "finishCond": [
        {
          "damageRatio": "QUEST_CONTENT_LUA_NOTIFY",
          "param": [
            0,
            0
          ],
          "count": 1
        }
      ],
      "failCond": [
        {
          "damageRatio": "QUEST_CONTENT_LUA_NOTIFY",
          "param": [
            0,
            0
          ],
          "count": 1
        }
      ],
      "guide": {
        "guideScene": 3,
        "guideStyle": "QUEST_GUIDE_STYLE_POINT",
        "guideLayer": "QUEST_GUIDE_LAYER_SCENE",
        "MLAHIFLGIGJ": ""
      },
      "showGuide": "QUEST_GUIDE_ITEM_DISABLE",
      "guideHint": {
        "param1": ""
      },
      "versionBegin": "",
      "versionEnd": ""
    },
    {
      "subId": 2502810,
      "mainId": 25028,
      "order": 7,
      "descTextMapHash": 4266755364,
      "JIFODJPFKDF": [
        350225,
        350226
      ],
      "finishCond": [
        {
          "damageRatio": "QUEST_CONTENT_COMPLETE_TALK",
          "param": [
            2502811,
            0
          ]
        }
      ],
      "guide": {
        "damageRatio": "QUEST_GUIDE_NPC",
        "param": [
          "14324"
        ],
        "guideScene": 3,
        "MLAHIFLGIGJ": ""
      },
      "guideHint": {
        "param1": ""
      },
      "isRewind": true,
      "versionBegin": "",
      "versionEnd": ""
    },
    {
      "subId": 2502811,
      "mainId": 25028,
      "order": 1,
      "descTextMapHash": 3645777844,
      "JIFODJPFKDF": [
        350225,
        350226
      ],
      "finishCond": [
        {
          "damageRatio": "QUEST_CONTENT_FINISH_PLOT",
          "param": [
            2502811,
            0
          ]
        }
      ],
      "guide": {
        "MLAHIFLGIGJ": ""
      },
      "guideHint": {
        "param1": ""
      },
      "isRewind": true,
      "versionBegin": "",
      "versionEnd": ""
    }
  ],
  "talks": [
    {
      "id": 2502801,
      "beginWay": "TALK_BEGIN_MANUAL",
      "activeMode": "PLAY_MODE_HOST",
      "beginCond": [
        {
          "type": "QUEST_COND_STATE_EQUAL",
          "_param": [
            "2502801",
            "2"
          ]
        }
      ],
      "priority": 5,
      "initDialog": 250280101,
      "npcId": [
        6068
      ],
      "performCfg": "QuestDialogue/IQ/3502_25028/Q2502801",
      "heroTalk": "TALK_HERO_MAIN",
      "questId": 25028,
      "assetIndex": 15325764192556763926,
      "prePerformCfg": ""
    },
    {
      "id": 2502802,
      "beginWay": "TALK_BEGIN_MANUAL",
      "activeMode": "PLAY_MODE_HOST",
      "beginCondComb": "LOGIC_AND",
      "beginCond": [
        {
          "type": "QUEST_COND_STATE_EQUAL",
          "_param": [
            "2502807",
            "2"
          ]
        },
        {
          "type": "QUEST_COND_QUEST_GLOBAL_VAR_EQUAL",
          "_param": [
            "2502802",
            "0"
          ]
        }
      ],
      "priority": 5,
      "initDialog": 250280201,
      "npcId": [
        6068,
        14424
      ],
      "performCfg": "QuestDialogue/IQ/3502_25028/Q2502802",
      "heroTalk": "TALK_HERO_MAIN",
      "questId": 25028,
      "assetIndex": 12439226173101302373,
      "prePerformCfg": ""
    },
    {
      "id": 2502803,
      "beginWay": "TALK_BEGIN_MANUAL",
      "activeMode": "PLAY_MODE_HOST",
      "beginCondComb": "LOGIC_AND",
      "beginCond": [
        {
          "type": "QUEST_COND_STATE_EQUAL",
          "_param": [
            "2502805",
            "2"
          ]
        },
        {
          "type": "QUEST_COND_STATE_EQUAL",
          "_param": [
            "2502803",
            "4"
          ]
        }
      ],
      "priority": 8,
      "initDialog": 250280301,
      "npcId": [
        14424
      ],
      "performCfg": "QuestDialogue/IQ/3502_25028/Q2502803",
      "heroTalk": "TALK_HERO_MAIN",
      "questId": 25028,
      "assetIndex": 5594263510713108971,
      "prePerformCfg": "",
      "CHAKPMBJNAJ": [
        "[3_9240:-3023.690,200.847,8663.593,0.000,208.481,0.000]",
        "[3_9241:-3024.413,200.891,8663.825,0.000,170.501,0.000]"
      ]
    },
    {
      "id": 2502804,
      "beginWay": "TALK_BEGIN_MANUAL",
      "activeMode": "PLAY_MODE_HOST",
      "beginCondComb": "LOGIC_AND",
      "beginCond": [
        {
          "type": "QUEST_COND_STATE_EQUAL",
          "_param": [
            "2502804",
            "2"
          ]
        },
        {
          "type": "QUEST_COND_STATE_EQUAL",
          "_param": [
            "2502809",
            "3"
          ]
        }
      ],
      "priority": 5,
      "initDialog": 250280401,
      "npcId": [
        6068
      ],
      "performCfg": "QuestDialogue/IQ/3502_25028/Q2502804",
      "heroTalk": "TALK_HERO_MAIN",
      "questId": 25028,
      "assetIndex": 2981169429340499643,
      "prePerformCfg": "",
      "CHAKPMBJNAJ": [
        "[3_350200237:-3018.541,200.718,8723.415,0.000,174.418,0.000]",
        "[3_9242:-3018.554,200.486,8722.414,0.000,67.824,0.000]"
      ]
    },
    {
      "id": 2502805,
      "beginWay": "TALK_BEGIN_MANUAL",
      "activeMode": "PLAY_MODE_HOST",
      "beginCondComb": "LOGIC_AND",
      "beginCond": [
        {
          "type": "QUEST_COND_STATE_EQUAL",
          "_param": [
            "2502806",
            "2"
          ]
        },
        {
          "type": "QUEST_COND_STATE_EQUAL",
          "_param": [
            "2502803",
            "3"
          ]
        }
      ],
      "priority": 5,
      "initDialog": 250280501,
      "npcId": [
        6068
      ],
      "performCfg": "QuestDialogue/IQ/3502_25028/Q2502805",
      "heroTalk": "TALK_HERO_MAIN",
      "questId": 25028,
      "assetIndex": 16313356176942890100,
      "prePerformCfg": "",
      "CHAKPMBJNAJ": [
        "[3_350200237:-3018.541,200.718,8723.415,0.000,174.418,0.000]",
        "[3_9242:-3018.554,200.486,8722.414,0.000,67.824,0.000]"
      ]
    },
    {
      "id": 2502806,
      "beginWay": "TALK_BEGIN_MANUAL",
      "activeMode": "PLAY_MODE_HOST",
      "beginCondComb": "LOGIC_AND",
      "beginCond": [
        {
          "type": "QUEST_COND_STATE_EQUAL",
          "_param": [
            "2502805",
            "2"
          ]
        },
        {
          "type": "QUEST_COND_STATE_EQUAL",
          "_param": [
            "2502803",
            "3"
          ]
        }
      ],
      "priority": 5,
      "initDialog": 250280601,
      "npcId": [
        14424
      ],
      "performCfg": "QuestDialogue/IQ/3502_25028/Q2502806",
      "heroTalk": "TALK_HERO_MAIN",
      "questId": 25028,
      "assetIndex": 5428067726397641723,
      "prePerformCfg": "",
      "CHAKPMBJNAJ": [
        "[3_9240:-3023.690,200.847,8663.593,0.000,208.481,0.000]",
        "[3_9241:-3024.413,200.891,8663.825,0.000,170.501,0.000]"
      ]
    },
    {
      "id": 2502807,
      "beginWay": "TALK_BEGIN_MANUAL",
      "activeMode": "PLAY_MODE_HOST",
      "beginCondComb": "LOGIC_AND",
      "beginCond": [
        {
          "type": "QUEST_COND_STATE_EQUAL",
          "_param": [
            "2502806",
            "2"
          ]
        },
        {
          "type": "QUEST_COND_STATE_EQUAL",
          "_param": [
            "2502803",
            "4"
          ]
        }
      ],
      "priority": 5,
      "initDialog": 250280701,
      "npcId": [
        6068
      ],
      "performCfg": "QuestDialogue/IQ/3502_25028/Q2502807",
      "heroTalk": "TALK_HERO_MAIN",
      "questId": 25028,
      "assetIndex": 11519094095745697088,
      "prePerformCfg": "",
      "CHAKPMBJNAJ": [
        "[3_350200237:-3018.541,200.718,8723.415,0.000,174.418,0.000]",
        "[3_9242:-3018.554,200.486,8722.414,0.000,67.824,0.000]"
      ]
    },
    {
      "id": 2502808,
      "beginWay": "TALK_BEGIN_MANUAL",
      "activeMode": "PLAY_MODE_HOST",
      "beginCondComb": "LOGIC_OR",
      "beginCond": [
        {
          "type": "QUEST_COND_STATE_EQUAL",
          "_param": [
            "2502810",
            "2"
          ]
        },
        {
          "type": "QUEST_COND_STATE_EQUAL",
          "_param": [
            "2502802",
            "2"
          ]
        },
        {
          "type": "QUEST_COND_STATE_EQUAL",
          "_param": [
            "2502805",
            "2"
          ]
        }
      ],
      "priority": 5,
      "initDialog": 250280801,
      "npcId": [
        6068
      ],
      "performCfg": "QuestDialogue/IQ/3502_25028/Q2502808",
      "heroTalk": "TALK_HERO_MAIN",
      "questId": 25028,
      "assetIndex": 14641869596996643429,
      "prePerformCfg": ""
    },
    {
      "id": 2502810,
      "beginWay": "TALK_BEGIN_MANUAL",
      "activeMode": "PLAY_MODE_HOST",
      "beginCond": [
        {
          "type": "QUEST_COND_STATE_EQUAL",
          "_param": [
            "2502808",
            "2"
          ]
        }
      ],
      "priority": 5,
      "initDialog": 250281001,
      "npcId": [
        6068
      ],
      "performCfg": "",
      "heroTalk": "TALK_HERO_MAIN",
      "questId": 25028,
      "assetIndex": 6692166270465645535,
      "prePerformCfg": ""
    },
    {
      "id": 2502811,
      "beginWay": "TALK_BEGIN_MANUAL",
      "activeMode": "PLAY_MODE_HOST",
      "beginCond": [
        {
          "type": "QUEST_COND_STATE_EQUAL",
          "_param": [
            "2502810",
            "2"
          ]
        }
      ],
      "priority": 5,
      "initDialog": 250281101,
      "npcId": [
        14424,
        14324
      ],
      "performCfg": "QuestDialogue/IQ/3502_25028/Q2502811",
      "heroTalk": "TALK_HERO_MAIN",
      "questId": 25028,
      "assetIndex": 821589799374531890,
      "prePerformCfg": "",
      "CHAKPMBJNAJ": [
        "[3_350200120:-3017.457,200.355,8664.614,0.000,39.068,0.000]",
        "[3_350200238:-3017.921,200.327,8665.441,0.000,79.623,0.000]",
        "[3_9217:-3028.289,200.292,8668.993,0.000,110.233,0.000]"
      ]
    },
    {
      "id": 2502812,
      "beginWay": "TALK_BEGIN_MANUAL",
      "activeMode": "PLAY_MODE_HOST",
      "beginCondComb": "LOGIC_AND",
      "beginCond": [
        {
          "type": "QUEST_COND_STATE_EQUAL",
          "_param": [
            "2502804",
            "2"
          ]
        },
        {
          "type": "QUEST_COND_STATE_EQUAL",
          "_param": [
            "2502809",
            "4"
          ]
        }
      ],
      "priority": 5,
      "initDialog": 250281201,
      "npcId": [
        6068
      ],
      "performCfg": "QuestDialogue/IQ/3502_25028/Q2502812",
      "heroTalk": "TALK_HERO_MAIN",
      "questId": 25028,
      "assetIndex": 15916645137392379681,
      "prePerformCfg": "",
      "CHAKPMBJNAJ": [
        "[3_350200237:-3018.541,200.718,8723.415,0.000,174.418,0.000]",
        "[3_9242:-3018.554,200.486,8722.414,0.000,67.824,0.000]"
      ]
    },
    {
      "id": 2502813,
      "beginWay": "TALK_BEGIN_MANUAL",
      "activeMode": "PLAY_MODE_HOST",
      "beginCondComb": "LOGIC_AND",
      "beginCond": [
        {
          "type": "QUEST_COND_STATE_EQUAL",
          "_param": [
            "2502807",
            "2"
          ]
        },
        {
          "type": "QUEST_COND_QUEST_GLOBAL_VAR_EQUAL",
          "_param": [
            "2502802",
            "1"
          ]
        }
      ],
      "priority": 5,
      "initDialog": 250281301,
      "npcId": [
        6068,
        14424
      ],
      "performCfg": "QuestDialogue/IQ/3502_25028/Q2502813",
      "heroTalk": "TALK_HERO_MAIN",
      "questId": 25028,
      "assetIndex": 8457707504868843803,
      "prePerformCfg": "",
      "HPEOPMFBIKA": true
    }
  ],
  "preloadLuaList": [
    9428592737084287123,
    6670965117842157963
  ],
  "forcePreloadLuaList": [
    18179821445418866665
  ],
  "freeStyleDic": {
    "14324": [
      1230
    ]
  },
  "dialogList": [
    {
      "id": 250280719,
      "talkRole": {
        "type": "TALK_ROLE_NPC",
        "_id": "6068"
      },
      "talkContentTextMapHash": 3845633626,
      "talkAssetPath": "",
      "talkAssetPathAlter": "",
      "talkAudioName": "",
      "actionBefore": "",
      "actionWhile": "",
      "actionAfter": "",
      "optionIcon": "",
      "iconPath": ""
    }
  ],
  "LNMELPHNIDD": true
}