{
  "id": 25035,
  "damageRatio": "IQ",
  "activeMode": "PLAY_MODE_ALL",
  "descTextMapHash": 3736998191,
  "EKEKACCODOE": 3946657310,
  "luaPath": "Actor/Quest/IQ25035",
  "taskID": 44180,
  "NAOFGBNMCCI": true,
  "BONJIMPOJLG": true,
  "subQuests": [
    {
      "subId": 2503501,
      "mainId": 25035,
      "order": 1,
      "descTextMapHash": 3215745380,
      "JIFODJPFKDF": [
        350219
      ],
      "finishCond": [
        {
          "damageRatio": "QUEST_CONTENT_COMPLETE_TALK",
          "param": [
            2503501,
            0
          ]
        }
      ],
      "guide": {
        "damageRatio": "QUEST_GUIDE_NPC",
        "param": [
          "6101"
        ],
        "guideScene": 3,
        "guideStyle": "QUEST_GUIDE_STYLE_TARGET",
        "guideLayer": "QUEST_GUIDE_LAYER_SCENE",
        "MLAHIFLGIGJ": ""
      },
      "guideHint": {
        "param1": ""
      },
      "isRewind": true,
      "versionBegin": "",
      "versionEnd": ""
    },
    {
      "subId": 2503502,
      "mainId": 25035,
      "order": 2,
      "descTextMapHash": 2699370396,
      "JIFODJPFKDF": [
        350219
      ],
      "finishCond": [
        {
          "damageRatio": "QUEST_CONTENT_COMPLETE_TALK",
          "param": [
            2503502,
            0
          ]
        }
      ],
      "guide": {
        "damageRatio": "QUEST_GUIDE_LOCATION",
        "param": [
          "[3_350200298:-2213.324,204.361,8575.094,0.000,10.661,0.000]",
          "20"
        ],
        "guideScene": 3,
        "guideStyle": "QUEST_GUIDE_STYLE_POINT",
        "guideLayer": "QUEST_GUIDE_LAYER_SCENE",
        "MLAHIFLGIGJ": ""
      },
      "guideHint": {
        "param1": ""
      },
      "isRewind": true,
      "versionBegin": "",
      "versionEnd": ""
    },
    {
      "subId": 2503503,
      "mainId": 25035,
      "order": 3,
      "subIdSet": 1,
      "descTextMapHash": 2622769212,
      "showType": "QUEST_HIDDEN",
      "JIFODJPFKDF": [
        350219
      ],
      "finishCond": [
        {
          "damageRatio": "QUEST_CONTENT_LUA_NOTIFY",
          "param": [
            0,
            0
          ],
          "count": 1
        }
      ],
      "guide": {
        "damageRatio": "QUEST_GUIDE_GADGET",
        "param": [
          "133502089",
          "89001",
          "-2178.678:203.4778:8585.552"
        ],
        "guideScene": 3,
        "guideStyle": "QUEST_GUIDE_STYLE_TARGET",
        "guideLayer": "QUEST_GUIDE_LAYER_SCENE",
        "MLAHIFLGIGJ": ""
      },
      "guideHint": {
        "param1": ""
      },
      "versionBegin": "",
      "versionEnd": ""
    },
    {
      "subId": 2503504,
      "mainId": 25035,
      "order": 4,
      "subIdSet": 1,
      "descTextMapHash": 1160869700,
      "showType": "QUEST_HIDDEN",
      "JIFODJPFKDF": [
        350219
      ],
      "finishCond": [
        {
          "damageRatio": "QUEST_CONTENT_LUA_NOTIFY",
          "param": [
            0,
            0
          ],
          "count": 1
        }
      ],
      "guide": {
        "damageRatio": "QUEST_GUIDE_GADGET",
        "param": [
          "133502089",
          "89002",
          "-2212.862:222.582:8573.552"
        ],
        "guideScene": 3,
        "guideStyle": "QUEST_GUIDE_STYLE_TARGET",
        "guideLayer": "QUEST_GUIDE_LAYER_SCENE",
        "MLAHIFLGIGJ": ""
      },
      "guideHint": {
        "param1": ""
      },
      "versionBegin": "",
      "versionEnd": ""
    },
    {
      "subId": 2503505,
      "mainId": 25035,
      "order": 5,
      "subIdSet": 1,
      "descTextMapHash": 1137694780,
      "showType": "QUEST_HIDDEN",
      "JIFODJPFKDF": [
        350219
      ],
      "finishCond": [
        {
          "damageRatio": "QUEST_CONTENT_LUA_NOTIFY",
          "param": [
            0,
            0
          ],
          "count": 1
        }
      ],
      "guide": {
        "damageRatio": "QUEST_GUIDE_GADGET",
        "param": [
          "133502089",
          "89003",
          "-2210.816:220.0337:8619.19"
        ],
        "guideScene": 3,
        "guideStyle": "QUEST_GUIDE_STYLE_TARGET",
        "guideLayer": "QUEST_GUIDE_LAYER_SCENE",
        "MLAHIFLGIGJ": ""
      },
      "guideHint": {
        "param1": ""
      },
      "versionBegin": "",
      "versionEnd": ""
    },
    {
      "subId": 2503506,
      "mainId": 25035,
      "order": 6,
      "descTextMapHash": 3227160076,
      "JIFODJPFKDF": [
        350219
      ],
      "finishCond": [
        {
          "damageRatio": "QUEST_CONTENT_QUEST_STATE_EQUAL",
          "param": [
            2503503,
            3
          ]
        },
        {
          "damageRatio": "QUEST_CONTENT_QUEST_STATE_EQUAL",
          "param": [
            2503504,
            3
          ]
        },
        {
          "damageRatio": "QUEST_CONTENT_QUEST_STATE_EQUAL",
          "param": [
            2503505,
            3
          ]
        }
      ],
      "guide": {
        "damageRatio": "QUEST_GUIDE_LOCATION",
        "param": [
          "[3_350200298:-2213.324,204.361,8575.094,0.000,10.661,0.000]",
          "50"
        ],
        "guideScene": 3,
        "guideStyle": "QUEST_GUIDE_STYLE_POINT",
        "guideLayer": "QUEST_GUIDE_LAYER_SCENE",
        "MLAHIFLGIGJ": ""
      },
      "guideHint": {
        "param1": ""
      },
      "isRewind": true,
      "versionBegin": "",
      "versionEnd": ""
    },
    {
      "subId": 2503507,
      "mainId": 25035,
      "order": 7,
      "descTextMapHash": 809996596,
      "JIFODJPFKDF": [
        350219
      ],
      "finishCond": [
        {
          "damageRatio": "QUEST_CONTENT_FINISH_ITEM_GIVING",
          "param": [
            2503507,
            0
          ]
        }
      ],
      "guide": {
        "damageRatio": "QUEST_GUIDE_NPC",
        "param": [
          "6101"
        ],
        "guideScene": 3,
        "guideStyle": "QUEST_GUIDE_STYLE_TARGET",
        "guideLayer": "QUEST_GUIDE_LAYER_SCENE",
        "MLAHIFLGIGJ": ""
      },
      "guideHint": {
        "param1": ""
      },
      "isRewind": true,
      "finishExec": [
        {
          "damageRatio": "QUEST_EXEC_DEACTIVE_ITEM_GIVING",
          "param": [
            "2503507"
          ]
        },
        {
          "damageRatio": "QUEST_EXEC_UNREGISTER_DYNAMIC_GROUP",
          "param": [
            "133502089",
            "0"
          ]
        }
      ],
      "versionBegin": "",
      "versionEnd": ""
    },
    {
      "subId": 2503508,
      "mainId": 25035,
      "order": 8,
      "descTextMapHash": 2052796300,
      "JIFODJPFKDF": [
        350219
      ],
      "finishCond": [
        {
          "damageRatio": "QUEST_CONTENT_COMPLETE_TALK",
          "param": [
            2503508,
            0
          ]
        }
      ],
      "guide": {
        "damageRatio": "QUEST_GUIDE_NPC",
        "param": [
          "6101"
        ],
        "guideScene": 3,
        "guideStyle": "QUEST_GUIDE_STYLE_TARGET",
        "guideLayer": "QUEST_GUIDE_LAYER_SCENE",
        "MLAHIFLGIGJ": ""
      },
      "guideHint": {
        "param1": ""
      },
      "finishParent": true,
      "isRewind": true,
      "finishExec": [
        {
          "damageRatio": "QUEST_EXEC_NOTIFY_DAILY_TASK",
          "param": [
            "44180"
          ]
        }
      ],
      "versionBegin": "",
      "versionEnd": ""
    }
  ],
  "talks": [
    {
      "id": 2503501,
      "beginWay": "TALK_BEGIN_MANUAL",
      "activeMode": "PLAY_MODE_HOST",
      "beginCond": [
        {
          "type": "QUEST_COND_STATE_EQUAL",
          "_param": [
            "2503501",
            "2"
          ]
        }
      ],
      "priority": 5,
      "initDialog": 250350101,
      "npcId": [
        6101
      ],
      "performCfg": "",
      "heroTalk": "TALK_HERO_MAIN",
      "questId": 25035,
      "assetIndex": 4660161042070941539,
      "prePerformCfg": "",
      "freeStyleList": [
        1171,
        1172,
        1173,
        1120,
        4040,
        1160,
        4030,
        1130,
        1030
      ]
    },
    {
      "id": 2503502,
      "beginWay": "TALK_BEGIN_MANUAL",
      "activeMode": "PLAY_MODE_HOST",
      "beginCond": [
        {
          "type": "QUEST_COND_STATE_EQUAL",
          "_param": [
            "2503502",
            "2"
          ]
        }
      ],
      "priority": 5,
      "initDialog": 250350201,
      "npcId": [
        1005
      ],
      "performCfg": "QuestDialogue/IQ/Natlan_25035/Q2503502",
      "heroTalk": "TALK_HERO_MAIN",
      "questId": 25035,
      "assetIndex": 18032122252910867930,
      "prePerformCfg": "",
      "CHAKPMBJNAJ": [
        "[3_350200298:-2213.324,204.361,8575.094,0.000,10.661,0.000]"
      ]
    },
    {
      "id": 2503503,
      "beginWay": "TALK_BEGIN_MANUAL",
      "activeMode": "PLAY_MODE_HOST",
      "beginCondComb": "LOGIC_OR",
      "beginCond": [
        {
          "type": "QUEST_COND_STATE_EQUAL",
          "_param": [
            "2503506",
            "2"
          ]
        },
        {
          "type": "QUEST_COND_STATE_EQUAL",
          "_param": [
            "2503502",
            "2"
          ]
        }
      ],
      "priority": 5,
      "nextTalks": [
        7511101,
        7511120,
        2503511
      ],
      "initDialog": 250350301,
      "npcId": [
        6101
      ],
      "performCfg": "",
      "heroTalk": "TALK_HERO_MAIN",
      "questId": 25035,
      "assetIndex": 8478740907712211376,
      "prePerformCfg": "",
      "freeStyleList": [
        1171,
        1172,
        1173
      ]
    },
    {
      "id": 2503506,
      "beginWay": "TALK_BEGIN_MANUAL",
      "activeMode": "PLAY_MODE_HOST",
      "beginCondComb": "LOGIC_A_AND_ETCOR",
      "beginCond": [
        {
          "type": "QUEST_COND_ITEM_GIVING_ACTIVED",
          "_param": [
            "2503505"
          ]
        },
        {
          "type": "QUEST_COND_STATE_EQUAL",
          "_param": [
            "2503506",
            "2"
          ]
        },
        {
          "type": "QUEST_COND_STATE_EQUAL",
          "_param": [
            "2503502",
            "2"
          ]
        }
      ],
      "priority": 7,
      "nextTalks": [
        7511101,
        7511120,
        2503511
      ],
      "initDialog": 250350601,
      "npcId": [
        6101
      ],
      "performCfg": "",
      "heroTalk": "TALK_HERO_MAIN",
      "questId": 25035,
      "assetIndex": 4523102853988491943,
      "prePerformCfg": "",
      "freeStyleList": [
        1171,
        1172,
        1173
      ]
    },
    {
      "id": 2503507,
      "beginWay": "TALK_BEGIN_MANUAL",
      "activeMode": "PLAY_MODE_HOST",
      "beginCondComb": "LOGIC_AND",
      "beginCond": [
        {
          "type": "QUEST_COND_STATE_EQUAL",
          "_param": [
            "2503507",
            "2"
          ]
        },
        {
          "type": "QUEST_COND_ITEM_GIVING_ACTIVED",
          "_param": [
            "2503507"
          ]
        }
      ],
      "priority": 5,
      "initDialog": 250350701,
      "npcId": [
        6101
      ],
      "performCfg": "",
      "heroTalk": "TALK_HERO_MAIN",
      "questId": 25035,
      "assetIndex": 13930410664344274608,
      "prePerformCfg": ""
    },
    {
      "id": 2503508,
      "beginWay": "TALK_BEGIN_AUTO",
      "activeMode": "PLAY_MODE_HOST",
      "beginCond": [
        {
          "type": "QUEST_COND_STATE_EQUAL",
          "_param": [
            "2503508",
            "2"
          ]
        }
      ],
      "priority": 5,
      "initDialog": 250350801,
      "npcId": [
        6101
      ],
      "performCfg": "",
      "heroTalk": "TALK_HERO_MAIN",
      "questId": 25035,
      "assetIndex": 3518392401747423583,
      "prePerformCfg": "",
      "freeStyleList": [
        1230,
        1030,
        1240
      ]
    },
    {
      "id": 2503511,
      "activeMode": "PLAY_MODE_HOST",
      "beginCondComb": "LOGIC_OR",
      "beginCond": [
        {
          "type": "QUEST_COND_STATE_EQUAL",
          "_param": [
            "2503506",
            "2"
          ]
        },
        {
          "type": "QUEST_COND_STATE_EQUAL",
          "_param": [
            "2503502",
            "2"
          ]
        }
      ],
      "priority": 5,
      "initDialog": 250351101,
      "npcId": [
        6101
      ],
      "performCfg": "",
      "heroTalk": "TALK_HERO_MAIN",
      "questId": 25035,
      "assetIndex": 1565907945778738039,
      "prePerformCfg": "",
      "freeStyleList": [
        1130
      ]
    }
  ],
  "LNMELPHNIDD": true
}