{
  "id": 25033,
  "damageRatio": "IQ",
  "activeMode": "PLAY_MODE_ALL",
  "descTextMapHash": 2708940399,
  "EKEKACCODOE": 1572272774,
  "luaPath": "Actor/Quest/IQ25033",
  "rewardIdList": [
    0,
    500194,
    500195
  ],
  "taskID": 44220,
  "NAOFGBNMCCI": true,
  "BONJIMPOJLG": true,
  "subQuests": [
    {
      "subId": 2503301,
      "mainId": 25033,
      "order": 1,
      "descTextMapHash": 2584453996,
      "JIFODJPFKDF": [
        350408
      ],
      "finishCond": [
        {
          "damageRatio": "QUEST_CONTENT_COMPLETE_TALK",
          "param": [
            2503301,
            0
          ]
        },
        {
          "damageRatio": "QUEST_CONTENT_COMPLETE_TALK",
          "param": [
            2503307,
            0
          ]
        }
      ],
      "guide": {
        "damageRatio": "QUEST_GUIDE_NPC",
        "param": [
          "14371"
        ],
        "guideScene": 3,
        "guideStyle": "QUEST_GUIDE_STYLE_TARGET",
        "guideLayer": "QUEST_GUIDE_LAYER_SCENE",
        "MLAHIFLGIGJ": ""
      },
      "guideHint": {
        "param1": ""
      },
      "isRewind": true,
      "finishExec": [
        {
          "damageRatio": "QUEST_EXEC_BATCH_SET_QUEST_VAR",
          "param": [
            "0",
            "1"
          ]
        }
      ],
      "versionBegin": "",
      "versionEnd": ""
    },
    {
      "subId": 2503302,
      "mainId": 25033,
      "order": 2,
      "descTextMapHash": 3863857084,
      "JIFODJPFKDF": [
        350408
      ],
      "finishCond": [
        {
          "damageRatio": "QUEST_CONTENT_LUA_NOTIFY",
          "param": [
            0,
            0
          ],
          "count": 1
        },
        {
          "damageRatio": "QUEST_CONTENT_LUA_NOTIFY",
          "param": [
            0,
            0
          ],
          "count": 1
        }
      ],
      "failCond": [
        {
          "damageRatio": "QUEST_CONTENT_LEAVE_SCENE_RANGE",
          "param": [
            3,
            85
          ]
        }
      ],
      "guide": {
        "damageRatio": "QUEST_GUIDE_LOCATION",
        "param": [
          "[3_8625:-1933.558,281.741,7950.873,0.000,36.959,0.000]"
        ],
        "guideScene": 3,
        "guideStyle": "QUEST_GUIDE_STYLE_POINT",
        "guideLayer": "QUEST_GUIDE_LAYER_SCENE",
        "MLAHIFLGIGJ": ""
      },
      "guideHint": {
        "param1": ""
      },
      "finishExec": [
        {
          "damageRatio": "QUEST_EXEC_UNREGISTER_DYNAMIC_GROUP",
          "param": [
            "133504103"
          ]
        }
      ],
      "failExec": [
        {
          "damageRatio": "QUEST_EXEC_ROLLBACK_QUEST",
          "param": [
            "2503301"
          ]
        },
        {
          "damageRatio": "QUEST_EXEC_UNREGISTER_DYNAMIC_GROUP",
          "param": [
            "133504103"
          ]
        }
      ],
      "versionBegin": "",
      "versionEnd": ""
    },
    {
      "subId": 2503303,
      "mainId": 25033,
      "order": 3,
      "descTextMapHash": 135752948,
      "showType": "QUEST_HIDDEN",
      "finishCond": [
        {
          "damageRatio": "QUEST_CONTENT_LUA_NOTIFY",
          "param": [
            0,
            0
          ],
          "count": 1
        }
      ],
      "failCond": [
        {
          "damageRatio": "QUEST_CONTENT_LUA_NOTIFY",
          "param": [
            0,
            0
          ],
          "count": 1
        }
      ],
      "guide": {
        "MLAHIFLGIGJ": ""
      },
      "guideHint": {
        "param1": ""
      },
      "finishExec": [
        {
          "damageRatio": "QUEST_EXEC_SET_QUEST_GLOBAL_VAR",
          "param": [
            "2502901",
            "1"
          ]
        },
        {
          "damageRatio": "QUEST_EXEC_UPDATE_PARENT_QUEST_REWARD_INDEX",
          "param": [
            "2"
          ]
        }
      ],
      "failExec": [
        {
          "damageRatio": "QUEST_EXEC_UPDATE_PARENT_QUEST_REWARD_INDEX",
          "param": [
            "1"
          ]
        }
      ],
      "versionBegin": "",
      "versionEnd": ""
    },
    {
      "subId": 2503304,
      "mainId": 25033,
      "order": 5,
      "descTextMapHash": 2069848324,
      "JIFODJPFKDF": [
        350408
      ],
      "finishCond": [
        {
          "damageRatio": "QUEST_CONTENT_COMPLETE_TALK",
          "param": [
            2503302,
            0
          ]
        },
        {
          "damageRatio": "QUEST_CONTENT_COMPLETE_TALK",
          "param": [
            2503303,
            0
          ]
        }
      ],
      "guide": {
        "damageRatio": "QUEST_GUIDE_LOCATION",
        "param": [
          "Q2503301_N14371"
        ],
        "guideScene": 3,
        "guideStyle": "QUEST_GUIDE_STYLE_POINT",
        "guideLayer": "QUEST_GUIDE_LAYER_SCENE",
        "MLAHIFLGIGJ": ""
      },
      "guideHint": {
        "param1": ""
      },
      "finishParent": true,
      "isRewind": true,
      "finishExec": [
        {
          "damageRatio": "QUEST_EXEC_INC_QUEST_GLOBAL_VAR",
          "param": [
            "2503402",
            "1"
          ]
        },
        {
          "damageRatio": "QUEST_EXEC_NOTIFY_DAILY_TASK",
          "param": [
            "44220"
          ]
        }
      ],
      "versionBegin": "",
      "versionEnd": ""
    },
    {
      "subId": 2503305,
      "mainId": 25033,
      "order": 4,
      "descTextMapHash": 2065669348,
      "showType": "QUEST_HIDDEN",
      "JIFODJPFKDF": [
        350408
      ],
      "finishCond": [
        {
          "damageRatio": "QUEST_CONTENT_COMPLETE_TALK",
          "param": [
            2503305,
            0
          ]
        },
        {
          "damageRatio": "QUEST_CONTENT_QUEST_STATE_EQUAL",
          "param": [
            2503304,
            3
          ]
        }
      ],
      "guide": {
        "damageRatio": "QUEST_GUIDE_LOCATION",
        "autoGuide": "QUEST_GUIDE_AUTO_ENABLE",
        "param": [
          "[3_8626:-1930.341,280.743,7950.652,0.000,57.517,0.000]"
        ],
        "guideScene": 3,
        "guideStyle": "QUEST_GUIDE_STYLE_POINT",
        "guideLayer": "QUEST_GUIDE_LAYER_SCENE",
        "MLAHIFLGIGJ": ""
      },
      "guideHint": {
        "param1": ""
      },
      "versionBegin": "",
      "versionEnd": ""
    }
  ],
  "talks": [
    {
      "id": 2503301,
      "beginWay": "TALK_BEGIN_MANUAL",
      "activeMode": "PLAY_MODE_HOST",
      "beginCondComb": "LOGIC_AND",
      "beginCond": [
        {
          "type": "QUEST_COND_STATE_EQUAL",
          "_param": [
            "2503301",
            "2"
          ]
        },
        {
          "type": "QUEST_COND_QUEST_VAR_EQUAL",
          "_param": [
            "0",
            "0",
            "25033"
          ]
        }
      ],
      "priority": 5,
      "initDialog": 250330101,
      "npcId": [
        14371
      ],
      "performCfg": "QuestDialogue/IQ/Hookwalker_25033/Q2503301",
      "heroTalk": "TALK_HERO_MAIN",
      "questId": 25033,
      "assetIndex": 11145307366314058253,
      "prePerformCfg": "",
      "CHAKPMBJNAJ": [
        "[3_350400180:-1907.845,173.275,8019.369,0.000,254.777,0.000]",
        "[3_350400181:-1910.978,173.792,8019.911,0.000,78.255,0.000]"
      ]
    },
    {
      "id": 2503302,
      "beginWay": "TALK_BEGIN_MANUAL",
      "activeMode": "PLAY_MODE_HOST",
      "beginCond": [
        {
          "type": "QUEST_COND_STATE_EQUAL",
          "_param": [
            "2503304",
            "2"
          ]
        },
        {
          "type": "QUEST_COND_STATE_EQUAL",
          "_param": [
            "2503303",
            "4"
          ]
        }
      ],
      "priority": 5,
      "initDialog": 250330201,
      "npcId": [
        14371
      ],
      "performCfg": "QuestDialogue/IQ/Hookwalker_25033/Q2503302",
      "heroTalk": "TALK_HERO_MAIN",
      "questId": 25033,
      "assetIndex": 10850482433481887271,
      "prePerformCfg": "",
      "CHAKPMBJNAJ": [
        "[3_350400180:-1907.845,173.275,8019.369,0.000,254.777,0.000]",
        "[3_350400181:-1910.978,173.792,8019.911,0.000,78.255,0.000]"
      ]
    },
    {
      "id": 2503303,
      "beginWay": "TALK_BEGIN_MANUAL",
      "activeMode": "PLAY_MODE_HOST",
      "beginCond": [
        {
          "type": "QUEST_COND_STATE_EQUAL",
          "_param": [
            "2503304",
            "2"
          ]
        },
        {
          "type": "QUEST_COND_STATE_EQUAL",
          "_param": [
            "2503303",
            "3"
          ]
        }
      ],
      "priority": 5,
      "initDialog": 250330301,
      "npcId": [
        14371
      ],
      "performCfg": "QuestDialogue/IQ/Hookwalker_25033/Q2503303",
      "heroTalk": "TALK_HERO_MAIN",
      "questId": 25033,
      "assetIndex": 12309347641327338264,
      "prePerformCfg": "",
      "finishExec": [
        {
          "damageRatio": "TALK_EXEC_INC_QUEST_GLOBAL_VAR",
          "param": [
            "2503401",
            "1"
          ]
        }
      ],
      "CHAKPMBJNAJ": [
        "[3_350400180:-1907.845,173.275,8019.369,0.000,254.777,0.000]",
        "[3_350400181:-1910.978,173.792,8019.911,0.000,78.255,0.000]"
      ]
    },
    {
      "id": 2503304,
      "beginWay": "TALK_BEGIN_MANUAL",
      "activeMode": "PLAY_MODE_HOST",
      "beginCond": [
        {
          "type": "QUEST_COND_STATE_EQUAL",
          "_param": [
            "2503302",
            "2"
          ]
        }
      ],
      "priority": 5,
      "initDialog": 250330401,
      "npcId": [
        14371
      ],
      "performCfg": "",
      "questId": 25033,
      "assetIndex": 3068547212709655392,
      "prePerformCfg": ""
    },
    {
      "id": 2503305,
      "beginWay": "TALK_BEGIN_MANUAL",
      "activeMode": "PLAY_MODE_HOST",
      "beginCond": [
        {
          "type": "QUEST_COND_STATE_EQUAL",
          "_param": [
            "2503305",
            "2"
          ]
        }
      ],
      "priority": 5,
      "initDialog": 250330501,
      "npcId": [
        1005
      ],
      "performCfg": "QuestDialogue/IQ/Hookwalker_25033/Q2503305",
      "heroTalk": "TALK_HERO_MAIN",
      "questId": 25033,
      "assetIndex": 7097504284681490618,
      "prePerformCfg": "",
      "CHAKPMBJNAJ": [
        "[3_8626:-1930.341,280.743,7950.652,0.000,57.517,0.000]",
        "[3_8627:-1928.912,280.291,7950.401,0.000,27.368,0.000]"
      ],
      "GPONOMBBGJI": true
    },
    {
      "id": 2503306,
      "beginWay": "TALK_BEGIN_MANUAL",
      "activeMode": "PLAY_MODE_HOST",
      "beginCond": [
        {
          "type": "QUEST_COND_STATE_EQUAL",
          "_param": [
            "2503302",
            "2"
          ]
        },
        {
          "type": "QUEST_COND_IN_VEHICLE_BY_FEATURETAG",
          "_param": [
            "30010"
          ]
        }
      ],
      "priority": 5,
      "initDialog": 250330601,
      "npcId": [
        14372
      ],
      "performCfg": "",
      "questId": 25033,
      "assetIndex": 3784804352239628161,
      "prePerformCfg": "",
      "GPONOMBBGJI": true
    },
    {
      "id": 2503307,
      "beginWay": "TALK_BEGIN_MANUAL",
      "activeMode": "PLAY_MODE_HOST",
      "beginCond": [
        {
          "type": "QUEST_COND_STATE_EQUAL",
          "_param": [
            "2503301",
            "2"
          ]
        },
        {
          "type": "QUEST_COND_QUEST_VAR_EQUAL",
          "_param": [
            "0",
            "1",
            "25033"
          ]
        }
      ],
      "priority": 7,
      "initDialog": 250330701,
      "npcId": [
        14371
      ],
      "performCfg": "",
      "heroTalk": "TALK_HERO_MAIN",
      "questId": 25033,
      "assetIndex": 3260427556191355392,
      "prePerformCfg": "",
      "HPEOPMFBIKA": true
    }
  ],
  "dialogList": [
    {
      "id": 250339901,
      "talkRole": {
        "type": "TALK_ROLE_BLACK_SCREEN",
        "_id": ""
      },
      "talkContentTextMapHash": 696411618,
      "talkAssetPath": "",
      "talkAssetPathAlter": "",
      "talkAudioName": "",
      "actionBefore": "",
      "actionWhile": "",
      "actionAfter": "",
      "optionIcon": "",
      "iconPath": ""
    }
  ],
  "LNMELPHNIDD": true
}