{
  "id": 3001,
  "resId": 1015,
  "series": 1301,
  "descTextMapHash": 2029690863,
  "EKEKACCODOE": 541006422,
  "luaPath": "Actor/Quest/AQ3001",
  "suggestTrackMainQuestList": [
    3002
  ],
  "rewardIdList": [
    103001
  ],
  "chapterId": 1301,
  "subQuests": [
    {
      "subId": 300101,
      "mainId": 3001,
      "order": 1,
      "descTextMapHash": 2921119820,
      "finishCond": [
        {
          "damageRatio": "QUEST_CONTENT_COMPLETE_TALK",
          "param": [
            300101,
            0
          ]
        }
      ],
      "guide": {
        "damageRatio": "QUEST_GUIDE_NPC",
        "param": [
          "1051"
        ],
        "guideScene": 3,
        "guideStyle": "QUEST_GUIDE_STYLE_TARGET",
        "guideLayer": "QUEST_GUIDE_LAYER_SCENE",
        "MLAHIFLGIGJ": ""
      },
      "guideHint": {
        "param1": ""
      },
      "isRewind": true,
      "versionBegin": "",
      "versionEnd": ""
    },
    {
      "subId": 300102,
      "mainId": 3001,
      "order": 2,
      "descTextMapHash": 292144780,
      "finishCond": [
        {
          "damageRatio": "QUEST_CONTENT_FINISH_PLOT",
          "param": [
            300102,
            0
          ]
        }
      ],
      "guide": {
        "damageRatio": "QUEST_GUIDE_LOCATION",
        "autoGuide": "QUEST_GUIDE_AUTO_ENABLE",
        "param": [
          "Q300102_guide"
        ],
        "guideScene": 3,
        "guideStyle": "QUEST_GUIDE_STYLE_POINT",
        "guideLayer": "QUEST_GUIDE_LAYER_SCENE",
        "MLAHIFLGIGJ": ""
      },
      "guideHint": {
        "param1": ""
      },
      "isRewind": true,
      "versionBegin": "",
      "versionEnd": ""
    },
    {
      "subId": 300103,
      "mainId": 3001,
      "order": 5,
      "descTextMapHash": 4051466532,
      "finishCond": [
        {
          "damageRatio": "QUEST_CONTENT_COMPLETE_TALK",
          "param": [
            300105,
            0
          ]
        }
      ],
      "guide": {
        "damageRatio": "QUEST_GUIDE_LOCATION",
        "param": [
          "Q300103_N1051"
        ],
        "guideScene": 3,
        "guideStyle": "QUEST_GUIDE_STYLE_POINT",
        "guideLayer": "QUEST_GUIDE_LAYER_SCENE",
        "MLAHIFLGIGJ": ""
      },
      "guideHint": {
        "param1": ""
      },
      "isRewind": true,
      "versionBegin": "",
      "versionEnd": ""
    },
    {
      "subId": 300104,
      "mainId": 3001,
      "order": 6,
      "descTextMapHash": 2882961572,
      "finishCond": [
        {
          "damageRatio": "QUEST_CONTENT_FINISH_PLOT",
          "param": [
            300104,
            0
          ]
        }
      ],
      "guide": {
        "damageRatio": "QUEST_GUIDE_LOCATION",
        "autoGuide": "QUEST_GUIDE_AUTO_ENABLE",
        "param": [
          "Q300104_guide"
        ],
        "guideScene": 3,
        "guideStyle": "QUEST_GUIDE_STYLE_POINT",
        "guideLayer": "QUEST_GUIDE_LAYER_SCENE",
        "MLAHIFLGIGJ": ""
      },
      "guideHint": {
        "param1": ""
      },
      "isRewind": true,
      "versionBegin": "",
      "versionEnd": ""
    },
    {
      "subId": 300105,
      "mainId": 3001,
      "order": 8,
      "isMpBlock": true,
      "descTextMapHash": 2383492388,
      "finishCond": [
        {
          "damageRatio": "QUEST_CONTENT_COMPLETE_TALK",
          "param": [
            300106,
            0
          ]
        },
        {
          "damageRatio": "QUEST_CONTENT_COMPLETE_TALK",
          "param": [
            300107,
            0
          ]
        }
      ],
      "failCond": [
        {
          "damageRatio": "QUEST_CONTENT_LEAVE_SCENE_RANGE",
          "param": [
            3,
            40
          ]
        },
        {
          "damageRatio": "QUEST_CONTENT_QUEST_STATE_EQUAL",
          "param": [
            300107,
            3
          ]
        }
      ],
      "guide": {
        "damageRatio": "QUEST_GUIDE_NPC",
        "param": [
          "1286"
        ],
        "guideScene": 3,
        "guideStyle": "QUEST_GUIDE_STYLE_TARGET",
        "guideLayer": "QUEST_GUIDE_LAYER_SCENE",
        "MLAHIFLGIGJ": ""
      },
      "guideHint": {
        "param1": ""
      },
      "isRewind": true,
      "finishExec": [
        {
          "damageRatio": "QUEST_EXEC_UNLOCK_AVATAR_TEAM"
        }
      ],
      "failExec": [
        {
          "damageRatio": "QUEST_EXEC_ROLLBACK_QUEST",
          "param": [
            "300104"
          ]
        },
        {
          "damageRatio": "QUEST_EXEC_SET_QUEST_GLOBAL_VAR",
          "param": [
            "300107",
            "0"
          ]
        },
        {
          "damageRatio": "QUEST_EXEC_SET_QUEST_GLOBAL_VAR",
          "param": [
            "73101",
            "0"
          ]
        },
        {
          "damageRatio": "QUEST_EXEC_UNLOCK_AVATAR_TEAM"
        }
      ],
      "versionBegin": "",
      "versionEnd": ""
    },
    {
      "subId": 300106,
      "mainId": 3001,
      "order": 9,
      "descTextMapHash": 1752246316,
      "finishCond": [
        {
          "damageRatio": "QUEST_CONTENT_COMPLETE_TALK",
          "param": [
            300110,
            0
          ]
        }
      ],
      "guide": {
        "damageRatio": "QUEST_GUIDE_NPC",
        "autoGuide": "QUEST_GUIDE_AUTO_ENABLE",
        "param": [
          "1051"
        ],
        "guideScene": 3,
        "guideStyle": "QUEST_GUIDE_STYLE_TARGET",
        "guideLayer": "QUEST_GUIDE_LAYER_SCENE",
        "MLAHIFLGIGJ": ""
      },
      "guideHint": {
        "param1": ""
      },
      "isRewind": true,
      "finishExec": [
        {
          "damageRatio": "QUEST_EXEC_UNREGISTER_DYNAMIC_GROUP",
          "param": [
            "133302210",
            "1"
          ]
        }
      ],
      "versionBegin": "",
      "versionEnd": ""
    },
    {
      "subId": 300107,
      "mainId": 3001,
      "order": 7,
      "isMpBlock": true,
      "descTextMapHash": 2271827588,
      "finishCond": [
        {
          "damageRatio": "QUEST_CONTENT_COMPLETE_TALK",
          "param": [
            31178,
            0
          ]
        }
      ],
      "failCond": [
        {
          "damageRatio": "QUEST_CONTENT_LEAVE_SCENE_RANGE",
          "param": [
            3,
            40
          ]
        }
      ],
      "guide": {
        "damageRatio": "QUEST_GUIDE_LOCATION",
        "autoGuide": "QUEST_GUIDE_AUTO_ENABLE",
        "param": [
          "Q300104_guide"
        ],
        "guideScene": 3,
        "guideStyle": "QUEST_GUIDE_STYLE_POINT",
        "guideLayer": "QUEST_GUIDE_LAYER_SCENE",
        "MLAHIFLGIGJ": ""
      },
      "guideHint": {
        "param1": ""
      },
      "isRewind": true,
      "finishExec": [
        {
          "damageRatio": "QUEST_EXEC_SET_QUEST_GLOBAL_VAR",
          "param": [
            "300107",
            "1"
          ]
        },
        {
          "damageRatio": "QUEST_EXEC_SET_QUEST_GLOBAL_VAR",
          "param": [
            "73101",
            "1"
          ]
        }
      ],
      "failExec": [
        {
          "damageRatio": "QUEST_EXEC_ROLLBACK_QUEST",
          "param": [
            "300104"
          ]
        },
        {
          "damageRatio": "QUEST_EXEC_UNLOCK_AVATAR_TEAM"
        }
      ],
      "versionBegin": "",
      "versionEnd": ""
    },
    {
      "subId": 300108,
      "mainId": 3001,
      "order": 3,
      "descTextMapHash": 3952646396,
      "finishCond": [
        {
          "damageRatio": "QUEST_CONTENT_FINISH_PLOT",
          "param": [
            300108,
            0
          ]
        }
      ],
      "guide": {
        "damageRatio": "QUEST_GUIDE_LOCATION",
        "autoGuide": "QUEST_GUIDE_AUTO_ENABLE",
        "param": [
          "Q300108_guide"
        ],
        "guideScene": 3,
        "guideStyle": "QUEST_GUIDE_STYLE_POINT",
        "guideLayer": "QUEST_GUIDE_LAYER_SCENE",
        "MLAHIFLGIGJ": ""
      },
      "guideHint": {
        "param1": ""
      },
      "isRewind": true,
      "versionBegin": "",
      "versionEnd": ""
    },
    {
      "subId": 300109,
      "mainId": 3001,
      "order": 4,
      "descTextMapHash": 3173154556,
      "finishCond": [
        {
          "damageRatio": "QUEST_CONTENT_FINISH_PLOT",
          "param": [
            300109,
            0
          ]
        }
      ],
      "guide": {
        "damageRatio": "QUEST_GUIDE_LOCATION",
        "autoGuide": "QUEST_GUIDE_AUTO_ENABLE",
        "param": [
          "Q300109_guide"
        ],
        "guideScene": 3,
        "guideStyle": "QUEST_GUIDE_STYLE_POINT",
        "guideLayer": "QUEST_GUIDE_LAYER_SCENE",
        "MLAHIFLGIGJ": ""
      },
      "guideHint": {
        "param1": ""
      },
      "isRewind": true,
      "versionBegin": "",
      "versionEnd": ""
    },
    {
      "subId": 300110,
      "mainId": 3001,
      "order": 10,
      "descTextMapHash": 911655956,
      "finishCond": [
        {
          "damageRatio": "QUEST_CONTENT_COMPLETE_TALK",
          "param": [
            300111,
            0
          ]
        }
      ],
      "guide": {
        "damageRatio": "QUEST_GUIDE_LOCATION",
        "autoGuide": "QUEST_GUIDE_AUTO_ENABLE",
        "param": [
          "Q300110_guide"
        ],
        "guideScene": 3,
        "guideStyle": "QUEST_GUIDE_STYLE_POINT",
        "guideLayer": "QUEST_GUIDE_LAYER_SCENE",
        "MLAHIFLGIGJ": ""
      },
      "guideHint": {
        "param1": ""
      },
      "isRewind": true,
      "versionBegin": "",
      "versionEnd": ""
    },
    {
      "subId": 300111,
      "mainId": 3001,
      "order": 11,
      "descTextMapHash": 4216485620,
      "finishCond": [
        {
          "damageRatio": "QUEST_CONTENT_GAME_TIME_TICK",
          "param": [
            1,
            0
          ]
        }
      ],
      "guide": {
        "autoGuide": "QUEST_GUIDE_AUTO_ENABLE",
        "guideScene": 3,
        "guideLayer": "QUEST_GUIDE_LAYER_SCENE",
        "MLAHIFLGIGJ": ""
      },
      "guideHint": {
        "param1": ""
      },
      "finishParent": true,
      "isRewind": true,
      "versionBegin": "",
      "versionEnd": ""
    }
  ],
  "talks": [
    {
      "id": 300101,
      "beginWay": "TALK_BEGIN_MANUAL",
      "beginCond": [
        {
          "type": "QUEST_COND_STATE_EQUAL",
          "_param": [
            "300101",
            "2"
          ]
        }
      ],
      "priority": 5,
      "initDialog": 30010101,
      "npcId": [
        1051
      ],
      "performCfg": "QuestDialogue/AQ/Sumeru1_3001/Q300101",
      "heroTalk": "TALK_HERO_MAIN",
      "questId": 3001,
      "assetIndex": 15582429463538577153,
      "prePerformCfg": "",
      "enableCameraDisplacement": true,
      "lockGameTime": true
    },
    {
      "id": 300105,
      "beginWay": "TALK_BEGIN_MANUAL",
      "beginCond": [
        {
          "type": "QUEST_COND_STATE_EQUAL",
          "_param": [
            "300103",
            "2"
          ]
        }
      ],
      "priority": 5,
      "initDialog": 30010501,
      "npcId": [
        1051
      ],
      "performCfg": "QuestDialogue/AQ/Sumeru1_3001/Q300105",
      "heroTalk": "TALK_HERO_MAIN",
      "questId": 3001,
      "assetIndex": 15580746839792438045,
      "prePerformCfg": "",
      "enableCameraDisplacement": true,
      "lockGameTime": true
    },
    {
      "id": 300106,
      "beginWay": "TALK_BEGIN_MANUAL",
      "beginCondComb": "LOGIC_AND",
      "beginCond": [
        {
          "type": "QUEST_COND_STATE_EQUAL",
          "_param": [
            "300105",
            "2"
          ]
        },
        {
          "type": "QUEST_COND_STATE_EQUAL",
          "_param": [
            "300107",
            "3"
          ]
        }
      ],
      "priority": 5,
      "initDialog": 30010601,
      "npcId": [
        1005
      ],
      "performCfg": "QuestDialogue/AQ/Sumeru1_3001/Q300106",
      "heroTalk": "TALK_HERO_MAIN",
      "questId": 3001,
      "assetIndex": 4361457973802289145,
      "prePerformCfg": "",
      "enableCameraDisplacement": true,
      "lockGameTime": true
    },
    {
      "id": 300107,
      "beginWay": "TALK_BEGIN_MANUAL",
      "beginCondComb": "LOGIC_AND",
      "beginCond": [
        {
          "type": "QUEST_COND_STATE_EQUAL",
          "_param": [
            "300105",
            "2"
          ]
        },
        {
          "type": "QUEST_COND_QUEST_NOT_RECEIVE",
          "_param": [
            "300107",
            "1"
          ]
        }
      ],
      "priority": 5,
      "initDialog": 30010701,
      "npcId": [
        1005
      ],
      "performCfg": "QuestDialogue/AQ/Sumeru1_3001/Q300107",
      "heroTalk": "TALK_HERO_MAIN",
      "questId": 3001,
      "assetIndex": 10717113127053032715,
      "prePerformCfg": "",
      "enableCameraDisplacement": true,
      "lockGameTime": true
    },
    {
      "id": 300108,
      "beginWay": "TALK_BEGIN_MANUAL",
      "beginCondComb": "LOGIC_AND",
      "beginCond": [
        {
          "type": "QUEST_COND_STATE_EQUAL",
          "_param": [
            "300106",
            "2"
          ]
        },
        {
          "type": "QUEST_COND_STATE_EQUAL",
          "_param": [
            "300107",
            "3"
          ]
        }
      ],
      "priority": 5,
      "nextTalks": [
        300110
      ],
      "initDialog": 30010801,
      "npcId": [
        1051
      ],
      "performCfg": "QuestDialogue/AQ/Sumeru1_3001/Q300108",
      "heroTalk": "TALK_HERO_MAIN",
      "questId": 3001,
      "assetIndex": 6725958031862164452,
      "prePerformCfg": "",
      "enableCameraDisplacement": true,
      "lockGameTime": true
    },
    {
      "id": 300109,
      "beginWay": "TALK_BEGIN_MANUAL",
      "beginCondComb": "LOGIC_AND",
      "beginCond": [
        {
          "type": "QUEST_COND_STATE_EQUAL",
          "_param": [
            "300106",
            "2"
          ]
        },
        {
          "type": "QUEST_COND_QUEST_NOT_RECEIVE",
          "_param": [
            "300107",
            "1"
          ]
        }
      ],
      "priority": 5,
      "nextTalks": [
        300110
      ],
      "initDialog": 30010901,
      "npcId": [
        1051
      ],
      "performCfg": "QuestDialogue/AQ/Sumeru1_3001/Q300109",
      "heroTalk": "TALK_HERO_MAIN",
      "questId": 3001,
      "assetIndex": 5649529629102410328,
      "prePerformCfg": "",
      "enableCameraDisplacement": true,
      "lockGameTime": true
    },
    {
      "id": 300110,
      "beginCond": [
        {
          "type": "QUEST_COND_STATE_EQUAL",
          "_param": [
            "300106",
            "2"
          ]
        }
      ],
      "priority": 5,
      "initDialog": 30011001,
      "npcId": [
        1051
      ],
      "performCfg": "QuestDialogue/AQ/Sumeru1_3001/Q300110",
      "heroTalk": "TALK_HERO_MAIN",
      "questId": 3001,
      "assetIndex": 9024650047653132912,
      "prePerformCfg": "",
      "enableCameraDisplacement": true,
      "lockGameTime": true
    },
    {
      "id": 300111,
      "beginWay": "TALK_BEGIN_MANUAL",
      "beginCond": [
        {
          "type": "QUEST_COND_STATE_EQUAL",
          "_param": [
            "300110",
            "2"
          ]
        }
      ],
      "priority": 5,
      "initDialog": 30011101,
      "npcId": [
        4302
      ],
      "performCfg": "QuestDialogue/AQ/Sumeru1_3001/Q300111",
      "heroTalk": "TALK_HERO_MAIN",
      "questId": 3001,
      "assetIndex": 18251825576026413465,
      "prePerformCfg": "",
      "enableCameraDisplacement": true,
      "lockGameTime": true
    },
    {
      "id": 300151,
      "beginWay": "TALK_BEGIN_MANUAL",
      "beginCondComb": "LOGIC_OR",
      "beginCond": [
        {
          "type": "QUEST_COND_STATE_EQUAL",
          "_param": [
            "300104",
            "2"
          ]
        },
        {
          "type": "QUEST_COND_STATE_EQUAL",
          "_param": [
            "300105",
            "2"
          ]
        },
        {
          "type": "QUEST_COND_STATE_EQUAL",
          "_param": [
            "300107",
            "2"
          ]
        }
      ],
      "priority": 5,
      "initDialog": 30015101,
      "npcId": [
        1051
      ],
      "performCfg": "QuestDialogue/AQ/Sumeru1_3001/Q300151",
      "heroTalk": "TALK_HERO_MAIN",
      "questId": 3001,
      "assetIndex": 9016994345402035443,
      "prePerformCfg": "",
      "enableCameraDisplacement": true,
      "lockGameTime": true
    }
  ],
  "preloadLuaList": [
    14457059026087496718,
    10101687508574369646,
    6542417841213488599,
    2837117991049560436,
    3925972566565458239,
    15234649521659497705
  ],
  "forcePreloadLuaList": [
    2403154707758127656
  ],
  "freeStyleDic": {
    "1051": [
      0
    ]
  }
}