{
  "id": 3004,
  "resId": 1015,
  "series": 1301,
  "descTextMapHash": 1639422863,
  "EKEKACCODOE": 52690310,
  "luaPath": "Actor/Quest/AQ3004",
  "suggestTrackMainQuestList": [
    3005
  ],
  "rewardIdList": [
    103004
  ],
  "chapterId": 1301,
  "subQuests": [
    {
      "subId": 300401,
      "mainId": 3004,
      "order": 1,
      "descTextMapHash": 1132605044,
      "JIFODJPFKDF": [
        330258
      ],
      "finishCond": [
        {
          "damageRatio": "QUEST_CONTENT_COMPLETE_TALK",
          "param": [
            300422,
            0
          ]
        }
      ],
      "guide": {
        "damageRatio": "QUEST_GUIDE_LOCATION",
        "autoGuide": "QUEST_GUIDE_AUTO_ENABLE",
        "param": [
          "Q300401_guide"
        ],
        "guideScene": 3,
        "guideStyle": "QUEST_GUIDE_STYLE_POINT",
        "guideLayer": "QUEST_GUIDE_LAYER_SCENE",
        "MLAHIFLGIGJ": ""
      },
      "guideHint": {
        "param1": ""
      },
      "isRewind": true,
      "finishExec": [
        {
          "damageRatio": "QUEST_EXEC_ADD_SCENE_TAG",
          "param": [
            "3",
            "1112"
          ]
        },
        {
          "damageRatio": "QUEST_EXEC_SET_QUEST_GLOBAL_VAR",
          "param": [
            "300012",
            "1"
          ]
        },
        {
          "damageRatio": "QUEST_EXEC_SET_QUEST_GLOBAL_VAR",
          "param": [
            "300014",
            "1"
          ]
        }
      ],
      "versionBegin": "",
      "versionEnd": ""
    },
    {
      "subId": 300402,
      "mainId": 3004,
      "order": 3,
      "descTextMapHash": 3767972084,
      "JIFODJPFKDF": [
        330201
      ],
      "finishCond": [
        {
          "damageRatio": "QUEST_CONTENT_COMPLETE_TALK",
          "param": [
            300402,
            0
          ]
        }
      ],
      "guide": {
        "damageRatio": "QUEST_GUIDE_LOCATION",
        "autoGuide": "QUEST_GUIDE_AUTO_ENABLE",
        "param": [
          "Q300402_guide"
        ],
        "guideScene": 3,
        "guideStyle": "QUEST_GUIDE_STYLE_POINT",
        "guideLayer": "QUEST_GUIDE_LAYER_SCENE",
        "MLAHIFLGIGJ": ""
      },
      "guideHint": {
        "param1": ""
      },
      "isRewind": true,
      "finishExec": [
        {
          "damageRatio": "QUEST_EXEC_DEL_ALL_SPECIFIC_PACK_ITEM",
          "param": [
            "101928"
          ]
        }
      ],
      "versionBegin": "",
      "versionEnd": ""
    },
    {
      "subId": 300403,
      "mainId": 3004,
      "order": 4,
      "descTextMapHash": 2917540588,
      "JIFODJPFKDF": [
        330202,
        330201
      ],
      "finishCond": [
        {
          "damageRatio": "QUEST_CONTENT_COMPLETE_TALK",
          "param": [
            300403,
            0
          ]
        }
      ],
      "guide": {
        "damageRatio": "QUEST_GUIDE_LOCATION",
        "autoGuide": "QUEST_GUIDE_AUTO_ENABLE",
        "param": [
          "Q300403_guide"
        ],
        "guideScene": 3,
        "guideStyle": "QUEST_GUIDE_STYLE_POINT",
        "guideLayer": "QUEST_GUIDE_LAYER_SCENE",
        "MLAHIFLGIGJ": ""
      },
      "guideHint": {
        "param1": ""
      },
      "isRewind": true,
      "versionBegin": "",
      "versionEnd": ""
    },
    {
      "subId": 300404,
      "mainId": 3004,
      "order": 5,
      "descTextMapHash": 4249003332,
      "JIFODJPFKDF": [
        330201
      ],
      "finishCond": [
        {
          "damageRatio": "QUEST_CONTENT_COMPLETE_TALK",
          "param": [
            300404,
            0
          ]
        }
      ],
      "guide": {
        "damageRatio": "QUEST_GUIDE_LOCATION",
        "autoGuide": "QUEST_GUIDE_AUTO_ENABLE",
        "param": [
          "Q300404_N4314",
          "15"
        ],
        "guideScene": 3,
        "guideStyle": "QUEST_GUIDE_STYLE_TARGET",
        "guideLayer": "QUEST_GUIDE_LAYER_SCENE",
        "MLAHIFLGIGJ": ""
      },
      "guideHint": {
        "param1": ""
      },
      "isRewind": true,
      "versionBegin": "",
      "versionEnd": ""
    },
    {
      "subId": 300405,
      "mainId": 3004,
      "order": 6,
      "descTextMapHash": 4124681092,
      "JIFODJPFKDF": [
        330201
      ],
      "finishCond": [
        {
          "damageRatio": "QUEST_CONTENT_COMPLETE_TALK",
          "param": [
            300418,
            0
          ]
        }
      ],
      "guide": {
        "damageRatio": "QUEST_GUIDE_LOCATION",
        "autoGuide": "QUEST_GUIDE_AUTO_ENABLE",
        "param": [
          "Q300405_guide"
        ],
        "guideScene": 3,
        "guideStyle": "QUEST_GUIDE_STYLE_POINT",
        "guideLayer": "QUEST_GUIDE_LAYER_SCENE",
        "MLAHIFLGIGJ": ""
      },
      "guideHint": {
        "param1": ""
      },
      "isRewind": true,
      "versionBegin": "",
      "versionEnd": ""
    },
    {
      "subId": 300406,
      "mainId": 3004,
      "order": 7,
      "descTextMapHash": 1699696756,
      "JIFODJPFKDF": [
        330201
      ],
      "finishCond": [
        {
          "damageRatio": "QUEST_CONTENT_COMPLETE_TALK",
          "param": [
            300405,
            0
          ]
        }
      ],
      "guide": {
        "damageRatio": "QUEST_GUIDE_NPC",
        "autoGuide": "QUEST_GUIDE_AUTO_ENABLE",
        "param": [
          "12565"
        ],
        "guideScene": 3,
        "guideStyle": "QUEST_GUIDE_STYLE_TARGET",
        "guideLayer": "QUEST_GUIDE_LAYER_SCENE",
        "MLAHIFLGIGJ": ""
      },
      "guideHint": {
        "param1": ""
      },
      "isRewind": true,
      "versionBegin": "",
      "versionEnd": ""
    },
    {
      "subId": 300407,
      "mainId": 3004,
      "order": 8,
      "descTextMapHash": 3474459604,
      "JIFODJPFKDF": [
        330201
      ],
      "finishCond": [
        {
          "damageRatio": "QUEST_CONTENT_COMPLETE_TALK",
          "param": [
            300406,
            0
          ]
        }
      ],
      "guide": {
        "damageRatio": "QUEST_GUIDE_NPC",
        "autoGuide": "QUEST_GUIDE_AUTO_ENABLE",
        "param": [
          "12555"
        ],
        "guideScene": 3,
        "guideStyle": "QUEST_GUIDE_STYLE_TARGET",
        "guideLayer": "QUEST_GUIDE_LAYER_SCENE",
        "MLAHIFLGIGJ": ""
      },
      "guideHint": {
        "param1": ""
      },
      "isRewind": true,
      "versionBegin": "",
      "versionEnd": ""
    },
    {
      "subId": 300408,
      "mainId": 3004,
      "order": 9,
      "descTextMapHash": 2416593228,
      "JIFODJPFKDF": [
        330201
      ],
      "finishCond": [
        {
          "damageRatio": "QUEST_CONTENT_COMPLETE_TALK",
          "param": [
            300407,
            0
          ]
        }
      ],
      "guide": {
        "damageRatio": "QUEST_GUIDE_LOCATION",
        "autoGuide": "QUEST_GUIDE_AUTO_ENABLE",
        "param": [
          "Q300408_guide"
        ],
        "guideScene": 1072,
        "guideStyle": "QUEST_GUIDE_STYLE_POINT",
        "guideLayer": "QUEST_GUIDE_LAYER_SCENE",
        "MLAHIFLGIGJ": ""
      },
      "guideHint": {
        "param1": ""
      },
      "isRewind": true,
      "versionBegin": "",
      "versionEnd": ""
    },
    {
      "subId": 300409,
      "mainId": 3004,
      "order": 10,
      "descTextMapHash": 2833611100,
      "JIFODJPFKDF": [
        330201
      ],
      "finishCond": [
        {
          "damageRatio": "QUEST_CONTENT_COMPLETE_TALK",
          "param": [
            300408,
            0
          ]
        }
      ],
      "guide": {
        "damageRatio": "QUEST_GUIDE_LOCATION",
        "autoGuide": "QUEST_GUIDE_AUTO_ENABLE",
        "param": [
          "Q300409_guide"
        ],
        "guideScene": 1072,
        "guideStyle": "QUEST_GUIDE_STYLE_POINT",
        "guideLayer": "QUEST_GUIDE_LAYER_SCENE",
        "MLAHIFLGIGJ": ""
      },
      "guideHint": {
        "param1": ""
      },
      "isRewind": true,
      "finishExec": [
        {
          "damageRatio": "QUEST_EXEC_REFRESH_GROUP_SUITE",
          "param": [
            "1072",
            "201072003,1"
          ]
        }
      ],
      "versionBegin": "",
      "versionEnd": ""
    },
    {
      "subId": 300410,
      "mainId": 3004,
      "order": 12,
      "descTextMapHash": 3648670060,
      "JIFODJPFKDF": [
        330201
      ],
      "finishCond": [
        {
          "damageRatio": "QUEST_CONTENT_COMPLETE_TALK",
          "param": [
            300409,
            0
          ]
        }
      ],
      "guide": {
        "damageRatio": "QUEST_GUIDE_LOCATION",
        "autoGuide": "QUEST_GUIDE_AUTO_ENABLE",
        "param": [
          "Q300410_guide"
        ],
        "guideScene": 3,
        "guideStyle": "QUEST_GUIDE_STYLE_POINT",
        "guideLayer": "QUEST_GUIDE_LAYER_SCENE",
        "MLAHIFLGIGJ": ""
      },
      "guideHint": {
        "param1": ""
      },
      "isRewind": true,
      "finishExec": [
        {
          "damageRatio": "QUEST_EXEC_REFRESH_GROUP_SUITE",
          "param": [
            "1072",
            "201072002,1"
          ]
        },
        {
          "damageRatio": "QUEST_EXEC_REFRESH_GROUP_SUITE",
          "param": [
            "1072",
            "201072004,1"
          ]
        }
      ],
      "versionBegin": "",
      "versionEnd": ""
    },
    {
      "subId": 300411,
      "mainId": 3004,
      "order": 13,
      "descTextMapHash": 1502314636,
      "JIFODJPFKDF": [
        330201
      ],
      "finishCond": [
        {
          "damageRatio": "QUEST_CONTENT_COMPLETE_TALK",
          "param": [
            300410,
            0
          ]
        }
      ],
      "guide": {
        "damageRatio": "QUEST_GUIDE_LOCATION",
        "autoGuide": "QUEST_GUIDE_AUTO_ENABLE",
        "param": [
          "Q300411_guide"
        ],
        "guideScene": 3,
        "guideStyle": "QUEST_GUIDE_STYLE_POINT",
        "guideLayer": "QUEST_GUIDE_LAYER_SCENE",
        "MLAHIFLGIGJ": ""
      },
      "guideHint": {
        "param1": ""
      },
      "isRewind": true,
      "versionBegin": "",
      "versionEnd": ""
    },
    {
      "subId": 300412,
      "mainId": 3004,
      "order": 14,
      "subIdSet": 1,
      "descTextMapHash": 2163462636,
      "JIFODJPFKDF": [
        330201
      ],
      "finishCond": [
        {
          "damageRatio": "QUEST_CONTENT_COMPLETE_TALK",
          "param": [
            300411,
            0
          ]
        }
      ],
      "guide": {
        "damageRatio": "QUEST_GUIDE_NPC",
        "autoGuide": "QUEST_GUIDE_AUTO_ENABLE",
        "param": [
          "12555"
        ],
        "guideScene": 3,
        "guideStyle": "QUEST_GUIDE_STYLE_TARGET",
        "guideLayer": "QUEST_GUIDE_LAYER_SCENE",
        "MLAHIFLGIGJ": ""
      },
      "guideHint": {
        "param1": ""
      },
      "versionBegin": "",
      "versionEnd": ""
    },
    {
      "subId": 300413,
      "mainId": 3004,
      "order": 15,
      "subIdSet": 1,
      "descTextMapHash": 1543425252,
      "JIFODJPFKDF": [
        330201
      ],
      "finishCond": [
        {
          "damageRatio": "QUEST_CONTENT_COMPLETE_TALK",
          "param": [
            300412,
            0
          ]
        }
      ],
      "guide": {
        "damageRatio": "QUEST_GUIDE_NPC",
        "autoGuide": "QUEST_GUIDE_AUTO_ENABLE",
        "param": [
          "1052"
        ],
        "guideScene": 3,
        "guideStyle": "QUEST_GUIDE_STYLE_TARGET",
        "guideLayer": "QUEST_GUIDE_LAYER_SCENE",
        "MLAHIFLGIGJ": ""
      },
      "guideHint": {
        "param1": ""
      },
      "versionBegin": "",
      "versionEnd": ""
    },
    {
      "subId": 300414,
      "mainId": 3004,
      "order": 16,
      "subIdSet": 1,
      "descTextMapHash": 3346637068,
      "JIFODJPFKDF": [
        330201
      ],
      "finishCond": [
        {
          "damageRatio": "QUEST_CONTENT_COMPLETE_TALK",
          "param": [
            300413,
            0
          ]
        }
      ],
      "guide": {
        "damageRatio": "QUEST_GUIDE_NPC",
        "autoGuide": "QUEST_GUIDE_AUTO_ENABLE",
        "param": [
          "4315"
        ],
        "guideScene": 3,
        "guideStyle": "QUEST_GUIDE_STYLE_TARGET",
        "guideLayer": "QUEST_GUIDE_LAYER_SCENE",
        "MLAHIFLGIGJ": ""
      },
      "guideHint": {
        "param1": ""
      },
      "versionBegin": "",
      "versionEnd": ""
    },
    {
      "subId": 300415,
      "mainId": 3004,
      "order": 17,
      "subIdSet": 1,
      "descTextMapHash": 3213804844,
      "JIFODJPFKDF": [
        330201
      ],
      "finishCond": [
        {
          "damageRatio": "QUEST_CONTENT_COMPLETE_TALK",
          "param": [
            300414,
            0
          ]
        }
      ],
      "guide": {
        "damageRatio": "QUEST_GUIDE_NPC",
        "autoGuide": "QUEST_GUIDE_AUTO_ENABLE",
        "param": [
          "4316"
        ],
        "guideScene": 3,
        "guideStyle": "QUEST_GUIDE_STYLE_TARGET",
        "guideLayer": "QUEST_GUIDE_LAYER_SCENE",
        "MLAHIFLGIGJ": ""
      },
      "guideHint": {
        "param1": ""
      },
      "versionBegin": "",
      "versionEnd": ""
    },
    {
      "subId": 300416,
      "mainId": 3004,
      "order": 18,
      "subIdSet": 1,
      "descTextMapHash": 1966733716,
      "JIFODJPFKDF": [
        330201
      ],
      "finishCond": [
        {
          "damageRatio": "QUEST_CONTENT_COMPLETE_TALK",
          "param": [
            300415,
            0
          ]
        }
      ],
      "guide": {
        "damageRatio": "QUEST_GUIDE_NPC",
        "autoGuide": "QUEST_GUIDE_AUTO_ENABLE",
        "param": [
          "4059"
        ],
        "guideScene": 3,
        "guideStyle": "QUEST_GUIDE_STYLE_TARGET",
        "guideLayer": "QUEST_GUIDE_LAYER_SCENE",
        "MLAHIFLGIGJ": ""
      },
      "guideHint": {
        "param1": ""
      },
      "versionBegin": "",
      "versionEnd": ""
    },
    {
      "subId": 300417,
      "mainId": 3004,
      "order": 19,
      "descTextMapHash": 380019092,
      "showType": "QUEST_HIDDEN",
      "JIFODJPFKDF": [
        330201
      ],
      "finishCond": [
        {
          "damageRatio": "QUEST_CONTENT_QUEST_STATE_EQUAL",
          "param": [
            300412,
            3
          ]
        },
        {
          "damageRatio": "QUEST_CONTENT_QUEST_STATE_EQUAL",
          "param": [
            300413,
            3
          ]
        },
        {
          "damageRatio": "QUEST_CONTENT_QUEST_STATE_EQUAL",
          "param": [
            300414,
            3
          ]
        },
        {
          "damageRatio": "QUEST_CONTENT_QUEST_STATE_EQUAL",
          "param": [
            300415,
            3
          ]
        },
        {
          "damageRatio": "QUEST_CONTENT_QUEST_STATE_EQUAL",
          "param": [
            300416,
            3
          ]
        }
      ],
      "guide": {
        "guideScene": 3,
        "MLAHIFLGIGJ": ""
      },
      "guideHint": {
        "param1": ""
      },
      "versionBegin": "",
      "versionEnd": ""
    },
    {
      "subId": 300418,
      "mainId": 3004,
      "order": 20,
      "descTextMapHash": 3706205044,
      "showType": "QUEST_HIDDEN",
      "JIFODJPFKDF": [
        330201
      ],
      "finishCond": [
        {
          "damageRatio": "QUEST_CONTENT_QUEST_STATE_EQUAL",
          "param": [
            300417,
            3
          ]
        }
      ],
      "guide": {
        "guideScene": 3,
        "MLAHIFLGIGJ": ""
      },
      "guideHint": {
        "param1": ""
      },
      "isRewind": true,
      "versionBegin": "",
      "versionEnd": ""
    },
    {
      "subId": 300419,
      "mainId": 3004,
      "order": 21,
      "descTextMapHash": 1587009484,
      "JIFODJPFKDF": [
        330201
      ],
      "finishCond": [
        {
          "damageRatio": "QUEST_CONTENT_COMPLETE_TALK",
          "param": [
            300416,
            0
          ]
        }
      ],
      "guide": {
        "damageRatio": "QUEST_GUIDE_NPC",
        "autoGuide": "QUEST_GUIDE_AUTO_ENABLE",
        "param": [
          "12913"
        ],
        "guideScene": 3,
        "guideStyle": "QUEST_GUIDE_STYLE_TARGET",
        "guideLayer": "QUEST_GUIDE_LAYER_SCENE",
        "MLAHIFLGIGJ": ""
      },
      "guideHint": {
        "param1": ""
      },
      "isRewind": true,
      "versionBegin": "",
      "versionEnd": ""
    },
    {
      "subId": 300420,
      "mainId": 3004,
      "order": 22,
      "descTextMapHash": 2322062252,
      "finishCond": [
        {
          "damageRatio": "QUEST_CONTENT_COMPLETE_TALK",
          "param": [
            300417,
            0
          ]
        }
      ],
      "guide": {
        "damageRatio": "QUEST_GUIDE_LOCATION",
        "autoGuide": "QUEST_GUIDE_AUTO_ENABLE",
        "param": [
          "Q300420_guide"
        ],
        "guideScene": 3,
        "guideStyle": "QUEST_GUIDE_STYLE_POINT",
        "guideLayer": "QUEST_GUIDE_LAYER_SCENE",
        "MLAHIFLGIGJ": ""
      },
      "guideHint": {
        "param1": ""
      },
      "finishParent": true,
      "isRewind": true,
      "versionBegin": "",
      "versionEnd": ""
    },
    {
      "subId": 300421,
      "mainId": 3004,
      "order": 11,
      "descTextMapHash": 2970181860,
      "showType": "QUEST_HIDDEN",
      "finishCond": [
        {
          "damageRatio": "QUEST_CONTENT_FINISH_PLOT",
          "param": [
            300408,
            0
          ]
        }
      ],
      "guide": {
        "guideScene": 1072,
        "guideLayer": "QUEST_GUIDE_LAYER_SCENE",
        "MLAHIFLGIGJ": ""
      },
      "showGuide": "QUEST_GUIDE_ITEM_DISABLE",
      "guideHint": {
        "param1": ""
      },
      "finishExec": [
        {
          "damageRatio": "QUEST_EXEC_REFRESH_GROUP_SUITE",
          "param": [
            "1072",
            "201072003,2"
          ]
        }
      ],
      "versionBegin": "",
      "versionEnd": ""
    },
    {
      "subId": 300422,
      "mainId": 3004,
      "order": 2,
      "descTextMapHash": 149904428,
      "showType": "QUEST_HIDDEN",
      "finishCond": [
        {
          "damageRatio": "QUEST_CONTENT_FINISH_PLOT",
          "param": [
            300422,
            0
          ]
        },
        {
          "damageRatio": "QUEST_CONTENT_QUEST_STATE_EQUAL",
          "param": [
            300401,
            3
          ]
        }
      ],
      "guide": {
        "guideScene": 3,
        "MLAHIFLGIGJ": ""
      },
      "guideHint": {
        "param1": ""
      },
      "finishExec": [
        {
          "damageRatio": "QUEST_EXEC_SET_QUEST_GLOBAL_VAR",
          "param": [
            "300013",
            "1"
          ]
        }
      ],
      "versionBegin": "",
      "versionEnd": ""
    }
  ],
  "talks": [
    {
      "id": 300401,
      "beginWay": "TALK_BEGIN_MANUAL",
      "beginCond": [
        {
          "type": "QUEST_COND_STATE_EQUAL",
          "_param": [
            "300401",
            "2"
          ]
        }
      ],
      "priority": 5,
      "nextTalks": [
        300419,
        300420,
        300421
      ],
      "initDialog": 30040101,
      "npcId": [
        4313
      ],
      "performCfg": "QuestDialogue/AQ/Sumeru1_3004/Q300401",
      "heroTalk": "TALK_HERO_MAIN",
      "questId": 3004,
      "assetIndex": 11405337621277644398,
      "prePerformCfg": ""
    },
    {
      "id": 300402,
      "beginWay": "TALK_BEGIN_MANUAL",
      "beginCond": [
        {
          "type": "QUEST_COND_STATE_EQUAL",
          "_param": [
            "300402",
            "2"
          ]
        }
      ],
      "priority": 5,
      "initDialog": 30040201,
      "npcId": [
        12562
      ],
      "performCfg": "QuestDialogue/AQ/Sumeru1_3004/Q300402",
      "heroTalk": "TALK_HERO_MAIN",
      "questId": 3004,
      "assetIndex": 3059460717704967883,
      "prePerformCfg": ""
    },
    {
      "id": 300403,
      "beginWay": "TALK_BEGIN_MANUAL",
      "beginCond": [
        {
          "type": "QUEST_COND_STATE_EQUAL",
          "_param": [
            "300403",
            "2"
          ]
        }
      ],
      "priority": 5,
      "initDialog": 30040301,
      "npcId": [
        4019
      ],
      "performCfg": "QuestDialogue/AQ/Sumeru1_3004/Q300403",
      "heroTalk": "TALK_HERO_MAIN",
      "questId": 3004,
      "assetIndex": 10854302531897223405,
      "prePerformCfg": ""
    },
    {
      "id": 300404,
      "beginWay": "TALK_BEGIN_MANUAL",
      "beginCond": [
        {
          "type": "QUEST_COND_STATE_EQUAL",
          "_param": [
            "300404",
            "2"
          ]
        }
      ],
      "priority": 5,
      "initDialog": 30040401,
      "npcId": [
        4314
      ],
      "performCfg": "QuestDialogue/AQ/Sumeru1_3004/Q300404",
      "heroTalk": "TALK_HERO_MAIN",
      "questId": 3004,
      "assetIndex": 2852143231739505459,
      "prePerformCfg": ""
    },
    {
      "id": 300405,
      "beginWay": "TALK_BEGIN_MANUAL",
      "beginCond": [
        {
          "type": "QUEST_COND_STATE_EQUAL",
          "_param": [
            "300406",
            "2"
          ]
        }
      ],
      "priority": 5,
      "initDialog": 30040501,
      "npcId": [
        12565
      ],
      "performCfg": "QuestDialogue/AQ/Sumeru1_3004/Q300405",
      "heroTalk": "TALK_HERO_MAIN",
      "questId": 3004,
      "assetIndex": 6925785345681044841,
      "prePerformCfg": ""
    },
    {
      "id": 300406,
      "beginWay": "TALK_BEGIN_MANUAL",
      "beginCond": [
        {
          "type": "QUEST_COND_STATE_EQUAL",
          "_param": [
            "300407",
            "2"
          ]
        }
      ],
      "priority": 5,
      "initDialog": 30040601,
      "npcId": [
        12555
      ],
      "performCfg": "QuestDialogue/AQ/Sumeru1_3004/Q300406",
      "heroTalk": "TALK_HERO_MAIN",
      "questId": 3004,
      "assetIndex": 10014986058536875271,
      "prePerformCfg": ""
    },
    {
      "id": 300407,
      "beginWay": "TALK_BEGIN_MANUAL",
      "beginCond": [
        {
          "type": "QUEST_COND_STATE_EQUAL",
          "_param": [
            "300408",
            "2"
          ]
        }
      ],
      "priority": 5,
      "initDialog": 30040701,
      "npcId": [
        12555
      ],
      "performCfg": "QuestDialogue/AQ/Sumeru1_3004/Q300407",
      "heroTalk": "TALK_HERO_MAIN",
      "questId": 3004,
      "assetIndex": 18077193017084536578,
      "prePerformCfg": ""
    },
    {
      "id": 300408,
      "beginWay": "TALK_BEGIN_MANUAL",
      "beginCond": [
        {
          "type": "QUEST_COND_STATE_EQUAL",
          "_param": [
            "300409",
            "2"
          ]
        }
      ],
      "priority": 5,
      "initDialog": 30040801,
      "npcId": [
        12555
      ],
      "performCfg": "QuestDialogue/AQ/Sumeru1_3004/Q300408",
      "heroTalk": "TALK_HERO_MAIN",
      "questId": 3004,
      "assetIndex": 9650597011613133118,
      "prePerformCfg": ""
    },
    {
      "id": 300409,
      "beginWay": "TALK_BEGIN_MANUAL",
      "beginCond": [
        {
          "type": "QUEST_COND_STATE_EQUAL",
          "_param": [
            "300410",
            "2"
          ]
        }
      ],
      "priority": 5,
      "initDialog": 30040901,
      "npcId": [
        12555
      ],
      "performCfg": "QuestDialogue/AQ/Sumeru1_3004/Q300409",
      "heroTalk": "TALK_HERO_MAIN",
      "questId": 3004,
      "assetIndex": 15763541170128977243,
      "prePerformCfg": ""
    },
    {
      "id": 300410,
      "beginWay": "TALK_BEGIN_MANUAL",
      "beginCond": [
        {
          "type": "QUEST_COND_STATE_EQUAL",
          "_param": [
            "300411",
            "2"
          ]
        }
      ],
      "priority": 5,
      "initDialog": 30041001,
      "npcId": [
        1054
      ],
      "performCfg": "QuestDialogue/AQ/Sumeru1_3004/Q300410",
      "heroTalk": "TALK_HERO_MAIN",
      "questId": 3004,
      "assetIndex": 3310677316521927614,
      "prePerformCfg": ""
    },
    {
      "id": 300411,
      "beginWay": "TALK_BEGIN_MANUAL",
      "beginCond": [
        {
          "type": "QUEST_COND_STATE_EQUAL",
          "_param": [
            "300418",
            "2"
          ]
        }
      ],
      "priority": 5,
      "initDialog": 30041101,
      "npcId": [
        12555,
        1054
      ],
      "performCfg": "QuestDialogue/AQ/Sumeru1_3004/Q300411",
      "heroTalk": "TALK_HERO_MAIN",
      "questId": 3004,
      "assetIndex": 11290196224102460455,
      "prePerformCfg": ""
    },
    {
      "id": 300412,
      "beginWay": "TALK_BEGIN_MANUAL",
      "beginCond": [
        {
          "type": "QUEST_COND_STATE_EQUAL",
          "_param": [
            "300418",
            "2"
          ]
        }
      ],
      "priority": 5,
      "initDialog": 30041201,
      "npcId": [
        1052
      ],
      "performCfg": "QuestDialogue/AQ/Sumeru1_3004/Q300412",
      "heroTalk": "TALK_HERO_MAIN",
      "questId": 3004,
      "assetIndex": 17124123838269421868,
      "prePerformCfg": ""
    },
    {
      "id": 300413,
      "beginWay": "TALK_BEGIN_MANUAL",
      "beginCond": [
        {
          "type": "QUEST_COND_STATE_EQUAL",
          "_param": [
            "300418",
            "2"
          ]
        }
      ],
      "priority": 5,
      "initDialog": 30041301,
      "npcId": [
        4315
      ],
      "performCfg": "QuestDialogue/AQ/Sumeru1_3004/Q300413",
      "heroTalk": "TALK_HERO_MAIN",
      "questId": 3004,
      "assetIndex": 16178718052297759437,
      "prePerformCfg": ""
    },
    {
      "id": 300414,
      "beginWay": "TALK_BEGIN_MANUAL",
      "beginCond": [
        {
          "type": "QUEST_COND_STATE_EQUAL",
          "_param": [
            "300418",
            "2"
          ]
        }
      ],
      "priority": 5,
      "initDialog": 30041401,
      "npcId": [
        4316
      ],
      "performCfg": "QuestDialogue/AQ/Sumeru1_3004/Q300414",
      "heroTalk": "TALK_HERO_MAIN",
      "questId": 3004,
      "assetIndex": 11532158126263594154,
      "prePerformCfg": ""
    },
    {
      "id": 300415,
      "beginWay": "TALK_BEGIN_MANUAL",
      "beginCond": [
        {
          "type": "QUEST_COND_STATE_EQUAL",
          "_param": [
            "300418",
            "2"
          ]
        }
      ],
      "priority": 5,
      "initDialog": 30041501,
      "npcId": [
        4059
      ],
      "performCfg": "QuestDialogue/AQ/Sumeru1_3004/Q300415",
      "heroTalk": "TALK_HERO_MAIN",
      "questId": 3004,
      "assetIndex": 79123058799286135,
      "prePerformCfg": ""
    },
    {
      "id": 300416,
      "beginWay": "TALK_BEGIN_MANUAL",
      "beginCond": [
        {
          "type": "QUEST_COND_STATE_EQUAL",
          "_param": [
            "300419",
            "2"
          ]
        }
      ],
      "priority": 5,
      "initDialog": 30041601,
      "npcId": [
        12913
      ],
      "performCfg": "QuestDialogue/AQ/Sumeru1_3004/Q300416",
      "heroTalk": "TALK_HERO_MAIN",
      "questId": 3004,
      "assetIndex": 2332297638051130569,
      "prePerformCfg": ""
    },
    {
      "id": 300417,
      "beginWay": "TALK_BEGIN_MANUAL",
      "beginCond": [
        {
          "type": "QUEST_COND_STATE_EQUAL",
          "_param": [
            "300420",
            "2"
          ]
        }
      ],
      "priority": 5,
      "initDialog": 30041701,
      "npcId": [
        1052
      ],
      "performCfg": "QuestDialogue/AQ/Sumeru1_3004/Q300417",
      "heroTalk": "TALK_HERO_MAIN",
      "questId": 3004,
      "assetIndex": 18037906154063880369,
      "prePerformCfg": ""
    },
    {
      "id": 300418,
      "beginWay": "TALK_BEGIN_MANUAL",
      "beginCond": [
        {
          "type": "QUEST_COND_STATE_EQUAL",
          "_param": [
            "300405",
            "2"
          ]
        }
      ],
      "priority": 5,
      "initDialog": 30041802,
      "npcId": [
        12555
      ],
      "performCfg": "QuestDialogue/AQ/Sumeru1_3004/Q300418",
      "heroTalk": "TALK_HERO_MAIN",
      "questId": 3004,
      "assetIndex": 7410080662160007623,
      "prePerformCfg": ""
    },
    {
      "id": 300419,
      "beginCondComb": "LOGIC_AND",
      "beginCond": [
        {
          "type": "QUEST_COND_STATE_EQUAL",
          "_param": [
            "300401",
            "2"
          ]
        },
        {
          "type": "QUEST_COND_QUEST_VAR_EQUAL",
          "_param": [
            "1",
            "0",
            "3004"
          ]
        }
      ],
      "priority": 5,
      "nextTalks": [
        300420,
        300421,
        300422
      ],
      "initDialog": 30041901,
      "npcId": [
        4313
      ],
      "performCfg": "QuestDialogue/AQ/Sumeru1_3004/Q300419",
      "heroTalk": "TALK_HERO_MAIN",
      "questId": 3004,
      "assetIndex": 9822718365881377982,
      "prePerformCfg": "",
      "finishExec": [
        {
          "damageRatio": "TALK_EXEC_INC_QUEST_VAR",
          "param": [
            "1",
            "1",
            "3004"
          ]
        }
      ]
    },
    {
      "id": 300420,
      "beginCondComb": "LOGIC_AND",
      "beginCond": [
        {
          "type": "QUEST_COND_STATE_EQUAL",
          "_param": [
            "300401",
            "2"
          ]
        },
        {
          "type": "QUEST_COND_QUEST_VAR_EQUAL",
          "_param": [
            "2",
            "0",
            "3004"
          ]
        }
      ],
      "priority": 5,
      "nextTalks": [
        300419,
        300421,
        300422
      ],
      "initDialog": 30042001,
      "npcId": [
        4313
      ],
      "performCfg": "QuestDialogue/AQ/Sumeru1_3004/Q300420",
      "heroTalk": "TALK_HERO_MAIN",
      "questId": 3004,
      "assetIndex": 6833217604121855409,
      "prePerformCfg": "",
      "finishExec": [
        {
          "damageRatio": "TALK_EXEC_SET_QUEST_VAR",
          "param": [
            "2",
            "1",
            "3004"
          ]
        }
      ]
    },
    {
      "id": 300421,
      "beginCondComb": "LOGIC_AND",
      "beginCond": [
        {
          "type": "QUEST_COND_STATE_EQUAL",
          "_param": [
            "300401",
            "2"
          ]
        },
        {
          "type": "QUEST_COND_QUEST_VAR_EQUAL",
          "_param": [
            "3",
            "0",
            "3004"
          ]
        }
      ],
      "priority": 5,
      "nextTalks": [
        300419,
        300420,
        300422
      ],
      "initDialog": 30042101,
      "npcId": [
        4313
      ],
      "performCfg": "QuestDialogue/AQ/Sumeru1_3004/Q300421",
      "heroTalk": "TALK_HERO_MAIN",
      "questId": 3004,
      "assetIndex": 16039302425546952820,
      "prePerformCfg": "",
      "finishExec": [
        {
          "damageRatio": "TALK_EXEC_SET_QUEST_VAR",
          "param": [
            "3",
            "1",
            "3004"
          ]
        }
      ]
    },
    {
      "id": 300422,
      "beginCondComb": "LOGIC_AND",
      "beginCond": [
        {
          "type": "QUEST_COND_STATE_EQUAL",
          "_param": [
            "300401",
            "2"
          ]
        },
        {
          "type": "QUEST_COND_QUEST_VAR_EQUAL",
          "_param": [
            "1",
            "1",
            "3004"
          ]
        },
        {
          "type": "QUEST_COND_QUEST_VAR_EQUAL",
          "_param": [
            "2",
            "1",
            "3004"
          ]
        },
        {
          "type": "QUEST_COND_QUEST_VAR_EQUAL",
          "_param": [
            "3",
            "1",
            "3004"
          ]
        }
      ],
      "priority": 5,
      "initDialog": 30042201,
      "npcId": [
        4313
      ],
      "performCfg": "QuestDialogue/AQ/Sumeru1_3004/Q300422",
      "heroTalk": "TALK_HERO_MAIN",
      "questId": 3004,
      "assetIndex": 1550215763042904230,
      "prePerformCfg": ""
    },
    {
      "id": 300451,
      "beginWay": "TALK_BEGIN_MANUAL",
      "beginCondComb": "LOGIC_AND",
      "beginCond": [
        {
          "type": "QUEST_COND_STATE_EQUAL",
          "_param": [
            "300402",
            "3"
          ]
        },
        {
          "type": "QUEST_COND_QUEST_NOT_RECEIVE",
          "_param": [
            "300420",
            "1"
          ]
        }
      ],
      "priority": 5,
      "initDialog": 30045101,
      "npcId": [
        12562
      ],
      "performCfg": "QuestDialogue/AQ/Sumeru1_3004/Q300451",
      "heroTalk": "TALK_HERO_MAIN",
      "questId": 3004,
      "assetIndex": 2535252580828170977,
      "prePerformCfg": "",
      "lowPriority": true
    },
    {
      "id": 300452,
      "beginWay": "TALK_BEGIN_MANUAL",
      "beginCondComb": "LOGIC_OR",
      "beginCond": [
        {
          "type": "QUEST_COND_STATE_EQUAL",
          "_param": [
            "300407",
            "2"
          ]
        },
        {
          "type": "QUEST_COND_STATE_EQUAL",
          "_param": [
            "300408",
            "2"
          ]
        },
        {
          "type": "QUEST_COND_STATE_EQUAL",
          "_param": [
            "300409",
            "2"
          ]
        }
      ],
      "priority": 5,
      "initDialog": 30045201,
      "npcId": [
        12565,
        12566
      ],
      "performCfg": "QuestDialogue/AQ/Sumeru1_3004/Q300452",
      "heroTalk": "TALK_HERO_MAIN",
      "questId": 3004,
      "assetIndex": 14548509706886387638,
      "prePerformCfg": ""
    },
    {
      "id": 300453,
      "beginWay": "TALK_BEGIN_MANUAL",
      "beginCondComb": "LOGIC_OR",
      "beginCond": [
        {
          "type": "QUEST_COND_STATE_EQUAL",
          "_param": [
            "300408",
            "2"
          ]
        },
        {
          "type": "QUEST_COND_STATE_EQUAL",
          "_param": [
            "300409",
            "2"
          ]
        }
      ],
      "priority": 5,
      "initDialog": 30045301,
      "npcId": [
        12567,
        4098
      ],
      "performCfg": "QuestDialogue/AQ/Sumeru1_3004/Q300453",
      "heroTalk": "TALK_HERO_MAIN",
      "questId": 3004,
      "assetIndex": 18092220251215718745,
      "prePerformCfg": ""
    },
    {
      "id": 300471,
      "beginWay": "TALK_BEGIN_MANUAL",
      "beginCond": [
        {
          "type": "QUEST_COND_STATE_EQUAL",
          "_param": [
            "300401",
            "2"
          ]
        }
      ],
      "priority": 5,
      "initDialog": 30047101,
      "npcId": [
        1051
      ],
      "performCfg": "QuestDialogue/AQ/Sumeru1_3004/Q300471",
      "heroTalk": "TALK_HERO_MAIN",
      "questId": 3004,
      "assetIndex": 11394693003193027632,
      "prePerformCfg": ""
    }
  ],
  "preloadLuaList": [
    14457059026087496718,
    13789269786747313887,
    11641292210396341267
  ],
  "forcePreloadLuaList": [
    13185688240008815878
  ],
  "freeStyleDic": {
    "12563": [
      0
    ],
    "12733": [
      0
    ],
    "12734": [
      0
    ]
  }
}