{
  "id": 3006,
  "resId": 1015,
  "series": 1301,
  "descTextMapHash": 1283508791,
  "EKEKACCODOE": 2592697070,
  "luaPath": "Actor/Quest/AQ3006",
  "suggestTrackMainQuestList": [
    3007
  ],
  "rewardIdList": [
    103006
  ],
  "chapterId": 1301,
  "subQuests": [
    {
      "subId": 300601,
      "mainId": 3006,
      "order": 1,
      "descTextMapHash": 3556819476,
      "finishCond": [
        {
          "damageRatio": "QUEST_CONTENT_COMPLETE_TALK",
          "param": [
            300601,
            0
          ]
        }
      ],
      "guide": {
        "damageRatio": "QUEST_GUIDE_NPC",
        "autoGuide": "QUEST_GUIDE_AUTO_ENABLE",
        "param": [
          "1053"
        ],
        "guideScene": 3,
        "guideStyle": "QUEST_GUIDE_STYLE_TARGET",
        "guideLayer": "QUEST_GUIDE_LAYER_SCENE",
        "MLAHIFLGIGJ": ""
      },
      "guideHint": {
        "param1": ""
      },
      "isRewind": true,
      "finishExec": [
        {
          "damageRatio": "QUEST_EXEC_DEL_ALL_SPECIFIC_PACK_ITEM",
          "param": [
            "101930"
          ]
        }
      ],
      "versionBegin": "",
      "versionEnd": ""
    },
    {
      "subId": 300602,
      "mainId": 3006,
      "order": 2,
      "descTextMapHash": 3200701084,
      "finishCond": [
        {
          "damageRatio": "QUEST_CONTENT_COMPLETE_TALK",
          "param": [
            300602,
            0
          ]
        }
      ],
      "guide": {
        "damageRatio": "QUEST_GUIDE_LOCATION",
        "autoGuide": "QUEST_GUIDE_AUTO_ENABLE",
        "param": [
          "Q300602_guide"
        ],
        "guideScene": 3,
        "guideStyle": "QUEST_GUIDE_STYLE_POINT",
        "guideLayer": "QUEST_GUIDE_LAYER_SCENE",
        "MLAHIFLGIGJ": ""
      },
      "guideHint": {
        "param1": ""
      },
      "isRewind": true,
      "versionBegin": "",
      "versionEnd": ""
    },
    {
      "subId": 300603,
      "mainId": 3006,
      "order": 3,
      "descTextMapHash": 1618573836,
      "finishCond": [
        {
          "damageRatio": "QUEST_CONTENT_LUA_NOTIFY",
          "param": [
            0,
            0
          ],
          "count": 1
        }
      ],
      "guide": {
        "damageRatio": "QUEST_GUIDE_LOCATION",
        "autoGuide": "QUEST_GUIDE_AUTO_ENABLE",
        "param": [
          "Q300603_guide",
          "30"
        ],
        "guideScene": 3,
        "guideLayer": "QUEST_GUIDE_LAYER_SCENE",
        "MLAHIFLGIGJ": ""
      },
      "guideHint": {
        "param1": ""
      },
      "isRewind": true,
      "finishExec": [
        {
          "damageRatio": "QUEST_EXEC_UNREGISTER_DYNAMIC_GROUP",
          "param": [
            "133304160",
            "1"
          ]
        }
      ],
      "versionBegin": "",
      "versionEnd": ""
    },
    {
      "subId": 300604,
      "mainId": 3006,
      "order": 4,
      "isMpBlock": true,
      "descTextMapHash": 4227451420,
      "finishCond": [
        {
          "damageRatio": "QUEST_CONTENT_COMPLETE_TALK",
          "param": [
            300603,
            0
          ]
        }
      ],
      "guide": {
        "damageRatio": "QUEST_GUIDE_NPC",
        "autoGuide": "QUEST_GUIDE_AUTO_ENABLE",
        "param": [
          "1053"
        ],
        "guideScene": 3,
        "guideStyle": "QUEST_GUIDE_STYLE_TARGET",
        "guideLayer": "QUEST_GUIDE_LAYER_SCENE",
        "MLAHIFLGIGJ": ""
      },
      "guideHint": {
        "param1": ""
      },
      "isRewind": true,
      "finishExec": [
        {
          "damageRatio": "QUEST_EXEC_DEL_ALL_SPECIFIC_PACK_ITEM",
          "param": [
            "101931"
          ]
        }
      ],
      "versionBegin": "",
      "versionEnd": ""
    },
    {
      "subId": 300605,
      "mainId": 3006,
      "order": 7,
      "descTextMapHash": 2161456548,
      "finishCond": [
        {
          "damageRatio": "QUEST_CONTENT_LUA_NOTIFY",
          "param": [
            0,
            0
          ],
          "count": 1
        }
      ],
      "guide": {
        "damageRatio": "QUEST_GUIDE_LOCATION",
        "autoGuide": "QUEST_GUIDE_AUTO_ENABLE",
        "param": [
          "Q300603_guide",
          "30"
        ],
        "guideScene": 3,
        "guideLayer": "QUEST_GUIDE_LAYER_SCENE",
        "MLAHIFLGIGJ": ""
      },
      "guideHint": {
        "param1": ""
      },
      "isRewind": true,
      "finishExec": [
        {
          "damageRatio": "QUEST_EXEC_UNREGISTER_DYNAMIC_GROUP",
          "param": [
            "133304162",
            "1"
          ]
        }
      ],
      "versionBegin": "",
      "versionEnd": ""
    },
    {
      "subId": 300606,
      "mainId": 3006,
      "order": 8,
      "descTextMapHash": 1055431172,
      "finishCond": [
        {
          "damageRatio": "QUEST_CONTENT_COMPLETE_TALK",
          "param": [
            300604,
            0
          ]
        }
      ],
      "guide": {
        "damageRatio": "QUEST_GUIDE_NPC",
        "autoGuide": "QUEST_GUIDE_AUTO_ENABLE",
        "param": [
          "1053"
        ],
        "guideScene": 3,
        "guideStyle": "QUEST_GUIDE_STYLE_TARGET",
        "guideLayer": "QUEST_GUIDE_LAYER_SCENE",
        "MLAHIFLGIGJ": ""
      },
      "guideHint": {
        "param1": ""
      },
      "isRewind": true,
      "versionBegin": "",
      "versionEnd": ""
    },
    {
      "subId": 300607,
      "mainId": 3006,
      "order": 10,
      "descTextMapHash": 1612388460,
      "finishCond": [
        {
          "damageRatio": "QUEST_CONTENT_COMPLETE_TALK",
          "param": [
            300605,
            0
          ]
        }
      ],
      "guide": {
        "damageRatio": "QUEST_GUIDE_NPC",
        "autoGuide": "QUEST_GUIDE_AUTO_ENABLE",
        "param": [
          "1055"
        ],
        "guideScene": 3,
        "guideStyle": "QUEST_GUIDE_STYLE_TARGET",
        "guideLayer": "QUEST_GUIDE_LAYER_SCENE",
        "MLAHIFLGIGJ": ""
      },
      "guideHint": {
        "param1": ""
      },
      "isRewind": true,
      "finishExec": [
        {
          "damageRatio": "QUEST_EXEC_DEL_ALL_SPECIFIC_PACK_ITEM",
          "param": [
            "101932"
          ]
        }
      ],
      "versionBegin": "",
      "versionEnd": ""
    },
    {
      "subId": 300608,
      "mainId": 3006,
      "order": 11,
      "descTextMapHash": 3279442412,
      "finishCond": [
        {
          "damageRatio": "QUEST_CONTENT_COMPLETE_TALK",
          "param": [
            300606,
            0
          ]
        }
      ],
      "guide": {
        "damageRatio": "QUEST_GUIDE_NPC",
        "autoGuide": "QUEST_GUIDE_AUTO_ENABLE",
        "param": [
          "1053"
        ],
        "guideScene": 3,
        "guideStyle": "QUEST_GUIDE_STYLE_TARGET",
        "guideLayer": "QUEST_GUIDE_LAYER_SCENE",
        "MLAHIFLGIGJ": ""
      },
      "guideHint": {
        "param1": ""
      },
      "isRewind": true,
      "finishExec": [
        {
          "damageRatio": "QUEST_EXEC_DEL_ALL_SPECIFIC_PACK_ITEM",
          "param": [
            "101933"
          ]
        }
      ],
      "versionBegin": "",
      "versionEnd": ""
    },
    {
      "subId": 300609,
      "mainId": 3006,
      "order": 12,
      "descTextMapHash": 2715857876,
      "finishCond": [
        {
          "damageRatio": "QUEST_CONTENT_COMPLETE_TALK",
          "param": [
            300607,
            0
          ]
        }
      ],
      "guide": {
        "damageRatio": "QUEST_GUIDE_LOCATION",
        "autoGuide": "QUEST_GUIDE_AUTO_ENABLE",
        "param": [
          "Q300609_guide"
        ],
        "guideScene": 3,
        "guideStyle": "QUEST_GUIDE_STYLE_POINT",
        "guideLayer": "QUEST_GUIDE_LAYER_SCENE",
        "MLAHIFLGIGJ": ""
      },
      "guideHint": {
        "param1": ""
      },
      "isRewind": true,
      "versionBegin": "",
      "versionEnd": ""
    },
    {
      "subId": 300610,
      "mainId": 3006,
      "order": 13,
      "descTextMapHash": 1168679692,
      "finishCond": [
        {
          "damageRatio": "QUEST_CONTENT_LUA_NOTIFY",
          "param": [
            0,
            0
          ],
          "count": 1
        }
      ],
      "failCond": [
        {
          "damageRatio": "QUEST_CONTENT_LEAVE_SCENE_RANGE",
          "param": [
            3,
            50
          ]
        }
      ],
      "guide": {
        "damageRatio": "QUEST_GUIDE_LOCATION",
        "autoGuide": "QUEST_GUIDE_AUTO_ENABLE",
        "param": [
          "Q300609_guide",
          "15"
        ],
        "guideScene": 3,
        "guideLayer": "QUEST_GUIDE_LAYER_SCENE",
        "MLAHIFLGIGJ": ""
      },
      "guideHint": {
        "param1": ""
      },
      "isRewind": true,
      "finishExec": [
        {
          "damageRatio": "QUEST_EXEC_UNREGISTER_DYNAMIC_GROUP",
          "param": [
            "133306001"
          ]
        }
      ],
      "failExec": [
        {
          "damageRatio": "QUEST_EXEC_ROLLBACK_QUEST",
          "param": [
            "300609"
          ]
        },
        {
          "damageRatio": "QUEST_EXEC_UNREGISTER_DYNAMIC_GROUP",
          "param": [
            "133306001"
          ]
        }
      ],
      "versionBegin": "",
      "versionEnd": ""
    },
    {
      "subId": 300611,
      "mainId": 3006,
      "order": 14,
      "descTextMapHash": 172946228,
      "showType": "QUEST_HIDDEN",
      "finishCond": [
        {
          "damageRatio": "QUEST_CONTENT_FINISH_PLOT",
          "param": [
            300611,
            0
          ]
        }
      ],
      "guide": {
        "guideScene": 3,
        "MLAHIFLGIGJ": ""
      },
      "showGuide": "QUEST_GUIDE_ITEM_DISABLE",
      "guideHint": {
        "param1": ""
      },
      "versionBegin": "",
      "versionEnd": ""
    },
    {
      "subId": 300612,
      "mainId": 3006,
      "order": 15,
      "descTextMapHash": 2002831852,
      "finishCond": [
        {
          "damageRatio": "QUEST_CONTENT_COMPLETE_TALK",
          "param": [
            300608,
            0
          ]
        }
      ],
      "guide": {
        "damageRatio": "QUEST_GUIDE_NPC",
        "autoGuide": "QUEST_GUIDE_AUTO_ENABLE",
        "param": [
          "1053"
        ],
        "guideScene": 3,
        "guideStyle": "QUEST_GUIDE_STYLE_TARGET",
        "guideLayer": "QUEST_GUIDE_LAYER_SCENE",
        "MLAHIFLGIGJ": ""
      },
      "guideHint": {
        "param1": ""
      },
      "finishParent": true,
      "isRewind": true,
      "finishExec": [
        {
          "damageRatio": "QUEST_EXEC_DEL_SCENE_TAG",
          "param": [
            "3",
            "1112"
          ]
        },
        {
          "damageRatio": "QUEST_EXEC_ADD_SCENE_TAG",
          "param": [
            "3",
            "1114"
          ]
        },
        {
          "damageRatio": "QUEST_EXEC_SET_QUEST_GLOBAL_VAR",
          "param": [
            "300612",
            "1"
          ]
        }
      ],
      "versionBegin": "",
      "versionEnd": ""
    },
    {
      "subId": 300613,
      "mainId": 3006,
      "order": 9,
      "descTextMapHash": 3773804876,
      "finishCond": [
        {
          "damageRatio": "QUEST_CONTENT_GAME_TIME_TICK",
          "param": [
            2,
            0
          ]
        }
      ],
      "guide": {
        "guideScene": 3,
        "guideLayer": "QUEST_GUIDE_LAYER_SCENE",
        "MLAHIFLGIGJ": ""
      },
      "guideHint": {
        "param1": ""
      },
      "isRewind": true,
      "versionBegin": "",
      "versionEnd": ""
    },
    {
      "subId": 300614,
      "mainId": 3006,
      "order": 5,
      "isMpBlock": true,
      "descTextMapHash": 3629393212,
      "finishCond": [
        {
          "damageRatio": "QUEST_CONTENT_USE_ITEM",
          "param": [
            101963,
            0
          ]
        }
      ],
      "failCond": [
        {
          "damageRatio": "QUEST_CONTENT_LEAVE_SCENE_RANGE",
          "param": [
            3,
            30
          ]
        }
      ],
      "guide": {
        "guideScene": 3,
        "MLAHIFLGIGJ": ""
      },
      "guideHint": {
        "param1": ""
      },
      "isRewind": true,
      "failExec": [
        {
          "damageRatio": "QUEST_EXEC_ROLLBACK_QUEST",
          "param": [
            "300604"
          ]
        }
      ],
      "versionBegin": "",
      "versionEnd": ""
    },
    {
      "subId": 300615,
      "mainId": 3006,
      "order": 6,
      "isMpBlock": true,
      "descTextMapHash": 1126876492,
      "finishCond": [
        {
          "damageRatio": "QUEST_CONTENT_COMPLETE_TALK",
          "param": [
            300609,
            0
          ]
        }
      ],
      "failCond": [
        {
          "damageRatio": "QUEST_CONTENT_LEAVE_SCENE_RANGE",
          "param": [
            3,
            30
          ]
        }
      ],
      "guide": {
        "damageRatio": "QUEST_GUIDE_NPC",
        "autoGuide": "QUEST_GUIDE_AUTO_ENABLE",
        "param": [
          "1053"
        ],
        "guideScene": 3,
        "guideStyle": "QUEST_GUIDE_STYLE_TARGET",
        "guideLayer": "QUEST_GUIDE_LAYER_SCENE",
        "MLAHIFLGIGJ": ""
      },
      "guideHint": {
        "param1": ""
      },
      "isRewind": true,
      "failExec": [
        {
          "damageRatio": "QUEST_EXEC_ROLLBACK_QUEST",
          "param": [
            "300604"
          ]
        }
      ],
      "versionBegin": "",
      "versionEnd": ""
    }
  ],
  "talks": [
    {
      "id": 300601,
      "beginWay": "TALK_BEGIN_MANUAL",
      "beginCond": [
        {
          "type": "QUEST_COND_STATE_EQUAL",
          "_param": [
            "300601",
            "2"
          ]
        }
      ],
      "priority": 5,
      "initDialog": 30060101,
      "npcId": [
        1053
      ],
      "performCfg": "QuestDialogue/AQ/Sumeru1_3006/Q300601",
      "heroTalk": "TALK_HERO_MAIN",
      "questId": 3006,
      "assetIndex": 13888621238293714290,
      "prePerformCfg": "",
      "enableCameraDisplacement": true,
      "lockGameTime": true
    },
    {
      "id": 300602,
      "beginWay": "TALK_BEGIN_MANUAL",
      "beginCond": [
        {
          "type": "QUEST_COND_STATE_EQUAL",
          "_param": [
            "300602",
            "2"
          ]
        }
      ],
      "priority": 5,
      "initDialog": 30060201,
      "npcId": [
        1053
      ],
      "performCfg": "QuestDialogue/AQ/Sumeru1_3006/Q300602",
      "heroTalk": "TALK_HERO_MAIN",
      "questId": 3006,
      "assetIndex": 16840385170764931782,
      "prePerformCfg": "",
      "enableCameraDisplacement": true,
      "lockGameTime": true
    },
    {
      "id": 300603,
      "beginWay": "TALK_BEGIN_MANUAL",
      "beginCond": [
        {
          "type": "QUEST_COND_STATE_EQUAL",
          "_param": [
            "300604",
            "2"
          ]
        }
      ],
      "priority": 5,
      "initDialog": 30060301,
      "npcId": [
        1053
      ],
      "performCfg": "QuestDialogue/AQ/Sumeru1_3006/Q300603",
      "heroTalk": "TALK_HERO_MAIN",
      "questId": 3006,
      "assetIndex": 16629258401645800870,
      "prePerformCfg": "",
      "enableCameraDisplacement": true,
      "lockGameTime": true
    },
    {
      "id": 300604,
      "beginWay": "TALK_BEGIN_MANUAL",
      "beginCond": [
        {
          "type": "QUEST_COND_STATE_EQUAL",
          "_param": [
            "300606",
            "2"
          ]
        }
      ],
      "priority": 5,
      "initDialog": 30060401,
      "npcId": [
        1053
      ],
      "performCfg": "QuestDialogue/AQ/Sumeru1_3006/Q300604",
      "heroTalk": "TALK_HERO_MAIN",
      "questId": 3006,
      "assetIndex": 1617060367248891336,
      "prePerformCfg": "",
      "enableCameraDisplacement": true,
      "lockGameTime": true
    },
    {
      "id": 300605,
      "beginWay": "TALK_BEGIN_MANUAL",
      "beginCond": [
        {
          "type": "QUEST_COND_STATE_EQUAL",
          "_param": [
            "300607",
            "2"
          ]
        }
      ],
      "priority": 5,
      "initDialog": 30060501,
      "npcId": [
        1055
      ],
      "performCfg": "QuestDialogue/AQ/Sumeru1_3006/Q300605",
      "heroTalk": "TALK_HERO_MAIN",
      "questId": 3006,
      "assetIndex": 5410576409638478861,
      "prePerformCfg": "",
      "enableCameraDisplacement": true,
      "lockGameTime": true
    },
    {
      "id": 300606,
      "beginWay": "TALK_BEGIN_MANUAL",
      "beginCond": [
        {
          "type": "QUEST_COND_STATE_EQUAL",
          "_param": [
            "300608",
            "2"
          ]
        }
      ],
      "priority": 5,
      "initDialog": 30060601,
      "npcId": [
        1053
      ],
      "performCfg": "QuestDialogue/AQ/Sumeru1_3006/Q300606",
      "heroTalk": "TALK_HERO_MAIN",
      "questId": 3006,
      "assetIndex": 5815644949557765748,
      "prePerformCfg": "",
      "enableCameraDisplacement": true,
      "lockGameTime": true
    },
    {
      "id": 300607,
      "beginWay": "TALK_BEGIN_MANUAL",
      "beginCond": [
        {
          "type": "QUEST_COND_STATE_EQUAL",
          "_param": [
            "300609",
            "2"
          ]
        }
      ],
      "priority": 5,
      "initDialog": 30060701,
      "npcId": [
        12581
      ],
      "performCfg": "QuestDialogue/AQ/Sumeru1_3006/Q300607",
      "heroTalk": "TALK_HERO_MAIN",
      "questId": 3006,
      "assetIndex": 1603605886835575608,
      "prePerformCfg": "",
      "enableCameraDisplacement": true,
      "lockGameTime": true
    },
    {
      "id": 300608,
      "beginWay": "TALK_BEGIN_MANUAL",
      "beginCond": [
        {
          "type": "QUEST_COND_STATE_EQUAL",
          "_param": [
            "300612",
            "2"
          ]
        }
      ],
      "priority": 5,
      "initDialog": 30060801,
      "npcId": [
        1053
      ],
      "performCfg": "QuestDialogue/AQ/Sumeru1_3006/Q300608",
      "heroTalk": "TALK_HERO_MAIN",
      "questId": 3006,
      "assetIndex": 8721878145865073170,
      "prePerformCfg": "",
      "enableCameraDisplacement": true,
      "lockGameTime": true
    },
    {
      "id": 300609,
      "beginWay": "TALK_BEGIN_MANUAL",
      "beginCond": [
        {
          "type": "QUEST_COND_STATE_EQUAL",
          "_param": [
            "300615",
            "2"
          ]
        }
      ],
      "priority": 5,
      "initDialog": 30060901,
      "npcId": [
        1053
      ],
      "performCfg": "QuestDialogue/AQ/Sumeru1_3006/Q300609",
      "heroTalk": "TALK_HERO_MAIN",
      "questId": 3006,
      "assetIndex": 4911340660688456218,
      "prePerformCfg": "",
      "enableCameraDisplacement": true,
      "lockGameTime": true
    },
    {
      "id": 300651,
      "beginWay": "TALK_BEGIN_MANUAL",
      "beginCond": [
        {
          "type": "QUEST_COND_STATE_EQUAL",
          "_param": [
            "300601",
            "2"
          ]
        }
      ],
      "priority": 5,
      "initDialog": 30065101,
      "npcId": [
        1055
      ],
      "performCfg": "QuestDialogue/AQ/Sumeru1_3006/Q300651",
      "heroTalk": "TALK_HERO_MAIN",
      "questId": 3006,
      "assetIndex": 649799509497414557,
      "prePerformCfg": ""
    },
    {
      "id": 300652,
      "beginWay": "TALK_BEGIN_MANUAL",
      "beginCond": [
        {
          "type": "QUEST_COND_STATE_EQUAL",
          "_param": [
            "300608",
            "2"
          ]
        }
      ],
      "priority": 5,
      "initDialog": 30065201,
      "npcId": [
        1055
      ],
      "performCfg": "QuestDialogue/AQ/Sumeru1_3006/Q300652",
      "heroTalk": "TALK_HERO_MAIN",
      "questId": 3006,
      "assetIndex": 15437956138244501210,
      "prePerformCfg": ""
    },
    {
      "id": 300653,
      "beginWay": "TALK_BEGIN_MANUAL",
      "beginCond": [
        {
          "type": "QUEST_COND_STATE_EQUAL",
          "_param": [
            "300603",
            "2"
          ]
        }
      ],
      "priority": 5,
      "initDialog": 30065301,
      "npcId": [
        1053
      ],
      "performCfg": "QuestDialogue/AQ/Sumeru1_3006/Q300653",
      "heroTalk": "TALK_HERO_MAIN",
      "questId": 3006,
      "assetIndex": 2632682200046019523,
      "prePerformCfg": ""
    },
    {
      "id": 300654,
      "beginWay": "TALK_BEGIN_MANUAL",
      "beginCond": [
        {
          "type": "QUEST_COND_STATE_EQUAL",
          "_param": [
            "300605",
            "2"
          ]
        }
      ],
      "priority": 5,
      "initDialog": 30065401,
      "npcId": [
        1053
      ],
      "performCfg": "QuestDialogue/AQ/Sumeru1_3006/Q300654",
      "heroTalk": "TALK_HERO_MAIN",
      "questId": 3006,
      "assetIndex": 5666509711073784376,
      "prePerformCfg": ""
    }
  ],
  "preloadLuaList": [
    3241362393906657717
  ],
  "forcePreloadLuaList": [
    3380059708480110284
  ]
}