{
  "id": 3018,
  "resId": 1016,
  "series": 1303,
  "descTextMapHash": 342628215,
  "EKEKACCODOE": 1975064790,
  "luaPath": "Actor/Quest/AQ3018",
  "suggestTrackMainQuestList": [
    3019
  ],
  "rewardIdList": [
    103018
  ],
  "chapterId": 1303,
  "subQuests": [
    {
      "subId": 301801,
      "mainId": 3018,
      "order": 1,
      "descTextMapHash": 1909326972,
      "JIFODJPFKDF": [
        330307,
        330309
      ],
      "finishCond": [
        {
          "damageRatio": "QUEST_CONTENT_COMPLETE_TALK",
          "param": [
            301801,
            0
          ]
        }
      ],
      "guide": {
        "damageRatio": "QUEST_GUIDE_LOCATION",
        "param": [
          "Q301801_T301801_N1053",
          "20"
        ],
        "guideScene": 3,
        "guideStyle": "QUEST_GUIDE_STYLE_TARGET",
        "guideLayer": "QUEST_GUIDE_LAYER_SCENE",
        "MLAHIFLGIGJ": ""
      },
      "guideHint": {
        "param1": ""
      },
      "isRewind": true,
      "versionBegin": "",
      "versionEnd": ""
    },
    {
      "subId": 301802,
      "mainId": 3018,
      "order": 2,
      "descTextMapHash": 1248556596,
      "JIFODJPFKDF": [
        330307,
        330309
      ],
      "finishCond": [
        {
          "damageRatio": "QUEST_CONTENT_FINISH_PLOT",
          "param": [
            301802,
            0
          ]
        }
      ],
      "guide": {
        "damageRatio": "QUEST_GUIDE_NPC",
        "autoGuide": "QUEST_GUIDE_AUTO_ENABLE",
        "param": [
          "1053"
        ],
        "guideScene": 3,
        "guideStyle": "QUEST_GUIDE_STYLE_TARGET",
        "guideLayer": "QUEST_GUIDE_LAYER_SCENE",
        "MLAHIFLGIGJ": ""
      },
      "guideHint": {
        "param1": ""
      },
      "isRewind": true,
      "versionBegin": "",
      "versionEnd": ""
    },
    {
      "subId": 301803,
      "mainId": 3018,
      "order": 3,
      "descTextMapHash": 4234389260,
      "JIFODJPFKDF": [
        330307,
        330309
      ],
      "finishCond": [
        {
          "damageRatio": "QUEST_CONTENT_COMPLETE_TALK",
          "param": [
            301803,
            0
          ]
        }
      ],
      "guide": {
        "damageRatio": "QUEST_GUIDE_NPC",
        "param": [
          "1053"
        ],
        "guideScene": 3,
        "guideStyle": "QUEST_GUIDE_STYLE_TARGET",
        "guideLayer": "QUEST_GUIDE_LAYER_SCENE",
        "MLAHIFLGIGJ": ""
      },
      "guideHint": {
        "param1": ""
      },
      "isRewind": true,
      "versionBegin": "",
      "versionEnd": ""
    },
    {
      "subId": 301804,
      "mainId": 3018,
      "order": 4,
      "isMpBlock": true,
      "descTextMapHash": 531446780,
      "JIFODJPFKDF": [
        330805
      ],
      "finishCond": [
        {
          "damageRatio": "QUEST_CONTENT_COMPLETE_TALK",
          "param": [
            301804,
            0
          ]
        }
      ],
      "guide": {
        "damageRatio": "QUEST_GUIDE_LOCATION",
        "param": [
          "301804trigger"
        ],
        "guideScene": 3,
        "guideStyle": "QUEST_GUIDE_STYLE_POINT",
        "guideLayer": "QUEST_GUIDE_LAYER_SCENE",
        "MLAHIFLGIGJ": ""
      },
      "guideHint": {
        "param1": ""
      },
      "isRewind": true,
      "versionBegin": "",
      "versionEnd": ""
    },
    {
      "subId": 301805,
      "mainId": 3018,
      "order": 5,
      "descTextMapHash": 1921174708,
      "finishCond": [
        {
          "damageRatio": "QUEST_CONTENT_COMPLETE_TALK",
          "param": [
            301805,
            0
          ]
        }
      ],
      "guide": {
        "damageRatio": "QUEST_GUIDE_LOCATION",
        "autoGuide": "QUEST_GUIDE_AUTO_ENABLE",
        "param": [
          "Q301805_T301805_N1058"
        ],
        "guideScene": 1077,
        "guideStyle": "QUEST_GUIDE_STYLE_TARGET",
        "guideLayer": "QUEST_GUIDE_LAYER_SCENE",
        "MLAHIFLGIGJ": ""
      },
      "guideHint": {
        "param1": ""
      },
      "isRewind": true,
      "versionBegin": "",
      "versionEnd": ""
    },
    {
      "subId": 301806,
      "mainId": 3018,
      "order": 6,
      "descTextMapHash": 2058235428,
      "JIFODJPFKDF": [
        330805
      ],
      "finishCond": [
        {
          "damageRatio": "QUEST_CONTENT_COMPLETE_TALK",
          "param": [
            301806,
            0
          ]
        }
      ],
      "guide": {
        "damageRatio": "QUEST_GUIDE_NPC",
        "param": [
          "1059"
        ],
        "guideScene": 3,
        "guideStyle": "QUEST_GUIDE_STYLE_TARGET",
        "guideLayer": "QUEST_GUIDE_LAYER_SCENE",
        "MLAHIFLGIGJ": ""
      },
      "guideHint": {
        "param1": ""
      },
      "isRewind": true,
      "versionBegin": "",
      "versionEnd": ""
    },
    {
      "subId": 301807,
      "mainId": 3018,
      "order": 7,
      "isMpBlock": true,
      "descTextMapHash": 841336988,
      "JIFODJPFKDF": [
        330805
      ],
      "finishCond": [
        {
          "damageRatio": "QUEST_CONTENT_LUA_NOTIFY",
          "param": [
            0,
            0
          ],
          "count": 1
        }
      ],
      "guide": {
        "damageRatio": "QUEST_GUIDE_LOCATION",
        "autoGuide": "QUEST_GUIDE_AUTO_ENABLE",
        "param": [
          "Q301806_T301806_N12750",
          "40"
        ],
        "guideScene": 3,
        "guideStyle": "QUEST_GUIDE_STYLE_TARGET",
        "guideLayer": "QUEST_GUIDE_LAYER_SCENE",
        "MLAHIFLGIGJ": ""
      },
      "showGuide": "QUEST_GUIDE_ITEM_DISABLE",
      "guideHint": {
        "param1": ""
      },
      "isRewind": true,
      "finishExec": [
        {
          "damageRatio": "QUEST_EXEC_UNREGISTER_DYNAMIC_GROUP",
          "param": [
            "133308024"
          ]
        }
      ],
      "versionBegin": "",
      "versionEnd": ""
    },
    {
      "subId": 301808,
      "mainId": 3018,
      "order": 8,
      "descTextMapHash": 83414836,
      "JIFODJPFKDF": [
        330805
      ],
      "finishCond": [
        {
          "damageRatio": "QUEST_CONTENT_COMPLETE_TALK",
          "param": [
            301808,
            0
          ]
        }
      ],
      "guide": {
        "damageRatio": "QUEST_GUIDE_NPC",
        "param": [
          "1053"
        ],
        "guideScene": 3,
        "guideStyle": "QUEST_GUIDE_STYLE_TARGET",
        "guideLayer": "QUEST_GUIDE_LAYER_SCENE",
        "MLAHIFLGIGJ": ""
      },
      "guideHint": {
        "param1": ""
      },
      "isRewind": true,
      "versionBegin": "",
      "versionEnd": ""
    },
    {
      "subId": 301809,
      "mainId": 3018,
      "order": 9,
      "descTextMapHash": 2252990060,
      "finishCond": [
        {
          "damageRatio": "QUEST_CONTENT_COMPLETE_TALK",
          "param": [
            301809,
            0
          ]
        }
      ],
      "guide": {
        "damageRatio": "QUEST_GUIDE_LOCATION",
        "autoGuide": "QUEST_GUIDE_AUTO_ENABLE",
        "param": [
          "Q301809_T301809_N1058"
        ],
        "guideScene": 3,
        "guideStyle": "QUEST_GUIDE_STYLE_POINT",
        "guideLayer": "QUEST_GUIDE_LAYER_SCENE",
        "MLAHIFLGIGJ": ""
      },
      "guideHint": {
        "param1": ""
      },
      "isRewind": true,
      "versionBegin": "",
      "versionEnd": ""
    },
    {
      "subId": 301810,
      "mainId": 3018,
      "order": 10,
      "descTextMapHash": 4269108116,
      "finishCond": [
        {
          "damageRatio": "QUEST_CONTENT_COMPLETE_TALK",
          "param": [
            301810,
            0
          ]
        }
      ],
      "guide": {
        "damageRatio": "QUEST_GUIDE_LOCATION",
        "autoGuide": "QUEST_GUIDE_AUTO_ENABLE",
        "param": [
          "Q301805_T301805_N1058"
        ],
        "guideScene": 1077,
        "guideStyle": "QUEST_GUIDE_STYLE_POINT",
        "guideLayer": "QUEST_GUIDE_LAYER_SCENE",
        "MLAHIFLGIGJ": ""
      },
      "guideHint": {
        "param1": ""
      },
      "isRewind": true,
      "versionBegin": "",
      "versionEnd": ""
    },
    {
      "subId": 301811,
      "mainId": 3018,
      "order": 11,
      "descTextMapHash": 18527900,
      "JIFODJPFKDF": [
        330801
      ],
      "finishCond": [
        {
          "damageRatio": "QUEST_CONTENT_COMPLETE_TALK",
          "param": [
            301811,
            0
          ]
        }
      ],
      "guide": {
        "damageRatio": "QUEST_GUIDE_LOCATION",
        "param": [
          "Q301811_N12701",
          "10"
        ],
        "guideScene": 3,
        "MLAHIFLGIGJ": ""
      },
      "guideHint": {
        "param1": ""
      },
      "finishParent": true,
      "isRewind": true,
      "finishExec": [
        {
          "damageRatio": "QUEST_EXEC_SET_QUEST_GLOBAL_VAR",
          "param": [
            "301801",
            "1"
          ]
        }
      ],
      "versionBegin": "",
      "versionEnd": ""
    }
  ],
  "talks": [
    {
      "id": 301801,
      "beginWay": "TALK_BEGIN_MANUAL",
      "beginCond": [
        {
          "type": "QUEST_COND_STATE_EQUAL",
          "_param": [
            "301801",
            "2"
          ]
        }
      ],
      "priority": 5,
      "initDialog": 30180101,
      "npcId": [
        1053
      ],
      "performCfg": "QuestDialogue/AQ/Sumeru2_3018/Q301801",
      "heroTalk": "TALK_HERO_MAIN",
      "questId": 3018,
      "assetIndex": 9806313347247155952,
      "prePerformCfg": ""
    },
    {
      "id": 301803,
      "beginWay": "TALK_BEGIN_MANUAL",
      "beginCond": [
        {
          "type": "QUEST_COND_STATE_EQUAL",
          "_param": [
            "301803",
            "2"
          ]
        }
      ],
      "priority": 5,
      "initDialog": 30180301,
      "npcId": [
        12698,
        1053
      ],
      "performCfg": "QuestDialogue/AQ/Sumeru2_3018/Q301803",
      "heroTalk": "TALK_HERO_MAIN",
      "questId": 3018,
      "assetIndex": 12632462279251010857,
      "prePerformCfg": ""
    },
    {
      "id": 301804,
      "beginWay": "TALK_BEGIN_MANUAL",
      "beginCond": [
        {
          "type": "QUEST_COND_STATE_EQUAL",
          "_param": [
            "301804",
            "2"
          ]
        }
      ],
      "priority": 5,
      "initDialog": 30180401,
      "npcId": [
        1053,
        1058,
        1052,
        12752,
        1059
      ],
      "performCfg": "QuestDialogue/AQ/Sumeru2_3018/Q301804",
      "heroTalk": "TALK_HERO_MAIN",
      "questId": 3018,
      "assetIndex": 17895022876894160315,
      "prePerformCfg": ""
    },
    {
      "id": 301805,
      "beginWay": "TALK_BEGIN_MANUAL",
      "beginCond": [
        {
          "type": "QUEST_COND_STATE_EQUAL",
          "_param": [
            "301805",
            "2"
          ]
        }
      ],
      "priority": 5,
      "initDialog": 30180501,
      "npcId": [
        1058,
        1053,
        1052,
        1059,
        12751
      ],
      "performCfg": "QuestDialogue/AQ/Sumeru2_3018/Q301805",
      "heroTalk": "TALK_HERO_MAIN",
      "questId": 3018,
      "assetIndex": 8598801053114351964,
      "prePerformCfg": ""
    },
    {
      "id": 301806,
      "beginWay": "TALK_BEGIN_MANUAL",
      "beginCond": [
        {
          "type": "QUEST_COND_STATE_EQUAL",
          "_param": [
            "301806",
            "2"
          ]
        }
      ],
      "priority": 5,
      "initDialog": 30180601,
      "npcId": [
        1059,
        1052,
        1053
      ],
      "performCfg": "QuestDialogue/AQ/Sumeru2_3018/Q301806",
      "heroTalk": "TALK_HERO_MAIN",
      "questId": 3018,
      "assetIndex": 15420116245117414735,
      "prePerformCfg": ""
    },
    {
      "id": 301808,
      "beginWay": "TALK_BEGIN_MANUAL",
      "beginCond": [
        {
          "type": "QUEST_COND_STATE_EQUAL",
          "_param": [
            "301808",
            "2"
          ]
        }
      ],
      "priority": 5,
      "initDialog": 30180801,
      "npcId": [
        1059,
        4317,
        1058,
        1053,
        1052
      ],
      "performCfg": "QuestDialogue/AQ/Sumeru2_3018/Q301808",
      "heroTalk": "TALK_HERO_MAIN",
      "questId": 3018,
      "assetIndex": 13499094846840967203,
      "prePerformCfg": ""
    },
    {
      "id": 301809,
      "beginWay": "TALK_BEGIN_MANUAL",
      "beginCond": [
        {
          "type": "QUEST_COND_STATE_EQUAL",
          "_param": [
            "301809",
            "2"
          ]
        }
      ],
      "priority": 5,
      "initDialog": 30180901,
      "npcId": [
        1058,
        12701,
        1059
      ],
      "performCfg": "QuestDialogue/AQ/Sumeru2_3018/Q301809",
      "heroTalk": "TALK_HERO_MAIN",
      "questId": 3018,
      "assetIndex": 15674266960299940016,
      "prePerformCfg": ""
    },
    {
      "id": 301810,
      "beginWay": "TALK_BEGIN_MANUAL",
      "beginCond": [
        {
          "type": "QUEST_COND_STATE_EQUAL",
          "_param": [
            "301810",
            "2"
          ]
        }
      ],
      "priority": 5,
      "initDialog": 30180956,
      "npcId": [
        1059,
        1058,
        12701
      ],
      "performCfg": "QuestDialogue/AQ/Sumeru2_3018/Q301810",
      "heroTalk": "TALK_HERO_MAIN",
      "questId": 3018,
      "assetIndex": 5813772081407147459,
      "prePerformCfg": ""
    },
    {
      "id": 301811,
      "beginWay": "TALK_BEGIN_MANUAL",
      "beginCond": [
        {
          "type": "QUEST_COND_STATE_EQUAL",
          "_param": [
            "301811",
            "2"
          ]
        }
      ],
      "priority": 5,
      "initDialog": 30180982,
      "npcId": [
        12701,
        1058
      ],
      "performCfg": "QuestDialogue/AQ/Sumeru2_3018/Q301811",
      "heroTalk": "TALK_HERO_MAIN",
      "questId": 3018,
      "assetIndex": 9219389743663630423,
      "prePerformCfg": ""
    }
  ],
  "preloadLuaList": [
    11500800435799211124,
    11389603270867265203,
    8533968710009699139
  ],
  "forcePreloadLuaList": [
    15621348966172658053
  ],
  "freeStyleDic": {
    "1059": [
      1080
    ]
  }
}