{
  "id": 3020,
  "resId": 1016,
  "series": 3019,
  "descTextMapHash": 4204025847,
  "EKEKACCODOE": 3225716174,
  "luaPath": "Actor/Quest/AQ3020",
  "suggestTrackMainQuestList": [
    3021
  ],
  "rewardIdList": [
    103020
  ],
  "chapterId": 1304,
  "subQuests": [
    {
      "subId": 302001,
      "mainId": 3020,
      "order": 2,
      "descTextMapHash": 4055792380,
      "finishCond": [
        {
          "damageRatio": "QUEST_CONTENT_COMPLETE_TALK",
          "param": [
            302001,
            0
          ]
        }
      ],
      "guide": {
        "damageRatio": "QUEST_GUIDE_NPC",
        "param": [
          "12867"
        ],
        "guideScene": 3,
        "guideStyle": "QUEST_GUIDE_STYLE_TARGET",
        "guideLayer": "QUEST_GUIDE_LAYER_SCENE",
        "MLAHIFLGIGJ": ""
      },
      "guideHint": {
        "param1": ""
      },
      "isRewind": true,
      "versionBegin": "",
      "versionEnd": ""
    },
    {
      "subId": 302002,
      "mainId": 3020,
      "order": 3,
      "descTextMapHash": 1011803900,
      "finishCond": [
        {
          "damageRatio": "QUEST_CONTENT_FINISH_PLOT",
          "param": [
            302002,
            0
          ]
        },
        {
          "damageRatio": "QUEST_CONTENT_LUA_NOTIFY",
          "param": [
            0,
            0
          ],
          "count": 1
        }
      ],
      "guide": {
        "damageRatio": "QUEST_GUIDE_LOCATION",
        "param": [
          "Q302004_T302004_N1053",
          "30"
        ],
        "guideScene": 3,
        "MLAHIFLGIGJ": ""
      },
      "guideHint": {
        "param1": ""
      },
      "isRewind": true,
      "versionBegin": "",
      "versionEnd": ""
    },
    {
      "subId": 302003,
      "mainId": 3020,
      "order": 4,
      "descTextMapHash": 4162555220,
      "finishCond": [
        {
          "damageRatio": "QUEST_CONTENT_LUA_NOTIFY",
          "param": [
            0,
            0
          ],
          "count": 1
        }
      ],
      "guide": {
        "damageRatio": "QUEST_GUIDE_LOCATION",
        "param": [
          "Q302004_T302004_N1053",
          "30"
        ],
        "guideScene": 3,
        "guideStyle": "QUEST_GUIDE_STYLE_TARGET",
        "MLAHIFLGIGJ": ""
      },
      "guideHint": {
        "param1": ""
      },
      "finishExec": [
        {
          "damageRatio": "QUEST_EXEC_UNREGISTER_DYNAMIC_GROUP",
          "param": [
            "133303131",
            "1"
          ]
        }
      ],
      "versionBegin": "",
      "versionEnd": ""
    },
    {
      "subId": 302004,
      "mainId": 3020,
      "order": 5,
      "descTextMapHash": 4214021100,
      "finishCond": [
        {
          "damageRatio": "QUEST_CONTENT_COMPLETE_TALK",
          "param": [
            302006,
            0
          ]
        }
      ],
      "guide": {
        "damageRatio": "QUEST_GUIDE_NPC",
        "param": [
          "1053"
        ],
        "guideScene": 3,
        "guideStyle": "QUEST_GUIDE_STYLE_TARGET",
        "guideLayer": "QUEST_GUIDE_LAYER_SCENE",
        "MLAHIFLGIGJ": ""
      },
      "guideHint": {
        "param1": ""
      },
      "isRewind": true,
      "finishExec": [
        {
          "damageRatio": "QUEST_EXEC_REFRESH_GROUP_SUITE",
          "param": [
            "3",
            "133303569,2"
          ]
        }
      ],
      "versionBegin": "",
      "versionEnd": ""
    },
    {
      "subId": 302005,
      "mainId": 3020,
      "order": 6,
      "descTextMapHash": 1736632788,
      "showType": "QUEST_HIDDEN",
      "finishCond": [
        {
          "damageRatio": "QUEST_CONTENT_FINISH_PLOT",
          "param": [
            302005,
            0
          ]
        },
        {
          "damageRatio": "QUEST_CONTENT_QUEST_STATE_EQUAL",
          "param": [
            302004,
            3
          ]
        }
      ],
      "guide": {
        "guideScene": 3,
        "guideStyle": "QUEST_GUIDE_STYLE_TARGET",
        "guideLayer": "QUEST_GUIDE_LAYER_SCENE",
        "MLAHIFLGIGJ": ""
      },
      "showGuide": "QUEST_GUIDE_ITEM_DISABLE",
      "guideHint": {
        "param1": ""
      },
      "finishExec": [
        {
          "damageRatio": "QUEST_EXEC_NOTIFY_GROUP_LUA",
          "param": [
            "3",
            "133303132"
          ]
        }
      ],
      "versionBegin": "",
      "versionEnd": ""
    },
    {
      "subId": 302006,
      "mainId": 3020,
      "order": 9,
      "descTextMapHash": 1045791404,
      "showType": "QUEST_HIDDEN",
      "finishCond": [
        {
          "damageRatio": "QUEST_CONTENT_FINISH_PLOT",
          "param": [
            302006,
            0
          ]
        },
        {
          "damageRatio": "QUEST_CONTENT_QUEST_STATE_EQUAL",
          "param": [
            302004,
            3
          ]
        }
      ],
      "guide": {
        "guideScene": 3,
        "guideStyle": "QUEST_GUIDE_STYLE_TARGET",
        "guideLayer": "QUEST_GUIDE_LAYER_SCENE",
        "MLAHIFLGIGJ": ""
      },
      "showGuide": "QUEST_GUIDE_ITEM_DISABLE",
      "guideHint": {
        "param1": ""
      },
      "finishExec": [
        {
          "damageRatio": "QUEST_EXEC_REFRESH_GROUP_SUITE",
          "param": [
            "3",
            "133303504,2"
          ]
        }
      ],
      "versionBegin": "",
      "versionEnd": ""
    },
    {
      "subId": 302007,
      "mainId": 3020,
      "order": 10,
      "subIdSet": 2,
      "descTextMapHash": 3344235772,
      "finishCond": [
        {
          "damageRatio": "QUEST_CONTENT_LUA_NOTIFY",
          "param": [
            0,
            0
          ],
          "count": 1
        }
      ],
      "guide": {
        "guideScene": 3,
        "guideStyle": "QUEST_GUIDE_STYLE_TARGET",
        "MLAHIFLGIGJ": ""
      },
      "showGuide": "QUEST_GUIDE_ITEM_DISABLE",
      "guideHint": {
        "param1": ""
      },
      "isRewind": true,
      "finishExec": [
        {
          "damageRatio": "QUEST_EXEC_NOTIFY_GROUP_LUA",
          "param": [
            "3",
            "133303570"
          ]
        }
      ],
      "versionBegin": "",
      "versionEnd": ""
    },
    {
      "subId": 302008,
      "mainId": 3020,
      "order": 13,
      "descTextMapHash": 1982521884,
      "finishCond": [
        {
          "damageRatio": "QUEST_CONTENT_FINISH_PLOT",
          "param": [
            302008,
            0
          ]
        }
      ],
      "guide": {
        "damageRatio": "QUEST_GUIDE_LOCATION",
        "param": [
          "Q302009_T302009_N12704"
        ],
        "guideScene": 3,
        "guideStyle": "QUEST_GUIDE_STYLE_TARGET",
        "MLAHIFLGIGJ": ""
      },
      "guideHint": {
        "param1": ""
      },
      "isRewind": true,
      "versionBegin": "",
      "versionEnd": ""
    },
    {
      "subId": 302009,
      "mainId": 3020,
      "order": 14,
      "descTextMapHash": 1739299804,
      "finishCond": [
        {
          "damageRatio": "QUEST_CONTENT_COMPLETE_TALK",
          "param": [
            302009,
            0
          ]
        }
      ],
      "guide": {
        "damageRatio": "QUEST_GUIDE_NPC",
        "param": [
          "12704"
        ],
        "guideScene": 3,
        "guideStyle": "QUEST_GUIDE_STYLE_TARGET",
        "guideLayer": "QUEST_GUIDE_LAYER_SCENE",
        "MLAHIFLGIGJ": ""
      },
      "guideHint": {
        "param1": ""
      },
      "versionBegin": "",
      "versionEnd": ""
    },
    {
      "subId": 302010,
      "mainId": 3020,
      "order": 15,
      "descTextMapHash": 2507493356,
      "finishCond": [
        {
          "damageRatio": "QUEST_CONTENT_COMPLETE_TALK",
          "param": [
            302010,
            0
          ]
        }
      ],
      "guide": {
        "damageRatio": "QUEST_GUIDE_LOCATION",
        "param": [
          "Q302010_T302110_N1059"
        ],
        "guideScene": 1077,
        "guideStyle": "QUEST_GUIDE_STYLE_TARGET",
        "guideLayer": "QUEST_GUIDE_LAYER_SCENE",
        "MLAHIFLGIGJ": ""
      },
      "guideHint": {
        "param1": ""
      },
      "isRewind": true,
      "finishExec": [
        {
          "damageRatio": "QUEST_EXEC_UNREGISTER_DYNAMIC_GROUP",
          "param": [
            "133303221",
            "0"
          ]
        },
        {
          "damageRatio": "QUEST_EXEC_UNREGISTER_DYNAMIC_GROUP",
          "param": [
            "133303132,133303133,133303342,133303344",
            "0"
          ]
        }
      ],
      "versionBegin": "",
      "versionEnd": ""
    },
    {
      "subId": 302011,
      "mainId": 3020,
      "order": 16,
      "descTextMapHash": 4176124260,
      "stepDescTextMapHash": 2330209461,
      "JIFODJPFKDF": [
        330811,
        330810
      ],
      "finishCond": [
        {
          "damageRatio": "QUEST_CONTENT_FINISH_PLOT",
          "param": [
            302011,
            0
          ]
        }
      ],
      "guide": {
        "damageRatio": "QUEST_GUIDE_NPC",
        "param": [
          "1058"
        ],
        "guideScene": 3,
        "guideStyle": "QUEST_GUIDE_STYLE_TARGET",
        "MLAHIFLGIGJ": ""
      },
      "guideHint": {
        "param1": ""
      },
      "isRewind": true,
      "versionBegin": "",
      "versionEnd": ""
    },
    {
      "subId": 302012,
      "mainId": 3020,
      "order": 19,
      "descTextMapHash": 2535466260,
      "JIFODJPFKDF": [
        330811,
        330810
      ],
      "finishCond": [
        {
          "damageRatio": "QUEST_CONTENT_COMPLETE_TALK",
          "param": [
            302012,
            0
          ]
        }
      ],
      "guide": {
        "damageRatio": "QUEST_GUIDE_NPC",
        "param": [
          "1053"
        ],
        "guideScene": 3,
        "guideStyle": "QUEST_GUIDE_STYLE_TARGET",
        "guideLayer": "QUEST_GUIDE_LAYER_SCENE",
        "MLAHIFLGIGJ": ""
      },
      "guideHint": {
        "param1": ""
      },
      "versionBegin": "",
      "versionEnd": ""
    },
    {
      "subId": 302013,
      "mainId": 3020,
      "order": 18,
      "descTextMapHash": 3423812772,
      "JIFODJPFKDF": [
        330811,
        330810
      ],
      "finishCond": [
        {
          "damageRatio": "QUEST_CONTENT_FINISH_PLOT",
          "param": [
            302013,
            0
          ]
        }
      ],
      "guide": {
        "damageRatio": "QUEST_GUIDE_NPC",
        "param": [
          "1058"
        ],
        "guideScene": 3,
        "guideStyle": "QUEST_GUIDE_STYLE_TARGET",
        "MLAHIFLGIGJ": ""
      },
      "guideHint": {
        "param1": ""
      },
      "isRewind": true,
      "versionBegin": "",
      "versionEnd": ""
    },
    {
      "subId": 302014,
      "mainId": 3020,
      "order": 23,
      "descTextMapHash": 1290520844,
      "JIFODJPFKDF": [
        330811,
        330810
      ],
      "finishCond": [
        {
          "damageRatio": "QUEST_CONTENT_COMPLETE_TALK",
          "param": [
            302014,
            0
          ]
        }
      ],
      "guide": {
        "damageRatio": "QUEST_GUIDE_NPC",
        "param": [
          "1052"
        ],
        "guideScene": 3,
        "guideStyle": "QUEST_GUIDE_STYLE_TARGET",
        "guideLayer": "QUEST_GUIDE_LAYER_SCENE",
        "MLAHIFLGIGJ": ""
      },
      "guideHint": {
        "param1": ""
      },
      "finishParent": true,
      "finishExec": [
        {
          "damageRatio": "QUEST_EXEC_UNREGISTER_DYNAMIC_GROUP",
          "param": [
            "133308255",
            "1"
          ]
        }
      ],
      "versionBegin": "",
      "versionEnd": ""
    },
    {
      "subId": 302015,
      "mainId": 3020,
      "order": 12,
      "subIdSet": 2,
      "descTextMapHash": 583217380,
      "finishCond": [
        {
          "damageRatio": "QUEST_CONTENT_LUA_NOTIFY",
          "param": [
            0,
            0
          ],
          "count": 3
        }
      ],
      "guide": {
        "damageRatio": "QUEST_GUIDE_LOCATION",
        "param": [
          "Q302004_T302004_N1053",
          "50"
        ],
        "guideScene": 3,
        "guideStyle": "QUEST_GUIDE_STYLE_TARGET",
        "MLAHIFLGIGJ": ""
      },
      "guideHint": {
        "param1": ""
      },
      "finishExec": [
        {
          "damageRatio": "QUEST_EXEC_NOTIFY_GROUP_LUA",
          "param": [
            "3",
            "133303570"
          ]
        }
      ],
      "versionBegin": "",
      "versionEnd": ""
    },
    {
      "subId": 302016,
      "mainId": 3020,
      "order": 11,
      "subIdSet": 2,
      "descTextMapHash": 3309002852,
      "finishCond": [
        {
          "damageRatio": "QUEST_CONTENT_LUA_NOTIFY",
          "param": [
            0,
            0
          ],
          "count": 2
        }
      ],
      "guide": {
        "guideScene": 3,
        "guideStyle": "QUEST_GUIDE_STYLE_TARGET",
        "MLAHIFLGIGJ": ""
      },
      "showGuide": "QUEST_GUIDE_ITEM_DISABLE",
      "guideHint": {
        "param1": ""
      },
      "finishExec": [
        {
          "damageRatio": "QUEST_EXEC_NOTIFY_GROUP_LUA",
          "param": [
            "3",
            "133303570"
          ]
        }
      ],
      "versionBegin": "",
      "versionEnd": ""
    },
    {
      "subId": 302017,
      "mainId": 3020,
      "order": 17,
      "descTextMapHash": 249911884,
      "JIFODJPFKDF": [
        330811,
        330810
      ],
      "finishCond": [
        {
          "damageRatio": "QUEST_CONTENT_COMPLETE_TALK",
          "param": [
            302011,
            0
          ]
        }
      ],
      "guide": {
        "damageRatio": "QUEST_GUIDE_NPC",
        "param": [
          "1058"
        ],
        "guideScene": 3,
        "guideStyle": "QUEST_GUIDE_STYLE_TARGET",
        "guideLayer": "QUEST_GUIDE_LAYER_SCENE",
        "MLAHIFLGIGJ": ""
      },
      "guideHint": {
        "param1": ""
      },
      "versionBegin": "",
      "versionEnd": ""
    },
    {
      "subId": 302018,
      "mainId": 3020,
      "order": 1,
      "descTextMapHash": 1160501580,
      "stepDescTextMapHash": 2583774653,
      "finishCond": [
        {
          "damageRatio": "QUEST_CONTENT_COMPLETE_TALK",
          "param": [
            302002,
            0
          ]
        }
      ],
      "guide": {
        "damageRatio": "QUEST_GUIDE_LOCATION",
        "param": [
          "Q302018_N1053_guide_Q302017_N1058"
        ],
        "guideScene": 3,
        "guideStyle": "QUEST_GUIDE_STYLE_POINT",
        "guideLayer": "QUEST_GUIDE_LAYER_SCENE",
        "MLAHIFLGIGJ": ""
      },
      "guideHint": {
        "param1": ""
      },
      "isRewind": true,
      "versionBegin": "",
      "versionEnd": ""
    },
    {
      "subId": 302019,
      "mainId": 3020,
      "order": 22,
      "isMpBlock": true,
      "descTextMapHash": 2035881252,
      "JIFODJPFKDF": [
        330811,
        330810
      ],
      "finishCond": [
        {
          "damageRatio": "QUEST_CONTENT_FINISH_PLOT",
          "param": [
            302019,
            0
          ]
        }
      ],
      "guide": {
        "damageRatio": "QUEST_GUIDE_NPC",
        "param": [
          "1058"
        ],
        "guideScene": 3,
        "guideStyle": "QUEST_GUIDE_STYLE_TARGET",
        "MLAHIFLGIGJ": ""
      },
      "guideHint": {
        "param1": ""
      },
      "isRewind": true,
      "versionBegin": "",
      "versionEnd": ""
    },
    {
      "subId": 302020,
      "mainId": 3020,
      "order": 7,
      "descTextMapHash": 3047441108,
      "showType": "QUEST_HIDDEN",
      "finishCond": [
        {
          "damageRatio": "QUEST_CONTENT_FINISH_PLOT",
          "param": [
            302020,
            0
          ]
        },
        {
          "damageRatio": "QUEST_CONTENT_QUEST_STATE_EQUAL",
          "param": [
            302004,
            3
          ]
        }
      ],
      "guide": {
        "guideScene": 3,
        "guideStyle": "QUEST_GUIDE_STYLE_TARGET",
        "guideLayer": "QUEST_GUIDE_LAYER_SCENE",
        "MLAHIFLGIGJ": ""
      },
      "showGuide": "QUEST_GUIDE_ITEM_DISABLE",
      "guideHint": {
        "param1": ""
      },
      "finishExec": [
        {
          "damageRatio": "QUEST_EXEC_NOTIFY_GROUP_LUA",
          "param": [
            "3",
            "133303132"
          ]
        }
      ],
      "versionBegin": "",
      "versionEnd": ""
    },
    {
      "subId": 302021,
      "mainId": 3020,
      "order": 20,
      "descTextMapHash": 2099487644,
      "showType": "QUEST_HIDDEN",
      "finishCond": [
        {
          "damageRatio": "QUEST_CONTENT_FINISH_PLOT",
          "param": [
            302021,
            0
          ]
        }
      ],
      "guide": {
        "MLAHIFLGIGJ": ""
      },
      "showGuide": "QUEST_GUIDE_ITEM_DISABLE",
      "guideHint": {
        "param1": ""
      },
      "finishExec": [
        {
          "damageRatio": "QUEST_EXEC_REFRESH_GROUP_SUITE",
          "param": [
            "3",
            "133308255,2"
          ]
        }
      ],
      "versionBegin": "",
      "versionEnd": ""
    },
    {
      "subId": 302022,
      "mainId": 3020,
      "order": 21,
      "descTextMapHash": 1899209062,
      "showType": "QUEST_HIDDEN",
      "finishCond": [
        {
          "damageRatio": "QUEST_CONTENT_FINISH_PLOT",
          "param": [
            302022,
            0
          ]
        }
      ],
      "guide": {
        "MLAHIFLGIGJ": ""
      },
      "showGuide": "QUEST_GUIDE_ITEM_DISABLE",
      "guideHint": {
        "param1": ""
      },
      "finishExec": [
        {
          "damageRatio": "QUEST_EXEC_REFRESH_GROUP_SUITE",
          "param": [
            "3",
            "133308255,3"
          ]
        }
      ],
      "versionBegin": "",
      "versionEnd": ""
    },
    {
      "subId": 302023,
      "mainId": 3020,
      "order": 8,
      "descTextMapHash": 2473953028,
      "showType": "QUEST_HIDDEN",
      "finishCond": [
        {
          "damageRatio": "QUEST_CONTENT_FINISH_PLOT",
          "param": [
            302023,
            0
          ]
        },
        {
          "damageRatio": "QUEST_CONTENT_QUEST_STATE_EQUAL",
          "param": [
            302004,
            3
          ]
        }
      ],
      "guide": {
        "guideScene": 3,
        "guideStyle": "QUEST_GUIDE_STYLE_TARGET",
        "guideLayer": "QUEST_GUIDE_LAYER_SCENE",
        "MLAHIFLGIGJ": ""
      },
      "showGuide": "QUEST_GUIDE_ITEM_DISABLE",
      "guideHint": {
        "param1": ""
      },
      "finishExec": [
        {
          "damageRatio": "QUEST_EXEC_NOTIFY_GROUP_LUA",
          "param": [
            "3",
            "133303569"
          ]
        }
      ],
      "versionBegin": "",
      "versionEnd": ""
    }
  ],
  "talks": [
    {
      "id": 302001,
      "beginWay": "TALK_BEGIN_MANUAL",
      "beginCond": [
        {
          "type": "QUEST_COND_STATE_EQUAL",
          "_param": [
            "302001",
            "2"
          ]
        }
      ],
      "priority": 5,
      "initDialog": 30200101,
      "npcId": [
        12867
      ],
      "performCfg": "QuestDialogue/AQ/Sumeru2_3020/Q302001",
      "heroTalk": "TALK_HERO_MAIN",
      "questId": 3020,
      "assetIndex": 16947750987602288728,
      "prePerformCfg": ""
    },
    {
      "id": 302002,
      "beginWay": "TALK_BEGIN_MANUAL",
      "beginCond": [
        {
          "type": "QUEST_COND_STATE_EQUAL",
          "_param": [
            "302018",
            "2"
          ]
        }
      ],
      "priority": 5,
      "initDialog": 30200201,
      "npcId": [
        1053
      ],
      "performCfg": "QuestDialogue/AQ/Sumeru2_3020/Q302002",
      "heroTalk": "TALK_HERO_MAIN",
      "questId": 3020,
      "assetIndex": 17638219676167058308,
      "prePerformCfg": ""
    },
    {
      "id": 302004,
      "beginWay": "TALK_BEGIN_MANUAL",
      "beginCond": [
        {
          "type": "QUEST_COND_STATE_EQUAL",
          "_param": [
            "99902",
            "2"
          ]
        }
      ],
      "priority": 5,
      "npcId": [
        1053
      ],
      "performCfg": "",
      "heroTalk": "TALK_HERO_MAIN",
      "questId": 3020,
      "assetIndex": 15867784870989202517,
      "prePerformCfg": ""
    },
    {
      "id": 302006,
      "beginWay": "TALK_BEGIN_MANUAL",
      "beginCond": [
        {
          "type": "QUEST_COND_STATE_EQUAL",
          "_param": [
            "302004",
            "2"
          ]
        }
      ],
      "priority": 5,
      "initDialog": 30200601,
      "npcId": [
        1053
      ],
      "performCfg": "QuestDialogue/AQ/Sumeru2_3020/Q302006",
      "heroTalk": "TALK_HERO_MAIN",
      "questId": 3020,
      "assetIndex": 4827721948421918815,
      "prePerformCfg": "",
      "lockGameTime": true
    },
    {
      "id": 302009,
      "beginWay": "TALK_BEGIN_MANUAL",
      "beginCond": [
        {
          "type": "QUEST_COND_STATE_EQUAL",
          "_param": [
            "302009",
            "2"
          ]
        }
      ],
      "priority": 5,
      "initDialog": 30200901,
      "npcId": [
        12704
      ],
      "performCfg": "QuestDialogue/AQ/Sumeru2_3020/Q302009",
      "heroTalk": "TALK_HERO_MAIN",
      "questId": 3020,
      "assetIndex": 942662545994045267,
      "prePerformCfg": ""
    },
    {
      "id": 302010,
      "beginWay": "TALK_BEGIN_MANUAL",
      "beginCond": [
        {
          "type": "QUEST_COND_STATE_EQUAL",
          "_param": [
            "302010",
            "2"
          ]
        }
      ],
      "priority": 5,
      "initDialog": 30201001,
      "npcId": [
        1059
      ],
      "performCfg": "QuestDialogue/AQ/Sumeru2_3020/Q302010",
      "heroTalk": "TALK_HERO_MAIN",
      "questId": 3020,
      "assetIndex": 4038323879751340125,
      "prePerformCfg": ""
    },
    {
      "id": 302011,
      "beginWay": "TALK_BEGIN_MANUAL",
      "beginCond": [
        {
          "type": "QUEST_COND_STATE_EQUAL",
          "_param": [
            "302017",
            "2"
          ]
        }
      ],
      "priority": 5,
      "initDialog": 30201101,
      "npcId": [
        1058
      ],
      "performCfg": "QuestDialogue/AQ/Sumeru2_3020/Q302011",
      "heroTalk": "TALK_HERO_MAIN",
      "questId": 3020,
      "assetIndex": 11161973864798049216,
      "prePerformCfg": ""
    },
    {
      "id": 302012,
      "beginWay": "TALK_BEGIN_MANUAL",
      "beginCond": [
        {
          "type": "QUEST_COND_STATE_EQUAL",
          "_param": [
            "302012",
            "2"
          ]
        }
      ],
      "priority": 5,
      "initDialog": 30201201,
      "npcId": [
        1053
      ],
      "performCfg": "QuestDialogue/AQ/Sumeru2_3020/Q302012",
      "heroTalk": "TALK_HERO_MAIN",
      "questId": 3020,
      "assetIndex": 9115862398069514111,
      "prePerformCfg": ""
    },
    {
      "id": 302014,
      "beginWay": "TALK_BEGIN_MANUAL",
      "beginCond": [
        {
          "type": "QUEST_COND_STATE_EQUAL",
          "_param": [
            "302014",
            "2"
          ]
        }
      ],
      "priority": 5,
      "initDialog": 30201401,
      "npcId": [
        1052
      ],
      "performCfg": "QuestDialogue/AQ/Sumeru2_3020/Q302014",
      "heroTalk": "TALK_HERO_MAIN",
      "questId": 3020,
      "assetIndex": 10781063790323970863,
      "prePerformCfg": ""
    },
    {
      "id": 302015,
      "beginWay": "TALK_BEGIN_MANUAL",
      "beginCond": [
        {
          "type": "QUEST_COND_STATE_EQUAL",
          "_param": [
            "99902",
            "2"
          ]
        }
      ],
      "priority": 5,
      "npcId": [
        1058,
        1052,
        1059
      ],
      "performCfg": "",
      "heroTalk": "TALK_HERO_MAIN",
      "questId": 3020,
      "assetIndex": 13036809437746593228,
      "prePerformCfg": ""
    },
    {
      "id": 302016,
      "beginWay": "TALK_BEGIN_MANUAL",
      "beginCond": [
        {
          "type": "QUEST_COND_STATE_EQUAL",
          "_param": [
            "302002",
            "2"
          ]
        }
      ],
      "priority": 5,
      "initDialog": 30201601,
      "npcId": [
        1058
      ],
      "performCfg": "",
      "heroTalk": "TALK_HERO_MAIN",
      "questId": 3020,
      "assetIndex": 8348624959107653203,
      "prePerformCfg": ""
    },
    {
      "id": 302017,
      "beginWay": "TALK_BEGIN_MANUAL",
      "beginCondComb": "LOGIC_OR",
      "beginCond": [
        {
          "type": "QUEST_COND_STATE_EQUAL",
          "_param": [
            "302007",
            "2"
          ]
        },
        {
          "type": "QUEST_COND_STATE_EQUAL",
          "_param": [
            "302015",
            "2"
          ]
        },
        {
          "type": "QUEST_COND_STATE_EQUAL",
          "_param": [
            "302016",
            "2"
          ]
        }
      ],
      "priority": 5,
      "initDialog": 30201701,
      "npcId": [
        1053
      ],
      "performCfg": "",
      "heroTalk": "TALK_HERO_MAIN",
      "questId": 3020,
      "assetIndex": 10205559880190899898,
      "prePerformCfg": ""
    },
    {
      "id": 302018,
      "beginWay": "TALK_BEGIN_MANUAL",
      "beginCond": [
        {
          "type": "QUEST_COND_STATE_EQUAL",
          "_param": [
            "302017",
            "2"
          ]
        }
      ],
      "priority": 5,
      "initDialog": 30201801,
      "npcId": [
        1059
      ],
      "performCfg": "",
      "heroTalk": "TALK_HERO_MAIN",
      "questId": 3020,
      "assetIndex": 12030590533454375424,
      "prePerformCfg": ""
    },
    {
      "id": 302020,
      "beginWay": "TALK_BEGIN_MANUAL",
      "beginCond": [
        {
          "type": "QUEST_COND_STATE_EQUAL",
          "_param": [
            "302011",
            "2"
          ]
        }
      ],
      "priority": 5,
      "initDialog": 30202001,
      "npcId": [
        4317
      ],
      "performCfg": "QuestDialogue/AQ/Sumeru2_3020/Q302020",
      "heroTalk": "TALK_HERO_MAIN",
      "questId": 3020,
      "assetIndex": 11154269216765188500,
      "prePerformCfg": ""
    },
    {
      "id": 302023,
      "beginWay": "TALK_BEGIN_MANUAL",
      "beginCond": [
        {
          "type": "QUEST_COND_STATE_EQUAL",
          "_param": [
            "302011",
            "2"
          ]
        }
      ],
      "priority": 5,
      "initDialog": 30202301,
      "npcId": [
        1059
      ],
      "performCfg": "QuestDialogue/AQ/Sumeru2_3020/Q302023",
      "heroTalk": "TALK_HERO_MAIN",
      "questId": 3020,
      "assetIndex": 11071224578059557480,
      "prePerformCfg": ""
    },
    {
      "id": 302031,
      "beginWay": "TALK_BEGIN_MANUAL",
      "beginCond": [
        {
          "type": "QUEST_COND_STATE_EQUAL",
          "_param": [
            "302018",
            "2"
          ]
        }
      ],
      "priority": 5,
      "initDialog": 30203101,
      "npcId": [
        1052,
        1059
      ],
      "performCfg": "QuestDialogue/AQ/Sumeru2_3020/Q302031",
      "heroTalk": "TALK_HERO_MAIN",
      "questId": 3020,
      "assetIndex": 10375137756167662394,
      "prePerformCfg": ""
    },
    {
      "id": 302032,
      "beginWay": "TALK_BEGIN_MANUAL",
      "beginCond": [
        {
          "type": "QUEST_COND_STATE_EQUAL",
          "_param": [
            "302018",
            "2"
          ]
        }
      ],
      "priority": 5,
      "initDialog": 30203201,
      "npcId": [
        4317
      ],
      "performCfg": "QuestDialogue/AQ/Sumeru2_3020/Q302032",
      "heroTalk": "TALK_HERO_MAIN",
      "questId": 3020,
      "assetIndex": 16324924040052926494,
      "prePerformCfg": ""
    },
    {
      "id": 302033,
      "beginWay": "TALK_BEGIN_MANUAL",
      "beginCond": [
        {
          "type": "QUEST_COND_STATE_EQUAL",
          "_param": [
            "302018",
            "2"
          ]
        }
      ],
      "priority": 5,
      "initDialog": 30203301,
      "npcId": [
        1058
      ],
      "performCfg": "QuestDialogue/AQ/Sumeru2_3020/Q302033",
      "heroTalk": "TALK_HERO_MAIN",
      "questId": 3020,
      "assetIndex": 15386595028924093648,
      "prePerformCfg": ""
    }
  ],
  "preloadLuaList": [
    5052542851447826999,
    925329224990752020,
    7250601519850594934,
    6960976156350601026,
    11765375137671093517,
    8961177179981474911,
    4272390057810130620,
    17762848904622837783
  ],
  "forcePreloadLuaList": [
    404570967941267629
  ],
  "freeStyleDic": {
    "12706": [
      4121
    ],
    "12707": [
      4121
    ],
    "12708": [
      4121
    ],
    "1058": [
      1190,
      1280
    ]
  }
}