{
  "id": 3021,
  "resId": 1016,
  "series": 3019,
  "descTextMapHash": 3642167159,
  "EKEKACCODOE": 1312756046,
  "luaPath": "Actor/Quest/AQ3021",
  "rewardIdList": [
    103021
  ],
  "chapterId": 1304,
  "subQuests": [
    {
      "subId": 302101,
      "mainId": 3021,
      "order": 3,
      "descTextMapHash": 2236130228,
      "finishCond": [
        {
          "damageRatio": "QUEST_CONTENT_FINISH_PLOT",
          "param": [
            302101,
            0
          ]
        }
      ],
      "guide": {
        "damageRatio": "QUEST_GUIDE_NPC",
        "param": [
          "12709"
        ],
        "guideScene": 3,
        "guideStyle": "QUEST_GUIDE_STYLE_TARGET",
        "MLAHIFLGIGJ": ""
      },
      "guideHint": {
        "param1": ""
      },
      "isRewind": true,
      "versionBegin": "",
      "versionEnd": ""
    },
    {
      "subId": 302102,
      "mainId": 3021,
      "order": 99,
      "descTextMapHash": 2104829252,
      "finishCond": [
        {
          "damageRatio": "QUEST_CONTENT_GAME_TIME_TICK",
          "param": [
            0,
            0
          ]
        }
      ],
      "failCond": [
        {
          "damageRatio": "QUEST_CONTENT_LEAVE_SCENE_RANGE",
          "param": [
            3,
            30
          ]
        }
      ],
      "guide": {
        "MLAHIFLGIGJ": ""
      },
      "showGuide": "QUEST_GUIDE_ITEM_DISABLE",
      "guideHint": {
        "param1": ""
      },
      "failExec": [
        {
          "damageRatio": "QUEST_EXEC_ROLLBACK_QUEST",
          "param": [
            "302101"
          ]
        }
      ],
      "versionBegin": "",
      "versionEnd": ""
    },
    {
      "subId": 302103,
      "mainId": 3021,
      "order": 5,
      "descTextMapHash": 2589442364,
      "finishCond": [
        {
          "damageRatio": "QUEST_CONTENT_COMPLETE_TALK",
          "param": [
            302103,
            0
          ]
        }
      ],
      "guide": {
        "damageRatio": "QUEST_GUIDE_NPC",
        "param": [
          "12709"
        ],
        "guideScene": 3,
        "guideStyle": "QUEST_GUIDE_STYLE_TARGET",
        "guideLayer": "QUEST_GUIDE_LAYER_SCENE",
        "MLAHIFLGIGJ": ""
      },
      "guideHint": {
        "param1": ""
      },
      "versionBegin": "",
      "versionEnd": ""
    },
    {
      "subId": 302104,
      "mainId": 3021,
      "order": 8,
      "descTextMapHash": 2749041732,
      "finishCond": [
        {
          "damageRatio": "QUEST_CONTENT_ENTER_DUNGEON",
          "param": [
            1156,
            689
          ]
        }
      ],
      "guide": {
        "damageRatio": "QUEST_GUIDE_LOCATION",
        "param": [
          "Q302104_guide"
        ],
        "guideScene": 3,
        "guideStyle": "QUEST_GUIDE_STYLE_TARGET",
        "MLAHIFLGIGJ": ""
      },
      "guideHint": {
        "param1": ""
      },
      "isRewind": true,
      "versionBegin": "",
      "versionEnd": ""
    },
    {
      "subId": 302105,
      "mainId": 3021,
      "order": 11,
      "isMpBlock": true,
      "descTextMapHash": 3038979860,
      "finishCond": [
        {
          "damageRatio": "QUEST_CONTENT_FINISH_PLOT",
          "param": [
            302105,
            0
          ]
        }
      ],
      "failCond": [
        {
          "damageRatio": "QUEST_CONTENT_LEAVE_SCENE",
          "param": [
            20151,
            0
          ]
        },
        {
          "damageRatio": "QUEST_CONTENT_FAIL_DUNGEON",
          "param": [
            1156,
            0
          ]
        }
      ],
      "guide": {
        "param": [
          "30"
        ],
        "guideScene": 3,
        "MLAHIFLGIGJ": ""
      },
      "showGuide": "QUEST_GUIDE_ITEM_DISABLE",
      "guideHint": {
        "param1": ""
      },
      "isRewind": true,
      "finishExec": [
        {
          "damageRatio": "QUEST_EXEC_REFRESH_GROUP_SUITE",
          "param": [
            "20151",
            "220151018,1"
          ]
        },
        {
          "damageRatio": "QUEST_EXEC_UNLOCK_AVATAR_TEAM"
        }
      ],
      "failExec": [
        {
          "damageRatio": "QUEST_EXEC_ROLLBACK_QUEST",
          "param": [
            "302104"
          ]
        },
        {
          "damageRatio": "QUEST_EXEC_UNLOCK_AVATAR_TEAM"
        }
      ],
      "versionBegin": "",
      "versionEnd": ""
    },
    {
      "subId": 302106,
      "mainId": 3021,
      "order": 12,
      "isMpBlock": true,
      "descTextMapHash": 1867521740,
      "finishCond": [
        {
          "damageRatio": "QUEST_CONTENT_COMPLETE_TALK",
          "param": [
            302106,
            0
          ]
        }
      ],
      "failCond": [
        {
          "damageRatio": "QUEST_CONTENT_LEAVE_SCENE",
          "param": [
            20151,
            0
          ]
        },
        {
          "damageRatio": "QUEST_CONTENT_FAIL_DUNGEON",
          "param": [
            1156,
            0
          ]
        }
      ],
      "guide": {
        "damageRatio": "QUEST_GUIDE_NPC",
        "param": [
          "1053"
        ],
        "guideScene": 3,
        "guideStyle": "QUEST_GUIDE_STYLE_TARGET",
        "guideLayer": "QUEST_GUIDE_LAYER_SCENE",
        "MLAHIFLGIGJ": ""
      },
      "guideHint": {
        "param1": ""
      },
      "finishExec": [
        {
          "damageRatio": "QUEST_EXEC_NOTIFY_GROUP_LUA",
          "param": [
            "20151",
            "220151016"
          ]
        }
      ],
      "failExec": [
        {
          "damageRatio": "QUEST_EXEC_ROLLBACK_QUEST",
          "param": [
            "302104"
          ]
        }
      ],
      "versionBegin": "",
      "versionEnd": ""
    },
    {
      "subId": 302107,
      "mainId": 3021,
      "order": 13,
      "isMpBlock": true,
      "descTextMapHash": 724043180,
      "finishCond": [
        {
          "damageRatio": "QUEST_CONTENT_LEAVE_SCENE",
          "param": [
            20151,
            0
          ]
        }
      ],
      "guide": {
        "MLAHIFLGIGJ": ""
      },
      "guideHint": {
        "param1": ""
      },
      "isRewind": true,
      "finishExec": [
        {
          "damageRatio": "QUEST_EXEC_LOCK_POINT",
          "param": [
            "3",
            "689"
          ]
        },
        {
          "damageRatio": "QUEST_EXEC_REFRESH_GROUP_SUITE",
          "param": [
            "3",
            "133310008,2"
          ]
        }
      ],
      "versionBegin": "",
      "versionEnd": ""
    },
    {
      "subId": 302108,
      "mainId": 3021,
      "order": 14,
      "descTextMapHash": 918743628,
      "stepDescTextMapHash": 3535632413,
      "finishCond": [
        {
          "damageRatio": "QUEST_CONTENT_FINISH_PLOT",
          "param": [
            302108,
            0
          ]
        }
      ],
      "guide": {
        "damageRatio": "QUEST_GUIDE_LOCATION",
        "param": [
          "Q302109_N12709_T302109"
        ],
        "guideScene": 3,
        "guideStyle": "QUEST_GUIDE_STYLE_TARGET",
        "MLAHIFLGIGJ": ""
      },
      "showGuide": "QUEST_GUIDE_ITEM_DISABLE",
      "guideHint": {
        "param1": ""
      },
      "isRewind": true,
      "versionBegin": "",
      "versionEnd": ""
    },
    {
      "subId": 302109,
      "mainId": 3021,
      "order": 15,
      "descTextMapHash": 392507756,
      "finishCond": [
        {
          "damageRatio": "QUEST_CONTENT_COMPLETE_TALK",
          "param": [
            302109,
            0
          ]
        }
      ],
      "guide": {
        "damageRatio": "QUEST_GUIDE_NPC",
        "param": [
          "12709"
        ],
        "guideScene": 3,
        "guideStyle": "QUEST_GUIDE_STYLE_TARGET",
        "guideLayer": "QUEST_GUIDE_LAYER_SCENE",
        "MLAHIFLGIGJ": ""
      },
      "guideHint": {
        "param1": ""
      },
      "versionBegin": "",
      "versionEnd": ""
    },
    {
      "subId": 302110,
      "mainId": 3021,
      "order": 16,
      "descTextMapHash": 347192636,
      "finishCond": [
        {
          "damageRatio": "QUEST_CONTENT_COMPLETE_TALK",
          "param": [
            302110,
            0
          ]
        }
      ],
      "guide": {
        "damageRatio": "QUEST_GUIDE_NPC",
        "param": [
          "1059"
        ],
        "guideScene": 1077,
        "guideStyle": "QUEST_GUIDE_STYLE_TARGET",
        "guideLayer": "QUEST_GUIDE_LAYER_SCENE",
        "MLAHIFLGIGJ": ""
      },
      "guideHint": {
        "param1": ""
      },
      "finishParent": true,
      "isRewind": true,
      "finishExec": [
        {
          "damageRatio": "QUEST_EXEC_SET_QUEST_GLOBAL_VAR",
          "param": [
            "302110",
            "1"
          ]
        }
      ],
      "versionBegin": "",
      "versionEnd": ""
    },
    {
      "subId": 302111,
      "mainId": 3021,
      "order": 7,
      "isMpBlock": true,
      "descTextMapHash": 2831267556,
      "finishCond": [
        {
          "damageRatio": "QUEST_CONTENT_COMPLETE_TALK",
          "param": [
            302111,
            0
          ]
        }
      ],
      "guide": {
        "damageRatio": "QUEST_GUIDE_NPC",
        "param": [
          "12709"
        ],
        "guideScene": 3,
        "guideStyle": "QUEST_GUIDE_STYLE_TARGET",
        "guideLayer": "QUEST_GUIDE_LAYER_SCENE",
        "MLAHIFLGIGJ": ""
      },
      "guideHint": {
        "param1": ""
      },
      "isRewind": true,
      "versionBegin": "",
      "versionEnd": ""
    },
    {
      "subId": 302112,
      "mainId": 3021,
      "order": 2,
      "descTextMapHash": 3142099628,
      "finishCond": [
        {
          "damageRatio": "QUEST_CONTENT_COMPLETE_TALK",
          "param": [
            302101,
            0
          ]
        }
      ],
      "guide": {
        "damageRatio": "QUEST_GUIDE_LOCATION",
        "param": [
          "Q302112_N1052_guide"
        ],
        "guideScene": 3,
        "guideStyle": "QUEST_GUIDE_STYLE_TARGET",
        "MLAHIFLGIGJ": ""
      },
      "guideHint": {
        "param1": ""
      },
      "versionBegin": "",
      "versionEnd": ""
    },
    {
      "subId": 302113,
      "mainId": 3021,
      "order": 9,
      "isMpBlock": true,
      "descTextMapHash": 3454681892,
      "finishCond": [
        {
          "damageRatio": "QUEST_CONTENT_COMPLETE_TALK",
          "param": [
            302105,
            0
          ]
        }
      ],
      "failCond": [
        {
          "damageRatio": "QUEST_CONTENT_LEAVE_SCENE",
          "param": [
            20151,
            0
          ]
        },
        {
          "damageRatio": "QUEST_CONTENT_FAIL_DUNGEON",
          "param": [
            1156,
            0
          ]
        }
      ],
      "guide": {
        "MLAHIFLGIGJ": ""
      },
      "guideHint": {
        "param1": ""
      },
      "isRewind": true,
      "failExec": [
        {
          "damageRatio": "QUEST_EXEC_ROLLBACK_QUEST",
          "param": [
            "302104"
          ]
        }
      ],
      "versionBegin": "",
      "versionEnd": ""
    },
    {
      "subId": 302114,
      "mainId": 3021,
      "order": 1,
      "descTextMapHash": 2074572908,
      "finishCond": [
        {
          "damageRatio": "QUEST_CONTENT_GAME_TIME_TICK",
          "param": [
            1,
            0
          ]
        }
      ],
      "guide": {
        "guideScene": 3,
        "guideStyle": "QUEST_GUIDE_STYLE_TARGET",
        "MLAHIFLGIGJ": ""
      },
      "showGuide": "QUEST_GUIDE_ITEM_DISABLE",
      "guideHint": {
        "param1": ""
      },
      "isRewind": true,
      "versionBegin": "",
      "versionEnd": ""
    },
    {
      "subId": 302115,
      "mainId": 3021,
      "order": 6,
      "descTextMapHash": 4072748692,
      "showType": "QUEST_HIDDEN",
      "finishCond": [
        {
          "damageRatio": "QUEST_CONTENT_FINISH_PLOT",
          "param": [
            302115,
            0
          ]
        }
      ],
      "guide": {
        "damageRatio": "QUEST_GUIDE_NPC",
        "param": [
          "12709"
        ],
        "guideScene": 3,
        "guideStyle": "QUEST_GUIDE_STYLE_TARGET",
        "guideLayer": "QUEST_GUIDE_LAYER_SCENE",
        "MLAHIFLGIGJ": ""
      },
      "guideHint": {
        "param1": ""
      },
      "finishExec": [
        {
          "damageRatio": "QUEST_EXEC_CHANGE_SCENE_LEVEL_TAG",
          "param": [
            "69"
          ]
        },
        {
          "damageRatio": "QUEST_EXEC_REFRESH_GROUP_SUITE",
          "param": [
            "3",
            "133309809,2"
          ]
        }
      ],
      "versionBegin": "",
      "versionEnd": ""
    },
    {
      "subId": 302116,
      "mainId": 3021,
      "order": 10,
      "isMpBlock": true,
      "descTextMapHash": 849647060,
      "finishCond": [
        {
          "damageRatio": "QUEST_CONTENT_FINISH_PLOT",
          "param": [
            302116,
            0
          ]
        }
      ],
      "failCond": [
        {
          "damageRatio": "QUEST_CONTENT_LEAVE_SCENE",
          "param": [
            20151,
            0
          ]
        },
        {
          "damageRatio": "QUEST_CONTENT_FAIL_DUNGEON",
          "param": [
            1156,
            0
          ]
        }
      ],
      "guide": {
        "param": [
          "30"
        ],
        "guideScene": 3,
        "MLAHIFLGIGJ": ""
      },
      "showGuide": "QUEST_GUIDE_ITEM_DISABLE",
      "guideHint": {
        "param1": ""
      },
      "isRewind": true,
      "failExec": [
        {
          "damageRatio": "QUEST_EXEC_ROLLBACK_QUEST",
          "param": [
            "302104"
          ]
        }
      ],
      "versionBegin": "",
      "versionEnd": ""
    }
  ],
  "talks": [
    {
      "id": 302101,
      "beginWay": "TALK_BEGIN_MANUAL",
      "beginCond": [
        {
          "type": "QUEST_COND_STATE_EQUAL",
          "_param": [
            "302112",
            "2"
          ]
        }
      ],
      "priority": 5,
      "initDialog": 30210101,
      "npcId": [
        1059
      ],
      "performCfg": "QuestDialogue/AQ/Sumeru2_3021/Q302101",
      "heroTalk": "TALK_HERO_MAIN",
      "questId": 3021,
      "assetIndex": 6947035407472681400,
      "prePerformCfg": "",
      "lockGameTime": true
    },
    {
      "id": 302103,
      "beginWay": "TALK_BEGIN_MANUAL",
      "beginCond": [
        {
          "type": "QUEST_COND_STATE_EQUAL",
          "_param": [
            "302103",
            "2"
          ]
        }
      ],
      "priority": 5,
      "initDialog": 30210301,
      "npcId": [
        12709
      ],
      "performCfg": "QuestDialogue/AQ/Sumeru2_3021/Q302103",
      "heroTalk": "TALK_HERO_MAIN",
      "questId": 3021,
      "assetIndex": 10176426307157684635,
      "prePerformCfg": "",
      "lockGameTime": true
    },
    {
      "id": 302105,
      "beginWay": "TALK_BEGIN_MANUAL",
      "beginCond": [
        {
          "type": "QUEST_COND_STATE_EQUAL",
          "_param": [
            "302113",
            "2"
          ]
        }
      ],
      "priority": 5,
      "initDialog": 30210501,
      "npcId": [
        1053
      ],
      "performCfg": "QuestDialogue/AQ/Sumeru2_3021/Q302105",
      "heroTalk": "TALK_HERO_MAIN",
      "questId": 3021,
      "assetIndex": 2057474508641833086,
      "prePerformCfg": ""
    },
    {
      "id": 302106,
      "beginWay": "TALK_BEGIN_MANUAL",
      "beginCond": [
        {
          "type": "QUEST_COND_STATE_EQUAL",
          "_param": [
            "302106",
            "2"
          ]
        }
      ],
      "priority": 5,
      "initDialog": 30210601,
      "npcId": [
        1053
      ],
      "performCfg": "QuestDialogue/AQ/Sumeru2_3021/Q302106",
      "heroTalk": "TALK_HERO_MAIN",
      "questId": 3021,
      "assetIndex": 14827001036215747033,
      "prePerformCfg": ""
    },
    {
      "id": 302109,
      "beginWay": "TALK_BEGIN_MANUAL",
      "beginCond": [
        {
          "type": "QUEST_COND_STATE_EQUAL",
          "_param": [
            "302109",
            "2"
          ]
        }
      ],
      "priority": 5,
      "initDialog": 30210901,
      "npcId": [
        12709
      ],
      "performCfg": "QuestDialogue/AQ/Sumeru2_3021/Q302109",
      "heroTalk": "TALK_HERO_MAIN",
      "questId": 3021,
      "assetIndex": 14350301617735692729,
      "prePerformCfg": ""
    },
    {
      "id": 302110,
      "beginWay": "TALK_BEGIN_MANUAL",
      "beginCond": [
        {
          "type": "QUEST_COND_STATE_EQUAL",
          "_param": [
            "302110",
            "2"
          ]
        }
      ],
      "priority": 5,
      "initDialog": 30211001,
      "npcId": [
        1059
      ],
      "performCfg": "QuestDialogue/AQ/Sumeru2_3021/Q302110",
      "heroTalk": "TALK_HERO_MAIN",
      "questId": 3021,
      "assetIndex": 13026212246324775163,
      "prePerformCfg": ""
    },
    {
      "id": 302111,
      "beginWay": "TALK_BEGIN_MANUAL",
      "beginCond": [
        {
          "type": "QUEST_COND_STATE_EQUAL",
          "_param": [
            "302111",
            "2"
          ]
        }
      ],
      "priority": 5,
      "initDialog": 30211101,
      "npcId": [
        12709
      ],
      "performCfg": "QuestDialogue/AQ/Sumeru2_3021/Q302111",
      "heroTalk": "TALK_HERO_MAIN",
      "questId": 3021,
      "assetIndex": 14188442827395226749,
      "prePerformCfg": ""
    },
    {
      "id": 302112,
      "beginWay": "TALK_BEGIN_MANUAL",
      "beginCond": [
        {
          "type": "QUEST_COND_STATE_EQUAL",
          "_param": [
            "302116",
            "2"
          ]
        }
      ],
      "priority": 5,
      "initDialog": 30211201,
      "npcId": [
        12985
      ],
      "performCfg": "",
      "questId": 3021,
      "assetIndex": 17920863957846436363,
      "prePerformCfg": ""
    },
    {
      "id": 302113,
      "beginWay": "TALK_BEGIN_MANUAL",
      "beginCond": [
        {
          "type": "QUEST_COND_STATE_EQUAL",
          "_param": [
            "302116",
            "2"
          ]
        }
      ],
      "priority": 5,
      "initDialog": 30211301,
      "npcId": [
        12986
      ],
      "performCfg": "",
      "questId": 3021,
      "assetIndex": 11821127710895814619,
      "prePerformCfg": ""
    },
    {
      "id": 302114,
      "beginWay": "TALK_BEGIN_MANUAL",
      "beginCond": [
        {
          "type": "QUEST_COND_STATE_EQUAL",
          "_param": [
            "302104",
            "2"
          ]
        }
      ],
      "priority": 5,
      "initDialog": 30211121,
      "npcId": [
        12796
      ],
      "performCfg": "QuestDialogue/AQ/Sumeru2_3021/Q302114",
      "heroTalk": "TALK_HERO_MAIN",
      "questId": 3021,
      "assetIndex": 7911689053778453585,
      "prePerformCfg": ""
    },
    {
      "id": 302115,
      "beginWay": "TALK_BEGIN_MANUAL",
      "beginCond": [
        {
          "type": "QUEST_COND_STATE_EQUAL",
          "_param": [
            "302104",
            "2"
          ]
        }
      ],
      "priority": 5,
      "initDialog": 30211112,
      "npcId": [
        12701
      ],
      "performCfg": "QuestDialogue/AQ/Sumeru2_3021/Q302115",
      "heroTalk": "TALK_HERO_MAIN",
      "questId": 3021,
      "assetIndex": 3454929144864634453,
      "prePerformCfg": ""
    }
  ],
  "preloadLuaList": [
    5309876418906045749,
    9497703992028527839,
    282415765883864550,
    5310980444000988655,
    6235566916618864645,
    48304595866212260,
    16143136356123921272,
    13765654194400809727
  ],
  "forcePreloadLuaList": [
    472302949040844675
  ],
  "freeStyleDic": {
    "12796": [
      4412
    ],
    "13002": [
      4120
    ],
    "12865": [
      4121
    ],
    "12881": [
      1240
    ]
  }
}