{
  "id": 3024,
  "resId": 1017,
  "series": 1305,
  "descTextMapHash": 939450703,
  "EKEKACCODOE": 2811915126,
  "luaPath": "Actor/Quest/AQ3024",
  "suggestTrackMainQuestList": [
    3025
  ],
  "rewardIdList": [
    103024
  ],
  "chapterId": 1305,
  "subQuests": [
    {
      "subId": 302401,
      "mainId": 3024,
      "order": 3,
      "descTextMapHash": 2101872308,
      "JIFODJPFKDF": [
        330301
      ],
      "finishCond": [
        {
          "damageRatio": "QUEST_CONTENT_COMPLETE_TALK",
          "param": [
            302401,
            0
          ]
        }
      ],
      "guide": {
        "damageRatio": "QUEST_GUIDE_NPC",
        "param": [
          "1059"
        ],
        "guideScene": 3,
        "guideStyle": "QUEST_GUIDE_STYLE_TARGET",
        "guideLayer": "QUEST_GUIDE_LAYER_SCENE",
        "MLAHIFLGIGJ": ""
      },
      "guideHint": {
        "param1": ""
      },
      "isRewind": true,
      "versionBegin": "",
      "versionEnd": ""
    },
    {
      "subId": 302402,
      "mainId": 3024,
      "order": 7,
      "descTextMapHash": 642104468,
      "stepDescTextMapHash": 2960752301,
      "JIFODJPFKDF": [
        330301,
        330311,
        330801
      ],
      "finishCond": [
        {
          "damageRatio": "QUEST_CONTENT_COMPLETE_TALK",
          "param": [
            302402,
            0
          ]
        }
      ],
      "guide": {
        "damageRatio": "QUEST_GUIDE_NPC",
        "param": [
          "1053"
        ],
        "guideScene": 3,
        "guideStyle": "QUEST_GUIDE_STYLE_TARGET",
        "guideLayer": "QUEST_GUIDE_LAYER_SCENE",
        "MLAHIFLGIGJ": ""
      },
      "guideHint": {
        "param1": ""
      },
      "isRewind": true,
      "versionBegin": "",
      "versionEnd": ""
    },
    {
      "subId": 302403,
      "mainId": 3024,
      "order": 8,
      "descTextMapHash": 1134867540,
      "JIFODJPFKDF": [
        330301
      ],
      "finishCond": [
        {
          "damageRatio": "QUEST_CONTENT_COMPLETE_TALK",
          "param": [
            302403,
            0
          ]
        }
      ],
      "guide": {
        "damageRatio": "QUEST_GUIDE_NPC",
        "param": [
          "12765"
        ],
        "guideScene": 3,
        "guideStyle": "QUEST_GUIDE_STYLE_TARGET",
        "guideLayer": "QUEST_GUIDE_LAYER_SCENE",
        "MLAHIFLGIGJ": ""
      },
      "guideHint": {
        "param1": ""
      },
      "isRewind": true,
      "versionBegin": "",
      "versionEnd": ""
    },
    {
      "subId": 302404,
      "mainId": 3024,
      "order": 9,
      "descTextMapHash": 3055227788,
      "JIFODJPFKDF": [
        330301,
        330308,
        330309
      ],
      "finishCond": [
        {
          "damageRatio": "QUEST_CONTENT_COMPLETE_TALK",
          "param": [
            302404,
            0
          ]
        }
      ],
      "guide": {
        "damageRatio": "QUEST_GUIDE_NPC",
        "param": [
          "1058"
        ],
        "guideScene": 3,
        "guideStyle": "QUEST_GUIDE_STYLE_TARGET",
        "guideLayer": "QUEST_GUIDE_LAYER_SCENE",
        "MLAHIFLGIGJ": ""
      },
      "guideHint": {
        "param1": ""
      },
      "isRewind": true,
      "finishExec": [
        {
          "damageRatio": "QUEST_EXEC_UNREGISTER_DYNAMIC_GROUP",
          "param": [
            "133304400"
          ]
        }
      ],
      "versionBegin": "",
      "versionEnd": ""
    },
    {
      "subId": 302405,
      "mainId": 3024,
      "order": 10,
      "descTextMapHash": 2926011820,
      "JIFODJPFKDF": [
        330301,
        330305
      ],
      "finishCond": [
        {
          "damageRatio": "QUEST_CONTENT_COMPLETE_TALK",
          "param": [
            302405,
            0
          ]
        }
      ],
      "guide": {
        "damageRatio": "QUEST_GUIDE_NPC",
        "param": [
          "12801"
        ],
        "guideScene": 3,
        "guideStyle": "QUEST_GUIDE_STYLE_TARGET",
        "guideLayer": "QUEST_GUIDE_LAYER_SCENE",
        "MLAHIFLGIGJ": ""
      },
      "guideHint": {
        "param1": ""
      },
      "isRewind": true,
      "finishExec": [
        {
          "damageRatio": "QUEST_EXEC_UNREGISTER_DYNAMIC_GROUP",
          "param": [
            "133303642"
          ]
        }
      ],
      "versionBegin": "",
      "versionEnd": ""
    },
    {
      "subId": 302406,
      "mainId": 3024,
      "order": 11,
      "descTextMapHash": 3848490612,
      "JIFODJPFKDF": [
        330301
      ],
      "finishCond": [
        {
          "damageRatio": "QUEST_CONTENT_GAME_TIME_TICK",
          "param": [
            2,
            0
          ]
        }
      ],
      "guide": {
        "MLAHIFLGIGJ": ""
      },
      "guideHint": {
        "param1": ""
      },
      "isRewind": true,
      "versionBegin": "",
      "versionEnd": ""
    },
    {
      "subId": 302407,
      "mainId": 3024,
      "order": 12,
      "descTextMapHash": 2835409764,
      "JIFODJPFKDF": [
        330301
      ],
      "finishCond": [
        {
          "damageRatio": "QUEST_CONTENT_COMPLETE_TALK",
          "param": [
            302407,
            0
          ]
        }
      ],
      "guide": {
        "damageRatio": "QUEST_GUIDE_LOCATION",
        "param": [
          "Q302407_T302407_N12803",
          "30"
        ],
        "guideScene": 3,
        "guideStyle": "QUEST_GUIDE_STYLE_TARGET",
        "guideLayer": "QUEST_GUIDE_LAYER_SCENE",
        "MLAHIFLGIGJ": ""
      },
      "guideHint": {
        "param1": ""
      },
      "isRewind": true,
      "versionBegin": "",
      "versionEnd": ""
    },
    {
      "subId": 302408,
      "mainId": 3024,
      "order": 13,
      "isMpBlock": true,
      "descTextMapHash": 2492972956,
      "JIFODJPFKDF": [
        330301
      ],
      "finishCond": [
        {
          "damageRatio": "QUEST_CONTENT_LUA_NOTIFY",
          "param": [
            0,
            0
          ],
          "count": 1
        }
      ],
      "failCond": [
        {
          "damageRatio": "QUEST_CONTENT_LEAVE_SCENE_RANGE",
          "param": [
            3,
            36
          ]
        },
        {
          "damageRatio": "QUEST_CONTENT_ANY_MANUAL_TRANSPORT",
          "param": [
            0,
            0
          ]
        },
        {
          "damageRatio": "QUEST_CONTENT_TEAM_DEAD",
          "param": [
            0,
            0
          ]
        },
        {
          "damageRatio": "QUEST_CONTENT_LUA_NOTIFY",
          "param": [
            0,
            0
          ],
          "count": 1
        }
      ],
      "guide": {
        "damageRatio": "QUEST_GUIDE_LOCATION",
        "param": [
          "guide_Q302408",
          "32"
        ],
        "guideScene": 3,
        "guideStyle": "QUEST_GUIDE_STYLE_POINT",
        "guideLayer": "QUEST_GUIDE_LAYER_SCENE",
        "MLAHIFLGIGJ": ""
      },
      "showGuide": "QUEST_GUIDE_ITEM_DISABLE",
      "guideHint": {
        "param1": ""
      },
      "finishExec": [
        {
          "damageRatio": "QUEST_EXEC_REFRESH_GROUP_SUITE",
          "param": [
            "3",
            "133310582,4"
          ]
        },
        {
          "damageRatio": "QUEST_EXEC_UNREGISTER_DYNAMIC_GROUP",
          "param": [
            "133310582",
            "1"
          ]
        },
        {
          "damageRatio": "QUEST_EXEC_UNREGISTER_DYNAMIC_GROUP",
          "param": [
            "133310589"
          ]
        }
      ],
      "failExec": [
        {
          "damageRatio": "QUEST_EXEC_ROLLBACK_QUEST",
          "param": [
            "302407"
          ]
        }
      ],
      "versionBegin": "",
      "versionEnd": ""
    },
    {
      "subId": 302409,
      "mainId": 3024,
      "order": 14,
      "descTextMapHash": 1547364884,
      "JIFODJPFKDF": [
        330301
      ],
      "finishCond": [
        {
          "damageRatio": "QUEST_CONTENT_COMPLETE_TALK",
          "param": [
            302409,
            0
          ]
        }
      ],
      "guide": {
        "damageRatio": "QUEST_GUIDE_LOCATION",
        "param": [
          "Q302409_T302409_N1058"
        ],
        "guideScene": 3,
        "guideStyle": "QUEST_GUIDE_STYLE_POINT",
        "guideLayer": "QUEST_GUIDE_LAYER_SCENE",
        "MLAHIFLGIGJ": ""
      },
      "guideHint": {
        "param1": ""
      },
      "finishParent": true,
      "isRewind": true,
      "finishExec": [
        {
          "damageRatio": "QUEST_EXEC_UNREGISTER_DYNAMIC_GROUP",
          "param": [
            "133310341"
          ]
        }
      ],
      "versionBegin": "",
      "versionEnd": ""
    },
    {
      "subId": 302410,
      "mainId": 3024,
      "order": 2,
      "descTextMapHash": 4332228,
      "JIFODJPFKDF": [
        330301
      ],
      "finishCond": [
        {
          "damageRatio": "QUEST_CONTENT_GAME_TIME_TICK",
          "param": [
            1,
            0
          ]
        }
      ],
      "guide": {
        "MLAHIFLGIGJ": ""
      },
      "guideHint": {
        "param1": ""
      },
      "isRewind": true,
      "versionBegin": "",
      "versionEnd": ""
    },
    {
      "subId": 302411,
      "mainId": 3024,
      "order": 5,
      "descTextMapHash": 2950538764,
      "JIFODJPFKDF": [
        330301,
        107701
      ],
      "finishCond": [
        {
          "damageRatio": "QUEST_CONTENT_COMPLETE_TALK",
          "param": [
            302411,
            0
          ]
        }
      ],
      "failCond": [
        {
          "damageRatio": "QUEST_CONTENT_LEAVE_SCENE",
          "param": [
            1077,
            0
          ]
        }
      ],
      "guide": {
        "damageRatio": "QUEST_GUIDE_NPC",
        "param": [
          "1053"
        ],
        "guideScene": 1077,
        "guideStyle": "QUEST_GUIDE_STYLE_TARGET",
        "guideLayer": "QUEST_GUIDE_LAYER_SCENE",
        "MLAHIFLGIGJ": ""
      },
      "guideHint": {
        "param1": ""
      },
      "isRewind": true,
      "failExec": [
        {
          "damageRatio": "QUEST_EXEC_ROLLBACK_QUEST",
          "param": [
            "302413"
          ]
        }
      ],
      "versionBegin": "",
      "versionEnd": ""
    },
    {
      "subId": 302412,
      "mainId": 3024,
      "order": 6,
      "isMpBlock": true,
      "descTextMapHash": 1059743868,
      "JIFODJPFKDF": [
        330301,
        330801
      ],
      "finishCond": [
        {
          "damageRatio": "QUEST_CONTENT_COMPLETE_TALK",
          "param": [
            302412,
            0
          ]
        }
      ],
      "guide": {
        "damageRatio": "QUEST_GUIDE_NPC",
        "param": [
          "1059"
        ],
        "guideScene": 3,
        "guideStyle": "QUEST_GUIDE_STYLE_TARGET",
        "guideLayer": "QUEST_GUIDE_LAYER_SCENE",
        "MLAHIFLGIGJ": ""
      },
      "guideHint": {
        "param1": ""
      },
      "versionBegin": "",
      "versionEnd": ""
    },
    {
      "subId": 302413,
      "mainId": 3024,
      "order": 4,
      "descTextMapHash": 579847556,
      "JIFODJPFKDF": [
        330301,
        107701
      ],
      "finishCond": [
        {
          "damageRatio": "QUEST_CONTENT_ENTER_ROOM",
          "param": [
            1077,
            0
          ]
        }
      ],
      "guide": {
        "damageRatio": "QUEST_GUIDE_LOCATION",
        "param": [
          "Q302411_T302411_N10000005",
          "0"
        ],
        "guideScene": 1077,
        "guideStyle": "QUEST_GUIDE_STYLE_POINT",
        "guideLayer": "QUEST_GUIDE_LAYER_SCENE",
        "MLAHIFLGIGJ": ""
      },
      "guideHint": {
        "param1": ""
      },
      "isRewind": true,
      "versionBegin": "",
      "versionEnd": ""
    },
    {
      "subId": 302414,
      "mainId": 3024,
      "order": 1,
      "descTextMapHash": 553413612,
      "JIFODJPFKDF": [
        330301
      ],
      "finishCond": [
        {
          "damageRatio": "QUEST_CONTENT_LEAVE_SCENE",
          "param": [
            1077,
            0
          ]
        }
      ],
      "guide": {
        "MLAHIFLGIGJ": ""
      },
      "guideHint": {
        "param1": ""
      },
      "isRewind": true,
      "versionBegin": "",
      "versionEnd": ""
    }
  ],
  "talks": [
    {
      "id": 302401,
      "beginWay": "TALK_BEGIN_MANUAL",
      "beginCond": [
        {
          "type": "QUEST_COND_STATE_EQUAL",
          "_param": [
            "302401",
            "2"
          ]
        }
      ],
      "priority": 5,
      "initDialog": 30240101,
      "npcId": [
        1059
      ],
      "performCfg": "QuestDialogue/AQ/Sumeru3_3024/Q302401",
      "heroTalk": "TALK_HERO_MAIN",
      "questId": 3024,
      "assetIndex": 8252939837954125541,
      "prePerformCfg": "",
      "lockGameTime": true
    },
    {
      "id": 302402,
      "beginWay": "TALK_BEGIN_MANUAL",
      "beginCond": [
        {
          "type": "QUEST_COND_STATE_EQUAL",
          "_param": [
            "302402",
            "2"
          ]
        }
      ],
      "priority": 5,
      "initDialog": 30240201,
      "npcId": [
        12709,
        1053
      ],
      "performCfg": "QuestDialogue/AQ/Sumeru3_3024/Q302402",
      "heroTalk": "TALK_HERO_MAIN",
      "questId": 3024,
      "assetIndex": 12942677721220746457,
      "prePerformCfg": "",
      "lockGameTime": true
    },
    {
      "id": 302403,
      "beginWay": "TALK_BEGIN_MANUAL",
      "beginCond": [
        {
          "type": "QUEST_COND_STATE_EQUAL",
          "_param": [
            "302403",
            "2"
          ]
        }
      ],
      "priority": 5,
      "initDialog": 30240301,
      "npcId": [
        1053,
        12765
      ],
      "performCfg": "QuestDialogue/AQ/Sumeru3_3024/Q302403",
      "heroTalk": "TALK_HERO_MAIN",
      "questId": 3024,
      "assetIndex": 16874053768986628292,
      "prePerformCfg": "",
      "lockGameTime": true
    },
    {
      "id": 302404,
      "beginWay": "TALK_BEGIN_MANUAL",
      "beginCond": [
        {
          "type": "QUEST_COND_STATE_EQUAL",
          "_param": [
            "302404",
            "2"
          ]
        }
      ],
      "priority": 5,
      "initDialog": 30240401,
      "npcId": [
        12709,
        1058
      ],
      "performCfg": "QuestDialogue/AQ/Sumeru3_3024/Q302404",
      "heroTalk": "TALK_HERO_MAIN",
      "questId": 3024,
      "assetIndex": 10845245775509928404,
      "prePerformCfg": "",
      "lockGameTime": true
    },
    {
      "id": 302405,
      "beginWay": "TALK_BEGIN_MANUAL",
      "beginCond": [
        {
          "type": "QUEST_COND_STATE_EQUAL",
          "_param": [
            "302405",
            "2"
          ]
        }
      ],
      "priority": 5,
      "initDialog": 30240501,
      "npcId": [
        12801,
        13123
      ],
      "performCfg": "QuestDialogue/AQ/Sumeru3_3024/Q302405",
      "heroTalk": "TALK_HERO_MAIN",
      "questId": 3024,
      "assetIndex": 10736801665316860357,
      "prePerformCfg": "",
      "lockGameTime": true
    },
    {
      "id": 302406,
      "beginWay": "TALK_BEGIN_MANUAL",
      "beginCondComb": "LOGIC_AND",
      "beginCond": [
        {
          "type": "QUEST_COND_STATE_EQUAL",
          "_param": [
            "302401",
            "3"
          ]
        },
        {
          "type": "QUEST_COND_QUEST_NOT_RECEIVE",
          "_param": [
            "302412",
            "1"
          ]
        }
      ],
      "priority": 3,
      "initDialog": 30240601,
      "npcId": [
        1059
      ],
      "performCfg": "QuestDialogue/AQ/Sumeru3_3024/Q302406",
      "heroTalk": "TALK_HERO_MAIN",
      "questId": 3024,
      "assetIndex": 6006125920128809137,
      "prePerformCfg": "",
      "lowPriority": true
    },
    {
      "id": 302407,
      "beginWay": "TALK_BEGIN_MANUAL",
      "beginCond": [
        {
          "type": "QUEST_COND_STATE_EQUAL",
          "_param": [
            "302407",
            "2"
          ]
        }
      ],
      "priority": 5,
      "initDialog": 30240701,
      "npcId": [
        1058,
        12801,
        12803,
        12709
      ],
      "performCfg": "QuestDialogue/AQ/Sumeru3_3024/Q302407",
      "heroTalk": "TALK_HERO_MAIN",
      "questId": 3024,
      "assetIndex": 3056510241586808544,
      "prePerformCfg": "",
      "lockGameTime": true
    },
    {
      "id": 302409,
      "beginWay": "TALK_BEGIN_MANUAL",
      "beginCond": [
        {
          "type": "QUEST_COND_STATE_EQUAL",
          "_param": [
            "302409",
            "2"
          ]
        }
      ],
      "priority": 5,
      "initDialog": 30240901,
      "npcId": [
        1058,
        12709,
        12801,
        12803
      ],
      "performCfg": "QuestDialogue/AQ/Sumeru3_3024/Q302409",
      "heroTalk": "TALK_HERO_MAIN",
      "questId": 3024,
      "assetIndex": 13729860286863182076,
      "prePerformCfg": "",
      "lockGameTime": true
    },
    {
      "id": 302410,
      "beginWay": "TALK_BEGIN_MANUAL",
      "beginCond": [
        {
          "type": "QUEST_COND_STATE_EQUAL",
          "_param": [
            "302412",
            "3"
          ]
        }
      ],
      "priority": 3,
      "initDialog": 30241001,
      "npcId": [
        1059
      ],
      "performCfg": "QuestDialogue/AQ/Sumeru3_3024/Q302410",
      "questId": 3024,
      "assetIndex": 7501386973629715999,
      "prePerformCfg": "",
      "lowPriority": true
    },
    {
      "id": 302411,
      "beginWay": "TALK_BEGIN_MANUAL",
      "beginCond": [
        {
          "type": "QUEST_COND_STATE_EQUAL",
          "_param": [
            "302411",
            "2"
          ]
        }
      ],
      "priority": 5,
      "initDialog": 30241101,
      "npcId": [
        1053,
        1052,
        1058
      ],
      "performCfg": "QuestDialogue/AQ/Sumeru3_3024/Q302411",
      "heroTalk": "TALK_HERO_MAIN",
      "questId": 3024,
      "assetIndex": 11615548926293768731,
      "prePerformCfg": ""
    },
    {
      "id": 302412,
      "beginWay": "TALK_BEGIN_MANUAL",
      "beginCond": [
        {
          "type": "QUEST_COND_STATE_EQUAL",
          "_param": [
            "302412",
            "2"
          ]
        }
      ],
      "priority": 5,
      "initDialog": 30241201,
      "npcId": [
        1059,
        1052
      ],
      "performCfg": "QuestDialogue/AQ/Sumeru3_3024/Q302412",
      "heroTalk": "TALK_HERO_MAIN",
      "questId": 3024,
      "assetIndex": 7827730681502992346,
      "prePerformCfg": "",
      "lockGameTime": true
    }
  ],
  "freeStyleDic": {
    "12803": [
      1120
    ]
  }
}