{
  "id": 3030,
  "resId": 1018,
  "series": 3029,
  "descTextMapHash": 1236736591,
  "EKEKACCODOE": 1307777670,
  "luaPath": "Actor/Quest/AQ3030",
  "suggestTrackMainQuestList": [
    3031
  ],
  "rewardIdList": [
    103030
  ],
  "chapterId": 1307,
  "subQuests": [
    {
      "subId": 303001,
      "mainId": 3030,
      "order": 99,
      "descTextMapHash": 4157935596,
      "guideTipsTextMapHash": 1273023886,
      "finishCond": [
        {
          "damageRatio": "QUEST_CONTENT_GAME_TIME_TICK",
          "param": [
            1,
            0
          ]
        }
      ],
      "guide": {
        "MLAHIFLGIGJ": ""
      },
      "guideHint": {
        "param1": ""
      },
      "versionBegin": "",
      "versionEnd": ""
    },
    {
      "subId": 303002,
      "mainId": 3030,
      "order": 1,
      "descTextMapHash": 4061249884,
      "JIFODJPFKDF": [
        322002
      ],
      "finishCond": [
        {
          "damageRatio": "QUEST_CONTENT_COMPLETE_TALK",
          "param": [
            303002,
            0
          ]
        }
      ],
      "guide": {
        "damageRatio": "QUEST_GUIDE_NPC",
        "param": [
          "3027"
        ],
        "guideScene": 3,
        "guideStyle": "QUEST_GUIDE_STYLE_TARGET",
        "guideLayer": "QUEST_GUIDE_LAYER_SCENE",
        "MLAHIFLGIGJ": ""
      },
      "guideHint": {
        "param1": ""
      },
      "isRewind": true,
      "versionBegin": "",
      "versionEnd": ""
    },
    {
      "subId": 303003,
      "mainId": 3030,
      "order": 98,
      "descTextMapHash": 557239876,
      "finishCond": [
        {
          "damageRatio": "QUEST_CONTENT_FINISH_PLOT",
          "param": [
            303003,
            0
          ]
        }
      ],
      "guide": {
        "damageRatio": "QUEST_GUIDE_NPC",
        "param": [
          "3045"
        ],
        "guideScene": 3,
        "guideStyle": "QUEST_GUIDE_STYLE_TARGET",
        "guideLayer": "QUEST_GUIDE_LAYER_SCENE",
        "MLAHIFLGIGJ": ""
      },
      "guideHint": {
        "param1": ""
      },
      "isRewind": true,
      "versionBegin": "",
      "versionEnd": ""
    },
    {
      "subId": 303004,
      "mainId": 3030,
      "order": 3,
      "descTextMapHash": 3911915692,
      "stepDescTextMapHash": 3342735397,
      "JIFODJPFKDF": [
        1911101
      ],
      "finishCond": [
        {
          "damageRatio": "QUEST_CONTENT_FINISH_PLOT",
          "param": [
            303004,
            0
          ]
        }
      ],
      "guide": {
        "damageRatio": "QUEST_GUIDE_LOCATION",
        "param": [
          "Q303004_guide",
          "20"
        ],
        "guideScene": 3,
        "guideStyle": "QUEST_GUIDE_STYLE_POINT",
        "guideLayer": "QUEST_GUIDE_LAYER_SCENE",
        "MLAHIFLGIGJ": ""
      },
      "guideHint": {
        "param1": ""
      },
      "isRewind": true,
      "versionBegin": "",
      "versionEnd": ""
    },
    {
      "subId": 303005,
      "mainId": 3030,
      "order": 97,
      "descTextMapHash": 285859068,
      "finishCond": [
        {
          "damageRatio": "QUEST_CONTENT_FINISH_PLOT",
          "param": [
            303005,
            0
          ]
        }
      ],
      "guide": {
        "damageRatio": "QUEST_GUIDE_NPC",
        "param": [
          "3162"
        ],
        "guideScene": 3,
        "guideStyle": "QUEST_GUIDE_STYLE_TARGET",
        "guideLayer": "QUEST_GUIDE_LAYER_SCENE",
        "MLAHIFLGIGJ": ""
      },
      "guideHint": {
        "param1": ""
      },
      "isRewind": true,
      "versionBegin": "",
      "versionEnd": ""
    },
    {
      "subId": 303006,
      "mainId": 3030,
      "order": 4,
      "descTextMapHash": 1450262060,
      "finishCond": [
        {
          "damageRatio": "QUEST_CONTENT_COMPLETE_TALK",
          "param": [
            303006,
            0
          ]
        },
        {
          "damageRatio": "QUEST_CONTENT_COMPLETE_TALK",
          "param": [
            303009,
            0
          ]
        }
      ],
      "guide": {
        "damageRatio": "QUEST_GUIDE_NPC",
        "param": [
          "3162"
        ],
        "guideScene": 3,
        "guideStyle": "QUEST_GUIDE_STYLE_TARGET",
        "guideLayer": "QUEST_GUIDE_LAYER_SCENE",
        "MLAHIFLGIGJ": ""
      },
      "guideHint": {
        "param1": ""
      },
      "finishParent": true,
      "isRewind": true,
      "finishExec": [
        {
          "damageRatio": "QUEST_EXEC_SET_QUEST_GLOBAL_VAR",
          "param": [
            "303001",
            "1"
          ]
        },
        {
          "damageRatio": "QUEST_EXEC_UNREGISTER_DYNAMIC_GROUP",
          "param": [
            "133212617"
          ]
        }
      ],
      "versionBegin": "",
      "versionEnd": ""
    },
    {
      "subId": 303007,
      "mainId": 3030,
      "order": 96,
      "descTextMapHash": 1560313452,
      "finishCond": [
        {
          "damageRatio": "QUEST_CONTENT_FINISH_PLOT",
          "param": [
            303007,
            0
          ]
        }
      ],
      "guide": {
        "damageRatio": "QUEST_GUIDE_NPC",
        "param": [
          "1033"
        ],
        "guideScene": 3,
        "guideStyle": "QUEST_GUIDE_STYLE_TARGET",
        "guideLayer": "QUEST_GUIDE_LAYER_SCENE",
        "MLAHIFLGIGJ": ""
      },
      "guideHint": {
        "param1": ""
      },
      "isRewind": true,
      "versionBegin": "",
      "versionEnd": ""
    },
    {
      "subId": 303008,
      "mainId": 3030,
      "order": 95,
      "descTextMapHash": 2888114740,
      "finishCond": [
        {
          "damageRatio": "QUEST_CONTENT_FINISH_PLOT",
          "param": [
            303008,
            0
          ]
        }
      ],
      "guide": {
        "damageRatio": "QUEST_GUIDE_NPC",
        "param": [
          "1033"
        ],
        "guideScene": 3,
        "guideStyle": "QUEST_GUIDE_STYLE_TARGET",
        "guideLayer": "QUEST_GUIDE_LAYER_SCENE",
        "MLAHIFLGIGJ": ""
      },
      "guideHint": {
        "param1": ""
      },
      "isRewind": true,
      "versionBegin": "",
      "versionEnd": ""
    },
    {
      "subId": 303009,
      "mainId": 3030,
      "order": 5,
      "descTextMapHash": 2347554124,
      "showType": "QUEST_HIDDEN",
      "finishCond": [
        {
          "damageRatio": "QUEST_CONTENT_COMPLETE_TALK",
          "param": [
            303006,
            0
          ]
        }
      ],
      "guide": {
        "MLAHIFLGIGJ": ""
      },
      "guideHint": {
        "param1": ""
      },
      "versionBegin": "",
      "versionEnd": ""
    },
    {
      "subId": 303010,
      "mainId": 3030,
      "order": 2,
      "descTextMapHash": 1822128756,
      "JIFODJPFKDF": [
        1911101
      ],
      "finishCond": [
        {
          "damageRatio": "QUEST_CONTENT_COMPLETE_TALK",
          "param": [
            303012,
            0
          ]
        },
        {
          "damageRatio": "QUEST_CONTENT_COMPLETE_TALK",
          "param": [
            303014,
            0
          ]
        }
      ],
      "guide": {
        "damageRatio": "QUEST_GUIDE_LOCATION",
        "param": [
          "Q303010_N3099",
          "20"
        ],
        "guideScene": 3,
        "guideStyle": "QUEST_GUIDE_STYLE_POINT",
        "guideLayer": "QUEST_GUIDE_LAYER_SCENE",
        "MLAHIFLGIGJ": ""
      },
      "guideHint": {
        "param1": ""
      },
      "isRewind": true,
      "versionBegin": "",
      "versionEnd": ""
    }
  ],
  "talks": [
    {
      "id": 303002,
      "beginWay": "TALK_BEGIN_MANUAL",
      "beginCond": [
        {
          "type": "QUEST_COND_STATE_EQUAL",
          "_param": [
            "303002",
            "2"
          ]
        }
      ],
      "priority": 5,
      "initDialog": 30300201,
      "npcId": [
        3027
      ],
      "performCfg": "QuestDialogue/AQ/Sumeru4_3030/Q303002",
      "heroTalk": "TALK_HERO_MAIN",
      "questId": 3030,
      "assetIndex": 4745794412930048428,
      "prePerformCfg": ""
    },
    {
      "id": 303006,
      "priority": 5,
      "initDialog": 30300602,
      "npcId": [
        3162
      ],
      "performCfg": "QuestDialogue/AQ/Sumeru4_3030/Q303006",
      "heroTalk": "TALK_HERO_MAIN",
      "questId": 3030,
      "assetIndex": 2882097523257643727,
      "prePerformCfg": "",
      "finishExec": [
        {
          "damageRatio": "TALK_EXEC_SAVE_TALK_ID",
          "param": [
            "303006"
          ]
        }
      ]
    },
    {
      "id": 303007,
      "beginWay": "TALK_BEGIN_MANUAL",
      "beginCondComb": "LOGIC_AND",
      "beginCond": [
        {
          "type": "QUEST_COND_STATE_EQUAL",
          "_param": [
            "303006",
            "2"
          ]
        },
        {
          "type": "QUEST_COND_STATE_EQUAL",
          "_param": [
            "303009",
            "2"
          ]
        }
      ],
      "priority": 5,
      "nextTalks": [
        303006
      ],
      "initDialog": 30300701,
      "npcId": [
        3162
      ],
      "performCfg": "QuestDialogue/AQ/Sumeru4_3030/Q303007",
      "heroTalk": "TALK_HERO_MAIN",
      "questId": 3030,
      "assetIndex": 7070467796056409905,
      "prePerformCfg": ""
    },
    {
      "id": 303008,
      "beginWay": "TALK_BEGIN_MANUAL",
      "beginCondComb": "LOGIC_AND",
      "beginCond": [
        {
          "type": "QUEST_COND_STATE_EQUAL",
          "_param": [
            "303006",
            "2"
          ]
        },
        {
          "type": "QUEST_COND_STATE_EQUAL",
          "_param": [
            "303009",
            "0"
          ]
        }
      ],
      "priority": 5,
      "nextTalks": [
        303009
      ],
      "initDialog": 30300801,
      "npcId": [
        3162
      ],
      "performCfg": "QuestDialogue/AQ/Sumeru4_3030/Q303008",
      "heroTalk": "TALK_HERO_MAIN",
      "questId": 3030,
      "assetIndex": 14865405387223226189,
      "prePerformCfg": ""
    },
    {
      "id": 303009,
      "priority": 5,
      "initDialog": 30300602,
      "npcId": [
        3162
      ],
      "performCfg": "QuestDialogue/AQ/Sumeru4_3030/Q303006",
      "heroTalk": "TALK_HERO_MAIN",
      "questId": 3030,
      "assetIndex": 16728394531245284993,
      "prePerformCfg": "",
      "finishExec": [
        {
          "damageRatio": "TALK_EXEC_SAVE_TALK_ID",
          "param": [
            "303009"
          ]
        }
      ]
    },
    {
      "id": 303010,
      "beginWay": "TALK_BEGIN_MANUAL",
      "beginCond": [
        {
          "type": "QUEST_COND_STATE_EQUAL",
          "_param": [
            "303010",
            "2"
          ]
        }
      ],
      "priority": 5,
      "nextTalks": [
        303012,
        303014
      ],
      "initDialog": 30301001,
      "npcId": [
        3099,
        3101
      ],
      "performCfg": "QuestDialogue/AQ/Sumeru4_3030/Q303010",
      "heroTalk": "TALK_HERO_MAIN",
      "questId": 3030,
      "assetIndex": 7013382230090111501,
      "prePerformCfg": ""
    },
    {
      "id": 303012,
      "beginCondComb": "LOGIC_AND",
      "beginCond": [
        {
          "type": "QUEST_COND_STATE_EQUAL",
          "_param": [
            "303010",
            "2"
          ]
        },
        {
          "type": "QUEST_COND_QUEST_GLOBAL_VAR_EQUAL",
          "_param": [
            "12035",
            "1"
          ]
        }
      ],
      "priority": 5,
      "initDialog": 30301201,
      "npcId": [
        3101
      ],
      "performCfg": "QuestDialogue/AQ/Sumeru4_3030/Q303012",
      "heroTalk": "TALK_HERO_MAIN",
      "questId": 3030,
      "assetIndex": 4781748817183648521,
      "prePerformCfg": "",
      "finishExec": [
        {
          "damageRatio": "TALK_EXEC_SAVE_TALK_ID",
          "param": [
            "303012"
          ]
        }
      ]
    },
    {
      "id": 303014,
      "beginCondComb": "LOGIC_AND",
      "beginCond": [
        {
          "type": "QUEST_COND_STATE_EQUAL",
          "_param": [
            "303010",
            "2"
          ]
        },
        {
          "type": "QUEST_COND_QUEST_GLOBAL_VAR_EQUAL",
          "_param": [
            "12035",
            "0"
          ]
        }
      ],
      "priority": 5,
      "initDialog": 30301401,
      "npcId": [
        3101,
        3099
      ],
      "performCfg": "QuestDialogue/AQ/Sumeru4_3030/Q303014",
      "heroTalk": "TALK_HERO_MAIN",
      "questId": 3030,
      "assetIndex": 10397395254871081009,
      "prePerformCfg": "",
      "finishExec": [
        {
          "damageRatio": "TALK_EXEC_SAVE_TALK_ID",
          "param": [
            "303014"
          ]
        }
      ]
    },
    {
      "id": 303015,
      "beginWay": "TALK_BEGIN_MANUAL",
      "beginCond": [
        {
          "type": "QUEST_COND_STATE_EQUAL",
          "_param": [
            "303010",
            "2"
          ]
        }
      ],
      "priority": 5,
      "initDialog": 30301501,
      "npcId": [
        3027
      ],
      "performCfg": "QuestDialogue/AQ/Sumeru4_3030/Q303015",
      "heroTalk": "TALK_HERO_MAIN",
      "questId": 3030,
      "assetIndex": 2376319325843569530,
      "prePerformCfg": ""
    },
    {
      "id": 303016,
      "beginWay": "TALK_BEGIN_MANUAL",
      "beginCond": [
        {
          "type": "QUEST_COND_STATE_EQUAL",
          "_param": [
            "303004",
            "2"
          ]
        }
      ],
      "priority": 5,
      "initDialog": 30301601,
      "npcId": [
        3101
      ],
      "performCfg": "QuestDialogue/AQ/Sumeru4_3030/Q303016",
      "heroTalk": "TALK_HERO_MAIN",
      "questId": 3030,
      "assetIndex": 10740795291394114601,
      "prePerformCfg": ""
    },
    {
      "id": 303017,
      "beginWay": "TALK_BEGIN_MANUAL",
      "beginCond": [
        {
          "type": "QUEST_COND_STATE_EQUAL",
          "_param": [
            "303004",
            "2"
          ]
        }
      ],
      "priority": 5,
      "initDialog": 30301701,
      "npcId": [
        3099
      ],
      "performCfg": "QuestDialogue/AQ/Sumeru4_3030/Q303017",
      "heroTalk": "TALK_HERO_MAIN",
      "questId": 3030,
      "assetIndex": 18175226791919206923,
      "prePerformCfg": ""
    }
  ],
  "preloadLuaList": [
    3009449474525310091,
    12688640561977382498,
    2805184099682867899,
    15213330413606476763
  ],
  "forcePreloadLuaList": [
    16432547245566692066
  ],
  "freeStyleDic": {
    "3162": [
      1230
    ]
  }
}