{
  "id": 318,
  "damageRatio": "WQ",
  "descTextMapHash": 3810169769,
  "luaPath": "Actor/Quest/IQ318",
  "showType": "QUEST_HIDDEN",
  "subQuests": [
    {
      "subId": 31801,
      "mainId": 318,
      "order": 1,
      "descTextMapHash": 3287132415,
      "showType": "QUEST_HIDDEN",
      "finishCond": [
        {
          "damageRatio": "QUEST_CONTENT_ADD_QUEST_PROGRESS",
          "param": [
            31801,
            0
          ],
          "count": 1
        }
      ],
      "guide": {
        "MLAHIFLGIGJ": ""
      },
      "guideHint": {
        "param1": ""
      },
      "isRewind": true,
      "versionBegin": "",
      "versionEnd": ""
    },
    {
      "subId": 31802,
      "mainId": 318,
      "order": 2,
      "descTextMapHash": 1627811743,
      "showType": "QUEST_HIDDEN",
      "finishCond": [
        {
          "damageRatio": "QUEST_CONTENT_COMPLETE_TALK",
          "param": [
            31802,
            0
          ]
        }
      ],
      "guide": {
        "MLAHIFLGIGJ": ""
      },
      "guideHint": {
        "param1": ""
      },
      "finishParent": true,
      "isRewind": true,
      "versionBegin": "",
      "versionEnd": ""
    }
  ],
  "talks": [
    {
      "id": 31802,
      "beginWay": "TALK_BEGIN_AUTO",
      "beginCond": [
        {
          "type": "QUEST_COND_STATE_EQUAL",
          "_param": [
            "31802",
            "2"
          ]
        }
      ],
      "initDialog": 3180201,
      "npcId": [
        10092
      ],
      "performCfg": "QuestDialogue/Q318/InterContainer_Q31802",
      "questId": 318,
      "assetIndex": 2636994088160529282,
      "prePerformCfg": ""
    }
  ]
}