{
  "id": 370,
  "resId": 1002,
  "series": 1002,
  "descTextMapHash": 2826605337,
  "EKEKACCODOE": 1581497687,
  "luaPath": "Actor/Quest/MQ370",
  "suggestTrackMainQuestList": [
    371
  ],
  "rewardIdList": [
    100370
  ],
  "chapterId": 1002,
  "showRedPoint": true,
  "subQuests": [
    {
      "subId": 37001,
      "mainId": 370,
      "order": 1,
      "descTextMapHash": 984138423,
      "finishCond": [
        {
          "damageRatio": "QUEST_CONTENT_FINISH_PLOT",
          "param": [
            37001,
            0
          ]
        }
      ],
      "guide": {
        "damageRatio": "QUEST_GUIDE_LOCATION",
        "param": [
          "Q37001Qin"
        ],
        "guideScene": 3,
        "MLAHIFLGIGJ": ""
      },
      "showGuide": "QUEST_GUIDE_ITEM_DISABLE",
      "guideHint": {
        "param1": ""
      },
      "isRewind": true,
      "versionBegin": "",
      "versionEnd": ""
    },
    {
      "subId": 37002,
      "mainId": 370,
      "order": 2,
      "descTextMapHash": 1235401567,
      "finishCond": [
        {
          "damageRatio": "QUEST_CONTENT_COMPLETE_TALK",
          "param": [
            37002,
            0
          ]
        }
      ],
      "guide": {
        "damageRatio": "QUEST_GUIDE_NPC",
        "param": [
          "1006"
        ],
        "guideScene": 3,
        "guideStyle": "QUEST_GUIDE_STYLE_TARGET",
        "guideLayer": "QUEST_GUIDE_LAYER_SCENE",
        "MLAHIFLGIGJ": ""
      },
      "guideHint": {
        "param1": ""
      },
      "versionBegin": "",
      "versionEnd": ""
    },
    {
      "subId": 37003,
      "mainId": 370,
      "order": 5,
      "descTextMapHash": 411942639,
      "showType": "QUEST_HIDDEN",
      "finishCond": [
        {
          "damageRatio": "QUEST_CONTENT_TRIGGER_FIRE",
          "param": [
            1067,
            0
          ]
        }
      ],
      "guide": {
        "MLAHIFLGIGJ": ""
      },
      "guideHint": {
        "param1": ""
      },
      "isRewind": true,
      "versionBegin": "",
      "versionEnd": ""
    },
    {
      "subId": 37004,
      "mainId": 370,
      "order": 3,
      "descTextMapHash": 556300975,
      "finishCond": [
        {
          "damageRatio": "QUEST_CONTENT_ENTER_ROOM",
          "param": [
            1004,
            0
          ]
        }
      ],
      "guide": {
        "damageRatio": "QUEST_GUIDE_LOCATION",
        "param": [
          "QuestKnighthood"
        ],
        "guideScene": 3,
        "MLAHIFLGIGJ": ""
      },
      "guideHint": {
        "param1": ""
      },
      "isRewind": true,
      "versionBegin": "",
      "versionEnd": ""
    },
    {
      "subId": 37005,
      "mainId": 370,
      "order": 4,
      "descTextMapHash": 3633474671,
      "finishCond": [
        {
          "damageRatio": "QUEST_CONTENT_COMPLETE_TALK",
          "param": [
            37005,
            0
          ]
        }
      ],
      "guide": {
        "damageRatio": "QUEST_GUIDE_LOCATION",
        "param": [
          "QuestDoorin"
        ],
        "guideScene": 1004,
        "MLAHIFLGIGJ": ""
      },
      "guideHint": {
        "param1": ""
      },
      "finishParent": true,
      "isRewind": true,
      "versionBegin": "",
      "versionEnd": ""
    }
  ],
  "talks": [
    {
      "id": 37002,
      "beginWay": "TALK_BEGIN_MANUAL",
      "beginCond": [
        {
          "type": "QUEST_COND_STATE_EQUAL",
          "_param": [
            "37002",
            "2"
          ]
        }
      ],
      "priority": 1,
      "initDialog": 3700201,
      "npcId": [
        1006
      ],
      "performCfg": "QuestDialogue/AQ/Mengde2_370/Q37002",
      "heroTalk": "TALK_HERO_MAIN",
      "questId": 370,
      "assetIndex": 7506840669969991729,
      "prePerformCfg": ""
    },
    {
      "id": 37005,
      "beginWay": "TALK_BEGIN_MANUAL",
      "beginCond": [
        {
          "type": "QUEST_COND_STATE_EQUAL",
          "_param": [
            "37005",
            "2"
          ]
        }
      ],
      "priority": 1,
      "initDialog": 3700401,
      "npcId": [
        1006
      ],
      "performCfg": "QuestDialogue/AQ/Mengde2_370/Q37004",
      "heroTalk": "TALK_HERO_MAIN",
      "questId": 370,
      "assetIndex": 9570951292640168001,
      "prePerformCfg": ""
    }
  ],
  "preloadLuaList": [
    4543246233805805157,
    3958618578976986035,
    14457059026087496718,
    15533670364053042963
  ],
  "forcePreloadLuaList": [
    1942412822962229778
  ]
}