{
  "id": 379,
  "resId": 1002,
  "series": 1002,
  "descTextMapHash": 248114793,
  "EKEKACCODOE": 3192957559,
  "luaPath": "Actor/Quest/MQ379",
  "suggestTrackMainQuestList": [
    380,
    381,
    382
  ],
  "rewardIdList": [
    100379
  ],
  "chapterId": 1002,
  "subQuests": [
    {
      "subId": 37901,
      "mainId": 379,
      "order": 1,
      "isMpBlock": true,
      "descTextMapHash": 2594881711,
      "finishCond": [
        {
          "damageRatio": "QUEST_CONTENT_ENTER_ROOM",
          "param": [
            1009,
            0
          ]
        }
      ],
      "guide": {
        "damageRatio": "QUEST_GUIDE_LOCATION",
        "param": [
          "QuestBarUI"
        ],
        "guideScene": 3,
        "guideStyle": "QUEST_GUIDE_STYLE_TARGET",
        "guideLayer": "QUEST_GUIDE_LAYER_UI",
        "MLAHIFLGIGJ": ""
      },
      "guideHint": {
        "param1": ""
      },
      "isRewind": true,
      "versionBegin": "",
      "versionEnd": ""
    },
    {
      "subId": 37902,
      "mainId": 379,
      "order": 2,
      "isMpBlock": true,
      "descTextMapHash": 145080711,
      "finishCond": [
        {
          "damageRatio": "QUEST_CONTENT_COMPLETE_TALK",
          "param": [
            37902,
            0
          ]
        }
      ],
      "guide": {
        "damageRatio": "QUEST_GUIDE_NPC",
        "param": [
          "1001"
        ],
        "guideScene": 1009,
        "guideStyle": "QUEST_GUIDE_STYLE_TARGET",
        "guideLayer": "QUEST_GUIDE_LAYER_SCENE",
        "MLAHIFLGIGJ": ""
      },
      "guideHint": {
        "param1": ""
      },
      "isRewind": true,
      "versionBegin": "",
      "versionEnd": ""
    },
    {
      "subId": 37903,
      "mainId": 379,
      "order": 3,
      "isMpBlock": true,
      "descTextMapHash": 742669735,
      "finishCond": [
        {
          "damageRatio": "QUEST_CONTENT_FINISH_PLOT",
          "param": [
            37903,
            0
          ]
        }
      ],
      "guide": {
        "damageRatio": "QUEST_GUIDE_NPC",
        "param": [
          "1001"
        ],
        "guideScene": 1009,
        "guideStyle": "QUEST_GUIDE_STYLE_TARGET",
        "guideLayer": "QUEST_GUIDE_LAYER_SCENE",
        "MLAHIFLGIGJ": ""
      },
      "guideHint": {
        "param1": ""
      },
      "finishExec": [
        {
          "damageRatio": "QUEST_EXEC_DEL_PACK_ITEM",
          "param": [
            "100161",
            "1"
          ]
        },
        {
          "damageRatio": "QUEST_EXEC_DEL_PACK_ITEM",
          "param": [
            "100164",
            "1"
          ]
        }
      ],
      "versionBegin": "",
      "versionEnd": ""
    },
    {
      "subId": 37904,
      "mainId": 379,
      "order": 4,
      "isMpBlock": true,
      "descTextMapHash": 1594139127,
      "finishCond": [
        {
          "damageRatio": "QUEST_CONTENT_COMPLETE_TALK",
          "param": [
            37904,
            0
          ]
        }
      ],
      "guide": {
        "damageRatio": "QUEST_GUIDE_NPC",
        "param": [
          "1006"
        ],
        "guideScene": 1009,
        "guideStyle": "QUEST_GUIDE_STYLE_TARGET",
        "guideLayer": "QUEST_GUIDE_LAYER_SCENE",
        "MLAHIFLGIGJ": ""
      },
      "guideHint": {
        "param1": ""
      },
      "finishParent": true,
      "isRewind": true,
      "versionBegin": "",
      "versionEnd": ""
    }
  ],
  "talks": [
    {
      "id": 37902,
      "beginWay": "TALK_BEGIN_MANUAL",
      "beginCondComb": "LOGIC_AND",
      "beginCond": [
        {
          "type": "QUEST_COND_STATE_EQUAL",
          "_param": [
            "37901",
            "3"
          ]
        },
        {
          "type": "QUEST_COND_STATE_EQUAL",
          "_param": [
            "37902",
            "2"
          ]
        }
      ],
      "priority": 1,
      "nextTalks": [
        37903
      ],
      "initDialog": 3790201,
      "npcId": [
        1001
      ],
      "performCfg": "QuestDialogue/AQ/Mengde2_379/Q37902",
      "heroTalk": "TALK_HERO_MAIN",
      "questId": 379,
      "assetIndex": 1234635118207973491,
      "prePerformCfg": ""
    },
    {
      "id": 37903,
      "priority": 1,
      "initDialog": 3790222,
      "npcId": [
        1001
      ],
      "performCfg": "",
      "heroTalk": "TALK_HERO_MAIN",
      "questId": 379,
      "assetIndex": 6902649493140559595,
      "prePerformCfg": ""
    },
    {
      "id": 37904,
      "beginWay": "TALK_BEGIN_AUTO",
      "beginCond": [
        {
          "type": "QUEST_COND_STATE_EQUAL",
          "_param": [
            "37904",
            "2"
          ]
        }
      ],
      "priority": 1,
      "initDialog": 3790401,
      "npcId": [
        1006
      ],
      "performCfg": "QuestDialogue/AQ/Mengde2_379/Q37904",
      "heroTalk": "TALK_HERO_MAIN",
      "questId": 379,
      "assetIndex": 5803520781016017895,
      "prePerformCfg": ""
    }
  ],
  "preloadLuaList": [
    2268650960672206304,
    3088369788188086520,
    4543246233805805157
  ]
}