{
  "id": 380,
  "resId": 1002,
  "series": 1002,
  "descTextMapHash": 2383852777,
  "EKEKACCODOE": 2705724775,
  "luaPath": "Actor/Quest/MQ380",
  "suggestTrackMainQuestList": [
    381,
    382,
    383
  ],
  "rewardIdList": [
    100380
  ],
  "chapterId": 1002,
  "subQuests": [
    {
      "subId": 38001,
      "mainId": 380,
      "order": 1,
      "descTextMapHash": 249899831,
      "finishCond": [
        {
          "damageRatio": "QUEST_CONTENT_FINISH_PLOT",
          "param": [
            38001,
            0
          ]
        }
      ],
      "guide": {
        "damageRatio": "QUEST_GUIDE_LOCATION",
        "param": [
          "DUMMY_POS 3003390",
          "40"
        ],
        "guideScene": 3,
        "MLAHIFLGIGJ": ""
      },
      "showGuide": "QUEST_GUIDE_ITEM_DISABLE",
      "guideHint": {
        "param1": ""
      },
      "isRewind": true,
      "finishExec": [
        {
          "damageRatio": "QUEST_EXEC_NOTIFY_GROUP_LUA",
          "param": [
            "3",
            "133003151"
          ]
        }
      ],
      "versionBegin": "",
      "versionEnd": ""
    },
    {
      "subId": 38002,
      "mainId": 380,
      "order": 2,
      "isMpBlock": true,
      "descTextMapHash": 1035206095,
      "finishCond": [
        {
          "damageRatio": "QUEST_CONTENT_CLEAR_GROUP_MONSTER",
          "param": [
            133003151,
            0
          ]
        }
      ],
      "guide": {
        "damageRatio": "QUEST_GUIDE_LOCATION",
        "param": [
          "DUMMY_POS 3003390",
          "40"
        ],
        "guideScene": 3,
        "MLAHIFLGIGJ": ""
      },
      "showGuide": "QUEST_GUIDE_ITEM_DISABLE",
      "guideHint": {
        "param1": ""
      },
      "versionBegin": "",
      "versionEnd": ""
    },
    {
      "subId": 38003,
      "mainId": 380,
      "order": 3,
      "isMpBlock": true,
      "descTextMapHash": 304518935,
      "finishCond": [
        {
          "damageRatio": "QUEST_CONTENT_OBTAIN_ITEM",
          "param": [
            100158,
            0
          ]
        }
      ],
      "guide": {
        "damageRatio": "QUEST_GUIDE_LOCATION",
        "param": [
          "Quest380"
        ],
        "guideScene": 3,
        "guideStyle": "QUEST_GUIDE_STYLE_TARGET",
        "guideLayer": "QUEST_GUIDE_LAYER_UI",
        "MLAHIFLGIGJ": ""
      },
      "guideHint": {
        "param1": ""
      },
      "isRewind": true,
      "finishExec": [
        {
          "damageRatio": "QUEST_EXEC_NOTIFY_GROUP_LUA",
          "param": [
            "3",
            "133003151"
          ]
        }
      ],
      "versionBegin": "",
      "versionEnd": ""
    },
    {
      "subId": 38004,
      "mainId": 380,
      "order": 4,
      "descTextMapHash": 4092135879,
      "finishCond": [
        {
          "damageRatio": "QUEST_CONTENT_COMPLETE_TALK",
          "param": [
            38004,
            0
          ]
        }
      ],
      "guide": {
        "damageRatio": "QUEST_GUIDE_LOCATION",
        "param": [
          "Q380Player"
        ],
        "guideScene": 3,
        "guideStyle": "QUEST_GUIDE_STYLE_POINT",
        "guideLayer": "QUEST_GUIDE_LAYER_SCENE",
        "MLAHIFLGIGJ": ""
      },
      "guideHint": {
        "param1": ""
      },
      "finishParent": true,
      "isRewind": true,
      "versionBegin": "",
      "versionEnd": ""
    }
  ],
  "talks": [
    {
      "id": 37905,
      "beginWay": "TALK_BEGIN_MANUAL",
      "beginCondComb": "LOGIC_AND",
      "beginCond": [
        {
          "type": "QUEST_COND_STATE_EQUAL",
          "_param": [
            "38001",
            "2"
          ]
        },
        {
          "type": "QUEST_COND_STATE_EQUAL",
          "_param": [
            "38101",
            "2"
          ]
        }
      ],
      "priority": 1,
      "initDialog": 3790501,
      "npcId": [
        1001
      ],
      "performCfg": "",
      "heroTalk": "TALK_HERO_MAIN",
      "questId": 380,
      "assetIndex": 2983430029922895920,
      "prePerformCfg": ""
    },
    {
      "id": 37906,
      "beginWay": "TALK_BEGIN_MANUAL",
      "beginCondComb": "LOGIC_AND",
      "beginCond": [
        {
          "type": "QUEST_COND_STATE_EQUAL",
          "_param": [
            "38001",
            "2"
          ]
        },
        {
          "type": "QUEST_COND_STATE_EQUAL",
          "_param": [
            "38101",
            "2"
          ]
        }
      ],
      "initDialog": 3790502,
      "npcId": [
        1006
      ],
      "performCfg": "",
      "heroTalk": "TALK_HERO_MAIN",
      "questId": 380,
      "assetIndex": 13487101943002970623,
      "prePerformCfg": ""
    },
    {
      "id": 37907,
      "beginWay": "TALK_BEGIN_MANUAL",
      "beginCondComb": "LOGIC_AND",
      "beginCond": [
        {
          "type": "QUEST_COND_STATE_EQUAL",
          "_param": [
            "38001",
            "2"
          ]
        },
        {
          "type": "QUEST_COND_STATE_EQUAL",
          "_param": [
            "38101",
            "2"
          ]
        }
      ],
      "initDialog": 3790503,
      "npcId": [
        1009
      ],
      "performCfg": "",
      "heroTalk": "TALK_HERO_MAIN",
      "questId": 380,
      "assetIndex": 2418229248835085249,
      "prePerformCfg": ""
    },
    {
      "id": 38004,
      "beginWay": "TALK_BEGIN_MANUAL",
      "beginCond": [
        {
          "type": "QUEST_COND_STATE_EQUAL",
          "_param": [
            "38004",
            "2"
          ]
        }
      ],
      "initDialog": 3810118,
      "npcId": [
        1006
      ],
      "performCfg": "QuestDialogue/AQ/Mengde2_381/Q38101",
      "heroTalk": "TALK_HERO_MAIN",
      "questId": 380,
      "assetIndex": 3152637609409656003,
      "prePerformCfg": ""
    }
  ],
  "preloadLuaList": [
    2268650960672206304,
    4543246233805805157,
    14457059026087496718,
    5168223786691361788
  ],
  "forcePreloadLuaList": [
    1796917076466884063
  ]
}