{
  "id": 383,
  "resId": 1002,
  "series": 1002,
  "descTextMapHash": 3395488209,
  "EKEKACCODOE": 4282875479,
  "luaPath": "Actor/Quest/MQ383",
  "suggestTrackMainQuestList": [
    384
  ],
  "rewardIdList": [
    100383
  ],
  "chapterId": 1002,
  "subQuests": [
    {
      "subId": 38301,
      "mainId": 383,
      "order": 1,
      "isMpBlock": true,
      "descTextMapHash": 3476920543,
      "finishCond": [
        {
          "damageRatio": "QUEST_CONTENT_TRIGGER_FIRE",
          "param": [
            1035,
            0
          ]
        }
      ],
      "guide": {
        "damageRatio": "QUEST_GUIDE_LOCATION",
        "param": [
          "Q383Mark"
        ],
        "guideScene": 3,
        "MLAHIFLGIGJ": ""
      },
      "guideHint": {
        "param1": ""
      },
      "versionBegin": "",
      "versionEnd": ""
    },
    {
      "subId": 38302,
      "mainId": 383,
      "order": 2,
      "isMpBlock": true,
      "descTextMapHash": 1927513367,
      "finishCond": [
        {
          "damageRatio": "QUEST_CONTENT_COMPLETE_TALK",
          "param": [
            38302,
            0
          ]
        }
      ],
      "guide": {
        "damageRatio": "QUEST_GUIDE_NPC",
        "param": [
          "1006"
        ],
        "guideScene": 3,
        "guideStyle": "QUEST_GUIDE_STYLE_TARGET",
        "guideLayer": "QUEST_GUIDE_LAYER_SCENE",
        "MLAHIFLGIGJ": ""
      },
      "guideHint": {
        "param1": ""
      },
      "isRewind": true,
      "versionBegin": "",
      "versionEnd": ""
    },
    {
      "subId": 38303,
      "mainId": 383,
      "order": 3,
      "isMpBlock": true,
      "descTextMapHash": 2219058455,
      "finishCond": [
        {
          "damageRatio": "QUEST_CONTENT_FINISH_PLOT",
          "param": [
            0,
            0
          ]
        }
      ],
      "guide": {
        "damageRatio": "QUEST_GUIDE_NPC",
        "param": [
          "1001"
        ],
        "guideScene": 3,
        "guideStyle": "QUEST_GUIDE_STYLE_TARGET",
        "guideLayer": "QUEST_GUIDE_LAYER_SCENE",
        "MLAHIFLGIGJ": ""
      },
      "guideHint": {
        "param1": ""
      },
      "finishExec": [
        {
          "damageRatio": "QUEST_EXEC_DEL_PACK_ITEM",
          "param": [
            "100162",
            "1"
          ]
        },
        {
          "damageRatio": "QUEST_EXEC_DEL_PACK_ITEM_BATCH",
          "param": [
            "100158:1,100159:1,100160:1"
          ]
        }
      ],
      "versionBegin": "",
      "versionEnd": ""
    },
    {
      "subId": 38304,
      "mainId": 383,
      "order": 4,
      "isMpBlock": true,
      "descTextMapHash": 1098076431,
      "showType": "QUEST_HIDDEN",
      "finishCond": [
        {
          "damageRatio": "QUEST_CONTENT_COMPLETE_TALK",
          "param": [
            38304,
            0
          ]
        }
      ],
      "guide": {
        "damageRatio": "QUEST_GUIDE_NPC",
        "param": [
          "1006"
        ],
        "guideScene": 3,
        "guideStyle": "QUEST_GUIDE_STYLE_TARGET",
        "guideLayer": "QUEST_GUIDE_LAYER_SCENE",
        "MLAHIFLGIGJ": ""
      },
      "guideHint": {
        "param1": ""
      },
      "finishParent": true,
      "isRewind": true,
      "versionBegin": "",
      "versionEnd": ""
    }
  ],
  "talks": [
    {
      "id": 38302,
      "beginWay": "TALK_BEGIN_MANUAL",
      "beginCondComb": "LOGIC_AND",
      "beginCond": [
        {
          "type": "QUEST_COND_STATE_EQUAL",
          "_param": [
            "38301",
            "3"
          ]
        },
        {
          "type": "QUEST_COND_STATE_EQUAL",
          "_param": [
            "38302",
            "2"
          ]
        }
      ],
      "priority": 1,
      "nextTalks": [
        38303
      ],
      "initDialog": 3830201,
      "npcId": [
        1006
      ],
      "performCfg": "QuestDialogue/AQ/Mengde2_383/Q38302",
      "heroTalk": "TALK_HERO_MAIN",
      "questId": 383,
      "assetIndex": 1846033870058688463,
      "prePerformCfg": ""
    },
    {
      "id": 38303,
      "priority": 1,
      "initDialog": 3830211,
      "npcId": [
        1001
      ],
      "performCfg": "",
      "heroTalk": "TALK_HERO_MAIN",
      "questId": 383,
      "assetIndex": 6282767778172521948,
      "prePerformCfg": ""
    },
    {
      "id": 38304,
      "beginWay": "TALK_BEGIN_MANUAL",
      "beginCondComb": "LOGIC_AND",
      "beginCond": [
        {
          "type": "QUEST_COND_STATE_EQUAL",
          "_param": [
            "38303",
            "3"
          ]
        },
        {
          "type": "QUEST_COND_STATE_EQUAL",
          "_param": [
            "38304",
            "2"
          ]
        }
      ],
      "priority": 1,
      "initDialog": 3830401,
      "npcId": [
        1006
      ],
      "performCfg": "QuestDialogue/AQ/Mengde2_383/Q38304",
      "heroTalk": "TALK_HERO_MAIN",
      "questId": 383,
      "assetIndex": 12780232625288534366,
      "prePerformCfg": ""
    }
  ],
  "preloadLuaList": [
    2268650960672206304,
    3088369788188086520,
    4543246233805805157
  ]
}