{
  "id": 397,
  "resId": 1003,
  "series": 1003,
  "descTextMapHash": 2779564865,
  "EKEKACCODOE": 3837585879,
  "luaPath": "Actor/Quest/MQ397",
  "suggestTrackMainQuestList": [
    388
  ],
  "rewardIdList": [
    100397
  ],
  "chapterId": 1003,
  "showRedPoint": true,
  "subQuests": [
    {
      "subId": 39701,
      "mainId": 397,
      "order": 1,
      "descTextMapHash": 619580703,
      "finishCond": [
        {
          "damageRatio": "QUEST_CONTENT_TRIGGER_FIRE",
          "param": [
            1123,
            0
          ]
        }
      ],
      "guide": {
        "damageRatio": "QUEST_GUIDE_LOCATION",
        "param": [
          "Q39702Diluc"
        ],
        "guideScene": 3,
        "MLAHIFLGIGJ": ""
      },
      "guideHint": {
        "param1": ""
      },
      "isRewind": true,
      "versionBegin": "",
      "versionEnd": ""
    },
    {
      "subId": 39702,
      "mainId": 397,
      "order": 2,
      "descTextMapHash": 3821761479,
      "finishCond": [
        {
          "damageRatio": "QUEST_CONTENT_COMPLETE_TALK",
          "param": [
            39702,
            0
          ]
        }
      ],
      "guide": {
        "damageRatio": "QUEST_GUIDE_NPC",
        "param": [
          "1009"
        ],
        "guideScene": 3,
        "guideStyle": "QUEST_GUIDE_STYLE_TARGET",
        "guideLayer": "QUEST_GUIDE_LAYER_SCENE",
        "MLAHIFLGIGJ": ""
      },
      "guideHint": {
        "param1": ""
      },
      "versionBegin": "",
      "versionEnd": ""
    },
    {
      "subId": 39703,
      "mainId": 397,
      "order": 4,
      "isMpBlock": true,
      "descTextMapHash": 410566151,
      "JIFODJPFKDF": [
        301
      ],
      "finishCond": [
        {
          "damageRatio": "QUEST_CONTENT_CLEAR_GROUP_MONSTER",
          "param": [
            133002233,
            0
          ]
        }
      ],
      "failCond": [
        {
          "damageRatio": "QUEST_CONTENT_TEAM_DEAD",
          "param": [
            0,
            0
          ]
        },
        {
          "damageRatio": "QUEST_CONTENT_NOT_FINISH_PLOT",
          "param": [
            39703,
            0
          ]
        }
      ],
      "guide": {
        "damageRatio": "QUEST_GUIDE_LOCATION",
        "param": [
          "Q38406Player",
          "60"
        ],
        "guideScene": 3,
        "MLAHIFLGIGJ": ""
      },
      "guideHint": {
        "param1": ""
      },
      "isRewind": true,
      "failExec": [
        {
          "damageRatio": "QUEST_EXEC_ROLLBACK_QUEST",
          "param": [
            "39703"
          ]
        },
        {
          "damageRatio": "QUEST_EXEC_REFRESH_GROUP_SUITE",
          "param": [
            "3",
            "133002233,2"
          ]
        }
      ],
      "versionBegin": "",
      "versionEnd": ""
    },
    {
      "subId": 39704,
      "mainId": 397,
      "order": 5,
      "isMpBlock": true,
      "descTextMapHash": 1144244215,
      "JIFODJPFKDF": [
        301
      ],
      "finishCond": [
        {
          "damageRatio": "QUEST_CONTENT_COMPLETE_TALK",
          "param": [
            39704,
            0
          ]
        }
      ],
      "guide": {
        "damageRatio": "QUEST_GUIDE_NPC",
        "param": [
          "1001"
        ],
        "guideScene": 3,
        "guideStyle": "QUEST_GUIDE_STYLE_TARGET",
        "guideLayer": "QUEST_GUIDE_LAYER_SCENE",
        "MLAHIFLGIGJ": ""
      },
      "guideHint": {
        "param1": ""
      },
      "finishParent": true,
      "isRewind": true,
      "finishExec": [
        {
          "damageRatio": "QUEST_EXEC_REFRESH_GROUP_SUITE",
          "param": [
            "3",
            "133002233,1"
          ]
        }
      ],
      "versionBegin": "",
      "versionEnd": ""
    },
    {
      "subId": 39705,
      "mainId": 397,
      "order": 3,
      "descTextMapHash": 3803636791,
      "showType": "QUEST_HIDDEN",
      "finishCond": [
        {
          "damageRatio": "QUEST_CONTENT_GAME_TIME_TICK",
          "param": [
            0,
            0
          ]
        }
      ],
      "guide": {
        "MLAHIFLGIGJ": ""
      },
      "guideHint": {
        "param1": ""
      },
      "versionBegin": "",
      "versionEnd": ""
    }
  ],
  "talks": [
    {
      "id": 39702,
      "beginWay": "TALK_BEGIN_MANUAL",
      "beginCond": [
        {
          "type": "QUEST_COND_STATE_EQUAL",
          "_param": [
            "39702",
            "2"
          ]
        }
      ],
      "priority": 1,
      "initDialog": 3970201,
      "npcId": [
        1009
      ],
      "performCfg": "QuestDialogue/AQ/Mengde3_397/Q39702",
      "heroTalk": "TALK_HERO_MAIN",
      "questId": 397,
      "assetIndex": 17714317953531312371,
      "prePerformCfg": ""
    },
    {
      "id": 39704,
      "beginWay": "TALK_BEGIN_MANUAL",
      "beginCond": [
        {
          "type": "QUEST_COND_STATE_EQUAL",
          "_param": [
            "39704",
            "2"
          ]
        }
      ],
      "priority": 1,
      "initDialog": 3970401,
      "npcId": [
        1001
      ],
      "performCfg": "QuestDialogue/AQ/Mengde3_397/Q39704",
      "heroTalk": "TALK_HERO_MAIN",
      "questId": 397,
      "assetIndex": 15203512273296471593,
      "prePerformCfg": ""
    }
  ],
  "preloadLuaList": [
    3088369788188086520,
    2268650960672206304,
    4543246233805805157,
    14457059026087496718
  ]
}