{
  "id": 40010,
  "resId": 4005,
  "series": 10027,
  "damageRatio": "EQ",
  "descTextMapHash": 3345717439,
  "EKEKACCODOE": 2713279286,
  "luaPath": "Actor/Quest/EQ40010",
  "suggestTrackMainQuestList": [
    40011
  ],
  "rewardIdList": [
    140010
  ],
  "chapterId": 10027,
  "showRedPoint": true,
  "subQuests": [
    {
      "subId": 4001001,
      "mainId": 40010,
      "order": 1,
      "descTextMapHash": 1427467460,
      "finishCond": [
        {
          "damageRatio": "QUEST_CONTENT_LUA_NOTIFY",
          "param": [
            0,
            0
          ],
          "count": 1
        }
      ],
      "guide": {
        "damageRatio": "QUEST_GUIDE_LOCATION",
        "param": [
          "QuestKnighthood"
        ],
        "guideScene": 3,
        "guideStyle": "QUEST_GUIDE_STYLE_TARGET",
        "guideLayer": "QUEST_GUIDE_LAYER_SCENE",
        "MLAHIFLGIGJ": ""
      },
      "guideHint": {
        "param1": ""
      },
      "isRewind": true,
      "finishExec": [
        {
          "damageRatio": "QUEST_EXEC_REFRESH_GROUP_SUITE",
          "param": [
            "1004",
            "201004006,1"
          ]
        },
        {
          "damageRatio": "QUEST_EXEC_SET_WEATHER_GADGET",
          "param": [
            "2145",
            "1"
          ]
        },
        {
          "damageRatio": "QUEST_EXEC_SET_WEATHER_GADGET",
          "param": [
            "2146",
            "1"
          ]
        },
        {
          "damageRatio": "QUEST_EXEC_SET_WEATHER_GADGET",
          "param": [
            "2147",
            "1"
          ]
        },
        {
          "damageRatio": "QUEST_EXEC_SET_WEATHER_GADGET",
          "param": [
            "2149",
            "1"
          ]
        }
      ],
      "versionBegin": "",
      "versionEnd": ""
    },
    {
      "subId": 4001002,
      "mainId": 40010,
      "order": 2,
      "descTextMapHash": 1568575428,
      "stepDescTextMapHash": 1700941045,
      "finishCond": [
        {
          "damageRatio": "QUEST_CONTENT_COMPLETE_TALK",
          "param": [
            4001001,
            0
          ]
        }
      ],
      "guide": {
        "damageRatio": "QUEST_GUIDE_NPC",
        "param": [
          "10090"
        ],
        "guideScene": 1004,
        "guideStyle": "QUEST_GUIDE_STYLE_TARGET",
        "guideLayer": "QUEST_GUIDE_LAYER_SCENE",
        "MLAHIFLGIGJ": ""
      },
      "guideHint": {
        "param1": ""
      },
      "isRewind": true,
      "finishExec": [
        {
          "damageRatio": "QUEST_EXEC_SET_WEATHER_GADGET",
          "param": [
            "2150",
            "1"
          ]
        }
      ],
      "versionBegin": "",
      "versionEnd": ""
    },
    {
      "subId": 4001003,
      "mainId": 40010,
      "order": 3,
      "subIdSet": 1,
      "descTextMapHash": 1283867652,
      "finishCond": [
        {
          "damageRatio": "QUEST_CONTENT_COMPLETE_TALK",
          "param": [
            4001002,
            0
          ]
        }
      ],
      "guide": {
        "damageRatio": "QUEST_GUIDE_NPC",
        "param": [
          "140901"
        ],
        "guideScene": 3,
        "guideStyle": "QUEST_GUIDE_STYLE_TARGET",
        "guideLayer": "QUEST_GUIDE_LAYER_SCENE",
        "MLAHIFLGIGJ": ""
      },
      "guideHint": {
        "param1": ""
      },
      "finishExec": [
        {
          "damageRatio": "QUEST_EXEC_ADD_QUEST_PROGRESS",
          "param": [
            "4001006",
            "1"
          ]
        }
      ],
      "versionBegin": "",
      "versionEnd": ""
    },
    {
      "subId": 4001004,
      "mainId": 40010,
      "order": 4,
      "subIdSet": 1,
      "descTextMapHash": 3517100420,
      "finishCond": [
        {
          "damageRatio": "QUEST_CONTENT_COMPLETE_TALK",
          "param": [
            4001003,
            0
          ]
        }
      ],
      "guide": {
        "damageRatio": "QUEST_GUIDE_NPC",
        "param": [
          "143501"
        ],
        "guideScene": 3,
        "guideStyle": "QUEST_GUIDE_STYLE_TARGET",
        "guideLayer": "QUEST_GUIDE_LAYER_SCENE",
        "MLAHIFLGIGJ": ""
      },
      "guideHint": {
        "param1": ""
      },
      "finishExec": [
        {
          "damageRatio": "QUEST_EXEC_ADD_QUEST_PROGRESS",
          "param": [
            "4001006",
            "1"
          ]
        }
      ],
      "versionBegin": "",
      "versionEnd": ""
    },
    {
      "subId": 4001005,
      "mainId": 40010,
      "order": 5,
      "subIdSet": 1,
      "descTextMapHash": 983321636,
      "finishCond": [
        {
          "damageRatio": "QUEST_CONTENT_COMPLETE_TALK",
          "param": [
            4001004,
            0
          ]
        }
      ],
      "guide": {
        "damageRatio": "QUEST_GUIDE_NPC",
        "param": [
          "143301"
        ],
        "guideScene": 3,
        "guideStyle": "QUEST_GUIDE_STYLE_TARGET",
        "guideLayer": "QUEST_GUIDE_LAYER_SCENE",
        "MLAHIFLGIGJ": ""
      },
      "guideHint": {
        "param1": ""
      },
      "finishExec": [
        {
          "damageRatio": "QUEST_EXEC_ADD_QUEST_PROGRESS",
          "param": [
            "4001006",
            "1"
          ]
        }
      ],
      "versionBegin": "",
      "versionEnd": ""
    },
    {
      "subId": 4001006,
      "mainId": 40010,
      "order": 6,
      "descTextMapHash": 3353023476,
      "showType": "QUEST_HIDDEN",
      "finishCond": [
        {
          "damageRatio": "QUEST_CONTENT_ADD_QUEST_PROGRESS",
          "param": [
            4001006,
            0
          ],
          "count": 3
        }
      ],
      "guide": {
        "MLAHIFLGIGJ": ""
      },
      "guideHint": {
        "param1": ""
      },
      "finishExec": [
        {
          "damageRatio": "QUEST_EXEC_ADD_QUEST_PROGRESS",
          "param": [
            "4001007",
            "1"
          ]
        }
      ],
      "versionBegin": "",
      "versionEnd": ""
    },
    {
      "subId": 4001007,
      "mainId": 40010,
      "order": 7,
      "descTextMapHash": 4177234996,
      "showType": "QUEST_HIDDEN",
      "finishCond": [
        {
          "damageRatio": "QUEST_CONTENT_ADD_QUEST_PROGRESS",
          "param": [
            4001007,
            0
          ],
          "count": 1
        }
      ],
      "guide": {
        "MLAHIFLGIGJ": ""
      },
      "guideHint": {
        "param1": ""
      },
      "isRewind": true,
      "versionBegin": "",
      "versionEnd": ""
    },
    {
      "subId": 4001008,
      "mainId": 40010,
      "order": 9,
      "descTextMapHash": 252386732,
      "finishCond": [
        {
          "damageRatio": "QUEST_CONTENT_LUA_NOTIFY",
          "param": [
            0,
            0
          ],
          "count": 1
        }
      ],
      "guide": {
        "damageRatio": "QUEST_GUIDE_LOCATION",
        "param": [
          "Q40010Library"
        ],
        "guideScene": 1004,
        "guideStyle": "QUEST_GUIDE_STYLE_POINT",
        "guideLayer": "QUEST_GUIDE_LAYER_SCENE",
        "MLAHIFLGIGJ": ""
      },
      "guideHint": {
        "param1": ""
      },
      "isRewind": true,
      "finishExec": [
        {
          "damageRatio": "QUEST_EXEC_REFRESH_GROUP_SUITE",
          "param": [
            "1004",
            "201004007,1"
          ]
        }
      ],
      "versionBegin": "",
      "versionEnd": ""
    },
    {
      "subId": 4001009,
      "mainId": 40010,
      "order": 10,
      "descTextMapHash": 1651989404,
      "finishCond": [
        {
          "damageRatio": "QUEST_CONTENT_COMPLETE_TALK",
          "param": [
            4001005,
            0
          ]
        }
      ],
      "guide": {
        "damageRatio": "QUEST_GUIDE_NPC",
        "param": [
          "1007"
        ],
        "guideScene": 1004,
        "guideStyle": "QUEST_GUIDE_STYLE_TARGET",
        "guideLayer": "QUEST_GUIDE_LAYER_SCENE",
        "MLAHIFLGIGJ": ""
      },
      "guideHint": {
        "param1": ""
      },
      "isRewind": true,
      "versionBegin": "",
      "versionEnd": ""
    },
    {
      "subId": 4001010,
      "mainId": 40010,
      "order": 18,
      "descTextMapHash": 2058085620,
      "finishCond": [
        {
          "damageRatio": "QUEST_CONTENT_LUA_NOTIFY",
          "param": [
            0,
            0
          ],
          "count": 1
        }
      ],
      "guide": {
        "damageRatio": "QUEST_GUIDE_LOCATION",
        "param": [
          "Q40010BoardingPoint"
        ],
        "guideScene": 4,
        "guideStyle": "QUEST_GUIDE_STYLE_POINT",
        "guideLayer": "QUEST_GUIDE_LAYER_SCENE",
        "MLAHIFLGIGJ": ""
      },
      "guideHint": {
        "param1": ""
      },
      "isRewind": true,
      "finishExec": [
        {
          "damageRatio": "QUEST_EXEC_UNREGISTER_DYNAMIC_GROUP",
          "param": [
            "144004003",
            "0"
          ]
        }
      ],
      "versionBegin": "",
      "versionEnd": ""
    },
    {
      "subId": 4001011,
      "mainId": 40010,
      "order": 11,
      "descTextMapHash": 3219364964,
      "finishCond": [
        {
          "damageRatio": "QUEST_CONTENT_COMPLETE_TALK",
          "param": [
            4001006,
            0
          ]
        }
      ],
      "guide": {
        "damageRatio": "QUEST_GUIDE_NPC",
        "param": [
          "1006"
        ],
        "guideScene": 1004,
        "guideStyle": "QUEST_GUIDE_STYLE_TARGET",
        "guideLayer": "QUEST_GUIDE_LAYER_SCENE",
        "MLAHIFLGIGJ": ""
      },
      "guideHint": {
        "param1": ""
      },
      "isRewind": true,
      "versionBegin": "",
      "versionEnd": ""
    },
    {
      "subId": 4001012,
      "mainId": 40010,
      "order": 12,
      "descTextMapHash": 25664788,
      "finishCond": [
        {
          "damageRatio": "QUEST_CONTENT_GAME_TIME_TICK",
          "param": [
            1,
            0
          ]
        }
      ],
      "guide": {
        "MLAHIFLGIGJ": ""
      },
      "guideHint": {
        "param1": ""
      },
      "isRewind": true,
      "versionBegin": "",
      "versionEnd": ""
    },
    {
      "subId": 4001013,
      "mainId": 40010,
      "order": 13,
      "descTextMapHash": 2897679212,
      "JIFODJPFKDF": [
        307
      ],
      "finishCond": [
        {
          "damageRatio": "QUEST_CONTENT_COMPLETE_TALK",
          "param": [
            4001007,
            0
          ]
        }
      ],
      "failCond": [
        {
          "damageRatio": "QUEST_CONTENT_GAME_TIME_TICK",
          "param": [
            0,
            0
          ]
        }
      ],
      "guide": {
        "damageRatio": "QUEST_GUIDE_NPC",
        "param": [
          "1008"
        ],
        "guideScene": 3,
        "guideStyle": "QUEST_GUIDE_STYLE_TARGET",
        "guideLayer": "QUEST_GUIDE_LAYER_SCENE",
        "MLAHIFLGIGJ": ""
      },
      "guideHint": {
        "param1": ""
      },
      "isRewind": true,
      "failExec": [
        {
          "damageRatio": "QUEST_EXEC_ROLLBACK_QUEST",
          "param": [
            "4001012"
          ]
        }
      ],
      "versionBegin": "",
      "versionEnd": ""
    },
    {
      "subId": 4001014,
      "mainId": 40010,
      "order": 14,
      "descTextMapHash": 1439297868,
      "stepDescTextMapHash": 80325,
      "finishCond": [
        {
          "damageRatio": "QUEST_CONTENT_LUA_NOTIFY",
          "param": [
            0,
            0
          ],
          "count": 1
        }
      ],
      "guide": {
        "damageRatio": "QUEST_GUIDE_LOCATION",
        "param": [
          "Q40010Windrise",
          "20"
        ],
        "guideScene": 3,
        "guideStyle": "QUEST_GUIDE_STYLE_POINT",
        "guideLayer": "QUEST_GUIDE_LAYER_SCENE",
        "MLAHIFLGIGJ": ""
      },
      "guideHint": {
        "param1": ""
      },
      "isRewind": true,
      "finishExec": [
        {
          "damageRatio": "QUEST_EXEC_REFRESH_GROUP_SUITE",
          "param": [
            "3",
            "133001928,1"
          ]
        }
      ],
      "versionBegin": "",
      "versionEnd": ""
    },
    {
      "subId": 4001015,
      "mainId": 40010,
      "order": 15,
      "descTextMapHash": 2843498164,
      "finishCond": [
        {
          "damageRatio": "QUEST_CONTENT_COMPLETE_TALK",
          "param": [
            4001008,
            0
          ]
        }
      ],
      "guide": {
        "damageRatio": "QUEST_GUIDE_NPC",
        "param": [
          "1001"
        ],
        "guideScene": 3,
        "guideStyle": "QUEST_GUIDE_STYLE_TARGET",
        "guideLayer": "QUEST_GUIDE_LAYER_SCENE",
        "MLAHIFLGIGJ": ""
      },
      "guideHint": {
        "param1": ""
      },
      "isRewind": true,
      "finishExec": [
        {
          "damageRatio": "QUEST_EXEC_UNREGISTER_DYNAMIC_GROUP",
          "param": [
            "133001928",
            "0"
          ]
        }
      ],
      "versionBegin": "",
      "versionEnd": ""
    },
    {
      "subId": 4001016,
      "mainId": 40010,
      "order": 16,
      "isMpBlock": true,
      "descTextMapHash": 2584697452,
      "finishCond": [
        {
          "damageRatio": "QUEST_CONTENT_LUA_NOTIFY",
          "param": [
            0,
            0
          ],
          "count": 1
        },
        {
          "damageRatio": "QUEST_CONTENT_ENTER_MY_WORLD_SCENE",
          "param": [
            4,
            0
          ]
        }
      ],
      "guide": {
        "damageRatio": "QUEST_GUIDE_LOCATION",
        "param": [
          "Q40010Island"
        ],
        "guideScene": 4,
        "guideStyle": "QUEST_GUIDE_STYLE_POINT",
        "guideLayer": "QUEST_GUIDE_LAYER_SCENE",
        "MLAHIFLGIGJ": ""
      },
      "guideHint": {
        "param1": ""
      },
      "isRewind": true,
      "finishExec": [
        {
          "damageRatio": "QUEST_EXEC_UNREGISTER_DYNAMIC_GROUP",
          "param": [
            "144001901",
            "0"
          ]
        },
        {
          "damageRatio": "QUEST_EXEC_SET_WEATHER_GADGET",
          "param": [
            "2146",
            "0"
          ]
        },
        {
          "damageRatio": "QUEST_EXEC_SET_WEATHER_GADGET",
          "param": [
            "2153",
            "1"
          ]
        },
        {
          "damageRatio": "QUEST_EXEC_REFRESH_GROUP_SUITE",
          "param": [
            "1004",
            "201004008,2"
          ]
        },
        {
          "damageRatio": "QUEST_EXEC_REFRESH_GROUP_SUITE",
          "param": [
            "4",
            "144004083,1"
          ]
        }
      ],
      "versionBegin": "",
      "versionEnd": ""
    },
    {
      "subId": 4001017,
      "mainId": 40010,
      "order": 17,
      "isMpBlock": true,
      "descTextMapHash": 2711680020,
      "finishCond": [
        {
          "damageRatio": "QUEST_CONTENT_COMPLETE_TALK",
          "param": [
            4001009,
            0
          ]
        }
      ],
      "guide": {
        "damageRatio": "QUEST_GUIDE_NPC",
        "param": [
          "10090"
        ],
        "guideScene": 4,
        "guideStyle": "QUEST_GUIDE_STYLE_TARGET",
        "guideLayer": "QUEST_GUIDE_LAYER_SCENE",
        "MLAHIFLGIGJ": ""
      },
      "guideHint": {
        "param1": ""
      },
      "isRewind": true,
      "versionBegin": "",
      "versionEnd": ""
    },
    {
      "subId": 4001018,
      "mainId": 40010,
      "order": 20,
      "subIdSet": 2,
      "descTextMapHash": 708876468,
      "guideTipsTextMapHash": 1205805494,
      "finishCond": [
        {
          "damageRatio": "QUEST_CONTENT_UNLOCK_TRANS_POINT",
          "param": [
            4,
            8
          ]
        }
      ],
      "guide": {
        "MLAHIFLGIGJ": ""
      },
      "guideHint": {
        "param1": ""
      },
      "finishExec": [
        {
          "damageRatio": "QUEST_EXEC_ADD_QUEST_PROGRESS",
          "param": [
            "4001022",
            "1"
          ]
        },
        {
          "damageRatio": "QUEST_EXEC_SET_WEATHER_GADGET",
          "param": [
            "2147",
            "0"
          ]
        },
        {
          "damageRatio": "QUEST_EXEC_SET_WEATHER_GADGET",
          "param": [
            "2154",
            "1"
          ]
        }
      ],
      "versionBegin": "",
      "versionEnd": ""
    },
    {
      "subId": 4001019,
      "mainId": 40010,
      "order": 21,
      "subIdSet": 2,
      "descTextMapHash": 1563542060,
      "guideTipsTextMapHash": 3402788614,
      "finishCond": [
        {
          "damageRatio": "QUEST_CONTENT_UNLOCK_TRANS_POINT",
          "param": [
            4,
            9
          ]
        }
      ],
      "guide": {
        "MLAHIFLGIGJ": ""
      },
      "guideHint": {
        "param1": ""
      },
      "finishExec": [
        {
          "damageRatio": "QUEST_EXEC_ADD_QUEST_PROGRESS",
          "param": [
            "4001022",
            "1"
          ]
        },
        {
          "damageRatio": "QUEST_EXEC_SET_WEATHER_GADGET",
          "param": [
            "2149",
            "0"
          ]
        },
        {
          "damageRatio": "QUEST_EXEC_SET_WEATHER_GADGET",
          "param": [
            "2156",
            "1"
          ]
        }
      ],
      "versionBegin": "",
      "versionEnd": ""
    },
    {
      "subId": 4001020,
      "mainId": 40010,
      "order": 22,
      "subIdSet": 2,
      "descTextMapHash": 3315628956,
      "guideTipsTextMapHash": 2015500030,
      "finishCond": [
        {
          "damageRatio": "QUEST_CONTENT_UNLOCK_TRANS_POINT",
          "param": [
            4,
            10
          ]
        }
      ],
      "guide": {
        "MLAHIFLGIGJ": ""
      },
      "guideHint": {
        "param1": ""
      },
      "finishExec": [
        {
          "damageRatio": "QUEST_EXEC_ADD_QUEST_PROGRESS",
          "param": [
            "4001022",
            "1"
          ]
        },
        {
          "damageRatio": "QUEST_EXEC_SET_WEATHER_GADGET",
          "param": [
            "2150",
            "0"
          ]
        },
        {
          "damageRatio": "QUEST_EXEC_SET_WEATHER_GADGET",
          "param": [
            "2157",
            "1"
          ]
        }
      ],
      "versionBegin": "",
      "versionEnd": ""
    },
    {
      "subId": 4001021,
      "mainId": 40010,
      "order": 23,
      "descTextMapHash": 2823316236,
      "finishCond": [
        {
          "damageRatio": "QUEST_CONTENT_UNLOCK_TRANS_POINT",
          "param": [
            4,
            6
          ]
        }
      ],
      "guide": {
        "MLAHIFLGIGJ": ""
      },
      "guideHint": {
        "param1": ""
      },
      "finishExec": [
        {
          "damageRatio": "QUEST_EXEC_ADD_QUEST_PROGRESS",
          "param": [
            "4001022",
            "1"
          ]
        }
      ],
      "versionBegin": "",
      "versionEnd": ""
    },
    {
      "subId": 4001022,
      "mainId": 40010,
      "order": 24,
      "descTextMapHash": 177115068,
      "showType": "QUEST_HIDDEN",
      "finishCond": [
        {
          "damageRatio": "QUEST_CONTENT_GAME_TIME_TICK",
          "param": [
            0,
            0
          ]
        }
      ],
      "guide": {
        "MLAHIFLGIGJ": ""
      },
      "guideHint": {
        "param1": ""
      },
      "finishExec": [
        {
          "damageRatio": "QUEST_EXEC_ADD_QUEST_PROGRESS",
          "param": [
            "4001023",
            "1"
          ]
        },
        {
          "damageRatio": "QUEST_EXEC_SET_WEATHER_GADGET",
          "param": [
            "2162",
            "1"
          ]
        }
      ],
      "versionBegin": "",
      "versionEnd": ""
    },
    {
      "subId": 4001023,
      "mainId": 40010,
      "order": 28,
      "descTextMapHash": 398933308,
      "showType": "QUEST_HIDDEN",
      "finishCond": [
        {
          "damageRatio": "QUEST_CONTENT_ADD_QUEST_PROGRESS",
          "param": [
            4001023,
            0
          ],
          "count": 1
        }
      ],
      "guide": {
        "MLAHIFLGIGJ": ""
      },
      "guideHint": {
        "param1": ""
      },
      "isRewind": true,
      "finishExec": [
        {
          "damageRatio": "QUEST_EXEC_SET_WEATHER_GADGET",
          "param": [
            "2145",
            "0"
          ]
        },
        {
          "damageRatio": "QUEST_EXEC_SET_WEATHER_GADGET",
          "param": [
            "2153",
            "0"
          ]
        },
        {
          "damageRatio": "QUEST_EXEC_SET_WEATHER_GADGET",
          "param": [
            "2154",
            "0"
          ]
        },
        {
          "damageRatio": "QUEST_EXEC_SET_WEATHER_GADGET",
          "param": [
            "2156",
            "0"
          ]
        },
        {
          "damageRatio": "QUEST_EXEC_SET_WEATHER_GADGET",
          "param": [
            "2157",
            "0"
          ]
        }
      ],
      "versionBegin": "",
      "versionEnd": ""
    },
    {
      "subId": 4001024,
      "mainId": 40010,
      "order": 30,
      "descTextMapHash": 2338001604,
      "finishCond": [
        {
          "damageRatio": "QUEST_CONTENT_LUA_NOTIFY",
          "param": [
            0,
            0
          ],
          "count": 1
        }
      ],
      "guide": {
        "damageRatio": "QUEST_GUIDE_LOCATION",
        "param": [
          "Q40010IslandHigh"
        ],
        "guideScene": 4,
        "guideStyle": "QUEST_GUIDE_STYLE_POINT",
        "guideLayer": "QUEST_GUIDE_LAYER_SCENE",
        "MLAHIFLGIGJ": ""
      },
      "guideHint": {
        "param1": ""
      },
      "isRewind": true,
      "finishExec": [
        {
          "damageRatio": "QUEST_EXEC_UNREGISTER_DYNAMIC_GROUP",
          "param": [
            "144001902",
            "0"
          ]
        }
      ],
      "versionBegin": "",
      "versionEnd": ""
    },
    {
      "subId": 4001025,
      "mainId": 40010,
      "order": 31,
      "descTextMapHash": 177437892,
      "finishCond": [
        {
          "damageRatio": "QUEST_CONTENT_COMPLETE_TALK",
          "param": [
            4001010,
            0
          ]
        }
      ],
      "guide": {
        "damageRatio": "QUEST_GUIDE_NPC",
        "param": [
          "10090"
        ],
        "guideScene": 4,
        "guideStyle": "QUEST_GUIDE_STYLE_TARGET",
        "guideLayer": "QUEST_GUIDE_LAYER_SCENE",
        "MLAHIFLGIGJ": ""
      },
      "guideHint": {
        "param1": ""
      },
      "finishParent": true,
      "isRewind": true,
      "versionBegin": "",
      "versionEnd": ""
    },
    {
      "subId": 4001026,
      "mainId": 40010,
      "order": 8,
      "descTextMapHash": 2151508924,
      "finishCond": [
        {
          "damageRatio": "QUEST_CONTENT_COMPLETE_TALK",
          "param": [
            4001011,
            0
          ]
        }
      ],
      "guide": {
        "damageRatio": "QUEST_GUIDE_NPC",
        "param": [
          "10090"
        ],
        "guideScene": 3,
        "guideStyle": "QUEST_GUIDE_STYLE_TARGET",
        "guideLayer": "QUEST_GUIDE_LAYER_SCENE",
        "MLAHIFLGIGJ": ""
      },
      "guideHint": {
        "param1": ""
      },
      "isRewind": true,
      "versionBegin": "",
      "versionEnd": ""
    },
    {
      "subId": 4001027,
      "mainId": 40010,
      "order": 19,
      "descTextMapHash": 1767900780,
      "finishCond": [
        {
          "damageRatio": "QUEST_CONTENT_COMPLETE_TALK",
          "param": [
            4001012,
            0
          ]
        }
      ],
      "guide": {
        "damageRatio": "QUEST_GUIDE_NPC",
        "param": [
          "10090"
        ],
        "guideScene": 4,
        "guideStyle": "QUEST_GUIDE_STYLE_POINT",
        "guideLayer": "QUEST_GUIDE_LAYER_SCENE",
        "MLAHIFLGIGJ": ""
      },
      "guideHint": {
        "param1": ""
      },
      "isRewind": true,
      "finishExec": [
        {
          "damageRatio": "QUEST_EXEC_SET_QUEST_GLOBAL_VAR",
          "param": [
            "41610",
            "1"
          ]
        }
      ],
      "versionBegin": "",
      "versionEnd": ""
    },
    {
      "subId": 4001028,
      "mainId": 40010,
      "order": 29,
      "descTextMapHash": 3241321764,
      "finishCond": [
        {
          "damageRatio": "QUEST_CONTENT_COMPLETE_TALK",
          "param": [
            4001013,
            0
          ]
        }
      ],
      "guide": {
        "damageRatio": "QUEST_GUIDE_NPC",
        "param": [
          "1005"
        ],
        "guideScene": 4,
        "guideStyle": "QUEST_GUIDE_STYLE_TARGET",
        "guideLayer": "QUEST_GUIDE_LAYER_SCENE",
        "MLAHIFLGIGJ": ""
      },
      "guideHint": {
        "param1": ""
      },
      "isRewind": true,
      "versionBegin": "",
      "versionEnd": ""
    },
    {
      "subId": 4001029,
      "mainId": 40010,
      "order": 25,
      "descTextMapHash": 1945915180,
      "showType": "QUEST_HIDDEN",
      "finishCond": [
        {
          "damageRatio": "QUEST_CONTENT_ADD_QUEST_PROGRESS",
          "param": [
            4001022,
            0
          ],
          "count": 1
        }
      ],
      "guide": {
        "MLAHIFLGIGJ": ""
      },
      "guideHint": {
        "param1": ""
      },
      "versionBegin": "",
      "versionEnd": ""
    },
    {
      "subId": 4001030,
      "mainId": 40010,
      "order": 26,
      "descTextMapHash": 2781606492,
      "showType": "QUEST_HIDDEN",
      "finishCond": [
        {
          "damageRatio": "QUEST_CONTENT_ADD_QUEST_PROGRESS",
          "param": [
            4001022,
            0
          ],
          "count": 2
        }
      ],
      "guide": {
        "MLAHIFLGIGJ": ""
      },
      "guideHint": {
        "param1": ""
      },
      "versionBegin": "",
      "versionEnd": ""
    },
    {
      "subId": 4001031,
      "mainId": 40010,
      "order": 27,
      "descTextMapHash": 1029438060,
      "showType": "QUEST_HIDDEN",
      "finishCond": [
        {
          "damageRatio": "QUEST_CONTENT_ADD_QUEST_PROGRESS",
          "param": [
            4001022,
            0
          ],
          "count": 3
        }
      ],
      "guide": {
        "MLAHIFLGIGJ": ""
      },
      "guideHint": {
        "param1": ""
      },
      "versionBegin": "",
      "versionEnd": ""
    }
  ],
  "talks": [
    {
      "id": 4001001,
      "beginWay": "TALK_BEGIN_AUTO",
      "beginCond": [
        {
          "type": "QUEST_COND_STATE_EQUAL",
          "_param": [
            "4001002",
            "2"
          ]
        }
      ],
      "priority": 5,
      "initDialog": 400100101,
      "npcId": [
        1005,
        10090
      ],
      "performCfg": "QuestDialogue/EQ/Summertime_40010/Q4001001",
      "questId": 40010,
      "assetIndex": 9816263261110654926,
      "prePerformCfg": ""
    },
    {
      "id": 4001002,
      "beginWay": "TALK_BEGIN_MANUAL",
      "beginCond": [
        {
          "type": "QUEST_COND_STATE_EQUAL",
          "_param": [
            "4001003",
            "2"
          ]
        }
      ],
      "priority": 5,
      "initDialog": 400100201,
      "npcId": [
        1005,
        10090,
        140901
      ],
      "performCfg": "QuestDialogue/EQ/Summertime_40010/Q4001002",
      "questId": 40010,
      "assetIndex": 15198410140234978547,
      "prePerformCfg": ""
    },
    {
      "id": 4001003,
      "beginWay": "TALK_BEGIN_MANUAL",
      "beginCond": [
        {
          "type": "QUEST_COND_STATE_EQUAL",
          "_param": [
            "4001004",
            "2"
          ]
        }
      ],
      "priority": 5,
      "initDialog": 400100301,
      "npcId": [
        1005,
        143501,
        10090
      ],
      "performCfg": "QuestDialogue/EQ/Summertime_40010/Q4001003",
      "questId": 40010,
      "assetIndex": 17834020005936444908,
      "prePerformCfg": ""
    },
    {
      "id": 4001004,
      "beginWay": "TALK_BEGIN_MANUAL",
      "beginCond": [
        {
          "type": "QUEST_COND_STATE_EQUAL",
          "_param": [
            "4001005",
            "2"
          ]
        }
      ],
      "priority": 5,
      "initDialog": 400100401,
      "npcId": [
        1005,
        10090,
        143301
      ],
      "performCfg": "QuestDialogue/EQ/Summertime_40010/Q4001004",
      "questId": 40010,
      "assetIndex": 9865667239026264822,
      "prePerformCfg": ""
    },
    {
      "id": 4001005,
      "beginWay": "TALK_BEGIN_AUTO",
      "beginCond": [
        {
          "type": "QUEST_COND_STATE_EQUAL",
          "_param": [
            "4001009",
            "2"
          ]
        }
      ],
      "priority": 5,
      "initDialog": 400100501,
      "npcId": [
        1005,
        1007,
        10090
      ],
      "performCfg": "QuestDialogue/EQ/Summertime_40010/Q4001005",
      "questId": 40010,
      "assetIndex": 4940806781809355030,
      "prePerformCfg": ""
    },
    {
      "id": 4001006,
      "beginWay": "TALK_BEGIN_AUTO",
      "beginCond": [
        {
          "type": "QUEST_COND_STATE_EQUAL",
          "_param": [
            "4001011",
            "2"
          ]
        }
      ],
      "priority": 5,
      "initDialog": 400100601,
      "npcId": [
        10090,
        1006,
        1008,
        1005
      ],
      "performCfg": "QuestDialogue/EQ/Summertime_40010/Q4001006",
      "questId": 40010,
      "assetIndex": 1509445018507920585,
      "prePerformCfg": ""
    },
    {
      "id": 4001007,
      "beginWay": "TALK_BEGIN_AUTO",
      "beginCond": [
        {
          "type": "QUEST_COND_STATE_EQUAL",
          "_param": [
            "4001013",
            "2"
          ]
        }
      ],
      "priority": 5,
      "initDialog": 400100701,
      "npcId": [
        1005,
        1008,
        10090,
        1006
      ],
      "performCfg": "QuestDialogue/EQ/Summertime_40010/Q4001007",
      "questId": 40010,
      "assetIndex": 17607102097853835576,
      "prePerformCfg": "",
      "lockGameTime": true
    },
    {
      "id": 4001008,
      "beginWay": "TALK_BEGIN_AUTO",
      "beginCond": [
        {
          "type": "QUEST_COND_STATE_EQUAL",
          "_param": [
            "4001015",
            "2"
          ]
        }
      ],
      "priority": 5,
      "initDialog": 400100801,
      "npcId": [
        1005,
        1001,
        10090,
        1006,
        1008
      ],
      "performCfg": "QuestDialogue/EQ/Summertime_40010/Q4001008",
      "questId": 40010,
      "assetIndex": 8967385633718197830,
      "prePerformCfg": ""
    },
    {
      "id": 4001009,
      "beginWay": "TALK_BEGIN_AUTO",
      "beginCond": [
        {
          "type": "QUEST_COND_STATE_EQUAL",
          "_param": [
            "4001017",
            "2"
          ]
        }
      ],
      "priority": 5,
      "initDialog": 400100901,
      "npcId": [
        10924,
        10090,
        1005,
        1008,
        1006
      ],
      "performCfg": "QuestDialogue/EQ/Summertime_40010/Q4001009",
      "questId": 40010,
      "assetIndex": 10135314392672108374,
      "prePerformCfg": ""
    },
    {
      "id": 4001010,
      "beginWay": "TALK_BEGIN_MANUAL",
      "beginCond": [
        {
          "type": "QUEST_COND_STATE_EQUAL",
          "_param": [
            "4001025",
            "2"
          ]
        }
      ],
      "priority": 5,
      "initDialog": 400101001,
      "npcId": [
        10090,
        1005,
        1006,
        1008
      ],
      "performCfg": "QuestDialogue/EQ/Summertime_40010/Q4001010",
      "questId": 40010,
      "assetIndex": 14192895947215685501,
      "prePerformCfg": ""
    },
    {
      "id": 4001011,
      "beginWay": "TALK_BEGIN_AUTO",
      "beginCond": [
        {
          "type": "QUEST_COND_STATE_EQUAL",
          "_param": [
            "4001026",
            "2"
          ]
        }
      ],
      "priority": 5,
      "initDialog": 400101101,
      "npcId": [
        1005,
        10090
      ],
      "performCfg": "QuestDialogue/EQ/Summertime_40010/Q4001011",
      "questId": 40010,
      "assetIndex": 7739479057810564355,
      "prePerformCfg": ""
    },
    {
      "id": 4001012,
      "beginWay": "TALK_BEGIN_MANUAL",
      "beginCond": [
        {
          "type": "QUEST_COND_STATE_EQUAL",
          "_param": [
            "4001027",
            "2"
          ]
        }
      ],
      "priority": 5,
      "initDialog": 400101201,
      "npcId": [
        1005,
        1006,
        10090
      ],
      "performCfg": "QuestDialogue/EQ/Summertime_40010/Q4001012",
      "questId": 40010,
      "assetIndex": 115544870310842045,
      "prePerformCfg": ""
    },
    {
      "id": 4001013,
      "beginWay": "TALK_BEGIN_MANUAL",
      "beginCond": [
        {
          "type": "QUEST_COND_STATE_EQUAL",
          "_param": [
            "4001028",
            "2"
          ]
        }
      ],
      "priority": 5,
      "initDialog": 400101301,
      "npcId": [
        1005
      ],
      "performCfg": "",
      "questId": 40010,
      "assetIndex": 4466290432131789190,
      "prePerformCfg": ""
    }
  ],
  "preloadLuaList": [
    3958618578976986035,
    3088369788188086520,
    17842302238695143736,
    4543246233805805157,
    14457059026087496718
  ],
  "freeStyleDic": {
    "1007": [
      1120
    ],
    "1008": [
      1180
    ],
    "10090": [
      1170
    ],
    "1006": [
      1190
    ],
    "1001": [
      1220
    ]
  }
}