{
  "id": 40028,
  "resId": 4007,
  "series": 10046,
  "damageRatio": "EQ",
  "mainQuestTag": "MAINQUEST_TAG_ACTIVITY",
  "descTextMapHash": 2761113471,
  "EKEKACCODOE": 2231211438,
  "luaPath": "Actor/Quest/EQ40028",
  "rewardIdList": [
    140028
  ],
  "chapterId": 10046,
  "showRedPoint": true,
  "activityId": 2009,
  "subQuests": [
    {
      "subId": 4002801,
      "mainId": 40028,
      "order": 1,
      "descTextMapHash": 3995274084,
      "finishCond": [
        {
          "damageRatio": "QUEST_CONTENT_COMPLETE_TALK",
          "param": [
            4002810,
            0
          ]
        }
      ],
      "guide": {
        "damageRatio": "QUEST_GUIDE_NPC",
        "param": [
          "1018"
        ],
        "guideScene": 3,
        "MLAHIFLGIGJ": ""
      },
      "guideHint": {
        "param1": ""
      },
      "isRewind": true,
      "versionBegin": "",
      "versionEnd": ""
    },
    {
      "subId": 4002802,
      "mainId": 40028,
      "order": 2,
      "isMpBlock": true,
      "descTextMapHash": 3329736652,
      "finishCond": [
        {
          "damageRatio": "QUEST_CONTENT_FINISH_PLOT",
          "param": [
            4002802,
            0
          ]
        }
      ],
      "guide": {
        "autoGuide": "QUEST_GUIDE_AUTO_ENABLE",
        "guideScene": 3,
        "guideLayer": "QUEST_GUIDE_LAYER_SCENE",
        "MLAHIFLGIGJ": ""
      },
      "showGuide": "QUEST_GUIDE_ITEM_DISABLE",
      "guideHint": {
        "param1": ""
      },
      "versionBegin": "",
      "versionEnd": ""
    },
    {
      "subId": 4002803,
      "mainId": 40028,
      "order": 3,
      "descTextMapHash": 3496479172,
      "finishCond": [
        {
          "damageRatio": "QUEST_CONTENT_COMPLETE_TALK",
          "param": [
            4002802,
            0
          ]
        }
      ],
      "guide": {
        "damageRatio": "QUEST_GUIDE_NPC",
        "param": [
          "1002"
        ],
        "guideScene": 3,
        "MLAHIFLGIGJ": ""
      },
      "guideHint": {
        "param1": ""
      },
      "isRewind": true,
      "versionBegin": "",
      "versionEnd": ""
    },
    {
      "subId": 4002804,
      "mainId": 40028,
      "order": 4,
      "descTextMapHash": 3771966868,
      "finishCond": [
        {
          "damageRatio": "QUEST_CONTENT_COMPLETE_TALK",
          "param": [
            4002803,
            0
          ]
        }
      ],
      "guide": {
        "damageRatio": "QUEST_GUIDE_LOCATION",
        "param": [
          "Q40028_quest_find01",
          "40"
        ],
        "guideScene": 3,
        "MLAHIFLGIGJ": ""
      },
      "guideHint": {
        "param1": ""
      },
      "isRewind": true,
      "versionBegin": "",
      "versionEnd": ""
    },
    {
      "subId": 4002805,
      "mainId": 40028,
      "order": 98,
      "descTextMapHash": 2527215996,
      "showType": "QUEST_HIDDEN",
      "finishCond": [
        {
          "damageRatio": "QUEST_CONTENT_FINISH_PLOT",
          "param": [
            4002805,
            0
          ]
        }
      ],
      "guide": {
        "guideScene": 3,
        "MLAHIFLGIGJ": ""
      },
      "showGuide": "QUEST_GUIDE_ITEM_DISABLE",
      "guideHint": {
        "param1": ""
      },
      "failParentShow": "QUEST_HIDDEN",
      "versionBegin": "",
      "versionEnd": ""
    },
    {
      "subId": 4002806,
      "mainId": 40028,
      "order": 6,
      "subIdSet": 4002801,
      "descTextMapHash": 1423513884,
      "guideTipsTextMapHash": 3027081894,
      "finishCond": [
        {
          "damageRatio": "QUEST_CONTENT_LUA_NOTIFY",
          "param": [
            0,
            0
          ],
          "count": 1
        }
      ],
      "guide": {
        "damageRatio": "QUEST_GUIDE_LOCATION",
        "autoGuide": "QUEST_GUIDE_AUTO_ENABLE",
        "param": [
          "Q4002806_guide",
          "0"
        ],
        "guideScene": 3,
        "guideLayer": "QUEST_GUIDE_LAYER_SCENE",
        "MLAHIFLGIGJ": ""
      },
      "guideHint": {
        "param1": ""
      },
      "finishExec": [
        {
          "damageRatio": "QUEST_EXEC_UNREGISTER_DYNAMIC_GROUP",
          "param": [
            "133002057"
          ]
        }
      ],
      "versionBegin": "",
      "versionEnd": ""
    },
    {
      "subId": 4002807,
      "mainId": 40028,
      "order": 9,
      "descTextMapHash": 1186130172,
      "finishCond": [
        {
          "damageRatio": "QUEST_CONTENT_COMPLETE_TALK",
          "param": [
            4002804,
            0
          ]
        }
      ],
      "guide": {
        "damageRatio": "QUEST_GUIDE_NPC",
        "param": [
          "1002"
        ],
        "guideScene": 3,
        "MLAHIFLGIGJ": ""
      },
      "guideHint": {
        "param1": ""
      },
      "isRewind": true,
      "versionBegin": "",
      "versionEnd": ""
    },
    {
      "subId": 4002808,
      "mainId": 40028,
      "order": 10,
      "descTextMapHash": 2857740892,
      "finishCond": [
        {
          "damageRatio": "QUEST_CONTENT_COMPLETE_TALK",
          "param": [
            4002811,
            0
          ]
        }
      ],
      "guide": {
        "damageRatio": "QUEST_GUIDE_LOCATION",
        "param": [
          "Q40028_follow_01"
        ],
        "guideScene": 3,
        "guideStyle": "QUEST_GUIDE_STYLE_POINT",
        "guideLayer": "QUEST_GUIDE_LAYER_SCENE",
        "MLAHIFLGIGJ": ""
      },
      "guideHint": {
        "param1": ""
      },
      "isRewind": true,
      "versionBegin": "",
      "versionEnd": ""
    },
    {
      "subId": 4002809,
      "mainId": 40028,
      "order": 12,
      "descTextMapHash": 3140754596,
      "finishCond": [
        {
          "damageRatio": "QUEST_CONTENT_COMPLETE_TALK",
          "param": [
            4002821,
            0
          ]
        }
      ],
      "guide": {
        "damageRatio": "QUEST_GUIDE_NPC",
        "param": [
          "1002"
        ],
        "guideScene": 3,
        "MLAHIFLGIGJ": ""
      },
      "guideHint": {
        "param1": ""
      },
      "isRewind": true,
      "versionBegin": "",
      "versionEnd": ""
    },
    {
      "subId": 4002810,
      "mainId": 40028,
      "order": 14,
      "descTextMapHash": 51136684,
      "finishCond": [
        {
          "damageRatio": "QUEST_CONTENT_FINISH_PLOT",
          "param": [
            4002810,
            0
          ]
        }
      ],
      "guide": {
        "damageRatio": "QUEST_GUIDE_LOCATION",
        "param": [
          "Q4002810_track",
          "10"
        ],
        "guideScene": 3,
        "MLAHIFLGIGJ": ""
      },
      "guideHint": {
        "param1": ""
      },
      "versionBegin": "",
      "versionEnd": ""
    },
    {
      "subId": 4002811,
      "mainId": 40028,
      "order": 15,
      "isMpBlock": true,
      "descTextMapHash": 3475814532,
      "finishCond": [
        {
          "damageRatio": "QUEST_CONTENT_LUA_NOTIFY",
          "param": [
            0,
            0
          ],
          "count": 1
        }
      ],
      "failCond": [
        {
          "damageRatio": "QUEST_CONTENT_TEAM_DEAD",
          "param": [
            0,
            0
          ]
        },
        {
          "damageRatio": "QUEST_CONTENT_NOT_FINISH_PLOT",
          "param": [
            4002811,
            0
          ]
        },
        {
          "damageRatio": "QUEST_CONTENT_ANY_MANUAL_TRANSPORT",
          "param": [
            0,
            0
          ]
        }
      ],
      "guide": {
        "damageRatio": "QUEST_GUIDE_LOCATION",
        "param": [
          "Q40028_quest_monster",
          "50"
        ],
        "guideScene": 3,
        "MLAHIFLGIGJ": ""
      },
      "guideHint": {
        "param1": ""
      },
      "failExec": [
        {
          "damageRatio": "QUEST_EXEC_ROLLBACK_QUEST",
          "param": [
            "4002820"
          ]
        },
        {
          "damageRatio": "QUEST_EXEC_UNREGISTER_DYNAMIC_GROUP",
          "param": [
            "133002108"
          ]
        }
      ],
      "versionBegin": "",
      "versionEnd": ""
    },
    {
      "subId": 4002812,
      "mainId": 40028,
      "order": 16,
      "descTextMapHash": 2703976788,
      "finishCond": [
        {
          "damageRatio": "QUEST_CONTENT_COMPLETE_TALK",
          "param": [
            4002807,
            0
          ]
        }
      ],
      "guide": {
        "damageRatio": "QUEST_GUIDE_NPC",
        "param": [
          "1018"
        ],
        "guideScene": 3,
        "MLAHIFLGIGJ": ""
      },
      "guideHint": {
        "param1": ""
      },
      "isRewind": true,
      "versionBegin": "",
      "versionEnd": ""
    },
    {
      "subId": 4002813,
      "mainId": 40028,
      "order": 17,
      "descTextMapHash": 2062944468,
      "finishCond": [
        {
          "damageRatio": "QUEST_CONTENT_COMPLETE_TALK",
          "param": [
            4002808,
            0
          ]
        }
      ],
      "guide": {
        "damageRatio": "QUEST_GUIDE_LOCATION",
        "autoGuide": "QUEST_GUIDE_AUTO_ENABLE",
        "param": [
          "Q40028_quest_back01",
          "0"
        ],
        "guideScene": 3,
        "guideStyle": "QUEST_GUIDE_STYLE_POINT",
        "guideLayer": "QUEST_GUIDE_LAYER_SCENE",
        "MLAHIFLGIGJ": ""
      },
      "guideHint": {
        "param1": ""
      },
      "isRewind": true,
      "finishExec": [
        {
          "damageRatio": "QUEST_EXEC_UNREGISTER_DYNAMIC_GROUP",
          "param": [
            "133002108"
          ]
        }
      ],
      "versionBegin": "",
      "versionEnd": ""
    },
    {
      "subId": 4002814,
      "mainId": 40028,
      "order": 18,
      "descTextMapHash": 366670588,
      "finishCond": [
        {
          "damageRatio": "QUEST_CONTENT_COMPLETE_TALK",
          "param": [
            4002809,
            0
          ]
        }
      ],
      "guide": {
        "damageRatio": "QUEST_GUIDE_LOCATION",
        "autoGuide": "QUEST_GUIDE_AUTO_ENABLE",
        "param": [
          "Q4002814_track_home",
          "0"
        ],
        "guideScene": 3,
        "guideStyle": "QUEST_GUIDE_STYLE_POINT",
        "guideLayer": "QUEST_GUIDE_LAYER_SCENE",
        "MLAHIFLGIGJ": ""
      },
      "guideHint": {
        "param1": ""
      },
      "isRewind": true,
      "versionBegin": "",
      "versionEnd": ""
    },
    {
      "subId": 4002815,
      "mainId": 40028,
      "order": 7,
      "descTextMapHash": 991268844,
      "showType": "QUEST_HIDDEN",
      "finishCond": [
        {
          "damageRatio": "QUEST_CONTENT_QUEST_STATE_EQUAL",
          "param": [
            4002806,
            3
          ]
        },
        {
          "damageRatio": "QUEST_CONTENT_QUEST_STATE_EQUAL",
          "param": [
            4002818,
            3
          ]
        }
      ],
      "guide": {
        "MLAHIFLGIGJ": ""
      },
      "showGuide": "QUEST_GUIDE_ITEM_DISABLE",
      "guideHint": {
        "param1": ""
      },
      "versionBegin": "",
      "versionEnd": ""
    },
    {
      "subId": 4002816,
      "mainId": 40028,
      "order": 11,
      "descTextMapHash": 2054452948,
      "finishCond": [
        {
          "damageRatio": "QUEST_CONTENT_COMPLETE_TALK",
          "param": [
            4002805,
            0
          ]
        }
      ],
      "guide": {
        "damageRatio": "QUEST_GUIDE_LOCATION",
        "param": [
          "Q40028_quest_transmit",
          "0"
        ],
        "guideScene": 3,
        "guideStyle": "QUEST_GUIDE_STYLE_POINT",
        "MLAHIFLGIGJ": ""
      },
      "guideHint": {
        "param1": ""
      },
      "isRewind": true,
      "finishExec": [
        {
          "damageRatio": "QUEST_EXEC_UNREGISTER_DYNAMIC_GROUP",
          "param": [
            "133002093"
          ]
        }
      ],
      "versionBegin": "",
      "versionEnd": ""
    },
    {
      "subId": 4002817,
      "mainId": 40028,
      "order": 19,
      "descTextMapHash": 1090264780,
      "showType": "QUEST_HIDDEN",
      "finishCond": [
        {
          "damageRatio": "QUEST_CONTENT_FINISH_PLOT",
          "param": [
            4002817,
            0
          ]
        }
      ],
      "guide": {
        "damageRatio": "QUEST_GUIDE_LOCATION",
        "autoGuide": "QUEST_GUIDE_AUTO_ENABLE",
        "param": [
          "Q4002814_player_transmit",
          "0"
        ],
        "guideScene": 3,
        "guideStyle": "QUEST_GUIDE_STYLE_POINT",
        "guideLayer": "QUEST_GUIDE_LAYER_SCENE",
        "MLAHIFLGIGJ": ""
      },
      "guideHint": {
        "param1": ""
      },
      "finishParent": true,
      "finishExec": [
        {
          "damageRatio": "QUEST_EXEC_SET_QUEST_GLOBAL_VAR",
          "param": [
            "40026",
            "2"
          ]
        },
        {
          "damageRatio": "QUEST_EXEC_SET_QUEST_GLOBAL_VAR",
          "param": [
            "40028",
            "1"
          ]
        },
        {
          "damageRatio": "QUEST_EXEC_REFRESH_GROUP_SUITE",
          "param": [
            "3",
            "133002928,2"
          ]
        }
      ],
      "versionBegin": "",
      "versionEnd": ""
    },
    {
      "subId": 4002818,
      "mainId": 40028,
      "order": 5,
      "subIdSet": 4002801,
      "descTextMapHash": 2953684092,
      "guideTipsTextMapHash": 2205143382,
      "finishCond": [
        {
          "damageRatio": "QUEST_CONTENT_LUA_NOTIFY",
          "param": [
            0,
            0
          ],
          "count": 1
        }
      ],
      "guide": {
        "damageRatio": "QUEST_GUIDE_LOCATION",
        "autoGuide": "QUEST_GUIDE_AUTO_ENABLE",
        "param": [
          "Q4002818_guide",
          "0"
        ],
        "guideScene": 3,
        "guideLayer": "QUEST_GUIDE_LAYER_SCENE",
        "MLAHIFLGIGJ": ""
      },
      "guideHint": {
        "param1": ""
      },
      "isRewind": true,
      "finishExec": [
        {
          "damageRatio": "QUEST_EXEC_UNREGISTER_DYNAMIC_GROUP",
          "param": [
            "133002080"
          ]
        }
      ],
      "versionBegin": "",
      "versionEnd": ""
    },
    {
      "subId": 4002819,
      "mainId": 40028,
      "order": 8,
      "descTextMapHash": 89226316,
      "showType": "QUEST_HIDDEN",
      "finishCond": [
        {
          "damageRatio": "QUEST_CONTENT_QUEST_STATE_EQUAL",
          "param": [
            4002818,
            3
          ]
        },
        {
          "damageRatio": "QUEST_CONTENT_QUEST_STATE_EQUAL",
          "param": [
            4002806,
            3
          ]
        }
      ],
      "guide": {
        "MLAHIFLGIGJ": ""
      },
      "showGuide": "QUEST_GUIDE_ITEM_DISABLE",
      "guideHint": {
        "param1": ""
      },
      "versionBegin": "",
      "versionEnd": ""
    },
    {
      "subId": 4002820,
      "mainId": 40028,
      "order": 13,
      "descTextMapHash": 3933586244,
      "finishCond": [
        {
          "damageRatio": "QUEST_CONTENT_COMPLETE_TALK",
          "param": [
            4002806,
            0
          ]
        }
      ],
      "guide": {
        "damageRatio": "QUEST_GUIDE_NPC",
        "autoGuide": "QUEST_GUIDE_AUTO_ENABLE",
        "param": [
          "1029"
        ],
        "guideScene": 3,
        "guideLayer": "QUEST_GUIDE_LAYER_SCENE",
        "MLAHIFLGIGJ": ""
      },
      "guideHint": {
        "param1": ""
      },
      "isRewind": true,
      "versionBegin": "",
      "versionEnd": ""
    },
    {
      "subId": 4002821,
      "mainId": 40028,
      "order": 99,
      "descTextMapHash": 3118371580,
      "showType": "QUEST_HIDDEN",
      "guide": {
        "MLAHIFLGIGJ": ""
      },
      "showGuide": "QUEST_GUIDE_ITEM_DISABLE",
      "guideHint": {
        "param1": ""
      },
      "failParentShow": "QUEST_HIDDEN",
      "versionBegin": "",
      "versionEnd": ""
    }
  ],
  "talks": [
    {
      "id": 4002802,
      "beginWay": "TALK_BEGIN_MANUAL",
      "beginCond": [
        {
          "type": "QUEST_COND_STATE_EQUAL",
          "_param": [
            "4002803",
            "2"
          ]
        }
      ],
      "priority": 5,
      "initDialog": 400280201,
      "npcId": [
        1002,
        1029
      ],
      "performCfg": "QuestDialogue/EQ/WinterCamp_40028/Q4002802",
      "heroTalk": "TALK_HERO_MAIN",
      "questId": 40028,
      "assetIndex": 14394971509617162883,
      "prePerformCfg": "",
      "lockGameTime": true
    },
    {
      "id": 4002803,
      "beginWay": "TALK_BEGIN_MANUAL",
      "beginCond": [
        {
          "type": "QUEST_COND_STATE_EQUAL",
          "_param": [
            "4002804",
            "2"
          ]
        }
      ],
      "priority": 5,
      "initDialog": 400280301,
      "npcId": [
        1002,
        1024,
        1029
      ],
      "performCfg": "QuestDialogue/EQ/WinterCamp_40028/Q4002803",
      "heroTalk": "TALK_HERO_MAIN",
      "questId": 40028,
      "assetIndex": 5991796686907648389,
      "prePerformCfg": "",
      "lockGameTime": true
    },
    {
      "id": 4002804,
      "beginWay": "TALK_BEGIN_MANUAL",
      "beginCond": [
        {
          "type": "QUEST_COND_STATE_EQUAL",
          "_param": [
            "4002807",
            "2"
          ]
        }
      ],
      "priority": 5,
      "initDialog": 400280401,
      "npcId": [
        1002,
        1029,
        1024,
        12254
      ],
      "performCfg": "QuestDialogue/EQ/WinterCamp_40028/Q4002804",
      "heroTalk": "TALK_HERO_MAIN",
      "questId": 40028,
      "assetIndex": 13543428681486166988,
      "prePerformCfg": "",
      "lockGameTime": true
    },
    {
      "id": 4002805,
      "beginWay": "TALK_BEGIN_MANUAL",
      "beginCond": [
        {
          "type": "QUEST_COND_STATE_EQUAL",
          "_param": [
            "4002816",
            "2"
          ]
        }
      ],
      "priority": 5,
      "initDialog": 400280501,
      "npcId": [
        1029,
        1024,
        1002,
        12254
      ],
      "performCfg": "QuestDialogue/EQ/WinterCamp_40028/Q4002805",
      "heroTalk": "TALK_HERO_MAIN",
      "questId": 40028,
      "assetIndex": 7369137064414725120,
      "prePerformCfg": "",
      "lockGameTime": true
    },
    {
      "id": 4002806,
      "beginWay": "TALK_BEGIN_MANUAL",
      "beginCond": [
        {
          "type": "QUEST_COND_STATE_EQUAL",
          "_param": [
            "4002820",
            "2"
          ]
        }
      ],
      "priority": 8,
      "initDialog": 400280601,
      "npcId": [
        1029
      ],
      "performCfg": "QuestDialogue/EQ/WinterCamp_40028/Q4002806",
      "heroTalk": "TALK_HERO_MAIN",
      "questId": 40028,
      "assetIndex": 17478282057269646557,
      "prePerformCfg": "",
      "lockGameTime": true
    },
    {
      "id": 4002807,
      "beginWay": "TALK_BEGIN_MANUAL",
      "beginCond": [
        {
          "type": "QUEST_COND_STATE_EQUAL",
          "_param": [
            "4002812",
            "2"
          ]
        }
      ],
      "priority": 5,
      "initDialog": 400280701,
      "npcId": [
        1018,
        1002,
        1029,
        1024
      ],
      "performCfg": "QuestDialogue/EQ/WinterCamp_40028/Q4002807",
      "heroTalk": "TALK_HERO_MAIN",
      "questId": 40028,
      "assetIndex": 4610613542219573108,
      "prePerformCfg": "",
      "lockGameTime": true
    },
    {
      "id": 4002808,
      "beginWay": "TALK_BEGIN_MANUAL",
      "beginCond": [
        {
          "type": "QUEST_COND_STATE_EQUAL",
          "_param": [
            "4002813",
            "2"
          ]
        }
      ],
      "priority": 5,
      "initDialog": 400280801,
      "npcId": [
        1024,
        1002,
        1029,
        1018
      ],
      "performCfg": "QuestDialogue/EQ/WinterCamp_40028/Q4002808",
      "heroTalk": "TALK_HERO_MAIN",
      "questId": 40028,
      "assetIndex": 1166919110723299246,
      "prePerformCfg": "",
      "lockGameTime": true
    },
    {
      "id": 4002809,
      "beginWay": "TALK_BEGIN_MANUAL",
      "beginCond": [
        {
          "type": "QUEST_COND_STATE_EQUAL",
          "_param": [
            "4002814",
            "2"
          ]
        }
      ],
      "priority": 5,
      "initDialog": 400280901,
      "npcId": [
        1018
      ],
      "performCfg": "QuestDialogue/EQ/WinterCamp_40028/Q4002809",
      "heroTalk": "TALK_HERO_MAIN",
      "questId": 40028,
      "assetIndex": 6806881035237819803,
      "prePerformCfg": "",
      "lockGameTime": true
    },
    {
      "id": 4002810,
      "beginWay": "TALK_BEGIN_MANUAL",
      "beginCond": [
        {
          "type": "QUEST_COND_STATE_EQUAL",
          "_param": [
            "4002801",
            "2"
          ]
        }
      ],
      "priority": 5,
      "initDialog": 400281001,
      "npcId": [
        1024,
        1002,
        1029,
        1018
      ],
      "performCfg": "QuestDialogue/EQ/WinterCamp_40028/Q4002810",
      "heroTalk": "TALK_HERO_MAIN",
      "questId": 40028,
      "assetIndex": 15863033634887196890,
      "prePerformCfg": "",
      "lockGameTime": true
    },
    {
      "id": 4002811,
      "beginWay": "TALK_BEGIN_MANUAL",
      "beginCond": [
        {
          "type": "QUEST_COND_STATE_EQUAL",
          "_param": [
            "4002808",
            "2"
          ]
        }
      ],
      "priority": 5,
      "initDialog": 400281101,
      "npcId": [
        1002,
        1024,
        1029,
        12254
      ],
      "performCfg": "QuestDialogue/EQ/WinterCamp_40028/Q4002811",
      "heroTalk": "TALK_HERO_MAIN",
      "questId": 40028,
      "assetIndex": 10294784952811323056,
      "prePerformCfg": "",
      "lockGameTime": true
    },
    {
      "id": 4002813,
      "beginWay": "TALK_BEGIN_MANUAL",
      "priority": 5,
      "initDialog": 400281301,
      "npcId": [
        12252
      ],
      "performCfg": "",
      "heroTalk": "TALK_HERO_MAIN",
      "questId": 40028,
      "assetIndex": 4788481244962196167,
      "prePerformCfg": "",
      "lowPriority": true
    },
    {
      "id": 4002821,
      "beginWay": "TALK_BEGIN_MANUAL",
      "beginCond": [
        {
          "type": "QUEST_COND_STATE_EQUAL",
          "_param": [
            "4002809",
            "2"
          ]
        }
      ],
      "priority": 5,
      "initDialog": 400282101,
      "npcId": [
        1024,
        1002
      ],
      "performCfg": "QuestDialogue/EQ/WinterCamp_40028/Q4002821",
      "questId": 40028,
      "assetIndex": 3459468512358649698,
      "prePerformCfg": "",
      "lockGameTime": true
    }
  ],
  "preloadLuaList": [
    5909385756826696338,
    14349060893801563045,
    6992874914364286875,
    4103947235590847229,
    3448718716414500048,
    9379247458177126630,
    12045401381275361734,
    17017613852069132648,
    6117586255090675912,
    11759823759741285463,
    15705074695317415732,
    12152384679331651289,
    2383203121605437537
  ],
  "forcePreloadLuaList": [
    9117029834755173850
  ],
  "freeStyleDic": {
    "1002": [
      8010,
      0
    ]
  }
}