{
  "id": 4002,
  "resId": 1021,
  "series": 1402,
  "descTextMapHash": 1346972751,
  "EKEKACCODOE": 2842315454,
  "luaPath": "Actor/Quest/AQ4002",
  "suggestTrackMainQuestList": [
    4011
  ],
  "rewardIdList": [
    104002
  ],
  "chapterId": 1402,
  "subQuests": [
    {
      "subId": 400201,
      "mainId": 4002,
      "order": 2,
      "descTextMapHash": 2258603932,
      "JIFODJPFKDF": [
        108501
      ],
      "finishCond": [
        {
          "damageRatio": "QUEST_CONTENT_FINISH_PLOT",
          "param": [
            400201,
            0
          ]
        }
      ],
      "guide": {
        "damageRatio": "QUEST_GUIDE_LOCATION",
        "param": [
          "[3_4498:3686.354,440.185,4352.712]",
          "20"
        ],
        "guideScene": 3,
        "guideStyle": "QUEST_GUIDE_STYLE_TARGET",
        "guideLayer": "QUEST_GUIDE_LAYER_SCENE",
        "MLAHIFLGIGJ": ""
      },
      "guideHint": {
        "param1": ""
      },
      "isRewind": true,
      "versionBegin": "",
      "versionEnd": ""
    },
    {
      "subId": 400202,
      "mainId": 4002,
      "order": 3,
      "descTextMapHash": 509654580,
      "JIFODJPFKDF": [
        108501
      ],
      "finishCond": [
        {
          "damageRatio": "QUEST_CONTENT_FINISH_PLOT",
          "param": [
            400202,
            0
          ]
        }
      ],
      "guide": {
        "damageRatio": "QUEST_GUIDE_LOCATION",
        "param": [
          "[3_4747:3543.000,383.509,4265.175]",
          "30"
        ],
        "guideScene": 3,
        "guideStyle": "QUEST_GUIDE_STYLE_TARGET",
        "guideLayer": "QUEST_GUIDE_LAYER_SCENE",
        "MLAHIFLGIGJ": ""
      },
      "guideHint": {
        "param1": ""
      },
      "isRewind": true,
      "versionBegin": "",
      "versionEnd": ""
    },
    {
      "subId": 400203,
      "mainId": 4002,
      "order": 4,
      "descTextMapHash": 2116758668,
      "JIFODJPFKDF": [
        108501
      ],
      "finishCond": [
        {
          "damageRatio": "QUEST_CONTENT_COMPLETE_TALK",
          "param": [
            400203,
            0
          ]
        }
      ],
      "guide": {
        "damageRatio": "QUEST_GUIDE_LOCATION",
        "param": [
          "[3_4719:3530.441,381.767,4253.857]"
        ],
        "guideScene": 3,
        "guideStyle": "QUEST_GUIDE_STYLE_POINT",
        "guideLayer": "QUEST_GUIDE_LAYER_SCENE",
        "MLAHIFLGIGJ": ""
      },
      "guideHint": {
        "param1": ""
      },
      "isRewind": true,
      "finishExec": [
        {
          "damageRatio": "QUEST_EXEC_UNREGISTER_DYNAMIC_GROUP",
          "param": [
            "201085012"
          ]
        }
      ],
      "versionBegin": "",
      "versionEnd": ""
    },
    {
      "subId": 400204,
      "mainId": 4002,
      "order": 5,
      "descTextMapHash": 2613323532,
      "JIFODJPFKDF": [
        108501
      ],
      "finishCond": [
        {
          "damageRatio": "QUEST_CONTENT_COMPLETE_TALK",
          "param": [
            400227,
            0
          ]
        }
      ],
      "guide": {
        "damageRatio": "QUEST_GUIDE_LOCATION",
        "param": [
          "[1085_6:0.000,7.405,98.214]"
        ],
        "guideScene": 1085,
        "guideStyle": "QUEST_GUIDE_STYLE_POINT",
        "guideLayer": "QUEST_GUIDE_LAYER_SCENE",
        "MLAHIFLGIGJ": ""
      },
      "guideHint": {
        "param1": ""
      },
      "isRewind": true,
      "versionBegin": "",
      "versionEnd": ""
    },
    {
      "subId": 400205,
      "mainId": 4002,
      "order": 8,
      "descTextMapHash": 3296093516,
      "JIFODJPFKDF": [
        108501
      ],
      "finishCond": [
        {
          "damageRatio": "QUEST_CONTENT_FINISH_PLOT",
          "param": [
            400205,
            0
          ]
        }
      ],
      "failCond": [
        {
          "damageRatio": "QUEST_CONTENT_LEAVE_SCENE",
          "param": [
            20186,
            0
          ]
        },
        {
          "damageRatio": "QUEST_CONTENT_FAIL_DUNGEON",
          "param": [
            1181,
            0
          ]
        }
      ],
      "guide": {
        "guideScene": 3,
        "guideStyle": "QUEST_GUIDE_STYLE_TARGET",
        "guideLayer": "QUEST_GUIDE_LAYER_SCENE",
        "MLAHIFLGIGJ": ""
      },
      "showGuide": "QUEST_GUIDE_ITEM_DISABLE",
      "guideHint": {
        "param1": ""
      },
      "isRewind": true,
      "failExec": [
        {
          "damageRatio": "QUEST_EXEC_ROLLBACK_QUEST",
          "param": [
            "400220"
          ]
        }
      ],
      "versionBegin": "",
      "versionEnd": ""
    },
    {
      "subId": 400206,
      "mainId": 4002,
      "order": 9,
      "descTextMapHash": 240945956,
      "JIFODJPFKDF": [
        108501
      ],
      "finishCond": [
        {
          "damageRatio": "QUEST_CONTENT_COMPLETE_TALK",
          "param": [
            400206,
            0
          ]
        }
      ],
      "failCond": [
        {
          "damageRatio": "QUEST_CONTENT_LEAVE_SCENE",
          "param": [
            20186,
            0
          ]
        },
        {
          "damageRatio": "QUEST_CONTENT_FAIL_DUNGEON",
          "param": [
            1181,
            0
          ]
        }
      ],
      "guide": {
        "guideScene": 3,
        "guideStyle": "QUEST_GUIDE_STYLE_TARGET",
        "guideLayer": "QUEST_GUIDE_LAYER_SCENE",
        "MLAHIFLGIGJ": ""
      },
      "showGuide": "QUEST_GUIDE_ITEM_DISABLE",
      "guideHint": {
        "param1": ""
      },
      "isRewind": true,
      "failExec": [
        {
          "damageRatio": "QUEST_EXEC_ROLLBACK_QUEST",
          "param": [
            "400220"
          ]
        }
      ],
      "versionBegin": "",
      "versionEnd": ""
    },
    {
      "subId": 400207,
      "mainId": 4002,
      "order": 10,
      "descTextMapHash": 4055019708,
      "JIFODJPFKDF": [
        108501
      ],
      "finishCond": [
        {
          "damageRatio": "QUEST_CONTENT_EVENTS_ITEM_STATUS",
          "param": [
            4001,
            1
          ]
        }
      ],
      "failCond": [
        {
          "damageRatio": "QUEST_CONTENT_LEAVE_SCENE",
          "param": [
            20186,
            0
          ]
        },
        {
          "damageRatio": "QUEST_CONTENT_FAIL_DUNGEON",
          "param": [
            1181,
            0
          ]
        }
      ],
      "guide": {
        "guideScene": 3,
        "guideStyle": "QUEST_GUIDE_STYLE_TARGET",
        "guideLayer": "QUEST_GUIDE_LAYER_SCENE",
        "MLAHIFLGIGJ": ""
      },
      "showGuide": "QUEST_GUIDE_ITEM_DISABLE",
      "guideHint": {
        "param1": ""
      },
      "isRewind": true,
      "failExec": [
        {
          "damageRatio": "QUEST_EXEC_ROLLBACK_QUEST",
          "param": [
            "400220"
          ]
        }
      ],
      "versionBegin": "",
      "versionEnd": ""
    },
    {
      "subId": 400208,
      "mainId": 4002,
      "order": 14,
      "descTextMapHash": 2361513692,
      "JIFODJPFKDF": [
        108501
      ],
      "finishCond": [
        {
          "damageRatio": "QUEST_CONTENT_COMPLETE_TALK",
          "param": [
            400226,
            0
          ]
        }
      ],
      "guide": {
        "damageRatio": "QUEST_GUIDE_NPC",
        "param": [
          "13309"
        ],
        "guideScene": 1085,
        "guideStyle": "QUEST_GUIDE_STYLE_TARGET",
        "guideLayer": "QUEST_GUIDE_LAYER_SCENE",
        "MLAHIFLGIGJ": ""
      },
      "guideHint": {
        "param1": ""
      },
      "isRewind": true,
      "versionBegin": "",
      "versionEnd": ""
    },
    {
      "subId": 400209,
      "mainId": 4002,
      "order": 17,
      "descTextMapHash": 1026044396,
      "JIFODJPFKDF": [
        108501
      ],
      "finishCond": [
        {
          "damageRatio": "QUEST_CONTENT_COMPLETE_TALK",
          "param": [
            400209,
            0
          ]
        }
      ],
      "guide": {
        "damageRatio": "QUEST_GUIDE_LOCATION",
        "param": [
          "[1085_14:-0.828,7.281,149.622]"
        ],
        "guideScene": 1085,
        "guideStyle": "QUEST_GUIDE_STYLE_POINT",
        "MLAHIFLGIGJ": ""
      },
      "guideHint": {
        "param1": ""
      },
      "isRewind": true,
      "versionBegin": "",
      "versionEnd": ""
    },
    {
      "subId": 400210,
      "mainId": 4002,
      "order": 18,
      "descTextMapHash": 506267836,
      "JIFODJPFKDF": [
        340202,
        340111,
        340308
      ],
      "finishCond": [
        {
          "damageRatio": "QUEST_CONTENT_COMPLETE_TALK",
          "param": [
            400210,
            0
          ]
        }
      ],
      "guide": {
        "damageRatio": "QUEST_GUIDE_LOCATION",
        "param": [
          "[3_340200012:3453.145,459.001,3680.335,0.000,120.000,0.000]"
        ],
        "guideScene": 3,
        "guideStyle": "QUEST_GUIDE_STYLE_POINT",
        "MLAHIFLGIGJ": ""
      },
      "guideHint": {
        "param1": ""
      },
      "isRewind": true,
      "versionBegin": "",
      "versionEnd": ""
    },
    {
      "subId": 400211,
      "mainId": 4002,
      "order": 19,
      "isMpBlock": true,
      "descTextMapHash": 2564179916,
      "JIFODJPFKDF": [
        340202,
        340111,
        340308
      ],
      "finishCond": [
        {
          "damageRatio": "QUEST_CONTENT_COMPLETE_TALK",
          "param": [
            400211,
            0
          ]
        }
      ],
      "guide": {
        "damageRatio": "QUEST_GUIDE_LOCATION",
        "param": [
          "[3_340200015:3460.879,492.000,3669.608]"
        ],
        "guideScene": 3,
        "guideStyle": "QUEST_GUIDE_STYLE_POINT",
        "MLAHIFLGIGJ": ""
      },
      "guideHint": {
        "param1": ""
      },
      "finishExec": [
        {
          "damageRatio": "QUEST_EXEC_UNREGISTER_DYNAMIC_GROUP",
          "param": [
            "133402035"
          ]
        }
      ],
      "versionBegin": "",
      "versionEnd": ""
    },
    {
      "subId": 400212,
      "mainId": 4002,
      "order": 20,
      "descTextMapHash": 588853644,
      "JIFODJPFKDF": [
        340111,
        340308
      ],
      "finishCond": [
        {
          "damageRatio": "QUEST_CONTENT_COMPLETE_TALK",
          "param": [
            400212,
            0
          ]
        }
      ],
      "guide": {
        "damageRatio": "QUEST_GUIDE_LOCATION",
        "param": [
          "[3_340200019:3567.073,445.895,4445.939,0.000,227.634,0.000]"
        ],
        "guideScene": 3,
        "guideStyle": "QUEST_GUIDE_STYLE_POINT",
        "MLAHIFLGIGJ": ""
      },
      "guideHint": {
        "param1": ""
      },
      "isRewind": true,
      "finishExec": [
        {
          "damageRatio": "QUEST_EXEC_SET_WEATHER_GADGET",
          "param": [
            "5049",
            "0"
          ]
        }
      ],
      "versionBegin": "",
      "versionEnd": ""
    },
    {
      "subId": 400213,
      "mainId": 4002,
      "order": 22,
      "descTextMapHash": 3539227972,
      "JIFODJPFKDF": [
        340308
      ],
      "finishCond": [
        {
          "damageRatio": "QUEST_CONTENT_COMPLETE_TALK",
          "param": [
            400213,
            0
          ]
        }
      ],
      "guide": {
        "damageRatio": "QUEST_GUIDE_LOCATION",
        "param": [
          "[3_340300038:2640.366,462.167,4273.290,0.000,282.125,0.000]",
          "20"
        ],
        "guideScene": 3,
        "guideStyle": "QUEST_GUIDE_STYLE_TARGET",
        "MLAHIFLGIGJ": ""
      },
      "guideHint": {
        "param1": ""
      },
      "isRewind": true,
      "finishExec": [
        {
          "damageRatio": "QUEST_EXEC_SET_WEATHER_GADGET",
          "param": [
            "5050",
            "0"
          ]
        },
        {
          "damageRatio": "QUEST_EXEC_SET_GAME_TIME",
          "param": [
            "18"
          ]
        }
      ],
      "versionBegin": "",
      "versionEnd": ""
    },
    {
      "subId": 400214,
      "mainId": 4002,
      "order": 11,
      "descTextMapHash": 40396628,
      "JIFODJPFKDF": [
        108501
      ],
      "finishCond": [
        {
          "damageRatio": "QUEST_CONTENT_COMPLETE_TALK",
          "param": [
            400214,
            0
          ]
        }
      ],
      "failCond": [
        {
          "damageRatio": "QUEST_CONTENT_LEAVE_SCENE",
          "param": [
            20186,
            0
          ]
        },
        {
          "damageRatio": "QUEST_CONTENT_FAIL_DUNGEON",
          "param": [
            1181,
            0
          ]
        }
      ],
      "guide": {
        "MLAHIFLGIGJ": ""
      },
      "showGuide": "QUEST_GUIDE_ITEM_DISABLE",
      "guideHint": {
        "param1": ""
      },
      "isRewind": true,
      "failExec": [
        {
          "damageRatio": "QUEST_EXEC_ROLLBACK_QUEST",
          "param": [
            "400220"
          ]
        }
      ],
      "versionBegin": "",
      "versionEnd": ""
    },
    {
      "subId": 400215,
      "mainId": 4002,
      "order": 12,
      "descTextMapHash": 2259964492,
      "JIFODJPFKDF": [
        108501
      ],
      "finishCond": [
        {
          "damageRatio": "QUEST_CONTENT_EVENTS_ITEM_STATUS",
          "param": [
            4001,
            1
          ]
        }
      ],
      "failCond": [
        {
          "damageRatio": "QUEST_CONTENT_LEAVE_SCENE",
          "param": [
            20186,
            0
          ]
        },
        {
          "damageRatio": "QUEST_CONTENT_FAIL_DUNGEON",
          "param": [
            1181,
            0
          ]
        }
      ],
      "guide": {
        "MLAHIFLGIGJ": ""
      },
      "showGuide": "QUEST_GUIDE_ITEM_DISABLE",
      "guideHint": {
        "param1": ""
      },
      "isRewind": true,
      "finishExec": [
        {
          "damageRatio": "QUEST_EXEC_UNLOCK_AVATAR_TEAM_V2"
        },
        {
          "damageRatio": "QUEST_EXEC_UNREGISTER_DYNAMIC_GROUP",
          "param": [
            "133401405"
          ]
        },
        {
          "damageRatio": "QUEST_EXEC_LOCK_POINT",
          "param": [
            "3",
            "967"
          ]
        }
      ],
      "failExec": [
        {
          "damageRatio": "QUEST_EXEC_ROLLBACK_QUEST",
          "param": [
            "400220"
          ]
        },
        {
          "damageRatio": "QUEST_EXEC_SET_QUEST_GLOBAL_VAR",
          "param": [
            "400202",
            "0"
          ]
        },
        {
          "damageRatio": "QUEST_EXEC_SET_QUEST_GLOBAL_VAR",
          "param": [
            "400203",
            "0"
          ]
        },
        {
          "damageRatio": "QUEST_EXEC_SET_QUEST_GLOBAL_VAR",
          "param": [
            "400204",
            "0"
          ]
        },
        {
          "damageRatio": "QUEST_EXEC_SET_QUEST_GLOBAL_VAR",
          "param": [
            "400205",
            "0"
          ]
        }
      ],
      "versionBegin": "",
      "versionEnd": ""
    },
    {
      "subId": 400216,
      "mainId": 4002,
      "order": 13,
      "descTextMapHash": 1348511084,
      "JIFODJPFKDF": [
        108501
      ],
      "finishCond": [
        {
          "damageRatio": "QUEST_CONTENT_ENTER_ROOM",
          "param": [
            1085,
            0
          ]
        }
      ],
      "guide": {
        "damageRatio": "QUEST_GUIDE_LOCATION",
        "param": [
          "[1085_187:-0.570,7.281,159.006]"
        ],
        "guideScene": 1085,
        "guideStyle": "QUEST_GUIDE_STYLE_POINT",
        "MLAHIFLGIGJ": ""
      },
      "guideHint": {
        "param1": ""
      },
      "isRewind": true,
      "versionBegin": "",
      "versionEnd": ""
    },
    {
      "subId": 400217,
      "mainId": 4002,
      "order": 16,
      "descTextMapHash": 1328521476,
      "JIFODJPFKDF": [
        108501
      ],
      "finishCond": [
        {
          "damageRatio": "QUEST_CONTENT_COMPLETE_TALK",
          "param": [
            400217,
            0
          ]
        }
      ],
      "guide": {
        "damageRatio": "QUEST_GUIDE_NPC",
        "param": [
          "1076"
        ],
        "guideScene": 1085,
        "MLAHIFLGIGJ": ""
      },
      "guideHint": {
        "param1": ""
      },
      "isRewind": true,
      "versionBegin": "",
      "versionEnd": ""
    },
    {
      "subId": 400220,
      "mainId": 4002,
      "order": 7,
      "descTextMapHash": 2074468284,
      "JIFODJPFKDF": [
        108501
      ],
      "finishCond": [
        {
          "damageRatio": "QUEST_CONTENT_ENTER_DUNGEON",
          "param": [
            1181,
            967
          ]
        }
      ],
      "guide": {
        "damageRatio": "QUEST_GUIDE_LOCATION",
        "param": [
          "[3_6016:3533.735,385.140,4242.355]",
          "0"
        ],
        "guideScene": 3,
        "guideStyle": "QUEST_GUIDE_STYLE_POINT",
        "MLAHIFLGIGJ": ""
      },
      "guideHint": {
        "param1": ""
      },
      "isRewind": true,
      "versionBegin": "",
      "versionEnd": ""
    },
    {
      "subId": 400221,
      "mainId": 4002,
      "order": 24,
      "descTextMapHash": 571558396,
      "JIFODJPFKDF": [
        340308
      ],
      "finishCond": [
        {
          "damageRatio": "QUEST_CONTENT_COMPLETE_TALK",
          "param": [
            400232,
            0
          ]
        }
      ],
      "guide": {
        "damageRatio": "QUEST_GUIDE_NPC",
        "param": [
          "1076"
        ],
        "guideScene": 3,
        "guideStyle": "QUEST_GUIDE_STYLE_TARGET",
        "MLAHIFLGIGJ": ""
      },
      "guideHint": {
        "param1": ""
      },
      "finishParent": true,
      "isRewind": true,
      "finishExec": [
        {
          "damageRatio": "QUEST_EXEC_SET_QUEST_GLOBAL_VAR",
          "param": [
            "400201",
            "1"
          ]
        },
        {
          "damageRatio": "QUEST_EXEC_SET_IS_GAME_TIME_LOCKED",
          "param": [
            "0"
          ]
        },
        {
          "damageRatio": "QUEST_EXEC_UNREGISTER_DYNAMIC_GROUP",
          "param": [
            "133403553"
          ]
        },
        {
          "damageRatio": "QUEST_EXEC_SET_QUEST_GLOBAL_VAR",
          "param": [
            "400206",
            "1"
          ]
        }
      ],
      "versionBegin": "",
      "versionEnd": ""
    },
    {
      "subId": 400222,
      "mainId": 4002,
      "order": 25,
      "descTextMapHash": 2349561412,
      "showType": "QUEST_HIDDEN",
      "finishCond": [
        {
          "damageRatio": "QUEST_CONTENT_LEAVE_SCENE_RANGE",
          "param": [
            3,
            50
          ]
        }
      ],
      "guide": {
        "guideScene": 1085,
        "guideStyle": "QUEST_GUIDE_STYLE_POINT",
        "MLAHIFLGIGJ": ""
      },
      "showGuide": "QUEST_GUIDE_ITEM_DISABLE",
      "guideHint": {
        "param1": ""
      },
      "finishExec": [
        {
          "damageRatio": "QUEST_EXEC_SET_IS_GAME_TIME_LOCKED",
          "param": [
            "0"
          ]
        }
      ],
      "versionBegin": "",
      "versionEnd": ""
    },
    {
      "subId": 400223,
      "mainId": 4002,
      "order": 1,
      "descTextMapHash": 2739059772,
      "JIFODJPFKDF": [
        108501
      ],
      "finishCond": [
        {
          "damageRatio": "QUEST_CONTENT_QUEST_STATE_EQUAL",
          "param": [
            7466801,
            3
          ]
        }
      ],
      "guide": {
        "damageRatio": "QUEST_GUIDE_LOCATION",
        "param": [
          "[3_5442:3598.496,514.960,4633.012]"
        ],
        "guideScene": 3,
        "guideStyle": "QUEST_GUIDE_STYLE_TARGET",
        "MLAHIFLGIGJ": ""
      },
      "guideHint": {
        "param1": ""
      },
      "isRewind": true,
      "versionBegin": "",
      "versionEnd": ""
    },
    {
      "subId": 400224,
      "mainId": 4002,
      "order": 23,
      "descTextMapHash": 2401766356,
      "showType": "QUEST_HIDDEN",
      "finishCond": [
        {
          "damageRatio": "QUEST_CONTENT_FINISH_PLOT",
          "param": [
            400224,
            0
          ]
        }
      ],
      "guide": {
        "MLAHIFLGIGJ": ""
      },
      "guideHint": {
        "param1": ""
      },
      "finishExec": [
        {
          "damageRatio": "QUEST_EXEC_SET_WEATHER_GADGET",
          "param": [
            "5050",
            "0"
          ]
        }
      ],
      "versionBegin": "",
      "versionEnd": ""
    },
    {
      "subId": 400225,
      "mainId": 4002,
      "order": 21,
      "descTextMapHash": 4230608892,
      "showType": "QUEST_HIDDEN",
      "finishCond": [
        {
          "damageRatio": "QUEST_CONTENT_FINISH_PLOT",
          "param": [
            400225,
            0
          ]
        }
      ],
      "guide": {
        "MLAHIFLGIGJ": ""
      },
      "guideHint": {
        "param1": ""
      },
      "finishExec": [
        {
          "damageRatio": "QUEST_EXEC_SET_WEATHER_GADGET",
          "param": [
            "5049",
            "1"
          ]
        }
      ],
      "versionBegin": "",
      "versionEnd": ""
    }
  ],
  "talks": [
    {
      "id": 400201,
      "beginCond": [
        {
          "type": "QUEST_COND_STATE_EQUAL",
          "_param": [
            "400204",
            "2"
          ]
        }
      ],
      "priority": 3,
      "initDialog": 40029826,
      "npcId": [
        1075
      ],
      "performCfg": "QuestDialogue/AQ/Fontaine_4002/Q400201",
      "questId": 4002,
      "assetIndex": 8030260390321747319,
      "prePerformCfg": "",
      "lockGameTime": true
    },
    {
      "id": 400202,
      "beginCond": [
        {
          "type": "QUEST_COND_STATE_EQUAL",
          "_param": [
            "400208",
            "2"
          ]
        }
      ],
      "priority": 3,
      "initDialog": 40020201,
      "npcId": [
        13309
      ],
      "performCfg": "QuestDialogue/AQ/Fontaine_4002/Q400202",
      "questId": 4002,
      "assetIndex": 5053865217188196539,
      "prePerformCfg": "",
      "lockGameTime": true
    },
    {
      "id": 400203,
      "beginWay": "TALK_BEGIN_MANUAL",
      "beginCond": [
        {
          "type": "QUEST_COND_STATE_EQUAL",
          "_param": [
            "400203",
            "2"
          ]
        }
      ],
      "priority": 5,
      "initDialog": 40020301,
      "npcId": [
        13320
      ],
      "performCfg": "QuestDialogue/AQ/Fontaine_4002/Q400203",
      "heroTalk": "TALK_HERO_MAIN",
      "questId": 4002,
      "assetIndex": 1753038825230160889,
      "prePerformCfg": "",
      "lockGameTime": true,
      "CHAKPMBJNAJ": [
        "[3_340100134:3526.554,381.692,4252.875,0.000,270.000,0.000]",
        "[3_340100135:3525.411,381.684,4252.856,0.000,90.000,0.000]"
      ]
    },
    {
      "id": 400204,
      "beginWay": "TALK_BEGIN_MANUAL",
      "beginCondComb": "LOGIC_AND",
      "beginCond": [
        {
          "type": "QUEST_COND_EVENT_ITEM_SUBMIT_STATE_EQUAL",
          "_param": [
            "400201",
            "1"
          ]
        },
        {
          "type": "QUEST_COND_STATE_EQUAL",
          "_param": [
            "400204",
            "2"
          ]
        }
      ],
      "priority": 10,
      "initDialog": 40020401,
      "npcId": [
        1076,
        13309,
        13316,
        1075
      ],
      "performCfg": "QuestDialogue/AQ/Fontaine_4002/Q400204",
      "heroTalk": "TALK_HERO_MAIN",
      "questId": 4002,
      "assetIndex": 5881559825197842113,
      "prePerformCfg": "",
      "lockGameTime": true,
      "CHAKPMBJNAJ": [
        "[1085_131:1.785,5.783,93.982,0.000,180.000,0.000]",
        "[1085_132:-1.094,5.760,93.881,0.000,180.000,0.000]",
        "[1085_141:-8.559,-0.045,65.306,0.000,180.000,0.000]",
        "[1085_142:-10.780,0.916,68.571,0.000,180.000,0.000]",
        "[1085_143:8.695,-0.045,65.057,0.000,180.000,0.000]",
        "[1085_153:2.764,40.461,79.519,0.000,180.000,0.000]",
        "[1085_2:0.039,18.669,3.014]",
        "[1085_23:0.343,7.423,97.898,0.000,180.000,0.000]",
        "[1085_4:-24.169,15.423,34.625,0.000,90.000,0.000]",
        "[1085_5:0.121,41.060,79.236,0.000,180.000,0.000]",
        "[1085_9:0.246,5.580,93.095,0.000,180.000,0.000]"
      ]
    },
    {
      "id": 400206,
      "beginWay": "TALK_BEGIN_MANUAL",
      "beginCond": [
        {
          "type": "QUEST_COND_STATE_EQUAL",
          "_param": [
            "400206",
            "2"
          ]
        }
      ],
      "priority": 5,
      "initDialog": 40020601,
      "npcId": [
        13320
      ],
      "performCfg": "QuestDialogue/AQ/Fontaine_4002/Q400206",
      "heroTalk": "TALK_HERO_MAIN",
      "questId": 4002,
      "assetIndex": 5722003927577285789,
      "prePerformCfg": "",
      "lockGameTime": true,
      "CHAKPMBJNAJ": [
        "[20186_18:149.077,2.060,202.457,0.000,240.000,0.000]",
        "[20186_19:149.794,2.296,201.315,0.000,300.000,0.000]"
      ]
    },
    {
      "id": 400208,
      "beginWay": "TALK_BEGIN_MANUAL",
      "beginCondComb": "LOGIC_AND",
      "beginCond": [
        {
          "type": "QUEST_COND_EVENT_ITEM_SUBMIT_STATE_EQUAL",
          "_param": [
            "400202",
            "1"
          ]
        },
        {
          "type": "QUEST_COND_STATE_EQUAL",
          "_param": [
            "400208",
            "2"
          ]
        }
      ],
      "priority": 8,
      "initDialog": 40020801,
      "npcId": [
        1075,
        13315,
        1076,
        13316,
        13309
      ],
      "performCfg": "QuestDialogue/AQ/Fontaine_4002/Q400208",
      "heroTalk": "TALK_HERO_MAIN",
      "questId": 4002,
      "assetIndex": 13054975682478899350,
      "prePerformCfg": "",
      "lockGameTime": true,
      "CHAKPMBJNAJ": [
        "[1085_11:-25.323,15.377,33.639,0.000,90.000,0.000]",
        "[1085_131:1.785,5.783,93.982,0.000,180.000,0.000]",
        "[1085_132:-1.094,5.760,93.881,0.000,180.000,0.000]"
      ]
    },
    {
      "id": 400209,
      "beginWay": "TALK_BEGIN_MANUAL",
      "beginCond": [
        {
          "type": "QUEST_COND_STATE_EQUAL",
          "_param": [
            "400209",
            "2"
          ]
        }
      ],
      "priority": 5,
      "initDialog": 40020901,
      "npcId": [
        13365,
        13315
      ],
      "performCfg": "QuestDialogue/AQ/Fontaine_4002/Q400209",
      "heroTalk": "TALK_HERO_MAIN",
      "questId": 4002,
      "assetIndex": 4909551407832617435,
      "prePerformCfg": "",
      "lockGameTime": true,
      "CHAKPMBJNAJ": [
        "[1085_139:-5.470,7.281,151.235,0.000,120.000,0.000]",
        "[1085_15:-0.221,7.281,152.983]",
        "[1085_16:0.925,7.281,151.285]",
        "[1085_17:-4.491,7.281,150.067,0.000,52.175,0.000]"
      ]
    },
    {
      "id": 400210,
      "beginWay": "TALK_BEGIN_MANUAL",
      "beginCond": [
        {
          "type": "QUEST_COND_STATE_EQUAL",
          "_param": [
            "400210",
            "2"
          ]
        }
      ],
      "priority": 5,
      "initDialog": 40021001,
      "npcId": [
        13315,
        13314
      ],
      "performCfg": "QuestDialogue/AQ/Fontaine_4002/Q400210",
      "heroTalk": "TALK_HERO_MAIN",
      "questId": 4002,
      "assetIndex": 17714344746847996617,
      "prePerformCfg": "",
      "lockGameTime": true,
      "CHAKPMBJNAJ": [
        "[3_340200012:3453.145,459.001,3680.335,0.000,120.000,0.000]",
        "[3_340200013:3454.279,459.001,3681.729,0.000,180.000,0.000]",
        "[3_340200014:3453.356,459.001,3681.673,0.000,150.000,0.000]",
        "[3_340200043:3451.307,458.966,3681.846,0.000,130.000,0.000]",
        "[3_340200044:3455.698,459.550,3679.509,0.000,310.000,0.000]"
      ]
    },
    {
      "id": 400211,
      "beginWay": "TALK_BEGIN_MANUAL",
      "beginCond": [
        {
          "type": "QUEST_COND_STATE_EQUAL",
          "_param": [
            "400211",
            "2"
          ]
        }
      ],
      "priority": 5,
      "initDialog": 40021101,
      "npcId": [
        13315,
        13314
      ],
      "performCfg": "QuestDialogue/AQ/Fontaine_4002/Q400211",
      "heroTalk": "TALK_HERO_MAIN",
      "questId": 4002,
      "assetIndex": 11943983565472603042,
      "prePerformCfg": "",
      "lockGameTime": true,
      "CHAKPMBJNAJ": [
        "[3_340200015:3460.879,492.000,3669.608]",
        "[3_340200016:3461.448,492.000,3674.321,0.000,180.000,0.000]",
        "[3_340200017:3463.364,492.000,3675.394,0.000,210.000,0.000]"
      ]
    },
    {
      "id": 400212,
      "beginWay": "TALK_BEGIN_MANUAL",
      "beginCond": [
        {
          "type": "QUEST_COND_STATE_EQUAL",
          "_param": [
            "400212",
            "2"
          ]
        }
      ],
      "priority": 5,
      "initDialog": 40021201,
      "npcId": [
        1075,
        13311,
        13312
      ],
      "performCfg": "QuestDialogue/AQ/Fontaine_4002/Q400212",
      "heroTalk": "TALK_HERO_MAIN",
      "questId": 4002,
      "assetIndex": 12711083613136926309,
      "prePerformCfg": "",
      "lockGameTime": true,
      "crowdLOD0List": [
        6
      ],
      "CHAKPMBJNAJ": [
        "[3_340200019:3567.073,445.895,4445.939,0.000,227.634,0.000]",
        "[3_340200020:3560.121,445.895,4442.208,0.000,240.000,0.000]",
        "[3_340200021:3564.770,446.167,4448.703,0.000,179.484,0.000]",
        "[3_340200045:3558.781,445.895,4439.463,0.000,50.000,0.000]",
        "[3_340200046:3558.013,445.895,4442.502,0.000,110.000,0.000]"
      ]
    },
    {
      "id": 400213,
      "beginWay": "TALK_BEGIN_MANUAL",
      "beginCond": [
        {
          "type": "QUEST_COND_STATE_EQUAL",
          "_param": [
            "400213",
            "2"
          ]
        }
      ],
      "priority": 5,
      "initDialog": 40021301,
      "npcId": [
        1075,
        1076
      ],
      "performCfg": "QuestDialogue/AQ/Fontaine_4002/Q400213",
      "heroTalk": "TALK_HERO_MAIN",
      "questId": 4002,
      "assetIndex": 12352700648067938430,
      "prePerformCfg": "",
      "lockGameTime": true,
      "CHAKPMBJNAJ": [
        "[3_340300038:2640.366,462.167,4273.290,0.000,282.125,0.000]",
        "[3_340300039:2645.917,460.859,4272.026,0.000,282.194,0.000]",
        "[3_340300040:2647.300,460.552,4271.865,0.000,284.401,0.000]",
        "[3_340300041:2647.709,460.502,4272.755,0.000,274.806,0.000]"
      ]
    },
    {
      "id": 400214,
      "beginWay": "TALK_BEGIN_MANUAL",
      "beginCond": [
        {
          "type": "QUEST_COND_STATE_EQUAL",
          "_param": [
            "400214",
            "2"
          ]
        }
      ],
      "priority": 5,
      "initDialog": 40021401,
      "npcId": [
        13320
      ],
      "performCfg": "QuestDialogue/AQ/Fontaine_4002/Q400214",
      "heroTalk": "TALK_HERO_MAIN",
      "questId": 4002,
      "assetIndex": 5012509493410832424,
      "prePerformCfg": "",
      "lockGameTime": true,
      "CHAKPMBJNAJ": [
        "[20186_21:134.407,4.928,203.426]",
        "[20186_22:134.289,4.943,205.189,0.000,180.000,0.000]"
      ]
    },
    {
      "id": 400215,
      "beginWay": "TALK_BEGIN_MANUAL",
      "beginCond": [
        {
          "type": "QUEST_COND_STATE_EQUAL",
          "_param": [
            "400215",
            "2"
          ]
        },
        {
          "type": "QUEST_COND_EVENT_ITEM_LOCK_STATE_EQUAL",
          "_param": [
            "4001",
            "10105",
            "0"
          ]
        }
      ],
      "priority": 5,
      "initDialog": 40021501,
      "npcId": [
        13425
      ],
      "performCfg": "QuestDialogue/AQ/Fontaine_4002/Q400215",
      "heroTalk": "TALK_HERO_MAIN",
      "questId": 4002,
      "assetIndex": 14971648979389959403,
      "prePerformCfg": "",
      "lockGameTime": true,
      "finishExec": [
        {
          "damageRatio": "TALK_EXEC_UNLOCK_EVENTS_ITEM",
          "param": [
            "4001",
            "10105"
          ]
        }
      ],
      "CHAKPMBJNAJ": [
        "[20186_8:139.720,5.093,197.964,0.000,195.722,0.000]",
        "[20186_9:135.558,5.292,197.297,0.000,188.852,0.000]"
      ]
    },
    {
      "id": 400217,
      "beginWay": "TALK_BEGIN_MANUAL",
      "beginCond": [
        {
          "type": "QUEST_COND_STATE_EQUAL",
          "_param": [
            "400217",
            "2"
          ]
        }
      ],
      "priority": 5,
      "initDialog": 40021701,
      "npcId": [
        1076,
        13316,
        13310,
        13416,
        13313
      ],
      "performCfg": "QuestDialogue/AQ/Fontaine_4002/Q400217",
      "heroTalk": "TALK_HERO_MAIN",
      "questId": 4002,
      "assetIndex": 11518137494062133694,
      "prePerformCfg": "",
      "lockGameTime": true,
      "CHAKPMBJNAJ": [
        "[1085_180:-27.026,-2.933,45.864,0.000,27.911,0.000]",
        "[1085_181:0.005,41.060,79.226,0.000,180.000,0.000]",
        "[1085_182:-25.891,-2.933,46.509,0.000,265.404,0.000]",
        "[1085_183:-25.593,-2.933,47.525,0.000,238.098,0.000]",
        "[1085_184:-8.529,-0.046,65.265,0.000,180.000,0.000]",
        "[1085_185:-10.706,0.916,68.634,0.000,180.000,0.000]",
        "[1085_186:6.381,-0.046,65.494,0.000,180.000,0.000]"
      ]
    },
    {
      "id": 400220,
      "beginWay": "TALK_BEGIN_MANUAL",
      "beginCondComb": "LOGIC_AND",
      "beginCond": [
        {
          "type": "QUEST_COND_STATE_EQUAL",
          "_param": [
            "400207",
            "2"
          ]
        },
        {
          "type": "QUEST_COND_EVENT_ITEM_LOCK_STATE_EQUAL",
          "_param": [
            "4001",
            "10101",
            "0"
          ]
        }
      ],
      "priority": 8,
      "initDialog": 40022001,
      "npcId": [
        13411
      ],
      "performCfg": "QuestDialogue/AQ/Fontaine_4002/Q400220",
      "heroTalk": "TALK_HERO_MAIN",
      "questId": 4002,
      "assetIndex": 10771476675792890553,
      "prePerformCfg": "",
      "lockGameTime": true,
      "finishExec": [
        {
          "damageRatio": "TALK_EXEC_UNLOCK_EVENTS_ITEM",
          "param": [
            "4001",
            "10101"
          ]
        }
      ],
      "CHAKPMBJNAJ": [
        "[20186_6:124.506,4.910,190.301,0.000,261.878,0.000]",
        "[20186_7:123.810,4.950,190.715,0.000,228.936,0.000]"
      ]
    },
    {
      "id": 400221,
      "beginWay": "TALK_BEGIN_MANUAL",
      "beginCondComb": "LOGIC_AND",
      "beginCond": [
        {
          "type": "QUEST_COND_STATE_EQUAL",
          "_param": [
            "400207",
            "2"
          ]
        },
        {
          "type": "QUEST_COND_EVENT_ITEM_LOCK_STATE_EQUAL",
          "_param": [
            "4001",
            "10102",
            "0"
          ]
        }
      ],
      "priority": 8,
      "initDialog": 40022101,
      "npcId": [
        13412
      ],
      "performCfg": "QuestDialogue/AQ/Fontaine_4002/Q400221",
      "heroTalk": "TALK_HERO_MAIN",
      "questId": 4002,
      "assetIndex": 1588623620949142924,
      "prePerformCfg": "",
      "lockGameTime": true,
      "finishExec": [
        {
          "damageRatio": "TALK_EXEC_UNLOCK_EVENTS_ITEM",
          "param": [
            "4001",
            "10102"
          ]
        }
      ],
      "CHAKPMBJNAJ": [
        "[20186_8:139.720,5.093,197.964,0.000,195.722,0.000]"
      ]
    },
    {
      "id": 400222,
      "beginWay": "TALK_BEGIN_MANUAL",
      "beginCondComb": "LOGIC_AND",
      "beginCond": [
        {
          "type": "QUEST_COND_STATE_EQUAL",
          "_param": [
            "400207",
            "2"
          ]
        },
        {
          "type": "QUEST_COND_EVENT_ITEM_LOCK_STATE_EQUAL",
          "_param": [
            "4001",
            "10103",
            "0"
          ]
        }
      ],
      "priority": 8,
      "initDialog": 40022201,
      "npcId": [
        13413
      ],
      "performCfg": "QuestDialogue/AQ/Fontaine_4002/Q400222",
      "heroTalk": "TALK_HERO_MAIN",
      "questId": 4002,
      "assetIndex": 15278197689434091796,
      "prePerformCfg": "",
      "lockGameTime": true,
      "finishExec": [
        {
          "damageRatio": "TALK_EXEC_UNLOCK_EVENTS_ITEM",
          "param": [
            "4001",
            "10103"
          ]
        }
      ],
      "CHAKPMBJNAJ": [
        "[20186_10:120.840,4.950,196.985,0.000,243.877,0.000]"
      ]
    },
    {
      "id": 400223,
      "beginWay": "TALK_BEGIN_MANUAL",
      "beginCondComb": "LOGIC_AND",
      "beginCond": [
        {
          "type": "QUEST_COND_STATE_EQUAL",
          "_param": [
            "400207",
            "2"
          ]
        },
        {
          "type": "QUEST_COND_EVENT_ITEM_LOCK_STATE_EQUAL",
          "_param": [
            "4001",
            "10104",
            "0"
          ]
        }
      ],
      "priority": 8,
      "initDialog": 40022301,
      "npcId": [
        13414
      ],
      "performCfg": "QuestDialogue/AQ/Fontaine_4002/Q400223",
      "heroTalk": "TALK_HERO_MAIN",
      "questId": 4002,
      "assetIndex": 884141711227752757,
      "prePerformCfg": "",
      "lockGameTime": true,
      "finishExec": [
        {
          "damageRatio": "TALK_EXEC_UNLOCK_EVENTS_ITEM",
          "param": [
            "4001",
            "10104"
          ]
        }
      ],
      "CHAKPMBJNAJ": [
        "[20186_12:128.320,5.282,219.587,0.000,324.332,0.000]"
      ]
    },
    {
      "id": 400224,
      "beginWay": "TALK_BEGIN_MANUAL",
      "beginCondComb": "LOGIC_AND",
      "beginCond": [
        {
          "type": "QUEST_COND_STATE_EQUAL",
          "_param": [
            "400207",
            "2"
          ]
        },
        {
          "type": "QUEST_COND_EVENT_ITEM_LOCK_STATE_EQUAL",
          "_param": [
            "4001",
            "10112",
            "0"
          ]
        }
      ],
      "priority": 8,
      "initDialog": 40022401,
      "npcId": [
        13410
      ],
      "performCfg": "QuestDialogue/AQ/Fontaine_4002/Q400224",
      "heroTalk": "TALK_HERO_MAIN",
      "questId": 4002,
      "assetIndex": 6246098500681167727,
      "prePerformCfg": "",
      "lockGameTime": true,
      "finishExec": [
        {
          "damageRatio": "TALK_EXEC_UNLOCK_EVENTS_ITEM",
          "param": [
            "4001",
            "10112"
          ]
        }
      ],
      "CHAKPMBJNAJ": [
        "[20186_14:126.182,5.471,214.902,0.000,244.747,0.000]"
      ]
    },
    {
      "id": 400225,
      "beginWay": "TALK_BEGIN_MANUAL",
      "beginCondComb": "LOGIC_AND",
      "beginCond": [
        {
          "type": "QUEST_COND_STATE_EQUAL",
          "_param": [
            "400204",
            "2"
          ]
        },
        {
          "type": "QUEST_COND_EVENT_ITEM_SUBMIT_STATE_EQUAL",
          "_param": [
            "400201",
            "2"
          ]
        }
      ],
      "priority": 8,
      "nextTalks": [
        400227
      ],
      "initDialog": 40022501,
      "npcId": [
        1075,
        1076,
        13315,
        13316
      ],
      "performCfg": "QuestDialogue/AQ/Fontaine_4002/Q400225",
      "heroTalk": "TALK_HERO_MAIN",
      "questId": 4002,
      "assetIndex": 10956030106802385376,
      "prePerformCfg": "",
      "lockGameTime": true,
      "CHAKPMBJNAJ": [
        "[1085_131:1.785,5.783,93.982,0.000,180.000,0.000]",
        "[1085_132:-1.094,5.760,93.881,0.000,180.000,0.000]",
        "[1085_161:25.276,15.377,33.228,0.000,278.505,0.000]",
        "[1085_162:0.072,18.669,3.382]",
        "[1085_163:0.157,41.060,78.826,0.000,180.000,0.000]",
        "[1085_165:-24.894,15.377,34.138,0.000,90.000,0.000]",
        "[1085_188:-0.028,-0.801,61.352,0.000,169.975,0.000]",
        "[1085_189:24.676,-1.675,55.090,0.000,180.000,0.000]",
        "[1085_190:13.101,0.916,68.294,0.000,180.000,0.000]",
        "[1085_191:23.821,1.722,71.274,0.000,180.000,0.000]",
        "[1085_200:10.688,-0.045,64.880,0.000,180.000,0.000]"
      ]
    },
    {
      "id": 400226,
      "beginWay": "TALK_BEGIN_MANUAL",
      "beginCondComb": "LOGIC_AND",
      "beginCond": [
        {
          "type": "QUEST_COND_STATE_EQUAL",
          "_param": [
            "400208",
            "2"
          ]
        },
        {
          "type": "QUEST_COND_EVENT_ITEM_SUBMIT_STATE_EQUAL",
          "_param": [
            "400202",
            "2"
          ]
        }
      ],
      "priority": 5,
      "initDialog": 40022601,
      "npcId": [
        13315,
        13316,
        1075,
        13311,
        13312,
        1076,
        13309,
        13415,
        13406,
        13407,
        13408,
        13310,
        13416,
        13313
      ],
      "performCfg": "QuestDialogue/AQ/Fontaine_4002/Q400226",
      "heroTalk": "TALK_HERO_MAIN",
      "questId": 4002,
      "assetIndex": 14718930958921405500,
      "prePerformCfg": "",
      "lockGameTime": true,
      "CHAKPMBJNAJ": [
        "[1085_10:24.519,15.423,33.972,0.000,271.721,0.000]",
        "[1085_11:-25.323,15.377,33.639,0.000,90.000,0.000]",
        "[1085_12:-0.035,-0.801,62.260,0.000,179.064,0.000]",
        "[1085_13:-1.246,-0.801,61.681,0.000,150.683,0.000]",
        "[1085_137:25.253,15.377,35.430,0.000,267.656,0.000]",
        "[1085_138:25.726,15.377,33.048,0.000,282.161,0.000]",
        "[1085_175:-9.772,-1.668,55.949,0.000,180.000,0.000]",
        "[1085_192:25.826,1.721,71.139,0.000,180.000,0.000]",
        "[1085_193:10.917,0.916,68.470,0.000,180.000,0.000]",
        "[1085_194:6.513,0.916,68.742,0.000,180.000,0.000]",
        "[1085_195:12.881,-0.044,64.838,0.000,180.000,0.000]",
        "[1085_196:-8.479,-0.045,65.324,0.000,180.000,0.000]",
        "[1085_197:6.405,-0.046,65.439,0.000,180.000,0.000]",
        "[1085_198:-10.754,0.916,68.548,0.000,180.000,0.000]",
        "[1085_7:0.121,41.060,79.236,0.000,180.000,0.000]",
        "[1085_8:0.039,18.669,3.131]"
      ]
    },
    {
      "id": 400227,
      "beginCond": [
        {
          "type": "QUEST_COND_STATE_EQUAL",
          "_param": [
            "400204",
            "2"
          ]
        }
      ],
      "priority": 5,
      "initDialog": 40022701,
      "npcId": [
        13401,
        13310,
        13315,
        1076,
        13316,
        1075,
        13402,
        13312,
        13311,
        1077,
        13403,
        13404,
        13405,
        13406
      ],
      "performCfg": "QuestDialogue/AQ/Fontaine_4002/Q400227",
      "heroTalk": "TALK_HERO_MAIN",
      "questId": 4002,
      "assetIndex": 2233268293162014924,
      "prePerformCfg": "",
      "lockGameTime": true,
      "CHAKPMBJNAJ": [
        "[1085_199:-30.883,15.377,38.793,0.000,90.000,0.000]",
        "[1085_205:2.821,40.461,79.583,0.000,180.000,0.000]"
      ]
    },
    {
      "id": 400228,
      "beginWay": "TALK_BEGIN_MANUAL",
      "beginCond": [
        {
          "type": "QUEST_COND_STATE_EQUAL",
          "_param": [
            "400221",
            "2"
          ]
        }
      ],
      "priority": 3,
      "nextTalks": [
        400228,
        400229,
        400230,
        400231,
        400232
      ],
      "initDialog": 40030106,
      "npcId": [
        1076
      ],
      "performCfg": "QuestDialogue/AQ/Fontaine_4002/Q400228",
      "heroTalk": "TALK_HERO_MAIN",
      "questId": 4002,
      "assetIndex": 9033895537834783164,
      "prePerformCfg": "",
      "lockGameTime": true,
      "finishExec": [
        {
          "damageRatio": "TALK_EXEC_SET_QUEST_GLOBAL_VAR",
          "param": [
            "400207",
            "1"
          ]
        }
      ],
      "CHAKPMBJNAJ": [
        "[3_4760:2644.631,469.785,4235.341]"
      ]
    },
    {
      "id": 400229,
      "beginWay": "TALK_BEGIN_MANUAL",
      "beginCond": [
        {
          "type": "QUEST_COND_STATE_EQUAL",
          "_param": [
            "400221",
            "2"
          ]
        }
      ],
      "priority": 3,
      "nextTalks": [
        400228,
        400229,
        400230,
        400231,
        400232
      ],
      "initDialog": 40030117,
      "npcId": [
        1076
      ],
      "performCfg": "QuestDialogue/AQ/Fontaine_4002/Q400229",
      "heroTalk": "TALK_HERO_MAIN",
      "questId": 4002,
      "assetIndex": 177260647187399663,
      "prePerformCfg": "",
      "lockGameTime": true,
      "finishExec": [
        {
          "damageRatio": "TALK_EXEC_SET_QUEST_GLOBAL_VAR",
          "param": [
            "400208",
            "1"
          ]
        }
      ],
      "CHAKPMBJNAJ": [
        "[3_4760:2644.631,469.785,4235.341]"
      ]
    },
    {
      "id": 400230,
      "beginWay": "TALK_BEGIN_MANUAL",
      "beginCond": [
        {
          "type": "QUEST_COND_STATE_EQUAL",
          "_param": [
            "400221",
            "2"
          ]
        }
      ],
      "priority": 3,
      "nextTalks": [
        400228,
        400229,
        400230,
        400231,
        400232
      ],
      "initDialog": 40030128,
      "npcId": [
        1076
      ],
      "performCfg": "QuestDialogue/AQ/Fontaine_4002/Q400230",
      "heroTalk": "TALK_HERO_MAIN",
      "questId": 4002,
      "assetIndex": 12819977370773417824,
      "prePerformCfg": "",
      "lockGameTime": true,
      "finishExec": [
        {
          "damageRatio": "TALK_EXEC_SET_QUEST_GLOBAL_VAR",
          "param": [
            "400209",
            "1"
          ]
        }
      ],
      "CHAKPMBJNAJ": [
        "[3_4760:2644.631,469.785,4235.341]"
      ]
    },
    {
      "id": 400231,
      "beginWay": "TALK_BEGIN_MANUAL",
      "beginCond": [
        {
          "type": "QUEST_COND_STATE_EQUAL",
          "_param": [
            "400221",
            "2"
          ]
        }
      ],
      "priority": 3,
      "nextTalks": [
        400228,
        400229,
        400230,
        400231,
        400232
      ],
      "initDialog": 40030143,
      "npcId": [
        1076
      ],
      "performCfg": "QuestDialogue/AQ/Fontaine_4002/Q400231",
      "heroTalk": "TALK_HERO_MAIN",
      "questId": 4002,
      "assetIndex": 852832814991686805,
      "prePerformCfg": "",
      "lockGameTime": true,
      "finishExec": [
        {
          "damageRatio": "TALK_EXEC_SET_QUEST_GLOBAL_VAR",
          "param": [
            "400210",
            "1"
          ]
        }
      ],
      "CHAKPMBJNAJ": [
        "[3_4760:2644.631,469.785,4235.341]"
      ]
    },
    {
      "id": 400232,
      "beginWay": "TALK_BEGIN_MANUAL",
      "beginCondComb": "LOGIC_AND",
      "beginCond": [
        {
          "type": "QUEST_COND_STATE_EQUAL",
          "_param": [
            "400221",
            "2"
          ]
        },
        {
          "type": "QUEST_COND_QUEST_GLOBAL_VAR_EQUAL",
          "_param": [
            "400207",
            "1"
          ]
        },
        {
          "type": "QUEST_COND_QUEST_GLOBAL_VAR_EQUAL",
          "_param": [
            "400208",
            "1"
          ]
        },
        {
          "type": "QUEST_COND_QUEST_GLOBAL_VAR_EQUAL",
          "_param": [
            "400209",
            "1"
          ]
        },
        {
          "type": "QUEST_COND_QUEST_GLOBAL_VAR_EQUAL",
          "_param": [
            "400210",
            "1"
          ]
        }
      ],
      "priority": 3,
      "initDialog": 40030146,
      "npcId": [
        1076
      ],
      "performCfg": "QuestDialogue/AQ/Fontaine_4002/Q400232",
      "heroTalk": "TALK_HERO_MAIN",
      "questId": 4002,
      "assetIndex": 2982064838142808703,
      "prePerformCfg": "",
      "lockGameTime": true,
      "CHAKPMBJNAJ": [
        "[3_4760:2644.631,469.785,4235.341]"
      ]
    },
    {
      "id": 400250,
      "beginWay": "TALK_BEGIN_MANUAL",
      "beginCond": [
        {
          "type": "QUEST_COND_STATE_EQUAL",
          "_param": [
            "400209",
            "2"
          ]
        }
      ],
      "priority": 5,
      "initDialog": 40025001,
      "npcId": [
        1076
      ],
      "performCfg": "QuestDialogue/AQ/Fontaine_4002/Q400250",
      "heroTalk": "TALK_HERO_MAIN",
      "questId": 4002,
      "assetIndex": 15497077228775590546,
      "prePerformCfg": ""
    },
    {
      "id": 400251,
      "beginWay": "TALK_BEGIN_MANUAL",
      "beginCond": [
        {
          "type": "QUEST_COND_STATE_EQUAL",
          "_param": [
            "400215",
            "2"
          ]
        }
      ],
      "priority": 5,
      "initDialog": 40025101,
      "npcId": [
        13427
      ],
      "performCfg": "",
      "heroTalk": "TALK_HERO_MAIN",
      "questId": 4002,
      "assetIndex": 9105426109818646996,
      "prePerformCfg": "",
      "finishExec": [
        {
          "damageRatio": "TALK_EXEC_SET_QUEST_GLOBAL_VAR",
          "param": [
            "400202",
            "1"
          ]
        }
      ]
    },
    {
      "id": 400252,
      "beginWay": "TALK_BEGIN_MANUAL",
      "beginCond": [
        {
          "type": "QUEST_COND_STATE_EQUAL",
          "_param": [
            "400215",
            "2"
          ]
        }
      ],
      "priority": 5,
      "initDialog": 40025201,
      "npcId": [
        13423
      ],
      "performCfg": "",
      "heroTalk": "TALK_HERO_MAIN",
      "questId": 4002,
      "assetIndex": 6526939889287214172,
      "prePerformCfg": "",
      "finishExec": [
        {
          "damageRatio": "TALK_EXEC_SET_QUEST_GLOBAL_VAR",
          "param": [
            "400203",
            "1"
          ]
        }
      ]
    },
    {
      "id": 400253,
      "beginWay": "TALK_BEGIN_MANUAL",
      "beginCond": [
        {
          "type": "QUEST_COND_STATE_EQUAL",
          "_param": [
            "400215",
            "2"
          ]
        }
      ],
      "priority": 5,
      "initDialog": 40025301,
      "npcId": [
        13426
      ],
      "performCfg": "",
      "heroTalk": "TALK_HERO_MAIN",
      "questId": 4002,
      "assetIndex": 13590196653997011828,
      "prePerformCfg": "",
      "finishExec": [
        {
          "damageRatio": "TALK_EXEC_SET_QUEST_GLOBAL_VAR",
          "param": [
            "400204",
            "1"
          ]
        }
      ]
    },
    {
      "id": 400254,
      "beginWay": "TALK_BEGIN_MANUAL",
      "beginCond": [
        {
          "type": "QUEST_COND_STATE_EQUAL",
          "_param": [
            "400215",
            "2"
          ]
        }
      ],
      "priority": 5,
      "initDialog": 40025401,
      "npcId": [
        13424
      ],
      "performCfg": "",
      "heroTalk": "TALK_HERO_MAIN",
      "questId": 4002,
      "assetIndex": 14251253074203802813,
      "prePerformCfg": "",
      "finishExec": [
        {
          "damageRatio": "TALK_EXEC_SET_QUEST_GLOBAL_VAR",
          "param": [
            "400205",
            "1"
          ]
        }
      ]
    },
    {
      "id": 400255,
      "beginWay": "TALK_BEGIN_MANUAL",
      "beginCond": [
        {
          "type": "QUEST_COND_STATE_EQUAL",
          "_param": [
            "400207",
            "2"
          ]
        },
        {
          "type": "QUEST_COND_EVENT_ITEM_LOCK_STATE_EQUAL",
          "_param": [
            "4001",
            "10101",
            "1"
          ]
        }
      ],
      "priority": 5,
      "initDialog": 40025501,
      "npcId": [
        13411
      ],
      "performCfg": "",
      "heroTalk": "TALK_HERO_MAIN",
      "questId": 4002,
      "assetIndex": 3357313064166346802,
      "prePerformCfg": "",
      "lowPriority": true
    },
    {
      "id": 400256,
      "beginWay": "TALK_BEGIN_MANUAL",
      "beginCond": [
        {
          "type": "QUEST_COND_STATE_EQUAL",
          "_param": [
            "400207",
            "2"
          ]
        },
        {
          "type": "QUEST_COND_EVENT_ITEM_LOCK_STATE_EQUAL",
          "_param": [
            "4001",
            "10102",
            "1"
          ]
        }
      ],
      "priority": 5,
      "initDialog": 40025601,
      "npcId": [
        13412
      ],
      "performCfg": "",
      "heroTalk": "TALK_HERO_MAIN",
      "questId": 4002,
      "assetIndex": 16295012065024895266,
      "prePerformCfg": "",
      "lowPriority": true
    },
    {
      "id": 400257,
      "beginWay": "TALK_BEGIN_MANUAL",
      "beginCond": [
        {
          "type": "QUEST_COND_STATE_EQUAL",
          "_param": [
            "400207",
            "2"
          ]
        },
        {
          "type": "QUEST_COND_EVENT_ITEM_LOCK_STATE_EQUAL",
          "_param": [
            "4001",
            "10103",
            "1"
          ]
        }
      ],
      "priority": 5,
      "initDialog": 40025701,
      "npcId": [
        13413
      ],
      "performCfg": "",
      "heroTalk": "TALK_HERO_MAIN",
      "questId": 4002,
      "assetIndex": 5612033460724770531,
      "prePerformCfg": "",
      "lowPriority": true
    },
    {
      "id": 400258,
      "beginWay": "TALK_BEGIN_MANUAL",
      "beginCond": [
        {
          "type": "QUEST_COND_STATE_EQUAL",
          "_param": [
            "400207",
            "2"
          ]
        },
        {
          "type": "QUEST_COND_EVENT_ITEM_LOCK_STATE_EQUAL",
          "_param": [
            "4001",
            "10104",
            "1"
          ]
        }
      ],
      "priority": 5,
      "initDialog": 40025801,
      "npcId": [
        13414
      ],
      "performCfg": "",
      "heroTalk": "TALK_HERO_MAIN",
      "questId": 4002,
      "assetIndex": 1805842952851533748,
      "prePerformCfg": "",
      "lowPriority": true
    },
    {
      "id": 400259,
      "beginWay": "TALK_BEGIN_MANUAL",
      "beginCond": [
        {
          "type": "QUEST_COND_STATE_EQUAL",
          "_param": [
            "400207",
            "2"
          ]
        },
        {
          "type": "QUEST_COND_EVENT_ITEM_LOCK_STATE_EQUAL",
          "_param": [
            "4001",
            "10112",
            "1"
          ]
        }
      ],
      "priority": 5,
      "initDialog": 40025901,
      "npcId": [
        13410
      ],
      "performCfg": "",
      "heroTalk": "TALK_HERO_MAIN",
      "questId": 4002,
      "assetIndex": 3168610425069732013,
      "prePerformCfg": "",
      "lowPriority": true
    },
    {
      "id": 400301,
      "beginWay": "TALK_BEGIN_MANUAL",
      "beginCond": [
        {
          "type": "QUEST_COND_STATE_EQUAL",
          "_param": [
            "400221",
            "2"
          ]
        }
      ],
      "priority": 5,
      "nextTalks": [
        400228,
        400229,
        400230,
        400231,
        400232
      ],
      "initDialog": 40030101,
      "npcId": [
        1076
      ],
      "performCfg": "QuestDialogue/AQ/Fontaine_4003/Q400301",
      "heroTalk": "TALK_HERO_MAIN",
      "questId": 4002,
      "assetIndex": 7762634280341821845,
      "prePerformCfg": "",
      "lockGameTime": true,
      "CHAKPMBJNAJ": [
        "[3_340200022:2644.181,469.830,4237.116,0.000,30.000,0.000]",
        "[3_4760:2644.631,469.785,4235.341]",
        "[3_4761:2645.596,469.672,4236.296,0.000,300.000,0.000]"
      ]
    },
    {
      "id": 400302,
      "beginWay": "TALK_BEGIN_MANUAL",
      "beginCond": [
        {
          "type": "QUEST_COND_STATE_EQUAL",
          "_param": [
            "400221",
            "2"
          ]
        }
      ],
      "priority": 5,
      "initDialog": 40030201,
      "npcId": [
        1075
      ],
      "performCfg": "QuestDialogue/AQ/Fontaine_4003/Q400302",
      "heroTalk": "TALK_HERO_MAIN",
      "questId": 4002,
      "assetIndex": 13155003646281869641,
      "prePerformCfg": ""
    }
  ],
  "preloadLuaList": [
    13228048690778813491,
    4386275386556554980,
    6095101189753999678,
    9629152701209207048,
    271129122074763600,
    3679762077854828381,
    1814730910040200144
  ],
  "forcePreloadLuaList": [
    14160607010822054517
  ],
  "dialogList": [
    {
      "id": 40029801,
      "talkRole": {
        "type": "TALK_ROLE_BLACK_SCREEN",
        "_id": ""
      },
      "talkContentTextMapHash": 3505306458,
      "talkAssetPath": "",
      "talkAssetPathAlter": "",
      "talkAudioName": "",
      "actionBefore": "",
      "actionWhile": "",
      "actionAfter": "",
      "optionIcon": "",
      "iconPath": ""
    },
    {
      "id": 40029802,
      "talkRole": {
        "type": "TALK_ROLE_BLACK_SCREEN",
        "_id": ""
      },
      "talkContentTextMapHash": 92499682,
      "talkAssetPath": "",
      "talkAssetPathAlter": "",
      "talkAudioName": "",
      "actionBefore": "",
      "actionWhile": "",
      "actionAfter": "",
      "optionIcon": "",
      "iconPath": ""
    },
    {
      "id": 40029803,
      "talkRole": {
        "type": "TALK_ROLE_BLACK_SCREEN",
        "_id": ""
      },
      "talkContentTextMapHash": 891682450,
      "talkAssetPath": "",
      "talkAssetPathAlter": "",
      "talkAudioName": "",
      "actionBefore": "",
      "actionWhile": "",
      "actionAfter": "",
      "optionIcon": "",
      "iconPath": ""
    },
    {
      "id": 40029804,
      "talkRole": {
        "type": "TALK_ROLE_BLACK_SCREEN",
        "_id": ""
      },
      "talkContentTextMapHash": 2935741394,
      "talkAssetPath": "",
      "talkAssetPathAlter": "",
      "talkAudioName": "",
      "actionBefore": "",
      "actionWhile": "",
      "actionAfter": "",
      "optionIcon": "",
      "iconPath": ""
    },
    {
      "id": 40029805,
      "talkRole": {
        "type": "TALK_ROLE_BLACK_SCREEN",
        "_id": ""
      },
      "talkContentTextMapHash": 701010434,
      "talkAssetPath": "",
      "talkAssetPathAlter": "",
      "talkAudioName": "",
      "actionBefore": "",
      "actionWhile": "",
      "actionAfter": "",
      "optionIcon": "",
      "iconPath": ""
    }
  ]
}