{
  "id": 4003,
  "resId": 1022,
  "descTextMapHash": 3163945359,
  "EKEKACCODOE": 4610030,
  "luaPath": "Actor/Quest/AQ4003",
  "showType": "QUEST_HIDDEN",
  "subQuests": [
    {
      "subId": 400301,
      "mainId": 4003,
      "order": 1,
      "descTextMapHash": 3616199532,
      "showType": "QUEST_HIDDEN",
      "finishCond": [
        {
          "damageRatio": "QUEST_CONTENT_FINISH_PLOT",
          "param": [
            400301,
            0
          ]
        }
      ],
      "guide": {
        "guideScene": 1085,
        "guideStyle": "QUEST_GUIDE_STYLE_TARGET",
        "guideLayer": "QUEST_GUIDE_LAYER_SCENE",
        "MLAHIFLGIGJ": ""
      },
      "showGuide": "QUEST_GUIDE_ITEM_DISABLE",
      "guideHint": {
        "param1": ""
      },
      "finishParent": true,
      "isRewind": true,
      "versionBegin": "",
      "versionEnd": ""
    },
    {
      "subId": 400302,
      "mainId": 4003,
      "order": 100,
      "descTextMapHash": 353300756,
      "finishCond": [
        {
          "damageRatio": "QUEST_CONTENT_COMPLETE_TALK",
          "param": [
            400301,
            0
          ]
        }
      ],
      "guide": {
        "damageRatio": "QUEST_GUIDE_NPC",
        "param": [
          "1076"
        ],
        "guideScene": 3,
        "guideStyle": "QUEST_GUIDE_STYLE_TARGET",
        "MLAHIFLGIGJ": ""
      },
      "guideHint": {
        "param1": ""
      },
      "finishParent": true,
      "isRewind": true,
      "finishExec": [
        {
          "damageRatio": "QUEST_EXEC_UNREGISTER_DYNAMIC_GROUP",
          "param": [
            "133403553"
          ]
        }
      ],
      "versionBegin": "",
      "versionEnd": ""
    }
  ]
}