{
  "id": 40033,
  "damageRatio": "WQ",
  "mainQuestTag": "MAINQUEST_TAG_ACTIVITY",
  "descTextMapHash": 113427391,
  "EKEKACCODOE": 503723374,
  "luaPath": "Actor/Quest/WQ40033",
  "showRedPoint": true,
  "activityId": 5051,
  "subQuests": [
    {
      "subId": 4003301,
      "mainId": 40033,
      "order": 2,
      "descTextMapHash": 4086070764,
      "finishCond": [
        {
          "damageRatio": "QUEST_CONTENT_COMPLETE_TALK",
          "param": [
            4003301,
            0
          ]
        }
      ],
      "guide": {
        "damageRatio": "QUEST_GUIDE_NPC",
        "autoGuide": "QUEST_GUIDE_AUTO_ENABLE",
        "param": [
          "3042"
        ],
        "guideScene": 3,
        "guideStyle": "QUEST_GUIDE_STYLE_TARGET",
        "guideLayer": "QUEST_GUIDE_LAYER_SCENE",
        "MLAHIFLGIGJ": ""
      },
      "guideHint": {
        "param1": ""
      },
      "isRewind": true,
      "versionBegin": "",
      "versionEnd": ""
    },
    {
      "subId": 4003302,
      "mainId": 40033,
      "order": 3,
      "subIdSet": 1,
      "descTextMapHash": 1794123564,
      "guideTipsTextMapHash": 1281613342,
      "finishCond": [
        {
          "damageRatio": "QUEST_CONTENT_LUA_NOTIFY",
          "param": [
            0,
            0
          ],
          "count": 1
        }
      ],
      "guide": {
        "autoGuide": "QUEST_GUIDE_AUTO_ENABLE",
        "guideScene": 3,
        "guideLayer": "QUEST_GUIDE_LAYER_SCENE",
        "MLAHIFLGIGJ": ""
      },
      "guideHint": {
        "param1": ""
      },
      "finishExec": [
        {
          "damageRatio": "QUEST_EXEC_ADD_QUEST_PROGRESS",
          "param": [
            "4003306",
            "1"
          ]
        }
      ],
      "versionBegin": "",
      "versionEnd": ""
    },
    {
      "subId": 4003303,
      "mainId": 40033,
      "order": 7,
      "descTextMapHash": 971768060,
      "finishCond": [
        {
          "damageRatio": "QUEST_CONTENT_COMPLETE_TALK",
          "param": [
            4003303,
            0
          ]
        }
      ],
      "guide": {
        "damageRatio": "QUEST_GUIDE_NPC",
        "autoGuide": "QUEST_GUIDE_AUTO_ENABLE",
        "param": [
          "3042"
        ],
        "guideScene": 3,
        "guideStyle": "QUEST_GUIDE_STYLE_TARGET",
        "guideLayer": "QUEST_GUIDE_LAYER_SCENE",
        "MLAHIFLGIGJ": ""
      },
      "guideHint": {
        "param1": ""
      },
      "finishParent": true,
      "isRewind": true,
      "versionBegin": "",
      "versionEnd": ""
    },
    {
      "subId": 4003304,
      "mainId": 40033,
      "order": 1,
      "descTextMapHash": 3505629740,
      "finishCond": [
        {
          "damageRatio": "QUEST_CONTENT_GAME_TIME_TICK",
          "param": [
            1,
            0
          ]
        }
      ],
      "guide": {
        "MLAHIFLGIGJ": ""
      },
      "showGuide": "QUEST_GUIDE_ITEM_DISABLE",
      "guideHint": {
        "param1": ""
      },
      "isRewind": true,
      "versionBegin": "",
      "versionEnd": ""
    },
    {
      "subId": 4003305,
      "mainId": 40033,
      "order": 4,
      "subIdSet": 1,
      "descTextMapHash": 3854789556,
      "guideTipsTextMapHash": 673250910,
      "finishCond": [
        {
          "damageRatio": "QUEST_CONTENT_LUA_NOTIFY",
          "param": [
            0,
            0
          ],
          "count": 1
        }
      ],
      "guide": {
        "autoGuide": "QUEST_GUIDE_AUTO_ENABLE",
        "guideScene": 3,
        "guideLayer": "QUEST_GUIDE_LAYER_SCENE",
        "MLAHIFLGIGJ": ""
      },
      "guideHint": {
        "param1": ""
      },
      "finishExec": [
        {
          "damageRatio": "QUEST_EXEC_ADD_QUEST_PROGRESS",
          "param": [
            "4003306",
            "1"
          ]
        }
      ],
      "versionBegin": "",
      "versionEnd": ""
    },
    {
      "subId": 4003306,
      "mainId": 40033,
      "order": 5,
      "descTextMapHash": 3174819316,
      "showType": "QUEST_HIDDEN",
      "finishCond": [
        {
          "damageRatio": "QUEST_CONTENT_ADD_QUEST_PROGRESS",
          "param": [
            4003306,
            0
          ],
          "count": 2
        }
      ],
      "guide": {
        "guideLayer": "QUEST_GUIDE_LAYER_SCENE",
        "MLAHIFLGIGJ": ""
      },
      "showGuide": "QUEST_GUIDE_ITEM_DISABLE",
      "guideHint": {
        "param1": ""
      },
      "finishExec": [
        {
          "damageRatio": "QUEST_EXEC_ADD_QUEST_PROGRESS",
          "param": [
            "4003307",
            "1"
          ]
        }
      ],
      "versionBegin": "",
      "versionEnd": ""
    },
    {
      "subId": 4003307,
      "mainId": 40033,
      "order": 6,
      "descTextMapHash": 3008794996,
      "showType": "QUEST_HIDDEN",
      "finishCond": [
        {
          "damageRatio": "QUEST_CONTENT_ADD_QUEST_PROGRESS",
          "param": [
            4003307,
            0
          ],
          "count": 1
        }
      ],
      "guide": {
        "guideLayer": "QUEST_GUIDE_LAYER_SCENE",
        "MLAHIFLGIGJ": ""
      },
      "showGuide": "QUEST_GUIDE_ITEM_DISABLE",
      "guideHint": {
        "param1": ""
      },
      "isRewind": true,
      "versionBegin": "",
      "versionEnd": ""
    }
  ],
  "talks": [
    {
      "id": 4003301,
      "beginWay": "TALK_BEGIN_MANUAL",
      "beginCond": [
        {
          "type": "QUEST_COND_STATE_EQUAL",
          "_param": [
            "4003301",
            "2"
          ]
        }
      ],
      "priority": 5,
      "initDialog": 400330101,
      "npcId": [
        3042
      ],
      "performCfg": "QuestDialogue/EQ/Dog1_40033/Q4003301",
      "heroTalk": "TALK_HERO_MAIN",
      "questId": 40033,
      "assetIndex": 8536595031682800181,
      "prePerformCfg": ""
    },
    {
      "id": 4003303,
      "beginWay": "TALK_BEGIN_MANUAL",
      "beginCond": [
        {
          "type": "QUEST_COND_STATE_EQUAL",
          "_param": [
            "4003303",
            "2"
          ]
        }
      ],
      "priority": 5,
      "initDialog": 400330301,
      "npcId": [
        3042
      ],
      "performCfg": "QuestDialogue/EQ/Dog1_40033/Q4003303",
      "heroTalk": "TALK_HERO_MAIN",
      "questId": 40033,
      "assetIndex": 684412494026077916,
      "prePerformCfg": ""
    },
    {
      "id": 4003351,
      "beginWay": "TALK_BEGIN_MANUAL",
      "beginCond": [
        {
          "type": "QUEST_COND_STATE_EQUAL",
          "_param": [
            "4003307",
            "2"
          ]
        }
      ],
      "priority": 5,
      "initDialog": 400335101,
      "npcId": [
        3042
      ],
      "performCfg": "",
      "heroTalk": "TALK_HERO_MAIN",
      "questId": 40033,
      "assetIndex": 2742389488850234191,
      "prePerformCfg": ""
    },
    {
      "id": 4003352,
      "beginWay": "TALK_BEGIN_MANUAL",
      "beginCond": [
        {
          "type": "QUEST_COND_STATE_EQUAL",
          "_param": [
            "4003307",
            "2"
          ]
        }
      ],
      "priority": 5,
      "initDialog": 400335201,
      "npcId": [
        3041
      ],
      "performCfg": "",
      "heroTalk": "TALK_HERO_MAIN",
      "questId": 40033,
      "assetIndex": 13961212459930309101,
      "prePerformCfg": "",
      "lowPriority": true
    }
  ]
}