{
  "id": 40045,
  "resId": 4007,
  "damageRatio": "EQ",
  "mainQuestTag": "MAINQUEST_TAG_ACTIVITY",
  "descTextMapHash": 3854607487,
  "EKEKACCODOE": 4151386622,
  "luaPath": "Actor/Quest/EQ40045",
  "showType": "QUEST_HIDDEN",
  "activityId": 2009,
  "subQuests": [
    {
      "subId": 4004501,
      "mainId": 40045,
      "order": 1,
      "showType": "QUEST_HIDDEN",
      "finishCond": [
        {
          "damageRatio": "QUEST_CONTENT_FINISH_PLOT",
          "param": [
            4004501,
            0
          ]
        }
      ],
      "guide": {
        "MLAHIFLGIGJ": ""
      },
      "guideHint": {
        "param1": ""
      },
      "finishParent": true,
      "failParentShow": "QUEST_HIDDEN",
      "isRewind": true,
      "versionBegin": "",
      "versionEnd": ""
    }
  ],
  "talks": [
    {
      "id": 4004501,
      "beginWay": "TALK_BEGIN_MANUAL",
      "initDialog": 400290501,
      "npcId": [
        1018
      ],
      "performCfg": "QuestDialogue/EQ/WinterCamp_40045/Q4004501",
      "questId": 40045,
      "assetIndex": 6817206802640824994,
      "prePerformCfg": "",
      "lockGameTime": true,
      "questIdleTalk": true,
      "lowPriority": true
    }
  ],
  "preloadLuaList": [
    274272332181942695
  ],
  "forcePreloadLuaList": [
    3284074334078346822
  ]
}