{
  "id": 40042,
  "resId": 4006,
  "damageRatio": "EQ",
  "luaPath": "Actor/Quest/EQ40042",
  "rewardIdList": [
    140042
  ],
  "showType": "QUEST_HIDDEN",
  "activityId": 2008,
  "subQuests": [
    {
      "subId": 4004201,
      "mainId": 40042,
      "order": 1,
      "showType": "QUEST_HIDDEN",
      "finishCond": [
        {
          "damageRatio": "QUEST_CONTENT_GAME_TIME_TICK",
          "param": [
            0,
            0
          ]
        }
      ],
      "guide": {
        "MLAHIFLGIGJ": ""
      },
      "guideHint": {
        "param1": ""
      },
      "finishParent": true,
      "versionBegin": "",
      "versionEnd": ""
    }
  ]
}