{
  "id": 40044,
  "resId": 4007,
  "damageRatio": "EQ",
  "mainQuestTag": "MAINQUEST_TAG_ACTIVITY",
  "descTextMapHash": 3109303,
  "EKEKACCODOE": 2690116414,
  "luaPath": "",
  "rewardIdList": [
    140044
  ],
  "showType": "QUEST_HIDDEN",
  "subQuests": [
    {
      "subId": 4004401,
      "mainId": 40044,
      "order": 1,
      "descTextMapHash": 3234974380,
      "showType": "QUEST_HIDDEN",
      "finishCond": [
        {
          "damageRatio": "QUEST_CONTENT_QUEST_STATE_EQUAL",
          "param": [
            4002904,
            3
          ]
        }
      ],
      "guide": {
        "MLAHIFLGIGJ": ""
      },
      "showGuide": "QUEST_GUIDE_ITEM_DISABLE",
      "guideHint": {
        "param1": ""
      },
      "finishParent": true,
      "failParentShow": "QUEST_HIDDEN",
      "isRewind": true,
      "versionBegin": "",
      "versionEnd": ""
    }
  ]
}