{
  "id": 40054,
  "resId": 4011,
  "series": 10065,
  "damageRatio": "EQ",
  "descTextMapHash": 1682196567,
  "luaPath": "Actor/Quest/EQ40054",
  "suggestTrackMainQuestList": [
    40055
  ],
  "rewardIdList": [
    140054
  ],
  "chapterId": 10065,
  "showRedPoint": true,
  "activityId": 2012,
  "subQuests": [
    {
      "subId": 4005401,
      "mainId": 40054,
      "order": 1,
      "descTextMapHash": 1334905012,
      "stepDescTextMapHash": 4179889029,
      "finishCond": [
        {
          "damageRatio": "QUEST_CONTENT_COMPLETE_TALK",
          "param": [
            4005401,
            0
          ]
        }
      ],
      "guide": {
        "damageRatio": "QUEST_GUIDE_NPC",
        "autoGuide": "QUEST_GUIDE_AUTO_ENABLE",
        "param": [
          "3004"
        ],
        "guideScene": 3,
        "guideStyle": "QUEST_GUIDE_STYLE_TARGET",
        "guideLayer": "QUEST_GUIDE_LAYER_SCENE",
        "MLAHIFLGIGJ": ""
      },
      "guideHint": {
        "param1": ""
      },
      "isRewind": true,
      "versionBegin": "",
      "versionEnd": ""
    },
    {
      "subId": 4005402,
      "mainId": 40054,
      "order": 2,
      "descTextMapHash": 2893151436,
      "stepDescTextMapHash": 1988466277,
      "JIFODJPFKDF": [
        4005402
      ],
      "finishCond": [
        {
          "damageRatio": "QUEST_CONTENT_COMPLETE_TALK",
          "param": [
            4005402,
            0
          ]
        }
      ],
      "guide": {
        "damageRatio": "QUEST_GUIDE_NPC",
        "autoGuide": "QUEST_GUIDE_AUTO_ENABLE",
        "param": [
          "1034"
        ],
        "guideScene": 3,
        "guideStyle": "QUEST_GUIDE_STYLE_TARGET",
        "guideLayer": "QUEST_GUIDE_LAYER_SCENE",
        "MLAHIFLGIGJ": ""
      },
      "guideHint": {
        "param1": ""
      },
      "isRewind": true,
      "versionBegin": "",
      "versionEnd": ""
    },
    {
      "subId": 4005403,
      "mainId": 40054,
      "order": 3,
      "descTextMapHash": 1011304524,
      "stepDescTextMapHash": 833645061,
      "JIFODJPFKDF": [
        320905
      ],
      "finishCond": [
        {
          "damageRatio": "QUEST_CONTENT_FINISH_PLOT",
          "param": [
            4005403,
            0
          ]
        }
      ],
      "guide": {
        "damageRatio": "QUEST_GUIDE_LOCATION",
        "autoGuide": "QUEST_GUIDE_AUTO_ENABLE",
        "param": [
          "Q4005403_guide_WuGeXianGuangChang",
          "10"
        ],
        "guideScene": 3,
        "guideLayer": "QUEST_GUIDE_LAYER_SCENE",
        "MLAHIFLGIGJ": ""
      },
      "guideHint": {
        "param1": ""
      },
      "isRewind": true,
      "versionBegin": "",
      "versionEnd": ""
    },
    {
      "subId": 4005404,
      "mainId": 40054,
      "order": 4,
      "descTextMapHash": 1832405372,
      "stepDescTextMapHash": 540399333,
      "JIFODJPFKDF": [
        320905
      ],
      "finishCond": [
        {
          "damageRatio": "QUEST_CONTENT_COMPLETE_TALK",
          "param": [
            4005403,
            0
          ]
        }
      ],
      "guide": {
        "damageRatio": "QUEST_GUIDE_NPC",
        "autoGuide": "QUEST_GUIDE_AUTO_ENABLE",
        "param": [
          "1034"
        ],
        "guideScene": 3,
        "guideStyle": "QUEST_GUIDE_STYLE_TARGET",
        "guideLayer": "QUEST_GUIDE_LAYER_SCENE",
        "MLAHIFLGIGJ": ""
      },
      "guideHint": {
        "param1": ""
      },
      "finishParent": true,
      "versionBegin": "",
      "versionEnd": ""
    }
  ],
  "talks": [
    {
      "id": 4005401,
      "beginWay": "TALK_BEGIN_MANUAL",
      "beginCond": [
        {
          "type": "QUEST_COND_STATE_EQUAL",
          "_param": [
            "4005401",
            "2"
          ]
        }
      ],
      "priority": 5,
      "initDialog": 400540101,
      "npcId": [
        3004
      ],
      "performCfg": "QuestDialogue/EQ/RongCaiJi_40054/Q4005401",
      "heroTalk": "TALK_HERO_MAIN",
      "questId": 40054,
      "assetIndex": 1520578352103786498,
      "prePerformCfg": ""
    },
    {
      "id": 4005402,
      "beginWay": "TALK_BEGIN_MANUAL",
      "beginCond": [
        {
          "type": "QUEST_COND_STATE_EQUAL",
          "_param": [
            "4005402",
            "2"
          ]
        }
      ],
      "priority": 5,
      "initDialog": 400540201,
      "npcId": [
        1034
      ],
      "performCfg": "QuestDialogue/EQ/RongCaiJi_40054/Q4005402",
      "heroTalk": "TALK_HERO_MAIN",
      "questId": 40054,
      "assetIndex": 15740790292063544059,
      "prePerformCfg": ""
    },
    {
      "id": 4005403,
      "beginWay": "TALK_BEGIN_MANUAL",
      "beginCond": [
        {
          "type": "QUEST_COND_STATE_EQUAL",
          "_param": [
            "4005404",
            "2"
          ]
        }
      ],
      "priority": 5,
      "initDialog": 400540301,
      "npcId": [
        1034
      ],
      "performCfg": "QuestDialogue/EQ/RongCaiJi_40054/Q4005403",
      "heroTalk": "TALK_HERO_MAIN",
      "questId": 40054,
      "assetIndex": 10353171458631271766,
      "prePerformCfg": ""
    }
  ],
  "preloadLuaList": [
    9783264833236040340,
    2020160996650764993
  ],
  "forcePreloadLuaList": [
    9394308824711858521
  ]
}