{
  "id": 40051,
  "resId": 4010,
  "series": 10050,
  "damageRatio": "EQ",
  "descTextMapHash": 2517975495,
  "EKEKACCODOE": 273005974,
  "luaPath": "Actor/Quest/EQ40051",
  "rewardIdList": [
    140051
  ],
  "chapterId": 10050,
  "activityId": 2011,
  "subQuests": [
    {
      "subId": 4005101,
      "mainId": 40051,
      "order": 1,
      "descTextMapHash": 3413236268,
      "finishCond": [
        {
          "damageRatio": "QUEST_CONTENT_COMPLETE_TALK",
          "param": [
            4005101,
            0
          ]
        }
      ],
      "guide": {
        "damageRatio": "QUEST_GUIDE_NPC",
        "autoGuide": "QUEST_GUIDE_AUTO_ENABLE",
        "param": [
          "30000"
        ],
        "guideScene": 7,
        "guideStyle": "QUEST_GUIDE_STYLE_POINT",
        "guideLayer": "QUEST_GUIDE_LAYER_SCENE",
        "MLAHIFLGIGJ": ""
      },
      "guideHint": {
        "param1": ""
      },
      "isRewind": true,
      "versionBegin": "",
      "versionEnd": ""
    },
    {
      "subId": 4005102,
      "mainId": 40051,
      "order": 2,
      "descTextMapHash": 1023253524,
      "finishCond": [
        {
          "damageRatio": "QUEST_CONTENT_COMPLETE_TALK",
          "param": [
            4005102,
            0
          ]
        }
      ],
      "guide": {
        "damageRatio": "QUEST_GUIDE_LOCATION",
        "autoGuide": "QUEST_GUIDE_AUTO_ENABLE",
        "param": [
          "Q4005102_N30000",
          "0"
        ],
        "guideScene": 7,
        "guideStyle": "QUEST_GUIDE_STYLE_POINT",
        "guideLayer": "QUEST_GUIDE_LAYER_SCENE",
        "MLAHIFLGIGJ": ""
      },
      "guideHint": {
        "param1": ""
      },
      "isRewind": true,
      "versionBegin": "",
      "versionEnd": ""
    },
    {
      "subId": 4005103,
      "mainId": 40051,
      "order": 3,
      "descTextMapHash": 1448941340,
      "finishCond": [
        {
          "damageRatio": "QUEST_CONTENT_COMPLETE_TALK",
          "param": [
            4005103,
            0
          ]
        }
      ],
      "guide": {
        "damageRatio": "QUEST_GUIDE_LOCATION",
        "autoGuide": "QUEST_GUIDE_AUTO_ENABLE",
        "param": [
          "Q4005103_guide",
          "25"
        ],
        "guideScene": 7,
        "guideStyle": "QUEST_GUIDE_STYLE_POINT",
        "guideLayer": "QUEST_GUIDE_LAYER_SCENE",
        "MLAHIFLGIGJ": ""
      },
      "guideHint": {
        "param1": ""
      },
      "isRewind": true,
      "versionBegin": "",
      "versionEnd": ""
    },
    {
      "subId": 4005104,
      "mainId": 40051,
      "order": 4,
      "descTextMapHash": 3006931356,
      "finishCond": [
        {
          "damageRatio": "QUEST_CONTENT_LUA_NOTIFY",
          "param": [
            0,
            0
          ],
          "count": 1
        }
      ],
      "guide": {
        "damageRatio": "QUEST_GUIDE_LOCATION",
        "autoGuide": "QUEST_GUIDE_AUTO_ENABLE",
        "param": [
          "Q4005103_guide",
          "30"
        ],
        "guideScene": 7,
        "guideStyle": "QUEST_GUIDE_STYLE_POINT",
        "guideLayer": "QUEST_GUIDE_LAYER_SCENE",
        "MLAHIFLGIGJ": ""
      },
      "guideHint": {
        "param1": ""
      },
      "isRewind": true,
      "finishExec": [
        {
          "damageRatio": "QUEST_EXEC_UNREGISTER_DYNAMIC_GROUP",
          "param": [
            "177005001",
            "0"
          ]
        }
      ],
      "versionBegin": "",
      "versionEnd": ""
    },
    {
      "subId": 4005105,
      "mainId": 40051,
      "order": 5,
      "descTextMapHash": 2682628948,
      "finishCond": [
        {
          "damageRatio": "QUEST_CONTENT_COMPLETE_TALK",
          "param": [
            4005105,
            0
          ]
        }
      ],
      "guide": {
        "damageRatio": "QUEST_GUIDE_NPC",
        "autoGuide": "QUEST_GUIDE_AUTO_ENABLE",
        "param": [
          "20518"
        ],
        "guideScene": 7,
        "guideStyle": "QUEST_GUIDE_STYLE_TARGET",
        "guideLayer": "QUEST_GUIDE_LAYER_SCENE",
        "MLAHIFLGIGJ": ""
      },
      "guideHint": {
        "param1": ""
      },
      "isRewind": true,
      "versionBegin": "",
      "versionEnd": ""
    },
    {
      "subId": 4005106,
      "mainId": 40051,
      "order": 7,
      "subIdSet": 1,
      "descTextMapHash": 804561388,
      "finishCond": [
        {
          "damageRatio": "QUEST_CONTENT_LUA_NOTIFY",
          "param": [
            0,
            0
          ],
          "count": 1
        }
      ],
      "guide": {
        "damageRatio": "QUEST_GUIDE_LOCATION",
        "param": [
          "Q4005106_guide",
          "0"
        ],
        "guideScene": 7,
        "guideStyle": "QUEST_GUIDE_STYLE_POINT",
        "guideLayer": "QUEST_GUIDE_LAYER_SCENE",
        "MLAHIFLGIGJ": ""
      },
      "guideHint": {
        "param1": ""
      },
      "finishExec": [
        {
          "damageRatio": "QUEST_EXEC_ADD_QUEST_PROGRESS",
          "param": [
            "4005109",
            "1"
          ]
        },
        {
          "damageRatio": "QUEST_EXEC_SET_QUEST_VAR",
          "param": [
            "4",
            "6",
            "4005110"
          ]
        }
      ],
      "versionBegin": "",
      "versionEnd": ""
    },
    {
      "subId": 4005107,
      "mainId": 40051,
      "order": 8,
      "subIdSet": 1,
      "descTextMapHash": 2208201596,
      "finishCond": [
        {
          "damageRatio": "QUEST_CONTENT_LUA_NOTIFY",
          "param": [
            0,
            0
          ],
          "count": 1
        }
      ],
      "guide": {
        "damageRatio": "QUEST_GUIDE_LOCATION",
        "param": [
          "Q4005107_guide",
          "0"
        ],
        "guideScene": 7,
        "guideStyle": "QUEST_GUIDE_STYLE_POINT",
        "guideLayer": "QUEST_GUIDE_LAYER_SCENE",
        "MLAHIFLGIGJ": ""
      },
      "guideHint": {
        "param1": ""
      },
      "finishExec": [
        {
          "damageRatio": "QUEST_EXEC_ADD_QUEST_PROGRESS",
          "param": [
            "4005109",
            "1"
          ]
        },
        {
          "damageRatio": "QUEST_EXEC_SET_QUEST_VAR",
          "param": [
            "4",
            "7",
            "4005110"
          ]
        }
      ],
      "versionBegin": "",
      "versionEnd": ""
    },
    {
      "subId": 4005108,
      "mainId": 40051,
      "order": 9,
      "subIdSet": 1,
      "descTextMapHash": 1337289588,
      "finishCond": [
        {
          "damageRatio": "QUEST_CONTENT_LUA_NOTIFY",
          "param": [
            0,
            0
          ],
          "count": 1
        }
      ],
      "guide": {
        "damageRatio": "QUEST_GUIDE_LOCATION",
        "param": [
          "Q4005108_guide",
          "0"
        ],
        "guideScene": 7,
        "guideStyle": "QUEST_GUIDE_STYLE_POINT",
        "guideLayer": "QUEST_GUIDE_LAYER_SCENE",
        "MLAHIFLGIGJ": ""
      },
      "guideHint": {
        "param1": ""
      },
      "finishExec": [
        {
          "damageRatio": "QUEST_EXEC_ADD_QUEST_PROGRESS",
          "param": [
            "4005109",
            "1"
          ]
        },
        {
          "damageRatio": "QUEST_EXEC_SET_QUEST_VAR",
          "param": [
            "4",
            "8",
            "4005110"
          ]
        }
      ],
      "versionBegin": "",
      "versionEnd": ""
    },
    {
      "subId": 4005109,
      "mainId": 40051,
      "order": 11,
      "isMpBlock": true,
      "showType": "QUEST_HIDDEN",
      "finishCond": [
        {
          "damageRatio": "QUEST_CONTENT_ADD_QUEST_PROGRESS",
          "param": [
            4005109,
            0
          ],
          "count": 3
        }
      ],
      "guide": {
        "MLAHIFLGIGJ": ""
      },
      "showGuide": "QUEST_GUIDE_ITEM_DISABLE",
      "guideHint": {
        "param1": ""
      },
      "isRewind": true,
      "finishExec": [
        {
          "damageRatio": "QUEST_EXEC_ADD_QUEST_PROGRESS",
          "param": [
            "4005110",
            "1"
          ]
        }
      ],
      "versionBegin": "",
      "versionEnd": ""
    },
    {
      "subId": 4005110,
      "mainId": 40051,
      "order": 12,
      "isMpBlock": true,
      "showType": "QUEST_HIDDEN",
      "finishCond": [
        {
          "damageRatio": "QUEST_CONTENT_ADD_QUEST_PROGRESS",
          "param": [
            4005110,
            0
          ],
          "count": 1
        }
      ],
      "guide": {
        "MLAHIFLGIGJ": ""
      },
      "showGuide": "QUEST_GUIDE_ITEM_DISABLE",
      "guideHint": {
        "param1": ""
      },
      "isRewind": true,
      "versionBegin": "",
      "versionEnd": ""
    },
    {
      "subId": 4005111,
      "mainId": 40051,
      "order": 13,
      "isMpBlock": true,
      "descTextMapHash": 1660848460,
      "finishCond": [
        {
          "damageRatio": "QUEST_CONTENT_COMPLETE_TALK",
          "param": [
            4005111,
            0
          ]
        }
      ],
      "guide": {
        "damageRatio": "QUEST_GUIDE_LOCATION",
        "autoGuide": "QUEST_GUIDE_AUTO_ENABLE",
        "param": [
          "Q4005108_guide",
          "17"
        ],
        "guideScene": 7,
        "guideStyle": "QUEST_GUIDE_STYLE_POINT",
        "guideLayer": "QUEST_GUIDE_LAYER_SCENE",
        "MLAHIFLGIGJ": ""
      },
      "guideHint": {
        "param1": ""
      },
      "isRewind": true,
      "versionBegin": "",
      "versionEnd": ""
    },
    {
      "subId": 4005112,
      "mainId": 40051,
      "order": 15,
      "descTextMapHash": 2135532812,
      "finishCond": [
        {
          "damageRatio": "QUEST_CONTENT_FINISH_PLOT",
          "param": [
            4005112,
            0
          ]
        },
        {
          "damageRatio": "QUEST_CONTENT_LUA_NOTIFY",
          "param": [
            0,
            0
          ],
          "count": 1
        }
      ],
      "guide": {
        "damageRatio": "QUEST_GUIDE_LOCATION",
        "autoGuide": "QUEST_GUIDE_AUTO_ENABLE",
        "param": [
          "Q4005112_guide"
        ],
        "guideScene": 7,
        "guideStyle": "QUEST_GUIDE_STYLE_TARGET",
        "guideLayer": "QUEST_GUIDE_LAYER_SCENE",
        "MLAHIFLGIGJ": ""
      },
      "guideHint": {
        "param1": ""
      },
      "isRewind": true,
      "versionBegin": "",
      "versionEnd": ""
    },
    {
      "subId": 4005113,
      "mainId": 40051,
      "order": 16,
      "isMpBlock": true,
      "descTextMapHash": 3538839084,
      "finishCond": [
        {
          "damageRatio": "QUEST_CONTENT_LUA_NOTIFY",
          "param": [
            0,
            0
          ],
          "count": 1
        }
      ],
      "failCond": [
        {
          "damageRatio": "QUEST_CONTENT_LEAVE_SCENE_RANGE",
          "param": [
            7,
            100
          ]
        },
        {
          "damageRatio": "QUEST_CONTENT_TEAM_DEAD",
          "param": [
            0,
            0
          ]
        },
        {
          "damageRatio": "QUEST_CONTENT_ANY_MANUAL_TRANSPORT",
          "param": [
            0,
            0
          ]
        }
      ],
      "guide": {
        "damageRatio": "QUEST_GUIDE_LOCATION",
        "autoGuide": "QUEST_GUIDE_AUTO_ENABLE",
        "param": [
          "Q4005113_guide",
          "40"
        ],
        "guideScene": 7,
        "guideStyle": "QUEST_GUIDE_STYLE_POINT",
        "guideLayer": "QUEST_GUIDE_LAYER_SCENE",
        "MLAHIFLGIGJ": ""
      },
      "guideHint": {
        "param1": ""
      },
      "finishExec": [
        {
          "damageRatio": "QUEST_EXEC_UNREGISTER_DYNAMIC_GROUP",
          "param": [
            "177005022",
            "1"
          ]
        }
      ],
      "failExec": [
        {
          "damageRatio": "QUEST_EXEC_ROLLBACK_QUEST",
          "param": [
            "4005112"
          ]
        },
        {
          "damageRatio": "QUEST_EXEC_UNREGISTER_DYNAMIC_GROUP",
          "param": [
            "177005022",
            "0"
          ]
        }
      ],
      "versionBegin": "",
      "versionEnd": ""
    },
    {
      "subId": 4005114,
      "mainId": 40051,
      "order": 18,
      "descTextMapHash": 1497415364,
      "finishCond": [
        {
          "damageRatio": "QUEST_CONTENT_FINISH_PLOT",
          "param": [
            4005114,
            0
          ]
        }
      ],
      "guide": {
        "damageRatio": "QUEST_GUIDE_LOCATION",
        "autoGuide": "QUEST_GUIDE_AUTO_ENABLE",
        "param": [
          "Q4005114_guide",
          "20"
        ],
        "guideScene": 7,
        "guideStyle": "QUEST_GUIDE_STYLE_POINT",
        "guideLayer": "QUEST_GUIDE_LAYER_SCENE",
        "MLAHIFLGIGJ": ""
      },
      "guideHint": {
        "param1": ""
      },
      "isRewind": true,
      "versionBegin": "",
      "versionEnd": ""
    },
    {
      "subId": 4005115,
      "mainId": 40051,
      "order": 19,
      "descTextMapHash": 2998021428,
      "finishCond": [
        {
          "damageRatio": "QUEST_CONTENT_COMPLETE_TALK",
          "param": [
            4005115,
            0
          ]
        }
      ],
      "guide": {
        "damageRatio": "QUEST_GUIDE_LOCATION",
        "autoGuide": "QUEST_GUIDE_AUTO_ENABLE",
        "param": [
          "Q4005114_guide",
          "0"
        ],
        "guideScene": 7,
        "guideStyle": "QUEST_GUIDE_STYLE_POINT",
        "guideLayer": "QUEST_GUIDE_LAYER_SCENE",
        "MLAHIFLGIGJ": ""
      },
      "guideHint": {
        "param1": ""
      },
      "finishExec": [
        {
          "damageRatio": "QUEST_EXEC_DEL_PACK_ITEM",
          "param": [
            "101703",
            "1"
          ]
        },
        {
          "damageRatio": "QUEST_EXEC_DEL_PACK_ITEM",
          "param": [
            "101704",
            "1"
          ]
        }
      ],
      "versionBegin": "",
      "versionEnd": ""
    },
    {
      "subId": 4005116,
      "mainId": 40051,
      "order": 20,
      "descTextMapHash": 364258932,
      "stepDescTextMapHash": 2541751509,
      "finishCond": [
        {
          "damageRatio": "QUEST_CONTENT_COMPLETE_TALK",
          "param": [
            4005116,
            0
          ]
        }
      ],
      "guide": {
        "damageRatio": "QUEST_GUIDE_NPC",
        "autoGuide": "QUEST_GUIDE_AUTO_ENABLE",
        "param": [
          "1037"
        ],
        "guideScene": 3,
        "guideStyle": "QUEST_GUIDE_STYLE_TARGET",
        "guideLayer": "QUEST_GUIDE_LAYER_SCENE",
        "MLAHIFLGIGJ": ""
      },
      "guideHint": {
        "param1": ""
      },
      "finishParent": true,
      "isRewind": true,
      "finishExec": [
        {
          "damageRatio": "QUEST_EXEC_DEL_PACK_ITEM",
          "param": [
            "101706",
            "1"
          ]
        }
      ],
      "versionBegin": "",
      "versionEnd": ""
    },
    {
      "subId": 4005117,
      "mainId": 40051,
      "order": 6,
      "descTextMapHash": 1251410276,
      "finishCond": [
        {
          "damageRatio": "QUEST_CONTENT_COMPLETE_TALK",
          "param": [
            4005117,
            0
          ]
        }
      ],
      "guide": {
        "damageRatio": "QUEST_GUIDE_LOCATION",
        "autoGuide": "QUEST_GUIDE_AUTO_ENABLE",
        "param": [
          "Q4005117_N1005",
          "0"
        ],
        "guideScene": 7,
        "guideStyle": "QUEST_GUIDE_STYLE_POINT",
        "guideLayer": "QUEST_GUIDE_LAYER_SCENE",
        "MLAHIFLGIGJ": ""
      },
      "guideHint": {
        "param1": ""
      },
      "isRewind": true,
      "versionBegin": "",
      "versionEnd": ""
    },
    {
      "subId": 4005118,
      "mainId": 40051,
      "order": 14,
      "descTextMapHash": 4193952196,
      "stepDescTextMapHash": 106136469,
      "finishCond": [
        {
          "damageRatio": "QUEST_CONTENT_FINISH_PLOT",
          "param": [
            4005118,
            0
          ]
        }
      ],
      "guide": {
        "damageRatio": "QUEST_GUIDE_LOCATION",
        "autoGuide": "QUEST_GUIDE_AUTO_ENABLE",
        "param": [
          "Q4005118_guide",
          "20"
        ],
        "guideScene": 7,
        "guideStyle": "QUEST_GUIDE_STYLE_POINT",
        "guideLayer": "QUEST_GUIDE_LAYER_SCENE",
        "MLAHIFLGIGJ": ""
      },
      "guideHint": {
        "param1": ""
      },
      "isRewind": true,
      "versionBegin": "",
      "versionEnd": ""
    },
    {
      "subId": 4005119,
      "mainId": 40051,
      "order": 17,
      "isMpBlock": true,
      "descTextMapHash": 3604582396,
      "finishCond": [
        {
          "damageRatio": "QUEST_CONTENT_COMPLETE_TALK",
          "param": [
            4005119,
            0
          ]
        }
      ],
      "guide": {
        "damageRatio": "QUEST_GUIDE_LOCATION",
        "autoGuide": "QUEST_GUIDE_AUTO_ENABLE",
        "param": [
          "Q4005113_guide",
          "18"
        ],
        "guideScene": 7,
        "guideStyle": "QUEST_GUIDE_STYLE_POINT",
        "guideLayer": "QUEST_GUIDE_LAYER_SCENE",
        "MLAHIFLGIGJ": ""
      },
      "guideHint": {
        "param1": ""
      },
      "isRewind": true,
      "versionBegin": "",
      "versionEnd": ""
    },
    {
      "subId": 4005120,
      "mainId": 40051,
      "order": 10,
      "showType": "QUEST_HIDDEN",
      "finishCond": [
        {
          "damageRatio": "QUEST_CONTENT_LUA_NOTIFY",
          "param": [
            0,
            0
          ],
          "count": 1
        }
      ],
      "guide": {
        "MLAHIFLGIGJ": ""
      },
      "showGuide": "QUEST_GUIDE_ITEM_DISABLE",
      "guideHint": {
        "param1": ""
      },
      "isRewind": true,
      "versionBegin": "",
      "versionEnd": ""
    }
  ],
  "talks": [
    {
      "id": 4005101,
      "beginWay": "TALK_BEGIN_MANUAL",
      "beginCond": [
        {
          "type": "QUEST_COND_STATE_EQUAL",
          "_param": [
            "4005101",
            "2"
          ]
        }
      ],
      "priority": 5,
      "initDialog": 400510101,
      "npcId": [
        30000
      ],
      "performCfg": "QuestDialogue/EQ/MichiaeMatsuri_40051/Q4005101",
      "questId": 40051,
      "assetIndex": 6682356800238689098,
      "prePerformCfg": ""
    },
    {
      "id": 4005102,
      "beginWay": "TALK_BEGIN_MANUAL",
      "beginCond": [
        {
          "type": "QUEST_COND_STATE_EQUAL",
          "_param": [
            "4005102",
            "2"
          ]
        }
      ],
      "priority": 5,
      "initDialog": 400510201,
      "npcId": [
        30000
      ],
      "performCfg": "QuestDialogue/EQ/MichiaeMatsuri_40051/Q4005102",
      "questId": 40051,
      "assetIndex": 6766701863784029637,
      "prePerformCfg": ""
    },
    {
      "id": 4005103,
      "beginWay": "TALK_BEGIN_MANUAL",
      "beginCond": [
        {
          "type": "QUEST_COND_STATE_EQUAL",
          "_param": [
            "4005103",
            "2"
          ]
        }
      ],
      "priority": 5,
      "initDialog": 400510301,
      "npcId": [
        20518
      ],
      "performCfg": "QuestDialogue/EQ/MichiaeMatsuri_40051/Q4005103",
      "questId": 40051,
      "assetIndex": 12662414532808194177,
      "prePerformCfg": ""
    },
    {
      "id": 4005105,
      "beginWay": "TALK_BEGIN_MANUAL",
      "beginCond": [
        {
          "type": "QUEST_COND_STATE_EQUAL",
          "_param": [
            "4005105",
            "2"
          ]
        }
      ],
      "priority": 5,
      "initDialog": 400510501,
      "npcId": [
        20518
      ],
      "performCfg": "QuestDialogue/EQ/MichiaeMatsuri_40051/Q4005105",
      "questId": 40051,
      "assetIndex": 15169428135381582096,
      "prePerformCfg": ""
    },
    {
      "id": 4005111,
      "beginWay": "TALK_BEGIN_AUTO",
      "beginCond": [
        {
          "type": "QUEST_COND_STATE_EQUAL",
          "_param": [
            "4005111",
            "2"
          ]
        }
      ],
      "priority": 5,
      "initDialog": 400511101,
      "npcId": [
        1005
      ],
      "performCfg": "QuestDialogue/EQ/MichiaeMatsuri_40051/Q4005111",
      "questId": 40051,
      "assetIndex": 3917561471223460561,
      "prePerformCfg": ""
    },
    {
      "id": 4005115,
      "beginWay": "TALK_BEGIN_MANUAL",
      "beginCond": [
        {
          "type": "QUEST_COND_STATE_EQUAL",
          "_param": [
            "4005115",
            "2"
          ]
        }
      ],
      "priority": 5,
      "initDialog": 400511501,
      "npcId": [
        30000
      ],
      "performCfg": "QuestDialogue/EQ/MichiaeMatsuri_40051/Q4005115",
      "questId": 40051,
      "assetIndex": 10059111841153662990,
      "prePerformCfg": ""
    },
    {
      "id": 4005116,
      "beginWay": "TALK_BEGIN_MANUAL",
      "beginCond": [
        {
          "type": "QUEST_COND_STATE_EQUAL",
          "_param": [
            "4005116",
            "2"
          ]
        }
      ],
      "priority": 5,
      "initDialog": 400511601,
      "npcId": [
        1037
      ],
      "performCfg": "QuestDialogue/EQ/MichiaeMatsuri_40051/Q4005116",
      "questId": 40051,
      "assetIndex": 12987869326080249339,
      "prePerformCfg": ""
    },
    {
      "id": 4005117,
      "beginWay": "TALK_BEGIN_MANUAL",
      "beginCond": [
        {
          "type": "QUEST_COND_STATE_EQUAL",
          "_param": [
            "4005117",
            "2"
          ]
        }
      ],
      "priority": 5,
      "initDialog": 400511701,
      "npcId": [
        1005
      ],
      "performCfg": "QuestDialogue/EQ/MichiaeMatsuri_40051/Q4005117",
      "questId": 40051,
      "assetIndex": 3799137147739483332,
      "prePerformCfg": ""
    },
    {
      "id": 4005119,
      "beginWay": "TALK_BEGIN_MANUAL",
      "beginCond": [
        {
          "type": "QUEST_COND_STATE_EQUAL",
          "_param": [
            "4005119",
            "2"
          ]
        }
      ],
      "priority": 5,
      "initDialog": 400511901,
      "npcId": [
        1005
      ],
      "performCfg": "QuestDialogue/EQ/MichiaeMatsuri_40051/Q4005119",
      "questId": 40051,
      "assetIndex": 3465952806306831736,
      "prePerformCfg": ""
    },
    {
      "id": 4005150,
      "beginWay": "TALK_BEGIN_AUTO",
      "beginCondComb": "LOGIC_AND",
      "beginCond": [
        {
          "type": "QUEST_COND_STATE_EQUAL",
          "_param": [
            "99902",
            "2"
          ]
        }
      ],
      "priority": 5,
      "initDialog": 400511101,
      "npcId": [
        1005
      ],
      "performCfg": "QuestDialogue/EQ/MichiaeMatsuri_40051/Q4005150",
      "questId": 40051,
      "assetIndex": 9248595243710237250,
      "prePerformCfg": ""
    },
    {
      "id": 4005151,
      "beginWay": "TALK_BEGIN_AUTO",
      "beginCondComb": "LOGIC_AND",
      "beginCond": [
        {
          "type": "QUEST_COND_STATE_EQUAL",
          "_param": [
            "99902",
            "2"
          ]
        }
      ],
      "priority": 5,
      "initDialog": 400511101,
      "npcId": [
        1005
      ],
      "performCfg": "QuestDialogue/EQ/MichiaeMatsuri_40051/Q4005151",
      "questId": 40051,
      "assetIndex": 15960153699373410226,
      "prePerformCfg": ""
    }
  ],
  "preloadLuaList": [
    14457059026087496718,
    15141323883211115645,
    821230053771355641,
    7968246820298916362,
    9279655401374795432,
    16215540333546091625,
    12856006587484129896,
    9754636141795853897,
    12623420829567473542,
    16202933678191941977,
    3704384849180772919
  ],
  "forcePreloadLuaList": [
    9201509697921889248
  ]
}