{
  "id": 40082,
  "damageRatio": "EQ",
  "descTextMapHash": 319624111,
  "EKEKACCODOE": 175136806,
  "luaPath": "Actor/Quest/EQ40082",
  "suggestTrackMainQuestList": [
    40083
  ],
  "rewardIdList": [
    140082
  ],
  "chapterId": 10101,
  "activityId": 2017,
  "subQuests": [
    {
      "subId": 4008201,
      "mainId": 40082,
      "order": 1,
      "descTextMapHash": 682215780,
      "finishCond": [
        {
          "damageRatio": "QUEST_CONTENT_GAME_TIME_TICK",
          "param": [
            1,
            0
          ]
        }
      ],
      "guide": {
        "MLAHIFLGIGJ": ""
      },
      "guideHint": {
        "param1": ""
      },
      "isRewind": true,
      "versionBegin": "",
      "versionEnd": ""
    },
    {
      "subId": 4008202,
      "mainId": 40082,
      "order": 2,
      "descTextMapHash": 1506247356,
      "JIFODJPFKDF": [
        330312
      ],
      "finishCond": [
        {
          "damageRatio": "QUEST_CONTENT_COMPLETE_TALK",
          "param": [
            4008213,
            0
          ]
        }
      ],
      "guide": {
        "damageRatio": "QUEST_GUIDE_LOCATION",
        "autoGuide": "QUEST_GUIDE_AUTO_ENABLE",
        "param": [
          "Q4008103_guide"
        ],
        "guideScene": 3,
        "guideStyle": "QUEST_GUIDE_STYLE_POINT",
        "guideLayer": "QUEST_GUIDE_LAYER_SCENE",
        "MLAHIFLGIGJ": ""
      },
      "guideHint": {
        "param1": ""
      },
      "isRewind": true,
      "versionBegin": "",
      "versionEnd": ""
    },
    {
      "subId": 4008203,
      "mainId": 40082,
      "order": 6,
      "isMpBlock": true,
      "descTextMapHash": 575328844,
      "finishCond": [
        {
          "damageRatio": "QUEST_CONTENT_COMPLETE_TALK",
          "param": [
            4008203,
            0
          ]
        }
      ],
      "guide": {
        "damageRatio": "QUEST_GUIDE_LOCATION",
        "autoGuide": "QUEST_GUIDE_AUTO_ENABLE",
        "param": [
          "Q4008203_guide"
        ],
        "guideScene": 47103,
        "guideStyle": "QUEST_GUIDE_STYLE_TARGET",
        "guideLayer": "QUEST_GUIDE_LAYER_SCENE",
        "MLAHIFLGIGJ": ""
      },
      "guideHint": {
        "param1": ""
      },
      "isRewind": true,
      "versionBegin": "",
      "versionEnd": ""
    },
    {
      "subId": 4008204,
      "mainId": 40082,
      "order": 15,
      "finishCond": [
        {
          "damageRatio": "QUEST_CONTENT_FINISH_PLOT",
          "param": [
            4008204,
            0
          ]
        }
      ],
      "guide": {
        "param": [
          "30"
        ],
        "guideScene": 3,
        "MLAHIFLGIGJ": ""
      },
      "showGuide": "QUEST_GUIDE_ITEM_DISABLE",
      "guideHint": {
        "param1": ""
      },
      "isRewind": true,
      "versionBegin": "",
      "versionEnd": ""
    },
    {
      "subId": 4008205,
      "mainId": 40082,
      "order": 3,
      "descTextMapHash": 2184601788,
      "finishCond": [
        {
          "damageRatio": "QUEST_CONTENT_ENTER_DUNGEON",
          "param": [
            8111,
            682
          ]
        }
      ],
      "guide": {
        "damageRatio": "QUEST_GUIDE_LOCATION",
        "autoGuide": "QUEST_GUIDE_AUTO_ENABLE",
        "param": [
          "Q4008205_guide"
        ],
        "guideScene": 3,
        "guideStyle": "QUEST_GUIDE_STYLE_POINT",
        "guideLayer": "QUEST_GUIDE_LAYER_SCENE",
        "MLAHIFLGIGJ": ""
      },
      "guideHint": {
        "param1": ""
      },
      "isRewind": true,
      "versionBegin": "",
      "versionEnd": ""
    },
    {
      "subId": 4008206,
      "mainId": 40082,
      "order": 7,
      "isMpBlock": true,
      "descTextMapHash": 1991892404,
      "finishCond": [
        {
          "damageRatio": "QUEST_CONTENT_LUA_NOTIFY",
          "param": [
            0,
            0
          ],
          "count": 1
        }
      ],
      "failCond": [
        {
          "damageRatio": "QUEST_CONTENT_LUA_NOTIFY",
          "param": [
            0,
            0
          ],
          "count": 1
        }
      ],
      "guide": {
        "param": [
          "30"
        ],
        "guideScene": 3,
        "MLAHIFLGIGJ": ""
      },
      "showGuide": "QUEST_GUIDE_ITEM_DISABLE",
      "guideHint": {
        "param1": ""
      },
      "isRewind": true,
      "failExec": [
        {
          "damageRatio": "QUEST_EXEC_ROLLBACK_QUEST",
          "param": [
            "4008215"
          ]
        }
      ],
      "versionBegin": "",
      "versionEnd": ""
    },
    {
      "subId": 4008207,
      "mainId": 40082,
      "order": 8,
      "isMpBlock": true,
      "descTextMapHash": 3906020004,
      "finishCond": [
        {
          "damageRatio": "QUEST_CONTENT_COMPLETE_TALK",
          "param": [
            4008207,
            0
          ]
        }
      ],
      "guide": {
        "MLAHIFLGIGJ": ""
      },
      "showGuide": "QUEST_GUIDE_ITEM_DISABLE",
      "guideHint": {
        "param1": ""
      },
      "isRewind": true,
      "finishExec": [
        {
          "damageRatio": "QUEST_EXEC_NOTIFY_GROUP_LUA",
          "param": [
            "47103",
            "247103001"
          ]
        }
      ],
      "versionBegin": "",
      "versionEnd": ""
    },
    {
      "subId": 4008208,
      "mainId": 40082,
      "order": 10,
      "descTextMapHash": 2210973724,
      "JIFODJPFKDF": [
        330312
      ],
      "finishCond": [
        {
          "damageRatio": "QUEST_CONTENT_COMPLETE_TALK",
          "param": [
            4008208,
            0
          ]
        }
      ],
      "guide": {
        "damageRatio": "QUEST_GUIDE_LOCATION",
        "autoGuide": "QUEST_GUIDE_AUTO_ENABLE",
        "param": [
          "Q4008208_guide"
        ],
        "guideScene": 3,
        "guideStyle": "QUEST_GUIDE_STYLE_POINT",
        "guideLayer": "QUEST_GUIDE_LAYER_SCENE",
        "MLAHIFLGIGJ": ""
      },
      "guideHint": {
        "param1": ""
      },
      "isRewind": true,
      "versionBegin": "",
      "versionEnd": ""
    },
    {
      "subId": 4008209,
      "mainId": 40082,
      "order": 12,
      "descTextMapHash": 3331339476,
      "JIFODJPFKDF": [
        330254
      ],
      "finishCond": [
        {
          "damageRatio": "QUEST_CONTENT_FINISH_PLOT",
          "param": [
            4008209,
            0
          ]
        }
      ],
      "guide": {
        "damageRatio": "QUEST_GUIDE_LOCATION",
        "autoGuide": "QUEST_GUIDE_AUTO_ENABLE",
        "param": [
          "Q4008209_guide"
        ],
        "guideScene": 3,
        "guideStyle": "QUEST_GUIDE_STYLE_POINT",
        "guideLayer": "QUEST_GUIDE_LAYER_SCENE",
        "MLAHIFLGIGJ": ""
      },
      "guideHint": {
        "param1": ""
      },
      "isRewind": true,
      "versionBegin": "",
      "versionEnd": ""
    },
    {
      "subId": 4008210,
      "mainId": 40082,
      "order": 13,
      "descTextMapHash": 3871400828,
      "JIFODJPFKDF": [
        330254
      ],
      "finishCond": [
        {
          "damageRatio": "QUEST_CONTENT_COMPLETE_TALK",
          "param": [
            4008210,
            0
          ]
        }
      ],
      "guide": {
        "damageRatio": "QUEST_GUIDE_LOCATION",
        "autoGuide": "QUEST_GUIDE_AUTO_ENABLE",
        "param": [
          "Q4008209_guide"
        ],
        "guideScene": 3,
        "guideStyle": "QUEST_GUIDE_STYLE_POINT",
        "guideLayer": "QUEST_GUIDE_LAYER_SCENE",
        "MLAHIFLGIGJ": ""
      },
      "guideHint": {
        "param1": ""
      },
      "isRewind": true,
      "finishExec": [
        {
          "damageRatio": "QUEST_EXEC_UNREGISTER_DYNAMIC_GROUP",
          "param": [
            "133302727",
            "1"
          ]
        }
      ],
      "versionBegin": "",
      "versionEnd": ""
    },
    {
      "subId": 4008211,
      "mainId": 40082,
      "order": 14,
      "descTextMapHash": 3197417476,
      "JIFODJPFKDF": [
        330312
      ],
      "finishCond": [
        {
          "damageRatio": "QUEST_CONTENT_COMPLETE_TALK",
          "param": [
            4008214,
            0
          ]
        }
      ],
      "guide": {
        "damageRatio": "QUEST_GUIDE_LOCATION",
        "autoGuide": "QUEST_GUIDE_AUTO_ENABLE",
        "param": [
          "Q4008211_guide"
        ],
        "guideScene": 3,
        "guideStyle": "QUEST_GUIDE_STYLE_POINT",
        "guideLayer": "QUEST_GUIDE_LAYER_SCENE",
        "MLAHIFLGIGJ": ""
      },
      "guideHint": {
        "param1": ""
      },
      "finishParent": true,
      "isRewind": true,
      "versionBegin": "",
      "versionEnd": ""
    },
    {
      "subId": 4008212,
      "mainId": 40082,
      "order": 11,
      "descTextMapHash": 3636481796,
      "JIFODJPFKDF": [
        330312
      ],
      "finishCond": [
        {
          "damageRatio": "QUEST_CONTENT_COMPLETE_TALK",
          "param": [
            4008212,
            0
          ]
        }
      ],
      "guide": {
        "damageRatio": "QUEST_GUIDE_LOCATION",
        "autoGuide": "QUEST_GUIDE_AUTO_ENABLE",
        "param": [
          "Q4008208"
        ],
        "guideScene": 3,
        "guideStyle": "QUEST_GUIDE_STYLE_POINT",
        "guideLayer": "QUEST_GUIDE_LAYER_SCENE",
        "MLAHIFLGIGJ": ""
      },
      "guideHint": {
        "param1": ""
      },
      "isRewind": true,
      "finishExec": [
        {
          "damageRatio": "QUEST_EXEC_UNREGISTER_DYNAMIC_GROUP",
          "param": [
            "133302720",
            "1"
          ]
        }
      ],
      "versionBegin": "",
      "versionEnd": ""
    },
    {
      "subId": 4008213,
      "mainId": 40082,
      "order": 9,
      "isMpBlock": true,
      "descTextMapHash": 4250614428,
      "finishCond": [
        {
          "damageRatio": "QUEST_CONTENT_ENTER_MY_WORLD",
          "param": [
            3,
            0
          ]
        },
        {
          "damageRatio": "QUEST_CONTENT_LEAVE_SCENE",
          "param": [
            47103,
            0
          ]
        }
      ],
      "guide": {
        "MLAHIFLGIGJ": ""
      },
      "showGuide": "QUEST_GUIDE_ITEM_DISABLE",
      "guideHint": {
        "param1": ""
      },
      "isRewind": true,
      "versionBegin": "",
      "versionEnd": ""
    },
    {
      "subId": 4008214,
      "mainId": 40082,
      "order": 4,
      "isMpBlock": true,
      "descTextMapHash": 3690342436,
      "showType": "QUEST_HIDDEN",
      "finishCond": [
        {
          "damageRatio": "QUEST_CONTENT_QUEST_STATE_EQUAL",
          "param": [
            4008207,
            3
          ]
        }
      ],
      "failCond": [
        {
          "damageRatio": "QUEST_CONTENT_FAIL_DUNGEON",
          "param": [
            8111,
            0
          ]
        },
        {
          "damageRatio": "QUEST_CONTENT_LEAVE_SCENE",
          "param": [
            47103,
            0
          ]
        },
        {
          "damageRatio": "QUEST_CONTENT_ENTER_MY_WORLD",
          "param": [
            3,
            0
          ]
        },
        {
          "damageRatio": "QUEST_CONTENT_ANY_MANUAL_TRANSPORT",
          "param": [
            0,
            0
          ]
        }
      ],
      "guide": {
        "MLAHIFLGIGJ": ""
      },
      "guideHint": {
        "param1": ""
      },
      "failParentShow": "QUEST_HIDDEN",
      "isRewind": true,
      "failExec": [
        {
          "damageRatio": "QUEST_EXEC_ROLLBACK_QUEST",
          "param": [
            "4008205"
          ]
        }
      ],
      "versionBegin": "",
      "versionEnd": ""
    },
    {
      "subId": 4008215,
      "mainId": 40082,
      "order": 5,
      "isMpBlock": true,
      "descTextMapHash": 2777971804,
      "finishCond": [
        {
          "damageRatio": "QUEST_CONTENT_FINISH_PLOT",
          "param": [
            4008215,
            0
          ]
        }
      ],
      "guide": {
        "MLAHIFLGIGJ": ""
      },
      "showGuide": "QUEST_GUIDE_ITEM_DISABLE",
      "guideHint": {
        "param1": ""
      },
      "isRewind": true,
      "versionBegin": "",
      "versionEnd": ""
    }
  ],
  "talks": [
    {
      "id": 4008203,
      "beginWay": "TALK_BEGIN_MANUAL",
      "beginCond": [
        {
          "type": "QUEST_COND_STATE_EQUAL",
          "_param": [
            "4008203",
            "2"
          ]
        }
      ],
      "priority": 5,
      "initDialog": 400820301,
      "npcId": [
        12858
      ],
      "performCfg": "QuestDialogue/EQ/V3.2FungusFighter_40082/Q4008203",
      "heroTalk": "TALK_HERO_MAIN",
      "questId": 40082,
      "assetIndex": 4864330522512791559,
      "prePerformCfg": ""
    },
    {
      "id": 4008207,
      "beginWay": "TALK_BEGIN_MANUAL",
      "beginCond": [
        {
          "type": "QUEST_COND_STATE_EQUAL",
          "_param": [
            "4008207",
            "2"
          ]
        }
      ],
      "priority": 5,
      "initDialog": 400820701,
      "npcId": [
        12858
      ],
      "performCfg": "QuestDialogue/EQ/V3.2FungusFighter_40082/Q4008207",
      "heroTalk": "TALK_HERO_MAIN",
      "questId": 40082,
      "assetIndex": 1481649010565759495,
      "prePerformCfg": ""
    },
    {
      "id": 4008208,
      "beginWay": "TALK_BEGIN_MANUAL",
      "beginCond": [
        {
          "type": "QUEST_COND_STATE_EQUAL",
          "_param": [
            "4008208",
            "2"
          ]
        }
      ],
      "priority": 5,
      "initDialog": 400820801,
      "npcId": [
        1034,
        1063
      ],
      "performCfg": "QuestDialogue/EQ/V3.2FungusFighter_40082/Q4008208",
      "heroTalk": "TALK_HERO_MAIN",
      "questId": 40082,
      "assetIndex": 7565481894453779870,
      "prePerformCfg": ""
    },
    {
      "id": 4008210,
      "beginWay": "TALK_BEGIN_MANUAL",
      "beginCond": [
        {
          "type": "QUEST_COND_STATE_EQUAL",
          "_param": [
            "4008210",
            "2"
          ]
        }
      ],
      "priority": 5,
      "initDialog": 400821001,
      "npcId": [
        12855,
        1034,
        1063
      ],
      "performCfg": "QuestDialogue/EQ/V3.2FungusFighter_40082/Q4008210",
      "heroTalk": "TALK_HERO_MAIN",
      "questId": 40082,
      "assetIndex": 12232210317157339796,
      "prePerformCfg": ""
    },
    {
      "id": 4008212,
      "beginWay": "TALK_BEGIN_MANUAL",
      "beginCond": [
        {
          "type": "QUEST_COND_STATE_EQUAL",
          "_param": [
            "4008212",
            "2"
          ]
        }
      ],
      "priority": 5,
      "initDialog": 400821201,
      "npcId": [
        1034,
        1063,
        12958
      ],
      "performCfg": "QuestDialogue/EQ/V3.2FungusFighter_40082/Q4008212",
      "heroTalk": "TALK_HERO_MAIN",
      "questId": 40082,
      "assetIndex": 1284454152447835970,
      "prePerformCfg": ""
    },
    {
      "id": 4008213,
      "beginWay": "TALK_BEGIN_MANUAL",
      "beginCond": [
        {
          "type": "QUEST_COND_STATE_EQUAL",
          "_param": [
            "4008202",
            "2"
          ]
        }
      ],
      "priority": 5,
      "initDialog": 400821301,
      "npcId": [
        12856,
        12857
      ],
      "performCfg": "QuestDialogue/EQ/V3.2FungusFighter_40082/Q4008213",
      "heroTalk": "TALK_HERO_MAIN",
      "questId": 40082,
      "assetIndex": 5122398228471970666,
      "prePerformCfg": ""
    },
    {
      "id": 4008214,
      "beginWay": "TALK_BEGIN_MANUAL",
      "beginCond": [
        {
          "type": "QUEST_COND_STATE_EQUAL",
          "_param": [
            "4008211",
            "2"
          ]
        }
      ],
      "priority": 5,
      "initDialog": 400821401,
      "npcId": [
        1063,
        1034
      ],
      "performCfg": "QuestDialogue/EQ/V3.2FungusFighter_40082/Q4008214",
      "heroTalk": "TALK_HERO_MAIN",
      "questId": 40082,
      "assetIndex": 7999480029943654289,
      "prePerformCfg": ""
    }
  ],
  "preloadLuaList": [
    14457059026087496718,
    15760870931583789619,
    959591941021482928,
    5360724453108814461
  ],
  "forcePreloadLuaList": [
    12811173605544625323
  ],
  "freeStyleDic": {
    "12858": [
      1120,
      1141,
      1230,
      1190,
      1240,
      1250,
      1300,
      4010,
      1270,
      1070
    ]
  }
}