{
  "id": 40085,
  "damageRatio": "EQ",
  "descTextMapHash": 770789847,
  "EKEKACCODOE": 517298230,
  "luaPath": "Actor/Quest/EQ40085",
  "suggestTrackMainQuestList": [
    40086
  ],
  "rewardIdList": [
    140085
  ],
  "chapterId": 10104,
  "activityId": 2017,
  "subQuests": [
    {
      "subId": 4008501,
      "mainId": 40085,
      "order": 1,
      "descTextMapHash": 225212716,
      "finishCond": [
        {
          "damageRatio": "QUEST_CONTENT_GAME_TIME_TICK",
          "param": [
            1,
            0
          ]
        }
      ],
      "guide": {
        "MLAHIFLGIGJ": ""
      },
      "showGuide": "QUEST_GUIDE_ITEM_DISABLE",
      "guideHint": {
        "param1": ""
      },
      "isRewind": true,
      "versionBegin": "",
      "versionEnd": ""
    },
    {
      "subId": 4008502,
      "mainId": 40085,
      "order": 6,
      "isMpBlock": true,
      "descTextMapHash": 3034788780,
      "finishCond": [
        {
          "damageRatio": "QUEST_CONTENT_COMPLETE_TALK",
          "param": [
            4008515,
            0
          ]
        }
      ],
      "guide": {
        "damageRatio": "QUEST_GUIDE_LOCATION",
        "autoGuide": "QUEST_GUIDE_AUTO_ENABLE",
        "param": [
          "Q4008203_guide"
        ],
        "guideScene": 47103,
        "guideStyle": "QUEST_GUIDE_STYLE_TARGET",
        "guideLayer": "QUEST_GUIDE_LAYER_SCENE",
        "MLAHIFLGIGJ": ""
      },
      "guideHint": {
        "param1": ""
      },
      "isRewind": true,
      "versionBegin": "",
      "versionEnd": ""
    },
    {
      "subId": 4008503,
      "mainId": 40085,
      "order": 3,
      "descTextMapHash": 1653260324,
      "finishCond": [
        {
          "damageRatio": "QUEST_CONTENT_ENTER_DUNGEON",
          "param": [
            8116,
            682
          ]
        }
      ],
      "guide": {
        "damageRatio": "QUEST_GUIDE_LOCATION",
        "autoGuide": "QUEST_GUIDE_AUTO_ENABLE",
        "param": [
          "Q4008205_guide"
        ],
        "guideScene": 3,
        "guideStyle": "QUEST_GUIDE_STYLE_POINT",
        "guideLayer": "QUEST_GUIDE_LAYER_SCENE",
        "MLAHIFLGIGJ": ""
      },
      "guideHint": {
        "param1": ""
      },
      "isRewind": true,
      "versionBegin": "",
      "versionEnd": ""
    },
    {
      "subId": 4008504,
      "mainId": 40085,
      "order": 9,
      "isMpBlock": true,
      "descTextMapHash": 1788042108,
      "finishCond": [
        {
          "damageRatio": "QUEST_CONTENT_COMPLETE_TALK",
          "param": [
            4008504,
            0
          ]
        }
      ],
      "guide": {
        "MLAHIFLGIGJ": ""
      },
      "showGuide": "QUEST_GUIDE_ITEM_DISABLE",
      "guideHint": {
        "param1": ""
      },
      "isRewind": true,
      "versionBegin": "",
      "versionEnd": ""
    },
    {
      "subId": 4008505,
      "mainId": 40085,
      "order": 11,
      "isMpBlock": true,
      "descTextMapHash": 384537868,
      "finishCond": [
        {
          "damageRatio": "QUEST_CONTENT_COMPLETE_TALK",
          "param": [
            4008505,
            0
          ]
        }
      ],
      "guide": {
        "MLAHIFLGIGJ": ""
      },
      "showGuide": "QUEST_GUIDE_ITEM_DISABLE",
      "guideHint": {
        "param1": ""
      },
      "isRewind": true,
      "versionBegin": "",
      "versionEnd": ""
    },
    {
      "subId": 4008506,
      "mainId": 40085,
      "order": 18,
      "isMpBlock": true,
      "descTextMapHash": 544526836,
      "finishCond": [
        {
          "damageRatio": "QUEST_CONTENT_ENTER_MY_WORLD",
          "param": [
            3,
            0
          ]
        },
        {
          "damageRatio": "QUEST_CONTENT_LEAVE_SCENE",
          "param": [
            47103,
            0
          ]
        }
      ],
      "guide": {
        "param": [
          "30"
        ],
        "MLAHIFLGIGJ": ""
      },
      "showGuide": "QUEST_GUIDE_ITEM_DISABLE",
      "guideHint": {
        "param1": ""
      },
      "isRewind": true,
      "versionBegin": "",
      "versionEnd": ""
    },
    {
      "subId": 4008507,
      "mainId": 40085,
      "order": 21,
      "finishCond": [
        {
          "damageRatio": "QUEST_CONTENT_FINISH_PLOT",
          "param": [
            4008507,
            0
          ]
        }
      ],
      "guide": {
        "MLAHIFLGIGJ": ""
      },
      "showGuide": "QUEST_GUIDE_ITEM_DISABLE",
      "guideHint": {
        "param1": ""
      },
      "isRewind": true,
      "versionBegin": "",
      "versionEnd": ""
    },
    {
      "subId": 4008508,
      "mainId": 40085,
      "order": 12,
      "isMpBlock": true,
      "descTextMapHash": 4112552636,
      "finishCond": [
        {
          "damageRatio": "QUEST_CONTENT_COMPLETE_TALK",
          "param": [
            4008508,
            0
          ]
        }
      ],
      "guide": {
        "MLAHIFLGIGJ": ""
      },
      "showGuide": "QUEST_GUIDE_ITEM_DISABLE",
      "guideHint": {
        "param1": ""
      },
      "isRewind": true,
      "finishExec": [
        {
          "damageRatio": "QUEST_EXEC_SET_QUEST_GLOBAL_VAR",
          "param": [
            "4008508",
            "1"
          ]
        }
      ],
      "versionBegin": "",
      "versionEnd": ""
    },
    {
      "subId": 4008509,
      "mainId": 40085,
      "order": 15,
      "isMpBlock": true,
      "descTextMapHash": 3433703924,
      "finishCond": [
        {
          "damageRatio": "QUEST_CONTENT_COMPLETE_TALK",
          "param": [
            4008509,
            0
          ]
        }
      ],
      "guide": {
        "MLAHIFLGIGJ": ""
      },
      "showGuide": "QUEST_GUIDE_ITEM_DISABLE",
      "guideHint": {
        "param1": ""
      },
      "isRewind": true,
      "versionBegin": "",
      "versionEnd": ""
    },
    {
      "subId": 4008510,
      "mainId": 40085,
      "order": 17,
      "isMpBlock": true,
      "descTextMapHash": 4112458932,
      "finishCond": [
        {
          "damageRatio": "QUEST_CONTENT_COMPLETE_TALK",
          "param": [
            4008510,
            0
          ]
        }
      ],
      "guide": {
        "MLAHIFLGIGJ": ""
      },
      "showGuide": "QUEST_GUIDE_ITEM_DISABLE",
      "guideHint": {
        "param1": ""
      },
      "isRewind": true,
      "finishExec": [
        {
          "damageRatio": "QUEST_EXEC_NOTIFY_GROUP_LUA",
          "param": [
            "47103",
            "247103001"
          ]
        }
      ],
      "versionBegin": "",
      "versionEnd": ""
    },
    {
      "subId": 4008511,
      "mainId": 40085,
      "order": 16,
      "isMpBlock": true,
      "descTextMapHash": 2360152820,
      "finishCond": [
        {
          "damageRatio": "QUEST_CONTENT_LUA_NOTIFY",
          "param": [
            0,
            0
          ],
          "count": 1
        }
      ],
      "failCond": [
        {
          "damageRatio": "QUEST_CONTENT_LUA_NOTIFY",
          "param": [
            0,
            0
          ],
          "count": 1
        }
      ],
      "guide": {
        "param": [
          "30"
        ],
        "MLAHIFLGIGJ": ""
      },
      "showGuide": "QUEST_GUIDE_ITEM_DISABLE",
      "guideHint": {
        "param1": ""
      },
      "isRewind": true,
      "failExec": [
        {
          "damageRatio": "QUEST_EXEC_ROLLBACK_QUEST",
          "param": [
            "4008521"
          ]
        },
        {
          "damageRatio": "QUEST_EXEC_SET_QUEST_VAR",
          "param": [
            "2",
            "1",
            "4008511"
          ]
        }
      ],
      "versionBegin": "",
      "versionEnd": ""
    },
    {
      "subId": 4008512,
      "mainId": 40085,
      "order": 19,
      "descTextMapHash": 3040480228,
      "JIFODJPFKDF": [
        330312
      ],
      "finishCond": [
        {
          "damageRatio": "QUEST_CONTENT_COMPLETE_TALK",
          "param": [
            4008512,
            0
          ]
        }
      ],
      "guide": {
        "damageRatio": "QUEST_GUIDE_LOCATION",
        "autoGuide": "QUEST_GUIDE_AUTO_ENABLE",
        "param": [
          "Q4008512_N12856",
          "5"
        ],
        "guideScene": 3,
        "guideStyle": "QUEST_GUIDE_STYLE_POINT",
        "guideLayer": "QUEST_GUIDE_LAYER_SCENE",
        "MLAHIFLGIGJ": ""
      },
      "guideHint": {
        "param1": ""
      },
      "finishParent": true,
      "isRewind": true,
      "finishExec": [
        {
          "damageRatio": "QUEST_EXEC_SET_QUEST_GLOBAL_VAR",
          "param": [
            "4008512",
            "1"
          ]
        }
      ],
      "versionBegin": "",
      "versionEnd": ""
    },
    {
      "subId": 4008513,
      "mainId": 40085,
      "order": 20,
      "finishCond": [
        {
          "damageRatio": "QUEST_CONTENT_COMPLETE_TALK",
          "param": [
            4008514,
            0
          ]
        }
      ],
      "guide": {
        "damageRatio": "QUEST_GUIDE_LOCATION",
        "param": [
          "Q4008513_guide"
        ],
        "guideScene": 3,
        "guideStyle": "QUEST_GUIDE_STYLE_TARGET",
        "guideLayer": "QUEST_GUIDE_LAYER_SCENE",
        "MLAHIFLGIGJ": ""
      },
      "guideHint": {
        "param1": ""
      },
      "isRewind": true,
      "versionBegin": "",
      "versionEnd": ""
    },
    {
      "subId": 4008514,
      "mainId": 40085,
      "order": 13,
      "isMpBlock": true,
      "descTextMapHash": 162846412,
      "finishCond": [
        {
          "damageRatio": "QUEST_CONTENT_LUA_NOTIFY",
          "param": [
            0,
            0
          ],
          "count": 1
        }
      ],
      "failCond": [
        {
          "damageRatio": "QUEST_CONTENT_LUA_NOTIFY",
          "param": [
            0,
            0
          ],
          "count": 1
        }
      ],
      "guide": {
        "MLAHIFLGIGJ": ""
      },
      "showGuide": "QUEST_GUIDE_ITEM_DISABLE",
      "guideHint": {
        "param1": ""
      },
      "isRewind": true,
      "finishExec": [
        {
          "damageRatio": "QUEST_EXEC_NOTIFY_GROUP_LUA",
          "param": [
            "47103",
            "247103001"
          ]
        }
      ],
      "failExec": [
        {
          "damageRatio": "QUEST_EXEC_ROLLBACK_QUEST",
          "param": [
            "4008508"
          ]
        }
      ],
      "versionBegin": "",
      "versionEnd": ""
    },
    {
      "subId": 4008515,
      "mainId": 40085,
      "order": 7,
      "isMpBlock": true,
      "descTextMapHash": 4254079204,
      "finishCond": [
        {
          "damageRatio": "QUEST_CONTENT_LUA_NOTIFY",
          "param": [
            0,
            0
          ],
          "count": 1
        }
      ],
      "failCond": [
        {
          "damageRatio": "QUEST_CONTENT_LUA_NOTIFY",
          "param": [
            0,
            0
          ],
          "count": 1
        }
      ],
      "guide": {
        "MLAHIFLGIGJ": ""
      },
      "showGuide": "QUEST_GUIDE_ITEM_DISABLE",
      "guideHint": {
        "param1": ""
      },
      "isRewind": true,
      "failExec": [
        {
          "damageRatio": "QUEST_EXEC_ROLLBACK_QUEST",
          "param": [
            "4008519"
          ]
        }
      ],
      "versionBegin": "",
      "versionEnd": ""
    },
    {
      "subId": 4008516,
      "mainId": 40085,
      "order": 10,
      "isMpBlock": true,
      "descTextMapHash": 3927579652,
      "finishCond": [
        {
          "damageRatio": "QUEST_CONTENT_LUA_NOTIFY",
          "param": [
            0,
            0
          ],
          "count": 1
        }
      ],
      "failCond": [
        {
          "damageRatio": "QUEST_CONTENT_LUA_NOTIFY",
          "param": [
            0,
            0
          ],
          "count": 1
        }
      ],
      "guide": {
        "MLAHIFLGIGJ": ""
      },
      "showGuide": "QUEST_GUIDE_ITEM_DISABLE",
      "guideHint": {
        "param1": ""
      },
      "isRewind": true,
      "failExec": [
        {
          "damageRatio": "QUEST_EXEC_ROLLBACK_QUEST",
          "param": [
            "4008520"
          ]
        },
        {
          "damageRatio": "QUEST_EXEC_SET_QUEST_VAR",
          "param": [
            "1",
            "1",
            "4008516"
          ]
        }
      ],
      "versionBegin": "",
      "versionEnd": ""
    },
    {
      "subId": 4008517,
      "mainId": 40085,
      "order": 2,
      "descTextMapHash": 4076347980,
      "JIFODJPFKDF": [
        330312
      ],
      "finishCond": [
        {
          "damageRatio": "QUEST_CONTENT_COMPLETE_TALK",
          "param": [
            4008516,
            0
          ]
        }
      ],
      "guide": {
        "damageRatio": "QUEST_GUIDE_LOCATION",
        "autoGuide": "QUEST_GUIDE_AUTO_ENABLE",
        "param": [
          "Q4008103_guide"
        ],
        "guideScene": 3,
        "guideStyle": "QUEST_GUIDE_STYLE_POINT",
        "MLAHIFLGIGJ": ""
      },
      "guideHint": {
        "param1": ""
      },
      "isRewind": true,
      "versionBegin": "",
      "versionEnd": ""
    },
    {
      "subId": 4008518,
      "mainId": 40085,
      "order": 4,
      "isMpBlock": true,
      "descTextMapHash": 3744860332,
      "showType": "QUEST_HIDDEN",
      "finishCond": [
        {
          "damageRatio": "QUEST_CONTENT_QUEST_STATE_EQUAL",
          "param": [
            4008510,
            3
          ]
        }
      ],
      "failCond": [
        {
          "damageRatio": "QUEST_CONTENT_FAIL_DUNGEON",
          "param": [
            8116,
            0
          ]
        },
        {
          "damageRatio": "QUEST_CONTENT_LEAVE_SCENE",
          "param": [
            47103,
            0
          ]
        },
        {
          "damageRatio": "QUEST_CONTENT_ENTER_MY_WORLD",
          "param": [
            3,
            0
          ]
        },
        {
          "damageRatio": "QUEST_CONTENT_ANY_MANUAL_TRANSPORT",
          "param": [
            0,
            0
          ]
        }
      ],
      "guide": {
        "MLAHIFLGIGJ": ""
      },
      "showGuide": "QUEST_GUIDE_ITEM_DISABLE",
      "guideHint": {
        "param1": ""
      },
      "failParentShow": "QUEST_HIDDEN",
      "isRewind": true,
      "failExec": [
        {
          "damageRatio": "QUEST_EXEC_ROLLBACK_QUEST",
          "param": [
            "4008503"
          ]
        }
      ],
      "versionBegin": "",
      "versionEnd": ""
    },
    {
      "subId": 4008519,
      "mainId": 40085,
      "order": 5,
      "isMpBlock": true,
      "descTextMapHash": 646244292,
      "finishCond": [
        {
          "damageRatio": "QUEST_CONTENT_FINISH_PLOT",
          "param": [
            4008519,
            0
          ]
        }
      ],
      "guide": {
        "MLAHIFLGIGJ": ""
      },
      "showGuide": "QUEST_GUIDE_ITEM_DISABLE",
      "guideHint": {
        "param1": ""
      },
      "isRewind": true,
      "versionBegin": "",
      "versionEnd": ""
    },
    {
      "subId": 4008520,
      "mainId": 40085,
      "order": 8,
      "isMpBlock": true,
      "descTextMapHash": 1332953532,
      "finishCond": [
        {
          "damageRatio": "QUEST_CONTENT_FINISH_PLOT",
          "param": [
            4008520,
            0
          ]
        }
      ],
      "guide": {
        "MLAHIFLGIGJ": ""
      },
      "showGuide": "QUEST_GUIDE_ITEM_DISABLE",
      "guideHint": {
        "param1": ""
      },
      "isRewind": true,
      "versionBegin": "",
      "versionEnd": ""
    },
    {
      "subId": 4008521,
      "mainId": 40085,
      "order": 14,
      "isMpBlock": true,
      "descTextMapHash": 3367360476,
      "finishCond": [
        {
          "damageRatio": "QUEST_CONTENT_FINISH_PLOT",
          "param": [
            4008521,
            0
          ]
        }
      ],
      "guide": {
        "MLAHIFLGIGJ": ""
      },
      "showGuide": "QUEST_GUIDE_ITEM_DISABLE",
      "guideHint": {
        "param1": ""
      },
      "isRewind": true,
      "versionBegin": "",
      "versionEnd": ""
    }
  ],
  "talks": [
    {
      "id": 4008504,
      "beginWay": "TALK_BEGIN_MANUAL",
      "beginCond": [
        {
          "type": "QUEST_COND_STATE_EQUAL",
          "_param": [
            "4008504",
            "2"
          ]
        }
      ],
      "priority": 5,
      "initDialog": 400850401,
      "npcId": [
        12855
      ],
      "performCfg": "QuestDialogue/EQ/V3.2FungusFighter_40085/Q4008504",
      "heroTalk": "TALK_HERO_MAIN",
      "questId": 40085,
      "assetIndex": 12607791890890450252,
      "prePerformCfg": ""
    },
    {
      "id": 4008505,
      "beginWay": "TALK_BEGIN_MANUAL",
      "beginCond": [
        {
          "type": "QUEST_COND_STATE_EQUAL",
          "_param": [
            "4008505",
            "2"
          ]
        }
      ],
      "priority": 5,
      "initDialog": 400850501,
      "npcId": [
        12855,
        12856
      ],
      "performCfg": "QuestDialogue/EQ/V3.2FungusFighter_40085/Q4008505",
      "heroTalk": "TALK_HERO_MAIN",
      "questId": 40085,
      "assetIndex": 7405860819229247114,
      "prePerformCfg": ""
    },
    {
      "id": 4008508,
      "beginWay": "TALK_BEGIN_MANUAL",
      "beginCond": [
        {
          "type": "QUEST_COND_STATE_EQUAL",
          "_param": [
            "4008508",
            "2"
          ]
        }
      ],
      "priority": 5,
      "initDialog": 400850801,
      "npcId": [
        12856,
        13024
      ],
      "performCfg": "QuestDialogue/EQ/V3.2FungusFighter_40085/Q4008508",
      "heroTalk": "TALK_HERO_MAIN",
      "questId": 40085,
      "assetIndex": 8174451295322639385,
      "prePerformCfg": ""
    },
    {
      "id": 4008509,
      "beginWay": "TALK_BEGIN_MANUAL",
      "beginCond": [
        {
          "type": "QUEST_COND_STATE_EQUAL",
          "_param": [
            "4008509",
            "2"
          ]
        }
      ],
      "priority": 5,
      "initDialog": 400850901,
      "npcId": [
        12856,
        1034,
        12855,
        1063
      ],
      "performCfg": "QuestDialogue/EQ/V3.2FungusFighter_40085/Q4008509",
      "heroTalk": "TALK_HERO_MAIN",
      "questId": 40085,
      "assetIndex": 16065032411432429701,
      "prePerformCfg": ""
    },
    {
      "id": 4008510,
      "beginWay": "TALK_BEGIN_MANUAL",
      "beginCond": [
        {
          "type": "QUEST_COND_STATE_EQUAL",
          "_param": [
            "4008510",
            "2"
          ]
        }
      ],
      "priority": 5,
      "initDialog": 400851001,
      "npcId": [
        12856,
        1034
      ],
      "performCfg": "QuestDialogue/EQ/V3.2FungusFighter_40085/Q4008510",
      "heroTalk": "TALK_HERO_MAIN",
      "questId": 40085,
      "assetIndex": 17984916380866489266,
      "prePerformCfg": ""
    },
    {
      "id": 4008512,
      "beginWay": "TALK_BEGIN_MANUAL",
      "beginCond": [
        {
          "type": "QUEST_COND_STATE_EQUAL",
          "_param": [
            "4008512",
            "2"
          ]
        }
      ],
      "priority": 5,
      "initDialog": 400851201,
      "npcId": [
        12862,
        12856,
        1034,
        1063,
        12855,
        12858,
        12859
      ],
      "performCfg": "QuestDialogue/EQ/V3.2FungusFighter_40085/Q4008512",
      "heroTalk": "TALK_HERO_MAIN",
      "questId": 40085,
      "assetIndex": 6563046127187953146,
      "prePerformCfg": ""
    },
    {
      "id": 4008514,
      "beginWay": "TALK_BEGIN_MANUAL",
      "beginCond": [
        {
          "type": "QUEST_COND_STATE_EQUAL",
          "_param": [
            "4008513",
            "2"
          ]
        }
      ],
      "priority": 5,
      "initDialog": 400851401,
      "npcId": [
        1005
      ],
      "performCfg": "",
      "heroTalk": "TALK_HERO_MAIN",
      "questId": 40085,
      "assetIndex": 1945804263869196017,
      "prePerformCfg": ""
    },
    {
      "id": 4008515,
      "beginWay": "TALK_BEGIN_MANUAL",
      "beginCond": [
        {
          "type": "QUEST_COND_STATE_EQUAL",
          "_param": [
            "4008502",
            "2"
          ]
        }
      ],
      "priority": 5,
      "initDialog": 400851501,
      "npcId": [
        12855
      ],
      "performCfg": "QuestDialogue/EQ/V3.2FungusFighter_40085/Q4008515",
      "heroTalk": "TALK_HERO_MAIN",
      "questId": 40085,
      "assetIndex": 3040970268104411861,
      "prePerformCfg": ""
    },
    {
      "id": 4008516,
      "beginWay": "TALK_BEGIN_MANUAL",
      "beginCond": [
        {
          "type": "QUEST_COND_STATE_EQUAL",
          "_param": [
            "4008517",
            "2"
          ]
        }
      ],
      "priority": 5,
      "initDialog": 400851601,
      "npcId": [
        12856,
        1034,
        1063
      ],
      "performCfg": "QuestDialogue/EQ/V3.2FungusFighter_40085/Q4008516",
      "heroTalk": "TALK_HERO_MAIN",
      "questId": 40085,
      "assetIndex": 9513549390369850281,
      "prePerformCfg": ""
    }
  ],
  "preloadLuaList": [
    14457059026087496718,
    13949126306477080375,
    11309032590026638335,
    15602786038695145460,
    17857227990108868891
  ],
  "forcePreloadLuaList": [
    1889474294351832568
  ],
  "freeStyleDic": {
    "12855": [
      1300,
      4010,
      1270,
      1070,
      1120,
      1141,
      1230,
      1190,
      1240,
      1250
    ],
    "12856": [
      1260,
      1290,
      1080,
      1141,
      1230,
      1190,
      1300,
      1240,
      4010
    ]
  }
}