{
  "id": 4008,
  "resId": 1022,
  "series": 1404,
  "descTextMapHash": 888632711,
  "EKEKACCODOE": 2308803286,
  "luaPath": "Actor/Quest/AQ4008",
  "suggestTrackMainQuestList": [
    4009
  ],
  "rewardIdList": [
    104008
  ],
  "chapterId": 1404,
  "subQuests": [
    {
      "subId": 400802,
      "mainId": 4008,
      "order": 1,
      "descTextMapHash": 269663700,
      "JIFODJPFKDF": [
        340818,
        340830,
        340827
      ],
      "finishCond": [
        {
          "damageRatio": "QUEST_CONTENT_COMPLETE_TALK",
          "param": [
            400802,
            0
          ]
        }
      ],
      "guide": {
        "damageRatio": "QUEST_GUIDE_LOCATION",
        "param": [
          "[3_340800198:4489.684,38.370,4608.048,0.000,29.476,0.000]",
          "20"
        ],
        "guideScene": 3,
        "guideStyle": "QUEST_GUIDE_STYLE_TARGET",
        "guideLayer": "QUEST_GUIDE_LAYER_SCENE",
        "MLAHIFLGIGJ": ""
      },
      "guideHint": {
        "param1": ""
      },
      "isRewind": true,
      "versionBegin": "",
      "versionEnd": ""
    },
    {
      "subId": 400803,
      "mainId": 4008,
      "order": 2,
      "descTextMapHash": 2271169540,
      "JIFODJPFKDF": [
        340818,
        340827,
        108601
      ],
      "finishCond": [
        {
          "damageRatio": "QUEST_CONTENT_COMPLETE_TALK",
          "param": [
            400803,
            0
          ]
        }
      ],
      "guide": {
        "damageRatio": "QUEST_GUIDE_LOCATION",
        "param": [
          "[3_340800054:4565.816,157.532,4630.808,0.000,103.488,0.000]"
        ],
        "guideScene": 3,
        "guideStyle": "QUEST_GUIDE_STYLE_POINT",
        "guideLayer": "QUEST_GUIDE_LAYER_SCENE",
        "MLAHIFLGIGJ": ""
      },
      "guideHint": {
        "param1": ""
      },
      "isRewind": true,
      "versionBegin": "",
      "versionEnd": ""
    },
    {
      "subId": 400804,
      "mainId": 4008,
      "order": 3,
      "subIdSet": 1,
      "descTextMapHash": 2123639428,
      "JIFODJPFKDF": [
        340818,
        340827,
        108601
      ],
      "finishCond": [
        {
          "damageRatio": "QUEST_CONTENT_COMPLETE_TALK",
          "param": [
            400804,
            0
          ]
        }
      ],
      "guide": {
        "damageRatio": "QUEST_GUIDE_LOCATION",
        "param": [
          "[3_340800158:4577.559,154.788,4637.908]"
        ],
        "guideScene": 3,
        "guideStyle": "QUEST_GUIDE_STYLE_TARGET",
        "guideLayer": "QUEST_GUIDE_LAYER_SCENE",
        "MLAHIFLGIGJ": ""
      },
      "guideHint": {
        "param1": ""
      },
      "isRewind": true,
      "finishExec": [
        {
          "damageRatio": "QUEST_EXEC_ADD_QUEST_PROGRESS",
          "param": [
            "400807",
            "1"
          ]
        }
      ],
      "versionBegin": "",
      "versionEnd": ""
    },
    {
      "subId": 400805,
      "mainId": 4008,
      "order": 4,
      "subIdSet": 1,
      "descTextMapHash": 741439868,
      "JIFODJPFKDF": [
        340818,
        340827,
        108601
      ],
      "finishCond": [
        {
          "damageRatio": "QUEST_CONTENT_COMPLETE_TALK",
          "param": [
            400805,
            0
          ]
        }
      ],
      "guide": {
        "damageRatio": "QUEST_GUIDE_LOCATION",
        "param": [
          "[3_340800160:4570.274,154.809,4619.215]"
        ],
        "guideScene": 3,
        "guideStyle": "QUEST_GUIDE_STYLE_TARGET",
        "guideLayer": "QUEST_GUIDE_LAYER_SCENE",
        "MLAHIFLGIGJ": ""
      },
      "guideHint": {
        "param1": ""
      },
      "isRewind": true,
      "finishExec": [
        {
          "damageRatio": "QUEST_EXEC_ADD_QUEST_PROGRESS",
          "param": [
            "400807",
            "1"
          ]
        }
      ],
      "versionBegin": "",
      "versionEnd": ""
    },
    {
      "subId": 400806,
      "mainId": 4008,
      "order": 5,
      "subIdSet": 1,
      "descTextMapHash": 1454401388,
      "JIFODJPFKDF": [
        340818,
        340827,
        108601
      ],
      "finishCond": [
        {
          "damageRatio": "QUEST_CONTENT_COMPLETE_TALK",
          "param": [
            400806,
            0
          ]
        }
      ],
      "guide": {
        "damageRatio": "QUEST_GUIDE_LOCATION",
        "param": [
          "[3_340800159:4580.162,154.788,4628.240]"
        ],
        "guideScene": 3,
        "guideStyle": "QUEST_GUIDE_STYLE_TARGET",
        "guideLayer": "QUEST_GUIDE_LAYER_SCENE",
        "MLAHIFLGIGJ": ""
      },
      "guideHint": {
        "param1": ""
      },
      "isRewind": true,
      "finishExec": [
        {
          "damageRatio": "QUEST_EXEC_ADD_QUEST_PROGRESS",
          "param": [
            "400807",
            "1"
          ]
        }
      ],
      "versionBegin": "",
      "versionEnd": ""
    },
    {
      "subId": 400807,
      "mainId": 4008,
      "order": 6,
      "showType": "QUEST_HIDDEN",
      "JIFODJPFKDF": [
        340818,
        340827,
        108601
      ],
      "finishCond": [
        {
          "damageRatio": "QUEST_CONTENT_ADD_QUEST_PROGRESS",
          "param": [
            400807,
            0
          ],
          "count": 3
        }
      ],
      "guide": {
        "MLAHIFLGIGJ": ""
      },
      "guideHint": {
        "param1": ""
      },
      "finishExec": [
        {
          "damageRatio": "QUEST_EXEC_ADD_QUEST_PROGRESS",
          "param": [
            "400823",
            "1"
          ]
        }
      ],
      "versionBegin": "",
      "versionEnd": ""
    },
    {
      "subId": 400808,
      "mainId": 4008,
      "order": 8,
      "isMpBlock": true,
      "descTextMapHash": 2423977652,
      "JIFODJPFKDF": [
        340818,
        340827,
        108601
      ],
      "finishCond": [
        {
          "damageRatio": "QUEST_CONTENT_COMPLETE_TALK",
          "param": [
            400807,
            0
          ]
        }
      ],
      "guide": {
        "damageRatio": "QUEST_GUIDE_LOCATION",
        "param": [
          "[3_340800161:4566.852,153.710,4629.689]"
        ],
        "guideScene": 3,
        "guideStyle": "QUEST_GUIDE_STYLE_TARGET",
        "guideLayer": "QUEST_GUIDE_LAYER_SCENE",
        "MLAHIFLGIGJ": ""
      },
      "guideHint": {
        "param1": ""
      },
      "isRewind": true,
      "versionBegin": "",
      "versionEnd": ""
    },
    {
      "subId": 400809,
      "mainId": 4008,
      "order": 9,
      "isMpBlock": true,
      "descTextMapHash": 4147805396,
      "stepDescTextMapHash": 3392883069,
      "JIFODJPFKDF": [
        340818,
        340827,
        108601
      ],
      "AKLAGMDECEM": "BAN_GROUP_TRANSPORT_ONLY",
      "finishCond": [
        {
          "damageRatio": "QUEST_CONTENT_FINISH_PLOT",
          "param": [
            400809,
            0
          ]
        },
        {
          "damageRatio": "QUEST_CONTENT_TEAM_DEAD",
          "param": [
            0,
            0
          ]
        },
        {
          "damageRatio": "QUEST_CONTENT_LEAVE_SCENE_RANGE",
          "param": [
            3,
            50
          ]
        }
      ],
      "guide": {
        "damageRatio": "QUEST_GUIDE_LOCATION",
        "param": [
          "[3_340800105:4502.597,157.496,4618.487,0.000,102.389,0.000]"
        ],
        "guideScene": 3,
        "guideStyle": "QUEST_GUIDE_STYLE_TARGET",
        "guideLayer": "QUEST_GUIDE_LAYER_SCENE",
        "MLAHIFLGIGJ": ""
      },
      "guideHint": {
        "param1": ""
      },
      "isRewind": true,
      "versionBegin": "",
      "versionEnd": ""
    },
    {
      "subId": 400810,
      "mainId": 4008,
      "order": 10,
      "descTextMapHash": 23842348,
      "JIFODJPFKDF": [
        340818,
        340827,
        108601
      ],
      "finishCond": [
        {
          "damageRatio": "QUEST_CONTENT_COMPLETE_TALK",
          "param": [
            400808,
            0
          ]
        }
      ],
      "guide": {
        "damageRatio": "QUEST_GUIDE_LOCATION",
        "param": [
          "[1086_1:-0.050,8.558,-0.049,0.000,88.882,0.000]"
        ],
        "guideScene": 1086,
        "guideStyle": "QUEST_GUIDE_STYLE_POINT",
        "guideLayer": "QUEST_GUIDE_LAYER_SCENE",
        "MLAHIFLGIGJ": ""
      },
      "guideHint": {
        "param1": ""
      },
      "isRewind": true,
      "finishExec": [
        {
          "damageRatio": "QUEST_EXEC_UNREGISTER_DYNAMIC_GROUP",
          "param": [
            "133408922"
          ]
        },
        {
          "damageRatio": "QUEST_EXEC_UNREGISTER_DYNAMIC_GROUP",
          "param": [
            "133408769"
          ]
        }
      ],
      "versionBegin": "",
      "versionEnd": ""
    },
    {
      "subId": 400811,
      "mainId": 4008,
      "order": 11,
      "subIdSet": 2,
      "descTextMapHash": 1728530036,
      "JIFODJPFKDF": [
        340818,
        340827,
        108601
      ],
      "finishCond": [
        {
          "damageRatio": "QUEST_CONTENT_COMPLETE_TALK",
          "param": [
            400810,
            0
          ]
        }
      ],
      "guide": {
        "damageRatio": "QUEST_GUIDE_NPC",
        "param": [
          "1071"
        ],
        "guideScene": 1086,
        "guideStyle": "QUEST_GUIDE_STYLE_TARGET",
        "guideLayer": "QUEST_GUIDE_LAYER_SCENE",
        "MLAHIFLGIGJ": ""
      },
      "guideHint": {
        "param1": ""
      },
      "isRewind": true,
      "finishExec": [
        {
          "damageRatio": "QUEST_EXEC_ADD_QUEST_PROGRESS",
          "param": [
            "400813",
            "1"
          ]
        }
      ],
      "versionBegin": "",
      "versionEnd": ""
    },
    {
      "subId": 400812,
      "mainId": 4008,
      "order": 12,
      "subIdSet": 2,
      "descTextMapHash": 2486888068,
      "JIFODJPFKDF": [
        340818,
        340827,
        108601
      ],
      "finishCond": [
        {
          "damageRatio": "QUEST_CONTENT_COMPLETE_TALK",
          "param": [
            400811,
            0
          ]
        }
      ],
      "guide": {
        "damageRatio": "QUEST_GUIDE_NPC",
        "param": [
          "1078"
        ],
        "guideScene": 1086,
        "guideStyle": "QUEST_GUIDE_STYLE_TARGET",
        "guideLayer": "QUEST_GUIDE_LAYER_SCENE",
        "MLAHIFLGIGJ": ""
      },
      "guideHint": {
        "param1": ""
      },
      "isRewind": true,
      "finishExec": [
        {
          "damageRatio": "QUEST_EXEC_ADD_QUEST_PROGRESS",
          "param": [
            "400813",
            "1"
          ]
        }
      ],
      "versionBegin": "",
      "versionEnd": ""
    },
    {
      "subId": 400813,
      "mainId": 4008,
      "order": 13,
      "showType": "QUEST_HIDDEN",
      "JIFODJPFKDF": [
        340818,
        340827,
        108601
      ],
      "finishCond": [
        {
          "damageRatio": "QUEST_CONTENT_ADD_QUEST_PROGRESS",
          "param": [
            400813,
            0
          ],
          "count": 2
        }
      ],
      "guide": {
        "MLAHIFLGIGJ": ""
      },
      "guideHint": {
        "param1": ""
      },
      "finishExec": [
        {
          "damageRatio": "QUEST_EXEC_ADD_QUEST_PROGRESS",
          "param": [
            "400824",
            "1"
          ]
        }
      ],
      "versionBegin": "",
      "versionEnd": ""
    },
    {
      "subId": 400814,
      "mainId": 4008,
      "order": 15,
      "descTextMapHash": 3190188412,
      "JIFODJPFKDF": [
        340818,
        340827,
        108601
      ],
      "finishCond": [
        {
          "damageRatio": "QUEST_CONTENT_COMPLETE_TALK",
          "param": [
            400812,
            0
          ]
        }
      ],
      "guide": {
        "damageRatio": "QUEST_GUIDE_NPC",
        "param": [
          "1071"
        ],
        "guideScene": 1086,
        "guideStyle": "QUEST_GUIDE_STYLE_TARGET",
        "guideLayer": "QUEST_GUIDE_LAYER_SCENE",
        "MLAHIFLGIGJ": ""
      },
      "guideHint": {
        "param1": ""
      },
      "isRewind": true,
      "versionBegin": "",
      "versionEnd": ""
    },
    {
      "subId": 400815,
      "mainId": 4008,
      "order": 16,
      "descTextMapHash": 1670087956,
      "JIFODJPFKDF": [
        340818,
        340827,
        108601
      ],
      "finishCond": [
        {
          "damageRatio": "QUEST_CONTENT_COMPLETE_TALK",
          "param": [
            400813,
            0
          ]
        }
      ],
      "guide": {
        "damageRatio": "QUEST_GUIDE_LOCATION",
        "param": [
          "[3_340800162:4581.470,153.710,4629.555,0.000,339.270,0.000]"
        ],
        "guideScene": 3,
        "guideStyle": "QUEST_GUIDE_STYLE_POINT",
        "guideLayer": "QUEST_GUIDE_LAYER_SCENE",
        "MLAHIFLGIGJ": ""
      },
      "guideHint": {
        "param1": ""
      },
      "isRewind": true,
      "versionBegin": "",
      "versionEnd": ""
    },
    {
      "subId": 400816,
      "mainId": 4008,
      "order": 18,
      "descTextMapHash": 905372356,
      "JIFODJPFKDF": [
        340818,
        340827,
        108601
      ],
      "finishCond": [
        {
          "damageRatio": "QUEST_CONTENT_COMPLETE_TALK",
          "param": [
            400815,
            0
          ]
        }
      ],
      "failCond": [
        {
          "damageRatio": "QUEST_CONTENT_LEAVE_SCENE",
          "param": [
            20197,
            0
          ]
        },
        {
          "damageRatio": "QUEST_CONTENT_ENTER_MY_WORLD",
          "param": [
            3,
            0
          ]
        },
        {
          "damageRatio": "QUEST_CONTENT_FAIL_DUNGEON",
          "param": [
            1186,
            0
          ]
        }
      ],
      "guide": {
        "damageRatio": "QUEST_GUIDE_LOCATION",
        "param": [
          "[20197_1:149.957,116.908,284.644,0.000,131.306,0.000]"
        ],
        "guideScene": 20197,
        "guideStyle": "QUEST_GUIDE_STYLE_TARGET",
        "guideLayer": "QUEST_GUIDE_LAYER_SCENE",
        "MLAHIFLGIGJ": ""
      },
      "guideHint": {
        "param1": ""
      },
      "isRewind": true,
      "failExec": [
        {
          "damageRatio": "QUEST_EXEC_ROLLBACK_QUEST",
          "param": [
            "400821"
          ]
        },
        {
          "damageRatio": "QUEST_EXEC_UNLOCK_AVATAR_TEAM_V2"
        },
        {
          "damageRatio": "QUEST_EXEC_REMOVE_TRIAL_AVATAR",
          "param": [
            "77"
          ]
        }
      ],
      "versionBegin": "",
      "versionEnd": ""
    },
    {
      "subId": 400817,
      "mainId": 4008,
      "order": 19,
      "descTextMapHash": 2320958292,
      "JIFODJPFKDF": [
        340818,
        340827,
        108601
      ],
      "finishCond": [
        {
          "damageRatio": "QUEST_CONTENT_COMPLETE_TALK",
          "param": [
            400816,
            0
          ]
        }
      ],
      "failCond": [
        {
          "damageRatio": "QUEST_CONTENT_LEAVE_SCENE",
          "param": [
            20197,
            0
          ]
        },
        {
          "damageRatio": "QUEST_CONTENT_ENTER_MY_WORLD",
          "param": [
            3,
            0
          ]
        },
        {
          "damageRatio": "QUEST_CONTENT_FAIL_DUNGEON",
          "param": [
            1186,
            0
          ]
        }
      ],
      "guide": {
        "damageRatio": "QUEST_GUIDE_LOCATION",
        "param": [
          "[20197_2:86.843,25.623,174.043,0.000,178.928,0.000]"
        ],
        "guideScene": 20197,
        "guideStyle": "QUEST_GUIDE_STYLE_TARGET",
        "guideLayer": "QUEST_GUIDE_LAYER_SCENE",
        "MLAHIFLGIGJ": ""
      },
      "guideHint": {
        "param1": ""
      },
      "isRewind": true,
      "finishExec": [
        {
          "damageRatio": "QUEST_EXEC_NOTIFY_GROUP_LUA",
          "param": [
            "20197",
            "220197003"
          ]
        }
      ],
      "failExec": [
        {
          "damageRatio": "QUEST_EXEC_ROLLBACK_QUEST",
          "param": [
            "400821"
          ]
        },
        {
          "damageRatio": "QUEST_EXEC_UNLOCK_AVATAR_TEAM_V2"
        },
        {
          "damageRatio": "QUEST_EXEC_REMOVE_TRIAL_AVATAR",
          "param": [
            "77"
          ]
        }
      ],
      "versionBegin": "",
      "versionEnd": ""
    },
    {
      "subId": 400818,
      "mainId": 4008,
      "order": 20,
      "descTextMapHash": 4127226364,
      "JIFODJPFKDF": [
        340818,
        340827,
        108601
      ],
      "finishCond": [
        {
          "damageRatio": "QUEST_CONTENT_COMPLETE_TALK",
          "param": [
            400817,
            0
          ]
        }
      ],
      "failCond": [
        {
          "damageRatio": "QUEST_CONTENT_LEAVE_SCENE",
          "param": [
            20197,
            0
          ]
        },
        {
          "damageRatio": "QUEST_CONTENT_ENTER_MY_WORLD",
          "param": [
            3,
            0
          ]
        },
        {
          "damageRatio": "QUEST_CONTENT_FAIL_DUNGEON",
          "param": [
            1186,
            0
          ]
        }
      ],
      "guide": {
        "damageRatio": "QUEST_GUIDE_LOCATION",
        "param": [
          "[20197_3:112.459,16.820,5.841]"
        ],
        "guideScene": 20197,
        "guideStyle": "QUEST_GUIDE_STYLE_TARGET",
        "guideLayer": "QUEST_GUIDE_LAYER_SCENE",
        "MLAHIFLGIGJ": ""
      },
      "guideHint": {
        "param1": ""
      },
      "isRewind": true,
      "finishExec": [
        {
          "damageRatio": "QUEST_EXEC_NOTIFY_GROUP_LUA",
          "param": [
            "20197",
            "220197003"
          ]
        }
      ],
      "failExec": [
        {
          "damageRatio": "QUEST_EXEC_ROLLBACK_QUEST",
          "param": [
            "400821"
          ]
        },
        {
          "damageRatio": "QUEST_EXEC_UNLOCK_AVATAR_TEAM_V2"
        },
        {
          "damageRatio": "QUEST_EXEC_REMOVE_TRIAL_AVATAR",
          "param": [
            "77"
          ]
        }
      ],
      "versionBegin": "",
      "versionEnd": ""
    },
    {
      "subId": 400819,
      "mainId": 4008,
      "order": 21,
      "descTextMapHash": 1169829604,
      "JIFODJPFKDF": [
        340818,
        340827,
        108601
      ],
      "finishCond": [
        {
          "damageRatio": "QUEST_CONTENT_COMPLETE_TALK",
          "param": [
            400818,
            0
          ]
        }
      ],
      "failCond": [
        {
          "damageRatio": "QUEST_CONTENT_LEAVE_SCENE",
          "param": [
            20197,
            0
          ]
        },
        {
          "damageRatio": "QUEST_CONTENT_ENTER_MY_WORLD",
          "param": [
            3,
            0
          ]
        },
        {
          "damageRatio": "QUEST_CONTENT_FAIL_DUNGEON",
          "param": [
            1186,
            0
          ]
        }
      ],
      "guide": {
        "damageRatio": "QUEST_GUIDE_LOCATION",
        "param": [
          "[20197_2:86.843,25.623,174.043,0.000,178.928,0.000]"
        ],
        "guideScene": 20197,
        "guideStyle": "QUEST_GUIDE_STYLE_TARGET",
        "guideLayer": "QUEST_GUIDE_LAYER_SCENE",
        "MLAHIFLGIGJ": ""
      },
      "guideHint": {
        "param1": ""
      },
      "isRewind": true,
      "finishExec": [
        {
          "damageRatio": "QUEST_EXEC_UNLOCK_AVATAR_TEAM_V2"
        },
        {
          "damageRatio": "QUEST_EXEC_REMOVE_TRIAL_AVATAR",
          "param": [
            "77"
          ]
        }
      ],
      "failExec": [
        {
          "damageRatio": "QUEST_EXEC_ROLLBACK_QUEST",
          "param": [
            "400821"
          ]
        },
        {
          "damageRatio": "QUEST_EXEC_UNLOCK_AVATAR_TEAM_V2"
        },
        {
          "damageRatio": "QUEST_EXEC_REMOVE_TRIAL_AVATAR",
          "param": [
            "77"
          ]
        }
      ],
      "versionBegin": "",
      "versionEnd": ""
    },
    {
      "subId": 400820,
      "mainId": 4008,
      "order": 23,
      "descTextMapHash": 4095298484,
      "JIFODJPFKDF": [
        340818,
        340827,
        108601
      ],
      "finishCond": [
        {
          "damageRatio": "QUEST_CONTENT_COMPLETE_TALK",
          "param": [
            400819,
            0
          ]
        }
      ],
      "guide": {
        "damageRatio": "QUEST_GUIDE_LOCATION",
        "param": [
          "[3_340800162:4581.470,153.710,4629.555,0.000,339.270,0.000]"
        ],
        "guideScene": 3,
        "guideStyle": "QUEST_GUIDE_STYLE_TARGET",
        "guideLayer": "QUEST_GUIDE_LAYER_SCENE",
        "MLAHIFLGIGJ": ""
      },
      "guideHint": {
        "param1": ""
      },
      "finishParent": true,
      "isRewind": true,
      "versionBegin": "",
      "versionEnd": ""
    },
    {
      "subId": 400821,
      "mainId": 4008,
      "order": 17,
      "descTextMapHash": 2676938444,
      "JIFODJPFKDF": [
        340818,
        340827,
        108601
      ],
      "finishCond": [
        {
          "damageRatio": "QUEST_CONTENT_ENTER_DUNGEON",
          "param": [
            1186,
            1043
          ]
        }
      ],
      "guide": {
        "damageRatio": "QUEST_GUIDE_LOCATION",
        "param": [
          "[3_340800283:4580.796,153.710,4630.261,0.000,189.803,0.000]",
          "10"
        ],
        "guideScene": 3,
        "guideStyle": "QUEST_GUIDE_STYLE_TARGET",
        "guideLayer": "QUEST_GUIDE_LAYER_SCENE",
        "MLAHIFLGIGJ": ""
      },
      "guideHint": {
        "param1": ""
      },
      "isRewind": true,
      "finishExec": [
        {
          "damageRatio": "QUEST_EXEC_SET_QUEST_GLOBAL_VAR",
          "param": [
            "400801",
            "1"
          ]
        }
      ],
      "versionBegin": "",
      "versionEnd": ""
    },
    {
      "subId": 400822,
      "mainId": 4008,
      "order": 22,
      "showType": "QUEST_HIDDEN",
      "JIFODJPFKDF": [
        340818
      ],
      "finishCond": [
        {
          "damageRatio": "QUEST_CONTENT_FINISH_PLOT",
          "param": [
            400822,
            0
          ]
        },
        {
          "damageRatio": "QUEST_CONTENT_QUEST_STATE_EQUAL",
          "param": [
            400819,
            3
          ]
        }
      ],
      "guide": {
        "MLAHIFLGIGJ": ""
      },
      "guideHint": {
        "param1": ""
      },
      "versionBegin": "",
      "versionEnd": ""
    },
    {
      "subId": 400823,
      "mainId": 4008,
      "order": 7,
      "showType": "QUEST_HIDDEN",
      "JIFODJPFKDF": [
        340818,
        340827,
        108601
      ],
      "finishCond": [
        {
          "damageRatio": "QUEST_CONTENT_ADD_QUEST_PROGRESS",
          "param": [
            400823,
            0
          ],
          "count": 1
        }
      ],
      "guide": {
        "MLAHIFLGIGJ": ""
      },
      "guideHint": {
        "param1": ""
      },
      "isRewind": true,
      "versionBegin": "",
      "versionEnd": ""
    },
    {
      "subId": 400824,
      "mainId": 4008,
      "order": 14,
      "showType": "QUEST_HIDDEN",
      "JIFODJPFKDF": [
        340818,
        340827,
        108601
      ],
      "finishCond": [
        {
          "damageRatio": "QUEST_CONTENT_ADD_QUEST_PROGRESS",
          "param": [
            400824,
            0
          ],
          "count": 1
        }
      ],
      "guide": {
        "MLAHIFLGIGJ": ""
      },
      "guideHint": {
        "param1": ""
      },
      "isRewind": true,
      "versionBegin": "",
      "versionEnd": ""
    }
  ],
  "talks": [
    {
      "id": 400802,
      "beginWay": "TALK_BEGIN_MANUAL",
      "beginCond": [
        {
          "type": "QUEST_COND_STATE_EQUAL",
          "_param": [
            "400802",
            "2"
          ]
        }
      ],
      "priority": 5,
      "initDialog": 40080201,
      "npcId": [
        1071
      ],
      "performCfg": "QuestDialogue/AQ/Fontaine_4008/Q400802",
      "heroTalk": "TALK_HERO_MAIN",
      "questId": 4008,
      "assetIndex": 5678270350240189869,
      "prePerformCfg": "",
      "CHAKPMBJNAJ": [
        "[3_340800098:4475.919,38.401,4610.798,0.000,21.767,0.000]",
        "[3_340800099:4491.869,38.600,4604.263,0.000,21.767,0.000]",
        "[3_340800100:4490.612,38.600,4604.924,0.000,21.767,0.000]"
      ]
    },
    {
      "id": 400803,
      "beginWay": "TALK_BEGIN_MANUAL",
      "beginCond": [
        {
          "type": "QUEST_COND_STATE_EQUAL",
          "_param": [
            "400803",
            "2"
          ]
        }
      ],
      "priority": 5,
      "initDialog": 40080301,
      "npcId": [
        13477
      ],
      "performCfg": "QuestDialogue/AQ/Fontaine_4008/Q400803",
      "heroTalk": "TALK_HERO_MAIN",
      "questId": 4008,
      "assetIndex": 4863954821136786640,
      "prePerformCfg": "",
      "CHAKPMBJNAJ": [
        "[3_340800054:4565.816,157.532,4630.808,0.000,103.488,0.000]",
        "[3_340800102:4564.403,157.532,4630.430,0.000,97.427,0.000]",
        "[3_340800103:4564.552,157.532,4631.439,0.000,103.488,0.000]"
      ]
    },
    {
      "id": 400804,
      "beginWay": "TALK_BEGIN_MANUAL",
      "beginCond": [
        {
          "type": "QUEST_COND_STATE_EQUAL",
          "_param": [
            "400804",
            "2"
          ]
        }
      ],
      "priority": 5,
      "initDialog": 40080401,
      "npcId": [
        13676
      ],
      "performCfg": "QuestDialogue/AQ/Fontaine_4008/Q400804",
      "heroTalk": "TALK_HERO_MAIN",
      "questId": 4008,
      "assetIndex": 7286984576043419716,
      "prePerformCfg": "",
      "CHAKPMBJNAJ": [
        "[3_340800274:4577.124,153.710,4636.158,0.000,14.406,0.000]",
        "[3_340800275:4576.402,153.710,4636.615,0.000,44.122,0.000]",
        "[3_340800276:4575.983,153.710,4637.444,0.000,78.192,0.000]"
      ]
    },
    {
      "id": 400805,
      "beginWay": "TALK_BEGIN_MANUAL",
      "beginCond": [
        {
          "type": "QUEST_COND_STATE_EQUAL",
          "_param": [
            "400805",
            "2"
          ]
        }
      ],
      "priority": 5,
      "initDialog": 40080501,
      "npcId": [
        13626
      ],
      "performCfg": "QuestDialogue/AQ/Fontaine_4008/Q400805",
      "heroTalk": "TALK_HERO_MAIN",
      "questId": 4008,
      "assetIndex": 2144013386718044090,
      "prePerformCfg": "",
      "CHAKPMBJNAJ": [
        "[3_340800277:4571.947,153.710,4618.912,0.000,281.194,0.000]",
        "[3_340800278:4573.898,153.710,4618.245,0.000,289.372,0.000]",
        "[3_340800279:4574.003,153.710,4619.163,0.000,265.004,0.000]"
      ]
    },
    {
      "id": 400806,
      "beginWay": "TALK_BEGIN_MANUAL",
      "beginCond": [
        {
          "type": "QUEST_COND_STATE_EQUAL",
          "_param": [
            "400806",
            "2"
          ]
        }
      ],
      "priority": 5,
      "initDialog": 40080601,
      "npcId": [
        13627
      ],
      "performCfg": "QuestDialogue/AQ/Fontaine_4008/Q400806",
      "heroTalk": "TALK_HERO_MAIN",
      "questId": 4008,
      "assetIndex": 837383642979469918,
      "prePerformCfg": "",
      "CHAKPMBJNAJ": [
        "[3_340800104:4579.795,153.710,4629.256,0.000,157.695,0.000]",
        "[3_340800281:4577.816,153.710,4629.366,0.000,116.627,0.000]",
        "[3_340800282:4577.619,153.710,4628.515,0.000,94.507,0.000]"
      ]
    },
    {
      "id": 400807,
      "beginWay": "TALK_BEGIN_MANUAL",
      "beginCond": [
        {
          "type": "QUEST_COND_STATE_EQUAL",
          "_param": [
            "400808",
            "2"
          ]
        }
      ],
      "priority": 5,
      "initDialog": 40080701,
      "npcId": [
        13477
      ],
      "performCfg": "QuestDialogue/AQ/Fontaine_4008/Q400807",
      "heroTalk": "TALK_HERO_MAIN",
      "questId": 4008,
      "assetIndex": 14430475318742405374,
      "prePerformCfg": "",
      "CHAKPMBJNAJ": [
        "[3_340800145:4572.594,153.710,4629.739]",
        "[3_340800146:4577.461,153.710,4636.874,0.000,8.770,0.000]",
        "[3_340800162:4581.470,153.710,4629.555,0.000,339.270,0.000]",
        "[3_340800173:4568.973,153.710,4628.291,0.000,276.213,0.000]",
        "[3_340800174:4568.847,153.710,4627.377,0.000,310.883,0.000]",
        "[3_340800175:4569.070,153.710,4629.065,0.000,242.589,0.000]"
      ]
    },
    {
      "id": 400808,
      "beginWay": "TALK_BEGIN_MANUAL",
      "beginCond": [
        {
          "type": "QUEST_COND_STATE_EQUAL",
          "_param": [
            "400810",
            "2"
          ]
        }
      ],
      "priority": 5,
      "initDialog": 40080801,
      "npcId": [
        1071,
        1078
      ],
      "performCfg": "QuestDialogue/AQ/Fontaine_4008/Q400808",
      "heroTalk": "TALK_HERO_MAIN",
      "questId": 4008,
      "assetIndex": 3741597679961523174,
      "prePerformCfg": "",
      "CHAKPMBJNAJ": [
        "[1086_1:-0.050,8.558,-0.049,0.000,88.882,0.000]",
        "[1086_2:4.925,8.591,0.003,0.000,268.032,0.000]",
        "[1086_3:6.635,8.543,-0.555,0.000,279.453,0.000]",
        "[1086_4:6.621,8.543,0.673,0.000,259.211,0.000]",
        "[1086_46:8.448,8.546,0.018,0.000,267.744,0.000]",
        "[1086_47:10.038,8.547,0.043,0.000,269.621,0.000]",
        "[1086_48:9.975,8.547,1.238,0.000,259.874,0.000]"
      ]
    },
    {
      "id": 400810,
      "beginWay": "TALK_BEGIN_MANUAL",
      "beginCond": [
        {
          "type": "QUEST_COND_STATE_EQUAL",
          "_param": [
            "400811",
            "2"
          ]
        }
      ],
      "priority": 5,
      "initDialog": 40081001,
      "npcId": [
        1071,
        1079
      ],
      "performCfg": "QuestDialogue/AQ/Fontaine_4008/Q400810",
      "heroTalk": "TALK_HERO_MAIN",
      "questId": 4008,
      "assetIndex": 12674607643335816504,
      "prePerformCfg": "",
      "CHAKPMBJNAJ": [
        "[1086_36:4.644,8.548,6.068,0.000,216.769,0.000]",
        "[1086_37:4.369,8.545,5.864,0.000,37.566,0.000]",
        "[1086_38:6.208,8.546,4.493,0.000,309.672,0.000]",
        "[1086_51:3.495,8.606,4.108,0.000,67.316,0.000]",
        "[1086_52:4.038,8.597,3.281,0.000,39.358,0.000]"
      ]
    },
    {
      "id": 400811,
      "beginWay": "TALK_BEGIN_MANUAL",
      "beginCond": [
        {
          "type": "QUEST_COND_STATE_EQUAL",
          "_param": [
            "400812",
            "2"
          ]
        }
      ],
      "priority": 5,
      "initDialog": 40081101,
      "npcId": [
        1077,
        1078
      ],
      "performCfg": "QuestDialogue/AQ/Fontaine_4008/Q400811",
      "heroTalk": "TALK_HERO_MAIN",
      "questId": 4008,
      "assetIndex": 10228067288133069840,
      "prePerformCfg": "",
      "CHAKPMBJNAJ": [
        "[1086_34:-3.853,8.579,-2.436,0.000,111.340,0.000]",
        "[1086_35:-2.793,8.578,-2.751,0.000,289.913,0.000]",
        "[1086_53:-2.439,8.555,-1.552,0.000,217.691,0.000]",
        "[1086_54:-3.041,8.555,-1.181,0.000,194.728,0.000]"
      ]
    },
    {
      "id": 400812,
      "beginWay": "TALK_BEGIN_MANUAL",
      "beginCond": [
        {
          "type": "QUEST_COND_STATE_EQUAL",
          "_param": [
            "400814",
            "2"
          ]
        }
      ],
      "priority": 5,
      "initDialog": 40081201,
      "npcId": [
        1071
      ],
      "performCfg": "QuestDialogue/AQ/Fontaine_4008/Q400812",
      "heroTalk": "TALK_HERO_MAIN",
      "questId": 4008,
      "assetIndex": 407230282376883149,
      "prePerformCfg": "",
      "CHAKPMBJNAJ": [
        "[1086_3:6.635,8.543,-0.555,0.000,279.453,0.000]",
        "[1086_34:-3.853,8.579,-2.436,0.000,111.340,0.000]",
        "[1086_35:-2.793,8.578,-2.751,0.000,289.913,0.000]",
        "[1086_36:4.644,8.548,6.068,0.000,216.769,0.000]",
        "[1086_38:6.208,8.546,4.493,0.000,309.672,0.000]",
        "[1086_4:6.621,8.543,0.673,0.000,259.211,0.000]",
        "[1086_47:10.038,8.547,0.043,0.000,269.621,0.000]",
        "[1086_48:9.975,8.547,1.238,0.000,259.874,0.000]"
      ]
    },
    {
      "id": 400813,
      "beginWay": "TALK_BEGIN_MANUAL",
      "beginCond": [
        {
          "type": "QUEST_COND_STATE_EQUAL",
          "_param": [
            "400815",
            "2"
          ]
        }
      ],
      "priority": 5,
      "initDialog": 40081301,
      "npcId": [
        13477
      ],
      "performCfg": "QuestDialogue/AQ/Fontaine_4008/Q400813",
      "heroTalk": "TALK_HERO_MAIN",
      "questId": 4008,
      "assetIndex": 4168398494495589710,
      "prePerformCfg": "",
      "CHAKPMBJNAJ": [
        "[3_340800162:4581.470,153.710,4629.555,0.000,339.270,0.000]",
        "[3_340800283:4580.796,153.710,4630.261,0.000,189.803,0.000]",
        "[3_340800284:4578.630,153.710,4633.349,0.000,116.218,0.000]",
        "[3_340800285:4578.369,153.710,4632.498,0.000,102.663,0.000]",
        "[3_340800286:4579.979,153.710,4629.631,0.000,48.003,0.000]",
        "[3_340800287:4578.718,153.710,4629.813,0.000,59.347,0.000]"
      ]
    },
    {
      "id": 400815,
      "beginWay": "TALK_BEGIN_MANUAL",
      "beginCond": [
        {
          "type": "QUEST_COND_STATE_EQUAL",
          "_param": [
            "400816",
            "2"
          ]
        }
      ],
      "priority": 5,
      "initDialog": 40081501,
      "npcId": [
        13477
      ],
      "performCfg": "QuestDialogue/AQ/Fontaine_4008/Q400815",
      "heroTalk": "TALK_HERO_MAIN",
      "questId": 4008,
      "assetIndex": 16368538289381994595,
      "prePerformCfg": "",
      "CHAKPMBJNAJ": [
        "[20197_1:149.957,116.908,284.644,0.000,131.306,0.000]",
        "[20197_5:149.255,116.886,285.343]"
      ]
    },
    {
      "id": 400816,
      "beginWay": "TALK_BEGIN_MANUAL",
      "beginCond": [
        {
          "type": "QUEST_COND_STATE_EQUAL",
          "_param": [
            "400817",
            "2"
          ]
        }
      ],
      "priority": 5,
      "initDialog": 40081601,
      "npcId": [
        13477
      ],
      "performCfg": "QuestDialogue/AQ/Fontaine_4008/Q400816",
      "heroTalk": "TALK_HERO_MAIN",
      "questId": 4008,
      "assetIndex": 18029225197010880471,
      "prePerformCfg": "",
      "CHAKPMBJNAJ": [
        "[20197_6:86.718,27.037,184.197,0.000,180.000,0.000]",
        "[20197_7:86.718,27.037,185.310,0.000,180.000,0.000]"
      ]
    },
    {
      "id": 400817,
      "beginWay": "TALK_BEGIN_MANUAL",
      "beginCond": [
        {
          "type": "QUEST_COND_STATE_EQUAL",
          "_param": [
            "400818",
            "2"
          ]
        }
      ],
      "priority": 5,
      "initDialog": 40081701,
      "npcId": [
        13477
      ],
      "performCfg": "QuestDialogue/AQ/Fontaine_4008/Q400817",
      "heroTalk": "TALK_HERO_MAIN",
      "questId": 4008,
      "assetIndex": 15976744585207729278,
      "prePerformCfg": "",
      "CHAKPMBJNAJ": [
        "[20197_8:91.973,16.617,7.032,0.000,99.793,0.000]",
        "[20197_9:96.194,13.267,5.161]"
      ]
    },
    {
      "id": 400818,
      "beginWay": "TALK_BEGIN_MANUAL",
      "beginCond": [
        {
          "type": "QUEST_COND_STATE_EQUAL",
          "_param": [
            "400819",
            "2"
          ]
        }
      ],
      "priority": 5,
      "initDialog": 40081801,
      "npcId": [
        13477
      ],
      "performCfg": "QuestDialogue/AQ/Fontaine_4008/Q400818",
      "heroTalk": "TALK_HERO_MAIN",
      "questId": 4008,
      "assetIndex": 9109009192402032821,
      "prePerformCfg": "",
      "CHAKPMBJNAJ": [
        "[20197_10:87.026,18.426,120.171,0.000,354.111,0.000]",
        "[20197_11:87.762,17.188,117.203]",
        "[20197_12:86.601,21.965,155.957,0.000,176.949,0.000]"
      ]
    },
    {
      "id": 400819,
      "beginWay": "TALK_BEGIN_MANUAL",
      "beginCond": [
        {
          "type": "QUEST_COND_STATE_EQUAL",
          "_param": [
            "400820",
            "2"
          ]
        }
      ],
      "priority": 5,
      "initDialog": 40081901,
      "npcId": [
        1071,
        1074,
        1072
      ],
      "performCfg": "QuestDialogue/AQ/Fontaine_4008/Q400819",
      "heroTalk": "TALK_HERO_MAIN",
      "questId": 4008,
      "assetIndex": 420993173657458243,
      "prePerformCfg": "",
      "CHAKPMBJNAJ": [
        "[3_340800162:4581.470,153.710,4629.555,0.000,339.270,0.000]",
        "[3_340800283:4580.796,153.710,4630.261,0.000,189.803,0.000]",
        "[3_340800284:4578.630,153.710,4633.349,0.000,116.218,0.000]",
        "[3_340800285:4578.369,153.710,4632.498,0.000,102.663,0.000]",
        "[3_340800286:4579.979,153.710,4629.631,0.000,48.003,0.000]",
        "[3_340800287:4578.718,153.710,4629.813,0.000,59.347,0.000]"
      ]
    },
    {
      "id": 400821,
      "beginWay": "TALK_BEGIN_MANUAL",
      "beginCondComb": "LOGIC_A_AND_ETCOR",
      "beginCond": [
        {
          "type": "QUEST_COND_STATE_EQUAL",
          "_param": [
            "400811",
            "3"
          ]
        },
        {
          "type": "QUEST_COND_STATE_EQUAL",
          "_param": [
            "400813",
            "0"
          ]
        },
        {
          "type": "QUEST_COND_STATE_EQUAL",
          "_param": [
            "400813",
            "2"
          ]
        }
      ],
      "priority": 5,
      "initDialog": 40082101,
      "npcId": [
        1071
      ],
      "performCfg": "QuestDialogue/AQ/Fontaine_4008/Q400821",
      "heroTalk": "TALK_HERO_MAIN",
      "questId": 4008,
      "assetIndex": 14574897205254909083,
      "prePerformCfg": ""
    },
    {
      "id": 400822,
      "beginWay": "TALK_BEGIN_MANUAL",
      "beginCondComb": "LOGIC_A_AND_ETCOR",
      "beginCond": [
        {
          "type": "QUEST_COND_STATE_EQUAL",
          "_param": [
            "400812",
            "3"
          ]
        },
        {
          "type": "QUEST_COND_STATE_EQUAL",
          "_param": [
            "400813",
            "0"
          ]
        },
        {
          "type": "QUEST_COND_STATE_EQUAL",
          "_param": [
            "400813",
            "2"
          ]
        },
        {
          "type": "QUEST_COND_STATE_EQUAL",
          "_param": [
            "400815",
            "2"
          ]
        },
        {
          "type": "QUEST_COND_STATE_EQUAL",
          "_param": [
            "400821",
            "2"
          ]
        },
        {
          "type": "QUEST_COND_STATE_EQUAL",
          "_param": [
            "400820",
            "2"
          ]
        }
      ],
      "priority": 5,
      "initDialog": 40082201,
      "npcId": [
        1078,
        1077
      ],
      "performCfg": "QuestDialogue/AQ/Fontaine_4008/Q400822",
      "heroTalk": "TALK_HERO_MAIN",
      "questId": 4008,
      "assetIndex": 254110634335449422,
      "prePerformCfg": ""
    },
    {
      "id": 400823,
      "beginWay": "TALK_BEGIN_MANUAL",
      "beginCond": [
        {
          "type": "QUEST_COND_STATE_EQUAL",
          "_param": [
            "400821",
            "2"
          ]
        }
      ],
      "priority": 5,
      "initDialog": 40081313,
      "npcId": [
        1074
      ],
      "performCfg": "QuestDialogue/AQ/Fontaine_4008/Q400823",
      "heroTalk": "TALK_HERO_MAIN",
      "questId": 4008,
      "assetIndex": 6812104211904980864,
      "prePerformCfg": "",
      "CHAKPMBJNAJ": [
        "[3_340800162:4581.470,153.710,4629.555,0.000,339.270,0.000]",
        "[3_340800284:4578.630,153.710,4633.349,0.000,116.218,0.000]",
        "[3_340800286:4579.979,153.710,4629.631,0.000,48.003,0.000]",
        "[3_340800287:4578.718,153.710,4629.813,0.000,59.347,0.000]"
      ]
    }
  ],
  "preloadLuaList": [
    6020105062400028654,
    13701806720651105809,
    9959413388529127400,
    5540542875946742148,
    5338790484610806388,
    6353375229910431330,
    688838786706288615,
    1453559468739780525,
    2431851590029148780,
    12600001702352887092,
    6395108941942253415,
    11129798095938172898,
    6924914284918761930,
    4960060295225884683,
    1295978415717268154,
    9156277947692098498,
    6084575767933591326
  ],
  "forcePreloadLuaList": [
    16084120128487392180
  ],
  "freeStyleDic": {
    "1079": [
      1342
    ],
    "1074": [
      8010
    ],
    "1078": [
      1190
    ],
    "1077": [
      1172
    ]
  },
  "dialogList": [
    {
      "id": 40080925,
      "talkRole": {
        "type": "TALK_ROLE_NPC",
        "_id": "1077"
      },
      "talkContentTextMapHash": 325777882,
      "talkAssetPath": "",
      "talkAssetPathAlter": "",
      "talkAudioName": "",
      "actionBefore": "",
      "actionWhile": "",
      "actionAfter": "",
      "optionIcon": "",
      "iconPath": ""
    },
    {
      "id": 40089922,
      "talkRole": {
        "type": "TALK_ROLE_BLACK_SCREEN",
        "_id": ""
      },
      "talkContentTextMapHash": 4174277906,
      "talkAssetPath": "",
      "talkAssetPathAlter": "",
      "talkAudioName": "",
      "actionBefore": "",
      "actionWhile": "",
      "actionAfter": "",
      "optionIcon": "",
      "iconPath": ""
    }
  ]
}