{
  "id": 40093,
  "series": 40092,
  "damageRatio": "EQ",
  "descTextMapHash": 9103135,
  "EKEKACCODOE": 3792937470,
  "luaPath": "Actor/Quest/EQ40093",
  "suggestTrackMainQuestList": [
    40096
  ],
  "rewardIdList": [
    140093
  ],
  "chapterId": 10109,
  "showRedPoint": true,
  "activityId": 2019,
  "subQuests": [
    {
      "subId": 4009301,
      "mainId": 40093,
      "order": 1,
      "descTextMapHash": 2413883196,
      "finishCond": [
        {
          "damageRatio": "QUEST_CONTENT_GAME_TIME_TICK",
          "param": [
            2,
            0
          ]
        }
      ],
      "guide": {
        "MLAHIFLGIGJ": ""
      },
      "guideHint": {
        "param1": ""
      },
      "isRewind": true,
      "versionBegin": "",
      "versionEnd": ""
    },
    {
      "subId": 4009302,
      "mainId": 40093,
      "order": 2,
      "descTextMapHash": 2541216876,
      "JIFODJPFKDF": [
        1100902
      ],
      "finishCond": [
        {
          "damageRatio": "QUEST_CONTENT_COMPLETE_TALK",
          "param": [
            4009302,
            0
          ]
        }
      ],
      "guide": {
        "damageRatio": "QUEST_GUIDE_NPC",
        "param": [
          "1015"
        ],
        "guideScene": 3,
        "guideStyle": "QUEST_GUIDE_STYLE_TARGET",
        "guideLayer": "QUEST_GUIDE_LAYER_SCENE",
        "MLAHIFLGIGJ": ""
      },
      "guideHint": {
        "param1": ""
      },
      "isRewind": true,
      "versionBegin": "",
      "versionEnd": ""
    },
    {
      "subId": 4009303,
      "mainId": 40093,
      "order": 3,
      "descTextMapHash": 2544335596,
      "JIFODJPFKDF": [
        308
      ],
      "finishCond": [
        {
          "damageRatio": "QUEST_CONTENT_COMPLETE_TALK",
          "param": [
            4009303,
            0
          ]
        }
      ],
      "guide": {
        "damageRatio": "QUEST_GUIDE_LOCATION",
        "param": [
          "Q4009303_T4009303_N1015"
        ],
        "guideScene": 3,
        "guideStyle": "QUEST_GUIDE_STYLE_POINT",
        "guideLayer": "QUEST_GUIDE_LAYER_SCENE",
        "MLAHIFLGIGJ": ""
      },
      "guideHint": {
        "param1": ""
      },
      "isRewind": true,
      "versionBegin": "",
      "versionEnd": ""
    },
    {
      "subId": 4009304,
      "mainId": 40093,
      "order": 4,
      "descTextMapHash": 1816757244,
      "JIFODJPFKDF": [
        308
      ],
      "finishCond": [
        {
          "damageRatio": "QUEST_CONTENT_COMPLETE_TALK",
          "param": [
            4009304,
            0
          ]
        }
      ],
      "guide": {
        "damageRatio": "QUEST_GUIDE_LOCATION",
        "autoGuide": "QUEST_GUIDE_AUTO_ENABLE",
        "param": [
          "Q4009304_T4009304_N10000005",
          "20"
        ],
        "guideScene": 3,
        "guideStyle": "QUEST_GUIDE_STYLE_TARGET",
        "guideLayer": "QUEST_GUIDE_LAYER_SCENE",
        "MLAHIFLGIGJ": ""
      },
      "guideHint": {
        "param1": ""
      },
      "isRewind": true,
      "versionBegin": "",
      "versionEnd": ""
    },
    {
      "subId": 4009305,
      "mainId": 40093,
      "order": 5,
      "descTextMapHash": 1297353860,
      "finishCond": [
        {
          "damageRatio": "QUEST_CONTENT_COMPLETE_TALK",
          "param": [
            4009305,
            0
          ]
        }
      ],
      "guide": {
        "damageRatio": "QUEST_GUIDE_LOCATION",
        "param": [
          "Q4009305_T4009305_N1045"
        ],
        "guideScene": 3,
        "guideStyle": "QUEST_GUIDE_STYLE_POINT",
        "guideLayer": "QUEST_GUIDE_LAYER_SCENE",
        "MLAHIFLGIGJ": ""
      },
      "guideHint": {
        "param1": ""
      },
      "isRewind": true,
      "versionBegin": "",
      "versionEnd": ""
    },
    {
      "subId": 4009306,
      "mainId": 40093,
      "order": 6,
      "descTextMapHash": 3712254116,
      "finishCond": [
        {
          "damageRatio": "QUEST_CONTENT_COMPLETE_TALK",
          "param": [
            4009306,
            0
          ]
        }
      ],
      "guide": {
        "damageRatio": "QUEST_GUIDE_LOCATION",
        "param": [
          "Q4009306_T4009306_N10000005"
        ],
        "guideScene": 3,
        "guideStyle": "QUEST_GUIDE_STYLE_POINT",
        "guideLayer": "QUEST_GUIDE_LAYER_SCENE",
        "MLAHIFLGIGJ": ""
      },
      "guideHint": {
        "param1": ""
      },
      "isRewind": true,
      "versionBegin": "",
      "versionEnd": ""
    },
    {
      "subId": 4009307,
      "mainId": 40093,
      "order": 7,
      "descTextMapHash": 3234677444,
      "JIFODJPFKDF": [
        301711
      ],
      "finishCond": [
        {
          "damageRatio": "QUEST_CONTENT_COMPLETE_TALK",
          "param": [
            4009307,
            0
          ]
        }
      ],
      "guide": {
        "damageRatio": "QUEST_GUIDE_NPC",
        "param": [
          "2093"
        ],
        "guideScene": 3,
        "guideStyle": "QUEST_GUIDE_STYLE_TARGET",
        "guideLayer": "QUEST_GUIDE_LAYER_SCENE",
        "MLAHIFLGIGJ": ""
      },
      "guideHint": {
        "param1": ""
      },
      "isRewind": true,
      "versionBegin": "",
      "versionEnd": ""
    },
    {
      "subId": 4009308,
      "mainId": 40093,
      "order": 8,
      "descTextMapHash": 1353346436,
      "JIFODJPFKDF": [
        1101901
      ],
      "finishCond": [
        {
          "damageRatio": "QUEST_CONTENT_COMPLETE_TALK",
          "param": [
            4009308,
            0
          ]
        }
      ],
      "guide": {
        "damageRatio": "QUEST_GUIDE_NPC",
        "param": [
          "12966"
        ],
        "guideScene": 3,
        "guideStyle": "QUEST_GUIDE_STYLE_TARGET",
        "guideLayer": "QUEST_GUIDE_LAYER_SCENE",
        "MLAHIFLGIGJ": ""
      },
      "guideHint": {
        "param1": ""
      },
      "isRewind": true,
      "versionBegin": "",
      "versionEnd": ""
    },
    {
      "subId": 4009309,
      "mainId": 40093,
      "order": 9,
      "descTextMapHash": 4257460724,
      "JIFODJPFKDF": [
        40014
      ],
      "finishCond": [
        {
          "damageRatio": "QUEST_CONTENT_COMPLETE_TALK",
          "param": [
            4009309,
            0
          ]
        }
      ],
      "guide": {
        "damageRatio": "QUEST_GUIDE_NPC",
        "param": [
          "1042"
        ],
        "guideScene": 3,
        "guideStyle": "QUEST_GUIDE_STYLE_TARGET",
        "guideLayer": "QUEST_GUIDE_LAYER_SCENE",
        "MLAHIFLGIGJ": ""
      },
      "guideHint": {
        "param1": ""
      },
      "isRewind": true,
      "versionBegin": "",
      "versionEnd": ""
    },
    {
      "subId": 4009310,
      "mainId": 40093,
      "order": 10,
      "descTextMapHash": 2827536892,
      "JIFODJPFKDF": [
        1101901,
        40014
      ],
      "finishCond": [
        {
          "damageRatio": "QUEST_CONTENT_COMPLETE_TALK",
          "param": [
            4009310,
            0
          ]
        }
      ],
      "guide": {
        "damageRatio": "QUEST_GUIDE_LOCATION",
        "param": [
          "Q4009310_T4009310_N10286",
          "20"
        ],
        "guideScene": 3,
        "guideStyle": "QUEST_GUIDE_STYLE_TARGET",
        "guideLayer": "QUEST_GUIDE_LAYER_SCENE",
        "MLAHIFLGIGJ": ""
      },
      "guideHint": {
        "param1": ""
      },
      "isRewind": true,
      "finishExec": [
        {
          "damageRatio": "QUEST_EXEC_DEL_PACK_ITEM",
          "param": [
            "120124",
            "3"
          ]
        }
      ],
      "versionBegin": "",
      "versionEnd": ""
    },
    {
      "subId": 4009311,
      "mainId": 40093,
      "order": 11,
      "descTextMapHash": 715117780,
      "JIFODJPFKDF": [
        1101901
      ],
      "finishCond": [
        {
          "damageRatio": "QUEST_CONTENT_COMPLETE_TALK",
          "param": [
            4009311,
            0
          ]
        }
      ],
      "guide": {
        "damageRatio": "QUEST_GUIDE_LOCATION",
        "param": [
          "Q4009311_T4009311_N1016"
        ],
        "guideScene": 3,
        "guideStyle": "QUEST_GUIDE_STYLE_POINT",
        "guideLayer": "QUEST_GUIDE_LAYER_SCENE",
        "MLAHIFLGIGJ": ""
      },
      "guideHint": {
        "param1": ""
      },
      "finishParent": true,
      "isRewind": true,
      "finishExec": [
        {
          "damageRatio": "QUEST_EXEC_UNREGISTER_DYNAMIC_GROUP",
          "param": [
            "133103666"
          ]
        },
        {
          "damageRatio": "QUEST_EXEC_SET_QUEST_GLOBAL_VAR",
          "param": [
            "4009301",
            "1"
          ]
        }
      ],
      "versionBegin": "",
      "versionEnd": ""
    }
  ],
  "talks": [
    {
      "id": 4009302,
      "beginWay": "TALK_BEGIN_MANUAL",
      "beginCond": [
        {
          "type": "QUEST_COND_STATE_EQUAL",
          "_param": [
            "4009302",
            "2"
          ]
        }
      ],
      "priority": 5,
      "initDialog": 400930201,
      "npcId": [
        1015
      ],
      "performCfg": "QuestDialogue/EQ/Sealamp3_40093/Q4009302",
      "heroTalk": "TALK_HERO_MAIN",
      "questId": 40093,
      "assetIndex": 9038960975920471915,
      "prePerformCfg": ""
    },
    {
      "id": 4009303,
      "beginWay": "TALK_BEGIN_MANUAL",
      "beginCond": [
        {
          "type": "QUEST_COND_STATE_EQUAL",
          "_param": [
            "4009303",
            "2"
          ]
        }
      ],
      "priority": 5,
      "initDialog": 400930301,
      "npcId": [
        1015
      ],
      "performCfg": "QuestDialogue/EQ/Sealamp3_40093/Q4009303",
      "heroTalk": "TALK_HERO_MAIN",
      "questId": 40093,
      "assetIndex": 14683899328304803218,
      "prePerformCfg": ""
    },
    {
      "id": 4009304,
      "beginWay": "TALK_BEGIN_AUTO",
      "beginCond": [
        {
          "type": "QUEST_COND_STATE_EQUAL",
          "_param": [
            "4009304",
            "2"
          ]
        }
      ],
      "priority": 5,
      "initDialog": 400930401,
      "npcId": [
        10204,
        1045,
        13097
      ],
      "performCfg": "QuestDialogue/EQ/Sealamp3_40093/Q4009304",
      "heroTalk": "TALK_HERO_MAIN",
      "questId": 40093,
      "assetIndex": 7390011639798079473,
      "prePerformCfg": ""
    },
    {
      "id": 4009305,
      "beginWay": "TALK_BEGIN_MANUAL",
      "beginCond": [
        {
          "type": "QUEST_COND_STATE_EQUAL",
          "_param": [
            "4009305",
            "2"
          ]
        }
      ],
      "priority": 5,
      "initDialog": 400930501,
      "npcId": [
        1045,
        1015,
        10285
      ],
      "performCfg": "QuestDialogue/EQ/Sealamp3_40093/Q4009305",
      "heroTalk": "TALK_HERO_MAIN",
      "questId": 40093,
      "assetIndex": 5678714999746821936,
      "prePerformCfg": ""
    },
    {
      "id": 4009306,
      "beginWay": "TALK_BEGIN_MANUAL",
      "beginCond": [
        {
          "type": "QUEST_COND_STATE_EQUAL",
          "_param": [
            "4009306",
            "2"
          ]
        }
      ],
      "priority": 5,
      "initDialog": 400930601,
      "npcId": [
        10285,
        1015
      ],
      "performCfg": "QuestDialogue/EQ/Sealamp3_40093/Q4009306",
      "heroTalk": "TALK_HERO_MAIN",
      "questId": 40093,
      "assetIndex": 10864862454222079287,
      "prePerformCfg": ""
    },
    {
      "id": 4009307,
      "beginWay": "TALK_BEGIN_MANUAL",
      "beginCond": [
        {
          "type": "QUEST_COND_STATE_EQUAL",
          "_param": [
            "4009307",
            "2"
          ]
        }
      ],
      "priority": 5,
      "initDialog": 400930701,
      "npcId": [
        10285,
        2093,
        1015,
        1030
      ],
      "performCfg": "QuestDialogue/EQ/Sealamp3_40093/Q4009307",
      "heroTalk": "TALK_HERO_MAIN",
      "questId": 40093,
      "assetIndex": 6809006826603962049,
      "prePerformCfg": ""
    },
    {
      "id": 4009308,
      "beginWay": "TALK_BEGIN_MANUAL",
      "beginCond": [
        {
          "type": "QUEST_COND_STATE_EQUAL",
          "_param": [
            "4009308",
            "2"
          ]
        }
      ],
      "priority": 5,
      "initDialog": 400930801,
      "npcId": [
        1016,
        12966
      ],
      "performCfg": "QuestDialogue/EQ/Sealamp3_40093/Q4009308",
      "heroTalk": "TALK_HERO_MAIN",
      "questId": 40093,
      "assetIndex": 10415983292561335797,
      "prePerformCfg": ""
    },
    {
      "id": 4009309,
      "beginWay": "TALK_BEGIN_MANUAL",
      "beginCond": [
        {
          "type": "QUEST_COND_STATE_EQUAL",
          "_param": [
            "4009309",
            "2"
          ]
        }
      ],
      "priority": 5,
      "initDialog": 400930901,
      "npcId": [
        1021,
        1046,
        1042
      ],
      "performCfg": "QuestDialogue/EQ/Sealamp3_40093/Q4009309",
      "heroTalk": "TALK_HERO_MAIN",
      "questId": 40093,
      "assetIndex": 14716027711523458933,
      "prePerformCfg": "",
      "lockGameTime": true
    },
    {
      "id": 4009310,
      "beginWay": "TALK_BEGIN_MANUAL",
      "beginCond": [
        {
          "type": "QUEST_COND_STATE_EQUAL",
          "_param": [
            "4009310",
            "2"
          ]
        }
      ],
      "priority": 5,
      "initDialog": 400931001,
      "npcId": [
        10286,
        10232,
        10284
      ],
      "performCfg": "QuestDialogue/EQ/Sealamp3_40093/Q4009310",
      "heroTalk": "TALK_HERO_MAIN",
      "questId": 40093,
      "assetIndex": 8927705684265541039,
      "prePerformCfg": ""
    },
    {
      "id": 4009311,
      "beginWay": "TALK_BEGIN_MANUAL",
      "beginCond": [
        {
          "type": "QUEST_COND_STATE_EQUAL",
          "_param": [
            "4009311",
            "2"
          ]
        }
      ],
      "priority": 5,
      "initDialog": 400931101,
      "npcId": [
        1016
      ],
      "performCfg": "QuestDialogue/EQ/Sealamp3_40093/Q4009311",
      "heroTalk": "TALK_HERO_MAIN",
      "questId": 40093,
      "assetIndex": 9257012671695915182,
      "prePerformCfg": ""
    },
    {
      "id": 4009317,
      "beginWay": "TALK_BEGIN_MANUAL",
      "beginCond": [
        {
          "type": "QUEST_COND_STATE_EQUAL",
          "_param": [
            "4009307",
            "3"
          ]
        }
      ],
      "priority": 5,
      "initDialog": 400931701,
      "npcId": [
        10285,
        2093
      ],
      "performCfg": "QuestDialogue/EQ/Sealamp3_40093/Q4009317",
      "heroTalk": "TALK_HERO_MAIN",
      "questId": 40093,
      "assetIndex": 12450683472050088643,
      "prePerformCfg": ""
    },
    {
      "id": 4009321,
      "beginWay": "TALK_BEGIN_MANUAL",
      "beginCond": [
        {
          "type": "QUEST_COND_STATE_EQUAL",
          "_param": [
            "4009310",
            "3"
          ]
        }
      ],
      "priority": 5,
      "initDialog": 400932101,
      "npcId": [
        10232
      ],
      "performCfg": "QuestDialogue/EQ/Sealamp3_40093/Q4009321",
      "heroTalk": "TALK_HERO_MAIN",
      "questId": 40093,
      "assetIndex": 10409281852191266218,
      "prePerformCfg": ""
    },
    {
      "id": 4009322,
      "beginWay": "TALK_BEGIN_MANUAL",
      "beginCond": [
        {
          "type": "QUEST_COND_STATE_EQUAL",
          "_param": [
            "4009310",
            "3"
          ]
        }
      ],
      "priority": 5,
      "initDialog": 400932201,
      "npcId": [
        10284,
        10286
      ],
      "performCfg": "QuestDialogue/EQ/Sealamp3_40093/Q4009322",
      "heroTalk": "TALK_HERO_MAIN",
      "questId": 40093,
      "assetIndex": 143999478297972065,
      "prePerformCfg": ""
    },
    {
      "id": 4009323,
      "beginWay": "TALK_BEGIN_MANUAL",
      "beginCond": [
        {
          "type": "QUEST_COND_STATE_EQUAL",
          "_param": [
            "4009309",
            "3"
          ]
        }
      ],
      "priority": 5,
      "initDialog": 400932301,
      "npcId": [
        1046,
        1021,
        1042
      ],
      "performCfg": "QuestDialogue/EQ/Sealamp3_40093/Q4009323",
      "heroTalk": "TALK_HERO_MAIN",
      "questId": 40093,
      "assetIndex": 17367718541979518762,
      "prePerformCfg": ""
    }
  ],
  "preloadLuaList": [
    9493630457533182261
  ],
  "forcePreloadLuaList": [
    5445350253910946071
  ],
  "dialogList": [
    {
      "id": 400939902,
      "talkRole": {
        "type": "TALK_ROLE_NPC",
        "_id": "1005"
      },
      "talkContentTextMapHash": 1354970666,
      "talkAssetPath": "",
      "talkAssetPathAlter": "",
      "talkAudioName": "",
      "actionBefore": "",
      "actionWhile": "",
      "actionAfter": "",
      "optionIcon": "",
      "iconPath": ""
    }
  ]
}